{"count": 41735, "next": "https://api.acmi.net.au/works/?page=4115", "previous": "https://api.acmi.net.au/works/?page=4113", "results": [{"id": 118931, "acmi_id": "R0001883", "title": "[The Coca Cola kid : publicity kit]", "title_annotation": "", "slug": "the-coca-cola-kid-publicity-kit", "creator_credit": "", "credit_line": "", "headline_credit": "", "video_links": [], "record_type": "work", "type": "Object", "is_on_display": false, "last_on_display_place": null, "last_on_display_date": null, "is_context_indigenous": false, "material_description": "", "unpublished": false, "external": false, "first_production_date": null, "commissioned": false, "public_domain": false, "external_references": [], "brief_description": "<p>Publicity kit for the production The Coca Cola Kid (1985), including 20 B&amp;W Stills (Large), 2 B&amp;W Stills (Small), 8 35mm Colour Transparencies, 2 Press Kit/ Reviews, 1 Promo Flyer, 1 B&amp;W Bromide</p>", "constellations_primary": [], "constellations_other": [], "recommendations": [], "creator_credit_for_label": "", "headline_credit_for_label": "", "title_for_label": "<p>[The Coca Cola kid : publicity kit]</p>", "description": "<p>Publicity kit for the production The Coca Cola Kid (1985), including 20 B&amp;W Stills (Large), 2 B&amp;W Stills (Small), 8 35mm Colour Transparencies, 2 Press Kit/ Reviews, 1 Promo Flyer, 1 B&amp;W Bromide</p>", "description_for_label": ["<p>Publicity kit for the production The Coca Cola Kid (1985), including 20 B&amp;W Stills (Large), 2 B&amp;W Stills (Small), 8 35mm Colour Transparencies, 2 Press Kit/ Reviews, 1 Promo Flyer, 1 B&amp;W Bromide</p>"], "credit_line_for_label": "", "details": [{"label": "Subject category", "display_values": ["Documentation"]}, {"label": "Object Types", "display_values": ["Publicity kit"]}], "stats": {"tap_count": 0}, "links": [], "creators_primary": [], "creators_other": [], "media_note": null, "holdings": [], "part_of": null, "parts": [], "part_siblings": [], "group": null, "group_works": [], "group_siblings": [], "source": {"name": "Vernon", "slug": "vernon"}, "source_identifier": "149856", "eaas_environment_id": null, "production_places": [], "production_dates": [], "labels": [58418]}, {"id": 118485, "acmi_id": "R0001097", "title": "[The City of lost children : publicity kit]", "title_annotation": "", "slug": "the-city-of-lost-children-publicity-kit", "creator_credit": "", "credit_line": "", "headline_credit": "", "video_links": [], "record_type": "work", "type": "Object", "is_on_display": false, "last_on_display_place": null, "last_on_display_date": null, "is_context_indigenous": false, "material_description": "", "unpublished": false, "external": false, "first_production_date": null, "commissioned": false, "public_domain": false, "external_references": [], "brief_description": "<p>Publicity kit for the production The City of Lost Children (1995), including 3 B&amp;W Stills (Small), 3 Colour Stills (Small)</p>", "constellations_primary": [], "constellations_other": [], "recommendations": [], "creator_credit_for_label": "", "headline_credit_for_label": "", "title_for_label": "<p>[The City of lost children : publicity kit]</p>", "description": "<p>Publicity kit for the production The City of Lost Children (1995), including 3 B&amp;W Stills (Small), 3 Colour Stills (Small)</p>", "description_for_label": ["<p>Publicity kit for the production The City of Lost Children (1995), including 3 B&amp;W Stills (Small), 3 Colour Stills (Small)</p>"], "credit_line_for_label": "", "details": [{"label": "Subject category", "display_values": ["Documentation"]}, {"label": "Object Types", "display_values": ["Publicity kit"]}], "stats": {"tap_count": 0}, "links": [], "creators_primary": [], "creators_other": [], "media_note": null, "holdings": [], "part_of": null, "parts": [], "part_siblings": [], "group": null, "group_works": [], "group_siblings": [], "source": {"name": "Vernon", "slug": "vernon"}, "source_identifier": "149069", "eaas_environment_id": null, "production_places": [], "production_dates": [], "labels": [57981]}, {"id": 118508, "acmi_id": "R0001121", "title": "[The Chain reaction : publicity kit]", "title_annotation": "", "slug": "the-chain-reaction-publicity-kit", "creator_credit": "", "credit_line": "", "headline_credit": "", "video_links": [], "record_type": "work", "type": "Object", "is_on_display": false, "last_on_display_place": null, "last_on_display_date": null, "is_context_indigenous": false, "material_description": "", "unpublished": false, "external": false, "first_production_date": null, "commissioned": false, "public_domain": false, "external_references": [], "brief_description": "<p>Publicity kit for the production The Chain Reaction (1980), including 26 B&amp;W Stills (Large), 1 Colour Still (Large), 4 Colour Stills (Small), 2 35mm Colour Transparencies, 2 Colour Transparencies (Large)</p>", "constellations_primary": [], "constellations_other": [], "recommendations": [], "creator_credit_for_label": "", "headline_credit_for_label": "", "title_for_label": "<p>[The Chain reaction : publicity kit]</p>", "description": "<p>Publicity kit for the production The Chain Reaction (1980), including 26 B&amp;W Stills (Large), 1 Colour Still (Large), 4 Colour Stills (Small), 2 35mm Colour Transparencies, 2 Colour Transparencies (Large)</p>", "description_for_label": ["<p>Publicity kit for the production The Chain Reaction (1980), including 26 B&amp;W Stills (Large), 1 Colour Still (Large), 4 Colour Stills (Small), 2 35mm Colour Transparencies, 2 Colour Transparencies (Large)</p>"], "credit_line_for_label": "", "details": [{"label": "Subject category", "display_values": ["Documentation"]}, {"label": "Object Types", "display_values": ["Publicity kit"]}], "stats": {"tap_count": 0}, "links": [], "creators_primary": [], "creators_other": [], "media_note": null, "holdings": [], "part_of": null, "parts": [], "part_siblings": [], "group": null, "group_works": [], "group_siblings": [], "source": {"name": "Vernon", "slug": "vernon"}, "source_identifier": "149094", "eaas_environment_id": null, "production_places": [], "production_dates": [], "labels": [58003]}, {"id": 118461, "acmi_id": "R0001070", "title": "[The Castle : publicity kit]", "title_annotation": "", "slug": "the-castle-publicity-kit", "creator_credit": "", "credit_line": "", "headline_credit": "", "video_links": [], "record_type": "work", "type": "Object", "is_on_display": false, "last_on_display_place": null, "last_on_display_date": null, "is_context_indigenous": false, "material_description": "", "unpublished": false, "external": false, "first_production_date": null, "commissioned": false, "public_domain": false, "external_references": [], "brief_description": "<p>Publicity kit for the production The Castle (1999), including 6 35mm Colour Transparencies, 1 Press Kit/ Review</p>", "constellations_primary": [], "constellations_other": [], "recommendations": [], "creator_credit_for_label": "", "headline_credit_for_label": "", "title_for_label": "<p>[The Castle : publicity kit]</p>", "description": "<p>Publicity kit for the production The Castle (1999), including 6 35mm Colour Transparencies, 1 Press Kit/ Review</p>", "description_for_label": ["<p>Publicity kit for the production The Castle (1999), including 6 35mm Colour Transparencies, 1 Press Kit/ Review</p>"], "credit_line_for_label": "", "details": [{"label": "Subject category", "display_values": ["Documentation"]}, {"label": "Object Types", "display_values": ["Publicity kit"]}], "stats": {"tap_count": 1}, "links": [], "creators_primary": [], "creators_other": [], "media_note": null, "holdings": [], "part_of": null, "parts": [], "part_siblings": [], "group": null, "group_works": [], "group_siblings": [], "source": {"name": "Vernon", "slug": "vernon"}, "source_identifier": "149042", "eaas_environment_id": null, "production_places": [], "production_dates": [], "labels": [57959]}, {"id": 100068, "acmi_id": "B053225", "title": "[The Castle : poster]", "title_annotation": "", "slug": "the-castle-poster", "creator_credit": "", "credit_line": "", "headline_credit": "", "video_links": [], "record_type": "work", "type": "Object", "is_on_display": false, "last_on_display_place": null, "last_on_display_date": null, "is_context_indigenous": false, "material_description": "", "unpublished": false, "external": false, "first_production_date": null, "commissioned": false, "public_domain": false, "external_references": [], "brief_description": "", "constellations_primary": [], "constellations_other": [], "recommendations": [], "creator_credit_for_label": "", "headline_credit_for_label": "", "title_for_label": "<p>[The Castle : poster]</p>", "description": "", "description_for_label": [], "credit_line_for_label": "", "details": [{"label": "Measurements", "display_values": ["1000 x 695mm"]}, {"label": "Object Types", "display_values": ["Poster/Pictorial"]}], "stats": {"tap_count": 0}, "links": [], "creators_primary": [], "creators_other": [], "media_note": null, "holdings": [], "part_of": null, "parts": [], "part_siblings": [], "group": null, "group_works": [], "group_siblings": [], "source": {"name": "Vernon", "slug": "vernon"}, "source_identifier": "148442", "eaas_environment_id": null, "production_places": [], "production_dates": [], "labels": [39564]}, {"id": 119032, "acmi_id": "R0002103", "title": "[The Broken melody : publicity kit]", "title_annotation": "", "slug": "the-broken-melody-publicity-kit", "creator_credit": "", "credit_line": "", "headline_credit": "", "video_links": [], "record_type": "work", "type": "Object", "is_on_display": false, "last_on_display_place": null, "last_on_display_date": null, "is_context_indigenous": false, "material_description": "", "unpublished": false, "external": false, "first_production_date": null, "commissioned": false, "public_domain": false, "external_references": [], "brief_description": "<p>Publicity kit for the production The Broken Melody (1937), including 1 B&amp;W Still (Small)</p>", "constellations_primary": [], "constellations_other": [], "recommendations": [], "creator_credit_for_label": "", "headline_credit_for_label": "", "title_for_label": "<p>[The Broken melody : publicity kit]</p>", "description": "<p>Publicity kit for the production The Broken Melody (1937), including 1 B&amp;W Still (Small)</p>", "description_for_label": ["<p>Publicity kit for the production The Broken Melody (1937), including 1 B&amp;W Still (Small)</p>"], "credit_line_for_label": "", "details": [{"label": "Subject category", "display_values": ["Documentation"]}, {"label": "Object Types", "display_values": ["Publicity kit"]}], "stats": {"tap_count": 0}, "links": [], "creators_primary": [], "creators_other": [], "media_note": null, "holdings": [], "part_of": null, "parts": [], "part_siblings": [], "group": null, "group_works": [], "group_siblings": [], "source": {"name": "Vernon", "slug": "vernon"}, "source_identifier": "150168", "eaas_environment_id": null, "production_places": [], "production_dates": [], "labels": [58509]}, {"id": 118897, "acmi_id": "R0001737", "title": "[The Breaking of the drought : publicity kit]", "title_annotation": "", "slug": "the-breaking-of-the-drought-publicity-kit", "creator_credit": "", "credit_line": "", "headline_credit": "", "video_links": [], "record_type": "work", "type": "Object", "is_on_display": false, "last_on_display_place": null, "last_on_display_date": null, "is_context_indigenous": false, "material_description": "", "unpublished": false, "external": false, "first_production_date": null, "commissioned": false, "public_domain": false, "external_references": [], "brief_description": "<p>Publicity kit for the production The Breaking of the Drought (1920), including 2 B&amp;W Stills (Large)</p>", "constellations_primary": [], "constellations_other": [], "recommendations": [], "creator_credit_for_label": "", "headline_credit_for_label": "", "title_for_label": "<p>[The Breaking of the drought : publicity kit]</p>", "description": "<p>Publicity kit for the production The Breaking of the Drought (1920), including 2 B&amp;W Stills (Large)</p>", "description_for_label": ["<p>Publicity kit for the production The Breaking of the Drought (1920), including 2 B&amp;W Stills (Large)</p>"], "credit_line_for_label": "", "details": [{"label": "Subject category", "display_values": ["Documentation"]}, {"label": "Object Types", "display_values": ["Publicity kit"]}], "stats": {"tap_count": 0}, "links": [], "creators_primary": [], "creators_other": [], "media_note": null, "holdings": [], "part_of": null, "parts": [], "part_siblings": [], "group": null, "group_works": [], "group_siblings": [], "source": {"name": "Vernon", "slug": "vernon"}, "source_identifier": "149711", "eaas_environment_id": null, "production_places": [], "production_dates": [], "labels": [58384]}, {"id": 119047, "acmi_id": "R0002118", "title": "[The Breaker : publicity kit]", "title_annotation": "", "slug": "the-breaker-publicity-kit", "creator_credit": "", "credit_line": "", "headline_credit": "", "video_links": [], "record_type": "work", "type": "Object", "is_on_display": false, "last_on_display_place": null, "last_on_display_date": null, "is_context_indigenous": false, "material_description": "", "unpublished": false, "external": false, "first_production_date": null, "commissioned": false, "public_domain": false, "external_references": [], "brief_description": "<p>Publicity kit for the production The Breaker (1975), including 1 B&amp;W Still (Small)</p>", "constellations_primary": [], "constellations_other": [], "recommendations": [], "creator_credit_for_label": "", "headline_credit_for_label": "", "title_for_label": "<p>[The Breaker : publicity kit]</p>", "description": "<p>Publicity kit for the production The Breaker (1975), including 1 B&amp;W Still (Small)</p>", "description_for_label": ["<p>Publicity kit for the production The Breaker (1975), including 1 B&amp;W Still (Small)</p>"], "credit_line_for_label": "", "details": [{"label": "Subject category", "display_values": ["Documentation"]}, {"label": "Object Types", "display_values": ["Publicity kit"]}], "stats": {"tap_count": 0}, "links": [], "creators_primary": [], "creators_other": [], "media_note": null, "holdings": [], "part_of": null, "parts": [], "part_siblings": [], "group": null, "group_works": [], "group_siblings": [], "source": {"name": "Vernon", "slug": "vernon"}, "source_identifier": "150183", "eaas_environment_id": null, "production_places": [], "production_dates": [], "labels": [58522]}, {"id": 118594, "acmi_id": "R0001222", "title": "[The Boys : publicity kit]", "title_annotation": "", "slug": "the-boys-publicity-kit", "creator_credit": "", "credit_line": "", "headline_credit": "", "video_links": [], "record_type": "work", "type": "Object", "is_on_display": false, "last_on_display_place": null, "last_on_display_date": null, "is_context_indigenous": false, "material_description": "", "unpublished": false, "external": false, "first_production_date": null, "commissioned": false, "public_domain": false, "external_references": [], "brief_description": "<p>Publicity kit for the production The Boys (1998), including 1 35mm Colour Transparency, 1 Press Kit/ Review</p>", "constellations_primary": [], "constellations_other": [], "recommendations": [], "creator_credit_for_label": "", "headline_credit_for_label": "", "title_for_label": "<p>[The Boys : publicity kit]</p>", "description": "<p>Publicity kit for the production The Boys (1998), including 1 35mm Colour Transparency, 1 Press Kit/ Review</p>", "description_for_label": ["<p>Publicity kit for the production The Boys (1998), including 1 35mm Colour Transparency, 1 Press Kit/ Review</p>"], "credit_line_for_label": "", "details": [{"label": "Subject category", "display_values": ["Documentation"]}, {"label": "Object Types", "display_values": ["Publicity kit"]}], "stats": {"tap_count": 0}, "links": [], "creators_primary": [], "creators_other": [], "media_note": null, "holdings": [], "part_of": null, "parts": [], "part_siblings": [], "group": null, "group_works": [], "group_siblings": [], "source": {"name": "Vernon", "slug": "vernon"}, "source_identifier": "149194", "eaas_environment_id": null, "production_places": [], "production_dates": [], "labels": [58089]}, {"id": 119044, "acmi_id": "R0002114", "title": "[The Boy who had everything : publicity kit]", "title_annotation": "", "slug": "the-boy-who-had-everything-publicity-kit", "creator_credit": "", "credit_line": "", "headline_credit": "", "video_links": [], "record_type": "work", "type": "Object", "is_on_display": false, "last_on_display_place": null, "last_on_display_date": null, "is_context_indigenous": false, "material_description": "", "unpublished": false, "external": false, "first_production_date": null, "commissioned": false, "public_domain": false, "external_references": [], "brief_description": "<p>Publicity kit for the production The Boy Who Had Everything (1984), including 1 Press Kit/ Review</p>", "constellations_primary": [], "constellations_other": [], "recommendations": [], "creator_credit_for_label": "", "headline_credit_for_label": "", "title_for_label": "<p>[The Boy who had everything : publicity kit]</p>", "description": "<p>Publicity kit for the production The Boy Who Had Everything (1984), including 1 Press Kit/ Review</p>", "description_for_label": ["<p>Publicity kit for the production The Boy Who Had Everything (1984), including 1 Press Kit/ Review</p>"], "credit_line_for_label": "", "details": [{"label": "Subject category", "display_values": ["Documentation"]}, {"label": "Object Types", "display_values": ["Publicity kit"]}], "stats": {"tap_count": 0}, "links": [], "creators_primary": [], "creators_other": [], "media_note": null, "holdings": [], "part_of": null, "parts": [], "part_siblings": [], "group": null, "group_works": [], "group_siblings": [], "source": {"name": "Vernon", "slug": "vernon"}, "source_identifier": "150178", "eaas_environment_id": null, "production_places": [], "production_dates": [], "labels": [58519]}]}