{"count": 41723, "next": "https://api.acmi.net.au/works/?page=1192", "previous": "https://api.acmi.net.au/works/?page=1190", "results": [{"id": 108370, "acmi_id": "B1002614", "title": "The Fall of Communism as seen in gay pornography", "title_annotation": "", "slug": "the-fall-of-communism-as-seen-in-gay-pornography", "creator_credit": "William. Jones", "credit_line": "", "headline_credit": "United States, 1998", "video_links": [], "record_type": "work", "type": "Film", "is_on_display": false, "last_on_display_place": "ACMI Screen Lounge", "last_on_display_date": "2004-12-31", "is_context_indigenous": false, "material_description": "", "unpublished": false, "external": false, "first_production_date": "1998-01-01T11:00:00+11:00", "commissioned": false, "public_domain": false, "external_references": [], "brief_description": "<p>Using excerpts, shots and screen tests from pornography produced in Eastern Europe and Russia, this startling documentary refutes the libertarian aesthetics of much of western queer politics. By forcing us to contemplate the faces of the young male models, it reminds us that even with the fall of communism, materialism and history still have a place in our thinking about film.</p>", "constellations_primary": [], "constellations_other": [], "recommendations": [], "creator_credit_for_label": "<p>William. Jones</p>", "headline_credit_for_label": "<p>United States, 1998</p>", "title_for_label": "<p>The Fall of Communism as seen in gay pornography</p>", "description": "<p>Using excerpts, shots and screen tests from pornography produced in Eastern Europe and Russia, this startling documentary refutes the libertarian aesthetics of much of western queer politics. By forcing us to contemplate the faces of the young male models, it reminds us that even with the fall of communism, materialism and history still have a place in our thinking about film.</p>", "description_for_label": ["<p>Using excerpts, shots and screen tests from pornography produced in Eastern Europe and Russia, this startling documentary refutes the libertarian aesthetics of much of western queer politics. By forcing us to contemplate the faces of the young male models, it reminds us that even with the fall of communism, materialism and history still have a place in our thinking about film.</p>"], "credit_line_for_label": "", "details": [{"label": "Language", "display_values": ["English"]}, {"label": "Audience classifications", "display_values": ["R (18+)", "unclassified"]}, {"label": "Subject categories", "display_values": ["Economics, Philosophy, Politics, Religion & Sociology&nbsp;→ Communism", "Family, Gender Identity, Relationships & Sexuality&nbsp;→ Homosexuality", "Lesbian (Queer Cinema)&nbsp;→ Gay", "Short films", "Short films&nbsp;→ Short films - United States"]}], "stats": {"tap_count": 0}, "links": [], "creators_primary": [{"id": 2748579, "name": "William. Jones", "creator_id": 7393, "creator_wikidata_id": null, "role": "director", "role_id": 938, "is_primary": true}, {"id": 2748580, "name": "William. Jones", "creator_id": 7393, "creator_wikidata_id": null, "role": "creator", "role_id": 968, "is_primary": true}], "creators_other": [], "media_note": "Sorry, we don't have images or video for this item.", "holdings": [{"name": "Digital Betacam [NTSC]; Master", "identifier": "", "description": ""}, {"name": "VHS [PAL]; Reference - timecoded", "identifier": "", "description": ""}, {"name": "Digital Betacam [PAL]; Sub-master", "identifier": "", "description": ""}], "part_of": null, "parts": [], "part_siblings": [], "group": null, "group_works": [], "group_siblings": [], "source": {"name": "Vernon", "slug": "vernon"}, "source_identifier": "777", "eaas_environment_id": null, "production_places": [{"id": 2, "name": "United States", "slug": "united-states"}], "production_dates": [{"date": "1998", "notes": "", "to_year": "1998"}], "labels": [47863]}, {"id": 108369, "acmi_id": "B1002608", "title": "Bare", "title_annotation": "", "slug": "bare", "creator_credit": "Deborah Strutt, Liz Baulch, Wild Iris Productions and Amanda Roberts", "credit_line": "", "headline_credit": "Australia, 2000", "video_links": [], "record_type": "work", "type": "Film", "is_on_display": false, "last_on_display_place": null, "last_on_display_date": null, "is_context_indigenous": false, "material_description": "", "unpublished": false, "external": false, "first_production_date": "2000-01-01T11:00:00+11:00", "commissioned": false, "public_domain": false, "external_references": [], "brief_description": "<p>There are misunderstandings aplenty in this award-winning Australian short when 2 gay boys accidentally catch their lesbian neighbours in an early morning clinch. High density living in all its revealing glory.</p>", "constellations_primary": [], "constellations_other": [], "recommendations": [], "creator_credit_for_label": "<p>Deborah Strutt, Liz Baulch, Wild Iris Productions and Amanda Roberts</p>", "headline_credit_for_label": "<p>Australia, 2000</p>", "title_for_label": "<p>Bare</p>", "description": "<p>There are misunderstandings aplenty in this award-winning Australian short when 2 gay boys accidentally catch their lesbian neighbours in an early morning clinch. High density living in all its revealing glory.</p>", "description_for_label": ["<p>There are misunderstandings aplenty in this award-winning Australian short when 2 gay boys accidentally catch their lesbian neighbours in an early morning clinch. High density living in all its revealing glory.</p>"], "credit_line_for_label": "", "details": [{"label": "Duration", "display_values": ["00:09:00:00"]}, {"label": "Language", "display_values": ["English"]}, {"label": "Subject categories", "display_values": ["Family, Gender Identity, Relationships & Sexuality&nbsp;→ Homosexuality", "Family, Gender Identity, Relationships & Sexuality&nbsp;→ Lesbianism", "Family, Gender Identity, Relationships & Sexuality&nbsp;→ Voyeurism", "Food, Health, Lifestyle, Medicine, Psychology & Safety&nbsp;→ Voyeurism", "Lesbian (Queer Cinema)&nbsp;→ Gay", "Short films", "Short films&nbsp;→ Short films - Australia"]}, {"label": "Sound/audio", "display_values": ["Sound"]}, {"label": "Colour", "display_values": ["Colour"]}], "stats": {"tap_count": 1}, "links": [], "creators_primary": [{"id": 2748567, "name": "Deborah Strutt", "creator_id": 7391, "creator_wikidata_id": "Q120304956", "role": "director", "role_id": 938, "is_primary": true}, {"id": 2748568, "name": "Deborah Strutt", "creator_id": 7391, "creator_wikidata_id": "Q120304956", "role": "creator", "role_id": 968, "is_primary": true}, {"id": 2748570, "name": "Liz Baulch", "creator_id": 7392, "creator_wikidata_id": null, "role": "creator", "role_id": 968, "is_primary": true}, {"id": 2748569, "name": "Liz Baulch", "creator_id": 7392, "creator_wikidata_id": null, "role": "producer", "role_id": 1089, "is_primary": true}, {"id": 2748572, "name": "Wild Iris Productions", "creator_id": 36082, "creator_wikidata_id": "Q121091135", "role": "production company", "role_id": 941, "is_primary": true}, {"id": 2748573, "name": "Amanda Roberts", "creator_id": 85071, "creator_wikidata_id": "Q121357782", "role": "writer", "role_id": 939, "is_primary": true}], "creators_other": [{"id": 2748577, "name": "David Tredinnick", "creator_id": 86878, "creator_wikidata_id": "Q121357503", "role": "cast", "role_id": 33, "is_primary": false}, {"id": 2748578, "name": "Esme Melville", "creator_id": 86879, "creator_wikidata_id": null, "role": "cast", "role_id": 33, "is_primary": false}, {"id": 2748576, "name": "Luke Elliot", "creator_id": 86877, "creator_wikidata_id": null, "role": "cast", "role_id": 33, "is_primary": false}, {"id": 2748574, "name": "Madeleine Swain", "creator_id": 86875, "creator_wikidata_id": null, "role": "cast", "role_id": 33, "is_primary": false}, {"id": 2748575, "name": "Maria Theodorakis", "creator_id": 86876, "creator_wikidata_id": "Q121270923", "role": "cast", "role_id": 33, "is_primary": false}, {"id": 2748571, "name": "Lisa Daniel", "creator_id": 73396, "creator_wikidata_id": null, "role": "project manager", "role_id": 498, "is_primary": false}], "media_note": null, "holdings": [{"name": "VHS [PAL]; Reference - timecoded", "identifier": "", "description": ""}, {"name": "Digital Betacam [PAL]; Master", "identifier": "", "description": ""}, {"name": "Digital Betacam [PAL]; Sub-master", "identifier": "", "description": ""}, {"name": "VHS; Access Print (Section 1)", "identifier": "", "description": ""}, {"name": "MOV file ProRes4444; Digital Preservation Master - overscan", "identifier": "", "description": ""}, {"name": "MOV file ProRes4444; Digital Preservation Master - presentation", "identifier": "", "description": ""}, {"name": "MPEG-4 Digital File; ACMI Digital Access Copy - overscan", "identifier": "", "description": ""}, {"name": "MPEG-4 Digital File; ACMI Digital Access Copy - presentation", "identifier": "", "description": ""}], "part_of": null, "parts": [], "part_siblings": [], "group": null, "group_works": [], "group_siblings": [], "source": {"name": "Vernon", "slug": "vernon"}, "source_identifier": "774", "eaas_environment_id": null, "production_places": [{"id": 3, "name": "Australia", "slug": "australia"}], "production_dates": [{"date": "2000", "notes": "", "to_year": "2000"}], "labels": [47862]}, {"id": 108366, "acmi_id": "B1002572", "title": "Resistor", "title_annotation": "", "slug": "resistor", "creator_credit": "Mike Stubbs", "credit_line": "", "headline_credit": "2000", "video_links": [], "record_type": "work", "type": "Artwork", "is_on_display": false, "last_on_display_place": null, "last_on_display_date": null, "is_context_indigenous": false, "material_description": "Single channel moving image", "unpublished": false, "external": false, "first_production_date": "2000-01-01T11:00:00+11:00", "commissioned": false, "public_domain": false, "external_references": [], "brief_description": "", "constellations_primary": [], "constellations_other": [], "recommendations": [], "creator_credit_for_label": "<p>Mike Stubbs</p>", "headline_credit_for_label": "<p>2000</p>", "title_for_label": "<p>Resistor</p>", "description": "", "description_for_label": [], "credit_line_for_label": "", "details": [{"label": "Subject category", "display_values": ["Digital Art"]}, {"label": "Object Types", "display_values": ["Artwork"]}, {"label": "Materials", "display_values": ["Single channel moving image"]}], "stats": {"tap_count": 0}, "links": [], "creators_primary": [{"id": 2748562, "name": "Mike Stubbs", "creator_id": 7387, "creator_wikidata_id": null, "role": "creator", "role_id": 968, "is_primary": true}], "creators_other": [], "media_note": "Sorry, we don't have images or video for this item.", "holdings": [{"name": "MPEG-4 Digital File; ACMI Digital Access Copy - overscan", "identifier": "", "description": ""}, {"name": "MOV file ProRes4444; Digital Preservation Master - overscan", "identifier": "", "description": ""}, {"name": "VHS [PAL]; Reference - timecoded", "identifier": "", "description": ""}, {"name": "Digital Betacam [PAL]; Master", "identifier": "", "description": ""}, {"name": "Digital Betacam [PAL]; Sub-master", "identifier": "", "description": ""}], "part_of": null, "parts": [], "part_siblings": [], "group": null, "group_works": [], "group_siblings": [], "source": {"name": "Vernon", "slug": "vernon"}, "source_identifier": "768", "eaas_environment_id": null, "production_places": [], "production_dates": [{"date": "2000", "notes": "", "to_year": "2000"}], "labels": [47859]}, {"id": 108363, "acmi_id": "B1002569", "title": "Gift", "title_annotation": "", "slug": "gift", "creator_credit": "Mike Stubbs and Roland Denning", "credit_line": "", "headline_credit": "Australia, 1997", "video_links": [], "record_type": "work", "type": "Artwork", "is_on_display": false, "last_on_display_place": null, "last_on_display_date": null, "is_context_indigenous": false, "material_description": "Single channel moving image, colour and audio", "unpublished": false, "external": false, "first_production_date": "1997-01-01T11:00:00+11:00", "commissioned": false, "public_domain": false, "external_references": [], "brief_description": "<p>Gift was shot in the Wolfen-Bitterfeld region of Germany, formerly part of the GDR. Home to intensive chemical production powered by local open-cut coalmines, Bitterfeld has been referred to as the filthiest city in Europe. Since the reunification of Germany, attempts have been made to redress the environmental damage, but the long-term effects remain evident in both the scarred landscape, and the poor health statistics of the people who live there. Gift is a mesmeric, impressionistic collage of images of industry, mining, pollution and community.</p>\n<p>Gift is the German word for poison</p>", "constellations_primary": [], "constellations_other": [], "recommendations": [], "creator_credit_for_label": "<p>Mike Stubbs and Roland Denning</p>", "headline_credit_for_label": "<p>Australia, 1997</p>", "title_for_label": "<p>Gift</p>", "description": "<p>Gift was shot in the Wolfen-Bitterfeld region of Germany, formerly part of the GDR. Home to intensive chemical production powered by local open-cut coalmines, Bitterfeld has been referred to as the filthiest city in Europe. Since the reunification of Germany, attempts have been made to redress the environmental damage, but the long-term effects remain evident in both the scarred landscape, and the poor health statistics of the people who live there. Gift is a mesmeric, impressionistic collage of images of industry, mining, pollution and community.</p>\n<p>Gift is the German word for poison</p>", "description_for_label": ["<p>Gift was shot in the Wolfen-Bitterfeld region of Germany, formerly part of the GDR. Home to intensive chemical production powered by local open-cut coalmines, Bitterfeld has been referred to as the filthiest city in Europe. Since the reunification of Germany, attempts have been made to redress the environmental damage, but the long-term effects remain evident in both the scarred landscape, and the poor health statistics of the people who live there. Gift is a mesmeric, impressionistic collage of images of industry, mining, pollution and community.</p>\n<p>Gift is the German word for poison</p>"], "credit_line_for_label": "", "details": [{"label": "Language", "display_values": ["English"]}, {"label": "Subject category", "display_values": ["Digital Art"]}, {"label": "Sound/audio", "display_values": ["Sound"]}, {"label": "Colour", "display_values": ["Colour"]}, {"label": "Object Types", "display_values": ["Artwork"]}, {"label": "Materials", "display_values": ["Single channel moving image, colour and audio"]}], "stats": {"tap_count": 0}, "links": [], "creators_primary": [{"id": 2748558, "name": "Mike Stubbs", "creator_id": 7387, "creator_wikidata_id": null, "role": "creator", "role_id": 968, "is_primary": true}, {"id": 2748559, "name": "Roland Denning", "creator_id": 7388, "creator_wikidata_id": null, "role": "producer", "role_id": 1089, "is_primary": true}], "creators_other": [{"id": 2748560, "name": "Roland Denning", "creator_id": 7388, "creator_wikidata_id": null, "role": "director of photography", "role_id": 925, "is_primary": false}, {"id": 2748561, "name": "Ulf Langheinrich", "creator_id": 7389, "creator_wikidata_id": "Q19060325", "role": "music", "role_id": 949, "is_primary": false}], "media_note": "Sorry, we don't have images or video for this item.", "holdings": [{"name": "MPEG-4 Digital File; ACMI Digital Access Copy - overscan", "identifier": "", "description": ""}, {"name": "MOV file ProRes4444; Digital Preservation Master - overscan", "identifier": "", "description": ""}, {"name": "DVD [PAL]; Exhibition Copy", "identifier": "", "description": ""}, {"name": "VHS [PAL]; Reference - timecoded", "identifier": "", "description": ""}, {"name": "Digital Betacam [PAL]; Master", "identifier": "", "description": ""}, {"name": "Digital Betacam [PAL]; Sub-master", "identifier": "", "description": ""}, {"name": "VHS; Copy", "identifier": "", "description": ""}, {"name": "VHS [PAL]; Copy", "identifier": "", "description": ""}], "part_of": null, "parts": [], "part_siblings": [], "group": null, "group_works": [], "group_siblings": [], "source": {"name": "Vernon", "slug": "vernon"}, "source_identifier": "765", "eaas_environment_id": null, "production_places": [{"id": 3, "name": "Australia", "slug": "australia"}], "production_dates": [{"date": "1997", "notes": "", "to_year": "1997"}], "labels": [47856]}, {"id": 108362, "acmi_id": "B1002568", "title": "Man act", "title_annotation": "", "slug": "man-act", "creator_credit": "Mike Stubbs", "credit_line": "", "headline_credit": "1995", "video_links": [], "record_type": "work", "type": "Artwork", "is_on_display": false, "last_on_display_place": null, "last_on_display_date": null, "is_context_indigenous": false, "material_description": "Single channel moving image", "unpublished": false, "external": false, "first_production_date": "1995-01-01T11:00:00+11:00", "commissioned": false, "public_domain": false, "external_references": [], "brief_description": "", "constellations_primary": [], "constellations_other": [], "recommendations": [], "creator_credit_for_label": "<p>Mike Stubbs</p>", "headline_credit_for_label": "<p>1995</p>", "title_for_label": "<p>Man act</p>", "description": "", "description_for_label": [], "credit_line_for_label": "", "details": [{"label": "Subject category", "display_values": ["Digital Art"]}, {"label": "Object Types", "display_values": ["Artwork"]}, {"label": "Materials", "display_values": ["Single channel moving image"]}], "stats": {"tap_count": 0}, "links": [], "creators_primary": [{"id": 2748557, "name": "Mike Stubbs", "creator_id": 7387, "creator_wikidata_id": null, "role": "creator", "role_id": 968, "is_primary": true}], "creators_other": [], "media_note": "Sorry, we don't have images or video for this item.", "holdings": [{"name": "MPEG-4 Digital File; ACMI Digital Access Copy - overscan", "identifier": "", "description": ""}, {"name": "MOV file ProRes4444; Digital Preservation Master - overscan", "identifier": "", "description": ""}, {"name": "VHS [PAL]; Reference - timecoded", "identifier": "", "description": ""}, {"name": "Digital Betacam [PAL]; Master", "identifier": "", "description": ""}, {"name": "Digital Betacam [PAL]; Sub-master", "identifier": "", "description": ""}], "part_of": null, "parts": [], "part_siblings": [], "group": null, "group_works": [], "group_siblings": [], "source": {"name": "Vernon", "slug": "vernon"}, "source_identifier": "764", "eaas_environment_id": null, "production_places": [], "production_dates": [{"date": "1995", "notes": "", "to_year": "1995"}], "labels": [47855]}, {"id": 108361, "acmi_id": "B1002567", "title": "Homing", "title_annotation": "", "slug": "homing", "creator_credit": "Mike Stubbs", "credit_line": "", "headline_credit": "1994", "video_links": [], "record_type": "work", "type": "Artwork", "is_on_display": false, "last_on_display_place": null, "last_on_display_date": null, "is_context_indigenous": false, "material_description": "Single channel moving image, colour and audio", "unpublished": false, "external": false, "first_production_date": "1994-01-01T11:00:00+11:00", "commissioned": false, "public_domain": false, "external_references": [], "brief_description": "", "constellations_primary": [], "constellations_other": [], "recommendations": [], "creator_credit_for_label": "<p>Mike Stubbs</p>", "headline_credit_for_label": "<p>1994</p>", "title_for_label": "<p>Homing</p>", "description": "", "description_for_label": [], "credit_line_for_label": "", "details": [{"label": "Subject category", "display_values": ["Digital Art"]}, {"label": "Sound/audio", "display_values": ["Sound"]}, {"label": "Colour", "display_values": ["Colour"]}, {"label": "Object Types", "display_values": ["Artwork"]}, {"label": "Materials", "display_values": ["Single channel moving image, colour and audio"]}], "stats": {"tap_count": 0}, "links": [], "creators_primary": [{"id": 2748556, "name": "Mike Stubbs", "creator_id": 7387, "creator_wikidata_id": null, "role": "creator", "role_id": 968, "is_primary": true}], "creators_other": [], "media_note": "Sorry, we don't have images or video for this item.", "holdings": [{"name": "MPEG-4 Digital File; ACMI Digital Access Copy - overscan", "identifier": "", "description": ""}, {"name": "MOV file ProRes4444; Digital Preservation Master - overscan", "identifier": "", "description": ""}, {"name": "VHS [PAL]; Reference - timecoded", "identifier": "", "description": ""}, {"name": "Digital Betacam [PAL]; Master", "identifier": "", "description": ""}, {"name": "Digital Betacam [PAL]; Sub-master", "identifier": "", "description": ""}], "part_of": null, "parts": [], "part_siblings": [], "group": null, "group_works": [], "group_siblings": [], "source": {"name": "Vernon", "slug": "vernon"}, "source_identifier": "763", "eaas_environment_id": null, "production_places": [], "production_dates": [{"date": "1994", "notes": "", "to_year": "1994"}], "labels": [47854]}, {"id": 108360, "acmi_id": "B1002566", "title": "Sweatlodge", "title_annotation": "", "slug": "sweatlodge", "creator_credit": "Mike Stubbs", "credit_line": "", "headline_credit": "1991", "video_links": [], "record_type": "work", "type": "Artwork", "is_on_display": false, "last_on_display_place": null, "last_on_display_date": null, "is_context_indigenous": false, "material_description": "Single channel moving image, colour and audio", "unpublished": false, "external": false, "first_production_date": "1991-01-01T11:00:00+11:00", "commissioned": false, "public_domain": false, "external_references": [], "brief_description": "", "constellations_primary": [], "constellations_other": [], "recommendations": [], "creator_credit_for_label": "<p>Mike Stubbs</p>", "headline_credit_for_label": "<p>1991</p>", "title_for_label": "<p>Sweatlodge</p>", "description": "", "description_for_label": [], "credit_line_for_label": "", "details": [{"label": "Subject category", "display_values": ["Digital Art"]}, {"label": "Object Types", "display_values": ["Artwork"]}, {"label": "Materials", "display_values": ["Single channel moving image, colour and audio"]}], "stats": {"tap_count": 0}, "links": [], "creators_primary": [{"id": 2748555, "name": "Mike Stubbs", "creator_id": 7387, "creator_wikidata_id": null, "role": "creator", "role_id": 968, "is_primary": true}], "creators_other": [], "media_note": "Sorry, we don't have images or video for this item.", "holdings": [{"name": "MPEG-4 Digital File; ACMI Digital Access Copy - overscan", "identifier": "", "description": ""}, {"name": "MOV file ProRes4444; Digital Preservation Master - overscan", "identifier": "", "description": ""}, {"name": "VHS [PAL]; Reference - timecoded", "identifier": "", "description": ""}, {"name": "Digital Betacam [PAL]; Master", "identifier": "", "description": ""}, {"name": "Digital Betacam [PAL]; Sub-master", "identifier": "", "description": ""}], "part_of": null, "parts": [], "part_siblings": [], "group": null, "group_works": [], "group_siblings": [], "source": {"name": "Vernon", "slug": "vernon"}, "source_identifier": "762", "eaas_environment_id": null, "production_places": [], "production_dates": [{"date": "1991", "notes": "", "to_year": "1991"}], "labels": [47853]}, {"id": 108359, "acmi_id": "B1002565", "title": "Life water", "title_annotation": "", "slug": "life-water", "creator_credit": "Mike Stubbs", "credit_line": "", "headline_credit": "1990", "video_links": [], "record_type": "work", "type": "Artwork", "is_on_display": false, "last_on_display_place": null, "last_on_display_date": null, "is_context_indigenous": false, "material_description": "Single channel moving image", "unpublished": false, "external": false, "first_production_date": "1990-01-01T11:00:00+11:00", "commissioned": false, "public_domain": false, "external_references": [], "brief_description": "", "constellations_primary": [], "constellations_other": [], "recommendations": [], "creator_credit_for_label": "<p>Mike Stubbs</p>", "headline_credit_for_label": "<p>1990</p>", "title_for_label": "<p>Life water</p>", "description": "", "description_for_label": [], "credit_line_for_label": "", "details": [{"label": "Subject category", "display_values": ["Digital Art"]}, {"label": "Object Types", "display_values": ["Artwork"]}, {"label": "Materials", "display_values": ["Single channel moving image"]}], "stats": {"tap_count": 0}, "links": [], "creators_primary": [{"id": 2748553, "name": "Mike Stubbs", "creator_id": 7387, "creator_wikidata_id": null, "role": "creator", "role_id": 968, "is_primary": true}], "creators_other": [{"id": 2748554, "name": "Mike Stubbs", "creator_id": 7387, "creator_wikidata_id": null, "role": "film maker", "role_id": 459, "is_primary": false}], "media_note": "Sorry, we don't have images or video for this item.", "holdings": [{"name": "MPEG-4 Digital File; ACMI Digital Access Copy - overscan", "identifier": "", "description": ""}, {"name": "MOV file ProRes4444; Digital Preservation Master - overscan", "identifier": "", "description": ""}, {"name": "VHS [PAL]; Reference - timecoded", "identifier": "", "description": ""}, {"name": "Digital Betacam [PAL]; Master", "identifier": "", "description": ""}, {"name": "Digital Betacam [PAL]; Sub-master", "identifier": "", "description": ""}], "part_of": null, "parts": [], "part_siblings": [], "group": null, "group_works": [], "group_siblings": [], "source": {"name": "Vernon", "slug": "vernon"}, "source_identifier": "761", "eaas_environment_id": null, "production_places": [], "production_dates": [{"date": "1990", "notes": "", "to_year": "1990"}], "labels": [47852]}, {"id": 108355, "acmi_id": "B1002411", "title": "Vanish", "title_annotation": "", "slug": "vanish", "creator_credit": "Ivan Sen", "credit_line": "", "headline_credit": "1998", "video_links": [], "record_type": "work", "type": "Film", "is_on_display": false, "last_on_display_place": null, "last_on_display_date": null, "is_context_indigenous": true, "material_description": "", "unpublished": false, "external": false, "first_production_date": "1998-01-01T11:00:00+11:00", "commissioned": false, "public_domain": false, "external_references": [], "brief_description": "", "constellations_primary": [], "constellations_other": [], "recommendations": [], "creator_credit_for_label": "<p>Ivan Sen</p>", "headline_credit_for_label": "<p>1998</p>", "title_for_label": "<p>Vanish</p>", "description": "", "description_for_label": [], "credit_line_for_label": "", "details": [], "stats": {"tap_count": 0}, "links": [], "creators_primary": [{"id": 2748552, "name": "Ivan Sen", "creator_id": 71667, "creator_wikidata_id": "Q6097453", "role": "creator", "role_id": 968, "is_primary": true}], "creators_other": [], "media_note": "Sorry, we don't have images or video for this item.", "holdings": [{"name": "Digital Betacam [PAL]; Master", "identifier": "", "description": ""}, {"name": "VHS [PAL]; Reference - timecoded", "identifier": "", "description": ""}, {"name": "Digital Betacam [PAL]; Sub-master", "identifier": "", "description": ""}], "part_of": null, "parts": [], "part_siblings": [], "group": null, "group_works": [], "group_siblings": [], "source": {"name": "Vernon", "slug": "vernon"}, "source_identifier": "720", "eaas_environment_id": null, "production_places": [], "production_dates": [{"date": "1998", "notes": "", "to_year": "1998"}], "labels": [47848]}, {"id": 108354, "acmi_id": "B1002410", "title": "Shifting Shelter 2", "title_annotation": "", "slug": "shifting-shelter-2", "creator_credit": "Ivan Sen", "credit_line": "", "headline_credit": "2000", "video_links": [], "record_type": "work", "type": "Film", "is_on_display": false, "last_on_display_place": null, "last_on_display_date": null, "is_context_indigenous": true, "material_description": "", "unpublished": false, "external": false, "first_production_date": "2000-01-01T11:00:00+11:00", "commissioned": false, "public_domain": false, "external_references": [], "brief_description": "", "constellations_primary": [], "constellations_other": [], "recommendations": [], "creator_credit_for_label": "<p>Ivan Sen</p>", "headline_credit_for_label": "<p>2000</p>", "title_for_label": "<p>Shifting Shelter 2</p>", "description": "", "description_for_label": [], "credit_line_for_label": "", "details": [], "stats": {"tap_count": 0}, "links": [], "creators_primary": [{"id": 2748551, "name": "Ivan Sen", "creator_id": 71667, "creator_wikidata_id": "Q6097453", "role": "creator", "role_id": 968, "is_primary": true}], "creators_other": [], "media_note": "Sorry, we don't have images or video for this item.", "holdings": [{"name": "Digital Betacam [PAL]; Master", "identifier": "", "description": ""}, {"name": "VHS [PAL]; Reference - timecoded", "identifier": "", "description": ""}, {"name": "Digital Betacam [PAL]; Sub-master", "identifier": "", "description": ""}], "part_of": null, "parts": [], "part_siblings": [], "group": null, "group_works": [], "group_siblings": [], "source": {"name": "Vernon", "slug": "vernon"}, "source_identifier": "719", "eaas_environment_id": null, "production_places": [], "production_dates": [{"date": "2000", "notes": "", "to_year": "2000"}], "labels": [47847]}]}