{"count": 41735, "next": "https://api.acmi.net.au/works/?page=4159", "previous": "https://api.acmi.net.au/works/?page=4157", "results": [{"id": 92230, "acmi_id": "315457", "title": "[Childrens' compilation]", "title_annotation": "", "slug": "childrens-compilation", "creator_credit": "Walt Disney Productions and Walton Films", "credit_line": "", "headline_credit": "United States, 1934", "video_links": [], "record_type": "work", "type": "Film", "is_on_display": false, "last_on_display_place": null, "last_on_display_date": null, "is_context_indigenous": false, "material_description": "", "unpublished": false, "external": false, "first_production_date": "1934-01-01T10:00:00+10:00", "commissioned": false, "public_domain": false, "external_references": [], "brief_description": "<p>A compliation of four short animated films for children. The titles are &#8220;Aladdin and his lamp&#8221;, &#8220;It&#8217;s the circus part 2&#8221;, &#8220;Puppy love&#8221; and &#8220;The Charging bull&#8221;. &#8220;Aladdin and his lamp&#8221; A puppet version of Aladdin and his magic lamp. &#8220;It&#8217;s the circus part 2&#8221; Bertram Mills Circus featuring live action horses, trapeze artists, chimps, clowns and lion tamers. &#8220;Puppy love&#8221; Mickey visits his sweetheart Minnie, presenting her with gifts. As he courts her, Mickey&#8217;s dog Pluto attempts to woo Minnie&#8217;s dog by presenting her with a gift intended for Minnie. Pluto exchanges Minnie&#8217;s gift with a bone. &#8220;The Charging bull&#8221; A charging bull tries to bowl over Mickey Mouse. Mickey&#8217;s automobile defends him and Minnie.</p>", "constellations_primary": [], "constellations_other": [], "recommendations": [], "creator_credit_for_label": "<p>Walt Disney Productions and Walton Films</p>", "headline_credit_for_label": "<p>United States, 1934</p>", "title_for_label": "<p>[Childrens&#8217; compilation]</p>", "description": "<p>A compliation of four short animated films for children. The titles are &#8220;Aladdin and his lamp&#8221;, &#8220;It&#8217;s the circus part 2&#8221;, &#8220;Puppy love&#8221; and &#8220;The Charging bull&#8221;. &#8220;Aladdin and his lamp&#8221; A puppet version of Aladdin and his magic lamp. &#8220;It&#8217;s the circus part 2&#8221; Bertram Mills Circus featuring live action horses, trapeze artists, chimps, clowns and lion tamers. &#8220;Puppy love&#8221; Mickey visits his sweetheart Minnie, presenting her with gifts. As he courts her, Mickey&#8217;s dog Pluto attempts to woo Minnie&#8217;s dog by presenting her with a gift intended for Minnie. Pluto exchanges Minnie&#8217;s gift with a bone. &#8220;The Charging bull&#8221; A charging bull tries to bowl over Mickey Mouse. Mickey&#8217;s automobile defends him and Minnie.</p>", "description_for_label": ["<p>A compliation of four short animated films for children. The titles are &#8220;Aladdin and his lamp&#8221;, &#8220;It&#8217;s the circus part 2&#8221;, &#8220;Puppy love&#8221; and &#8220;The Charging bull&#8221;. &#8220;Aladdin and his lamp&#8221; A puppet version of Aladdin and his magic lamp. &#8220;It&#8217;s the circus part 2&#8221; Bertram Mills Circus featuring live action horses, trapeze artists, chimps, clowns and lion tamers. &#8220;Puppy love&#8221; Mickey visits his sweetheart Minnie, presenting her with gifts. As he courts her, Mickey&#8217;s dog Pluto attempts to woo Minnie&#8217;s dog by presenting her with a gift intended for Minnie. Pluto exchanges Minnie&#8217;s gift with a bone. &#8220;The Charging bull&#8221; A charging bull tries to bowl over Mickey Mouse. Mickey&#8217;s automobile defends him and Minnie.</p>"], "credit_line_for_label": "", "details": [{"label": "Duration", "display_values": ["00:09:27:00"]}, {"label": "Language", "display_values": ["English"]}, {"label": "Subject categories", "display_values": ["Advertising, Film, Journalism, Mass Media & TV&nbsp;→ Puppet films", "Animation", "Animation&nbsp;→ Animated films - United States", "Childrens Films", "Childrens Films&nbsp;→ Children's films - United States", "Childrens Films&nbsp;→ Puppet films", "Music & Performing Arts&nbsp;→ Puppet films", "Short films", "Short films&nbsp;→ Short films - United States", "Silent films"]}, {"label": "Sound/audio", "display_values": ["Silent"]}, {"label": "Colour", "display_values": ["Black and White"]}], "stats": {"tap_count": 0}, "links": [], "creators_primary": [{"id": 880075, "name": "Walt Disney Productions", "creator_id": 72131, "creator_wikidata_id": null, "role": "production company", "role_id": 941, "is_primary": true}, {"id": 880074, "name": "Walton Films", "creator_id": 13459, "creator_wikidata_id": null, "role": "production company", "role_id": 941, "is_primary": true}], "creators_other": [], "media_note": "Sorry, we don't have images or video for this item.", "holdings": [{"name": "16mm film; Access Print (Section 1)", "identifier": "", "description": ""}], "part_of": null, "parts": [], "part_siblings": [], "group": null, "group_works": [], "group_siblings": [], "source": {"name": "Vernon", "slug": "vernon"}, "source_identifier": "49659", "eaas_environment_id": null, "production_places": [{"id": 2, "name": "United States", "slug": "united-states"}], "production_dates": [{"date": "1934", "notes": "Estimated date", "to_year": "1934"}], "labels": [31720]}, {"id": 118510, "acmi_id": "R0001123", "title": "[Children of the revolution : publicity kit]", "title_annotation": "", "slug": "children-of-the-revolution-publicity-kit", "creator_credit": "", "credit_line": "", "headline_credit": "", "video_links": [], "record_type": "work", "type": "Object", "is_on_display": false, "last_on_display_place": null, "last_on_display_date": null, "is_context_indigenous": false, "material_description": "", "unpublished": false, "external": false, "first_production_date": null, "commissioned": false, "public_domain": false, "external_references": [], "brief_description": "<p>Publicity kit for the production Children of the Revolution (1996), including 5 35mm Colour Transparencies</p>", "constellations_primary": [], "constellations_other": [], "recommendations": [], "creator_credit_for_label": "", "headline_credit_for_label": "", "title_for_label": "<p>[Children of the revolution : publicity kit]</p>", "description": "<p>Publicity kit for the production Children of the Revolution (1996), including 5 35mm Colour Transparencies</p>", "description_for_label": ["<p>Publicity kit for the production Children of the Revolution (1996), including 5 35mm Colour Transparencies</p>"], "credit_line_for_label": "", "details": [{"label": "Subject category", "display_values": ["Documentation"]}, {"label": "Object Types", "display_values": ["Publicity kit"]}], "stats": {"tap_count": 0}, "links": [], "creators_primary": [], "creators_other": [], "media_note": null, "holdings": [], "part_of": null, "parts": [], "part_siblings": [], "group": null, "group_works": [], "group_siblings": [], "source": {"name": "Vernon", "slug": "vernon"}, "source_identifier": "149096", "eaas_environment_id": null, "production_places": [], "production_dates": [], "labels": [58005]}, {"id": 77880, "acmi_id": "016274", "title": "[Chicken: international cuisine]", "title_annotation": "", "slug": "chicken-international-cuisine", "creator_credit": "ONF | NFB", "credit_line": "", "headline_credit": "Canada, 1975", "video_links": [], "record_type": "work", "type": "Film", "is_on_display": false, "last_on_display_place": null, "last_on_display_date": null, "is_context_indigenous": false, "material_description": "", "unpublished": false, "external": false, "first_production_date": "1975-01-01T11:00:00+11:00", "commissioned": false, "public_domain": false, "external_references": [], "brief_description": "<p>A very short animated film illustrating traditional chicken dishes from various countries. Each dish represented is announced in its national language - each nationality exists in multicultural Canada.</p>", "constellations_primary": [], "constellations_other": [], "recommendations": [], "creator_credit_for_label": "<p>ONF | NFB</p>", "headline_credit_for_label": "<p>Canada, 1975</p>", "title_for_label": "<p>[Chicken: international cuisine]</p>", "description": "<p>A very short animated film illustrating traditional chicken dishes from various countries. Each dish represented is announced in its national language - each nationality exists in multicultural Canada.</p>", "description_for_label": ["<p>A very short animated film illustrating traditional chicken dishes from various countries. Each dish represented is announced in its national language - each nationality exists in multicultural Canada.</p>"], "credit_line_for_label": "", "details": [{"label": "Duration", "display_values": ["00:00:30:00"]}, {"label": "Subject categories", "display_values": ["Animation", "Animation&nbsp;→ Animated films - Canada", "Childrens Films", "Childrens Films&nbsp;→ Children 6-12", "Economics, Philosophy, Politics, Religion & Sociology&nbsp;→ Multiculturalism", "Economics, Philosophy, Politics, Religion & Sociology&nbsp;→ Pluralism (Social sciences)", "Food, Health, Lifestyle, Medicine, Psychology & Safety&nbsp;→ Cookery", "Food, Health, Lifestyle, Medicine, Psychology & Safety&nbsp;→ Nutrition", "Short films", "Short films&nbsp;→ Short films - Canada"]}, {"label": "Sound/audio", "display_values": ["Sound"]}, {"label": "Colour", "display_values": ["Colour"]}], "stats": {"tap_count": 0}, "links": [], "creators_primary": [{"id": 864341, "name": "ONF | NFB", "creator_id": 66965, "creator_wikidata_id": null, "role": "production company", "role_id": 941, "is_primary": true}], "creators_other": [], "media_note": "Sorry, we don't have images or video for this item.", "holdings": [{"name": "16mm film; Access Print (Section 1)", "identifier": "", "description": ""}], "part_of": null, "parts": [], "part_siblings": [], "group": null, "group_works": [], "group_siblings": [], "source": {"name": "Vernon", "slug": "vernon"}, "source_identifier": "33663", "eaas_environment_id": null, "production_places": [{"id": 36, "name": "Canada", "slug": "canada"}], "production_dates": [{"date": "1975", "notes": "Copyrighted", "to_year": "1975"}], "labels": [17370]}, {"id": 118373, "acmi_id": "R0000967", "title": "[Cherith : publicity kit]", "title_annotation": "", "slug": "cherith-publicity-kit", "creator_credit": "", "credit_line": "", "headline_credit": "1987", "video_links": [], "record_type": "work", "type": "Object", "is_on_display": false, "last_on_display_place": null, "last_on_display_date": null, "is_context_indigenous": false, "material_description": "", "unpublished": false, "external": false, "first_production_date": "1987-01-01T11:00:00+11:00", "commissioned": false, "public_domain": false, "external_references": [], "brief_description": "<p>Publicity kit for the production Cherith (1987), including 1 B&amp;W Still (Large)</p>", "constellations_primary": [], "constellations_other": [], "recommendations": [], "creator_credit_for_label": "", "headline_credit_for_label": "<p>1987</p>", "title_for_label": "<p>[Cherith : publicity kit]</p>", "description": "<p>Publicity kit for the production Cherith (1987), including 1 B&amp;W Still (Large)</p>", "description_for_label": ["<p>Publicity kit for the production Cherith (1987), including 1 B&amp;W Still (Large)</p>"], "credit_line_for_label": "", "details": [{"label": "Subject category", "display_values": ["Documentation"]}, {"label": "Object Types", "display_values": ["Publicity kit"]}], "stats": {"tap_count": 0}, "links": [], "creators_primary": [], "creators_other": [], "media_note": null, "holdings": [], "part_of": null, "parts": [], "part_siblings": [], "group": null, "group_works": [], "group_siblings": [], "source": {"name": "Vernon", "slug": "vernon"}, "source_identifier": "148939", "eaas_environment_id": null, "production_places": [], "production_dates": [{"date": "1987", "notes": "", "to_year": "1987"}], "labels": [57876]}, {"id": 118428, "acmi_id": "R0001032", "title": "[Channel 9 news : publicity kit]", "title_annotation": "", "slug": "channel-9-news-publicity-kit", "creator_credit": "", "credit_line": "", "headline_credit": "", "video_links": [], "record_type": "work", "type": "Object", "is_on_display": false, "last_on_display_place": null, "last_on_display_date": null, "is_context_indigenous": false, "material_description": "", "unpublished": false, "external": false, "first_production_date": null, "commissioned": false, "public_domain": false, "external_references": [], "brief_description": "<p>Publicity kit for the production News - Channel 9, including 4 B&amp;W Stills (Large)</p>", "constellations_primary": [], "constellations_other": [], "recommendations": [], "creator_credit_for_label": "", "headline_credit_for_label": "", "title_for_label": "<p>[Channel 9 news : publicity kit]</p>", "description": "<p>Publicity kit for the production News - Channel 9, including 4 B&amp;W Stills (Large)</p>", "description_for_label": ["<p>Publicity kit for the production News - Channel 9, including 4 B&amp;W Stills (Large)</p>"], "credit_line_for_label": "", "details": [{"label": "Subject category", "display_values": ["Documentation"]}, {"label": "Object Types", "display_values": ["Publicity kit"]}], "stats": {"tap_count": 0}, "links": [], "creators_primary": [], "creators_other": [], "media_note": null, "holdings": [], "part_of": null, "parts": [], "part_siblings": [], "group": null, "group_works": [], "group_siblings": [], "source": {"name": "Vernon", "slug": "vernon"}, "source_identifier": "149005", "eaas_environment_id": null, "production_places": [], "production_dates": [], "labels": [57927]}, {"id": 118372, "acmi_id": "R0000966", "title": "[Channel 7 news : publicity kit]", "title_annotation": "", "slug": "channel-7-news-publicity-kit", "creator_credit": "", "credit_line": "", "headline_credit": "", "video_links": [], "record_type": "work", "type": "Object", "is_on_display": false, "last_on_display_place": null, "last_on_display_date": null, "is_context_indigenous": false, "material_description": "", "unpublished": false, "external": false, "first_production_date": null, "commissioned": false, "public_domain": false, "external_references": [], "brief_description": "<p>Publicity kit for the production News - Channel 7, including 15 B&amp;W Stills (Large)</p>", "constellations_primary": [], "constellations_other": [], "recommendations": [], "creator_credit_for_label": "", "headline_credit_for_label": "", "title_for_label": "<p>[Channel 7 news : publicity kit]</p>", "description": "<p>Publicity kit for the production News - Channel 7, including 15 B&amp;W Stills (Large)</p>", "description_for_label": ["<p>Publicity kit for the production News - Channel 7, including 15 B&amp;W Stills (Large)</p>"], "credit_line_for_label": "", "details": [{"label": "Subject category", "display_values": ["Documentation"]}, {"label": "Object Types", "display_values": ["Publicity kit"]}], "stats": {"tap_count": 0}, "links": [], "creators_primary": [], "creators_other": [], "media_note": null, "holdings": [], "part_of": null, "parts": [], "part_siblings": [], "group": null, "group_works": [], "group_siblings": [], "source": {"name": "Vernon", "slug": "vernon"}, "source_identifier": "148938", "eaas_environment_id": null, "production_places": [], "production_dates": [], "labels": [57875]}, {"id": 118429, "acmi_id": "R0001033", "title": "[Channel 10 news : publicity kit]", "title_annotation": "", "slug": "channel-10-news-publicity-kit", "creator_credit": "", "credit_line": "", "headline_credit": "", "video_links": [], "record_type": "work", "type": "Object", "is_on_display": false, "last_on_display_place": null, "last_on_display_date": null, "is_context_indigenous": false, "material_description": "", "unpublished": false, "external": false, "first_production_date": null, "commissioned": false, "public_domain": false, "external_references": [], "brief_description": "<p>Publicity kit for the production News - Channel 10, including 9 B&amp;W Stills (Large)</p>", "constellations_primary": [], "constellations_other": [], "recommendations": [], "creator_credit_for_label": "", "headline_credit_for_label": "", "title_for_label": "<p>[Channel 10 news : publicity kit]</p>", "description": "<p>Publicity kit for the production News - Channel 10, including 9 B&amp;W Stills (Large)</p>", "description_for_label": ["<p>Publicity kit for the production News - Channel 10, including 9 B&amp;W Stills (Large)</p>"], "credit_line_for_label": "", "details": [{"label": "Subject category", "display_values": ["Documentation"]}, {"label": "Object Types", "display_values": ["Publicity kit"]}], "stats": {"tap_count": 0}, "links": [], "creators_primary": [], "creators_other": [], "media_note": null, "holdings": [], "part_of": null, "parts": [], "part_siblings": [], "group": null, "group_works": [], "group_siblings": [], "source": {"name": "Vernon", "slug": "vernon"}, "source_identifier": "149006", "eaas_environment_id": null, "production_places": [], "production_dates": [], "labels": [57928]}, {"id": 118583, "acmi_id": "R0001209", "title": "[Certain women : publicity kit]", "title_annotation": "", "slug": "certain-women-publicity-kit", "creator_credit": "", "credit_line": "", "headline_credit": "", "video_links": [], "record_type": "work", "type": "Object", "is_on_display": false, "last_on_display_place": null, "last_on_display_date": null, "is_context_indigenous": false, "material_description": "", "unpublished": false, "external": false, "first_production_date": null, "commissioned": false, "public_domain": false, "external_references": [], "brief_description": "<p>Publicity kit for the production Certain Women (1973), including 1 B&amp;W Still (Large)</p>", "constellations_primary": [], "constellations_other": [], "recommendations": [], "creator_credit_for_label": "", "headline_credit_for_label": "", "title_for_label": "<p>[Certain women : publicity kit]</p>", "description": "<p>Publicity kit for the production Certain Women (1973), including 1 B&amp;W Still (Large)</p>", "description_for_label": ["<p>Publicity kit for the production Certain Women (1973), including 1 B&amp;W Still (Large)</p>"], "credit_line_for_label": "", "details": [{"label": "Subject category", "display_values": ["Documentation"]}, {"label": "Object Types", "display_values": ["Publicity kit"]}], "stats": {"tap_count": 2}, "links": [], "creators_primary": [], "creators_other": [], "media_note": null, "holdings": [], "part_of": null, "parts": [], "part_siblings": [], "group": null, "group_works": [], "group_siblings": [], "source": {"name": "Vernon", "slug": "vernon"}, "source_identifier": "149181", "eaas_environment_id": null, "production_places": [], "production_dates": [], "labels": [58078]}, {"id": 118582, "acmi_id": "R0001208", "title": "[Centrespread : publicity kit]", "title_annotation": "", "slug": "centrespread-publicity-kit", "creator_credit": "", "credit_line": "", "headline_credit": "", "video_links": [], "record_type": "work", "type": "Object", "is_on_display": false, "last_on_display_place": null, "last_on_display_date": null, "is_context_indigenous": false, "material_description": "", "unpublished": false, "external": false, "first_production_date": null, "commissioned": false, "public_domain": false, "external_references": [], "brief_description": "<p>Publicity kit for the production Centrespread (1982), including 19 B&amp;W Stills (Large), 2 35mm Colour Transparencies, 2 Colour Transparencies (Large)</p>", "constellations_primary": [], "constellations_other": [], "recommendations": [], "creator_credit_for_label": "", "headline_credit_for_label": "", "title_for_label": "<p>[Centrespread : publicity kit]</p>", "description": "<p>Publicity kit for the production Centrespread (1982), including 19 B&amp;W Stills (Large), 2 35mm Colour Transparencies, 2 Colour Transparencies (Large)</p>", "description_for_label": ["<p>Publicity kit for the production Centrespread (1982), including 19 B&amp;W Stills (Large), 2 35mm Colour Transparencies, 2 Colour Transparencies (Large)</p>"], "credit_line_for_label": "", "details": [{"label": "Subject category", "display_values": ["Documentation"]}, {"label": "Object Types", "display_values": ["Publicity kit"]}], "stats": {"tap_count": 0}, "links": [], "creators_primary": [], "creators_other": [], "media_note": null, "holdings": [], "part_of": null, "parts": [], "part_siblings": [], "group": null, "group_works": [], "group_siblings": [], "source": {"name": "Vernon", "slug": "vernon"}, "source_identifier": "149180", "eaas_environment_id": null, "production_places": [], "production_dates": [], "labels": [58077]}, {"id": 118584, "acmi_id": "R0001210", "title": "[Celso and Cora : publicity kit]", "title_annotation": "", "slug": "celso-and-cora-publicity-kit", "creator_credit": "", "credit_line": "", "headline_credit": "", "video_links": [], "record_type": "work", "type": "Object", "is_on_display": false, "last_on_display_place": null, "last_on_display_date": null, "is_context_indigenous": false, "material_description": "", "unpublished": false, "external": false, "first_production_date": null, "commissioned": false, "public_domain": false, "external_references": [], "brief_description": "<p>Publicity kit for the production Celso and Cora (1983), including 1 B&amp;W Transparency (Large)</p>", "constellations_primary": [], "constellations_other": [], "recommendations": [], "creator_credit_for_label": "", "headline_credit_for_label": "", "title_for_label": "<p>[Celso and Cora : publicity kit]</p>", "description": "<p>Publicity kit for the production Celso and Cora (1983), including 1 B&amp;W Transparency (Large)</p>", "description_for_label": ["<p>Publicity kit for the production Celso and Cora (1983), including 1 B&amp;W Transparency (Large)</p>"], "credit_line_for_label": "", "details": [{"label": "Subject category", "display_values": ["Documentation"]}, {"label": "Object Types", "display_values": ["Publicity kit"]}], "stats": {"tap_count": 2}, "links": [], "creators_primary": [], "creators_other": [], "media_note": null, "holdings": [], "part_of": null, "parts": [], "part_siblings": [], "group": null, "group_works": [], "group_siblings": [], "source": {"name": "Vernon", "slug": "vernon"}, "source_identifier": "149182", "eaas_environment_id": null, "production_places": [], "production_dates": [], "labels": [58079]}]}