{"count": 41735, "next": "https://api.acmi.net.au/works/?page=1198", "previous": "https://api.acmi.net.au/works/?page=1196", "results": [{"id": 108321, "acmi_id": "B1002215", "title": "Six Australians. Episodes 1-3", "title_annotation": "", "slug": "six-australians-episodes-1-3", "creator_credit": "John McGowan and Australian Broadcasting Corporation", "credit_line": "", "headline_credit": "Australia, 1984", "video_links": [], "record_type": "work", "type": "TV show", "is_on_display": false, "last_on_display_place": null, "last_on_display_date": null, "is_context_indigenous": false, "material_description": "", "unpublished": false, "external": false, "first_production_date": "1984-01-01T11:00:00+11:00", "commissioned": false, "public_domain": false, "external_references": [], "brief_description": "<p>Winner of the Human Rights Commission Inaugural Media Award 1984. The series explores the life and times of six Aboriginal Australians: Sylvia Blanco, Maurice Rioli, Neenya Charles (Eps 1-3), Trevor Adamson, Freda Glynn, Cliff Coulthard (Eps 4-6)</p>", "constellations_primary": [], "constellations_other": [], "recommendations": [], "creator_credit_for_label": "<p>John McGowan and Australian Broadcasting Corporation</p>", "headline_credit_for_label": "<p>Australia, 1984</p>", "title_for_label": "<p>Six Australians. Episodes 1-3</p>", "description": "<p>Winner of the Human Rights Commission Inaugural Media Award 1984. The series explores the life and times of six Aboriginal Australians: Sylvia Blanco, Maurice Rioli, Neenya Charles (Eps 1-3), Trevor Adamson, Freda Glynn, Cliff Coulthard (Eps 4-6)</p>", "description_for_label": ["<p>Winner of the Human Rights Commission Inaugural Media Award 1984. The series explores the life and times of six Aboriginal Australians: Sylvia Blanco, Maurice Rioli, Neenya Charles (Eps 1-3), Trevor Adamson, Freda Glynn, Cliff Coulthard (Eps 4-6)</p>"], "credit_line_for_label": "", "details": [{"label": "Subject categories", "display_values": ["Television", "Television&nbsp;→ Television series", "Television&nbsp;→ Television series&nbsp;→ Television series - Australia"]}], "stats": {"tap_count": 0}, "links": [], "creators_primary": [{"id": 2748431, "name": "John McGowan", "creator_id": 7342, "creator_wikidata_id": null, "role": "director", "role_id": 938, "is_primary": true}, {"id": 2748430, "name": "John McGowan", "creator_id": 7342, "creator_wikidata_id": null, "role": "producer", "role_id": 1089, "is_primary": true}, {"id": 2748433, "name": "Australian Broadcasting Corporation", "creator_id": 66906, "creator_wikidata_id": null, "role": "production company", "role_id": 941, "is_primary": true}], "creators_other": [], "media_note": "Sorry, we don't have images or video for this item.", "holdings": [{"name": "Digital Betacam [PAL]; Master", "identifier": "", "description": ""}, {"name": "VHS [PAL]; Reference - timecoded", "identifier": "", "description": ""}, {"name": "Digital Betacam [PAL]; Sub-master", "identifier": "", "description": ""}], "part_of": null, "parts": [], "part_siblings": [], "group": null, "group_works": [], "group_siblings": [], "source": {"name": "Vernon", "slug": "vernon"}, "source_identifier": "684", "eaas_environment_id": null, "production_places": [{"id": 3, "name": "Australia", "slug": "australia"}], "production_dates": [{"date": "1984", "notes": "", "to_year": "1984"}], "labels": [47814]}, {"id": 108320, "acmi_id": "B1002213", "title": "Kam Yan Series 1 - Brewarrina", "title_annotation": "", "slug": "kam-yan-series-1-brewarrina", "creator_credit": "ABC-TV (Australia). Indigenous Program Unit", "credit_line": "", "headline_credit": "1995", "video_links": [], "record_type": "work", "type": "TV show", "is_on_display": false, "last_on_display_place": null, "last_on_display_date": null, "is_context_indigenous": false, "material_description": "", "unpublished": false, "external": false, "first_production_date": "1995-01-01T11:00:00+11:00", "commissioned": false, "public_domain": false, "external_references": [], "brief_description": "", "constellations_primary": [], "constellations_other": [], "recommendations": [], "creator_credit_for_label": "<p>ABC-TV (Australia). Indigenous Program Unit</p>", "headline_credit_for_label": "<p>1995</p>", "title_for_label": "<p>Kam Yan Series 1 - Brewarrina</p>", "description": "", "description_for_label": [], "credit_line_for_label": "", "details": [{"label": "Subject categories", "display_values": ["Television", "Television&nbsp;→ Television series", "Television&nbsp;→ Television series&nbsp;→ Television series - Australia"]}], "stats": {"tap_count": 0}, "links": [], "creators_primary": [{"id": 2748429, "name": "ABC-TV (Australia). Indigenous Program Unit", "creator_id": 7164, "creator_wikidata_id": null, "role": "creator", "role_id": 968, "is_primary": true}], "creators_other": [], "media_note": "Sorry, we don't have images or video for this item.", "holdings": [{"name": "Digital Betacam [PAL]; Master", "identifier": "", "description": ""}, {"name": "VHS [PAL]; Reference - timecoded", "identifier": "", "description": ""}, {"name": "Digital Betacam [PAL]; Sub-master", "identifier": "", "description": ""}], "part_of": null, "parts": [], "part_siblings": [], "group": null, "group_works": [], "group_siblings": [], "source": {"name": "Vernon", "slug": "vernon"}, "source_identifier": "682", "eaas_environment_id": null, "production_places": [], "production_dates": [{"date": "1995", "notes": "", "to_year": "1995"}], "labels": [47813]}, {"id": 108297, "acmi_id": "B1002160", "title": "Luz", "title_annotation": "", "slug": "luz", "creator_credit": "Jose Martinez", "credit_line": "", "headline_credit": "United States, 1999", "video_links": [], "record_type": "work", "type": "Film", "is_on_display": false, "last_on_display_place": null, "last_on_display_date": null, "is_context_indigenous": false, "material_description": "", "unpublished": false, "external": false, "first_production_date": "1999-01-01T11:00:00+11:00", "commissioned": false, "public_domain": false, "external_references": [], "brief_description": "<p>128&#8230;129&#8230;129&#8230;a walk through a wondrous neighbourhood that only a child could imagine. A little girl plays in the street while her mother calls her home, wherever we find it.</p>", "constellations_primary": [], "constellations_other": [], "recommendations": [], "creator_credit_for_label": "<p>Jose Martinez</p>", "headline_credit_for_label": "<p>United States, 1999</p>", "title_for_label": "<p>Luz</p>", "description": "<p>128&#8230;129&#8230;129&#8230;a walk through a wondrous neighbourhood that only a child could imagine. A little girl plays in the street while her mother calls her home, wherever we find it.</p>", "description_for_label": ["<p>128&#8230;129&#8230;129&#8230;a walk through a wondrous neighbourhood that only a child could imagine. A little girl plays in the street while her mother calls her home, wherever we find it.</p>"], "credit_line_for_label": "", "details": [{"label": "Duration", "display_values": ["00:08:17:00"]}, {"label": "Language", "display_values": ["English"]}, {"label": "Audience classification", "display_values": ["Exempt"]}, {"label": "Subject categories", "display_values": ["Amateur & Student Films", "Amateur & Student Films&nbsp;→ Student films - United States", "Animation", "Animation&nbsp;→ Animated films - United States", "Animation&nbsp;→ Computer animation", "Short films", "Short films&nbsp;→ Short films - United States"]}, {"label": "Sound/audio", "display_values": ["Sound"]}, {"label": "Colour", "display_values": ["Colour"]}], "stats": {"tap_count": 0}, "links": [], "creators_primary": [{"id": 2748428, "name": "Jose Martinez", "creator_id": 7320, "creator_wikidata_id": null, "role": "creator", "role_id": 968, "is_primary": true}], "creators_other": [{"id": 2748427, "name": "Jose Martinez", "creator_id": 7320, "creator_wikidata_id": null, "role": "animator", "role_id": 497, "is_primary": false}, {"id": 2748426, "name": "UCLA Animation Workshop", "creator_id": 73374, "creator_wikidata_id": null, "role": "production facilities", "role_id": 442, "is_primary": false}], "media_note": null, "holdings": [{"name": "Digital Betacam [PAL]; Master", "identifier": "", "description": ""}, {"name": "Digital Betacam [PAL]; Sub-master", "identifier": "", "description": ""}, {"name": "VHS [PAL]; Reference - timecoded", "identifier": "", "description": ""}, {"name": "MPEG-2 Digital File; Memory Grid Pod Full Encode", "identifier": "", "description": ""}], "part_of": null, "parts": [], "part_siblings": [], "group": null, "group_works": [], "group_siblings": [], "source": {"name": "Vernon", "slug": "vernon"}, "source_identifier": "646", "eaas_environment_id": null, "production_places": [{"id": 2, "name": "United States", "slug": "united-states"}], "production_dates": [{"date": "1999", "notes": "", "to_year": "1999"}], "labels": [47790]}, {"id": 108316, "acmi_id": "B1002208", "title": "[Kids and culture]", "title_annotation": "", "slug": "kids-and-culture", "creator_credit": "", "credit_line": "", "headline_credit": "Australia, 1991", "video_links": [], "record_type": "work", "type": "TV show", "is_on_display": false, "last_on_display_place": null, "last_on_display_date": null, "is_context_indigenous": false, "material_description": "", "unpublished": false, "external": false, "first_production_date": "1991-01-01T11:00:00+11:00", "commissioned": false, "public_domain": false, "external_references": [], "brief_description": "", "constellations_primary": [], "constellations_other": [], "recommendations": [], "creator_credit_for_label": "", "headline_credit_for_label": "<p>Australia, 1991</p>", "title_for_label": "<p>[Kids and culture]</p>", "description": "", "description_for_label": [], "credit_line_for_label": "", "details": [{"label": "Subject categories", "display_values": ["Television", "Television&nbsp;→ Television series", "Television&nbsp;→ Television series&nbsp;→ Television series - Australia"]}], "stats": {"tap_count": 0}, "links": [], "creators_primary": [], "creators_other": [], "media_note": "Sorry, we don't have images or video for this item.", "holdings": [{"name": "VHS [PAL]; Reference - timecoded", "identifier": "", "description": ""}], "part_of": null, "parts": [], "part_siblings": [], "group": null, "group_works": [], "group_siblings": [], "source": {"name": "Vernon", "slug": "vernon"}, "source_identifier": "677", "eaas_environment_id": null, "production_places": [{"id": 3, "name": "Australia", "slug": "australia"}], "production_dates": [{"date": "1991", "notes": "", "to_year": "1991"}], "labels": [47809]}, {"id": 108314, "acmi_id": "B1002207", "title": "Black man...white Australia", "title_annotation": "", "slug": "black-manwhite-australia", "creator_credit": "", "credit_line": "", "headline_credit": "Australia, 1991", "video_links": [], "record_type": "work", "type": "TV show", "is_on_display": false, "last_on_display_place": null, "last_on_display_date": null, "is_context_indigenous": false, "material_description": "", "unpublished": false, "external": false, "first_production_date": "1991-01-01T11:00:00+11:00", "commissioned": false, "public_domain": false, "external_references": [], "brief_description": "", "constellations_primary": [], "constellations_other": [], "recommendations": [], "creator_credit_for_label": "", "headline_credit_for_label": "<p>Australia, 1991</p>", "title_for_label": "<p>Black man&#8230;white Australia</p>", "description": "", "description_for_label": [], "credit_line_for_label": "", "details": [{"label": "Subject categories", "display_values": ["Television", "Television&nbsp;→ Television series", "Television&nbsp;→ Television series&nbsp;→ Television series - Australia"]}], "stats": {"tap_count": 0}, "links": [], "creators_primary": [], "creators_other": [], "media_note": "Sorry, we don't have images or video for this item.", "holdings": [{"name": "Digital Betacam [PAL]; Master", "identifier": "", "description": ""}, {"name": "VHS [PAL]; Reference - timecoded", "identifier": "", "description": ""}], "part_of": null, "parts": [], "part_siblings": [], "group": null, "group_works": [], "group_siblings": [], "source": {"name": "Vernon", "slug": "vernon"}, "source_identifier": "676", "eaas_environment_id": null, "production_places": [{"id": 3, "name": "Australia", "slug": "australia"}], "production_dates": [{"date": "1991", "notes": "", "to_year": "1991"}], "labels": [47807]}, {"id": 108313, "acmi_id": "B1002206", "title": "Gammin paradise", "title_annotation": "", "slug": "gammin-paradise", "creator_credit": "ABC-TV (Australia). Indigenous Program Unit", "credit_line": "", "headline_credit": "Australia, 1991", "video_links": [], "record_type": "work", "type": "TV show", "is_on_display": false, "last_on_display_place": null, "last_on_display_date": null, "is_context_indigenous": false, "material_description": "", "unpublished": false, "external": false, "first_production_date": "1991-01-01T11:00:00+11:00", "commissioned": false, "public_domain": false, "external_references": [], "brief_description": "", "constellations_primary": [], "constellations_other": [], "recommendations": [], "creator_credit_for_label": "<p>ABC-TV (Australia). Indigenous Program Unit</p>", "headline_credit_for_label": "<p>Australia, 1991</p>", "title_for_label": "<p>Gammin paradise</p>", "description": "", "description_for_label": [], "credit_line_for_label": "", "details": [{"label": "Subject categories", "display_values": ["Television", "Television&nbsp;→ Television series", "Television&nbsp;→ Television series&nbsp;→ Television series - Australia"]}], "stats": {"tap_count": 0}, "links": [], "creators_primary": [{"id": 2748408, "name": "ABC-TV (Australia). Indigenous Program Unit", "creator_id": 7164, "creator_wikidata_id": null, "role": "creator", "role_id": 968, "is_primary": true}], "creators_other": [], "media_note": "Sorry, we don't have images or video for this item.", "holdings": [{"name": "Digital Betacam [PAL]; Master", "identifier": "", "description": ""}, {"name": "Digital Betacam [PAL]; Sub-master", "identifier": "", "description": ""}, {"name": "VHS [PAL]; Reference - timecoded", "identifier": "", "description": ""}], "part_of": null, "parts": [], "part_siblings": [], "group": null, "group_works": [], "group_siblings": [], "source": {"name": "Vernon", "slug": "vernon"}, "source_identifier": "675", "eaas_environment_id": null, "production_places": [{"id": 3, "name": "Australia", "slug": "australia"}], "production_dates": [{"date": "1991", "notes": "", "to_year": "1991"}], "labels": [47806]}, {"id": 108306, "acmi_id": "B1002185", "title": "ACMI launch promotional trailer", "title_annotation": "", "slug": "acmi-launch-promotional-trailer", "creator_credit": "Rosemary Kendall", "credit_line": "", "headline_credit": "Australia, 17 JUL 2001-14 AUG 2001", "video_links": [], "record_type": "work", "type": "Film", "is_on_display": false, "last_on_display_place": null, "last_on_display_date": null, "is_context_indigenous": false, "material_description": "", "unpublished": false, "external": false, "first_production_date": null, "commissioned": true, "public_domain": false, "external_references": [], "brief_description": "", "constellations_primary": [], "constellations_other": [], "recommendations": [], "creator_credit_for_label": "<p>Rosemary Kendall</p>", "headline_credit_for_label": "<p>Australia, 17 JUL 2001-14 AUG 2001</p>", "title_for_label": "<p>ACMI launch promotional trailer</p>", "description": "", "description_for_label": [], "credit_line_for_label": "", "details": [{"label": "Language", "display_values": ["English"]}, {"label": "Audience classification", "display_values": ["G"]}, {"label": "Subject category", "display_values": ["Advertising"]}], "stats": {"tap_count": 0}, "links": [], "creators_primary": [{"id": 2748400, "name": "Rosemary Kendall", "creator_id": 7332, "creator_wikidata_id": "Q121270916", "role": "producer", "role_id": 1089, "is_primary": true}], "creators_other": [{"id": 2748403, "name": "Alessio Cavallaro", "creator_id": 6572, "creator_wikidata_id": "Q121035973", "role": "collaborator", "role_id": 536, "is_primary": false}, {"id": 2748406, "name": "Pollyanna Sutton", "creator_id": 73377, "creator_wikidata_id": null, "role": "project manager", "role_id": 498, "is_primary": false}], "media_note": "Sorry, we don't have images or video for this item.", "holdings": [{"name": "Digital Betacam [PAL]; Master", "identifier": "", "description": ""}, {"name": "Digital Betacam [PAL]; Sub-master", "identifier": "", "description": ""}], "part_of": null, "parts": [], "part_siblings": [], "group": null, "group_works": [], "group_siblings": [], "source": {"name": "Vernon", "slug": "vernon"}, "source_identifier": "663", "eaas_environment_id": null, "production_places": [{"id": 3, "name": "Australia", "slug": "australia"}], "production_dates": [{"date": "17 JUL 2001-14 AUG 2001", "notes": "", "to_year": "17 JUL 2001-14 AUG 2001"}], "labels": [47799]}, {"id": 108312, "acmi_id": "B1002205", "title": "Schooldays", "title_annotation": "", "slug": "schooldays", "creator_credit": "ABC-TV (Australia). Indigenous Program Unit", "credit_line": "", "headline_credit": "Australia, 1991", "video_links": [], "record_type": "work", "type": "TV show", "is_on_display": false, "last_on_display_place": null, "last_on_display_date": null, "is_context_indigenous": false, "material_description": "", "unpublished": false, "external": false, "first_production_date": "1991-01-01T11:00:00+11:00", "commissioned": false, "public_domain": false, "external_references": [], "brief_description": "", "constellations_primary": [], "constellations_other": [], "recommendations": [], "creator_credit_for_label": "<p>ABC-TV (Australia). Indigenous Program Unit</p>", "headline_credit_for_label": "<p>Australia, 1991</p>", "title_for_label": "<p>Schooldays</p>", "description": "", "description_for_label": [], "credit_line_for_label": "", "details": [{"label": "Subject categories", "display_values": ["Television", "Television&nbsp;→ Television series", "Television&nbsp;→ Television series&nbsp;→ Television series - Australia"]}], "stats": {"tap_count": 0}, "links": [], "creators_primary": [{"id": 2748394, "name": "ABC-TV (Australia). Indigenous Program Unit", "creator_id": 7164, "creator_wikidata_id": null, "role": "production company", "role_id": 941, "is_primary": true}], "creators_other": [], "media_note": "Sorry, we don't have images or video for this item.", "holdings": [{"name": "VHS [PAL]; Reference - timecoded", "identifier": "", "description": ""}], "part_of": null, "parts": [], "part_siblings": [], "group": null, "group_works": [], "group_siblings": [], "source": {"name": "Vernon", "slug": "vernon"}, "source_identifier": "674", "eaas_environment_id": null, "production_places": [{"id": 3, "name": "Australia", "slug": "australia"}], "production_dates": [{"date": "1991", "notes": "", "to_year": "1991"}], "labels": [47805]}, {"id": 114036, "acmi_id": "B1002180", "title": "Behaviour", "title_annotation": "", "slug": "behaviour", "creator_credit": "Margie Medlin", "credit_line": "", "headline_credit": "Australia, 1993", "video_links": [], "record_type": "work", "type": "Film", "is_on_display": false, "last_on_display_place": null, "last_on_display_date": null, "is_context_indigenous": false, "material_description": "", "unpublished": false, "external": false, "first_production_date": "1993-01-01T11:00:00+11:00", "commissioned": false, "public_domain": false, "external_references": [], "brief_description": "", "constellations_primary": [], "constellations_other": [], "recommendations": [], "creator_credit_for_label": "<p>Margie Medlin</p>", "headline_credit_for_label": "<p>Australia, 1993</p>", "title_for_label": "<p>Behaviour</p>", "description": "", "description_for_label": [], "credit_line_for_label": "", "details": [{"label": "Duration", "display_values": ["00:11:46:00"]}, {"label": "Subject categories", "display_values": ["Short films", "Short films&nbsp;→ Short films - Australia"]}, {"label": "Sound/audio", "display_values": ["Sound"]}, {"label": "Colour", "display_values": ["Colour"]}], "stats": {"tap_count": 0}, "links": [], "creators_primary": [{"id": 2748397, "name": "Margie Medlin", "creator_id": 6794, "creator_wikidata_id": "Q121126176", "role": "director", "role_id": 938, "is_primary": true}, {"id": 2748391, "name": "Margie Medlin", "creator_id": 6794, "creator_wikidata_id": "Q121126176", "role": "creator", "role_id": 968, "is_primary": true}], "creators_other": [{"id": 2748396, "name": "Shelley Lasica", "creator_id": 81878, "creator_wikidata_id": "Q121126278", "role": "cast", "role_id": 33, "is_primary": false}, {"id": 2748390, "name": "Shelley Lasica", "creator_id": 81878, "creator_wikidata_id": "Q121126278", "role": "choreographer", "role_id": 951, "is_primary": false}], "media_note": "Sorry, we don't have images or video for this item.", "holdings": [{"name": "SP Betacam; Master", "identifier": "", "description": ""}, {"name": "Digital Betacam [PAL]; Sub-master", "identifier": "", "description": ""}, {"name": "VHS [PAL]; Reference - timecoded", "identifier": "", "description": ""}], "part_of": null, "parts": [], "part_siblings": [], "group": null, "group_works": [], "group_siblings": [], "source": {"name": "Vernon", "slug": "vernon"}, "source_identifier": "659", "eaas_environment_id": null, "production_places": [{"id": 3, "name": "Australia", "slug": "australia"}], "production_dates": [{"date": "1993", "notes": "", "to_year": "1993"}], "labels": [53528]}, {"id": 108310, "acmi_id": "B1002204", "title": "Dance is our language", "title_annotation": "", "slug": "dance-is-our-language", "creator_credit": "", "credit_line": "", "headline_credit": "Australia, 1989", "video_links": [], "record_type": "work", "type": "TV show", "is_on_display": false, "last_on_display_place": null, "last_on_display_date": null, "is_context_indigenous": false, "material_description": "", "unpublished": false, "external": false, "first_production_date": "1989-01-01T11:00:00+11:00", "commissioned": false, "public_domain": false, "external_references": [], "brief_description": "", "constellations_primary": [], "constellations_other": [], "recommendations": [], "creator_credit_for_label": "", "headline_credit_for_label": "<p>Australia, 1989</p>", "title_for_label": "<p>Dance is our language</p>", "description": "", "description_for_label": [], "credit_line_for_label": "", "details": [{"label": "Subject categories", "display_values": ["Television", "Television&nbsp;→ Television series", "Television&nbsp;→ Television series&nbsp;→ Television series - Australia"]}], "stats": {"tap_count": 0}, "links": [], "creators_primary": [], "creators_other": [], "media_note": "Sorry, we don't have images or video for this item.", "holdings": [{"name": "VHS [PAL]; Reference - timecoded", "identifier": "", "description": ""}], "part_of": null, "parts": [], "part_siblings": [], "group": null, "group_works": [], "group_siblings": [], "source": {"name": "Vernon", "slug": "vernon"}, "source_identifier": "673", "eaas_environment_id": null, "production_places": [{"id": 3, "name": "Australia", "slug": "australia"}], "production_dates": [{"date": "1989", "notes": "", "to_year": "1989"}], "labels": [47803]}]}