{"count": 41724, "next": "https://api.acmi.net.au/works/?page=4124", "previous": "https://api.acmi.net.au/works/?page=4122", "results": [{"id": 92171, "acmi_id": "315388", "title": "[Rice growing and distribution in Australia]", "title_annotation": "", "slug": "rice-growing-and-distribution-in-australia", "creator_credit": "", "credit_line": "", "headline_credit": "Australia, 1972", "video_links": [], "record_type": "work", "type": "Film", "is_on_display": false, "last_on_display_place": null, "last_on_display_date": null, "is_context_indigenous": false, "material_description": "", "unpublished": false, "external": false, "first_production_date": "1972-01-01T11:00:00+11:00", "commissioned": false, "public_domain": false, "external_references": [], "brief_description": "<p>Silent film showing the process of rice growing in Australia and its storage and distribution. Printed shot-list accompanying the film indicates &#8220;Victorian Railways&#8221; and suggested script. Silent film with no title, intertitles or credits. To quote from the shot-list &#8220;&#8230;Rice is grown under irrigation in the Murrumbidgee, Coleambally and Murray Valley districts of NSW and, near Townsville in Queensland. From a humble beginning, the industry has prospered, reaching a production of 284,000 tons of rice harvested in 1971. The average yield of Australian rice is the highest in the world 3 tons of grain per acre.&#8221;</p>", "constellations_primary": [], "constellations_other": [], "recommendations": [], "creator_credit_for_label": "", "headline_credit_for_label": "<p>Australia, 1972</p>", "title_for_label": "<p>[Rice growing and distribution in Australia]</p>", "description": "<p>Silent film showing the process of rice growing in Australia and its storage and distribution. Printed shot-list accompanying the film indicates &#8220;Victorian Railways&#8221; and suggested script. Silent film with no title, intertitles or credits. To quote from the shot-list &#8220;&#8230;Rice is grown under irrigation in the Murrumbidgee, Coleambally and Murray Valley districts of NSW and, near Townsville in Queensland. From a humble beginning, the industry has prospered, reaching a production of 284,000 tons of rice harvested in 1971. The average yield of Australian rice is the highest in the world 3 tons of grain per acre.&#8221;</p>", "description_for_label": ["<p>Silent film showing the process of rice growing in Australia and its storage and distribution. Printed shot-list accompanying the film indicates &#8220;Victorian Railways&#8221; and suggested script. Silent film with no title, intertitles or credits. To quote from the shot-list &#8220;&#8230;Rice is grown under irrigation in the Murrumbidgee, Coleambally and Murray Valley districts of NSW and, near Townsville in Queensland. From a humble beginning, the industry has prospered, reaching a production of 284,000 tons of rice harvested in 1971. The average yield of Australian rice is the highest in the world 3 tons of grain per acre.&#8221;</p>"], "credit_line_for_label": "", "details": [{"label": "Duration", "display_values": ["00:03:33:00"]}, {"label": "Subject categories", "display_values": ["Communications, Infrastructure, & Transport&nbsp;→ Railroads - Australia", "Communications, Infrastructure, & Transport&nbsp;→ Transportation - Freight", "Documentary", "Documentary&nbsp;→ Documentary films - Australia", "History&nbsp;→ Murray Valley - History", "Short films", "Short films&nbsp;→ Short films - Australia", "Silent films"]}, {"label": "Sound/audio", "display_values": ["Silent"]}, {"label": "Colour", "display_values": ["Black and White"]}], "stats": {"tap_count": 0}, "links": [], "creators_primary": [], "creators_other": [], "media_note": "Sorry, we don't have images or video for this item.", "holdings": [{"name": "16mm film; Access Print (Section 1)", "identifier": "", "description": ""}], "part_of": null, "parts": [], "part_siblings": [], "group": null, "group_works": [], "group_siblings": [], "source": {"name": "Vernon", "slug": "vernon"}, "source_identifier": "49591", "eaas_environment_id": null, "production_places": [{"id": 3, "name": "Australia", "slug": "australia"}], "production_dates": [{"date": "1972", "notes": "Estimated date", "to_year": "1972"}], "labels": [31661]}, {"id": 118407, "acmi_id": "R0001004", "title": "[Return to Eden : publicity kit]", "title_annotation": "", "slug": "return-to-eden-publicity-kit", "creator_credit": "", "credit_line": "", "headline_credit": "", "video_links": [], "record_type": "work", "type": "Object", "is_on_display": false, "last_on_display_place": null, "last_on_display_date": null, "is_context_indigenous": false, "material_description": "", "unpublished": false, "external": false, "first_production_date": null, "commissioned": false, "public_domain": false, "external_references": [], "brief_description": "<p>Publicity kit for the production Return to Eden (TV - 1983), including 6 B&amp;W Stills (Large), 1 Press Kit/ Review</p>", "constellations_primary": [], "constellations_other": [], "recommendations": [], "creator_credit_for_label": "", "headline_credit_for_label": "", "title_for_label": "<p>[Return to Eden : publicity kit]</p>", "description": "<p>Publicity kit for the production Return to Eden (TV - 1983), including 6 B&amp;W Stills (Large), 1 Press Kit/ Review</p>", "description_for_label": ["<p>Publicity kit for the production Return to Eden (TV - 1983), including 6 B&amp;W Stills (Large), 1 Press Kit/ Review</p>"], "credit_line_for_label": "", "details": [{"label": "Subject category", "display_values": ["Documentation"]}, {"label": "Object Types", "display_values": ["Publicity kit"]}], "stats": {"tap_count": 0}, "links": [], "creators_primary": [], "creators_other": [], "media_note": null, "holdings": [], "part_of": null, "parts": [], "part_siblings": [], "group": null, "group_works": [], "group_siblings": [], "source": {"name": "Vernon", "slug": "vernon"}, "source_identifier": "148976", "eaas_environment_id": null, "production_places": [], "production_dates": [], "labels": [57906]}, {"id": 118404, "acmi_id": "R0001000", "title": "[Return home : publicity kit]", "title_annotation": "", "slug": "return-home-publicity-kit", "creator_credit": "", "credit_line": "", "headline_credit": "", "video_links": [], "record_type": "work", "type": "Object", "is_on_display": false, "last_on_display_place": null, "last_on_display_date": null, "is_context_indigenous": false, "material_description": "", "unpublished": false, "external": false, "first_production_date": null, "commissioned": false, "public_domain": false, "external_references": [], "brief_description": "<p>Publicity kit for the production Return Home (1990), including 17 B&amp;W Stills (Large), 2 Press Kit/ Reviews, 1 Promo Flyer, 1 B&amp;W Negative</p>", "constellations_primary": [], "constellations_other": [], "recommendations": [], "creator_credit_for_label": "", "headline_credit_for_label": "", "title_for_label": "<p>[Return home : publicity kit]</p>", "description": "<p>Publicity kit for the production Return Home (1990), including 17 B&amp;W Stills (Large), 2 Press Kit/ Reviews, 1 Promo Flyer, 1 B&amp;W Negative</p>", "description_for_label": ["<p>Publicity kit for the production Return Home (1990), including 17 B&amp;W Stills (Large), 2 Press Kit/ Reviews, 1 Promo Flyer, 1 B&amp;W Negative</p>"], "credit_line_for_label": "", "details": [{"label": "Subject category", "display_values": ["Documentation"]}, {"label": "Object Types", "display_values": ["Publicity kit"]}], "stats": {"tap_count": 0}, "links": [], "creators_primary": [], "creators_other": [], "media_note": null, "holdings": [], "part_of": null, "parts": [], "part_siblings": [], "group": null, "group_works": [], "group_siblings": [], "source": {"name": "Vernon", "slug": "vernon"}, "source_identifier": "148972", "eaas_environment_id": null, "production_places": [], "production_dates": [], "labels": [57903]}, {"id": 119116, "acmi_id": "R0002357", "title": "[Requiem No.1 : publicity kit]", "title_annotation": "", "slug": "requiem-no1-publicity-kit", "creator_credit": "", "credit_line": "", "headline_credit": "1969", "video_links": [], "record_type": "work", "type": "Object", "is_on_display": false, "last_on_display_place": null, "last_on_display_date": null, "is_context_indigenous": false, "material_description": "", "unpublished": false, "external": false, "first_production_date": "1969-01-01T10:00:00+10:00", "commissioned": false, "public_domain": false, "external_references": [], "brief_description": "<p>Publicity kit for the production Requiem No. 1 (1969), including 1 35mm Colour Transparency. A film by Paul Winkler.</p>", "constellations_primary": [], "constellations_other": [], "recommendations": [], "creator_credit_for_label": "", "headline_credit_for_label": "<p>1969</p>", "title_for_label": "<p>[Requiem No.1 : publicity kit]</p>", "description": "<p>Publicity kit for the production Requiem No. 1 (1969), including 1 35mm Colour Transparency. A film by Paul Winkler.</p>", "description_for_label": ["<p>Publicity kit for the production Requiem No. 1 (1969), including 1 35mm Colour Transparency. A film by Paul Winkler.</p>"], "credit_line_for_label": "", "details": [{"label": "Subject category", "display_values": ["Documentation"]}, {"label": "Object Types", "display_values": ["Publicity kit"]}], "stats": {"tap_count": 2}, "links": [], "creators_primary": [], "creators_other": [], "media_note": null, "holdings": [], "part_of": null, "parts": [], "part_siblings": [], "group": null, "group_works": [], "group_siblings": [], "source": {"name": "Vernon", "slug": "vernon"}, "source_identifier": "150721", "eaas_environment_id": null, "production_places": [], "production_dates": [{"date": "1969", "notes": "", "to_year": "1969"}], "labels": [58587]}, {"id": 118483, "acmi_id": "R0001095", "title": "[Redheads : publicity kit]", "title_annotation": "", "slug": "redheads-publicity-kit", "creator_credit": "", "credit_line": "", "headline_credit": "", "video_links": [], "record_type": "work", "type": "Object", "is_on_display": false, "last_on_display_place": null, "last_on_display_date": null, "is_context_indigenous": false, "material_description": "", "unpublished": false, "external": false, "first_production_date": null, "commissioned": false, "public_domain": false, "external_references": [], "brief_description": "<p>Publicity kit for the production Redheads (1992), including 4 35mm Colour Transparencies</p>", "constellations_primary": [], "constellations_other": [], "recommendations": [], "creator_credit_for_label": "", "headline_credit_for_label": "", "title_for_label": "<p>[Redheads : publicity kit]</p>", "description": "<p>Publicity kit for the production Redheads (1992), including 4 35mm Colour Transparencies</p>", "description_for_label": ["<p>Publicity kit for the production Redheads (1992), including 4 35mm Colour Transparencies</p>"], "credit_line_for_label": "", "details": [{"label": "Subject category", "display_values": ["Documentation"]}, {"label": "Object Types", "display_values": ["Publicity kit"]}], "stats": {"tap_count": 3}, "links": [], "creators_primary": [], "creators_other": [], "media_note": null, "holdings": [], "part_of": null, "parts": [], "part_siblings": [], "group": null, "group_works": [], "group_siblings": [], "source": {"name": "Vernon", "slug": "vernon"}, "source_identifier": "149067", "eaas_environment_id": null, "production_places": [], "production_dates": [], "labels": [57979]}, {"id": 118820, "acmi_id": "R0001482", "title": "[Redball : publicity kit]", "title_annotation": "", "slug": "redball-publicity-kit", "creator_credit": "", "credit_line": "", "headline_credit": "", "video_links": [], "record_type": "work", "type": "Object", "is_on_display": false, "last_on_display_place": null, "last_on_display_date": null, "is_context_indigenous": false, "material_description": "", "unpublished": false, "external": false, "first_production_date": null, "commissioned": false, "public_domain": false, "external_references": [], "brief_description": "<p>Publicity kit for the production Redball (1999), including 10 B&amp;W Stills (Small), 14 35mm Colour Transparencies</p>", "constellations_primary": [], "constellations_other": [], "recommendations": [], "creator_credit_for_label": "", "headline_credit_for_label": "", "title_for_label": "<p>[Redball : publicity kit]</p>", "description": "<p>Publicity kit for the production Redball (1999), including 10 B&amp;W Stills (Small), 14 35mm Colour Transparencies</p>", "description_for_label": ["<p>Publicity kit for the production Redball (1999), including 10 B&amp;W Stills (Small), 14 35mm Colour Transparencies</p>"], "credit_line_for_label": "", "details": [{"label": "Subject category", "display_values": ["Documentation"]}, {"label": "Object Types", "display_values": ["Publicity kit"]}], "stats": {"tap_count": 2}, "links": [], "creators_primary": [], "creators_other": [], "media_note": null, "holdings": [], "part_of": null, "parts": [], "part_siblings": [], "group": null, "group_works": [], "group_siblings": [], "source": {"name": "Vernon", "slug": "vernon"}, "source_identifier": "149455", "eaas_environment_id": null, "production_places": [], "production_dates": [], "labels": [58312]}, {"id": 118819, "acmi_id": "R0001481", "title": "[Reckless Kelly : publicity kit]", "title_annotation": "", "slug": "reckless-kelly-publicity-kit", "creator_credit": "", "credit_line": "", "headline_credit": "", "video_links": [], "record_type": "work", "type": "Object", "is_on_display": false, "last_on_display_place": null, "last_on_display_date": null, "is_context_indigenous": false, "material_description": "", "unpublished": false, "external": false, "first_production_date": null, "commissioned": false, "public_domain": false, "external_references": [], "brief_description": "<p>Publicity kit for the production Reckless Kelly (1993), including 45 B&amp;W Stills (Small), 8 35mm Colour Transparencies</p>", "constellations_primary": [], "constellations_other": [], "recommendations": [], "creator_credit_for_label": "", "headline_credit_for_label": "", "title_for_label": "<p>[Reckless Kelly : publicity kit]</p>", "description": "<p>Publicity kit for the production Reckless Kelly (1993), including 45 B&amp;W Stills (Small), 8 35mm Colour Transparencies</p>", "description_for_label": ["<p>Publicity kit for the production Reckless Kelly (1993), including 45 B&amp;W Stills (Small), 8 35mm Colour Transparencies</p>"], "credit_line_for_label": "", "details": [{"label": "Subject category", "display_values": ["Documentation"]}, {"label": "Object Types", "display_values": ["Publicity kit"]}], "stats": {"tap_count": 0}, "links": [], "creators_primary": [], "creators_other": [], "media_note": null, "holdings": [], "part_of": null, "parts": [], "part_siblings": [], "group": null, "group_works": [], "group_siblings": [], "source": {"name": "Vernon", "slug": "vernon"}, "source_identifier": "149454", "eaas_environment_id": null, "production_places": [], "production_dates": [], "labels": [58311]}, {"id": 118818, "acmi_id": "R0001480", "title": "[Raw deal : publicity kit]", "title_annotation": "", "slug": "raw-deal-publicity-kit", "creator_credit": "", "credit_line": "", "headline_credit": "1977", "video_links": [], "record_type": "work", "type": "Object", "is_on_display": false, "last_on_display_place": null, "last_on_display_date": null, "is_context_indigenous": false, "material_description": "", "unpublished": false, "external": false, "first_production_date": "1977-01-01T11:00:00+11:00", "commissioned": false, "public_domain": false, "external_references": [], "brief_description": "<p>Publicity kit for the production Raw Deal (1977), including 3 B&amp;W Stills (Large), 1 Promo Flyer, 1 Colour Transparency (Large)</p>", "constellations_primary": [], "constellations_other": [], "recommendations": [], "creator_credit_for_label": "", "headline_credit_for_label": "<p>1977</p>", "title_for_label": "<p>[Raw deal : publicity kit]</p>", "description": "<p>Publicity kit for the production Raw Deal (1977), including 3 B&amp;W Stills (Large), 1 Promo Flyer, 1 Colour Transparency (Large)</p>", "description_for_label": ["<p>Publicity kit for the production Raw Deal (1977), including 3 B&amp;W Stills (Large), 1 Promo Flyer, 1 Colour Transparency (Large)</p>"], "credit_line_for_label": "", "details": [{"label": "Subject category", "display_values": ["Documentation"]}, {"label": "Object Types", "display_values": ["Publicity kit"]}], "stats": {"tap_count": 0}, "links": [], "creators_primary": [], "creators_other": [], "media_note": null, "holdings": [], "part_of": null, "parts": [], "part_siblings": [], "group": null, "group_works": [], "group_siblings": [], "source": {"name": "Vernon", "slug": "vernon"}, "source_identifier": "149453", "eaas_environment_id": null, "production_places": [], "production_dates": [{"date": "1977", "notes": "", "to_year": "1977"}], "labels": [58310]}, {"id": 89512, "acmi_id": "312313", "title": "[Radiography of malignant tumors]", "title_annotation": "", "slug": "radiography-of-malignant-tumors", "creator_credit": "", "credit_line": "", "headline_credit": "Germany, 1937", "video_links": [], "record_type": "work", "type": "Film", "is_on_display": false, "last_on_display_place": null, "last_on_display_date": null, "is_context_indigenous": false, "material_description": "", "unpublished": false, "external": false, "first_production_date": "1937-01-01T10:00:00+10:00", "commissioned": false, "public_domain": false, "external_references": [], "brief_description": "<p>Before and after shots of cancer patients taken between 1931 and 1937. (By Professor H. Chaoul of Berlin?) Silent film - no title.</p>", "constellations_primary": [], "constellations_other": [], "recommendations": [], "creator_credit_for_label": "", "headline_credit_for_label": "<p>Germany, 1937</p>", "title_for_label": "<p>[Radiography of malignant tumors]</p>", "description": "<p>Before and after shots of cancer patients taken between 1931 and 1937. (By Professor H. Chaoul of Berlin?) Silent film - no title.</p>", "description_for_label": ["<p>Before and after shots of cancer patients taken between 1931 and 1937. (By Professor H. Chaoul of Berlin?) Silent film - no title.</p>"], "credit_line_for_label": "", "details": [{"label": "Duration", "display_values": ["00:17:22:00"]}, {"label": "Language", "display_values": ["German"]}, {"label": "Subject categories", "display_values": ["Documentary", "Documentary&nbsp;→ Documentary films - Germany", "Food, Health, Lifestyle, Medicine, Psychology & Safety&nbsp;→ Cancer - Research", "Food, Health, Lifestyle, Medicine, Psychology & Safety&nbsp;→ Cancer - Surgery", "Food, Health, Lifestyle, Medicine, Psychology & Safety&nbsp;→ Medical films", "Food, Health, Lifestyle, Medicine, Psychology & Safety&nbsp;→ Medical sciences", "Food, Health, Lifestyle, Medicine, Psychology & Safety&nbsp;→ Radiography", "Foreign language films", "Mathematics, Science & Technology&nbsp;→ Medical sciences", "Mathematics, Science & Technology&nbsp;→ Radiography", "Short films", "Short films&nbsp;→ Short films - Germany", "Silent films"]}, {"label": "Sound/audio", "display_values": ["Silent"]}, {"label": "Colour", "display_values": ["Black and White"]}], "stats": {"tap_count": 0}, "links": [], "creators_primary": [], "creators_other": [], "media_note": "Sorry, we don't have images or video for this item.", "holdings": [{"name": "16mm film; Access Print (Section 1)", "identifier": "", "description": ""}], "part_of": null, "parts": [], "part_siblings": [], "group": null, "group_works": [], "group_siblings": [], "source": {"name": "Vernon", "slug": "vernon"}, "source_identifier": "46629", "eaas_environment_id": null, "production_places": [{"id": 18, "name": "Germany", "slug": "germany"}], "production_dates": [{"date": "1937", "notes": "Estimated date", "to_year": "1937"}], "labels": [29002]}, {"id": 118282, "acmi_id": "R0001001", "title": "[Radiance : publicity kit]", "title_annotation": "", "slug": "radiance-publicity-kit", "creator_credit": "", "credit_line": "", "headline_credit": "1997", "video_links": [], "record_type": "work", "type": "Object", "is_on_display": false, "last_on_display_place": null, "last_on_display_date": null, "is_context_indigenous": false, "material_description": "", "unpublished": false, "external": false, "first_production_date": "1997-01-01T11:00:00+11:00", "commissioned": false, "public_domain": false, "external_references": [], "brief_description": "<p>Publicity kit for the production Radiance (1997), including 5 35mm Colour Transparencies, 2 Press Kit/ Reviews, 1 Promo Flyer</p>", "constellations_primary": [], "constellations_other": [], "recommendations": [], "creator_credit_for_label": "", "headline_credit_for_label": "<p>1997</p>", "title_for_label": "<p>[Radiance : publicity kit]</p>", "description": "<p>Publicity kit for the production Radiance (1997), including 5 35mm Colour Transparencies, 2 Press Kit/ Reviews, 1 Promo Flyer</p>", "description_for_label": ["<p>Publicity kit for the production Radiance (1997), including 5 35mm Colour Transparencies, 2 Press Kit/ Reviews, 1 Promo Flyer</p>"], "credit_line_for_label": "", "details": [{"label": "Subject category", "display_values": ["Documentation"]}, {"label": "Object Types", "display_values": ["Publicity kit"]}], "stats": {"tap_count": 0}, "links": [], "creators_primary": [], "creators_other": [], "media_note": null, "holdings": [], "part_of": null, "parts": [], "part_siblings": [], "group": null, "group_works": [], "group_siblings": [], "source": {"name": "Vernon", "slug": "vernon"}, "source_identifier": "148973", "eaas_environment_id": null, "production_places": [], "production_dates": [{"date": "1997", "notes": "", "to_year": "1997"}], "labels": [57785]}]}