{"count": 41722, "next": "https://api.acmi.net.au/works/?page=4154", "previous": "https://api.acmi.net.au/works/?page=4152", "results": [{"id": 118616, "acmi_id": "R0001246", "title": "[Dead letters : publicity kit]", "title_annotation": "", "slug": "dead-letters-publicity-kit", "creator_credit": "", "credit_line": "", "headline_credit": "", "video_links": [], "record_type": "work", "type": "Object", "is_on_display": false, "last_on_display_place": null, "last_on_display_date": null, "is_context_indigenous": false, "material_description": "", "unpublished": false, "external": false, "first_production_date": null, "commissioned": false, "public_domain": false, "external_references": [], "brief_description": "<p>Publicity kit for the production Dead Letters (TV 1997), including 1 B&amp;W Still (Large), 1 Press Kit/ Review, 1 VHS Slick</p>", "constellations_primary": [], "constellations_other": [], "recommendations": [], "title_for_label": "<p>[Dead letters : publicity kit]</p>", "creator_credit_for_label": "", "headline_credit_for_label": "", "description": "<p>Publicity kit for the production Dead Letters (TV 1997), including 1 B&amp;W Still (Large), 1 Press Kit/ Review, 1 VHS Slick</p>", "description_for_label": ["<p>Publicity kit for the production Dead Letters (TV 1997), including 1 B&amp;W Still (Large), 1 Press Kit/ Review, 1 VHS Slick</p>"], "credit_line_for_label": "", "details": [{"label": "Subject category", "display_values": ["Documentation"]}, {"label": "Object Types", "display_values": ["Publicity kit"]}], "stats": {"tap_count": 0}, "links": [], "creators_primary": [], "creators_other": [], "media_note": null, "holdings": [], "part_of": null, "parts": [], "part_siblings": [], "group": null, "group_works": [], "group_siblings": [], "source": {"name": "Vernon", "slug": "vernon"}, "source_identifier": "149218", "eaas_environment_id": null, "production_places": [], "production_dates": [], "labels": [58111]}, {"id": 118615, "acmi_id": "R0001245", "title": "[Dead letter office : publicity kit]", "title_annotation": "", "slug": "dead-letter-office-publicity-kit", "creator_credit": "", "credit_line": "", "headline_credit": "", "video_links": [], "record_type": "work", "type": "Object", "is_on_display": false, "last_on_display_place": null, "last_on_display_date": null, "is_context_indigenous": false, "material_description": "", "unpublished": false, "external": false, "first_production_date": null, "commissioned": false, "public_domain": false, "external_references": [], "brief_description": "<p>Publicity kit for the production Dead Letter Office (1998), including 78 35mm Colour Transparencies, 1 Press Kit/ Review, 1 Promo Flyer</p>", "constellations_primary": [], "constellations_other": [], "recommendations": [], "title_for_label": "<p>[Dead letter office : publicity kit]</p>", "creator_credit_for_label": "", "headline_credit_for_label": "", "description": "<p>Publicity kit for the production Dead Letter Office (1998), including 78 35mm Colour Transparencies, 1 Press Kit/ Review, 1 Promo Flyer</p>", "description_for_label": ["<p>Publicity kit for the production Dead Letter Office (1998), including 78 35mm Colour Transparencies, 1 Press Kit/ Review, 1 Promo Flyer</p>"], "credit_line_for_label": "", "details": [{"label": "Subject category", "display_values": ["Documentation"]}, {"label": "Object Types", "display_values": ["Publicity kit"]}], "stats": {"tap_count": 0}, "links": [], "creators_primary": [], "creators_other": [], "media_note": null, "holdings": [], "part_of": null, "parts": [], "part_siblings": [], "group": null, "group_works": [], "group_siblings": [], "source": {"name": "Vernon", "slug": "vernon"}, "source_identifier": "149217", "eaas_environment_id": null, "production_places": [], "production_dates": [], "labels": [58110]}, {"id": 118614, "acmi_id": "R0001244", "title": "[Dead heart : publicity kit]", "title_annotation": "", "slug": "dead-heart-publicity-kit", "creator_credit": "", "credit_line": "", "headline_credit": "", "video_links": [], "record_type": "work", "type": "Object", "is_on_display": false, "last_on_display_place": null, "last_on_display_date": null, "is_context_indigenous": false, "material_description": "", "unpublished": false, "external": false, "first_production_date": null, "commissioned": false, "public_domain": false, "external_references": [], "brief_description": "<p>Publicity kit for the production Dead Heart (1996), including 3 35mm Colour Transparencies, 2 Press Kit/ Reviews, 1 Colour Negative Strip</p>", "constellations_primary": [], "constellations_other": [], "recommendations": [], "title_for_label": "<p>[Dead heart : publicity kit]</p>", "creator_credit_for_label": "", "headline_credit_for_label": "", "description": "<p>Publicity kit for the production Dead Heart (1996), including 3 35mm Colour Transparencies, 2 Press Kit/ Reviews, 1 Colour Negative Strip</p>", "description_for_label": ["<p>Publicity kit for the production Dead Heart (1996), including 3 35mm Colour Transparencies, 2 Press Kit/ Reviews, 1 Colour Negative Strip</p>"], "credit_line_for_label": "", "details": [{"label": "Subject category", "display_values": ["Documentation"]}, {"label": "Object Types", "display_values": ["Publicity kit"]}], "stats": {"tap_count": 0}, "links": [], "creators_primary": [], "creators_other": [], "media_note": null, "holdings": [], "part_of": null, "parts": [], "part_siblings": [], "group": null, "group_works": [], "group_siblings": [], "source": {"name": "Vernon", "slug": "vernon"}, "source_identifier": "149216", "eaas_environment_id": null, "production_places": [], "production_dates": [], "labels": [58109]}, {"id": 118613, "acmi_id": "R0001243", "title": "[Dead end drive-in : publicity kit]", "title_annotation": "", "slug": "dead-end-drive-in-publicity-kit", "creator_credit": "", "credit_line": "", "headline_credit": "", "video_links": [], "record_type": "work", "type": "Object", "is_on_display": false, "last_on_display_place": null, "last_on_display_date": null, "is_context_indigenous": false, "material_description": "", "unpublished": false, "external": false, "first_production_date": null, "commissioned": false, "public_domain": false, "external_references": [], "brief_description": "<p>Publicity kit for the production Dead End Drive-In (1986), including 9 B&amp;W Stills (Large), 2 B&amp;W Stills (Small), 8 35mm Colour Transparencies, 1 Press Kit/ Review</p>", "constellations_primary": [], "constellations_other": [], "recommendations": [], "title_for_label": "<p>[Dead end drive-in : publicity kit]</p>", "creator_credit_for_label": "", "headline_credit_for_label": "", "description": "<p>Publicity kit for the production Dead End Drive-In (1986), including 9 B&amp;W Stills (Large), 2 B&amp;W Stills (Small), 8 35mm Colour Transparencies, 1 Press Kit/ Review</p>", "description_for_label": ["<p>Publicity kit for the production Dead End Drive-In (1986), including 9 B&amp;W Stills (Large), 2 B&amp;W Stills (Small), 8 35mm Colour Transparencies, 1 Press Kit/ Review</p>"], "credit_line_for_label": "", "details": [{"label": "Subject category", "display_values": ["Documentation"]}, {"label": "Object Types", "display_values": ["Publicity kit"]}], "stats": {"tap_count": 1}, "links": [], "creators_primary": [], "creators_other": [], "media_note": null, "holdings": [], "part_of": null, "parts": [], "part_siblings": [], "group": null, "group_works": [], "group_siblings": [], "source": {"name": "Vernon", "slug": "vernon"}, "source_identifier": "149215", "eaas_environment_id": null, "production_places": [], "production_dates": [], "labels": [58108]}, {"id": 118918, "acmi_id": "R0001835", "title": "[Dead easy : publicity kit]", "title_annotation": "", "slug": "dead-easy-publicity-kit", "creator_credit": "", "credit_line": "", "headline_credit": "", "video_links": [], "record_type": "work", "type": "Object", "is_on_display": false, "last_on_display_place": null, "last_on_display_date": null, "is_context_indigenous": false, "material_description": "", "unpublished": false, "external": false, "first_production_date": null, "commissioned": false, "public_domain": false, "external_references": [], "brief_description": "<p>Publicity kit for the production Dead Easy (1982), including 7 B&amp;W Stills (Large), 1 35mm Colour Transparency, 1 Press Kit/ Review</p>", "constellations_primary": [], "constellations_other": [], "recommendations": [], "title_for_label": "<p>[Dead easy : publicity kit]</p>", "creator_credit_for_label": "", "headline_credit_for_label": "", "description": "<p>Publicity kit for the production Dead Easy (1982), including 7 B&amp;W Stills (Large), 1 35mm Colour Transparency, 1 Press Kit/ Review</p>", "description_for_label": ["<p>Publicity kit for the production Dead Easy (1982), including 7 B&amp;W Stills (Large), 1 35mm Colour Transparency, 1 Press Kit/ Review</p>"], "credit_line_for_label": "", "details": [{"label": "Subject category", "display_values": ["Documentation"]}, {"label": "Object Types", "display_values": ["Publicity kit"]}], "stats": {"tap_count": 0}, "links": [], "creators_primary": [], "creators_other": [], "media_note": null, "holdings": [], "part_of": null, "parts": [], "part_siblings": [], "group": null, "group_works": [], "group_siblings": [], "source": {"name": "Vernon", "slug": "vernon"}, "source_identifier": "149808", "eaas_environment_id": null, "production_places": [], "production_dates": [], "labels": [58405]}, {"id": 118378, "acmi_id": "R0000972", "title": "[Dead calm : publicity kit]", "title_annotation": "", "slug": "dead-calm-publicity-kit", "creator_credit": "", "credit_line": "", "headline_credit": "1989", "video_links": [], "record_type": "work", "type": "Object", "is_on_display": false, "last_on_display_place": null, "last_on_display_date": null, "is_context_indigenous": false, "material_description": "", "unpublished": false, "external": false, "first_production_date": "1989-01-01T11:00:00+11:00", "commissioned": false, "public_domain": false, "external_references": [], "brief_description": "<p>Publicity kit for the production Dead Calm (1989), including 4 B&amp;W Stills (Large), 3 B&amp;W Stills (Small), 2 35mm Colour Transparencies, 1 Press Kit/ Review, 1 B&amp;W Negative, 1 Promotional poster</p>", "constellations_primary": [], "constellations_other": [], "recommendations": [], "title_for_label": "<p>[Dead calm : publicity kit]</p>", "creator_credit_for_label": "", "headline_credit_for_label": "<p>1989</p>", "description": "<p>Publicity kit for the production Dead Calm (1989), including 4 B&amp;W Stills (Large), 3 B&amp;W Stills (Small), 2 35mm Colour Transparencies, 1 Press Kit/ Review, 1 B&amp;W Negative, 1 Promotional poster</p>", "description_for_label": ["<p>Publicity kit for the production Dead Calm (1989), including 4 B&amp;W Stills (Large), 3 B&amp;W Stills (Small), 2 35mm Colour Transparencies, 1 Press Kit/ Review, 1 B&amp;W Negative, 1 Promotional poster</p>"], "credit_line_for_label": "", "details": [{"label": "Subject category", "display_values": ["Documentation"]}, {"label": "Object Types", "display_values": ["Publicity kit"]}], "stats": {"tap_count": 2}, "links": [], "creators_primary": [], "creators_other": [], "media_note": null, "holdings": [], "part_of": null, "parts": [], "part_siblings": [], "group": null, "group_works": [], "group_siblings": [], "source": {"name": "Vernon", "slug": "vernon"}, "source_identifier": "148944", "eaas_environment_id": null, "production_places": [], "production_dates": [{"date": "1989", "notes": "", "to_year": "1989"}], "labels": [57881]}, {"id": 118612, "acmi_id": "R0001242", "title": "[Daydream believer = The Girl who came late : publicity kit]", "title_annotation": "", "slug": "daydream-believer-the-girl-who-came-late-publicity-kit", "creator_credit": "", "credit_line": "", "headline_credit": "", "video_links": [], "record_type": "work", "type": "Object", "is_on_display": false, "last_on_display_place": null, "last_on_display_date": null, "is_context_indigenous": false, "material_description": "", "unpublished": false, "external": false, "first_production_date": null, "commissioned": false, "public_domain": false, "external_references": [], "brief_description": "<p>Publicity kit for the production Daydream Believer = The Girl Who Came Late (1991), including 2 B&amp;W Stills (Small), 8 35mm Colour Transparencies, 1 Press Kit/ Review, 2 Promo Flyers</p>", "constellations_primary": [], "constellations_other": [], "recommendations": [], "title_for_label": "<p>[Daydream believer = The Girl who came late : publicity kit]</p>", "creator_credit_for_label": "", "headline_credit_for_label": "", "description": "<p>Publicity kit for the production Daydream Believer = The Girl Who Came Late (1991), including 2 B&amp;W Stills (Small), 8 35mm Colour Transparencies, 1 Press Kit/ Review, 2 Promo Flyers</p>", "description_for_label": ["<p>Publicity kit for the production Daydream Believer = The Girl Who Came Late (1991), including 2 B&amp;W Stills (Small), 8 35mm Colour Transparencies, 1 Press Kit/ Review, 2 Promo Flyers</p>"], "credit_line_for_label": "", "details": [{"label": "Subject category", "display_values": ["Documentation"]}, {"label": "Object Types", "display_values": ["Publicity kit"]}], "stats": {"tap_count": 0}, "links": [], "creators_primary": [], "creators_other": [], "media_note": null, "holdings": [], "part_of": null, "parts": [], "part_siblings": [], "group": null, "group_works": [], "group_siblings": [], "source": {"name": "Vernon", "slug": "vernon"}, "source_identifier": "149214", "eaas_environment_id": null, "production_places": [], "production_dates": [], "labels": [58107]}, {"id": 118621, "acmi_id": "R0001251", "title": "[David Gulpilil : photographs]", "title_annotation": "", "slug": "david-gulpilil-photographs", "creator_credit": "", "credit_line": "", "headline_credit": "", "video_links": [], "record_type": "work", "type": "Object", "is_on_display": false, "last_on_display_place": null, "last_on_display_date": null, "is_context_indigenous": false, "material_description": "", "unpublished": false, "external": false, "first_production_date": null, "commissioned": false, "public_domain": false, "external_references": [], "brief_description": "<p>Publicity photographs for David Gulpilil, including 1 B&amp;W Still (Large), 1 Colour Transparency (Large), 2 B&amp;W Negative Strips</p>", "constellations_primary": [], "constellations_other": [], "recommendations": [], "title_for_label": "<p>[David Gulpilil : photographs]</p>", "creator_credit_for_label": "", "headline_credit_for_label": "", "description": "<p>Publicity photographs for David Gulpilil, including 1 B&amp;W Still (Large), 1 Colour Transparency (Large), 2 B&amp;W Negative Strips</p>", "description_for_label": ["<p>Publicity photographs for David Gulpilil, including 1 B&amp;W Still (Large), 1 Colour Transparency (Large), 2 B&amp;W Negative Strips</p>"], "credit_line_for_label": "", "details": [{"label": "Object Types", "display_values": ["Publicity kit"]}], "stats": {"tap_count": 0}, "links": [], "creators_primary": [], "creators_other": [], "media_note": null, "holdings": [], "part_of": null, "parts": [], "part_siblings": [], "group": null, "group_works": [], "group_siblings": [], "source": {"name": "Vernon", "slug": "vernon"}, "source_identifier": "149223", "eaas_environment_id": null, "production_places": [], "production_dates": [], "labels": [58116]}, {"id": 118611, "acmi_id": "R0001241", "title": "[Dating the enemy : publicity kit]", "title_annotation": "", "slug": "dating-the-enemy-publicity-kit", "creator_credit": "", "credit_line": "", "headline_credit": "", "video_links": [], "record_type": "work", "type": "Object", "is_on_display": false, "last_on_display_place": null, "last_on_display_date": null, "is_context_indigenous": false, "material_description": "", "unpublished": false, "external": false, "first_production_date": null, "commissioned": false, "public_domain": false, "external_references": [], "brief_description": "<p>Publicity kit for the production Dating the Enemy (1996), including 3 35mm Colour Transparencies</p>", "constellations_primary": [], "constellations_other": [], "recommendations": [], "title_for_label": "<p>[Dating the enemy : publicity kit]</p>", "creator_credit_for_label": "", "headline_credit_for_label": "", "description": "<p>Publicity kit for the production Dating the Enemy (1996), including 3 35mm Colour Transparencies</p>", "description_for_label": ["<p>Publicity kit for the production Dating the Enemy (1996), including 3 35mm Colour Transparencies</p>"], "credit_line_for_label": "", "details": [{"label": "Subject category", "display_values": ["Documentation"]}, {"label": "Object Types", "display_values": ["Publicity kit"]}], "stats": {"tap_count": 0}, "links": [], "creators_primary": [], "creators_other": [], "media_note": null, "holdings": [], "part_of": null, "parts": [], "part_siblings": [], "group": null, "group_works": [], "group_siblings": [], "source": {"name": "Vernon", "slug": "vernon"}, "source_identifier": "149213", "eaas_environment_id": null, "production_places": [], "production_dates": [], "labels": [58106]}, {"id": 92218, "acmi_id": "315445", "title": "[Darjeeling]", "title_annotation": "", "slug": "darjeeling", "creator_credit": "", "credit_line": "", "headline_credit": "United Kingdom, 1950", "video_links": [], "record_type": "work", "type": "Film", "is_on_display": false, "last_on_display_place": null, "last_on_display_date": null, "is_context_indigenous": false, "material_description": "", "unpublished": false, "external": false, "first_production_date": "1950-01-01T10:00:00+10:00", "commissioned": false, "public_domain": false, "external_references": [], "brief_description": "<p>A documentary on the bustling city of Darjeeling, India. Beautiful footage as we are taken through the city&#8217;s wonderful sites and meet the charismatic locals.<br />\nTitle and credits missing from film.</p>", "constellations_primary": [], "constellations_other": [], "recommendations": [], "title_for_label": "<p>[Darjeeling]</p>", "creator_credit_for_label": "", "headline_credit_for_label": "<p>United Kingdom, 1950</p>", "description": "<p>A documentary on the bustling city of Darjeeling, India. Beautiful footage as we are taken through the city&#8217;s wonderful sites and meet the charismatic locals.<br />\nTitle and credits missing from film.</p>", "description_for_label": ["<p>A documentary on the bustling city of Darjeeling, India. Beautiful footage as we are taken through the city&#8217;s wonderful sites and meet the charismatic locals.<br />\nTitle and credits missing from film.</p>"], "credit_line_for_label": "", "details": [{"label": "Duration", "display_values": ["00:10:03:00"]}, {"label": "Language", "display_values": ["English"]}, {"label": "Subject categories", "display_values": ["Anthropology, Ethnology, Exploration & Travel&nbsp;→ Himalaya Mountains", "Anthropology, Ethnology, Exploration & Travel&nbsp;→ India - Description and travel", "Anthropology, Ethnology, Exploration & Travel&nbsp;→ India - Social life and customs", "Anthropology, Ethnology, Exploration & Travel&nbsp;→ Travel", "Documentary", "Places&nbsp;→ Himalaya Mountains", "Short films", "Short films&nbsp;→ Short films - Great Britain", "Travelogue"]}, {"label": "Sound/audio", "display_values": ["Sound"]}, {"label": "Colour", "display_values": ["Colour"]}], "stats": {"tap_count": 0}, "links": [], "creators_primary": [], "creators_other": [], "media_note": "Sorry, we don't have images or video for this item.", "holdings": [{"name": "16mm film; Access Print (Section 1)", "identifier": "", "description": ""}], "part_of": null, "parts": [], "part_siblings": [], "group": null, "group_works": [], "group_siblings": [], "source": {"name": "Vernon", "slug": "vernon"}, "source_identifier": "49647", "eaas_environment_id": null, "production_places": [{"id": 10, "name": "United Kingdom", "slug": "united-kingdom"}], "production_dates": [{"date": "1950", "notes": "Estimated date", "to_year": "1950"}], "labels": [31708]}]}