{"count": 41735, "next": "https://api.acmi.net.au/works/?page=4169", "previous": "https://api.acmi.net.au/works/?page=4167", "results": [{"id": 87606, "acmi_id": "309596", "title": "[Air parade]", "title_annotation": "", "slug": "air-parade", "creator_credit": "Al Christie and Official Films", "credit_line": "", "headline_credit": "United States, 1942", "video_links": [], "record_type": "work", "type": "Film", "is_on_display": false, "last_on_display_place": null, "last_on_display_date": null, "is_context_indigenous": false, "material_description": "", "unpublished": false, "external": false, "first_production_date": "1942-01-01T11:00:00+11:00", "commissioned": false, "public_domain": false, "external_references": [], "brief_description": "<p>Set behind-the-scenes of an American radio station in the 1940&#8217;s, this B-Grade melodrama revolves around the escapades of a scheming studio head and a troupe of radio performers aspiring towards stardom and success. The players include, Niela Goodelle, Lee Sullivan, Arthur Boran, Russ Brown, Clyde Fillmore, Edith Gresham, Marion Martin and Johnny Johnson&#8217;s Orchestra which is a typical dance band of the era.</p>", "constellations_primary": [], "constellations_other": [], "recommendations": [], "creator_credit_for_label": "<p>Al Christie and Official Films</p>", "headline_credit_for_label": "<p>United States, 1942</p>", "title_for_label": "<p>[Air parade]</p>", "description": "<p>Set behind-the-scenes of an American radio station in the 1940&#8217;s, this B-Grade melodrama revolves around the escapades of a scheming studio head and a troupe of radio performers aspiring towards stardom and success. The players include, Niela Goodelle, Lee Sullivan, Arthur Boran, Russ Brown, Clyde Fillmore, Edith Gresham, Marion Martin and Johnny Johnson&#8217;s Orchestra which is a typical dance band of the era.</p>", "description_for_label": ["<p>Set behind-the-scenes of an American radio station in the 1940&#8217;s, this B-Grade melodrama revolves around the escapades of a scheming studio head and a troupe of radio performers aspiring towards stardom and success. The players include, Niela Goodelle, Lee Sullivan, Arthur Boran, Russ Brown, Clyde Fillmore, Edith Gresham, Marion Martin and Johnny Johnson&#8217;s Orchestra which is a typical dance band of the era.</p>"], "credit_line_for_label": "", "details": [{"label": "Duration", "display_values": ["00:18:00:00"]}, {"label": "Language", "display_values": ["English"]}, {"label": "Subject categories", "display_values": ["Drama", "Music & Performing Arts&nbsp;→ Actors", "Music & Performing Arts&nbsp;→ Big band music", "Performance", "Performance&nbsp;→ Music - Performance", "Short films", "Short films&nbsp;→ Short films - United States"]}, {"label": "Sound/audio", "display_values": ["Sound"]}, {"label": "Colour", "display_values": ["Black and White"]}], "stats": {"tap_count": 0}, "links": [], "creators_primary": [{"id": 1806946, "name": "Al Christie", "creator_id": 29611, "creator_wikidata_id": "Q719038", "role": "producer", "role_id": 1089, "is_primary": true}, {"id": 872406, "name": "Official Films", "creator_id": 13568, "creator_wikidata_id": "Q121034229", "role": "production company", "role_id": 941, "is_primary": true}], "creators_other": [], "media_note": "Sorry, we don't have images or video for this item.", "holdings": [{"name": "16mm film; Access Print (Section 1)", "identifier": "", "description": ""}], "part_of": null, "parts": [], "part_siblings": [], "group": null, "group_works": [], "group_siblings": [], "source": {"name": "Vernon", "slug": "vernon"}, "source_identifier": "44074", "eaas_environment_id": null, "production_places": [{"id": 2, "name": "United States", "slug": "united-states"}], "production_dates": [{"date": "1942", "notes": "Produced", "to_year": "1942"}], "labels": [27096]}, {"id": 119103, "acmi_id": "R0002234", "title": "[Against the wind : publicity kit]", "title_annotation": "", "slug": "against-the-wind-publicity-kit", "creator_credit": "", "credit_line": "", "headline_credit": "", "video_links": [], "record_type": "work", "type": "Object", "is_on_display": false, "last_on_display_place": null, "last_on_display_date": null, "is_context_indigenous": false, "material_description": "", "unpublished": false, "external": false, "first_production_date": null, "commissioned": false, "public_domain": false, "external_references": [], "brief_description": "<p>Publicity kit for the production Against the Wind (TV 1978), including 32 B&amp;W Stills (Large), 11 B&amp;W Proof Sheets, 7 35mm Colour Transparencies, 2 B&amp;W Bromides, 1 Colour Transparency (Large)</p>", "constellations_primary": [], "constellations_other": [], "recommendations": [], "creator_credit_for_label": "", "headline_credit_for_label": "", "title_for_label": "<p>[Against the wind : publicity kit]</p>", "description": "<p>Publicity kit for the production Against the Wind (TV 1978), including 32 B&amp;W Stills (Large), 11 B&amp;W Proof Sheets, 7 35mm Colour Transparencies, 2 B&amp;W Bromides, 1 Colour Transparency (Large)</p>", "description_for_label": ["<p>Publicity kit for the production Against the Wind (TV 1978), including 32 B&amp;W Stills (Large), 11 B&amp;W Proof Sheets, 7 35mm Colour Transparencies, 2 B&amp;W Bromides, 1 Colour Transparency (Large)</p>"], "credit_line_for_label": "", "details": [{"label": "Subject category", "display_values": ["Documentation"]}, {"label": "Object Types", "display_values": ["Publicity kit"]}], "stats": {"tap_count": 1}, "links": [], "creators_primary": [], "creators_other": [], "media_note": null, "holdings": [], "part_of": null, "parts": [], "part_siblings": [], "group": null, "group_works": [], "group_siblings": [], "source": {"name": "Vernon", "slug": "vernon"}, "source_identifier": "150499", "eaas_environment_id": null, "production_places": [], "production_dates": [], "labels": [58576]}, {"id": 119102, "acmi_id": "R0002233", "title": "[Across the red unknown : publicity kit]", "title_annotation": "", "slug": "across-the-red-unknown-publicity-kit", "creator_credit": "", "credit_line": "", "headline_credit": "1992", "video_links": [], "record_type": "work", "type": "Object", "is_on_display": false, "last_on_display_place": null, "last_on_display_date": null, "is_context_indigenous": false, "material_description": "", "unpublished": false, "external": false, "first_production_date": "1992-01-01T11:00:00+11:00", "commissioned": false, "public_domain": false, "external_references": [], "brief_description": "<p>Publicity kit for the production Across the Red Unknown (1991), including 1 Colour Still (Small), 3 35mm Colour Transparencies</p>", "constellations_primary": [], "constellations_other": [], "recommendations": [], "creator_credit_for_label": "", "headline_credit_for_label": "<p>1992</p>", "title_for_label": "<p>[Across the red unknown : publicity kit]</p>", "description": "<p>Publicity kit for the production Across the Red Unknown (1991), including 1 Colour Still (Small), 3 35mm Colour Transparencies</p>", "description_for_label": ["<p>Publicity kit for the production Across the Red Unknown (1991), including 1 Colour Still (Small), 3 35mm Colour Transparencies</p>"], "credit_line_for_label": "", "details": [{"label": "Subject category", "display_values": ["Documentation"]}, {"label": "Object Types", "display_values": ["Publicity kit"]}], "stats": {"tap_count": 0}, "links": [], "creators_primary": [], "creators_other": [], "media_note": null, "holdings": [], "part_of": null, "parts": [], "part_siblings": [], "group": null, "group_works": [], "group_siblings": [], "source": {"name": "Vernon", "slug": "vernon"}, "source_identifier": "150498", "eaas_environment_id": null, "production_places": [], "production_dates": [{"date": "1992", "notes": "", "to_year": "1992"}], "labels": [58575]}, {"id": 89827, "acmi_id": "312704", "title": "[Accident service]", "title_annotation": "", "slug": "accident-service", "creator_credit": "", "credit_line": "", "headline_credit": "United Kingdom, 1945", "video_links": [], "record_type": "work", "type": "Film", "is_on_display": false, "last_on_display_place": null, "last_on_display_date": null, "is_context_indigenous": false, "material_description": "", "unpublished": false, "external": false, "first_production_date": "1945-01-01T10:00:00+10:00", "commissioned": false, "public_domain": false, "external_references": [], "brief_description": "<p>The new conception of rehabilitation is shown through the study of the methods (circa 1945) used in treating and caring for injured miners at a well-known hospital and rehabilitation centre in the English Midlands. All stages of treatment are presented. Interesting from a historical viewpoint. NB: Contains some graphic images.</p>", "constellations_primary": [], "constellations_other": [], "recommendations": [], "creator_credit_for_label": "", "headline_credit_for_label": "<p>United Kingdom, 1945</p>", "title_for_label": "<p>[Accident service]</p>", "description": "<p>The new conception of rehabilitation is shown through the study of the methods (circa 1945) used in treating and caring for injured miners at a well-known hospital and rehabilitation centre in the English Midlands. All stages of treatment are presented. Interesting from a historical viewpoint. NB: Contains some graphic images.</p>", "description_for_label": ["<p>The new conception of rehabilitation is shown through the study of the methods (circa 1945) used in treating and caring for injured miners at a well-known hospital and rehabilitation centre in the English Midlands. All stages of treatment are presented. Interesting from a historical viewpoint. NB: Contains some graphic images.</p>"], "credit_line_for_label": "", "details": [{"label": "Duration", "display_values": ["00:38:13:00"]}, {"label": "Language", "display_values": ["English"]}, {"label": "Subject categories", "display_values": ["Documentary", "Documentary&nbsp;→ Documentary films - Great Britain", "Economics, Philosophy, Politics, Religion & Sociology&nbsp;→ Rehabilitation", "Food, Health, Lifestyle, Medicine, Psychology & Safety&nbsp;→ Hospital care", "Food, Health, Lifestyle, Medicine, Psychology & Safety&nbsp;→ Industrial accidents", "Food, Health, Lifestyle, Medicine, Psychology & Safety&nbsp;→ Rehabilitation", "Food, Health, Lifestyle, Medicine, Psychology & Safety&nbsp;→ Rehabilitation centers", "Food, Health, Lifestyle, Medicine, Psychology & Safety&nbsp;→ Wounds and injuries - Treatment", "Short films", "Short films&nbsp;→ Short films - Great Britain"]}, {"label": "Sound/audio", "display_values": ["Sound"]}, {"label": "Colour", "display_values": ["Black and White"]}], "stats": {"tap_count": 0}, "links": [], "creators_primary": [], "creators_other": [], "media_note": "Sorry, we don't have images or video for this item.", "holdings": [{"name": "16mm film; Access Print (Section 1)", "identifier": "", "description": ""}], "part_of": null, "parts": [], "part_siblings": [], "group": null, "group_works": [], "group_siblings": [], "source": {"name": "Vernon", "slug": "vernon"}, "source_identifier": "47001", "eaas_environment_id": null, "production_places": [{"id": 10, "name": "United Kingdom", "slug": "united-kingdom"}], "production_dates": [{"date": "1945", "notes": "Produced", "to_year": "1945"}], "labels": [29317]}, {"id": 90623, "acmi_id": "313602", "title": "[About basketball]", "title_annotation": "", "slug": "about-basketball", "creator_credit": "", "credit_line": "", "headline_credit": "Australia, 1950", "video_links": [], "record_type": "work", "type": "Film", "is_on_display": false, "last_on_display_place": null, "last_on_display_date": null, "is_context_indigenous": false, "material_description": "", "unpublished": false, "external": false, "first_production_date": "1950-01-01T10:00:00+10:00", "commissioned": false, "public_domain": false, "external_references": [], "brief_description": "<p>A filmed basketball game. NB: No title or credits available.</p>", "constellations_primary": [], "constellations_other": [], "recommendations": [], "creator_credit_for_label": "", "headline_credit_for_label": "<p>Australia, 1950</p>", "title_for_label": "<p>[About basketball]</p>", "description": "<p>A filmed basketball game. NB: No title or credits available.</p>", "description_for_label": ["<p>A filmed basketball game. NB: No title or credits available.</p>"], "credit_line_for_label": "", "details": [{"label": "Duration", "display_values": ["00:03:07:00"]}, {"label": "Language", "display_values": ["English"]}, {"label": "Subject categories", "display_values": ["Educational & Instructional", "Educational & Instructional&nbsp;→ Instructional", "Hobbies, Recreation & Sport&nbsp;→ Basketball", "Hobbies, Recreation & Sport&nbsp;→ Sports", "Short films", "Short films&nbsp;→ Short films - Australia", "Silent films"]}, {"label": "Sound/audio", "display_values": ["Silent"]}, {"label": "Colour", "display_values": ["Black and White"]}], "stats": {"tap_count": 0}, "links": [], "creators_primary": [], "creators_other": [], "media_note": "Sorry, we don't have images or video for this item.", "holdings": [{"name": "16mm film; Access Print (Section 1)", "identifier": "", "description": ""}], "part_of": null, "parts": [], "part_siblings": [], "group": null, "group_works": [], "group_siblings": [], "source": {"name": "Vernon", "slug": "vernon"}, "source_identifier": "47874", "eaas_environment_id": null, "production_places": [{"id": 3, "name": "Australia", "slug": "australia"}], "production_dates": [{"date": "1950", "notes": "Estimated date", "to_year": "1950"}], "labels": [30113]}, {"id": 118371, "acmi_id": "R0000965", "title": "[ABC news : publicity kit]", "title_annotation": "", "slug": "abc-news-publicity-kit", "creator_credit": "", "credit_line": "", "headline_credit": "", "video_links": [], "record_type": "work", "type": "Object", "is_on_display": false, "last_on_display_place": null, "last_on_display_date": null, "is_context_indigenous": false, "material_description": "", "unpublished": false, "external": false, "first_production_date": null, "commissioned": false, "public_domain": false, "external_references": [], "brief_description": "<p>Publicity kit for the production News - ABC, including 17 B&amp;W Stills (Large)</p>", "constellations_primary": [], "constellations_other": [], "recommendations": [], "creator_credit_for_label": "", "headline_credit_for_label": "", "title_for_label": "<p>[ABC news : publicity kit]</p>", "description": "<p>Publicity kit for the production News - ABC, including 17 B&amp;W Stills (Large)</p>", "description_for_label": ["<p>Publicity kit for the production News - ABC, including 17 B&amp;W Stills (Large)</p>"], "credit_line_for_label": "", "details": [{"label": "Subject category", "display_values": ["Documentation"]}, {"label": "Object Types", "display_values": ["Publicity kit"]}], "stats": {"tap_count": 0}, "links": [], "creators_primary": [], "creators_other": [], "media_note": null, "holdings": [], "part_of": null, "parts": [], "part_siblings": [], "group": null, "group_works": [], "group_siblings": [], "source": {"name": "Vernon", "slug": "vernon"}, "source_identifier": "148937", "eaas_environment_id": null, "production_places": [], "production_dates": [], "labels": [57874]}, {"id": 119092, "acmi_id": "R0002173", "title": "[A Woman's tale : publicity kit]", "title_annotation": "", "slug": "a-womans-tale-publicity-kit", "creator_credit": "", "credit_line": "", "headline_credit": "", "video_links": [], "record_type": "work", "type": "Object", "is_on_display": false, "last_on_display_place": null, "last_on_display_date": null, "is_context_indigenous": false, "material_description": "", "unpublished": false, "external": false, "first_production_date": null, "commissioned": false, "public_domain": false, "external_references": [], "brief_description": "<p>Publicity kit for the production A Woman&#8217;s Tale (1991), including 6 B&amp;W Stills (Large), 1 Press Kit/ Review, 1 Promo Flyer, 1 B&amp;W Negative</p>", "constellations_primary": [], "constellations_other": [], "recommendations": [], "creator_credit_for_label": "", "headline_credit_for_label": "", "title_for_label": "<p>[A Woman&#8217;s tale : publicity kit]</p>", "description": "<p>Publicity kit for the production A Woman&#8217;s Tale (1991), including 6 B&amp;W Stills (Large), 1 Press Kit/ Review, 1 Promo Flyer, 1 B&amp;W Negative</p>", "description_for_label": ["<p>Publicity kit for the production A Woman&#8217;s Tale (1991), including 6 B&amp;W Stills (Large), 1 Press Kit/ Review, 1 Promo Flyer, 1 B&amp;W Negative</p>"], "credit_line_for_label": "", "details": [{"label": "Subject category", "display_values": ["Documentation"]}, {"label": "Object Types", "display_values": ["Publicity kit"]}], "stats": {"tap_count": 0}, "links": [], "creators_primary": [], "creators_other": [], "media_note": null, "holdings": [], "part_of": null, "parts": [], "part_siblings": [], "group": null, "group_works": [], "group_siblings": [], "source": {"name": "Vernon", "slug": "vernon"}, "source_identifier": "150277", "eaas_environment_id": null, "production_places": [], "production_dates": [], "labels": [58565]}, {"id": 118831, "acmi_id": "R0001530", "title": "[A Thousand acres : publicity kit]", "title_annotation": "", "slug": "a-thousand-acres-publicity-kit", "creator_credit": "", "credit_line": "", "headline_credit": "", "video_links": [], "record_type": "work", "type": "Object", "is_on_display": false, "last_on_display_place": null, "last_on_display_date": null, "is_context_indigenous": false, "material_description": "", "unpublished": false, "external": false, "first_production_date": null, "commissioned": false, "public_domain": false, "external_references": [], "brief_description": "<p>Publicity kit for the production A Thousand Acres (1997), including 4 35mm Colour Transparencies, 1 Press Kit/ Review</p>", "constellations_primary": [], "constellations_other": [], "recommendations": [], "creator_credit_for_label": "", "headline_credit_for_label": "", "title_for_label": "<p>[A Thousand acres : publicity kit]</p>", "description": "<p>Publicity kit for the production A Thousand Acres (1997), including 4 35mm Colour Transparencies, 1 Press Kit/ Review</p>", "description_for_label": ["<p>Publicity kit for the production A Thousand Acres (1997), including 4 35mm Colour Transparencies, 1 Press Kit/ Review</p>"], "credit_line_for_label": "", "details": [{"label": "Subject category", "display_values": ["Documentation"]}, {"label": "Object Types", "display_values": ["Publicity kit"]}], "stats": {"tap_count": 2}, "links": [], "creators_primary": [], "creators_other": [], "media_note": null, "holdings": [], "part_of": null, "parts": [], "part_siblings": [], "group": null, "group_works": [], "group_siblings": [], "source": {"name": "Vernon", "slug": "vernon"}, "source_identifier": "149503", "eaas_environment_id": null, "production_places": [], "production_dates": [], "labels": [58323]}, {"id": 118865, "acmi_id": "R0001599", "title": "[A Street to die : publicity kit]", "title_annotation": "", "slug": "a-street-to-die-publicity-kit", "creator_credit": "", "credit_line": "", "headline_credit": "", "video_links": [], "record_type": "work", "type": "Object", "is_on_display": false, "last_on_display_place": null, "last_on_display_date": null, "is_context_indigenous": false, "material_description": "", "unpublished": false, "external": false, "first_production_date": null, "commissioned": false, "public_domain": false, "external_references": [], "brief_description": "<p>Publicity kit for the production A Street to die (1985), including 2 B&amp;W Stills (Large), 1 Press Kit/ Review</p>", "constellations_primary": [], "constellations_other": [], "recommendations": [], "creator_credit_for_label": "", "headline_credit_for_label": "", "title_for_label": "<p>[A Street to die : publicity kit]</p>", "description": "<p>Publicity kit for the production A Street to die (1985), including 2 B&amp;W Stills (Large), 1 Press Kit/ Review</p>", "description_for_label": ["<p>Publicity kit for the production A Street to die (1985), including 2 B&amp;W Stills (Large), 1 Press Kit/ Review</p>"], "credit_line_for_label": "", "details": [{"label": "Subject category", "display_values": ["Documentation"]}, {"label": "Object Types", "display_values": ["Publicity kit"]}], "stats": {"tap_count": 0}, "links": [], "creators_primary": [], "creators_other": [], "media_note": null, "holdings": [], "part_of": null, "parts": [], "part_siblings": [], "group": null, "group_works": [], "group_siblings": [], "source": {"name": "Vernon", "slug": "vernon"}, "source_identifier": "149572", "eaas_environment_id": null, "production_places": [], "production_dates": [], "labels": [58352]}, {"id": 118872, "acmi_id": "R0001606", "title": "[A Sting in the tale : publicity kit]", "title_annotation": "", "slug": "a-sting-in-the-tale-publicity-kit", "creator_credit": "", "credit_line": "", "headline_credit": "", "video_links": [], "record_type": "work", "type": "Object", "is_on_display": false, "last_on_display_place": null, "last_on_display_date": null, "is_context_indigenous": false, "material_description": "", "unpublished": false, "external": false, "first_production_date": null, "commissioned": false, "public_domain": false, "external_references": [], "brief_description": "<p>Publicity kit for the production A Sting in the tale (1989), including 2 B&amp;W Stills (Large)</p>", "constellations_primary": [], "constellations_other": [], "recommendations": [], "creator_credit_for_label": "", "headline_credit_for_label": "", "title_for_label": "<p>[A Sting in the tale : publicity kit]</p>", "description": "<p>Publicity kit for the production A Sting in the tale (1989), including 2 B&amp;W Stills (Large)</p>", "description_for_label": ["<p>Publicity kit for the production A Sting in the tale (1989), including 2 B&amp;W Stills (Large)</p>"], "credit_line_for_label": "", "details": [{"label": "Subject category", "display_values": ["Documentation"]}, {"label": "Object Types", "display_values": ["Publicity kit"]}], "stats": {"tap_count": 0}, "links": [], "creators_primary": [], "creators_other": [], "media_note": null, "holdings": [], "part_of": null, "parts": [], "part_siblings": [], "group": null, "group_works": [], "group_siblings": [], "source": {"name": "Vernon", "slug": "vernon"}, "source_identifier": "149580", "eaas_environment_id": null, "production_places": [], "production_dates": [], "labels": [58359]}]}