{"count": 41723, "next": "https://api.acmi.net.au/works/?page=4112", "previous": "https://api.acmi.net.au/works/?page=4110", "results": [{"id": 118666, "acmi_id": "R0001301", "title": "[The Enemy within : publicity kit]", "title_annotation": "", "slug": "the-enemy-within-publicity-kit", "creator_credit": "", "credit_line": "", "headline_credit": "", "video_links": [], "record_type": "work", "type": "Object", "is_on_display": false, "last_on_display_place": null, "last_on_display_date": null, "is_context_indigenous": false, "material_description": "", "unpublished": false, "external": false, "first_production_date": null, "commissioned": false, "public_domain": false, "external_references": [], "brief_description": "<p>Publicity kit for the production The Enemy Within (1918), including 4 B&amp;W Stills (Large)</p>", "constellations_primary": [], "constellations_other": [], "recommendations": [], "creator_credit_for_label": "", "headline_credit_for_label": "", "title_for_label": "<p>[The Enemy within : publicity kit]</p>", "description": "<p>Publicity kit for the production The Enemy Within (1918), including 4 B&amp;W Stills (Large)</p>", "description_for_label": ["<p>Publicity kit for the production The Enemy Within (1918), including 4 B&amp;W Stills (Large)</p>"], "credit_line_for_label": "", "details": [{"label": "Subject category", "display_values": ["Documentation"]}, {"label": "Object Types", "display_values": ["Publicity kit"]}], "stats": {"tap_count": 0}, "links": [], "creators_primary": [], "creators_other": [], "media_note": null, "holdings": [], "part_of": null, "parts": [], "part_siblings": [], "group": null, "group_works": [], "group_siblings": [], "source": {"name": "Vernon", "slug": "vernon"}, "source_identifier": "149273", "eaas_environment_id": null, "production_places": [], "production_dates": [], "labels": [58161]}, {"id": 118665, "acmi_id": "R0001300", "title": "[The End : publicity kit]", "title_annotation": "", "slug": "the-end-publicity-kit", "creator_credit": "", "credit_line": "", "headline_credit": "", "video_links": [], "record_type": "work", "type": "Object", "is_on_display": false, "last_on_display_place": null, "last_on_display_date": null, "is_context_indigenous": false, "material_description": "", "unpublished": false, "external": false, "first_production_date": null, "commissioned": false, "public_domain": false, "external_references": [], "brief_description": "<p>Publicity kit for the production The End, including 1 B&amp;W Still (Small)</p>", "constellations_primary": [], "constellations_other": [], "recommendations": [], "creator_credit_for_label": "", "headline_credit_for_label": "", "title_for_label": "<p>[The End : publicity kit]</p>", "description": "<p>Publicity kit for the production The End, including 1 B&amp;W Still (Small)</p>", "description_for_label": ["<p>Publicity kit for the production The End, including 1 B&amp;W Still (Small)</p>"], "credit_line_for_label": "", "details": [{"label": "Subject category", "display_values": ["Documentation"]}, {"label": "Object Types", "display_values": ["Publicity kit"]}], "stats": {"tap_count": 0}, "links": [], "creators_primary": [], "creators_other": [], "media_note": null, "holdings": [], "part_of": null, "parts": [], "part_siblings": [], "group": null, "group_works": [], "group_siblings": [], "source": {"name": "Vernon", "slug": "vernon"}, "source_identifier": "149272", "eaas_environment_id": null, "production_places": [], "production_dates": [], "labels": [58160]}, {"id": 118664, "acmi_id": "R0001299", "title": "[The Empty beach : publicity kit]", "title_annotation": "", "slug": "the-empty-beach-publicity-kit", "creator_credit": "", "credit_line": "", "headline_credit": "", "video_links": [], "record_type": "work", "type": "Object", "is_on_display": false, "last_on_display_place": null, "last_on_display_date": null, "is_context_indigenous": false, "material_description": "", "unpublished": false, "external": false, "first_production_date": null, "commissioned": false, "public_domain": false, "external_references": [], "brief_description": "<p>Publicity kit for the production The Empty Beach (1985), including 8 B&amp;W Stills (Large), 1 B&amp;W Proof Sheet, 10 35mm Colour Transparencies, 1 Press Kit/ Review, 3 Colour Transparencies (Large)</p>", "constellations_primary": [], "constellations_other": [], "recommendations": [], "creator_credit_for_label": "", "headline_credit_for_label": "", "title_for_label": "<p>[The Empty beach : publicity kit]</p>", "description": "<p>Publicity kit for the production The Empty Beach (1985), including 8 B&amp;W Stills (Large), 1 B&amp;W Proof Sheet, 10 35mm Colour Transparencies, 1 Press Kit/ Review, 3 Colour Transparencies (Large)</p>", "description_for_label": ["<p>Publicity kit for the production The Empty Beach (1985), including 8 B&amp;W Stills (Large), 1 B&amp;W Proof Sheet, 10 35mm Colour Transparencies, 1 Press Kit/ Review, 3 Colour Transparencies (Large)</p>"], "credit_line_for_label": "", "details": [{"label": "Subject category", "display_values": ["Documentation"]}, {"label": "Object Types", "display_values": ["Publicity kit"]}], "stats": {"tap_count": 0}, "links": [], "creators_primary": [], "creators_other": [], "media_note": null, "holdings": [], "part_of": null, "parts": [], "part_siblings": [], "group": null, "group_works": [], "group_siblings": [], "source": {"name": "Vernon", "slug": "vernon"}, "source_identifier": "149271", "eaas_environment_id": null, "production_places": [], "production_dates": [], "labels": [58159]}, {"id": 118518, "acmi_id": "R0001134", "title": "[The Earthling : publicity kit]", "title_annotation": "", "slug": "the-earthling-publicity-kit", "creator_credit": "", "credit_line": "", "headline_credit": "", "video_links": [], "record_type": "work", "type": "Object", "is_on_display": false, "last_on_display_place": null, "last_on_display_date": null, "is_context_indigenous": false, "material_description": "", "unpublished": false, "external": false, "first_production_date": null, "commissioned": false, "public_domain": false, "external_references": [], "brief_description": "<p>Publicity kit for the production The Earthling (1980), including 3 B&amp;W Stills (Large), 6 B&amp;W Stills (Small)</p>", "constellations_primary": [], "constellations_other": [], "recommendations": [], "creator_credit_for_label": "", "headline_credit_for_label": "", "title_for_label": "<p>[The Earthling : publicity kit]</p>", "description": "<p>Publicity kit for the production The Earthling (1980), including 3 B&amp;W Stills (Large), 6 B&amp;W Stills (Small)</p>", "description_for_label": ["<p>Publicity kit for the production The Earthling (1980), including 3 B&amp;W Stills (Large), 6 B&amp;W Stills (Small)</p>"], "credit_line_for_label": "", "details": [{"label": "Subject category", "display_values": ["Documentation"]}, {"label": "Object Types", "display_values": ["Publicity kit"]}], "stats": {"tap_count": 0}, "links": [], "creators_primary": [], "creators_other": [], "media_note": null, "holdings": [], "part_of": null, "parts": [], "part_siblings": [], "group": null, "group_works": [], "group_siblings": [], "source": {"name": "Vernon", "slug": "vernon"}, "source_identifier": "149106", "eaas_environment_id": null, "production_places": [], "production_dates": [], "labels": [58013]}, {"id": 118652, "acmi_id": "R0001285", "title": "[The Dunera boys : publicity kit]", "title_annotation": "", "slug": "the-dunera-boys-publicity-kit", "creator_credit": "", "credit_line": "", "headline_credit": "", "video_links": [], "record_type": "work", "type": "Object", "is_on_display": false, "last_on_display_place": null, "last_on_display_date": null, "is_context_indigenous": false, "material_description": "", "unpublished": false, "external": false, "first_production_date": null, "commissioned": false, "public_domain": false, "external_references": [], "brief_description": "<p>Publicity kit for the production The Dunera Boys (TV 1985), including 14 B&amp;W Stills (Large)</p>", "constellations_primary": [], "constellations_other": [], "recommendations": [], "creator_credit_for_label": "", "headline_credit_for_label": "", "title_for_label": "<p>[The Dunera boys : publicity kit]</p>", "description": "<p>Publicity kit for the production The Dunera Boys (TV 1985), including 14 B&amp;W Stills (Large)</p>", "description_for_label": ["<p>Publicity kit for the production The Dunera Boys (TV 1985), including 14 B&amp;W Stills (Large)</p>"], "credit_line_for_label": "", "details": [{"label": "Subject category", "display_values": ["Documentation"]}, {"label": "Object Types", "display_values": ["Publicity kit"]}], "stats": {"tap_count": 0}, "links": [], "creators_primary": [], "creators_other": [], "media_note": null, "holdings": [], "part_of": null, "parts": [], "part_siblings": [], "group": null, "group_works": [], "group_siblings": [], "source": {"name": "Vernon", "slug": "vernon"}, "source_identifier": "149257", "eaas_environment_id": null, "production_places": [], "production_dates": [], "labels": [58147]}, {"id": 118651, "acmi_id": "R0001283", "title": "[The Dreaming : publicity kit]", "title_annotation": "", "slug": "the-dreaming-publicity-kit", "creator_credit": "", "credit_line": "", "headline_credit": "", "video_links": [], "record_type": "work", "type": "Object", "is_on_display": false, "last_on_display_place": null, "last_on_display_date": null, "is_context_indigenous": false, "material_description": "", "unpublished": false, "external": false, "first_production_date": null, "commissioned": false, "public_domain": false, "external_references": [], "brief_description": "<p>Publicity kit for the production The Dreaming (1988), including 2 B&amp;W Stills (Large), 1 Press Kit/ Review</p>", "constellations_primary": [], "constellations_other": [], "recommendations": [], "creator_credit_for_label": "", "headline_credit_for_label": "", "title_for_label": "<p>[The Dreaming : publicity kit]</p>", "description": "<p>Publicity kit for the production The Dreaming (1988), including 2 B&amp;W Stills (Large), 1 Press Kit/ Review</p>", "description_for_label": ["<p>Publicity kit for the production The Dreaming (1988), including 2 B&amp;W Stills (Large), 1 Press Kit/ Review</p>"], "credit_line_for_label": "", "details": [{"label": "Subject category", "display_values": ["Documentation"]}, {"label": "Object Types", "display_values": ["Publicity kit"]}], "stats": {"tap_count": 0}, "links": [], "creators_primary": [], "creators_other": [], "media_note": null, "holdings": [], "part_of": null, "parts": [], "part_siblings": [], "group": null, "group_works": [], "group_siblings": [], "source": {"name": "Vernon", "slug": "vernon"}, "source_identifier": "149255", "eaas_environment_id": null, "production_places": [], "production_dates": [], "labels": [58146]}, {"id": 118838, "acmi_id": "R0001577", "title": "[The Don Lane show : publicity kit]", "title_annotation": "", "slug": "the-don-lane-show-publicity-kit", "creator_credit": "", "credit_line": "", "headline_credit": "", "video_links": [], "record_type": "work", "type": "Object", "is_on_display": false, "last_on_display_place": null, "last_on_display_date": null, "is_context_indigenous": false, "material_description": "", "unpublished": false, "external": false, "first_production_date": null, "commissioned": false, "public_domain": false, "external_references": [], "brief_description": "<p>Publicity kit for the production The Don Lane Show (TV 1975-1983), including 11 B&amp;W Stills (Large), 5 B&amp;W Proof Sheets, 1 Colour Transparency (Large)</p>", "constellations_primary": [], "constellations_other": [], "recommendations": [], "creator_credit_for_label": "", "headline_credit_for_label": "", "title_for_label": "<p>[The Don Lane show : publicity kit]</p>", "description": "<p>Publicity kit for the production The Don Lane Show (TV 1975-1983), including 11 B&amp;W Stills (Large), 5 B&amp;W Proof Sheets, 1 Colour Transparency (Large)</p>", "description_for_label": ["<p>Publicity kit for the production The Don Lane Show (TV 1975-1983), including 11 B&amp;W Stills (Large), 5 B&amp;W Proof Sheets, 1 Colour Transparency (Large)</p>"], "credit_line_for_label": "", "details": [{"label": "Subject category", "display_values": ["Documentation"]}, {"label": "Object Types", "display_values": ["Publicity kit"]}], "stats": {"tap_count": 1}, "links": [], "creators_primary": [], "creators_other": [], "media_note": null, "holdings": [], "part_of": null, "parts": [], "part_siblings": [], "group": null, "group_works": [], "group_siblings": [], "source": {"name": "Vernon", "slug": "vernon"}, "source_identifier": "149550", "eaas_environment_id": null, "production_places": [], "production_dates": [], "labels": [58330]}, {"id": 118892, "acmi_id": "R0001725", "title": "[The Don Lane show : publicity kit]", "title_annotation": "", "slug": "the-don-lane-show-publicity-kit", "creator_credit": "", "credit_line": "", "headline_credit": "", "video_links": [], "record_type": "work", "type": "Object", "is_on_display": false, "last_on_display_place": null, "last_on_display_date": null, "is_context_indigenous": false, "material_description": "", "unpublished": false, "external": false, "first_production_date": null, "commissioned": false, "public_domain": false, "external_references": [], "brief_description": "<p>Publicity kit for the production The Don Lane Show (TV 1975-1983), including 11 B&amp;W Stills (Large), 5 B&amp;W Proof Sheets, 1 Colour Transparency (Large)</p>", "constellations_primary": [], "constellations_other": [], "recommendations": [], "creator_credit_for_label": "", "headline_credit_for_label": "", "title_for_label": "<p>[The Don Lane show : publicity kit]</p>", "description": "<p>Publicity kit for the production The Don Lane Show (TV 1975-1983), including 11 B&amp;W Stills (Large), 5 B&amp;W Proof Sheets, 1 Colour Transparency (Large)</p>", "description_for_label": ["<p>Publicity kit for the production The Don Lane Show (TV 1975-1983), including 11 B&amp;W Stills (Large), 5 B&amp;W Proof Sheets, 1 Colour Transparency (Large)</p>"], "credit_line_for_label": "", "details": [{"label": "Subject category", "display_values": ["Documentation"]}, {"label": "Object Types", "display_values": ["Publicity kit"]}], "stats": {"tap_count": 0}, "links": [], "creators_primary": [], "creators_other": [], "media_note": null, "holdings": [], "part_of": null, "parts": [], "part_siblings": [], "group": null, "group_works": [], "group_siblings": [], "source": {"name": "Vernon", "slug": "vernon"}, "source_identifier": "149699", "eaas_environment_id": null, "production_places": [], "production_dates": [], "labels": [58379]}, {"id": 118633, "acmi_id": "R0001264", "title": "[The Dinkum bloke : publicity kit]", "title_annotation": "", "slug": "the-dinkum-bloke-publicity-kit", "creator_credit": "", "credit_line": "", "headline_credit": "1923", "video_links": [], "record_type": "work", "type": "Object", "is_on_display": false, "last_on_display_place": null, "last_on_display_date": null, "is_context_indigenous": false, "material_description": "", "unpublished": false, "external": false, "first_production_date": "1923-01-01T10:00:00+10:00", "commissioned": false, "public_domain": false, "external_references": [], "brief_description": "<p>Publicity kit for the production The Dinkum Bloke (1923), including 1 B&amp;W Still (Large)</p>", "constellations_primary": [], "constellations_other": [], "recommendations": [], "creator_credit_for_label": "", "headline_credit_for_label": "<p>1923</p>", "title_for_label": "<p>[The Dinkum bloke : publicity kit]</p>", "description": "<p>Publicity kit for the production The Dinkum Bloke (1923), including 1 B&amp;W Still (Large)</p>", "description_for_label": ["<p>Publicity kit for the production The Dinkum Bloke (1923), including 1 B&amp;W Still (Large)</p>"], "credit_line_for_label": "", "details": [{"label": "Subject category", "display_values": ["Documentation"]}, {"label": "Object Types", "display_values": ["Publicity kit"]}], "stats": {"tap_count": 0}, "links": [], "creators_primary": [], "creators_other": [], "media_note": null, "holdings": [], "part_of": null, "parts": [], "part_siblings": [], "group": null, "group_works": [], "group_siblings": [], "source": {"name": "Vernon", "slug": "vernon"}, "source_identifier": "149236", "eaas_environment_id": null, "production_places": [], "production_dates": [{"date": "1923", "notes": "", "to_year": "1923"}], "labels": [58128]}, {"id": 118630, "acmi_id": "R0001261", "title": "[The Diggers : publicity kit]", "title_annotation": "", "slug": "the-diggers-publicity-kit", "creator_credit": "", "credit_line": "", "headline_credit": "", "video_links": [], "record_type": "work", "type": "Object", "is_on_display": false, "last_on_display_place": null, "last_on_display_date": null, "is_context_indigenous": false, "material_description": "", "unpublished": false, "external": false, "first_production_date": null, "commissioned": false, "public_domain": false, "external_references": [], "brief_description": "<p>Publicity kit for the production The Diggers (1931), including 1 B&amp;W Still (Large), 1 Promo Flyer</p>", "constellations_primary": [], "constellations_other": [], "recommendations": [], "creator_credit_for_label": "", "headline_credit_for_label": "", "title_for_label": "<p>[The Diggers : publicity kit]</p>", "description": "<p>Publicity kit for the production The Diggers (1931), including 1 B&amp;W Still (Large), 1 Promo Flyer</p>", "description_for_label": ["<p>Publicity kit for the production The Diggers (1931), including 1 B&amp;W Still (Large), 1 Promo Flyer</p>"], "credit_line_for_label": "", "details": [{"label": "Subject category", "display_values": ["Documentation"]}, {"label": "Object Types", "display_values": ["Publicity kit"]}], "stats": {"tap_count": 0}, "links": [], "creators_primary": [], "creators_other": [], "media_note": null, "holdings": [], "part_of": null, "parts": [], "part_siblings": [], "group": null, "group_works": [], "group_siblings": [], "source": {"name": "Vernon", "slug": "vernon"}, "source_identifier": "149233", "eaas_environment_id": null, "production_places": [], "production_dates": [], "labels": [58125]}]}