{"count": 41735, "next": "https://api.acmi.net.au/works/?page=4104", "previous": "https://api.acmi.net.au/works/?page=4102", "results": [{"id": 91518, "acmi_id": "314655", "title": "[The Wreck of the Hesperus]", "title_annotation": "", "slug": "the-wreck-of-the-hesperus", "creator_credit": "Mannie Davis, Paul Terry and Terry Toons", "credit_line": "", "headline_credit": "United States, 1944", "video_links": [], "record_type": "work", "type": "Film", "is_on_display": false, "last_on_display_place": null, "last_on_display_date": null, "is_context_indigenous": false, "material_description": "", "unpublished": false, "external": false, "first_production_date": "1944-01-01T11:00:00+11:00", "commissioned": false, "public_domain": false, "external_references": [], "brief_description": "<p>A Mighty Mouse animated short narrated in verse featuring Mighty Mouse, Oil Can Harry, Pearl Pureheart. Title and credits missing.</p>", "constellations_primary": [], "constellations_other": [], "recommendations": [], "creator_credit_for_label": "<p>Mannie Davis, Paul Terry and Terry Toons</p>", "headline_credit_for_label": "<p>United States, 1944</p>", "title_for_label": "<p>[The Wreck of the Hesperus]</p>", "description": "<p>A Mighty Mouse animated short narrated in verse featuring Mighty Mouse, Oil Can Harry, Pearl Pureheart. Title and credits missing.</p>", "description_for_label": ["<p>A Mighty Mouse animated short narrated in verse featuring Mighty Mouse, Oil Can Harry, Pearl Pureheart. Title and credits missing.</p>"], "credit_line_for_label": "", "details": [{"label": "Duration", "display_values": ["00:05:52:00"]}, {"label": "Language", "display_values": ["English"]}, {"label": "Subject categories", "display_values": ["Animation", "Animation&nbsp;→ Animated films - United States", "Animation&nbsp;→ Animation - Juvenile films", "Childrens Films", "Childrens Films&nbsp;→ Children's films - United States", "Crafts & Visual Arts&nbsp;→ Cartoon characters", "Short films", "Short films&nbsp;→ Short films - United States"]}, {"label": "Sound/audio", "display_values": ["Sound"]}, {"label": "Colour", "display_values": ["Black and White"]}], "stats": {"tap_count": 0}, "links": [], "creators_primary": [{"id": 879010, "name": "Mannie Davis", "creator_id": 30716, "creator_wikidata_id": "Q3286055", "role": "director", "role_id": 938, "is_primary": true}, {"id": 1809294, "name": "Paul Terry", "creator_id": 28741, "creator_wikidata_id": null, "role": "producer", "role_id": 1089, "is_primary": true}, {"id": 879008, "name": "Terry Toons", "creator_id": 31326, "creator_wikidata_id": null, "role": "production company", "role_id": 941, "is_primary": true}], "creators_other": [], "media_note": "Sorry, we don't have images or video for this item.", "holdings": [{"name": "16mm film; Access Print (Section 1)", "identifier": "", "description": ""}], "part_of": null, "parts": [], "part_siblings": [], "group": null, "group_works": [], "group_siblings": [], "source": {"name": "Vernon", "slug": "vernon"}, "source_identifier": "48892", "eaas_environment_id": null, "production_places": [{"id": 2, "name": "United States", "slug": "united-states"}], "production_dates": [{"date": "1944", "notes": "Produced", "to_year": "1944"}], "labels": [31008]}, {"id": 118903, "acmi_id": "R0001818", "title": "[The Willow bend mystery : publicity kit]", "title_annotation": "", "slug": "the-willow-bend-mystery-publicity-kit", "creator_credit": "", "credit_line": "", "headline_credit": "", "video_links": [], "record_type": "work", "type": "Object", "is_on_display": false, "last_on_display_place": null, "last_on_display_date": null, "is_context_indigenous": false, "material_description": "", "unpublished": false, "external": false, "first_production_date": null, "commissioned": false, "public_domain": false, "external_references": [], "brief_description": "<p>Publicity kit for the production The Willow Bend Mystery (TV 1983), including 1 B&amp;W Still (Large)</p>", "constellations_primary": [], "constellations_other": [], "recommendations": [], "creator_credit_for_label": "", "headline_credit_for_label": "", "title_for_label": "<p>[The Willow bend mystery : publicity kit]</p>", "description": "<p>Publicity kit for the production The Willow Bend Mystery (TV 1983), including 1 B&amp;W Still (Large)</p>", "description_for_label": ["<p>Publicity kit for the production The Willow Bend Mystery (TV 1983), including 1 B&amp;W Still (Large)</p>"], "credit_line_for_label": "", "details": [{"label": "Subject category", "display_values": ["Documentation"]}, {"label": "Object Types", "display_values": ["Publicity kit"]}], "stats": {"tap_count": 0}, "links": [], "creators_primary": [], "creators_other": [], "media_note": null, "holdings": [], "part_of": null, "parts": [], "part_siblings": [], "group": null, "group_works": [], "group_siblings": [], "source": {"name": "Vernon", "slug": "vernon"}, "source_identifier": "149791", "eaas_environment_id": null, "production_places": [], "production_dates": [], "labels": [58390]}, {"id": 118833, "acmi_id": "R0001536", "title": "[The Well : publicity kit]", "title_annotation": "", "slug": "the-well-publicity-kit", "creator_credit": "", "credit_line": "", "headline_credit": "", "video_links": [], "record_type": "work", "type": "Object", "is_on_display": false, "last_on_display_place": null, "last_on_display_date": null, "is_context_indigenous": false, "material_description": "", "unpublished": false, "external": false, "first_production_date": null, "commissioned": false, "public_domain": false, "external_references": [], "brief_description": "<p>Publicity kit for the production The Well (1997), including 7 35mm Colour Transparencies, 1 Press Kit/ Review</p>", "constellations_primary": [], "constellations_other": [], "recommendations": [], "creator_credit_for_label": "", "headline_credit_for_label": "", "title_for_label": "<p>[The Well : publicity kit]</p>", "description": "<p>Publicity kit for the production The Well (1997), including 7 35mm Colour Transparencies, 1 Press Kit/ Review</p>", "description_for_label": ["<p>Publicity kit for the production The Well (1997), including 7 35mm Colour Transparencies, 1 Press Kit/ Review</p>"], "credit_line_for_label": "", "details": [{"label": "Subject category", "display_values": ["Documentation"]}, {"label": "Object Types", "display_values": ["Publicity kit"]}], "stats": {"tap_count": 0}, "links": [], "creators_primary": [], "creators_other": [], "media_note": null, "holdings": [], "part_of": null, "parts": [], "part_siblings": [], "group": null, "group_works": [], "group_siblings": [], "source": {"name": "Vernon", "slug": "vernon"}, "source_identifier": "149509", "eaas_environment_id": null, "production_places": [], "production_dates": [], "labels": [58325]}, {"id": 118922, "acmi_id": "R0001842", "title": "[The Wayne manifesto : publicity kit]", "title_annotation": "", "slug": "the-wayne-manifesto-publicity-kit", "creator_credit": "", "credit_line": "", "headline_credit": "", "video_links": [], "record_type": "work", "type": "Object", "is_on_display": false, "last_on_display_place": null, "last_on_display_date": null, "is_context_indigenous": false, "material_description": "", "unpublished": false, "external": false, "first_production_date": null, "commissioned": false, "public_domain": false, "external_references": [], "brief_description": "<p>Publicity kit for the production The Wayne Manifesto (TV 1996), including 1 35mm Colour Transparency</p>", "constellations_primary": [], "constellations_other": [], "recommendations": [], "creator_credit_for_label": "", "headline_credit_for_label": "", "title_for_label": "<p>[The Wayne manifesto : publicity kit]</p>", "description": "<p>Publicity kit for the production The Wayne Manifesto (TV 1996), including 1 35mm Colour Transparency</p>", "description_for_label": ["<p>Publicity kit for the production The Wayne Manifesto (TV 1996), including 1 35mm Colour Transparency</p>"], "credit_line_for_label": "", "details": [{"label": "Subject category", "display_values": ["Documentation"]}, {"label": "Object Types", "display_values": ["Publicity kit"]}], "stats": {"tap_count": 1}, "links": [], "creators_primary": [], "creators_other": [], "media_note": null, "holdings": [], "part_of": null, "parts": [], "part_siblings": [], "group": null, "group_works": [], "group_siblings": [], "source": {"name": "Vernon", "slug": "vernon"}, "source_identifier": "149815", "eaas_environment_id": null, "production_places": [], "production_dates": [], "labels": [58409]}, {"id": 119015, "acmi_id": "R0002086", "title": "[The Truth about Taro : publicity kit]", "title_annotation": "", "slug": "the-truth-about-taro-publicity-kit", "creator_credit": "", "credit_line": "", "headline_credit": "", "video_links": [], "record_type": "work", "type": "Object", "is_on_display": false, "last_on_display_place": null, "last_on_display_date": null, "is_context_indigenous": false, "material_description": "", "unpublished": false, "external": false, "first_production_date": null, "commissioned": false, "public_domain": false, "external_references": [], "brief_description": "<p>Publicity kit for the production The Truth About Taro (1996), including 5 B&amp;W Stills (Large)</p>", "constellations_primary": [], "constellations_other": [], "recommendations": [], "creator_credit_for_label": "", "headline_credit_for_label": "", "title_for_label": "<p>[The Truth about Taro : publicity kit]</p>", "description": "<p>Publicity kit for the production The Truth About Taro (1996), including 5 B&amp;W Stills (Large)</p>", "description_for_label": ["<p>Publicity kit for the production The Truth About Taro (1996), including 5 B&amp;W Stills (Large)</p>"], "credit_line_for_label": "", "details": [{"label": "Subject category", "display_values": ["Documentation"]}, {"label": "Object Types", "display_values": ["Publicity kit"]}], "stats": {"tap_count": 0}, "links": [], "creators_primary": [], "creators_other": [], "media_note": null, "holdings": [], "part_of": null, "parts": [], "part_siblings": [], "group": null, "group_works": [], "group_siblings": [], "source": {"name": "Vernon", "slug": "vernon"}, "source_identifier": "150150", "eaas_environment_id": null, "production_places": [], "production_dates": [], "labels": [58493]}, {"id": 119017, "acmi_id": "R0002088", "title": "[The True story of Eskimo Nell : publicity kit]", "title_annotation": "", "slug": "the-true-story-of-eskimo-nell-publicity-kit", "creator_credit": "", "credit_line": "", "headline_credit": "", "video_links": [], "record_type": "work", "type": "Object", "is_on_display": false, "last_on_display_place": null, "last_on_display_date": null, "is_context_indigenous": false, "material_description": "", "unpublished": false, "external": false, "first_production_date": null, "commissioned": false, "public_domain": false, "external_references": [], "brief_description": "<p>Publicity kit for the production The True Story of Eskimo Nell (1975), including 39 B&amp;W Stills (Large), 1 Promo Flyer</p>", "constellations_primary": [], "constellations_other": [], "recommendations": [], "creator_credit_for_label": "", "headline_credit_for_label": "", "title_for_label": "<p>[The True story of Eskimo Nell : publicity kit]</p>", "description": "<p>Publicity kit for the production The True Story of Eskimo Nell (1975), including 39 B&amp;W Stills (Large), 1 Promo Flyer</p>", "description_for_label": ["<p>Publicity kit for the production The True Story of Eskimo Nell (1975), including 39 B&amp;W Stills (Large), 1 Promo Flyer</p>"], "credit_line_for_label": "", "details": [{"label": "Subject category", "display_values": ["Documentation"]}, {"label": "Object Types", "display_values": ["Publicity kit"]}], "stats": {"tap_count": 0}, "links": [], "creators_primary": [], "creators_other": [], "media_note": null, "holdings": [], "part_of": null, "parts": [], "part_siblings": [], "group": null, "group_works": [], "group_siblings": [], "source": {"name": "Vernon", "slug": "vernon"}, "source_identifier": "150152", "eaas_environment_id": null, "production_places": [], "production_dates": [], "labels": [58494]}, {"id": 118444, "acmi_id": "R0001051", "title": "[The Timeless land : publicity kit]", "title_annotation": "", "slug": "the-timeless-land-publicity-kit", "creator_credit": "", "credit_line": "", "headline_credit": "", "video_links": [], "record_type": "work", "type": "Object", "is_on_display": false, "last_on_display_place": null, "last_on_display_date": null, "is_context_indigenous": false, "material_description": "", "unpublished": false, "external": false, "first_production_date": null, "commissioned": false, "public_domain": false, "external_references": [], "brief_description": "<p>Publicity kit for the production The Timeless Land (TV 1980), including 3 B&amp;W Stills (Large)</p>", "constellations_primary": [], "constellations_other": [], "recommendations": [], "creator_credit_for_label": "", "headline_credit_for_label": "", "title_for_label": "<p>[The Timeless land : publicity kit]</p>", "description": "<p>Publicity kit for the production The Timeless Land (TV 1980), including 3 B&amp;W Stills (Large)</p>", "description_for_label": ["<p>Publicity kit for the production The Timeless Land (TV 1980), including 3 B&amp;W Stills (Large)</p>"], "credit_line_for_label": "", "details": [{"label": "Subject category", "display_values": ["Documentation"]}, {"label": "Object Types", "display_values": ["Publicity kit"]}], "stats": {"tap_count": 0}, "links": [], "creators_primary": [], "creators_other": [], "media_note": null, "holdings": [], "part_of": null, "parts": [], "part_siblings": [], "group": null, "group_works": [], "group_siblings": [], "source": {"name": "Vernon", "slug": "vernon"}, "source_identifier": "149024", "eaas_environment_id": null, "production_places": [], "production_dates": [], "labels": [57942]}, {"id": 118990, "acmi_id": "R0002025", "title": "[The Time guardian : publicity kit]", "title_annotation": "", "slug": "the-time-guardian-publicity-kit", "creator_credit": "", "credit_line": "", "headline_credit": "", "video_links": [], "record_type": "work", "type": "Object", "is_on_display": false, "last_on_display_place": null, "last_on_display_date": null, "is_context_indigenous": false, "material_description": "", "unpublished": false, "external": false, "first_production_date": null, "commissioned": false, "public_domain": false, "external_references": [], "brief_description": "<p>Publicity kit for the production The Time Guardian (1987), including 2 B&amp;W Stills (Large), 4 B&amp;W Stills (Small), 2 Press Kit/ Reviews, 1 B&amp;W Negative</p>", "constellations_primary": [], "constellations_other": [], "recommendations": [], "creator_credit_for_label": "", "headline_credit_for_label": "", "title_for_label": "<p>[The Time guardian : publicity kit]</p>", "description": "<p>Publicity kit for the production The Time Guardian (1987), including 2 B&amp;W Stills (Large), 4 B&amp;W Stills (Small), 2 Press Kit/ Reviews, 1 B&amp;W Negative</p>", "description_for_label": ["<p>Publicity kit for the production The Time Guardian (1987), including 2 B&amp;W Stills (Large), 4 B&amp;W Stills (Small), 2 Press Kit/ Reviews, 1 B&amp;W Negative</p>"], "credit_line_for_label": "", "details": [{"label": "Subject category", "display_values": ["Documentation"]}, {"label": "Object Types", "display_values": ["Publicity kit"]}], "stats": {"tap_count": 0}, "links": [], "creators_primary": [], "creators_other": [], "media_note": null, "holdings": [], "part_of": null, "parts": [], "part_siblings": [], "group": null, "group_works": [], "group_siblings": [], "source": {"name": "Vernon", "slug": "vernon"}, "source_identifier": "150067", "eaas_environment_id": null, "production_places": [], "production_dates": [], "labels": [58472]}, {"id": 118987, "acmi_id": "R0002021", "title": "[The Tenth dancer : publicity kit]", "title_annotation": "", "slug": "the-tenth-dancer-publicity-kit", "creator_credit": "", "credit_line": "", "headline_credit": "", "video_links": [], "record_type": "work", "type": "Object", "is_on_display": false, "last_on_display_place": null, "last_on_display_date": null, "is_context_indigenous": false, "material_description": "", "unpublished": false, "external": false, "first_production_date": null, "commissioned": false, "public_domain": false, "external_references": [], "brief_description": "<p>Publicity kit for the production The Tenth Dancer (1993), including 1 B&amp;W Still (Large)</p>", "constellations_primary": [], "constellations_other": [], "recommendations": [], "creator_credit_for_label": "", "headline_credit_for_label": "", "title_for_label": "<p>[The Tenth dancer : publicity kit]</p>", "description": "<p>Publicity kit for the production The Tenth Dancer (1993), including 1 B&amp;W Still (Large)</p>", "description_for_label": ["<p>Publicity kit for the production The Tenth Dancer (1993), including 1 B&amp;W Still (Large)</p>"], "credit_line_for_label": "", "details": [{"label": "Subject category", "display_values": ["Documentation"]}, {"label": "Object Types", "display_values": ["Publicity kit"]}], "stats": {"tap_count": 0}, "links": [], "creators_primary": [], "creators_other": [], "media_note": null, "holdings": [], "part_of": null, "parts": [], "part_siblings": [], "group": null, "group_works": [], "group_siblings": [], "source": {"name": "Vernon", "slug": "vernon"}, "source_identifier": "150063", "eaas_environment_id": null, "production_places": [], "production_dates": [], "labels": [58469]}, {"id": 118829, "acmi_id": "R0001526", "title": "[The Tarax show : publicity kit]", "title_annotation": "", "slug": "the-tarax-show-publicity-kit", "creator_credit": "", "credit_line": "", "headline_credit": "", "video_links": [], "record_type": "work", "type": "Object", "is_on_display": false, "last_on_display_place": null, "last_on_display_date": null, "is_context_indigenous": false, "material_description": "", "unpublished": false, "external": false, "first_production_date": null, "commissioned": false, "public_domain": false, "external_references": [], "brief_description": "<p>Publicity kit for the production The Tarax Show (TV 1957 - 1970), including 1 B&amp;W Still (Large), 1 Colour Transparency (Large)</p>", "constellations_primary": [], "constellations_other": [], "recommendations": [], "creator_credit_for_label": "", "headline_credit_for_label": "", "title_for_label": "<p>[The Tarax show : publicity kit]</p>", "description": "<p>Publicity kit for the production The Tarax Show (TV 1957 - 1970), including 1 B&amp;W Still (Large), 1 Colour Transparency (Large)</p>", "description_for_label": ["<p>Publicity kit for the production The Tarax Show (TV 1957 - 1970), including 1 B&amp;W Still (Large), 1 Colour Transparency (Large)</p>"], "credit_line_for_label": "", "details": [{"label": "Subject category", "display_values": ["Documentation"]}, {"label": "Object Types", "display_values": ["Publicity kit"]}], "stats": {"tap_count": 1}, "links": [], "creators_primary": [], "creators_other": [], "media_note": null, "holdings": [], "part_of": null, "parts": [], "part_siblings": [], "group": null, "group_works": [], "group_siblings": [], "source": {"name": "Vernon", "slug": "vernon"}, "source_identifier": "149499", "eaas_environment_id": null, "production_places": [], "production_dates": [], "labels": [58321]}]}