{"count": 41722, "next": "https://api.acmi.net.au/works/?page=4132", "previous": "https://api.acmi.net.au/works/?page=4130", "results": [{"id": 90838, "acmi_id": "313867", "title": "[Matthew Flinders: bi-centennial celebrations]", "title_annotation": "", "slug": "matthew-flinders-bi-centennial-celebrations", "creator_credit": "", "credit_line": "", "headline_credit": "United Kingdom, 1974", "video_links": [], "record_type": "work", "type": "Film", "is_on_display": false, "last_on_display_place": null, "last_on_display_date": null, "is_context_indigenous": false, "material_description": "", "unpublished": false, "external": false, "first_production_date": "1974-01-01T11:00:00+11:00", "commissioned": false, "public_domain": false, "external_references": [], "brief_description": "<p>Shows footage of the bicentennial celebrations in Great Britain of the explorer Matthew Flinders (born 1774-1814), including the &#8220;Explorer&#8217;s Window&#8221; at Lincoln Cathedral, several exhibits and an art exhibition detailing his life, and finally a presentation of a Memorial Stone by Sir Murray Porter to Lincolnshire to commemorate Matthew Flinders&#8217; birthday. Commentary by John Hyfield. NB: No title or credits and film ends abruptly</p>", "constellations_primary": [], "constellations_other": [], "recommendations": [], "title_for_label": "<p>[Matthew Flinders: bi-centennial celebrations]</p>", "creator_credit_for_label": "", "headline_credit_for_label": "<p>United Kingdom, 1974</p>", "description": "<p>Shows footage of the bicentennial celebrations in Great Britain of the explorer Matthew Flinders (born 1774-1814), including the &#8220;Explorer&#8217;s Window&#8221; at Lincoln Cathedral, several exhibits and an art exhibition detailing his life, and finally a presentation of a Memorial Stone by Sir Murray Porter to Lincolnshire to commemorate Matthew Flinders&#8217; birthday. Commentary by John Hyfield. NB: No title or credits and film ends abruptly</p>", "description_for_label": ["<p>Shows footage of the bicentennial celebrations in Great Britain of the explorer Matthew Flinders (born 1774-1814), including the &#8220;Explorer&#8217;s Window&#8221; at Lincoln Cathedral, several exhibits and an art exhibition detailing his life, and finally a presentation of a Memorial Stone by Sir Murray Porter to Lincolnshire to commemorate Matthew Flinders&#8217; birthday. Commentary by John Hyfield. NB: No title or credits and film ends abruptly</p>"], "credit_line_for_label": "", "details": [{"label": "Duration", "display_values": ["00:06:08:00"]}, {"label": "Language", "display_values": ["English"]}, {"label": "Subject categories", "display_values": ["Anthropology, Ethnology, Exploration & Travel&nbsp;→ Explorers", "Anthropology, Ethnology, Exploration & Travel&nbsp;→ Explorers - Australia", "Documentary", "Documentary&nbsp;→ Documentary films - Great Britain", "History&nbsp;→ Explorers", "History&nbsp;→ Explorers - Australia", "History&nbsp;→ Flinders, Matthew, 1774-1814", "History&nbsp;→ Great Britain - History", "History&nbsp;→ History", "People&nbsp;→ Flinders, Matthew, 1774-1814", "Short films", "Short films&nbsp;→ Short films - Great Britain"]}, {"label": "Sound/audio", "display_values": ["Sound"]}, {"label": "Colour", "display_values": ["Colour"]}], "stats": {"tap_count": 0}, "links": [], "creators_primary": [], "creators_other": [], "media_note": "Sorry, we don't have images or video for this item.", "holdings": [{"name": "16mm film; Access Print (Section 1)", "identifier": "", "description": ""}], "part_of": null, "parts": [], "part_siblings": [], "group": null, "group_works": [], "group_siblings": [], "source": {"name": "Vernon", "slug": "vernon"}, "source_identifier": "48124", "eaas_environment_id": null, "production_places": [{"id": 10, "name": "United Kingdom", "slug": "united-kingdom"}], "production_dates": [{"date": "1974", "notes": "Produced", "to_year": "1974"}], "labels": [30328]}, {"id": 118397, "acmi_id": "R0000993", "title": "[Matlock police : publicity kit]", "title_annotation": "", "slug": "matlock-police-publicity-kit", "creator_credit": "", "credit_line": "", "headline_credit": "", "video_links": [], "record_type": "work", "type": "Object", "is_on_display": false, "last_on_display_place": null, "last_on_display_date": null, "is_context_indigenous": false, "material_description": "", "unpublished": false, "external": false, "first_production_date": null, "commissioned": false, "public_domain": false, "external_references": [], "brief_description": "<p>Publicity kit for the production Matlock Police (TV 1971-1976), including 3 B&amp;W Stills (Large)</p>", "constellations_primary": [], "constellations_other": [], "recommendations": [], "title_for_label": "<p>[Matlock police : publicity kit]</p>", "creator_credit_for_label": "", "headline_credit_for_label": "", "description": "<p>Publicity kit for the production Matlock Police (TV 1971-1976), including 3 B&amp;W Stills (Large)</p>", "description_for_label": ["<p>Publicity kit for the production Matlock Police (TV 1971-1976), including 3 B&amp;W Stills (Large)</p>"], "credit_line_for_label": "", "details": [{"label": "Subject category", "display_values": ["Documentation"]}, {"label": "Object Types", "display_values": ["Publicity kit"]}], "stats": {"tap_count": 0}, "links": [], "creators_primary": [], "creators_other": [], "media_note": null, "holdings": [], "part_of": null, "parts": [], "part_siblings": [], "group": null, "group_works": [], "group_siblings": [], "source": {"name": "Vernon", "slug": "vernon"}, "source_identifier": "148965", "eaas_environment_id": null, "production_places": [], "production_dates": [], "labels": [57896]}, {"id": 90258, "acmi_id": "313190", "title": "[Maryvale Paper Mill]", "title_annotation": "", "slug": "maryvale-paper-mill", "creator_credit": "", "credit_line": "", "headline_credit": "Australia, 1941", "video_links": [], "record_type": "work", "type": "Film", "is_on_display": false, "last_on_display_place": null, "last_on_display_date": null, "is_context_indigenous": false, "material_description": "", "unpublished": false, "external": false, "first_production_date": "1941-01-01T10:00:00+10:00", "commissioned": false, "public_domain": false, "external_references": [], "brief_description": "<p>Untitled silent film with occasional intertitles.<br />\nOf historical value this film shows Sir Herbert Gupp(?) with Rotarians at the Maryvale Paper Mill on 20 February 1941.<br />\nThe Mill was built in 1937 at a cost of 400,000 pounds. Also shows homes of the workmen and staff.<br />\nNo credits available.</p>", "constellations_primary": [], "constellations_other": [], "recommendations": [], "title_for_label": "<p>[Maryvale Paper Mill]</p>", "creator_credit_for_label": "", "headline_credit_for_label": "<p>Australia, 1941</p>", "description": "<p>Untitled silent film with occasional intertitles.<br />\nOf historical value this film shows Sir Herbert Gupp(?) with Rotarians at the Maryvale Paper Mill on 20 February 1941.<br />\nThe Mill was built in 1937 at a cost of 400,000 pounds. Also shows homes of the workmen and staff.<br />\nNo credits available.</p>", "description_for_label": ["<p>Untitled silent film with occasional intertitles.<br />\nOf historical value this film shows Sir Herbert Gupp(?) with Rotarians at the Maryvale Paper Mill on 20 February 1941.<br />\nThe Mill was built in 1937 at a cost of 400,000 pounds. Also shows homes of the workmen and staff.<br />\nNo credits available.</p>"], "credit_line_for_label": "", "details": [{"label": "Duration", "display_values": ["00:08:12:00"]}, {"label": "Language", "display_values": ["No spoken word"]}, {"label": "Subject categories", "display_values": ["Climate, Environment, Natural Resources & Disasters&nbsp;→ Forests and forestry - Australia", "Climate, Environment, Natural Resources & Disasters&nbsp;→ Timber - Australia", "Crafts & Visual Arts&nbsp;→ Papermaking", "Documentary", "Documentary&nbsp;→ Documentary films - Australia", "History&nbsp;→ History", "History&nbsp;→ Victoria - History", "Short films", "Short films&nbsp;→ Short films - Australia", "Silent films"]}, {"label": "Sound/audio", "display_values": ["Silent"]}, {"label": "Colour", "display_values": ["Colour"]}], "stats": {"tap_count": 0}, "links": [], "creators_primary": [], "creators_other": [], "media_note": "Sorry, we don't have images or video for this item.", "holdings": [{"name": "16mm film; Access Print (Section 1)", "identifier": "", "description": ""}], "part_of": null, "parts": [], "part_siblings": [], "group": null, "group_works": [], "group_siblings": [], "source": {"name": "Vernon", "slug": "vernon"}, "source_identifier": "47466", "eaas_environment_id": null, "production_places": [{"id": 3, "name": "Australia", "slug": "australia"}], "production_dates": [{"date": "1941", "notes": "Produced", "to_year": "1941"}], "labels": [29748]}, {"id": 118785, "acmi_id": "R0001428", "title": "[Mary : publicity kit]", "title_annotation": "", "slug": "mary-publicity-kit", "creator_credit": "", "credit_line": "", "headline_credit": "", "video_links": [], "record_type": "work", "type": "Object", "is_on_display": false, "last_on_display_place": null, "last_on_display_date": null, "is_context_indigenous": false, "material_description": "", "unpublished": false, "external": false, "first_production_date": null, "commissioned": false, "public_domain": false, "external_references": [], "brief_description": "<p>Publicity kit for the production Mary (1994), including 12 B&amp;W Stills (Large), 1 Press Kit/ Review, 1 Promo Flyer</p>", "constellations_primary": [], "constellations_other": [], "recommendations": [], "title_for_label": "<p>[Mary : publicity kit]</p>", "creator_credit_for_label": "", "headline_credit_for_label": "", "description": "<p>Publicity kit for the production Mary (1994), including 12 B&amp;W Stills (Large), 1 Press Kit/ Review, 1 Promo Flyer</p>", "description_for_label": ["<p>Publicity kit for the production Mary (1994), including 12 B&amp;W Stills (Large), 1 Press Kit/ Review, 1 Promo Flyer</p>"], "credit_line_for_label": "", "details": [{"label": "Subject category", "display_values": ["Documentation"]}, {"label": "Object Types", "display_values": ["Publicity kit"]}], "stats": {"tap_count": 0}, "links": [], "creators_primary": [], "creators_other": [], "media_note": null, "holdings": [], "part_of": null, "parts": [], "part_siblings": [], "group": null, "group_works": [], "group_siblings": [], "source": {"name": "Vernon", "slug": "vernon"}, "source_identifier": "149401", "eaas_environment_id": null, "production_places": [], "production_dates": [], "labels": [58277]}, {"id": 118396, "acmi_id": "R0000992", "title": "[Manganinnie : publicity kit]", "title_annotation": "", "slug": "manganinnie-publicity-kit", "creator_credit": "", "credit_line": "", "headline_credit": "", "video_links": [], "record_type": "work", "type": "Object", "is_on_display": false, "last_on_display_place": null, "last_on_display_date": null, "is_context_indigenous": false, "material_description": "", "unpublished": false, "external": false, "first_production_date": null, "commissioned": false, "public_domain": false, "external_references": [], "brief_description": "<p>Publicity kit for the production Manganinnie (1980), including 32 B&amp;W Stills (Large), 2 Press Kit/ Reviews, 1 School Study Guide</p>", "constellations_primary": [], "constellations_other": [], "recommendations": [], "title_for_label": "<p>[Manganinnie : publicity kit]</p>", "creator_credit_for_label": "", "headline_credit_for_label": "", "description": "<p>Publicity kit for the production Manganinnie (1980), including 32 B&amp;W Stills (Large), 2 Press Kit/ Reviews, 1 School Study Guide</p>", "description_for_label": ["<p>Publicity kit for the production Manganinnie (1980), including 32 B&amp;W Stills (Large), 2 Press Kit/ Reviews, 1 School Study Guide</p>"], "credit_line_for_label": "", "details": [{"label": "Subject category", "display_values": ["Documentation"]}, {"label": "Object Types", "display_values": ["Publicity kit"]}], "stats": {"tap_count": 0}, "links": [], "creators_primary": [], "creators_other": [], "media_note": null, "holdings": [], "part_of": null, "parts": [], "part_siblings": [], "group": null, "group_works": [], "group_siblings": [], "source": {"name": "Vernon", "slug": "vernon"}, "source_identifier": "148964", "eaas_environment_id": null, "production_places": [], "production_dates": [], "labels": [57895]}, {"id": 118783, "acmi_id": "R0001426", "title": "[Man of letters : publicity kit]", "title_annotation": "", "slug": "man-of-letters-publicity-kit", "creator_credit": "", "credit_line": "", "headline_credit": "", "video_links": [], "record_type": "work", "type": "Object", "is_on_display": false, "last_on_display_place": null, "last_on_display_date": null, "is_context_indigenous": false, "material_description": "", "unpublished": false, "external": false, "first_production_date": null, "commissioned": false, "public_domain": false, "external_references": [], "brief_description": "<p>Publicity kit for the production Man of Letters (TV 1984), including 1 B&amp;W Still (Large), 1 Press Kit/ Review</p>", "constellations_primary": [], "constellations_other": [], "recommendations": [], "title_for_label": "<p>[Man of letters : publicity kit]</p>", "creator_credit_for_label": "", "headline_credit_for_label": "", "description": "<p>Publicity kit for the production Man of Letters (TV 1984), including 1 B&amp;W Still (Large), 1 Press Kit/ Review</p>", "description_for_label": ["<p>Publicity kit for the production Man of Letters (TV 1984), including 1 B&amp;W Still (Large), 1 Press Kit/ Review</p>"], "credit_line_for_label": "", "details": [{"label": "Subject category", "display_values": ["Documentation"]}, {"label": "Object Types", "display_values": ["Publicity kit"]}], "stats": {"tap_count": 0}, "links": [], "creators_primary": [], "creators_other": [], "media_note": null, "holdings": [], "part_of": null, "parts": [], "part_siblings": [], "group": null, "group_works": [], "group_siblings": [], "source": {"name": "Vernon", "slug": "vernon"}, "source_identifier": "149399", "eaas_environment_id": null, "production_places": [], "production_dates": [], "labels": [58275]}, {"id": 118782, "acmi_id": "R0001425", "title": "[Man of flowers : publicity kit]", "title_annotation": "", "slug": "man-of-flowers-publicity-kit", "creator_credit": "", "credit_line": "", "headline_credit": "", "video_links": [], "record_type": "work", "type": "Object", "is_on_display": false, "last_on_display_place": null, "last_on_display_date": null, "is_context_indigenous": false, "material_description": "", "unpublished": false, "external": false, "first_production_date": null, "commissioned": false, "public_domain": false, "external_references": [], "brief_description": "<p>Publicity kit for the production Man of Flowers (1983), including 9 Colour Stills (Large), 15 B&amp;W Stills (Small)</p>", "constellations_primary": [], "constellations_other": [], "recommendations": [], "title_for_label": "<p>[Man of flowers : publicity kit]</p>", "creator_credit_for_label": "", "headline_credit_for_label": "", "description": "<p>Publicity kit for the production Man of Flowers (1983), including 9 Colour Stills (Large), 15 B&amp;W Stills (Small)</p>", "description_for_label": ["<p>Publicity kit for the production Man of Flowers (1983), including 9 Colour Stills (Large), 15 B&amp;W Stills (Small)</p>"], "credit_line_for_label": "", "details": [{"label": "Subject category", "display_values": ["Documentation"]}, {"label": "Object Types", "display_values": ["Publicity kit"]}], "stats": {"tap_count": 1}, "links": [], "creators_primary": [], "creators_other": [], "media_note": null, "holdings": [], "part_of": null, "parts": [], "part_siblings": [], "group": null, "group_works": [], "group_siblings": [], "source": {"name": "Vernon", "slug": "vernon"}, "source_identifier": "149398", "eaas_environment_id": null, "production_places": [], "production_dates": [], "labels": [58274]}, {"id": 118778, "acmi_id": "R0001421", "title": "[Mama's gone a-hunting : publicity kit]", "title_annotation": "", "slug": "mamas-gone-a-hunting-publicity-kit", "creator_credit": "", "credit_line": "", "headline_credit": "", "video_links": [], "record_type": "work", "type": "Object", "is_on_display": false, "last_on_display_place": null, "last_on_display_date": null, "is_context_indigenous": false, "material_description": "", "unpublished": false, "external": false, "first_production_date": null, "commissioned": false, "public_domain": false, "external_references": [], "brief_description": "<p>Publicity kit for the production Mama&#8217;s Gone A-Hunting (TV 1975), including 2 B&amp;W Stills (Large)</p>", "constellations_primary": [], "constellations_other": [], "recommendations": [], "title_for_label": "<p>[Mama&#8217;s gone a-hunting : publicity kit]</p>", "creator_credit_for_label": "", "headline_credit_for_label": "", "description": "<p>Publicity kit for the production Mama&#8217;s Gone A-Hunting (TV 1975), including 2 B&amp;W Stills (Large)</p>", "description_for_label": ["<p>Publicity kit for the production Mama&#8217;s Gone A-Hunting (TV 1975), including 2 B&amp;W Stills (Large)</p>"], "credit_line_for_label": "", "details": [{"label": "Subject category", "display_values": ["Documentation"]}, {"label": "Object Types", "display_values": ["Publicity kit"]}], "stats": {"tap_count": 0}, "links": [], "creators_primary": [], "creators_other": [], "media_note": null, "holdings": [], "part_of": null, "parts": [], "part_siblings": [], "group": null, "group_works": [], "group_siblings": [], "source": {"name": "Vernon", "slug": "vernon"}, "source_identifier": "149394", "eaas_environment_id": null, "production_places": [], "production_dates": [], "labels": [58270]}, {"id": 89753, "acmi_id": "312618", "title": "[Malvern swimming club]", "title_annotation": "", "slug": "malvern-swimming-club", "creator_credit": "", "credit_line": "", "headline_credit": "Australia, 1961", "video_links": [], "record_type": "work", "type": "Film", "is_on_display": false, "last_on_display_place": null, "last_on_display_date": null, "is_context_indigenous": false, "material_description": "", "unpublished": false, "external": false, "first_production_date": "1961-01-01T10:00:00+10:00", "commissioned": false, "public_domain": false, "external_references": [], "brief_description": "<p>Shows young children learning to swim at the Malvern Swimming Club in Melbourne and includes scenes of trials, races and presentation of prizes from the 8th Annual Swimming Championship Carnival program held in February 1961.</p>", "constellations_primary": [], "constellations_other": [], "recommendations": [], "title_for_label": "<p>[Malvern swimming club]</p>", "creator_credit_for_label": "", "headline_credit_for_label": "<p>Australia, 1961</p>", "description": "<p>Shows young children learning to swim at the Malvern Swimming Club in Melbourne and includes scenes of trials, races and presentation of prizes from the 8th Annual Swimming Championship Carnival program held in February 1961.</p>", "description_for_label": ["<p>Shows young children learning to swim at the Malvern Swimming Club in Melbourne and includes scenes of trials, races and presentation of prizes from the 8th Annual Swimming Championship Carnival program held in February 1961.</p>"], "credit_line_for_label": "", "details": [{"label": "Duration", "display_values": ["00:11:13:00"]}, {"label": "Language", "display_values": ["English"]}, {"label": "Subject categories", "display_values": ["Anthropology, Ethnology, Exploration & Travel&nbsp;→ Victoria - Description and travel", "Anthropology, Ethnology, Exploration & Travel&nbsp;→ Victoria - Social life and customs", "Documentary", "Documentary&nbsp;→ Documentary films - Australia", "Education, Instruction, Teaching & Schools&nbsp;→ Swimming - Training", "Hobbies, Recreation & Sport&nbsp;→ Aquatic sports", "Hobbies, Recreation & Sport&nbsp;→ Sports for children", "Hobbies, Recreation & Sport&nbsp;→ Swimming - Coaching", "Hobbies, Recreation & Sport&nbsp;→ Swimming - Technique", "Hobbies, Recreation & Sport&nbsp;→ Swimming - Training", "Hobbies, Recreation & Sport&nbsp;→ Swimming for children", "Hobbies, Recreation & Sport&nbsp;→ Swimming pools", "Silent films"]}, {"label": "Sound/audio", "display_values": ["Silent"]}, {"label": "Colour", "display_values": ["Black and White"]}], "stats": {"tap_count": 0}, "links": [], "creators_primary": [], "creators_other": [], "media_note": "Sorry, we don't have images or video for this item.", "holdings": [{"name": "16mm film; Access Print (Section 1)", "identifier": "", "description": ""}, {"name": "16mm film; Limited Access Print (Section 2)", "identifier": "", "description": ""}], "part_of": null, "parts": [], "part_siblings": [], "group": null, "group_works": [], "group_siblings": [], "source": {"name": "Vernon", "slug": "vernon"}, "source_identifier": "46917", "eaas_environment_id": null, "production_places": [{"id": 3, "name": "Australia", "slug": "australia"}], "production_dates": [{"date": "1961", "notes": "Produced", "to_year": "1961"}], "labels": [29243]}, {"id": 118873, "acmi_id": "R0001609", "title": "[Mallacoota stampede : publicity kit]", "title_annotation": "", "slug": "mallacoota-stampede-publicity-kit", "creator_credit": "", "credit_line": "", "headline_credit": "", "video_links": [], "record_type": "work", "type": "Object", "is_on_display": false, "last_on_display_place": null, "last_on_display_date": null, "is_context_indigenous": false, "material_description": "", "unpublished": false, "external": false, "first_production_date": null, "commissioned": false, "public_domain": false, "external_references": [], "brief_description": "<p>Publicity kit for the production Mallacoota Stampede (1979), including 1 B&amp;W Still (Large), 2 B&amp;W Stills (Small)</p>", "constellations_primary": [], "constellations_other": [], "recommendations": [], "title_for_label": "<p>[Mallacoota stampede : publicity kit]</p>", "creator_credit_for_label": "", "headline_credit_for_label": "", "description": "<p>Publicity kit for the production Mallacoota Stampede (1979), including 1 B&amp;W Still (Large), 2 B&amp;W Stills (Small)</p>", "description_for_label": ["<p>Publicity kit for the production Mallacoota Stampede (1979), including 1 B&amp;W Still (Large), 2 B&amp;W Stills (Small)</p>"], "credit_line_for_label": "", "details": [{"label": "Subject category", "display_values": ["Documentation"]}, {"label": "Object Types", "display_values": ["Publicity kit"]}], "stats": {"tap_count": 2}, "links": [], "creators_primary": [], "creators_other": [], "media_note": null, "holdings": [], "part_of": null, "parts": [], "part_siblings": [], "group": null, "group_works": [], "group_siblings": [], "source": {"name": "Vernon", "slug": "vernon"}, "source_identifier": "149582", "eaas_environment_id": null, "production_places": [], "production_dates": [], "labels": [58360]}]}