{"count": 41723, "next": "https://api.acmi.net.au/works/?page=1389", "previous": "https://api.acmi.net.au/works/?page=1387", "results": [{"id": 109225, "acmi_id": "B1006072", "title": "Body code", "title_annotation": "", "slug": "body-code", "creator_credit": "Drew Berry", "credit_line": "", "headline_credit": "", "video_links": [], "record_type": "work", "type": "Film", "is_on_display": false, "last_on_display_place": null, "last_on_display_date": null, "is_context_indigenous": false, "material_description": "", "unpublished": false, "external": false, "first_production_date": null, "commissioned": false, "public_domain": false, "external_references": [], "brief_description": "<p>computer generated animation accurately portraying activity within the body at cellular level. Produced in conjunction with medical researchers.</p>", "constellations_primary": [], "constellations_other": [], "recommendations": [], "title_for_label": "<p>Body code</p>", "creator_credit_for_label": "<p>Drew Berry</p>", "headline_credit_for_label": "", "description": "<p>computer generated animation accurately portraying activity within the body at cellular level. Produced in conjunction with medical researchers.</p>", "description_for_label": ["<p>computer generated animation accurately portraying activity within the body at cellular level. Produced in conjunction with medical researchers.</p>"], "credit_line_for_label": "", "details": [], "stats": {"tap_count": 0}, "links": [], "creators_primary": [{"id": 2711510, "name": "Drew Berry", "creator_id": 9264, "creator_wikidata_id": null, "role": "creator", "role_id": 968, "is_primary": true}], "creators_other": [], "media_note": "Sorry, we don't have images or video for this item.", "holdings": [{"name": "DVD [PAL]; Exhibition Copy", "identifier": "", "description": ""}, {"name": "Mini DV; Master", "identifier": "", "description": ""}, {"name": "VHS [PAL]; Reference - timecoded", "identifier": "", "description": ""}, {"name": "Digital Betacam; Sub-master", "identifier": "", "description": ""}, {"name": "VHS; Copy", "identifier": "", "description": ""}, {"name": "VHS [PAL]; Copy", "identifier": "", "description": ""}], "part_of": null, "parts": [], "part_siblings": [], "group": null, "group_works": [], "group_siblings": [], "source": {"name": "Vernon", "slug": "vernon"}, "source_identifier": "2693", "eaas_environment_id": null, "production_places": [], "production_dates": [], "labels": [48718]}, {"id": 109223, "acmi_id": "B1006067", "title": "Going down", "title_annotation": "", "slug": "going-down", "creator_credit": "Marina Ellerington", "credit_line": "", "headline_credit": "", "video_links": [], "record_type": "work", "type": "Film", "is_on_display": false, "last_on_display_place": null, "last_on_display_date": null, "is_context_indigenous": false, "material_description": "", "unpublished": false, "external": false, "first_production_date": null, "commissioned": false, "public_domain": false, "external_references": [], "brief_description": "", "constellations_primary": [], "constellations_other": [], "recommendations": [], "title_for_label": "<p>Going down</p>", "creator_credit_for_label": "<p>Marina Ellerington</p>", "headline_credit_for_label": "", "description": "", "description_for_label": [], "credit_line_for_label": "", "details": [], "stats": {"tap_count": 0}, "links": [], "creators_primary": [{"id": 2711509, "name": "Marina Ellerington", "creator_id": 7974, "creator_wikidata_id": null, "role": "creator", "role_id": 968, "is_primary": true}], "creators_other": [], "media_note": "Sorry, we don't have images or video for this item.", "holdings": [{"name": "Mini DV; Master", "identifier": "", "description": ""}], "part_of": null, "parts": [], "part_siblings": [], "group": null, "group_works": [], "group_siblings": [], "source": {"name": "Vernon", "slug": "vernon"}, "source_identifier": "2690", "eaas_environment_id": null, "production_places": [], "production_dates": [], "labels": [48716]}, {"id": 109220, "acmi_id": "B1006054", "title": "Heart thief", "title_annotation": "", "slug": "heart-thief", "creator_credit": "Kathryn Bird", "credit_line": "", "headline_credit": "2003", "video_links": [], "record_type": "work", "type": "Film", "is_on_display": false, "last_on_display_place": null, "last_on_display_date": null, "is_context_indigenous": false, "material_description": "", "unpublished": false, "external": false, "first_production_date": "2003-01-01T11:00:00+11:00", "commissioned": false, "public_domain": false, "external_references": [], "brief_description": "<p>Some photographs and hundreds of love letters are found abandoned in a Sydney auction house.</p>", "constellations_primary": [], "constellations_other": [], "recommendations": [], "title_for_label": "<p>Heart thief</p>", "creator_credit_for_label": "<p>Kathryn Bird</p>", "headline_credit_for_label": "<p>2003</p>", "description": "<p>Some photographs and hundreds of love letters are found abandoned in a Sydney auction house.</p>", "description_for_label": ["<p>Some photographs and hundreds of love letters are found abandoned in a Sydney auction house.</p>"], "credit_line_for_label": "", "details": [], "stats": {"tap_count": 0}, "links": [], "creators_primary": [{"id": 2711502, "name": "Kathryn Bird", "creator_id": 9259, "creator_wikidata_id": null, "role": "creator", "role_id": 968, "is_primary": true}], "creators_other": [], "media_note": "Sorry, we don't have images or video for this item.", "holdings": [{"name": "Digital Betacam; Master", "identifier": "", "description": ""}, {"name": "DVD [PAL]; Master", "identifier": "", "description": ""}, {"name": "DVD [PAL]; Copy", "identifier": "", "description": ""}, {"name": "VHS [PAL]; Reference - timecoded", "identifier": "", "description": ""}, {"name": "Digital Betacam; Sub-master", "identifier": "", "description": ""}], "part_of": null, "parts": [], "part_siblings": [], "group": null, "group_works": [], "group_siblings": [], "source": {"name": "Vernon", "slug": "vernon"}, "source_identifier": "2678", "eaas_environment_id": null, "production_places": [], "production_dates": [{"date": "2003", "notes": "", "to_year": "2003"}], "labels": [48713]}, {"id": 109219, "acmi_id": "B1006053", "title": "Journey", "title_annotation": "", "slug": "journey", "creator_credit": "Andrea Williams", "credit_line": "", "headline_credit": "2002", "video_links": [], "record_type": "work", "type": "Film", "is_on_display": false, "last_on_display_place": null, "last_on_display_date": null, "is_context_indigenous": false, "material_description": "", "unpublished": false, "external": false, "first_production_date": "2002-01-01T11:00:00+11:00", "commissioned": false, "public_domain": false, "external_references": [], "brief_description": "<p>The journeys in our lives and how we are perceived &amp; labelled in society.</p>", "constellations_primary": [], "constellations_other": [], "recommendations": [], "title_for_label": "<p>Journey</p>", "creator_credit_for_label": "<p>Andrea Williams</p>", "headline_credit_for_label": "<p>2002</p>", "description": "<p>The journeys in our lives and how we are perceived &amp; labelled in society.</p>", "description_for_label": ["<p>The journeys in our lives and how we are perceived &amp; labelled in society.</p>"], "credit_line_for_label": "", "details": [], "stats": {"tap_count": 0}, "links": [], "creators_primary": [{"id": 2711501, "name": "Andrea Williams", "creator_id": 9258, "creator_wikidata_id": null, "role": "creator", "role_id": 968, "is_primary": true}], "creators_other": [], "media_note": "Sorry, we don't have images or video for this item.", "holdings": [{"name": "Digital Betacam; Master", "identifier": "", "description": ""}, {"name": "DVD [PAL]; Master", "identifier": "", "description": ""}, {"name": "DVD [PAL]; Copy", "identifier": "", "description": ""}, {"name": "VHS [PAL]; Reference - timecoded", "identifier": "", "description": ""}, {"name": "Digital Betacam; Sub-master", "identifier": "", "description": ""}], "part_of": null, "parts": [], "part_siblings": [], "group": null, "group_works": [], "group_siblings": [], "source": {"name": "Vernon", "slug": "vernon"}, "source_identifier": "2677", "eaas_environment_id": null, "production_places": [], "production_dates": [{"date": "2002", "notes": "", "to_year": "2002"}], "labels": [48712]}, {"id": 109216, "acmi_id": "B1006050", "title": "Breathless", "title_annotation": "", "slug": "breathless", "creator_credit": "Grant Hilliard", "credit_line": "", "headline_credit": "2003", "video_links": [], "record_type": "work", "type": "Film", "is_on_display": false, "last_on_display_place": null, "last_on_display_date": null, "is_context_indigenous": false, "material_description": "", "unpublished": false, "external": false, "first_production_date": "2003-01-01T11:00:00+11:00", "commissioned": false, "public_domain": false, "external_references": [], "brief_description": "<p>A killer comedy that will leave you breathless.</p>", "constellations_primary": [], "constellations_other": [], "recommendations": [], "title_for_label": "<p>Breathless</p>", "creator_credit_for_label": "<p>Grant Hilliard</p>", "headline_credit_for_label": "<p>2003</p>", "description": "<p>A killer comedy that will leave you breathless.</p>", "description_for_label": ["<p>A killer comedy that will leave you breathless.</p>"], "credit_line_for_label": "", "details": [], "stats": {"tap_count": 0}, "links": [], "creators_primary": [{"id": 2711500, "name": "Grant Hilliard", "creator_id": 8677, "creator_wikidata_id": null, "role": "creator", "role_id": 968, "is_primary": true}], "creators_other": [], "media_note": "Sorry, we don't have images or video for this item.", "holdings": [{"name": "Digital Betacam; Master", "identifier": "", "description": ""}, {"name": "DVD [PAL]; Master", "identifier": "", "description": ""}, {"name": "DVD [PAL]; Copy", "identifier": "", "description": ""}, {"name": "VHS [PAL]; Reference - timecoded", "identifier": "", "description": ""}, {"name": "Digital Betacam; Sub-master", "identifier": "", "description": ""}], "part_of": null, "parts": [], "part_siblings": [], "group": null, "group_works": [], "group_siblings": [], "source": {"name": "Vernon", "slug": "vernon"}, "source_identifier": "2674", "eaas_environment_id": null, "production_places": [], "production_dates": [{"date": "2003", "notes": "", "to_year": "2003"}], "labels": [48709]}, {"id": 109215, "acmi_id": "B1006049", "title": "Orbiting in a silent machine", "title_annotation": "", "slug": "orbiting-in-a-silent-machine", "creator_credit": "Sung Khuu", "credit_line": "", "headline_credit": "2002", "video_links": [], "record_type": "work", "type": "Film", "is_on_display": false, "last_on_display_place": null, "last_on_display_date": null, "is_context_indigenous": false, "material_description": "", "unpublished": false, "external": false, "first_production_date": "2002-01-01T11:00:00+11:00", "commissioned": false, "public_domain": false, "external_references": [], "brief_description": "<p>The orbit of thoughts and emotions existing inside one individual&#8217;s mind.</p>", "constellations_primary": [], "constellations_other": [], "recommendations": [], "title_for_label": "<p>Orbiting in a silent machine</p>", "creator_credit_for_label": "<p>Sung Khuu</p>", "headline_credit_for_label": "<p>2002</p>", "description": "<p>The orbit of thoughts and emotions existing inside one individual&#8217;s mind.</p>", "description_for_label": ["<p>The orbit of thoughts and emotions existing inside one individual&#8217;s mind.</p>"], "credit_line_for_label": "", "details": [], "stats": {"tap_count": 0}, "links": [], "creators_primary": [{"id": 2711499, "name": "Sung Khuu", "creator_id": 7065, "creator_wikidata_id": null, "role": "creator", "role_id": 968, "is_primary": true}], "creators_other": [], "media_note": "Sorry, we don't have images or video for this item.", "holdings": [{"name": "VHS; Copy", "identifier": "", "description": ""}, {"name": "Mini DV; Master", "identifier": "", "description": ""}, {"name": "Digital Betacam; Master", "identifier": "", "description": ""}, {"name": "DVD [PAL]; Master", "identifier": "", "description": ""}, {"name": "DVD [PAL]; Copy", "identifier": "", "description": ""}, {"name": "VHS [PAL]; Reference - timecoded", "identifier": "", "description": ""}, {"name": "Digital Betacam; Sub-master", "identifier": "", "description": ""}], "part_of": null, "parts": [], "part_siblings": [], "group": null, "group_works": [], "group_siblings": [], "source": {"name": "Vernon", "slug": "vernon"}, "source_identifier": "2673", "eaas_environment_id": null, "production_places": [], "production_dates": [{"date": "2002", "notes": "", "to_year": "2002"}], "labels": [48708]}, {"id": 109214, "acmi_id": "B1006048", "title": "Elizabeth", "title_annotation": "", "slug": "elizabeth", "creator_credit": "Emma Sleath", "credit_line": "", "headline_credit": "2002", "video_links": [], "record_type": "work", "type": "Film", "is_on_display": false, "last_on_display_place": null, "last_on_display_date": null, "is_context_indigenous": false, "material_description": "", "unpublished": false, "external": false, "first_production_date": "2002-01-01T11:00:00+11:00", "commissioned": false, "public_domain": false, "external_references": [], "brief_description": "<p>That ain&#8217;t no way to treat a lady.</p>", "constellations_primary": [], "constellations_other": [], "recommendations": [], "title_for_label": "<p>Elizabeth</p>", "creator_credit_for_label": "<p>Emma Sleath</p>", "headline_credit_for_label": "<p>2002</p>", "description": "<p>That ain&#8217;t no way to treat a lady.</p>", "description_for_label": ["<p>That ain&#8217;t no way to treat a lady.</p>"], "credit_line_for_label": "", "details": [], "stats": {"tap_count": 0}, "links": [], "creators_primary": [{"id": 2711498, "name": "Emma Sleath", "creator_id": 6797, "creator_wikidata_id": "Q121034268", "role": "creator", "role_id": 968, "is_primary": true}], "creators_other": [], "media_note": "Sorry, we don't have images or video for this item.", "holdings": [{"name": "Digital Betacam; Master", "identifier": "", "description": ""}, {"name": "DVD [PAL]; Master", "identifier": "", "description": ""}, {"name": "DVD [PAL]; Copy", "identifier": "", "description": ""}, {"name": "VHS [PAL]; Reference - timecoded", "identifier": "", "description": ""}, {"name": "Digital Betacam; Sub-master", "identifier": "", "description": ""}], "part_of": null, "parts": [], "part_siblings": [], "group": null, "group_works": [], "group_siblings": [], "source": {"name": "Vernon", "slug": "vernon"}, "source_identifier": "2672", "eaas_environment_id": null, "production_places": [], "production_dates": [{"date": "2002", "notes": "", "to_year": "2002"}], "labels": [48707]}, {"id": 112627, "acmi_id": "B1006047", "title": "Vern's update", "title_annotation": "", "slug": "verns-update", "creator_credit": "Martin Murphy and Paul Livingston", "credit_line": "", "headline_credit": "2002", "video_links": [], "record_type": "work", "type": "Film", "is_on_display": false, "last_on_display_place": null, "last_on_display_date": null, "is_context_indigenous": false, "material_description": "", "unpublished": false, "external": false, "first_production_date": "2002-01-01T11:00:00+11:00", "commissioned": false, "public_domain": false, "external_references": [], "brief_description": "<p>Alien abductee and conspiracy theorist Vernon Chatfield broadcasts his latest theory from his bedsit.</p>", "constellations_primary": [], "constellations_other": [], "recommendations": [], "title_for_label": "<p>Vern&#8217;s update</p>", "creator_credit_for_label": "<p>Martin Murphy and Paul Livingston</p>", "headline_credit_for_label": "<p>2002</p>", "description": "<p>Alien abductee and conspiracy theorist Vernon Chatfield broadcasts his latest theory from his bedsit.</p>", "description_for_label": ["<p>Alien abductee and conspiracy theorist Vernon Chatfield broadcasts his latest theory from his bedsit.</p>"], "credit_line_for_label": "", "details": [], "stats": {"tap_count": 0}, "links": [], "creators_primary": [{"id": 2711497, "name": "Martin Murphy", "creator_id": 7092, "creator_wikidata_id": "Q113586169", "role": "creator", "role_id": 968, "is_primary": true}, {"id": 2711496, "name": "Paul Livingston", "creator_id": 9256, "creator_wikidata_id": null, "role": "creator", "role_id": 968, "is_primary": true}], "creators_other": [], "media_note": "Sorry, we don't have images or video for this item.", "holdings": [{"name": "Digital Betacam; Master", "identifier": "", "description": ""}, {"name": "DVD [PAL]; Master", "identifier": "", "description": ""}, {"name": "DVD [PAL]; Copy", "identifier": "", "description": ""}, {"name": "VHS [PAL]; Reference - timecoded", "identifier": "", "description": ""}, {"name": "Digital Betacam; Sub-master", "identifier": "", "description": ""}], "part_of": null, "parts": [], "part_siblings": [], "group": null, "group_works": [], "group_siblings": [], "source": {"name": "Vernon", "slug": "vernon"}, "source_identifier": "2671", "eaas_environment_id": null, "production_places": [], "production_dates": [{"date": "2002", "notes": "", "to_year": "2002"}], "labels": [52121]}, {"id": 109212, "acmi_id": "B1006046", "title": "Best friend shot", "title_annotation": "", "slug": "best-friend-shot", "creator_credit": "Caitlin Newton-Broad", "credit_line": "", "headline_credit": "2002", "video_links": [], "record_type": "work", "type": "Film", "is_on_display": false, "last_on_display_place": null, "last_on_display_date": null, "is_context_indigenous": false, "material_description": "", "unpublished": false, "external": false, "first_production_date": "2002-01-01T11:00:00+11:00", "commissioned": false, "public_domain": false, "external_references": [], "brief_description": "<p>The friend that you kill in childhood is always the friend you love the most.</p>", "constellations_primary": [], "constellations_other": [], "recommendations": [], "title_for_label": "<p>Best friend shot</p>", "creator_credit_for_label": "<p>Caitlin Newton-Broad</p>", "headline_credit_for_label": "<p>2002</p>", "description": "<p>The friend that you kill in childhood is always the friend you love the most.</p>", "description_for_label": ["<p>The friend that you kill in childhood is always the friend you love the most.</p>"], "credit_line_for_label": "", "details": [], "stats": {"tap_count": 0}, "links": [], "creators_primary": [{"id": 2711495, "name": "Caitlin Newton-Broad", "creator_id": 9255, "creator_wikidata_id": null, "role": "creator", "role_id": 968, "is_primary": true}], "creators_other": [], "media_note": "Sorry, we don't have images or video for this item.", "holdings": [{"name": "Digital Betacam; Master", "identifier": "", "description": ""}, {"name": "DVD [PAL]; Master", "identifier": "", "description": ""}, {"name": "DVD [PAL]; Copy", "identifier": "", "description": ""}, {"name": "VHS [PAL]; Reference - timecoded", "identifier": "", "description": ""}, {"name": "Digital Betacam; Sub-master", "identifier": "", "description": ""}], "part_of": null, "parts": [], "part_siblings": [], "group": null, "group_works": [], "group_siblings": [], "source": {"name": "Vernon", "slug": "vernon"}, "source_identifier": "2670", "eaas_environment_id": null, "production_places": [], "production_dates": [{"date": "2002", "notes": "", "to_year": "2002"}], "labels": [48705]}, {"id": 109211, "acmi_id": "B1006045", "title": "Arc", "title_annotation": "", "slug": "arc", "creator_credit": "James Verdon", "credit_line": "", "headline_credit": "2002", "video_links": [], "record_type": "work", "type": "Film", "is_on_display": false, "last_on_display_place": null, "last_on_display_date": null, "is_context_indigenous": false, "material_description": "", "unpublished": false, "external": false, "first_production_date": "2002-01-01T11:00:00+11:00", "commissioned": false, "public_domain": false, "external_references": [], "brief_description": "<p>A short meditation on gravitation and the gravity of dreaming.</p>", "constellations_primary": [], "constellations_other": [], "recommendations": [], "title_for_label": "<p>Arc</p>", "creator_credit_for_label": "<p>James Verdon</p>", "headline_credit_for_label": "<p>2002</p>", "description": "<p>A short meditation on gravitation and the gravity of dreaming.</p>", "description_for_label": ["<p>A short meditation on gravitation and the gravity of dreaming.</p>"], "credit_line_for_label": "", "details": [], "stats": {"tap_count": 0}, "links": [], "creators_primary": [{"id": 2711494, "name": "James Verdon", "creator_id": 6509, "creator_wikidata_id": null, "role": "creator", "role_id": 968, "is_primary": true}], "creators_other": [], "media_note": "Sorry, we don't have images or video for this item.", "holdings": [{"name": "Digital Betacam; Master", "identifier": "", "description": ""}, {"name": "DVD [PAL]; Master", "identifier": "", "description": ""}, {"name": "DVD [PAL]; Copy", "identifier": "", "description": ""}, {"name": "VHS [PAL]; Reference - timecoded", "identifier": "", "description": ""}, {"name": "Digital Betacam; Sub-master", "identifier": "", "description": ""}], "part_of": null, "parts": [], "part_siblings": [], "group": null, "group_works": [], "group_siblings": [], "source": {"name": "Vernon", "slug": "vernon"}, "source_identifier": "2669", "eaas_environment_id": null, "production_places": [], "production_dates": [{"date": "2002", "notes": "", "to_year": "2002"}], "labels": [48704]}]}