{"count": 41722, "next": "https://api.acmi.net.au/works/?page=4129", "previous": "https://api.acmi.net.au/works/?page=4127", "results": [{"id": 118398, "acmi_id": "R0000994", "title": "[Number 96 : publicity kit]", "title_annotation": "", "slug": "number-96-publicity-kit", "creator_credit": "", "credit_line": "", "headline_credit": "", "video_links": [], "record_type": "work", "type": "Object", "is_on_display": false, "last_on_display_place": null, "last_on_display_date": null, "is_context_indigenous": false, "material_description": "", "unpublished": false, "external": false, "first_production_date": null, "commissioned": false, "public_domain": false, "external_references": [], "brief_description": "<p>Publicity kit for the production Number 96 (TV 1972-1977), including 7 B&amp;W Stills (Large)</p>", "constellations_primary": [], "constellations_other": [], "recommendations": [], "title_for_label": "<p>[Number 96 : publicity kit]</p>", "creator_credit_for_label": "", "headline_credit_for_label": "", "description": "<p>Publicity kit for the production Number 96 (TV 1972-1977), including 7 B&amp;W Stills (Large)</p>", "description_for_label": ["<p>Publicity kit for the production Number 96 (TV 1972-1977), including 7 B&amp;W Stills (Large)</p>"], "credit_line_for_label": "", "details": [{"label": "Subject category", "display_values": ["Documentation"]}, {"label": "Object Types", "display_values": ["Publicity kit"]}], "stats": {"tap_count": 0}, "links": [], "creators_primary": [], "creators_other": [], "media_note": null, "holdings": [], "part_of": null, "parts": [], "part_siblings": [], "group": null, "group_works": [], "group_siblings": [], "source": {"name": "Vernon", "slug": "vernon"}, "source_identifier": "148966", "eaas_environment_id": null, "production_places": [], "production_dates": [], "labels": [57897]}, {"id": 119108, "acmi_id": "R0002284", "title": "[Now and then : publicity kit]", "title_annotation": "", "slug": "now-and-then-publicity-kit", "creator_credit": "", "credit_line": "", "headline_credit": "", "video_links": [], "record_type": "work", "type": "Object", "is_on_display": false, "last_on_display_place": null, "last_on_display_date": null, "is_context_indigenous": false, "material_description": "", "unpublished": false, "external": false, "first_production_date": null, "commissioned": false, "public_domain": false, "external_references": [], "brief_description": "<p>Publicity kit for the production Now and Then (1979), including 2 Colour Stills (Large), 1 35mm Colour Transparency, 1 Colour Negative Strip</p>", "constellations_primary": [], "constellations_other": [], "recommendations": [], "title_for_label": "<p>[Now and then : publicity kit]</p>", "creator_credit_for_label": "", "headline_credit_for_label": "", "description": "<p>Publicity kit for the production Now and Then (1979), including 2 Colour Stills (Large), 1 35mm Colour Transparency, 1 Colour Negative Strip</p>", "description_for_label": ["<p>Publicity kit for the production Now and Then (1979), including 2 Colour Stills (Large), 1 35mm Colour Transparency, 1 Colour Negative Strip</p>"], "credit_line_for_label": "", "details": [{"label": "Subject category", "display_values": ["Documentation"]}, {"label": "Object Types", "display_values": ["Publicity kit"]}], "stats": {"tap_count": 0}, "links": [], "creators_primary": [], "creators_other": [], "media_note": "Sorry, we aren't able to make images or video for this item available to the public online.", "holdings": [], "part_of": null, "parts": [], "part_siblings": [], "group": null, "group_works": [], "group_siblings": [], "source": {"name": "Vernon", "slug": "vernon"}, "source_identifier": "150575", "eaas_environment_id": null, "production_places": [], "production_dates": [], "labels": [58580]}, {"id": 118889, "acmi_id": "R0001700", "title": "[Nothing like experience : publicity kit]", "title_annotation": "", "slug": "nothing-like-experience-publicity-kit", "creator_credit": "", "credit_line": "", "headline_credit": "", "video_links": [], "record_type": "work", "type": "Object", "is_on_display": false, "last_on_display_place": null, "last_on_display_date": null, "is_context_indigenous": false, "material_description": "", "unpublished": false, "external": false, "first_production_date": null, "commissioned": false, "public_domain": false, "external_references": [], "brief_description": "<p>Publicity kit for the production Nothing like experience (1970), including 10 B&amp;W Proof Sheets, 9 B&amp;W Negative Strips</p>", "constellations_primary": [], "constellations_other": [], "recommendations": [], "title_for_label": "<p>[Nothing like experience : publicity kit]</p>", "creator_credit_for_label": "", "headline_credit_for_label": "", "description": "<p>Publicity kit for the production Nothing like experience (1970), including 10 B&amp;W Proof Sheets, 9 B&amp;W Negative Strips</p>", "description_for_label": ["<p>Publicity kit for the production Nothing like experience (1970), including 10 B&amp;W Proof Sheets, 9 B&amp;W Negative Strips</p>"], "credit_line_for_label": "", "details": [{"label": "Subject category", "display_values": ["Documentation"]}, {"label": "Object Types", "display_values": ["Publicity kit"]}], "stats": {"tap_count": 0}, "links": [], "creators_primary": [], "creators_other": [], "media_note": null, "holdings": [], "part_of": null, "parts": [], "part_siblings": [], "group": null, "group_works": [], "group_siblings": [], "source": {"name": "Vernon", "slug": "vernon"}, "source_identifier": "149673", "eaas_environment_id": null, "production_places": [], "production_dates": [], "labels": [58376]}, {"id": 118803, "acmi_id": "R0001453", "title": "[Not fourteen again : publicity kit]", "title_annotation": "", "slug": "not-fourteen-again-publicity-kit", "creator_credit": "", "credit_line": "", "headline_credit": "", "video_links": [], "record_type": "work", "type": "Object", "is_on_display": false, "last_on_display_place": null, "last_on_display_date": null, "is_context_indigenous": false, "material_description": "", "unpublished": false, "external": false, "first_production_date": null, "commissioned": false, "public_domain": false, "external_references": [], "brief_description": "<p>Publicity kit for the production Not Fourteen Again (1996), including 1 35mm Colour Transparency, 2 Press Kit/ Reviews</p>", "constellations_primary": [], "constellations_other": [], "recommendations": [], "title_for_label": "<p>[Not fourteen again : publicity kit]</p>", "creator_credit_for_label": "", "headline_credit_for_label": "", "description": "<p>Publicity kit for the production Not Fourteen Again (1996), including 1 35mm Colour Transparency, 2 Press Kit/ Reviews</p>", "description_for_label": ["<p>Publicity kit for the production Not Fourteen Again (1996), including 1 35mm Colour Transparency, 2 Press Kit/ Reviews</p>"], "credit_line_for_label": "", "details": [{"label": "Subject category", "display_values": ["Documentation"]}, {"label": "Object Types", "display_values": ["Publicity kit"]}], "stats": {"tap_count": 0}, "links": [], "creators_primary": [], "creators_other": [], "media_note": null, "holdings": [], "part_of": null, "parts": [], "part_siblings": [], "group": null, "group_works": [], "group_siblings": [], "source": {"name": "Vernon", "slug": "vernon"}, "source_identifier": "149426", "eaas_environment_id": null, "production_places": [], "production_dates": [], "labels": [58295]}, {"id": 119106, "acmi_id": "R0002283", "title": "[Noise : publicity kit]", "title_annotation": "", "slug": "noise-publicity-kit", "creator_credit": "", "credit_line": "", "headline_credit": "", "video_links": [], "record_type": "work", "type": "Object", "is_on_display": false, "last_on_display_place": null, "last_on_display_date": null, "is_context_indigenous": false, "material_description": "", "unpublished": false, "external": false, "first_production_date": null, "commissioned": false, "public_domain": false, "external_references": [], "brief_description": "<p>Publicity kit for the production Noise (1978?), including 2 35mm Colour Transparencies</p>", "constellations_primary": [], "constellations_other": [], "recommendations": [], "title_for_label": "<p>[Noise : publicity kit]</p>", "creator_credit_for_label": "", "headline_credit_for_label": "", "description": "<p>Publicity kit for the production Noise (1978?), including 2 35mm Colour Transparencies</p>", "description_for_label": ["<p>Publicity kit for the production Noise (1978?), including 2 35mm Colour Transparencies</p>"], "credit_line_for_label": "", "details": [{"label": "Subject category", "display_values": ["Documentation"]}, {"label": "Object Types", "display_values": ["Publicity kit"]}], "stats": {"tap_count": 0}, "links": [], "creators_primary": [], "creators_other": [], "media_note": null, "holdings": [], "part_of": null, "parts": [], "part_siblings": [], "group": null, "group_works": [], "group_siblings": [], "source": {"name": "Vernon", "slug": "vernon"}, "source_identifier": "150573", "eaas_environment_id": null, "production_places": [], "production_dates": [], "labels": [58579]}, {"id": 118887, "acmi_id": "R0001686", "title": "[Nirvana street murder : publicity kit]", "title_annotation": "", "slug": "nirvana-street-murder-publicity-kit", "creator_credit": "", "credit_line": "", "headline_credit": "", "video_links": [], "record_type": "work", "type": "Object", "is_on_display": false, "last_on_display_place": null, "last_on_display_date": null, "is_context_indigenous": false, "material_description": "", "unpublished": false, "external": false, "first_production_date": null, "commissioned": false, "public_domain": false, "external_references": [], "brief_description": "<p>Publicity kit for the production Nirvana Street Murder (1991), including 8 B&amp;W Stills (Large), 1 B&amp;W Still (Small), 3 35mm Colour Transparencies, 1 Press Kit/ Review</p>", "constellations_primary": [], "constellations_other": [], "recommendations": [], "title_for_label": "<p>[Nirvana street murder : publicity kit]</p>", "creator_credit_for_label": "", "headline_credit_for_label": "", "description": "<p>Publicity kit for the production Nirvana Street Murder (1991), including 8 B&amp;W Stills (Large), 1 B&amp;W Still (Small), 3 35mm Colour Transparencies, 1 Press Kit/ Review</p>", "description_for_label": ["<p>Publicity kit for the production Nirvana Street Murder (1991), including 8 B&amp;W Stills (Large), 1 B&amp;W Still (Small), 3 35mm Colour Transparencies, 1 Press Kit/ Review</p>"], "credit_line_for_label": "", "details": [{"label": "Subject category", "display_values": ["Documentation"]}, {"label": "Object Types", "display_values": ["Publicity kit"]}], "stats": {"tap_count": 0}, "links": [], "creators_primary": [], "creators_other": [], "media_note": null, "holdings": [], "part_of": null, "parts": [], "part_siblings": [], "group": null, "group_works": [], "group_siblings": [], "source": {"name": "Vernon", "slug": "vernon"}, "source_identifier": "149659", "eaas_environment_id": null, "production_places": [], "production_dates": [], "labels": [58374]}, {"id": 118432, "acmi_id": "R0001036", "title": "[News world events : publicity kit]", "title_annotation": "", "slug": "news-world-events-publicity-kit", "creator_credit": "", "credit_line": "", "headline_credit": "", "video_links": [], "record_type": "work", "type": "Object", "is_on_display": false, "last_on_display_place": null, "last_on_display_date": null, "is_context_indigenous": false, "material_description": "", "unpublished": false, "external": false, "first_production_date": null, "commissioned": false, "public_domain": false, "external_references": [], "brief_description": "<p>Publicity kit for News - World Events, including 4 B&amp;W Stills (Large), 28 B&amp;W Stills (Small)</p>", "constellations_primary": [], "constellations_other": [], "recommendations": [], "title_for_label": "<p>[News world events : publicity kit]</p>", "creator_credit_for_label": "", "headline_credit_for_label": "", "description": "<p>Publicity kit for News - World Events, including 4 B&amp;W Stills (Large), 28 B&amp;W Stills (Small)</p>", "description_for_label": ["<p>Publicity kit for News - World Events, including 4 B&amp;W Stills (Large), 28 B&amp;W Stills (Small)</p>"], "credit_line_for_label": "", "details": [{"label": "Subject category", "display_values": ["Documentation"]}, {"label": "Object Types", "display_values": ["Publicity kit"]}], "stats": {"tap_count": 1}, "links": [], "creators_primary": [], "creators_other": [], "media_note": null, "holdings": [], "part_of": null, "parts": [], "part_siblings": [], "group": null, "group_works": [], "group_siblings": [], "source": {"name": "Vernon", "slug": "vernon"}, "source_identifier": "149009", "eaas_environment_id": null, "production_places": [], "production_dates": [], "labels": [57931]}, {"id": 90212, "acmi_id": "313138", "title": "[New Zealand Weekly Review. No. 211]", "title_annotation": "", "slug": "new-zealand-weekly-review-no-211", "creator_credit": "New Zealand National Film Unit", "credit_line": "", "headline_credit": "New Zealand, 1945", "video_links": [], "record_type": "work", "type": "Film", "is_on_display": false, "last_on_display_place": null, "last_on_display_date": null, "is_context_indigenous": false, "material_description": "", "unpublished": false, "external": false, "first_production_date": "1945-01-01T10:00:00+10:00", "commissioned": false, "public_domain": false, "external_references": [], "brief_description": "<p>Newsreel items:  1. Kawhia celebrates the golden jubillee of the school. 2. Vulcanism - camera on Ruapehu. Captures the spectacular scenes of the volcano continuously belching steam and ashes from its crater over the glacier surrounding it.</p>", "constellations_primary": [], "constellations_other": [], "recommendations": [], "title_for_label": "<p>[New Zealand Weekly Review. No. 211]</p>", "creator_credit_for_label": "<p>New Zealand National Film Unit</p>", "headline_credit_for_label": "<p>New Zealand, 1945</p>", "description": "<p>Newsreel items:  1. Kawhia celebrates the golden jubillee of the school. 2. Vulcanism - camera on Ruapehu. Captures the spectacular scenes of the volcano continuously belching steam and ashes from its crater over the glacier surrounding it.</p>", "description_for_label": ["<p>Newsreel items:  1. Kawhia celebrates the golden jubillee of the school. 2. Vulcanism - camera on Ruapehu. Captures the spectacular scenes of the volcano continuously belching steam and ashes from its crater over the glacier surrounding it.</p>"], "credit_line_for_label": "", "details": [{"label": "Duration", "display_values": ["00:06:53:00"]}, {"label": "Language", "display_values": ["English"]}, {"label": "Subject categories", "display_values": ["Anthropology, Ethnology, Exploration & Travel&nbsp;→ New Zealand - Description and travel", "Anthropology, Ethnology, Exploration & Travel&nbsp;→ New Zealand - Social life and customs", "Archival, Cinemagazines & Newsreels", "Archival, Cinemagazines & Newsreels&nbsp;→ Archival materials", "Climate, Environment, Natural Resources & Disasters&nbsp;→ Volcanoes - Pacific area", "Documentary", "Documentary&nbsp;→ Documentary films - New Zealand", "Short films", "Short films&nbsp;→ Short films - New Zealand"]}, {"label": "Sound/audio", "display_values": ["Sound"]}, {"label": "Colour", "display_values": ["Black and White"]}], "stats": {"tap_count": 0}, "links": [], "creators_primary": [{"id": 876684, "name": "New Zealand National Film Unit", "creator_id": 12257, "creator_wikidata_id": null, "role": "production company", "role_id": 941, "is_primary": true}], "creators_other": [], "media_note": "Sorry, we don't have images or video for this item.", "holdings": [{"name": "16mm film; Access Print (Section 1)", "identifier": "", "description": ""}], "part_of": null, "parts": [], "part_siblings": [], "group": null, "group_works": [], "group_siblings": [], "source": {"name": "Vernon", "slug": "vernon"}, "source_identifier": "47414", "eaas_environment_id": null, "production_places": [{"id": 9, "name": "New Zealand", "slug": "new-zealand"}], "production_dates": [{"date": "1945", "notes": "Produced", "to_year": "1945"}], "labels": [29702]}, {"id": 90249, "acmi_id": "313179", "title": "[New Zealand Weekly Review. No. 202]", "title_annotation": "", "slug": "new-zealand-weekly-review-no-202", "creator_credit": "New Zealand National Film Unit", "credit_line": "", "headline_credit": "New Zealand, 1945", "video_links": [], "record_type": "work", "type": "Film", "is_on_display": false, "last_on_display_place": null, "last_on_display_date": null, "is_context_indigenous": false, "material_description": "", "unpublished": false, "external": false, "first_production_date": "1945-01-01T10:00:00+10:00", "commissioned": false, "public_domain": false, "external_references": [], "brief_description": "<p>Newsreel items:  1. Highbank - largest power unit in New Zealand in operation. Also provides water for irrigation and power in the Canterbury basin. 2. Christchurch - woollen manufacture. School children learn by ancient methods the art of spinning wool. 3. Italy - donkey derby. 26th Batallion New Zealand Division hold spring meeting. 4. Rehabilitation - the man on the land. Ex-servicemen attend training farm to help establish themselves back into civvy life. 5. Wellington lunch hour concert.</p>", "constellations_primary": [], "constellations_other": [], "recommendations": [], "title_for_label": "<p>[New Zealand Weekly Review. No. 202]</p>", "creator_credit_for_label": "<p>New Zealand National Film Unit</p>", "headline_credit_for_label": "<p>New Zealand, 1945</p>", "description": "<p>Newsreel items:  1. Highbank - largest power unit in New Zealand in operation. Also provides water for irrigation and power in the Canterbury basin. 2. Christchurch - woollen manufacture. School children learn by ancient methods the art of spinning wool. 3. Italy - donkey derby. 26th Batallion New Zealand Division hold spring meeting. 4. Rehabilitation - the man on the land. Ex-servicemen attend training farm to help establish themselves back into civvy life. 5. Wellington lunch hour concert.</p>", "description_for_label": ["<p>Newsreel items:  1. Highbank - largest power unit in New Zealand in operation. Also provides water for irrigation and power in the Canterbury basin. 2. Christchurch - woollen manufacture. School children learn by ancient methods the art of spinning wool. 3. Italy - donkey derby. 26th Batallion New Zealand Division hold spring meeting. 4. Rehabilitation - the man on the land. Ex-servicemen attend training farm to help establish themselves back into civvy life. 5. Wellington lunch hour concert.</p>"], "credit_line_for_label": "", "details": [{"label": "Duration", "display_values": ["00:12:59:00"]}, {"label": "Language", "display_values": ["English"]}, {"label": "Subject categories", "display_values": ["Agriculture, Business, Commerce & Industry&nbsp;→ Industries - New Zealand", "Anthropology, Ethnology, Exploration & Travel&nbsp;→ New Zealand - Social life and customs", "Archival, Cinemagazines & Newsreels", "Archival, Cinemagazines & Newsreels&nbsp;→ Archival materials", "Documentary", "Documentary&nbsp;→ Documentary films - New Zealand", "Economics, Philosophy, Politics, Religion & Sociology&nbsp;→ New Zealand - Rural conditions", "Short films", "Short films&nbsp;→ Short films - New Zealand"]}, {"label": "Sound/audio", "display_values": ["Sound"]}, {"label": "Colour", "display_values": ["Black and White"]}], "stats": {"tap_count": 0}, "links": [], "creators_primary": [{"id": 876767, "name": "New Zealand National Film Unit", "creator_id": 12257, "creator_wikidata_id": null, "role": "production company", "role_id": 941, "is_primary": true}], "creators_other": [], "media_note": "Sorry, we don't have images or video for this item.", "holdings": [{"name": "16mm film; Access Print (Section 1)", "identifier": "", "description": ""}], "part_of": null, "parts": [], "part_siblings": [], "group": null, "group_works": [], "group_siblings": [], "source": {"name": "Vernon", "slug": "vernon"}, "source_identifier": "47455", "eaas_environment_id": null, "production_places": [{"id": 9, "name": "New Zealand", "slug": "new-zealand"}], "production_dates": [{"date": "1945", "notes": "Produced", "to_year": "1945"}], "labels": [29739]}, {"id": 90005, "acmi_id": "312902", "title": "[National Film Board: 40th anniversary]", "title_annotation": "", "slug": "national-film-board-40th-anniversary", "creator_credit": "ONF | NFB", "credit_line": "", "headline_credit": "Canada, 1979", "video_links": [], "record_type": "work", "type": "Film", "is_on_display": false, "last_on_display_place": null, "last_on_display_date": null, "is_context_indigenous": false, "material_description": "", "unpublished": false, "external": false, "first_production_date": "1979-01-01T11:00:00+11:00", "commissioned": false, "public_domain": false, "external_references": [], "brief_description": "<p>Presents a short overview of the history and achievements of the National Film Board of Canada.</p>", "constellations_primary": [], "constellations_other": [], "recommendations": [], "title_for_label": "<p>[National Film Board: 40th anniversary]</p>", "creator_credit_for_label": "<p>ONF | NFB</p>", "headline_credit_for_label": "<p>Canada, 1979</p>", "description": "<p>Presents a short overview of the history and achievements of the National Film Board of Canada.</p>", "description_for_label": ["<p>Presents a short overview of the history and achievements of the National Film Board of Canada.</p>"], "credit_line_for_label": "", "details": [{"label": "Duration", "display_values": ["00:03:23:00"]}, {"label": "Language", "display_values": ["English"]}, {"label": "Subject categories", "display_values": ["Advertising, Film, Journalism, Mass Media & TV&nbsp;→ Motion picture industry", "Advertising, Film, Journalism, Mass Media & TV&nbsp;→ Motion picture industry - Canada", "Advertising, Film, Journalism, Mass Media & TV&nbsp;→ Motion pictures - Canada - History", "Advertising, Film, Journalism, Mass Media & TV&nbsp;→ Motion pictures - History", "Advertising, Film, Journalism, Mass Media & TV&nbsp;→ Motion pictures - Production and direction", "Advertising, Film, Journalism, Mass Media & TV&nbsp;→ Motion pictures - Production and direction - Canada", "Advertising, Film, Journalism, Mass Media & TV&nbsp;→ National Film Board of Canada", "Documentary", "History&nbsp;→ History", "Short films", "Short films&nbsp;→ Short films - Canada"]}, {"label": "Sound/audio", "display_values": ["Sound"]}, {"label": "Colour", "display_values": ["Colour"]}], "stats": {"tap_count": 0}, "links": [], "creators_primary": [{"id": 876310, "name": "ONF | NFB", "creator_id": 66965, "creator_wikidata_id": null, "role": "production company", "role_id": 941, "is_primary": true}], "creators_other": [], "media_note": "Sorry, we don't have images or video for this item.", "holdings": [{"name": "16mm film; Access Print (Section 1)", "identifier": "", "description": ""}], "part_of": null, "parts": [], "part_siblings": [], "group": null, "group_works": [], "group_siblings": [], "source": {"name": "Vernon", "slug": "vernon"}, "source_identifier": "47192", "eaas_environment_id": null, "production_places": [{"id": 36, "name": "Canada", "slug": "canada"}], "production_dates": [{"date": "1979", "notes": "Produced", "to_year": "1979"}], "labels": [29495]}]}