{"count": 41722, "next": "https://api.acmi.net.au/works/?page=4133", "previous": "https://api.acmi.net.au/works/?page=4131", "results": [{"id": 118620, "acmi_id": "R0001250", "title": "[Mad Dog Morgan : publicity kit]", "title_annotation": "", "slug": "mad-dog-morgan-publicity-kit", "creator_credit": "", "credit_line": "", "headline_credit": "", "video_links": [], "record_type": "work", "type": "Object", "is_on_display": false, "last_on_display_place": null, "last_on_display_date": null, "is_context_indigenous": false, "material_description": "", "unpublished": false, "external": false, "first_production_date": null, "commissioned": false, "public_domain": false, "external_references": [], "brief_description": "<p>Publicity kit for the production Mad Dog Morgan (1976), including 34 B&amp;W Stills (Large), 2 35mm Colour Transparencies, 1 Press Kit/ Review, 8 Lobby Cards, 2 B&amp;W Negatives, 1 School Study Guide, 1 Colour Transparency (Large)</p>", "constellations_primary": [], "constellations_other": [], "recommendations": [], "title_for_label": "<p>[Mad Dog Morgan : publicity kit]</p>", "creator_credit_for_label": "", "headline_credit_for_label": "", "description": "<p>Publicity kit for the production Mad Dog Morgan (1976), including 34 B&amp;W Stills (Large), 2 35mm Colour Transparencies, 1 Press Kit/ Review, 8 Lobby Cards, 2 B&amp;W Negatives, 1 School Study Guide, 1 Colour Transparency (Large)</p>", "description_for_label": ["<p>Publicity kit for the production Mad Dog Morgan (1976), including 34 B&amp;W Stills (Large), 2 35mm Colour Transparencies, 1 Press Kit/ Review, 8 Lobby Cards, 2 B&amp;W Negatives, 1 School Study Guide, 1 Colour Transparency (Large)</p>"], "credit_line_for_label": "", "details": [{"label": "Subject category", "display_values": ["Documentation"]}, {"label": "Object Types", "display_values": ["Publicity kit"]}], "stats": {"tap_count": 0}, "links": [], "creators_primary": [], "creators_other": [], "media_note": null, "holdings": [], "part_of": null, "parts": [], "part_siblings": [], "group": null, "group_works": [], "group_siblings": [], "source": {"name": "Vernon", "slug": "vernon"}, "source_identifier": "149222", "eaas_environment_id": null, "production_places": [], "production_dates": [], "labels": [58115]}, {"id": 118406, "acmi_id": "R0001003", "title": "[Lust and Revenge : publicity kit]", "title_annotation": "", "slug": "lust-and-revenge-publicity-kit", "creator_credit": "", "credit_line": "", "headline_credit": "", "video_links": [], "record_type": "work", "type": "Object", "is_on_display": false, "last_on_display_place": null, "last_on_display_date": null, "is_context_indigenous": false, "material_description": "", "unpublished": false, "external": false, "first_production_date": null, "commissioned": false, "public_domain": false, "external_references": [], "brief_description": "<p>Publicity kit for the production Lust and Revenge (1996), including 6 35mm Colour Transparencies, 2 Press Kit/ Reviews</p>", "constellations_primary": [], "constellations_other": [], "recommendations": [], "title_for_label": "<p>[Lust and Revenge : publicity kit]</p>", "creator_credit_for_label": "", "headline_credit_for_label": "", "description": "<p>Publicity kit for the production Lust and Revenge (1996), including 6 35mm Colour Transparencies, 2 Press Kit/ Reviews</p>", "description_for_label": ["<p>Publicity kit for the production Lust and Revenge (1996), including 6 35mm Colour Transparencies, 2 Press Kit/ Reviews</p>"], "credit_line_for_label": "", "details": [{"label": "Subject category", "display_values": ["Documentation"]}, {"label": "Object Types", "display_values": ["Publicity kit"]}], "stats": {"tap_count": 0}, "links": [], "creators_primary": [], "creators_other": [], "media_note": null, "holdings": [], "part_of": null, "parts": [], "part_siblings": [], "group": null, "group_works": [], "group_siblings": [], "source": {"name": "Vernon", "slug": "vernon"}, "source_identifier": "148975", "eaas_environment_id": null, "production_places": [], "production_dates": [], "labels": [57905]}, {"id": 118876, "acmi_id": "R0001630", "title": "[Lucky break = Paperback romance : publicity kit]", "title_annotation": "", "slug": "lucky-break-paperback-romance-publicity-kit", "creator_credit": "", "credit_line": "", "headline_credit": "", "video_links": [], "record_type": "work", "type": "Object", "is_on_display": false, "last_on_display_place": null, "last_on_display_date": null, "is_context_indigenous": false, "material_description": "", "unpublished": false, "external": false, "first_production_date": null, "commissioned": false, "public_domain": false, "external_references": [], "brief_description": "<p>Publicity kit for the production Lucky Break = Paperback Romance (1994), including 4 B&amp;W Stills (Large), 4 35mm Colour Transparencies, 2 Press Kit/ Reviews</p>", "constellations_primary": [], "constellations_other": [], "recommendations": [], "title_for_label": "<p>[Lucky break = Paperback romance : publicity kit]</p>", "creator_credit_for_label": "", "headline_credit_for_label": "", "description": "<p>Publicity kit for the production Lucky Break = Paperback Romance (1994), including 4 B&amp;W Stills (Large), 4 35mm Colour Transparencies, 2 Press Kit/ Reviews</p>", "description_for_label": ["<p>Publicity kit for the production Lucky Break = Paperback Romance (1994), including 4 B&amp;W Stills (Large), 4 35mm Colour Transparencies, 2 Press Kit/ Reviews</p>"], "credit_line_for_label": "", "details": [{"label": "Subject category", "display_values": ["Documentation"]}, {"label": "Object Types", "display_values": ["Publicity kit"]}], "stats": {"tap_count": 0}, "links": [], "creators_primary": [], "creators_other": [], "media_note": null, "holdings": [], "part_of": null, "parts": [], "part_siblings": [], "group": null, "group_works": [], "group_siblings": [], "source": {"name": "Vernon", "slug": "vernon"}, "source_identifier": "149603", "eaas_environment_id": null, "production_places": [], "production_dates": [], "labels": [58363]}, {"id": 118928, "acmi_id": "R0001849", "title": "[Lucinda Brayford : publicity kit]", "title_annotation": "", "slug": "lucinda-brayford-publicity-kit", "creator_credit": "", "credit_line": "", "headline_credit": "", "video_links": [], "record_type": "work", "type": "Object", "is_on_display": false, "last_on_display_place": null, "last_on_display_date": null, "is_context_indigenous": false, "material_description": "", "unpublished": false, "external": false, "first_production_date": null, "commissioned": false, "public_domain": false, "external_references": [], "brief_description": "<p>Publicity kit for the production Lucinda Brayford (TV 1980), including 3 B&amp;W Stills (Large)</p>", "constellations_primary": [], "constellations_other": [], "recommendations": [], "title_for_label": "<p>[Lucinda Brayford : publicity kit]</p>", "creator_credit_for_label": "", "headline_credit_for_label": "", "description": "<p>Publicity kit for the production Lucinda Brayford (TV 1980), including 3 B&amp;W Stills (Large)</p>", "description_for_label": ["<p>Publicity kit for the production Lucinda Brayford (TV 1980), including 3 B&amp;W Stills (Large)</p>"], "credit_line_for_label": "", "details": [{"label": "Subject category", "display_values": ["Documentation"]}, {"label": "Object Types", "display_values": ["Publicity kit"]}], "stats": {"tap_count": 0}, "links": [], "creators_primary": [], "creators_other": [], "media_note": null, "holdings": [], "part_of": null, "parts": [], "part_siblings": [], "group": null, "group_works": [], "group_siblings": [], "source": {"name": "Vernon", "slug": "vernon"}, "source_identifier": "149822", "eaas_environment_id": null, "production_places": [], "production_dates": [], "labels": [58415]}, {"id": 118776, "acmi_id": "R0001419", "title": "[Lover boy : publicity kit]", "title_annotation": "", "slug": "lover-boy-publicity-kit", "creator_credit": "", "credit_line": "", "headline_credit": "", "video_links": [], "record_type": "work", "type": "Object", "is_on_display": false, "last_on_display_place": null, "last_on_display_date": null, "is_context_indigenous": false, "material_description": "", "unpublished": false, "external": false, "first_production_date": null, "commissioned": false, "public_domain": false, "external_references": [], "brief_description": "<p>Publicity kit for the production Lover Boy (1989), including 3 B&amp;W Stills (Small), 3 35mm Colour Transparencies, 1 Press Kit/ Review, 1 Promo Flyer, 2 Colour Negative Strips</p>", "constellations_primary": [], "constellations_other": [], "recommendations": [], "title_for_label": "<p>[Lover boy : publicity kit]</p>", "creator_credit_for_label": "", "headline_credit_for_label": "", "description": "<p>Publicity kit for the production Lover Boy (1989), including 3 B&amp;W Stills (Small), 3 35mm Colour Transparencies, 1 Press Kit/ Review, 1 Promo Flyer, 2 Colour Negative Strips</p>", "description_for_label": ["<p>Publicity kit for the production Lover Boy (1989), including 3 B&amp;W Stills (Small), 3 35mm Colour Transparencies, 1 Press Kit/ Review, 1 Promo Flyer, 2 Colour Negative Strips</p>"], "credit_line_for_label": "", "details": [{"label": "Subject category", "display_values": ["Documentation"]}, {"label": "Object Types", "display_values": ["Publicity kit"]}], "stats": {"tap_count": 0}, "links": [], "creators_primary": [], "creators_other": [], "media_note": null, "holdings": [], "part_of": null, "parts": [], "part_siblings": [], "group": null, "group_works": [], "group_siblings": [], "source": {"name": "Vernon", "slug": "vernon"}, "source_identifier": "149391", "eaas_environment_id": null, "production_places": [], "production_dates": [], "labels": [58268]}, {"id": 118474, "acmi_id": "R0001087", "title": "[Love serenade : publicity kit]", "title_annotation": "", "slug": "love-serenade-publicity-kit", "creator_credit": "", "credit_line": "", "headline_credit": "", "video_links": [], "record_type": "work", "type": "Object", "is_on_display": false, "last_on_display_place": null, "last_on_display_date": null, "is_context_indigenous": false, "material_description": "", "unpublished": false, "external": false, "first_production_date": null, "commissioned": false, "public_domain": false, "external_references": [], "brief_description": "<p>Publicity kit for the production Love Serenade (1996), including 10 35mm Colour Transparencies</p>", "constellations_primary": [], "constellations_other": [], "recommendations": [], "title_for_label": "<p>[Love serenade : publicity kit]</p>", "creator_credit_for_label": "", "headline_credit_for_label": "", "description": "<p>Publicity kit for the production Love Serenade (1996), including 10 35mm Colour Transparencies</p>", "description_for_label": ["<p>Publicity kit for the production Love Serenade (1996), including 10 35mm Colour Transparencies</p>"], "credit_line_for_label": "", "details": [{"label": "Subject category", "display_values": ["Documentation"]}, {"label": "Object Types", "display_values": ["Publicity kit"]}], "stats": {"tap_count": 0}, "links": [], "creators_primary": [], "creators_other": [], "media_note": null, "holdings": [], "part_of": null, "parts": [], "part_siblings": [], "group": null, "group_works": [], "group_siblings": [], "source": {"name": "Vernon", "slug": "vernon"}, "source_identifier": "149059", "eaas_environment_id": null, "production_places": [], "production_dates": [], "labels": [57971]}, {"id": 118920, "acmi_id": "R0001837", "title": "[Love machine : publicity kit]", "title_annotation": "", "slug": "love-machine-publicity-kit", "creator_credit": "", "credit_line": "", "headline_credit": "", "video_links": [], "record_type": "work", "type": "Object", "is_on_display": false, "last_on_display_place": null, "last_on_display_date": null, "is_context_indigenous": false, "material_description": "", "unpublished": false, "external": false, "first_production_date": null, "commissioned": false, "public_domain": false, "external_references": [], "brief_description": "<p>Publicity kit for the production Love Machine (1972), including 2 B&amp;W Stills (Large)</p>", "constellations_primary": [], "constellations_other": [], "recommendations": [], "title_for_label": "<p>[Love machine : publicity kit]</p>", "creator_credit_for_label": "", "headline_credit_for_label": "", "description": "<p>Publicity kit for the production Love Machine (1972), including 2 B&amp;W Stills (Large)</p>", "description_for_label": ["<p>Publicity kit for the production Love Machine (1972), including 2 B&amp;W Stills (Large)</p>"], "credit_line_for_label": "", "details": [{"label": "Subject category", "display_values": ["Documentation"]}, {"label": "Object Types", "display_values": ["Publicity kit"]}], "stats": {"tap_count": 0}, "links": [], "creators_primary": [], "creators_other": [], "media_note": null, "holdings": [], "part_of": null, "parts": [], "part_siblings": [], "group": null, "group_works": [], "group_siblings": [], "source": {"name": "Vernon", "slug": "vernon"}, "source_identifier": "149810", "eaas_environment_id": null, "production_places": [], "production_dates": [], "labels": [58407]}, {"id": 118775, "acmi_id": "R0001418", "title": "[Love and other catastrophes : publicity kit]", "title_annotation": "", "slug": "love-and-other-catastrophes-publicity-kit", "creator_credit": "", "credit_line": "", "headline_credit": "", "video_links": [], "record_type": "work", "type": "Object", "is_on_display": false, "last_on_display_place": null, "last_on_display_date": null, "is_context_indigenous": false, "material_description": "", "unpublished": false, "external": false, "first_production_date": null, "commissioned": false, "public_domain": false, "external_references": [], "brief_description": "<p>Publicity kit for the production Love and Other Catastrophes (1996), including 6 B&amp;W Stills (Small), 4 35mm Colour Transparencies, 2 Press Kit/ Reviews</p>", "constellations_primary": [], "constellations_other": [], "recommendations": [], "title_for_label": "<p>[Love and other catastrophes : publicity kit]</p>", "creator_credit_for_label": "", "headline_credit_for_label": "", "description": "<p>Publicity kit for the production Love and Other Catastrophes (1996), including 6 B&amp;W Stills (Small), 4 35mm Colour Transparencies, 2 Press Kit/ Reviews</p>", "description_for_label": ["<p>Publicity kit for the production Love and Other Catastrophes (1996), including 6 B&amp;W Stills (Small), 4 35mm Colour Transparencies, 2 Press Kit/ Reviews</p>"], "credit_line_for_label": "", "details": [{"label": "Subject category", "display_values": ["Documentation"]}, {"label": "Object Types", "display_values": ["Publicity kit"]}], "stats": {"tap_count": 4}, "links": [], "creators_primary": [], "creators_other": [], "media_note": null, "holdings": [], "part_of": null, "parts": [], "part_siblings": [], "group": null, "group_works": [], "group_siblings": [], "source": {"name": "Vernon", "slug": "vernon"}, "source_identifier": "149390", "eaas_environment_id": null, "production_places": [], "production_dates": [], "labels": [58267]}, {"id": 118774, "acmi_id": "R0001417", "title": "[Lost in the bush : publicity kit]", "title_annotation": "", "slug": "lost-in-the-bush-publicity-kit", "creator_credit": "", "credit_line": "", "headline_credit": "", "video_links": [], "record_type": "work", "type": "Object", "is_on_display": false, "last_on_display_place": null, "last_on_display_date": null, "is_context_indigenous": false, "material_description": "", "unpublished": false, "external": false, "first_production_date": null, "commissioned": false, "public_domain": false, "external_references": [], "brief_description": "<p>Publicity kit for the production Lost in the Bush (1973), including 2 B&amp;W Stills (Large)</p>", "constellations_primary": [], "constellations_other": [], "recommendations": [], "title_for_label": "<p>[Lost in the bush : publicity kit]</p>", "creator_credit_for_label": "", "headline_credit_for_label": "", "description": "<p>Publicity kit for the production Lost in the Bush (1973), including 2 B&amp;W Stills (Large)</p>", "description_for_label": ["<p>Publicity kit for the production Lost in the Bush (1973), including 2 B&amp;W Stills (Large)</p>"], "credit_line_for_label": "", "details": [{"label": "Subject category", "display_values": ["Documentation"]}, {"label": "Object Types", "display_values": ["Publicity kit"]}], "stats": {"tap_count": 0}, "links": [], "creators_primary": [], "creators_other": [], "media_note": null, "holdings": [], "part_of": null, "parts": [], "part_siblings": [], "group": null, "group_works": [], "group_siblings": [], "source": {"name": "Vernon", "slug": "vernon"}, "source_identifier": "149389", "eaas_environment_id": null, "production_places": [], "production_dates": [], "labels": [58266]}, {"id": 92401, "acmi_id": "315662", "title": "[Long fliv the king]", "title_annotation": "", "slug": "long-fliv-the-king", "creator_credit": "Leo McCarey, Hal Roach and Hal Roach Studios", "credit_line": "", "headline_credit": "United States, 1926", "video_links": [], "record_type": "work", "type": "Film", "is_on_display": false, "last_on_display_place": null, "last_on_display_date": null, "is_context_indigenous": false, "material_description": "", "unpublished": false, "external": false, "first_production_date": "1926-01-01T10:00:00+10:00", "commissioned": false, "public_domain": false, "external_references": [{"id": 52734, "source": {"name": "Wikidata", "slug": "wikidata"}, "source_identifier": "Q3561504"}], "brief_description": "<p>Featuring Oliver Hardy in a bit role (before he teamed up with Stan Laurel) this silent film tells the story of a princess who upon learning the news that her father has died is given 24 hours to find a husband in order for her to become queen. Cast includes Charley Chase and Martha Sleeper. NB: Title. credits and last few feet of film missing.</p>", "constellations_primary": [], "constellations_other": [], "recommendations": [], "title_for_label": "<p>[Long fliv the king]</p>", "creator_credit_for_label": "<p>Leo McCarey, Hal Roach and Hal Roach Studios</p>", "headline_credit_for_label": "<p>United States, 1926</p>", "description": "<p>Featuring Oliver Hardy in a bit role (before he teamed up with Stan Laurel) this silent film tells the story of a princess who upon learning the news that her father has died is given 24 hours to find a husband in order for her to become queen. Cast includes Charley Chase and Martha Sleeper. NB: Title. credits and last few feet of film missing.</p>", "description_for_label": ["<p>Featuring Oliver Hardy in a bit role (before he teamed up with Stan Laurel) this silent film tells the story of a princess who upon learning the news that her father has died is given 24 hours to find a husband in order for her to become queen. Cast includes Charley Chase and Martha Sleeper. NB: Title. credits and last few feet of film missing.</p>"], "credit_line_for_label": "", "details": [{"label": "Duration", "display_values": ["00:18:30:00"]}, {"label": "Language", "display_values": ["English"]}, {"label": "Subject categories", "display_values": ["Comedy", "Comedy&nbsp;→ Slapstick comedies", "Short films", "Short films&nbsp;→ Short films - United States", "Silent films"]}, {"label": "Sound/audio", "display_values": ["Silent"]}, {"label": "Colour", "display_values": ["Black and White"]}], "stats": {"tap_count": 0}, "links": [], "creators_primary": [{"id": 880414, "name": "Leo McCarey", "creator_id": 66134, "creator_wikidata_id": "Q332530", "role": "director", "role_id": 938, "is_primary": true}, {"id": 1815085, "name": "Hal Roach", "creator_id": 23439, "creator_wikidata_id": "Q72792", "role": "producer", "role_id": 1089, "is_primary": true}, {"id": 880412, "name": "Hal Roach Studios", "creator_id": 30467, "creator_wikidata_id": null, "role": "production company", "role_id": 941, "is_primary": true}], "creators_other": [], "media_note": "Sorry, we don't have images or video for this item.", "holdings": [{"name": "16mm film; Access Print (Section 1)", "identifier": "", "description": ""}], "part_of": null, "parts": [], "part_siblings": [], "group": null, "group_works": [], "group_siblings": [], "source": {"name": "Vernon", "slug": "vernon"}, "source_identifier": "49852", "eaas_environment_id": null, "production_places": [{"id": 2, "name": "United States", "slug": "united-states"}], "production_dates": [{"date": "1926", "notes": "Produced", "to_year": "1926"}], "labels": [31891]}]}