{"count": 41734, "next": "https://api.acmi.net.au/works/?page=4139", "previous": "https://api.acmi.net.au/works/?page=4137", "results": [{"id": 118755, "acmi_id": "R0001392", "title": "[If pigs could fly : publicity kit]", "title_annotation": "", "slug": "if-pigs-could-fly-publicity-kit", "creator_credit": "", "credit_line": "", "headline_credit": "", "video_links": [], "record_type": "work", "type": "Object", "is_on_display": false, "last_on_display_place": null, "last_on_display_date": null, "is_context_indigenous": false, "material_description": "", "unpublished": false, "external": false, "first_production_date": null, "commissioned": false, "public_domain": false, "external_references": [], "brief_description": "<p>Publicity kit for the production If Pigs Could Fly (1987), including 1 Colour Still (Small)</p>", "constellations_primary": [], "constellations_other": [], "recommendations": [], "creator_credit_for_label": "", "headline_credit_for_label": "", "title_for_label": "<p>[If pigs could fly : publicity kit]</p>", "description": "<p>Publicity kit for the production If Pigs Could Fly (1987), including 1 Colour Still (Small)</p>", "description_for_label": ["<p>Publicity kit for the production If Pigs Could Fly (1987), including 1 Colour Still (Small)</p>"], "credit_line_for_label": "", "details": [{"label": "Subject category", "display_values": ["Documentation"]}, {"label": "Object Types", "display_values": ["Publicity kit"]}], "stats": {"tap_count": 1}, "links": [], "creators_primary": [], "creators_other": [], "media_note": null, "holdings": [], "part_of": null, "parts": [], "part_siblings": [], "group": null, "group_works": [], "group_siblings": [], "source": {"name": "Vernon", "slug": "vernon"}, "source_identifier": "149364", "eaas_environment_id": null, "production_places": [], "production_dates": [], "labels": [58247]}, {"id": 118754, "acmi_id": "R0001391", "title": "[Idiot box : publicity kit]", "title_annotation": "", "slug": "idiot-box-publicity-kit", "creator_credit": "", "credit_line": "", "headline_credit": "", "video_links": [], "record_type": "work", "type": "Object", "is_on_display": false, "last_on_display_place": null, "last_on_display_date": null, "is_context_indigenous": false, "material_description": "", "unpublished": false, "external": false, "first_production_date": null, "commissioned": false, "public_domain": false, "external_references": [], "brief_description": "<p>Publicity kit for the production Idiot Box (1996), including 10 35mm Colour Transparencies, 1 Press Kit/ Review</p>", "constellations_primary": [], "constellations_other": [], "recommendations": [], "creator_credit_for_label": "", "headline_credit_for_label": "", "title_for_label": "<p>[Idiot box : publicity kit]</p>", "description": "<p>Publicity kit for the production Idiot Box (1996), including 10 35mm Colour Transparencies, 1 Press Kit/ Review</p>", "description_for_label": ["<p>Publicity kit for the production Idiot Box (1996), including 10 35mm Colour Transparencies, 1 Press Kit/ Review</p>"], "credit_line_for_label": "", "details": [{"label": "Subject category", "display_values": ["Documentation"]}, {"label": "Object Types", "display_values": ["Publicity kit"]}], "stats": {"tap_count": 0}, "links": [], "creators_primary": [], "creators_other": [], "media_note": null, "holdings": [], "part_of": null, "parts": [], "part_siblings": [], "group": null, "group_works": [], "group_siblings": [], "source": {"name": "Vernon", "slug": "vernon"}, "source_identifier": "149363", "eaas_environment_id": null, "production_places": [], "production_dates": [], "labels": [58246]}, {"id": 118914, "acmi_id": "R0001831", "title": "[Ibrahim : publicity kit]", "title_annotation": "", "slug": "ibrahim-publicity-kit", "creator_credit": "", "credit_line": "", "headline_credit": "", "video_links": [], "record_type": "work", "type": "Object", "is_on_display": false, "last_on_display_place": null, "last_on_display_date": null, "is_context_indigenous": false, "material_description": "", "unpublished": false, "external": false, "first_production_date": null, "commissioned": false, "public_domain": false, "external_references": [], "brief_description": "<p>Publicity kit for the production Ibrahim (1984), including 1 B&amp;W Still (Small), 1 Press Kit/ Review</p>", "constellations_primary": [], "constellations_other": [], "recommendations": [], "creator_credit_for_label": "", "headline_credit_for_label": "", "title_for_label": "<p>[Ibrahim : publicity kit]</p>", "description": "<p>Publicity kit for the production Ibrahim (1984), including 1 B&amp;W Still (Small), 1 Press Kit/ Review</p>", "description_for_label": ["<p>Publicity kit for the production Ibrahim (1984), including 1 B&amp;W Still (Small), 1 Press Kit/ Review</p>"], "credit_line_for_label": "", "details": [{"label": "Subject category", "display_values": ["Documentation"]}, {"label": "Object Types", "display_values": ["Publicity kit"]}], "stats": {"tap_count": 0}, "links": [], "creators_primary": [], "creators_other": [], "media_note": null, "holdings": [], "part_of": null, "parts": [], "part_siblings": [], "group": null, "group_works": [], "group_siblings": [], "source": {"name": "Vernon", "slug": "vernon"}, "source_identifier": "149804", "eaas_environment_id": null, "production_places": [], "production_dates": [], "labels": [58401]}, {"id": 118753, "acmi_id": "R0001390", "title": "[I own the racecourse : publicity kit]", "title_annotation": "", "slug": "i-own-the-racecourse-publicity-kit", "creator_credit": "", "credit_line": "", "headline_credit": "", "video_links": [], "record_type": "work", "type": "Object", "is_on_display": false, "last_on_display_place": null, "last_on_display_date": null, "is_context_indigenous": false, "material_description": "", "unpublished": false, "external": false, "first_production_date": null, "commissioned": false, "public_domain": false, "external_references": [], "brief_description": "<p>Publicity kit for the production I Own the Racecourse (TV 1986), including 1 B&amp;W Still (Large), 2 Press Kit/ Reviews</p>", "constellations_primary": [], "constellations_other": [], "recommendations": [], "creator_credit_for_label": "", "headline_credit_for_label": "", "title_for_label": "<p>[I own the racecourse : publicity kit]</p>", "description": "<p>Publicity kit for the production I Own the Racecourse (TV 1986), including 1 B&amp;W Still (Large), 2 Press Kit/ Reviews</p>", "description_for_label": ["<p>Publicity kit for the production I Own the Racecourse (TV 1986), including 1 B&amp;W Still (Large), 2 Press Kit/ Reviews</p>"], "credit_line_for_label": "", "details": [{"label": "Subject category", "display_values": ["Documentation"]}, {"label": "Object Types", "display_values": ["Publicity kit"]}], "stats": {"tap_count": 0}, "links": [], "creators_primary": [], "creators_other": [], "media_note": null, "holdings": [], "part_of": null, "parts": [], "part_siblings": [], "group": null, "group_works": [], "group_siblings": [], "source": {"name": "Vernon", "slug": "vernon"}, "source_identifier": "149362", "eaas_environment_id": null, "production_places": [], "production_dates": [], "labels": [58245]}, {"id": 118752, "acmi_id": "R0001388", "title": "[I can jump puddles : publicity kit]", "title_annotation": "", "slug": "i-can-jump-puddles-publicity-kit", "creator_credit": "", "credit_line": "", "headline_credit": "", "video_links": [], "record_type": "work", "type": "Object", "is_on_display": false, "last_on_display_place": null, "last_on_display_date": null, "is_context_indigenous": false, "material_description": "", "unpublished": false, "external": false, "first_production_date": null, "commissioned": false, "public_domain": false, "external_references": [], "brief_description": "<p>Publicity kit for the production I Can Jump Puddles (1981), including 12 B&amp;W Stills (Large), 1 Press Kit/ Review</p>", "constellations_primary": [], "constellations_other": [], "recommendations": [], "creator_credit_for_label": "", "headline_credit_for_label": "", "title_for_label": "<p>[I can jump puddles : publicity kit]</p>", "description": "<p>Publicity kit for the production I Can Jump Puddles (1981), including 12 B&amp;W Stills (Large), 1 Press Kit/ Review</p>", "description_for_label": ["<p>Publicity kit for the production I Can Jump Puddles (1981), including 12 B&amp;W Stills (Large), 1 Press Kit/ Review</p>"], "credit_line_for_label": "", "details": [{"label": "Subject category", "display_values": ["Documentation"]}, {"label": "Object Types", "display_values": ["Publicity kit"]}], "stats": {"tap_count": 0}, "links": [], "creators_primary": [], "creators_other": [], "media_note": null, "holdings": [], "part_of": null, "parts": [], "part_siblings": [], "group": null, "group_works": [], "group_siblings": [], "source": {"name": "Vernon", "slug": "vernon"}, "source_identifier": "149360", "eaas_environment_id": null, "production_places": [], "production_dates": [], "labels": [58244]}, {"id": 118913, "acmi_id": "R0001830", "title": "[I am no god : Visit to a philippino healer : publicity kit]", "title_annotation": "", "slug": "i-am-no-god-visit-to-a-philippino-healer-publicity-kit", "creator_credit": "", "credit_line": "", "headline_credit": "", "video_links": [], "record_type": "work", "type": "Object", "is_on_display": false, "last_on_display_place": null, "last_on_display_date": null, "is_context_indigenous": false, "material_description": "", "unpublished": false, "external": false, "first_production_date": null, "commissioned": false, "public_domain": false, "external_references": [], "brief_description": "<p>Publicity kit for the production I am no God : Visit to a Philippino Healer (TV 1984), including 1 B&amp;W Still (Small), 1 Colour Still (Small), 1 Press Kit/ Review</p>", "constellations_primary": [], "constellations_other": [], "recommendations": [], "creator_credit_for_label": "", "headline_credit_for_label": "", "title_for_label": "<p>[I am no god : Visit to a philippino healer : publicity kit]</p>", "description": "<p>Publicity kit for the production I am no God : Visit to a Philippino Healer (TV 1984), including 1 B&amp;W Still (Small), 1 Colour Still (Small), 1 Press Kit/ Review</p>", "description_for_label": ["<p>Publicity kit for the production I am no God : Visit to a Philippino Healer (TV 1984), including 1 B&amp;W Still (Small), 1 Colour Still (Small), 1 Press Kit/ Review</p>"], "credit_line_for_label": "", "details": [{"label": "Subject category", "display_values": ["Documentation"]}, {"label": "Object Types", "display_values": ["Publicity kit"]}], "stats": {"tap_count": 0}, "links": [], "creators_primary": [], "creators_other": [], "media_note": null, "holdings": [], "part_of": null, "parts": [], "part_siblings": [], "group": null, "group_works": [], "group_siblings": [], "source": {"name": "Vernon", "slug": "vernon"}, "source_identifier": "149803", "eaas_environment_id": null, "production_places": [], "production_dates": [], "labels": [58400]}, {"id": 118926, "acmi_id": "R0001847", "title": "[I am a mortician : publicity kit]", "title_annotation": "", "slug": "i-am-a-mortician-publicity-kit", "creator_credit": "", "credit_line": "", "headline_credit": "", "video_links": [], "record_type": "work", "type": "Object", "is_on_display": false, "last_on_display_place": null, "last_on_display_date": null, "is_context_indigenous": false, "material_description": "", "unpublished": false, "external": false, "first_production_date": null, "commissioned": false, "public_domain": false, "external_references": [], "brief_description": "<p>Publicity kit for the production I am a Mortician, including 1 B&amp;W Still (Small)</p>", "constellations_primary": [], "constellations_other": [], "recommendations": [], "creator_credit_for_label": "", "headline_credit_for_label": "", "title_for_label": "<p>[I am a mortician : publicity kit]</p>", "description": "<p>Publicity kit for the production I am a Mortician, including 1 B&amp;W Still (Small)</p>", "description_for_label": ["<p>Publicity kit for the production I am a Mortician, including 1 B&amp;W Still (Small)</p>"], "credit_line_for_label": "", "details": [{"label": "Subject category", "display_values": ["Documentation"]}, {"label": "Object Types", "display_values": ["Publicity kit"]}], "stats": {"tap_count": 0}, "links": [], "creators_primary": [], "creators_other": [], "media_note": null, "holdings": [], "part_of": null, "parts": [], "part_siblings": [], "group": null, "group_works": [], "group_siblings": [], "source": {"name": "Vernon", "slug": "vernon"}, "source_identifier": "149820", "eaas_environment_id": null, "production_places": [], "production_dates": [], "labels": [58413]}, {"id": 118915, "acmi_id": "R0001832", "title": "[I'll be home for christmas : publicity kit]", "title_annotation": "", "slug": "ill-be-home-for-christmas-publicity-kit", "creator_credit": "", "credit_line": "", "headline_credit": "", "video_links": [], "record_type": "work", "type": "Object", "is_on_display": false, "last_on_display_place": null, "last_on_display_date": null, "is_context_indigenous": false, "material_description": "", "unpublished": false, "external": false, "first_production_date": null, "commissioned": false, "public_domain": false, "external_references": [], "brief_description": "<p>Publicity kit for the production I&#8217;ll be Home for Christmas (1984), including 1 B&amp;W Still (Small), 1 Press Kit/ Review</p>", "constellations_primary": [], "constellations_other": [], "recommendations": [], "creator_credit_for_label": "", "headline_credit_for_label": "", "title_for_label": "<p>[I&#8217;ll be home for christmas : publicity kit]</p>", "description": "<p>Publicity kit for the production I&#8217;ll be Home for Christmas (1984), including 1 B&amp;W Still (Small), 1 Press Kit/ Review</p>", "description_for_label": ["<p>Publicity kit for the production I&#8217;ll be Home for Christmas (1984), including 1 B&amp;W Still (Small), 1 Press Kit/ Review</p>"], "credit_line_for_label": "", "details": [{"label": "Subject category", "display_values": ["Documentation"]}, {"label": "Object Types", "display_values": ["Publicity kit"]}], "stats": {"tap_count": 0}, "links": [], "creators_primary": [], "creators_other": [], "media_note": null, "holdings": [], "part_of": null, "parts": [], "part_siblings": [], "group": null, "group_works": [], "group_siblings": [], "source": {"name": "Vernon", "slug": "vernon"}, "source_identifier": "149805", "eaas_environment_id": null, "production_places": [], "production_dates": [], "labels": [58402]}, {"id": 118751, "acmi_id": "R0001387", "title": "[Hunting : publicity kit]", "title_annotation": "", "slug": "hunting-publicity-kit", "creator_credit": "", "credit_line": "", "headline_credit": "", "video_links": [], "record_type": "work", "type": "Object", "is_on_display": false, "last_on_display_place": null, "last_on_display_date": null, "is_context_indigenous": false, "material_description": "", "unpublished": false, "external": false, "first_production_date": null, "commissioned": false, "public_domain": false, "external_references": [], "brief_description": "<p>Publicity kit for the production Hunting (1991), including 12 B&amp;W Stills (Large), 1 Promo Flyer</p>", "constellations_primary": [], "constellations_other": [], "recommendations": [], "creator_credit_for_label": "", "headline_credit_for_label": "", "title_for_label": "<p>[Hunting : publicity kit]</p>", "description": "<p>Publicity kit for the production Hunting (1991), including 12 B&amp;W Stills (Large), 1 Promo Flyer</p>", "description_for_label": ["<p>Publicity kit for the production Hunting (1991), including 12 B&amp;W Stills (Large), 1 Promo Flyer</p>"], "credit_line_for_label": "", "details": [{"label": "Subject category", "display_values": ["Documentation"]}, {"label": "Object Types", "display_values": ["Publicity kit"]}], "stats": {"tap_count": 8}, "links": [], "creators_primary": [], "creators_other": [], "media_note": null, "holdings": [], "part_of": null, "parts": [], "part_siblings": [], "group": null, "group_works": [], "group_siblings": [], "source": {"name": "Vernon", "slug": "vernon"}, "source_identifier": "149359", "eaas_environment_id": null, "production_places": [], "production_dates": [], "labels": [58243]}, {"id": 118841, "acmi_id": "R0001579", "title": "[Hunter : publicity kit]", "title_annotation": "", "slug": "hunter-publicity-kit", "creator_credit": "", "credit_line": "", "headline_credit": "", "video_links": [], "record_type": "work", "type": "Object", "is_on_display": false, "last_on_display_place": null, "last_on_display_date": null, "is_context_indigenous": false, "material_description": "", "unpublished": false, "external": false, "first_production_date": null, "commissioned": false, "public_domain": false, "external_references": [], "brief_description": "<p>Publicity kit for the production Hunter (TV 1967-1969), including 1 B&amp;W Still (Large)</p>", "constellations_primary": [], "constellations_other": [], "recommendations": [], "creator_credit_for_label": "", "headline_credit_for_label": "", "title_for_label": "<p>[Hunter : publicity kit]</p>", "description": "<p>Publicity kit for the production Hunter (TV 1967-1969), including 1 B&amp;W Still (Large)</p>", "description_for_label": ["<p>Publicity kit for the production Hunter (TV 1967-1969), including 1 B&amp;W Still (Large)</p>"], "credit_line_for_label": "", "details": [{"label": "Subject category", "display_values": ["Documentation"]}, {"label": "Object Types", "display_values": ["Publicity kit"]}], "stats": {"tap_count": 2}, "links": [], "creators_primary": [], "creators_other": [], "media_note": null, "holdings": [], "part_of": null, "parts": [], "part_siblings": [], "group": null, "group_works": [], "group_siblings": [], "source": {"name": "Vernon", "slug": "vernon"}, "source_identifier": "149552", "eaas_environment_id": null, "production_places": [], "production_dates": [], "labels": [58332]}]}