{"count": 41723, "next": "https://api.acmi.net.au/works/?page=1653", "previous": "https://api.acmi.net.au/works/?page=1651", "results": [{"id": 108683, "acmi_id": "B1004067", "title": "Pet shop", "title_annotation": "", "slug": "pet-shop", "creator_credit": "Martine Corompt", "credit_line": "", "headline_credit": "Australia, 1998", "video_links": [], "record_type": "work", "type": "Film", "is_on_display": false, "last_on_display_place": null, "last_on_display_date": null, "is_context_indigenous": false, "material_description": "", "unpublished": false, "external": false, "first_production_date": "1998-01-01T11:00:00+11:00", "commissioned": false, "public_domain": false, "external_references": [], "brief_description": "<p>A four screen looping animation work, Pet Shop pulls at the heart strings with its adorably cute 2D animated animals. Corompt&#8217;s work uses reductive and stylised modes of representation, exploring how we engage with these synthetic characters. The unquie relationship that exists between spectator and subject, inviting the spectator to partake in an unspoken agreement, where they may teeter on the boundary of the objectivity and empathy, simultaneously acknowledging its artifice, while at the same time participating in its pathos.</p>", "constellations_primary": [], "constellations_other": [], "recommendations": [], "creator_credit_for_label": "<p>Martine Corompt</p>", "headline_credit_for_label": "<p>Australia, 1998</p>", "title_for_label": "<p>Pet shop</p>", "description": "<p>A four screen looping animation work, Pet Shop pulls at the heart strings with its adorably cute 2D animated animals. Corompt&#8217;s work uses reductive and stylised modes of representation, exploring how we engage with these synthetic characters. The unquie relationship that exists between spectator and subject, inviting the spectator to partake in an unspoken agreement, where they may teeter on the boundary of the objectivity and empathy, simultaneously acknowledging its artifice, while at the same time participating in its pathos.</p>", "description_for_label": ["<p>A four screen looping animation work, Pet Shop pulls at the heart strings with its adorably cute 2D animated animals. Corompt&#8217;s work uses reductive and stylised modes of representation, exploring how we engage with these synthetic characters. The unquie relationship that exists between spectator and subject, inviting the spectator to partake in an unspoken agreement, where they may teeter on the boundary of the objectivity and empathy, simultaneously acknowledging its artifice, while at the same time participating in its pathos.</p>"], "credit_line_for_label": "", "details": [{"label": "Language", "display_values": ["No spoken word"]}], "stats": {"tap_count": 0}, "links": [], "creators_primary": [{"id": 2675351, "name": "Martine Corompt", "creator_id": 7116, "creator_wikidata_id": null, "role": "creator", "role_id": 968, "is_primary": true}], "creators_other": [], "media_note": "Sorry, we don't have images or video for this item.", "holdings": [{"name": "Mini DV; Master", "identifier": "", "description": ""}, {"name": "Digital Betacam; Sub-master", "identifier": "", "description": ""}, {"name": "VHS [PAL]; Reference - timecoded", "identifier": "", "description": ""}], "part_of": null, "parts": [], "part_siblings": [], "group": null, "group_works": [], "group_siblings": [], "source": {"name": "Vernon", "slug": "vernon"}, "source_identifier": "1809", "eaas_environment_id": null, "production_places": [{"id": 3, "name": "Australia", "slug": "australia"}], "production_dates": [{"date": "1998", "notes": "Original Amiga animation to VHS.\nDVD copy to be created for ACMI", "to_year": "1998"}], "labels": [48176]}, {"id": 108007, "acmi_id": "B1000865", "title": "Ron Davis interview", "title_annotation": "", "slug": "ron-davis-interview", "creator_credit": "", "credit_line": "", "headline_credit": "", "video_links": [], "record_type": "work", "type": "Film", "is_on_display": false, "last_on_display_place": null, "last_on_display_date": null, "is_context_indigenous": false, "material_description": "", "unpublished": false, "external": false, "first_production_date": null, "commissioned": false, "public_domain": false, "external_references": [], "brief_description": "", "constellations_primary": [], "constellations_other": [], "recommendations": [], "creator_credit_for_label": "", "headline_credit_for_label": "", "title_for_label": "<p>Ron Davis interview</p>", "description": "", "description_for_label": [], "credit_line_for_label": "", "details": [], "stats": {"tap_count": 0}, "links": [], "creators_primary": [], "creators_other": [{"id": 2675350, "name": "Daryl Dellora", "creator_id": 6331, "creator_wikidata_id": "Q117862792", "role": "interviewer", "role_id": 457, "is_primary": false}], "media_note": "Sorry, we don't have images or video for this item.", "holdings": [{"name": "VHS [PAL]; Copy", "identifier": "", "description": ""}, {"name": "Digital Betacam [PAL]; Sub-master", "identifier": "", "description": ""}, {"name": "Digital Betacam [PAL]; Master", "identifier": "", "description": ""}], "part_of": null, "parts": [], "part_siblings": [], "group": null, "group_works": [], "group_siblings": [], "source": {"name": "Vernon", "slug": "vernon"}, "source_identifier": "221", "eaas_environment_id": null, "production_places": [], "production_dates": [], "labels": [47500]}, {"id": 108004, "acmi_id": "B1000859", "title": "Keith Cairns interview", "title_annotation": "", "slug": "keith-cairns-interview", "creator_credit": "", "credit_line": "", "headline_credit": "", "video_links": [], "record_type": "work", "type": "Film", "is_on_display": false, "last_on_display_place": null, "last_on_display_date": null, "is_context_indigenous": false, "material_description": "", "unpublished": false, "external": false, "first_production_date": null, "commissioned": false, "public_domain": false, "external_references": [], "brief_description": "", "constellations_primary": [], "constellations_other": [], "recommendations": [], "creator_credit_for_label": "", "headline_credit_for_label": "", "title_for_label": "<p>Keith Cairns interview</p>", "description": "", "description_for_label": [], "credit_line_for_label": "", "details": [], "stats": {"tap_count": 0}, "links": [], "creators_primary": [], "creators_other": [{"id": 2675349, "name": "Daryl Dellora", "creator_id": 6331, "creator_wikidata_id": "Q117862792", "role": "interviewer", "role_id": 457, "is_primary": false}], "media_note": "Sorry, we don't have images or video for this item.", "holdings": [{"name": "VHS [PAL]; Reference - timecoded", "identifier": "", "description": ""}, {"name": "Digital Betacam [PAL]; Sub-master", "identifier": "", "description": ""}, {"name": "Digital Betacam [PAL]; Master", "identifier": "", "description": ""}], "part_of": null, "parts": [], "part_siblings": [], "group": null, "group_works": [], "group_siblings": [], "source": {"name": "Vernon", "slug": "vernon"}, "source_identifier": "218", "eaas_environment_id": null, "production_places": [], "production_dates": [], "labels": [47497]}, {"id": 108003, "acmi_id": "B1000857", "title": "Val Jellay interview", "title_annotation": "", "slug": "val-jellay-interview", "creator_credit": "", "credit_line": "", "headline_credit": "", "video_links": [], "record_type": "work", "type": "Film", "is_on_display": false, "last_on_display_place": null, "last_on_display_date": null, "is_context_indigenous": false, "material_description": "", "unpublished": false, "external": false, "first_production_date": null, "commissioned": false, "public_domain": false, "external_references": [], "brief_description": "", "constellations_primary": [], "constellations_other": [], "recommendations": [], "creator_credit_for_label": "", "headline_credit_for_label": "", "title_for_label": "<p>Val Jellay interview</p>", "description": "", "description_for_label": [], "credit_line_for_label": "", "details": [], "stats": {"tap_count": 0}, "links": [], "creators_primary": [], "creators_other": [{"id": 2675348, "name": "Daryl Dellora", "creator_id": 6331, "creator_wikidata_id": "Q117862792", "role": "interviewer", "role_id": 457, "is_primary": false}], "media_note": "Sorry, we don't have images or video for this item.", "holdings": [{"name": "VHS [PAL]; Reference - timecoded", "identifier": "", "description": ""}, {"name": "Digital Betacam [PAL]; Master", "identifier": "", "description": ""}, {"name": "Digital Betacam [PAL]; Sub-master", "identifier": "", "description": ""}], "part_of": null, "parts": [], "part_siblings": [], "group": null, "group_works": [], "group_siblings": [], "source": {"name": "Vernon", "slug": "vernon"}, "source_identifier": "217", "eaas_environment_id": null, "production_places": [], "production_dates": [], "labels": [47496]}, {"id": 108002, "acmi_id": "B1000855", "title": "Wolfgang Mueller Interview", "title_annotation": "", "slug": "wolfgang-mueller-interview", "creator_credit": "", "credit_line": "", "headline_credit": "", "video_links": [], "record_type": "work", "type": "Film", "is_on_display": false, "last_on_display_place": null, "last_on_display_date": null, "is_context_indigenous": false, "material_description": "", "unpublished": false, "external": false, "first_production_date": null, "commissioned": false, "public_domain": false, "external_references": [], "brief_description": "", "constellations_primary": [], "constellations_other": [], "recommendations": [], "creator_credit_for_label": "", "headline_credit_for_label": "", "title_for_label": "<p>Wolfgang Mueller Interview</p>", "description": "", "description_for_label": [], "credit_line_for_label": "", "details": [], "stats": {"tap_count": 0}, "links": [], "creators_primary": [], "creators_other": [{"id": 2675347, "name": "Daryl Dellora", "creator_id": 6331, "creator_wikidata_id": "Q117862792", "role": "interviewer", "role_id": 457, "is_primary": false}], "media_note": "Sorry, we don't have images or video for this item.", "holdings": [{"name": "VHS [PAL]; Reference - timecoded", "identifier": "", "description": ""}, {"name": "Digital Betacam [PAL]; Master", "identifier": "", "description": ""}, {"name": "Digital Betacam [PAL]; Sub-master", "identifier": "", "description": ""}], "part_of": null, "parts": [], "part_siblings": [], "group": null, "group_works": [], "group_siblings": [], "source": {"name": "Vernon", "slug": "vernon"}, "source_identifier": "216", "eaas_environment_id": null, "production_places": [], "production_dates": [], "labels": [47495]}, {"id": 108001, "acmi_id": "B1000854", "title": "Gauchi and Howson interview", "title_annotation": "", "slug": "gauchi-and-howson-interview", "creator_credit": "", "credit_line": "", "headline_credit": "", "video_links": [], "record_type": "work", "type": "Film", "is_on_display": false, "last_on_display_place": null, "last_on_display_date": null, "is_context_indigenous": false, "material_description": "", "unpublished": false, "external": false, "first_production_date": null, "commissioned": false, "public_domain": false, "external_references": [], "brief_description": "", "constellations_primary": [], "constellations_other": [], "recommendations": [], "creator_credit_for_label": "", "headline_credit_for_label": "", "title_for_label": "<p>Gauchi and Howson interview</p>", "description": "", "description_for_label": [], "credit_line_for_label": "", "details": [], "stats": {"tap_count": 0}, "links": [], "creators_primary": [], "creators_other": [{"id": 2675346, "name": "Daryl Dellora", "creator_id": 6331, "creator_wikidata_id": "Q117862792", "role": "interviewer", "role_id": 457, "is_primary": false}], "media_note": "Sorry, we don't have images or video for this item.", "holdings": [{"name": "VHS [PAL]; Reference - timecoded", "identifier": "", "description": ""}, {"name": "Digital Betacam [PAL]; Master", "identifier": "", "description": ""}, {"name": "Digital Betacam [PAL]; Sub-master", "identifier": "", "description": ""}], "part_of": null, "parts": [], "part_siblings": [], "group": null, "group_works": [], "group_siblings": [], "source": {"name": "Vernon", "slug": "vernon"}, "source_identifier": "215", "eaas_environment_id": null, "production_places": [], "production_dates": [], "labels": [47494]}, {"id": 108000, "acmi_id": "B1000853", "title": "Ron Blaskett interview", "title_annotation": "", "slug": "ron-blaskett-interview", "creator_credit": "", "credit_line": "", "headline_credit": "", "video_links": [], "record_type": "work", "type": "Film", "is_on_display": false, "last_on_display_place": null, "last_on_display_date": null, "is_context_indigenous": false, "material_description": "", "unpublished": false, "external": false, "first_production_date": null, "commissioned": false, "public_domain": false, "external_references": [], "brief_description": "", "constellations_primary": [], "constellations_other": [], "recommendations": [], "creator_credit_for_label": "", "headline_credit_for_label": "", "title_for_label": "<p>Ron Blaskett interview</p>", "description": "", "description_for_label": [], "credit_line_for_label": "", "details": [], "stats": {"tap_count": 0}, "links": [], "creators_primary": [], "creators_other": [{"id": 2675345, "name": "Daryl Dellora", "creator_id": 6331, "creator_wikidata_id": "Q117862792", "role": "interviewer", "role_id": 457, "is_primary": false}], "media_note": "Sorry, we don't have images or video for this item.", "holdings": [{"name": "VHS [PAL]; Copy", "identifier": "", "description": ""}, {"name": "Digital Betacam [PAL]; Master", "identifier": "", "description": ""}, {"name": "Digital Betacam [PAL]; Sub-master", "identifier": "", "description": ""}], "part_of": null, "parts": [], "part_siblings": [], "group": null, "group_works": [], "group_siblings": [], "source": {"name": "Vernon", "slug": "vernon"}, "source_identifier": "214", "eaas_environment_id": null, "production_places": [], "production_dates": [], "labels": [47493]}, {"id": 107999, "acmi_id": "B1000852", "title": "Nigel Dick interview", "title_annotation": "", "slug": "nigel-dick-interview", "creator_credit": "Daryl Dellora", "credit_line": "", "headline_credit": "Australia, 1997", "video_links": [], "record_type": "work", "type": "Film", "is_on_display": false, "last_on_display_place": null, "last_on_display_date": null, "is_context_indigenous": false, "material_description": "", "unpublished": false, "external": false, "first_production_date": "1997-01-01T11:00:00+11:00", "commissioned": false, "public_domain": false, "external_references": [], "brief_description": "<p>Nigel Dick discusses how he moved from veterinary science to an advertising cadetship with the &#8220;Daily Telegraph&#8221;, finally moving into television in 1956 to Channel 9.<br />\nDick talks about the early days of television in Australia; the influence of Arthur Warner, the Royal Commission into television in the 1950&#8217;s and it&#8217;s ensuing recommendations, the creation of &#8220;In Melbourne Tonight&#8221; based on the strength of Graeme Kennedy&#8217;s personality, and the response from other stations in creating a similar show for Bert Newton, or putting movies against &#8220;IMT&#8221; in the ratings.<br />\nHe also discusses the relationship between print media and television, the origins of the channel 7 logo, and the future of television, including cable channels and digitisation.</p>", "constellations_primary": [], "constellations_other": [], "recommendations": [], "creator_credit_for_label": "<p>Daryl Dellora</p>", "headline_credit_for_label": "<p>Australia, 1997</p>", "title_for_label": "<p>Nigel Dick interview</p>", "description": "<p>Nigel Dick discusses how he moved from veterinary science to an advertising cadetship with the &#8220;Daily Telegraph&#8221;, finally moving into television in 1956 to Channel 9.<br />\nDick talks about the early days of television in Australia; the influence of Arthur Warner, the Royal Commission into television in the 1950&#8217;s and it&#8217;s ensuing recommendations, the creation of &#8220;In Melbourne Tonight&#8221; based on the strength of Graeme Kennedy&#8217;s personality, and the response from other stations in creating a similar show for Bert Newton, or putting movies against &#8220;IMT&#8221; in the ratings.<br />\nHe also discusses the relationship between print media and television, the origins of the channel 7 logo, and the future of television, including cable channels and digitisation.</p>", "description_for_label": ["<p>Nigel Dick discusses how he moved from veterinary science to an advertising cadetship with the &#8220;Daily Telegraph&#8221;, finally moving into television in 1956 to Channel 9.<br />\nDick talks about the early days of television in Australia; the influence of Arthur Warner, the Royal Commission into television in the 1950&#8217;s and it&#8217;s ensuing recommendations, the creation of &#8220;In Melbourne Tonight&#8221; based on the strength of Graeme Kennedy&#8217;s personality, and the response from other stations in creating a similar show for Bert Newton, or putting movies against &#8220;IMT&#8221; in the ratings.<br />\nHe also discusses the relationship between print media and television, the origins of the channel 7 logo, and the future of television, including cable channels and digitisation.</p>"], "credit_line_for_label": "", "details": [{"label": "Language", "display_values": ["English"]}, {"label": "Subject category", "display_values": ["Advertising, Film, Journalism, Mass Media & TV&nbsp;→ Advertising"]}], "stats": {"tap_count": 0}, "links": [], "creators_primary": [{"id": 2675343, "name": "Daryl Dellora", "creator_id": 6331, "creator_wikidata_id": "Q117862792", "role": "creator", "role_id": 968, "is_primary": true}], "creators_other": [{"id": 2675344, "name": "Nigel Dick", "creator_id": 73201, "creator_wikidata_id": null, "role": "interviewee", "role_id": 496, "is_primary": false}, {"id": 2675342, "name": "Daryl Dellora", "creator_id": 6331, "creator_wikidata_id": "Q117862792", "role": "interviewer", "role_id": 457, "is_primary": false}], "media_note": "Sorry, we don't have images or video for this item.", "holdings": [{"name": "VHS [PAL]; Copy", "identifier": "", "description": ""}, {"name": "Digital Betacam [PAL]; Sub-master", "identifier": "", "description": ""}, {"name": "Digital Betacam [PAL]; Master", "identifier": "", "description": ""}], "part_of": null, "parts": [], "part_siblings": [], "group": null, "group_works": [], "group_siblings": [], "source": {"name": "Vernon", "slug": "vernon"}, "source_identifier": "213", "eaas_environment_id": null, "production_places": [{"id": 3, "name": "Australia", "slug": "australia"}], "production_dates": [{"date": "1997", "notes": "", "to_year": "1997"}], "labels": [47492]}, {"id": 107998, "acmi_id": "B1000850", "title": "Pat Norman interview", "title_annotation": "", "slug": "pat-norman-interview", "creator_credit": "", "credit_line": "", "headline_credit": "", "video_links": [], "record_type": "work", "type": "Film", "is_on_display": false, "last_on_display_place": null, "last_on_display_date": null, "is_context_indigenous": false, "material_description": "", "unpublished": false, "external": false, "first_production_date": null, "commissioned": false, "public_domain": false, "external_references": [], "brief_description": "", "constellations_primary": [], "constellations_other": [], "recommendations": [], "creator_credit_for_label": "", "headline_credit_for_label": "", "title_for_label": "<p>Pat Norman interview</p>", "description": "", "description_for_label": [], "credit_line_for_label": "", "details": [], "stats": {"tap_count": 0}, "links": [], "creators_primary": [], "creators_other": [{"id": 2675341, "name": "Daryl Dellora", "creator_id": 6331, "creator_wikidata_id": "Q117862792", "role": "interviewer", "role_id": 457, "is_primary": false}], "media_note": "Sorry, we don't have images or video for this item.", "holdings": [{"name": "VHS [PAL]; Copy", "identifier": "", "description": ""}, {"name": "Digital Betacam [PAL]; Master", "identifier": "", "description": ""}, {"name": "Digital Betacam [PAL]; Sub-master", "identifier": "", "description": ""}], "part_of": null, "parts": [], "part_siblings": [], "group": null, "group_works": [], "group_siblings": [], "source": {"name": "Vernon", "slug": "vernon"}, "source_identifier": "212", "eaas_environment_id": null, "production_places": [], "production_dates": [], "labels": [47491]}, {"id": 107997, "acmi_id": "B1000848", "title": "Susie Boisjoux interview", "title_annotation": "", "slug": "susie-boisjoux-interview", "creator_credit": "", "credit_line": "", "headline_credit": "", "video_links": [], "record_type": "work", "type": "Film", "is_on_display": false, "last_on_display_place": null, "last_on_display_date": null, "is_context_indigenous": false, "material_description": "", "unpublished": false, "external": false, "first_production_date": null, "commissioned": false, "public_domain": false, "external_references": [], "brief_description": "", "constellations_primary": [], "constellations_other": [], "recommendations": [], "creator_credit_for_label": "", "headline_credit_for_label": "", "title_for_label": "<p>Susie Boisjoux interview</p>", "description": "", "description_for_label": [], "credit_line_for_label": "", "details": [], "stats": {"tap_count": 0}, "links": [], "creators_primary": [], "creators_other": [{"id": 2675340, "name": "Daryl Dellora", "creator_id": 6331, "creator_wikidata_id": "Q117862792", "role": "interviewer", "role_id": 457, "is_primary": false}], "media_note": "Sorry, we don't have images or video for this item.", "holdings": [{"name": "VHS [PAL]; Copy", "identifier": "", "description": ""}, {"name": "Digital Betacam [PAL]; Sub-master", "identifier": "", "description": ""}, {"name": "Digital Betacam [PAL]; Master", "identifier": "", "description": ""}], "part_of": null, "parts": [], "part_siblings": [], "group": null, "group_works": [], "group_siblings": [], "source": {"name": "Vernon", "slug": "vernon"}, "source_identifier": "211", "eaas_environment_id": null, "production_places": [], "production_dates": [], "labels": [47490]}]}