{"count": 41734, "next": "https://api.acmi.net.au/works/?page=1387", "previous": "https://api.acmi.net.au/works/?page=1385", "results": [{"id": 109298, "acmi_id": "B1006288", "title": "The Benchmark (Kool Schools)", "title_zh_hans": "", "title_pa": "", "title_hi": "", "title_annotation": "", "title_annotation_zh_hans": "", "title_annotation_pa": "", "title_annotation_hi": "", "slug": "the-benchmark-kool-schools", "creator_credit": "Billanook College School of Performing Arts", "credit_line": "", "credit_line_zh_hans": "", "credit_line_pa": "", "credit_line_hi": "", "headline_credit": "1997", "video_links": [], "record_type": "work", "type": "Film", "is_on_display": false, "last_on_display_place": null, "last_on_display_date": null, "is_context_indigenous": false, "material_description": "", "unpublished": false, "external": false, "first_production_date": "1997-01-01T11:00:00+11:00", "commissioned": false, "public_domain": false, "external_references": [], "brief_description": "", "constellations_primary": [], "constellations_other": [], "recommendations": [], "creator_credit_for_label": "<p>Billanook College School of Performing Arts</p>", "creator_credit_for_label_zh_hans": "", "creator_credit_for_label_pa": "", "creator_credit_for_label_hi": "", "headline_credit_for_label": "<p>1997</p>", "headline_credit_for_label_zh_hans": "", "headline_credit_for_label_pa": "", "headline_credit_for_label_hi": "", "title_for_label_zh_hans": "", "title_for_label_pa": "", "title_for_label_hi": "", "title_for_label_override_zh_hans": "", "title_for_label_override_pa": "", "title_for_label_override_hi": "", "description_for_label_zh_hans": "", "description_for_label_pa": "", "description_for_label_hi": "", "description_for_label_override_zh_hans": "", "description_for_label_override_pa": "", "description_for_label_override_hi": "", "description_zh_hans": "", "description_pa": "", "description_hi": "", "description_override_zh_hans": "", "description_override_pa": "", "description_override_hi": "", "title_for_label": "<p>The Benchmark (Kool Schools)</p>", "description": "", "description_for_label": [], "credit_line_for_label": "", "details": [], "stats": {"tap_count": 0}, "links": [], "creators_primary": [{"id": 2711660, "name": "Billanook College School of Performing Arts", "creator_id": 9325, "creator_wikidata_id": null, "role": "creator", "role_id": 968, "is_primary": true}], "creators_other": [{"id": 2711661, "name": "Billanook College School of Performing Arts", "creator_id": 9325, "creator_wikidata_id": null, "role": "organiser", "role_id": 608, "is_primary": false}], "media_note": "Sorry, we don't have images or video for this item.", "holdings": [], "part_of": null, "parts": [], "part_siblings": [], "group": null, "group_works": [], "group_siblings": [], "source": {"name": "Vernon", "slug": "vernon"}, "source_identifier": "2888", "eaas_environment_id": null, "production_places": [], "production_dates": [{"date": "1997", "notes": "", "to_year": "1997"}], "labels": [48791], "title_override_zh_hans": "", "title_override_pa": "", "title_override_hi": "", "credit_line_for_label_zh_hans": "", "credit_line_for_label_pa": "", "credit_line_for_label_hi": "", "credit_line_for_label_override_zh_hans": "", "credit_line_for_label_override_pa": "", "credit_line_for_label_override_hi": "", "credit_line_override_zh_hans": "", "credit_line_override_pa": "", "credit_line_override_hi": ""}, {"id": 109297, "acmi_id": "B1006285", "title": "Convict fleet to dragon boat", "title_zh_hans": "", "title_pa": "", "title_hi": "", "title_annotation": "", "title_annotation_zh_hans": "", "title_annotation_pa": "", "title_annotation_hi": "", "slug": "convict-fleet-to-dragon-boat", "creator_credit": "", "credit_line": "", "credit_line_zh_hans": "", "credit_line_pa": "", "credit_line_hi": "", "headline_credit": "", "video_links": [], "record_type": "work", "type": "Film", "is_on_display": false, "last_on_display_place": null, "last_on_display_date": null, "is_context_indigenous": false, "material_description": "", "unpublished": false, "external": false, "first_production_date": null, "commissioned": false, "public_domain": false, "external_references": [], "brief_description": "", "constellations_primary": [], "constellations_other": [], "recommendations": [], "creator_credit_for_label": "", "creator_credit_for_label_zh_hans": "", "creator_credit_for_label_pa": "", "creator_credit_for_label_hi": "", "headline_credit_for_label": "", "headline_credit_for_label_zh_hans": "", "headline_credit_for_label_pa": "", "headline_credit_for_label_hi": "", "title_for_label_zh_hans": "", "title_for_label_pa": "", "title_for_label_hi": "", "title_for_label_override_zh_hans": "", "title_for_label_override_pa": "", "title_for_label_override_hi": "", "description_for_label_zh_hans": "", "description_for_label_pa": "", "description_for_label_hi": "", "description_for_label_override_zh_hans": "", "description_for_label_override_pa": "", "description_for_label_override_hi": "", "description_zh_hans": "", "description_pa": "", "description_hi": "", "description_override_zh_hans": "", "description_override_pa": "", "description_override_hi": "", "title_for_label": "<p>Convict fleet to dragon boat</p>", "description": "", "description_for_label": [], "credit_line_for_label": "", "details": [], "stats": {"tap_count": 0}, "links": [], "creators_primary": [], "creators_other": [], "media_note": "Sorry, we don't have images or video for this item.", "holdings": [], "part_of": null, "parts": [], "part_siblings": [], "group": null, "group_works": [], "group_siblings": [], "source": {"name": "Vernon", "slug": "vernon"}, "source_identifier": "2886", "eaas_environment_id": null, "production_places": [], "production_dates": [], "labels": [48790], "title_override_zh_hans": "", "title_override_pa": "", "title_override_hi": "", "credit_line_for_label_zh_hans": "", "credit_line_for_label_pa": "", "credit_line_for_label_hi": "", "credit_line_for_label_override_zh_hans": "", "credit_line_for_label_override_pa": "", "credit_line_for_label_override_hi": "", "credit_line_override_zh_hans": "", "credit_line_override_pa": "", "credit_line_override_hi": ""}, {"id": 109296, "acmi_id": "B1006279", "title": "Bracks Presentation, August 2000", "title_zh_hans": "", "title_pa": "", "title_hi": "", "title_annotation": "", "title_annotation_zh_hans": "", "title_annotation_pa": "", "title_annotation_hi": "", "slug": "bracks-presentation-august-2000", "creator_credit": "", "credit_line": "", "credit_line_zh_hans": "", "credit_line_pa": "", "credit_line_hi": "", "headline_credit": "", "video_links": [], "record_type": "work", "type": "Film", "is_on_display": false, "last_on_display_place": null, "last_on_display_date": null, "is_context_indigenous": false, "material_description": "", "unpublished": false, "external": false, "first_production_date": null, "commissioned": false, "public_domain": false, "external_references": [], "brief_description": "", "constellations_primary": [], "constellations_other": [], "recommendations": [], "creator_credit_for_label": "", "creator_credit_for_label_zh_hans": "", "creator_credit_for_label_pa": "", "creator_credit_for_label_hi": "", "headline_credit_for_label": "", "headline_credit_for_label_zh_hans": "", "headline_credit_for_label_pa": "", "headline_credit_for_label_hi": "", "title_for_label_zh_hans": "", "title_for_label_pa": "", "title_for_label_hi": "", "title_for_label_override_zh_hans": "", "title_for_label_override_pa": "", "title_for_label_override_hi": "", "description_for_label_zh_hans": "", "description_for_label_pa": "", "description_for_label_hi": "", "description_for_label_override_zh_hans": "", "description_for_label_override_pa": "", "description_for_label_override_hi": "", "description_zh_hans": "", "description_pa": "", "description_hi": "", "description_override_zh_hans": "", "description_override_pa": "", "description_override_hi": "", "title_for_label": "<p>Bracks Presentation, August 2000</p>", "description": "", "description_for_label": [], "credit_line_for_label": "", "details": [], "stats": {"tap_count": 0}, "links": [], "creators_primary": [], "creators_other": [], "media_note": "Sorry, we don't have images or video for this item.", "holdings": [{"name": "VHS [PAL]; Copy", "identifier": "", "description": ""}], "part_of": null, "parts": [], "part_siblings": [], "group": null, "group_works": [], "group_siblings": [], "source": {"name": "Vernon", "slug": "vernon"}, "source_identifier": "2880", "eaas_environment_id": null, "production_places": [], "production_dates": [], "labels": [48789], "title_override_zh_hans": "", "title_override_pa": "", "title_override_hi": "", "credit_line_for_label_zh_hans": "", "credit_line_for_label_pa": "", "credit_line_for_label_hi": "", "credit_line_for_label_override_zh_hans": "", "credit_line_for_label_override_pa": "", "credit_line_for_label_override_hi": "", "credit_line_override_zh_hans": "", "credit_line_override_pa": "", "credit_line_override_hi": ""}, {"id": 109295, "acmi_id": "B1006278", "title": "Cinemedia Access Collection Promo", "title_zh_hans": "", "title_pa": "", "title_hi": "", "title_annotation": "", "title_annotation_zh_hans": "", "title_annotation_pa": "", "title_annotation_hi": "", "slug": "cinemedia-access-collection-promo", "creator_credit": "", "credit_line": "", "credit_line_zh_hans": "", "credit_line_pa": "", "credit_line_hi": "", "headline_credit": "28 APR 1999", "video_links": [], "record_type": "work", "type": "Film", "is_on_display": false, "last_on_display_place": null, "last_on_display_date": null, "is_context_indigenous": false, "material_description": "", "unpublished": false, "external": false, "first_production_date": null, "commissioned": false, "public_domain": false, "external_references": [], "brief_description": "", "constellations_primary": [], "constellations_other": [], "recommendations": [], "creator_credit_for_label": "", "creator_credit_for_label_zh_hans": "", "creator_credit_for_label_pa": "", "creator_credit_for_label_hi": "", "headline_credit_for_label": "<p>28 APR 1999</p>", "headline_credit_for_label_zh_hans": "", "headline_credit_for_label_pa": "", "headline_credit_for_label_hi": "", "title_for_label_zh_hans": "", "title_for_label_pa": "", "title_for_label_hi": "", "title_for_label_override_zh_hans": "", "title_for_label_override_pa": "", "title_for_label_override_hi": "", "description_for_label_zh_hans": "", "description_for_label_pa": "", "description_for_label_hi": "", "description_for_label_override_zh_hans": "", "description_for_label_override_pa": "", "description_for_label_override_hi": "", "description_zh_hans": "", "description_pa": "", "description_hi": "", "description_override_zh_hans": "", "description_override_pa": "", "description_override_hi": "", "title_for_label": "<p>Cinemedia Access Collection Promo</p>", "description": "", "description_for_label": [], "credit_line_for_label": "", "details": [], "stats": {"tap_count": 0}, "links": [], "creators_primary": [], "creators_other": [{"id": 2711659, "name": "Roberta Ciabarra", "creator_id": 6791, "creator_wikidata_id": null, "role": "narrator", "role_id": 499, "is_primary": false}], "media_note": "Sorry, we don't have images or video for this item.", "holdings": [{"name": "VHS [PAL]; Copy", "identifier": "", "description": ""}], "part_of": null, "parts": [], "part_siblings": [], "group": null, "group_works": [], "group_siblings": [], "source": {"name": "Vernon", "slug": "vernon"}, "source_identifier": "2879", "eaas_environment_id": null, "production_places": [], "production_dates": [{"date": "28 APR 1999", "notes": "", "to_year": "28 APR 1999"}], "labels": [48788], "title_override_zh_hans": "", "title_override_pa": "", "title_override_hi": "", "credit_line_for_label_zh_hans": "", "credit_line_for_label_pa": "", "credit_line_for_label_hi": "", "credit_line_for_label_override_zh_hans": "", "credit_line_for_label_override_pa": "", "credit_line_for_label_override_hi": "", "credit_line_override_zh_hans": "", "credit_line_override_pa": "", "credit_line_override_hi": ""}, {"id": 109294, "acmi_id": "B1006277", "title": "AME installation", "title_zh_hans": "", "title_pa": "", "title_hi": "", "title_annotation": "", "title_annotation_zh_hans": "", "title_annotation_pa": "", "title_annotation_hi": "", "slug": "ame-installation", "creator_credit": "", "credit_line": "", "credit_line_zh_hans": "", "credit_line_pa": "", "credit_line_hi": "", "headline_credit": "", "video_links": [], "record_type": "work", "type": "Film", "is_on_display": false, "last_on_display_place": null, "last_on_display_date": null, "is_context_indigenous": false, "material_description": "", "unpublished": false, "external": false, "first_production_date": null, "commissioned": false, "public_domain": false, "external_references": [], "brief_description": "", "constellations_primary": [], "constellations_other": [], "recommendations": [], "creator_credit_for_label": "", "creator_credit_for_label_zh_hans": "", "creator_credit_for_label_pa": "", "creator_credit_for_label_hi": "", "headline_credit_for_label": "", "headline_credit_for_label_zh_hans": "", "headline_credit_for_label_pa": "", "headline_credit_for_label_hi": "", "title_for_label_zh_hans": "", "title_for_label_pa": "", "title_for_label_hi": "", "title_for_label_override_zh_hans": "", "title_for_label_override_pa": "", "title_for_label_override_hi": "", "description_for_label_zh_hans": "", "description_for_label_pa": "", "description_for_label_hi": "", "description_for_label_override_zh_hans": "", "description_for_label_override_pa": "", "description_for_label_override_hi": "", "description_zh_hans": "", "description_pa": "", "description_hi": "", "description_override_zh_hans": "", "description_override_pa": "", "description_override_hi": "", "title_for_label": "<p>AME installation</p>", "description": "", "description_for_label": [], "credit_line_for_label": "", "details": [], "stats": {"tap_count": 0}, "links": [], "creators_primary": [], "creators_other": [], "media_note": "Sorry, we don't have images or video for this item.", "holdings": [{"name": "VHS [PAL]; Documentation", "identifier": "", "description": ""}, {"name": "Mini DV; Master", "identifier": "", "description": ""}], "part_of": null, "parts": [], "part_siblings": [], "group": null, "group_works": [], "group_siblings": [], "source": {"name": "Vernon", "slug": "vernon"}, "source_identifier": "2878", "eaas_environment_id": null, "production_places": [], "production_dates": [], "labels": [48787], "title_override_zh_hans": "", "title_override_pa": "", "title_override_hi": "", "credit_line_for_label_zh_hans": "", "credit_line_for_label_pa": "", "credit_line_for_label_hi": "", "credit_line_for_label_override_zh_hans": "", "credit_line_for_label_override_pa": "", "credit_line_for_label_override_hi": "", "credit_line_override_zh_hans": "", "credit_line_override_pa": "", "credit_line_override_hi": ""}, {"id": 109293, "acmi_id": "B1006275", "title": "MSO Screen grabs 1999", "title_zh_hans": "", "title_pa": "", "title_hi": "", "title_annotation": "", "title_annotation_zh_hans": "", "title_annotation_pa": "", "title_annotation_hi": "", "slug": "mso-screen-grabs-1999", "creator_credit": "Timothy Marshall", "credit_line": "", "credit_line_zh_hans": "", "credit_line_pa": "", "credit_line_hi": "", "headline_credit": "1999", "video_links": [], "record_type": "work", "type": "Film", "is_on_display": false, "last_on_display_place": null, "last_on_display_date": null, "is_context_indigenous": false, "material_description": "", "unpublished": false, "external": false, "first_production_date": "1999-01-01T11:00:00+11:00", "commissioned": false, "public_domain": false, "external_references": [], "brief_description": "", "constellations_primary": [], "constellations_other": [], "recommendations": [], "creator_credit_for_label": "<p>Timothy Marshall</p>", "creator_credit_for_label_zh_hans": "", "creator_credit_for_label_pa": "", "creator_credit_for_label_hi": "", "headline_credit_for_label": "<p>1999</p>", "headline_credit_for_label_zh_hans": "", "headline_credit_for_label_pa": "", "headline_credit_for_label_hi": "", "title_for_label_zh_hans": "", "title_for_label_pa": "", "title_for_label_hi": "", "title_for_label_override_zh_hans": "", "title_for_label_override_pa": "", "title_for_label_override_hi": "", "description_for_label_zh_hans": "", "description_for_label_pa": "", "description_for_label_hi": "", "description_for_label_override_zh_hans": "", "description_for_label_override_pa": "", "description_for_label_override_hi": "", "description_zh_hans": "", "description_pa": "", "description_hi": "", "description_override_zh_hans": "", "description_override_pa": "", "description_override_hi": "", "title_for_label": "<p>MSO Screen grabs 1999</p>", "description": "", "description_for_label": [], "credit_line_for_label": "", "details": [], "stats": {"tap_count": 0}, "links": [], "creators_primary": [{"id": 2711658, "name": "Timothy Marshall", "creator_id": 9324, "creator_wikidata_id": null, "role": "creator", "role_id": 968, "is_primary": true}], "creators_other": [], "media_note": "Sorry, we don't have images or video for this item.", "holdings": [], "part_of": null, "parts": [], "part_siblings": [], "group": null, "group_works": [], "group_siblings": [], "source": {"name": "Vernon", "slug": "vernon"}, "source_identifier": "2876", "eaas_environment_id": null, "production_places": [], "production_dates": [{"date": "1999", "notes": "", "to_year": "1999"}], "labels": [48786], "title_override_zh_hans": "", "title_override_pa": "", "title_override_hi": "", "credit_line_for_label_zh_hans": "", "credit_line_for_label_pa": "", "credit_line_for_label_hi": "", "credit_line_for_label_override_zh_hans": "", "credit_line_for_label_override_pa": "", "credit_line_for_label_override_hi": "", "credit_line_override_zh_hans": "", "credit_line_override_pa": "", "credit_line_override_hi": ""}, {"id": 109292, "acmi_id": "B1006274", "title": "ACMI Cinepak", "title_zh_hans": "", "title_pa": "", "title_hi": "", "title_annotation": "", "title_annotation_zh_hans": "", "title_annotation_pa": "", "title_annotation_hi": "", "slug": "acmi-cinepak", "creator_credit": "", "credit_line": "", "credit_line_zh_hans": "", "credit_line_pa": "", "credit_line_hi": "", "headline_credit": "", "video_links": [], "record_type": "work", "type": "Film", "is_on_display": false, "last_on_display_place": null, "last_on_display_date": null, "is_context_indigenous": false, "material_description": "", "unpublished": false, "external": false, "first_production_date": null, "commissioned": false, "public_domain": false, "external_references": [], "brief_description": "", "constellations_primary": [], "constellations_other": [], "recommendations": [], "creator_credit_for_label": "", "creator_credit_for_label_zh_hans": "", "creator_credit_for_label_pa": "", "creator_credit_for_label_hi": "", "headline_credit_for_label": "", "headline_credit_for_label_zh_hans": "", "headline_credit_for_label_pa": "", "headline_credit_for_label_hi": "", "title_for_label_zh_hans": "", "title_for_label_pa": "", "title_for_label_hi": "", "title_for_label_override_zh_hans": "", "title_for_label_override_pa": "", "title_for_label_override_hi": "", "description_for_label_zh_hans": "", "description_for_label_pa": "", "description_for_label_hi": "", "description_for_label_override_zh_hans": "", "description_for_label_override_pa": "", "description_for_label_override_hi": "", "description_zh_hans": "", "description_pa": "", "description_hi": "", "description_override_zh_hans": "", "description_override_pa": "", "description_override_hi": "", "title_for_label": "<p>ACMI Cinepak</p>", "description": "", "description_for_label": [], "credit_line_for_label": "", "details": [], "stats": {"tap_count": 0}, "links": [], "creators_primary": [], "creators_other": [], "media_note": "Sorry, we don't have images or video for this item.", "holdings": [{"name": "CD ROM; Master", "identifier": "", "description": ""}], "part_of": null, "parts": [], "part_siblings": [], "group": null, "group_works": [], "group_siblings": [], "source": {"name": "Vernon", "slug": "vernon"}, "source_identifier": "2875", "eaas_environment_id": null, "production_places": [], "production_dates": [], "labels": [48785], "title_override_zh_hans": "", "title_override_pa": "", "title_override_hi": "", "credit_line_for_label_zh_hans": "", "credit_line_for_label_pa": "", "credit_line_for_label_hi": "", "credit_line_for_label_override_zh_hans": "", "credit_line_for_label_override_pa": "", "credit_line_for_label_override_hi": "", "credit_line_override_zh_hans": "", "credit_line_override_pa": "", "credit_line_override_hi": ""}, {"id": 109291, "acmi_id": "B1006273", "title": "Screen lounges: proposed sound", "title_zh_hans": "", "title_pa": "", "title_hi": "", "title_annotation": "", "title_annotation_zh_hans": "", "title_annotation_pa": "", "title_annotation_hi": "", "slug": "screen-lounges-proposed-sound", "creator_credit": "", "credit_line": "", "credit_line_zh_hans": "", "credit_line_pa": "", "credit_line_hi": "", "headline_credit": "", "video_links": [], "record_type": "work", "type": "Film", "is_on_display": false, "last_on_display_place": null, "last_on_display_date": null, "is_context_indigenous": false, "material_description": "", "unpublished": false, "external": false, "first_production_date": null, "commissioned": false, "public_domain": false, "external_references": [], "brief_description": "", "constellations_primary": [], "constellations_other": [], "recommendations": [], "creator_credit_for_label": "", "creator_credit_for_label_zh_hans": "", "creator_credit_for_label_pa": "", "creator_credit_for_label_hi": "", "headline_credit_for_label": "", "headline_credit_for_label_zh_hans": "", "headline_credit_for_label_pa": "", "headline_credit_for_label_hi": "", "title_for_label_zh_hans": "", "title_for_label_pa": "", "title_for_label_hi": "", "title_for_label_override_zh_hans": "", "title_for_label_override_pa": "", "title_for_label_override_hi": "", "description_for_label_zh_hans": "", "description_for_label_pa": "", "description_for_label_hi": "", "description_for_label_override_zh_hans": "", "description_for_label_override_pa": "", "description_for_label_override_hi": "", "description_zh_hans": "", "description_pa": "", "description_hi": "", "description_override_zh_hans": "", "description_override_pa": "", "description_override_hi": "", "title_for_label": "<p>Screen lounges: proposed sound</p>", "description": "", "description_for_label": [], "credit_line_for_label": "", "details": [], "stats": {"tap_count": 0}, "links": [], "creators_primary": [], "creators_other": [], "media_note": "Sorry, we don't have images or video for this item.", "holdings": [{"name": "CD ROM; Copy", "identifier": "", "description": ""}, {"name": "CD ROM; Master", "identifier": "", "description": ""}], "part_of": null, "parts": [], "part_siblings": [], "group": null, "group_works": [], "group_siblings": [], "source": {"name": "Vernon", "slug": "vernon"}, "source_identifier": "2874", "eaas_environment_id": null, "production_places": [], "production_dates": [], "labels": [48784], "title_override_zh_hans": "", "title_override_pa": "", "title_override_hi": "", "credit_line_for_label_zh_hans": "", "credit_line_for_label_pa": "", "credit_line_for_label_hi": "", "credit_line_for_label_override_zh_hans": "", "credit_line_for_label_override_pa": "", "credit_line_for_label_override_hi": "", "credit_line_override_zh_hans": "", "credit_line_override_pa": "", "credit_line_override_hi": ""}, {"id": 109290, "acmi_id": "B1006271", "title": "Face and form. Part 1", "title_zh_hans": "", "title_pa": "", "title_hi": "", "title_annotation": "", "title_annotation_zh_hans": "", "title_annotation_pa": "", "title_annotation_hi": "", "slug": "face-and-form-part-1", "creator_credit": "", "credit_line": "", "credit_line_zh_hans": "", "credit_line_pa": "", "credit_line_hi": "", "headline_credit": "", "video_links": [], "record_type": "work", "type": "Film", "is_on_display": false, "last_on_display_place": null, "last_on_display_date": null, "is_context_indigenous": false, "material_description": "", "unpublished": false, "external": false, "first_production_date": null, "commissioned": false, "public_domain": false, "external_references": [], "brief_description": "", "constellations_primary": [], "constellations_other": [], "recommendations": [], "creator_credit_for_label": "", "creator_credit_for_label_zh_hans": "", "creator_credit_for_label_pa": "", "creator_credit_for_label_hi": "", "headline_credit_for_label": "", "headline_credit_for_label_zh_hans": "", "headline_credit_for_label_pa": "", "headline_credit_for_label_hi": "", "title_for_label_zh_hans": "", "title_for_label_pa": "", "title_for_label_hi": "", "title_for_label_override_zh_hans": "", "title_for_label_override_pa": "", "title_for_label_override_hi": "", "description_for_label_zh_hans": "", "description_for_label_pa": "", "description_for_label_hi": "", "description_for_label_override_zh_hans": "", "description_for_label_override_pa": "", "description_for_label_override_hi": "", "description_zh_hans": "", "description_pa": "", "description_hi": "", "description_override_zh_hans": "", "description_override_pa": "", "description_override_hi": "", "title_for_label": "<p>Face and form. Part 1</p>", "description": "", "description_for_label": [], "credit_line_for_label": "", "details": [], "stats": {"tap_count": 0}, "links": [], "creators_primary": [], "creators_other": [], "media_note": "Sorry, we don't have images or video for this item.", "holdings": [{"name": "CD ROM; Copy", "identifier": "", "description": ""}], "part_of": null, "parts": [], "part_siblings": [], "group": null, "group_works": [], "group_siblings": [], "source": {"name": "Vernon", "slug": "vernon"}, "source_identifier": "2873", "eaas_environment_id": null, "production_places": [], "production_dates": [], "labels": [48783], "title_override_zh_hans": "", "title_override_pa": "", "title_override_hi": "", "credit_line_for_label_zh_hans": "", "credit_line_for_label_pa": "", "credit_line_for_label_hi": "", "credit_line_for_label_override_zh_hans": "", "credit_line_for_label_override_pa": "", "credit_line_for_label_override_hi": "", "credit_line_override_zh_hans": "", "credit_line_override_pa": "", "credit_line_override_hi": ""}, {"id": 109289, "acmi_id": "B1006270", "title": "ik.rocks.it", "title_zh_hans": "", "title_pa": "", "title_hi": "", "title_annotation": "", "title_annotation_zh_hans": "", "title_annotation_pa": "", "title_annotation_hi": "", "slug": "ikrocksit", "creator_credit": "", "credit_line": "", "credit_line_zh_hans": "", "credit_line_pa": "", "credit_line_hi": "", "headline_credit": "", "video_links": [], "record_type": "work", "type": "Film", "is_on_display": false, "last_on_display_place": null, "last_on_display_date": null, "is_context_indigenous": false, "material_description": "", "unpublished": false, "external": false, "first_production_date": null, "commissioned": false, "public_domain": false, "external_references": [], "brief_description": "", "constellations_primary": [], "constellations_other": [], "recommendations": [], "creator_credit_for_label": "", "creator_credit_for_label_zh_hans": "", "creator_credit_for_label_pa": "", "creator_credit_for_label_hi": "", "headline_credit_for_label": "", "headline_credit_for_label_zh_hans": "", "headline_credit_for_label_pa": "", "headline_credit_for_label_hi": "", "title_for_label_zh_hans": "", "title_for_label_pa": "", "title_for_label_hi": "", "title_for_label_override_zh_hans": "", "title_for_label_override_pa": "", "title_for_label_override_hi": "", "description_for_label_zh_hans": "", "description_for_label_pa": "", "description_for_label_hi": "", "description_for_label_override_zh_hans": "", "description_for_label_override_pa": "", "description_for_label_override_hi": "", "description_zh_hans": "", "description_pa": "", "description_hi": "", "description_override_zh_hans": "", "description_override_pa": "", "description_override_hi": "", "title_for_label": "<p>ik.rocks.it</p>", "description": "", "description_for_label": [], "credit_line_for_label": "", "details": [], "stats": {"tap_count": 0}, "links": [], "creators_primary": [], "creators_other": [], "media_note": "Sorry, we don't have images or video for this item.", "holdings": [{"name": "CD ROM; Master", "identifier": "", "description": ""}], "part_of": null, "parts": [], "part_siblings": [], "group": null, "group_works": [], "group_siblings": [], "source": {"name": "Vernon", "slug": "vernon"}, "source_identifier": "2872", "eaas_environment_id": null, "production_places": [], "production_dates": [], "labels": [48782], "title_override_zh_hans": "", "title_override_pa": "", "title_override_hi": "", "credit_line_for_label_zh_hans": "", "credit_line_for_label_pa": "", "credit_line_for_label_hi": "", "credit_line_for_label_override_zh_hans": "", "credit_line_for_label_override_pa": "", "credit_line_for_label_override_hi": "", "credit_line_override_zh_hans": "", "credit_line_override_pa": "", "credit_line_override_hi": ""}]}