{"count": 41724, "next": "https://api.acmi.net.au/works/?page=4116", "previous": "https://api.acmi.net.au/works/?page=4114", "results": [{"id": 119083, "acmi_id": "R0002157", "title": "[The Bells : publicity kit]", "title_annotation": "", "slug": "the-bells-publicity-kit", "creator_credit": "", "credit_line": "", "headline_credit": "", "video_links": [], "record_type": "work", "type": "Object", "is_on_display": false, "last_on_display_place": null, "last_on_display_date": null, "is_context_indigenous": false, "material_description": "", "unpublished": false, "external": false, "first_production_date": null, "commissioned": false, "public_domain": false, "external_references": [], "brief_description": "<p>Publicity kit for the production The Bells (1911), including 2 B&amp;W Stills (Large)</p>", "constellations_primary": [], "constellations_other": [], "recommendations": [], "creator_credit_for_label": "", "headline_credit_for_label": "", "title_for_label": "<p>[The Bells : publicity kit]</p>", "description": "<p>Publicity kit for the production The Bells (1911), including 2 B&amp;W Stills (Large)</p>", "description_for_label": ["<p>Publicity kit for the production The Bells (1911), including 2 B&amp;W Stills (Large)</p>"], "credit_line_for_label": "", "details": [{"label": "Subject category", "display_values": ["Documentation"]}, {"label": "Object Types", "display_values": ["Publicity kit"]}], "stats": {"tap_count": 2}, "links": [], "creators_primary": [], "creators_other": [], "media_note": null, "holdings": [], "part_of": null, "parts": [], "part_siblings": [], "group": null, "group_works": [], "group_siblings": [], "source": {"name": "Vernon", "slug": "vernon"}, "source_identifier": "150251", "eaas_environment_id": null, "production_places": [], "production_dates": [], "labels": [58556]}, {"id": 119085, "acmi_id": "R0002159", "title": "[The Bell : publicity kit]", "title_annotation": "", "slug": "the-bell-publicity-kit", "creator_credit": "", "credit_line": "", "headline_credit": "", "video_links": [], "record_type": "work", "type": "Object", "is_on_display": false, "last_on_display_place": null, "last_on_display_date": null, "is_context_indigenous": false, "material_description": "", "unpublished": false, "external": false, "first_production_date": null, "commissioned": false, "public_domain": false, "external_references": [], "brief_description": "<p>Publicity kit for the production The Bell (1995), including 2 B&amp;W Stills (Small), 2 Press Kit/ Reviews</p>", "constellations_primary": [], "constellations_other": [], "recommendations": [], "creator_credit_for_label": "", "headline_credit_for_label": "", "title_for_label": "<p>[The Bell : publicity kit]</p>", "description": "<p>Publicity kit for the production The Bell (1995), including 2 B&amp;W Stills (Small), 2 Press Kit/ Reviews</p>", "description_for_label": ["<p>Publicity kit for the production The Bell (1995), including 2 B&amp;W Stills (Small), 2 Press Kit/ Reviews</p>"], "credit_line_for_label": "", "details": [{"label": "Subject category", "display_values": ["Documentation"]}, {"label": "Object Types", "display_values": ["Publicity kit"]}], "stats": {"tap_count": 0}, "links": [], "creators_primary": [], "creators_other": [], "media_note": null, "holdings": [], "part_of": null, "parts": [], "part_siblings": [], "group": null, "group_works": [], "group_siblings": [], "source": {"name": "Vernon", "slug": "vernon"}, "source_identifier": "150253", "eaas_environment_id": null, "production_places": [], "production_dates": [], "labels": [58558]}, {"id": 119071, "acmi_id": "R0002142", "title": "[The Battle of Broken Hill : publicity kit]", "title_annotation": "", "slug": "the-battle-of-broken-hill-publicity-kit", "creator_credit": "", "credit_line": "", "headline_credit": "", "video_links": [], "record_type": "work", "type": "Object", "is_on_display": false, "last_on_display_place": null, "last_on_display_date": null, "is_context_indigenous": false, "material_description": "", "unpublished": false, "external": false, "first_production_date": null, "commissioned": false, "public_domain": false, "external_references": [], "brief_description": "<p>Publicity kit for the production The Battle of Broken Hill (1981), including 4 B&amp;W Stills (Large), 2 Colour Stills (Small), 1 B&amp;W Proof Sheet, 1 Press Kit/ Review, 4 Promo Flyers</p>", "constellations_primary": [], "constellations_other": [], "recommendations": [], "creator_credit_for_label": "", "headline_credit_for_label": "", "title_for_label": "<p>[The Battle of Broken Hill : publicity kit]</p>", "description": "<p>Publicity kit for the production The Battle of Broken Hill (1981), including 4 B&amp;W Stills (Large), 2 Colour Stills (Small), 1 B&amp;W Proof Sheet, 1 Press Kit/ Review, 4 Promo Flyers</p>", "description_for_label": ["<p>Publicity kit for the production The Battle of Broken Hill (1981), including 4 B&amp;W Stills (Large), 2 Colour Stills (Small), 1 B&amp;W Proof Sheet, 1 Press Kit/ Review, 4 Promo Flyers</p>"], "credit_line_for_label": "", "details": [{"label": "Subject category", "display_values": ["Documentation"]}, {"label": "Object Types", "display_values": ["Publicity kit"]}], "stats": {"tap_count": 0}, "links": [], "creators_primary": [], "creators_other": [], "media_note": null, "holdings": [], "part_of": null, "parts": [], "part_siblings": [], "group": null, "group_works": [], "group_siblings": [], "source": {"name": "Vernon", "slug": "vernon"}, "source_identifier": "150229", "eaas_environment_id": null, "production_places": [], "production_dates": [], "labels": [58545]}, {"id": 118967, "acmi_id": "R0002001", "title": "[The Barry Creyton show : publicity kit]", "title_annotation": "", "slug": "the-barry-creyton-show-publicity-kit", "creator_credit": "", "credit_line": "", "headline_credit": "", "video_links": [], "record_type": "work", "type": "Object", "is_on_display": false, "last_on_display_place": null, "last_on_display_date": null, "is_context_indigenous": false, "material_description": "", "unpublished": false, "external": false, "first_production_date": null, "commissioned": false, "public_domain": false, "external_references": [], "brief_description": "<p>Publicity kit for the production The Barry Creyton Show (TV 1967), including 1 B&amp;W Still (Large)</p>", "constellations_primary": [], "constellations_other": [], "recommendations": [], "creator_credit_for_label": "", "headline_credit_for_label": "", "title_for_label": "<p>[The Barry Creyton show : publicity kit]</p>", "description": "<p>Publicity kit for the production The Barry Creyton Show (TV 1967), including 1 B&amp;W Still (Large)</p>", "description_for_label": ["<p>Publicity kit for the production The Barry Creyton Show (TV 1967), including 1 B&amp;W Still (Large)</p>"], "credit_line_for_label": "", "details": [{"label": "Subject category", "display_values": ["Documentation"]}, {"label": "Object Types", "display_values": ["Publicity kit"]}], "stats": {"tap_count": 0}, "links": [], "creators_primary": [], "creators_other": [], "media_note": null, "holdings": [], "part_of": null, "parts": [], "part_siblings": [], "group": null, "group_works": [], "group_siblings": [], "source": {"name": "Vernon", "slug": "vernon"}, "source_identifier": "150034", "eaas_environment_id": null, "production_places": [], "production_dates": [], "labels": [58451]}, {"id": 118585, "acmi_id": "R0001211", "title": "[The Back of beyond : publicity kit]", "title_annotation": "", "slug": "the-back-of-beyond-publicity-kit", "creator_credit": "", "credit_line": "", "headline_credit": "", "video_links": [], "record_type": "work", "type": "Object", "is_on_display": false, "last_on_display_place": null, "last_on_display_date": null, "is_context_indigenous": false, "material_description": "", "unpublished": false, "external": false, "first_production_date": null, "commissioned": false, "public_domain": false, "external_references": [], "brief_description": "<p>Publicity kit for the production Back of Beyond (1954), including 2 B&amp;W Stills (Small)</p>", "constellations_primary": [], "constellations_other": [], "recommendations": [], "creator_credit_for_label": "", "headline_credit_for_label": "", "title_for_label": "<p>[The Back of beyond : publicity kit]</p>", "description": "<p>Publicity kit for the production Back of Beyond (1954), including 2 B&amp;W Stills (Small)</p>", "description_for_label": ["<p>Publicity kit for the production Back of Beyond (1954), including 2 B&amp;W Stills (Small)</p>"], "credit_line_for_label": "", "details": [{"label": "Subject category", "display_values": ["Documentation"]}, {"label": "Object Types", "display_values": ["Publicity kit"]}], "stats": {"tap_count": 0}, "links": [], "creators_primary": [], "creators_other": [], "media_note": null, "holdings": [], "part_of": null, "parts": [], "part_siblings": [], "group": null, "group_works": [], "group_siblings": [], "source": {"name": "Vernon", "slug": "vernon"}, "source_identifier": "149183", "eaas_environment_id": null, "production_places": [], "production_dates": [], "labels": [58080]}, {"id": 91983, "acmi_id": "315171", "title": "[The Automatic portal type wheel lathe for rolling-through s", "title_annotation": "", "slug": "the-automatic-portal-type-wheel-lathe-for-rolling-through-s", "creator_credit": "", "credit_line": "", "headline_credit": "Germany, 1950", "video_links": [], "record_type": "work", "type": "Film", "is_on_display": false, "last_on_display_place": null, "last_on_display_date": null, "is_context_indigenous": false, "material_description": "", "unpublished": false, "external": false, "first_production_date": "1950-01-01T10:00:00+10:00", "commissioned": false, "public_domain": false, "external_references": [], "brief_description": "", "constellations_primary": [], "constellations_other": [], "recommendations": [], "creator_credit_for_label": "", "headline_credit_for_label": "<p>Germany, 1950</p>", "title_for_label": "<p>[The Automatic portal type wheel lathe for rolling-through s</p>", "description": "", "description_for_label": [], "credit_line_for_label": "", "details": [{"label": "Duration", "display_values": ["00:22:48:00"]}, {"label": "Language", "display_values": ["English"]}, {"label": "Subject categories", "display_values": ["Communications, Infrastructure, & Transport&nbsp;→ Machinery", "Mathematics, Science & Technology&nbsp;→ Machinery", "Short films", "Short films&nbsp;→ Short films - Germany"]}, {"label": "Sound/audio", "display_values": ["Sound"]}, {"label": "Colour", "display_values": ["Colour"]}], "stats": {"tap_count": 0}, "links": [], "creators_primary": [], "creators_other": [], "media_note": "Sorry, we don't have images or video for this item.", "holdings": [{"name": "16mm film; Access Print (Section 1)", "identifier": "", "description": ""}], "part_of": null, "parts": [], "part_siblings": [], "group": null, "group_works": [], "group_siblings": [], "source": {"name": "Vernon", "slug": "vernon"}, "source_identifier": "49387", "eaas_environment_id": null, "production_places": [{"id": 18, "name": "Germany", "slug": "germany"}], "production_dates": [{"date": "1950", "notes": "Estimated date", "to_year": "1950"}], "labels": [31473]}, {"id": 119123, "acmi_id": "R0002403", "title": "[The Australian eye : Spirit of the plains : publicity kit]", "title_annotation": "", "slug": "the-australian-eye-spirit-of-the-plains-publicity-kit", "creator_credit": "", "credit_line": "", "headline_credit": "", "video_links": [], "record_type": "work", "type": "Object", "is_on_display": false, "last_on_display_place": null, "last_on_display_date": null, "is_context_indigenous": false, "material_description": "", "unpublished": false, "external": false, "first_production_date": null, "commissioned": false, "public_domain": false, "external_references": [], "brief_description": "<p>Publicity kit for the production The Australian Eye : Spirit of the Plains (1982), including 1 35mm Colour Transparency</p>", "constellations_primary": [], "constellations_other": [], "recommendations": [], "creator_credit_for_label": "", "headline_credit_for_label": "", "title_for_label": "<p>[The Australian eye : Spirit of the plains : publicity kit]</p>", "description": "<p>Publicity kit for the production The Australian Eye : Spirit of the Plains (1982), including 1 35mm Colour Transparency</p>", "description_for_label": ["<p>Publicity kit for the production The Australian Eye : Spirit of the Plains (1982), including 1 35mm Colour Transparency</p>"], "credit_line_for_label": "", "details": [{"label": "Subject category", "display_values": ["Documentation"]}, {"label": "Object Types", "display_values": ["Publicity kit"]}], "stats": {"tap_count": 1}, "links": [], "creators_primary": [], "creators_other": [], "media_note": null, "holdings": [], "part_of": null, "parts": [], "part_siblings": [], "group": null, "group_works": [], "group_siblings": [], "source": {"name": "Vernon", "slug": "vernon"}, "source_identifier": "150825", "eaas_environment_id": null, "production_places": [], "production_dates": [], "labels": [58594]}, {"id": 118959, "acmi_id": "R0001993", "title": "[The Astronomers : publicity kit]", "title_annotation": "", "slug": "the-astronomers-publicity-kit", "creator_credit": "", "credit_line": "", "headline_credit": "", "video_links": [], "record_type": "work", "type": "Object", "is_on_display": false, "last_on_display_place": null, "last_on_display_date": null, "is_context_indigenous": false, "material_description": "", "unpublished": false, "external": false, "first_production_date": null, "commissioned": false, "public_domain": false, "external_references": [], "brief_description": "<p>Publicity kit for the production The Astronomers (TV 1966), including 1 B&amp;W Still (Large)</p>", "constellations_primary": [], "constellations_other": [], "recommendations": [], "creator_credit_for_label": "", "headline_credit_for_label": "", "title_for_label": "<p>[The Astronomers : publicity kit]</p>", "description": "<p>Publicity kit for the production The Astronomers (TV 1966), including 1 B&amp;W Still (Large)</p>", "description_for_label": ["<p>Publicity kit for the production The Astronomers (TV 1966), including 1 B&amp;W Still (Large)</p>"], "credit_line_for_label": "", "details": [{"label": "Subject category", "display_values": ["Documentation"]}, {"label": "Object Types", "display_values": ["Publicity kit"]}], "stats": {"tap_count": 1}, "links": [], "creators_primary": [], "creators_other": [], "media_note": null, "holdings": [], "part_of": null, "parts": [], "part_siblings": [], "group": null, "group_works": [], "group_siblings": [], "source": {"name": "Vernon", "slug": "vernon"}, "source_identifier": "150027", "eaas_environment_id": null, "production_places": [], "production_dates": [], "labels": [58445]}, {"id": 118835, "acmi_id": "R0001547", "title": "[The Artist, the peasant : publicity kit]", "title_annotation": "", "slug": "the-artist-the-peasant-publicity-kit", "creator_credit": "", "credit_line": "", "headline_credit": "", "video_links": [], "record_type": "work", "type": "Object", "is_on_display": false, "last_on_display_place": null, "last_on_display_date": null, "is_context_indigenous": false, "material_description": "", "unpublished": false, "external": false, "first_production_date": null, "commissioned": false, "public_domain": false, "external_references": [], "brief_description": "<p>Publicity kit for the production The Artist, the Peasant (1990), including 2 35mm Colour Transparencies</p>", "constellations_primary": [], "constellations_other": [], "recommendations": [], "creator_credit_for_label": "", "headline_credit_for_label": "", "title_for_label": "<p>[The Artist, the peasant : publicity kit]</p>", "description": "<p>Publicity kit for the production The Artist, the Peasant (1990), including 2 35mm Colour Transparencies</p>", "description_for_label": ["<p>Publicity kit for the production The Artist, the Peasant (1990), including 2 35mm Colour Transparencies</p>"], "credit_line_for_label": "", "details": [{"label": "Subject category", "display_values": ["Documentation"]}, {"label": "Object Types", "display_values": ["Publicity kit"]}], "stats": {"tap_count": 0}, "links": [], "creators_primary": [], "creators_other": [], "media_note": null, "holdings": [], "part_of": null, "parts": [], "part_siblings": [], "group": null, "group_works": [], "group_siblings": [], "source": {"name": "Vernon", "slug": "vernon"}, "source_identifier": "149520", "eaas_environment_id": null, "production_places": [], "production_dates": [], "labels": [58327]}, {"id": 118490, "acmi_id": "R0001104", "title": "[The Alternative : publicity kit]", "title_annotation": "", "slug": "the-alternative-publicity-kit", "creator_credit": "", "credit_line": "", "headline_credit": "", "video_links": [], "record_type": "work", "type": "Object", "is_on_display": false, "last_on_display_place": null, "last_on_display_date": null, "is_context_indigenous": false, "material_description": "", "unpublished": false, "external": false, "first_production_date": null, "commissioned": false, "public_domain": false, "external_references": [], "brief_description": "<p>Publicity kit for the production The Alternative (TV 1976), including 1 B&amp;W Still (Large)</p>", "constellations_primary": [], "constellations_other": [], "recommendations": [], "creator_credit_for_label": "", "headline_credit_for_label": "", "title_for_label": "<p>[The Alternative : publicity kit]</p>", "description": "<p>Publicity kit for the production The Alternative (TV 1976), including 1 B&amp;W Still (Large)</p>", "description_for_label": ["<p>Publicity kit for the production The Alternative (TV 1976), including 1 B&amp;W Still (Large)</p>"], "credit_line_for_label": "", "details": [{"label": "Subject category", "display_values": ["Documentation"]}, {"label": "Object Types", "display_values": ["Publicity kit"]}], "stats": {"tap_count": 1}, "links": [], "creators_primary": [], "creators_other": [], "media_note": null, "holdings": [], "part_of": null, "parts": [], "part_siblings": [], "group": null, "group_works": [], "group_siblings": [], "source": {"name": "Vernon", "slug": "vernon"}, "source_identifier": "149076", "eaas_environment_id": null, "production_places": [], "production_dates": [], "labels": [57986]}]}