{"count": 41723, "next": "https://api.acmi.net.au/works/?page=1936", "previous": "https://api.acmi.net.au/works/?page=1934", "results": [{"id": 110060, "acmi_id": "B2000367", "title": "Earthquake girl & Dazey girl remix", "title_annotation": "", "slug": "earthquake-girl-dazey-girl-remix", "creator_credit": "Jemima Wyman", "credit_line": "", "headline_credit": "", "video_links": [], "record_type": "work", "type": "Film", "is_on_display": false, "last_on_display_place": "ACMI Screen Gallery", "last_on_display_date": "2006-05-15", "is_context_indigenous": false, "material_description": "", "unpublished": false, "external": false, "first_production_date": null, "commissioned": false, "public_domain": false, "external_references": [], "brief_description": "", "constellations_primary": [], "constellations_other": [], "recommendations": [], "creator_credit_for_label": "<p>Jemima Wyman</p>", "headline_credit_for_label": "", "title_for_label": "<p>Earthquake girl &amp; Dazey girl remix</p>", "description": "", "description_for_label": [], "credit_line_for_label": "", "details": [], "stats": {"tap_count": 0}, "links": [], "creators_primary": [{"id": 2638103, "name": "Jemima Wyman", "creator_id": 10938, "creator_wikidata_id": null, "role": "creator", "role_id": 968, "is_primary": true}], "creators_other": [], "media_note": "Sorry, we don't have images or video for this item.", "holdings": [{"name": "DVD [PAL]; Archive copy - not for public screening", "identifier": "", "description": ""}], "part_of": null, "parts": [], "part_siblings": [], "group": null, "group_works": [], "group_siblings": [], "source": {"name": "Vernon", "slug": "vernon"}, "source_identifier": "12801", "eaas_environment_id": null, "production_places": [], "production_dates": [], "labels": [49553]}, {"id": 110059, "acmi_id": "B2000366", "title": "Earthquake girl woodlands", "title_annotation": "", "slug": "earthquake-girl-woodlands", "creator_credit": "Jemima Wyman", "credit_line": "", "headline_credit": "", "video_links": [], "record_type": "work", "type": "Film", "is_on_display": false, "last_on_display_place": "ACMI Screen Gallery", "last_on_display_date": "2006-05-15", "is_context_indigenous": false, "material_description": "", "unpublished": false, "external": false, "first_production_date": null, "commissioned": false, "public_domain": false, "external_references": [], "brief_description": "", "constellations_primary": [], "constellations_other": [], "recommendations": [], "creator_credit_for_label": "<p>Jemima Wyman</p>", "headline_credit_for_label": "", "title_for_label": "<p>Earthquake girl woodlands</p>", "description": "", "description_for_label": [], "credit_line_for_label": "", "details": [], "stats": {"tap_count": 0}, "links": [], "creators_primary": [{"id": 2638102, "name": "Jemima Wyman", "creator_id": 10938, "creator_wikidata_id": null, "role": "creator", "role_id": 968, "is_primary": true}], "creators_other": [], "media_note": "Sorry, we don't have images or video for this item.", "holdings": [{"name": "DVD [PAL]; Archive copy - not for public screening", "identifier": "", "description": ""}], "part_of": null, "parts": [], "part_siblings": [], "group": null, "group_works": [], "group_siblings": [], "source": {"name": "Vernon", "slug": "vernon"}, "source_identifier": "12800", "eaas_environment_id": null, "production_places": [], "production_dates": [], "labels": [49552]}, {"id": 110058, "acmi_id": "B2000365", "title": "Dazey girl", "title_annotation": "", "slug": "dazey-girl", "creator_credit": "Jemima Wyman", "credit_line": "", "headline_credit": "2006", "video_links": [], "record_type": "work", "type": "Film", "is_on_display": false, "last_on_display_place": "ACMI Screen Gallery", "last_on_display_date": "2006-05-15", "is_context_indigenous": false, "material_description": "", "unpublished": false, "external": false, "first_production_date": "2006-01-01T11:00:00+11:00", "commissioned": false, "public_domain": false, "external_references": [], "brief_description": "", "constellations_primary": [], "constellations_other": [], "recommendations": [], "creator_credit_for_label": "<p>Jemima Wyman</p>", "headline_credit_for_label": "<p>2006</p>", "title_for_label": "<p>Dazey girl</p>", "description": "", "description_for_label": [], "credit_line_for_label": "", "details": [], "stats": {"tap_count": 0}, "links": [], "creators_primary": [{"id": 2638101, "name": "Jemima Wyman", "creator_id": 10938, "creator_wikidata_id": null, "role": "creator", "role_id": 968, "is_primary": true}], "creators_other": [], "media_note": "Sorry, we don't have images or video for this item.", "holdings": [{"name": "DVD [PAL]; Archive copy - not for public screening", "identifier": "", "description": ""}], "part_of": null, "parts": [], "part_siblings": [], "group": null, "group_works": [], "group_siblings": [], "source": {"name": "Vernon", "slug": "vernon"}, "source_identifier": "12799", "eaas_environment_id": null, "production_places": [], "production_dates": [{"date": "2006", "notes": "", "to_year": "2006"}], "labels": [49551]}, {"id": 110057, "acmi_id": "B2000364", "title": "Ghana", "title_annotation": "", "slug": "ghana", "creator_credit": "", "credit_line": "", "headline_credit": "Ghana", "video_links": [], "record_type": "work", "type": "Film", "is_on_display": false, "last_on_display_place": "ACMI Screen Gallery", "last_on_display_date": "2006-05-15", "is_context_indigenous": false, "material_description": "", "unpublished": false, "external": false, "first_production_date": null, "commissioned": false, "public_domain": false, "external_references": [], "brief_description": "", "constellations_primary": [], "constellations_other": [], "recommendations": [], "creator_credit_for_label": "", "headline_credit_for_label": "<p>Ghana</p>", "title_for_label": "<p>Ghana</p>", "description": "", "description_for_label": [], "credit_line_for_label": "", "details": [], "stats": {"tap_count": 0}, "links": [], "creators_primary": [], "creators_other": [{"id": 2638100, "name": "Mawuli Afatsiawo", "creator_id": 73661, "creator_wikidata_id": null, "role": "", "role_id": 604, "is_primary": false}], "media_note": "Sorry, we don't have images or video for this item.", "holdings": [{"name": "DVD [PAL]; Archive copy - not for public screening", "identifier": "", "description": ""}], "part_of": null, "parts": [], "part_siblings": [], "group": null, "group_works": [], "group_siblings": [], "source": {"name": "Vernon", "slug": "vernon"}, "source_identifier": "12792", "eaas_environment_id": null, "production_places": [{"id": 173, "name": "Ghana", "slug": "ghana"}], "production_dates": [], "labels": [49550]}, {"id": 110056, "acmi_id": "B2000363", "title": "Man in a box. On a journey", "title_annotation": "", "slug": "man-in-a-box-on-a-journey", "creator_credit": "", "credit_line": "", "headline_credit": "Ghana", "video_links": [], "record_type": "work", "type": "Film", "is_on_display": false, "last_on_display_place": "ACMI Screen Gallery", "last_on_display_date": "2006-05-15", "is_context_indigenous": false, "material_description": "", "unpublished": false, "external": false, "first_production_date": null, "commissioned": false, "public_domain": false, "external_references": [], "brief_description": "", "constellations_primary": [], "constellations_other": [], "recommendations": [], "creator_credit_for_label": "", "headline_credit_for_label": "<p>Ghana</p>", "title_for_label": "<p>Man in a box. On a journey</p>", "description": "", "description_for_label": [], "credit_line_for_label": "", "details": [], "stats": {"tap_count": 0}, "links": [], "creators_primary": [], "creators_other": [{"id": 2638099, "name": "Mawuli Afatsiawo", "creator_id": 73661, "creator_wikidata_id": null, "role": "", "role_id": 604, "is_primary": false}], "media_note": "Sorry, we don't have images or video for this item.", "holdings": [{"name": "DVD [PAL]; Archive copy - not for public screening", "identifier": "", "description": ""}], "part_of": null, "parts": [], "part_siblings": [], "group": null, "group_works": [], "group_siblings": [], "source": {"name": "Vernon", "slug": "vernon"}, "source_identifier": "12791", "eaas_environment_id": null, "production_places": [{"id": 173, "name": "Ghana", "slug": "ghana"}], "production_dates": [], "labels": [49549]}, {"id": 110055, "acmi_id": "B2000362", "title": "Dazey girl", "title_annotation": "", "slug": "dazey-girl", "creator_credit": "Jemima Wyman", "credit_line": "", "headline_credit": "2006", "video_links": [], "record_type": "work", "type": "Film", "is_on_display": false, "last_on_display_place": "ACMI Screen Gallery", "last_on_display_date": "2006-05-15", "is_context_indigenous": false, "material_description": "", "unpublished": false, "external": false, "first_production_date": "2006-01-01T11:00:00+11:00", "commissioned": false, "public_domain": false, "external_references": [], "brief_description": "<p>(2006 Contemporary Commonwealth: Opening night performance)</p>", "constellations_primary": [], "constellations_other": [], "recommendations": [], "creator_credit_for_label": "<p>Jemima Wyman</p>", "headline_credit_for_label": "<p>2006</p>", "title_for_label": "<p>Dazey girl</p>", "description": "<p>(2006 Contemporary Commonwealth: Opening night performance)</p>", "description_for_label": ["<p>(2006 Contemporary Commonwealth: Opening night performance)</p>"], "credit_line_for_label": "", "details": [], "stats": {"tap_count": 0}, "links": [], "creators_primary": [{"id": 2638098, "name": "Jemima Wyman", "creator_id": 10938, "creator_wikidata_id": null, "role": "creator", "role_id": 968, "is_primary": true}], "creators_other": [], "media_note": "Sorry, we don't have images or video for this item.", "holdings": [{"name": "DVD [PAL]; Archive copy - not for public screening", "identifier": "", "description": ""}, {"name": "CD ROM; Archive copy - not for public screening", "identifier": "", "description": ""}], "part_of": null, "parts": [], "part_siblings": [], "group": null, "group_works": [], "group_siblings": [], "source": {"name": "Vernon", "slug": "vernon"}, "source_identifier": "12777", "eaas_environment_id": null, "production_places": [], "production_dates": [{"date": "2006", "notes": "", "to_year": "2006"}], "labels": [49548]}, {"id": 110050, "acmi_id": "B2000358", "title": "Vapour", "title_annotation": "", "slug": "vapour", "creator_credit": "Berni Searle", "credit_line": "", "headline_credit": "2004", "video_links": [], "record_type": "work", "type": "Film", "is_on_display": false, "last_on_display_place": "ACMI Screen Gallery", "last_on_display_date": "2006-05-15", "is_context_indigenous": false, "material_description": "", "unpublished": false, "external": false, "first_production_date": "2004-01-01T11:00:00+11:00", "commissioned": false, "public_domain": false, "external_references": [], "brief_description": "", "constellations_primary": [], "constellations_other": [], "recommendations": [], "creator_credit_for_label": "<p>Berni Searle</p>", "headline_credit_for_label": "<p>2004</p>", "title_for_label": "<p>Vapour</p>", "description": "", "description_for_label": [], "credit_line_for_label": "", "details": [], "stats": {"tap_count": 0}, "links": [], "creators_primary": [{"id": 2638097, "name": "Berni Searle", "creator_id": 10898, "creator_wikidata_id": null, "role": "creator", "role_id": 968, "is_primary": true}], "creators_other": [], "media_note": "Sorry, we don't have images or video for this item.", "holdings": [{"name": "DVD [PAL]; Archive copy - not for public screening", "identifier": "", "description": ""}], "part_of": null, "parts": [], "part_siblings": [], "group": null, "group_works": [], "group_siblings": [], "source": {"name": "Vernon", "slug": "vernon"}, "source_identifier": "12765", "eaas_environment_id": null, "production_places": [], "production_dates": [{"date": "2004", "notes": "", "to_year": "2004"}], "labels": [49543]}, {"id": 110049, "acmi_id": "B2000357", "title": "Home and away", "title_annotation": "", "slug": "home-and-away", "creator_credit": "Berni Searle", "credit_line": "", "headline_credit": "2003", "video_links": [], "record_type": "work", "type": "Film", "is_on_display": false, "last_on_display_place": "ACMI Screen Gallery", "last_on_display_date": "2006-05-15", "is_context_indigenous": false, "material_description": "", "unpublished": false, "external": false, "first_production_date": "2003-01-01T11:00:00+11:00", "commissioned": false, "public_domain": false, "external_references": [], "brief_description": "", "constellations_primary": [], "constellations_other": [], "recommendations": [], "creator_credit_for_label": "<p>Berni Searle</p>", "headline_credit_for_label": "<p>2003</p>", "title_for_label": "<p>Home and away</p>", "description": "", "description_for_label": [], "credit_line_for_label": "", "details": [], "stats": {"tap_count": 0}, "links": [], "creators_primary": [{"id": 2638096, "name": "Berni Searle", "creator_id": 10898, "creator_wikidata_id": null, "role": "creator", "role_id": 968, "is_primary": true}], "creators_other": [], "media_note": "Sorry, we don't have images or video for this item.", "holdings": [{"name": "DVD [PAL]; Archive copy - not for public screening", "identifier": "", "description": ""}], "part_of": null, "parts": [], "part_siblings": [], "group": null, "group_works": [], "group_siblings": [], "source": {"name": "Vernon", "slug": "vernon"}, "source_identifier": "12760", "eaas_environment_id": null, "production_places": [], "production_dates": [{"date": "2003", "notes": "", "to_year": "2003"}], "labels": [49542]}, {"id": 110019, "acmi_id": "B2000354", "title": "Who am I...what am I", "title_annotation": "", "slug": "who-am-iwhat-am-i", "creator_credit": "Bill Steller and Tom Manefield", "credit_line": "", "headline_credit": "Australia", "video_links": [], "record_type": "work", "type": "Film", "is_on_display": false, "last_on_display_place": null, "last_on_display_date": null, "is_context_indigenous": false, "material_description": "", "unpublished": false, "external": false, "first_production_date": null, "commissioned": false, "public_domain": false, "external_references": [], "brief_description": "", "constellations_primary": [], "constellations_other": [], "recommendations": [], "creator_credit_for_label": "<p>Bill Steller and Tom Manefield</p>", "headline_credit_for_label": "<p>Australia</p>", "title_for_label": "<p>Who am I&#8230;what am I</p>", "description": "", "description_for_label": [], "credit_line_for_label": "", "details": [], "stats": {"tap_count": 0}, "links": [], "creators_primary": [{"id": 2638003, "name": "Bill Steller", "creator_id": 10899, "creator_wikidata_id": "Q121078893", "role": "director", "role_id": 938, "is_primary": true}, {"id": 2638002, "name": "Tom Manefield", "creator_id": 7928, "creator_wikidata_id": null, "role": "producer", "role_id": 1089, "is_primary": true}], "creators_other": [], "media_note": "Sorry, we don't have images or video for this item.", "holdings": [{"name": "Digital Betacam [PAL]; Master", "identifier": "", "description": ""}, {"name": "Digital Betacam [PAL]; Sub-master", "identifier": "", "description": ""}, {"name": "VHS [PAL]; Reference - timecoded", "identifier": "", "description": ""}], "part_of": null, "parts": [], "part_siblings": [], "group": {"id": 115632, "acmi_id": "S01480", "title": "Chequerboard", "title_annotation": "", "slug": "chequerboard", "creator_credit": "", "credit_line": "", "headline_credit": "Australia", "video_links": [], "record_type": "group", "type": "Film", "is_on_display": false, "last_on_display_place": null, "last_on_display_date": null, "is_context_indigenous": false, "material_description": "", "unpublished": false, "external": false, "first_production_date": null, "commissioned": false, "public_domain": false, "external_references": []}, "group_works": [], "group_siblings": [{"id": 96324, "acmi_id": "503633", "title": "If we don't go, we'll never know, will we?", "title_annotation": "", "slug": "if-we-dont-go-well-never-know-will-we", "creator_credit": "Constance Bernstein, Russell Toose and ABC-TV (Australia)", "credit_line": "", "headline_credit": "Australia, 1965", "video_links": [], "record_type": "work", "type": "TV show", "is_on_display": false, "last_on_display_place": null, "last_on_display_date": null, "is_context_indigenous": false, "material_description": "", "unpublished": false, "external": false, "first_production_date": "1965-01-01T10:00:00+10:00", "commissioned": false, "public_domain": false, "external_references": []}, {"id": 96322, "acmi_id": "503631", "title": "It's easier in the country", "title_annotation": "", "slug": "its-easier-in-the-country", "creator_credit": "ABC", "credit_line": "", "headline_credit": "Australia, 1973", "video_links": [], "record_type": "work", "type": "TV show", "is_on_display": false, "last_on_display_place": null, "last_on_display_date": null, "is_context_indigenous": false, "material_description": "", "unpublished": false, "external": false, "first_production_date": "1973-01-01T11:00:00+11:00", "commissioned": false, "public_domain": false, "external_references": []}, {"id": 110017, "acmi_id": "B2000353", "title": "My brown skin baby, they take 'im away", "title_annotation": "", "slug": "my-brown-skin-baby-they-take-im-away", "creator_credit": "Bill Steller and Tom Manefield", "credit_line": "", "headline_credit": "Australia", "video_links": [], "record_type": "work", "type": "Film", "is_on_display": false, "last_on_display_place": null, "last_on_display_date": null, "is_context_indigenous": false, "material_description": "", "unpublished": false, "external": false, "first_production_date": null, "commissioned": false, "public_domain": false, "external_references": []}], "source": {"name": "Vernon", "slug": "vernon"}, "source_identifier": "12547", "eaas_environment_id": null, "production_places": [{"id": 3, "name": "Australia", "slug": "australia"}], "production_dates": [], "labels": [49512]}, {"id": 110017, "acmi_id": "B2000353", "title": "My brown skin baby, they take 'im away", "title_annotation": "", "slug": "my-brown-skin-baby-they-take-im-away", "creator_credit": "Bill Steller and Tom Manefield", "credit_line": "", "headline_credit": "Australia", "video_links": [], "record_type": "work", "type": "Film", "is_on_display": false, "last_on_display_place": null, "last_on_display_date": null, "is_context_indigenous": false, "material_description": "", "unpublished": false, "external": false, "first_production_date": null, "commissioned": false, "public_domain": false, "external_references": [], "brief_description": "", "constellations_primary": [], "constellations_other": [], "recommendations": [], "creator_credit_for_label": "<p>Bill Steller and Tom Manefield</p>", "headline_credit_for_label": "<p>Australia</p>", "title_for_label": "<p>My brown skin baby, they take &#8216;im away</p>", "description": "", "description_for_label": [], "credit_line_for_label": "", "details": [], "stats": {"tap_count": 0}, "links": [], "creators_primary": [{"id": 2638001, "name": "Bill Steller", "creator_id": 10899, "creator_wikidata_id": "Q121078893", "role": "director", "role_id": 938, "is_primary": true}, {"id": 2638000, "name": "Tom Manefield", "creator_id": 7928, "creator_wikidata_id": null, "role": "producer", "role_id": 1089, "is_primary": true}], "creators_other": [], "media_note": "Sorry, we don't have images or video for this item.", "holdings": [{"name": "Digital Betacam [PAL]; Master", "identifier": "", "description": ""}, {"name": "Digital Betacam [PAL]; Sub-master", "identifier": "", "description": ""}, {"name": "VHS [PAL]; Reference - timecoded", "identifier": "", "description": ""}], "part_of": null, "parts": [], "part_siblings": [], "group": {"id": 115632, "acmi_id": "S01480", "title": "Chequerboard", "title_annotation": "", "slug": "chequerboard", "creator_credit": "", "credit_line": "", "headline_credit": "Australia", "video_links": [], "record_type": "group", "type": "Film", "is_on_display": false, "last_on_display_place": null, "last_on_display_date": null, "is_context_indigenous": false, "material_description": "", "unpublished": false, "external": false, "first_production_date": null, "commissioned": false, "public_domain": false, "external_references": []}, "group_works": [], "group_siblings": [{"id": 96324, "acmi_id": "503633", "title": "If we don't go, we'll never know, will we?", "title_annotation": "", "slug": "if-we-dont-go-well-never-know-will-we", "creator_credit": "Constance Bernstein, Russell Toose and ABC-TV (Australia)", "credit_line": "", "headline_credit": "Australia, 1965", "video_links": [], "record_type": "work", "type": "TV show", "is_on_display": false, "last_on_display_place": null, "last_on_display_date": null, "is_context_indigenous": false, "material_description": "", "unpublished": false, "external": false, "first_production_date": "1965-01-01T10:00:00+10:00", "commissioned": false, "public_domain": false, "external_references": []}, {"id": 96322, "acmi_id": "503631", "title": "It's easier in the country", "title_annotation": "", "slug": "its-easier-in-the-country", "creator_credit": "ABC", "credit_line": "", "headline_credit": "Australia, 1973", "video_links": [], "record_type": "work", "type": "TV show", "is_on_display": false, "last_on_display_place": null, "last_on_display_date": null, "is_context_indigenous": false, "material_description": "", "unpublished": false, "external": false, "first_production_date": "1973-01-01T11:00:00+11:00", "commissioned": false, "public_domain": false, "external_references": []}, {"id": 110019, "acmi_id": "B2000354", "title": "Who am I...what am I", "title_annotation": "", "slug": "who-am-iwhat-am-i", "creator_credit": "Bill Steller and Tom Manefield", "credit_line": "", "headline_credit": "Australia", "video_links": [], "record_type": "work", "type": "Film", "is_on_display": false, "last_on_display_place": null, "last_on_display_date": null, "is_context_indigenous": false, "material_description": "", "unpublished": false, "external": false, "first_production_date": null, "commissioned": false, "public_domain": false, "external_references": []}], "source": {"name": "Vernon", "slug": "vernon"}, "source_identifier": "12546", "eaas_environment_id": null, "production_places": [{"id": 3, "name": "Australia", "slug": "australia"}], "production_dates": [], "labels": [49510]}]}