{"count": 41722, "next": "https://api.acmi.net.au/works/?page=3087", "previous": "https://api.acmi.net.au/works/?page=3085", "results": [{"id": 118446, "acmi_id": "R0001054", "title": "[Thank god he met Lizzie : publicity kit]", "title_annotation": "", "slug": "thank-god-he-met-lizzie-publicity-kit", "creator_credit": "", "credit_line": "", "headline_credit": "", "video_links": [], "record_type": "work", "type": "Object", "is_on_display": false, "last_on_display_place": null, "last_on_display_date": null, "is_context_indigenous": false, "material_description": "", "unpublished": false, "external": false, "first_production_date": null, "commissioned": false, "public_domain": false, "external_references": [], "brief_description": "<p>Publicity kit for the production Thank God He Met Lizzie (1997), including 4 B&amp;W Stills (Large), 19 35mm Colour Transparencies, 1 Press Kit</p>", "constellations_primary": [], "constellations_other": [], "recommendations": [], "title_for_label": "<p>[Thank god he met Lizzie : publicity kit]</p>", "creator_credit_for_label": "", "headline_credit_for_label": "", "description": "<p>Publicity kit for the production Thank God He Met Lizzie (1997), including 4 B&amp;W Stills (Large), 19 35mm Colour Transparencies, 1 Press Kit</p>", "description_for_label": ["<p>Publicity kit for the production Thank God He Met Lizzie (1997), including 4 B&amp;W Stills (Large), 19 35mm Colour Transparencies, 1 Press Kit</p>"], "credit_line_for_label": "", "details": [{"label": "Subject category", "display_values": ["Documentation"]}, {"label": "Object Types", "display_values": ["Publicity kit"]}], "stats": {"tap_count": 2}, "links": [], "creators_primary": [], "creators_other": [], "media_note": null, "holdings": [], "part_of": null, "parts": [], "part_siblings": [], "group": null, "group_works": [], "group_siblings": [], "source": {"name": "Vernon", "slug": "vernon"}, "source_identifier": "149027", "eaas_environment_id": null, "production_places": [], "production_dates": [], "labels": [57944]}, {"id": 118445, "acmi_id": "R0001053", "title": "[Wake in fright : publicity kit]", "title_annotation": "", "slug": "wake-in-fright-publicity-kit", "creator_credit": "", "credit_line": "", "headline_credit": "", "video_links": [], "record_type": "work", "type": "Object", "is_on_display": false, "last_on_display_place": null, "last_on_display_date": null, "is_context_indigenous": false, "material_description": "", "unpublished": false, "external": false, "first_production_date": null, "commissioned": false, "public_domain": false, "external_references": [], "brief_description": "<p>Publicity kit for the production Wake In Fright (1971), including 2 B&amp;W Stills (Large), 3 Lobby Cards</p>", "constellations_primary": [], "constellations_other": [], "recommendations": [], "title_for_label": "<p>[Wake in fright : publicity kit]</p>", "creator_credit_for_label": "", "headline_credit_for_label": "", "description": "<p>Publicity kit for the production Wake In Fright (1971), including 2 B&amp;W Stills (Large), 3 Lobby Cards</p>", "description_for_label": ["<p>Publicity kit for the production Wake In Fright (1971), including 2 B&amp;W Stills (Large), 3 Lobby Cards</p>"], "credit_line_for_label": "", "details": [{"label": "Subject category", "display_values": ["Documentation"]}, {"label": "Object Types", "display_values": ["Publicity kit"]}], "stats": {"tap_count": 0}, "links": [], "creators_primary": [], "creators_other": [], "media_note": null, "holdings": [], "part_of": null, "parts": [], "part_siblings": [], "group": null, "group_works": [], "group_siblings": [], "source": {"name": "Vernon", "slug": "vernon"}, "source_identifier": "149026", "eaas_environment_id": null, "production_places": [], "production_dates": [], "labels": [57943]}, {"id": 118441, "acmi_id": "R0001044", "title": "[The Sentimental bloke (1919) : publicity kit]", "title_annotation": "", "slug": "the-sentimental-bloke-1919-publicity-kit", "creator_credit": "", "credit_line": "", "headline_credit": "1919", "video_links": [], "record_type": "work", "type": "Object", "is_on_display": false, "last_on_display_place": null, "last_on_display_date": null, "is_context_indigenous": false, "material_description": "", "unpublished": false, "external": false, "first_production_date": "1919-01-01T10:00:00+10:00", "commissioned": false, "public_domain": false, "external_references": [], "brief_description": "<p>Publicity kit for the production The Sentimental Bloke (1919), including 10 B&amp;W Stills (Large), 6 B&amp;W Stills (Small), 1 B&amp;W Proof Sheet, 1 Press Kit/ Review, 5 B&amp;W Negative Strips</p>", "constellations_primary": [], "constellations_other": [], "recommendations": [], "title_for_label": "<p>[The Sentimental bloke (1919) : publicity kit]</p>", "creator_credit_for_label": "", "headline_credit_for_label": "<p>1919</p>", "description": "<p>Publicity kit for the production The Sentimental Bloke (1919), including 10 B&amp;W Stills (Large), 6 B&amp;W Stills (Small), 1 B&amp;W Proof Sheet, 1 Press Kit/ Review, 5 B&amp;W Negative Strips</p>", "description_for_label": ["<p>Publicity kit for the production The Sentimental Bloke (1919), including 10 B&amp;W Stills (Large), 6 B&amp;W Stills (Small), 1 B&amp;W Proof Sheet, 1 Press Kit/ Review, 5 B&amp;W Negative Strips</p>"], "credit_line_for_label": "", "details": [{"label": "Subject category", "display_values": ["Documentation"]}, {"label": "Object Types", "display_values": ["Publicity kit"]}], "stats": {"tap_count": 0}, "links": [], "creators_primary": [], "creators_other": [], "media_note": null, "holdings": [], "part_of": null, "parts": [], "part_siblings": [], "group": null, "group_works": [], "group_siblings": [], "source": {"name": "Vernon", "slug": "vernon"}, "source_identifier": "149017", "eaas_environment_id": null, "production_places": [], "production_dates": [{"date": "1919", "notes": "", "to_year": "1919"}], "labels": [57939]}, {"id": 118440, "acmi_id": "R0001043", "title": "[The Delinquents : publicity kit]", "title_annotation": "", "slug": "the-delinquents-publicity-kit", "creator_credit": "", "credit_line": "", "headline_credit": "", "video_links": [], "record_type": "work", "type": "Object", "is_on_display": false, "last_on_display_place": null, "last_on_display_date": null, "is_context_indigenous": false, "material_description": "", "unpublished": false, "external": false, "first_production_date": null, "commissioned": false, "public_domain": false, "external_references": [], "brief_description": "<p>Publicity kit for the production Delinquents (1989), including 17 B&amp;W Stills (Large), 1 B&amp;W Still (Small), 4 35mm Colour Transparencies, 1 Press Kit</p>", "constellations_primary": [], "constellations_other": [], "recommendations": [], "title_for_label": "<p>[The Delinquents : publicity kit]</p>", "creator_credit_for_label": "", "headline_credit_for_label": "", "description": "<p>Publicity kit for the production Delinquents (1989), including 17 B&amp;W Stills (Large), 1 B&amp;W Still (Small), 4 35mm Colour Transparencies, 1 Press Kit</p>", "description_for_label": ["<p>Publicity kit for the production Delinquents (1989), including 17 B&amp;W Stills (Large), 1 B&amp;W Still (Small), 4 35mm Colour Transparencies, 1 Press Kit</p>"], "credit_line_for_label": "", "details": [{"label": "Subject category", "display_values": ["Documentation"]}, {"label": "Object Types", "display_values": ["Publicity kit"]}], "stats": {"tap_count": 0}, "links": [], "creators_primary": [], "creators_other": [], "media_note": null, "holdings": [], "part_of": null, "parts": [], "part_siblings": [], "group": null, "group_works": [], "group_siblings": [], "source": {"name": "Vernon", "slug": "vernon"}, "source_identifier": "149016", "eaas_environment_id": null, "production_places": [], "production_dates": [], "labels": [57938]}, {"id": 118439, "acmi_id": "R0001042", "title": "[The Night the prowler : publicity kit]", "title_annotation": "", "slug": "the-night-the-prowler-publicity-kit", "creator_credit": "", "credit_line": "", "headline_credit": "", "video_links": [], "record_type": "work", "type": "Object", "is_on_display": false, "last_on_display_place": null, "last_on_display_date": null, "is_context_indigenous": false, "material_description": "", "unpublished": false, "external": false, "first_production_date": null, "commissioned": false, "public_domain": false, "external_references": [], "brief_description": "<p>Publicity kit for the production The Night, the Prowler (1978), including 10 B&amp;W Stills (Large), 1 Lobby Card, 1 Colour Transparency (Large)</p>", "constellations_primary": [], "constellations_other": [], "recommendations": [], "title_for_label": "<p>[The Night the prowler : publicity kit]</p>", "creator_credit_for_label": "", "headline_credit_for_label": "", "description": "<p>Publicity kit for the production The Night, the Prowler (1978), including 10 B&amp;W Stills (Large), 1 Lobby Card, 1 Colour Transparency (Large)</p>", "description_for_label": ["<p>Publicity kit for the production The Night, the Prowler (1978), including 10 B&amp;W Stills (Large), 1 Lobby Card, 1 Colour Transparency (Large)</p>"], "credit_line_for_label": "", "details": [{"label": "Subject category", "display_values": ["Documentation"]}, {"label": "Object Types", "display_values": ["Publicity kit"]}], "stats": {"tap_count": 0}, "links": [], "creators_primary": [], "creators_other": [], "media_note": null, "holdings": [], "part_of": null, "parts": [], "part_siblings": [], "group": null, "group_works": [], "group_siblings": [], "source": {"name": "Vernon", "slug": "vernon"}, "source_identifier": "149015", "eaas_environment_id": null, "production_places": [], "production_dates": [], "labels": [57937]}, {"id": 118434, "acmi_id": "R0001038", "title": "[Crawfords Australia : publicity kit]", "title_annotation": "", "slug": "crawfords-australia-publicity-kit", "creator_credit": "", "credit_line": "", "headline_credit": "", "video_links": [], "record_type": "work", "type": "Object", "is_on_display": false, "last_on_display_place": null, "last_on_display_date": null, "is_context_indigenous": false, "material_description": "", "unpublished": false, "external": false, "first_production_date": null, "commissioned": false, "public_domain": false, "external_references": [], "brief_description": "<p>Publicity kit for Crawfords Australia (Hector Crawford and Company), including 3 B&amp;W Stills (Large), 1 B&amp;W Still (Small), 1 Press release</p>", "constellations_primary": [], "constellations_other": [], "recommendations": [], "title_for_label": "<p>[Crawfords Australia : publicity kit]</p>", "creator_credit_for_label": "", "headline_credit_for_label": "", "description": "<p>Publicity kit for Crawfords Australia (Hector Crawford and Company), including 3 B&amp;W Stills (Large), 1 B&amp;W Still (Small), 1 Press release</p>", "description_for_label": ["<p>Publicity kit for Crawfords Australia (Hector Crawford and Company), including 3 B&amp;W Stills (Large), 1 B&amp;W Still (Small), 1 Press release</p>"], "credit_line_for_label": "", "details": [{"label": "Subject category", "display_values": ["Documentation"]}, {"label": "Object Types", "display_values": ["Publicity kit"]}], "stats": {"tap_count": 0}, "links": [], "creators_primary": [], "creators_other": [], "media_note": null, "holdings": [], "part_of": null, "parts": [], "part_siblings": [], "group": null, "group_works": [], "group_siblings": [], "source": {"name": "Vernon", "slug": "vernon"}, "source_identifier": "149011", "eaas_environment_id": null, "production_places": [], "production_dates": [], "labels": [57933]}, {"id": 118431, "acmi_id": "R0001035", "title": "[Channel 0/28 : publicity kit]", "title_annotation": "", "slug": "channel-028-publicity-kit", "creator_credit": "", "credit_line": "", "headline_credit": "", "video_links": [], "record_type": "work", "type": "Object", "is_on_display": false, "last_on_display_place": null, "last_on_display_date": null, "is_context_indigenous": false, "material_description": "", "unpublished": false, "external": false, "first_production_date": null, "commissioned": false, "public_domain": false, "external_references": [], "brief_description": "<p>Publicity kit for the production Channel 0/28, including 27 B&amp;W Stills (Large), 10 B&amp;W Stills (Small), 3 B&amp;W Proof Sheets, 8 staff profiles [Xavier de Barcenas, David Stratton, Basia Bonkowski, Diana Ashley, Michela Rupena, Astrid Russell, George Donikian, Noulie Skoumbas]</p>", "constellations_primary": [], "constellations_other": [], "recommendations": [], "title_for_label": "<p>[Channel 0/28 : publicity kit]</p>", "creator_credit_for_label": "", "headline_credit_for_label": "", "description": "<p>Publicity kit for the production Channel 0/28, including 27 B&amp;W Stills (Large), 10 B&amp;W Stills (Small), 3 B&amp;W Proof Sheets, 8 staff profiles [Xavier de Barcenas, David Stratton, Basia Bonkowski, Diana Ashley, Michela Rupena, Astrid Russell, George Donikian, Noulie Skoumbas]</p>", "description_for_label": ["<p>Publicity kit for the production Channel 0/28, including 27 B&amp;W Stills (Large), 10 B&amp;W Stills (Small), 3 B&amp;W Proof Sheets, 8 staff profiles [Xavier de Barcenas, David Stratton, Basia Bonkowski, Diana Ashley, Michela Rupena, Astrid Russell, George Donikian, Noulie Skoumbas]</p>"], "credit_line_for_label": "", "details": [{"label": "Subject category", "display_values": ["Documentation"]}, {"label": "Object Types", "display_values": ["Publicity kit"]}], "stats": {"tap_count": 0}, "links": [], "creators_primary": [], "creators_other": [], "media_note": null, "holdings": [], "part_of": null, "parts": [], "part_siblings": [], "group": null, "group_works": [], "group_siblings": [], "source": {"name": "Vernon", "slug": "vernon"}, "source_identifier": "149008", "eaas_environment_id": null, "production_places": [], "production_dates": [], "labels": [57930]}, {"id": 118424, "acmi_id": "R0001023", "title": "[The Quiet room : publicity kit]", "title_annotation": "", "slug": "the-quiet-room-publicity-kit", "creator_credit": "", "credit_line": "", "headline_credit": "", "video_links": [], "record_type": "work", "type": "Object", "is_on_display": false, "last_on_display_place": null, "last_on_display_date": null, "is_context_indigenous": false, "material_description": "", "unpublished": false, "external": false, "first_production_date": null, "commissioned": false, "public_domain": false, "external_references": [], "brief_description": "<p>Publicity kit for the production The Quiet Room (1996), including 3 35mm Colour Transparencies, 1 Press Kit/ Review, 62 Colour Negative Strips</p>", "constellations_primary": [], "constellations_other": [], "recommendations": [], "title_for_label": "<p>[The Quiet room : publicity kit]</p>", "creator_credit_for_label": "", "headline_credit_for_label": "", "description": "<p>Publicity kit for the production The Quiet Room (1996), including 3 35mm Colour Transparencies, 1 Press Kit/ Review, 62 Colour Negative Strips</p>", "description_for_label": ["<p>Publicity kit for the production The Quiet Room (1996), including 3 35mm Colour Transparencies, 1 Press Kit/ Review, 62 Colour Negative Strips</p>"], "credit_line_for_label": "", "details": [{"label": "Subject category", "display_values": ["Documentation"]}, {"label": "Object Types", "display_values": ["Publicity kit"]}], "stats": {"tap_count": 0}, "links": [], "creators_primary": [], "creators_other": [], "media_note": null, "holdings": [], "part_of": null, "parts": [], "part_siblings": [], "group": null, "group_works": [], "group_siblings": [], "source": {"name": "Vernon", "slug": "vernon"}, "source_identifier": "148996", "eaas_environment_id": null, "production_places": [], "production_dates": [], "labels": [57923]}, {"id": 93159, "acmi_id": "316545", "title": "Olinda festival, 1952: festival presentations (CD)", "title_annotation": "", "slug": "olinda-festival-1952-festival-presentations-cd", "creator_credit": "", "credit_line": "", "headline_credit": "Australia, 1952", "video_links": [], "record_type": "work", "type": "Film", "is_on_display": false, "last_on_display_place": null, "last_on_display_date": null, "is_context_indigenous": false, "material_description": "", "unpublished": false, "external": false, "first_production_date": "1952-01-01T10:00:00+10:00", "commissioned": false, "public_domain": false, "external_references": [], "brief_description": "<p>Audio recording of the 1952 Olinda Festival (later known as the Melbourne Film Festival), attended by over 600 film enthusiasts at two venues - Olinda and Sassafras - 26/01/1952 to the 28/01/1952. Interviewees: A. F. Bottomley, Pat Hanna, Stanley Hanna. Speakers include: G. S. Browne, Wilfred Selwyn Kent Hughes, Alan Ken Stout.</p>", "constellations_primary": [], "constellations_other": [], "recommendations": [], "title_for_label": "<p>Olinda festival, 1952: festival presentations (CD)</p>", "creator_credit_for_label": "", "headline_credit_for_label": "<p>Australia, 1952</p>", "description": "<p>Audio recording of the 1952 Olinda Festival (later known as the Melbourne Film Festival), attended by over 600 film enthusiasts at two venues - Olinda and Sassafras - 26/01/1952 to the 28/01/1952. Interviewees: A. F. Bottomley, Pat Hanna, Stanley Hanna. Speakers include: G. S. Browne, Wilfred Selwyn Kent Hughes, Alan Ken Stout.</p>", "description_for_label": ["<p>Audio recording of the 1952 Olinda Festival (later known as the Melbourne Film Festival), attended by over 600 film enthusiasts at two venues - Olinda and Sassafras - 26/01/1952 to the 28/01/1952. Interviewees: A. F. Bottomley, Pat Hanna, Stanley Hanna. Speakers include: G. S. Browne, Wilfred Selwyn Kent Hughes, Alan Ken Stout.</p>"], "credit_line_for_label": "", "details": [{"label": "Duration", "display_values": ["00:15:00:00"]}, {"label": "Language", "display_values": ["English"]}, {"label": "Subject categories", "display_values": ["Advertising, Film, Journalism, Mass Media & TV&nbsp;→ Film festivals - Australia - Melbourne - Awards", "Advertising, Film, Journalism, Mass Media & TV&nbsp;→ Motion pictures - Appreciation", "Advertising, Film, Journalism, Mass Media & TV&nbsp;→ Motion pictures - Australia - History", "Short films", "Short films&nbsp;→ Short films - Australia"]}, {"label": "Sound/audio", "display_values": ["Sound"]}, {"label": "Colour", "display_values": ["Colour"]}], "stats": {"tap_count": 0}, "links": [], "creators_primary": [], "creators_other": [{"id": 1786252, "name": "ScreenSound Australia", "creator_id": 16130, "creator_wikidata_id": "Q2565882", "role": "distributor", "role_id": 437, "is_primary": false}], "media_note": "Sorry, we don't have images or video for this item.", "holdings": [{"name": "CD ROM; Access Print (Section 1)", "identifier": "", "description": ""}], "part_of": null, "parts": [], "part_siblings": [], "group": null, "group_works": [], "group_siblings": [], "source": {"name": "Vernon", "slug": "vernon"}, "source_identifier": "50696", "eaas_environment_id": null, "production_places": [{"id": 3, "name": "Australia", "slug": "australia"}], "production_dates": [{"date": "1952", "notes": "Produced", "to_year": "1952"}], "labels": [32662]}, {"id": 92290, "acmi_id": "315521", "title": "Making multicultural Australia: a multimedia documentary (PC & MAC)", "title_annotation": "", "slug": "making-multicultural-australia-a-multimedia-documentary-pc-mac", "creator_credit": "New South Wales. Board of Studies. Interactive Design Group", "credit_line": "", "headline_credit": "Australia, 1999", "video_links": [], "record_type": "work", "type": "Film", "is_on_display": false, "last_on_display_place": null, "last_on_display_date": null, "is_context_indigenous": false, "material_description": "", "unpublished": false, "external": false, "first_production_date": "1999-01-01T11:00:00+11:00", "commissioned": false, "public_domain": false, "external_references": [], "brief_description": "<p>Multiculturalism can mean many different things - these CD-ROMs allow you to explore many ideas and hear people from many different perscpectives putting their points of view. View a documenatry, take part in a debate, see a festival of multicultural arts, explore the &#8220;Harvest of Endurance&#8221; history scroll and read more than 2,500 pages of printable reports, documents and newspaper articles.</p>", "constellations_primary": [], "constellations_other": [], "recommendations": [], "title_for_label": "<p>Making multicultural Australia: a multimedia documentary (PC &amp; MAC)</p>", "creator_credit_for_label": "<p>New South Wales. Board of Studies. Interactive Design Group</p>", "headline_credit_for_label": "<p>Australia, 1999</p>", "description": "<p>Multiculturalism can mean many different things - these CD-ROMs allow you to explore many ideas and hear people from many different perscpectives putting their points of view. View a documenatry, take part in a debate, see a festival of multicultural arts, explore the &#8220;Harvest of Endurance&#8221; history scroll and read more than 2,500 pages of printable reports, documents and newspaper articles.</p>", "description_for_label": ["<p>Multiculturalism can mean many different things - these CD-ROMs allow you to explore many ideas and hear people from many different perscpectives putting their points of view. View a documenatry, take part in a debate, see a festival of multicultural arts, explore the &#8220;Harvest of Endurance&#8221; history scroll and read more than 2,500 pages of printable reports, documents and newspaper articles.</p>"], "credit_line_for_label": "", "details": [{"label": "Language", "display_values": ["English"]}, {"label": "Subject categories", "display_values": ["Advertising, Film, Journalism, Mass Media & TV&nbsp;→ Interactive media", "Advertising, Film, Journalism, Mass Media & TV&nbsp;→ Multimedia systems", "Economics, Philosophy, Politics, Religion & Sociology&nbsp;→ Ethnic groups", "Economics, Philosophy, Politics, Religion & Sociology&nbsp;→ Multiculturalism", "Education, Instruction, Teaching & Schools&nbsp;→ Educational innovations", "Education, Instruction, Teaching & Schools&nbsp;→ Intercultural education", "Multimedia"]}, {"label": "Sound/audio", "display_values": ["Sound"]}, {"label": "Colour", "display_values": ["Colour"]}], "stats": {"tap_count": 0}, "links": [], "creators_primary": [{"id": 1786181, "name": "New South Wales. Board of Studies. Interactive Design Group", "creator_id": 33478, "creator_wikidata_id": null, "role": "production company", "role_id": 941, "is_primary": true}], "creators_other": [{"id": 1786180, "name": "AFI [au]", "creator_id": 9711, "creator_wikidata_id": null, "role": "distributor", "role_id": 437, "is_primary": false}], "media_note": "Sorry, we don't have images or video for this item.", "holdings": [{"name": "CD ROM; Access Print (Section 1)", "identifier": "", "description": ""}], "part_of": null, "parts": [], "part_siblings": [], "group": null, "group_works": [], "group_siblings": [], "source": {"name": "Vernon", "slug": "vernon"}, "source_identifier": "49720", "eaas_environment_id": null, "production_places": [{"id": 3, "name": "Australia", "slug": "australia"}], "production_dates": [{"date": "1999", "notes": "Copyrighted", "to_year": "1999"}], "labels": [31780]}]}