{"count": 41723, "next": "https://api.acmi.net.au/works/?page=4003", "previous": "https://api.acmi.net.au/works/?page=4001", "results": [{"id": 91819, "acmi_id": "314982", "title": "Cave man", "title_annotation": "", "slug": "cave-man", "creator_credit": "Ub Iwerks and Celebrity Productions", "credit_line": "", "headline_credit": "United States, 1934", "video_links": [], "record_type": "work", "type": "Film", "is_on_display": false, "last_on_display_place": null, "last_on_display_date": null, "is_context_indigenous": false, "material_description": "", "unpublished": false, "external": false, "first_production_date": "1934-01-01T10:00:00+10:00", "commissioned": false, "public_domain": false, "external_references": [], "brief_description": "<p>Animated cartoon featuring Willie Whopper. While paying a visit to the Natural History Museum, Willie relates a tall tale about how he saved his girlfriend Mary from a dinosaur.</p>", "constellations_primary": [], "constellations_other": [], "recommendations": [], "title_for_label": "<p>Cave man</p>", "creator_credit_for_label": "<p>Ub Iwerks and Celebrity Productions</p>", "headline_credit_for_label": "<p>United States, 1934</p>", "description": "<p>Animated cartoon featuring Willie Whopper. While paying a visit to the Natural History Museum, Willie relates a tall tale about how he saved his girlfriend Mary from a dinosaur.</p>", "description_for_label": ["<p>Animated cartoon featuring Willie Whopper. While paying a visit to the Natural History Museum, Willie relates a tall tale about how he saved his girlfriend Mary from a dinosaur.</p>"], "credit_line_for_label": "", "details": [{"label": "Duration", "display_values": ["00:06:40:00"]}, {"label": "Language", "display_values": ["English"]}, {"label": "Subject categories", "display_values": ["Animation", "Crafts & Visual Arts&nbsp;→ Cartoon characters", "Short films", "Short films&nbsp;→ Short films - United States"]}, {"label": "Sound/audio", "display_values": ["Sound"]}, {"label": "Colour", "display_values": ["Black and White"]}], "stats": {"tap_count": 0}, "links": [], "creators_primary": [{"id": 809438, "name": "Ub Iwerks", "creator_id": 68789, "creator_wikidata_id": "Q336424", "role": "producer/director", "role_id": 31, "is_primary": true}, {"id": 809437, "name": "Celebrity Productions", "creator_id": 68784, "creator_wikidata_id": null, "role": "production company", "role_id": 941, "is_primary": true}], "creators_other": [], "media_note": "Sorry, we don't have images or video for this item.", "holdings": [{"name": "16mm film; Access Print (Section 1)", "identifier": "", "description": ""}], "part_of": null, "parts": [], "part_siblings": [], "group": null, "group_works": [], "group_siblings": [], "source": {"name": "Vernon", "slug": "vernon"}, "source_identifier": "49210", "eaas_environment_id": null, "production_places": [{"id": 2, "name": "United States", "slug": "united-states"}], "production_dates": [{"date": "1934", "notes": "Produced", "to_year": "1934"}], "labels": [31309]}, {"id": 90959, "acmi_id": "314021", "title": "Caulking compounds", "title_annotation": "", "slug": "caulking-compounds", "creator_credit": "S.T. Evans and CSIRO", "credit_line": "", "headline_credit": "Australia, 1950", "video_links": [], "record_type": "work", "type": "Film", "is_on_display": false, "last_on_display_place": null, "last_on_display_date": null, "is_context_indigenous": false, "material_description": "", "unpublished": false, "external": false, "first_production_date": "1950-01-01T10:00:00+10:00", "commissioned": false, "public_domain": false, "external_references": [], "brief_description": "<p>Describes the properties and proper use of caulking compounds as joining materials in modern building construction.</p>", "constellations_primary": [], "constellations_other": [], "recommendations": [], "title_for_label": "<p>Caulking compounds</p>", "creator_credit_for_label": "<p>S.T. Evans and CSIRO</p>", "headline_credit_for_label": "<p>Australia, 1950</p>", "description": "<p>Describes the properties and proper use of caulking compounds as joining materials in modern building construction.</p>", "description_for_label": ["<p>Describes the properties and proper use of caulking compounds as joining materials in modern building construction.</p>"], "credit_line_for_label": "", "details": [{"label": "Duration", "display_values": ["00:12:12:00"]}, {"label": "Language", "display_values": ["English"]}, {"label": "Subject categories", "display_values": ["Documentary", "Documentary&nbsp;→ Documentary films - Australia", "Short films", "Short films&nbsp;→ Short films - Australia"]}, {"label": "Sound/audio", "display_values": ["Sound"]}, {"label": "Colour", "display_values": ["Colour"]}], "stats": {"tap_count": 0}, "links": [], "creators_primary": [{"id": 877897, "name": "S.T. Evans", "creator_id": 12110, "creator_wikidata_id": null, "role": "director", "role_id": 938, "is_primary": true}, {"id": 877896, "name": "CSIRO", "creator_id": 12109, "creator_wikidata_id": "Q1117048", "role": "production company", "role_id": 941, "is_primary": true}], "creators_other": [], "media_note": "Sorry, we don't have images or video for this item.", "holdings": [{"name": "16mm film; Access Print (Section 1)", "identifier": "", "description": ""}], "part_of": null, "parts": [], "part_siblings": [], "group": null, "group_works": [], "group_siblings": [], "source": {"name": "Vernon", "slug": "vernon"}, "source_identifier": "48278", "eaas_environment_id": null, "production_places": [{"id": 3, "name": "Australia", "slug": "australia"}], "production_dates": [{"date": "1950", "notes": "Produced", "to_year": "1950"}], "labels": [30449]}, {"id": 87555, "acmi_id": "309526", "title": "Cathedral city", "title_annotation": "", "slug": "cathedral-city", "creator_credit": "Don Chaffey, Frank Wells and Gaumont-British Instructional", "credit_line": "", "headline_credit": "United Kingdom, 1948", "video_links": [], "record_type": "work", "type": "Film", "is_on_display": false, "last_on_display_place": null, "last_on_display_date": null, "is_context_indigenous": false, "material_description": "", "unpublished": false, "external": false, "first_production_date": "1948-01-01T10:00:00+10:00", "commissioned": false, "public_domain": false, "external_references": [], "brief_description": "<p>A celluloid pilgramage to the seat of the Anglican Church, the Church of Christ Cathedral in Canterbury. After a solemn survey of noteworthy cathedral features, the film explores the larger city in relation to the dominant architectural edifice.</p>", "constellations_primary": [], "constellations_other": [], "recommendations": [], "title_for_label": "<p>Cathedral city</p>", "creator_credit_for_label": "<p>Don Chaffey, Frank Wells and Gaumont-British Instructional</p>", "headline_credit_for_label": "<p>United Kingdom, 1948</p>", "description": "<p>A celluloid pilgramage to the seat of the Anglican Church, the Church of Christ Cathedral in Canterbury. After a solemn survey of noteworthy cathedral features, the film explores the larger city in relation to the dominant architectural edifice.</p>", "description_for_label": ["<p>A celluloid pilgramage to the seat of the Anglican Church, the Church of Christ Cathedral in Canterbury. After a solemn survey of noteworthy cathedral features, the film explores the larger city in relation to the dominant architectural edifice.</p>"], "credit_line_for_label": "", "details": [{"label": "Duration", "display_values": ["00:21:00:00"]}, {"label": "Language", "display_values": ["English"]}, {"label": "Subject categories", "display_values": ["Anthropology, Ethnology, Exploration & Travel&nbsp;→ Cathedrals - Great Britain", "Anthropology, Ethnology, Exploration & Travel&nbsp;→ Great Britain - Churches", "Anthropology, Ethnology, Exploration & Travel&nbsp;→ Great Britain - Description and travel", "Anthropology, Ethnology, Exploration & Travel&nbsp;→ Travel", "Crafts & Visual Arts&nbsp;→ Cathedrals", "Crafts & Visual Arts&nbsp;→ Cathedrals - Great Britain", "Crafts & Visual Arts&nbsp;→ Church architecture", "Crafts & Visual Arts&nbsp;→ Great Britain - Churches", "Documentary", "Economics, Philosophy, Politics, Religion & Sociology&nbsp;→ Cathedrals - Great Britain", "Economics, Philosophy, Politics, Religion & Sociology&nbsp;→ Great Britain - Churches", "Family, Gender Identity, Relationships & Sexuality&nbsp;→ Cathedrals", "History&nbsp;→ Canterbury (England) - Church history", "History&nbsp;→ Cathedrals", "History&nbsp;→ Cathedrals - Great Britain", "History&nbsp;→ Church history", "History&nbsp;→ Historic buildings - Great Britain", "History&nbsp;→ History", "Short films", "Short films&nbsp;→ Short films - Great Britain"]}, {"label": "Sound/audio", "display_values": ["Sound"]}, {"label": "Colour", "display_values": ["Black and White"]}], "stats": {"tap_count": 0}, "links": [], "creators_primary": [{"id": 796820, "name": "Don Chaffey", "creator_id": 22309, "creator_wikidata_id": "Q675977", "role": "director", "role_id": 938, "is_primary": true}, {"id": 1815169, "name": "Frank Wells", "creator_id": 12353, "creator_wikidata_id": "Q121299518", "role": "producer", "role_id": 1089, "is_primary": true}, {"id": 796818, "name": "Gaumont-British Instructional", "creator_id": 12382, "creator_wikidata_id": "Q121270792", "role": "production company", "role_id": 941, "is_primary": true}], "creators_other": [], "media_note": "Sorry, we don't have images or video for this item.", "holdings": [{"name": "16mm film; Access Print (Section 1)", "identifier": "", "description": ""}, {"name": "16mm film; Limited Access Print (Section 2)", "identifier": "", "description": ""}, {"name": "16mm film; Preservation Print (Section 5)", "identifier": "", "description": ""}], "part_of": null, "parts": [], "part_siblings": [], "group": null, "group_works": [], "group_siblings": [], "source": {"name": "Vernon", "slug": "vernon"}, "source_identifier": "44019", "eaas_environment_id": null, "production_places": [{"id": 10, "name": "United Kingdom", "slug": "united-kingdom"}], "production_dates": [{"date": "1948", "notes": "Produced", "to_year": "1948"}], "labels": [27045]}, {"id": 61026, "acmi_id": "xos-61026", "title": "Cate Blanchett documentary", "title_annotation": "", "slug": "cate-blanchett-documentary", "creator_credit": "", "credit_line": "", "headline_credit": "", "video_links": [], "record_type": "work", "type": "Film", "is_on_display": false, "last_on_display_place": null, "last_on_display_date": null, "is_context_indigenous": false, "material_description": "", "unpublished": false, "external": false, "first_production_date": null, "commissioned": false, "public_domain": false, "external_references": [], "brief_description": "", "constellations_primary": [], "constellations_other": [], "recommendations": [], "title_for_label": "<p>Cate Blanchett documentary</p>", "creator_credit_for_label": "", "headline_credit_for_label": "", "description": "", "description_for_label": [], "credit_line_for_label": "", "details": [], "stats": {"tap_count": 32}, "links": [], "creators_primary": [], "creators_other": [], "media_note": null, "holdings": [], "part_of": null, "parts": [], "part_siblings": [], "group": null, "group_works": [], "group_siblings": [], "source": null, "source_identifier": null, "eaas_environment_id": null, "production_places": [], "production_dates": [], "labels": [63]}, {"id": 90986, "acmi_id": "314050", "title": "Catching in baseball", "title_annotation": "", "slug": "catching-in-baseball", "creator_credit": "Encyclopaedia Britannica Films", "credit_line": "", "headline_credit": "United States, 1947", "video_links": [], "record_type": "work", "type": "Film", "is_on_display": false, "last_on_display_place": null, "last_on_display_date": null, "is_context_indigenous": false, "material_description": "", "unpublished": false, "external": false, "first_production_date": "1947-01-01T10:00:00+10:00", "commissioned": false, "public_domain": false, "external_references": [], "brief_description": "<p>The techiques in catching the thrown ball, the high-batted ball and the ground ball. Emphasizes the need for practice.</p>", "constellations_primary": [], "constellations_other": [], "recommendations": [], "title_for_label": "<p>Catching in baseball</p>", "creator_credit_for_label": "<p>Encyclopaedia Britannica Films</p>", "headline_credit_for_label": "<p>United States, 1947</p>", "description": "<p>The techiques in catching the thrown ball, the high-batted ball and the ground ball. Emphasizes the need for practice.</p>", "description_for_label": ["<p>The techiques in catching the thrown ball, the high-batted ball and the ground ball. Emphasizes the need for practice.</p>"], "credit_line_for_label": "", "details": [{"label": "Duration", "display_values": ["00:10:00:00"]}, {"label": "Language", "display_values": ["English"]}, {"label": "Subject categories", "display_values": ["Educational & Instructional", "Educational & Instructional&nbsp;→ Instructional", "Hobbies, Recreation & Sport&nbsp;→ Baseball", "Hobbies, Recreation & Sport&nbsp;→ Sports", "Hobbies, Recreation & Sport&nbsp;→ Sports - United States", "Short films", "Short films&nbsp;→ Short films - United States"]}, {"label": "Sound/audio", "display_values": ["Sound"]}, {"label": "Colour", "display_values": ["Black and White"]}], "stats": {"tap_count": 0}, "links": [], "creators_primary": [{"id": 877938, "name": "Encyclopaedia Britannica Films", "creator_id": 12049, "creator_wikidata_id": null, "role": "production company", "role_id": 941, "is_primary": true}], "creators_other": [], "media_note": "Sorry, we don't have images or video for this item.", "holdings": [{"name": "16mm film; Access Print (Section 1)", "identifier": "", "description": ""}], "part_of": null, "parts": [], "part_siblings": [], "group": null, "group_works": [], "group_siblings": [], "source": {"name": "Vernon", "slug": "vernon"}, "source_identifier": "48307", "eaas_environment_id": null, "production_places": [{"id": 2, "name": "United States", "slug": "united-states"}], "production_dates": [{"date": "1947", "notes": "Produced", "to_year": "1947"}], "labels": [30476]}, {"id": 75235, "acmi_id": "012555", "title": "Catapult", "title_annotation": "", "slug": "catapult", "creator_credit": "Andrew Vial and Andric Film Productions", "credit_line": "", "headline_credit": "Australia, 1976", "video_links": [], "record_type": "work", "type": "Film", "is_on_display": false, "last_on_display_place": null, "last_on_display_date": null, "is_context_indigenous": false, "material_description": "", "unpublished": false, "external": false, "first_production_date": "1976-01-01T11:00:00+11:00", "commissioned": false, "public_domain": false, "external_references": [], "brief_description": "<p>Catapult is a poetic film on the sport of pole vaulting and features dual Olympian Ray Boyd and Australian ex-champion Eddy Johnson. Both vaulters are seen in top form as they outdo each other in their attempts to set a new Australian pole vault record. Photographed and edited by Tony Paterson.</p>", "constellations_primary": [], "constellations_other": [], "recommendations": [], "title_for_label": "<p>Catapult</p>", "creator_credit_for_label": "<p>Andrew Vial and Andric Film Productions</p>", "headline_credit_for_label": "<p>Australia, 1976</p>", "description": "<p>Catapult is a poetic film on the sport of pole vaulting and features dual Olympian Ray Boyd and Australian ex-champion Eddy Johnson. Both vaulters are seen in top form as they outdo each other in their attempts to set a new Australian pole vault record. Photographed and edited by Tony Paterson.</p>", "description_for_label": ["<p>Catapult is a poetic film on the sport of pole vaulting and features dual Olympian Ray Boyd and Australian ex-champion Eddy Johnson. Both vaulters are seen in top form as they outdo each other in their attempts to set a new Australian pole vault record. Photographed and edited by Tony Paterson.</p>"], "credit_line_for_label": "", "details": [{"label": "Duration", "display_values": ["00:09:00:00"]}, {"label": "Language", "display_values": ["English"]}, {"label": "Subject categories", "display_values": ["Food, Health, Lifestyle, Medicine, Psychology & Safety&nbsp;→ Competition (Psychology)", "Food, Health, Lifestyle, Medicine, Psychology & Safety&nbsp;→ Motivation (Psychology)", "Hobbies, Recreation & Sport&nbsp;→ Athletes", "Hobbies, Recreation & Sport&nbsp;→ Athletics", "Hobbies, Recreation & Sport&nbsp;→ Sports - Australia - History", "Hobbies, Recreation & Sport&nbsp;→ Sports - Psychological aspects", "Hobbies, Recreation & Sport&nbsp;→ Vaulting", "Short films", "Short films&nbsp;→ Short films - Australia"]}, {"label": "Sound/audio", "display_values": ["Sound"]}, {"label": "Colour", "display_values": ["Colour"]}], "stats": {"tap_count": 0}, "links": [], "creators_primary": [{"id": 861358, "name": "Andrew Vial", "creator_id": 19055, "creator_wikidata_id": "Q121079123", "role": "producer/director", "role_id": 31, "is_primary": true}, {"id": 861357, "name": "Andric Film Productions", "creator_id": 19054, "creator_wikidata_id": null, "role": "production company", "role_id": 941, "is_primary": true}], "creators_other": [], "media_note": "Sorry, we don't have images or video for this item.", "holdings": [{"name": "16mm film; Access Print (Section 1)", "identifier": "", "description": ""}], "part_of": null, "parts": [], "part_siblings": [], "group": null, "group_works": [], "group_siblings": [], "source": {"name": "Vernon", "slug": "vernon"}, "source_identifier": "30974", "eaas_environment_id": null, "production_places": [{"id": 3, "name": "Australia", "slug": "australia"}], "production_dates": [{"date": "1976", "notes": "Produced", "to_year": "1976"}], "labels": [14725]}, {"id": 78428, "acmi_id": "323808", "title": "Cat journey", "title_annotation": "", "slug": "cat-journey", "creator_credit": "Lisbeth Gabrielsson, Educational Media International and Svenska filminstitutet", "credit_line": "", "headline_credit": "Sweden, 1985", "video_links": [], "record_type": "work", "type": "Film", "is_on_display": false, "last_on_display_place": null, "last_on_display_date": null, "is_context_indigenous": false, "material_description": "", "unpublished": false, "external": false, "first_production_date": "1985-01-01T11:00:00+11:00", "commissioned": false, "public_domain": false, "external_references": [], "brief_description": "<p>Katie meets a friendly cat which takes her for a rather adventurous ride on its back. Their journey is full of many strange and sometimes scary encounters, but the cat is always there to save Katie. Adapted from the picture book by Ivar Arosenius. Suitable for children 4-7 years.</p>", "constellations_primary": [], "constellations_other": [], "recommendations": [], "title_for_label": "<p>Cat journey</p>", "creator_credit_for_label": "<p>Lisbeth Gabrielsson, Educational Media International and Svenska filminstitutet</p>", "headline_credit_for_label": "<p>Sweden, 1985</p>", "description": "<p>Katie meets a friendly cat which takes her for a rather adventurous ride on its back. Their journey is full of many strange and sometimes scary encounters, but the cat is always there to save Katie. Adapted from the picture book by Ivar Arosenius. Suitable for children 4-7 years.</p>", "description_for_label": ["<p>Katie meets a friendly cat which takes her for a rather adventurous ride on its back. Their journey is full of many strange and sometimes scary encounters, but the cat is always there to save Katie. Adapted from the picture book by Ivar Arosenius. Suitable for children 4-7 years.</p>"], "credit_line_for_label": "", "details": [{"label": "Duration", "display_values": ["00:07:00:00"]}, {"label": "Language", "display_values": ["English"]}, {"label": "Subject categories", "display_values": ["Adaptations", "Animals & Wildlife&nbsp;→ Cats - Fiction", "Animation", "Animation&nbsp;→ Animated films - Sweden", "Childrens Films", "Childrens Films&nbsp;→ Children 0-6", "Literature&nbsp;→ Children's literature - Film and video adaptations", "Literature&nbsp;→ Swedish literature - Film and video adaptations", "Short films", "Short films&nbsp;→ Short films - Sweden"]}, {"label": "Sound/audio", "display_values": ["Sound"]}, {"label": "Colour", "display_values": ["Colour"]}], "stats": {"tap_count": 0}, "links": [], "creators_primary": [{"id": 1804394, "name": "Lisbeth Gabrielsson", "creator_id": 19918, "creator_wikidata_id": null, "role": "producer", "role_id": 1089, "is_primary": true}, {"id": 864922, "name": "Educational Media International", "creator_id": 16255, "creator_wikidata_id": null, "role": "production company", "role_id": 941, "is_primary": true}, {"id": 864921, "name": "Svenska filminstitutet", "creator_id": 14106, "creator_wikidata_id": "Q1146587", "role": "production company", "role_id": 941, "is_primary": true}], "creators_other": [], "media_note": "Sorry, we don't have images or video for this item.", "holdings": [{"name": "16mm film; Access Print (Section 1)", "identifier": "", "description": ""}], "part_of": null, "parts": [], "part_siblings": [], "group": null, "group_works": [], "group_siblings": [], "source": {"name": "Vernon", "slug": "vernon"}, "source_identifier": "34224", "eaas_environment_id": null, "production_places": [{"id": 43, "name": "Sweden", "slug": "sweden"}], "production_dates": [{"date": "1985", "notes": "Copyrighted", "to_year": "1985"}], "labels": [17918]}, {"id": 141, "acmi_id": "xos-141", "title": "Cat", "title_annotation": "", "slug": "cat", "creator_credit": "", "credit_line": "", "headline_credit": "", "video_links": [], "record_type": "work", "type": "Film", "is_on_display": false, "last_on_display_place": null, "last_on_display_date": null, "is_context_indigenous": false, "material_description": "", "unpublished": false, "external": false, "first_production_date": null, "commissioned": false, "public_domain": false, "external_references": [], "brief_description": "", "constellations_primary": [], "constellations_other": [], "recommendations": [], "title_for_label": "<p>Cat</p>", "creator_credit_for_label": "", "headline_credit_for_label": "", "description": "", "description_for_label": [], "credit_line_for_label": "", "details": [], "stats": {"tap_count": 0}, "links": [], "creators_primary": [], "creators_other": [], "media_note": null, "holdings": [], "part_of": null, "parts": [], "part_siblings": [], "group": null, "group_works": [], "group_siblings": [], "source": null, "source_identifier": null, "eaas_environment_id": null, "production_places": [], "production_dates": [], "labels": [254]}, {"id": 117638, "acmi_id": "509970", "title": "Case studies 1: projects mean people", "title_annotation": "", "slug": "case-studies-1-projects-mean-people", "creator_credit": "", "credit_line": "", "headline_credit": "United Kingdom, 1972", "video_links": [], "record_type": "work", "type": "Film", "is_on_display": false, "last_on_display_place": null, "last_on_display_date": null, "is_context_indigenous": false, "material_description": "", "unpublished": false, "external": false, "first_production_date": "1972-01-01T11:00:00+11:00", "commissioned": false, "public_domain": false, "external_references": [], "brief_description": "<p>SUMMARY: Uses three case studies to show the reactions of people affected by the introduction of major computer systems. looks in turn at Koch Light Laboratories, the Kingston upon Hull County Borough Council&#8217;s vaccination and immunisation scheme and the</p>", "constellations_primary": [], "constellations_other": [], "recommendations": [], "title_for_label": "<p>Case studies 1: projects mean people</p>", "creator_credit_for_label": "", "headline_credit_for_label": "<p>United Kingdom, 1972</p>", "description": "<p>SUMMARY: Uses three case studies to show the reactions of people affected by the introduction of major computer systems. looks in turn at Koch Light Laboratories, the Kingston upon Hull County Borough Council&#8217;s vaccination and immunisation scheme and the</p>", "description_for_label": ["<p>SUMMARY: Uses three case studies to show the reactions of people affected by the introduction of major computer systems. looks in turn at Koch Light Laboratories, the Kingston upon Hull County Borough Council&#8217;s vaccination and immunisation scheme and the</p>"], "credit_line_for_label": "", "details": [{"label": "Duration", "display_values": ["00:24:00:00"]}, {"label": "Language", "display_values": ["English"]}, {"label": "Sound/audio", "display_values": ["Sound"]}, {"label": "Colour", "display_values": ["Colour"]}], "stats": {"tap_count": 0}, "links": [], "creators_primary": [], "creators_other": [], "media_note": "Sorry, we don't have images or video for this item.", "holdings": [{"name": "16mm film; Preservation Print (Section 5)", "identifier": "", "description": ""}], "part_of": null, "parts": [], "part_siblings": [], "group": null, "group_works": [], "group_siblings": [], "source": {"name": "Vernon", "slug": "vernon"}, "source_identifier": "163555", "eaas_environment_id": null, "production_places": [{"id": 10, "name": "United Kingdom", "slug": "united-kingdom"}], "production_dates": [{"date": "1972", "notes": "", "to_year": "1972"}], "labels": [57132]}, {"id": 96107, "acmi_id": "503043", "title": "Case of the hidden factor", "title_annotation": "", "slug": "case-of-the-hidden-factor", "creator_credit": "Stanley Dalby, Gil Brealey and Australian Commonwealth Film Unit", "credit_line": "", "headline_credit": "Australia, 1969", "video_links": [], "record_type": "work", "type": "Film", "is_on_display": false, "last_on_display_place": null, "last_on_display_date": null, "is_context_indigenous": false, "material_description": "", "unpublished": false, "external": false, "first_production_date": "1969-01-01T10:00:00+10:00", "commissioned": false, "public_domain": false, "external_references": [], "brief_description": "<p>Discusses the scope for improvement of storage and handling methods in industry, showing examples of good and poor practice, and the work of the National Materials Handling Bureau in the field.</p>", "constellations_primary": [], "constellations_other": [], "recommendations": [], "title_for_label": "<p>Case of the hidden factor</p>", "creator_credit_for_label": "<p>Stanley Dalby, Gil Brealey and Australian Commonwealth Film Unit</p>", "headline_credit_for_label": "<p>Australia, 1969</p>", "description": "<p>Discusses the scope for improvement of storage and handling methods in industry, showing examples of good and poor practice, and the work of the National Materials Handling Bureau in the field.</p>", "description_for_label": ["<p>Discusses the scope for improvement of storage and handling methods in industry, showing examples of good and poor practice, and the work of the National Materials Handling Bureau in the field.</p>"], "credit_line_for_label": "", "details": [{"label": "Duration", "display_values": ["00:25:00:00"]}, {"label": "Language", "display_values": ["English"]}, {"label": "Subject categories", "display_values": ["Educational & Instructional", "Educational & Instructional&nbsp;→ Instructional", "Food, Health, Lifestyle, Medicine, Psychology & Safety&nbsp;→ Materials handling", "Short films", "Short films&nbsp;→ Short films - Australia"]}, {"label": "Sound/audio", "display_values": ["Sound"]}, {"label": "Colour", "display_values": ["Colour"]}], "stats": {"tap_count": 0}, "links": [], "creators_primary": [{"id": 886467, "name": "Stanley Dalby", "creator_id": 14793, "creator_wikidata_id": "Q121086031", "role": "director", "role_id": 938, "is_primary": true}, {"id": 1811170, "name": "Gil Brealey", "creator_id": 12064, "creator_wikidata_id": "Q5560473", "role": "producer", "role_id": 1089, "is_primary": true}, {"id": 886465, "name": "Australian Commonwealth Film Unit", "creator_id": 11967, "creator_wikidata_id": null, "role": "production company", "role_id": 941, "is_primary": true}], "creators_other": [], "media_note": "Sorry, we don't have images or video for this item.", "holdings": [{"name": "16mm film; Access Print (Section 1)", "identifier": "", "description": ""}], "part_of": null, "parts": [], "part_siblings": [], "group": null, "group_works": [], "group_siblings": [], "source": {"name": "Vernon", "slug": "vernon"}, "source_identifier": "54319", "eaas_environment_id": null, "production_places": [{"id": 3, "name": "Australia", "slug": "australia"}], "production_dates": [{"date": "1969", "notes": "Produced", "to_year": "1969"}], "labels": [35602]}]}