{"count": 41722, "next": "https://api.acmi.net.au/works/?page=4157", "previous": "https://api.acmi.net.au/works/?page=4155", "results": [{"id": 118609, "acmi_id": "R0001230", "title": "[Come as you are : publicity kit]", "title_annotation": "", "slug": "come-as-you-are-publicity-kit", "creator_credit": "", "credit_line": "", "headline_credit": "", "video_links": [], "record_type": "work", "type": "Object", "is_on_display": false, "last_on_display_place": null, "last_on_display_date": null, "is_context_indigenous": false, "material_description": "", "unpublished": false, "external": false, "first_production_date": null, "commissioned": false, "public_domain": false, "external_references": [], "brief_description": "<p>Publicity kit for the production Come as You Are (1996), including 1 B&amp;W Still (Small)</p>", "constellations_primary": [], "constellations_other": [], "recommendations": [], "title_for_label": "<p>[Come as you are : publicity kit]</p>", "creator_credit_for_label": "", "headline_credit_for_label": "", "description": "<p>Publicity kit for the production Come as You Are (1996), including 1 B&amp;W Still (Small)</p>", "description_for_label": ["<p>Publicity kit for the production Come as You Are (1996), including 1 B&amp;W Still (Small)</p>"], "credit_line_for_label": "", "details": [{"label": "Subject category", "display_values": ["Documentation"]}, {"label": "Object Types", "display_values": ["Publicity kit"]}], "stats": {"tap_count": 0}, "links": [], "creators_primary": [], "creators_other": [], "media_note": null, "holdings": [], "part_of": null, "parts": [], "part_siblings": [], "group": null, "group_works": [], "group_siblings": [], "source": {"name": "Vernon", "slug": "vernon"}, "source_identifier": "149202", "eaas_environment_id": null, "production_places": [], "production_dates": [], "labels": [58104]}, {"id": 118600, "acmi_id": "R0001229", "title": "[Color me dead : publicity kit]", "title_annotation": "", "slug": "color-me-dead-publicity-kit", "creator_credit": "", "credit_line": "", "headline_credit": "", "video_links": [], "record_type": "work", "type": "Object", "is_on_display": false, "last_on_display_place": null, "last_on_display_date": null, "is_context_indigenous": false, "material_description": "", "unpublished": false, "external": false, "first_production_date": null, "commissioned": false, "public_domain": false, "external_references": [], "brief_description": "<p>Publicity kit for the production Color Me Dead (1969), including 1 B&amp;W Still (Large)</p>", "constellations_primary": [], "constellations_other": [], "recommendations": [], "title_for_label": "<p>[Color me dead : publicity kit]</p>", "creator_credit_for_label": "", "headline_credit_for_label": "", "description": "<p>Publicity kit for the production Color Me Dead (1969), including 1 B&amp;W Still (Large)</p>", "description_for_label": ["<p>Publicity kit for the production Color Me Dead (1969), including 1 B&amp;W Still (Large)</p>"], "credit_line_for_label": "", "details": [{"label": "Subject category", "display_values": ["Documentation"]}, {"label": "Object Types", "display_values": ["Publicity kit"]}], "stats": {"tap_count": 1}, "links": [], "creators_primary": [], "creators_other": [], "media_note": null, "holdings": [], "part_of": null, "parts": [], "part_siblings": [], "group": null, "group_works": [], "group_siblings": [], "source": {"name": "Vernon", "slug": "vernon"}, "source_identifier": "149201", "eaas_environment_id": null, "production_places": [], "production_dates": [], "labels": [58095]}, {"id": 118575, "acmi_id": "R0001200", "title": "[Cobb : publicity kit]", "title_annotation": "", "slug": "cobb-publicity-kit", "creator_credit": "", "credit_line": "", "headline_credit": "", "video_links": [], "record_type": "work", "type": "Object", "is_on_display": false, "last_on_display_place": null, "last_on_display_date": null, "is_context_indigenous": false, "material_description": "", "unpublished": false, "external": false, "first_production_date": null, "commissioned": false, "public_domain": false, "external_references": [], "brief_description": "<p>Publicity kit for the production Cobb (1994), including 1 B&amp;W Still (Large), 1 B&amp;W Still (Small)</p>", "constellations_primary": [], "constellations_other": [], "recommendations": [], "title_for_label": "<p>[Cobb : publicity kit]</p>", "creator_credit_for_label": "", "headline_credit_for_label": "", "description": "<p>Publicity kit for the production Cobb (1994), including 1 B&amp;W Still (Large), 1 B&amp;W Still (Small)</p>", "description_for_label": ["<p>Publicity kit for the production Cobb (1994), including 1 B&amp;W Still (Large), 1 B&amp;W Still (Small)</p>"], "credit_line_for_label": "", "details": [{"label": "Subject category", "display_values": ["Documentation"]}, {"label": "Object Types", "display_values": ["Publicity kit"]}], "stats": {"tap_count": 0}, "links": [], "creators_primary": [], "creators_other": [], "media_note": null, "holdings": [], "part_of": null, "parts": [], "part_siblings": [], "group": null, "group_works": [], "group_siblings": [], "source": {"name": "Vernon", "slug": "vernon"}, "source_identifier": "149172", "eaas_environment_id": null, "production_places": [], "production_dates": [], "labels": [58070]}, {"id": 118462, "acmi_id": "R0001071", "title": "[Class of '74 : publicity kit]", "title_annotation": "", "slug": "class-of-74-publicity-kit", "creator_credit": "", "credit_line": "", "headline_credit": "", "video_links": [], "record_type": "work", "type": "Object", "is_on_display": false, "last_on_display_place": null, "last_on_display_date": null, "is_context_indigenous": false, "material_description": "", "unpublished": false, "external": false, "first_production_date": null, "commissioned": false, "public_domain": false, "external_references": [], "brief_description": "<p>Publicity kit for the production Class of &#8216;74 (TV 1974), including 1 B&amp;W Still (Large)</p>", "constellations_primary": [], "constellations_other": [], "recommendations": [], "title_for_label": "<p>[Class of &#8216;74 : publicity kit]</p>", "creator_credit_for_label": "", "headline_credit_for_label": "", "description": "<p>Publicity kit for the production Class of &#8216;74 (TV 1974), including 1 B&amp;W Still (Large)</p>", "description_for_label": ["<p>Publicity kit for the production Class of &#8216;74 (TV 1974), including 1 B&amp;W Still (Large)</p>"], "credit_line_for_label": "", "details": [{"label": "Subject category", "display_values": ["Documentation"]}, {"label": "Object Types", "display_values": ["Publicity kit"]}], "stats": {"tap_count": 3}, "links": [], "creators_primary": [], "creators_other": [], "media_note": null, "holdings": [], "part_of": null, "parts": [], "part_siblings": [], "group": null, "group_works": [], "group_siblings": [], "source": {"name": "Vernon", "slug": "vernon"}, "source_identifier": "149043", "eaas_environment_id": null, "production_places": [], "production_dates": [], "labels": [57960]}, {"id": 90807, "acmi_id": "313833", "title": "[Cinemagazine items]", "title_annotation": "", "slug": "cinemagazine-items", "creator_credit": "PJP Productions", "credit_line": "", "headline_credit": "Australia, 1955", "video_links": [], "record_type": "work", "type": "Film", "is_on_display": false, "last_on_display_place": null, "last_on_display_date": null, "is_context_indigenous": false, "material_description": "", "unpublished": false, "external": false, "first_production_date": "1955-01-01T10:00:00+10:00", "commissioned": false, "public_domain": false, "external_references": [], "brief_description": "<p>Cinemagazine items including: 1. Tall timbers - Kauri forests in Western Australia. 2. Wings in the blue - Gliding. 3. Aces to kings - Collection of international playing cards. 4. Man and motion - Australian Grand Prix. Narrated by Geoff McComas.</p>", "constellations_primary": [], "constellations_other": [], "recommendations": [], "title_for_label": "<p>[Cinemagazine items]</p>", "creator_credit_for_label": "<p>PJP Productions</p>", "headline_credit_for_label": "<p>Australia, 1955</p>", "description": "<p>Cinemagazine items including: 1. Tall timbers - Kauri forests in Western Australia. 2. Wings in the blue - Gliding. 3. Aces to kings - Collection of international playing cards. 4. Man and motion - Australian Grand Prix. Narrated by Geoff McComas.</p>", "description_for_label": ["<p>Cinemagazine items including: 1. Tall timbers - Kauri forests in Western Australia. 2. Wings in the blue - Gliding. 3. Aces to kings - Collection of international playing cards. 4. Man and motion - Australian Grand Prix. Narrated by Geoff McComas.</p>"], "credit_line_for_label": "", "details": [{"label": "Duration", "display_values": ["00:07:56:00"]}, {"label": "Language", "display_values": ["English"]}, {"label": "Subject categories", "display_values": ["Anthropology, Ethnology, Exploration & Travel&nbsp;→ Australia - Description and travel", "Archival, Cinemagazines & Newsreels", "Archival, Cinemagazines & Newsreels&nbsp;→ Archival materials", "Archival, Cinemagazines & Newsreels&nbsp;→ Cinemagazines", "Archival, Cinemagazines & Newsreels&nbsp;→ Newsreels - Australia", "Climate, Environment, Natural Resources & Disasters&nbsp;→ Kauri", "Communications, Infrastructure, & Transport&nbsp;→ Gliding and soaring", "Documentary", "Documentary&nbsp;→ Documentary films - Australia", "Hobbies, Recreation & Sport&nbsp;→ Cards", "Hobbies, Recreation & Sport&nbsp;→ Gliding and soaring", "Hobbies, Recreation & Sport&nbsp;→ Grand Prix racing", "Short films", "Short films&nbsp;→ Short films - Australia"]}, {"label": "Sound/audio", "display_values": ["Sound"]}, {"label": "Colour", "display_values": ["Colour"]}], "stats": {"tap_count": 0}, "links": [], "creators_primary": [{"id": 877652, "name": "PJP Productions", "creator_id": 13025, "creator_wikidata_id": null, "role": "production company", "role_id": 941, "is_primary": true}], "creators_other": [], "media_note": "Sorry, we don't have images or video for this item.", "holdings": [{"name": "16mm film; Access Print (Section 1)", "identifier": "", "description": ""}], "part_of": null, "parts": [], "part_siblings": [], "group": null, "group_works": [], "group_siblings": [], "source": {"name": "Vernon", "slug": "vernon"}, "source_identifier": "48091", "eaas_environment_id": null, "production_places": [{"id": 3, "name": "Australia", "slug": "australia"}], "production_dates": [{"date": "1955", "notes": "Estimated date", "to_year": "1955"}], "labels": [30297]}, {"id": 119121, "acmi_id": "R0002400", "title": "[Cinema papers : publicity kit]", "title_annotation": "", "slug": "cinema-papers-publicity-kit", "creator_credit": "", "credit_line": "", "headline_credit": "", "video_links": [], "record_type": "work", "type": "Object", "is_on_display": false, "last_on_display_place": null, "last_on_display_date": null, "is_context_indigenous": false, "material_description": "", "unpublished": false, "external": false, "first_production_date": null, "commissioned": false, "public_domain": false, "external_references": [], "brief_description": "<p>Publicity kit for Cinema Papers Magazine Covers, including 3 B&amp;W Stills (Large), 29 B&amp;W Stills (Small), 1 B&amp;W Transparency (Large)</p>", "constellations_primary": [], "constellations_other": [], "recommendations": [], "title_for_label": "<p>[Cinema papers : publicity kit]</p>", "creator_credit_for_label": "", "headline_credit_for_label": "", "description": "<p>Publicity kit for Cinema Papers Magazine Covers, including 3 B&amp;W Stills (Large), 29 B&amp;W Stills (Small), 1 B&amp;W Transparency (Large)</p>", "description_for_label": ["<p>Publicity kit for Cinema Papers Magazine Covers, including 3 B&amp;W Stills (Large), 29 B&amp;W Stills (Small), 1 B&amp;W Transparency (Large)</p>"], "credit_line_for_label": "", "details": [{"label": "Subject category", "display_values": ["Documentation"]}, {"label": "Object Types", "display_values": ["Publicity kit"]}], "stats": {"tap_count": 0}, "links": [], "creators_primary": [], "creators_other": [], "media_note": null, "holdings": [], "part_of": null, "parts": [], "part_siblings": [], "group": null, "group_works": [], "group_siblings": [], "source": {"name": "Vernon", "slug": "vernon"}, "source_identifier": "150802", "eaas_environment_id": null, "production_places": [], "production_dates": [], "labels": [58592]}, {"id": 118374, "acmi_id": "R0000968", "title": "[Chopper squad : publicity kit]", "title_annotation": "", "slug": "chopper-squad-publicity-kit", "creator_credit": "", "credit_line": "", "headline_credit": "1978-1979", "video_links": [], "record_type": "work", "type": "Object", "is_on_display": false, "last_on_display_place": null, "last_on_display_date": null, "is_context_indigenous": false, "material_description": "", "unpublished": false, "external": false, "first_production_date": null, "commissioned": false, "public_domain": false, "external_references": [], "brief_description": "<p>Publicity kit for the production Chopper Squad (TV 1978-1979), including 2 B&amp;W Stills (Large)</p>", "constellations_primary": [], "constellations_other": [], "recommendations": [], "title_for_label": "<p>[Chopper squad : publicity kit]</p>", "creator_credit_for_label": "", "headline_credit_for_label": "<p>1978-1979</p>", "description": "<p>Publicity kit for the production Chopper Squad (TV 1978-1979), including 2 B&amp;W Stills (Large)</p>", "description_for_label": ["<p>Publicity kit for the production Chopper Squad (TV 1978-1979), including 2 B&amp;W Stills (Large)</p>"], "credit_line_for_label": "", "details": [{"label": "Subject category", "display_values": ["Documentation"]}, {"label": "Object Types", "display_values": ["Publicity kit"]}], "stats": {"tap_count": 0}, "links": [], "creators_primary": [], "creators_other": [], "media_note": null, "holdings": [], "part_of": null, "parts": [], "part_siblings": [], "group": null, "group_works": [], "group_siblings": [], "source": {"name": "Vernon", "slug": "vernon"}, "source_identifier": "148940", "eaas_environment_id": null, "production_places": [], "production_dates": [{"date": "1978-1979", "notes": "", "to_year": "1978-1979"}], "labels": [57877]}, {"id": 92230, "acmi_id": "315457", "title": "[Childrens' compilation]", "title_annotation": "", "slug": "childrens-compilation", "creator_credit": "Walt Disney Productions and Walton Films", "credit_line": "", "headline_credit": "United States, 1934", "video_links": [], "record_type": "work", "type": "Film", "is_on_display": false, "last_on_display_place": null, "last_on_display_date": null, "is_context_indigenous": false, "material_description": "", "unpublished": false, "external": false, "first_production_date": "1934-01-01T10:00:00+10:00", "commissioned": false, "public_domain": false, "external_references": [], "brief_description": "<p>A compliation of four short animated films for children. The titles are &#8220;Aladdin and his lamp&#8221;, &#8220;It&#8217;s the circus part 2&#8221;, &#8220;Puppy love&#8221; and &#8220;The Charging bull&#8221;. &#8220;Aladdin and his lamp&#8221; A puppet version of Aladdin and his magic lamp. &#8220;It&#8217;s the circus part 2&#8221; Bertram Mills Circus featuring live action horses, trapeze artists, chimps, clowns and lion tamers. &#8220;Puppy love&#8221; Mickey visits his sweetheart Minnie, presenting her with gifts. As he courts her, Mickey&#8217;s dog Pluto attempts to woo Minnie&#8217;s dog by presenting her with a gift intended for Minnie. Pluto exchanges Minnie&#8217;s gift with a bone. &#8220;The Charging bull&#8221; A charging bull tries to bowl over Mickey Mouse. Mickey&#8217;s automobile defends him and Minnie.</p>", "constellations_primary": [], "constellations_other": [], "recommendations": [], "title_for_label": "<p>[Childrens&#8217; compilation]</p>", "creator_credit_for_label": "<p>Walt Disney Productions and Walton Films</p>", "headline_credit_for_label": "<p>United States, 1934</p>", "description": "<p>A compliation of four short animated films for children. The titles are &#8220;Aladdin and his lamp&#8221;, &#8220;It&#8217;s the circus part 2&#8221;, &#8220;Puppy love&#8221; and &#8220;The Charging bull&#8221;. &#8220;Aladdin and his lamp&#8221; A puppet version of Aladdin and his magic lamp. &#8220;It&#8217;s the circus part 2&#8221; Bertram Mills Circus featuring live action horses, trapeze artists, chimps, clowns and lion tamers. &#8220;Puppy love&#8221; Mickey visits his sweetheart Minnie, presenting her with gifts. As he courts her, Mickey&#8217;s dog Pluto attempts to woo Minnie&#8217;s dog by presenting her with a gift intended for Minnie. Pluto exchanges Minnie&#8217;s gift with a bone. &#8220;The Charging bull&#8221; A charging bull tries to bowl over Mickey Mouse. Mickey&#8217;s automobile defends him and Minnie.</p>", "description_for_label": ["<p>A compliation of four short animated films for children. The titles are &#8220;Aladdin and his lamp&#8221;, &#8220;It&#8217;s the circus part 2&#8221;, &#8220;Puppy love&#8221; and &#8220;The Charging bull&#8221;. &#8220;Aladdin and his lamp&#8221; A puppet version of Aladdin and his magic lamp. &#8220;It&#8217;s the circus part 2&#8221; Bertram Mills Circus featuring live action horses, trapeze artists, chimps, clowns and lion tamers. &#8220;Puppy love&#8221; Mickey visits his sweetheart Minnie, presenting her with gifts. As he courts her, Mickey&#8217;s dog Pluto attempts to woo Minnie&#8217;s dog by presenting her with a gift intended for Minnie. Pluto exchanges Minnie&#8217;s gift with a bone. &#8220;The Charging bull&#8221; A charging bull tries to bowl over Mickey Mouse. Mickey&#8217;s automobile defends him and Minnie.</p>"], "credit_line_for_label": "", "details": [{"label": "Duration", "display_values": ["00:09:27:00"]}, {"label": "Language", "display_values": ["English"]}, {"label": "Subject categories", "display_values": ["Advertising, Film, Journalism, Mass Media & TV&nbsp;→ Puppet films", "Animation", "Animation&nbsp;→ Animated films - United States", "Childrens Films", "Childrens Films&nbsp;→ Children's films - United States", "Childrens Films&nbsp;→ Puppet films", "Music & Performing Arts&nbsp;→ Puppet films", "Short films", "Short films&nbsp;→ Short films - United States", "Silent films"]}, {"label": "Sound/audio", "display_values": ["Silent"]}, {"label": "Colour", "display_values": ["Black and White"]}], "stats": {"tap_count": 0}, "links": [], "creators_primary": [{"id": 880075, "name": "Walt Disney Productions", "creator_id": 72131, "creator_wikidata_id": null, "role": "production company", "role_id": 941, "is_primary": true}, {"id": 880074, "name": "Walton Films", "creator_id": 13459, "creator_wikidata_id": null, "role": "production company", "role_id": 941, "is_primary": true}], "creators_other": [], "media_note": "Sorry, we don't have images or video for this item.", "holdings": [{"name": "16mm film; Access Print (Section 1)", "identifier": "", "description": ""}], "part_of": null, "parts": [], "part_siblings": [], "group": null, "group_works": [], "group_siblings": [], "source": {"name": "Vernon", "slug": "vernon"}, "source_identifier": "49659", "eaas_environment_id": null, "production_places": [{"id": 2, "name": "United States", "slug": "united-states"}], "production_dates": [{"date": "1934", "notes": "Estimated date", "to_year": "1934"}], "labels": [31720]}, {"id": 118510, "acmi_id": "R0001123", "title": "[Children of the revolution : publicity kit]", "title_annotation": "", "slug": "children-of-the-revolution-publicity-kit", "creator_credit": "", "credit_line": "", "headline_credit": "", "video_links": [], "record_type": "work", "type": "Object", "is_on_display": false, "last_on_display_place": null, "last_on_display_date": null, "is_context_indigenous": false, "material_description": "", "unpublished": false, "external": false, "first_production_date": null, "commissioned": false, "public_domain": false, "external_references": [], "brief_description": "<p>Publicity kit for the production Children of the Revolution (1996), including 5 35mm Colour Transparencies</p>", "constellations_primary": [], "constellations_other": [], "recommendations": [], "title_for_label": "<p>[Children of the revolution : publicity kit]</p>", "creator_credit_for_label": "", "headline_credit_for_label": "", "description": "<p>Publicity kit for the production Children of the Revolution (1996), including 5 35mm Colour Transparencies</p>", "description_for_label": ["<p>Publicity kit for the production Children of the Revolution (1996), including 5 35mm Colour Transparencies</p>"], "credit_line_for_label": "", "details": [{"label": "Subject category", "display_values": ["Documentation"]}, {"label": "Object Types", "display_values": ["Publicity kit"]}], "stats": {"tap_count": 0}, "links": [], "creators_primary": [], "creators_other": [], "media_note": null, "holdings": [], "part_of": null, "parts": [], "part_siblings": [], "group": null, "group_works": [], "group_siblings": [], "source": {"name": "Vernon", "slug": "vernon"}, "source_identifier": "149096", "eaas_environment_id": null, "production_places": [], "production_dates": [], "labels": [58005]}, {"id": 77880, "acmi_id": "016274", "title": "[Chicken: international cuisine]", "title_annotation": "", "slug": "chicken-international-cuisine", "creator_credit": "ONF | NFB", "credit_line": "", "headline_credit": "Canada, 1975", "video_links": [], "record_type": "work", "type": "Film", "is_on_display": false, "last_on_display_place": null, "last_on_display_date": null, "is_context_indigenous": false, "material_description": "", "unpublished": false, "external": false, "first_production_date": "1975-01-01T11:00:00+11:00", "commissioned": false, "public_domain": false, "external_references": [], "brief_description": "<p>A very short animated film illustrating traditional chicken dishes from various countries. Each dish represented is announced in its national language - each nationality exists in multicultural Canada.</p>", "constellations_primary": [], "constellations_other": [], "recommendations": [], "title_for_label": "<p>[Chicken: international cuisine]</p>", "creator_credit_for_label": "<p>ONF | NFB</p>", "headline_credit_for_label": "<p>Canada, 1975</p>", "description": "<p>A very short animated film illustrating traditional chicken dishes from various countries. Each dish represented is announced in its national language - each nationality exists in multicultural Canada.</p>", "description_for_label": ["<p>A very short animated film illustrating traditional chicken dishes from various countries. Each dish represented is announced in its national language - each nationality exists in multicultural Canada.</p>"], "credit_line_for_label": "", "details": [{"label": "Duration", "display_values": ["00:00:30:00"]}, {"label": "Subject categories", "display_values": ["Animation", "Animation&nbsp;→ Animated films - Canada", "Childrens Films", "Childrens Films&nbsp;→ Children 6-12", "Economics, Philosophy, Politics, Religion & Sociology&nbsp;→ Multiculturalism", "Economics, Philosophy, Politics, Religion & Sociology&nbsp;→ Pluralism (Social sciences)", "Food, Health, Lifestyle, Medicine, Psychology & Safety&nbsp;→ Cookery", "Food, Health, Lifestyle, Medicine, Psychology & Safety&nbsp;→ Nutrition", "Short films", "Short films&nbsp;→ Short films - Canada"]}, {"label": "Sound/audio", "display_values": ["Sound"]}, {"label": "Colour", "display_values": ["Colour"]}], "stats": {"tap_count": 0}, "links": [], "creators_primary": [{"id": 864341, "name": "ONF | NFB", "creator_id": 66965, "creator_wikidata_id": null, "role": "production company", "role_id": 941, "is_primary": true}], "creators_other": [], "media_note": "Sorry, we don't have images or video for this item.", "holdings": [{"name": "16mm film; Access Print (Section 1)", "identifier": "", "description": ""}], "part_of": null, "parts": [], "part_siblings": [], "group": null, "group_works": [], "group_siblings": [], "source": {"name": "Vernon", "slug": "vernon"}, "source_identifier": "33663", "eaas_environment_id": null, "production_places": [{"id": 36, "name": "Canada", "slug": "canada"}], "production_dates": [{"date": "1975", "notes": "Copyrighted", "to_year": "1975"}], "labels": [17370]}]}