{"count": 41724, "next": "https://api.acmi.net.au/works/?page=4109", "previous": "https://api.acmi.net.au/works/?page=4107", "results": [{"id": 118768, "acmi_id": "R0001409", "title": "[The Last of the knucklemen : publicity kit]", "title_annotation": "", "slug": "the-last-of-the-knucklemen-publicity-kit", "creator_credit": "", "credit_line": "", "headline_credit": "", "video_links": [], "record_type": "work", "type": "Object", "is_on_display": false, "last_on_display_place": null, "last_on_display_date": null, "is_context_indigenous": false, "material_description": "", "unpublished": false, "external": false, "first_production_date": null, "commissioned": false, "public_domain": false, "external_references": [], "brief_description": "<p>Publicity kit for the production The Last of the Knucklemen (1979), including 8 B&amp;W Stills (Large), 12 Colour Stills (Large), 5 35mm Colour Transparencies, 3 Press Kit/ Reviews, 3 Colour Negative Strips</p>", "constellations_primary": [], "constellations_other": [], "recommendations": [], "creator_credit_for_label": "", "headline_credit_for_label": "", "title_for_label": "<p>[The Last of the knucklemen : publicity kit]</p>", "description": "<p>Publicity kit for the production The Last of the Knucklemen (1979), including 8 B&amp;W Stills (Large), 12 Colour Stills (Large), 5 35mm Colour Transparencies, 3 Press Kit/ Reviews, 3 Colour Negative Strips</p>", "description_for_label": ["<p>Publicity kit for the production The Last of the Knucklemen (1979), including 8 B&amp;W Stills (Large), 12 Colour Stills (Large), 5 35mm Colour Transparencies, 3 Press Kit/ Reviews, 3 Colour Negative Strips</p>"], "credit_line_for_label": "", "details": [{"label": "Subject category", "display_values": ["Documentation"]}, {"label": "Object Types", "display_values": ["Publicity kit"]}], "stats": {"tap_count": 0}, "links": [], "creators_primary": [], "creators_other": [], "media_note": null, "holdings": [], "part_of": null, "parts": [], "part_siblings": [], "group": null, "group_works": [], "group_siblings": [], "source": {"name": "Vernon", "slug": "vernon"}, "source_identifier": "149381", "eaas_environment_id": null, "production_places": [], "production_dates": [], "labels": [58260]}, {"id": 118767, "acmi_id": "R0001408", "title": "[The Last frontier : publicity kit]", "title_annotation": "", "slug": "the-last-frontier-publicity-kit", "creator_credit": "", "credit_line": "", "headline_credit": "", "video_links": [], "record_type": "work", "type": "Object", "is_on_display": false, "last_on_display_place": null, "last_on_display_date": null, "is_context_indigenous": false, "material_description": "", "unpublished": false, "external": false, "first_production_date": null, "commissioned": false, "public_domain": false, "external_references": [], "brief_description": "<p>Publicity kit for the production The Last Frontier (1986), including 14 B&amp;W Stills (Large)</p>", "constellations_primary": [], "constellations_other": [], "recommendations": [], "creator_credit_for_label": "", "headline_credit_for_label": "", "title_for_label": "<p>[The Last frontier : publicity kit]</p>", "description": "<p>Publicity kit for the production The Last Frontier (1986), including 14 B&amp;W Stills (Large)</p>", "description_for_label": ["<p>Publicity kit for the production The Last Frontier (1986), including 14 B&amp;W Stills (Large)</p>"], "credit_line_for_label": "", "details": [{"label": "Subject category", "display_values": ["Documentation"]}, {"label": "Object Types", "display_values": ["Publicity kit"]}], "stats": {"tap_count": 5}, "links": [], "creators_primary": [], "creators_other": [], "media_note": null, "holdings": [], "part_of": null, "parts": [], "part_siblings": [], "group": null, "group_works": [], "group_siblings": [], "source": {"name": "Vernon", "slug": "vernon"}, "source_identifier": "149380", "eaas_environment_id": null, "production_places": [], "production_dates": [], "labels": [58259]}, {"id": 118765, "acmi_id": "R0001406", "title": "[The Last bastion : publicity kit]", "title_annotation": "", "slug": "the-last-bastion-publicity-kit", "creator_credit": "", "credit_line": "", "headline_credit": "", "video_links": [], "record_type": "work", "type": "Object", "is_on_display": false, "last_on_display_place": null, "last_on_display_date": null, "is_context_indigenous": false, "material_description": "", "unpublished": false, "external": false, "first_production_date": null, "commissioned": false, "public_domain": false, "external_references": [], "brief_description": "<p>Publicity kit for the production The Last Bastion (1984), including 19 B&amp;W Stills (Large), 1 Press Kit/ Review</p>", "constellations_primary": [], "constellations_other": [], "recommendations": [], "creator_credit_for_label": "", "headline_credit_for_label": "", "title_for_label": "<p>[The Last bastion : publicity kit]</p>", "description": "<p>Publicity kit for the production The Last Bastion (1984), including 19 B&amp;W Stills (Large), 1 Press Kit/ Review</p>", "description_for_label": ["<p>Publicity kit for the production The Last Bastion (1984), including 19 B&amp;W Stills (Large), 1 Press Kit/ Review</p>"], "credit_line_for_label": "", "details": [{"label": "Subject category", "display_values": ["Documentation"]}, {"label": "Object Types", "display_values": ["Publicity kit"]}], "stats": {"tap_count": 0}, "links": [], "creators_primary": [], "creators_other": [], "media_note": null, "holdings": [], "part_of": null, "parts": [], "part_siblings": [], "group": null, "group_works": [], "group_siblings": [], "source": {"name": "Vernon", "slug": "vernon"}, "source_identifier": "149378", "eaas_environment_id": null, "production_places": [], "production_dates": [], "labels": [58257]}, {"id": 118764, "acmi_id": "R0001405", "title": "[The Lancaster Miller affair : publicity kit]", "title_annotation": "", "slug": "the-lancaster-miller-affair-publicity-kit", "creator_credit": "", "credit_line": "", "headline_credit": "", "video_links": [], "record_type": "work", "type": "Object", "is_on_display": false, "last_on_display_place": null, "last_on_display_date": null, "is_context_indigenous": false, "material_description": "", "unpublished": false, "external": false, "first_production_date": null, "commissioned": false, "public_domain": false, "external_references": [], "brief_description": "<p>Publicity kit for the production The Lancaster Miller Affair ( TV 1990), including 14 B&amp;W Stills (Large), 3 Press Kit/ Reviews</p>", "constellations_primary": [], "constellations_other": [], "recommendations": [], "creator_credit_for_label": "", "headline_credit_for_label": "", "title_for_label": "<p>[The Lancaster Miller affair : publicity kit]</p>", "description": "<p>Publicity kit for the production The Lancaster Miller Affair ( TV 1990), including 14 B&amp;W Stills (Large), 3 Press Kit/ Reviews</p>", "description_for_label": ["<p>Publicity kit for the production The Lancaster Miller Affair ( TV 1990), including 14 B&amp;W Stills (Large), 3 Press Kit/ Reviews</p>"], "credit_line_for_label": "", "details": [{"label": "Subject category", "display_values": ["Documentation"]}, {"label": "Object Types", "display_values": ["Publicity kit"]}], "stats": {"tap_count": 0}, "links": [], "creators_primary": [], "creators_other": [], "media_note": null, "holdings": [], "part_of": null, "parts": [], "part_siblings": [], "group": null, "group_works": [], "group_siblings": [], "source": {"name": "Vernon", "slug": "vernon"}, "source_identifier": "149377", "eaas_environment_id": null, "production_places": [], "production_dates": [], "labels": [58256]}, {"id": 118561, "acmi_id": "R0001182", "title": "[The King of the two day wonder : publicity kit]", "title_annotation": "", "slug": "the-king-of-the-two-day-wonder-publicity-kit", "creator_credit": "", "credit_line": "", "headline_credit": "", "video_links": [], "record_type": "work", "type": "Object", "is_on_display": false, "last_on_display_place": null, "last_on_display_date": null, "is_context_indigenous": false, "material_description": "", "unpublished": false, "external": false, "first_production_date": null, "commissioned": false, "public_domain": false, "external_references": [], "brief_description": "<p>Publicity kit for the production The King of the Two Day Wonder (1979), including 2 B&amp;W Stills (Large), 2 B&amp;W Stills (Small)</p>", "constellations_primary": [], "constellations_other": [], "recommendations": [], "creator_credit_for_label": "", "headline_credit_for_label": "", "title_for_label": "<p>[The King of the two day wonder : publicity kit]</p>", "description": "<p>Publicity kit for the production The King of the Two Day Wonder (1979), including 2 B&amp;W Stills (Large), 2 B&amp;W Stills (Small)</p>", "description_for_label": ["<p>Publicity kit for the production The King of the Two Day Wonder (1979), including 2 B&amp;W Stills (Large), 2 B&amp;W Stills (Small)</p>"], "credit_line_for_label": "", "details": [{"label": "Subject category", "display_values": ["Documentation"]}, {"label": "Object Types", "display_values": ["Publicity kit"]}], "stats": {"tap_count": 0}, "links": [], "creators_primary": [], "creators_other": [], "media_note": null, "holdings": [], "part_of": null, "parts": [], "part_siblings": [], "group": null, "group_works": [], "group_siblings": [], "source": {"name": "Vernon", "slug": "vernon"}, "source_identifier": "149154", "eaas_environment_id": null, "production_places": [], "production_dates": [], "labels": [58056]}, {"id": 118395, "acmi_id": "R0000988", "title": "[The Karate kid : publicity kit]", "title_annotation": "", "slug": "the-karate-kid-publicity-kit", "creator_credit": "", "credit_line": "", "headline_credit": "1984", "video_links": [], "record_type": "work", "type": "Object", "is_on_display": false, "last_on_display_place": null, "last_on_display_date": null, "is_context_indigenous": false, "material_description": "", "unpublished": false, "external": false, "first_production_date": "1984-01-01T11:00:00+11:00", "commissioned": false, "public_domain": false, "external_references": [], "brief_description": "<p>Publicity kit for the production The Karate Kid (1984), including 2 B&amp;W Stills (Small), 1 Press Kit/ Review</p>", "constellations_primary": [], "constellations_other": [], "recommendations": [], "creator_credit_for_label": "", "headline_credit_for_label": "<p>1984</p>", "title_for_label": "<p>[The Karate kid : publicity kit]</p>", "description": "<p>Publicity kit for the production The Karate Kid (1984), including 2 B&amp;W Stills (Small), 1 Press Kit/ Review</p>", "description_for_label": ["<p>Publicity kit for the production The Karate Kid (1984), including 2 B&amp;W Stills (Small), 1 Press Kit/ Review</p>"], "credit_line_for_label": "", "details": [{"label": "Subject category", "display_values": ["Documentation"]}, {"label": "Object Types", "display_values": ["Publicity kit"]}], "stats": {"tap_count": 1}, "links": [], "creators_primary": [], "creators_other": [], "media_note": null, "holdings": [], "part_of": null, "parts": [], "part_siblings": [], "group": null, "group_works": [], "group_siblings": [], "source": {"name": "Vernon", "slug": "vernon"}, "source_identifier": "148960", "eaas_environment_id": null, "production_places": [], "production_dates": [{"date": "1984", "notes": "", "to_year": "1984"}], "labels": [57894]}, {"id": 119268, "acmi_id": "R0001402", "title": "[The Journey : publicity kit]", "title_annotation": "", "slug": "the-journey-publicity-kit", "creator_credit": "", "credit_line": "", "headline_credit": "", "video_links": [], "record_type": "work", "type": "Object", "is_on_display": false, "last_on_display_place": null, "last_on_display_date": null, "is_context_indigenous": false, "material_description": "", "unpublished": false, "external": false, "first_production_date": null, "commissioned": false, "public_domain": false, "external_references": [], "brief_description": "<p>Publicity kit for The Journey (1993), comprising 1 B&amp;W Still (Small), 1 Press Kit/ Review</p>", "constellations_primary": [], "constellations_other": [], "recommendations": [], "creator_credit_for_label": "", "headline_credit_for_label": "", "title_for_label": "<p>[The Journey : publicity kit]</p>", "description": "<p>Publicity kit for The Journey (1993), comprising 1 B&amp;W Still (Small), 1 Press Kit/ Review</p>", "description_for_label": ["<p>Publicity kit for The Journey (1993), comprising 1 B&amp;W Still (Small), 1 Press Kit/ Review</p>"], "credit_line_for_label": "", "details": [{"label": "Subject category", "display_values": ["Documentation"]}, {"label": "Object Types", "display_values": ["Publicity kit"]}], "stats": {"tap_count": 1}, "links": [], "creators_primary": [], "creators_other": [], "media_note": null, "holdings": [], "part_of": null, "parts": [], "part_siblings": [], "group": null, "group_works": [], "group_siblings": [], "source": {"name": "Vernon", "slug": "vernon"}, "source_identifier": "149374", "eaas_environment_id": null, "production_places": [], "production_dates": [], "labels": [58737]}, {"id": 118353, "acmi_id": "R0000942", "title": "[The Journalist : publicity kit]", "title_annotation": "", "slug": "the-journalist-publicity-kit", "creator_credit": "", "credit_line": "", "headline_credit": "1979", "video_links": [], "record_type": "work", "type": "Object", "is_on_display": false, "last_on_display_place": null, "last_on_display_date": null, "is_context_indigenous": false, "material_description": "", "unpublished": false, "external": false, "first_production_date": "1979-01-01T11:00:00+11:00", "commissioned": false, "public_domain": false, "external_references": [], "brief_description": "<p>Publicity kit for the production The Journalist (1979), including 11 B&amp;W Stills (Large), 3 Press Kit/ Reviews. Director Michael Thornhill, Starring Jack Thompson, Elizabeth Alexander, Sam Neill, Carol Raye, Penne Hackforth-Jones, Charles &#8216;Bud&#8217; Tingwell.</p>", "constellations_primary": [], "constellations_other": [], "recommendations": [], "creator_credit_for_label": "", "headline_credit_for_label": "<p>1979</p>", "title_for_label": "<p>[The Journalist : publicity kit]</p>", "description": "<p>Publicity kit for the production The Journalist (1979), including 11 B&amp;W Stills (Large), 3 Press Kit/ Reviews. Director Michael Thornhill, Starring Jack Thompson, Elizabeth Alexander, Sam Neill, Carol Raye, Penne Hackforth-Jones, Charles &#8216;Bud&#8217; Tingwell.</p>", "description_for_label": ["<p>Publicity kit for the production The Journalist (1979), including 11 B&amp;W Stills (Large), 3 Press Kit/ Reviews. Director Michael Thornhill, Starring Jack Thompson, Elizabeth Alexander, Sam Neill, Carol Raye, Penne Hackforth-Jones, Charles &#8216;Bud&#8217; Tingwell.</p>"], "credit_line_for_label": "", "details": [{"label": "Subject category", "display_values": ["Documentation"]}, {"label": "Object Types", "display_values": ["Publicity kit"]}], "stats": {"tap_count": 0}, "links": [], "creators_primary": [], "creators_other": [], "media_note": null, "holdings": [], "part_of": null, "parts": [], "part_siblings": [], "group": null, "group_works": [], "group_siblings": [], "source": {"name": "Vernon", "slug": "vernon"}, "source_identifier": "148803", "eaas_environment_id": null, "production_places": [], "production_dates": [{"date": "1979", "notes": "", "to_year": "1979"}], "labels": [57857]}, {"id": 119097, "acmi_id": "R0002193", "title": "[The John Sullivan story : publicity kit]", "title_annotation": "", "slug": "the-john-sullivan-story-publicity-kit", "creator_credit": "", "credit_line": "", "headline_credit": "1979", "video_links": [], "record_type": "work", "type": "Object", "is_on_display": false, "last_on_display_place": null, "last_on_display_date": null, "is_context_indigenous": false, "material_description": "", "unpublished": false, "external": false, "first_production_date": "1979-01-01T11:00:00+11:00", "commissioned": false, "public_domain": false, "external_references": [], "brief_description": "<p>Publicity kit for the production The John Sullivan Story (TV 1979), including 24 B&amp;W Stills (Large), 2 Press Kit/ Reviews, 1 Colour Transparency (Large)</p>", "constellations_primary": [], "constellations_other": [], "recommendations": [], "creator_credit_for_label": "", "headline_credit_for_label": "<p>1979</p>", "title_for_label": "<p>[The John Sullivan story : publicity kit]</p>", "description": "<p>Publicity kit for the production The John Sullivan Story (TV 1979), including 24 B&amp;W Stills (Large), 2 Press Kit/ Reviews, 1 Colour Transparency (Large)</p>", "description_for_label": ["<p>Publicity kit for the production The John Sullivan Story (TV 1979), including 24 B&amp;W Stills (Large), 2 Press Kit/ Reviews, 1 Colour Transparency (Large)</p>"], "credit_line_for_label": "", "details": [{"label": "Subject category", "display_values": ["Documentation"]}, {"label": "Object Types", "display_values": ["Publicity kit"]}], "stats": {"tap_count": 0}, "links": [], "creators_primary": [], "creators_other": [], "media_note": null, "holdings": [], "part_of": null, "parts": [], "part_siblings": [], "group": null, "group_works": [], "group_siblings": [], "source": {"name": "Vernon", "slug": "vernon"}, "source_identifier": "150334", "eaas_environment_id": null, "production_places": [], "production_dates": [{"date": "1979", "notes": "", "to_year": "1979"}], "labels": [58570]}, {"id": 118908, "acmi_id": "R0001824", "title": "[The Invisible girl : publicity kit]", "title_annotation": "", "slug": "the-invisible-girl-publicity-kit", "creator_credit": "", "credit_line": "", "headline_credit": "", "video_links": [], "record_type": "work", "type": "Object", "is_on_display": false, "last_on_display_place": null, "last_on_display_date": null, "is_context_indigenous": false, "material_description": "", "unpublished": false, "external": false, "first_production_date": null, "commissioned": false, "public_domain": false, "external_references": [], "brief_description": "<p>Publicity kit for the production The Invisible Girl (1986), including 2 B&amp;W Stills (Large)</p>", "constellations_primary": [], "constellations_other": [], "recommendations": [], "creator_credit_for_label": "", "headline_credit_for_label": "", "title_for_label": "<p>[The Invisible girl : publicity kit]</p>", "description": "<p>Publicity kit for the production The Invisible Girl (1986), including 2 B&amp;W Stills (Large)</p>", "description_for_label": ["<p>Publicity kit for the production The Invisible Girl (1986), including 2 B&amp;W Stills (Large)</p>"], "credit_line_for_label": "", "details": [{"label": "Subject category", "display_values": ["Documentation"]}, {"label": "Object Types", "display_values": ["Publicity kit"]}], "stats": {"tap_count": 0}, "links": [], "creators_primary": [], "creators_other": [], "media_note": null, "holdings": [], "part_of": null, "parts": [], "part_siblings": [], "group": null, "group_works": [], "group_siblings": [], "source": {"name": "Vernon", "slug": "vernon"}, "source_identifier": "149797", "eaas_environment_id": null, "production_places": [], "production_dates": [], "labels": [58395]}]}