{"count": 41724, "next": "https://api.acmi.net.au/works/?page=4149", "previous": "https://api.acmi.net.au/works/?page=4147", "results": [{"id": 118667, "acmi_id": "R0001302", "title": "[Ephemeral desire : publicity kit]", "title_annotation": "", "slug": "ephemeral-desire-publicity-kit", "creator_credit": "", "credit_line": "", "headline_credit": "", "video_links": [], "record_type": "work", "type": "Object", "is_on_display": false, "last_on_display_place": null, "last_on_display_date": null, "is_context_indigenous": false, "material_description": "", "unpublished": false, "external": false, "first_production_date": null, "commissioned": false, "public_domain": false, "external_references": [], "brief_description": "<p>Publicity kit for the production Ephemeral Desire (1986), including 2 B&amp;W Stills (Small), 1 Press Kit/ Review</p>", "constellations_primary": [], "constellations_other": [], "recommendations": [], "creator_credit_for_label": "", "headline_credit_for_label": "", "title_for_label": "<p>[Ephemeral desire : publicity kit]</p>", "description": "<p>Publicity kit for the production Ephemeral Desire (1986), including 2 B&amp;W Stills (Small), 1 Press Kit/ Review</p>", "description_for_label": ["<p>Publicity kit for the production Ephemeral Desire (1986), including 2 B&amp;W Stills (Small), 1 Press Kit/ Review</p>"], "credit_line_for_label": "", "details": [{"label": "Subject category", "display_values": ["Documentation"]}, {"label": "Object Types", "display_values": ["Publicity kit"]}], "stats": {"tap_count": 0}, "links": [], "creators_primary": [], "creators_other": [], "media_note": null, "holdings": [], "part_of": null, "parts": [], "part_siblings": [], "group": null, "group_works": [], "group_siblings": [], "source": {"name": "Vernon", "slug": "vernon"}, "source_identifier": "149274", "eaas_environment_id": null, "production_places": [], "production_dates": [], "labels": [58162]}, {"id": 118520, "acmi_id": "R0001136", "title": "[End play : publicity kit]", "title_annotation": "", "slug": "end-play-publicity-kit", "creator_credit": "", "credit_line": "", "headline_credit": "", "video_links": [], "record_type": "work", "type": "Object", "is_on_display": false, "last_on_display_place": null, "last_on_display_date": null, "is_context_indigenous": false, "material_description": "", "unpublished": false, "external": false, "first_production_date": null, "commissioned": false, "public_domain": false, "external_references": [], "brief_description": "<p>Publicity kit for the production End Play (1976), including 29 B&amp;W Stills (Large), 1 Colour Still (Large), 5 35mm Colour Transparencies, 9 Colour Transparencies (Large)</p>", "constellations_primary": [], "constellations_other": [], "recommendations": [], "creator_credit_for_label": "", "headline_credit_for_label": "", "title_for_label": "<p>[End play : publicity kit]</p>", "description": "<p>Publicity kit for the production End Play (1976), including 29 B&amp;W Stills (Large), 1 Colour Still (Large), 5 35mm Colour Transparencies, 9 Colour Transparencies (Large)</p>", "description_for_label": ["<p>Publicity kit for the production End Play (1976), including 29 B&amp;W Stills (Large), 1 Colour Still (Large), 5 35mm Colour Transparencies, 9 Colour Transparencies (Large)</p>"], "credit_line_for_label": "", "details": [{"label": "Subject category", "display_values": ["Documentation"]}, {"label": "Object Types", "display_values": ["Publicity kit"]}], "stats": {"tap_count": 0}, "links": [], "creators_primary": [], "creators_other": [], "media_note": null, "holdings": [], "part_of": null, "parts": [], "part_siblings": [], "group": null, "group_works": [], "group_siblings": [], "source": {"name": "Vernon", "slug": "vernon"}, "source_identifier": "149108", "eaas_environment_id": null, "production_places": [], "production_dates": [], "labels": [58015]}, {"id": 118663, "acmi_id": "R0001298", "title": "[Emoh ruo : publicity kit]", "title_annotation": "", "slug": "emoh-ruo-publicity-kit", "creator_credit": "", "credit_line": "", "headline_credit": "", "video_links": [], "record_type": "work", "type": "Object", "is_on_display": false, "last_on_display_place": null, "last_on_display_date": null, "is_context_indigenous": false, "material_description": "", "unpublished": false, "external": false, "first_production_date": null, "commissioned": false, "public_domain": false, "external_references": [], "brief_description": "<p>Publicity kit for the production Emoh Ruo (1985), including 9 B&amp;W Stills (Large), 3 B&amp;W Stills (Small)</p>", "constellations_primary": [], "constellations_other": [], "recommendations": [], "creator_credit_for_label": "", "headline_credit_for_label": "", "title_for_label": "<p>[Emoh ruo : publicity kit]</p>", "description": "<p>Publicity kit for the production Emoh Ruo (1985), including 9 B&amp;W Stills (Large), 3 B&amp;W Stills (Small)</p>", "description_for_label": ["<p>Publicity kit for the production Emoh Ruo (1985), including 9 B&amp;W Stills (Large), 3 B&amp;W Stills (Small)</p>"], "credit_line_for_label": "", "details": [{"label": "Subject category", "display_values": ["Documentation"]}, {"label": "Object Types", "display_values": ["Publicity kit"]}], "stats": {"tap_count": 2}, "links": [], "creators_primary": [], "creators_other": [], "media_note": null, "holdings": [], "part_of": null, "parts": [], "part_siblings": [], "group": null, "group_works": [], "group_siblings": [], "source": {"name": "Vernon", "slug": "vernon"}, "source_identifier": "149270", "eaas_environment_id": null, "production_places": [], "production_dates": [], "labels": [58158]}, {"id": 118662, "acmi_id": "R0001297", "title": "[Emma's war : publicity kit]", "title_annotation": "", "slug": "emmas-war-publicity-kit", "creator_credit": "", "credit_line": "", "headline_credit": "", "video_links": [], "record_type": "work", "type": "Object", "is_on_display": false, "last_on_display_place": null, "last_on_display_date": null, "is_context_indigenous": false, "material_description": "", "unpublished": false, "external": false, "first_production_date": null, "commissioned": false, "public_domain": false, "external_references": [], "brief_description": "<p>Publicity kit for the production Emma&#8217;s War (1986), including 3 B&amp;W Stills (Large)</p>", "constellations_primary": [], "constellations_other": [], "recommendations": [], "creator_credit_for_label": "", "headline_credit_for_label": "", "title_for_label": "<p>[Emma&#8217;s war : publicity kit]</p>", "description": "<p>Publicity kit for the production Emma&#8217;s War (1986), including 3 B&amp;W Stills (Large)</p>", "description_for_label": ["<p>Publicity kit for the production Emma&#8217;s War (1986), including 3 B&amp;W Stills (Large)</p>"], "credit_line_for_label": "", "details": [{"label": "Subject category", "display_values": ["Documentation"]}, {"label": "Object Types", "display_values": ["Publicity kit"]}], "stats": {"tap_count": 0}, "links": [], "creators_primary": [], "creators_other": [], "media_note": null, "holdings": [], "part_of": null, "parts": [], "part_siblings": [], "group": null, "group_works": [], "group_siblings": [], "source": {"name": "Vernon", "slug": "vernon"}, "source_identifier": "149269", "eaas_environment_id": null, "production_places": [], "production_dates": [], "labels": [58157]}, {"id": 118661, "acmi_id": "R0001296", "title": "[Emerging : publicity kit]", "title_annotation": "", "slug": "emerging-publicity-kit", "creator_credit": "", "credit_line": "", "headline_credit": "", "video_links": [], "record_type": "work", "type": "Object", "is_on_display": false, "last_on_display_place": null, "last_on_display_date": null, "is_context_indigenous": false, "material_description": "", "unpublished": false, "external": false, "first_production_date": null, "commissioned": false, "public_domain": false, "external_references": [], "brief_description": "<p>Publicity kit for the production Emerging (1985), including 2 B&amp;W Stills (Large)</p>", "constellations_primary": [], "constellations_other": [], "recommendations": [], "creator_credit_for_label": "", "headline_credit_for_label": "", "title_for_label": "<p>[Emerging : publicity kit]</p>", "description": "<p>Publicity kit for the production Emerging (1985), including 2 B&amp;W Stills (Large)</p>", "description_for_label": ["<p>Publicity kit for the production Emerging (1985), including 2 B&amp;W Stills (Large)</p>"], "credit_line_for_label": "", "details": [{"label": "Subject category", "display_values": ["Documentation"]}, {"label": "Object Types", "display_values": ["Publicity kit"]}], "stats": {"tap_count": 1}, "links": [], "creators_primary": [], "creators_other": [], "media_note": null, "holdings": [], "part_of": null, "parts": [], "part_siblings": [], "group": null, "group_works": [], "group_siblings": [], "source": {"name": "Vernon", "slug": "vernon"}, "source_identifier": "149268", "eaas_environment_id": null, "production_places": [], "production_dates": [], "labels": [58156]}, {"id": 118385, "acmi_id": "R0000978", "title": "[Emerald city : publicity kit]", "title_annotation": "", "slug": "emerald-city-publicity-kit", "creator_credit": "", "credit_line": "", "headline_credit": "1988", "video_links": [], "record_type": "work", "type": "Object", "is_on_display": false, "last_on_display_place": null, "last_on_display_date": null, "is_context_indigenous": false, "material_description": "", "unpublished": false, "external": false, "first_production_date": "1988-01-01T11:00:00+11:00", "commissioned": false, "public_domain": false, "external_references": [], "brief_description": "<p>Publicity kit for the production Emerald City (1988), including 22 B&amp;W Stills (Small), 1 Press Kit/ Review</p>", "constellations_primary": [], "constellations_other": [], "recommendations": [], "creator_credit_for_label": "", "headline_credit_for_label": "<p>1988</p>", "title_for_label": "<p>[Emerald city : publicity kit]</p>", "description": "<p>Publicity kit for the production Emerald City (1988), including 22 B&amp;W Stills (Small), 1 Press Kit/ Review</p>", "description_for_label": ["<p>Publicity kit for the production Emerald City (1988), including 22 B&amp;W Stills (Small), 1 Press Kit/ Review</p>"], "credit_line_for_label": "", "details": [{"label": "Subject category", "display_values": ["Documentation"]}, {"label": "Object Types", "display_values": ["Publicity kit"]}], "stats": {"tap_count": 0}, "links": [], "creators_primary": [], "creators_other": [], "media_note": null, "holdings": [], "part_of": null, "parts": [], "part_siblings": [], "group": null, "group_works": [], "group_siblings": [], "source": {"name": "Vernon", "slug": "vernon"}, "source_identifier": "148950", "eaas_environment_id": null, "production_places": [], "production_dates": [{"date": "1988", "notes": "", "to_year": "1988"}], "labels": [57885]}, {"id": 118660, "acmi_id": "R0001295", "title": "[Emden : publicity kit]", "title_annotation": "", "slug": "emden-publicity-kit", "creator_credit": "", "credit_line": "", "headline_credit": "", "video_links": [], "record_type": "work", "type": "Object", "is_on_display": false, "last_on_display_place": null, "last_on_display_date": null, "is_context_indigenous": false, "material_description": "", "unpublished": false, "external": false, "first_production_date": null, "commissioned": false, "public_domain": false, "external_references": [], "brief_description": "<p>Publicity kit for the production Emden, including 5 B&amp;W Stills (Large), 3 B&amp;W Stills (Small), 4 B&amp;W Proof Sheets</p>", "constellations_primary": [], "constellations_other": [], "recommendations": [], "creator_credit_for_label": "", "headline_credit_for_label": "", "title_for_label": "<p>[Emden : publicity kit]</p>", "description": "<p>Publicity kit for the production Emden, including 5 B&amp;W Stills (Large), 3 B&amp;W Stills (Small), 4 B&amp;W Proof Sheets</p>", "description_for_label": ["<p>Publicity kit for the production Emden, including 5 B&amp;W Stills (Large), 3 B&amp;W Stills (Small), 4 B&amp;W Proof Sheets</p>"], "credit_line_for_label": "", "details": [{"label": "Subject category", "display_values": ["Documentation"]}, {"label": "Object Types", "display_values": ["Publicity kit"]}], "stats": {"tap_count": 0}, "links": [], "creators_primary": [], "creators_other": [], "media_note": null, "holdings": [], "part_of": null, "parts": [], "part_siblings": [], "group": null, "group_works": [], "group_siblings": [], "source": {"name": "Vernon", "slug": "vernon"}, "source_identifier": "149267", "eaas_environment_id": null, "production_places": [], "production_dates": [], "labels": [58155]}, {"id": 94754, "acmi_id": "318773", "title": "[Elmer elephant]", "title_annotation": "", "slug": "elmer-elephant", "creator_credit": "Wilfred Jackson, Walt Disney and Walt Disney Productions", "credit_line": "", "headline_credit": "United States, 1936", "video_links": [], "record_type": "work", "type": "Film", "is_on_display": false, "last_on_display_place": null, "last_on_display_date": null, "is_context_indigenous": false, "material_description": "", "unpublished": false, "external": false, "first_production_date": "1936-01-01T10:00:00+10:00", "commissioned": false, "public_domain": false, "external_references": [{"id": 52896, "source": {"name": "Wikidata", "slug": "wikidata"}, "source_identifier": "Q3051577"}], "brief_description": "<p>A &#8220;Silly Symphony&#8221; animated story about how the animals ridicule Elmer&#8217;s long nose until he saves the day by using his trunk to extinguish a fire. Opening title missing.</p>", "constellations_primary": [], "constellations_other": [], "recommendations": [], "creator_credit_for_label": "<p>Wilfred Jackson, Walt Disney and Walt Disney Productions</p>", "headline_credit_for_label": "<p>United States, 1936</p>", "title_for_label": "<p>[Elmer elephant]</p>", "description": "<p>A &#8220;Silly Symphony&#8221; animated story about how the animals ridicule Elmer&#8217;s long nose until he saves the day by using his trunk to extinguish a fire. Opening title missing.</p>", "description_for_label": ["<p>A &#8220;Silly Symphony&#8221; animated story about how the animals ridicule Elmer&#8217;s long nose until he saves the day by using his trunk to extinguish a fire. Opening title missing.</p>"], "credit_line_for_label": "", "details": [{"label": "Duration", "display_values": ["00:07:38:00"]}, {"label": "Language", "display_values": ["English"]}, {"label": "Subject categories", "display_values": ["Animals & Wildlife&nbsp;→ Elephants - Fiction", "Animation", "Animation&nbsp;→ Animated films - United States", "Childrens Films", "Childrens Films&nbsp;→ Children 6-12", "Childrens Films&nbsp;→ Children's films - United States", "Comedy", "Short films", "Short films&nbsp;→ Short films - United States"]}, {"label": "Sound/audio", "display_values": ["Sound"]}, {"label": "Colour", "display_values": ["Colour"]}], "stats": {"tap_count": 0}, "links": [], "creators_primary": [{"id": 821085, "name": "Wilfred Jackson", "creator_id": 72154, "creator_wikidata_id": "Q1385379", "role": "director", "role_id": 938, "is_primary": true}, {"id": 1816668, "name": "Walt Disney", "creator_id": 68785, "creator_wikidata_id": "Q8704", "role": "producer", "role_id": 1089, "is_primary": true}, {"id": 821083, "name": "Walt Disney Productions", "creator_id": 72131, "creator_wikidata_id": null, "role": "production company", "role_id": 941, "is_primary": true}], "creators_other": [], "media_note": "Sorry, we don't have images or video for this item.", "holdings": [{"name": "16mm film; Access Print (Section 1)", "identifier": "", "description": ""}], "part_of": null, "parts": [], "part_siblings": [], "group": null, "group_works": [], "group_siblings": [], "source": {"name": "Vernon", "slug": "vernon"}, "source_identifier": "52799", "eaas_environment_id": null, "production_places": [{"id": 2, "name": "United States", "slug": "united-states"}], "production_dates": [{"date": "1936", "notes": "Produced", "to_year": "1936"}], "labels": [34260]}, {"id": 118384, "acmi_id": "R0000977", "title": "[Elizabeth : publicity kit]", "title_annotation": "", "slug": "elizabeth-publicity-kit", "creator_credit": "", "credit_line": "", "headline_credit": "1998", "video_links": [], "record_type": "work", "type": "Object", "is_on_display": false, "last_on_display_place": null, "last_on_display_date": null, "is_context_indigenous": false, "material_description": "", "unpublished": false, "external": false, "first_production_date": "1998-01-01T11:00:00+11:00", "commissioned": false, "public_domain": false, "external_references": [], "brief_description": "<p>Publicity kit for the production Elizabeth (1998), including 9 35mm Colour Transparencies, 1 Press Kit/ Review</p>", "constellations_primary": [], "constellations_other": [], "recommendations": [], "creator_credit_for_label": "", "headline_credit_for_label": "<p>1998</p>", "title_for_label": "<p>[Elizabeth : publicity kit]</p>", "description": "<p>Publicity kit for the production Elizabeth (1998), including 9 35mm Colour Transparencies, 1 Press Kit/ Review</p>", "description_for_label": ["<p>Publicity kit for the production Elizabeth (1998), including 9 35mm Colour Transparencies, 1 Press Kit/ Review</p>"], "credit_line_for_label": "", "details": [{"label": "Subject category", "display_values": ["Documentation"]}, {"label": "Object Types", "display_values": ["Publicity kit"]}], "stats": {"tap_count": 2}, "links": [], "creators_primary": [], "creators_other": [], "media_note": null, "holdings": [], "part_of": null, "parts": [], "part_siblings": [], "group": null, "group_works": [], "group_siblings": [], "source": {"name": "Vernon", "slug": "vernon"}, "source_identifier": "148949", "eaas_environment_id": null, "production_places": [], "production_dates": [{"date": "1998", "notes": "", "to_year": "1998"}], "labels": [57884]}, {"id": 118658, "acmi_id": "R0001292", "title": "[Eight ball : publicity kit]", "title_annotation": "", "slug": "eight-ball-publicity-kit", "creator_credit": "", "credit_line": "", "headline_credit": "", "video_links": [], "record_type": "work", "type": "Object", "is_on_display": false, "last_on_display_place": null, "last_on_display_date": null, "is_context_indigenous": false, "material_description": "", "unpublished": false, "external": false, "first_production_date": null, "commissioned": false, "public_domain": false, "external_references": [], "brief_description": "<p>Publicity kit for the production Eight Ball (1993), including 14 B&amp;W Stills (Large)</p>", "constellations_primary": [], "constellations_other": [], "recommendations": [], "creator_credit_for_label": "", "headline_credit_for_label": "", "title_for_label": "<p>[Eight ball : publicity kit]</p>", "description": "<p>Publicity kit for the production Eight Ball (1993), including 14 B&amp;W Stills (Large)</p>", "description_for_label": ["<p>Publicity kit for the production Eight Ball (1993), including 14 B&amp;W Stills (Large)</p>"], "credit_line_for_label": "", "details": [{"label": "Subject category", "display_values": ["Documentation"]}, {"label": "Object Types", "display_values": ["Publicity kit"]}], "stats": {"tap_count": 2}, "links": [], "creators_primary": [], "creators_other": [], "media_note": null, "holdings": [], "part_of": null, "parts": [], "part_siblings": [], "group": null, "group_works": [], "group_siblings": [], "source": {"name": "Vernon", "slug": "vernon"}, "source_identifier": "149264", "eaas_environment_id": null, "production_places": [], "production_dates": [], "labels": [58153]}]}