{"count": 41735, "next": "https://api.acmi.net.au/works/?page=1191", "previous": "https://api.acmi.net.au/works/?page=1189", "results": [{"id": 108418, "acmi_id": "B1002830", "title": "My Yiayia", "title_annotation": "", "slug": "my-yiayia", "creator_credit": "", "credit_line": "", "headline_credit": "Australia", "video_links": [], "record_type": "work", "type": "Film", "is_on_display": false, "last_on_display_place": null, "last_on_display_date": null, "is_context_indigenous": false, "material_description": "", "unpublished": false, "external": false, "first_production_date": null, "commissioned": false, "public_domain": false, "external_references": [], "brief_description": "<p>Describes the relationship held with her Greek grandmother and a little about their life in Australia.</p>", "constellations_primary": [], "constellations_other": [], "recommendations": [], "creator_credit_for_label": "", "headline_credit_for_label": "<p>Australia</p>", "title_for_label": "<p>My Yiayia</p>", "description": "<p>Describes the relationship held with her Greek grandmother and a little about their life in Australia.</p>", "description_for_label": ["<p>Describes the relationship held with her Greek grandmother and a little about their life in Australia.</p>"], "credit_line_for_label": "", "details": [{"label": "Subject categories", "display_values": ["Anthropology, Ethnology, Exploration & Travel&nbsp;→ Greeks - Australia", "Biographical", "Economics, Philosophy, Politics, Religion & Sociology&nbsp;→ Greeks - Australia", "Short films", "Short films&nbsp;→ Short films - Australia"]}], "stats": {"tap_count": 0}, "links": [], "creators_primary": [], "creators_other": [], "media_note": "Sorry, we don't have images or video for this item.", "holdings": [{"name": "CD ROM; Master", "identifier": "", "description": ""}, {"name": "CD ROM; Copy", "identifier": "", "description": ""}], "part_of": null, "parts": [], "part_siblings": [], "group": null, "group_works": [], "group_siblings": [], "source": {"name": "Vernon", "slug": "vernon"}, "source_identifier": "933", "eaas_environment_id": null, "production_places": [{"id": 3, "name": "Australia", "slug": "australia"}], "production_dates": [], "labels": [47911]}, {"id": 108417, "acmi_id": "B1002829", "title": "Lest we forget", "title_annotation": "", "slug": "lest-we-forget", "creator_credit": "", "credit_line": "", "headline_credit": "", "video_links": [], "record_type": "work", "type": "Film", "is_on_display": false, "last_on_display_place": null, "last_on_display_date": null, "is_context_indigenous": false, "material_description": "", "unpublished": false, "external": false, "first_production_date": null, "commissioned": false, "public_domain": false, "external_references": [], "brief_description": "<p>A message from mother to son, Darcy who was born on Anzac day 1996. She wants to explain to him that his father left, but that is not his fault and that she is always there for him.</p>", "constellations_primary": [], "constellations_other": [], "recommendations": [], "creator_credit_for_label": "", "headline_credit_for_label": "", "title_for_label": "<p>Lest we forget</p>", "description": "<p>A message from mother to son, Darcy who was born on Anzac day 1996. She wants to explain to him that his father left, but that is not his fault and that she is always there for him.</p>", "description_for_label": ["<p>A message from mother to son, Darcy who was born on Anzac day 1996. She wants to explain to him that his father left, but that is not his fault and that she is always there for him.</p>"], "credit_line_for_label": "", "details": [], "stats": {"tap_count": 0}, "links": [], "creators_primary": [], "creators_other": [], "media_note": "Sorry, we don't have images or video for this item.", "holdings": [{"name": "CD ROM; Master", "identifier": "", "description": ""}, {"name": "CD ROM; Copy", "identifier": "", "description": ""}], "part_of": null, "parts": [], "part_siblings": [], "group": null, "group_works": [], "group_siblings": [], "source": {"name": "Vernon", "slug": "vernon"}, "source_identifier": "932", "eaas_environment_id": null, "production_places": [], "production_dates": [], "labels": [47910]}, {"id": 108416, "acmi_id": "B1002828", "title": "Journey", "title_annotation": "", "slug": "journey", "creator_credit": "Gary Simmons", "credit_line": "", "headline_credit": "Australia", "video_links": [], "record_type": "work", "type": "Film", "is_on_display": false, "last_on_display_place": null, "last_on_display_date": null, "is_context_indigenous": false, "material_description": "", "unpublished": false, "external": false, "first_production_date": null, "commissioned": false, "public_domain": false, "external_references": [], "brief_description": "<p>Inspired by Gary&#8217;s neighbour Tony, who emigrated from Italy in 1952. Describes what people had to go through in search of a better life in Australia.</p>", "constellations_primary": [], "constellations_other": [], "recommendations": [], "creator_credit_for_label": "<p>Gary Simmons</p>", "headline_credit_for_label": "<p>Australia</p>", "title_for_label": "<p>Journey</p>", "description": "<p>Inspired by Gary&#8217;s neighbour Tony, who emigrated from Italy in 1952. Describes what people had to go through in search of a better life in Australia.</p>", "description_for_label": ["<p>Inspired by Gary&#8217;s neighbour Tony, who emigrated from Italy in 1952. Describes what people had to go through in search of a better life in Australia.</p>"], "credit_line_for_label": "", "details": [{"label": "Subject categories", "display_values": ["Anthropology, Ethnology, Exploration & Travel&nbsp;→ Italians - Australia", "Biographical", "Documentary", "Documentary&nbsp;→ Documentary films - Australia", "Economics, Philosophy, Politics, Religion & Sociology&nbsp;→ Australia - Emigration and immigration", "Economics, Philosophy, Politics, Religion & Sociology&nbsp;→ Emigration and immigration", "Economics, Philosophy, Politics, Religion & Sociology&nbsp;→ Immigrants", "Economics, Philosophy, Politics, Religion & Sociology&nbsp;→ Immigrants - Australia", "Economics, Philosophy, Politics, Religion & Sociology&nbsp;→ Italians - Australia", "Short films", "Short films&nbsp;→ Short films - Australia"]}], "stats": {"tap_count": 0}, "links": [], "creators_primary": [{"id": 2748695, "name": "Gary Simmons", "creator_id": 7944, "creator_wikidata_id": null, "role": "creator", "role_id": 968, "is_primary": true}], "creators_other": [], "media_note": "Sorry, we don't have images or video for this item.", "holdings": [{"name": "CD ROM; Master", "identifier": "", "description": ""}, {"name": "CD ROM; Copy", "identifier": "", "description": ""}], "part_of": null, "parts": [], "part_siblings": [], "group": null, "group_works": [], "group_siblings": [], "source": {"name": "Vernon", "slug": "vernon"}, "source_identifier": "931", "eaas_environment_id": null, "production_places": [{"id": 3, "name": "Australia", "slug": "australia"}], "production_dates": [], "labels": [47909]}, {"id": 108415, "acmi_id": "B1002827", "title": "The Matriach", "title_annotation": "", "slug": "the-matriach", "creator_credit": "Christine Evely", "credit_line": "", "headline_credit": "Australia", "video_links": [], "record_type": "work", "type": "Film", "is_on_display": false, "last_on_display_place": null, "last_on_display_date": null, "is_context_indigenous": false, "material_description": "", "unpublished": false, "external": false, "first_production_date": null, "commissioned": false, "public_domain": false, "external_references": [], "brief_description": "<p>Story about the life of her grandmother.</p>", "constellations_primary": [], "constellations_other": [], "recommendations": [], "creator_credit_for_label": "<p>Christine Evely</p>", "headline_credit_for_label": "<p>Australia</p>", "title_for_label": "<p>The Matriach</p>", "description": "<p>Story about the life of her grandmother.</p>", "description_for_label": ["<p>Story about the life of her grandmother.</p>"], "credit_line_for_label": "", "details": [{"label": "Subject categories", "display_values": ["Biographical", "Documentary", "Documentary&nbsp;→ Documentary films - Australia", "Family, Gender Identity, Relationships & Sexuality&nbsp;→ Grandparents", "Multimedia", "Short films", "Short films&nbsp;→ Short films - Australia"]}], "stats": {"tap_count": 0}, "links": [], "creators_primary": [{"id": 2748694, "name": "Christine Evely", "creator_id": 6255, "creator_wikidata_id": "Q121086038", "role": "creator", "role_id": 968, "is_primary": true}], "creators_other": [], "media_note": "Sorry, we don't have images or video for this item.", "holdings": [{"name": "CD ROM; Master", "identifier": "", "description": ""}, {"name": "CD ROM; Copy", "identifier": "", "description": ""}], "part_of": null, "parts": [], "part_siblings": [], "group": null, "group_works": [], "group_siblings": [], "source": {"name": "Vernon", "slug": "vernon"}, "source_identifier": "930", "eaas_environment_id": null, "production_places": [{"id": 3, "name": "Australia", "slug": "australia"}], "production_dates": [], "labels": [47908]}, {"id": 108414, "acmi_id": "B1002826", "title": "A Story for Hamish", "title_annotation": "", "slug": "a-story-for-hamish", "creator_credit": "Annemaree O'Brien", "credit_line": "", "headline_credit": "Australia", "video_links": [], "record_type": "work", "type": "Film", "is_on_display": false, "last_on_display_place": null, "last_on_display_date": null, "is_context_indigenous": false, "material_description": "", "unpublished": false, "external": false, "first_production_date": null, "commissioned": false, "public_domain": false, "external_references": [], "brief_description": "<p>Camping trip to Northern Australia cira&#8230;</p>", "constellations_primary": [], "constellations_other": [], "recommendations": [], "creator_credit_for_label": "<p>Annemaree O&#8217;Brien</p>", "headline_credit_for_label": "<p>Australia</p>", "title_for_label": "<p>A Story for Hamish</p>", "description": "<p>Camping trip to Northern Australia cira&#8230;</p>", "description_for_label": ["<p>Camping trip to Northern Australia cira&#8230;</p>"], "credit_line_for_label": "", "details": [{"label": "Subject categories", "display_values": ["Multimedia", "Short films", "Short films&nbsp;→ Short films - Australia"]}], "stats": {"tap_count": 0}, "links": [], "creators_primary": [{"id": 2748693, "name": "Annemaree O'Brien", "creator_id": 7943, "creator_wikidata_id": "Q121091100", "role": "creator", "role_id": 968, "is_primary": true}], "creators_other": [], "media_note": "Sorry, we don't have images or video for this item.", "holdings": [{"name": "CD ROM; Master", "identifier": "", "description": ""}, {"name": "CD ROM; Copy", "identifier": "", "description": ""}], "part_of": null, "parts": [], "part_siblings": [], "group": null, "group_works": [], "group_siblings": [], "source": {"name": "Vernon", "slug": "vernon"}, "source_identifier": "929", "eaas_environment_id": null, "production_places": [{"id": 3, "name": "Australia", "slug": "australia"}], "production_dates": [], "labels": [47907]}, {"id": 108413, "acmi_id": "B1002824", "title": "of day, of night", "title_annotation": "", "slug": "of-day-of-night", "creator_credit": "Megan Heyward", "credit_line": "", "headline_credit": "Australia, 2001", "video_links": [], "record_type": "work", "type": "Artwork", "is_on_display": false, "last_on_display_place": null, "last_on_display_date": null, "is_context_indigenous": false, "material_description": "", "unpublished": false, "external": false, "first_production_date": "2001-01-01T11:00:00+11:00", "commissioned": false, "public_domain": false, "external_references": [], "brief_description": "<p>This experimental interactive CD-ROM explores the intersections of narrative, subjectivity and interactivity. A hybrid of cinematic, textual and interactive elements, it finds resonances between dream experience and the unexpected associations inherent in new media forms. A map of sorts. A handful of objects. A problem with dreaming. Found objects and their imagined traces and histories assist a woman who has a problem with dreaming.</p>", "constellations_primary": [], "constellations_other": [], "recommendations": [], "creator_credit_for_label": "<p>Megan Heyward</p>", "headline_credit_for_label": "<p>Australia, 2001</p>", "title_for_label": "<p>of day, of night</p>", "description": "<p>This experimental interactive CD-ROM explores the intersections of narrative, subjectivity and interactivity. A hybrid of cinematic, textual and interactive elements, it finds resonances between dream experience and the unexpected associations inherent in new media forms. A map of sorts. A handful of objects. A problem with dreaming. Found objects and their imagined traces and histories assist a woman who has a problem with dreaming.</p>", "description_for_label": ["<p>This experimental interactive CD-ROM explores the intersections of narrative, subjectivity and interactivity. A hybrid of cinematic, textual and interactive elements, it finds resonances between dream experience and the unexpected associations inherent in new media forms. A map of sorts. A handful of objects. A problem with dreaming. Found objects and their imagined traces and histories assist a woman who has a problem with dreaming.</p>"], "credit_line_for_label": "", "details": [{"label": "Language", "display_values": ["English"]}, {"label": "Audience classification", "display_values": ["unclassified"]}, {"label": "Subject categories", "display_values": ["Digital Art", "Multimedia"]}], "stats": {"tap_count": 2}, "links": [], "creators_primary": [{"id": 2748692, "name": "Megan Heyward", "creator_id": 7942, "creator_wikidata_id": null, "role": "creator", "role_id": 968, "is_primary": true}], "creators_other": [], "media_note": null, "holdings": [{"name": "CD ROM; Master", "identifier": "", "description": ""}, {"name": "CD ROM; Copy", "identifier": "", "description": ""}], "part_of": null, "parts": [], "part_siblings": [], "group": null, "group_works": [], "group_siblings": [], "source": {"name": "Vernon", "slug": "vernon"}, "source_identifier": "928", "eaas_environment_id": null, "production_places": [{"id": 3, "name": "Australia", "slug": "australia"}], "production_dates": [{"date": "2001", "notes": "", "to_year": "2001"}], "labels": [47906]}, {"id": 108412, "acmi_id": "B1002823", "title": "I am a singer", "title_annotation": "", "slug": "i-am-a-singer", "creator_credit": "Megan Heyward and Australian Film Commission", "credit_line": "", "headline_credit": "Australia, 1997", "video_links": [], "record_type": "work", "type": "Film", "is_on_display": false, "last_on_display_place": null, "last_on_display_date": null, "is_context_indigenous": false, "material_description": "", "unpublished": false, "external": false, "first_production_date": "1997-01-01T11:00:00+11:00", "commissioned": false, "public_domain": false, "external_references": [], "brief_description": "<p>This award winning interactive CD-Rom weaves a fragmentary narrative about an amnesiac famed for her singing. Exploring notions of performance, autobiography and memory this is an intriguing and compelling story in which the viewer helps to reconstruct the events of a life lived through song.</p>", "constellations_primary": [], "constellations_other": [], "recommendations": [], "creator_credit_for_label": "<p>Megan Heyward and Australian Film Commission</p>", "headline_credit_for_label": "<p>Australia, 1997</p>", "title_for_label": "<p>I am a singer</p>", "description": "<p>This award winning interactive CD-Rom weaves a fragmentary narrative about an amnesiac famed for her singing. Exploring notions of performance, autobiography and memory this is an intriguing and compelling story in which the viewer helps to reconstruct the events of a life lived through song.</p>", "description_for_label": ["<p>This award winning interactive CD-Rom weaves a fragmentary narrative about an amnesiac famed for her singing. Exploring notions of performance, autobiography and memory this is an intriguing and compelling story in which the viewer helps to reconstruct the events of a life lived through song.</p>"], "credit_line_for_label": "", "details": [{"label": "Language", "display_values": ["English"]}, {"label": "Audience classification", "display_values": ["unclassified"]}, {"label": "Subject categories", "display_values": ["Biographical", "Documentary", "Food, Health, Lifestyle, Medicine, Psychology & Safety&nbsp;→ Amnesia", "Multimedia", "Music & Performing Arts&nbsp;→ Singers", "Music & Performing Arts&nbsp;→ Singers - Australia", "Music & Performing Arts&nbsp;→ Singers - Biography", "Music & Performing Arts&nbsp;→ Singing", "Music & Performing Arts&nbsp;→ Women singers", "People&nbsp;→ Singers - Biography"]}, {"label": "Sound/audio", "display_values": ["Sound"]}, {"label": "Colour", "display_values": ["Colour"]}], "stats": {"tap_count": 2}, "links": [], "creators_primary": [{"id": 2748690, "name": "Megan Heyward", "creator_id": 7942, "creator_wikidata_id": null, "role": "creator", "role_id": 968, "is_primary": true}, {"id": 2748691, "name": "Australian Film Commission", "creator_id": 66813, "creator_wikidata_id": null, "role": "production company", "role_id": 941, "is_primary": true}], "creators_other": [], "media_note": null, "holdings": [{"name": "CD ROM; Master", "identifier": "", "description": ""}, {"name": "CD ROM; Copy", "identifier": "", "description": ""}], "part_of": null, "parts": [], "part_siblings": [], "group": null, "group_works": [], "group_siblings": [], "source": {"name": "Vernon", "slug": "vernon"}, "source_identifier": "927", "eaas_environment_id": null, "production_places": [{"id": 3, "name": "Australia", "slug": "australia"}], "production_dates": [{"date": "1997", "notes": "", "to_year": "1997"}], "labels": [47905]}, {"id": 108411, "acmi_id": "B1002820", "title": "Persuaders", "title_annotation": "", "slug": "persuaders", "creator_credit": "David Chesworth, Sonia Leber and Wax Sound Media", "credit_line": "", "headline_credit": "Australia, 2001", "video_links": [], "record_type": "work", "type": "Film", "is_on_display": false, "last_on_display_place": "ACMI Studio Gallery", "last_on_display_date": "2003-06-29", "is_context_indigenous": false, "material_description": "", "unpublished": false, "external": false, "first_production_date": "2001-01-01T11:00:00+11:00", "commissioned": false, "public_domain": false, "external_references": [], "brief_description": "<p>The installation is composed from &#8216;fragments&#8217; of video and audio captured in real time from short bursts of activity to longer passages of action or inaction.</p>\n<p>Each monitor contains an individual person who has been videotaped while barracking for a particular sport. Each person is presented in close-up, with the eyeline straight to camera, staring directly at the viewer. The sound of each person is also in &#8216;close-up&#8217;, transmitted through a number of loudspeakers in the space. With apparent proximity, we can hear great detail in the breath and voice.</p>", "constellations_primary": [], "constellations_other": [], "recommendations": [], "creator_credit_for_label": "<p>David Chesworth, Sonia Leber and Wax Sound Media</p>", "headline_credit_for_label": "<p>Australia, 2001</p>", "title_for_label": "<p>Persuaders</p>", "description": "<p>The installation is composed from &#8216;fragments&#8217; of video and audio captured in real time from short bursts of activity to longer passages of action or inaction.</p>\n<p>Each monitor contains an individual person who has been videotaped while barracking for a particular sport. Each person is presented in close-up, with the eyeline straight to camera, staring directly at the viewer. The sound of each person is also in &#8216;close-up&#8217;, transmitted through a number of loudspeakers in the space. With apparent proximity, we can hear great detail in the breath and voice.</p>", "description_for_label": ["<p>The installation is composed from &#8216;fragments&#8217; of video and audio captured in real time from short bursts of activity to longer passages of action or inaction.</p>\n<p>Each monitor contains an individual person who has been videotaped while barracking for a particular sport. Each person is presented in close-up, with the eyeline straight to camera, staring directly at the viewer. The sound of each person is also in &#8216;close-up&#8217;, transmitted through a number of loudspeakers in the space. With apparent proximity, we can hear great detail in the breath and voice.</p>"], "credit_line_for_label": "", "details": [{"label": "Audience classification", "display_values": ["unclassified"]}], "stats": {"tap_count": 1}, "links": [], "creators_primary": [{"id": 2748686, "name": "David Chesworth", "creator_id": 6583, "creator_wikidata_id": "Q121126135", "role": "creator", "role_id": 968, "is_primary": true}, {"id": 2748687, "name": "Sonia Leber", "creator_id": 6582, "creator_wikidata_id": null, "role": "creator", "role_id": 968, "is_primary": true}, {"id": 2748688, "name": "Wax Sound Media", "creator_id": 7941, "creator_wikidata_id": null, "role": "creator", "role_id": 968, "is_primary": true}, {"id": 2748689, "name": "Wax Sound Media", "creator_id": 7941, "creator_wikidata_id": null, "role": "production company", "role_id": 941, "is_primary": true}], "creators_other": [], "media_note": null, "holdings": [{"name": "DVD [PAL]; Master", "identifier": "", "description": ""}, {"name": "DVD [PAL]; Exhibition Copy", "identifier": "", "description": ""}, {"name": "CD ROM; Documentation", "identifier": "", "description": ""}, {"name": "ISO; Digital Preservation Master - presentation", "identifier": "", "description": ""}, {"name": "ISO; ACMI Digital Access Copy - presentation", "identifier": "", "description": ""}], "part_of": null, "parts": [], "part_siblings": [], "group": null, "group_works": [], "group_siblings": [], "source": {"name": "Vernon", "slug": "vernon"}, "source_identifier": "925", "eaas_environment_id": null, "production_places": [{"id": 3, "name": "Australia", "slug": "australia"}], "production_dates": [{"date": "2001", "notes": "", "to_year": "2001"}], "labels": [47904]}, {"id": 108410, "acmi_id": "B1002803", "title": "Grierson Lecture 1999: Screen literacy and cultural morality in the digital era", "title_annotation": "", "slug": "grierson-lecture-1999-screen-literacy-and-cultural-morality-in-the-digital-era", "creator_credit": "David Puttnam", "credit_line": "", "headline_credit": "Australia, 23 NOV 1999", "video_links": [], "record_type": "work", "type": "Film", "is_on_display": false, "last_on_display_place": null, "last_on_display_date": null, "is_context_indigenous": false, "material_description": "", "unpublished": false, "external": false, "first_production_date": null, "commissioned": false, "public_domain": false, "external_references": [], "brief_description": "<p>A record of the 1999 Grierson Lecture by Lord David Putnam entitled, `Screen Literacy and Cultural Morality in the Digital Era&#8217;.</p>\n<p>Includes:</p>\n<p>Introduction by Jenifer Hooks Executive Director Cinemedia;<br />\nIntroduction by The Honourable Mary Delahunty MP Minister for the Arts;<br />\nThe Grierson Lecture<br />\nClosing remarks by Jenifer Hooks Executive Director Cinemedia;</p>", "constellations_primary": [], "constellations_other": [], "recommendations": [], "creator_credit_for_label": "<p>David Puttnam</p>", "headline_credit_for_label": "<p>Australia, 23 NOV 1999</p>", "title_for_label": "<p>Grierson Lecture 1999: Screen literacy and cultural morality in the digital era</p>", "description": "<p>A record of the 1999 Grierson Lecture by Lord David Putnam entitled, `Screen Literacy and Cultural Morality in the Digital Era&#8217;.</p>\n<p>Includes:</p>\n<p>Introduction by Jenifer Hooks Executive Director Cinemedia;<br />\nIntroduction by The Honourable Mary Delahunty MP Minister for the Arts;<br />\nThe Grierson Lecture<br />\nClosing remarks by Jenifer Hooks Executive Director Cinemedia;</p>", "description_for_label": ["<p>A record of the 1999 Grierson Lecture by Lord David Putnam entitled, `Screen Literacy and Cultural Morality in the Digital Era&#8217;.</p>\n<p>Includes:</p>\n<p>Introduction by Jenifer Hooks Executive Director Cinemedia;<br />\nIntroduction by The Honourable Mary Delahunty MP Minister for the Arts;<br />\nThe Grierson Lecture<br />\nClosing remarks by Jenifer Hooks Executive Director Cinemedia;</p>"], "credit_line_for_label": "", "details": [{"label": "Language", "display_values": ["English"]}, {"label": "Subject categories", "display_values": ["Archival, Cinemagazines & Newsreels", "Archival, Cinemagazines & Newsreels&nbsp;→ Speeches, addresses, etc.", "Short films", "Short films&nbsp;→ Short films - Australia"]}], "stats": {"tap_count": 0}, "links": [], "creators_primary": [{"id": 2748685, "name": "David Puttnam", "creator_id": 66598, "creator_wikidata_id": "Q335507", "role": "creator", "role_id": 968, "is_primary": true}], "creators_other": [], "media_note": "Sorry, we don't have images or video for this item.", "holdings": [{"name": "SP Betacam; Master", "identifier": "", "description": ""}, {"name": "Digital Betacam [PAL]; Sub-master", "identifier": "", "description": ""}, {"name": "VHS [PAL]; Reference - timecoded", "identifier": "", "description": ""}, {"name": "VHS [PAL]; Copy", "identifier": "", "description": ""}], "part_of": null, "parts": [], "part_siblings": [], "group": null, "group_works": [], "group_siblings": [], "source": {"name": "Vernon", "slug": "vernon"}, "source_identifier": "911", "eaas_environment_id": null, "production_places": [{"id": 3, "name": "Australia", "slug": "australia"}], "production_dates": [{"date": "23 NOV 1999", "notes": "", "to_year": "23 NOV 1999"}], "labels": [47903]}, {"id": 108408, "acmi_id": "B1002797", "title": "Passionless moments", "title_annotation": "", "slug": "passionless-moments", "creator_credit": "Jane Campion", "credit_line": "", "headline_credit": "Australia, 1984", "video_links": [], "record_type": "work", "type": "Film", "is_on_display": false, "last_on_display_place": null, "last_on_display_date": null, "is_context_indigenous": false, "material_description": "", "unpublished": false, "external": false, "first_production_date": "1984-01-01T11:00:00+11:00", "commissioned": false, "public_domain": false, "external_references": [], "brief_description": "<p>A series of suburban vignettes dealing with everyday eccentricities. Filmed in black and white, this is an early work by renowned New Zealand filmmaker Jane Campion. Through a series of alternately ironic and bizarre vignettes, the filmmaker composes a joyful celebration to the beauty of the mundane and the ordinary.</p>", "constellations_primary": [], "constellations_other": [], "recommendations": [], "creator_credit_for_label": "<p>Jane Campion</p>", "headline_credit_for_label": "<p>Australia, 1984</p>", "title_for_label": "<p>Passionless moments</p>", "description": "<p>A series of suburban vignettes dealing with everyday eccentricities. Filmed in black and white, this is an early work by renowned New Zealand filmmaker Jane Campion. Through a series of alternately ironic and bizarre vignettes, the filmmaker composes a joyful celebration to the beauty of the mundane and the ordinary.</p>", "description_for_label": ["<p>A series of suburban vignettes dealing with everyday eccentricities. Filmed in black and white, this is an early work by renowned New Zealand filmmaker Jane Campion. Through a series of alternately ironic and bizarre vignettes, the filmmaker composes a joyful celebration to the beauty of the mundane and the ordinary.</p>"], "credit_line_for_label": "", "details": [{"label": "Duration", "display_values": ["00:12:00:00"]}, {"label": "Language", "display_values": ["English"]}, {"label": "Subject categories", "display_values": ["Drama", "Short films", "Short films&nbsp;→ Short films - Australia"]}], "stats": {"tap_count": 0}, "links": [], "creators_primary": [{"id": 2748684, "name": "Jane Campion", "creator_id": 4416, "creator_wikidata_id": "Q230448", "role": "creator", "role_id": 968, "is_primary": true}], "creators_other": [], "media_note": "Sorry, we don't have images or video for this item.", "holdings": [{"name": "Digital Betacam [PAL]; Master", "identifier": "", "description": ""}, {"name": "Digital Betacam [PAL]; Sub-master", "identifier": "", "description": ""}, {"name": "VHS [PAL]; Reference - timecoded", "identifier": "", "description": ""}], "part_of": null, "parts": [], "part_siblings": [], "group": null, "group_works": [], "group_siblings": [], "source": {"name": "Vernon", "slug": "vernon"}, "source_identifier": "907", "eaas_environment_id": null, "production_places": [{"id": 3, "name": "Australia", "slug": "australia"}], "production_dates": [{"date": "1984", "notes": "", "to_year": "1984"}], "labels": [47901]}]}