{"count": 41722, "next": "https://api.acmi.net.au/works/?page=1986", "previous": "https://api.acmi.net.au/works/?page=1984", "results": [{"id": 74455, "acmi_id": "011635", "title": "Wall to wall in wool", "title_annotation": "", "slug": "wall-to-wall-in-wool", "creator_credit": "Australian Wool Corporation", "credit_line": "", "headline_credit": "Australia, 1950", "video_links": [], "record_type": "work", "type": "Film", "is_on_display": false, "last_on_display_place": null, "last_on_display_date": null, "is_context_indigenous": false, "material_description": "", "unpublished": false, "external": false, "first_production_date": "1950-01-01T10:00:00+10:00", "commissioned": false, "public_domain": false, "external_references": [], "brief_description": "<p>Design and manufacture of carpets in an Australian factory.</p>", "constellations_primary": [], "constellations_other": [], "recommendations": [], "title_for_label": "<p>Wall to wall in wool</p>", "creator_credit_for_label": "<p>Australian Wool Corporation</p>", "headline_credit_for_label": "<p>Australia, 1950</p>", "description": "<p>Design and manufacture of carpets in an Australian factory.</p>", "description_for_label": ["<p>Design and manufacture of carpets in an Australian factory.</p>"], "credit_line_for_label": "", "details": [{"label": "Duration", "display_values": ["00:15:00:00"]}, {"label": "Language", "display_values": ["English"]}, {"label": "Subject categories", "display_values": ["Agriculture, Business, Commerce & Industry&nbsp;→ Carpets", "Agriculture, Business, Commerce & Industry&nbsp;→ Wool", "Agriculture, Business, Commerce & Industry&nbsp;→ Wool industry", "Agriculture, Business, Commerce & Industry&nbsp;→ Wool industry - Australia", "Short films", "Short films&nbsp;→ Short films - Australia"]}, {"label": "Sound/audio", "display_values": ["Sound"]}, {"label": "Colour", "display_values": ["Colour"]}], "stats": {"tap_count": 0}, "links": [], "creators_primary": [{"id": 2619536, "name": "Australian Wool Corporation", "creator_id": 12510, "creator_wikidata_id": "Q121298846", "role": "production company", "role_id": 941, "is_primary": true}], "creators_other": [], "media_note": null, "holdings": [{"name": "16mm film; Limited Access Print (Section 2)", "identifier": "", "description": ""}, {"name": "16mm film; Preservation Print (Section 5)", "identifier": "", "description": ""}, {"name": "16mm film; Access Print (Section 1)", "identifier": "", "description": ""}, {"name": "MOV file ProRes4444; Digital Preservation Master - overscan", "identifier": "", "description": ""}, {"name": "MOV file ProRes4444; Digital Preservation Master - presentation", "identifier": "", "description": ""}, {"name": "MPEG-4 Digital File; ACMI Digital Access Copy - overscan", "identifier": "", "description": ""}, {"name": "MPEG-4 Digital File; ACMI Digital Access Copy - presentation", "identifier": "", "description": ""}], "part_of": null, "parts": [], "part_siblings": [], "group": {"id": 108951, "acmi_id": "B1005478", "title": "[Release prints compilation]", "title_annotation": "", "slug": "release-prints", "creator_credit": "Victoria. Dept. of Agriculture", "credit_line": "", "headline_credit": "Australia", "video_links": [], "record_type": "group", "type": "Film", "is_on_display": false, "last_on_display_place": null, "last_on_display_date": null, "is_context_indigenous": false, "material_description": "", "unpublished": false, "external": false, "first_production_date": null, "commissioned": false, "public_domain": false, "external_references": []}, "group_works": [], "group_siblings": [{"id": 95778, "acmi_id": "501949", "title": "Melbourne: festival city", "title_annotation": "", "slug": "melbourne-festival-city", "creator_credit": "Gordon C. Lloyd, Cinesound and Tourist Development Authority of Victoria", "credit_line": "", "headline_credit": "Australia, 1961", "video_links": [{"id": 903, "name": "ACMI External Digital Access Copy", "uri": "https://youtu.be/pAz5udKR6Zk"}], "record_type": "work", "type": "Film", "is_on_display": false, "last_on_display_place": "ACMI Viewing Booths", "last_on_display_date": "2019-04-22", "is_context_indigenous": false, "material_description": "", "unpublished": false, "external": false, "first_production_date": "1961-01-01T10:00:00+10:00", "commissioned": false, "public_domain": false, "external_references": []}], "source": {"name": "Vernon", "slug": "vernon"}, "source_identifier": "30189", "eaas_environment_id": null, "production_places": [{"id": 3, "name": "Australia", "slug": "australia"}], "production_dates": [{"date": "1950", "notes": "Produced", "to_year": "1950"}], "labels": [13945]}, {"id": 114162, "acmi_id": "B1005466", "title": "No surrender", "title_annotation": "", "slug": "no-surrender", "creator_credit": "Richard James Allen and The Physical TV Company", "credit_line": "", "headline_credit": "", "video_links": [], "record_type": "work", "type": "Film", "is_on_display": false, "last_on_display_place": null, "last_on_display_date": null, "is_context_indigenous": false, "material_description": "", "unpublished": false, "external": false, "first_production_date": null, "commissioned": false, "public_domain": false, "external_references": [], "brief_description": "", "constellations_primary": [], "constellations_other": [], "recommendations": [], "title_for_label": "<p>No surrender</p>", "creator_credit_for_label": "<p>Richard James Allen and The Physical TV Company</p>", "headline_credit_for_label": "", "description": "", "description_for_label": [], "credit_line_for_label": "", "details": [], "stats": {"tap_count": 0}, "links": [], "creators_primary": [{"id": 2619519, "name": "Richard James Allen", "creator_id": 9037, "creator_wikidata_id": "Q7326813", "role": "director", "role_id": 938, "is_primary": true}, {"id": 2619517, "name": "The Physical TV Company", "creator_id": 9033, "creator_wikidata_id": null, "role": "creator", "role_id": 968, "is_primary": true}], "creators_other": [{"id": 2619518, "name": "Bernadette Walong", "creator_id": 81898, "creator_wikidata_id": "Q121078824", "role": "cast", "role_id": 33, "is_primary": false}], "media_note": "Sorry, we don't have images or video for this item.", "holdings": [{"name": "Digital Betacam; Master", "identifier": "", "description": ""}, {"name": "Digital Betacam; Sub-master", "identifier": "", "description": ""}], "part_of": null, "parts": [], "part_siblings": [], "group": null, "group_works": [], "group_siblings": [], "source": {"name": "Vernon", "slug": "vernon"}, "source_identifier": "2290", "eaas_environment_id": null, "production_places": [], "production_dates": [], "labels": [53654]}, {"id": 108941, "acmi_id": "B1005450", "title": "In absentia (in his or her absence)", "title_annotation": "", "slug": "in-absentia-in-his-or-her-absence", "creator_credit": "Dance Works", "credit_line": "", "headline_credit": "", "video_links": [], "record_type": "work", "type": "Film", "is_on_display": false, "last_on_display_place": null, "last_on_display_date": null, "is_context_indigenous": false, "material_description": "", "unpublished": false, "external": false, "first_production_date": null, "commissioned": false, "public_domain": false, "external_references": [], "brief_description": "", "constellations_primary": [], "constellations_other": [], "recommendations": [], "title_for_label": "<p>In absentia (in his or her absence)</p>", "creator_credit_for_label": "<p>Dance Works</p>", "headline_credit_for_label": "", "description": "", "description_for_label": [], "credit_line_for_label": "", "details": [], "stats": {"tap_count": 0}, "links": [], "creators_primary": [{"id": 2619516, "name": "Dance Works", "creator_id": 7329, "creator_wikidata_id": null, "role": "creator", "role_id": 968, "is_primary": true}], "creators_other": [], "media_note": "Sorry, we don't have images or video for this item.", "holdings": [{"name": "Digital Betacam [PAL]; Master", "identifier": "", "description": ""}, {"name": "SP Betacam; Sub-master", "identifier": "", "description": ""}], "part_of": null, "parts": [], "part_siblings": [], "group": null, "group_works": [], "group_siblings": [], "source": {"name": "Vernon", "slug": "vernon"}, "source_identifier": "2275", "eaas_environment_id": null, "production_places": [], "production_dates": [], "labels": [48434]}, {"id": 108917, "acmi_id": "B1005397", "title": "Toy satellite: design and production", "title_annotation": "", "slug": "toy-satellite-design-and-production", "creator_credit": "PAML Splash", "credit_line": "", "headline_credit": "", "video_links": [], "record_type": "work", "type": "Film", "is_on_display": false, "last_on_display_place": null, "last_on_display_date": null, "is_context_indigenous": false, "material_description": "", "unpublished": false, "external": false, "first_production_date": null, "commissioned": false, "public_domain": false, "external_references": [], "brief_description": "", "constellations_primary": [], "constellations_other": [], "recommendations": [], "title_for_label": "<p>Toy satellite: design and production</p>", "creator_credit_for_label": "<p>PAML Splash</p>", "headline_credit_for_label": "", "description": "", "description_for_label": [], "credit_line_for_label": "", "details": [], "stats": {"tap_count": 0}, "links": [], "creators_primary": [{"id": 2619510, "name": "PAML Splash", "creator_id": 9004, "creator_wikidata_id": null, "role": "creator", "role_id": 968, "is_primary": true}], "creators_other": [], "media_note": "Sorry, we don't have images or video for this item.", "holdings": [{"name": "CD ROM; Copy", "identifier": "", "description": ""}], "part_of": null, "parts": [], "part_siblings": [], "group": null, "group_works": [], "group_siblings": [], "source": {"name": "Vernon", "slug": "vernon"}, "source_identifier": "2230", "eaas_environment_id": null, "production_places": [], "production_dates": [], "labels": [48410]}, {"id": 108916, "acmi_id": "B1005396", "title": "Launch presentation: PAML", "title_annotation": "", "slug": "launch-presentation-paml", "creator_credit": "ACMI", "credit_line": "", "headline_credit": "", "video_links": [], "record_type": "work", "type": "Film", "is_on_display": false, "last_on_display_place": null, "last_on_display_date": null, "is_context_indigenous": false, "material_description": "", "unpublished": false, "external": false, "first_production_date": null, "commissioned": false, "public_domain": false, "external_references": [], "brief_description": "", "constellations_primary": [], "constellations_other": [], "recommendations": [], "title_for_label": "<p>Launch presentation: PAML</p>", "creator_credit_for_label": "<p>ACMI</p>", "headline_credit_for_label": "", "description": "", "description_for_label": [], "credit_line_for_label": "", "details": [], "stats": {"tap_count": 0}, "links": [], "creators_primary": [{"id": 2619509, "name": "ACMI", "creator_id": 6272, "creator_wikidata_id": null, "role": "creator", "role_id": 968, "is_primary": true}], "creators_other": [], "media_note": "Sorry, we don't have images or video for this item.", "holdings": [{"name": "DVCPRO; Documentation", "identifier": "", "description": ""}], "part_of": null, "parts": [], "part_siblings": [], "group": null, "group_works": [], "group_siblings": [], "source": {"name": "Vernon", "slug": "vernon"}, "source_identifier": "2229", "eaas_environment_id": null, "production_places": [], "production_dates": [], "labels": [48409]}, {"id": 108852, "acmi_id": "B1005248", "title": "Ngan Jila: house of riches", "title_annotation": "", "slug": "ngan-jila-house-of-riches", "creator_credit": "Renata Schuman and Andrew Bliss", "credit_line": "", "headline_credit": "Australia, 1998", "video_links": [], "record_type": "work", "type": "Film", "is_on_display": false, "last_on_display_place": null, "last_on_display_date": null, "is_context_indigenous": false, "material_description": "", "unpublished": false, "external": false, "first_production_date": "1998-01-01T11:00:00+11:00", "commissioned": false, "public_domain": false, "external_references": [], "brief_description": "<p>Ngan Jila, or House of Riches, is an extraordinary piece of architecture. Designed by Renzo piano and widely known as Centre Culturel Tjibaou (CCT), the building is intended as a gesture of reconciliation from the French Government to the Kanak people.<br />\nThe CCT is creating the first museum collection of contemporary South Pacific art, but what does this entail? Ngan Jila exposes the work of artists in this field, and explores its dynamic and cross-cultural nature.</p>", "constellations_primary": [], "constellations_other": [], "recommendations": [], "title_for_label": "<p>Ngan Jila: house of riches</p>", "creator_credit_for_label": "<p>Renata Schuman and Andrew Bliss</p>", "headline_credit_for_label": "<p>Australia, 1998</p>", "description": "<p>Ngan Jila, or House of Riches, is an extraordinary piece of architecture. Designed by Renzo piano and widely known as Centre Culturel Tjibaou (CCT), the building is intended as a gesture of reconciliation from the French Government to the Kanak people.<br />\nThe CCT is creating the first museum collection of contemporary South Pacific art, but what does this entail? Ngan Jila exposes the work of artists in this field, and explores its dynamic and cross-cultural nature.</p>", "description_for_label": ["<p>Ngan Jila, or House of Riches, is an extraordinary piece of architecture. Designed by Renzo piano and widely known as Centre Culturel Tjibaou (CCT), the building is intended as a gesture of reconciliation from the French Government to the Kanak people.<br />\nThe CCT is creating the first museum collection of contemporary South Pacific art, but what does this entail? Ngan Jila exposes the work of artists in this field, and explores its dynamic and cross-cultural nature.</p>"], "credit_line_for_label": "", "details": [{"label": "Duration", "display_values": ["00:25:00:00"]}, {"label": "Languages", "display_values": ["English", "English", "French"]}, {"label": "Audience classification", "display_values": ["ACMI classified"]}, {"label": "Subject categories", "display_values": ["Aboriginal Australia&nbsp;→ Aboriginal Australians", "Crafts & Visual Arts&nbsp;→ Architecture", "Crafts & Visual Arts&nbsp;→ Art", "Crafts & Visual Arts&nbsp;→ Community art projects", "Documentary", "Performance"]}, {"label": "Sound/audio", "display_values": ["Sound"]}, {"label": "Colour", "display_values": ["Colour"]}], "stats": {"tap_count": 0}, "links": [], "creators_primary": [{"id": 2619502, "name": "Renata Schuman", "creator_id": 8924, "creator_wikidata_id": "Q121034918", "role": "director", "role_id": 938, "is_primary": true}, {"id": 2619501, "name": "Renata Schuman", "creator_id": 8924, "creator_wikidata_id": "Q121034918", "role": "producer", "role_id": 1089, "is_primary": true}, {"id": 2619503, "name": "Andrew Bliss", "creator_id": 8930, "creator_wikidata_id": null, "role": "writer", "role_id": 939, "is_primary": true}, {"id": 2619504, "name": "Renata Schuman", "creator_id": 8924, "creator_wikidata_id": "Q121034918", "role": "writer", "role_id": 939, "is_primary": true}], "creators_other": [], "media_note": null, "holdings": [{"name": "VHS [PAL]; Copy", "identifier": "", "description": ""}, {"name": "Digital Betacam [PAL]; Master", "identifier": "", "description": ""}, {"name": "Digital Betacam [PAL]; Sub-master", "identifier": "", "description": ""}, {"name": "VHS [PAL]; Reference - timecoded", "identifier": "", "description": ""}, {"name": "MPEG-2 Digital File; Memory Grid Pod Full Encode", "identifier": "", "description": ""}], "part_of": null, "parts": [], "part_siblings": [], "group": null, "group_works": [], "group_siblings": [], "source": {"name": "Vernon", "slug": "vernon"}, "source_identifier": "2103", "eaas_environment_id": null, "production_places": [{"id": 3, "name": "Australia", "slug": "australia"}], "production_dates": [{"date": "1998", "notes": "", "to_year": "1998"}], "labels": [48345]}, {"id": 108850, "acmi_id": "B1005236", "title": "Vivarium", "title_annotation": "", "slug": "vivarium", "creator_credit": "Mahalya Middlemist", "credit_line": "", "headline_credit": "", "video_links": [], "record_type": "work", "type": "Film", "is_on_display": false, "last_on_display_place": null, "last_on_display_date": null, "is_context_indigenous": false, "material_description": "", "unpublished": false, "external": false, "first_production_date": null, "commissioned": false, "public_domain": false, "external_references": [], "brief_description": "<p>Based on the solo dance performance, &#8216;Hybrid&#8217;.</p>", "constellations_primary": [], "constellations_other": [], "recommendations": [], "title_for_label": "<p>Vivarium</p>", "creator_credit_for_label": "<p>Mahalya Middlemist</p>", "headline_credit_for_label": "", "description": "<p>Based on the solo dance performance, &#8216;Hybrid&#8217;.</p>", "description_for_label": ["<p>Based on the solo dance performance, &#8216;Hybrid&#8217;.</p>"], "credit_line_for_label": "", "details": [], "stats": {"tap_count": 0}, "links": [], "creators_primary": [{"id": 2619500, "name": "Mahalya Middlemist", "creator_id": 8922, "creator_wikidata_id": null, "role": "creator", "role_id": 968, "is_primary": true}], "creators_other": [], "media_note": "Sorry, we don't have images or video for this item.", "holdings": [{"name": "Digital Betacam [PAL]; Master", "identifier": "", "description": ""}, {"name": "Digital Betacam [PAL]; Sub-master", "identifier": "", "description": ""}, {"name": "VHS [PAL]; Reference - timecoded", "identifier": "", "description": ""}, {"name": "VHS; Copy", "identifier": "", "description": ""}], "part_of": null, "parts": [], "part_siblings": [], "group": null, "group_works": [], "group_siblings": [], "source": {"name": "Vernon", "slug": "vernon"}, "source_identifier": "2092", "eaas_environment_id": null, "production_places": [], "production_dates": [], "labels": [48343]}, {"id": 108804, "acmi_id": "B1005047", "title": "Spaghetti", "title_annotation": "", "slug": "spaghetti", "creator_credit": "Francesca Zuccara", "credit_line": "", "headline_credit": "Australia, 2002", "video_links": [], "record_type": "work", "type": "Film", "is_on_display": false, "last_on_display_place": null, "last_on_display_date": null, "is_context_indigenous": false, "material_description": "", "unpublished": false, "external": false, "first_production_date": "2002-01-01T11:00:00+11:00", "commissioned": false, "public_domain": false, "external_references": [], "brief_description": "<p>Created as part of Victoria University Multimedia&#8217;s After Effects course, this short piece shows, through simple animation, live action and video - the process of making pasta with tomato sauce.</p>", "constellations_primary": [], "constellations_other": [], "recommendations": [], "title_for_label": "<p>Spaghetti</p>", "creator_credit_for_label": "<p>Francesca Zuccara</p>", "headline_credit_for_label": "<p>Australia, 2002</p>", "description": "<p>Created as part of Victoria University Multimedia&#8217;s After Effects course, this short piece shows, through simple animation, live action and video - the process of making pasta with tomato sauce.</p>", "description_for_label": ["<p>Created as part of Victoria University Multimedia&#8217;s After Effects course, this short piece shows, through simple animation, live action and video - the process of making pasta with tomato sauce.</p>"], "credit_line_for_label": "", "details": [{"label": "Duration", "display_values": ["00:01:37:00"]}, {"label": "Language", "display_values": ["No spoken word"]}, {"label": "Audience classification", "display_values": ["Exempt"]}, {"label": "Subject categories", "display_values": ["Advertising, Film, Journalism, Mass Media & TV&nbsp;→ Interactive media", "Amateur & Student Films", "Amateur & Student Films&nbsp;→ Student films - Australia", "Animation", "Animation&nbsp;→ Animated films - Australia", "Short films", "Short films&nbsp;→ Short films - Australia"]}, {"label": "Sound/audio", "display_values": ["Sound"]}, {"label": "Colour", "display_values": ["Colour"]}], "stats": {"tap_count": 0}, "links": [], "creators_primary": [{"id": 2619495, "name": "Francesca Zuccara", "creator_id": 8902, "creator_wikidata_id": null, "role": "creator", "role_id": 968, "is_primary": true}], "creators_other": [], "media_note": "Sorry, we don't have images or video for this item.", "holdings": [{"name": "Mini DV; Master", "identifier": "", "description": ""}, {"name": "Digital Betacam [PAL]; Sub-master", "identifier": "", "description": ""}, {"name": "VHS [PAL]; Reference - timecoded", "identifier": "", "description": ""}], "part_of": null, "parts": [], "part_siblings": [], "group": null, "group_works": [], "group_siblings": [], "source": {"name": "Vernon", "slug": "vernon"}, "source_identifier": "2026", "eaas_environment_id": null, "production_places": [{"id": 3, "name": "Australia", "slug": "australia"}], "production_dates": [{"date": "2002", "notes": "", "to_year": "2002"}], "labels": [48297]}, {"id": 108735, "acmi_id": "B1004628", "title": "reset::PLAY> ROM and image content", "title_annotation": "", "slug": "resetplay-rom-and-image-content", "creator_credit": "", "credit_line": "", "headline_credit": "", "video_links": [], "record_type": "work", "type": "Film", "is_on_display": false, "last_on_display_place": null, "last_on_display_date": null, "is_context_indigenous": false, "material_description": "", "unpublished": false, "external": false, "first_production_date": null, "commissioned": false, "public_domain": false, "external_references": [], "brief_description": "", "constellations_primary": [], "constellations_other": [], "recommendations": [], "title_for_label": "<p>reset::PLAY&gt; ROM and image content</p>", "creator_credit_for_label": "", "headline_credit_for_label": "", "description": "", "description_for_label": [], "credit_line_for_label": "", "details": [], "stats": {"tap_count": 0}, "links": [], "creators_primary": [], "creators_other": [], "media_note": "Sorry, we don't have images or video for this item.", "holdings": [{"name": "CD ROM; Master", "identifier": "", "description": ""}, {"name": "CD ROM; Copy", "identifier": "", "description": ""}], "part_of": null, "parts": [], "part_siblings": [], "group": null, "group_works": [], "group_siblings": [], "source": {"name": "Vernon", "slug": "vernon"}, "source_identifier": "1913", "eaas_environment_id": null, "production_places": [], "production_dates": [], "labels": [48228]}, {"id": 108731, "acmi_id": "B1004588", "title": "Kill the day", "title_annotation": "", "slug": "kill-the-day", "creator_credit": "Lynne Ramsey", "credit_line": "", "headline_credit": "Scotland, 1996", "video_links": [], "record_type": "work", "type": "Film", "is_on_display": false, "last_on_display_place": null, "last_on_display_date": null, "is_context_indigenous": false, "material_description": "", "unpublished": false, "external": false, "first_production_date": "1996-01-01T11:00:00+11:00", "commissioned": false, "public_domain": false, "external_references": [], "brief_description": "<p>An evocative study of a man just released from prison, Kill the Day is an evocative study of the &#8220;prison&#8221; formed by poverty and social deprivation. As in her other award winning shorts, Lynne Ramsey&#8217;s focus is not on the melodramatic but on the everyday poetics of working class Glaswegian life. By concentrating on the day to day activities of her main character, and by situating him in a realistically observed personal and social milieu, she shows herself to be not only influenced by filmmakers such as Mike Leigh and Robert Bresson, but as a uniquely inspired filmmaker in her own right.</p>", "constellations_primary": [], "constellations_other": [], "recommendations": [], "title_for_label": "<p>Kill the day</p>", "creator_credit_for_label": "<p>Lynne Ramsey</p>", "headline_credit_for_label": "<p>Scotland, 1996</p>", "description": "<p>An evocative study of a man just released from prison, Kill the Day is an evocative study of the &#8220;prison&#8221; formed by poverty and social deprivation. As in her other award winning shorts, Lynne Ramsey&#8217;s focus is not on the melodramatic but on the everyday poetics of working class Glaswegian life. By concentrating on the day to day activities of her main character, and by situating him in a realistically observed personal and social milieu, she shows herself to be not only influenced by filmmakers such as Mike Leigh and Robert Bresson, but as a uniquely inspired filmmaker in her own right.</p>", "description_for_label": ["<p>An evocative study of a man just released from prison, Kill the Day is an evocative study of the &#8220;prison&#8221; formed by poverty and social deprivation. As in her other award winning shorts, Lynne Ramsey&#8217;s focus is not on the melodramatic but on the everyday poetics of working class Glaswegian life. By concentrating on the day to day activities of her main character, and by situating him in a realistically observed personal and social milieu, she shows herself to be not only influenced by filmmakers such as Mike Leigh and Robert Bresson, but as a uniquely inspired filmmaker in her own right.</p>"], "credit_line_for_label": "", "details": [{"label": "Language", "display_values": ["English"]}], "stats": {"tap_count": 0}, "links": [], "creators_primary": [{"id": 2619481, "name": "Lynne Ramsey", "creator_id": 8844, "creator_wikidata_id": null, "role": "director", "role_id": 938, "is_primary": true}, {"id": 2619482, "name": "Lynne Ramsey", "creator_id": 8844, "creator_wikidata_id": null, "role": "creator", "role_id": 968, "is_primary": true}], "creators_other": [], "media_note": "Sorry, we don't have images or video for this item.", "holdings": [{"name": "Digital Betacam; Master", "identifier": "", "description": ""}, {"name": "Digital Betacam; Sub-master", "identifier": "", "description": ""}, {"name": "VHS [PAL]; Reference - timecoded", "identifier": "", "description": ""}], "part_of": null, "parts": [], "part_siblings": [], "group": null, "group_works": [], "group_siblings": [], "source": {"name": "Vernon", "slug": "vernon"}, "source_identifier": "1903", "eaas_environment_id": null, "production_places": [{"id": 46, "name": "Scotland", "slug": "scotland"}], "production_dates": [{"date": "1996", "notes": "", "to_year": "1996"}], "labels": [48224]}]}