{"count": 41722, "next": "https://api.acmi.net.au/works/?page=1381", "previous": "https://api.acmi.net.au/works/?page=1379", "results": [{"id": 109328, "acmi_id": "B1006407", "title": "Cowsquad - C.I.B.: Cow Investigation Bureau", "title_annotation": "", "slug": "cowsquad-cib-cow-investigation-bureau", "creator_credit": "Maria Bar-Bara", "credit_line": "", "headline_credit": "Australia, 2003", "video_links": [], "record_type": "work", "type": "Film", "is_on_display": false, "last_on_display_place": null, "last_on_display_date": null, "is_context_indigenous": false, "material_description": "", "unpublished": false, "external": false, "first_production_date": "2003-01-01T11:00:00+11:00", "commissioned": false, "public_domain": false, "external_references": [], "brief_description": "", "constellations_primary": [], "constellations_other": [], "recommendations": [], "title_for_label": "<p>Cowsquad - C.I.B.: Cow Investigation Bureau</p>", "creator_credit_for_label": "<p>Maria Bar-Bara</p>", "headline_credit_for_label": "<p>Australia, 2003</p>", "description": "", "description_for_label": [], "credit_line_for_label": "", "details": [{"label": "Duration", "display_values": ["00:01:37:00"]}, {"label": "Language", "display_values": ["No spoken word"]}, {"label": "Audience classification", "display_values": ["Exempt"]}, {"label": "Subject categories", "display_values": ["Amateur & Student Films", "Amateur & Student Films&nbsp;→ Student films - Australia", "Animation", "Animation&nbsp;→ Animated films - Australia", "Animation&nbsp;→ Hand drawn", "Short films", "Short films&nbsp;→ Short films - Australia"]}, {"label": "Sound/audio", "display_values": ["Sound"]}, {"label": "Colour", "display_values": ["Colour"]}], "stats": {"tap_count": 0}, "links": [], "creators_primary": [{"id": 2711667, "name": "Maria Bar-Bara", "creator_id": 9335, "creator_wikidata_id": null, "role": "creator", "role_id": 968, "is_primary": true}], "creators_other": [], "media_note": "Sorry, we don't have images or video for this item.", "holdings": [{"name": "MPEG-4 Digital File; ACMI Digital Access Copy - overscan", "identifier": "", "description": ""}, {"name": "MOV file ProRes4444; Digital Preservation Master - overscan", "identifier": "", "description": ""}, {"name": "SP Betacam; Master", "identifier": "", "description": ""}, {"name": "Digital Betacam; Sub-master", "identifier": "", "description": ""}, {"name": "VHS [PAL]; Reference - timecoded", "identifier": "", "description": ""}], "part_of": null, "parts": [], "part_siblings": [], "group": null, "group_works": [], "group_siblings": [], "source": {"name": "Vernon", "slug": "vernon"}, "source_identifier": "2963", "eaas_environment_id": null, "production_places": [{"id": 3, "name": "Australia", "slug": "australia"}], "production_dates": [{"date": "2003", "notes": "", "to_year": "2003"}], "labels": [48821]}, {"id": 109327, "acmi_id": "B1006399", "title": "ACMI: digital walkthrough", "title_annotation": "", "slug": "acmi-digital-walkthrough", "creator_credit": "", "credit_line": "", "headline_credit": "", "video_links": [], "record_type": "work", "type": "Film", "is_on_display": false, "last_on_display_place": null, "last_on_display_date": null, "is_context_indigenous": false, "material_description": "", "unpublished": false, "external": false, "first_production_date": null, "commissioned": false, "public_domain": false, "external_references": [], "brief_description": "", "constellations_primary": [], "constellations_other": [], "recommendations": [], "title_for_label": "<p>ACMI: digital walkthrough</p>", "creator_credit_for_label": "", "headline_credit_for_label": "", "description": "", "description_for_label": [], "credit_line_for_label": "", "details": [], "stats": {"tap_count": 0}, "links": [], "creators_primary": [], "creators_other": [], "media_note": "Sorry, we don't have images or video for this item.", "holdings": [{"name": "VHS [PAL]; Copy", "identifier": "", "description": ""}], "part_of": null, "parts": [], "part_siblings": [], "group": null, "group_works": [], "group_siblings": [], "source": {"name": "Vernon", "slug": "vernon"}, "source_identifier": "2955", "eaas_environment_id": null, "production_places": [], "production_dates": [], "labels": [48820]}, {"id": 109326, "acmi_id": "B1006397", "title": "The Blood of a poet", "title_annotation": "", "slug": "the-blood-of-a-poet", "creator_credit": "", "credit_line": "", "headline_credit": "", "video_links": [], "record_type": "work", "type": "Film", "is_on_display": false, "last_on_display_place": null, "last_on_display_date": null, "is_context_indigenous": false, "material_description": "", "unpublished": false, "external": false, "first_production_date": null, "commissioned": false, "public_domain": false, "external_references": [], "brief_description": "", "constellations_primary": [], "constellations_other": [], "recommendations": [], "title_for_label": "<p>The Blood of a poet</p>", "creator_credit_for_label": "", "headline_credit_for_label": "", "description": "", "description_for_label": [], "credit_line_for_label": "", "details": [], "stats": {"tap_count": 0}, "links": [], "creators_primary": [], "creators_other": [], "media_note": "Sorry, we don't have images or video for this item.", "holdings": [{"name": "DVD [PAL]; Master", "identifier": "", "description": ""}], "part_of": null, "parts": [], "part_siblings": [], "group": null, "group_works": [], "group_siblings": [], "source": {"name": "Vernon", "slug": "vernon"}, "source_identifier": "2954", "eaas_environment_id": null, "production_places": [], "production_dates": [], "labels": [48819]}, {"id": 109325, "acmi_id": "B1006394", "title": "One destiny: the federation story", "title_annotation": "", "slug": "one-destiny-the-federation-story", "creator_credit": "", "credit_line": "", "headline_credit": "", "video_links": [], "record_type": "work", "type": "Film", "is_on_display": false, "last_on_display_place": null, "last_on_display_date": null, "is_context_indigenous": false, "material_description": "", "unpublished": false, "external": false, "first_production_date": null, "commissioned": false, "public_domain": false, "external_references": [], "brief_description": "", "constellations_primary": [], "constellations_other": [], "recommendations": [], "title_for_label": "<p>One destiny: the federation story</p>", "creator_credit_for_label": "", "headline_credit_for_label": "", "description": "", "description_for_label": [], "credit_line_for_label": "", "details": [], "stats": {"tap_count": 0}, "links": [], "creators_primary": [], "creators_other": [], "media_note": "Sorry, we don't have images or video for this item.", "holdings": [{"name": "CD ROM; Master", "identifier": "", "description": ""}], "part_of": null, "parts": [], "part_siblings": [], "group": null, "group_works": [], "group_siblings": [], "source": {"name": "Vernon", "slug": "vernon"}, "source_identifier": "2953", "eaas_environment_id": null, "production_places": [], "production_dates": [], "labels": [48818]}, {"id": 114103, "acmi_id": "B1006393", "title": "Fear project", "title_annotation": "", "slug": "fear-project", "creator_credit": "Aaron Cardwell and Viv Hunt", "credit_line": "", "headline_credit": "", "video_links": [], "record_type": "work", "type": "Film", "is_on_display": false, "last_on_display_place": null, "last_on_display_date": null, "is_context_indigenous": false, "material_description": "", "unpublished": false, "external": false, "first_production_date": null, "commissioned": false, "public_domain": false, "external_references": [], "brief_description": "", "constellations_primary": [], "constellations_other": [], "recommendations": [], "title_for_label": "<p>Fear project</p>", "creator_credit_for_label": "<p>Aaron Cardwell and Viv Hunt</p>", "headline_credit_for_label": "", "description": "", "description_for_label": [], "credit_line_for_label": "", "details": [], "stats": {"tap_count": 0}, "links": [], "creators_primary": [{"id": 2711665, "name": "Aaron Cardwell", "creator_id": 9333, "creator_wikidata_id": null, "role": "creator", "role_id": 968, "is_primary": true}, {"id": 2711666, "name": "Viv Hunt", "creator_id": 9334, "creator_wikidata_id": null, "role": "creator", "role_id": 968, "is_primary": true}], "creators_other": [], "media_note": "Sorry, we don't have images or video for this item.", "holdings": [{"name": "CD ROM; Copy", "identifier": "", "description": ""}], "part_of": null, "parts": [], "part_siblings": [], "group": null, "group_works": [], "group_siblings": [], "source": {"name": "Vernon", "slug": "vernon"}, "source_identifier": "2952", "eaas_environment_id": null, "production_places": [], "production_dates": [], "labels": [53595]}, {"id": 109322, "acmi_id": "B1006392", "title": "Testament of Orpheus", "title_annotation": "", "slug": "testament-of-orpheus", "creator_credit": "", "credit_line": "", "headline_credit": "", "video_links": [], "record_type": "work", "type": "Film", "is_on_display": false, "last_on_display_place": null, "last_on_display_date": null, "is_context_indigenous": false, "material_description": "", "unpublished": false, "external": false, "first_production_date": null, "commissioned": false, "public_domain": false, "external_references": [], "brief_description": "", "constellations_primary": [], "constellations_other": [], "recommendations": [], "title_for_label": "<p>Testament of Orpheus</p>", "creator_credit_for_label": "", "headline_credit_for_label": "", "description": "", "description_for_label": [], "credit_line_for_label": "", "details": [], "stats": {"tap_count": 0}, "links": [], "creators_primary": [], "creators_other": [], "media_note": "Sorry, we don't have images or video for this item.", "holdings": [{"name": "DVD [PAL]; Master", "identifier": "", "description": ""}], "part_of": null, "parts": [], "part_siblings": [], "group": null, "group_works": [], "group_siblings": [], "source": {"name": "Vernon", "slug": "vernon"}, "source_identifier": "2951", "eaas_environment_id": null, "production_places": [], "production_dates": [], "labels": [48815]}, {"id": 109318, "acmi_id": "B1006388", "title": "ACMI Presentation: Victoria Lynn (28/06/00)", "title_annotation": "", "slug": "acmi-presentation-victoria-lynn-280600", "creator_credit": "", "credit_line": "", "headline_credit": "", "video_links": [], "record_type": "work", "type": "Film", "is_on_display": false, "last_on_display_place": null, "last_on_display_date": null, "is_context_indigenous": false, "material_description": "", "unpublished": false, "external": false, "first_production_date": null, "commissioned": false, "public_domain": false, "external_references": [], "brief_description": "", "constellations_primary": [], "constellations_other": [], "recommendations": [], "title_for_label": "<p>ACMI Presentation: Victoria Lynn (28/06/00)</p>", "creator_credit_for_label": "", "headline_credit_for_label": "", "description": "", "description_for_label": [], "credit_line_for_label": "", "details": [], "stats": {"tap_count": 0}, "links": [], "creators_primary": [], "creators_other": [], "media_note": "Sorry, we don't have images or video for this item.", "holdings": [{"name": "VHS; Master", "identifier": "", "description": ""}], "part_of": null, "parts": [], "part_siblings": [], "group": null, "group_works": [], "group_siblings": [], "source": {"name": "Vernon", "slug": "vernon"}, "source_identifier": "2947", "eaas_environment_id": null, "production_places": [], "production_dates": [], "labels": [48811]}, {"id": 109317, "acmi_id": "B1006387", "title": "Water Images", "title_annotation": "", "slug": "water-images", "creator_credit": "", "credit_line": "", "headline_credit": "", "video_links": [], "record_type": "work", "type": "Film", "is_on_display": false, "last_on_display_place": null, "last_on_display_date": null, "is_context_indigenous": false, "material_description": "", "unpublished": false, "external": false, "first_production_date": null, "commissioned": false, "public_domain": false, "external_references": [], "brief_description": "", "constellations_primary": [], "constellations_other": [], "recommendations": [], "title_for_label": "<p>Water Images</p>", "creator_credit_for_label": "", "headline_credit_for_label": "", "description": "", "description_for_label": [], "credit_line_for_label": "", "details": [], "stats": {"tap_count": 0}, "links": [], "creators_primary": [], "creators_other": [], "media_note": "Sorry, we don't have images or video for this item.", "holdings": [{"name": "CD ROM; Master", "identifier": "", "description": ""}, {"name": "CD ROM; Copy", "identifier": "", "description": ""}], "part_of": null, "parts": [], "part_siblings": [], "group": null, "group_works": [], "group_siblings": [], "source": {"name": "Vernon", "slug": "vernon"}, "source_identifier": "2946", "eaas_environment_id": null, "production_places": [], "production_dates": [], "labels": [48810]}, {"id": 109316, "acmi_id": "B1006386", "title": "Cinemedia compile Benjamin Doudney 24/01/00", "title_annotation": "", "slug": "cinemedia-compile-benjamin-doudney-240100", "creator_credit": "", "credit_line": "", "headline_credit": "", "video_links": [], "record_type": "work", "type": "Film", "is_on_display": false, "last_on_display_place": null, "last_on_display_date": null, "is_context_indigenous": false, "material_description": "", "unpublished": false, "external": false, "first_production_date": null, "commissioned": false, "public_domain": false, "external_references": [], "brief_description": "", "constellations_primary": [], "constellations_other": [], "recommendations": [], "title_for_label": "<p>Cinemedia compile Benjamin Doudney 24/01/00</p>", "creator_credit_for_label": "", "headline_credit_for_label": "", "description": "", "description_for_label": [], "credit_line_for_label": "", "details": [], "stats": {"tap_count": 0}, "links": [], "creators_primary": [], "creators_other": [], "media_note": "Sorry, we don't have images or video for this item.", "holdings": [{"name": "SP Betacam; Master", "identifier": "", "description": ""}], "part_of": null, "parts": [], "part_siblings": [], "group": null, "group_works": [], "group_siblings": [], "source": {"name": "Vernon", "slug": "vernon"}, "source_identifier": "2945", "eaas_environment_id": null, "production_places": [], "production_dates": [], "labels": [48809]}, {"id": 109315, "acmi_id": "B1006385", "title": "ACMI Presentation: Emily Weil (31-05-2000)", "title_annotation": "", "slug": "acmi-presentation-emily-weil-31-05-2000", "creator_credit": "", "credit_line": "", "headline_credit": "", "video_links": [], "record_type": "work", "type": "Film", "is_on_display": false, "last_on_display_place": null, "last_on_display_date": null, "is_context_indigenous": false, "material_description": "", "unpublished": false, "external": false, "first_production_date": null, "commissioned": false, "public_domain": false, "external_references": [], "brief_description": "", "constellations_primary": [], "constellations_other": [], "recommendations": [], "title_for_label": "<p>ACMI Presentation: Emily Weil (31-05-2000)</p>", "creator_credit_for_label": "", "headline_credit_for_label": "", "description": "", "description_for_label": [], "credit_line_for_label": "", "details": [], "stats": {"tap_count": 0}, "links": [], "creators_primary": [], "creators_other": [], "media_note": "Sorry, we don't have images or video for this item.", "holdings": [{"name": "Mini DV; Master", "identifier": "", "description": ""}, {"name": "VHS [PAL]; Master", "identifier": "", "description": ""}], "part_of": null, "parts": [], "part_siblings": [], "group": null, "group_works": [], "group_siblings": [], "source": {"name": "Vernon", "slug": "vernon"}, "source_identifier": "2944", "eaas_environment_id": null, "production_places": [], "production_dates": [], "labels": [48808]}]}