{"count": 41723, "next": "https://api.acmi.net.au/works/?page=2054", "previous": "https://api.acmi.net.au/works/?page=2052", "results": [{"id": 117976, "acmi_id": "E000273", "title": "Magnaphonic 35mm projector", "title_annotation": "", "slug": "magnaphonic-35mm-projector", "creator_credit": "Magna-Coustian Pty Ltd", "credit_line": "", "headline_credit": "Australia, c. 1930s", "video_links": [], "record_type": "work", "type": "Object", "is_on_display": false, "last_on_display_place": null, "last_on_display_date": null, "is_context_indigenous": false, "material_description": "C&W Sydney\nMagna Coustian Pty ltd\n41 Riley Street, Sydney\n\nMagnaphonic full range sound system\nmanufactured by:\nMagna Coustian Pty ltd\n41 Riley Street, Sydney\nPhone FL 1322\nPhone FL 2554\n\nID. 8077\nThe British Thomson, Houston Co.  Ltd\nRugby, England (Made in England)\nA.C. Motor\nType BKS 2408\nHP 1/4\nR.P.M: 1425\nVolts 240/250\nCycles 50\nPhase 1\nRating: Continuous\nCat no. D877416\n\nThe top case has a blue plastic reel with film inside it.\nThe bottom case has a red plastic reel inside it.\nThere is an orange rubber power cord nestled and rolled up in the middle of the unit.\n\nAdjustments:  there is black duct tape holding in place a small box.  The unit has very much been modified by the previous owner.\n\nCondition:\nThe rubber belt has begun to erode and crack, the belt behind that has also begun to erode.\nThere is black paint flecking away, particularly towards to top.", "unpublished": false, "external": false, "first_production_date": null, "commissioned": false, "public_domain": false, "external_references": [], "brief_description": "<p>One of two magnaphonic 35mm projectors donated by Bill Newman. Kerri’s father (name to be confirmed) has taken the projectors apart, cleaned them and re-assembled them. He has also repainted the lamp houses. Representative of early twentieth century Australian cinema equipment and history. These projectors were operated in Tumbarumba NSW, by William James Burnell Newman (Bill), who operated under Valley Theatres, from approximately 1959 until 1965, when TV started the demise of country theatres. These projectors were used in tandem as film rolls needed to be changed seamlessly during a session. The projectionist loaded all ‘even’ reels on one projector, and ‘odd’ reels on the other projector. As a reel was nearing its end, the projectionist had to switch over the film with perfect timing.</p>", "constellations_primary": [], "constellations_other": [], "recommendations": [], "creator_credit_for_label": "<p>Magna-Coustian Pty Ltd</p>", "headline_credit_for_label": "<p>Australia, c. 1930s</p>", "title_for_label": "<p>Magnaphonic 35mm projector</p>", "description": "<p>One of two magnaphonic 35mm projectors donated by Bill Newman. Kerri’s father (name to be confirmed) has taken the projectors apart, cleaned them and re-assembled them. He has also repainted the lamp houses. Representative of early twentieth century Australian cinema equipment and history. These projectors were operated in Tumbarumba NSW, by William James Burnell Newman (Bill), who operated under Valley Theatres, from approximately 1959 until 1965, when TV started the demise of country theatres. These projectors were used in tandem as film rolls needed to be changed seamlessly during a session. The projectionist loaded all ‘even’ reels on one projector, and ‘odd’ reels on the other projector. As a reel was nearing its end, the projectionist had to switch over the film with perfect timing.</p>", "description_for_label": ["<p>One of two magnaphonic 35mm projectors donated by Bill Newman. Kerri’s father (name to be confirmed) has taken the projectors apart, cleaned them and re-assembled them. He has also repainted the lamp houses. Representative of early twentieth century Australian cinema equipment and history. These projectors were operated in Tumbarumba NSW, by William James Burnell Newman (Bill), who operated under Valley Theatres, from approximately 1959 until 1965, when TV started the demise of country theatres. These projectors were used in tandem as film rolls needed to be changed seamlessly during a session. The projectionist loaded all ‘even’ reels on one projector, and ‘odd’ reels on the other projector. As a reel was nearing its end, the projectionist had to switch over the film with perfect timing.</p>"], "credit_line_for_label": "", "details": [{"label": "Object Types", "display_values": ["Projection equipment/Film and television equipment"]}, {"label": "Materials", "display_values": ["C&W Sydney\nMagna Coustian Pty ltd\n41 Riley Street, Sydney\n\nMagnaphonic full range sound system\nmanufactured by:\nMagna Coustian Pty ltd\n41 Riley Street, Sydney\nPhone FL 1322\nPhone FL 2554\n\nID. 8077\nThe British Thomson, Houston Co.  Ltd\nRugby, England (Made in England)\nA.C. Motor\nType BKS 2408\nHP 1/4\nR.P.M: 1425\nVolts 240/250\nCycles 50\nPhase 1\nRating: Continuous\nCat no. D877416\n\nThe top case has a blue plastic reel with film inside it.\nThe bottom case has a red plastic reel inside it.\nThere is an orange rubber power cord nestled and rolled up in the middle of the unit.\n\nAdjustments:  there is black duct tape holding in place a small box.  The unit has very much been modified by the previous owner.\n\nCondition:\nThe rubber belt has begun to erode and crack, the belt behind that has also begun to erode.\nThere is black paint flecking away, particularly towards to top."]}], "stats": {"tap_count": 0}, "links": [], "creators_primary": [{"id": 2523985, "name": "Magna-Coustian Pty Ltd", "creator_id": 82095, "creator_wikidata_id": null, "role": "manufacturer", "role_id": 627, "is_primary": true}], "creators_other": [], "media_note": "Sorry, we don't have images or video for this item.", "holdings": [], "part_of": null, "parts": [], "part_siblings": [], "group": null, "group_works": [], "group_siblings": [], "source": {"name": "Vernon", "slug": "vernon"}, "source_identifier": "178368", "eaas_environment_id": null, "production_places": [{"id": 3, "name": "Australia", "slug": "australia"}], "production_dates": [{"date": "c. 1930s", "notes": "", "to_year": "c. 1930s"}], "labels": [57471]}, {"id": 122333, "acmi_id": "P194817", "title": "Police station set construction and dressing", "title_annotation": "Facsimile", "slug": "police-station-set-construction-and-dressing", "creator_credit": "Herbert Pinter", "credit_line": "<p>Courtesy Herbert Pinter</p>", "headline_credit": "Australia, 2022", "video_links": [], "record_type": "work", "type": "Object", "is_on_display": true, "last_on_display_place": "ACMI: Gallery 1", "last_on_display_date": "2031-02-16", "is_context_indigenous": false, "material_description": "", "unpublished": false, "external": false, "first_production_date": "2022-01-01T11:00:00+11:00", "commissioned": false, "public_domain": false, "external_references": [], "brief_description": "", "constellations_primary": [], "constellations_other": [], "recommendations": [], "creator_credit_for_label": "<p>Herbert Pinter</p>", "headline_credit_for_label": "<p>Australia, 2022</p>", "title_for_label": "<p>Police station set construction and dressing</p>", "description": "", "description_for_label": [], "credit_line_for_label": "<p>Courtesy Herbert Pinter</p>", "details": [{"label": "Curatorial section", "display_values": ["The Story of the Moving Image&nbsp;→ Moving Worlds&nbsp;→ MW-03. Production Design&nbsp;→ MW-03-C03&nbsp;→ MW-03-C03.02"]}, {"label": "Object Types", "display_values": ["Facsimile"]}], "stats": {"tap_count": 0}, "links": [], "creators_primary": [{"id": 2523376, "name": "Herbert Pinter", "creator_id": 87378, "creator_wikidata_id": null, "role": "production designer", "role_id": 966, "is_primary": true}], "creators_other": [], "media_note": null, "holdings": [], "part_of": null, "parts": [], "part_siblings": [], "group": {"id": 122314, "acmi_id": "194842", "title": "Production Design in Mystery Road: Origin", "title_annotation": "", "slug": "production-design-in-mystery-road-origins", "creator_credit": "", "credit_line": "", "headline_credit": "", "video_links": [], "record_type": "group", "type": "Object", "is_on_display": true, "last_on_display_place": "ACMI: Gallery 1", "last_on_display_date": "2031-02-16", "is_context_indigenous": false, "material_description": "", "unpublished": false, "external": true, "first_production_date": null, "commissioned": false, "public_domain": false, "external_references": []}, "group_works": [], "group_siblings": [], "source": {"name": "Vernon", "slug": "vernon"}, "source_identifier": "194817", "eaas_environment_id": null, "production_places": [{"id": 3, "name": "Australia", "slug": "australia"}], "production_dates": [{"date": "2022", "notes": "", "to_year": "2022"}], "labels": [61792]}, {"id": 122332, "acmi_id": "P194815", "title": "Police station set construction and dressing", "title_annotation": "Facsimile", "slug": "police-station-set-construction-and-dressing", "creator_credit": "Herbert Pinter", "credit_line": "<p>Courtesy Herbert Pinter</p>", "headline_credit": "Australia, 2022", "video_links": [], "record_type": "work", "type": "Object", "is_on_display": true, "last_on_display_place": "ACMI: Gallery 1", "last_on_display_date": "2031-02-16", "is_context_indigenous": false, "material_description": "", "unpublished": false, "external": false, "first_production_date": "2022-01-01T11:00:00+11:00", "commissioned": false, "public_domain": false, "external_references": [], "brief_description": "", "constellations_primary": [], "constellations_other": [], "recommendations": [], "creator_credit_for_label": "<p>Herbert Pinter</p>", "headline_credit_for_label": "<p>Australia, 2022</p>", "title_for_label": "<p>Police station set construction and dressing</p>", "description": "", "description_for_label": [], "credit_line_for_label": "<p>Courtesy Herbert Pinter</p>", "details": [{"label": "Curatorial section", "display_values": ["The Story of the Moving Image&nbsp;→ Moving Worlds&nbsp;→ MW-03. Production Design&nbsp;→ MW-03-C03&nbsp;→ MW-03-C03.02"]}, {"label": "Object Types", "display_values": ["Facsimile"]}], "stats": {"tap_count": 0}, "links": [], "creators_primary": [{"id": 2523375, "name": "Herbert Pinter", "creator_id": 87378, "creator_wikidata_id": null, "role": "production designer", "role_id": 966, "is_primary": true}], "creators_other": [], "media_note": null, "holdings": [], "part_of": null, "parts": [], "part_siblings": [], "group": {"id": 122314, "acmi_id": "194842", "title": "Production Design in Mystery Road: Origin", "title_annotation": "", "slug": "production-design-in-mystery-road-origins", "creator_credit": "", "credit_line": "", "headline_credit": "", "video_links": [], "record_type": "group", "type": "Object", "is_on_display": true, "last_on_display_place": "ACMI: Gallery 1", "last_on_display_date": "2031-02-16", "is_context_indigenous": false, "material_description": "", "unpublished": false, "external": true, "first_production_date": null, "commissioned": false, "public_domain": false, "external_references": []}, "group_works": [], "group_siblings": [], "source": {"name": "Vernon", "slug": "vernon"}, "source_identifier": "194815", "eaas_environment_id": null, "production_places": [{"id": 3, "name": "Australia", "slug": "australia"}], "production_dates": [{"date": "2022", "notes": "", "to_year": "2022"}], "labels": [61791]}, {"id": 122331, "acmi_id": "P194814", "title": "Police station set construction and dressing", "title_annotation": "Facsimile", "slug": "police-station-set-construction-and-dressing", "creator_credit": "Herbert Pinter", "credit_line": "<p>Courtesy Herbert Pinter</p>", "headline_credit": "Australia, 2022", "video_links": [], "record_type": "work", "type": "Object", "is_on_display": true, "last_on_display_place": "ACMI: Gallery 1", "last_on_display_date": "2031-02-16", "is_context_indigenous": false, "material_description": "", "unpublished": false, "external": false, "first_production_date": "2022-01-01T11:00:00+11:00", "commissioned": false, "public_domain": false, "external_references": [], "brief_description": "", "constellations_primary": [], "constellations_other": [], "recommendations": [], "creator_credit_for_label": "<p>Herbert Pinter</p>", "headline_credit_for_label": "<p>Australia, 2022</p>", "title_for_label": "<p>Police station set construction and dressing</p>", "description": "", "description_for_label": [], "credit_line_for_label": "<p>Courtesy Herbert Pinter</p>", "details": [{"label": "Curatorial section", "display_values": ["The Story of the Moving Image&nbsp;→ Moving Worlds&nbsp;→ MW-03. Production Design&nbsp;→ MW-03-C03&nbsp;→ MW-03-C03.02"]}, {"label": "Object Types", "display_values": ["Facsimile"]}], "stats": {"tap_count": 0}, "links": [], "creators_primary": [{"id": 2523374, "name": "Herbert Pinter", "creator_id": 87378, "creator_wikidata_id": null, "role": "production designer", "role_id": 966, "is_primary": true}], "creators_other": [], "media_note": null, "holdings": [], "part_of": null, "parts": [], "part_siblings": [], "group": {"id": 122314, "acmi_id": "194842", "title": "Production Design in Mystery Road: Origin", "title_annotation": "", "slug": "production-design-in-mystery-road-origins", "creator_credit": "", "credit_line": "", "headline_credit": "", "video_links": [], "record_type": "group", "type": "Object", "is_on_display": true, "last_on_display_place": "ACMI: Gallery 1", "last_on_display_date": "2031-02-16", "is_context_indigenous": false, "material_description": "", "unpublished": false, "external": true, "first_production_date": null, "commissioned": false, "public_domain": false, "external_references": []}, "group_works": [], "group_siblings": [], "source": {"name": "Vernon", "slug": "vernon"}, "source_identifier": "194814", "eaas_environment_id": null, "production_places": [{"id": 3, "name": "Australia", "slug": "australia"}], "production_dates": [{"date": "2022", "notes": "", "to_year": "2022"}], "labels": [61790]}, {"id": 122326, "acmi_id": "P194821", "title": "Jack’s home construction and set dressing", "title_annotation": "Facsimile", "slug": "jacks-home-construction-and-set-dressing", "creator_credit": "Herbert Pinter", "credit_line": "<p>Courtesy Herbert Pinter</p>", "headline_credit": "Australia, 2022", "video_links": [], "record_type": "work", "type": "Object", "is_on_display": true, "last_on_display_place": "ACMI: Gallery 1", "last_on_display_date": "2031-02-16", "is_context_indigenous": false, "material_description": "", "unpublished": false, "external": false, "first_production_date": "2022-01-01T11:00:00+11:00", "commissioned": false, "public_domain": false, "external_references": [], "brief_description": "", "constellations_primary": [], "constellations_other": [], "recommendations": [], "creator_credit_for_label": "<p>Herbert Pinter</p>", "headline_credit_for_label": "<p>Australia, 2022</p>", "title_for_label": "<p>Jack’s home construction and set dressing</p>", "description": "", "description_for_label": [], "credit_line_for_label": "<p>Courtesy Herbert Pinter</p>", "details": [{"label": "Curatorial section", "display_values": ["The Story of the Moving Image&nbsp;→ Moving Worlds&nbsp;→ MW-03. Production Design&nbsp;→ MW-03-C03&nbsp;→ MW-03-C03.01"]}, {"label": "Object Types", "display_values": ["Facsimile"]}], "stats": {"tap_count": 0}, "links": [], "creators_primary": [{"id": 2523369, "name": "Herbert Pinter", "creator_id": 87378, "creator_wikidata_id": null, "role": "production designer", "role_id": 966, "is_primary": true}], "creators_other": [], "media_note": null, "holdings": [], "part_of": null, "parts": [], "part_siblings": [], "group": {"id": 122314, "acmi_id": "194842", "title": "Production Design in Mystery Road: Origin", "title_annotation": "", "slug": "production-design-in-mystery-road-origins", "creator_credit": "", "credit_line": "", "headline_credit": "", "video_links": [], "record_type": "group", "type": "Object", "is_on_display": true, "last_on_display_place": "ACMI: Gallery 1", "last_on_display_date": "2031-02-16", "is_context_indigenous": false, "material_description": "", "unpublished": false, "external": true, "first_production_date": null, "commissioned": false, "public_domain": false, "external_references": []}, "group_works": [], "group_siblings": [], "source": {"name": "Vernon", "slug": "vernon"}, "source_identifier": "194821", "eaas_environment_id": null, "production_places": [{"id": 3, "name": "Australia", "slug": "australia"}], "production_dates": [{"date": "2022", "notes": "", "to_year": "2022"}], "labels": [61785]}, {"id": 122325, "acmi_id": "P194816", "title": "Jack’s home construction and set dressing", "title_annotation": "Facsimile", "slug": "jacks-home-construction-and-set-dressing", "creator_credit": "Herbert Pinter", "credit_line": "<p>Courtesy Herbert Pinter</p>", "headline_credit": "Australia, 2022", "video_links": [], "record_type": "work", "type": "Object", "is_on_display": true, "last_on_display_place": "ACMI: Gallery 1", "last_on_display_date": "2031-02-16", "is_context_indigenous": false, "material_description": "", "unpublished": false, "external": false, "first_production_date": "2022-01-01T11:00:00+11:00", "commissioned": false, "public_domain": false, "external_references": [], "brief_description": "", "constellations_primary": [], "constellations_other": [], "recommendations": [], "creator_credit_for_label": "<p>Herbert Pinter</p>", "headline_credit_for_label": "<p>Australia, 2022</p>", "title_for_label": "<p>Jack’s home construction and set dressing</p>", "description": "", "description_for_label": [], "credit_line_for_label": "<p>Courtesy Herbert Pinter</p>", "details": [{"label": "Curatorial section", "display_values": ["The Story of the Moving Image&nbsp;→ Moving Worlds&nbsp;→ MW-03. Production Design&nbsp;→ MW-03-C03&nbsp;→ MW-03-C03.01"]}, {"label": "Object Types", "display_values": ["Facsimile"]}], "stats": {"tap_count": 0}, "links": [], "creators_primary": [{"id": 2523368, "name": "Herbert Pinter", "creator_id": 87378, "creator_wikidata_id": null, "role": "production designer", "role_id": 966, "is_primary": true}], "creators_other": [], "media_note": null, "holdings": [], "part_of": null, "parts": [], "part_siblings": [], "group": {"id": 122314, "acmi_id": "194842", "title": "Production Design in Mystery Road: Origin", "title_annotation": "", "slug": "production-design-in-mystery-road-origins", "creator_credit": "", "credit_line": "", "headline_credit": "", "video_links": [], "record_type": "group", "type": "Object", "is_on_display": true, "last_on_display_place": "ACMI: Gallery 1", "last_on_display_date": "2031-02-16", "is_context_indigenous": false, "material_description": "", "unpublished": false, "external": true, "first_production_date": null, "commissioned": false, "public_domain": false, "external_references": []}, "group_works": [], "group_siblings": [], "source": {"name": "Vernon", "slug": "vernon"}, "source_identifier": "194816", "eaas_environment_id": null, "production_places": [{"id": 3, "name": "Australia", "slug": "australia"}], "production_dates": [{"date": "2022", "notes": "", "to_year": "2022"}], "labels": [61784]}, {"id": 122324, "acmi_id": "P194813", "title": "Jack’s home construction and set dressing", "title_annotation": "Facsimile", "slug": "jacks-home-construction-and-set-dressing", "creator_credit": "Herbert Pinter", "credit_line": "<p>Courtesy Herbert Pinter</p>", "headline_credit": "Australia, 2022", "video_links": [], "record_type": "work", "type": "Object", "is_on_display": true, "last_on_display_place": "ACMI: Gallery 1", "last_on_display_date": "2031-02-16", "is_context_indigenous": false, "material_description": "", "unpublished": false, "external": false, "first_production_date": "2022-01-01T11:00:00+11:00", "commissioned": false, "public_domain": false, "external_references": [], "brief_description": "", "constellations_primary": [], "constellations_other": [], "recommendations": [], "creator_credit_for_label": "<p>Herbert Pinter</p>", "headline_credit_for_label": "<p>Australia, 2022</p>", "title_for_label": "<p>Jack’s home construction and set dressing</p>", "description": "", "description_for_label": [], "credit_line_for_label": "<p>Courtesy Herbert Pinter</p>", "details": [{"label": "Curatorial section", "display_values": ["The Story of the Moving Image&nbsp;→ Moving Worlds&nbsp;→ MW-03. Production Design&nbsp;→ MW-03-C03&nbsp;→ MW-03-C03.01"]}, {"label": "Object Types", "display_values": ["Facsimile"]}], "stats": {"tap_count": 0}, "links": [], "creators_primary": [{"id": 2523367, "name": "Herbert Pinter", "creator_id": 87378, "creator_wikidata_id": null, "role": "production designer", "role_id": 966, "is_primary": true}], "creators_other": [], "media_note": null, "holdings": [], "part_of": null, "parts": [], "part_siblings": [], "group": {"id": 122314, "acmi_id": "194842", "title": "Production Design in Mystery Road: Origin", "title_annotation": "", "slug": "production-design-in-mystery-road-origins", "creator_credit": "", "credit_line": "", "headline_credit": "", "video_links": [], "record_type": "group", "type": "Object", "is_on_display": true, "last_on_display_place": "ACMI: Gallery 1", "last_on_display_date": "2031-02-16", "is_context_indigenous": false, "material_description": "", "unpublished": false, "external": true, "first_production_date": null, "commissioned": false, "public_domain": false, "external_references": []}, "group_works": [], "group_siblings": [], "source": {"name": "Vernon", "slug": "vernon"}, "source_identifier": "194813", "eaas_environment_id": null, "production_places": [{"id": 3, "name": "Australia", "slug": "australia"}], "production_dates": [{"date": "2022", "notes": "", "to_year": "2022"}], "labels": [61783]}, {"id": 122322, "acmi_id": "P194811", "title": "Jack’s home construction and set dressing", "title_annotation": "Facsimile", "slug": "jacks-home-construction-and-set-dressing", "creator_credit": "Herbert Pinter", "credit_line": "<p>Courtesy Herbert Pinter</p>", "headline_credit": "Australia, 2022", "video_links": [], "record_type": "work", "type": "Object", "is_on_display": true, "last_on_display_place": "ACMI: Gallery 1", "last_on_display_date": "2031-02-16", "is_context_indigenous": false, "material_description": "", "unpublished": false, "external": false, "first_production_date": "2022-01-01T11:00:00+11:00", "commissioned": false, "public_domain": false, "external_references": [], "brief_description": "", "constellations_primary": [], "constellations_other": [], "recommendations": [], "creator_credit_for_label": "<p>Herbert Pinter</p>", "headline_credit_for_label": "<p>Australia, 2022</p>", "title_for_label": "<p>Jack’s home construction and set dressing</p>", "description": "", "description_for_label": [], "credit_line_for_label": "<p>Courtesy Herbert Pinter</p>", "details": [{"label": "Curatorial section", "display_values": ["The Story of the Moving Image&nbsp;→ Moving Worlds&nbsp;→ MW-03. Production Design&nbsp;→ MW-03-C03&nbsp;→ MW-03-C03.01"]}, {"label": "Object Types", "display_values": ["Facsimile"]}], "stats": {"tap_count": 0}, "links": [], "creators_primary": [{"id": 2523366, "name": "Herbert Pinter", "creator_id": 87378, "creator_wikidata_id": null, "role": "production designer", "role_id": 966, "is_primary": true}], "creators_other": [], "media_note": null, "holdings": [], "part_of": null, "parts": [], "part_siblings": [], "group": {"id": 122314, "acmi_id": "194842", "title": "Production Design in Mystery Road: Origin", "title_annotation": "", "slug": "production-design-in-mystery-road-origins", "creator_credit": "", "credit_line": "", "headline_credit": "", "video_links": [], "record_type": "group", "type": "Object", "is_on_display": true, "last_on_display_place": "ACMI: Gallery 1", "last_on_display_date": "2031-02-16", "is_context_indigenous": false, "material_description": "", "unpublished": false, "external": true, "first_production_date": null, "commissioned": false, "public_domain": false, "external_references": []}, "group_works": [], "group_siblings": [], "source": {"name": "Vernon", "slug": "vernon"}, "source_identifier": "194811", "eaas_environment_id": null, "production_places": [{"id": 3, "name": "Australia", "slug": "australia"}], "production_dates": [{"date": "2022", "notes": "", "to_year": "2022"}], "labels": [61781]}, {"id": 122321, "acmi_id": "P194810", "title": "Jack’s home construction and set dressing", "title_annotation": "Facsimile", "slug": "jacks-home-construction-and-set-dressing", "creator_credit": "Herbert Pinter", "credit_line": "<p>Courtesy Herbert Pinter</p>", "headline_credit": "Australia, 2022", "video_links": [], "record_type": "work", "type": "Object", "is_on_display": true, "last_on_display_place": "ACMI: Gallery 1", "last_on_display_date": "2031-02-16", "is_context_indigenous": false, "material_description": "", "unpublished": false, "external": false, "first_production_date": "2022-01-01T11:00:00+11:00", "commissioned": false, "public_domain": false, "external_references": [], "brief_description": "", "constellations_primary": [], "constellations_other": [], "recommendations": [], "creator_credit_for_label": "<p>Herbert Pinter</p>", "headline_credit_for_label": "<p>Australia, 2022</p>", "title_for_label": "<p>Jack’s home construction and set dressing</p>", "description": "", "description_for_label": [], "credit_line_for_label": "<p>Courtesy Herbert Pinter</p>", "details": [{"label": "Curatorial section", "display_values": ["The Story of the Moving Image&nbsp;→ Moving Worlds&nbsp;→ MW-03. Production Design&nbsp;→ MW-03-C03&nbsp;→ MW-03-C03.01"]}, {"label": "Object Types", "display_values": ["Facsimile"]}], "stats": {"tap_count": 0}, "links": [], "creators_primary": [{"id": 2523365, "name": "Herbert Pinter", "creator_id": 87378, "creator_wikidata_id": null, "role": "production designer", "role_id": 966, "is_primary": true}], "creators_other": [], "media_note": null, "holdings": [], "part_of": null, "parts": [], "part_siblings": [], "group": {"id": 122314, "acmi_id": "194842", "title": "Production Design in Mystery Road: Origin", "title_annotation": "", "slug": "production-design-in-mystery-road-origins", "creator_credit": "", "credit_line": "", "headline_credit": "", "video_links": [], "record_type": "group", "type": "Object", "is_on_display": true, "last_on_display_place": "ACMI: Gallery 1", "last_on_display_date": "2031-02-16", "is_context_indigenous": false, "material_description": "", "unpublished": false, "external": true, "first_production_date": null, "commissioned": false, "public_domain": false, "external_references": []}, "group_works": [], "group_siblings": [], "source": {"name": "Vernon", "slug": "vernon"}, "source_identifier": "194810", "eaas_environment_id": null, "production_places": [{"id": 3, "name": "Australia", "slug": "australia"}], "production_dates": [{"date": "2022", "notes": "", "to_year": "2022"}], "labels": [61780]}, {"id": 122317, "acmi_id": "P194818", "title": "Scale model of the police station", "title_annotation": "Facsimile", "slug": "scale-model-of-the-police-station", "creator_credit": "Herbert Pinter", "credit_line": "<p>Courtesy Herbert Pinter</p>", "headline_credit": "Australia, 2022", "video_links": [], "record_type": "work", "type": "Object", "is_on_display": true, "last_on_display_place": "ACMI: Gallery 1", "last_on_display_date": "2031-02-16", "is_context_indigenous": false, "material_description": "", "unpublished": false, "external": false, "first_production_date": "2022-01-01T11:00:00+11:00", "commissioned": false, "public_domain": false, "external_references": [], "brief_description": "", "constellations_primary": [], "constellations_other": [], "recommendations": [], "creator_credit_for_label": "<p>Herbert Pinter</p>", "headline_credit_for_label": "<p>Australia, 2022</p>", "title_for_label": "<p>Scale model of the police station</p>", "description": "", "description_for_label": [], "credit_line_for_label": "<p>Courtesy Herbert Pinter</p>", "details": [{"label": "Curatorial section", "display_values": ["The Story of the Moving Image&nbsp;→ Moving Worlds&nbsp;→ MW-03. Production Design&nbsp;→ MW-03-C03&nbsp;→ MW-03-C03.02"]}, {"label": "Object Types", "display_values": ["3D Object", "Film Production Props"]}], "stats": {"tap_count": 0}, "links": [], "creators_primary": [{"id": 2523361, "name": "Herbert Pinter", "creator_id": 87378, "creator_wikidata_id": null, "role": "production designer", "role_id": 966, "is_primary": true}], "creators_other": [{"id": 2523362, "name": "Tom Burless", "creator_id": 84875, "creator_wikidata_id": null, "role": "maker", "role_id": 657, "is_primary": false}], "media_note": null, "holdings": [], "part_of": null, "parts": [], "part_siblings": [], "group": {"id": 122314, "acmi_id": "194842", "title": "Production Design in Mystery Road: Origin", "title_annotation": "", "slug": "production-design-in-mystery-road-origins", "creator_credit": "", "credit_line": "", "headline_credit": "", "video_links": [], "record_type": "group", "type": "Object", "is_on_display": true, "last_on_display_place": "ACMI: Gallery 1", "last_on_display_date": "2031-02-16", "is_context_indigenous": false, "material_description": "", "unpublished": false, "external": true, "first_production_date": null, "commissioned": false, "public_domain": false, "external_references": []}, "group_works": [], "group_siblings": [], "source": {"name": "Vernon", "slug": "vernon"}, "source_identifier": "194818", "eaas_environment_id": null, "production_places": [{"id": 3, "name": "Australia", "slug": "australia"}], "production_dates": [{"date": "2022", "notes": "", "to_year": "2022"}], "labels": [61776]}]}