{"count": 41724, "next": "https://api.acmi.net.au/works/?page=2269", "previous": "https://api.acmi.net.au/works/?page=2267", "results": [{"id": 69583, "acmi_id": "321997", "title": "The Legend of Byamee", "title_annotation": "", "slug": "the-legend-of-byamee", "creator_credit": "Tim Burstall, Patrick Ryan and Eltham Films", "credit_line": "", "headline_credit": "Australia, 1963", "video_links": [], "record_type": "work", "type": "Film", "is_on_display": false, "last_on_display_place": null, "last_on_display_date": null, "is_context_indigenous": false, "material_description": "", "unpublished": false, "external": false, "first_production_date": "1963-01-01T10:00:00+10:00", "commissioned": false, "public_domain": false, "external_references": [], "brief_description": "<p>First Nations bark paintings from Arnhem Land illustrate an important creation story.</p>", "constellations_primary": [], "constellations_other": [], "recommendations": [], "creator_credit_for_label": "<p>Tim Burstall, Patrick Ryan and Eltham Films</p>", "headline_credit_for_label": "<p>Australia, 1963</p>", "title_for_label": "<p>The Legend of Byamee</p>", "description": "<p>First Nations bark paintings from Arnhem Land illustrate an important creation story.</p>", "description_for_label": ["<p>First Nations bark paintings from Arnhem Land illustrate an important creation story.</p>"], "credit_line_for_label": "", "details": [{"label": "Duration", "display_values": ["00:07:53:00"]}, {"label": "Language", "display_values": ["English"]}, {"label": "Subject categories", "display_values": ["Aboriginal Australia&nbsp;→ Aboriginal Australians - Ethnic identity", "Aboriginal Australia&nbsp;→ Aboriginal Australians - Legends", "Aboriginal Australia&nbsp;→ Arnhem Land (N.T.)", "Aboriginal Australia&nbsp;→ Dreamtime (Aboriginal Australian mythology)", "Anthropology, Ethnology, Exploration & Travel&nbsp;→ Aboriginal Australians - Legends", "Anthropology, Ethnology, Exploration & Travel&nbsp;→ Arnhem Land (N.T.)", "Crafts & Visual Arts&nbsp;→ Aboriginal Australians - Painting", "Crafts & Visual Arts&nbsp;→ Bark painting", "History&nbsp;→ Aboriginal Australians - Legends", "History&nbsp;→ Australia - History", "Places&nbsp;→ Arnhem Land (N.T.)", "Short films", "Short films&nbsp;→ Short films - Australia"]}, {"label": "Sound/audio", "display_values": ["Sound"]}, {"label": "Colour", "display_values": ["Colour"]}], "stats": {"tap_count": 0}, "links": [], "creators_primary": [{"id": 2377700, "name": "Tim Burstall", "creator_id": 66448, "creator_wikidata_id": "Q7803256", "role": "director", "role_id": 938, "is_primary": true}, {"id": 2377699, "name": "Patrick Ryan", "creator_id": 8316, "creator_wikidata_id": "Q12043939", "role": "producer", "role_id": 1089, "is_primary": true}, {"id": 2377698, "name": "Eltham Films", "creator_id": 12754, "creator_wikidata_id": null, "role": "production company", "role_id": 941, "is_primary": true}], "creators_other": [], "media_note": "Sorry, we don't have images or video for this item.", "holdings": [{"name": "16mm film; Access Print (Section 1)", "identifier": "", "description": ""}], "part_of": null, "parts": [], "part_siblings": [], "group": null, "group_works": [], "group_siblings": [], "source": {"name": "Vernon", "slug": "vernon"}, "source_identifier": "25230", "eaas_environment_id": null, "production_places": [{"id": 3, "name": "Australia", "slug": "australia"}], "production_dates": [{"date": "1963", "notes": "Produced", "to_year": "1963"}], "labels": [9073]}, {"id": 69177, "acmi_id": "005613", "title": "Jack and the beanstalk", "title_annotation": "", "slug": "jack-and-the-beanstalk", "creator_credit": "Primrose Productions", "credit_line": "", "headline_credit": "United Kingdom, 1955", "video_links": [], "record_type": "work", "type": "Film", "is_on_display": false, "last_on_display_place": null, "last_on_display_date": null, "is_context_indigenous": false, "material_description": "", "unpublished": false, "external": false, "first_production_date": "1955-01-01T10:00:00+10:00", "commissioned": false, "public_domain": false, "external_references": [], "brief_description": "<p>A short version of the traditional fairy tale in a new medium of silhouette-color, in which black cut-out puppets are manipulated against a colored background. A recent variation on Lotte Reiniger&#8217;s established techniques. Narrated by Deryck Guyler.</p>", "constellations_primary": [], "constellations_other": [], "recommendations": [], "creator_credit_for_label": "<p>Primrose Productions</p>", "headline_credit_for_label": "<p>United Kingdom, 1955</p>", "title_for_label": "<p>Jack and the beanstalk</p>", "description": "<p>A short version of the traditional fairy tale in a new medium of silhouette-color, in which black cut-out puppets are manipulated against a colored background. A recent variation on Lotte Reiniger&#8217;s established techniques. Narrated by Deryck Guyler.</p>", "description_for_label": ["<p>A short version of the traditional fairy tale in a new medium of silhouette-color, in which black cut-out puppets are manipulated against a colored background. A recent variation on Lotte Reiniger&#8217;s established techniques. Narrated by Deryck Guyler.</p>"], "credit_line_for_label": "", "details": [{"label": "Duration", "display_values": ["00:11:22:00"]}, {"label": "Language", "display_values": ["English"]}, {"label": "Subject categories", "display_values": ["Adaptations", "Advertising, Film, Journalism, Mass Media & TV&nbsp;→ Animation (Cinematography)", "Animation", "Animation&nbsp;→ Silhouette animation", "Childrens Films", "Childrens Films&nbsp;→ Children 0-6", "Childrens Films&nbsp;→ Children 6-12", "Literature&nbsp;→ Fairy tales - Film and video adaptations", "Music & Performing Arts&nbsp;→ Puppets", "Short films", "Short films&nbsp;→ Short films - Great Britain"]}, {"label": "Sound/audio", "display_values": ["Sound"]}, {"label": "Colour", "display_values": ["Black and White"]}], "stats": {"tap_count": 0}, "links": [], "creators_primary": [{"id": 2377697, "name": "Primrose Productions", "creator_id": 12215, "creator_wikidata_id": "Q64760336", "role": "production company", "role_id": 941, "is_primary": true}], "creators_other": [], "media_note": "Sorry, we don't have images or video for this item.", "holdings": [{"name": "16mm film; Limited Access Print (Section 2)", "identifier": "", "description": ""}, {"name": "16mm film; Access Print (Section 1)", "identifier": "", "description": ""}, {"name": "VHS; Access Print (Section 1)", "identifier": "", "description": ""}], "part_of": null, "parts": [], "part_siblings": [], "group": null, "group_works": [], "group_siblings": [], "source": {"name": "Vernon", "slug": "vernon"}, "source_identifier": "24815", "eaas_environment_id": null, "production_places": [{"id": 10, "name": "United Kingdom", "slug": "united-kingdom"}], "production_dates": [{"date": "1955", "notes": "Produced", "to_year": "1955"}], "labels": [8667]}, {"id": 100128, "acmi_id": "E000256", "title": "Super 8: Plus-o-Matic TTL 200M", "title_annotation": "", "slug": "super-8-plus-o-matic-ttl-200m", "creator_credit": "", "credit_line": "", "headline_credit": "1970s", "video_links": [], "record_type": "work", "type": "Object", "is_on_display": false, "last_on_display_place": null, "last_on_display_date": null, "is_context_indigenous": false, "material_description": "", "unpublished": false, "external": false, "first_production_date": null, "commissioned": false, "public_domain": false, "external_references": [], "brief_description": "<p>Super 8: Plus-o-matic c.1970s s.n. 14618</p>", "constellations_primary": [], "constellations_other": [], "recommendations": [], "creator_credit_for_label": "", "headline_credit_for_label": "<p>1970s</p>", "title_for_label": "<p>Super 8: Plus-o-Matic TTL 200M</p>", "description": "<p>Super 8: Plus-o-matic c.1970s s.n. 14618</p>", "description_for_label": ["<p>Super 8: Plus-o-matic c.1970s s.n. 14618</p>"], "credit_line_for_label": "", "details": [{"label": "Measurements", "display_values": ["185 x 60 x 190mm"]}, {"label": "Object Types", "display_values": ["Camera/ Camera crane / Camera lens/Film and television equipment"]}], "stats": {"tap_count": 0}, "links": [], "creators_primary": [], "creators_other": [], "media_note": "Sorry, we don't have images or video for this item.", "holdings": [], "part_of": null, "parts": [], "part_siblings": [], "group": null, "group_works": [], "group_siblings": [], "source": {"name": "Vernon", "slug": "vernon"}, "source_identifier": "179435", "eaas_environment_id": null, "production_places": [], "production_dates": [{"date": "1970s", "notes": "", "to_year": "1970s"}], "labels": [39624]}, {"id": 100115, "acmi_id": "E000247", "title": "Bell & Howell Model 491 Super 8 camera", "title_annotation": "", "slug": "bell-howell-model-491-super-8-camera", "creator_credit": "", "credit_line": "", "headline_credit": "1970s", "video_links": [], "record_type": "work", "type": "Object", "is_on_display": false, "last_on_display_place": null, "last_on_display_date": null, "is_context_indigenous": false, "material_description": "", "unpublished": false, "external": false, "first_production_date": null, "commissioned": false, "public_domain": false, "external_references": [], "brief_description": "<p>Bell &amp; Howell Model 491 Super 8 camera, s.n. 33610679  in GAF carrying case with instruction booklet</p>", "constellations_primary": [], "constellations_other": [], "recommendations": [], "creator_credit_for_label": "", "headline_credit_for_label": "<p>1970s</p>", "title_for_label": "<p>Bell &amp; Howell Model 491 Super 8 camera</p>", "description": "<p>Bell &amp; Howell Model 491 Super 8 camera, s.n. 33610679  in GAF carrying case with instruction booklet</p>", "description_for_label": ["<p>Bell &amp; Howell Model 491 Super 8 camera, s.n. 33610679  in GAF carrying case with instruction booklet</p>"], "credit_line_for_label": "", "details": [{"label": "Measurements", "display_values": ["180 x 210 x 65mm"]}, {"label": "Object Types", "display_values": ["Camera/ Camera crane / Camera lens/Film and television equipment"]}], "stats": {"tap_count": 0}, "links": [], "creators_primary": [], "creators_other": [], "media_note": "Sorry, we don't have images or video for this item.", "holdings": [], "part_of": null, "parts": [], "part_siblings": [], "group": null, "group_works": [], "group_siblings": [], "source": {"name": "Vernon", "slug": "vernon"}, "source_identifier": "179419", "eaas_environment_id": null, "production_places": [], "production_dates": [{"date": "1970s", "notes": "", "to_year": "1970s"}], "labels": [39611]}, {"id": 100114, "acmi_id": "E000246", "title": "Bell & Howell Model 374 Super 8 camera in case", "title_annotation": "", "slug": "bell-howell-model-374-super-8-camera-in-case", "creator_credit": "", "credit_line": "", "headline_credit": "", "video_links": [], "record_type": "work", "type": "Object", "is_on_display": false, "last_on_display_place": null, "last_on_display_date": null, "is_context_indigenous": false, "material_description": "", "unpublished": false, "external": false, "first_production_date": null, "commissioned": false, "public_domain": false, "external_references": [], "brief_description": "<p>Bell &amp; Howell Model 374 Super 8 camera + carrying case s.n. 177568</p>", "constellations_primary": [], "constellations_other": [], "recommendations": [], "creator_credit_for_label": "", "headline_credit_for_label": "", "title_for_label": "<p>Bell &amp; Howell Model 374 Super 8 camera in case</p>", "description": "<p>Bell &amp; Howell Model 374 Super 8 camera + carrying case s.n. 177568</p>", "description_for_label": ["<p>Bell &amp; Howell Model 374 Super 8 camera + carrying case s.n. 177568</p>"], "credit_line_for_label": "", "details": [{"label": "Measurements", "display_values": ["210 x 205 x 75mm"]}, {"label": "Object Types", "display_values": ["Camera/ Camera crane / Camera lens/Film and television equipment"]}], "stats": {"tap_count": 0}, "links": [], "creators_primary": [], "creators_other": [], "media_note": "Sorry, we don't have images or video for this item.", "holdings": [], "part_of": null, "parts": [], "part_siblings": [], "group": null, "group_works": [], "group_siblings": [], "source": {"name": "Vernon", "slug": "vernon"}, "source_identifier": "179418", "eaas_environment_id": null, "production_places": [], "production_dates": [], "labels": [39610]}, {"id": 100112, "acmi_id": "E000253", "title": "Brownie Camera No.2-A Folding Autographic", "title_annotation": "", "slug": "brownie-camera-no2-a-folding-autographic", "creator_credit": "", "credit_line": "", "headline_credit": "", "video_links": [], "record_type": "work", "type": "Object", "is_on_display": false, "last_on_display_place": null, "last_on_display_date": null, "is_context_indigenous": false, "material_description": "", "unpublished": false, "external": false, "first_production_date": null, "commissioned": false, "public_domain": false, "external_references": [], "brief_description": "<p>Brownie Camera No. 2-A Folding Autographic</p>", "constellations_primary": [], "constellations_other": [], "recommendations": [], "creator_credit_for_label": "", "headline_credit_for_label": "", "title_for_label": "<p>Brownie Camera No.2-A Folding Autographic</p>", "description": "<p>Brownie Camera No. 2-A Folding Autographic</p>", "description_for_label": ["<p>Brownie Camera No. 2-A Folding Autographic</p>"], "credit_line_for_label": "", "details": [{"label": "Measurements", "display_values": ["205 x 90 x 160mm"]}, {"label": "Object Types", "display_values": ["Camera/ Camera crane / Camera lens/Film and television equipment"]}], "stats": {"tap_count": 0}, "links": [], "creators_primary": [], "creators_other": [], "media_note": "Sorry, we don't have images or video for this item.", "holdings": [], "part_of": null, "parts": [], "part_siblings": [], "group": null, "group_works": [], "group_siblings": [], "source": {"name": "Vernon", "slug": "vernon"}, "source_identifier": "179416", "eaas_environment_id": null, "production_places": [], "production_dates": [], "labels": [39608]}, {"id": 100108, "acmi_id": "E000242", "title": "Kodak XL33 Super 8 Camera", "title_annotation": "", "slug": "kodak-xl33-super-8-camera", "creator_credit": "", "credit_line": "", "headline_credit": "1930s", "video_links": [], "record_type": "work", "type": "Object", "is_on_display": false, "last_on_display_place": null, "last_on_display_date": null, "is_context_indigenous": false, "material_description": "", "unpublished": false, "external": false, "first_production_date": null, "commissioned": false, "public_domain": false, "external_references": [], "brief_description": "<p>Kodak XL33 Super 8 camera</p>", "constellations_primary": [], "constellations_other": [], "recommendations": [], "creator_credit_for_label": "", "headline_credit_for_label": "<p>1930s</p>", "title_for_label": "<p>Kodak XL33 Super 8 Camera</p>", "description": "<p>Kodak XL33 Super 8 camera</p>", "description_for_label": ["<p>Kodak XL33 Super 8 camera</p>"], "credit_line_for_label": "", "details": [{"label": "Measurements", "display_values": ["150 x 85 x 175mm"]}, {"label": "Object Types", "display_values": ["Camera/ Camera crane / Camera lens/Film and television equipment"]}], "stats": {"tap_count": 0}, "links": [], "creators_primary": [], "creators_other": [], "media_note": "Sorry, we don't have images or video for this item.", "holdings": [], "part_of": null, "parts": [], "part_siblings": [], "group": null, "group_works": [], "group_siblings": [], "source": {"name": "Vernon", "slug": "vernon"}, "source_identifier": "179412", "eaas_environment_id": null, "production_places": [], "production_dates": [{"date": "1930s", "notes": "", "to_year": "1930s"}], "labels": [39604]}, {"id": 100107, "acmi_id": "E000227", "title": "Baby Pathe Projector PB-EX", "title_annotation": "", "slug": "baby-pathe-projector-pb-ex", "creator_credit": "", "credit_line": "", "headline_credit": "France, 1926", "video_links": [], "record_type": "work", "type": "Object", "is_on_display": false, "last_on_display_place": null, "last_on_display_date": null, "is_context_indigenous": false, "material_description": "", "unpublished": false, "external": false, "first_production_date": "1926-01-01T10:00:00+10:00", "commissioned": false, "public_domain": false, "external_references": [], "brief_description": "<p>Baby Projector Pathe PB-EX 1926c<br />\n-Asbestos removed November 2019 by ACMI Facilities, replacement block and cords (black rope) made by Brendan Andersen to mimic the appearance of original parts containing asbestos.</p>", "constellations_primary": [], "constellations_other": [], "recommendations": [], "creator_credit_for_label": "", "headline_credit_for_label": "<p>France, 1926</p>", "title_for_label": "<p>Baby Pathe Projector PB-EX</p>", "description": "<p>Baby Projector Pathe PB-EX 1926c<br />\n-Asbestos removed November 2019 by ACMI Facilities, replacement block and cords (black rope) made by Brendan Andersen to mimic the appearance of original parts containing asbestos.</p>", "description_for_label": ["<p>Baby Projector Pathe PB-EX 1926c<br />\n-Asbestos removed November 2019 by ACMI Facilities, replacement block and cords (black rope) made by Brendan Andersen to mimic the appearance of original parts containing asbestos.</p>"], "credit_line_for_label": "", "details": [{"label": "Measurements", "display_values": ["355 x 120 x 195mm"]}, {"label": "Object Types", "display_values": ["Projection equipment/Film and television equipment"]}], "stats": {"tap_count": 0}, "links": [], "creators_primary": [], "creators_other": [{"id": 2364189, "name": "Pathé Frères", "creator_id": 1976, "creator_wikidata_id": null, "role": "", "role_id": 604, "is_primary": false}], "media_note": "Sorry, we don't have images or video for this item.", "holdings": [], "part_of": null, "parts": [], "part_siblings": [], "group": null, "group_works": [], "group_siblings": [], "source": {"name": "Vernon", "slug": "vernon"}, "source_identifier": "179410", "eaas_environment_id": null, "production_places": [{"id": 17, "name": "France", "slug": "france"}], "production_dates": [{"date": "1926", "notes": "", "to_year": "1926"}], "labels": [39603]}, {"id": 84773, "acmi_id": "306108", "title": "10 Easy ways to lose your job", "title_annotation": "", "slug": "10-easy-ways-to-lose-your-job", "creator_credit": "Tom Colello, Donna Boundy and Reelizations", "credit_line": "", "headline_credit": "United States, 1990", "video_links": [], "record_type": "work", "type": "Film", "is_on_display": false, "last_on_display_place": null, "last_on_display_date": null, "is_context_indigenous": false, "material_description": "", "unpublished": false, "external": false, "first_production_date": "1990-01-01T11:00:00+11:00", "commissioned": false, "public_domain": false, "external_references": [{"id": 24632, "source": {"name": "Wikidata", "slug": "wikidata"}, "source_identifier": "Q119759763"}], "brief_description": "<p>Short vignettes illustrate the most common mistakes young people make when they are new to the workforce. These include: calling into work sick at the last minute, chronic lateness, not following instructions and less devious forms of stealing such as taking goods and services from the store or office. There is also an emphasis on attitude and how this affects customer service.</p>", "constellations_primary": [], "constellations_other": [], "recommendations": [], "creator_credit_for_label": "<p>Tom Colello, Donna Boundy and Reelizations</p>", "headline_credit_for_label": "<p>United States, 1990</p>", "title_for_label": "<p>10 Easy ways to lose your job</p>", "description": "<p>Short vignettes illustrate the most common mistakes young people make when they are new to the workforce. These include: calling into work sick at the last minute, chronic lateness, not following instructions and less devious forms of stealing such as taking goods and services from the store or office. There is also an emphasis on attitude and how this affects customer service.</p>", "description_for_label": ["<p>Short vignettes illustrate the most common mistakes young people make when they are new to the workforce. These include: calling into work sick at the last minute, chronic lateness, not following instructions and less devious forms of stealing such as taking goods and services from the store or office. There is also an emphasis on attitude and how this affects customer service.</p>"], "credit_line_for_label": "", "details": [{"label": "Duration", "display_values": ["00:25:00:00"]}, {"label": "Language", "display_values": ["English"]}, {"label": "Subject categories", "display_values": ["Agriculture, Business, Commerce & Industry&nbsp;→ Employees, Dismissal of", "People&nbsp;→ Colello, Tom", "Short films", "Short films&nbsp;→ Short films - United States"]}, {"label": "Sound/audio", "display_values": ["Sound"]}, {"label": "Colour", "display_values": ["Colour"]}], "stats": {"tap_count": 1}, "links": [], "creators_primary": [{"id": 786996, "name": "Tom Colello", "creator_id": 26667, "creator_wikidata_id": null, "role": "director", "role_id": 938, "is_primary": true}, {"id": 1807676, "name": "Donna Boundy", "creator_id": 26666, "creator_wikidata_id": null, "role": "producer", "role_id": 1089, "is_primary": true}, {"id": 786994, "name": "Reelizations", "creator_id": 26665, "creator_wikidata_id": null, "role": "production company", "role_id": 941, "is_primary": true}], "creators_other": [{"id": 786993, "name": "VEA", "creator_id": 21531, "creator_wikidata_id": null, "role": "distributor", "role_id": 437, "is_primary": false}], "media_note": null, "holdings": [{"name": "VHS; Access Print (Section 1)", "identifier": "", "description": ""}], "part_of": null, "parts": [], "part_siblings": [], "group": null, "group_works": [], "group_siblings": [], "source": {"name": "Vernon", "slug": "vernon"}, "source_identifier": "40735", "eaas_environment_id": null, "production_places": [{"id": 2, "name": "United States", "slug": "united-states"}], "production_dates": [{"date": "1990", "notes": "Estimated date", "to_year": "1990"}], "labels": [24263]}, {"id": 85540, "acmi_id": "306939", "title": "100 years of Australian football", "title_annotation": "", "slug": "100-years-of-australian-football", "creator_credit": "David Barham, Neil Kearney, Australian Football League, Seven Network Limited (Australia) and Visual Entertainment Group", "credit_line": "", "headline_credit": "Australia, 1996", "video_links": [], "record_type": "work", "type": "Film", "is_on_display": false, "last_on_display_place": null, "last_on_display_date": null, "is_context_indigenous": false, "material_description": "", "unpublished": false, "external": false, "first_production_date": "1996-01-01T11:00:00+11:00", "commissioned": false, "public_domain": false, "external_references": [{"id": 24631, "source": {"name": "Wikidata", "slug": "wikidata"}, "source_identifier": "Q119759187"}], "brief_description": "<p>For lovers of the great game of Australian Rules Football, this documentary highlights the game&#8217;s magnificent 100 year history. Using archival footage and interviews, the legends of the game including the great Jack Dyer and Mr. Football himself, Ted Whitten are featured together with many past and present heroes.</p>", "constellations_primary": [], "constellations_other": [], "recommendations": [], "creator_credit_for_label": "<p>David Barham, Neil Kearney, Australian Football League, Seven Network Limited (Australia) and Visual Entertainment Group</p>", "headline_credit_for_label": "<p>Australia, 1996</p>", "title_for_label": "<p>100 years of Australian football</p>", "description": "<p>For lovers of the great game of Australian Rules Football, this documentary highlights the game&#8217;s magnificent 100 year history. Using archival footage and interviews, the legends of the game including the great Jack Dyer and Mr. Football himself, Ted Whitten are featured together with many past and present heroes.</p>", "description_for_label": ["<p>For lovers of the great game of Australian Rules Football, this documentary highlights the game&#8217;s magnificent 100 year history. Using archival footage and interviews, the legends of the game including the great Jack Dyer and Mr. Football himself, Ted Whitten are featured together with many past and present heroes.</p>"], "credit_line_for_label": "", "details": [{"label": "Duration", "display_values": ["01:50:00:00"]}, {"label": "Language", "display_values": ["English"]}, {"label": "Audience classification", "display_values": ["G"]}, {"label": "Subject categories", "display_values": ["Documentary", "Documentary&nbsp;→ Documentary films - Australia", "Feature films", "Feature films&nbsp;→ Feature films - Australia", "Hobbies, Recreation & Sport&nbsp;→ Australian football", "Hobbies, Recreation & Sport&nbsp;→ Sports - Australia - History", "Hobbies, Recreation & Sport&nbsp;→ Victorian Football League"]}, {"label": "Sound/audio", "display_values": ["Sound"]}, {"label": "Colour", "display_values": ["Black and White and Colour"]}], "stats": {"tap_count": 0}, "links": [], "creators_primary": [{"id": 2063079, "name": "David Barham", "creator_id": 25801, "creator_wikidata_id": "Q121315631", "role": "co-producer", "role_id": 915, "is_primary": true}, {"id": 2063075, "name": "Neil Kearney", "creator_id": 77985, "creator_wikidata_id": "Q121357873", "role": "co-producer", "role_id": 915, "is_primary": true}, {"id": 2063072, "name": "Australian Football League", "creator_id": 27556, "creator_wikidata_id": "Q121079109", "role": "production company", "role_id": 941, "is_primary": true}, {"id": 2063073, "name": "Seven Network Limited (Australia)", "creator_id": 24820, "creator_wikidata_id": "Q121035992", "role": "production company", "role_id": 941, "is_primary": true}, {"id": 2063069, "name": "Visual Entertainment Group", "creator_id": 27555, "creator_wikidata_id": "Q121086119", "role": "production company", "role_id": 941, "is_primary": true}], "creators_other": [{"id": 2063066, "name": "Vidz Of Oz", "creator_id": 72738, "creator_wikidata_id": null, "role": "distributor", "role_id": 437, "is_primary": false}], "media_note": "Sorry, we don't have images or video for this item.", "holdings": [{"name": "VHS; Access Print (Section 1)", "identifier": "", "description": ""}], "part_of": null, "parts": [], "part_siblings": [], "group": null, "group_works": [], "group_siblings": [], "source": {"name": "Vernon", "slug": "vernon"}, "source_identifier": "41537", "eaas_environment_id": null, "production_places": [{"id": 3, "name": "Australia", "slug": "australia"}], "production_dates": [{"date": "1996", "notes": "Produced", "to_year": "1996"}], "labels": [25030]}]}