{"count": 41723, "next": "https://api.acmi.net.au/works/?page=3073", "previous": "https://api.acmi.net.au/works/?page=3071", "results": [{"id": 117529, "acmi_id": "509856", "title": "Quiet please", "title_annotation": "", "slug": "quiet-please", "creator_credit": "", "credit_line": "", "headline_credit": "United States", "video_links": [], "record_type": "work", "type": "Film", "is_on_display": false, "last_on_display_place": null, "last_on_display_date": null, "is_context_indigenous": false, "material_description": "", "unpublished": false, "external": false, "first_production_date": null, "commissioned": false, "public_domain": false, "external_references": [], "brief_description": "<p>SUMMARY: An explanation of what noise is, where it most commonly occurs, how it affects the human body, and what can be done to reduce or eliminate it by industry and research laboratories</p>", "constellations_primary": [], "constellations_other": [], "recommendations": [], "creator_credit_for_label": "", "headline_credit_for_label": "<p>United States</p>", "title_for_label": "<p>Quiet please</p>", "description": "<p>SUMMARY: An explanation of what noise is, where it most commonly occurs, how it affects the human body, and what can be done to reduce or eliminate it by industry and research laboratories</p>", "description_for_label": ["<p>SUMMARY: An explanation of what noise is, where it most commonly occurs, how it affects the human body, and what can be done to reduce or eliminate it by industry and research laboratories</p>"], "credit_line_for_label": "", "details": [{"label": "Duration", "display_values": ["00:22:00:00"]}, {"label": "Language", "display_values": ["English"]}, {"label": "Subject categories", "display_values": ["Short films", "Short films&nbsp;→ Short films - United States"]}, {"label": "Sound/audio", "display_values": ["Sound"]}, {"label": "Colour", "display_values": ["Colour"]}], "stats": {"tap_count": 0}, "links": [], "creators_primary": [], "creators_other": [], "media_note": "Sorry, we don't have images or video for this item.", "holdings": [{"name": "16mm film; Preservation Print (Section 5)", "identifier": "", "description": ""}], "part_of": null, "parts": [], "part_siblings": [], "group": null, "group_works": [], "group_siblings": [], "source": {"name": "Vernon", "slug": "vernon"}, "source_identifier": "163339", "eaas_environment_id": null, "production_places": [{"id": 2, "name": "United States", "slug": "united-states"}], "production_dates": [], "labels": [57023]}, {"id": 117528, "acmi_id": "509855", "title": "A problem of shock", "title_annotation": "", "slug": "a-problem-of-shock", "creator_credit": "", "credit_line": "", "headline_credit": "United States, 1971", "video_links": [], "record_type": "work", "type": "Film", "is_on_display": false, "last_on_display_place": null, "last_on_display_date": null, "is_context_indigenous": false, "material_description": "", "unpublished": false, "external": false, "first_production_date": "1971-01-01T10:00:00+10:00", "commissioned": false, "public_domain": false, "external_references": [], "brief_description": "<p>&#8220;Summary: presents the solid state chemistry problem of developing a glass-ceramic which is resistant to thermal shock, and provides the solution&#8221;</p>", "constellations_primary": [], "constellations_other": [], "recommendations": [], "creator_credit_for_label": "", "headline_credit_for_label": "<p>United States, 1971</p>", "title_for_label": "<p>A problem of shock</p>", "description": "<p>&#8220;Summary: presents the solid state chemistry problem of developing a glass-ceramic which is resistant to thermal shock, and provides the solution&#8221;</p>", "description_for_label": ["<p>&#8220;Summary: presents the solid state chemistry problem of developing a glass-ceramic which is resistant to thermal shock, and provides the solution&#8221;</p>"], "credit_line_for_label": "", "details": [{"label": "Duration", "display_values": ["00:09:00:00"]}, {"label": "Language", "display_values": ["English"]}, {"label": "Subject categories", "display_values": ["Short films", "Short films&nbsp;→ Short films - United States"]}, {"label": "Sound/audio", "display_values": ["Sound"]}, {"label": "Colour", "display_values": ["Colour"]}], "stats": {"tap_count": 0}, "links": [], "creators_primary": [], "creators_other": [], "media_note": "Sorry, we don't have images or video for this item.", "holdings": [{"name": "16mm film; Preservation Print (Section 5)", "identifier": "", "description": ""}], "part_of": null, "parts": [], "part_siblings": [], "group": null, "group_works": [], "group_siblings": [], "source": {"name": "Vernon", "slug": "vernon"}, "source_identifier": "163338", "eaas_environment_id": null, "production_places": [{"id": 2, "name": "United States", "slug": "united-states"}], "production_dates": [{"date": "1971", "notes": "", "to_year": "1971"}], "labels": [57022]}, {"id": 117526, "acmi_id": "509853", "title": "Principles of gearing : an introduction", "title_annotation": "", "slug": "principles-of-gearing-an-introduction", "creator_credit": "", "credit_line": "", "headline_credit": "United States, 1945", "video_links": [], "record_type": "work", "type": "Film", "is_on_display": false, "last_on_display_place": null, "last_on_display_date": null, "is_context_indigenous": false, "material_description": "", "unpublished": false, "external": false, "first_production_date": "1945-01-01T10:00:00+10:00", "commissioned": false, "public_domain": false, "external_references": [], "brief_description": "", "constellations_primary": [], "constellations_other": [], "recommendations": [], "creator_credit_for_label": "", "headline_credit_for_label": "<p>United States, 1945</p>", "title_for_label": "<p>Principles of gearing : an introduction</p>", "description": "", "description_for_label": [], "credit_line_for_label": "", "details": [{"label": "Duration", "display_values": ["00:18:00:00"]}, {"label": "Language", "display_values": ["English"]}, {"label": "Subject categories", "display_values": ["Short films", "Short films&nbsp;→ Short films - United States"]}, {"label": "Sound/audio", "display_values": ["Sound"]}, {"label": "Colour", "display_values": ["Black and White"]}], "stats": {"tap_count": 0}, "links": [], "creators_primary": [], "creators_other": [], "media_note": "Sorry, we don't have images or video for this item.", "holdings": [{"name": "16mm film; Preservation Print (Section 5)", "identifier": "", "description": ""}], "part_of": null, "parts": [], "part_siblings": [], "group": null, "group_works": [], "group_siblings": [], "source": {"name": "Vernon", "slug": "vernon"}, "source_identifier": "163336", "eaas_environment_id": null, "production_places": [{"id": 2, "name": "United States", "slug": "united-states"}], "production_dates": [{"date": "1945", "notes": "", "to_year": "1945"}], "labels": [57020]}, {"id": 117522, "acmi_id": "509849", "title": "Pay for performance", "title_annotation": "", "slug": "pay-for-performance", "creator_credit": "", "credit_line": "", "headline_credit": "United States, 1972", "video_links": [], "record_type": "work", "type": "Film", "is_on_display": false, "last_on_display_place": null, "last_on_display_date": null, "is_context_indigenous": false, "material_description": "", "unpublished": false, "external": false, "first_production_date": "1972-01-01T11:00:00+11:00", "commissioned": false, "public_domain": false, "external_references": [], "brief_description": "<p>Summary: Saul Gellerman and Emanuel Kay discuss how to avoid negative effects of poorly understood pay policies, how to ensure maximum advantage from salaries and wages and goal setting as a replacement for traditional performance appraisal programs</p>", "constellations_primary": [], "constellations_other": [], "recommendations": [], "creator_credit_for_label": "", "headline_credit_for_label": "<p>United States, 1972</p>", "title_for_label": "<p>Pay for performance</p>", "description": "<p>Summary: Saul Gellerman and Emanuel Kay discuss how to avoid negative effects of poorly understood pay policies, how to ensure maximum advantage from salaries and wages and goal setting as a replacement for traditional performance appraisal programs</p>", "description_for_label": ["<p>Summary: Saul Gellerman and Emanuel Kay discuss how to avoid negative effects of poorly understood pay policies, how to ensure maximum advantage from salaries and wages and goal setting as a replacement for traditional performance appraisal programs</p>"], "credit_line_for_label": "", "details": [{"label": "Duration", "display_values": ["00:30:00:00"]}, {"label": "Language", "display_values": ["English"]}, {"label": "Subject categories", "display_values": ["Short films", "Short films&nbsp;→ Short films - United States"]}, {"label": "Sound/audio", "display_values": ["Sound"]}, {"label": "Colour", "display_values": ["Colour"]}], "stats": {"tap_count": 0}, "links": [], "creators_primary": [], "creators_other": [], "media_note": "Sorry, we don't have images or video for this item.", "holdings": [{"name": "16mm film; Preservation Print (Section 5)", "identifier": "", "description": ""}], "part_of": null, "parts": [], "part_siblings": [], "group": null, "group_works": [], "group_siblings": [], "source": {"name": "Vernon", "slug": "vernon"}, "source_identifier": "163332", "eaas_environment_id": null, "production_places": [{"id": 2, "name": "United States", "slug": "united-states"}], "production_dates": [{"date": "1972", "notes": "", "to_year": "1972"}], "labels": [57016]}, {"id": 117519, "acmi_id": "509845", "title": "Nervous control of behavior", "title_annotation": "", "slug": "nervous-control-of-behavior", "creator_credit": "", "credit_line": "", "headline_credit": "United States, 1967", "video_links": [], "record_type": "work", "type": "Film", "is_on_display": false, "last_on_display_place": null, "last_on_display_date": null, "is_context_indigenous": false, "material_description": "", "unpublished": false, "external": false, "first_production_date": "1967-01-01T10:00:00+10:00", "commissioned": false, "public_domain": false, "external_references": [], "brief_description": "<p>Made by Calvin Productions</p>", "constellations_primary": [], "constellations_other": [], "recommendations": [], "creator_credit_for_label": "", "headline_credit_for_label": "<p>United States, 1967</p>", "title_for_label": "<p>Nervous control of behavior</p>", "description": "<p>Made by Calvin Productions</p>", "description_for_label": ["<p>Made by Calvin Productions</p>"], "credit_line_for_label": "", "details": [{"label": "Duration", "display_values": ["00:17:00:00"]}, {"label": "Language", "display_values": ["English"]}, {"label": "Subject categories", "display_values": ["Short films", "Short films&nbsp;→ Short films - United States"]}, {"label": "Sound/audio", "display_values": ["Sound"]}, {"label": "Colour", "display_values": ["Colour"]}], "stats": {"tap_count": 0}, "links": [], "creators_primary": [], "creators_other": [], "media_note": "Sorry, we don't have images or video for this item.", "holdings": [{"name": "16mm film; Preservation Print (Section 5)", "identifier": "", "description": ""}], "part_of": null, "parts": [], "part_siblings": [], "group": null, "group_works": [], "group_siblings": [], "source": {"name": "Vernon", "slug": "vernon"}, "source_identifier": "163328", "eaas_environment_id": null, "production_places": [{"id": 2, "name": "United States", "slug": "united-states"}], "production_dates": [{"date": "1967", "notes": "", "to_year": "1967"}], "labels": [57013]}, {"id": 117516, "acmi_id": "509842", "title": "Motivation in perspective", "title_annotation": "", "slug": "motivation-in-perspective", "creator_credit": "", "credit_line": "", "headline_credit": "United States, 1969", "video_links": [], "record_type": "work", "type": "Film", "is_on_display": false, "last_on_display_place": null, "last_on_display_date": null, "is_context_indigenous": false, "material_description": "", "unpublished": false, "external": false, "first_production_date": "1969-01-01T10:00:00+10:00", "commissioned": false, "public_domain": false, "external_references": [], "brief_description": "<p>SUMMARY: Saul Gellerman summarises theories of several experts concerning management and notes that the theme of each of these theories is that employees are not being used at their full capacity. Shows how the theories of each expert reinforce the theories of the others.</p>", "constellations_primary": [], "constellations_other": [], "recommendations": [], "creator_credit_for_label": "", "headline_credit_for_label": "<p>United States, 1969</p>", "title_for_label": "<p>Motivation in perspective</p>", "description": "<p>SUMMARY: Saul Gellerman summarises theories of several experts concerning management and notes that the theme of each of these theories is that employees are not being used at their full capacity. Shows how the theories of each expert reinforce the theories of the others.</p>", "description_for_label": ["<p>SUMMARY: Saul Gellerman summarises theories of several experts concerning management and notes that the theme of each of these theories is that employees are not being used at their full capacity. Shows how the theories of each expert reinforce the theories of the others.</p>"], "credit_line_for_label": "", "details": [{"label": "Duration", "display_values": ["00:20:00:00"]}, {"label": "Language", "display_values": ["English"]}, {"label": "Subject categories", "display_values": ["Short films", "Short films&nbsp;→ Short films - United States"]}, {"label": "Sound/audio", "display_values": ["Sound"]}, {"label": "Colour", "display_values": ["Colour"]}], "stats": {"tap_count": 0}, "links": [], "creators_primary": [], "creators_other": [], "media_note": "Sorry, we don't have images or video for this item.", "holdings": [{"name": "16mm film; Preservation Print (Section 5)", "identifier": "", "description": ""}], "part_of": null, "parts": [], "part_siblings": [], "group": null, "group_works": [], "group_siblings": [], "source": {"name": "Vernon", "slug": "vernon"}, "source_identifier": "163325", "eaas_environment_id": null, "production_places": [{"id": 2, "name": "United States", "slug": "united-states"}], "production_dates": [{"date": "1969", "notes": "", "to_year": "1969"}], "labels": [57010]}, {"id": 117513, "acmi_id": "509839", "title": "The mathematician and the river", "title_annotation": "", "slug": "the-mathematician-and-the-river", "creator_credit": "", "credit_line": "", "headline_credit": "United States, 1960", "video_links": [], "record_type": "work", "type": "Film", "is_on_display": false, "last_on_display_place": null, "last_on_display_date": null, "is_context_indigenous": false, "material_description": "", "unpublished": false, "external": false, "first_production_date": "1960-01-01T10:00:00+10:00", "commissioned": false, "public_domain": false, "external_references": [], "brief_description": "<p>SUMMARY: Discusses the role of mathematics in predicting and controlling the flow of the Ohio-Mississippi-Missouri River system</p>", "constellations_primary": [], "constellations_other": [], "recommendations": [], "creator_credit_for_label": "", "headline_credit_for_label": "<p>United States, 1960</p>", "title_for_label": "<p>The mathematician and the river</p>", "description": "<p>SUMMARY: Discusses the role of mathematics in predicting and controlling the flow of the Ohio-Mississippi-Missouri River system</p>", "description_for_label": ["<p>SUMMARY: Discusses the role of mathematics in predicting and controlling the flow of the Ohio-Mississippi-Missouri River system</p>"], "credit_line_for_label": "", "details": [{"label": "Duration", "display_values": ["00:19:00:00"]}, {"label": "Language", "display_values": ["English"]}, {"label": "Subject categories", "display_values": ["Short films", "Short films&nbsp;→ Short films - United States"]}, {"label": "Sound/audio", "display_values": ["Sound"]}, {"label": "Colour", "display_values": ["Colour"]}], "stats": {"tap_count": 0}, "links": [], "creators_primary": [], "creators_other": [], "media_note": "Sorry, we don't have images or video for this item.", "holdings": [{"name": "16mm film; Preservation Print (Section 5)", "identifier": "", "description": ""}], "part_of": null, "parts": [], "part_siblings": [], "group": null, "group_works": [], "group_siblings": [], "source": {"name": "Vernon", "slug": "vernon"}, "source_identifier": "163322", "eaas_environment_id": null, "production_places": [{"id": 2, "name": "United States", "slug": "united-states"}], "production_dates": [{"date": "1960", "notes": "", "to_year": "1960"}], "labels": [57007]}, {"id": 117512, "acmi_id": "509838", "title": "Management by participation", "title_annotation": "", "slug": "management-by-participation", "creator_credit": "", "credit_line": "", "headline_credit": "United States, 1972", "video_links": [], "record_type": "work", "type": "Film", "is_on_display": false, "last_on_display_place": null, "last_on_display_date": null, "is_context_indigenous": false, "material_description": "", "unpublished": false, "external": false, "first_production_date": "1972-01-01T11:00:00+11:00", "commissioned": false, "public_domain": false, "external_references": [], "brief_description": "<p>Summary: Saul Gellerman and Alfred Marrow discuss techniques of setting up and practicing participative management as developed at the harwood companies. discusses organizational climate, leadership style and participation as a total systems approach</p>", "constellations_primary": [], "constellations_other": [], "recommendations": [], "creator_credit_for_label": "", "headline_credit_for_label": "<p>United States, 1972</p>", "title_for_label": "<p>Management by participation</p>", "description": "<p>Summary: Saul Gellerman and Alfred Marrow discuss techniques of setting up and practicing participative management as developed at the harwood companies. discusses organizational climate, leadership style and participation as a total systems approach</p>", "description_for_label": ["<p>Summary: Saul Gellerman and Alfred Marrow discuss techniques of setting up and practicing participative management as developed at the harwood companies. discusses organizational climate, leadership style and participation as a total systems approach</p>"], "credit_line_for_label": "", "details": [{"label": "Duration", "display_values": ["00:30:00:00"]}, {"label": "Language", "display_values": ["English"]}, {"label": "Subject categories", "display_values": ["Short films", "Short films&nbsp;→ Short films - United States"]}, {"label": "Sound/audio", "display_values": ["Sound"]}, {"label": "Colour", "display_values": ["Colour"]}], "stats": {"tap_count": 0}, "links": [], "creators_primary": [], "creators_other": [], "media_note": "Sorry, we don't have images or video for this item.", "holdings": [{"name": "16mm film; Preservation Print (Section 5)", "identifier": "", "description": ""}], "part_of": null, "parts": [], "part_siblings": [], "group": null, "group_works": [], "group_siblings": [], "source": {"name": "Vernon", "slug": "vernon"}, "source_identifier": "163321", "eaas_environment_id": null, "production_places": [{"id": 2, "name": "United States", "slug": "united-states"}], "production_dates": [{"date": "1972", "notes": "", "to_year": "1972"}], "labels": [57006]}, {"id": 117509, "acmi_id": "509834", "title": "Inside the nucleus and fission", "title_annotation": "", "slug": "inside-the-nucleus-and-fission", "creator_credit": "", "credit_line": "", "headline_credit": "United States, 1957", "video_links": [], "record_type": "work", "type": "Film", "is_on_display": false, "last_on_display_place": null, "last_on_display_date": null, "is_context_indigenous": false, "material_description": "", "unpublished": false, "external": false, "first_production_date": "1957-01-01T10:00:00+10:00", "commissioned": false, "public_domain": false, "external_references": [], "brief_description": "<p>Narrator: Harvey E. White</p>", "constellations_primary": [], "constellations_other": [], "recommendations": [], "creator_credit_for_label": "", "headline_credit_for_label": "<p>United States, 1957</p>", "title_for_label": "<p>Inside the nucleus and fission</p>", "description": "<p>Narrator: Harvey E. White</p>", "description_for_label": ["<p>Narrator: Harvey E. White</p>"], "credit_line_for_label": "", "details": [{"label": "Duration", "display_values": ["00:31:00:00"]}, {"label": "Language", "display_values": ["English"]}, {"label": "Subject categories", "display_values": ["Short films", "Short films&nbsp;→ Short films - United States"]}, {"label": "Sound/audio", "display_values": ["Sound"]}, {"label": "Colour", "display_values": ["Black and White"]}], "stats": {"tap_count": 0}, "links": [], "creators_primary": [], "creators_other": [], "media_note": "Sorry, we don't have images or video for this item.", "holdings": [{"name": "16mm film; Preservation Print (Section 5)", "identifier": "", "description": ""}], "part_of": null, "parts": [], "part_siblings": [], "group": null, "group_works": [], "group_siblings": [], "source": {"name": "Vernon", "slug": "vernon"}, "source_identifier": "163317", "eaas_environment_id": null, "production_places": [{"id": 2, "name": "United States", "slug": "united-states"}], "production_dates": [{"date": "1957", "notes": "", "to_year": "1957"}], "labels": [57003]}, {"id": 117508, "acmi_id": "509833", "title": "Infinite acres", "title_annotation": "", "slug": "infinite-acres", "creator_credit": "", "credit_line": "", "headline_credit": "United States, 1967", "video_links": [], "record_type": "work", "type": "Film", "is_on_display": false, "last_on_display_place": null, "last_on_display_date": null, "is_context_indigenous": false, "material_description": "", "unpublished": false, "external": false, "first_production_date": "1967-01-01T10:00:00+10:00", "commissioned": false, "public_domain": false, "external_references": [], "brief_description": "<p>Summary: Represents the paradoxial situation of a solid with a finite volume and an infinite surface area. An animated film narrated by M. Henriksen</p>", "constellations_primary": [], "constellations_other": [], "recommendations": [], "creator_credit_for_label": "", "headline_credit_for_label": "<p>United States, 1967</p>", "title_for_label": "<p>Infinite acres</p>", "description": "<p>Summary: Represents the paradoxial situation of a solid with a finite volume and an infinite surface area. An animated film narrated by M. Henriksen</p>", "description_for_label": ["<p>Summary: Represents the paradoxial situation of a solid with a finite volume and an infinite surface area. An animated film narrated by M. Henriksen</p>"], "credit_line_for_label": "", "details": [{"label": "Duration", "display_values": ["00:10:00:00"]}, {"label": "Language", "display_values": ["English"]}, {"label": "Subject categories", "display_values": ["Short films", "Short films&nbsp;→ Short films - United States"]}, {"label": "Sound/audio", "display_values": ["Sound"]}, {"label": "Colour", "display_values": ["Colour"]}], "stats": {"tap_count": 0}, "links": [], "creators_primary": [], "creators_other": [], "media_note": "Sorry, we don't have images or video for this item.", "holdings": [{"name": "16mm film; Preservation Print (Section 5)", "identifier": "", "description": ""}], "part_of": null, "parts": [], "part_siblings": [], "group": null, "group_works": [], "group_siblings": [], "source": {"name": "Vernon", "slug": "vernon"}, "source_identifier": "163316", "eaas_environment_id": null, "production_places": [{"id": 2, "name": "United States", "slug": "united-states"}], "production_dates": [{"date": "1967", "notes": "", "to_year": "1967"}], "labels": [57002]}]}