{"count": 41724, "next": "https://api.acmi.net.au/works/?page=3459", "previous": "https://api.acmi.net.au/works/?page=3457", "results": [{"id": 61002, "acmi_id": "xos-61002", "title": "Slide 9", "title_annotation": "", "slug": "slide-9", "creator_credit": "", "credit_line": "", "headline_credit": "1908", "video_links": [], "record_type": "work", "type": "Film", "is_on_display": false, "last_on_display_place": null, "last_on_display_date": null, "is_context_indigenous": false, "material_description": "", "unpublished": false, "external": false, "first_production_date": "1908-01-01T10:00:00+10:00", "commissioned": false, "public_domain": false, "external_references": [], "brief_description": "<p>The Pierpont Morgan Library, New York. (edited)</p>", "constellations_primary": [], "constellations_other": [], "recommendations": [], "creator_credit_for_label": "", "headline_credit_for_label": "<p>1908</p>", "title_for_label": "<p>Slide 9</p>", "description": "<p>The Pierpont Morgan Library, New York. (edited)</p>", "description_for_label": ["<p>The Pierpont Morgan Library, New York. (edited)</p>"], "credit_line_for_label": "", "details": [], "stats": {"tap_count": 0}, "links": [], "creators_primary": [], "creators_other": [{"id": 153161, "name": "Sir John Tenniel", "creator_id": 49334, "creator_wikidata_id": null, "role": "creator", "role_id": 968, "is_primary": false}], "media_note": null, "holdings": [], "part_of": null, "parts": [], "part_siblings": [], "group": null, "group_works": [], "group_siblings": [], "source": null, "source_identifier": null, "eaas_environment_id": null, "production_places": [], "production_dates": [{"date": "1908", "notes": "", "to_year": "1908"}], "labels": [57477]}, {"id": 61005, "acmi_id": "xos-61005", "title": "Slide 7", "title_annotation": "", "slug": "slide-7", "creator_credit": "", "credit_line": "<p>Sir John Tenniel</p>", "headline_credit": "1908", "video_links": [], "record_type": "work", "type": "Film", "is_on_display": false, "last_on_display_place": null, "last_on_display_date": null, "is_context_indigenous": false, "material_description": "", "unpublished": false, "external": false, "first_production_date": "1908-01-01T10:00:00+10:00", "commissioned": false, "public_domain": false, "external_references": [], "brief_description": "<p>The Pierpont Morgan Library, New York. (edited)</p>", "constellations_primary": [], "constellations_other": [], "recommendations": [], "creator_credit_for_label": "", "headline_credit_for_label": "<p>1908</p>", "title_for_label": "<p>Slide 7</p>", "description": "<p>The Pierpont Morgan Library, New York. (edited)</p>", "description_for_label": ["<p>The Pierpont Morgan Library, New York. (edited)</p>"], "credit_line_for_label": "<p>Sir John Tenniel</p>", "details": [], "stats": {"tap_count": 6}, "links": [], "creators_primary": [], "creators_other": [{"id": 153164, "name": "Sir John Tenniel", "creator_id": 49334, "creator_wikidata_id": null, "role": "creator", "role_id": 968, "is_primary": false}], "media_note": null, "holdings": [], "part_of": null, "parts": [], "part_siblings": [], "group": null, "group_works": [], "group_siblings": [], "source": null, "source_identifier": null, "eaas_environment_id": null, "production_places": [], "production_dates": [{"date": "1908", "notes": "", "to_year": "1908"}], "labels": [57479]}, {"id": 61001, "acmi_id": "xos-61001", "title": "Slide 5", "title_annotation": "", "slug": "slide-5", "creator_credit": "", "credit_line": "<p>Sir John Tenniel</p>", "headline_credit": "1908", "video_links": [], "record_type": "work", "type": "Film", "is_on_display": false, "last_on_display_place": null, "last_on_display_date": null, "is_context_indigenous": false, "material_description": "", "unpublished": false, "external": false, "first_production_date": "1908-01-01T10:00:00+10:00", "commissioned": false, "public_domain": false, "external_references": [], "brief_description": "<p>The Pierpont Morgan Library, New York. (edited)</p>", "constellations_primary": [], "constellations_other": [], "recommendations": [], "creator_credit_for_label": "", "headline_credit_for_label": "<p>1908</p>", "title_for_label": "<p>Slide 5</p>", "description": "<p>The Pierpont Morgan Library, New York. (edited)</p>", "description_for_label": ["<p>The Pierpont Morgan Library, New York. (edited)</p>"], "credit_line_for_label": "<p>Sir John Tenniel</p>", "details": [], "stats": {"tap_count": 0}, "links": [], "creators_primary": [], "creators_other": [{"id": 153160, "name": "Sir John Tenniel", "creator_id": 49334, "creator_wikidata_id": null, "role": "creator", "role_id": 968, "is_primary": false}], "media_note": null, "holdings": [], "part_of": null, "parts": [], "part_siblings": [], "group": null, "group_works": [], "group_siblings": [], "source": null, "source_identifier": null, "eaas_environment_id": null, "production_places": [], "production_dates": [{"date": "1908", "notes": "", "to_year": "1908"}], "labels": [57478]}, {"id": 61000, "acmi_id": "xos-61000", "title": "Slide 3", "title_annotation": "", "slug": "slide-3", "creator_credit": "", "credit_line": "<p>Sir John Tenniel</p>", "headline_credit": "1908", "video_links": [], "record_type": "work", "type": "Film", "is_on_display": false, "last_on_display_place": null, "last_on_display_date": null, "is_context_indigenous": false, "material_description": "", "unpublished": false, "external": false, "first_production_date": "1908-01-01T10:00:00+10:00", "commissioned": false, "public_domain": false, "external_references": [], "brief_description": "<p>The Pierpont Morgan Library, New York. (edited)</p>", "constellations_primary": [], "constellations_other": [], "recommendations": [], "creator_credit_for_label": "", "headline_credit_for_label": "<p>1908</p>", "title_for_label": "<p>Slide 3</p>", "description": "<p>The Pierpont Morgan Library, New York. (edited)</p>", "description_for_label": ["<p>The Pierpont Morgan Library, New York. (edited)</p>"], "credit_line_for_label": "<p>Sir John Tenniel</p>", "details": [], "stats": {"tap_count": 0}, "links": [], "creators_primary": [], "creators_other": [{"id": 153159, "name": "Sir John Tenniel", "creator_id": 49334, "creator_wikidata_id": null, "role": "creator", "role_id": 968, "is_primary": false}], "media_note": null, "holdings": [], "part_of": null, "parts": [], "part_siblings": [], "group": null, "group_works": [], "group_siblings": [], "source": null, "source_identifier": null, "eaas_environment_id": null, "production_places": [], "production_dates": [{"date": "1908", "notes": "", "to_year": "1908"}], "labels": [57483]}, {"id": 60999, "acmi_id": "xos-60999", "title": "Slide 2", "title_annotation": "", "slug": "slide-2", "creator_credit": "", "credit_line": "<p>Sir John Tenniel</p>", "headline_credit": "1908", "video_links": [], "record_type": "work", "type": "Film", "is_on_display": false, "last_on_display_place": null, "last_on_display_date": null, "is_context_indigenous": false, "material_description": "", "unpublished": false, "external": false, "first_production_date": "1908-01-01T10:00:00+10:00", "commissioned": false, "public_domain": false, "external_references": [], "brief_description": "<p>The Pierpont Morgan Library, New York. (edited)</p>", "constellations_primary": [], "constellations_other": [], "recommendations": [], "creator_credit_for_label": "", "headline_credit_for_label": "<p>1908</p>", "title_for_label": "<p>Slide 2</p>", "description": "<p>The Pierpont Morgan Library, New York. (edited)</p>", "description_for_label": ["<p>The Pierpont Morgan Library, New York. (edited)</p>"], "credit_line_for_label": "<p>Sir John Tenniel</p>", "details": [], "stats": {"tap_count": 0}, "links": [], "creators_primary": [], "creators_other": [{"id": 153158, "name": "Sir John Tenniel", "creator_id": 49334, "creator_wikidata_id": null, "role": "creator", "role_id": 968, "is_primary": false}], "media_note": null, "holdings": [], "part_of": null, "parts": [], "part_siblings": [], "group": null, "group_works": [], "group_siblings": [], "source": null, "source_identifier": null, "eaas_environment_id": null, "production_places": [], "production_dates": [{"date": "1908", "notes": "", "to_year": "1908"}], "labels": [57482]}, {"id": 61004, "acmi_id": "xos-61004", "title": "Slide 19", "title_annotation": "", "slug": "slide-19", "creator_credit": "", "credit_line": "<p>Sir John Tenniel</p>", "headline_credit": "1908", "video_links": [], "record_type": "work", "type": "Film", "is_on_display": false, "last_on_display_place": null, "last_on_display_date": null, "is_context_indigenous": false, "material_description": "", "unpublished": false, "external": false, "first_production_date": "1908-01-01T10:00:00+10:00", "commissioned": false, "public_domain": false, "external_references": [], "brief_description": "<p>The Pierpont Morgan Library, New York. (edited)</p>", "constellations_primary": [], "constellations_other": [], "recommendations": [], "creator_credit_for_label": "", "headline_credit_for_label": "<p>1908</p>", "title_for_label": "<p>Slide 19</p>", "description": "<p>The Pierpont Morgan Library, New York. (edited)</p>", "description_for_label": ["<p>The Pierpont Morgan Library, New York. (edited)</p>"], "credit_line_for_label": "<p>Sir John Tenniel</p>", "details": [], "stats": {"tap_count": 2}, "links": [], "creators_primary": [], "creators_other": [{"id": 153163, "name": "Sir John Tenniel", "creator_id": 49334, "creator_wikidata_id": null, "role": "creator", "role_id": 968, "is_primary": false}], "media_note": null, "holdings": [], "part_of": null, "parts": [], "part_siblings": [], "group": null, "group_works": [], "group_siblings": [], "source": null, "source_identifier": null, "eaas_environment_id": null, "production_places": [], "production_dates": [{"date": "1908", "notes": "", "to_year": "1908"}], "labels": [57481]}, {"id": 61003, "acmi_id": "xos-61003", "title": "Slide 10", "title_annotation": "", "slug": "slide-10", "creator_credit": "", "credit_line": "<p>Sir John Tenniel</p>", "headline_credit": "1908", "video_links": [], "record_type": "work", "type": "Film", "is_on_display": false, "last_on_display_place": null, "last_on_display_date": null, "is_context_indigenous": false, "material_description": "", "unpublished": false, "external": false, "first_production_date": "1908-01-01T10:00:00+10:00", "commissioned": false, "public_domain": false, "external_references": [], "brief_description": "<p>The Pierpont Morgan Library, New York. (edited)</p>", "constellations_primary": [], "constellations_other": [], "recommendations": [], "creator_credit_for_label": "", "headline_credit_for_label": "<p>1908</p>", "title_for_label": "<p>Slide 10</p>", "description": "<p>The Pierpont Morgan Library, New York. (edited)</p>", "description_for_label": ["<p>The Pierpont Morgan Library, New York. (edited)</p>"], "credit_line_for_label": "<p>Sir John Tenniel</p>", "details": [], "stats": {"tap_count": 2}, "links": [], "creators_primary": [], "creators_other": [{"id": 153162, "name": "Sir John Tenniel", "creator_id": 49334, "creator_wikidata_id": null, "role": "creator", "role_id": 968, "is_primary": false}], "media_note": null, "holdings": [], "part_of": null, "parts": [], "part_siblings": [], "group": null, "group_works": [], "group_siblings": [], "source": null, "source_identifier": null, "eaas_environment_id": null, "production_places": [], "production_dates": [{"date": "1908", "notes": "", "to_year": "1908"}], "labels": [57480]}, {"id": 60998, "acmi_id": "xos-60998", "title": "Slide 1", "title_annotation": "", "slug": "slide-1", "creator_credit": "Sir John Tenniel", "credit_line": "<p>Sir John Tenniel</p>", "headline_credit": "1908", "video_links": [], "record_type": "work", "type": "Film", "is_on_display": false, "last_on_display_place": null, "last_on_display_date": null, "is_context_indigenous": false, "material_description": "", "unpublished": false, "external": false, "first_production_date": "1908-01-01T10:00:00+10:00", "commissioned": false, "public_domain": false, "external_references": [], "brief_description": "<p>The Pierpont Morgan Library, New York. (edited)</p>", "constellations_primary": [], "constellations_other": [], "recommendations": [], "creator_credit_for_label": "<p>Sir John Tenniel</p>", "headline_credit_for_label": "<p>1908</p>", "title_for_label": "<p>Slide 1</p>", "description": "<p>The Pierpont Morgan Library, New York. (edited)</p>", "description_for_label": ["<p>The Pierpont Morgan Library, New York. (edited)</p>"], "credit_line_for_label": "<p>Sir John Tenniel</p>", "details": [], "stats": {"tap_count": 8}, "links": [], "creators_primary": [{"id": 153157, "name": "Sir John Tenniel", "creator_id": 49334, "creator_wikidata_id": null, "role": "creator", "role_id": 968, "is_primary": true}], "creators_other": [], "media_note": null, "holdings": [], "part_of": null, "parts": [], "part_siblings": [], "group": null, "group_works": [], "group_siblings": [], "source": null, "source_identifier": null, "eaas_environment_id": null, "production_places": [], "production_dates": [{"date": "1908", "notes": "", "to_year": "1908"}], "labels": [62]}, {"id": 79541, "acmi_id": "300494", "title": "Sleeping beauty", "title_annotation": "", "slug": "sleeping-beauty", "creator_credit": "Clyde Geronimi, Walt Disney and Walt Disney Productions", "credit_line": "", "headline_credit": "United States, 1958", "video_links": [], "record_type": "work", "type": "Film", "is_on_display": false, "last_on_display_place": null, "last_on_display_date": null, "is_context_indigenous": false, "material_description": "", "unpublished": false, "external": false, "first_production_date": "1958-01-01T10:00:00+10:00", "commissioned": false, "public_domain": false, "external_references": [{"id": 44947, "source": {"name": "Wikidata", "slug": "wikidata"}, "source_identifier": "Q215617"}], "brief_description": "<p>Once upon a time, in a kingdom far away, a beautiful princess was born, destined by a terrible curse to be drawn into a spectacular adventure of unparalleled suspense and fantasy. Experience the joy and magic of this thrilling Disney classic. Features the voices of Mary Costa, Bill Shirley, Eleanor Audley, Verna Felton, Barbara Luddy, Bill Thompson.</p>", "constellations_primary": [], "constellations_other": [], "recommendations": [], "creator_credit_for_label": "<p>Clyde Geronimi, Walt Disney and Walt Disney Productions</p>", "headline_credit_for_label": "<p>United States, 1958</p>", "title_for_label": "<p>Sleeping beauty</p>", "description": "<p>Once upon a time, in a kingdom far away, a beautiful princess was born, destined by a terrible curse to be drawn into a spectacular adventure of unparalleled suspense and fantasy. Experience the joy and magic of this thrilling Disney classic. Features the voices of Mary Costa, Bill Shirley, Eleanor Audley, Verna Felton, Barbara Luddy, Bill Thompson.</p>", "description_for_label": ["<p>Once upon a time, in a kingdom far away, a beautiful princess was born, destined by a terrible curse to be drawn into a spectacular adventure of unparalleled suspense and fantasy. Experience the joy and magic of this thrilling Disney classic. Features the voices of Mary Costa, Bill Shirley, Eleanor Audley, Verna Felton, Barbara Luddy, Bill Thompson.</p>"], "credit_line_for_label": "", "details": [{"label": "Duration", "display_values": ["01:17:00:00"]}, {"label": "Language", "display_values": ["English"]}, {"label": "Subject categories", "display_values": ["Adaptations", "Animation", "Animation&nbsp;→ Animated films - United States", "Childrens Films", "Childrens Films&nbsp;→ Children's films - United States", "Literature&nbsp;→ Children's literature - Film and video adaptations", "Literature&nbsp;→ Fairy tales - Film and video adaptations"]}, {"label": "Sound/audio", "display_values": ["Sound"]}, {"label": "Colour", "display_values": ["Colour"]}], "stats": {"tap_count": 0}, "links": [], "creators_primary": [{"id": 865511, "name": "Clyde Geronimi", "creator_id": 72158, "creator_wikidata_id": "Q579241", "role": "director", "role_id": 938, "is_primary": true}, {"id": 1805892, "name": "Walt Disney", "creator_id": 68785, "creator_wikidata_id": "Q8704", "role": "producer", "role_id": 1089, "is_primary": true}, {"id": 865509, "name": "Walt Disney Productions", "creator_id": 72131, "creator_wikidata_id": null, "role": "production company", "role_id": 941, "is_primary": true}], "creators_other": [{"id": 865508, "name": "Video Classroom", "creator_id": 20016, "creator_wikidata_id": null, "role": "distributor", "role_id": 437, "is_primary": false}], "media_note": "Sorry, we don't have images or video for this item.", "holdings": [{"name": "16mm film; Access Print (Section 1)", "identifier": "", "description": ""}], "part_of": null, "parts": [], "part_siblings": [], "group": null, "group_works": [], "group_siblings": [], "source": {"name": "Vernon", "slug": "vernon"}, "source_identifier": "35355", "eaas_environment_id": null, "production_places": [{"id": 2, "name": "United States", "slug": "united-states"}], "production_dates": [{"date": "1958", "notes": "Produced", "to_year": "1958"}], "labels": [19031]}, {"id": 89111, "acmi_id": "311761", "title": "Sleep for health", "title_annotation": "", "slug": "sleep-for-health", "creator_credit": "Encyclopaedia Britannica Films", "credit_line": "", "headline_credit": "United States, 1950", "video_links": [], "record_type": "work", "type": "Film", "is_on_display": false, "last_on_display_place": null, "last_on_display_date": null, "is_context_indigenous": false, "material_description": "", "unpublished": false, "external": false, "first_production_date": "1950-01-01T10:00:00+10:00", "commissioned": false, "public_domain": false, "external_references": [], "brief_description": "<p>Presents the importance of regular sleeping habits from the viewpoint of a child. Shows the child how a regular bed-time which allows for sufficient sleep helps them attain goals which they desire. Emphasises the child&#8217;s own responsibility in the formation of good habits. Considers dreaming as a normal part of sleeping. Illustrates how lack of sleep causes irritability and interferes with the enjoyment of everyday living.</p>", "constellations_primary": [], "constellations_other": [], "recommendations": [], "creator_credit_for_label": "<p>Encyclopaedia Britannica Films</p>", "headline_credit_for_label": "<p>United States, 1950</p>", "title_for_label": "<p>Sleep for health</p>", "description": "<p>Presents the importance of regular sleeping habits from the viewpoint of a child. Shows the child how a regular bed-time which allows for sufficient sleep helps them attain goals which they desire. Emphasises the child&#8217;s own responsibility in the formation of good habits. Considers dreaming as a normal part of sleeping. Illustrates how lack of sleep causes irritability and interferes with the enjoyment of everyday living.</p>", "description_for_label": ["<p>Presents the importance of regular sleeping habits from the viewpoint of a child. Shows the child how a regular bed-time which allows for sufficient sleep helps them attain goals which they desire. Emphasises the child&#8217;s own responsibility in the formation of good habits. Considers dreaming as a normal part of sleeping. Illustrates how lack of sleep causes irritability and interferes with the enjoyment of everyday living.</p>"], "credit_line_for_label": "", "details": [{"label": "Duration", "display_values": ["00:10:37:00"]}, {"label": "Language", "display_values": ["English"]}, {"label": "Subject categories", "display_values": ["Educational & Instructional", "Educational & Instructional&nbsp;→ Educational films", "Educational & Instructional&nbsp;→ Instructional", "Family, Gender Identity, Relationships & Sexuality&nbsp;→ Child development", "Food, Health, Lifestyle, Medicine, Psychology & Safety&nbsp;→ Child development", "Food, Health, Lifestyle, Medicine, Psychology & Safety&nbsp;→ Children - Health and hygiene", "Food, Health, Lifestyle, Medicine, Psychology & Safety&nbsp;→ Children - Sleep", "Food, Health, Lifestyle, Medicine, Psychology & Safety&nbsp;→ Dreams", "Food, Health, Lifestyle, Medicine, Psychology & Safety&nbsp;→ Health education", "Magic, Occult & Supernatural&nbsp;→ Dreams", "Short films", "Short films&nbsp;→ Short films - United States"]}, {"label": "Sound/audio", "display_values": ["Sound"]}, {"label": "Colour", "display_values": ["Black and White"]}], "stats": {"tap_count": 0}, "links": [], "creators_primary": [{"id": 874806, "name": "Encyclopaedia Britannica Films", "creator_id": 12049, "creator_wikidata_id": null, "role": "production company", "role_id": 941, "is_primary": true}], "creators_other": [], "media_note": "Sorry, we don't have images or video for this item.", "holdings": [{"name": "16mm film; Access Print (Section 1)", "identifier": "", "description": ""}], "part_of": null, "parts": [], "part_siblings": [], "group": null, "group_works": [], "group_siblings": [], "source": {"name": "Vernon", "slug": "vernon"}, "source_identifier": "46103", "eaas_environment_id": null, "production_places": [{"id": 2, "name": "United States", "slug": "united-states"}], "production_dates": [{"date": "1950", "notes": "Produced", "to_year": "1950"}], "labels": [28601]}]}