{"count": 41724, "next": "https://api.acmi.net.au/works/?page=3076", "previous": "https://api.acmi.net.au/works/?page=3074", "results": [{"id": 76974, "acmi_id": "323573", "title": "The Great holiday massacre", "title_annotation": "", "slug": "the-great-holiday-massacre", "creator_credit": "Palmer Williams and Carousel Films", "credit_line": "", "headline_credit": "United States, 1951", "video_links": [], "record_type": "work", "type": "Film", "is_on_display": false, "last_on_display_place": null, "last_on_display_date": null, "is_context_indigenous": false, "material_description": "", "unpublished": false, "external": false, "first_production_date": "1951-01-01T10:00:00+10:00", "commissioned": false, "public_domain": false, "external_references": [], "brief_description": "<p>Survey of the causes and possible &#8216;Cures&#8221; of the gigantic traffic accident problem. Factors include high blood alcohol content; discourtesy; inexperience in younger drivers; disobedience of the law; carelessness; and speed. Illustrates these factors, explains self-inflicted deaths, and pin-points danger spots. Includes problems of convicting drunk drivers; improving care and road safety and suggests partial solutions.</p>", "constellations_primary": [], "constellations_other": [], "recommendations": [], "creator_credit_for_label": "<p>Palmer Williams and Carousel Films</p>", "headline_credit_for_label": "<p>United States, 1951</p>", "title_for_label": "<p>The Great holiday massacre</p>", "description": "<p>Survey of the causes and possible &#8216;Cures&#8221; of the gigantic traffic accident problem. Factors include high blood alcohol content; discourtesy; inexperience in younger drivers; disobedience of the law; carelessness; and speed. Illustrates these factors, explains self-inflicted deaths, and pin-points danger spots. Includes problems of convicting drunk drivers; improving care and road safety and suggests partial solutions.</p>", "description_for_label": ["<p>Survey of the causes and possible &#8216;Cures&#8221; of the gigantic traffic accident problem. Factors include high blood alcohol content; discourtesy; inexperience in younger drivers; disobedience of the law; carelessness; and speed. Illustrates these factors, explains self-inflicted deaths, and pin-points danger spots. Includes problems of convicting drunk drivers; improving care and road safety and suggests partial solutions.</p>"], "credit_line_for_label": "", "details": [{"label": "Duration", "display_values": ["00:51:40:00"]}, {"label": "Language", "display_values": ["English"]}, {"label": "Subject categories", "display_values": ["Communications, Infrastructure, & Transport&nbsp;→ Automobile driving", "Communications, Infrastructure, & Transport&nbsp;→ Automobiles - Safety measures", "Communications, Infrastructure, & Transport&nbsp;→ Drinking and traffic accidents", "Communications, Infrastructure, & Transport&nbsp;→ Traffic accidents", "Communications, Infrastructure, & Transport&nbsp;→ Traffic accidents - Prevention", "Communications, Infrastructure, & Transport&nbsp;→ Traffic safety", "Crime, Espionage, Justice, Police & Prisons&nbsp;→ Drinking and traffic accidents", "Education, Instruction, Teaching & Schools&nbsp;→ Automobile driver education", "Food, Health, Lifestyle, Medicine, Psychology & Safety&nbsp;→ Accidents", "Food, Health, Lifestyle, Medicine, Psychology & Safety&nbsp;→ Accidents - Prevention", "Food, Health, Lifestyle, Medicine, Psychology & Safety&nbsp;→ Drinking and traffic accidents", "Food, Health, Lifestyle, Medicine, Psychology & Safety&nbsp;→ Traffic accidents - Prevention", "Food, Health, Lifestyle, Medicine, Psychology & Safety&nbsp;→ Traffic safety", "Short films", "Short films&nbsp;→ Short films - United States"]}, {"label": "Sound/audio", "display_values": ["Sound"]}, {"label": "Colour", "display_values": ["Black and White"]}], "stats": {"tap_count": 0}, "links": [], "creators_primary": [{"id": 1882297, "name": "Palmer Williams", "creator_id": 14582, "creator_wikidata_id": null, "role": "producer", "role_id": 1089, "is_primary": true}, {"id": 1882296, "name": "Carousel Films", "creator_id": 13188, "creator_wikidata_id": "Q121034348", "role": "production company", "role_id": 941, "is_primary": true}], "creators_other": [], "media_note": "Sorry, we don't have images or video for this item.", "holdings": [{"name": "16mm film; Access Print (Section 1)", "identifier": "", "description": ""}], "part_of": null, "parts": [], "part_siblings": [], "group": null, "group_works": [], "group_siblings": [], "source": {"name": "Vernon", "slug": "vernon"}, "source_identifier": "32747", "eaas_environment_id": null, "production_places": [{"id": 2, "name": "United States", "slug": "united-states"}], "production_dates": [{"date": "1951", "notes": "Produced", "to_year": "1951"}], "labels": [16464]}, {"id": 118558, "acmi_id": "R0001179", "title": "[Jude : publicity kit]", "title_annotation": "", "slug": "jude-publicity-kit", "creator_credit": "", "credit_line": "", "headline_credit": "", "video_links": [], "record_type": "work", "type": "Object", "is_on_display": false, "last_on_display_place": null, "last_on_display_date": null, "is_context_indigenous": false, "material_description": "", "unpublished": false, "external": false, "first_production_date": null, "commissioned": false, "public_domain": false, "external_references": [], "brief_description": "<p>Publicity kit for the production Jude (1996), including 1 35mm Colour Transparency, 2 Press Kit/ Reviews, 1 Promo Flyer</p>", "constellations_primary": [], "constellations_other": [], "recommendations": [], "creator_credit_for_label": "", "headline_credit_for_label": "", "title_for_label": "<p>[Jude : publicity kit]</p>", "description": "<p>Publicity kit for the production Jude (1996), including 1 35mm Colour Transparency, 2 Press Kit/ Reviews, 1 Promo Flyer</p>", "description_for_label": ["<p>Publicity kit for the production Jude (1996), including 1 35mm Colour Transparency, 2 Press Kit/ Reviews, 1 Promo Flyer</p>"], "credit_line_for_label": "", "details": [{"label": "Subject category", "display_values": ["Documentation"]}, {"label": "Object Types", "display_values": ["Publicity kit"]}], "stats": {"tap_count": 0}, "links": [], "creators_primary": [], "creators_other": [], "media_note": null, "holdings": [], "part_of": null, "parts": [], "part_siblings": [], "group": null, "group_works": [], "group_siblings": [], "source": {"name": "Vernon", "slug": "vernon"}, "source_identifier": "149151", "eaas_environment_id": null, "production_places": [], "production_dates": [], "labels": [58053]}, {"id": 118555, "acmi_id": "R0001176", "title": "[The Irishman : publicity kit]", "title_annotation": "", "slug": "the-irishman-publicity-kit", "creator_credit": "", "credit_line": "", "headline_credit": "", "video_links": [], "record_type": "work", "type": "Object", "is_on_display": false, "last_on_display_place": null, "last_on_display_date": null, "is_context_indigenous": false, "material_description": "", "unpublished": false, "external": false, "first_production_date": null, "commissioned": false, "public_domain": false, "external_references": [], "brief_description": "<p>Publicity kit for the production The Irishman (1978), including 21 B&amp;W Stills (Large), 1 Colour Still (Large), 10 Colour Transparencies (Large)</p>", "constellations_primary": [], "constellations_other": [], "recommendations": [], "creator_credit_for_label": "", "headline_credit_for_label": "", "title_for_label": "<p>[The Irishman : publicity kit]</p>", "description": "<p>Publicity kit for the production The Irishman (1978), including 21 B&amp;W Stills (Large), 1 Colour Still (Large), 10 Colour Transparencies (Large)</p>", "description_for_label": ["<p>Publicity kit for the production The Irishman (1978), including 21 B&amp;W Stills (Large), 1 Colour Still (Large), 10 Colour Transparencies (Large)</p>"], "credit_line_for_label": "", "details": [{"label": "Subject category", "display_values": ["Documentation"]}, {"label": "Object Types", "display_values": ["Publicity kit"]}], "stats": {"tap_count": 1}, "links": [], "creators_primary": [], "creators_other": [], "media_note": null, "holdings": [], "part_of": null, "parts": [], "part_siblings": [], "group": null, "group_works": [], "group_siblings": [], "source": {"name": "Vernon", "slug": "vernon"}, "source_identifier": "149148", "eaas_environment_id": null, "production_places": [], "production_dates": [], "labels": [58050]}, {"id": 118554, "acmi_id": "R0001175", "title": "[I.Q : publicity kit]", "title_annotation": "", "slug": "iq-publicity-kit", "creator_credit": "", "credit_line": "", "headline_credit": "", "video_links": [], "record_type": "work", "type": "Object", "is_on_display": false, "last_on_display_place": null, "last_on_display_date": null, "is_context_indigenous": false, "material_description": "", "unpublished": false, "external": false, "first_production_date": null, "commissioned": false, "public_domain": false, "external_references": [], "brief_description": "<p>Publicity kit for the production I.Q (1994), including 3 B&amp;W Stills (Large), 1 Press Kit/ Review, 1 Promo flyer</p>", "constellations_primary": [], "constellations_other": [], "recommendations": [], "creator_credit_for_label": "", "headline_credit_for_label": "", "title_for_label": "<p>[I.Q : publicity kit]</p>", "description": "<p>Publicity kit for the production I.Q (1994), including 3 B&amp;W Stills (Large), 1 Press Kit/ Review, 1 Promo flyer</p>", "description_for_label": ["<p>Publicity kit for the production I.Q (1994), including 3 B&amp;W Stills (Large), 1 Press Kit/ Review, 1 Promo flyer</p>"], "credit_line_for_label": "", "details": [{"label": "Subject category", "display_values": ["Documentation"]}, {"label": "Object Types", "display_values": ["Publicity kit"]}], "stats": {"tap_count": 0}, "links": [], "creators_primary": [], "creators_other": [], "media_note": null, "holdings": [], "part_of": null, "parts": [], "part_siblings": [], "group": null, "group_works": [], "group_siblings": [], "source": {"name": "Vernon", "slug": "vernon"}, "source_identifier": "149147", "eaas_environment_id": null, "production_places": [], "production_dates": [], "labels": [58049]}, {"id": 118553, "acmi_id": "R0001174", "title": "[The Interview : publicity kit]", "title_annotation": "", "slug": "the-interview-publicity-kit", "creator_credit": "", "credit_line": "", "headline_credit": "", "video_links": [], "record_type": "work", "type": "Object", "is_on_display": false, "last_on_display_place": null, "last_on_display_date": null, "is_context_indigenous": false, "material_description": "", "unpublished": false, "external": false, "first_production_date": null, "commissioned": false, "public_domain": false, "external_references": [], "brief_description": "<p>Publicity kit for the production The Interview (1998), including 1 B&amp;W Still (Large), 9 35mm Colour Transparencies, 1 Press Kit/ Review</p>", "constellations_primary": [], "constellations_other": [], "recommendations": [], "creator_credit_for_label": "", "headline_credit_for_label": "", "title_for_label": "<p>[The Interview : publicity kit]</p>", "description": "<p>Publicity kit for the production The Interview (1998), including 1 B&amp;W Still (Large), 9 35mm Colour Transparencies, 1 Press Kit/ Review</p>", "description_for_label": ["<p>Publicity kit for the production The Interview (1998), including 1 B&amp;W Still (Large), 9 35mm Colour Transparencies, 1 Press Kit/ Review</p>"], "credit_line_for_label": "", "details": [{"label": "Subject category", "display_values": ["Documentation"]}, {"label": "Object Types", "display_values": ["Publicity kit"]}], "stats": {"tap_count": 4}, "links": [], "creators_primary": [], "creators_other": [], "media_note": null, "holdings": [], "part_of": null, "parts": [], "part_siblings": [], "group": null, "group_works": [], "group_siblings": [], "source": {"name": "Vernon", "slug": "vernon"}, "source_identifier": "149146", "eaas_environment_id": null, "production_places": [], "production_dates": [], "labels": [58048]}, {"id": 118552, "acmi_id": "R0001173", "title": "[An Indecent obsession : publicity kit]", "title_annotation": "", "slug": "an-indecent-obsession-publicity-kit", "creator_credit": "", "credit_line": "", "headline_credit": "", "video_links": [], "record_type": "work", "type": "Object", "is_on_display": false, "last_on_display_place": null, "last_on_display_date": null, "is_context_indigenous": false, "material_description": "", "unpublished": false, "external": false, "first_production_date": null, "commissioned": false, "public_domain": false, "external_references": [], "brief_description": "<p>Publicity kit for the production An Indecent Obsession (1985), including 4 B&amp;W Stills (Large), 1 Press Kit/ Review, 1 Promo Flyer</p>", "constellations_primary": [], "constellations_other": [], "recommendations": [], "creator_credit_for_label": "", "headline_credit_for_label": "", "title_for_label": "<p>[An Indecent obsession : publicity kit]</p>", "description": "<p>Publicity kit for the production An Indecent Obsession (1985), including 4 B&amp;W Stills (Large), 1 Press Kit/ Review, 1 Promo Flyer</p>", "description_for_label": ["<p>Publicity kit for the production An Indecent Obsession (1985), including 4 B&amp;W Stills (Large), 1 Press Kit/ Review, 1 Promo Flyer</p>"], "credit_line_for_label": "", "details": [{"label": "Subject category", "display_values": ["Documentation"]}, {"label": "Object Types", "display_values": ["Publicity kit"]}], "stats": {"tap_count": 0}, "links": [], "creators_primary": [], "creators_other": [], "media_note": null, "holdings": [], "part_of": null, "parts": [], "part_siblings": [], "group": null, "group_works": [], "group_siblings": [], "source": {"name": "Vernon", "slug": "vernon"}, "source_identifier": "149145", "eaas_environment_id": null, "production_places": [], "production_dates": [], "labels": [58047]}, {"id": 118550, "acmi_id": "R0001171", "title": "[Hoodwink : publicity kit]", "title_annotation": "", "slug": "hoodwink-publicity-kit", "creator_credit": "", "credit_line": "", "headline_credit": "", "video_links": [], "record_type": "work", "type": "Object", "is_on_display": false, "last_on_display_place": null, "last_on_display_date": null, "is_context_indigenous": false, "material_description": "", "unpublished": false, "external": false, "first_production_date": null, "commissioned": false, "public_domain": false, "external_references": [], "brief_description": "<p>Publicity kit for the production Hoodwink (1981), including 11 B&amp;W Stills (Large), 3 35mm Colour Transparencies, 6 Colour Transparencies (Large)</p>", "constellations_primary": [], "constellations_other": [], "recommendations": [], "creator_credit_for_label": "", "headline_credit_for_label": "", "title_for_label": "<p>[Hoodwink : publicity kit]</p>", "description": "<p>Publicity kit for the production Hoodwink (1981), including 11 B&amp;W Stills (Large), 3 35mm Colour Transparencies, 6 Colour Transparencies (Large)</p>", "description_for_label": ["<p>Publicity kit for the production Hoodwink (1981), including 11 B&amp;W Stills (Large), 3 35mm Colour Transparencies, 6 Colour Transparencies (Large)</p>"], "credit_line_for_label": "", "details": [{"label": "Subject category", "display_values": ["Documentation"]}, {"label": "Object Types", "display_values": ["Publicity kit"]}], "stats": {"tap_count": 1}, "links": [], "creators_primary": [], "creators_other": [], "media_note": null, "holdings": [], "part_of": null, "parts": [], "part_siblings": [], "group": null, "group_works": [], "group_siblings": [], "source": {"name": "Vernon", "slug": "vernon"}, "source_identifier": "149143", "eaas_environment_id": null, "production_places": [], "production_dates": [], "labels": [58045]}, {"id": 118547, "acmi_id": "R0001167", "title": "[High tide : publicity kit]", "title_annotation": "", "slug": "high-tide-publicity-kit", "creator_credit": "", "credit_line": "", "headline_credit": "", "video_links": [], "record_type": "work", "type": "Object", "is_on_display": false, "last_on_display_place": null, "last_on_display_date": null, "is_context_indigenous": false, "material_description": "", "unpublished": false, "external": false, "first_production_date": null, "commissioned": false, "public_domain": false, "external_references": [], "brief_description": "<p>Publicity kit for the production High Tide (1987), including 3 B&amp;W Stills (Large), 1 B&amp;W Transparency (Large), 1 Cast list</p>", "constellations_primary": [], "constellations_other": [], "recommendations": [], "creator_credit_for_label": "", "headline_credit_for_label": "", "title_for_label": "<p>[High tide : publicity kit]</p>", "description": "<p>Publicity kit for the production High Tide (1987), including 3 B&amp;W Stills (Large), 1 B&amp;W Transparency (Large), 1 Cast list</p>", "description_for_label": ["<p>Publicity kit for the production High Tide (1987), including 3 B&amp;W Stills (Large), 1 B&amp;W Transparency (Large), 1 Cast list</p>"], "credit_line_for_label": "", "details": [{"label": "Subject category", "display_values": ["Documentation"]}, {"label": "Object Types", "display_values": ["Publicity kit"]}], "stats": {"tap_count": 0}, "links": [], "creators_primary": [], "creators_other": [], "media_note": null, "holdings": [], "part_of": null, "parts": [], "part_siblings": [], "group": null, "group_works": [], "group_siblings": [], "source": {"name": "Vernon", "slug": "vernon"}, "source_identifier": "149139", "eaas_environment_id": null, "production_places": [], "production_dates": [], "labels": [58042]}, {"id": 118546, "acmi_id": "R0001166", "title": "[High rolling = High rolling in a hot corvette : publicity kit]", "title_annotation": "", "slug": "high-rolling-high-rolling-in-a-hot-corvette-publicity-kit", "creator_credit": "", "credit_line": "", "headline_credit": "", "video_links": [], "record_type": "work", "type": "Object", "is_on_display": false, "last_on_display_place": null, "last_on_display_date": null, "is_context_indigenous": false, "material_description": "", "unpublished": false, "external": false, "first_production_date": null, "commissioned": false, "public_domain": false, "external_references": [], "brief_description": "<p>Publicity kit for the production High Rolling (1977), including 9 B&amp;W Stills (Large), 1 Press Kit/ Review</p>", "constellations_primary": [], "constellations_other": [], "recommendations": [], "creator_credit_for_label": "", "headline_credit_for_label": "", "title_for_label": "<p>[High rolling = High rolling in a hot corvette : publicity kit]</p>", "description": "<p>Publicity kit for the production High Rolling (1977), including 9 B&amp;W Stills (Large), 1 Press Kit/ Review</p>", "description_for_label": ["<p>Publicity kit for the production High Rolling (1977), including 9 B&amp;W Stills (Large), 1 Press Kit/ Review</p>"], "credit_line_for_label": "", "details": [{"label": "Subject category", "display_values": ["Documentation"]}, {"label": "Object Types", "display_values": ["Publicity kit"]}], "stats": {"tap_count": 0}, "links": [], "creators_primary": [], "creators_other": [], "media_note": null, "holdings": [], "part_of": null, "parts": [], "part_siblings": [], "group": null, "group_works": [], "group_siblings": [], "source": {"name": "Vernon", "slug": "vernon"}, "source_identifier": "149138", "eaas_environment_id": null, "production_places": [], "production_dates": [], "labels": [58041]}, {"id": 91159, "acmi_id": "314243", "title": "The Magic pudding", "title_annotation": "", "slug": "the-magic-pudding", "creator_credit": "Ed Trost, Gerry Travers and Energee Entertainment", "credit_line": "", "headline_credit": "Australia, 2000", "video_links": [], "record_type": "work", "type": "Film", "is_on_display": false, "last_on_display_place": null, "last_on_display_date": null, "is_context_indigenous": false, "material_description": "", "unpublished": false, "external": false, "first_production_date": "2000-01-01T11:00:00+11:00", "commissioned": false, "public_domain": false, "external_references": [{"id": 52877, "source": {"name": "Wikidata", "slug": "wikidata"}, "source_identifier": "Q15650834"}], "brief_description": "<p>This is a magical animated version of the classic Australian children&#8217;s novel by Norman Lindsay. Featuring the vocal talents of John Cleese, Sam Neill, Geoffrey Rush, Hugo Weaving, Jack Thompson, Toni Collette and Mary Coustas, the film cannot fail to delight children of all ages. Come join Albert the Magic Pudding, Bunyip Bluegum, Bill Barnacle and Sam Sawnoff as they fight off the attempts of pudding thieves Possum and Wombat (directed from a distance by Buncle), and try valiantly to solve the mystery of the disappearance of Bunyip&#8217;s parents.</p>", "constellations_primary": [], "constellations_other": [], "recommendations": [], "creator_credit_for_label": "<p>Ed Trost, Gerry Travers and Energee Entertainment</p>", "headline_credit_for_label": "<p>Australia, 2000</p>", "title_for_label": "<p>The Magic pudding</p>", "description": "<p>This is a magical animated version of the classic Australian children&#8217;s novel by Norman Lindsay. Featuring the vocal talents of John Cleese, Sam Neill, Geoffrey Rush, Hugo Weaving, Jack Thompson, Toni Collette and Mary Coustas, the film cannot fail to delight children of all ages. Come join Albert the Magic Pudding, Bunyip Bluegum, Bill Barnacle and Sam Sawnoff as they fight off the attempts of pudding thieves Possum and Wombat (directed from a distance by Buncle), and try valiantly to solve the mystery of the disappearance of Bunyip&#8217;s parents.</p>", "description_for_label": ["<p>This is a magical animated version of the classic Australian children&#8217;s novel by Norman Lindsay. Featuring the vocal talents of John Cleese, Sam Neill, Geoffrey Rush, Hugo Weaving, Jack Thompson, Toni Collette and Mary Coustas, the film cannot fail to delight children of all ages. Come join Albert the Magic Pudding, Bunyip Bluegum, Bill Barnacle and Sam Sawnoff as they fight off the attempts of pudding thieves Possum and Wombat (directed from a distance by Buncle), and try valiantly to solve the mystery of the disappearance of Bunyip&#8217;s parents.</p>"], "credit_line_for_label": "", "details": [{"label": "Duration", "display_values": ["01:15:00:00"]}, {"label": "Language", "display_values": ["English"]}, {"label": "Audience classification", "display_values": ["G"]}, {"label": "Subject categories", "display_values": ["Adaptations", "Animation", "Animation&nbsp;→ Animated films - Australia", "Childrens Films", "Childrens Films&nbsp;→ Children 6-12", "Childrens Films&nbsp;→ Children's films - Australia", "Feature films", "Feature films&nbsp;→ Feature films - Australia", "Literature&nbsp;→ Australian literature - Film and video adaptations"]}, {"label": "Sound/audio", "display_values": ["Sound"]}, {"label": "Colour", "display_values": ["Colour"]}], "stats": {"tap_count": 0}, "links": [], "creators_primary": [{"id": 1880190, "name": "Ed Trost", "creator_id": 86907, "creator_wikidata_id": "Q121079144", "role": "producer", "role_id": 1089, "is_primary": true}, {"id": 1880197, "name": "Gerry Travers", "creator_id": 86900, "creator_wikidata_id": "Q121144246", "role": "producer", "role_id": 1089, "is_primary": true}, {"id": 1880189, "name": "Energee Entertainment", "creator_id": 28223, "creator_wikidata_id": "Q119082542", "role": "production company", "role_id": 941, "is_primary": true}], "creators_other": [{"id": 1880188, "name": "Video Bookshelf", "creator_id": 73358, "creator_wikidata_id": null, "role": "distributor", "role_id": 437, "is_primary": false}, {"id": 1880198, "name": "Kylie Andrews", "creator_id": 32740, "creator_wikidata_id": null, "role": "production manager", "role_id": 934, "is_primary": false}, {"id": 1880194, "name": "Geoffrey Rush", "creator_id": 79511, "creator_wikidata_id": "Q166272", "role": "voice", "role_id": 471, "is_primary": false}, {"id": 1880192, "name": "Hugo Weaving", "creator_id": 73711, "creator_wikidata_id": "Q42204", "role": "voice", "role_id": 471, "is_primary": false}, {"id": 1880195, "name": "Jack Thompson", "creator_id": 72924, "creator_wikidata_id": "Q356383", "role": "voice", "role_id": 471, "is_primary": false}, {"id": 1880193, "name": "John Cleese", "creator_id": 79510, "creator_wikidata_id": "Q25014", "role": "voice", "role_id": 471, "is_primary": false}, {"id": 1880191, "name": "Sam Neill", "creator_id": 74204, "creator_wikidata_id": "Q214309", "role": "voice", "role_id": 471, "is_primary": false}, {"id": 1880196, "name": "Toni Collette", "creator_id": 79512, "creator_wikidata_id": "Q229291", "role": "voice", "role_id": 471, "is_primary": false}], "media_note": null, "holdings": [{"name": "VHS; Access Print (Section 1)", "identifier": "", "description": ""}], "part_of": null, "parts": [], "part_siblings": [], "group": null, "group_works": [], "group_siblings": [], "source": {"name": "Vernon", "slug": "vernon"}, "source_identifier": "48495", "eaas_environment_id": null, "production_places": [{"id": 3, "name": "Australia", "slug": "australia"}], "production_dates": [{"date": "2000", "notes": "Copyrighted", "to_year": "2000"}], "labels": [30649]}]}