{"count": 41723, "next": "https://api.acmi.net.au/works/?page=1383", "previous": "https://api.acmi.net.au/works/?page=1381", "results": [{"id": 109314, "acmi_id": "B1006372", "title": "Fusion test (Content for testing use only)", "title_annotation": "", "slug": "fusion-test-content-for-testing-use-only", "creator_credit": "", "credit_line": "", "headline_credit": "", "video_links": [], "record_type": "work", "type": "Film", "is_on_display": false, "last_on_display_place": null, "last_on_display_date": null, "is_context_indigenous": false, "material_description": "", "unpublished": false, "external": false, "first_production_date": null, "commissioned": false, "public_domain": false, "external_references": [], "brief_description": "", "constellations_primary": [], "constellations_other": [], "recommendations": [], "title_for_label": "<p>Fusion test (Content for testing use only)</p>", "creator_credit_for_label": "", "headline_credit_for_label": "", "description": "", "description_for_label": [], "credit_line_for_label": "", "details": [], "stats": {"tap_count": 0}, "links": [], "creators_primary": [], "creators_other": [], "media_note": "Sorry, we don't have images or video for this item.", "holdings": [{"name": "DVD [PAL]; Copy", "identifier": "", "description": ""}], "part_of": null, "parts": [], "part_siblings": [], "group": null, "group_works": [], "group_siblings": [], "source": {"name": "Vernon", "slug": "vernon"}, "source_identifier": "2931", "eaas_environment_id": null, "production_places": [], "production_dates": [], "labels": [48807]}, {"id": 109313, "acmi_id": "B1006371", "title": "Arts 21 demo. ACMI an initiative of the State Film Centre", "title_annotation": "", "slug": "arts-21-demo-acmi-an-initiative-of-the-state-film-centre", "creator_credit": "", "credit_line": "", "headline_credit": "", "video_links": [], "record_type": "work", "type": "Film", "is_on_display": false, "last_on_display_place": null, "last_on_display_date": null, "is_context_indigenous": false, "material_description": "", "unpublished": false, "external": false, "first_production_date": null, "commissioned": false, "public_domain": false, "external_references": [], "brief_description": "", "constellations_primary": [], "constellations_other": [], "recommendations": [], "title_for_label": "<p>Arts 21 demo. ACMI an initiative of the State Film Centre</p>", "creator_credit_for_label": "", "headline_credit_for_label": "", "description": "", "description_for_label": [], "credit_line_for_label": "", "details": [], "stats": {"tap_count": 0}, "links": [], "creators_primary": [], "creators_other": [], "media_note": "Sorry, we don't have images or video for this item.", "holdings": [{"name": "VHS [PAL]; Copy", "identifier": "", "description": ""}], "part_of": null, "parts": [], "part_siblings": [], "group": null, "group_works": [], "group_siblings": [], "source": {"name": "Vernon", "slug": "vernon"}, "source_identifier": "2930", "eaas_environment_id": null, "production_places": [], "production_dates": [], "labels": [48806]}, {"id": 109312, "acmi_id": "B1006370", "title": "Cinemedia report by Drome", "title_annotation": "", "slug": "cinemedia-report-by-drome", "creator_credit": "", "credit_line": "", "headline_credit": "", "video_links": [], "record_type": "work", "type": "Film", "is_on_display": false, "last_on_display_place": null, "last_on_display_date": null, "is_context_indigenous": false, "material_description": "", "unpublished": false, "external": false, "first_production_date": null, "commissioned": false, "public_domain": false, "external_references": [], "brief_description": "", "constellations_primary": [], "constellations_other": [], "recommendations": [], "title_for_label": "<p>Cinemedia report by Drome</p>", "creator_credit_for_label": "", "headline_credit_for_label": "", "description": "", "description_for_label": [], "credit_line_for_label": "", "details": [], "stats": {"tap_count": 0}, "links": [], "creators_primary": [], "creators_other": [], "media_note": "Sorry, we don't have images or video for this item.", "holdings": [{"name": "Zip Disk; Documentation", "identifier": "", "description": ""}], "part_of": null, "parts": [], "part_siblings": [], "group": null, "group_works": [], "group_siblings": [], "source": {"name": "Vernon", "slug": "vernon"}, "source_identifier": "2929", "eaas_environment_id": null, "production_places": [], "production_dates": [], "labels": [48805]}, {"id": 109310, "acmi_id": "B1006307", "title": "ACMI Presentation: Matthew Schreiber (11-10-2002)", "title_annotation": "", "slug": "acmi-presentation-matthew-schreiber-11-10-2002", "creator_credit": "", "credit_line": "", "headline_credit": "", "video_links": [], "record_type": "work", "type": "Film", "is_on_display": false, "last_on_display_place": null, "last_on_display_date": null, "is_context_indigenous": false, "material_description": "", "unpublished": false, "external": false, "first_production_date": null, "commissioned": false, "public_domain": false, "external_references": [], "brief_description": "", "constellations_primary": [], "constellations_other": [], "recommendations": [], "title_for_label": "<p>ACMI Presentation: Matthew Schreiber (11-10-2002)</p>", "creator_credit_for_label": "", "headline_credit_for_label": "", "description": "", "description_for_label": [], "credit_line_for_label": "", "details": [], "stats": {"tap_count": 0}, "links": [], "creators_primary": [], "creators_other": [], "media_note": "Sorry, we don't have images or video for this item.", "holdings": [{"name": "VHS; Master", "identifier": "", "description": ""}], "part_of": null, "parts": [], "part_siblings": [], "group": null, "group_works": [], "group_siblings": [], "source": {"name": "Vernon", "slug": "vernon"}, "source_identifier": "2905", "eaas_environment_id": null, "production_places": [], "production_dates": [], "labels": [48803]}, {"id": 109309, "acmi_id": "B1006306", "title": "Cinemedia logos", "title_annotation": "", "slug": "cinemedia-logos", "creator_credit": "", "credit_line": "", "headline_credit": "", "video_links": [], "record_type": "work", "type": "Film", "is_on_display": false, "last_on_display_place": null, "last_on_display_date": null, "is_context_indigenous": false, "material_description": "", "unpublished": false, "external": false, "first_production_date": null, "commissioned": false, "public_domain": false, "external_references": [], "brief_description": "", "constellations_primary": [], "constellations_other": [], "recommendations": [], "title_for_label": "<p>Cinemedia logos</p>", "creator_credit_for_label": "", "headline_credit_for_label": "", "description": "", "description_for_label": [], "credit_line_for_label": "", "details": [], "stats": {"tap_count": 0}, "links": [], "creators_primary": [], "creators_other": [], "media_note": "Sorry, we don't have images or video for this item.", "holdings": [{"name": "SP Betacam; Sub-master", "identifier": "", "description": ""}, {"name": "VHS; Copy", "identifier": "", "description": ""}, {"name": "SP Betacam; Master", "identifier": "", "description": ""}], "part_of": null, "parts": [], "part_siblings": [], "group": null, "group_works": [], "group_siblings": [], "source": {"name": "Vernon", "slug": "vernon"}, "source_identifier": "2904", "eaas_environment_id": null, "production_places": [], "production_dates": [], "labels": [48802]}, {"id": 109308, "acmi_id": "B1006304", "title": "SWIFT website (22-05-2000)", "title_annotation": "", "slug": "swift-website-22-05-2000", "creator_credit": "", "credit_line": "", "headline_credit": "", "video_links": [], "record_type": "work", "type": "Film", "is_on_display": false, "last_on_display_place": null, "last_on_display_date": null, "is_context_indigenous": false, "material_description": "", "unpublished": false, "external": false, "first_production_date": null, "commissioned": false, "public_domain": false, "external_references": [], "brief_description": "<p>1998 Project description: Cinemedia is currently developing a tailored solution for the storage and delivery of film and video titles in a digital environment. When SWIFT is operational, it will be used to provide online delivery of Cinemedia&#8217;s screen culture programs. It will also offer commercial digital management and delivery services to owners and users of audio-visual material.</p>", "constellations_primary": [], "constellations_other": [], "recommendations": [], "title_for_label": "<p>SWIFT website (22-05-2000)</p>", "creator_credit_for_label": "", "headline_credit_for_label": "", "description": "<p>1998 Project description: Cinemedia is currently developing a tailored solution for the storage and delivery of film and video titles in a digital environment. When SWIFT is operational, it will be used to provide online delivery of Cinemedia&#8217;s screen culture programs. It will also offer commercial digital management and delivery services to owners and users of audio-visual material.</p>", "description_for_label": ["<p>1998 Project description: Cinemedia is currently developing a tailored solution for the storage and delivery of film and video titles in a digital environment. When SWIFT is operational, it will be used to provide online delivery of Cinemedia&#8217;s screen culture programs. It will also offer commercial digital management and delivery services to owners and users of audio-visual material.</p>"], "credit_line_for_label": "", "details": [], "stats": {"tap_count": 0}, "links": [], "creators_primary": [], "creators_other": [], "media_note": "Sorry, we don't have images or video for this item.", "holdings": [{"name": "CD ROM; Copy", "identifier": "", "description": ""}], "part_of": null, "parts": [], "part_siblings": [], "group": null, "group_works": [], "group_siblings": [], "source": {"name": "Vernon", "slug": "vernon"}, "source_identifier": "2903", "eaas_environment_id": null, "production_places": [], "production_dates": [], "labels": [48801]}, {"id": 109301, "acmi_id": "B1006294", "title": "ACMI Trailer Federation Sqaure (15/8/01)", "title_annotation": "", "slug": "acmi-trailer-federation-sqaure-15801", "creator_credit": "", "credit_line": "", "headline_credit": "", "video_links": [], "record_type": "work", "type": "Film", "is_on_display": false, "last_on_display_place": null, "last_on_display_date": null, "is_context_indigenous": false, "material_description": "", "unpublished": false, "external": false, "first_production_date": null, "commissioned": false, "public_domain": false, "external_references": [], "brief_description": "", "constellations_primary": [], "constellations_other": [], "recommendations": [], "title_for_label": "<p>ACMI Trailer Federation Sqaure (15/8/01)</p>", "creator_credit_for_label": "", "headline_credit_for_label": "", "description": "", "description_for_label": [], "credit_line_for_label": "", "details": [], "stats": {"tap_count": 0}, "links": [], "creators_primary": [], "creators_other": [], "media_note": "Sorry, we don't have images or video for this item.", "holdings": [{"name": "Digital Betacam; Master", "identifier": "", "description": ""}, {"name": "VHS [PAL]; Copy", "identifier": "", "description": ""}], "part_of": null, "parts": [], "part_siblings": [], "group": null, "group_works": [], "group_siblings": [], "source": {"name": "Vernon", "slug": "vernon"}, "source_identifier": "2894", "eaas_environment_id": null, "production_places": [], "production_dates": [], "labels": [48794]}, {"id": 109300, "acmi_id": "B1006291", "title": "ACMI showcase (Left, Centre & Right screens) - PIVOD", "title_annotation": "", "slug": "acmi-showcase-left-centre-right-screens-pivod", "creator_credit": "", "credit_line": "", "headline_credit": "", "video_links": [], "record_type": "work", "type": "Film", "is_on_display": false, "last_on_display_place": null, "last_on_display_date": null, "is_context_indigenous": false, "material_description": "", "unpublished": false, "external": false, "first_production_date": null, "commissioned": false, "public_domain": false, "external_references": [], "brief_description": "", "constellations_primary": [], "constellations_other": [], "recommendations": [], "title_for_label": "<p>ACMI showcase (Left, Centre &amp; Right screens) - PIVOD</p>", "creator_credit_for_label": "", "headline_credit_for_label": "", "description": "", "description_for_label": [], "credit_line_for_label": "", "details": [], "stats": {"tap_count": 0}, "links": [], "creators_primary": [], "creators_other": [], "media_note": "Sorry, we don't have images or video for this item.", "holdings": [{"name": "DVD ROM; Copy", "identifier": "", "description": ""}], "part_of": null, "parts": [], "part_siblings": [], "group": null, "group_works": [], "group_siblings": [], "source": {"name": "Vernon", "slug": "vernon"}, "source_identifier": "2891", "eaas_environment_id": null, "production_places": [], "production_dates": [], "labels": [48793]}, {"id": 109299, "acmi_id": "B1006289", "title": "Copping Music", "title_annotation": "", "slug": "copping-music", "creator_credit": "", "credit_line": "", "headline_credit": "", "video_links": [], "record_type": "work", "type": "Film", "is_on_display": false, "last_on_display_place": null, "last_on_display_date": null, "is_context_indigenous": false, "material_description": "", "unpublished": false, "external": false, "first_production_date": null, "commissioned": false, "public_domain": false, "external_references": [], "brief_description": "", "constellations_primary": [], "constellations_other": [], "recommendations": [], "title_for_label": "<p>Copping Music</p>", "creator_credit_for_label": "", "headline_credit_for_label": "", "description": "", "description_for_label": [], "credit_line_for_label": "", "details": [], "stats": {"tap_count": 0}, "links": [], "creators_primary": [], "creators_other": [], "media_note": "Sorry, we don't have images or video for this item.", "holdings": [{"name": "CD ROM; Master", "identifier": "", "description": ""}], "part_of": null, "parts": [], "part_siblings": [], "group": null, "group_works": [], "group_siblings": [], "source": {"name": "Vernon", "slug": "vernon"}, "source_identifier": "2889", "eaas_environment_id": null, "production_places": [], "production_dates": [], "labels": [48792]}, {"id": 109298, "acmi_id": "B1006288", "title": "The Benchmark (Kool Schools)", "title_annotation": "", "slug": "the-benchmark-kool-schools", "creator_credit": "Billanook College School of Performing Arts", "credit_line": "", "headline_credit": "1997", "video_links": [], "record_type": "work", "type": "Film", "is_on_display": false, "last_on_display_place": null, "last_on_display_date": null, "is_context_indigenous": false, "material_description": "", "unpublished": false, "external": false, "first_production_date": "1997-01-01T11:00:00+11:00", "commissioned": false, "public_domain": false, "external_references": [], "brief_description": "", "constellations_primary": [], "constellations_other": [], "recommendations": [], "title_for_label": "<p>The Benchmark (Kool Schools)</p>", "creator_credit_for_label": "<p>Billanook College School of Performing Arts</p>", "headline_credit_for_label": "<p>1997</p>", "description": "", "description_for_label": [], "credit_line_for_label": "", "details": [], "stats": {"tap_count": 0}, "links": [], "creators_primary": [{"id": 2711660, "name": "Billanook College School of Performing Arts", "creator_id": 9325, "creator_wikidata_id": null, "role": "creator", "role_id": 968, "is_primary": true}], "creators_other": [{"id": 2711661, "name": "Billanook College School of Performing Arts", "creator_id": 9325, "creator_wikidata_id": null, "role": "organiser", "role_id": 608, "is_primary": false}], "media_note": "Sorry, we don't have images or video for this item.", "holdings": [], "part_of": null, "parts": [], "part_siblings": [], "group": null, "group_works": [], "group_siblings": [], "source": {"name": "Vernon", "slug": "vernon"}, "source_identifier": "2888", "eaas_environment_id": null, "production_places": [], "production_dates": [{"date": "1997", "notes": "", "to_year": "1997"}], "labels": [48791]}]}