{"count": 41723, "next": "https://api.acmi.net.au/works/?page=1475", "previous": "https://api.acmi.net.au/works/?page=1473", "results": [{"id": 112075, "acmi_id": "AEO176085", "title": "Praxinoscope strip - La Rosace Magique", "title_annotation": "", "slug": "praxinoscope-strip-la-rosace-magique", "creator_credit": "", "credit_line": "", "headline_credit": "", "video_links": [], "record_type": "work", "type": "Object", "is_on_display": false, "last_on_display_place": null, "last_on_display_date": null, "is_context_indigenous": false, "material_description": "", "unpublished": false, "external": false, "first_production_date": null, "commissioned": false, "public_domain": false, "external_references": [], "brief_description": "<p>One of five strips to be displayed with Praxinoscope AEO175951</p>", "constellations_primary": [], "constellations_other": [], "recommendations": [], "title_for_label": "<p>Praxinoscope strip - La Rosace Magique</p>", "creator_credit_for_label": "", "headline_credit_for_label": "", "description": "<p>One of five strips to be displayed with Praxinoscope AEO175951</p>", "description_for_label": ["<p>One of five strips to be displayed with Praxinoscope AEO175951</p>"], "credit_line_for_label": "", "details": [{"label": "Object Types", "display_values": ["2D Object"]}], "stats": {"tap_count": 0}, "links": [], "creators_primary": [], "creators_other": [], "media_note": "Sorry, we don't have images or video for this item.", "holdings": [], "part_of": null, "parts": [], "part_siblings": [], "group": {"id": 99446, "acmi_id": "AEO175951", "title": "Praxinoscope with wooden base", "title_annotation": "", "slug": "praxinoscope", "creator_credit": "", "credit_line": "", "headline_credit": "France, c. 1889-1900", "video_links": [], "record_type": "work", "type": "Object", "is_on_display": true, "last_on_display_place": "ACMI: Gallery 1", "last_on_display_date": "2031-02-16", "is_context_indigenous": false, "material_description": "", "unpublished": false, "external": false, "first_production_date": null, "commissioned": false, "public_domain": false, "external_references": []}, "group_works": [], "group_siblings": [], "source": {"name": "Vernon", "slug": "vernon"}, "source_identifier": "176085", "eaas_environment_id": null, "production_places": [], "production_dates": [], "labels": [51569]}, {"id": 112074, "acmi_id": "AEO176084", "title": "Praxinoscope strip - La Nageuse", "title_annotation": "", "slug": "praxinoscope-strip-la-nageuse", "creator_credit": "", "credit_line": "", "headline_credit": "", "video_links": [], "record_type": "work", "type": "Object", "is_on_display": false, "last_on_display_place": null, "last_on_display_date": null, "is_context_indigenous": false, "material_description": "", "unpublished": false, "external": false, "first_production_date": null, "commissioned": false, "public_domain": false, "external_references": [], "brief_description": "<p>One of five strips to be displayed with Praxinoscope AEO175951</p>", "constellations_primary": [], "constellations_other": [], "recommendations": [], "title_for_label": "<p>Praxinoscope strip - La Nageuse</p>", "creator_credit_for_label": "", "headline_credit_for_label": "", "description": "<p>One of five strips to be displayed with Praxinoscope AEO175951</p>", "description_for_label": ["<p>One of five strips to be displayed with Praxinoscope AEO175951</p>"], "credit_line_for_label": "", "details": [{"label": "Object Types", "display_values": ["2D Object"]}], "stats": {"tap_count": 0}, "links": [], "creators_primary": [], "creators_other": [], "media_note": "Sorry, we don't have images or video for this item.", "holdings": [], "part_of": null, "parts": [], "part_siblings": [], "group": {"id": 99446, "acmi_id": "AEO175951", "title": "Praxinoscope with wooden base", "title_annotation": "", "slug": "praxinoscope", "creator_credit": "", "credit_line": "", "headline_credit": "France, c. 1889-1900", "video_links": [], "record_type": "work", "type": "Object", "is_on_display": true, "last_on_display_place": "ACMI: Gallery 1", "last_on_display_date": "2031-02-16", "is_context_indigenous": false, "material_description": "", "unpublished": false, "external": false, "first_production_date": null, "commissioned": false, "public_domain": false, "external_references": []}, "group_works": [], "group_siblings": [], "source": {"name": "Vernon", "slug": "vernon"}, "source_identifier": "176084", "eaas_environment_id": null, "production_places": [], "production_dates": [], "labels": [51568]}, {"id": 112072, "acmi_id": "AEO176081", "title": "Praxinoscope strip - La Charmeuse", "title_annotation": "", "slug": "praxinoscope-strip-la-charmeuse", "creator_credit": "", "credit_line": "", "headline_credit": "", "video_links": [], "record_type": "work", "type": "Object", "is_on_display": false, "last_on_display_place": null, "last_on_display_date": null, "is_context_indigenous": false, "material_description": "", "unpublished": false, "external": false, "first_production_date": null, "commissioned": false, "public_domain": false, "external_references": [], "brief_description": "<p>One of five strips to be displayed with Praxinoscope AEO175951</p>", "constellations_primary": [], "constellations_other": [], "recommendations": [], "title_for_label": "<p>Praxinoscope strip - La Charmeuse</p>", "creator_credit_for_label": "", "headline_credit_for_label": "", "description": "<p>One of five strips to be displayed with Praxinoscope AEO175951</p>", "description_for_label": ["<p>One of five strips to be displayed with Praxinoscope AEO175951</p>"], "credit_line_for_label": "", "details": [{"label": "Object Types", "display_values": ["2D Object"]}], "stats": {"tap_count": 0}, "links": [], "creators_primary": [], "creators_other": [], "media_note": "Sorry, we don't have images or video for this item.", "holdings": [], "part_of": null, "parts": [], "part_siblings": [], "group": {"id": 99446, "acmi_id": "AEO175951", "title": "Praxinoscope with wooden base", "title_annotation": "", "slug": "praxinoscope", "creator_credit": "", "credit_line": "", "headline_credit": "France, c. 1889-1900", "video_links": [], "record_type": "work", "type": "Object", "is_on_display": true, "last_on_display_place": "ACMI: Gallery 1", "last_on_display_date": "2031-02-16", "is_context_indigenous": false, "material_description": "", "unpublished": false, "external": false, "first_production_date": null, "commissioned": false, "public_domain": false, "external_references": []}, "group_works": [], "group_siblings": [], "source": {"name": "Vernon", "slug": "vernon"}, "source_identifier": "176081", "eaas_environment_id": null, "production_places": [], "production_dates": [], "labels": [51566]}, {"id": 112073, "acmi_id": "AEO176083", "title": "Praxinoscope strip - Glissade Et Saut De Mouton", "title_annotation": "", "slug": "praxinoscope-strip-glissade-et-saut-de-mouton", "creator_credit": "", "credit_line": "", "headline_credit": "", "video_links": [], "record_type": "work", "type": "Object", "is_on_display": false, "last_on_display_place": null, "last_on_display_date": null, "is_context_indigenous": false, "material_description": "", "unpublished": false, "external": false, "first_production_date": null, "commissioned": false, "public_domain": false, "external_references": [], "brief_description": "<p>One of five strips to be displayed with Praxinoscope AEO175951</p>", "constellations_primary": [], "constellations_other": [], "recommendations": [], "title_for_label": "<p>Praxinoscope strip - Glissade Et Saut De Mouton</p>", "creator_credit_for_label": "", "headline_credit_for_label": "", "description": "<p>One of five strips to be displayed with Praxinoscope AEO175951</p>", "description_for_label": ["<p>One of five strips to be displayed with Praxinoscope AEO175951</p>"], "credit_line_for_label": "", "details": [{"label": "Object Types", "display_values": ["2D Object"]}], "stats": {"tap_count": 0}, "links": [], "creators_primary": [], "creators_other": [], "media_note": "Sorry, we don't have images or video for this item.", "holdings": [], "part_of": null, "parts": [], "part_siblings": [], "group": {"id": 99446, "acmi_id": "AEO175951", "title": "Praxinoscope with wooden base", "title_annotation": "", "slug": "praxinoscope", "creator_credit": "", "credit_line": "", "headline_credit": "France, c. 1889-1900", "video_links": [], "record_type": "work", "type": "Object", "is_on_display": true, "last_on_display_place": "ACMI: Gallery 1", "last_on_display_date": "2031-02-16", "is_context_indigenous": false, "material_description": "", "unpublished": false, "external": false, "first_production_date": null, "commissioned": false, "public_domain": false, "external_references": []}, "group_works": [], "group_siblings": [], "source": {"name": "Vernon", "slug": "vernon"}, "source_identifier": "176083", "eaas_environment_id": null, "production_places": [], "production_dates": [], "labels": [51567]}, {"id": 99808, "acmi_id": "P180306", "title": "Les Anamorphoses (Anamorphosis) optical toys with viewing cylinder", "title_annotation": "Facsimile", "slug": "graphic-optical-toy-les-anamorphoses-anamorphosis-queen", "creator_credit": "Walter Frères and Jullien", "credit_line": "", "headline_credit": "France, c. 1865", "video_links": [], "record_type": "work", "type": "Object", "is_on_display": true, "last_on_display_place": "ACMI: Gallery 1", "last_on_display_date": "2031-02-16", "is_context_indigenous": false, "material_description": "digital print", "unpublished": false, "external": false, "first_production_date": null, "commissioned": false, "public_domain": false, "external_references": [], "brief_description": "<p>Reproduction of AEO174930_02, sys id 174930)</p>", "constellations_primary": [], "constellations_other": [], "recommendations": [], "title_for_label": "<p>Les Anamorphoses (Anamorphosis) optical toys with viewing cylinder</p>", "creator_credit_for_label": "<p>Walter Frères and Jullien</p>", "headline_credit_for_label": "<p>France, c. 1865</p>", "description": "<p>Reproduction of AEO174930_02, sys id 174930)</p>", "description_for_label": ["<p>Reproduction of AEO174930_02, sys id 174930)</p>"], "credit_line_for_label": "", "details": [{"label": "Curatorial section", "display_values": ["The Story of the Moving Image&nbsp;→ Moving Pictures&nbsp;→ MI-02. Play and Illusion&nbsp;→ MI-02-C02"]}, {"label": "Measurements", "display_values": ["170 x 205mm"]}, {"label": "Object Types", "display_values": ["2D Object", "Exhibition Prop", "Optical Toy"]}, {"label": "Materials", "display_values": ["digital print"]}], "stats": {"tap_count": 2}, "links": [], "creators_primary": [{"id": 2684452, "name": "Walter Frères", "creator_id": 71449, "creator_wikidata_id": null, "role": "creator", "role_id": 968, "is_primary": true}, {"id": 2684453, "name": "Jullien", "creator_id": 71450, "creator_wikidata_id": null, "role": "manufacturer", "role_id": 627, "is_primary": true}], "creators_other": [], "media_note": null, "holdings": [], "part_of": null, "parts": [], "part_siblings": [], "group": {"id": 100512, "acmi_id": "", "title": "Anamorphic drawings", "title_annotation": "", "slug": "anamorphic-drawings", "creator_credit": "", "credit_line": "", "headline_credit": "", "video_links": [], "record_type": "group", "type": "Image", "is_on_display": true, "last_on_display_place": "ACMI: Gallery 1", "last_on_display_date": "2031-02-16", "is_context_indigenous": false, "material_description": "", "unpublished": false, "external": true, "first_production_date": null, "commissioned": false, "public_domain": false, "external_references": []}, "group_works": [], "group_siblings": [{"id": 99648, "acmi_id": "FC180119", "title": "Optical construction of a cylinder anamorphosis", "title_annotation": "Facsimile", "slug": "facsimile-optical-construction-of-a-cylinder-anamorphosis", "creator_credit": "Mario Bettini Bettini", "credit_line": "<p>Published in Apiaria Uinversae Philosophiae Mathematicae</p>", "headline_credit": "Italy, c. 1642", "video_links": [], "record_type": "work", "type": "Object", "is_on_display": true, "last_on_display_place": "ACMI: Gallery 1", "last_on_display_date": "2031-02-16", "is_context_indigenous": false, "material_description": "digital print", "unpublished": false, "external": false, "first_production_date": null, "commissioned": false, "public_domain": false, "external_references": []}], "source": {"name": "Vernon", "slug": "vernon"}, "source_identifier": "180306", "eaas_environment_id": null, "production_places": [{"id": 17, "name": "France", "slug": "france"}], "production_dates": [{"date": "c. 1865", "notes": "", "to_year": "c. 1865"}], "labels": [39303]}, {"id": 99648, "acmi_id": "FC180119", "title": "Optical construction of a cylinder anamorphosis", "title_annotation": "Facsimile", "slug": "facsimile-optical-construction-of-a-cylinder-anamorphosis", "creator_credit": "Mario Bettini Bettini", "credit_line": "<p>Published in Apiaria Uinversae Philosophiae Mathematicae</p>", "headline_credit": "Italy, c. 1642", "video_links": [], "record_type": "work", "type": "Object", "is_on_display": true, "last_on_display_place": "ACMI: Gallery 1", "last_on_display_date": "2031-02-16", "is_context_indigenous": false, "material_description": "digital print", "unpublished": false, "external": false, "first_production_date": null, "commissioned": false, "public_domain": false, "external_references": [], "brief_description": "", "constellations_primary": [], "constellations_other": [], "recommendations": [], "title_for_label": "<p>Optical construction of a cylinder anamorphosis</p>", "creator_credit_for_label": "<p>Mario Bettini Bettini</p>", "headline_credit_for_label": "<p>Italy, c. 1642</p>", "description": "", "description_for_label": [], "credit_line_for_label": "<p>Published in Apiaria Uinversae Philosophiae Mathematicae</p>", "details": [{"label": "Curatorial section", "display_values": ["The Story of the Moving Image&nbsp;→ Moving Pictures&nbsp;→ MI-02. Play and Illusion&nbsp;→ MI-02-C02"]}, {"label": "Measurements", "display_values": ["420 x 297mm"]}, {"label": "Object Types", "display_values": ["2D Object", "Design/diagram/Pictorial", "Exhibition Prop", "Facsimile"]}, {"label": "Materials", "display_values": ["digital print"]}], "stats": {"tap_count": 0}, "links": [], "creators_primary": [{"id": 2684451, "name": "Mario Bettini Bettini", "creator_id": 71451, "creator_wikidata_id": null, "role": "creator", "role_id": 968, "is_primary": true}], "creators_other": [], "media_note": null, "holdings": [], "part_of": null, "parts": [], "part_siblings": [], "group": {"id": 100512, "acmi_id": "", "title": "Anamorphic drawings", "title_annotation": "", "slug": "anamorphic-drawings", "creator_credit": "", "credit_line": "", "headline_credit": "", "video_links": [], "record_type": "group", "type": "Image", "is_on_display": true, "last_on_display_place": "ACMI: Gallery 1", "last_on_display_date": "2031-02-16", "is_context_indigenous": false, "material_description": "", "unpublished": false, "external": true, "first_production_date": null, "commissioned": false, "public_domain": false, "external_references": []}, "group_works": [], "group_siblings": [], "source": {"name": "Vernon", "slug": "vernon"}, "source_identifier": "180119", "eaas_environment_id": null, "production_places": [{"id": 19, "name": "Italy", "slug": "italy"}], "production_dates": [{"date": "c. 1642", "notes": "", "to_year": "c. 1642"}], "labels": [39143]}, {"id": 99797, "acmi_id": "P180295", "title": "Zoetrope to Cinemascope Activity Book", "title_annotation": "", "slug": "graphic-zoetrope-to-cinemascope-activity-book", "creator_credit": "Alexander Stitt and Jigsaw Factory", "credit_line": "<p>Courtesy Weatherhead &amp; Stitt</p>", "headline_credit": "Melbourne/VIC/Australia, c. 1971", "video_links": [], "record_type": "work", "type": "Object", "is_on_display": true, "last_on_display_place": "ACMI: Gallery 1", "last_on_display_date": "2031-02-16", "is_context_indigenous": false, "material_description": "digital print", "unpublished": false, "external": false, "first_production_date": null, "commissioned": false, "public_domain": false, "external_references": [], "brief_description": "", "constellations_primary": [], "constellations_other": [], "recommendations": [], "title_for_label": "<p>Zoetrope to Cinemascope Activity Book</p>", "creator_credit_for_label": "<p>Alexander Stitt and Jigsaw Factory</p>", "headline_credit_for_label": "<p>Melbourne/VIC/Australia, c. 1971</p>", "description": "", "description_for_label": [], "credit_line_for_label": "<p>Courtesy Weatherhead &amp; Stitt</p>", "details": [{"label": "Curatorial section", "display_values": ["The Story of the Moving Image&nbsp;→ Moving Pictures&nbsp;→ MI-02. Play and Illusion&nbsp;→ MI-02-C02"]}, {"label": "Measurements", "display_values": ["420 x 297mm"]}, {"label": "Object Types", "display_values": ["2D Object", "Book/Textual", "Exhibition Prop"]}, {"label": "Materials", "display_values": ["digital print"]}], "stats": {"tap_count": 0}, "links": [], "creators_primary": [{"id": 2684417, "name": "Alexander Stitt", "creator_id": 85236, "creator_wikidata_id": null, "role": "creator", "role_id": 968, "is_primary": true}, {"id": 2684418, "name": "Jigsaw Factory", "creator_id": 71439, "creator_wikidata_id": null, "role": "creator", "role_id": 968, "is_primary": true}], "creators_other": [], "media_note": null, "holdings": [], "part_of": null, "parts": [], "part_siblings": [], "group": {"id": 100592, "acmi_id": "", "title": "Zoetrope to Cinemascope", "title_annotation": "", "slug": "zoetrope-to-cinemascope", "creator_credit": "Alexander Stitt and Jigsaw Factory", "credit_line": "<p>Courtesy Stitt Family</p>", "headline_credit": "Australia, c. 1971", "video_links": [], "record_type": "group", "type": "Object", "is_on_display": true, "last_on_display_place": "ACMI: Gallery 1", "last_on_display_date": "2031-02-16", "is_context_indigenous": false, "material_description": "", "unpublished": false, "external": true, "first_production_date": null, "commissioned": false, "public_domain": false, "external_references": []}, "group_works": [], "group_siblings": [], "source": {"name": "Vernon", "slug": "vernon"}, "source_identifier": "180295", "eaas_environment_id": null, "production_places": [{"id": 67, "name": "Melbourne/VIC/Australia", "slug": "melbournevicaustralia"}], "production_dates": [{"date": "c. 1971", "notes": "", "to_year": "c. 1971"}], "labels": [39292]}, {"id": 99795, "acmi_id": "P180293", "title": "Zoetrope to Cinemascope Activity Book Cover", "title_annotation": "Facsimile", "slug": "graphic-zoetrope-to-cinemascope-activity-book-cover", "creator_credit": "Alexander Stitt and Jigsaw Factory", "credit_line": "<p>Courtesy Weatherhead &amp; Stitt</p>", "headline_credit": "Melbourne/VIC/Australia, c. 1971", "video_links": [], "record_type": "work", "type": "Object", "is_on_display": true, "last_on_display_place": "ACMI: Gallery 1", "last_on_display_date": "2031-02-16", "is_context_indigenous": false, "material_description": "digital print", "unpublished": false, "external": false, "first_production_date": null, "commissioned": false, "public_domain": false, "external_references": [], "brief_description": "", "constellations_primary": [], "constellations_other": [], "recommendations": [], "title_for_label": "<p>Zoetrope to Cinemascope Activity Book Cover</p>", "creator_credit_for_label": "<p>Alexander Stitt and Jigsaw Factory</p>", "headline_credit_for_label": "<p>Melbourne/VIC/Australia, c. 1971</p>", "description": "", "description_for_label": [], "credit_line_for_label": "<p>Courtesy Weatherhead &amp; Stitt</p>", "details": [{"label": "Curatorial section", "display_values": ["The Story of the Moving Image&nbsp;→ Moving Pictures&nbsp;→ MI-02. Play and Illusion&nbsp;→ MI-02-C02"]}, {"label": "Measurements", "display_values": ["420 x 297mm"]}, {"label": "Object Types", "display_values": ["2D Object", "Book/Textual", "Exhibition Prop"]}, {"label": "Materials", "display_values": ["digital print"]}], "stats": {"tap_count": 0}, "links": [], "creators_primary": [{"id": 2684415, "name": "Alexander Stitt", "creator_id": 85236, "creator_wikidata_id": null, "role": "creator", "role_id": 968, "is_primary": true}, {"id": 2684416, "name": "Jigsaw Factory", "creator_id": 71439, "creator_wikidata_id": null, "role": "creator", "role_id": 968, "is_primary": true}], "creators_other": [], "media_note": null, "holdings": [], "part_of": null, "parts": [], "part_siblings": [], "group": {"id": 100592, "acmi_id": "", "title": "Zoetrope to Cinemascope", "title_annotation": "", "slug": "zoetrope-to-cinemascope", "creator_credit": "Alexander Stitt and Jigsaw Factory", "credit_line": "<p>Courtesy Stitt Family</p>", "headline_credit": "Australia, c. 1971", "video_links": [], "record_type": "group", "type": "Object", "is_on_display": true, "last_on_display_place": "ACMI: Gallery 1", "last_on_display_date": "2031-02-16", "is_context_indigenous": false, "material_description": "", "unpublished": false, "external": true, "first_production_date": null, "commissioned": false, "public_domain": false, "external_references": []}, "group_works": [], "group_siblings": [], "source": {"name": "Vernon", "slug": "vernon"}, "source_identifier": "180293", "eaas_environment_id": null, "production_places": [{"id": 67, "name": "Melbourne/VIC/Australia", "slug": "melbournevicaustralia"}], "production_dates": [{"date": "c. 1971", "notes": "", "to_year": "c. 1971"}], "labels": [39290]}, {"id": 99796, "acmi_id": "P180294", "title": "Zoetrope to Cinemascope Activity Book\n3 Toys", "title_annotation": "", "slug": "graphic-zoetrope-to-cinemascope-activity-book-3-toys", "creator_credit": "Alexander Stitt and Jigsaw Factory", "credit_line": "<p>Courtesy Weatherhead &amp; Stitt</p>", "headline_credit": "Melbourne/VIC/Australia, c. 1971", "video_links": [], "record_type": "work", "type": "Object", "is_on_display": true, "last_on_display_place": "ACMI: Gallery 1", "last_on_display_date": "2031-02-16", "is_context_indigenous": false, "material_description": "digital print", "unpublished": false, "external": false, "first_production_date": null, "commissioned": false, "public_domain": false, "external_references": [], "brief_description": "", "constellations_primary": [], "constellations_other": [], "recommendations": [], "title_for_label": "<p>Zoetrope to Cinemascope Activity Book<br />\n3 Toys</p>", "creator_credit_for_label": "<p>Alexander Stitt and Jigsaw Factory</p>", "headline_credit_for_label": "<p>Melbourne/VIC/Australia, c. 1971</p>", "description": "", "description_for_label": [], "credit_line_for_label": "<p>Courtesy Weatherhead &amp; Stitt</p>", "details": [{"label": "Curatorial section", "display_values": ["The Story of the Moving Image&nbsp;→ Moving Pictures&nbsp;→ MI-02. Play and Illusion&nbsp;→ MI-02-C02"]}, {"label": "Measurements", "display_values": ["420 x 297mm"]}, {"label": "Object Types", "display_values": ["2D Object", "Book/Textual", "Exhibition Prop"]}, {"label": "Materials", "display_values": ["digital print"]}], "stats": {"tap_count": 0}, "links": [], "creators_primary": [{"id": 2684413, "name": "Alexander Stitt", "creator_id": 85236, "creator_wikidata_id": null, "role": "creator", "role_id": 968, "is_primary": true}, {"id": 2684414, "name": "Jigsaw Factory", "creator_id": 71439, "creator_wikidata_id": null, "role": "creator", "role_id": 968, "is_primary": true}], "creators_other": [], "media_note": null, "holdings": [], "part_of": null, "parts": [], "part_siblings": [], "group": {"id": 100592, "acmi_id": "", "title": "Zoetrope to Cinemascope", "title_annotation": "", "slug": "zoetrope-to-cinemascope", "creator_credit": "Alexander Stitt and Jigsaw Factory", "credit_line": "<p>Courtesy Stitt Family</p>", "headline_credit": "Australia, c. 1971", "video_links": [], "record_type": "group", "type": "Object", "is_on_display": true, "last_on_display_place": "ACMI: Gallery 1", "last_on_display_date": "2031-02-16", "is_context_indigenous": false, "material_description": "", "unpublished": false, "external": true, "first_production_date": null, "commissioned": false, "public_domain": false, "external_references": []}, "group_works": [], "group_siblings": [], "source": {"name": "Vernon", "slug": "vernon"}, "source_identifier": "180294", "eaas_environment_id": null, "production_places": [{"id": 67, "name": "Melbourne/VIC/Australia", "slug": "melbournevicaustralia"}], "production_dates": [{"date": "c. 1971", "notes": "", "to_year": "c. 1971"}], "labels": [39291]}, {"id": 99475, "acmi_id": "AEO177011", "title": "Loch Eck day/night dissolving magic lantern slide", "title_annotation": "", "slug": "magic-lantern-slide-daynight-dissolve-set-loch-eck-scotland-day", "creator_credit": "Maker not documented", "credit_line": "", "headline_credit": "United Kingdom, c. 1903", "video_links": [], "record_type": "work", "type": "Object", "is_on_display": true, "last_on_display_place": "ACMI: Gallery 1", "last_on_display_date": "2031-02-16", "is_context_indigenous": false, "material_description": "glass, ink, gum arabic tape", "unpublished": false, "external": false, "first_production_date": null, "commissioned": false, "public_domain": false, "external_references": [], "brief_description": "<p>Hand coloured magic lantern slide depicting Loch Eck, Scotland in daylight. This is part of a &#8216;dissolving set&#8217;</p>", "constellations_primary": [], "constellations_other": [], "recommendations": [], "title_for_label": "<p>Loch Eck day/night dissolving magic lantern slide</p>", "creator_credit_for_label": "<p>Maker not documented</p>", "headline_credit_for_label": "<p>United Kingdom, c. 1903</p>", "description": "<p>Hand coloured magic lantern slide depicting Loch Eck, Scotland in daylight. This is part of a &#8216;dissolving set&#8217;</p>", "description_for_label": ["<p>Hand coloured magic lantern slide depicting Loch Eck, Scotland in daylight. This is part of a &#8216;dissolving set&#8217;</p>"], "credit_line_for_label": "", "details": [{"label": "Curatorial section", "display_values": ["The Story of the Moving Image&nbsp;→ Moving Pictures&nbsp;→ MI-02. Play and Illusion&nbsp;→ MI-02-C01&nbsp;→ Panel B7"]}, {"label": "Measurements", "display_values": ["84 x 98 x 2 mm"]}, {"label": "Object Types", "display_values": ["2D Object", "Glass slide/Pictorial"]}, {"label": "Materials", "display_values": ["glass, ink, gum arabic tape"]}], "stats": {"tap_count": 3}, "links": [], "creators_primary": [{"id": 2681814, "name": "Maker not documented", "creator_id": 71446, "creator_wikidata_id": null, "role": "creator", "role_id": 968, "is_primary": true}], "creators_other": [], "media_note": null, "holdings": [], "part_of": null, "parts": [], "part_siblings": [], "group": {"id": 100529, "acmi_id": "", "title": "Dissolving effects slides", "title_annotation": "", "slug": "loch-eck-daynight-dissolving-magic-lantern-slides", "creator_credit": "Maker not documented", "credit_line": "", "headline_credit": "United Kingdom, c. 1903", "video_links": [], "record_type": "group", "type": "Film", "is_on_display": true, "last_on_display_place": "ACMI: Gallery 1", "last_on_display_date": "2031-02-16", "is_context_indigenous": false, "material_description": "", "unpublished": false, "external": true, "first_production_date": null, "commissioned": false, "public_domain": false, "external_references": []}, "group_works": [], "group_siblings": [], "source": {"name": "Vernon", "slug": "vernon"}, "source_identifier": "177011", "eaas_environment_id": null, "production_places": [{"id": 10, "name": "United Kingdom", "slug": "united-kingdom"}], "production_dates": [{"date": "c. 1903", "notes": "", "to_year": "c. 1903"}], "labels": [38970]}]}