{"count": 41724, "next": "https://api.acmi.net.au/works/?page=303", "previous": "https://api.acmi.net.au/works/?page=301", "results": [{"id": 114045, "acmi_id": "B1002984", "title": "Cousin", "title_annotation": "", "slug": "cousin", "creator_credit": "Adam Elliot", "credit_line": "", "headline_credit": "Australia, 1998", "video_links": [], "record_type": "work", "type": "Artwork", "is_on_display": false, "last_on_display_place": "ACMI Viewing Booths", "last_on_display_date": "2019-04-22", "is_context_indigenous": false, "material_description": "Single channel moving image", "unpublished": false, "external": false, "first_production_date": "1998-01-01T11:00:00+11:00", "commissioned": false, "public_domain": false, "external_references": [], "brief_description": "<p>The childhood remembrance of a cousin, his special arm, pet rocks and shopping trolley. He was born with cerebral palsy. The narrator tells of their antics together as children: their attempts to fly off the chook shed roof, out of control shopping trolley rides as well as being introduced to his many assorted collections of tee shirts, pet rocks and toenails.</p>", "constellations_primary": [], "constellations_other": [], "recommendations": [], "creator_credit_for_label": "<p>Adam Elliot</p>", "headline_credit_for_label": "<p>Australia, 1998</p>", "title_for_label": "<p>Cousin</p>", "description": "<p>The childhood remembrance of a cousin, his special arm, pet rocks and shopping trolley. He was born with cerebral palsy. The narrator tells of their antics together as children: their attempts to fly off the chook shed roof, out of control shopping trolley rides as well as being introduced to his many assorted collections of tee shirts, pet rocks and toenails.</p>", "description_for_label": ["<p>The childhood remembrance of a cousin, his special arm, pet rocks and shopping trolley. He was born with cerebral palsy. The narrator tells of their antics together as children: their attempts to fly off the chook shed roof, out of control shopping trolley rides as well as being introduced to his many assorted collections of tee shirts, pet rocks and toenails.</p>"], "credit_line_for_label": "", "details": [{"label": "Duration", "display_values": ["00:04:45:00"]}, {"label": "Language", "display_values": ["English"]}, {"label": "Audience classification", "display_values": ["Mediatheque - all ages (ACMI classified)"]}, {"label": "Subject categories", "display_values": ["Animation", "Animation&nbsp;→ Animated films - Australia", "Animation&nbsp;→ Clay animation", "Digital Art", "Short films", "Short films&nbsp;→ Short films - Australia"]}, {"label": "Sound/audio", "display_values": ["Sound"]}, {"label": "Colour", "display_values": ["Black and White"]}, {"label": "Object Types", "display_values": ["Artwork"]}, {"label": "Materials", "display_values": ["Single channel moving image"]}], "stats": {"tap_count": 1}, "links": [], "creators_primary": [{"id": 2619145, "name": "Adam Elliot", "creator_id": 64504, "creator_wikidata_id": "Q349248", "role": "creator", "role_id": 968, "is_primary": true}, {"id": 2619146, "name": "Adam Elliot", "creator_id": 64504, "creator_wikidata_id": "Q349248", "role": "director", "role_id": 938, "is_primary": true}, {"id": 2619147, "name": "Adam Elliot", "creator_id": 64504, "creator_wikidata_id": "Q349248", "role": "producer", "role_id": 1089, "is_primary": true}, {"id": 2619148, "name": "Adam Elliot", "creator_id": 64504, "creator_wikidata_id": "Q349248", "role": "writer", "role_id": 939, "is_primary": true}], "creators_other": [{"id": 2619149, "name": "William McInnes", "creator_id": 77532, "creator_wikidata_id": null, "role": "voice", "role_id": 471, "is_primary": false}], "media_note": null, "holdings": [{"name": "VHS [PAL]; Reference - timecoded", "identifier": "", "description": ""}, {"name": "MOV file H264; ACMI Digital Access Copy - presentation", "identifier": "", "description": ""}, {"name": "Digital Betacam [PAL]; Sub-master", "identifier": "", "description": ""}], "part_of": null, "parts": [], "part_siblings": [], "group": null, "group_works": [], "group_siblings": [], "source": {"name": "Vernon", "slug": "vernon"}, "source_identifier": "1061", "eaas_environment_id": null, "production_places": [{"id": 3, "name": "Australia", "slug": "australia"}], "production_dates": [{"date": "1998", "notes": "", "to_year": "1998"}], "labels": [53537]}, {"id": 116725, "acmi_id": "B2001526", "title": "Guess whose mum's got a Whirlpool [advertisement]", "title_annotation": "", "slug": "guess-whose-mums-got-a-whirlpool-advertisement", "creator_credit": "", "credit_line": "", "headline_credit": "Australia, 1977", "video_links": [], "record_type": "work", "type": "Film", "is_on_display": false, "last_on_display_place": "ACMI Viewing Booths", "last_on_display_date": "2019-04-22", "is_context_indigenous": false, "material_description": "", "unpublished": false, "external": false, "first_production_date": "1977-01-01T11:00:00+11:00", "commissioned": false, "public_domain": false, "external_references": [], "brief_description": "<p>Dame Edna Everage, the housewife superstar, introduces us to the new compact washer and also the now famous tag line, &#8216;guess whose mum&#8217;s got a Whirlpool&#8217;.</p>", "constellations_primary": [], "constellations_other": [], "recommendations": [], "creator_credit_for_label": "", "headline_credit_for_label": "<p>Australia, 1977</p>", "title_for_label": "<p>Guess whose mum&#8217;s got a Whirlpool [advertisement]</p>", "description": "<p>Dame Edna Everage, the housewife superstar, introduces us to the new compact washer and also the now famous tag line, &#8216;guess whose mum&#8217;s got a Whirlpool&#8217;.</p>", "description_for_label": ["<p>Dame Edna Everage, the housewife superstar, introduces us to the new compact washer and also the now famous tag line, &#8216;guess whose mum&#8217;s got a Whirlpool&#8217;.</p>"], "credit_line_for_label": "", "details": [{"label": "Duration", "display_values": ["00:00:29:00"]}, {"label": "Audience classification", "display_values": ["Mediatheque - all ages (ACMI classified)"]}, {"label": "Subject categories", "display_values": ["Advertising", "Advertising, Film, Journalism, Mass Media & TV&nbsp;→ Advertising", "Advertising, Film, Journalism, Mass Media & TV&nbsp;→ Television advertising", "Food, Health, Lifestyle, Medicine, Psychology & Safety&nbsp;→ Cleaning", "Food, Health, Lifestyle, Medicine, Psychology & Safety&nbsp;→ Household appliances"]}, {"label": "Sound/audio", "display_values": ["Sound"]}, {"label": "Colour", "display_values": ["Colour"]}], "stats": {"tap_count": 0}, "links": [], "creators_primary": [], "creators_other": [], "media_note": null, "holdings": [{"name": "MOV file H264; ACMI Digital Access Copy - presentation", "identifier": "", "description": ""}], "part_of": null, "parts": [], "part_siblings": [], "group": null, "group_works": [], "group_siblings": [], "source": {"name": "Vernon", "slug": "vernon"}, "source_identifier": "151004", "eaas_environment_id": null, "production_places": [{"id": 3, "name": "Australia", "slug": "australia"}], "production_dates": [{"date": "1977", "notes": "", "to_year": "1977"}], "labels": [56219]}, {"id": 116723, "acmi_id": "B2001527", "title": "Vincent's powders and tablets [advertisement]", "title_annotation": "", "slug": "vincents-powders-and-tablets-advertisement", "creator_credit": "", "credit_line": "", "headline_credit": "Australia, 1956", "video_links": [], "record_type": "work", "type": "Film", "is_on_display": false, "last_on_display_place": "ACMI Viewing Booths", "last_on_display_date": "2019-04-22", "is_context_indigenous": false, "material_description": "", "unpublished": false, "external": false, "first_production_date": "1956-01-01T10:00:00+10:00", "commissioned": false, "public_domain": false, "external_references": [], "brief_description": "<p>Television commercial for Vincent&#8217;s powders and tablets. &#8216;Take Vincents powders and tablets with confidence for headache and all pain&#8217;.</p>", "constellations_primary": [], "constellations_other": [], "recommendations": [], "creator_credit_for_label": "", "headline_credit_for_label": "<p>Australia, 1956</p>", "title_for_label": "<p>Vincent&#8217;s powders and tablets [advertisement]</p>", "description": "<p>Television commercial for Vincent&#8217;s powders and tablets. &#8216;Take Vincents powders and tablets with confidence for headache and all pain&#8217;.</p>", "description_for_label": ["<p>Television commercial for Vincent&#8217;s powders and tablets. &#8216;Take Vincents powders and tablets with confidence for headache and all pain&#8217;.</p>"], "credit_line_for_label": "", "details": [{"label": "Duration", "display_values": ["00:00:11:00"]}, {"label": "Audience classification", "display_values": ["Mediatheque - all ages (ACMI classified)"]}, {"label": "Subject categories", "display_values": ["Advertising", "Advertising, Film, Journalism, Mass Media & TV&nbsp;→ Advertising", "Advertising, Film, Journalism, Mass Media & TV&nbsp;→ Television advertising", "Food, Health, Lifestyle, Medicine, Psychology & Safety&nbsp;→ Medicine"]}, {"label": "Sound/audio", "display_values": ["Sound"]}, {"label": "Colour", "display_values": ["Black and White"]}], "stats": {"tap_count": 0}, "links": [], "creators_primary": [], "creators_other": [], "media_note": null, "holdings": [{"name": "MOV file H264; ACMI Digital Access Copy - presentation", "identifier": "", "description": ""}], "part_of": null, "parts": [], "part_siblings": [], "group": null, "group_works": [], "group_siblings": [], "source": {"name": "Vernon", "slug": "vernon"}, "source_identifier": "151002", "eaas_environment_id": null, "production_places": [{"id": 3, "name": "Australia", "slug": "australia"}], "production_dates": [{"date": "1956", "notes": "", "to_year": "1956"}], "labels": [56217]}, {"id": 116722, "acmi_id": "B2001525", "title": "Vanguard Six [advertisement]", "title_annotation": "", "slug": "vanguard-six-advertisement", "creator_credit": "", "credit_line": "", "headline_credit": "Australia, 1961", "video_links": [], "record_type": "work", "type": "Film", "is_on_display": false, "last_on_display_place": "ACMI Viewing Booths", "last_on_display_date": "2019-04-22", "is_context_indigenous": false, "material_description": "", "unpublished": false, "external": false, "first_production_date": "1961-01-01T10:00:00+10:00", "commissioned": false, "public_domain": false, "external_references": [], "brief_description": "<p>Television commercial for the Vanguard Guard six, billed as &#8216;the complete car&#8217; and &#8216;proven in design and more powerful than ever&#8217;.</p>", "constellations_primary": [], "constellations_other": [], "recommendations": [], "creator_credit_for_label": "", "headline_credit_for_label": "<p>Australia, 1961</p>", "title_for_label": "<p>Vanguard Six [advertisement]</p>", "description": "<p>Television commercial for the Vanguard Guard six, billed as &#8216;the complete car&#8217; and &#8216;proven in design and more powerful than ever&#8217;.</p>", "description_for_label": ["<p>Television commercial for the Vanguard Guard six, billed as &#8216;the complete car&#8217; and &#8216;proven in design and more powerful than ever&#8217;.</p>"], "credit_line_for_label": "", "details": [{"label": "Duration", "display_values": ["00:00:28:00"]}, {"label": "Language", "display_values": ["English"]}, {"label": "Audience classification", "display_values": ["Mediatheque - all ages (ACMI classified)"]}, {"label": "Subject categories", "display_values": ["Advertising", "Advertising, Film, Journalism, Mass Media & TV&nbsp;→ Advertising", "Advertising, Film, Journalism, Mass Media & TV&nbsp;→ Television advertising", "Agriculture, Business, Commerce & Industry&nbsp;→ Automobile industry and trade", "Communications, Infrastructure, & Transport&nbsp;→ Automobile industry and trade"]}, {"label": "Sound/audio", "display_values": ["Sound"]}, {"label": "Colour", "display_values": ["Black and White"]}], "stats": {"tap_count": 0}, "links": [], "creators_primary": [], "creators_other": [], "media_note": null, "holdings": [{"name": "MOV file H264; ACMI Digital Access Copy - presentation", "identifier": "", "description": ""}], "part_of": null, "parts": [], "part_siblings": [], "group": null, "group_works": [], "group_siblings": [], "source": {"name": "Vernon", "slug": "vernon"}, "source_identifier": "151001", "eaas_environment_id": null, "production_places": [{"id": 3, "name": "Australia", "slug": "australia"}], "production_dates": [{"date": "1961", "notes": "", "to_year": "1961"}], "labels": [56216]}, {"id": 116721, "acmi_id": "B2001524", "title": "Australian tourism [advertisement]", "title_annotation": "", "slug": "australian-tourism-advertisement", "creator_credit": "Mojo MDA", "credit_line": "", "headline_credit": "Australia, 1984", "video_links": [], "record_type": "work", "type": "Film", "is_on_display": false, "last_on_display_place": "ACMI Viewing Booths", "last_on_display_date": "2019-04-22", "is_context_indigenous": false, "material_description": "", "unpublished": false, "external": false, "first_production_date": "1984-01-01T11:00:00+11:00", "commissioned": false, "public_domain": false, "external_references": [], "brief_description": "<p>Developed by Mojo MDA for the Australian Tourism Commission this advertisement was part of the &#8216;come and say g&#8217;day&#8217; campaign and features Paul Hogan in a range of locations across Australia. It also uses a range of Australian slang expressions including a play on the famous expression &#8216;put another prawn on the barbie&#8217;.</p>", "constellations_primary": [], "constellations_other": [], "recommendations": [], "creator_credit_for_label": "<p>Mojo MDA</p>", "headline_credit_for_label": "<p>Australia, 1984</p>", "title_for_label": "<p>Australian tourism [advertisement]</p>", "description": "<p>Developed by Mojo MDA for the Australian Tourism Commission this advertisement was part of the &#8216;come and say g&#8217;day&#8217; campaign and features Paul Hogan in a range of locations across Australia. It also uses a range of Australian slang expressions including a play on the famous expression &#8216;put another prawn on the barbie&#8217;.</p>", "description_for_label": ["<p>Developed by Mojo MDA for the Australian Tourism Commission this advertisement was part of the &#8216;come and say g&#8217;day&#8217; campaign and features Paul Hogan in a range of locations across Australia. It also uses a range of Australian slang expressions including a play on the famous expression &#8216;put another prawn on the barbie&#8217;.</p>"], "credit_line_for_label": "", "details": [{"label": "Duration", "display_values": ["00:01:01:00"]}, {"label": "Audience classification", "display_values": ["Mediatheque - all ages (ACMI classified)"]}, {"label": "Subject categories", "display_values": ["Advertising", "Advertising, Film, Journalism, Mass Media & TV&nbsp;→ Advertising", "Advertising, Film, Journalism, Mass Media & TV&nbsp;→ Television advertising", "Agriculture, Business, Commerce & Industry&nbsp;→ Tourism - Australia - Marketing", "Anthropology, Ethnology, Exploration & Travel&nbsp;→ Tourism", "Anthropology, Ethnology, Exploration & Travel&nbsp;→ Tourism - Australia", "Anthropology, Ethnology, Exploration & Travel&nbsp;→ Tourism - Australia - Marketing", "Anthropology, Ethnology, Exploration & Travel&nbsp;→ Tourist trade", "Anthropology, Ethnology, Exploration & Travel&nbsp;→ Tourist trade - Social aspects", "Economics, Philosophy, Politics, Religion & Sociology&nbsp;→ Tourist trade - Social aspects"]}, {"label": "Sound/audio", "display_values": ["Sound"]}, {"label": "Colour", "display_values": ["Colour"]}], "stats": {"tap_count": 2}, "links": [], "creators_primary": [{"id": 2104739, "name": "Mojo MDA", "creator_id": 83486, "creator_wikidata_id": null, "role": "creator", "role_id": 968, "is_primary": true}], "creators_other": [{"id": 2104741, "name": "Tourism Australia", "creator_id": 12747, "creator_wikidata_id": "Q121299256", "role": "commissioning agent", "role_id": 485, "is_primary": false}], "media_note": null, "holdings": [{"name": "MOV file H264; ACMI Digital Access Copy - presentation", "identifier": "", "description": ""}], "part_of": null, "parts": [], "part_siblings": [], "group": null, "group_works": [], "group_siblings": [], "source": {"name": "Vernon", "slug": "vernon"}, "source_identifier": "151000", "eaas_environment_id": null, "production_places": [{"id": 3, "name": "Australia", "slug": "australia"}], "production_dates": [{"date": "1984", "notes": "", "to_year": "1984"}], "labels": [56215]}, {"id": 116720, "acmi_id": "B2001523", "title": "Meadow Lea margarine [advertisement]", "title_annotation": "", "slug": "meadow-lea-margarine-advertisement", "creator_credit": "", "credit_line": "", "headline_credit": "Australia, 1985", "video_links": [], "record_type": "work", "type": "Film", "is_on_display": false, "last_on_display_place": "ACMI Viewing Booths", "last_on_display_date": "2019-04-22", "is_context_indigenous": false, "material_description": "", "unpublished": false, "external": false, "first_production_date": "1985-01-01T11:00:00+11:00", "commissioned": false, "public_domain": false, "external_references": [], "brief_description": "<p>A classic commercial for margarine that put the line &#8216;you ought to be congratulated&#8217; into all our heads.</p>", "constellations_primary": [], "constellations_other": [], "recommendations": [], "creator_credit_for_label": "", "headline_credit_for_label": "<p>Australia, 1985</p>", "title_for_label": "<p>Meadow Lea margarine [advertisement]</p>", "description": "<p>A classic commercial for margarine that put the line &#8216;you ought to be congratulated&#8217; into all our heads.</p>", "description_for_label": ["<p>A classic commercial for margarine that put the line &#8216;you ought to be congratulated&#8217; into all our heads.</p>"], "credit_line_for_label": "", "details": [{"label": "Duration", "display_values": ["00:00:59:00"]}, {"label": "Audience classification", "display_values": ["Mediatheque - all ages (ACMI classified)"]}, {"label": "Subject categories", "display_values": ["Advertising", "Advertising, Film, Journalism, Mass Media & TV&nbsp;→ Advertising", "Advertising, Film, Journalism, Mass Media & TV&nbsp;→ Television advertising", "Agriculture, Business, Commerce & Industry&nbsp;→ Food industry and trade - Australia"]}, {"label": "Sound/audio", "display_values": ["Sound"]}, {"label": "Colour", "display_values": ["Colour"]}], "stats": {"tap_count": 1}, "links": [], "creators_primary": [], "creators_other": [], "media_note": null, "holdings": [{"name": "MOV file H264; ACMI Digital Access Copy - presentation", "identifier": "", "description": ""}], "part_of": null, "parts": [], "part_siblings": [], "group": null, "group_works": [], "group_siblings": [], "source": {"name": "Vernon", "slug": "vernon"}, "source_identifier": "150999", "eaas_environment_id": null, "production_places": [{"id": 3, "name": "Australia", "slug": "australia"}], "production_dates": [{"date": "1985", "notes": "", "to_year": "1985"}], "labels": [56214]}, {"id": 116719, "acmi_id": "B2001522", "title": "Mortein: Louie the fly [advertisement]", "title_annotation": "", "slug": "mortein-louie-the-fly-advertisement", "creator_credit": "Mojo MDA", "credit_line": "", "headline_credit": "Australia, 1986", "video_links": [], "record_type": "work", "type": "Film", "is_on_display": false, "last_on_display_place": "ACMI Viewing Booths", "last_on_display_date": "2019-04-22", "is_context_indigenous": false, "material_description": "", "unpublished": false, "external": false, "first_production_date": "1986-01-01T11:00:00+11:00", "commissioned": false, "public_domain": false, "external_references": [], "brief_description": "<p>The return of Mortein&#8217;s highly successful character, Louie the fly, who first appeared on Australian television in 1957.<br />\nProduced by Mojo MDA.</p>", "constellations_primary": [], "constellations_other": [], "recommendations": [], "creator_credit_for_label": "<p>Mojo MDA</p>", "headline_credit_for_label": "<p>Australia, 1986</p>", "title_for_label": "<p>Mortein: Louie the fly [advertisement]</p>", "description": "<p>The return of Mortein&#8217;s highly successful character, Louie the fly, who first appeared on Australian television in 1957.<br />\nProduced by Mojo MDA.</p>", "description_for_label": ["<p>The return of Mortein&#8217;s highly successful character, Louie the fly, who first appeared on Australian television in 1957.<br />\nProduced by Mojo MDA.</p>"], "credit_line_for_label": "", "details": [{"label": "Duration", "display_values": ["00:01:00:00"]}, {"label": "Audience classification", "display_values": ["Mediatheque - all ages (ACMI classified)"]}, {"label": "Subject categories", "display_values": ["Advertising", "Advertising, Film, Journalism, Mass Media & TV&nbsp;→ Advertising", "Advertising, Film, Journalism, Mass Media & TV&nbsp;→ Television advertising", "Agriculture, Business, Commerce & Industry&nbsp;→ Pest control", "Climate, Environment, Natural Resources & Disasters&nbsp;→ Pest control"]}, {"label": "Sound/audio", "display_values": ["Sound"]}, {"label": "Colour", "display_values": ["Colour"]}], "stats": {"tap_count": 1}, "links": [], "creators_primary": [{"id": 2044265, "name": "Mojo MDA", "creator_id": 83486, "creator_wikidata_id": null, "role": "creator", "role_id": 968, "is_primary": true}], "creators_other": [], "media_note": null, "holdings": [{"name": "MOV file H264; ACMI Digital Access Copy - presentation", "identifier": "", "description": ""}], "part_of": null, "parts": [], "part_siblings": [], "group": null, "group_works": [], "group_siblings": [], "source": {"name": "Vernon", "slug": "vernon"}, "source_identifier": "150998", "eaas_environment_id": null, "production_places": [{"id": 3, "name": "Australia", "slug": "australia"}], "production_dates": [{"date": "1986", "notes": "", "to_year": "1986"}], "labels": [56213]}, {"id": 116718, "acmi_id": "B2001521", "title": "Decore shampoo [advertisement]", "title_annotation": "", "slug": "decore-shampoo-advertisement", "creator_credit": "", "credit_line": "", "headline_credit": "Australia, 1986", "video_links": [], "record_type": "work", "type": "Film", "is_on_display": false, "last_on_display_place": "ACMI Viewing Booths", "last_on_display_date": "2019-04-22", "is_context_indigenous": false, "material_description": "", "unpublished": false, "external": false, "first_production_date": "1986-01-01T11:00:00+11:00", "commissioned": false, "public_domain": false, "external_references": [], "brief_description": "<p>Shampoo commercial with featuring &#8216;everyday&#8217; people singing a song based on the &#8216;Duke of Earl&#8217; tune by Gene Chandler.</p>", "constellations_primary": [], "constellations_other": [], "recommendations": [], "creator_credit_for_label": "", "headline_credit_for_label": "<p>Australia, 1986</p>", "title_for_label": "<p>Decore shampoo [advertisement]</p>", "description": "<p>Shampoo commercial with featuring &#8216;everyday&#8217; people singing a song based on the &#8216;Duke of Earl&#8217; tune by Gene Chandler.</p>", "description_for_label": ["<p>Shampoo commercial with featuring &#8216;everyday&#8217; people singing a song based on the &#8216;Duke of Earl&#8217; tune by Gene Chandler.</p>"], "credit_line_for_label": "", "details": [{"label": "Duration", "display_values": ["00:01:01:00"]}, {"label": "Audience classification", "display_values": ["Mediatheque - all ages (ACMI classified)"]}, {"label": "Subject categories", "display_values": ["Advertising", "Advertising, Film, Journalism, Mass Media & TV&nbsp;→ Advertising", "Advertising, Film, Journalism, Mass Media & TV&nbsp;→ Television advertising", "Food, Health, Lifestyle, Medicine, Psychology & Safety&nbsp;→ Hair - Care and hygiene"]}, {"label": "Sound/audio", "display_values": ["Sound"]}, {"label": "Colour", "display_values": ["Colour"]}], "stats": {"tap_count": 1}, "links": [], "creators_primary": [], "creators_other": [], "media_note": null, "holdings": [{"name": "MOV file H264; ACMI Digital Access Copy - presentation", "identifier": "", "description": ""}], "part_of": null, "parts": [], "part_siblings": [], "group": null, "group_works": [], "group_siblings": [], "source": {"name": "Vernon", "slug": "vernon"}, "source_identifier": "150995", "eaas_environment_id": null, "production_places": [{"id": 3, "name": "Australia", "slug": "australia"}], "production_dates": [{"date": "1986", "notes": "", "to_year": "1986"}], "labels": [56212]}, {"id": 116717, "acmi_id": "B2001520", "title": "Caltex [advertisement]", "title_annotation": "", "slug": "caltex-advertisement", "creator_credit": "", "credit_line": "", "headline_credit": "Australia, 1959", "video_links": [], "record_type": "work", "type": "Film", "is_on_display": false, "last_on_display_place": "ACMI Viewing Booths", "last_on_display_date": "2019-04-22", "is_context_indigenous": false, "material_description": "", "unpublished": false, "external": false, "first_production_date": "1959-01-01T10:00:00+10:00", "commissioned": false, "public_domain": false, "external_references": [], "brief_description": "<p>An advertisement for Caltex petroleum products featuring British actress Sabrina (Norma Ann Sykes) as the customer and John Sherwood as the service station attendant. Filmed on location in Manly.</p>", "constellations_primary": [], "constellations_other": [], "recommendations": [], "creator_credit_for_label": "", "headline_credit_for_label": "<p>Australia, 1959</p>", "title_for_label": "<p>Caltex [advertisement]</p>", "description": "<p>An advertisement for Caltex petroleum products featuring British actress Sabrina (Norma Ann Sykes) as the customer and John Sherwood as the service station attendant. Filmed on location in Manly.</p>", "description_for_label": ["<p>An advertisement for Caltex petroleum products featuring British actress Sabrina (Norma Ann Sykes) as the customer and John Sherwood as the service station attendant. Filmed on location in Manly.</p>"], "credit_line_for_label": "", "details": [{"label": "Duration", "display_values": ["00:01:42:00"]}, {"label": "Audience classification", "display_values": ["Mediatheque - all ages (ACMI classified)"]}, {"label": "Subject categories", "display_values": ["Advertising", "Advertising, Film, Journalism, Mass Media & TV&nbsp;→ Advertising", "Advertising, Film, Journalism, Mass Media & TV&nbsp;→ Television advertising", "Agriculture, Business, Commerce & Industry&nbsp;→ Petroleum", "Agriculture, Business, Commerce & Industry&nbsp;→ Petroleum industry and trade", "Agriculture, Business, Commerce & Industry&nbsp;→ Petroleum products", "Climate, Environment, Natural Resources & Disasters&nbsp;→ Petroleum products"]}, {"label": "Sound/audio", "display_values": ["Sound"]}, {"label": "Colour", "display_values": ["Black and White"]}], "stats": {"tap_count": 0}, "links": [], "creators_primary": [], "creators_other": [], "media_note": null, "holdings": [{"name": "MOV file H264; ACMI Digital Access Copy - presentation", "identifier": "", "description": ""}], "part_of": null, "parts": [], "part_siblings": [], "group": null, "group_works": [], "group_siblings": [], "source": {"name": "Vernon", "slug": "vernon"}, "source_identifier": "150993", "eaas_environment_id": null, "production_places": [{"id": 3, "name": "Australia", "slug": "australia"}], "production_dates": [{"date": "1959", "notes": "", "to_year": "1959"}], "labels": [56211]}, {"id": 116716, "acmi_id": "B2001519", "title": "Brylcreem [advertisement]", "title_annotation": "", "slug": "brylcreem-advertisement", "creator_credit": "", "credit_line": "", "headline_credit": "Australia, 1950s", "video_links": [], "record_type": "work", "type": "Film", "is_on_display": false, "last_on_display_place": "ACMI Viewing Booths", "last_on_display_date": "2019-04-22", "is_context_indigenous": false, "material_description": "", "unpublished": false, "external": false, "first_production_date": null, "commissioned": false, "public_domain": false, "external_references": [], "brief_description": "<p>A short animated advertisement for hair product Brylcreem.</p>", "constellations_primary": [], "constellations_other": [], "recommendations": [], "creator_credit_for_label": "", "headline_credit_for_label": "<p>Australia, 1950s</p>", "title_for_label": "<p>Brylcreem [advertisement]</p>", "description": "<p>A short animated advertisement for hair product Brylcreem.</p>", "description_for_label": ["<p>A short animated advertisement for hair product Brylcreem.</p>"], "credit_line_for_label": "", "details": [{"label": "Duration", "display_values": ["00:00:09:00"]}, {"label": "Audience classification", "display_values": ["Mediatheque - all ages (ACMI classified)"]}, {"label": "Subject categories", "display_values": ["Advertising", "Advertising, Film, Journalism, Mass Media & TV&nbsp;→ Advertising", "Advertising, Film, Journalism, Mass Media & TV&nbsp;→ Television advertising", "Food, Health, Lifestyle, Medicine, Psychology & Safety&nbsp;→ Hair - Care and hygiene"]}, {"label": "Sound/audio", "display_values": ["Sound"]}, {"label": "Colour", "display_values": ["Black and White"]}], "stats": {"tap_count": 1}, "links": [], "creators_primary": [], "creators_other": [], "media_note": null, "holdings": [{"name": "MOV file H264; ACMI Digital Access Copy - presentation", "identifier": "", "description": ""}], "part_of": null, "parts": [], "part_siblings": [], "group": null, "group_works": [], "group_siblings": [], "source": {"name": "Vernon", "slug": "vernon"}, "source_identifier": "150991", "eaas_environment_id": null, "production_places": [{"id": 3, "name": "Australia", "slug": "australia"}], "production_dates": [{"date": "1950s", "notes": "", "to_year": "1950s"}], "labels": [56210]}]}