{"count": 41723, "next": "https://api.acmi.net.au/works/?page=1405", "previous": "https://api.acmi.net.au/works/?page=1403", "results": [{"id": 108921, "acmi_id": "B1005401", "title": "Sleep milanke", "title_annotation": "", "slug": "sleep-milanke", "creator_credit": "Anastasia Malishev", "credit_line": "", "headline_credit": "", "video_links": [], "record_type": "work", "type": "Film", "is_on_display": false, "last_on_display_place": null, "last_on_display_date": null, "is_context_indigenous": false, "material_description": "", "unpublished": false, "external": false, "first_production_date": null, "commissioned": false, "public_domain": false, "external_references": [], "brief_description": "", "constellations_primary": [], "constellations_other": [], "recommendations": [], "creator_credit_for_label": "<p>Anastasia Malishev</p>", "headline_credit_for_label": "", "title_for_label": "<p>Sleep milanke</p>", "description": "", "description_for_label": [], "credit_line_for_label": "", "details": [], "stats": {"tap_count": 0}, "links": [], "creators_primary": [{"id": 2710409, "name": "Anastasia Malishev", "creator_id": 9005, "creator_wikidata_id": null, "role": "creator", "role_id": 968, "is_primary": true}], "creators_other": [], "media_note": "Sorry, we don't have images or video for this item.", "holdings": [{"name": "VHS [PAL]; Reference - timecoded", "identifier": "", "description": ""}], "part_of": null, "parts": [], "part_siblings": [], "group": null, "group_works": [], "group_siblings": [], "source": {"name": "Vernon", "slug": "vernon"}, "source_identifier": "2234", "eaas_environment_id": null, "production_places": [], "production_dates": [], "labels": [48414]}, {"id": 108920, "acmi_id": "B1005400", "title": "Journey", "title_annotation": "", "slug": "journey", "creator_credit": "Anastasia Malishev", "credit_line": "", "headline_credit": "", "video_links": [], "record_type": "work", "type": "Film", "is_on_display": false, "last_on_display_place": null, "last_on_display_date": null, "is_context_indigenous": false, "material_description": "", "unpublished": false, "external": false, "first_production_date": null, "commissioned": false, "public_domain": false, "external_references": [], "brief_description": "", "constellations_primary": [], "constellations_other": [], "recommendations": [], "creator_credit_for_label": "<p>Anastasia Malishev</p>", "headline_credit_for_label": "", "title_for_label": "<p>Journey</p>", "description": "", "description_for_label": [], "credit_line_for_label": "", "details": [], "stats": {"tap_count": 0}, "links": [], "creators_primary": [{"id": 2710407, "name": "Anastasia Malishev", "creator_id": 9005, "creator_wikidata_id": null, "role": "creator", "role_id": 968, "is_primary": true}], "creators_other": [], "media_note": "Sorry, we don't have images or video for this item.", "holdings": [{"name": "VHS [PAL]; Reference - timecoded", "identifier": "", "description": ""}], "part_of": null, "parts": [], "part_siblings": [], "group": null, "group_works": [], "group_siblings": [], "source": {"name": "Vernon", "slug": "vernon"}, "source_identifier": "2233", "eaas_environment_id": null, "production_places": [], "production_dates": [], "labels": [48413]}, {"id": 108919, "acmi_id": "B1005398", "title": "Anastasia Malishev showreel", "title_annotation": "", "slug": "anastasia-malishev-showreel", "creator_credit": "Anastasia Malishev", "credit_line": "", "headline_credit": "", "video_links": [], "record_type": "group", "type": "Film", "is_on_display": false, "last_on_display_place": null, "last_on_display_date": null, "is_context_indigenous": false, "material_description": "", "unpublished": false, "external": false, "first_production_date": null, "commissioned": false, "public_domain": false, "external_references": [], "brief_description": "", "constellations_primary": [], "constellations_other": [], "recommendations": [], "creator_credit_for_label": "<p>Anastasia Malishev</p>", "headline_credit_for_label": "", "title_for_label": "<p>Anastasia Malishev showreel</p>", "description": "", "description_for_label": [], "credit_line_for_label": "", "details": [], "stats": {"tap_count": 0}, "links": [], "creators_primary": [{"id": 2710404, "name": "Anastasia Malishev", "creator_id": 9005, "creator_wikidata_id": null, "role": "creator", "role_id": 968, "is_primary": true}], "creators_other": [], "media_note": "Sorry, we don't have images or video for this item.", "holdings": [{"name": "VHS [PAL]; Reference - timecoded", "identifier": "", "description": ""}], "part_of": null, "parts": [], "part_siblings": [], "group": null, "group_works": [{"id": 108918, "acmi_id": "B1005399", "title": "Good vs evil", "title_annotation": "", "slug": "good-vs-evil", "creator_credit": "Anastasia Malishev", "credit_line": "", "headline_credit": "", "video_links": [], "record_type": "work", "type": "Film", "is_on_display": false, "last_on_display_place": null, "last_on_display_date": null, "is_context_indigenous": false, "material_description": "", "unpublished": false, "external": false, "first_production_date": null, "commissioned": false, "public_domain": false, "external_references": []}], "group_siblings": [], "source": {"name": "Vernon", "slug": "vernon"}, "source_identifier": "2231", "eaas_environment_id": null, "production_places": [], "production_dates": [], "labels": [48412]}, {"id": 108937, "acmi_id": "B1005443", "title": "Melbourne", "title_annotation": "", "slug": "melbourne", "creator_credit": "", "credit_line": "", "headline_credit": "Australia", "video_links": [], "record_type": "work", "type": "Film", "is_on_display": false, "last_on_display_place": null, "last_on_display_date": null, "is_context_indigenous": false, "material_description": "", "unpublished": false, "external": false, "first_production_date": null, "commissioned": false, "public_domain": false, "external_references": [], "brief_description": "<p>Unedited footage of Melbourne including people relaxing in a &#8216;garden&#8217; in the city. Odd moment halfway through where an Aboriginal man (Jagajaga?) signs his name on an official-looking document</p>\n<p>Contains an excellent &#8216;The End&#8217; that features a watercolour image of Melbourne city overlooking the Yarra and towards St. Paul&#8217;s Cathederal.</p>", "constellations_primary": [], "constellations_other": [], "recommendations": [], "creator_credit_for_label": "", "headline_credit_for_label": "<p>Australia</p>", "title_for_label": "<p>Melbourne</p>", "description": "<p>Unedited footage of Melbourne including people relaxing in a &#8216;garden&#8217; in the city. Odd moment halfway through where an Aboriginal man (Jagajaga?) signs his name on an official-looking document</p>\n<p>Contains an excellent &#8216;The End&#8217; that features a watercolour image of Melbourne city overlooking the Yarra and towards St. Paul&#8217;s Cathederal.</p>", "description_for_label": ["<p>Unedited footage of Melbourne including people relaxing in a &#8216;garden&#8217; in the city. Odd moment halfway through where an Aboriginal man (Jagajaga?) signs his name on an official-looking document</p>\n<p>Contains an excellent &#8216;The End&#8217; that features a watercolour image of Melbourne city overlooking the Yarra and towards St. Paul&#8217;s Cathederal.</p>"], "credit_line_for_label": "", "details": [{"label": "Language", "display_values": ["English"]}, {"label": "Audience classification", "display_values": ["Exempt"]}], "stats": {"tap_count": 0}, "links": [], "creators_primary": [], "creators_other": [], "media_note": "Sorry, we don't have images or video for this item.", "holdings": [{"name": "16mm film; Copy", "identifier": "", "description": ""}], "part_of": null, "parts": [], "part_siblings": [], "group": null, "group_works": [], "group_siblings": [], "source": {"name": "Vernon", "slug": "vernon"}, "source_identifier": "2268", "eaas_environment_id": null, "production_places": [{"id": 3, "name": "Australia", "slug": "australia"}], "production_dates": [], "labels": [48430]}, {"id": 108918, "acmi_id": "B1005399", "title": "Good vs evil", "title_annotation": "", "slug": "good-vs-evil", "creator_credit": "Anastasia Malishev", "credit_line": "", "headline_credit": "", "video_links": [], "record_type": "work", "type": "Film", "is_on_display": false, "last_on_display_place": null, "last_on_display_date": null, "is_context_indigenous": false, "material_description": "", "unpublished": false, "external": false, "first_production_date": null, "commissioned": false, "public_domain": false, "external_references": [], "brief_description": "", "constellations_primary": [], "constellations_other": [], "recommendations": [], "creator_credit_for_label": "<p>Anastasia Malishev</p>", "headline_credit_for_label": "", "title_for_label": "<p>Good vs evil</p>", "description": "", "description_for_label": [], "credit_line_for_label": "", "details": [], "stats": {"tap_count": 0}, "links": [], "creators_primary": [{"id": 2710395, "name": "Anastasia Malishev", "creator_id": 9005, "creator_wikidata_id": null, "role": "creator", "role_id": 968, "is_primary": true}], "creators_other": [], "media_note": "Sorry, we don't have images or video for this item.", "holdings": [{"name": "VHS [PAL]; Reference - timecoded", "identifier": "", "description": ""}], "part_of": null, "parts": [], "part_siblings": [], "group": {"id": 108919, "acmi_id": "B1005398", "title": "Anastasia Malishev showreel", "title_annotation": "", "slug": "anastasia-malishev-showreel", "creator_credit": "Anastasia Malishev", "credit_line": "", "headline_credit": "", "video_links": [], "record_type": "group", "type": "Film", "is_on_display": false, "last_on_display_place": null, "last_on_display_date": null, "is_context_indigenous": false, "material_description": "", "unpublished": false, "external": false, "first_production_date": null, "commissioned": false, "public_domain": false, "external_references": []}, "group_works": [], "group_siblings": [], "source": {"name": "Vernon", "slug": "vernon"}, "source_identifier": "2232", "eaas_environment_id": null, "production_places": [], "production_dates": [], "labels": [48411]}, {"id": 108914, "acmi_id": "B1005394", "title": "Cinemedia copyright workshop", "title_annotation": "", "slug": "cinemedia-copyright-workshop", "creator_credit": "ACMI", "credit_line": "", "headline_credit": "03 JUL 1998", "video_links": [], "record_type": "work", "type": "Film", "is_on_display": false, "last_on_display_place": null, "last_on_display_date": null, "is_context_indigenous": false, "material_description": "", "unpublished": false, "external": false, "first_production_date": null, "commissioned": false, "public_domain": false, "external_references": [], "brief_description": "", "constellations_primary": [], "constellations_other": [], "recommendations": [], "creator_credit_for_label": "<p>ACMI</p>", "headline_credit_for_label": "<p>03 JUL 1998</p>", "title_for_label": "<p>Cinemedia copyright workshop</p>", "description": "", "description_for_label": [], "credit_line_for_label": "", "details": [], "stats": {"tap_count": 0}, "links": [], "creators_primary": [{"id": 2710393, "name": "ACMI", "creator_id": 6272, "creator_wikidata_id": null, "role": "creator", "role_id": 968, "is_primary": true}], "creators_other": [], "media_note": "Sorry, we don't have images or video for this item.", "holdings": [{"name": "VHS [PAL]; Reference - timecoded", "identifier": "", "description": ""}], "part_of": null, "parts": [], "part_siblings": [], "group": null, "group_works": [], "group_siblings": [], "source": {"name": "Vernon", "slug": "vernon"}, "source_identifier": "2227", "eaas_environment_id": null, "production_places": [], "production_dates": [{"date": "03 JUL 1998", "notes": "", "to_year": "03 JUL 1998"}], "labels": [48407]}, {"id": 108262, "acmi_id": "B1001984", "title": "Cinema", "title_annotation": "", "slug": "cinema", "creator_credit": "Sebastian Schroeder", "credit_line": "", "headline_credit": "Switzerland, 1973", "video_links": [], "record_type": "work", "type": "Film", "is_on_display": false, "last_on_display_place": null, "last_on_display_date": null, "is_context_indigenous": false, "material_description": "", "unpublished": false, "external": false, "first_production_date": "1973-01-01T11:00:00+11:00", "commissioned": false, "public_domain": false, "external_references": [], "brief_description": "<p>Sebastian C. Schroeder&#8217;s sublime 1973 film &#8216;Cinema&#8217;, takes the physicality of film itself as a site of transformation, as celluloid itself metamorphoses into a magical realm for a group of Afghani children.</p>", "constellations_primary": [], "constellations_other": [], "recommendations": [], "creator_credit_for_label": "<p>Sebastian Schroeder</p>", "headline_credit_for_label": "<p>Switzerland, 1973</p>", "title_for_label": "<p>Cinema</p>", "description": "<p>Sebastian C. Schroeder&#8217;s sublime 1973 film &#8216;Cinema&#8217;, takes the physicality of film itself as a site of transformation, as celluloid itself metamorphoses into a magical realm for a group of Afghani children.</p>", "description_for_label": ["<p>Sebastian C. Schroeder&#8217;s sublime 1973 film &#8216;Cinema&#8217;, takes the physicality of film itself as a site of transformation, as celluloid itself metamorphoses into a magical realm for a group of Afghani children.</p>"], "credit_line_for_label": "", "details": [{"label": "Subject categories", "display_values": ["Short films", "Short films&nbsp;→ Short films - Switzerland"]}], "stats": {"tap_count": 0}, "links": [], "creators_primary": [{"id": 2710386, "name": "Sebastian Schroeder", "creator_id": 7141, "creator_wikidata_id": null, "role": "director", "role_id": 938, "is_primary": true}], "creators_other": [], "media_note": "Sorry, we don't have images or video for this item.", "holdings": [{"name": "Mini DV; Master", "identifier": "", "description": ""}, {"name": "VHS [PAL]; Reference - timecoded", "identifier": "", "description": ""}], "part_of": null, "parts": [], "part_siblings": [], "group": null, "group_works": [], "group_siblings": [], "source": {"name": "Vernon", "slug": "vernon"}, "source_identifier": "525", "eaas_environment_id": null, "production_places": [{"id": 26, "name": "Switzerland", "slug": "switzerland"}], "production_dates": [{"date": "1973", "notes": "", "to_year": "1973"}], "labels": [47755]}, {"id": 108268, "acmi_id": "B1002009", "title": "Tidal vectors", "title_annotation": "", "slug": "tidal-vectors", "creator_credit": "James McGrath and Nicole Ellis", "credit_line": "", "headline_credit": "Australia, 2000", "video_links": [], "record_type": "work", "type": "Film", "is_on_display": false, "last_on_display_place": null, "last_on_display_date": null, "is_context_indigenous": false, "material_description": "", "unpublished": false, "external": false, "first_production_date": "2000-01-01T11:00:00+11:00", "commissioned": false, "public_domain": false, "external_references": [], "brief_description": "<p>&#8216;Tidal Vectors&#8217; is a 3D digital installation of the dynamic shape and motion of Sydney Harbour composed from scientific data of depth soundings and tidal flow vectors. Elements of marine geography and historical reference relating to the harbour are layered to create a poetic metaphor for Sydney and the broader Australian Culture.</p>", "constellations_primary": [], "constellations_other": [], "recommendations": [], "creator_credit_for_label": "<p>James McGrath and Nicole Ellis</p>", "headline_credit_for_label": "<p>Australia, 2000</p>", "title_for_label": "<p>Tidal vectors</p>", "description": "<p>&#8216;Tidal Vectors&#8217; is a 3D digital installation of the dynamic shape and motion of Sydney Harbour composed from scientific data of depth soundings and tidal flow vectors. Elements of marine geography and historical reference relating to the harbour are layered to create a poetic metaphor for Sydney and the broader Australian Culture.</p>", "description_for_label": ["<p>&#8216;Tidal Vectors&#8217; is a 3D digital installation of the dynamic shape and motion of Sydney Harbour composed from scientific data of depth soundings and tidal flow vectors. Elements of marine geography and historical reference relating to the harbour are layered to create a poetic metaphor for Sydney and the broader Australian Culture.</p>"], "credit_line_for_label": "", "details": [{"label": "Subject categories", "display_values": ["Animation", "Animation&nbsp;→ Computer animation&nbsp;→ 3-D computer animation"]}], "stats": {"tap_count": 0}, "links": [], "creators_primary": [{"id": 2710390, "name": "James McGrath", "creator_id": 7154, "creator_wikidata_id": null, "role": "creator", "role_id": 968, "is_primary": true}, {"id": 2710383, "name": "Nicole Ellis", "creator_id": 7153, "creator_wikidata_id": null, "role": "creator", "role_id": 968, "is_primary": true}], "creators_other": [{"id": 2710392, "name": "James McGrath", "creator_id": 7154, "creator_wikidata_id": null, "role": "collaborator", "role_id": 536, "is_primary": false}, {"id": 2710388, "name": "Nicole Ellis", "creator_id": 7153, "creator_wikidata_id": null, "role": "collaborator", "role_id": 536, "is_primary": false}], "media_note": "Sorry, we don't have images or video for this item.", "holdings": [{"name": "Digital Betacam [PAL]; Master", "identifier": "", "description": ""}, {"name": "DVD ROM; Copy", "identifier": "", "description": ""}, {"name": "Digital Betacam [PAL]; Sub-master", "identifier": "", "description": ""}, {"name": "VHS [PAL]; Reference - timecoded", "identifier": "", "description": ""}], "part_of": null, "parts": [], "part_siblings": [], "group": null, "group_works": [], "group_siblings": [], "source": {"name": "Vernon", "slug": "vernon"}, "source_identifier": "545", "eaas_environment_id": null, "production_places": [{"id": 3, "name": "Australia", "slug": "australia"}], "production_dates": [{"date": "2000", "notes": "", "to_year": "2000"}], "labels": [47761]}, {"id": 108261, "acmi_id": "B1001983", "title": "Orpheus", "title_annotation": "", "slug": "orpheus", "creator_credit": "Jean Cocteau", "credit_line": "", "headline_credit": "France, 1949", "video_links": [], "record_type": "work", "type": "Film", "is_on_display": false, "last_on_display_place": null, "last_on_display_date": null, "is_context_indigenous": false, "material_description": "", "unpublished": false, "external": false, "first_production_date": "1949-01-01T10:00:00+10:00", "commissioned": false, "public_domain": false, "external_references": [], "brief_description": "", "constellations_primary": [], "constellations_other": [], "recommendations": [], "creator_credit_for_label": "<p>Jean Cocteau</p>", "headline_credit_for_label": "<p>France, 1949</p>", "title_for_label": "<p>Orpheus</p>", "description": "", "description_for_label": [], "credit_line_for_label": "", "details": [{"label": "Languages", "display_values": ["English", "French"]}, {"label": "Audience classification", "display_values": ["PG"]}, {"label": "Subject categories", "display_values": ["Crafts & Visual Arts&nbsp;→ Surrealism", "Experimental", "Experimental&nbsp;→ Experimental films - France", "Feature films", "Feature films&nbsp;→ Feature films - France", "Foreign language films", "History&nbsp;→ Orpheus", "Literature&nbsp;→ Orpheus"]}], "stats": {"tap_count": 0}, "links": [], "creators_primary": [{"id": 2710382, "name": "Jean Cocteau", "creator_id": 7140, "creator_wikidata_id": "Q83158", "role": "director", "role_id": 938, "is_primary": true}, {"id": 2710380, "name": "Jean Cocteau", "creator_id": 7140, "creator_wikidata_id": "Q83158", "role": "creator", "role_id": 968, "is_primary": true}], "creators_other": [], "media_note": "Sorry, we don't have images or video for this item.", "holdings": [{"name": "DVD [PAL]; Master", "identifier": "", "description": ""}, {"name": "DVD ROM; Copy", "identifier": "", "description": ""}], "part_of": null, "parts": [], "part_siblings": [], "group": null, "group_works": [], "group_siblings": [], "source": {"name": "Vernon", "slug": "vernon"}, "source_identifier": "524", "eaas_environment_id": null, "production_places": [{"id": 17, "name": "France", "slug": "france"}], "production_dates": [{"date": "1949", "notes": "", "to_year": "1949"}], "labels": [47754]}, {"id": 113988, "acmi_id": "B1001977", "title": "Free radicals", "title_annotation": "", "slug": "free-radicals", "creator_credit": "Len Lye", "credit_line": "", "headline_credit": "United States, 1979", "video_links": [], "record_type": "work", "type": "Film", "is_on_display": false, "last_on_display_place": null, "last_on_display_date": null, "is_context_indigenous": false, "material_description": "", "unpublished": false, "external": false, "first_production_date": "1979-01-01T11:00:00+11:00", "commissioned": false, "public_domain": false, "external_references": [], "brief_description": "<p>A primitive kinetic dance of white lines and angles meticulously scratched onto black and white film over an 8 month period and then edited and retrospectively matched with an African field tape of the Bagirmi tribe. The title is a reference to modern physics, &#8216;free radicals&#8217; being particles of energy. The original version was a major award winner at the Experimental Film Competition at the 1958 Brussels World Fair. This revised version was a reworking of the<br />\noriginal by Lye in 1979, with financial assistance from<br />\nthe New Zealand Film Commission. He deleted approximately 1 min. from his first version, made in 1958.</p>", "constellations_primary": [], "constellations_other": [], "recommendations": [], "creator_credit_for_label": "<p>Len Lye</p>", "headline_credit_for_label": "<p>United States, 1979</p>", "title_for_label": "<p>Free radicals</p>", "description": "<p>A primitive kinetic dance of white lines and angles meticulously scratched onto black and white film over an 8 month period and then edited and retrospectively matched with an African field tape of the Bagirmi tribe. The title is a reference to modern physics, &#8216;free radicals&#8217; being particles of energy. The original version was a major award winner at the Experimental Film Competition at the 1958 Brussels World Fair. This revised version was a reworking of the<br />\noriginal by Lye in 1979, with financial assistance from<br />\nthe New Zealand Film Commission. He deleted approximately 1 min. from his first version, made in 1958.</p>", "description_for_label": ["<p>A primitive kinetic dance of white lines and angles meticulously scratched onto black and white film over an 8 month period and then edited and retrospectively matched with an African field tape of the Bagirmi tribe. The title is a reference to modern physics, &#8216;free radicals&#8217; being particles of energy. The original version was a major award winner at the Experimental Film Competition at the 1958 Brussels World Fair. This revised version was a reworking of the<br />\noriginal by Lye in 1979, with financial assistance from<br />\nthe New Zealand Film Commission. He deleted approximately 1 min. from his first version, made in 1958.</p>"], "credit_line_for_label": "", "details": [{"label": "Language", "display_values": ["No spoken word"]}, {"label": "Audience classification", "display_values": ["unclassified"]}, {"label": "Subject categories", "display_values": ["Animation", "Animation&nbsp;→ Cameraless animation", "Experimental", "Short films", "Short films&nbsp;→ Short films - United States"]}], "stats": {"tap_count": 0}, "links": [], "creators_primary": [{"id": 2710377, "name": "Len Lye", "creator_id": 71783, "creator_wikidata_id": "Q1288566", "role": "creator", "role_id": 968, "is_primary": true}], "creators_other": [{"id": 2710379, "name": "Len Lye", "creator_id": 71783, "creator_wikidata_id": "Q1288566", "role": "animator", "role_id": 497, "is_primary": false}, {"id": 2710378, "name": "Len Lye", "creator_id": 71783, "creator_wikidata_id": "Q1288566", "role": "film maker", "role_id": 459, "is_primary": false}], "media_note": "Sorry, we don't have images or video for this item.", "holdings": [{"name": "DVD ROM; Copy", "identifier": "", "description": ""}, {"name": "DVD [PAL]; Copy", "identifier": "", "description": ""}, {"name": "DVD [PAL]; Exhibition Copy", "identifier": "", "description": ""}, {"name": "VHS [PAL]; Copy", "identifier": "", "description": ""}, {"name": "Digital Betacam [PAL]; Master", "identifier": "", "description": ""}, {"name": "Digital Betacam [PAL]; Sub-master", "identifier": "", "description": ""}, {"name": "VHS [PAL]; Reference - timecoded", "identifier": "", "description": ""}], "part_of": null, "parts": [], "part_siblings": [], "group": null, "group_works": [], "group_siblings": [], "source": {"name": "Vernon", "slug": "vernon"}, "source_identifier": "519", "eaas_environment_id": null, "production_places": [{"id": 2, "name": "United States", "slug": "united-states"}], "production_dates": [{"date": "1979", "notes": "", "to_year": "1979"}], "labels": [53482]}]}