{"count": 41723, "next": "https://api.acmi.net.au/works/?page=1924", "previous": "https://api.acmi.net.au/works/?page=1922", "results": [{"id": 110202, "acmi_id": "B2000403", "title": "Powerhouse Museum content for TV50", "title_annotation": "", "slug": "powerhouse-museum-content-for-tv50", "creator_credit": "", "credit_line": "", "headline_credit": "", "video_links": [], "record_type": "work", "type": "Film", "is_on_display": false, "last_on_display_place": "ACMI Screen Gallery", "last_on_display_date": "2006-10-01", "is_context_indigenous": false, "material_description": "", "unpublished": false, "external": false, "first_production_date": null, "commissioned": false, "public_domain": false, "external_references": [], "brief_description": "", "constellations_primary": [], "constellations_other": [], "recommendations": [], "creator_credit_for_label": "", "headline_credit_for_label": "", "title_for_label": "<p>Powerhouse Museum content for TV50</p>", "description": "", "description_for_label": [], "credit_line_for_label": "", "details": [], "stats": {"tap_count": 0}, "links": [], "creators_primary": [], "creators_other": [], "media_note": "Sorry, we don't have images or video for this item.", "holdings": [{"name": "VHS [PAL]; Reference - timecoded", "identifier": "", "description": ""}], "part_of": null, "parts": [], "part_siblings": [], "group": null, "group_works": [], "group_siblings": [], "source": {"name": "Vernon", "slug": "vernon"}, "source_identifier": "13180", "eaas_environment_id": null, "production_places": [], "production_dates": [], "labels": [49695]}, {"id": 100002, "acmi_id": "E000008", "title": "Ticket collection stand", "title_annotation": "", "slug": "ticket-collection-stand", "creator_credit": "", "credit_line": "", "headline_credit": "", "video_links": [], "record_type": "work", "type": "Object", "is_on_display": false, "last_on_display_place": null, "last_on_display_date": null, "is_context_indigenous": false, "material_description": "", "unpublished": false, "external": false, "first_production_date": null, "commissioned": false, "public_domain": false, "external_references": [], "brief_description": "<p>Metal ticket collection stand, ex-original Rosebud Cinema. Manufactured by Australasian Films Limited.</p>", "constellations_primary": [], "constellations_other": [], "recommendations": [], "creator_credit_for_label": "", "headline_credit_for_label": "", "title_for_label": "<p>Ticket collection stand</p>", "description": "<p>Metal ticket collection stand, ex-original Rosebud Cinema. Manufactured by Australasian Films Limited.</p>", "description_for_label": ["<p>Metal ticket collection stand, ex-original Rosebud Cinema. Manufactured by Australasian Films Limited.</p>"], "credit_line_for_label": "", "details": [{"label": "Measurements", "display_values": ["220 x 660 x 230mm"]}, {"label": "Object Types", "display_values": ["Ticketing equipment/Film and television equipment"]}], "stats": {"tap_count": 0}, "links": [], "creators_primary": [], "creators_other": [], "media_note": "Sorry, we don't have images or video for this item.", "holdings": [], "part_of": null, "parts": [], "part_siblings": [], "group": null, "group_works": [], "group_siblings": [], "source": {"name": "Vernon", "slug": "vernon"}, "source_identifier": "13170", "eaas_environment_id": null, "production_places": [], "production_dates": [], "labels": [39498]}, {"id": 100001, "acmi_id": "E000007", "title": "Early cinema tickets", "title_annotation": "", "slug": "early-cinema-tickets", "creator_credit": "", "credit_line": "", "headline_credit": "", "video_links": [], "record_type": "work", "type": "Object", "is_on_display": false, "last_on_display_place": null, "last_on_display_date": null, "is_context_indigenous": false, "material_description": "", "unpublished": false, "external": false, "first_production_date": null, "commissioned": false, "public_domain": false, "external_references": [], "brief_description": "<p>Box of very early cinema tickets including pass outs, reserved seats etc.</p>", "constellations_primary": [], "constellations_other": [], "recommendations": [], "creator_credit_for_label": "", "headline_credit_for_label": "", "title_for_label": "<p>Early cinema tickets</p>", "description": "<p>Box of very early cinema tickets including pass outs, reserved seats etc.</p>", "description_for_label": ["<p>Box of very early cinema tickets including pass outs, reserved seats etc.</p>"], "credit_line_for_label": "", "details": [{"label": "Measurements", "display_values": ["30 x 30 x 30cm"]}, {"label": "Object Types", "display_values": ["Ticketing equipment/Film and television equipment"]}], "stats": {"tap_count": 0}, "links": [], "creators_primary": [], "creators_other": [], "media_note": "Sorry, we don't have images or video for this item.", "holdings": [], "part_of": null, "parts": [], "part_siblings": [], "group": null, "group_works": [], "group_siblings": [], "source": {"name": "Vernon", "slug": "vernon"}, "source_identifier": "13169", "eaas_environment_id": null, "production_places": [], "production_dates": [], "labels": [39497]}, {"id": 100000, "acmi_id": "E000006", "title": "35mm film trunk [19th century film shipping trunk]", "title_annotation": "", "slug": "35mm-film-trunk-19th-century-film-shipping-trunk", "creator_credit": "", "credit_line": "", "headline_credit": "", "video_links": [], "record_type": "work", "type": "Object", "is_on_display": false, "last_on_display_place": null, "last_on_display_date": null, "is_context_indigenous": false, "material_description": "", "unpublished": false, "external": false, "first_production_date": null, "commissioned": false, "public_domain": false, "external_references": [], "brief_description": "<p>1 x Fully restored, 1930s black metal film trunk containing:<br />\n2 x 2000&#8217; / 35mm / Metal reels<br />\n1 x 2000&#8217; / 35mm / Metal can</p>", "constellations_primary": [], "constellations_other": [], "recommendations": [], "creator_credit_for_label": "", "headline_credit_for_label": "", "title_for_label": "<p>35mm film trunk [19th century film shipping trunk]</p>", "description": "<p>1 x Fully restored, 1930s black metal film trunk containing:<br />\n2 x 2000&#8217; / 35mm / Metal reels<br />\n1 x 2000&#8217; / 35mm / Metal can</p>", "description_for_label": ["<p>1 x Fully restored, 1930s black metal film trunk containing:<br />\n2 x 2000&#8217; / 35mm / Metal reels<br />\n1 x 2000&#8217; / 35mm / Metal can</p>"], "credit_line_for_label": "", "details": [{"label": "Measurements", "display_values": ["43 x 74 x 38cm"]}, {"label": "Object Types", "display_values": ["Film storage equipment/Film and television equipment"]}], "stats": {"tap_count": 0}, "links": [], "creators_primary": [], "creators_other": [], "media_note": "Sorry, we don't have images or video for this item.", "holdings": [], "part_of": null, "parts": [], "part_siblings": [], "group": null, "group_works": [], "group_siblings": [], "source": {"name": "Vernon", "slug": "vernon"}, "source_identifier": "13168", "eaas_environment_id": null, "production_places": [], "production_dates": [], "labels": [39496]}, {"id": 99999, "acmi_id": "E000004", "title": "RCA Hi-Fidelity drive-in amplifier rack", "title_annotation": "", "slug": "rca-hi-fidelity-drive-in-amplifier-rack", "creator_credit": "", "credit_line": "", "headline_credit": "", "video_links": [], "record_type": "work", "type": "Object", "is_on_display": false, "last_on_display_place": null, "last_on_display_date": null, "is_context_indigenous": false, "material_description": "", "unpublished": false, "external": false, "first_production_date": null, "commissioned": false, "public_domain": false, "external_references": [], "brief_description": "<p>RCA Hi-Fidelity drive-in amplifier rack with switching unit for ramp speakers. Model MA 336.<br />\n1 of 3: Rack<br />\n2 of 3: Amplifier<br />\n3 of 3: Speaker (Drive-In)</p>", "constellations_primary": [], "constellations_other": [], "recommendations": [], "creator_credit_for_label": "", "headline_credit_for_label": "", "title_for_label": "<p>RCA Hi-Fidelity drive-in amplifier rack</p>", "description": "<p>RCA Hi-Fidelity drive-in amplifier rack with switching unit for ramp speakers. Model MA 336.<br />\n1 of 3: Rack<br />\n2 of 3: Amplifier<br />\n3 of 3: Speaker (Drive-In)</p>", "description_for_label": ["<p>RCA Hi-Fidelity drive-in amplifier rack with switching unit for ramp speakers. Model MA 336.<br />\n1 of 3: Rack<br />\n2 of 3: Amplifier<br />\n3 of 3: Speaker (Drive-In)</p>"], "credit_line_for_label": "", "details": [{"label": "Measurements", "display_values": ["160 x 55 x 37cm"]}, {"label": "Object Types", "display_values": ["Audio equipment/Film and television equipment"]}], "stats": {"tap_count": 0}, "links": [], "creators_primary": [], "creators_other": [], "media_note": null, "holdings": [], "part_of": null, "parts": [], "part_siblings": [], "group": null, "group_works": [], "group_siblings": [], "source": {"name": "Vernon", "slug": "vernon"}, "source_identifier": "13166", "eaas_environment_id": null, "production_places": [], "production_dates": [], "labels": [39495]}, {"id": 99998, "acmi_id": "E000003", "title": "Ernemanns silent screen hand cranked projector", "title_annotation": "", "slug": "ernemanns-silent-screen-hand-cranked-projector", "creator_credit": "", "credit_line": "", "headline_credit": "", "video_links": [], "record_type": "work", "type": "Object", "is_on_display": false, "last_on_display_place": null, "last_on_display_date": null, "is_context_indigenous": false, "material_description": "", "unpublished": false, "external": false, "first_production_date": null, "commissioned": false, "public_domain": false, "external_references": [], "brief_description": "<p>Manufactured in Dresden, from the old Rivoli Cinema, Camberwell, Victoria.</p>", "constellations_primary": [], "constellations_other": [], "recommendations": [], "creator_credit_for_label": "", "headline_credit_for_label": "", "title_for_label": "<p>Ernemanns silent screen hand cranked projector</p>", "description": "<p>Manufactured in Dresden, from the old Rivoli Cinema, Camberwell, Victoria.</p>", "description_for_label": ["<p>Manufactured in Dresden, from the old Rivoli Cinema, Camberwell, Victoria.</p>"], "credit_line_for_label": "", "details": [{"label": "Measurements", "display_values": ["166 x 60 x 50cm"]}, {"label": "Object Types", "display_values": ["Projection equipment/Film and television equipment"]}], "stats": {"tap_count": 0}, "links": [], "creators_primary": [], "creators_other": [], "media_note": "Sorry, we don't have images or video for this item.", "holdings": [], "part_of": null, "parts": [], "part_siblings": [], "group": null, "group_works": [], "group_siblings": [], "source": {"name": "Vernon", "slug": "vernon"}, "source_identifier": "13165", "eaas_environment_id": null, "production_places": [], "production_dates": [], "labels": [39494]}, {"id": 99997, "acmi_id": "E000002", "title": "Kalee Indomitable Model 8 Front Shutter Projector", "title_annotation": "", "slug": "kalee-indomitable-model-8-front-shutter-projector", "creator_credit": "", "credit_line": "", "headline_credit": "", "video_links": [], "record_type": "work", "type": "Object", "is_on_display": false, "last_on_display_place": null, "last_on_display_date": null, "is_context_indigenous": false, "material_description": "", "unpublished": false, "external": false, "first_production_date": null, "commissioned": false, "public_domain": false, "external_references": [], "brief_description": "<p>Manufactured in Leeds, England by A.Kershaw &amp; Son, and brought into Australia prior to the introduction of &#8216;the talkies&#8217;. Complete with Trutrim lamp house.<br />\n1 of 2: Projector and Lens<br />\n2 0f 2: Lamphouse</p>", "constellations_primary": [], "constellations_other": [], "recommendations": [], "creator_credit_for_label": "", "headline_credit_for_label": "", "title_for_label": "<p>Kalee Indomitable Model 8 Front Shutter Projector</p>", "description": "<p>Manufactured in Leeds, England by A.Kershaw &amp; Son, and brought into Australia prior to the introduction of &#8216;the talkies&#8217;. Complete with Trutrim lamp house.<br />\n1 of 2: Projector and Lens<br />\n2 0f 2: Lamphouse</p>", "description_for_label": ["<p>Manufactured in Leeds, England by A.Kershaw &amp; Son, and brought into Australia prior to the introduction of &#8216;the talkies&#8217;. Complete with Trutrim lamp house.<br />\n1 of 2: Projector and Lens<br />\n2 0f 2: Lamphouse</p>"], "credit_line_for_label": "", "details": [{"label": "Measurements", "display_values": ["183 x 120 x 50cm"]}, {"label": "Object Types", "display_values": ["Projection equipment/Film and television equipment"]}], "stats": {"tap_count": 0}, "links": [], "creators_primary": [], "creators_other": [], "media_note": "Sorry, we don't have images or video for this item.", "holdings": [], "part_of": null, "parts": [], "part_siblings": [], "group": null, "group_works": [], "group_siblings": [], "source": {"name": "Vernon", "slug": "vernon"}, "source_identifier": "13164", "eaas_environment_id": null, "production_places": [], "production_dates": [], "labels": [39493]}, {"id": 99996, "acmi_id": "E000001", "title": "Simplex International 35mm Cinema Projector", "title_annotation": "", "slug": "simplex-international-35mm-cinema-projector", "creator_credit": "", "credit_line": "", "headline_credit": "", "video_links": [], "record_type": "work", "type": "Object", "is_on_display": false, "last_on_display_place": null, "last_on_display_date": null, "is_context_indigenous": false, "material_description": "", "unpublished": false, "external": false, "first_production_date": null, "commissioned": false, "public_domain": false, "external_references": [], "brief_description": "<p>Patented 1916. With Western Electric sound head and Hamilton Baker lamp house (was originally manufactured as silent projector and later used with disc sound).</p>", "constellations_primary": [], "constellations_other": [], "recommendations": [], "creator_credit_for_label": "", "headline_credit_for_label": "", "title_for_label": "<p>Simplex International 35mm Cinema Projector</p>", "description": "<p>Patented 1916. With Western Electric sound head and Hamilton Baker lamp house (was originally manufactured as silent projector and later used with disc sound).</p>", "description_for_label": ["<p>Patented 1916. With Western Electric sound head and Hamilton Baker lamp house (was originally manufactured as silent projector and later used with disc sound).</p>"], "credit_line_for_label": "", "details": [{"label": "Measurements", "display_values": ["179 x 127 x 50cm"]}, {"label": "Object Types", "display_values": ["Projection equipment/Film and television equipment"]}], "stats": {"tap_count": 0}, "links": [], "creators_primary": [], "creators_other": [], "media_note": "Sorry, we don't have images or video for this item.", "holdings": [], "part_of": null, "parts": [], "part_siblings": [], "group": null, "group_works": [], "group_siblings": [], "source": {"name": "Vernon", "slug": "vernon"}, "source_identifier": "13162", "eaas_environment_id": null, "production_places": [], "production_dates": [], "labels": [39492]}, {"id": 110201, "acmi_id": "B2000400", "title": "Channel 31 content for TV50", "title_annotation": "", "slug": "channel-31-content-for-tv50", "creator_credit": "C31 Melbourne", "credit_line": "", "headline_credit": "Australia, [2006]", "video_links": [], "record_type": "work", "type": "Film", "is_on_display": false, "last_on_display_place": "ACMI Screen Gallery", "last_on_display_date": "2006-10-01", "is_context_indigenous": false, "material_description": "", "unpublished": false, "external": false, "first_production_date": null, "commissioned": false, "public_domain": false, "external_references": [], "brief_description": "", "constellations_primary": [], "constellations_other": [], "recommendations": [], "creator_credit_for_label": "<p>C31 Melbourne</p>", "headline_credit_for_label": "<p>Australia, [2006]</p>", "title_for_label": "<p>Channel 31 content for TV50</p>", "description": "", "description_for_label": [], "credit_line_for_label": "", "details": [], "stats": {"tap_count": 0}, "links": [], "creators_primary": [{"id": 2639006, "name": "C31 Melbourne", "creator_id": 11103, "creator_wikidata_id": null, "role": "production company", "role_id": 941, "is_primary": true}], "creators_other": [], "media_note": "Sorry, we don't have images or video for this item.", "holdings": [{"name": "VHS [PAL]; Reference - timecoded", "identifier": "", "description": ""}], "part_of": null, "parts": [], "part_siblings": [], "group": null, "group_works": [], "group_siblings": [], "source": {"name": "Vernon", "slug": "vernon"}, "source_identifier": "13147", "eaas_environment_id": null, "production_places": [{"id": 3, "name": "Australia", "slug": "australia"}], "production_dates": [{"date": "[2006]", "notes": "", "to_year": "[2006]"}], "labels": [49694]}, {"id": 110199, "acmi_id": "B2000398", "title": "Holiday: a short tale", "title_annotation": "", "slug": "holiday-a-short-tale", "creator_credit": "Kai Smythe and Trevlyn Slater", "credit_line": "", "headline_credit": "Australia, 2005", "video_links": [], "record_type": "work", "type": "Film", "is_on_display": false, "last_on_display_place": null, "last_on_display_date": null, "is_context_indigenous": false, "material_description": "", "unpublished": false, "external": false, "first_production_date": "2005-01-01T11:00:00+11:00", "commissioned": false, "public_domain": false, "external_references": [], "brief_description": "<p>Contemplative short film of one man&#8217;s journey of the mind to escape the reality of his daily existence. This is a visually evocative piece, backed by an expressive music soundtrack and the sounds of nature.</p>", "constellations_primary": [], "constellations_other": [], "recommendations": [], "creator_credit_for_label": "<p>Kai Smythe and Trevlyn Slater</p>", "headline_credit_for_label": "<p>Australia, 2005</p>", "title_for_label": "<p>Holiday: a short tale</p>", "description": "<p>Contemplative short film of one man&#8217;s journey of the mind to escape the reality of his daily existence. This is a visually evocative piece, backed by an expressive music soundtrack and the sounds of nature.</p>", "description_for_label": ["<p>Contemplative short film of one man&#8217;s journey of the mind to escape the reality of his daily existence. This is a visually evocative piece, backed by an expressive music soundtrack and the sounds of nature.</p>"], "credit_line_for_label": "", "details": [{"label": "Duration", "display_values": ["00:02:52:00"]}, {"label": "Language", "display_values": ["No spoken word"]}, {"label": "Audience classification", "display_values": ["ACMI classified"]}, {"label": "Subject categories", "display_values": ["Food, Health, Lifestyle, Medicine, Psychology & Safety&nbsp;→ Escape (Psychology)", "Food, Health, Lifestyle, Medicine, Psychology & Safety&nbsp;→ Memory", "Short films", "Short films&nbsp;→ Short films - Australia"]}, {"label": "Sound/audio", "display_values": ["Sound"]}, {"label": "Colour", "display_values": ["Colour"]}], "stats": {"tap_count": 0}, "links": [], "creators_primary": [{"id": 2638998, "name": "Kai Smythe", "creator_id": 11100, "creator_wikidata_id": null, "role": "director", "role_id": 938, "is_primary": true}, {"id": 2639000, "name": "Trevlyn Slater", "creator_id": 11101, "creator_wikidata_id": null, "role": "producer", "role_id": 1089, "is_primary": true}, {"id": 2638999, "name": "Kai Smythe", "creator_id": 11100, "creator_wikidata_id": null, "role": "writer", "role_id": 939, "is_primary": true}], "creators_other": [{"id": 2639001, "name": "Tim Fulton", "creator_id": 73732, "creator_wikidata_id": null, "role": "director of photography", "role_id": 925, "is_primary": false}], "media_note": "Sorry, we don't have images or video for this item.", "holdings": [{"name": "Mini DV; Master", "identifier": "", "description": ""}, {"name": "DVD [PAL]; Copy", "identifier": "", "description": ""}, {"name": "MPEG-2 Digital File; Memory Grid Pod Full Encode", "identifier": "", "description": ""}], "part_of": null, "parts": [], "part_siblings": [], "group": null, "group_works": [], "group_siblings": [], "source": {"name": "Vernon", "slug": "vernon"}, "source_identifier": "13138", "eaas_environment_id": null, "production_places": [{"id": 3, "name": "Australia", "slug": "australia"}], "production_dates": [{"date": "2005", "notes": "", "to_year": "2005"}], "labels": [49692]}]}