{"count": 41735, "next": "https://api.acmi.net.au/works/?page=1390", "previous": "https://api.acmi.net.au/works/?page=1388", "results": [{"id": 109280, "acmi_id": "B1006224", "title": "Field strategy 2", "title_annotation": "", "slug": "field-strategy-2", "creator_credit": "", "credit_line": "", "headline_credit": "", "video_links": [], "record_type": "work", "type": "Film", "is_on_display": false, "last_on_display_place": null, "last_on_display_date": null, "is_context_indigenous": false, "material_description": "", "unpublished": false, "external": false, "first_production_date": null, "commissioned": false, "public_domain": false, "external_references": [], "brief_description": "", "constellations_primary": [], "constellations_other": [], "recommendations": [], "creator_credit_for_label": "", "headline_credit_for_label": "", "title_for_label": "<p>Field strategy 2</p>", "description": "", "description_for_label": [], "credit_line_for_label": "", "details": [], "stats": {"tap_count": 0}, "links": [], "creators_primary": [], "creators_other": [], "media_note": "Sorry, we don't have images or video for this item.", "holdings": [{"name": "VHS [PAL]; Copy", "identifier": "", "description": ""}], "part_of": null, "parts": [], "part_siblings": [], "group": null, "group_works": [], "group_siblings": [], "source": {"name": "Vernon", "slug": "vernon"}, "source_identifier": "2828", "eaas_environment_id": null, "production_places": [], "production_dates": [], "labels": [48773]}, {"id": 109279, "acmi_id": "B1006223", "title": "Squad improved", "title_annotation": "", "slug": "squad-improved", "creator_credit": "Marina Ellerington", "credit_line": "", "headline_credit": "01 JAN 2001-31 DEC 2001", "video_links": [], "record_type": "work", "type": "Film", "is_on_display": false, "last_on_display_place": null, "last_on_display_date": null, "is_context_indigenous": false, "material_description": "", "unpublished": false, "external": false, "first_production_date": null, "commissioned": false, "public_domain": false, "external_references": [], "brief_description": "", "constellations_primary": [], "constellations_other": [], "recommendations": [], "creator_credit_for_label": "<p>Marina Ellerington</p>", "headline_credit_for_label": "<p>01 JAN 2001-31 DEC 2001</p>", "title_for_label": "<p>Squad improved</p>", "description": "", "description_for_label": [], "credit_line_for_label": "", "details": [], "stats": {"tap_count": 0}, "links": [], "creators_primary": [{"id": 2711621, "name": "Marina Ellerington", "creator_id": 7974, "creator_wikidata_id": null, "role": "creator", "role_id": 968, "is_primary": true}], "creators_other": [], "media_note": "Sorry, we don't have images or video for this item.", "holdings": [{"name": "VHS [PAL]; Copy", "identifier": "", "description": ""}], "part_of": null, "parts": [], "part_siblings": [], "group": null, "group_works": [], "group_siblings": [], "source": {"name": "Vernon", "slug": "vernon"}, "source_identifier": "2827", "eaas_environment_id": null, "production_places": [], "production_dates": [{"date": "01 JAN 2001-31 DEC 2001", "notes": "", "to_year": "01 JAN 2001-31 DEC 2001"}], "labels": [48772]}, {"id": 109278, "acmi_id": "B1006222", "title": "Cane Toads", "title_annotation": "", "slug": "cane-toads", "creator_credit": "", "credit_line": "", "headline_credit": "", "video_links": [], "record_type": "work", "type": "Film", "is_on_display": false, "last_on_display_place": null, "last_on_display_date": null, "is_context_indigenous": false, "material_description": "", "unpublished": false, "external": false, "first_production_date": null, "commissioned": false, "public_domain": false, "external_references": [], "brief_description": "", "constellations_primary": [], "constellations_other": [], "recommendations": [], "creator_credit_for_label": "", "headline_credit_for_label": "", "title_for_label": "<p>Cane Toads</p>", "description": "", "description_for_label": [], "credit_line_for_label": "", "details": [], "stats": {"tap_count": 0}, "links": [], "creators_primary": [], "creators_other": [], "media_note": "Sorry, we don't have images or video for this item.", "holdings": [{"name": "CD ROM; Copy", "identifier": "", "description": ""}], "part_of": null, "parts": [], "part_siblings": [], "group": null, "group_works": [], "group_siblings": [], "source": {"name": "Vernon", "slug": "vernon"}, "source_identifier": "2826", "eaas_environment_id": null, "production_places": [], "production_dates": [], "labels": [48771]}, {"id": 109277, "acmi_id": "B1006220", "title": "In the spotlight: create Australia national conference 2000", "title_annotation": "", "slug": "in-the-spotlight-create-australia-national-conference-2000", "creator_credit": "", "credit_line": "", "headline_credit": "", "video_links": [], "record_type": "work", "type": "Film", "is_on_display": false, "last_on_display_place": null, "last_on_display_date": null, "is_context_indigenous": false, "material_description": "", "unpublished": false, "external": false, "first_production_date": null, "commissioned": false, "public_domain": false, "external_references": [], "brief_description": "", "constellations_primary": [], "constellations_other": [], "recommendations": [], "creator_credit_for_label": "", "headline_credit_for_label": "", "title_for_label": "<p>In the spotlight: create Australia national conference 2000</p>", "description": "", "description_for_label": [], "credit_line_for_label": "", "details": [], "stats": {"tap_count": 0}, "links": [], "creators_primary": [], "creators_other": [], "media_note": "Sorry, we don't have images or video for this item.", "holdings": [{"name": "CD ROM; Copy", "identifier": "", "description": ""}], "part_of": null, "parts": [], "part_siblings": [], "group": null, "group_works": [], "group_siblings": [], "source": {"name": "Vernon", "slug": "vernon"}, "source_identifier": "2824", "eaas_environment_id": null, "production_places": [], "production_dates": [], "labels": [48770]}, {"id": 109275, "acmi_id": "B1006213", "title": "Virtual architecture", "title_annotation": "", "slug": "virtual-architecture", "creator_credit": "Drome", "credit_line": "", "headline_credit": "", "video_links": [], "record_type": "work", "type": "Film", "is_on_display": false, "last_on_display_place": null, "last_on_display_date": null, "is_context_indigenous": false, "material_description": "", "unpublished": false, "external": false, "first_production_date": null, "commissioned": false, "public_domain": false, "external_references": [], "brief_description": "", "constellations_primary": [], "constellations_other": [], "recommendations": [], "creator_credit_for_label": "<p>Drome</p>", "headline_credit_for_label": "", "title_for_label": "<p>Virtual architecture</p>", "description": "", "description_for_label": [], "credit_line_for_label": "", "details": [], "stats": {"tap_count": 0}, "links": [], "creators_primary": [{"id": 2711620, "name": "Drome", "creator_id": 6499, "creator_wikidata_id": null, "role": "creator", "role_id": 968, "is_primary": true}], "creators_other": [], "media_note": "Sorry, we don't have images or video for this item.", "holdings": [{"name": "VHS [PAL]; Copy", "identifier": "", "description": ""}, {"name": "Digital Betacam [PAL]; Master", "identifier": "", "description": ""}], "part_of": null, "parts": [], "part_siblings": [], "group": null, "group_works": [], "group_siblings": [], "source": {"name": "Vernon", "slug": "vernon"}, "source_identifier": "2817", "eaas_environment_id": null, "production_places": [], "production_dates": [], "labels": [48768]}, {"id": 109274, "acmi_id": "B1006212", "title": "Fed Square web cast", "title_annotation": "", "slug": "fed-square-web-cast", "creator_credit": "", "credit_line": "", "headline_credit": "09 FEB 2000", "video_links": [], "record_type": "work", "type": "Film", "is_on_display": false, "last_on_display_place": null, "last_on_display_date": null, "is_context_indigenous": false, "material_description": "", "unpublished": false, "external": false, "first_production_date": null, "commissioned": false, "public_domain": false, "external_references": [], "brief_description": "", "constellations_primary": [], "constellations_other": [], "recommendations": [], "creator_credit_for_label": "", "headline_credit_for_label": "<p>09 FEB 2000</p>", "title_for_label": "<p>Fed Square web cast</p>", "description": "", "description_for_label": [], "credit_line_for_label": "", "details": [], "stats": {"tap_count": 0}, "links": [], "creators_primary": [], "creators_other": [], "media_note": "Sorry, we don't have images or video for this item.", "holdings": [{"name": "VHS [PAL]; Copy", "identifier": "", "description": ""}], "part_of": null, "parts": [], "part_siblings": [], "group": null, "group_works": [], "group_siblings": [], "source": {"name": "Vernon", "slug": "vernon"}, "source_identifier": "2816", "eaas_environment_id": null, "production_places": [], "production_dates": [{"date": "09 FEB 2000", "notes": "", "to_year": "09 FEB 2000"}], "labels": [48767]}, {"id": 109273, "acmi_id": "B1006210", "title": "What are Words Worth? copyright, CAL and sampling", "title_annotation": "", "slug": "what-are-words-worth-copyright-cal-and-sampling", "creator_credit": "", "credit_line": "", "headline_credit": "", "video_links": [], "record_type": "work", "type": "Film", "is_on_display": false, "last_on_display_place": null, "last_on_display_date": null, "is_context_indigenous": false, "material_description": "", "unpublished": false, "external": false, "first_production_date": null, "commissioned": false, "public_domain": false, "external_references": [], "brief_description": "", "constellations_primary": [], "constellations_other": [], "recommendations": [], "creator_credit_for_label": "", "headline_credit_for_label": "", "title_for_label": "<p>What are Words Worth? copyright, CAL and sampling</p>", "description": "", "description_for_label": [], "credit_line_for_label": "", "details": [], "stats": {"tap_count": 0}, "links": [], "creators_primary": [], "creators_other": [], "media_note": "Sorry, we don't have images or video for this item.", "holdings": [{"name": "VHS [PAL]; Copy", "identifier": "", "description": ""}], "part_of": null, "parts": [], "part_siblings": [], "group": null, "group_works": [], "group_siblings": [], "source": {"name": "Vernon", "slug": "vernon"}, "source_identifier": "2814", "eaas_environment_id": null, "production_places": [], "production_dates": [], "labels": [48766]}, {"id": 109261, "acmi_id": "B1006154", "title": "The Eye inside", "title_annotation": "", "slug": "the-eye-inside", "creator_credit": "Cordelia Beresford", "credit_line": "", "headline_credit": "Australia, 2004", "video_links": [], "record_type": "work", "type": "Film", "is_on_display": false, "last_on_display_place": null, "last_on_display_date": null, "is_context_indigenous": false, "material_description": "", "unpublished": false, "external": false, "first_production_date": "2004-01-01T11:00:00+11:00", "commissioned": true, "public_domain": false, "external_references": [], "brief_description": "<p>&#8220;With this work I am interested in questions of personal identity. What is it? Can you capture it in a photograph? What would you need to do in that photograph to be acting as the real you? How can you protect your own sense of identity in the face of external pressure?</p>\n<p>Using notorious archival photographs of &#8216;hysterical&#8217; patients as the starting point, I wanted to re-examine what was actually being revealed in these strange images to us, contemporary viewers. The body language we see was heavily influenced by popular culture of the period, particularly the theatre and religious imagery, and also distorted by the doctors&#8217; trials with hypnotism. But there is clearly a conflict between these female patients&#8217; own sense of identity, emerging as the psychic pain they metaphorically express with their bodies, and that of the male doctors/ photographers&#8217; conception of them.</p>\n<p>I was interested in applying a similar pseudo-medical method of observing and photographing to displays of specific contemporary body language: again female, again familiar from popular culture. Would the distinction between personal identity and cultural identity be obvious? How far would these healthy, sane modes of behaviour need exaggeration to be classified as unhealthy or mad? This work is an initial investigation into these themes.&#8221;<br />\nCordelia Beresford, 2004.</p>\n<p>Duration: 2 x 8 minute video piece, looped as per duration required by ACMI specifications (ie it will play 3 loops continuously if possible- tbc). The second 8 minute piece is a variation<br />\n(ie different edit only) of the first. Both are to be played simultaneously on two or more screens.</p>\n<p>Shoot Format: 16mm film and 35mm still photographs, both mastered to digital-beta tape. Black &amp; white.</p>\n<p>Delivery Format: Digital-Betacam tape, 60 minutes length.</p>\n<p>Sound: the work is silent.</p>", "constellations_primary": [], "constellations_other": [], "recommendations": [], "creator_credit_for_label": "<p>Cordelia Beresford</p>", "headline_credit_for_label": "<p>Australia, 2004</p>", "title_for_label": "<p>The Eye inside</p>", "description": "<p>&#8220;With this work I am interested in questions of personal identity. What is it? Can you capture it in a photograph? What would you need to do in that photograph to be acting as the real you? How can you protect your own sense of identity in the face of external pressure?</p>\n<p>Using notorious archival photographs of &#8216;hysterical&#8217; patients as the starting point, I wanted to re-examine what was actually being revealed in these strange images to us, contemporary viewers. The body language we see was heavily influenced by popular culture of the period, particularly the theatre and religious imagery, and also distorted by the doctors&#8217; trials with hypnotism. But there is clearly a conflict between these female patients&#8217; own sense of identity, emerging as the psychic pain they metaphorically express with their bodies, and that of the male doctors/ photographers&#8217; conception of them.</p>\n<p>I was interested in applying a similar pseudo-medical method of observing and photographing to displays of specific contemporary body language: again female, again familiar from popular culture. Would the distinction between personal identity and cultural identity be obvious? How far would these healthy, sane modes of behaviour need exaggeration to be classified as unhealthy or mad? This work is an initial investigation into these themes.&#8221;<br />\nCordelia Beresford, 2004.</p>\n<p>Duration: 2 x 8 minute video piece, looped as per duration required by ACMI specifications (ie it will play 3 loops continuously if possible- tbc). The second 8 minute piece is a variation<br />\n(ie different edit only) of the first. Both are to be played simultaneously on two or more screens.</p>\n<p>Shoot Format: 16mm film and 35mm still photographs, both mastered to digital-beta tape. Black &amp; white.</p>\n<p>Delivery Format: Digital-Betacam tape, 60 minutes length.</p>\n<p>Sound: the work is silent.</p>", "description_for_label": ["<p>&#8220;With this work I am interested in questions of personal identity. What is it? Can you capture it in a photograph? What would you need to do in that photograph to be acting as the real you? How can you protect your own sense of identity in the face of external pressure?</p>\n<p>Using notorious archival photographs of &#8216;hysterical&#8217; patients as the starting point, I wanted to re-examine what was actually being revealed in these strange images to us, contemporary viewers. The body language we see was heavily influenced by popular culture of the period, particularly the theatre and religious imagery, and also distorted by the doctors&#8217; trials with hypnotism. But there is clearly a conflict between these female patients&#8217; own sense of identity, emerging as the psychic pain they metaphorically express with their bodies, and that of the male doctors/ photographers&#8217; conception of them.</p>\n<p>I was interested in applying a similar pseudo-medical method of observing and photographing to displays of specific contemporary body language: again female, again familiar from popular culture. Would the distinction between personal identity and cultural identity be obvious? How far would these healthy, sane modes of behaviour need exaggeration to be classified as unhealthy or mad? This work is an initial investigation into these themes.&#8221;<br />\nCordelia Beresford, 2004.</p>\n<p>Duration: 2 x 8 minute video piece, looped as per duration required by ACMI specifications (ie it will play 3 loops continuously if possible- tbc). The second 8 minute piece is a variation<br />\n(ie different edit only) of the first. Both are to be played simultaneously on two or more screens.</p>\n<p>Shoot Format: 16mm film and 35mm still photographs, both mastered to digital-beta tape. Black &amp; white.</p>\n<p>Delivery Format: Digital-Betacam tape, 60 minutes length.</p>\n<p>Sound: the work is silent.</p>"], "credit_line_for_label": "", "details": [{"label": "Language", "display_values": ["No spoken word"]}], "stats": {"tap_count": 0}, "links": [], "creators_primary": [{"id": 2711601, "name": "Cordelia Beresford", "creator_id": 8669, "creator_wikidata_id": "Q121298776", "role": "creator", "role_id": 968, "is_primary": true}], "creators_other": [{"id": 2711602, "name": "Narelle Benjamin", "creator_id": 73584, "creator_wikidata_id": "Q121126690", "role": "cast", "role_id": 33, "is_primary": false}, {"id": 2711603, "name": "Elli Faktor", "creator_id": 73585, "creator_wikidata_id": null, "role": "special effects", "role_id": 929, "is_primary": false}], "media_note": "Sorry, we don't have images or video for this item.", "holdings": [{"name": "Digital Betacam; Master", "identifier": "", "description": ""}, {"name": "VHS; Reference - timecoded", "identifier": "", "description": ""}, {"name": "Digital Betacam; Sub-master", "identifier": "", "description": ""}, {"name": "DVD [PAL]; Exhibition Copy", "identifier": "", "description": ""}], "part_of": null, "parts": [], "part_siblings": [], "group": null, "group_works": [], "group_siblings": [], "source": {"name": "Vernon", "slug": "vernon"}, "source_identifier": "2762", "eaas_environment_id": null, "production_places": [{"id": 3, "name": "Australia", "slug": "australia"}], "production_dates": [{"date": "2004", "notes": "", "to_year": "2004"}], "labels": [48754]}, {"id": 109260, "acmi_id": "B1006151", "title": "Musclebound", "title_annotation": "", "slug": "musclebound", "creator_credit": "Sascha Ettinger-Epstein", "credit_line": "", "headline_credit": "", "video_links": [], "record_type": "work", "type": "Artwork", "is_on_display": false, "last_on_display_place": null, "last_on_display_date": null, "is_context_indigenous": false, "material_description": "Single channel moving image", "unpublished": false, "external": false, "first_production_date": null, "commissioned": true, "public_domain": false, "external_references": [], "brief_description": "<p>Bigorexia, &#8220;The Disease&#8221;. By definition every serious bodybuilder has it. And the relentless drive to grow it engenders, will push the afflicted through every pain barrier - punishing weights regimes and severe diets alike. This is a short piece about the mania of muscle building, body sculpting, unbridled narcissism and obsession; the drive for elusive physical perfection which keeps the bodybuilder pumping iron and gorging protein day in day out. Starring three times Mr Universe Charlie Duca and his sidekick training partner Jeff Hinch, as well as colossal ex-bodybuilder now personal trainer Big Al, the film will explore this extreme &#8216;sport&#8217; which may be more appropriately termed a neurosis. Enter a culture where men heave huge slabs of metal into the air, eat kilos of boiled chicken breast, and then stand in front of a mirror and assess the symmetricality of their limbs with tape measures. As one ex builder says: &#8220;Michelangelo did it with stone. Some do it with clay, others with plaster. The bodybuilder does it with flesh.&#8221; But at what cost? - Sacha Ettinger-Epstein, 2004</p>", "constellations_primary": [], "constellations_other": [], "recommendations": [], "creator_credit_for_label": "<p>Sascha Ettinger-Epstein</p>", "headline_credit_for_label": "", "title_for_label": "<p>Musclebound</p>", "description": "<p>Bigorexia, &#8220;The Disease&#8221;. By definition every serious bodybuilder has it. And the relentless drive to grow it engenders, will push the afflicted through every pain barrier - punishing weights regimes and severe diets alike. This is a short piece about the mania of muscle building, body sculpting, unbridled narcissism and obsession; the drive for elusive physical perfection which keeps the bodybuilder pumping iron and gorging protein day in day out. Starring three times Mr Universe Charlie Duca and his sidekick training partner Jeff Hinch, as well as colossal ex-bodybuilder now personal trainer Big Al, the film will explore this extreme &#8216;sport&#8217; which may be more appropriately termed a neurosis. Enter a culture where men heave huge slabs of metal into the air, eat kilos of boiled chicken breast, and then stand in front of a mirror and assess the symmetricality of their limbs with tape measures. As one ex builder says: &#8220;Michelangelo did it with stone. Some do it with clay, others with plaster. The bodybuilder does it with flesh.&#8221; But at what cost? - Sacha Ettinger-Epstein, 2004</p>", "description_for_label": ["<p>Bigorexia, &#8220;The Disease&#8221;. By definition every serious bodybuilder has it. And the relentless drive to grow it engenders, will push the afflicted through every pain barrier - punishing weights regimes and severe diets alike. This is a short piece about the mania of muscle building, body sculpting, unbridled narcissism and obsession; the drive for elusive physical perfection which keeps the bodybuilder pumping iron and gorging protein day in day out. Starring three times Mr Universe Charlie Duca and his sidekick training partner Jeff Hinch, as well as colossal ex-bodybuilder now personal trainer Big Al, the film will explore this extreme &#8216;sport&#8217; which may be more appropriately termed a neurosis. Enter a culture where men heave huge slabs of metal into the air, eat kilos of boiled chicken breast, and then stand in front of a mirror and assess the symmetricality of their limbs with tape measures. As one ex builder says: &#8220;Michelangelo did it with stone. Some do it with clay, others with plaster. The bodybuilder does it with flesh.&#8221; But at what cost? - Sacha Ettinger-Epstein, 2004</p>"], "credit_line_for_label": "", "details": [{"label": "Subject categories", "display_values": ["Digital Art", "Documentary", "Experimental", "Silent films"]}, {"label": "Object Types", "display_values": ["Artwork"]}, {"label": "Materials", "display_values": ["Single channel moving image"]}], "stats": {"tap_count": 0}, "links": [], "creators_primary": [{"id": 2711600, "name": "Sascha Ettinger-Epstein", "creator_id": 8925, "creator_wikidata_id": "Q24705830", "role": "creator", "role_id": 968, "is_primary": true}], "creators_other": [], "media_note": "Sorry, we don't have images or video for this item.", "holdings": [{"name": "Digital Betacam; Master", "identifier": "", "description": ""}, {"name": "VHS; Reference - timecoded", "identifier": "", "description": ""}, {"name": "Digital Betacam; Sub-master", "identifier": "", "description": ""}, {"name": "DVD [PAL]; Exhibition Copy", "identifier": "", "description": ""}], "part_of": null, "parts": [], "part_siblings": [], "group": null, "group_works": [], "group_siblings": [], "source": {"name": "Vernon", "slug": "vernon"}, "source_identifier": "2759", "eaas_environment_id": null, "production_places": [], "production_dates": [], "labels": [48753]}, {"id": 109259, "acmi_id": "B1006149", "title": "Chiapas Army Base occupation (Mexico) Jan 1, 2001", "title_annotation": "", "slug": "chiapas-army-base-occupation-mexico-jan-1-2001", "creator_credit": "Big Noise Tactical USA", "credit_line": "", "headline_credit": "United States, 2001", "video_links": [], "record_type": "work", "type": "Film", "is_on_display": false, "last_on_display_place": null, "last_on_display_date": null, "is_context_indigenous": false, "material_description": "", "unpublished": false, "external": false, "first_production_date": "2001-01-01T11:00:00+11:00", "commissioned": false, "public_domain": false, "external_references": [], "brief_description": "<p>This astounding testimony to &#8216;the power of the people&#8217; was given to the Memory Grid Community Collection as part of the SKA TV video compile &#8216;Global Insights 4&#8217;, a collection of shorts from around the world with a focus on grass-roots peoples&#8217; action. Chiapas Army Base (Mexico) was filmed by Big Noise Tactical (USA) a not-for-profit, all-volunteer collective of media-makers around the world, &#8216;dedicated to circulating beautiful, passionate, revolutionary images.&#8217;</p>", "constellations_primary": [], "constellations_other": [], "recommendations": [], "creator_credit_for_label": "<p>Big Noise Tactical USA</p>", "headline_credit_for_label": "<p>United States, 2001</p>", "title_for_label": "<p>Chiapas Army Base occupation (Mexico) Jan 1, 2001</p>", "description": "<p>This astounding testimony to &#8216;the power of the people&#8217; was given to the Memory Grid Community Collection as part of the SKA TV video compile &#8216;Global Insights 4&#8217;, a collection of shorts from around the world with a focus on grass-roots peoples&#8217; action. Chiapas Army Base (Mexico) was filmed by Big Noise Tactical (USA) a not-for-profit, all-volunteer collective of media-makers around the world, &#8216;dedicated to circulating beautiful, passionate, revolutionary images.&#8217;</p>", "description_for_label": ["<p>This astounding testimony to &#8216;the power of the people&#8217; was given to the Memory Grid Community Collection as part of the SKA TV video compile &#8216;Global Insights 4&#8217;, a collection of shorts from around the world with a focus on grass-roots peoples&#8217; action. Chiapas Army Base (Mexico) was filmed by Big Noise Tactical (USA) a not-for-profit, all-volunteer collective of media-makers around the world, &#8216;dedicated to circulating beautiful, passionate, revolutionary images.&#8217;</p>"], "credit_line_for_label": "", "details": [{"label": "Duration", "display_values": ["00:05:00:00"]}, {"label": "Audience classification", "display_values": ["ACMI classified"]}, {"label": "Subject categories", "display_values": ["Documentary", "Documentary&nbsp;→ Documentary films - United States", "Economics, Philosophy, Politics, Religion & Sociology&nbsp;→ Communities", "Economics, Philosophy, Politics, Religion & Sociology&nbsp;→ Protest movements", "Short films", "Short films&nbsp;→ Short films - United States"]}, {"label": "Sound/audio", "display_values": ["Sound"]}, {"label": "Colour", "display_values": ["Colour"]}], "stats": {"tap_count": 0}, "links": [], "creators_primary": [{"id": 2711598, "name": "Big Noise Tactical USA", "creator_id": 9295, "creator_wikidata_id": null, "role": "creator", "role_id": 968, "is_primary": true}, {"id": 2711599, "name": "Big Noise Tactical USA", "creator_id": 9295, "creator_wikidata_id": null, "role": "producer", "role_id": 1089, "is_primary": true}], "creators_other": [], "media_note": null, "holdings": [{"name": "MPEG-2 Digital File; Memory Grid Pod Full Encode", "identifier": "", "description": ""}], "part_of": null, "parts": [], "part_siblings": [], "group": null, "group_works": [], "group_siblings": [], "source": {"name": "Vernon", "slug": "vernon"}, "source_identifier": "2757", "eaas_environment_id": null, "production_places": [{"id": 2, "name": "United States", "slug": "united-states"}], "production_dates": [{"date": "2001", "notes": "", "to_year": "2001"}], "labels": [48752]}]}