{"count": 41724, "next": "https://api.acmi.net.au/works/?page=4151", "previous": "https://api.acmi.net.au/works/?page=4149", "results": [{"id": 118647, "acmi_id": "R0001279", "title": "[Dot and the whale : publicity kit]", "title_annotation": "", "slug": "dot-and-the-whale-publicity-kit", "creator_credit": "", "credit_line": "", "headline_credit": "", "video_links": [], "record_type": "work", "type": "Object", "is_on_display": false, "last_on_display_place": null, "last_on_display_date": null, "is_context_indigenous": false, "material_description": "", "unpublished": false, "external": false, "first_production_date": null, "commissioned": false, "public_domain": false, "external_references": [], "brief_description": "<p>Publicity kit for the production Dot and the Whale, including 2 B&amp;W Stills (Large), 1 Press Kit/ Review, 1 Promo Flyer</p>", "constellations_primary": [], "constellations_other": [], "recommendations": [], "creator_credit_for_label": "", "headline_credit_for_label": "", "title_for_label": "<p>[Dot and the whale : publicity kit]</p>", "description": "<p>Publicity kit for the production Dot and the Whale, including 2 B&amp;W Stills (Large), 1 Press Kit/ Review, 1 Promo Flyer</p>", "description_for_label": ["<p>Publicity kit for the production Dot and the Whale, including 2 B&amp;W Stills (Large), 1 Press Kit/ Review, 1 Promo Flyer</p>"], "credit_line_for_label": "", "details": [{"label": "Subject category", "display_values": ["Documentation"]}, {"label": "Object Types", "display_values": ["Publicity kit"]}], "stats": {"tap_count": 0}, "links": [], "creators_primary": [], "creators_other": [], "media_note": null, "holdings": [], "part_of": null, "parts": [], "part_siblings": [], "group": null, "group_works": [], "group_siblings": [], "source": {"name": "Vernon", "slug": "vernon"}, "source_identifier": "149251", "eaas_environment_id": null, "production_places": [], "production_dates": [], "labels": [58142]}, {"id": 118646, "acmi_id": "R0001278", "title": "[Dot and the smugglers : publicity kit]", "title_annotation": "", "slug": "dot-and-the-smugglers-publicity-kit", "creator_credit": "", "credit_line": "", "headline_credit": "", "video_links": [], "record_type": "work", "type": "Object", "is_on_display": false, "last_on_display_place": null, "last_on_display_date": null, "is_context_indigenous": false, "material_description": "", "unpublished": false, "external": false, "first_production_date": null, "commissioned": false, "public_domain": false, "external_references": [], "brief_description": "<p>Publicity kit for the production Dot and the Smugglers (1987), including 1 B&amp;W Still (Large), 1 Press Kit/ Review, 1 Promo Flyer</p>", "constellations_primary": [], "constellations_other": [], "recommendations": [], "creator_credit_for_label": "", "headline_credit_for_label": "", "title_for_label": "<p>[Dot and the smugglers : publicity kit]</p>", "description": "<p>Publicity kit for the production Dot and the Smugglers (1987), including 1 B&amp;W Still (Large), 1 Press Kit/ Review, 1 Promo Flyer</p>", "description_for_label": ["<p>Publicity kit for the production Dot and the Smugglers (1987), including 1 B&amp;W Still (Large), 1 Press Kit/ Review, 1 Promo Flyer</p>"], "credit_line_for_label": "", "details": [{"label": "Subject category", "display_values": ["Documentation"]}, {"label": "Object Types", "display_values": ["Publicity kit"]}], "stats": {"tap_count": 0}, "links": [], "creators_primary": [], "creators_other": [], "media_note": null, "holdings": [], "part_of": null, "parts": [], "part_siblings": [], "group": null, "group_works": [], "group_siblings": [], "source": {"name": "Vernon", "slug": "vernon"}, "source_identifier": "149250", "eaas_environment_id": null, "production_places": [], "production_dates": [], "labels": [58141]}, {"id": 118645, "acmi_id": "R0001277", "title": "[Dot and the koala : publicity kit]", "title_annotation": "", "slug": "dot-and-the-koala-publicity-kit", "creator_credit": "", "credit_line": "", "headline_credit": "", "video_links": [], "record_type": "work", "type": "Object", "is_on_display": false, "last_on_display_place": null, "last_on_display_date": null, "is_context_indigenous": false, "material_description": "", "unpublished": false, "external": false, "first_production_date": null, "commissioned": false, "public_domain": false, "external_references": [], "brief_description": "<p>Publicity kit for the production Dot and the Koala (1985), including 1 B&amp;W Still (Large), 2 Promo Flyers, 1 B&amp;W Bromide</p>", "constellations_primary": [], "constellations_other": [], "recommendations": [], "creator_credit_for_label": "", "headline_credit_for_label": "", "title_for_label": "<p>[Dot and the koala : publicity kit]</p>", "description": "<p>Publicity kit for the production Dot and the Koala (1985), including 1 B&amp;W Still (Large), 2 Promo Flyers, 1 B&amp;W Bromide</p>", "description_for_label": ["<p>Publicity kit for the production Dot and the Koala (1985), including 1 B&amp;W Still (Large), 2 Promo Flyers, 1 B&amp;W Bromide</p>"], "credit_line_for_label": "", "details": [{"label": "Subject category", "display_values": ["Documentation"]}, {"label": "Object Types", "display_values": ["Publicity kit"]}], "stats": {"tap_count": 0}, "links": [], "creators_primary": [], "creators_other": [], "media_note": null, "holdings": [], "part_of": null, "parts": [], "part_siblings": [], "group": null, "group_works": [], "group_siblings": [], "source": {"name": "Vernon", "slug": "vernon"}, "source_identifier": "149249", "eaas_environment_id": null, "production_places": [], "production_dates": [], "labels": [58140]}, {"id": 118644, "acmi_id": "R0001276", "title": "[Dot and the bunyip : publicity kit]", "title_annotation": "", "slug": "dot-and-the-bunyip-publicity-kit", "creator_credit": "", "credit_line": "", "headline_credit": "", "video_links": [], "record_type": "work", "type": "Object", "is_on_display": false, "last_on_display_place": null, "last_on_display_date": null, "is_context_indigenous": false, "material_description": "", "unpublished": false, "external": false, "first_production_date": null, "commissioned": false, "public_domain": false, "external_references": [], "brief_description": "<p>Publicity kit for the production Dot and the Bunyip, including 1 B&amp;W Still (Large)</p>", "constellations_primary": [], "constellations_other": [], "recommendations": [], "creator_credit_for_label": "", "headline_credit_for_label": "", "title_for_label": "<p>[Dot and the bunyip : publicity kit]</p>", "description": "<p>Publicity kit for the production Dot and the Bunyip, including 1 B&amp;W Still (Large)</p>", "description_for_label": ["<p>Publicity kit for the production Dot and the Bunyip, including 1 B&amp;W Still (Large)</p>"], "credit_line_for_label": "", "details": [{"label": "Subject category", "display_values": ["Documentation"]}, {"label": "Object Types", "display_values": ["Publicity kit"]}], "stats": {"tap_count": 0}, "links": [], "creators_primary": [], "creators_other": [], "media_note": null, "holdings": [], "part_of": null, "parts": [], "part_siblings": [], "group": null, "group_works": [], "group_siblings": [], "source": {"name": "Vernon", "slug": "vernon"}, "source_identifier": "149248", "eaas_environment_id": null, "production_places": [], "production_dates": [], "labels": [58139]}, {"id": 118643, "acmi_id": "R0001275", "title": "[Dot and the bunny : publicity kit]", "title_annotation": "", "slug": "dot-and-the-bunny-publicity-kit", "creator_credit": "", "credit_line": "", "headline_credit": "", "video_links": [], "record_type": "work", "type": "Object", "is_on_display": false, "last_on_display_place": null, "last_on_display_date": null, "is_context_indigenous": false, "material_description": "", "unpublished": false, "external": false, "first_production_date": null, "commissioned": false, "public_domain": false, "external_references": [], "brief_description": "<p>Publicity kit for the production Dot and the Bunny (1984), including 3 B&amp;W Stills (Large)</p>", "constellations_primary": [], "constellations_other": [], "recommendations": [], "creator_credit_for_label": "", "headline_credit_for_label": "", "title_for_label": "<p>[Dot and the bunny : publicity kit]</p>", "description": "<p>Publicity kit for the production Dot and the Bunny (1984), including 3 B&amp;W Stills (Large)</p>", "description_for_label": ["<p>Publicity kit for the production Dot and the Bunny (1984), including 3 B&amp;W Stills (Large)</p>"], "credit_line_for_label": "", "details": [{"label": "Subject category", "display_values": ["Documentation"]}, {"label": "Object Types", "display_values": ["Publicity kit"]}], "stats": {"tap_count": 0}, "links": [], "creators_primary": [], "creators_other": [], "media_note": null, "holdings": [], "part_of": null, "parts": [], "part_siblings": [], "group": null, "group_works": [], "group_siblings": [], "source": {"name": "Vernon", "slug": "vernon"}, "source_identifier": "149247", "eaas_environment_id": null, "production_places": [], "production_dates": [], "labels": [58138]}, {"id": 118642, "acmi_id": "R0001274", "title": "[Dot and Santa Claus : publicity kit]", "title_annotation": "", "slug": "dot-and-santa-claus-publicity-kit", "creator_credit": "", "credit_line": "", "headline_credit": "", "video_links": [], "record_type": "work", "type": "Object", "is_on_display": false, "last_on_display_place": null, "last_on_display_date": null, "is_context_indigenous": false, "material_description": "", "unpublished": false, "external": false, "first_production_date": null, "commissioned": false, "public_domain": false, "external_references": [], "brief_description": "<p>Publicity kit for the production Dot and Santa Claus (1982), including 2 Colour Stills (Large), 1 Colour Still (Small), 1 Promo Flyer</p>", "constellations_primary": [], "constellations_other": [], "recommendations": [], "creator_credit_for_label": "", "headline_credit_for_label": "", "title_for_label": "<p>[Dot and Santa Claus : publicity kit]</p>", "description": "<p>Publicity kit for the production Dot and Santa Claus (1982), including 2 Colour Stills (Large), 1 Colour Still (Small), 1 Promo Flyer</p>", "description_for_label": ["<p>Publicity kit for the production Dot and Santa Claus (1982), including 2 Colour Stills (Large), 1 Colour Still (Small), 1 Promo Flyer</p>"], "credit_line_for_label": "", "details": [{"label": "Subject category", "display_values": ["Documentation"]}, {"label": "Object Types", "display_values": ["Publicity kit"]}], "stats": {"tap_count": 1}, "links": [], "creators_primary": [], "creators_other": [], "media_note": null, "holdings": [], "part_of": null, "parts": [], "part_siblings": [], "group": null, "group_works": [], "group_siblings": [], "source": {"name": "Vernon", "slug": "vernon"}, "source_identifier": "149246", "eaas_environment_id": null, "production_places": [], "production_dates": [], "labels": [58137]}, {"id": 118641, "acmi_id": "R0001273", "title": "[Dot and Keeto : publicity kit]", "title_annotation": "", "slug": "dot-and-keeto-publicity-kit", "creator_credit": "", "credit_line": "", "headline_credit": "", "video_links": [], "record_type": "work", "type": "Object", "is_on_display": false, "last_on_display_place": null, "last_on_display_date": null, "is_context_indigenous": false, "material_description": "", "unpublished": false, "external": false, "first_production_date": null, "commissioned": false, "public_domain": false, "external_references": [], "brief_description": "<p>Publicity kit for the production Dot and Keeto (1986), including 5 B&amp;W Stills (Large), 2 Promo Flyers</p>", "constellations_primary": [], "constellations_other": [], "recommendations": [], "creator_credit_for_label": "", "headline_credit_for_label": "", "title_for_label": "<p>[Dot and Keeto : publicity kit]</p>", "description": "<p>Publicity kit for the production Dot and Keeto (1986), including 5 B&amp;W Stills (Large), 2 Promo Flyers</p>", "description_for_label": ["<p>Publicity kit for the production Dot and Keeto (1986), including 5 B&amp;W Stills (Large), 2 Promo Flyers</p>"], "credit_line_for_label": "", "details": [{"label": "Subject category", "display_values": ["Documentation"]}, {"label": "Object Types", "display_values": ["Publicity kit"]}], "stats": {"tap_count": 4}, "links": [], "creators_primary": [], "creators_other": [], "media_note": null, "holdings": [], "part_of": null, "parts": [], "part_siblings": [], "group": null, "group_works": [], "group_siblings": [], "source": {"name": "Vernon", "slug": "vernon"}, "source_identifier": "149245", "eaas_environment_id": null, "production_places": [], "production_dates": [], "labels": [58136]}, {"id": 118640, "acmi_id": "R0001272", "title": "[Donald Friend : The Prodigal Australian : publicity kit]", "title_annotation": "", "slug": "donald-friend-the-prodigal-australian-publicity-kit", "creator_credit": "", "credit_line": "", "headline_credit": "", "video_links": [], "record_type": "work", "type": "Object", "is_on_display": false, "last_on_display_place": null, "last_on_display_date": null, "is_context_indigenous": false, "material_description": "", "unpublished": false, "external": false, "first_production_date": null, "commissioned": false, "public_domain": false, "external_references": [], "brief_description": "<p>Publicity kit for the production Donald Friend: The Prodigal Australian, including 1 B&amp;W Still (Small)</p>", "constellations_primary": [], "constellations_other": [], "recommendations": [], "creator_credit_for_label": "", "headline_credit_for_label": "", "title_for_label": "<p>[Donald Friend : The Prodigal Australian : publicity kit]</p>", "description": "<p>Publicity kit for the production Donald Friend: The Prodigal Australian, including 1 B&amp;W Still (Small)</p>", "description_for_label": ["<p>Publicity kit for the production Donald Friend: The Prodigal Australian, including 1 B&amp;W Still (Small)</p>"], "credit_line_for_label": "", "details": [{"label": "Subject category", "display_values": ["Documentation"]}, {"label": "Object Types", "display_values": ["Publicity kit"]}], "stats": {"tap_count": 0}, "links": [], "creators_primary": [], "creators_other": [], "media_note": "Sorry, we don't have images or video for this item.", "holdings": [], "part_of": null, "parts": [], "part_siblings": [], "group": null, "group_works": [], "group_siblings": [], "source": {"name": "Vernon", "slug": "vernon"}, "source_identifier": "149244", "eaas_environment_id": null, "production_places": [], "production_dates": [], "labels": [58135]}, {"id": 118639, "acmi_id": "R0001271", "title": "[Don't call me girlie : publicity kit]", "title_annotation": "", "slug": "dont-call-me-girlie-publicity-kit", "creator_credit": "", "credit_line": "", "headline_credit": "", "video_links": [], "record_type": "work", "type": "Object", "is_on_display": false, "last_on_display_place": null, "last_on_display_date": null, "is_context_indigenous": false, "material_description": "", "unpublished": false, "external": false, "first_production_date": null, "commissioned": false, "public_domain": false, "external_references": [], "brief_description": "<p>Publicity kit for the production Don&#8217;t Call Me Girlie (1985), including 11 B&amp;W Stills (Large), 1 Press Kit/ Review</p>", "constellations_primary": [], "constellations_other": [], "recommendations": [], "creator_credit_for_label": "", "headline_credit_for_label": "", "title_for_label": "<p>[Don&#8217;t call me girlie : publicity kit]</p>", "description": "<p>Publicity kit for the production Don&#8217;t Call Me Girlie (1985), including 11 B&amp;W Stills (Large), 1 Press Kit/ Review</p>", "description_for_label": ["<p>Publicity kit for the production Don&#8217;t Call Me Girlie (1985), including 11 B&amp;W Stills (Large), 1 Press Kit/ Review</p>"], "credit_line_for_label": "", "details": [{"label": "Subject category", "display_values": ["Documentation"]}, {"label": "Object Types", "display_values": ["Publicity kit"]}], "stats": {"tap_count": 0}, "links": [], "creators_primary": [], "creators_other": [], "media_note": null, "holdings": [], "part_of": null, "parts": [], "part_siblings": [], "group": null, "group_works": [], "group_siblings": [], "source": {"name": "Vernon", "slug": "vernon"}, "source_identifier": "149243", "eaas_environment_id": null, "production_places": [], "production_dates": [], "labels": [58134]}, {"id": 118638, "acmi_id": "R0001270", "title": "[Doctors and nurses : publicity kit]", "title_annotation": "", "slug": "doctors-and-nurses-publicity-kit", "creator_credit": "", "credit_line": "", "headline_credit": "", "video_links": [], "record_type": "work", "type": "Object", "is_on_display": false, "last_on_display_place": null, "last_on_display_date": null, "is_context_indigenous": false, "material_description": "", "unpublished": false, "external": false, "first_production_date": null, "commissioned": false, "public_domain": false, "external_references": [], "brief_description": "<p>Publicity kit for the production Doctors and Nurses (1981), including 9 B&amp;W Stills (Large)</p>", "constellations_primary": [], "constellations_other": [], "recommendations": [], "creator_credit_for_label": "", "headline_credit_for_label": "", "title_for_label": "<p>[Doctors and nurses : publicity kit]</p>", "description": "<p>Publicity kit for the production Doctors and Nurses (1981), including 9 B&amp;W Stills (Large)</p>", "description_for_label": ["<p>Publicity kit for the production Doctors and Nurses (1981), including 9 B&amp;W Stills (Large)</p>"], "credit_line_for_label": "", "details": [{"label": "Subject category", "display_values": ["Documentation"]}, {"label": "Object Types", "display_values": ["Publicity kit"]}], "stats": {"tap_count": 0}, "links": [], "creators_primary": [], "creators_other": [], "media_note": null, "holdings": [], "part_of": null, "parts": [], "part_siblings": [], "group": null, "group_works": [], "group_siblings": [], "source": {"name": "Vernon", "slug": "vernon"}, "source_identifier": "149242", "eaas_environment_id": null, "production_places": [], "production_dates": [], "labels": [58133]}]}