{"count": 41722, "next": "https://api.acmi.net.au/works/?page=1188", "previous": "https://api.acmi.net.au/works/?page=1186", "results": [{"id": 108408, "acmi_id": "B1002797", "title": "Passionless moments", "title_annotation": "", "slug": "passionless-moments", "creator_credit": "Jane Campion", "credit_line": "", "headline_credit": "Australia, 1984", "video_links": [], "record_type": "work", "type": "Film", "is_on_display": false, "last_on_display_place": null, "last_on_display_date": null, "is_context_indigenous": false, "material_description": "", "unpublished": false, "external": false, "first_production_date": "1984-01-01T11:00:00+11:00", "commissioned": false, "public_domain": false, "external_references": [], "brief_description": "<p>A series of suburban vignettes dealing with everyday eccentricities. Filmed in black and white, this is an early work by renowned New Zealand filmmaker Jane Campion. Through a series of alternately ironic and bizarre vignettes, the filmmaker composes a joyful celebration to the beauty of the mundane and the ordinary.</p>", "constellations_primary": [], "constellations_other": [], "recommendations": [], "title_for_label": "<p>Passionless moments</p>", "creator_credit_for_label": "<p>Jane Campion</p>", "headline_credit_for_label": "<p>Australia, 1984</p>", "description": "<p>A series of suburban vignettes dealing with everyday eccentricities. Filmed in black and white, this is an early work by renowned New Zealand filmmaker Jane Campion. Through a series of alternately ironic and bizarre vignettes, the filmmaker composes a joyful celebration to the beauty of the mundane and the ordinary.</p>", "description_for_label": ["<p>A series of suburban vignettes dealing with everyday eccentricities. Filmed in black and white, this is an early work by renowned New Zealand filmmaker Jane Campion. Through a series of alternately ironic and bizarre vignettes, the filmmaker composes a joyful celebration to the beauty of the mundane and the ordinary.</p>"], "credit_line_for_label": "", "details": [{"label": "Duration", "display_values": ["00:12:00:00"]}, {"label": "Language", "display_values": ["English"]}, {"label": "Subject categories", "display_values": ["Drama", "Short films", "Short films&nbsp;→ Short films - Australia"]}], "stats": {"tap_count": 0}, "links": [], "creators_primary": [{"id": 2748684, "name": "Jane Campion", "creator_id": 4416, "creator_wikidata_id": "Q230448", "role": "creator", "role_id": 968, "is_primary": true}], "creators_other": [], "media_note": "Sorry, we don't have images or video for this item.", "holdings": [{"name": "Digital Betacam [PAL]; Master", "identifier": "", "description": ""}, {"name": "Digital Betacam [PAL]; Sub-master", "identifier": "", "description": ""}, {"name": "VHS [PAL]; Reference - timecoded", "identifier": "", "description": ""}], "part_of": null, "parts": [], "part_siblings": [], "group": null, "group_works": [], "group_siblings": [], "source": {"name": "Vernon", "slug": "vernon"}, "source_identifier": "907", "eaas_environment_id": null, "production_places": [{"id": 3, "name": "Australia", "slug": "australia"}], "production_dates": [{"date": "1984", "notes": "", "to_year": "1984"}], "labels": [47901]}, {"id": 108403, "acmi_id": "B1002787", "title": "Joy", "title_annotation": "", "slug": "joy", "creator_credit": "Cate Shortland, Rachel Clements and AFTRS", "credit_line": "", "headline_credit": "Australia, 2000", "video_links": [], "record_type": "work", "type": "Film", "is_on_display": false, "last_on_display_place": null, "last_on_display_date": null, "is_context_indigenous": false, "material_description": "", "unpublished": false, "external": false, "first_production_date": "2000-01-01T11:00:00+11:00", "commissioned": false, "public_domain": false, "external_references": [], "brief_description": "<p>Thursday night. Late night shopping. Joy wants to have fun. This film follows a teenage girl as she hits the town in search of a good time. But Joy&#8217;s search for fulfilment leaves her lost and lonely at the end of the evening as we follow her to her unhappy home. By the director of Somersault (2004) Original format 35 mm/colour<br />\nWARNING: This film contains scenes that may offend some viewers</p>", "constellations_primary": [], "constellations_other": [], "recommendations": [], "title_for_label": "<p>Joy</p>", "creator_credit_for_label": "<p>Cate Shortland, Rachel Clements and AFTRS</p>", "headline_credit_for_label": "<p>Australia, 2000</p>", "description": "<p>Thursday night. Late night shopping. Joy wants to have fun. This film follows a teenage girl as she hits the town in search of a good time. But Joy&#8217;s search for fulfilment leaves her lost and lonely at the end of the evening as we follow her to her unhappy home. By the director of Somersault (2004) Original format 35 mm/colour<br />\nWARNING: This film contains scenes that may offend some viewers</p>", "description_for_label": ["<p>Thursday night. Late night shopping. Joy wants to have fun. This film follows a teenage girl as she hits the town in search of a good time. But Joy&#8217;s search for fulfilment leaves her lost and lonely at the end of the evening as we follow her to her unhappy home. By the director of Somersault (2004) Original format 35 mm/colour<br />\nWARNING: This film contains scenes that may offend some viewers</p>"], "credit_line_for_label": "", "details": [{"label": "Duration", "display_values": ["00:09:43:00"]}, {"label": "Language", "display_values": ["English"]}, {"label": "Audience classification", "display_values": ["ACMI classified"]}, {"label": "Subject categories", "display_values": ["Amateur & Student Films", "Amateur & Student Films&nbsp;→ Student films - Australia", "Family, Gender Identity, Relationships & Sexuality&nbsp;→ Teenage girls", "Food, Health, Lifestyle, Medicine, Psychology & Safety&nbsp;→ Teenage girls", "Short films", "Short films&nbsp;→ Short films - Australia"]}, {"label": "Sound/audio", "display_values": ["Sound"]}, {"label": "Colour", "display_values": ["Colour"]}], "stats": {"tap_count": 0}, "links": [], "creators_primary": [{"id": 2748681, "name": "Cate Shortland", "creator_id": 6829, "creator_wikidata_id": "Q441510", "role": "director", "role_id": 938, "is_primary": true}, {"id": 2748682, "name": "Rachel Clements", "creator_id": 7930, "creator_wikidata_id": null, "role": "producer", "role_id": 1089, "is_primary": true}, {"id": 2748680, "name": "AFTRS", "creator_id": 6518, "creator_wikidata_id": "Q121035076", "role": "production company", "role_id": 941, "is_primary": true}], "creators_other": [], "media_note": "Sorry, we don't have images or video for this item.", "holdings": [{"name": "Digital Betacam [PAL]; Sub-master", "identifier": "", "description": ""}, {"name": "VHS [PAL]; Reference - timecoded", "identifier": "", "description": ""}], "part_of": null, "parts": [], "part_siblings": [], "group": null, "group_works": [], "group_siblings": [], "source": {"name": "Vernon", "slug": "vernon"}, "source_identifier": "899", "eaas_environment_id": null, "production_places": [{"id": 3, "name": "Australia", "slug": "australia"}], "production_dates": [{"date": "2000", "notes": "", "to_year": "2000"}], "labels": [47896]}, {"id": 108402, "acmi_id": "B1002769", "title": "Beach story", "title_annotation": "", "slug": "beach-story", "creator_credit": "Kathy Drayton and Karen Colston", "credit_line": "", "headline_credit": "Australia, 2001", "video_links": [], "record_type": "work", "type": "Film", "is_on_display": false, "last_on_display_place": null, "last_on_display_date": null, "is_context_indigenous": false, "material_description": "", "unpublished": false, "external": false, "first_production_date": "2001-01-01T11:00:00+11:00", "commissioned": false, "public_domain": false, "external_references": [], "brief_description": "<p>A family spends the day at the beach. The tensions between mother, daughter and father lead all three characters to isolate themselves as much as they can from each other - creating interior worlds within the larger open expanse of sand, surf, sand and horizon. This intimate and elegantly executed short film is a moving examination of one seemingly ordinary day that will change the dynamics of the family for all time.</p>", "constellations_primary": [], "constellations_other": [], "recommendations": [], "title_for_label": "<p>Beach story</p>", "creator_credit_for_label": "<p>Kathy Drayton and Karen Colston</p>", "headline_credit_for_label": "<p>Australia, 2001</p>", "description": "<p>A family spends the day at the beach. The tensions between mother, daughter and father lead all three characters to isolate themselves as much as they can from each other - creating interior worlds within the larger open expanse of sand, surf, sand and horizon. This intimate and elegantly executed short film is a moving examination of one seemingly ordinary day that will change the dynamics of the family for all time.</p>", "description_for_label": ["<p>A family spends the day at the beach. The tensions between mother, daughter and father lead all three characters to isolate themselves as much as they can from each other - creating interior worlds within the larger open expanse of sand, surf, sand and horizon. This intimate and elegantly executed short film is a moving examination of one seemingly ordinary day that will change the dynamics of the family for all time.</p>"], "credit_line_for_label": "", "details": [{"label": "Language", "display_values": ["English"]}, {"label": "Subject categories", "display_values": ["Drama", "Family, Gender Identity, Relationships & Sexuality&nbsp;→ Children - Family relationships", "Family, Gender Identity, Relationships & Sexuality&nbsp;→ Family - Australia", "Hobbies, Recreation & Sport&nbsp;→ Beaches", "Short films", "Short films&nbsp;→ Short films - Australia"]}], "stats": {"tap_count": 0}, "links": [], "creators_primary": [{"id": 2748678, "name": "Kathy Drayton", "creator_id": 7107, "creator_wikidata_id": "Q121144112", "role": "director", "role_id": 938, "is_primary": true}, {"id": 2748677, "name": "Kathy Drayton", "creator_id": 7107, "creator_wikidata_id": "Q121144112", "role": "creator", "role_id": 968, "is_primary": true}, {"id": 2748679, "name": "Karen Colston", "creator_id": 7929, "creator_wikidata_id": null, "role": "producer", "role_id": 1089, "is_primary": true}], "creators_other": [], "media_note": "Sorry, we don't have images or video for this item.", "holdings": [{"name": "Digital Betacam [PAL]; Master", "identifier": "", "description": ""}, {"name": "VHS [PAL]; Reference - timecoded", "identifier": "", "description": ""}, {"name": "Digital Betacam [PAL]; Sub-master", "identifier": "", "description": ""}], "part_of": null, "parts": [], "part_siblings": [], "group": null, "group_works": [], "group_siblings": [], "source": {"name": "Vernon", "slug": "vernon"}, "source_identifier": "886", "eaas_environment_id": null, "production_places": [{"id": 3, "name": "Australia", "slug": "australia"}], "production_dates": [{"date": "2001", "notes": "", "to_year": "2001"}], "labels": [47895]}, {"id": 108401, "acmi_id": "B1002731", "title": "Jem Cohen interviewed by Emma Crimmings", "title_annotation": "", "slug": "jem-cohen-interviewed-by-emma-crimmings", "creator_credit": "", "credit_line": "", "headline_credit": "11 AUG 2000", "video_links": [], "record_type": "work", "type": "Film", "is_on_display": false, "last_on_display_place": null, "last_on_display_date": null, "is_context_indigenous": false, "material_description": "", "unpublished": false, "external": false, "first_production_date": null, "commissioned": false, "public_domain": false, "external_references": [], "brief_description": "<p>Jem Cohen talks with Emma Crimmings about his relationship with cities and curating a secret museum of unseeen human activity. He describes the qualities and significance of Super 8 film and cameras. He talks about attempts to categorise his work and the limitations of terms such as &#8216;poetic&#8217; or &#8216;experimental&#8217;. Works such as &#8216;Lost Book Found&#8217; and &#8216;This is a History of New York&#8217; are discussed as well as his methodology as an independent film-maker. The discussion also touches on his work with music video and shooting the conflict between the regional and global in Melbourne.</p>", "constellations_primary": [], "constellations_other": [], "recommendations": [], "title_for_label": "<p>Jem Cohen interviewed by Emma Crimmings</p>", "creator_credit_for_label": "", "headline_credit_for_label": "<p>11 AUG 2000</p>", "description": "<p>Jem Cohen talks with Emma Crimmings about his relationship with cities and curating a secret museum of unseeen human activity. He describes the qualities and significance of Super 8 film and cameras. He talks about attempts to categorise his work and the limitations of terms such as &#8216;poetic&#8217; or &#8216;experimental&#8217;. Works such as &#8216;Lost Book Found&#8217; and &#8216;This is a History of New York&#8217; are discussed as well as his methodology as an independent film-maker. The discussion also touches on his work with music video and shooting the conflict between the regional and global in Melbourne.</p>", "description_for_label": ["<p>Jem Cohen talks with Emma Crimmings about his relationship with cities and curating a secret museum of unseeen human activity. He describes the qualities and significance of Super 8 film and cameras. He talks about attempts to categorise his work and the limitations of terms such as &#8216;poetic&#8217; or &#8216;experimental&#8217;. Works such as &#8216;Lost Book Found&#8217; and &#8216;This is a History of New York&#8217; are discussed as well as his methodology as an independent film-maker. The discussion also touches on his work with music video and shooting the conflict between the regional and global in Melbourne.</p>"], "credit_line_for_label": "", "details": [{"label": "Audience classification", "display_values": ["G"]}, {"label": "Subject category", "display_values": ["Anthropology, Ethnology, Exploration & Travel&nbsp;→ Cities and towns"]}], "stats": {"tap_count": 0}, "links": [], "creators_primary": [], "creators_other": [{"id": 2748676, "name": "Jem Cohen", "creator_id": 89, "creator_wikidata_id": "Q6177037", "role": "interviewee", "role_id": 496, "is_primary": false}, {"id": 2748675, "name": "Emma Crimmings", "creator_id": 6328, "creator_wikidata_id": null, "role": "interviewer", "role_id": 457, "is_primary": false}], "media_note": "Sorry, we don't have images or video for this item.", "holdings": [{"name": "VHS; Master", "identifier": "", "description": ""}, {"name": "Mini DV; Master", "identifier": "", "description": ""}], "part_of": null, "parts": [], "part_siblings": [], "group": null, "group_works": [], "group_siblings": [], "source": {"name": "Vernon", "slug": "vernon"}, "source_identifier": "861", "eaas_environment_id": null, "production_places": [], "production_dates": [{"date": "11 AUG 2000", "notes": "", "to_year": "11 AUG 2000"}], "labels": [47894]}, {"id": 108396, "acmi_id": "B1002714", "title": "SPK", "title_annotation": "", "slug": "spk", "creator_credit": "", "credit_line": "", "headline_credit": "", "video_links": [], "record_type": "work", "type": "Film", "is_on_display": false, "last_on_display_place": null, "last_on_display_date": null, "is_context_indigenous": false, "material_description": "", "unpublished": false, "external": false, "first_production_date": null, "commissioned": false, "public_domain": false, "external_references": [], "brief_description": "", "constellations_primary": [], "constellations_other": [], "recommendations": [], "title_for_label": "<p>SPK</p>", "creator_credit_for_label": "", "headline_credit_for_label": "", "description": "", "description_for_label": [], "credit_line_for_label": "", "details": [], "stats": {"tap_count": 0}, "links": [], "creators_primary": [], "creators_other": [], "media_note": "Sorry, we don't have images or video for this item.", "holdings": [{"name": "U-Matic (low band); Master", "identifier": "", "description": ""}], "part_of": null, "parts": [], "part_siblings": [], "group": null, "group_works": [], "group_siblings": [], "source": {"name": "Vernon", "slug": "vernon"}, "source_identifier": "847", "eaas_environment_id": null, "production_places": [], "production_dates": [], "labels": [47889]}, {"id": 108395, "acmi_id": "B1002713", "title": "H.V Masters", "title_annotation": "", "slug": "hv-masters", "creator_credit": "", "credit_line": "", "headline_credit": "", "video_links": [], "record_type": "work", "type": "Film", "is_on_display": false, "last_on_display_place": null, "last_on_display_date": null, "is_context_indigenous": false, "material_description": "", "unpublished": false, "external": false, "first_production_date": null, "commissioned": false, "public_domain": false, "external_references": [], "brief_description": "", "constellations_primary": [], "constellations_other": [], "recommendations": [], "title_for_label": "<p>H.V Masters</p>", "creator_credit_for_label": "", "headline_credit_for_label": "", "description": "", "description_for_label": [], "credit_line_for_label": "", "details": [], "stats": {"tap_count": 0}, "links": [], "creators_primary": [], "creators_other": [], "media_note": "Sorry, we don't have images or video for this item.", "holdings": [{"name": "VHS [PAL]; Reference - timecoded", "identifier": "", "description": ""}, {"name": "Digital Betacam [PAL]; Sub-master", "identifier": "", "description": ""}, {"name": "U-Matic (low band); Master", "identifier": "", "description": ""}], "part_of": null, "parts": [], "part_siblings": [], "group": null, "group_works": [], "group_siblings": [], "source": {"name": "Vernon", "slug": "vernon"}, "source_identifier": "846", "eaas_environment_id": null, "production_places": [], "production_dates": [], "labels": [47888]}, {"id": 108394, "acmi_id": "B1002712", "title": "Syntheses: Horizontal music", "title_annotation": "", "slug": "syntheses-horizontal-music", "creator_credit": "", "credit_line": "", "headline_credit": "", "video_links": [], "record_type": "work", "type": "Film", "is_on_display": false, "last_on_display_place": null, "last_on_display_date": null, "is_context_indigenous": false, "material_description": "", "unpublished": false, "external": false, "first_production_date": null, "commissioned": false, "public_domain": false, "external_references": [], "brief_description": "", "constellations_primary": [], "constellations_other": [], "recommendations": [], "title_for_label": "<p>Syntheses: Horizontal music</p>", "creator_credit_for_label": "", "headline_credit_for_label": "", "description": "", "description_for_label": [], "credit_line_for_label": "", "details": [], "stats": {"tap_count": 0}, "links": [], "creators_primary": [], "creators_other": [], "media_note": "Sorry, we don't have images or video for this item.", "holdings": [{"name": "Digital Betacam [PAL]; Sub-master", "identifier": "", "description": ""}, {"name": "VHS [PAL]; Reference - timecoded", "identifier": "", "description": ""}, {"name": "U-Matic (low band); Master", "identifier": "", "description": ""}], "part_of": null, "parts": [], "part_siblings": [], "group": null, "group_works": [], "group_siblings": [], "source": {"name": "Vernon", "slug": "vernon"}, "source_identifier": "845", "eaas_environment_id": null, "production_places": [], "production_dates": [], "labels": [47887]}, {"id": 108393, "acmi_id": "B1002711", "title": "Pegged in", "title_annotation": "", "slug": "pegged-in", "creator_credit": "Michael Eaglesome and VCA", "credit_line": "", "headline_credit": "1991", "video_links": [], "record_type": "work", "type": "Film", "is_on_display": false, "last_on_display_place": null, "last_on_display_date": null, "is_context_indigenous": false, "material_description": "", "unpublished": false, "external": false, "first_production_date": "1991-01-01T11:00:00+11:00", "commissioned": false, "public_domain": false, "external_references": [], "brief_description": "<p>The secret life of a peg! A comic animation of common wooden pegs who, once left alone in a laundry basket, come to life and sprout legs. This quirky short has the pegs getting caught up in a string, one burns itself of an iron, and they all conspire to release two of their fellow pegs from a shirt pocket, in the process cause chaos.</p>", "constellations_primary": [], "constellations_other": [], "recommendations": [], "title_for_label": "<p>Pegged in</p>", "creator_credit_for_label": "<p>Michael Eaglesome and VCA</p>", "headline_credit_for_label": "<p>1991</p>", "description": "<p>The secret life of a peg! A comic animation of common wooden pegs who, once left alone in a laundry basket, come to life and sprout legs. This quirky short has the pegs getting caught up in a string, one burns itself of an iron, and they all conspire to release two of their fellow pegs from a shirt pocket, in the process cause chaos.</p>", "description_for_label": ["<p>The secret life of a peg! A comic animation of common wooden pegs who, once left alone in a laundry basket, come to life and sprout legs. This quirky short has the pegs getting caught up in a string, one burns itself of an iron, and they all conspire to release two of their fellow pegs from a shirt pocket, in the process cause chaos.</p>"], "credit_line_for_label": "", "details": [{"label": "Duration", "display_values": ["00:02:00:00"]}, {"label": "Audience classification", "display_values": ["ACMI classified"]}, {"label": "Subject categories", "display_values": ["Animation", "Animation&nbsp;→ Puppet animation"]}, {"label": "Sound/audio", "display_values": ["Sound"]}, {"label": "Colour", "display_values": ["Colour"]}], "stats": {"tap_count": 0}, "links": [], "creators_primary": [{"id": 2748673, "name": "Michael Eaglesome", "creator_id": 7919, "creator_wikidata_id": null, "role": "director", "role_id": 938, "is_primary": true}, {"id": 2748672, "name": "Michael Eaglesome", "creator_id": 7919, "creator_wikidata_id": null, "role": "creator", "role_id": 968, "is_primary": true}, {"id": 2748671, "name": "VCA", "creator_id": 6833, "creator_wikidata_id": null, "role": "producer", "role_id": 1089, "is_primary": true}], "creators_other": [], "media_note": "Sorry, we don't have images or video for this item.", "holdings": [{"name": "VHS [PAL]; Copy", "identifier": "", "description": ""}, {"name": "MPEG-2 Digital File; Memory Grid Pod Full Encode", "identifier": "", "description": ""}], "part_of": null, "parts": [], "part_siblings": [], "group": null, "group_works": [], "group_siblings": [], "source": {"name": "Vernon", "slug": "vernon"}, "source_identifier": "844", "eaas_environment_id": null, "production_places": [], "production_dates": [{"date": "1991", "notes": "", "to_year": "1991"}], "labels": [47886]}, {"id": 108392, "acmi_id": "B1002707", "title": "Go motion", "title_annotation": "", "slug": "go-motion", "creator_credit": "", "credit_line": "", "headline_credit": "", "video_links": [], "record_type": "work", "type": "Film", "is_on_display": false, "last_on_display_place": null, "last_on_display_date": null, "is_context_indigenous": false, "material_description": "", "unpublished": false, "external": false, "first_production_date": null, "commissioned": false, "public_domain": false, "external_references": [], "brief_description": "", "constellations_primary": [], "constellations_other": [], "recommendations": [], "title_for_label": "<p>Go motion</p>", "creator_credit_for_label": "", "headline_credit_for_label": "", "description": "", "description_for_label": [], "credit_line_for_label": "", "details": [], "stats": {"tap_count": 0}, "links": [], "creators_primary": [], "creators_other": [], "media_note": "Sorry, we don't have images or video for this item.", "holdings": [{"name": "CD ROM; Master", "identifier": "", "description": ""}], "part_of": null, "parts": [], "part_siblings": [], "group": null, "group_works": [], "group_siblings": [], "source": {"name": "Vernon", "slug": "vernon"}, "source_identifier": "843", "eaas_environment_id": null, "production_places": [], "production_dates": [], "labels": [47885]}, {"id": 108391, "acmi_id": "B1002701", "title": "Federation Square time lapse project", "title_annotation": "", "slug": "federation-square-time-lapse-project", "creator_credit": "Bob Grieve", "credit_line": "", "headline_credit": "Australia, 09 APR 1998", "video_links": [], "record_type": "work", "type": "Film", "is_on_display": false, "last_on_display_place": null, "last_on_display_date": null, "is_context_indigenous": false, "material_description": "", "unpublished": false, "external": false, "first_production_date": null, "commissioned": false, "public_domain": false, "external_references": [], "brief_description": "<p>Time lapse footage of the construction of the Federation Square site. Includes hourly photos take from the architect&#8217;s office, commencing April 1998. Intended to be used for a short animation sequence.</p>", "constellations_primary": [], "constellations_other": [], "recommendations": [], "title_for_label": "<p>Federation Square time lapse project</p>", "creator_credit_for_label": "<p>Bob Grieve</p>", "headline_credit_for_label": "<p>Australia, 09 APR 1998</p>", "description": "<p>Time lapse footage of the construction of the Federation Square site. Includes hourly photos take from the architect&#8217;s office, commencing April 1998. Intended to be used for a short animation sequence.</p>", "description_for_label": ["<p>Time lapse footage of the construction of the Federation Square site. Includes hourly photos take from the architect&#8217;s office, commencing April 1998. Intended to be used for a short animation sequence.</p>"], "credit_line_for_label": "", "details": [], "stats": {"tap_count": 0}, "links": [], "creators_primary": [{"id": 2748662, "name": "Bob Grieve", "creator_id": 7916, "creator_wikidata_id": null, "role": "creator", "role_id": 968, "is_primary": true}, {"id": 2748663, "name": "Bob Grieve", "creator_id": 7916, "creator_wikidata_id": null, "role": "producer", "role_id": 1089, "is_primary": true}], "creators_other": [], "media_note": "Sorry, we don't have images or video for this item.", "holdings": [{"name": "SP Betacam; Master", "identifier": "", "description": ""}, {"name": "Digital Betacam [PAL]; Sub-master", "identifier": "", "description": ""}, {"name": "VHS [PAL]; Reference - timecoded", "identifier": "", "description": ""}, {"name": "CD ROM; Master", "identifier": "", "description": ""}, {"name": "CD ROM; Copy", "identifier": "", "description": ""}], "part_of": null, "parts": [], "part_siblings": [], "group": null, "group_works": [], "group_siblings": [], "source": {"name": "Vernon", "slug": "vernon"}, "source_identifier": "838", "eaas_environment_id": null, "production_places": [{"id": 3, "name": "Australia", "slug": "australia"}], "production_dates": [{"date": "09 APR 1998", "notes": "ongoing", "to_year": "09 APR 1998"}], "labels": [47884]}]}