{"count": 41723, "next": "https://api.acmi.net.au/works/?page=3074", "previous": "https://api.acmi.net.au/works/?page=3072", "results": [{"id": 117509, "acmi_id": "509834", "title": "Inside the nucleus and fission", "title_annotation": "", "slug": "inside-the-nucleus-and-fission", "creator_credit": "", "credit_line": "", "headline_credit": "United States, 1957", "video_links": [], "record_type": "work", "type": "Film", "is_on_display": false, "last_on_display_place": null, "last_on_display_date": null, "is_context_indigenous": false, "material_description": "", "unpublished": false, "external": false, "first_production_date": "1957-01-01T10:00:00+10:00", "commissioned": false, "public_domain": false, "external_references": [], "brief_description": "<p>Narrator: Harvey E. White</p>", "constellations_primary": [], "constellations_other": [], "recommendations": [], "creator_credit_for_label": "", "headline_credit_for_label": "<p>United States, 1957</p>", "title_for_label": "<p>Inside the nucleus and fission</p>", "description": "<p>Narrator: Harvey E. White</p>", "description_for_label": ["<p>Narrator: Harvey E. White</p>"], "credit_line_for_label": "", "details": [{"label": "Duration", "display_values": ["00:31:00:00"]}, {"label": "Language", "display_values": ["English"]}, {"label": "Subject categories", "display_values": ["Short films", "Short films&nbsp;→ Short films - United States"]}, {"label": "Sound/audio", "display_values": ["Sound"]}, {"label": "Colour", "display_values": ["Black and White"]}], "stats": {"tap_count": 0}, "links": [], "creators_primary": [], "creators_other": [], "media_note": "Sorry, we don't have images or video for this item.", "holdings": [{"name": "16mm film; Preservation Print (Section 5)", "identifier": "", "description": ""}], "part_of": null, "parts": [], "part_siblings": [], "group": null, "group_works": [], "group_siblings": [], "source": {"name": "Vernon", "slug": "vernon"}, "source_identifier": "163317", "eaas_environment_id": null, "production_places": [{"id": 2, "name": "United States", "slug": "united-states"}], "production_dates": [{"date": "1957", "notes": "", "to_year": "1957"}], "labels": [57003]}, {"id": 117508, "acmi_id": "509833", "title": "Infinite acres", "title_annotation": "", "slug": "infinite-acres", "creator_credit": "", "credit_line": "", "headline_credit": "United States, 1967", "video_links": [], "record_type": "work", "type": "Film", "is_on_display": false, "last_on_display_place": null, "last_on_display_date": null, "is_context_indigenous": false, "material_description": "", "unpublished": false, "external": false, "first_production_date": "1967-01-01T10:00:00+10:00", "commissioned": false, "public_domain": false, "external_references": [], "brief_description": "<p>Summary: Represents the paradoxial situation of a solid with a finite volume and an infinite surface area. An animated film narrated by M. Henriksen</p>", "constellations_primary": [], "constellations_other": [], "recommendations": [], "creator_credit_for_label": "", "headline_credit_for_label": "<p>United States, 1967</p>", "title_for_label": "<p>Infinite acres</p>", "description": "<p>Summary: Represents the paradoxial situation of a solid with a finite volume and an infinite surface area. An animated film narrated by M. Henriksen</p>", "description_for_label": ["<p>Summary: Represents the paradoxial situation of a solid with a finite volume and an infinite surface area. An animated film narrated by M. Henriksen</p>"], "credit_line_for_label": "", "details": [{"label": "Duration", "display_values": ["00:10:00:00"]}, {"label": "Language", "display_values": ["English"]}, {"label": "Subject categories", "display_values": ["Short films", "Short films&nbsp;→ Short films - United States"]}, {"label": "Sound/audio", "display_values": ["Sound"]}, {"label": "Colour", "display_values": ["Colour"]}], "stats": {"tap_count": 0}, "links": [], "creators_primary": [], "creators_other": [], "media_note": "Sorry, we don't have images or video for this item.", "holdings": [{"name": "16mm film; Preservation Print (Section 5)", "identifier": "", "description": ""}], "part_of": null, "parts": [], "part_siblings": [], "group": null, "group_works": [], "group_siblings": [], "source": {"name": "Vernon", "slug": "vernon"}, "source_identifier": "163316", "eaas_environment_id": null, "production_places": [{"id": 2, "name": "United States", "slug": "united-states"}], "production_dates": [{"date": "1967", "notes": "", "to_year": "1967"}], "labels": [57002]}, {"id": 117507, "acmi_id": "509831", "title": "Impeachment", "title_annotation": "", "slug": "impeachment", "creator_credit": "", "credit_line": "", "headline_credit": "United States, 1974", "video_links": [], "record_type": "work", "type": "Film", "is_on_display": false, "last_on_display_place": null, "last_on_display_date": null, "is_context_indigenous": false, "material_description": "", "unpublished": false, "external": false, "first_production_date": "1974-01-01T11:00:00+11:00", "commissioned": false, "public_domain": false, "external_references": [], "brief_description": "<p>&#8220;Summary: traces the history of impeachment from the Magna Carta through the American Revolution, the drafting of the U.S. constitution, the impeachment of Andrew Johnson and the issues involving Richard Nixon. explains the process of impeachment of a president and examines the roles of the House of Representatives and the Senate&#8221;</p>", "constellations_primary": [], "constellations_other": [], "recommendations": [], "creator_credit_for_label": "", "headline_credit_for_label": "<p>United States, 1974</p>", "title_for_label": "<p>Impeachment</p>", "description": "<p>&#8220;Summary: traces the history of impeachment from the Magna Carta through the American Revolution, the drafting of the U.S. constitution, the impeachment of Andrew Johnson and the issues involving Richard Nixon. explains the process of impeachment of a president and examines the roles of the House of Representatives and the Senate&#8221;</p>", "description_for_label": ["<p>&#8220;Summary: traces the history of impeachment from the Magna Carta through the American Revolution, the drafting of the U.S. constitution, the impeachment of Andrew Johnson and the issues involving Richard Nixon. explains the process of impeachment of a president and examines the roles of the House of Representatives and the Senate&#8221;</p>"], "credit_line_for_label": "", "details": [{"label": "Duration", "display_values": ["00:10:00:00"]}, {"label": "Language", "display_values": ["English"]}, {"label": "Subject categories", "display_values": ["Short films", "Short films&nbsp;→ Short films - United States"]}, {"label": "Sound/audio", "display_values": ["Sound"]}, {"label": "Colour", "display_values": ["Colour"]}], "stats": {"tap_count": 0}, "links": [], "creators_primary": [], "creators_other": [], "media_note": "Sorry, we don't have images or video for this item.", "holdings": [{"name": "16mm film; Preservation Print (Section 5)", "identifier": "", "description": ""}], "part_of": null, "parts": [], "part_siblings": [], "group": null, "group_works": [], "group_siblings": [], "source": {"name": "Vernon", "slug": "vernon"}, "source_identifier": "163314", "eaas_environment_id": null, "production_places": [{"id": 2, "name": "United States", "slug": "united-states"}], "production_dates": [{"date": "1974", "notes": "", "to_year": "1974"}], "labels": [57001]}, {"id": 117503, "acmi_id": "509827", "title": "Hormonal control of behavior", "title_annotation": "", "slug": "hormonal-control-of-behavior", "creator_credit": "", "credit_line": "", "headline_credit": "United States, 1967", "video_links": [], "record_type": "work", "type": "Film", "is_on_display": false, "last_on_display_place": null, "last_on_display_date": null, "is_context_indigenous": false, "material_description": "", "unpublished": false, "external": false, "first_production_date": "1967-01-01T10:00:00+10:00", "commissioned": false, "public_domain": false, "external_references": [], "brief_description": "", "constellations_primary": [], "constellations_other": [], "recommendations": [], "creator_credit_for_label": "", "headline_credit_for_label": "<p>United States, 1967</p>", "title_for_label": "<p>Hormonal control of behavior</p>", "description": "", "description_for_label": [], "credit_line_for_label": "", "details": [{"label": "Duration", "display_values": ["00:20:00:00"]}, {"label": "Language", "display_values": ["English"]}, {"label": "Subject categories", "display_values": ["Short films", "Short films&nbsp;→ Short films - United States"]}, {"label": "Sound/audio", "display_values": ["Sound"]}, {"label": "Colour", "display_values": ["Colour"]}], "stats": {"tap_count": 0}, "links": [], "creators_primary": [], "creators_other": [], "media_note": "Sorry, we don't have images or video for this item.", "holdings": [{"name": "16mm film; Preservation Print (Section 5)", "identifier": "", "description": ""}], "part_of": null, "parts": [], "part_siblings": [], "group": null, "group_works": [], "group_siblings": [], "source": {"name": "Vernon", "slug": "vernon"}, "source_identifier": "163310", "eaas_environment_id": null, "production_places": [{"id": 2, "name": "United States", "slug": "united-states"}], "production_dates": [{"date": "1967", "notes": "", "to_year": "1967"}], "labels": [56997]}, {"id": 117502, "acmi_id": "509826", "title": "Group problem solving", "title_annotation": "", "slug": "group-problem-solving", "creator_credit": "", "credit_line": "", "headline_credit": "United States, 1968", "video_links": [], "record_type": "work", "type": "Film", "is_on_display": false, "last_on_display_place": null, "last_on_display_date": null, "is_context_indigenous": false, "material_description": "", "unpublished": false, "external": false, "first_production_date": "1968-01-01T10:00:00+10:00", "commissioned": false, "public_domain": false, "external_references": [], "brief_description": "<p>SUMMARY: Explains effective group discussion techniques and organisation as illustrated by a panel discussion by high school students about whether a more equitable and practical grading system can be achieved</p>", "constellations_primary": [], "constellations_other": [], "recommendations": [], "creator_credit_for_label": "", "headline_credit_for_label": "<p>United States, 1968</p>", "title_for_label": "<p>Group problem solving</p>", "description": "<p>SUMMARY: Explains effective group discussion techniques and organisation as illustrated by a panel discussion by high school students about whether a more equitable and practical grading system can be achieved</p>", "description_for_label": ["<p>SUMMARY: Explains effective group discussion techniques and organisation as illustrated by a panel discussion by high school students about whether a more equitable and practical grading system can be achieved</p>"], "credit_line_for_label": "", "details": [{"label": "Duration", "display_values": ["00:13:00:00"]}, {"label": "Language", "display_values": ["English"]}, {"label": "Subject categories", "display_values": ["Short films", "Short films&nbsp;→ Short films - United States"]}, {"label": "Sound/audio", "display_values": ["Sound"]}, {"label": "Colour", "display_values": ["Colour"]}], "stats": {"tap_count": 0}, "links": [], "creators_primary": [], "creators_other": [], "media_note": "Sorry, we don't have images or video for this item.", "holdings": [{"name": "16mm film; Preservation Print (Section 5)", "identifier": "", "description": ""}], "part_of": null, "parts": [], "part_siblings": [], "group": null, "group_works": [], "group_siblings": [], "source": {"name": "Vernon", "slug": "vernon"}, "source_identifier": "163309", "eaas_environment_id": null, "production_places": [{"id": 2, "name": "United States", "slug": "united-states"}], "production_dates": [{"date": "1968", "notes": "", "to_year": "1968"}], "labels": [56996]}, {"id": 117501, "acmi_id": "509825", "title": "Greece : the land and the people", "title_annotation": "", "slug": "greece-the-land-and-the-people", "creator_credit": "", "credit_line": "", "headline_credit": "United States, 1977", "video_links": [], "record_type": "work", "type": "Film", "is_on_display": false, "last_on_display_place": null, "last_on_display_date": null, "is_context_indigenous": false, "material_description": "", "unpublished": false, "external": false, "first_production_date": "1977-01-01T11:00:00+11:00", "commissioned": false, "public_domain": false, "external_references": [], "brief_description": "<p>Summary: A general film abour life in Greece, including the history, geography, agriculture and trade of the country.</p>", "constellations_primary": [], "constellations_other": [], "recommendations": [], "creator_credit_for_label": "", "headline_credit_for_label": "<p>United States, 1977</p>", "title_for_label": "<p>Greece : the land and the people</p>", "description": "<p>Summary: A general film abour life in Greece, including the history, geography, agriculture and trade of the country.</p>", "description_for_label": ["<p>Summary: A general film abour life in Greece, including the history, geography, agriculture and trade of the country.</p>"], "credit_line_for_label": "", "details": [{"label": "Duration", "display_values": ["00:11:00:00"]}, {"label": "Language", "display_values": ["English"]}, {"label": "Subject categories", "display_values": ["Short films", "Short films&nbsp;→ Short films - United States"]}, {"label": "Sound/audio", "display_values": ["Sound"]}, {"label": "Colour", "display_values": ["Colour"]}], "stats": {"tap_count": 0}, "links": [], "creators_primary": [], "creators_other": [], "media_note": "Sorry, we don't have images or video for this item.", "holdings": [{"name": "16mm film; Preservation Print (Section 5)", "identifier": "", "description": ""}], "part_of": null, "parts": [], "part_siblings": [], "group": null, "group_works": [], "group_siblings": [], "source": {"name": "Vernon", "slug": "vernon"}, "source_identifier": "163308", "eaas_environment_id": null, "production_places": [{"id": 2, "name": "United States", "slug": "united-states"}], "production_dates": [{"date": "1977", "notes": "", "to_year": "1977"}], "labels": [56995]}, {"id": 117500, "acmi_id": "509824", "title": "Experiments in motion graphics", "title_annotation": "", "slug": "experiments-in-motion-graphics", "creator_credit": "", "credit_line": "", "headline_credit": "United States, 1968", "video_links": [], "record_type": "work", "type": "Film", "is_on_display": false, "last_on_display_place": null, "last_on_display_date": null, "is_context_indigenous": false, "material_description": "", "unpublished": false, "external": false, "first_production_date": "1968-01-01T10:00:00+10:00", "commissioned": false, "public_domain": false, "external_references": [], "brief_description": "<p>&#8220;Summary: john H. Whitney explains the graphic art potential of the computer and the methods and philosophy involved in his computer film making&#8221;</p>", "constellations_primary": [], "constellations_other": [], "recommendations": [], "creator_credit_for_label": "", "headline_credit_for_label": "<p>United States, 1968</p>", "title_for_label": "<p>Experiments in motion graphics</p>", "description": "<p>&#8220;Summary: john H. Whitney explains the graphic art potential of the computer and the methods and philosophy involved in his computer film making&#8221;</p>", "description_for_label": ["<p>&#8220;Summary: john H. Whitney explains the graphic art potential of the computer and the methods and philosophy involved in his computer film making&#8221;</p>"], "credit_line_for_label": "", "details": [{"label": "Duration", "display_values": ["00:12:00:00"]}, {"label": "Language", "display_values": ["English"]}, {"label": "Subject categories", "display_values": ["Short films", "Short films&nbsp;→ Short films - United States"]}, {"label": "Sound/audio", "display_values": ["Sound"]}, {"label": "Colour", "display_values": ["Colour"]}], "stats": {"tap_count": 0}, "links": [], "creators_primary": [], "creators_other": [], "media_note": "Sorry, we don't have images or video for this item.", "holdings": [{"name": "16mm film; Preservation Print (Section 5)", "identifier": "", "description": ""}], "part_of": null, "parts": [], "part_siblings": [], "group": null, "group_works": [], "group_siblings": [], "source": {"name": "Vernon", "slug": "vernon"}, "source_identifier": "163307", "eaas_environment_id": null, "production_places": [{"id": 2, "name": "United States", "slug": "united-states"}], "production_dates": [{"date": "1968", "notes": "", "to_year": "1968"}], "labels": [56994]}, {"id": 117499, "acmi_id": "509823", "title": "The Double day", "title_annotation": "", "slug": "the-double-day", "creator_credit": "", "credit_line": "", "headline_credit": "United States, 1975", "video_links": [], "record_type": "work", "type": "Film", "is_on_display": false, "last_on_display_place": null, "last_on_display_date": null, "is_context_indigenous": false, "material_description": "", "unpublished": false, "external": false, "first_production_date": "1975-01-01T11:00:00+11:00", "commissioned": false, "public_domain": false, "external_references": [], "brief_description": "<p>Summary: Analyzes the working conditions of women in Latin America;&#8221;Note: Spanish dialogue with English subtitles and narration&#8221;</p>", "constellations_primary": [], "constellations_other": [], "recommendations": [], "creator_credit_for_label": "", "headline_credit_for_label": "<p>United States, 1975</p>", "title_for_label": "<p>The Double day</p>", "description": "<p>Summary: Analyzes the working conditions of women in Latin America;&#8221;Note: Spanish dialogue with English subtitles and narration&#8221;</p>", "description_for_label": ["<p>Summary: Analyzes the working conditions of women in Latin America;&#8221;Note: Spanish dialogue with English subtitles and narration&#8221;</p>"], "credit_line_for_label": "", "details": [{"label": "Duration", "display_values": ["00:56:00:00"]}, {"label": "Language", "display_values": ["English"]}, {"label": "Subject categories", "display_values": ["Short films", "Short films&nbsp;→ Short films - United States"]}, {"label": "Sound/audio", "display_values": ["Sound"]}, {"label": "Colour", "display_values": ["Colour"]}], "stats": {"tap_count": 0}, "links": [], "creators_primary": [], "creators_other": [], "media_note": "Sorry, we don't have images or video for this item.", "holdings": [{"name": "16mm film; Preservation Print (Section 5)", "identifier": "", "description": ""}], "part_of": null, "parts": [], "part_siblings": [], "group": null, "group_works": [], "group_siblings": [], "source": {"name": "Vernon", "slug": "vernon"}, "source_identifier": "163306", "eaas_environment_id": null, "production_places": [{"id": 2, "name": "United States", "slug": "united-states"}], "production_dates": [{"date": "1975", "notes": "", "to_year": "1975"}], "labels": [56993]}, {"id": 117496, "acmi_id": "509820", "title": "Contraception", "title_annotation": "", "slug": "contraception", "creator_credit": "", "credit_line": "", "headline_credit": "United States, 1973", "video_links": [], "record_type": "work", "type": "Film", "is_on_display": false, "last_on_display_place": null, "last_on_display_date": null, "is_context_indigenous": false, "material_description": "", "unpublished": false, "external": false, "first_production_date": "1973-01-01T11:00:00+11:00", "commissioned": false, "public_domain": false, "external_references": [], "brief_description": "<p>SUMMARY: Points out the needs for contraceptives during intercourse. Shows the various kinds of contraceptives used today, covering the history of their development, physical properties, the contraceptive principle behind them and uses live photography to show how they work. Discusses the advantages, disadvantages and comparative effectiveness of each method.</p>", "constellations_primary": [], "constellations_other": [], "recommendations": [], "creator_credit_for_label": "", "headline_credit_for_label": "<p>United States, 1973</p>", "title_for_label": "<p>Contraception</p>", "description": "<p>SUMMARY: Points out the needs for contraceptives during intercourse. Shows the various kinds of contraceptives used today, covering the history of their development, physical properties, the contraceptive principle behind them and uses live photography to show how they work. Discusses the advantages, disadvantages and comparative effectiveness of each method.</p>", "description_for_label": ["<p>SUMMARY: Points out the needs for contraceptives during intercourse. Shows the various kinds of contraceptives used today, covering the history of their development, physical properties, the contraceptive principle behind them and uses live photography to show how they work. Discusses the advantages, disadvantages and comparative effectiveness of each method.</p>"], "credit_line_for_label": "", "details": [{"label": "Duration", "display_values": ["00:23:00:00"]}, {"label": "Language", "display_values": ["English"]}, {"label": "Subject categories", "display_values": ["Short films", "Short films&nbsp;→ Short films - United States"]}, {"label": "Sound/audio", "display_values": ["Sound"]}, {"label": "Colour", "display_values": ["Colour"]}], "stats": {"tap_count": 0}, "links": [], "creators_primary": [], "creators_other": [], "media_note": "Sorry, we don't have images or video for this item.", "holdings": [{"name": "16mm film; Preservation Print (Section 5)", "identifier": "", "description": ""}], "part_of": null, "parts": [], "part_siblings": [], "group": null, "group_works": [], "group_siblings": [], "source": {"name": "Vernon", "slug": "vernon"}, "source_identifier": "163303", "eaas_environment_id": null, "production_places": [{"id": 2, "name": "United States", "slug": "united-states"}], "production_dates": [{"date": "1973", "notes": "", "to_year": "1973"}], "labels": [56990]}, {"id": 117491, "acmi_id": "509815", "title": "Chile", "title_annotation": "", "slug": "chile", "creator_credit": "", "credit_line": "", "headline_credit": "United States, 1976", "video_links": [], "record_type": "work", "type": "Film", "is_on_display": false, "last_on_display_place": null, "last_on_display_date": null, "is_context_indigenous": false, "material_description": "", "unpublished": false, "external": false, "first_production_date": "1976-01-01T11:00:00+11:00", "commissioned": false, "public_domain": false, "external_references": [], "brief_description": "<p>SUMMARY: Through the eyes of Alberto, 14 and Luis, 12, we learn about Chile-its climate, geography, schools and music</p>", "constellations_primary": [], "constellations_other": [], "recommendations": [], "creator_credit_for_label": "", "headline_credit_for_label": "<p>United States, 1976</p>", "title_for_label": "<p>Chile</p>", "description": "<p>SUMMARY: Through the eyes of Alberto, 14 and Luis, 12, we learn about Chile-its climate, geography, schools and music</p>", "description_for_label": ["<p>SUMMARY: Through the eyes of Alberto, 14 and Luis, 12, we learn about Chile-its climate, geography, schools and music</p>"], "credit_line_for_label": "", "details": [{"label": "Duration", "display_values": ["00:19:00:00"]}, {"label": "Language", "display_values": ["English"]}, {"label": "Subject categories", "display_values": ["Short films", "Short films&nbsp;→ Short films - United States"]}, {"label": "Sound/audio", "display_values": ["Sound"]}, {"label": "Colour", "display_values": ["Colour"]}], "stats": {"tap_count": 0}, "links": [], "creators_primary": [], "creators_other": [], "media_note": "Sorry, we don't have images or video for this item.", "holdings": [{"name": "16mm film; Preservation Print (Section 5)", "identifier": "", "description": ""}], "part_of": null, "parts": [], "part_siblings": [], "group": null, "group_works": [], "group_siblings": [], "source": {"name": "Vernon", "slug": "vernon"}, "source_identifier": "163298", "eaas_environment_id": null, "production_places": [{"id": 2, "name": "United States", "slug": "united-states"}], "production_dates": [{"date": "1976", "notes": "", "to_year": "1976"}], "labels": [56985]}]}