{"count": 41723, "next": "https://api.acmi.net.au/works/?page=4153", "previous": "https://api.acmi.net.au/works/?page=4151", "results": [{"id": 89918, "acmi_id": "312803", "title": "[Development of the aeroplane: aviation 1915-1940]", "title_annotation": "", "slug": "development-of-the-aeroplane-aviation-1915-1940", "creator_credit": "", "credit_line": "", "headline_credit": "United Kingdom, 1945", "video_links": [], "record_type": "work", "type": "Film", "is_on_display": false, "last_on_display_place": null, "last_on_display_date": null, "is_context_indigenous": false, "material_description": "", "unpublished": false, "external": false, "first_production_date": "1945-01-01T10:00:00+10:00", "commissioned": false, "public_domain": false, "external_references": [], "brief_description": "<p>A documentary on the development of experimental and commercial aviation, 1915 to 1945, focusing mainly on the British contribution with recognition given to Lindbergh and Kingsford Smith. Beginning of film missing and title and credits not available.</p>", "constellations_primary": [], "constellations_other": [], "recommendations": [], "creator_credit_for_label": "", "headline_credit_for_label": "<p>United Kingdom, 1945</p>", "title_for_label": "<p>[Development of the aeroplane: aviation 1915-1940]</p>", "description": "<p>A documentary on the development of experimental and commercial aviation, 1915 to 1945, focusing mainly on the British contribution with recognition given to Lindbergh and Kingsford Smith. Beginning of film missing and title and credits not available.</p>", "description_for_label": ["<p>A documentary on the development of experimental and commercial aviation, 1915 to 1945, focusing mainly on the British contribution with recognition given to Lindbergh and Kingsford Smith. Beginning of film missing and title and credits not available.</p>"], "credit_line_for_label": "", "details": [{"label": "Duration", "display_values": ["00:19:36:00"]}, {"label": "Language", "display_values": ["English"]}, {"label": "Subject categories", "display_values": ["Communications, Infrastructure, & Transport&nbsp;→ Aeronautics", "Communications, Infrastructure, & Transport&nbsp;→ Aeronautics - History", "Documentary", "Documentary&nbsp;→ Documentary films - Great Britain", "History&nbsp;→ History", "Short films", "Short films&nbsp;→ Short films - Great Britain"]}, {"label": "Sound/audio", "display_values": ["Sound"]}, {"label": "Colour", "display_values": ["Black and White"]}], "stats": {"tap_count": 0}, "links": [], "creators_primary": [], "creators_other": [], "media_note": "Sorry, we don't have images or video for this item.", "holdings": [{"name": "16mm film; Access Print (Section 1)", "identifier": "", "description": ""}], "part_of": null, "parts": [], "part_siblings": [], "group": null, "group_works": [], "group_siblings": [], "source": {"name": "Vernon", "slug": "vernon"}, "source_identifier": "47098", "eaas_environment_id": null, "production_places": [{"id": 10, "name": "United Kingdom", "slug": "united-kingdom"}], "production_dates": [{"date": "1945", "notes": "Estimated date", "to_year": "1945"}], "labels": [29408]}, {"id": 118480, "acmi_id": "R0001092", "title": "[Desperado : publicity kit]", "title_annotation": "", "slug": "desperado-publicity-kit", "creator_credit": "", "credit_line": "", "headline_credit": "", "video_links": [], "record_type": "work", "type": "Object", "is_on_display": false, "last_on_display_place": null, "last_on_display_date": null, "is_context_indigenous": false, "material_description": "", "unpublished": false, "external": false, "first_production_date": null, "commissioned": false, "public_domain": false, "external_references": [], "brief_description": "<p>Publicity kit for the production Desperado (1995), including 3 B&amp;W Stills (Large), 2 35mm Colour Transparencies</p>", "constellations_primary": [], "constellations_other": [], "recommendations": [], "creator_credit_for_label": "", "headline_credit_for_label": "", "title_for_label": "<p>[Desperado : publicity kit]</p>", "description": "<p>Publicity kit for the production Desperado (1995), including 3 B&amp;W Stills (Large), 2 35mm Colour Transparencies</p>", "description_for_label": ["<p>Publicity kit for the production Desperado (1995), including 3 B&amp;W Stills (Large), 2 35mm Colour Transparencies</p>"], "credit_line_for_label": "", "details": [{"label": "Subject category", "display_values": ["Documentation"]}, {"label": "Object Types", "display_values": ["Publicity kit"]}], "stats": {"tap_count": 0}, "links": [], "creators_primary": [], "creators_other": [], "media_note": null, "holdings": [], "part_of": null, "parts": [], "part_siblings": [], "group": null, "group_works": [], "group_siblings": [], "source": {"name": "Vernon", "slug": "vernon"}, "source_identifier": "149064", "eaas_environment_id": null, "production_places": [], "production_dates": [], "labels": [57976]}, {"id": 118624, "acmi_id": "R0001255", "title": "[Desolation angels : publicity kit]", "title_annotation": "", "slug": "desolation-angels-publicity-kit", "creator_credit": "", "credit_line": "", "headline_credit": "", "video_links": [], "record_type": "work", "type": "Object", "is_on_display": false, "last_on_display_place": null, "last_on_display_date": null, "is_context_indigenous": false, "material_description": "", "unpublished": false, "external": false, "first_production_date": null, "commissioned": false, "public_domain": false, "external_references": [], "brief_description": "<p>Publicity kit for the production Desolation Angels (1982), including 1 B&amp;W Still (Large)</p>", "constellations_primary": [], "constellations_other": [], "recommendations": [], "creator_credit_for_label": "", "headline_credit_for_label": "", "title_for_label": "<p>[Desolation angels : publicity kit]</p>", "description": "<p>Publicity kit for the production Desolation Angels (1982), including 1 B&amp;W Still (Large)</p>", "description_for_label": ["<p>Publicity kit for the production Desolation Angels (1982), including 1 B&amp;W Still (Large)</p>"], "credit_line_for_label": "", "details": [{"label": "Subject category", "display_values": ["Documentation"]}, {"label": "Object Types", "display_values": ["Publicity kit"]}], "stats": {"tap_count": 0}, "links": [], "creators_primary": [], "creators_other": [], "media_note": null, "holdings": [], "part_of": null, "parts": [], "part_siblings": [], "group": null, "group_works": [], "group_siblings": [], "source": {"name": "Vernon", "slug": "vernon"}, "source_identifier": "149227", "eaas_environment_id": null, "production_places": [], "production_dates": [], "labels": [58119]}, {"id": 118623, "acmi_id": "R0001254", "title": "[Departure : publicity kit]", "title_annotation": "", "slug": "departure-publicity-kit", "creator_credit": "", "credit_line": "", "headline_credit": "", "video_links": [], "record_type": "work", "type": "Object", "is_on_display": false, "last_on_display_place": null, "last_on_display_date": null, "is_context_indigenous": false, "material_description": "", "unpublished": false, "external": false, "first_production_date": null, "commissioned": false, "public_domain": false, "external_references": [], "brief_description": "<p>Publicity kit for the production Departure (1986), including 1 B&amp;W Still (Large), 2 Press Kit/ Reviews, 1 Promo Flyer</p>", "constellations_primary": [], "constellations_other": [], "recommendations": [], "creator_credit_for_label": "", "headline_credit_for_label": "", "title_for_label": "<p>[Departure : publicity kit]</p>", "description": "<p>Publicity kit for the production Departure (1986), including 1 B&amp;W Still (Large), 2 Press Kit/ Reviews, 1 Promo Flyer</p>", "description_for_label": ["<p>Publicity kit for the production Departure (1986), including 1 B&amp;W Still (Large), 2 Press Kit/ Reviews, 1 Promo Flyer</p>"], "credit_line_for_label": "", "details": [{"label": "Subject category", "display_values": ["Documentation"]}, {"label": "Object Types", "display_values": ["Publicity kit"]}], "stats": {"tap_count": 0}, "links": [], "creators_primary": [], "creators_other": [], "media_note": null, "holdings": [], "part_of": null, "parts": [], "part_siblings": [], "group": null, "group_works": [], "group_siblings": [], "source": {"name": "Vernon", "slug": "vernon"}, "source_identifier": "149226", "eaas_environment_id": null, "production_places": [], "production_dates": [], "labels": [58118]}, {"id": 118976, "acmi_id": "R0002010", "title": "[Demolition : publicity kit]", "title_annotation": "", "slug": "demolition-publicity-kit", "creator_credit": "", "credit_line": "", "headline_credit": "", "video_links": [], "record_type": "work", "type": "Object", "is_on_display": false, "last_on_display_place": null, "last_on_display_date": null, "is_context_indigenous": false, "material_description": "", "unpublished": false, "external": false, "first_production_date": null, "commissioned": false, "public_domain": false, "external_references": [], "brief_description": "<p>Publicity kit for the production Demolition (TV 1978), including 4 B&amp;W Stills (Large), 1 Press Kit/ Review</p>", "constellations_primary": [], "constellations_other": [], "recommendations": [], "creator_credit_for_label": "", "headline_credit_for_label": "", "title_for_label": "<p>[Demolition : publicity kit]</p>", "description": "<p>Publicity kit for the production Demolition (TV 1978), including 4 B&amp;W Stills (Large), 1 Press Kit/ Review</p>", "description_for_label": ["<p>Publicity kit for the production Demolition (TV 1978), including 4 B&amp;W Stills (Large), 1 Press Kit/ Review</p>"], "credit_line_for_label": "", "details": [{"label": "Subject category", "display_values": ["Documentation"]}, {"label": "Object Types", "display_values": ["Publicity kit"]}], "stats": {"tap_count": 0}, "links": [], "creators_primary": [], "creators_other": [], "media_note": null, "holdings": [], "part_of": null, "parts": [], "part_siblings": [], "group": null, "group_works": [], "group_siblings": [], "source": {"name": "Vernon", "slug": "vernon"}, "source_identifier": "150043", "eaas_environment_id": null, "production_places": [], "production_dates": [], "labels": [58458]}, {"id": 118622, "acmi_id": "R0001253", "title": "[Deliver us from evil : publicity kit]", "title_annotation": "", "slug": "deliver-us-from-evil-publicity-kit", "creator_credit": "", "credit_line": "", "headline_credit": "", "video_links": [], "record_type": "work", "type": "Object", "is_on_display": false, "last_on_display_place": null, "last_on_display_date": null, "is_context_indigenous": false, "material_description": "", "unpublished": false, "external": false, "first_production_date": null, "commissioned": false, "public_domain": false, "external_references": [], "brief_description": "<p>Publicity kit for the production Deliver Us From Evil (TV - 2000), including 2 35mm Colour Transparencies</p>", "constellations_primary": [], "constellations_other": [], "recommendations": [], "creator_credit_for_label": "", "headline_credit_for_label": "", "title_for_label": "<p>[Deliver us from evil : publicity kit]</p>", "description": "<p>Publicity kit for the production Deliver Us From Evil (TV - 2000), including 2 35mm Colour Transparencies</p>", "description_for_label": ["<p>Publicity kit for the production Deliver Us From Evil (TV - 2000), including 2 35mm Colour Transparencies</p>"], "credit_line_for_label": "", "details": [{"label": "Subject category", "display_values": ["Documentation"]}, {"label": "Object Types", "display_values": ["Publicity kit"]}], "stats": {"tap_count": 0}, "links": [], "creators_primary": [], "creators_other": [], "media_note": null, "holdings": [], "part_of": null, "parts": [], "part_siblings": [], "group": null, "group_works": [], "group_siblings": [], "source": {"name": "Vernon", "slug": "vernon"}, "source_identifier": "149225", "eaas_environment_id": null, "production_places": [], "production_dates": [], "labels": [58117]}, {"id": 89047, "acmi_id": "311685", "title": "[Definition of therbligs]", "title_annotation": "", "slug": "definition-of-therbligs", "creator_credit": "", "credit_line": "", "headline_credit": "United States, 1943", "video_links": [], "record_type": "work", "type": "Film", "is_on_display": false, "last_on_display_place": null, "last_on_display_date": null, "is_context_indigenous": false, "material_description": "", "unpublished": false, "external": false, "first_production_date": "1943-01-01T11:00:00+11:00", "commissioned": false, "public_domain": false, "external_references": [], "brief_description": "<p>The fundamental motions of the hands of a worker. These operations are made up of 17 types of motion: search, select, grasp, reach, move, hold, release, position, pre-position, inspect, assemble, disassemble, use, unavoidable delay, avoidable delay, plan, and test to overcome fatigue. Frank Bunker Gilbreth defined these motions in his system of motion study. (Therblig is Gilbreth spelled backwards). This film consists of twenty numbered sequences illustrating each of the therbligs.</p>", "constellations_primary": [], "constellations_other": [], "recommendations": [], "creator_credit_for_label": "", "headline_credit_for_label": "<p>United States, 1943</p>", "title_for_label": "<p>[Definition of therbligs]</p>", "description": "<p>The fundamental motions of the hands of a worker. These operations are made up of 17 types of motion: search, select, grasp, reach, move, hold, release, position, pre-position, inspect, assemble, disassemble, use, unavoidable delay, avoidable delay, plan, and test to overcome fatigue. Frank Bunker Gilbreth defined these motions in his system of motion study. (Therblig is Gilbreth spelled backwards). This film consists of twenty numbered sequences illustrating each of the therbligs.</p>", "description_for_label": ["<p>The fundamental motions of the hands of a worker. These operations are made up of 17 types of motion: search, select, grasp, reach, move, hold, release, position, pre-position, inspect, assemble, disassemble, use, unavoidable delay, avoidable delay, plan, and test to overcome fatigue. Frank Bunker Gilbreth defined these motions in his system of motion study. (Therblig is Gilbreth spelled backwards). This film consists of twenty numbered sequences illustrating each of the therbligs.</p>"], "credit_line_for_label": "", "details": [{"label": "Duration", "display_values": ["00:04:35:00"]}, {"label": "Language", "display_values": ["English"]}, {"label": "Subject categories", "display_values": ["Agriculture, Business, Commerce & Industry&nbsp;→ Materials handling", "Food, Health, Lifestyle, Medicine, Psychology & Safety&nbsp;→ Anatomy", "Food, Health, Lifestyle, Medicine, Psychology & Safety&nbsp;→ Body, Human", "Food, Health, Lifestyle, Medicine, Psychology & Safety&nbsp;→ Hand", "Food, Health, Lifestyle, Medicine, Psychology & Safety&nbsp;→ Materials handling", "Short films", "Short films&nbsp;→ Short films - United States", "Silent films"]}, {"label": "Sound/audio", "display_values": ["Silent"]}, {"label": "Colour", "display_values": ["Black and White"]}], "stats": {"tap_count": 0}, "links": [], "creators_primary": [], "creators_other": [], "media_note": "Sorry, we don't have images or video for this item.", "holdings": [{"name": "16mm film; Access Print (Section 1)", "identifier": "", "description": ""}], "part_of": null, "parts": [], "part_siblings": [], "group": null, "group_works": [], "group_siblings": [], "source": {"name": "Vernon", "slug": "vernon"}, "source_identifier": "46029", "eaas_environment_id": null, "production_places": [{"id": 2, "name": "United States", "slug": "united-states"}], "production_dates": [{"date": "1943", "notes": "Produced", "to_year": "1943"}], "labels": [28537]}, {"id": 118619, "acmi_id": "R0001249", "title": "[Deathcheaters : publicity kit]", "title_annotation": "", "slug": "deathcheaters-publicity-kit", "creator_credit": "", "credit_line": "", "headline_credit": "", "video_links": [], "record_type": "work", "type": "Object", "is_on_display": false, "last_on_display_place": null, "last_on_display_date": null, "is_context_indigenous": false, "material_description": "", "unpublished": false, "external": false, "first_production_date": null, "commissioned": false, "public_domain": false, "external_references": [], "brief_description": "<p>Publicity kit for the production Deathcheaters (1976), including 12 B&amp;W Stills (Large)</p>", "constellations_primary": [], "constellations_other": [], "recommendations": [], "creator_credit_for_label": "", "headline_credit_for_label": "", "title_for_label": "<p>[Deathcheaters : publicity kit]</p>", "description": "<p>Publicity kit for the production Deathcheaters (1976), including 12 B&amp;W Stills (Large)</p>", "description_for_label": ["<p>Publicity kit for the production Deathcheaters (1976), including 12 B&amp;W Stills (Large)</p>"], "credit_line_for_label": "", "details": [{"label": "Subject category", "display_values": ["Documentation"]}, {"label": "Object Types", "display_values": ["Publicity kit"]}], "stats": {"tap_count": 3}, "links": [], "creators_primary": [], "creators_other": [], "media_note": null, "holdings": [], "part_of": null, "parts": [], "part_siblings": [], "group": null, "group_works": [], "group_siblings": [], "source": {"name": "Vernon", "slug": "vernon"}, "source_identifier": "149221", "eaas_environment_id": null, "production_places": [], "production_dates": [], "labels": [58114]}, {"id": 118618, "acmi_id": "R0001248", "title": "[Death in Brunswick : publicity kit]", "title_annotation": "", "slug": "death-in-brunswick-publicity-kit", "creator_credit": "", "credit_line": "", "headline_credit": "", "video_links": [], "record_type": "work", "type": "Object", "is_on_display": false, "last_on_display_place": null, "last_on_display_date": null, "is_context_indigenous": false, "material_description": "", "unpublished": false, "external": false, "first_production_date": null, "commissioned": false, "public_domain": false, "external_references": [], "brief_description": "<p>Publicity kit for the production Death in Brunswick (1991), including 2 B&amp;W Stills (Small)</p>", "constellations_primary": [], "constellations_other": [], "recommendations": [], "creator_credit_for_label": "", "headline_credit_for_label": "", "title_for_label": "<p>[Death in Brunswick : publicity kit]</p>", "description": "<p>Publicity kit for the production Death in Brunswick (1991), including 2 B&amp;W Stills (Small)</p>", "description_for_label": ["<p>Publicity kit for the production Death in Brunswick (1991), including 2 B&amp;W Stills (Small)</p>"], "credit_line_for_label": "", "details": [{"label": "Subject category", "display_values": ["Documentation"]}, {"label": "Object Types", "display_values": ["Publicity kit"]}], "stats": {"tap_count": 0}, "links": [], "creators_primary": [], "creators_other": [], "media_note": null, "holdings": [], "part_of": null, "parts": [], "part_siblings": [], "group": null, "group_works": [], "group_siblings": [], "source": {"name": "Vernon", "slug": "vernon"}, "source_identifier": "149220", "eaas_environment_id": null, "production_places": [], "production_dates": [], "labels": [58113]}, {"id": 118919, "acmi_id": "R0001836", "title": "[Dear cardholder : publicity kit]", "title_annotation": "", "slug": "dear-cardholder-publicity-kit", "creator_credit": "", "credit_line": "", "headline_credit": "", "video_links": [], "record_type": "work", "type": "Object", "is_on_display": false, "last_on_display_place": null, "last_on_display_date": null, "is_context_indigenous": false, "material_description": "", "unpublished": false, "external": false, "first_production_date": null, "commissioned": false, "public_domain": false, "external_references": [], "brief_description": "<p>Publicity kit for the production Dear Cardholder (1986), including 4 B&amp;W Stills (Large), 1 Press Kit/ Review</p>", "constellations_primary": [], "constellations_other": [], "recommendations": [], "creator_credit_for_label": "", "headline_credit_for_label": "", "title_for_label": "<p>[Dear cardholder : publicity kit]</p>", "description": "<p>Publicity kit for the production Dear Cardholder (1986), including 4 B&amp;W Stills (Large), 1 Press Kit/ Review</p>", "description_for_label": ["<p>Publicity kit for the production Dear Cardholder (1986), including 4 B&amp;W Stills (Large), 1 Press Kit/ Review</p>"], "credit_line_for_label": "", "details": [{"label": "Subject category", "display_values": ["Documentation"]}, {"label": "Object Types", "display_values": ["Publicity kit"]}], "stats": {"tap_count": 0}, "links": [], "creators_primary": [], "creators_other": [], "media_note": null, "holdings": [], "part_of": null, "parts": [], "part_siblings": [], "group": null, "group_works": [], "group_siblings": [], "source": {"name": "Vernon", "slug": "vernon"}, "source_identifier": "149809", "eaas_environment_id": null, "production_places": [], "production_dates": [], "labels": [58406]}]}