{"count": 41723, "next": "https://api.acmi.net.au/works/?page=1990", "previous": "https://api.acmi.net.au/works/?page=1988", "results": [{"id": 114077, "acmi_id": "B1003211", "title": "The Hundred Videos. No. 61. Sparky", "title_annotation": "", "slug": "the-hundred-videos-no-61-sparky", "creator_credit": "Steve Reinke", "credit_line": "", "headline_credit": "Canada, 1997", "video_links": [], "record_type": "work", "type": "Artwork", "is_on_display": false, "last_on_display_place": null, "last_on_display_date": null, "is_context_indigenous": false, "material_description": "Single channel moving image", "unpublished": false, "external": false, "first_production_date": "1997-01-01T11:00:00+11:00", "commissioned": false, "public_domain": false, "external_references": [], "brief_description": "", "constellations_primary": [], "constellations_other": [], "recommendations": [], "title_for_label": "<p>The Hundred Videos. No. 61. Sparky</p>", "creator_credit_for_label": "<p>Steve Reinke</p>", "headline_credit_for_label": "<p>Canada, 1997</p>", "description": "", "description_for_label": [], "credit_line_for_label": "", "details": [{"label": "Subject category", "display_values": ["Digital Art"]}, {"label": "Object Types", "display_values": ["Artwork"]}, {"label": "Materials", "display_values": ["Single channel moving image"]}], "stats": {"tap_count": 0}, "links": [], "creators_primary": [{"id": 2619399, "name": "Steve Reinke", "creator_id": 7378, "creator_wikidata_id": null, "role": "creator", "role_id": 968, "is_primary": true}], "creators_other": [], "media_note": "Sorry, we don't have images or video for this item.", "holdings": [{"name": "Digital Betacam [PAL]; Master", "identifier": "", "description": ""}], "part_of": null, "parts": [], "part_siblings": [], "group": null, "group_works": [], "group_siblings": [], "source": {"name": "Vernon", "slug": "vernon"}, "source_identifier": "1212", "eaas_environment_id": null, "production_places": [{"id": 36, "name": "Canada", "slug": "canada"}], "production_dates": [{"date": "1997", "notes": "", "to_year": "1997"}], "labels": [53569]}, {"id": 114076, "acmi_id": "B1003210", "title": "The Hundred Videos. No. 57. Ghost production", "title_annotation": "", "slug": "the-hundred-videos-no-57-ghost-production", "creator_credit": "Steve Reinke", "credit_line": "", "headline_credit": "Canada, 1997", "video_links": [], "record_type": "work", "type": "Artwork", "is_on_display": false, "last_on_display_place": null, "last_on_display_date": null, "is_context_indigenous": false, "material_description": "Single channel moving image", "unpublished": false, "external": false, "first_production_date": "1997-01-01T11:00:00+11:00", "commissioned": false, "public_domain": false, "external_references": [], "brief_description": "", "constellations_primary": [], "constellations_other": [], "recommendations": [], "title_for_label": "<p>The Hundred Videos. No. 57. Ghost production</p>", "creator_credit_for_label": "<p>Steve Reinke</p>", "headline_credit_for_label": "<p>Canada, 1997</p>", "description": "", "description_for_label": [], "credit_line_for_label": "", "details": [{"label": "Subject category", "display_values": ["Digital Art"]}, {"label": "Object Types", "display_values": ["Artwork"]}, {"label": "Materials", "display_values": ["Single channel moving image"]}], "stats": {"tap_count": 0}, "links": [], "creators_primary": [{"id": 2619398, "name": "Steve Reinke", "creator_id": 7378, "creator_wikidata_id": null, "role": "creator", "role_id": 968, "is_primary": true}], "creators_other": [], "media_note": "Sorry, we don't have images or video for this item.", "holdings": [{"name": "Digital Betacam [PAL]; Master", "identifier": "", "description": ""}], "part_of": null, "parts": [], "part_siblings": [], "group": null, "group_works": [], "group_siblings": [], "source": {"name": "Vernon", "slug": "vernon"}, "source_identifier": "1211", "eaas_environment_id": null, "production_places": [{"id": 36, "name": "Canada", "slug": "canada"}], "production_dates": [{"date": "1997", "notes": "", "to_year": "1997"}], "labels": [53568]}, {"id": 114075, "acmi_id": "B1003209", "title": "The Hundred Videos. No. 52. Love letter to Doug", "title_annotation": "", "slug": "the-hundred-videos-no-52-love-letter-to-doug", "creator_credit": "Steve Reinke", "credit_line": "", "headline_credit": "Canada, 1997", "video_links": [], "record_type": "work", "type": "Artwork", "is_on_display": false, "last_on_display_place": null, "last_on_display_date": null, "is_context_indigenous": false, "material_description": "Single channel moving image", "unpublished": false, "external": false, "first_production_date": "1997-01-01T11:00:00+11:00", "commissioned": false, "public_domain": false, "external_references": [], "brief_description": "", "constellations_primary": [], "constellations_other": [], "recommendations": [], "title_for_label": "<p>The Hundred Videos. No. 52. Love letter to Doug</p>", "creator_credit_for_label": "<p>Steve Reinke</p>", "headline_credit_for_label": "<p>Canada, 1997</p>", "description": "", "description_for_label": [], "credit_line_for_label": "", "details": [{"label": "Subject category", "display_values": ["Digital Art"]}, {"label": "Object Types", "display_values": ["Artwork"]}, {"label": "Materials", "display_values": ["Single channel moving image"]}], "stats": {"tap_count": 0}, "links": [], "creators_primary": [{"id": 2619397, "name": "Steve Reinke", "creator_id": 7378, "creator_wikidata_id": null, "role": "creator", "role_id": 968, "is_primary": true}], "creators_other": [], "media_note": "Sorry, we don't have images or video for this item.", "holdings": [{"name": "Digital Betacam [PAL]; Master", "identifier": "", "description": ""}], "part_of": null, "parts": [], "part_siblings": [], "group": null, "group_works": [], "group_siblings": [], "source": {"name": "Vernon", "slug": "vernon"}, "source_identifier": "1210", "eaas_environment_id": null, "production_places": [{"id": 36, "name": "Canada", "slug": "canada"}], "production_dates": [{"date": "1997", "notes": "", "to_year": "1997"}], "labels": [53567]}, {"id": 114074, "acmi_id": "B1003208", "title": "The Hundred Videos. No. 49. Monologue (with provocation)", "title_annotation": "", "slug": "the-hundred-videos-no-49-monologue-with-provocation", "creator_credit": "Steve Reinke", "credit_line": "", "headline_credit": "Canada, 1997", "video_links": [], "record_type": "work", "type": "Artwork", "is_on_display": false, "last_on_display_place": null, "last_on_display_date": null, "is_context_indigenous": false, "material_description": "Single channel moving image", "unpublished": false, "external": false, "first_production_date": "1997-01-01T11:00:00+11:00", "commissioned": false, "public_domain": false, "external_references": [], "brief_description": "", "constellations_primary": [], "constellations_other": [], "recommendations": [], "title_for_label": "<p>The Hundred Videos. No. 49. Monologue (with provocation)</p>", "creator_credit_for_label": "<p>Steve Reinke</p>", "headline_credit_for_label": "<p>Canada, 1997</p>", "description": "", "description_for_label": [], "credit_line_for_label": "", "details": [{"label": "Subject category", "display_values": ["Digital Art"]}, {"label": "Object Types", "display_values": ["Artwork"]}, {"label": "Materials", "display_values": ["Single channel moving image"]}], "stats": {"tap_count": 0}, "links": [], "creators_primary": [{"id": 2619396, "name": "Steve Reinke", "creator_id": 7378, "creator_wikidata_id": null, "role": "creator", "role_id": 968, "is_primary": true}], "creators_other": [], "media_note": "Sorry, we don't have images or video for this item.", "holdings": [{"name": "Digital Betacam [PAL]; Master", "identifier": "", "description": ""}], "part_of": null, "parts": [], "part_siblings": [], "group": null, "group_works": [], "group_siblings": [], "source": {"name": "Vernon", "slug": "vernon"}, "source_identifier": "1209", "eaas_environment_id": null, "production_places": [{"id": 36, "name": "Canada", "slug": "canada"}], "production_dates": [{"date": "1997", "notes": "", "to_year": "1997"}], "labels": [53566]}, {"id": 114073, "acmi_id": "B1003207", "title": "The Hundred Videos. No. 48. Artifact", "title_annotation": "", "slug": "the-hundred-videos-no-48-artifact", "creator_credit": "Steve Reinke", "credit_line": "", "headline_credit": "Canada, 1997", "video_links": [], "record_type": "work", "type": "Artwork", "is_on_display": false, "last_on_display_place": null, "last_on_display_date": null, "is_context_indigenous": false, "material_description": "Single channel moving image", "unpublished": false, "external": false, "first_production_date": "1997-01-01T11:00:00+11:00", "commissioned": false, "public_domain": false, "external_references": [], "brief_description": "", "constellations_primary": [], "constellations_other": [], "recommendations": [], "title_for_label": "<p>The Hundred Videos. No. 48. Artifact</p>", "creator_credit_for_label": "<p>Steve Reinke</p>", "headline_credit_for_label": "<p>Canada, 1997</p>", "description": "", "description_for_label": [], "credit_line_for_label": "", "details": [{"label": "Subject category", "display_values": ["Digital Art"]}, {"label": "Object Types", "display_values": ["Artwork"]}, {"label": "Materials", "display_values": ["Single channel moving image"]}], "stats": {"tap_count": 0}, "links": [], "creators_primary": [{"id": 2619395, "name": "Steve Reinke", "creator_id": 7378, "creator_wikidata_id": null, "role": "creator", "role_id": 968, "is_primary": true}], "creators_other": [], "media_note": "Sorry, we don't have images or video for this item.", "holdings": [{"name": "Digital Betacam [PAL]; Master", "identifier": "", "description": ""}], "part_of": null, "parts": [], "part_siblings": [], "group": null, "group_works": [], "group_siblings": [], "source": {"name": "Vernon", "slug": "vernon"}, "source_identifier": "1208", "eaas_environment_id": null, "production_places": [{"id": 36, "name": "Canada", "slug": "canada"}], "production_dates": [{"date": "1997", "notes": "", "to_year": "1997"}], "labels": [53565]}, {"id": 114072, "acmi_id": "B1003206", "title": "The Hundred Videos. No. 42. My personal virus", "title_annotation": "", "slug": "the-hundred-videos-no-42-my-personal-virus", "creator_credit": "Steve Reinke", "credit_line": "", "headline_credit": "Canada, 1997", "video_links": [], "record_type": "work", "type": "Artwork", "is_on_display": false, "last_on_display_place": null, "last_on_display_date": null, "is_context_indigenous": false, "material_description": "Single channel moving image", "unpublished": false, "external": false, "first_production_date": "1997-01-01T11:00:00+11:00", "commissioned": false, "public_domain": false, "external_references": [], "brief_description": "", "constellations_primary": [], "constellations_other": [], "recommendations": [], "title_for_label": "<p>The Hundred Videos. No. 42. My personal virus</p>", "creator_credit_for_label": "<p>Steve Reinke</p>", "headline_credit_for_label": "<p>Canada, 1997</p>", "description": "", "description_for_label": [], "credit_line_for_label": "", "details": [{"label": "Subject category", "display_values": ["Digital Art"]}, {"label": "Object Types", "display_values": ["Artwork"]}, {"label": "Materials", "display_values": ["Single channel moving image"]}], "stats": {"tap_count": 0}, "links": [], "creators_primary": [{"id": 2619394, "name": "Steve Reinke", "creator_id": 7378, "creator_wikidata_id": null, "role": "creator", "role_id": 968, "is_primary": true}], "creators_other": [], "media_note": "Sorry, we don't have images or video for this item.", "holdings": [{"name": "Digital Betacam [PAL]; Master", "identifier": "", "description": ""}], "part_of": null, "parts": [], "part_siblings": [], "group": null, "group_works": [], "group_siblings": [], "source": {"name": "Vernon", "slug": "vernon"}, "source_identifier": "1207", "eaas_environment_id": null, "production_places": [{"id": 36, "name": "Canada", "slug": "canada"}], "production_dates": [{"date": "1997", "notes": "", "to_year": "1997"}], "labels": [53564]}, {"id": 114071, "acmi_id": "B1003205", "title": "The Hundred Videos. No. 37. Jason", "title_annotation": "", "slug": "the-hundred-videos-no-37-jason", "creator_credit": "Steve Reinke", "credit_line": "", "headline_credit": "Canada, 1997", "video_links": [], "record_type": "work", "type": "Artwork", "is_on_display": false, "last_on_display_place": null, "last_on_display_date": null, "is_context_indigenous": false, "material_description": "Single channel moving image", "unpublished": false, "external": false, "first_production_date": "1997-01-01T11:00:00+11:00", "commissioned": false, "public_domain": false, "external_references": [], "brief_description": "", "constellations_primary": [], "constellations_other": [], "recommendations": [], "title_for_label": "<p>The Hundred Videos. No. 37. Jason</p>", "creator_credit_for_label": "<p>Steve Reinke</p>", "headline_credit_for_label": "<p>Canada, 1997</p>", "description": "", "description_for_label": [], "credit_line_for_label": "", "details": [{"label": "Subject category", "display_values": ["Digital Art"]}, {"label": "Object Types", "display_values": ["Artwork"]}, {"label": "Materials", "display_values": ["Single channel moving image"]}], "stats": {"tap_count": 0}, "links": [], "creators_primary": [{"id": 2619393, "name": "Steve Reinke", "creator_id": 7378, "creator_wikidata_id": null, "role": "creator", "role_id": 968, "is_primary": true}], "creators_other": [], "media_note": "Sorry, we don't have images or video for this item.", "holdings": [{"name": "Digital Betacam [PAL]; Master", "identifier": "", "description": ""}], "part_of": null, "parts": [], "part_siblings": [], "group": null, "group_works": [], "group_siblings": [], "source": {"name": "Vernon", "slug": "vernon"}, "source_identifier": "1206", "eaas_environment_id": null, "production_places": [{"id": 36, "name": "Canada", "slug": "canada"}], "production_dates": [{"date": "1997", "notes": "", "to_year": "1997"}], "labels": [53563]}, {"id": 114070, "acmi_id": "B1003204", "title": "The Hundred Videos. No. 36. Request", "title_annotation": "", "slug": "the-hundred-videos-no-36-request", "creator_credit": "Steve Reinke", "credit_line": "", "headline_credit": "Canada, 1997", "video_links": [], "record_type": "work", "type": "Artwork", "is_on_display": false, "last_on_display_place": null, "last_on_display_date": null, "is_context_indigenous": false, "material_description": "Single channel moving image", "unpublished": false, "external": false, "first_production_date": "1997-01-01T11:00:00+11:00", "commissioned": false, "public_domain": false, "external_references": [], "brief_description": "", "constellations_primary": [], "constellations_other": [], "recommendations": [], "title_for_label": "<p>The Hundred Videos. No. 36. Request</p>", "creator_credit_for_label": "<p>Steve Reinke</p>", "headline_credit_for_label": "<p>Canada, 1997</p>", "description": "", "description_for_label": [], "credit_line_for_label": "", "details": [{"label": "Subject category", "display_values": ["Digital Art"]}, {"label": "Object Types", "display_values": ["Artwork"]}, {"label": "Materials", "display_values": ["Single channel moving image"]}], "stats": {"tap_count": 0}, "links": [], "creators_primary": [{"id": 2619392, "name": "Steve Reinke", "creator_id": 7378, "creator_wikidata_id": null, "role": "creator", "role_id": 968, "is_primary": true}], "creators_other": [], "media_note": "Sorry, we don't have images or video for this item.", "holdings": [{"name": "Digital Betacam [PAL]; Master", "identifier": "", "description": ""}], "part_of": null, "parts": [], "part_siblings": [], "group": null, "group_works": [], "group_siblings": [], "source": {"name": "Vernon", "slug": "vernon"}, "source_identifier": "1205", "eaas_environment_id": null, "production_places": [{"id": 36, "name": "Canada", "slug": "canada"}], "production_dates": [{"date": "1997", "notes": "", "to_year": "1997"}], "labels": [53562]}, {"id": 114069, "acmi_id": "B1003203", "title": "The Hundred Videos. No. 34. Ice cream", "title_annotation": "", "slug": "the-hundred-videos-no-34-ice-cream", "creator_credit": "Steve Reinke", "credit_line": "", "headline_credit": "Canada, 1997", "video_links": [], "record_type": "work", "type": "Artwork", "is_on_display": false, "last_on_display_place": null, "last_on_display_date": null, "is_context_indigenous": false, "material_description": "Single channel moving image", "unpublished": false, "external": false, "first_production_date": "1997-01-01T11:00:00+11:00", "commissioned": false, "public_domain": false, "external_references": [], "brief_description": "", "constellations_primary": [], "constellations_other": [], "recommendations": [], "title_for_label": "<p>The Hundred Videos. No. 34. Ice cream</p>", "creator_credit_for_label": "<p>Steve Reinke</p>", "headline_credit_for_label": "<p>Canada, 1997</p>", "description": "", "description_for_label": [], "credit_line_for_label": "", "details": [{"label": "Subject category", "display_values": ["Digital Art"]}, {"label": "Object Types", "display_values": ["Artwork"]}, {"label": "Materials", "display_values": ["Single channel moving image"]}], "stats": {"tap_count": 0}, "links": [], "creators_primary": [{"id": 2619391, "name": "Steve Reinke", "creator_id": 7378, "creator_wikidata_id": null, "role": "creator", "role_id": 968, "is_primary": true}], "creators_other": [], "media_note": "Sorry, we don't have images or video for this item.", "holdings": [{"name": "Digital Betacam [PAL]; Master", "identifier": "", "description": ""}], "part_of": null, "parts": [], "part_siblings": [], "group": null, "group_works": [], "group_siblings": [], "source": {"name": "Vernon", "slug": "vernon"}, "source_identifier": "1204", "eaas_environment_id": null, "production_places": [{"id": 36, "name": "Canada", "slug": "canada"}], "production_dates": [{"date": "1997", "notes": "", "to_year": "1997"}], "labels": [53561]}, {"id": 114068, "acmi_id": "B1003202", "title": "The Hundred Videos. No. 32. I love you, too", "title_annotation": "", "slug": "the-hundred-videos-no-32-i-love-you-too", "creator_credit": "Steve Reinke", "credit_line": "", "headline_credit": "Canada, 1997", "video_links": [], "record_type": "work", "type": "Artwork", "is_on_display": false, "last_on_display_place": null, "last_on_display_date": null, "is_context_indigenous": false, "material_description": "Single channel moving image", "unpublished": false, "external": false, "first_production_date": "1997-01-01T11:00:00+11:00", "commissioned": false, "public_domain": false, "external_references": [], "brief_description": "", "constellations_primary": [], "constellations_other": [], "recommendations": [], "title_for_label": "<p>The Hundred Videos. No. 32. I love you, too</p>", "creator_credit_for_label": "<p>Steve Reinke</p>", "headline_credit_for_label": "<p>Canada, 1997</p>", "description": "", "description_for_label": [], "credit_line_for_label": "", "details": [{"label": "Subject category", "display_values": ["Digital Art"]}, {"label": "Object Types", "display_values": ["Artwork"]}, {"label": "Materials", "display_values": ["Single channel moving image"]}], "stats": {"tap_count": 0}, "links": [], "creators_primary": [{"id": 2619390, "name": "Steve Reinke", "creator_id": 7378, "creator_wikidata_id": null, "role": "creator", "role_id": 968, "is_primary": true}], "creators_other": [], "media_note": "Sorry, we don't have images or video for this item.", "holdings": [{"name": "Digital Betacam [PAL]; Master", "identifier": "", "description": ""}], "part_of": null, "parts": [], "part_siblings": [], "group": null, "group_works": [], "group_siblings": [], "source": {"name": "Vernon", "slug": "vernon"}, "source_identifier": "1203", "eaas_environment_id": null, "production_places": [{"id": 36, "name": "Canada", "slug": "canada"}], "production_dates": [{"date": "1997", "notes": "", "to_year": "1997"}], "labels": [53560]}]}