{"count": 41723, "next": "https://api.acmi.net.au/works/?page=4163", "previous": "https://api.acmi.net.au/works/?page=4161", "results": [{"id": 119052, "acmi_id": "R0002122", "title": "[Blinky Bill : publicity kit]", "title_annotation": "", "slug": "blinky-bill-publicity-kit", "creator_credit": "", "credit_line": "", "headline_credit": "", "video_links": [], "record_type": "work", "type": "Object", "is_on_display": false, "last_on_display_place": null, "last_on_display_date": null, "is_context_indigenous": false, "material_description": "", "unpublished": false, "external": false, "first_production_date": null, "commissioned": false, "public_domain": false, "external_references": [], "brief_description": "<p>Publicity kit for the production Blinky Bill (1992), including 2 B&amp;W Stills (Large), 1 B&amp;W Still (Small), 1 Press Kit/ Review</p>", "constellations_primary": [], "constellations_other": [], "recommendations": [], "creator_credit_for_label": "", "headline_credit_for_label": "", "title_for_label": "<p>[Blinky Bill : publicity kit]</p>", "description": "<p>Publicity kit for the production Blinky Bill (1992), including 2 B&amp;W Stills (Large), 1 B&amp;W Still (Small), 1 Press Kit/ Review</p>", "description_for_label": ["<p>Publicity kit for the production Blinky Bill (1992), including 2 B&amp;W Stills (Large), 1 B&amp;W Still (Small), 1 Press Kit/ Review</p>"], "credit_line_for_label": "", "details": [{"label": "Subject category", "display_values": ["Documentation"]}, {"label": "Object Types", "display_values": ["Publicity kit"]}], "stats": {"tap_count": 7}, "links": [], "creators_primary": [], "creators_other": [], "media_note": null, "holdings": [], "part_of": null, "parts": [], "part_siblings": [], "group": null, "group_works": [], "group_siblings": [], "source": {"name": "Vernon", "slug": "vernon"}, "source_identifier": "150187", "eaas_environment_id": null, "production_places": [], "production_dates": [], "labels": [58526]}, {"id": 119060, "acmi_id": "R0002130", "title": "[Blackfellas = Day of the dog : publicity kit]", "title_annotation": "", "slug": "blackfellas-day-of-the-dog-publicity-kit", "creator_credit": "", "credit_line": "", "headline_credit": "", "video_links": [], "record_type": "work", "type": "Object", "is_on_display": false, "last_on_display_place": null, "last_on_display_date": null, "is_context_indigenous": false, "material_description": "", "unpublished": false, "external": false, "first_production_date": null, "commissioned": false, "public_domain": false, "external_references": [], "brief_description": "<p>Publicity kit for the production Blackfellas = Day of the Dog (1993), including 3 B&amp;W Stills (Large), 4 B&amp;W Stills (Small)</p>", "constellations_primary": [], "constellations_other": [], "recommendations": [], "creator_credit_for_label": "", "headline_credit_for_label": "", "title_for_label": "<p>[Blackfellas = Day of the dog : publicity kit]</p>", "description": "<p>Publicity kit for the production Blackfellas = Day of the Dog (1993), including 3 B&amp;W Stills (Large), 4 B&amp;W Stills (Small)</p>", "description_for_label": ["<p>Publicity kit for the production Blackfellas = Day of the Dog (1993), including 3 B&amp;W Stills (Large), 4 B&amp;W Stills (Small)</p>"], "credit_line_for_label": "", "details": [{"label": "Subject category", "display_values": ["Documentation"]}, {"label": "Object Types", "display_values": ["Publicity kit"]}], "stats": {"tap_count": 0}, "links": [], "creators_primary": [], "creators_other": [], "media_note": null, "holdings": [], "part_of": null, "parts": [], "part_siblings": [], "group": null, "group_works": [], "group_siblings": [], "source": {"name": "Vernon", "slug": "vernon"}, "source_identifier": "150197", "eaas_environment_id": null, "production_places": [], "production_dates": [], "labels": [58534]}, {"id": 119054, "acmi_id": "R0002124", "title": "[Black man down : publicity kit]", "title_annotation": "", "slug": "black-man-down-publicity-kit", "creator_credit": "", "credit_line": "", "headline_credit": "", "video_links": [], "record_type": "work", "type": "Object", "is_on_display": false, "last_on_display_place": null, "last_on_display_date": null, "is_context_indigenous": false, "material_description": "", "unpublished": false, "external": false, "first_production_date": null, "commissioned": false, "public_domain": false, "external_references": [], "brief_description": "<p>Publicity kit for the production Black Man Down (1996), including 2 B&amp;W Stills (Small)</p>", "constellations_primary": [], "constellations_other": [], "recommendations": [], "creator_credit_for_label": "", "headline_credit_for_label": "", "title_for_label": "<p>[Black man down : publicity kit]</p>", "description": "<p>Publicity kit for the production Black Man Down (1996), including 2 B&amp;W Stills (Small)</p>", "description_for_label": ["<p>Publicity kit for the production Black Man Down (1996), including 2 B&amp;W Stills (Small)</p>"], "credit_line_for_label": "", "details": [{"label": "Subject category", "display_values": ["Documentation"]}, {"label": "Object Types", "display_values": ["Publicity kit"]}], "stats": {"tap_count": 0}, "links": [], "creators_primary": [], "creators_other": [], "media_note": null, "holdings": [], "part_of": null, "parts": [], "part_siblings": [], "group": null, "group_works": [], "group_siblings": [], "source": {"name": "Vernon", "slug": "vernon"}, "source_identifier": "150189", "eaas_environment_id": null, "production_places": [], "production_dates": [], "labels": [58528]}, {"id": 119053, "acmi_id": "R0002123", "title": "[Black man's houses : publicity kit]", "title_annotation": "", "slug": "black-mans-houses-publicity-kit", "creator_credit": "", "credit_line": "", "headline_credit": "", "video_links": [], "record_type": "work", "type": "Object", "is_on_display": false, "last_on_display_place": null, "last_on_display_date": null, "is_context_indigenous": false, "material_description": "", "unpublished": false, "external": false, "first_production_date": null, "commissioned": false, "public_domain": false, "external_references": [], "brief_description": "<p>Publicity kit for the production Black Man&#8217;s Houses (1993), including 3 B&amp;W Stills (Small), 2 35mm Colour Transparencies, 1 Press Kit/ Review</p>", "constellations_primary": [], "constellations_other": [], "recommendations": [], "creator_credit_for_label": "", "headline_credit_for_label": "", "title_for_label": "<p>[Black man&#8217;s houses : publicity kit]</p>", "description": "<p>Publicity kit for the production Black Man&#8217;s Houses (1993), including 3 B&amp;W Stills (Small), 2 35mm Colour Transparencies, 1 Press Kit/ Review</p>", "description_for_label": ["<p>Publicity kit for the production Black Man&#8217;s Houses (1993), including 3 B&amp;W Stills (Small), 2 35mm Colour Transparencies, 1 Press Kit/ Review</p>"], "credit_line_for_label": "", "details": [{"label": "Subject category", "display_values": ["Documentation"]}, {"label": "Object Types", "display_values": ["Publicity kit"]}], "stats": {"tap_count": 0}, "links": [], "creators_primary": [], "creators_other": [], "media_note": null, "holdings": [], "part_of": null, "parts": [], "part_siblings": [], "group": null, "group_works": [], "group_siblings": [], "source": {"name": "Vernon", "slug": "vernon"}, "source_identifier": "150188", "eaas_environment_id": null, "production_places": [], "production_dates": [], "labels": [58527]}, {"id": 119062, "acmi_id": "R0002132", "title": "[Black ice : publicity kit]", "title_annotation": "", "slug": "black-ice-publicity-kit", "creator_credit": "", "credit_line": "", "headline_credit": "", "video_links": [], "record_type": "work", "type": "Object", "is_on_display": false, "last_on_display_place": null, "last_on_display_date": null, "is_context_indigenous": false, "material_description": "", "unpublished": false, "external": false, "first_production_date": null, "commissioned": false, "public_domain": false, "external_references": [], "brief_description": "<p>Publicity kit for the production Black Ice (1997), including 25 B&amp;W Stills (Small), 1 Press Kit/ Review</p>", "constellations_primary": [], "constellations_other": [], "recommendations": [], "creator_credit_for_label": "", "headline_credit_for_label": "", "title_for_label": "<p>[Black ice : publicity kit]</p>", "description": "<p>Publicity kit for the production Black Ice (1997), including 25 B&amp;W Stills (Small), 1 Press Kit/ Review</p>", "description_for_label": ["<p>Publicity kit for the production Black Ice (1997), including 25 B&amp;W Stills (Small), 1 Press Kit/ Review</p>"], "credit_line_for_label": "", "details": [{"label": "Subject category", "display_values": ["Documentation"]}, {"label": "Object Types", "display_values": ["Publicity kit"]}], "stats": {"tap_count": 0}, "links": [], "creators_primary": [], "creators_other": [], "media_note": null, "holdings": [], "part_of": null, "parts": [], "part_siblings": [], "group": null, "group_works": [], "group_siblings": [], "source": {"name": "Vernon", "slug": "vernon"}, "source_identifier": "150199", "eaas_environment_id": null, "production_places": [], "production_dates": [], "labels": [58536]}, {"id": 119061, "acmi_id": "R0002131", "title": "[Black harvest : publicity kit]", "title_annotation": "", "slug": "black-harvest-publicity-kit", "creator_credit": "", "credit_line": "", "headline_credit": "", "video_links": [], "record_type": "work", "type": "Object", "is_on_display": false, "last_on_display_place": null, "last_on_display_date": null, "is_context_indigenous": false, "material_description": "", "unpublished": false, "external": false, "first_production_date": null, "commissioned": false, "public_domain": false, "external_references": [], "brief_description": "<p>Publicity kit for the production Black Harvest (1992), including 3 B&amp;W Stills (Large), 1 35mm Colour Transparency, 1 Press Kit/ Review</p>", "constellations_primary": [], "constellations_other": [], "recommendations": [], "creator_credit_for_label": "", "headline_credit_for_label": "", "title_for_label": "<p>[Black harvest : publicity kit]</p>", "description": "<p>Publicity kit for the production Black Harvest (1992), including 3 B&amp;W Stills (Large), 1 35mm Colour Transparency, 1 Press Kit/ Review</p>", "description_for_label": ["<p>Publicity kit for the production Black Harvest (1992), including 3 B&amp;W Stills (Large), 1 35mm Colour Transparency, 1 Press Kit/ Review</p>"], "credit_line_for_label": "", "details": [{"label": "Subject category", "display_values": ["Documentation"]}, {"label": "Object Types", "display_values": ["Publicity kit"]}], "stats": {"tap_count": 0}, "links": [], "creators_primary": [], "creators_other": [], "media_note": null, "holdings": [], "part_of": null, "parts": [], "part_siblings": [], "group": null, "group_works": [], "group_siblings": [], "source": {"name": "Vernon", "slug": "vernon"}, "source_identifier": "150198", "eaas_environment_id": null, "production_places": [], "production_dates": [], "labels": [58535]}, {"id": 119078, "acmi_id": "R0002149", "title": "[Billy and Percy = Billy & Percy : publicity kit]", "title_annotation": "", "slug": "billy-and-percy-billy-percy-publicity-kit", "creator_credit": "", "credit_line": "", "headline_credit": "", "video_links": [], "record_type": "work", "type": "Object", "is_on_display": false, "last_on_display_place": null, "last_on_display_date": null, "is_context_indigenous": false, "material_description": "", "unpublished": false, "external": false, "first_production_date": null, "commissioned": false, "public_domain": false, "external_references": [], "brief_description": "<p>Publicity kit for the production Billy and Percy = Billy &amp; Percy (TV 1974), including 1 B&amp;W Still (Large)</p>", "constellations_primary": [], "constellations_other": [], "recommendations": [], "creator_credit_for_label": "", "headline_credit_for_label": "", "title_for_label": "<p>[Billy and Percy = Billy &amp; Percy : publicity kit]</p>", "description": "<p>Publicity kit for the production Billy and Percy = Billy &amp; Percy (TV 1974), including 1 B&amp;W Still (Large)</p>", "description_for_label": ["<p>Publicity kit for the production Billy and Percy = Billy &amp; Percy (TV 1974), including 1 B&amp;W Still (Large)</p>"], "credit_line_for_label": "", "details": [{"label": "Subject category", "display_values": ["Documentation"]}, {"label": "Object Types", "display_values": ["Publicity kit"]}], "stats": {"tap_count": 0}, "links": [], "creators_primary": [], "creators_other": [], "media_note": null, "holdings": [], "part_of": null, "parts": [], "part_siblings": [], "group": null, "group_works": [], "group_siblings": [], "source": {"name": "Vernon", "slug": "vernon"}, "source_identifier": "150237", "eaas_environment_id": null, "production_places": [], "production_dates": [], "labels": [58551]}, {"id": 119076, "acmi_id": "R0002148", "title": "[Billy's holiday : publicity kit]", "title_annotation": "", "slug": "billys-holiday-publicity-kit", "creator_credit": "", "credit_line": "", "headline_credit": "", "video_links": [], "record_type": "work", "type": "Object", "is_on_display": false, "last_on_display_place": null, "last_on_display_date": null, "is_context_indigenous": false, "material_description": "", "unpublished": false, "external": false, "first_production_date": null, "commissioned": false, "public_domain": false, "external_references": [], "brief_description": "<p>Publicity kit for the production Billy&#8217;s Holiday (1995), including 11 B&amp;W Stills (Large), 16 35mm Colour Transparencies, 1 Press Kit/ Review</p>", "constellations_primary": [], "constellations_other": [], "recommendations": [], "creator_credit_for_label": "", "headline_credit_for_label": "", "title_for_label": "<p>[Billy&#8217;s holiday : publicity kit]</p>", "description": "<p>Publicity kit for the production Billy&#8217;s Holiday (1995), including 11 B&amp;W Stills (Large), 16 35mm Colour Transparencies, 1 Press Kit/ Review</p>", "description_for_label": ["<p>Publicity kit for the production Billy&#8217;s Holiday (1995), including 11 B&amp;W Stills (Large), 16 35mm Colour Transparencies, 1 Press Kit/ Review</p>"], "credit_line_for_label": "", "details": [{"label": "Subject category", "display_values": ["Documentation"]}, {"label": "Object Types", "display_values": ["Publicity kit"]}], "stats": {"tap_count": 3}, "links": [], "creators_primary": [], "creators_other": [], "media_note": null, "holdings": [], "part_of": null, "parts": [], "part_siblings": [], "group": null, "group_works": [], "group_siblings": [], "source": {"name": "Vernon", "slug": "vernon"}, "source_identifier": "150236", "eaas_environment_id": null, "production_places": [], "production_dates": [], "labels": [58550]}, {"id": 119079, "acmi_id": "R0002150", "title": "[Billal : publicity kit]", "title_annotation": "", "slug": "billal-publicity-kit", "creator_credit": "", "credit_line": "", "headline_credit": "", "video_links": [], "record_type": "work", "type": "Object", "is_on_display": false, "last_on_display_place": null, "last_on_display_date": null, "is_context_indigenous": false, "material_description": "", "unpublished": false, "external": false, "first_production_date": null, "commissioned": false, "public_domain": false, "external_references": [], "brief_description": "<p>Publicity kit for the production Billal (1996), including 3 B&amp;W Stills (Small), 24 35mm Colour Transparencies, 1 Colour Negative Strip</p>", "constellations_primary": [], "constellations_other": [], "recommendations": [], "creator_credit_for_label": "", "headline_credit_for_label": "", "title_for_label": "<p>[Billal : publicity kit]</p>", "description": "<p>Publicity kit for the production Billal (1996), including 3 B&amp;W Stills (Small), 24 35mm Colour Transparencies, 1 Colour Negative Strip</p>", "description_for_label": ["<p>Publicity kit for the production Billal (1996), including 3 B&amp;W Stills (Small), 24 35mm Colour Transparencies, 1 Colour Negative Strip</p>"], "credit_line_for_label": "", "details": [{"label": "Subject category", "display_values": ["Documentation"]}, {"label": "Object Types", "display_values": ["Publicity kit"]}], "stats": {"tap_count": 13}, "links": [], "creators_primary": [], "creators_other": [], "media_note": null, "holdings": [], "part_of": null, "parts": [], "part_siblings": [], "group": null, "group_works": [], "group_siblings": [], "source": {"name": "Vernon", "slug": "vernon"}, "source_identifier": "150239", "eaas_environment_id": null, "production_places": [], "production_dates": [], "labels": [58552]}, {"id": 119081, "acmi_id": "R0002154", "title": "[Beyond my reach : publicity kit]", "title_annotation": "", "slug": "beyond-my-reach-publicity-kit", "creator_credit": "", "credit_line": "", "headline_credit": "", "video_links": [], "record_type": "work", "type": "Object", "is_on_display": false, "last_on_display_place": null, "last_on_display_date": null, "is_context_indigenous": false, "material_description": "", "unpublished": false, "external": false, "first_production_date": null, "commissioned": false, "public_domain": false, "external_references": [], "brief_description": "<p>Publicity kit for the production Beyond My Reach (1990), including 2 B&amp;W Stills (Large)</p>", "constellations_primary": [], "constellations_other": [], "recommendations": [], "creator_credit_for_label": "", "headline_credit_for_label": "", "title_for_label": "<p>[Beyond my reach : publicity kit]</p>", "description": "<p>Publicity kit for the production Beyond My Reach (1990), including 2 B&amp;W Stills (Large)</p>", "description_for_label": ["<p>Publicity kit for the production Beyond My Reach (1990), including 2 B&amp;W Stills (Large)</p>"], "credit_line_for_label": "", "details": [{"label": "Subject category", "display_values": ["Documentation"]}, {"label": "Object Types", "display_values": ["Publicity kit"]}], "stats": {"tap_count": 0}, "links": [], "creators_primary": [], "creators_other": [], "media_note": null, "holdings": [], "part_of": null, "parts": [], "part_siblings": [], "group": null, "group_works": [], "group_siblings": [], "source": {"name": "Vernon", "slug": "vernon"}, "source_identifier": "150247", "eaas_environment_id": null, "production_places": [], "production_dates": [], "labels": [58554]}]}