{"count": 41723, "next": "https://api.acmi.net.au/works/?page=3082", "previous": "https://api.acmi.net.au/works/?page=3080", "results": [{"id": 118527, "acmi_id": "R0001143", "title": "[Fearless : publicity kit]", "title_annotation": "", "slug": "fearless-publicity-kit", "creator_credit": "", "credit_line": "", "headline_credit": "", "video_links": [], "record_type": "work", "type": "Object", "is_on_display": false, "last_on_display_place": null, "last_on_display_date": null, "is_context_indigenous": false, "material_description": "", "unpublished": false, "external": false, "first_production_date": null, "commissioned": false, "public_domain": false, "external_references": [], "brief_description": "<p>Publicity kit for the production Fearless (1993), including 2 B&amp;W Stills (Small), 1 35mm Colour Transparency, 1 Press Kit/ Review</p>", "constellations_primary": [], "constellations_other": [], "recommendations": [], "creator_credit_for_label": "", "headline_credit_for_label": "", "title_for_label": "<p>[Fearless : publicity kit]</p>", "description": "<p>Publicity kit for the production Fearless (1993), including 2 B&amp;W Stills (Small), 1 35mm Colour Transparency, 1 Press Kit/ Review</p>", "description_for_label": ["<p>Publicity kit for the production Fearless (1993), including 2 B&amp;W Stills (Small), 1 35mm Colour Transparency, 1 Press Kit/ Review</p>"], "credit_line_for_label": "", "details": [{"label": "Subject category", "display_values": ["Documentation"]}, {"label": "Object Types", "display_values": ["Publicity kit"]}], "stats": {"tap_count": 2}, "links": [], "creators_primary": [], "creators_other": [], "media_note": null, "holdings": [], "part_of": null, "parts": [], "part_siblings": [], "group": null, "group_works": [], "group_siblings": [], "source": {"name": "Vernon", "slug": "vernon"}, "source_identifier": "149115", "eaas_environment_id": null, "production_places": [], "production_dates": [], "labels": [58022]}, {"id": 118526, "acmi_id": "R0001142", "title": "[Fever : publicity kit]", "title_annotation": "", "slug": "fever-publicity-kit", "creator_credit": "", "credit_line": "", "headline_credit": "", "video_links": [], "record_type": "work", "type": "Object", "is_on_display": false, "last_on_display_place": null, "last_on_display_date": null, "is_context_indigenous": false, "material_description": "", "unpublished": false, "external": false, "first_production_date": null, "commissioned": false, "public_domain": false, "external_references": [], "brief_description": "<p>Publicity kit for the production Fever (1989), including 1 Press Kit/ Review, 1 Lobby Card</p>", "constellations_primary": [], "constellations_other": [], "recommendations": [], "creator_credit_for_label": "", "headline_credit_for_label": "", "title_for_label": "<p>[Fever : publicity kit]</p>", "description": "<p>Publicity kit for the production Fever (1989), including 1 Press Kit/ Review, 1 Lobby Card</p>", "description_for_label": ["<p>Publicity kit for the production Fever (1989), including 1 Press Kit/ Review, 1 Lobby Card</p>"], "credit_line_for_label": "", "details": [{"label": "Subject category", "display_values": ["Documentation"]}, {"label": "Object Types", "display_values": ["Publicity kit"]}], "stats": {"tap_count": 0}, "links": [], "creators_primary": [], "creators_other": [], "media_note": null, "holdings": [], "part_of": null, "parts": [], "part_siblings": [], "group": null, "group_works": [], "group_siblings": [], "source": {"name": "Vernon", "slug": "vernon"}, "source_identifier": "149114", "eaas_environment_id": null, "production_places": [], "production_dates": [], "labels": [58021]}, {"id": 118524, "acmi_id": "R0001140", "title": "[Far and away : publicity kit]", "title_annotation": "", "slug": "far-and-away-publicity-kit", "creator_credit": "", "credit_line": "", "headline_credit": "", "video_links": [], "record_type": "work", "type": "Object", "is_on_display": false, "last_on_display_place": null, "last_on_display_date": null, "is_context_indigenous": false, "material_description": "", "unpublished": false, "external": false, "first_production_date": null, "commissioned": false, "public_domain": false, "external_references": [], "brief_description": "<p>Publicity kit for the production Far and Away (1992), including 13 B&amp;W Stills (Large), 8 35mm Colour Transparencies, 1 Press Kit/ Review</p>", "constellations_primary": [], "constellations_other": [], "recommendations": [], "creator_credit_for_label": "", "headline_credit_for_label": "", "title_for_label": "<p>[Far and away : publicity kit]</p>", "description": "<p>Publicity kit for the production Far and Away (1992), including 13 B&amp;W Stills (Large), 8 35mm Colour Transparencies, 1 Press Kit/ Review</p>", "description_for_label": ["<p>Publicity kit for the production Far and Away (1992), including 13 B&amp;W Stills (Large), 8 35mm Colour Transparencies, 1 Press Kit/ Review</p>"], "credit_line_for_label": "", "details": [{"label": "Subject category", "display_values": ["Documentation"]}, {"label": "Object Types", "display_values": ["Publicity kit"]}], "stats": {"tap_count": 0}, "links": [], "creators_primary": [], "creators_other": [], "media_note": null, "holdings": [], "part_of": null, "parts": [], "part_siblings": [], "group": null, "group_works": [], "group_siblings": [], "source": {"name": "Vernon", "slug": "vernon"}, "source_identifier": "149112", "eaas_environment_id": null, "production_places": [], "production_dates": [], "labels": [58019]}, {"id": 118523, "acmi_id": "R0001139", "title": "[Exile : publicity kit]", "title_annotation": "", "slug": "exile-publicity-kit", "creator_credit": "", "credit_line": "", "headline_credit": "", "video_links": [], "record_type": "work", "type": "Object", "is_on_display": false, "last_on_display_place": null, "last_on_display_date": null, "is_context_indigenous": false, "material_description": "", "unpublished": false, "external": false, "first_production_date": null, "commissioned": false, "public_domain": false, "external_references": [], "brief_description": "<p>Publicity kit for the production Exile (1994), including 2 B&amp;W Stills (Large), 28 B&amp;W Stills (Small), 6 35mm Colour Transparencies, 1 Press Kit, 1 Promo Flyer</p>", "constellations_primary": [], "constellations_other": [], "recommendations": [], "creator_credit_for_label": "", "headline_credit_for_label": "", "title_for_label": "<p>[Exile : publicity kit]</p>", "description": "<p>Publicity kit for the production Exile (1994), including 2 B&amp;W Stills (Large), 28 B&amp;W Stills (Small), 6 35mm Colour Transparencies, 1 Press Kit, 1 Promo Flyer</p>", "description_for_label": ["<p>Publicity kit for the production Exile (1994), including 2 B&amp;W Stills (Large), 28 B&amp;W Stills (Small), 6 35mm Colour Transparencies, 1 Press Kit, 1 Promo Flyer</p>"], "credit_line_for_label": "", "details": [{"label": "Subject category", "display_values": ["Documentation"]}, {"label": "Object Types", "display_values": ["Publicity kit"]}], "stats": {"tap_count": 2}, "links": [], "creators_primary": [], "creators_other": [], "media_note": null, "holdings": [], "part_of": null, "parts": [], "part_siblings": [], "group": null, "group_works": [], "group_siblings": [], "source": {"name": "Vernon", "slug": "vernon"}, "source_identifier": "149111", "eaas_environment_id": null, "production_places": [], "production_dates": [], "labels": [58018]}, {"id": 118522, "acmi_id": "R0001138", "title": "[Everynight...everynight : publicity kit]", "title_annotation": "", "slug": "everynighteverynight-publicity-kit", "creator_credit": "", "credit_line": "", "headline_credit": "", "video_links": [], "record_type": "work", "type": "Object", "is_on_display": false, "last_on_display_place": null, "last_on_display_date": null, "is_context_indigenous": false, "material_description": "", "unpublished": false, "external": false, "first_production_date": null, "commissioned": false, "public_domain": false, "external_references": [], "brief_description": "<p>Publicity kit for the production Every Night…Every Night (1994), including 3 B&amp;W Stills (Small), 2 Press Kit/ Reviews, 1 Promo Flyer</p>", "constellations_primary": [], "constellations_other": [], "recommendations": [], "creator_credit_for_label": "", "headline_credit_for_label": "", "title_for_label": "<p>[Everynight&#8230;everynight : publicity kit]</p>", "description": "<p>Publicity kit for the production Every Night…Every Night (1994), including 3 B&amp;W Stills (Small), 2 Press Kit/ Reviews, 1 Promo Flyer</p>", "description_for_label": ["<p>Publicity kit for the production Every Night…Every Night (1994), including 3 B&amp;W Stills (Small), 2 Press Kit/ Reviews, 1 Promo Flyer</p>"], "credit_line_for_label": "", "details": [{"label": "Subject category", "display_values": ["Documentation"]}, {"label": "Object Types", "display_values": ["Publicity kit"]}], "stats": {"tap_count": 0}, "links": [], "creators_primary": [], "creators_other": [], "media_note": null, "holdings": [], "part_of": null, "parts": [], "part_siblings": [], "group": null, "group_works": [], "group_siblings": [], "source": {"name": "Vernon", "slug": "vernon"}, "source_identifier": "149110", "eaas_environment_id": null, "production_places": [], "production_dates": [], "labels": [58017]}, {"id": 118521, "acmi_id": "R0001137", "title": "[Eternity : publicity kit]", "title_annotation": "", "slug": "eternity-publicity-kit", "creator_credit": "", "credit_line": "", "headline_credit": "", "video_links": [], "record_type": "work", "type": "Object", "is_on_display": false, "last_on_display_place": null, "last_on_display_date": null, "is_context_indigenous": false, "material_description": "", "unpublished": false, "external": false, "first_production_date": null, "commissioned": false, "public_domain": false, "external_references": [], "brief_description": "<p>Publicity kit for the production Eternity (1994), including 7 B&amp;W Stills (Large), 2 Press Kit/ Reviews, 1 Promo Flyer, 1 Postcard</p>", "constellations_primary": [], "constellations_other": [], "recommendations": [], "creator_credit_for_label": "", "headline_credit_for_label": "", "title_for_label": "<p>[Eternity : publicity kit]</p>", "description": "<p>Publicity kit for the production Eternity (1994), including 7 B&amp;W Stills (Large), 2 Press Kit/ Reviews, 1 Promo Flyer, 1 Postcard</p>", "description_for_label": ["<p>Publicity kit for the production Eternity (1994), including 7 B&amp;W Stills (Large), 2 Press Kit/ Reviews, 1 Promo Flyer, 1 Postcard</p>"], "credit_line_for_label": "", "details": [{"label": "Subject category", "display_values": ["Documentation"]}, {"label": "Object Types", "display_values": ["Publicity kit"]}], "stats": {"tap_count": 0}, "links": [], "creators_primary": [], "creators_other": [], "media_note": null, "holdings": [], "part_of": null, "parts": [], "part_siblings": [], "group": null, "group_works": [], "group_siblings": [], "source": {"name": "Vernon", "slug": "vernon"}, "source_identifier": "149109", "eaas_environment_id": null, "production_places": [], "production_dates": [], "labels": [58016]}, {"id": 118519, "acmi_id": "R0001135", "title": "[Eliza Fraser : publicity kit]", "title_annotation": "", "slug": "eliza-fraser-publicity-kit", "creator_credit": "", "credit_line": "", "headline_credit": "", "video_links": [], "record_type": "work", "type": "Object", "is_on_display": false, "last_on_display_place": null, "last_on_display_date": null, "is_context_indigenous": false, "material_description": "", "unpublished": false, "external": false, "first_production_date": null, "commissioned": false, "public_domain": false, "external_references": [], "brief_description": "<p>Publicity kit for the production Eliza Fraser (1976), including 6 B&amp;W Stills (Large), 1 Press Kit, 1 Promo Flyer, 3 Colour Transparencies (Large)</p>", "constellations_primary": [], "constellations_other": [], "recommendations": [], "creator_credit_for_label": "", "headline_credit_for_label": "", "title_for_label": "<p>[Eliza Fraser : publicity kit]</p>", "description": "<p>Publicity kit for the production Eliza Fraser (1976), including 6 B&amp;W Stills (Large), 1 Press Kit, 1 Promo Flyer, 3 Colour Transparencies (Large)</p>", "description_for_label": ["<p>Publicity kit for the production Eliza Fraser (1976), including 6 B&amp;W Stills (Large), 1 Press Kit, 1 Promo Flyer, 3 Colour Transparencies (Large)</p>"], "credit_line_for_label": "", "details": [{"label": "Subject category", "display_values": ["Documentation"]}, {"label": "Object Types", "display_values": ["Publicity kit"]}], "stats": {"tap_count": 0}, "links": [], "creators_primary": [], "creators_other": [], "media_note": null, "holdings": [], "part_of": null, "parts": [], "part_siblings": [], "group": null, "group_works": [], "group_siblings": [], "source": {"name": "Vernon", "slug": "vernon"}, "source_identifier": "149107", "eaas_environment_id": null, "production_places": [], "production_dates": [], "labels": [58014]}, {"id": 118517, "acmi_id": "R0001133", "title": "[Duet for four : publicity kit]", "title_annotation": "", "slug": "duet-for-four-publicity-kit", "creator_credit": "", "credit_line": "", "headline_credit": "", "video_links": [], "record_type": "work", "type": "Object", "is_on_display": false, "last_on_display_place": null, "last_on_display_date": null, "is_context_indigenous": false, "material_description": "", "unpublished": false, "external": false, "first_production_date": null, "commissioned": false, "public_domain": false, "external_references": [], "brief_description": "<p>Publicity kit for the production Duet For Four (1982), including 28 B&amp;W Stills (Large), 2 Colour Stills (Large), 1 35mm Colour Transparency, 1 Press Kit, 10 Colour Negative Strips</p>", "constellations_primary": [], "constellations_other": [], "recommendations": [], "creator_credit_for_label": "", "headline_credit_for_label": "", "title_for_label": "<p>[Duet for four : publicity kit]</p>", "description": "<p>Publicity kit for the production Duet For Four (1982), including 28 B&amp;W Stills (Large), 2 Colour Stills (Large), 1 35mm Colour Transparency, 1 Press Kit, 10 Colour Negative Strips</p>", "description_for_label": ["<p>Publicity kit for the production Duet For Four (1982), including 28 B&amp;W Stills (Large), 2 Colour Stills (Large), 1 35mm Colour Transparency, 1 Press Kit, 10 Colour Negative Strips</p>"], "credit_line_for_label": "", "details": [{"label": "Subject category", "display_values": ["Documentation"]}, {"label": "Object Types", "display_values": ["Publicity kit"]}], "stats": {"tap_count": 0}, "links": [], "creators_primary": [], "creators_other": [], "media_note": null, "holdings": [], "part_of": null, "parts": [], "part_siblings": [], "group": null, "group_works": [], "group_siblings": [], "source": {"name": "Vernon", "slug": "vernon"}, "source_identifier": "149105", "eaas_environment_id": null, "production_places": [], "production_dates": [], "labels": [58012]}, {"id": 118516, "acmi_id": "R0001131", "title": "[Death of a soldier : publicity kit]", "title_annotation": "", "slug": "death-of-a-soldier-publicity-kit", "creator_credit": "", "credit_line": "", "headline_credit": "", "video_links": [], "record_type": "work", "type": "Object", "is_on_display": false, "last_on_display_place": null, "last_on_display_date": null, "is_context_indigenous": false, "material_description": "", "unpublished": false, "external": false, "first_production_date": null, "commissioned": false, "public_domain": false, "external_references": [], "brief_description": "<p>Publicity kit for the production Death of a Soldier (1986), including 3 B&amp;W Stills (Large), 5 B&amp;W Stills (Small), 2 Press Kits</p>", "constellations_primary": [], "constellations_other": [], "recommendations": [], "creator_credit_for_label": "", "headline_credit_for_label": "", "title_for_label": "<p>[Death of a soldier : publicity kit]</p>", "description": "<p>Publicity kit for the production Death of a Soldier (1986), including 3 B&amp;W Stills (Large), 5 B&amp;W Stills (Small), 2 Press Kits</p>", "description_for_label": ["<p>Publicity kit for the production Death of a Soldier (1986), including 3 B&amp;W Stills (Large), 5 B&amp;W Stills (Small), 2 Press Kits</p>"], "credit_line_for_label": "", "details": [{"label": "Subject category", "display_values": ["Documentation"]}, {"label": "Object Types", "display_values": ["Publicity kit"]}], "stats": {"tap_count": 0}, "links": [], "creators_primary": [], "creators_other": [], "media_note": null, "holdings": [], "part_of": null, "parts": [], "part_siblings": [], "group": null, "group_works": [], "group_siblings": [], "source": {"name": "Vernon", "slug": "vernon"}, "source_identifier": "149103", "eaas_environment_id": null, "production_places": [], "production_dates": [], "labels": [58011]}, {"id": 118515, "acmi_id": "R0001130", "title": "[Deadly : publicity kit]", "title_annotation": "", "slug": "deadly-publicity-kit", "creator_credit": "", "credit_line": "", "headline_credit": "", "video_links": [], "record_type": "work", "type": "Object", "is_on_display": false, "last_on_display_place": null, "last_on_display_date": null, "is_context_indigenous": false, "material_description": "", "unpublished": false, "external": false, "first_production_date": null, "commissioned": false, "public_domain": false, "external_references": [], "brief_description": "<p>Publicity kit for the production Deadly (1991), including 8 B&amp;W Stills (Large), 1 35mm Colour Transparency, 2 Promo Flyers, 1 Press kit/ Review</p>", "constellations_primary": [], "constellations_other": [], "recommendations": [], "creator_credit_for_label": "", "headline_credit_for_label": "", "title_for_label": "<p>[Deadly : publicity kit]</p>", "description": "<p>Publicity kit for the production Deadly (1991), including 8 B&amp;W Stills (Large), 1 35mm Colour Transparency, 2 Promo Flyers, 1 Press kit/ Review</p>", "description_for_label": ["<p>Publicity kit for the production Deadly (1991), including 8 B&amp;W Stills (Large), 1 35mm Colour Transparency, 2 Promo Flyers, 1 Press kit/ Review</p>"], "credit_line_for_label": "", "details": [{"label": "Subject category", "display_values": ["Documentation"]}, {"label": "Object Types", "display_values": ["Publicity kit"]}], "stats": {"tap_count": 0}, "links": [], "creators_primary": [], "creators_other": [], "media_note": null, "holdings": [], "part_of": null, "parts": [], "part_siblings": [], "group": null, "group_works": [], "group_siblings": [], "source": {"name": "Vernon", "slug": "vernon"}, "source_identifier": "149102", "eaas_environment_id": null, "production_places": [], "production_dates": [], "labels": [58010]}]}