{"count": 41722, "next": "https://api.acmi.net.au/works/?page=4147", "previous": "https://api.acmi.net.au/works/?page=4145", "results": [{"id": 118912, "acmi_id": "R0001829", "title": "[Farewells : publicity kit]", "title_annotation": "", "slug": "farewells-publicity-kit", "creator_credit": "", "credit_line": "", "headline_credit": "", "video_links": [], "record_type": "work", "type": "Object", "is_on_display": false, "last_on_display_place": null, "last_on_display_date": null, "is_context_indigenous": false, "material_description": "", "unpublished": false, "external": false, "first_production_date": null, "commissioned": false, "public_domain": false, "external_references": [], "brief_description": "<p>Publicity kit for the production Farewells (1969?), including 1 B&amp;W Still (Large)</p>", "constellations_primary": [], "constellations_other": [], "recommendations": [], "title_for_label": "<p>[Farewells : publicity kit]</p>", "creator_credit_for_label": "", "headline_credit_for_label": "", "description": "<p>Publicity kit for the production Farewells (1969?), including 1 B&amp;W Still (Large)</p>", "description_for_label": ["<p>Publicity kit for the production Farewells (1969?), including 1 B&amp;W Still (Large)</p>"], "credit_line_for_label": "", "details": [{"label": "Subject category", "display_values": ["Documentation"]}, {"label": "Object Types", "display_values": ["Publicity kit"]}], "stats": {"tap_count": 0}, "links": [], "creators_primary": [], "creators_other": [], "media_note": null, "holdings": [], "part_of": null, "parts": [], "part_siblings": [], "group": null, "group_works": [], "group_siblings": [], "source": {"name": "Vernon", "slug": "vernon"}, "source_identifier": "149802", "eaas_environment_id": null, "production_places": [], "production_dates": [], "labels": [58399]}, {"id": 118687, "acmi_id": "R0001322", "title": "[Fantasm comes again : publicity kit]", "title_annotation": "", "slug": "fantasm-comes-again-publicity-kit", "creator_credit": "", "credit_line": "", "headline_credit": "", "video_links": [], "record_type": "work", "type": "Object", "is_on_display": false, "last_on_display_place": null, "last_on_display_date": null, "is_context_indigenous": false, "material_description": "", "unpublished": false, "external": false, "first_production_date": null, "commissioned": false, "public_domain": false, "external_references": [], "brief_description": "<p>Publicity kit for the production Fantasm Comes Again (1977), including 13 B&amp;W Stills (Large), 1 B&amp;W Negative</p>", "constellations_primary": [], "constellations_other": [], "recommendations": [], "title_for_label": "<p>[Fantasm comes again : publicity kit]</p>", "creator_credit_for_label": "", "headline_credit_for_label": "", "description": "<p>Publicity kit for the production Fantasm Comes Again (1977), including 13 B&amp;W Stills (Large), 1 B&amp;W Negative</p>", "description_for_label": ["<p>Publicity kit for the production Fantasm Comes Again (1977), including 13 B&amp;W Stills (Large), 1 B&amp;W Negative</p>"], "credit_line_for_label": "", "details": [{"label": "Subject category", "display_values": ["Documentation"]}, {"label": "Object Types", "display_values": ["Publicity kit"]}], "stats": {"tap_count": 0}, "links": [], "creators_primary": [], "creators_other": [], "media_note": null, "holdings": [], "part_of": null, "parts": [], "part_siblings": [], "group": null, "group_works": [], "group_siblings": [], "source": {"name": "Vernon", "slug": "vernon"}, "source_identifier": "149294", "eaas_environment_id": null, "production_places": [], "production_dates": [], "labels": [58179]}, {"id": 118686, "acmi_id": "R0001321", "title": "[Fantasm : publicity kit]", "title_annotation": "", "slug": "fantasm-publicity-kit", "creator_credit": "", "credit_line": "", "headline_credit": "", "video_links": [], "record_type": "work", "type": "Object", "is_on_display": false, "last_on_display_place": null, "last_on_display_date": null, "is_context_indigenous": false, "material_description": "", "unpublished": false, "external": false, "first_production_date": null, "commissioned": false, "public_domain": false, "external_references": [], "brief_description": "<p>Publicity kit for the production Fantasm (1976), including 9 B&amp;W Stills (Large)</p>", "constellations_primary": [], "constellations_other": [], "recommendations": [], "title_for_label": "<p>[Fantasm : publicity kit]</p>", "creator_credit_for_label": "", "headline_credit_for_label": "", "description": "<p>Publicity kit for the production Fantasm (1976), including 9 B&amp;W Stills (Large)</p>", "description_for_label": ["<p>Publicity kit for the production Fantasm (1976), including 9 B&amp;W Stills (Large)</p>"], "credit_line_for_label": "", "details": [{"label": "Subject category", "display_values": ["Documentation"]}, {"label": "Object Types", "display_values": ["Publicity kit"]}], "stats": {"tap_count": 0}, "links": [], "creators_primary": [], "creators_other": [], "media_note": null, "holdings": [], "part_of": null, "parts": [], "part_siblings": [], "group": null, "group_works": [], "group_siblings": [], "source": {"name": "Vernon", "slug": "vernon"}, "source_identifier": "149293", "eaas_environment_id": null, "production_places": [], "production_dates": [], "labels": [58178]}, {"id": 88521, "acmi_id": "311092", "title": "[Fanfare shorts]", "title_annotation": "", "slug": "fanfare-shorts", "creator_credit": "", "credit_line": "", "headline_credit": "Australia, 1965", "video_links": [], "record_type": "work", "type": "Film", "is_on_display": false, "last_on_display_place": null, "last_on_display_date": null, "is_context_indigenous": false, "material_description": "", "unpublished": false, "external": false, "first_production_date": "1965-01-01T10:00:00+10:00", "commissioned": false, "public_domain": false, "external_references": [], "brief_description": "<p>A showreel anthology of animated advertisements and public service films from the early to mid 1960&#8217;s. Zippy and sophisticated animation at the service of commerce and public education. These cartoons provide a facinating insight into the social and cultural mores of &#8216;60&#8217;s Australia.</p>", "constellations_primary": [], "constellations_other": [], "recommendations": [], "title_for_label": "<p>[Fanfare shorts]</p>", "creator_credit_for_label": "", "headline_credit_for_label": "<p>Australia, 1965</p>", "description": "<p>A showreel anthology of animated advertisements and public service films from the early to mid 1960&#8217;s. Zippy and sophisticated animation at the service of commerce and public education. These cartoons provide a facinating insight into the social and cultural mores of &#8216;60&#8217;s Australia.</p>", "description_for_label": ["<p>A showreel anthology of animated advertisements and public service films from the early to mid 1960&#8217;s. Zippy and sophisticated animation at the service of commerce and public education. These cartoons provide a facinating insight into the social and cultural mores of &#8216;60&#8217;s Australia.</p>"], "credit_line_for_label": "", "details": [{"label": "Duration", "display_values": ["00:08:55:00"]}, {"label": "Language", "display_values": ["English"]}, {"label": "Subject categories", "display_values": ["Advertising, Film, Journalism, Mass Media & TV&nbsp;→ Advertising", "Advertising, Film, Journalism, Mass Media & TV&nbsp;→ Advertising - Australia", "Advertising, Film, Journalism, Mass Media & TV&nbsp;→ Advertising - Australia - History", "Advertising, Film, Journalism, Mass Media & TV&nbsp;→ Public relations", "Agriculture, Business, Commerce & Industry&nbsp;→ Advertising - Australia - History", "Agriculture, Business, Commerce & Industry&nbsp;→ Commercial products", "Agriculture, Business, Commerce & Industry&nbsp;→ Public relations", "Animation", "Animation&nbsp;→ Animated films - Australia", "Anthropology, Ethnology, Exploration & Travel&nbsp;→ Australia - Social life and customs", "Economics, Philosophy, Politics, Religion & Sociology&nbsp;→ Advertising", "Short films", "Short films&nbsp;→ Short films - Australia"]}, {"label": "Sound/audio", "display_values": ["Sound"]}, {"label": "Colour", "display_values": ["Black and White"]}], "stats": {"tap_count": 0}, "links": [], "creators_primary": [], "creators_other": [], "media_note": "Sorry, we don't have images or video for this item.", "holdings": [{"name": "16mm film; Access Print (Section 1)", "identifier": "", "description": ""}], "part_of": null, "parts": [], "part_siblings": [], "group": null, "group_works": [], "group_siblings": [], "source": {"name": "Vernon", "slug": "vernon"}, "source_identifier": "45454", "eaas_environment_id": null, "production_places": [{"id": 3, "name": "Australia", "slug": "australia"}], "production_dates": [{"date": "1965", "notes": "Estimated date", "to_year": "1965"}], "labels": [28011]}, {"id": 118911, "acmi_id": "R0001828", "title": "[Falling over backwards : publicity kit]", "title_annotation": "", "slug": "falling-over-backwards-publicity-kit", "creator_credit": "", "credit_line": "", "headline_credit": "", "video_links": [], "record_type": "work", "type": "Object", "is_on_display": false, "last_on_display_place": null, "last_on_display_date": null, "is_context_indigenous": false, "material_description": "", "unpublished": false, "external": false, "first_production_date": null, "commissioned": false, "public_domain": false, "external_references": [], "brief_description": "<p>Publicity kit for the production Falling Over Backwards, including 1 B&amp;W Still (Large)</p>", "constellations_primary": [], "constellations_other": [], "recommendations": [], "title_for_label": "<p>[Falling over backwards : publicity kit]</p>", "creator_credit_for_label": "", "headline_credit_for_label": "", "description": "<p>Publicity kit for the production Falling Over Backwards, including 1 B&amp;W Still (Large)</p>", "description_for_label": ["<p>Publicity kit for the production Falling Over Backwards, including 1 B&amp;W Still (Large)</p>"], "credit_line_for_label": "", "details": [{"label": "Subject category", "display_values": ["Documentation"]}, {"label": "Object Types", "display_values": ["Publicity kit"]}], "stats": {"tap_count": 0}, "links": [], "creators_primary": [], "creators_other": [], "media_note": null, "holdings": [], "part_of": null, "parts": [], "part_siblings": [], "group": null, "group_works": [], "group_siblings": [], "source": {"name": "Vernon", "slug": "vernon"}, "source_identifier": "149801", "eaas_environment_id": null, "production_places": [], "production_dates": [], "labels": [58398]}, {"id": 118684, "acmi_id": "R0001319", "title": "[Faith, hope and no charity : publicity kit]", "title_annotation": "", "slug": "faith-hope-and-no-charity-publicity-kit", "creator_credit": "", "credit_line": "", "headline_credit": "", "video_links": [], "record_type": "work", "type": "Object", "is_on_display": false, "last_on_display_place": null, "last_on_display_date": null, "is_context_indigenous": false, "material_description": "", "unpublished": false, "external": false, "first_production_date": null, "commissioned": false, "public_domain": false, "external_references": [], "brief_description": "<p>Publicity kit for the production Faith, Hope and No Charity, including 1 Colour Still (Large)</p>", "constellations_primary": [], "constellations_other": [], "recommendations": [], "title_for_label": "<p>[Faith, hope and no charity : publicity kit]</p>", "creator_credit_for_label": "", "headline_credit_for_label": "", "description": "<p>Publicity kit for the production Faith, Hope and No Charity, including 1 Colour Still (Large)</p>", "description_for_label": ["<p>Publicity kit for the production Faith, Hope and No Charity, including 1 Colour Still (Large)</p>"], "credit_line_for_label": "", "details": [{"label": "Subject category", "display_values": ["Documentation"]}, {"label": "Object Types", "display_values": ["Publicity kit"]}], "stats": {"tap_count": 0}, "links": [], "creators_primary": [], "creators_other": [], "media_note": null, "holdings": [], "part_of": null, "parts": [], "part_siblings": [], "group": null, "group_works": [], "group_siblings": [], "source": {"name": "Vernon", "slug": "vernon"}, "source_identifier": "149291", "eaas_environment_id": null, "production_places": [], "production_dates": [], "labels": [58176]}, {"id": 118683, "acmi_id": "R0001318", "title": "[Fair game : publicity kit]", "title_annotation": "", "slug": "fair-game-publicity-kit", "creator_credit": "", "credit_line": "", "headline_credit": "", "video_links": [], "record_type": "work", "type": "Object", "is_on_display": false, "last_on_display_place": null, "last_on_display_date": null, "is_context_indigenous": false, "material_description": "", "unpublished": false, "external": false, "first_production_date": null, "commissioned": false, "public_domain": false, "external_references": [], "brief_description": "<p>Publicity kit for the production Fair Game (1986), including 5 B&amp;W Stills (Large), 1 Press Kit/ Review</p>", "constellations_primary": [], "constellations_other": [], "recommendations": [], "title_for_label": "<p>[Fair game : publicity kit]</p>", "creator_credit_for_label": "", "headline_credit_for_label": "", "description": "<p>Publicity kit for the production Fair Game (1986), including 5 B&amp;W Stills (Large), 1 Press Kit/ Review</p>", "description_for_label": ["<p>Publicity kit for the production Fair Game (1986), including 5 B&amp;W Stills (Large), 1 Press Kit/ Review</p>"], "credit_line_for_label": "", "details": [{"label": "Subject category", "display_values": ["Documentation"]}, {"label": "Object Types", "display_values": ["Publicity kit"]}], "stats": {"tap_count": 0}, "links": [], "creators_primary": [], "creators_other": [], "media_note": null, "holdings": [], "part_of": null, "parts": [], "part_siblings": [], "group": null, "group_works": [], "group_siblings": [], "source": {"name": "Vernon", "slug": "vernon"}, "source_identifier": "149290", "eaas_environment_id": null, "production_places": [], "production_dates": [], "labels": [58175]}, {"id": 118932, "acmi_id": "R0001879", "title": "[Faces : publicity kit]", "title_annotation": "", "slug": "faces-publicity-kit", "creator_credit": "", "credit_line": "", "headline_credit": "", "video_links": [], "record_type": "work", "type": "Object", "is_on_display": false, "last_on_display_place": null, "last_on_display_date": null, "is_context_indigenous": false, "material_description": "", "unpublished": false, "external": false, "first_production_date": null, "commissioned": false, "public_domain": false, "external_references": [], "brief_description": "<p>Publicity kit for the production Faces (TV 1982), including 3 B&amp;W Stills (Large), 2 Colour Stills (Small), 1 Press Kit/ Review, 2 Colour Transparencies (Large)</p>", "constellations_primary": [], "constellations_other": [], "recommendations": [], "title_for_label": "<p>[Faces : publicity kit]</p>", "creator_credit_for_label": "", "headline_credit_for_label": "", "description": "<p>Publicity kit for the production Faces (TV 1982), including 3 B&amp;W Stills (Large), 2 Colour Stills (Small), 1 Press Kit/ Review, 2 Colour Transparencies (Large)</p>", "description_for_label": ["<p>Publicity kit for the production Faces (TV 1982), including 3 B&amp;W Stills (Large), 2 Colour Stills (Small), 1 Press Kit/ Review, 2 Colour Transparencies (Large)</p>"], "credit_line_for_label": "", "details": [{"label": "Subject category", "display_values": ["Documentation"]}, {"label": "Object Types", "display_values": ["Publicity kit"]}], "stats": {"tap_count": 1}, "links": [], "creators_primary": [], "creators_other": [], "media_note": null, "holdings": [], "part_of": null, "parts": [], "part_siblings": [], "group": null, "group_works": [], "group_siblings": [], "source": {"name": "Vernon", "slug": "vernon"}, "source_identifier": "149857", "eaas_environment_id": null, "production_places": [], "production_dates": [], "labels": [58419]}, {"id": 118682, "acmi_id": "R0001316", "title": "[Exits : publicity kit]", "title_annotation": "", "slug": "exits-publicity-kit", "creator_credit": "", "credit_line": "", "headline_credit": "", "video_links": [], "record_type": "work", "type": "Object", "is_on_display": false, "last_on_display_place": null, "last_on_display_date": null, "is_context_indigenous": false, "material_description": "", "unpublished": false, "external": false, "first_production_date": null, "commissioned": false, "public_domain": false, "external_references": [], "brief_description": "<p>Publicity kit for the production Exits (1979), including 16 B&amp;W Stills (Small), 1 Promo Flyer</p>", "constellations_primary": [], "constellations_other": [], "recommendations": [], "title_for_label": "<p>[Exits : publicity kit]</p>", "creator_credit_for_label": "", "headline_credit_for_label": "", "description": "<p>Publicity kit for the production Exits (1979), including 16 B&amp;W Stills (Small), 1 Promo Flyer</p>", "description_for_label": ["<p>Publicity kit for the production Exits (1979), including 16 B&amp;W Stills (Small), 1 Promo Flyer</p>"], "credit_line_for_label": "", "details": [{"label": "Subject category", "display_values": ["Documentation"]}, {"label": "Object Types", "display_values": ["Publicity kit"]}], "stats": {"tap_count": 0}, "links": [], "creators_primary": [], "creators_other": [], "media_note": null, "holdings": [], "part_of": null, "parts": [], "part_siblings": [], "group": null, "group_works": [], "group_siblings": [], "source": {"name": "Vernon", "slug": "vernon"}, "source_identifier": "149288", "eaas_environment_id": null, "production_places": [], "production_dates": [], "labels": [58174]}, {"id": 118681, "acmi_id": "R0001315", "title": "[Exile in Sarajevo : publicity kit]", "title_annotation": "", "slug": "exile-in-sarajevo-publicity-kit", "creator_credit": "", "credit_line": "", "headline_credit": "", "video_links": [], "record_type": "work", "type": "Object", "is_on_display": false, "last_on_display_place": null, "last_on_display_date": null, "is_context_indigenous": false, "material_description": "", "unpublished": false, "external": false, "first_production_date": null, "commissioned": false, "public_domain": false, "external_references": [], "brief_description": "<p>Publicity kit for the production Exile In Sarajevo (1997), including 1 B&amp;W Still (Large), 1 Colour Still (Large), 1 Promo Flyer</p>", "constellations_primary": [], "constellations_other": [], "recommendations": [], "title_for_label": "<p>[Exile in Sarajevo : publicity kit]</p>", "creator_credit_for_label": "", "headline_credit_for_label": "", "description": "<p>Publicity kit for the production Exile In Sarajevo (1997), including 1 B&amp;W Still (Large), 1 Colour Still (Large), 1 Promo Flyer</p>", "description_for_label": ["<p>Publicity kit for the production Exile In Sarajevo (1997), including 1 B&amp;W Still (Large), 1 Colour Still (Large), 1 Promo Flyer</p>"], "credit_line_for_label": "", "details": [{"label": "Subject category", "display_values": ["Documentation"]}, {"label": "Object Types", "display_values": ["Publicity kit"]}], "stats": {"tap_count": 2}, "links": [], "creators_primary": [], "creators_other": [], "media_note": null, "holdings": [], "part_of": null, "parts": [], "part_siblings": [], "group": null, "group_works": [], "group_siblings": [], "source": {"name": "Vernon", "slug": "vernon"}, "source_identifier": "149287", "eaas_environment_id": null, "production_places": [], "production_dates": [], "labels": [58173]}]}