{"count": 41723, "next": "https://api.acmi.net.au/works/?page=4125", "previous": "https://api.acmi.net.au/works/?page=4123", "results": [{"id": 118948, "acmi_id": "R0001946", "title": "[Pure luck : publicity kit]", "title_annotation": "", "slug": "pure-luck-publicity-kit", "creator_credit": "", "credit_line": "", "headline_credit": "", "video_links": [], "record_type": "work", "type": "Object", "is_on_display": false, "last_on_display_place": null, "last_on_display_date": null, "is_context_indigenous": false, "material_description": "", "unpublished": false, "external": false, "first_production_date": null, "commissioned": false, "public_domain": false, "external_references": [], "brief_description": "<p>Publicity kit for the production Pure Luck (1991), including 1 B&amp;W Still (Large), 1 Press Kit/ Review</p>", "constellations_primary": [], "constellations_other": [], "recommendations": [], "title_for_label": "<p>[Pure luck : publicity kit]</p>", "creator_credit_for_label": "", "headline_credit_for_label": "", "description": "<p>Publicity kit for the production Pure Luck (1991), including 1 B&amp;W Still (Large), 1 Press Kit/ Review</p>", "description_for_label": ["<p>Publicity kit for the production Pure Luck (1991), including 1 B&amp;W Still (Large), 1 Press Kit/ Review</p>"], "credit_line_for_label": "", "details": [{"label": "Subject category", "display_values": ["Documentation"]}, {"label": "Object Types", "display_values": ["Publicity kit"]}], "stats": {"tap_count": 0}, "links": [], "creators_primary": [], "creators_other": [], "media_note": null, "holdings": [], "part_of": null, "parts": [], "part_siblings": [], "group": null, "group_works": [], "group_siblings": [], "source": {"name": "Vernon", "slug": "vernon"}, "source_identifier": "149966", "eaas_environment_id": null, "production_places": [], "production_dates": [], "labels": [58435]}, {"id": 118952, "acmi_id": "R0001951", "title": "[Punishment : publicity kit]", "title_annotation": "", "slug": "punishment-publicity-kit", "creator_credit": "", "credit_line": "", "headline_credit": "", "video_links": [], "record_type": "work", "type": "Object", "is_on_display": false, "last_on_display_place": null, "last_on_display_date": null, "is_context_indigenous": false, "material_description": "", "unpublished": false, "external": false, "first_production_date": null, "commissioned": false, "public_domain": false, "external_references": [], "brief_description": "<p>Publicity kit for the production Punishment (TV 1981), including 6 B&amp;W Stills (Large)</p>", "constellations_primary": [], "constellations_other": [], "recommendations": [], "title_for_label": "<p>[Punishment : publicity kit]</p>", "creator_credit_for_label": "", "headline_credit_for_label": "", "description": "<p>Publicity kit for the production Punishment (TV 1981), including 6 B&amp;W Stills (Large)</p>", "description_for_label": ["<p>Publicity kit for the production Punishment (TV 1981), including 6 B&amp;W Stills (Large)</p>"], "credit_line_for_label": "", "details": [{"label": "Subject category", "display_values": ["Documentation"]}, {"label": "Object Types", "display_values": ["Publicity kit"]}], "stats": {"tap_count": 0}, "links": [], "creators_primary": [], "creators_other": [], "media_note": null, "holdings": [], "part_of": null, "parts": [], "part_siblings": [], "group": null, "group_works": [], "group_siblings": [], "source": {"name": "Vernon", "slug": "vernon"}, "source_identifier": "149971", "eaas_environment_id": null, "production_places": [], "production_dates": [], "labels": [58439]}, {"id": 118946, "acmi_id": "R0001944", "title": "[Pugwall : publicity kit]", "title_annotation": "", "slug": "pugwall-publicity-kit", "creator_credit": "", "credit_line": "", "headline_credit": "", "video_links": [], "record_type": "work", "type": "Object", "is_on_display": false, "last_on_display_place": null, "last_on_display_date": null, "is_context_indigenous": false, "material_description": "", "unpublished": false, "external": false, "first_production_date": null, "commissioned": false, "public_domain": false, "external_references": [], "brief_description": "<p>Publicity kit for the production Pugwall (TV 1989), including 1 B&amp;W Still (Large)</p>", "constellations_primary": [], "constellations_other": [], "recommendations": [], "title_for_label": "<p>[Pugwall : publicity kit]</p>", "creator_credit_for_label": "", "headline_credit_for_label": "", "description": "<p>Publicity kit for the production Pugwall (TV 1989), including 1 B&amp;W Still (Large)</p>", "description_for_label": ["<p>Publicity kit for the production Pugwall (TV 1989), including 1 B&amp;W Still (Large)</p>"], "credit_line_for_label": "", "details": [{"label": "Subject category", "display_values": ["Documentation"]}, {"label": "Object Types", "display_values": ["Publicity kit"]}], "stats": {"tap_count": 0}, "links": [], "creators_primary": [], "creators_other": [], "media_note": null, "holdings": [], "part_of": null, "parts": [], "part_siblings": [], "group": null, "group_works": [], "group_siblings": [], "source": {"name": "Vernon", "slug": "vernon"}, "source_identifier": "149964", "eaas_environment_id": null, "production_places": [], "production_dates": [], "labels": [58433]}, {"id": 118953, "acmi_id": "R0001952", "title": "[Public enemy number one : publicity kit]", "title_annotation": "", "slug": "public-enemy-number-one-publicity-kit", "creator_credit": "", "credit_line": "", "headline_credit": "", "video_links": [], "record_type": "work", "type": "Object", "is_on_display": false, "last_on_display_place": null, "last_on_display_date": null, "is_context_indigenous": false, "material_description": "", "unpublished": false, "external": false, "first_production_date": null, "commissioned": false, "public_domain": false, "external_references": [], "brief_description": "<p>Publicity kit for the production Public Enemy Number One (1981), including 6 B&amp;W Stills (Large)</p>", "constellations_primary": [], "constellations_other": [], "recommendations": [], "title_for_label": "<p>[Public enemy number one : publicity kit]</p>", "creator_credit_for_label": "", "headline_credit_for_label": "", "description": "<p>Publicity kit for the production Public Enemy Number One (1981), including 6 B&amp;W Stills (Large)</p>", "description_for_label": ["<p>Publicity kit for the production Public Enemy Number One (1981), including 6 B&amp;W Stills (Large)</p>"], "credit_line_for_label": "", "details": [{"label": "Subject category", "display_values": ["Documentation"]}, {"label": "Object Types", "display_values": ["Publicity kit"]}], "stats": {"tap_count": 0}, "links": [], "creators_primary": [], "creators_other": [], "media_note": null, "holdings": [], "part_of": null, "parts": [], "part_siblings": [], "group": null, "group_works": [], "group_siblings": [], "source": {"name": "Vernon", "slug": "vernon"}, "source_identifier": "149972", "eaas_environment_id": null, "production_places": [], "production_dates": [], "labels": [58440]}, {"id": 118954, "acmi_id": "R0001953", "title": "[Promised woman : publicity kit]", "title_annotation": "", "slug": "promised-woman-publicity-kit", "creator_credit": "", "credit_line": "", "headline_credit": "", "video_links": [], "record_type": "work", "type": "Object", "is_on_display": false, "last_on_display_place": null, "last_on_display_date": null, "is_context_indigenous": false, "material_description": "", "unpublished": false, "external": false, "first_production_date": null, "commissioned": false, "public_domain": false, "external_references": [], "brief_description": "<p>Publicity kit for the production Promised Woman (1975), including 3 B&amp;W Stills (Large), 2 Press Kit/ Reviews</p>", "constellations_primary": [], "constellations_other": [], "recommendations": [], "title_for_label": "<p>[Promised woman : publicity kit]</p>", "creator_credit_for_label": "", "headline_credit_for_label": "", "description": "<p>Publicity kit for the production Promised Woman (1975), including 3 B&amp;W Stills (Large), 2 Press Kit/ Reviews</p>", "description_for_label": ["<p>Publicity kit for the production Promised Woman (1975), including 3 B&amp;W Stills (Large), 2 Press Kit/ Reviews</p>"], "credit_line_for_label": "", "details": [{"label": "Subject category", "display_values": ["Documentation"]}, {"label": "Object Types", "display_values": ["Publicity kit"]}], "stats": {"tap_count": 0}, "links": [], "creators_primary": [], "creators_other": [], "media_note": null, "holdings": [], "part_of": null, "parts": [], "part_siblings": [], "group": null, "group_works": [], "group_siblings": [], "source": {"name": "Vernon", "slug": "vernon"}, "source_identifier": "149973", "eaas_environment_id": null, "production_places": [], "production_dates": [], "labels": [58441]}, {"id": 118955, "acmi_id": "R0001954", "title": "[Promise : publicity kit]", "title_annotation": "", "slug": "promise-publicity-kit", "creator_credit": "", "credit_line": "", "headline_credit": "1997", "video_links": [], "record_type": "work", "type": "Object", "is_on_display": false, "last_on_display_place": null, "last_on_display_date": null, "is_context_indigenous": false, "material_description": "", "unpublished": false, "external": false, "first_production_date": "1997-01-01T11:00:00+11:00", "commissioned": false, "public_domain": false, "external_references": [], "brief_description": "<p>Publicity kit for the production Promise (1997), including 1 B&amp;W Still (Small), 1 35mm Colour Transparency</p>", "constellations_primary": [], "constellations_other": [], "recommendations": [], "title_for_label": "<p>[Promise : publicity kit]</p>", "creator_credit_for_label": "", "headline_credit_for_label": "<p>1997</p>", "description": "<p>Publicity kit for the production Promise (1997), including 1 B&amp;W Still (Small), 1 35mm Colour Transparency</p>", "description_for_label": ["<p>Publicity kit for the production Promise (1997), including 1 B&amp;W Still (Small), 1 35mm Colour Transparency</p>"], "credit_line_for_label": "", "details": [{"label": "Subject category", "display_values": ["Documentation"]}, {"label": "Object Types", "display_values": ["Publicity kit"]}], "stats": {"tap_count": 0}, "links": [], "creators_primary": [], "creators_other": [], "media_note": null, "holdings": [], "part_of": null, "parts": [], "part_siblings": [], "group": null, "group_works": [], "group_siblings": [], "source": {"name": "Vernon", "slug": "vernon"}, "source_identifier": "149974", "eaas_environment_id": null, "production_places": [], "production_dates": [{"date": "1997", "notes": "", "to_year": "1997"}], "labels": [58442]}, {"id": 71857, "acmi_id": "008728", "title": "[Prize winning advertising films]", "title_annotation": "", "slug": "prize-winning-advertising-films", "creator_credit": "", "credit_line": "", "headline_credit": "Unknown", "video_links": [], "record_type": "work", "type": "TV show", "is_on_display": false, "last_on_display_place": null, "last_on_display_date": null, "is_context_indigenous": false, "material_description": "", "unpublished": false, "external": false, "first_production_date": null, "commissioned": false, "public_domain": false, "external_references": [], "brief_description": "<p>Four short advertising films which were awarded prizes at an International Advertising Film Festival. 1. &#8216;Awarded prize for animated models and objects&#8217; - cigarette advertisement by Joop Geesink and Pearl and Dean (Holland and Great Britain). Commercial for de Reske cigarettes entitled &#8216;No Tax on Tips&#8217;. 2. &#8216;Awarded prize for live action up to 40 metres&#8217; - Spart (France) &#8216;Chacun a son Tour&#8217; commercial for Ovomaltine. 3. &#8216;Awarded prize for live action 41 to 80 metres&#8217; - Insel Film (West Germany) for Stenorette dictating machine entitled &#8216; Leiden und Freuden&#8217;. 4. &#8216;Awarded prize for live action over 80 metres - Slogan Film (Italy) for supercortemaggiore Petrol and Energol oil. Made for A.C.I.P. entitled &#8216;40 Anni Dopo&#8217;.</p>", "constellations_primary": [], "constellations_other": [], "recommendations": [], "title_for_label": "<p>[Prize winning advertising films]</p>", "creator_credit_for_label": "", "headline_credit_for_label": "<p>Unknown</p>", "description": "<p>Four short advertising films which were awarded prizes at an International Advertising Film Festival. 1. &#8216;Awarded prize for animated models and objects&#8217; - cigarette advertisement by Joop Geesink and Pearl and Dean (Holland and Great Britain). Commercial for de Reske cigarettes entitled &#8216;No Tax on Tips&#8217;. 2. &#8216;Awarded prize for live action up to 40 metres&#8217; - Spart (France) &#8216;Chacun a son Tour&#8217; commercial for Ovomaltine. 3. &#8216;Awarded prize for live action 41 to 80 metres&#8217; - Insel Film (West Germany) for Stenorette dictating machine entitled &#8216; Leiden und Freuden&#8217;. 4. &#8216;Awarded prize for live action over 80 metres - Slogan Film (Italy) for supercortemaggiore Petrol and Energol oil. Made for A.C.I.P. entitled &#8216;40 Anni Dopo&#8217;.</p>", "description_for_label": ["<p>Four short advertising films which were awarded prizes at an International Advertising Film Festival. 1. &#8216;Awarded prize for animated models and objects&#8217; - cigarette advertisement by Joop Geesink and Pearl and Dean (Holland and Great Britain). Commercial for de Reske cigarettes entitled &#8216;No Tax on Tips&#8217;. 2. &#8216;Awarded prize for live action up to 40 metres&#8217; - Spart (France) &#8216;Chacun a son Tour&#8217; commercial for Ovomaltine. 3. &#8216;Awarded prize for live action 41 to 80 metres&#8217; - Insel Film (West Germany) for Stenorette dictating machine entitled &#8216; Leiden und Freuden&#8217;. 4. &#8216;Awarded prize for live action over 80 metres - Slogan Film (Italy) for supercortemaggiore Petrol and Energol oil. Made for A.C.I.P. entitled &#8216;40 Anni Dopo&#8217;.</p>"], "credit_line_for_label": "", "details": [{"label": "Duration", "display_values": ["00:08:00:00"]}, {"label": "Language", "display_values": ["English"]}, {"label": "Subject categories", "display_values": ["Advertising, Film, Journalism, Mass Media & TV&nbsp;→ Advertising", "Advertising, Film, Journalism, Mass Media & TV&nbsp;→ Advertising - Awards", "Advertising, Film, Journalism, Mass Media & TV&nbsp;→ Television", "Advertising, Film, Journalism, Mass Media & TV&nbsp;→ Television advertising", "Economics, Philosophy, Politics, Religion & Sociology&nbsp;→ Advertising", "Television"]}, {"label": "Sound/audio", "display_values": ["Sound"]}, {"label": "Colour", "display_values": ["Colour"]}], "stats": {"tap_count": 0}, "links": [], "creators_primary": [], "creators_other": [], "media_note": "Sorry, we don't have images or video for this item.", "holdings": [{"name": "16mm film; Limited Access Print (Section 2)", "identifier": "", "description": ""}, {"name": "16mm film; Access Print (Section 1)", "identifier": "", "description": ""}], "part_of": null, "parts": [], "part_siblings": [], "group": null, "group_works": [], "group_siblings": [], "source": {"name": "Vernon", "slug": "vernon"}, "source_identifier": "27554", "eaas_environment_id": null, "production_places": [{"id": 179, "name": "Unknown", "slug": "unknown"}], "production_dates": [], "labels": [11347]}, {"id": 71822, "acmi_id": "008693", "title": "[Princess Alexandra in Hong Kong]", "title_annotation": "", "slug": "princess-alexandra-in-hong-kong", "creator_credit": "British Information Services and Warner-Pathe News", "credit_line": "", "headline_credit": "United Kingdom, 1961", "video_links": [], "record_type": "work", "type": "Film", "is_on_display": false, "last_on_display_place": null, "last_on_display_date": null, "is_context_indigenous": false, "material_description": "", "unpublished": false, "external": false, "first_production_date": "1961-01-01T10:00:00+10:00", "commissioned": false, "public_domain": false, "external_references": [], "brief_description": "<p>Highlights of Princess Alexandra&#8217;s visit to Hong Kong during November-December 1961. Records some of the formal engagements of the tour and some informal occasions when the Princess was the guest of the Chinese community.</p>", "constellations_primary": [], "constellations_other": [], "recommendations": [], "title_for_label": "<p>[Princess Alexandra in Hong Kong]</p>", "creator_credit_for_label": "<p>British Information Services and Warner-Pathe News</p>", "headline_credit_for_label": "<p>United Kingdom, 1961</p>", "description": "<p>Highlights of Princess Alexandra&#8217;s visit to Hong Kong during November-December 1961. Records some of the formal engagements of the tour and some informal occasions when the Princess was the guest of the Chinese community.</p>", "description_for_label": ["<p>Highlights of Princess Alexandra&#8217;s visit to Hong Kong during November-December 1961. Records some of the formal engagements of the tour and some informal occasions when the Princess was the guest of the Chinese community.</p>"], "credit_line_for_label": "", "details": [{"label": "Duration", "display_values": ["00:13:30:00"]}, {"label": "Language", "display_values": ["English"]}, {"label": "Subject categories", "display_values": ["Anthropology, Ethnology, Exploration & Travel&nbsp;→ Hong Kong - Description and travel", "Documentary", "Documentary&nbsp;→ Documentary films - Great Britain", "Economics, Philosophy, Politics, Religion & Sociology&nbsp;→ Visits of state", "History&nbsp;→ Alexandra, Princess, granddaughter of George V, King of Great Britain", "History&nbsp;→ Monarchy - Great Britain", "History&nbsp;→ Visits of state", "People&nbsp;→ Alexandra, Princess, granddaughter of George V, King of Great Britain", "Short films", "Short films&nbsp;→ Short films - Great Britain"]}, {"label": "Sound/audio", "display_values": ["Sound"]}, {"label": "Colour", "display_values": ["Colour"]}], "stats": {"tap_count": 0}, "links": [], "creators_primary": [{"id": 857218, "name": "British Information Services", "creator_id": 12261, "creator_wikidata_id": "Q121271298", "role": "production company", "role_id": 941, "is_primary": true}, {"id": 857219, "name": "Warner-Pathe News", "creator_id": 12193, "creator_wikidata_id": "Q121271452", "role": "production company", "role_id": 941, "is_primary": true}], "creators_other": [], "media_note": "Sorry, we don't have images or video for this item.", "holdings": [{"name": "16mm film; Access Print (Section 1)", "identifier": "", "description": ""}], "part_of": null, "parts": [], "part_siblings": [], "group": null, "group_works": [], "group_siblings": [], "source": {"name": "Vernon", "slug": "vernon"}, "source_identifier": "27519", "eaas_environment_id": null, "production_places": [{"id": 10, "name": "United Kingdom", "slug": "united-kingdom"}], "production_dates": [{"date": "1961", "notes": "Produced", "to_year": "1961"}], "labels": [11312]}, {"id": 118423, "acmi_id": "R0001059", "title": "[Praise : publicity kit]", "title_annotation": "", "slug": "praise-publicity-kit", "creator_credit": "", "credit_line": "", "headline_credit": "", "video_links": [], "record_type": "work", "type": "Object", "is_on_display": false, "last_on_display_place": null, "last_on_display_date": null, "is_context_indigenous": false, "material_description": "", "unpublished": false, "external": false, "first_production_date": null, "commissioned": false, "public_domain": false, "external_references": [], "brief_description": "<p>Publicity kit for the production Praise (1998), including 8 35mm Colour Transparencies</p>", "constellations_primary": [], "constellations_other": [], "recommendations": [], "title_for_label": "<p>[Praise : publicity kit]</p>", "creator_credit_for_label": "", "headline_credit_for_label": "", "description": "<p>Publicity kit for the production Praise (1998), including 8 35mm Colour Transparencies</p>", "description_for_label": ["<p>Publicity kit for the production Praise (1998), including 8 35mm Colour Transparencies</p>"], "credit_line_for_label": "", "details": [{"label": "Subject category", "display_values": ["Documentation"]}, {"label": "Object Types", "display_values": ["Publicity kit"]}], "stats": {"tap_count": 0}, "links": [], "creators_primary": [], "creators_other": [], "media_note": null, "holdings": [], "part_of": null, "parts": [], "part_siblings": [], "group": null, "group_works": [], "group_siblings": [], "source": {"name": "Vernon", "slug": "vernon"}, "source_identifier": "148994", "eaas_environment_id": null, "production_places": [], "production_dates": [], "labels": [57922]}, {"id": 91544, "acmi_id": "314684", "title": "[Postmaster General's Department: dead letter office]", "title_annotation": "", "slug": "postmaster-generals-department-dead-letter-office", "creator_credit": "Australia Post", "credit_line": "", "headline_credit": "Australia, 1965", "video_links": [], "record_type": "work", "type": "Film", "is_on_display": false, "last_on_display_place": null, "last_on_display_date": null, "is_context_indigenous": false, "material_description": "", "unpublished": false, "external": false, "first_production_date": "1965-01-01T10:00:00+10:00", "commissioned": false, "public_domain": false, "external_references": [], "brief_description": "<p>A short documentary about the lives of letters sent to the &#8220;dead letter office&#8221;. Sends a message out to the people of Victoria to put their name and address on the back of posted envelopes.</p>", "constellations_primary": [], "constellations_other": [], "recommendations": [], "title_for_label": "<p>[Postmaster General&#8217;s Department: dead letter office]</p>", "creator_credit_for_label": "<p>Australia Post</p>", "headline_credit_for_label": "<p>Australia, 1965</p>", "description": "<p>A short documentary about the lives of letters sent to the &#8220;dead letter office&#8221;. Sends a message out to the people of Victoria to put their name and address on the back of posted envelopes.</p>", "description_for_label": ["<p>A short documentary about the lives of letters sent to the &#8220;dead letter office&#8221;. Sends a message out to the people of Victoria to put their name and address on the back of posted envelopes.</p>"], "credit_line_for_label": "", "details": [{"label": "Duration", "display_values": ["00:03:22:00"]}, {"label": "Language", "display_values": ["English"]}, {"label": "Subject categories", "display_values": ["Communications, Infrastructure, & Transport&nbsp;→ Australia. Postmaster-General's Dept.", "Communications, Infrastructure, & Transport&nbsp;→ Letter mail handling", "Communications, Infrastructure, & Transport&nbsp;→ Postal service - Australia", "Communications, Infrastructure, & Transport&nbsp;→ Postal service - Australia - History", "Documentary", "Documentary&nbsp;→ Documentary films - Australia", "Educational & Instructional", "Educational & Instructional&nbsp;→ Educational films", "Educational & Instructional&nbsp;→ Instructional", "Short films", "Short films&nbsp;→ Short films - Australia"]}, {"label": "Sound/audio", "display_values": ["Sound"]}, {"label": "Colour", "display_values": ["Colour"]}], "stats": {"tap_count": 0}, "links": [], "creators_primary": [{"id": 879032, "name": "Australia Post", "creator_id": 13898, "creator_wikidata_id": "Q121126781", "role": "production company", "role_id": 941, "is_primary": true}], "creators_other": [], "media_note": "Sorry, we don't have images or video for this item.", "holdings": [{"name": "16mm film; Access Print (Section 1)", "identifier": "", "description": ""}], "part_of": null, "parts": [], "part_siblings": [], "group": null, "group_works": [], "group_siblings": [], "source": {"name": "Vernon", "slug": "vernon"}, "source_identifier": "48920", "eaas_environment_id": null, "production_places": [{"id": 3, "name": "Australia", "slug": "australia"}], "production_dates": [{"date": "1965", "notes": "Estimated date", "to_year": "1965"}], "labels": [31034]}]}