{"count": 41722, "next": "https://api.acmi.net.au/works/?page=1388", "previous": "https://api.acmi.net.au/works/?page=1386", "results": [{"id": 109238, "acmi_id": "B1006115", "title": "The Body Malleable", "title_annotation": "", "slug": "the-body-malleable", "creator_credit": "Philip Brophy", "credit_line": "", "headline_credit": "Australia, 2003", "video_links": [], "record_type": "work", "type": "Artwork", "is_on_display": false, "last_on_display_place": "ACMI Screen Gallery", "last_on_display_date": "2004-09-12", "is_context_indigenous": false, "material_description": "video, interactive software, mixed media, colour and sound", "unpublished": false, "external": false, "first_production_date": "2003-01-01T11:00:00+11:00", "commissioned": true, "public_domain": false, "external_references": [], "brief_description": "<p>The Body Malleable is an intimate interactive work where a custom built &#8216;gromit&#8217; is physically engaged with by the viewer to create a display combining digital animation and synchronised audio in the installation space. The custom interface, placed on a desk for one viewer to interact with at a time, is internally configured with a 100 key keyboard broken up and reassembled within the spherical space. Darkness within the pod, the viewer is asked to insert their finger into a small opening to probe the key board lining. The keys pressed act as switches to key events programmed into Director and thus set off a series of audio-visual responses via surround sound and a single circular screen projection to create an intimate experiential space determined by the audiences interaction.</p>", "constellations_primary": [], "constellations_other": [], "recommendations": [], "title_for_label": "<p>The Body Malleable</p>", "creator_credit_for_label": "<p>Philip Brophy</p>", "headline_credit_for_label": "<p>Australia, 2003</p>", "description": "<p>The Body Malleable is an intimate interactive work where a custom built &#8216;gromit&#8217; is physically engaged with by the viewer to create a display combining digital animation and synchronised audio in the installation space. The custom interface, placed on a desk for one viewer to interact with at a time, is internally configured with a 100 key keyboard broken up and reassembled within the spherical space. Darkness within the pod, the viewer is asked to insert their finger into a small opening to probe the key board lining. The keys pressed act as switches to key events programmed into Director and thus set off a series of audio-visual responses via surround sound and a single circular screen projection to create an intimate experiential space determined by the audiences interaction.</p>", "description_for_label": ["<p>The Body Malleable is an intimate interactive work where a custom built &#8216;gromit&#8217; is physically engaged with by the viewer to create a display combining digital animation and synchronised audio in the installation space. The custom interface, placed on a desk for one viewer to interact with at a time, is internally configured with a 100 key keyboard broken up and reassembled within the spherical space. Darkness within the pod, the viewer is asked to insert their finger into a small opening to probe the key board lining. The keys pressed act as switches to key events programmed into Director and thus set off a series of audio-visual responses via surround sound and a single circular screen projection to create an intimate experiential space determined by the audiences interaction.</p>"], "credit_line_for_label": "", "details": [{"label": "Language", "display_values": ["English"]}, {"label": "Audience classification", "display_values": ["G"]}, {"label": "Subject categories", "display_values": ["Advertising, Film, Journalism, Mass Media & TV&nbsp;→ Interactive media", "Animation", "Digital Art", "Experimental", "Family, Gender Identity, Relationships & Sexuality&nbsp;→ Desire"]}, {"label": "Object Types", "display_values": ["Installation"]}, {"label": "Materials", "display_values": ["video, interactive software, mixed media, colour and sound"]}], "stats": {"tap_count": 1}, "links": [], "creators_primary": [{"id": 2711520, "name": "Philip Brophy", "creator_id": 9263, "creator_wikidata_id": "Q3378977", "role": "creator", "role_id": 968, "is_primary": true}], "creators_other": [{"id": 2711522, "name": "Isobel Knowles", "creator_id": 9273, "creator_wikidata_id": null, "role": "animator", "role_id": 497, "is_primary": false}, {"id": 2711524, "name": "Martine Corompt", "creator_id": 7116, "creator_wikidata_id": null, "role": "consultant", "role_id": 460, "is_primary": false}, {"id": 2711521, "name": "Philip Brophy", "creator_id": 9263, "creator_wikidata_id": "Q3378977", "role": "original concept", "role_id": 593, "is_primary": false}, {"id": 2711523, "name": "Haima Marriot", "creator_id": 73578, "creator_wikidata_id": null, "role": "system architect", "role_id": 613, "is_primary": false}], "media_note": null, "holdings": [], "part_of": null, "parts": [], "part_siblings": [], "group": null, "group_works": [], "group_siblings": [], "source": {"name": "Vernon", "slug": "vernon"}, "source_identifier": "2726", "eaas_environment_id": null, "production_places": [{"id": 3, "name": "Australia", "slug": "australia"}], "production_dates": [{"date": "2003", "notes": "", "to_year": "2003"}], "labels": [48731]}, {"id": 109233, "acmi_id": "B1006103", "title": "Images of the absence = Imagenes de la ausencia", "title_annotation": "", "slug": "images-of-the-absence-imagenes-de-la-ausencia", "creator_credit": "", "credit_line": "", "headline_credit": "", "video_links": [], "record_type": "work", "type": "Film", "is_on_display": false, "last_on_display_place": null, "last_on_display_date": null, "is_context_indigenous": false, "material_description": "", "unpublished": false, "external": false, "first_production_date": null, "commissioned": false, "public_domain": false, "external_references": [], "brief_description": "", "constellations_primary": [], "constellations_other": [], "recommendations": [], "title_for_label": "<p>Images of the absence = Imagenes de la ausencia</p>", "creator_credit_for_label": "", "headline_credit_for_label": "", "description": "", "description_for_label": [], "credit_line_for_label": "", "details": [], "stats": {"tap_count": 0}, "links": [], "creators_primary": [], "creators_other": [], "media_note": "Sorry, we don't have images or video for this item.", "holdings": [{"name": "Digital Betacam; Master", "identifier": "", "description": ""}], "part_of": null, "parts": [], "part_siblings": [], "group": null, "group_works": [], "group_siblings": [], "source": {"name": "Vernon", "slug": "vernon"}, "source_identifier": "2717", "eaas_environment_id": null, "production_places": [], "production_dates": [], "labels": [48726]}, {"id": 109232, "acmi_id": "B1006100", "title": "Mifest 2003", "title_annotation": "", "slug": "mifest-2003", "creator_credit": "", "credit_line": "", "headline_credit": "", "video_links": [], "record_type": "work", "type": "Film", "is_on_display": false, "last_on_display_place": null, "last_on_display_date": null, "is_context_indigenous": false, "material_description": "", "unpublished": false, "external": false, "first_production_date": null, "commissioned": false, "public_domain": false, "external_references": [], "brief_description": "", "constellations_primary": [], "constellations_other": [], "recommendations": [], "title_for_label": "<p>Mifest 2003</p>", "creator_credit_for_label": "", "headline_credit_for_label": "", "description": "", "description_for_label": [], "credit_line_for_label": "", "details": [], "stats": {"tap_count": 0}, "links": [], "creators_primary": [], "creators_other": [], "media_note": "Sorry, we don't have images or video for this item.", "holdings": [{"name": "DVCAM; Master", "identifier": "", "description": ""}, {"name": "Digital Betacam; Sub-master", "identifier": "", "description": ""}, {"name": "VHS [PAL]; Reference - timecoded", "identifier": "", "description": ""}], "part_of": null, "parts": [], "part_siblings": [], "group": null, "group_works": [], "group_siblings": [], "source": {"name": "Vernon", "slug": "vernon"}, "source_identifier": "2715", "eaas_environment_id": null, "production_places": [], "production_dates": [], "labels": [48725]}, {"id": 109231, "acmi_id": "B1006093", "title": "Boat people", "title_annotation": "", "slug": "boat-people", "creator_credit": "Deborah Kelly", "credit_line": "", "headline_credit": "Australia, 2001", "video_links": [], "record_type": "work", "type": "Film", "is_on_display": false, "last_on_display_place": null, "last_on_display_date": null, "is_context_indigenous": false, "material_description": "", "unpublished": false, "external": false, "first_production_date": "2001-01-01T11:00:00+11:00", "commissioned": false, "public_domain": false, "external_references": [], "brief_description": "<p>Artist-activist group Boat-people.org organised large scale projection of their logo image - an Endeavour style Tall Ship above the words &#8220;boat people&#8221; on the side of the Sydney Opera House in October 2001. This is rough video footage of the projection and a security guard asking them to leave. There is an interview with organiser Deborah Kelly. This is a preview tape only, documentation of an event.</p>\n<p>Second part of tape shows street protest, dance, parade, details unclear.</p>", "constellations_primary": [], "constellations_other": [], "recommendations": [], "title_for_label": "<p>Boat people</p>", "creator_credit_for_label": "<p>Deborah Kelly</p>", "headline_credit_for_label": "<p>Australia, 2001</p>", "description": "<p>Artist-activist group Boat-people.org organised large scale projection of their logo image - an Endeavour style Tall Ship above the words &#8220;boat people&#8221; on the side of the Sydney Opera House in October 2001. This is rough video footage of the projection and a security guard asking them to leave. There is an interview with organiser Deborah Kelly. This is a preview tape only, documentation of an event.</p>\n<p>Second part of tape shows street protest, dance, parade, details unclear.</p>", "description_for_label": ["<p>Artist-activist group Boat-people.org organised large scale projection of their logo image - an Endeavour style Tall Ship above the words &#8220;boat people&#8221; on the side of the Sydney Opera House in October 2001. This is rough video footage of the projection and a security guard asking them to leave. There is an interview with organiser Deborah Kelly. This is a preview tape only, documentation of an event.</p>\n<p>Second part of tape shows street protest, dance, parade, details unclear.</p>"], "credit_line_for_label": "", "details": [{"label": "Language", "display_values": ["English"]}, {"label": "Subject categories", "display_values": ["Documentary", "Economics, Philosophy, Politics, Religion & Sociology&nbsp;→ Australia - Emigration and immigration", "Economics, Philosophy, Politics, Religion & Sociology&nbsp;→ Protest movements"]}], "stats": {"tap_count": 0}, "links": [], "creators_primary": [{"id": 2711514, "name": "Deborah Kelly", "creator_id": 9268, "creator_wikidata_id": null, "role": "creator", "role_id": 968, "is_primary": true}], "creators_other": [], "media_note": "Sorry, we don't have images or video for this item.", "holdings": [{"name": "Mini DV; Master", "identifier": "", "description": ""}, {"name": "VHS [PAL]; Copy", "identifier": "", "description": ""}, {"name": "Digital Betacam; Sub-master", "identifier": "", "description": ""}, {"name": "VHS [PAL]; Reference - timecoded", "identifier": "", "description": ""}], "part_of": null, "parts": [], "part_siblings": [], "group": null, "group_works": [], "group_siblings": [], "source": {"name": "Vernon", "slug": "vernon"}, "source_identifier": "2714", "eaas_environment_id": null, "production_places": [{"id": 3, "name": "Australia", "slug": "australia"}], "production_dates": [{"date": "2001", "notes": "", "to_year": "2001"}], "labels": [48724]}, {"id": 109229, "acmi_id": "B1006085", "title": "Inside out: Paul Driessen", "title_annotation": "", "slug": "inside-out-paul-driessen", "creator_credit": "", "credit_line": "", "headline_credit": "", "video_links": [], "record_type": "work", "type": "Film", "is_on_display": false, "last_on_display_place": null, "last_on_display_date": null, "is_context_indigenous": false, "material_description": "", "unpublished": false, "external": false, "first_production_date": null, "commissioned": false, "public_domain": false, "external_references": [], "brief_description": "", "constellations_primary": [], "constellations_other": [], "recommendations": [], "title_for_label": "<p>Inside out: Paul Driessen</p>", "creator_credit_for_label": "", "headline_credit_for_label": "", "description": "", "description_for_label": [], "credit_line_for_label": "", "details": [], "stats": {"tap_count": 0}, "links": [], "creators_primary": [], "creators_other": [], "media_note": "Sorry, we don't have images or video for this item.", "holdings": [{"name": "Digital Betacam; Master", "identifier": "", "description": ""}, {"name": "Digital Betacam; Sub-master", "identifier": "", "description": ""}], "part_of": null, "parts": [], "part_siblings": [], "group": null, "group_works": [], "group_siblings": [], "source": {"name": "Vernon", "slug": "vernon"}, "source_identifier": "2706", "eaas_environment_id": null, "production_places": [], "production_dates": [], "labels": [48722]}, {"id": 109228, "acmi_id": "B1006084", "title": "In the mirror of Maya Deren", "title_annotation": "", "slug": "in-the-mirror-of-maya-deren", "creator_credit": "", "credit_line": "", "headline_credit": "", "video_links": [], "record_type": "work", "type": "Film", "is_on_display": false, "last_on_display_place": null, "last_on_display_date": null, "is_context_indigenous": false, "material_description": "", "unpublished": false, "external": false, "first_production_date": null, "commissioned": false, "public_domain": false, "external_references": [], "brief_description": "", "constellations_primary": [], "constellations_other": [], "recommendations": [], "title_for_label": "<p>In the mirror of Maya Deren</p>", "creator_credit_for_label": "", "headline_credit_for_label": "", "description": "", "description_for_label": [], "credit_line_for_label": "", "details": [], "stats": {"tap_count": 0}, "links": [], "creators_primary": [], "creators_other": [], "media_note": "Sorry, we don't have images or video for this item.", "holdings": [{"name": "Digital Betacam; Master", "identifier": "", "description": ""}, {"name": "Digital Betacam; Sub-master", "identifier": "", "description": ""}], "part_of": null, "parts": [], "part_siblings": [], "group": null, "group_works": [], "group_siblings": [], "source": {"name": "Vernon", "slug": "vernon"}, "source_identifier": "2705", "eaas_environment_id": null, "production_places": [], "production_dates": [], "labels": [48721]}, {"id": 109227, "acmi_id": "B1006083", "title": "7 loops with logos", "title_annotation": "", "slug": "7-loops-with-logos", "creator_credit": "", "credit_line": "", "headline_credit": "", "video_links": [], "record_type": "work", "type": "Film", "is_on_display": false, "last_on_display_place": null, "last_on_display_date": null, "is_context_indigenous": false, "material_description": "", "unpublished": false, "external": false, "first_production_date": null, "commissioned": false, "public_domain": false, "external_references": [], "brief_description": "", "constellations_primary": [], "constellations_other": [], "recommendations": [], "title_for_label": "<p>7 loops with logos</p>", "creator_credit_for_label": "", "headline_credit_for_label": "", "description": "", "description_for_label": [], "credit_line_for_label": "", "details": [{"label": "Language", "display_values": ["No spoken word"]}, {"label": "Sound/audio", "display_values": ["Silent"]}, {"label": "Colour", "display_values": ["Colour"]}], "stats": {"tap_count": 0}, "links": [], "creators_primary": [], "creators_other": [], "media_note": "Sorry, we don't have images or video for this item.", "holdings": [{"name": "MPEG-2 Digital File; Memory Grid Pod Full Encode", "identifier": "", "description": ""}], "part_of": null, "parts": [], "part_siblings": [], "group": null, "group_works": [], "group_siblings": [], "source": {"name": "Vernon", "slug": "vernon"}, "source_identifier": "2704", "eaas_environment_id": null, "production_places": [], "production_dates": [], "labels": [48720]}, {"id": 109226, "acmi_id": "B1006082", "title": "Neutral", "title_annotation": "", "slug": "neutral", "creator_credit": "", "credit_line": "", "headline_credit": "", "video_links": [], "record_type": "work", "type": "Film", "is_on_display": false, "last_on_display_place": null, "last_on_display_date": null, "is_context_indigenous": false, "material_description": "", "unpublished": false, "external": false, "first_production_date": null, "commissioned": false, "public_domain": false, "external_references": [], "brief_description": "", "constellations_primary": [], "constellations_other": [], "recommendations": [], "title_for_label": "<p>Neutral</p>", "creator_credit_for_label": "", "headline_credit_for_label": "", "description": "", "description_for_label": [], "credit_line_for_label": "", "details": [{"label": "Duration", "display_values": ["00:00:39:00"]}, {"label": "Language", "display_values": ["No spoken word"]}, {"label": "Sound/audio", "display_values": ["Silent"]}, {"label": "Colour", "display_values": ["Colour"]}], "stats": {"tap_count": 0}, "links": [], "creators_primary": [], "creators_other": [], "media_note": "Sorry, we don't have images or video for this item.", "holdings": [{"name": "MPEG-2 Digital File; Memory Grid Pod Full Encode", "identifier": "", "description": ""}], "part_of": null, "parts": [], "part_siblings": [], "group": null, "group_works": [], "group_siblings": [], "source": {"name": "Vernon", "slug": "vernon"}, "source_identifier": "2703", "eaas_environment_id": null, "production_places": [], "production_dates": [], "labels": [48719]}, {"id": 109225, "acmi_id": "B1006072", "title": "Body code", "title_annotation": "", "slug": "body-code", "creator_credit": "Drew Berry", "credit_line": "", "headline_credit": "", "video_links": [], "record_type": "work", "type": "Film", "is_on_display": false, "last_on_display_place": null, "last_on_display_date": null, "is_context_indigenous": false, "material_description": "", "unpublished": false, "external": false, "first_production_date": null, "commissioned": false, "public_domain": false, "external_references": [], "brief_description": "<p>computer generated animation accurately portraying activity within the body at cellular level. Produced in conjunction with medical researchers.</p>", "constellations_primary": [], "constellations_other": [], "recommendations": [], "title_for_label": "<p>Body code</p>", "creator_credit_for_label": "<p>Drew Berry</p>", "headline_credit_for_label": "", "description": "<p>computer generated animation accurately portraying activity within the body at cellular level. Produced in conjunction with medical researchers.</p>", "description_for_label": ["<p>computer generated animation accurately portraying activity within the body at cellular level. Produced in conjunction with medical researchers.</p>"], "credit_line_for_label": "", "details": [], "stats": {"tap_count": 0}, "links": [], "creators_primary": [{"id": 2711510, "name": "Drew Berry", "creator_id": 9264, "creator_wikidata_id": null, "role": "creator", "role_id": 968, "is_primary": true}], "creators_other": [], "media_note": "Sorry, we don't have images or video for this item.", "holdings": [{"name": "DVD [PAL]; Exhibition Copy", "identifier": "", "description": ""}, {"name": "Mini DV; Master", "identifier": "", "description": ""}, {"name": "VHS [PAL]; Reference - timecoded", "identifier": "", "description": ""}, {"name": "Digital Betacam; Sub-master", "identifier": "", "description": ""}, {"name": "VHS; Copy", "identifier": "", "description": ""}, {"name": "VHS [PAL]; Copy", "identifier": "", "description": ""}], "part_of": null, "parts": [], "part_siblings": [], "group": null, "group_works": [], "group_siblings": [], "source": {"name": "Vernon", "slug": "vernon"}, "source_identifier": "2693", "eaas_environment_id": null, "production_places": [], "production_dates": [], "labels": [48718]}, {"id": 109223, "acmi_id": "B1006067", "title": "Going down", "title_annotation": "", "slug": "going-down", "creator_credit": "Marina Ellerington", "credit_line": "", "headline_credit": "", "video_links": [], "record_type": "work", "type": "Film", "is_on_display": false, "last_on_display_place": null, "last_on_display_date": null, "is_context_indigenous": false, "material_description": "", "unpublished": false, "external": false, "first_production_date": null, "commissioned": false, "public_domain": false, "external_references": [], "brief_description": "", "constellations_primary": [], "constellations_other": [], "recommendations": [], "title_for_label": "<p>Going down</p>", "creator_credit_for_label": "<p>Marina Ellerington</p>", "headline_credit_for_label": "", "description": "", "description_for_label": [], "credit_line_for_label": "", "details": [], "stats": {"tap_count": 0}, "links": [], "creators_primary": [{"id": 2711509, "name": "Marina Ellerington", "creator_id": 7974, "creator_wikidata_id": null, "role": "creator", "role_id": 968, "is_primary": true}], "creators_other": [], "media_note": "Sorry, we don't have images or video for this item.", "holdings": [{"name": "Mini DV; Master", "identifier": "", "description": ""}], "part_of": null, "parts": [], "part_siblings": [], "group": null, "group_works": [], "group_siblings": [], "source": {"name": "Vernon", "slug": "vernon"}, "source_identifier": "2690", "eaas_environment_id": null, "production_places": [], "production_dates": [], "labels": [48716]}]}