{"count": 41722, "next": "https://api.acmi.net.au/works/?page=1919", "previous": "https://api.acmi.net.au/works/?page=1917", "results": [{"id": 100038, "acmi_id": "E000054", "title": "Molly Meldrum display case", "title_annotation": "", "slug": "molly-meldrum-display-case", "creator_credit": "", "credit_line": "", "headline_credit": "", "video_links": [], "record_type": "work", "type": "Object", "is_on_display": false, "last_on_display_place": "ACMI Ground Floor", "last_on_display_date": "2019-04-22", "is_context_indigenous": false, "material_description": "", "unpublished": false, "external": false, "first_production_date": null, "commissioned": false, "public_domain": false, "external_references": [], "brief_description": "<p>Molly Meldrum display case, containing assorted pop culture contents (CountDown tshirt, Audience pass (A6), Countdown the Musical booklet (A5), photograph (possibly signed).</p>", "constellations_primary": [], "constellations_other": [], "recommendations": [], "title_for_label": "<p>Molly Meldrum display case</p>", "creator_credit_for_label": "", "headline_credit_for_label": "", "description": "<p>Molly Meldrum display case, containing assorted pop culture contents (CountDown tshirt, Audience pass (A6), Countdown the Musical booklet (A5), photograph (possibly signed).</p>", "description_for_label": ["<p>Molly Meldrum display case, containing assorted pop culture contents (CountDown tshirt, Audience pass (A6), Countdown the Musical booklet (A5), photograph (possibly signed).</p>"], "credit_line_for_label": "", "details": [{"label": "Measurements", "display_values": ["45 x 40 x 30cm"]}, {"label": "Object Types", "display_values": ["Film and television props and memorabilia"]}], "stats": {"tap_count": 0}, "links": [], "creators_primary": [], "creators_other": [], "media_note": null, "holdings": [], "part_of": null, "parts": [], "part_siblings": [], "group": null, "group_works": [], "group_siblings": [], "source": {"name": "Vernon", "slug": "vernon"}, "source_identifier": "13256", "eaas_environment_id": null, "production_places": [], "production_dates": [], "labels": [39534]}, {"id": 100037, "acmi_id": "E000053", "title": "Molly Meldrum's hat", "title_annotation": "", "slug": "molly-meldrums-hat", "creator_credit": "", "credit_line": "", "headline_credit": "", "video_links": [], "record_type": "work", "type": "Object", "is_on_display": false, "last_on_display_place": "ACMI Ground Floor", "last_on_display_date": "2019-04-22", "is_context_indigenous": false, "material_description": "", "unpublished": false, "external": false, "first_production_date": null, "commissioned": false, "public_domain": false, "external_references": [], "brief_description": "<p>Molly Meldrum&#8217;s Hat, genuine.</p>", "constellations_primary": [], "constellations_other": [], "recommendations": [], "title_for_label": "<p>Molly Meldrum&#8217;s hat</p>", "creator_credit_for_label": "", "headline_credit_for_label": "", "description": "<p>Molly Meldrum&#8217;s Hat, genuine.</p>", "description_for_label": ["<p>Molly Meldrum&#8217;s Hat, genuine.</p>"], "credit_line_for_label": "", "details": [{"label": "Curatorial section", "display_values": ["Screen Worlds&nbsp;→ Emergence"]}, {"label": "Measurements", "display_values": ["20 x 30 x 40cm"]}, {"label": "Object Types", "display_values": ["Costume/costume element"]}], "stats": {"tap_count": 0}, "links": [], "creators_primary": [], "creators_other": [], "media_note": null, "holdings": [], "part_of": null, "parts": [], "part_siblings": [], "group": null, "group_works": [], "group_siblings": [], "source": {"name": "Vernon", "slug": "vernon"}, "source_identifier": "13255", "eaas_environment_id": null, "production_places": [], "production_dates": [], "labels": [39533]}, {"id": 100036, "acmi_id": "E000052", "title": "Stromberg-Carlson", "title_annotation": "", "slug": "stromberg-carlson", "creator_credit": "", "credit_line": "", "headline_credit": "", "video_links": [], "record_type": "work", "type": "Object", "is_on_display": false, "last_on_display_place": null, "last_on_display_date": null, "is_context_indigenous": false, "material_description": "", "unpublished": false, "external": false, "first_production_date": null, "commissioned": false, "public_domain": false, "external_references": [], "brief_description": "<p>Stromberg-Carlson, very large TV and speaker unit, complete with early remote control on long lead (in very good condition).</p>", "constellations_primary": [], "constellations_other": [], "recommendations": [], "title_for_label": "<p>Stromberg-Carlson</p>", "creator_credit_for_label": "", "headline_credit_for_label": "", "description": "<p>Stromberg-Carlson, very large TV and speaker unit, complete with early remote control on long lead (in very good condition).</p>", "description_for_label": ["<p>Stromberg-Carlson, very large TV and speaker unit, complete with early remote control on long lead (in very good condition).</p>"], "credit_line_for_label": "", "details": [{"label": "Measurements", "display_values": ["110 x 182 x 63cm"]}, {"label": "Object Types", "display_values": ["Reception equipment/Film and television equipment"]}], "stats": {"tap_count": 0}, "links": [], "creators_primary": [], "creators_other": [], "media_note": "Sorry, we don't have images or video for this item.", "holdings": [], "part_of": null, "parts": [], "part_siblings": [], "group": null, "group_works": [], "group_siblings": [], "source": {"name": "Vernon", "slug": "vernon"}, "source_identifier": "13254", "eaas_environment_id": null, "production_places": [], "production_dates": [], "labels": [39532]}, {"id": 100035, "acmi_id": "E000051", "title": "Marconi black and white studio monitor", "title_annotation": "", "slug": "marconi-black-and-white-studio-monitor", "creator_credit": "", "credit_line": "", "headline_credit": "", "video_links": [], "record_type": "work", "type": "Object", "is_on_display": false, "last_on_display_place": null, "last_on_display_date": null, "is_context_indigenous": false, "material_description": "", "unpublished": false, "external": false, "first_production_date": null, "commissioned": false, "public_domain": false, "external_references": [], "brief_description": "<p>Marconi black and white studio monitor, type BD 85, circa 1960s</p>", "constellations_primary": [], "constellations_other": [], "recommendations": [], "title_for_label": "<p>Marconi black and white studio monitor</p>", "creator_credit_for_label": "", "headline_credit_for_label": "", "description": "<p>Marconi black and white studio monitor, type BD 85, circa 1960s</p>", "description_for_label": ["<p>Marconi black and white studio monitor, type BD 85, circa 1960s</p>"], "credit_line_for_label": "", "details": [{"label": "Measurements", "display_values": ["40 x 40 x 60cm"]}, {"label": "Object Types", "display_values": ["Reception equipment/Film and television equipment"]}], "stats": {"tap_count": 0}, "links": [], "creators_primary": [], "creators_other": [], "media_note": "Sorry, we don't have images or video for this item.", "holdings": [], "part_of": null, "parts": [], "part_siblings": [], "group": null, "group_works": [], "group_siblings": [], "source": {"name": "Vernon", "slug": "vernon"}, "source_identifier": "13253", "eaas_environment_id": null, "production_places": [], "production_dates": [], "labels": [39531]}, {"id": 100034, "acmi_id": "E000050", "title": "Marconi black and white studio monitor", "title_annotation": "", "slug": "marconi-black-and-white-studio-monitor", "creator_credit": "", "credit_line": "", "headline_credit": "", "video_links": [], "record_type": "work", "type": "Object", "is_on_display": false, "last_on_display_place": null, "last_on_display_date": null, "is_context_indigenous": false, "material_description": "", "unpublished": false, "external": false, "first_production_date": null, "commissioned": false, "public_domain": false, "external_references": [], "brief_description": "<p>Marconi black and white studio monitor, type BD 85, circa 1960s</p>", "constellations_primary": [], "constellations_other": [], "recommendations": [], "title_for_label": "<p>Marconi black and white studio monitor</p>", "creator_credit_for_label": "", "headline_credit_for_label": "", "description": "<p>Marconi black and white studio monitor, type BD 85, circa 1960s</p>", "description_for_label": ["<p>Marconi black and white studio monitor, type BD 85, circa 1960s</p>"], "credit_line_for_label": "", "details": [{"label": "Measurements", "display_values": ["40 x 40 x 60cm"]}, {"label": "Object Types", "display_values": ["Reception equipment/Film and television equipment"]}], "stats": {"tap_count": 0}, "links": [], "creators_primary": [], "creators_other": [], "media_note": "Sorry, we don't have images or video for this item.", "holdings": [], "part_of": null, "parts": [], "part_siblings": [], "group": null, "group_works": [], "group_siblings": [], "source": {"name": "Vernon", "slug": "vernon"}, "source_identifier": "13252", "eaas_environment_id": null, "production_places": [], "production_dates": [], "labels": [39530]}, {"id": 100033, "acmi_id": "E000049", "title": "Marconi black and white studio monitor", "title_annotation": "", "slug": "marconi-black-and-white-studio-monitor", "creator_credit": "", "credit_line": "", "headline_credit": "", "video_links": [], "record_type": "work", "type": "Object", "is_on_display": false, "last_on_display_place": null, "last_on_display_date": null, "is_context_indigenous": false, "material_description": "", "unpublished": false, "external": false, "first_production_date": null, "commissioned": false, "public_domain": false, "external_references": [], "brief_description": "<p>Marconi black and white studio monitor, type BD 85, circa 1960s</p>", "constellations_primary": [], "constellations_other": [], "recommendations": [], "title_for_label": "<p>Marconi black and white studio monitor</p>", "creator_credit_for_label": "", "headline_credit_for_label": "", "description": "<p>Marconi black and white studio monitor, type BD 85, circa 1960s</p>", "description_for_label": ["<p>Marconi black and white studio monitor, type BD 85, circa 1960s</p>"], "credit_line_for_label": "", "details": [{"label": "Measurements", "display_values": ["40 x 40 x 60cm"]}, {"label": "Object Types", "display_values": ["Reception equipment/Film and television equipment"]}], "stats": {"tap_count": 0}, "links": [], "creators_primary": [], "creators_other": [], "media_note": "Sorry, we don't have images or video for this item.", "holdings": [], "part_of": null, "parts": [], "part_siblings": [], "group": null, "group_works": [], "group_siblings": [], "source": {"name": "Vernon", "slug": "vernon"}, "source_identifier": "13251", "eaas_environment_id": null, "production_places": [], "production_dates": [], "labels": [39529]}, {"id": 100032, "acmi_id": "E000048", "title": "Marconi black and white studio monitor", "title_annotation": "", "slug": "marconi-black-and-white-studio-monitor", "creator_credit": "", "credit_line": "", "headline_credit": "", "video_links": [], "record_type": "work", "type": "Object", "is_on_display": false, "last_on_display_place": null, "last_on_display_date": null, "is_context_indigenous": false, "material_description": "", "unpublished": false, "external": false, "first_production_date": null, "commissioned": false, "public_domain": false, "external_references": [], "brief_description": "<p>Marconi black and white studio monitor, type BD 85, circa 1960s</p>", "constellations_primary": [], "constellations_other": [], "recommendations": [], "title_for_label": "<p>Marconi black and white studio monitor</p>", "creator_credit_for_label": "", "headline_credit_for_label": "", "description": "<p>Marconi black and white studio monitor, type BD 85, circa 1960s</p>", "description_for_label": ["<p>Marconi black and white studio monitor, type BD 85, circa 1960s</p>"], "credit_line_for_label": "", "details": [{"label": "Measurements", "display_values": ["40 x 40 x 60cm"]}, {"label": "Object Types", "display_values": ["Reception equipment/Film and television equipment"]}], "stats": {"tap_count": 0}, "links": [], "creators_primary": [], "creators_other": [], "media_note": "Sorry, we don't have images or video for this item.", "holdings": [], "part_of": null, "parts": [], "part_siblings": [], "group": null, "group_works": [], "group_siblings": [], "source": {"name": "Vernon", "slug": "vernon"}, "source_identifier": "13250", "eaas_environment_id": null, "production_places": [], "production_dates": [], "labels": [39528]}, {"id": 100031, "acmi_id": "E000045", "title": "Kriesler 'Colourama'", "title_annotation": "", "slug": "kriesler-colourama", "creator_credit": "", "credit_line": "", "headline_credit": "", "video_links": [], "record_type": "work", "type": "Object", "is_on_display": false, "last_on_display_place": null, "last_on_display_date": null, "is_context_indigenous": false, "material_description": "", "unpublished": false, "external": false, "first_production_date": null, "commissioned": false, "public_domain": false, "external_references": [], "brief_description": "<p>Kriesler &#8216;Colourama&#8217;, Model 660. Large TV on short legs.</p>", "constellations_primary": [], "constellations_other": [], "recommendations": [], "title_for_label": "<p>Kriesler &#8216;Colourama&#8217;</p>", "creator_credit_for_label": "", "headline_credit_for_label": "", "description": "<p>Kriesler &#8216;Colourama&#8217;, Model 660. Large TV on short legs.</p>", "description_for_label": ["<p>Kriesler &#8216;Colourama&#8217;, Model 660. Large TV on short legs.</p>"], "credit_line_for_label": "", "details": [{"label": "Measurements", "display_values": [" 740 x 980 x 500mm"]}, {"label": "Object Types", "display_values": ["Reception equipment/Film and television equipment"]}], "stats": {"tap_count": 0}, "links": [], "creators_primary": [], "creators_other": [], "media_note": "Sorry, we don't have images or video for this item.", "holdings": [], "part_of": null, "parts": [], "part_siblings": [], "group": null, "group_works": [], "group_siblings": [], "source": {"name": "Vernon", "slug": "vernon"}, "source_identifier": "13247", "eaas_environment_id": null, "production_places": [], "production_dates": [], "labels": [39527]}, {"id": 100030, "acmi_id": "E000044", "title": "G. E early colour TV", "title_annotation": "", "slug": "g-e-early-colour-tv", "creator_credit": "", "credit_line": "", "headline_credit": "", "video_links": [], "record_type": "work", "type": "Object", "is_on_display": false, "last_on_display_place": null, "last_on_display_date": null, "is_context_indigenous": false, "material_description": "", "unpublished": false, "external": false, "first_production_date": null, "commissioned": false, "public_domain": false, "external_references": [], "brief_description": "<p>G. E early colour TV</p>", "constellations_primary": [], "constellations_other": [], "recommendations": [], "title_for_label": "<p>G. E early colour TV</p>", "creator_credit_for_label": "", "headline_credit_for_label": "", "description": "<p>G. E early colour TV</p>", "description_for_label": ["<p>G. E early colour TV</p>"], "credit_line_for_label": "", "details": [{"label": "Measurements", "display_values": ["46 x 65 x 46cm"]}, {"label": "Object Types", "display_values": ["Reception equipment/Film and television equipment"]}], "stats": {"tap_count": 0}, "links": [], "creators_primary": [], "creators_other": [], "media_note": "Sorry, we don't have images or video for this item.", "holdings": [], "part_of": null, "parts": [], "part_siblings": [], "group": null, "group_works": [], "group_siblings": [], "source": {"name": "Vernon", "slug": "vernon"}, "source_identifier": "13246", "eaas_environment_id": null, "production_places": [], "production_dates": [], "labels": [39526]}, {"id": 100029, "acmi_id": "E000043", "title": "Precedent black and white TV", "title_annotation": "", "slug": "precedent-black-and-white-tv", "creator_credit": "", "credit_line": "", "headline_credit": "", "video_links": [], "record_type": "work", "type": "Object", "is_on_display": false, "last_on_display_place": null, "last_on_display_date": null, "is_context_indigenous": false, "material_description": "", "unpublished": false, "external": false, "first_production_date": null, "commissioned": false, "public_domain": false, "external_references": [], "brief_description": "<p>Precedent black and white TV, Console model (No legs).</p>", "constellations_primary": [], "constellations_other": [], "recommendations": [], "title_for_label": "<p>Precedent black and white TV</p>", "creator_credit_for_label": "", "headline_credit_for_label": "", "description": "<p>Precedent black and white TV, Console model (No legs).</p>", "description_for_label": ["<p>Precedent black and white TV, Console model (No legs).</p>"], "credit_line_for_label": "", "details": [{"label": "Measurements", "display_values": ["620 x 750 x 500mm"]}, {"label": "Object Types", "display_values": ["Reception equipment/Film and television equipment"]}], "stats": {"tap_count": 0}, "links": [], "creators_primary": [], "creators_other": [], "media_note": "Sorry, we don't have images or video for this item.", "holdings": [], "part_of": null, "parts": [], "part_siblings": [], "group": null, "group_works": [], "group_siblings": [], "source": {"name": "Vernon", "slug": "vernon"}, "source_identifier": "13245", "eaas_environment_id": null, "production_places": [], "production_dates": [], "labels": [39525]}]}