{"count": 41723, "next": "https://api.acmi.net.au/works/?page=1401", "previous": "https://api.acmi.net.au/works/?page=1399", "results": [{"id": 109035, "acmi_id": "B1005566", "title": "H", "title_annotation": "", "slug": "h", "creator_credit": "Camm Nash", "credit_line": "", "headline_credit": "Australia, 2003", "video_links": [], "record_type": "work", "type": "Film", "is_on_display": false, "last_on_display_place": null, "last_on_display_date": null, "is_context_indigenous": false, "material_description": "", "unpublished": false, "external": false, "first_production_date": "2003-01-01T11:00:00+11:00", "commissioned": false, "public_domain": false, "external_references": [], "brief_description": "", "constellations_primary": [], "constellations_other": [], "recommendations": [], "creator_credit_for_label": "<p>Camm Nash</p>", "headline_credit_for_label": "<p>Australia, 2003</p>", "title_for_label": "<p>H</p>", "description": "", "description_for_label": [], "credit_line_for_label": "", "details": [{"label": "Duration", "display_values": ["00:05:46:00"]}, {"label": "Language", "display_values": ["No spoken word"]}, {"label": "Audience classification", "display_values": ["Exempt"]}, {"label": "Subject categories", "display_values": ["Amateur & Student Films", "Amateur & Student Films&nbsp;→ Student films - Australia", "Animation", "Animation&nbsp;→ Animated films - Australia", "Animation&nbsp;→ Computer animation", "Animation&nbsp;→ Computer animation&nbsp;→ 3-D computer animation", "Experimental", "Short films", "Short films&nbsp;→ Short films - Australia"]}, {"label": "Sound/audio", "display_values": ["Sound"]}, {"label": "Colour", "display_values": ["Colour"]}], "stats": {"tap_count": 0}, "links": [], "creators_primary": [{"id": 2711185, "name": "Camm Nash", "creator_id": 9116, "creator_wikidata_id": null, "role": "director", "role_id": 938, "is_primary": true}], "creators_other": [], "media_note": "Sorry, we don't have images or video for this item.", "holdings": [{"name": "MPEG-4 Digital File; ACMI Digital Access Copy - overscan", "identifier": "", "description": ""}, {"name": "MOV file ProRes4444; Digital Preservation Master - overscan", "identifier": "", "description": ""}, {"name": "SP Betacam; Master", "identifier": "", "description": ""}, {"name": "Digital Betacam [PAL]; Sub-master", "identifier": "", "description": ""}, {"name": "VHS [PAL]; Reference - timecoded", "identifier": "", "description": ""}, {"name": "VHS [PAL]; Copy", "identifier": "", "description": ""}], "part_of": null, "parts": [], "part_siblings": [], "group": null, "group_works": [], "group_siblings": [], "source": {"name": "Vernon", "slug": "vernon"}, "source_identifier": "2382", "eaas_environment_id": null, "production_places": [{"id": 3, "name": "Australia", "slug": "australia"}], "production_dates": [{"date": "2003", "notes": "", "to_year": "2003"}], "labels": [48528]}, {"id": 109034, "acmi_id": "B1005565", "title": "The Mascot", "title_annotation": "", "slug": "the-mascot", "creator_credit": "Hans Brekke", "credit_line": "", "headline_credit": "Australia, 2003", "video_links": [], "record_type": "work", "type": "Film", "is_on_display": false, "last_on_display_place": null, "last_on_display_date": null, "is_context_indigenous": false, "material_description": "", "unpublished": false, "external": false, "first_production_date": "2003-01-01T11:00:00+11:00", "commissioned": false, "public_domain": false, "external_references": [], "brief_description": "", "constellations_primary": [], "constellations_other": [], "recommendations": [], "creator_credit_for_label": "<p>Hans Brekke</p>", "headline_credit_for_label": "<p>Australia, 2003</p>", "title_for_label": "<p>The Mascot</p>", "description": "", "description_for_label": [], "credit_line_for_label": "", "details": [{"label": "Duration", "display_values": ["00:04:59:00"]}, {"label": "Language", "display_values": ["English"]}, {"label": "Audience classification", "display_values": ["Exempt"]}, {"label": "Subject categories", "display_values": ["Amateur & Student Films", "Amateur & Student Films&nbsp;→ Student films - Australia", "Animation", "Animation&nbsp;→ Animated films - Australia", "Animation&nbsp;→ Hand drawn", "Short films", "Short films&nbsp;→ Short films - Australia"]}, {"label": "Sound/audio", "display_values": ["Sound"]}, {"label": "Colour", "display_values": ["Colour"]}], "stats": {"tap_count": 0}, "links": [], "creators_primary": [{"id": 2711183, "name": "Hans Brekke", "creator_id": 9115, "creator_wikidata_id": null, "role": "creator", "role_id": 968, "is_primary": true}], "creators_other": [], "media_note": "Sorry, we don't have images or video for this item.", "holdings": [{"name": "MPEG-4 Digital File; ACMI Digital Access Copy - overscan", "identifier": "", "description": ""}, {"name": "MOV file ProRes4444; Digital Preservation Master - overscan", "identifier": "", "description": ""}, {"name": "SP Betacam; Master", "identifier": "", "description": ""}, {"name": "Digital Betacam [PAL]; Sub-master", "identifier": "", "description": ""}, {"name": "VHS [PAL]; Reference - timecoded", "identifier": "", "description": ""}, {"name": "VHS [PAL]; Copy", "identifier": "", "description": ""}], "part_of": null, "parts": [], "part_siblings": [], "group": null, "group_works": [], "group_siblings": [], "source": {"name": "Vernon", "slug": "vernon"}, "source_identifier": "2381", "eaas_environment_id": null, "production_places": [{"id": 3, "name": "Australia", "slug": "australia"}], "production_dates": [{"date": "2003", "notes": "", "to_year": "2003"}], "labels": [48527]}, {"id": 109031, "acmi_id": "B1005560", "title": "She sells", "title_annotation": "", "slug": "she-sells", "creator_credit": "Karla Pringle", "credit_line": "", "headline_credit": "Australia, 2003", "video_links": [], "record_type": "work", "type": "Film", "is_on_display": false, "last_on_display_place": null, "last_on_display_date": null, "is_context_indigenous": false, "material_description": "", "unpublished": false, "external": false, "first_production_date": "2003-01-01T11:00:00+11:00", "commissioned": false, "public_domain": false, "external_references": [], "brief_description": "", "constellations_primary": [], "constellations_other": [], "recommendations": [], "creator_credit_for_label": "<p>Karla Pringle</p>", "headline_credit_for_label": "<p>Australia, 2003</p>", "title_for_label": "<p>She sells</p>", "description": "", "description_for_label": [], "credit_line_for_label": "", "details": [{"label": "Duration", "display_values": ["00:07:15:00"]}, {"label": "Language", "display_values": ["English"]}, {"label": "Audience classification", "display_values": ["Exempt"]}, {"label": "Subject categories", "display_values": ["Advertising, Film, Journalism, Mass Media & TV&nbsp;→ Interactive media", "Amateur & Student Films", "Amateur & Student Films&nbsp;→ Student films - Australia", "Animation", "Animation&nbsp;→ Animated films - Australia", "Animation&nbsp;→ Cutout animation", "Short films", "Short films&nbsp;→ Short films - Australia"]}, {"label": "Sound/audio", "display_values": ["Sound"]}, {"label": "Colour", "display_values": ["Colour"]}], "stats": {"tap_count": 0}, "links": [], "creators_primary": [{"id": 2711182, "name": "Karla Pringle", "creator_id": 9112, "creator_wikidata_id": null, "role": "creator", "role_id": 968, "is_primary": true}], "creators_other": [], "media_note": "Sorry, we don't have images or video for this item.", "holdings": [{"name": "MPEG-4 Digital File; ACMI Digital Access Copy - overscan", "identifier": "", "description": ""}, {"name": "MOV file ProRes4444; Digital Preservation Master - overscan", "identifier": "", "description": ""}, {"name": "SP Betacam; Master", "identifier": "", "description": ""}, {"name": "Digital Betacam [PAL]; Sub-master", "identifier": "", "description": ""}, {"name": "VHS [PAL]; Reference - timecoded", "identifier": "", "description": ""}, {"name": "VHS [PAL]; Copy", "identifier": "", "description": ""}], "part_of": null, "parts": [], "part_siblings": [], "group": null, "group_works": [], "group_siblings": [], "source": {"name": "Vernon", "slug": "vernon"}, "source_identifier": "2378", "eaas_environment_id": null, "production_places": [{"id": 3, "name": "Australia", "slug": "australia"}], "production_dates": [{"date": "2003", "notes": "", "to_year": "2003"}], "labels": [48524]}, {"id": 109030, "acmi_id": "B1005559", "title": "Tactus", "title_annotation": "", "slug": "tactus", "creator_credit": "Susan Gamble", "credit_line": "", "headline_credit": "Australia, 2002", "video_links": [], "record_type": "work", "type": "Film", "is_on_display": false, "last_on_display_place": null, "last_on_display_date": null, "is_context_indigenous": false, "material_description": "", "unpublished": false, "external": false, "first_production_date": "2002-01-01T11:00:00+11:00", "commissioned": false, "public_domain": false, "external_references": [], "brief_description": "", "constellations_primary": [], "constellations_other": [], "recommendations": [], "creator_credit_for_label": "<p>Susan Gamble</p>", "headline_credit_for_label": "<p>Australia, 2002</p>", "title_for_label": "<p>Tactus</p>", "description": "", "description_for_label": [], "credit_line_for_label": "", "details": [{"label": "Duration", "display_values": ["00:05:19:00"]}, {"label": "Language", "display_values": ["No spoken word"]}, {"label": "Audience classification", "display_values": ["Exempt"]}, {"label": "Subject categories", "display_values": ["Advertising, Film, Journalism, Mass Media & TV&nbsp;→ Interactive media", "Amateur & Student Films", "Amateur & Student Films&nbsp;→ Student films - Australia", "Animation", "Animation&nbsp;→ Animated films - Australia", "Crafts & Visual Arts&nbsp;→ Surrealism", "Experimental", "Music & Performing Arts&nbsp;→ Music videos", "Short films", "Short films&nbsp;→ Short films - Australia"]}, {"label": "Sound/audio", "display_values": ["Sound"]}, {"label": "Colour", "display_values": ["Colour"]}], "stats": {"tap_count": 0}, "links": [], "creators_primary": [{"id": 2711181, "name": "Susan Gamble", "creator_id": 9111, "creator_wikidata_id": null, "role": "creator", "role_id": 968, "is_primary": true}], "creators_other": [], "media_note": "Sorry, we don't have images or video for this item.", "holdings": [{"name": "MPEG-4 Digital File; ACMI Digital Access Copy - overscan", "identifier": "", "description": ""}, {"name": "MOV file ProRes4444; Digital Preservation Master - overscan", "identifier": "", "description": ""}, {"name": "SP Betacam; Master", "identifier": "", "description": ""}, {"name": "Digital Betacam [PAL]; Sub-master", "identifier": "", "description": ""}, {"name": "VHS [PAL]; Reference - timecoded", "identifier": "", "description": ""}, {"name": "VHS [PAL]; Copy", "identifier": "", "description": ""}], "part_of": null, "parts": [], "part_siblings": [], "group": null, "group_works": [], "group_siblings": [], "source": {"name": "Vernon", "slug": "vernon"}, "source_identifier": "2377", "eaas_environment_id": null, "production_places": [{"id": 3, "name": "Australia", "slug": "australia"}], "production_dates": [{"date": "2002", "notes": "", "to_year": "2002"}], "labels": [48523]}, {"id": 109029, "acmi_id": "B1005558", "title": "Amnesia", "title_annotation": "", "slug": "amnesia", "creator_credit": "Jonathan Nix and Thomas Pullar", "credit_line": "", "headline_credit": "Australia, 2002", "video_links": [], "record_type": "work", "type": "Film", "is_on_display": false, "last_on_display_place": null, "last_on_display_date": null, "is_context_indigenous": false, "material_description": "", "unpublished": false, "external": false, "first_production_date": "2002-01-01T11:00:00+11:00", "commissioned": false, "public_domain": false, "external_references": [], "brief_description": "", "constellations_primary": [], "constellations_other": [], "recommendations": [], "creator_credit_for_label": "<p>Jonathan Nix and Thomas Pullar</p>", "headline_credit_for_label": "<p>Australia, 2002</p>", "title_for_label": "<p>Amnesia</p>", "description": "", "description_for_label": [], "credit_line_for_label": "", "details": [{"label": "Duration", "display_values": ["00:03:47:00"]}, {"label": "Language", "display_values": ["English"]}, {"label": "Audience classification", "display_values": ["Exempt"]}, {"label": "Subject categories", "display_values": ["Advertising, Film, Journalism, Mass Media & TV&nbsp;→ Interactive media", "Amateur & Student Films", "Amateur & Student Films&nbsp;→ Student films - Australia", "Animation", "Animation&nbsp;→ Animated films - Australia", "Animation&nbsp;→ Computer animation", "Animation&nbsp;→ Cutout animation", "Music & Performing Arts&nbsp;→ Music videos", "Short films", "Short films&nbsp;→ Short films - Australia"]}, {"label": "Sound/audio", "display_values": ["Sound"]}, {"label": "Colour", "display_values": ["Colour"]}], "stats": {"tap_count": 0}, "links": [], "creators_primary": [{"id": 2711179, "name": "Jonathan Nix", "creator_id": 9108, "creator_wikidata_id": null, "role": "director", "role_id": 938, "is_primary": true}, {"id": 2711178, "name": "Thomas Pullar", "creator_id": 9110, "creator_wikidata_id": null, "role": "director", "role_id": 938, "is_primary": true}], "creators_other": [], "media_note": "Sorry, we don't have images or video for this item.", "holdings": [{"name": "MPEG-4 Digital File; ACMI Digital Access Copy - overscan", "identifier": "", "description": ""}, {"name": "MOV file ProRes4444; Digital Preservation Master - overscan", "identifier": "", "description": ""}, {"name": "SP Betacam; Master", "identifier": "", "description": ""}, {"name": "Digital Betacam [PAL]; Sub-master", "identifier": "", "description": ""}, {"name": "VHS [PAL]; Reference - timecoded", "identifier": "", "description": ""}, {"name": "VHS [PAL]; Copy", "identifier": "", "description": ""}], "part_of": null, "parts": [], "part_siblings": [], "group": null, "group_works": [], "group_siblings": [], "source": {"name": "Vernon", "slug": "vernon"}, "source_identifier": "2376", "eaas_environment_id": null, "production_places": [{"id": 3, "name": "Australia", "slug": "australia"}], "production_dates": [{"date": "2002", "notes": "", "to_year": "2002"}], "labels": [48522]}, {"id": 109028, "acmi_id": "B1005557", "title": "She wears a mask", "title_annotation": "", "slug": "she-wears-a-mask", "creator_credit": "Thomas Pullar", "credit_line": "", "headline_credit": "Australia, 2002", "video_links": [], "record_type": "work", "type": "Film", "is_on_display": false, "last_on_display_place": null, "last_on_display_date": null, "is_context_indigenous": false, "material_description": "", "unpublished": false, "external": false, "first_production_date": "2002-01-01T11:00:00+11:00", "commissioned": false, "public_domain": false, "external_references": [], "brief_description": "", "constellations_primary": [], "constellations_other": [], "recommendations": [], "creator_credit_for_label": "<p>Thomas Pullar</p>", "headline_credit_for_label": "<p>Australia, 2002</p>", "title_for_label": "<p>She wears a mask</p>", "description": "", "description_for_label": [], "credit_line_for_label": "", "details": [{"label": "Duration", "display_values": ["00:03:30:00"]}, {"label": "Language", "display_values": ["English"]}, {"label": "Audience classification", "display_values": ["Exempt"]}, {"label": "Subject categories", "display_values": ["Advertising, Film, Journalism, Mass Media & TV&nbsp;→ Interactive media", "Amateur & Student Films", "Amateur & Student Films&nbsp;→ Student films - Australia", "Animation", "Animation&nbsp;→ Animated films - Australia", "Animation&nbsp;→ Computer animation", "Music & Performing Arts&nbsp;→ Music videos", "Short films", "Short films&nbsp;→ Short films - Australia"]}, {"label": "Sound/audio", "display_values": ["Sound"]}, {"label": "Colour", "display_values": ["Colour"]}], "stats": {"tap_count": 0}, "links": [], "creators_primary": [{"id": 2711177, "name": "Thomas Pullar", "creator_id": 9110, "creator_wikidata_id": null, "role": "director", "role_id": 938, "is_primary": true}], "creators_other": [], "media_note": "Sorry, we don't have images or video for this item.", "holdings": [{"name": "MPEG-4 Digital File; ACMI Digital Access Copy - overscan", "identifier": "", "description": ""}, {"name": "MOV file ProRes4444; Digital Preservation Master - overscan", "identifier": "", "description": ""}, {"name": "SP Betacam; Master", "identifier": "", "description": ""}, {"name": "Digital Betacam [PAL]; Sub-master", "identifier": "", "description": ""}, {"name": "VHS [PAL]; Reference - timecoded", "identifier": "", "description": ""}, {"name": "VHS [PAL]; Copy", "identifier": "", "description": ""}], "part_of": null, "parts": [], "part_siblings": [], "group": null, "group_works": [], "group_siblings": [], "source": {"name": "Vernon", "slug": "vernon"}, "source_identifier": "2375", "eaas_environment_id": null, "production_places": [{"id": 3, "name": "Australia", "slug": "australia"}], "production_dates": [{"date": "2002", "notes": "", "to_year": "2002"}], "labels": [48521]}, {"id": 109027, "acmi_id": "B1005556", "title": "Moth collection", "title_annotation": "", "slug": "moth-collection", "creator_credit": "Brian Ng", "credit_line": "", "headline_credit": "Australia, 2002", "video_links": [], "record_type": "work", "type": "Film", "is_on_display": false, "last_on_display_place": null, "last_on_display_date": null, "is_context_indigenous": false, "material_description": "", "unpublished": false, "external": false, "first_production_date": "2002-01-01T11:00:00+11:00", "commissioned": false, "public_domain": false, "external_references": [], "brief_description": "", "constellations_primary": [], "constellations_other": [], "recommendations": [], "creator_credit_for_label": "<p>Brian Ng</p>", "headline_credit_for_label": "<p>Australia, 2002</p>", "title_for_label": "<p>Moth collection</p>", "description": "", "description_for_label": [], "credit_line_for_label": "", "details": [{"label": "Duration", "display_values": ["00:04:59:00"]}, {"label": "Language", "display_values": ["No spoken word"]}, {"label": "Audience classification", "display_values": ["ACMI classified"]}, {"label": "Subject categories", "display_values": ["Amateur & Student Films", "Amateur & Student Films&nbsp;→ Student films - Australia", "Animals & Wildlife&nbsp;→ Insects", "Animation", "Animation&nbsp;→ Animated films - Australia", "Animation&nbsp;→ Computer animation&nbsp;→ 2-D computer animation", "Animation&nbsp;→ Cutout animation", "Short films", "Short films&nbsp;→ Short films - Australia"]}, {"label": "Sound/audio", "display_values": ["Sound"]}, {"label": "Colour", "display_values": ["Colour"]}], "stats": {"tap_count": 0}, "links": [], "creators_primary": [{"id": 2711176, "name": "Brian Ng", "creator_id": 9109, "creator_wikidata_id": null, "role": "creator", "role_id": 968, "is_primary": true}], "creators_other": [], "media_note": "Sorry, we don't have images or video for this item.", "holdings": [{"name": "MPEG-4 Digital File; ACMI Digital Access Copy - overscan", "identifier": "", "description": ""}, {"name": "MOV file ProRes4444; Digital Preservation Master - overscan", "identifier": "", "description": ""}, {"name": "SP Betacam; Master", "identifier": "", "description": ""}, {"name": "Digital Betacam [PAL]; Sub-master", "identifier": "", "description": ""}, {"name": "VHS [PAL]; Reference - timecoded", "identifier": "", "description": ""}, {"name": "VHS [PAL]; Copy", "identifier": "", "description": ""}], "part_of": null, "parts": [], "part_siblings": [], "group": null, "group_works": [], "group_siblings": [], "source": {"name": "Vernon", "slug": "vernon"}, "source_identifier": "2374", "eaas_environment_id": null, "production_places": [{"id": 3, "name": "Australia", "slug": "australia"}], "production_dates": [{"date": "2002", "notes": "", "to_year": "2002"}], "labels": [48520]}, {"id": 109025, "acmi_id": "B1005554", "title": "Fog eyes", "title_annotation": "", "slug": "fog-eyes", "creator_credit": "Hamish Koci", "credit_line": "", "headline_credit": "Victoria, Australia, 2003", "video_links": [], "record_type": "work", "type": "Film", "is_on_display": false, "last_on_display_place": null, "last_on_display_date": null, "is_context_indigenous": false, "material_description": "", "unpublished": false, "external": false, "first_production_date": "2003-01-01T11:00:00+11:00", "commissioned": false, "public_domain": false, "external_references": [], "brief_description": "", "constellations_primary": [], "constellations_other": [], "recommendations": [], "creator_credit_for_label": "<p>Hamish Koci</p>", "headline_credit_for_label": "<p>Victoria, Australia, 2003</p>", "title_for_label": "<p>Fog eyes</p>", "description": "", "description_for_label": [], "credit_line_for_label": "", "details": [{"label": "Duration", "display_values": ["00:05:44:00"]}, {"label": "Language", "display_values": ["English"]}, {"label": "Audience classification", "display_values": ["Exempt"]}, {"label": "Subject categories", "display_values": ["Amateur & Student Films", "Amateur & Student Films&nbsp;→ Student films - Australia", "Animation", "Animation&nbsp;→ Hand drawn"]}, {"label": "Sound/audio", "display_values": ["Sound"]}, {"label": "Colour", "display_values": ["Colour"]}], "stats": {"tap_count": 0}, "links": [], "creators_primary": [{"id": 2711170, "name": "Hamish Koci", "creator_id": 9107, "creator_wikidata_id": null, "role": "creator", "role_id": 968, "is_primary": true}], "creators_other": [], "media_note": "Sorry, we don't have images or video for this item.", "holdings": [{"name": "MPEG-4 Digital File; ACMI Digital Access Copy - overscan", "identifier": "", "description": ""}, {"name": "MOV file ProRes4444; Digital Preservation Master - overscan", "identifier": "", "description": ""}, {"name": "SP Betacam; Master", "identifier": "", "description": ""}, {"name": "Digital Betacam [PAL]; Sub-master", "identifier": "", "description": ""}, {"name": "VHS [PAL]; Reference - timecoded", "identifier": "", "description": ""}, {"name": "VHS [PAL]; Copy", "identifier": "", "description": ""}], "part_of": null, "parts": [], "part_siblings": [], "group": null, "group_works": [], "group_siblings": [], "source": {"name": "Vernon", "slug": "vernon"}, "source_identifier": "2372", "eaas_environment_id": null, "production_places": [{"id": 337, "name": "Victoria, Australia", "slug": "victoria-australia"}], "production_dates": [{"date": "2003", "notes": "", "to_year": "2003"}], "labels": [48518]}, {"id": 109024, "acmi_id": "B1005553", "title": "The \"A\" list", "title_annotation": "", "slug": "the-a-list", "creator_credit": "Janelle Kilner", "credit_line": "", "headline_credit": "Victoria, Australia, 2002", "video_links": [], "record_type": "work", "type": "Film", "is_on_display": false, "last_on_display_place": null, "last_on_display_date": null, "is_context_indigenous": false, "material_description": "", "unpublished": false, "external": false, "first_production_date": "2002-01-01T11:00:00+11:00", "commissioned": false, "public_domain": false, "external_references": [], "brief_description": "<p>A charming digital animation from Australia&#8217;s premier centre for animation and interactive media &#8216; RMIT AIM. Anyone who has tried to get into the &#8216;cool&#8217; group at school will relate to this tale about jumping from the highest diving board.</p>", "constellations_primary": [], "constellations_other": [], "recommendations": [], "creator_credit_for_label": "<p>Janelle Kilner</p>", "headline_credit_for_label": "<p>Victoria, Australia, 2002</p>", "title_for_label": "<p>The &#8220;A&#8221; list</p>", "description": "<p>A charming digital animation from Australia&#8217;s premier centre for animation and interactive media &#8216; RMIT AIM. Anyone who has tried to get into the &#8216;cool&#8217; group at school will relate to this tale about jumping from the highest diving board.</p>", "description_for_label": ["<p>A charming digital animation from Australia&#8217;s premier centre for animation and interactive media &#8216; RMIT AIM. Anyone who has tried to get into the &#8216;cool&#8217; group at school will relate to this tale about jumping from the highest diving board.</p>"], "credit_line_for_label": "", "details": [{"label": "Duration", "display_values": ["00:04:43:00"]}, {"label": "Language", "display_values": ["No spoken word"]}, {"label": "Audience classification", "display_values": ["ACMI classified"]}, {"label": "Subject categories", "display_values": ["Amateur & Student Films", "Amateur & Student Films&nbsp;→ Student films - Australia", "Animation"]}, {"label": "Sound/audio", "display_values": ["Sound"]}, {"label": "Colour", "display_values": ["Colour"]}], "stats": {"tap_count": 0}, "links": [], "creators_primary": [{"id": 2711164, "name": "Janelle Kilner", "creator_id": 9106, "creator_wikidata_id": null, "role": "director", "role_id": 938, "is_primary": true}, {"id": 2711165, "name": "Janelle Kilner", "creator_id": 9106, "creator_wikidata_id": null, "role": "creator", "role_id": 968, "is_primary": true}], "creators_other": [{"id": 2711166, "name": "Animation and Interactive Media (AIM) RMIT", "creator_id": 6535, "creator_wikidata_id": null, "role": "production facilities", "role_id": 442, "is_primary": false}], "media_note": null, "holdings": [{"name": "MPEG-4 Digital File; ACMI Digital Access Copy - overscan", "identifier": "", "description": ""}, {"name": "MOV file ProRes4444; Digital Preservation Master - overscan", "identifier": "", "description": ""}, {"name": "MPEG-2 Digital File; Memory Grid Pod Full Encode", "identifier": "", "description": ""}, {"name": "SP Betacam; Master", "identifier": "", "description": ""}, {"name": "Digital Betacam [PAL]; Sub-master", "identifier": "", "description": ""}, {"name": "VHS [PAL]; Reference - timecoded", "identifier": "", "description": ""}, {"name": "VHS [PAL]; Copy", "identifier": "", "description": ""}], "part_of": null, "parts": [], "part_siblings": [], "group": null, "group_works": [], "group_siblings": [], "source": {"name": "Vernon", "slug": "vernon"}, "source_identifier": "2371", "eaas_environment_id": null, "production_places": [{"id": 337, "name": "Victoria, Australia", "slug": "victoria-australia"}], "production_dates": [{"date": "2002", "notes": "", "to_year": "2002"}], "labels": [48517]}, {"id": 109023, "acmi_id": "B1005552", "title": "Flat", "title_annotation": "", "slug": "flat", "creator_credit": "Sebastian Danta", "credit_line": "", "headline_credit": "Victoria, Australia, 2002", "video_links": [], "record_type": "work", "type": "Film", "is_on_display": false, "last_on_display_place": null, "last_on_display_date": null, "is_context_indigenous": false, "material_description": "", "unpublished": false, "external": false, "first_production_date": "2002-01-01T11:00:00+11:00", "commissioned": false, "public_domain": false, "external_references": [], "brief_description": "", "constellations_primary": [], "constellations_other": [], "recommendations": [], "creator_credit_for_label": "<p>Sebastian Danta</p>", "headline_credit_for_label": "<p>Victoria, Australia, 2002</p>", "title_for_label": "<p>Flat</p>", "description": "", "description_for_label": [], "credit_line_for_label": "", "details": [{"label": "Duration", "display_values": ["00:04:12:00"]}, {"label": "Language", "display_values": ["No spoken word"]}, {"label": "Audience classification", "display_values": ["Exempt"]}, {"label": "Subject categories", "display_values": ["Amateur & Student Films", "Amateur & Student Films&nbsp;→ Student films - Australia", "Animation", "Animation&nbsp;→ Cutout animation", "Animation&nbsp;→ Hand drawn", "Economics, Philosophy, Politics, Religion & Sociology&nbsp;→ Reality"]}, {"label": "Sound/audio", "display_values": ["Sound"]}, {"label": "Colour", "display_values": ["Black and White"]}], "stats": {"tap_count": 0}, "links": [], "creators_primary": [{"id": 2711162, "name": "Sebastian Danta", "creator_id": 9105, "creator_wikidata_id": null, "role": "creator", "role_id": 968, "is_primary": true}], "creators_other": [{"id": 2711160, "name": "Sebastian Danta", "creator_id": 9105, "creator_wikidata_id": null, "role": "dancer", "role_id": 444, "is_primary": false}], "media_note": "Sorry, we don't have images or video for this item.", "holdings": [{"name": "MPEG-4 Digital File; ACMI Digital Access Copy - overscan", "identifier": "", "description": ""}, {"name": "MOV file ProRes4444; Digital Preservation Master - overscan", "identifier": "", "description": ""}, {"name": "SP Betacam; Master", "identifier": "", "description": ""}, {"name": "Digital Betacam [PAL]; Sub-master", "identifier": "", "description": ""}, {"name": "VHS [PAL]; Reference - timecoded", "identifier": "", "description": ""}, {"name": "VHS [PAL]; Copy", "identifier": "", "description": ""}], "part_of": null, "parts": [], "part_siblings": [], "group": null, "group_works": [], "group_siblings": [], "source": {"name": "Vernon", "slug": "vernon"}, "source_identifier": "2370", "eaas_environment_id": null, "production_places": [{"id": 337, "name": "Victoria, Australia", "slug": "victoria-australia"}], "production_dates": [{"date": "2002", "notes": "", "to_year": "2002"}], "labels": [48516]}]}