{"count": 41723, "next": "https://api.acmi.net.au/works/?page=1385", "previous": "https://api.acmi.net.au/works/?page=1383", "results": [{"id": 109293, "acmi_id": "B1006275", "title": "MSO Screen grabs 1999", "title_annotation": "", "slug": "mso-screen-grabs-1999", "creator_credit": "Timothy Marshall", "credit_line": "", "headline_credit": "1999", "video_links": [], "record_type": "work", "type": "Film", "is_on_display": false, "last_on_display_place": null, "last_on_display_date": null, "is_context_indigenous": false, "material_description": "", "unpublished": false, "external": false, "first_production_date": "1999-01-01T11:00:00+11:00", "commissioned": false, "public_domain": false, "external_references": [], "brief_description": "", "constellations_primary": [], "constellations_other": [], "recommendations": [], "creator_credit_for_label": "<p>Timothy Marshall</p>", "headline_credit_for_label": "<p>1999</p>", "title_for_label": "<p>MSO Screen grabs 1999</p>", "description": "", "description_for_label": [], "credit_line_for_label": "", "details": [], "stats": {"tap_count": 0}, "links": [], "creators_primary": [{"id": 2711658, "name": "Timothy Marshall", "creator_id": 9324, "creator_wikidata_id": null, "role": "creator", "role_id": 968, "is_primary": true}], "creators_other": [], "media_note": "Sorry, we don't have images or video for this item.", "holdings": [], "part_of": null, "parts": [], "part_siblings": [], "group": null, "group_works": [], "group_siblings": [], "source": {"name": "Vernon", "slug": "vernon"}, "source_identifier": "2876", "eaas_environment_id": null, "production_places": [], "production_dates": [{"date": "1999", "notes": "", "to_year": "1999"}], "labels": [48786]}, {"id": 109292, "acmi_id": "B1006274", "title": "ACMI Cinepak", "title_annotation": "", "slug": "acmi-cinepak", "creator_credit": "", "credit_line": "", "headline_credit": "", "video_links": [], "record_type": "work", "type": "Film", "is_on_display": false, "last_on_display_place": null, "last_on_display_date": null, "is_context_indigenous": false, "material_description": "", "unpublished": false, "external": false, "first_production_date": null, "commissioned": false, "public_domain": false, "external_references": [], "brief_description": "", "constellations_primary": [], "constellations_other": [], "recommendations": [], "creator_credit_for_label": "", "headline_credit_for_label": "", "title_for_label": "<p>ACMI Cinepak</p>", "description": "", "description_for_label": [], "credit_line_for_label": "", "details": [], "stats": {"tap_count": 0}, "links": [], "creators_primary": [], "creators_other": [], "media_note": "Sorry, we don't have images or video for this item.", "holdings": [{"name": "CD ROM; Master", "identifier": "", "description": ""}], "part_of": null, "parts": [], "part_siblings": [], "group": null, "group_works": [], "group_siblings": [], "source": {"name": "Vernon", "slug": "vernon"}, "source_identifier": "2875", "eaas_environment_id": null, "production_places": [], "production_dates": [], "labels": [48785]}, {"id": 109291, "acmi_id": "B1006273", "title": "Screen lounges: proposed sound", "title_annotation": "", "slug": "screen-lounges-proposed-sound", "creator_credit": "", "credit_line": "", "headline_credit": "", "video_links": [], "record_type": "work", "type": "Film", "is_on_display": false, "last_on_display_place": null, "last_on_display_date": null, "is_context_indigenous": false, "material_description": "", "unpublished": false, "external": false, "first_production_date": null, "commissioned": false, "public_domain": false, "external_references": [], "brief_description": "", "constellations_primary": [], "constellations_other": [], "recommendations": [], "creator_credit_for_label": "", "headline_credit_for_label": "", "title_for_label": "<p>Screen lounges: proposed sound</p>", "description": "", "description_for_label": [], "credit_line_for_label": "", "details": [], "stats": {"tap_count": 0}, "links": [], "creators_primary": [], "creators_other": [], "media_note": "Sorry, we don't have images or video for this item.", "holdings": [{"name": "CD ROM; Copy", "identifier": "", "description": ""}, {"name": "CD ROM; Master", "identifier": "", "description": ""}], "part_of": null, "parts": [], "part_siblings": [], "group": null, "group_works": [], "group_siblings": [], "source": {"name": "Vernon", "slug": "vernon"}, "source_identifier": "2874", "eaas_environment_id": null, "production_places": [], "production_dates": [], "labels": [48784]}, {"id": 109290, "acmi_id": "B1006271", "title": "Face and form. Part 1", "title_annotation": "", "slug": "face-and-form-part-1", "creator_credit": "", "credit_line": "", "headline_credit": "", "video_links": [], "record_type": "work", "type": "Film", "is_on_display": false, "last_on_display_place": null, "last_on_display_date": null, "is_context_indigenous": false, "material_description": "", "unpublished": false, "external": false, "first_production_date": null, "commissioned": false, "public_domain": false, "external_references": [], "brief_description": "", "constellations_primary": [], "constellations_other": [], "recommendations": [], "creator_credit_for_label": "", "headline_credit_for_label": "", "title_for_label": "<p>Face and form. Part 1</p>", "description": "", "description_for_label": [], "credit_line_for_label": "", "details": [], "stats": {"tap_count": 0}, "links": [], "creators_primary": [], "creators_other": [], "media_note": "Sorry, we don't have images or video for this item.", "holdings": [{"name": "CD ROM; Copy", "identifier": "", "description": ""}], "part_of": null, "parts": [], "part_siblings": [], "group": null, "group_works": [], "group_siblings": [], "source": {"name": "Vernon", "slug": "vernon"}, "source_identifier": "2873", "eaas_environment_id": null, "production_places": [], "production_dates": [], "labels": [48783]}, {"id": 109289, "acmi_id": "B1006270", "title": "ik.rocks.it", "title_annotation": "", "slug": "ikrocksit", "creator_credit": "", "credit_line": "", "headline_credit": "", "video_links": [], "record_type": "work", "type": "Film", "is_on_display": false, "last_on_display_place": null, "last_on_display_date": null, "is_context_indigenous": false, "material_description": "", "unpublished": false, "external": false, "first_production_date": null, "commissioned": false, "public_domain": false, "external_references": [], "brief_description": "", "constellations_primary": [], "constellations_other": [], "recommendations": [], "creator_credit_for_label": "", "headline_credit_for_label": "", "title_for_label": "<p>ik.rocks.it</p>", "description": "", "description_for_label": [], "credit_line_for_label": "", "details": [], "stats": {"tap_count": 0}, "links": [], "creators_primary": [], "creators_other": [], "media_note": "Sorry, we don't have images or video for this item.", "holdings": [{"name": "CD ROM; Master", "identifier": "", "description": ""}], "part_of": null, "parts": [], "part_siblings": [], "group": null, "group_works": [], "group_siblings": [], "source": {"name": "Vernon", "slug": "vernon"}, "source_identifier": "2872", "eaas_environment_id": null, "production_places": [], "production_dates": [], "labels": [48782]}, {"id": 109288, "acmi_id": "B1006269", "title": "Kelman to the rescue", "title_annotation": "", "slug": "kelman-to-the-rescue", "creator_credit": "Nathan Jurevicius", "credit_line": "", "headline_credit": "", "video_links": [], "record_type": "work", "type": "Film", "is_on_display": false, "last_on_display_place": null, "last_on_display_date": null, "is_context_indigenous": false, "material_description": "", "unpublished": false, "external": false, "first_production_date": null, "commissioned": false, "public_domain": false, "external_references": [], "brief_description": "", "constellations_primary": [], "constellations_other": [], "recommendations": [], "creator_credit_for_label": "<p>Nathan Jurevicius</p>", "headline_credit_for_label": "", "title_for_label": "<p>Kelman to the rescue</p>", "description": "", "description_for_label": [], "credit_line_for_label": "", "details": [], "stats": {"tap_count": 0}, "links": [], "creators_primary": [{"id": 2711657, "name": "Nathan Jurevicius", "creator_id": 8768, "creator_wikidata_id": null, "role": "creator", "role_id": 968, "is_primary": true}], "creators_other": [], "media_note": "Sorry, we don't have images or video for this item.", "holdings": [{"name": "CD ROM; Master", "identifier": "", "description": ""}], "part_of": null, "parts": [], "part_siblings": [], "group": null, "group_works": [], "group_siblings": [], "source": {"name": "Vernon", "slug": "vernon"}, "source_identifier": "2871", "eaas_environment_id": null, "production_places": [], "production_dates": [], "labels": [48781]}, {"id": 109287, "acmi_id": "B1006268", "title": "Generative poetry", "title_annotation": "", "slug": "generative-poetry", "creator_credit": "Jenny Weight", "credit_line": "", "headline_credit": "", "video_links": [], "record_type": "work", "type": "Film", "is_on_display": false, "last_on_display_place": null, "last_on_display_date": null, "is_context_indigenous": false, "material_description": "", "unpublished": false, "external": false, "first_production_date": null, "commissioned": false, "public_domain": false, "external_references": [], "brief_description": "", "constellations_primary": [], "constellations_other": [], "recommendations": [], "creator_credit_for_label": "<p>Jenny Weight</p>", "headline_credit_for_label": "", "title_for_label": "<p>Generative poetry</p>", "description": "", "description_for_label": [], "credit_line_for_label": "", "details": [], "stats": {"tap_count": 0}, "links": [], "creators_primary": [{"id": 2711656, "name": "Jenny Weight", "creator_id": 9323, "creator_wikidata_id": null, "role": "creator", "role_id": 968, "is_primary": true}], "creators_other": [], "media_note": "Sorry, we don't have images or video for this item.", "holdings": [{"name": "DVD [PAL]; Master", "identifier": "", "description": ""}], "part_of": null, "parts": [], "part_siblings": [], "group": null, "group_works": [], "group_siblings": [], "source": {"name": "Vernon", "slug": "vernon"}, "source_identifier": "2870", "eaas_environment_id": null, "production_places": [], "production_dates": [], "labels": [48780]}, {"id": 109285, "acmi_id": "B1006267", "title": "Like a call", "title_annotation": "", "slug": "like-a-call", "creator_credit": "Isobel Knowles", "credit_line": "", "headline_credit": "", "video_links": [], "record_type": "work", "type": "Film", "is_on_display": false, "last_on_display_place": "ACMI Screen Gallery", "last_on_display_date": "2004-09-12", "is_context_indigenous": false, "material_description": "", "unpublished": false, "external": false, "first_production_date": null, "commissioned": false, "public_domain": false, "external_references": [], "brief_description": "", "constellations_primary": [], "constellations_other": [], "recommendations": [], "creator_credit_for_label": "<p>Isobel Knowles</p>", "headline_credit_for_label": "", "title_for_label": "<p>Like a call</p>", "description": "", "description_for_label": [], "credit_line_for_label": "", "details": [{"label": "Duration", "display_values": ["00:03:08:00"]}, {"label": "Language", "display_values": ["English"]}, {"label": "Subject categories", "display_values": ["Animation", "Music & Performing Arts&nbsp;→ Music videos"]}, {"label": "Sound/audio", "display_values": ["Sound"]}, {"label": "Colour", "display_values": ["Colour"]}], "stats": {"tap_count": 0}, "links": [], "creators_primary": [{"id": 2711655, "name": "Isobel Knowles", "creator_id": 9273, "creator_wikidata_id": null, "role": "creator", "role_id": 968, "is_primary": true}], "creators_other": [], "media_note": "Sorry, we don't have images or video for this item.", "holdings": [{"name": "DVD [PAL]; Master", "identifier": "", "description": ""}, {"name": "DVD [PAL]; Exhibition Copy", "identifier": "", "description": ""}], "part_of": null, "parts": [], "part_siblings": [], "group": null, "group_works": [], "group_siblings": [], "source": {"name": "Vernon", "slug": "vernon"}, "source_identifier": "2869", "eaas_environment_id": null, "production_places": [], "production_dates": [], "labels": [48778]}, {"id": 109284, "acmi_id": "B1006245", "title": "Dance screen 99", "title_annotation": "", "slug": "dance-screen-99", "creator_credit": "", "credit_line": "", "headline_credit": "", "video_links": [], "record_type": "work", "type": "Film", "is_on_display": false, "last_on_display_place": null, "last_on_display_date": null, "is_context_indigenous": false, "material_description": "", "unpublished": false, "external": false, "first_production_date": null, "commissioned": false, "public_domain": false, "external_references": [], "brief_description": "", "constellations_primary": [], "constellations_other": [], "recommendations": [], "creator_credit_for_label": "", "headline_credit_for_label": "", "title_for_label": "<p>Dance screen 99</p>", "description": "", "description_for_label": [], "credit_line_for_label": "", "details": [], "stats": {"tap_count": 0}, "links": [], "creators_primary": [], "creators_other": [], "media_note": "Sorry, we don't have images or video for this item.", "holdings": [{"name": "CD ROM; Copy", "identifier": "", "description": ""}], "part_of": null, "parts": [], "part_siblings": [], "group": null, "group_works": [], "group_siblings": [], "source": {"name": "Vernon", "slug": "vernon"}, "source_identifier": "2847", "eaas_environment_id": null, "production_places": [], "production_dates": [], "labels": [48777]}, {"id": 109283, "acmi_id": "B1006244", "title": "Melbourne symphony 1999 education program: early childhood - year 8", "title_annotation": "", "slug": "melbourne-symphony-1999-education-program-early-childhood-year-8", "creator_credit": "", "credit_line": "", "headline_credit": "1999", "video_links": [], "record_type": "work", "type": "Film", "is_on_display": false, "last_on_display_place": null, "last_on_display_date": null, "is_context_indigenous": false, "material_description": "", "unpublished": false, "external": false, "first_production_date": "1999-01-01T11:00:00+11:00", "commissioned": false, "public_domain": false, "external_references": [], "brief_description": "", "constellations_primary": [], "constellations_other": [], "recommendations": [], "creator_credit_for_label": "", "headline_credit_for_label": "<p>1999</p>", "title_for_label": "<p>Melbourne symphony 1999 education program: early childhood - year 8</p>", "description": "", "description_for_label": [], "credit_line_for_label": "", "details": [], "stats": {"tap_count": 0}, "links": [], "creators_primary": [], "creators_other": [], "media_note": "Sorry, we don't have images or video for this item.", "holdings": [{"name": "CD ROM; Copy", "identifier": "", "description": ""}], "part_of": null, "parts": [], "part_siblings": [], "group": null, "group_works": [], "group_siblings": [], "source": {"name": "Vernon", "slug": "vernon"}, "source_identifier": "2846", "eaas_environment_id": null, "production_places": [], "production_dates": [{"date": "1999", "notes": "", "to_year": "1999"}], "labels": [48776]}]}