{"count": 41735, "next": "https://api.acmi.net.au/works/?page=3065", "previous": "https://api.acmi.net.au/works/?page=3063", "results": [{"id": 121849, "acmi_id": "xos-121849", "title": "Jpegs", "title_annotation": "Artwork series", "slug": "jpegs-thomas-ruff", "creator_credit": "", "credit_line": "<p>Thomas Ruff</p>", "headline_credit": "2004", "video_links": [{"id": 3006, "name": "jpeg msh01. 2004 | SEEING THROUGH PHOTOGRAPHS", "uri": "https://youtu.be/cNoY-PQYEbM"}], "record_type": "work", "type": "Artwork", "is_on_display": false, "last_on_display_place": null, "last_on_display_date": null, "is_context_indigenous": false, "material_description": "", "unpublished": false, "external": false, "first_production_date": "2004-01-01T11:00:00+11:00", "commissioned": false, "public_domain": false, "external_references": [], "brief_description": "<p>In his series Jpegs (2004), photographer Thomas Ruff printed downloaded images at massive scale, allowing the blown out pixels to distort and warp the original images. This series calls attention to the materiality of the digital artefacts we create, consume and share everyday.</p>", "constellations_primary": [], "constellations_other": [{"id": 362, "name": "The radical power of the glitch", "description": "Brian Eno said, “Whatever you now find weird, ugly, uncomfortable and nasty about a new medium will surely become its signature.” Videogame glitches can seem annoying or obstructive – but for the artists in Out of Bounds, they offer radical creative potential."}], "recommendations": [], "creator_credit_for_label": "<p>Thomas Ruff</p>", "headline_credit_for_label": "<p>2004</p>", "title_for_label": "<p>Jpegs (2004), Thomas Ruff</p>", "description": "<p>Thomas Ruff produced his <i>Jpegs</i> series without using a camera. Instead, he printed compressed electronic image files (jpegs), many of them downloaded from the Internet, at monumental scale. The series, which encompasses tranquil landscapes, scenes of war, and natural and man-made catastrophes, began with images of the September 11th terrorist attacks. To make this pixelated image of an erupting volcano, Ruff printed a low-resolution jpeg at a very large scale. At such size, the pixels—the building blocks of all digital images—are magnified to the point of breaking up the very image they compose. By foregrounding the repurposed photograph’s underlying structure and naming (msh for Mount St. Helens), Ruff calls attention to the ways digital images are constructed, circulated, and viewed today.</p>", "description_for_label": ["<p>Thomas Ruff produced his Jpegs series without using a camera. Instead, he printed compressed electronic image files (jpegs), many of them downloaded from the Internet, at monumental scale. The series, which encompasses tranquil landscapes, scenes of war, and natural and man-made catastrophes, began with images of the September 11th terrorist attacks. To make this pixelated image of an erupting volcano, Ruff printed a low-resolution jpeg at a very large scale. At such size, the pixels—the building blocks of all digital images—are magnified to the point of breaking up the very image they compose. By foregrounding the repurposed photograph’s underlying structure and naming (msh for Mount St. Helens), Ruff calls attention to the ways digital images are constructed, circulated, and viewed today.</p>"], "credit_line_for_label": "<p>Thomas Ruff</p>", "details": [], "stats": {"tap_count": 55}, "links": [], "creators_primary": [], "creators_other": [], "media_note": null, "holdings": [], "part_of": null, "parts": [], "part_siblings": [], "group": null, "group_works": [], "group_siblings": [], "source": null, "source_identifier": null, "eaas_environment_id": null, "production_places": [], "production_dates": [{"date": "2004", "notes": "", "to_year": "2004"}], "labels": [61308]}, {"id": 121850, "acmi_id": "xos-121850", "title": "Ben Drowned", "title_annotation": "Digital culture", "slug": "ben-drowned", "creator_credit": "", "credit_line": "<p>Alexander D. &#8220;Jadusable&#8221; Hall</p>", "headline_credit": "2010-2012", "video_links": [{"id": 3007, "name": "Ben Drowned - The Full Story & ARG", "uri": "https://www.youtube.com/watch?v=QJlqY1O4B00"}], "record_type": "work", "type": "Mixed reality", "is_on_display": false, "last_on_display_place": null, "last_on_display_date": null, "is_context_indigenous": false, "material_description": "", "unpublished": false, "external": false, "first_production_date": null, "commissioned": false, "public_domain": false, "external_references": [], "brief_description": "<p>Ben Drowned is a web serial created by Alexander D. &#8220;Jadusable&#8221; Hall. in 2010. Originally presented as a series of real events, the narrative describes Jadusable purchasing a cartridge of <i>Legend of Zelda: Majora&#8217;s Mask</i> (2000) only to discover it is haunted by a malevolent spirit.</p>", "constellations_primary": [], "constellations_other": [{"id": 362, "name": "The radical power of the glitch", "description": "Brian Eno said, “Whatever you now find weird, ugly, uncomfortable and nasty about a new medium will surely become its signature.” Videogame glitches can seem annoying or obstructive – but for the artists in Out of Bounds, they offer radical creative potential."}], "recommendations": [{"display_name": "Jini Maxwell", "job_title": "", "avatar_image": null, "quote": "Ben Drowned is a web serial created by Alexander D. \"Jadusable\" Hall. in 2010. Originally presented as a series of real events, the narrative describes Jadusable purchasing a cartridge of <i>Legend of Zelda: Majora's Mask</i> only to discover it is haunted by a malevolent spirit."}], "creator_credit_for_label": "<p>Alexander D. &#8220;Jadusable&#8221; Hall</p>", "headline_credit_for_label": "<p>2010-2012</p>", "title_for_label": "<p>Ben Drowned</p>", "description": "<p>Ben Drowned is a series of text posts created by Alexander D. &#8220;Jadusable&#8221; Hall. in 2010. Originally presented as a series of real events, the narrative described Jadusable purchasing a cartridge of <i>Legend of Zelda: Majora&#8217;s Mask</i> at a garage sale, only to discover it is haunted by a malevolent spirit. The narrative has since been developed into an alternate reality game and web series.</p>", "description_for_label": ["<p>Ben Drowned is a series of text posts created by Alexander D. &#8220;Jadusable&#8221; Hall. in 2010. Originally presented as a series of real events, the narrative described Jadusable purchasing a cartridge of <i>Legend of Zelda: Majora&#8217;s Mask</i> (2000) at a garage sale, only to discover it is haunted by a malevolent spirit. The narrative has since been developed into an alternate reality game and web series.</p>"], "credit_line_for_label": "<p>Alexander D. &#8220;Jadusable&#8221; Hall</p>", "details": [], "stats": {"tap_count": 110}, "links": [], "creators_primary": [], "creators_other": [], "media_note": null, "holdings": [], "part_of": null, "parts": [], "part_siblings": [], "group": null, "group_works": [], "group_siblings": [], "source": null, "source_identifier": null, "eaas_environment_id": null, "production_places": [], "production_dates": [{"date": "2010-2012", "notes": "", "to_year": "2010-2012"}], "labels": [61309]}, {"id": 121839, "acmi_id": "xos-121839", "title": "Shadow of the Boomerang", "title_annotation": "", "slug": "shadow-of-the-boomerang", "creator_credit": "", "credit_line": "", "headline_credit": "Australia", "video_links": [], "record_type": "work", "type": "Music video", "is_on_display": false, "last_on_display_place": null, "last_on_display_date": null, "is_context_indigenous": false, "material_description": "", "unpublished": false, "external": false, "first_production_date": null, "commissioned": false, "public_domain": false, "external_references": [], "brief_description": "", "constellations_primary": [], "constellations_other": [{"id": 361, "name": "Reclaiming the archive", "description": "Applying an Indigenous lens on Australia’s film and television archives."}], "recommendations": [], "creator_credit_for_label": "", "headline_credit_for_label": "<p>Australia</p>", "title_for_label": "<p>Shadow of the Boomerang</p>", "description": "", "description_for_label": [], "credit_line_for_label": "", "details": [], "stats": {"tap_count": 72}, "links": [], "creators_primary": [], "creators_other": [], "media_note": "Sorry, we aren't able to make images or video for this item available to the public online.", "holdings": [], "part_of": null, "parts": [], "part_siblings": [], "group": null, "group_works": [], "group_siblings": [], "source": null, "source_identifier": null, "eaas_environment_id": null, "production_places": [{"id": 3, "name": "Australia", "slug": "australia"}], "production_dates": [], "labels": [61298]}, {"id": 69877, "acmi_id": "006452", "title": "The Long journey", "title_annotation": "", "slug": "the-long-journey", "creator_credit": "Rank Screen Services and United Nations. Film Board", "credit_line": "", "headline_credit": "United Kingdom, 1955", "video_links": [], "record_type": "work", "type": "Film", "is_on_display": false, "last_on_display_place": null, "last_on_display_date": null, "is_context_indigenous": false, "material_description": "", "unpublished": false, "external": false, "first_production_date": "1955-01-01T10:00:00+10:00", "commissioned": false, "public_domain": false, "external_references": [], "brief_description": "<p>War has left its mark on Korea. Three million refugees joined the ranks of the homeless and hungry and the countryside was maimed and scarred. This film tells of Kim Tai Yung, a farmer from North Korea and one of those refugees who made their way to the South and freedom in 1951. As a background to Kim&#8217;s gradual progress the task of United Nations rehabilitation and reconstruction is seen to take shape and move into action.</p>", "constellations_primary": [], "constellations_other": [], "recommendations": [], "creator_credit_for_label": "<p>Rank Screen Services and United Nations. Film Board</p>", "headline_credit_for_label": "<p>United Kingdom, 1955</p>", "title_for_label": "<p>The Long journey</p>", "description": "<p>War has left its mark on Korea. Three million refugees joined the ranks of the homeless and hungry and the countryside was maimed and scarred. This film tells of Kim Tai Yung, a farmer from North Korea and one of those refugees who made their way to the South and freedom in 1951. As a background to Kim&#8217;s gradual progress the task of United Nations rehabilitation and reconstruction is seen to take shape and move into action.</p>", "description_for_label": ["<p>War has left its mark on Korea. Three million refugees joined the ranks of the homeless and hungry and the countryside was maimed and scarred. This film tells of Kim Tai Yung, a farmer from North Korea and one of those refugees who made their way to the South and freedom in 1951. As a background to Kim&#8217;s gradual progress the task of United Nations rehabilitation and reconstruction is seen to take shape and move into action.</p>"], "credit_line_for_label": "", "details": [{"label": "Duration", "display_values": ["00:31:07:00"]}, {"label": "Language", "display_values": ["English"]}, {"label": "Subject categories", "display_values": ["Anthropology, Ethnology, Exploration & Travel&nbsp;→ Korea (North)", "Anthropology, Ethnology, Exploration & Travel&nbsp;→ Korea (South)", "Armed Forces, Military, War & Weapons&nbsp;→ International understanding", "Armed Forces, Military, War & Weapons&nbsp;→ Korean War, 1950-1953", "Armed Forces, Military, War & Weapons&nbsp;→ War and society", "Documentary", "Documentary&nbsp;→ Documentary films - United Nations", "Economics, Philosophy, Politics, Religion & Sociology&nbsp;→ Homelessness", "Economics, Philosophy, Politics, Religion & Sociology&nbsp;→ International cooperation", "Economics, Philosophy, Politics, Religion & Sociology&nbsp;→ International understanding", "Economics, Philosophy, Politics, Religion & Sociology&nbsp;→ Refugees", "Economics, Philosophy, Politics, Religion & Sociology&nbsp;→ United Nations", "History&nbsp;→ Refugees", "History&nbsp;→ United Nations", "Places&nbsp;→ Korea (North)", "Places&nbsp;→ Korea (South)", "Short films", "Short films&nbsp;→ Short films - Great Britain"]}, {"label": "Sound/audio", "display_values": ["Sound"]}, {"label": "Colour", "display_values": ["Black and White"]}], "stats": {"tap_count": 0}, "links": [], "creators_primary": [{"id": 1907766, "name": "Rank Screen Services", "creator_id": 16166, "creator_wikidata_id": null, "role": "production company", "role_id": 941, "is_primary": true}, {"id": 1907767, "name": "United Nations. Film Board", "creator_id": 12140, "creator_wikidata_id": null, "role": "production company", "role_id": 941, "is_primary": true}], "creators_other": [], "media_note": "Sorry, we don't have images or video for this item.", "holdings": [{"name": "16mm film; Access Print (Section 1)", "identifier": "", "description": ""}, {"name": "16mm film; Limited Access Print (Section 2)", "identifier": "", "description": ""}], "part_of": null, "parts": [], "part_siblings": [], "group": null, "group_works": [], "group_siblings": [], "source": {"name": "Vernon", "slug": "vernon"}, "source_identifier": "25527", "eaas_environment_id": null, "production_places": [{"id": 10, "name": "United Kingdom", "slug": "united-kingdom"}], "production_dates": [{"date": "1955", "notes": "Produced", "to_year": "1955"}], "labels": [9367]}, {"id": 121833, "acmi_id": "xos-121833", "title": "Observance", "title_annotation": "", "slug": "observance", "creator_credit": "Julie Gough", "credit_line": "", "headline_credit": "Australia", "video_links": [], "record_type": "work", "type": "Artwork", "is_on_display": false, "last_on_display_place": null, "last_on_display_date": null, "is_context_indigenous": false, "material_description": "video projection HDMI, H264, 16:9, colour, sound, 17:09 mins", "unpublished": false, "external": false, "first_production_date": null, "commissioned": false, "public_domain": false, "external_references": [], "brief_description": "", "constellations_primary": [], "constellations_other": [{"id": 359, "name": "Flipping the gaze (Placeholder)", "description": "Steven Rhall's <i>Avert</i> considers how the white gaze has been trained on First Peoples and flips the surveillance by turning the camera on the viewer."}], "recommendations": [], "creator_credit_for_label": "<p>Julie Gough</p>", "headline_credit_for_label": "<p>Australia</p>", "title_for_label": "<p>Observance</p>", "description": "<p><i>Observance</i> is a single-channel video work that surveils eco-tourists on the artist&#8217;s ancestral Country.</p>", "description_for_label": ["<p><i>Observance</i> is a single-channel video work that surveils eco-tourists on the artist&#8217;s ancestral Country.</p>"], "credit_line_for_label": "", "details": [{"label": "Materials", "display_values": ["video projection HDMI, H264, 16:9, colour, sound, 17:09 mins"]}], "stats": {"tap_count": 0}, "links": [], "creators_primary": [{"id": 1906992, "name": "Julie Gough", "creator_id": 73126, "creator_wikidata_id": null, "role": "creator", "role_id": 968, "is_primary": true}], "creators_other": [], "media_note": null, "holdings": [], "part_of": null, "parts": [], "part_siblings": [], "group": null, "group_works": [], "group_siblings": [], "source": null, "source_identifier": null, "eaas_environment_id": null, "production_places": [{"id": 3, "name": "Australia", "slug": "australia"}], "production_dates": [{"date": "2012", "notes": "", "to_year": "2012"}], "labels": [61292]}, {"id": 121831, "acmi_id": "xos-121831", "title": "Mermaids, or Aiden in Wonderland", "title_annotation": "", "slug": "mermaids-or-aiden-in-wonderland", "creator_credit": "Karrabing Film Collective", "credit_line": "", "headline_credit": "Australia, 2013", "video_links": [], "record_type": "work", "type": "Artwork", "is_on_display": false, "last_on_display_place": null, "last_on_display_date": null, "is_context_indigenous": false, "material_description": "26:29 minutes\r\nHD video, colour, sound", "unpublished": false, "external": false, "first_production_date": "2013-01-01T11:00:00+11:00", "commissioned": false, "public_domain": false, "external_references": [], "brief_description": "", "constellations_primary": [], "constellations_other": [{"id": 358, "name": "Indigenous futurisms", "description": "An exploration of works that put First Peoples futurisms first."}], "recommendations": [], "creator_credit_for_label": "<p>Karrabing Film Collective</p>", "headline_credit_for_label": "<p>Australia, 2013</p>", "title_for_label": "<p>Mermaids, or Aiden in Wonderland</p>", "description": "<p><i>Mermaids, or Aiden in Wonderland</i> is a powerful intervention in contemporary debates about the future present of climate change, extractive capitalism, and industrial toxicity from the point of view of Indigenous worlds.</p>", "description_for_label": ["<p><i>Mermaids, or Aiden in Wonderland</i> is a powerful intervention in contemporary debates about the future present of climate change, extractive capitalism, and industrial toxicity from the point of view of Indigenous worlds.</p>"], "credit_line_for_label": "", "details": [{"label": "Materials", "display_values": ["26:29 minutes\r\nHD video, colour, sound"]}], "stats": {"tap_count": 61}, "links": [], "creators_primary": [{"id": 1906779, "name": "Karrabing Film Collective", "creator_id": 86995, "creator_wikidata_id": null, "role": "creator", "role_id": 968, "is_primary": true}], "creators_other": [], "media_note": null, "holdings": [], "part_of": null, "parts": [], "part_siblings": [], "group": null, "group_works": [], "group_siblings": [], "source": null, "source_identifier": null, "eaas_environment_id": null, "production_places": [{"id": 310, "name": "Australia", "slug": "Australia"}], "production_dates": [{"date": "2013", "notes": "", "to_year": "2013"}], "labels": [61290]}, {"id": 121832, "acmi_id": "xos-121832", "title": "Future Folklore", "title_annotation": "", "slug": "future-folklore", "creator_credit": "Guck", "credit_line": "", "headline_credit": "Australia, 2022", "video_links": [], "record_type": "work", "type": "Videogame", "is_on_display": false, "last_on_display_place": null, "last_on_display_date": null, "is_context_indigenous": false, "material_description": "", "unpublished": false, "external": false, "first_production_date": "2022-01-01T11:00:00+11:00", "commissioned": false, "public_domain": false, "external_references": [{"id": 24729, "source": {"name": "Wikidata", "slug": "wikidata"}, "source_identifier": "Q120525889"}], "brief_description": "", "constellations_primary": [], "constellations_other": [{"id": 358, "name": "Indigenous futurisms", "description": "An exploration of works that put First Peoples futurisms first."}], "recommendations": [], "creator_credit_for_label": "<p>Guck</p>", "headline_credit_for_label": "<p>Australia, 2022</p>", "title_for_label": "<p>Future Folklore</p>", "description": "<p>Future Folklore is Australia&#8217;s first ever Aboriginal-led mobile game, created by Guck.</p>", "description_for_label": ["<p>Future Folklore is Australia&#8217;s first ever Aboriginal-led mobile game, created by Guck.</p>"], "credit_line_for_label": "", "details": [], "stats": {"tap_count": 73}, "links": [], "creators_primary": [{"id": 1906828, "name": "Guck", "creator_id": 86996, "creator_wikidata_id": "Q120525946", "role": "creator", "role_id": 968, "is_primary": true}], "creators_other": [], "media_note": null, "holdings": [], "part_of": null, "parts": [], "part_siblings": [], "group": null, "group_works": [], "group_siblings": [], "source": null, "source_identifier": null, "eaas_environment_id": null, "production_places": [{"id": 3, "name": "Australia", "slug": "australia"}], "production_dates": [{"date": "2022", "notes": "", "to_year": "2022"}], "labels": [61291]}, {"id": 76690, "acmi_id": "014766", "title": "Printer light play", "title_annotation": "", "slug": "printer-light-play", "creator_credit": "Arthur Cantrill and Corinne Cantrill", "credit_line": "", "headline_credit": "Australia, 1978", "video_links": [], "record_type": "work", "type": "Film", "is_on_display": false, "last_on_display_place": null, "last_on_display_date": null, "is_context_indigenous": false, "material_description": "", "unpublished": false, "external": false, "first_production_date": "1978-01-01T11:00:00+11:00", "commissioned": false, "public_domain": false, "external_references": [], "brief_description": "<p>A study on the technical properties of film colour. Shot on Eastman colour negative, the film records a variety of combinations of the printer lights, blue, red and green, thus creating different colour effects with the subject, a boy holding a Kodak colour control card.</p>", "constellations_primary": [], "constellations_other": [], "recommendations": [], "creator_credit_for_label": "<p>Arthur Cantrill and Corinne Cantrill</p>", "headline_credit_for_label": "<p>Australia, 1978</p>", "title_for_label": "<p>Printer light play</p>", "description": "<p>A study on the technical properties of film colour. Shot on Eastman colour negative, the film records a variety of combinations of the printer lights, blue, red and green, thus creating different colour effects with the subject, a boy holding a Kodak colour control card.</p>", "description_for_label": ["<p>A study on the technical properties of film colour. Shot on Eastman colour negative, the film records a variety of combinations of the printer lights, blue, red and green, thus creating different colour effects with the subject, a boy holding a Kodak colour control card.</p>"], "credit_line_for_label": "", "details": [{"label": "Duration", "display_values": ["00:06:02:00"]}, {"label": "Language", "display_values": ["English"]}, {"label": "Subject categories", "display_values": ["Advertising, Film, Journalism, Mass Media & TV&nbsp;→ Color cinematography", "Crafts & Visual Arts&nbsp;→ Color - Physiological effect", "Experimental", "Experimental&nbsp;→ Experimental films - Australia", "Mathematics, Science & Technology&nbsp;→ Color - Physiological effect", "Short films", "Short films&nbsp;→ Short films - Australia"]}, {"label": "Sound/audio", "display_values": ["Sound"]}, {"label": "Colour", "display_values": ["Colour"]}], "stats": {"tap_count": 0}, "links": [], "creators_primary": [{"id": 1903986, "name": "Arthur Cantrill", "creator_id": 11442, "creator_wikidata_id": "Q27450856", "role": "co-producer", "role_id": 915, "is_primary": true}, {"id": 1903987, "name": "Corinne Cantrill", "creator_id": 11443, "creator_wikidata_id": "Q27450844", "role": "co-producer", "role_id": 915, "is_primary": true}], "creators_other": [], "media_note": "Sorry, we don't have images or video for this item.", "holdings": [{"name": "16mm film; Access Print (Section 1)", "identifier": "", "description": ""}, {"name": "MOV file ProRes4444; Digital Preservation Master - overscan", "identifier": "", "description": ""}, {"name": "MOV file ProRes4444; Digital Preservation Master - presentation", "identifier": "", "description": ""}, {"name": "MPEG-4 Digital File; ACMI Digital Access Copy - overscan", "identifier": "", "description": ""}, {"name": "MPEG-4 Digital File; ACMI Digital Access Copy - presentation", "identifier": "", "description": ""}], "part_of": null, "parts": [], "part_siblings": [], "group": null, "group_works": [], "group_siblings": [], "source": {"name": "Vernon", "slug": "vernon"}, "source_identifier": "32459", "eaas_environment_id": null, "production_places": [{"id": 3, "name": "Australia", "slug": "australia"}], "production_dates": [{"date": "1978", "notes": "Produced", "to_year": "1978"}], "labels": [16180]}, {"id": 76683, "acmi_id": "014759", "title": "Experiments in three colour separation", "title_annotation": "", "slug": "experiments-in-three-colour-separation", "creator_credit": "Arthur Cantrill and Corinne Cantrill", "credit_line": "", "headline_credit": "Australia, 1980", "video_links": [], "record_type": "work", "type": "Film", "is_on_display": false, "last_on_display_place": null, "last_on_display_date": null, "is_context_indigenous": false, "material_description": "", "unpublished": false, "external": false, "first_production_date": "1980-01-01T11:00:00+11:00", "commissioned": false, "public_domain": false, "external_references": [], "brief_description": "<p>A documentary of the work of Arthur and Corinne Cantrill since 1975 in 3-colour separation. Discusses the classic theories and principles in 3-colour separation in film and photography. Commentary by Arthur Cantrill.</p>", "constellations_primary": [], "constellations_other": [], "recommendations": [], "creator_credit_for_label": "<p>Arthur Cantrill and Corinne Cantrill</p>", "headline_credit_for_label": "<p>Australia, 1980</p>", "title_for_label": "<p>Experiments in three colour separation</p>", "description": "<p>A documentary of the work of Arthur and Corinne Cantrill since 1975 in 3-colour separation. Discusses the classic theories and principles in 3-colour separation in film and photography. Commentary by Arthur Cantrill.</p>", "description_for_label": ["<p>A documentary of the work of Arthur and Corinne Cantrill since 1975 in 3-colour separation. Discusses the classic theories and principles in 3-colour separation in film and photography. Commentary by Arthur Cantrill.</p>"], "credit_line_for_label": "", "details": [{"label": "Duration", "display_values": ["00:20:42:00"]}, {"label": "Language", "display_values": ["English"]}, {"label": "Subject categories", "display_values": ["Advertising, Film, Journalism, Mass Media & TV&nbsp;→ Color cinematography", "Crafts & Visual Arts&nbsp;→ Color - Physiological aspects", "Crafts & Visual Arts&nbsp;→ Color - Physiological effect", "Crafts & Visual Arts&nbsp;→ Color photography", "Experimental", "Experimental&nbsp;→ Experimental films - Australia", "Mathematics, Science & Technology&nbsp;→ Color - Physiological aspects", "Mathematics, Science & Technology&nbsp;→ Color - Physiological effect", "Short films", "Short films&nbsp;→ Short films - Australia"]}, {"label": "Sound/audio", "display_values": ["Sound"]}, {"label": "Colour", "display_values": ["Colour"]}], "stats": {"tap_count": 0}, "links": [], "creators_primary": [{"id": 1903984, "name": "Arthur Cantrill", "creator_id": 11442, "creator_wikidata_id": "Q27450856", "role": "co-producer", "role_id": 915, "is_primary": true}, {"id": 1903985, "name": "Corinne Cantrill", "creator_id": 11443, "creator_wikidata_id": "Q27450844", "role": "co-producer", "role_id": 915, "is_primary": true}], "creators_other": [], "media_note": "Sorry, we don't have images or video for this item.", "holdings": [{"name": "16mm film; Access Print (Section 1)", "identifier": "", "description": ""}, {"name": "MOV file ProRes4444; Digital Preservation Master - overscan", "identifier": "", "description": ""}, {"name": "MOV file ProRes4444; Digital Preservation Master - presentation", "identifier": "", "description": ""}, {"name": "MPEG-4 Digital File; ACMI Digital Access Copy - presentation", "identifier": "", "description": ""}, {"name": "MPEG-4 Digital File; ACMI Digital Access Copy - overscan", "identifier": "", "description": ""}], "part_of": null, "parts": [], "part_siblings": [], "group": null, "group_works": [], "group_siblings": [], "source": {"name": "Vernon", "slug": "vernon"}, "source_identifier": "32452", "eaas_environment_id": null, "production_places": [{"id": 3, "name": "Australia", "slug": "australia"}], "production_dates": [{"date": "1980", "notes": "Copyrighted", "to_year": "1980"}], "labels": [16173]}, {"id": 118281, "acmi_id": "R0000991", "title": "[Malcolm : publicity kit]", "title_annotation": "", "slug": "malcolm-publicity-kit", "creator_credit": "", "credit_line": "", "headline_credit": "1986", "video_links": [], "record_type": "work", "type": "Object", "is_on_display": false, "last_on_display_place": null, "last_on_display_date": null, "is_context_indigenous": false, "material_description": "", "unpublished": false, "external": false, "first_production_date": "1986-01-01T11:00:00+11:00", "commissioned": false, "public_domain": false, "external_references": [], "brief_description": "<p>Publicity kit for the production Malcolm (1986), including 6 B&amp;W Stills (Large), 12 35mm Colour Transparencies, 5 Press Kit/ Reviews, 2 B&amp;W Negatives, 1 Colour Negative Strip, 1 Cast and crew list</p>", "constellations_primary": [], "constellations_other": [], "recommendations": [], "creator_credit_for_label": "", "headline_credit_for_label": "<p>1986</p>", "title_for_label": "<p>[Malcolm : publicity kit]</p>", "description": "<p>Publicity kit for the production Malcolm (1986), including 6 B&amp;W Stills (Large), 12 35mm Colour Transparencies, 5 Press Kit/ Reviews, 2 B&amp;W Negatives, 1 Colour Negative Strip, 1 Cast and crew list</p>", "description_for_label": ["<p>Publicity kit for the production Malcolm (1986), including 6 B&amp;W Stills (Large), 12 35mm Colour Transparencies, 5 Press Kit/ Reviews, 2 B&amp;W Negatives, 1 Colour Negative Strip, 1 Cast and crew list</p>"], "credit_line_for_label": "", "details": [{"label": "Subject category", "display_values": ["Documentation"]}, {"label": "Object Types", "display_values": ["Publicity kit"]}], "stats": {"tap_count": 0}, "links": [], "creators_primary": [], "creators_other": [], "media_note": null, "holdings": [], "part_of": null, "parts": [], "part_siblings": [], "group": null, "group_works": [], "group_siblings": [], "source": {"name": "Vernon", "slug": "vernon"}, "source_identifier": "148963", "eaas_environment_id": null, "production_places": [], "production_dates": [{"date": "1986", "notes": "", "to_year": "1986"}], "labels": [57784]}]}