{"count": 28683, "next": "https://api.acmi.net.au/creators/?page=801", "previous": "https://api.acmi.net.au/creators/?page=799", "results": [{"id": 77579, "name": "Sophie Jackson", "roles_in_work": [{"id": 2317493, "title": "Sunrise at midnight", "work_id": 94645, "role": "co-producer", "role_id": 915, "is_primary": true}, {"id": 2473930, "title": "Oz shorts. Part 1", "work_id": 84172, "role": "co-producer", "role_id": 915, "is_primary": true}, {"id": 2290151, "title": "Two thirds sky", "work_id": 94023, "role": "producer", "role_id": 1089, "is_primary": true}, {"id": 1932467, "title": "Homemade history", "work_id": 95139, "role": "producer", "role_id": 1089, "is_primary": true}], "also_known_as": "", "date_of_birth": "", "date_of_death": "", "genders": [], "languages": [], "places_of_operation": [], "biography": "", "biography_author": null, "date_of_biography": "2023-08-16T03:40:26.520971+10:00", "external_links": [], "uuid": "3213c9f2-fa3c-49c3-8cd5-363f2d65c6b3", "source": {"name": "Vernon", "slug": "vernon"}, "source_identifier": "2972", "external_references": [{"id": 38590, "source": {"name": "Wikidata", "slug": "wikidata"}, "source_identifier": "Q121034992"}], "date_modified": "2023-09-06T01:23:48.656505+10:00"}, {"id": 77578, "name": "Puss Puss Productions,", "roles_in_work": [{"id": 2473929, "title": "Oz shorts. Part 1", "work_id": 84172, "role": "production company", "role_id": 941, "is_primary": true}], "also_known_as": "", "date_of_birth": "", "date_of_death": "", "genders": [], "languages": [], "places_of_operation": [], "biography": "", "biography_author": null, "date_of_biography": "2023-08-16T03:40:25.818197+10:00", "external_links": [], "uuid": "e44e09a3-4b36-4812-a2c2-80461f27c375", "source": {"name": "Vernon", "slug": "vernon"}, "source_identifier": "11746", "external_references": [], "date_modified": "2023-08-16T03:40:25.818531+10:00"}, {"id": 77577, "name": "Charles Laughton", "roles_in_work": [{"id": 1997057, "title": "The Night of the hunter [DVD]", "work_id": 93109, "role": "director", "role_id": 938, "is_primary": true}, {"id": 2614724, "title": "Spartacus", "work_id": 84158, "role": "cast", "role_id": 33, "is_primary": false}], "also_known_as": "", "date_of_birth": "01 JUL 1899", "date_of_death": "15 DEC 1962", "genders": [{"id": 9, "name": "Male", "slug": "male"}], "languages": [{"id": 1, "name": "English", "slug": "english"}], "places_of_operation": [{"id": 10, "name": "United Kingdom", "slug": "united-kingdom"}], "biography": "Charles Laughton (1 July 1899 – 15 December 1962) was an English actor. He was trained in London at the Royal Academy of Dramatic Art and first appeared professionally on the stage in 1926. In 1927, he was cast in a play with his future wife Elsa Lanchester, with whom he lived and worked until his death.\n\nHe played a wide range of classical and modern roles, making an impact in Shakespeare at the Old Vic. His film career took him to Broadway and then Hollywood, but he also collaborated with Alexander Korda on notable British films of the era, including The Private Life of Henry VIII, for which he won the Academy Award for Best Actor for his portrayal of the title character. He portrayed everything from monsters and misfits to kings. Among Laughton's biggest film hits were The Barretts of Wimpole Street, Mutiny on the Bounty, Ruggles of Red Gap, Jamaica Inn, The Hunchback of Notre Dame, The Big Clock, and Witness for the Prosecution. Daniel Day-Lewis cited Laughton as one of his inspirations, saying: \"He was probably the greatest film actor who came from that period of time. He had something quite remarkable. His generosity as an actor; he fed himself into that work. As an actor, you cannot take your eyes off him.\"In his later career, he took up stage directing, notably in The Caine Mutiny Court-Martial, and George Bernard Shaw's Don Juan in Hell, in which he also starred. He directed one film, the thriller The Night of the Hunter, which after an initially disappointing reception is acclaimed today as a film classic. Source: Wikidata; 01/08/2023", "biography_author": null, "date_of_biography": "2025-02-26T20:14:09.995422+11:00", "external_links": [{"id": 3740, "uri": "https://en.wikipedia.org/wiki/Charles_Laughton"}], "uuid": "aebede4f-e5aa-48b9-b650-cfcfd2834b5b", "source": {"name": "Vernon", "slug": "vernon"}, "source_identifier": "16695", "external_references": [{"id": 25629, "source": {"name": "Wikidata", "slug": "wikidata"}, "source_identifier": "Q55264"}, {"id": 27764, "source": {"name": "VIAF", "slug": "viaf"}, "source_identifier": "32104205"}, {"id": 27765, "source": {"name": "LOC Auth", "slug": "loc-auth"}, "source_identifier": "n50058537"}, {"id": 27766, "source": {"name": "WorldCat", "slug": "worldcat"}, "source_identifier": "lccn-n50058537"}], "date_modified": "2025-02-26T20:14:09.995632+11:00"}, {"id": 77576, "name": "Tony Curtis", "roles_in_work": [{"id": 2614723, "title": "Spartacus", "work_id": 84158, "role": "cast", "role_id": 33, "is_primary": false}], "also_known_as": "Bernard Schwartz", "date_of_birth": "03 JUN 1925", "date_of_death": "29 SEP 2010", "genders": [{"id": 9, "name": "Male", "slug": "male"}], "languages": [{"id": 1, "name": "English", "slug": "english"}, {"id": 8, "name": "Hungarian", "slug": "hungarian"}], "places_of_operation": [{"id": 1, "name": "United States of America", "slug": "united-states-of-america"}], "biography": "Tony Curtis (born Bernard Schwartz; June 3, 1925 – September 29, 2010) was an American actor whose career spanned six decades, achieving the height of his popularity in the 1950s and early 1960s. He acted in more than 100 films, in roles covering a wide range of genres. In his later years, Curtis made numerous television appearances.\n\nHe achieved his first major recognition as a dramatic actor in Sweet Smell of Success (1957) with co-star Burt Lancaster. The following year he was nominated for the Academy Award for Best Actor for The Defiant Ones (1958) alongside Sidney Poitier (who was also nominated in the same category). This was followed by the comedies Some Like It Hot and Operation Petticoat in 1959. In 1960, Curtis played a supporting role in the epic historical drama Spartacus.\n\nHis stardom and film career declined considerably after 1960. His most significant dramatic part came in 1968 when he starred in the true-life drama The Boston Strangler. Curtis also took on the role of the Ukrainian Cossack Andrei in the historical action romance epic Taras Bulba in 1962 and starred in the ITC TV series The Persuaders!, with Curtis playing American millionaire Danny Wilde. The series ran for twenty-four episodes.\n\nCurtis is the father of actresses Kelly Curtis and Jamie Lee Curtis with his first wife, actress Janet Leigh, and actresses Allegra Curtis and Alexandra Curtis with his second wife Christine Kaufmann. Source: Wikidata; 01/08/2023", "biography_author": null, "date_of_biography": "2025-02-26T20:14:09.413942+11:00", "external_links": [{"id": 5289, "uri": "https://en.wikipedia.org/wiki/Tony_Curtis"}], "uuid": "6584ff4a-860a-4684-a4f1-aea301255387", "source": {"name": "Vernon", "slug": "vernon"}, "source_identifier": "32799", "external_references": [{"id": 26831, "source": {"name": "Wikidata", "slug": "wikidata"}, "source_identifier": "Q162389"}, {"id": 31848, "source": {"name": "VIAF", "slug": "viaf"}, "source_identifier": "84973434"}, {"id": 31849, "source": {"name": "LOC Auth", "slug": "loc-auth"}, "source_identifier": "n84199940"}, {"id": 31850, "source": {"name": "WorldCat", "slug": "worldcat"}, "source_identifier": "lccn-n84199940"}], "date_modified": "2025-02-26T20:14:09.414189+11:00"}, {"id": 77575, "name": "Russell Metty", "roles_in_work": [{"id": 2614718, "title": "Spartacus", "work_id": 84158, "role": "director of photography", "role_id": 925, "is_primary": false}], "also_known_as": "", "date_of_birth": "02 SEP 1906", "date_of_death": "28 APR 1978", "genders": [{"id": 9, "name": "Male", "slug": "male"}], "languages": [], "places_of_operation": [{"id": 1, "name": "United States of America", "slug": "united-states-of-america"}], "biography": "Russell Metty, A.S.C. (September 20, 1906 – April 28, 1978) was an American cinematographer who won the Academy Award for Best Cinematography, Color, for the 1960 film Spartacus. Source: Wikidata; 01/08/2023", "biography_author": null, "date_of_biography": "2025-02-26T20:14:07.008639+11:00", "external_links": [{"id": 5094, "uri": "https://en.wikipedia.org/wiki/Russell_Metty"}], "uuid": "ceb8a99d-d77d-43d7-90ac-a60f280b32f3", "source": {"name": "Vernon", "slug": "vernon"}, "source_identifier": "38230", "external_references": [{"id": 27057, "source": {"name": "Wikidata", "slug": "wikidata"}, "source_identifier": "Q1312577"}, {"id": 31352, "source": {"name": "VIAF", "slug": "viaf"}, "source_identifier": "85938868"}, {"id": 31353, "source": {"name": "LOC Auth", "slug": "loc-auth"}, "source_identifier": "n87896340"}, {"id": 31354, "source": {"name": "WorldCat", "slug": "worldcat"}, "source_identifier": "lccn-n87896340"}], "date_modified": "2025-02-26T20:14:07.008859+11:00"}, {"id": 77574, "name": "Jim Painten", "roles_in_work": [{"id": 2353220, "title": "The Grifters", "work_id": 84128, "role": "co-producer", "role_id": 915, "is_primary": true}], "also_known_as": "", "date_of_birth": "", "date_of_death": "", "genders": [], "languages": [], "places_of_operation": [], "biography": "", "biography_author": null, "date_of_biography": "2023-05-09T19:59:58.786247+10:00", "external_links": [], "uuid": "aaba4bd6-0d9c-48f4-8830-18130142f4cf", "source": {"name": "Vernon", "slug": "vernon"}, "source_identifier": "21911", "external_references": [{"id": 39596, "source": {"name": "Wikidata", "slug": "wikidata"}, "source_identifier": "Q121078787"}], "date_modified": "2023-09-05T21:25:18.881117+10:00"}, {"id": 77573, "name": "Robert A. Harris", "roles_in_work": [{"id": 2353217, "title": "The Grifters", "work_id": 84128, "role": "co-producer", "role_id": 915, "is_primary": true}], "also_known_as": "", "date_of_birth": null, "date_of_death": "", "genders": [{"id": 9, "name": "Male", "slug": "male"}], "languages": [], "places_of_operation": [{"id": 1, "name": "United States of America", "slug": "united-states-of-america"}], "biography": "Robert A. Harris (born 1945) is an American film historian, archivist, and film preservationist.", "biography_author": "Wikidata", "date_of_biography": "2023-08-01T16:47:39.613103+10:00", "external_links": [{"id": 2958, "uri": "https://en.wikipedia.org/wiki/Robert_A._Harris"}], "uuid": "fba606d4-6ad9-4aff-a4bb-2b692bba231f", "source": {"name": "Vernon", "slug": "vernon"}, "source_identifier": "27624", "external_references": [{"id": 12568, "source": {"name": "Wikidata", "slug": "wikidata"}, "source_identifier": "Q3434385"}, {"id": 12569, "source": {"name": "VIAF", "slug": "viaf"}, "source_identifier": "100304474"}, {"id": 12570, "source": {"name": "LOC Auth", "slug": "loc-auth"}, "source_identifier": "n83213817"}], "date_modified": "2023-09-06T00:38:31.040866+10:00"}, {"id": 77572, "name": "Cineplex Odeon Films", "roles_in_work": [{"id": 2353213, "title": "The Grifters", "work_id": 84128, "role": "production company", "role_id": 941, "is_primary": true}], "also_known_as": "", "date_of_birth": "", "date_of_death": "", "genders": [], "languages": [], "places_of_operation": [], "biography": "Cineplex Odeon Films (later known as Odeon Films) was the film distribution unit of the Canadian cinema chain Cineplex Odeon Corporation. The company was originally named Pan-Canadian Film Distributors. In 1998, the company was sold off to Alliance Atlantis Communications, which eventually folded into Entertainment One.", "biography_author": "Wikidata", "date_of_biography": "2023-08-01T14:27:38.560079+10:00", "external_links": [{"id": 3776, "uri": "https://en.wikipedia.org/wiki/Cineplex_Odeon_Films"}], "uuid": "6bdcb836-b30c-443b-9464-74b99376b710", "source": {"name": "Vernon", "slug": "vernon"}, "source_identifier": "6732", "external_references": [{"id": 26948, "source": {"name": "Wikidata", "slug": "wikidata"}, "source_identifier": "Q5120868"}, {"id": 27863, "source": {"name": "VIAF", "slug": "viaf"}, "source_identifier": "152578626"}, {"id": 27864, "source": {"name": "LOC Auth", "slug": "loc-auth"}, "source_identifier": "nr97002762"}, {"id": 27865, "source": {"name": "WorldCat", "slug": "worldcat"}, "source_identifier": "lccn-nr97002762"}], "date_modified": "2023-09-05T18:38:05.204293+10:00"}, {"id": 77571, "name": "Chris Hegedus", "roles_in_work": [{"id": 2199526, "title": "Down from the mountain", "work_id": 93191, "role": "co-director", "role_id": 959, "is_primary": true}, {"id": 2476210, "title": "The War room", "work_id": 84123, "role": "co-director", "role_id": 959, "is_primary": true}, {"id": 2310272, "title": "Startup.com", "work_id": 93434, "role": "co-director", "role_id": 959, "is_primary": true}], "also_known_as": "", "date_of_birth": "1952-04-23", "date_of_death": "", "genders": [{"id": 5, "name": "Female", "slug": "female"}], "languages": [], "places_of_operation": [{"id": 1, "name": "United States of America", "slug": "united-states-of-america"}], "biography": "Chris Hegedus (born April 23, 1952) is an American documentary filmmaker. She and her husband, filmmaker D. A. Pennebaker, founded the company Pennebaker Hegedus Films.\nHegedus was nominated for an Academy Award for The War Room, a behind-the-scenes film about President Bill Clinton's 1992 campaign. The film also won the National Board of Review of Motion Pictures prize for Best Documentary. In 2001, she was awarded the Directors Guild of America Award for Outstanding Directorial Achievement for Startup.com. The film is a boom-bust story of two young internet entrepreneurs, co-produced with Jehane Noujaim. Hegedus was also the recipient of CINE's Golden Eagle Award, an Emmy Award, and lifetime achievement awards from several organizations including the International Documentary Association. Her films include the 2010 feature release, Kings of Pastry, about the legendary French pastry competition, the Meilleur Ouvrier de France. In 2011, Hegedus received the Athena Film Festival Award for Exemplary Directing.", "biography_author": "Wikidata", "date_of_biography": "2023-09-05T18:32:16.186139+10:00", "external_links": [{"id": 1812, "uri": "https://en.wikipedia.org/wiki/Chris_Hegedus"}], "uuid": "fa79312d-7473-4572-aed9-47f74447ab4c", "source": {"name": "Vernon", "slug": "vernon"}, "source_identifier": "16831", "external_references": [{"id": 7888, "source": {"name": "Wikidata", "slug": "wikidata"}, "source_identifier": "Q2964731"}, {"id": 7889, "source": {"name": "VIAF", "slug": "viaf"}, "source_identifier": "11001572"}, {"id": 7890, "source": {"name": "LOC Auth", "slug": "loc-auth"}, "source_identifier": "n84167423"}, {"id": 7891, "source": {"name": "WorldCat", "slug": "worldcat"}, "source_identifier": "lccn-n84167423"}], "date_modified": "2023-09-05T18:32:18.145912+10:00"}, {"id": 77570, "name": "Frazer Pennebaker", "roles_in_work": [{"id": 2476209, "title": "The War room", "work_id": 84123, "role": "co-producer", "role_id": 915, "is_primary": true}, {"id": 2199519, "title": "Down from the mountain", "work_id": 93191, "role": "co-producer", "role_id": 915, "is_primary": true}], "also_known_as": "", "date_of_birth": "1925-07-15", "date_of_death": "2019-08-01", "genders": [{"id": 9, "name": "Male", "slug": "male"}], "languages": [{"id": 1, "name": "English", "slug": "english"}], "places_of_operation": [{"id": 1, "name": "United States of America", "slug": "united-states-of-america"}], "biography": "Donn Alan Pennebaker (; July 15, 1925 – August 1, 2019) was an American documentary filmmaker and one of the pioneers of direct cinema. Performing arts and politics were his primary subjects. In 2013, the Academy of Motion Picture Arts and Sciences recognized his body of work with an Academy Honorary Award. Pennebaker was called by The Independent as \"arguably the pre-eminent chronicler of Sixties counterculture\".He received an Academy Award for Best Documentary Feature nomination for The War Room (1993). He is also known for directing documentaries such as Primary (1960), Dont Look Back (1967), Monterey Pop (1968), Original Cast Album: Company (1971), Eat the Document (1972), Ziggy Stardust and the Spiders from Mars (1979), Jimi Plays Monterey (1986), Elaine Stritch: At Liberty (2004), and Kings of Pastry (2009).", "biography_author": "Wikidata", "date_of_biography": "2023-09-05T19:51:57.343027+10:00", "external_links": [{"id": 1857, "uri": "https://en.wikipedia.org/wiki/D._A._Pennebaker"}], "uuid": "3495bdab-bda8-4f30-8408-b7f3947e4506", "source": {"name": "Vernon", "slug": "vernon"}, "source_identifier": "19209", "external_references": [{"id": 8924, "source": {"name": "Wikidata", "slug": "wikidata"}, "source_identifier": "Q225852"}, {"id": 8925, "source": {"name": "VIAF", "slug": "viaf"}, "source_identifier": "32191417"}, {"id": 8926, "source": {"name": "LOC Auth", "slug": "loc-auth"}, "source_identifier": "n84167422"}, {"id": 8927, "source": {"name": "WorldCat", "slug": "worldcat"}, "source_identifier": "lccn-n84167422"}], "date_modified": "2023-09-05T19:51:59.353659+10:00"}]}