{"count": 28687, "next": "https://api.acmi.net.au/creators/?page=70", "previous": "https://api.acmi.net.au/creators/?page=68", "results": [{"id": 86500, "name": "Jorde Heys", "roles_in_work": [{"id": 2718926, "title": "The Long Now", "work_id": 120329, "role": "sound designer", "role_id": 927, "is_primary": false}], "also_known_as": "", "date_of_birth": "", "date_of_death": "", "genders": [], "languages": [], "places_of_operation": [], "biography": "", "biography_author": null, "date_of_biography": "2023-07-19T03:56:22.869949+10:00", "external_links": [], "uuid": "e5fe74a7-54ac-4934-8f47-9078ba4a4d71", "source": {"name": "Vernon", "slug": "vernon"}, "source_identifier": "40402", "external_references": [], "date_modified": "2025-03-12T06:45:37.495643+11:00"}, {"id": 86499, "name": "Xanthe Dobbie", "roles_in_work": [{"id": 2718922, "title": "The Long Now", "work_id": 120329, "role": "artist", "role_id": 505, "is_primary": true}, {"id": 2728507, "title": "Oh, Sandy", "work_id": 120410, "role": "creator", "role_id": 968, "is_primary": true}], "also_known_as": "", "date_of_birth": "", "date_of_death": "", "genders": [], "languages": [], "places_of_operation": [], "biography": "Xanthe Dobbie is an Australian artist living and working on the unceded lands of the Widjabul/Wyabul people of the Bundjalung Nation in Northern NSW. Working across on- and offline modes of making, their expanded collage practice weaves together the old and the new to speak to potential futures. Drawing on humour, pop, sex, queer theory, history and iconography, their works are shrines to a post-truth era. They have exhibited extensively locally and internationally with recent projects including experimental live-streamed theatre, interactive media, AR, VR, performance and installation. In 2021, Xanthe developed new commissions for Sydney Opera House, Munch Museum, Bundoora Homestead and UQ Art Museum. In 2022, they worked on major projects for presentation at RISING Festival, The Museum of Contemporary Art, ACMI, The Lismore Regional Gallery and Grafton Regional Gallery. Xanthe is currently undertaking a PhD focusing on digital and interactive art at RMIT University.", "biography_author": null, "date_of_biography": "2025-03-12T08:38:25.527703+11:00", "external_links": [], "uuid": "25f1f8bd-4922-4f99-a267-6984d62e566a", "source": {"name": "Vernon", "slug": "vernon"}, "source_identifier": "40369", "external_references": [], "date_modified": "2025-03-12T08:38:25.527976+11:00"}, {"id": 86498, "name": "Times Square", "roles_in_work": [{"id": 2720102, "title": "James Webb telescope in Times Square", "work_id": 120328, "role": "creator", "role_id": 968, "is_primary": true}], "also_known_as": "", "date_of_birth": "", "date_of_death": "", "genders": [], "languages": [], "places_of_operation": [], "biography": "", "biography_author": null, "date_of_biography": "2023-08-16T04:08:46.752533+10:00", "external_links": [], "uuid": "2e4a2f5c-ca72-4eda-a293-136495980fa9", "source": {"name": "Vernon", "slug": "vernon"}, "source_identifier": "40417", "external_references": [], "date_modified": "2025-03-12T07:08:13.313652+11:00"}, {"id": 86497, "name": "@Rick42069", "roles_in_work": [{"id": 2717586, "title": "#MorbiusSweep", "work_id": 120102, "role": "creator", "role_id": 968, "is_primary": true}], "also_known_as": "", "date_of_birth": "", "date_of_death": "", "genders": [], "languages": [], "places_of_operation": [], "biography": "", "biography_author": null, "date_of_biography": "2023-08-16T04:08:29.206537+10:00", "external_links": [], "uuid": "7e675dbf-1c63-4eb6-b039-12d9bf198f13", "source": {"name": "Vernon", "slug": "vernon"}, "source_identifier": "40313", "external_references": [], "date_modified": "2025-03-12T06:02:02.932483+11:00"}, {"id": 86496, "name": "@tacobelldollamenu", "roles_in_work": [{"id": 2720068, "title": "\"We Will Adopt Your Baby\"", "work_id": 120323, "role": "creator", "role_id": 968, "is_primary": true}], "also_known_as": "", "date_of_birth": "", "date_of_death": "", "genders": [], "languages": [], "places_of_operation": [], "biography": "", "biography_author": null, "date_of_biography": "2023-08-16T04:08:44.374048+10:00", "external_links": [], "uuid": "8d8c76f2-8cbe-4cd8-8597-c076ac0ad3ce", "source": {"name": "Vernon", "slug": "vernon"}, "source_identifier": "40403", "external_references": [], "date_modified": "2025-03-12T07:08:00.094794+11:00"}, {"id": 86485, "name": "@Gutknot", "roles_in_work": [{"id": 2720100, "title": "Tractor Goth Girl", "work_id": 120324, "role": "creator", "role_id": 968, "is_primary": true}], "also_known_as": "", "date_of_birth": "", "date_of_death": "", "genders": [], "languages": [], "places_of_operation": [], "biography": "", "biography_author": null, "date_of_biography": "2023-08-16T04:08:45.672110+10:00", "external_links": [], "uuid": "c715de5b-795c-4f66-83c5-6723f246eb4e", "source": {"name": "Vernon", "slug": "vernon"}, "source_identifier": "40413", "external_references": [], "date_modified": "2025-03-12T07:08:12.391165+11:00"}, {"id": 86484, "name": "Esmeralda", "roles_in_work": [], "also_known_as": "", "date_of_birth": null, "date_of_death": null, "genders": [], "languages": [], "places_of_operation": [], "biography": "", "biography_author": null, "date_of_biography": null, "external_links": [], "uuid": "acb79c3e-1475-4e01-96d1-d9244ca07aa9", "source": {"name": "Vernon", "slug": "vernon"}, "source_identifier": null, "external_references": [], "date_modified": "2023-06-14T16:33:30.576250+10:00"}, {"id": 86483, "name": "@NautPoso", "roles_in_work": [{"id": 2720064, "title": "Joe Biden takes a tumble", "work_id": 120321, "role": "creator", "role_id": 968, "is_primary": true}], "also_known_as": "", "date_of_birth": "", "date_of_death": "", "genders": [], "languages": [], "places_of_operation": [], "biography": "", "biography_author": null, "date_of_biography": "2023-08-16T04:08:43.325896+10:00", "external_links": [], "uuid": "d5993310-16f5-4def-a116-4009e8f2e500", "source": {"name": "Vernon", "slug": "vernon"}, "source_identifier": "40399", "external_references": [], "date_modified": "2025-03-12T07:07:58.731051+11:00"}, {"id": 86482, "name": "Steven Rhall", "roles_in_work": [{"id": 2719625, "title": "Avert", "work_id": 120316, "role": "artist", "role_id": 505, "is_primary": true}], "also_known_as": "", "date_of_birth": "", "date_of_death": "", "genders": [], "languages": [], "places_of_operation": [], "biography": "Steven Rhall is a post-conceptual artist operating from a First Nation, white-passing, queer, cis male positionality, geographically located on neighbouring Woiwurrung and Wathaurung lands. Rhall’s cultural background consists of Taungurung and colonial heritages – a state endemic to living in a colonised society – but goes by Taungurung when asked. His alter-ego Blak Metal is less defined and uses they/them pronouns.\n\nRhall’s art practice finds expression in ideas of institutional critique, interrogating modes of representation, classification and hierarchy both within and external to the art world(s). He works across various forms and interventions, including installation, performance, process led methodologies, curatorial projects, sculpture and art within the public realm. Many of his projects propose, explore and critique the exchange of economic and cultural capital found in the matrix of relations and intersections of First Nation art production, presentation and encounter.\n\nRhall recently concluded a five year tenure as lecturer for the Master of Contemporary Art programme at the Victorian College of the Arts and now, alongside his art practice, supports First Nations participants in the Statewide Indigenous Arts in Prisons and Community Program. Rhall is also represented by MARS Gallery on Birrarung-ga land (Melbourne, Australia).", "biography_author": null, "date_of_biography": "2025-03-12T07:06:05.744260+11:00", "external_links": [], "uuid": "706257c1-8f4c-4542-a547-ce3858f4f2b9", "source": {"name": "Vernon", "slug": "vernon"}, "source_identifier": "40387", "external_references": [], "date_modified": "2025-03-12T07:06:05.744507+11:00"}, {"id": 86481, "name": "@Cmebacktoearth", "roles_in_work": [{"id": 2719521, "title": "Max floating to songs", "work_id": 120311, "role": "creator", "role_id": 968, "is_primary": true}], "also_known_as": "", "date_of_birth": "", "date_of_death": "", "genders": [], "languages": [], "places_of_operation": [], "biography": "", "biography_author": null, "date_of_biography": "2023-08-16T04:08:42.269436+10:00", "external_links": [], "uuid": "fe45413f-4761-439c-bc1c-6f64901e8294", "source": {"name": "Vernon", "slug": "vernon"}, "source_identifier": "40384", "external_references": [], "date_modified": "2025-03-12T07:05:38.820712+11:00"}]}