{"count": 28683, "next": "https://api.acmi.net.au/creators/?page=1049", "previous": "https://api.acmi.net.au/creators/?page=1047", "results": [{"id": 75098, "name": "Sydney John Kay", "roles_in_work": [{"id": 2392787, "title": "Know your children", "work_id": 95761, "role": "composer", "role_id": 538, "is_primary": false}, {"id": 2328841, "title": "The Australian story: overlanders of tomorrow", "work_id": 95749, "role": "music", "role_id": 949, "is_primary": false}, {"id": 2042892, "title": "Native Earth", "work_id": 70765, "role": "music", "role_id": 949, "is_primary": false}], "also_known_as": "", "date_of_birth": "", "date_of_death": "", "genders": [], "languages": [], "places_of_operation": [], "biography": "", "biography_author": null, "date_of_biography": "2023-08-09T04:08:34.152433+10:00", "external_links": [], "uuid": "8dd9a03f-263a-42a7-a742-e2cde93e8421", "source": {"name": "Vernon", "slug": "vernon"}, "source_identifier": "35340", "external_references": [{"id": 51168, "source": {"name": "Wikidata", "slug": "wikidata"}, "source_identifier": "Q121361424"}], "date_modified": "2023-09-06T01:38:46.975921+10:00"}, {"id": 75097, "name": "Peter Finch", "roles_in_work": [{"id": 2751763, "title": "Dad and Dave come to town", "work_id": 97968, "role": "cast", "role_id": 33, "is_primary": false}, {"id": 2750710, "title": "Indonesia calling", "work_id": 97460, "role": "narrator", "role_id": 499, "is_primary": false}, {"id": 2042891, "title": "Native Earth", "work_id": 70765, "role": "narrator", "role_id": 499, "is_primary": false}, {"id": 2392016, "title": "The Queen in Australia", "work_id": 71983, "role": "narrator", "role_id": 499, "is_primary": false}, {"id": 860116, "title": "The Unforgotten", "work_id": 74183, "role": "narrator", "role_id": 499, "is_primary": false}], "also_known_as": "", "date_of_birth": "1916", "date_of_death": "1977", "genders": [{"id": 9, "name": "Male", "slug": "male"}], "languages": [{"id": 1, "name": "English", "slug": "english"}], "places_of_operation": [{"id": 10, "name": "United Kingdom", "slug": "united-kingdom"}], "biography": "Frederick George Peter Ingle Finch (28 September 1916 – 14 January 1977) was an English-Australian actor of theatre, film and radio.Born in London, he emigrated to Australia as a teenager and was raised in Sydney, where he worked in vaudeville and radio before becoming a star of Australian films. Joining the Old Vic Company after World War II, he achieved widespread critical success in Britain for both stage and screen performances. One of British cinema's most celebrated leading men of the time, Finch won the BAFTA Award for Best Actor in a Leading Role five times, and won a posthumous Academy Award for Best Actor for his portrayal of crazed television anchorman Howard Beale in the 1976 film Network.\nAccording to the British Film Institute, \"it is arguable that no other actor ever chalked up such a rewarding CV in British films, and he accumulated the awards to bolster this view\". He died only two months before the 49th Academy Awards, making him the first person to win a posthumous Oscar in an acting category. As of 2023, the only other person to have done so was fellow Australian Heath Ledger.\n\n", "biography_author": "Wikidata", "date_of_biography": "2023-08-15T12:06:07.983955+10:00", "external_links": [{"id": 4875, "uri": "https://en.wikipedia.org/wiki/Peter_Finch"}], "uuid": "07bfef85-75e8-446c-bf68-21cf91913811", "source": {"name": "Vernon", "slug": "vernon"}, "source_identifier": "33301", "external_references": [{"id": 25323, "source": {"name": "Wikidata", "slug": "wikidata"}, "source_identifier": "Q294454"}, {"id": 30773, "source": {"name": "VIAF", "slug": "viaf"}, "source_identifier": "100242622"}, {"id": 30774, "source": {"name": "LOC Auth", "slug": "loc-auth"}, "source_identifier": "n80037893"}, {"id": 30775, "source": {"name": "WorldCat", "slug": "worldcat"}, "source_identifier": "lccn-n80037893"}], "date_modified": "2025-03-13T00:50:52.686904+11:00"}, {"id": 75096, "name": "Robert W Larsen", "roles_in_work": [{"id": 2463834, "title": "Narcotics: the decision (D)", "work_id": 70750, "role": "producer/director", "role_id": 31, "is_primary": true}], "also_known_as": "", "date_of_birth": "", "date_of_death": "", "genders": [], "languages": [], "places_of_operation": [], "biography": "", "biography_author": null, "date_of_biography": "2023-08-14T09:59:01.911635+10:00", "external_links": [], "uuid": "2e229f0e-fcac-4d9b-853f-b67afe82a900", "source": {"name": "Vernon", "slug": "vernon"}, "source_identifier": "27910", "external_references": [{"id": 50824, "source": {"name": "Wikidata", "slug": "wikidata"}, "source_identifier": "Q121360687"}], "date_modified": "2023-09-06T00:47:46.059529+10:00"}, {"id": 75095, "name": "Ralph Foster", "roles_in_work": [{"id": 2473964, "title": "Namatjira the painter", "work_id": 86310, "role": "producer/director", "role_id": 31, "is_primary": true}, {"id": 2042882, "title": "Namatjira the painter. - Rev. ed.", "work_id": 70738, "role": "producer/director", "role_id": 31, "is_primary": true}], "also_known_as": "", "date_of_birth": "", "date_of_death": "", "genders": [], "languages": [], "places_of_operation": [], "biography": "", "biography_author": null, "date_of_biography": "2023-08-16T03:40:49.922135+10:00", "external_links": [], "uuid": "19c9182d-8e42-40d8-9198-2b1cad7eef0e", "source": {"name": "Vernon", "slug": "vernon"}, "source_identifier": "27078", "external_references": [{"id": 51594, "source": {"name": "Wikidata", "slug": "wikidata"}, "source_identifier": "Q121360972"}], "date_modified": "2023-09-06T00:19:13.662841+10:00"}, {"id": 75094, "name": "Rustom Master", "roles_in_work": [{"id": 2166166, "title": "My lady nicotine", "work_id": 70720, "role": "co-director", "role_id": 959, "is_primary": true}], "also_known_as": "", "date_of_birth": "", "date_of_death": "", "genders": [], "languages": [], "places_of_operation": [], "biography": "", "biography_author": null, "date_of_biography": "2023-05-09T14:25:31.779191+10:00", "external_links": [], "uuid": "8b79841b-8e96-443a-bfd6-cd7341b4d2ff", "source": {"name": "Vernon", "slug": "vernon"}, "source_identifier": "28374", "external_references": [{"id": 34802, "source": {"name": "Wikidata", "slug": "wikidata"}, "source_identifier": "Q121126341"}], "date_modified": "2023-09-06T00:59:51.286712+10:00"}, {"id": 75093, "name": "Gil LaRoche", "roles_in_work": [{"id": 748711, "title": "Music professor", "work_id": 70707, "role": "director", "role_id": 938, "is_primary": true}, {"id": 800385, "title": "The Motorman", "work_id": 88637, "role": "director", "role_id": 938, "is_primary": true}], "also_known_as": "", "date_of_birth": null, "date_of_death": null, "genders": [], "languages": [], "places_of_operation": [], "biography": "", "biography_author": null, "date_of_biography": null, "external_links": [], "uuid": "4909e769-3fe8-434b-a5e7-bad980374072", "source": {"name": "Vernon", "slug": "vernon"}, "source_identifier": null, "external_references": [{"id": 34792, "source": {"name": "Wikidata", "slug": "wikidata"}, "source_identifier": "Q121314998"}], "date_modified": "2023-09-05T20:11:54.008993+10:00"}, {"id": 75092, "name": "L Woodley Page", "roles_in_work": [{"id": 895184, "title": "Music in the making", "work_id": 70700, "role": "co-director", "role_id": 959, "is_primary": true}], "also_known_as": "", "date_of_birth": null, "date_of_death": null, "genders": [], "languages": [], "places_of_operation": [], "biography": "", "biography_author": null, "date_of_biography": null, "external_links": [], "uuid": "0f0f8072-32d7-4453-9c2c-b0e69f612967", "source": {"name": "Vernon", "slug": "vernon"}, "source_identifier": null, "external_references": [{"id": 36211, "source": {"name": "Wikidata", "slug": "wikidata"}, "source_identifier": "Q121086024"}], "date_modified": "2023-09-05T22:13:15.472429+10:00"}, {"id": 75091, "name": "David Allen Parry", "roles_in_work": [{"id": 2467634, "title": "The Music child. Parts 1 and 2", "work_id": 70694, "role": "producer/director", "role_id": 31, "is_primary": true}, {"id": 2467638, "title": "The Music child. Parts 1 and 2 (TEFC)", "work_id": 70693, "role": "producer/director", "role_id": 31, "is_primary": true}], "also_known_as": "", "date_of_birth": "", "date_of_death": "", "genders": [], "languages": [], "places_of_operation": [], "biography": "", "biography_author": null, "date_of_biography": "2023-08-14T11:24:23.773838+10:00", "external_links": [], "uuid": "1e881545-084c-4250-b63f-a69556792f70", "source": {"name": "Vernon", "slug": "vernon"}, "source_identifier": "17487", "external_references": [{"id": 50784, "source": {"name": "Wikidata", "slug": "wikidata"}, "source_identifier": "Q121360984"}], "date_modified": "2023-09-05T18:54:07.637604+10:00"}, {"id": 75090, "name": "I Lerner", "roles_in_work": [{"id": 2463762, "title": "Muscle beach", "work_id": 70682, "role": "co-producer", "role_id": 915, "is_primary": true}], "also_known_as": "", "date_of_birth": "", "date_of_death": "", "genders": [], "languages": [], "places_of_operation": [], "biography": "", "biography_author": null, "date_of_biography": "2023-08-14T09:57:30.269798+10:00", "external_links": [], "uuid": "8a71ce80-8dd3-42d4-b802-7441497aadba", "source": {"name": "Vernon", "slug": "vernon"}, "source_identifier": "20723", "external_references": [{"id": 35023, "source": {"name": "Wikidata", "slug": "wikidata"}, "source_identifier": "Q121036427"}], "date_modified": "2023-09-05T20:45:09.281046+10:00"}, {"id": 75089, "name": "J Strick", "roles_in_work": [{"id": 2463761, "title": "Muscle beach", "work_id": 70682, "role": "co-producer", "role_id": 915, "is_primary": true}], "also_known_as": "", "date_of_birth": "1923-07-06", "date_of_death": "2010-06-02", "genders": [{"id": 9, "name": "Male", "slug": "male"}], "languages": [], "places_of_operation": [{"id": 1, "name": "United States of America", "slug": "united-states-of-america"}], "biography": "Joseph Ezekiel Strick (July 6, 1923 – June 1, 2010, aged 86) was an American director, producer and screenwriter.\n\n", "biography_author": "Wikidata", "date_of_biography": "2023-09-05T20:53:40.370437+10:00", "external_links": [{"id": 2273, "uri": "https://en.wikipedia.org/wiki/Joseph_Strick"}], "uuid": "f784a0a6-033e-4429-a76f-88ec717177bb", "source": {"name": "Vernon", "slug": "vernon"}, "source_identifier": "21004", "external_references": [{"id": 9766, "source": {"name": "Wikidata", "slug": "wikidata"}, "source_identifier": "Q40701"}, {"id": 9767, "source": {"name": "VIAF", "slug": "viaf"}, "source_identifier": "115079216"}, {"id": 9768, "source": {"name": "LOC Auth", "slug": "loc-auth"}, "source_identifier": "n86013807"}, {"id": 9769, "source": {"name": "WorldCat", "slug": "worldcat"}, "source_identifier": "lccn-n86013807"}], "date_modified": "2023-09-05T20:53:40.380284+10:00"}]}