{"count": 28687, "next": "https://api.acmi.net.au/creators/?page=1685", "previous": "https://api.acmi.net.au/creators/?page=1683", "results": [{"id": 28993, "name": "Gecko Films", "roles_in_work": [{"id": 2476557, "title": "Japanese Story", "work_id": 94855, "role": "production company", "role_id": 941, "is_primary": true}, {"id": 794966, "title": "Road to Nhill", "work_id": 87063, "role": "production company", "role_id": 941, "is_primary": true}], "also_known_as": "", "date_of_birth": "", "date_of_death": "", "genders": [], "languages": [], "places_of_operation": [], "biography": "", "biography_author": null, "date_of_biography": "2023-08-17T15:38:14.212860+10:00", "external_links": [], "uuid": "a16df12c-7491-4c27-aa05-8aaf7363dff5", "source": {"name": "Vernon", "slug": "vernon"}, "source_identifier": "8670", "external_references": [], "date_modified": "2023-08-17T15:38:14.213104+10:00"}, {"id": 28992, "name": "Robert Littlewood", "roles_in_work": [{"id": 2397700, "title": "A life in your hands", "work_id": 87062, "role": "director", "role_id": 938, "is_primary": true}, {"id": 871505, "title": "The Unconscious casualty", "work_id": 87061, "role": "director", "role_id": 938, "is_primary": true}, {"id": 2753340, "title": "Not just for my own . . ': parent participation in education", "work_id": 98717, "role": "producer", "role_id": 1089, "is_primary": true}], "also_known_as": "", "date_of_birth": "", "date_of_death": "", "genders": [], "languages": [], "places_of_operation": [], "biography": "", "biography_author": null, "date_of_biography": "2023-08-11T13:03:36.483739+10:00", "external_links": [], "uuid": "38baca04-8128-48d8-b8ae-5506dff1e0ca", "source": {"name": "Vernon", "slug": "vernon"}, "source_identifier": "27812", "external_references": [], "date_modified": "2025-03-13T01:22:28.800556+11:00"}, {"id": 28991, "name": "Safe Work Video", "roles_in_work": [{"id": 871504, "title": "The Unconscious casualty", "work_id": 87061, "role": "production company", "role_id": 941, "is_primary": true}, {"id": 2397699, "title": "A life in your hands", "work_id": 87062, "role": "production company", "role_id": 941, "is_primary": true}], "also_known_as": "", "date_of_birth": "", "date_of_death": "", "genders": [], "languages": [], "places_of_operation": [], "biography": "", "biography_author": null, "date_of_biography": "2023-08-11T13:03:35.836078+10:00", "external_links": [], "uuid": "761def38-4db9-4233-a08e-488cd8958f15", "source": {"name": "Vernon", "slug": "vernon"}, "source_identifier": "12230", "external_references": [], "date_modified": "2023-08-11T13:03:35.836381+10:00"}, {"id": 28985, "name": "Our Bizniss Productions", "roles_in_work": [{"id": 2102594, "title": "Assertive team communication", "work_id": 87049, "role": "production company", "role_id": 941, "is_primary": true}], "also_known_as": "", "date_of_birth": "", "date_of_death": "", "genders": [], "languages": [], "places_of_operation": [], "biography": "", "biography_author": null, "date_of_biography": "2023-05-09T12:33:33.279439+10:00", "external_links": [], "uuid": "788478f5-f54a-4f17-a111-61f79361f491", "source": {"name": "Vernon", "slug": "vernon"}, "source_identifier": "11196", "external_references": [{"id": 37472, "source": {"name": "Wikidata", "slug": "wikidata"}, "source_identifier": "Q121222584"}], "date_modified": "2023-09-05T23:38:04.057661+10:00"}, {"id": 28984, "name": "Kelli Simpson", "roles_in_work": [{"id": 2511212, "title": "Two Girls and a Baby", "work_id": 87048, "role": "director", "role_id": 938, "is_primary": true}, {"id": 810317, "title": "This marching girl thing", "work_id": 92136, "role": "director", "role_id": 938, "is_primary": true}], "also_known_as": "", "date_of_birth": null, "date_of_death": null, "genders": [], "languages": [], "places_of_operation": [], "biography": "", "biography_author": null, "date_of_biography": null, "external_links": [], "uuid": "db75b261-fc71-46ad-b45b-5b386eb8cc17", "source": {"name": "Vernon", "slug": "vernon"}, "source_identifier": "23162", "external_references": [], "date_modified": "2024-02-21T03:35:42.848127+11:00"}, {"id": 28983, "name": "Annamax Media", "roles_in_work": [{"id": 2511210, "title": "Two Girls and a Baby", "work_id": 87048, "role": "production company", "role_id": 941, "is_primary": true}, {"id": 2317551, "title": "Sugar Slaves", "work_id": 92994, "role": "production company", "role_id": 941, "is_primary": true}, {"id": 2192101, "title": "Paying for the past [Widescreen]", "work_id": 94176, "role": "production company", "role_id": 941, "is_primary": true}, {"id": 803761, "title": "Where angels fear to tread", "work_id": 89801, "role": "production company", "role_id": 941, "is_primary": true}], "also_known_as": "", "date_of_birth": "", "date_of_death": "", "genders": [], "languages": [], "places_of_operation": [], "biography": "", "biography_author": null, "date_of_biography": "2023-05-09T19:07:13.634274+10:00", "external_links": [], "uuid": "11c04e1f-72ba-4eec-a891-32ac0865949a", "source": {"name": "Vernon", "slug": "vernon"}, "source_identifier": "5274", "external_references": [{"id": 32365, "source": {"name": "Wikidata", "slug": "wikidata"}, "source_identifier": "Q121315070"}], "date_modified": "2024-02-21T03:35:41.498088+11:00"}, {"id": 28982, "name": "David Witt", "roles_in_work": [{"id": 2186178, "title": "Panorama: the state wide screen [excerpts No. 1]", "work_id": 87047, "role": "producer", "role_id": 1089, "is_primary": true}], "also_known_as": "", "date_of_birth": "", "date_of_death": "", "genders": [], "languages": [], "places_of_operation": [], "biography": "", "biography_author": null, "date_of_biography": "2023-05-09T15:01:28.857207+10:00", "external_links": [], "uuid": "885e44e8-e7c4-456d-90a7-cde4354e7308", "source": {"name": "Vernon", "slug": "vernon"}, "source_identifier": "17856", "external_references": [{"id": 36595, "source": {"name": "Wikidata", "slug": "wikidata"}, "source_identifier": "Q121035335"}], "date_modified": "2023-09-05T19:04:05.805808+10:00"}, {"id": 28981, "name": "Davis Doi", "roles_in_work": [{"id": 2236276, "title": "Rapunzel", "work_id": 87043, "role": "producer", "role_id": 1089, "is_primary": true}], "also_known_as": "", "date_of_birth": "", "date_of_death": "", "genders": [], "languages": [], "places_of_operation": [], "biography": "", "biography_author": null, "date_of_biography": "2023-05-09T16:46:26.118764+10:00", "external_links": [], "uuid": "e00fbf22-7224-4525-93a5-e41186f01e83", "source": {"name": "Vernon", "slug": "vernon"}, "source_identifier": "17868", "external_references": [], "date_modified": "2023-06-14T16:33:30.576250+10:00"}, {"id": 28980, "name": "Hallmark Cards Incorporated", "roles_in_work": [{"id": 2236273, "title": "Rapunzel", "work_id": 87043, "role": "production company", "role_id": 941, "is_primary": true}], "also_known_as": "", "date_of_birth": "", "date_of_death": "", "genders": [], "languages": [], "places_of_operation": [], "biography": "", "biography_author": null, "date_of_biography": "2023-05-09T16:46:25.863687+10:00", "external_links": [], "uuid": "5cd1e6f7-c006-4d13-9781-b6a9659b75d6", "source": {"name": "Vernon", "slug": "vernon"}, "source_identifier": "8970", "external_references": [], "date_modified": "2023-06-14T16:33:30.576250+10:00"}, {"id": 28978, "name": "Totem Productions", "roles_in_work": [{"id": 2794330, "title": "A Democratic time-bomb", "work_id": 87038, "role": "production company", "role_id": 941, "is_primary": true}], "also_known_as": "", "date_of_birth": "", "date_of_death": "", "genders": [], "languages": [], "places_of_operation": [], "biography": "", "biography_author": null, "date_of_biography": "2023-05-09T17:08:53.213036+10:00", "external_links": [], "uuid": "9babe929-cd50-406c-914d-c4b16d69bc62", "source": {"name": "Vernon", "slug": "vernon"}, "source_identifier": "13666", "external_references": [{"id": 51462, "source": {"name": "Wikidata", "slug": "wikidata"}, "source_identifier": "Q121357979"}], "date_modified": "2025-03-14T20:24:42.706001+11:00"}]}