{"count": 28687, "next": "https://api.acmi.net.au/creators/?page=1315", "previous": "https://api.acmi.net.au/creators/?page=1313", "results": [{"id": 38654, "name": "Patrick Melly", "roles_in_work": [{"id": 2751823, "title": "The Juggling movie", "work_id": 98001, "role": "director", "role_id": 938, "is_primary": true}], "also_known_as": "", "date_of_birth": null, "date_of_death": null, "genders": [], "languages": [], "places_of_operation": [], "biography": "", "biography_author": null, "date_of_biography": null, "external_links": [], "uuid": "8d9a2d1b-cbcd-4ed8-a71c-49d6c3659cf7", "source": {"name": "Vernon", "slug": "vernon"}, "source_identifier": "26143", "external_references": [], "date_modified": "2025-03-13T00:51:37.697815+11:00"}, {"id": 38653, "name": "Professional Research", "roles_in_work": [{"id": 2751819, "title": "A Child's visit to the dentist", "work_id": 97999, "role": "production company", "role_id": 941, "is_primary": true}, {"id": 2752038, "title": "Coping with stress", "work_id": 98106, "role": "production company", "role_id": 941, "is_primary": true}], "also_known_as": "", "date_of_birth": "", "date_of_death": "", "genders": [], "languages": [], "places_of_operation": [], "biography": "", "biography_author": null, "date_of_biography": "2023-08-11T15:46:00.835132+10:00", "external_links": [], "uuid": "989fa6fe-3872-41de-9acb-456f9d5d08c5", "source": {"name": "Vernon", "slug": "vernon"}, "source_identifier": "11684", "external_references": [], "date_modified": "2025-03-13T00:56:31.481341+11:00"}, {"id": 38652, "name": "Megan Epler", "roles_in_work": [{"id": 2408895, "title": "Guanaco of Patagonia", "work_id": 97995, "role": "director", "role_id": 938, "is_primary": true}], "also_known_as": "", "date_of_birth": "", "date_of_death": "", "genders": [], "languages": [], "places_of_operation": [], "biography": "", "biography_author": null, "date_of_biography": "2023-08-11T17:10:50.301492+10:00", "external_links": [], "uuid": "3fbf68eb-c5aa-46a2-aa4b-85af51904ca3", "source": {"name": "Vernon", "slug": "vernon"}, "source_identifier": "24903", "external_references": [], "date_modified": "2023-08-11T17:10:50.301769+10:00"}, {"id": 38651, "name": "William L. Franklin", "roles_in_work": [{"id": 2408894, "title": "Guanaco of Patagonia", "work_id": 97995, "role": "producer", "role_id": 1089, "is_primary": true}], "also_known_as": "", "date_of_birth": "", "date_of_death": "", "genders": [], "languages": [], "places_of_operation": [], "biography": "", "biography_author": null, "date_of_biography": "2023-08-11T17:10:49.667372+10:00", "external_links": [], "uuid": "96e8d0a7-96dd-4763-a3d9-da1833aff3de", "source": {"name": "Vernon", "slug": "vernon"}, "source_identifier": "30461", "external_references": [], "date_modified": "2023-08-11T17:10:49.667624+10:00"}, {"id": 38650, "name": "Jon Miller", "roles_in_work": [{"id": 2751810, "title": "Main control", "work_id": 97992, "role": "producer", "role_id": 1089, "is_primary": true}], "also_known_as": "", "date_of_birth": null, "date_of_death": null, "genders": [], "languages": [], "places_of_operation": [], "biography": "", "biography_author": null, "date_of_biography": null, "external_links": [], "uuid": "823c991f-4beb-4b47-9f4d-e86f74cbeb2a", "source": {"name": "Vernon", "slug": "vernon"}, "source_identifier": "22614", "external_references": [], "date_modified": "2025-03-13T00:51:28.591413+11:00"}, {"id": 38649, "name": "Traffic Accident Research Unit", "roles_in_work": [{"id": 2751802, "title": "Thirsty season", "work_id": 97990, "role": "production company", "role_id": 941, "is_primary": true}], "also_known_as": "", "date_of_birth": null, "date_of_death": null, "genders": [], "languages": [], "places_of_operation": [], "biography": "", "biography_author": null, "date_of_biography": null, "external_links": [], "uuid": "28175056-cb1e-468e-b5c5-ebce0271e2be", "source": {"name": "Vernon", "slug": "vernon"}, "source_identifier": "13679", "external_references": [], "date_modified": "2025-03-13T00:51:20.911214+11:00"}, {"id": 38648, "name": "Richard Davis", "roles_in_work": [{"id": 2751803, "title": "Thirsty season", "work_id": 97990, "role": "producer", "role_id": 1089, "is_primary": true}, {"id": 2751799, "title": "Saturday night again", "work_id": 97989, "role": "producer", "role_id": 1089, "is_primary": true}], "also_known_as": "", "date_of_birth": null, "date_of_death": null, "genders": [], "languages": [], "places_of_operation": [], "biography": "", "biography_author": null, "date_of_biography": null, "external_links": [], "uuid": "01f1690b-a0ba-4ea9-ba8a-b9429ee294bb", "source": {"name": "Vernon", "slug": "vernon"}, "source_identifier": "27365", "external_references": [], "date_modified": "2025-03-13T00:51:21.504936+11:00"}, {"id": 38647, "name": "Department of Defense", "roles_in_work": [{"id": 2751796, "title": "Let there be light", "work_id": 97988, "role": "production company", "role_id": 941, "is_primary": true}], "also_known_as": "", "date_of_birth": null, "date_of_death": null, "genders": [], "languages": [], "places_of_operation": [], "biography": "", "biography_author": null, "date_of_biography": null, "external_links": [], "uuid": "a5043512-60e4-4d52-93cd-4f3c57016990", "source": {"name": "Vernon", "slug": "vernon"}, "source_identifier": "7425", "external_references": [], "date_modified": "2025-03-13T00:51:17.412688+11:00"}, {"id": 38643, "name": "Gazelle Film Productions", "roles_in_work": [{"id": 2751792, "title": "Platinum", "work_id": 97984, "role": "production company", "role_id": 941, "is_primary": true}], "also_known_as": "", "date_of_birth": "", "date_of_death": "", "genders": [], "languages": [], "places_of_operation": [], "biography": "", "biography_author": null, "date_of_biography": "2023-08-14T10:22:14.653234+10:00", "external_links": [], "uuid": "c9f212fd-ce34-4cf2-9a0c-99dbe1f4432c", "source": {"name": "Vernon", "slug": "vernon"}, "source_identifier": "8661", "external_references": [], "date_modified": "2025-03-13T00:51:12.574043+11:00"}, {"id": 38642, "name": "Copperfield Films", "roles_in_work": [{"id": 2751777, "title": "Dear diary", "work_id": 97977, "role": "production company", "role_id": 941, "is_primary": true}], "also_known_as": "", "date_of_birth": "", "date_of_death": "", "genders": [], "languages": [], "places_of_operation": [], "biography": "", "biography_author": null, "date_of_biography": "2023-05-09T14:55:40.769196+10:00", "external_links": [], "uuid": "dc04ae9b-507f-488f-996c-4cad977604e9", "source": {"name": "Vernon", "slug": "vernon"}, "source_identifier": "7048", "external_references": [{"id": 34560, "source": {"name": "Wikidata", "slug": "wikidata"}, "source_identifier": "Q121222859"}], "date_modified": "2025-03-13T00:51:02.861916+11:00"}]}