{"count": 28687, "next": "https://api.acmi.net.au/creators/?page=2380", "previous": "https://api.acmi.net.au/creators/?page=2378", "results": [{"id": 15439, "name": "Andrew Holmes", "roles_in_work": [{"id": 2715087, "title": "Hallmarking", "work_id": 68273, "role": "director", "role_id": 938, "is_primary": true}, {"id": 748590, "title": "Mr Shepard & Mr Milne = Mr Shepard and Mr Milne", "work_id": 70661, "role": "producer/director", "role_id": 31, "is_primary": true}], "also_known_as": "", "date_of_birth": "", "date_of_death": "", "genders": [], "languages": [], "places_of_operation": [], "biography": "", "biography_author": null, "date_of_biography": "2023-08-11T17:12:02.118094+10:00", "external_links": [], "uuid": "214a6282-a29c-4d7b-b9d3-bdac65b6356a", "source": {"name": "Vernon", "slug": "vernon"}, "source_identifier": "15172", "external_references": [], "date_modified": "2025-03-12T01:26:47.001026+11:00"}, {"id": 15438, "name": "Goldsmith's Company of London", "roles_in_work": [{"id": 2715085, "title": "Hallmarking", "work_id": 68273, "role": "production company", "role_id": 941, "is_primary": true}], "also_known_as": "", "date_of_birth": "", "date_of_death": "", "genders": [], "languages": [], "places_of_operation": [], "biography": "", "biography_author": null, "date_of_biography": "2023-08-11T17:12:00.786561+10:00", "external_links": [], "uuid": "4c3d2657-2c06-4403-b104-9c7ea903c2d7", "source": {"name": "Vernon", "slug": "vernon"}, "source_identifier": "8795", "external_references": [], "date_modified": "2025-03-12T01:26:45.830585+11:00"}, {"id": 15437, "name": "Kenneth Myer Productions", "roles_in_work": [{"id": 2715084, "title": "Hallmarking", "work_id": 68273, "role": "production company", "role_id": 941, "is_primary": true}], "also_known_as": "", "date_of_birth": "", "date_of_death": "", "genders": [], "languages": [], "places_of_operation": [], "biography": "", "biography_author": null, "date_of_biography": "2023-08-11T17:12:00.164812+10:00", "external_links": [], "uuid": "8ee3601e-b061-4b5b-a2b2-fe7c8474366c", "source": {"name": "Vernon", "slug": "vernon"}, "source_identifier": "9730", "external_references": [], "date_modified": "2025-03-12T01:26:45.237758+11:00"}, {"id": 15433, "name": "Anthony Wilkinson", "roles_in_work": [{"id": 2645306, "title": "Janus", "work_id": 69203, "role": "director", "role_id": 938, "is_primary": true}, {"id": 2715061, "title": "Habitat UK 76", "work_id": 68263, "role": "director", "role_id": 938, "is_primary": true}], "also_known_as": "", "date_of_birth": "", "date_of_death": "", "genders": [], "languages": [], "places_of_operation": [], "biography": "", "biography_author": null, "date_of_biography": "2023-08-11T18:45:55.706627+10:00", "external_links": [], "uuid": "f9d3d843-b6c9-4809-9197-1a36c7518307", "source": {"name": "Vernon", "slug": "vernon"}, "source_identifier": "15418", "external_references": [], "date_modified": "2025-03-12T01:26:23.036701+11:00"}, {"id": 15432, "name": "Michael Birkett", "roles_in_work": [{"id": 2645305, "title": "Janus", "work_id": 69203, "role": "producer", "role_id": 1089, "is_primary": true}, {"id": 2715060, "title": "Habitat UK 76", "work_id": 68263, "role": "producer", "role_id": 1089, "is_primary": true}], "also_known_as": "", "date_of_birth": "", "date_of_death": "", "genders": [], "languages": [], "places_of_operation": [], "biography": "", "biography_author": null, "date_of_biography": "2023-08-11T18:45:55.078812+10:00", "external_links": [], "uuid": "a04978f8-17b2-4ba8-a5e1-86c8893e3f66", "source": {"name": "Vernon", "slug": "vernon"}, "source_identifier": "24980", "external_references": [], "date_modified": "2025-03-12T01:26:22.455803+11:00"}, {"id": 15431, "name": "Eastern Suburb's Children's Film Group", "roles_in_work": [{"id": 2715050, "title": "The Gunpowder Man", "work_id": 68258, "role": "production company", "role_id": 941, "is_primary": true}], "also_known_as": "", "date_of_birth": "", "date_of_death": "", "genders": [], "languages": [], "places_of_operation": [], "biography": "", "biography_author": null, "date_of_biography": "2023-05-09T19:59:21.107466+10:00", "external_links": [], "uuid": "2279b4a9-97ab-4a27-acc7-dab47eba5cd7", "source": {"name": "Vernon", "slug": "vernon"}, "source_identifier": "7715", "external_references": [{"id": 33250, "source": {"name": "Wikidata", "slug": "wikidata"}, "source_identifier": "Q121079219"}], "date_modified": "2025-03-12T01:26:06.003771+11:00"}, {"id": 15430, "name": "Ross H Thorne", "roles_in_work": [{"id": 2715049, "title": "Gulf Country", "work_id": 68257, "role": "producer", "role_id": 1089, "is_primary": true}], "also_known_as": "", "date_of_birth": "", "date_of_death": "", "genders": [], "languages": [], "places_of_operation": [], "biography": "", "biography_author": null, "date_of_biography": "2023-07-12T03:35:23.368343+10:00", "external_links": [], "uuid": "1a712743-0ffc-4b3d-95bf-52098210ffa9", "source": {"name": "Vernon", "slug": "vernon"}, "source_identifier": "28267", "external_references": [{"id": 40337, "source": {"name": "Wikidata", "slug": "wikidata"}, "source_identifier": "Q121299446"}], "date_modified": "2025-03-12T01:26:05.136230+11:00"}, {"id": 15429, "name": "David Gillis", "roles_in_work": [{"id": 2755144, "title": "Guinea pigs", "work_id": 68255, "role": "director", "role_id": 938, "is_primary": true}], "also_known_as": "", "date_of_birth": "", "date_of_death": "", "genders": [], "languages": [], "places_of_operation": [], "biography": "", "biography_author": null, "date_of_biography": "2023-08-11T17:11:04.017418+10:00", "external_links": [], "uuid": "14021626-9977-45a5-8b3b-79178547d959", "source": {"name": "Vernon", "slug": "vernon"}, "source_identifier": "17597", "external_references": [], "date_modified": "2025-03-13T14:30:26.788626+11:00"}, {"id": 15428, "name": "Xerox Corporation", "roles_in_work": [{"id": 887289, "title": "Metric: heroes and heroines of the metric system", "work_id": 97435, "role": "production company", "role_id": 941, "is_primary": true}, {"id": 2750652, "title": "The Case of the missing chickows: adding positive and negati", "work_id": 97434, "role": "production company", "role_id": 941, "is_primary": true}, {"id": 2755143, "title": "Guinea pigs", "work_id": 68255, "role": "production company", "role_id": 941, "is_primary": true}, {"id": 2750112, "title": "Exploring mathematics: the weird number", "work_id": 97151, "role": "production company", "role_id": 941, "is_primary": true}], "also_known_as": "", "date_of_birth": "", "date_of_death": "", "genders": [], "languages": [], "places_of_operation": [], "biography": "", "biography_author": null, "date_of_biography": "2023-08-11T17:11:03.374147+10:00", "external_links": [], "uuid": "5bcb9310-72c0-42fc-b3c2-f4d61d24b5b1", "source": {"name": "Vernon", "slug": "vernon"}, "source_identifier": "14479", "external_references": [], "date_modified": "2025-03-13T14:30:26.195639+11:00"}, {"id": 15427, "name": "Harry Guiness", "roles_in_work": [{"id": 2715046, "title": "Guinea gold", "work_id": 68254, "role": "director", "role_id": 938, "is_primary": true}], "also_known_as": "", "date_of_birth": "", "date_of_death": "", "genders": [], "languages": [], "places_of_operation": [], "biography": "", "biography_author": null, "date_of_biography": "2023-08-11T17:10:52.487889+10:00", "external_links": [], "uuid": "c7bf0a7f-c9de-49a5-b79e-5a7bb924be6f", "source": {"name": "Vernon", "slug": "vernon"}, "source_identifier": "20318", "external_references": [], "date_modified": "2025-03-12T01:26:02.784275+11:00"}]}