{"count": 28687, "next": "https://api.acmi.net.au/creators/?page=1744", "previous": "https://api.acmi.net.au/creators/?page=1742", "results": [{"id": 27614, "name": "Hank Saroyan", "roles_in_work": [{"id": 2793496, "title": "Flying, trying and honking", "work_id": 85594, "role": "director", "role_id": 938, "is_primary": true}, {"id": 2793502, "title": "Tadpoles, dragonflies and caterpillar's big change (S)", "work_id": 88921, "role": "director", "role_id": 938, "is_primary": true}, {"id": 2793507, "title": "Geokids", "work_id": 115471, "role": "director", "role_id": 938, "is_primary": true}], "also_known_as": "", "date_of_birth": "", "date_of_death": "", "genders": [], "languages": [], "places_of_operation": [], "biography": "", "biography_author": null, "date_of_biography": "2023-05-09T19:12:34.940781+10:00", "external_links": [], "uuid": "b0deda30-b043-4899-a3a9-e1c5dbeecb60", "source": {"name": "Vernon", "slug": "vernon"}, "source_identifier": "20220", "external_references": [{"id": 40384, "source": {"name": "Wikidata", "slug": "wikidata"}, "source_identifier": "Q121143722"}], "date_modified": "2025-03-14T20:18:18.060015+11:00"}, {"id": 27613, "name": "Caroline Somers", "roles_in_work": [{"id": 2793501, "title": "Tadpoles, dragonflies and caterpillar's big change (S)", "work_id": 88921, "role": "co-producer", "role_id": 915, "is_primary": true}, {"id": 2793506, "title": "Geokids", "work_id": 115471, "role": "co-producer", "role_id": 915, "is_primary": true}, {"id": 2793495, "title": "Flying, trying and honking", "work_id": 85594, "role": "production company", "role_id": 941, "is_primary": true}], "also_known_as": "", "date_of_birth": "", "date_of_death": "", "genders": [], "languages": [], "places_of_operation": [], "biography": "", "biography_author": null, "date_of_biography": "2023-05-09T19:12:34.541388+10:00", "external_links": [], "uuid": "7dad1854-164a-43cb-aab4-88521f476cb3", "source": {"name": "Vernon", "slug": "vernon"}, "source_identifier": "16549", "external_references": [{"id": 32797, "source": {"name": "Wikidata", "slug": "wikidata"}, "source_identifier": "Q121036535"}], "date_modified": "2025-03-14T20:18:17.476963+11:00"}, {"id": 27612, "name": "Bruce Somers Jnr", "roles_in_work": [{"id": 2793500, "title": "Tadpoles, dragonflies and caterpillar's big change (S)", "work_id": 88921, "role": "co-producer", "role_id": 915, "is_primary": true}, {"id": 2793505, "title": "Geokids", "work_id": 115471, "role": "co-producer", "role_id": 915, "is_primary": true}, {"id": 2793494, "title": "Flying, trying and honking", "work_id": 85594, "role": "production company", "role_id": 941, "is_primary": true}], "also_known_as": "", "date_of_birth": "", "date_of_death": "", "genders": [], "languages": [], "places_of_operation": [], "biography": "", "biography_author": null, "date_of_biography": "2023-05-09T19:12:34.184417+10:00", "external_links": [], "uuid": "2b9996b7-5997-4392-9a6b-91edc6df7058", "source": {"name": "Vernon", "slug": "vernon"}, "source_identifier": "16338", "external_references": [{"id": 39413, "source": {"name": "Wikidata", "slug": "wikidata"}, "source_identifier": "Q121315223"}], "date_modified": "2025-03-14T20:18:16.852571+11:00"}, {"id": 27611, "name": "Lost Kitty Productions", "roles_in_work": [{"id": 2793493, "title": "Flying, trying and honking", "work_id": 85594, "role": "production company", "role_id": 941, "is_primary": true}, {"id": 2793499, "title": "Tadpoles, dragonflies and caterpillar's big change (S)", "work_id": 88921, "role": "production company", "role_id": 941, "is_primary": true}, {"id": 2793504, "title": "Geokids", "work_id": 115471, "role": "production company", "role_id": 941, "is_primary": true}], "also_known_as": "", "date_of_birth": "", "date_of_death": "", "genders": [], "languages": [], "places_of_operation": [], "biography": "", "biography_author": null, "date_of_biography": "2023-05-09T19:12:33.946910+10:00", "external_links": [], "uuid": "05252dbd-332d-4453-8590-241aae2e1a24", "source": {"name": "Vernon", "slug": "vernon"}, "source_identifier": "10166", "external_references": [{"id": 32306, "source": {"name": "Wikidata", "slug": "wikidata"}, "source_identifier": "Q121315012"}], "date_modified": "2025-03-14T20:18:16.252218+11:00"}, {"id": 27610, "name": "Films 13", "roles_in_work": [{"id": 3104705, "title": "Clair de Terre = Earth Light", "work_id": 116045, "role": "production company", "role_id": 941, "is_primary": true}, {"id": 2615506, "title": "Rendezvous", "work_id": 85593, "role": "production company", "role_id": 941, "is_primary": true}], "also_known_as": "", "date_of_birth": "", "date_of_death": "", "genders": [], "languages": [], "places_of_operation": [], "biography": "", "biography_author": null, "date_of_biography": "2023-05-09T13:33:36.695777+10:00", "external_links": [], "uuid": "59de4c3d-014b-4e4c-9317-7e6a6c3eae29", "source": {"name": "Vernon", "slug": "vernon"}, "source_identifier": "13835", "external_references": [], "date_modified": "2025-05-22T22:46:26.802671+10:00"}, {"id": 27609, "name": "Brendan Geraghty", "roles_in_work": [{"id": 2615505, "title": "The Story of aviation", "work_id": 85592, "role": "director", "role_id": 938, "is_primary": true}], "also_known_as": "", "date_of_birth": null, "date_of_death": null, "genders": [], "languages": [], "places_of_operation": [], "biography": "", "biography_author": null, "date_of_biography": null, "external_links": [], "uuid": "d4adfb75-5465-46ee-a785-5328dbe6bbb0", "source": {"name": "Vernon", "slug": "vernon"}, "source_identifier": "16176", "external_references": [], "date_modified": "2025-02-26T20:24:47.548497+11:00"}, {"id": 27608, "name": "Dave Flitton", "roles_in_work": [{"id": 928855, "title": "The Story of the Spitfire", "work_id": 94289, "role": "director", "role_id": 938, "is_primary": true}, {"id": 2615504, "title": "The Story of aviation", "work_id": 85592, "role": "producer", "role_id": 1089, "is_primary": true}], "also_known_as": "", "date_of_birth": null, "date_of_death": null, "genders": [], "languages": [], "places_of_operation": [], "biography": "", "biography_author": null, "date_of_biography": null, "external_links": [], "uuid": "50690210-f32d-49af-a7f8-6c8df585ef56", "source": {"name": "Vernon", "slug": "vernon"}, "source_identifier": "17465", "external_references": [], "date_modified": "2025-02-26T20:24:46.948858+11:00"}, {"id": 27607, "name": "Castle Communications", "roles_in_work": [{"id": 2615502, "title": "The Story of aviation", "work_id": 85592, "role": "production company", "role_id": 941, "is_primary": true}], "also_known_as": "", "date_of_birth": null, "date_of_death": null, "genders": [], "languages": [], "places_of_operation": [], "biography": "", "biography_author": null, "date_of_biography": null, "external_links": [], "uuid": "5b162bf2-0584-41e0-99df-d938c691613a", "source": {"name": "Vernon", "slug": "vernon"}, "source_identifier": "6335", "external_references": [], "date_modified": "2025-02-26T20:24:45.752860+11:00"}, {"id": 27595, "name": "Sweetland Films BV", "roles_in_work": [{"id": 1997541, "title": "Sweet and lowdown", "work_id": 93361, "role": "production company", "role_id": 941, "is_primary": true}, {"id": 1991706, "title": "Deconstructing Harry", "work_id": 87404, "role": "production company", "role_id": 941, "is_primary": true}, {"id": 1994011, "title": "The Spanish prisoner", "work_id": 89724, "role": "production company", "role_id": 941, "is_primary": true}, {"id": 2133655, "title": "Celebrity", "work_id": 91649, "role": "production company", "role_id": 941, "is_primary": true}, {"id": 1994489, "title": "Mighty Aphrodite", "work_id": 90440, "role": "production company", "role_id": 941, "is_primary": true}, {"id": 2127611, "title": "Bullets over Broadway", "work_id": 85586, "role": "production company", "role_id": 941, "is_primary": true}, {"id": 2223373, "title": "Everyone says I love you", "work_id": 87786, "role": "production company", "role_id": 941, "is_primary": true}], "also_known_as": "", "date_of_birth": "", "date_of_death": "", "genders": [], "languages": [], "places_of_operation": [], "biography": "", "biography_author": null, "date_of_biography": "2023-05-09T16:22:41.692687+10:00", "external_links": [], "uuid": "3dcd8ab0-223a-40ac-a632-f9d7429a69ad", "source": {"name": "Vernon", "slug": "vernon"}, "source_identifier": "13093", "external_references": [], "date_modified": "2023-06-14T16:33:30.576250+10:00"}, {"id": 27594, "name": "Magnolia Productions", "roles_in_work": [{"id": 2133657, "title": "Celebrity", "work_id": 91649, "role": "production company", "role_id": 941, "is_primary": true}, {"id": 1994488, "title": "Mighty Aphrodite", "work_id": 90440, "role": "production company", "role_id": 941, "is_primary": true}, {"id": 1991705, "title": "Deconstructing Harry", "work_id": 87404, "role": "production company", "role_id": 941, "is_primary": true}, {"id": 2223367, "title": "Everyone says I love you", "work_id": 87786, "role": "production company", "role_id": 941, "is_primary": true}, {"id": 2127608, "title": "Bullets over Broadway", "work_id": 85586, "role": "production company", "role_id": 941, "is_primary": true}], "also_known_as": "", "date_of_birth": "", "date_of_death": "", "genders": [], "languages": [], "places_of_operation": [], "biography": "", "biography_author": null, "date_of_biography": "2023-05-09T16:22:41.228018+10:00", "external_links": [], "uuid": "936d5c32-6f36-46c5-8dd1-5449443af7ba", "source": {"name": "Vernon", "slug": "vernon"}, "source_identifier": "10249", "external_references": [{"id": 35878, "source": {"name": "Wikidata", "slug": "wikidata"}, "source_identifier": "Q121078891"}], "date_modified": "2023-09-05T22:36:48.412848+10:00"}]}