{"count": 28687, "next": "https://api.acmi.net.au/creators/?page=1898", "previous": "https://api.acmi.net.au/creators/?page=1896", "results": [{"id": 24535, "name": "Bluford-Toth Productions", "roles_in_work": [{"id": 2301653, "title": "Sirius puppy training with Dr. Ian Dunbar", "work_id": 82308, "role": "production company", "role_id": 941, "is_primary": true}], "also_known_as": "", "date_of_birth": "", "date_of_death": "", "genders": [], "languages": [], "places_of_operation": [], "biography": "", "biography_author": null, "date_of_biography": "2023-05-09T18:37:51.840275+10:00", "external_links": [], "uuid": "9632f1dd-385a-4404-9392-3c87e19d57ae", "source": {"name": "Vernon", "slug": "vernon"}, "source_identifier": "5911", "external_references": [{"id": 36195, "source": {"name": "Wikidata", "slug": "wikidata"}, "source_identifier": "Q121079531"}], "date_modified": "2023-09-05T18:06:52.000338+10:00"}, {"id": 24534, "name": "Linda Rawlings", "roles_in_work": [{"id": 2774583, "title": "Birthdays", "work_id": 82307, "role": "director", "role_id": 938, "is_primary": true}], "also_known_as": "", "date_of_birth": "", "date_of_death": "", "genders": [], "languages": [], "places_of_operation": [], "biography": "", "biography_author": null, "date_of_biography": "2023-05-09T19:30:03.508920+10:00", "external_links": [], "uuid": "5d9fba0c-82a0-4a4a-8062-b26c00ed8f49", "source": {"name": "Vernon", "slug": "vernon"}, "source_identifier": "23878", "external_references": [{"id": 38404, "source": {"name": "Wikidata", "slug": "wikidata"}, "source_identifier": "Q121035560"}], "date_modified": "2025-03-14T18:38:10.658478+11:00"}, {"id": 24533, "name": "Michael Rogers", "roles_in_work": [{"id": 2749895, "title": "Suburban streetscape: living Hawthorn 1906 & 1979", "work_id": 97030, "role": "director", "role_id": 938, "is_primary": true}, {"id": 2749893, "title": "Suburban streetscape: living Hawthorn 1906 & 1979", "work_id": 97030, "role": "co-producer", "role_id": 915, "is_primary": true}, {"id": 2774582, "title": "Birthdays", "work_id": 82307, "role": "producer", "role_id": 1089, "is_primary": true}], "also_known_as": "", "date_of_birth": "", "date_of_death": "", "genders": [], "languages": [], "places_of_operation": [], "biography": "", "biography_author": null, "date_of_biography": "2023-05-09T19:30:03.283802+10:00", "external_links": [], "uuid": "cdd82dbf-3fa3-4461-86f0-4813ed5e47a8", "source": {"name": "Vernon", "slug": "vernon"}, "source_identifier": "25208", "external_references": [{"id": 38380, "source": {"name": "Wikidata", "slug": "wikidata"}, "source_identifier": "Q121143998"}], "date_modified": "2025-03-14T18:38:10.076026+11:00"}, {"id": 24532, "name": "Film Finance Corporation Australia", "roles_in_work": [{"id": 2614493, "title": "Blackfellas", "work_id": 83788, "role": "associate producer", "role_id": 930, "is_primary": false}, {"id": 2350401, "title": "The Genie from down under: larceny", "work_id": 116694, "role": "funding", "role_id": 609, "is_primary": false}, {"id": 2350759, "title": "The Genie from down under: where it's at", "work_id": 116691, "role": "funding", "role_id": 609, "is_primary": false}, {"id": 2044406, "title": "The Sounds of Aus: The Story of the Aussie Accent", "work_id": 116757, "role": "funding", "role_id": 609, "is_primary": false}, {"id": 2350414, "title": "The Genie from down under: wishing and hoping", "work_id": 116689, "role": "funding", "role_id": 609, "is_primary": false}, {"id": 2350717, "title": "The Genie from down under: it's my opal and I'll cry if I want to", "work_id": 116690, "role": "funding", "role_id": 609, "is_primary": false}, {"id": 2350382, "title": "The Genie from down under: customs", "work_id": 116693, "role": "funding", "role_id": 609, "is_primary": false}, {"id": 2350672, "title": "The Genie from down under: good cop, bad genie", "work_id": 116692, "role": "funding", "role_id": 609, "is_primary": false}, {"id": 1932387, "title": "Gough Whitlam: in his own words [Widescreen]", "work_id": 93787, "role": "production company", "role_id": 941, "is_primary": true}, {"id": 2595885, "title": "Look both ways", "work_id": 95550, "role": "production company", "role_id": 941, "is_primary": true}, {"id": 2615418, "title": "Boys and Balls", "work_id": 85418, "role": "production company", "role_id": 941, "is_primary": true}, {"id": 2328073, "title": "The Astronaut", "work_id": 91637, "role": "production company", "role_id": 941, "is_primary": true}, {"id": 930920, "title": "Iraq my country: an exiles return to Samawa", "work_id": 95592, "role": "production company", "role_id": 941, "is_primary": true}, {"id": 2259647, "title": "Sacred sex (E)", "work_id": 82924, "role": "production company", "role_id": 941, "is_primary": true}, {"id": 2116355, "title": "Bitter Herbs and Honey", "work_id": 87927, "role": "production company", "role_id": 941, "is_primary": true}, {"id": 1996363, "title": "The Monkey's mask", "work_id": 92658, "role": "production company", "role_id": 941, "is_primary": true}, {"id": 2201970, "title": "Peter Allen: the boy from Oz", "work_id": 84996, "role": "production company", "role_id": 941, "is_primary": true}, {"id": 2193947, "title": "Dirty deeds", "work_id": 94162, "role": "production company", "role_id": 941, "is_primary": true}, {"id": 2233883, "title": "Queen Kat, Carmel & St Jude: Parts 3-4: Spring-Summer", "work_id": 94145, "role": "production company", "role_id": 941, "is_primary": true}, {"id": 873142, "title": "Homelands", "work_id": 88002, "role": "production company", "role_id": 941, "is_primary": true}, {"id": 1991511, "title": "Mr Reliable: a true story", "work_id": 87256, "role": "production company", "role_id": 941, "is_primary": true}, {"id": 924617, "title": "The Battleships", "work_id": 93937, "role": "production company", "role_id": 941, "is_primary": true}, {"id": 819448, "title": "Passion (1999)", "work_id": 94345, "role": "production company", "role_id": 941, "is_primary": true}, {"id": 2209684, "title": "Poles apart", "work_id": 92190, "role": "production company", "role_id": 941, "is_primary": true}, {"id": 817571, "title": "Fond memories of Cuba [Widescreen]", "work_id": 93926, "role": "production company", "role_id": 941, "is_primary": true}, {"id": 803762, "title": "Where angels fear to tread", "work_id": 89801, "role": "production company", "role_id": 941, "is_primary": true}, {"id": 1427610, "title": "Outnumbered", "work_id": 87250, "role": "production company", "role_id": 941, "is_primary": true}, {"id": 2219486, "title": "Epsilon", "work_id": 90467, "role": "production company", "role_id": 941, "is_primary": true}, {"id": 823571, "title": "Molly & Moborak = Molly and Moborak [Widescreen]", "work_id": 95262, "role": "production company", "role_id": 941, "is_primary": true}, {"id": 1994276, "title": "Floating life = Fu Sheng [Widescreen]", "work_id": 90046, "role": "production company", "role_id": 941, "is_primary": true}, {"id": 2224119, "title": "Eye of the tiger [Widescreen]", "work_id": 94027, "role": "production company", "role_id": 941, "is_primary": true}, {"id": 2356470, "title": "The Interview [DVD]", "work_id": 92666, "role": "production company", "role_id": 941, "is_primary": true}, {"id": 2181892, "title": "Death in Brunswick", "work_id": 82306, "role": "production company", "role_id": 941, "is_primary": true}, {"id": 1427879, "title": "Beating the drum", "work_id": 88040, "role": "production company", "role_id": 941, "is_primary": true}, {"id": 2118700, "title": "Blackrock", "work_id": 87268, "role": "production company", "role_id": 941, "is_primary": true}, {"id": 2476085, "title": "The Wog boy", "work_id": 90432, "role": "production company", "role_id": 941, "is_primary": true}, {"id": 2315130, "title": "Strange planet", "work_id": 95153, "role": "production company", "role_id": 941, "is_primary": true}, {"id": 2181907, "title": "Death in Brunswick (Captioned)", "work_id": 84330, "role": "production company", "role_id": 941, "is_primary": true}, {"id": 1998955, "title": "Siam sunset", "work_id": 94188, "role": "production company", "role_id": 941, "is_primary": true}, {"id": 883225, "title": "Garbo", "work_id": 93573, "role": "production company", "role_id": 941, "is_primary": true}, {"id": 2197849, "title": "Doesn't everybody want a golden guitar", "work_id": 87068, "role": "production company", "role_id": 941, "is_primary": true}, {"id": 2196390, "title": "Do or die = The Rubicon", "work_id": 93593, "role": "production company", "role_id": 941, "is_primary": true}, {"id": 2242650, "title": "First day", "work_id": 94019, "role": "production company", "role_id": 941, "is_primary": true}, {"id": 1998572, "title": "The Hard word", "work_id": 93934, "role": "production company", "role_id": 941, "is_primary": true}, {"id": 1989540, "title": "Hotel Sorrento", "work_id": 85235, "role": "production company", "role_id": 941, "is_primary": true}, {"id": 2120987, "title": "Blue Murder: Part 1", "work_id": 116748, "role": "production company", "role_id": 941, "is_primary": true}, {"id": 2476558, "title": "Japanese Story", "work_id": 94855, "role": "production company", "role_id": 941, "is_primary": true}, {"id": 2121005, "title": "Blue Murder: Part 2", "work_id": 116749, "role": "production company", "role_id": 941, "is_primary": true}, {"id": 791693, "title": "Year of the Dogs", "work_id": 85998, "role": "production company", "role_id": 941, "is_primary": true}, {"id": 2357340, "title": "The Journey", "work_id": 83950, "role": "production company", "role_id": 941, "is_primary": true}, {"id": 2377959, "title": "Rabbit-Proof Fence", "work_id": 93443, "role": "production company", "role_id": 941, "is_primary": true}, {"id": 2303879, "title": "Soft fruit", "work_id": 94341, "role": "production company", "role_id": 941, "is_primary": true}, {"id": 1912004, "title": "Women of the iron frontier", "work_id": 83789, "role": "production company", "role_id": 941, "is_primary": true}, {"id": 1999561, "title": "The Nugget", "work_id": 94526, "role": "production company", "role_id": 941, "is_primary": true}, {"id": 2351216, "title": "The Goddess of 1967 [DVD]", "work_id": 94506, "role": "production company", "role_id": 941, "is_primary": true}, {"id": 804302, "title": "Orientations: Chris Doyle: stirred not shaken", "work_id": 90014, "role": "production company", "role_id": 941, "is_primary": true}, {"id": 2184042, "title": "P.G-H: a modern odyssey", "work_id": 83993, "role": "production company", "role_id": 941, "is_primary": true}, {"id": 1999997, "title": "The Rage in Placid Lake", "work_id": 94869, "role": "production company", "role_id": 941, "is_primary": true}, {"id": 1999990, "title": "Napoleon (1994) [DVD]", "work_id": 94866, "role": "production company", "role_id": 941, "is_primary": true}, {"id": 2298097, "title": "Shoalwater: up for grabs", "work_id": 82410, "role": "production company", "role_id": 941, "is_primary": true}, {"id": 924282, "title": "Let's get Skase", "work_id": 93611, "role": "production company", "role_id": 941, "is_primary": true}, {"id": 2305599, "title": "Songs of innocence: a child's view of family life", "work_id": 94020, "role": "production company", "role_id": 941, "is_primary": true}, {"id": 2121465, "title": "Blurred", "work_id": 95108, "role": "production company", "role_id": 941, "is_primary": true}, {"id": 2144258, "title": "Conversations with a dead poet: Alan Wearne recalls John Forbes [Widescreen]", "work_id": 94170, "role": "production company", "role_id": 941, "is_primary": true}, {"id": 2144809, "title": "Copyrites", "work_id": 91208, "role": "production company", "role_id": 941, "is_primary": true}, {"id": 2496427, "title": "Crackerjack", "work_id": 94287, "role": "production company", "role_id": 941, "is_primary": true}, {"id": 2000171, "title": "Thunderstruck", "work_id": 94983, "role": "production company", "role_id": 941, "is_primary": true}, {"id": 2115122, "title": "Billy's holiday", "work_id": 86860, "role": "production company", "role_id": 941, "is_primary": true}, {"id": 2136647, "title": "Children of the revolution", "work_id": 85922, "role": "production company", "role_id": 941, "is_primary": true}, {"id": 1932392, "title": "Cry from the heart: the stolen generation", "work_id": 94003, "role": "production company", "role_id": 941, "is_primary": true}, {"id": 879785, "title": "Kosky in paradise", "work_id": 92058, "role": "production company", "role_id": 941, "is_primary": true}, {"id": 882024, "title": "Holy rollers", "work_id": 93000, "role": "production company", "role_id": 941, "is_primary": true}, {"id": 1771538, "title": "Lantana (Special edition) [DVD]", "work_id": 93600, "role": "production company", "role_id": 941, "is_primary": true}, {"id": 795673, "title": "The Wayne manifesto: the alien", "work_id": 87259, "role": "production company", "role_id": 941, "is_primary": true}, {"id": 2273704, "title": "Wendy cracked a walnut", "work_id": 83819, "role": "production company", "role_id": 941, "is_primary": true}, {"id": 1932140, "title": "Urban clan", "work_id": 88128, "role": "production company", "role_id": 941, "is_primary": true}, {"id": 1771583, "title": "Travelling light. Parklands [DVD]", "work_id": 94944, "role": "production company", "role_id": 941, "is_primary": true}, {"id": 795694, "title": "The Wayne manifesto: this guy Dellafield", "work_id": 87263, "role": "production company", "role_id": 941, "is_primary": true}, {"id": 1998131, "title": "Lantana", "work_id": 93631, "role": "production company", "role_id": 941, "is_primary": true}, {"id": 802124, "title": "Killing Priscilla", "work_id": 89246, "role": "production company", "role_id": 941, "is_primary": true}, {"id": 2104635, "title": "Australian rules (A) [DVD]", "work_id": 94508, "role": "production company", "role_id": 941, "is_primary": true}, {"id": 2104097, "title": "Australia has no winter", "work_id": 92488, "role": "production company", "role_id": 941, "is_primary": true}, {"id": 796637, "title": "Conspiracy", "work_id": 87506, "role": "production company", "role_id": 941, "is_primary": true}, {"id": 915044, "title": "Much ado about something", "work_id": 94035, "role": "production company", "role_id": 941, "is_primary": true}, {"id": 1992007, "title": "In the winter dark", "work_id": 87761, "role": "production company", "role_id": 941, "is_primary": true}, {"id": 913904, "title": "The Beach", "work_id": 93578, "role": "production company", "role_id": 941, "is_primary": true}, {"id": 1998310, "title": "Welcome to Woop Woop", "work_id": 93720, "role": "production company", "role_id": 941, "is_primary": true}, {"id": 881070, "title": "Kimberley Cops. Ep. 02: End of the road", "work_id": 92691, "role": "production company", "role_id": 941, "is_primary": true}, {"id": 2180645, "title": "Dead heart", "work_id": 85924, "role": "production company", "role_id": 941, "is_primary": true}, {"id": 1932111, "title": "The Coolbaroo club", "work_id": 87447, "role": "production company", "role_id": 941, "is_primary": true}, {"id": 1996034, "title": "The Sum of us [DVD]", "work_id": 92461, "role": "production company", "role_id": 941, "is_primary": true}, {"id": 1991532, "title": "The Well", "work_id": 87267, "role": "production company", "role_id": 941, "is_primary": true}, {"id": 780375, "title": "Whitlam", "work_id": 82870, "role": "production company", "role_id": 941, "is_primary": true}, {"id": 2233880, "title": "Queen Kat, Carmel & St Jude. Parts 1-2: Autumn-Winter", "work_id": 94144, "role": "production company", "role_id": 941, "is_primary": true}, {"id": 2180385, "title": "Dead Heart (A) (Captioned)", "work_id": 86591, "role": "production company", "role_id": 941, "is_primary": true}, {"id": 2336088, "title": "The Cars That Ate China", "work_id": 116758, "role": "sponsor", "role_id": 625, "is_primary": false}], "also_known_as": "", "date_of_birth": "", "date_of_death": "", "genders": [], "languages": [], "places_of_operation": [], "biography": "", "biography_author": null, "date_of_biography": "2023-08-17T15:38:14.855919+10:00", "external_links": [], "uuid": "402ed2bf-0ed5-4d82-98cd-d434a930ed95", "source": {"name": "Vernon", "slug": "vernon"}, "source_identifier": "4611", "external_references": [{"id": 39468, "source": {"name": "Wikidata", "slug": "wikidata"}, "source_identifier": "Q121126876"}], "date_modified": "2025-02-26T20:23:37.146908+11:00"}, {"id": 24531, "name": "Meridian Films", "roles_in_work": [{"id": 2615722, "title": "Spotswood", "work_id": 86027, "role": "production company", "role_id": 941, "is_primary": true}, {"id": 2181890, "title": "Death in Brunswick", "work_id": 82306, "role": "production company", "role_id": 941, "is_primary": true}, {"id": 2475724, "title": "The Lost tribe", "work_id": 92297, "role": "production company", "role_id": 941, "is_primary": true}, {"id": 2181906, "title": "Death in Brunswick (Captioned)", "work_id": 84330, "role": "production company", "role_id": 941, "is_primary": true}, {"id": 2286654, "title": "Two hands [DVD]", "work_id": 90597, "role": "production company", "role_id": 941, "is_primary": true}, {"id": 2315015, "title": "Strange fits of passion", "work_id": 89722, "role": "production company", "role_id": 941, "is_primary": true}, {"id": 2096069, "title": "Angel baby", "work_id": 86397, "role": "production company", "role_id": 941, "is_primary": true}, {"id": 2286617, "title": "Two hands", "work_id": 89793, "role": "production company", "role_id": 941, "is_primary": true}, {"id": 2615916, "title": "Cosi", "work_id": 86401, "role": "production company", "role_id": 941, "is_primary": true}], "also_known_as": "", "date_of_birth": "", "date_of_death": "", "genders": [], "languages": [], "places_of_operation": [], "biography": "", "biography_author": null, "date_of_biography": "2023-08-17T15:11:58.208279+10:00", "external_links": [], "uuid": "94d43610-c676-4e4f-a107-00b84395a2d0", "source": {"name": "Vernon", "slug": "vernon"}, "source_identifier": "10475", "external_references": [{"id": 41363, "source": {"name": "Wikidata", "slug": "wikidata"}, "source_identifier": "Q121337321"}], "date_modified": "2025-02-26T20:31:30.396836+11:00"}, {"id": 24530, "name": "Marianne Trench", "roles_in_work": [{"id": 2152586, "title": "Cyberpunk", "work_id": 82305, "role": "director", "role_id": 938, "is_primary": true}], "also_known_as": "", "date_of_birth": "", "date_of_death": "", "genders": [{"id": 5, "name": "Female", "slug": "female"}], "languages": [], "places_of_operation": [], "biography": "", "biography_author": null, "date_of_biography": "2023-05-09T13:55:11.096039+10:00", "external_links": [], "uuid": "4b444efb-a67e-4683-8449-3a239d4c656f", "source": {"name": "Vernon", "slug": "vernon"}, "source_identifier": "24408", "external_references": [{"id": 38136, "source": {"name": "Wikidata", "slug": "wikidata"}, "source_identifier": "Q121270988"}], "date_modified": "2023-06-14T16:33:30.576250+10:00"}, {"id": 24529, "name": "Peter Von Brandenburg", "roles_in_work": [{"id": 2152584, "title": "Cyberpunk", "work_id": 82305, "role": "producer", "role_id": 1089, "is_primary": true}], "also_known_as": "", "date_of_birth": "", "date_of_death": "", "genders": [], "languages": [], "places_of_operation": [], "biography": "", "biography_author": null, "date_of_biography": "2023-05-09T13:55:10.864237+10:00", "external_links": [], "uuid": "90d33d47-73b6-4aa0-9eb6-edf5a072a3f2", "source": {"name": "Vernon", "slug": "vernon"}, "source_identifier": "26738", "external_references": [{"id": 34029, "source": {"name": "Wikidata", "slug": "wikidata"}, "source_identifier": "Q121299259"}], "date_modified": "2023-09-06T00:02:05.909192+10:00"}, {"id": 24528, "name": "Intercon Productions", "roles_in_work": [{"id": 2152582, "title": "Cyberpunk", "work_id": 82305, "role": "production company", "role_id": 941, "is_primary": true}], "also_known_as": "", "date_of_birth": "", "date_of_death": "", "genders": [], "languages": [], "places_of_operation": [], "biography": "", "biography_author": null, "date_of_biography": "2023-05-09T13:55:10.639081+10:00", "external_links": [], "uuid": "e5c02bf6-a8a1-46ff-9e85-77418aa1e22e", "source": {"name": "Vernon", "slug": "vernon"}, "source_identifier": "9348", "external_references": [{"id": 36735, "source": {"name": "Wikidata", "slug": "wikidata"}, "source_identifier": "Q121035399"}], "date_modified": "2023-09-05T20:49:13.343877+10:00"}, {"id": 24526, "name": "Kopano P/L Productions", "roles_in_work": [{"id": 2134252, "title": "Ceremonial ground painting: Aboriginal women artists from Papunya", "work_id": 82304, "role": "production company", "role_id": 941, "is_primary": true}], "also_known_as": "", "date_of_birth": "", "date_of_death": "", "genders": [], "languages": [], "places_of_operation": [], "biography": "", "biography_author": null, "date_of_biography": "2023-05-09T13:26:11.096351+10:00", "external_links": [], "uuid": "3625f0e9-73dc-4391-adb3-d0ef08dd6cae", "source": {"name": "Vernon", "slug": "vernon"}, "source_identifier": "9827", "external_references": [{"id": 37245, "source": {"name": "Wikidata", "slug": "wikidata"}, "source_identifier": "Q121034932"}], "date_modified": "2023-09-05T22:11:40.034046+10:00"}, {"id": 24524, "name": "TSN 11", "roles_in_work": [{"id": 2649845, "title": "Conservation of artworks on paper", "work_id": 82302, "role": "production company", "role_id": 941, "is_primary": true}], "also_known_as": "", "date_of_birth": null, "date_of_death": null, "genders": [], "languages": [], "places_of_operation": [], "biography": "", "biography_author": null, "date_of_biography": null, "external_links": [], "uuid": "7eb1fca4-0163-435a-b2f1-6a40326b2a0e", "source": {"name": "Vernon", "slug": "vernon"}, "source_identifier": "13742", "external_references": [], "date_modified": "2025-03-05T14:06:46.653358+11:00"}]}