{"count": 28683, "next": "https://api.acmi.net.au/creators/?page=590", "previous": "https://api.acmi.net.au/creators/?page=588", "results": [{"id": 79689, "name": "Jo Forsyth", "roles_in_work": [{"id": 2106972, "title": "Bad by design: designers break the rules", "work_id": 92039, "role": "co-director", "role_id": 959, "is_primary": true}, {"id": 2106964, "title": "Bad by design: designers break the rules", "work_id": 92039, "role": "producer", "role_id": 1089, "is_primary": true}], "also_known_as": "", "date_of_birth": "", "date_of_death": "", "genders": [], "languages": [], "places_of_operation": [], "biography": "", "biography_author": null, "date_of_biography": "2023-05-09T12:40:10.973482+10:00", "external_links": [], "uuid": "3c0c2cef-7bc5-4fa5-8df9-fae7522632af", "source": {"name": "Vernon", "slug": "vernon"}, "source_identifier": "21951", "external_references": [{"id": 34706, "source": {"name": "Wikidata", "slug": "wikidata"}, "source_identifier": "Q121034930"}], "date_modified": "2023-09-05T21:26:31.163290+10:00"}, {"id": 79688, "name": "Shona Stephen", "roles_in_work": [{"id": 2098580, "title": "Apron strings and atom bombs", "work_id": 92034, "role": "producer/director", "role_id": 31, "is_primary": true}], "also_known_as": "", "date_of_birth": "", "date_of_death": "", "genders": [], "languages": [], "places_of_operation": [], "biography": "", "biography_author": null, "date_of_biography": "2023-05-09T12:27:46.020427+10:00", "external_links": [], "uuid": "6910a251-301b-4209-84c8-ff0e15f40638", "source": {"name": "Vernon", "slug": "vernon"}, "source_identifier": "28783", "external_references": [{"id": 51280, "source": {"name": "Wikidata", "slug": "wikidata"}, "source_identifier": "Q121361421"}], "date_modified": "2023-09-06T01:16:55.919539+10:00"}, {"id": 79687, "name": "Rob Forza", "roles_in_work": [{"id": 2100587, "title": "Arrivederci Roma", "work_id": 92031, "role": "cast", "role_id": 33, "is_primary": false}], "also_known_as": "", "date_of_birth": "", "date_of_death": "", "genders": [], "languages": [], "places_of_operation": [], "biography": "", "biography_author": null, "date_of_biography": "2023-05-09T12:30:21.395252+10:00", "external_links": [], "uuid": "a45d0621-ade5-480c-b9bd-3ddc8465b181", "source": {"name": "Vernon", "slug": "vernon"}, "source_identifier": "34553", "external_references": [{"id": 40710, "source": {"name": "Wikidata", "slug": "wikidata"}, "source_identifier": "Q121078986"}], "date_modified": "2023-09-06T00:37:30.267737+10:00"}, {"id": 79686, "name": "Bill Banks", "roles_in_work": [{"id": 2100584, "title": "Arrivederci Roma", "work_id": 92031, "role": "cast", "role_id": 33, "is_primary": false}], "also_known_as": "", "date_of_birth": "", "date_of_death": "", "genders": [], "languages": [], "places_of_operation": [], "biography": "", "biography_author": null, "date_of_biography": "2023-05-09T12:30:21.152676+10:00", "external_links": [], "uuid": "8914bca2-98d2-4a24-ac15-e9a7393226e7", "source": {"name": "Vernon", "slug": "vernon"}, "source_identifier": "34552", "external_references": [{"id": 34502, "source": {"name": "Wikidata", "slug": "wikidata"}, "source_identifier": "Q121035044"}], "date_modified": "2023-09-05T18:01:57.116600+10:00"}, {"id": 79685, "name": "Lesley Pinder", "roles_in_work": [{"id": 2111296, "title": "Belch", "work_id": 92025, "role": "producer/director", "role_id": 31, "is_primary": true}], "also_known_as": "", "date_of_birth": "", "date_of_death": "", "genders": [], "languages": [], "places_of_operation": [], "biography": "", "biography_author": null, "date_of_biography": "2023-05-09T12:47:08.705743+10:00", "external_links": [], "uuid": "30ccd013-d3ff-423f-b2f9-2f8199e41cb5", "source": {"name": "Vernon", "slug": "vernon"}, "source_identifier": "23758", "external_references": [{"id": 51034, "source": {"name": "Wikidata", "slug": "wikidata"}, "source_identifier": "Q121360556"}], "date_modified": "2023-09-05T22:21:56.988618+10:00"}, {"id": 79684, "name": "Carla Drago", "roles_in_work": [{"id": 2078369, "title": "Above the dust level [Widescreen]", "work_id": 92021, "role": "director", "role_id": 938, "is_primary": true}], "also_known_as": "", "date_of_birth": "", "date_of_death": "", "genders": [], "languages": [], "places_of_operation": [], "biography": "", "biography_author": null, "date_of_biography": "2023-05-09T11:44:09.984914+10:00", "external_links": [], "uuid": "b39a4dfa-71f4-4691-9cc5-4ab956f9187f", "source": {"name": "Vernon", "slug": "vernon"}, "source_identifier": "16488", "external_references": [{"id": 37905, "source": {"name": "Wikidata", "slug": "wikidata"}, "source_identifier": "Q121079176"}], "date_modified": "2023-09-05T18:19:36.985403+10:00"}, {"id": 79683, "name": "David Ogilvy", "roles_in_work": [{"id": 2340423, "title": "The Contract", "work_id": 92010, "role": "director", "role_id": 938, "is_primary": true}], "also_known_as": "", "date_of_birth": "", "date_of_death": "", "genders": [], "languages": [], "places_of_operation": [], "biography": "", "biography_author": null, "date_of_biography": "2023-05-09T19:38:44.862499+10:00", "external_links": [], "uuid": "320df431-90c0-4a4d-a969-ef1369e87be7", "source": {"name": "Vernon", "slug": "vernon"}, "source_identifier": "17741", "external_references": [], "date_modified": "2023-06-14T16:33:30.576250+10:00"}, {"id": 79682, "name": "Glen Whelan", "roles_in_work": [{"id": 2137658, "title": "Christmas presence", "work_id": 92009, "role": "director", "role_id": 938, "is_primary": true}], "also_known_as": "", "date_of_birth": "", "date_of_death": "", "genders": [], "languages": [], "places_of_operation": [], "biography": "", "biography_author": null, "date_of_biography": "2023-05-09T13:32:15.657844+10:00", "external_links": [], "uuid": "25a62298-2e82-4a96-ae40-dcabed505df5", "source": {"name": "Vernon", "slug": "vernon"}, "source_identifier": "19891", "external_references": [{"id": 32831, "source": {"name": "Wikidata", "slug": "wikidata"}, "source_identifier": "Q121271496"}], "date_modified": "2023-09-05T20:15:03.183250+10:00"}, {"id": 79681, "name": "Bill Mousoulis", "roles_in_work": [{"id": 2113667, "title": "Between us", "work_id": 92007, "role": "producer/director", "role_id": 31, "is_primary": true}], "also_known_as": "", "date_of_birth": "", "date_of_death": "", "genders": [], "languages": [], "places_of_operation": [], "biography": "", "biography_author": null, "date_of_biography": "2023-05-09T12:51:10.647361+10:00", "external_links": [], "uuid": "a74c8ad0-0293-4ce6-992f-0aeed50ad5f3", "source": {"name": "Vernon", "slug": "vernon"}, "source_identifier": "15989", "external_references": [{"id": 51652, "source": {"name": "Wikidata", "slug": "wikidata"}, "source_identifier": "Q4910275"}], "date_modified": "2023-09-05T18:04:00.648891+10:00"}, {"id": 79680, "name": "Unjoo Moon", "roles_in_work": [{"id": 2181831, "title": "Deadlock", "work_id": 92005, "role": "producer/director", "role_id": 31, "is_primary": true}], "also_known_as": "", "date_of_birth": "1964-05-31", "date_of_death": "", "genders": [{"id": 5, "name": "Female", "slug": "female"}], "languages": [], "places_of_operation": [{"id": 3, "name": "Australia", "slug": "australia"}], "biography": "Unjoo Moon (문은주,born 1964) is an Australian film director, best known for the 2020 biopic I Am Woman, that tells the story of international feminist icon Helen Reddy.", "biography_author": "Wikidata", "date_of_biography": "2023-09-06T02:01:53.334117+10:00", "external_links": [{"id": 6238, "uri": "https://en.wikipedia.org/wiki/Unjoo_Moon"}], "uuid": "6e8d7bb5-e0a6-4961-a8a5-cebe6148711e", "source": {"name": "Vernon", "slug": "vernon"}, "source_identifier": "30026", "external_references": [{"id": 51688, "source": {"name": "Wikidata", "slug": "wikidata"}, "source_identifier": "Q79436197"}], "date_modified": "2023-09-06T02:01:53.354157+10:00"}]}