{"count": 28687, "next": "https://api.acmi.net.au/creators/?page=311", "previous": "https://api.acmi.net.au/creators/?page=309", "results": [{"id": 82507, "name": "Qiao Jichang", "roles_in_work": [{"id": 2650920, "title": "Massacre in Nanjing = Tu Cheng Xue Ji", "work_id": 115779, "role": "cinematographer", "role_id": 32, "is_primary": false}], "also_known_as": "", "date_of_birth": "", "date_of_death": "", "genders": [], "languages": [], "places_of_operation": [], "biography": "", "biography_author": null, "date_of_biography": "2023-05-09T14:18:34.336436+10:00", "external_links": [], "uuid": "8928ae82-df53-4291-9e57-fa8b4eb8c793", "source": {"name": "Vernon", "slug": "vernon"}, "source_identifier": "36791", "external_references": [{"id": 52018, "source": {"name": "Wikidata", "slug": "wikidata"}, "source_identifier": "Q121357716"}], "date_modified": "2025-03-05T14:24:50.145444+11:00"}, {"id": 82506, "name": "Chen Mingyun", "roles_in_work": [{"id": 2650919, "title": "Massacre in Nanjing = Tu Cheng Xue Ji", "work_id": 115779, "role": "cinematographer", "role_id": 32, "is_primary": false}], "also_known_as": "", "date_of_birth": "", "date_of_death": "", "genders": [], "languages": [], "places_of_operation": [], "biography": "", "biography_author": null, "date_of_biography": "2023-05-09T14:18:34.052154+10:00", "external_links": [], "uuid": "ef2055c5-b262-4233-a380-98e0083a8c1f", "source": {"name": "Vernon", "slug": "vernon"}, "source_identifier": "36790", "external_references": [{"id": 36557, "source": {"name": "Wikidata", "slug": "wikidata"}, "source_identifier": "Q121336958"}], "date_modified": "2025-03-05T14:24:49.566847+11:00"}, {"id": 82505, "name": "Xie Guangning", "roles_in_work": [{"id": 2650918, "title": "Massacre in Nanjing = Tu Cheng Xue Ji", "work_id": 115779, "role": "script", "role_id": 962, "is_primary": false}], "also_known_as": "", "date_of_birth": "", "date_of_death": "", "genders": [], "languages": [], "places_of_operation": [], "biography": "", "biography_author": null, "date_of_biography": "2023-05-09T14:18:33.802085+10:00", "external_links": [], "uuid": "3920ed57-1b42-40fe-aede-0542c6afaa01", "source": {"name": "Vernon", "slug": "vernon"}, "source_identifier": "36789", "external_references": [], "date_modified": "2025-03-05T14:24:48.991438+11:00"}, {"id": 82504, "name": "Luo Guanqun", "roles_in_work": [{"id": 2650917, "title": "Massacre in Nanjing = Tu Cheng Xue Ji", "work_id": 115779, "role": "director", "role_id": 938, "is_primary": true}], "also_known_as": "", "date_of_birth": "", "date_of_death": "", "genders": [], "languages": [], "places_of_operation": [], "biography": "", "biography_author": null, "date_of_biography": "2023-05-09T14:18:33.533582+10:00", "external_links": [], "uuid": "d318a3ca-a18b-4646-a15f-9a23feb429ab", "source": {"name": "Vernon", "slug": "vernon"}, "source_identifier": "36788", "external_references": [{"id": 42285, "source": {"name": "Wikidata", "slug": "wikidata"}, "source_identifier": "Q121271223"}], "date_modified": "2025-03-05T14:24:48.412547+11:00"}, {"id": 82503, "name": "Nanjing Film Production Company", "roles_in_work": [{"id": 2650916, "title": "Massacre in Nanjing = Tu Cheng Xue Ji", "work_id": 115779, "role": "production company", "role_id": 941, "is_primary": true}], "also_known_as": "", "date_of_birth": "", "date_of_death": "", "genders": [], "languages": [], "places_of_operation": [], "biography": "", "biography_author": null, "date_of_biography": "2023-05-09T14:18:33.275195+10:00", "external_links": [], "uuid": "d2a18610-adc1-450c-b333-44b50234cffd", "source": {"name": "Vernon", "slug": "vernon"}, "source_identifier": "36787", "external_references": [{"id": 35125, "source": {"name": "Wikidata", "slug": "wikidata"}, "source_identifier": "Q121298905"}], "date_modified": "2025-03-05T14:24:47.838257+11:00"}, {"id": 82502, "name": "Gong Xue", "roles_in_work": [{"id": 2650915, "title": "The Happy bachelors = Kuai le de dan shen han", "work_id": 115778, "role": "cast", "role_id": 33, "is_primary": false}, {"id": 2650951, "title": "Hua Tuo and Cao Cao = Hua Tuo yu Cao Cao", "work_id": 115782, "role": "cast", "role_id": 33, "is_primary": false}], "also_known_as": "", "date_of_birth": "", "date_of_death": "", "genders": [], "languages": [], "places_of_operation": [], "biography": "", "biography_author": null, "date_of_biography": "2023-05-09T19:59:39.012103+10:00", "external_links": [], "uuid": "07fe0c82-8687-4912-867d-dd006aa059da", "source": {"name": "Vernon", "slug": "vernon"}, "source_identifier": "36254", "external_references": [{"id": 43075, "source": {"name": "Wikidata", "slug": "wikidata"}, "source_identifier": "Q121159756"}], "date_modified": "2025-03-05T14:25:07.401258+11:00"}, {"id": 82501, "name": "Zhou Xiajuan", "roles_in_work": [{"id": 2650913, "title": "The Happy bachelors = Kuai le de dan shen han", "work_id": 115778, "role": "editor", "role_id": 918, "is_primary": true}], "also_known_as": "", "date_of_birth": "", "date_of_death": "", "genders": [], "languages": [], "places_of_operation": [], "biography": "", "biography_author": null, "date_of_biography": "2023-05-09T19:59:38.541934+10:00", "external_links": [], "uuid": "5506a130-5370-4ab6-868f-f16375683bb7", "source": {"name": "Vernon", "slug": "vernon"}, "source_identifier": "36252", "external_references": [{"id": 40239, "source": {"name": "Wikidata", "slug": "wikidata"}, "source_identifier": "Q121126675"}], "date_modified": "2025-03-05T14:24:45.800695+11:00"}, {"id": 82500, "name": "Liang Xing", "roles_in_work": [{"id": 2650911, "title": "The Happy bachelors = Kuai le de dan shen han", "work_id": 115778, "role": "script", "role_id": 962, "is_primary": false}], "also_known_as": "", "date_of_birth": "", "date_of_death": "", "genders": [], "languages": [], "places_of_operation": [], "biography": "", "biography_author": null, "date_of_biography": "2023-05-09T19:59:38.060919+10:00", "external_links": [], "uuid": "2ff39eac-5d04-4f4b-b089-c44333248018", "source": {"name": "Vernon", "slug": "vernon"}, "source_identifier": "36250", "external_references": [], "date_modified": "2025-03-05T14:24:44.635656+11:00"}, {"id": 82499, "name": "Liang Guanghua", "roles_in_work": [{"id": 2650908, "title": "Fascinating musical band = Mi ren de yue dui", "work_id": 115777, "role": "cast", "role_id": 33, "is_primary": false}], "also_known_as": "", "date_of_birth": "", "date_of_death": "", "genders": [], "languages": [], "places_of_operation": [], "biography": "", "biography_author": null, "date_of_biography": "2023-05-09T16:29:25.458959+10:00", "external_links": [], "uuid": "50478082-a01e-4acb-af5c-3d38f0c8601f", "source": {"name": "Vernon", "slug": "vernon"}, "source_identifier": "36497", "external_references": [{"id": 36861, "source": {"name": "Wikidata", "slug": "wikidata"}, "source_identifier": "Q121315382"}], "date_modified": "2025-03-05T14:24:42.617158+11:00"}, {"id": 82498, "name": "Zhao Ziyue", "roles_in_work": [{"id": 2650907, "title": "Fascinating musical band = Mi ren de yue dui", "work_id": 115777, "role": "cast", "role_id": 33, "is_primary": false}], "also_known_as": "", "date_of_birth": "", "date_of_death": "", "genders": [], "languages": [], "places_of_operation": [], "biography": "", "biography_author": null, "date_of_biography": "2023-05-09T16:29:25.226940+10:00", "external_links": [], "uuid": "149205cd-7086-444a-bd76-7e48455c6244", "source": {"name": "Vernon", "slug": "vernon"}, "source_identifier": "36496", "external_references": [{"id": 40210, "source": {"name": "Wikidata", "slug": "wikidata"}, "source_identifier": "Q121079383"}], "date_modified": "2025-03-05T14:24:42.041237+11:00"}]}