{"count": 28687, "next": "https://api.acmi.net.au/creators/?page=746", "previous": "https://api.acmi.net.au/creators/?page=744", "results": [{"id": 78133, "name": "Michael Henry Wilson", "roles_in_work": [{"id": 2794713, "title": "The century of cinema. Volume 2 (USA)", "work_id": 85925, "role": "co-director", "role_id": 959, "is_primary": true}], "also_known_as": "", "date_of_birth": "", "date_of_death": "", "genders": [], "languages": [], "places_of_operation": [], "biography": "", "biography_author": null, "date_of_biography": "2023-05-09T19:33:40.260368+10:00", "external_links": [], "uuid": "51272671-0b50-4086-aabb-03b09e283a33", "source": {"name": "Vernon", "slug": "vernon"}, "source_identifier": "25098", "external_references": [{"id": 50775, "source": {"name": "Wikidata", "slug": "wikidata"}, "source_identifier": "Q121357536"}], "date_modified": "2025-03-14T20:27:37.081550+11:00"}, {"id": 78132, "name": "Florence Dauman", "roles_in_work": [{"id": 2794710, "title": "The century of cinema. Volume 2 (USA)", "work_id": 85925, "role": "producer", "role_id": 1089, "is_primary": true}], "also_known_as": "", "date_of_birth": "", "date_of_death": "", "genders": [], "languages": [], "places_of_operation": [], "biography": "", "biography_author": null, "date_of_biography": "2023-05-09T19:33:40.013324+10:00", "external_links": [], "uuid": "57b7195f-ec2f-44f1-9a9e-4daba3211a7b", "source": {"name": "Vernon", "slug": "vernon"}, "source_identifier": "19017", "external_references": [{"id": 35273, "source": {"name": "Wikidata", "slug": "wikidata"}, "source_identifier": "Q121337450"}], "date_modified": "2025-03-14T20:27:36.479160+11:00"}, {"id": 78131, "name": "Nick Parsons", "roles_in_work": [{"id": 2180651, "title": "Dead heart", "work_id": 85924, "role": "director", "role_id": 938, "is_primary": true}, {"id": 2180393, "title": "Dead Heart (A) (Captioned)", "work_id": 86591, "role": "director", "role_id": 938, "is_primary": true}], "also_known_as": "", "date_of_birth": "", "date_of_death": "", "genders": [], "languages": [], "places_of_operation": [], "biography": "", "biography_author": null, "date_of_biography": "2023-05-09T14:52:19.726360+10:00", "external_links": [], "uuid": "4283fe0b-3379-41c1-b782-3bed6f02f8f3", "source": {"name": "Vernon", "slug": "vernon"}, "source_identifier": "25759", "external_references": [{"id": 33429, "source": {"name": "Wikidata", "slug": "wikidata"}, "source_identifier": "Q113586146"}], "date_modified": "2023-09-05T23:30:09.465431+10:00"}, {"id": 78130, "name": "Helen Watts", "roles_in_work": [{"id": 2255892, "title": "Round the twist Series 4 - Volume 6 [DVD]", "work_id": 95574, "role": "co-producer", "role_id": 915, "is_primary": true}, {"id": 2254960, "title": "Round the twist Series 4 - Volume 7 [DVD]", "work_id": 95575, "role": "co-producer", "role_id": 915, "is_primary": true}, {"id": 2180649, "title": "Dead heart", "work_id": 85924, "role": "co-producer", "role_id": 915, "is_primary": true}, {"id": 2180391, "title": "Dead Heart (A) (Captioned)", "work_id": 86591, "role": "co-producer", "role_id": 915, "is_primary": true}], "also_known_as": "", "date_of_birth": "", "date_of_death": "", "genders": [], "languages": [], "places_of_operation": [], "biography": "", "biography_author": null, "date_of_biography": "2023-05-09T17:17:09.630440+10:00", "external_links": [], "uuid": "b9f0f333-538f-4c22-8402-9eba3a2f3360", "source": {"name": "Vernon", "slug": "vernon"}, "source_identifier": "20442", "external_references": [{"id": 34680, "source": {"name": "Wikidata", "slug": "wikidata"}, "source_identifier": "Q121058013"}], "date_modified": "2023-09-05T20:34:43.015917+10:00"}, {"id": 78129, "name": "Donald Kushner", "roles_in_work": [{"id": 2334307, "title": "The Brave little toaster", "work_id": 82919, "role": "co-producer", "role_id": 915, "is_primary": true}, {"id": 1847096, "title": "Nutcracker", "work_id": 84110, "role": "producer", "role_id": 1089, "is_primary": true}, {"id": 1814974, "title": "Tron [short version]", "work_id": 85921, "role": "producer", "role_id": 1089, "is_primary": true}], "also_known_as": "", "date_of_birth": "1945-03-02", "date_of_death": "", "genders": [{"id": 9, "name": "Male", "slug": "male"}], "languages": [], "places_of_operation": [{"id": 1, "name": "United States of America", "slug": "united-states-of-america"}], "biography": "Donald Kushner (born March 2, 1945) is an American producer who has worked with animation, live-action, and theater productions.", "biography_author": "Wikidata", "date_of_biography": "2023-08-01T14:41:51.035510+10:00", "external_links": [{"id": 3906, "uri": "https://en.wikipedia.org/wiki/Donald_Kushner"}], "uuid": "ac5478a0-5c42-4612-ba56-1be503b52848", "source": {"name": "Vernon", "slug": "vernon"}, "source_identifier": "18299", "external_references": [{"id": 26799, "source": {"name": "Wikidata", "slug": "wikidata"}, "source_identifier": "Q14946778"}, {"id": 28234, "source": {"name": "VIAF", "slug": "viaf"}, "source_identifier": "311656139"}, {"id": 28235, "source": {"name": "WorldCat", "slug": "worldcat"}, "source_identifier": "viaf-311656139"}], "date_modified": "2023-09-05T19:18:02.334457+10:00"}, {"id": 78128, "name": "Hart Sprager", "roles_in_work": [{"id": 2334584, "title": "The Builders", "work_id": 85919, "role": "producer/director", "role_id": 31, "is_primary": true}], "also_known_as": "", "date_of_birth": "", "date_of_death": "", "genders": [], "languages": [], "places_of_operation": [], "biography": "", "biography_author": null, "date_of_biography": "2023-05-09T19:30:10.563998+10:00", "external_links": [], "uuid": "13af8135-9d21-42ee-ae72-43dc64f6eb94", "source": {"name": "Vernon", "slug": "vernon"}, "source_identifier": "20357", "external_references": [{"id": 51331, "source": {"name": "Wikidata", "slug": "wikidata"}, "source_identifier": "Q121360866"}], "date_modified": "2023-09-05T20:31:57.178440+10:00"}, {"id": 78127, "name": "Inter-American Affairs", "roles_in_work": [{"id": 2615675, "title": "The Amazon awakens", "work_id": 85915, "role": "production company", "role_id": 941, "is_primary": true}], "also_known_as": "", "date_of_birth": "", "date_of_death": "", "genders": [], "languages": [], "places_of_operation": [], "biography": "", "biography_author": null, "date_of_biography": "2023-05-09T19:21:30.862784+10:00", "external_links": [], "uuid": "4cf31342-c463-48ee-88b6-e990036424c9", "source": {"name": "Vernon", "slug": "vernon"}, "source_identifier": "9346", "external_references": [{"id": 40352, "source": {"name": "Wikidata", "slug": "wikidata"}, "source_identifier": "Q121222610"}], "date_modified": "2025-02-26T20:26:47.963551+11:00"}, {"id": 78126, "name": "Ross Hunter", "roles_in_work": [{"id": 2205900, "title": "Pillow talk", "work_id": 89948, "role": "co-producer", "role_id": 915, "is_primary": true}, {"id": 2169413, "title": "My man Godfrey (1957)", "work_id": 95530, "role": "producer", "role_id": 1089, "is_primary": true}, {"id": 1990302, "title": "Thoroughly modern Millie", "work_id": 85903, "role": "producer", "role_id": 1089, "is_primary": true}, {"id": 2108975, "title": "Battle hymn [NTSC]", "work_id": 92615, "role": "producer", "role_id": 1089, "is_primary": true}, {"id": 1803952, "title": "Imitation of life [NTSC]", "work_id": 92643, "role": "producer", "role_id": 1089, "is_primary": true}, {"id": 1803954, "title": "Magnificent obsession [NTSC]", "work_id": 92644, "role": "producer", "role_id": 1089, "is_primary": true}, {"id": 2085995, "title": "All that heaven allows [NTSC]", "work_id": 92637, "role": "producer", "role_id": 1089, "is_primary": true}, {"id": 2085875, "title": "All I desire [NTSC]", "work_id": 92636, "role": "producer", "role_id": 1089, "is_primary": true}], "also_known_as": "", "date_of_birth": "1920-05-06", "date_of_death": "1996-03-10", "genders": [{"id": 9, "name": "Male", "slug": "male"}], "languages": [{"id": 1, "name": "English", "slug": "english"}], "places_of_operation": [{"id": 1, "name": "United States of America", "slug": "united-states-of-america"}], "biography": "Ross Hunter (born Martin Terry Fuss; May 6, 1920 – March 10, 1996) was an American film and television producer and actor. He is best known for producing light comedies such as Pillow Talk (1959), and the glamorous melodramas Magnificent Obsession (1954), Imitation of Life (1959), and Back Street (1961).\nOver the course of his career, Hunter produced films of various genres but found his greatest success with light-hearted comedies, musicals and melodramatic \"tear jerkers\" that were high on romance and glamour.", "biography_author": "Wikidata", "date_of_biography": "2023-08-01T16:55:46.690958+10:00", "external_links": [{"id": 5081, "uri": "https://en.wikipedia.org/wiki/Ross_Hunter"}], "uuid": "5620f16e-a496-4332-a34d-f37b07b51a7f", "source": {"name": "Vernon", "slug": "vernon"}, "source_identifier": "28269", "external_references": [{"id": 25350, "source": {"name": "Wikidata", "slug": "wikidata"}, "source_identifier": "Q2754518"}, {"id": 31315, "source": {"name": "VIAF", "slug": "viaf"}, "source_identifier": "87358702"}, {"id": 31316, "source": {"name": "LOC Auth", "slug": "loc-auth"}, "source_identifier": "no97056242"}, {"id": 31317, "source": {"name": "WorldCat", "slug": "worldcat"}, "source_identifier": "lccn-no97056242"}], "date_modified": "2023-09-06T00:56:42.532091+10:00"}, {"id": 78125, "name": "Ross Hunter Productions", "roles_in_work": [{"id": 1990301, "title": "Thoroughly modern Millie", "work_id": 85903, "role": "production company", "role_id": 941, "is_primary": true}], "also_known_as": "", "date_of_birth": null, "date_of_death": null, "genders": [], "languages": [], "places_of_operation": [], "biography": "", "biography_author": null, "date_of_biography": null, "external_links": [], "uuid": "3bb2992c-7291-47e7-b319-40824af2b312", "source": {"name": "Vernon", "slug": "vernon"}, "source_identifier": null, "external_references": [], "date_modified": "2023-06-14T16:33:30.576250+10:00"}, {"id": 78124, "name": "Charles H. Schneer", "roles_in_work": [{"id": 2139021, "title": "Clash of the titans", "work_id": 93421, "role": "co-producer", "role_id": 915, "is_primary": true}, {"id": 1990293, "title": "Half a sixpence", "work_id": 85901, "role": "co-producer", "role_id": 915, "is_primary": true}, {"id": 2326115, "title": "The 3 worlds of Gulliver", "work_id": 87022, "role": "producer", "role_id": 1089, "is_primary": true}, {"id": 1998872, "title": "Jason and the Argonauts [DVD]", "work_id": 94116, "role": "producer", "role_id": 1089, "is_primary": true}], "also_known_as": "Charles Hirsh Schneer", "date_of_birth": "1920-05-05", "date_of_death": "2009-01-21", "genders": [{"id": 9, "name": "Male", "slug": "male"}], "languages": [], "places_of_operation": [{"id": 1, "name": "United States of America", "slug": "united-states-of-america"}], "biography": "Charles Hirsch Schneer (May 5, 1920 – January 21, 2009) was an American film producer, best known for working with Ray Harryhausen, the specialist known for his work in stop motion model animation.", "biography_author": "Wikidata", "date_of_biography": "2023-08-01T14:22:54.404879+10:00", "external_links": [{"id": 3737, "uri": "https://en.wikipedia.org/wiki/Charles_H._Schneer"}], "uuid": "0c560721-0867-439b-9914-c885ee321a9a", "source": {"name": "Vernon", "slug": "vernon"}, "source_identifier": "16681", "external_references": [{"id": 26225, "source": {"name": "Wikidata", "slug": "wikidata"}, "source_identifier": "Q188167"}, {"id": 27755, "source": {"name": "VIAF", "slug": "viaf"}, "source_identifier": "87163379"}, {"id": 27756, "source": {"name": "LOC Auth", "slug": "loc-auth"}, "source_identifier": "no99021620"}, {"id": 27757, "source": {"name": "WorldCat", "slug": "worldcat"}, "source_identifier": "lccn-no99021620"}], "date_modified": "2023-09-05T18:26:28.515220+10:00"}]}