{"count": 28687, "next": "https://api.acmi.net.au/creators/?page=200", "previous": "https://api.acmi.net.au/creators/?page=198", "results": [{"id": 83617, "name": "Harry Barkla", "roles_in_work": [{"id": 2727536, "title": "An Interview with Harry Barkla", "work_id": 116869, "role": "creator", "role_id": 968, "is_primary": true}], "also_known_as": "", "date_of_birth": "", "date_of_death": "", "genders": [{"id": 9, "name": "Male", "slug": "male"}], "languages": [], "places_of_operation": [], "biography": "Henry (Harry) Barkla fought in the 39th Battalion in Kokoda during World War II.", "biography_author": null, "date_of_biography": "2025-03-12T08:27:29.180735+11:00", "external_links": [], "uuid": "62e333b4-8275-4f08-a5db-c28a2efa8592", "source": {"name": "Vernon", "slug": "vernon"}, "source_identifier": "34908", "external_references": [], "date_modified": "2025-03-12T08:27:29.181045+11:00"}, {"id": 83616, "name": "Arthur Harridge", "roles_in_work": [{"id": 2727523, "title": "An Interview with Arthur Harridge", "work_id": 116868, "role": "creator", "role_id": 968, "is_primary": true}], "also_known_as": "", "date_of_birth": "", "date_of_death": "", "genders": [{"id": 9, "name": "Male", "slug": "male"}], "languages": [], "places_of_operation": [], "biography": "", "biography_author": null, "date_of_biography": "2023-08-30T04:20:48.792101+10:00", "external_links": [], "uuid": "90a7f804-9f0b-4a6b-87c5-01ae415b8ba7", "source": {"name": "Vernon", "slug": "vernon"}, "source_identifier": "35008", "external_references": [], "date_modified": "2025-03-12T08:27:24.204374+11:00"}, {"id": 83615, "name": "Alfred Maskell", "roles_in_work": [{"id": 2727552, "title": "An Interview with Valda Maskell and Alf", "work_id": 116870, "role": "creator", "role_id": 968, "is_primary": true}, {"id": 2727512, "title": "An Interview with Alfred Maskell", "work_id": 116867, "role": "creator", "role_id": 968, "is_primary": true}], "also_known_as": "", "date_of_birth": "", "date_of_death": "", "genders": [{"id": 9, "name": "Male", "slug": "male"}], "languages": [], "places_of_operation": [], "biography": "", "biography_author": null, "date_of_biography": "2023-08-30T04:21:00.299125+10:00", "external_links": [], "uuid": "4a16f4d2-3921-4dbe-978f-0b419f579361", "source": {"name": "Vernon", "slug": "vernon"}, "source_identifier": "35007", "external_references": [], "date_modified": "2025-03-12T08:27:35.414114+11:00"}, {"id": 83614, "name": "Kyle Scott", "roles_in_work": [{"id": 2727504, "title": "Hope", "work_id": 116866, "role": "assistant", "role_id": 450, "is_primary": false}], "also_known_as": "", "date_of_birth": "", "date_of_death": "", "genders": [], "languages": [], "places_of_operation": [], "biography": "", "biography_author": null, "date_of_biography": "2023-08-30T04:20:38.592683+10:00", "external_links": [], "uuid": "68a0a8f4-40a2-41d3-b878-9b25618c0068", "source": {"name": "Vernon", "slug": "vernon"}, "source_identifier": "35019", "external_references": [], "date_modified": "2025-03-12T08:27:14.491338+11:00"}, {"id": 83613, "name": "Leslie Jones", "roles_in_work": [{"id": 2727502, "title": "Hope", "work_id": 116866, "role": "creator", "role_id": 968, "is_primary": true}], "also_known_as": "", "date_of_birth": "", "date_of_death": "", "genders": [{"id": 9, "name": "Male", "slug": "male"}], "languages": [], "places_of_operation": [], "biography": "", "biography_author": null, "date_of_biography": "2023-08-30T04:20:37.983557+10:00", "external_links": [], "uuid": "203cd769-52b3-4a72-bb16-b56330df723f", "source": {"name": "Vernon", "slug": "vernon"}, "source_identifier": "35018", "external_references": [], "date_modified": "2025-03-12T08:27:13.912896+11:00"}, {"id": 83612, "name": "Kym Levett", "roles_in_work": [{"id": 2727492, "title": "Finding Will", "work_id": 116865, "role": "creator", "role_id": 968, "is_primary": true}], "also_known_as": "", "date_of_birth": "", "date_of_death": "", "genders": [{"id": 9, "name": "Male", "slug": "male"}], "languages": [], "places_of_operation": [], "biography": "", "biography_author": null, "date_of_biography": "2023-08-30T04:20:32.812459+10:00", "external_links": [], "uuid": "d69cfc38-0665-4ff1-9563-331e902a2025", "source": {"name": "Vernon", "slug": "vernon"}, "source_identifier": "35017", "external_references": [], "date_modified": "2025-03-12T08:27:09.065642+11:00"}, {"id": 83611, "name": "Jacob Romeril", "roles_in_work": [{"id": 2727481, "title": "Dots and dashes", "work_id": 116864, "role": "creator", "role_id": 968, "is_primary": true}], "also_known_as": "", "date_of_birth": "", "date_of_death": "", "genders": [{"id": 9, "name": "Male", "slug": "male"}], "languages": [], "places_of_operation": [], "biography": "", "biography_author": null, "date_of_biography": "2023-08-30T04:20:27.782452+10:00", "external_links": [], "uuid": "5004fdaf-adb2-4eab-b357-dc8b328f8789", "source": {"name": "Vernon", "slug": "vernon"}, "source_identifier": "35016", "external_references": [], "date_modified": "2025-03-12T08:27:04.141330+11:00"}, {"id": 83610, "name": "Kevin Coughlin", "roles_in_work": [{"id": 2727480, "title": "Dots and dashes", "work_id": 116864, "role": "creator", "role_id": 968, "is_primary": true}], "also_known_as": "", "date_of_birth": "", "date_of_death": "", "genders": [{"id": 9, "name": "Male", "slug": "male"}], "languages": [], "places_of_operation": [], "biography": "", "biography_author": null, "date_of_biography": "2023-08-30T04:20:27.181854+10:00", "external_links": [], "uuid": "5c74510e-484f-42c8-9d43-3e90fde129fb", "source": {"name": "Vernon", "slug": "vernon"}, "source_identifier": "35015", "external_references": [], "date_modified": "2025-03-12T08:27:03.557855+11:00"}, {"id": 83609, "name": "Stan Guilfoyle", "roles_in_work": [{"id": 2728169, "title": "An Interview with Stan Guilfoyle", "work_id": 116862, "role": "creator", "role_id": 968, "is_primary": true}], "also_known_as": "", "date_of_birth": "", "date_of_death": "", "genders": [{"id": 9, "name": "Male", "slug": "male"}], "languages": [], "places_of_operation": [], "biography": "", "biography_author": null, "date_of_biography": "2023-08-30T04:27:43.434557+10:00", "external_links": [], "uuid": "2d54390a-d43e-472e-8f57-1d843d9ca60a", "source": {"name": "Vernon", "slug": "vernon"}, "source_identifier": "35038", "external_references": [], "date_modified": "2025-03-12T08:34:04.506156+11:00"}, {"id": 83608, "name": "Shirley Cornish", "roles_in_work": [{"id": 2728163, "title": "An Interview with Shirley Cornish", "work_id": 116861, "role": "creator", "role_id": 968, "is_primary": true}], "also_known_as": "", "date_of_birth": "", "date_of_death": "", "genders": [{"id": 5, "name": "Female", "slug": "female"}], "languages": [], "places_of_operation": [], "biography": "", "biography_author": null, "date_of_biography": "2023-08-30T04:27:38.905175+10:00", "external_links": [], "uuid": "56cba872-110a-4857-a1bb-99908ec958f5", "source": {"name": "Vernon", "slug": "vernon"}, "source_identifier": "35037", "external_references": [], "date_modified": "2025-03-12T08:34:00.234636+11:00"}]}