{"count": 28687, "next": "https://api.acmi.net.au/creators/?page=1062", "previous": "https://api.acmi.net.au/creators/?page=1060", "results": [{"id": 74972, "name": "Bryan Probyn", "roles_in_work": [{"id": 2763360, "title": "The Heart of the city", "work_id": 69642, "role": "director", "role_id": 938, "is_primary": true}], "also_known_as": "", "date_of_birth": "", "date_of_death": "", "genders": [], "languages": [], "places_of_operation": [], "biography": "", "biography_author": null, "date_of_biography": "2023-05-09T20:01:46.728222+10:00", "external_links": [], "uuid": "2f303f66-0b27-4192-98a4-65731fd6715f", "source": {"name": "Vernon", "slug": "vernon"}, "source_identifier": "16360", "external_references": [{"id": 36200, "source": {"name": "Wikidata", "slug": "wikidata"}, "source_identifier": "Q121034181"}], "date_modified": "2025-03-14T17:41:22.589385+11:00"}, {"id": 74971, "name": "Erik Nielsen", "roles_in_work": [{"id": 2763358, "title": "The Heart of the city", "work_id": 69642, "role": "director", "role_id": 938, "is_primary": true}, {"id": 908745, "title": "Ghost hunters", "work_id": 89152, "role": "director", "role_id": 938, "is_primary": true}], "also_known_as": "", "date_of_birth": "", "date_of_death": "", "genders": [], "languages": [], "places_of_operation": [], "biography": "", "biography_author": null, "date_of_biography": "2023-05-09T20:01:46.512417+10:00", "external_links": [], "uuid": "d463f233-bb47-48e1-9028-b0d24d877461", "source": {"name": "Vernon", "slug": "vernon"}, "source_identifier": "18849", "external_references": [{"id": 38600, "source": {"name": "Wikidata", "slug": "wikidata"}, "source_identifier": "Q121058029"}], "date_modified": "2025-03-14T17:41:22.012418+11:00"}, {"id": 74970, "name": "Reginald Morris", "roles_in_work": [{"id": 2763357, "title": "The Heart of the city", "work_id": 69642, "role": "director", "role_id": 938, "is_primary": true}], "also_known_as": "", "date_of_birth": "", "date_of_death": "", "genders": [], "languages": [], "places_of_operation": [], "biography": "", "biography_author": null, "date_of_biography": "2023-05-09T20:01:46.276798+10:00", "external_links": [], "uuid": "7369a9ec-2307-4893-9418-e04f729fc3d8", "source": {"name": "Vernon", "slug": "vernon"}, "source_identifier": "27234", "external_references": [{"id": 39687, "source": {"name": "Wikidata", "slug": "wikidata"}, "source_identifier": "Q121035125"}], "date_modified": "2025-03-14T17:41:21.431828+11:00"}, {"id": 74969, "name": "Claus Loof", "roles_in_work": [{"id": 2763345, "title": "The Heart of the city", "work_id": 69642, "role": "director", "role_id": 938, "is_primary": true}], "also_known_as": "", "date_of_birth": "", "date_of_death": "", "genders": [], "languages": [], "places_of_operation": [], "biography": "", "biography_author": null, "date_of_biography": "2023-05-09T20:01:45.590701+10:00", "external_links": [], "uuid": "faeb1367-2cd8-4c77-bd85-4514e2a3c578", "source": {"name": "Vernon", "slug": "vernon"}, "source_identifier": "17099", "external_references": [{"id": 32729, "source": {"name": "Wikidata", "slug": "wikidata"}, "source_identifier": "Q121271190"}], "date_modified": "2025-03-14T17:41:19.668840+11:00"}, {"id": 74968, "name": "Mogens Gander", "roles_in_work": [{"id": 2763337, "title": "The Heart of the city", "work_id": 69642, "role": "director", "role_id": 938, "is_primary": true}], "also_known_as": "", "date_of_birth": "", "date_of_death": "", "genders": [], "languages": [], "places_of_operation": [], "biography": "", "biography_author": null, "date_of_biography": "2023-05-09T20:01:44.879231+10:00", "external_links": [], "uuid": "76bf338f-a8dd-4259-adca-9e988a36221c", "source": {"name": "Vernon", "slug": "vernon"}, "source_identifier": "25475", "external_references": [{"id": 42230, "source": {"name": "Wikidata", "slug": "wikidata"}, "source_identifier": "Q121298860"}], "date_modified": "2025-03-14T17:41:17.815758+11:00"}, {"id": 74967, "name": "Leonard Forest", "roles_in_work": [{"id": 2242825, "title": "Fishermen of Pubnico", "work_id": 89855, "role": "director", "role_id": 938, "is_primary": true}, {"id": 2763334, "title": "The Heart of the city", "work_id": 69642, "role": "director", "role_id": 938, "is_primary": true}, {"id": 2646920, "title": "The Whole world over", "work_id": 74727, "role": "director", "role_id": 938, "is_primary": true}, {"id": 873977, "title": "In search of innocence", "work_id": 88504, "role": "director", "role_id": 938, "is_primary": true}, {"id": 2337323, "title": "The Charwoman", "work_id": 90630, "role": "director", "role_id": 938, "is_primary": true}, {"id": 1809488, "title": "Ti-Jean in the land of iron", "work_id": 90701, "role": "producer", "role_id": 1089, "is_primary": true}, {"id": 2315247, "title": "Street to the world", "work_id": 73294, "role": "producer", "role_id": 1089, "is_primary": true}, {"id": 2050311, "title": "'Colleges classiques' in Quebec", "work_id": 90801, "role": "producer", "role_id": 1089, "is_primary": true}, {"id": 1819898, "title": "Je", "work_id": 75090, "role": "producer", "role_id": 1089, "is_primary": true}], "also_known_as": "", "date_of_birth": "", "date_of_death": "", "genders": [], "languages": [], "places_of_operation": [], "biography": "", "biography_author": null, "date_of_biography": "2023-05-09T20:01:44.660312+10:00", "external_links": [], "uuid": "5e6b4017-44bd-459d-ba2d-5e6cc84d985a", "source": {"name": "Vernon", "slug": "vernon"}, "source_identifier": "23714", "external_references": [], "date_modified": "2025-03-14T17:41:17.239985+11:00"}, {"id": 74966, "name": "Jean-Claude Chiabaut", "roles_in_work": [{"id": 2763331, "title": "The Heart of the city", "work_id": 69642, "role": "director", "role_id": 938, "is_primary": true}], "also_known_as": "", "date_of_birth": "", "date_of_death": "", "genders": [], "languages": [], "places_of_operation": [], "biography": "", "biography_author": null, "date_of_biography": "2023-05-09T20:01:44.428635+10:00", "external_links": [], "uuid": "6b948db8-8847-45f9-a199-17571945a6f4", "source": {"name": "Vernon", "slug": "vernon"}, "source_identifier": "21569", "external_references": [{"id": 42531, "source": {"name": "Wikidata", "slug": "wikidata"}, "source_identifier": "Q121315195"}], "date_modified": "2025-03-14T17:41:16.664272+11:00"}, {"id": 74965, "name": "Wim Smits", "roles_in_work": [{"id": 2763320, "title": "The Heart of the city", "work_id": 69642, "role": "director", "role_id": 938, "is_primary": true}], "also_known_as": "", "date_of_birth": "", "date_of_death": "", "genders": [], "languages": [], "places_of_operation": [], "biography": "", "biography_author": null, "date_of_biography": "2023-05-09T20:01:43.971404+10:00", "external_links": [], "uuid": "c4ae0d16-31c8-4f2a-8636-c3ab092972b7", "source": {"name": "Vernon", "slug": "vernon"}, "source_identifier": "30518", "external_references": [{"id": 35526, "source": {"name": "Wikidata", "slug": "wikidata"}, "source_identifier": "Q121270606"}], "date_modified": "2025-03-14T17:41:15.491514+11:00"}, {"id": 74964, "name": "Edith Spencer", "roles_in_work": [{"id": 894883, "title": "Lessons in living", "work_id": 69598, "role": "co-director", "role_id": 959, "is_primary": true}], "also_known_as": "", "date_of_birth": null, "date_of_death": null, "genders": [], "languages": [], "places_of_operation": [], "biography": "", "biography_author": null, "date_of_biography": null, "external_links": [], "uuid": "a669b4d3-b9dc-42b1-a9d1-a050c77f9456", "source": {"name": "Vernon", "slug": "vernon"}, "source_identifier": null, "external_references": [{"id": 33537, "source": {"name": "Wikidata", "slug": "wikidata"}, "source_identifier": "Q121222980"}], "date_modified": "2023-09-05T19:24:11.824867+10:00"}, {"id": 74963, "name": "Suzanne Angel", "roles_in_work": [{"id": 894872, "title": "Legault's place", "work_id": 69581, "role": "director", "role_id": 938, "is_primary": true}], "also_known_as": "", "date_of_birth": null, "date_of_death": null, "genders": [{"id": 5, "name": "Female", "slug": "female"}], "languages": [], "places_of_operation": [{"id": 36, "name": "Canada", "slug": "canada"}], "biography": "", "biography_author": null, "date_of_biography": null, "external_links": [], "uuid": "4931ad75-7d56-4959-affc-3caa554f2f3e", "source": {"name": "Vernon", "slug": "vernon"}, "source_identifier": null, "external_references": [{"id": 13420, "source": {"name": "Wikidata", "slug": "wikidata"}, "source_identifier": "Q59606416"}], "date_modified": "2023-09-06T01:37:24.658355+10:00"}]}