{"count": 28683, "next": "https://api.acmi.net.au/creators/?page=1579", "previous": "https://api.acmi.net.au/creators/?page=1577", "results": [{"id": 31596, "name": "RCM Productions", "roles_in_work": [{"id": 2464631, "title": "Operations on a single face surfacer. No. 1. Planing rough surfaces to dimensions", "work_id": 89642, "role": "production company", "role_id": 941, "is_primary": true}], "also_known_as": "", "date_of_birth": "", "date_of_death": "", "genders": [], "languages": [], "places_of_operation": [], "biography": "", "biography_author": null, "date_of_biography": "2023-08-14T10:15:44.578730+10:00", "external_links": [], "uuid": "951b6e96-969a-494f-9822-3bfbb5bbc4f5", "source": {"name": "Vernon", "slug": "vernon"}, "source_identifier": "11887", "external_references": [], "date_modified": "2023-08-14T10:15:44.579028+10:00"}, {"id": 31591, "name": "Jacqueline Turnure", "roles_in_work": [{"id": 2408849, "title": "Greening out", "work_id": 89638, "role": "director", "role_id": 938, "is_primary": true}], "also_known_as": "", "date_of_birth": "", "date_of_death": "", "genders": [], "languages": [], "places_of_operation": [], "biography": "", "biography_author": null, "date_of_biography": "2023-08-11T17:09:42.983633+10:00", "external_links": [], "uuid": "0ef904f5-73f9-4fe8-88d7-1a26a656e983", "source": {"name": "Vernon", "slug": "vernon"}, "source_identifier": "21132", "external_references": [], "date_modified": "2023-08-11T17:09:42.983876+10:00"}, {"id": 31590, "name": "Robyn Silber", "roles_in_work": [{"id": 2408848, "title": "Greening out", "work_id": 89638, "role": "producer", "role_id": 1089, "is_primary": true}], "also_known_as": "", "date_of_birth": "", "date_of_death": "", "genders": [], "languages": [], "places_of_operation": [], "biography": "", "biography_author": null, "date_of_biography": "2023-08-11T17:09:42.319901+10:00", "external_links": [], "uuid": "38b87f4b-da61-43e7-8327-19e15efb8c7c", "source": {"name": "Vernon", "slug": "vernon"}, "source_identifier": "27984", "external_references": [], "date_modified": "2023-08-11T17:09:42.320117+10:00"}, {"id": 31589, "name": "Midas Interactive", "roles_in_work": [{"id": 2408847, "title": "Greening out", "work_id": 89638, "role": "production company", "role_id": 941, "is_primary": true}], "also_known_as": "", "date_of_birth": "", "date_of_death": "", "genders": [], "languages": [], "places_of_operation": [], "biography": "", "biography_author": null, "date_of_biography": "2023-08-11T17:09:41.665581+10:00", "external_links": [], "uuid": "b143b0df-89bb-4a84-980d-5ce555ead6d2", "source": {"name": "Vernon", "slug": "vernon"}, "source_identifier": "10514", "external_references": [], "date_modified": "2023-08-11T17:09:41.665863+10:00"}, {"id": 31587, "name": "Shinya Tsukamoto", "roles_in_work": [{"id": 1993971, "title": "Tetsuo: the iron man", "work_id": 89637, "role": "director", "role_id": 938, "is_primary": true}], "also_known_as": "", "date_of_birth": "1960-01-01", "date_of_death": null, "genders": [{"id": 9, "name": "Male", "slug": "male"}], "languages": [{"id": 2, "name": "Japanese", "slug": "japanese"}], "places_of_operation": [{"id": 8, "name": "Japan", "slug": "japan"}], "biography": "Shinya Tsukamoto (塚本 晋也, Tsukamoto Shin'ya, born January 1, 1960) is a Japanese filmmaker, film producer, screenwriter, editor, director, cinematographer, art director, production designer and actor.\nWith a considerable cult following both domestically and abroad, Tsukamoto is best known for his body horror/cyberpunk film Tetsuo: The Iron Man (1989), which is considered the defining film of the Japanese Cyberpunk movement, as well as for its companion pieces Tetsuo II: Body Hammer (1992) and Tetsuo: The Bullet Man (2009).\nHis other films include Tokyo Fist (1995), Bullet Ballet (1998), A Snake of June (2002), Vital (2004), Kotoko (2011) and Killing (2018).\nIn addition to starring in almost all his films, Tsukamoto has also appeared as an actor in films by other directors, including Martin Scorsese, Takashi Miike and Hideaki Anno. He has been cited as an influence on popular western filmmakers such as Quentin Tarantino, David Fincher, Darren Aronofsky and The Wachowskis.", "biography_author": "Wikidata", "date_of_biography": "2022-05-19T13:04:36.055758+10:00", "external_links": [{"id": 3095, "uri": "https://en.wikipedia.org/wiki/Shinya_Tsukamoto"}], "uuid": "0db63f9e-3fcc-4502-8669-ee0033bc466c", "source": {"name": "Vernon", "slug": "vernon"}, "source_identifier": "28769", "external_references": [{"id": 13131, "source": {"name": "Wikidata", "slug": "wikidata"}, "source_identifier": "Q738544"}, {"id": 13132, "source": {"name": "VIAF", "slug": "viaf"}, "source_identifier": "60219338"}, {"id": 13133, "source": {"name": "LOC Auth", "slug": "loc-auth"}, "source_identifier": "no98064967"}, {"id": 13134, "source": {"name": "WorldCat", "slug": "worldcat"}, "source_identifier": "lccn-no98064967"}], "date_modified": "2023-09-13T12:32:42.834519+10:00"}, {"id": 31580, "name": "Short Cuts Productions Inc", "roles_in_work": [{"id": 2298357, "title": "Short cuts [Widescreen]", "work_id": 89617, "role": "production company", "role_id": 941, "is_primary": true}], "also_known_as": "", "date_of_birth": "", "date_of_death": "", "genders": [], "languages": [], "places_of_operation": [], "biography": "", "biography_author": null, "date_of_biography": "2023-05-09T18:32:00.055616+10:00", "external_links": [], "uuid": "683b1d17-5ac6-4682-a188-5fa5d3c48235", "source": {"name": "Vernon", "slug": "vernon"}, "source_identifier": "12549", "external_references": [{"id": 39353, "source": {"name": "Wikidata", "slug": "wikidata"}, "source_identifier": "Q121270740"}], "date_modified": "2023-09-06T01:16:58.842133+10:00"}, {"id": 31579, "name": "J Stirling", "roles_in_work": [{"id": 2465323, "title": "Road reconnaissance", "work_id": 89616, "role": "producer", "role_id": 1089, "is_primary": true}], "also_known_as": "", "date_of_birth": "", "date_of_death": "", "genders": [], "languages": [], "places_of_operation": [], "biography": "", "biography_author": null, "date_of_biography": "2023-08-14T10:32:16.405070+10:00", "external_links": [], "uuid": "5dd7017f-f884-4d0d-b5b0-768de25a79a2", "source": {"name": "Vernon", "slug": "vernon"}, "source_identifier": "20953", "external_references": [], "date_modified": "2023-08-14T10:32:16.405375+10:00"}, {"id": 31578, "name": "Victorian Country Roads Board", "roles_in_work": [{"id": 2465322, "title": "Road reconnaissance", "work_id": 89616, "role": "production company", "role_id": 941, "is_primary": true}], "also_known_as": "", "date_of_birth": "", "date_of_death": "", "genders": [], "languages": [], "places_of_operation": [], "biography": "", "biography_author": null, "date_of_biography": "2023-08-14T10:32:15.777620+10:00", "external_links": [], "uuid": "e1a12d2d-3cc1-4116-bb7e-57a31294eb75", "source": {"name": "Vernon", "slug": "vernon"}, "source_identifier": "14070", "external_references": [], "date_modified": "2023-08-14T10:32:15.777870+10:00"}, {"id": 31574, "name": "Insignia Films", "roles_in_work": [{"id": 3084004, "title": "The West. Eps 7 and 8: The Geography of hope. One sky above us", "work_id": 92192, "role": "production company", "role_id": 941, "is_primary": true}, {"id": 3083994, "title": "The West. Eps 3 and 4: The Speck of the future. Death runs riot", "work_id": 92191, "role": "production company", "role_id": 941, "is_primary": true}, {"id": 3084015, "title": "The West. Eps 5 and 6: The Grandest enterprise under God. Fight no more forever", "work_id": 92193, "role": "production company", "role_id": 941, "is_primary": true}, {"id": 3084038, "title": "The West", "work_id": 115583, "role": "production company", "role_id": 941, "is_primary": true}, {"id": 2468120, "title": "The Sleeping tiger", "work_id": 89613, "role": "production company", "role_id": 941, "is_primary": true}, {"id": 3084025, "title": "The West. Eps 1 and 2: The People. Empire upon the trails", "work_id": 92194, "role": "production company", "role_id": 941, "is_primary": true}], "also_known_as": "", "date_of_birth": "", "date_of_death": "", "genders": [], "languages": [], "places_of_operation": [], "biography": "", "biography_author": null, "date_of_biography": "2023-08-14T11:34:31.575808+10:00", "external_links": [], "uuid": "0a38755c-a96f-4b52-b760-9bd02a5f364c", "source": {"name": "Vernon", "slug": "vernon"}, "source_identifier": "9308", "external_references": [], "date_modified": "2025-03-17T10:35:18.632106+11:00"}, {"id": 31571, "name": "Andre Heinrich", "roles_in_work": [{"id": 2751709, "title": "La Jetee", "work_id": 97943, "role": "producer", "role_id": 1089, "is_primary": true}, {"id": 1815614, "title": "La Jetee = The Pier", "work_id": 89610, "role": "producer", "role_id": 1089, "is_primary": true}], "also_known_as": "", "date_of_birth": null, "date_of_death": null, "genders": [], "languages": [], "places_of_operation": [], "biography": "", "biography_author": null, "date_of_biography": null, "external_links": [], "uuid": "240e5225-82b0-4f8d-83a9-0213cdb9503f", "source": {"name": "Vernon", "slug": "vernon"}, "source_identifier": "15105", "external_references": [], "date_modified": "2025-03-13T00:50:11.247293+11:00"}]}