{"count": 28687, "next": "https://api.acmi.net.au/creators/?page=1054", "previous": "https://api.acmi.net.au/creators/?page=1052", "results": [{"id": 75052, "name": "John Bennett", "roles_in_work": [{"id": 2415895, "title": "Michael Casson, studio potter", "work_id": 70346, "role": "producer/director", "role_id": 31, "is_primary": true}], "also_known_as": "", "date_of_birth": "", "date_of_death": "", "genders": [], "languages": [], "places_of_operation": [], "biography": "", "biography_author": null, "date_of_biography": "2023-08-11T19:48:57.327183+10:00", "external_links": [], "uuid": "53106438-25a5-472a-93fe-89c940f220e7", "source": {"name": "Vernon", "slug": "vernon"}, "source_identifier": "22126", "external_references": [{"id": 51446, "source": {"name": "Wikidata", "slug": "wikidata"}, "source_identifier": "Q121361400"}], "date_modified": "2023-09-05T21:32:43.120892+10:00"}, {"id": 75051, "name": "Carolyn Leaf", "roles_in_work": [{"id": 2475026, "title": "The Metamorphosis of Mr Samsa", "work_id": 70328, "role": "director", "role_id": 938, "is_primary": true}], "also_known_as": "", "date_of_birth": "1946-08-12", "date_of_death": "", "genders": [{"id": 5, "name": "Female", "slug": "female"}], "languages": [], "places_of_operation": [{"id": 1, "name": "United States of America", "slug": "united-states-of-america"}], "biography": "Caroline Leaf (born August 12, 1946) is a Canadian-American filmmaker, animator, director, tutor and artist. She has produced numerous short animated films and her work has been recognized worldwide. She is best known as one of the pioneering filmmakers at the National Film Board of Canada (NFB). She worked at the NFB from 1972 to 1991. During that time, she created the sand animation and paint-on-glass animation techniques. She also tried new hands-on techniques with 70mm IMAX film. Her work is often representational of Canadian culture and is narrative based. Leaf now lives in London UK and is a tutor at The National Film and Television School. She maintains a studio in London working in oils and on paper and does landscape drawing with iPad.", "biography_author": "Wikidata", "date_of_biography": "2023-09-05T18:21:30.542621+10:00", "external_links": [{"id": 1780, "uri": "https://en.wikipedia.org/wiki/Caroline_Leaf"}], "uuid": "577cb86f-89ee-46af-af5d-6e0cb8910ffc", "source": {"name": "Vernon", "slug": "vernon"}, "source_identifier": "16560", "external_references": [{"id": 7758, "source": {"name": "Wikidata", "slug": "wikidata"}, "source_identifier": "Q1044521"}, {"id": 7759, "source": {"name": "VIAF", "slug": "viaf"}, "source_identifier": "40717968"}, {"id": 7760, "source": {"name": "LOC Auth", "slug": "loc-auth"}, "source_identifier": "n82062337"}, {"id": 7761, "source": {"name": "WorldCat", "slug": "worldcat"}, "source_identifier": "lccn-n82062337"}], "date_modified": "2023-09-05T18:21:30.553112+10:00"}, {"id": 75050, "name": "Tanya Ballantyne", "roles_in_work": [{"id": 2645627, "title": "The Merry-Go-Round", "work_id": 70317, "role": "director", "role_id": 938, "is_primary": true}, {"id": 2270617, "title": "The Things I cannot change", "work_id": 73692, "role": "director", "role_id": 938, "is_primary": true}], "also_known_as": "", "date_of_birth": "1944-05-04", "date_of_death": "2015-06-18", "genders": [{"id": 5, "name": "Female", "slug": "female"}], "languages": [], "places_of_operation": [{"id": 36, "name": "Canada", "slug": "canada"}], "biography": "", "biography_author": null, "date_of_biography": "2023-05-09T17:44:39.253442+10:00", "external_links": [], "uuid": "17f8fb7e-d5e7-467d-86c6-c267eaf7c01d", "source": {"name": "Vernon", "slug": "vernon"}, "source_identifier": "29487", "external_references": [{"id": 13466, "source": {"name": "Wikidata", "slug": "wikidata"}, "source_identifier": "Q61965469"}, {"id": 13467, "source": {"name": "VIAF", "slug": "viaf"}, "source_identifier": "105235919"}, {"id": 13468, "source": {"name": "WorldCat", "slug": "worldcat"}, "source_identifier": "viaf-105235919"}], "date_modified": "2025-03-05T12:45:34.672597+11:00"}, {"id": 75049, "name": "Red Grooms", "roles_in_work": [{"id": 2415862, "title": "Meow meow", "work_id": 70314, "role": "co-director", "role_id": 959, "is_primary": true}], "also_known_as": "", "date_of_birth": "", "date_of_death": "", "genders": [], "languages": [], "places_of_operation": [], "biography": "", "biography_author": null, "date_of_biography": "2023-08-11T19:48:06.127280+10:00", "external_links": [], "uuid": "3582a0f6-f3d0-41fd-9018-c4e04ab3e8e3", "source": {"name": "Vernon", "slug": "vernon"}, "source_identifier": "11908", "external_references": [{"id": 39945, "source": {"name": "Wikidata", "slug": "wikidata"}, "source_identifier": "Q121222837"}], "date_modified": "2023-09-06T00:24:21.566499+10:00"}, {"id": 75048, "name": "Richard Patton", "roles_in_work": [{"id": 895062, "title": "Mental patients' association", "work_id": 70311, "role": "director", "role_id": 938, "is_primary": true}], "also_known_as": "", "date_of_birth": null, "date_of_death": null, "genders": [], "languages": [], "places_of_operation": [], "biography": "", "biography_author": null, "date_of_biography": null, "external_links": [], "uuid": "73e715c2-1c4d-4a67-bcda-4e59074c6803", "source": {"name": "Vernon", "slug": "vernon"}, "source_identifier": null, "external_references": [{"id": 36744, "source": {"name": "Wikidata", "slug": "wikidata"}, "source_identifier": "Q121079391"}], "date_modified": "2023-09-06T00:31:44.803285+10:00"}, {"id": 75047, "name": "Shelah Reljic", "roles_in_work": [{"id": 876043, "title": "Harrison's Yukon", "work_id": 89812, "role": "director", "role_id": 938, "is_primary": true}, {"id": 2296902, "title": "She's a railroader", "work_id": 86790, "role": "co-producer", "role_id": 915, "is_primary": true}, {"id": 895059, "title": "Mental patients' association", "work_id": 70311, "role": "co-producer", "role_id": 915, "is_primary": true}, {"id": 2231963, "title": "Pretend you're wearing a barrel", "work_id": 92844, "role": "co-producer", "role_id": 915, "is_primary": true}, {"id": 2262527, "title": "Sauk-Ai", "work_id": 85760, "role": "co-producer", "role_id": 915, "is_primary": true}, {"id": 2260788, "title": "Salmon people", "work_id": 72459, "role": "producer", "role_id": 1089, "is_primary": true}, {"id": 2254300, "title": "Rosanna: a portrait of an immigrant woman", "work_id": 90382, "role": "producer", "role_id": 1089, "is_primary": true}], "also_known_as": "", "date_of_birth": "", "date_of_death": "", "genders": [], "languages": [], "places_of_operation": [], "biography": "", "biography_author": null, "date_of_biography": "2023-05-09T18:29:14.901770+10:00", "external_links": [], "uuid": "f7dbe5ed-db60-4fcd-bb59-4b555bcd1c34", "source": {"name": "Vernon", "slug": "vernon"}, "source_identifier": "28735", "external_references": [{"id": 41883, "source": {"name": "Wikidata", "slug": "wikidata"}, "source_identifier": "Q121337606"}], "date_modified": "2023-09-06T01:14:34.606764+10:00"}, {"id": 75046, "name": "Will Roberts", "roles_in_work": [{"id": 895057, "title": "Men's lives", "work_id": 70310, "role": "co-producer", "role_id": 915, "is_primary": true}, {"id": 2088486, "title": "American Rebel", "work_id": 80777, "role": "producer/director", "role_id": 31, "is_primary": true}], "also_known_as": "", "date_of_birth": "", "date_of_death": "", "genders": [{"id": 9, "name": "Male", "slug": "male"}], "languages": [], "places_of_operation": [], "biography": "", "biography_author": null, "date_of_biography": "2023-05-09T12:00:48.831673+10:00", "external_links": [], "uuid": "cfc80abf-b779-4982-9dfe-d144807a283c", "source": {"name": "Vernon", "slug": "vernon"}, "source_identifier": "30354", "external_references": [{"id": 50995, "source": {"name": "Wikidata", "slug": "wikidata"}, "source_identifier": "Q24686975"}], "date_modified": "2023-09-06T02:14:08.421169+10:00"}, {"id": 75045, "name": "Josh Hanig", "roles_in_work": [{"id": 895056, "title": "Men's lives", "work_id": 70310, "role": "co-producer", "role_id": 915, "is_primary": true}, {"id": 2305484, "title": "Song of the canary", "work_id": 75762, "role": "co-producers/directors", "role_id": 628, "is_primary": true}], "also_known_as": "", "date_of_birth": "", "date_of_death": "", "genders": [], "languages": [], "places_of_operation": [], "biography": "", "biography_author": null, "date_of_biography": "2023-05-09T18:44:14.850969+10:00", "external_links": [], "uuid": "7546c98c-0229-4b63-ab83-aa437311b5bc", "source": {"name": "Vernon", "slug": "vernon"}, "source_identifier": "22760", "external_references": [{"id": 40552, "source": {"name": "Wikidata", "slug": "wikidata"}, "source_identifier": "Q121271090"}], "date_modified": "2023-09-05T21:51:41.379223+10:00"}, {"id": 75044, "name": "George Geertsen", "roles_in_work": [{"id": 747898, "title": "The Men in the park", "work_id": 70299, "role": "director", "role_id": 938, "is_primary": true}, {"id": 2229142, "title": "Prison", "work_id": 71848, "role": "director", "role_id": 938, "is_primary": true}], "also_known_as": "", "date_of_birth": "", "date_of_death": "", "genders": [], "languages": [], "places_of_operation": [], "biography": "", "biography_author": null, "date_of_biography": "2023-05-09T16:31:57.824010+10:00", "external_links": [], "uuid": "a767f4bf-9f37-4963-a765-90444dad53cf", "source": {"name": "Vernon", "slug": "vernon"}, "source_identifier": "19600", "external_references": [{"id": 33992, "source": {"name": "Wikidata", "slug": "wikidata"}, "source_identifier": "Q121035284"}], "date_modified": "2023-09-05T20:05:09.729753+10:00"}, {"id": 75043, "name": "Vincent Tovell", "roles_in_work": [{"id": 2167013, "title": "No place to go", "work_id": 70930, "role": "co-producer", "role_id": 915, "is_primary": true}, {"id": 855250, "title": "Men for others", "work_id": 70298, "role": "producer/director", "role_id": 31, "is_primary": true}, {"id": 2646882, "title": "A Well known stranger", "work_id": 74587, "role": "producer/director", "role_id": 31, "is_primary": true}], "also_known_as": "", "date_of_birth": "", "date_of_death": "", "genders": [], "languages": [], "places_of_operation": [], "biography": "", "biography_author": null, "date_of_biography": "2023-05-09T14:26:37.215763+10:00", "external_links": [], "uuid": "c31876f6-520b-4896-831a-5ab57cdaf6c1", "source": {"name": "Vernon", "slug": "vernon"}, "source_identifier": "30147", "external_references": [{"id": 39509, "source": {"name": "Wikidata", "slug": "wikidata"}, "source_identifier": "Q121078899"}], "date_modified": "2025-03-05T13:15:08.263265+11:00"}]}