{"count": 28687, "next": "https://api.acmi.net.au/creators/?page=1483", "previous": "https://api.acmi.net.au/creators/?page=1481", "results": [{"id": 34567, "name": "Leon Thau", "roles_in_work": [{"id": 2263198, "title": "Save the lady", "work_id": 92861, "role": "director", "role_id": 938, "is_primary": true}], "also_known_as": "", "date_of_birth": "1926-04-08", "date_of_death": "2010-05-16", "genders": [{"id": 9, "name": "Male", "slug": "male"}], "languages": [], "places_of_operation": [], "biography": "Leon Thau (8 April 1926 in Palestine – 16 May 2010 in Dorset, United Kingdom) was a British actor, TV producer and director.  He played the part of Frankie Wing in the 1960 London production of the musical Flower Drum Song. As an actor, he became known in the BBC TV comedy series It's a Square World (1960–64), and also appeared in Comedy Playhouse, The Gnomes of Dulwich, Z-Cars, Up Pompeii! and The Avengers. He had parts in the films The Magic Christian, Carry On Up the Khyber, The Great St Trinian's Train Robbery and The Sandwich Man.\nHaving worked with Michael Bentine in It's a Square World and The Sandwich Man, he produced and directed Michael Bentine's Potty Time for Thames Television.As a director he was responsible for Prisoner Cell Block H, The Tomorrow People, and the children's series T-Bag of which he was also a producer. He produced the situation comedy It's Awfully Bad For Your Eyes, Darling (1971).\n\n", "biography_author": "Wikidata", "date_of_biography": "2022-05-19T12:14:54.536988+10:00", "external_links": [{"id": 2566, "uri": "https://en.wikipedia.org/wiki/Leon_Thau"}], "uuid": "dbcb6cd4-7b46-4edb-bc43-1ce96d40fa83", "source": {"name": "Vernon", "slug": "vernon"}, "source_identifier": "23711", "external_references": [{"id": 10963, "source": {"name": "Wikidata", "slug": "wikidata"}, "source_identifier": "Q6524917"}], "date_modified": "2023-09-13T12:30:57.864961+10:00"}, {"id": 34564, "name": "Tim Burstall and Associates", "roles_in_work": [{"id": 2314017, "title": "Stork", "work_id": 92860, "role": "production company", "role_id": 941, "is_primary": true}], "also_known_as": "", "date_of_birth": "", "date_of_death": "", "genders": [], "languages": [], "places_of_operation": [], "biography": "", "biography_author": null, "date_of_biography": "2023-05-09T19:01:40.623340+10:00", "external_links": [], "uuid": "3b9fbf5d-c579-47fe-b1b7-b62829662828", "source": {"name": "Vernon", "slug": "vernon"}, "source_identifier": "13524", "external_references": [], "date_modified": "2023-06-14T16:33:30.576250+10:00"}, {"id": 34559, "name": "Rowdy Herrington", "roles_in_work": [{"id": 2162722, "title": "Jack's back", "work_id": 92857, "role": "director", "role_id": 938, "is_primary": true}], "also_known_as": "", "date_of_birth": "1951-01-01", "date_of_death": null, "genders": [{"id": 9, "name": "Male", "slug": "male"}], "languages": [], "places_of_operation": [{"id": 1, "name": "United States of America", "slug": "united-states-of-america"}], "biography": "Rowdy L. Herrington (born 1951 in Pittsburgh, Pennsylvania) is a Hollywood director and writer currently residing in Livingston, Montana.  He is married and has no children.", "biography_author": "Wikidata", "date_of_biography": "2022-05-19T12:58:43.911736+10:00", "external_links": [{"id": 3034, "uri": "https://en.wikipedia.org/wiki/Rowdy_Herrington"}], "uuid": "923df661-4115-4699-93df-bb225d13fb30", "source": {"name": "Vernon", "slug": "vernon"}, "source_identifier": "28290", "external_references": [{"id": 12878, "source": {"name": "Wikidata", "slug": "wikidata"}, "source_identifier": "Q3445566"}, {"id": 12879, "source": {"name": "VIAF", "slug": "viaf"}, "source_identifier": "10042480"}, {"id": 12880, "source": {"name": "LOC Auth", "slug": "loc-auth"}, "source_identifier": "n92063581"}, {"id": 12881, "source": {"name": "WorldCat", "slug": "worldcat"}, "source_identifier": "lccn-n92063581"}], "date_modified": "2023-09-13T12:32:28.782258+10:00"}, {"id": 34556, "name": "Palisades Entertainment Group", "roles_in_work": [{"id": 2162716, "title": "Jack's back", "work_id": 92857, "role": "production company", "role_id": 941, "is_primary": true}], "also_known_as": "", "date_of_birth": "", "date_of_death": "", "genders": [], "languages": [], "places_of_operation": [], "biography": "", "biography_author": null, "date_of_biography": "2023-05-09T14:20:02.324888+10:00", "external_links": [], "uuid": "d980118d-cbb0-44cb-afa7-75c27133e1ec", "source": {"name": "Vernon", "slug": "vernon"}, "source_identifier": "11245", "external_references": [{"id": 41059, "source": {"name": "Wikidata", "slug": "wikidata"}, "source_identifier": "Q121034338"}], "date_modified": "2023-09-05T23:39:05.902538+10:00"}, {"id": 34555, "name": "Oury Milshtein", "roles_in_work": [{"id": 1805476, "title": "Vagabond = Sans toit ni loi", "work_id": 92856, "role": "producer", "role_id": 1089, "is_primary": true}], "also_known_as": "", "date_of_birth": "1957-10-06", "date_of_death": null, "genders": [{"id": 9, "name": "Male", "slug": "male"}], "languages": [{"id": 4, "name": "French", "slug": "french"}], "places_of_operation": [{"id": 17, "name": "France", "slug": "france"}], "biography": "", "biography_author": null, "date_of_biography": null, "external_links": [], "uuid": "d1cd9113-0ca4-4e19-a60f-3dc36599dbe7", "source": {"name": "Vernon", "slug": "vernon"}, "source_identifier": "25995", "external_references": [{"id": 11969, "source": {"name": "Wikidata", "slug": "wikidata"}, "source_identifier": "Q3358488"}], "date_modified": "2023-09-13T12:31:42.978352+10:00"}, {"id": 34553, "name": "Cine Tamaris", "roles_in_work": [{"id": 2351144, "title": "The Gleaners and I = Les Glaneurs et la glaneuse", "work_id": 94941, "role": "production company", "role_id": 941, "is_primary": true}, {"id": 813162, "title": "Vagabond = Sans toit ni loi", "work_id": 92856, "role": "production company", "role_id": 941, "is_primary": true}], "also_known_as": "", "date_of_birth": "", "date_of_death": "", "genders": [], "languages": [], "places_of_operation": [], "biography": "", "biography_author": null, "date_of_biography": "2023-05-09T19:56:20.269256+10:00", "external_links": [], "uuid": "2c6d551b-eea8-4f29-8288-71d6006b952f", "source": {"name": "Vernon", "slug": "vernon"}, "source_identifier": "6658", "external_references": [], "date_modified": "2023-06-14T16:33:30.576250+10:00"}, {"id": 34552, "name": "Nat Cohen and Stuart Levy Productions", "roles_in_work": [{"id": 2245898, "title": "Carry on sergeant", "work_id": 92854, "role": "production company", "role_id": 941, "is_primary": true}], "also_known_as": "", "date_of_birth": "", "date_of_death": "", "genders": [], "languages": [], "places_of_operation": [], "biography": "", "biography_author": null, "date_of_biography": "2023-05-09T17:02:45.381488+10:00", "external_links": [], "uuid": "858bc7b7-fd39-436d-b2c6-23093f102149", "source": {"name": "Vernon", "slug": "vernon"}, "source_identifier": "10763", "external_references": [{"id": 36661, "source": {"name": "Wikidata", "slug": "wikidata"}, "source_identifier": "Q121143778"}], "date_modified": "2023-09-05T23:25:16.837828+10:00"}, {"id": 34537, "name": "Comataldh Craolaidh Gaidhlig", "roles_in_work": [{"id": 3082654, "title": "Sacred groves [Widescreen]", "work_id": 93031, "role": "production company", "role_id": 941, "is_primary": true}, {"id": 3082695, "title": "A Dead song? [Widescreen]", "work_id": 93034, "role": "production company", "role_id": 941, "is_primary": true}, {"id": 3082682, "title": "Legend and reality [Widescreen]", "work_id": 93033, "role": "production company", "role_id": 941, "is_primary": true}, {"id": 3082640, "title": "Heroes in defeat [Widescreen]", "work_id": 93030, "role": "production company", "role_id": 941, "is_primary": true}, {"id": 3082668, "title": "From Camelot to Christ [Widescreen]", "work_id": 93032, "role": "production company", "role_id": 941, "is_primary": true}, {"id": 3082626, "title": "In the beginning [Widescreen]", "work_id": 92838, "role": "production company", "role_id": 941, "is_primary": true}], "also_known_as": "", "date_of_birth": "", "date_of_death": "", "genders": [], "languages": [], "places_of_operation": [], "biography": "", "biography_author": null, "date_of_biography": "2023-05-09T19:33:11.099927+10:00", "external_links": [], "uuid": "40ac2c20-f5b7-4a21-9eb4-1b6b5d6cbb68", "source": {"name": "Vernon", "slug": "vernon"}, "source_identifier": "6921", "external_references": [{"id": 35294, "source": {"name": "Wikidata", "slug": "wikidata"}, "source_identifier": "Q121223393"}], "date_modified": "2025-03-17T10:30:17.574955+11:00"}, {"id": 34536, "name": "S4C International", "roles_in_work": [{"id": 3082680, "title": "Legend and reality [Widescreen]", "work_id": 93033, "role": "production company", "role_id": 941, "is_primary": true}, {"id": 3082666, "title": "From Camelot to Christ [Widescreen]", "work_id": 93032, "role": "production company", "role_id": 941, "is_primary": true}, {"id": 3082652, "title": "Sacred groves [Widescreen]", "work_id": 93031, "role": "production company", "role_id": 941, "is_primary": true}, {"id": 3082638, "title": "Heroes in defeat [Widescreen]", "work_id": 93030, "role": "production company", "role_id": 941, "is_primary": true}, {"id": 3082624, "title": "In the beginning [Widescreen]", "work_id": 92838, "role": "production company", "role_id": 941, "is_primary": true}, {"id": 3082693, "title": "A Dead song? [Widescreen]", "work_id": 93034, "role": "production company", "role_id": 941, "is_primary": true}], "also_known_as": "", "date_of_birth": "", "date_of_death": "", "genders": [], "languages": [], "places_of_operation": [], "biography": "", "biography_author": null, "date_of_biography": "2023-05-09T19:33:10.883749+10:00", "external_links": [], "uuid": "7ed6b342-9c2d-4b22-bae3-5b713b9d93cd", "source": {"name": "Vernon", "slug": "vernon"}, "source_identifier": "12220", "external_references": [{"id": 42781, "source": {"name": "Wikidata", "slug": "wikidata"}, "source_identifier": "Q121271396"}], "date_modified": "2025-03-17T10:30:16.987089+11:00"}, {"id": 34535, "name": "Opus Television", "roles_in_work": [{"id": 3082703, "title": "The Celts", "work_id": 115568, "role": "production company", "role_id": 941, "is_primary": true}, {"id": 3082620, "title": "In the beginning [Widescreen]", "work_id": 92838, "role": "production company", "role_id": 941, "is_primary": true}, {"id": 3082634, "title": "Heroes in defeat [Widescreen]", "work_id": 93030, "role": "production company", "role_id": 941, "is_primary": true}, {"id": 3082648, "title": "Sacred groves [Widescreen]", "work_id": 93031, "role": "production company", "role_id": 941, "is_primary": true}, {"id": 3082662, "title": "From Camelot to Christ [Widescreen]", "work_id": 93032, "role": "production company", "role_id": 941, "is_primary": true}, {"id": 3082676, "title": "Legend and reality [Widescreen]", "work_id": 93033, "role": "production company", "role_id": 941, "is_primary": true}, {"id": 3082690, "title": "A Dead song? [Widescreen]", "work_id": 93034, "role": "production company", "role_id": 941, "is_primary": true}], "also_known_as": "", "date_of_birth": "", "date_of_death": "", "genders": [], "languages": [], "places_of_operation": [], "biography": "", "biography_author": null, "date_of_biography": "2023-05-09T19:33:12.385773+10:00", "external_links": [], "uuid": "63d1cc66-0469-4d47-982c-bb959b0fb6f9", "source": {"name": "Vernon", "slug": "vernon"}, "source_identifier": "11165", "external_references": [{"id": 40850, "source": {"name": "Wikidata", "slug": "wikidata"}, "source_identifier": "Q121159895"}], "date_modified": "2025-03-17T10:30:20.754406+11:00"}]}