{"count": 28687, "next": "https://api.acmi.net.au/creators/?page=1188", "previous": "https://api.acmi.net.au/creators/?page=1186", "results": [{"id": 73479, "name": "Vera Heitman", "roles_in_work": [{"id": 2675378, "title": "The Street", "work_id": 108692, "role": "voice", "role_id": 471, "is_primary": false}], "also_known_as": "", "date_of_birth": null, "date_of_death": null, "genders": [], "languages": [], "places_of_operation": [], "biography": "", "biography_author": null, "date_of_biography": null, "external_links": [], "uuid": "a72fcb4d-b3b5-4950-92cf-f328a773e5bc", "source": {"name": "Vernon", "slug": "vernon"}, "source_identifier": "1478", "external_references": [], "date_modified": "2025-03-06T22:41:17.333940+11:00"}, {"id": 73478, "name": "Howard Ryshpan", "roles_in_work": [{"id": 2675377, "title": "The Street", "work_id": 108692, "role": "voice", "role_id": 471, "is_primary": false}], "also_known_as": "", "date_of_birth": "05 DEC 1932", "date_of_death": null, "genders": [{"id": 9, "name": "Male", "slug": "male"}], "languages": [], "places_of_operation": [{"id": 36, "name": "Canada", "slug": "canada"}], "biography": "Howard Ryshpan (born December 5, 1932 in New York City) (son of Reuben Ryshpan (1887-1977) and Cecilia Nathanson) is a Canadian anglophone screen and voice character actor, in radio, film, television and theater. He also taught theater. He has directed numerous plays, notably at festivals. As an artist, Howard Ryshpan is one of the pioneers of Black & White English television in Montreal which started in September 1952.\n\nHis father Reuben was born in Poland from Hungarian origin parents, having arrived in Connecticut at the age of 9. His mother Cecilia who was born in Ottawa was a musician and music teacher successively in Ottawa, Toronto and New York. Howard's parents moved from New York City to Montreal in 1934.\n\nHoward Ryshpan studied at Strathcona Christian Academy in Outremont, until grade 9 (until 1947); one year at Montreal Technical School (1947-48), which was run by the Jesuits on Sherbrooke Street; and three years at Bishop's College (1948-51). In June 1951, Howard received his study certificate from Bishop's College School (B.C.S.) at Lennoxville, Québec. After Bishop College, Howard was a student from Sept. 1951 to April 1952 in a baccalaureate of arts at Sir Georges William University (which merged with Loyola University in 1974) in Montreal.\n\nHis mother wanted him to become a musician. His father Reuben wanted him to get over the family business in textile in Montreal; the factory that produced ladies and children wears, as well as military clothing during the Second World War (1939-1945), was located on Dowd Street. This stock company (\"Advance Scarf Mfg. Co., Limited\") in Montreal had been owned since 1935 by his father Reuben and his uncle Meyer; the latter was also a painter, engraver and watercolorist. Howard started working there at the age of 9 during school holidays; he tied the bundles of linen for shipment. But Howard preferred to start a career in performing arts. Theater was a dream for him. In summer 1948 (at 16), Howard was an animator in a Laurentian summer camp. Then he worked briefly at his father’s textile factory.\n\nAfter graduating from Bishop, Ryshpan accepted an offer to enlist in the Canadian Army. He took initial courses in the handling of arms with the Montreal Blackjack regiment. However, he did not have to participate in the Korean War (1950-53).\n\nHe married Virginia Rae Burns on November 23, 1956, in Montreal. The couple sailed on the next morning on the RMS Ivernia for a crossing of the Atlantic, from Montreal to the city of Le Havre, France. Following an extended stay in Paris, Ryshpan studied in private school, under one of Europe’s most famous dramatic teachers, Étienne Decroux (1898-1991) who formulated the art of mime. Then the couple Ryshpan-Rae extended the summer 1957 travelling on the Continent and in the British Isles.Howard Ryshpan has been living in semi-retirement since 2009 on a farm in the municipality of Bristol in the Pontiac Regional County Municipality, in Quebec, in Canada. Source: Wikidata; 01/08/2023", "biography_author": null, "date_of_biography": "2025-03-06T22:41:16.743514+11:00", "external_links": [{"id": 4170, "uri": "https://en.wikipedia.org/wiki/Howard_Ryshpan"}], "uuid": "57cc7794-9593-4a1c-b1ae-22c8c1190044", "source": {"name": "Vernon", "slug": "vernon"}, "source_identifier": "1477", "external_references": [{"id": 25294, "source": {"name": "Wikidata", "slug": "wikidata"}, "source_identifier": "Q16239316"}], "date_modified": "2025-03-06T22:41:16.743773+11:00"}, {"id": 73477, "name": "Mort Ransen", "roles_in_work": [{"id": 2258934, "title": "Running time", "work_id": 88346, "role": "director", "role_id": 938, "is_primary": true}, {"id": 2167079, "title": "No reason to stay", "work_id": 70933, "role": "director", "role_id": 938, "is_primary": true}, {"id": 2337249, "title": "The Circle", "work_id": 91346, "role": "director", "role_id": 938, "is_primary": true}, {"id": 2713367, "title": "Falling from ladders", "work_id": 67376, "role": "director", "role_id": 938, "is_primary": true}, {"id": 859304, "title": "The Teacher: authority or automaton?", "work_id": 73541, "role": "director", "role_id": 938, "is_primary": true}, {"id": 2183840, "title": "Overspill", "work_id": 90859, "role": "director", "role_id": 938, "is_primary": true}, {"id": 2165449, "title": "Jacky visits the zoo", "work_id": 75091, "role": "director", "role_id": 938, "is_primary": true}, {"id": 2644241, "title": "The Burden they carry", "work_id": 65677, "role": "director", "role_id": 938, "is_primary": true}, {"id": 1427826, "title": "Three \"I\"s: a trio of personal films about Sweden by two Canadians and one Swede", "work_id": 87903, "role": "co-director", "role_id": 959, "is_primary": true}, {"id": 2675376, "title": "The Street", "work_id": 108692, "role": "voice", "role_id": 471, "is_primary": false}], "also_known_as": "", "date_of_birth": "16 AUG 1933", "date_of_death": "04 SEP 2021", "genders": [{"id": 9, "name": "Male", "slug": "male"}], "languages": [], "places_of_operation": [{"id": 36, "name": "Canada", "slug": "canada"}], "biography": "Mort Ransen (August 16, 1933 – September 4, 2021) was a Canadian film and television director, editor, screenwriter and producer, best known for his Genie Award-winning 1995 film Margaret's Museum. Source: Wikidata; 01/08/2023", "biography_author": null, "date_of_biography": "2025-03-12T00:43:33.443380+11:00", "external_links": [{"id": 4753, "uri": "https://en.wikipedia.org/wiki/Mort_Ransen"}], "uuid": "9227500b-1193-4497-84cd-02f2feea4181", "source": {"name": "Vernon", "slug": "vernon"}, "source_identifier": "1476", "external_references": [{"id": 26536, "source": {"name": "Wikidata", "slug": "wikidata"}, "source_identifier": "Q6914336"}, {"id": 30463, "source": {"name": "VIAF", "slug": "viaf"}, "source_identifier": "106042067"}, {"id": 30464, "source": {"name": "WorldCat", "slug": "worldcat"}, "source_identifier": "lccn-no97051472"}], "date_modified": "2025-03-12T00:43:33.443594+11:00"}, {"id": 73476, "name": "Gloria Demers", "roles_in_work": [{"id": 2675375, "title": "The Street", "work_id": 108692, "role": "sound", "role_id": 952, "is_primary": false}], "also_known_as": "", "date_of_birth": null, "date_of_death": null, "genders": [], "languages": [], "places_of_operation": [], "biography": "", "biography_author": null, "date_of_biography": null, "external_links": [], "uuid": "6bcd9496-5e6a-4513-b8f1-5d6d95caebad", "source": {"name": "Vernon", "slug": "vernon"}, "source_identifier": "1475", "external_references": [], "date_modified": "2025-03-06T22:41:15.413356+11:00"}, {"id": 73475, "name": "Michel Descombes", "roles_in_work": [{"id": 2675374, "title": "The Street", "work_id": 108692, "role": "sound", "role_id": 952, "is_primary": false}], "also_known_as": "", "date_of_birth": null, "date_of_death": null, "genders": [], "languages": [], "places_of_operation": [], "biography": "", "biography_author": null, "date_of_biography": null, "external_links": [], "uuid": "e41b842d-8a69-43e9-82f1-48d3a1b96998", "source": {"name": "Vernon", "slug": "vernon"}, "source_identifier": "1474", "external_references": [], "date_modified": "2025-03-06T22:41:14.819017+11:00"}, {"id": 73474, "name": "Ken Page", "roles_in_work": [{"id": 2064149, "title": "28 degrees above below", "work_id": 85749, "role": "co-director", "role_id": 959, "is_primary": true}, {"id": 2675373, "title": "The Street", "work_id": 108692, "role": "sound", "role_id": 952, "is_primary": false}], "also_known_as": "", "date_of_birth": "", "date_of_death": "", "genders": [], "languages": [], "places_of_operation": [], "biography": "", "biography_author": null, "date_of_biography": "2023-05-09T11:20:20.563007+10:00", "external_links": [], "uuid": "0fe70d76-77b9-4d64-bdd6-42dd1b8a740a", "source": {"name": "Vernon", "slug": "vernon"}, "source_identifier": "1473", "external_references": [{"id": 32988, "source": {"name": "Wikidata", "slug": "wikidata"}, "source_identifier": "Q121223027"}], "date_modified": "2025-03-06T22:41:14.228456+11:00"}, {"id": 73473, "name": "Wolf Koenig", "roles_in_work": [{"id": 874217, "title": "It's a crime", "work_id": 88625, "role": "director", "role_id": 938, "is_primary": true}, {"id": 2318625, "title": "Sur le pont d'Avignon", "work_id": 76463, "role": "director", "role_id": 938, "is_primary": true}, {"id": 2315136, "title": "Stravinsky", "work_id": 73287, "role": "co-director", "role_id": 959, "is_primary": true}, {"id": 2310786, "title": "Steeltown", "work_id": 87973, "role": "co-director", "role_id": 959, "is_primary": true}, {"id": 1427962, "title": "Glenn Gould: two portraits of the celebrated artist", "work_id": 88159, "role": "co-director", "role_id": 959, "is_primary": true}, {"id": 2679949, "title": "City of gold", "work_id": 66142, "role": "co-director", "role_id": 959, "is_primary": true}, {"id": 2347943, "title": "The Family that dwelt apart", "work_id": 75184, "role": "co-producer", "role_id": 915, "is_primary": true}, {"id": 2678378, "title": "Best friends", "work_id": 65359, "role": "co-producer", "role_id": 915, "is_primary": true}, {"id": 2765613, "title": "A Right to refuse?", "work_id": 77089, "role": "co-producer", "role_id": 915, "is_primary": true}, {"id": 2765623, "title": "An Equal opportunity", "work_id": 77741, "role": "co-producer", "role_id": 915, "is_primary": true}, {"id": 2712930, "title": "The Energy carol", "work_id": 67163, "role": "co-producer", "role_id": 915, "is_primary": true}, {"id": 2679288, "title": "The Cars in your life", "work_id": 65835, "role": "co-producer", "role_id": 915, "is_primary": true}, {"id": 2679836, "title": "Christmas at Moose Factory", "work_id": 66096, "role": "co-producer", "role_id": 915, "is_primary": true}, {"id": 2680989, "title": "The Days of Whiskey Gap", "work_id": 66650, "role": "co-producer", "role_id": 915, "is_primary": true}, {"id": 2644683, "title": "Exeter", "work_id": 67282, "role": "co-producer", "role_id": 915, "is_primary": true}, {"id": 2714940, "title": "The Great toy robbery", "work_id": 68193, "role": "co-producer", "role_id": 915, "is_primary": true}, {"id": 2792078, "title": "Playing Fair", "work_id": 115430, "role": "co-producer", "role_id": 915, "is_primary": true}, {"id": 2792060, "title": "Carol's mirror", "work_id": 84909, "role": "co-producer", "role_id": 915, "is_primary": true}, {"id": 2792065, "title": "Mela's lunch", "work_id": 84910, "role": "co-producer", "role_id": 915, "is_primary": true}, {"id": 2792070, "title": "Hey, Kelly!", "work_id": 84911, "role": "co-producer", "role_id": 915, "is_primary": true}, {"id": 2792075, "title": "Walker", "work_id": 84912, "role": "co-producer", "role_id": 915, "is_primary": true}, {"id": 3082781, "title": "Alex", "work_id": 92872, "role": "co-producer", "role_id": 915, "is_primary": true}, {"id": 3082800, "title": "Robert", "work_id": 92891, "role": "co-producer", "role_id": 915, "is_primary": true}, {"id": 3082879, "title": "A Chronic problem", "work_id": 92875, "role": "co-producer", "role_id": 915, "is_primary": true}, {"id": 3082890, "title": "The Courage of one's convictions", "work_id": 92876, "role": "co-producer", "role_id": 915, "is_primary": true}, {"id": 3082903, "title": "Critical choice", "work_id": 92877, "role": "co-producer", "role_id": 915, "is_primary": true}, {"id": 3082914, "title": "Family tree", "work_id": 92879, "role": "co-producer", "role_id": 915, "is_primary": true}, {"id": 3082927, "title": "Happy birthday", "work_id": 92882, "role": "co-producer", "role_id": 915, "is_primary": true}, {"id": 3082940, "title": "If you want a girl like me", "work_id": 92883, "role": "co-producer", "role_id": 915, "is_primary": true}, {"id": 3082950, "title": "Old person's friend", "work_id": 92889, "role": "co-producer", "role_id": 915, "is_primary": true}, {"id": 3082963, "title": "Who should decide?", "work_id": 92897, "role": "co-producer", "role_id": 915, "is_primary": true}, {"id": 2329196, "title": "The Back-breaking leaf", "work_id": 90615, "role": "co-producer", "role_id": 915, "is_primary": true}, {"id": 2161371, "title": "No apple for Johnny", "work_id": 85748, "role": "co-producer", "role_id": 915, "is_primary": true}, {"id": 2355109, "title": "The Hottest show on earth", "work_id": 77112, "role": "co-producer", "role_id": 915, "is_primary": true}, {"id": 2210307, "title": "Population explosion", "work_id": 71705, "role": "co-producer", "role_id": 915, "is_primary": true}, {"id": 2355037, "title": "The Housewife", "work_id": 86939, "role": "co-producer", "role_id": 915, "is_primary": true}, {"id": 2344617, "title": "The Drag", "work_id": 77319, "role": "co-producer", "role_id": 915, "is_primary": true}, {"id": 2231462, "title": "Propaganda message", "work_id": 71915, "role": "co-producer", "role_id": 915, "is_primary": true}, {"id": 2322967, "title": "Ted Baryluk's grocery", "work_id": 85759, "role": "co-producer", "role_id": 915, "is_primary": true}, {"id": 1427823, "title": "Three \"I\"s: a trio of personal films about Sweden by two Canadians and one Swede", "work_id": 87903, "role": "co-producer", "role_id": 915, "is_primary": true}, {"id": 895925, "title": "The Street", "work_id": 73291, "role": "co-producer", "role_id": 915, "is_primary": true}, {"id": 896369, "title": "Hot stuff", "work_id": 75176, "role": "co-producer", "role_id": 915, "is_primary": true}, {"id": 894843, "title": "Lady Fishbourne's Complete Guide to Better Table Manners", "work_id": 69469, "role": "co-producer", "role_id": 915, "is_primary": true}, {"id": 2088493, "title": "Amisk", "work_id": 77824, "role": "co-producer", "role_id": 915, "is_primary": true}, {"id": 2171265, "title": "One out of three is a fsihboat", "work_id": 92944, "role": "co-producer", "role_id": 915, "is_primary": true}, {"id": 906976, "title": "Natsik hunting", "work_id": 87603, "role": "co-producer", "role_id": 915, "is_primary": true}, {"id": 2109063, "title": "Baxter earns his wings", "work_id": 77855, "role": "co-producer", "role_id": 915, "is_primary": true}, {"id": 2209724, "title": "Police", "work_id": 89833, "role": "co-producer", "role_id": 915, "is_primary": true}, {"id": 2069208, "title": "A Foreign language", "work_id": 90310, "role": "co-producer", "role_id": 915, "is_primary": true}, {"id": 2644965, "title": "Glenn Gould on the record", "work_id": 68077, "role": "co-producers/directors", "role_id": 628, "is_primary": true}, {"id": 903860, "title": "Glenn Gould off the record", "work_id": 84933, "role": "co-producers/directors", "role_id": 628, "is_primary": true}, {"id": 2206138, "title": "Pictures out of my life", "work_id": 71560, "role": "producer", "role_id": 1089, "is_primary": true}, {"id": 2262352, "title": "Satellites of the sun", "work_id": 75189, "role": "producer", "role_id": 1089, "is_primary": true}, {"id": 3082777, "title": "Wednesday's children", "work_id": 115570, "role": "producer", "role_id": 1089, "is_primary": true}, {"id": 2222874, "title": "Every second car", "work_id": 87795, "role": "producer", "role_id": 1089, "is_primary": true}, {"id": 3082786, "title": "Jenny", "work_id": 92885, "role": "producer", "role_id": 1089, "is_primary": true}, {"id": 3082792, "title": "Mark and Donny", "work_id": 92887, "role": "producer", "role_id": 1089, "is_primary": true}, {"id": 1804138, "title": "The Lion and the mouse", "work_id": 75480, "role": "producer", "role_id": 1089, "is_primary": true}, {"id": 3082805, "title": "Vicky", "work_id": 92896, "role": "producer", "role_id": 1089, "is_primary": true}, {"id": 1818698, "title": "Through a broken pane", "work_id": 85732, "role": "producer", "role_id": 1089, "is_primary": true}, {"id": 2677174, "title": "Ananse's farm", "work_id": 64732, "role": "producer", "role_id": 1089, "is_primary": true}, {"id": 2242427, "title": "Firelight = Clair-Obscure", "work_id": 78072, "role": "producer", "role_id": 1089, "is_primary": true}, {"id": 2218519, "title": "Enemy alien", "work_id": 87739, "role": "producer", "role_id": 1089, "is_primary": true}, {"id": 1817614, "title": "The Light fantastick", "work_id": 69723, "role": "producer", "role_id": 1089, "is_primary": true}, {"id": 2678754, "title": "Bossa pop", "work_id": 65553, "role": "producer", "role_id": 1089, "is_primary": true}, {"id": 2716016, "title": "Icarus = Icare", "work_id": 68736, "role": "producer", "role_id": 1089, "is_primary": true}, {"id": 2749101, "title": "Tilt", "work_id": 96632, "role": "producer", "role_id": 1089, "is_primary": true}, {"id": 1819701, "title": "Icarus = Icare (K)", "work_id": 86191, "role": "producer", "role_id": 1089, "is_primary": true}, {"id": 2675372, "title": "The Street", "work_id": 108692, "role": "producer", "role_id": 1089, "is_primary": true}, {"id": 2647847, "title": "Nose and Tina", "work_id": 77550, "role": "producer", "role_id": 1089, "is_primary": true}, {"id": 2646665, "title": "To see or not to see", "work_id": 73883, "role": "producer", "role_id": 1089, "is_primary": true}, {"id": 2713317, "title": "Face of the Earth", "work_id": 67354, "role": "producer", "role_id": 1089, "is_primary": true}, {"id": 2711898, "title": "Deep threat = Mer mere", "work_id": 66677, "role": "producer", "role_id": 1089, "is_primary": true}, {"id": 870340, "title": "I was a ninety pound weakling. - Rev. ed.", "work_id": 86239, "role": "producer/director", "role_id": 31, "is_primary": true}, {"id": 2615823, "title": "I was a ninety pound weakling", "work_id": 86238, "role": "producer/director", "role_id": 31, "is_primary": true}], "also_known_as": "", "date_of_birth": "17 OCT 1927", "date_of_death": "26 JUN 2014", "genders": [{"id": 9, "name": "Male", "slug": "male"}], "languages": [{"id": 1, "name": "English", "slug": "english"}], "places_of_operation": [{"id": 36, "name": "Canada", "slug": "canada"}], "biography": "Wolf Koenig (October 17, 1927 – June 26, 2014) was a Canadian film director, producer, animator, cinematographer, and a pioneer in Direct Cinema at the National Film Board of Canada. Source: Wikidata; 01/08/2023", "biography_author": null, "date_of_biography": "2025-03-17T10:31:34.050938+11:00", "external_links": [{"id": 5366, "uri": "https://en.wikipedia.org/wiki/Wolf_Koenig"}], "uuid": "31bb5610-91d1-4307-9df9-7386a06b77cc", "source": {"name": "Vernon", "slug": "vernon"}, "source_identifier": "1472", "external_references": [{"id": 26039, "source": {"name": "Wikidata", "slug": "wikidata"}, "source_identifier": "Q2588726"}, {"id": 32054, "source": {"name": "VIAF", "slug": "viaf"}, "source_identifier": "2052248"}, {"id": 32055, "source": {"name": "LOC Auth", "slug": "loc-auth"}, "source_identifier": "no95036412"}, {"id": 32056, "source": {"name": "WorldCat", "slug": "worldcat"}, "source_identifier": "lccn-no95036412"}], "date_modified": "2025-03-17T10:31:34.051191+11:00"}, {"id": 73472, "name": "Helen Pankhurst", "roles_in_work": [{"id": 2262451, "title": "Saturn's return", "work_id": 93163, "role": "producer", "role_id": 1089, "is_primary": true}, {"id": 2635823, "title": "Saturn's return", "work_id": 108682, "role": "producer", "role_id": 1089, "is_primary": true}], "also_known_as": "", "date_of_birth": "", "date_of_death": "", "genders": [], "languages": [], "places_of_operation": [], "biography": "", "biography_author": null, "date_of_biography": "2023-05-09T17:31:03.940836+10:00", "external_links": [], "uuid": "a7b19d67-262f-4f9d-a5c5-5f8dc23f137c", "source": {"name": "Vernon", "slug": "vernon"}, "source_identifier": "1338", "external_references": [{"id": 39348, "source": {"name": "Wikidata", "slug": "wikidata"}, "source_identifier": "Q121223273"}], "date_modified": "2025-03-05T10:29:28.213625+11:00"}, {"id": 73471, "name": "Damian Walshe-Howling", "roles_in_work": [{"id": 2635822, "title": "Saturn's return", "work_id": 108682, "role": "cast", "role_id": 33, "is_primary": false}], "also_known_as": "", "date_of_birth": "1971-01-22", "date_of_death": "", "genders": [{"id": 9, "name": "Male", "slug": "male"}], "languages": [], "places_of_operation": [{"id": 3, "name": "Australia", "slug": "australia"}], "biography": "Damian Walshe-Howling (born 22 January 1971 in Melbourne, Victoria) is an Australian actor, well known for his role as Andrew \"Benji\" Veniamin in the Australian underworld drama, Underbelly, for which he won the Best Supporting or Guest Actor in a Drama Series at the 2008 AFI Awards.", "biography_author": "Wikidata", "date_of_biography": "2023-09-05T18:49:31.093610+10:00", "external_links": [{"id": 5763, "uri": "https://en.wikipedia.org/wiki/Damian_Walshe-Howling"}], "uuid": "e821389f-8df9-46f3-86ba-d3f5b0395979", "source": {"name": "Vernon", "slug": "vernon"}, "source_identifier": "1337", "external_references": [{"id": 51211, "source": {"name": "Wikidata", "slug": "wikidata"}, "source_identifier": "Q2948641"}, {"id": 54246, "source": {"name": "VIAF", "slug": "viaf"}, "source_identifier": "181762183"}, {"id": 54247, "source": {"name": "LOC Auth", "slug": "loc-auth"}, "source_identifier": "no2011128628"}, {"id": 54248, "source": {"name": "WorldCat", "slug": "worldcat"}, "source_identifier": "lccn-no2011128628"}], "date_modified": "2025-03-05T10:29:27.635755+11:00"}, {"id": 73470, "name": "Joel Edgerton", "roles_in_work": [{"id": 2635821, "title": "Saturn's return", "work_id": 108682, "role": "cast", "role_id": 33, "is_primary": false}, {"id": 912289, "title": "The Secret life of us. Eps. 01-03", "work_id": 92698, "role": "cast", "role_id": 33, "is_primary": false}, {"id": 2474001, "title": "Bloodlock [Widescreen]", "work_id": 89145, "role": "co-producer", "role_id": 915, "is_primary": true}], "also_known_as": "", "date_of_birth": "1974-06-23", "date_of_death": "", "genders": [{"id": 9, "name": "Male", "slug": "male"}], "languages": [{"id": 1, "name": "English", "slug": "english"}], "places_of_operation": [{"id": 3, "name": "Australia", "slug": "australia"}], "biography": "Joel Edgerton (born 23 June 1974) is an Australian actor and filmmaker. He is known for his portrayal of Will McGill on the first two seasons of the Australian drama series The Secret Life of Us (2001–02), and for playing Owen Lars in the Star Wars films Attack of the Clones (2002) and Revenge of the Sith (2005); a role he reprised in the Disney+ series Obi-Wan Kenobi (2022). For his portrayal of Richard Loving in the 2016 historical drama Loving, he received a nomination for the Golden Globe Award for Best Actor in a Motion Picture.\nIn Australia, Edgerton won the AACTA Award for Best Lead Actor for his work on The Secret Life of Us. He has appeared in several Australian films, such as The Square (2008), Animal Kingdom (2010; for which he received the AACTA Award for Best Supporting Actor), Wish You Were Here (2012), and Felony (2013). Edgerton's other film appearances include King Arthur (2004), Warrior (2011), Zero Dark Thirty (2012), The Great Gatsby (2013), Black Mass (2015), Bright (2017), Red Sparrow (2018), The Green Knight (2021), The Stranger, Thirteen Lives, and Master Gardener (all 2022). In 2021, he starred in the Amazon Prime miniseries The Underground Railroad.\nFor his work on The Gift (2015), a thriller he wrote, directed, co-produced, and in which he co-starred, Edgerton received critical acclaim and a nomination for the DGA Award for Outstanding Directing. In 2018, he wrote, directed and co-starred in the conversion therapy drama Boy Erased. The following year's The King, which he co-wrote and starred in, was released by Netflix.\n\n", "biography_author": "Wikidata", "date_of_biography": "2023-09-05T21:30:51.997283+10:00", "external_links": [{"id": 5914, "uri": "https://en.wikipedia.org/wiki/Joel_Edgerton"}], "uuid": "b513fa78-dfe4-4013-bf18-9e143f115859", "source": {"name": "Vernon", "slug": "vernon"}, "source_identifier": "1336", "external_references": [{"id": 51791, "source": {"name": "Wikidata", "slug": "wikidata"}, "source_identifier": "Q381768"}, {"id": 54849, "source": {"name": "VIAF", "slug": "viaf"}, "source_identifier": "166336034"}, {"id": 54850, "source": {"name": "LOC Auth", "slug": "loc-auth"}, "source_identifier": "no2007038549"}, {"id": 54851, "source": {"name": "WorldCat", "slug": "worldcat"}, "source_identifier": "lccn-no2007038549"}], "date_modified": "2025-03-05T10:29:27.062803+11:00"}]}