{"count": 28687, "next": "https://api.acmi.net.au/creators/?page=1211", "previous": "https://api.acmi.net.au/creators/?page=1209", "results": [{"id": 73247, "name": "Geoff Searle", "roles_in_work": [{"id": 2709095, "title": "The Albatross", "work_id": 108079, "role": "sound", "role_id": 952, "is_primary": false}], "also_known_as": "", "date_of_birth": "", "date_of_death": "", "genders": [], "languages": [], "places_of_operation": [], "biography": "", "biography_author": null, "date_of_biography": "2023-05-09T20:08:31.866603+10:00", "external_links": [], "uuid": "86f8d606-db48-48d1-b896-ef6bd948b74c", "source": {"name": "Vernon", "slug": "vernon"}, "source_identifier": "110152", "external_references": [], "date_modified": "2025-03-11T22:52:43.777520+11:00"}, {"id": 73246, "name": "Steve Law", "roles_in_work": [{"id": 2709058, "title": "Apoidea", "work_id": 108073, "role": "music", "role_id": 949, "is_primary": false}], "also_known_as": "", "date_of_birth": "", "date_of_death": "", "genders": [], "languages": [], "places_of_operation": [], "biography": "", "biography_author": null, "date_of_biography": "2023-05-09T19:35:19.358337+10:00", "external_links": [], "uuid": "2111d8c9-3747-45eb-97ee-192d4f3c3cde", "source": {"name": "Vernon", "slug": "vernon"}, "source_identifier": "110179", "external_references": [{"id": 51707, "source": {"name": "Wikidata", "slug": "wikidata"}, "source_identifier": "Q121361199"}], "date_modified": "2025-03-11T22:51:48.417581+11:00"}, {"id": 73245, "name": "Gerard Cogley", "roles_in_work": [{"id": 2709051, "title": "Penguins off the page", "work_id": 108072, "role": "voice", "role_id": 471, "is_primary": false}], "also_known_as": "", "date_of_birth": "", "date_of_death": "", "genders": [], "languages": [], "places_of_operation": [], "biography": "", "biography_author": null, "date_of_biography": "2023-05-09T19:35:40.259063+10:00", "external_links": [], "uuid": "3c66f5c8-ac07-4efd-9ab4-d1a3c709adc9", "source": {"name": "Vernon", "slug": "vernon"}, "source_identifier": "110471", "external_references": [], "date_modified": "2025-03-11T22:51:32.788393+11:00"}, {"id": 73244, "name": "Vic Sant", "roles_in_work": [{"id": 2709049, "title": "Penguins off the page", "work_id": 108072, "role": "music", "role_id": 949, "is_primary": false}], "also_known_as": "", "date_of_birth": "", "date_of_death": "", "genders": [], "languages": [], "places_of_operation": [], "biography": "", "biography_author": null, "date_of_biography": "2023-05-09T19:35:39.937497+10:00", "external_links": [], "uuid": "5e24fca3-90bc-48d5-af18-d0fdd0b4dbb0", "source": {"name": "Vernon", "slug": "vernon"}, "source_identifier": "110470", "external_references": [{"id": 50821, "source": {"name": "Wikidata", "slug": "wikidata"}, "source_identifier": "Q121361468"}], "date_modified": "2025-03-11T22:51:30.822362+11:00"}, {"id": 73243, "name": "David Matheson", "roles_in_work": [{"id": 2709007, "title": "Shift", "work_id": 108069, "role": "cast", "role_id": 33, "is_primary": false}], "also_known_as": "", "date_of_birth": "", "date_of_death": "", "genders": [], "languages": [], "places_of_operation": [], "biography": "", "biography_author": null, "date_of_biography": "2023-05-09T19:35:49.870322+10:00", "external_links": [], "uuid": "d4dbb1d3-091c-4d1a-b21c-2331acd3169d", "source": {"name": "Vernon", "slug": "vernon"}, "source_identifier": "110477", "external_references": [], "date_modified": "2025-03-11T22:50:47.809538+11:00"}, {"id": 73242, "name": "Sarah O'Donnell", "roles_in_work": [{"id": 2709005, "title": "Shift", "work_id": 108069, "role": "cast", "role_id": 33, "is_primary": false}], "also_known_as": "", "date_of_birth": "", "date_of_death": "", "genders": [], "languages": [], "places_of_operation": [], "biography": "", "biography_author": null, "date_of_biography": "2023-05-09T19:35:49.647133+10:00", "external_links": [], "uuid": "2c07f5f6-801f-45f8-a345-a7e42fd873bc", "source": {"name": "Vernon", "slug": "vernon"}, "source_identifier": "110476", "external_references": [], "date_modified": "2025-03-11T22:50:47.178703+11:00"}, {"id": 73241, "name": "Lugio Pezzimenti", "roles_in_work": [{"id": 2709003, "title": "Shift", "work_id": 108069, "role": "cast", "role_id": 33, "is_primary": false}], "also_known_as": "", "date_of_birth": "", "date_of_death": "", "genders": [], "languages": [], "places_of_operation": [], "biography": "", "biography_author": null, "date_of_biography": "2023-05-09T19:35:49.430398+10:00", "external_links": [], "uuid": "7482bf1b-0fe7-4f16-9f1d-2f23175e2206", "source": {"name": "Vernon", "slug": "vernon"}, "source_identifier": "110475", "external_references": [{"id": 32470, "source": {"name": "Wikidata", "slug": "wikidata"}, "source_identifier": "Q121337273"}], "date_modified": "2025-03-11T22:50:45.307395+11:00"}, {"id": 73240, "name": "Jen Anderson", "roles_in_work": [{"id": 2708974, "title": "Killjoy", "work_id": 108067, "role": "music", "role_id": 949, "is_primary": false}, {"id": 2709149, "title": "Essence of Terror", "work_id": 114015, "role": "music", "role_id": 949, "is_primary": false}], "also_known_as": "", "date_of_birth": "", "date_of_death": "", "genders": [], "languages": [], "places_of_operation": [], "biography": "", "biography_author": null, "date_of_biography": "2023-05-09T20:08:40.126756+10:00", "external_links": [], "uuid": "fffdc5c8-04a2-4150-8350-74a9c6288f37", "source": {"name": "Vernon", "slug": "vernon"}, "source_identifier": "110167", "external_references": [{"id": 50919, "source": {"name": "Wikidata", "slug": "wikidata"}, "source_identifier": "Q121360858"}], "date_modified": "2025-03-11T22:54:16.765953+11:00"}, {"id": 73239, "name": "Ian Eccles-Smith", "roles_in_work": [{"id": 2709009, "title": "Shift", "work_id": 108069, "role": "music", "role_id": 949, "is_primary": false}, {"id": 2628802, "title": "Silent voices", "work_id": 108066, "role": "music", "role_id": 949, "is_primary": false}], "also_known_as": "", "date_of_birth": "", "date_of_death": "", "genders": [], "languages": [], "places_of_operation": [], "biography": "", "biography_author": null, "date_of_biography": "2023-05-09T19:35:52.700317+10:00", "external_links": [], "uuid": "6625a5f4-ac92-45b1-ae09-d7c04febba14", "source": {"name": "Vernon", "slug": "vernon"}, "source_identifier": "110178", "external_references": [{"id": 51873, "source": {"name": "Wikidata", "slug": "wikidata"}, "source_identifier": "Q121361356"}], "date_modified": "2025-03-11T22:50:49.959090+11:00"}, {"id": 73238, "name": "Garry McKenzie-McHarg", "roles_in_work": [{"id": 2708912, "title": "Twinkle twinkle", "work_id": 108062, "role": "cast", "role_id": 33, "is_primary": false}], "also_known_as": "", "date_of_birth": "", "date_of_death": "", "genders": [], "languages": [], "places_of_operation": [], "biography": "", "biography_author": null, "date_of_biography": "2023-05-09T20:08:19.545082+10:00", "external_links": [], "uuid": "1389162d-5bb1-47ea-a2d6-547e23576a83", "source": {"name": "Vernon", "slug": "vernon"}, "source_identifier": "110142", "external_references": [{"id": 33997, "source": {"name": "Wikidata", "slug": "wikidata"}, "source_identifier": "Q121035099"}], "date_modified": "2025-03-11T22:49:37.345373+11:00"}]}