{"count": 28682, "next": "https://api.acmi.net.au/creators/?page=1135", "previous": "https://api.acmi.net.au/creators/?page=1133", "results": [{"id": 74238, "name": "Jack Hamilton", "roles_in_work": [{"id": 2677925, "title": "Australian football: fitness, skill, sportsmanship", "work_id": 65130, "role": "co-director", "role_id": 959, "is_primary": true}], "also_known_as": "", "date_of_birth": "", "date_of_death": "", "genders": [], "languages": [], "places_of_operation": [], "biography": "", "biography_author": null, "date_of_biography": "2023-05-09T12:36:41.226776+10:00", "external_links": [], "uuid": "276903cc-7532-4550-8dde-288c5723b99c", "source": {"name": "Vernon", "slug": "vernon"}, "source_identifier": "21053", "external_references": [{"id": 43491, "source": {"name": "Wikidata", "slug": "wikidata"}, "source_identifier": "Q121036228"}], "date_modified": "2025-03-06T23:31:45.466274+11:00"}, {"id": 74237, "name": "Tony Charlton", "roles_in_work": [{"id": 2677921, "title": "Australian football", "work_id": 65129, "role": "narrator", "role_id": 499, "is_primary": false}], "also_known_as": "", "date_of_birth": "", "date_of_death": "", "genders": [{"id": 9, "name": "Male", "slug": "male"}], "languages": [], "places_of_operation": [], "biography": "", "biography_author": null, "date_of_biography": "2023-05-09T12:36:38.470421+10:00", "external_links": [], "uuid": "844dec31-4f4d-4376-a798-0875aec56cd3", "source": {"name": "Vernon", "slug": "vernon"}, "source_identifier": "37553", "external_references": [], "date_modified": "2025-03-06T23:31:42.829435+11:00"}, {"id": 74236, "name": "John Carter", "roles_in_work": [{"id": 2677882, "title": "Australian Defence Scientific Service: 1969 report", "work_id": 65106, "role": "director", "role_id": 938, "is_primary": true}, {"id": 2321753, "title": "Talkabout productivity", "work_id": 73488, "role": "director", "role_id": 938, "is_primary": true}, {"id": 2679467, "title": "The Challenge", "work_id": 65918, "role": "director", "role_id": 938, "is_primary": true}, {"id": 2392279, "title": "When will the birds return", "work_id": 74673, "role": "co-producer", "role_id": 915, "is_primary": true}], "also_known_as": "", "date_of_birth": "", "date_of_death": "", "genders": [], "languages": [], "places_of_operation": [], "biography": "", "biography_author": null, "date_of_biography": "2023-08-09T03:54:40.571401+10:00", "external_links": [], "uuid": "414d803a-814e-48c0-ad38-c8dcac145d28", "source": {"name": "Vernon", "slug": "vernon"}, "source_identifier": "22167", "external_references": [], "date_modified": "2025-03-07T00:15:12.250878+11:00"}, {"id": 74235, "name": "Dean Semler", "roles_in_work": [{"id": 2392398, "title": "Five bells: sights and sounds of Sydney Harbour", "work_id": 75320, "role": "director", "role_id": 938, "is_primary": true}, {"id": 2392068, "title": "Saturday", "work_id": 72485, "role": "director", "role_id": 938, "is_primary": true}, {"id": 2713538, "title": "The Fifth facade", "work_id": 67459, "role": "camera operator", "role_id": 931, "is_primary": false}, {"id": 2125902, "title": "Bruce almighty", "work_id": 116750, "role": "cinematographer", "role_id": 32, "is_primary": false}, {"id": 2677871, "title": "Australian [colour] diary. No. 040. The Vintage", "work_id": 65100, "role": "cinematographer", "role_id": 32, "is_primary": false}, {"id": 2647423, "title": "The Rabies threat", "work_id": 76266, "role": "cinematographer", "role_id": 32, "is_primary": false}, {"id": 2714824, "title": "Golf the Australian way", "work_id": 68130, "role": "cinematographer", "role_id": 32, "is_primary": false}, {"id": 2768364, "title": "Farming: Soviet style", "work_id": 67410, "role": "cinematographer", "role_id": 32, "is_primary": false}, {"id": 2768390, "title": "Politics: Soviet style", "work_id": 71691, "role": "cinematographer", "role_id": 32, "is_primary": false}, {"id": 2768413, "title": "School's in, Soviet style", "work_id": 72521, "role": "cinematographer", "role_id": 32, "is_primary": false}, {"id": 2769667, "title": "Greg", "work_id": 75343, "role": "cinematographer", "role_id": 32, "is_primary": false}, {"id": 2769693, "title": "Niki", "work_id": 75346, "role": "cinematographer", "role_id": 32, "is_primary": false}, {"id": 2769701, "title": "Robin", "work_id": 75347, "role": "cinematographer", "role_id": 32, "is_primary": false}, {"id": 2769711, "title": "Susan", "work_id": 75349, "role": "cinematographer", "role_id": 32, "is_primary": false}, {"id": 2760992, "title": "Kerry", "work_id": 75332, "role": "cinematographer", "role_id": 32, "is_primary": false}, {"id": 2760999, "title": "Wendy", "work_id": 75336, "role": "cinematographer", "role_id": 32, "is_primary": false}, {"id": 755711, "title": "Through my eyes: Kilkenny Primary School, South Australia", "work_id": 73800, "role": "cinematographer", "role_id": 32, "is_primary": false}, {"id": 1683691, "title": "The Russians", "work_id": 75976, "role": "cinematographer", "role_id": 32, "is_primary": false}, {"id": 2350357, "title": "The Gathering flame [Widescreen]", "work_id": 96261, "role": "cinematographer", "role_id": 32, "is_primary": false}, {"id": 2295774, "title": "Totora", "work_id": 77335, "role": "cinematographer", "role_id": 32, "is_primary": false}, {"id": 2392369, "title": "A Steam train passes", "work_id": 75159, "role": "cinematographer", "role_id": 32, "is_primary": false}, {"id": 758823, "title": "Where dead men lie", "work_id": 75163, "role": "cinematographer", "role_id": 32, "is_primary": false}, {"id": 2392027, "title": "A Race of horses", "work_id": 72019, "role": "cinematographer", "role_id": 32, "is_primary": false}, {"id": 2224845, "title": "Landscape: a pattern of change", "work_id": 69494, "role": "cinematographer", "role_id": 32, "is_primary": false}, {"id": 2392399, "title": "Five bells: sights and sounds of Sydney Harbour", "work_id": 75320, "role": "cinematographer", "role_id": 32, "is_primary": false}, {"id": 2392069, "title": "Saturday", "work_id": 72485, "role": "director of photography", "role_id": 925, "is_primary": false}, {"id": 2392448, "title": "Hassles", "work_id": 75461, "role": "director of photography", "role_id": 925, "is_primary": false}, {"id": 2340455, "title": "The Coca-Cola Kid", "work_id": 80023, "role": "director of photography", "role_id": 925, "is_primary": false}], "also_known_as": "", "date_of_birth": "1943-01-01", "date_of_death": "", "genders": [{"id": 9, "name": "Male", "slug": "male"}], "languages": [{"id": 1, "name": "English", "slug": "english"}], "places_of_operation": [{"id": 3, "name": "Australia", "slug": "australia"}], "biography": "Dean Semler  ACS ASC (born 26 May 1943) is an Australian cinematographer and film director. Over his career, he has worked as a cinematographer, camera operator, director, second unit director, and assistant director. He is a three-time recipient of the AACTA Award for Best Cinematography and an Academy Award winner. He is a member of both the Australian Cinematographers Society (ACS) and the American Society of Cinematographers (ASC). In 2002 he was appointed a Member of the Order of Australia (AM).\n\n", "biography_author": "Wikidata", "date_of_biography": "2023-09-05T19:04:50.197465+10:00", "external_links": [{"id": 3862, "uri": "https://en.wikipedia.org/wiki/Dean_Semler"}], "uuid": "3fd16d35-42f0-4d74-a8f4-cf5149f1337e", "source": {"name": "Vernon", "slug": "vernon"}, "source_identifier": "17885", "external_references": [{"id": 25971, "source": {"name": "Wikidata", "slug": "wikidata"}, "source_identifier": "Q648611"}, {"id": 28110, "source": {"name": "VIAF", "slug": "viaf"}, "source_identifier": "40459868"}, {"id": 28111, "source": {"name": "LOC Auth", "slug": "loc-auth"}, "source_identifier": "no2003035712"}, {"id": 28112, "source": {"name": "WorldCat", "slug": "worldcat"}, "source_identifier": "lccn-no2003035712"}], "date_modified": "2025-03-14T18:15:47.396368+11:00"}, {"id": 74234, "name": "Colin Clark", "roles_in_work": [{"id": 2766373, "title": "Jean-Auguste Dominique Ingres. No. 2 (TEFC)", "work_id": 69229, "role": "producer/director", "role_id": 31, "is_primary": true}, {"id": 2766361, "title": "Jean-Auguste Dominique Ingres. No. 1 (TEFC)", "work_id": 69230, "role": "producer/director", "role_id": 31, "is_primary": true}, {"id": 2766353, "title": "Jean Francois Millet", "work_id": 69231, "role": "producer/director", "role_id": 31, "is_primary": true}, {"id": 2766346, "title": "Jacques-Louis David (TEFC)", "work_id": 69185, "role": "producer/director", "role_id": 31, "is_primary": true}, {"id": 2766337, "title": "J.M. Turner. Part 2", "work_id": 75692, "role": "producer/director", "role_id": 31, "is_primary": true}, {"id": 2766334, "title": "J.M. Turner. Part 1", "work_id": 69249, "role": "producer/director", "role_id": 31, "is_primary": true}, {"id": 2766330, "title": "Francisco Goya (TEFC)", "work_id": 67796, "role": "producer/director", "role_id": 31, "is_primary": true}, {"id": 2766318, "title": "Edgar Degas", "work_id": 67020, "role": "producer/director", "role_id": 31, "is_primary": true}, {"id": 2766384, "title": "John Constable", "work_id": 69261, "role": "producer/director", "role_id": 31, "is_primary": true}, {"id": 2766312, "title": "Auguste Rodin", "work_id": 65058, "role": "producer/director", "role_id": 31, "is_primary": true}], "also_known_as": "", "date_of_birth": "09 OCT 1932", "date_of_death": "17 DEC 2002", "genders": [{"id": 9, "name": "Male", "slug": "male"}], "languages": [{"id": 1, "name": "English", "slug": "english"}], "places_of_operation": [{"id": 10, "name": "United Kingdom", "slug": "united-kingdom"}], "biography": "Colin Clark (9 October 1932 – 17 December 2002) was a British writer and filmmaker who specialised in films about the arts, for cinema and television. Source: Wikidata; 01/08/2023", "biography_author": null, "date_of_biography": "2025-03-14T17:58:03.160091+11:00", "external_links": [{"id": 3796, "uri": "https://en.wikipedia.org/wiki/Colin_Clark_(filmmaker)"}], "uuid": "d4fb8ad2-1114-4c7d-991e-4be9f3a2b95d", "source": {"name": "Vernon", "slug": "vernon"}, "source_identifier": "17169", "external_references": [{"id": 24933, "source": {"name": "Wikidata", "slug": "wikidata"}, "source_identifier": "Q773637"}, {"id": 27921, "source": {"name": "VIAF", "slug": "viaf"}, "source_identifier": "5307231"}, {"id": 27922, "source": {"name": "LOC Auth", "slug": "loc-auth"}, "source_identifier": "n96006156"}, {"id": 27923, "source": {"name": "WorldCat", "slug": "worldcat"}, "source_identifier": "lccn-n96006156"}], "date_modified": "2025-03-14T17:58:03.160304+11:00"}, {"id": 74233, "name": "P. Biro", "roles_in_work": [{"id": 2677789, "title": "Aubusson tapestries", "work_id": 65054, "role": "co-producer", "role_id": 915, "is_primary": true}], "also_known_as": "", "date_of_birth": "", "date_of_death": "", "genders": [], "languages": [], "places_of_operation": [], "biography": "", "biography_author": null, "date_of_biography": "2023-05-09T12:34:12.578820+10:00", "external_links": [], "uuid": "4a181eb9-f401-40b5-8029-39e8503bd66b", "source": {"name": "Vernon", "slug": "vernon"}, "source_identifier": "26006", "external_references": [{"id": 50697, "source": {"name": "Wikidata", "slug": "wikidata"}, "source_identifier": "Q121358049"}], "date_modified": "2025-03-06T23:27:37.976925+11:00"}, {"id": 74232, "name": "P. Hirsch", "roles_in_work": [{"id": 2677788, "title": "Aubusson tapestries", "work_id": 65054, "role": "co-producer", "role_id": 915, "is_primary": true}], "also_known_as": "", "date_of_birth": "", "date_of_death": "", "genders": [], "languages": [], "places_of_operation": [], "biography": "", "biography_author": null, "date_of_biography": "2023-05-09T12:34:12.234767+10:00", "external_links": [], "uuid": "9cee36dd-a0e0-4552-ac12-fdf7a0224c12", "source": {"name": "Vernon", "slug": "vernon"}, "source_identifier": "26012", "external_references": [{"id": 38025, "source": {"name": "Wikidata", "slug": "wikidata"}, "source_identifier": "Q121299070"}], "date_modified": "2025-03-06T23:27:37.281464+11:00"}, {"id": 74231, "name": "Jean Lods", "roles_in_work": [{"id": 2677787, "title": "Aubusson tapestries", "work_id": 65054, "role": "co-producer", "role_id": 915, "is_primary": true}], "also_known_as": "", "date_of_birth": "", "date_of_death": "", "genders": [], "languages": [], "places_of_operation": [], "biography": "", "biography_author": null, "date_of_biography": "2023-05-09T12:34:11.986034+10:00", "external_links": [], "uuid": "b7dff991-2fe1-4615-baa6-a191ffd01e03", "source": {"name": "Vernon", "slug": "vernon"}, "source_identifier": "21544", "external_references": [{"id": 37762, "source": {"name": "Wikidata", "slug": "wikidata"}, "source_identifier": "Q121079396"}], "date_modified": "2025-03-06T23:27:36.703916+11:00"}, {"id": 74230, "name": "Leo Elia", "roles_in_work": [{"id": 2392800, "title": "Great Barrier Reef", "work_id": 96070, "role": "camera operator", "role_id": 931, "is_primary": false}, {"id": 2755108, "title": "The Athletes [Greek version]", "work_id": 65035, "role": "cinematographer", "role_id": 32, "is_primary": false}, {"id": 2043020, "title": "Way to a New World", "work_id": 74541, "role": "director of photography", "role_id": 925, "is_primary": false}], "also_known_as": "", "date_of_birth": "", "date_of_death": "", "genders": [{"id": 9, "name": "Male", "slug": "male"}], "languages": [], "places_of_operation": [], "biography": "", "biography_author": null, "date_of_biography": "2023-08-09T04:08:46.761551+10:00", "external_links": [], "uuid": "cc0f8abc-a37b-4f2f-8f7b-704b6c02de54", "source": {"name": "Vernon", "slug": "vernon"}, "source_identifier": "37612", "external_references": [{"id": 39471, "source": {"name": "Wikidata", "slug": "wikidata"}, "source_identifier": "Q121144290"}], "date_modified": "2025-03-13T14:30:04.447204+11:00"}, {"id": 74229, "name": "Richard Tucker", "roles_in_work": [{"id": 2289789, "title": "There are yachts at the bottom of my garden", "work_id": 73663, "role": "cinematographer", "role_id": 32, "is_primary": false}, {"id": 2755107, "title": "The Athletes [Greek version]", "work_id": 65035, "role": "cinematographer", "role_id": 32, "is_primary": false}, {"id": 2215562, "title": "Eighteen Footers", "work_id": 75438, "role": "cinematographer", "role_id": 32, "is_primary": false}], "also_known_as": "", "date_of_birth": "", "date_of_death": "", "genders": [], "languages": [], "places_of_operation": [], "biography": "", "biography_author": null, "date_of_biography": "2023-05-09T19:22:26.289929+10:00", "external_links": [], "uuid": "b354804e-f9bd-45f0-b4d0-b554eb268a91", "source": {"name": "Vernon", "slug": "vernon"}, "source_identifier": "27526", "external_references": [{"id": 36598, "source": {"name": "Wikidata", "slug": "wikidata"}, "source_identifier": "Q121299002"}], "date_modified": "2025-03-13T14:30:03.848423+11:00"}]}