{"count": 28682, "next": "https://api.acmi.net.au/creators/?page=525", "previous": "https://api.acmi.net.au/creators/?page=523", "results": [{"id": 80339, "name": "Julianna Lavin", "roles_in_work": [{"id": 1997941, "title": "Live nude girls", "work_id": 93552, "role": "director", "role_id": 938, "is_primary": true}], "also_known_as": "", "date_of_birth": null, "date_of_death": null, "genders": [{"id": 5, "name": "Female", "slug": "female"}], "languages": [], "places_of_operation": [], "biography": "", "biography_author": null, "date_of_biography": null, "external_links": [], "uuid": "003403eb-b587-4e20-bdf2-ae728b6b50b3", "source": {"name": "Vernon", "slug": "vernon"}, "source_identifier": null, "external_references": [{"id": 10651, "source": {"name": "Wikidata", "slug": "wikidata"}, "source_identifier": "Q107541526"}], "date_modified": "2023-09-05T21:55:50.081472+10:00"}, {"id": 80338, "name": "Steve White", "roles_in_work": [{"id": 1997939, "title": "Live nude girls", "work_id": 93552, "role": "co-producer", "role_id": 915, "is_primary": true}], "also_known_as": "", "date_of_birth": null, "date_of_death": null, "genders": [{"id": 9, "name": "Male", "slug": "male"}], "languages": [], "places_of_operation": [{"id": 1, "name": "United States of America", "slug": "united-states-of-america"}], "biography": "", "biography_author": null, "date_of_biography": null, "external_links": [], "uuid": "7611c711-f192-460f-b99b-3ac14efd7207", "source": {"name": "Vernon", "slug": "vernon"}, "source_identifier": null, "external_references": [{"id": 13376, "source": {"name": "Wikidata", "slug": "wikidata"}, "source_identifier": "Q7614290"}], "date_modified": "2023-09-06T01:31:42.355728+10:00"}, {"id": 80337, "name": "Harry Fine", "roles_in_work": [{"id": 1997934, "title": "Vampire lovers", "work_id": 93551, "role": "co-producer", "role_id": 915, "is_primary": true}], "also_known_as": "", "date_of_birth": null, "date_of_death": null, "genders": [], "languages": [], "places_of_operation": [], "biography": "", "biography_author": null, "date_of_biography": null, "external_links": [], "uuid": "b59147f3-ddc1-4047-9c3d-d9dfecec8028", "source": {"name": "Vernon", "slug": "vernon"}, "source_identifier": null, "external_references": [{"id": 43306, "source": {"name": "Wikidata", "slug": "wikidata"}, "source_identifier": "Q121337203"}], "date_modified": "2023-09-05T20:30:44.011819+10:00"}, {"id": 80336, "name": "Martin Donovan", "roles_in_work": [{"id": 2099050, "title": "Apartment zero", "work_id": 93550, "role": "producer/director", "role_id": 31, "is_primary": true}], "also_known_as": "", "date_of_birth": "1950-01-21", "date_of_death": "", "genders": [{"id": 9, "name": "Male", "slug": "male"}], "languages": [], "places_of_operation": [{"id": 23, "name": "Argentina", "slug": "argentina"}], "biography": "Martin Donovan (born Carlos Enrique Varela y Peralta Ramos; January 21, 1950) is an Argentine screenwriter and film director. Donovan has developed his career working mainly in the United Kingdom, and he is mostly recognized as the co-writer and director of the cult film Apartment Zero (1989), and for his co-written script for Death Becomes Her (1992).", "biography_author": "Wikidata", "date_of_biography": "2023-08-01T16:06:22.513123+10:00", "external_links": [{"id": 2659, "uri": "https://en.wikipedia.org/wiki/Martin_Donovan_(screenwriter)"}], "uuid": "ab2b10b6-a0f8-4269-87f9-3c747b288c32", "source": {"name": "Vernon", "slug": "vernon"}, "source_identifier": "24631", "external_references": [{"id": 11353, "source": {"name": "Wikidata", "slug": "wikidata"}, "source_identifier": "Q61867559"}, {"id": 11354, "source": {"name": "VIAF", "slug": "viaf"}, "source_identifier": "2670055"}, {"id": 11355, "source": {"name": "LOC Auth", "slug": "loc-auth"}, "source_identifier": "n92117204"}, {"id": 11356, "source": {"name": "WorldCat", "slug": "worldcat"}, "source_identifier": "lccn-n2013055625"}], "date_modified": "2023-09-05T22:49:23.142319+10:00"}, {"id": 80335, "name": "Gordon Willis", "roles_in_work": [{"id": 2274626, "title": "Windows", "work_id": 93549, "role": "director", "role_id": 938, "is_primary": true}], "also_known_as": "", "date_of_birth": "1931-05-28", "date_of_death": "2014-05-18", "genders": [{"id": 9, "name": "Male", "slug": "male"}], "languages": [{"id": 1, "name": "English", "slug": "english"}], "places_of_operation": [{"id": 1, "name": "United States of America", "slug": "united-states-of-america"}], "biography": "Gordon Hugh Willis Jr., ASC (May 28, 1931 – May 18, 2014) was an American cinematographer and film director. He is best known for his photographic work on eight Woody Allen films (including Annie Hall and Manhattan), six Alan J. Pakula films (including All the President's Men), four James Bridges films, and all three films from Francis Ford Coppola's The Godfather series.\nFellow cinematographer William A. Fraker called Willis's work a \"milestone in visual storytelling\", while one critic suggested that Willis \"defined the cinematic look of the 1970s: sophisticated compositions in which bolts of light and black put the decade's moral ambiguities into stark relief\". When the International Cinematographers Guild conducted a survey in 2003, they placed Willis among the ten most influential cinematographers in history.", "biography_author": "Wikidata", "date_of_biography": "2023-08-01T15:03:00.793665+10:00", "external_links": [{"id": 2158, "uri": "https://en.wikipedia.org/wiki/Gordon_Willis"}], "uuid": "8bdec152-8c5d-4b2d-a423-5cef55c52942", "source": {"name": "Vernon", "slug": "vernon"}, "source_identifier": "19961", "external_references": [{"id": 9290, "source": {"name": "Wikidata", "slug": "wikidata"}, "source_identifier": "Q560108"}, {"id": 9291, "source": {"name": "VIAF", "slug": "viaf"}, "source_identifier": "61742452"}, {"id": 9292, "source": {"name": "LOC Auth", "slug": "loc-auth"}, "source_identifier": "n85376805"}, {"id": 9293, "source": {"name": "WorldCat", "slug": "worldcat"}, "source_identifier": "lccn-n85376805"}], "date_modified": "2023-09-05T20:17:37.282816+10:00"}, {"id": 80334, "name": "Nancy Meckler", "roles_in_work": [{"id": 2301445, "title": "Sister my sister", "work_id": 93548, "role": "director", "role_id": 938, "is_primary": true}], "also_known_as": "", "date_of_birth": "", "date_of_death": "", "genders": [{"id": 5, "name": "Female", "slug": "female"}], "languages": [], "places_of_operation": [{"id": 1, "name": "United States of America", "slug": "united-states-of-america"}], "biography": "Nancy Meckler is an American theatre and film director, known for her work in the United Kingdom with Shared Experience, where she was a joint artistic director alongside Polly Teale.", "biography_author": "Wikidata", "date_of_biography": "2023-08-01T16:21:30.299349+10:00", "external_links": [{"id": 2765, "uri": "https://en.wikipedia.org/wiki/Nancy_Meckler"}], "uuid": "dd30c595-4f4d-47a4-a87b-70d97326ab90", "source": {"name": "Vernon", "slug": "vernon"}, "source_identifier": "25613", "external_references": [{"id": 11782, "source": {"name": "Wikidata", "slug": "wikidata"}, "source_identifier": "Q6962844"}], "date_modified": "2023-09-05T23:24:35.515665+10:00"}, {"id": 80333, "name": "Out Video", "roles_in_work": [{"id": 2243764, "title": "Flawless", "work_id": 93544, "role": "distributor", "role_id": 437, "is_primary": false}], "also_known_as": "", "date_of_birth": "", "date_of_death": "", "genders": [], "languages": [], "places_of_operation": [], "biography": "", "biography_author": null, "date_of_biography": "2023-05-09T16:58:55.585233+10:00", "external_links": [], "uuid": "bbf5cfc5-6386-4a52-bc1c-66782c5c3e81", "source": {"name": "Vernon", "slug": "vernon"}, "source_identifier": "30743", "external_references": [], "date_modified": "2023-06-14T16:33:30.576250+10:00"}, {"id": 80332, "name": "Colin Brunton", "roles_in_work": [{"id": 2257363, "title": "Rude", "work_id": 93543, "role": "co-producer", "role_id": 915, "is_primary": true}], "also_known_as": "", "date_of_birth": "1955-07-31", "date_of_death": "", "genders": [{"id": 9, "name": "Male", "slug": "male"}], "languages": [], "places_of_operation": [{"id": 36, "name": "Canada", "slug": "canada"}], "biography": "Colin Brunton (born 1955) is a Canadian producer and director.\nBrunton was born in Toronto, Ontario, Canada. After creating the short films The Last Pogo (1978), A Trip Around Lake Ontario (1988) and The Mysterious Moon Men of Canada (1989), Genie Award winner for Best Live Action Short), Brunton produced the feature films Roadkill (1989) and Highway 61 (1990) with director Bruce McDonald.Brunton then went on to become the first executive director of The Feature Film Project, an initiative of Norman Jewison's Canadian Film Centre.  Encouraging filmmakers to take risks, and giving them complete artistic freedom, from 1991 to 1995 he developed and then executive produced five feature films by first-time directors, producers and writers: Blood & Donuts, Cube, Rude, Shoemaker, and House.  While faring poorly at the box office, they garnered generally favorable critical praise, and in two cases launched the healthy careers of two new directors: Clement Virgo with Rude and Vincenzo Natali with Cube.\nAfter leaving the Feature Film Project, Brunton became a hired-gun, working as a line producer, producer, and production manager on a variety of feature films including Hedwig and the Angry Inch, The Safety of Objects and Foolproof. His television producing credits include the sixth season of The Kids in the Hall, Little Mosque on the Prairie, Spun Out, The Newsroom, Our Hero, Schitt's Creek and Puppets Who Kill.\nIn 2007, Brunton completed the concert DVD Duality of Self featuring mysterious musician Jandek, and in 2013 he released the feature-length documentary The Last Pogo Jumps Again in collaboration with Kire Paputts. He was also in the 2007 movie How She Move.\nHe was line producer on Empire of Dirt, a film that was nominated in 2013 for Best Picture at the 2nd Canadian Screen Awards.", "biography_author": "Wikidata", "date_of_biography": "2023-09-05T18:43:32.495324+10:00", "external_links": [{"id": 5758, "uri": "https://en.wikipedia.org/wiki/Colin_Brunton"}], "uuid": "81ea07b1-d572-46c0-8e49-31d589dc46a1", "source": {"name": "Vernon", "slug": "vernon"}, "source_identifier": "17164", "external_references": [{"id": 50745, "source": {"name": "Wikidata", "slug": "wikidata"}, "source_identifier": "Q5144925"}, {"id": 54229, "source": {"name": "VIAF", "slug": "viaf"}, "source_identifier": "106062640"}, {"id": 54230, "source": {"name": "LOC Auth", "slug": "loc-auth"}, "source_identifier": "no2018047392"}, {"id": 54231, "source": {"name": "WorldCat", "slug": "worldcat"}, "source_identifier": "lccn-no2018047392"}], "date_modified": "2023-09-05T18:43:32.517415+10:00"}, {"id": 80331, "name": "Damon D'Oliveira", "roles_in_work": [{"id": 2257361, "title": "Rude", "work_id": 93543, "role": "co-producer", "role_id": 915, "is_primary": true}], "also_known_as": "", "date_of_birth": "", "date_of_death": "", "genders": [], "languages": [], "places_of_operation": [], "biography": "", "biography_author": null, "date_of_biography": "2023-05-09T17:20:06.291538+10:00", "external_links": [], "uuid": "4452d675-9264-4c33-b7b3-922f6ad4dccc", "source": {"name": "Vernon", "slug": "vernon"}, "source_identifier": "17346", "external_references": [{"id": 41656, "source": {"name": "Wikidata", "slug": "wikidata"}, "source_identifier": "Q121144092"}], "date_modified": "2023-09-05T18:49:49.795089+10:00"}, {"id": 80330, "name": "Karen King", "roles_in_work": [{"id": 2257358, "title": "Rude", "work_id": 93543, "role": "co-producer", "role_id": 915, "is_primary": true}], "also_known_as": "", "date_of_birth": "", "date_of_death": "", "genders": [], "languages": [], "places_of_operation": [], "biography": "", "biography_author": null, "date_of_biography": "2023-05-09T17:20:06.052308+10:00", "external_links": [], "uuid": "69fefa99-278d-45ff-91e5-21bdd12883ce", "source": {"name": "Vernon", "slug": "vernon"}, "source_identifier": "22985", "external_references": [], "date_modified": "2023-06-14T16:33:30.576250+10:00"}]}