{"count": 28681, "next": "https://api.acmi.net.au/creators/?page=58", "previous": "https://api.acmi.net.au/creators/?page=56", "results": [{"id": 86696, "name": "Aniko Kovacs", "roles_in_work": [{"id": 2121394, "title": "Bluebeard's castle", "work_id": 83719, "role": "co-producer", "role_id": 915, "is_primary": true}], "also_known_as": "", "date_of_birth": "", "date_of_death": "", "genders": [], "languages": [], "places_of_operation": [], "biography": "", "biography_author": null, "date_of_biography": "2023-05-09T13:04:27.046318+10:00", "external_links": [], "uuid": "781672d9-6f53-4f8d-b78e-d0475346f03d", "source": {"name": "Vernon", "slug": "vernon"}, "source_identifier": "15277", "external_references": [], "date_modified": "2023-06-14T16:33:30.576250+10:00"}, {"id": 86695, "name": "David Moon", "roles_in_work": [{"id": 2291585, "title": "Seve Ballesteros: the short game", "work_id": 83703, "role": "co-producer", "role_id": 915, "is_primary": true}], "also_known_as": "", "date_of_birth": "", "date_of_death": "", "genders": [], "languages": [], "places_of_operation": [], "biography": "", "biography_author": null, "date_of_biography": "2023-05-09T18:20:21.034243+10:00", "external_links": [], "uuid": "0ceddc0d-3cee-40f9-ab6d-d32cb7727e50", "source": {"name": "Vernon", "slug": "vernon"}, "source_identifier": "17724", "external_references": [], "date_modified": "2023-06-14T16:33:30.576250+10:00"}, {"id": 86694, "name": "Kris Dillinger", "roles_in_work": [{"id": 2291582, "title": "Seve Ballesteros: the short game", "work_id": 83703, "role": "co-producer", "role_id": 915, "is_primary": true}], "also_known_as": "", "date_of_birth": "1948", "date_of_death": "", "genders": [], "languages": [], "places_of_operation": [], "biography": "", "biography_author": null, "date_of_biography": "2023-05-09T18:20:20.798594+10:00", "external_links": [], "uuid": "7dd9b72d-ed11-4479-9778-4d4115b73910", "source": {"name": "Vernon", "slug": "vernon"}, "source_identifier": "23399", "external_references": [], "date_modified": "2023-06-14T16:33:30.576250+10:00"}, {"id": 86693, "name": "Peter Bassett", "roles_in_work": [{"id": 2614437, "title": "Life in the freezer", "work_id": 83681, "role": "co-director", "role_id": 959, "is_primary": true}], "also_known_as": "", "date_of_birth": null, "date_of_death": null, "genders": [], "languages": [], "places_of_operation": [], "biography": "", "biography_author": null, "date_of_biography": null, "external_links": [], "uuid": "41cdfd7f-2a28-4620-9264-f26a5cc07fb8", "source": {"name": "Vernon", "slug": "vernon"}, "source_identifier": "26462", "external_references": [], "date_modified": "2025-02-26T20:10:48.665624+11:00"}, {"id": 86692, "name": "Liz Laidler", "roles_in_work": [{"id": 2186156, "title": "Pandas aren't always cuddly", "work_id": 83617, "role": "co-producer", "role_id": 915, "is_primary": true}], "also_known_as": "", "date_of_birth": "", "date_of_death": "", "genders": [], "languages": [], "places_of_operation": [], "biography": "", "biography_author": null, "date_of_biography": "2023-05-09T15:01:23.572418+10:00", "external_links": [], "uuid": "d125a5d1-79f5-48e9-9a14-6a40ea4ca219", "source": {"name": "Vernon", "slug": "vernon"}, "source_identifier": "4537", "external_references": [], "date_modified": "2023-06-14T16:33:30.576250+10:00"}, {"id": 86691, "name": "Andrew Jackson", "roles_in_work": [{"id": 1846878, "title": "The Velvet claw", "work_id": 83607, "role": "co-producer", "role_id": 915, "is_primary": true}], "also_known_as": "", "date_of_birth": null, "date_of_death": null, "genders": [], "languages": [], "places_of_operation": [], "biography": "", "biography_author": null, "date_of_biography": null, "external_links": [], "uuid": "8758e04a-1342-4397-a269-c2cb2b329670", "source": {"name": "Vernon", "slug": "vernon"}, "source_identifier": null, "external_references": [], "date_modified": "2023-06-14T16:33:30.576250+10:00"}, {"id": 86690, "name": "Melinda Barker", "roles_in_work": [{"id": 1846876, "title": "The Velvet claw", "work_id": 83607, "role": "co-producer", "role_id": 915, "is_primary": true}], "also_known_as": "", "date_of_birth": null, "date_of_death": null, "genders": [], "languages": [], "places_of_operation": [], "biography": "", "biography_author": null, "date_of_biography": null, "external_links": [], "uuid": "231bc127-327b-4902-bf48-2e5670dc0dfd", "source": {"name": "Vernon", "slug": "vernon"}, "source_identifier": null, "external_references": [], "date_modified": "2023-06-14T16:33:30.576250+10:00"}, {"id": 86689, "name": "Daniel Wigutow", "roles_in_work": [{"id": 2614377, "title": "Distant harmony", "work_id": 83595, "role": "co-producer", "role_id": 915, "is_primary": true}], "also_known_as": "", "date_of_birth": "", "date_of_death": "", "genders": [], "languages": [], "places_of_operation": [], "biography": "", "biography_author": null, "date_of_biography": "2023-05-09T15:16:19.382777+10:00", "external_links": [], "uuid": "0e7a8eb8-2a64-43f3-b6e8-1607371fa20f", "source": {"name": "Vernon", "slug": "vernon"}, "source_identifier": "17411", "external_references": [], "date_modified": "2025-02-26T20:10:07.437061+11:00"}, {"id": 86688, "name": "John Goberman", "roles_in_work": [{"id": 2614375, "title": "Distant harmony", "work_id": 83595, "role": "co-producer", "role_id": 915, "is_primary": true}], "also_known_as": "", "date_of_birth": "", "date_of_death": "", "genders": [], "languages": [], "places_of_operation": [], "biography": "", "biography_author": null, "date_of_biography": "2023-05-09T15:16:18.663195+10:00", "external_links": [], "uuid": "4729c04d-ccc0-40ab-8fc8-36af539737f5", "source": {"name": "Vernon", "slug": "vernon"}, "source_identifier": "22283", "external_references": [], "date_modified": "2025-02-26T20:10:06.248950+11:00"}, {"id": 86687, "name": "Ian Stuttard", "roles_in_work": [{"id": 2147819, "title": "Crime Inc. - Volume 2.", "work_id": 83539, "role": "co-director", "role_id": 959, "is_primary": true}, {"id": 2147804, "title": "Crime Inc. - Volume 1.", "work_id": 83538, "role": "co-director", "role_id": 959, "is_primary": true}], "also_known_as": "", "date_of_birth": "", "date_of_death": "", "genders": [], "languages": [], "places_of_operation": [], "biography": "", "biography_author": null, "date_of_biography": "2023-05-09T13:48:20.574746+10:00", "external_links": [], "uuid": "9a826e83-a5e1-4b26-9195-2cf84bb0fabf", "source": {"name": "Vernon", "slug": "vernon"}, "source_identifier": "20798", "external_references": [], "date_modified": "2023-06-14T16:33:30.576250+10:00"}]}