{"count": 28687, "next": "https://api.acmi.net.au/creators/?page=339", "previous": "https://api.acmi.net.au/creators/?page=337", "results": [{"id": 82227, "name": "Iosif Kheifits", "roles_in_work": [{"id": 2650536, "title": "Baltic deputy", "work_id": 115730, "role": "director", "role_id": 938, "is_primary": true}, {"id": 2650510, "title": "Dama a sobachkoi = Lady with the little dog", "work_id": 115720, "role": "director", "role_id": 938, "is_primary": true}], "also_known_as": "", "date_of_birth": "17 DEC 1905", "date_of_death": "24 APR 1995", "genders": [{"id": 9, "name": "Male", "slug": "male"}], "languages": [{"id": 3, "name": "Russian", "slug": "russian"}], "places_of_operation": [{"id": 291, "name": "Russian Empire", "slug": "russian-empire"}], "biography": "Iosif Yefimovich Kheifits (Belarusian: Іосіф Яўхімавіч Хейфіц; 17 December [O.S. 4 December] 1905 – 24 April 1995) was a Soviet film director, winner of two Stalin Prizes (1941, 1946), People's Artist of USSR (1964), Hero of Socialist Labor (1975). Member of the Communist Party of Soviet Union since 1945. Source: Wikidata; 01/08/2023", "biography_author": null, "date_of_biography": "2025-03-05T14:20:58.341695+11:00", "external_links": [{"id": 4200, "uri": "https://en.wikipedia.org/wiki/Iosif_Kheifits"}], "uuid": "969d6125-137e-4bb7-9325-77d0f7dc105c", "source": {"name": "Vernon", "slug": "vernon"}, "source_identifier": "30977", "external_references": [{"id": 25910, "source": {"name": "Wikidata", "slug": "wikidata"}, "source_identifier": "Q741710"}, {"id": 29029, "source": {"name": "VIAF", "slug": "viaf"}, "source_identifier": "113679226"}, {"id": 29030, "source": {"name": "LOC Auth", "slug": "loc-auth"}, "source_identifier": "n82028008"}, {"id": 29031, "source": {"name": "WorldCat", "slug": "worldcat"}, "source_identifier": "lccn-n82028008"}], "date_modified": "2025-03-05T14:20:58.341925+11:00"}, {"id": 82226, "name": "Réalisation d'art cinématographique (R.A.C.)", "roles_in_work": [{"id": 2650499, "title": "La Grande illusion = Grand illusion", "work_id": 115715, "role": "production company", "role_id": 941, "is_primary": true}], "also_known_as": "", "date_of_birth": null, "date_of_death": null, "genders": [], "languages": [], "places_of_operation": [], "biography": "", "biography_author": null, "date_of_biography": null, "external_links": [], "uuid": "d399a5a4-4fcb-4c41-bf07-13455eeeaa8b", "source": {"name": "Vernon", "slug": "vernon"}, "source_identifier": "30888", "external_references": [], "date_modified": "2025-03-05T14:20:39.426292+11:00"}, {"id": 82225, "name": "Ente Nazionale Industrie Cinematografiche (ENIC)", "roles_in_work": [{"id": 2650496, "title": "Ladri di biciclette = Bicycle thieves", "work_id": 115714, "role": "production company", "role_id": 941, "is_primary": true}], "also_known_as": "", "date_of_birth": null, "date_of_death": null, "genders": [], "languages": [], "places_of_operation": [], "biography": "", "biography_author": null, "date_of_biography": null, "external_links": [], "uuid": "76c36b10-de76-4687-82a6-81fac4a72194", "source": {"name": "Vernon", "slug": "vernon"}, "source_identifier": "30887", "external_references": [{"id": 33085, "source": {"name": "Wikidata", "slug": "wikidata"}, "source_identifier": "Q121079285"}], "date_modified": "2025-03-05T14:20:37.451040+11:00"}, {"id": 82224, "name": "Jean-Claude Lefevre", "roles_in_work": [{"id": 2650480, "title": "Blanche", "work_id": 115707, "role": "producer", "role_id": 1089, "is_primary": true}], "also_known_as": "", "date_of_birth": "", "date_of_death": "", "genders": [], "languages": [], "places_of_operation": [], "biography": "", "biography_author": null, "date_of_biography": "2023-05-09T12:58:00.921666+10:00", "external_links": [], "uuid": "1fa5e763-9b05-4e68-bc75-c14f45309fdc", "source": {"name": "Vernon", "slug": "vernon"}, "source_identifier": "30975", "external_references": [{"id": 39711, "source": {"name": "Wikidata", "slug": "wikidata"}, "source_identifier": "Q121298711"}], "date_modified": "2025-03-05T14:20:27.225673+11:00"}, {"id": 82223, "name": "Abel & Charton", "roles_in_work": [{"id": 2650479, "title": "Blanche", "work_id": 115707, "role": "production company", "role_id": 941, "is_primary": true}], "also_known_as": "", "date_of_birth": "", "date_of_death": "", "genders": [], "languages": [], "places_of_operation": [], "biography": "", "biography_author": null, "date_of_biography": "2023-05-09T12:58:00.693812+10:00", "external_links": [], "uuid": "63f57bd2-2483-4570-91b1-0d34388d5bc8", "source": {"name": "Vernon", "slug": "vernon"}, "source_identifier": "30886", "external_references": [{"id": 41308, "source": {"name": "Wikidata", "slug": "wikidata"}, "source_identifier": "Q121143885"}], "date_modified": "2025-03-05T14:20:26.650194+11:00"}, {"id": 82222, "name": "Telepresse Films", "roles_in_work": [{"id": 2650478, "title": "Blanche", "work_id": 115707, "role": "production company", "role_id": 941, "is_primary": true}], "also_known_as": "", "date_of_birth": "", "date_of_death": "", "genders": [], "languages": [], "places_of_operation": [], "biography": "", "biography_author": null, "date_of_biography": "2023-05-09T12:58:00.444950+10:00", "external_links": [], "uuid": "65348a81-b56f-4ea3-9860-cb4214b1a59d", "source": {"name": "Vernon", "slug": "vernon"}, "source_identifier": "30885", "external_references": [], "date_modified": "2025-03-05T14:20:26.071445+11:00"}, {"id": 82221, "name": "Canaria Films", "roles_in_work": [{"id": 889497, "title": "Les Noces rouges = Blood wedding", "work_id": 115705, "role": "production company", "role_id": 941, "is_primary": true}], "also_known_as": "", "date_of_birth": null, "date_of_death": null, "genders": [], "languages": [], "places_of_operation": [], "biography": "", "biography_author": null, "date_of_biography": null, "external_links": [], "uuid": "774dec55-b73b-4392-a5b7-28a5310e4d47", "source": {"name": "Vernon", "slug": "vernon"}, "source_identifier": null, "external_references": [{"id": 38036, "source": {"name": "Wikidata", "slug": "wikidata"}, "source_identifier": "Q121271485"}], "date_modified": "2023-09-05T18:18:12.034085+10:00"}, {"id": 82220, "name": "Mitsushio Shimizu", "roles_in_work": [{"id": 2650473, "title": "Yoru no omnatachi = Women of the night", "work_id": 115703, "role": "producer", "role_id": 1089, "is_primary": true}], "also_known_as": "", "date_of_birth": null, "date_of_death": null, "genders": [], "languages": [], "places_of_operation": [], "biography": "", "biography_author": null, "date_of_biography": null, "external_links": [], "uuid": "7a7fc28d-8fbd-4fcb-9287-e27324c22113", "source": {"name": "Vernon", "slug": "vernon"}, "source_identifier": "30974", "external_references": [{"id": 41419, "source": {"name": "Wikidata", "slug": "wikidata"}, "source_identifier": "Q121159956"}], "date_modified": "2025-03-05T14:20:23.253320+11:00"}, {"id": 82219, "name": "Sachiko Hidari", "roles_in_work": [{"id": 2650462, "title": "Toi Ippon no michi = The Far road", "work_id": 115699, "role": "producer/director", "role_id": 31, "is_primary": true}], "also_known_as": "", "date_of_birth": "1930-06-29", "date_of_death": "2001-11-07", "genders": [{"id": 5, "name": "Female", "slug": "female"}], "languages": [], "places_of_operation": [{"id": 8, "name": "Japan", "slug": "japan"}], "biography": "Sachiko Hidari (左幸子, Hidari Sachiko, 29 June 1930 – 7 November 2001) was a Japanese actress and film director.", "biography_author": "Wikidata", "date_of_biography": "2023-09-06T01:01:11.598567+10:00", "external_links": [{"id": 6162, "uri": "https://en.wikipedia.org/wiki/Sachiko_Hidari"}], "uuid": "c5e53e3f-6d87-440c-944c-8db097b7c8d4", "source": {"name": "Vernon", "slug": "vernon"}, "source_identifier": "30973", "external_references": [{"id": 39023, "source": {"name": "Wikidata", "slug": "wikidata"}, "source_identifier": "Q143083"}, {"id": 55741, "source": {"name": "VIAF", "slug": "viaf"}, "source_identifier": "91830346"}, {"id": 55742, "source": {"name": "LOC Auth", "slug": "loc-auth"}, "source_identifier": "no00007746"}, {"id": 55743, "source": {"name": "WorldCat", "slug": "worldcat"}, "source_identifier": "lccn-no00007746"}], "date_modified": "2025-03-05T14:20:17.581353+11:00"}, {"id": 82218, "name": "Keiji Matsuzaki", "roles_in_work": [{"id": 2650460, "title": "Sugata Sanshiro = Judo Saga", "work_id": 115698, "role": "producer", "role_id": 1089, "is_primary": true}], "also_known_as": "", "date_of_birth": "1905-01-01", "date_of_death": "1974-01-01", "genders": [{"id": 9, "name": "Male", "slug": "male"}], "languages": [], "places_of_operation": [{"id": 8, "name": "Japan", "slug": "japan"}], "biography": "", "biography_author": null, "date_of_biography": "2023-05-09T19:05:13.692832+10:00", "external_links": [], "uuid": "3f1b4bf9-0d35-4300-9500-9ccef62c095e", "source": {"name": "Vernon", "slug": "vernon"}, "source_identifier": "30972", "external_references": [{"id": 41110, "source": {"name": "Wikidata", "slug": "wikidata"}, "source_identifier": "Q11530201"}, {"id": 54996, "source": {"name": "VIAF", "slug": "viaf"}, "source_identifier": "8653384"}, {"id": 54997, "source": {"name": "LOC Auth", "slug": "loc-auth"}, "source_identifier": "n79001704"}, {"id": 54998, "source": {"name": "WorldCat", "slug": "worldcat"}, "source_identifier": "lccn-n79001704"}], "date_modified": "2025-03-05T14:20:16.723263+11:00"}]}