{"count": 28687, "next": "https://api.acmi.net.au/creators/?page=2442", "previous": "https://api.acmi.net.au/creators/?page=2440", "results": [{"id": 14637, "name": "E Smith Morris", "roles_in_work": [{"id": 2712753, "title": "Electro-magnetic induction", "work_id": 67082, "role": "director", "role_id": 938, "is_primary": true}], "also_known_as": "", "date_of_birth": null, "date_of_death": null, "genders": [], "languages": [], "places_of_operation": [], "biography": "", "biography_author": null, "date_of_biography": null, "external_links": [], "uuid": "b784e0fe-52b7-43ba-b6e7-faa00a70c38e", "source": {"name": "Vernon", "slug": "vernon"}, "source_identifier": "18505", "external_references": [], "date_modified": "2025-03-12T00:30:03.653354+11:00"}, {"id": 14636, "name": "Harry Dance", "roles_in_work": [{"id": 2712748, "title": "The Electro-magnet", "work_id": 67081, "role": "director", "role_id": 938, "is_primary": true}], "also_known_as": "", "date_of_birth": null, "date_of_death": null, "genders": [], "languages": [], "places_of_operation": [], "biography": "", "biography_author": null, "date_of_biography": null, "external_links": [], "uuid": "c3354e82-7728-446e-989a-0f629fd4d84d", "source": {"name": "Vernon", "slug": "vernon"}, "source_identifier": "20308", "external_references": [], "date_modified": "2025-03-12T00:30:02.069033+11:00"}, {"id": 14635, "name": "Langton Gould-Marks", "roles_in_work": [{"id": 2712736, "title": "Electricity and heat", "work_id": 67074, "role": "director", "role_id": 938, "is_primary": true}, {"id": 2769861, "title": "Beware - snakes", "work_id": 95715, "role": "director", "role_id": 938, "is_primary": true}, {"id": 825160, "title": "Born equal", "work_id": 95708, "role": "director", "role_id": 938, "is_primary": true}, {"id": 2109094, "title": "Be clean and healthy", "work_id": 95707, "role": "director", "role_id": 938, "is_primary": true}, {"id": 860673, "title": "What is electricty", "work_id": 74630, "role": "director", "role_id": 938, "is_primary": true}, {"id": 2769849, "title": "Kangaroos", "work_id": 95706, "role": "director", "role_id": 938, "is_primary": true}], "also_known_as": "", "date_of_birth": "", "date_of_death": "", "genders": [], "languages": [], "places_of_operation": [], "biography": "", "biography_author": null, "date_of_biography": "2023-05-09T12:51:36.441335+10:00", "external_links": [], "uuid": "fca06146-a334-4dc9-ab5b-009825207056", "source": {"name": "Vernon", "slug": "vernon"}, "source_identifier": "23438", "external_references": [{"id": 41753, "source": {"name": "Wikidata", "slug": "wikidata"}, "source_identifier": "Q121126342"}], "date_modified": "2025-03-14T18:16:27.207736+11:00"}, {"id": 14634, "name": "Ray-Bell Films", "roles_in_work": [{"id": 2712733, "title": "Squirrel-cage rotor principles", "work_id": 67073, "role": "production company", "role_id": 941, "is_primary": true}, {"id": 2466113, "title": "Split-phase motor principles", "work_id": 73108, "role": "production company", "role_id": 941, "is_primary": true}, {"id": 2466109, "title": "Rotating magnetic field", "work_id": 72352, "role": "production company", "role_id": 941, "is_primary": true}, {"id": 2466115, "title": "Single-phase and polyphase circuits", "work_id": 72850, "role": "production company", "role_id": 941, "is_primary": true}, {"id": 2466117, "title": "Repulsion motor principles", "work_id": 72166, "role": "production company", "role_id": 941, "is_primary": true}], "also_known_as": "", "date_of_birth": "", "date_of_death": "", "genders": [], "languages": [], "places_of_operation": [], "biography": "", "biography_author": null, "date_of_biography": "2023-08-14T10:49:48.209777+10:00", "external_links": [], "uuid": "6fa935bc-c414-4058-b22c-bd77fa0dfef6", "source": {"name": "Vernon", "slug": "vernon"}, "source_identifier": "11880", "external_references": [], "date_modified": "2025-03-12T00:29:51.790886+11:00"}, {"id": 14633, "name": "Chermayeff and Geismar Associates", "roles_in_work": [{"id": 2712728, "title": "An Electric talking picture", "work_id": 67070, "role": "producer", "role_id": 1089, "is_primary": true}], "also_known_as": "", "date_of_birth": "", "date_of_death": "", "genders": [], "languages": [], "places_of_operation": [], "biography": "", "biography_author": null, "date_of_biography": "2023-08-11T13:55:05.727824+10:00", "external_links": [], "uuid": "0e6cf21e-7626-429e-b508-18d445340b81", "source": {"name": "Vernon", "slug": "vernon"}, "source_identifier": "6551", "external_references": [], "date_modified": "2025-03-12T00:29:47.520906+11:00"}, {"id": 14632, "name": "British Iron and Steel Federation", "roles_in_work": [{"id": 1670301, "title": "Carbon content", "work_id": 73313, "role": "production company", "role_id": 941, "is_primary": true}, {"id": 858744, "title": "Speed the scrap [Long version]", "work_id": 73089, "role": "production company", "role_id": 941, "is_primary": true}, {"id": 871468, "title": "Speed the scrap [Short version]", "work_id": 87025, "role": "production company", "role_id": 941, "is_primary": true}, {"id": 2768334, "title": "Making open hearth steel", "work_id": 71164, "role": "production company", "role_id": 941, "is_primary": true}, {"id": 1670298, "title": "Heat treatment", "work_id": 73312, "role": "production company", "role_id": 941, "is_primary": true}, {"id": 2644633, "title": "Electric furnaces", "work_id": 67068, "role": "production company", "role_id": 941, "is_primary": true}], "also_known_as": "", "date_of_birth": null, "date_of_death": null, "genders": [], "languages": [], "places_of_operation": [], "biography": "", "biography_author": null, "date_of_biography": null, "external_links": [], "uuid": "3da02929-6030-4c23-ab82-c1acdae2afef", "source": {"name": "Vernon", "slug": "vernon"}, "source_identifier": "6026", "external_references": [], "date_modified": "2025-03-05T12:22:03.595911+11:00"}, {"id": 14631, "name": "Children's Television Workshop", "roles_in_work": [{"id": 2776213, "title": "The Best of Ernie and Bert", "work_id": 81670, "role": "production company", "role_id": 941, "is_primary": true}, {"id": 2776245, "title": "My Sesame Street Home Video", "work_id": 115203, "role": "production company", "role_id": 941, "is_primary": true}, {"id": 1846621, "title": "Sing yourself silly!", "work_id": 83172, "role": "production company", "role_id": 941, "is_primary": true}, {"id": 2137612, "title": "Christmas Eve on Sesame Street", "work_id": 81638, "role": "production company", "role_id": 941, "is_primary": true}, {"id": 2644629, "title": "The Electric company", "work_id": 67066, "role": "production company", "role_id": 941, "is_primary": true}, {"id": 2326367, "title": "The Adventures of Elmo in grouchland", "work_id": 89212, "role": "production company", "role_id": 941, "is_primary": true}, {"id": 2649496, "title": "Monster hits!", "work_id": 81671, "role": "production company", "role_id": 941, "is_primary": true}, {"id": 2776175, "title": "Bedtime Stories and Songs", "work_id": 81646, "role": "production company", "role_id": 941, "is_primary": true}, {"id": 2776181, "title": "Big Bird's Favourite Party Games", "work_id": 81647, "role": "production company", "role_id": 941, "is_primary": true}, {"id": 2776192, "title": "I'm glad I'm me", "work_id": 81658, "role": "production company", "role_id": 941, "is_primary": true}, {"id": 2776198, "title": "The Alphabet Game", "work_id": 81659, "role": "production company", "role_id": 941, "is_primary": true}, {"id": 2776205, "title": "Count It Higher", "work_id": 81669, "role": "production company", "role_id": 941, "is_primary": true}, {"id": 2776223, "title": "The Best of Elmo and Elmocize", "work_id": 86342, "role": "production company", "role_id": 941, "is_primary": true}], "also_known_as": "", "date_of_birth": "", "date_of_death": "", "genders": [], "languages": [], "places_of_operation": [], "biography": "", "biography_author": null, "date_of_biography": "2023-05-09T19:25:44.666473+10:00", "external_links": [], "uuid": "47f7e69a-43b9-4228-8f77-9c1007305da5", "source": {"name": "Vernon", "slug": "vernon"}, "source_identifier": "13362", "external_references": [{"id": 32550, "source": {"name": "Wikidata", "slug": "wikidata"}, "source_identifier": "Q121337292"}], "date_modified": "2025-03-14T18:46:40.045747+11:00"}, {"id": 14630, "name": "British Steel", "roles_in_work": [{"id": 2712725, "title": "Electric arc steelmaking", "work_id": 67065, "role": "production company", "role_id": 941, "is_primary": true}], "also_known_as": "", "date_of_birth": "", "date_of_death": "", "genders": [], "languages": [], "places_of_operation": [], "biography": "", "biography_author": null, "date_of_biography": "2023-08-11T16:20:17.729037+10:00", "external_links": [], "uuid": "c4ecd633-33cc-47c7-aa35-e78ac6b5fa55", "source": {"name": "Vernon", "slug": "vernon"}, "source_identifier": "6057", "external_references": [], "date_modified": "2025-03-12T00:29:42.563776+11:00"}, {"id": 14629, "name": "Viscom", "roles_in_work": [{"id": 2712724, "title": "Electric arc steelmaking", "work_id": 67065, "role": "production company", "role_id": 941, "is_primary": true}], "also_known_as": "", "date_of_birth": "", "date_of_death": "", "genders": [], "languages": [], "places_of_operation": [], "biography": "", "biography_author": null, "date_of_biography": "2023-08-11T16:20:17.087053+10:00", "external_links": [], "uuid": "cd1eb4d9-6065-46ad-aeb3-ffa6b67feb8e", "source": {"name": "Vernon", "slug": "vernon"}, "source_identifier": "14159", "external_references": [], "date_modified": "2025-03-12T00:29:40.742421+11:00"}, {"id": 14628, "name": "Educational Services", "roles_in_work": [{"id": 750500, "title": "Periodic motions", "work_id": 71484, "role": "production company", "role_id": 941, "is_primary": true}, {"id": 2793117, "title": "Elastic collisions and stored energy", "work_id": 67061, "role": "production company", "role_id": 941, "is_primary": true}, {"id": 2793119, "title": "Electric Fields", "work_id": 67067, "role": "production company", "role_id": 941, "is_primary": true}, {"id": 2793127, "title": "Forces", "work_id": 67716, "role": "production company", "role_id": 941, "is_primary": true}, {"id": 2793142, "title": "Inertia", "work_id": 68928, "role": "production company", "role_id": 941, "is_primary": true}, {"id": 2793164, "title": "The Millikan experiment", "work_id": 70386, "role": "production company", "role_id": 941, "is_primary": true}, {"id": 2712838, "title": "Elliptical orbits", "work_id": 67118, "role": "production company", "role_id": 941, "is_primary": true}, {"id": 2714219, "title": "The Franck-Hertz experiment", "work_id": 67801, "role": "production company", "role_id": 941, "is_primary": true}, {"id": 2646639, "title": "Time and clocks", "work_id": 73829, "role": "production company", "role_id": 941, "is_primary": true}, {"id": 2760721, "title": "Fundamental concepts (TEFC)", "work_id": 67642, "role": "production company", "role_id": 941, "is_primary": true}, {"id": 825394, "title": "Conservation of energy", "work_id": 95823, "role": "production company", "role_id": 941, "is_primary": true}, {"id": 855110, "title": "Mass of the electron", "work_id": 70181, "role": "production company", "role_id": 941, "is_primary": true}, {"id": 855151, "title": "Matter waves", "work_id": 70216, "role": "production company", "role_id": 941, "is_primary": true}, {"id": 2757591, "title": "Gas pressure and molecular collisions", "work_id": 95983, "role": "production company", "role_id": 941, "is_primary": true}, {"id": 857478, "title": "Random events", "work_id": 72054, "role": "production company", "role_id": 941, "is_primary": true}, {"id": 873182, "title": "Baboon development: the older infant, four months to one year (Nairobi Park)", "work_id": 88055, "role": "production company", "role_id": 941, "is_primary": true}], "also_known_as": "", "date_of_birth": "", "date_of_death": "", "genders": [], "languages": [], "places_of_operation": [], "biography": "", "biography_author": null, "date_of_biography": "2023-08-11T18:25:00.577215+10:00", "external_links": [], "uuid": "875b19f5-70e3-449d-ba6b-951e6f715856", "source": {"name": "Vernon", "slug": "vernon"}, "source_identifier": "7811", "external_references": [], "date_modified": "2025-03-14T20:16:10.070877+11:00"}]}