{"count": 28687, "next": "https://api.acmi.net.au/creators/?page=204", "previous": "https://api.acmi.net.au/creators/?page=202", "results": [{"id": 83577, "name": "Hector Waldron Pride Charitable Trust", "roles_in_work": [{"id": 2652260, "title": "My journey", "work_id": 116826, "role": "partner", "role_id": 575, "is_primary": false}, {"id": 2652266, "title": "Family", "work_id": 116823, "role": "partner", "role_id": 575, "is_primary": false}, {"id": 2652272, "title": "In flux", "work_id": 116824, "role": "partner", "role_id": 575, "is_primary": false}, {"id": 2335399, "title": "Families and life", "work_id": 116822, "role": "partner", "role_id": 575, "is_primary": false}, {"id": 2335520, "title": "A New path", "work_id": 116827, "role": "partner", "role_id": 575, "is_primary": false}, {"id": 2335487, "title": "Living Legacy : Digital Storytelling project", "work_id": 116819, "role": "partner", "role_id": 575, "is_primary": false}, {"id": 2652242, "title": "The Bribe", "work_id": 116821, "role": "partner", "role_id": 575, "is_primary": false}, {"id": 2652248, "title": "Anne's Legacy", "work_id": 116820, "role": "partner", "role_id": 575, "is_primary": false}, {"id": 2652254, "title": "Ken's great times with Legacy", "work_id": 116825, "role": "partner", "role_id": 575, "is_primary": false}], "also_known_as": "", "date_of_birth": "", "date_of_death": "", "genders": [], "languages": [], "places_of_operation": [], "biography": "", "biography_author": null, "date_of_biography": "2023-05-09T19:31:18.662950+10:00", "external_links": [], "uuid": "7878eef5-231a-46df-9021-bc2de7a83879", "source": {"name": "Vernon", "slug": "vernon"}, "source_identifier": "34866", "external_references": [], "date_modified": "2025-03-05T14:43:25.870777+11:00"}, {"id": 83576, "name": "Bill Flowers", "roles_in_work": [{"id": 2727815, "title": "When quiet came", "work_id": 116818, "role": "creator", "role_id": 968, "is_primary": true}], "also_known_as": "", "date_of_birth": "", "date_of_death": "", "genders": [], "languages": [], "places_of_operation": [], "biography": "", "biography_author": null, "date_of_biography": "2023-08-30T04:23:10.812974+10:00", "external_links": [], "uuid": "c0fc9cdc-40d6-4816-9c60-af6dafa54f5a", "source": {"name": "Vernon", "slug": "vernon"}, "source_identifier": "34849", "external_references": [], "date_modified": "2025-03-12T08:29:41.938336+11:00"}, {"id": 83575, "name": "Jean Parry", "roles_in_work": [{"id": 2727810, "title": "War, tears and memories", "work_id": 116817, "role": "creator", "role_id": 968, "is_primary": true}], "also_known_as": "", "date_of_birth": "", "date_of_death": "", "genders": [], "languages": [], "places_of_operation": [], "biography": "Jean Parry was 19 when she became a nurse in the army. She served in the Middle East during World War II.", "biography_author": null, "date_of_biography": "2025-03-12T08:29:38.982387+11:00", "external_links": [], "uuid": "8604dfa5-9b08-4556-a607-a5aac9dfcb69", "source": {"name": "Vernon", "slug": "vernon"}, "source_identifier": "34852", "external_references": [], "date_modified": "2025-03-12T08:29:38.982709+11:00"}, {"id": 83574, "name": "Tom Clark", "roles_in_work": [{"id": 2727805, "title": "My naval experiences : World War II", "work_id": 116816, "role": "creator", "role_id": 968, "is_primary": true}], "also_known_as": "", "date_of_birth": "", "date_of_death": "", "genders": [], "languages": [], "places_of_operation": [], "biography": "Tom Clark was a student when World War II broke out. He enlisted in the navy in 1942 and became a mid shipman. In 1943, he was posted to the HMAS Kanimbla, where he participated in landing troops in the Pacific and fighting the Japanese", "biography_author": null, "date_of_biography": "2025-03-12T08:29:36.039136+11:00", "external_links": [], "uuid": "9d46c6e4-cddc-4029-a7bf-cb06e08c42ca", "source": {"name": "Vernon", "slug": "vernon"}, "source_identifier": "34857", "external_references": [], "date_modified": "2025-03-12T08:29:36.039451+11:00"}, {"id": 83573, "name": "May Donovan", "roles_in_work": [{"id": 2727798, "title": "My life in the war years = My life during the war years", "work_id": 116815, "role": "creator", "role_id": 968, "is_primary": true}], "also_known_as": "", "date_of_birth": "", "date_of_death": "", "genders": [], "languages": [], "places_of_operation": [], "biography": "", "biography_author": null, "date_of_biography": "2023-08-30T04:23:01.547426+10:00", "external_links": [], "uuid": "751eda26-7fd6-4b79-842a-97b09240206d", "source": {"name": "Vernon", "slug": "vernon"}, "source_identifier": "34856", "external_references": [], "date_modified": "2025-03-12T08:29:33.181841+11:00"}, {"id": 83572, "name": "Brian Luscombe", "roles_in_work": [{"id": 2727791, "title": "The Lucky years", "work_id": 116814, "role": "creator", "role_id": 968, "is_primary": true}], "also_known_as": "", "date_of_birth": "", "date_of_death": "", "genders": [], "languages": [], "places_of_operation": [], "biography": "Brian Luscombe enlisted in the Air Force on Australia Day 1942. He was 18. His nickname was \"Lucky\" Luscombe", "biography_author": null, "date_of_biography": "2025-03-12T08:29:30.028371+11:00", "external_links": [], "uuid": "eef3c89a-ebb5-4312-9275-a903ec09a14a", "source": {"name": "Vernon", "slug": "vernon"}, "source_identifier": "34850", "external_references": [], "date_modified": "2025-03-12T08:29:30.028609+11:00"}, {"id": 83571, "name": "Keith Johnston", "roles_in_work": [{"id": 2727780, "title": "Defence of Milak = Memories of Milak", "work_id": 116812, "role": "creator", "role_id": 968, "is_primary": true}], "also_known_as": "", "date_of_birth": "", "date_of_death": "", "genders": [], "languages": [], "places_of_operation": [], "biography": "Keith Johnston was a member of BTroop 2/10th commando squadron during World War II. He served in Northern New Guinea and participated in the battle in Milak village.", "biography_author": null, "date_of_biography": "2025-03-12T08:29:24.158427+11:00", "external_links": [], "uuid": "690b4656-002c-41ba-9d96-b9ef246a5e2f", "source": {"name": "Vernon", "slug": "vernon"}, "source_identifier": "34855", "external_references": [], "date_modified": "2025-03-12T08:29:24.158729+11:00"}, {"id": 83570, "name": "Joan Rossi", "roles_in_work": [{"id": 2727774, "title": "Decidedly out of this world", "work_id": 116811, "role": "creator", "role_id": 968, "is_primary": true}], "also_known_as": "", "date_of_birth": "", "date_of_death": "", "genders": [], "languages": [], "places_of_operation": [], "biography": "", "biography_author": null, "date_of_biography": "2023-08-30T04:22:49.189158+10:00", "external_links": [], "uuid": "2977dac1-3f75-4565-aa14-44da018d6f2f", "source": {"name": "Vernon", "slug": "vernon"}, "source_identifier": "34854", "external_references": [], "date_modified": "2025-03-12T08:29:21.256160+11:00"}, {"id": 83569, "name": "Jean King", "roles_in_work": [{"id": 2727767, "title": "Battle for Australia", "work_id": 116810, "role": "creator", "role_id": 968, "is_primary": true}], "also_known_as": "", "date_of_birth": "", "date_of_death": "", "genders": [], "languages": [], "places_of_operation": [], "biography": "Jean's husband was a Navy salvage diver during World War II.", "biography_author": null, "date_of_biography": "2025-03-12T08:29:18.240592+11:00", "external_links": [], "uuid": "f8e52c89-2986-499e-a81c-3a52f4807f1b", "source": {"name": "Vernon", "slug": "vernon"}, "source_identifier": "34851", "external_references": [], "date_modified": "2025-03-12T08:29:18.240897+11:00"}, {"id": 83568, "name": "Joan Johnstone", "roles_in_work": [{"id": 2727761, "title": "All the days of my life", "work_id": 116809, "role": "creator", "role_id": 968, "is_primary": true}, {"id": 2727786, "title": "Fancy that", "work_id": 116813, "role": "creator", "role_id": 968, "is_primary": true}], "also_known_as": "", "date_of_birth": "", "date_of_death": "", "genders": [], "languages": [], "places_of_operation": [], "biography": "Joan Johnstone joined the Australian Women's Army Services in 1941 and she worked on \"Salt\", the official army publication", "biography_author": null, "date_of_biography": "2025-03-12T08:29:27.148163+11:00", "external_links": [], "uuid": "84970032-3829-4960-a8b6-63a6959ddec8", "source": {"name": "Vernon", "slug": "vernon"}, "source_identifier": "34853", "external_references": [], "date_modified": "2025-03-12T08:29:27.148402+11:00"}]}