{"count": 28687, "next": "https://api.acmi.net.au/creators/?page=513", "previous": "https://api.acmi.net.au/creators/?page=511", "results": [{"id": 80463, "name": "Yo Yamamoto", "roles_in_work": [{"id": 2317000, "title": "Sumo do, Sumo don't = Shiko funjatta", "work_id": 93747, "role": "co-producer", "role_id": 915, "is_primary": true}], "also_known_as": "", "date_of_birth": "", "date_of_death": "", "genders": [], "languages": [], "places_of_operation": [], "biography": "", "biography_author": null, "date_of_biography": "2023-05-09T19:06:13.802360+10:00", "external_links": [], "uuid": "587810b0-cc37-44f8-a412-38d0b0145cd0", "source": {"name": "Vernon", "slug": "vernon"}, "source_identifier": "30591", "external_references": [{"id": 38918, "source": {"name": "Wikidata", "slug": "wikidata"}, "source_identifier": "Q121036398"}], "date_modified": "2023-09-06T02:22:40.253406+10:00"}, {"id": 80462, "name": "James Schenk", "roles_in_work": [{"id": 2238200, "title": "Felix the cat: the movie", "work_id": 93746, "role": "co-producer", "role_id": 915, "is_primary": true}], "also_known_as": "", "date_of_birth": "", "date_of_death": "", "genders": [], "languages": [], "places_of_operation": [], "biography": "", "biography_author": null, "date_of_biography": "2023-05-09T16:49:05.265422+10:00", "external_links": [], "uuid": "1f4be4e0-47ff-4f27-9360-84e2a7e2a43e", "source": {"name": "Vernon", "slug": "vernon"}, "source_identifier": "21322", "external_references": [{"id": 35457, "source": {"name": "Wikidata", "slug": "wikidata"}, "source_identifier": "Q121223487"}], "date_modified": "2023-09-05T21:05:00.351256+10:00"}, {"id": 80461, "name": "Christian Schneider", "roles_in_work": [{"id": 2238197, "title": "Felix the cat: the movie", "work_id": 93746, "role": "co-producer", "role_id": 915, "is_primary": true}], "also_known_as": "", "date_of_birth": "", "date_of_death": "", "genders": [], "languages": [], "places_of_operation": [], "biography": "", "biography_author": null, "date_of_biography": "2023-05-09T16:49:04.521696+10:00", "external_links": [], "uuid": "777c5c6a-8d33-4776-b382-5d467e19e578", "source": {"name": "Vernon", "slug": "vernon"}, "source_identifier": "16904", "external_references": [{"id": 41579, "source": {"name": "Wikidata", "slug": "wikidata"}, "source_identifier": "Q121337569"}], "date_modified": "2023-09-05T18:34:16.443230+10:00"}, {"id": 80460, "name": "Don Oriolo", "roles_in_work": [{"id": 2238194, "title": "Felix the cat: the movie", "work_id": 93746, "role": "co-producer", "role_id": 915, "is_primary": true}], "also_known_as": "", "date_of_birth": "", "date_of_death": "", "genders": [{"id": 9, "name": "Male", "slug": "male"}], "languages": [], "places_of_operation": [{"id": 1, "name": "United States of America", "slug": "united-states-of-america"}], "biography": "Don Oriolo is an American artist, musician, and writer best known for his work in the music publishing industry and for overseeing the Felix the Cat cartoon character after his father, Felix co-creator Joe Oriolo, died in 1985. Don Oriolo also owns and operates the Oriolo Guitar Company, a guitar, bass, and ukulele manufacture company whose products often feature Felix and other Oriolo-designed artwork. Oriolo has also authored a number of books featuring his paintings of Felix the Cat, whom he describes as his creative muse. Some of his music publishing credentials include writing Jon Bon Jovi's first charted track, as well as signing Meat Loaf and Lisa Lisa and the Cult Jam.", "biography_author": "Wikidata", "date_of_biography": "2023-09-05T19:16:21.606315+10:00", "external_links": [{"id": 5783, "uri": "https://en.wikipedia.org/wiki/Don_Oriolo"}], "uuid": "adabf655-5786-47cb-bb7c-b49286546913", "source": {"name": "Vernon", "slug": "vernon"}, "source_identifier": "18242", "external_references": [{"id": 50691, "source": {"name": "Wikidata", "slug": "wikidata"}, "source_identifier": "Q28316721"}], "date_modified": "2023-09-05T19:16:21.627430+10:00"}, {"id": 80459, "name": "Trevor Farrant", "roles_in_work": [{"id": 2315907, "title": "Struck by lightning", "work_id": 93745, "role": "co-producer", "role_id": 915, "is_primary": true}], "also_known_as": "", "date_of_birth": "", "date_of_death": "", "genders": [{"id": 9, "name": "Male", "slug": "male"}], "languages": [], "places_of_operation": [], "biography": "", "biography_author": null, "date_of_biography": "2023-05-09T19:04:13.330397+10:00", "external_links": [], "uuid": "b9b32f45-1635-4cfc-8a43-d48516614a1f", "source": {"name": "Vernon", "slug": "vernon"}, "source_identifier": "29969", "external_references": [{"id": 52029, "source": {"name": "Wikidata", "slug": "wikidata"}, "source_identifier": "Q75730296"}], "date_modified": "2023-09-06T01:58:26.796916+10:00"}, {"id": 80458, "name": "Jacques Audiard", "roles_in_work": [], "also_known_as": "", "date_of_birth": "1952-04-30", "date_of_death": null, "genders": [{"id": 9, "name": "Male", "slug": "male"}], "languages": [{"id": 4, "name": "French", "slug": "french"}], "places_of_operation": [{"id": 17, "name": "France", "slug": "france"}], "biography": "Jacques Audiard (French: [ʒak odjaʁ]; born 30 April 1952) is a French film director, producer, and screenwriter. He is the son of Michel Audiard, also a film director and screenwriter.\nHe has won both the César Award for Best Film and the BAFTA Award for Best Film Not in the English Language twice, in 2005 for The Beat That My Heart Skipped and in 2010 for A Prophet, as well as winning the Grand Prix at the Cannes Film Festival. \nHis 2012 film Rust and Bone, competed for the Palme d'Or at the 2012 Cannes Film Festival, was nominated for the BAFTA Award for Best Film Not in the English Language and the Golden Globe Award for Best Foreign Language Film, and won the BFI London Film Festival Award for Best Film.\nHis 2015 film Dheepan won the Palme d'Or at the 2015 Cannes Film Festival.\n\n", "biography_author": "Wikidata", "date_of_biography": "2022-05-19T11:50:12.255007+10:00", "external_links": [{"id": 2288, "uri": "https://en.wikipedia.org/wiki/Jacques_Audiard"}], "uuid": "4aeea1d8-c13b-420d-ad4a-30cfee658b29", "source": {"name": "Vernon", "slug": "vernon"}, "source_identifier": "21135", "external_references": [{"id": 9825, "source": {"name": "Wikidata", "slug": "wikidata"}, "source_identifier": "Q382389"}, {"id": 9826, "source": {"name": "VIAF", "slug": "viaf"}, "source_identifier": "103611240"}, {"id": 9827, "source": {"name": "LOC Auth", "slug": "loc-auth"}, "source_identifier": "nr99035590"}, {"id": 9828, "source": {"name": "WorldCat", "slug": "worldcat"}, "source_identifier": "lccn-nr99035590"}], "date_modified": "2023-09-05T20:58:35.511873+10:00"}, {"id": 80457, "name": "Patrick Godeau", "roles_in_work": [{"id": 2074335, "title": "A Self made hero = Un Heros tres discret", "work_id": 93743, "role": "producer", "role_id": 1089, "is_primary": true}], "also_known_as": "", "date_of_birth": "1962-05-24", "date_of_death": "", "genders": [{"id": 9, "name": "Male", "slug": "male"}], "languages": [{"id": 4, "name": "French", "slug": "french"}], "places_of_operation": [{"id": 17, "name": "France", "slug": "france"}], "biography": "", "biography_author": null, "date_of_biography": "2023-05-09T11:38:37.159041+10:00", "external_links": [], "uuid": "29dd7bae-1cf9-4e32-ac36-d619650f8360", "source": {"name": "Vernon", "slug": "vernon"}, "source_identifier": "26129", "external_references": [{"id": 12013, "source": {"name": "Wikidata", "slug": "wikidata"}, "source_identifier": "Q3369629"}, {"id": 12014, "source": {"name": "VIAF", "slug": "viaf"}, "source_identifier": "29743347"}], "date_modified": "2023-09-05T23:43:08.722843+10:00"}, {"id": 80456, "name": "Cofimage 7", "roles_in_work": [{"id": 2074333, "title": "A Self made hero = Un Heros tres discret", "work_id": 93743, "role": "production company", "role_id": 941, "is_primary": true}], "also_known_as": "", "date_of_birth": "", "date_of_death": "", "genders": [], "languages": [], "places_of_operation": [], "biography": "", "biography_author": null, "date_of_biography": "2023-05-09T11:38:36.909609+10:00", "external_links": [], "uuid": "23be7a73-73f7-4545-b7ce-cbcd2e46b402", "source": {"name": "Vernon", "slug": "vernon"}, "source_identifier": "6866", "external_references": [{"id": 33546, "source": {"name": "Wikidata", "slug": "wikidata"}, "source_identifier": "Q121034499"}], "date_modified": "2023-09-05T18:43:17.169230+10:00"}, {"id": 80455, "name": "Initial Groupe (FR)", "roles_in_work": [{"id": 2074329, "title": "A Self made hero = Un Heros tres discret", "work_id": 93743, "role": "production company", "role_id": 941, "is_primary": true}], "also_known_as": "", "date_of_birth": "1994", "date_of_death": "", "genders": [], "languages": [], "places_of_operation": [], "biography": "", "biography_author": null, "date_of_biography": "2023-05-09T11:38:36.659382+10:00", "external_links": [], "uuid": "82e69cd2-717c-44a8-8a02-2fb8755794de", "source": {"name": "Vernon", "slug": "vernon"}, "source_identifier": "4767", "external_references": [{"id": 38344, "source": {"name": "Wikidata", "slug": "wikidata"}, "source_identifier": "Q121035554"}], "date_modified": "2023-09-05T20:48:56.140854+10:00"}, {"id": 80454, "name": "Vincent Giarrusso", "roles_in_work": [{"id": 816804, "title": "Mallboy", "work_id": 93733, "role": "director", "role_id": 938, "is_primary": true}], "also_known_as": "", "date_of_birth": null, "date_of_death": null, "genders": [{"id": 9, "name": "Male", "slug": "male"}], "languages": [], "places_of_operation": [], "biography": "", "biography_author": null, "date_of_biography": null, "external_links": [], "uuid": "0ae5805a-f8ad-4b26-8c4e-96f78e0191b3", "source": {"name": "Vernon", "slug": "vernon"}, "source_identifier": null, "external_references": [{"id": 42852, "source": {"name": "Wikidata", "slug": "wikidata"}, "source_identifier": "Q117860293"}], "date_modified": "2023-09-06T02:06:36.244572+10:00"}]}