{"count": 28687, "next": "https://api.acmi.net.au/creators/?page=558", "previous": "https://api.acmi.net.au/creators/?page=556", "results": [{"id": 80013, "name": "Paul Sabella", "roles_in_work": [{"id": 2253986, "title": "Room full of energy", "work_id": 92845, "role": "co-director", "role_id": 959, "is_primary": true}, {"id": 2475574, "title": "The Secret of Nimh 2: Timmy to the rescue", "work_id": 94082, "role": "co-producer", "role_id": 915, "is_primary": true}], "also_known_as": "", "date_of_birth": "", "date_of_death": "", "genders": [], "languages": [], "places_of_operation": [], "biography": "", "biography_author": null, "date_of_biography": "2023-08-17T15:10:03.266421+10:00", "external_links": [], "uuid": "355d8062-e9a8-470b-bd27-d02a29d6c5f9", "source": {"name": "Vernon", "slug": "vernon"}, "source_identifier": "26324", "external_references": [{"id": 39088, "source": {"name": "Wikidata", "slug": "wikidata"}, "source_identifier": "Q113141364"}], "date_modified": "2023-09-05T23:49:22.965389+10:00"}, {"id": 80012, "name": "Jon Savan", "roles_in_work": [{"id": 2253980, "title": "Room full of energy", "work_id": 92845, "role": "co-producer", "role_id": 915, "is_primary": true}], "also_known_as": "", "date_of_birth": "", "date_of_death": "", "genders": [], "languages": [], "places_of_operation": [], "biography": "", "biography_author": null, "date_of_biography": "2023-05-09T17:14:59.632209+10:00", "external_links": [], "uuid": "a3476024-a0ae-4e26-bc1a-d61ca249c6b1", "source": {"name": "Vernon", "slug": "vernon"}, "source_identifier": "22625", "external_references": [{"id": 38695, "source": {"name": "Wikidata", "slug": "wikidata"}, "source_identifier": "Q121079162"}], "date_modified": "2023-09-05T21:47:54.715329+10:00"}, {"id": 80011, "name": "Martin Rosenbaum", "roles_in_work": [{"id": 2253978, "title": "Room full of energy", "work_id": 92845, "role": "co-producer", "role_id": 915, "is_primary": true}], "also_known_as": "", "date_of_birth": "", "date_of_death": "", "genders": [], "languages": [], "places_of_operation": [], "biography": "", "biography_author": null, "date_of_biography": "2023-05-09T17:14:59.380477+10:00", "external_links": [], "uuid": "9f3cf2dd-f7b2-484e-8a08-960e776acc91", "source": {"name": "Vernon", "slug": "vernon"}, "source_identifier": "24665", "external_references": [{"id": 51755, "source": {"name": "Wikidata", "slug": "wikidata"}, "source_identifier": "Q121357478"}], "date_modified": "2023-09-05T22:50:16.511403+10:00"}, {"id": 80010, "name": "Yaletown Productions Inc.", "roles_in_work": [{"id": 2754622, "title": "Visually speaking. Parts 1-6", "work_id": 99282, "role": "producer", "role_id": 1089, "is_primary": true}, {"id": 912615, "title": "The Movie movie", "work_id": 92843, "role": "production company", "role_id": 941, "is_primary": true}, {"id": 2307430, "title": "Speaking object-ly", "work_id": 92848, "role": "production company", "role_id": 941, "is_primary": true}], "also_known_as": "", "date_of_birth": "", "date_of_death": "", "genders": [], "languages": [], "places_of_operation": [], "biography": "", "biography_author": null, "date_of_biography": "2023-05-09T18:47:11.648422+10:00", "external_links": [], "uuid": "fe4a785f-5238-40c5-93dc-88f035345d60", "source": {"name": "Vernon", "slug": "vernon"}, "source_identifier": "4041", "external_references": [{"id": 32508, "source": {"name": "Wikidata", "slug": "wikidata"}, "source_identifier": "Q121091098"}], "date_modified": "2025-03-13T01:47:40.618098+11:00"}, {"id": 80009, "name": "Francois Aubry", "roles_in_work": [{"id": 2142984, "title": "Concerto grosso modo", "work_id": 92840, "role": "director", "role_id": 938, "is_primary": true}], "also_known_as": "", "date_of_birth": "", "date_of_death": "", "genders": [], "languages": [], "places_of_operation": [], "biography": "", "biography_author": null, "date_of_biography": "2023-05-09T13:41:23.346988+10:00", "external_links": [], "uuid": "56c34da4-6ec8-4152-b203-2db613ad81cc", "source": {"name": "Vernon", "slug": "vernon"}, "source_identifier": "19074", "external_references": [{"id": 42303, "source": {"name": "Wikidata", "slug": "wikidata"}, "source_identifier": "Q121034269"}], "date_modified": "2023-09-05T19:48:04.251759+10:00"}, {"id": 80008, "name": "Robert Doucet", "roles_in_work": [{"id": 2118385, "title": "Blackberry subway jam", "work_id": 92839, "role": "director", "role_id": 938, "is_primary": true}], "also_known_as": "", "date_of_birth": "", "date_of_death": "", "genders": [{"id": 9, "name": "Male", "slug": "male"}], "languages": [], "places_of_operation": [{"id": 36, "name": "Canada", "slug": "canada"}], "biography": "", "biography_author": null, "date_of_biography": "2023-05-09T12:57:23.198084+10:00", "external_links": [], "uuid": "a87aa25b-34f0-4b5e-b54b-9f04ca508594", "source": {"name": "Vernon", "slug": "vernon"}, "source_identifier": "27698", "external_references": [{"id": 36354, "source": {"name": "Wikidata", "slug": "wikidata"}, "source_identifier": "Q59618152"}], "date_modified": "2023-09-06T00:40:45.203648+10:00"}, {"id": 80007, "name": "J Williams", "roles_in_work": [{"id": 3082685, "title": "Legend and reality [Widescreen]", "work_id": 93033, "role": "co-producer", "role_id": 915, "is_primary": true}, {"id": 3082708, "title": "The Celts", "work_id": 115568, "role": "co-producer", "role_id": 915, "is_primary": true}, {"id": 3082699, "title": "A Dead song? [Widescreen]", "work_id": 93034, "role": "co-producer", "role_id": 915, "is_primary": true}, {"id": 3082630, "title": "In the beginning [Widescreen]", "work_id": 92838, "role": "co-producer", "role_id": 915, "is_primary": true}, {"id": 3082644, "title": "Heroes in defeat [Widescreen]", "work_id": 93030, "role": "co-producer", "role_id": 915, "is_primary": true}, {"id": 3082672, "title": "From Camelot to Christ [Widescreen]", "work_id": 93032, "role": "co-producer", "role_id": 915, "is_primary": true}, {"id": 3082658, "title": "Sacred groves [Widescreen]", "work_id": 93031, "role": "co-producer", "role_id": 915, "is_primary": true}], "also_known_as": "", "date_of_birth": "", "date_of_death": "", "genders": [], "languages": [], "places_of_operation": [], "biography": "", "biography_author": null, "date_of_biography": "2023-05-09T19:33:12.839475+10:00", "external_links": [], "uuid": "ee4ce424-906a-4cac-9b31-03c8c2dea387", "source": {"name": "Vernon", "slug": "vernon"}, "source_identifier": "20986", "external_references": [], "date_modified": "2025-03-17T10:30:21.931814+11:00"}, {"id": 80006, "name": "Caryl Ebenezer", "roles_in_work": [{"id": 3082642, "title": "Heroes in defeat [Widescreen]", "work_id": 93030, "role": "co-producer", "role_id": 915, "is_primary": true}, {"id": 3082628, "title": "In the beginning [Widescreen]", "work_id": 92838, "role": "co-producer", "role_id": 915, "is_primary": true}, {"id": 3082656, "title": "Sacred groves [Widescreen]", "work_id": 93031, "role": "co-producer", "role_id": 915, "is_primary": true}, {"id": 3082670, "title": "From Camelot to Christ [Widescreen]", "work_id": 93032, "role": "co-producer", "role_id": 915, "is_primary": true}, {"id": 3082684, "title": "Legend and reality [Widescreen]", "work_id": 93033, "role": "co-producer", "role_id": 915, "is_primary": true}, {"id": 3082697, "title": "A Dead song? [Widescreen]", "work_id": 93034, "role": "co-producer", "role_id": 915, "is_primary": true}, {"id": 3082706, "title": "The Celts", "work_id": 115568, "role": "co-producer", "role_id": 915, "is_primary": true}], "also_known_as": "", "date_of_birth": "", "date_of_death": "", "genders": [], "languages": [], "places_of_operation": [], "biography": "", "biography_author": null, "date_of_biography": "2023-05-09T19:33:12.609271+10:00", "external_links": [], "uuid": "cca5a65e-6fdd-4a32-9b32-9798133a0ca1", "source": {"name": "Vernon", "slug": "vernon"}, "source_identifier": "16574", "external_references": [{"id": 39660, "source": {"name": "Wikidata", "slug": "wikidata"}, "source_identifier": "Q121086170"}], "date_modified": "2025-03-17T10:30:21.341071+11:00"}, {"id": 80005, "name": "Yvonne Maden", "roles_in_work": [{"id": 2246680, "title": "Redfern Beach (D)", "work_id": 92835, "role": "co-producer", "role_id": 915, "is_primary": true}], "also_known_as": "", "date_of_birth": "", "date_of_death": "", "genders": [], "languages": [], "places_of_operation": [], "biography": "", "biography_author": null, "date_of_biography": "2023-05-09T17:04:02.728414+10:00", "external_links": [], "uuid": "e18067d6-4ffd-4ec4-8cc3-89cce187ebd6", "source": {"name": "Vernon", "slug": "vernon"}, "source_identifier": "30649", "external_references": [{"id": 40477, "source": {"name": "Wikidata", "slug": "wikidata"}, "source_identifier": "Q121086009"}], "date_modified": "2023-09-06T02:25:07.060048+10:00"}, {"id": 80004, "name": "Marion Lee", "roles_in_work": [{"id": 2261462, "title": "Salty", "work_id": 92834, "role": "director", "role_id": 938, "is_primary": true}], "also_known_as": "", "date_of_birth": "", "date_of_death": "", "genders": [], "languages": [], "places_of_operation": [], "biography": "", "biography_author": null, "date_of_biography": "2023-05-09T17:29:36.669008+10:00", "external_links": [], "uuid": "64faad99-7cab-437a-9887-ccac45cd714a", "source": {"name": "Vernon", "slug": "vernon"}, "source_identifier": "24449", "external_references": [{"id": 32667, "source": {"name": "Wikidata", "slug": "wikidata"}, "source_identifier": "Q121035113"}], "date_modified": "2023-09-05T22:44:23.475619+10:00"}]}