{"count": 28681, "next": "https://api.acmi.net.au/creators/?page=1974", "previous": "https://api.acmi.net.au/creators/?page=1972", "results": [{"id": 23083, "name": "Ganesh", "roles_in_work": [{"id": 2354484, "title": "The Holy Innocents = Los Santos Inocentes", "work_id": 80919, "role": "production company", "role_id": 941, "is_primary": true}], "also_known_as": "", "date_of_birth": "", "date_of_death": "", "genders": [], "languages": [], "places_of_operation": [], "biography": "", "biography_author": null, "date_of_biography": "2023-05-09T20:01:43.169623+10:00", "external_links": [], "uuid": "3d4b5afa-831a-41c0-a88e-fc128bc19268", "source": {"name": "Vernon", "slug": "vernon"}, "source_identifier": "8635", "external_references": [{"id": 37186, "source": {"name": "Wikidata", "slug": "wikidata"}, "source_identifier": "Q121034593"}], "date_modified": "2023-09-05T19:56:01.188331+10:00"}, {"id": 23081, "name": "Margarethe Von Trotta", "roles_in_work": [{"id": 773597, "title": "Labour of love = Heller wahn", "work_id": 80918, "role": "director", "role_id": 938, "is_primary": true}, {"id": 804975, "title": "The Promise = Das Versprechen [Widescreen]", "work_id": 90283, "role": "director", "role_id": 938, "is_primary": true}, {"id": 1991815, "title": "Lost honour of Katharina Blum = Die verlorene Ehre der Katharina Blum", "work_id": 87495, "role": "co-director", "role_id": 959, "is_primary": true}], "also_known_as": "", "date_of_birth": "1942-02-21", "date_of_death": null, "genders": [{"id": 5, "name": "Female", "slug": "female"}], "languages": [{"id": 5, "name": "German", "slug": "german"}], "places_of_operation": [{"id": 18, "name": "Germany", "slug": "germany"}], "biography": "Margarethe von Trotta (German: [maʁɡaˈʁeːtə fɔn ˈtʁɔta] (listen)) is a German film director, screenwriter, and actress. She has been referred to as a \"leading force\" of the New German Cinema movement. Von Trotta's extensive body of work has won awards internationally. She was married to and collaborated with director Volker Schlöndorff.  Although they made a successful team, von Trotta felt she was seen as secondary to Schlöndorff. Subsequently, she established a solo career for herself and became \"Germany's foremost female film director, who has offered the most sustained and successful female variant of Autorenkino in postwar German film history\". Certain aspects of von Trotta's work have been compared to Ingmar Bergman's features from the 1960s and 1970s.Von Trotta has been called \"the world's leading feminist filmmaker\". The predominant aim of her films is to create new representations of women. Her films are concerned with relationships between and among women (sisters, best friends, etc.), as well as with relationships between women and men, and include political settings. Nevertheless, she rejects the suggestion that she makes \"women's films\".She is a recipient of one Golden Lion at Venice Film Festival, 2 David di Donatello Awards, Gold Hugo Award at Chicago International Film Festival, Lifetime Achievement Award at European Film Award, Lifetime Achievement Award at German Film Awards, 2 Palme d'Or nominations at Cannes Film Festival, and numerous other awards and nominations.\n\n", "biography_author": "Wikidata", "date_of_biography": "2023-08-01T16:03:36.648735+10:00", "external_links": [{"id": 4608, "uri": "https://en.wikipedia.org/wiki/Margarethe_von_Trotta"}], "uuid": "320c29f0-6990-42ea-8420-a9b39726e37a", "source": {"name": "Vernon", "slug": "vernon"}, "source_identifier": "24368", "external_references": [{"id": 24892, "source": {"name": "Wikidata", "slug": "wikidata"}, "source_identifier": "Q55418"}, {"id": 30101, "source": {"name": "VIAF", "slug": "viaf"}, "source_identifier": "95211657"}, {"id": 30102, "source": {"name": "LOC Auth", "slug": "loc-auth"}, "source_identifier": "n84155101"}, {"id": 30103, "source": {"name": "WorldCat", "slug": "worldcat"}, "source_identifier": "lccn-n84155101"}], "date_modified": "2023-09-13T12:31:11.945309+10:00"}, {"id": 23080, "name": "Eberhard Junkersdorf", "roles_in_work": [{"id": 2319709, "title": "Swann in Love = Un Amour de Swann", "work_id": 81391, "role": "co-producer", "role_id": 915, "is_primary": true}, {"id": 1815502, "title": "Voyager = Homo Faber", "work_id": 89391, "role": "producer", "role_id": 1089, "is_primary": true}, {"id": 1810375, "title": "The Michael Nyman songbook", "work_id": 83649, "role": "producer", "role_id": 1089, "is_primary": true}, {"id": 1804703, "title": "Labour of love = Heller wahn", "work_id": 80918, "role": "producer", "role_id": 1089, "is_primary": true}, {"id": 1815409, "title": "The Promise = Das Versprechen [Widescreen]", "work_id": 90283, "role": "producer", "role_id": 1089, "is_primary": true}], "also_known_as": "", "date_of_birth": "1938-09-27", "date_of_death": null, "genders": [{"id": 9, "name": "Male", "slug": "male"}], "languages": [{"id": 5, "name": "German", "slug": "german"}], "places_of_operation": [{"id": 18, "name": "Germany", "slug": "germany"}], "biography": "Hans-Eberhard Junkersdorf (born 27 September 1938) is a German film producer. He has produced more than 50 films since 1975. He was a member of the jury at the 38th Berlin International Film Festival.", "biography_author": "Wikidata", "date_of_biography": "2022-05-19T11:20:09.424222+10:00", "external_links": [{"id": 1959, "uri": "https://en.wikipedia.org/wiki/Eberhard_Junkersdorf"}], "uuid": "ab989e89-fd0a-47bd-8c1a-411ecbfd90c5", "source": {"name": "Vernon", "slug": "vernon"}, "source_identifier": "18518", "external_references": [{"id": 8490, "source": {"name": "Wikidata", "slug": "wikidata"}, "source_identifier": "Q104184"}, {"id": 8491, "source": {"name": "VIAF", "slug": "viaf"}, "source_identifier": "54055142"}, {"id": 8492, "source": {"name": "LOC Auth", "slug": "loc-auth"}, "source_identifier": "nr97026039"}, {"id": 8493, "source": {"name": "WorldCat", "slug": "worldcat"}, "source_identifier": "lccn-nr97026039"}], "date_modified": "2023-09-13T12:29:11.494383+10:00"}, {"id": 23079, "name": "Les Films du Losange", "roles_in_work": [{"id": 3104652, "title": "Pauline a la Plage = Pauline at the Beach", "work_id": 116018, "role": "production company", "role_id": 941, "is_primary": true}, {"id": 2785796, "title": "Six contes moraux = Six moral tales", "work_id": 115305, "role": "production company", "role_id": 941, "is_primary": true}, {"id": 2614066, "title": "A Tale of springtime = Conte de printemps", "work_id": 83109, "role": "production company", "role_id": 941, "is_primary": true}, {"id": 2614368, "title": "The Marquise of O... = Die Marquise von O...", "work_id": 83586, "role": "production company", "role_id": 941, "is_primary": true}, {"id": 2650261, "title": "Six in Paris = Paris vu par ...", "work_id": 83029, "role": "production company", "role_id": 941, "is_primary": true}, {"id": 2650325, "title": "Voltati eugenio = They all loved him", "work_id": 115650, "role": "production company", "role_id": 941, "is_primary": true}, {"id": 2785712, "title": "Full moon in Paris = Les Nuits de la pleine lune", "work_id": 83012, "role": "production company", "role_id": 941, "is_primary": true}, {"id": 2785731, "title": "The Aviator's wife = La Femme de l'Aviateur ou On ne saurait penser a rien = One can't think of nothing", "work_id": 83018, "role": "production company", "role_id": 941, "is_primary": true}, {"id": 2785744, "title": "Le Beau mariage = A Good marriage", "work_id": 83017, "role": "production company", "role_id": 941, "is_primary": true}, {"id": 2785758, "title": "Pauline at the beach = Pauline a la plage", "work_id": 83027, "role": "production company", "role_id": 941, "is_primary": true}, {"id": 2785769, "title": "Boyfriends and girlfriends = L'Ami de mon amie", "work_id": 83011, "role": "production company", "role_id": 941, "is_primary": true}, {"id": 2785759, "title": "My night with Maud = ma nuit chez Maud", "work_id": 87461, "role": "production company", "role_id": 941, "is_primary": true}, {"id": 1994778, "title": "Lady of the camelias = La Dame aux Camelias", "work_id": 90543, "role": "production company", "role_id": 941, "is_primary": true}, {"id": 2221718, "title": "Europa Europa", "work_id": 84684, "role": "production company", "role_id": 941, "is_primary": true}, {"id": 2133684, "title": "Celine and Julie go boating = Celine et Julie vont en bateau", "work_id": 83023, "role": "production company", "role_id": 941, "is_primary": true}, {"id": 883415, "title": "Mistress = Maitresse (D)", "work_id": 93719, "role": "production company", "role_id": 941, "is_primary": true}, {"id": 2322098, "title": "A Summer's tale = Conte d'ete", "work_id": 88767, "role": "production company", "role_id": 941, "is_primary": true}, {"id": 2322051, "title": "Tales of the four seasons = Contes des quatre saisons", "work_id": 115318, "role": "production company", "role_id": 941, "is_primary": true}, {"id": 2322122, "title": "A Winter's tale = Conte d'hiver", "work_id": 89866, "role": "production company", "role_id": 941, "is_primary": true}, {"id": 1993532, "title": "The Mother and the whore = La Maman et la putan", "work_id": 89218, "role": "production company", "role_id": 941, "is_primary": true}, {"id": 773595, "title": "Labour of love = Heller wahn", "work_id": 80918, "role": "production company", "role_id": 941, "is_primary": true}, {"id": 2319701, "title": "Swann in Love = Un Amour de Swann", "work_id": 81391, "role": "production company", "role_id": 941, "is_primary": true}, {"id": 2136783, "title": "Chinese roulette = Chinesisches roulette", "work_id": 87499, "role": "production company", "role_id": 941, "is_primary": true}, {"id": 2785786, "title": "The Collector girl = La Collectionneuse", "work_id": 83016, "role": "production company", "role_id": 941, "is_primary": true}], "also_known_as": "", "date_of_birth": "", "date_of_death": "", "genders": [], "languages": [], "places_of_operation": [], "biography": "", "biography_author": null, "date_of_biography": "2023-05-09T19:38:57.476992+10:00", "external_links": [], "uuid": "fd9d5996-ac10-4fbb-aef9-90ce38c079f2", "source": {"name": "Vernon", "slug": "vernon"}, "source_identifier": "4842", "external_references": [], "date_modified": "2025-05-22T22:45:50.603629+10:00"}, {"id": 23078, "name": "Bioskop Film", "roles_in_work": [{"id": 782940, "title": "The Michael Nyman songbook", "work_id": 83649, "role": "production company", "role_id": 941, "is_primary": true}, {"id": 2319692, "title": "Swann in Love = Un Amour de Swann", "work_id": 81391, "role": "production company", "role_id": 941, "is_primary": true}, {"id": 773594, "title": "Labour of love = Heller wahn", "work_id": 80918, "role": "production company", "role_id": 941, "is_primary": true}, {"id": 802538, "title": "Voyager = Homo Faber", "work_id": 89391, "role": "production company", "role_id": 941, "is_primary": true}, {"id": 1991809, "title": "Lost honour of Katharina Blum = Die verlorene Ehre der Katharina Blum", "work_id": 87495, "role": "production company", "role_id": 941, "is_primary": true}, {"id": 804971, "title": "The Promise = Das Versprechen [Widescreen]", "work_id": 90283, "role": "production company", "role_id": 941, "is_primary": true}], "also_known_as": "", "date_of_birth": "", "date_of_death": "", "genders": [], "languages": [], "places_of_operation": [], "biography": "", "biography_author": null, "date_of_biography": "2023-05-09T19:10:11.464551+10:00", "external_links": [], "uuid": "df1a9251-cf2e-4c15-b927-35961fdaa627", "source": {"name": "Vernon", "slug": "vernon"}, "source_identifier": "4242", "external_references": [{"id": 41220, "source": {"name": "Wikidata", "slug": "wikidata"}, "source_identifier": "Q65589420"}], "date_modified": "2023-09-05T18:06:12.098891+10:00"}, {"id": 23077, "name": "Istvan Szabo", "roles_in_work": [{"id": 1995759, "title": "Colonel Redl = Oberst Redl [DVD]", "work_id": 92268, "role": "director", "role_id": 938, "is_primary": true}, {"id": 1986726, "title": "Hanussen", "work_id": 83021, "role": "director", "role_id": 938, "is_primary": true}, {"id": 1995753, "title": "Mephisto [DVD]", "work_id": 92267, "role": "director", "role_id": 938, "is_primary": true}, {"id": 882593, "title": "25 Firemens Street = Tuzolto Utca 25 [NTSC]", "work_id": 93265, "role": "director", "role_id": 938, "is_primary": true}, {"id": 1997298, "title": "Meeting Venus", "work_id": 93237, "role": "director", "role_id": 938, "is_primary": true}, {"id": 2317548, "title": "Sunshine [DVD]", "work_id": 93051, "role": "director", "role_id": 938, "is_primary": true}], "also_known_as": "", "date_of_birth": "", "date_of_death": "", "genders": [], "languages": [], "places_of_operation": [], "biography": "", "biography_author": null, "date_of_biography": "2023-05-09T19:07:13.492368+10:00", "external_links": [], "uuid": "3a316f92-6523-4ca5-b75d-6f6690724eb8", "source": {"name": "Vernon", "slug": "vernon"}, "source_identifier": "20916", "external_references": [], "date_modified": "2023-06-14T16:33:30.576250+10:00"}, {"id": 23074, "name": "Clear Horizon Films", "roles_in_work": [{"id": 2649130, "title": "Scouts: the rise of the world scouting movement", "work_id": 80917, "role": "production company", "role_id": 941, "is_primary": true}], "also_known_as": "", "date_of_birth": "", "date_of_death": "", "genders": [], "languages": [], "places_of_operation": [], "biography": "", "biography_author": null, "date_of_biography": "2023-05-09T17:33:41.847594+10:00", "external_links": [], "uuid": "120aab8b-138c-4222-9321-000f7b6c9f24", "source": {"name": "Vernon", "slug": "vernon"}, "source_identifier": "6815", "external_references": [{"id": 35623, "source": {"name": "Wikidata", "slug": "wikidata"}, "source_identifier": "Q121271427"}], "date_modified": "2025-03-05T13:56:35.152270+11:00"}, {"id": 23072, "name": "Richard Lerner", "roles_in_work": [{"id": 2290252, "title": "What Happened to Kerouac?", "work_id": 80916, "role": "co-director", "role_id": 959, "is_primary": true}, {"id": 2475994, "title": "Instinct", "work_id": 95471, "role": "co-producer", "role_id": 915, "is_primary": true}, {"id": 2290250, "title": "What Happened to Kerouac?", "work_id": 80916, "role": "producer", "role_id": 1089, "is_primary": true}], "also_known_as": "", "date_of_birth": "", "date_of_death": "", "genders": [{"id": 9, "name": "Male", "slug": "male"}], "languages": [], "places_of_operation": [{"id": 1, "name": "United States of America", "slug": "united-states-of-america"}], "biography": "", "biography_author": null, "date_of_biography": "2023-08-17T15:30:51.785801+10:00", "external_links": [], "uuid": "43e8132f-0390-4d30-b6a4-a1d01bc9ae29", "source": {"name": "Vernon", "slug": "vernon"}, "source_identifier": "27444", "external_references": [{"id": 41236, "source": {"name": "Wikidata", "slug": "wikidata"}, "source_identifier": "Q64847396"}], "date_modified": "2023-09-06T00:30:40.457797+10:00"}, {"id": 23071, "name": "Peter Brook", "roles_in_work": [{"id": 2754010, "title": "King Lear", "work_id": 99020, "role": "director", "role_id": 938, "is_primary": true}, {"id": 1984947, "title": "Lord of the Flies", "work_id": 80915, "role": "director", "role_id": 938, "is_primary": true}, {"id": 2614586, "title": "The Mahabharata; Episode 3: The War.", "work_id": 83937, "role": "director", "role_id": 938, "is_primary": true}, {"id": 2330586, "title": "The Beggar's opera", "work_id": 94464, "role": "director", "role_id": 938, "is_primary": true}, {"id": 783900, "title": "The Mahabharata; Episode 2: Exile in the forest.", "work_id": 83936, "role": "director", "role_id": 938, "is_primary": true}, {"id": 783896, "title": "The Mahabharata. Episode 1: A Game of dice", "work_id": 83935, "role": "director", "role_id": 938, "is_primary": true}], "also_known_as": "Peter Stephen Paul Brook", "date_of_birth": "21 MAR 1925", "date_of_death": "02 JUL 2022", "genders": [{"id": 9, "name": "Male", "slug": "male"}], "languages": [{"id": 1, "name": "English", "slug": "english"}, {"id": 4, "name": "French", "slug": "french"}], "places_of_operation": [{"id": 10, "name": "United Kingdom", "slug": "united-kingdom"}], "biography": "Peter Stephen Paul Brook  (21 March 1925 – 2 July 2022) was an English theatre and film director. He worked first in England, from 1945 at the Birmingham Repertory Theatre, from 1947 at the Royal Opera House, and from 1962 for the Royal Shakespeare Company (RSC). With them, he directed the first English-language production in 1964 of Marat/Sade by Peter Weiss, which was transferred to Broadway in 1965 and won the Tony Award for Best Play, and Brook was named Best Director. He also directed films such as an iconic version of Lord of the Flies in 1963.\n\nHe was based in France from the early 1970s, where he founded an international theatre company, playing in developing countries, in an approach of great simplicity. He was often referred to as \"our greatest living theatre director\". He won multiple Emmy Awards, a Laurence Olivier Award, the Japanese Praemium Imperiale, the Prix Italia and the Europe Theatre Prize. In 2021, he was awarded India's Padma Shri. Source: Wikidata; 01/08/2023", "biography_author": null, "date_of_biography": "2025-03-13T01:36:20.356533+11:00", "external_links": [{"id": 4868, "uri": "https://en.wikipedia.org/wiki/Peter_Brook"}], "uuid": "26dd7e06-e134-4e7a-b1fa-98c62e3cdda5", "source": {"name": "Vernon", "slug": "vernon"}, "source_identifier": "26479", "external_references": [{"id": 25623, "source": {"name": "Wikidata", "slug": "wikidata"}, "source_identifier": "Q49760"}, {"id": 30755, "source": {"name": "VIAF", "slug": "viaf"}, "source_identifier": "54145090"}, {"id": 30756, "source": {"name": "LOC Auth", "slug": "loc-auth"}, "source_identifier": "n2005072496"}, {"id": 30757, "source": {"name": "WorldCat", "slug": "worldcat"}, "source_identifier": "lccn-n2005072496"}], "date_modified": "2025-03-13T01:36:20.356834+11:00"}, {"id": 23070, "name": "Lewis M. Allen", "roles_in_work": [{"id": 2225216, "title": "Fahrenheit 451", "work_id": 84561, "role": "producer", "role_id": 1089, "is_primary": true}, {"id": 1984946, "title": "Lord of the Flies", "work_id": 80915, "role": "producer", "role_id": 1089, "is_primary": true}], "also_known_as": "Lewis Maitfield Allen", "date_of_birth": "1922-06-27", "date_of_death": "2003-12-08", "genders": [{"id": 9, "name": "Male", "slug": "male"}], "languages": [{"id": 1, "name": "English", "slug": "english"}], "places_of_operation": [{"id": 1, "name": "United States of America", "slug": "united-states-of-america"}], "biography": "Lewis Maitland Allen (June 27, 1922 Berryville, Virginia – December 8, 2003 New York City) was an American film producer and Tony Award winning Broadway producer.  He was married to screenwriter Jay Presson Allen. Allen was nominated for seven Tony Awards and won three, for Annie (1977), I'm Not Rappaport (1986) and Master Class (1996).On Broadway, he was renowned for producing Annie and Master Class and in film was known for producing film versions of The Connection (1961), and Fahrenheit 451 (1966), plus both English language versions of Lord of the Flies released in 1963 and 1990.", "biography_author": "Wikidata", "date_of_biography": "2022-05-19T12:15:58.701946+10:00", "external_links": [{"id": 2578, "uri": "https://en.wikipedia.org/wiki/Lewis_M._Allen"}], "uuid": "0917812f-6e7b-438b-a1fb-7d65c7592878", "source": {"name": "Vernon", "slug": "vernon"}, "source_identifier": "23815", "external_references": [{"id": 11012, "source": {"name": "Wikidata", "slug": "wikidata"}, "source_identifier": "Q3828487"}, {"id": 11013, "source": {"name": "VIAF", "slug": "viaf"}, "source_identifier": "87045094"}, {"id": 11014, "source": {"name": "LOC Auth", "slug": "loc-auth"}, "source_identifier": "nr98043120"}, {"id": 11015, "source": {"name": "WorldCat", "slug": "worldcat"}, "source_identifier": "lccn-n50022972"}], "date_modified": "2023-09-13T12:30:59.933344+10:00"}]}