{"count": 28687, "next": "https://api.acmi.net.au/creators/?page=1321", "previous": "https://api.acmi.net.au/creators/?page=1319", "results": [{"id": 38574, "name": "Alan Kroeker", "roles_in_work": [{"id": 2751450, "title": "How much land does a man need?", "work_id": 97812, "role": "director", "role_id": 938, "is_primary": true}], "also_known_as": "", "date_of_birth": "", "date_of_death": "", "genders": [], "languages": [], "places_of_operation": [], "biography": "", "biography_author": null, "date_of_biography": "2023-08-11T17:32:06.616462+10:00", "external_links": [], "uuid": "c619639e-739f-4f45-8845-3d097dbbc458", "source": {"name": "Vernon", "slug": "vernon"}, "source_identifier": "14772", "external_references": [], "date_modified": "2025-03-13T00:42:34.324410+11:00"}, {"id": 38573, "name": "Woodland Films", "roles_in_work": [{"id": 2751449, "title": "How much land does a man need?", "work_id": 97812, "role": "production company", "role_id": 941, "is_primary": true}], "also_known_as": "", "date_of_birth": "", "date_of_death": "", "genders": [], "languages": [], "places_of_operation": [], "biography": "", "biography_author": null, "date_of_biography": "2023-08-11T17:32:05.988079+10:00", "external_links": [], "uuid": "490f90e5-d711-41ee-a809-421a86ec6d2a", "source": {"name": "Vernon", "slug": "vernon"}, "source_identifier": "14434", "external_references": [], "date_modified": "2025-03-13T00:42:33.727895+11:00"}, {"id": 38572, "name": "Faculty of Education", "roles_in_work": [{"id": 2751447, "title": "Physical education for children", "work_id": 97811, "role": "production company", "role_id": 941, "is_primary": true}], "also_known_as": "", "date_of_birth": "", "date_of_death": "", "genders": [], "languages": [], "places_of_operation": [], "biography": "", "biography_author": null, "date_of_biography": "2023-08-14T10:20:19.135443+10:00", "external_links": [], "uuid": "905cc26a-ad6f-4123-803d-30d46730e0fe", "source": {"name": "Vernon", "slug": "vernon"}, "source_identifier": "8077", "external_references": [], "date_modified": "2025-03-13T00:42:32.230765+11:00"}, {"id": 38570, "name": "Ko-Zac Productions", "roles_in_work": [{"id": 2751442, "title": "Christmas lace", "work_id": 97809, "role": "production company", "role_id": 941, "is_primary": true}], "also_known_as": "", "date_of_birth": "", "date_of_death": "", "genders": [], "languages": [], "places_of_operation": [], "biography": "", "biography_author": null, "date_of_biography": "2023-05-09T13:32:27.803498+10:00", "external_links": [], "uuid": "67c0ad48-dc72-460b-bcbb-6b1c2fc5c13a", "source": {"name": "Vernon", "slug": "vernon"}, "source_identifier": "9838", "external_references": [{"id": 33120, "source": {"name": "Wikidata", "slug": "wikidata"}, "source_identifier": "Q121223301"}], "date_modified": "2025-03-13T00:42:28.748164+11:00"}, {"id": 38567, "name": "Geoffrey Haydon", "roles_in_work": [{"id": 2751435, "title": "Roy Lichtenstein", "work_id": 97805, "role": "director", "role_id": 938, "is_primary": true}], "also_known_as": "", "date_of_birth": null, "date_of_death": null, "genders": [], "languages": [], "places_of_operation": [], "biography": "", "biography_author": null, "date_of_biography": null, "external_links": [], "uuid": "36be1765-c5aa-4755-a6a0-5ee24704d960", "source": {"name": "Vernon", "slug": "vernon"}, "source_identifier": "19533", "external_references": [], "date_modified": "2025-03-13T00:42:23.552948+11:00"}, {"id": 38566, "name": "D Gladwell", "roles_in_work": [{"id": 2751431, "title": "Antoni Tapies", "work_id": 97804, "role": "director", "role_id": 938, "is_primary": true}], "also_known_as": "", "date_of_birth": null, "date_of_death": null, "genders": [], "languages": [], "places_of_operation": [], "biography": "", "biography_author": null, "date_of_biography": null, "external_links": [], "uuid": "e7c31318-508a-480a-b311-f34dde2140cb", "source": {"name": "Vernon", "slug": "vernon"}, "source_identifier": "17300", "external_references": [], "date_modified": "2025-03-13T00:42:20.959432+11:00"}, {"id": 38565, "name": "Bengt Almberg", "roles_in_work": [{"id": 2751417, "title": "Our clothes", "work_id": 97799, "role": "director", "role_id": 938, "is_primary": true}], "also_known_as": "", "date_of_birth": "28 JAN 1926", "date_of_death": "05 MAR 1992", "genders": [], "languages": [], "places_of_operation": [], "biography": "", "biography_author": null, "date_of_biography": null, "external_links": [], "uuid": "77b008d5-9ae0-4389-9475-2301813007e1", "source": {"name": "Vernon", "slug": "vernon"}, "source_identifier": "15813", "external_references": [], "date_modified": "2025-03-13T00:42:11.974526+11:00"}, {"id": 38564, "name": "Almberg Films", "roles_in_work": [{"id": 2751415, "title": "Our clothes", "work_id": 97799, "role": "production company", "role_id": 941, "is_primary": true}, {"id": 2752798, "title": "Our food", "work_id": 98463, "role": "production company", "role_id": 941, "is_primary": true}], "also_known_as": "", "date_of_birth": "", "date_of_death": "", "genders": [], "languages": [], "places_of_operation": [], "biography": "", "biography_author": null, "date_of_biography": "2023-08-14T10:16:15.208325+10:00", "external_links": [], "uuid": "8cf7afe8-b60e-4abd-95f7-2fa47bdad8db", "source": {"name": "Vernon", "slug": "vernon"}, "source_identifier": "5155", "external_references": [], "date_modified": "2025-03-13T01:11:59.899551+11:00"}, {"id": 38560, "name": "Maxine Crook", "roles_in_work": [{"id": 2751394, "title": "The French solution", "work_id": 97790, "role": "producer", "role_id": 1089, "is_primary": true}], "also_known_as": "", "date_of_birth": null, "date_of_death": null, "genders": [], "languages": [], "places_of_operation": [], "biography": "", "biography_author": null, "date_of_biography": null, "external_links": [], "uuid": "0b6f17c8-123d-43ff-92ec-afdb0f1ba0e8", "source": {"name": "Vernon", "slug": "vernon"}, "source_identifier": "24889", "external_references": [], "date_modified": "2025-03-13T00:41:55.815029+11:00"}, {"id": 38558, "name": "Bruce Stubblefield", "roles_in_work": [{"id": 2751372, "title": "Supply and demand", "work_id": 97779, "role": "producer", "role_id": 1089, "is_primary": true}], "also_known_as": "", "date_of_birth": "", "date_of_death": "", "genders": [], "languages": [], "places_of_operation": [], "biography": "", "biography_author": null, "date_of_biography": "2023-08-14T10:55:02.520122+10:00", "external_links": [], "uuid": "037f073e-7880-46f1-9cfe-d81429e0e685", "source": {"name": "Vernon", "slug": "vernon"}, "source_identifier": "16339", "external_references": [], "date_modified": "2025-03-13T00:41:39.986896+11:00"}]}