{"count": 28687, "next": "https://api.acmi.net.au/creators/?page=1060", "previous": "https://api.acmi.net.au/creators/?page=1058", "results": [{"id": 74992, "name": "Albert Kish", "roles_in_work": [{"id": 870472, "title": "Louisbourg [French version]", "work_id": 86315, "role": "director", "role_id": 938, "is_primary": true}, {"id": 2616071, "title": "Time piece", "work_id": 86763, "role": "director", "role_id": 938, "is_primary": true}, {"id": 2757491, "title": "Paper wheat", "work_id": 71348, "role": "director", "role_id": 938, "is_primary": true}, {"id": 2355813, "title": "The Image makers", "work_id": 85766, "role": "director", "role_id": 938, "is_primary": true}, {"id": 897434, "title": "Los Canadienses", "work_id": 77503, "role": "director", "role_id": 938, "is_primary": true}, {"id": 747109, "title": "Louisbourg", "work_id": 69933, "role": "director", "role_id": 938, "is_primary": true}, {"id": 763581, "title": "This is a photograph", "work_id": 77104, "role": "director", "role_id": 938, "is_primary": true}, {"id": 2111283, "title": "Bekevar Jubilee", "work_id": 77851, "role": "director", "role_id": 938, "is_primary": true}, {"id": 874159, "title": "Hold the ketchup", "work_id": 88600, "role": "director", "role_id": 938, "is_primary": true}, {"id": 2180620, "title": "Our street was paved with gold", "work_id": 75961, "role": "director", "role_id": 938, "is_primary": true}, {"id": 1817281, "title": "Freeze-in", "work_id": 75661, "role": "producer", "role_id": 1089, "is_primary": true}], "also_known_as": "", "date_of_birth": "14 MAY 1937", "date_of_death": "23 OCT 2015", "genders": [{"id": 9, "name": "Male", "slug": "male"}], "languages": [], "places_of_operation": [], "biography": "Albert Kish (14 May 1937 – 23 October 2015) was a Canadian documentarian/filmmaker. Source: Wikidata; 01/08/2023", "biography_author": null, "date_of_biography": "2025-03-13T14:45:48.415071+11:00", "external_links": [{"id": 3508, "uri": "https://en.wikipedia.org/wiki/Albert_Kish"}], "uuid": "c2fb3ac3-3eef-4a03-9c10-37c44761ac66", "source": {"name": "Vernon", "slug": "vernon"}, "source_identifier": "14836", "external_references": [{"id": 25859, "source": {"name": "Wikidata", "slug": "wikidata"}, "source_identifier": "Q21997840"}], "date_modified": "2025-03-13T14:45:48.415348+11:00"}, {"id": 74991, "name": "W. Gyorgy", "roles_in_work": [{"id": 894950, "title": "The Movies: our modern art. The Lost world revisited", "work_id": 69929, "role": "co-producer", "role_id": 915, "is_primary": true}], "also_known_as": "", "date_of_birth": null, "date_of_death": null, "genders": [], "languages": [], "places_of_operation": [], "biography": "", "biography_author": null, "date_of_biography": null, "external_links": [], "uuid": "e8b3bebd-e934-4af0-8847-3406d4dba682", "source": {"name": "Vernon", "slug": "vernon"}, "source_identifier": null, "external_references": [{"id": 35689, "source": {"name": "Wikidata", "slug": "wikidata"}, "source_identifier": "Q121315451"}], "date_modified": "2023-09-06T02:09:30.837589+10:00"}, {"id": 74990, "name": "Paul Bonner", "roles_in_work": [{"id": 854762, "title": "Lost 4 H-bombs!", "work_id": 69926, "role": "producer/director", "role_id": 31, "is_primary": true}], "also_known_as": "", "date_of_birth": null, "date_of_death": null, "genders": [], "languages": [], "places_of_operation": [], "biography": "", "biography_author": null, "date_of_biography": null, "external_links": [], "uuid": "3cadb002-dd24-4a19-9754-48672f675eca", "source": {"name": "Vernon", "slug": "vernon"}, "source_identifier": null, "external_references": [{"id": 51213, "source": {"name": "Wikidata", "slug": "wikidata"}, "source_identifier": "Q121361153"}], "date_modified": "2023-09-05T23:44:36.101990+10:00"}, {"id": 74989, "name": "Barry Tomblin", "roles_in_work": [{"id": 2645497, "title": "The Locker", "work_id": 69857, "role": "director", "role_id": 938, "is_primary": true}], "also_known_as": "", "date_of_birth": null, "date_of_death": null, "genders": [], "languages": [], "places_of_operation": [], "biography": "", "biography_author": null, "date_of_biography": null, "external_links": [], "uuid": "ddab1ec6-5b5d-4433-a0ba-13de63e8a416", "source": {"name": "Vernon", "slug": "vernon"}, "source_identifier": "15744", "external_references": [{"id": 32275, "source": {"name": "Wikidata", "slug": "wikidata"}, "source_identifier": "Q121034194"}], "date_modified": "2025-03-05T12:41:19.112029+11:00"}, {"id": 74988, "name": "Nick Ardizzone", "roles_in_work": [{"id": 2645491, "title": "Living with the city", "work_id": 69847, "role": "cinematographer", "role_id": 32, "is_primary": false}], "also_known_as": "", "date_of_birth": null, "date_of_death": null, "genders": [{"id": 9, "name": "Male", "slug": "male"}], "languages": [], "places_of_operation": [], "biography": "", "biography_author": null, "date_of_biography": null, "external_links": [], "uuid": "078b7a7a-53de-4f43-be7d-f381093fe80d", "source": {"name": "Vernon", "slug": "vernon"}, "source_identifier": "37464", "external_references": [{"id": 37752, "source": {"name": "Wikidata", "slug": "wikidata"}, "source_identifier": "Q121270709"}], "date_modified": "2025-03-05T12:41:14.750189+11:00"}, {"id": 74987, "name": "Cree Tarrant", "roles_in_work": [{"id": 2645484, "title": "Living with disaster", "work_id": 69845, "role": "director", "role_id": 938, "is_primary": true}], "also_known_as": "", "date_of_birth": null, "date_of_death": null, "genders": [], "languages": [], "places_of_operation": [], "biography": "", "biography_author": null, "date_of_biography": null, "external_links": [], "uuid": "cb045437-f6b2-40db-af44-d50ac8760e67", "source": {"name": "Vernon", "slug": "vernon"}, "source_identifier": "17256", "external_references": [{"id": 37399, "source": {"name": "Wikidata", "slug": "wikidata"}, "source_identifier": "Q121035679"}], "date_modified": "2025-03-05T12:41:10.513096+11:00"}, {"id": 74986, "name": "John Hall", "roles_in_work": [{"id": 894931, "title": "Living jazz", "work_id": 69806, "role": "co-producer", "role_id": 915, "is_primary": true}, {"id": 906606, "title": "The Visit", "work_id": 87295, "role": "co-producer", "role_id": 915, "is_primary": true}], "also_known_as": "", "date_of_birth": null, "date_of_death": null, "genders": [], "languages": [], "places_of_operation": [], "biography": "", "biography_author": null, "date_of_biography": null, "external_links": [], "uuid": "fb64121d-3385-41f0-bbc0-21429adb26e8", "source": {"name": "Vernon", "slug": "vernon"}, "source_identifier": null, "external_references": [], "date_modified": "2023-06-14T16:33:30.576250+10:00"}, {"id": 74985, "name": "Paddy Whannel", "roles_in_work": [{"id": 894930, "title": "Living jazz", "work_id": 69806, "role": "co-producer", "role_id": 915, "is_primary": true}], "also_known_as": "", "date_of_birth": null, "date_of_death": null, "genders": [], "languages": [], "places_of_operation": [], "biography": "", "biography_author": null, "date_of_biography": null, "external_links": [], "uuid": "e8389a96-6ae9-423b-a15d-620eedf8b3d4", "source": {"name": "Vernon", "slug": "vernon"}, "source_identifier": null, "external_references": [{"id": 35116, "source": {"name": "Wikidata", "slug": "wikidata"}, "source_identifier": "Q121299403"}], "date_modified": "2023-09-05T23:38:57.882476+10:00"}, {"id": 74984, "name": "R. Leacock", "roles_in_work": [{"id": 894927, "title": "The Living camera, with Paul", "work_id": 69799, "role": "co-director", "role_id": 959, "is_primary": true}], "also_known_as": "", "date_of_birth": null, "date_of_death": null, "genders": [], "languages": [], "places_of_operation": [], "biography": "", "biography_author": null, "date_of_biography": null, "external_links": [], "uuid": "8deb97a7-3a9c-495a-814e-fc94a7b7bcb7", "source": {"name": "Vernon", "slug": "vernon"}, "source_identifier": null, "external_references": [{"id": 38329, "source": {"name": "Wikidata", "slug": "wikidata"}, "source_identifier": "Q121036795"}], "date_modified": "2023-09-06T00:16:40.200317+10:00"}, {"id": 74983, "name": "Greg Shuker", "roles_in_work": [{"id": 894926, "title": "The Living camera, with Paul", "work_id": 69799, "role": "co-director", "role_id": 959, "is_primary": true}], "also_known_as": "", "date_of_birth": null, "date_of_death": null, "genders": [], "languages": [], "places_of_operation": [], "biography": "", "biography_author": null, "date_of_biography": null, "external_links": [], "uuid": "73d45549-d937-4488-ae32-50027ddd0f2c", "source": {"name": "Vernon", "slug": "vernon"}, "source_identifier": null, "external_references": [{"id": 35168, "source": {"name": "Wikidata", "slug": "wikidata"}, "source_identifier": "Q121223409"}], "date_modified": "2023-09-05T20:22:06.201993+10:00"}]}