{"count": 28687, "next": "https://api.acmi.net.au/creators/?page=325", "previous": "https://api.acmi.net.au/creators/?page=323", "results": [{"id": 82367, "name": "Yin Guohua", "roles_in_work": [{"id": 2650741, "title": "Zhenzhen's Beauty Parlor = Zhen Zhen Fa Wu", "work_id": 115760, "role": "cast", "role_id": 33, "is_primary": false}], "also_known_as": "", "date_of_birth": "", "date_of_death": "", "genders": [{"id": 9, "name": "Male", "slug": "male"}], "languages": [], "places_of_operation": [], "biography": "", "biography_author": null, "date_of_biography": "2023-05-09T18:15:44.094879+10:00", "external_links": [], "uuid": "5c8819dd-ecd9-4436-b2b5-5f1b11ac58f0", "source": {"name": "Vernon", "slug": "vernon"}, "source_identifier": "36705", "external_references": [{"id": 50873, "source": {"name": "Wikidata", "slug": "wikidata"}, "source_identifier": "Q121357642"}], "date_modified": "2025-03-05T14:22:58.857824+11:00"}, {"id": 82366, "name": "Kuang Ping", "roles_in_work": [{"id": 2650740, "title": "Zhenzhen's Beauty Parlor = Zhen Zhen Fa Wu", "work_id": 115760, "role": "cast", "role_id": 33, "is_primary": false}], "also_known_as": "", "date_of_birth": "", "date_of_death": "", "genders": [{"id": 5, "name": "Female", "slug": "female"}], "languages": [], "places_of_operation": [], "biography": "", "biography_author": null, "date_of_biography": "2023-05-09T18:15:43.857326+10:00", "external_links": [], "uuid": "e39b9d16-3f16-4289-9dd7-3f708538143d", "source": {"name": "Vernon", "slug": "vernon"}, "source_identifier": "36704", "external_references": [{"id": 43634, "source": {"name": "Wikidata", "slug": "wikidata"}, "source_identifier": "Q121091139"}], "date_modified": "2025-03-05T14:22:58.266301+11:00"}, {"id": 82365, "name": "Wang Qian", "roles_in_work": [{"id": 2650739, "title": "Zhenzhen's Beauty Parlor = Zhen Zhen Fa Wu", "work_id": 115760, "role": "editor", "role_id": 918, "is_primary": true}], "also_known_as": "", "date_of_birth": "", "date_of_death": "", "genders": [], "languages": [], "places_of_operation": [], "biography": "", "biography_author": null, "date_of_biography": "2023-05-09T18:15:41.869944+10:00", "external_links": [], "uuid": "acf31739-c4c8-4f96-8689-3e00d9f5daa6", "source": {"name": "Vernon", "slug": "vernon"}, "source_identifier": "36703", "external_references": [{"id": 40231, "source": {"name": "Wikidata", "slug": "wikidata"}, "source_identifier": "Q121222590"}], "date_modified": "2025-03-05T14:22:57.686328+11:00"}, {"id": 82364, "name": "Liao Jiaxiang", "roles_in_work": [{"id": 2650738, "title": "Zhenzhen's Beauty Parlor = Zhen Zhen Fa Wu", "work_id": 115760, "role": "cinematographer", "role_id": 32, "is_primary": false}], "also_known_as": "", "date_of_birth": "", "date_of_death": "", "genders": [], "languages": [], "places_of_operation": [], "biography": "", "biography_author": null, "date_of_biography": "2023-05-09T18:15:41.621068+10:00", "external_links": [], "uuid": "958f3c08-f193-4f51-a808-256501d75924", "source": {"name": "Vernon", "slug": "vernon"}, "source_identifier": "36702", "external_references": [{"id": 33019, "source": {"name": "Wikidata", "slug": "wikidata"}, "source_identifier": "Q121315197"}], "date_modified": "2025-03-05T14:22:57.106675+11:00"}, {"id": 82363, "name": "Xia Lan", "roles_in_work": [{"id": 2650737, "title": "Zhenzhen's Beauty Parlor = Zhen Zhen Fa Wu", "work_id": 115760, "role": "script", "role_id": 962, "is_primary": false}], "also_known_as": "", "date_of_birth": "", "date_of_death": "", "genders": [], "languages": [], "places_of_operation": [], "biography": "", "biography_author": null, "date_of_biography": "2023-05-09T18:15:41.374413+10:00", "external_links": [], "uuid": "1cd99037-233f-4ff2-87e0-294d12b80ca1", "source": {"name": "Vernon", "slug": "vernon"}, "source_identifier": "36701", "external_references": [], "date_modified": "2025-03-05T14:22:56.523341+11:00"}, {"id": 82362, "name": "Xu Tongjun", "roles_in_work": [{"id": 2650736, "title": "Zhenzhen's Beauty Parlor = Zhen Zhen Fa Wu", "work_id": 115760, "role": "director", "role_id": 938, "is_primary": true}], "also_known_as": "", "date_of_birth": "", "date_of_death": "", "genders": [], "languages": [], "places_of_operation": [], "biography": "", "biography_author": null, "date_of_biography": "2023-05-09T18:15:41.132685+10:00", "external_links": [], "uuid": "b9d2e793-3981-437e-8cae-5c3af52bfd78", "source": {"name": "Vernon", "slug": "vernon"}, "source_identifier": "31358", "external_references": [{"id": 40317, "source": {"name": "Wikidata", "slug": "wikidata"}, "source_identifier": "Q121034368"}], "date_modified": "2025-03-05T14:22:55.933457+11:00"}, {"id": 82361, "name": "Zhang Min", "roles_in_work": [{"id": 2650734, "title": "The Bureau head's boyfriend = Nu ju zhang de nan peng you", "work_id": 115759, "role": "cast", "role_id": 33, "is_primary": false}, {"id": 2234606, "title": "Raftsmen = Fazi ke", "work_id": 115848, "role": "script", "role_id": 962, "is_primary": false}], "also_known_as": "", "date_of_birth": "", "date_of_death": "", "genders": [], "languages": [], "places_of_operation": [], "biography": "", "biography_author": null, "date_of_biography": "2023-05-09T19:30:36.270439+10:00", "external_links": [], "uuid": "e3537807-e8de-4d08-8826-f834cec2e235", "source": {"name": "Vernon", "slug": "vernon"}, "source_identifier": "36330", "external_references": [{"id": 32352, "source": {"name": "Wikidata", "slug": "wikidata"}, "source_identifier": "Q121299326"}], "date_modified": "2025-03-05T14:22:54.446153+11:00"}, {"id": 82360, "name": "Wang Suya", "roles_in_work": [{"id": 2650733, "title": "The Bureau head's boyfriend = Nu ju zhang de nan peng you", "work_id": 115759, "role": "cast", "role_id": 33, "is_primary": false}], "also_known_as": "", "date_of_birth": "", "date_of_death": "", "genders": [{"id": 5, "name": "Female", "slug": "female"}], "languages": [], "places_of_operation": [], "biography": "", "biography_author": null, "date_of_biography": "2023-05-09T19:30:36.023308+10:00", "external_links": [], "uuid": "8725f06d-c602-49c4-afd8-020d5ef176f9", "source": {"name": "Vernon", "slug": "vernon"}, "source_identifier": "36380", "external_references": [{"id": 37919, "source": {"name": "Wikidata", "slug": "wikidata"}, "source_identifier": "Q121126749"}], "date_modified": "2025-03-05T14:22:53.855575+11:00"}, {"id": 82359, "name": "Chen Yanhua", "roles_in_work": [{"id": 2650732, "title": "The Bureau head's boyfriend = Nu ju zhang de nan peng you", "work_id": 115759, "role": "cast", "role_id": 33, "is_primary": false}], "also_known_as": "", "date_of_birth": "", "date_of_death": "", "genders": [{"id": 5, "name": "Female", "slug": "female"}], "languages": [], "places_of_operation": [], "biography": "", "biography_author": null, "date_of_biography": "2023-05-09T19:30:35.790283+10:00", "external_links": [], "uuid": "51930365-e8fd-4a27-b1d5-c3b576d638b4", "source": {"name": "Vernon", "slug": "vernon"}, "source_identifier": "36379", "external_references": [{"id": 33773, "source": {"name": "Wikidata", "slug": "wikidata"}, "source_identifier": "Q121299020"}], "date_modified": "2025-03-05T14:22:53.265110+11:00"}, {"id": 82358, "name": "Guo Kaimin", "roles_in_work": [{"id": 2650731, "title": "The Bureau head's boyfriend = Nu ju zhang de nan peng you", "work_id": 115759, "role": "cast", "role_id": 33, "is_primary": false}, {"id": 2651132, "title": "Lovebird's nests = Yuan yang lou", "work_id": 115804, "role": "cast", "role_id": 33, "is_primary": false}], "also_known_as": "", "date_of_birth": "", "date_of_death": "", "genders": [{"id": 9, "name": "Male", "slug": "male"}], "languages": [], "places_of_operation": [], "biography": "", "biography_author": null, "date_of_biography": "2023-05-09T19:30:35.548165+10:00", "external_links": [], "uuid": "93f3244c-8c58-45c9-8d94-580b9dc6411f", "source": {"name": "Vernon", "slug": "vernon"}, "source_identifier": "36378", "external_references": [{"id": 43501, "source": {"name": "Wikidata", "slug": "wikidata"}, "source_identifier": "Q104723564"}], "date_modified": "2025-03-05T14:26:48.533132+11:00"}]}