{"count": 28687, "next": "https://api.acmi.net.au/creators/?page=722", "previous": "https://api.acmi.net.au/creators/?page=720", "results": [{"id": 78373, "name": "Jean-Jose Richer", "roles_in_work": [{"id": 2350095, "title": "The Fugitives = les fugitifs", "work_id": 86951, "role": "producer", "role_id": 1089, "is_primary": true}], "also_known_as": "", "date_of_birth": "", "date_of_death": "", "genders": [], "languages": [], "places_of_operation": [], "biography": "", "biography_author": null, "date_of_biography": "2023-05-09T19:54:38.151234+10:00", "external_links": [], "uuid": "26698e04-465c-48d4-8634-cf1a06349016", "source": {"name": "Vernon", "slug": "vernon"}, "source_identifier": "21582", "external_references": [{"id": 41837, "source": {"name": "Wikidata", "slug": "wikidata"}, "source_identifier": "Q121222539"}], "date_modified": "2023-09-05T21:11:45.886084+10:00"}, {"id": 78372, "name": "Wellington Fung", "roles_in_work": [{"id": 2072020, "title": "A Mongolian tale", "work_id": 86950, "role": "co-producer", "role_id": 915, "is_primary": true}], "also_known_as": "", "date_of_birth": "", "date_of_death": "", "genders": [], "languages": [], "places_of_operation": [], "biography": "", "biography_author": null, "date_of_biography": "2023-05-09T11:34:55.122696+10:00", "external_links": [], "uuid": "7acc1443-a345-4076-a8fc-7fa82727c1f8", "source": {"name": "Vernon", "slug": "vernon"}, "source_identifier": "14285", "external_references": [{"id": 37528, "source": {"name": "Wikidata", "slug": "wikidata"}, "source_identifier": "Q121036232"}], "date_modified": "2023-09-06T02:12:38.694186+10:00"}, {"id": 78371, "name": "Humphrey Bogart", "roles_in_work": [{"id": 2176937, "title": "Dark victory", "work_id": 93328, "role": "cast", "role_id": 33, "is_primary": false}, {"id": 1991303, "title": "Marked woman", "work_id": 86944, "role": "cast", "role_id": 33, "is_primary": false}], "also_known_as": "Humphrey DeForest Bogart", "date_of_birth": "1899-12-25", "date_of_death": "1957-01-14", "genders": [{"id": 9, "name": "Male", "slug": "male"}], "languages": [{"id": 1, "name": "English", "slug": "english"}], "places_of_operation": [{"id": 1, "name": "United States of America", "slug": "united-states-of-america"}], "biography": "Humphrey DeForest Bogart (; December 25, 1899 – January 14, 1957), colloquially nicknamed Bogie, was an American film and stage actor. His performances in classic Hollywood cinema films made him an American cultural icon. In 1999, the American Film Institute selected Bogart as the greatest male star of classic American cinema.Bogart began acting in Broadway shows, beginning his career in motion pictures with Up the River (1930) for 20th Century Fox, and appeared in supporting roles for the next decade, regularly portraying gangsters. He was praised for his work as Duke Mantee in The Petrified Forest (1936), but remained cast secondary to other actors at Warner Bros. who received leading roles. Bogart also received positive reviews for his performance as gangster Hugh \"Baby Face\" Martin, in Dead End (1937), directed by William Wyler.\nHis breakthrough from supporting roles to stardom was set in motion with High Sierra (1941) and catapulted in The Maltese Falcon (1941), considered one of the first great noir films. Bogart's private detectives, Sam Spade (in The Maltese Falcon) and Philip Marlowe (in 1946's The Big Sleep), became the models for detectives in other noir films. His most significant romantic lead role was with Ingrid Bergman in Casablanca (1942), which earned him his first nomination for the Academy Award for Best Actor. 44-year-old Bogart and 19-year-old Lauren Bacall fell in love during filming of To Have and Have Not (1944). In 1945, a few months after principal photography for The Big Sleep, their second film together, he divorced his third wife and married Bacall. After their marriage, they played each other's love interest in the mystery thrillers Dark Passage (1947) and Key Largo (1948). Raymond Chandler, in a 1946 letter, wrote that \"Like Edward G. Robinson when he was younger, all he has to do to dominate a scene is to enter it.\"Bogart's performances in The Treasure of the Sierra Madre (1948) and In a Lonely Place (1950) are now considered among his best, although they were not recognized as such when the films were released. He reprised those unsettled, unstable characters as a World War II naval-vessel commander in The Caine Mutiny (1954), which was a critical and commercial hit and earned him another Best Actor nomination. He won the Academy Award for Best Actor for his portrayal of a cantankerous river steam launch skipper opposite Katharine Hepburn's missionary in the World War I African adventure The African Queen (1951). Other significant roles in his later years included The Barefoot Contessa (1954) with Ava Gardner and his on-screen competition with William Holden for Audrey Hepburn in Sabrina (1954). A heavy smoker and drinker, Bogart died from esophageal cancer in January 1957. Lauren Bacall said of him, \"There was something that made him able to be a man of his own and it showed through his work. There was also  a purity, which is amazing considering the parts he played. Something solid too. I think as time goes by we all believe less and less. Here was someone who believed in something.\"", "biography_author": "Wikidata", "date_of_biography": "2023-08-01T15:14:14.428048+10:00", "external_links": [{"id": 4182, "uri": "https://en.wikipedia.org/wiki/Humphrey_Bogart"}], "uuid": "fcdf20df-817b-4cb7-8584-8c4348cb3f93", "source": {"name": "Vernon", "slug": "vernon"}, "source_identifier": "32052", "external_references": [{"id": 25069, "source": {"name": "Wikidata", "slug": "wikidata"}, "source_identifier": "Q16390"}, {"id": 28983, "source": {"name": "VIAF", "slug": "viaf"}, "source_identifier": "68937671"}, {"id": 28984, "source": {"name": "LOC Auth", "slug": "loc-auth"}, "source_identifier": "n50010086"}, {"id": 28985, "source": {"name": "WorldCat", "slug": "worldcat"}, "source_identifier": "lccn-n50010086"}], "date_modified": "2023-09-05T20:44:40.308472+10:00"}, {"id": 78370, "name": "Cathy Bennett", "roles_in_work": [{"id": 2355040, "title": "The Housewife", "work_id": 86939, "role": "director", "role_id": 938, "is_primary": true}], "also_known_as": "", "date_of_birth": "", "date_of_death": "", "genders": [], "languages": [], "places_of_operation": [], "biography": "", "biography_author": null, "date_of_biography": "2023-05-09T20:02:36.998082+10:00", "external_links": [], "uuid": "60179446-f714-48be-a2c7-08784017d907", "source": {"name": "Vernon", "slug": "vernon"}, "source_identifier": "16611", "external_references": [{"id": 40820, "source": {"name": "Wikidata", "slug": "wikidata"}, "source_identifier": "Q121144038"}], "date_modified": "2023-09-05T18:22:50.414695+10:00"}, {"id": 78369, "name": "James D. Parriott", "roles_in_work": [{"id": 1991287, "title": "Heart condition", "work_id": 86938, "role": "director", "role_id": 938, "is_primary": true}], "also_known_as": "", "date_of_birth": "1950-11-14", "date_of_death": null, "genders": [{"id": 9, "name": "Male", "slug": "male"}], "languages": [], "places_of_operation": [{"id": 1, "name": "United States of America", "slug": "united-states-of-america"}], "biography": "James D. Parriott (born (1950-11-14)November 14, 1950, in Denver, Colorado) is an American writer, director, and producer, with his own self named production company.", "biography_author": "Wikidata", "date_of_biography": "2022-05-19T11:52:00.121124+10:00", "external_links": [{"id": 2309, "uri": "https://en.wikipedia.org/wiki/James_D._Parriott"}], "uuid": "c3f3fb95-e90d-4277-95ae-d4e07282b619", "source": {"name": "Vernon", "slug": "vernon"}, "source_identifier": "21221", "external_references": [{"id": 9910, "source": {"name": "Wikidata", "slug": "wikidata"}, "source_identifier": "Q6132186"}, {"id": 9911, "source": {"name": "VIAF", "slug": "viaf"}, "source_identifier": "61281532"}, {"id": 9912, "source": {"name": "LOC Auth", "slug": "loc-auth"}, "source_identifier": "no2005071116"}, {"id": 9913, "source": {"name": "WorldCat", "slug": "worldcat"}, "source_identifier": "lccn-no2005071116"}], "date_modified": "2023-09-05T21:02:45.750946+10:00"}, {"id": 78368, "name": "Garth Drabinsky", "roles_in_work": [{"id": 2337280, "title": "The Changeling", "work_id": 86937, "role": "co-producer", "role_id": 915, "is_primary": true}], "also_known_as": "", "date_of_birth": "1949-10-27", "date_of_death": "", "genders": [{"id": 9, "name": "Male", "slug": "male"}], "languages": [{"id": 1, "name": "English", "slug": "english"}], "places_of_operation": [{"id": 36, "name": "Canada", "slug": "canada"}], "biography": "Garth Drabinsky (born 1949) is a Canadian film and theatrical producer and entrepreneur. In 2009, he was convicted and sentenced to prison for fraud and forgery. The sentence was reduced from 7 to 5 years in prison, on appeal to the Ontario Court of Appeal, and the Supreme Court of Canada declined to hear a subsequent appeal. Drabinsky is currently raising funds for his legal battle with Actor's Equity in the USA.", "biography_author": "Wikidata", "date_of_biography": "2023-08-01T14:53:53.319049+10:00", "external_links": [{"id": 2088, "uri": "https://en.wikipedia.org/wiki/Garth_Drabinsky"}], "uuid": "27019d97-f373-4485-9895-8ff3a1653be3", "source": {"name": "Vernon", "slug": "vernon"}, "source_identifier": "19378", "external_references": [{"id": 9010, "source": {"name": "Wikidata", "slug": "wikidata"}, "source_identifier": "Q5524340"}, {"id": 9011, "source": {"name": "VIAF", "slug": "viaf"}, "source_identifier": "79418446"}, {"id": 9012, "source": {"name": "LOC Auth", "slug": "loc-auth"}, "source_identifier": "n96010332"}, {"id": 9013, "source": {"name": "WorldCat", "slug": "worldcat"}, "source_identifier": "lccn-n96010332"}], "date_modified": "2023-09-05T19:56:52.115807+10:00"}, {"id": 78367, "name": "Jan Gissberg", "roles_in_work": [{"id": 2202041, "title": "Peter no tail", "work_id": 86922, "role": "co-director", "role_id": 959, "is_primary": true}], "also_known_as": "", "date_of_birth": "", "date_of_death": "", "genders": [], "languages": [], "places_of_operation": [], "biography": "", "biography_author": null, "date_of_biography": "2023-05-09T15:27:59.283245+10:00", "external_links": [], "uuid": "e6943d23-4810-4912-a905-3474f1683f9c", "source": {"name": "Vernon", "slug": "vernon"}, "source_identifier": "21372", "external_references": [{"id": 35079, "source": {"name": "Wikidata", "slug": "wikidata"}, "source_identifier": "Q121143923"}], "date_modified": "2023-09-05T21:06:22.911549+10:00"}, {"id": 78366, "name": "Fionn Skiotis", "roles_in_work": [{"id": 2414934, "title": "Levantes", "work_id": 86918, "role": "co-director", "role_id": 959, "is_primary": true}], "also_known_as": "", "date_of_birth": "", "date_of_death": "", "genders": [], "languages": [], "places_of_operation": [], "biography": "", "biography_author": null, "date_of_biography": "2023-08-11T19:27:28.742979+10:00", "external_links": [], "uuid": "b261f89f-f03f-44d3-b94e-f366959f0991", "source": {"name": "Vernon", "slug": "vernon"}, "source_identifier": "19013", "external_references": [{"id": 33186, "source": {"name": "Wikidata", "slug": "wikidata"}, "source_identifier": "Q121036653"}], "date_modified": "2023-09-05T19:44:06.556389+10:00"}, {"id": 78365, "name": "Lisa Horler", "roles_in_work": [{"id": 2414933, "title": "Levantes", "work_id": 86918, "role": "co-director", "role_id": 959, "is_primary": true}], "also_known_as": "", "date_of_birth": "", "date_of_death": "", "genders": [], "languages": [], "places_of_operation": [], "biography": "", "biography_author": null, "date_of_biography": "2023-08-11T19:27:28.114469+10:00", "external_links": [], "uuid": "93528ad9-32b1-4d75-92aa-e4ed4b10fa0d", "source": {"name": "Vernon", "slug": "vernon"}, "source_identifier": "23920", "external_references": [{"id": 42255, "source": {"name": "Wikidata", "slug": "wikidata"}, "source_identifier": "Q121337482"}], "date_modified": "2023-09-05T22:27:36.235049+10:00"}, {"id": 78364, "name": "Rob Payne", "roles_in_work": [{"id": 2181790, "title": "Dead set", "work_id": 86917, "role": "producer/director", "role_id": 31, "is_primary": true}], "also_known_as": "", "date_of_birth": "", "date_of_death": "", "genders": [], "languages": [], "places_of_operation": [], "biography": "", "biography_author": null, "date_of_biography": "2023-05-09T14:53:58.784076+10:00", "external_links": [], "uuid": "164e618d-649c-480f-a9a9-431f3a8a8238", "source": {"name": "Vernon", "slug": "vernon"}, "source_identifier": "27607", "external_references": [{"id": 51475, "source": {"name": "Wikidata", "slug": "wikidata"}, "source_identifier": "Q121360916"}], "date_modified": "2023-09-06T00:38:00.047210+10:00"}]}