{"count": 28687, "next": "https://api.acmi.net.au/creators/?page=1206", "previous": "https://api.acmi.net.au/creators/?page=1204", "results": [{"id": 73297, "name": "Olle Carlsson", "roles_in_work": [{"id": 2709550, "title": "Reternity: design of the 20th century", "work_id": 108146, "role": "sound", "role_id": 952, "is_primary": false}], "also_known_as": "", "date_of_birth": "", "date_of_death": "", "genders": [], "languages": [], "places_of_operation": [], "biography": "", "biography_author": null, "date_of_biography": "2023-05-09T17:08:59.131519+10:00", "external_links": [], "uuid": "c41eca10-01d0-49a5-8a8c-8779738eebd6", "source": {"name": "Vernon", "slug": "vernon"}, "source_identifier": "1242", "external_references": [], "date_modified": "2025-03-11T23:04:14.798460+11:00"}, {"id": 73296, "name": "Magnus Carlson", "roles_in_work": [{"id": 2709549, "title": "Reternity: design of the 20th century", "work_id": 108146, "role": "music", "role_id": 949, "is_primary": false}], "also_known_as": "", "date_of_birth": "", "date_of_death": "", "genders": [], "languages": [], "places_of_operation": [], "biography": "", "biography_author": null, "date_of_biography": "2023-05-09T17:08:58.831446+10:00", "external_links": [], "uuid": "7879afea-5471-40c0-9edd-5892816792f6", "source": {"name": "Vernon", "slug": "vernon"}, "source_identifier": "1241", "external_references": [{"id": 51300, "source": {"name": "Wikidata", "slug": "wikidata"}, "source_identifier": "Q121360823"}], "date_modified": "2025-03-11T23:04:14.051100+11:00"}, {"id": 73295, "name": "Niko Rohlcke", "roles_in_work": [{"id": 2709548, "title": "Reternity: design of the 20th century", "work_id": 108146, "role": "music", "role_id": 949, "is_primary": false}], "also_known_as": "", "date_of_birth": "", "date_of_death": "", "genders": [], "languages": [], "places_of_operation": [], "biography": "", "biography_author": null, "date_of_biography": "2023-05-09T17:08:58.520875+10:00", "external_links": [], "uuid": "2db69e45-03d6-4f36-a35d-abcde817917c", "source": {"name": "Vernon", "slug": "vernon"}, "source_identifier": "1240", "external_references": [{"id": 51474, "source": {"name": "Wikidata", "slug": "wikidata"}, "source_identifier": "Q121361353"}], "date_modified": "2025-03-11T23:04:13.080189+11:00"}, {"id": 73294, "name": "Johan Rosenquist", "roles_in_work": [{"id": 2709547, "title": "Reternity: design of the 20th century", "work_id": 108146, "role": "designer", "role_id": 495, "is_primary": false}], "also_known_as": "", "date_of_birth": "", "date_of_death": "", "genders": [], "languages": [], "places_of_operation": [], "biography": "", "biography_author": null, "date_of_biography": "2023-05-09T17:08:58.260943+10:00", "external_links": [], "uuid": "8ccbbe95-157d-4f6b-abd3-495a61f2d767", "source": {"name": "Vernon", "slug": "vernon"}, "source_identifier": "1239", "external_references": [], "date_modified": "2025-03-11T23:04:12.408135+11:00"}, {"id": 73293, "name": "Jane Simpson", "roles_in_work": [{"id": 2709546, "title": "Reternity: design of the 20th century", "work_id": 108146, "role": "designer", "role_id": 495, "is_primary": false}], "also_known_as": "", "date_of_birth": "", "date_of_death": "", "genders": [], "languages": [], "places_of_operation": [], "biography": "", "biography_author": null, "date_of_biography": "2023-05-09T17:08:57.981373+10:00", "external_links": [], "uuid": "b8f3a7b8-d96d-4f0c-9cb1-17c4ef4b9ab3", "source": {"name": "Vernon", "slug": "vernon"}, "source_identifier": "1238", "external_references": [], "date_modified": "2025-03-11T23:04:11.652580+11:00"}, {"id": 73292, "name": "Hadrian Pigott", "roles_in_work": [{"id": 2709545, "title": "Reternity: design of the 20th century", "work_id": 108146, "role": "designer", "role_id": 495, "is_primary": false}], "also_known_as": "", "date_of_birth": "", "date_of_death": "", "genders": [], "languages": [], "places_of_operation": [], "biography": "", "biography_author": null, "date_of_biography": "2023-05-09T17:08:57.747223+10:00", "external_links": [], "uuid": "26e4a998-cc8b-49e0-b19f-a1a609e2724a", "source": {"name": "Vernon", "slug": "vernon"}, "source_identifier": "1237", "external_references": [], "date_modified": "2025-03-11T23:04:10.992798+11:00"}, {"id": 73291, "name": "Steven Bachelder", "roles_in_work": [{"id": 2709539, "title": "Reternity: design of the 20th century", "work_id": 108146, "role": "designer", "role_id": 495, "is_primary": false}], "also_known_as": "", "date_of_birth": "", "date_of_death": "", "genders": [], "languages": [], "places_of_operation": [], "biography": "", "biography_author": null, "date_of_biography": "2023-05-09T17:08:56.793496+10:00", "external_links": [], "uuid": "fb2b94b1-d979-4da2-bd26-46d41f55ed23", "source": {"name": "Vernon", "slug": "vernon"}, "source_identifier": "1234", "external_references": [], "date_modified": "2025-03-11T23:04:08.047088+11:00"}, {"id": 73290, "name": "Loreena McKennitt", "roles_in_work": [{"id": 2709534, "title": "Ithaca", "work_id": 108145, "role": "music", "role_id": 949, "is_primary": false}], "also_known_as": "", "date_of_birth": "", "date_of_death": "", "genders": [], "languages": [], "places_of_operation": [], "biography": "", "biography_author": null, "date_of_biography": "2023-05-09T20:00:19.862017+10:00", "external_links": [], "uuid": "7ef956e0-1a05-4e73-a833-c5f8537b0c36", "source": {"name": "Vernon", "slug": "vernon"}, "source_identifier": "1562", "external_references": [{"id": 51951, "source": {"name": "Wikidata", "slug": "wikidata"}, "source_identifier": "Q121360661"}], "date_modified": "2025-03-11T23:04:00.889239+11:00"}, {"id": 73289, "name": "Jeremy Parnell", "roles_in_work": [{"id": 2709525, "title": "The Greatest story untold", "work_id": 108144, "role": "music", "role_id": 949, "is_primary": false}], "also_known_as": "", "date_of_birth": "", "date_of_death": "", "genders": [], "languages": [], "places_of_operation": [], "biography": "", "biography_author": null, "date_of_biography": "2023-05-09T20:00:15.713042+10:00", "external_links": [], "uuid": "71d54987-28c4-4337-bd01-5d04d6129f11", "source": {"name": "Vernon", "slug": "vernon"}, "source_identifier": "1176", "external_references": [{"id": 50566, "source": {"name": "Wikidata", "slug": "wikidata"}, "source_identifier": "Q121360750"}], "date_modified": "2025-03-11T23:03:48.689661+11:00"}, {"id": 73288, "name": "Jeremy Lowenstein", "roles_in_work": [{"id": 2709509, "title": "Street kid", "work_id": 108143, "role": "voice", "role_id": 471, "is_primary": false}], "also_known_as": "", "date_of_birth": "", "date_of_death": "", "genders": [], "languages": [], "places_of_operation": [], "biography": "", "biography_author": null, "date_of_biography": "2023-05-09T20:00:39.897103+10:00", "external_links": [], "uuid": "667b8390-8179-477d-9d55-00ec81d2a000", "source": {"name": "Vernon", "slug": "vernon"}, "source_identifier": "1227", "external_references": [], "date_modified": "2025-03-11T23:03:23.087270+11:00"}]}