{"count": 28687, "next": "https://api.acmi.net.au/creators/?page=1881", "previous": "https://api.acmi.net.au/creators/?page=1879", "results": [{"id": 24872, "name": "Rebecca Dodds", "roles_in_work": [{"id": 2330381, "title": "The Best of 'Out' & 'Out on Tuesday'", "work_id": 82714, "role": "producer", "role_id": 1089, "is_primary": true}], "also_known_as": "", "date_of_birth": "", "date_of_death": "", "genders": [], "languages": [], "places_of_operation": [], "biography": "", "biography_author": null, "date_of_biography": "2023-05-09T19:24:44.686267+10:00", "external_links": [], "uuid": "6a6f7eb6-3baf-42ee-b7bd-107ac497d163", "source": {"name": "Vernon", "slug": "vernon"}, "source_identifier": "27210", "external_references": [{"id": 42543, "source": {"name": "Wikidata", "slug": "wikidata"}, "source_identifier": "Q121078940"}], "date_modified": "2023-09-06T00:23:58.899252+10:00"}, {"id": 24870, "name": "Jill Singer", "roles_in_work": [{"id": 2783492, "title": "Normal calculations", "work_id": 83293, "role": "director", "role_id": 938, "is_primary": true}, {"id": 2783438, "title": "Picturing distributions", "work_id": 82702, "role": "director", "role_id": 938, "is_primary": true}, {"id": 2783695, "title": "Random variables", "work_id": 83510, "role": "director", "role_id": 938, "is_primary": true}, {"id": 2783458, "title": "Describing distributions", "work_id": 83084, "role": "director", "role_id": 938, "is_primary": true}, {"id": 2783645, "title": "Blocking and sampling", "work_id": 83477, "role": "director", "role_id": 938, "is_primary": true}, {"id": 2783472, "title": "Normal distributions", "work_id": 83241, "role": "director", "role_id": 938, "is_primary": true}, {"id": 2783545, "title": "Describing relationships", "work_id": 83573, "role": "director", "role_id": 938, "is_primary": true}, {"id": 2783739, "title": "The Sample mean and control charts", "work_id": 83520, "role": "co-director", "role_id": 959, "is_primary": true}, {"id": 2783715, "title": "Binomial distributions", "work_id": 83478, "role": "co-director", "role_id": 959, "is_primary": true}, {"id": 2783767, "title": "Confidence intervals", "work_id": 83455, "role": "co-director", "role_id": 959, "is_primary": true}, {"id": 2783811, "title": "Inference for one mean", "work_id": 84156, "role": "co-director", "role_id": 959, "is_primary": true}, {"id": 2783791, "title": "Significance tests", "work_id": 83556, "role": "co-director", "role_id": 959, "is_primary": true}, {"id": 2783676, "title": "What is probability?", "work_id": 83552, "role": "co-producers/directors", "role_id": 628, "is_primary": true}, {"id": 2783625, "title": "Experimental design", "work_id": 83458, "role": "director", "role_id": 938, "is_primary": true}, {"id": 2783605, "title": "The Question of causation", "work_id": 83518, "role": "director", "role_id": 938, "is_primary": true}, {"id": 2783659, "title": "Samples and surveys", "work_id": 83557, "role": "producer/director", "role_id": 31, "is_primary": true}, {"id": 2783571, "title": "Correlation", "work_id": 83459, "role": "producer/director", "role_id": 31, "is_primary": true}], "also_known_as": "", "date_of_birth": "", "date_of_death": "", "genders": [], "languages": [], "places_of_operation": [], "biography": "", "biography_author": null, "date_of_biography": "2023-05-09T18:36:12.915986+10:00", "external_links": [], "uuid": "b75c7599-9858-485c-842e-69e7e070f2d9", "source": {"name": "Vernon", "slug": "vernon"}, "source_identifier": "21852", "external_references": [{"id": 35044, "source": {"name": "Wikidata", "slug": "wikidata"}, "source_identifier": "Q120703034"}], "date_modified": "2025-03-14T19:17:39.269426+11:00"}, {"id": 24869, "name": "Peggy Girshman", "roles_in_work": [{"id": 2783489, "title": "Normal calculations", "work_id": 83293, "role": "producer", "role_id": 1089, "is_primary": true}, {"id": 2783540, "title": "Describing relationships", "work_id": 83573, "role": "producer", "role_id": 1089, "is_primary": true}, {"id": 2783879, "title": "Against all odds: inside statistics", "work_id": 115276, "role": "producer", "role_id": 1089, "is_primary": true}, {"id": 2783591, "title": "Multidimensional data analysis", "work_id": 83486, "role": "producer", "role_id": 1089, "is_primary": true}, {"id": 2783602, "title": "The Question of causation", "work_id": 83518, "role": "producer", "role_id": 1089, "is_primary": true}, {"id": 2783621, "title": "Experimental design", "work_id": 83458, "role": "producer", "role_id": 1089, "is_primary": true}, {"id": 2783643, "title": "Blocking and sampling", "work_id": 83477, "role": "producer", "role_id": 1089, "is_primary": true}, {"id": 2783469, "title": "Normal distributions", "work_id": 83241, "role": "producer", "role_id": 1089, "is_primary": true}, {"id": 2783693, "title": "Random variables", "work_id": 83510, "role": "producer", "role_id": 1089, "is_primary": true}, {"id": 2783454, "title": "Describing distributions", "work_id": 83084, "role": "producer", "role_id": 1089, "is_primary": true}, {"id": 2783710, "title": "Binomial distributions", "work_id": 83478, "role": "producer", "role_id": 1089, "is_primary": true}, {"id": 2783434, "title": "Picturing distributions", "work_id": 82702, "role": "producer", "role_id": 1089, "is_primary": true}, {"id": 2783731, "title": "The Sample mean and control charts", "work_id": 83520, "role": "producer", "role_id": 1089, "is_primary": true}, {"id": 2783758, "title": "Confidence intervals", "work_id": 83455, "role": "producer", "role_id": 1089, "is_primary": true}, {"id": 2783782, "title": "Significance tests", "work_id": 83556, "role": "producer", "role_id": 1089, "is_primary": true}, {"id": 2783806, "title": "Inference for one mean", "work_id": 84156, "role": "producer", "role_id": 1089, "is_primary": true}, {"id": 2783843, "title": "Inference for proportions", "work_id": 83487, "role": "producer", "role_id": 1089, "is_primary": true}, {"id": 2783520, "title": "Models for growth", "work_id": 83498, "role": "producer/director", "role_id": 31, "is_primary": true}, {"id": 2783873, "title": "Case study", "work_id": 83474, "role": "producer/director", "role_id": 31, "is_primary": true}], "also_known_as": "", "date_of_birth": "", "date_of_death": "", "genders": [], "languages": [], "places_of_operation": [], "biography": "", "biography_author": null, "date_of_biography": "2023-05-09T18:36:12.423164+10:00", "external_links": [], "uuid": "749dadd6-8dac-4a4b-900d-337b9e4096b5", "source": {"name": "Vernon", "slug": "vernon"}, "source_identifier": "26397", "external_references": [{"id": 39601, "source": {"name": "Wikidata", "slug": "wikidata"}, "source_identifier": "Q121337489"}], "date_modified": "2025-03-14T19:17:58.404927+11:00"}, {"id": 24865, "name": "David Goldie", "roles_in_work": [{"id": 910955, "title": "Somebody now: 'Nobody's Children' seven years on", "work_id": 91608, "role": "co-producer", "role_id": 915, "is_primary": true}, {"id": 910957, "title": "Somebody now: 'Nobody's Children' seven years on", "work_id": 91608, "role": "director", "role_id": 938, "is_primary": true}, {"id": 1815285, "title": "The Blainey view: the great depression", "work_id": 88151, "role": "producer", "role_id": 1089, "is_primary": true}, {"id": 1805074, "title": "Heartlands with Dean Graetz : dust", "work_id": 86986, "role": "producer", "role_id": 1089, "is_primary": true}, {"id": 3106954, "title": "Out of Sight Out of Mind [Part 1]", "work_id": 120178, "role": "producer/director", "role_id": 31, "is_primary": true}, {"id": 779732, "title": "The Time of your life", "work_id": 82692, "role": "producer/director", "role_id": 31, "is_primary": true}, {"id": 2064244, "title": "3 seconds from glory. [Part 2]", "work_id": 91570, "role": "producer/director", "role_id": 31, "is_primary": true}, {"id": 780836, "title": "Without consent", "work_id": 82991, "role": "producer/director", "role_id": 31, "is_primary": true}, {"id": 2064850, "title": "3 seconds from glory. [Part 1]", "work_id": 91571, "role": "producer/director", "role_id": 31, "is_primary": true}, {"id": 3106950, "title": "Out of Sight, Out of Mind", "work_id": 99402, "role": "producer/director", "role_id": 31, "is_primary": true}, {"id": 2754852, "title": "Nobody's children", "work_id": 99399, "role": "producer/director", "role_id": 31, "is_primary": true}], "also_known_as": "", "date_of_birth": "", "date_of_death": "", "genders": [], "languages": [], "places_of_operation": [], "biography": "", "biography_author": null, "date_of_biography": "2023-05-09T14:55:35.900157+10:00", "external_links": [], "uuid": "15443efd-5ca4-44f7-bad0-0a42dc96271c", "source": {"name": "Vernon", "slug": "vernon"}, "source_identifier": "17601", "external_references": [{"id": 39760, "source": {"name": "Wikidata", "slug": "wikidata"}, "source_identifier": "Q121270707"}], "date_modified": "2025-08-20T15:15:22.192133+10:00"}, {"id": 24862, "name": "Linda Feferman", "roles_in_work": [{"id": 2751982, "title": "Mother may I?", "work_id": 98081, "role": "director", "role_id": 938, "is_primary": true}, {"id": 2751985, "title": "Linda's film on menstruation", "work_id": 98082, "role": "director", "role_id": 938, "is_primary": true}, {"id": 2751981, "title": "Mother may I?", "work_id": 98081, "role": "co-producer", "role_id": 915, "is_primary": true}, {"id": 901942, "title": "The Astronomers. Eps. 4-6", "work_id": 82689, "role": "co-producers/directors", "role_id": 628, "is_primary": true}], "also_known_as": "", "date_of_birth": "", "date_of_death": "", "genders": [{"id": 5, "name": "Female", "slug": "female"}], "languages": [], "places_of_operation": [{"id": 1, "name": "United States of America", "slug": "united-states-of-america"}], "biography": "", "biography_author": null, "date_of_biography": "2023-08-14T09:54:54.149540+10:00", "external_links": [], "uuid": "23c4b871-7bcb-490a-a84a-58eb47c3f7e5", "source": {"name": "Vernon", "slug": "vernon"}, "source_identifier": "23863", "external_references": [{"id": 37017, "source": {"name": "Wikidata", "slug": "wikidata"}, "source_identifier": "Q111311604"}, {"id": 55063, "source": {"name": "VIAF", "slug": "viaf"}, "source_identifier": "6278416"}, {"id": 55064, "source": {"name": "LOC Auth", "slug": "loc-auth"}, "source_identifier": "n82075339"}], "date_modified": "2025-03-13T00:55:55.304582+11:00"}, {"id": 24854, "name": "Catherine Shirley", "roles_in_work": [{"id": 2202030, "title": "Peter combe plays chopsticks: and other collectable clips for kids", "work_id": 85366, "role": "director", "role_id": 938, "is_primary": true}, {"id": 1808284, "title": "Investigators: Divorce special", "work_id": 82680, "role": "producer", "role_id": 1089, "is_primary": true}], "also_known_as": "", "date_of_birth": "", "date_of_death": "", "genders": [], "languages": [], "places_of_operation": [], "biography": "", "biography_author": null, "date_of_biography": "2023-05-09T15:27:57.893909+10:00", "external_links": [], "uuid": "f71422aa-cbcb-402b-baca-5885bde96b4d", "source": {"name": "Vernon", "slug": "vernon"}, "source_identifier": "16602", "external_references": [{"id": 42913, "source": {"name": "Wikidata", "slug": "wikidata"}, "source_identifier": "Q121143994"}], "date_modified": "2023-09-05T18:22:42.906539+10:00"}, {"id": 24850, "name": "Quaker Oats Company", "roles_in_work": [{"id": 2274239, "title": "Willy Wonka and the chocolate factory (Captioned)", "work_id": 82672, "role": "production company", "role_id": 941, "is_primary": true}, {"id": 2274518, "title": "Willy Wonka and the chocolate factory [DVD]", "work_id": 93974, "role": "production company", "role_id": 941, "is_primary": true}], "also_known_as": "", "date_of_birth": "", "date_of_death": "", "genders": [], "languages": [], "places_of_operation": [], "biography": "", "biography_author": null, "date_of_biography": "2023-05-09T17:50:27.989035+10:00", "external_links": [], "uuid": "8fe1504d-fa9e-499f-b750-c29ca65c90bc", "source": {"name": "Vernon", "slug": "vernon"}, "source_identifier": "11757", "external_references": [{"id": 37466, "source": {"name": "Wikidata", "slug": "wikidata"}, "source_identifier": "Q121299425"}], "date_modified": "2023-09-06T00:15:46.899582+10:00"}, {"id": 24847, "name": "Michael Hertzberg", "roles_in_work": [{"id": 2118930, "title": "Blazing saddles (Captioned)", "work_id": 82660, "role": "producer", "role_id": 1089, "is_primary": true}, {"id": 2118952, "title": "Blazing saddles", "work_id": 87819, "role": "producer", "role_id": 1089, "is_primary": true}, {"id": 2300209, "title": "Silent movie", "work_id": 85648, "role": "producer", "role_id": 1089, "is_primary": true}], "also_known_as": "", "date_of_birth": null, "date_of_death": null, "genders": [{"id": 9, "name": "Male", "slug": "male"}], "languages": [], "places_of_operation": [{"id": 1, "name": "United States of America", "slug": "united-states-of-america"}], "biography": "Michael Hertzberg is an American assistant director, writer, and film producer best known for his work with director Mel Brooks. Hertzberg was extremely influential on Brooks, having started working for Brooks as an assistant director on Brook's first film The Producers, and going on to produce several of Brooks' early films including box office hits, Blazing Saddles and Silent Movie. Blazing Saddles was awarded the #6 slot on the American Film Institute's list of Top 100 comedy films of all time. Hertzberg started working as an assistant director in commercials, television and feature films. He was the first assistant director to Frank Perry on the hit cult film, The Swimmer, starring Burt Lancaster.\nHertzberg also wrote the story (with Ronald Bass) and produced Entrapment starring Sean Connery and Catherine Zeta-Jones. He produced Johnny Dangerously starring Michael Keaton and directed by Amy Heckerling (director of Fast Times at Ridgemont High.On March 27, 1984, he had signed a deal with 20th Century-Fox for a two-year agreement that would cover all directing and producing activities.Hertzberg has also been interviewed for several behind-the-scenes documentaries including Back in the Saddle (featured on the 2003 DVD release of Blazing Saddles), The Making of The Producers (featured on the MGM Special Edition DVD release of The Producers and The Story of the Swimmer (featured on the 2014 Grindhouse Releasing/Box Office Spectaculars Blu-ray/DVD restoration).\n\n", "biography_author": "Wikidata", "date_of_biography": "2022-05-19T12:28:51.658195+10:00", "external_links": [{"id": 2711, "uri": "https://en.wikipedia.org/wiki/Michael_Hertzberg"}], "uuid": "b8c145ad-6ca3-45c5-8d50-458d6d431c50", "source": {"name": "Vernon", "slug": "vernon"}, "source_identifier": "25099", "external_references": [{"id": 11562, "source": {"name": "Wikidata", "slug": "wikidata"}, "source_identifier": "Q16745331"}], "date_modified": "2023-09-13T12:31:25.890002+10:00"}, {"id": 24841, "name": "Max Donnellan", "roles_in_work": [{"id": 2159612, "title": "Mary MacKillop: the beatification", "work_id": 85199, "role": "co-producer", "role_id": 915, "is_primary": true}, {"id": 2159617, "title": "Mary MacKillop: the beatification", "work_id": 85199, "role": "director", "role_id": 938, "is_primary": true}, {"id": 2104668, "title": "Australian Vietnam Forces National Memorial dedication", "work_id": 82634, "role": "director", "role_id": 938, "is_primary": true}, {"id": 2756855, "title": "Dingo country", "work_id": 97032, "role": "producer", "role_id": 1089, "is_primary": true}], "also_known_as": "", "date_of_birth": "", "date_of_death": "", "genders": [], "languages": [], "places_of_operation": [], "biography": "", "biography_author": null, "date_of_biography": "2023-05-09T18:42:29.550298+10:00", "external_links": [], "uuid": "88a9e326-5cfe-4c15-be40-794598dfafd5", "source": {"name": "Vernon", "slug": "vernon"}, "source_identifier": "24861", "external_references": [{"id": 39744, "source": {"name": "Wikidata", "slug": "wikidata"}, "source_identifier": "Q121035833"}], "date_modified": "2025-03-13T14:42:07.528810+11:00"}, {"id": 24836, "name": "Carol Dunn", "roles_in_work": [{"id": 2782703, "title": "Gold in the hills: a case study in market segmentation", "work_id": 82684, "role": "producer", "role_id": 1089, "is_primary": true}, {"id": 2782693, "title": "Great expectations: a case study in marketing, planning and forecasting", "work_id": 82629, "role": "producer", "role_id": 1089, "is_primary": true}, {"id": 2782698, "title": "Prophecy: a case study in marketing research", "work_id": 82623, "role": "producer", "role_id": 1089, "is_primary": true}], "also_known_as": "", "date_of_birth": "", "date_of_death": "", "genders": [], "languages": [], "places_of_operation": [], "biography": "", "biography_author": null, "date_of_biography": "2023-05-09T15:46:54.232835+10:00", "external_links": [], "uuid": "737b7f26-1685-476d-9dbe-a2439c019ebb", "source": {"name": "Vernon", "slug": "vernon"}, "source_identifier": "16515", "external_references": [{"id": 43598, "source": {"name": "Wikidata", "slug": "wikidata"}, "source_identifier": "Q121126846"}], "date_modified": "2025-03-14T19:13:43.958860+11:00"}]}