{"count": 28687, "next": "https://api.acmi.net.au/creators/?page=429", "previous": "https://api.acmi.net.au/creators/?page=427", "results": [{"id": 81303, "name": "Robert Sisk", "roles_in_work": [{"id": 1978818, "title": "Hills of home", "work_id": 95559, "role": "producer", "role_id": 1089, "is_primary": true}, {"id": 2000991, "title": "Love laughs at Andy Hardy", "work_id": 95324, "role": "producer", "role_id": 1089, "is_primary": true}, {"id": 2134702, "title": "Challenge to Lassie", "work_id": 82915, "role": "producer", "role_id": 1089, "is_primary": true}], "also_known_as": "", "date_of_birth": "", "date_of_death": "", "genders": [], "languages": [], "places_of_operation": [], "biography": "", "biography_author": null, "date_of_biography": "2023-05-09T13:27:00.883956+10:00", "external_links": [], "uuid": "995e376a-1ec3-4877-8acd-7f2940d52a3f", "source": {"name": "Vernon", "slug": "vernon"}, "source_identifier": "27884", "external_references": [{"id": 35322, "source": {"name": "Wikidata", "slug": "wikidata"}, "source_identifier": "Q121223310"}], "date_modified": "2023-09-06T00:46:52.175250+10:00"}, {"id": 81302, "name": "Mark D Collier", "roles_in_work": [{"id": 2270159, "title": "William Primrose: a violist's legacy", "work_id": 95311, "role": "producer/director", "role_id": 31, "is_primary": true}], "also_known_as": "", "date_of_birth": "", "date_of_death": "", "genders": [], "languages": [], "places_of_operation": [], "biography": "", "biography_author": null, "date_of_biography": "2023-05-09T17:43:58.830675+10:00", "external_links": [], "uuid": "4e3c8776-3a9c-42c7-a906-5cd393e7a834", "source": {"name": "Vernon", "slug": "vernon"}, "source_identifier": "24477", "external_references": [{"id": 50958, "source": {"name": "Wikidata", "slug": "wikidata"}, "source_identifier": "Q121360684"}], "date_modified": "2023-09-05T22:45:19.900969+10:00"}, {"id": 81301, "name": "Louis W Kellman", "roles_in_work": [{"id": 2320565, "title": "Sweet love, bitter", "work_id": 95301, "role": "co-producer", "role_id": 915, "is_primary": true}], "also_known_as": "", "date_of_birth": "", "date_of_death": "", "genders": [], "languages": [], "places_of_operation": [], "biography": "", "biography_author": null, "date_of_biography": "2023-05-09T19:11:18.290033+10:00", "external_links": [], "uuid": "7d9904fc-8786-42b0-b52d-1c65dd1cb781", "source": {"name": "Vernon", "slug": "vernon"}, "source_identifier": "24034", "external_references": [{"id": 39273, "source": {"name": "Wikidata", "slug": "wikidata"}, "source_identifier": "Q121222809"}], "date_modified": "2023-09-05T22:31:59.904249+10:00"}, {"id": 81300, "name": "David Pountney", "roles_in_work": [{"id": 2259100, "title": "Rusalka", "work_id": 95294, "role": "co-producer", "role_id": 915, "is_primary": true}], "also_known_as": "", "date_of_birth": "1947-09-10", "date_of_death": "", "genders": [{"id": 9, "name": "Male", "slug": "male"}], "languages": [{"id": 1, "name": "English", "slug": "english"}], "places_of_operation": [{"id": 10, "name": "United Kingdom", "slug": "united-kingdom"}], "biography": "Sir David Willoughby Pountney  (born 10 September 1947) is a British-Polish theatre and opera director and librettist internationally known for his productions of rarely performed operas and new productions of classic works. He has directed over ten world premières, including three by Sir Peter Maxwell Davies for whom he wrote the librettos of The Doctor of Myddfai, Mr Emmet Takes a Walk and Kommilitonen!", "biography_author": "Wikidata", "date_of_biography": "2023-09-05T19:02:17.258340+10:00", "external_links": [{"id": 5770, "uri": "https://en.wikipedia.org/wiki/David_Pountney"}], "uuid": "83fb3fa7-16da-4b4f-aa76-19a2947705b4", "source": {"name": "Vernon", "slug": "vernon"}, "source_identifier": "17756", "external_references": [{"id": 40697, "source": {"name": "Wikidata", "slug": "wikidata"}, "source_identifier": "Q1176161"}, {"id": 54288, "source": {"name": "VIAF", "slug": "viaf"}, "source_identifier": "84211703"}, {"id": 54289, "source": {"name": "LOC Auth", "slug": "loc-auth"}, "source_identifier": "n85212478"}, {"id": 54290, "source": {"name": "WorldCat", "slug": "worldcat"}, "source_identifier": "lccn-n85212478"}], "date_modified": "2023-09-05T19:02:23.483044+10:00"}, {"id": 81299, "name": "Brad McCrystal", "roles_in_work": [{"id": 2356931, "title": "The Jerusalem passion", "work_id": 95292, "role": "producer/director", "role_id": 31, "is_primary": true}], "also_known_as": "", "date_of_birth": "", "date_of_death": "", "genders": [], "languages": [], "places_of_operation": [], "biography": "", "biography_author": null, "date_of_biography": "2023-05-09T20:05:23.495809+10:00", "external_links": [], "uuid": "300c5a50-e77c-40c4-acd0-e27fbf6e003c", "source": {"name": "Vernon", "slug": "vernon"}, "source_identifier": "16156", "external_references": [{"id": 52087, "source": {"name": "Wikidata", "slug": "wikidata"}, "source_identifier": "Q121361070"}], "date_modified": "2023-09-05T18:09:02.133480+10:00"}, {"id": 81298, "name": "Eitan Even", "roles_in_work": [{"id": 917788, "title": "Vivaldi: the Four Seasons", "work_id": 95285, "role": "co-producer", "role_id": 915, "is_primary": true}], "also_known_as": "", "date_of_birth": null, "date_of_death": null, "genders": [], "languages": [], "places_of_operation": [], "biography": "", "biography_author": null, "date_of_biography": null, "external_links": [], "uuid": "97ab05d9-028a-4864-b2b3-78bdd330d3d3", "source": {"name": "Vernon", "slug": "vernon"}, "source_identifier": null, "external_references": [{"id": 37508, "source": {"name": "Wikidata", "slug": "wikidata"}, "source_identifier": "Q121337601"}], "date_modified": "2023-09-05T19:27:35.168753+10:00"}, {"id": 81297, "name": "Harry Waterson", "roles_in_work": [{"id": 917787, "title": "Vivaldi: the Four Seasons", "work_id": 95285, "role": "co-producer", "role_id": 915, "is_primary": true}], "also_known_as": "", "date_of_birth": null, "date_of_death": null, "genders": [], "languages": [], "places_of_operation": [], "biography": "", "biography_author": null, "date_of_biography": null, "external_links": [], "uuid": "4a6b777b-177a-465f-9fd3-20f279a16acb", "source": {"name": "Vernon", "slug": "vernon"}, "source_identifier": null, "external_references": [{"id": 41603, "source": {"name": "Wikidata", "slug": "wikidata"}, "source_identifier": "Q121036331"}], "date_modified": "2023-09-05T20:31:45.987954+10:00"}, {"id": 81296, "name": "Anthony Potenza", "roles_in_work": [{"id": 2164330, "title": "No nukes", "work_id": 95279, "role": "co-director", "role_id": 959, "is_primary": true}], "also_known_as": "", "date_of_birth": "", "date_of_death": "", "genders": [], "languages": [], "places_of_operation": [], "biography": "", "biography_author": null, "date_of_biography": "2023-05-09T14:22:13.481091+10:00", "external_links": [], "uuid": "eeb6524f-35cb-4d79-a194-3f9de86bf6b1", "source": {"name": "Vernon", "slug": "vernon"}, "source_identifier": "15409", "external_references": [{"id": 51261, "source": {"name": "Wikidata", "slug": "wikidata"}, "source_identifier": "Q117859707"}], "date_modified": "2023-09-05T17:41:57.435777+10:00"}, {"id": 81295, "name": "Danny Goldberg", "roles_in_work": [{"id": 2164327, "title": "No nukes", "work_id": 95279, "role": "co-director", "role_id": 959, "is_primary": true}, {"id": 2164326, "title": "No nukes", "work_id": 95279, "role": "co-producer", "role_id": 915, "is_primary": true}], "also_known_as": "", "date_of_birth": "1950", "date_of_death": "", "genders": [], "languages": [], "places_of_operation": [], "biography": "", "biography_author": null, "date_of_biography": "2023-05-09T14:22:12.709377+10:00", "external_links": [], "uuid": "316dc273-b6f8-4d9b-bb41-b23ea003ecf8", "source": {"name": "Vernon", "slug": "vernon"}, "source_identifier": "17425", "external_references": [{"id": 32336, "source": {"name": "Wikidata", "slug": "wikidata"}, "source_identifier": "Q117861510"}], "date_modified": "2023-09-05T18:53:11.455397+10:00"}, {"id": 81294, "name": "Christopher Mould", "roles_in_work": [{"id": 2165315, "title": "Mojo working: Jimi Hendrix 1942-1970", "work_id": 95275, "role": "co-producer", "role_id": 915, "is_primary": true}], "also_known_as": "", "date_of_birth": "", "date_of_death": "", "genders": [], "languages": [], "places_of_operation": [], "biography": "", "biography_author": null, "date_of_biography": "2023-05-09T14:24:17.027032+10:00", "external_links": [], "uuid": "53d0f4b6-638a-465f-90cf-0d8fe8bbf839", "source": {"name": "Vernon", "slug": "vernon"}, "source_identifier": "16980", "external_references": [{"id": 38874, "source": {"name": "Wikidata", "slug": "wikidata"}, "source_identifier": "Q121222546"}], "date_modified": "2023-09-05T18:36:28.776030+10:00"}]}