{"count": 28687, "next": "https://api.acmi.net.au/creators/?page=2259", "previous": "https://api.acmi.net.au/creators/?page=2257", "results": [{"id": 17547, "name": "Kay Laboratories", "roles_in_work": [{"id": 2467955, "title": "The Referee", "work_id": 72112, "role": "production company", "role_id": 941, "is_primary": true}], "also_known_as": "", "date_of_birth": "", "date_of_death": "", "genders": [], "languages": [], "places_of_operation": [], "biography": "", "biography_author": null, "date_of_biography": "2023-08-14T11:30:50.900869+10:00", "external_links": [], "uuid": "a416f382-0358-4ab4-b10d-7396c02dd6fb", "source": {"name": "Vernon", "slug": "vernon"}, "source_identifier": "9709", "external_references": [], "date_modified": "2023-08-14T11:30:50.901152+10:00"}, {"id": 17543, "name": "Peter Hamilton Productions", "roles_in_work": [{"id": 2246697, "title": "Reedy river", "work_id": 72110, "role": "production company", "role_id": 941, "is_primary": true}], "also_known_as": "", "date_of_birth": "", "date_of_death": "", "genders": [], "languages": [], "places_of_operation": [], "biography": "", "biography_author": null, "date_of_biography": "2023-05-09T17:04:05.083058+10:00", "external_links": [], "uuid": "c93689d4-0b80-4b83-b437-2b34a9e13f52", "source": {"name": "Vernon", "slug": "vernon"}, "source_identifier": "11423", "external_references": [{"id": 38167, "source": {"name": "Wikidata", "slug": "wikidata"}, "source_identifier": "Q121079581"}], "date_modified": "2023-09-05T23:57:13.113881+10:00"}, {"id": 17541, "name": "Lucien Peroisy", "roles_in_work": [{"id": 2465261, "title": "Rediscovered harmonies", "work_id": 72108, "role": "director", "role_id": 938, "is_primary": true}], "also_known_as": "", "date_of_birth": "", "date_of_death": "", "genders": [], "languages": [], "places_of_operation": [], "biography": "", "biography_author": null, "date_of_biography": "2023-08-14T10:30:51.017179+10:00", "external_links": [], "uuid": "d08c7d3d-b075-4637-8889-670959f02e9f", "source": {"name": "Vernon", "slug": "vernon"}, "source_identifier": "24075", "external_references": [], "date_modified": "2023-08-14T10:30:51.017521+10:00"}, {"id": 17540, "name": "Sofidoc S A", "roles_in_work": [{"id": 2465260, "title": "Rediscovered harmonies", "work_id": 72108, "role": "production company", "role_id": 941, "is_primary": true}], "also_known_as": "", "date_of_birth": "", "date_of_death": "", "genders": [], "languages": [], "places_of_operation": [], "biography": "", "biography_author": null, "date_of_biography": "2023-08-14T10:30:50.213565+10:00", "external_links": [], "uuid": "0b567459-0456-4b36-ad2f-92ff621027fd", "source": {"name": "Vernon", "slug": "vernon"}, "source_identifier": "12710", "external_references": [], "date_modified": "2023-08-14T10:30:50.213859+10:00"}, {"id": 17538, "name": "Viking Films", "roles_in_work": [{"id": 760345, "title": "Walter the lazy mouse", "work_id": 75789, "role": "production company", "role_id": 941, "is_primary": true}, {"id": 2413671, "title": "Journey into time", "work_id": 95880, "role": "production company", "role_id": 941, "is_primary": true}, {"id": 751837, "title": "Red and black", "work_id": 72099, "role": "production company", "role_id": 941, "is_primary": true}], "also_known_as": "", "date_of_birth": "", "date_of_death": "", "genders": [], "languages": [], "places_of_operation": [], "biography": "", "biography_author": null, "date_of_biography": "2023-08-11T19:01:30.301400+10:00", "external_links": [], "uuid": "38c36e16-efa6-4cbc-babd-7f4ee1b9a5a5", "source": {"name": "Vernon", "slug": "vernon"}, "source_identifier": "14142", "external_references": [], "date_modified": "2023-08-11T19:01:30.301731+10:00"}, {"id": 17535, "name": "Ted Nemeth Studios", "roles_in_work": [{"id": 2466443, "title": "Teaching crutch walking", "work_id": 73548, "role": "production company", "role_id": 941, "is_primary": true}, {"id": 751830, "title": "Nursing: recreational and cccupational therapy", "work_id": 72095, "role": "production company", "role_id": 941, "is_primary": true}, {"id": 872333, "title": "Bathing the patient (home care)", "work_id": 87557, "role": "production company", "role_id": 941, "is_primary": true}], "also_known_as": "", "date_of_birth": "", "date_of_death": "", "genders": [], "languages": [], "places_of_operation": [], "biography": "", "biography_author": null, "date_of_biography": "2023-08-14T10:57:24.082230+10:00", "external_links": [], "uuid": "b203a648-4a92-4091-8d27-08f824067fa7", "source": {"name": "Vernon", "slug": "vernon"}, "source_identifier": "4202", "external_references": [], "date_modified": "2023-08-14T10:57:24.082492+10:00"}, {"id": 17533, "name": "Ayerst Medical Information Service", "roles_in_work": [{"id": 2465256, "title": "Recognising strabismus", "work_id": 72092, "role": "production company", "role_id": 941, "is_primary": true}], "also_known_as": "", "date_of_birth": "", "date_of_death": "", "genders": [], "languages": [], "places_of_operation": [], "biography": "", "biography_author": null, "date_of_biography": "2023-08-14T10:30:42.693791+10:00", "external_links": [], "uuid": "dc8f3312-8809-4854-b131-92f994849d9d", "source": {"name": "Vernon", "slug": "vernon"}, "source_identifier": "5649", "external_references": [], "date_modified": "2023-08-14T10:30:42.694202+10:00"}, {"id": 17532, "name": "Science Research Association", "roles_in_work": [{"id": 2762379, "title": "Withdrawal behaviour (TEFC)", "work_id": 74821, "role": "production company", "role_id": 941, "is_primary": true}, {"id": 2762354, "title": "Reciprocating behavior (TEFC)", "work_id": 72091, "role": "production company", "role_id": 941, "is_primary": true}], "also_known_as": "", "date_of_birth": "", "date_of_death": "", "genders": [], "languages": [], "places_of_operation": [], "biography": "", "biography_author": null, "date_of_biography": "2023-08-11T15:32:39.074844+10:00", "external_links": [], "uuid": "f8222e02-8db8-4863-9790-87d730ad5d8f", "source": {"name": "Vernon", "slug": "vernon"}, "source_identifier": "12348", "external_references": [], "date_modified": "2025-03-14T17:37:55.379140+11:00"}, {"id": 17526, "name": "Spottswood Studios", "roles_in_work": [{"id": 2467947, "title": "The Real Mobile", "work_id": 72081, "role": "production company", "role_id": 941, "is_primary": true}], "also_known_as": "", "date_of_birth": "", "date_of_death": "", "genders": [], "languages": [], "places_of_operation": [], "biography": "", "biography_author": null, "date_of_biography": "2023-08-14T11:30:39.728649+10:00", "external_links": [], "uuid": "00ac3d57-f681-4505-95e5-3668d86e3f95", "source": {"name": "Vernon", "slug": "vernon"}, "source_identifier": "12877", "external_references": [], "date_modified": "2023-08-14T11:30:39.729006+10:00"}, {"id": 17525, "name": "Stuart Harris", "roles_in_work": [{"id": 2761725, "title": "The Real bionic man", "work_id": 72080, "role": "producer", "role_id": 1089, "is_primary": true}, {"id": 2761374, "title": "Anatomy of a volcano", "work_id": 98846, "role": "producer", "role_id": 1089, "is_primary": true}], "also_known_as": "", "date_of_birth": "", "date_of_death": "", "genders": [], "languages": [], "places_of_operation": [], "biography": "", "biography_author": null, "date_of_biography": "2023-05-09T19:54:37.108352+10:00", "external_links": [], "uuid": "7d3ad862-e33d-4a76-9c78-3b1c4bf93058", "source": {"name": "Vernon", "slug": "vernon"}, "source_identifier": "29258", "external_references": [{"id": 36593, "source": {"name": "Wikidata", "slug": "wikidata"}, "source_identifier": "Q121314942"}], "date_modified": "2025-03-14T17:34:55.765476+11:00"}]}