{"count": 28687, "next": "https://api.acmi.net.au/creators/?page=825", "previous": "https://api.acmi.net.au/creators/?page=823", "results": [{"id": 77343, "name": "Robert Emmett Dolan", "roles_in_work": [{"id": 2476297, "title": "White Christmas", "work_id": 83157, "role": "producer", "role_id": 1089, "is_primary": true}], "also_known_as": "", "date_of_birth": "1908-08-03", "date_of_death": "1972-09-26", "genders": [{"id": 9, "name": "Male", "slug": "male"}], "languages": [{"id": 1, "name": "English", "slug": "english"}], "places_of_operation": [{"id": 1, "name": "United States of America", "slug": "united-states-of-america"}], "biography": "Robert Emmett Dolan (August 3, 1908 - September 26, 1972) was a Broadway conductor, composer, and arranger beginning in the 1920s. He moved on to radio in the 1930s and then went to Hollywood  in the early 1940s as a musical director for Paramount. He scored, arranged, and conducted many musical and dramatic films in the 1940s and 1950s and produced three musicals. At the end of his career, he returned to the stage –  where he had begun.", "biography_author": "Wikidata", "date_of_biography": "2023-09-06T00:41:06.266390+10:00", "external_links": [{"id": 2974, "uri": "https://en.wikipedia.org/wiki/Robert_E._Dolan"}], "uuid": "011c9cde-c63c-4245-9a99-045ec4b222ea", "source": {"name": "Vernon", "slug": "vernon"}, "source_identifier": "27711", "external_references": [{"id": 12629, "source": {"name": "Wikidata", "slug": "wikidata"}, "source_identifier": "Q2157024"}, {"id": 12630, "source": {"name": "VIAF", "slug": "viaf"}, "source_identifier": "42030538"}, {"id": 12631, "source": {"name": "LOC Auth", "slug": "loc-auth"}, "source_identifier": "no93017589"}, {"id": 12632, "source": {"name": "WorldCat", "slug": "worldcat"}, "source_identifier": "lccn-no93017589"}], "date_modified": "2023-09-06T00:41:08.354789+10:00"}, {"id": 77342, "name": "Katinka Farago", "roles_in_work": [{"id": 1987090, "title": "Leningrad Cowboys go America", "work_id": 83152, "role": "co-producer", "role_id": 915, "is_primary": true}], "also_known_as": "", "date_of_birth": "1936-12-16", "date_of_death": null, "genders": [{"id": 5, "name": "Female", "slug": "female"}], "languages": [], "places_of_operation": [{"id": 39, "name": "Austria", "slug": "austria"}], "biography": "Katerina \"Katinka\" Faragó (born 16 December 1936) is a Swedish film producer. She was a member of the jury at the 43rd Berlin International Film Festival.", "biography_author": "Wikidata", "date_of_biography": "2022-05-19T12:09:45.928179+10:00", "external_links": [{"id": 2510, "uri": "https://en.wikipedia.org/wiki/Katinka_Farag%C3%B3"}], "uuid": "c1c88acd-61d9-4f3e-8c03-513adaf3096b", "source": {"name": "Vernon", "slug": "vernon"}, "source_identifier": "23098", "external_references": [{"id": 10730, "source": {"name": "Wikidata", "slug": "wikidata"}, "source_identifier": "Q1105516"}, {"id": 10731, "source": {"name": "VIAF", "slug": "viaf"}, "source_identifier": "31809082"}, {"id": 10732, "source": {"name": "LOC Auth", "slug": "loc-auth"}, "source_identifier": "no2008082519"}, {"id": 10733, "source": {"name": "WorldCat", "slug": "worldcat"}, "source_identifier": "lccn-no2008082519"}], "date_modified": "2023-09-05T22:02:43.616636+10:00"}, {"id": 77341, "name": "Klas Oloffson", "roles_in_work": [{"id": 1987088, "title": "Leningrad Cowboys go America", "work_id": 83152, "role": "co-producer", "role_id": 915, "is_primary": true}], "also_known_as": "", "date_of_birth": null, "date_of_death": null, "genders": [], "languages": [], "places_of_operation": [], "biography": "", "biography_author": null, "date_of_biography": null, "external_links": [], "uuid": "6055699f-4b6d-4745-a1b8-fd1d732bd42e", "source": {"name": "Vernon", "slug": "vernon"}, "source_identifier": null, "external_references": [{"id": 32584, "source": {"name": "Wikidata", "slug": "wikidata"}, "source_identifier": "Q121270865"}], "date_modified": "2023-09-05T22:10:58.951826+10:00"}, {"id": 77340, "name": "Angelo Badalamenti", "roles_in_work": [{"id": 2614099, "title": "Industrial symphony no. 1: dream of the broken hearted", "work_id": 83150, "role": "co-producer", "role_id": 915, "is_primary": true}], "also_known_as": "Angelo Daniel Badalamenti", "date_of_birth": "1937-03-22", "date_of_death": "2022-12-11", "genders": [{"id": 9, "name": "Male", "slug": "male"}], "languages": [{"id": 1, "name": "English", "slug": "english"}], "places_of_operation": [{"id": 1, "name": "United States of America", "slug": "united-states-of-america"}], "biography": "Angelo Daniel Badalamenti (March 22, 1937 – December 11, 2022) was an American composer and arranger best known for his work in composing for films. He is best known for his acclaimed collaborations with director David Lynch, notably the scores for Blue Velvet (1986), the Twin Peaks television series (both the original 1990–1992 television series and the 2017 revival), The Straight Story (1999), and Mulholland Drive (2001).Badalamenti also composed scores for such films as National Lampoon's Christmas Vacation (1989), The City of Lost Children (1995), Holy Smoke! (1999), and A Very Long Engagement (2004). He also recorded songs with artists including Julee Cruise (in collaboration with Lynch), Nina Simone, Shirley Bassey, Pet Shop Boys, Dusty Springfield, Marianne Faithfull, David Bowie, Tim Booth, Siouxsie Sioux and Dolores O'Riordan.\n\nIn 1990, Badalamenti received the Grammy Award for Best Pop Instrumental Performance for his \"Twin Peaks Theme\" at the 32nd Annual Grammy Awards. Badalamenti received a lifetime achievement award from the World Soundtrack Awards's Academy in 2008 and the Henry Mancini Award from the American Society of Composers, Authors and Publishers in 2011.; 17/08/2023", "biography_author": null, "date_of_biography": "2025-02-26T20:06:40.771142+11:00", "external_links": [{"id": 3561, "uri": "https://en.wikipedia.org/wiki/Angelo_Badalamenti"}], "uuid": "3bc5db03-930b-4ba8-add3-5b5b456891bc", "source": {"name": "Vernon", "slug": "vernon"}, "source_identifier": "15266", "external_references": [{"id": 26559, "source": {"name": "Wikidata", "slug": "wikidata"}, "source_identifier": "Q357014"}, {"id": 27288, "source": {"name": "VIAF", "slug": "viaf"}, "source_identifier": "32187134"}, {"id": 27289, "source": {"name": "LOC Auth", "slug": "loc-auth"}, "source_identifier": "n92029815"}, {"id": 27290, "source": {"name": "WorldCat", "slug": "worldcat"}, "source_identifier": "lccn-n92029815"}], "date_modified": "2025-02-26T20:06:40.771470+11:00"}, {"id": 77339, "name": "Kathy Fitzgerald", "roles_in_work": [{"id": 2288405, "title": "Wise blood", "work_id": 83144, "role": "co-producer", "role_id": 915, "is_primary": true}], "also_known_as": "", "date_of_birth": "", "date_of_death": "", "genders": [], "languages": [], "places_of_operation": [], "biography": "", "biography_author": null, "date_of_biography": "2023-05-09T18:14:06.110811+10:00", "external_links": [], "uuid": "a2b3990f-5a89-41df-8732-cba686f9784b", "source": {"name": "Vernon", "slug": "vernon"}, "source_identifier": "4272", "external_references": [{"id": 38504, "source": {"name": "Wikidata", "slug": "wikidata"}, "source_identifier": "Q121298944"}], "date_modified": "2023-09-05T22:02:32.711599+10:00"}, {"id": 77338, "name": "Michael Fitzgerald", "roles_in_work": [{"id": 2475641, "title": "The Pledge", "work_id": 93630, "role": "co-producer", "role_id": 915, "is_primary": true}, {"id": 2288401, "title": "Wise blood", "work_id": 83144, "role": "co-producer", "role_id": 915, "is_primary": true}], "also_known_as": "", "date_of_birth": "", "date_of_death": "", "genders": [], "languages": [], "places_of_operation": [], "biography": "", "biography_author": null, "date_of_biography": "2023-08-17T15:10:55.107426+10:00", "external_links": [], "uuid": "4adc093f-bc26-4acd-8d76-b616ddf256b1", "source": {"name": "Vernon", "slug": "vernon"}, "source_identifier": "4271", "external_references": [{"id": 32860, "source": {"name": "Wikidata", "slug": "wikidata"}, "source_identifier": "Q121086102"}], "date_modified": "2023-09-05T23:04:45.653365+10:00"}, {"id": 77337, "name": "Griffin Dunne", "roles_in_work": [{"id": 2258913, "title": "Running on empty", "work_id": 83141, "role": "co-producer", "role_id": 915, "is_primary": true}, {"id": 2082866, "title": "After hours", "work_id": 88684, "role": "co-producer", "role_id": 915, "is_primary": true}], "also_known_as": "", "date_of_birth": "1955-06-08", "date_of_death": "", "genders": [{"id": 9, "name": "Male", "slug": "male"}], "languages": [{"id": 1, "name": "English", "slug": "english"}], "places_of_operation": [{"id": 1, "name": "United States of America", "slug": "united-states-of-america"}], "biography": "Thomas Griffin Dunne (; born June 8, 1955) is an American actor, film producer, and film director. Dunne studied acting at The Neighborhood Playhouse School of the Theatre in New York City. He is known for portraying Jack Goodman in An American Werewolf in London (1981) and Paul Hackett in After Hours (1985), for which he was nominated for the Golden Globe Award for Best Actor – Motion Picture Musical or Comedy.", "biography_author": "Wikidata", "date_of_biography": "2023-08-01T15:06:05.852162+10:00", "external_links": [{"id": 2167, "uri": "https://en.wikipedia.org/wiki/Griffin_Dunne"}], "uuid": "cdcc699d-1726-41dc-bb52-a71305f4d2a4", "source": {"name": "Vernon", "slug": "vernon"}, "source_identifier": "20096", "external_references": [{"id": 9326, "source": {"name": "Wikidata", "slug": "wikidata"}, "source_identifier": "Q470260"}, {"id": 9327, "source": {"name": "VIAF", "slug": "viaf"}, "source_identifier": "107686764"}, {"id": 9328, "source": {"name": "LOC Auth", "slug": "loc-auth"}, "source_identifier": "no00067101"}, {"id": 9329, "source": {"name": "WorldCat", "slug": "worldcat"}, "source_identifier": "lccn-no00067101"}], "date_modified": "2023-09-05T20:23:45.035153+10:00"}, {"id": 77336, "name": "Amy Robinson", "roles_in_work": [{"id": 928584, "title": "For the love of the game", "work_id": 94104, "role": "co-producer", "role_id": 915, "is_primary": true}, {"id": 2258909, "title": "Running on empty", "work_id": 83141, "role": "co-producer", "role_id": 915, "is_primary": true}, {"id": 2082864, "title": "After hours", "work_id": 88684, "role": "co-producer", "role_id": 915, "is_primary": true}], "also_known_as": "", "date_of_birth": "1948-04-13", "date_of_death": "", "genders": [{"id": 5, "name": "Female", "slug": "female"}], "languages": [{"id": 1, "name": "English", "slug": "english"}], "places_of_operation": [{"id": 1, "name": "United States of America", "slug": "united-states-of-america"}], "biography": "Amy Robinson (born April 13, 1948) is an American actress and film producer.", "biography_author": "Wikidata", "date_of_biography": "2023-08-01T14:00:57.899627+10:00", "external_links": [{"id": 1625, "uri": "https://en.wikipedia.org/wiki/Amy_Robinson"}], "uuid": "3418e778-331d-4a3c-bd1b-5b6df107cd91", "source": {"name": "Vernon", "slug": "vernon"}, "source_identifier": "15078", "external_references": [{"id": 7099, "source": {"name": "Wikidata", "slug": "wikidata"}, "source_identifier": "Q3614747"}, {"id": 7100, "source": {"name": "VIAF", "slug": "viaf"}, "source_identifier": "73448485"}, {"id": 7101, "source": {"name": "LOC Auth", "slug": "loc-auth"}, "source_identifier": "no96042220"}, {"id": 7102, "source": {"name": "WorldCat", "slug": "worldcat"}, "source_identifier": "lccn-no96042220"}], "date_modified": "2023-09-05T17:32:20.989407+10:00"}, {"id": 77335, "name": "Henry Cornelius", "roles_in_work": [{"id": 2788609, "title": "Passport to Pimlico", "work_id": 83125, "role": "director", "role_id": 938, "is_primary": true}, {"id": 2788619, "title": "Hue and cry", "work_id": 85183, "role": "co-producer", "role_id": 915, "is_primary": true}, {"id": 1998159, "title": "Genevieve", "work_id": 93649, "role": "producer/director", "role_id": 31, "is_primary": true}], "also_known_as": "", "date_of_birth": "18 AUG 1913", "date_of_death": "02 MAY 1958", "genders": [{"id": 9, "name": "Male", "slug": "male"}], "languages": [{"id": 1, "name": "English", "slug": "english"}], "places_of_operation": [{"id": 10, "name": "United Kingdom", "slug": "united-kingdom"}], "biography": "Henry Cornelius (born Owen Henry Cornelius 18 August 1913 – 2 May 1958) was a South African-born film director, producer, screenwriter and film editor. He directed five films between 1949 and 1958. Source: Wikidata; 01/08/2023", "biography_author": null, "date_of_biography": "2025-03-14T19:45:09.690679+11:00", "external_links": [{"id": 2221, "uri": "https://en.wikipedia.org/wiki/Henry_Cornelius"}], "uuid": "e6fff517-4be6-4a12-b206-f8210759295c", "source": {"name": "Vernon", "slug": "vernon"}, "source_identifier": "20481", "external_references": [{"id": 9541, "source": {"name": "Wikidata", "slug": "wikidata"}, "source_identifier": "Q750768"}, {"id": 9542, "source": {"name": "VIAF", "slug": "viaf"}, "source_identifier": "59289510"}, {"id": 9543, "source": {"name": "LOC Auth", "slug": "loc-auth"}, "source_identifier": "no2005010969"}, {"id": 9544, "source": {"name": "WorldCat", "slug": "worldcat"}, "source_identifier": "lccn-no2005010969"}], "date_modified": "2025-03-14T19:45:09.690999+11:00"}, {"id": 77334, "name": "Michael Lehmann", "roles_in_work": [{"id": 1986952, "title": "Heathers", "work_id": 83115, "role": "director", "role_id": 938, "is_primary": true}, {"id": 2295056, "title": "The Truth about cats and dogs", "work_id": 90424, "role": "director", "role_id": 938, "is_primary": true}, {"id": 1848434, "title": "The West wing. Season 1. Eps. 01-04", "work_id": 94328, "role": "co-director", "role_id": 959, "is_primary": true}], "also_known_as": "", "date_of_birth": "1957-03-30", "date_of_death": "", "genders": [{"id": 9, "name": "Male", "slug": "male"}], "languages": [], "places_of_operation": [{"id": 1, "name": "United States of America", "slug": "united-states-of-america"}], "biography": "Michael Stephen Lehmann (born March 30, 1957) is an American film and television director known for directing the dark comedy Heathers.", "biography_author": "Wikidata", "date_of_biography": "2023-08-01T16:14:40.004435+10:00", "external_links": [{"id": 4696, "uri": "https://en.wikipedia.org/wiki/Michael_Lehmann"}], "uuid": "ba712f1b-c7a9-41cf-9ea5-d864aa749972", "source": {"name": "Vernon", "slug": "vernon"}, "source_identifier": "25138", "external_references": [{"id": 26792, "source": {"name": "Wikidata", "slug": "wikidata"}, "source_identifier": "Q717498"}, {"id": 30324, "source": {"name": "VIAF", "slug": "viaf"}, "source_identifier": "103116767"}, {"id": 30325, "source": {"name": "LOC Auth", "slug": "loc-auth"}, "source_identifier": "no98119859"}, {"id": 30326, "source": {"name": "WorldCat", "slug": "worldcat"}, "source_identifier": "lccn-no98119859"}], "date_modified": "2023-09-05T23:06:47.224229+10:00"}]}