{"count": 28687, "next": "https://api.acmi.net.au/creators/?page=875", "previous": "https://api.acmi.net.au/creators/?page=873", "results": [{"id": 76842, "name": "Cyd Charisse", "roles_in_work": [{"id": 2300359, "title": "Silk stockings", "work_id": 87800, "role": "cast", "role_id": 33, "is_primary": false}, {"id": 2329396, "title": "The Band Wagon", "work_id": 81220, "role": "cast", "role_id": 33, "is_primary": false}], "also_known_as": "Tula Ellice Finklea", "date_of_birth": "1921-03-08", "date_of_death": "2008-06-16", "genders": [{"id": 5, "name": "Female", "slug": "female"}], "languages": [{"id": 1, "name": "English", "slug": "english"}], "places_of_operation": [{"id": 1, "name": "United States of America", "slug": "united-states-of-america"}], "biography": "Cyd Charisse (born Tula Ellice Finklea; March 8, 1922 – June 17, 2008) was an American dancer and actress.\nAfter recovering from polio as a child and studying ballet, Charisse entered films in the 1940s. Her roles usually featured her abilities as a dancer, and she was paired with Fred Astaire and Gene Kelly; her films include Singin' in the Rain (1952), The Band Wagon (1953), Brigadoon with Gene Kelly and Van Johnson (1954) and Silk Stockings (1957). She stopped dancing in films in the late 1950s, but continued acting in film and television, and in 1991 made her Broadway debut. In her later years, she discussed the history of the Hollywood musical in documentaries, and was featured in That's Entertainment! III in 1994. She was awarded the National Medal of the Arts and Humanities in 2006.", "biography_author": "Wikidata", "date_of_biography": "2023-08-01T14:31:14.753430+10:00", "external_links": [{"id": 3808, "uri": "https://en.wikipedia.org/wiki/Cyd_Charisse"}], "uuid": "34a4cc0f-7535-41b7-bd29-d3225060dc01", "source": {"name": "Vernon", "slug": "vernon"}, "source_identifier": "32490", "external_references": [{"id": 26715, "source": {"name": "Wikidata", "slug": "wikidata"}, "source_identifier": "Q62558"}, {"id": 27955, "source": {"name": "VIAF", "slug": "viaf"}, "source_identifier": "56795632"}, {"id": 27956, "source": {"name": "LOC Auth", "slug": "loc-auth"}, "source_identifier": "n85376560"}, {"id": 27957, "source": {"name": "WorldCat", "slug": "worldcat"}, "source_identifier": "lccn-n85376560"}], "date_modified": "2023-09-05T18:47:49.036179+10:00"}, {"id": 76841, "name": "Howard Ashman", "roles_in_work": [{"id": 1985618, "title": "The Little Mermaid (Captioned)", "work_id": 81355, "role": "co-producer", "role_id": 915, "is_primary": true}, {"id": 1985309, "title": "The Little mermaid", "work_id": 81217, "role": "co-producer", "role_id": 915, "is_primary": true}], "also_known_as": "Howard Elliott Ashman", "date_of_birth": "1950-05-17", "date_of_death": "1991-03-14", "genders": [{"id": 9, "name": "Male", "slug": "male"}], "languages": [{"id": 1, "name": "English", "slug": "english"}], "places_of_operation": [{"id": 1, "name": "United States of America", "slug": "united-states-of-america"}], "biography": "Howard Elliott Ashman (May 17, 1950 – March 14, 1991) was an American playwright, lyricist and stage director. He is most widely known for his work on feature films for Walt Disney Animation Studios, for which Ashman wrote the lyrics and Alan Menken composed the music. Ashman has been credited as being a main driving force behind the Disney Renaissance. His work included songs for Little Shop of Horrors, The Little Mermaid, Beauty and the Beast, and Aladdin. Tim Rice took over to write the rest of the songs for the latter film after Ashman's death in 1991.", "biography_author": "Wikidata", "date_of_biography": "2023-08-01T15:12:13.509386+10:00", "external_links": [{"id": 4165, "uri": "https://en.wikipedia.org/wiki/Howard_Ashman"}], "uuid": "d0048f6e-7b42-424c-9e45-b9c9017e1252", "source": {"name": "Vernon", "slug": "vernon"}, "source_identifier": "20605", "external_references": [{"id": 25358, "source": {"name": "Wikidata", "slug": "wikidata"}, "source_identifier": "Q1334295"}, {"id": 28938, "source": {"name": "VIAF", "slug": "viaf"}, "source_identifier": "265031685"}, {"id": 28939, "source": {"name": "LOC Auth", "slug": "loc-auth"}, "source_identifier": "n78033738"}, {"id": 28940, "source": {"name": "WorldCat", "slug": "worldcat"}, "source_identifier": "lccn-n78033738"}], "date_modified": "2023-09-05T20:41:22.497478+10:00"}, {"id": 76840, "name": "Edward Black", "roles_in_work": [{"id": 1999712, "title": "The Man in grey", "work_id": 94667, "role": "producer", "role_id": 1089, "is_primary": true}, {"id": 2290165, "title": "Two thousand women", "work_id": 84429, "role": "producer", "role_id": 1089, "is_primary": true}, {"id": 2228465, "title": "Fanny By Gaslight", "work_id": 81215, "role": "producer", "role_id": 1089, "is_primary": true}, {"id": 2270847, "title": "Young and Innocent = a Girl Was Young", "work_id": 81351, "role": "producer", "role_id": 1089, "is_primary": true}, {"id": 2350919, "title": "The Ghost train", "work_id": 95430, "role": "producer", "role_id": 1089, "is_primary": true}], "also_known_as": "", "date_of_birth": "1900-08-18", "date_of_death": "1948-11-30", "genders": [{"id": 9, "name": "Male", "slug": "male"}], "languages": [{"id": 1, "name": "English", "slug": "english"}], "places_of_operation": [{"id": 10, "name": "United Kingdom", "slug": "united-kingdom"}], "biography": "Edward Black (18 August 1900, Birmingham – 30 November 1948, London) was a British film producer, best known for being head of production at Gainsborough Studios in the late 1930s and early 1940s, during which time he oversaw production of the Gainsborough melodramas. He also produced such classic films as The Lady Vanishes (1938). Black has been called \"one of the unsung heroes of the British film industry\" and \"one of the greatest figures in British film history, the maker of stars like Margaret Lockwood, James Mason, John Mills and Stewart Granger. He was also one of the very few producers whose films, over a considerable period, made money.\" In 1946 Mason called Black \"the one good production executive\" that J. Arthur Rank had. Frank Launder called Black \"a great showman and yet he had a great feeling for scripts and spent more time on them than anyone I have ever known. His experimental films used to come off as successful as his others.\"Black specialized in making comedies, thrillers and low-budget musicals. He had a lot of success making comedy vehicles for stars such as Will Hay and Arthur Askey. He also produced early films from Carol Reed and Alfred Hitchcock and was an early supporter of writer directors Sidney Gilliat and Frank Launder.", "biography_author": "Wikidata", "date_of_biography": "2023-08-01T14:44:52.425029+10:00", "external_links": [{"id": 1974, "uri": "https://en.wikipedia.org/wiki/Edward_Black_(producer)"}], "uuid": "221760e2-2900-4508-9ceb-9cd6e05a28c0", "source": {"name": "Vernon", "slug": "vernon"}, "source_identifier": "18582", "external_references": [{"id": 8540, "source": {"name": "Wikidata", "slug": "wikidata"}, "source_identifier": "Q5341908"}, {"id": 8541, "source": {"name": "VIAF", "slug": "viaf"}, "source_identifier": "144245664"}, {"id": 8542, "source": {"name": "LOC Auth", "slug": "loc-auth"}, "source_identifier": "nr97035349"}, {"id": 8543, "source": {"name": "WorldCat", "slug": "worldcat"}, "source_identifier": "lccn-nr97035349"}], "date_modified": "2023-09-05T19:25:41.199120+10:00"}, {"id": 76839, "name": "Claus Viller", "roles_in_work": [{"id": 2138300, "title": "Cinderella = La Cenerentola", "work_id": 81204, "role": "co-director", "role_id": 959, "is_primary": true}], "also_known_as": "", "date_of_birth": "", "date_of_death": "", "genders": [], "languages": [], "places_of_operation": [], "biography": "", "biography_author": null, "date_of_biography": "2023-05-09T13:33:10.470950+10:00", "external_links": [], "uuid": "1fa800be-0ed1-49b9-a81a-13212054fa4a", "source": {"name": "Vernon", "slug": "vernon"}, "source_identifier": "17100", "external_references": [{"id": 38011, "source": {"name": "Wikidata", "slug": "wikidata"}, "source_identifier": "Q121079279"}], "date_modified": "2023-09-05T18:41:57.583302+10:00"}, {"id": 76838, "name": "Peter Clifton", "roles_in_work": [{"id": 1847765, "title": "The Song remains the same [Led Zeppelin: in concert and beyond] (S)", "work_id": 88115, "role": "co-director", "role_id": 959, "is_primary": true}, {"id": 2065063, "title": "60's Rock Legends", "work_id": 81202, "role": "producer/director", "role_id": 31, "is_primary": true}, {"id": 2318548, "title": "Superstars in concert", "work_id": 95451, "role": "producer/director", "role_id": 31, "is_primary": true}], "also_known_as": "", "date_of_birth": "", "date_of_death": "", "genders": [], "languages": [], "places_of_operation": [], "biography": "", "biography_author": null, "date_of_biography": "2023-05-09T19:08:41.452910+10:00", "external_links": [], "uuid": "e722ceda-1c3b-492c-82eb-b566be0b844f", "source": {"name": "Vernon", "slug": "vernon"}, "source_identifier": "26497", "external_references": [{"id": 51662, "source": {"name": "Wikidata", "slug": "wikidata"}, "source_identifier": "Q121361060"}], "date_modified": "2023-09-05T23:55:01.485282+10:00"}, {"id": 76837, "name": "Shirley Jones", "roles_in_work": [{"id": 2476430, "title": "Oklahoma!", "work_id": 81198, "role": "cast", "role_id": 33, "is_primary": false}], "also_known_as": "", "date_of_birth": "1934-03-31", "date_of_death": "", "genders": [{"id": 5, "name": "Female", "slug": "female"}], "languages": [{"id": 1, "name": "English", "slug": "english"}], "places_of_operation": [{"id": 1, "name": "United States of America", "slug": "united-states-of-america"}], "biography": "Shirley Mae Jones (born March 31, 1934) is an American actress and singer. In her six decades in show business, she has starred as wholesome characters in a number of musical films, such as Oklahoma! (1955), Carousel (1956), and The Music Man (1962). She won the Academy Award for Best Supporting Actress for playing a vengeful prostitute in Elmer Gantry (1960). She played the lead role of Shirley Partridge, the widowed mother of five children, in the musical situation-comedy television series The Partridge Family (1970–1974), which co-starred her real-life stepson, David Cassidy, son of Jack Cassidy.", "biography_author": "Wikidata", "date_of_biography": "2023-09-06T01:16:10.998608+10:00", "external_links": [{"id": 5155, "uri": "https://en.wikipedia.org/wiki/Shirley_Jones"}], "uuid": "cf7ba5cb-1f22-43f9-97b3-093acf6c5a5c", "source": {"name": "Vernon", "slug": "vernon"}, "source_identifier": "38202", "external_references": [{"id": 26886, "source": {"name": "Wikidata", "slug": "wikidata"}, "source_identifier": "Q230218"}, {"id": 31503, "source": {"name": "VIAF", "slug": "viaf"}, "source_identifier": "118327710"}, {"id": 31504, "source": {"name": "LOC Auth", "slug": "loc-auth"}, "source_identifier": "n81026232"}, {"id": 31505, "source": {"name": "WorldCat", "slug": "worldcat"}, "source_identifier": "lccn-n81026232"}], "date_modified": "2023-09-06T01:16:13.657126+10:00"}, {"id": 76836, "name": "Eddie Albert", "roles_in_work": [{"id": 2476429, "title": "Oklahoma!", "work_id": 81198, "role": "cast", "role_id": 33, "is_primary": false}], "also_known_as": "Edward Albert Heimberger", "date_of_birth": "1906-04-22", "date_of_death": "2005-05-26", "genders": [{"id": 9, "name": "Male", "slug": "male"}], "languages": [{"id": 1, "name": "English", "slug": "english"}], "places_of_operation": [{"id": 1, "name": "United States of America", "slug": "united-states-of-america"}], "biography": "Edward Albert Heimberger (April 22, 1906 – May 26, 2005) was an American actor and humanitarian. He was twice nominated for the Academy Award for Best Supporting Actor; the first nomination came in 1954 for his performance in Roman Holiday, and the second in 1973 for The Heartbreak Kid. Other well-known screen roles of his include Bing Edwards in the Brother Rat films, traveling salesman Ali Hakim in the musical Oklahoma!, and the sadistic prison warden in 1974's The Longest Yard. He starred as Oliver Wendell Douglas in the 1960s television sitcom Green Acres and as Frank MacBride in the 1970s crime drama Switch. He also had a recurring role as Carlton Travis on Falcon Crest, with Jane Wyman.", "biography_author": "Wikidata", "date_of_biography": "2023-09-05T19:23:26.781750+10:00", "external_links": [{"id": 3926, "uri": "https://en.wikipedia.org/wiki/Eddie_Albert"}], "uuid": "3b14ca18-3126-4e96-a3c2-b0ae416a0eac", "source": {"name": "Vernon", "slug": "vernon"}, "source_identifier": "31447", "external_references": [{"id": 26968, "source": {"name": "Wikidata", "slug": "wikidata"}, "source_identifier": "Q313046"}, {"id": 28287, "source": {"name": "VIAF", "slug": "viaf"}, "source_identifier": "87232860"}, {"id": 28288, "source": {"name": "LOC Auth", "slug": "loc-auth"}, "source_identifier": "n85093872"}, {"id": 28289, "source": {"name": "WorldCat", "slug": "worldcat"}, "source_identifier": "lccn-n85093872"}], "date_modified": "2023-09-05T19:23:28.766185+10:00"}, {"id": 76835, "name": "Gloria Grahame", "roles_in_work": [{"id": 2476428, "title": "Oklahoma!", "work_id": 81198, "role": "cast", "role_id": 33, "is_primary": false}], "also_known_as": "", "date_of_birth": "1923-11-28", "date_of_death": "1981-10-05", "genders": [{"id": 5, "name": "Female", "slug": "female"}], "languages": [{"id": 1, "name": "English", "slug": "english"}], "places_of_operation": [{"id": 1, "name": "United States of America", "slug": "united-states-of-america"}], "biography": "Gloria Grahame Hallward (November 28, 1923 – October 5, 1981) was an American actress. She began her acting career in theatre, and in 1944 made her first film for MGM.\nDespite a featured role in It's a Wonderful Life (1946), MGM did not believe she had the potential for major success, and sold her contract to RKO Studios. Often cast in film noir projects, Grahame was nominated for an Academy Award for Best Supporting Actress for Crossfire (1947), and later won the award for her work in The Bad and the Beautiful (1952). After starring opposite Humphrey Bogart in In A Lonely Place (1950), she achieved her highest profile with Sudden Fear (1952), The Big Heat (1953), Human Desire (1954), and Oklahoma! (1955), but her film career began to wane soon afterwards.\nGrahame returned to work on the stage, but continued to appear in films and television productions, usually in supporting roles.\nIn 1974, she was diagnosed with breast cancer. It went into remission less than a year later and Grahame returned to work. In 1980, the cancer returned, but Grahame refused to accept the diagnosis or seek treatment. Choosing instead to continue working, she traveled to the United Kingdom to appear in a play. Her health, however, declined rapidly. She returned to New York City, where she died in October 1981, aged 57.", "biography_author": "Wikidata", "date_of_biography": "2023-09-05T20:15:45.767080+10:00", "external_links": [{"id": 4080, "uri": "https://en.wikipedia.org/wiki/Gloria_Grahame"}], "uuid": "426a368e-76c2-42f7-930c-cce42bc316ca", "source": {"name": "Vernon", "slug": "vernon"}, "source_identifier": "38201", "external_references": [{"id": 26716, "source": {"name": "Wikidata", "slug": "wikidata"}, "source_identifier": "Q59314"}, {"id": 28700, "source": {"name": "VIAF", "slug": "viaf"}, "source_identifier": "48684"}, {"id": 28701, "source": {"name": "LOC Auth", "slug": "loc-auth"}, "source_identifier": "n86036599"}, {"id": 28702, "source": {"name": "WorldCat", "slug": "worldcat"}, "source_identifier": "lccn-n86036599"}], "date_modified": "2023-09-05T20:15:48.078000+10:00"}, {"id": 76834, "name": "Gordon MacRae", "roles_in_work": [{"id": 2476427, "title": "Oklahoma!", "work_id": 81198, "role": "cast", "role_id": 33, "is_primary": false}], "also_known_as": "", "date_of_birth": "1921-03-12", "date_of_death": "1986-01-24", "genders": [{"id": 9, "name": "Male", "slug": "male"}], "languages": [{"id": 1, "name": "English", "slug": "english"}], "places_of_operation": [{"id": 1, "name": "United States of America", "slug": "united-states-of-america"}], "biography": "Albert Gordon MacRae (March 12, 1921 – January 24, 1986) was an American actor, singer, and television and radio host. He appeared in the film versions of two Rodgers and Hammerstein musicals, Oklahoma! (1955) and Carousel (1956), and played the leading man opposite Doris Day in On Moonlight Bay (1951) and sequel By The Light of the Silvery Moon (1953).", "biography_author": "Wikidata", "date_of_biography": "2023-09-05T20:16:58.342957+10:00", "external_links": [{"id": 4084, "uri": "https://en.wikipedia.org/wiki/Gordon_MacRae"}], "uuid": "552aa134-cb81-4366-96f3-b241bd009157", "source": {"name": "Vernon", "slug": "vernon"}, "source_identifier": "38200", "external_references": [{"id": 27032, "source": {"name": "Wikidata", "slug": "wikidata"}, "source_identifier": "Q1153004"}, {"id": 28712, "source": {"name": "VIAF", "slug": "viaf"}, "source_identifier": "51878770"}, {"id": 28713, "source": {"name": "LOC Auth", "slug": "loc-auth"}, "source_identifier": "n82083548"}, {"id": 28714, "source": {"name": "WorldCat", "slug": "worldcat"}, "source_identifier": "lccn-n82083548"}], "date_modified": "2023-09-05T20:17:00.392567+10:00"}, {"id": 76833, "name": "George Boemler", "roles_in_work": [{"id": 2476425, "title": "Oklahoma!", "work_id": 81198, "role": "editor", "role_id": 918, "is_primary": true}], "also_known_as": "", "date_of_birth": "1902-03-05", "date_of_death": "1968-06-11", "genders": [{"id": 9, "name": "Male", "slug": "male"}], "languages": [], "places_of_operation": [{"id": 1, "name": "United States of America", "slug": "united-states-of-america"}], "biography": "George Boemler (died June 1968) was an American film editor. He edited many films in the 1930s-1960s like Hollywood Party, The Bride Goes Wild, The Power and the Prize, Run Silent, Run Deep, and Five Weeks in a Balloon. He was nominated for an Emmy Award in 1963 for his work on Ben Casey.", "biography_author": "Wikidata", "date_of_biography": "2023-09-05T20:04:11.023450+10:00", "external_links": [{"id": 4039, "uri": "https://en.wikipedia.org/wiki/George_Boemler"}], "uuid": "13a0dd87-8e1c-4219-8328-d15f6266d32b", "source": {"name": "Vernon", "slug": "vernon"}, "source_identifier": "38199", "external_references": [{"id": 25028, "source": {"name": "Wikidata", "slug": "wikidata"}, "source_identifier": "Q1329793"}, {"id": 28589, "source": {"name": "VIAF", "slug": "viaf"}, "source_identifier": "66074261"}, {"id": 28590, "source": {"name": "LOC Auth", "slug": "loc-auth"}, "source_identifier": "no97027766"}, {"id": 28591, "source": {"name": "WorldCat", "slug": "worldcat"}, "source_identifier": "lccn-no97027766"}], "date_modified": "2023-09-05T20:04:11.033138+10:00"}]}