{"count": 28687, "next": "https://api.acmi.net.au/creators/?page=534", "previous": "https://api.acmi.net.au/creators/?page=532", "results": [{"id": 80253, "name": "Frank Frazetta", "roles_in_work": [{"id": 2241401, "title": "Fire and ice [DVD]", "work_id": 93395, "role": "co-producer", "role_id": 915, "is_primary": true}], "also_known_as": "", "date_of_birth": "1928-02-09", "date_of_death": "2010-05-10", "genders": [{"id": 9, "name": "Male", "slug": "male"}], "languages": [{"id": 1, "name": "English", "slug": "english"}], "places_of_operation": [{"id": 1, "name": "United States of America", "slug": "united-states-of-america"}], "biography": "Frank Frazetta (born Frank Frazzetta ; February 9, 1928 – May 10, 2010) was an American fantasy and science fiction artist, noted for comic books, paperback book covers, paintings, posters, LP record album covers, and other media. He is often referred to as the \"Godfather of fantasy art\", and one of the most renowned illustrators of the 20th century. He was also the subject of a 2003 documentary Painting with Fire.\nFrazetta was inducted into the comic book industry's Will Eisner Comic Book Hall of Fame, the Jack Kirby Hall of Fame, the Society of Illustrators Hall of Fame, the Science Fiction Hall of Fame, and was awarded a Life Achievement Award from the World Fantasy Convention.", "biography_author": "Wikidata", "date_of_biography": "2023-08-01T14:51:24.739258+10:00", "external_links": [{"id": 3987, "uri": "https://en.wikipedia.org/wiki/Frank_Frazetta"}], "uuid": "0a4c7ded-a91c-4fe5-b12e-3a276f9a057d", "source": {"name": "Vernon", "slug": "vernon"}, "source_identifier": "19115", "external_references": [{"id": 25448, "source": {"name": "Wikidata", "slug": "wikidata"}, "source_identifier": "Q448205"}, {"id": 28443, "source": {"name": "VIAF", "slug": "viaf"}, "source_identifier": "66467385"}, {"id": 28444, "source": {"name": "LOC Auth", "slug": "loc-auth"}, "source_identifier": "n50025484"}, {"id": 28445, "source": {"name": "WorldCat", "slug": "worldcat"}, "source_identifier": "lccn-n50025484"}], "date_modified": "2023-09-05T19:49:40.691131+10:00"}, {"id": 80252, "name": "Hunt Hoe", "roles_in_work": [{"id": 882881, "title": "Who is Albert Woo?", "work_id": 93391, "role": "director", "role_id": 938, "is_primary": true}], "also_known_as": "", "date_of_birth": null, "date_of_death": null, "genders": [{"id": 9, "name": "Male", "slug": "male"}], "languages": [], "places_of_operation": [{"id": 36, "name": "Canada", "slug": "canada"}], "biography": "", "biography_author": null, "date_of_biography": null, "external_links": [], "uuid": "618ef823-b7d0-4854-8fca-73d272db63d1", "source": {"name": "Vernon", "slug": "vernon"}, "source_identifier": null, "external_references": [{"id": 38743, "source": {"name": "Wikidata", "slug": "wikidata"}, "source_identifier": "Q65970008"}, {"id": 54697, "source": {"name": "VIAF", "slug": "viaf"}, "source_identifier": "9492363"}, {"id": 54698, "source": {"name": "LOC Auth", "slug": "loc-auth"}, "source_identifier": "no2001032943"}, {"id": 54699, "source": {"name": "WorldCat", "slug": "worldcat"}, "source_identifier": "lccn-no2001032943"}], "date_modified": "2023-09-05T20:45:04.833323+10:00"}, {"id": 80251, "name": "Germaine Ying Gee Wong", "roles_in_work": [{"id": 1815636, "title": "Who is Albert Woo?", "work_id": 93391, "role": "producer", "role_id": 1089, "is_primary": true}], "also_known_as": "", "date_of_birth": null, "date_of_death": null, "genders": [], "languages": [], "places_of_operation": [], "biography": "", "biography_author": null, "date_of_biography": null, "external_links": [], "uuid": "0efacb3d-2e8a-488b-be49-6ac35e034f95", "source": {"name": "Vernon", "slug": "vernon"}, "source_identifier": null, "external_references": [{"id": 43472, "source": {"name": "Wikidata", "slug": "wikidata"}, "source_identifier": "Q121126353"}], "date_modified": "2023-09-05T20:10:07.825431+10:00"}, {"id": 80250, "name": "Pierre Rouve", "roles_in_work": [{"id": 1997618, "title": "The Millionairess", "work_id": 93389, "role": "producer", "role_id": 1089, "is_primary": true}], "also_known_as": "", "date_of_birth": "1915-01-12", "date_of_death": "1998-12-11", "genders": [{"id": 9, "name": "Male", "slug": "male"}], "languages": [{"id": 1, "name": "English", "slug": "english"}, {"id": 4, "name": "French", "slug": "french"}, {"id": 5, "name": "German", "slug": "german"}, {"id": 6, "name": "Italian", "slug": "italian"}, {"id": 10, "name": "Spanish", "slug": "spanish"}], "places_of_operation": [{"id": 17, "name": "France", "slug": "france"}], "biography": "", "biography_author": null, "date_of_biography": null, "external_links": [], "uuid": "ea2ecd06-2776-47d1-a33e-2e3e62c89c63", "source": {"name": "Vernon", "slug": "vernon"}, "source_identifier": null, "external_references": [{"id": 51113, "source": {"name": "Wikidata", "slug": "wikidata"}, "source_identifier": "Q12290611"}, {"id": 55550, "source": {"name": "VIAF", "slug": "viaf"}, "source_identifier": "90694746"}, {"id": 55551, "source": {"name": "LOC Auth", "slug": "loc-auth"}, "source_identifier": "no00085301"}, {"id": 55552, "source": {"name": "WorldCat", "slug": "worldcat"}, "source_identifier": "viaf-90694746"}], "date_modified": "2023-09-06T00:11:17.466477+10:00"}, {"id": 80249, "name": "Georg Tressler", "roles_in_work": [{"id": 2475763, "title": "The Magnificent rebel", "work_id": 93382, "role": "director", "role_id": 938, "is_primary": true}], "also_known_as": "", "date_of_birth": "1917-01-25", "date_of_death": "2007-01-06", "genders": [{"id": 9, "name": "Male", "slug": "male"}], "languages": [{"id": 5, "name": "German", "slug": "german"}], "places_of_operation": [{"id": 39, "name": "Austria", "slug": "austria"}], "biography": "Georg Tressler (January 25, 1917 – January 6, 2007) was a Vienna-born German film actor and film director. Also known as George Tressler, Hans Tressler, Hans Dressler, Hans Georg Keil and Hans Sternbeck (per IMDb).\nThe son of actor Otto Tressler, he began his acting career in the 1930s. George Tressler was drafted into the German army during World War II and served on the Russian Front. He became ill and was released from the service and returned to Vienna.\nIn the immediated post-war period Tressler was employed making films to help his Austrian compatriots better understand how to benefit from US Marshall Plan aid.  According to Maria Fritsche, author of \"The American Marshall Plan Film Campaign and the Europeans: A Captivated Audience?\" Tressler took special efforts to find ways to convince his audience accepting US aid was of genuine benefit to them.  In particular, when he found Austrian farmers feared the techniques and technology used in America on much larger American farms was inapplicable to their much smaller farms Tressler found ways to show how those techniques could be adapted to Austrian farms.\nWhen Tressler turned to directing feature films, many of them shared themes of youthful rebellion.  His 1956 film Die Halberstarken/Teenage Wolfpack was one of the most popular films in Austria.\nHe directed nearly 80 movies during his lifetime, including The Death Ship (1959) with Horst Buchholz and Mario Adorf. He came to Hollywood and directed Disney's The Magnificent Rebel (1962). Other works include Teenage Wolfpack (1956) and 2069: A Sex Odyssey (1974). His 1966 film Der Weibsteufel was entered into the 16th Berlin International Film Festival.\nHe died on January 6, 2007, in Saxony, three weeks shy of his 90th birthday.", "biography_author": "Wikidata", "date_of_biography": "2023-09-05T20:03:03.374422+10:00", "external_links": [{"id": 4036, "uri": "https://en.wikipedia.org/wiki/Georg_Tressler"}], "uuid": "dca8ee51-7c7d-40b8-b5fe-192fe3302c1e", "source": {"name": "Vernon", "slug": "vernon"}, "source_identifier": "19552", "external_references": [{"id": 25374, "source": {"name": "Wikidata", "slug": "wikidata"}, "source_identifier": "Q89056"}, {"id": 28583, "source": {"name": "VIAF", "slug": "viaf"}, "source_identifier": "55198081"}, {"id": 28584, "source": {"name": "LOC Auth", "slug": "loc-auth"}, "source_identifier": "no2001069682"}, {"id": 28585, "source": {"name": "WorldCat", "slug": "worldcat"}, "source_identifier": "lccn-no2001069682"}], "date_modified": "2023-09-05T20:03:03.384365+10:00"}, {"id": 80248, "name": "Keith McKennon", "roles_in_work": [{"id": 913566, "title": "Gallipoli: history in the depths = Derinlerdeki Tarih", "work_id": 93377, "role": "co-producer", "role_id": 915, "is_primary": true}], "also_known_as": "", "date_of_birth": null, "date_of_death": null, "genders": [], "languages": [], "places_of_operation": [], "biography": "", "biography_author": null, "date_of_biography": null, "external_links": [], "uuid": "6609ea65-725c-47c9-bcdd-f3f283065ec9", "source": {"name": "Vernon", "slug": "vernon"}, "source_identifier": null, "external_references": [{"id": 52207, "source": {"name": "Wikidata", "slug": "wikidata"}, "source_identifier": "Q121357764"}], "date_modified": "2023-09-05T22:03:56.934799+10:00"}, {"id": 80247, "name": "Asli Oymen", "roles_in_work": [{"id": 913565, "title": "Gallipoli: history in the depths = Derinlerdeki Tarih", "work_id": 93377, "role": "co-producer", "role_id": 915, "is_primary": true}], "also_known_as": "", "date_of_birth": null, "date_of_death": null, "genders": [], "languages": [], "places_of_operation": [], "biography": "", "biography_author": null, "date_of_biography": null, "external_links": [], "uuid": "7af57f31-2a07-4276-a8bd-c5b639b6c405", "source": {"name": "Vernon", "slug": "vernon"}, "source_identifier": null, "external_references": [{"id": 43259, "source": {"name": "Wikidata", "slug": "wikidata"}, "source_identifier": "Q121223182"}], "date_modified": "2023-09-05T17:48:45.306930+10:00"}, {"id": 80246, "name": "Sam Zolten", "roles_in_work": [{"id": 2160449, "title": "Just call me Kade [NTSC]", "work_id": 93375, "role": "producer/director", "role_id": 31, "is_primary": true}], "also_known_as": "", "date_of_birth": "", "date_of_death": "", "genders": [], "languages": [], "places_of_operation": [], "biography": "", "biography_author": null, "date_of_biography": "2023-05-09T14:14:39.114770+10:00", "external_links": [], "uuid": "c01a096c-d4ba-4a03-a7bd-561cc9ac2395", "source": {"name": "Vernon", "slug": "vernon"}, "source_identifier": "28503", "external_references": [{"id": 52120, "source": {"name": "Wikidata", "slug": "wikidata"}, "source_identifier": "Q121360773"}], "date_modified": "2023-09-06T01:03:34.613371+10:00"}, {"id": 80245, "name": "Yuji Ogata", "roles_in_work": [{"id": 2296750, "title": "Shall we dance?", "work_id": 93374, "role": "co-producer", "role_id": 915, "is_primary": true}], "also_known_as": "", "date_of_birth": "", "date_of_death": "", "genders": [], "languages": [], "places_of_operation": [], "biography": "", "biography_author": null, "date_of_biography": "2023-05-09T18:28:53.078003+10:00", "external_links": [], "uuid": "76329121-631e-4f25-a9bc-4a425bb72073", "source": {"name": "Vernon", "slug": "vernon"}, "source_identifier": "30614", "external_references": [{"id": 35016, "source": {"name": "Wikidata", "slug": "wikidata"}, "source_identifier": "Q121126594"}], "date_modified": "2023-09-06T02:23:55.204891+10:00"}, {"id": 80244, "name": "Shoji Masui", "roles_in_work": [{"id": 2296745, "title": "Shall we dance?", "work_id": 93374, "role": "co-producer", "role_id": 915, "is_primary": true}], "also_known_as": "", "date_of_birth": "", "date_of_death": "", "genders": [], "languages": [], "places_of_operation": [], "biography": "", "biography_author": null, "date_of_biography": "2023-05-09T18:28:52.835538+10:00", "external_links": [], "uuid": "5c182c27-95c0-4746-99a9-677c0137b473", "source": {"name": "Vernon", "slug": "vernon"}, "source_identifier": "28781", "external_references": [{"id": 39525, "source": {"name": "Wikidata", "slug": "wikidata"}, "source_identifier": "Q121126772"}], "date_modified": "2023-09-06T01:16:55.280299+10:00"}]}