{"count": 28687, "next": "https://api.acmi.net.au/creators/?page=567", "previous": "https://api.acmi.net.au/creators/?page=565", "results": [{"id": 79923, "name": "Keith Gordon", "roles_in_work": [{"id": 1996384, "title": "Waking the dead", "work_id": 92669, "role": "director", "role_id": 938, "is_primary": true}, {"id": 2476294, "title": "Mother night", "work_id": 94820, "role": "director", "role_id": 938, "is_primary": true}, {"id": 2476292, "title": "Mother night", "work_id": 94820, "role": "co-producer", "role_id": 915, "is_primary": true}, {"id": 1996381, "title": "Waking the dead", "work_id": 92669, "role": "co-producer", "role_id": 915, "is_primary": true}], "also_known_as": "", "date_of_birth": "1961-02-03", "date_of_death": "", "genders": [{"id": 9, "name": "Male", "slug": "male"}], "languages": [{"id": 1, "name": "English", "slug": "english"}], "places_of_operation": [{"id": 1, "name": "United States of America", "slug": "united-states-of-america"}], "biography": "Keith Gordon (born February 3, 1961) is an American actor and film director.", "biography_author": "Wikidata", "date_of_biography": "2023-09-05T22:03:48.272230+10:00", "external_links": [{"id": 2512, "uri": "https://en.wikipedia.org/wiki/Keith_Gordon"}], "uuid": "f4d0e843-df0e-42ae-900b-46c2ac192de5", "source": {"name": "Vernon", "slug": "vernon"}, "source_identifier": "23140", "external_references": [{"id": 10739, "source": {"name": "Wikidata", "slug": "wikidata"}, "source_identifier": "Q1738056"}, {"id": 10740, "source": {"name": "VIAF", "slug": "viaf"}, "source_identifier": "17424715"}, {"id": 10741, "source": {"name": "LOC Auth", "slug": "loc-auth"}, "source_identifier": "n93050985"}, {"id": 10742, "source": {"name": "WorldCat", "slug": "worldcat"}, "source_identifier": "lccn-n93050985"}], "date_modified": "2023-09-05T22:03:48.282371+10:00"}, {"id": 79922, "name": "Jonathan Teplitzky", "roles_in_work": [{"id": 2113106, "title": "Better than sex [DVD]", "work_id": 92668, "role": "director", "role_id": 938, "is_primary": true}], "also_known_as": "", "date_of_birth": "1901-01-01", "date_of_death": "", "genders": [{"id": 9, "name": "Male", "slug": "male"}], "languages": [{"id": 1, "name": "English", "slug": "english"}], "places_of_operation": [{"id": 3, "name": "Australia", "slug": "australia"}], "biography": "Jonathan Teplitzky is an Australian writer and film director who has directed the movies Better Than Sex (2000), Gettin' Square (2003), Burning Man (2011), The Railway Man (2013), and Churchill (2017). Teplitzky has also directed two episodes of the web series A Series of Unfortunate Events. \nTeplitzky won a BAFTA TV award in 1993 for his work on the BBC documentary A Vampire’s Life about writer Anne Rice.Teplitzky also directed episodes five and six of the second series of Broadchurch, which began airing in January 2015.In 1993, Teplitzky directed Donna De Lory's \"Just a Dream\" music video for her debut album. The same year, he also directed Chesney Hawkes' \"Missing You Already\" music video.", "biography_author": "Wikidata", "date_of_biography": "2023-08-01T15:42:01.547190+10:00", "external_links": [{"id": 4429, "uri": "https://en.wikipedia.org/wiki/Jonathan_Teplitzky"}], "uuid": "ef31592d-676d-4215-a35f-bcc49947dc44", "source": {"name": "Vernon", "slug": "vernon"}, "source_identifier": "22672", "external_references": [{"id": 26450, "source": {"name": "Wikidata", "slug": "wikidata"}, "source_identifier": "Q16730387"}, {"id": 29638, "source": {"name": "VIAF", "slug": "viaf"}, "source_identifier": "120525450"}, {"id": 29639, "source": {"name": "LOC Auth", "slug": "loc-auth"}, "source_identifier": "no2010057152"}, {"id": 29640, "source": {"name": "WorldCat", "slug": "worldcat"}, "source_identifier": "lccn-no2010057152"}], "date_modified": "2023-09-05T21:49:19.381070+10:00"}, {"id": 79921, "name": "Frank Cox", "roles_in_work": [{"id": 2113101, "title": "Better than sex [DVD]", "work_id": 92668, "role": "co-producer", "role_id": 915, "is_primary": true}, {"id": 2728192, "title": "An Interview with Frank Cox", "work_id": 117189, "role": "interviewee", "role_id": 496, "is_primary": false}], "also_known_as": "", "date_of_birth": "", "date_of_death": "", "genders": [{"id": 9, "name": "Male", "slug": "male"}], "languages": [], "places_of_operation": [], "biography": "", "biography_author": null, "date_of_biography": "2023-08-30T04:28:01.146352+10:00", "external_links": [{"id": 3986, "uri": "https://en.wikipedia.org/wiki/Frank_Cox_(director)"}], "uuid": "4d1c0aa6-d53b-4de2-90c2-9f54eab23761", "source": {"name": "Vernon", "slug": "vernon"}, "source_identifier": "35609", "external_references": [{"id": 26443, "source": {"name": "Wikidata", "slug": "wikidata"}, "source_identifier": "Q5486011"}], "date_modified": "2025-03-12T08:34:21.285049+11:00"}, {"id": 79920, "name": "Shock Records", "roles_in_work": [{"id": 2283609, "title": "What's cooking?", "work_id": 94482, "role": "distributor", "role_id": 437, "is_primary": false}, {"id": 3085564, "title": "Bad girls. Series two. Discs 3 & 4 [DVD]", "work_id": 94487, "role": "distributor", "role_id": 437, "is_primary": false}, {"id": 3085574, "title": "Bad girls. Series two. Discs 1 & 2 [DVD]", "work_id": 94486, "role": "distributor", "role_id": 437, "is_primary": false}, {"id": 3085584, "title": "Bad girls. Series two", "work_id": 115607, "role": "distributor", "role_id": 437, "is_primary": false}, {"id": 3084670, "title": "Prisoner: the early years [DVD]", "work_id": 92799, "role": "distributor", "role_id": 437, "is_primary": false}, {"id": 3084679, "title": "Prisoner: the end [DVD]", "work_id": 92797, "role": "distributor", "role_id": 437, "is_primary": false}, {"id": 3084693, "title": "Prisoner: the terrorist siege [DVD]", "work_id": 92798, "role": "distributor", "role_id": 437, "is_primary": false}, {"id": 3084704, "title": "Prisoner [Cell block H]", "work_id": 115595, "role": "distributor", "role_id": 437, "is_primary": false}, {"id": 2109134, "title": "Beat Street", "work_id": 94498, "role": "distributor", "role_id": 437, "is_primary": false}, {"id": 1996694, "title": "Three colours white = Trois coleurs blanc (DVD)", "work_id": 92796, "role": "distributor", "role_id": 437, "is_primary": false}, {"id": 2196388, "title": "Do or die = The Rubicon", "work_id": 93593, "role": "distributor", "role_id": 437, "is_primary": false}, {"id": 928839, "title": "If I should fall from grace: the Shane MacGowan story", "work_id": 94286, "role": "distributor", "role_id": 437, "is_primary": false}, {"id": 2125857, "title": "Brother", "work_id": 93807, "role": "distributor", "role_id": 437, "is_primary": false}, {"id": 2113090, "title": "Better than sex [DVD]", "work_id": 92668, "role": "distributor", "role_id": 437, "is_primary": false}, {"id": 2189350, "title": "Devil's playground", "work_id": 94483, "role": "distributor", "role_id": 437, "is_primary": false}, {"id": 2247144, "title": "Red firecracker, green firecracker [DVD] = Pao da shuang deng", "work_id": 93591, "role": "distributor", "role_id": 437, "is_primary": false}, {"id": 2476245, "title": "Ghost dog: way of the samurai [DVD]", "work_id": 92788, "role": "distributor", "role_id": 437, "is_primary": false}, {"id": 2169433, "title": "My name is Joe", "work_id": 92790, "role": "distributor", "role_id": 437, "is_primary": false}, {"id": 2356467, "title": "The Interview [DVD]", "work_id": 92666, "role": "distributor", "role_id": 437, "is_primary": false}, {"id": 2195920, "title": "Divorcing Jack", "work_id": 92792, "role": "distributor", "role_id": 437, "is_primary": false}, {"id": 1998035, "title": "When Brendan met Trudy", "work_id": 93590, "role": "distributor", "role_id": 437, "is_primary": false}, {"id": 913241, "title": "The Sullivans: on the brink of war. The Court martial [DVD]", "work_id": 93145, "role": "distributor", "role_id": 437, "is_primary": false}, {"id": 2195949, "title": "Perdita Durango", "work_id": 93665, "role": "distributor", "role_id": 437, "is_primary": false}, {"id": 880986, "title": "Velvet goldmine [DVD]", "work_id": 92667, "role": "distributor", "role_id": 437, "is_primary": false}, {"id": 2321675, "title": "Tales of the city [DVD]", "work_id": 93663, "role": "distributor", "role_id": 437, "is_primary": false}, {"id": 2293473, "title": "What I have written [DVD]", "work_id": 94481, "role": "distributor", "role_id": 437, "is_primary": false}, {"id": 1997153, "title": "The Tango lesson [DVD]", "work_id": 93144, "role": "distributor", "role_id": 437, "is_primary": false}, {"id": 915473, "title": "Jin-Roh: wolves in human armour [DVD]", "work_id": 94285, "role": "distributor", "role_id": 437, "is_primary": false}, {"id": 2086059, "title": "All the rivers run [DVD]", "work_id": 93157, "role": "distributor", "role_id": 437, "is_primary": false}, {"id": 1999493, "title": "Late night shopping", "work_id": 94497, "role": "distributor", "role_id": 437, "is_primary": false}, {"id": 2262438, "title": "Saturday night live", "work_id": 93670, "role": "distributor", "role_id": 437, "is_primary": false}, {"id": 2325374, "title": "That eye, the sky [DVD]", "work_id": 93806, "role": "distributor", "role_id": 437, "is_primary": false}, {"id": 1999465, "title": "Life is sweet", "work_id": 94484, "role": "distributor", "role_id": 437, "is_primary": false}, {"id": 2249452, "title": "Return to Eden [DVD]", "work_id": 93164, "role": "distributor", "role_id": 437, "is_primary": false}, {"id": 1848263, "title": "Jim Henson's Jack and the beanstalk: the real story", "work_id": 92837, "role": "distributor", "role_id": 437, "is_primary": false}, {"id": 2248408, "title": "Render: spanning time with Ani DiFranco", "work_id": 93691, "role": "distributor", "role_id": 437, "is_primary": false}, {"id": 2157263, "title": "Junkyard theatre. Vol. 01", "work_id": 93796, "role": "distributor", "role_id": 437, "is_primary": false}, {"id": 924433, "title": "Hollywood: the fabulous era", "work_id": 93671, "role": "distributor", "role_id": 437, "is_primary": false}, {"id": 3085017, "title": "Bad girls. Series one", "work_id": 115601, "role": "distributor", "role_id": 437, "is_primary": false}, {"id": 924422, "title": "NASA 3: the American space odyssey", "work_id": 93669, "role": "distributor", "role_id": 437, "is_primary": false}, {"id": 924411, "title": "NASA 1: an American space odyssey", "work_id": 93667, "role": "distributor", "role_id": 437, "is_primary": false}, {"id": 924417, "title": "NASA 2: the American space odyssey", "work_id": 93668, "role": "distributor", "role_id": 437, "is_primary": false}, {"id": 2171195, "title": "One night the moon [DVD]", "work_id": 93592, "role": "distributor", "role_id": 437, "is_primary": false}, {"id": 924393, "title": "Hurly burly", "work_id": 93664, "role": "distributor", "role_id": 437, "is_primary": false}, {"id": 1996643, "title": "Kiss or kill [DVD]", "work_id": 92787, "role": "distributor", "role_id": 437, "is_primary": false}, {"id": 1996676, "title": "Jesus' son [DVD]", "work_id": 92793, "role": "distributor", "role_id": 437, "is_primary": false}, {"id": 2102520, "title": "Assassin of youth", "work_id": 93666, "role": "distributor", "role_id": 437, "is_primary": false}, {"id": 2348979, "title": "The Flying doctors [DVD]", "work_id": 93146, "role": "distributor", "role_id": 437, "is_primary": false}, {"id": 1996652, "title": "Three colours blue = Trois couleurs bleu [DVD]", "work_id": 92789, "role": "distributor", "role_id": 437, "is_primary": false}, {"id": 2201938, "title": "Persuasion [DVD]", "work_id": 94201, "role": "distributor", "role_id": 437, "is_primary": false}, {"id": 2266062, "title": "Secrets & lies = Secrets and lies [DVD]", "work_id": 92795, "role": "distributor", "role_id": 437, "is_primary": false}, {"id": 2172824, "title": "My own private Idaho [DVD]", "work_id": 92794, "role": "distributor", "role_id": 437, "is_primary": false}], "also_known_as": "", "date_of_birth": "", "date_of_death": "", "genders": [], "languages": [], "places_of_operation": [], "biography": "", "biography_author": null, "date_of_biography": "2023-08-17T15:34:10.450844+10:00", "external_links": [], "uuid": "bf342195-1b9e-42e9-a3c9-50e28d925f8d", "source": {"name": "Vernon", "slug": "vernon"}, "source_identifier": "30747", "external_references": [], "date_modified": "2025-03-17T10:40:40.092966+11:00"}, {"id": 79919, "name": "John B. Bredar", "roles_in_work": [{"id": 880983, "title": "The White House", "work_id": 92664, "role": "producer/director", "role_id": 31, "is_primary": true}], "also_known_as": "", "date_of_birth": null, "date_of_death": null, "genders": [], "languages": [], "places_of_operation": [], "biography": "", "biography_author": null, "date_of_biography": null, "external_links": [], "uuid": "214101cd-338f-4737-888b-dec70411fcc7", "source": {"name": "Vernon", "slug": "vernon"}, "source_identifier": null, "external_references": [], "date_modified": "2023-06-14T16:33:30.576250+10:00"}, {"id": 79918, "name": "Ellis Elias", "roles_in_work": [{"id": 2116480, "title": "Bizarre cults", "work_id": 92662, "role": "co-producer", "role_id": 915, "is_primary": true}], "also_known_as": "", "date_of_birth": "", "date_of_death": "", "genders": [], "languages": [], "places_of_operation": [], "biography": "", "biography_author": null, "date_of_biography": "2023-05-09T12:54:55.547984+10:00", "external_links": [], "uuid": "8b496772-240a-4a83-ba6a-14cbab01649f", "source": {"name": "Vernon", "slug": "vernon"}, "source_identifier": "18737", "external_references": [{"id": 32848, "source": {"name": "Wikidata", "slug": "wikidata"}, "source_identifier": "Q121036430"}], "date_modified": "2023-09-05T19:30:27.360415+10:00"}, {"id": 79917, "name": "Phil Craig", "roles_in_work": [{"id": 2189437, "title": "Diana: story of a princess", "work_id": 92661, "role": "co-producer", "role_id": 915, "is_primary": true}], "also_known_as": "", "date_of_birth": "", "date_of_death": "", "genders": [], "languages": [], "places_of_operation": [], "biography": "", "biography_author": null, "date_of_biography": "2023-05-09T15:06:30.403174+10:00", "external_links": [], "uuid": "2106f6a8-cf00-4b2e-a65a-166380091aa0", "source": {"name": "Vernon", "slug": "vernon"}, "source_identifier": "26777", "external_references": [{"id": 43183, "source": {"name": "Wikidata", "slug": "wikidata"}, "source_identifier": "Q121143736"}], "date_modified": "2023-09-06T00:03:05.062788+10:00"}, {"id": 79916, "name": "Nick Ward", "roles_in_work": [{"id": 2189435, "title": "Diana: story of a princess", "work_id": 92661, "role": "co-producer", "role_id": 915, "is_primary": true}], "also_known_as": "", "date_of_birth": "", "date_of_death": "", "genders": [], "languages": [], "places_of_operation": [], "biography": "", "biography_author": null, "date_of_biography": "2023-05-09T15:06:30.167926+10:00", "external_links": [], "uuid": "f34184dd-e74f-4e02-a48b-3276e292bc4e", "source": {"name": "Vernon", "slug": "vernon"}, "source_identifier": "25768", "external_references": [{"id": 36279, "source": {"name": "Wikidata", "slug": "wikidata"}, "source_identifier": "Q121036633"}], "date_modified": "2023-09-05T23:30:14.932748+10:00"}, {"id": 79915, "name": "Sally Brindle", "roles_in_work": [{"id": 2189434, "title": "Diana: story of a princess", "work_id": 92661, "role": "co-producer", "role_id": 915, "is_primary": true}], "also_known_as": "", "date_of_birth": "", "date_of_death": "", "genders": [], "languages": [], "places_of_operation": [], "biography": "", "biography_author": null, "date_of_biography": "2023-05-09T15:06:29.937728+10:00", "external_links": [], "uuid": "b5d4963f-3d44-4a19-80d8-075696aca93b", "source": {"name": "Vernon", "slug": "vernon"}, "source_identifier": "28440", "external_references": [{"id": 40113, "source": {"name": "Wikidata", "slug": "wikidata"}, "source_identifier": "Q121036599"}], "date_modified": "2023-09-06T01:01:39.832714+10:00"}, {"id": 79914, "name": "Christopher Rowley", "roles_in_work": [{"id": 2192958, "title": "Dinosaur! Parts 3 & 4", "work_id": 81754, "role": "co-director", "role_id": 959, "is_primary": true}, {"id": 2649557, "title": "Dinosaur! Parts 1 & 2", "work_id": 81753, "role": "co-director", "role_id": 959, "is_primary": true}, {"id": 2185949, "title": "Panama Canal: the mountain and the mosquito", "work_id": 92660, "role": "co-producer", "role_id": 915, "is_primary": true}], "also_known_as": "", "date_of_birth": "", "date_of_death": "", "genders": [], "languages": [], "places_of_operation": [], "biography": "", "biography_author": null, "date_of_biography": "2023-05-09T15:12:02.081352+10:00", "external_links": [], "uuid": "a3eefdd4-a777-4f81-adab-0817a1a81841", "source": {"name": "Vernon", "slug": "vernon"}, "source_identifier": "17001", "external_references": [{"id": 32490, "source": {"name": "Wikidata", "slug": "wikidata"}, "source_identifier": "Q121270726"}], "date_modified": "2025-03-05T14:02:48.519535+11:00"}]}