{"count": 28682, "next": "https://api.acmi.net.au/creators/?page=1296", "previous": "https://api.acmi.net.au/creators/?page=1294", "results": [{"id": 38933, "name": "Caroline M. Heywood", "roles_in_work": [{"id": 2752883, "title": "Sound of sunshine, sound of rain", "work_id": 98500, "role": "director", "role_id": 938, "is_primary": true}], "also_known_as": "", "date_of_birth": null, "date_of_death": null, "genders": [], "languages": [], "places_of_operation": [], "biography": "", "biography_author": null, "date_of_biography": null, "external_links": [], "uuid": "27c6e82a-dc71-4f70-88d7-71b35ebe44e8", "source": {"name": "Vernon", "slug": "vernon"}, "source_identifier": "16544", "external_references": [], "date_modified": "2025-03-13T01:13:25.254280+11:00"}, {"id": 38932, "name": "Eda Hallinan", "roles_in_work": [{"id": 2752882, "title": "Sound of sunshine, sound of rain", "work_id": 98500, "role": "producer", "role_id": 1089, "is_primary": true}], "also_known_as": "", "date_of_birth": null, "date_of_death": null, "genders": [], "languages": [], "places_of_operation": [], "biography": "", "biography_author": null, "date_of_biography": null, "external_links": [], "uuid": "25725e9c-7c40-4c65-9592-4b36cb4ecf38", "source": {"name": "Vernon", "slug": "vernon"}, "source_identifier": "18539", "external_references": [], "date_modified": "2025-03-13T01:13:24.664052+11:00"}, {"id": 38930, "name": "Allegra Anne May", "roles_in_work": [{"id": 2752854, "title": "Half a year apart", "work_id": 98490, "role": "director", "role_id": 938, "is_primary": true}], "also_known_as": "", "date_of_birth": null, "date_of_death": null, "genders": [], "languages": [], "places_of_operation": [], "biography": "", "biography_author": null, "date_of_biography": null, "external_links": [], "uuid": "45a66f25-cafd-43fd-a246-3bb6cd5ebf06", "source": {"name": "Vernon", "slug": "vernon"}, "source_identifier": "15023", "external_references": [], "date_modified": "2025-03-13T01:13:07.594213+11:00"}, {"id": 38928, "name": "Ann Hassett", "roles_in_work": [{"id": 2752848, "title": "Sweet sixteen and pregnant", "work_id": 98487, "role": "producer", "role_id": 1089, "is_primary": true}], "also_known_as": "", "date_of_birth": null, "date_of_death": null, "genders": [], "languages": [], "places_of_operation": [], "biography": "", "biography_author": null, "date_of_biography": null, "external_links": [], "uuid": "bcb700ff-40f3-4d0e-83de-0040e3cfdf4c", "source": {"name": "Vernon", "slug": "vernon"}, "source_identifier": "15290", "external_references": [], "date_modified": "2025-03-13T01:13:03.353856+11:00"}, {"id": 38927, "name": "Jerry Haislmaier", "roles_in_work": [{"id": 2752838, "title": "Flowers at work. - 3rd edition.", "work_id": 98484, "role": "director", "role_id": 938, "is_primary": true}, {"id": 2753052, "title": "Learning about flowers and their seeds. - 2nd ed.", "work_id": 98583, "role": "producer/director", "role_id": 31, "is_primary": true}], "also_known_as": "", "date_of_birth": null, "date_of_death": null, "genders": [], "languages": [], "places_of_operation": [], "biography": "", "biography_author": null, "date_of_biography": null, "external_links": [], "uuid": "668c6729-dc54-46cb-a580-9836bbcbc4b4", "source": {"name": "Vernon", "slug": "vernon"}, "source_identifier": "21795", "external_references": [], "date_modified": "2025-03-13T01:16:55.423313+11:00"}, {"id": 38926, "name": "Nick Vincent", "roles_in_work": [{"id": 2406367, "title": "Divorce and young people", "work_id": 98481, "role": "director", "role_id": 938, "is_primary": true}], "also_known_as": "", "date_of_birth": "", "date_of_death": "", "genders": [], "languages": [], "places_of_operation": [], "biography": "", "biography_author": null, "date_of_biography": "2023-08-11T16:12:10.838009+10:00", "external_links": [], "uuid": "4e1e6c9d-2628-4ae8-a3ab-b126d39d8b7f", "source": {"name": "Vernon", "slug": "vernon"}, "source_identifier": "25767", "external_references": [], "date_modified": "2023-08-11T16:12:10.838235+10:00"}, {"id": 38925, "name": "Golden Coast Film Productions", "roles_in_work": [{"id": 2406366, "title": "Divorce and young people", "work_id": 98481, "role": "production company", "role_id": 941, "is_primary": true}], "also_known_as": "", "date_of_birth": "", "date_of_death": "", "genders": [], "languages": [], "places_of_operation": [], "biography": "", "biography_author": null, "date_of_biography": "2023-08-11T16:12:10.198843+10:00", "external_links": [], "uuid": "60bd7ff7-daf0-4375-8a9e-3c989d86c4d3", "source": {"name": "Vernon", "slug": "vernon"}, "source_identifier": "8781", "external_references": [], "date_modified": "2023-08-11T16:12:10.199133+10:00"}, {"id": 38924, "name": "Jenni Taplin", "roles_in_work": [{"id": 2752824, "title": "Reading together", "work_id": 98476, "role": "production company", "role_id": 941, "is_primary": true}], "also_known_as": "", "date_of_birth": null, "date_of_death": null, "genders": [], "languages": [], "places_of_operation": [], "biography": "", "biography_author": null, "date_of_biography": null, "external_links": [], "uuid": "f8dfecc9-2539-40b9-ba20-c6918a9ba819", "source": {"name": "Vernon", "slug": "vernon"}, "source_identifier": "21694", "external_references": [], "date_modified": "2025-03-13T01:12:32.972743+11:00"}, {"id": 38921, "name": "Maude Media", "roles_in_work": [{"id": 2752821, "title": "What's the difference!", "work_id": 98475, "role": "production company", "role_id": 941, "is_primary": true}], "also_known_as": "", "date_of_birth": "", "date_of_death": "", "genders": [], "languages": [], "places_of_operation": [], "biography": "", "biography_author": null, "date_of_biography": "2023-05-09T18:08:47.745507+10:00", "external_links": [], "uuid": "d008d096-921c-4764-81f6-3a05ca221743", "source": {"name": "Vernon", "slug": "vernon"}, "source_identifier": "10370", "external_references": [{"id": 35613, "source": {"name": "Wikidata", "slug": "wikidata"}, "source_identifier": "Q121034276"}], "date_modified": "2025-03-13T01:12:30.987440+11:00"}, {"id": 38920, "name": "Free Kindergarten Union Multicultural Resource Centre", "roles_in_work": [{"id": 2752820, "title": "What's the difference!", "work_id": 98475, "role": "production company", "role_id": 941, "is_primary": true}], "also_known_as": "", "date_of_birth": "", "date_of_death": "", "genders": [], "languages": [], "places_of_operation": [], "biography": "", "biography_author": null, "date_of_biography": "2023-05-09T18:08:47.495239+10:00", "external_links": [], "uuid": "494f15a5-2c10-4233-9a8e-1a547a2d88d7", "source": {"name": "Vernon", "slug": "vernon"}, "source_identifier": "8543", "external_references": [{"id": 40851, "source": {"name": "Wikidata", "slug": "wikidata"}, "source_identifier": "Q121222688"}], "date_modified": "2025-03-13T01:12:30.402035+11:00"}]}