{"count": 28681, "next": "https://api.acmi.net.au/creators/?page=2655", "previous": "https://api.acmi.net.au/creators/?page=2653", "results": [{"id": 12004, "name": "J.V. Durden", "roles_in_work": [{"id": 875788, "title": "Plants, pests and diseases: flea beetles - halticinae", "work_id": 89653, "role": "director", "role_id": 938, "is_primary": true}, {"id": 2677400, "title": "Apple aphis", "work_id": 64845, "role": "director", "role_id": 938, "is_primary": true}, {"id": 2677431, "title": "Arachnida", "work_id": 64861, "role": "director", "role_id": 938, "is_primary": true}, {"id": 2712057, "title": "Development of the Chick", "work_id": 66751, "role": "director", "role_id": 938, "is_primary": true}, {"id": 2679066, "title": "Cabbage root fly", "work_id": 65711, "role": "director", "role_id": 938, "is_primary": true}, {"id": 2713441, "title": "Fasciola", "work_id": 67416, "role": "director", "role_id": 938, "is_primary": true}, {"id": 2680106, "title": "Coelenterata", "work_id": 66215, "role": "director", "role_id": 938, "is_primary": true}, {"id": 2680146, "title": "The Colour of life", "work_id": 66237, "role": "director", "role_id": 938, "is_primary": true}, {"id": 2643910, "title": "Above the timberline: the alpine tundra zone", "work_id": 111371, "role": "director", "role_id": 938, "is_primary": true}, {"id": 2644524, "title": "Development of the trout", "work_id": 66753, "role": "director", "role_id": 938, "is_primary": true}, {"id": 2645058, "title": "Heredity in animals", "work_id": 68425, "role": "director", "role_id": 938, "is_primary": true}, {"id": 2645648, "title": "Microscopic fungi", "work_id": 70359, "role": "director", "role_id": 938, "is_primary": true}, {"id": 2793941, "title": "Fish embryo from fertilization to hatching", "work_id": 95876, "role": "director", "role_id": 938, "is_primary": true}, {"id": 877968, "title": "Brown rot", "work_id": 91007, "role": "director", "role_id": 938, "is_primary": true}, {"id": 858138, "title": "The Sea urchin. Part 2", "work_id": 72575, "role": "director", "role_id": 938, "is_primary": true}, {"id": 826736, "title": "Embryonic development: the chick", "work_id": 96482, "role": "director", "role_id": 938, "is_primary": true}, {"id": 747371, "title": "Making of the soil", "work_id": 70047, "role": "director", "role_id": 938, "is_primary": true}, {"id": 878142, "title": "The Codling moth", "work_id": 91114, "role": "director", "role_id": 938, "is_primary": true}, {"id": 878187, "title": "Winter moths", "work_id": 91146, "role": "director", "role_id": 938, "is_primary": true}, {"id": 878152, "title": "Leather jackets (Tipulidae)", "work_id": 91120, "role": "director", "role_id": 938, "is_primary": true}, {"id": 876722, "title": "Plant pests and diseases: raspberry beetle", "work_id": 90229, "role": "director", "role_id": 938, "is_primary": true}, {"id": 2677290, "title": "Animals of the rocky shore [B&W]", "work_id": 64788, "role": "director", "role_id": 938, "is_primary": true}, {"id": 870138, "title": "Climbing plants", "work_id": 86110, "role": "director", "role_id": 938, "is_primary": true}, {"id": 854458, "title": "The Life story of a fern", "work_id": 69709, "role": "director", "role_id": 938, "is_primary": true}, {"id": 750224, "title": "Paramecium", "work_id": 71355, "role": "director", "role_id": 938, "is_primary": true}, {"id": 910379, "title": "Honey bees and pollination", "work_id": 91132, "role": "co-director", "role_id": 959, "is_primary": true}, {"id": 2348886, "title": "The Flower and the hive", "work_id": 78053, "role": "co-director", "role_id": 959, "is_primary": true}, {"id": 2679553, "title": "The Changing forest", "work_id": 65953, "role": "co-producer", "role_id": 915, "is_primary": true}, {"id": 895894, "title": "The Spruce bog: an essay in ecology", "work_id": 73134, "role": "co-producer", "role_id": 915, "is_primary": true}, {"id": 910376, "title": "Honey bees and pollination", "work_id": 91132, "role": "co-producer", "role_id": 915, "is_primary": true}, {"id": 1818614, "title": "Introducing insects", "work_id": 69024, "role": "producer", "role_id": 1089, "is_primary": true}], "also_known_as": "", "date_of_birth": "1910", "date_of_death": "", "genders": [], "languages": [], "places_of_operation": [], "biography": "", "biography_author": null, "date_of_biography": "2023-05-09T20:06:21.835840+10:00", "external_links": [], "uuid": "dee06861-7042-4617-84c6-b3ae5de6b2cb", "source": {"name": "Vernon", "slug": "vernon"}, "source_identifier": "21006", "external_references": [{"id": 39167, "source": {"name": "Wikidata", "slug": "wikidata"}, "source_identifier": "Q121040109"}], "date_modified": "2025-03-14T20:21:47.813483+11:00"}, {"id": 12001, "name": "Ken Taylor", "roles_in_work": [{"id": 2769779, "title": "To the island (Macquarie Island)", "work_id": 73887, "role": "director", "role_id": 938, "is_primary": true}, {"id": 2769734, "title": "Across the Strait", "work_id": 111394, "role": "director", "role_id": 938, "is_primary": true}, {"id": 2769764, "title": "At the edge of the salt plain", "work_id": 65025, "role": "director", "role_id": 938, "is_primary": true}, {"id": 2769818, "title": "Receding wetlands", "work_id": 96696, "role": "director", "role_id": 938, "is_primary": true}, {"id": 2769812, "title": "The Diminishing rain forest", "work_id": 88543, "role": "director", "role_id": 938, "is_primary": true}, {"id": 2769805, "title": "Albatross Island", "work_id": 88407, "role": "director", "role_id": 938, "is_primary": true}, {"id": 2769724, "title": "Above the gorge", "work_id": 111369, "role": "director", "role_id": 938, "is_primary": true}, {"id": 2769798, "title": "The Seal watch with Bob Warneke", "work_id": 75815, "role": "director", "role_id": 938, "is_primary": true}, {"id": 918470, "title": "Year of the Green Centre", "work_id": 96662, "role": "co-producer", "role_id": 915, "is_primary": true}], "also_known_as": "", "date_of_birth": "", "date_of_death": "", "genders": [], "languages": [], "places_of_operation": [], "biography": "", "biography_author": null, "date_of_biography": "2023-05-09T16:55:00.794687+10:00", "external_links": [], "uuid": "e4f3a113-a87d-42ad-aab0-6c589057f910", "source": {"name": "Vernon", "slug": "vernon"}, "source_identifier": "23223", "external_references": [{"id": 32992, "source": {"name": "Wikidata", "slug": "wikidata"}, "source_identifier": "Q121315267"}], "date_modified": "2025-03-14T18:16:15.797858+11:00"}, {"id": 12000, "name": "Robert Horne", "roles_in_work": [{"id": 2769723, "title": "Above the gorge", "work_id": 111369, "role": "producer", "role_id": 1089, "is_primary": true}, {"id": 2769804, "title": "Albatross Island", "work_id": 88407, "role": "producer", "role_id": 1089, "is_primary": true}, {"id": 2769731, "title": "Across the Strait", "work_id": 111394, "role": "producer", "role_id": 1089, "is_primary": true}, {"id": 2769810, "title": "The Diminishing rain forest", "work_id": 88543, "role": "producer", "role_id": 1089, "is_primary": true}, {"id": 2769816, "title": "Receding wetlands", "work_id": 96696, "role": "producer", "role_id": 1089, "is_primary": true}, {"id": 2760456, "title": "The Dominant male", "work_id": 75239, "role": "producer", "role_id": 1089, "is_primary": true}, {"id": 2769776, "title": "To the island (Macquarie Island)", "work_id": 73887, "role": "producer", "role_id": 1089, "is_primary": true}, {"id": 2769770, "title": "Beyond the dune", "work_id": 65382, "role": "producer", "role_id": 1089, "is_primary": true}, {"id": 2769761, "title": "At the edge of the salt plain", "work_id": 65025, "role": "producer", "role_id": 1089, "is_primary": true}, {"id": 2769752, "title": "Antarctic winter", "work_id": 64818, "role": "producer", "role_id": 1089, "is_primary": true}, {"id": 2769786, "title": "The Southern edge: marsh and mangroves", "work_id": 75249, "role": "producer", "role_id": 1089, "is_primary": true}, {"id": 2769797, "title": "The Seal watch with Bob Warneke", "work_id": 75815, "role": "producer", "role_id": 1089, "is_primary": true}], "also_known_as": "", "date_of_birth": "", "date_of_death": "", "genders": [], "languages": [], "places_of_operation": [], "biography": "", "biography_author": null, "date_of_biography": "2023-05-09T19:44:41.859030+10:00", "external_links": [], "uuid": "c84fdc65-e088-4af1-8d46-e83045b706a9", "source": {"name": "Vernon", "slug": "vernon"}, "source_identifier": "27764", "external_references": [{"id": 35261, "source": {"name": "Wikidata", "slug": "wikidata"}, "source_identifier": "Q121222525"}], "date_modified": "2025-03-14T18:16:15.221493+11:00"}, {"id": 11998, "name": "Jack Rogers", "roles_in_work": [{"id": 2676280, "title": "About trees", "work_id": 111368, "role": "director", "role_id": 938, "is_primary": true}, {"id": 753948, "title": "Spanner in the works", "work_id": 73068, "role": "director", "role_id": 938, "is_primary": true}, {"id": 2215559, "title": "Eighteen Footers", "work_id": 75438, "role": "director", "role_id": 938, "is_primary": true}, {"id": 2392177, "title": "These sharks need protection", "work_id": 73675, "role": "director", "role_id": 938, "is_primary": true}, {"id": 751795, "title": "Ready for action", "work_id": 72077, "role": "director", "role_id": 938, "is_primary": true}, {"id": 2392120, "title": "The Splendour and the Peaks", "work_id": 73105, "role": "director", "role_id": 938, "is_primary": true}, {"id": 2289787, "title": "There are yachts at the bottom of my garden", "work_id": 73663, "role": "director", "role_id": 938, "is_primary": true}, {"id": 745787, "title": "Just a trace", "work_id": 69324, "role": "director", "role_id": 938, "is_primary": true}, {"id": 2392702, "title": "Ray of hope", "work_id": 86935, "role": "director", "role_id": 938, "is_primary": true}, {"id": 2392461, "title": "Scouting in Australia", "work_id": 75836, "role": "director", "role_id": 938, "is_primary": true}, {"id": 856419, "title": "Operation picul stick", "work_id": 71191, "role": "director", "role_id": 938, "is_primary": true}, {"id": 2679939, "title": "A City in the country: Albury Wodonga development", "work_id": 66138, "role": "director", "role_id": 938, "is_primary": true}, {"id": 2712700, "title": "Eighteen Footers [Italian version]", "work_id": 67051, "role": "director", "role_id": 938, "is_primary": true}, {"id": 2712484, "title": "Dry pastures and flood plains", "work_id": 66960, "role": "director", "role_id": 938, "is_primary": true}, {"id": 2680620, "title": "Craft in the cowshed", "work_id": 66472, "role": "director", "role_id": 938, "is_primary": true}, {"id": 755369, "title": "There are yachts at the bottom of my garden [Italian version]", "work_id": 73664, "role": "director", "role_id": 938, "is_primary": true}, {"id": 2644795, "title": "Fire danger extreme", "work_id": 67529, "role": "director", "role_id": 938, "is_primary": true}, {"id": 2679479, "title": "The Challenge", "work_id": 65920, "role": "director", "role_id": 938, "is_primary": true}, {"id": 2647282, "title": "No harm in logging", "work_id": 75853, "role": "director", "role_id": 938, "is_primary": true}, {"id": 2647411, "title": "Point of entry", "work_id": 76211, "role": "director", "role_id": 938, "is_primary": true}, {"id": 2138930, "title": "City sailors", "work_id": 95763, "role": "director", "role_id": 938, "is_primary": true}, {"id": 858778, "title": "Spray irrigation in Australia", "work_id": 73123, "role": "director", "role_id": 938, "is_primary": true}, {"id": 860086, "title": "Underground enemy", "work_id": 74162, "role": "director", "role_id": 938, "is_primary": true}, {"id": 2712697, "title": "Eighteen Footers [Greek version]", "work_id": 67050, "role": "director", "role_id": 938, "is_primary": true}, {"id": 2644638, "title": "Electricity in agriculture", "work_id": 67079, "role": "director", "role_id": 938, "is_primary": true}, {"id": 2713719, "title": "First aid on the dairy farm", "work_id": 67552, "role": "producer", "role_id": 1089, "is_primary": true}], "also_known_as": "", "date_of_birth": "", "date_of_death": "", "genders": [], "languages": [], "places_of_operation": [], "biography": "", "biography_author": null, "date_of_biography": "2023-08-09T03:59:35.961010+10:00", "external_links": [], "uuid": "cc49d1c4-6320-48b2-b285-d0873886a8e3", "source": {"name": "Vernon", "slug": "vernon"}, "source_identifier": "21083", "external_references": [{"id": 37806, "source": {"name": "Wikidata", "slug": "wikidata"}, "source_identifier": "Q121034907"}], "date_modified": "2025-03-12T00:50:45.520027+11:00"}, {"id": 11997, "name": "Ed De Martin", "roles_in_work": [{"id": 2676274, "title": "About time", "work_id": 111367, "role": "director", "role_id": 938, "is_primary": true}], "also_known_as": "", "date_of_birth": "", "date_of_death": "", "genders": [], "languages": [], "places_of_operation": [], "biography": "", "biography_author": null, "date_of_biography": "2023-08-11T13:24:54.714023+10:00", "external_links": [], "uuid": "e9f2983f-db58-4cb1-94cc-f360707acfbf", "source": {"name": "Vernon", "slug": "vernon"}, "source_identifier": "18524", "external_references": [], "date_modified": "2025-03-06T23:04:33.938471+11:00"}, {"id": 11996, "name": "Robert Marona", "roles_in_work": [{"id": 2676272, "title": "About time", "work_id": 111367, "role": "producer", "role_id": 1089, "is_primary": true}], "also_known_as": "", "date_of_birth": "", "date_of_death": "", "genders": [], "languages": [], "places_of_operation": [], "biography": "", "biography_author": null, "date_of_biography": "2023-08-11T13:24:54.030720+10:00", "external_links": [], "uuid": "b0a045bc-2766-4eed-b169-335dfaf7860b", "source": {"name": "Vernon", "slug": "vernon"}, "source_identifier": "27827", "external_references": [], "date_modified": "2025-03-06T23:04:33.345651+11:00"}, {"id": 11995, "name": "De Martin - Marona", "roles_in_work": [{"id": 2676269, "title": "About time", "work_id": 111367, "role": "production company", "role_id": 941, "is_primary": true}], "also_known_as": "", "date_of_birth": "", "date_of_death": "", "genders": [], "languages": [], "places_of_operation": [], "biography": "", "biography_author": null, "date_of_biography": "2023-08-11T13:24:53.403927+10:00", "external_links": [], "uuid": "416de337-7c34-4b2f-88ef-f40e7b4f5d84", "source": {"name": "Vernon", "slug": "vernon"}, "source_identifier": "7364", "external_references": [], "date_modified": "2025-03-06T23:04:32.616317+11:00"}, {"id": 11994, "name": "John Fletcher", "roles_in_work": [{"id": 2679121, "title": "Anybody's problem", "work_id": 65743, "role": "director", "role_id": 938, "is_primary": true}, {"id": 755131, "title": "Technical student", "work_id": 73563, "role": "director", "role_id": 938, "is_primary": true}, {"id": 873176, "title": "In touch with the world", "work_id": 88045, "role": "director", "role_id": 938, "is_primary": true}, {"id": 2715939, "title": "I am a mayor", "work_id": 68699, "role": "director", "role_id": 938, "is_primary": true}, {"id": 853535, "title": "Into secondary school (TEFC)", "work_id": 69007, "role": "director", "role_id": 938, "is_primary": true}, {"id": 2645025, "title": "The Happy adventure", "work_id": 68302, "role": "director", "role_id": 938, "is_primary": true}, {"id": 1550780, "title": "The Saturday men", "work_id": 88751, "role": "director", "role_id": 938, "is_primary": true}, {"id": 908836, "title": "Free cinema", "work_id": 89260, "role": "co-director", "role_id": 959, "is_primary": true}, {"id": 2676265, "title": "About The White bus", "work_id": 111366, "role": "co-director", "role_id": 959, "is_primary": true}], "also_known_as": "", "date_of_birth": "1931-05-16", "date_of_death": "1986-01-01", "genders": [{"id": 9, "name": "Male", "slug": "male"}], "languages": [], "places_of_operation": [], "biography": "", "biography_author": null, "date_of_biography": null, "external_links": [], "uuid": "37e27776-f8bd-4a67-bca4-0590ceadd531", "source": {"name": "Vernon", "slug": "vernon"}, "source_identifier": "22258", "external_references": [{"id": 35728, "source": {"name": "Wikidata", "slug": "wikidata"}, "source_identifier": "Q110595785"}, {"id": 54877, "source": {"name": "VIAF", "slug": "viaf"}, "source_identifier": "91456367"}, {"id": 54878, "source": {"name": "LOC Auth", "slug": "loc-auth"}, "source_identifier": "n50003546"}, {"id": 54879, "source": {"name": "WorldCat", "slug": "worldcat"}, "source_identifier": "lccn-n50003546"}], "date_modified": "2025-03-12T01:46:11.850809+11:00"}, {"id": 11993, "name": "Marlene Fletcher", "roles_in_work": [{"id": 2676263, "title": "About The White bus", "work_id": 111366, "role": "producer", "role_id": 1089, "is_primary": true}], "also_known_as": "", "date_of_birth": null, "date_of_death": null, "genders": [], "languages": [], "places_of_operation": [], "biography": "", "biography_author": null, "date_of_biography": null, "external_links": [], "uuid": "312b88d5-e12c-4851-a48c-4aa7d162fb0f", "source": {"name": "Vernon", "slug": "vernon"}, "source_identifier": "24578", "external_references": [], "date_modified": "2025-03-06T23:04:29.956251+11:00"}, {"id": 11992, "name": "Dateline Film Productions", "roles_in_work": [{"id": 2676261, "title": "About The White bus", "work_id": 111366, "role": "production company", "role_id": 941, "is_primary": true}, {"id": 2644382, "title": "China!", "work_id": 66067, "role": "production company", "role_id": 941, "is_primary": true}], "also_known_as": "", "date_of_birth": "", "date_of_death": "", "genders": [], "languages": [], "places_of_operation": [], "biography": "", "biography_author": null, "date_of_biography": "2023-08-11T15:25:48.352043+10:00", "external_links": [], "uuid": "fe52b4e1-9e2d-4f1c-89af-029805ab1c7e", "source": {"name": "Vernon", "slug": "vernon"}, "source_identifier": "7332", "external_references": [], "date_modified": "2025-03-06T23:04:28.383304+11:00"}]}