{"count": 28682, "next": "https://api.acmi.net.au/creators/?page=2086", "previous": "https://api.acmi.net.au/creators/?page=2084", "results": [{"id": 20827, "name": "Sturla Gunnarsson", "roles_in_work": [{"id": 2082905, "title": "After the axe", "work_id": 77842, "role": "director", "role_id": 938, "is_primary": true}, {"id": 2329367, "title": "The Bamboo brush", "work_id": 77909, "role": "director", "role_id": 938, "is_primary": true}, {"id": 2082902, "title": "After the axe", "work_id": 77842, "role": "co-producer", "role_id": 915, "is_primary": true}], "also_known_as": "", "date_of_birth": "1951-08-30", "date_of_death": "", "genders": [{"id": 9, "name": "Male", "slug": "male"}], "languages": [], "places_of_operation": [{"id": 36, "name": "Canada", "slug": "canada"}], "biography": "Sturla Gunnarsson (born August 30, 1951) is an Icelandic-Canadian film and television director and producer.\nGunnarsson was born in Reykjavík in 1951. He moved to Vancouver, British Columbia, with his parents when he was seven years old. As he grew up he became interested in filmmaking and went to the University of British Columbia where he completed undergraduate studies in English literature and graduate work in film studies. Part of the graduate program requires the production of a film. His, A Day Much Like the Others, went on to win top honours at the Canadian Student Film Festival and the European Student Film Festival. It was also screened at New York City's Museum of Modern Art.\nWith his formal education behind him, Gunnarsson moved to Toronto and worked initially at the National Film Board (NFB). His first NFB project, After the Axe, received an Academy Award nomination for Best Documentary Feature. He has since won a number of awards including Emmy Award, Genie Award and Gemini Awards, a Prix Italia, and the Prix Villes de Cannes.\nHis documentary about David Suzuki, Force of Nature: The David Suzuki Movie, won the People’s Choice Documentary Award at the 2010 Toronto International Film Festival.In 2018, Gunnarsson worked with film and story editor Nick Hector to complete the movie Sharkwater Extinction after the death of Rob Stewart.", "biography_author": "Wikidata", "date_of_biography": "2023-08-01T17:12:32.541686+10:00", "external_links": [{"id": 5219, "uri": "https://en.wikipedia.org/wiki/Sturla_Gunnarsson"}], "uuid": "75d28854-91b4-4a9a-a4c7-a81efb06cc72", "source": {"name": "Vernon", "slug": "vernon"}, "source_identifier": "29276", "external_references": [{"id": 26837, "source": {"name": "Wikidata", "slug": "wikidata"}, "source_identifier": "Q1766199"}, {"id": 31673, "source": {"name": "VIAF", "slug": "viaf"}, "source_identifier": "85131011"}, {"id": 31674, "source": {"name": "LOC Auth", "slug": "loc-auth"}, "source_identifier": "no00014653"}, {"id": 31675, "source": {"name": "WorldCat", "slug": "worldcat"}, "source_identifier": "lccn-no00014653"}], "date_modified": "2023-09-06T01:34:45.316101+10:00"}, {"id": 20825, "name": "Jon Guilbert", "roles_in_work": [{"id": 2406952, "title": "End of the line", "work_id": 77840, "role": "director", "role_id": 938, "is_primary": true}], "also_known_as": "", "date_of_birth": "", "date_of_death": "", "genders": [], "languages": [], "places_of_operation": [], "biography": "", "biography_author": null, "date_of_biography": "2023-08-11T16:26:32.458271+10:00", "external_links": [], "uuid": "06151563-16ec-40aa-8201-53eed0d35b2a", "source": {"name": "Vernon", "slug": "vernon"}, "source_identifier": "22280", "external_references": [], "date_modified": "2023-08-11T16:26:32.458502+10:00"}, {"id": 20824, "name": "Sue Dyer", "roles_in_work": [{"id": 2406951, "title": "End of the line", "work_id": 77840, "role": "producer", "role_id": 1089, "is_primary": true}], "also_known_as": "", "date_of_birth": "", "date_of_death": "", "genders": [], "languages": [], "places_of_operation": [], "biography": "", "biography_author": null, "date_of_biography": "2023-08-11T16:26:31.838031+10:00", "external_links": [], "uuid": "f8d01dac-6cbd-4203-8f85-9a15f3206809", "source": {"name": "Vernon", "slug": "vernon"}, "source_identifier": "29286", "external_references": [], "date_modified": "2023-08-11T16:26:31.838317+10:00"}, {"id": 20823, "name": "Sue Marx", "roles_in_work": [{"id": 1816375, "title": "Michael Hall: sculptor", "work_id": 98729, "role": "producer", "role_id": 1089, "is_primary": true}, {"id": 2412866, "title": "Jim Pallas: electronic sculptor", "work_id": 77839, "role": "producer", "role_id": 1089, "is_primary": true}], "also_known_as": "", "date_of_birth": "", "date_of_death": "", "genders": [], "languages": [], "places_of_operation": [], "biography": "", "biography_author": null, "date_of_biography": "2023-08-11T18:47:37.670557+10:00", "external_links": [], "uuid": "f869270a-950d-4b7f-aa7c-53d672e6602d", "source": {"name": "Vernon", "slug": "vernon"}, "source_identifier": "29296", "external_references": [], "date_modified": "2023-08-11T18:47:37.670811+10:00"}, {"id": 20822, "name": "Marx Handley Productions", "roles_in_work": [{"id": 2412865, "title": "Jim Pallas: electronic sculptor", "work_id": 77839, "role": "production company", "role_id": 941, "is_primary": true}], "also_known_as": "", "date_of_birth": "", "date_of_death": "", "genders": [], "languages": [], "places_of_operation": [], "biography": "", "biography_author": null, "date_of_biography": "2023-08-11T18:47:37.035032+10:00", "external_links": [], "uuid": "7b0f9e99-efe6-4ab3-bdb5-71cbf0f0e705", "source": {"name": "Vernon", "slug": "vernon"}, "source_identifier": "10331", "external_references": [], "date_modified": "2023-08-11T18:47:37.035289+10:00"}, {"id": 20821, "name": "Peter Wallach", "roles_in_work": [{"id": 765434, "title": "Raygun's nightmare", "work_id": 77838, "role": "director", "role_id": 938, "is_primary": true}, {"id": 804682, "title": "Jojo's blues", "work_id": 90160, "role": "director", "role_id": 938, "is_primary": true}, {"id": 2406407, "title": "Doin' what the crowd does", "work_id": 89994, "role": "director", "role_id": 938, "is_primary": true}], "also_known_as": "", "date_of_birth": "", "date_of_death": "", "genders": [], "languages": [], "places_of_operation": [], "biography": "", "biography_author": null, "date_of_biography": "2023-08-11T16:12:57.670003+10:00", "external_links": [], "uuid": "01474903-af5e-4bef-b5d5-9205cafea013", "source": {"name": "Vernon", "slug": "vernon"}, "source_identifier": "26740", "external_references": [], "date_modified": "2023-08-11T16:12:57.670275+10:00"}, {"id": 20817, "name": "Van Beuren Corporation", "roles_in_work": [{"id": 1809605, "title": "Fakeers of the east", "work_id": 88519, "role": "producer", "role_id": 1089, "is_primary": true}, {"id": 879978, "title": "The Lion tamer", "work_id": 92181, "role": "production company", "role_id": 941, "is_primary": true}, {"id": 765428, "title": "The Immigrant", "work_id": 77837, "role": "production company", "role_id": 941, "is_primary": true}, {"id": 808034, "title": "Damascus", "work_id": 91304, "role": "production company", "role_id": 941, "is_primary": true}, {"id": 2304362, "title": "Snow time", "work_id": 89336, "role": "production company", "role_id": 941, "is_primary": true}, {"id": 910490, "title": "Vagabond adventures: Moorish Spain", "work_id": 91228, "role": "production company", "role_id": 941, "is_primary": true}, {"id": 2165003, "title": "One a.m.", "work_id": 95488, "role": "production company", "role_id": 941, "is_primary": true}, {"id": 877885, "title": "Isle of spice", "work_id": 90950, "role": "production company", "role_id": 941, "is_primary": true}], "also_known_as": "", "date_of_birth": "", "date_of_death": "", "genders": [], "languages": [], "places_of_operation": [], "biography": "", "biography_author": null, "date_of_biography": "2023-05-09T18:42:38.572709+10:00", "external_links": [], "uuid": "676d2afb-129e-4876-9412-d7a6e0fc0816", "source": {"name": "Vernon", "slug": "vernon"}, "source_identifier": "3840", "external_references": [{"id": 33723, "source": {"name": "Wikidata", "slug": "wikidata"}, "source_identifier": "Q121314936"}], "date_modified": "2023-09-06T02:03:03.613317+10:00"}, {"id": 20816, "name": "Charles Lamont", "roles_in_work": [{"id": 864248, "title": "Jail Bait", "work_id": 77835, "role": "director", "role_id": 938, "is_primary": true}, {"id": 907920, "title": "The Gold ghost", "work_id": 88313, "role": "co-director", "role_id": 959, "is_primary": true}, {"id": 2286713, "title": "Two lame ducks", "work_id": 88421, "role": "writer", "role_id": 939, "is_primary": true}], "also_known_as": "", "date_of_birth": "1895-05-05", "date_of_death": "1993-09-12", "genders": [{"id": 9, "name": "Male", "slug": "male"}], "languages": [], "places_of_operation": [{"id": 1, "name": "United States of America", "slug": "united-states-of-america"}], "biography": "Charles Lamont (May 5, 1895 – September 11, 1993) was a prolific filmmaker, directing over 200 titles and producing and writing many others. He directed several Abbott and Costello comedies and many Ma and Pa Kettle films.\n\n", "biography_author": "Wikidata", "date_of_biography": "2023-08-01T14:23:21.095671+10:00", "external_links": [{"id": 3739, "uri": "https://en.wikipedia.org/wiki/Charles_Lamont"}], "uuid": "fcb529a6-e99d-4fe7-8efe-a89d8fa8c681", "source": {"name": "Vernon", "slug": "vernon"}, "source_identifier": "16692", "external_references": [{"id": 25546, "source": {"name": "Wikidata", "slug": "wikidata"}, "source_identifier": "Q1065270"}, {"id": 27761, "source": {"name": "VIAF", "slug": "viaf"}, "source_identifier": "58058081"}, {"id": 27762, "source": {"name": "LOC Auth", "slug": "loc-auth"}, "source_identifier": "n85199105"}, {"id": 27763, "source": {"name": "WorldCat", "slug": "worldcat"}, "source_identifier": "lccn-n85199105"}], "date_modified": "2023-09-05T18:26:56.311189+10:00"}, {"id": 20815, "name": "Leslie Pearce", "roles_in_work": [{"id": 864246, "title": "The Dentist", "work_id": 77834, "role": "director", "role_id": 938, "is_primary": true}], "also_known_as": "", "date_of_birth": "1887-04-20", "date_of_death": "1977-08-17", "genders": [{"id": 9, "name": "Male", "slug": "male"}], "languages": [], "places_of_operation": [{"id": 9, "name": "New Zealand", "slug": "new-zealand"}], "biography": "Arnold Leslie Pearce (20 April 1887 – 17 August 1977) was a New Zealand film director, who directed numerous short films in Hollywood during the 1930s, including several with W.C. Fields and Bing Crosby.", "biography_author": "Wikidata", "date_of_biography": "2023-08-01T15:56:05.562648+10:00", "external_links": [{"id": 4542, "uri": "https://en.wikipedia.org/wiki/Leslie_Pearce_(director)"}], "uuid": "eef78fdd-a142-4db0-b274-50c7e92d2c87", "source": {"name": "Vernon", "slug": "vernon"}, "source_identifier": "23783", "external_references": [{"id": 25650, "source": {"name": "Wikidata", "slug": "wikidata"}, "source_identifier": "Q3236716"}, {"id": 29925, "source": {"name": "VIAF", "slug": "viaf"}, "source_identifier": "45833789"}, {"id": 29926, "source": {"name": "LOC Auth", "slug": "loc-auth"}, "source_identifier": "n87911818"}, {"id": 29927, "source": {"name": "WorldCat", "slug": "worldcat"}, "source_identifier": "viaf-45833789"}], "date_modified": "2023-09-13T12:30:59.119352+10:00"}, {"id": 20814, "name": "Guaranteed Pictures", "roles_in_work": [{"id": 2647950, "title": "Easy street [Music version]", "work_id": 77833, "role": "production company", "role_id": 941, "is_primary": true}, {"id": 879968, "title": "Easy street [Silent version]", "work_id": 92169, "role": "production company", "role_id": 941, "is_primary": true}], "also_known_as": "", "date_of_birth": null, "date_of_death": null, "genders": [], "languages": [], "places_of_operation": [], "biography": "", "biography_author": null, "date_of_biography": null, "external_links": [], "uuid": "eee86d6c-bdc2-4d8e-a9ce-6877ac549558", "source": {"name": "Vernon", "slug": "vernon"}, "source_identifier": "8928", "external_references": [], "date_modified": "2025-03-05T13:36:19.608992+11:00"}]}