{"count": 28687, "next": "https://api.acmi.net.au/creators/?page=1955", "previous": "https://api.acmi.net.au/creators/?page=1953", "results": [{"id": 23464, "name": "David Helpern Jr", "roles_in_work": [{"id": 866296, "title": "Hollywood on Trial", "work_id": 81219, "role": "director", "role_id": 938, "is_primary": true}], "also_known_as": "", "date_of_birth": null, "date_of_death": null, "genders": [{"id": 9, "name": "Male", "slug": "male"}], "languages": [], "places_of_operation": [], "biography": "", "biography_author": null, "date_of_biography": null, "external_links": [], "uuid": "5b576d42-2991-41d2-adfa-c2589dac820f", "source": {"name": "Vernon", "slug": "vernon"}, "source_identifier": "17633", "external_references": [{"id": 8209, "source": {"name": "Wikidata", "slug": "wikidata"}, "source_identifier": "Q22102000"}], "date_modified": "2023-09-13T12:28:58.618880+10:00"}, {"id": 23456, "name": "Motoko Sakaguchi", "roles_in_work": [{"id": 2159235, "title": "Ivan the Terrible = Ivan der Schreckliche [Widescreen]", "work_id": 95347, "role": "director", "role_id": 938, "is_primary": true}, {"id": 2253431, "title": "Romeo and Juliet (Bolshoi Ballet)", "work_id": 81212, "role": "director", "role_id": 938, "is_primary": true}], "also_known_as": "", "date_of_birth": "", "date_of_death": "", "genders": [], "languages": [], "places_of_operation": [], "biography": "", "biography_author": null, "date_of_biography": "2023-05-09T17:14:30.250639+10:00", "external_links": [], "uuid": "e24cea1e-44d2-4416-8dec-08b432c10452", "source": {"name": "Vernon", "slug": "vernon"}, "source_identifier": "25543", "external_references": [{"id": 39059, "source": {"name": "Wikidata", "slug": "wikidata"}, "source_identifier": "Q121091112"}], "date_modified": "2023-09-05T23:22:02.195974+10:00"}, {"id": 23455, "name": "Takeshi Hara", "roles_in_work": [{"id": 2236566, "title": "Raymonda", "work_id": 95354, "role": "producer", "role_id": 1089, "is_primary": true}, {"id": 2253428, "title": "Romeo and Juliet (Bolshoi Ballet)", "work_id": 81212, "role": "producer", "role_id": 1089, "is_primary": true}, {"id": 1807682, "title": "The Sleeping beauty (Bolshoi Ballet)", "work_id": 95371, "role": "producer", "role_id": 1089, "is_primary": true}], "also_known_as": "", "date_of_birth": "", "date_of_death": "", "genders": [], "languages": [], "places_of_operation": [], "biography": "", "biography_author": null, "date_of_biography": "2023-05-09T17:14:30.027702+10:00", "external_links": [], "uuid": "07170665-0b90-4be5-938b-4463d34ef25e", "source": {"name": "Vernon", "slug": "vernon"}, "source_identifier": "29473", "external_references": [{"id": 36059, "source": {"name": "Wikidata", "slug": "wikidata"}, "source_identifier": "Q121271002"}], "date_modified": "2023-09-06T01:40:30.709786+10:00"}, {"id": 23454, "name": "Primetime", "roles_in_work": [{"id": 885484, "title": "The Sleeping beauty (Bolshoi Ballet)", "work_id": 95371, "role": "production company", "role_id": 941, "is_primary": true}, {"id": 2253422, "title": "Romeo and Juliet (Bolshoi Ballet)", "work_id": 81212, "role": "production company", "role_id": 941, "is_primary": true}, {"id": 2210335, "title": "Porgy and Bess", "work_id": 83725, "role": "production company", "role_id": 941, "is_primary": true}, {"id": 2236563, "title": "Raymonda", "work_id": 95354, "role": "production company", "role_id": 941, "is_primary": true}], "also_known_as": "", "date_of_birth": "", "date_of_death": "", "genders": [], "languages": [], "places_of_operation": [], "biography": "", "biography_author": null, "date_of_biography": "2023-05-09T17:14:29.798501+10:00", "external_links": [], "uuid": "7f0dfafb-980b-4ec9-b120-a084f5a3f997", "source": {"name": "Vernon", "slug": "vernon"}, "source_identifier": "11641", "external_references": [{"id": 34376, "source": {"name": "Wikidata", "slug": "wikidata"}, "source_identifier": "Q121271287"}], "date_modified": "2023-09-06T00:14:10.892577+10:00"}, {"id": 23453, "name": "RPTA", "roles_in_work": [{"id": 2236556, "title": "Raymonda", "work_id": 95354, "role": "production company", "role_id": 941, "is_primary": true}, {"id": 885483, "title": "The Sleeping beauty (Bolshoi Ballet)", "work_id": 95371, "role": "production company", "role_id": 941, "is_primary": true}, {"id": 2253417, "title": "Romeo and Juliet (Bolshoi Ballet)", "work_id": 81212, "role": "production company", "role_id": 941, "is_primary": true}], "also_known_as": "", "date_of_birth": "", "date_of_death": "", "genders": [], "languages": [], "places_of_operation": [], "biography": "", "biography_author": null, "date_of_biography": "2023-05-09T17:14:29.569870+10:00", "external_links": [], "uuid": "c9e5071d-766b-48e9-956e-4a8f0b0bcfbb", "source": {"name": "Vernon", "slug": "vernon"}, "source_identifier": "4264", "external_references": [{"id": 40356, "source": {"name": "Wikidata", "slug": "wikidata"}, "source_identifier": "Q121298732"}], "date_modified": "2023-09-06T00:57:55.674796+10:00"}, {"id": 23452, "name": "Bolshoi Theatre of the USSR", "roles_in_work": [{"id": 2253412, "title": "Romeo and Juliet (Bolshoi Ballet)", "work_id": 81212, "role": "production company", "role_id": 941, "is_primary": true}, {"id": 2236549, "title": "Raymonda", "work_id": 95354, "role": "production company", "role_id": 941, "is_primary": true}], "also_known_as": "", "date_of_birth": "", "date_of_death": "", "genders": [], "languages": [], "places_of_operation": [], "biography": "", "biography_author": null, "date_of_biography": "2023-05-09T17:14:29.324275+10:00", "external_links": [], "uuid": "e6458444-9bb2-4502-897f-d57c91780440", "source": {"name": "Vernon", "slug": "vernon"}, "source_identifier": "4262", "external_references": [{"id": 39155, "source": {"name": "Wikidata", "slug": "wikidata"}, "source_identifier": "Q121126631"}], "date_modified": "2023-09-05T18:08:20.831462+10:00"}, {"id": 23451, "name": "Videofilm", "roles_in_work": [{"id": 2236544, "title": "Raymonda", "work_id": 95354, "role": "production company", "role_id": 941, "is_primary": true}, {"id": 885482, "title": "The Sleeping beauty (Bolshoi Ballet)", "work_id": 95371, "role": "production company", "role_id": 941, "is_primary": true}, {"id": 2253407, "title": "Romeo and Juliet (Bolshoi Ballet)", "work_id": 81212, "role": "production company", "role_id": 941, "is_primary": true}], "also_known_as": "", "date_of_birth": "", "date_of_death": "", "genders": [], "languages": [], "places_of_operation": [], "biography": "", "biography_author": null, "date_of_biography": "2023-05-09T17:14:29.084330+10:00", "external_links": [], "uuid": "a1c21652-e82e-47d6-b86e-5d4064cdd75e", "source": {"name": "Vernon", "slug": "vernon"}, "source_identifier": "3723", "external_references": [{"id": 35835, "source": {"name": "Wikidata", "slug": "wikidata"}, "source_identifier": "Q121091111"}], "date_modified": "2023-09-06T02:06:14.462030+10:00"}, {"id": 23450, "name": "NHK Entapuraizu", "roles_in_work": [{"id": 885481, "title": "The Sleeping beauty (Bolshoi Ballet)", "work_id": 95371, "role": "production company", "role_id": 941, "is_primary": true}, {"id": 2236539, "title": "Raymonda", "work_id": 95354, "role": "production company", "role_id": 941, "is_primary": true}, {"id": 907023, "title": "Now you see me, now you don't: survival mechanisms of insects", "work_id": 87641, "role": "production company", "role_id": 941, "is_primary": true}, {"id": 2253402, "title": "Romeo and Juliet (Bolshoi Ballet)", "work_id": 81212, "role": "production company", "role_id": 941, "is_primary": true}], "also_known_as": "", "date_of_birth": "", "date_of_death": "", "genders": [], "languages": [], "places_of_operation": [], "biography": "", "biography_author": null, "date_of_biography": "2023-05-09T17:14:28.859211+10:00", "external_links": [], "uuid": "47d70334-adbb-4d51-b220-1b76de4bd74e", "source": {"name": "Vernon", "slug": "vernon"}, "source_identifier": "3722", "external_references": [{"id": 50692, "source": {"name": "Wikidata", "slug": "wikidata"}, "source_identifier": "Q121357926"}], "date_modified": "2023-09-05T23:28:59.239374+10:00"}, {"id": 23449, "name": "Sunley Productions", "roles_in_work": [{"id": 2649249, "title": "Gilbert & Sullivan's Trial By Jury", "work_id": 81210, "role": "production company", "role_id": 941, "is_primary": true}, {"id": 1846159, "title": "Gilbert & Sullivan's the Sorcerer", "work_id": 81327, "role": "production company", "role_id": 941, "is_primary": true}, {"id": 1846265, "title": "Gilbert & Sullivan's the Mikado or the town of Titipu", "work_id": 81641, "role": "production company", "role_id": 941, "is_primary": true}], "also_known_as": "", "date_of_birth": null, "date_of_death": null, "genders": [], "languages": [], "places_of_operation": [], "biography": "", "biography_author": null, "date_of_biography": null, "external_links": [], "uuid": "78fe8d8e-93bb-473d-b180-7f6f7690e676", "source": {"name": "Vernon", "slug": "vernon"}, "source_identifier": "13051", "external_references": [], "date_modified": "2025-03-05T13:57:49.814010+11:00"}, {"id": 23448, "name": "Parsons & Whittemore Lyddon", "roles_in_work": [{"id": 2649244, "title": "Gilbert & Sullivan's Iolanthe: or the Peer and the Peri", "work_id": 81209, "role": "production company", "role_id": 941, "is_primary": true}], "also_known_as": "", "date_of_birth": null, "date_of_death": null, "genders": [], "languages": [], "places_of_operation": [], "biography": "", "biography_author": null, "date_of_biography": null, "external_links": [], "uuid": "46503fed-0659-4364-878a-ce4b9399b708", "source": {"name": "Vernon", "slug": "vernon"}, "source_identifier": "11308", "external_references": [], "date_modified": "2025-03-05T13:57:46.649804+11:00"}]}