{"count": 28687, "next": "https://api.acmi.net.au/creators/?page=1991", "previous": "https://api.acmi.net.au/creators/?page=1989", "results": [{"id": 22766, "name": "Independent Producers", "roles_in_work": [{"id": 2071053, "title": "A Matter of life and death", "work_id": 86823, "role": "production company", "role_id": 941, "is_primary": true}, {"id": 1984684, "title": "Great expectations", "work_id": 80677, "role": "production company", "role_id": 941, "is_primary": true}], "also_known_as": "", "date_of_birth": "", "date_of_death": "", "genders": [], "languages": [], "places_of_operation": [], "biography": "", "biography_author": null, "date_of_biography": "2023-05-09T11:33:04.357281+10:00", "external_links": [], "uuid": "d750a85f-2233-4474-927e-b5a8ff1e9139", "source": {"name": "Vernon", "slug": "vernon"}, "source_identifier": "4714", "external_references": [{"id": 34446, "source": {"name": "Wikidata", "slug": "wikidata"}, "source_identifier": "Q121299472"}], "date_modified": "2023-09-05T20:48:17.907298+10:00"}, {"id": 22764, "name": "Two Cities Films", "roles_in_work": [{"id": 1985533, "title": "Blithe spirit", "work_id": 81308, "role": "production company", "role_id": 941, "is_primary": true}, {"id": 1986087, "title": "In which we serve", "work_id": 81812, "role": "production company", "role_id": 941, "is_primary": true}, {"id": 906750, "title": "W. Somerset Maugham's Trio", "work_id": 87384, "role": "production company", "role_id": 941, "is_primary": true}, {"id": 1994029, "title": "The Purple plain", "work_id": 89733, "role": "production company", "role_id": 941, "is_primary": true}, {"id": 1992766, "title": "To Paris with love", "work_id": 88399, "role": "production company", "role_id": 941, "is_primary": true}, {"id": 1998147, "title": "Odd man out", "work_id": 93644, "role": "production company", "role_id": 941, "is_primary": true}, {"id": 2219089, "title": "English without tears", "work_id": 94733, "role": "production company", "role_id": 941, "is_primary": true}, {"id": 2475664, "title": "The October man", "work_id": 84661, "role": "production company", "role_id": 941, "is_primary": true}, {"id": 1998562, "title": "The Importance of being earnest [DVD]", "work_id": 93928, "role": "production company", "role_id": 941, "is_primary": true}, {"id": 2355842, "title": "The Immortal battalion = The Way ahead", "work_id": 95385, "role": "production company", "role_id": 941, "is_primary": true}, {"id": 906755, "title": "W. Somerset Maugham's Encore", "work_id": 87387, "role": "production company", "role_id": 941, "is_primary": true}], "also_known_as": "", "date_of_birth": "", "date_of_death": "", "genders": [], "languages": [], "places_of_operation": [], "biography": "Two Cities Films is a British film production company. Formed in 1937, it was originally envisaged as a production company operating in the two cities of London and Rome which gave the company its name.\nThe driving forces behind the company were the flamboyant, Italian-born Filippo Del Giudice, and his partner the multitalented Mario Zampi, born in Sora, Italy who often worked in the dual role of director and producer. Two Cities produced a number of quintessentially English film classics including the most popular British film from the wartime period, In Which We Serve (1942).Other Two Cities films such as This Happy Breed (1944), The Way Ahead (1944), Henry V (1944), The Way to the Stars (1945), and Blithe Spirit (1945) contributed significantly to the high critical reputation acquired by the British cinema of the time.In the mid-1940s Two Cities Films became part of the Rank Organisation. It was raising the finances for the production of Laurence Olivier's patriotic epic Henry V (1944) totalling more than £470,000, which forced Filippo Del Giudice to surrender his controlling interest in the company to the Rank Organisation.\nUnder Rank they produced key films such as Odd Man Out (1947), Hamlet (1948), and Vice Versa (1948).\nTwo Cities Films is now owned by Gregory Motton.", "biography_author": "Wikidata", "date_of_biography": "2023-09-06T02:00:19.914239+10:00", "external_links": [{"id": 5304, "uri": "https://en.wikipedia.org/wiki/Two_Cities_Films"}], "uuid": "42533c1a-3f38-46a0-a288-69ff7eec4e03", "source": {"name": "Vernon", "slug": "vernon"}, "source_identifier": "13788", "external_references": [{"id": 26940, "source": {"name": "Wikidata", "slug": "wikidata"}, "source_identifier": "Q3542595"}, {"id": 31883, "source": {"name": "VIAF", "slug": "viaf"}, "source_identifier": "140834492"}, {"id": 31884, "source": {"name": "LOC Auth", "slug": "loc-auth"}, "source_identifier": "no97045378"}, {"id": 31885, "source": {"name": "WorldCat", "slug": "worldcat"}, "source_identifier": "lccn-no97045378"}], "date_modified": "2023-09-06T02:00:19.938981+10:00"}, {"id": 22762, "name": "Rank Film Productions", "roles_in_work": [{"id": 2788614, "title": "Hue and cry", "work_id": 85183, "role": "production company", "role_id": 941, "is_primary": true}, {"id": 2649374, "title": "The Life and Death of Colonel Blimp", "work_id": 81423, "role": "production company", "role_id": 941, "is_primary": true}, {"id": 2752886, "title": "Tale of two cities", "work_id": 98502, "role": "production company", "role_id": 941, "is_primary": true}, {"id": 2616169, "title": "A Night to remember (Captioned)", "work_id": 86829, "role": "production company", "role_id": 941, "is_primary": true}, {"id": 2788633, "title": "Saraband for dead lovers", "work_id": 85186, "role": "production company", "role_id": 941, "is_primary": true}, {"id": 2754661, "title": "Educating Rita", "work_id": 99301, "role": "production company", "role_id": 941, "is_primary": true}, {"id": 1998560, "title": "The Importance of being earnest [DVD]", "work_id": 93928, "role": "production company", "role_id": 941, "is_primary": true}, {"id": 2106700, "title": "Bad timing", "work_id": 95141, "role": "production company", "role_id": 941, "is_primary": true}, {"id": 2315248, "title": "Streamers", "work_id": 83808, "role": "production company", "role_id": 941, "is_primary": true}, {"id": 2330177, "title": "The Belstone Fox", "work_id": 81649, "role": "production company", "role_id": 941, "is_primary": true}, {"id": 1979051, "title": "Scott of the Antarctic", "work_id": 99299, "role": "production company", "role_id": 941, "is_primary": true}, {"id": 2245768, "title": "Carry on up the Khyber", "work_id": 89036, "role": "production company", "role_id": 941, "is_primary": true}, {"id": 805782, "title": "Give them a chance: mission to no-man's land", "work_id": 90528, "role": "production company", "role_id": 941, "is_primary": true}, {"id": 2159035, "title": "Mississippi burning", "work_id": 84657, "role": "production company", "role_id": 941, "is_primary": true}, {"id": 886358, "title": "Sir Joseph Thomson", "work_id": 95788, "role": "production company", "role_id": 941, "is_primary": true}, {"id": 874214, "title": "Look at life: under your feet", "work_id": 88623, "role": "production company", "role_id": 941, "is_primary": true}, {"id": 2245961, "title": "Carry on up the Khyber (Captioned)", "work_id": 82934, "role": "production company", "role_id": 941, "is_primary": true}, {"id": 784579, "title": "Robbery under arms", "work_id": 84136, "role": "production company", "role_id": 941, "is_primary": true}, {"id": 2181256, "title": "Dead ringers", "work_id": 84666, "role": "production company", "role_id": 941, "is_primary": true}, {"id": 2305502, "title": "Somerset Maugham's Quartet", "work_id": 82113, "role": "production company", "role_id": 941, "is_primary": true}, {"id": 1995811, "title": "Lawn dogs", "work_id": 92334, "role": "production company", "role_id": 941, "is_primary": true}, {"id": 2073574, "title": "A Queen is crowned", "work_id": 83915, "role": "production company", "role_id": 941, "is_primary": true}, {"id": 1550788, "title": "Meet the mayor", "work_id": 90885, "role": "production company", "role_id": 941, "is_primary": true}, {"id": 2269498, "title": "Weekend at Bernies", "work_id": 94266, "role": "production company", "role_id": 941, "is_primary": true}, {"id": 2269548, "title": "Weekend at Bernies (Captioned)", "work_id": 84252, "role": "production company", "role_id": 941, "is_primary": true}, {"id": 2065549, "title": "A Canterbury tale", "work_id": 82497, "role": "production company", "role_id": 941, "is_primary": true}, {"id": 1989648, "title": "The Shout", "work_id": 85332, "role": "production company", "role_id": 941, "is_primary": true}], "also_known_as": "", "date_of_birth": "", "date_of_death": "", "genders": [], "languages": [], "places_of_operation": [], "biography": "", "biography_author": null, "date_of_biography": "2023-05-09T20:07:58.701259+10:00", "external_links": [], "uuid": "f493cfe1-514f-4c08-8c84-09db7889307c", "source": {"name": "Vernon", "slug": "vernon"}, "source_identifier": "11854", "external_references": [{"id": 34570, "source": {"name": "Wikidata", "slug": "wikidata"}, "source_identifier": "Q121315563"}], "date_modified": "2025-03-14T19:45:13.406651+11:00"}, {"id": 22760, "name": "Seven Arts Productions", "roles_in_work": [{"id": 1987753, "title": "Whatever happened to Baby Jane?", "work_id": 83907, "role": "production company", "role_id": 941, "is_primary": true}, {"id": 2146753, "title": "Countdown", "work_id": 89537, "role": "production company", "role_id": 941, "is_primary": true}, {"id": 2279070, "title": "West Side Story", "work_id": 80674, "role": "production company", "role_id": 941, "is_primary": true}, {"id": 1986991, "title": "The Roman spring of Mrs. Stone", "work_id": 83128, "role": "production company", "role_id": 941, "is_primary": true}], "also_known_as": "", "date_of_birth": "", "date_of_death": "", "genders": [], "languages": [], "places_of_operation": [], "biography": "Seven Arts Productions was a production company which made films for release by other studios. It was founded in 1957 by Eliot Hyman, Ray Stark, and Norman Katz.", "biography_author": "Wikidata", "date_of_biography": "2023-08-01T17:03:07.172804+10:00", "external_links": [{"id": 5147, "uri": "https://en.wikipedia.org/wiki/Seven_Arts_Productions"}], "uuid": "37cc3f65-45c9-4f88-8a24-f7ec260aea5a", "source": {"name": "Vernon", "slug": "vernon"}, "source_identifier": "4888", "external_references": [{"id": 26949, "source": {"name": "Wikidata", "slug": "wikidata"}, "source_identifier": "Q3298993"}, {"id": 31480, "source": {"name": "VIAF", "slug": "viaf"}, "source_identifier": "312726667"}, {"id": 31481, "source": {"name": "LOC Auth", "slug": "loc-auth"}, "source_identifier": "n85199245"}, {"id": 31482, "source": {"name": "WorldCat", "slug": "worldcat"}, "source_identifier": "lccn-n85199245"}], "date_modified": "2023-09-06T01:12:14.333624+10:00"}, {"id": 22759, "name": "Mirisch Corporation", "roles_in_work": [{"id": 2352069, "title": "The Great escape (Captioned)", "work_id": 84988, "role": "production company", "role_id": 941, "is_primary": true}, {"id": 2476432, "title": "Irma La Douce", "work_id": 84588, "role": "production company", "role_id": 941, "is_primary": true}, {"id": 817689, "title": "The Magnificent seven (Special edition) [DVD]", "work_id": 93948, "role": "production company", "role_id": 941, "is_primary": true}, {"id": 1989217, "title": "The Party", "work_id": 85072, "role": "production company", "role_id": 941, "is_primary": true}, {"id": 1989964, "title": "In the heat of the night", "work_id": 85521, "role": "production company", "role_id": 941, "is_primary": true}, {"id": 2649542, "title": "Fiddler on the roof", "work_id": 81733, "role": "production company", "role_id": 941, "is_primary": true}, {"id": 1988992, "title": "The Magnificent seven (Captioned)", "work_id": 84991, "role": "production company", "role_id": 941, "is_primary": true}, {"id": 2275244, "title": "The Thomas Crown affair (Original)", "work_id": 85528, "role": "production company", "role_id": 941, "is_primary": true}, {"id": 1994530, "title": "The Great escape [DVD]", "work_id": 90449, "role": "production company", "role_id": 941, "is_primary": true}, {"id": 2327747, "title": "The Apartment", "work_id": 83102, "role": "production company", "role_id": 941, "is_primary": true}, {"id": 781042, "title": "The Pink panther (Captioned)", "work_id": 83040, "role": "production company", "role_id": 941, "is_primary": true}, {"id": 2279069, "title": "West Side Story", "work_id": 80674, "role": "production company", "role_id": 941, "is_primary": true}, {"id": 788233, "title": "The Pink panther", "work_id": 85075, "role": "production company", "role_id": 941, "is_primary": true}], "also_known_as": "", "date_of_birth": "", "date_of_death": "", "genders": [], "languages": [], "places_of_operation": [], "biography": "", "biography_author": null, "date_of_biography": "2023-08-17T15:36:35.482979+10:00", "external_links": [], "uuid": "6fb5d0b0-06de-429d-b481-5dee8ab00d72", "source": {"name": "Vernon", "slug": "vernon"}, "source_identifier": "4887", "external_references": [], "date_modified": "2025-03-05T14:02:40.392523+11:00"}, {"id": 22756, "name": "Great Britain, Ikon TV, Holland, Sveriges TV, Sweden", "roles_in_work": [{"id": 2649037, "title": "The World Is Watching", "work_id": 80672, "role": "production company", "role_id": 941, "is_primary": true}], "also_known_as": "", "date_of_birth": "", "date_of_death": "", "genders": [], "languages": [], "places_of_operation": [], "biography": "", "biography_author": null, "date_of_biography": "2023-05-09T17:54:43.192507+10:00", "external_links": [], "uuid": "162464e3-6687-470b-ac8b-141ef30b83c0", "source": {"name": "Vernon", "slug": "vernon"}, "source_identifier": "8864", "external_references": [{"id": 33000, "source": {"name": "Wikidata", "slug": "wikidata"}, "source_identifier": "Q121034764"}], "date_modified": "2025-03-05T13:55:36.254988+11:00"}, {"id": 22755, "name": "TV Ontario", "roles_in_work": [{"id": 2321142, "title": "Take a look", "work_id": 84846, "role": "production company", "role_id": 941, "is_primary": true}, {"id": 786998, "title": "Mathica's mathshop", "work_id": 84774, "role": "production company", "role_id": 941, "is_primary": true}, {"id": 2789407, "title": "Organic chemistry 1", "work_id": 84385, "role": "production company", "role_id": 941, "is_primary": true}, {"id": 2789331, "title": "Photosynthesis", "work_id": 84380, "role": "production company", "role_id": 941, "is_primary": true}, {"id": 2789313, "title": "Cellular respiration", "work_id": 84376, "role": "production company", "role_id": 941, "is_primary": true}, {"id": 2649035, "title": "The World Is Watching", "work_id": 80672, "role": "production company", "role_id": 941, "is_primary": true}, {"id": 2793668, "title": "Authors at the harbourfront", "work_id": 115478, "role": "production company", "role_id": 941, "is_primary": true}, {"id": 2793664, "title": "Margaret Atwood", "work_id": 85849, "role": "production company", "role_id": 941, "is_primary": true}, {"id": 2155471, "title": "It takes a child: Craig Kielburger's story: a journey into child labour", "work_id": 91579, "role": "production company", "role_id": 941, "is_primary": true}, {"id": 2284280, "title": "Zardip's search for healthy wellness. Part 1", "work_id": 84520, "role": "production company", "role_id": 941, "is_primary": true}, {"id": 2284233, "title": "Zardip's search for healthy wellness. Part 2", "work_id": 84521, "role": "production company", "role_id": 941, "is_primary": true}, {"id": 787303, "title": "Take a look 2", "work_id": 84847, "role": "production company", "role_id": 941, "is_primary": true}, {"id": 2116317, "title": "Bits and bytes. Parts 1-12", "work_id": 98954, "role": "production company", "role_id": 941, "is_primary": true}, {"id": 907022, "title": "Now you see me, now you don't: survival mechanisms of insects", "work_id": 87641, "role": "production company", "role_id": 941, "is_primary": true}], "also_known_as": "", "date_of_birth": "", "date_of_death": "", "genders": [], "languages": [], "places_of_operation": [], "biography": "", "biography_author": null, "date_of_biography": "2023-05-09T19:12:14.491006+10:00", "external_links": [], "uuid": "60a5f18f-1a63-4887-8be5-c034e244a02f", "source": {"name": "Vernon", "slug": "vernon"}, "source_identifier": "4249", "external_references": [{"id": 41251, "source": {"name": "Wikidata", "slug": "wikidata"}, "source_identifier": "Q121126553"}], "date_modified": "2025-03-14T20:19:49.565353+11:00"}, {"id": 22754, "name": "Investigative Productions Inc", "roles_in_work": [{"id": 2649034, "title": "The World Is Watching", "work_id": 80672, "role": "production company", "role_id": 941, "is_primary": true}], "also_known_as": "", "date_of_birth": "", "date_of_death": "", "genders": [], "languages": [], "places_of_operation": [], "biography": "", "biography_author": null, "date_of_biography": "2023-05-09T17:54:42.506145+10:00", "external_links": [], "uuid": "22669e67-0bea-4597-bc24-0b4ec05c14a1", "source": {"name": "Vernon", "slug": "vernon"}, "source_identifier": "9426", "external_references": [{"id": 40611, "source": {"name": "Wikidata", "slug": "wikidata"}, "source_identifier": "Q121160053"}], "date_modified": "2025-03-05T13:55:34.472405+11:00"}, {"id": 22751, "name": "George Stevens", "roles_in_work": [{"id": 2097700, "title": "Annie Oakley", "work_id": 81309, "role": "director", "role_id": 938, "is_primary": true}, {"id": 2649222, "title": "Swing time", "work_id": 81142, "role": "director", "role_id": 938, "is_primary": true}, {"id": 1985342, "title": "Woman of the Year", "work_id": 81225, "role": "director", "role_id": 938, "is_primary": true}, {"id": 2233645, "title": "Quality Street", "work_id": 81427, "role": "director", "role_id": 938, "is_primary": true}, {"id": 1838304, "title": "Giant", "work_id": 83861, "role": "director", "role_id": 938, "is_primary": true}, {"id": 1838302, "title": "Giant", "work_id": 83861, "role": "co-producer", "role_id": 915, "is_primary": true}, {"id": 2327137, "title": "The American Film Institute salute to Gene Kelly", "work_id": 95319, "role": "producer", "role_id": 1089, "is_primary": true}, {"id": 2072777, "title": "A Place in the sun", "work_id": 84560, "role": "producer/director", "role_id": 31, "is_primary": true}, {"id": 2296778, "title": "Shane", "work_id": 85056, "role": "producer/director", "role_id": 31, "is_primary": true}, {"id": 2352509, "title": "The Greatest story ever told", "work_id": 84554, "role": "producer/director", "role_id": 31, "is_primary": true}, {"id": 2193762, "title": "Penny serenade [DVD]", "work_id": 94276, "role": "producer/director", "role_id": 31, "is_primary": true}, {"id": 1990640, "title": "The Talk of the town", "work_id": 86259, "role": "producer/director", "role_id": 31, "is_primary": true}, {"id": 2750959, "title": "Shane [Edited version]", "work_id": 97592, "role": "producer/director", "role_id": 31, "is_primary": true}, {"id": 1984672, "title": "The Diary of Anne Frank", "work_id": 80670, "role": "producer/director", "role_id": 31, "is_primary": true}, {"id": 1985236, "title": "Gunga Din", "work_id": 81179, "role": "producer/director", "role_id": 31, "is_primary": true}], "also_known_as": "George Cooper Stevens", "date_of_birth": "1904-12-18", "date_of_death": "1975-03-08", "genders": [{"id": 9, "name": "Male", "slug": "male"}], "languages": [{"id": 1, "name": "English", "slug": "english"}], "places_of_operation": [{"id": 1, "name": "United States of America", "slug": "united-states-of-america"}], "biography": "George Cooper Stevens (December 18, 1904 – March 8, 1975) was an American film director, producer, screenwriter and cinematographer.Among his most notable films are Swing Time (1936), The More the Merrier (1943; for which he was nominated for the Best Director Oscar), A Place in the Sun (1951; for which he won the Best Director Oscar), Shane (1953; nominated for the Best Director Oscar), Giant (1956; won the Best Director Oscar), and The Diary of Anne Frank (1959; nominated for the Best Director Oscar).", "biography_author": "Wikidata", "date_of_biography": "2022-05-19T11:36:28+10:00", "external_links": [{"id": 2128, "uri": "https://en.wikipedia.org/wiki/George_Stevens"}], "uuid": "6d6267ad-9d25-45d2-8530-f529e69080b0", "source": {"name": "Vernon", "slug": "vernon"}, "source_identifier": "19681", "external_references": [{"id": 9163, "source": {"name": "Wikidata", "slug": "wikidata"}, "source_identifier": "Q51490"}, {"id": 9164, "source": {"name": "VIAF", "slug": "viaf"}, "source_identifier": "113665136"}, {"id": 9165, "source": {"name": "LOC Auth", "slug": "loc-auth"}, "source_identifier": "n81099264"}, {"id": 9166, "source": {"name": "WorldCat", "slug": "worldcat"}, "source_identifier": "lccn-n81099264"}], "date_modified": "2025-03-13T00:32:45.434451+11:00"}, {"id": 22748, "name": "Karen Thorsen", "roles_in_work": [{"id": 2171782, "title": "James Baldwin: the price of the ticket", "work_id": 80669, "role": "director", "role_id": 938, "is_primary": true}, {"id": 2171777, "title": "James Baldwin: the price of the ticket", "work_id": 80669, "role": "co-producer", "role_id": 915, "is_primary": true}, {"id": 2171775, "title": "James Baldwin: the price of the ticket", "work_id": 80669, "role": "production company", "role_id": 941, "is_primary": true}], "also_known_as": "", "date_of_birth": "", "date_of_death": "", "genders": [], "languages": [], "places_of_operation": [], "biography": "", "biography_author": null, "date_of_biography": "2023-05-09T14:37:10.571246+10:00", "external_links": [], "uuid": "5885116f-6ce3-4d8f-b899-9c0f8119e59b", "source": {"name": "Vernon", "slug": "vernon"}, "source_identifier": "23011", "external_references": [{"id": 32421, "source": {"name": "Wikidata", "slug": "wikidata"}, "source_identifier": "Q99979822"}], "date_modified": "2023-09-05T22:00:06.046535+10:00"}]}