{"count": 28687, "next": "https://api.acmi.net.au/creators/?page=2825", "previous": "https://api.acmi.net.au/creators/?page=2823", "results": [{"id": 8330, "name": "Shirley Barrett", "roles_in_work": [{"id": 1771534, "title": "Walk the talk", "work_id": 93567, "role": "director", "role_id": 938, "is_primary": true}, {"id": 2629735, "title": "Cherith", "work_id": 108531, "role": "director", "role_id": 938, "is_primary": true}, {"id": 2640708, "title": "Cherith", "work_id": 114272, "role": "director", "role_id": 938, "is_primary": true}, {"id": 2615512, "title": "Love serenade", "work_id": 85609, "role": "director", "role_id": 938, "is_primary": true}, {"id": 1771610, "title": "Love serenade", "work_id": 115739, "role": "director", "role_id": 938, "is_primary": true}, {"id": 2640709, "title": "Cherith", "work_id": 114272, "role": "writer", "role_id": 939, "is_primary": true}, {"id": 2629736, "title": "Cherith", "work_id": 108531, "role": "writer", "role_id": 939, "is_primary": true}], "also_known_as": "", "date_of_birth": "1961-01-01", "date_of_death": "2022-08-03", "genders": [{"id": 5, "name": "Female", "slug": "female"}], "languages": [{"id": 1, "name": "English", "slug": "english"}], "places_of_operation": [{"id": 3, "name": "Australia", "slug": "australia"}], "biography": "Shirley Barrett (born 1961) is an Australian film director, screenwriter and novelist. Her first film Love Serenade won the Caméra d'Or at the 1996 Cannes Film Festival. She has written and directed two other feature films Walk the Talk (2000) and South Solitary (2010). Barrett's script for South Solitary was awarded multiple prizes, including the Queensland Premier's Prize and the West Australian Premier's Prize. Her first novel Rush Oh! (2016) was shortlisted for the 2016 Indie Awards for Debut Fiction and the 2016 Nita May Dobbie Award, and long-listed for the 2016 Baileys Women's Prize for Fiction.  Her second novel The Bus on Thursday was released in 2018.\n\n", "biography_author": "Wikidata", "date_of_biography": "2022-05-19T13:04:42.328928+10:00", "external_links": [{"id": 3096, "uri": "https://en.wikipedia.org/wiki/Shirley_Barrett"}], "uuid": "cdb98d45-2893-4c27-a0ab-a7e1a24db79e", "source": {"name": "Vernon", "slug": "vernon"}, "source_identifier": "111419", "external_references": [{"id": 13135, "source": {"name": "Wikidata", "slug": "wikidata"}, "source_identifier": "Q7498695"}, {"id": 13136, "source": {"name": "VIAF", "slug": "viaf"}, "source_identifier": "59289581"}, {"id": 13137, "source": {"name": "LOC Auth", "slug": "loc-auth"}, "source_identifier": "no98116846"}, {"id": 13138, "source": {"name": "WorldCat", "slug": "worldcat"}, "source_identifier": "lccn-no98116846"}], "date_modified": "2025-03-05T11:30:03.596337+11:00"}, {"id": 8329, "name": "Steve French", "roles_in_work": [{"id": 761272, "title": "Bushed", "work_id": 76152, "role": "director", "role_id": 938, "is_primary": true}, {"id": 2629733, "title": "Bushed", "work_id": 108530, "role": "director", "role_id": 938, "is_primary": true}, {"id": 879959, "title": "Storm", "work_id": 92163, "role": "director", "role_id": 938, "is_primary": true}, {"id": 2752326, "title": "Dudu and the line", "work_id": 98243, "role": "director", "role_id": 938, "is_primary": true}, {"id": 863829, "title": "There's dragons (K)", "work_id": 77516, "role": "director", "role_id": 938, "is_primary": true}, {"id": 2227548, "title": "Far out kids animation", "work_id": 79012, "role": "co-director", "role_id": 959, "is_primary": true}], "also_known_as": "", "date_of_birth": "", "date_of_death": "", "genders": [], "languages": [], "places_of_operation": [], "biography": "", "biography_author": null, "date_of_biography": "2023-05-17T03:35:01.128179+10:00", "external_links": [], "uuid": "2c88d7f5-e581-4614-b51b-b609cd3e5ca8", "source": {"name": "Vernon", "slug": "vernon"}, "source_identifier": "29127", "external_references": [], "date_modified": "2025-03-13T01:02:19.202358+11:00"}, {"id": 8328, "name": "Philip Ellery", "roles_in_work": [{"id": 2619409, "title": "Bunny", "work_id": 108529, "role": "producer", "role_id": 1089, "is_primary": true}, {"id": 1814156, "title": "Bunny", "work_id": 92037, "role": "producer", "role_id": 1089, "is_primary": true}], "also_known_as": "", "date_of_birth": "", "date_of_death": "", "genders": [], "languages": [], "places_of_operation": [], "biography": "", "biography_author": null, "date_of_biography": "2023-08-11T15:08:39.997826+10:00", "external_links": [], "uuid": "3e7ffe07-2b67-4d5b-998e-aa92b09c0a38", "source": {"name": "Vernon", "slug": "vernon"}, "source_identifier": "111417", "external_references": [], "date_modified": "2025-02-26T23:10:08.882876+11:00"}, {"id": 8327, "name": "Edwin James Lynch", "roles_in_work": [{"id": 879745, "title": "Bunny", "work_id": 92037, "role": "director", "role_id": 938, "is_primary": true}, {"id": 2619406, "title": "Bunny", "work_id": 108529, "role": "director", "role_id": 938, "is_primary": true}, {"id": 2619407, "title": "Bunny", "work_id": 108529, "role": "creator", "role_id": 968, "is_primary": true}, {"id": 2619408, "title": "Bunny", "work_id": 108529, "role": "writer", "role_id": 939, "is_primary": true}], "also_known_as": "", "date_of_birth": "", "date_of_death": "", "genders": [], "languages": [], "places_of_operation": [], "biography": "", "biography_author": null, "date_of_biography": "2023-08-11T15:08:39.365921+10:00", "external_links": [], "uuid": "98f30ff9-e5bb-47f5-bc3e-df5a1d43c813", "source": {"name": "Vernon", "slug": "vernon"}, "source_identifier": "111416", "external_references": [], "date_modified": "2025-02-26T23:10:08.291863+11:00"}, {"id": 8326, "name": "Scott Murray", "roles_in_work": [{"id": 2629730, "title": "J.P.McGowan", "work_id": 108528, "role": "director", "role_id": 938, "is_primary": true}, {"id": 2629731, "title": "J.P.McGowan", "work_id": 108528, "role": "creator", "role_id": 968, "is_primary": true}], "also_known_as": "", "date_of_birth": "", "date_of_death": "", "genders": [], "languages": [], "places_of_operation": [], "biography": "", "biography_author": null, "date_of_biography": "2023-08-11T18:42:56.441497+10:00", "external_links": [], "uuid": "1b53d0fd-80ca-4f8c-884e-778be8904048", "source": {"name": "Vernon", "slug": "vernon"}, "source_identifier": "112000", "external_references": [], "date_modified": "2025-02-27T22:55:28.792011+11:00"}, {"id": 8325, "name": "Paul Kallina", "roles_in_work": [{"id": 2629729, "title": "J.P.McGowan", "work_id": 108528, "role": "writer", "role_id": 939, "is_primary": true}], "also_known_as": "", "date_of_birth": "", "date_of_death": "", "genders": [], "languages": [], "places_of_operation": [], "biography": "", "biography_author": null, "date_of_biography": "2023-08-11T18:42:55.165688+10:00", "external_links": [], "uuid": "146ae05d-f4fd-4c84-a2bd-e6fcf45c3a37", "source": {"name": "Vernon", "slug": "vernon"}, "source_identifier": "1406", "external_references": [], "date_modified": "2025-02-27T22:55:27.600416+11:00"}, {"id": 8324, "name": "Julie Marlow", "roles_in_work": [{"id": 2629728, "title": "J.P.McGowan", "work_id": 108528, "role": "producer", "role_id": 1089, "is_primary": true}], "also_known_as": "", "date_of_birth": "", "date_of_death": "", "genders": [], "languages": [], "places_of_operation": [], "biography": "", "biography_author": null, "date_of_biography": "2023-08-11T18:42:54.546747+10:00", "external_links": [], "uuid": "cc5f913f-c2a3-47e7-a003-61ba509c79e6", "source": {"name": "Vernon", "slug": "vernon"}, "source_identifier": "1405", "external_references": [], "date_modified": "2025-02-27T22:55:27.002664+11:00"}, {"id": 8323, "name": "Richard Chataway", "roles_in_work": [{"id": 3095542, "title": "Heartbreak Motel", "work_id": 108564, "role": "producer", "role_id": 1089, "is_primary": true}, {"id": 2629727, "title": "The Book keeper", "work_id": 108527, "role": "producer", "role_id": 1089, "is_primary": true}, {"id": 1808924, "title": "Book keeper", "work_id": 90521, "role": "producer", "role_id": 1089, "is_primary": true}], "also_known_as": "", "date_of_birth": "", "date_of_death": "", "genders": [], "languages": [], "places_of_operation": [], "biography": "", "biography_author": null, "date_of_biography": "2023-05-09T15:40:57.513216+10:00", "external_links": [], "uuid": "fa775645-55de-4f51-b30e-550e4a9bef52", "source": {"name": "Vernon", "slug": "vernon"}, "source_identifier": "111415", "external_references": [{"id": 37082, "source": {"name": "Wikidata", "slug": "wikidata"}, "source_identifier": "Q121223551"}], "date_modified": "2025-05-05T22:35:04.246003+10:00"}, {"id": 8322, "name": "Michael Cusack", "roles_in_work": [{"id": 805756, "title": "Book keeper", "work_id": 90521, "role": "director", "role_id": 938, "is_primary": true}, {"id": 2629724, "title": "The Book keeper", "work_id": 108527, "role": "director", "role_id": 938, "is_primary": true}, {"id": 2629725, "title": "The Book keeper", "work_id": 108527, "role": "creator", "role_id": 968, "is_primary": true}, {"id": 898449, "title": "Waltzing Matilda", "work_id": 78473, "role": "co-director", "role_id": 959, "is_primary": true}, {"id": 2629726, "title": "The Book keeper", "work_id": 108527, "role": "writer", "role_id": 939, "is_primary": true}], "also_known_as": "", "date_of_birth": null, "date_of_death": null, "genders": [], "languages": [], "places_of_operation": [], "biography": "", "biography_author": null, "date_of_biography": null, "external_links": [], "uuid": "e9f168f7-30bb-4ba0-97fe-8109485e0c43", "source": {"name": "Vernon", "slug": "vernon"}, "source_identifier": "111414", "external_references": [], "date_modified": "2025-02-27T22:55:25.638694+11:00"}, {"id": 8321, "name": "Deborah Hoare", "roles_in_work": [{"id": 902385, "title": "Lover boy. Bonza", "work_id": 83123, "role": "co-producer", "role_id": 915, "is_primary": true}, {"id": 2629723, "title": "Bonza", "work_id": 108526, "role": "producer", "role_id": 1089, "is_primary": true}, {"id": 1813259, "title": "Bonza", "work_id": 79827, "role": "producer", "role_id": 1089, "is_primary": true}], "also_known_as": "", "date_of_birth": "1965", "date_of_death": null, "genders": [], "languages": [], "places_of_operation": [], "biography": "", "biography_author": null, "date_of_biography": null, "external_links": [], "uuid": "e4007faf-f74d-439d-a368-519d04c569ba", "source": {"name": "Vernon", "slug": "vernon"}, "source_identifier": "111413", "external_references": [], "date_modified": "2025-02-27T22:55:23.526668+11:00"}]}