{"count": 28687, "next": "https://api.acmi.net.au/creators/?page=1327", "previous": "https://api.acmi.net.au/creators/?page=1325", "results": [{"id": 38481, "name": "William L. Hendricks", "roles_in_work": [{"id": 2247171, "title": "Red Nightmare", "work_id": 97626, "role": "producer", "role_id": 1089, "is_primary": true}], "also_known_as": "", "date_of_birth": "1904-05-03", "date_of_death": "1992-03-29", "genders": [{"id": 9, "name": "Male", "slug": "male"}], "languages": [], "places_of_operation": [{"id": 1, "name": "United States of America", "slug": "united-states-of-america"}], "biography": "William L. Hendricks (May 3, 1904 – March 29, 1992) was a former USMCR Colonel who was the key figure in setting up the \"Toys for Tots\" program. Aside from his USMCR career, he also worked in the film industry for many years, initially as a documentary producer for the United States Army, then as a production executive at Warner Bros., where he eventually became the final producer of the Looney Tunes series.\nIn 1947 Hendricks, then a Major in the USMCR was asked by his wife Diane to donate some toys (including ones she had made herself) to an organization that gave out toys to needy children. However, his research found that no such organisation existed, and he resolved to start one himself. He led a toy collection in the Los Angeles area with several family and friends that eventually amassed some 5,000 toys. This pilot program proved so successful that the Marine Corps adopted it as an official campaign the following year, and Hendricks helped make it even more of a success by using his contacts through Warner Bros. to persuade many celebrities to support the charity.His career as a documentary producer saw him win an Academy Honorary Award in 1961 for his part in the Marine Corps documentary A Force in Readiness. In 1967 he was asked by Warner Bros. to take over as head of their newly reformed animation studio, as well as becoming overall head of the Looney Tunes franchise. The new animation studio lasted only two years and produced few cartoons of note before shutting down in 1969. However, Hendricks remained in a supervisory role, overseeing production on The Bugs Bunny Show and other television shows featuring Looney Tunes cartoons. He remained in this role until 1977 when he finally retired from the film industry at the age of 73.", "biography_author": "Wikidata", "date_of_biography": "2023-09-06T02:17:01.885800+10:00", "external_links": [{"id": 6251, "uri": "https://en.wikipedia.org/wiki/William_L._Hendricks"}], "uuid": "6769fe61-127f-4697-a0bd-d870a1f37e11", "source": {"name": "Vernon", "slug": "vernon"}, "source_identifier": "30462", "external_references": [{"id": 51690, "source": {"name": "Wikidata", "slug": "wikidata"}, "source_identifier": "Q8014174"}, {"id": 56070, "source": {"name": "VIAF", "slug": "viaf"}, "source_identifier": "29027350"}, {"id": 56071, "source": {"name": "LOC Auth", "slug": "loc-auth"}, "source_identifier": "nb99029416"}, {"id": 56072, "source": {"name": "WorldCat", "slug": "worldcat"}, "source_identifier": "lccn-nb99029416"}], "date_modified": "2023-09-06T02:17:01.904893+10:00"}, {"id": 38478, "name": "Wombat Films", "roles_in_work": [{"id": 2751025, "title": "Franklin: wild river", "work_id": 97625, "role": "production company", "role_id": 941, "is_primary": true}], "also_known_as": "", "date_of_birth": null, "date_of_death": null, "genders": [], "languages": [], "places_of_operation": [], "biography": "", "biography_author": null, "date_of_biography": null, "external_links": [], "uuid": "a352554a-f330-413f-ad59-f76878914003", "source": {"name": "Vernon", "slug": "vernon"}, "source_identifier": "14418", "external_references": [], "date_modified": "2025-03-13T00:35:40.343765+11:00"}, {"id": 38477, "name": "John Paddy Carstairs", "roles_in_work": [{"id": 2751024, "title": "Elizabeth: the queen who shaped an age", "work_id": 97624, "role": "director", "role_id": 938, "is_primary": true}], "also_known_as": "", "date_of_birth": null, "date_of_death": null, "genders": [], "languages": [], "places_of_operation": [], "biography": "", "biography_author": null, "date_of_biography": null, "external_links": [], "uuid": "8c009367-1dfc-47a0-bb4e-00096074dbb0", "source": {"name": "Vernon", "slug": "vernon"}, "source_identifier": "22450", "external_references": [{"id": 41491, "source": {"name": "Wikidata", "slug": "wikidata"}, "source_identifier": "Q1701310"}], "date_modified": "2025-03-13T00:35:39.429630+11:00"}, {"id": 38476, "name": "J Sebestik", "roles_in_work": [{"id": 2751007, "title": "The Mole and the camera", "work_id": 97617, "role": "producer", "role_id": 1089, "is_primary": true}], "also_known_as": "", "date_of_birth": null, "date_of_death": null, "genders": [], "languages": [], "places_of_operation": [], "biography": "", "biography_author": null, "date_of_biography": null, "external_links": [], "uuid": "7d721287-2002-4054-b590-1909f1ea5b0a", "source": {"name": "Vernon", "slug": "vernon"}, "source_identifier": "21002", "external_references": [], "date_modified": "2025-03-13T00:35:23.325072+11:00"}, {"id": 38473, "name": "Marlin Darrah", "roles_in_work": [{"id": 2750996, "title": "Marathon", "work_id": 97612, "role": "director", "role_id": 938, "is_primary": true}, {"id": 829303, "title": "Moments of the runner", "work_id": 97613, "role": "producer/director", "role_id": 31, "is_primary": true}], "also_known_as": "", "date_of_birth": "", "date_of_death": "", "genders": [], "languages": [], "places_of_operation": [], "biography": "", "biography_author": null, "date_of_biography": "2023-08-11T19:42:50.687859+10:00", "external_links": [], "uuid": "0cd3a26f-ddb9-46c5-972b-d6c60d5e173a", "source": {"name": "Vernon", "slug": "vernon"}, "source_identifier": "24583", "external_references": [], "date_modified": "2025-03-13T00:35:16.287199+11:00"}, {"id": 38472, "name": "Don Worley", "roles_in_work": [{"id": 2750994, "title": "Other olympics", "work_id": 97610, "role": "director", "role_id": 938, "is_primary": true}], "also_known_as": "", "date_of_birth": "", "date_of_death": "", "genders": [], "languages": [], "places_of_operation": [], "biography": "", "biography_author": null, "date_of_biography": "2023-08-14T10:16:10.738052+10:00", "external_links": [], "uuid": "eb69faf9-41d2-44a7-baf8-8e54bb46302d", "source": {"name": "Vernon", "slug": "vernon"}, "source_identifier": "18272", "external_references": [], "date_modified": "2025-03-13T00:35:14.649429+11:00"}, {"id": 38471, "name": "Kevin Boulton", "roles_in_work": [{"id": 2750993, "title": "Other olympics", "work_id": 97610, "role": "producer", "role_id": 1089, "is_primary": true}], "also_known_as": "", "date_of_birth": "", "date_of_death": "", "genders": [], "languages": [], "places_of_operation": [], "biography": "", "biography_author": null, "date_of_biography": "2023-08-14T10:16:10.111031+10:00", "external_links": [], "uuid": "d08ec526-d5e9-4d10-9694-e57cbd073191", "source": {"name": "Vernon", "slug": "vernon"}, "source_identifier": "23284", "external_references": [], "date_modified": "2025-03-13T00:35:14.060876+11:00"}, {"id": 38469, "name": "Jimmy the C Productions", "roles_in_work": [{"id": 2750987, "title": "Jimmy the C", "work_id": 97607, "role": "production company", "role_id": 941, "is_primary": true}], "also_known_as": "", "date_of_birth": "", "date_of_death": "", "genders": [], "languages": [], "places_of_operation": [], "biography": "", "biography_author": null, "date_of_biography": "2023-08-11T18:47:47.353674+10:00", "external_links": [], "uuid": "c8ace6fd-719b-4c90-8c14-d27f13ab7a82", "source": {"name": "Vernon", "slug": "vernon"}, "source_identifier": "9603", "external_references": [], "date_modified": "2025-03-13T00:35:09.505768+11:00"}, {"id": 38468, "name": "Motionpicker Studios", "roles_in_work": [{"id": 2750986, "title": "Jimmy the C", "work_id": 97607, "role": "production company", "role_id": 941, "is_primary": true}], "also_known_as": "", "date_of_birth": "", "date_of_death": "", "genders": [], "languages": [], "places_of_operation": [], "biography": "", "biography_author": null, "date_of_biography": "2023-08-11T18:47:46.720671+10:00", "external_links": [], "uuid": "0e7c3299-cd99-4332-823f-4e0f779a98c3", "source": {"name": "Vernon", "slug": "vernon"}, "source_identifier": "10664", "external_references": [], "date_modified": "2025-03-13T00:35:08.920031+11:00"}, {"id": 38467, "name": "Steve Helling", "roles_in_work": [{"id": 2750984, "title": "The Field mouse", "work_id": 97605, "role": "producer", "role_id": 1089, "is_primary": true}], "also_known_as": "", "date_of_birth": "", "date_of_death": "", "genders": [], "languages": [], "places_of_operation": [], "biography": "", "biography_author": null, "date_of_biography": "2023-08-14T11:11:24.769927+10:00", "external_links": [], "uuid": "d3cabbd8-be42-42a0-b490-9bcfe0fd8dbd", "source": {"name": "Vernon", "slug": "vernon"}, "source_identifier": "29132", "external_references": [], "date_modified": "2025-03-13T00:35:07.222493+11:00"}]}