{"count": 28681, "next": "https://api.acmi.net.au/creators/?page=2099", "previous": "https://api.acmi.net.au/creators/?page=2097", "results": [{"id": 20558, "name": "Peter Webb", "roles_in_work": [{"id": 2403281, "title": "Butch minds the baby", "work_id": 77557, "role": "director", "role_id": 938, "is_primary": true}, {"id": 2403290, "title": "Butch minds the baby", "work_id": 86036, "role": "director", "role_id": 938, "is_primary": true}], "also_known_as": "", "date_of_birth": null, "date_of_death": "", "genders": [{"id": 9, "name": "Male", "slug": "male"}], "languages": [], "places_of_operation": [], "biography": "", "biography_author": null, "date_of_biography": "2023-08-11T15:09:06.243863+10:00", "external_links": [], "uuid": "c973bf3c-1d7e-46c6-b5e2-7c1679b61db2", "source": {"name": "Vernon", "slug": "vernon"}, "source_identifier": "26745", "external_references": [{"id": 33021, "source": {"name": "Wikidata", "slug": "wikidata"}, "source_identifier": "Q106375602"}], "date_modified": "2023-09-06T00:02:09.128094+10:00"}, {"id": 20557, "name": "Adrian Hughes", "roles_in_work": [{"id": 2403289, "title": "Butch minds the baby", "work_id": 86036, "role": "producer", "role_id": 1089, "is_primary": true}, {"id": 2403280, "title": "Butch minds the baby", "work_id": 77557, "role": "producer", "role_id": 1089, "is_primary": true}], "also_known_as": "", "date_of_birth": "", "date_of_death": "", "genders": [], "languages": [], "places_of_operation": [], "biography": "", "biography_author": null, "date_of_biography": "2023-08-11T15:09:05.601247+10:00", "external_links": [], "uuid": "3d8f8fcb-f12a-42ae-a5e4-866fda22bf3d", "source": {"name": "Vernon", "slug": "vernon"}, "source_identifier": "14661", "external_references": [], "date_modified": "2023-08-11T15:09:05.601519+10:00"}, {"id": 20556, "name": "Park Village Productions", "roles_in_work": [{"id": 2403288, "title": "Butch minds the baby", "work_id": 86036, "role": "production company", "role_id": 941, "is_primary": true}, {"id": 2403279, "title": "Butch minds the baby", "work_id": 77557, "role": "production company", "role_id": 941, "is_primary": true}], "also_known_as": "", "date_of_birth": "", "date_of_death": "", "genders": [], "languages": [], "places_of_operation": [], "biography": "", "biography_author": null, "date_of_biography": "2023-08-11T15:09:04.966856+10:00", "external_links": [], "uuid": "5aab089d-18eb-4288-9965-8435f1867c51", "source": {"name": "Vernon", "slug": "vernon"}, "source_identifier": "11303", "external_references": [], "date_modified": "2023-08-11T15:09:04.967185+10:00"}, {"id": 20555, "name": "Andrew Grieve", "roles_in_work": [{"id": 2151817, "title": "On the Black Hill", "work_id": 83028, "role": "director", "role_id": 938, "is_primary": true}, {"id": 2767044, "title": "The Foolish brother", "work_id": 77554, "role": "director", "role_id": 938, "is_primary": true}, {"id": 3082373, "title": "Hornblower", "work_id": 115561, "role": "director", "role_id": 938, "is_primary": true}, {"id": 3082352, "title": "Examination for lieutenant", "work_id": 90784, "role": "director", "role_id": 938, "is_primary": true}, {"id": 3082339, "title": "The Frogs and the lobsters", "work_id": 91946, "role": "director", "role_id": 938, "is_primary": true}, {"id": 3082327, "title": "The Even chance", "work_id": 90783, "role": "director", "role_id": 938, "is_primary": true}, {"id": 3082361, "title": "The Duchess and the devil", "work_id": 91945, "role": "director", "role_id": 938, "is_primary": true}], "also_known_as": "", "date_of_birth": "28 NOV 1939", "date_of_death": "", "genders": [{"id": 9, "name": "Male", "slug": "male"}], "languages": [{"id": 1, "name": "English", "slug": "english"}], "places_of_operation": [{"id": 10, "name": "United Kingdom", "slug": "united-kingdom"}], "biography": "Andrew Grieve (born 28 November 1939) is a British television and film director. Grieve's credits include Wire in the Blood. On the Black Hill, the screenplay of which he also wrote, won the Golden Shell at the San Sebastian Film Festival in 1988. He has also directed episodes of Agatha Christie's Poirot and Hornblower. His work on Hornblower won him the Silver FIPA at the Biarritz International Festival of Audiovisual Programming in 1999. He has since written and directed the BBC drama-documentary Heroes and Villains episode on Hernán Cortés. Source: Wikidata; 01/08/2023", "biography_author": null, "date_of_biography": "2025-03-17T10:28:47.853150+11:00", "external_links": [{"id": 3549, "uri": "https://en.wikipedia.org/wiki/Andrew_Grieve"}], "uuid": "2b8e8c45-78b4-4b9e-9b05-5c69be291021", "source": {"name": "Vernon", "slug": "vernon"}, "source_identifier": "15171", "external_references": [{"id": 25681, "source": {"name": "Wikidata", "slug": "wikidata"}, "source_identifier": "Q2846618"}, {"id": 27249, "source": {"name": "VIAF", "slug": "viaf"}, "source_identifier": "120002832"}, {"id": 27250, "source": {"name": "LOC Auth", "slug": "loc-auth"}, "source_identifier": "no2002031064"}, {"id": 27251, "source": {"name": "WorldCat", "slug": "worldcat"}, "source_identifier": "lccn-no2002031064"}], "date_modified": "2025-03-17T10:28:47.853428+11:00"}, {"id": 20551, "name": "Nguzo Saba", "roles_in_work": [{"id": 2414022, "title": "Kuumba: Simon's new sound", "work_id": 77548, "role": "director", "role_id": 938, "is_primary": true}, {"id": 2414013, "title": "Kuumba: Simon's new sound", "work_id": 86439, "role": "director", "role_id": 938, "is_primary": true}], "also_known_as": "", "date_of_birth": "", "date_of_death": "", "genders": [], "languages": [], "places_of_operation": [], "biography": "", "biography_author": null, "date_of_biography": "2023-08-11T19:09:37.764367+10:00", "external_links": [], "uuid": "ed31b1c7-b3f3-400d-a357-102539cf47fd", "source": {"name": "Vernon", "slug": "vernon"}, "source_identifier": "25701", "external_references": [], "date_modified": "2023-08-11T19:09:37.764636+10:00"}, {"id": 20550, "name": "Carol Munday Lawrence", "roles_in_work": [{"id": 2414012, "title": "Kuumba: Simon's new sound", "work_id": 86439, "role": "producer", "role_id": 1089, "is_primary": true}, {"id": 2414021, "title": "Kuumba: Simon's new sound", "work_id": 77548, "role": "producer", "role_id": 1089, "is_primary": true}], "also_known_as": "", "date_of_birth": "", "date_of_death": "", "genders": [], "languages": [], "places_of_operation": [], "biography": "", "biography_author": null, "date_of_biography": "2023-08-11T19:09:37.082023+10:00", "external_links": [], "uuid": "288e6146-6c21-4523-a6ad-d57fa21c8ce1", "source": {"name": "Vernon", "slug": "vernon"}, "source_identifier": "16524", "external_references": [], "date_modified": "2023-08-11T19:09:37.082261+10:00"}, {"id": 20549, "name": "Nguzo Saba Films", "roles_in_work": [{"id": 2414011, "title": "Kuumba: Simon's new sound", "work_id": 86439, "role": "production company", "role_id": 941, "is_primary": true}, {"id": 2414020, "title": "Kuumba: Simon's new sound", "work_id": 77548, "role": "production company", "role_id": 941, "is_primary": true}], "also_known_as": "", "date_of_birth": "", "date_of_death": "", "genders": [], "languages": [], "places_of_operation": [], "biography": "", "biography_author": null, "date_of_biography": "2023-08-11T19:09:36.445225+10:00", "external_links": [], "uuid": "4d979c93-c826-404b-8bac-434e0f0da5e0", "source": {"name": "Vernon", "slug": "vernon"}, "source_identifier": "10955", "external_references": [], "date_modified": "2023-08-11T19:09:36.445498+10:00"}, {"id": 20547, "name": "Everard Films", "roles_in_work": [{"id": 2159095, "title": "On the run", "work_id": 77546, "role": "production company", "role_id": 941, "is_primary": true}], "also_known_as": "", "date_of_birth": "", "date_of_death": "", "genders": [], "languages": [], "places_of_operation": [], "biography": "", "biography_author": null, "date_of_biography": "2023-05-09T14:12:51.617125+10:00", "external_links": [], "uuid": "afe2f15d-d8d2-4ddd-afbd-dc5e31871ee9", "source": {"name": "Vernon", "slug": "vernon"}, "source_identifier": "8011", "external_references": [{"id": 37865, "source": {"name": "Wikidata", "slug": "wikidata"}, "source_identifier": "Q121315597"}], "date_modified": "2023-09-05T19:38:34.132625+10:00"}, {"id": 20546, "name": "Titan Films", "roles_in_work": [{"id": 2159092, "title": "On the run", "work_id": 77546, "role": "production company", "role_id": 941, "is_primary": true}], "also_known_as": "", "date_of_birth": "", "date_of_death": "", "genders": [], "languages": [], "places_of_operation": [], "biography": "", "biography_author": null, "date_of_biography": "2023-05-09T14:12:51.380524+10:00", "external_links": [], "uuid": "38c0759f-01bd-4a01-96c8-55e66f64ec27", "source": {"name": "Vernon", "slug": "vernon"}, "source_identifier": "13544", "external_references": [{"id": 38287, "source": {"name": "Wikidata", "slug": "wikidata"}, "source_identifier": "Q121223326"}], "date_modified": "2023-09-06T01:52:00.067382+10:00"}, {"id": 20544, "name": "Evergreen Productions", "roles_in_work": [{"id": 765640, "title": "Ty's homemade band", "work_id": 77906, "role": "production company", "role_id": 941, "is_primary": true}, {"id": 2647841, "title": "The Remarkable riderless runaway tricycle", "work_id": 77541, "role": "production company", "role_id": 941, "is_primary": true}, {"id": 2096541, "title": "Angus lost", "work_id": 77960, "role": "production company", "role_id": 941, "is_primary": true}, {"id": 1846378, "title": "The Fish from Japan", "work_id": 81963, "role": "production company", "role_id": 941, "is_primary": true}], "also_known_as": "", "date_of_birth": "", "date_of_death": "", "genders": [], "languages": [], "places_of_operation": [], "biography": "", "biography_author": null, "date_of_biography": "2023-05-09T12:24:47.417398+10:00", "external_links": [], "uuid": "9b61ef96-3bcb-45b0-a1e8-04d57084dccb", "source": {"name": "Vernon", "slug": "vernon"}, "source_identifier": "3770", "external_references": [{"id": 38066, "source": {"name": "Wikidata", "slug": "wikidata"}, "source_identifier": "Q121298807"}], "date_modified": "2025-03-05T13:35:05.390756+11:00"}]}