{"count": 28687, "next": "https://api.acmi.net.au/creators/?page=160", "previous": "https://api.acmi.net.au/creators/?page=158", "results": [{"id": 84017, "name": "George Snowden", "roles_in_work": [{"id": 2728244, "title": "A Chance to travel", "work_id": 117358, "role": "creator", "role_id": 968, "is_primary": true}], "also_known_as": "", "date_of_birth": "", "date_of_death": "", "genders": [{"id": 9, "name": "Male", "slug": "male"}], "languages": [], "places_of_operation": [], "biography": "", "biography_author": null, "date_of_biography": "2023-08-30T04:28:40.530255+10:00", "external_links": [], "uuid": "866c4690-fe04-4172-980d-76ecc9f84bc7", "source": {"name": "Vernon", "slug": "vernon"}, "source_identifier": "36948", "external_references": [], "date_modified": "2025-03-12T08:34:59.028475+11:00"}, {"id": 84016, "name": "St Arnaud RSL Sub-Branch", "roles_in_work": [{"id": 2728293, "title": "Survivor", "work_id": 117365, "role": "support", "role_id": 492, "is_primary": false}, {"id": 2728300, "title": "We kept them flying", "work_id": 117366, "role": "support", "role_id": 492, "is_primary": false}, {"id": 2728307, "title": "The Wind beneath their wings", "work_id": 117367, "role": "support", "role_id": 492, "is_primary": false}, {"id": 2728314, "title": "In our words: stories from Victorian veterans [St Arnaud Veterans]", "work_id": 117357, "role": "support", "role_id": 492, "is_primary": false}, {"id": 2728243, "title": "A Chance to travel", "work_id": 117358, "role": "support", "role_id": 492, "is_primary": false}, {"id": 2728250, "title": "A Cook's tour", "work_id": 117359, "role": "support", "role_id": 492, "is_primary": false}, {"id": 2728258, "title": "I've been everywhere", "work_id": 117360, "role": "support", "role_id": 492, "is_primary": false}, {"id": 2728265, "title": "Land and sea", "work_id": 117361, "role": "support", "role_id": 492, "is_primary": false}, {"id": 2728272, "title": "A Life on the farm", "work_id": 117362, "role": "support", "role_id": 492, "is_primary": false}, {"id": 2728279, "title": "On the road again", "work_id": 117363, "role": "support", "role_id": 492, "is_primary": false}, {"id": 2728286, "title": "The St Arnaud boys", "work_id": 117364, "role": "support", "role_id": 492, "is_primary": false}], "also_known_as": "", "date_of_birth": "", "date_of_death": "", "genders": [], "languages": [], "places_of_operation": [], "biography": "", "biography_author": null, "date_of_biography": "2023-08-30T04:29:30.911971+10:00", "external_links": [], "uuid": "4355eb0d-834b-4d53-a4cf-c5db11583b4b", "source": {"name": "Vernon", "slug": "vernon"}, "source_identifier": "36945", "external_references": [], "date_modified": "2025-03-12T08:35:47.698776+11:00"}, {"id": 84015, "name": "Xueqin Chong", "roles_in_work": [{"id": 2660223, "title": "First Sino-Japanese War = 甲午风云", "work_id": 117356, "role": "cast", "role_id": 33, "is_primary": false}], "also_known_as": "", "date_of_birth": "", "date_of_death": "", "genders": [], "languages": [], "places_of_operation": [], "biography": "", "biography_author": null, "date_of_biography": "2023-05-09T16:55:24.166368+10:00", "external_links": [], "uuid": "46ecdcc9-0266-4dc0-af4c-decb8c461da9", "source": {"name": "Vernon", "slug": "vernon"}, "source_identifier": "37664", "external_references": [{"id": 33487, "source": {"name": "Wikidata", "slug": "wikidata"}, "source_identifier": "Q121078840"}], "date_modified": "2025-03-05T19:52:14.690008+11:00"}, {"id": 84014, "name": "Wenshan Zhou", "roles_in_work": [{"id": 2660222, "title": "First Sino-Japanese War = 甲午风云", "work_id": 117356, "role": "cast", "role_id": 33, "is_primary": false}], "also_known_as": "", "date_of_birth": "", "date_of_death": "", "genders": [], "languages": [], "places_of_operation": [], "biography": "", "biography_author": null, "date_of_biography": "2023-05-09T16:55:23.925034+10:00", "external_links": [], "uuid": "45878e73-8c24-4c94-aca7-e7500f4ab4bd", "source": {"name": "Vernon", "slug": "vernon"}, "source_identifier": "37663", "external_references": [{"id": 43352, "source": {"name": "Wikidata", "slug": "wikidata"}, "source_identifier": "Q121315468"}], "date_modified": "2025-03-05T19:52:14.101979+11:00"}, {"id": 84013, "name": "Qiu Wang", "roles_in_work": [{"id": 2660221, "title": "First Sino-Japanese War = 甲午风云", "work_id": 117356, "role": "cast", "role_id": 33, "is_primary": false}], "also_known_as": "", "date_of_birth": "", "date_of_death": "", "genders": [], "languages": [], "places_of_operation": [], "biography": "", "biography_author": null, "date_of_biography": "2023-05-09T16:55:23.699791+10:00", "external_links": [], "uuid": "8eba6fa5-ee3d-432a-a125-a6097f04b416", "source": {"name": "Vernon", "slug": "vernon"}, "source_identifier": "37662", "external_references": [{"id": 38908, "source": {"name": "Wikidata", "slug": "wikidata"}, "source_identifier": "Q121034190"}], "date_modified": "2025-03-05T19:52:13.514789+11:00"}, {"id": 84012, "name": "Ke Pu", "roles_in_work": [{"id": 2660220, "title": "First Sino-Japanese War = 甲午风云", "work_id": 117356, "role": "cast", "role_id": 33, "is_primary": false}], "also_known_as": "", "date_of_birth": "", "date_of_death": "", "genders": [], "languages": [], "places_of_operation": [], "biography": "", "biography_author": null, "date_of_biography": "2023-05-09T16:55:22.758079+10:00", "external_links": [], "uuid": "cb4acaf4-2586-468a-9d8d-6139acbb4866", "source": {"name": "Vernon", "slug": "vernon"}, "source_identifier": "37661", "external_references": [{"id": 38585, "source": {"name": "Wikidata", "slug": "wikidata"}, "source_identifier": "Q121035947"}], "date_modified": "2025-03-05T19:52:12.924542+11:00"}, {"id": 84011, "name": "Moran Li", "roles_in_work": [{"id": 2660219, "title": "First Sino-Japanese War = 甲午风云", "work_id": 117356, "role": "cast", "role_id": 33, "is_primary": false}], "also_known_as": "", "date_of_birth": "", "date_of_death": "", "genders": [], "languages": [], "places_of_operation": [], "biography": "", "biography_author": null, "date_of_biography": "2023-05-09T16:55:22.102253+10:00", "external_links": [], "uuid": "ca03da43-724d-4643-9330-684b0f4849db", "source": {"name": "Vernon", "slug": "vernon"}, "source_identifier": "37660", "external_references": [{"id": 34263, "source": {"name": "Wikidata", "slug": "wikidata"}, "source_identifier": "Q121223146"}], "date_modified": "2025-03-05T19:52:12.339014+11:00"}, {"id": 84010, "name": "Qimin Wang", "roles_in_work": [{"id": 2660218, "title": "First Sino-Japanese War = 甲午风云", "work_id": 117356, "role": "cinematographer", "role_id": 32, "is_primary": false}], "also_known_as": "", "date_of_birth": "", "date_of_death": "", "genders": [], "languages": [], "places_of_operation": [], "biography": "", "biography_author": null, "date_of_biography": "2023-05-09T16:55:21.869402+10:00", "external_links": [], "uuid": "d24278eb-37c7-4599-a0c4-878ea620d358", "source": {"name": "Vernon", "slug": "vernon"}, "source_identifier": "37659", "external_references": [{"id": 43366, "source": {"name": "Wikidata", "slug": "wikidata"}, "source_identifier": "Q121271076"}], "date_modified": "2025-03-05T19:52:11.745757+11:00"}, {"id": 84009, "name": "Yi Xi", "roles_in_work": [{"id": 2660217, "title": "First Sino-Japanese War = 甲午风云", "work_id": 117356, "role": "writer", "role_id": 939, "is_primary": true}], "also_known_as": "", "date_of_birth": "", "date_of_death": "", "genders": [], "languages": [], "places_of_operation": [], "biography": "", "biography_author": null, "date_of_biography": "2023-05-09T16:55:21.635157+10:00", "external_links": [], "uuid": "46576636-f01c-4f57-9d1a-4c674edeb9d4", "source": {"name": "Vernon", "slug": "vernon"}, "source_identifier": "37658", "external_references": [{"id": 37357, "source": {"name": "Wikidata", "slug": "wikidata"}, "source_identifier": "Q121036722"}], "date_modified": "2025-03-05T19:52:11.150106+11:00"}, {"id": 84008, "name": "Changchun Film Company", "roles_in_work": [{"id": 2660216, "title": "First Sino-Japanese War = 甲午风云", "work_id": 117356, "role": "production company", "role_id": 941, "is_primary": true}], "also_known_as": "", "date_of_birth": "", "date_of_death": "", "genders": [], "languages": [], "places_of_operation": [], "biography": "", "biography_author": null, "date_of_biography": "2023-05-09T16:55:21.402871+10:00", "external_links": [], "uuid": "340825a9-29bd-450f-8564-42cb08a99515", "source": {"name": "Vernon", "slug": "vernon"}, "source_identifier": "37657", "external_references": [{"id": 35532, "source": {"name": "Wikidata", "slug": "wikidata"}, "source_identifier": "Q121126957"}], "date_modified": "2025-03-05T19:52:10.554281+11:00"}]}