{"count": 28687, "next": "https://api.acmi.net.au/creators/?page=510", "previous": "https://api.acmi.net.au/creators/?page=508", "results": [{"id": 80493, "name": "John Dykstra", "roles_in_work": [{"id": 2109002, "title": "Battlestar Galactica. Vol. 03", "work_id": 92723, "role": "co-producer", "role_id": 915, "is_primary": true}, {"id": 2109033, "title": "Battlestar Galactica [DVD]", "work_id": 93798, "role": "co-producer", "role_id": 915, "is_primary": true}], "also_known_as": "", "date_of_birth": "1947-06-03", "date_of_death": "", "genders": [{"id": 9, "name": "Male", "slug": "male"}], "languages": [], "places_of_operation": [{"id": 1, "name": "United States of America", "slug": "united-states-of-america"}], "biography": "John Charles Dykstra, A.S.C. (; born June 3, 1947) is an American special effects artist, pioneer in the development of the use of computers in filmmaking and recipient of three Academy Awards, among many other awards and prizes. He was one of the original employees of Industrial Light & Magic, the special effects and computer graphics division of Lucasfilm. He is well known as the special effects lead on the original Star Wars, helping bring the original visuals for lightsabers, space battles between X-wings and TIE fighters, and Force powers to the screen. He also led special effects on many other movies, including Batman Forever, Batman & Robin, Stuart Little, X-Men: First Class, Spider-Man and Spider-Man 2.\n\n", "biography_author": "Wikidata", "date_of_biography": "2023-08-01T15:34:55.404102+10:00", "external_links": [{"id": 4367, "uri": "https://en.wikipedia.org/wiki/John_Dykstra"}], "uuid": "8d09d4ad-12c2-4ff9-84ff-91903bf0ece3", "source": {"name": "Vernon", "slug": "vernon"}, "source_identifier": "22229", "external_references": [{"id": 26340, "source": {"name": "Wikidata", "slug": "wikidata"}, "source_identifier": "Q568245"}, {"id": 29474, "source": {"name": "VIAF", "slug": "viaf"}, "source_identifier": "85619580"}, {"id": 29475, "source": {"name": "LOC Auth", "slug": "loc-auth"}, "source_identifier": "nr2005020015"}, {"id": 29476, "source": {"name": "WorldCat", "slug": "worldcat"}, "source_identifier": "lccn-nr2005020015"}], "date_modified": "2023-09-05T21:35:20.773562+10:00"}, {"id": 80492, "name": "Mike Fiddler", "roles_in_work": [{"id": 2113882, "title": "Beyond Babel. Program 1. Trade", "work_id": 93794, "role": "co-director", "role_id": 959, "is_primary": true}, {"id": 2114026, "title": "Beyond Babel. Program 4. Future", "work_id": 93792, "role": "co-director", "role_id": 959, "is_primary": true}, {"id": 2113927, "title": "Beyond Babel. Program 2. Culture", "work_id": 93795, "role": "co-director", "role_id": 959, "is_primary": true}, {"id": 2113977, "title": "Beyond Babel. Program 3. Politics", "work_id": 93793, "role": "co-director", "role_id": 959, "is_primary": true}], "also_known_as": "", "date_of_birth": "", "date_of_death": "", "genders": [], "languages": [], "places_of_operation": [], "biography": "", "biography_author": null, "date_of_biography": "2023-05-09T12:51:33.348528+10:00", "external_links": [], "uuid": "f0b28c27-8e1f-4244-aabd-598ddbf7373c", "source": {"name": "Vernon", "slug": "vernon"}, "source_identifier": "25355", "external_references": [{"id": 41933, "source": {"name": "Wikidata", "slug": "wikidata"}, "source_identifier": "Q121337498"}], "date_modified": "2023-09-05T23:14:42.825876+10:00"}, {"id": 80491, "name": "Ron Blythe", "roles_in_work": [{"id": 2113969, "title": "Beyond Babel. Program 3. Politics", "work_id": 93793, "role": "co-director", "role_id": 959, "is_primary": true}, {"id": 2113879, "title": "Beyond Babel. Program 1. Trade", "work_id": 93794, "role": "co-director", "role_id": 959, "is_primary": true}, {"id": 2113924, "title": "Beyond Babel. Program 2. Culture", "work_id": 93795, "role": "co-director", "role_id": 959, "is_primary": true}, {"id": 2114021, "title": "Beyond Babel. Program 4. Future", "work_id": 93792, "role": "co-director", "role_id": 959, "is_primary": true}], "also_known_as": "", "date_of_birth": "", "date_of_death": "", "genders": [], "languages": [], "places_of_operation": [], "biography": "", "biography_author": null, "date_of_biography": "2023-05-09T12:51:33.122387+10:00", "external_links": [], "uuid": "830e65c2-2652-4e49-81d7-0bf95755a999", "source": {"name": "Vernon", "slug": "vernon"}, "source_identifier": "28126", "external_references": [{"id": 40333, "source": {"name": "Wikidata", "slug": "wikidata"}, "source_identifier": "Q121036458"}], "date_modified": "2023-09-06T00:54:15.519939+10:00"}, {"id": 80490, "name": "Octavio Iturbe", "roles_in_work": [{"id": 2254540, "title": "Roseland", "work_id": 93789, "role": "co-director", "role_id": 959, "is_primary": true}], "also_known_as": "", "date_of_birth": "", "date_of_death": "", "genders": [], "languages": [], "places_of_operation": [], "biography": "", "biography_author": null, "date_of_biography": "2023-05-09T17:15:34.386658+10:00", "external_links": [], "uuid": "7dccc38b-720d-493c-bd82-638c127b7b48", "source": {"name": "Vernon", "slug": "vernon"}, "source_identifier": "25931", "external_references": [{"id": 38388, "source": {"name": "Wikidata", "slug": "wikidata"}, "source_identifier": "Q121036431"}], "date_modified": "2023-09-05T23:35:21.723720+10:00"}, {"id": 80489, "name": "Walter Verdin", "roles_in_work": [{"id": 2254533, "title": "Roseland", "work_id": 93789, "role": "co-director", "role_id": 959, "is_primary": true}], "also_known_as": "", "date_of_birth": "", "date_of_death": "", "genders": [], "languages": [], "places_of_operation": [], "biography": "", "biography_author": null, "date_of_biography": "2023-05-09T17:15:33.912655+10:00", "external_links": [], "uuid": "168a0ffa-7214-4f19-979f-8f72b9fa31e1", "source": {"name": "Vernon", "slug": "vernon"}, "source_identifier": "30264", "external_references": [{"id": 38186, "source": {"name": "Wikidata", "slug": "wikidata"}, "source_identifier": "Q121270844"}], "date_modified": "2023-09-06T02:10:49.725163+10:00"}, {"id": 80488, "name": "Robert Humphreys", "roles_in_work": [{"id": 2507004, "title": "Gulpilil: one red blood", "work_id": 93783, "role": "cinematographer", "role_id": 32, "is_primary": false}], "also_known_as": "", "date_of_birth": null, "date_of_death": null, "genders": [{"id": 9, "name": "Male", "slug": "male"}], "languages": [], "places_of_operation": [], "biography": "", "biography_author": null, "date_of_biography": null, "external_links": [], "uuid": "3b0fc108-a951-4aef-be0b-81841d6405e5", "source": {"name": "Vernon", "slug": "vernon"}, "source_identifier": "35663", "external_references": [{"id": 33867, "source": {"name": "Wikidata", "slug": "wikidata"}, "source_identifier": "Q121315019"}], "date_modified": "2023-12-13T03:35:13.024289+11:00"}, {"id": 80487, "name": "Caitlin Shea", "roles_in_work": [{"id": 3084753, "title": "Bridge over Myall Creek", "work_id": 93782, "role": "co-producer", "role_id": 915, "is_primary": true}], "also_known_as": "", "date_of_birth": "", "date_of_death": "", "genders": [], "languages": [], "places_of_operation": [], "biography": "", "biography_author": null, "date_of_biography": "2023-08-16T03:41:38.351875+10:00", "external_links": [], "uuid": "f1a9af0b-bbcd-46d3-a8e1-b338996f4fa9", "source": {"name": "Vernon", "slug": "vernon"}, "source_identifier": "16431", "external_references": [{"id": 35799, "source": {"name": "Wikidata", "slug": "wikidata"}, "source_identifier": "Q121079007"}], "date_modified": "2025-03-17T10:37:49.539189+11:00"}, {"id": 80486, "name": "Margaret Parker", "roles_in_work": [{"id": 3084749, "title": "Bridge over Myall Creek", "work_id": 93782, "role": "co-producer", "role_id": 915, "is_primary": true}], "also_known_as": "", "date_of_birth": "", "date_of_death": "", "genders": [], "languages": [], "places_of_operation": [], "biography": "", "biography_author": null, "date_of_biography": "2023-08-16T03:41:37.727706+10:00", "external_links": [], "uuid": "15ccb806-6802-4937-a50b-0b23184551c6", "source": {"name": "Vernon", "slug": "vernon"}, "source_identifier": "24355", "external_references": [{"id": 41073, "source": {"name": "Wikidata", "slug": "wikidata"}, "source_identifier": "Q121270626"}], "date_modified": "2025-03-17T10:37:48.847468+11:00"}, {"id": 80485, "name": "Wendy Page", "roles_in_work": [{"id": 3084746, "title": "Bridge over Myall Creek", "work_id": 93782, "role": "co-producer", "role_id": 915, "is_primary": true}], "also_known_as": "", "date_of_birth": "", "date_of_death": "", "genders": [], "languages": [], "places_of_operation": [], "biography": "", "biography_author": null, "date_of_biography": "2023-08-16T03:41:36.975289+10:00", "external_links": [], "uuid": "797143ab-9644-4c6b-9bb8-d5cfca4d415c", "source": {"name": "Vernon", "slug": "vernon"}, "source_identifier": "30320", "external_references": [{"id": 41129, "source": {"name": "Wikidata", "slug": "wikidata"}, "source_identifier": "Q121036594"}], "date_modified": "2025-03-17T10:37:48.271598+11:00"}, {"id": 80484, "name": "John Millard", "roles_in_work": [{"id": 3084742, "title": "Bridge over Myall Creek", "work_id": 93782, "role": "co-producer", "role_id": 915, "is_primary": true}], "also_known_as": "", "date_of_birth": "", "date_of_death": "", "genders": [], "languages": [], "places_of_operation": [], "biography": "", "biography_author": null, "date_of_biography": "2023-08-16T03:41:36.297066+10:00", "external_links": [], "uuid": "a55ea5d8-aac3-4611-a0b1-6ac09ba8b331", "source": {"name": "Vernon", "slug": "vernon"}, "source_identifier": "22422", "external_references": [{"id": 43198, "source": {"name": "Wikidata", "slug": "wikidata"}, "source_identifier": "Q121036693"}], "date_modified": "2025-03-17T10:37:47.486122+11:00"}]}