{"count": 28687, "next": "https://api.acmi.net.au/creators/?page=1083", "previous": "https://api.acmi.net.au/creators/?page=1081", "results": [{"id": 74762, "name": "John Wilson", "roles_in_work": [{"id": 2297085, "title": "Shinbone Alley", "work_id": 94673, "role": "director", "role_id": 938, "is_primary": true}, {"id": 2715067, "title": "Hailstones and halibut bones. Part 1", "work_id": 68266, "role": "producer", "role_id": 1089, "is_primary": true}, {"id": 2749171, "title": "Big yellow taxi", "work_id": 96671, "role": "producer/director", "role_id": 31, "is_primary": true}, {"id": 2748987, "title": "Star seekers", "work_id": 96584, "role": "producer/director", "role_id": 31, "is_primary": true}, {"id": 2715069, "title": "Hailstones and halibut bones. Part 2", "work_id": 68267, "role": "producer/director", "role_id": 31, "is_primary": true}], "also_known_as": "", "date_of_birth": "", "date_of_death": "", "genders": [], "languages": [], "places_of_operation": [], "biography": "", "biography_author": null, "date_of_biography": "2023-05-09T18:49:51.334702+10:00", "external_links": [], "uuid": "96fec4f7-0a76-46ed-968e-0ca5634fb0a3", "source": {"name": "Vernon", "slug": "vernon"}, "source_identifier": "22584", "external_references": [{"id": 36739, "source": {"name": "Wikidata", "slug": "wikidata"}, "source_identifier": "Q121271285"}], "date_modified": "2025-03-12T23:55:21.494532+11:00"}, {"id": 74761, "name": "Thelma Harms", "roles_in_work": [{"id": 2715012, "title": "Growing up in a scary world (TEFC)", "work_id": 68234, "role": "co-producer", "role_id": 915, "is_primary": true}], "also_known_as": "", "date_of_birth": null, "date_of_death": null, "genders": [], "languages": [], "places_of_operation": [], "biography": "", "biography_author": null, "date_of_biography": null, "external_links": [], "uuid": "b0eaced5-a683-4321-ab57-1bc66d4fbd92", "source": {"name": "Vernon", "slug": "vernon"}, "source_identifier": "29640", "external_references": [{"id": 39811, "source": {"name": "Wikidata", "slug": "wikidata"}, "source_identifier": "Q121144075"}], "date_modified": "2025-03-12T01:25:37.981408+11:00"}, {"id": 74760, "name": "Jeanne H. Block", "roles_in_work": [{"id": 2715011, "title": "Growing up in a scary world (TEFC)", "work_id": 68234, "role": "co-producer", "role_id": 915, "is_primary": true}], "also_known_as": "", "date_of_birth": null, "date_of_death": null, "genders": [], "languages": [], "places_of_operation": [], "biography": "", "biography_author": null, "date_of_biography": null, "external_links": [], "uuid": "297b7d71-c1da-4489-998a-ea2bff7dc7d1", "source": {"name": "Vernon", "slug": "vernon"}, "source_identifier": "21599", "external_references": [{"id": 33996, "source": {"name": "Wikidata", "slug": "wikidata"}, "source_identifier": "Q121036209"}], "date_modified": "2025-03-12T01:25:37.383230+11:00"}, {"id": 74759, "name": "Justin Milne", "roles_in_work": [{"id": 861701, "title": "Treating people as people", "work_id": 75726, "role": "director", "role_id": 938, "is_primary": true}, {"id": 859949, "title": "Trucking along", "work_id": 74043, "role": "director", "role_id": 938, "is_primary": true}, {"id": 2125113, "title": "Bridging the gap", "work_id": 86062, "role": "director", "role_id": 938, "is_primary": true}, {"id": 2715006, "title": "Community College Mt Gambier: growing", "work_id": 68231, "role": "director", "role_id": 938, "is_primary": true}, {"id": 2752388, "title": "Forests and wood", "work_id": 98270, "role": "director", "role_id": 938, "is_primary": true}, {"id": 2752387, "title": "Forests and wood", "work_id": 98270, "role": "co-producer", "role_id": 915, "is_primary": true}, {"id": 919714, "title": "The Night", "work_id": 99391, "role": "co-producers/directors", "role_id": 628, "is_primary": true}, {"id": 2647576, "title": "Breaking point", "work_id": 76703, "role": "producer", "role_id": 1089, "is_primary": true}, {"id": 3086071, "title": "Learning to jump", "work_id": 97648, "role": "producer/director", "role_id": 31, "is_primary": true}, {"id": 3086067, "title": "The Cross country event", "work_id": 97649, "role": "producer/director", "role_id": 31, "is_primary": true}, {"id": 2756661, "title": "Horses", "work_id": 86095, "role": "producer/director", "role_id": 31, "is_primary": true}, {"id": 3086078, "title": "The Ten commandments", "work_id": 97647, "role": "producer/director", "role_id": 31, "is_primary": true}, {"id": 2127902, "title": "Bush corridors", "work_id": 76704, "role": "producer/director", "role_id": 31, "is_primary": true}, {"id": 762010, "title": "Time to share", "work_id": 76460, "role": "producer/director", "role_id": 31, "is_primary": true}, {"id": 746988, "title": "Long time journey", "work_id": 69880, "role": "producer/director", "role_id": 31, "is_primary": true}, {"id": 828983, "title": "Forest dream", "work_id": 97470, "role": "producer/director", "role_id": 31, "is_primary": true}], "also_known_as": "", "date_of_birth": "19 NOV 1952", "date_of_death": "", "genders": [{"id": 9, "name": "Male", "slug": "male"}], "languages": [], "places_of_operation": [{"id": 3, "name": "Australia", "slug": "australia"}], "biography": "Justin Trevor Milne, , (born 19 November 1952) is an Australian business executive and company director known for his roles as Chairman of the Australian Broadcasting Corporation, chief of broadband services at Telstra, and CEO at OzEmail, as well as serving on the boards of Tabcorp, the National Basketball League, NetComm Wireless, ME Bank and MYOB Group. and NBN CoMilne was born in Adelaide, South Australia and was educated at St Peter's College before gaining a Bachelor of Arts from Flinders University. After university, he worked in the film industry, joining the South Australian Film Corporation where he produced several short documentary films and worked as an assistant editor on films including Peter Weir's The Last Wave. In the 1980s, Milne bought a film company in Sydney and moved there, where he became involved in the technology sector, and co-founding a car sales listing platform, Globe Media. He then moved on as a director at MSN, then later OzEmail, and then to Telstra. Milne was appointed as Chairman of the ABC in 2017.After the sacking of ABC Managing Director Michelle Guthrie in September 2018, it was alleged that Milne had asked for journalist Emma Alberici to be sacked, leading to protests from ABC staff and calls for an inquiry.  Further allegations have surfaced about Milne asking for Andrew Probyn's sacking in relation to Probyn's reporting of the Super Saturday by-elections.  Milne has also resigned and has denied sending emails regarding Alberici or Probyn.Milne simultaneously held positions with ABC, NBN Co and NetComm Wireless (a supplier to NBN Co) leading to comment of conflict of interest and workload. Source: Wikidata; 01/08/2023", "biography_author": null, "date_of_biography": "2025-03-17T10:42:25.232546+11:00", "external_links": [{"id": 4458, "uri": "https://en.wikipedia.org/wiki/Justin_Milne"}], "uuid": "f9830142-c9b2-47f8-add1-ca81dbfde7b4", "source": {"name": "Vernon", "slug": "vernon"}, "source_identifier": "22943", "external_references": [{"id": 25079, "source": {"name": "Wikidata", "slug": "wikidata"}, "source_identifier": "Q56752482"}], "date_modified": "2025-03-17T10:42:25.232869+11:00"}, {"id": 74758, "name": "Neil Robinson", "roles_in_work": [{"id": 2714990, "title": "Grott", "work_id": 68221, "role": "director", "role_id": 938, "is_primary": true}, {"id": 2166321, "title": "Kaboodle. - Volume 6.", "work_id": 79026, "role": "producer", "role_id": 1089, "is_primary": true}], "also_known_as": "", "date_of_birth": "", "date_of_death": "", "genders": [], "languages": [], "places_of_operation": [], "biography": "", "biography_author": null, "date_of_biography": "2023-05-09T14:25:41.926846+10:00", "external_links": [], "uuid": "dce2a051-c519-4ec0-931a-0755bd2e6a94", "source": {"name": "Vernon", "slug": "vernon"}, "source_identifier": "25684", "external_references": [{"id": 32881, "source": {"name": "Wikidata", "slug": "wikidata"}, "source_identifier": "Q121126080"}], "date_modified": "2025-03-12T01:25:22.489643+11:00"}, {"id": 74757, "name": "Gladys Wright", "roles_in_work": [{"id": 2714954, "title": "Greece the immortal land", "work_id": 68199, "role": "co-producers/directors", "role_id": 628, "is_primary": true}], "also_known_as": "", "date_of_birth": null, "date_of_death": null, "genders": [], "languages": [], "places_of_operation": [], "biography": "", "biography_author": null, "date_of_biography": null, "external_links": [], "uuid": "18a52ce4-ae87-4d79-9cd5-efdc810869a8", "source": {"name": "Vernon", "slug": "vernon"}, "source_identifier": "3862", "external_references": [], "date_modified": "2025-03-12T01:23:06.068560+11:00"}, {"id": 74756, "name": "Peter Crawford", "roles_in_work": [{"id": 2756405, "title": "The Great zoos of the world, Frankfurt", "work_id": 68195, "role": "producer", "role_id": 1089, "is_primary": true}], "also_known_as": "", "date_of_birth": "", "date_of_death": "", "genders": [], "languages": [], "places_of_operation": [], "biography": "", "biography_author": null, "date_of_biography": "2023-05-09T19:58:28.655759+10:00", "external_links": [], "uuid": "14fdd748-38bd-4d3e-ae67-53423baf8e61", "source": {"name": "Vernon", "slug": "vernon"}, "source_identifier": "26509", "external_references": [{"id": 50739, "source": {"name": "Wikidata", "slug": "wikidata"}, "source_identifier": "Q121357805"}], "date_modified": "2025-03-13T14:39:56.774727+11:00"}, {"id": 74755, "name": "Colin Free", "roles_in_work": [{"id": 2769233, "title": "The Great War", "work_id": 68194, "role": "script", "role_id": 962, "is_primary": false}], "also_known_as": "", "date_of_birth": "", "date_of_death": "", "genders": [{"id": 9, "name": "Male", "slug": "male"}], "languages": [], "places_of_operation": [], "biography": "", "biography_author": null, "date_of_biography": "2023-08-09T03:45:53.356905+10:00", "external_links": [], "uuid": "8c7bb296-10e9-46cd-8b9d-03b487da9f08", "source": {"name": "Vernon", "slug": "vernon"}, "source_identifier": "37559", "external_references": [], "date_modified": "2025-03-14T18:13:12.057456+11:00"}, {"id": 74754, "name": "Clive Douglas", "roles_in_work": [{"id": 2769231, "title": "The Great War", "work_id": 68194, "role": "composer", "role_id": 538, "is_primary": false}], "also_known_as": "", "date_of_birth": "", "date_of_death": "", "genders": [{"id": 9, "name": "Male", "slug": "male"}], "languages": [], "places_of_operation": [], "biography": "", "biography_author": null, "date_of_biography": "2023-08-09T03:45:52.617734+10:00", "external_links": [], "uuid": "a0252a11-531c-40f2-866a-df15e00257a4", "source": {"name": "Vernon", "slug": "vernon"}, "source_identifier": "37558", "external_references": [], "date_modified": "2025-03-14T18:13:11.372512+11:00"}, {"id": 74753, "name": "John Mead", "roles_in_work": [{"id": 2714931, "title": "The Great little trains of Wales-Llanfair Welshpool railway", "work_id": 68189, "role": "producer/director", "role_id": 31, "is_primary": true}, {"id": 858756, "title": "The Splendour falls: the first conquerors", "work_id": 73106, "role": "producer/director", "role_id": 31, "is_primary": true}], "also_known_as": "", "date_of_birth": "", "date_of_death": "", "genders": [], "languages": [], "places_of_operation": [], "biography": "", "biography_author": null, "date_of_biography": "2023-05-09T19:58:04.154986+10:00", "external_links": [], "uuid": "bd594e22-11cd-4976-a2e6-00aa841de79e", "source": {"name": "Vernon", "slug": "vernon"}, "source_identifier": "22415", "external_references": [{"id": 50820, "source": {"name": "Wikidata", "slug": "wikidata"}, "source_identifier": "Q121361024"}], "date_modified": "2025-03-12T01:22:49.460474+11:00"}]}