{"count": 28687, "next": "https://api.acmi.net.au/creators/?page=2265", "previous": "https://api.acmi.net.au/creators/?page=2263", "results": [{"id": 17418, "name": "Pathe Pictures", "roles_in_work": [{"id": 2775814, "title": "Cha cha", "work_id": 84183, "role": "production company", "role_id": 941, "is_primary": true}, {"id": 2775824, "title": "Dance Magic", "work_id": 115198, "role": "production company", "role_id": 941, "is_primary": true}, {"id": 2775748, "title": "Rumba", "work_id": 83387, "role": "production company", "role_id": 941, "is_primary": true}, {"id": 2775734, "title": "Mambo", "work_id": 81599, "role": "production company", "role_id": 941, "is_primary": true}, {"id": 2775782, "title": "Swing", "work_id": 83929, "role": "production company", "role_id": 941, "is_primary": true}, {"id": 2775809, "title": "Freestyle nightclub", "work_id": 83931, "role": "production company", "role_id": 941, "is_primary": true}, {"id": 878560, "title": "Moving big trees", "work_id": 91281, "role": "production company", "role_id": 941, "is_primary": true}, {"id": 751253, "title": "The Princess's wedding day", "work_id": 71828, "role": "production company", "role_id": 941, "is_primary": true}, {"id": 805129, "title": "The Damnation of Faust; Old King Cole", "work_id": 90361, "role": "production company", "role_id": 941, "is_primary": true}, {"id": 875835, "title": "Excerpt from Tschaikowsky's \"Pathetique Symphony\"; Liszt's \"Hungarian Rhapsody No. 2\"", "work_id": 89683, "role": "production company", "role_id": 941, "is_primary": true}, {"id": 2775757, "title": "Tango", "work_id": 83927, "role": "production company", "role_id": 941, "is_primary": true}, {"id": 2775770, "title": "Waltz", "work_id": 83928, "role": "production company", "role_id": 941, "is_primary": true}, {"id": 2775795, "title": "Foxtrot", "work_id": 83930, "role": "production company", "role_id": 941, "is_primary": true}, {"id": 1995148, "title": "Ratcatcher [Widescreen]", "work_id": 91199, "role": "production company", "role_id": 941, "is_primary": true}, {"id": 825118, "title": "Royal silver wedding", "work_id": 95686, "role": "production company", "role_id": 941, "is_primary": true}, {"id": 753413, "title": "The Silver Greyhound", "work_id": 72826, "role": "production company", "role_id": 941, "is_primary": true}, {"id": 879411, "title": "Aren't they wonderful", "work_id": 91759, "role": "production company", "role_id": 941, "is_primary": true}, {"id": 873796, "title": "Royal silver wedding, 1945", "work_id": 88410, "role": "production company", "role_id": 941, "is_primary": true}], "also_known_as": "", "date_of_birth": "", "date_of_death": "", "genders": [], "languages": [], "places_of_operation": [], "biography": "", "biography_author": null, "date_of_biography": "2023-05-09T19:13:51.263652+10:00", "external_links": [], "uuid": "b8e879bc-990b-4ba2-8a85-a01e713d0fa6", "source": {"name": "Vernon", "slug": "vernon"}, "source_identifier": "11335", "external_references": [], "date_modified": "2025-03-14T18:44:54.011169+11:00"}, {"id": 17417, "name": "Martin Rennolls", "roles_in_work": [{"id": 2465029, "title": "Princess Margaret visits Jamaica", "work_id": 71827, "role": "director", "role_id": 938, "is_primary": true}], "also_known_as": "", "date_of_birth": "", "date_of_death": "", "genders": [], "languages": [], "places_of_operation": [], "biography": "", "biography_author": null, "date_of_biography": "2023-08-14T10:25:19.585260+10:00", "external_links": [], "uuid": "7cc94f96-0298-4bbd-a719-13cc446eb781", "source": {"name": "Vernon", "slug": "vernon"}, "source_identifier": "24660", "external_references": [], "date_modified": "2023-08-14T10:25:19.585528+10:00"}, {"id": 17416, "name": "Jamaica Film Unit", "roles_in_work": [{"id": 2465028, "title": "Princess Margaret visits Jamaica", "work_id": 71827, "role": "production company", "role_id": 941, "is_primary": true}], "also_known_as": "", "date_of_birth": "", "date_of_death": "", "genders": [], "languages": [], "places_of_operation": [], "biography": "", "biography_author": null, "date_of_biography": "2023-08-14T10:25:18.943925+10:00", "external_links": [], "uuid": "279d46ab-f1b3-4021-a248-585527cb2a6c", "source": {"name": "Vernon", "slug": "vernon"}, "source_identifier": "9537", "external_references": [], "date_modified": "2023-08-14T10:25:18.944220+10:00"}, {"id": 17414, "name": "Jack Saward", "roles_in_work": [{"id": 1812709, "title": "Thorncliffe: the story of British industrial enterprise", "work_id": 73758, "role": "producer", "role_id": 1089, "is_primary": true}, {"id": 2466257, "title": "Stranger in his own country", "work_id": 73282, "role": "producer/director", "role_id": 31, "is_primary": true}, {"id": 2465024, "title": "Primary adventure", "work_id": 71817, "role": "producer/director", "role_id": 31, "is_primary": true}, {"id": 2469207, "title": "To live and learn", "work_id": 73878, "role": "producer/director", "role_id": 31, "is_primary": true}, {"id": 2466556, "title": "Thamesmead '68", "work_id": 73644, "role": "producer/director", "role_id": 31, "is_primary": true}], "also_known_as": "", "date_of_birth": "", "date_of_death": "", "genders": [], "languages": [], "places_of_operation": [], "biography": "", "biography_author": null, "date_of_biography": "2023-08-14T11:55:27.773798+10:00", "external_links": [], "uuid": "3024f994-8541-4e13-bcfe-0804d1f47c4a", "source": {"name": "Vernon", "slug": "vernon"}, "source_identifier": "21089", "external_references": [], "date_modified": "2023-08-14T11:55:27.774029+10:00"}, {"id": 17413, "name": "Tara Films", "roles_in_work": [{"id": 2465023, "title": "Primary adventure", "work_id": 71817, "role": "production company", "role_id": 941, "is_primary": true}, {"id": 2466555, "title": "Thamesmead '68", "work_id": 73644, "role": "production company", "role_id": 941, "is_primary": true}, {"id": 2466256, "title": "Stranger in his own country", "work_id": 73282, "role": "production company", "role_id": 941, "is_primary": true}, {"id": 2469206, "title": "To live and learn", "work_id": 73878, "role": "production company", "role_id": 941, "is_primary": true}], "also_known_as": "", "date_of_birth": "", "date_of_death": "", "genders": [], "languages": [], "places_of_operation": [], "biography": "", "biography_author": null, "date_of_biography": "2023-08-14T11:55:27.141729+10:00", "external_links": [], "uuid": "1dc956d9-ae92-4596-977a-458975252788", "source": {"name": "Vernon", "slug": "vernon"}, "source_identifier": "13163", "external_references": [], "date_modified": "2023-08-14T11:55:27.142196+10:00"}, {"id": 17408, "name": "Searle Education Systems", "roles_in_work": [{"id": 2646058, "title": "The Pressure principle", "work_id": 71811, "role": "production company", "role_id": 941, "is_primary": true}], "also_known_as": "", "date_of_birth": "", "date_of_death": "", "genders": [], "languages": [], "places_of_operation": [], "biography": "", "biography_author": null, "date_of_biography": "2023-08-14T11:29:45.771240+10:00", "external_links": [], "uuid": "2c9f268b-e76c-4e95-8b38-e42af6638466", "source": {"name": "Vernon", "slug": "vernon"}, "source_identifier": "12396", "external_references": [], "date_modified": "2025-03-05T12:55:43.340669+11:00"}, {"id": 17404, "name": "United Press International Television News", "roles_in_work": [{"id": 2404097, "title": "China: changes from within (TEFC)", "work_id": 78096, "role": "production company", "role_id": 941, "is_primary": true}, {"id": 857198, "title": "The Presidency: search for a candidate", "work_id": 71805, "role": "production company", "role_id": 941, "is_primary": true}], "also_known_as": "", "date_of_birth": "", "date_of_death": "", "genders": [], "languages": [], "places_of_operation": [], "biography": "", "biography_author": null, "date_of_biography": "2023-08-11T15:25:57.839720+10:00", "external_links": [], "uuid": "17971599-b5c3-4154-af42-687a464ef4e8", "source": {"name": "Vernon", "slug": "vernon"}, "source_identifier": "13951", "external_references": [], "date_modified": "2023-08-11T15:25:57.839964+10:00"}, {"id": 17400, "name": "Ingeborg Fuler", "roles_in_work": [{"id": 2646056, "title": "Preservation of health", "work_id": 71802, "role": "director", "role_id": 938, "is_primary": true}], "also_known_as": "", "date_of_birth": null, "date_of_death": null, "genders": [], "languages": [], "places_of_operation": [], "biography": "", "biography_author": null, "date_of_biography": null, "external_links": [], "uuid": "2bf62f2b-f1d3-4702-b82f-d63748c2b195", "source": {"name": "Vernon", "slug": "vernon"}, "source_identifier": "20833", "external_references": [], "date_modified": "2025-03-05T12:55:41.668763+11:00"}, {"id": 17399, "name": "Joseph Cote", "roles_in_work": [{"id": 2758350, "title": "Food for health", "work_id": 96294, "role": "director", "role_id": 938, "is_primary": true}, {"id": 2758356, "title": "Kitchen management principles", "work_id": 97013, "role": "director", "role_id": 938, "is_primary": true}, {"id": 2758346, "title": "Preparing meals", "work_id": 71794, "role": "director", "role_id": 938, "is_primary": true}], "also_known_as": "", "date_of_birth": null, "date_of_death": null, "genders": [], "languages": [], "places_of_operation": [], "biography": "", "biography_author": null, "date_of_biography": null, "external_links": [], "uuid": "a9bc8a2a-8ce2-4274-aea6-cb5cbacb6516", "source": {"name": "Vernon", "slug": "vernon"}, "source_identifier": "22718", "external_references": [{"id": 34879, "source": {"name": "Wikidata", "slug": "wikidata"}, "source_identifier": "Q120837910"}], "date_modified": "2025-03-13T14:49:13.003536+11:00"}, {"id": 17397, "name": "Film Craft Productions", "roles_in_work": [{"id": 2465010, "title": "Preparing a cupola for charging", "work_id": 71792, "role": "production company", "role_id": 941, "is_primary": true}], "also_known_as": "", "date_of_birth": "", "date_of_death": "", "genders": [], "languages": [], "places_of_operation": [], "biography": "", "biography_author": null, "date_of_biography": "2023-08-14T10:24:46.383820+10:00", "external_links": [], "uuid": "0cb39a92-11b7-4d76-ac49-9fa6c381920a", "source": {"name": "Vernon", "slug": "vernon"}, "source_identifier": "8204", "external_references": [], "date_modified": "2023-08-14T10:24:46.384106+10:00"}]}