{"count": 28687, "next": "https://api.acmi.net.au/creators/?page=124", "previous": "https://api.acmi.net.au/creators/?page=122", "results": [{"id": 84377, "name": "Adolf Scherl", "roles_in_work": [{"id": 2686470, "title": "Cinema Eden in Phnom Penh", "work_id": 107561, "role": "creator", "role_id": 968, "is_primary": true}, {"id": 2686472, "title": "Cinema Trung Quoc in Phnom Penh", "work_id": 107560, "role": "creator", "role_id": 968, "is_primary": true}, {"id": 2686473, "title": "Kiosks near Cinema d'Etat, Phnom Penh", "work_id": 107563, "role": "creator", "role_id": 968, "is_primary": true}, {"id": 2686474, "title": "Cinema d'Etat known as Chenla Theatre, Phnom Penh", "work_id": 107562, "role": "creator", "role_id": 968, "is_primary": true}, {"id": 2686471, "title": "Cinema in Phnom Penh", "work_id": 107559, "role": "creator", "role_id": 968, "is_primary": true}], "also_known_as": "", "date_of_birth": "1925", "date_of_death": "2017", "genders": [], "languages": [], "places_of_operation": [], "biography": "", "biography_author": null, "date_of_biography": "2023-08-16T03:56:29.202347+10:00", "external_links": [], "uuid": "e55d4d8a-3e50-45e7-a4b1-3e849e6b91be", "source": {"name": "Vernon", "slug": "vernon"}, "source_identifier": "39685", "external_references": [], "date_modified": "2025-03-11T12:21:11.847454+11:00"}, {"id": 84376, "name": "Sovann Kiry Film", "roles_in_work": [{"id": 2686469, "title": "Sayon Toch Youm soundtrack", "work_id": 99791, "role": "creator", "role_id": 968, "is_primary": true}], "also_known_as": "", "date_of_birth": "", "date_of_death": "", "genders": [], "languages": [], "places_of_operation": [], "biography": "", "biography_author": null, "date_of_biography": "2023-08-16T03:56:21.645051+10:00", "external_links": [], "uuid": "e7feec55-adea-441d-bf10-8707deea5408", "source": {"name": "Vernon", "slug": "vernon"}, "source_identifier": "39684", "external_references": [], "date_modified": "2025-03-11T12:21:04.006397+11:00"}, {"id": 84375, "name": "Baksey Than Suor", "roles_in_work": [{"id": 2686466, "title": "Abolkasem soundtrack", "work_id": 99789, "role": "creator", "role_id": 968, "is_primary": true}], "also_known_as": "", "date_of_birth": "", "date_of_death": "", "genders": [], "languages": [], "places_of_operation": [], "biography": "", "biography_author": null, "date_of_biography": "2023-08-16T03:56:18.172261+10:00", "external_links": [], "uuid": "1d715e47-d674-48ac-8f6d-6a1b0701e8d8", "source": {"name": "Vernon", "slug": "vernon"}, "source_identifier": "39682", "external_references": [], "date_modified": "2025-03-11T12:21:00.033181+11:00"}, {"id": 84374, "name": "Jenny Matthews", "roles_in_work": [{"id": 2686482, "title": "Climate rally in London", "work_id": 107576, "role": "creator", "role_id": 968, "is_primary": true}], "also_known_as": "", "date_of_birth": "", "date_of_death": "", "genders": [], "languages": [], "places_of_operation": [], "biography": "", "biography_author": null, "date_of_biography": "2023-05-09T19:04:47.700738+10:00", "external_links": [], "uuid": "58b8b952-ded2-450a-aff6-c8cd18b64afd", "source": {"name": "Vernon", "slug": "vernon"}, "source_identifier": "39679", "external_references": [], "date_modified": "2025-03-11T12:21:22.843984+11:00"}, {"id": 84373, "name": "Afriadi Hikmal", "roles_in_work": [{"id": 2686475, "title": "Climate rally in Jakarta", "work_id": 107575, "role": "creator", "role_id": 968, "is_primary": true}], "also_known_as": "", "date_of_birth": "", "date_of_death": "", "genders": [], "languages": [], "places_of_operation": [], "biography": "", "biography_author": null, "date_of_biography": "2023-05-09T19:04:45.385221+10:00", "external_links": [], "uuid": "0956c42c-b842-4068-99d7-a227dd23c0c0", "source": {"name": "Vernon", "slug": "vernon"}, "source_identifier": "39678", "external_references": [], "date_modified": "2025-03-11T12:21:14.401182+11:00"}, {"id": 84372, "name": "Alain Pitton", "roles_in_work": [{"id": 2686477, "title": "Climate rally in Toulouse", "work_id": 107573, "role": "creator", "role_id": 968, "is_primary": true}], "also_known_as": "", "date_of_birth": "", "date_of_death": "", "genders": [], "languages": [], "places_of_operation": [], "biography": "", "biography_author": null, "date_of_biography": "2023-05-09T19:04:37.532358+10:00", "external_links": [], "uuid": "3c109e6d-2f3b-4107-a1f6-f2972f7660f0", "source": {"name": "Vernon", "slug": "vernon"}, "source_identifier": "39677", "external_references": [], "date_modified": "2025-03-11T12:21:16.802863+11:00"}, {"id": 84371, "name": "Mark Evans", "roles_in_work": [{"id": 2686479, "title": "Climate rally in Sydney", "work_id": 107574, "role": "creator", "role_id": 968, "is_primary": true}, {"id": 2686478, "title": "Climate rally in Sydney", "work_id": 107571, "role": "creator", "role_id": 968, "is_primary": true}], "also_known_as": "", "date_of_birth": "", "date_of_death": "", "genders": [], "languages": [], "places_of_operation": [], "biography": "", "biography_author": null, "date_of_biography": "2023-05-09T19:04:46.932586+10:00", "external_links": [], "uuid": "3089efb6-26c3-4edc-ad57-a8d3a859c594", "source": {"name": "Vernon", "slug": "vernon"}, "source_identifier": "39676", "external_references": [], "date_modified": "2025-03-11T12:21:19.163433+11:00"}, {"id": 84370, "name": "Cameron Greene", "roles_in_work": [{"id": 2686480, "title": "Climate rally in Melbourne", "work_id": 107570, "role": "creator", "role_id": 968, "is_primary": true}], "also_known_as": "", "date_of_birth": "", "date_of_death": "", "genders": [], "languages": [], "places_of_operation": [], "biography": "", "biography_author": null, "date_of_biography": "2023-05-09T19:04:46.154464+10:00", "external_links": [], "uuid": "f500ba41-adba-4f9f-ab04-283dd532a4d7", "source": {"name": "Vernon", "slug": "vernon"}, "source_identifier": "39675", "external_references": [], "date_modified": "2025-03-11T12:21:20.374907+11:00"}, {"id": 84369, "name": "Alana Holmberg", "roles_in_work": [{"id": 2686483, "title": "Scarlett Buckingham leading a climate rally in Melbourne", "work_id": 107568, "role": "creator", "role_id": 968, "is_primary": true}, {"id": 2686476, "title": "The Pacific Island Climate Warriors leading a climate rally in Melbourne", "work_id": 107567, "role": "creator", "role_id": 968, "is_primary": true}, {"id": 2686481, "title": "Freya Brown and Niamh O’Connor-Smith leading a climate rally in Melbourne", "work_id": 107572, "role": "creator", "role_id": 968, "is_primary": true}], "also_known_as": "", "date_of_birth": "", "date_of_death": "", "genders": [], "languages": [], "places_of_operation": [], "biography": "", "biography_author": null, "date_of_biography": "2023-05-09T19:04:44.620204+10:00", "external_links": [], "uuid": "275909d6-633e-40dc-91c7-e7df04a4a5f9", "source": {"name": "Vernon", "slug": "vernon"}, "source_identifier": "39674", "external_references": [], "date_modified": "2025-03-11T12:21:23.781522+11:00"}, {"id": 84368, "name": "Anas Alkharboutli", "roles_in_work": [{"id": 2686451, "title": "The Syrian Civil Defence", "work_id": 107555, "role": "creator", "role_id": 968, "is_primary": true}], "also_known_as": "", "date_of_birth": "1992", "date_of_death": "", "genders": [], "languages": [], "places_of_operation": [], "biography": "", "biography_author": null, "date_of_biography": "2023-05-09T19:13:15.454834+10:00", "external_links": [], "uuid": "3c77bb6e-56e1-44d0-b0e0-c6842c6b76d8", "source": {"name": "Vernon", "slug": "vernon"}, "source_identifier": "39673", "external_references": [], "date_modified": "2025-03-11T12:20:45.073646+11:00"}]}