{"count": 28687, "next": "https://api.acmi.net.au/creators/?page=77", "previous": "https://api.acmi.net.au/creators/?page=75", "results": [{"id": 86270, "name": "Ashe Venn", "roles_in_work": [{"id": 2215522, "title": "Time changes", "work_id": 120099, "role": "cast", "role_id": 33, "is_primary": false}], "also_known_as": "", "date_of_birth": "", "date_of_death": "", "genders": [], "languages": [], "places_of_operation": [], "biography": "", "biography_author": null, "date_of_biography": "2023-05-09T15:53:55.302112+10:00", "external_links": [], "uuid": "d448f146-7ea3-4ec6-971d-abee3af4861c", "source": {"name": "Vernon", "slug": "vernon"}, "source_identifier": "39123", "external_references": [{"id": 33540, "source": {"name": "Wikidata", "slug": "wikidata"}, "source_identifier": "Q121036019"}], "date_modified": "2023-09-05T17:48:10.036258+10:00"}, {"id": 86269, "name": "Stuart Green", "roles_in_work": [{"id": 2215516, "title": "Time changes", "work_id": 120099, "role": "cast", "role_id": 33, "is_primary": false}], "also_known_as": "", "date_of_birth": "", "date_of_death": "", "genders": [], "languages": [], "places_of_operation": [], "biography": "", "biography_author": null, "date_of_biography": "2023-05-09T15:53:55.086960+10:00", "external_links": [], "uuid": "8782f135-e5e3-4e07-870e-668047e3e1d1", "source": {"name": "Vernon", "slug": "vernon"}, "source_identifier": "39122", "external_references": [{"id": 36797, "source": {"name": "Wikidata", "slug": "wikidata"}, "source_identifier": "Q121034409"}], "date_modified": "2023-09-06T01:33:59.249429+10:00"}, {"id": 86268, "name": "Paul Reed", "roles_in_work": [{"id": 2215510, "title": "Time changes", "work_id": 120099, "role": "cast", "role_id": 33, "is_primary": false}], "also_known_as": "", "date_of_birth": "", "date_of_death": "", "genders": [], "languages": [], "places_of_operation": [], "biography": "", "biography_author": null, "date_of_biography": "2023-05-09T15:53:54.845687+10:00", "external_links": [], "uuid": "1888a428-be16-497e-ae05-20e3d22bcb72", "source": {"name": "Vernon", "slug": "vernon"}, "source_identifier": "39121", "external_references": [{"id": 36821, "source": {"name": "Wikidata", "slug": "wikidata"}, "source_identifier": "Q121298831"}], "date_modified": "2023-09-05T23:49:14.822287+10:00"}, {"id": 86267, "name": "Chris Maudson", "roles_in_work": [{"id": 2215506, "title": "Time changes", "work_id": 120099, "role": "cast", "role_id": 33, "is_primary": false}], "also_known_as": "", "date_of_birth": "01 MAR 1945", "date_of_death": "10 FEB 1982", "genders": [], "languages": [], "places_of_operation": [], "biography": "", "biography_author": null, "date_of_biography": "2023-05-09T15:53:54.623758+10:00", "external_links": [], "uuid": "2aa11ef0-1424-49e0-a80e-b945b2eb5455", "source": {"name": "Vernon", "slug": "vernon"}, "source_identifier": "39120", "external_references": [{"id": 43161, "source": {"name": "Wikidata", "slug": "wikidata"}, "source_identifier": "Q121035786"}], "date_modified": "2023-09-05T18:32:34.467257+10:00"}, {"id": 86266, "name": "Firepit Collective", "roles_in_work": [{"id": 2716972, "title": "HYPER//ECHO", "work_id": 120097, "role": "artist", "role_id": 505, "is_primary": true}], "also_known_as": "", "date_of_birth": "", "date_of_death": "", "genders": [], "languages": [], "places_of_operation": [], "biography": "", "biography_author": null, "date_of_biography": "2023-06-21T03:41:10.740260+10:00", "external_links": [], "uuid": "49516121-4252-42bc-8273-91207dcddd81", "source": {"name": "Vernon", "slug": "vernon"}, "source_identifier": "40223", "external_references": [], "date_modified": "2025-03-12T05:35:21.022866+11:00"}, {"id": 86265, "name": "Casey Briggs", "roles_in_work": [{"id": 2717413, "title": "The Oscars slap", "work_id": 120096, "role": "creator", "role_id": 968, "is_primary": true}], "also_known_as": "", "date_of_birth": "", "date_of_death": "", "genders": [], "languages": [], "places_of_operation": [], "biography": "", "biography_author": null, "date_of_biography": "2023-08-16T04:08:26.735095+10:00", "external_links": [], "uuid": "d43aa476-38c4-4943-8c51-63089be3e038", "source": {"name": "Vernon", "slug": "vernon"}, "source_identifier": "40312", "external_references": [], "date_modified": "2025-03-12T05:54:54.709634+11:00"}, {"id": 86264, "name": "Julia Woodford", "roles_in_work": [], "also_known_as": "", "date_of_birth": null, "date_of_death": null, "genders": [], "languages": [], "places_of_operation": [], "biography": "", "biography_author": null, "date_of_biography": null, "external_links": [], "uuid": "4558f211-8405-4cf5-aefa-e684d5b745c2", "source": {"name": "Vernon", "slug": "vernon"}, "source_identifier": null, "external_references": [], "date_modified": "2023-06-14T16:33:30.576250+10:00"}, {"id": 86263, "name": "Carlo Zeccola", "roles_in_work": [{"id": 2681251, "title": "What Do We Want?", "work_id": 120095, "role": "editor", "role_id": 918, "is_primary": true}], "also_known_as": "", "date_of_birth": "", "date_of_death": "", "genders": [], "languages": [], "places_of_operation": [], "biography": "", "biography_author": null, "date_of_biography": "2023-08-09T04:25:33.798281+10:00", "external_links": [], "uuid": "0cb23d41-b106-4e2e-9aa3-08d72dd272b2", "source": {"name": "Vernon", "slug": "vernon"}, "source_identifier": "40310", "external_references": [{"id": 41990, "source": {"name": "Wikidata", "slug": "wikidata"}, "source_identifier": "Q121091351"}], "date_modified": "2025-03-07T01:05:37.409191+11:00"}, {"id": 86262, "name": "Sherwin Akbarzadeh", "roles_in_work": [{"id": 2681250, "title": "What Do We Want?", "work_id": 120095, "role": "director of photography", "role_id": 925, "is_primary": false}], "also_known_as": "", "date_of_birth": "", "date_of_death": "", "genders": [], "languages": [], "places_of_operation": [], "biography": "", "biography_author": null, "date_of_biography": "2023-08-09T04:25:33.077102+10:00", "external_links": [], "uuid": "cd9b4d73-819c-49fb-ac0c-ef1cba229602", "source": {"name": "Vernon", "slug": "vernon"}, "source_identifier": "40309", "external_references": [], "date_modified": "2025-03-07T01:05:36.827768+11:00"}, {"id": 86261, "name": "Molly O'Connor", "roles_in_work": [{"id": 2681249, "title": "What Do We Want?", "work_id": 120095, "role": "producer", "role_id": 1089, "is_primary": true}], "also_known_as": "", "date_of_birth": "", "date_of_death": "", "genders": [], "languages": [], "places_of_operation": [], "biography": "", "biography_author": null, "date_of_biography": "2023-08-09T04:25:32.442330+10:00", "external_links": [], "uuid": "280971f5-eac4-4826-adbf-4fcfef900400", "source": {"name": "Vernon", "slug": "vernon"}, "source_identifier": "40308", "external_references": [{"id": 39667, "source": {"name": "Wikidata", "slug": "wikidata"}, "source_identifier": "Q121034248"}], "date_modified": "2025-03-07T01:05:36.245018+11:00"}]}