{"count": 28687, "next": "https://api.acmi.net.au/creators/?page=2149", "previous": "https://api.acmi.net.au/creators/?page=2147", "results": [{"id": 19625, "name": "Stephen Fitzgerald", "roles_in_work": [{"id": 2409030, "title": "Happy locomotive", "work_id": 76292, "role": "producer", "role_id": 1089, "is_primary": true}], "also_known_as": "", "date_of_birth": "", "date_of_death": "", "genders": [], "languages": [], "places_of_operation": [], "biography": "", "biography_author": null, "date_of_biography": "2023-08-11T17:13:47.839603+10:00", "external_links": [], "uuid": "518578a2-b95c-4428-982f-d5c8b1565389", "source": {"name": "Vernon", "slug": "vernon"}, "source_identifier": "29034", "external_references": [], "date_modified": "2023-08-11T17:13:47.839833+10:00"}, {"id": 19624, "name": "Baltimore and Ohio Railroad Company", "roles_in_work": [{"id": 2409029, "title": "Happy locomotive", "work_id": 76292, "role": "production company", "role_id": 941, "is_primary": true}], "also_known_as": "", "date_of_birth": "", "date_of_death": "", "genders": [], "languages": [], "places_of_operation": [], "biography": "", "biography_author": null, "date_of_biography": "2023-08-11T17:13:47.207185+10:00", "external_links": [], "uuid": "9ceea693-1865-4a68-83c6-783b91eacac1", "source": {"name": "Vernon", "slug": "vernon"}, "source_identifier": "5695", "external_references": [], "date_modified": "2023-08-11T17:13:47.207453+10:00"}, {"id": 19623, "name": "Unifilm", "roles_in_work": [{"id": 2409028, "title": "Happy locomotive", "work_id": 76292, "role": "production company", "role_id": 941, "is_primary": true}], "also_known_as": "", "date_of_birth": "", "date_of_death": "", "genders": [], "languages": [], "places_of_operation": [], "biography": "", "biography_author": null, "date_of_biography": "2023-08-11T17:13:46.564504+10:00", "external_links": [], "uuid": "9cd883ab-7539-4b3b-a2ce-cf95587d6005", "source": {"name": "Vernon", "slug": "vernon"}, "source_identifier": "13842", "external_references": [], "date_modified": "2023-08-11T17:13:46.564851+10:00"}, {"id": 19622, "name": "Kristian Ryhammer", "roles_in_work": [{"id": 2411267, "title": "I was there", "work_id": 76291, "role": "producer", "role_id": 1089, "is_primary": true}], "also_known_as": "", "date_of_birth": "", "date_of_death": "", "genders": [], "languages": [], "places_of_operation": [], "biography": "", "biography_author": null, "date_of_biography": "2023-08-11T18:16:39.892091+10:00", "external_links": [], "uuid": "53a2e179-5404-4caa-bf58-5155e62961df", "source": {"name": "Vernon", "slug": "vernon"}, "source_identifier": "23408", "external_references": [], "date_modified": "2023-08-11T18:16:39.892340+10:00"}, {"id": 19621, "name": "Central Film O", "roles_in_work": [{"id": 2411265, "title": "I was there", "work_id": 76291, "role": "production company", "role_id": 941, "is_primary": true}], "also_known_as": "", "date_of_birth": "", "date_of_death": "", "genders": [], "languages": [], "places_of_operation": [], "biography": "", "biography_author": null, "date_of_biography": "2023-08-11T18:16:38.648810+10:00", "external_links": [], "uuid": "7be7d266-1d29-491d-982a-064a81169104", "source": {"name": "Vernon", "slug": "vernon"}, "source_identifier": "6410", "external_references": [], "date_modified": "2023-08-11T18:16:38.649175+10:00"}, {"id": 19620, "name": "Solrun Hoaas", "roles_in_work": [{"id": 2105655, "title": "Aya", "work_id": 82352, "role": "director", "role_id": 938, "is_primary": true}, {"id": 2751051, "title": "At 'Edge' with Judith Wright", "work_id": 97636, "role": "director", "role_id": 938, "is_primary": true}, {"id": 761563, "title": "In search of the Japanese", "work_id": 76290, "role": "director", "role_id": 938, "is_primary": true}, {"id": 768149, "title": "Pre-occupied", "work_id": 78813, "role": "director", "role_id": 938, "is_primary": true}, {"id": 817988, "title": "Rushing to sunshine (Seoul diaries)", "work_id": 94002, "role": "director", "role_id": 938, "is_primary": true}, {"id": 862956, "title": "There's nothing that doesn't take time", "work_id": 76693, "role": "director", "role_id": 938, "is_primary": true}, {"id": 770059, "title": "Green tea and cherry ripe", "work_id": 79571, "role": "director", "role_id": 938, "is_primary": true}, {"id": 2105651, "title": "Aya", "work_id": 82352, "role": "co-producer", "role_id": 915, "is_primary": true}, {"id": 2647569, "title": "Effacement", "work_id": 76681, "role": "producer/director", "role_id": 31, "is_primary": true}, {"id": 862962, "title": "Waiting for water", "work_id": 76696, "role": "producer/director", "role_id": 31, "is_primary": true}, {"id": 767300, "title": "Sacred vandals", "work_id": 78479, "role": "producer/director", "role_id": 31, "is_primary": true}, {"id": 878069, "title": "Pyongyang diaries", "work_id": 91076, "role": "producer/director", "role_id": 31, "is_primary": true}], "also_known_as": "", "date_of_birth": "15 AUG 1943", "date_of_death": "11 DEC 2009", "genders": [{"id": 5, "name": "Female", "slug": "female"}], "languages": [], "places_of_operation": [], "biography": "", "biography_author": null, "date_of_biography": "2023-05-09T12:38:20.261664+10:00", "external_links": [], "uuid": "b7346e0b-5b05-4694-b96e-db92267f9c65", "source": {"name": "Vernon", "slug": "vernon"}, "source_identifier": "28893", "external_references": [{"id": 43125, "source": {"name": "Wikidata", "slug": "wikidata"}, "source_identifier": "Q117885652"}], "date_modified": "2025-03-13T00:36:00.051013+11:00"}, {"id": 19616, "name": "Jean-Jacques Languepin", "roles_in_work": [{"id": 2465353, "title": "Route des Cimes", "work_id": 76259, "role": "director", "role_id": 938, "is_primary": true}], "also_known_as": "", "date_of_birth": "1924-11-12", "date_of_death": null, "genders": [{"id": 9, "name": "Male", "slug": "male"}], "languages": [{"id": 4, "name": "French", "slug": "french"}], "places_of_operation": [{"id": 17, "name": "France", "slug": "france"}], "biography": "", "biography_author": null, "date_of_biography": "2023-08-14T10:32:59.971842+10:00", "external_links": [], "uuid": "891af749-f4d8-4dd9-b68a-7905514e76c2", "source": {"name": "Vernon", "slug": "vernon"}, "source_identifier": "21580", "external_references": [{"id": 43165, "source": {"name": "Wikidata", "slug": "wikidata"}, "source_identifier": "Q3166325"}, {"id": 54777, "source": {"name": "VIAF", "slug": "viaf"}, "source_identifier": "69132526"}, {"id": 54778, "source": {"name": "LOC Auth", "slug": "loc-auth"}, "source_identifier": "no2018015877"}, {"id": 54779, "source": {"name": "WorldCat", "slug": "worldcat"}, "source_identifier": "lccn-no2018015877"}], "date_modified": "2023-09-05T21:11:43.727349+10:00"}, {"id": 19615, "name": "Cinecim", "roles_in_work": [{"id": 2465352, "title": "Route des Cimes", "work_id": 76259, "role": "production company", "role_id": 941, "is_primary": true}], "also_known_as": "", "date_of_birth": "", "date_of_death": "", "genders": [], "languages": [], "places_of_operation": [], "biography": "", "biography_author": null, "date_of_biography": "2023-08-14T10:32:59.354940+10:00", "external_links": [], "uuid": "1e25da93-0885-479c-9c99-82e3888a4477", "source": {"name": "Vernon", "slug": "vernon"}, "source_identifier": "6672", "external_references": [], "date_modified": "2023-08-14T10:32:59.355287+10:00"}, {"id": 19614, "name": "National Trust for Scotland", "roles_in_work": [{"id": 2397686, "title": "A Land lived in", "work_id": 76256, "role": "production company", "role_id": 941, "is_primary": true}], "also_known_as": "", "date_of_birth": "", "date_of_death": "", "genders": [], "languages": [], "places_of_operation": [], "biography": "", "biography_author": null, "date_of_biography": "2023-08-11T13:03:18.489347+10:00", "external_links": [], "uuid": "010eb6db-785f-4c2b-b6bf-479ceee2e895", "source": {"name": "Vernon", "slug": "vernon"}, "source_identifier": "10839", "external_references": [], "date_modified": "2023-08-11T13:03:18.489820+10:00"}, {"id": 19613, "name": "Sally Macdonald", "roles_in_work": [{"id": 797275, "title": "This nuclear age", "work_id": 87710, "role": "director", "role_id": 938, "is_primary": true}, {"id": 862390, "title": "Power in perpetuity: The Churchill Falls Project", "work_id": 76255, "role": "director", "role_id": 938, "is_primary": true}], "also_known_as": "", "date_of_birth": null, "date_of_death": null, "genders": [], "languages": [], "places_of_operation": [], "biography": "", "biography_author": null, "date_of_biography": null, "external_links": [], "uuid": "05e4c201-464e-45c3-8a00-83826d660da1", "source": {"name": "Vernon", "slug": "vernon"}, "source_identifier": "28451", "external_references": [{"id": 35175, "source": {"name": "Wikidata", "slug": "wikidata"}, "source_identifier": "Q120700019"}], "date_modified": "2023-09-13T12:32:32.445596+10:00"}]}