{"count": 28687, "next": "https://api.acmi.net.au/creators/?page=372", "previous": "https://api.acmi.net.au/creators/?page=370", "results": [{"id": 81897, "name": "Jack Flett", "roles_in_work": [{"id": 2675460, "title": "The Posidon Rush - Jack Flett", "work_id": 114146, "role": "cast", "role_id": 33, "is_primary": false}], "also_known_as": "", "date_of_birth": null, "date_of_death": null, "genders": [], "languages": [], "places_of_operation": [], "biography": "", "biography_author": null, "date_of_biography": null, "external_links": [], "uuid": "5c627cae-e137-43df-8d57-a61b991dd8a5", "source": {"name": "Vernon", "slug": "vernon"}, "source_identifier": "1317", "external_references": [{"id": 38037, "source": {"name": "Wikidata", "slug": "wikidata"}, "source_identifier": "Q121036049"}], "date_modified": "2025-03-06T22:42:33.629209+11:00"}, {"id": 81896, "name": "Faye Lyons", "roles_in_work": [{"id": 2675453, "title": "Cohuna celebrates the coronation of QE II", "work_id": 114141, "role": "music", "role_id": 949, "is_primary": false}, {"id": 2637397, "title": "Tom Olsson's Cohuna", "work_id": 114156, "role": "music", "role_id": 949, "is_primary": false}], "also_known_as": "", "date_of_birth": "", "date_of_death": "", "genders": [], "languages": [], "places_of_operation": [], "biography": "", "biography_author": null, "date_of_biography": "2023-05-09T18:03:09.652375+10:00", "external_links": [], "uuid": "0d9f860b-841b-4d9e-a21e-20981b4d539d", "source": {"name": "Vernon", "slug": "vernon"}, "source_identifier": "111859", "external_references": [{"id": 51667, "source": {"name": "Wikidata", "slug": "wikidata"}, "source_identifier": "Q121361267"}], "date_modified": "2025-03-06T22:42:27.724375+11:00"}, {"id": 81895, "name": "Gerry Carlin", "roles_in_work": [{"id": 2675452, "title": "Cohuna celebrates the coronation of QE II", "work_id": 114141, "role": "voice", "role_id": 471, "is_primary": false}, {"id": 2637398, "title": "Tom Olsson's Cohuna", "work_id": 114156, "role": "voice", "role_id": 471, "is_primary": false}], "also_known_as": "", "date_of_birth": "", "date_of_death": "", "genders": [], "languages": [], "places_of_operation": [], "biography": "", "biography_author": null, "date_of_biography": "2023-05-09T18:03:10.226868+10:00", "external_links": [], "uuid": "954fb486-d5a9-4f98-98d7-b86b9d9dfeca", "source": {"name": "Vernon", "slug": "vernon"}, "source_identifier": "111858", "external_references": [], "date_modified": "2025-03-06T22:42:27.138317+11:00"}, {"id": 81894, "name": "Mike Collins", "roles_in_work": [{"id": 3107660, "title": "Cyberdelia", "work_id": 114116, "role": "associate director", "role_id": 594, "is_primary": false}], "also_known_as": "", "date_of_birth": "", "date_of_death": "", "genders": [], "languages": [], "places_of_operation": [], "biography": "", "biography_author": null, "date_of_biography": "2023-08-28T15:35:22.273762+10:00", "external_links": [], "uuid": "d5399901-97b5-4311-8c2e-65e7160baab9", "source": {"name": "Vernon", "slug": "vernon"}, "source_identifier": "1345", "external_references": [], "date_modified": "2025-09-08T09:23:27.291413+10:00"}, {"id": 81893, "name": "Adem Jaffers", "roles_in_work": [{"id": 3107772, "title": "Cyberthon VI: VAT", "work_id": 118009, "role": "creator", "role_id": 968, "is_primary": true}, {"id": 3107670, "title": "Cyberthon III: The Underground Connection [event version]", "work_id": 118053, "role": "artist", "role_id": 505, "is_primary": true}, {"id": 3107768, "title": "Cyberthon V: Spectrum 5 - Blue", "work_id": 117988, "role": "artist", "role_id": 505, "is_primary": true}, {"id": 3107775, "title": "Cyberthon IV: EPIC Omnicast (Psymmetry in Psyburbia)", "work_id": 117984, "role": "artist", "role_id": 505, "is_primary": true}, {"id": 3107664, "title": "Cyberdelia [remix version]", "work_id": 117986, "role": "artist", "role_id": 505, "is_primary": true}, {"id": 3107666, "title": "Cyberthon I: For the Mind, Body and Soul", "work_id": 118007, "role": "artist", "role_id": 505, "is_primary": true}, {"id": 3107667, "title": "Cyberthon II: The Virtual Transmission [1-hour compiltation]", "work_id": 117992, "role": "artist", "role_id": 505, "is_primary": true}, {"id": 3107668, "title": "Cyberthon II: The Virtual Transmission [event version]", "work_id": 118052, "role": "artist", "role_id": 505, "is_primary": true}, {"id": 3107669, "title": "Cyberthon III: The Underground Connection [1-hour compilation]", "work_id": 117993, "role": "artist", "role_id": 505, "is_primary": true}, {"id": 3107771, "title": "Cyberthon V: Spectrum 8 - Black & White", "work_id": 118006, "role": "artist", "role_id": 505, "is_primary": true}, {"id": 3107770, "title": "Cyberthon V: Spectrum 7 - Violet", "work_id": 118008, "role": "artist", "role_id": 505, "is_primary": true}, {"id": 3107769, "title": "Cyberthon V: Spectrum 6 - Indigo", "work_id": 117989, "role": "artist", "role_id": 505, "is_primary": true}, {"id": 3107659, "title": "Cyberdelia", "work_id": 114116, "role": "cast", "role_id": 33, "is_primary": false}, {"id": 3107773, "title": "Cyberthon Archives [moving image]", "work_id": 119218, "role": "contact", "role_id": 543, "is_primary": false}, {"id": 2686586, "title": "Cyberthon Archives [documentation]", "work_id": 118209, "role": "contact", "role_id": 543, "is_primary": false}, {"id": 3107672, "title": "Cyberthon V: Spectrum 1 - Red", "work_id": 118003, "role": "director", "role_id": 938, "is_primary": true}, {"id": 3107658, "title": "Cyberdelia", "work_id": 114116, "role": "original concept", "role_id": 593, "is_primary": false}, {"id": 3107674, "title": "Cyberthon V: Spectrum 1 - Red", "work_id": 118003, "role": "producer", "role_id": 1089, "is_primary": true}, {"id": 3107732, "title": "Cyberthon V: Spectrum 3 - Yellow", "work_id": 118005, "role": "producer", "role_id": 1089, "is_primary": true}, {"id": 3107742, "title": "Cyberthon V: Spectrum 4 - Green", "work_id": 117985, "role": "producer", "role_id": 1089, "is_primary": true}, {"id": 3107682, "title": "Cyberthon V: Spectrum 2 - Orange", "work_id": 118004, "role": "producer", "role_id": 1089, "is_primary": true}], "also_known_as": "", "date_of_birth": "", "date_of_death": "", "genders": [], "languages": [], "places_of_operation": [], "biography": "", "biography_author": null, "date_of_biography": "2023-08-30T03:40:40.572474+10:00", "external_links": [], "uuid": "783c10cc-bcc4-4b60-a4a3-00c0ac8c4310", "source": {"name": "Vernon", "slug": "vernon"}, "source_identifier": "111805", "external_references": [{"id": 40831, "source": {"name": "Wikidata", "slug": "wikidata"}, "source_identifier": "Q121079496"}], "date_modified": "2025-09-08T09:25:28.236284+10:00"}, {"id": 81892, "name": "Belinda Smith", "roles_in_work": [{"id": 2676797, "title": "Seaside searching", "work_id": 114129, "role": "collaborator", "role_id": 536, "is_primary": false}], "also_known_as": "", "date_of_birth": "", "date_of_death": "", "genders": [], "languages": [], "places_of_operation": [], "biography": "", "biography_author": null, "date_of_biography": "2023-05-09T17:36:43.579797+10:00", "external_links": [], "uuid": "09b42ca6-5aab-4429-9e05-7e10e1b7fe7f", "source": {"name": "Vernon", "slug": "vernon"}, "source_identifier": "1454", "external_references": [], "date_modified": "2025-03-06T23:07:25.118748+11:00"}, {"id": 81891, "name": "Warren Ingram", "roles_in_work": [{"id": 2676795, "title": "Seaside searching", "work_id": 114129, "role": "collaborator", "role_id": 536, "is_primary": false}], "also_known_as": "", "date_of_birth": "", "date_of_death": "", "genders": [], "languages": [], "places_of_operation": [], "biography": "", "biography_author": null, "date_of_biography": "2023-05-09T17:36:43.342388+10:00", "external_links": [], "uuid": "d42588d0-db66-4282-b118-afd0554156c1", "source": {"name": "Vernon", "slug": "vernon"}, "source_identifier": "1453", "external_references": [], "date_modified": "2025-03-06T23:07:24.424110+11:00"}, {"id": 81890, "name": "Simon Boyle", "roles_in_work": [{"id": 2676793, "title": "Seaside searching", "work_id": 114129, "role": "collaborator", "role_id": 536, "is_primary": false}], "also_known_as": "", "date_of_birth": "", "date_of_death": "", "genders": [], "languages": [], "places_of_operation": [], "biography": "", "biography_author": null, "date_of_biography": "2023-05-09T17:36:43.091933+10:00", "external_links": [], "uuid": "90fa931a-f4fb-4055-8bc7-c7fd8ece20b7", "source": {"name": "Vernon", "slug": "vernon"}, "source_identifier": "1452", "external_references": [], "date_modified": "2025-03-06T23:07:23.834872+11:00"}, {"id": 81889, "name": "Jessie Watson", "roles_in_work": [{"id": 2676791, "title": "Seaside searching", "work_id": 114129, "role": "collaborator", "role_id": 536, "is_primary": false}], "also_known_as": "", "date_of_birth": "", "date_of_death": "", "genders": [], "languages": [], "places_of_operation": [], "biography": "", "biography_author": null, "date_of_biography": "2023-05-09T17:36:42.847288+10:00", "external_links": [], "uuid": "4bfcfbe4-5f90-46cc-b3d9-3ca5a10ea44b", "source": {"name": "Vernon", "slug": "vernon"}, "source_identifier": "1451", "external_references": [], "date_modified": "2025-03-06T23:07:23.249797+11:00"}, {"id": 81888, "name": "Yael Zalchandler", "roles_in_work": [{"id": 2676788, "title": "Seaside searching", "work_id": 114129, "role": "collaborator", "role_id": 536, "is_primary": false}], "also_known_as": "", "date_of_birth": "", "date_of_death": "", "genders": [], "languages": [], "places_of_operation": [], "biography": "", "biography_author": null, "date_of_biography": "2023-05-09T17:36:42.374717+10:00", "external_links": [], "uuid": "3985ff0f-79c0-414b-a7b4-c26f3cdfd207", "source": {"name": "Vernon", "slug": "vernon"}, "source_identifier": "1449", "external_references": [], "date_modified": "2025-03-06T23:07:20.337192+11:00"}]}