{"count": 28687, "next": "https://api.acmi.net.au/creators/?page=1857", "previous": "https://api.acmi.net.au/creators/?page=1855", "results": [{"id": 25312, "name": "ITV", "roles_in_work": [{"id": 2786346, "title": "Egypt: the habit of civilisation", "work_id": 83162, "role": "production company", "role_id": 941, "is_primary": true}, {"id": 2786333, "title": "Iraq: cradle of civilisation", "work_id": 83160, "role": "production company", "role_id": 941, "is_primary": true}, {"id": 2786357, "title": "The Burden of time", "work_id": 83164, "role": "production company", "role_id": 941, "is_primary": true}, {"id": 2069309, "title": "A Horse's world", "work_id": 91842, "role": "production company", "role_id": 941, "is_primary": true}, {"id": 2342074, "title": "The Darling buds of May: Christmas is coming", "work_id": 83231, "role": "production company", "role_id": 941, "is_primary": true}, {"id": 2786352, "title": "China: the mandate of heaven", "work_id": 83163, "role": "production company", "role_id": 941, "is_primary": true}, {"id": 2786340, "title": "India: empire of the spirit", "work_id": 83161, "role": "production company", "role_id": 941, "is_primary": true}, {"id": 2786363, "title": "The Barbarian West", "work_id": 83165, "role": "production company", "role_id": 941, "is_primary": true}, {"id": 2786369, "title": "Legacy", "work_id": 115316, "role": "production company", "role_id": 941, "is_primary": true}, {"id": 884592, "title": "Frankie Howerd on campus", "work_id": 94743, "role": "production company", "role_id": 941, "is_primary": true}], "also_known_as": "", "date_of_birth": "22 SEP 1955", "date_of_death": "", "genders": [], "languages": [], "places_of_operation": [], "biography": "", "biography_author": null, "date_of_biography": "2023-05-09T19:41:01.656396+10:00", "external_links": [], "uuid": "a4c3f8b4-ab89-4dd8-98e1-fa3e9cbeec3c", "source": {"name": "Vernon", "slug": "vernon"}, "source_identifier": "3899", "external_references": [{"id": 42718, "source": {"name": "Wikidata", "slug": "wikidata"}, "source_identifier": "Q121035383"}], "date_modified": "2025-03-14T19:31:01.841643+11:00"}, {"id": 25311, "name": "David Touster", "roles_in_work": [{"id": 2326460, "title": "The Adventures of Peer Gynt", "work_id": 85109, "role": "director", "role_id": 938, "is_primary": true}, {"id": 2785810, "title": "Jim Gamble puppet classics", "work_id": 115309, "role": "director", "role_id": 938, "is_primary": true}, {"id": 2785803, "title": "The Nutcracker", "work_id": 83159, "role": "director", "role_id": 938, "is_primary": true}], "also_known_as": "", "date_of_birth": "", "date_of_death": "", "genders": [], "languages": [], "places_of_operation": [], "biography": "", "biography_author": null, "date_of_biography": "2023-05-09T19:19:46.429722+10:00", "external_links": [], "uuid": "ea233299-f54a-4794-82de-605f0d49a990", "source": {"name": "Vernon", "slug": "vernon"}, "source_identifier": "17824", "external_references": [{"id": 36369, "source": {"name": "Wikidata", "slug": "wikidata"}, "source_identifier": "Q121315139"}], "date_modified": "2025-03-14T19:25:59.136495+11:00"}, {"id": 25310, "name": "Jonathan Bogner", "roles_in_work": [{"id": 2326454, "title": "The Adventures of Peer Gynt", "work_id": 85109, "role": "producer", "role_id": 1089, "is_primary": true}, {"id": 2785802, "title": "The Nutcracker", "work_id": 83159, "role": "producer", "role_id": 1089, "is_primary": true}, {"id": 2785808, "title": "Jim Gamble puppet classics", "work_id": 115309, "role": "producer", "role_id": 1089, "is_primary": true}], "also_known_as": "", "date_of_birth": "", "date_of_death": "", "genders": [], "languages": [], "places_of_operation": [], "biography": "", "biography_author": null, "date_of_biography": "2023-05-09T19:19:46.161741+10:00", "external_links": [], "uuid": "08428d99-e6e7-44e1-8552-81800acfdd99", "source": {"name": "Vernon", "slug": "vernon"}, "source_identifier": "22633", "external_references": [{"id": 38235, "source": {"name": "Wikidata", "slug": "wikidata"}, "source_identifier": "Q121091136"}], "date_modified": "2025-03-14T19:25:58.557611+11:00"}, {"id": 25309, "name": "Bogner Entertainment", "roles_in_work": [{"id": 2785801, "title": "The Nutcracker", "work_id": 83159, "role": "production company", "role_id": 941, "is_primary": true}, {"id": 2785806, "title": "Jim Gamble puppet classics", "work_id": 115309, "role": "production company", "role_id": 941, "is_primary": true}, {"id": 2326448, "title": "The Adventures of Peer Gynt", "work_id": 85109, "role": "production company", "role_id": 941, "is_primary": true}], "also_known_as": "", "date_of_birth": "", "date_of_death": "", "genders": [], "languages": [], "places_of_operation": [], "biography": "", "biography_author": null, "date_of_biography": "2023-05-09T19:19:45.558534+10:00", "external_links": [], "uuid": "b3b6920e-1b39-4a11-8c85-b2c87f810ad8", "source": {"name": "Vernon", "slug": "vernon"}, "source_identifier": "5933", "external_references": [{"id": 42730, "source": {"name": "Wikidata", "slug": "wikidata"}, "source_identifier": "Q121315120"}], "date_modified": "2025-03-14T19:25:57.972517+11:00"}, {"id": 25308, "name": "Cinema Center Films", "roles_in_work": [{"id": 2616239, "title": "The Little ark", "work_id": 86878, "role": "production company", "role_id": 941, "is_primary": true}, {"id": 2265352, "title": "Scrooge", "work_id": 83158, "role": "production company", "role_id": 941, "is_primary": true}], "also_known_as": "", "date_of_birth": "", "date_of_death": "", "genders": [], "languages": [], "places_of_operation": [], "biography": "Cinema Center Films (CCF) was the theatrical film production company of the CBS Television Network from 1967 to 1972. Its films were distributed by National General Pictures. The production unit was located at CBS Studio Center in the Studio City district of Los Angeles in the San Fernando Valley, and produced 30 films. Source: Wikidata; 01/08/2023", "biography_author": null, "date_of_biography": "2025-02-26T20:40:46.106682+11:00", "external_links": [{"id": 3775, "uri": "https://en.wikipedia.org/wiki/Cinema_Center_Films"}], "uuid": "5ec10333-c788-47b0-a705-ba4a1324bb67", "source": {"name": "Vernon", "slug": "vernon"}, "source_identifier": "6693", "external_references": [{"id": 26939, "source": {"name": "Wikidata", "slug": "wikidata"}, "source_identifier": "Q5120700"}, {"id": 27860, "source": {"name": "VIAF", "slug": "viaf"}, "source_identifier": "149240610"}, {"id": 27861, "source": {"name": "LOC Auth", "slug": "loc-auth"}, "source_identifier": "no98066835"}, {"id": 27862, "source": {"name": "WorldCat", "slug": "worldcat"}, "source_identifier": "lccn-no98066835"}], "date_modified": "2025-02-26T20:40:46.106998+11:00"}, {"id": 25306, "name": "Jorn Donner", "roles_in_work": [{"id": 2227273, "title": "Fanny and Alexander = Fanny och Alexander", "work_id": 83156, "role": "producer", "role_id": 1089, "is_primary": true}, {"id": 2227232, "title": "Fanny and Alexander", "work_id": 83155, "role": "producer", "role_id": 1089, "is_primary": true}], "also_known_as": "Jörn Johan Donner", "date_of_birth": "1933-02-05", "date_of_death": "2020-01-30", "genders": [{"id": 9, "name": "Male", "slug": "male"}], "languages": [{"id": 21, "name": "Finnish", "slug": "finnish"}, {"id": 35, "name": "Swedish", "slug": "swedish"}], "places_of_operation": [{"id": 54, "name": "Finland", "slug": "finland"}], "biography": "Jörn Johan Donner (5 February 1933 – 30 January 2020) was a Finnish writer, film director, actor, producer, politician and founder of Finnish Film Archive.\n\n", "biography_author": "Wikidata", "date_of_biography": "2022-05-19T12:05:11.371484+10:00", "external_links": [{"id": 2462, "uri": "https://en.wikipedia.org/wiki/J%C3%B6rn_Donner"}], "uuid": "a3a4b1a6-eff4-47c2-b72c-1ecb667e74d0", "source": {"name": "Vernon", "slug": "vernon"}, "source_identifier": "22694", "external_references": [{"id": 10525, "source": {"name": "Wikidata", "slug": "wikidata"}, "source_identifier": "Q982339"}, {"id": 10526, "source": {"name": "VIAF", "slug": "viaf"}, "source_identifier": "114294067"}, {"id": 10527, "source": {"name": "LOC Auth", "slug": "loc-auth"}, "source_identifier": "n79004150"}, {"id": 10528, "source": {"name": "WorldCat", "slug": "worldcat"}, "source_identifier": "lccn-n79004150"}], "date_modified": "2023-09-13T12:30:40.167400+10:00"}, {"id": 25305, "name": "Tobis Filmkunst", "roles_in_work": [{"id": 1999400, "title": "Faraway, so close [DVD]", "work_id": 94435, "role": "production company", "role_id": 941, "is_primary": true}, {"id": 2227228, "title": "Fanny and Alexander", "work_id": 83155, "role": "production company", "role_id": 941, "is_primary": true}, {"id": 2281112, "title": "The Threepenny opera = L'opera de quat' sous. Die Dreigroschenoper", "work_id": 87490, "role": "production company", "role_id": 941, "is_primary": true}, {"id": 2227268, "title": "Fanny and Alexander = Fanny och Alexander", "work_id": 83156, "role": "production company", "role_id": 941, "is_primary": true}], "also_known_as": "", "date_of_birth": "", "date_of_death": "", "genders": [], "languages": [], "places_of_operation": [], "biography": "", "biography_author": null, "date_of_biography": "2023-05-09T18:00:36.919646+10:00", "external_links": [], "uuid": "c5d24a4e-3bd7-4d82-81fb-39a255146dd4", "source": {"name": "Vernon", "slug": "vernon"}, "source_identifier": "13557", "external_references": [{"id": 42881, "source": {"name": "Wikidata", "slug": "wikidata"}, "source_identifier": "Q121337389"}], "date_modified": "2023-09-06T01:52:03.601117+10:00"}, {"id": 25304, "name": "Cinematograph for Svenska Filminstitutet", "roles_in_work": [{"id": 2650399, "title": "Viskingar och rop = Cries and whispers", "work_id": 115674, "role": "production company", "role_id": 941, "is_primary": true}, {"id": 2227252, "title": "Fanny and Alexander = Fanny och Alexander", "work_id": 83156, "role": "production company", "role_id": 941, "is_primary": true}, {"id": 2227217, "title": "Fanny and Alexander", "work_id": 83155, "role": "production company", "role_id": 941, "is_primary": true}], "also_known_as": "", "date_of_birth": "", "date_of_death": "", "genders": [], "languages": [], "places_of_operation": [], "biography": "", "biography_author": null, "date_of_biography": "2023-05-09T16:28:22.286161+10:00", "external_links": [], "uuid": "7dbb8486-3c96-43cd-a892-80618c3f7e6a", "source": {"name": "Vernon", "slug": "vernon"}, "source_identifier": "6717", "external_references": [{"id": 37056, "source": {"name": "Wikidata", "slug": "wikidata"}, "source_identifier": "Q121034748"}], "date_modified": "2025-03-05T14:15:54.863770+11:00"}, {"id": 25303, "name": "1 for Dumb Films", "roles_in_work": [{"id": 2261444, "title": "Salt, saliva, sperm and sweat (AFC)", "work_id": 83154, "role": "production company", "role_id": 941, "is_primary": true}, {"id": 2121786, "title": "Body melt", "work_id": 85172, "role": "production company", "role_id": 941, "is_primary": true}], "also_known_as": "", "date_of_birth": "", "date_of_death": "", "genders": [], "languages": [], "places_of_operation": [], "biography": "", "biography_author": null, "date_of_biography": "2023-05-09T17:29:35.150704+10:00", "external_links": [], "uuid": "a7d00e89-4031-4470-bbca-4e4092410f89", "source": {"name": "Vernon", "slug": "vernon"}, "source_identifier": "3674", "external_references": [{"id": 38402, "source": {"name": "Wikidata", "slug": "wikidata"}, "source_identifier": "Q121160054"}], "date_modified": "2023-09-05T17:13:06.033741+10:00"}, {"id": 25299, "name": "Herbert Ross", "roles_in_work": [{"id": 2246345, "title": "Footloose", "work_id": 86320, "role": "director", "role_id": 938, "is_primary": true}, {"id": 1991217, "title": "The Owl and the pussycat", "work_id": 86883, "role": "director", "role_id": 938, "is_primary": true}, {"id": 2351824, "title": "The Goodbye girl", "work_id": 83873, "role": "director", "role_id": 938, "is_primary": true}, {"id": 2128883, "title": "California suite", "work_id": 83281, "role": "director", "role_id": 938, "is_primary": true}, {"id": 2172144, "title": "Dancers", "work_id": 95364, "role": "director", "role_id": 938, "is_primary": true}, {"id": 2614105, "title": "Play it again Sam", "work_id": 83151, "role": "director", "role_id": 938, "is_primary": true}, {"id": 2123185, "title": "Boys on the side", "work_id": 85439, "role": "director", "role_id": 938, "is_primary": true}, {"id": 909206, "title": "Neil Simon's I ought to be in pictures", "work_id": 89605, "role": "director", "role_id": 938, "is_primary": true}, {"id": 2294642, "title": "The Turning point", "work_id": 94718, "role": "director", "role_id": 938, "is_primary": true}, {"id": 1988719, "title": "Funny lady", "work_id": 84686, "role": "director", "role_id": 938, "is_primary": true}, {"id": 1978598, "title": "The Sunshine boys", "work_id": 95388, "role": "director", "role_id": 938, "is_primary": true}, {"id": 909650, "title": "My best friends wedding. Steel magnolias", "work_id": 90393, "role": "co-director", "role_id": 959, "is_primary": true}, {"id": 2294638, "title": "The Turning point", "work_id": 94718, "role": "co-producer", "role_id": 915, "is_primary": true}, {"id": 2123183, "title": "Boys on the side", "work_id": 85439, "role": "co-producer", "role_id": 915, "is_primary": true}, {"id": 909204, "title": "Neil Simon's I ought to be in pictures", "work_id": 89605, "role": "co-producer", "role_id": 915, "is_primary": true}], "also_known_as": "", "date_of_birth": "1927-05-13", "date_of_death": "2001-10-09", "genders": [{"id": 9, "name": "Male", "slug": "male"}], "languages": [{"id": 1, "name": "English", "slug": "english"}], "places_of_operation": [{"id": 1, "name": "United States of America", "slug": "united-states-of-america"}], "biography": "Herbert David Ross (May 13, 1927 – October 9, 2001) was an American actor, choreographer, director and producer who worked predominantly in theater and film.", "biography_author": "Wikidata", "date_of_biography": "2022-05-19T11:45:23.795513+10:00", "external_links": [{"id": 2232, "uri": "https://en.wikipedia.org/wiki/Herbert_Ross"}], "uuid": "376248e5-8f1f-48ca-8a30-a0492eeb346a", "source": {"name": "Vernon", "slug": "vernon"}, "source_identifier": "20523", "external_references": [{"id": 9589, "source": {"name": "Wikidata", "slug": "wikidata"}, "source_identifier": "Q711415"}, {"id": 9590, "source": {"name": "VIAF", "slug": "viaf"}, "source_identifier": "2660057"}, {"id": 9591, "source": {"name": "LOC Auth", "slug": "loc-auth"}, "source_identifier": "n79134555"}, {"id": 9592, "source": {"name": "WorldCat", "slug": "worldcat"}, "source_identifier": "lccn-n79134555"}], "date_modified": "2025-02-26T20:06:44.399135+11:00"}]}