{"count": 28687, "next": "https://api.acmi.net.au/creators/?page=1030", "previous": "https://api.acmi.net.au/creators/?page=1028", "results": [{"id": 75292, "name": "Leslie Bailey", "roles_in_work": [{"id": 2264552, "title": "Scrapbook of 1922", "work_id": 72547, "role": "co-producer", "role_id": 915, "is_primary": true}], "also_known_as": "", "date_of_birth": "", "date_of_death": "", "genders": [], "languages": [], "places_of_operation": [], "biography": "", "biography_author": null, "date_of_biography": "2023-05-09T17:33:47.132168+10:00", "external_links": [], "uuid": "e40f97f5-a4af-4b83-852b-4ce176d29e6d", "source": {"name": "Vernon", "slug": "vernon"}, "source_identifier": "23763", "external_references": [{"id": 38277, "source": {"name": "Wikidata", "slug": "wikidata"}, "source_identifier": "Q121036208"}], "date_modified": "2023-09-05T22:22:07.034367+10:00"}, {"id": 75291, "name": "James Blake Cahoon", "roles_in_work": [{"id": 2263982, "title": "Scientific advancement", "work_id": 72538, "role": "producer/director", "role_id": 31, "is_primary": true}], "also_known_as": "", "date_of_birth": "", "date_of_death": "", "genders": [], "languages": [], "places_of_operation": [], "biography": "", "biography_author": null, "date_of_biography": "2023-05-09T17:33:06.266002+10:00", "external_links": [], "uuid": "8c2d69cb-de06-4548-b9ef-5baf11bdf736", "source": {"name": "Vernon", "slug": "vernon"}, "source_identifier": "21197", "external_references": [{"id": 51202, "source": {"name": "Wikidata", "slug": "wikidata"}, "source_identifier": "Q121360950"}], "date_modified": "2023-09-05T21:02:13.977763+10:00"}, {"id": 75290, "name": "Aubrey F Singer", "roles_in_work": [{"id": 2264219, "title": "Science international. No. 1. What is life?", "work_id": 72531, "role": "co-producer", "role_id": 915, "is_primary": true}, {"id": 2263736, "title": "Science international. No. 2. The last scourge", "work_id": 72532, "role": "co-producer", "role_id": 915, "is_primary": true}], "also_known_as": "", "date_of_birth": "", "date_of_death": "", "genders": [], "languages": [], "places_of_operation": [], "biography": "", "biography_author": null, "date_of_biography": "2023-05-09T17:33:21.420323+10:00", "external_links": [], "uuid": "b99b77c9-469d-4b51-9720-23a7e0f269a1", "source": {"name": "Vernon", "slug": "vernon"}, "source_identifier": "15590", "external_references": [{"id": 37847, "source": {"name": "Wikidata", "slug": "wikidata"}, "source_identifier": "Q121271320"}], "date_modified": "2023-09-05T17:49:15.370219+10:00"}, {"id": 75289, "name": "Humphrey Fisher", "roles_in_work": [{"id": 2263729, "title": "Science international. No. 2. The last scourge", "work_id": 72532, "role": "co-producer", "role_id": 915, "is_primary": true}, {"id": 2264214, "title": "Science international. No. 1. What is life?", "work_id": 72531, "role": "co-producer", "role_id": 915, "is_primary": true}], "also_known_as": "", "date_of_birth": "", "date_of_death": "", "genders": [], "languages": [], "places_of_operation": [], "biography": "", "biography_author": null, "date_of_biography": "2023-05-09T17:33:21.204136+10:00", "external_links": [], "uuid": "8019d24c-83e9-47ad-9a8f-d1ab2f66b292", "source": {"name": "Vernon", "slug": "vernon"}, "source_identifier": "20710", "external_references": [{"id": 43400, "source": {"name": "Wikidata", "slug": "wikidata"}, "source_identifier": "Q121271042"}], "date_modified": "2023-09-05T20:44:48.477446+10:00"}, {"id": 75288, "name": "Susan Rafkin", "roles_in_work": [{"id": 2263910, "title": "School is for children", "work_id": 72514, "role": "co-director", "role_id": 959, "is_primary": true}], "also_known_as": "", "date_of_birth": "", "date_of_death": "", "genders": [], "languages": [], "places_of_operation": [], "biography": "", "biography_author": null, "date_of_biography": "2023-05-09T17:33:00.443936+10:00", "external_links": [], "uuid": "d42f90e3-659f-4356-92a4-90c873b8cbdb", "source": {"name": "Vernon", "slug": "vernon"}, "source_identifier": "29353", "external_references": [{"id": 40310, "source": {"name": "Wikidata", "slug": "wikidata"}, "source_identifier": "Q121270781"}], "date_modified": "2023-09-06T01:36:48.237998+10:00"}, {"id": 75287, "name": "Jerry Maybrook", "roles_in_work": [{"id": 2263905, "title": "School is for children", "work_id": 72514, "role": "co-director", "role_id": 959, "is_primary": true}, {"id": 2646550, "title": "The Teaching triad (TEFC)", "work_id": 73558, "role": "producer/director", "role_id": 31, "is_primary": true}], "also_known_as": "", "date_of_birth": "", "date_of_death": "", "genders": [], "languages": [], "places_of_operation": [], "biography": "", "biography_author": null, "date_of_biography": "2023-05-09T17:33:00.202544+10:00", "external_links": [], "uuid": "9dd415a7-4be9-4e8c-81a2-0f3333d43010", "source": {"name": "Vernon", "slug": "vernon"}, "source_identifier": "21807", "external_references": [{"id": 37830, "source": {"name": "Wikidata", "slug": "wikidata"}, "source_identifier": "Q121315488"}], "date_modified": "2025-03-05T13:06:27.683094+11:00"}, {"id": 75286, "name": "B.D. Garga", "roles_in_work": [{"id": 2262492, "title": "Satyajit Ray: creative artist of India", "work_id": 72487, "role": "producer/director", "role_id": 31, "is_primary": true}], "also_known_as": "", "date_of_birth": "1924", "date_of_death": "", "genders": [], "languages": [], "places_of_operation": [], "biography": "", "biography_author": null, "date_of_biography": "2023-05-09T17:31:03.617968+10:00", "external_links": [], "uuid": "0b8fc026-e0cc-4234-9a11-5ee4065b1dbe", "source": {"name": "Vernon", "slug": "vernon"}, "source_identifier": "1226", "external_references": [{"id": 50671, "source": {"name": "Wikidata", "slug": "wikidata"}, "source_identifier": "Q121360653"}], "date_modified": "2023-09-05T17:52:07.435670+10:00"}, {"id": 75285, "name": "Donald Shebib", "roles_in_work": [{"id": 2262323, "title": "Satan's choice", "work_id": 72484, "role": "director", "role_id": 938, "is_primary": true}, {"id": 2073983, "title": "A Search for learning", "work_id": 72585, "role": "director", "role_id": 938, "is_primary": true}], "also_known_as": "", "date_of_birth": "1938-01-17", "date_of_death": "", "genders": [{"id": 9, "name": "Male", "slug": "male"}], "languages": [{"id": 1, "name": "English", "slug": "english"}], "places_of_operation": [{"id": 36, "name": "Canada", "slug": "canada"}], "biography": "Donald Everett \"Don\" Shebib (born 27 January 1938) is a Canadian film director. Shebib is a central figure in the development of English Canadian cinema who made several short documentaries for the National Film Board of Canada and CBC Television in the 1960s before turning to feature films, beginning with the influential Goin' Down the Road (1970) and what many call his masterpiece, Between Friends (1973). He soon became frustrated by the bureaucratic process of film funding in Canada and chronic problems with distribution as well as a string of box office disappointments. After Heartaches (1981), he made fewer films for theatrical release and worked more in television.\nShebib is Noah \"40\" Shebib's father.", "biography_author": "Wikidata", "date_of_biography": "2023-08-01T14:41:58.809147+10:00", "external_links": [{"id": 3907, "uri": "https://en.wikipedia.org/wiki/Donald_Shebib"}], "uuid": "a3924994-150d-4828-9077-1b10ea836bb3", "source": {"name": "Vernon", "slug": "vernon"}, "source_identifier": "18313", "external_references": [{"id": 26600, "source": {"name": "Wikidata", "slug": "wikidata"}, "source_identifier": "Q1240358"}, {"id": 28236, "source": {"name": "VIAF", "slug": "viaf"}, "source_identifier": "501149196275174790764"}, {"id": 28237, "source": {"name": "LOC Auth", "slug": "loc-auth"}, "source_identifier": "n79015270"}, {"id": 28238, "source": {"name": "WorldCat", "slug": "worldcat"}, "source_identifier": "lccn-n79015270"}], "date_modified": "2023-09-05T19:18:31.224358+10:00"}, {"id": 75284, "name": "Gaston Serault", "roles_in_work": [{"id": 1803614, "title": "The Sand castle", "work_id": 72471, "role": "producer", "role_id": 1089, "is_primary": true}], "also_known_as": "", "date_of_birth": null, "date_of_death": null, "genders": [], "languages": [], "places_of_operation": [], "biography": "", "biography_author": null, "date_of_biography": null, "external_links": [], "uuid": "453f8533-2b5e-461e-99a5-482a411fce6b", "source": {"name": "Vernon", "slug": "vernon"}, "source_identifier": null, "external_references": [{"id": 32579, "source": {"name": "Wikidata", "slug": "wikidata"}, "source_identifier": "Q121035948"}], "date_modified": "2023-09-05T19:59:19.736415+10:00"}, {"id": 75283, "name": "Michel Gauthier", "roles_in_work": [{"id": 2261490, "title": "Salvador Allende Gossens: a testimony", "work_id": 72464, "role": "co-director", "role_id": 959, "is_primary": true}], "also_known_as": "", "date_of_birth": "", "date_of_death": "", "genders": [], "languages": [], "places_of_operation": [], "biography": "", "biography_author": null, "date_of_biography": "2023-05-09T17:29:38.760224+10:00", "external_links": [], "uuid": "98731b3e-c178-45be-a325-204db9f4930b", "source": {"name": "Vernon", "slug": "vernon"}, "source_identifier": "25281", "external_references": [{"id": 42197, "source": {"name": "Wikidata", "slug": "wikidata"}, "source_identifier": "Q121222827"}], "date_modified": "2023-09-05T23:11:53.757366+10:00"}]}