{"count": 28687, "next": "https://api.acmi.net.au/creators/?page=2223", "previous": "https://api.acmi.net.au/creators/?page=2221", "results": [{"id": 18248, "name": "Siemens Industries", "roles_in_work": [{"id": 2466500, "title": "Telephone factor", "work_id": 76127, "role": "production company", "role_id": 941, "is_primary": true}, {"id": 2646557, "title": "Technology for the 1972 Olympic Games", "work_id": 73568, "role": "production company", "role_id": 941, "is_primary": true}], "also_known_as": "", "date_of_birth": "", "date_of_death": "", "genders": [], "languages": [], "places_of_operation": [], "biography": "", "biography_author": null, "date_of_biography": "2023-08-14T10:58:44.675151+10:00", "external_links": [], "uuid": "993a0cce-4a1d-4a77-848b-1132422ba6e0", "source": {"name": "Vernon", "slug": "vernon"}, "source_identifier": "12573", "external_references": [], "date_modified": "2025-03-05T13:06:32.358449+11:00"}, {"id": 18247, "name": "Peter Coltman", "roles_in_work": [{"id": 2469080, "title": "Thyrotoxicosis: selection of treatment (D)", "work_id": 90584, "role": "director", "role_id": 938, "is_primary": true}, {"id": 2468233, "title": "The Techniques of tempera and oil painting", "work_id": 73566, "role": "director", "role_id": 938, "is_primary": true}], "also_known_as": "", "date_of_birth": "", "date_of_death": "", "genders": [], "languages": [], "places_of_operation": [], "biography": "", "biography_author": null, "date_of_biography": "2023-08-14T11:52:51.689021+10:00", "external_links": [], "uuid": "6e0da859-7be3-45c6-89b6-d2b60fb3d252", "source": {"name": "Vernon", "slug": "vernon"}, "source_identifier": "26501", "external_references": [], "date_modified": "2023-08-14T11:52:51.689284+10:00"}, {"id": 18246, "name": "University of Glasgow Television Service", "roles_in_work": [{"id": 2468232, "title": "The Techniques of tempera and oil painting", "work_id": 73566, "role": "production company", "role_id": 941, "is_primary": true}, {"id": 2469079, "title": "Thyrotoxicosis: selection of treatment (D)", "work_id": 90584, "role": "production company", "role_id": 941, "is_primary": true}], "also_known_as": "", "date_of_birth": "", "date_of_death": "", "genders": [], "languages": [], "places_of_operation": [], "biography": "", "biography_author": null, "date_of_biography": "2023-08-14T11:52:51.075242+10:00", "external_links": [], "uuid": "89f9cf2c-9349-497b-a7c4-1d3bb48c27a1", "source": {"name": "Vernon", "slug": "vernon"}, "source_identifier": "13916", "external_references": [], "date_modified": "2023-08-14T11:52:51.075477+10:00"}, {"id": 18245, "name": "University of Texas Dental Branch", "roles_in_work": [{"id": 2764391, "title": "Technics", "work_id": 73564, "role": "production company", "role_id": 941, "is_primary": true}], "also_known_as": "", "date_of_birth": "", "date_of_death": "", "genders": [], "languages": [], "places_of_operation": [], "biography": "", "biography_author": null, "date_of_biography": "2023-08-11T18:35:16.132956+10:00", "external_links": [], "uuid": "c75fa5b8-c7ca-4cc3-b712-c7de802a88a5", "source": {"name": "Vernon", "slug": "vernon"}, "source_identifier": "34119", "external_references": [], "date_modified": "2025-03-14T17:46:06.470639+11:00"}, {"id": 18243, "name": "Yasha Aginsky", "roles_in_work": [{"id": 859330, "title": "Teaching your wings to fly (TEFC)", "work_id": 73560, "role": "director", "role_id": 938, "is_primary": true}, {"id": 2753349, "title": "Sonny Terry: shoutin' the blues", "work_id": 98720, "role": "director", "role_id": 938, "is_primary": true}], "also_known_as": "", "date_of_birth": "", "date_of_death": "", "genders": [], "languages": [], "places_of_operation": [], "biography": "", "biography_author": null, "date_of_biography": "2023-08-14T10:46:48.211886+10:00", "external_links": [], "uuid": "aa49acbf-89a7-47ca-8d6c-b6ddc36c7985", "source": {"name": "Vernon", "slug": "vernon"}, "source_identifier": "30569", "external_references": [], "date_modified": "2025-03-13T01:22:35.223493+11:00"}, {"id": 18241, "name": "Jane Massy", "roles_in_work": [{"id": 758500, "title": "Your children's teeth", "work_id": 75034, "role": "director", "role_id": 938, "is_primary": true}, {"id": 2646556, "title": "Teaching young children", "work_id": 73559, "role": "director", "role_id": 938, "is_primary": true}, {"id": 758496, "title": "Your children's sleep", "work_id": 75033, "role": "director", "role_id": 938, "is_primary": true}], "also_known_as": "", "date_of_birth": null, "date_of_death": null, "genders": [], "languages": [], "places_of_operation": [], "biography": "", "biography_author": null, "date_of_biography": null, "external_links": [], "uuid": "28696731-3d03-4bdf-8869-4d8bf0714b4e", "source": {"name": "Vernon", "slug": "vernon"}, "source_identifier": "21421", "external_references": [], "date_modified": "2025-03-05T13:06:31.494487+11:00"}, {"id": 18237, "name": "Yale University", "roles_in_work": [{"id": 872980, "title": "Backward civilisation", "work_id": 87917, "role": "production company", "role_id": 941, "is_primary": true}, {"id": 2646546, "title": "Teaching teenagers about alcohol", "work_id": 73556, "role": "production company", "role_id": 941, "is_primary": true}], "also_known_as": "", "date_of_birth": "", "date_of_death": "", "genders": [], "languages": [], "places_of_operation": [], "biography": "", "biography_author": null, "date_of_biography": "2023-05-09T19:14:50.441736+10:00", "external_links": [], "uuid": "93f3c156-7bed-4f7c-a9bc-7c061ebfa95e", "source": {"name": "Vernon", "slug": "vernon"}, "source_identifier": "14493", "external_references": [{"id": 32288, "source": {"name": "Wikidata", "slug": "wikidata"}, "source_identifier": "Q121035813"}], "date_modified": "2025-03-05T13:06:24.800171+11:00"}, {"id": 18235, "name": "Sherry Fulton", "roles_in_work": [{"id": 2760934, "title": "Teaching games to primary children (TEFC)", "work_id": 73550, "role": "director", "role_id": 938, "is_primary": true}], "also_known_as": "", "date_of_birth": "", "date_of_death": "", "genders": [], "languages": [], "places_of_operation": [], "biography": "", "biography_author": null, "date_of_biography": "2023-08-14T10:58:06.122750+10:00", "external_links": [], "uuid": "bc968bd3-73ab-4ace-8cdb-0e706dc155bb", "source": {"name": "Vernon", "slug": "vernon"}, "source_identifier": "33232", "external_references": [], "date_modified": "2025-03-14T17:29:35.150821+11:00"}, {"id": 18234, "name": "George Longstaff", "roles_in_work": [{"id": 2760932, "title": "Teaching game activities to intermediate children (TEFC)", "work_id": 73549, "role": "director", "role_id": 938, "is_primary": true}], "also_known_as": "", "date_of_birth": "", "date_of_death": "", "genders": [], "languages": [], "places_of_operation": [], "biography": "", "biography_author": null, "date_of_biography": "2023-08-14T10:58:02.974079+10:00", "external_links": [], "uuid": "628613b9-08c8-4f8c-a520-1106c9965506", "source": {"name": "Vernon", "slug": "vernon"}, "source_identifier": "33229", "external_references": [], "date_modified": "2025-03-14T17:29:33.702824+11:00"}, {"id": 18233, "name": "Burbank Audio Visual", "roles_in_work": [{"id": 863503, "title": "Participation for all (TEFC)", "work_id": 77254, "role": "production company", "role_id": 941, "is_primary": true}, {"id": 2760931, "title": "Teaching game activities to intermediate children (TEFC)", "work_id": 73549, "role": "production company", "role_id": 941, "is_primary": true}, {"id": 2760933, "title": "Teaching games to primary children (TEFC)", "work_id": 73550, "role": "production company", "role_id": 941, "is_primary": true}, {"id": 2764448, "title": "Theme development in movement education (TEFC)", "work_id": 76886, "role": "production company", "role_id": 941, "is_primary": true}, {"id": 2764453, "title": "Using large apparatus in movement education (TEFC)", "work_id": 75160, "role": "production company", "role_id": 941, "is_primary": true}, {"id": 2764457, "title": "Using small equipment in movement education (TEFC)", "work_id": 74254, "role": "production company", "role_id": 941, "is_primary": true}], "also_known_as": "", "date_of_birth": "", "date_of_death": "", "genders": [], "languages": [], "places_of_operation": [], "biography": "", "biography_author": null, "date_of_biography": "2023-08-14T12:06:05.322907+10:00", "external_links": [], "uuid": "265200f3-4c51-4f8c-a250-c5c68fdc1c48", "source": {"name": "Vernon", "slug": "vernon"}, "source_identifier": "6121", "external_references": [], "date_modified": "2025-03-14T17:46:26.113933+11:00"}]}