{"count": 28687, "next": "https://api.acmi.net.au/creators/?page=2421", "previous": "https://api.acmi.net.au/creators/?page=2419", "results": [{"id": 14907, "name": "V.R. Sarma", "roles_in_work": [{"id": 751396, "title": "Project for plenty", "work_id": 71904, "role": "director", "role_id": 938, "is_primary": true}, {"id": 801108, "title": "Interregnum", "work_id": 88882, "role": "director", "role_id": 938, "is_primary": true}, {"id": 860332, "title": "Vigil on wheels", "work_id": 74365, "role": "director", "role_id": 938, "is_primary": true}, {"id": 858638, "title": "Song of the south", "work_id": 73008, "role": "director", "role_id": 938, "is_primary": true}, {"id": 2645912, "title": "Pablo Casals breaks his journey", "work_id": 71304, "role": "director", "role_id": 938, "is_primary": true}, {"id": 862276, "title": "Century of progress", "work_id": 76162, "role": "director", "role_id": 938, "is_primary": true}, {"id": 752968, "title": "The Security Council", "work_id": 72618, "role": "director", "role_id": 938, "is_primary": true}, {"id": 2713520, "title": "Festival time", "work_id": 67451, "role": "director", "role_id": 938, "is_primary": true}, {"id": 2166162, "title": "My lady nicotine", "work_id": 70720, "role": "co-director", "role_id": 959, "is_primary": true}, {"id": 2714540, "title": "The General Assembly", "work_id": 67978, "role": "co-director", "role_id": 959, "is_primary": true}, {"id": 2768682, "title": "The World Meteorological Organization", "work_id": 74930, "role": "producer", "role_id": 1089, "is_primary": true}], "also_known_as": "", "date_of_birth": "", "date_of_death": "", "genders": [], "languages": [], "places_of_operation": [], "biography": "", "biography_author": null, "date_of_biography": "2023-05-09T14:25:31.332168+10:00", "external_links": [], "uuid": "b4f4f360-cbf2-4dfe-923c-36fcd2a81f11", "source": {"name": "Vernon", "slug": "vernon"}, "source_identifier": "30034", "external_references": [{"id": 36311, "source": {"name": "Wikidata", "slug": "wikidata"}, "source_identifier": "Q121337281"}], "date_modified": "2025-03-12T01:15:04.557134+11:00"}, {"id": 14904, "name": "Loch Townsend", "roles_in_work": [{"id": 2392307, "title": "You and Your Vote", "work_id": 75001, "role": "director", "role_id": 938, "is_primary": true}, {"id": 2392043, "title": "Reaching for the stars", "work_id": 72069, "role": "director", "role_id": 938, "is_primary": true}, {"id": 859219, "title": "Taking their place", "work_id": 73472, "role": "director", "role_id": 938, "is_primary": true}, {"id": 2644771, "title": "Festival in Adelaide", "work_id": 67448, "role": "director", "role_id": 938, "is_primary": true}, {"id": 2392126, "title": "Spotlight on Australian Ballet", "work_id": 73119, "role": "co-producer", "role_id": 915, "is_primary": true}], "also_known_as": "", "date_of_birth": "", "date_of_death": "", "genders": [], "languages": [], "places_of_operation": [], "biography": "", "biography_author": null, "date_of_biography": "2023-08-09T03:55:06.277424+10:00", "external_links": [], "uuid": "be42abf8-45cc-4dab-a889-0a744bd96cb5", "source": {"name": "Vernon", "slug": "vernon"}, "source_identifier": "23973", "external_references": [{"id": 35838, "source": {"name": "Wikidata", "slug": "wikidata"}, "source_identifier": "Q121315091"}], "date_modified": "2025-03-05T12:26:03.939909+11:00"}, {"id": 14903, "name": "Ken Sale", "roles_in_work": [{"id": 2644766, "title": "Festival Casals 1970: Pablo Casals conducting", "work_id": 67447, "role": "director", "role_id": 938, "is_primary": true}], "also_known_as": "", "date_of_birth": null, "date_of_death": null, "genders": [], "languages": [], "places_of_operation": [], "biography": "", "biography_author": null, "date_of_biography": null, "external_links": [], "uuid": "3a548ca4-7a96-49cf-a065-b6ff5b928555", "source": {"name": "Vernon", "slug": "vernon"}, "source_identifier": "23217", "external_references": [], "date_modified": "2025-03-05T12:26:00.450457+11:00"}, {"id": 14901, "name": "Gil Cardinal", "roles_in_work": [{"id": 3082893, "title": "The Courage of one's convictions", "work_id": 92876, "role": "director", "role_id": 938, "is_primary": true}, {"id": 2136468, "title": "Children of alcohol", "work_id": 92874, "role": "director", "role_id": 938, "is_primary": true}, {"id": 2713512, "title": "Festival 78", "work_id": 67446, "role": "co-director", "role_id": 959, "is_primary": true}, {"id": 2792722, "title": "Visit from Africa", "work_id": 85289, "role": "co-director", "role_id": 959, "is_primary": true}, {"id": 2713511, "title": "Festival 78", "work_id": 67446, "role": "producer", "role_id": 1089, "is_primary": true}], "also_known_as": "", "date_of_birth": "19 JUL 1950", "date_of_death": "21 NOV 2015", "genders": [{"id": 9, "name": "Male", "slug": "male"}], "languages": [], "places_of_operation": [{"id": 36, "name": "Canada", "slug": "canada"}], "biography": "Gilbert Joseph \"Gil\" Cardinal (July 19, 1950 – November 21, 2015) was a Canadian filmmaker of Métis descent. Born in Edmonton in 1950, and placed in a foster home at the age of two, Cardinal only discovered his Métis roots while making his documentary Foster Child. This 1987 National Film Board of Canada (NFB) film received over 10 international film awards, including a Gemini Award for best direction for a documentary program, following its  broadcast on CBC's Man Alive series. Source: Wikidata; 01/08/2023", "biography_author": null, "date_of_biography": "2025-03-17T10:31:17.786056+11:00", "external_links": [{"id": 4068, "uri": "https://en.wikipedia.org/wiki/Gil_Cardinal"}], "uuid": "5aab84db-cbea-4e50-a4c6-5669c626d0aa", "source": {"name": "Vernon", "slug": "vernon"}, "source_identifier": "19800", "external_references": [{"id": 25692, "source": {"name": "Wikidata", "slug": "wikidata"}, "source_identifier": "Q96577213"}], "date_modified": "2025-03-17T10:31:17.786288+11:00"}, {"id": 14900, "name": "Access Alberta", "roles_in_work": [{"id": 2713510, "title": "Festival 78", "work_id": 67446, "role": "production company", "role_id": 941, "is_primary": true}], "also_known_as": "", "date_of_birth": "", "date_of_death": "", "genders": [], "languages": [], "places_of_operation": [], "biography": "", "biography_author": null, "date_of_biography": "2023-05-09T16:50:19.871764+10:00", "external_links": [], "uuid": "0712b7ac-e31c-4ea9-99df-3c6c0f672fef", "source": {"name": "Vernon", "slug": "vernon"}, "source_identifier": "5002", "external_references": [{"id": 51169, "source": {"name": "Wikidata", "slug": "wikidata"}, "source_identifier": "Q121357714"}], "date_modified": "2025-03-12T00:46:11.884756+11:00"}, {"id": 14899, "name": "Alhaji Adeg Boyega Armlogian", "roles_in_work": [{"id": 2713509, "title": "Festac '77", "work_id": 67445, "role": "producer", "role_id": 1089, "is_primary": true}], "also_known_as": "", "date_of_birth": null, "date_of_death": null, "genders": [], "languages": [], "places_of_operation": [], "biography": "", "biography_author": null, "date_of_biography": null, "external_links": [], "uuid": "22d15348-abe9-46f1-8eee-cd12fc923227", "source": {"name": "Vernon", "slug": "vernon"}, "source_identifier": "14967", "external_references": [], "date_modified": "2025-03-12T00:46:11.002732+11:00"}, {"id": 14898, "name": "Paul Gaunt", "roles_in_work": [{"id": 2713507, "title": "Festac '77", "work_id": 67445, "role": "production company", "role_id": 941, "is_primary": true}], "also_known_as": "", "date_of_birth": null, "date_of_death": null, "genders": [{"id": 9, "name": "Male", "slug": "male"}], "languages": [], "places_of_operation": [], "biography": "", "biography_author": null, "date_of_biography": null, "external_links": [], "uuid": "f4833cb3-0516-4810-a01d-71b02e1f9df8", "source": {"name": "Vernon", "slug": "vernon"}, "source_identifier": "26227", "external_references": [{"id": 12036, "source": {"name": "Wikidata", "slug": "wikidata"}, "source_identifier": "Q59636684"}], "date_modified": "2025-03-12T00:46:09.789890+11:00"}, {"id": 14897, "name": "Curtis Avery", "roles_in_work": [{"id": 2713506, "title": "Fertilization and birth", "work_id": 67444, "role": "director", "role_id": 938, "is_primary": true}, {"id": 870283, "title": "Human and animal beginnings", "work_id": 86195, "role": "director", "role_id": 938, "is_primary": true}], "also_known_as": "", "date_of_birth": null, "date_of_death": null, "genders": [], "languages": [], "places_of_operation": [], "biography": "", "biography_author": null, "date_of_biography": null, "external_links": [], "uuid": "d538b1cc-754b-4f71-a742-933b020be990", "source": {"name": "Vernon", "slug": "vernon"}, "source_identifier": "17262", "external_references": [], "date_modified": "2025-03-12T00:46:08.933274+11:00"}, {"id": 14896, "name": "Dilip Jamdar", "roles_in_work": [{"id": 2713498, "title": "Feminine Fashions in India", "work_id": 67441, "role": "director", "role_id": 938, "is_primary": true}], "also_known_as": "", "date_of_birth": null, "date_of_death": null, "genders": [], "languages": [], "places_of_operation": [], "biography": "", "biography_author": null, "date_of_biography": null, "external_links": [], "uuid": "70ff99b5-6407-4f1d-9778-2c616c0b3ed2", "source": {"name": "Vernon", "slug": "vernon"}, "source_identifier": "18146", "external_references": [], "date_modified": "2025-03-12T00:46:04.227221+11:00"}, {"id": 14895, "name": "Ezra Mir", "roles_in_work": [{"id": 1810293, "title": "Kathakali: the dance drama of Kerala", "work_id": 69353, "role": "producer", "role_id": 1089, "is_primary": true}, {"id": 2645071, "title": "Himachal", "work_id": 68470, "role": "producer", "role_id": 1089, "is_primary": true}, {"id": 2645359, "title": "Kerala", "work_id": 69374, "role": "producer", "role_id": 1089, "is_primary": true}, {"id": 2645362, "title": "Kerala: land of lagoons", "work_id": 69375, "role": "producer", "role_id": 1089, "is_primary": true}, {"id": 2646518, "title": "Taj Mahal", "work_id": 73457, "role": "producer", "role_id": 1089, "is_primary": true}, {"id": 2646732, "title": "Udaipur, city of lakes", "work_id": 74140, "role": "producer", "role_id": 1089, "is_primary": true}, {"id": 2714480, "title": "The Garden of Gujurat", "work_id": 67945, "role": "producer", "role_id": 1089, "is_primary": true}, {"id": 2714727, "title": "Glimpses of Western India", "work_id": 68085, "role": "producer", "role_id": 1089, "is_primary": true}, {"id": 2715077, "title": "Half of mankind", "work_id": 68270, "role": "producer", "role_id": 1089, "is_primary": true}, {"id": 2715117, "title": "Handicrafts of India (Travancore)", "work_id": 68285, "role": "producer", "role_id": 1089, "is_primary": true}, {"id": 2715601, "title": "A Holiday in South India", "work_id": 68516, "role": "producer", "role_id": 1089, "is_primary": true}, {"id": 1807811, "title": "Banaras: the holy city", "work_id": 88538, "role": "producer", "role_id": 1089, "is_primary": true}, {"id": 1809137, "title": "Glimpses of Central India", "work_id": 90581, "role": "producer", "role_id": 1089, "is_primary": true}, {"id": 1811657, "title": "Call of the mountains", "work_id": 89124, "role": "producer", "role_id": 1089, "is_primary": true}, {"id": 2713497, "title": "Feminine Fashions in India", "work_id": 67441, "role": "producer", "role_id": 1089, "is_primary": true}, {"id": 1819237, "title": "Our Prime Minister", "work_id": 71257, "role": "producer", "role_id": 1089, "is_primary": true}, {"id": 1818661, "title": "Invitation to an Indian wedding", "work_id": 69086, "role": "producer", "role_id": 1089, "is_primary": true}, {"id": 1820186, "title": "Republic day: India", "work_id": 72163, "role": "producer", "role_id": 1089, "is_primary": true}, {"id": 1815810, "title": "Jaipur", "work_id": 75231, "role": "producer", "role_id": 1089, "is_primary": true}, {"id": 1814159, "title": "Women and education", "work_id": 74834, "role": "producer", "role_id": 1089, "is_primary": true}, {"id": 1814969, "title": "Delhi", "work_id": 90373, "role": "producer", "role_id": 1089, "is_primary": true}, {"id": 1815656, "title": "Our feathered friends", "work_id": 91261, "role": "producer", "role_id": 1089, "is_primary": true}, {"id": 1804290, "title": "Soil erosion", "work_id": 72970, "role": "producer", "role_id": 1089, "is_primary": true}, {"id": 1807175, "title": "Madras Kanchi", "work_id": 69979, "role": "producer", "role_id": 1089, "is_primary": true}, {"id": 1803448, "title": "Handicrafts of India", "work_id": 95671, "role": "producer", "role_id": 1089, "is_primary": true}, {"id": 1807270, "title": "Shringar: hair styles of India", "work_id": 72797, "role": "producer", "role_id": 1089, "is_primary": true}], "also_known_as": "", "date_of_birth": "", "date_of_death": "", "genders": [], "languages": [], "places_of_operation": [], "biography": "", "biography_author": null, "date_of_biography": "2023-07-05T03:47:03.231558+10:00", "external_links": [], "uuid": "d6f3f786-1435-41fa-b9c0-f50b495c3111", "source": {"name": "Vernon", "slug": "vernon"}, "source_identifier": "18939", "external_references": [{"id": 35260, "source": {"name": "Wikidata", "slug": "wikidata"}, "source_identifier": "Q121035856"}], "date_modified": "2025-03-12T01:37:36.475346+11:00"}]}