{"count": 28687, "next": "https://api.acmi.net.au/creators/?page=2122", "previous": "https://api.acmi.net.au/creators/?page=2120", "results": [{"id": 20136, "name": "Terence McMahon", "roles_in_work": [{"id": 763376, "title": "The Rush that never ended", "work_id": 77006, "role": "director", "role_id": 938, "is_primary": true}, {"id": 2753028, "title": "Aluminium in the 80's: the Comalco story", "work_id": 98572, "role": "producer", "role_id": 1089, "is_primary": true}, {"id": 2751540, "title": "Brisbane 1982: the twelfth Commonwealth Games", "work_id": 97859, "role": "producer/director", "role_id": 31, "is_primary": true}, {"id": 764163, "title": "Broken Hill: a mining history 1883-1983", "work_id": 77339, "role": "producer/director", "role_id": 31, "is_primary": true}], "also_known_as": "", "date_of_birth": "", "date_of_death": "", "genders": [], "languages": [], "places_of_operation": [], "biography": "", "biography_author": null, "date_of_biography": "2023-05-09T13:10:10.838646+10:00", "external_links": [], "uuid": "40f288e3-6a8c-434c-b771-29b74edd0202", "source": {"name": "Vernon", "slug": "vernon"}, "source_identifier": "29563", "external_references": [{"id": 40472, "source": {"name": "Wikidata", "slug": "wikidata"}, "source_identifier": "Q121271257"}], "date_modified": "2025-03-13T01:16:37.351896+11:00"}, {"id": 20134, "name": "Larry Nelson", "roles_in_work": [{"id": 2647680, "title": "Parallel lines", "work_id": 77002, "role": "director", "role_id": 938, "is_primary": true}], "also_known_as": "", "date_of_birth": null, "date_of_death": null, "genders": [], "languages": [], "places_of_operation": [], "biography": "", "biography_author": null, "date_of_biography": null, "external_links": [], "uuid": "61728e93-26af-47c3-84f1-1f4d09f3f6db", "source": {"name": "Vernon", "slug": "vernon"}, "source_identifier": "23497", "external_references": [], "date_modified": "2025-03-05T13:30:57.510341+11:00"}, {"id": 20133, "name": "High MacDonald", "roles_in_work": [{"id": 2647679, "title": "Parallel lines", "work_id": 77002, "role": "producer", "role_id": 1089, "is_primary": true}], "also_known_as": "", "date_of_birth": null, "date_of_death": null, "genders": [], "languages": [], "places_of_operation": [], "biography": "", "biography_author": null, "date_of_biography": null, "external_links": [], "uuid": "7268ecf9-d7d3-4c05-a848-8f814618e55a", "source": {"name": "Vernon", "slug": "vernon"}, "source_identifier": "20549", "external_references": [], "date_modified": "2025-03-05T13:30:56.884056+11:00"}, {"id": 20132, "name": "Don Scheldrup", "roles_in_work": [{"id": 2766636, "title": "Coastwatch", "work_id": 76996, "role": "director", "role_id": 938, "is_primary": true}, {"id": 2766644, "title": "Diggers", "work_id": 77170, "role": "director", "role_id": 938, "is_primary": true}, {"id": 2766641, "title": "The Shape of ships to come", "work_id": 77007, "role": "director", "role_id": 938, "is_primary": true}, {"id": 2766647, "title": "Challenge of flight", "work_id": 77323, "role": "director", "role_id": 938, "is_primary": true}, {"id": 2766650, "title": "Anyone anything anywhere", "work_id": 77509, "role": "director", "role_id": 938, "is_primary": true}], "also_known_as": "", "date_of_birth": "", "date_of_death": "", "genders": [], "languages": [], "places_of_operation": [], "biography": "", "biography_author": null, "date_of_biography": "2023-08-11T13:01:21.793060+10:00", "external_links": [], "uuid": "e4d87c5b-dc5f-4b4d-a748-608b31310f60", "source": {"name": "Vernon", "slug": "vernon"}, "source_identifier": "18253", "external_references": [], "date_modified": "2025-03-14T17:59:26.638546+11:00"}, {"id": 20130, "name": "Chris Dillon", "roles_in_work": [{"id": 763350, "title": "Airborne", "work_id": 76994, "role": "director", "role_id": 938, "is_primary": true}, {"id": 2751840, "title": "Chris Cree Brown: electronic composer", "work_id": 98009, "role": "director", "role_id": 938, "is_primary": true}], "also_known_as": "", "date_of_birth": null, "date_of_death": null, "genders": [], "languages": [], "places_of_operation": [], "biography": "", "biography_author": null, "date_of_biography": null, "external_links": [], "uuid": "fdc788d7-4d16-4811-b226-39610c8c6ea7", "source": {"name": "Vernon", "slug": "vernon"}, "source_identifier": "16821", "external_references": [], "date_modified": "2025-03-13T00:51:49.325681+11:00"}, {"id": 20123, "name": "E.M. Jackson", "roles_in_work": [{"id": 2647673, "title": "Northern oasis", "work_id": 76982, "role": "director", "role_id": 938, "is_primary": true}], "also_known_as": "", "date_of_birth": "", "date_of_death": "", "genders": [], "languages": [], "places_of_operation": [], "biography": "", "biography_author": null, "date_of_biography": "2023-08-14T10:11:15.941487+10:00", "external_links": [], "uuid": "f79904fe-b6a1-4614-b193-47c71f83ff4b", "source": {"name": "Vernon", "slug": "vernon"}, "source_identifier": "18494", "external_references": [], "date_modified": "2025-03-05T13:30:52.738362+11:00"}, {"id": 20122, "name": "Boort Progress Association", "roles_in_work": [{"id": 2647672, "title": "Northern oasis", "work_id": 76982, "role": "production company", "role_id": 941, "is_primary": true}], "also_known_as": "", "date_of_birth": "", "date_of_death": "", "genders": [], "languages": [], "places_of_operation": [], "biography": "", "biography_author": null, "date_of_biography": "2023-08-14T10:11:15.297604+10:00", "external_links": [], "uuid": "3abb9e1b-4c73-4486-a193-41d2d7f00173", "source": {"name": "Vernon", "slug": "vernon"}, "source_identifier": "5942", "external_references": [], "date_modified": "2025-03-05T13:30:52.161036+11:00"}, {"id": 20121, "name": "Donald R. Ham", "roles_in_work": [{"id": 2749437, "title": "Indonesian boomerang", "work_id": 96805, "role": "director", "role_id": 938, "is_primary": true}, {"id": 2180684, "title": "Out of bounds: Teenage sexual harassment", "work_id": 86176, "role": "director", "role_id": 938, "is_primary": true}, {"id": 863259, "title": "Listening: a key to problem solving", "work_id": 76981, "role": "director", "role_id": 938, "is_primary": true}, {"id": 2749436, "title": "Indonesian boomerang", "work_id": 96805, "role": "co-producer", "role_id": 915, "is_primary": true}, {"id": 2180680, "title": "Out of bounds: Teenage sexual harassment", "work_id": 86176, "role": "co-producer", "role_id": 915, "is_primary": true}], "also_known_as": "", "date_of_birth": "", "date_of_death": "", "genders": [], "languages": [], "places_of_operation": [], "biography": "", "biography_author": null, "date_of_biography": "2023-05-09T14:52:25.529129+10:00", "external_links": [], "uuid": "65cca615-2e48-4843-895e-6f3fcc2ae23f", "source": {"name": "Vernon", "slug": "vernon"}, "source_identifier": "18309", "external_references": [{"id": 40288, "source": {"name": "Wikidata", "slug": "wikidata"}, "source_identifier": "Q121271207"}], "date_modified": "2025-03-13T00:00:28.619685+11:00"}, {"id": 20120, "name": "Paul Woolston-Smith", "roles_in_work": [{"id": 864664, "title": "Pictures that post", "work_id": 78177, "role": "director", "role_id": 938, "is_primary": true}, {"id": 2379711, "title": "Immigration: the waves that shaped Australia", "work_id": 79382, "role": "director", "role_id": 938, "is_primary": true}, {"id": 2379704, "title": "Immigration: the waves that shaped Australia (Captioned)", "work_id": 79145, "role": "director", "role_id": 938, "is_primary": true}, {"id": 763310, "title": "It stands to reason: army training command", "work_id": 76979, "role": "director", "role_id": 938, "is_primary": true}], "also_known_as": "", "date_of_birth": "", "date_of_death": "", "genders": [], "languages": [], "places_of_operation": [], "biography": "", "biography_author": null, "date_of_biography": "2023-07-19T03:36:36.190143+10:00", "external_links": [], "uuid": "15ebf636-a87c-4a8c-a851-f6d6163743d5", "source": {"name": "Vernon", "slug": "vernon"}, "source_identifier": "26363", "external_references": [{"id": 34152, "source": {"name": "Wikidata", "slug": "wikidata"}, "source_identifier": "Q121299021"}], "date_modified": "2023-09-05T23:50:13.003960+10:00"}, {"id": 20118, "name": "Jim Callner", "roles_in_work": [{"id": 2750885, "title": "Oxygen: an introduction to chemistry", "work_id": 97557, "role": "director", "role_id": 938, "is_primary": true}, {"id": 763303, "title": "Deaf like me", "work_id": 76977, "role": "director", "role_id": 938, "is_primary": true}], "also_known_as": "", "date_of_birth": null, "date_of_death": null, "genders": [], "languages": [], "places_of_operation": [], "biography": "", "biography_author": null, "date_of_biography": null, "external_links": [], "uuid": "45300a68-1964-4cc3-8da2-7d18a4dd302a", "source": {"name": "Vernon", "slug": "vernon"}, "source_identifier": "21867", "external_references": [], "date_modified": "2025-03-13T00:31:55.266499+11:00"}]}