{"count": 28682, "next": "https://api.acmi.net.au/creators/?page=2587", "previous": "https://api.acmi.net.au/creators/?page=2585", "results": [{"id": 12829, "name": "Pilgrim Productions", "roles_in_work": [{"id": 859050, "title": "A Sugar-cane farm in Fiji", "work_id": 73349, "role": "production company", "role_id": 941, "is_primary": true}, {"id": 2757936, "title": "Fishing the lake country", "work_id": 67585, "role": "production company", "role_id": 941, "is_primary": true}, {"id": 2757917, "title": "The Rockhoppers", "work_id": 72310, "role": "production company", "role_id": 941, "is_primary": true}, {"id": 2757907, "title": "Pot luck", "work_id": 75775, "role": "production company", "role_id": 941, "is_primary": true}, {"id": 2760463, "title": "Matalau: a Tolai Village in New Britain", "work_id": 70191, "role": "production company", "role_id": 941, "is_primary": true}, {"id": 2760471, "title": "Vabukori", "work_id": 74263, "role": "production company", "role_id": 941, "is_primary": true}, {"id": 2755344, "title": "Ayers Rock", "work_id": 65182, "role": "production company", "role_id": 941, "is_primary": true}, {"id": 858950, "title": "The Story of the Southern Cross: an Australian Aboriginal legend", "work_id": 73266, "role": "production company", "role_id": 941, "is_primary": true}, {"id": 858568, "title": "So much to give: a report from Anne Deveson", "work_id": 72944, "role": "production company", "role_id": 941, "is_primary": true}, {"id": 767258, "title": "The Platypus", "work_id": 78464, "role": "production company", "role_id": 941, "is_primary": true}, {"id": 1904925, "title": "Autumn: a concept film", "work_id": 91795, "role": "production company", "role_id": 941, "is_primary": true}], "also_known_as": "", "date_of_birth": null, "date_of_death": null, "genders": [], "languages": [], "places_of_operation": [], "biography": "", "biography_author": null, "date_of_biography": "2023-08-11T19:48:30+10:00", "external_links": [], "uuid": "af596a17-3023-4561-9c6c-1c068fd3fd7b", "source": {"name": "Vernon", "slug": "vernon"}, "source_identifier": "3842", "external_references": [{"id": 34894, "source": {"name": "Wikidata", "slug": "wikidata"}, "source_identifier": "Q121144120"}], "date_modified": "2025-03-14T17:25:11.704514+11:00"}, {"id": 12828, "name": "Boy Scouts of America. Visual Education Service", "roles_in_work": [{"id": 859925, "title": "The Troop grows", "work_id": 74023, "role": "production company", "role_id": 941, "is_primary": true}, {"id": 874463, "title": "Knifecraft", "work_id": 88807, "role": "production company", "role_id": 941, "is_primary": true}, {"id": 2680743, "title": "The Cub scout in the den", "work_id": 66534, "role": "production company", "role_id": 941, "is_primary": true}, {"id": 2680744, "title": "The Cub scout in the pack", "work_id": 66535, "role": "production company", "role_id": 941, "is_primary": true}, {"id": 2398102, "title": "A Rock climb", "work_id": 72307, "role": "production company", "role_id": 941, "is_primary": true}, {"id": 2645536, "title": "Making a pack basket", "work_id": 70029, "role": "production company", "role_id": 941, "is_primary": true}, {"id": 856694, "title": "The Patrol method", "work_id": 71401, "role": "production company", "role_id": 941, "is_primary": true}, {"id": 875558, "title": "Tin can craft", "work_id": 89556, "role": "production company", "role_id": 941, "is_primary": true}, {"id": 2678019, "title": "Axemanship", "work_id": 65181, "role": "production company", "role_id": 941, "is_primary": true}], "also_known_as": "", "date_of_birth": "", "date_of_death": "", "genders": [], "languages": [], "places_of_operation": [], "biography": "", "biography_author": null, "date_of_biography": "2023-08-11T13:12:29.772967+10:00", "external_links": [], "uuid": "d3b00309-83c5-434e-b944-9dd14e6c2354", "source": {"name": "Vernon", "slug": "vernon"}, "source_identifier": "3853", "external_references": [], "date_modified": "2025-03-07T00:41:44.694162+11:00"}, {"id": 12825, "name": "Peter Jones", "roles_in_work": [{"id": 2759082, "title": "Aurora", "work_id": 66814, "role": "director", "role_id": 938, "is_primary": true}, {"id": 2615715, "title": "Crafts of my province = Artisans de nouveau Brunswick [French language]", "work_id": 86009, "role": "co-director", "role_id": 959, "is_primary": true}, {"id": 2678786, "title": "The Boy next door", "work_id": 65569, "role": "co-producer", "role_id": 915, "is_primary": true}, {"id": 2713573, "title": "Figure skating", "work_id": 67477, "role": "co-producer", "role_id": 915, "is_primary": true}, {"id": 2647224, "title": "Helicopter Canada", "work_id": 75673, "role": "co-producer", "role_id": 915, "is_primary": true}, {"id": 896536, "title": "For land's sake", "work_id": 75522, "role": "co-producer", "role_id": 915, "is_primary": true}, {"id": 895060, "title": "Mental patients' association", "work_id": 70311, "role": "co-producer", "role_id": 915, "is_primary": true}, {"id": 2215482, "title": "Egypte", "work_id": 78060, "role": "co-producer", "role_id": 915, "is_primary": true}, {"id": 2221304, "title": "Estuary", "work_id": 78075, "role": "co-producer", "role_id": 915, "is_primary": true}, {"id": 2136691, "title": "Children of the tribe", "work_id": 92921, "role": "co-producer", "role_id": 915, "is_primary": true}, {"id": 897746, "title": "Augusta", "work_id": 77857, "role": "co-producer", "role_id": 915, "is_primary": true}, {"id": 2281058, "title": "TV sale", "work_id": 74102, "role": "co-producer", "role_id": 915, "is_primary": true}, {"id": 2262522, "title": "Sauk-Ai", "work_id": 85760, "role": "co-producer", "role_id": 915, "is_primary": true}, {"id": 907091, "title": "Negotiating a new Canadian constitution", "work_id": 87713, "role": "co-producer", "role_id": 915, "is_primary": true}, {"id": 912843, "title": "Japan inc: lessons for North America?", "work_id": 92930, "role": "co-producer", "role_id": 915, "is_primary": true}, {"id": 2750621, "title": "When polar bears swam in the Thames", "work_id": 97418, "role": "director", "role_id": 938, "is_primary": true}, {"id": 2224417, "title": "Eye witness. No. 86. Bar mitzvah", "work_id": 90078, "role": "producer", "role_id": 1089, "is_primary": true}, {"id": 1819106, "title": "Music from Montreal", "work_id": 70699, "role": "producer", "role_id": 1089, "is_primary": true}, {"id": 2329978, "title": "The Baymen", "work_id": 76382, "role": "producer", "role_id": 1089, "is_primary": true}, {"id": 1818592, "title": "Waterfowl - a resource in danger", "work_id": 74523, "role": "producer", "role_id": 1089, "is_primary": true}, {"id": 2712492, "title": "Ducks, of course", "work_id": 66963, "role": "producer", "role_id": 1089, "is_primary": true}, {"id": 2162700, "title": "Jablonski", "work_id": 85756, "role": "producer", "role_id": 1089, "is_primary": true}, {"id": 2713255, "title": "Eye Witness. No. 93", "work_id": 67322, "role": "producer", "role_id": 1089, "is_primary": true}, {"id": 2077338, "title": "A Visit from Captain Cook", "work_id": 87825, "role": "producer", "role_id": 1089, "is_primary": true}, {"id": 2242105, "title": "Fisherman's fall", "work_id": 78076, "role": "producer", "role_id": 1089, "is_primary": true}, {"id": 1819327, "title": "Painting a province", "work_id": 71322, "role": "producer", "role_id": 1089, "is_primary": true}, {"id": 1818582, "title": "Ski!", "work_id": 76301, "role": "producer", "role_id": 1089, "is_primary": true}, {"id": 1814258, "title": "Harrison's Yukon", "work_id": 89812, "role": "producer", "role_id": 1089, "is_primary": true}, {"id": 2208663, "title": "Pleasure faire", "work_id": 78874, "role": "producer", "role_id": 1089, "is_primary": true}, {"id": 2712487, "title": "Drylanders", "work_id": 66961, "role": "producer", "role_id": 1089, "is_primary": true}, {"id": 1809357, "title": "We call them killers", "work_id": 76262, "role": "producer", "role_id": 1089, "is_primary": true}, {"id": 2713149, "title": "Everybody's prejudiced", "work_id": 67266, "role": "producer", "role_id": 1089, "is_primary": true}, {"id": 2712431, "title": "Driving without tears", "work_id": 66935, "role": "producer", "role_id": 1089, "is_primary": true}, {"id": 2680491, "title": "Cornet at night", "work_id": 66414, "role": "producer", "role_id": 1089, "is_primary": true}, {"id": 2680624, "title": "Crafts of My Province", "work_id": 66473, "role": "producer", "role_id": 1089, "is_primary": true}, {"id": 1808779, "title": "Man who chooses the bush", "work_id": 88835, "role": "producer", "role_id": 1089, "is_primary": true}, {"id": 2680972, "title": "A Day in the night of Jonathan Mole", "work_id": 66641, "role": "producer", "role_id": 1089, "is_primary": true}, {"id": 2267107, "title": "Wildlife in the Rockies", "work_id": 91148, "role": "producer", "role_id": 1089, "is_primary": true}, {"id": 2644094, "title": "Away from it all", "work_id": 65177, "role": "producer", "role_id": 1089, "is_primary": true}, {"id": 2292380, "title": "The Trials of life: a natural history of behaviour. - Part 2.", "work_id": 81752, "role": "producer", "role_id": 1089, "is_primary": true}, {"id": 2644709, "title": "Eye Witness. No. 81", "work_id": 67324, "role": "producer", "role_id": 1089, "is_primary": true}, {"id": 1815336, "title": "Selections from the Christmas Oratorio by J.S. Bach", "work_id": 90230, "role": "producer", "role_id": 1089, "is_primary": true}, {"id": 1810161, "title": "Joey", "work_id": 69259, "role": "producer", "role_id": 1089, "is_primary": true}, {"id": 2348877, "title": "The Flower and the hive", "work_id": 78053, "role": "producer", "role_id": 1089, "is_primary": true}, {"id": 2208341, "title": "Play to learn", "work_id": 71652, "role": "producer", "role_id": 1089, "is_primary": true}, {"id": 1819850, "title": "Learn to ski", "work_id": 69543, "role": "producer", "role_id": 1089, "is_primary": true}, {"id": 2649363, "title": "The trials of life: a natural history of behaviour. - Part 1.", "work_id": 81390, "role": "producer", "role_id": 1089, "is_primary": true}, {"id": 2715420, "title": "He's not the walking kind", "work_id": 68435, "role": "producer", "role_id": 1089, "is_primary": true}, {"id": 2318562, "title": "Supermarkets and the farmer", "work_id": 73379, "role": "producer", "role_id": 1089, "is_primary": true}, {"id": 748966, "title": "New Channels for Sockeye", "work_id": 70824, "role": "producer/director", "role_id": 31, "is_primary": true}], "also_known_as": "Peter Geoffrey Francis Jones", "date_of_birth": "12 JUN 1920", "date_of_death": "10 APR 2000", "genders": [{"id": 9, "name": "Male", "slug": "male"}], "languages": [{"id": 1, "name": "English", "slug": "english"}], "places_of_operation": [{"id": 10, "name": "United Kingdom", "slug": "united-kingdom"}], "biography": "Peter Geoffrey Francis Jones (12 June 1920 – 10 April 2000) was an English actor, screenwriter and broadcaster. Source: Wikidata; 01/08/2023", "biography_author": null, "date_of_biography": "2025-03-13T14:51:26.683369+11:00", "external_links": [{"id": 4883, "uri": "https://en.wikipedia.org/wiki/Peter_Jones_(actor)"}], "uuid": "ceea9f90-22f5-4d18-93b2-b460538cbc26", "source": {"name": "Vernon", "slug": "vernon"}, "source_identifier": "26597", "external_references": [{"id": 25549, "source": {"name": "Wikidata", "slug": "wikidata"}, "source_identifier": "Q761490"}, {"id": 30797, "source": {"name": "VIAF", "slug": "viaf"}, "source_identifier": "53318324"}, {"id": 30798, "source": {"name": "LOC Auth", "slug": "loc-auth"}, "source_identifier": "no98101575"}, {"id": 30799, "source": {"name": "WorldCat", "slug": "worldcat"}, "source_identifier": "lccn-no98101575"}], "date_modified": "2025-03-13T14:51:26.683628+11:00"}, {"id": 12823, "name": "RSPB Film and Video Unit", "roles_in_work": [{"id": 2678452, "title": "Big Bill: the story of a heron", "work_id": 65394, "role": "production company", "role_id": 941, "is_primary": true}, {"id": 2644088, "title": "Avocets return", "work_id": 65175, "role": "production company", "role_id": 941, "is_primary": true}], "also_known_as": "", "date_of_birth": "", "date_of_death": "", "genders": [], "languages": [], "places_of_operation": [], "biography": "", "biography_author": null, "date_of_biography": "2023-05-09T12:52:52.880699+10:00", "external_links": [], "uuid": "5ba85735-2669-4079-acf0-d94c1e4bf3c5", "source": {"name": "Vernon", "slug": "vernon"}, "source_identifier": "12166", "external_references": [{"id": 38834, "source": {"name": "Wikidata", "slug": "wikidata"}, "source_identifier": "Q121034438"}], "date_modified": "2025-03-06T23:51:26.756594+11:00"}, {"id": 12821, "name": "Video Arts", "roles_in_work": [{"id": 2327829, "title": "The Appraisal interview: 'How am I doing?' (NP)", "work_id": 75731, "role": "production company", "role_id": 941, "is_primary": true}, {"id": 879571, "title": "Can you spare a moment?: the counselling interview (NP)", "work_id": 91898, "role": "production company", "role_id": 941, "is_primary": true}, {"id": 759741, "title": "When I'm calling you (NP)", "work_id": 75515, "role": "production company", "role_id": 941, "is_primary": true}, {"id": 2186568, "title": "Depreciation and inflation (NP)", "work_id": 97906, "role": "production company", "role_id": 941, "is_primary": true}, {"id": 2778633, "title": "Build your own machines", "work_id": 98632, "role": "production company", "role_id": 941, "is_primary": true}, {"id": 2778618, "title": "Stop and go", "work_id": 98630, "role": "production company", "role_id": 941, "is_primary": true}, {"id": 2778611, "title": "Quick as light", "work_id": 98629, "role": "production company", "role_id": 941, "is_primary": true}, {"id": 2778594, "title": "Fantastic power of air", "work_id": 98626, "role": "production company", "role_id": 941, "is_primary": true}, {"id": 2778585, "title": "Mix a material", "work_id": 98625, "role": "production company", "role_id": 941, "is_primary": true}, {"id": 2778579, "title": "Electric universe", "work_id": 98624, "role": "production company", "role_id": 941, "is_primary": true}, {"id": 2778570, "title": "The Liquid show", "work_id": 98623, "role": "production company", "role_id": 941, "is_primary": true}, {"id": 2778563, "title": "The Amazing magnet", "work_id": 81874, "role": "production company", "role_id": 941, "is_primary": true}, {"id": 2778557, "title": "Air at work", "work_id": 81870, "role": "production company", "role_id": 941, "is_primary": true}, {"id": 3086000, "title": "Who protects the worker?", "work_id": 97939, "role": "production company", "role_id": 941, "is_primary": true}, {"id": 3085992, "title": "Who protects the consumer?", "work_id": 97938, "role": "production company", "role_id": 941, "is_primary": true}, {"id": 3085985, "title": "From cradle to grave", "work_id": 97935, "role": "production company", "role_id": 941, "is_primary": true}, {"id": 2764216, "title": "The Competitive spirit (TEFC)", "work_id": 86186, "role": "production company", "role_id": 941, "is_primary": true}, {"id": 2764209, "title": "The Competitive spirit (NP)", "work_id": 75509, "role": "production company", "role_id": 941, "is_primary": true}, {"id": 2764200, "title": "It's all right, it's only a customer", "work_id": 75511, "role": "production company", "role_id": 941, "is_primary": true}, {"id": 2764193, "title": "Who sold you this then? (NP)", "work_id": 90142, "role": "production company", "role_id": 941, "is_primary": true}, {"id": 2764188, "title": "Prescriptions for complaints (NP)", "work_id": 98580, "role": "production company", "role_id": 941, "is_primary": true}, {"id": 2761776, "title": "The Gee whiz graph (NP)", "work_id": 74707, "role": "production company", "role_id": 941, "is_primary": true}, {"id": 2761767, "title": "The Average chap", "work_id": 65174, "role": "production company", "role_id": 941, "is_primary": true}, {"id": 2768451, "title": "We can work it out (NP)", "work_id": 75513, "role": "production company", "role_id": 941, "is_primary": true}, {"id": 2768449, "title": "Try to see it my way (NP)", "work_id": 75512, "role": "production company", "role_id": 941, "is_primary": true}, {"id": 2753013, "title": "Budgeting (NP)", "work_id": 98562, "role": "production company", "role_id": 941, "is_primary": true}, {"id": 2752115, "title": "You'll soon get the hang of it", "work_id": 98148, "role": "production company", "role_id": 941, "is_primary": true}, {"id": 2752111, "title": "When will they realise we're living in the 20th century?", "work_id": 98146, "role": "production company", "role_id": 941, "is_primary": true}, {"id": 2752063, "title": "How does a computer work?", "work_id": 98123, "role": "production company", "role_id": 941, "is_primary": true}, {"id": 2751643, "title": "A Life worth living", "work_id": 97909, "role": "production company", "role_id": 941, "is_primary": true}, {"id": 2751639, "title": "Mechanisation", "work_id": 97908, "role": "production company", "role_id": 941, "is_primary": true}, {"id": 2751623, "title": "What is a word processor? or Tale of two sisters", "work_id": 97902, "role": "production company", "role_id": 941, "is_primary": true}, {"id": 2751698, "title": "Created equal", "work_id": 97936, "role": "production company", "role_id": 941, "is_primary": true}, {"id": 2751692, "title": "Anatomy of crisis", "work_id": 97934, "role": "production company", "role_id": 941, "is_primary": true}, {"id": 2648156, "title": "The Unorganised manager. Part I. Damnation (NP)", "work_id": 78409, "role": "production company", "role_id": 941, "is_primary": true}, {"id": 2647864, "title": "Meetings, bloody meetings (NP)", "work_id": 77586, "role": "production company", "role_id": 941, "is_primary": true}, {"id": 2750676, "title": "Cost, profit & break-even (NP)", "work_id": 97450, "role": "production company", "role_id": 941, "is_primary": true}, {"id": 2758674, "title": "In two minds", "work_id": 89225, "role": "production company", "role_id": 941, "is_primary": true}, {"id": 2758686, "title": "Awkward customers (NP)", "work_id": 65178, "role": "production company", "role_id": 941, "is_primary": true}, {"id": 2758697, "title": "More awkward customers (NP)", "work_id": 75742, "role": "production company", "role_id": 941, "is_primary": true}, {"id": 767114, "title": "More bloody meetings: the human side of meetings (NP)", "work_id": 78411, "role": "production company", "role_id": 941, "is_primary": true}, {"id": 759730, "title": "I'd like a word with you (NP): the discipline interview", "work_id": 75510, "role": "production company", "role_id": 941, "is_primary": true}, {"id": 759738, "title": "What is a computer? (NP)", "work_id": 75514, "role": "production company", "role_id": 941, "is_primary": true}, {"id": 2647024, "title": "Man hunt", "work_id": 75096, "role": "production company", "role_id": 941, "is_primary": true}, {"id": 830109, "title": "How to cure inflation", "work_id": 97940, "role": "production company", "role_id": 941, "is_primary": true}, {"id": 864251, "title": "Do you think you can manage? (TEFC)", "work_id": 77841, "role": "production company", "role_id": 941, "is_primary": true}, {"id": 2266986, "title": "Will you answer true? (NP)", "work_id": 75516, "role": "production company", "role_id": 941, "is_primary": true}, {"id": 2678055, "title": "The Balance sheet barrier: business finance for non-specialists (NP)", "work_id": 65200, "role": "production company", "role_id": 941, "is_primary": true}, {"id": 2680408, "title": "The Control of working capital (NP)", "work_id": 66372, "role": "production company", "role_id": 941, "is_primary": true}, {"id": 864912, "title": "The Unorganised manager. Part II. Salvation (NP)", "work_id": 78410, "role": "production company", "role_id": 941, "is_primary": true}, {"id": 2679132, "title": "Can we please have that the right way round? (TEFC)", "work_id": 65748, "role": "production company", "role_id": 941, "is_primary": true}, {"id": 2183964, "title": "Decisions, decisions (NP)", "work_id": 82042, "role": "production company", "role_id": 941, "is_primary": true}, {"id": 863592, "title": "Who's in charge? (TEFC)", "work_id": 77327, "role": "production company", "role_id": 941, "is_primary": true}, {"id": 2183985, "title": "Decisions, Decisions! (TEFC)", "work_id": 75739, "role": "production company", "role_id": 941, "is_primary": true}], "also_known_as": "", "date_of_birth": "", "date_of_death": "", "genders": [], "languages": [], "places_of_operation": [], "biography": "", "biography_author": null, "date_of_biography": "2023-05-09T19:55:02.142125+10:00", "external_links": [], "uuid": "93728ee7-ce20-45ad-a08b-5b6ee47bddb4", "source": {"name": "Vernon", "slug": "vernon"}, "source_identifier": "3847", "external_references": [{"id": 37923, "source": {"name": "Wikidata", "slug": "wikidata"}, "source_identifier": "Q121035635"}], "date_modified": "2025-03-17T10:42:07.333108+11:00"}, {"id": 12820, "name": "Pathescope Company of America", "roles_in_work": [{"id": 2760696, "title": "The Universal leg splint", "work_id": 67548, "role": "production company", "role_id": 941, "is_primary": true}, {"id": 2760694, "title": "The Thomas leg splint", "work_id": 67546, "role": "production company", "role_id": 941, "is_primary": true}, {"id": 2760692, "title": "Skull, spine, and pelvis", "work_id": 67545, "role": "production company", "role_id": 941, "is_primary": true}, {"id": 2760540, "title": "According to plan", "work_id": 89424, "role": "production company", "role_id": 941, "is_primary": true}, {"id": 2760534, "title": "Sections and conventions", "work_id": 72617, "role": "production company", "role_id": 941, "is_primary": true}, {"id": 2760531, "title": "Auxiliary views: single auxiliaries", "work_id": 65173, "role": "production company", "role_id": 941, "is_primary": true}, {"id": 2760529, "title": "Auxiliary views: double auxiliaries", "work_id": 65171, "role": "production company", "role_id": 941, "is_primary": true}, {"id": 2760698, "title": "First aid for fractures: introduction", "work_id": 90368, "role": "production company", "role_id": 941, "is_primary": true}, {"id": 2401724, "title": "Shape description. Part 2", "work_id": 72724, "role": "production company", "role_id": 941, "is_primary": true}, {"id": 2401723, "title": "Sections", "work_id": 72616, "role": "production company", "role_id": 941, "is_primary": true}, {"id": 2401725, "title": "Size description", "work_id": 72874, "role": "production company", "role_id": 941, "is_primary": true}, {"id": 2716419, "title": "The Inner man steps out", "work_id": 68947, "role": "production company", "role_id": 941, "is_primary": true}, {"id": 2401728, "title": "Shape description. Part 1", "work_id": 72723, "role": "production company", "role_id": 941, "is_primary": true}, {"id": 875331, "title": "Orthographic projection", "work_id": 89453, "role": "production company", "role_id": 941, "is_primary": true}, {"id": 2678007, "title": "Auxiliary views. Pt. 1", "work_id": 65172, "role": "production company", "role_id": 941, "is_primary": true}, {"id": 2401727, "title": "Shop procedures", "work_id": 72779, "role": "production company", "role_id": 941, "is_primary": true}], "also_known_as": "", "date_of_birth": "", "date_of_death": "", "genders": [], "languages": [], "places_of_operation": [], "biography": "", "biography_author": null, "date_of_biography": "2023-08-11T14:31:02.326315+10:00", "external_links": [], "uuid": "b412c70c-d00f-452c-8a64-ce6af58462ba", "source": {"name": "Vernon", "slug": "vernon"}, "source_identifier": "11338", "external_references": [], "date_modified": "2025-03-14T17:27:25.001051+11:00"}, {"id": 12819, "name": "Jon Wilkman", "roles_in_work": [{"id": 2754932, "title": "Autos and all that traffic", "work_id": 65168, "role": "director", "role_id": 938, "is_primary": true}], "also_known_as": "", "date_of_birth": "", "date_of_death": "", "genders": [], "languages": [], "places_of_operation": [], "biography": "", "biography_author": null, "date_of_biography": "2023-08-11T19:00:29.101079+10:00", "external_links": [], "uuid": "20c87fae-deef-43cb-a73d-e2dd0530aab6", "source": {"name": "Vernon", "slug": "vernon"}, "source_identifier": "1808", "external_references": [], "date_modified": "2025-03-13T01:55:18.429506+11:00"}, {"id": 12818, "name": "British Films", "roles_in_work": [{"id": 2414118, "title": "Land of invention", "work_id": 69485, "role": "production company", "role_id": 941, "is_primary": true}, {"id": 2679628, "title": "Cheddar Gorge and its caves", "work_id": 65990, "role": "production company", "role_id": 941, "is_primary": true}, {"id": 2680764, "title": "The Curiosity that kills the cat", "work_id": 66546, "role": "production company", "role_id": 941, "is_primary": true}, {"id": 2644223, "title": "Briefing for health", "work_id": 65606, "role": "production company", "role_id": 941, "is_primary": true}, {"id": 2678000, "title": "The Autonomic nervous system", "work_id": 65167, "role": "production company", "role_id": 941, "is_primary": true}, {"id": 2712805, "title": "Electrostatic copying", "work_id": 67100, "role": "production company", "role_id": 941, "is_primary": true}, {"id": 803444, "title": "Royal Air Force police dog training", "work_id": 89686, "role": "production company", "role_id": 941, "is_primary": true}, {"id": 860571, "title": "Wave particle duality", "work_id": 74533, "role": "production company", "role_id": 941, "is_primary": true}, {"id": 752876, "title": "The Sea shall test her", "work_id": 72572, "role": "production company", "role_id": 941, "is_primary": true}, {"id": 2679115, "title": "Camp schools", "work_id": 65741, "role": "production company", "role_id": 941, "is_primary": true}], "also_known_as": "", "date_of_birth": "", "date_of_death": "", "genders": [], "languages": [], "places_of_operation": [], "biography": "", "biography_author": null, "date_of_biography": "2023-08-11T19:11:49.978773+10:00", "external_links": [], "uuid": "63301f4b-0dcd-420a-bd74-c97c46740378", "source": {"name": "Vernon", "slug": "vernon"}, "source_identifier": "6014", "external_references": [], "date_modified": "2025-03-12T00:30:28.952114+11:00"}, {"id": 12815, "name": "Instrument Society of America", "roles_in_work": [{"id": 2644084, "title": "Automatic process control", "work_id": 65164, "role": "production company", "role_id": 941, "is_primary": true}], "also_known_as": "", "date_of_birth": "", "date_of_death": "", "genders": [], "languages": [], "places_of_operation": [], "biography": "", "biography_author": null, "date_of_biography": "2023-08-11T14:30:32.142073+10:00", "external_links": [], "uuid": "793f8826-ca1f-4f72-8875-e8abd3641da7", "source": {"name": "Vernon", "slug": "vernon"}, "source_identifier": "9332", "external_references": [], "date_modified": "2025-03-05T12:10:55.958335+11:00"}, {"id": 12814, "name": "Wetenschap Universitaire Film", "roles_in_work": [{"id": 2677992, "title": "Autistic Syndrome 1", "work_id": 65159, "role": "production company", "role_id": 941, "is_primary": true}], "also_known_as": "", "date_of_birth": "", "date_of_death": "", "genders": [], "languages": [], "places_of_operation": [], "biography": "", "biography_author": null, "date_of_biography": "2023-08-11T14:30:27.757393+10:00", "external_links": [], "uuid": "b8132e7d-52c4-4ba0-96d5-cba3b69b33c0", "source": {"name": "Vernon", "slug": "vernon"}, "source_identifier": "14331", "external_references": [], "date_modified": "2025-03-06T23:32:38.524843+11:00"}]}