{"count": 28684, "next": "https://api.acmi.net.au/creators/?page=1128", "previous": "https://api.acmi.net.au/creators/?page=1126", "results": [{"id": 74309, "name": "Joseph Koenig", "roles_in_work": [{"id": 2647271, "title": "Jet pilot", "work_id": 75830, "role": "director", "role_id": 938, "is_primary": true}, {"id": 874243, "title": "Interview with Linus Pauling", "work_id": 88640, "role": "director", "role_id": 938, "is_primary": true}, {"id": 2645890, "title": "The Origins of weather", "work_id": 71224, "role": "director", "role_id": 938, "is_primary": true}, {"id": 2680030, "title": "The Climates of North America", "work_id": 66184, "role": "director", "role_id": 938, "is_primary": true}, {"id": 2283661, "title": "The Tiny terrors", "work_id": 76464, "role": "director", "role_id": 938, "is_primary": true}, {"id": 2189128, "title": "Passing through Sweden", "work_id": 87662, "role": "co-producer", "role_id": 915, "is_primary": true}, {"id": 2713366, "title": "Falling from ladders", "work_id": 67376, "role": "co-producer", "role_id": 915, "is_primary": true}, {"id": 2645167, "title": "Immigration law: a delicate balance", "work_id": 68783, "role": "co-producer", "role_id": 915, "is_primary": true}, {"id": 2646897, "title": "What is life?", "work_id": 74632, "role": "co-producer", "role_id": 915, "is_primary": true}, {"id": 2646902, "title": "What teacher expects...the self fulfilling prophecy (TEFC)", "work_id": 74645, "role": "co-producer", "role_id": 915, "is_primary": true}, {"id": 2647374, "title": "Saskatchewan 45 Below", "work_id": 76113, "role": "co-producer", "role_id": 915, "is_primary": true}, {"id": 896061, "title": "The Underground movie", "work_id": 74164, "role": "co-producer", "role_id": 915, "is_primary": true}, {"id": 1427822, "title": "Three \"I\"s: a trio of personal films about Sweden by two Canadians and one Swede", "work_id": 87903, "role": "co-producer", "role_id": 915, "is_primary": true}, {"id": 2352968, "title": "The Half-masted schooner", "work_id": 85719, "role": "co-producer", "role_id": 915, "is_primary": true}, {"id": 910104, "title": "The Rideau: Colonel By's peaceable waterway", "work_id": 90710, "role": "co-producer", "role_id": 915, "is_primary": true}, {"id": 909325, "title": "Four portraits", "work_id": 89860, "role": "co-producer", "role_id": 915, "is_primary": true}, {"id": 2167827, "title": "Matrioska", "work_id": 75483, "role": "co-producer", "role_id": 915, "is_primary": true}, {"id": 2140145, "title": "Co for kids", "work_id": 88168, "role": "co-producer", "role_id": 915, "is_primary": true}, {"id": 909629, "title": "What teacher expects...the self fulfilling prophecy", "work_id": 90334, "role": "co-producer", "role_id": 915, "is_primary": true}, {"id": 1813286, "title": "Unstructured for a summer", "work_id": 74231, "role": "producer", "role_id": 1089, "is_primary": true}, {"id": 1820273, "title": "The Rise and fall of the Great Lakes", "work_id": 72244, "role": "producer", "role_id": 1089, "is_primary": true}, {"id": 2679534, "title": "Change in the Maritimes", "work_id": 65946, "role": "producer", "role_id": 1089, "is_primary": true}, {"id": 2713125, "title": "The Ever-changing lowlands", "work_id": 67254, "role": "producer", "role_id": 1089, "is_primary": true}, {"id": 2712925, "title": "Energy and matter", "work_id": 67161, "role": "producer", "role_id": 1089, "is_primary": true}, {"id": 2678531, "title": "Bing bang boom", "work_id": 65430, "role": "producer", "role_id": 1089, "is_primary": true}, {"id": 2073978, "title": "A Search for learning", "work_id": 72585, "role": "producer", "role_id": 1089, "is_primary": true}, {"id": 2715929, "title": "Hymn", "work_id": 68695, "role": "producer", "role_id": 1089, "is_primary": true}, {"id": 2680723, "title": "The Cruise", "work_id": 66523, "role": "producer", "role_id": 1089, "is_primary": true}, {"id": 2680388, "title": "Continental drift", "work_id": 66362, "role": "producer", "role_id": 1089, "is_primary": true}, {"id": 2713886, "title": "Flowers on a one way street", "work_id": 67639, "role": "producer", "role_id": 1089, "is_primary": true}, {"id": 2145102, "title": "Cosmic zoom", "work_id": 75173, "role": "producer", "role_id": 1089, "is_primary": true}, {"id": 1817831, "title": "The Medium is the massage, you know", "work_id": 70268, "role": "producer", "role_id": 1089, "is_primary": true}, {"id": 2644338, "title": "The Changing wheat belt", "work_id": 65958, "role": "producer/director", "role_id": 31, "is_primary": true}, {"id": 2644335, "title": "Change in the Western Mountains", "work_id": 65947, "role": "producer/director", "role_id": 31, "is_primary": true}], "also_known_as": "", "date_of_birth": "14 AUG 1930", "date_of_death": "", "genders": [{"id": 9, "name": "Male", "slug": "male"}], "languages": [], "places_of_operation": [{"id": 36, "name": "Canada", "slug": "canada"}], "biography": "Joseph (Joe) Koenig (born August 14, 1930) is a Canadian filmmaker and entrepreneur who was the founder and president of Electronics Workbench. Source: Wikidata; 01/08/2023", "biography_author": null, "date_of_biography": "2025-03-12T01:46:04.932736+11:00", "external_links": [{"id": 4435, "uri": "https://en.wikipedia.org/wiki/Joe_Koenig"}], "uuid": "6d1fc07f-ff7d-4915-bb68-578fea458684", "source": {"name": "Vernon", "slug": "vernon"}, "source_identifier": "22728", "external_references": [{"id": 24974, "source": {"name": "Wikidata", "slug": "wikidata"}, "source_identifier": "Q6210741"}], "date_modified": "2025-03-12T01:46:04.932956+11:00"}, {"id": 74308, "name": "Ken McCready", "roles_in_work": [{"id": 2678514, "title": "Bill Loosley's heat pump", "work_id": 65423, "role": "director", "role_id": 938, "is_primary": true}, {"id": 874903, "title": "We can't stand still can we?", "work_id": 89170, "role": "director", "role_id": 938, "is_primary": true}, {"id": 877945, "title": "Isotopes in action", "work_id": 90988, "role": "director", "role_id": 938, "is_primary": true}], "also_known_as": "", "date_of_birth": "", "date_of_death": "", "genders": [], "languages": [], "places_of_operation": [], "biography": "", "biography_author": null, "date_of_biography": "2023-05-09T12:53:04.326695+10:00", "external_links": [], "uuid": "50dbcfdd-a706-4b72-84b2-0eea92f57b08", "source": {"name": "Vernon", "slug": "vernon"}, "source_identifier": "23202", "external_references": [{"id": 43203, "source": {"name": "Wikidata", "slug": "wikidata"}, "source_identifier": "Q121086146"}], "date_modified": "2025-03-06T23:52:11.030566+11:00"}, {"id": 74307, "name": "Ben Burgandy", "roles_in_work": [{"id": 2678490, "title": "The Big muster", "work_id": 65412, "role": "co-director", "role_id": 959, "is_primary": true}], "also_known_as": "", "date_of_birth": "", "date_of_death": "", "genders": [], "languages": [], "places_of_operation": [], "biography": "", "biography_author": null, "date_of_biography": "2023-05-09T19:26:46.665397+10:00", "external_links": [], "uuid": "085e8e3e-1ce2-4490-84b0-ee751a11ecde", "source": {"name": "Vernon", "slug": "vernon"}, "source_identifier": "15782", "external_references": [{"id": 38232, "source": {"name": "Wikidata", "slug": "wikidata"}, "source_identifier": "Q121144042"}], "date_modified": "2025-03-06T23:51:53.881334+11:00"}, {"id": 74306, "name": "George Dreyfus", "roles_in_work": [{"id": 2678482, "title": "The Big island [Cinemascope print]", "work_id": 65408, "role": "composer", "role_id": 538, "is_primary": false}, {"id": 2392508, "title": "The Big island", "work_id": 76305, "role": "composer", "role_id": 538, "is_primary": false}, {"id": 3093517, "title": "Nullarbor hideout", "work_id": 71015, "role": "music", "role_id": 949, "is_primary": false}, {"id": 2392298, "title": "Will the Great Barrier Reef cure Claude Clough", "work_id": 74775, "role": "music", "role_id": 949, "is_primary": false}], "also_known_as": "", "date_of_birth": "1928", "date_of_death": "", "genders": [], "languages": [], "places_of_operation": [], "biography": "", "biography_author": null, "date_of_biography": "2023-08-09T03:57:04.852294+10:00", "external_links": [], "uuid": "816beb40-7ce1-421a-a879-6d46e734fe6d", "source": {"name": "Vernon", "slug": "vernon"}, "source_identifier": "33055", "external_references": [{"id": 51733, "source": {"name": "Wikidata", "slug": "wikidata"}, "source_identifier": "Q121361042"}], "date_modified": "2025-04-09T13:38:05.879672+10:00"}, {"id": 74305, "name": "Bill Grimmond", "roles_in_work": [{"id": 2678468, "title": "Big game fishing in Australia", "work_id": 65404, "role": "cinematographer", "role_id": 32, "is_primary": false}, {"id": 2760714, "title": "Five Australians: Richard Walsh", "work_id": 67594, "role": "cinematographer", "role_id": 32, "is_primary": false}], "also_known_as": "", "date_of_birth": "", "date_of_death": "", "genders": [{"id": 9, "name": "Male", "slug": "male"}], "languages": [], "places_of_operation": [], "biography": "", "biography_author": null, "date_of_biography": "2023-05-09T17:29:39.221159+10:00", "external_links": [], "uuid": "0171a4e7-ac15-4424-a11e-63a35c0a17ec", "source": {"name": "Vernon", "slug": "vernon"}, "source_identifier": "37440", "external_references": [{"id": 37544, "source": {"name": "Wikidata", "slug": "wikidata"}, "source_identifier": "Q121223361"}], "date_modified": "2025-03-14T17:27:34.876601+11:00"}, {"id": 74304, "name": "Tee Bosustow", "roles_in_work": [{"id": 1845760, "title": "Hayley Mills Storybook", "work_id": 79922, "role": "co-producer", "role_id": 915, "is_primary": true}, {"id": 1845575, "title": "Grimm's Fairy Tales", "work_id": 79204, "role": "co-producer", "role_id": 915, "is_primary": true}, {"id": 2678456, "title": "Big boys don't cry", "work_id": 65395, "role": "producer/director", "role_id": 31, "is_primary": true}], "also_known_as": "", "date_of_birth": "", "date_of_death": "", "genders": [], "languages": [], "places_of_operation": [], "biography": "", "biography_author": null, "date_of_biography": "2023-05-09T12:52:34.735253+10:00", "external_links": [], "uuid": "6e8d168f-278e-4fa6-bf4d-4e75f8a84be0", "source": {"name": "Vernon", "slug": "vernon"}, "source_identifier": "29548", "external_references": [{"id": 52157, "source": {"name": "Wikidata", "slug": "wikidata"}, "source_identifier": "Q121360838"}], "date_modified": "2025-03-06T23:51:29.384954+11:00"}, {"id": 74303, "name": "Hugh Miles", "roles_in_work": [{"id": 2773551, "title": "Meerkats United; The Impossible bird", "work_id": 80352, "role": "co-director", "role_id": 959, "is_primary": true}, {"id": 2088413, "title": "Ambush at Masai Mara and Leopard, a Darkness in the Grass", "work_id": 80360, "role": "co-producer", "role_id": 915, "is_primary": true}, {"id": 2678454, "title": "Big Bill: the story of a heron", "work_id": 65394, "role": "co-producers/directors", "role_id": 628, "is_primary": true}, {"id": 860787, "title": "Who needs a wash?", "work_id": 74720, "role": "producer/director", "role_id": 31, "is_primary": true}], "also_known_as": "", "date_of_birth": "", "date_of_death": "", "genders": [], "languages": [], "places_of_operation": [], "biography": "", "biography_author": null, "date_of_biography": "2023-05-09T19:24:08.150848+10:00", "external_links": [], "uuid": "bcd058ec-ffe9-4fee-8052-b56e5da2c72a", "source": {"name": "Vernon", "slug": "vernon"}, "source_identifier": "20685", "external_references": [{"id": 32338, "source": {"name": "Wikidata", "slug": "wikidata"}, "source_identifier": "Q121223309"}], "date_modified": "2025-03-14T18:28:12.345079+11:00"}, {"id": 74302, "name": "Claudia Overing", "roles_in_work": [{"id": 2678439, "title": "Beyond the naked eye", "work_id": 65385, "role": "director", "role_id": 938, "is_primary": true}, {"id": 908412, "title": "The Mechanical knee", "work_id": 88837, "role": "director", "role_id": 938, "is_primary": true}, {"id": 749936, "title": "The Other World", "work_id": 71232, "role": "director", "role_id": 938, "is_primary": true}, {"id": 2143512, "title": "Congenital broncho-oesophageal fistula in an adult", "work_id": 94910, "role": "co-director", "role_id": 959, "is_primary": true}], "also_known_as": "", "date_of_birth": "", "date_of_death": "", "genders": [], "languages": [], "places_of_operation": [], "biography": "", "biography_author": null, "date_of_biography": "2023-05-09T13:42:06.933212+10:00", "external_links": [], "uuid": "bfa4fa0c-d1a4-4fdc-9500-f2d8e85c2c2a", "source": {"name": "Vernon", "slug": "vernon"}, "source_identifier": "17089", "external_references": [{"id": 42344, "source": {"name": "Wikidata", "slug": "wikidata"}, "source_identifier": "Q120302908"}], "date_modified": "2025-03-06T23:51:15.428076+11:00"}, {"id": 74301, "name": "Francois Seguillon", "roles_in_work": [{"id": 2763361, "title": "The Heart of the city", "work_id": 69642, "role": "director", "role_id": 938, "is_primary": true}, {"id": 895217, "title": "The Netsilik eskimo today", "work_id": 70814, "role": "co-producer", "role_id": 915, "is_primary": true}, {"id": 2648013, "title": "Tomorrow winter comes", "work_id": 78004, "role": "co-producer", "role_id": 915, "is_primary": true}, {"id": 2143506, "title": "Congenital broncho-oesophageal fistula in an adult", "work_id": 94910, "role": "producer", "role_id": 1089, "is_primary": true}, {"id": 2678918, "title": "Bronze", "work_id": 65640, "role": "producer", "role_id": 1089, "is_primary": true}, {"id": 2678438, "title": "Beyond the naked eye", "work_id": 65385, "role": "producer", "role_id": 1089, "is_primary": true}, {"id": 1818455, "title": "Northwest passage", "work_id": 76126, "role": "producer", "role_id": 1089, "is_primary": true}, {"id": 1818704, "title": "The Manhattan odyssey", "work_id": 85737, "role": "producer", "role_id": 1089, "is_primary": true}, {"id": 2261860, "title": "Saint-Urbain in Troyes", "work_id": 76396, "role": "producer", "role_id": 1089, "is_primary": true}, {"id": 1818732, "title": "Glimpses of China", "work_id": 85803, "role": "producer", "role_id": 1089, "is_primary": true}, {"id": 2165194, "title": "Modulo: variations on a design", "work_id": 70531, "role": "producer", "role_id": 1089, "is_primary": true}, {"id": 2215832, "title": "Eli, Eli, Lamma Sabachtani?", "work_id": 78071, "role": "producer", "role_id": 1089, "is_primary": true}, {"id": 2289865, "title": "What are you running for? = Qusque tu vas de meme?", "work_id": 87684, "role": "producer", "role_id": 1089, "is_primary": true}, {"id": 2236343, "title": "Ratopolis", "work_id": 72061, "role": "producer", "role_id": 1089, "is_primary": true}], "also_known_as": "", "date_of_birth": "", "date_of_death": "", "genders": [], "languages": [], "places_of_operation": [], "biography": "", "biography_author": null, "date_of_biography": "2023-05-09T20:01:46.954430+10:00", "external_links": [], "uuid": "614fe3cd-c2d0-4b27-a621-30c7b8faa8e2", "source": {"name": "Vernon", "slug": "vernon"}, "source_identifier": "19083", "external_references": [], "date_modified": "2025-03-14T17:41:23.175135+11:00"}, {"id": 74300, "name": "B.Z. Vincent-Batyka", "roles_in_work": [{"id": 2678434, "title": "Beyond the frame (TEFC)", "work_id": 65383, "role": "producer/director", "role_id": 31, "is_primary": true}], "also_known_as": "", "date_of_birth": "", "date_of_death": "", "genders": [], "languages": [], "places_of_operation": [], "biography": "", "biography_author": null, "date_of_biography": "2023-05-09T12:52:04.334053+10:00", "external_links": [], "uuid": "6e3f8055-a379-4144-ab92-6425c5687204", "source": {"name": "Vernon", "slug": "vernon"}, "source_identifier": "15621", "external_references": [{"id": 50719, "source": {"name": "Wikidata", "slug": "wikidata"}, "source_identifier": "Q121360706"}], "date_modified": "2025-03-06T23:51:11.899802+11:00"}]}