{"count": 28681, "next": "https://api.acmi.net.au/creators/?page=2198", "previous": "https://api.acmi.net.au/creators/?page=2196", "results": [{"id": 18717, "name": "John Desmond Sheridan", "roles_in_work": [{"id": 2471102, "title": "W.B Yeats: a tribute", "work_id": 74552, "role": "director", "role_id": 938, "is_primary": true}], "also_known_as": "", "date_of_birth": "", "date_of_death": "", "genders": [], "languages": [], "places_of_operation": [], "biography": "", "biography_author": null, "date_of_biography": "2023-08-14T12:33:41.455233+10:00", "external_links": [], "uuid": "f7c7146d-2b10-44c8-8d99-107a0bad4a23", "source": {"name": "Vernon", "slug": "vernon"}, "source_identifier": "34391", "external_references": [], "date_modified": "2023-08-14T12:33:41.455463+10:00"}, {"id": 18716, "name": "George Fleischmann", "roles_in_work": [{"id": 2471101, "title": "W.B Yeats: a tribute", "work_id": 74552, "role": "director", "role_id": 938, "is_primary": true}], "also_known_as": "", "date_of_birth": "", "date_of_death": "", "genders": [], "languages": [], "places_of_operation": [], "biography": "", "biography_author": null, "date_of_biography": "2023-08-14T12:33:40.826228+10:00", "external_links": [], "uuid": "04eba1a5-1ea7-4d3e-825a-1afd21f330cf", "source": {"name": "Vernon", "slug": "vernon"}, "source_identifier": "34390", "external_references": [], "date_modified": "2023-08-14T12:33:40.826482+10:00"}, {"id": 18715, "name": "National Film Institute of Ireland", "roles_in_work": [{"id": 2471100, "title": "W.B Yeats: a tribute", "work_id": 74552, "role": "production company", "role_id": 941, "is_primary": true}], "also_known_as": "", "date_of_birth": "", "date_of_death": "", "genders": [], "languages": [], "places_of_operation": [], "biography": "", "biography_author": null, "date_of_biography": "2023-08-14T12:33:40.160358+10:00", "external_links": [], "uuid": "9ce00b37-8543-4dd5-8808-64baa2565bdb", "source": {"name": "Vernon", "slug": "vernon"}, "source_identifier": "34389", "external_references": [], "date_modified": "2023-08-14T12:33:40.160634+10:00"}, {"id": 18714, "name": "Gunnar Skoglund", "roles_in_work": [{"id": 2407731, "title": "Forest treasures", "work_id": 95691, "role": "director", "role_id": 938, "is_primary": true}, {"id": 1813563, "title": "Way to new homes: a Swedish approach to the housing problem", "work_id": 74551, "role": "producer", "role_id": 1089, "is_primary": true}], "also_known_as": "", "date_of_birth": "", "date_of_death": "", "genders": [], "languages": [], "places_of_operation": [], "biography": "", "biography_author": null, "date_of_biography": "2023-08-11T16:44:08.897851+10:00", "external_links": [], "uuid": "efc0045f-04fc-4f52-b7c6-dc805582f25b", "source": {"name": "Vernon", "slug": "vernon"}, "source_identifier": "20114", "external_references": [], "date_modified": "2023-08-11T16:44:08.898142+10:00"}, {"id": 18713, "name": "Franklin Gollings", "roles_in_work": [{"id": 2646857, "title": "Way to Wimbledon", "work_id": 74545, "role": "director", "role_id": 938, "is_primary": true}], "also_known_as": "", "date_of_birth": "", "date_of_death": "", "genders": [], "languages": [], "places_of_operation": [], "biography": "", "biography_author": null, "date_of_biography": "2023-08-14T12:36:36.322876+10:00", "external_links": [], "uuid": "13733d27-6459-4c62-a01d-140d82974deb", "source": {"name": "Vernon", "slug": "vernon"}, "source_identifier": "30784", "external_references": [], "date_modified": "2025-03-05T13:12:37.567758+11:00"}, {"id": 18712, "name": "Pathe Documentary Unit", "roles_in_work": [{"id": 2646856, "title": "Way to Wimbledon", "work_id": 74545, "role": "production company", "role_id": 941, "is_primary": true}], "also_known_as": "", "date_of_birth": "", "date_of_death": "", "genders": [], "languages": [], "places_of_operation": [], "biography": "", "biography_author": null, "date_of_biography": "2023-08-14T12:36:35.575631+10:00", "external_links": [], "uuid": "7e248269-a7c8-4a1e-9ba4-a6de015f7dfc", "source": {"name": "Vernon", "slug": "vernon"}, "source_identifier": "30783", "external_references": [], "date_modified": "2025-03-05T13:12:36.982482+11:00"}, {"id": 18711, "name": "Jobs Van Der Dussen", "roles_in_work": [{"id": 2646851, "title": "The Way to better hockey: elementary techniques", "work_id": 74542, "role": "director", "role_id": 938, "is_primary": true}], "also_known_as": "", "date_of_birth": "", "date_of_death": "", "genders": [], "languages": [], "places_of_operation": [], "biography": "", "biography_author": null, "date_of_biography": "2023-08-14T11:44:48.452597+10:00", "external_links": [], "uuid": "301987e6-5208-4cda-8526-e489c122a460", "source": {"name": "Vernon", "slug": "vernon"}, "source_identifier": "30781", "external_references": [], "date_modified": "2025-03-05T13:12:33.103777+11:00"}, {"id": 18710, "name": "Nederlandse Sport Fedeeratie", "roles_in_work": [{"id": 2646850, "title": "The Way to better hockey: elementary techniques", "work_id": 74542, "role": "production company", "role_id": 941, "is_primary": true}], "also_known_as": "", "date_of_birth": "", "date_of_death": "", "genders": [], "languages": [], "places_of_operation": [], "biography": "", "biography_author": null, "date_of_biography": "2023-08-14T11:44:47.826792+10:00", "external_links": [], "uuid": "53bf7b0f-5acf-4947-ad44-fdd92a7c84f2", "source": {"name": "Vernon", "slug": "vernon"}, "source_identifier": "30782", "external_references": [], "date_modified": "2025-03-05T13:12:32.516255+11:00"}, {"id": 18708, "name": "Derek Knight and Partners", "roles_in_work": [{"id": 2398425, "title": "A Way of caring", "work_id": 74539, "role": "production company", "role_id": 941, "is_primary": true}], "also_known_as": "", "date_of_birth": "", "date_of_death": "", "genders": [], "languages": [], "places_of_operation": [], "biography": "", "biography_author": null, "date_of_biography": "2023-08-11T13:23:43.117285+10:00", "external_links": [], "uuid": "81b9554d-c8c8-4813-aa8a-664c0a658937", "source": {"name": "Vernon", "slug": "vernon"}, "source_identifier": "7524", "external_references": [], "date_modified": "2023-08-11T13:23:43.118049+10:00"}, {"id": 18705, "name": "University of Melbourne. Film Society", "roles_in_work": [{"id": 2471262, "title": "Watt's last voyage", "work_id": 74530, "role": "production company", "role_id": 941, "is_primary": true}], "also_known_as": "", "date_of_birth": "", "date_of_death": "", "genders": [], "languages": [], "places_of_operation": [], "biography": "", "biography_author": null, "date_of_biography": "2023-08-14T12:36:10.356558+10:00", "external_links": [], "uuid": "32ae3135-735e-43a2-9921-1daa52bffd6f", "source": {"name": "Vernon", "slug": "vernon"}, "source_identifier": "10454", "external_references": [], "date_modified": "2023-08-14T12:36:10.356885+10:00"}]}