{"count": 28687, "next": "https://api.acmi.net.au/creators/?page=1340", "previous": "https://api.acmi.net.au/creators/?page=1338", "results": [{"id": 38295, "name": "Richard Kuhne", "roles_in_work": [{"id": 2750151, "title": "Two farms: Wisconsin, Hungary", "work_id": 97169, "role": "director", "role_id": 938, "is_primary": true}], "also_known_as": "", "date_of_birth": null, "date_of_death": null, "genders": [], "languages": [], "places_of_operation": [], "biography": "", "biography_author": null, "date_of_biography": null, "external_links": [], "uuid": "f0a2c264-1390-440d-9651-a46090c440a3", "source": {"name": "Vernon", "slug": "vernon"}, "source_identifier": "31984", "external_references": [], "date_modified": "2025-03-13T00:15:46.515581+11:00"}, {"id": 38294, "name": "Malibu Films", "roles_in_work": [{"id": 2750147, "title": "How long is a minute?", "work_id": 97168, "role": "production company", "role_id": 941, "is_primary": true}], "also_known_as": "", "date_of_birth": "", "date_of_death": "", "genders": [], "languages": [], "places_of_operation": [], "biography": "", "biography_author": null, "date_of_biography": "2023-08-11T17:31:52.568388+10:00", "external_links": [], "uuid": "10224ac7-c32d-4b06-b2c6-341312717f8f", "source": {"name": "Vernon", "slug": "vernon"}, "source_identifier": "10268", "external_references": [], "date_modified": "2025-03-13T00:15:42.613444+11:00"}, {"id": 38291, "name": "Mitch Rose", "roles_in_work": [{"id": 2750109, "title": "Prime time", "work_id": 97149, "role": "director", "role_id": 938, "is_primary": true}], "also_known_as": "", "date_of_birth": null, "date_of_death": null, "genders": [], "languages": [], "places_of_operation": [], "biography": "", "biography_author": null, "date_of_biography": null, "external_links": [], "uuid": "9d9048b1-7e68-4c6d-9fa3-9b90dd2518f3", "source": {"name": "Vernon", "slug": "vernon"}, "source_identifier": "25466", "external_references": [], "date_modified": "2025-03-13T00:15:14.182376+11:00"}, {"id": 38290, "name": "Roger Hogen", "roles_in_work": [{"id": 2750107, "title": "The Physicists: playing dice with the universe", "work_id": 97148, "role": "director", "role_id": 938, "is_primary": true}], "also_known_as": "", "date_of_birth": null, "date_of_death": null, "genders": [], "languages": [], "places_of_operation": [], "biography": "", "biography_author": null, "date_of_biography": null, "external_links": [], "uuid": "9eca4c8d-49ed-43c7-98c5-08cccf1c9869", "source": {"name": "Vernon", "slug": "vernon"}, "source_identifier": "28048", "external_references": [], "date_modified": "2025-03-13T00:15:12.750768+11:00"}, {"id": 38289, "name": "D Leiterman", "roles_in_work": [{"id": 2750106, "title": "The Physicists: playing dice with the universe", "work_id": 97148, "role": "producer", "role_id": 1089, "is_primary": true}], "also_known_as": "", "date_of_birth": null, "date_of_death": null, "genders": [], "languages": [], "places_of_operation": [], "biography": "", "biography_author": null, "date_of_biography": null, "external_links": [], "uuid": "ead54108-9a62-4b36-8d7e-4bbbea230a4b", "source": {"name": "Vernon", "slug": "vernon"}, "source_identifier": "17306", "external_references": [], "date_modified": "2025-03-13T00:15:12.023093+11:00"}, {"id": 38288, "name": "South Carolina TV Network", "roles_in_work": [{"id": 2400677, "title": "Area 1: Barbara arrives in Arealand", "work_id": 97142, "role": "production company", "role_id": 941, "is_primary": true}], "also_known_as": "", "date_of_birth": "", "date_of_death": "", "genders": [], "languages": [], "places_of_operation": [], "biography": "", "biography_author": null, "date_of_biography": "2023-08-11T14:11:03.343359+10:00", "external_links": [], "uuid": "05af7ba0-22c5-4095-bbb3-296ad84c56dc", "source": {"name": "Vernon", "slug": "vernon"}, "source_identifier": "12781", "external_references": [], "date_modified": "2023-08-11T14:11:03.343668+10:00"}, {"id": 38287, "name": "William Van Horn", "roles_in_work": [{"id": 2750095, "title": "If you're a horse", "work_id": 97137, "role": "director", "role_id": 938, "is_primary": true}], "also_known_as": "", "date_of_birth": null, "date_of_death": null, "genders": [], "languages": [], "places_of_operation": [], "biography": "", "biography_author": null, "date_of_biography": null, "external_links": [], "uuid": "65144b01-9197-485a-8d52-1dde2aa874fb", "source": {"name": "Vernon", "slug": "vernon"}, "source_identifier": "30506", "external_references": [], "date_modified": "2025-03-13T00:15:03.260318+11:00"}, {"id": 38286, "name": "Paul B. Foster", "roles_in_work": [{"id": 2750094, "title": "If you're a horse", "work_id": 97137, "role": "producer", "role_id": 1089, "is_primary": true}], "also_known_as": "", "date_of_birth": null, "date_of_death": null, "genders": [], "languages": [], "places_of_operation": [], "biography": "", "biography_author": null, "date_of_biography": null, "external_links": [], "uuid": "29d5c4d8-ba1f-4a9a-b750-666de3447d53", "source": {"name": "Vernon", "slug": "vernon"}, "source_identifier": "26167", "external_references": [], "date_modified": "2025-03-13T00:15:02.675676+11:00"}, {"id": 38285, "name": "Xerox Publication Films", "roles_in_work": [{"id": 2750092, "title": "If you're a horse", "work_id": 97137, "role": "production company", "role_id": 941, "is_primary": true}], "also_known_as": "", "date_of_birth": null, "date_of_death": null, "genders": [], "languages": [], "places_of_operation": [], "biography": "", "biography_author": null, "date_of_biography": null, "external_links": [], "uuid": "c882a841-36b7-4fa1-ba08-338eede49d00", "source": {"name": "Vernon", "slug": "vernon"}, "source_identifier": "14481", "external_references": [], "date_modified": "2025-03-13T00:15:01.485554+11:00"}, {"id": 38284, "name": "Eothen-Thomson", "roles_in_work": [{"id": 2750090, "title": "How babies are born", "work_id": 97136, "role": "production company", "role_id": 941, "is_primary": true}], "also_known_as": "", "date_of_birth": null, "date_of_death": null, "genders": [], "languages": [], "places_of_operation": [], "biography": "", "biography_author": null, "date_of_biography": null, "external_links": [], "uuid": "8c7a0c46-9d91-4a73-a90f-27951959cf4c", "source": {"name": "Vernon", "slug": "vernon"}, "source_identifier": "7923", "external_references": [], "date_modified": "2025-03-13T00:12:52.802719+11:00"}]}