{"count": 28687, "next": "https://api.acmi.net.au/creators/?page=1322", "previous": "https://api.acmi.net.au/creators/?page=1320", "results": [{"id": 38557, "name": "Italtoons", "roles_in_work": [{"id": 2751361, "title": "The Last meow: 'Valse Triste', Jean Sibelius", "work_id": 97774, "role": "production company", "role_id": 941, "is_primary": true}, {"id": 2751363, "title": "Let it bee: Concerto in C Minor by Vivaldi", "work_id": 97775, "role": "production company", "role_id": 941, "is_primary": true}, {"id": 2751367, "title": "Paradise lost: The Firebird by Stravinsky from Allegro non Troppo", "work_id": 97777, "role": "production company", "role_id": 941, "is_primary": true}, {"id": 2751365, "title": "A Merry Chase: Prelude a L'apres midi d'un faune by Claude Debussy", "work_id": 97776, "role": "production company", "role_id": 941, "is_primary": true}, {"id": 2751360, "title": "From one to many: Dvorak's 'Slavic Dance No. 7'", "work_id": 97773, "role": "production company", "role_id": 941, "is_primary": true}], "also_known_as": "", "date_of_birth": "", "date_of_death": "", "genders": [], "languages": [], "places_of_operation": [], "biography": "", "biography_author": null, "date_of_biography": "2023-08-11T16:52:25.723630+10:00", "external_links": [], "uuid": "f724a642-749b-447d-bee1-7c0a460150c5", "source": {"name": "Vernon", "slug": "vernon"}, "source_identifier": "9476", "external_references": [], "date_modified": "2025-03-13T00:41:36.203307+11:00"}, {"id": 38556, "name": "Laser Film Corporation", "roles_in_work": [{"id": 2751353, "title": "Interviews with My Lai veterans", "work_id": 97770, "role": "production company", "role_id": 941, "is_primary": true}, {"id": 2650323, "title": "Road movie = Janice", "work_id": 115649, "role": "production company", "role_id": 941, "is_primary": true}], "also_known_as": "", "date_of_birth": null, "date_of_death": null, "genders": [], "languages": [], "places_of_operation": [], "biography": "", "biography_author": null, "date_of_biography": null, "external_links": [], "uuid": "c2a24500-40b4-4eb5-8abd-7fc1ea906e30", "source": {"name": "Vernon", "slug": "vernon"}, "source_identifier": "9909", "external_references": [], "date_modified": "2025-03-13T00:41:26.078043+11:00"}, {"id": 38554, "name": "Film Arts", "roles_in_work": [{"id": 2752181, "title": "For the love of a horse", "work_id": 98182, "role": "production company", "role_id": 941, "is_primary": true}, {"id": 2751348, "title": "Track stars: the unseen heroes of movie sound", "work_id": 97766, "role": "production company", "role_id": 941, "is_primary": true}], "also_known_as": "", "date_of_birth": "", "date_of_death": "", "genders": [], "languages": [], "places_of_operation": [], "biography": "", "biography_author": null, "date_of_biography": "2023-08-11T16:41:50.229084+10:00", "external_links": [], "uuid": "6f7b54a4-139a-43dd-a363-5565eafdc939", "source": {"name": "Vernon", "slug": "vernon"}, "source_identifier": "8181", "external_references": [], "date_modified": "2025-03-13T01:00:26.869436+11:00"}, {"id": 38553, "name": "Ian Paterson", "roles_in_work": [{"id": 2751346, "title": "Love of life", "work_id": 97765, "role": "producer", "role_id": 1089, "is_primary": true}], "also_known_as": "", "date_of_birth": null, "date_of_death": null, "genders": [], "languages": [], "places_of_operation": [], "biography": "", "biography_author": null, "date_of_biography": null, "external_links": [], "uuid": "0cdc6c8e-302f-4ebc-9818-2a77437e723b", "source": {"name": "Vernon", "slug": "vernon"}, "source_identifier": "20786", "external_references": [], "date_modified": "2025-03-13T00:41:20.951281+11:00"}, {"id": 38552, "name": "Norfolk Communications", "roles_in_work": [{"id": 2751345, "title": "Love of life", "work_id": 97765, "role": "production company", "role_id": 941, "is_primary": true}], "also_known_as": "", "date_of_birth": null, "date_of_death": null, "genders": [], "languages": [], "places_of_operation": [], "biography": "", "biography_author": null, "date_of_biography": null, "external_links": [], "uuid": "4e960863-f955-435a-858c-fb47c24a71f5", "source": {"name": "Vernon", "slug": "vernon"}, "source_identifier": "10986", "external_references": [], "date_modified": "2025-03-13T00:41:20.357564+11:00"}, {"id": 38551, "name": "Kent Stetson", "roles_in_work": [{"id": 2751344, "title": "Clockworks", "work_id": 97764, "role": "director", "role_id": 938, "is_primary": true}], "also_known_as": "", "date_of_birth": "", "date_of_death": "", "genders": [], "languages": [], "places_of_operation": [], "biography": "", "biography_author": null, "date_of_biography": "2023-08-11T15:30:00.915788+10:00", "external_links": [], "uuid": "c595bc8d-e07a-4ca2-a37e-76ca00519d0f", "source": {"name": "Vernon", "slug": "vernon"}, "source_identifier": "23268", "external_references": [], "date_modified": "2025-03-13T00:41:19.541681+11:00"}, {"id": 38550, "name": "Niall Burnett", "roles_in_work": [{"id": 2751343, "title": "Clockworks", "work_id": 97764, "role": "producer", "role_id": 1089, "is_primary": true}], "also_known_as": "", "date_of_birth": "", "date_of_death": "", "genders": [], "languages": [], "places_of_operation": [], "biography": "", "biography_author": null, "date_of_biography": "2023-08-11T15:30:00.238208+10:00", "external_links": [], "uuid": "6965008c-f65a-40fe-bae3-f69975d47507", "source": {"name": "Vernon", "slug": "vernon"}, "source_identifier": "25702", "external_references": [], "date_modified": "2025-03-13T00:41:18.952795+11:00"}, {"id": 38549, "name": "Points East Productions", "roles_in_work": [{"id": 2751342, "title": "Clockworks", "work_id": 97764, "role": "production company", "role_id": 941, "is_primary": true}], "also_known_as": "", "date_of_birth": "", "date_of_death": "", "genders": [], "languages": [], "places_of_operation": [], "biography": "", "biography_author": null, "date_of_biography": "2023-08-11T15:29:59.599679+10:00", "external_links": [], "uuid": "e2d13220-6093-46d7-a0d0-c83a33b78a39", "source": {"name": "Vernon", "slug": "vernon"}, "source_identifier": "11543", "external_references": [], "date_modified": "2025-03-13T00:41:18.356166+11:00"}, {"id": 38548, "name": "J. Donald McIntyre", "roles_in_work": [{"id": 2751336, "title": "The Navajo: shepherds of the desert", "work_id": 97761, "role": "producer", "role_id": 1089, "is_primary": true}], "also_known_as": "", "date_of_birth": null, "date_of_death": null, "genders": [], "languages": [], "places_of_operation": [], "biography": "", "biography_author": null, "date_of_biography": null, "external_links": [], "uuid": "e892b9ab-6305-41fb-a2bc-1d4517356038", "source": {"name": "Vernon", "slug": "vernon"}, "source_identifier": "18433", "external_references": [], "date_modified": "2025-03-13T00:41:14.023092+11:00"}, {"id": 38547, "name": "Southventure Films", "roles_in_work": [{"id": 2751334, "title": "The Navajo: shepherds of the desert", "work_id": 97761, "role": "production company", "role_id": 941, "is_primary": true}], "also_known_as": "", "date_of_birth": null, "date_of_death": null, "genders": [], "languages": [], "places_of_operation": [], "biography": "", "biography_author": null, "date_of_biography": null, "external_links": [], "uuid": "ece1198c-8ebc-4708-bd48-6c92a1e44434", "source": {"name": "Vernon", "slug": "vernon"}, "source_identifier": "12806", "external_references": [], "date_modified": "2025-03-13T00:41:12.830834+11:00"}]}