{"count": 28684, "next": "https://api.acmi.net.au/creators/?page=17", "previous": "https://api.acmi.net.au/creators/?page=15", "results": [{"id": 87542, "name": "Bob Walters", "roles_in_work": [{"id": 2644980, "title": "The Golden Jubilee of the CRB: Victoria 1913-1963", "work_id": 68118, "role": "narrator", "role_id": 499, "is_primary": false}], "also_known_as": "", "date_of_birth": null, "date_of_death": null, "genders": [], "languages": [], "places_of_operation": [], "biography": "", "biography_author": null, "date_of_biography": null, "external_links": [], "uuid": "5a9d8cac-44ca-445b-b6d6-1e369544cf38", "source": {"name": "Vernon", "slug": "vernon"}, "source_identifier": "40789", "external_references": [], "date_modified": "2025-03-05T12:30:41.287602+11:00"}, {"id": 87541, "name": "Amiel Curtin", "roles_in_work": [{"id": 2512057, "title": "I  See Seaweed - The Drones", "work_id": 122544, "role": "director", "role_id": 938, "is_primary": true}], "also_known_as": "", "date_of_birth": null, "date_of_death": null, "genders": [], "languages": [], "places_of_operation": [], "biography": "", "biography_author": null, "date_of_biography": null, "external_links": [], "uuid": "d7351b12-bf2c-4bb7-a89f-9c45928a8806", "source": {"name": "Vernon", "slug": "vernon"}, "source_identifier": "40780", "external_references": [], "date_modified": "2024-02-28T03:45:33.484514+11:00"}, {"id": 87540, "name": "Renee Kypriotis", "roles_in_work": [{"id": 2512056, "title": "Burna Fone - Pania", "work_id": 122543, "role": "director", "role_id": 938, "is_primary": true}], "also_known_as": "", "date_of_birth": null, "date_of_death": null, "genders": [], "languages": [], "places_of_operation": [], "biography": "", "biography_author": null, "date_of_biography": null, "external_links": [], "uuid": "fadd64f0-d54b-4322-9c67-8ca0bc4b71c5", "source": {"name": "Vernon", "slug": "vernon"}, "source_identifier": "40779", "external_references": [], "date_modified": "2024-02-28T03:45:32.654793+11:00"}, {"id": 87539, "name": "Modu Sesay", "roles_in_work": [{"id": 2512055, "title": "Energy - Sampa the Great ft. Nadeem Din-Gabisi", "work_id": 122542, "role": "director", "role_id": 938, "is_primary": true}], "also_known_as": "", "date_of_birth": null, "date_of_death": null, "genders": [], "languages": [], "places_of_operation": [], "biography": "", "biography_author": null, "date_of_biography": null, "external_links": [], "uuid": "f90f8da6-72b9-463d-a42b-b785b733c43f", "source": {"name": "Vernon", "slug": "vernon"}, "source_identifier": "40778", "external_references": [], "date_modified": "2024-02-28T03:45:31.822480+11:00"}, {"id": 87538, "name": "Kalanjay Dhir", "roles_in_work": [{"id": 2512054, "title": "Reno - Teether and Kuya Neil", "work_id": 122541, "role": "director", "role_id": 938, "is_primary": true}], "also_known_as": "", "date_of_birth": null, "date_of_death": null, "genders": [], "languages": [], "places_of_operation": [], "biography": "", "biography_author": null, "date_of_biography": null, "external_links": [], "uuid": "a955ce4e-6279-4f8e-8416-d371b6dc3614", "source": {"name": "Vernon", "slug": "vernon"}, "source_identifier": "40777", "external_references": [], "date_modified": "2024-02-28T03:45:30.982046+11:00"}, {"id": 87537, "name": "Triana Hernandez", "roles_in_work": [{"id": 2512053, "title": "Stay in Bed - Alice Skye", "work_id": 122540, "role": "director", "role_id": 938, "is_primary": true}], "also_known_as": "", "date_of_birth": null, "date_of_death": null, "genders": [], "languages": [], "places_of_operation": [], "biography": "", "biography_author": null, "date_of_biography": null, "external_links": [], "uuid": "72057495-08ac-4fc1-a269-e48dce418879", "source": {"name": "Vernon", "slug": "vernon"}, "source_identifier": "40776", "external_references": [], "date_modified": "2024-02-28T03:45:30.165160+11:00"}, {"id": 87536, "name": "Jenni Meaney", "roles_in_work": [{"id": 2511215, "title": "Two Girls and a Baby", "work_id": 87048, "role": "director of photography", "role_id": 925, "is_primary": false}], "also_known_as": "", "date_of_birth": null, "date_of_death": null, "genders": [], "languages": [], "places_of_operation": [], "biography": "", "biography_author": null, "date_of_biography": null, "external_links": [], "uuid": "0b036a4c-018c-4872-8138-d730da37c218", "source": {"name": "Vernon", "slug": "vernon"}, "source_identifier": "40766", "external_references": [], "date_modified": "2024-02-21T03:35:44.927594+11:00"}, {"id": 87535, "name": "Niky Wendt", "roles_in_work": [{"id": 2511214, "title": "Two Girls and a Baby", "work_id": 87048, "role": "cast", "role_id": 33, "is_primary": false}], "also_known_as": "", "date_of_birth": null, "date_of_death": null, "genders": [], "languages": [], "places_of_operation": [], "biography": "", "biography_author": null, "date_of_biography": null, "external_links": [], "uuid": "83d6d299-9469-4bc5-9d7a-0d8fa782fa83", "source": {"name": "Vernon", "slug": "vernon"}, "source_identifier": "40765", "external_references": [], "date_modified": "2024-02-21T03:35:44.229343+11:00"}, {"id": 87534, "name": "Stanislava Pinchuk", "roles_in_work": [{"id": 2685639, "title": "The Theatre of War", "work_id": 122538, "role": "artist", "role_id": 505, "is_primary": true}, {"id": 2685643, "title": "The Theatre of War", "work_id": 122538, "role": "director of photography", "role_id": 925, "is_primary": false}], "also_known_as": "", "date_of_birth": null, "date_of_death": null, "genders": [], "languages": [], "places_of_operation": [], "biography": "", "biography_author": null, "date_of_biography": null, "external_links": [], "uuid": "cb91a08c-141b-4eaa-877b-a798d4bbde4b", "source": {"name": "Vernon", "slug": "vernon"}, "source_identifier": "39495", "external_references": [], "date_modified": "2025-03-11T11:56:36.564359+11:00"}, {"id": 87533, "name": "Anastasia Gaff", "roles_in_work": [{"id": 2509080, "title": "Saltburn trend", "work_id": 122537, "role": "creator", "role_id": 968, "is_primary": true}], "also_known_as": "", "date_of_birth": null, "date_of_death": null, "genders": [], "languages": [], "places_of_operation": [], "biography": "", "biography_author": null, "date_of_biography": null, "external_links": [], "uuid": "849c7e73-2fec-4093-a48a-39268aae4480", "source": {"name": "Vernon", "slug": "vernon"}, "source_identifier": "40746", "external_references": [], "date_modified": "2024-01-24T04:01:42.904264+11:00"}]}