{"count": 28687, "next": "https://api.acmi.net.au/creators/?page=1028", "previous": "https://api.acmi.net.au/creators/?page=1026", "results": [{"id": 75312, "name": "Mildred Jordon", "roles_in_work": [{"id": 2296807, "title": "Shakespeare's theatre: The Globe Playhouse", "work_id": 72719, "role": "co-director", "role_id": 959, "is_primary": true}], "also_known_as": "", "date_of_birth": "", "date_of_death": "", "genders": [], "languages": [], "places_of_operation": [], "biography": "", "biography_author": null, "date_of_biography": "2023-05-09T18:29:01.966427+10:00", "external_links": [], "uuid": "1e2417fa-97e1-465d-a386-2d1df410b8e4", "source": {"name": "Vernon", "slug": "vernon"}, "source_identifier": "25427", "external_references": [{"id": 33760, "source": {"name": "Wikidata", "slug": "wikidata"}, "source_identifier": "Q121270604"}], "date_modified": "2023-09-05T23:15:57.809123+10:00"}, {"id": 75311, "name": "John Barrymore", "roles_in_work": [{"id": 2646281, "title": "Shakespeare and his stage: Approaches to Hamlet", "work_id": 72715, "role": "cast", "role_id": 33, "is_primary": false}], "also_known_as": "", "date_of_birth": "1882-02-15", "date_of_death": "1942-05-29", "genders": [{"id": 9, "name": "Male", "slug": "male"}], "languages": [{"id": 1, "name": "English", "slug": "english"}], "places_of_operation": [{"id": 1, "name": "United States of America", "slug": "united-states-of-america"}], "biography": "John Barrymore (born John Sidney Blyth; February 14 or 15, 1882 – May 29, 1942) was an American actor on stage, screen and radio. A member of the Drew and Barrymore theatrical families, he initially tried to avoid the stage, and briefly attempted a career as an artist, but appeared on stage together with his father Maurice in 1900, and then his sister Ethel the following year. He began his career in 1903 and first gained attention as a stage actor in light comedy, then high drama, culminating in productions of Justice (1916), Richard III (1920) and Hamlet (1922); his portrayal of Hamlet led to him being called the \"greatest living American tragedian\".After a success as Hamlet in London in 1925, Barrymore left the stage for 14 years and instead focused entirely on films. In the silent film era, he was well received in such pictures as Dr. Jekyll and Mr. Hyde (1920), Sherlock Holmes (1922) and The Sea Beast (1926). During this period, he gained his nickname, the Great Profile. His stage-trained voice proved an asset when sound films were introduced, and three of his works, Grand Hotel (1932), Twentieth Century (1934) and Midnight (1939) have been inducted into the National Film Registry.\nBarrymore's personal life has been the subject of much attention before and since his death. He struggled with alcohol abuse from the age of 14, was married and divorced four times, and declared bankruptcy later in life. Much of his later work involved self-parody and the portrayal of drunken has-beens. His obituary in The Washington Post observed that \"with the passing of the years – and as his private life became more public – he became, despite his genius in the theater, a tabloid character.\" Although film historians have opined, that Barrymore's \"contribution to the art of cinematic acting began to fade\" after the mid-1930s, Barrymore's biographer, Martin Norden, considers him to be \"perhaps the most influential and idolized actor of his day\".", "biography_author": "Wikidata", "date_of_biography": "2023-09-05T21:32:15.617036+10:00", "external_links": [{"id": 5917, "uri": "https://en.wikipedia.org/wiki/John_Barrymore"}], "uuid": "c526b36c-03a1-424d-b9f5-a54741c6f70d", "source": {"name": "Vernon", "slug": "vernon"}, "source_identifier": "31764", "external_references": [{"id": 32857, "source": {"name": "Wikidata", "slug": "wikidata"}, "source_identifier": "Q95034"}, {"id": 54856, "source": {"name": "VIAF", "slug": "viaf"}, "source_identifier": "79119083"}, {"id": 54857, "source": {"name": "LOC Auth", "slug": "loc-auth"}, "source_identifier": "n80017002"}, {"id": 54858, "source": {"name": "WorldCat", "slug": "worldcat"}, "source_identifier": "lccn-n80017002"}], "date_modified": "2025-03-05T13:00:52.141342+11:00"}, {"id": 75310, "name": "John Gielgud", "roles_in_work": [{"id": 2646279, "title": "Shakespeare and his stage: Approaches to Hamlet", "work_id": 72715, "role": "narrator", "role_id": 499, "is_primary": false}], "also_known_as": "", "date_of_birth": "1904", "date_of_death": "", "genders": [], "languages": [], "places_of_operation": [], "biography": "", "biography_author": null, "date_of_biography": "2023-05-09T18:28:46.275387+10:00", "external_links": [], "uuid": "abea53cf-b1f8-46be-829b-59602b15a75c", "source": {"name": "Vernon", "slug": "vernon"}, "source_identifier": "399", "external_references": [], "date_modified": "2025-03-05T13:00:50.959253+11:00"}, {"id": 75309, "name": "Dennis Gillson", "roles_in_work": [{"id": 895756, "title": "The Sexton", "work_id": 72704, "role": "co-director", "role_id": 959, "is_primary": true}], "also_known_as": "", "date_of_birth": null, "date_of_death": null, "genders": [], "languages": [], "places_of_operation": [], "biography": "", "biography_author": null, "date_of_biography": null, "external_links": [], "uuid": "76446a8d-3dfb-4721-879e-863b13765982", "source": {"name": "Vernon", "slug": "vernon"}, "source_identifier": null, "external_references": [{"id": 41157, "source": {"name": "Wikidata", "slug": "wikidata"}, "source_identifier": "Q121036564"}], "date_modified": "2023-09-05T19:08:43.231410+10:00"}, {"id": 75308, "name": "John O. Douglas", "roles_in_work": [{"id": 2646265, "title": "Servant of the people", "work_id": 72680, "role": "producer/director", "role_id": 31, "is_primary": true}], "also_known_as": "", "date_of_birth": "", "date_of_death": "", "genders": [], "languages": [], "places_of_operation": [], "biography": "", "biography_author": null, "date_of_biography": "2023-05-09T18:15:29.482042+10:00", "external_links": [], "uuid": "0e1b63ce-dc79-412f-adf7-98ecbfe1df90", "source": {"name": "Vernon", "slug": "vernon"}, "source_identifier": "31380", "external_references": [{"id": 50812, "source": {"name": "Wikidata", "slug": "wikidata"}, "source_identifier": "Q121360991"}], "date_modified": "2025-03-05T13:00:41.340566+11:00"}, {"id": 75307, "name": "Normand Gregoire", "roles_in_work": [{"id": 2283456, "title": "Series 4", "work_id": 72677, "role": "director", "role_id": 938, "is_primary": true}, {"id": 2749598, "title": "Passage", "work_id": 96884, "role": "director", "role_id": 938, "is_primary": true}, {"id": 2615608, "title": "Horizon", "work_id": 85720, "role": "co-director", "role_id": 959, "is_primary": true}], "also_known_as": "", "date_of_birth": "", "date_of_death": "", "genders": [], "languages": [], "places_of_operation": [], "biography": "", "biography_author": null, "date_of_biography": "2023-05-09T18:05:31.673139+10:00", "external_links": [], "uuid": "e3b0286d-38c4-40ff-b859-b04acf05d665", "source": {"name": "Vernon", "slug": "vernon"}, "source_identifier": "25920", "external_references": [{"id": 32780, "source": {"name": "Wikidata", "slug": "wikidata"}, "source_identifier": "Q121078910"}], "date_modified": "2025-03-13T00:02:17.532569+11:00"}, {"id": 75306, "name": "Rene Bonniere", "roles_in_work": [{"id": 765961, "title": "The War is over", "work_id": 78005, "role": "director", "role_id": 938, "is_primary": true}, {"id": 2750683, "title": "Voice of the fugitive", "work_id": 97452, "role": "director", "role_id": 938, "is_primary": true}, {"id": 2074389, "title": "A Sense of place", "work_id": 72661, "role": "director", "role_id": 938, "is_primary": true}, {"id": 2102978, "title": "Attiuk", "work_id": 73144, "role": "director", "role_id": 938, "is_primary": true}], "also_known_as": "", "date_of_birth": "1928-03-10", "date_of_death": "", "genders": [{"id": 9, "name": "Male", "slug": "male"}], "languages": [{"id": 4, "name": "French", "slug": "french"}], "places_of_operation": [{"id": 17, "name": "France", "slug": "france"}], "biography": "René Gabriel Bonnière (born 10 March 1928) is a Canadian film director and editor, originally from France. He has had a prolific career, working in television and film in both French and English productions.", "biography_author": "Wikidata", "date_of_biography": "2023-09-06T00:25:28.304779+10:00", "external_links": [{"id": 6124, "uri": "https://en.wikipedia.org/wiki/Ren%C3%A9_Bonni%C3%A8re"}], "uuid": "e7904b27-d60a-490b-8b6a-785506cf3f84", "source": {"name": "Vernon", "slug": "vernon"}, "source_identifier": "27253", "external_references": [{"id": 34290, "source": {"name": "Wikidata", "slug": "wikidata"}, "source_identifier": "Q1449299"}, {"id": 55607, "source": {"name": "VIAF", "slug": "viaf"}, "source_identifier": "106101680"}, {"id": 55608, "source": {"name": "LOC Auth", "slug": "loc-auth"}, "source_identifier": "n2012008390"}, {"id": 55609, "source": {"name": "WorldCat", "slug": "worldcat"}, "source_identifier": "lccn-n2012008390"}], "date_modified": "2025-03-13T00:27:05.154077+11:00"}, {"id": 75305, "name": "Wil Berg", "roles_in_work": [{"id": 2270350, "title": "Selections from a child's garden of verses", "work_id": 72641, "role": "producer/director", "role_id": 31, "is_primary": true}], "also_known_as": "", "date_of_birth": "", "date_of_death": "", "genders": [], "languages": [], "places_of_operation": [], "biography": "", "biography_author": null, "date_of_biography": "2023-05-09T17:44:19.258344+10:00", "external_links": [], "uuid": "5d1ad53b-31c3-4995-807b-95a88b322eb3", "source": {"name": "Vernon", "slug": "vernon"}, "source_identifier": "30835", "external_references": [{"id": 51234, "source": {"name": "Wikidata", "slug": "wikidata"}, "source_identifier": "Q121361121"}], "date_modified": "2023-09-06T02:13:35.488092+10:00"}, {"id": 75304, "name": "Emile Cohl", "roles_in_work": [{"id": 2074293, "title": "A Selection of early films: 1896-1913", "work_id": 72640, "role": "co-director", "role_id": 959, "is_primary": true}], "also_known_as": "", "date_of_birth": "1857", "date_of_death": "1938", "genders": [], "languages": [], "places_of_operation": [], "biography": "", "biography_author": null, "date_of_biography": "2023-05-09T11:38:34.020847+10:00", "external_links": [], "uuid": "f5d5bab3-d09a-4c6d-8451-6f832837f642", "source": {"name": "Vernon", "slug": "vernon"}, "source_identifier": "18761", "external_references": [{"id": 32491, "source": {"name": "Wikidata", "slug": "wikidata"}, "source_identifier": "Q121078747"}], "date_modified": "2023-09-05T19:31:52.860389+10:00"}, {"id": 75303, "name": "Robin Laurie", "roles_in_work": [{"id": 2392082, "title": "Seeing red and feeling blue", "work_id": 72631, "role": "cast", "role_id": 33, "is_primary": false}], "also_known_as": "", "date_of_birth": "", "date_of_death": "", "genders": [], "languages": [], "places_of_operation": [], "biography": "", "biography_author": null, "date_of_biography": "2023-08-09T03:50:24.895053+10:00", "external_links": [], "uuid": "73f2432c-c146-4f44-b3d7-01370acd540e", "source": {"name": "Vernon", "slug": "vernon"}, "source_identifier": "35337", "external_references": [{"id": 42415, "source": {"name": "Wikidata", "slug": "wikidata"}, "source_identifier": "Q121144084"}], "date_modified": "2023-09-06T00:49:23.517252+10:00"}]}