{"count": 28687, "next": "https://api.acmi.net.au/creators/?page=2719", "previous": "https://api.acmi.net.au/creators/?page=2717", "results": [{"id": 11185, "name": "Steve Pasvolsky", "roles_in_work": [{"id": 2641137, "title": "Inja = Dog", "work_id": 110309, "role": "director", "role_id": 938, "is_primary": true}, {"id": 2640144, "title": "Left lane ends", "work_id": 110513, "role": "producer", "role_id": 1089, "is_primary": true}, {"id": 2639975, "title": "Bias", "work_id": 110527, "role": "producer", "role_id": 1089, "is_primary": true}], "also_known_as": "", "date_of_birth": null, "date_of_death": "", "genders": [{"id": 9, "name": "Male", "slug": "male"}], "languages": [{"id": 1, "name": "English", "slug": "english"}], "places_of_operation": [{"id": 175, "name": "South Africa", "slug": "south-africa"}], "biography": "", "biography_author": null, "date_of_biography": "2023-05-09T20:10:15.840728+10:00", "external_links": [], "uuid": "816c0fc2-ee6e-496f-90ed-c98ba0a77ac0", "source": {"name": "Vernon", "slug": "vernon"}, "source_identifier": "2911", "external_references": [{"id": 37060, "source": {"name": "Wikidata", "slug": "wikidata"}, "source_identifier": "Q22115024"}, {"id": 55878, "source": {"name": "VIAF", "slug": "viaf"}, "source_identifier": "57152682589123312574"}, {"id": 55879, "source": {"name": "LOC Auth", "slug": "loc-auth"}, "source_identifier": "no2005058636"}], "date_modified": "2025-03-05T11:32:20.015593+11:00"}, {"id": 11184, "name": "Chryss Carr", "roles_in_work": [{"id": 2641131, "title": "Basilisk stare", "work_id": 110308, "role": "producer", "role_id": 1089, "is_primary": true}], "also_known_as": "", "date_of_birth": "", "date_of_death": "", "genders": [], "languages": [], "places_of_operation": [], "biography": "", "biography_author": null, "date_of_biography": "2023-05-09T13:19:15.318818+10:00", "external_links": [], "uuid": "e4a0f8fc-ec2d-49b6-8d19-63758c3acfb7", "source": {"name": "Vernon", "slug": "vernon"}, "source_identifier": "2910", "external_references": [{"id": 41159, "source": {"name": "Wikidata", "slug": "wikidata"}, "source_identifier": "Q121144005"}], "date_modified": "2025-03-05T11:32:17.994953+11:00"}, {"id": 11183, "name": "Mis Kamieniak", "roles_in_work": [{"id": 2641129, "title": "Basilisk stare", "work_id": 110308, "role": "director", "role_id": 938, "is_primary": true}], "also_known_as": "", "date_of_birth": "", "date_of_death": "", "genders": [], "languages": [], "places_of_operation": [], "biography": "", "biography_author": null, "date_of_biography": "2023-05-09T13:19:15.090076+10:00", "external_links": [], "uuid": "072df254-6221-4bd3-962f-b4fe20eed880", "source": {"name": "Vernon", "slug": "vernon"}, "source_identifier": "2909", "external_references": [{"id": 37268, "source": {"name": "Wikidata", "slug": "wikidata"}, "source_identifier": "Q121271231"}], "date_modified": "2025-03-05T11:32:17.404325+11:00"}, {"id": 11182, "name": "Peter Deske", "roles_in_work": [{"id": 2641118, "title": "Vasili's garden", "work_id": 110306, "role": "producer", "role_id": 1089, "is_primary": true}], "also_known_as": "", "date_of_birth": "", "date_of_death": "", "genders": [], "languages": [], "places_of_operation": [], "biography": "", "biography_author": null, "date_of_biography": "2023-08-14T12:06:37.866747+10:00", "external_links": [], "uuid": "fd78289d-1331-4ca4-88d9-19ed3aebb82d", "source": {"name": "Vernon", "slug": "vernon"}, "source_identifier": "3601", "external_references": [], "date_modified": "2025-03-05T11:32:13.930617+11:00"}, {"id": 11181, "name": "Vasili Kanidiadis", "roles_in_work": [{"id": 2641116, "title": "Vasili's garden", "work_id": 110306, "role": "producer", "role_id": 1089, "is_primary": true}], "also_known_as": "", "date_of_birth": "", "date_of_death": "", "genders": [], "languages": [], "places_of_operation": [], "biography": "", "biography_author": null, "date_of_biography": "2023-08-14T12:06:37.202847+10:00", "external_links": [], "uuid": "9706d1cf-c358-4b7a-bde2-60f88f95043f", "source": {"name": "Vernon", "slug": "vernon"}, "source_identifier": "3600", "external_references": [], "date_modified": "2025-03-05T11:32:13.337721+11:00"}, {"id": 11180, "name": "Stephen Wools", "roles_in_work": [{"id": 2641112, "title": "RAW. Episode 3", "work_id": 110305, "role": "director", "role_id": 938, "is_primary": true}], "also_known_as": "", "date_of_birth": null, "date_of_death": null, "genders": [], "languages": [], "places_of_operation": [], "biography": "", "biography_author": null, "date_of_biography": null, "external_links": [], "uuid": "2bac6aef-06ca-415b-adb9-c11187e4fe7f", "source": {"name": "Vernon", "slug": "vernon"}, "source_identifier": "3607", "external_references": [], "date_modified": "2025-03-05T11:32:11.921068+11:00"}, {"id": 11179, "name": "Josh Lefers", "roles_in_work": [{"id": 2641110, "title": "RAW. Episode 3", "work_id": 110305, "role": "director", "role_id": 938, "is_primary": true}], "also_known_as": "", "date_of_birth": null, "date_of_death": null, "genders": [], "languages": [], "places_of_operation": [], "biography": "", "biography_author": null, "date_of_biography": null, "external_links": [], "uuid": "eef22dbd-9879-4624-823a-31a2ad20da33", "source": {"name": "Vernon", "slug": "vernon"}, "source_identifier": "3606", "external_references": [], "date_modified": "2025-03-05T11:32:11.337999+11:00"}, {"id": 11178, "name": "Nick McInerney", "roles_in_work": [{"id": 2641108, "title": "RAW. Episode 3", "work_id": 110305, "role": "director", "role_id": 938, "is_primary": true}], "also_known_as": "", "date_of_birth": null, "date_of_death": null, "genders": [], "languages": [], "places_of_operation": [], "biography": "", "biography_author": null, "date_of_biography": null, "external_links": [], "uuid": "53f61261-e874-4335-9674-bda085ecf8a9", "source": {"name": "Vernon", "slug": "vernon"}, "source_identifier": "3605", "external_references": [], "date_modified": "2025-03-05T11:32:10.628306+11:00"}, {"id": 11177, "name": "Big Dog Productions", "roles_in_work": [{"id": 2641107, "title": "RAW. Episode 3", "work_id": 110305, "role": "production company", "role_id": 941, "is_primary": true}], "also_known_as": "", "date_of_birth": null, "date_of_death": null, "genders": [], "languages": [], "places_of_operation": [], "biography": "", "biography_author": null, "date_of_biography": null, "external_links": [], "uuid": "1fd3ac89-2ff9-4daf-b523-fc96ee132bd5", "source": {"name": "Vernon", "slug": "vernon"}, "source_identifier": "2901", "external_references": [], "date_modified": "2025-03-05T11:32:10.043705+11:00"}, {"id": 11176, "name": "Linda Marson", "roles_in_work": [{"id": 2641105, "title": "Ticket, passport and tarot cards. Episode 18. The Star", "work_id": 110304, "role": "producer", "role_id": 1089, "is_primary": true}], "also_known_as": "", "date_of_birth": null, "date_of_death": null, "genders": [], "languages": [], "places_of_operation": [], "biography": "", "biography_author": null, "date_of_biography": null, "external_links": [], "uuid": "cd837777-282a-4689-864e-a6e6ceacda4b", "source": {"name": "Vernon", "slug": "vernon"}, "source_identifier": "2902", "external_references": [], "date_modified": "2025-03-05T11:32:08.653504+11:00"}]}