{"count": 28684, "next": "https://api.acmi.net.au/creators/?page=2475", "previous": "https://api.acmi.net.au/creators/?page=2473", "results": [{"id": 14215, "name": "F M Productions", "roles_in_work": [{"id": 2680791, "title": "Cycle logic - cycle safety", "work_id": 66557, "role": "production company", "role_id": 941, "is_primary": true}], "also_known_as": "", "date_of_birth": "", "date_of_death": "", "genders": [], "languages": [], "places_of_operation": [], "biography": "", "biography_author": null, "date_of_biography": "2023-08-11T15:52:15.537045+10:00", "external_links": [], "uuid": "138c6ca6-3984-4e3e-9dd7-fbfdbed58c80", "source": {"name": "Vernon", "slug": "vernon"}, "source_identifier": "8061", "external_references": [], "date_modified": "2025-03-07T00:42:18.799810+11:00"}, {"id": 14214, "name": "Aerospace Audio-Visual Services", "roles_in_work": [{"id": 2680790, "title": "Cycle logic - cycle safety", "work_id": 66557, "role": "production company", "role_id": 941, "is_primary": true}], "also_known_as": "", "date_of_birth": "", "date_of_death": "", "genders": [], "languages": [], "places_of_operation": [], "biography": "", "biography_author": null, "date_of_biography": "2023-08-11T15:52:14.896520+10:00", "external_links": [], "uuid": "c1091790-131e-4a33-922c-422f8fa8bdea", "source": {"name": "Vernon", "slug": "vernon"}, "source_identifier": "5046", "external_references": [], "date_modified": "2025-03-07T00:42:18.212915+11:00"}, {"id": 14213, "name": "Peter M Sims", "roles_in_work": [{"id": 2680789, "title": "Cybernetica", "work_id": 66556, "role": "director", "role_id": 938, "is_primary": true}, {"id": 2714129, "title": "Four back rooms", "work_id": 67757, "role": "co-director", "role_id": 959, "is_primary": true}], "also_known_as": "", "date_of_birth": null, "date_of_death": null, "genders": [], "languages": [], "places_of_operation": [], "biography": "", "biography_author": null, "date_of_biography": null, "external_links": [], "uuid": "a3112624-3428-4941-a74f-f04722239cb2", "source": {"name": "Vernon", "slug": "vernon"}, "source_identifier": "26624", "external_references": [], "date_modified": "2025-03-12T01:01:31.902086+11:00"}, {"id": 14212, "name": "Jill Wood", "roles_in_work": [{"id": 2756676, "title": "The Human factor", "work_id": 68667, "role": "producer", "role_id": 1089, "is_primary": true}, {"id": 2756668, "title": "Playing it through", "work_id": 71658, "role": "producer", "role_id": 1089, "is_primary": true}, {"id": 2756664, "title": "The Use of operational research - Part 1 cutting the queue", "work_id": 66555, "role": "producer", "role_id": 1089, "is_primary": true}], "also_known_as": "", "date_of_birth": "", "date_of_death": "", "genders": [], "languages": [], "places_of_operation": [], "biography": "", "biography_author": null, "date_of_biography": "2023-05-09T20:02:52.854200+10:00", "external_links": [], "uuid": "e94a38ce-36af-404b-8120-51ee621ab111", "source": {"name": "Vernon", "slug": "vernon"}, "source_identifier": "21854", "external_references": [{"id": 35223, "source": {"name": "Wikidata", "slug": "wikidata"}, "source_identifier": "Q121270608"}], "date_modified": "2025-03-13T14:41:13.976883+11:00"}, {"id": 14211, "name": "Lawrence Crabb", "roles_in_work": [{"id": 2713199, "title": "Experiment in teaching", "work_id": 67290, "role": "director", "role_id": 938, "is_primary": true}, {"id": 2680784, "title": "Cutting oils and fluids", "work_id": 66554, "role": "director", "role_id": 938, "is_primary": true}, {"id": 857508, "title": "Rayon: first among fibres", "work_id": 72065, "role": "director", "role_id": 938, "is_primary": true}], "also_known_as": "", "date_of_birth": "", "date_of_death": "", "genders": [], "languages": [], "places_of_operation": [], "biography": "", "biography_author": null, "date_of_biography": "2023-08-11T15:52:07.691696+10:00", "external_links": [], "uuid": "e79ea65d-4f0a-444f-aa73-6e2151b70fb6", "source": {"name": "Vernon", "slug": "vernon"}, "source_identifier": "23577", "external_references": [], "date_modified": "2025-03-12T00:38:43.254086+11:00"}, {"id": 14210, "name": "Peter Riding", "roles_in_work": [{"id": 2712000, "title": "Design for assembly", "work_id": 66720, "role": "director", "role_id": 938, "is_primary": true}, {"id": 1526749, "title": "Pre set tooling and automatic control", "work_id": 71774, "role": "director", "role_id": 938, "is_primary": true}, {"id": 2756389, "title": "Talking metric", "work_id": 73492, "role": "director", "role_id": 938, "is_primary": true}, {"id": 2644470, "title": "Cutting of materials", "work_id": 66553, "role": "director", "role_id": 938, "is_primary": true}, {"id": 2714102, "title": "Forming, feeding and assembly", "work_id": 67745, "role": "director", "role_id": 938, "is_primary": true}, {"id": 2648678, "title": "Delia Smith`s Home Baking", "work_id": 79768, "role": "co-producer", "role_id": 915, "is_primary": true}, {"id": 2760573, "title": "Movement", "work_id": 75609, "role": "producer", "role_id": 1089, "is_primary": true}, {"id": 2754461, "title": "Thinking in action: the De Bono thinking kit", "work_id": 99214, "role": "producer", "role_id": 1089, "is_primary": true}, {"id": 2754656, "title": "Peter Principle: jumping for jelly beans, etc.", "work_id": 99297, "role": "producer", "role_id": 1089, "is_primary": true}, {"id": 2760576, "title": "The Portrait", "work_id": 75614, "role": "producer", "role_id": 1089, "is_primary": true}, {"id": 2760579, "title": "Landscape", "work_id": 75611, "role": "producer", "role_id": 1089, "is_primary": true}, {"id": 2760582, "title": "Social documentary", "work_id": 75606, "role": "producer", "role_id": 1089, "is_primary": true}, {"id": 2760585, "title": "Urban landscape", "work_id": 75607, "role": "producer", "role_id": 1089, "is_primary": true}, {"id": 2760588, "title": "The Image", "work_id": 75612, "role": "producer", "role_id": 1089, "is_primary": true}, {"id": 1813368, "title": "The Peter principle (TEFC)", "work_id": 79890, "role": "producer", "role_id": 1089, "is_primary": true}, {"id": 862935, "title": "Going metric", "work_id": 76671, "role": "producer/director", "role_id": 31, "is_primary": true}, {"id": 2648634, "title": "Up the organisation (TEFC)", "work_id": 79664, "role": "producer/director", "role_id": 31, "is_primary": true}], "also_known_as": "", "date_of_birth": "", "date_of_death": "", "genders": [], "languages": [], "places_of_operation": [], "biography": "", "biography_author": null, "date_of_biography": "2023-05-09T15:00:36.381760+10:00", "external_links": [], "uuid": "7e025ee8-fe44-4e03-b58d-8efde49ba950", "source": {"name": "Vernon", "slug": "vernon"}, "source_identifier": "26685", "external_references": [{"id": 42796, "source": {"name": "Wikidata", "slug": "wikidata"}, "source_identifier": "Q121086226"}], "date_modified": "2025-03-13T01:48:06.769247+11:00"}, {"id": 14209, "name": "Humphrey Barron", "roles_in_work": [{"id": 2644469, "title": "Cutting of materials", "work_id": 66553, "role": "producer", "role_id": 1089, "is_primary": true}, {"id": 1812934, "title": "Pre set tooling and automatic control", "work_id": 71774, "role": "producer", "role_id": 1089, "is_primary": true}, {"id": 2711999, "title": "Design for assembly", "work_id": 66720, "role": "producer", "role_id": 1089, "is_primary": true}, {"id": 2714101, "title": "Forming, feeding and assembly", "work_id": 67745, "role": "producer", "role_id": 1089, "is_primary": true}], "also_known_as": "", "date_of_birth": null, "date_of_death": null, "genders": [], "languages": [], "places_of_operation": [], "biography": "", "biography_author": null, "date_of_biography": null, "external_links": [], "uuid": "a68f9420-884e-4abe-a100-212a5b505f24", "source": {"name": "Vernon", "slug": "vernon"}, "source_identifier": "20707", "external_references": [], "date_modified": "2025-03-12T01:01:11.809196+11:00"}, {"id": 14208, "name": "Gordon Severn", "roles_in_work": [{"id": 2680781, "title": "Cut or mix", "work_id": 66552, "role": "producer", "role_id": 1089, "is_primary": true}, {"id": 1812027, "title": "Superimposition", "work_id": 73378, "role": "producer", "role_id": 1089, "is_primary": true}, {"id": 2714833, "title": "Good lighting. Part 1", "work_id": 68136, "role": "producer/director", "role_id": 31, "is_primary": true}, {"id": 858661, "title": "Sounds good", "work_id": 73021, "role": "producer/director", "role_id": 31, "is_primary": true}, {"id": 856864, "title": "Physics on television", "work_id": 71540, "role": "producer/director", "role_id": 31, "is_primary": true}], "also_known_as": "", "date_of_birth": null, "date_of_death": null, "genders": [], "languages": [], "places_of_operation": [], "biography": "", "biography_author": null, "date_of_biography": null, "external_links": [], "uuid": "412b1f8e-3fe7-4b31-9638-72725b8f9562", "source": {"name": "Vernon", "slug": "vernon"}, "source_identifier": "19952", "external_references": [], "date_modified": "2025-03-12T01:21:19.833233+11:00"}, {"id": 14207, "name": "Dallas Jones Production", "roles_in_work": [{"id": 2680779, "title": "The Cut of your job", "work_id": 66551, "role": "producer", "role_id": 1089, "is_primary": true}, {"id": 1817613, "title": "Lessons in living", "work_id": 69598, "role": "producer", "role_id": 1089, "is_primary": true}, {"id": 2413794, "title": "Keep 'em in the fairway", "work_id": 69359, "role": "production company", "role_id": 941, "is_primary": true}], "also_known_as": "", "date_of_birth": "", "date_of_death": "", "genders": [], "languages": [], "places_of_operation": [], "biography": "", "biography_author": null, "date_of_biography": "2023-08-11T19:04:30.349295+10:00", "external_links": [], "uuid": "7a1291b5-6293-40f9-a856-453c25980052", "source": {"name": "Vernon", "slug": "vernon"}, "source_identifier": "7300", "external_references": [], "date_modified": "2025-03-07T00:42:10.436294+11:00"}, {"id": 14206, "name": "Monique Tammer", "roles_in_work": [{"id": 2680778, "title": "The Curse of Laradjongran", "work_id": 66550, "role": "director", "role_id": 938, "is_primary": true}], "also_known_as": "", "date_of_birth": null, "date_of_death": null, "genders": [], "languages": [], "places_of_operation": [], "biography": "", "biography_author": null, "date_of_biography": null, "external_links": [], "uuid": "33bb1211-5ecf-4b7a-9aea-4545f72f131a", "source": {"name": "Vernon", "slug": "vernon"}, "source_identifier": "25510", "external_references": [], "date_modified": "2025-03-07T00:42:09.577812+11:00"}]}