{"count": 28687, "next": "https://api.acmi.net.au/creators/?page=2258", "previous": "https://api.acmi.net.au/creators/?page=2256", "results": [{"id": 17565, "name": "Vara-TV", "roles_in_work": [{"id": 2234116, "title": "Quest for power", "work_id": 77681, "role": "production company", "role_id": 941, "is_primary": true}, {"id": 857633, "title": "Report on Borobudur", "work_id": 72150, "role": "production company", "role_id": 941, "is_primary": true}], "also_known_as": "", "date_of_birth": "", "date_of_death": "", "genders": [], "languages": [], "places_of_operation": [], "biography": "", "biography_author": null, "date_of_biography": "2023-05-09T16:43:03.608054+10:00", "external_links": [], "uuid": "07d8e351-a138-4d88-b89a-be43f122a0cf", "source": {"name": "Vernon", "slug": "vernon"}, "source_identifier": "13995", "external_references": [{"id": 33282, "source": {"name": "Wikidata", "slug": "wikidata"}, "source_identifier": "Q121078992"}], "date_modified": "2023-09-06T02:03:19.663976+10:00"}, {"id": 17563, "name": "Jean Renoir", "roles_in_work": [{"id": 3104473, "title": "Toni", "work_id": 115930, "role": "director", "role_id": 938, "is_primary": true}, {"id": 3105502, "title": "Le Dejeuner Sur L'herbe = Picnic in the Grass", "work_id": 116503, "role": "director", "role_id": 938, "is_primary": true}, {"id": 3105450, "title": "Une Partie de Campagne = a Day in the Country", "work_id": 116461, "role": "director", "role_id": 938, "is_primary": true}, {"id": 3105257, "title": "La Bete Humaine = the Human Beast", "work_id": 116326, "role": "director", "role_id": 938, "is_primary": true}, {"id": 3105155, "title": "Boudu Sauve des Eaux = Boudu Saved from Drowning", "work_id": 116272, "role": "director", "role_id": 938, "is_primary": true}, {"id": 2649325, "title": "La Marseillaise", "work_id": 81318, "role": "director", "role_id": 938, "is_primary": true}, {"id": 2650486, "title": "La Regle du jeu = Rules of the game", "work_id": 115710, "role": "director", "role_id": 938, "is_primary": true}, {"id": 2650500, "title": "La Grande illusion = Grand illusion", "work_id": 115715, "role": "director", "role_id": 938, "is_primary": true}, {"id": 3105076, "title": "Le Carrosse D'or = the Golden Coach", "work_id": 116233, "role": "director", "role_id": 938, "is_primary": true}, {"id": 3105049, "title": "French Cancan", "work_id": 116219, "role": "director", "role_id": 938, "is_primary": true}, {"id": 3104912, "title": "Le Testament du Dr Cordelier = The Testament of Dr Cordelier (TV Version)", "work_id": 116144, "role": "director", "role_id": 938, "is_primary": true}, {"id": 1991762, "title": "French cancan", "work_id": 87462, "role": "director", "role_id": 938, "is_primary": true}, {"id": 2341241, "title": "The Crime of Mr Lange = Le Crime de Monsieur Lange", "work_id": 87457, "role": "director", "role_id": 938, "is_primary": true}, {"id": 1986339, "title": "The Rules of the game = La Regle du jeu", "work_id": 82478, "role": "director", "role_id": 938, "is_primary": true}, {"id": 1984378, "title": "Grand illusion = La Grande illusion", "work_id": 80005, "role": "director", "role_id": 938, "is_primary": true}, {"id": 857624, "title": "Renoir on Renoir", "work_id": 72144, "role": "director", "role_id": 938, "is_primary": true}, {"id": 1983802, "title": "Grand illusion = Le Grand illusion (TEFC)", "work_id": 75991, "role": "director", "role_id": 938, "is_primary": true}, {"id": 1983809, "title": "The Rules of the game = La Regle du jeu (TEFC)", "work_id": 76218, "role": "director", "role_id": 938, "is_primary": true}, {"id": 1999506, "title": "Elena and her men = Elena et les hommes [NTSC]", "work_id": 94499, "role": "director", "role_id": 938, "is_primary": true}, {"id": 1994734, "title": "The Human beast = La Bete humaine", "work_id": 90517, "role": "director", "role_id": 938, "is_primary": true}, {"id": 2189466, "title": "Diary of a chambermaid", "work_id": 84583, "role": "director", "role_id": 938, "is_primary": true}, {"id": 3104663, "title": "La Chienne = the Bitch", "work_id": 116022, "role": "director", "role_id": 938, "is_primary": true}, {"id": 3104485, "title": "Le Crime de Monsieur Lange = Crime of Monsieur Lange", "work_id": 115935, "role": "director", "role_id": 938, "is_primary": true}], "also_known_as": "", "date_of_birth": "1894-09-15", "date_of_death": "1979-02-12", "genders": [{"id": 9, "name": "Male", "slug": "male"}], "languages": [{"id": 1, "name": "English", "slug": "english"}, {"id": 4, "name": "French", "slug": "french"}], "places_of_operation": [{"id": 17, "name": "France", "slug": "france"}], "biography": "Jean Renoir (French: [ʁənwaʁ]; 15 September 1894 – 12 February 1979) was a French film director, screenwriter, actor, producer and author. As a film director and actor, he made more than forty films from the silent era to the end of the 1960s. His films La Grande Illusion (1937) and The Rules of the Game (1939) are often cited by critics as among the greatest films ever made. He was ranked by the BFI's Sight & Sound poll of critics in 2002 as the fourth greatest director of all time. Among numerous honours accrued during his lifetime, he received a Lifetime Achievement Academy Award in 1975 for his contribution to the motion picture industry. Renoir was the son of the painter Pierre-Auguste Renoir. He was one of the first filmmakers to be known as an auteur.", "biography_author": "Wikidata", "date_of_biography": "2022-05-19T11:55:56+10:00", "external_links": [{"id": 2353, "uri": "https://en.wikipedia.org/wiki/Jean_Renoir"}], "uuid": "1f907e84-9ffa-4ac8-b2db-1272e962d3b6", "source": {"name": "Vernon", "slug": "vernon"}, "source_identifier": "21553", "external_references": [{"id": 10089, "source": {"name": "Wikidata", "slug": "wikidata"}, "source_identifier": "Q50713"}, {"id": 10090, "source": {"name": "VIAF", "slug": "viaf"}, "source_identifier": "104724700"}, {"id": 10091, "source": {"name": "LOC Auth", "slug": "loc-auth"}, "source_identifier": "n79018203"}, {"id": 10092, "source": {"name": "WorldCat", "slug": "worldcat"}, "source_identifier": "lccn-n79018203"}], "date_modified": "2025-05-22T23:10:17.515429+10:00"}, {"id": 17561, "name": "Robert Allen Productions", "roles_in_work": [{"id": 2465264, "title": "Reinforcement therapy", "work_id": 72126, "role": "production company", "role_id": 941, "is_primary": true}], "also_known_as": "", "date_of_birth": "", "date_of_death": "", "genders": [], "languages": [], "places_of_operation": [], "biography": "", "biography_author": null, "date_of_biography": "2023-08-14T10:30:57.650874+10:00", "external_links": [], "uuid": "ca19a42d-c358-43b4-b7ff-725a5ef1b3e4", "source": {"name": "Vernon", "slug": "vernon"}, "source_identifier": "12066", "external_references": [], "date_modified": "2023-08-14T10:30:57.651267+10:00"}, {"id": 17559, "name": "Presburys Film Productions", "roles_in_work": [{"id": 2465262, "title": "Refractories from earth and sea", "work_id": 72119, "role": "production company", "role_id": 941, "is_primary": true}], "also_known_as": "", "date_of_birth": "", "date_of_death": "", "genders": [], "languages": [], "places_of_operation": [], "biography": "", "biography_author": null, "date_of_biography": "2023-08-14T10:30:53.198120+10:00", "external_links": [], "uuid": "1c12d6be-7396-44a0-a400-b0499a7b0d01", "source": {"name": "Vernon", "slug": "vernon"}, "source_identifier": "11629", "external_references": [], "date_modified": "2023-08-14T10:30:53.198442+10:00"}, {"id": 17558, "name": "Paul Asselin", "roles_in_work": [{"id": 751887, "title": "The Reformation: age of revolt", "work_id": 72117, "role": "director", "role_id": 938, "is_primary": true}, {"id": 2648961, "title": "The Haunting of Harrington House", "work_id": 80501, "role": "co-producer", "role_id": 915, "is_primary": true}, {"id": 2751096, "title": "Dinky Hocker", "work_id": 97654, "role": "co-producer", "role_id": 915, "is_primary": true}, {"id": 2340411, "title": "The Clue according to Sherlock Holmes", "work_id": 92139, "role": "co-producer", "role_id": 915, "is_primary": true}, {"id": 2162553, "title": "Once upon a midnight scary", "work_id": 80504, "role": "co-producer", "role_id": 915, "is_primary": true}, {"id": 1845967, "title": "The Zertigo Diamond Caper", "work_id": 80505, "role": "producer/director", "role_id": 31, "is_primary": true}, {"id": 2096859, "title": "Animal Talk", "work_id": 80503, "role": "producer/director", "role_id": 31, "is_primary": true}], "also_known_as": "", "date_of_birth": "", "date_of_death": "", "genders": [], "languages": [], "places_of_operation": [], "biography": "", "biography_author": null, "date_of_biography": "2023-05-09T20:01:17.022066+10:00", "external_links": [], "uuid": "dbd5d931-bf78-4f4c-978a-6fdb9411a841", "source": {"name": "Vernon", "slug": "vernon"}, "source_identifier": "4753", "external_references": [{"id": 37147, "source": {"name": "Wikidata", "slug": "wikidata"}, "source_identifier": "Q121223354"}], "date_modified": "2025-03-13T00:36:30.882228+11:00"}, {"id": 17556, "name": "Grania O'Shannon", "roles_in_work": [{"id": 2646128, "title": "Reflections: Ireland", "work_id": 72115, "role": "production company", "role_id": 941, "is_primary": true}], "also_known_as": "", "date_of_birth": "", "date_of_death": "", "genders": [], "languages": [], "places_of_operation": [], "biography": "", "biography_author": null, "date_of_biography": "2023-05-09T17:05:53.394322+10:00", "external_links": [], "uuid": "55a2d1a3-0e1e-4bcb-858d-d261598ee9d7", "source": {"name": "Vernon", "slug": "vernon"}, "source_identifier": "20024", "external_references": [{"id": 39496, "source": {"name": "Wikidata", "slug": "wikidata"}, "source_identifier": "Q121337397"}], "date_modified": "2025-03-05T12:56:35.977105+11:00"}, {"id": 17555, "name": "Viscom Productions", "roles_in_work": [{"id": 2646127, "title": "Reflections: Ireland", "work_id": 72115, "role": "production company", "role_id": 941, "is_primary": true}], "also_known_as": "", "date_of_birth": "", "date_of_death": "", "genders": [], "languages": [], "places_of_operation": [], "biography": "", "biography_author": null, "date_of_biography": "2023-05-09T17:05:53.022730+10:00", "external_links": [], "uuid": "74d48e45-9101-4934-9575-da9b355d7159", "source": {"name": "Vernon", "slug": "vernon"}, "source_identifier": "14160", "external_references": [{"id": 40841, "source": {"name": "Wikidata", "slug": "wikidata"}, "source_identifier": "Q121035523"}], "date_modified": "2025-03-05T12:56:35.388810+11:00"}, {"id": 17551, "name": "Doubleday Multi Media", "roles_in_work": [{"id": 2646123, "title": "The Refiners fire", "work_id": 72114, "role": "production company", "role_id": 941, "is_primary": true}], "also_known_as": "", "date_of_birth": "", "date_of_death": "", "genders": [], "languages": [], "places_of_operation": [], "biography": "", "biography_author": null, "date_of_biography": "2023-08-14T11:31:14.355155+10:00", "external_links": [], "uuid": "b041848e-c38f-43df-97de-dd680345f388", "source": {"name": "Vernon", "slug": "vernon"}, "source_identifier": "7649", "external_references": [], "date_modified": "2025-03-05T12:56:32.799508+11:00"}, {"id": 17550, "name": "Entropy", "roles_in_work": [{"id": 2646122, "title": "The Refiners fire", "work_id": 72114, "role": "production company", "role_id": 941, "is_primary": true}], "also_known_as": "", "date_of_birth": "", "date_of_death": "", "genders": [], "languages": [], "places_of_operation": [], "biography": "", "biography_author": null, "date_of_biography": "2023-08-14T11:31:13.718698+10:00", "external_links": [], "uuid": "85ec5f8c-cd10-4e49-b2ec-a34457e590dd", "source": {"name": "Vernon", "slug": "vernon"}, "source_identifier": "7911", "external_references": [], "date_modified": "2025-03-05T12:56:32.194961+11:00"}, {"id": 17548, "name": "Football Association", "roles_in_work": [{"id": 875805, "title": "Association Football. Pt. 3. Coaching in the game", "work_id": 89662, "role": "production company", "role_id": 941, "is_primary": true}, {"id": 872508, "title": "Association football. Pt. 2. Trapping", "work_id": 87679, "role": "production company", "role_id": 941, "is_primary": true}, {"id": 2467956, "title": "The Referee", "work_id": 72112, "role": "production company", "role_id": 941, "is_primary": true}, {"id": 875813, "title": "Association Football. Pt. 1. Methods of coaching", "work_id": 89666, "role": "production company", "role_id": 941, "is_primary": true}], "also_known_as": "", "date_of_birth": "", "date_of_death": "", "genders": [], "languages": [], "places_of_operation": [], "biography": "", "biography_author": null, "date_of_biography": "2023-08-14T11:30:51.548505+10:00", "external_links": [], "uuid": "3894a4b3-768d-4fb2-a8e0-211991ccdf6a", "source": {"name": "Vernon", "slug": "vernon"}, "source_identifier": "8427", "external_references": [], "date_modified": "2023-08-14T11:30:51.548743+10:00"}]}