{"count": 28687, "next": "https://api.acmi.net.au/creators/?page=109", "previous": "https://api.acmi.net.au/creators/?page=107", "results": [{"id": 85061, "name": "Gamebase 64 (website)", "roles_in_work": [{"id": 2689533, "title": "Emulation of Battlefront Corps Level Command WWII for Commodore 64", "work_id": 122279, "role": "repository (online)", "role_id": 1019, "is_primary": false}, {"id": 2689535, "title": "Emulation of Battles in Normandy 1944 for Commodore 64", "work_id": 122280, "role": "repository (online)", "role_id": 1019, "is_primary": false}, {"id": 2689557, "title": "Emulation of Carriers at War 1941-1945: Fleet Carrier Operations in the Pacific for Commodore 64 emulation", "work_id": 122281, "role": "repository (online)", "role_id": 1019, "is_primary": false}, {"id": 2689559, "title": "Emulation of Castle of Terror for Commodore 64", "work_id": 122282, "role": "repository (online)", "role_id": 1019, "is_primary": false}, {"id": 2689563, "title": "Emulation of Decisive Battles of the American Civil War Vol 1 for Commodore 64", "work_id": 122283, "role": "repository (online)", "role_id": 1019, "is_primary": false}, {"id": 2689565, "title": "Emulation of Decisive Battles of the American Civil War, Vol. 2 for Commodore 64", "work_id": 122284, "role": "repository (online)", "role_id": 1019, "is_primary": false}, {"id": 2689567, "title": "Emulation of Decisive Battles of the American Civil War, Vol. 3 for Commodore 64", "work_id": 122285, "role": "repository (online)", "role_id": 1019, "is_primary": false}, {"id": 2689597, "title": "Emulation of Europe Ablaze for Commodore 64", "work_id": 122275, "role": "repository (online)", "role_id": 1019, "is_primary": false}, {"id": 2689616, "title": "Emulation of Fire King for Commodore 64", "work_id": 122286, "role": "repository (online)", "role_id": 1019, "is_primary": false}, {"id": 2689630, "title": "Emulation of Gold Dust Island for Commodore 64", "work_id": 122287, "role": "repository (online)", "role_id": 1019, "is_primary": false}, {"id": 2689632, "title": "Emulation of Goldfields for Commodore 64", "work_id": 122288, "role": "repository (online)", "role_id": 1019, "is_primary": false}, {"id": 2689639, "title": "Emulation of Halls of Montezuma for Commodore 64", "work_id": 122289, "role": "repository (online)", "role_id": 1019, "is_primary": false}, {"id": 2689711, "title": "Emulation of Raft-Away River for Commodore 64", "work_id": 119143, "role": "repository (online)", "role_id": 1019, "is_primary": false}, {"id": 2689713, "title": "Emulation of Reach for the Stars: The Conquest of the Galaxy Version 1 for Commodore 64", "work_id": 122291, "role": "repository (online)", "role_id": 1019, "is_primary": false}, {"id": 2689718, "title": "Emulation of Rommel: Battles for North America  for Commodore 64", "work_id": 122292, "role": "repository (online)", "role_id": 1019, "is_primary": false}, {"id": 2689720, "title": "Emulation of Russia The Great War in the East 1941-1945 or Commodore 64", "work_id": 122293, "role": "repository (online)", "role_id": 1019, "is_primary": false}, {"id": 2689747, "title": "Emulation of SETUP  for Commodore 64", "work_id": 122294, "role": "repository (online)", "role_id": 1019, "is_primary": false}, {"id": 2689751, "title": "Emulation of Sgt Slaughter's Mat Wars for Commodore 64", "work_id": 122295, "role": "repository (online)", "role_id": 1019, "is_primary": false}, {"id": 2689758, "title": "Emulation of Sheep-Dog Trial  for Commodore 64", "work_id": 122296, "role": "repository (online)", "role_id": 1019, "is_primary": false}, {"id": 2689763, "title": "Emulation of Sherlock for Commodore 64", "work_id": 122297, "role": "repository (online)", "role_id": 1019, "is_primary": false}, {"id": 2689767, "title": "Emulation of Ship for Commodore 64", "work_id": 122299, "role": "repository (online)", "role_id": 1019, "is_primary": false}, {"id": 2689770, "title": "Emulation of Shopping Day  for Commodore 64", "work_id": 122298, "role": "repository (online)", "role_id": 1019, "is_primary": false}, {"id": 2689775, "title": "Emulation of Space Journey for Commodore 64", "work_id": 122300, "role": "repository (online)", "role_id": 1019, "is_primary": false}, {"id": 2689530, "title": "Emulation of Bad Street Brawler for Commodore 64", "work_id": 122278, "role": "repository (online)", "role_id": 1019, "is_primary": false}, {"id": 2689528, "title": "Emulation of Aussie Games for Commodore 64", "work_id": 122274, "role": "repository (online)", "role_id": 1019, "is_primary": false}, {"id": 2689515, "title": "Emulation of Ardok the Barbarian for Commodore 64", "work_id": 122277, "role": "repository (online)", "role_id": 1019, "is_primary": false}], "also_known_as": "", "date_of_birth": "", "date_of_death": "", "genders": [], "languages": [], "places_of_operation": [], "biography": "", "biography_author": null, "date_of_biography": "2023-08-16T03:56:10.002220+10:00", "external_links": [], "uuid": "d29c94cd-6f8f-4867-a4a7-b6637fc0a912", "source": {"name": "Vernon", "slug": "vernon"}, "source_identifier": "39808", "external_references": [], "date_modified": "2025-03-11T14:40:17.307148+11:00"}, {"id": 85045, "name": "Zaina Erhaim", "roles_in_work": [{"id": 2688740, "title": "@ZainaErhaim: What is happing in #SuezCanal today explained", "work_id": 119136, "role": "creator", "role_id": 968, "is_primary": true}], "also_known_as": "", "date_of_birth": "", "date_of_death": "", "genders": [], "languages": [], "places_of_operation": [], "biography": "", "biography_author": null, "date_of_biography": "2023-08-16T03:57:22.754230+10:00", "external_links": [], "uuid": "a66efd51-ab62-4da1-9112-004602b34123", "source": {"name": "Vernon", "slug": "vernon"}, "source_identifier": "39924", "external_references": [], "date_modified": "2025-03-11T13:45:02.377235+11:00"}, {"id": 85042, "name": "Chris Menges", "roles_in_work": [{"id": 2077686, "title": "A World apart", "work_id": 82773, "role": "director", "role_id": 938, "is_primary": true}, {"id": 1018531, "title": "The War Game", "work_id": 119131, "role": "cinematographer", "role_id": 32, "is_primary": false}], "also_known_as": "", "date_of_birth": "1940-09-15", "date_of_death": "", "genders": [{"id": 9, "name": "Male", "slug": "male"}], "languages": [{"id": 1, "name": "English", "slug": "english"}], "places_of_operation": [{"id": 10, "name": "United Kingdom", "slug": "united-kingdom"}], "biography": "Chris Menges BSC, ASC (born 15 September 1940) is a British cinematographer and film director. He is a member of both the American and British Societies of Cinematographers.\n\n", "biography_author": "Wikidata", "date_of_biography": "2023-08-01T14:25:11.731291+10:00", "external_links": [{"id": 1814, "uri": "https://en.wikipedia.org/wiki/Chris_Menges"}], "uuid": "ae79e72f-eff7-4b67-9ded-48d259c98b14", "source": {"name": "Vernon", "slug": "vernon"}, "source_identifier": "16851", "external_references": [{"id": 26735, "source": {"name": "Wikidata", "slug": "wikidata"}, "source_identifier": "Q1077553"}, {"id": 27804, "source": {"name": "VIAF", "slug": "viaf"}, "source_identifier": "100868408"}, {"id": 27805, "source": {"name": "LOC Auth", "slug": "loc-auth"}, "source_identifier": "no2003066143"}, {"id": 27806, "source": {"name": "WorldCat", "slug": "worldcat"}, "source_identifier": "lccn-no2003066143"}], "date_modified": "2023-09-05T18:32:42.963739+10:00"}, {"id": 85029, "name": "Dylan River", "roles_in_work": [{"id": 3092797, "title": "A Good Eye for Story", "work_id": 118042, "role": "artist", "role_id": 505, "is_primary": true}], "also_known_as": "", "date_of_birth": "", "date_of_death": "", "genders": [], "languages": [], "places_of_operation": [], "biography": "", "biography_author": null, "date_of_biography": "2023-05-09T11:28:07.057387+10:00", "external_links": [], "uuid": "c0585f3e-7aac-4a81-b9d0-affe1e3bc3f4", "source": {"name": "Vernon", "slug": "vernon"}, "source_identifier": "39695", "external_references": [], "date_modified": "2025-03-28T22:35:00.778173+11:00"}, {"id": 85028, "name": "Bradley Gibb", "roles_in_work": [{"id": 2686509, "title": "Where the Desert Meets the Sea", "work_id": 118041, "role": "cinematographer", "role_id": 32, "is_primary": false}], "also_known_as": "", "date_of_birth": "", "date_of_death": "", "genders": [], "languages": [], "places_of_operation": [], "biography": "", "biography_author": null, "date_of_biography": "2023-08-14T12:46:35.975419+10:00", "external_links": [], "uuid": "d6cf6f1a-6f70-48c0-a137-0b4ec81b2361", "source": {"name": "Vernon", "slug": "vernon"}, "source_identifier": "39691", "external_references": [{"id": 39298, "source": {"name": "Wikidata", "slug": "wikidata"}, "source_identifier": "Q121315680"}], "date_modified": "2025-03-11T12:21:52.833272+11:00"}, {"id": 85017, "name": "Klaus Vom Bruch", "roles_in_work": [{"id": 2747922, "title": "Das Duracellband", "work_id": 107910, "role": "creator", "role_id": 968, "is_primary": true}], "also_known_as": "", "date_of_birth": "", "date_of_death": "", "genders": [], "languages": [], "places_of_operation": [], "biography": "Klaus vom Bruch is one of Germany's most prominent and provocative artists working in video and multi-media installation. His video works of the 1980s engage in a powerful analysis of identity in relation to Western cultural mythology and history. This explosive, often ironic discourse is presented as a direct confrontation between the self and the theater of collective memory, which vom Bruch posits as an archive of media images -- television advertising, Hollywood cinema, World War II archival films. Subjectivity is located in a violent confluence of the spectacles of war, technology, and capital.\n\nAggressively deconstructing representations of the military and mass media apparatuses, vom Bruch's videotapes take the form of propulsive, nonverbal collages. Relentless in their obsessive speed, force, and repetition, his signature visual systems exploit both the one-on-one directness of video and its relation to the mass media apparatus. In an exacting fusion of structure and content, his formal strategy is to use rapid-fire video switching to alternate repetitively between two visual sources -- one appropriated, one a \"live\" self-image -- so that they are seen simultaneously as composite texts. Rhythmically inserting flash-frames of his face into tightly edited, stutter- step fragments of archival films, cinema or advertising, he constructs associative, metaphorical meaning. Reductive, hypnotic soundtracks heighten the tension as self-portraits interrupt repeated images of war and mass media technologies.\n\nVom Bruch's early works are compelling inquiries into postwar German identity. The mythic past collides with the media present as the artist is seen in collusion with World War II bomber pilots, wartime destruction, and TV advertising. Collapsing the personal and the historical, conflating subjectivity and history, desire and the cinematic apparatus, or the body and communications technologies, vom Bruch's potent analytical systems expand on the theories of Paul Virilio.\n\nProducing tapes, installations and performances since the mid-1970s, vom Bruch has focused in recent years on mixed media installations that analyze the public and private spheres of communications technologies, including radar and satellites.\n\nKlaus vom Bruch was born in 1952. He studied with John Baldessari at the California Institute of the Arts from 1975-76, after which he studied philosophy at the University of Cologne. His works have received numerous awards and are in the permanent collections of institutions including Kunsthaus, Zurich; De Appel, Amsterdam; Stedelijk Museum, Amsterdam; The Museum of Modern Art, New York; and Musee d'Art Contemporain, Montreal. Vom Bruch's videotapes and installations have been widely exhibited internationally, in group shows at institutions including Kolnischer Kunstverein, Cologne; Kunsthaus, Zurich; The New Museum of Contemporary Art, New York; The Museum of Modern Art, New York; Stadtisches Kunstmuseum, Bonn; Stedelijk Museum, Amsterdam; Long Beach Museum of Art, California; Documenta 8, Kassel, West Germany; DuMont Kunsthalle, Cologne; Tate Gallery, London; and Musee d'Art Contemporain, Montreal. He has also had solo exhibitions at institutions including the Stadtisches Museum Abteiberg, Monchengladbach, Germany; Moderna Museet, Stockholm; and Malmo Konsthall, Sweden. Vom Bruch lives in Cologne, Germany.\n\nReferences:\nPropellerband (Propeller Tape), 1979, 31:52 min, color, sound\nDas Duracellband (The Duracell Tape), 1980, 10:04 min, color, sound\nDas Softiband (Softi Tape), 1980, 19:11 min, color, sound\nLuftgeister (Air Spirits), 1981, 8:10 min, color, sound\nDas Alliiertenband (The Allies' Tape), 1982, 10:29 min, color, sound\nCharmant Band (Charming Tape), 1983, 9:19 min, color, sound\nDer Westen Lebt (The West is Alive), 1983, 4:30 min, color, sound\nRelativ Romantisch (Relatively Romantic), 1983-84, 21:46 min, color, sound\nJeder Schuss ein Treffer (Every Shot a Hit), 1984, 9:30 min, color, sound\nAzimut, 1985, 7:02 min, color, sound\nKobolds' Gesange (Goblins' Songs), 1986, 5:10 min, color, sound", "biography_author": null, "date_of_biography": "2025-03-12T22:40:51.333332+11:00", "external_links": [], "uuid": "80995e64-99b3-4db1-844c-7a9314c2915e", "source": {"name": "Vernon", "slug": "vernon"}, "source_identifier": "110026", "external_references": [], "date_modified": "2025-03-12T22:40:51.333571+11:00"}, {"id": 85016, "name": "Grace Tame", "roles_in_work": [{"id": 2688718, "title": "Grace Tame’s address to the National Press Club", "work_id": 118342, "role": "creator", "role_id": 968, "is_primary": true}], "also_known_as": "", "date_of_birth": "", "date_of_death": "", "genders": [], "languages": [], "places_of_operation": [], "biography": "", "biography_author": null, "date_of_biography": "2023-08-16T03:57:21.726105+10:00", "external_links": [], "uuid": "2ea544bd-0988-4ac2-919f-6da4f5d0e779", "source": {"name": "Vernon", "slug": "vernon"}, "source_identifier": "39839", "external_references": [], "date_modified": "2025-03-11T13:25:41.581337+11:00"}, {"id": 85015, "name": "Tom C Marshall", "roles_in_work": [{"id": 2077423, "title": "A Visit to Australia's Great Barrier Reef", "work_id": 114435, "role": "director of photography", "role_id": 925, "is_primary": false}], "also_known_as": "", "date_of_birth": "", "date_of_death": "", "genders": [{"id": 9, "name": "Male", "slug": "male"}], "languages": [], "places_of_operation": [], "biography": "", "biography_author": null, "date_of_biography": "2023-05-09T11:42:54.499647+10:00", "external_links": [], "uuid": "83b45a5d-8d19-4aea-9c77-35f59583656a", "source": {"name": "Vernon", "slug": "vernon"}, "source_identifier": "39838", "external_references": [], "date_modified": "2023-06-14T16:33:30.576250+10:00"}, {"id": 85014, "name": "ABC 7:30", "roles_in_work": [{"id": 2688717, "title": "Grace Tame’s address to the National Press Club", "work_id": 118342, "role": "creator", "role_id": 968, "is_primary": true}], "also_known_as": "", "date_of_birth": "", "date_of_death": "", "genders": [], "languages": [], "places_of_operation": [], "biography": "", "biography_author": null, "date_of_biography": "2023-08-16T03:57:21.065084+10:00", "external_links": [], "uuid": "ebbace50-a00b-41fc-9544-ada084045f0e", "source": {"name": "Vernon", "slug": "vernon"}, "source_identifier": "39836", "external_references": [], "date_modified": "2025-03-11T13:25:40.814925+11:00"}, {"id": 84900, "name": "Jodie Passmore", "roles_in_work": [{"id": 2660920, "title": "The Calling", "work_id": 117423, "role": "producer", "role_id": 1089, "is_primary": true}], "also_known_as": "", "date_of_birth": "", "date_of_death": "", "genders": [], "languages": [], "places_of_operation": [], "biography": "", "biography_author": null, "date_of_biography": "2023-05-09T19:31:22.243234+10:00", "external_links": [], "uuid": "29e32476-b57f-4ae3-a4f5-c4df16c0c863", "source": {"name": "Vernon", "slug": "vernon"}, "source_identifier": "39835", "external_references": [{"id": 38361, "source": {"name": "Wikidata", "slug": "wikidata"}, "source_identifier": "Q121315180"}], "date_modified": "2025-03-05T20:00:41.413550+11:00"}]}