{"count": 28687, "next": "https://api.acmi.net.au/creators/?page=176", "previous": "https://api.acmi.net.au/creators/?page=174", "results": [{"id": 83857, "name": "Jane Harrison", "roles_in_work": [{"id": 2658298, "title": "Longing for belonging", "work_id": 117168, "role": "creator", "role_id": 968, "is_primary": true}], "also_known_as": "", "date_of_birth": "", "date_of_death": "", "genders": [{"id": 5, "name": "Female", "slug": "female"}], "languages": [], "places_of_operation": [], "biography": "", "biography_author": null, "date_of_biography": "2023-05-09T16:23:33.531823+10:00", "external_links": [], "uuid": "0a24b47a-cbc7-4d47-b285-a15a142e04c9", "source": {"name": "Vernon", "slug": "vernon"}, "source_identifier": "35562", "external_references": [], "date_modified": "2025-03-05T17:37:30.520284+11:00"}, {"id": 83856, "name": "Nicky Lo Bianco", "roles_in_work": [{"id": 2658301, "title": "Intangible gifts", "work_id": 117167, "role": "creator", "role_id": 968, "is_primary": true}], "also_known_as": "", "date_of_birth": "", "date_of_death": "", "genders": [{"id": 5, "name": "Female", "slug": "female"}], "languages": [], "places_of_operation": [], "biography": "", "biography_author": null, "date_of_biography": "2023-05-09T16:23:29.177717+10:00", "external_links": [], "uuid": "613c47eb-2afc-4c16-bab5-0f43e17009ca", "source": {"name": "Vernon", "slug": "vernon"}, "source_identifier": "35563", "external_references": [], "date_modified": "2025-03-05T17:37:32.744409+11:00"}, {"id": 83855, "name": "Valentina Zingg", "roles_in_work": [{"id": 2658310, "title": "Experience the unknown", "work_id": 117166, "role": "creator", "role_id": 968, "is_primary": true}], "also_known_as": "", "date_of_birth": "", "date_of_death": "", "genders": [{"id": 5, "name": "Female", "slug": "female"}], "languages": [], "places_of_operation": [], "biography": "", "biography_author": null, "date_of_biography": "2023-05-09T16:23:35.845944+10:00", "external_links": [], "uuid": "d2efe82b-3a97-4d92-bcd9-0cfb0cd10969", "source": {"name": "Vernon", "slug": "vernon"}, "source_identifier": "35566", "external_references": [], "date_modified": "2025-03-05T17:37:39.288867+11:00"}, {"id": 83854, "name": "Denise VanWyk", "roles_in_work": [{"id": 2658295, "title": "Expand my boundaries", "work_id": 117165, "role": "creator", "role_id": 968, "is_primary": true}], "also_known_as": "", "date_of_birth": "", "date_of_death": "", "genders": [{"id": 5, "name": "Female", "slug": "female"}], "languages": [], "places_of_operation": [], "biography": "", "biography_author": null, "date_of_biography": "2023-05-09T16:23:26.660355+10:00", "external_links": [], "uuid": "ba545179-b410-493d-bc65-8936953dd10e", "source": {"name": "Vernon", "slug": "vernon"}, "source_identifier": "35561", "external_references": [], "date_modified": "2025-03-05T17:37:28.322766+11:00"}, {"id": 83853, "name": "Deborah Hoe", "roles_in_work": [{"id": 2658292, "title": "Cannot wait", "work_id": 117164, "role": "creator", "role_id": 968, "is_primary": true}], "also_known_as": "", "date_of_birth": "", "date_of_death": "", "genders": [{"id": 5, "name": "Female", "slug": "female"}], "languages": [], "places_of_operation": [], "biography": "", "biography_author": null, "date_of_biography": "2023-05-09T16:23:34.669958+10:00", "external_links": [], "uuid": "17618e75-0476-4a6d-bf93-93e86d5aae84", "source": {"name": "Vernon", "slug": "vernon"}, "source_identifier": "35560", "external_references": [], "date_modified": "2025-03-05T17:37:26.183346+11:00"}, {"id": 83852, "name": "Nicole Bloom", "roles_in_work": [{"id": 2658304, "title": "Bus people", "work_id": 117163, "role": "creator", "role_id": 968, "is_primary": true}], "also_known_as": "", "date_of_birth": "", "date_of_death": "", "genders": [{"id": 5, "name": "Female", "slug": "female"}], "languages": [], "places_of_operation": [], "biography": "", "biography_author": null, "date_of_biography": "2023-05-09T16:23:24.387859+10:00", "external_links": [], "uuid": "4e3110c1-242e-4478-86ec-cae5f9a85c5a", "source": {"name": "Vernon", "slug": "vernon"}, "source_identifier": "35564", "external_references": [], "date_modified": "2025-03-05T17:37:34.942730+11:00"}, {"id": 83851, "name": "Christiana Stergiou", "roles_in_work": [{"id": 2658261, "title": "Nihiwatu", "work_id": 117158, "role": "creator", "role_id": 968, "is_primary": true}], "also_known_as": "", "date_of_birth": "", "date_of_death": "", "genders": [{"id": 5, "name": "Female", "slug": "female"}], "languages": [], "places_of_operation": [], "biography": "", "biography_author": null, "date_of_biography": "2023-05-09T14:21:56.308381+10:00", "external_links": [], "uuid": "2faa8e45-89f8-4d5b-8a39-a04152c7d301", "source": {"name": "Vernon", "slug": "vernon"}, "source_identifier": "35557", "external_references": [], "date_modified": "2025-03-05T17:37:03.470029+11:00"}, {"id": 83850, "name": "Angela Jones", "roles_in_work": [{"id": 2658253, "title": "My first farewell", "work_id": 117157, "role": "creator", "role_id": 968, "is_primary": true}], "also_known_as": "", "date_of_birth": "", "date_of_death": "", "genders": [{"id": 5, "name": "Female", "slug": "female"}], "languages": [], "places_of_operation": [], "biography": "", "biography_author": null, "date_of_biography": "2023-05-09T14:21:44.964404+10:00", "external_links": [], "uuid": "13601ce2-498c-4175-9efc-da5013e9cb73", "source": {"name": "Vernon", "slug": "vernon"}, "source_identifier": "35555", "external_references": [], "date_modified": "2025-03-05T17:36:57.431385+11:00"}, {"id": 83849, "name": "Mandy Finn Taylor", "roles_in_work": [{"id": 2658264, "title": "Mandy, mum and Manu : a story of love, loss and union", "work_id": 117156, "role": "creator", "role_id": 968, "is_primary": true}], "also_known_as": "", "date_of_birth": "", "date_of_death": "", "genders": [{"id": 5, "name": "Female", "slug": "female"}], "languages": [], "places_of_operation": [], "biography": "", "biography_author": null, "date_of_biography": "2023-05-09T14:21:46.232801+10:00", "external_links": [], "uuid": "9d6ce05c-172b-4426-9cd4-c127374b6d95", "source": {"name": "Vernon", "slug": "vernon"}, "source_identifier": "35558", "external_references": [], "date_modified": "2025-03-05T17:37:05.667341+11:00"}, {"id": 83848, "name": "Wendy Walters", "roles_in_work": [{"id": 2658233, "title": "A Dream to create a home", "work_id": 117155, "role": "creator", "role_id": 968, "is_primary": true}], "also_known_as": "", "date_of_birth": "", "date_of_death": "", "genders": [{"id": 5, "name": "Female", "slug": "female"}], "languages": [], "places_of_operation": [], "biography": "", "biography_author": null, "date_of_biography": "2023-05-09T14:21:36.906412+10:00", "external_links": [], "uuid": "957ddb39-a246-48f4-b586-b9b0fabaa446", "source": {"name": "Vernon", "slug": "vernon"}, "source_identifier": "35559", "external_references": [], "date_modified": "2025-03-05T17:36:42.526687+11:00"}]}