{"count": 28681, "next": "https://api.acmi.net.au/creators/?page=2307", "previous": "https://api.acmi.net.au/creators/?page=2305", "results": [{"id": 16636, "name": "Richard Balducci", "roles_in_work": [{"id": 2767024, "title": "The Merry-Go-Round horse", "work_id": 70318, "role": "director", "role_id": 938, "is_primary": true}, {"id": 2767029, "title": "The Clown", "work_id": 76508, "role": "director", "role_id": 938, "is_primary": true}], "also_known_as": "Armando Pellegrino Ido Balducci", "date_of_birth": "1922-02-10", "date_of_death": "2015-12-08", "genders": [{"id": 9, "name": "Male", "slug": "male"}], "languages": [{"id": 4, "name": "French", "slug": "french"}], "places_of_operation": [{"id": 17, "name": "France", "slug": "france"}], "biography": "", "biography_author": null, "date_of_biography": null, "external_links": [], "uuid": "a3bcde01-779e-4cd9-9e1e-25e35a726b7b", "source": {"name": "Vernon", "slug": "vernon"}, "source_identifier": "27320", "external_references": [{"id": 33396, "source": {"name": "Wikidata", "slug": "wikidata"}, "source_identifier": "Q3430489"}, {"id": 55620, "source": {"name": "VIAF", "slug": "viaf"}, "source_identifier": "5120863"}, {"id": 55621, "source": {"name": "LOC Auth", "slug": "loc-auth"}, "source_identifier": "no2009070997"}, {"id": 55622, "source": {"name": "WorldCat", "slug": "worldcat"}, "source_identifier": "lccn-n92031620"}], "date_modified": "2023-09-13T12:32:11.615780+10:00"}, {"id": 16634, "name": "E F V A", "roles_in_work": [{"id": 2647260, "title": "The Work of ice", "work_id": 75811, "role": "production company", "role_id": 941, "is_primary": true}, {"id": 825410, "title": "Fisheries in Japan", "work_id": 95830, "role": "production company", "role_id": 941, "is_primary": true}, {"id": 2415866, "title": "Merchant of Venice: An introduction", "work_id": 70315, "role": "production company", "role_id": 941, "is_primary": true}], "also_known_as": "", "date_of_birth": "", "date_of_death": "", "genders": [], "languages": [], "places_of_operation": [], "biography": "", "biography_author": null, "date_of_biography": "2023-08-11T19:48:11.517314+10:00", "external_links": [], "uuid": "9c61db1a-b1a5-42a6-a338-6f219c8023f8", "source": {"name": "Vernon", "slug": "vernon"}, "source_identifier": "7698", "external_references": [], "date_modified": "2025-03-05T13:21:44.813315+11:00"}, {"id": 16633, "name": "Yvonne Anderson", "roles_in_work": [{"id": 863446, "title": "The Yellow Ball cache", "work_id": 77203, "role": "director", "role_id": 938, "is_primary": true}, {"id": 2415863, "title": "Meow meow", "work_id": 70314, "role": "co-director", "role_id": 959, "is_primary": true}], "also_known_as": "", "date_of_birth": "", "date_of_death": "", "genders": [], "languages": [], "places_of_operation": [], "biography": "", "biography_author": null, "date_of_biography": "2023-08-11T19:48:06.752284+10:00", "external_links": [], "uuid": "f9d2a58f-29ef-41b0-ba9a-62bf0af04566", "source": {"name": "Vernon", "slug": "vernon"}, "source_identifier": "30641", "external_references": [], "date_modified": "2023-08-11T19:48:06.752605+10:00"}, {"id": 16631, "name": "Ruckus Films", "roles_in_work": [{"id": 2415860, "title": "Meow meow", "work_id": 70314, "role": "production company", "role_id": 941, "is_primary": true}], "also_known_as": "", "date_of_birth": "", "date_of_death": "", "genders": [], "languages": [], "places_of_operation": [], "biography": "", "biography_author": null, "date_of_biography": "2023-08-11T19:48:04.887076+10:00", "external_links": [], "uuid": "b74ee7ad-17cb-496a-88c0-1a877e985ecd", "source": {"name": "Vernon", "slug": "vernon"}, "source_identifier": "3895", "external_references": [], "date_modified": "2023-08-11T19:48:04.887324+10:00"}, {"id": 16626, "name": "Acquaforum", "roles_in_work": [{"id": 2764705, "title": "Men's breaststroke", "work_id": 70309, "role": "production company", "role_id": 941, "is_primary": true}], "also_known_as": "", "date_of_birth": "", "date_of_death": "", "genders": [], "languages": [], "places_of_operation": [], "biography": "", "biography_author": null, "date_of_biography": "2023-05-09T13:08:40.875615+10:00", "external_links": [], "uuid": "43c21fb5-a36c-43c9-993c-cefcf119cca9", "source": {"name": "Vernon", "slug": "vernon"}, "source_identifier": "5006", "external_references": [{"id": 32965, "source": {"name": "Wikidata", "slug": "wikidata"}, "source_identifier": "Q121143753"}], "date_modified": "2025-03-14T17:47:16.505601+11:00"}, {"id": 16625, "name": "Dennis A. Hill", "roles_in_work": [{"id": 2645865, "title": "One for the road", "work_id": 71124, "role": "director", "role_id": 938, "is_primary": true}, {"id": 1810618, "title": "Water polo: Montreal Olympics", "work_id": 91833, "role": "producer", "role_id": 1089, "is_primary": true}, {"id": 747912, "title": "Men without faces", "work_id": 70308, "role": "producer/director", "role_id": 31, "is_primary": true}], "also_known_as": "", "date_of_birth": "", "date_of_death": "", "genders": [], "languages": [], "places_of_operation": [], "biography": "", "biography_author": null, "date_of_biography": "2023-08-09T03:48:16.226309+10:00", "external_links": [], "uuid": "047ae699-2b24-4b8d-b8ac-9af5e37a6321", "source": {"name": "Vernon", "slug": "vernon"}, "source_identifier": "17985", "external_references": [{"id": 42926, "source": {"name": "Wikidata", "slug": "wikidata"}, "source_identifier": "Q121337330"}], "date_modified": "2025-03-05T12:50:48.936881+11:00"}, {"id": 16623, "name": "Industrial Commission of Ohio", "roles_in_work": [{"id": 2645624, "title": "Men who come back", "work_id": 70306, "role": "production company", "role_id": 941, "is_primary": true}], "also_known_as": "", "date_of_birth": "", "date_of_death": "", "genders": [], "languages": [], "places_of_operation": [], "biography": "", "biography_author": null, "date_of_biography": "2023-08-11T19:47:43.449996+10:00", "external_links": [], "uuid": "f220dbff-33c8-4abc-842d-257fa95e804e", "source": {"name": "Vernon", "slug": "vernon"}, "source_identifier": "9284", "external_references": [], "date_modified": "2025-03-05T12:45:32.605928+11:00"}, {"id": 16622, "name": "Australian Industrial Films", "roles_in_work": [{"id": 2764330, "title": "The Blue mountains crossing - 1813", "work_id": 70304, "role": "production company", "role_id": 941, "is_primary": true}], "also_known_as": "", "date_of_birth": "", "date_of_death": "", "genders": [], "languages": [], "places_of_operation": [], "biography": "", "biography_author": null, "date_of_biography": "2023-08-14T11:02:35.825043+10:00", "external_links": [], "uuid": "be5dce47-d02c-4117-9ca8-c5d834e05d05", "source": {"name": "Vernon", "slug": "vernon"}, "source_identifier": "5592", "external_references": [], "date_modified": "2025-03-14T17:45:59.052761+11:00"}, {"id": 16620, "name": "Barbie Smith", "roles_in_work": [{"id": 747901, "title": "Men of Capricorn", "work_id": 70301, "role": "director", "role_id": 938, "is_primary": true}], "also_known_as": "", "date_of_birth": null, "date_of_death": null, "genders": [], "languages": [], "places_of_operation": [], "biography": "", "biography_author": null, "date_of_biography": null, "external_links": [], "uuid": "242e1c72-110d-4ed5-8e17-ea1c11edfba4", "source": {"name": "Vernon", "slug": "vernon"}, "source_identifier": "15678", "external_references": [{"id": 37626, "source": {"name": "Wikidata", "slug": "wikidata"}, "source_identifier": "Q120301666"}], "date_modified": "2023-09-13T12:28:22.525921+10:00"}, {"id": 16617, "name": "James Lipscomb", "roles_in_work": [{"id": 2211086, "title": "Polar bear alert", "work_id": 77633, "role": "director", "role_id": 938, "is_primary": true}, {"id": 895055, "title": "Men encounter Mars", "work_id": 70297, "role": "co-producer", "role_id": 915, "is_primary": true}, {"id": 2211080, "title": "Polar bear alert", "work_id": 77633, "role": "co-producer", "role_id": 915, "is_primary": true}, {"id": 1809903, "title": "World bank", "work_id": 76389, "role": "producer", "role_id": 1089, "is_primary": true}], "also_known_as": "", "date_of_birth": "", "date_of_death": "", "genders": [], "languages": [], "places_of_operation": [], "biography": "", "biography_author": null, "date_of_biography": "2023-05-09T15:45:35.376019+10:00", "external_links": [], "uuid": "8ade01cf-0412-48b3-89ff-acc4c29cb4f1", "source": {"name": "Vernon", "slug": "vernon"}, "source_identifier": "21270", "external_references": [{"id": 32893, "source": {"name": "Wikidata", "slug": "wikidata"}, "source_identifier": "Q121034638"}], "date_modified": "2023-09-05T21:04:04.845906+10:00"}]}