{"count": 28687, "next": "https://api.acmi.net.au/creators/?page=1353", "previous": "https://api.acmi.net.au/creators/?page=1351", "results": [{"id": 38118, "name": "Coe-Davis Ltd", "roles_in_work": [{"id": 2749420, "title": "De Duva = The Dove", "work_id": 96800, "role": "production company", "role_id": 941, "is_primary": true}], "also_known_as": "", "date_of_birth": "", "date_of_death": "", "genders": [], "languages": [], "places_of_operation": [], "biography": "", "biography_author": null, "date_of_biography": "2023-05-09T14:52:15.153640+10:00", "external_links": [], "uuid": "16546453-45d0-4835-9ce5-467e040e241e", "source": {"name": "Vernon", "slug": "vernon"}, "source_identifier": "13090", "external_references": [{"id": 38426, "source": {"name": "Wikidata", "slug": "wikidata"}, "source_identifier": "Q121034912"}], "date_modified": "2025-03-13T00:00:17.017520+11:00"}, {"id": 38117, "name": "John Barnes Productions", "roles_in_work": [{"id": 2767460, "title": "Bip hunts butterflies", "work_id": 96799, "role": "production company", "role_id": 941, "is_primary": true}, {"id": 2767465, "title": "Bip as a skater", "work_id": 96821, "role": "production company", "role_id": 941, "is_primary": true}, {"id": 2767468, "title": "Bip at a society party", "work_id": 96916, "role": "production company", "role_id": 941, "is_primary": true}], "also_known_as": "", "date_of_birth": null, "date_of_death": null, "genders": [], "languages": [], "places_of_operation": [], "biography": "", "biography_author": null, "date_of_biography": null, "external_links": [], "uuid": "fa99e6a2-c7e8-44d5-a9f4-e94abbd6dc60", "source": {"name": "Vernon", "slug": "vernon"}, "source_identifier": "9614", "external_references": [], "date_modified": "2025-03-14T18:04:22.912703+11:00"}, {"id": 38115, "name": "Bob Kurtz", "roles_in_work": [{"id": 2749405, "title": "Night people's day", "work_id": 96791, "role": "director", "role_id": 938, "is_primary": true}], "also_known_as": "", "date_of_birth": null, "date_of_death": null, "genders": [], "languages": [], "places_of_operation": [], "biography": "", "biography_author": null, "date_of_biography": null, "external_links": [], "uuid": "1eb9b534-3103-4e7c-9761-7f82c8038b29", "source": {"name": "Vernon", "slug": "vernon"}, "source_identifier": "16077", "external_references": [], "date_modified": "2025-03-13T00:00:05.977659+11:00"}, {"id": 38114, "name": "Media Lab", "roles_in_work": [{"id": 2749402, "title": "Bluegrass country", "work_id": 96789, "role": "production company", "role_id": 941, "is_primary": true}], "also_known_as": "", "date_of_birth": "", "date_of_death": "", "genders": [], "languages": [], "places_of_operation": [], "biography": "", "biography_author": null, "date_of_biography": "2023-08-11T14:59:57.563042+10:00", "external_links": [], "uuid": "70baa408-738d-45cf-8b65-e9bf7fcabfdf", "source": {"name": "Vernon", "slug": "vernon"}, "source_identifier": "10421", "external_references": [], "date_modified": "2025-03-13T00:00:03.736041+11:00"}, {"id": 38112, "name": "Terence Winkless", "roles_in_work": [{"id": 2749388, "title": "Foster's release", "work_id": 96779, "role": "director", "role_id": 938, "is_primary": true}], "also_known_as": "", "date_of_birth": "", "date_of_death": "", "genders": [], "languages": [], "places_of_operation": [], "biography": "", "biography_author": null, "date_of_biography": "2023-08-11T16:45:49.890740+10:00", "external_links": [], "uuid": "530ae77e-e312-4361-8278-ddfd2e26871e", "source": {"name": "Vernon", "slug": "vernon"}, "source_identifier": "29560", "external_references": [], "date_modified": "2025-03-12T23:58:02.356095+11:00"}, {"id": 38111, "name": "Milton C. Hubatka", "roles_in_work": [{"id": 2749387, "title": "Foster's release", "work_id": 96779, "role": "producer", "role_id": 1089, "is_primary": true}], "also_known_as": "", "date_of_birth": "", "date_of_death": "", "genders": [], "languages": [], "places_of_operation": [], "biography": "", "biography_author": null, "date_of_biography": "2023-08-11T16:45:49.224174+10:00", "external_links": [], "uuid": "5c1cdd23-373d-4c69-a39a-bbd9f34d00ae", "source": {"name": "Vernon", "slug": "vernon"}, "source_identifier": "25435", "external_references": [], "date_modified": "2025-03-12T23:58:01.667272+11:00"}, {"id": 38110, "name": "Verexal Productions", "roles_in_work": [{"id": 2749386, "title": "Foster's release", "work_id": 96779, "role": "production company", "role_id": 941, "is_primary": true}], "also_known_as": "", "date_of_birth": "", "date_of_death": "", "genders": [], "languages": [], "places_of_operation": [], "biography": "", "biography_author": null, "date_of_biography": "2023-08-11T16:45:48.553396+10:00", "external_links": [], "uuid": "44231bcc-3165-4738-9d3d-5be13624487b", "source": {"name": "Vernon", "slug": "vernon"}, "source_identifier": "14025", "external_references": [], "date_modified": "2025-03-12T23:58:01.088059+11:00"}, {"id": 38109, "name": "Whitefield Production", "roles_in_work": [{"id": 2749381, "title": "Gettysburg: 1863", "work_id": 96777, "role": "production company", "role_id": 941, "is_primary": true}], "also_known_as": "", "date_of_birth": "", "date_of_death": "", "genders": [], "languages": [], "places_of_operation": [], "biography": "", "biography_author": null, "date_of_biography": "2023-08-11T17:01:48.004268+10:00", "external_links": [], "uuid": "b60c0449-dc84-4405-b6f6-3049557a03e5", "source": {"name": "Vernon", "slug": "vernon"}, "source_identifier": "14346", "external_references": [], "date_modified": "2025-03-12T23:57:57.572613+11:00"}, {"id": 38108, "name": "Edmond Sechan", "roles_in_work": [{"id": 2751904, "title": "Fly away dove", "work_id": 98040, "role": "director", "role_id": 938, "is_primary": true}, {"id": 2749377, "title": "The Golden fish", "work_id": 96771, "role": "director", "role_id": 938, "is_primary": true}, {"id": 2751903, "title": "Fly away dove", "work_id": 98040, "role": "co-producer", "role_id": 915, "is_primary": true}], "also_known_as": "", "date_of_birth": "", "date_of_death": "", "genders": [], "languages": [], "places_of_operation": [], "biography": "", "biography_author": null, "date_of_biography": "2023-05-09T17:01:51.363371+10:00", "external_links": [], "uuid": "9d2c29ef-7b52-448b-aeca-c98625571aeb", "source": {"name": "Vernon", "slug": "vernon"}, "source_identifier": "18563", "external_references": [], "date_modified": "2025-03-13T00:52:41.044316+11:00"}, {"id": 38107, "name": "Todd Delerman", "roles_in_work": [{"id": 2749366, "title": "Whazzat?", "work_id": 96767, "role": "producer", "role_id": 1089, "is_primary": true}], "also_known_as": "", "date_of_birth": null, "date_of_death": null, "genders": [], "languages": [], "places_of_operation": [], "biography": "", "biography_author": null, "date_of_biography": null, "external_links": [], "uuid": "3a637714-fd54-492b-b522-ac7632e119af", "source": {"name": "Vernon", "slug": "vernon"}, "source_identifier": "29800", "external_references": [], "date_modified": "2025-03-12T23:57:46.707865+11:00"}]}