{"count": 28687, "next": "https://api.acmi.net.au/creators/?page=447", "previous": "https://api.acmi.net.au/creators/?page=445", "results": [{"id": 81123, "name": "Jack Rose", "roles_in_work": [{"id": 2000268, "title": "Houseboat", "work_id": 95018, "role": "producer", "role_id": 1089, "is_primary": true}], "also_known_as": "", "date_of_birth": "1911-11-04", "date_of_death": "1995-10-21", "genders": [{"id": 9, "name": "Male", "slug": "male"}], "languages": [], "places_of_operation": [{"id": 1, "name": "United States of America", "slug": "united-states-of-america"}], "biography": "Jack Rose (November 4, 1911 – October 20, 1995) was an American screenwriter and producer. He began writing gags for Milton Berle and radio lines for Bob Hope before moving to screenplays. His first was 1943's Road to Rio starring Hope and Bing Crosby.  In 1955, Rose produced the Hope film The Seven Little Foys, co-written and directed by his frequent collaborator Melville Shavelson. He also wrote and produced a 1962 Dean Martin romantic comedy, Who's Got the Action?\nFor television, Rose created and wrote for the 1968–1970 situation comedy The Good Guys, starring Bob Denver, Herb Edelman, and Joyce Van Patten. It ran for 42 episodes over one-and-a-half seasons.Rose was nominated for Academy Awards three times for The Seven Little Foys, 1958's Houseboat, and 1973's A Touch of Class.", "biography_author": "Wikidata", "date_of_biography": "2022-05-19T11:49:51.917147+10:00", "external_links": [{"id": 2284, "uri": "https://en.wikipedia.org/wiki/Jack_Rose_(screenwriter)"}], "uuid": "b1dcbac1-7e17-4dec-a7bc-0286a1f79166", "source": {"name": "Vernon", "slug": "vernon"}, "source_identifier": "21085", "external_references": [{"id": 9809, "source": {"name": "Wikidata", "slug": "wikidata"}, "source_identifier": "Q1677186"}, {"id": 9810, "source": {"name": "VIAF", "slug": "viaf"}, "source_identifier": "27267845"}, {"id": 9811, "source": {"name": "LOC Auth", "slug": "loc-auth"}, "source_identifier": "n95003664"}, {"id": 9812, "source": {"name": "WorldCat", "slug": "worldcat"}, "source_identifier": "lccn-n95003664"}], "date_modified": "2023-09-05T20:56:48.665101+10:00"}, {"id": 81122, "name": "Sam Firks", "roles_in_work": [{"id": 2000241, "title": "The Naked kiss", "work_id": 95012, "role": "co-producer", "role_id": 915, "is_primary": true}], "also_known_as": "", "date_of_birth": null, "date_of_death": null, "genders": [], "languages": [], "places_of_operation": [], "biography": "", "biography_author": null, "date_of_biography": null, "external_links": [], "uuid": "9a10215f-9dd9-4219-ab2f-b66962434c51", "source": {"name": "Vernon", "slug": "vernon"}, "source_identifier": null, "external_references": [{"id": 35593, "source": {"name": "Wikidata", "slug": "wikidata"}, "source_identifier": "Q121036652"}], "date_modified": "2023-09-06T01:02:32.602276+10:00"}, {"id": 81121, "name": "Andrew A Kosove", "roles_in_work": [{"id": 2000231, "title": "Insomnia (2002)", "work_id": 95009, "role": "co-producer", "role_id": 915, "is_primary": true}], "also_known_as": "", "date_of_birth": null, "date_of_death": null, "genders": [], "languages": [], "places_of_operation": [], "biography": "", "biography_author": null, "date_of_biography": null, "external_links": [], "uuid": "b4484971-be73-4cab-af12-378b12be26a8", "source": {"name": "Vernon", "slug": "vernon"}, "source_identifier": null, "external_references": [{"id": 42177, "source": {"name": "Wikidata", "slug": "wikidata"}, "source_identifier": "Q121222902"}], "date_modified": "2023-09-05T17:34:51.657907+10:00"}, {"id": 81120, "name": "Witt Thomas Section Eight Productions", "roles_in_work": [{"id": 2000227, "title": "Insomnia (2002)", "work_id": 95009, "role": "production company", "role_id": 941, "is_primary": true}], "also_known_as": "", "date_of_birth": null, "date_of_death": null, "genders": [], "languages": [], "places_of_operation": [], "biography": "", "biography_author": null, "date_of_biography": null, "external_links": [], "uuid": "eee03f3a-9ef1-4278-b125-3442467496fd", "source": {"name": "Vernon", "slug": "vernon"}, "source_identifier": null, "external_references": [{"id": 35664, "source": {"name": "Wikidata", "slug": "wikidata"}, "source_identifier": "Q121034511"}], "date_modified": "2023-09-06T02:19:14.802647+10:00"}, {"id": 81119, "name": "Sean Welch", "roles_in_work": [{"id": 2307568, "title": "Spellbound (2002)", "work_id": 95006, "role": "co-producer", "role_id": 915, "is_primary": true}], "also_known_as": "", "date_of_birth": "", "date_of_death": "", "genders": [], "languages": [], "places_of_operation": [], "biography": "", "biography_author": null, "date_of_biography": "2023-05-09T18:47:21.850631+10:00", "external_links": [], "uuid": "81d38464-210a-4ca0-8e0c-aea13cd53909", "source": {"name": "Vernon", "slug": "vernon"}, "source_identifier": "28664", "external_references": [{"id": 39566, "source": {"name": "Wikidata", "slug": "wikidata"}, "source_identifier": "Q121337711"}], "date_modified": "2023-09-06T01:09:39.641462+10:00"}, {"id": 81118, "name": "Tony Wyzenbeek", "roles_in_work": [{"id": 3087099, "title": "Love is in the air. Eps. 4 & 5", "work_id": 95005, "role": "co-producer", "role_id": 915, "is_primary": true}, {"id": 3087088, "title": "Love is in the air. Eps. 1 & 2", "work_id": 95003, "role": "co-producer", "role_id": 915, "is_primary": true}], "also_known_as": "", "date_of_birth": null, "date_of_death": null, "genders": [], "languages": [], "places_of_operation": [], "biography": "", "biography_author": null, "date_of_biography": null, "external_links": [], "uuid": "14b8c7e6-d7a5-4151-8f94-f5098a6973ee", "source": {"name": "Vernon", "slug": "vernon"}, "source_identifier": null, "external_references": [{"id": 41950, "source": {"name": "Wikidata", "slug": "wikidata"}, "source_identifier": "Q121298882"}], "date_modified": "2023-09-06T01:57:18.358733+10:00"}, {"id": 81117, "name": "Richard Stomps", "roles_in_work": [{"id": 3087087, "title": "Love is in the air. Eps. 1 & 2", "work_id": 95003, "role": "co-producer", "role_id": 915, "is_primary": true}, {"id": 3087098, "title": "Love is in the air. Eps. 4 & 5", "work_id": 95005, "role": "co-producer", "role_id": 915, "is_primary": true}], "also_known_as": "", "date_of_birth": null, "date_of_death": null, "genders": [], "languages": [], "places_of_operation": [], "biography": "", "biography_author": null, "date_of_biography": null, "external_links": [], "uuid": "d174869c-f129-4d88-8d64-898d0a1e4baf", "source": {"name": "Vernon", "slug": "vernon"}, "source_identifier": null, "external_references": [{"id": 41186, "source": {"name": "Wikidata", "slug": "wikidata"}, "source_identifier": "Q121143799"}], "date_modified": "2023-09-06T00:33:26.163922+10:00"}, {"id": 81116, "name": "Yoo Jung-Ho", "roles_in_work": [{"id": 2180894, "title": "Out live = Bichunmoo", "work_id": 94998, "role": "co-producer", "role_id": 915, "is_primary": true}], "also_known_as": "", "date_of_birth": "", "date_of_death": "", "genders": [], "languages": [], "places_of_operation": [], "biography": "", "biography_author": null, "date_of_biography": "2023-05-09T14:52:45.112854+10:00", "external_links": [], "uuid": "eb02c0aa-3927-4127-aeda-c0d2bcd984df", "source": {"name": "Vernon", "slug": "vernon"}, "source_identifier": "30597", "external_references": [{"id": 40985, "source": {"name": "Wikidata", "slug": "wikidata"}, "source_identifier": "Q121298867"}], "date_modified": "2023-09-06T02:22:50.162473+10:00"}, {"id": 81115, "name": "Lee Tae-Won", "roles_in_work": [{"id": 2180891, "title": "Out live = Bichunmoo", "work_id": 94998, "role": "co-producer", "role_id": 915, "is_primary": true}], "also_known_as": "", "date_of_birth": "", "date_of_death": "", "genders": [], "languages": [], "places_of_operation": [], "biography": "", "biography_author": null, "date_of_biography": "2023-05-09T14:52:44.877139+10:00", "external_links": [], "uuid": "22e986b7-34e1-451b-93d2-7ce3997d959e", "source": {"name": "Vernon", "slug": "vernon"}, "source_identifier": "23640", "external_references": [{"id": 32428, "source": {"name": "Wikidata", "slug": "wikidata"}, "source_identifier": "Q121036723"}], "date_modified": "2023-09-05T22:18:49.366616+10:00"}, {"id": 81114, "name": "Myfanwy Moore", "roles_in_work": [{"id": 1803992, "title": "Little Britain. The Complete first series", "work_id": 94996, "role": "producer", "role_id": 1089, "is_primary": true}], "also_known_as": "", "date_of_birth": null, "date_of_death": null, "genders": [], "languages": [], "places_of_operation": [], "biography": "", "biography_author": null, "date_of_biography": null, "external_links": [], "uuid": "3f4f56d7-a4b4-4e41-b55f-f9bc1718cdd7", "source": {"name": "Vernon", "slug": "vernon"}, "source_identifier": null, "external_references": [{"id": 51901, "source": {"name": "Wikidata", "slug": "wikidata"}, "source_identifier": "Q121357713"}], "date_modified": "2023-09-05T23:23:33.720389+10:00"}]}