{"count": 28687, "next": "https://api.acmi.net.au/creators/?page=1467", "previous": "https://api.acmi.net.au/creators/?page=1465", "results": [{"id": 35024, "name": "Jonathan Lynn", "roles_in_work": [{"id": 2157428, "title": "My cousin Vinny", "work_id": 93310, "role": "director", "role_id": 938, "is_primary": true}], "also_known_as": "", "date_of_birth": "1943-04-03", "date_of_death": null, "genders": [{"id": 9, "name": "Male", "slug": "male"}], "languages": [{"id": 1, "name": "English", "slug": "english"}], "places_of_operation": [{"id": 10, "name": "United Kingdom", "slug": "united-kingdom"}], "biography": "Jonathan Lynn (born 3 April 1943) is an English stage and film director, producer, writer, and actor. He is known for directing comedy films such as Clue (1985), Nuns on the Run (1990), My Cousin Vinny (1992) and  The Whole Nine Yards (2000). He co-created and co-wrote the television series Yes Minister (1980–1984, 2013) and Yes, Prime Minister (1986–1988).", "biography_author": "Wikidata", "date_of_biography": "2022-05-19T12:04:49.054997+10:00", "external_links": [{"id": 2458, "uri": "https://en.wikipedia.org/wiki/Jonathan_Lynn"}], "uuid": "6ee4343c-268b-48f1-9e68-249a603834a9", "source": {"name": "Vernon", "slug": "vernon"}, "source_identifier": "22661", "external_references": [{"id": 10509, "source": {"name": "Wikidata", "slug": "wikidata"}, "source_identifier": "Q524711"}, {"id": 10510, "source": {"name": "VIAF", "slug": "viaf"}, "source_identifier": "7589094"}, {"id": 10511, "source": {"name": "LOC Auth", "slug": "loc-auth"}, "source_identifier": "n84016413"}, {"id": 10512, "source": {"name": "WorldCat", "slug": "worldcat"}, "source_identifier": "lccn-n84016413"}], "date_modified": "2023-09-13T12:30:38.887602+10:00"}, {"id": 35022, "name": "Peter V Miller Investment Corporation", "roles_in_work": [{"id": 2157416, "title": "My cousin Vinny", "work_id": 93310, "role": "production company", "role_id": 941, "is_primary": true}], "also_known_as": "", "date_of_birth": "", "date_of_death": "", "genders": [], "languages": [], "places_of_operation": [], "biography": "", "biography_author": null, "date_of_biography": "2023-05-09T14:08:30.379986+10:00", "external_links": [], "uuid": "9d49e41d-0a38-427f-9abe-1f78bcd2d3b8", "source": {"name": "Vernon", "slug": "vernon"}, "source_identifier": "11434", "external_references": [{"id": 40166, "source": {"name": "Wikidata", "slug": "wikidata"}, "source_identifier": "Q121035847"}], "date_modified": "2023-09-06T00:02:03.471769+10:00"}, {"id": 35017, "name": "S.B. Modules", "roles_in_work": [{"id": 2406041, "title": "Deskside manner", "work_id": 93305, "role": "production company", "role_id": 941, "is_primary": true}], "also_known_as": "", "date_of_birth": "", "date_of_death": "", "genders": [], "languages": [], "places_of_operation": [], "biography": "", "biography_author": null, "date_of_biography": "2023-08-11T16:05:16.613881+10:00", "external_links": [], "uuid": "2965d541-2a0f-4c71-ac33-59f5d385a2a9", "source": {"name": "Vernon", "slug": "vernon"}, "source_identifier": "28397", "external_references": [], "date_modified": "2023-08-11T16:05:16.614160+10:00"}, {"id": 35016, "name": "Organisation and Methods Training Council", "roles_in_work": [{"id": 2406040, "title": "Deskside manner", "work_id": 93305, "role": "production company", "role_id": 941, "is_primary": true}], "also_known_as": "", "date_of_birth": "", "date_of_death": "", "genders": [], "languages": [], "places_of_operation": [], "biography": "", "biography_author": null, "date_of_biography": "2023-08-11T16:05:15.980354+10:00", "external_links": [], "uuid": "40ae2ad0-09bd-4bee-b980-038bfd9facf3", "source": {"name": "Vernon", "slug": "vernon"}, "source_identifier": "11178", "external_references": [], "date_modified": "2023-08-11T16:05:15.980590+10:00"}, {"id": 35015, "name": "George Samson", "roles_in_work": [{"id": 2404736, "title": "Computer history digest: a chronicle of important events...", "work_id": 93303, "role": "producer", "role_id": 1089, "is_primary": true}], "also_known_as": "", "date_of_birth": "", "date_of_death": "", "genders": [], "languages": [], "places_of_operation": [], "biography": "", "biography_author": null, "date_of_biography": "2023-08-11T15:38:58.870211+10:00", "external_links": [], "uuid": "c7e195d9-f81e-44aa-966a-90da28828513", "source": {"name": "Vernon", "slug": "vernon"}, "source_identifier": "19667", "external_references": [], "date_modified": "2023-08-11T15:38:58.870539+10:00"}, {"id": 35014, "name": "Association for computing machinery", "roles_in_work": [{"id": 2404735, "title": "Computer history digest: a chronicle of important events...", "work_id": 93303, "role": "production company", "role_id": 941, "is_primary": true}], "also_known_as": "", "date_of_birth": "", "date_of_death": "", "genders": [], "languages": [], "places_of_operation": [], "biography": "", "biography_author": null, "date_of_biography": "2023-08-11T15:38:58.246454+10:00", "external_links": [], "uuid": "0891eb54-2fa4-45c7-9e5b-2d2db8b66177", "source": {"name": "Vernon", "slug": "vernon"}, "source_identifier": "5477", "external_references": [], "date_modified": "2023-08-11T15:38:58.246724+10:00"}, {"id": 35013, "name": "California Institute of Earth, Planetary and Life Sciences", "roles_in_work": [{"id": 2410302, "title": "Hurricane. No: 3: The Pacific hurricane season summer 1976", "work_id": 93302, "role": "production company", "role_id": 941, "is_primary": true}], "also_known_as": "", "date_of_birth": "", "date_of_death": "", "genders": [], "languages": [], "places_of_operation": [], "biography": "", "biography_author": null, "date_of_biography": "2023-08-11T17:39:26.742030+10:00", "external_links": [], "uuid": "0a4969e4-0993-42fb-805b-5e4074513935", "source": {"name": "Vernon", "slug": "vernon"}, "source_identifier": "6201", "external_references": [], "date_modified": "2023-08-11T17:39:26.742366+10:00"}, {"id": 35011, "name": "Kiroku Eigasha Productions", "roles_in_work": [{"id": 2412800, "title": "Japan's living craft", "work_id": 93300, "role": "production company", "role_id": 941, "is_primary": true}], "also_known_as": "", "date_of_birth": "", "date_of_death": "", "genders": [], "languages": [], "places_of_operation": [], "biography": "", "biography_author": null, "date_of_biography": "2023-08-11T18:45:58.013033+10:00", "external_links": [], "uuid": "9bea1d22-fc68-46d4-ae10-685b30b9ed3a", "source": {"name": "Vernon", "slug": "vernon"}, "source_identifier": "9792", "external_references": [], "date_modified": "2023-08-11T18:45:58.013394+10:00"}, {"id": 35009, "name": "EFVE", "roles_in_work": [{"id": 2340366, "title": "The Closet = Le Placard [Widescreen]", "work_id": 93297, "role": "production company", "role_id": 941, "is_primary": true}], "also_known_as": "", "date_of_birth": "", "date_of_death": "", "genders": [], "languages": [], "places_of_operation": [], "biography": "", "biography_author": null, "date_of_biography": "2023-05-09T19:38:40.870281+10:00", "external_links": [], "uuid": "21c5676f-c32a-4973-acaf-ce3bebe4c304", "source": {"name": "Vernon", "slug": "vernon"}, "source_identifier": "7829", "external_references": [{"id": 32907, "source": {"name": "Wikidata", "slug": "wikidata"}, "source_identifier": "Q121035155"}], "date_modified": "2023-09-05T19:27:26.632072+10:00"}, {"id": 35006, "name": "Cinemax Reel Life", "roles_in_work": [{"id": 1997398, "title": "Naked states [DVD] (D)", "work_id": 93296, "role": "production company", "role_id": 941, "is_primary": true}, {"id": 915261, "title": "Long night's journey into day", "work_id": 94126, "role": "production company", "role_id": 941, "is_primary": true}, {"id": 2087860, "title": "Amandla! A revolution in four-part harmony", "work_id": 95147, "role": "production company", "role_id": 941, "is_primary": true}], "also_known_as": "", "date_of_birth": "", "date_of_death": "", "genders": [], "languages": [], "places_of_operation": [], "biography": "", "biography_author": null, "date_of_biography": "2023-05-09T11:59:37.466617+10:00", "external_links": [], "uuid": "02d709f3-c7c6-48dc-9a92-186b5ee25dd2", "source": {"name": "Vernon", "slug": "vernon"}, "source_identifier": "6723", "external_references": [{"id": 38341, "source": {"name": "Wikidata", "slug": "wikidata"}, "source_identifier": "Q121271519"}], "date_modified": "2023-09-05T18:38:01.954176+10:00"}]}