{"count": 28687, "next": "https://api.acmi.net.au/creators/?page=150", "previous": "https://api.acmi.net.au/creators/?page=148", "results": [{"id": 84117, "name": "Rungano Nyoni", "roles_in_work": [{"id": 2660516, "title": "Mwansa the Great", "work_id": 117400, "role": "director", "role_id": 938, "is_primary": true}, {"id": 2660515, "title": "Mwansa the Great", "work_id": 117400, "role": "co-producer", "role_id": 915, "is_primary": true}, {"id": 2660520, "title": "Mwansa the Great", "work_id": 117400, "role": "editor", "role_id": 918, "is_primary": true}, {"id": 2660518, "title": "Mwansa the Great", "work_id": 117400, "role": "screenwriter", "role_id": 601, "is_primary": false}], "also_known_as": "", "date_of_birth": "17 MAY 1982", "date_of_death": "", "genders": [{"id": 5, "name": "Female", "slug": "female"}], "languages": [{"id": 1, "name": "English", "slug": "english"}], "places_of_operation": [{"id": 223, "name": "Zambia", "slug": "zambia"}], "biography": "Rungano Nyoni is a Zambian-Welsh director and screenwriter. She is known for the film I Am Not a Witch, which she wrote and directed. The film won Nyoni the BAFTA for Outstanding Debut in 2018 and has also garnered accolades from international film festivals. Her 2009 film, The List, won the Welsh BAFTA Award for Best Short Film. Source: Wikidata; 01/08/2023", "biography_author": null, "date_of_biography": "2025-03-05T19:56:20.675321+11:00", "external_links": [{"id": 3039, "uri": "https://en.wikipedia.org/wiki/Rungano_Nyoni"}], "uuid": "ad4a3886-f68c-408c-8d10-c6ea7208f691", "source": {"name": "Vernon", "slug": "vernon"}, "source_identifier": "37152", "external_references": [{"id": 12902, "source": {"name": "Wikidata", "slug": "wikidata"}, "source_identifier": "Q38054072"}, {"id": 12903, "source": {"name": "VIAF", "slug": "viaf"}, "source_identifier": "1914153126229524750006"}, {"id": 12904, "source": {"name": "LOC Auth", "slug": "loc-auth"}, "source_identifier": "no2018127194"}, {"id": 12905, "source": {"name": "WorldCat", "slug": "worldcat"}, "source_identifier": "lccn-no2018127194"}], "date_modified": "2025-03-05T19:56:20.675577+11:00"}, {"id": 84116, "name": "Gabriel Gauchet", "roles_in_work": [{"id": 2660514, "title": "Mwansa the Great", "work_id": 117400, "role": "co-producer", "role_id": 915, "is_primary": true}, {"id": 2660519, "title": "Mwansa the Great", "work_id": 117400, "role": "editor", "role_id": 918, "is_primary": true}, {"id": 2660517, "title": "Mwansa the Great", "work_id": 117400, "role": "screenwriter", "role_id": 601, "is_primary": false}], "also_known_as": "", "date_of_birth": "", "date_of_death": "", "genders": [], "languages": [], "places_of_operation": [], "biography": "", "biography_author": null, "date_of_biography": "2023-05-09T13:52:22.065020+10:00", "external_links": [], "uuid": "fa9cc64e-5f77-4539-a6f8-a8d6d4ef808c", "source": {"name": "Vernon", "slug": "vernon"}, "source_identifier": "37153", "external_references": [{"id": 40052, "source": {"name": "Wikidata", "slug": "wikidata"}, "source_identifier": "Q121126209"}], "date_modified": "2025-03-05T19:56:20.077769+11:00"}, {"id": 84115, "name": "ICreateFilms", "roles_in_work": [{"id": 2660513, "title": "Mwansa the Great", "work_id": 117400, "role": "production company", "role_id": 941, "is_primary": true}], "also_known_as": "", "date_of_birth": "", "date_of_death": "", "genders": [], "languages": [], "places_of_operation": [], "biography": "", "biography_author": null, "date_of_biography": "2023-05-09T13:52:20.646931+10:00", "external_links": [], "uuid": "bb4c1bb9-8066-4f69-9950-2f34e59e3599", "source": {"name": "Vernon", "slug": "vernon"}, "source_identifier": "37155", "external_references": [{"id": 32624, "source": {"name": "Wikidata", "slug": "wikidata"}, "source_identifier": "Q121035735"}], "date_modified": "2025-03-05T19:56:16.548209+11:00"}, {"id": 84114, "name": "Nicole Pavier", "roles_in_work": [{"id": 2660511, "title": "Chalk", "work_id": 117399, "role": "cast", "role_id": 33, "is_primary": false}], "also_known_as": "", "date_of_birth": "", "date_of_death": "", "genders": [], "languages": [], "places_of_operation": [], "biography": "", "biography_author": null, "date_of_biography": "2023-05-09T13:26:28.680095+10:00", "external_links": [], "uuid": "476e9c86-bf52-4c59-9e68-a9db65740209", "source": {"name": "Vernon", "slug": "vernon"}, "source_identifier": "37123", "external_references": [{"id": 34453, "source": {"name": "Wikidata", "slug": "wikidata"}, "source_identifier": "Q121223249"}], "date_modified": "2025-03-05T19:56:15.248357+11:00"}, {"id": 84113, "name": "Lillie Buttery", "roles_in_work": [{"id": 2660510, "title": "Chalk", "work_id": 117399, "role": "cast", "role_id": 33, "is_primary": false}], "also_known_as": "", "date_of_birth": "", "date_of_death": "", "genders": [], "languages": [], "places_of_operation": [], "biography": "", "biography_author": null, "date_of_biography": "2023-05-09T13:26:28.444813+10:00", "external_links": [], "uuid": "ffd5c615-de30-44d1-98d6-9f9d41d183f7", "source": {"name": "Vernon", "slug": "vernon"}, "source_identifier": "37122", "external_references": [{"id": 39105, "source": {"name": "Wikidata", "slug": "wikidata"}, "source_identifier": "Q121315416"}], "date_modified": "2025-03-05T19:56:14.674458+11:00"}, {"id": 84112, "name": "Charlotte Bruus Christensen", "roles_in_work": [{"id": 2660509, "title": "Chalk", "work_id": 117399, "role": "cinematographer", "role_id": 32, "is_primary": false}], "also_known_as": "", "date_of_birth": "1978-03-20", "date_of_death": "", "genders": [{"id": 5, "name": "Female", "slug": "female"}], "languages": [], "places_of_operation": [{"id": 34, "name": "Denmark", "slug": "denmark"}], "biography": "Charlotte Bruus Christensen (born 20 March 1978) is a Danish cinematographer.", "biography_author": "Wikidata", "date_of_biography": "2023-09-05T18:29:03.318237+10:00", "external_links": [{"id": 5741, "uri": "https://en.wikipedia.org/wiki/Charlotte_Bruus_Christensen"}], "uuid": "ae2f4dbc-e33d-4556-bb36-41b491386a38", "source": {"name": "Vernon", "slug": "vernon"}, "source_identifier": "37121", "external_references": [{"id": 51022, "source": {"name": "Wikidata", "slug": "wikidata"}, "source_identifier": "Q19847395"}, {"id": 54189, "source": {"name": "VIAF", "slug": "viaf"}, "source_identifier": "169294755"}, {"id": 54190, "source": {"name": "LOC Auth", "slug": "loc-auth"}, "source_identifier": "no2016087356"}, {"id": 54191, "source": {"name": "WorldCat", "slug": "worldcat"}, "source_identifier": "lccn-no2016087356"}], "date_modified": "2025-03-05T19:56:14.098678+11:00"}, {"id": 84111, "name": "Benedetto Lanfranco", "roles_in_work": [{"id": 2660508, "title": "Chalk", "work_id": 117399, "role": "editor", "role_id": 918, "is_primary": true}], "also_known_as": "", "date_of_birth": "", "date_of_death": "", "genders": [], "languages": [], "places_of_operation": [], "biography": "", "biography_author": null, "date_of_biography": "2023-05-09T13:26:27.866165+10:00", "external_links": [], "uuid": "f33c3fd5-b345-41fd-9ac1-341e78f16065", "source": {"name": "Vernon", "slug": "vernon"}, "source_identifier": "37120", "external_references": [{"id": 32435, "source": {"name": "Wikidata", "slug": "wikidata"}, "source_identifier": "Q121144033"}], "date_modified": "2025-03-05T19:56:13.519453+11:00"}, {"id": 84110, "name": "Ilaria Bernardini", "roles_in_work": [{"id": 2660507, "title": "Chalk", "work_id": 117399, "role": "screenwriter", "role_id": 601, "is_primary": false}], "also_known_as": "", "date_of_birth": "", "date_of_death": "", "genders": [], "languages": [], "places_of_operation": [], "biography": "", "biography_author": null, "date_of_biography": "2023-05-09T13:26:27.631471+10:00", "external_links": [], "uuid": "a03e7b92-ac96-4c62-ae86-a91f85eb9d46", "source": {"name": "Vernon", "slug": "vernon"}, "source_identifier": "37124", "external_references": [], "date_modified": "2025-03-05T19:56:12.943622+11:00"}, {"id": 84109, "name": "Cinema Extreme", "roles_in_work": [{"id": 2660501, "title": "Chalk", "work_id": 117399, "role": "production company", "role_id": 941, "is_primary": true}], "also_known_as": "", "date_of_birth": "", "date_of_death": "", "genders": [], "languages": [], "places_of_operation": [], "biography": "", "biography_author": null, "date_of_biography": "2023-05-09T13:26:25.362395+10:00", "external_links": [], "uuid": "bf2f2fc9-9510-43d4-95c8-e3d49164b117", "source": {"name": "Vernon", "slug": "vernon"}, "source_identifier": "37117", "external_references": [{"id": 35881, "source": {"name": "Wikidata", "slug": "wikidata"}, "source_identifier": "Q121091354"}], "date_modified": "2025-03-05T19:56:09.454477+11:00"}, {"id": 84108, "name": "Film4", "roles_in_work": [{"id": 2660563, "title": "The Curse", "work_id": 117407, "role": "production company", "role_id": 941, "is_primary": true}, {"id": 2660531, "title": "Pitch Black Heist", "work_id": 117402, "role": "production company", "role_id": 941, "is_primary": true}, {"id": 2660500, "title": "Chalk", "work_id": 117399, "role": "production company", "role_id": 941, "is_primary": true}], "also_known_as": "", "date_of_birth": "", "date_of_death": "", "genders": [], "languages": [], "places_of_operation": [], "biography": "", "biography_author": null, "date_of_biography": "2023-05-09T19:40:50.681516+10:00", "external_links": [], "uuid": "7c01c5ee-b5c0-426f-8880-08bc6e67821c", "source": {"name": "Vernon", "slug": "vernon"}, "source_identifier": "37116", "external_references": [{"id": 36527, "source": {"name": "Wikidata", "slug": "wikidata"}, "source_identifier": "Q121315520"}], "date_modified": "2025-03-05T19:56:48.976093+11:00"}]}