{"count": 28687, "next": "https://api.acmi.net.au/creators/?page=1001", "previous": "https://api.acmi.net.au/creators/?page=999", "results": [{"id": 75582, "name": "Dasha Ross", "roles_in_work": [{"id": 2135030, "title": "Changing the needle", "work_id": 77473, "role": "co-producer", "role_id": 915, "is_primary": true}, {"id": 2243713, "title": "Flamingo Park", "work_id": 75324, "role": "sound", "role_id": 952, "is_primary": false}], "also_known_as": "", "date_of_birth": "", "date_of_death": "", "genders": [], "languages": [], "places_of_operation": [], "biography": "", "biography_author": null, "date_of_biography": "2023-05-09T16:58:45.447584+10:00", "external_links": [], "uuid": "d095cac8-aaea-47c8-97b7-b5fef8fc1cc7", "source": {"name": "Vernon", "slug": "vernon"}, "source_identifier": "17455", "external_references": [{"id": 39578, "source": {"name": "Wikidata", "slug": "wikidata"}, "source_identifier": "Q121271146"}], "date_modified": "2023-09-05T18:53:45.533841+10:00"}, {"id": 75581, "name": "Women's Film Fund (Australia)", "roles_in_work": [{"id": 2243705, "title": "Flamingo Park", "work_id": 75324, "role": "production company", "role_id": 941, "is_primary": true}], "also_known_as": "", "date_of_birth": "", "date_of_death": "", "genders": [], "languages": [], "places_of_operation": [], "biography": "", "biography_author": null, "date_of_biography": "2023-05-09T16:58:44.464203+10:00", "external_links": [], "uuid": "a3f4991f-7588-4d3c-88d6-935c9d520f9b", "source": {"name": "Vernon", "slug": "vernon"}, "source_identifier": "13474", "external_references": [{"id": 39742, "source": {"name": "Wikidata", "slug": "wikidata"}, "source_identifier": "Q121035353"}], "date_modified": "2023-09-06T02:19:55.841267+10:00"}, {"id": 75580, "name": "John Seale", "roles_in_work": [{"id": 2351810, "title": "The Good oil", "work_id": 75913, "role": "cinematographer", "role_id": 32, "is_primary": false}, {"id": 2351745, "title": "Lesley", "work_id": 75319, "role": "cinematographer", "role_id": 32, "is_primary": false}, {"id": 2351791, "title": "Accident", "work_id": 75894, "role": "cinematographer", "role_id": 32, "is_primary": false}], "also_known_as": "", "date_of_birth": "", "date_of_death": "", "genders": [], "languages": [], "places_of_operation": [], "biography": "", "biography_author": null, "date_of_biography": "2023-05-09T19:57:26.719443+10:00", "external_links": [], "uuid": "9072eec8-aaee-4b48-a847-eaaaa817bbcd", "source": {"name": "Vernon", "slug": "vernon"}, "source_identifier": "34555", "external_references": [], "date_modified": "2023-06-14T16:33:30.576250+10:00"}, {"id": 75579, "name": "Kevin Brownlow", "roles_in_work": [{"id": 2078852, "title": "Abel Gance: the charm of dynamite", "work_id": 75313, "role": "director", "role_id": 938, "is_primary": true}, {"id": 2769077, "title": "The Great director", "work_id": 78520, "role": "co-producer", "role_id": 915, "is_primary": true}, {"id": 2128070, "title": "Buster Keaton : a hard act to follow", "work_id": 86645, "role": "co-producer", "role_id": 915, "is_primary": true}, {"id": 916324, "title": "Unknown Chaplin", "work_id": 94709, "role": "co-producer", "role_id": 915, "is_primary": true}, {"id": 2769069, "title": "My happiest years", "work_id": 78519, "role": "co-producer", "role_id": 915, "is_primary": true}, {"id": 2769084, "title": "Hidden treasures", "work_id": 78521, "role": "co-producer", "role_id": 915, "is_primary": true}, {"id": 2155231, "title": "It happened here", "work_id": 87455, "role": "co-producers/directors", "role_id": 628, "is_primary": true}, {"id": 2287408, "title": "Winstanley. It happened here again", "work_id": 89345, "role": "co-producers/directors", "role_id": 628, "is_primary": true}, {"id": 2162951, "title": "D.W. Griffith: father of film", "work_id": 94155, "role": "co-producers/directors", "role_id": 628, "is_primary": true}, {"id": 2650466, "title": "Winstanley", "work_id": 115701, "role": "producer/director", "role_id": 31, "is_primary": true}], "also_known_as": "", "date_of_birth": "02 JUN 1938", "date_of_death": "", "genders": [{"id": 9, "name": "Male", "slug": "male"}], "languages": [{"id": 1, "name": "English", "slug": "english"}, {"id": 5, "name": "German", "slug": "german"}], "places_of_operation": [{"id": 10, "name": "United Kingdom", "slug": "united-kingdom"}], "biography": "Kevin Brownlow (born Robert Kevin Brownlow; 2 June 1938) is a British film historian, television documentary-maker, filmmaker, author, and film editor. He is best known for his work documenting the history of the silent era, having become interested in silent film at the age of eleven. This interest grew into a career spent documenting and restoring film. Brownlow has rescued many silent films and their history. His initiative in interviewing many largely forgotten, elderly film pioneers in the 1960s and 1970s preserved a legacy of early mass-entertainment cinema. He received an Academy Honorary Award at the 2nd Annual Governors Awards given by the Academy of Motion Picture Arts and Sciences on 13 November 2010. This was the first occasion on which an Academy Honorary Award was given to a film preservationist. Source: Wikidata; 01/08/2023", "biography_author": null, "date_of_biography": "2025-03-14T18:12:34.623549+11:00", "external_links": [{"id": 4486, "uri": "https://en.wikipedia.org/wiki/Kevin_Brownlow"}], "uuid": "ddf7e3ea-3148-4d8f-a3a3-c18beee47342", "source": {"name": "Vernon", "slug": "vernon"}, "source_identifier": "111922", "external_references": [{"id": 25035, "source": {"name": "Wikidata", "slug": "wikidata"}, "source_identifier": "Q1724729"}, {"id": 29774, "source": {"name": "VIAF", "slug": "viaf"}, "source_identifier": "31993694"}, {"id": 29775, "source": {"name": "LOC Auth", "slug": "loc-auth"}, "source_identifier": "n79059913"}, {"id": 29776, "source": {"name": "WorldCat", "slug": "worldcat"}, "source_identifier": "lccn-n79059913"}], "date_modified": "2025-03-14T18:12:34.623758+11:00"}, {"id": 75578, "name": "Jacqueline Bottagisio", "roles_in_work": [{"id": 2205891, "title": "Pilgrimage of the devil worshippers", "work_id": 76109, "role": "co-producer", "role_id": 915, "is_primary": true}, {"id": 896420, "title": "In the shadow of Djebel Sindjar", "work_id": 75291, "role": "co-producers/directors", "role_id": 628, "is_primary": true}], "also_known_as": "", "date_of_birth": "", "date_of_death": "", "genders": [], "languages": [], "places_of_operation": [], "biography": "", "biography_author": null, "date_of_biography": "2023-05-09T15:35:20.215896+10:00", "external_links": [], "uuid": "6fb6d821-218c-4fa6-a809-4073dac0c799", "source": {"name": "Vernon", "slug": "vernon"}, "source_identifier": "21124", "external_references": [{"id": 37964, "source": {"name": "Wikidata", "slug": "wikidata"}, "source_identifier": "Q121144158"}], "date_modified": "2023-09-05T20:57:59.068903+10:00"}, {"id": 75577, "name": "Georges Drion", "roles_in_work": [{"id": 2205890, "title": "Pilgrimage of the devil worshippers", "work_id": 76109, "role": "co-producer", "role_id": 915, "is_primary": true}, {"id": 896419, "title": "In the shadow of Djebel Sindjar", "work_id": 75291, "role": "co-producers/directors", "role_id": 628, "is_primary": true}], "also_known_as": "", "date_of_birth": "", "date_of_death": "", "genders": [], "languages": [], "places_of_operation": [], "biography": "", "biography_author": null, "date_of_biography": "2023-05-09T15:35:19.964930+10:00", "external_links": [], "uuid": "88c6d234-2994-4edf-a9fd-53afd87a4061", "source": {"name": "Vernon", "slug": "vernon"}, "source_identifier": "19705", "external_references": [{"id": 32519, "source": {"name": "Wikidata", "slug": "wikidata"}, "source_identifier": "Q121315595"}], "date_modified": "2023-09-05T20:07:45.246969+10:00"}, {"id": 75576, "name": "Andrew Prowse", "roles_in_work": [{"id": 1864597, "title": "Great coastal dune show", "work_id": 75281, "role": "editor", "role_id": 918, "is_primary": true}], "also_known_as": "", "date_of_birth": null, "date_of_death": null, "genders": [], "languages": [], "places_of_operation": [], "biography": "", "biography_author": null, "date_of_biography": null, "external_links": [], "uuid": "d6fd6202-0371-48df-9ac1-7cbf57b981f0", "source": {"name": "Vernon", "slug": "vernon"}, "source_identifier": null, "external_references": [{"id": 35395, "source": {"name": "Wikidata", "slug": "wikidata"}, "source_identifier": "Q121086010"}], "date_modified": "2023-09-05T17:36:38.833051+10:00"}, {"id": 75575, "name": "Peter Johnston", "roles_in_work": [{"id": 1820243, "title": "War without weapons", "work_id": 75270, "role": "producer", "role_id": 1089, "is_primary": true}, {"id": 2194176, "title": "Disasters: national preparedness", "work_id": 76781, "role": "producer", "role_id": 1089, "is_primary": true}], "also_known_as": "", "date_of_birth": "", "date_of_death": "", "genders": [], "languages": [], "places_of_operation": [], "biography": "", "biography_author": null, "date_of_biography": "2023-05-09T15:14:00.291219+10:00", "external_links": [], "uuid": "0d85e828-0f49-43b8-928a-13d7c4cb54d8", "source": {"name": "Vernon", "slug": "vernon"}, "source_identifier": "26596", "external_references": [{"id": 35943, "source": {"name": "Wikidata", "slug": "wikidata"}, "source_identifier": "Q121144287"}], "date_modified": "2023-09-05T23:58:17.804973+10:00"}, {"id": 75574, "name": "Ted Rayment", "roles_in_work": [{"id": 2762821, "title": "Ladakh: little Tibet", "work_id": 75264, "role": "co-producer", "role_id": 915, "is_primary": true}], "also_known_as": "", "date_of_birth": "", "date_of_death": "", "genders": [], "languages": [], "places_of_operation": [], "biography": "", "biography_author": null, "date_of_biography": "2023-05-09T15:35:31.713070+10:00", "external_links": [], "uuid": "dae628c9-7a87-44d2-b7ab-0f8cb5c7ebbc", "source": {"name": "Vernon", "slug": "vernon"}, "source_identifier": "29536", "external_references": [{"id": 34451, "source": {"name": "Wikidata", "slug": "wikidata"}, "source_identifier": "Q121222937"}], "date_modified": "2025-03-14T17:39:31.661042+11:00"}, {"id": 75573, "name": "David Shepard", "roles_in_work": [{"id": 2087346, "title": "Am I Normal? (Captioned)", "work_id": 79142, "role": "co-director", "role_id": 959, "is_primary": true}, {"id": 2087795, "title": "Am I normal?", "work_id": 75240, "role": "co-director", "role_id": 959, "is_primary": true}, {"id": 2751779, "title": "Dear diary", "work_id": 97977, "role": "co-producers/directors", "role_id": 628, "is_primary": true}], "also_known_as": "", "date_of_birth": "", "date_of_death": "", "genders": [], "languages": [], "places_of_operation": [], "biography": "", "biography_author": null, "date_of_biography": "2023-05-09T14:55:41.400853+10:00", "external_links": [], "uuid": "b48aed10-ad17-49a0-a286-5a25a02dc812", "source": {"name": "Vernon", "slug": "vernon"}, "source_identifier": "111610", "external_references": [{"id": 32824, "source": {"name": "Wikidata", "slug": "wikidata"}, "source_identifier": "Q121337446"}], "date_modified": "2025-03-13T00:51:04.073968+11:00"}]}