{"count": 28687, "next": "https://api.acmi.net.au/creators/?page=2667", "previous": "https://api.acmi.net.au/creators/?page=2665", "results": [{"id": 11851, "name": "Michael Roseth", "roles_in_work": [{"id": 2643634, "title": "One another", "work_id": 111242, "role": "creator", "role_id": 968, "is_primary": true}], "also_known_as": "", "date_of_birth": null, "date_of_death": null, "genders": [], "languages": [], "places_of_operation": [], "biography": "", "biography_author": null, "date_of_biography": null, "external_links": [], "uuid": "8d1abd45-9639-413d-8735-652d57a4a1d2", "source": {"name": "Vernon", "slug": "vernon"}, "source_identifier": "3634", "external_references": [], "date_modified": "2025-03-05T12:05:11.505773+11:00"}, {"id": 11850, "name": "Pacific Film and Television Commission.", "roles_in_work": [{"id": 2643632, "title": "Conservation conscious", "work_id": 111241, "role": "funding", "role_id": 609, "is_primary": false}, {"id": 2107828, "title": "Bangers. Feeling sexy", "work_id": 89409, "role": "production company", "role_id": 941, "is_primary": true}, {"id": 875541, "title": "Grandfathers and revolutions", "work_id": 89538, "role": "production company", "role_id": 941, "is_primary": true}], "also_known_as": "", "date_of_birth": "", "date_of_death": "", "genders": [], "languages": [], "places_of_operation": [], "biography": "", "biography_author": null, "date_of_biography": "2023-05-09T13:43:01.478757+10:00", "external_links": [], "uuid": "8ff4a9bb-a5c5-449f-98b1-e4c27f4d26df", "source": {"name": "Vernon", "slug": "vernon"}, "source_identifier": "110515", "external_references": [{"id": 42139, "source": {"name": "Wikidata", "slug": "wikidata"}, "source_identifier": "Q121040209"}], "date_modified": "2025-03-05T12:05:10.487931+11:00"}, {"id": 11848, "name": "Anna Jeffries", "roles_in_work": [{"id": 2643628, "title": "Conservation conscious", "work_id": 111241, "role": "creator", "role_id": 968, "is_primary": true}], "also_known_as": "", "date_of_birth": "", "date_of_death": "", "genders": [], "languages": [], "places_of_operation": [], "biography": "", "biography_author": null, "date_of_biography": "2023-05-09T13:43:00.931611+10:00", "external_links": [], "uuid": "5dbf7903-8ecd-4d80-af77-891eac7b2d08", "source": {"name": "Vernon", "slug": "vernon"}, "source_identifier": "3637", "external_references": [], "date_modified": "2025-03-05T12:05:09.273581+11:00"}, {"id": 11846, "name": "Darfur Australia Network", "roles_in_work": [{"id": 2643625, "title": "NOISE on film: noise for Darfur = Why should Australians make noise for Darfur?", "work_id": 111240, "role": "production company", "role_id": 941, "is_primary": true}], "also_known_as": "", "date_of_birth": "", "date_of_death": "", "genders": [], "languages": [], "places_of_operation": [], "biography": "", "biography_author": null, "date_of_biography": "2023-05-09T14:40:48.743602+10:00", "external_links": [], "uuid": "835d6d30-465e-4937-822e-8f85f1f45044", "source": {"name": "Vernon", "slug": "vernon"}, "source_identifier": "3632", "external_references": [{"id": 42851, "source": {"name": "Wikidata", "slug": "wikidata"}, "source_identifier": "Q121337277"}], "date_modified": "2025-03-05T12:05:07.818156+11:00"}, {"id": 11845, "name": "Infinite Films", "roles_in_work": [{"id": 2643624, "title": "NOISE on film: noise for Darfur = Why should Australians make noise for Darfur?", "work_id": 111240, "role": "production company", "role_id": 941, "is_primary": true}], "also_known_as": "", "date_of_birth": "", "date_of_death": "", "genders": [], "languages": [], "places_of_operation": [], "biography": "", "biography_author": null, "date_of_biography": "2023-05-09T14:40:48.512205+10:00", "external_links": [], "uuid": "25cdca5e-2089-4d91-82ff-f7a470d47ff4", "source": {"name": "Vernon", "slug": "vernon"}, "source_identifier": "3631", "external_references": [{"id": 34204, "source": {"name": "Wikidata", "slug": "wikidata"}, "source_identifier": "Q121159915"}], "date_modified": "2025-03-05T12:05:07.232128+11:00"}, {"id": 11844, "name": "Curtin University", "roles_in_work": [{"id": 2643622, "title": "Ozala", "work_id": 111239, "role": "production company", "role_id": 941, "is_primary": true}], "also_known_as": "", "date_of_birth": null, "date_of_death": null, "genders": [], "languages": [], "places_of_operation": [], "biography": "", "biography_author": null, "date_of_biography": null, "external_links": [], "uuid": "66fc523a-22c5-4582-90c1-d4794ed344cf", "source": {"name": "Vernon", "slug": "vernon"}, "source_identifier": "3626", "external_references": [], "date_modified": "2025-03-05T12:05:05.880351+11:00"}, {"id": 11843, "name": "Film and Television Institute (WA)", "roles_in_work": [{"id": 2643614, "title": "Miriam of North Perth", "work_id": 111237, "role": "production company", "role_id": 941, "is_primary": true}, {"id": 2643618, "title": "Chess", "work_id": 111238, "role": "production company", "role_id": 941, "is_primary": true}], "also_known_as": "", "date_of_birth": "", "date_of_death": "", "genders": [], "languages": [], "places_of_operation": [], "biography": "", "biography_author": null, "date_of_biography": "2023-08-11T19:50:48.279871+10:00", "external_links": [], "uuid": "8b9d4f61-0336-4ddb-9dc5-4c38df2d3468", "source": {"name": "Vernon", "slug": "vernon"}, "source_identifier": "3625", "external_references": [], "date_modified": "2025-03-05T12:05:04.262847+11:00"}, {"id": 11842, "name": "Salam Ziusudras", "roles_in_work": [{"id": 2643621, "title": "Ozala", "work_id": 111239, "role": "creator", "role_id": 968, "is_primary": true}, {"id": 2643615, "title": "Miriam of North Perth", "work_id": 111237, "role": "creator", "role_id": 968, "is_primary": true}, {"id": 2643617, "title": "Chess", "work_id": 111238, "role": "creator", "role_id": 968, "is_primary": true}], "also_known_as": "", "date_of_birth": "", "date_of_death": "", "genders": [], "languages": [], "places_of_operation": [], "biography": "", "biography_author": null, "date_of_biography": "2023-08-11T19:50:47.649302+10:00", "external_links": [], "uuid": "4c902269-4e2b-4f00-8977-13a833ab4f72", "source": {"name": "Vernon", "slug": "vernon"}, "source_identifier": "3624", "external_references": [], "date_modified": "2025-03-05T12:05:05.286281+11:00"}, {"id": 11841, "name": "Nicholas Carlton", "roles_in_work": [{"id": 2643612, "title": "Blood and water", "work_id": 111236, "role": "creator", "role_id": 968, "is_primary": true}], "also_known_as": "", "date_of_birth": "", "date_of_death": "", "genders": [], "languages": [], "places_of_operation": [], "biography": "", "biography_author": null, "date_of_biography": "2023-08-11T14:54:46.783390+10:00", "external_links": [], "uuid": "186826d9-0373-4c22-859f-e766cbd3f894", "source": {"name": "Vernon", "slug": "vernon"}, "source_identifier": "3623", "external_references": [], "date_modified": "2025-03-05T12:05:01.402271+11:00"}, {"id": 11839, "name": "Victor Erice", "roles_in_work": [{"id": 1995059, "title": "The Spirit of the beehive = El Espiritu de la colmena", "work_id": 91040, "role": "director", "role_id": 938, "is_primary": true}, {"id": 2643595, "title": "Correspondences: Víctor Erice and Abbas Kiarostami [exhibition]: archival material", "work_id": 111234, "role": "creator", "role_id": 968, "is_primary": true}], "also_known_as": "", "date_of_birth": "1940", "date_of_death": null, "genders": [{"id": 9, "name": "Male", "slug": "male"}], "languages": [], "places_of_operation": [], "biography": "", "biography_author": null, "date_of_biography": null, "external_links": [], "uuid": "9120360f-0b4c-4163-acb8-fa1550c1793f", "source": {"name": "Vernon", "slug": "vernon"}, "source_identifier": "3620", "external_references": [], "date_modified": "2025-03-05T12:04:08.845411+11:00"}]}