{"count": 28681, "next": "https://api.acmi.net.au/creators/?page=2456", "previous": "https://api.acmi.net.au/creators/?page=2454", "results": [{"id": 14448, "name": "Arne Sucksdorff", "roles_in_work": [{"id": 878545, "title": "Uppbrott = The open road", "work_id": 91272, "role": "director", "role_id": 938, "is_primary": true}, {"id": 876185, "title": "The Dream valley", "work_id": 89911, "role": "director", "role_id": 938, "is_primary": true}, {"id": 2712203, "title": "A Divided world", "work_id": 66839, "role": "director", "role_id": 938, "is_primary": true}, {"id": 2646698, "title": "Trut", "work_id": 74055, "role": "director", "role_id": 938, "is_primary": true}, {"id": 2714908, "title": "The Great adventure", "work_id": 68177, "role": "director", "role_id": 938, "is_primary": true}, {"id": 2716311, "title": "Indian village", "work_id": 68882, "role": "director", "role_id": 938, "is_primary": true}, {"id": 753555, "title": "Shadows on the snow = Skuggor over snon", "work_id": 72889, "role": "director", "role_id": 938, "is_primary": true}, {"id": 752080, "title": "Rhythm of a city", "work_id": 72211, "role": "director", "role_id": 938, "is_primary": true}, {"id": 1814868, "title": "The Wind and the river", "work_id": 90255, "role": "producer", "role_id": 1089, "is_primary": true}, {"id": 859229, "title": "A Tale of summer", "work_id": 73477, "role": "producer/director", "role_id": 31, "is_primary": true}, {"id": 754929, "title": "A Tale of the fiords: a story to see and hear", "work_id": 73478, "role": "producer/director", "role_id": 31, "is_primary": true}, {"id": 874727, "title": "Summer interlude", "work_id": 89063, "role": "producer/director", "role_id": 31, "is_primary": true}], "also_known_as": "", "date_of_birth": "1917-02-03", "date_of_death": "2001-05-04", "genders": [{"id": 9, "name": "Male", "slug": "male"}], "languages": [{"id": 35, "name": "Swedish", "slug": "swedish"}], "places_of_operation": [{"id": 43, "name": "Sweden", "slug": "sweden"}], "biography": "Arne Edvard Sucksdorff (3 February 1917 – 4 May 2001) was a Swedish film director, considered one of cinema's greatest documentary filmmakers.  He was particularly celebrated for his visually poetic and scenic nature documentaries.  His works include Pojken i trädet (The Boy in the Tree) and the Academy Award-winning Människor i Stad (Symphony of a City). \nPerhaps Sucksdorff's most widely admired work was the internationally acclaimed  Det Stora Äventyret (1953) (The Great Adventure) about a year in the outdoors told in semidocumentary fashion from the viewpoint of a farmboy. It is noted for its remarkable photography and authentic scenes of nature, and its appeal to children for its story of domesticated otters. Sucksdorff also appeared as an actor in this film, portraying the father, while his real-life son is an actor as well. The film won the International Prize at the 1954 Cannes Film Festival and the Big Silver Medal (Documentaries and Culture Films) at the 4th Berlin International Film Festival.In the early 1960s, Sucksdorff moved to Alghero, Sardinia, and lived there about 2 years doing spear fishing and exploring the coast with a rubber inflatable Zodiak mark V, after moved to Rio de Janeiro, where he taught cinema at the film school and continued making documentaries, as well as the documentary-style drama Mitt hem är Copacabana (My Home Is Copacabana), which is controversial due to Sucksdorff making up a back story as a street orphan for one of the main actors, a nine year old boy from Ipanema, whose daughter told the real story in a 2019 book.  The film was entered into the 1965 Cannes Film Festival and the 4th Moscow International Film Festival. Sucksdorff also won the award for Best Director at the 2nd Guldbagge Awards. At the 29th Guldbagge Awards he won the Creative Achievement award.In later life, he became an outspoken critic of deforestation and a fervent environmentalist. \nSucksdorff's last film was the 1971 feature Cry of the Penguins (also titled Mr. Forbush and the Penguins), starring John Hurt and Hayley Mills. \nHe died of pneumonia in May 2001 at his birthplace, Stockholm, Sweden.", "biography_author": "Wikidata", "date_of_biography": "2023-08-01T14:06:04.300684+10:00", "external_links": [{"id": 3583, "uri": "https://en.wikipedia.org/wiki/Arne_Sucksdorff"}], "uuid": "9b0c8fa4-9998-4103-aa38-53aa9130b7a8", "source": {"name": "Vernon", "slug": "vernon"}, "source_identifier": "1771", "external_references": [{"id": 26130, "source": {"name": "Wikidata", "slug": "wikidata"}, "source_identifier": "Q692841"}, {"id": 27347, "source": {"name": "VIAF", "slug": "viaf"}, "source_identifier": "57422300"}, {"id": 27348, "source": {"name": "LOC Auth", "slug": "loc-auth"}, "source_identifier": "n83000981"}, {"id": 27349, "source": {"name": "WorldCat", "slug": "worldcat"}, "source_identifier": "lccn-n83000981"}], "date_modified": "2025-03-12T01:55:07.209093+11:00"}, {"id": 14447, "name": "Milosaw Kijawicz", "roles_in_work": [{"id": 2712201, "title": "The Divided man: commitment or compromise", "work_id": 66838, "role": "director", "role_id": 938, "is_primary": true}], "also_known_as": "", "date_of_birth": null, "date_of_death": null, "genders": [], "languages": [], "places_of_operation": [], "biography": "", "biography_author": null, "date_of_biography": null, "external_links": [], "uuid": "60c7b8e0-a43f-45ed-bec6-125f2312c4f1", "source": {"name": "Vernon", "slug": "vernon"}, "source_identifier": "25434", "external_references": [], "date_modified": "2025-03-12T00:12:31.967262+11:00"}, {"id": 14446, "name": "Miniature Film Studio", "roles_in_work": [{"id": 2712200, "title": "The Divided man: commitment or compromise", "work_id": 66838, "role": "production company", "role_id": 941, "is_primary": true}], "also_known_as": "", "date_of_birth": null, "date_of_death": null, "genders": [], "languages": [], "places_of_operation": [], "biography": "", "biography_author": null, "date_of_biography": null, "external_links": [], "uuid": "68541942-f887-435e-aa89-6359ca9421a4", "source": {"name": "Vernon", "slug": "vernon"}, "source_identifier": "10547", "external_references": [], "date_modified": "2025-03-12T00:12:31.374659+11:00"}, {"id": 14445, "name": "Matthias Walden", "roles_in_work": [{"id": 2712197, "title": "Divided Germany", "work_id": 66837, "role": "producer", "role_id": 1089, "is_primary": true}], "also_known_as": "", "date_of_birth": "", "date_of_death": "", "genders": [], "languages": [], "places_of_operation": [], "biography": "", "biography_author": null, "date_of_biography": "2023-08-11T16:11:33.254811+10:00", "external_links": [], "uuid": "4faaec63-a768-4cd8-9561-f9bc9793012b", "source": {"name": "Vernon", "slug": "vernon"}, "source_identifier": "24816", "external_references": [], "date_modified": "2025-03-12T00:12:28.204057+11:00"}, {"id": 14444, "name": "Profil Filmproduktion Report", "roles_in_work": [{"id": 2712196, "title": "Divided Germany", "work_id": 66837, "role": "production company", "role_id": 941, "is_primary": true}], "also_known_as": "", "date_of_birth": "", "date_of_death": "", "genders": [], "languages": [], "places_of_operation": [], "biography": "", "biography_author": null, "date_of_biography": "2023-08-11T16:11:32.628058+10:00", "external_links": [], "uuid": "1377c461-b5ab-497a-9fdc-f2e463f6b21e", "source": {"name": "Vernon", "slug": "vernon"}, "source_identifier": "11686", "external_references": [], "date_modified": "2025-03-12T00:12:27.500632+11:00"}, {"id": 14443, "name": "Signal Corp", "roles_in_work": [{"id": 2771073, "title": "Divide and conquer", "work_id": 66836, "role": "production company", "role_id": 941, "is_primary": true}], "also_known_as": "", "date_of_birth": null, "date_of_death": null, "genders": [], "languages": [], "places_of_operation": [], "biography": "", "biography_author": null, "date_of_biography": null, "external_links": [], "uuid": "31eae1e7-bc80-4469-a21a-ac8087da9fd2", "source": {"name": "Vernon", "slug": "vernon"}, "source_identifier": "12582", "external_references": [], "date_modified": "2025-03-14T18:21:28.442404+11:00"}, {"id": 14442, "name": "United States. War Dept. Special Services Division", "roles_in_work": [{"id": 2771070, "title": "Divide and conquer", "work_id": 66836, "role": "production company", "role_id": 941, "is_primary": true}], "also_known_as": "", "date_of_birth": null, "date_of_death": null, "genders": [], "languages": [], "places_of_operation": [], "biography": "", "biography_author": null, "date_of_biography": null, "external_links": [], "uuid": "c4579c29-7262-4b3b-a9c7-6fb1bbcb4763", "source": {"name": "Vernon", "slug": "vernon"}, "source_identifier": "13812", "external_references": [], "date_modified": "2025-03-14T18:21:27.846264+11:00"}, {"id": 14441, "name": "Norman Keziere", "roles_in_work": [{"id": 2765081, "title": "Drown-proofing", "work_id": 66940, "role": "director", "role_id": 938, "is_primary": true}, {"id": 2765085, "title": "Firemaking and shelters", "work_id": 67540, "role": "director", "role_id": 938, "is_primary": true}, {"id": 2765090, "title": "Fundamental canoeing", "work_id": 67891, "role": "director", "role_id": 938, "is_primary": true}, {"id": 2767244, "title": "Proper winter clothing", "work_id": 71920, "role": "director", "role_id": 938, "is_primary": true}, {"id": 2712185, "title": "Distress signals. Part 2", "work_id": 66832, "role": "director", "role_id": 938, "is_primary": true}, {"id": 856547, "title": "Outdoor cooking in winter", "work_id": 71279, "role": "director", "role_id": 938, "is_primary": true}, {"id": 2712183, "title": "Distress signals. Part 1", "work_id": 66831, "role": "director", "role_id": 938, "is_primary": true}, {"id": 2767247, "title": "Proper summer bush clothing", "work_id": 71919, "role": "director", "role_id": 938, "is_primary": true}], "also_known_as": "", "date_of_birth": null, "date_of_death": null, "genders": [], "languages": [], "places_of_operation": [], "biography": "", "biography_author": null, "date_of_biography": null, "external_links": [], "uuid": "3595ad25-5ff1-4439-ab7a-61f2431aef12", "source": {"name": "Vernon", "slug": "vernon"}, "source_identifier": "25893", "external_references": [], "date_modified": "2025-03-14T17:49:15.196743+11:00"}, {"id": 14438, "name": "Los Angeles City Health Department", "roles_in_work": [{"id": 2712178, "title": "Dishwashing by hand", "work_id": 66826, "role": "production company", "role_id": 941, "is_primary": true}], "also_known_as": "", "date_of_birth": "", "date_of_death": "", "genders": [], "languages": [], "places_of_operation": [], "biography": "", "biography_author": null, "date_of_biography": "2023-05-09T15:15:28.199184+10:00", "external_links": [], "uuid": "03148507-4527-49b5-8964-5fb089b29ddf", "source": {"name": "Vernon", "slug": "vernon"}, "source_identifier": "10160", "external_references": [{"id": 51427, "source": {"name": "Wikidata", "slug": "wikidata"}, "source_identifier": "Q121357732"}], "date_modified": "2025-03-12T00:12:05.649113+11:00"}, {"id": 14437, "name": "Health Sciences Communication Center", "roles_in_work": [{"id": 2712177, "title": "A Discussion with parents of a malformed baby", "work_id": 66825, "role": "production company", "role_id": 941, "is_primary": true}], "also_known_as": "", "date_of_birth": "", "date_of_death": "", "genders": [], "languages": [], "places_of_operation": [], "biography": "", "biography_author": null, "date_of_biography": "2023-08-11T12:59:17.774882+10:00", "external_links": [], "uuid": "38a2d54d-c379-4711-be1a-0cbce3731f61", "source": {"name": "Vernon", "slug": "vernon"}, "source_identifier": "9043", "external_references": [], "date_modified": "2025-03-12T00:12:03.565510+11:00"}]}