{"count": 28687, "next": "https://api.acmi.net.au/creators/?page=557", "previous": "https://api.acmi.net.au/creators/?page=555", "results": [{"id": 80023, "name": "Sean McEuan", "roles_in_work": [{"id": 2314046, "title": "Stork", "work_id": 92860, "role": "cast", "role_id": 33, "is_primary": false}], "also_known_as": "", "date_of_birth": "", "date_of_death": "", "genders": [], "languages": [], "places_of_operation": [], "biography": "", "biography_author": null, "date_of_biography": "2023-05-09T19:01:42.779874+10:00", "external_links": [], "uuid": "8a8420ef-d87b-46af-811d-b2d54a9e1aff", "source": {"name": "Vernon", "slug": "vernon"}, "source_identifier": "34790", "external_references": [{"id": 36384, "source": {"name": "Wikidata", "slug": "wikidata"}, "source_identifier": "Q121315614"}], "date_modified": "2023-09-06T01:09:33.959513+10:00"}, {"id": 80022, "name": "Joel Soisson", "roles_in_work": [{"id": 2115067, "title": "Bill and Ted's excellent adventure", "work_id": 92859, "role": "co-producer", "role_id": 915, "is_primary": true}], "also_known_as": "", "date_of_birth": "1956-08-10", "date_of_death": "", "genders": [{"id": 9, "name": "Male", "slug": "male"}], "languages": [{"id": 1, "name": "English", "slug": "english"}], "places_of_operation": [{"id": 1, "name": "United States of America", "slug": "united-states-of-america"}], "biography": "Joel Soisson is an American filmmaker. He works primarily in the field of independent film. His numerous credits include Dracula 2000, A Nightmare on Elm Street 2: Freddy's Revenge, Bill & Ted's Excellent Adventure, The Prophecy, Little Pink House and Buffalo Rider.", "biography_author": "Wikidata", "date_of_biography": "2023-08-01T15:34:03.504894+10:00", "external_links": [{"id": 4355, "uri": "https://en.wikipedia.org/wiki/Joel_Soisson"}], "uuid": "934c872b-f925-4035-b658-9907c7212518", "source": {"name": "Vernon", "slug": "vernon"}, "source_identifier": "22073", "external_references": [{"id": 25666, "source": {"name": "Wikidata", "slug": "wikidata"}, "source_identifier": "Q1664532"}, {"id": 29445, "source": {"name": "VIAF", "slug": "viaf"}, "source_identifier": "219121"}, {"id": 29446, "source": {"name": "LOC Auth", "slug": "loc-auth"}, "source_identifier": "no2002011513"}, {"id": 29447, "source": {"name": "WorldCat", "slug": "worldcat"}, "source_identifier": "lccn-no2002011513"}], "date_modified": "2023-09-05T21:31:12.844887+10:00"}, {"id": 80021, "name": "Michael S Murphey", "roles_in_work": [{"id": 2115066, "title": "Bill and Ted's excellent adventure", "work_id": 92859, "role": "co-producer", "role_id": 915, "is_primary": true}], "also_known_as": "", "date_of_birth": "", "date_of_death": "", "genders": [], "languages": [], "places_of_operation": [], "biography": "", "biography_author": null, "date_of_biography": "2023-05-09T12:53:02.456556+10:00", "external_links": [], "uuid": "3900c59e-620c-4718-9aee-7a7f1c8973c6", "source": {"name": "Vernon", "slug": "vernon"}, "source_identifier": "25217", "external_references": [{"id": 35529, "source": {"name": "Wikidata", "slug": "wikidata"}, "source_identifier": "Q121315131"}], "date_modified": "2023-09-05T23:08:57.331664+10:00"}, {"id": 80020, "name": "Scott Kramer", "roles_in_work": [{"id": 1996782, "title": "The Limey", "work_id": 92858, "role": "co-producer", "role_id": 915, "is_primary": true}], "also_known_as": "", "date_of_birth": null, "date_of_death": null, "genders": [], "languages": [], "places_of_operation": [], "biography": "", "biography_author": null, "date_of_biography": null, "external_links": [], "uuid": "fd4990db-fa38-4af3-b10d-11b26c0ca865", "source": {"name": "Vernon", "slug": "vernon"}, "source_identifier": null, "external_references": [{"id": 38731, "source": {"name": "Wikidata", "slug": "wikidata"}, "source_identifier": "Q121036851"}], "date_modified": "2023-09-06T01:08:27.577425+10:00"}, {"id": 80019, "name": "Cassian Elwes", "roles_in_work": [{"id": 2162720, "title": "Jack's back", "work_id": 92857, "role": "co-producer", "role_id": 915, "is_primary": true}], "also_known_as": "", "date_of_birth": "1959-08-07", "date_of_death": "", "genders": [{"id": 9, "name": "Male", "slug": "male"}], "languages": [{"id": 1, "name": "English", "slug": "english"}], "places_of_operation": [{"id": 10, "name": "United Kingdom", "slug": "united-kingdom"}], "biography": "Cassian Cary Elwes (born 7 August 1959) is a British independent film producer and talent agent.", "biography_author": "Wikidata", "date_of_biography": "2023-09-05T18:22:00.084748+10:00", "external_links": [{"id": 5732, "uri": "https://en.wikipedia.org/wiki/Cassian_Elwes"}], "uuid": "73594342-f9f3-41a6-8265-21f7651f662f", "source": {"name": "Vernon", "slug": "vernon"}, "source_identifier": "16578", "external_references": [{"id": 51318, "source": {"name": "Wikidata", "slug": "wikidata"}, "source_identifier": "Q5049340"}, {"id": 54160, "source": {"name": "VIAF", "slug": "viaf"}, "source_identifier": "21827158"}, {"id": 54161, "source": {"name": "LOC Auth", "slug": "loc-auth"}, "source_identifier": "no2003025779"}, {"id": 54162, "source": {"name": "WorldCat", "slug": "worldcat"}, "source_identifier": "lccn-no2003025779"}], "date_modified": "2023-09-05T18:22:02.725338+10:00"}, {"id": 80018, "name": "Tim Moore", "roles_in_work": [{"id": 2162717, "title": "Jack's back", "work_id": 92857, "role": "co-producer", "role_id": 915, "is_primary": true}], "also_known_as": "", "date_of_birth": "", "date_of_death": "", "genders": [], "languages": [], "places_of_operation": [], "biography": "", "biography_author": null, "date_of_biography": "2023-05-09T14:20:02.606729+10:00", "external_links": [], "uuid": "06135564-69e8-41e7-971b-d89cbdf89182", "source": {"name": "Vernon", "slug": "vernon"}, "source_identifier": "29748", "external_references": [{"id": 33009, "source": {"name": "Wikidata", "slug": "wikidata"}, "source_identifier": "Q121298759"}], "date_modified": "2023-09-06T01:50:43.918460+10:00"}, {"id": 80017, "name": "Jack Hawkins", "roles_in_work": [{"id": 1996768, "title": "The Ruling class [DVD]", "work_id": 92852, "role": "co-producer", "role_id": 915, "is_primary": true}], "also_known_as": "John Edward Hawkins", "date_of_birth": "1910-09-14", "date_of_death": "1973-07-18", "genders": [{"id": 9, "name": "Male", "slug": "male"}], "languages": [{"id": 1, "name": "English", "slug": "english"}], "places_of_operation": [{"id": 10, "name": "United Kingdom", "slug": "united-kingdom"}], "biography": "John Edward Hawkins, CBE (14 September 1910 – 18 July 1973) was an English actor who worked on stage and in film from the 1930s until the 1970s. One of the most popular British film stars of the 1950s, he was known for his portrayal of military men.", "biography_author": "Wikidata", "date_of_biography": "2023-08-01T15:17:25.487255+10:00", "external_links": [{"id": 4218, "uri": "https://en.wikipedia.org/wiki/Jack_Hawkins"}], "uuid": "c6854e8e-35fa-426c-80fa-e0c21505095e", "source": {"name": "Vernon", "slug": "vernon"}, "source_identifier": "21056", "external_references": [{"id": 24944, "source": {"name": "Wikidata", "slug": "wikidata"}, "source_identifier": "Q26118"}, {"id": 29073, "source": {"name": "VIAF", "slug": "viaf"}, "source_identifier": "29718200"}, {"id": 29074, "source": {"name": "LOC Auth", "slug": "loc-auth"}, "source_identifier": "n50025127"}, {"id": 29075, "source": {"name": "WorldCat", "slug": "worldcat"}, "source_identifier": "lccn-n50025127"}], "date_modified": "2023-09-05T20:55:48.067678+10:00"}, {"id": 80016, "name": "Cappa Films", "roles_in_work": [{"id": 2129783, "title": "Cape fear (1991) [DVD]", "work_id": 92850, "role": "production company", "role_id": 941, "is_primary": true}], "also_known_as": "", "date_of_birth": "", "date_of_death": "", "genders": [], "languages": [], "places_of_operation": [], "biography": "", "biography_author": null, "date_of_biography": "2023-05-09T13:17:48.281345+10:00", "external_links": [], "uuid": "4ab0df15-6fdb-437a-9935-f3a724df0252", "source": {"name": "Vernon", "slug": "vernon"}, "source_identifier": "6280", "external_references": [{"id": 37512, "source": {"name": "Wikidata", "slug": "wikidata"}, "source_identifier": "Q121034394"}], "date_modified": "2023-09-05T18:18:40.712245+10:00"}, {"id": 80015, "name": "Sy Bartlett", "roles_in_work": [{"id": 2129838, "title": "Cape Fear (1962) [DVD]", "work_id": 92849, "role": "producer", "role_id": 1089, "is_primary": true}], "also_known_as": "", "date_of_birth": "1900-07-10", "date_of_death": "1978-05-29", "genders": [{"id": 9, "name": "Male", "slug": "male"}], "languages": [{"id": 1, "name": "English", "slug": "english"}], "places_of_operation": [{"id": 1, "name": "United States of America", "slug": "united-states-of-america"}], "biography": "Sidney \"Sy\" Bartlett (born Sacha Baraniev; July 10, 1900  – May 29, 1978) was a Ukrainian American author and screenwriter/producer of Hollywood films.", "biography_author": "Wikidata", "date_of_biography": "2023-08-01T17:14:11.341693+10:00", "external_links": [{"id": 5235, "uri": "https://en.wikipedia.org/wiki/Sy_Bartlett"}], "uuid": "38692cbc-ab2f-4925-a484-f0e7ad22351f", "source": {"name": "Vernon", "slug": "vernon"}, "source_identifier": "29405", "external_references": [{"id": 26369, "source": {"name": "Wikidata", "slug": "wikidata"}, "source_identifier": "Q2373467"}, {"id": 31712, "source": {"name": "VIAF", "slug": "viaf"}, "source_identifier": "59272321"}, {"id": 31713, "source": {"name": "LOC Auth", "slug": "loc-auth"}, "source_identifier": "n79089930"}, {"id": 31714, "source": {"name": "WorldCat", "slug": "worldcat"}, "source_identifier": "lccn-n79089930"}], "date_modified": "2023-09-06T01:38:17.818637+10:00"}, {"id": 80014, "name": "Julian Harris", "roles_in_work": [{"id": 2253988, "title": "Room full of energy", "work_id": 92845, "role": "co-director", "role_id": 959, "is_primary": true}], "also_known_as": "", "date_of_birth": "", "date_of_death": "", "genders": [], "languages": [], "places_of_operation": [], "biography": "", "biography_author": null, "date_of_biography": "2023-05-09T17:15:00.414325+10:00", "external_links": [], "uuid": "1dde4d0a-88f2-47d7-90d0-9d1722f02069", "source": {"name": "Vernon", "slug": "vernon"}, "source_identifier": "22863", "external_references": [{"id": 34567, "source": {"name": "Wikidata", "slug": "wikidata"}, "source_identifier": "Q121298721"}], "date_modified": "2023-09-05T21:55:22.074506+10:00"}]}