{"count": 28687, "next": "https://api.acmi.net.au/creators/?page=1153", "previous": "https://api.acmi.net.au/creators/?page=1151", "results": [{"id": 73885, "name": "Karen Milward", "roles_in_work": [{"id": 2656514, "title": "Listen up my cherubs!", "work_id": 111151, "role": "creator", "role_id": 968, "is_primary": true}, {"id": 2656558, "title": "Pitcha this : just our mob from Gippsland : Digital Storytelling project", "work_id": 111147, "role": "creator", "role_id": 968, "is_primary": true}], "also_known_as": "", "date_of_birth": "", "date_of_death": "", "genders": [{"id": 5, "name": "Female", "slug": "female"}], "languages": [], "places_of_operation": [], "biography": "", "biography_author": null, "date_of_biography": "2023-05-09T15:37:03.892881+10:00", "external_links": [], "uuid": "4d78d908-b6f3-432f-aa32-03de32acad5a", "source": {"name": "Vernon", "slug": "vernon"}, "source_identifier": "35398", "external_references": [], "date_modified": "2025-03-05T17:10:42.952007+11:00"}, {"id": 73884, "name": "Amy Dowd", "roles_in_work": [{"id": 2656563, "title": "I love my family", "work_id": 111150, "role": "creator", "role_id": 968, "is_primary": true}, {"id": 2656549, "title": "Pitcha this : just our mob from Gippsland : Digital Storytelling project", "work_id": 111147, "role": "creator", "role_id": 968, "is_primary": true}], "also_known_as": "", "date_of_birth": "", "date_of_death": "", "genders": [{"id": 5, "name": "Female", "slug": "female"}], "languages": [], "places_of_operation": [], "biography": "", "biography_author": null, "date_of_biography": "2023-05-09T15:37:01.936143+10:00", "external_links": [], "uuid": "3a8f1584-65a8-4405-aa0c-e38a3d0748d6", "source": {"name": "Vernon", "slug": "vernon"}, "source_identifier": "35385", "external_references": [], "date_modified": "2025-03-05T17:10:46.362785+11:00"}, {"id": 73883, "name": "Ben Yarram", "roles_in_work": [{"id": 2656568, "title": "All about me", "work_id": 111149, "role": "creator", "role_id": 968, "is_primary": true}, {"id": 2656551, "title": "Pitcha this : just our mob from Gippsland : Digital Storytelling project", "work_id": 111147, "role": "creator", "role_id": 968, "is_primary": true}], "also_known_as": "", "date_of_birth": "", "date_of_death": "", "genders": [{"id": 9, "name": "Male", "slug": "male"}], "languages": [], "places_of_operation": [], "biography": "", "biography_author": null, "date_of_biography": "2023-05-09T15:37:18.765833+10:00", "external_links": [], "uuid": "bdd66890-05ce-47e8-add0-fa8cee14a207", "source": {"name": "Vernon", "slug": "vernon"}, "source_identifier": "35387", "external_references": [], "date_modified": "2025-03-05T17:10:49.836679+11:00"}, {"id": 73882, "name": "Norman Terrick", "roles_in_work": [{"id": 2656499, "title": "About Oskie", "work_id": 111148, "role": "creator", "role_id": 968, "is_primary": true}, {"id": 2656557, "title": "Pitcha this : just our mob from Gippsland : Digital Storytelling project", "work_id": 111147, "role": "creator", "role_id": 968, "is_primary": true}], "also_known_as": "", "date_of_birth": "", "date_of_death": "", "genders": [{"id": 9, "name": "Male", "slug": "male"}], "languages": [], "places_of_operation": [], "biography": "", "biography_author": null, "date_of_biography": "2023-05-09T15:37:00.001278+10:00", "external_links": [], "uuid": "d5d4fb7f-de05-44f7-8189-e8161457691c", "source": {"name": "Vernon", "slug": "vernon"}, "source_identifier": "35397", "external_references": [], "date_modified": "2025-03-05T17:10:42.355482+11:00"}, {"id": 73881, "name": "Natasha Craig", "roles_in_work": [{"id": 2656752, "title": "To my dearest son Mileak", "work_id": 111144, "role": "creator", "role_id": 968, "is_primary": true}, {"id": 2656765, "title": "Pitcha this : life stories from A.S.H.E (Shepparton) : Digital Storytelling project", "work_id": 111136, "role": "creator", "role_id": 968, "is_primary": true}], "also_known_as": "", "date_of_birth": "", "date_of_death": "", "genders": [{"id": 5, "name": "Female", "slug": "female"}], "languages": [], "places_of_operation": [], "biography": "", "biography_author": null, "date_of_biography": "2023-05-09T18:39:37.496655+10:00", "external_links": [], "uuid": "1a280809-4305-4d00-b27f-aa192dcb7de8", "source": {"name": "Vernon", "slug": "vernon"}, "source_identifier": "35422", "external_references": [], "date_modified": "2025-03-05T17:17:17.665575+11:00"}, {"id": 73880, "name": "Daniel McCrimmon", "roles_in_work": [{"id": 2656747, "title": "Skittles", "work_id": 111143, "role": "creator", "role_id": 968, "is_primary": true}, {"id": 2656762, "title": "Pitcha this : life stories from A.S.H.E (Shepparton) : Digital Storytelling project", "work_id": 111136, "role": "creator", "role_id": 968, "is_primary": true}], "also_known_as": "", "date_of_birth": "", "date_of_death": "", "genders": [{"id": 9, "name": "Male", "slug": "male"}], "languages": [], "places_of_operation": [], "biography": "", "biography_author": null, "date_of_biography": "2023-05-09T18:39:44.513030+10:00", "external_links": [], "uuid": "d45659d8-85b6-408d-82fc-91f92dfa6d76", "source": {"name": "Vernon", "slug": "vernon"}, "source_identifier": "35420", "external_references": [], "date_modified": "2025-03-05T17:17:15.875708+11:00"}, {"id": 73879, "name": "Misty Briggs", "roles_in_work": [{"id": 2656780, "title": "My tribute to my mum", "work_id": 111142, "role": "creator", "role_id": 968, "is_primary": true}, {"id": 2656760, "title": "Pitcha this : life stories from A.S.H.E (Shepparton) : Digital Storytelling project", "work_id": 111136, "role": "creator", "role_id": 968, "is_primary": true}], "also_known_as": "", "date_of_birth": "", "date_of_death": "", "genders": [{"id": 5, "name": "Female", "slug": "female"}], "languages": [], "places_of_operation": [], "biography": "", "biography_author": null, "date_of_biography": "2023-05-09T18:39:42.873562+10:00", "external_links": [], "uuid": "729cf67b-ff3f-4f66-a45d-b2586bdf78ea", "source": {"name": "Vernon", "slug": "vernon"}, "source_identifier": "35418", "external_references": [], "date_modified": "2025-03-05T17:17:28.017618+11:00"}, {"id": 73878, "name": "Joel Atkinson", "roles_in_work": [{"id": 2656759, "title": "Pitcha this : life stories from A.S.H.E (Shepparton) : Digital Storytelling project", "work_id": 111136, "role": "creator", "role_id": 968, "is_primary": true}, {"id": 2656775, "title": "Life story", "work_id": 111140, "role": "creator", "role_id": 968, "is_primary": true}], "also_known_as": "", "date_of_birth": "", "date_of_death": "", "genders": [{"id": 9, "name": "Male", "slug": "male"}], "languages": [], "places_of_operation": [], "biography": "", "biography_author": null, "date_of_biography": "2023-05-09T18:39:47.964541+10:00", "external_links": [], "uuid": "3755d87b-4338-47bd-96a4-5628b6803a66", "source": {"name": "Vernon", "slug": "vernon"}, "source_identifier": "35417", "external_references": [], "date_modified": "2025-03-05T17:17:24.550543+11:00"}, {"id": 73877, "name": "Brian Beckhurst", "roles_in_work": [{"id": 2656761, "title": "Pitcha this : life stories from A.S.H.E (Shepparton) : Digital Storytelling project", "work_id": 111136, "role": "creator", "role_id": 968, "is_primary": true}, {"id": 2656722, "title": "I love soccer", "work_id": 111139, "role": "interviewee", "role_id": 496, "is_primary": false}], "also_known_as": "", "date_of_birth": "", "date_of_death": "", "genders": [{"id": 9, "name": "Male", "slug": "male"}], "languages": [], "places_of_operation": [], "biography": "", "biography_author": null, "date_of_biography": "2023-05-09T18:39:46.132088+10:00", "external_links": [], "uuid": "503efddf-ad0d-46be-99a8-79de7f002c96", "source": {"name": "Vernon", "slug": "vernon"}, "source_identifier": "35419", "external_references": [], "date_modified": "2025-03-05T17:17:15.251059+11:00"}, {"id": 73876, "name": "Helen Atkinson", "roles_in_work": [{"id": 2656770, "title": "Cousins", "work_id": 111138, "role": "creator", "role_id": 968, "is_primary": true}, {"id": 2656757, "title": "Pitcha this : life stories from A.S.H.E (Shepparton) : Digital Storytelling project", "work_id": 111136, "role": "creator", "role_id": 968, "is_primary": true}], "also_known_as": "", "date_of_birth": "", "date_of_death": "", "genders": [{"id": 5, "name": "Female", "slug": "female"}], "languages": [], "places_of_operation": [], "biography": "", "biography_author": null, "date_of_biography": "2023-05-09T18:39:41.201921+10:00", "external_links": [], "uuid": "1c16e27f-8d3f-4c97-b1ab-4838053b1f4e", "source": {"name": "Vernon", "slug": "vernon"}, "source_identifier": "35415", "external_references": [], "date_modified": "2025-03-05T17:17:21.093041+11:00"}]}