{"count": 28687, "next": "https://api.acmi.net.au/creators/?page=962", "previous": "https://api.acmi.net.au/creators/?page=960", "results": [{"id": 75972, "name": "Frank Ash", "roles_in_work": [{"id": 2649413, "title": "A Vous la France! Eps. 9-15", "work_id": 81506, "role": "co-director", "role_id": 959, "is_primary": true}, {"id": 2340231, "title": "The Computer programme No. 1-5", "work_id": 77455, "role": "co-director", "role_id": 959, "is_primary": true}, {"id": 2340261, "title": "The Computer programme No. 6-10", "work_id": 77498, "role": "co-director", "role_id": 959, "is_primary": true}, {"id": 2077608, "title": "A Vous la France! Eps. 1-8", "work_id": 81505, "role": "co-director", "role_id": 959, "is_primary": true}], "also_known_as": "", "date_of_birth": "", "date_of_death": "", "genders": [], "languages": [], "places_of_operation": [], "biography": "", "biography_author": null, "date_of_biography": "2023-05-09T19:38:31.412413+10:00", "external_links": [], "uuid": "e2c4a4ba-5695-4f19-a41d-2976959c2fa3", "source": {"name": "Vernon", "slug": "vernon"}, "source_identifier": "19088", "external_references": [{"id": 41364, "source": {"name": "Wikidata", "slug": "wikidata"}, "source_identifier": "Q121337514"}], "date_modified": "2025-03-05T14:01:18.886804+11:00"}, {"id": 75971, "name": "Matt Boney", "roles_in_work": [{"id": 2340258, "title": "The Computer programme No. 6-10", "work_id": 77498, "role": "co-director", "role_id": 959, "is_primary": true}, {"id": 2340227, "title": "The Computer programme No. 1-5", "work_id": 77455, "role": "co-director", "role_id": 959, "is_primary": true}], "also_known_as": "", "date_of_birth": "", "date_of_death": "", "genders": [], "languages": [], "places_of_operation": [], "biography": "", "biography_author": null, "date_of_biography": "2023-05-09T19:38:31.187581+10:00", "external_links": [], "uuid": "9639800e-b06c-4a60-839d-ebe9c2feb531", "source": {"name": "Vernon", "slug": "vernon"}, "source_identifier": "24782", "external_references": [{"id": 37756, "source": {"name": "Wikidata", "slug": "wikidata"}, "source_identifier": "Q121036394"}], "date_modified": "2023-09-05T22:54:08.637826+10:00"}, {"id": 75970, "name": "Stewart Young", "roles_in_work": [{"id": 2198903, "title": "Don't call me girlie", "work_id": 78339, "role": "co-director", "role_id": 959, "is_primary": true}, {"id": 2242613, "title": "First contact", "work_id": 77454, "role": "editor", "role_id": 918, "is_primary": true}], "also_known_as": "", "date_of_birth": "", "date_of_death": "", "genders": [], "languages": [], "places_of_operation": [], "biography": "", "biography_author": null, "date_of_biography": "2023-05-09T16:56:31.798447+10:00", "external_links": [], "uuid": "c49d1411-58d9-417e-a252-d1e3b66b4cc9", "source": {"name": "Vernon", "slug": "vernon"}, "source_identifier": "29230", "external_references": [{"id": 38270, "source": {"name": "Wikidata", "slug": "wikidata"}, "source_identifier": "Q121126896"}], "date_modified": "2023-09-06T01:32:41.982332+10:00"}, {"id": 75969, "name": "Ian Wilson", "roles_in_work": [{"id": 2242609, "title": "First contact", "work_id": 77454, "role": "sound", "role_id": 952, "is_primary": false}], "also_known_as": "", "date_of_birth": "", "date_of_death": "", "genders": [], "languages": [], "places_of_operation": [], "biography": "", "biography_author": null, "date_of_biography": "2023-05-09T16:56:31.569405+10:00", "external_links": [], "uuid": "99ee8999-faa4-4f65-9855-da9f03b6e273", "source": {"name": "Vernon", "slug": "vernon"}, "source_identifier": "35968", "external_references": [], "date_modified": "2023-06-14T16:33:30.576250+10:00"}, {"id": 75968, "name": "Robin Anderson", "roles_in_work": [{"id": 2236651, "title": "Rats in the Ranks", "work_id": 85419, "role": "co-director", "role_id": 959, "is_primary": true}, {"id": 2224780, "title": "Facing the music", "work_id": 92732, "role": "co-director", "role_id": 959, "is_primary": true}, {"id": 2236639, "title": "Rats in the Ranks", "work_id": 85419, "role": "co-producer", "role_id": 915, "is_primary": true}, {"id": 899013, "title": "Joe Leahy's Neighbours", "work_id": 79570, "role": "co-producer", "role_id": 915, "is_primary": true}, {"id": 2117615, "title": "Black harvest", "work_id": 82713, "role": "co-producers/directors", "role_id": 628, "is_primary": true}, {"id": 2242583, "title": "First contact", "work_id": 77454, "role": "producer/director", "role_id": 31, "is_primary": true}, {"id": 2751132, "title": "Franklin River journey", "work_id": 97667, "role": "script", "role_id": 962, "is_primary": false}, {"id": 2236664, "title": "Rats in the Ranks", "work_id": 85419, "role": "writer", "role_id": 939, "is_primary": true}], "also_known_as": "", "date_of_birth": "11 SEP 1948", "date_of_death": "08 MAR 2002", "genders": [{"id": 5, "name": "Female", "slug": "female"}], "languages": [{"id": 1, "name": "English", "slug": "english"}], "places_of_operation": [{"id": 3, "name": "Australia", "slug": "australia"}], "biography": "Robin Anderson (1950 – 2002) was an Australian award-winning documentary filmmaker. Source: Wikidata; 01/08/2023", "biography_author": null, "date_of_biography": "2025-03-13T00:37:18.746743+11:00", "external_links": [{"id": 5052, "uri": "https://en.wikipedia.org/wiki/Robin_Anderson"}], "uuid": "7b736fc6-db8e-4156-a9eb-967b9e6d5847", "source": {"name": "Vernon", "slug": "vernon"}, "source_identifier": "27939", "external_references": [{"id": 26268, "source": {"name": "Wikidata", "slug": "wikidata"}, "source_identifier": "Q15710032"}, {"id": 31250, "source": {"name": "VIAF", "slug": "viaf"}, "source_identifier": "71425515"}, {"id": 31251, "source": {"name": "LOC Auth", "slug": "loc-auth"}, "source_identifier": "n80012321"}, {"id": 31252, "source": {"name": "WorldCat", "slug": "worldcat"}, "source_identifier": "lccn-n80012321"}], "date_modified": "2025-03-13T00:37:18.747023+11:00"}, {"id": 75967, "name": "Gerald Bostock", "roles_in_work": [{"id": 2377793, "title": "Lousy little sixpence", "work_id": 77448, "role": "co-producer", "role_id": 915, "is_primary": true}], "also_known_as": "", "date_of_birth": "", "date_of_death": "", "genders": [], "languages": [], "places_of_operation": [], "biography": "", "biography_author": null, "date_of_biography": "2023-07-12T03:40:18.454381+10:00", "external_links": [], "uuid": "782c24c3-a639-4f48-9369-fb5cfaf5979a", "source": {"name": "Vernon", "slug": "vernon"}, "source_identifier": "19724", "external_references": [{"id": 32817, "source": {"name": "Wikidata", "slug": "wikidata"}, "source_identifier": "Q117861884"}], "date_modified": "2023-09-05T20:08:41.202700+10:00"}, {"id": 75966, "name": "Lois Irving", "roles_in_work": [{"id": 2087194, "title": "Alpine holiday", "work_id": 77441, "role": "co-producer", "role_id": 915, "is_primary": true}], "also_known_as": "", "date_of_birth": "", "date_of_death": "", "genders": [], "languages": [], "places_of_operation": [], "biography": "", "biography_author": null, "date_of_biography": "2023-05-09T11:58:38.417985+10:00", "external_links": [], "uuid": "12421f5e-b1f3-469e-97ad-6013d48a87a7", "source": {"name": "Vernon", "slug": "vernon"}, "source_identifier": "23978", "external_references": [{"id": 39888, "source": {"name": "Wikidata", "slug": "wikidata"}, "source_identifier": "Q121079535"}], "date_modified": "2023-09-05T22:29:12.422468+10:00"}, {"id": 75965, "name": "Julian Brown", "roles_in_work": [{"id": 2087191, "title": "Alpine holiday", "work_id": 77441, "role": "co-producer", "role_id": 915, "is_primary": true}], "also_known_as": "", "date_of_birth": "", "date_of_death": "", "genders": [], "languages": [], "places_of_operation": [], "biography": "", "biography_author": null, "date_of_biography": "2023-05-09T11:58:38.186859+10:00", "external_links": [], "uuid": "b88e0f61-279b-421a-bdb3-ba7856521bc9", "source": {"name": "Vernon", "slug": "vernon"}, "source_identifier": "22855", "external_references": [{"id": 40698, "source": {"name": "Wikidata", "slug": "wikidata"}, "source_identifier": "Q121337657"}], "date_modified": "2023-09-05T21:55:11.193115+10:00"}, {"id": 75964, "name": "Peter Donaldson", "roles_in_work": [{"id": 2212225, "title": "Duck farming: an indonesian tradition", "work_id": 77438, "role": "co-producer", "role_id": 915, "is_primary": true}], "also_known_as": "", "date_of_birth": "", "date_of_death": "", "genders": [], "languages": [], "places_of_operation": [], "biography": "", "biography_author": null, "date_of_biography": "2023-05-09T15:47:49.671222+10:00", "external_links": [], "uuid": "f21c9291-f121-4e7b-97b9-f962e9870a37", "source": {"name": "Vernon", "slug": "vernon"}, "source_identifier": "26521", "external_references": [{"id": 51369, "source": {"name": "Wikidata", "slug": "wikidata"}, "source_identifier": "Q121357784"}], "date_modified": "2023-09-05T23:55:26.305850+10:00"}, {"id": 75963, "name": "Nick Anderson", "roles_in_work": [{"id": 2212224, "title": "Duck farming: an indonesian tradition", "work_id": 77438, "role": "co-producer", "role_id": 915, "is_primary": true}], "also_known_as": "", "date_of_birth": "", "date_of_death": "", "genders": [], "languages": [], "places_of_operation": [], "biography": "", "biography_author": null, "date_of_biography": "2023-05-09T15:47:49.321399+10:00", "external_links": [], "uuid": "d2c67a15-15ec-4209-b60f-88dc8bb9d016", "source": {"name": "Vernon", "slug": "vernon"}, "source_identifier": "25732", "external_references": [{"id": 32745, "source": {"name": "Wikidata", "slug": "wikidata"}, "source_identifier": "Q121337539"}], "date_modified": "2023-09-05T23:29:31.328711+10:00"}]}