{"count": 28682, "next": "https://api.acmi.net.au/creators/?page=1899", "previous": "https://api.acmi.net.au/creators/?page=1897", "results": [{"id": 24515, "name": "House and Moorhouse Films", "roles_in_work": [{"id": 2615545, "title": "Muriel's wedding (Captioned)", "work_id": 85643, "role": "production company", "role_id": 941, "is_primary": true}, {"id": 1995994, "title": "Muriel's Wedding [DVD]", "work_id": 92454, "role": "production company", "role_id": 941, "is_primary": true}, {"id": 1988861, "title": "Muriel's wedding", "work_id": 84932, "role": "production company", "role_id": 941, "is_primary": true}, {"id": 2231415, "title": "Proof (Captioned)", "work_id": 85152, "role": "production company", "role_id": 941, "is_primary": true}, {"id": 2231393, "title": "Proof", "work_id": 82293, "role": "production company", "role_id": 941, "is_primary": true}], "also_known_as": "", "date_of_birth": "", "date_of_death": "", "genders": [], "languages": [], "places_of_operation": [], "biography": "", "biography_author": null, "date_of_biography": "2023-05-09T16:37:30.934041+10:00", "external_links": [], "uuid": "5a193cbb-00be-4178-9c08-5069ac215088", "source": {"name": "Vernon", "slug": "vernon"}, "source_identifier": "9155", "external_references": [{"id": 35751, "source": {"name": "Wikidata", "slug": "wikidata"}, "source_identifier": "Q121034311"}], "date_modified": "2025-02-26T20:25:13.522123+11:00"}, {"id": 24513, "name": "Location Equipment", "roles_in_work": [{"id": 2649833, "title": "The great dinosaur hunt", "work_id": 82289, "role": "production company", "role_id": 941, "is_primary": true}], "also_known_as": "", "date_of_birth": null, "date_of_death": null, "genders": [], "languages": [], "places_of_operation": [], "biography": "", "biography_author": null, "date_of_biography": null, "external_links": [], "uuid": "8fd36df2-d29b-4a1f-94ac-da7648ef54e9", "source": {"name": "Vernon", "slug": "vernon"}, "source_identifier": "10119", "external_references": [], "date_modified": "2025-03-05T14:06:39.552125+11:00"}, {"id": 24512, "name": "Reel Images", "roles_in_work": [{"id": 2649831, "title": "The great dinosaur hunt", "work_id": 82289, "role": "distributor", "role_id": 437, "is_primary": false}, {"id": 2793713, "title": "Acupuncture", "work_id": 85687, "role": "production company", "role_id": 941, "is_primary": true}, {"id": 2793708, "title": "Meditation", "work_id": 85703, "role": "production company", "role_id": 941, "is_primary": true}, {"id": 2793703, "title": "Movement", "work_id": 85702, "role": "production company", "role_id": 941, "is_primary": true}, {"id": 2793734, "title": "The Nature of healing", "work_id": 115479, "role": "production company", "role_id": 941, "is_primary": true}, {"id": 2751156, "title": "Gertie the dinosaur", "work_id": 97679, "role": "production company", "role_id": 941, "is_primary": true}, {"id": 2649832, "title": "The great dinosaur hunt", "work_id": 82289, "role": "production company", "role_id": 941, "is_primary": true}, {"id": 1932254, "title": "Silent legacy", "work_id": 91388, "role": "production company", "role_id": 941, "is_primary": true}, {"id": 2793728, "title": "Biomagnetism", "work_id": 85704, "role": "production company", "role_id": 941, "is_primary": true}, {"id": 2793723, "title": "Homeopathy", "work_id": 85889, "role": "production company", "role_id": 941, "is_primary": true}, {"id": 2793718, "title": "Touch", "work_id": 85893, "role": "production company", "role_id": 941, "is_primary": true}], "also_known_as": "", "date_of_birth": "", "date_of_death": "", "genders": [], "languages": [], "places_of_operation": [], "biography": "", "biography_author": null, "date_of_biography": "2023-05-09T18:27:49.973202+10:00", "external_links": [], "uuid": "819a0364-39a0-4cf7-8c78-83c18e374f21", "source": {"name": "Vernon", "slug": "vernon"}, "source_identifier": "3888", "external_references": [], "date_modified": "2025-03-14T20:20:30.545406+11:00"}, {"id": 24508, "name": "Quality Time TV", "roles_in_work": [{"id": 2123433, "title": "Brain sex. Episode 2", "work_id": 82287, "role": "production company", "role_id": 941, "is_primary": true}, {"id": 2123418, "title": "Brain sex. Episode 1", "work_id": 82286, "role": "production company", "role_id": 941, "is_primary": true}, {"id": 2649824, "title": "Brain sex. Episode 3", "work_id": 82288, "role": "production company", "role_id": 941, "is_primary": true}], "also_known_as": "", "date_of_birth": "", "date_of_death": "", "genders": [], "languages": [], "places_of_operation": [], "biography": "", "biography_author": null, "date_of_biography": "2023-05-09T13:07:09.854768+10:00", "external_links": [], "uuid": "f51af8ac-9524-49bb-b10b-c19480fbb1df", "source": {"name": "Vernon", "slug": "vernon"}, "source_identifier": "11759", "external_references": [{"id": 38623, "source": {"name": "Wikidata", "slug": "wikidata"}, "source_identifier": "Q121337660"}], "date_modified": "2025-03-05T14:06:34.585776+11:00"}, {"id": 24507, "name": "Shauna Brown", "roles_in_work": [{"id": 1427013, "title": "The Gay rock and roll years", "work_id": 82284, "role": "director", "role_id": 938, "is_primary": true}, {"id": 2650035, "title": "Homophobia in Hollywood", "work_id": 82606, "role": "producer", "role_id": 1089, "is_primary": true}, {"id": 1804738, "title": "Suddenly last summer (Eastbourne)", "work_id": 82607, "role": "producer", "role_id": 1089, "is_primary": true}], "also_known_as": "", "date_of_birth": null, "date_of_death": null, "genders": [], "languages": [], "places_of_operation": [], "biography": "", "biography_author": null, "date_of_biography": null, "external_links": [], "uuid": "ee775d6b-29a4-431c-9b4a-dfb79e9fd70e", "source": {"name": "Vernon", "slug": "vernon"}, "source_identifier": "28727", "external_references": [], "date_modified": "2025-03-05T14:08:45.327369+11:00"}, {"id": 24506, "name": "Clare Beavan", "roles_in_work": [{"id": 779439, "title": "Suddenly last summer (Eastbourne)", "work_id": 82607, "role": "director", "role_id": 938, "is_primary": true}, {"id": 2650036, "title": "Homophobia in Hollywood", "work_id": 82606, "role": "director", "role_id": 938, "is_primary": true}, {"id": 1815528, "title": "The Gay rock and roll years", "work_id": 82284, "role": "producer", "role_id": 1089, "is_primary": true}, {"id": 2330388, "title": "The Best of 'Out' & 'Out on Tuesday'", "work_id": 82714, "role": "producer", "role_id": 1089, "is_primary": true}], "also_known_as": "", "date_of_birth": "", "date_of_death": "", "genders": [], "languages": [], "places_of_operation": [], "biography": "", "biography_author": null, "date_of_biography": "2023-05-09T19:24:45.158581+10:00", "external_links": [], "uuid": "f78f7cd6-1904-4635-8d30-2841fa80da6a", "source": {"name": "Vernon", "slug": "vernon"}, "source_identifier": "17052", "external_references": [{"id": 39691, "source": {"name": "Wikidata", "slug": "wikidata"}, "source_identifier": "Q121091387"}], "date_modified": "2025-03-05T14:08:45.918961+11:00"}, {"id": 24505, "name": "Fulcrum", "roles_in_work": [{"id": 2345516, "title": "The Disco years", "work_id": 82547, "role": "distributor", "role_id": 437, "is_primary": false}, {"id": 779436, "title": "Suddenly last summer (Eastbourne)", "work_id": 82607, "role": "distributor", "role_id": 437, "is_primary": false}, {"id": 2650033, "title": "Homophobia in Hollywood", "work_id": 82606, "role": "distributor", "role_id": 437, "is_primary": false}, {"id": 1427010, "title": "The Gay rock and roll years", "work_id": 82284, "role": "production company", "role_id": 941, "is_primary": true}], "also_known_as": "", "date_of_birth": "", "date_of_death": "", "genders": [], "languages": [], "places_of_operation": [], "biography": "", "biography_author": null, "date_of_biography": "2023-05-09T19:46:10.849518+10:00", "external_links": [], "uuid": "7b0bd2c2-6767-4bbe-a856-8f50c54ca791", "source": {"name": "Vernon", "slug": "vernon"}, "source_identifier": "8599", "external_references": [{"id": 35862, "source": {"name": "Wikidata", "slug": "wikidata"}, "source_identifier": "Q121035356"}], "date_modified": "2025-03-05T14:08:44.135921+11:00"}, {"id": 24503, "name": "Guidance Associates Video", "roles_in_work": [{"id": 2784028, "title": "The Diary of Anne Frank. A Separate peace by John Knowles", "work_id": 82382, "role": "production company", "role_id": 941, "is_primary": true}, {"id": 2784024, "title": "Animal Farm by George Orwell. The Grapes of wrath by John Steinbeck", "work_id": 82276, "role": "production company", "role_id": 941, "is_primary": true}, {"id": 2784036, "title": "I couldn't put it down - hooked on books. Classroom classics", "work_id": 115279, "role": "production company", "role_id": 941, "is_primary": true}], "also_known_as": "", "date_of_birth": "", "date_of_death": "", "genders": [], "languages": [], "places_of_operation": [], "biography": "", "biography_author": null, "date_of_biography": "2023-05-09T19:45:54.333932+10:00", "external_links": [], "uuid": "0553dd05-0635-4108-a425-402347d64fac", "source": {"name": "Vernon", "slug": "vernon"}, "source_identifier": "8933", "external_references": [{"id": 33384, "source": {"name": "Wikidata", "slug": "wikidata"}, "source_identifier": "Q121143941"}], "date_modified": "2025-03-14T19:18:36.671710+11:00"}, {"id": 24502, "name": "William Furstenberg", "roles_in_work": [{"id": 2296681, "title": "Shakespeare: a day at the Globe", "work_id": 82273, "role": "producer", "role_id": 1089, "is_primary": true}], "also_known_as": "", "date_of_birth": "", "date_of_death": "", "genders": [], "languages": [], "places_of_operation": [], "biography": "", "biography_author": null, "date_of_biography": "2023-05-09T18:28:47.911789+10:00", "external_links": [], "uuid": "d484f803-2ca0-4808-818f-ce172e069c41", "source": {"name": "Vernon", "slug": "vernon"}, "source_identifier": "30425", "external_references": [{"id": 34884, "source": {"name": "Wikidata", "slug": "wikidata"}, "source_identifier": "Q121086231"}], "date_modified": "2023-09-06T02:15:52.725882+10:00"}, {"id": 24501, "name": "Barbara Winard", "roles_in_work": [{"id": 2264090, "title": "Science fiction: Jules Verne to Ray Bradbury... and beyond", "work_id": 82272, "role": "producer", "role_id": 1089, "is_primary": true}, {"id": 1806135, "title": "Shakespeare is alive and well in the modern world", "work_id": 84736, "role": "producer", "role_id": 1089, "is_primary": true}], "also_known_as": "", "date_of_birth": "", "date_of_death": "", "genders": [], "languages": [], "places_of_operation": [], "biography": "", "biography_author": null, "date_of_biography": "2023-05-09T17:33:14.054601+10:00", "external_links": [], "uuid": "e57577cb-022c-4af5-8871-4211db7e371a", "source": {"name": "Vernon", "slug": "vernon"}, "source_identifier": "15674", "external_references": [{"id": 40942, "source": {"name": "Wikidata", "slug": "wikidata"}, "source_identifier": "Q121223453"}], "date_modified": "2023-09-05T17:53:31.640900+10:00"}]}