{"count": 28687, "next": "https://api.acmi.net.au/creators/?page=1917", "previous": "https://api.acmi.net.au/creators/?page=1915", "results": [{"id": 24186, "name": "E.J. Perry", "roles_in_work": [{"id": 878865, "title": "Physical education at Crows Nest, Queenscliff", "work_id": 91431, "role": "director", "role_id": 938, "is_primary": true}, {"id": 825190, "title": "The Victorian State Schools' Nursery", "work_id": 95724, "role": "director", "role_id": 938, "is_primary": true}, {"id": 1905120, "title": "Teachers of Tomorrow", "work_id": 95673, "role": "director", "role_id": 938, "is_primary": true}, {"id": 1905303, "title": "The Secondary Teacher", "work_id": 96414, "role": "director", "role_id": 938, "is_primary": true}, {"id": 886300, "title": "Timboon Consolidated School", "work_id": 95704, "role": "director", "role_id": 938, "is_primary": true}, {"id": 886298, "title": "Murrayville Consolidated School", "work_id": 95703, "role": "director", "role_id": 938, "is_primary": true}, {"id": 918246, "title": "Burwood Teachers' College", "work_id": 95665, "role": "co-producers/directors", "role_id": 628, "is_primary": true}, {"id": 2649628, "title": "Lost in the bush", "work_id": 81932, "role": "producer", "role_id": 1089, "is_primary": true}, {"id": 1804988, "title": "Camp by the sea", "work_id": 95820, "role": "producer", "role_id": 1089, "is_primary": true}, {"id": 1817024, "title": "Visit to the zoo", "work_id": 95664, "role": "producer", "role_id": 1089, "is_primary": true}, {"id": 2392770, "title": "The Bristol school", "work_id": 95702, "role": "producer", "role_id": 1089, "is_primary": true}], "also_known_as": "", "date_of_birth": "", "date_of_death": "", "genders": [], "languages": [], "places_of_operation": [], "biography": "", "biography_author": null, "date_of_biography": "2023-08-09T04:08:21.889739+10:00", "external_links": [], "uuid": "7448cac0-9a28-438d-b95c-eca90f217607", "source": {"name": "Vernon", "slug": "vernon"}, "source_identifier": "18492", "external_references": [{"id": 37889, "source": {"name": "Wikidata", "slug": "wikidata"}, "source_identifier": "Q121091334"}], "date_modified": "2025-03-05T14:03:32.534561+11:00"}, {"id": 24185, "name": "Alan Degen", "roles_in_work": [{"id": 2779072, "title": "World of Pets", "work_id": 115233, "role": "director", "role_id": 938, "is_primary": true}, {"id": 2779066, "title": "Cats", "work_id": 81929, "role": "director", "role_id": 938, "is_primary": true}, {"id": 2795934, "title": "Cats", "work_id": 88987, "role": "director", "role_id": 938, "is_primary": true}], "also_known_as": "", "date_of_birth": "", "date_of_death": "", "genders": [], "languages": [], "places_of_operation": [], "biography": "", "biography_author": null, "date_of_biography": "2023-05-09T13:23:22.912666+10:00", "external_links": [], "uuid": "a2983cfa-94bb-4df2-942a-ac0c5320789e", "source": {"name": "Vernon", "slug": "vernon"}, "source_identifier": "14747", "external_references": [], "date_modified": "2025-03-14T20:33:53.401268+11:00"}, {"id": 24184, "name": "Sidney Platt", "roles_in_work": [{"id": 2753246, "title": "Fossils: clues to the past", "work_id": 98674, "role": "co-producer", "role_id": 915, "is_primary": true}, {"id": 2779058, "title": "World of Pets", "work_id": 115233, "role": "producer", "role_id": 1089, "is_primary": true}, {"id": 2779063, "title": "Cats", "work_id": 81929, "role": "producer", "role_id": 1089, "is_primary": true}, {"id": 2753614, "title": "Computer: tool for the future", "work_id": 98849, "role": "producer", "role_id": 1089, "is_primary": true}, {"id": 2753627, "title": "Learning about computers", "work_id": 98855, "role": "producer", "role_id": 1089, "is_primary": true}, {"id": 2753725, "title": "Dogs", "work_id": 98903, "role": "producer", "role_id": 1089, "is_primary": true}, {"id": 2753728, "title": "Fish", "work_id": 98904, "role": "producer", "role_id": 1089, "is_primary": true}, {"id": 2795940, "title": "World of pets", "work_id": 115522, "role": "producer", "role_id": 1089, "is_primary": true}, {"id": 2784578, "title": "Capitalism", "work_id": 82244, "role": "producer", "role_id": 1089, "is_primary": true}, {"id": 2784591, "title": "Capitalism, socialism, communism", "work_id": 115283, "role": "producer", "role_id": 1089, "is_primary": true}, {"id": 2063317, "title": "1945-1989: the Cold War", "work_id": 82245, "role": "producer/director", "role_id": 31, "is_primary": true}, {"id": 2752376, "title": "Animals that build", "work_id": 98266, "role": "producer/director", "role_id": 31, "is_primary": true}, {"id": 2649795, "title": "1929-1941: The Great Depression", "work_id": 82256, "role": "producer/director", "role_id": 31, "is_primary": true}, {"id": 801258, "title": "Fresh water: resources at risk", "work_id": 88934, "role": "producer/director", "role_id": 31, "is_primary": true}, {"id": 2223717, "title": "Exploring our solar system", "work_id": 88988, "role": "producer/director", "role_id": 31, "is_primary": true}, {"id": 1847917, "title": "Great cover up : animal camouflage", "work_id": 89011, "role": "producer/director", "role_id": 31, "is_primary": true}, {"id": 2063302, "title": "1917: Revolution in Russia", "work_id": 82818, "role": "producer/director", "role_id": 31, "is_primary": true}, {"id": 2063326, "title": "1945-1989: the Cold War (Captioned)", "work_id": 82280, "role": "producer/director", "role_id": 31, "is_primary": true}], "also_known_as": "", "date_of_birth": "", "date_of_death": "", "genders": [], "languages": [], "places_of_operation": [], "biography": "", "biography_author": null, "date_of_biography": "2023-05-09T16:23:24.186127+10:00", "external_links": [], "uuid": "7474de64-d8a7-418a-8cce-a560f72733a0", "source": {"name": "Vernon", "slug": "vernon"}, "source_identifier": "28815", "external_references": [{"id": 43207, "source": {"name": "Wikidata", "slug": "wikidata"}, "source_identifier": "Q121160078"}], "date_modified": "2025-03-14T20:33:55.256304+11:00"}, {"id": 24183, "name": "Linda Jassim", "roles_in_work": [{"id": 2782699, "title": "Prophecy: a case study in marketing research", "work_id": 82623, "role": "director", "role_id": 938, "is_primary": true}, {"id": 2782694, "title": "Great expectations: a case study in marketing, planning and forecasting", "work_id": 82629, "role": "director", "role_id": 938, "is_primary": true}, {"id": 2751784, "title": "Fathers", "work_id": 97980, "role": "director", "role_id": 938, "is_primary": true}, {"id": 2777724, "title": "Intelligence", "work_id": 81928, "role": "producer", "role_id": 1089, "is_primary": true}], "also_known_as": "", "date_of_birth": "", "date_of_death": "", "genders": [], "languages": [], "places_of_operation": [], "biography": "", "biography_author": null, "date_of_biography": "2023-05-09T15:46:48.778934+10:00", "external_links": [], "uuid": "cd7bdfb0-a8d0-41b4-b549-fc6c53feca13", "source": {"name": "Vernon", "slug": "vernon"}, "source_identifier": "23871", "external_references": [], "date_modified": "2025-03-14T19:13:41.352273+11:00"}, {"id": 24182, "name": "Basilisk Productions", "roles_in_work": [{"id": 777185, "title": "The Garden", "work_id": 81925, "role": "production company", "role_id": 941, "is_primary": true}, {"id": 2350296, "title": "The gay men's guide to safer sex (E)", "work_id": 82087, "role": "production company", "role_id": 941, "is_primary": true}], "also_known_as": "", "date_of_birth": "", "date_of_death": "", "genders": [], "languages": [], "places_of_operation": [], "biography": "", "biography_author": null, "date_of_biography": "2023-05-09T19:54:54.391681+10:00", "external_links": [], "uuid": "77854167-228e-43d0-a263-53dfd5134b17", "source": {"name": "Vernon", "slug": "vernon"}, "source_identifier": "5743", "external_references": [{"id": 40754, "source": {"name": "Wikidata", "slug": "wikidata"}, "source_identifier": "Q121298916"}], "date_modified": "2023-09-05T17:56:34.422983+10:00"}, {"id": 24180, "name": "Paul Weiland", "roles_in_work": [{"id": 901148, "title": "Jim Henson's the storyteller. vol. 2", "work_id": 81922, "role": "co-director", "role_id": 959, "is_primary": true}, {"id": 1846633, "title": "The Merry mishaps of Mr. Bean", "work_id": 83181, "role": "co-director", "role_id": 959, "is_primary": true}, {"id": 2402690, "title": "Blackadder: back & forth", "work_id": 92354, "role": "director", "role_id": 938, "is_primary": true}], "also_known_as": "", "date_of_birth": "", "date_of_death": "", "genders": [], "languages": [], "places_of_operation": [], "biography": "", "biography_author": null, "date_of_biography": "2023-08-11T14:52:18.631286+10:00", "external_links": [], "uuid": "6ce8e370-4798-4679-92d0-7bd304056835", "source": {"name": "Vernon", "slug": "vernon"}, "source_identifier": "26356", "external_references": [], "date_modified": "2023-08-11T14:52:18.631531+10:00"}, {"id": 24179, "name": "Jon Amiel", "roles_in_work": [{"id": 2305368, "title": "Sommersby", "work_id": 84201, "role": "director", "role_id": 938, "is_primary": true}, {"id": 2614925, "title": "Aunt Julia and the scriptwriter", "work_id": 84548, "role": "director", "role_id": 938, "is_primary": true}, {"id": 2144814, "title": "Copycat", "work_id": 90477, "role": "director", "role_id": 938, "is_primary": true}, {"id": 901147, "title": "Jim Henson's the storyteller. vol. 2", "work_id": 81922, "role": "co-director", "role_id": 959, "is_primary": true}, {"id": 910087, "title": "The Singing detective. Vol. 1", "work_id": 90704, "role": "director", "role_id": 938, "is_primary": true}, {"id": 910092, "title": "The Singing detective. Vol. 2", "work_id": 90705, "role": "director", "role_id": 938, "is_primary": true}], "also_known_as": "", "date_of_birth": "20 MAY 1948", "date_of_death": "", "genders": [{"id": 9, "name": "Male", "slug": "male"}], "languages": [{"id": 1, "name": "English", "slug": "english"}], "places_of_operation": [{"id": 10, "name": "United Kingdom", "slug": "united-kingdom"}], "biography": "Jon Amiel (born 20 May 1948) is an English director who has worked in film and television in both the UK and the US. After receiving a BAFTA Award nomination for the BBC series The Singing Detective (1986), he went on to direct films, including Sommersby (1993), Copycat (1995), Entrapment (1999), The Core (2003) and  Creation (2009). Source: Wikidata; 01/08/2023", "biography_author": null, "date_of_biography": "2025-02-26T20:16:42.462858+11:00", "external_links": [{"id": 4421, "uri": "https://en.wikipedia.org/wiki/Jon_Amiel"}], "uuid": "56b0bbab-afef-44bb-9a9c-9963b7c4be6d", "source": {"name": "Vernon", "slug": "vernon"}, "source_identifier": "22095", "external_references": [{"id": 25141, "source": {"name": "Wikidata", "slug": "wikidata"}, "source_identifier": "Q1702735"}, {"id": 29608, "source": {"name": "VIAF", "slug": "viaf"}, "source_identifier": "85559975"}, {"id": 29609, "source": {"name": "LOC Auth", "slug": "loc-auth"}, "source_identifier": "no98084725"}, {"id": 29610, "source": {"name": "WorldCat", "slug": "worldcat"}, "source_identifier": "lccn-no98084725"}], "date_modified": "2025-02-26T20:16:42.463147+11:00"}, {"id": 24178, "name": "Duncan Kenworthy", "roles_in_work": [{"id": 1848351, "title": "Fraggle songs", "work_id": 93736, "role": "co-producer", "role_id": 915, "is_primary": true}, {"id": 901129, "title": "Jim Henson's the storyteller. Vol. 1", "work_id": 81918, "role": "co-producer", "role_id": 915, "is_primary": true}, {"id": 1994101, "title": "Notting Hill", "work_id": 89825, "role": "producer", "role_id": 1089, "is_primary": true}, {"id": 1817887, "title": "Jim Henson's the storyteller. Vol. 3", "work_id": 81923, "role": "producer", "role_id": 1089, "is_primary": true}, {"id": 1817881, "title": "Jim Henson's the storyteller. vol. 2", "work_id": 81922, "role": "producer", "role_id": 1089, "is_primary": true}, {"id": 1990707, "title": "Four weddings and a funeral (Captioned)", "work_id": 86323, "role": "producer", "role_id": 1089, "is_primary": true}, {"id": 1995812, "title": "Lawn dogs", "work_id": 92334, "role": "producer", "role_id": 1089, "is_primary": true}, {"id": 1988410, "title": "Four weddings and a funeral", "work_id": 84601, "role": "producer", "role_id": 1089, "is_primary": true}], "also_known_as": "", "date_of_birth": "1949-09-09", "date_of_death": null, "genders": [{"id": 9, "name": "Male", "slug": "male"}], "languages": [{"id": 1, "name": "English", "slug": "english"}], "places_of_operation": [{"id": 10, "name": "United Kingdom", "slug": "united-kingdom"}], "biography": "Duncan Hamish Kenworthy OBE (born 1949) is a British film and television producer, and co-founder of the production company DNA Films. He is currently a producer at Toledo Productions.", "biography_author": "Wikidata", "date_of_biography": "2023-08-01T14:43:35.776983+10:00", "external_links": [{"id": 3921, "uri": "https://en.wikipedia.org/wiki/Duncan_Kenworthy"}], "uuid": "8808f775-6ae2-4918-a040-095b37234901", "source": {"name": "Vernon", "slug": "vernon"}, "source_identifier": "18463", "external_references": [{"id": 25853, "source": {"name": "Wikidata", "slug": "wikidata"}, "source_identifier": "Q327292"}, {"id": 28274, "source": {"name": "VIAF", "slug": "viaf"}, "source_identifier": "90668010"}, {"id": 28275, "source": {"name": "LOC Auth", "slug": "loc-auth"}, "source_identifier": "no2001081121"}, {"id": 28276, "source": {"name": "WorldCat", "slug": "worldcat"}, "source_identifier": "lccn-no2001081121"}], "date_modified": "2023-09-13T12:29:10.167904+10:00"}, {"id": 24177, "name": "Roy Mason", "roles_in_work": [{"id": 2771639, "title": "Paddleboats of the Murray River", "work_id": 81917, "role": "director", "role_id": 938, "is_primary": true}], "also_known_as": "", "date_of_birth": "", "date_of_death": "", "genders": [], "languages": [], "places_of_operation": [], "biography": "", "biography_author": null, "date_of_biography": "2023-05-09T20:05:36.131783+10:00", "external_links": [], "uuid": "40f8417b-998c-41c7-af50-39b3f95a2de4", "source": {"name": "Vernon", "slug": "vernon"}, "source_identifier": "28311", "external_references": [{"id": 39090, "source": {"name": "Wikidata", "slug": "wikidata"}, "source_identifier": "Q121315347"}], "date_modified": "2025-03-14T18:24:07.412766+11:00"}, {"id": 24176, "name": "Sorena Productions", "roles_in_work": [{"id": 2771636, "title": "Paddleboats of the Murray River", "work_id": 81917, "role": "production company", "role_id": 941, "is_primary": true}], "also_known_as": "", "date_of_birth": "", "date_of_death": "", "genders": [], "languages": [], "places_of_operation": [], "biography": "", "biography_author": null, "date_of_biography": "2023-05-09T20:05:35.090185+10:00", "external_links": [], "uuid": "89725ded-dda5-4c2c-998f-d56b455d2299", "source": {"name": "Vernon", "slug": "vernon"}, "source_identifier": "12760", "external_references": [{"id": 39259, "source": {"name": "Wikidata", "slug": "wikidata"}, "source_identifier": "Q121270866"}], "date_modified": "2025-03-14T18:24:05.016075+11:00"}]}