{"count": 28687, "next": "https://api.acmi.net.au/creators/?page=1419", "previous": "https://api.acmi.net.au/creators/?page=1417", "results": [{"id": 36447, "name": "Agnes Delahaie Productions", "roles_in_work": [{"id": 3105638, "title": "Pickpocket", "work_id": 116238, "role": "production company", "role_id": 941, "is_primary": true}, {"id": 819887, "title": "Pickpocket [NTSC]", "work_id": 94444, "role": "production company", "role_id": 941, "is_primary": true}], "also_known_as": "", "date_of_birth": null, "date_of_death": null, "genders": [], "languages": [], "places_of_operation": [], "biography": "", "biography_author": null, "date_of_biography": null, "external_links": [], "uuid": "7dbb5f40-ce1b-4c4a-835c-60970037807f", "source": {"name": "Vernon", "slug": "vernon"}, "source_identifier": "5063", "external_references": [], "date_modified": "2025-05-28T10:41:46.245239+10:00"}, {"id": 36443, "name": "Les Films de Mindif", "roles_in_work": [{"id": 2161423, "title": "No fear, no die = Sen fout la mort [NTSC] (D)", "work_id": 94442, "role": "production company", "role_id": 941, "is_primary": true}], "also_known_as": "", "date_of_birth": "", "date_of_death": "", "genders": [], "languages": [], "places_of_operation": [], "biography": "", "biography_author": null, "date_of_biography": "2023-05-09T14:16:06.833231+10:00", "external_links": [], "uuid": "5580fc6b-9644-4981-97f9-943ac5792c93", "source": {"name": "Vernon", "slug": "vernon"}, "source_identifier": "9998", "external_references": [{"id": 41621, "source": {"name": "Wikidata", "slug": "wikidata"}, "source_identifier": "Q121315498"}], "date_modified": "2023-09-05T22:21:29.746482+10:00"}, {"id": 36439, "name": "John Dunning", "roles_in_work": [{"id": 1809437, "title": "Rabid [DVD] (D)", "work_id": 94450, "role": "producer", "role_id": 1089, "is_primary": true}], "also_known_as": "", "date_of_birth": "1927-04-27", "date_of_death": "2011-09-19", "genders": [{"id": 9, "name": "Male", "slug": "male"}], "languages": [], "places_of_operation": [], "biography": "John Dunning (April 27, 1927 – September 19, 2011) was a pioneering Canadian film producer from Montreal who co-founded the Canadian film production company Cinépix and produced early works by notable Canadian directors David Cronenberg and Ivan Reitman. Dunning launched Cinépix with partner André Link in Montreal in the early 1960s. Their biggest commercial success—and the first Canadian box office hit—came with Reitman's Meatballs (1979).", "biography_author": "Wikidata", "date_of_biography": "2023-08-01T15:34:50.797034+10:00", "external_links": [{"id": 4366, "uri": "https://en.wikipedia.org/wiki/John_Dunning_(film_producer)"}], "uuid": "02b876d0-ec8a-4365-b02d-bba53aadfdd1", "source": {"name": "Vernon", "slug": "vernon"}, "source_identifier": "22225", "external_references": [{"id": 25609, "source": {"name": "Wikidata", "slug": "wikidata"}, "source_identifier": "Q28648847"}, {"id": 29471, "source": {"name": "VIAF", "slug": "viaf"}, "source_identifier": "29733585"}, {"id": 29472, "source": {"name": "LOC Auth", "slug": "loc-auth"}, "source_identifier": "no97041581"}, {"id": 29473, "source": {"name": "WorldCat", "slug": "worldcat"}, "source_identifier": "lccn-no97041581"}], "date_modified": "2023-09-13T12:30:31.837613+10:00"}, {"id": 36435, "name": "Maurice Pialat", "roles_in_work": [{"id": 3104995, "title": "L'enfance Nue = Nude Childhood", "work_id": 116193, "role": "director", "role_id": 938, "is_primary": true}, {"id": 3104522, "title": "Nous Ne Vieillirons Pas Ensemble = We will not grow old together", "work_id": 115953, "role": "director", "role_id": 938, "is_primary": true}, {"id": 915844, "title": "Loulou [DVD]", "work_id": 94452, "role": "director", "role_id": 938, "is_primary": true}, {"id": 3105292, "title": "La Maison des Bois: Episode 2", "work_id": 116350, "role": "director", "role_id": 938, "is_primary": true}, {"id": 3105290, "title": "La Maison des Bois: Episode 1", "work_id": 116349, "role": "director", "role_id": 938, "is_primary": true}, {"id": 915830, "title": "Van Gogh [NTSC]", "work_id": 94441, "role": "director", "role_id": 938, "is_primary": true}, {"id": 819864, "title": "Police [NTSC]", "work_id": 94440, "role": "director", "role_id": 938, "is_primary": true}, {"id": 3105302, "title": "La Maison des Bois: Episode 7", "work_id": 116355, "role": "director", "role_id": 938, "is_primary": true}, {"id": 3105300, "title": "La Maison des Bois: Episode 6", "work_id": 116354, "role": "director", "role_id": 938, "is_primary": true}, {"id": 3105298, "title": "La Maison des Bois: Episode 5", "work_id": 116353, "role": "director", "role_id": 938, "is_primary": true}, {"id": 3105296, "title": "La Maison des Bois: Episode 4", "work_id": 116352, "role": "director", "role_id": 938, "is_primary": true}, {"id": 3105294, "title": "La Maison des Bois: Episode 3", "work_id": 116351, "role": "director", "role_id": 938, "is_primary": true}, {"id": 3104880, "title": "Passe Ton Bac D'abord = Graduate First", "work_id": 116128, "role": "producer/director", "role_id": 31, "is_primary": true}], "also_known_as": "Maurice Roland Pialat", "date_of_birth": "1925-08-31", "date_of_death": "2003-01-11", "genders": [{"id": 9, "name": "Male", "slug": "male"}], "languages": [{"id": 4, "name": "French", "slug": "french"}], "places_of_operation": [{"id": 17, "name": "France", "slug": "france"}], "biography": "Maurice Pialat (French: [pjala]; 31 August 1925 – 11 January 2003) was a French film director, screenwriter and actor known for the rigorous and unsentimental style of his films. His work is often described as \"realist\", though many film critics acknowledge it does not fit the traditional definition of realism.\nPialat's films are said to have dispensed with mannerisms, and his everyday stories tell the bittersweet nature of the French petty bourgeoisie. This earned him the disregard of some critics, but also enduring popularity, with films characterized by a psychological narrative style, often set outside the metropolises.", "biography_author": "Wikidata", "date_of_biography": "2023-08-01T16:10:23.004551+10:00", "external_links": [{"id": 4659, "uri": "https://en.wikipedia.org/wiki/Maurice_Pialat"}], "uuid": "7e6f2a84-cf81-4464-82b7-8ee11645d26e", "source": {"name": "Vernon", "slug": "vernon"}, "source_identifier": "24842", "external_references": [{"id": 26346, "source": {"name": "Wikidata", "slug": "wikidata"}, "source_identifier": "Q503898"}, {"id": 30231, "source": {"name": "VIAF", "slug": "viaf"}, "source_identifier": "29592260"}, {"id": 30232, "source": {"name": "LOC Auth", "slug": "loc-auth"}, "source_identifier": "n84155315"}, {"id": 30233, "source": {"name": "WorldCat", "slug": "worldcat"}, "source_identifier": "lccn-n84155315"}], "date_modified": "2025-05-22T23:01:37.736158+10:00"}, {"id": 36432, "name": "Ghost Pictures", "roles_in_work": [{"id": 2243485, "title": "Five short films by Clayton Jacobson", "work_id": 94434, "role": "production company", "role_id": 941, "is_primary": true}], "also_known_as": "", "date_of_birth": "", "date_of_death": "", "genders": [], "languages": [], "places_of_operation": [], "biography": "", "biography_author": null, "date_of_biography": "2023-05-09T16:58:13.452334+10:00", "external_links": [], "uuid": "ad3dd997-fc1b-4b1f-9afe-94877d8dd6e3", "source": {"name": "Vernon", "slug": "vernon"}, "source_identifier": "8722", "external_references": [{"id": 40561, "source": {"name": "Wikidata", "slug": "wikidata"}, "source_identifier": "Q121271026"}], "date_modified": "2023-09-05T20:10:42.914740+10:00"}, {"id": 36431, "name": "Five Easy Pieces", "roles_in_work": [{"id": 2243483, "title": "Five short films by Clayton Jacobson", "work_id": 94434, "role": "production company", "role_id": 941, "is_primary": true}], "also_known_as": "", "date_of_birth": "", "date_of_death": "", "genders": [], "languages": [], "places_of_operation": [], "biography": "", "biography_author": null, "date_of_biography": "2023-05-09T16:58:13.213634+10:00", "external_links": [], "uuid": "3e9c1b07-0e32-4151-82bc-fb90a2e88634", "source": {"name": "Vernon", "slug": "vernon"}, "source_identifier": "8382", "external_references": [{"id": 42188, "source": {"name": "Wikidata", "slug": "wikidata"}, "source_identifier": "Q121126589"}], "date_modified": "2023-09-05T19:44:21.788114+10:00"}, {"id": 36430, "name": "Harcourt Productions", "roles_in_work": [{"id": 2130349, "title": "Carnival of souls", "work_id": 94433, "role": "production company", "role_id": 941, "is_primary": true}], "also_known_as": "", "date_of_birth": "", "date_of_death": "", "genders": [], "languages": [], "places_of_operation": [], "biography": "", "biography_author": null, "date_of_biography": "2023-05-09T13:18:55.475490+10:00", "external_links": [], "uuid": "70527b7a-e930-4887-9d8a-345c9371e476", "source": {"name": "Vernon", "slug": "vernon"}, "source_identifier": "8990", "external_references": [{"id": 37557, "source": {"name": "Wikidata", "slug": "wikidata"}, "source_identifier": "Q121078870"}], "date_modified": "2023-09-05T20:28:50.886277+10:00"}, {"id": 36426, "name": "Alta Films", "roles_in_work": [{"id": 2320594, "title": "Sweet sixteen", "work_id": 95081, "role": "production company", "role_id": 941, "is_primary": true}, {"id": 1999385, "title": "The Navigators [DVD]", "work_id": 94431, "role": "production company", "role_id": 941, "is_primary": true}], "also_known_as": "", "date_of_birth": "", "date_of_death": "", "genders": [], "languages": [], "places_of_operation": [], "biography": "", "biography_author": null, "date_of_biography": "2023-05-09T19:11:19.940788+10:00", "external_links": [], "uuid": "009aa7fe-a294-4974-80f7-ce95c4439fa6", "source": {"name": "Vernon", "slug": "vernon"}, "source_identifier": "5162", "external_references": [{"id": 40797, "source": {"name": "Wikidata", "slug": "wikidata"}, "source_identifier": "Q107009153"}], "date_modified": "2023-09-05T17:30:34.569701+10:00"}, {"id": 36425, "name": "Tornasol Films", "roles_in_work": [{"id": 1999384, "title": "The Navigators [DVD]", "work_id": 94431, "role": "production company", "role_id": 941, "is_primary": true}, {"id": 2320591, "title": "Sweet sixteen", "work_id": 95081, "role": "production company", "role_id": 941, "is_primary": true}], "also_known_as": "", "date_of_birth": "", "date_of_death": "", "genders": [], "languages": [], "places_of_operation": [], "biography": "", "biography_author": null, "date_of_biography": "2023-05-09T19:11:19.703416+10:00", "external_links": [], "uuid": "16a8c373-5e38-4707-9723-e9c1159b41b7", "source": {"name": "Vernon", "slug": "vernon"}, "source_identifier": "13662", "external_references": [{"id": 33004, "source": {"name": "Wikidata", "slug": "wikidata"}, "source_identifier": "Q80177162"}], "date_modified": "2023-09-06T01:57:34.643472+10:00"}, {"id": 36424, "name": "Bison Films", "roles_in_work": [{"id": 2243488, "title": "Five short films by Clayton Jacobson", "work_id": 94434, "role": "production company", "role_id": 941, "is_primary": true}, {"id": 2321952, "title": "Tanaka", "work_id": 94428, "role": "production company", "role_id": 941, "is_primary": true}], "also_known_as": "", "date_of_birth": "", "date_of_death": "", "genders": [], "languages": [], "places_of_operation": [], "biography": "", "biography_author": null, "date_of_biography": "2023-05-09T19:13:25.135300+10:00", "external_links": [], "uuid": "ac02d6c9-c144-47f9-8593-1018f673f007", "source": {"name": "Vernon", "slug": "vernon"}, "source_identifier": "5876", "external_references": [{"id": 39831, "source": {"name": "Wikidata", "slug": "wikidata"}, "source_identifier": "Q121223231"}], "date_modified": "2023-09-05T18:06:14.924962+10:00"}]}