{"count": 28687, "next": "https://api.acmi.net.au/creators/?page=2609", "previous": "https://api.acmi.net.au/creators/?page=2607", "results": [{"id": 12559, "name": "Citizen's Assurance", "roles_in_work": [{"id": 2762465, "title": "Architecture", "work_id": 64865, "role": "production company", "role_id": 941, "is_primary": true}], "also_known_as": "", "date_of_birth": "", "date_of_death": "", "genders": [], "languages": [], "places_of_operation": [], "biography": "", "biography_author": null, "date_of_biography": "2023-05-09T12:31:23.684483+10:00", "external_links": [], "uuid": "d86a2448-076e-48eb-b7ea-342720ada93b", "source": {"name": "Vernon", "slug": "vernon"}, "source_identifier": "6789", "external_references": [], "date_modified": "2025-03-14T17:38:12.995251+11:00"}, {"id": 12558, "name": "John Eldridge", "roles_in_work": [{"id": 2680328, "title": "Conquest of a germ", "work_id": 66332, "role": "director", "role_id": 938, "is_primary": true}, {"id": 876242, "title": "Park here", "work_id": 89952, "role": "director", "role_id": 938, "is_primary": true}, {"id": 2677436, "title": "Architects of England", "work_id": 64864, "role": "director", "role_id": 938, "is_primary": true}, {"id": 856111, "title": "Pattern of Britain: north east corner", "work_id": 70963, "role": "director", "role_id": 938, "is_primary": true}, {"id": 874155, "title": "For children only", "work_id": 88598, "role": "director", "role_id": 938, "is_primary": true}, {"id": 757395, "title": "Waverley steps: a visit to Edinburgh", "work_id": 74535, "role": "director", "role_id": 938, "is_primary": true}, {"id": 2259255, "title": "S.O.S", "work_id": 76965, "role": "co-producer", "role_id": 915, "is_primary": true}, {"id": 874497, "title": "Our country", "work_id": 88823, "role": "director", "role_id": 938, "is_primary": true}, {"id": 859906, "title": "Trinity House", "work_id": 74015, "role": "producer/director", "role_id": 31, "is_primary": true}], "also_known_as": "", "date_of_birth": "26 JUL 1917", "date_of_death": "14 JUN 1962", "genders": [{"id": 9, "name": "Male", "slug": "male"}], "languages": [{"id": 1, "name": "English", "slug": "english"}], "places_of_operation": [{"id": 10, "name": "United Kingdom", "slug": "united-kingdom"}], "biography": "John Eldridge (1917–1962) was a short-lived British film director.\n\nGaining fame as documentary film maker in the Second World War for the Ministry of Information his topics covered both war and very particularly architecture and urban planning. He appears to have knowledge and/or training in these fields.\n\nOften working with poets he had at least five collaborative projects with Dylan Thomas. Source: Wikidata; 01/08/2023", "biography_author": null, "date_of_biography": "2025-03-07T00:31:57.002711+11:00", "external_links": [{"id": 4369, "uri": "https://en.wikipedia.org/wiki/John_Eldridge_(director)"}], "uuid": "e9b9af5b-a329-48af-88f2-61c5ea3b4563", "source": {"name": "Vernon", "slug": "vernon"}, "source_identifier": "22234", "external_references": [{"id": 25074, "source": {"name": "Wikidata", "slug": "wikidata"}, "source_identifier": "Q20747822"}, {"id": 29479, "source": {"name": "VIAF", "slug": "viaf"}, "source_identifier": "29150106"}, {"id": 29480, "source": {"name": "LOC Auth", "slug": "loc-auth"}, "source_identifier": "no98075877"}, {"id": 29481, "source": {"name": "WorldCat", "slug": "worldcat"}, "source_identifier": "lccn-no98075877"}], "date_modified": "2025-03-07T00:31:57.002929+11:00"}, {"id": 12557, "name": "Strand Films", "roles_in_work": [{"id": 2374007, "title": "The People's land", "work_id": 76318, "role": "production company", "role_id": 941, "is_primary": true}, {"id": 2713843, "title": "Flax", "work_id": 67617, "role": "production company", "role_id": 941, "is_primary": true}, {"id": 2679577, "title": "Chapter and verse", "work_id": 65965, "role": "production company", "role_id": 941, "is_primary": true}, {"id": 2677435, "title": "Architects of England", "work_id": 64864, "role": "production company", "role_id": 941, "is_primary": true}, {"id": 875861, "title": "A Modern miracle", "work_id": 89697, "role": "production company", "role_id": 941, "is_primary": true}, {"id": 875978, "title": "Grass and clover seed production", "work_id": 89774, "role": "production company", "role_id": 941, "is_primary": true}, {"id": 750092, "title": "Oxford", "work_id": 71299, "role": "production company", "role_id": 941, "is_primary": true}, {"id": 874153, "title": "For children only", "work_id": 88598, "role": "production company", "role_id": 941, "is_primary": true}], "also_known_as": "", "date_of_birth": "", "date_of_death": "", "genders": [], "languages": [], "places_of_operation": [], "biography": "", "biography_author": null, "date_of_biography": "2023-07-05T03:50:00.880145+10:00", "external_links": [], "uuid": "f09f2fb0-7457-4c06-bdd3-31da22e638a7", "source": {"name": "Vernon", "slug": "vernon"}, "source_identifier": "4149", "external_references": [{"id": 33998, "source": {"name": "Wikidata", "slug": "wikidata"}, "source_identifier": "Q121298927"}], "date_modified": "2025-03-12T00:55:44.051059+11:00"}, {"id": 12556, "name": "Tom Williamson", "roles_in_work": [{"id": 858151, "title": "Search and research: an impression of the building research establishment", "work_id": 72581, "role": "director", "role_id": 938, "is_primary": true}, {"id": 2677433, "title": "Architect Athfield", "work_id": 64863, "role": "producer", "role_id": 1089, "is_primary": true}, {"id": 2180227, "title": "Our land, our water", "work_id": 71252, "role": "producer", "role_id": 1089, "is_primary": true}, {"id": 1813355, "title": "Kids and other people", "work_id": 77544, "role": "producer", "role_id": 1089, "is_primary": true}, {"id": 2713833, "title": "Flare: a ski trip", "work_id": 67612, "role": "producer", "role_id": 1089, "is_primary": true}, {"id": 1813064, "title": "Airborne", "work_id": 76994, "role": "producer", "role_id": 1089, "is_primary": true}, {"id": 2646504, "title": "Surf sail", "work_id": 73397, "role": "producer", "role_id": 1089, "is_primary": true}, {"id": 1818793, "title": "The Adze and the chainsaw", "work_id": 86003, "role": "producer", "role_id": 1089, "is_primary": true}, {"id": 1819160, "title": "New country - new people", "work_id": 70830, "role": "producer", "role_id": 1089, "is_primary": true}, {"id": 1804822, "title": "Just swimming", "work_id": 75925, "role": "producer", "role_id": 1089, "is_primary": true}, {"id": 2678667, "title": "Blow out", "work_id": 65502, "role": "producer", "role_id": 1089, "is_primary": true}, {"id": 1811049, "title": "Landscape in stamps", "work_id": 69495, "role": "producer", "role_id": 1089, "is_primary": true}, {"id": 1820408, "title": "Walking country", "work_id": 75335, "role": "producer", "role_id": 1089, "is_primary": true}, {"id": 2767528, "title": "The Water of life", "work_id": 77559, "role": "producer/director", "role_id": 31, "is_primary": true}, {"id": 2767532, "title": "Ice society", "work_id": 77785, "role": "producer/director", "role_id": 31, "is_primary": true}, {"id": 2767530, "title": "Out of sight, out of mind", "work_id": 98213, "role": "producer/director", "role_id": 31, "is_primary": true}, {"id": 2767526, "title": "Blowing hot and cold", "work_id": 77555, "role": "producer/director", "role_id": 31, "is_primary": true}], "also_known_as": "", "date_of_birth": "", "date_of_death": "", "genders": [], "languages": [], "places_of_operation": [], "biography": "", "biography_author": null, "date_of_biography": "2023-05-09T19:08:51.252197+10:00", "external_links": [], "uuid": "2beafde0-7fe4-4a5c-96a1-28abd5d648cd", "source": {"name": "Vernon", "slug": "vernon"}, "source_identifier": "13628", "external_references": [{"id": 52237, "source": {"name": "Wikidata", "slug": "wikidata"}, "source_identifier": "Q121357837"}], "date_modified": "2025-03-14T18:04:49.710770+11:00"}, {"id": 12555, "name": "Kurt Baum", "roles_in_work": [{"id": 2644005, "title": "Arches of faith", "work_id": 64862, "role": "director", "role_id": 938, "is_primary": true}], "also_known_as": "", "date_of_birth": "", "date_of_death": "", "genders": [], "languages": [], "places_of_operation": [], "biography": "", "biography_author": null, "date_of_biography": "2023-08-11T14:10:24.365416+10:00", "external_links": [], "uuid": "d6dda118-6ec1-46da-b180-0231584679a9", "source": {"name": "Vernon", "slug": "vernon"}, "source_identifier": "23418", "external_references": [], "date_modified": "2025-03-05T12:09:07.014823+11:00"}, {"id": 12554, "name": "Donald G. Hoffman", "roles_in_work": [{"id": 2712687, "title": "Egypt and the Nile", "work_id": 67045, "role": "producer", "role_id": 1089, "is_primary": true}, {"id": 2677429, "title": "Arabian children", "work_id": 64860, "role": "producer", "role_id": 1089, "is_primary": true}], "also_known_as": "", "date_of_birth": null, "date_of_death": null, "genders": [], "languages": [], "places_of_operation": [], "biography": "", "biography_author": null, "date_of_biography": null, "external_links": [], "uuid": "7e1b1d1c-4e42-47a4-9fe1-e941a1f977ea", "source": {"name": "Vernon", "slug": "vernon"}, "source_identifier": "18296", "external_references": [], "date_modified": "2025-03-12T00:28:59.783185+11:00"}, {"id": 12553, "name": "Peggie Broadhead", "roles_in_work": [{"id": 2765633, "title": "Arab traders of the Persian Gulf", "work_id": 64859, "role": "producer", "role_id": 1089, "is_primary": true}], "also_known_as": "", "date_of_birth": null, "date_of_death": null, "genders": [], "languages": [], "places_of_operation": [], "biography": "", "biography_author": null, "date_of_biography": null, "external_links": [], "uuid": "0d4e3901-baf2-47bb-8406-ed573561e749", "source": {"name": "Vernon", "slug": "vernon"}, "source_identifier": "26395", "external_references": [], "date_modified": "2025-03-14T17:53:34.561308+11:00"}, {"id": 12552, "name": "Martin Bunnel", "roles_in_work": [{"id": 896699, "title": "Let them come with rain", "work_id": 75839, "role": "director", "role_id": 938, "is_primary": true}, {"id": 2677425, "title": "The Arab refugees", "work_id": 64858, "role": "director", "role_id": 938, "is_primary": true}, {"id": 2647065, "title": "The Most beautiful place on earth: international zone", "work_id": 75256, "role": "co-director", "role_id": 959, "is_primary": true}], "also_known_as": "", "date_of_birth": null, "date_of_death": null, "genders": [], "languages": [], "places_of_operation": [], "biography": "", "biography_author": null, "date_of_biography": null, "external_links": [], "uuid": "9e0822f8-0e3d-4ff5-8743-fa325dadd305", "source": {"name": "Vernon", "slug": "vernon"}, "source_identifier": "24616", "external_references": [], "date_modified": "2025-03-06T23:20:42.914266+11:00"}, {"id": 12551, "name": "Alan Ravenscroft", "roles_in_work": [{"id": 2677422, "title": "Aquarius: solo for 2 people", "work_id": 64857, "role": "director", "role_id": 938, "is_primary": true}], "also_known_as": "", "date_of_birth": "", "date_of_death": "", "genders": [], "languages": [], "places_of_operation": [], "biography": "", "biography_author": null, "date_of_biography": "2023-08-11T14:10:03.713636+10:00", "external_links": [], "uuid": "dd205c90-85cb-468b-b557-ccf965f42368", "source": {"name": "Vernon", "slug": "vernon"}, "source_identifier": "14793", "external_references": [], "date_modified": "2025-03-06T23:20:40.903469+11:00"}, {"id": 12550, "name": "William Fitzwater", "roles_in_work": [{"id": 896436, "title": "Notes on a landscape", "work_id": 75337, "role": "director", "role_id": 938, "is_primary": true}, {"id": 2677465, "title": "Are you listening?", "work_id": 64878, "role": "director", "role_id": 938, "is_primary": true}, {"id": 2173620, "title": "Norma", "work_id": 83723, "role": "co-director", "role_id": 959, "is_primary": true}, {"id": 896434, "title": "Notes on a landscape", "work_id": 75337, "role": "co-producer", "role_id": 915, "is_primary": true}, {"id": 2778878, "title": "Jessie Thandi in India; Ellen Youie in China = India; China", "work_id": 81951, "role": "co-producers/directors", "role_id": 628, "is_primary": true}, {"id": 2646949, "title": "With gentle majesty", "work_id": 74816, "role": "producer/director", "role_id": 31, "is_primary": true}, {"id": 2778903, "title": "Yugoslavia; Hungary", "work_id": 98349, "role": "producer/director", "role_id": 31, "is_primary": true}, {"id": 876350, "title": "Tranquility in a wilderness: gardens of early Australia", "work_id": 90036, "role": "producer/director", "role_id": 31, "is_primary": true}], "also_known_as": "", "date_of_birth": "", "date_of_death": "", "genders": [], "languages": [], "places_of_operation": [], "biography": "", "biography_author": null, "date_of_biography": "2023-05-09T17:15:48.197069+10:00", "external_links": [], "uuid": "bfa9f1ff-33ae-4365-a5b5-77712d2ac3d1", "source": {"name": "Vernon", "slug": "vernon"}, "source_identifier": "30419", "external_references": [], "date_modified": "2025-03-14T19:01:41.682192+11:00"}]}