{"count": 28687, "next": "https://api.acmi.net.au/creators/?page=1816", "previous": "https://api.acmi.net.au/creators/?page=1814", "results": [{"id": 26047, "name": "International Travel Films", "roles_in_work": [{"id": 2614572, "title": "The Magic of Venice", "work_id": 83906, "role": "production company", "role_id": 941, "is_primary": true}, {"id": 1847005, "title": "Great wonders of the world; a Doug Jones travelogue", "work_id": 83967, "role": "production company", "role_id": 941, "is_primary": true}], "also_known_as": "", "date_of_birth": "", "date_of_death": "", "genders": [], "languages": [], "places_of_operation": [], "biography": "", "biography_author": null, "date_of_biography": "2023-05-09T18:23:53.416856+10:00", "external_links": [], "uuid": "d64b1608-191a-404e-97f5-b08f4e700e7c", "source": {"name": "Vernon", "slug": "vernon"}, "source_identifier": "9401", "external_references": [], "date_modified": "2025-02-26T20:12:34.698485+11:00"}, {"id": 26045, "name": "Monterey Productions", "roles_in_work": [{"id": 2247183, "title": "Red river(Captioned)", "work_id": 84990, "role": "production company", "role_id": 941, "is_primary": true}, {"id": 2614565, "title": "Red river", "work_id": 83904, "role": "production company", "role_id": 941, "is_primary": true}], "also_known_as": "", "date_of_birth": "", "date_of_death": "", "genders": [], "languages": [], "places_of_operation": [], "biography": "", "biography_author": null, "date_of_biography": "2023-05-09T17:05:05.515293+10:00", "external_links": [], "uuid": "bdbe112f-b39e-4005-aad8-ed8e2e82316f", "source": {"name": "Vernon", "slug": "vernon"}, "source_identifier": "10629", "external_references": [{"id": 41902, "source": {"name": "Wikidata", "slug": "wikidata"}, "source_identifier": "Q121337302"}], "date_modified": "2025-02-26T20:12:26.379081+11:00"}, {"id": 26044, "name": "Thirtieth Cinemalux", "roles_in_work": [{"id": 2357624, "title": "The Kid; Three men in a tub", "work_id": 83902, "role": "production company", "role_id": 941, "is_primary": true}], "also_known_as": "", "date_of_birth": "", "date_of_death": "", "genders": [], "languages": [], "places_of_operation": [], "biography": "", "biography_author": null, "date_of_biography": "2023-05-09T20:06:24.646383+10:00", "external_links": [], "uuid": "46325ff4-e5f7-45ba-b01a-f7ba9ce1970e", "source": {"name": "Vernon", "slug": "vernon"}, "source_identifier": "13489", "external_references": [{"id": 51936, "source": {"name": "Wikidata", "slug": "wikidata"}, "source_identifier": "Q121357439"}], "date_modified": "2023-09-06T01:48:03.893990+10:00"}, {"id": 26039, "name": "Charles Vidor", "roles_in_work": [{"id": 1987744, "title": "Hans Christian Andersen", "work_id": 83900, "role": "director", "role_id": 938, "is_primary": true}, {"id": 2068208, "title": "A Farewell to arms", "work_id": 85069, "role": "director", "role_id": 938, "is_primary": true}, {"id": 1989671, "title": "The Swan", "work_id": 85351, "role": "director", "role_id": 938, "is_primary": true}, {"id": 2074544, "title": "A Song to remember", "work_id": 85629, "role": "director", "role_id": 938, "is_primary": true}, {"id": 1993002, "title": "Love me or leave me", "work_id": 88498, "role": "director", "role_id": 938, "is_primary": true}, {"id": 1995231, "title": "Gilda [DVD]", "work_id": 91246, "role": "director", "role_id": 938, "is_primary": true}, {"id": 1991703, "title": "Cover girl", "work_id": 87402, "role": "director", "role_id": 938, "is_primary": true}, {"id": 1991687, "title": "The Loves of Carmen", "work_id": 87396, "role": "producer/director", "role_id": 31, "is_primary": true}], "also_known_as": "Károly Vidor", "date_of_birth": "1900-07-27", "date_of_death": "1959-06-04", "genders": [{"id": 9, "name": "Male", "slug": "male"}], "languages": [{"id": 1, "name": "English", "slug": "english"}], "places_of_operation": [{"id": 1, "name": "United States of America", "slug": "united-states-of-america"}], "biography": "Charles Vidor (born Károly Vidor; July 27, 1900 – June 4, 1959) was a Hungarian film director. Among his film successes are The Bridge (1929), The Tuttles of Tahiti (1942), The Desperadoes (1943), Cover Girl (1944), Together Again (1944), A Song to Remember (1945), Over 21 (1945), Gilda (1946),  The Loves of Carmen (1948), Rhapsody (1954), Love Me or Leave Me (1955), The Swan (1956), The Joker Is Wild (1957), and A Farewell to Arms (1957).", "biography_author": "Wikidata", "date_of_biography": "2022-05-19T11:03:58.601325+10:00", "external_links": [{"id": 1803, "uri": "https://en.wikipedia.org/wiki/Charles_Vidor"}], "uuid": "565bde8f-76c1-45b3-9424-d7e051f5336b", "source": {"name": "Vernon", "slug": "vernon"}, "source_identifier": "16737", "external_references": [{"id": 7853, "source": {"name": "Wikidata", "slug": "wikidata"}, "source_identifier": "Q149507"}, {"id": 7854, "source": {"name": "VIAF", "slug": "viaf"}, "source_identifier": "29591923"}, {"id": 7855, "source": {"name": "LOC Auth", "slug": "loc-auth"}, "source_identifier": "n87911915"}, {"id": 7856, "source": {"name": "WorldCat", "slug": "worldcat"}, "source_identifier": "lccn-n87911915"}], "date_modified": "2023-09-13T12:28:41.725819+10:00"}, {"id": 26035, "name": "Franklin Cofod", "roles_in_work": [{"id": 2790453, "title": "Higher than eagles fly. The Chimney sweep", "work_id": 83895, "role": "director", "role_id": 938, "is_primary": true}], "also_known_as": "", "date_of_birth": "", "date_of_death": "", "genders": [], "languages": [], "places_of_operation": [], "biography": "", "biography_author": null, "date_of_biography": "2023-05-09T19:20:17.621837+10:00", "external_links": [], "uuid": "f8c52aee-cc63-4d42-9166-3ac9ea083f85", "source": {"name": "Vernon", "slug": "vernon"}, "source_identifier": "19192", "external_references": [], "date_modified": "2025-03-14T19:55:44.960929+11:00"}, {"id": 26034, "name": "Alexander Askoldov", "roles_in_work": [{"id": 2466895, "title": "The Commissar = Kimissar", "work_id": 83894, "role": "director", "role_id": 938, "is_primary": true}], "also_known_as": "", "date_of_birth": "", "date_of_death": "", "genders": [], "languages": [], "places_of_operation": [], "biography": "", "biography_author": null, "date_of_biography": "2023-08-14T11:07:52.001654+10:00", "external_links": [], "uuid": "f8ee7882-f9c7-4990-9289-01e58962ad68", "source": {"name": "Vernon", "slug": "vernon"}, "source_identifier": "14914", "external_references": [], "date_modified": "2023-08-14T11:07:52.001911+10:00"}, {"id": 26033, "name": "Gorky Studios", "roles_in_work": [{"id": 2466894, "title": "The Commissar = Kimissar", "work_id": 83894, "role": "production company", "role_id": 941, "is_primary": true}], "also_known_as": "", "date_of_birth": "", "date_of_death": "", "genders": [], "languages": [], "places_of_operation": [], "biography": "", "biography_author": null, "date_of_biography": "2023-08-14T11:07:51.291475+10:00", "external_links": [], "uuid": "5cf2e74d-a6f8-42c0-8ff0-48df6596b894", "source": {"name": "Vernon", "slug": "vernon"}, "source_identifier": "8814", "external_references": [], "date_modified": "2023-08-14T11:07:51.291681+10:00"}, {"id": 26032, "name": "Stephen J. Friedman", "roles_in_work": [{"id": 2614554, "title": "The Last picture show", "work_id": 83892, "role": "producer", "role_id": 1089, "is_primary": true}, {"id": 1993878, "title": "Morgan Stewart's coming home", "work_id": 89577, "role": "producer", "role_id": 1089, "is_primary": true}, {"id": 2331472, "title": "The Big easy", "work_id": 86479, "role": "producer", "role_id": 1089, "is_primary": true}, {"id": 1994334, "title": "Enemy mine", "work_id": 90237, "role": "producer", "role_id": 1089, "is_primary": true}], "also_known_as": "", "date_of_birth": "1937-03-15", "date_of_death": "1996-10-04", "genders": [{"id": 9, "name": "Male", "slug": "male"}], "languages": [], "places_of_operation": [{"id": 1, "name": "United States of America", "slug": "united-states-of-america"}], "biography": "Stephen Jay Friedman  (March 15, 1937 – October 4, 1996) was an American film producer known for The Last Picture Show (1971) and The Big Easy (1986). In 1980, he formed Kings Road Entertainment—named after the West Hollywood street where he lived—making him one of the first independent film producers to raise substantial film funding through a publicly traded company.", "biography_author": "Wikidata", "date_of_biography": "2022-05-19T13:08:57.987543+10:00", "external_links": [{"id": 3140, "uri": "https://en.wikipedia.org/wiki/Stephen_J._Friedman_(producer)"}], "uuid": "79e5debd-1ff8-456a-8e9a-4f4a62a7b3b8", "source": {"name": "Vernon", "slug": "vernon"}, "source_identifier": "29038", "external_references": [{"id": 13322, "source": {"name": "Wikidata", "slug": "wikidata"}, "source_identifier": "Q4231940"}, {"id": 13323, "source": {"name": "VIAF", "slug": "viaf"}, "source_identifier": "14338927"}, {"id": 13324, "source": {"name": "LOC Auth", "slug": "loc-auth"}, "source_identifier": "no92022998"}, {"id": 13325, "source": {"name": "WorldCat", "slug": "worldcat"}, "source_identifier": "lccn-no92022998"}], "date_modified": "2025-02-26T20:12:16.819662+11:00"}, {"id": 26031, "name": "Frank Chalmers", "roles_in_work": [{"id": 2270671, "title": "You can always go higher", "work_id": 83890, "role": "director", "role_id": 938, "is_primary": true}], "also_known_as": "", "date_of_birth": "", "date_of_death": "", "genders": [], "languages": [], "places_of_operation": [], "biography": "", "biography_author": null, "date_of_biography": "2023-05-09T17:44:42.193418+10:00", "external_links": [], "uuid": "8b1ae5d0-eeb2-47fd-8c68-156125011879", "source": {"name": "Vernon", "slug": "vernon"}, "source_identifier": "19101", "external_references": [{"id": 34005, "source": {"name": "Wikidata", "slug": "wikidata"}, "source_identifier": "Q121034675"}], "date_modified": "2023-09-05T19:49:05.548942+10:00"}, {"id": 26030, "name": "Queensland. Dept. of Education", "roles_in_work": [{"id": 2270659, "title": "You can always go higher", "work_id": 83890, "role": "production company", "role_id": 941, "is_primary": true}, {"id": 2752597, "title": "Middle distance running; hurdling; the sprint", "work_id": 98371, "role": "production company", "role_id": 941, "is_primary": true}, {"id": 2750788, "title": "They can be saved", "work_id": 97508, "role": "production company", "role_id": 941, "is_primary": true}, {"id": 825329, "title": "Breath of life", "work_id": 95789, "role": "production company", "role_id": 941, "is_primary": true}], "also_known_as": "", "date_of_birth": "", "date_of_death": "", "genders": [], "languages": [], "places_of_operation": [], "biography": "", "biography_author": null, "date_of_biography": "2023-05-09T17:44:41.652011+10:00", "external_links": [], "uuid": "5b05e5ee-3069-4d67-9edd-7e3717e55abe", "source": {"name": "Vernon", "slug": "vernon"}, "source_identifier": "4796", "external_references": [{"id": 41022, "source": {"name": "Wikidata", "slug": "wikidata"}, "source_identifier": "Q121035181"}], "date_modified": "2025-03-13T01:07:52.647730+11:00"}]}