{"count": 28687, "next": "https://api.acmi.net.au/creators/?page=1580", "previous": "https://api.acmi.net.au/creators/?page=1578", "results": [{"id": 31579, "name": "J Stirling", "roles_in_work": [{"id": 2465323, "title": "Road reconnaissance", "work_id": 89616, "role": "producer", "role_id": 1089, "is_primary": true}], "also_known_as": "", "date_of_birth": "", "date_of_death": "", "genders": [], "languages": [], "places_of_operation": [], "biography": "", "biography_author": null, "date_of_biography": "2023-08-14T10:32:16.405070+10:00", "external_links": [], "uuid": "5dd7017f-f884-4d0d-b5b0-768de25a79a2", "source": {"name": "Vernon", "slug": "vernon"}, "source_identifier": "20953", "external_references": [], "date_modified": "2023-08-14T10:32:16.405375+10:00"}, {"id": 31578, "name": "Victorian Country Roads Board", "roles_in_work": [{"id": 2465322, "title": "Road reconnaissance", "work_id": 89616, "role": "production company", "role_id": 941, "is_primary": true}], "also_known_as": "", "date_of_birth": "", "date_of_death": "", "genders": [], "languages": [], "places_of_operation": [], "biography": "", "biography_author": null, "date_of_biography": "2023-08-14T10:32:15.777620+10:00", "external_links": [], "uuid": "e1a12d2d-3cc1-4116-bb7e-57a31294eb75", "source": {"name": "Vernon", "slug": "vernon"}, "source_identifier": "14070", "external_references": [], "date_modified": "2023-08-14T10:32:15.777870+10:00"}, {"id": 31574, "name": "Insignia Films", "roles_in_work": [{"id": 3084015, "title": "The West. Eps 5 and 6: The Grandest enterprise under God. Fight no more forever", "work_id": 92193, "role": "production company", "role_id": 941, "is_primary": true}, {"id": 3084004, "title": "The West. Eps 7 and 8: The Geography of hope. One sky above us", "work_id": 92192, "role": "production company", "role_id": 941, "is_primary": true}, {"id": 3083994, "title": "The West. Eps 3 and 4: The Speck of the future. Death runs riot", "work_id": 92191, "role": "production company", "role_id": 941, "is_primary": true}, {"id": 2468120, "title": "The Sleeping tiger", "work_id": 89613, "role": "production company", "role_id": 941, "is_primary": true}, {"id": 3084038, "title": "The West", "work_id": 115583, "role": "production company", "role_id": 941, "is_primary": true}, {"id": 3084025, "title": "The West. Eps 1 and 2: The People. Empire upon the trails", "work_id": 92194, "role": "production company", "role_id": 941, "is_primary": true}], "also_known_as": "", "date_of_birth": "", "date_of_death": "", "genders": [], "languages": [], "places_of_operation": [], "biography": "", "biography_author": null, "date_of_biography": "2023-08-14T11:34:31.575808+10:00", "external_links": [], "uuid": "0a38755c-a96f-4b52-b760-9bd02a5f364c", "source": {"name": "Vernon", "slug": "vernon"}, "source_identifier": "9308", "external_references": [], "date_modified": "2025-03-17T10:35:18.632106+11:00"}, {"id": 31571, "name": "Andre Heinrich", "roles_in_work": [{"id": 2751709, "title": "La Jetee", "work_id": 97943, "role": "producer", "role_id": 1089, "is_primary": true}, {"id": 1815614, "title": "La Jetee = The Pier", "work_id": 89610, "role": "producer", "role_id": 1089, "is_primary": true}], "also_known_as": "", "date_of_birth": null, "date_of_death": null, "genders": [], "languages": [], "places_of_operation": [], "biography": "", "biography_author": null, "date_of_biography": null, "external_links": [], "uuid": "240e5225-82b0-4f8d-83a9-0213cdb9503f", "source": {"name": "Vernon", "slug": "vernon"}, "source_identifier": "15105", "external_references": [], "date_modified": "2025-03-13T00:50:11.247293+11:00"}, {"id": 31568, "name": "Maurice Ricker", "roles_in_work": [{"id": 2464940, "title": "Pork on the farm: killing, curing and canning", "work_id": 89608, "role": "director", "role_id": 938, "is_primary": true}], "also_known_as": "", "date_of_birth": "", "date_of_death": "", "genders": [], "languages": [], "places_of_operation": [], "biography": "", "biography_author": null, "date_of_biography": "2023-08-14T10:23:10.022563+10:00", "external_links": [], "uuid": "a4895c6c-506a-4191-8c3f-cc1e812a0272", "source": {"name": "Vernon", "slug": "vernon"}, "source_identifier": "24844", "external_references": [], "date_modified": "2023-08-14T10:23:10.022825+10:00"}, {"id": 31560, "name": "Sandcastle 5", "roles_in_work": [{"id": 2114262, "title": "Beyond therapy", "work_id": 89601, "role": "production company", "role_id": 941, "is_primary": true}, {"id": 2200868, "title": "Dr. T & the women = Dr T and the women [DVD]", "work_id": 92902, "role": "production company", "role_id": 941, "is_primary": true}], "also_known_as": "", "date_of_birth": "", "date_of_death": "", "genders": [], "languages": [], "places_of_operation": [], "biography": "", "biography_author": null, "date_of_biography": "2023-05-09T15:26:00.570479+10:00", "external_links": [], "uuid": "98d7b15b-73a1-4a5b-a685-fbe71f3dda9f", "source": {"name": "Vernon", "slug": "vernon"}, "source_identifier": "12273", "external_references": [{"id": 41739, "source": {"name": "Wikidata", "slug": "wikidata"}, "source_identifier": "Q121034458"}], "date_modified": "2023-09-06T01:04:20.750241+10:00"}, {"id": 31558, "name": "Joan Rivers", "roles_in_work": [{"id": 1993931, "title": "Rabbit test", "work_id": 89600, "role": "director", "role_id": 938, "is_primary": true}], "also_known_as": "Joan Alexandra Molinsky", "date_of_birth": "1933-06-08", "date_of_death": "2014-09-04", "genders": [{"id": 5, "name": "Female", "slug": "female"}], "languages": [{"id": 1, "name": "English", "slug": "english"}], "places_of_operation": [{"id": 1, "name": "United States of America", "slug": "united-states-of-america"}], "biography": "Joan Alexandra Molinsky (June 8, 1933 – September 4, 2014), known professionally as Joan Rivers, was an American comedian, actress, producer, writer and television host. She was noted for her often controversial comedic persona—heavily self-deprecating and acerbic, especially towards celebrities and politicians. She is considered a pioneer of women in comedy by many critics.\nRivers started her career in comedy clubs in Greenwich Village alongside her peers George Carlin, Woody Allen, and Richard Pryor. She then rose to prominence in 1965 as a guest on The Tonight Show. Hosted by her mentor, Johnny Carson, the show established Rivers' comedic style. In 1986, with her own rival program, The Late Show with Joan Rivers, Rivers became the first woman to host a late night network television talk show. She subsequently hosted The Joan Rivers Show (1989–1993), winning a Daytime Emmy for Outstanding Talk Show Host.  From the mid-1990s, she became known for her comedic red carpet awards show celebrity interviews. Rivers co-hosted the E! celebrity fashion show Fashion Police from 2010 to 2014 and starred in the reality series Joan & Melissa: Joan Knows Best? (2011–2014) with daughter Melissa Rivers. She was the subject of the documentary Joan Rivers: A Piece of Work (2010).\nIn addition to marketing a line of jewelry and apparel on the QVC shopping channel, Rivers authored 12 best-selling books and three LP comedy albums under her own name: Mr. Phyllis and Other Funny Stories (Warner Bros 1965), The Next to Last Joan Rivers Album (Buddah 1969), and What Becomes a Semi-Legend Most? (Geffen 1983).  She was nominated in 1984 for a Grammy Award for her album What Becomes a Semi-Legend Most?; and was nominated in 1994 for the Tony Award for Best Actress in a Play for her performance of the title role in Sally Marr ... and Her Escorts. In 2009, Rivers competed alongside her daughter Melissa on the second season of The Celebrity Apprentice, ultimately winning the season. In 2015, Rivers posthumously received a Grammy Award for Best Spoken Word Album for her book, Diary of a Mad Diva.In 1968, The New York Times television critic Jack Gould called Rivers \"quite possibly the most intuitively funny woman alive\". In 2017, Rolling Stone magazine ranked her sixth on its list of the 50 best stand-up comics of all time, and in October the same year, she was inducted into the Television Academy Hall of Fame.", "biography_author": "Wikidata", "date_of_biography": "2022-05-19T11:59:21.588372+10:00", "external_links": [{"id": 2393, "uri": "https://en.wikipedia.org/wiki/Joan_Rivers"}], "uuid": "21099d3d-0474-49e1-abfa-8e98df064e5f", "source": {"name": "Vernon", "slug": "vernon"}, "source_identifier": "21987", "external_references": [{"id": 10250, "source": {"name": "Wikidata", "slug": "wikidata"}, "source_identifier": "Q240933"}, {"id": 10251, "source": {"name": "VIAF", "slug": "viaf"}, "source_identifier": "72783623"}, {"id": 10252, "source": {"name": "LOC Auth", "slug": "loc-auth"}, "source_identifier": "n84007634"}, {"id": 10253, "source": {"name": "WorldCat", "slug": "worldcat"}, "source_identifier": "lccn-n84007634"}], "date_modified": "2023-09-13T12:30:29.249711+10:00"}, {"id": 31557, "name": "Edgar Rosenberg", "roles_in_work": [{"id": 1993930, "title": "Rabbit test", "work_id": 89600, "role": "producer", "role_id": 1089, "is_primary": true}], "also_known_as": "", "date_of_birth": "1924-01-01", "date_of_death": "1987-08-14", "genders": [{"id": 9, "name": "Male", "slug": "male"}], "languages": [{"id": 5, "name": "German", "slug": "german"}], "places_of_operation": [{"id": 18, "name": "Germany", "slug": "germany"}], "biography": "Edgar Rosenberg (September 21, 1925 – August 14, 1987) was a German-born British film and television producer based in the U.S.", "biography_author": "Wikidata", "date_of_biography": "2022-05-19T11:20:34.526878+10:00", "external_links": [{"id": 1963, "uri": "https://en.wikipedia.org/wiki/Edgar_Rosenberg"}], "uuid": "4284a0f1-79e1-4d84-80df-b998f311a5d4", "source": {"name": "Vernon", "slug": "vernon"}, "source_identifier": "18558", "external_references": [{"id": 8503, "source": {"name": "Wikidata", "slug": "wikidata"}, "source_identifier": "Q5337444"}], "date_modified": "2023-09-13T12:29:12.004477+10:00"}, {"id": 31556, "name": "Melvin Simon Productions", "roles_in_work": [{"id": 2476262, "title": "The Stunt man", "work_id": 94739, "role": "production company", "role_id": 941, "is_primary": true}, {"id": 1993929, "title": "Rabbit test", "work_id": 89600, "role": "production company", "role_id": 941, "is_primary": true}], "also_known_as": "", "date_of_birth": "", "date_of_death": "", "genders": [], "languages": [], "places_of_operation": [], "biography": "", "biography_author": null, "date_of_biography": "2023-08-17T15:34:24.293903+10:00", "external_links": [], "uuid": "efbe7b9e-e79c-4229-a37b-ae219c53fb54", "source": {"name": "Vernon", "slug": "vernon"}, "source_identifier": "10461", "external_references": [], "date_modified": "2023-08-17T15:34:24.294203+10:00"}, {"id": 31553, "name": "Arthur M Sarkissian", "roles_in_work": [{"id": 2114330, "title": "Beyond reason", "work_id": 89599, "role": "production company", "role_id": 941, "is_primary": true}], "also_known_as": "", "date_of_birth": "", "date_of_death": "", "genders": [], "languages": [], "places_of_operation": [], "biography": "", "biography_author": null, "date_of_biography": "2023-05-09T12:51:55.813441+10:00", "external_links": [], "uuid": "4b1fc41f-ae54-4094-9a83-f4f02d9eb6c6", "source": {"name": "Vernon", "slug": "vernon"}, "source_identifier": "15550", "external_references": [{"id": 38406, "source": {"name": "Wikidata", "slug": "wikidata"}, "source_identifier": "Q121222829"}], "date_modified": "2023-09-05T17:47:29.548786+10:00"}]}