{"count": 28687, "next": "https://api.acmi.net.au/creators/?page=1629", "previous": "https://api.acmi.net.au/creators/?page=1627", "results": [{"id": 30311, "name": "Masaki Kobayashi", "roles_in_work": [{"id": 2650409, "title": "Joi-Uchi = Rebellion (Cinemascope print)", "work_id": 115676, "role": "director", "role_id": 938, "is_primary": true}, {"id": 1992645, "title": "Kwaidan = Woman of the snow", "work_id": 88219, "role": "director", "role_id": 938, "is_primary": true}], "also_known_as": "", "date_of_birth": "1916-02-14", "date_of_death": "1996-10-04", "genders": [{"id": 9, "name": "Male", "slug": "male"}], "languages": [{"id": 2, "name": "Japanese", "slug": "japanese"}], "places_of_operation": [{"id": 8, "name": "Japan", "slug": "japan"}], "biography": "Masaki Kobayashi (小林 正樹, Kobayashi Masaki, February 14, 1916 – October 4, 1996) was a Japanese film director and screenwriter, best known for the epic trilogy The Human Condition (1959–1961), the samurai films Harakiri (1962) and Samurai Rebellion (1967), and the horror anthology Kwaidan (1964). Senses of Cinema described him as \"one of the finest depicters of Japanese society in the 1950s and 1960s.\"\n\n", "biography_author": "Wikidata", "date_of_biography": "2023-08-01T16:08:35.197418+10:00", "external_links": [{"id": 4646, "uri": "https://en.wikipedia.org/wiki/Masaki_Kobayashi"}], "uuid": "07e086b6-9544-48ff-9873-1f561236e0d5", "source": {"name": "Vernon", "slug": "vernon"}, "source_identifier": "24749", "external_references": [{"id": 25433, "source": {"name": "Wikidata", "slug": "wikidata"}, "source_identifier": "Q445807"}, {"id": 30195, "source": {"name": "VIAF", "slug": "viaf"}, "source_identifier": "12501175"}, {"id": 30196, "source": {"name": "LOC Auth", "slug": "loc-auth"}, "source_identifier": "no95055912"}, {"id": 30197, "source": {"name": "WorldCat", "slug": "worldcat"}, "source_identifier": "lccn-no95055912"}], "date_modified": "2025-03-05T14:16:00.167260+11:00"}, {"id": 30305, "name": "Queen Victoria Hospital Foundation", "roles_in_work": [{"id": 2414575, "title": "Laura's pregnant!", "work_id": 88217, "role": "production company", "role_id": 941, "is_primary": true}], "also_known_as": "", "date_of_birth": "", "date_of_death": "", "genders": [], "languages": [], "places_of_operation": [], "biography": "", "biography_author": null, "date_of_biography": "2023-08-11T19:19:09.029175+10:00", "external_links": [], "uuid": "b40dbad2-0971-4d67-a8ae-89ecdb0e90ca", "source": {"name": "Vernon", "slug": "vernon"}, "source_identifier": "11768", "external_references": [], "date_modified": "2023-08-11T19:19:09.029438+10:00"}, {"id": 30303, "name": "Gilles Sandoz", "roles_in_work": [{"id": 909880, "title": "Venus beauty = Venus beaute (institut)", "work_id": 90501, "role": "co-producer", "role_id": 915, "is_primary": true}, {"id": 1816576, "title": "Where the heart is = In place of the heart = A La place du coeur", "work_id": 93687, "role": "producer", "role_id": 1089, "is_primary": true}, {"id": 1808850, "title": "Marius and Jeanette", "work_id": 88216, "role": "producer", "role_id": 1089, "is_primary": true}], "also_known_as": "", "date_of_birth": "1953-01-01", "date_of_death": null, "genders": [{"id": 9, "name": "Male", "slug": "male"}], "languages": [{"id": 4, "name": "French", "slug": "french"}], "places_of_operation": [{"id": 17, "name": "France", "slug": "france"}], "biography": "", "biography_author": null, "date_of_biography": null, "external_links": [], "uuid": "5d72daf0-ceb7-4a1d-8cc5-1cfe400ccc82", "source": {"name": "Vernon", "slug": "vernon"}, "source_identifier": "3985", "external_references": [{"id": 38998, "source": {"name": "Wikidata", "slug": "wikidata"}, "source_identifier": "Q15149003"}, {"id": 54543, "source": {"name": "VIAF", "slug": "viaf"}, "source_identifier": "315210658"}, {"id": 54544, "source": {"name": "LOC Auth", "slug": "loc-auth"}, "source_identifier": "no2002001272"}], "date_modified": "2023-09-13T12:29:41.569042+10:00"}, {"id": 30299, "name": "Ngai Kai Lam", "roles_in_work": [{"id": 2407070, "title": "Erotic ghost story [Widescreen]", "work_id": 88212, "role": "director", "role_id": 938, "is_primary": true}], "also_known_as": "", "date_of_birth": "", "date_of_death": "", "genders": [], "languages": [], "places_of_operation": [], "biography": "", "biography_author": null, "date_of_biography": "2023-08-11T16:29:23.416693+10:00", "external_links": [], "uuid": "a5350784-c59d-49df-9a0d-48baed82dce1", "source": {"name": "Vernon", "slug": "vernon"}, "source_identifier": "25700", "external_references": [], "date_modified": "2023-08-11T16:29:23.416941+10:00"}, {"id": 30298, "name": "Lan Chan Choi", "roles_in_work": [{"id": 2407069, "title": "Erotic ghost story [Widescreen]", "work_id": 88212, "role": "producer", "role_id": 1089, "is_primary": true}], "also_known_as": "", "date_of_birth": "", "date_of_death": "", "genders": [], "languages": [], "places_of_operation": [], "biography": "", "biography_author": null, "date_of_biography": "2023-08-11T16:29:22.772117+10:00", "external_links": [], "uuid": "aa92d144-0339-41b7-a812-5f131b443d53", "source": {"name": "Vernon", "slug": "vernon"}, "source_identifier": "23460", "external_references": [], "date_modified": "2023-08-11T16:29:22.772338+10:00"}, {"id": 30297, "name": "Diagonal Pictures", "roles_in_work": [{"id": 2407068, "title": "Erotic ghost story [Widescreen]", "work_id": 88212, "role": "production company", "role_id": 941, "is_primary": true}], "also_known_as": "", "date_of_birth": "", "date_of_death": "", "genders": [], "languages": [], "places_of_operation": [], "biography": "", "biography_author": null, "date_of_biography": "2023-08-11T16:29:22.134980+10:00", "external_links": [], "uuid": "4f759abe-bbf1-4df1-9209-77d6e11039e2", "source": {"name": "Vernon", "slug": "vernon"}, "source_identifier": "7552", "external_references": [], "date_modified": "2023-08-11T16:29:22.135205+10:00"}, {"id": 30295, "name": "Richard Shepard", "roles_in_work": [{"id": 1992641, "title": "The Linguini incident", "work_id": 88210, "role": "director", "role_id": 938, "is_primary": true}], "also_known_as": "", "date_of_birth": "1965-03-20", "date_of_death": null, "genders": [{"id": 9, "name": "Male", "slug": "male"}], "languages": [{"id": 1, "name": "English", "slug": "english"}], "places_of_operation": [{"id": 1, "name": "United States of America", "slug": "united-states-of-america"}], "biography": "Richard Shepard (born 1965) is an American film and television director and screenwriter.\n\n", "biography_author": "Wikidata", "date_of_biography": "2022-05-19T12:50:35.903209+10:00", "external_links": [{"id": 2945, "uri": "https://en.wikipedia.org/wiki/Richard_Shepard"}], "uuid": "39ea0f9e-4244-45cc-82ea-4190e0d14f64", "source": {"name": "Vernon", "slug": "vernon"}, "source_identifier": "27507", "external_references": [{"id": 12517, "source": {"name": "Wikidata", "slug": "wikidata"}, "source_identifier": "Q1446528"}, {"id": 12518, "source": {"name": "VIAF", "slug": "viaf"}, "source_identifier": "46969200"}, {"id": 12519, "source": {"name": "LOC Auth", "slug": "loc-auth"}, "source_identifier": "n2007025994"}, {"id": 12520, "source": {"name": "WorldCat", "slug": "worldcat"}, "source_identifier": "lccn-n2007025994"}], "date_modified": "2023-09-13T12:32:13.861193+10:00"}, {"id": 30290, "name": "Charlotte George", "roles_in_work": [{"id": 2198365, "title": "Don't stand so close to me", "work_id": 88208, "role": "director", "role_id": 938, "is_primary": true}, {"id": 2198363, "title": "Don't stand so close to me", "work_id": 88208, "role": "co-producer", "role_id": 915, "is_primary": true}, {"id": 2354890, "title": "The House of names", "work_id": 94547, "role": "producer/director", "role_id": 31, "is_primary": true}, {"id": 2198359, "title": "Don't stand so close to me", "work_id": 88208, "role": "production company", "role_id": 941, "is_primary": true}], "also_known_as": "", "date_of_birth": "", "date_of_death": "", "genders": [], "languages": [], "places_of_operation": [], "biography": "", "biography_author": null, "date_of_biography": "2023-05-09T20:02:17.151087+10:00", "external_links": [], "uuid": "86e90fd7-483f-4c6f-b9ae-7d350c74b505", "source": {"name": "Vernon", "slug": "vernon"}, "source_identifier": "16752", "external_references": [{"id": 35580, "source": {"name": "Wikidata", "slug": "wikidata"}, "source_identifier": "Q121126485"}], "date_modified": "2023-09-05T18:29:04.412791+10:00"}, {"id": 30289, "name": "Alexander Salkind and Ilya Salkind Productions", "roles_in_work": [{"id": 2318517, "title": "Superman II", "work_id": 88206, "role": "production company", "role_id": 941, "is_primary": true}], "also_known_as": "", "date_of_birth": "", "date_of_death": "", "genders": [], "languages": [], "places_of_operation": [], "biography": "", "biography_author": null, "date_of_biography": "2023-05-09T19:08:38.352746+10:00", "external_links": [], "uuid": "fafc9ae1-dcca-40eb-a361-61b962db8bc2", "source": {"name": "Vernon", "slug": "vernon"}, "source_identifier": "5111", "external_references": [{"id": 34644, "source": {"name": "Wikidata", "slug": "wikidata"}, "source_identifier": "Q121035145"}], "date_modified": "2023-09-05T17:26:25.504052+10:00"}, {"id": 30287, "name": "Darla Anderson", "roles_in_work": [{"id": 2065506, "title": "A Bug's life [DVD]", "work_id": 93203, "role": "co-producer", "role_id": 915, "is_primary": true}, {"id": 2065489, "title": "A Bug's life", "work_id": 88204, "role": "co-producer", "role_id": 915, "is_primary": true}, {"id": 2130854, "title": "Cars", "work_id": 95561, "role": "producer", "role_id": 1089, "is_primary": true}, {"id": 2174738, "title": "Monsters, Inc. [DVD]", "work_id": 93766, "role": "producer", "role_id": 1089, "is_primary": true}], "also_known_as": "", "date_of_birth": "", "date_of_death": "", "genders": [], "languages": [], "places_of_operation": [], "biography": "", "biography_author": null, "date_of_biography": "2023-05-09T14:43:48.995487+10:00", "external_links": [], "uuid": "b94117c4-4771-4aa2-aae3-68a9aa84dea5", "source": {"name": "Vernon", "slug": "vernon"}, "source_identifier": "17437", "external_references": [], "date_modified": "2023-06-14T16:33:30.576250+10:00"}]}