{"count": 28687, "next": "https://api.acmi.net.au/creators/?page=1281", "previous": "https://api.acmi.net.au/creators/?page=1279", "results": [{"id": 39151, "name": "Video Events", "roles_in_work": [{"id": 2753771, "title": "Apples and pears: the Australian story", "work_id": 98922, "role": "production company", "role_id": 941, "is_primary": true}], "also_known_as": "", "date_of_birth": "", "date_of_death": "", "genders": [], "languages": [], "places_of_operation": [], "biography": "", "biography_author": null, "date_of_biography": "2023-08-11T14:09:38.476996+10:00", "external_links": [], "uuid": "50f4f1d6-198e-4fd9-9dbf-082bcc90b5c0", "source": {"name": "Vernon", "slug": "vernon"}, "source_identifier": "14100", "external_references": [], "date_modified": "2025-03-13T01:32:00.772831+11:00"}, {"id": 39150, "name": "Old Data", "roles_in_work": [{"id": 2753762, "title": "Fast talking", "work_id": 98919, "role": "production company", "role_id": 941, "is_primary": true}], "also_known_as": "", "date_of_birth": "", "date_of_death": "", "genders": [], "languages": [], "places_of_operation": [], "biography": "", "biography_author": null, "date_of_biography": "2023-05-09T16:29:44.276180+10:00", "external_links": [], "uuid": "a6c2480a-a6a2-4ede-8285-859e9d3e0161", "source": {"name": "Vernon", "slug": "vernon"}, "source_identifier": "11112", "external_references": [{"id": 41328, "source": {"name": "Wikidata", "slug": "wikidata"}, "source_identifier": "Q121034525"}], "date_modified": "2025-03-13T01:31:51.459947+11:00"}, {"id": 39149, "name": "Chosen Film Company", "roles_in_work": [{"id": 2753757, "title": "The Chosen", "work_id": 98918, "role": "production company", "role_id": 941, "is_primary": true}], "also_known_as": "", "date_of_birth": null, "date_of_death": null, "genders": [], "languages": [], "places_of_operation": [], "biography": "", "biography_author": null, "date_of_biography": null, "external_links": [], "uuid": "07fd59ea-1362-4934-8611-e882d69d6ec6", "source": {"name": "Vernon", "slug": "vernon"}, "source_identifier": "13363", "external_references": [], "date_modified": "2025-03-13T01:31:45.014509+11:00"}, {"id": 39148, "name": "Focal Video", "roles_in_work": [{"id": 2753747, "title": "Destination: science", "work_id": 98912, "role": "production company", "role_id": 941, "is_primary": true}], "also_known_as": "", "date_of_birth": null, "date_of_death": null, "genders": [], "languages": [], "places_of_operation": [], "biography": "", "biography_author": null, "date_of_biography": null, "external_links": [], "uuid": "31cef9a7-16e8-47ca-957a-5679b07840ba", "source": {"name": "Vernon", "slug": "vernon"}, "source_identifier": "8415", "external_references": [], "date_modified": "2025-03-13T01:31:38.706533+11:00"}, {"id": 39146, "name": "EPCOT Educational Media", "roles_in_work": [{"id": 2754894, "title": "Ethics in the computer age", "work_id": 99415, "role": "production company", "role_id": 941, "is_primary": true}, {"id": 2753745, "title": "The Challenge of survival: chemicals", "work_id": 98911, "role": "production company", "role_id": 941, "is_primary": true}, {"id": 2753748, "title": "Destination: science", "work_id": 98912, "role": "production company", "role_id": 941, "is_primary": true}], "also_known_as": "", "date_of_birth": "", "date_of_death": "", "genders": [], "languages": [], "places_of_operation": [], "biography": "", "biography_author": null, "date_of_biography": "2023-05-09T19:33:19.347711+10:00", "external_links": [], "uuid": "ad1601b6-e5ec-4438-9582-8de5be430744", "source": {"name": "Vernon", "slug": "vernon"}, "source_identifier": "7926", "external_references": [{"id": 35659, "source": {"name": "Wikidata", "slug": "wikidata"}, "source_identifier": "Q121270940"}], "date_modified": "2025-03-13T01:52:56.670045+11:00"}, {"id": 39145, "name": "Dag Bengtsson", "roles_in_work": [{"id": 2753735, "title": "Discover Sweden", "work_id": 98906, "role": "director", "role_id": 938, "is_primary": true}], "also_known_as": "", "date_of_birth": null, "date_of_death": null, "genders": [], "languages": [], "places_of_operation": [], "biography": "", "biography_author": null, "date_of_biography": null, "external_links": [], "uuid": "3cb28b9e-cea1-47da-9f93-6d55a26240c6", "source": {"name": "Vernon", "slug": "vernon"}, "source_identifier": "17312", "external_references": [], "date_modified": "2025-03-13T01:31:27.777394+11:00"}, {"id": 39144, "name": "D Tranword Communications", "roles_in_work": [{"id": 2753733, "title": "Discover Sweden", "work_id": 98906, "role": "production company", "role_id": 941, "is_primary": true}], "also_known_as": "", "date_of_birth": null, "date_of_death": null, "genders": [], "languages": [], "places_of_operation": [], "biography": "", "biography_author": null, "date_of_biography": null, "external_links": [], "uuid": "fc94155e-e24c-45d4-90cb-330b1d9c67ca", "source": {"name": "Vernon", "slug": "vernon"}, "source_identifier": "7287", "external_references": [], "date_modified": "2025-03-13T01:31:26.472396+11:00"}, {"id": 39143, "name": "J", "roles_in_work": [{"id": 2753732, "title": "Discover Sweden", "work_id": 98906, "role": "production company", "role_id": 941, "is_primary": true}], "also_known_as": "", "date_of_birth": null, "date_of_death": null, "genders": [], "languages": [], "places_of_operation": [], "biography": "", "biography_author": null, "date_of_biography": null, "external_links": [], "uuid": "817cad39-58a4-4a88-bb1a-1e30860706d6", "source": {"name": "Vernon", "slug": "vernon"}, "source_identifier": "9506", "external_references": [], "date_modified": "2025-03-13T01:31:25.863422+11:00"}, {"id": 39142, "name": "Pihl Films", "roles_in_work": [{"id": 2753730, "title": "Modern Europe: Norway", "work_id": 98905, "role": "production company", "role_id": 941, "is_primary": true}], "also_known_as": "", "date_of_birth": null, "date_of_death": null, "genders": [], "languages": [], "places_of_operation": [], "biography": "", "biography_author": null, "date_of_biography": null, "external_links": [], "uuid": "8227b41b-8864-429a-9686-275a0a559e47", "source": {"name": "Vernon", "slug": "vernon"}, "source_identifier": "11486", "external_references": [], "date_modified": "2025-03-13T01:31:24.380201+11:00"}, {"id": 39141, "name": "John Paling", "roles_in_work": [{"id": 2753729, "title": "Fish", "work_id": 98904, "role": "director", "role_id": 938, "is_primary": true}], "also_known_as": "", "date_of_birth": null, "date_of_death": null, "genders": [], "languages": [], "places_of_operation": [], "biography": "", "biography_author": null, "date_of_biography": null, "external_links": [], "uuid": "9d7a4986-ad61-42fa-a823-cb990e9fd3e3", "source": {"name": "Vernon", "slug": "vernon"}, "source_identifier": "22453", "external_references": [], "date_modified": "2025-03-13T01:31:23.517895+11:00"}]}