{"count": 28687, "next": "https://api.acmi.net.au/creators/?page=2147", "previous": "https://api.acmi.net.au/creators/?page=2145", "results": [{"id": 19678, "name": "Ian Barry", "roles_in_work": [{"id": 2336684, "title": "The Chain Reaction", "work_id": 80726, "role": "director", "role_id": 938, "is_primary": true}, {"id": 862533, "title": "Two thousand million years later", "work_id": 76365, "role": "director", "role_id": 938, "is_primary": true}, {"id": 1991397, "title": "Joey", "work_id": 87071, "role": "director", "role_id": 938, "is_primary": true}, {"id": 2121987, "title": "Bodysurfer. - Volume 1.", "work_id": 81339, "role": "director", "role_id": 938, "is_primary": true}, {"id": 2122029, "title": "Bodysurfer. - Volume 2.", "work_id": 81340, "role": "director", "role_id": 938, "is_primary": true}], "also_known_as": "", "date_of_birth": null, "date_of_death": null, "genders": [{"id": 9, "name": "Male", "slug": "male"}], "languages": [], "places_of_operation": [{"id": 3, "name": "Australia", "slug": "australia"}], "biography": "Ian Barry is an Australian director of film and TV.", "biography_author": "Wikidata", "date_of_biography": "2022-05-19T11:47:05.236766+10:00", "external_links": [{"id": 2252, "uri": "https://en.wikipedia.org/wiki/Ian_Barry_(director)"}], "uuid": "468d1362-b367-4240-8bec-c9085f6849f0", "source": {"name": "Vernon", "slug": "vernon"}, "source_identifier": "20735", "external_references": [{"id": 9672, "source": {"name": "Wikidata", "slug": "wikidata"}, "source_identifier": "Q5980854"}], "date_modified": "2023-09-13T12:30:03.650962+10:00"}, {"id": 19675, "name": "Sally Cruikshank", "roles_in_work": [{"id": 1818604, "title": "The Quasi cabaret [trailer]", "work_id": 76359, "role": "producer", "role_id": 1089, "is_primary": true}, {"id": 862521, "title": "Quasi at the Quackadero", "work_id": 76360, "role": "producer/director", "role_id": 31, "is_primary": true}], "also_known_as": "", "date_of_birth": "1949-06-01", "date_of_death": null, "genders": [{"id": 5, "name": "Female", "slug": "female"}], "languages": [{"id": 1, "name": "English", "slug": "english"}], "places_of_operation": [{"id": 1, "name": "United States of America", "slug": "united-states-of-america"}], "biography": "Sarah Cruikshank (born 1949) is an American cartoonist, animator and artist, whose work includes animation for the Children's Television Workshop program Sesame Street, and whose short Quasi at the Quackadero (1975) was inducted into the United States National Film Registry.", "biography_author": "Wikidata", "date_of_biography": "2023-08-01T16:57:54.459520+10:00", "external_links": [{"id": 5100, "uri": "https://en.wikipedia.org/wiki/Sally_Cruikshank"}], "uuid": "96b5380a-1f7d-4619-bb0e-02139568b3fc", "source": {"name": "Vernon", "slug": "vernon"}, "source_identifier": "28444", "external_references": [{"id": 25767, "source": {"name": "Wikidata", "slug": "wikidata"}, "source_identifier": "Q7405113"}, {"id": 31369, "source": {"name": "VIAF", "slug": "viaf"}, "source_identifier": "266168236"}, {"id": 31370, "source": {"name": "LOC Auth", "slug": "loc-auth"}, "source_identifier": "nr99011966"}, {"id": 31371, "source": {"name": "WorldCat", "slug": "worldcat"}, "source_identifier": "lccn-nr99011966"}], "date_modified": "2023-09-13T12:32:32.203217+10:00"}, {"id": 19673, "name": "Savage Steve Holland", "roles_in_work": [{"id": 2408627, "title": "Going nowhere fast", "work_id": 76357, "role": "producer", "role_id": 1089, "is_primary": true}], "also_known_as": "", "date_of_birth": "", "date_of_death": "", "genders": [], "languages": [], "places_of_operation": [], "biography": "", "biography_author": null, "date_of_biography": "2023-08-11T17:04:16.505342+10:00", "external_links": [], "uuid": "49a4faa2-f748-4c9a-96f4-a77156d5c374", "source": {"name": "Vernon", "slug": "vernon"}, "source_identifier": "12308", "external_references": [], "date_modified": "2023-08-11T17:04:16.505693+10:00"}, {"id": 19670, "name": "Muscle Films", "roles_in_work": [{"id": 2122514, "title": "Boolean procedure", "work_id": 76356, "role": "production company", "role_id": 941, "is_primary": true}], "also_known_as": "", "date_of_birth": "", "date_of_death": "", "genders": [], "languages": [], "places_of_operation": [], "biography": "", "biography_author": null, "date_of_biography": "2023-05-09T13:05:53.454606+10:00", "external_links": [], "uuid": "ffdc92d7-9f9c-4a44-b9eb-2e0b85f686dc", "source": {"name": "Vernon", "slug": "vernon"}, "source_identifier": "10725", "external_references": [{"id": 32863, "source": {"name": "Wikidata", "slug": "wikidata"}, "source_identifier": "Q121298904"}], "date_modified": "2023-09-05T23:23:05.055201+10:00"}, {"id": 19666, "name": "George Lindsay", "roles_in_work": [{"id": 1809636, "title": "The Dancing lion: an African folktale", "work_id": 76350, "role": "producer", "role_id": 1089, "is_primary": true}, {"id": 2750982, "title": "The Fastest animal on earth", "work_id": 97604, "role": "producer/director", "role_id": 31, "is_primary": true}], "also_known_as": "", "date_of_birth": null, "date_of_death": null, "genders": [], "languages": [], "places_of_operation": [], "biography": "", "biography_author": null, "date_of_biography": null, "external_links": [], "uuid": "182b0bd9-d7af-4727-8abf-817378d0370d", "source": {"name": "Vernon", "slug": "vernon"}, "source_identifier": "19631", "external_references": [], "date_modified": "2025-03-13T00:35:05.781646+11:00"}, {"id": 19665, "name": "Michael Bond", "roles_in_work": [{"id": 2765282, "title": "An Unexpected party", "work_id": 76348, "role": "author", "role_id": 943, "is_primary": true}, {"id": 869813, "title": "A Family group", "work_id": 85860, "role": "author", "role_id": 943, "is_primary": true}], "also_known_as": "", "date_of_birth": "", "date_of_death": "", "genders": [], "languages": [], "places_of_operation": [], "biography": "", "biography_author": null, "date_of_biography": "2023-05-09T17:42:16.568321+10:00", "external_links": [], "uuid": "cd6534ba-dfd4-40ee-9db9-6a071ff5c2c5", "source": {"name": "Vernon", "slug": "vernon"}, "source_identifier": "32071", "external_references": [], "date_modified": "2025-03-14T17:51:27.147038+11:00"}, {"id": 19663, "name": "Central Studios", "roles_in_work": [{"id": 2647444, "title": "Our time in the garden", "work_id": 76347, "role": "production company", "role_id": 941, "is_primary": true}], "also_known_as": "", "date_of_birth": "", "date_of_death": "", "genders": [], "languages": [], "places_of_operation": [], "biography": "", "biography_author": null, "date_of_biography": "2023-05-09T14:52:13.846343+10:00", "external_links": [], "uuid": "d6a5daa6-1cc4-40d2-b09b-cdfa12825f7e", "source": {"name": "Vernon", "slug": "vernon"}, "source_identifier": "1742", "external_references": [{"id": 35678, "source": {"name": "Wikidata", "slug": "wikidata"}, "source_identifier": "Q121223121"}], "date_modified": "2025-03-05T13:26:05.043415+11:00"}, {"id": 19662, "name": "Ronald Floethe", "roles_in_work": [{"id": 2752241, "title": "Learning about light", "work_id": 98208, "role": "director", "role_id": 938, "is_primary": true}, {"id": 2760610, "title": "Step family", "work_id": 77458, "role": "director", "role_id": 938, "is_primary": true}, {"id": 862499, "title": "Crime: senior alert", "work_id": 76339, "role": "director", "role_id": 938, "is_primary": true}, {"id": 2760607, "title": "The Single parent family", "work_id": 77457, "role": "director", "role_id": 938, "is_primary": true}, {"id": 2752243, "title": "Learning about sound", "work_id": 98209, "role": "director", "role_id": 938, "is_primary": true}], "also_known_as": "", "date_of_birth": "", "date_of_death": "", "genders": [], "languages": [], "places_of_operation": [], "biography": "", "biography_author": null, "date_of_biography": "2023-08-11T16:12:03.554670+10:00", "external_links": [], "uuid": "8401bb0f-06fa-40c6-b228-8fae3ea5d8cc", "source": {"name": "Vernon", "slug": "vernon"}, "source_identifier": "28200", "external_references": [], "date_modified": "2025-03-14T17:26:31.531430+11:00"}, {"id": 19660, "name": "David Springbett", "roles_in_work": [{"id": 2752294, "title": "With Bernadette in Papua New Guinea", "work_id": 98233, "role": "director", "role_id": 938, "is_primary": true}, {"id": 2752290, "title": "With Michael in Kyuso, Kenya", "work_id": 98232, "role": "director", "role_id": 938, "is_primary": true}, {"id": 2752288, "title": "With Michael in Kyuso, Kenya", "work_id": 98232, "role": "co-producer", "role_id": 915, "is_primary": true}, {"id": 2752292, "title": "With Bernadette in Papua New Guinea", "work_id": 98233, "role": "co-producer", "role_id": 915, "is_primary": true}, {"id": 2752004, "title": "With Yau Kai in Hong Kong", "work_id": 98089, "role": "co-producer", "role_id": 915, "is_primary": true}, {"id": 2752000, "title": "With Oscar in Peru", "work_id": 98088, "role": "co-producer", "role_id": 915, "is_primary": true}, {"id": 2751995, "title": "With Nang & Nakorn in Thailand", "work_id": 98087, "role": "co-producer", "role_id": 915, "is_primary": true}, {"id": 908752, "title": "Hard oil! How the Canadians discovered oil", "work_id": 89200, "role": "co-producer", "role_id": 915, "is_primary": true}, {"id": 2647619, "title": "Black ice", "work_id": 76858, "role": "co-producer", "role_id": 915, "is_primary": true}, {"id": 2647442, "title": "Shutdown", "work_id": 76337, "role": "co-producer", "role_id": 915, "is_primary": true}], "also_known_as": "", "date_of_birth": "", "date_of_death": "", "genders": [], "languages": [], "places_of_operation": [], "biography": "", "biography_author": null, "date_of_biography": "2023-05-09T18:23:43.647718+10:00", "external_links": [], "uuid": "da3b8adf-3804-4023-814f-7fff7c6b2aec", "source": {"name": "Vernon", "slug": "vernon"}, "source_identifier": "17801", "external_references": [{"id": 38358, "source": {"name": "Wikidata", "slug": "wikidata"}, "source_identifier": "Q121035223"}], "date_modified": "2025-03-13T01:01:57.335884+11:00"}, {"id": 19658, "name": "Fern Field", "roles_in_work": [{"id": 2753749, "title": "Destination: science", "work_id": 98912, "role": "director", "role_id": 938, "is_primary": true}, {"id": 2647439, "title": "A Different approach", "work_id": 76336, "role": "director", "role_id": 938, "is_primary": true}, {"id": 2647437, "title": "A Different approach", "work_id": 76336, "role": "co-producer", "role_id": 915, "is_primary": true}, {"id": 1816399, "title": "The Wave [NTSC]", "work_id": 93463, "role": "producer", "role_id": 1089, "is_primary": true}], "also_known_as": "", "date_of_birth": "1934-06-28", "date_of_death": "", "genders": [{"id": 5, "name": "Female", "slug": "female"}], "languages": [], "places_of_operation": [], "biography": "", "biography_author": null, "date_of_biography": "2023-05-09T11:27:18.642758+10:00", "external_links": [], "uuid": "c24ca44d-ff9b-4061-8c53-f48e3a987806", "source": {"name": "Vernon", "slug": "vernon"}, "source_identifier": "8145", "external_references": [{"id": 36680, "source": {"name": "Wikidata", "slug": "wikidata"}, "source_identifier": "Q22102056"}, {"id": 54419, "source": {"name": "VIAF", "slug": "viaf"}, "source_identifier": "58992237"}, {"id": 54420, "source": {"name": "LOC Auth", "slug": "loc-auth"}, "source_identifier": "nr98006223"}], "date_modified": "2025-03-13T01:31:39.889746+11:00"}]}