{"count": 28687, "next": "https://api.acmi.net.au/creators/?page=9", "previous": "https://api.acmi.net.au/creators/?page=7", "results": [{"id": 88864, "name": "Rita Carmody", "roles_in_work": [{"id": 3106465, "title": "Green ring, purple ring, yellow duck ring, pink pig ring", "work_id": 125240, "role": "costume designer", "role_id": 961, "is_primary": true}, {"id": 3106450, "title": "Character design board Amerie", "work_id": 125236, "role": "costume designer", "role_id": 961, "is_primary": true}, {"id": 3106455, "title": "Quinni's cordless noise cancelling headphones (S2 E7)", "work_id": 125245, "role": "costume designer", "role_id": 961, "is_primary": true}, {"id": 3106459, "title": "Sexual Literacy Tutorials school text book", "work_id": 125246, "role": "costume designer", "role_id": 961, "is_primary": true}, {"id": 3106461, "title": "Hartley High School shield", "work_id": 125244, "role": "costume designer", "role_id": 961, "is_primary": true}, {"id": 3106463, "title": "Darren's purple 'God's favourite' handbag (S2 E8)", "work_id": 125242, "role": "costume designer", "role_id": 961, "is_primary": true}, {"id": 3106418, "title": "Character design board Darren", "work_id": 125237, "role": "costume designer", "role_id": 961, "is_primary": true}, {"id": 3106420, "title": "Character design board Malakai", "work_id": 125238, "role": "costume designer", "role_id": 961, "is_primary": true}, {"id": 3106422, "title": "Character design board Quinni", "work_id": 125239, "role": "costume designer", "role_id": 961, "is_primary": true}, {"id": 3106425, "title": "Heartbreak High: Amerie Wadia (Ayesha Madon) costume S2 E1", "work_id": 125241, "role": "costume designer", "role_id": 961, "is_primary": true}, {"id": 3106429, "title": "Harper's black shoulder bag, worn by Amerie (S1 E2)", "work_id": 125243, "role": "costume designer", "role_id": 961, "is_primary": true}, {"id": 3106437, "title": "Heartbreak High: Darren Rivers (James Majoos) costume S1 E2", "work_id": 125247, "role": "costume designer", "role_id": 961, "is_primary": true}, {"id": 3106441, "title": "Heartbreak High: Quinni Gallagher-Jones (Chloe Hayden) costume S2 E7", "work_id": 125249, "role": "costume designer", "role_id": 961, "is_primary": true}, {"id": 3106444, "title": "Heartbreak High", "work_id": 125222, "role": "costume designer", "role_id": 961, "is_primary": true}, {"id": 3106446, "title": "Heartbreak High: Malakai Mitchell (Thomas Weatherall) costume S2 E1", "work_id": 125248, "role": "costume designer", "role_id": 961, "is_primary": true}], "also_known_as": "", "date_of_birth": null, "date_of_death": null, "genders": [], "languages": [], "places_of_operation": [], "biography": "", "biography_author": null, "date_of_biography": null, "external_links": [], "uuid": "5decae76-93eb-4647-88bb-1bbee11767f3", "source": {"name": "Vernon", "slug": "vernon"}, "source_identifier": "40927", "external_references": [], "date_modified": "2025-06-23T16:35:16.896272+10:00"}, {"id": 88863, "name": "Harry Long", "roles_in_work": [{"id": 3097691, "title": "Tick Tock", "work_id": 73812, "role": "photographer", "role_id": 440, "is_primary": false}], "also_known_as": "", "date_of_birth": null, "date_of_death": null, "genders": [], "languages": [], "places_of_operation": [], "biography": "", "biography_author": null, "date_of_biography": null, "external_links": [], "uuid": "1cf8df1d-5527-411d-a356-5c3856f93b85", "source": {"name": "Vernon", "slug": "vernon"}, "source_identifier": "40961", "external_references": [], "date_modified": "2025-05-09T22:35:07.422237+10:00"}, {"id": 88862, "name": "Alvar Lidell", "roles_in_work": [{"id": 3097690, "title": "Tick Tock", "work_id": 73812, "role": "narrator", "role_id": 499, "is_primary": false}], "also_known_as": "", "date_of_birth": "11 SEP 1908", "date_of_death": "07 JAN 1981", "genders": [{"id": 9, "name": "Male", "slug": "male"}], "languages": [], "places_of_operation": [], "biography": "", "biography_author": null, "date_of_biography": null, "external_links": [], "uuid": "38d424ec-352d-4674-858e-2bb35eba1cce", "source": {"name": "Vernon", "slug": "vernon"}, "source_identifier": "40960", "external_references": [], "date_modified": "2025-05-09T22:35:06.824012+10:00"}, {"id": 88861, "name": "Tavistock", "roles_in_work": [{"id": 3097689, "title": "Tick Tock", "work_id": 73812, "role": "production company", "role_id": 941, "is_primary": true}], "also_known_as": "", "date_of_birth": null, "date_of_death": null, "genders": [], "languages": [], "places_of_operation": [], "biography": "", "biography_author": null, "date_of_biography": null, "external_links": [], "uuid": "25b26d18-0c6b-4415-a338-85bab7d226ee", "source": {"name": "Vernon", "slug": "vernon"}, "source_identifier": "40959", "external_references": [], "date_modified": "2025-05-09T22:35:06.217304+10:00"}, {"id": 88860, "name": "J Jameson", "roles_in_work": [{"id": 3093503, "title": "Leeeeeerooooooy Jenkins!", "work_id": 125203, "role": "creator", "role_id": 968, "is_primary": true}], "also_known_as": "", "date_of_birth": null, "date_of_death": null, "genders": [], "languages": [], "places_of_operation": [], "biography": "", "biography_author": null, "date_of_biography": null, "external_links": [], "uuid": "f2b57137-0006-4ecc-80e3-dae00bb041f9", "source": {"name": "Vernon", "slug": "vernon"}, "source_identifier": "40920", "external_references": [], "date_modified": "2025-04-07T22:35:25.540584+10:00"}, {"id": 88859, "name": "Johnson and Gibson", "roles_in_work": [{"id": 3093088, "title": "Living Hawthorn", "work_id": 95617, "role": "production company", "role_id": 941, "is_primary": true}], "also_known_as": "", "date_of_birth": null, "date_of_death": null, "genders": [], "languages": [], "places_of_operation": [], "biography": "", "biography_author": null, "date_of_biography": null, "external_links": [], "uuid": "7aaa782a-2105-41c7-8611-2b95f32eceb9", "source": {"name": "Vernon", "slug": "vernon"}, "source_identifier": "9638", "external_references": [], "date_modified": "2025-03-31T22:36:43.941188+11:00"}, {"id": 88856, "name": "Linda Smart", "roles_in_work": [{"id": 3092532, "title": "Attack of the strange insects from Uranus", "work_id": 109711, "role": "copyright owner", "role_id": 1020, "is_primary": false}], "also_known_as": "", "date_of_birth": null, "date_of_death": null, "genders": [], "languages": [], "places_of_operation": [], "biography": "", "biography_author": null, "date_of_biography": null, "external_links": [], "uuid": "037ce686-5ff7-41ce-a5ba-aa7cda7e7db7", "source": {"name": "Vernon", "slug": "vernon"}, "source_identifier": "40913", "external_references": [], "date_modified": "2025-03-24T22:35:01.959932+11:00"}, {"id": 88855, "name": "Damec00chie", "roles_in_work": [{"id": 3092249, "title": "Sludge", "work_id": 125202, "role": "creator", "role_id": 968, "is_primary": true}], "also_known_as": "", "date_of_birth": null, "date_of_death": null, "genders": [], "languages": [], "places_of_operation": [], "biography": "", "biography_author": null, "date_of_biography": null, "external_links": [], "uuid": "a891e0c8-5b3b-415c-adf7-f31bd42f921b", "source": {"name": "Vernon", "slug": "vernon"}, "source_identifier": "40912", "external_references": [], "date_modified": "2025-03-19T22:40:53.708058+11:00"}, {"id": 88848, "name": "Christian Schwochow", "roles_in_work": [{"id": 3092369, "title": "The Crown", "work_id": 125201, "role": "director", "role_id": 938, "is_primary": true}], "also_known_as": "", "date_of_birth": null, "date_of_death": null, "genders": [], "languages": [], "places_of_operation": [], "biography": "", "biography_author": null, "date_of_biography": null, "external_links": [], "uuid": "3c6fc2c1-5d8d-4e93-9892-824afbcbf4b1", "source": {"name": "Vernon", "slug": "vernon"}, "source_identifier": "40911", "external_references": [], "date_modified": "2025-03-20T22:35:45.515803+11:00"}, {"id": 87895, "name": "Equal Opportunity Unit, Education Department of Victoria", "roles_in_work": [{"id": 2752539, "title": "New classroom: a study in classroom dynamics", "work_id": 98341, "role": "production company", "role_id": 941, "is_primary": true}], "also_known_as": "", "date_of_birth": null, "date_of_death": null, "genders": [], "languages": [], "places_of_operation": [], "biography": "", "biography_author": null, "date_of_biography": null, "external_links": [], "uuid": "871d7fa2-6b57-4b9c-8b49-eab01e569cb7", "source": {"name": "Vernon", "slug": "vernon"}, "source_identifier": "7939", "external_references": [], "date_modified": "2025-03-13T01:07:08.835472+11:00"}]}