{"count": 28681, "next": "https://api.acmi.net.au/creators/?page=2576", "previous": "https://api.acmi.net.au/creators/?page=2574", "results": [{"id": 12974, "name": "Natalie Green", "roles_in_work": [{"id": 2678238, "title": "The Bedspread", "work_id": 65292, "role": "director", "role_id": 938, "is_primary": true}, {"id": 1915898, "title": "Free Climbing", "work_id": 78526, "role": "director", "role_id": 938, "is_primary": true}, {"id": 894738, "title": "Jump the fence", "work_id": 69313, "role": "director", "role_id": 938, "is_primary": true}, {"id": 894736, "title": "Jump the fence", "work_id": 69313, "role": "co-producer", "role_id": 915, "is_primary": true}], "also_known_as": "", "date_of_birth": "", "date_of_death": "", "genders": [], "languages": [], "places_of_operation": [], "biography": "", "biography_author": null, "date_of_biography": "2023-05-09T19:24:53.297561+10:00", "external_links": [], "uuid": "659698f2-f57e-46c7-8709-997d71d8a91d", "source": {"name": "Vernon", "slug": "vernon"}, "source_identifier": "25640", "external_references": [{"id": 34809, "source": {"name": "Wikidata", "slug": "wikidata"}, "source_identifier": "Q121337484"}], "date_modified": "2025-03-06T23:45:02.382245+11:00"}, {"id": 12973, "name": "Elizabeth O'Neill", "roles_in_work": [{"id": 2508672, "title": "Drat", "work_id": 92073, "role": "director", "role_id": 938, "is_primary": true}, {"id": 2678237, "title": "The Bedspread", "work_id": 65292, "role": "producer", "role_id": 1089, "is_primary": true}], "also_known_as": "", "date_of_birth": "", "date_of_death": "", "genders": [], "languages": [], "places_of_operation": [], "biography": "", "biography_author": null, "date_of_biography": "2023-05-09T19:24:53.050085+10:00", "external_links": [], "uuid": "d1ec2d40-65c2-4dc4-8b61-e46e8fb9a1fa", "source": {"name": "Vernon", "slug": "vernon"}, "source_identifier": "18709", "external_references": [{"id": 42588, "source": {"name": "Wikidata", "slug": "wikidata"}, "source_identifier": "Q121035622"}], "date_modified": "2025-03-06T23:45:01.793274+11:00"}, {"id": 12972, "name": "Berry St Film Productions", "roles_in_work": [{"id": 2678236, "title": "The Bedspread", "work_id": 65292, "role": "production company", "role_id": 941, "is_primary": true}], "also_known_as": "", "date_of_birth": "", "date_of_death": "", "genders": [], "languages": [], "places_of_operation": [], "biography": "", "biography_author": null, "date_of_biography": "2023-05-09T19:24:52.799069+10:00", "external_links": [], "uuid": "273269f4-11cb-4827-b6fe-51c59f0e4830", "source": {"name": "Vernon", "slug": "vernon"}, "source_identifier": "5817", "external_references": [{"id": 50599, "source": {"name": "Wikidata", "slug": "wikidata"}, "source_identifier": "Q121357965"}], "date_modified": "2025-03-06T23:45:01.201548+11:00"}, {"id": 12971, "name": "United States. Bureau of Aeronautics", "roles_in_work": [{"id": 2757402, "title": "Beds and appliances", "work_id": 65291, "role": "production company", "role_id": 941, "is_primary": true}], "also_known_as": "", "date_of_birth": "", "date_of_death": "", "genders": [], "languages": [], "places_of_operation": [], "biography": "", "biography_author": null, "date_of_biography": "2023-08-11T14:47:49.265726+10:00", "external_links": [], "uuid": "e3e2c17a-0380-40d6-8c32-ee10adf27475", "source": {"name": "Vernon", "slug": "vernon"}, "source_identifier": "13876", "external_references": [], "date_modified": "2025-03-13T14:45:19.025194+11:00"}, {"id": 12970, "name": "Institut für Film und Bild", "roles_in_work": [{"id": 825833, "title": "School day in Japan", "work_id": 96063, "role": "production company", "role_id": 941, "is_primary": true}, {"id": 2678233, "title": "Bedouins of Arabia", "work_id": 65290, "role": "production company", "role_id": 941, "is_primary": true}, {"id": 2713031, "title": "The Life history of the honeybee and of the beehive = Die Entwickling der honighiene und des bienevolkes", "work_id": 67210, "role": "production company", "role_id": 941, "is_primary": true}, {"id": 2713450, "title": "The Movement of water inside and outside the fascicle = Faszikulare und extrafaszikulare wasserleitung", "work_id": 67420, "role": "production company", "role_id": 941, "is_primary": true}, {"id": 2679883, "title": "Circus in Europe", "work_id": 66120, "role": "production company", "role_id": 941, "is_primary": true}, {"id": 2645191, "title": "Industrial beginnings in West Pakistan", "work_id": 68909, "role": "production company", "role_id": 941, "is_primary": true}, {"id": 2645356, "title": "Kepler and his work", "work_id": 69373, "role": "production company", "role_id": 941, "is_primary": true}, {"id": 2647188, "title": "Man and his world: a Norwegian fjord", "work_id": 75585, "role": "production company", "role_id": 941, "is_primary": true}, {"id": 2714603, "title": "The German sheepdog", "work_id": 68019, "role": "production company", "role_id": 941, "is_primary": true}, {"id": 2647417, "title": "Highland indians of Peru", "work_id": 76254, "role": "production company", "role_id": 941, "is_primary": true}, {"id": 2647655, "title": "Ah...we humans", "work_id": 76937, "role": "production company", "role_id": 941, "is_primary": true}, {"id": 2648145, "title": "Alexander and the car with a missing headlight", "work_id": 78398, "role": "production company", "role_id": 941, "is_primary": true}, {"id": 2768220, "title": "Temperature regulation", "work_id": 73599, "role": "production company", "role_id": 941, "is_primary": true}, {"id": 2753637, "title": "Tropical circulation", "work_id": 98859, "role": "production company", "role_id": 941, "is_primary": true}, {"id": 2748755, "title": "The Bremen town musicians", "work_id": 96443, "role": "production company", "role_id": 941, "is_primary": true}, {"id": 2748869, "title": "A meal at Francis' = Un repas chez Francis", "work_id": 96511, "role": "production company", "role_id": 941, "is_primary": true}, {"id": 2760590, "title": "Kidneys (TEFC)", "work_id": 77136, "role": "production company", "role_id": 941, "is_primary": true}, {"id": 2760591, "title": "Teeth", "work_id": 97237, "role": "production company", "role_id": 941, "is_primary": true}, {"id": 825811, "title": "Bargemen on the Rhine", "work_id": 96043, "role": "production company", "role_id": 941, "is_primary": true}, {"id": 861900, "title": "Cork in Portugal", "work_id": 75869, "role": "production company", "role_id": 941, "is_primary": true}, {"id": 861390, "title": "Romania", "work_id": 75268, "role": "production company", "role_id": 941, "is_primary": true}, {"id": 831589, "title": "The Housefly. - 3rd ed.", "work_id": 98582, "role": "production company", "role_id": 941, "is_primary": true}, {"id": 761437, "title": "Man and his world: oasis in the Sahara", "work_id": 76222, "role": "production company", "role_id": 941, "is_primary": true}, {"id": 747638, "title": "Masai in Tanzania", "work_id": 70176, "role": "production company", "role_id": 941, "is_primary": true}, {"id": 878530, "title": "Over the Andes in Ecuador", "work_id": 91260, "role": "production company", "role_id": 941, "is_primary": true}, {"id": 878783, "title": "Mitosis and mitotic poisons = Mitose und mitosegifte", "work_id": 91382, "role": "production company", "role_id": 941, "is_primary": true}, {"id": 878235, "title": "The Lizard", "work_id": 91161, "role": "production company", "role_id": 941, "is_primary": true}, {"id": 761441, "title": "Ranchero and gauchos in Argentina", "work_id": 76224, "role": "production company", "role_id": 941, "is_primary": true}, {"id": 860953, "title": "Woodpeckers", "work_id": 74860, "role": "production company", "role_id": 941, "is_primary": true}, {"id": 777097, "title": "Mendel: father of genetics", "work_id": 81903, "role": "production company", "role_id": 941, "is_primary": true}, {"id": 748111, "title": "Miners of Bolivia", "work_id": 70404, "role": "production company", "role_id": 941, "is_primary": true}, {"id": 755766, "title": "Man and his world: timber in Finland", "work_id": 73824, "role": "production company", "role_id": 941, "is_primary": true}, {"id": 789938, "title": "The Vikings: seafarers and explorers", "work_id": 85518, "role": "production company", "role_id": 941, "is_primary": true}, {"id": 2195857, "title": "Division of human tumor cells = Teilung von menschlichen tumorzellen", "work_id": 89094, "role": "production company", "role_id": 941, "is_primary": true}, {"id": 876347, "title": "Tokyo industrial worker", "work_id": 90035, "role": "production company", "role_id": 941, "is_primary": true}, {"id": 855914, "title": "A Spider builds his web = Netzbau dev kreuzspinne", "work_id": 70815, "role": "production company", "role_id": 941, "is_primary": true}, {"id": 759025, "title": "Two brothers in Greece", "work_id": 75262, "role": "production company", "role_id": 941, "is_primary": true}, {"id": 856304, "title": "One film, three scripts", "work_id": 71123, "role": "production company", "role_id": 941, "is_primary": true}, {"id": 1903562, "title": "Venezuela", "work_id": 74313, "role": "production company", "role_id": 941, "is_primary": true}, {"id": 855961, "title": "New life for a Spanish farmer", "work_id": 70855, "role": "production company", "role_id": 941, "is_primary": true}, {"id": 758856, "title": "Chicks and chickens", "work_id": 75172, "role": "production company", "role_id": 941, "is_primary": true}, {"id": 752187, "title": "River journey on the Upper Nile", "work_id": 72261, "role": "production company", "role_id": 941, "is_primary": true}, {"id": 825810, "title": "Winemakers in France", "work_id": 96042, "role": "production company", "role_id": 941, "is_primary": true}, {"id": 826668, "title": "Shoemaker and the elves", "work_id": 96444, "role": "production company", "role_id": 941, "is_primary": true}, {"id": 825807, "title": "Dairy farming in the Alps", "work_id": 96040, "role": "production company", "role_id": 941, "is_primary": true}, {"id": 825828, "title": "Silk Moth", "work_id": 96059, "role": "production company", "role_id": 941, "is_primary": true}, {"id": 825827, "title": "Shepherd dog and his flock", "work_id": 96058, "role": "production company", "role_id": 941, "is_primary": true}, {"id": 825826, "title": "See 'n tell: the lizard", "work_id": 96057, "role": "production company", "role_id": 941, "is_primary": true}, {"id": 825825, "title": "Kangaroos", "work_id": 96056, "role": "production company", "role_id": 941, "is_primary": true}, {"id": 760774, "title": "River people of Chad", "work_id": 75955, "role": "production company", "role_id": 941, "is_primary": true}, {"id": 825824, "title": "Carp in a marsh", "work_id": 96055, "role": "production company", "role_id": 941, "is_primary": true}, {"id": 825823, "title": "Butterfly", "work_id": 96054, "role": "production company", "role_id": 941, "is_primary": true}, {"id": 825822, "title": "Blackbird family", "work_id": 96053, "role": "production company", "role_id": 941, "is_primary": true}, {"id": 825820, "title": "Birds on a seashore", "work_id": 96052, "role": "production company", "role_id": 941, "is_primary": true}, {"id": 825819, "title": "Australian animals", "work_id": 96051, "role": "production company", "role_id": 941, "is_primary": true}, {"id": 825818, "title": "African animals", "work_id": 96050, "role": "production company", "role_id": 941, "is_primary": true}, {"id": 825817, "title": "Man and his world: land from the North Sea", "work_id": 96049, "role": "production company", "role_id": 941, "is_primary": true}, {"id": 825816, "title": "Deep sea trawler", "work_id": 96048, "role": "production company", "role_id": 941, "is_primary": true}, {"id": 825815, "title": "Man and his world: Japanese farmers", "work_id": 96047, "role": "production company", "role_id": 941, "is_primary": true}, {"id": 825813, "title": "Oil in Libya", "work_id": 96045, "role": "production company", "role_id": 941, "is_primary": true}, {"id": 825809, "title": "Wool in Australia", "work_id": 96041, "role": "production company", "role_id": 941, "is_primary": true}, {"id": 825812, "title": "Man and his world: man changes the Nile", "work_id": 96044, "role": "production company", "role_id": 941, "is_primary": true}], "also_known_as": "", "date_of_birth": "", "date_of_death": "", "genders": [], "languages": [], "places_of_operation": [], "biography": "", "biography_author": null, "date_of_biography": "2023-05-09T15:16:41.426226+10:00", "external_links": [], "uuid": "ba7c1c0b-44d1-4ff4-865f-8b606724d856", "source": {"name": "Vernon", "slug": "vernon"}, "source_identifier": "4897", "external_references": [], "date_modified": "2025-03-14T18:08:59.504473+11:00"}, {"id": 12967, "name": "University of California, Los Angeles. Motion Picture Division", "roles_in_work": [{"id": 2678227, "title": "The Beckoning sea", "work_id": 65287, "role": "production company", "role_id": 941, "is_primary": true}], "also_known_as": "", "date_of_birth": "", "date_of_death": "", "genders": [], "languages": [], "places_of_operation": [], "biography": "", "biography_author": null, "date_of_biography": "2023-05-09T19:24:25.812992+10:00", "external_links": [], "uuid": "3b8f9449-55d2-41b5-9331-2b1e00d27c54", "source": {"name": "Vernon", "slug": "vernon"}, "source_identifier": "13816", "external_references": [{"id": 33620, "source": {"name": "Wikidata", "slug": "wikidata"}, "source_identifier": "Q121337540"}], "date_modified": "2025-03-06T23:42:30.259289+11:00"}, {"id": 12966, "name": "F.R. Crawley", "roles_in_work": [{"id": 2679158, "title": "Canadian landscape", "work_id": 65762, "role": "director", "role_id": 938, "is_primary": true}, {"id": 747072, "title": "The Loon's necklace", "work_id": 69917, "role": "director", "role_id": 938, "is_primary": true}, {"id": 2645801, "title": "Newfoundland scene: a tale of outport adventure (D)", "work_id": 70884, "role": "director", "role_id": 938, "is_primary": true}, {"id": 1818551, "title": "Power in perpetuity: The Churchill Falls Project", "work_id": 76255, "role": "producer", "role_id": 1089, "is_primary": true}, {"id": 2678226, "title": "Beaver dam", "work_id": 65286, "role": "producer", "role_id": 1089, "is_primary": true}, {"id": 2755164, "title": "Physical aspects of puberty", "work_id": 71533, "role": "producer", "role_id": 1089, "is_primary": true}], "also_known_as": "", "date_of_birth": "14 NOV 1911", "date_of_death": "13 MAY 1987", "genders": [{"id": 9, "name": "Male", "slug": "male"}], "languages": [], "places_of_operation": [{"id": 36, "name": "Canada", "slug": "canada"}], "biography": "Frank Radford \"Budge\" Crawley,  (November 14, 1911 – May 13, 1987) was a Canadian film producer, cinematographer and director. Along with his wife Judith Crawley, he co-founded the production company Crawley Films in 1939.\n\nCrawley is best known for producing the Academy Award-winning documentary The Man Who Skied Down Everest. During his 40-year career, he produced hundreds of films. Film historian Peter Morris described Crawley as \"... the Godfather of Canadian film and Canada's answer to Sam Goldwyn.\" Source: Wikidata; 01/08/2023", "biography_author": null, "date_of_biography": "2025-03-07T00:07:11.785341+11:00", "external_links": [{"id": 3960, "uri": "https://en.wikipedia.org/wiki/F._R._Crawley"}], "uuid": "03ecc3ac-a9f3-4433-9e09-f7cdf0af8f9d", "source": {"name": "Vernon", "slug": "vernon"}, "source_identifier": "18948", "external_references": [{"id": 26483, "source": {"name": "Wikidata", "slug": "wikidata"}, "source_identifier": "Q3062950"}, {"id": 28376, "source": {"name": "VIAF", "slug": "viaf"}, "source_identifier": "42687993"}, {"id": 28377, "source": {"name": "LOC Auth", "slug": "loc-auth"}, "source_identifier": "n97042931"}, {"id": 28378, "source": {"name": "WorldCat", "slug": "worldcat"}, "source_identifier": "lccn-n97042931"}], "date_modified": "2025-03-07T00:07:11.785643+11:00"}, {"id": 12964, "name": "John A. Haeseler", "roles_in_work": [{"id": 874514, "title": "Maine harbour town", "work_id": 88831, "role": "director", "role_id": 938, "is_primary": true}, {"id": 854400, "title": "Life along the waterways", "work_id": 69653, "role": "director", "role_id": 938, "is_primary": true}, {"id": 2678222, "title": "The Beaver", "work_id": 65285, "role": "co-producer", "role_id": 915, "is_primary": true}, {"id": 2679252, "title": "Care of the newborn baby", "work_id": 65815, "role": "producer", "role_id": 1089, "is_primary": true}], "also_known_as": "", "date_of_birth": "", "date_of_death": "", "genders": [], "languages": [], "places_of_operation": [], "biography": "", "biography_author": null, "date_of_biography": "2023-05-09T19:24:25.847984+10:00", "external_links": [], "uuid": "8e091f7b-2b5d-49d6-a6fa-af147426446d", "source": {"name": "Vernon", "slug": "vernon"}, "source_identifier": "22087", "external_references": [{"id": 38567, "source": {"name": "Wikidata", "slug": "wikidata"}, "source_identifier": "Q121091400"}], "date_modified": "2025-03-07T00:10:26.304236+11:00"}, {"id": 12963, "name": "Random Productions", "roles_in_work": [{"id": 2678220, "title": "Beauty in trust", "work_id": 65284, "role": "production company", "role_id": 941, "is_primary": true}, {"id": 857071, "title": "Polyurethane progress", "work_id": 71697, "role": "production company", "role_id": 941, "is_primary": true}], "also_known_as": "", "date_of_birth": "", "date_of_death": "", "genders": [], "languages": [], "places_of_operation": [], "biography": "", "biography_author": null, "date_of_biography": "2023-08-11T14:46:59.053485+10:00", "external_links": [], "uuid": "d981e82f-187a-4d2f-9fac-adcb07512282", "source": {"name": "Vernon", "slug": "vernon"}, "source_identifier": "4958", "external_references": [], "date_modified": "2025-03-06T23:42:25.326777+11:00"}, {"id": 12962, "name": "Matsue Jimbo", "roles_in_work": [{"id": 895818, "title": "The Snow queen", "work_id": 72933, "role": "co-producer", "role_id": 915, "is_primary": true}, {"id": 2678219, "title": "Beauty and the beast", "work_id": 65283, "role": "co-producer", "role_id": 915, "is_primary": true}, {"id": 895659, "title": "The Robot moles", "work_id": 72305, "role": "co-producer", "role_id": 915, "is_primary": true}, {"id": 918377, "title": "The King and the nightingale", "work_id": 96341, "role": "co-producer", "role_id": 915, "is_primary": true}, {"id": 1813485, "title": "The Ugly duckling", "work_id": 74144, "role": "producer", "role_id": 1089, "is_primary": true}], "also_known_as": "", "date_of_birth": null, "date_of_death": null, "genders": [], "languages": [], "places_of_operation": [], "biography": "", "biography_author": null, "date_of_biography": null, "external_links": [], "uuid": "97076516-b18a-4fe9-a5f9-0f88d1067180", "source": {"name": "Vernon", "slug": "vernon"}, "source_identifier": "24781", "external_references": [], "date_modified": "2025-03-06T23:42:24.487551+11:00"}]}