{"count": 28687, "next": "https://api.acmi.net.au/creators/?page=2799", "previous": "https://api.acmi.net.au/creators/?page=2797", "results": [{"id": 9072, "name": "W.H. Shepard", "roles_in_work": [{"id": 2711033, "title": "Young Hands", "work_id": 108998, "role": "director", "role_id": 938, "is_primary": true}], "also_known_as": "", "date_of_birth": "", "date_of_death": "", "genders": [], "languages": [], "places_of_operation": [], "biography": "", "biography_author": null, "date_of_biography": "2023-05-09T17:52:49.461234+10:00", "external_links": [], "uuid": "1cd1bb8f-e8b9-48ed-ab90-41415490ae25", "source": {"name": "Vernon", "slug": "vernon"}, "source_identifier": "1568", "external_references": [{"id": 35577, "source": {"name": "Wikidata", "slug": "wikidata"}, "source_identifier": "Q120358567"}], "date_modified": "2025-03-11T23:45:16.674503+11:00"}, {"id": 9071, "name": "Shannon Owen", "roles_in_work": [{"id": 2619552, "title": "Irati-wanti: the poison leave it", "work_id": 108992, "role": "director", "role_id": 938, "is_primary": true}, {"id": 2619553, "title": "Irati-wanti: the poison leave it", "work_id": 108992, "role": "associate producer", "role_id": 930, "is_primary": false}, {"id": 2619554, "title": "Irati-wanti: the poison leave it", "work_id": 108992, "role": "writer", "role_id": 939, "is_primary": true}], "also_known_as": "", "date_of_birth": null, "date_of_death": null, "genders": [], "languages": [], "places_of_operation": [], "biography": "", "biography_author": null, "date_of_biography": null, "external_links": [], "uuid": "abe3f25b-a817-4bb1-87e8-43b437d6e640", "source": {"name": "Vernon", "slug": "vernon"}, "source_identifier": "112315", "external_references": [], "date_modified": "2025-02-26T23:15:46.578462+11:00"}, {"id": 9069, "name": "Stewart Lodge", "roles_in_work": [{"id": 2619549, "title": "Juggling the elements", "work_id": 114124, "role": "writer", "role_id": 939, "is_primary": true}], "also_known_as": "", "date_of_birth": "", "date_of_death": "", "genders": [], "languages": [], "places_of_operation": [], "biography": "", "biography_author": null, "date_of_biography": "2023-05-09T13:51:43.819595+10:00", "external_links": [], "uuid": "7c42396b-44d2-438e-8513-524bd6e66a8b", "source": {"name": "Vernon", "slug": "vernon"}, "source_identifier": "1168", "external_references": [{"id": 33789, "source": {"name": "Wikidata", "slug": "wikidata"}, "source_identifier": "Q121143673"}], "date_modified": "2025-02-26T23:15:43.204030+11:00"}, {"id": 9068, "name": "Tracey Power", "roles_in_work": [{"id": 2619548, "title": "Juggling the elements", "work_id": 114124, "role": "writer", "role_id": 939, "is_primary": true}], "also_known_as": "", "date_of_birth": "", "date_of_death": "", "genders": [], "languages": [], "places_of_operation": [], "biography": "", "biography_author": null, "date_of_biography": "2023-05-09T13:51:43.585430+10:00", "external_links": [], "uuid": "3b08f5c2-a852-4af3-9f1e-7b217ff6c72e", "source": {"name": "Vernon", "slug": "vernon"}, "source_identifier": "1167", "external_references": [{"id": 40554, "source": {"name": "Wikidata", "slug": "wikidata"}, "source_identifier": "Q121079452"}], "date_modified": "2025-02-26T23:15:42.607845+11:00"}, {"id": 9067, "name": "Katrina Sawyer", "roles_in_work": [{"id": 2711541, "title": "Neighbours (the remix) - Katrina Sawyer (Decent, generous, tolerant, open minded [white] people)", "work_id": 109249, "role": "director", "role_id": 938, "is_primary": true}, {"id": 3085613, "title": "Kim and Harley and the kids", "work_id": 94046, "role": "director", "role_id": 938, "is_primary": true}, {"id": 2619546, "title": "Juggling the elements", "work_id": 114124, "role": "director", "role_id": 938, "is_primary": true}, {"id": 2711540, "title": "Neighbours (the remix) - Katrina Sawyer (Decent, generous, tolerant, open minded [white] people)", "work_id": 109249, "role": "creator", "role_id": 968, "is_primary": true}, {"id": 2619547, "title": "Juggling the elements", "work_id": 114124, "role": "writer", "role_id": 939, "is_primary": true}], "also_known_as": "", "date_of_birth": "", "date_of_death": "", "genders": [], "languages": [], "places_of_operation": [], "biography": "", "biography_author": null, "date_of_biography": "2023-08-14T10:06:00.107971+10:00", "external_links": [], "uuid": "bfde3f2f-7e7b-4615-be46-f7bdde73cfb5", "source": {"name": "Vernon", "slug": "vernon"}, "source_identifier": "111985", "external_references": [{"id": 42862, "source": {"name": "Wikidata", "slug": "wikidata"}, "source_identifier": "Q121034336"}], "date_modified": "2025-03-17T10:40:45.354650+11:00"}, {"id": 9066, "name": "Victorian College of the Arts, School of Film and Television", "roles_in_work": [{"id": 908027, "title": "Rise", "work_id": 88427, "role": "co-producer", "role_id": 915, "is_primary": true}, {"id": 2619551, "title": "Irati-wanti: the poison leave it", "work_id": 108992, "role": "executive producer", "role_id": 916, "is_primary": false}, {"id": 2285501, "title": "What's wrong with this picture?", "work_id": 92312, "role": "producer", "role_id": 1089, "is_primary": true}, {"id": 2711026, "title": "The Nature of paradise", "work_id": 108993, "role": "producer", "role_id": 1089, "is_primary": true}, {"id": 2619545, "title": "Juggling the elements", "work_id": 114124, "role": "producer", "role_id": 1089, "is_primary": true}, {"id": 810486, "title": "Magnetism", "work_id": 92196, "role": "production company", "role_id": 941, "is_primary": true}, {"id": 2521576, "title": "Like drowning", "work_id": 92280, "role": "production company", "role_id": 941, "is_primary": true}, {"id": 2508668, "title": "Drat", "work_id": 92073, "role": "production company", "role_id": 941, "is_primary": true}, {"id": 2640382, "title": "Security", "work_id": 110406, "role": "production company", "role_id": 941, "is_primary": true}, {"id": 2640390, "title": "Not really morning people", "work_id": 110407, "role": "production company", "role_id": 941, "is_primary": true}, {"id": 2640469, "title": "A Short portrait of obsession", "work_id": 110410, "role": "production company", "role_id": 941, "is_primary": true}, {"id": 2643610, "title": "A Short portrait of Dennis Spiteri", "work_id": 111235, "role": "production company", "role_id": 941, "is_primary": true}, {"id": 810211, "title": "Forget me not", "work_id": 92089, "role": "production company", "role_id": 941, "is_primary": true}, {"id": 809890, "title": "The Buzz of rock and roll", "work_id": 92006, "role": "production company", "role_id": 941, "is_primary": true}, {"id": 810182, "title": "Duplex", "work_id": 92082, "role": "production company", "role_id": 941, "is_primary": true}, {"id": 810137, "title": "Felidae", "work_id": 92070, "role": "production company", "role_id": 941, "is_primary": true}, {"id": 810574, "title": "The Nightlight", "work_id": 92221, "role": "production company", "role_id": 941, "is_primary": true}, {"id": 2711355, "title": "Shocked", "work_id": 109160, "role": "production company", "role_id": 941, "is_primary": true}, {"id": 2137649, "title": "Christmas presence", "work_id": 92009, "role": "production company", "role_id": 941, "is_primary": true}, {"id": 872222, "title": "Conversation in the garden", "work_id": 87512, "role": "production company", "role_id": 941, "is_primary": true}, {"id": 2340416, "title": "The Contract", "work_id": 92010, "role": "production company", "role_id": 941, "is_primary": true}, {"id": 799160, "title": "Spider", "work_id": 88233, "role": "production company", "role_id": 941, "is_primary": true}, {"id": 879813, "title": "The Desert fox", "work_id": 92077, "role": "production company", "role_id": 941, "is_primary": true}, {"id": 879809, "title": "Defrost", "work_id": 92076, "role": "production company", "role_id": 941, "is_primary": true}, {"id": 2293931, "title": "Without a sound", "work_id": 91958, "role": "production company", "role_id": 941, "is_primary": true}, {"id": 880199, "title": "My family: July 20th 1969", "work_id": 92277, "role": "production company", "role_id": 941, "is_primary": true}, {"id": 2099025, "title": "Arctic adventure", "work_id": 93037, "role": "production company", "role_id": 941, "is_primary": true}, {"id": 908025, "title": "Rise", "work_id": 88427, "role": "production company", "role_id": 941, "is_primary": true}, {"id": 795589, "title": "Buckstop", "work_id": 87240, "role": "production company", "role_id": 941, "is_primary": true}, {"id": 880266, "title": "The Drive home", "work_id": 92314, "role": "production company", "role_id": 941, "is_primary": true}, {"id": 801527, "title": "Naked intent", "work_id": 89041, "role": "production company", "role_id": 941, "is_primary": true}, {"id": 2240969, "title": "Fine time Lucy", "work_id": 88228, "role": "production company", "role_id": 941, "is_primary": true}, {"id": 879708, "title": "Deep shit", "work_id": 92016, "role": "production company", "role_id": 941, "is_primary": true}, {"id": 792200, "title": "Titsiana Booberini", "work_id": 86149, "role": "production company", "role_id": 941, "is_primary": true}, {"id": 789017, "title": "Happy little Vegemites = Cheap rush", "work_id": 85272, "role": "production company", "role_id": 941, "is_primary": true}, {"id": 784074, "title": "Black dogs", "work_id": 83978, "role": "production company", "role_id": 941, "is_primary": true}, {"id": 1932436, "title": "The Nature of paradise", "work_id": 94339, "role": "production company", "role_id": 941, "is_primary": true}, {"id": 795609, "title": "The Bridge", "work_id": 87245, "role": "production company", "role_id": 941, "is_primary": true}, {"id": 795616, "title": "Tangerine dream", "work_id": 87247, "role": "production company", "role_id": 941, "is_primary": true}, {"id": 879727, "title": "As it was", "work_id": 92030, "role": "production company", "role_id": 941, "is_primary": true}, {"id": 2300311, "title": "Silent Number", "work_id": 92095, "role": "production company", "role_id": 941, "is_primary": true}, {"id": 911274, "title": "As if", "work_id": 92029, "role": "production company", "role_id": 941, "is_primary": true}, {"id": 873508, "title": "Risk", "work_id": 88242, "role": "production company", "role_id": 941, "is_primary": true}, {"id": 912580, "title": "Out of darkness", "work_id": 92833, "role": "production company", "role_id": 941, "is_primary": true}, {"id": 2290051, "title": "What goes around comes around", "work_id": 88234, "role": "production company", "role_id": 941, "is_primary": true}, {"id": 810316, "title": "This marching girl thing", "work_id": 92136, "role": "production company", "role_id": 941, "is_primary": true}, {"id": 810779, "title": "The Other days of Ruby Rae", "work_id": 92275, "role": "production company", "role_id": 941, "is_primary": true}, {"id": 810249, "title": "Two pots, a caffe latte, a scotch and dry, a vodka lime and lemon, and a small antipasto with 5 forks", "work_id": 92097, "role": "production company", "role_id": 941, "is_primary": true}, {"id": 803497, "title": "Wednesdays [Widescreen]", "work_id": 89708, "role": "production company", "role_id": 941, "is_primary": true}, {"id": 810071, "title": "Harry the human fly", "work_id": 92051, "role": "production company", "role_id": 941, "is_primary": true}, {"id": 810074, "title": "Kitty Spit", "work_id": 92052, "role": "production company", "role_id": 941, "is_primary": true}, {"id": 2643275, "title": "Toil and trouble", "work_id": 111119, "role": "production facilities", "role_id": 442, "is_primary": false}, {"id": 2643270, "title": "A Life in the day of a cycle courier", "work_id": 111118, "role": "production facilities", "role_id": 442, "is_primary": false}], "also_known_as": "", "date_of_birth": "", "date_of_death": "", "genders": [], "languages": [], "places_of_operation": [], "biography": "", "biography_author": null, "date_of_biography": "2023-05-09T19:38:44.238456+10:00", "external_links": [], "uuid": "914ee308-1591-472d-bbd1-6a356c04b420", "source": {"name": "Vernon", "slug": "vernon"}, "source_identifier": "111984", "external_references": [], "date_modified": "2025-03-11T23:50:32.660862+11:00"}, {"id": 9065, "name": "Margaret Lacey", "roles_in_work": [{"id": 1818836, "title": "Parents of gays", "work_id": 77861, "role": "producer", "role_id": 1089, "is_primary": true}, {"id": 2711022, "title": "Parents of gays", "work_id": 114128, "role": "producer", "role_id": 1089, "is_primary": true}], "also_known_as": "", "date_of_birth": null, "date_of_death": null, "genders": [], "languages": [], "places_of_operation": [], "biography": "", "biography_author": null, "date_of_biography": null, "external_links": [], "uuid": "db78e030-9fa8-4dc2-8ee4-e3cd87ad5a26", "source": {"name": "Vernon", "slug": "vernon"}, "source_identifier": "1567", "external_references": [], "date_modified": "2025-03-11T23:44:51.172108+11:00"}, {"id": 9064, "name": "Helen Eisler", "roles_in_work": [{"id": 2711020, "title": "Access Video 1973-1982", "work_id": 114119, "role": "producer", "role_id": 1089, "is_primary": true}, {"id": 2720060, "title": "Access Video 1973-1982", "work_id": 120320, "role": "producer", "role_id": 1089, "is_primary": true}], "also_known_as": "", "date_of_birth": null, "date_of_death": null, "genders": [], "languages": [], "places_of_operation": [], "biography": "", "biography_author": null, "date_of_biography": null, "external_links": [], "uuid": "0e390a86-9e61-4ea0-8853-d30c1eb90a85", "source": {"name": "Vernon", "slug": "vernon"}, "source_identifier": "1395", "external_references": [], "date_modified": "2025-03-12T07:07:57.362363+11:00"}, {"id": 9061, "name": "Tony Wright", "roles_in_work": [{"id": 903414, "title": "Before death us do part: a do-it-yourself guide to divorce", "work_id": 84507, "role": "director", "role_id": 938, "is_primary": true}, {"id": 809784, "title": "What's so funny?", "work_id": 91954, "role": "director", "role_id": 938, "is_primary": true}, {"id": 767475, "title": "The Real Aussie video", "work_id": 78562, "role": "director", "role_id": 938, "is_primary": true}, {"id": 865256, "title": "Empty Land-New Life", "work_id": 78881, "role": "director", "role_id": 938, "is_primary": true}, {"id": 2711001, "title": "Fair go!", "work_id": 108973, "role": "director", "role_id": 938, "is_primary": true}, {"id": 2648088, "title": "Turning 18", "work_id": 78267, "role": "director", "role_id": 938, "is_primary": true}, {"id": 767587, "title": "Contract with debt", "work_id": 78607, "role": "director", "role_id": 938, "is_primary": true}, {"id": 3082195, "title": "Grey voyagers", "work_id": 115557, "role": "co-producer", "role_id": 915, "is_primary": true}, {"id": 907112, "title": "A Shared table with Stephanie Alexander", "work_id": 87723, "role": "co-producer", "role_id": 915, "is_primary": true}, {"id": 2207462, "title": "Plasmo", "work_id": 86719, "role": "co-producer", "role_id": 915, "is_primary": true}, {"id": 3082158, "title": "Mavis goes to Timor", "work_id": 92446, "role": "co-producer", "role_id": 915, "is_primary": true}, {"id": 3082165, "title": "Born to ride", "work_id": 92447, "role": "co-producer", "role_id": 915, "is_primary": true}, {"id": 3082171, "title": "Father's footsteps", "work_id": 92448, "role": "co-producer", "role_id": 915, "is_primary": true}, {"id": 3082177, "title": "Flying Dutchmen", "work_id": 92449, "role": "co-producer", "role_id": 915, "is_primary": true}, {"id": 3082182, "title": "Cyber sisters", "work_id": 92450, "role": "co-producer", "role_id": 915, "is_primary": true}, {"id": 3082188, "title": "Iranian nights", "work_id": 92451, "role": "co-producer", "role_id": 915, "is_primary": true}, {"id": 909299, "title": "Auto stories", "work_id": 89808, "role": "co-producer", "role_id": 915, "is_primary": true}, {"id": 1805496, "title": "Putting out the garbage", "work_id": 81069, "role": "producer", "role_id": 1089, "is_primary": true}, {"id": 2327969, "title": "The Art of drowning", "work_id": 83786, "role": "producer", "role_id": 1089, "is_primary": true}, {"id": 2774566, "title": "Cos school sucks, Miss", "work_id": 82195, "role": "producer/director", "role_id": 31, "is_primary": true}], "also_known_as": "", "date_of_birth": "", "date_of_death": "", "genders": [], "languages": [], "places_of_operation": [], "biography": "", "biography_author": null, "date_of_biography": "2023-05-09T19:29:08.067441+10:00", "external_links": [], "uuid": "aa6534c0-50a3-4868-b758-7854328800ce", "source": {"name": "Vernon", "slug": "vernon"}, "source_identifier": "1630", "external_references": [{"id": 39139, "source": {"name": "Wikidata", "slug": "wikidata"}, "source_identifier": "Q121034630"}], "date_modified": "2025-03-17T10:27:52.396336+11:00"}, {"id": 9059, "name": "Penny Robbins", "roles_in_work": [{"id": 2710999, "title": "Fair go!", "work_id": 108973, "role": "producer", "role_id": 1089, "is_primary": true}], "also_known_as": "", "date_of_birth": "", "date_of_death": "", "genders": [], "languages": [], "places_of_operation": [], "biography": "", "biography_author": null, "date_of_biography": "2023-05-09T16:25:49.111083+10:00", "external_links": [], "uuid": "15b23a3e-2a46-41a0-9e2a-6938278b8235", "source": {"name": "Vernon", "slug": "vernon"}, "source_identifier": "1629", "external_references": [{"id": 37295, "source": {"name": "Wikidata", "slug": "wikidata"}, "source_identifier": "Q121034608"}], "date_modified": "2025-03-11T23:44:26.760907+11:00"}]}