{"count": 28687, "next": "https://api.acmi.net.au/creators/?page=2094", "previous": "https://api.acmi.net.au/creators/?page=2092", "results": [{"id": 20673, "name": "Brad Smart", "roles_in_work": [{"id": 2752807, "title": "Riverboat heritage", "work_id": 98468, "role": "co-producer", "role_id": 915, "is_primary": true}, {"id": 1809082, "title": "Northern wildlife", "work_id": 86584, "role": "producer", "role_id": 1089, "is_primary": true}, {"id": 1809108, "title": "A Link with our past", "work_id": 86588, "role": "producer", "role_id": 1089, "is_primary": true}, {"id": 864047, "title": "Evacuation", "work_id": 77691, "role": "producer/director", "role_id": 31, "is_primary": true}], "also_known_as": "", "date_of_birth": "", "date_of_death": "", "genders": [], "languages": [], "places_of_operation": [], "biography": "", "biography_author": null, "date_of_biography": "2023-08-14T10:32:07.739480+10:00", "external_links": [], "uuid": "709be00f-39ec-4fd6-9d5e-cfe3376972d8", "source": {"name": "Vernon", "slug": "vernon"}, "source_identifier": "16158", "external_references": [], "date_modified": "2025-03-13T01:12:21.909646+11:00"}, {"id": 20669, "name": "Green Mountain Post Films", "roles_in_work": [{"id": 2406587, "title": "Ecocide: A strategy of war", "work_id": 77689, "role": "production company", "role_id": 941, "is_primary": true}], "also_known_as": "", "date_of_birth": "", "date_of_death": "", "genders": [], "languages": [], "places_of_operation": [], "biography": "", "biography_author": null, "date_of_biography": "2023-08-11T16:17:20.634050+10:00", "external_links": [], "uuid": "19c6e5e6-cc10-4a6b-8df8-aa4030d2f68b", "source": {"name": "Vernon", "slug": "vernon"}, "source_identifier": "8884", "external_references": [], "date_modified": "2023-08-11T16:17:20.634310+10:00"}, {"id": 20668, "name": "Paul Quigley", "roles_in_work": [{"id": 2770172, "title": "Kurtis: Hollywood stuntboy", "work_id": 77687, "role": "co-director", "role_id": 959, "is_primary": true}, {"id": 2770170, "title": "Kurtis: Hollywood stuntboy", "work_id": 77687, "role": "producer", "role_id": 1089, "is_primary": true}, {"id": 2770208, "title": "Yohannes the silversmith (Ethiopia)", "work_id": 98259, "role": "producer", "role_id": 1089, "is_primary": true}], "also_known_as": "", "date_of_birth": null, "date_of_death": null, "genders": [], "languages": [], "places_of_operation": [], "biography": "", "biography_author": null, "date_of_biography": null, "external_links": [], "uuid": "3fbcd600-73bc-4921-9cdd-22e90db69df4", "source": {"name": "Vernon", "slug": "vernon"}, "source_identifier": "26311", "external_references": [], "date_modified": "2025-03-14T18:17:46.668092+11:00"}, {"id": 20667, "name": "Herbert Long", "roles_in_work": [{"id": 2466274, "title": "Stress and you: relaxation techniques (TEFC)", "work_id": 77769, "role": "director", "role_id": 938, "is_primary": true}, {"id": 2466270, "title": "Stress and you: learning to cope (TEFC)", "work_id": 77685, "role": "director", "role_id": 938, "is_primary": true}, {"id": 2466288, "title": "Stress, health and you (TEFC)", "work_id": 77688, "role": "director", "role_id": 938, "is_primary": true}], "also_known_as": "", "date_of_birth": "", "date_of_death": "", "genders": [], "languages": [], "places_of_operation": [], "biography": "", "biography_author": null, "date_of_biography": "2023-08-14T10:53:53.638432+10:00", "external_links": [], "uuid": "237c0413-1c44-48f8-b03d-7f7f87fb5c54", "source": {"name": "Vernon", "slug": "vernon"}, "source_identifier": "20521", "external_references": [], "date_modified": "2023-08-14T10:53:53.638809+10:00"}, {"id": 20666, "name": "Neil Mawby Productions", "roles_in_work": [{"id": 2466287, "title": "Stress, health and you (TEFC)", "work_id": 77688, "role": "production company", "role_id": 941, "is_primary": true}, {"id": 2466273, "title": "Stress and you: relaxation techniques (TEFC)", "work_id": 77769, "role": "production company", "role_id": 941, "is_primary": true}, {"id": 2466269, "title": "Stress and you: learning to cope (TEFC)", "work_id": 77685, "role": "production company", "role_id": 941, "is_primary": true}], "also_known_as": "", "date_of_birth": "", "date_of_death": "", "genders": [], "languages": [], "places_of_operation": [], "biography": "", "biography_author": null, "date_of_biography": "2023-08-14T10:53:53.019326+10:00", "external_links": [], "uuid": "c6c7ddbf-beb5-4e5b-a2f1-c1d3e57ea8b8", "source": {"name": "Vernon", "slug": "vernon"}, "source_identifier": "10867", "external_references": [], "date_modified": "2023-08-14T10:53:53.019617+10:00"}, {"id": 20661, "name": "Stichting Derde Cinema", "roles_in_work": [{"id": 2234120, "title": "Quest for power", "work_id": 77681, "role": "production company", "role_id": 941, "is_primary": true}], "also_known_as": "", "date_of_birth": "", "date_of_death": "", "genders": [], "languages": [], "places_of_operation": [], "biography": "", "biography_author": null, "date_of_biography": "2023-05-09T16:43:03.842731+10:00", "external_links": [], "uuid": "1bbb2f5b-38cc-4af1-8879-13f17c83addf", "source": {"name": "Vernon", "slug": "vernon"}, "source_identifier": "12958", "external_references": [{"id": 37371, "source": {"name": "Wikidata", "slug": "wikidata"}, "source_identifier": "Q121337676"}], "date_modified": "2023-09-06T01:32:42.604039+10:00"}, {"id": 20658, "name": "Nola Marshall", "roles_in_work": [{"id": 2647876, "title": "The Sink", "work_id": 77678, "role": "director", "role_id": 938, "is_primary": true}], "also_known_as": "", "date_of_birth": "", "date_of_death": "", "genders": [], "languages": [], "places_of_operation": [], "biography": "", "biography_author": null, "date_of_biography": "2023-08-14T11:34:14.887094+10:00", "external_links": [], "uuid": "4da7c22e-22a1-4279-950b-1733e6a30517", "source": {"name": "Vernon", "slug": "vernon"}, "source_identifier": "25856", "external_references": [], "date_modified": "2025-03-05T13:35:30.754222+11:00"}, {"id": 20657, "name": "Susumu Hani", "roles_in_work": [{"id": 864020, "title": "Prophecy", "work_id": 77677, "role": "director", "role_id": 938, "is_primary": true}], "also_known_as": "", "date_of_birth": "1928-10-10", "date_of_death": null, "genders": [{"id": 9, "name": "Male", "slug": "male"}], "languages": [{"id": 2, "name": "Japanese", "slug": "japanese"}], "places_of_operation": [{"id": 8, "name": "Japan", "slug": "japan"}], "biography": "Susumu Hani (羽仁 進, Hani Susumu, born 10 October 1928) is a Japanese film director, and one of the most prominent representatives of the 1960s Japanese New Wave. Born in Tokyo, he has directed both documentaries and feature films.\nHe won the Directors Guild of Japan New Directors Award for his first fiction film, Bad Boys, in 1961. His 1962 film Mitasareta seikatsu was entered into the 12th Berlin International Film Festival. His 1963 documentary film Children Hand in Hand was entered into the 4th Moscow International Film Festival winning him a Special Diploma.One of his most famous films is Nanami: The Inferno of First Love (初恋・地獄篇 - Hatsukoi Jigokuhen, 1968), which Hani co-scripted with Shūji Terayama.", "biography_author": "Wikidata", "date_of_biography": "2023-08-01T17:13:50.579680+10:00", "external_links": [{"id": 5231, "uri": "https://en.wikipedia.org/wiki/Susumu_Hani"}], "uuid": "ed398a8f-6098-40f9-ae96-3275c5834ec6", "source": {"name": "Vernon", "slug": "vernon"}, "source_identifier": "29379", "external_references": [{"id": 25312, "source": {"name": "Wikidata", "slug": "wikidata"}, "source_identifier": "Q350739"}, {"id": 31706, "source": {"name": "VIAF", "slug": "viaf"}, "source_identifier": "109004071"}, {"id": 31707, "source": {"name": "LOC Auth", "slug": "loc-auth"}, "source_identifier": "n83231162"}, {"id": 31708, "source": {"name": "WorldCat", "slug": "worldcat"}, "source_identifier": "lccn-n83231162"}], "date_modified": "2023-09-13T12:32:54.920464+10:00"}, {"id": 20654, "name": "CBS News Productions", "roles_in_work": [{"id": 2647875, "title": "Delayed parenthood: pros and cons", "work_id": 77676, "role": "production company", "role_id": 941, "is_primary": true}], "also_known_as": "", "date_of_birth": "", "date_of_death": "", "genders": [], "languages": [], "places_of_operation": [], "biography": "", "biography_author": null, "date_of_biography": "2023-08-11T16:02:51.177543+10:00", "external_links": [], "uuid": "54e0dcb2-2668-4461-b4a8-daeb3f819db2", "source": {"name": "Vernon", "slug": "vernon"}, "source_identifier": "6372", "external_references": [], "date_modified": "2025-03-05T13:35:29.848640+11:00"}, {"id": 20651, "name": "Elaine Sperber", "roles_in_work": [{"id": 2793358, "title": "Someone's in the kitchen with Jamie", "work_id": 89358, "role": "producer", "role_id": 1089, "is_primary": true}, {"id": 2751102, "title": "Overture: Linh from Vietnam", "work_id": 97656, "role": "producer", "role_id": 1089, "is_primary": true}, {"id": 1818688, "title": "The Invisible boy", "work_id": 77672, "role": "producer", "role_id": 1089, "is_primary": true}, {"id": 1818689, "title": "The Chaparral prince", "work_id": 77673, "role": "producer", "role_id": 1089, "is_primary": true}], "also_known_as": "", "date_of_birth": null, "date_of_death": null, "genders": [], "languages": [], "places_of_operation": [], "biography": "", "biography_author": null, "date_of_biography": null, "external_links": [], "uuid": "afe4d927-3a2a-4a8f-b26b-2009be8bf1e7", "source": {"name": "Vernon", "slug": "vernon"}, "source_identifier": "18659", "external_references": [], "date_modified": "2025-03-13T00:36:35.650781+11:00"}]}