{"count": 28687, "next": "https://api.acmi.net.au/creators/?page=2522", "previous": "https://api.acmi.net.au/creators/?page=2520", "results": [{"id": 13637, "name": "Patricia Ludford", "roles_in_work": [{"id": 2680138, "title": "The Colonial chair", "work_id": 66232, "role": "director", "role_id": 938, "is_primary": true}, {"id": 2679453, "title": "A Century or the sack", "work_id": 65910, "role": "director", "role_id": 938, "is_primary": true}], "also_known_as": "", "date_of_birth": "", "date_of_death": "", "genders": [], "languages": [], "places_of_operation": [], "biography": "", "biography_author": null, "date_of_biography": "2023-08-14T11:07:45.997834+10:00", "external_links": [], "uuid": "6e2f85f6-e471-4dc9-8fee-c1da85e217f6", "source": {"name": "Vernon", "slug": "vernon"}, "source_identifier": "26110", "external_references": [], "date_modified": "2025-03-07T00:27:26.099006+11:00"}, {"id": 13635, "name": "Government of Victoria", "roles_in_work": [{"id": 2679449, "title": "A Century of responsible government", "work_id": 65909, "role": "production company", "role_id": 941, "is_primary": true}, {"id": 2065778, "title": "A century of responsible government [DVD]", "work_id": 95261, "role": "production company", "role_id": 941, "is_primary": true}, {"id": 872560, "title": "Easygoing: transport services for people with special needs", "work_id": 87706, "role": "production company", "role_id": 941, "is_primary": true}], "also_known_as": "", "date_of_birth": "", "date_of_death": "", "genders": [], "languages": [], "places_of_operation": [], "biography": "", "biography_author": null, "date_of_biography": "2023-05-09T11:22:57.209615+10:00", "external_links": [], "uuid": "76771cea-adf9-4d12-8939-d3077f29ed94", "source": {"name": "Vernon", "slug": "vernon"}, "source_identifier": "8827", "external_references": [{"id": 34755, "source": {"name": "Wikidata", "slug": "wikidata"}, "source_identifier": "Q121271170"}], "date_modified": "2025-03-07T00:12:50.511822+11:00"}, {"id": 13632, "name": "Keith Wood", "roles_in_work": [{"id": 2679440, "title": "Centralia", "work_id": 65906, "role": "director", "role_id": 938, "is_primary": true}], "also_known_as": "", "date_of_birth": "", "date_of_death": "", "genders": [], "languages": [], "places_of_operation": [], "biography": "", "biography_author": null, "date_of_biography": "2023-05-09T13:25:54.357534+10:00", "external_links": [], "uuid": "0a8d241d-8a65-41d1-8606-08a64f6c9147", "source": {"name": "Vernon", "slug": "vernon"}, "source_identifier": "23127", "external_references": [{"id": 41249, "source": {"name": "Wikidata", "slug": "wikidata"}, "source_identifier": "Q121035648"}], "date_modified": "2025-03-07T00:12:44.251079+11:00"}, {"id": 13631, "name": "Lemwood Productions", "roles_in_work": [{"id": 2679439, "title": "Centralia", "work_id": 65906, "role": "production company", "role_id": 941, "is_primary": true}], "also_known_as": "", "date_of_birth": "", "date_of_death": "", "genders": [], "languages": [], "places_of_operation": [], "biography": "", "biography_author": null, "date_of_biography": "2023-05-09T13:25:54.115226+10:00", "external_links": [], "uuid": "ceb8c8a8-2594-4fc9-b208-0aaacfc29e1d", "source": {"name": "Vernon", "slug": "vernon"}, "source_identifier": "9973", "external_references": [{"id": 39527, "source": {"name": "Wikidata", "slug": "wikidata"}, "source_identifier": "Q121036017"}], "date_modified": "2025-03-07T00:12:43.657945+11:00"}, {"id": 13630, "name": "Allen Downs", "roles_in_work": [{"id": 859159, "title": "Symmetries of the cube (TEFC)", "work_id": 73428, "role": "director", "role_id": 938, "is_primary": true}, {"id": 2679438, "title": "Central similarities (TEFC)", "work_id": 65905, "role": "co-director", "role_id": 959, "is_primary": true}, {"id": 2646080, "title": "Projective generation of conics (TEFC)", "work_id": 71911, "role": "co-director", "role_id": 959, "is_primary": true}, {"id": 2647032, "title": "Orthogonal projection (TEFC)", "work_id": 75129, "role": "co-producers/directors", "role_id": 628, "is_primary": true}], "also_known_as": "", "date_of_birth": "", "date_of_death": "", "genders": [], "languages": [], "places_of_operation": [], "biography": "", "biography_author": null, "date_of_biography": "2023-05-09T16:37:56.175647+10:00", "external_links": [], "uuid": "0bac50b8-5f84-4fc9-b477-498368de3dbf", "source": {"name": "Vernon", "slug": "vernon"}, "source_identifier": "15025", "external_references": [{"id": 39743, "source": {"name": "Wikidata", "slug": "wikidata"}, "source_identifier": "Q121034396"}], "date_modified": "2025-03-07T00:12:42.747891+11:00"}, {"id": 13629, "name": "Jay Hines", "roles_in_work": [{"id": 2231730, "title": "Inversion (TEFC)", "work_id": 75688, "role": "director", "role_id": 938, "is_primary": true}, {"id": 2679437, "title": "Central similarities (TEFC)", "work_id": 65905, "role": "co-director", "role_id": 959, "is_primary": true}, {"id": 2647035, "title": "Orthogonal projection (TEFC)", "work_id": 75129, "role": "co-producers/directors", "role_id": 628, "is_primary": true}], "also_known_as": "", "date_of_birth": "", "date_of_death": "", "genders": [], "languages": [], "places_of_operation": [], "biography": "", "biography_author": null, "date_of_biography": "2023-05-09T16:38:01.805598+10:00", "external_links": [], "uuid": "73daab0d-96fb-485c-a939-624be3a6c17c", "source": {"name": "Vernon", "slug": "vernon"}, "source_identifier": "21503", "external_references": [{"id": 41869, "source": {"name": "Wikidata", "slug": "wikidata"}, "source_identifier": "Q121299268"}], "date_modified": "2025-03-07T00:12:42.120658+11:00"}, {"id": 13628, "name": "Art Landy", "roles_in_work": [{"id": 2679435, "title": "Central perspectives (TEFC)", "work_id": 65904, "role": "director", "role_id": 938, "is_primary": true}, {"id": 2712105, "title": "Dihedral kaleidoscopes (TEFC)", "work_id": 66782, "role": "director", "role_id": 938, "is_primary": true}, {"id": 2647033, "title": "Orthogonal projection (TEFC)", "work_id": 75129, "role": "co-producers/directors", "role_id": 628, "is_primary": true}], "also_known_as": "", "date_of_birth": "", "date_of_death": "", "genders": [], "languages": [], "places_of_operation": [], "biography": "", "biography_author": null, "date_of_biography": "2023-05-09T16:37:56.400928+10:00", "external_links": [], "uuid": "5a453f98-9436-4d09-bddf-f3e4f9938c1e", "source": {"name": "Vernon", "slug": "vernon"}, "source_identifier": "15501", "external_references": [{"id": 40731, "source": {"name": "Wikidata", "slug": "wikidata"}, "source_identifier": "Q121144009"}], "date_modified": "2025-03-12T00:10:46.046844+11:00"}, {"id": 13627, "name": "Brian Harvey", "roles_in_work": [{"id": 899403, "title": "Garden Australia", "work_id": 80051, "role": "co-producer", "role_id": 915, "is_primary": true}, {"id": 2679432, "title": "The Centenary test", "work_id": 65900, "role": "producer", "role_id": 1089, "is_primary": true}], "also_known_as": "", "date_of_birth": "", "date_of_death": "", "genders": [], "languages": [], "places_of_operation": [], "biography": "", "biography_author": null, "date_of_biography": "2023-08-14T11:06:42.375818+10:00", "external_links": [], "uuid": "c2882356-1e6b-4be1-a20f-52851ae02661", "source": {"name": "Vernon", "slug": "vernon"}, "source_identifier": "16222", "external_references": [], "date_modified": "2025-03-07T00:12:38.363032+11:00"}, {"id": 13623, "name": "Anvil Film and Recording Group", "roles_in_work": [{"id": 2769420, "title": "The Guitar", "work_id": 68256, "role": "production company", "role_id": 941, "is_primary": true}, {"id": 861707, "title": "Twelfth night: an introduction", "work_id": 75728, "role": "production company", "role_id": 941, "is_primary": true}, {"id": 2769528, "title": "Derek Wickens: the oboe", "work_id": 76529, "role": "production company", "role_id": 941, "is_primary": true}, {"id": 859264, "title": "Taming of the shrew: an introduction", "work_id": 73498, "role": "production company", "role_id": 941, "is_primary": true}, {"id": 2769497, "title": "The Trombone", "work_id": 74021, "role": "production company", "role_id": 941, "is_primary": true}, {"id": 2769380, "title": "Paul Tortelier: the cello. Part 1", "work_id": 65896, "role": "production company", "role_id": 941, "is_primary": true}, {"id": 2769387, "title": "Paul Tortelier: the cello. Part 2", "work_id": 65897, "role": "production company", "role_id": 941, "is_primary": true}], "also_known_as": "", "date_of_birth": "", "date_of_death": "", "genders": [], "languages": [], "places_of_operation": [], "biography": "", "biography_author": null, "date_of_biography": "2023-05-09T20:04:05.240752+10:00", "external_links": [], "uuid": "3fd0baf1-cb4e-4901-bb29-b6510d388f4a", "source": {"name": "Vernon", "slug": "vernon"}, "source_identifier": "13339", "external_references": [{"id": 36355, "source": {"name": "Wikidata", "slug": "wikidata"}, "source_identifier": "Q121159925"}], "date_modified": "2025-03-14T18:14:56.844322+11:00"}, {"id": 13622, "name": "Jim Stephenson", "roles_in_work": [{"id": 2679416, "title": "The Cell", "work_id": 65895, "role": "producer", "role_id": 1089, "is_primary": true}], "also_known_as": "", "date_of_birth": null, "date_of_death": null, "genders": [], "languages": [], "places_of_operation": [], "biography": "", "biography_author": null, "date_of_biography": null, "external_links": [], "uuid": "b25e6dea-8349-416e-beb7-88135963d635", "source": {"name": "Vernon", "slug": "vernon"}, "source_identifier": "21920", "external_references": [], "date_modified": "2025-03-07T00:12:27.433268+11:00"}]}