{"count": 28687, "next": "https://api.acmi.net.au/creators/?page=2026", "previous": "https://api.acmi.net.au/creators/?page=2024", "results": [{"id": 22064, "name": "Elijah Moshinsky", "roles_in_work": [{"id": 794127, "title": "Hansel and Gretel by Engelbert Humperdinck", "work_id": 86809, "role": "director", "role_id": 938, "is_primary": true}, {"id": 2648590, "title": "Peter Grimes", "work_id": 79605, "role": "producer", "role_id": 1089, "is_primary": true}, {"id": 2261591, "title": "Samson et Dalila", "work_id": 95418, "role": "producer", "role_id": 1089, "is_primary": true}], "also_known_as": "", "date_of_birth": "1946-01-08", "date_of_death": "2021-01-14", "genders": [{"id": 9, "name": "Male", "slug": "male"}], "languages": [{"id": 1, "name": "English", "slug": "english"}], "places_of_operation": [{"id": 3, "name": "Australia", "slug": "australia"}], "biography": "Elijah Moshinsky (8 January 1946 – 14 January 2021) was an Australian opera director, theatre director and television director who worked for the Royal Opera House, the Metropolitan Opera, the Royal National Theatre, and BBC Television, among other organisations.", "biography_author": "Wikidata", "date_of_biography": "2023-09-05T19:29:00.762295+10:00", "external_links": [{"id": 5791, "uri": "https://en.wikipedia.org/wiki/Elijah_Moshinsky"}], "uuid": "81bf63a8-98cb-4ef5-a2e6-7b4b58e71384", "source": {"name": "Vernon", "slug": "vernon"}, "source_identifier": "18684", "external_references": [{"id": 51397, "source": {"name": "Wikidata", "slug": "wikidata"}, "source_identifier": "Q3050992"}, {"id": 54364, "source": {"name": "VIAF", "slug": "viaf"}, "source_identifier": "79171037"}, {"id": 54365, "source": {"name": "LOC Auth", "slug": "loc-auth"}, "source_identifier": "no95042039"}, {"id": 54366, "source": {"name": "WorldCat", "slug": "worldcat"}, "source_identifier": "lccn-no95042039"}], "date_modified": "2025-03-05T13:47:27.226230+11:00"}, {"id": 22063, "name": "Covent Garden Video Productions", "roles_in_work": [{"id": 2753645, "title": "Falstaff", "work_id": 98863, "role": "production company", "role_id": 941, "is_primary": true}, {"id": 2198419, "title": "Don Carlo", "work_id": 84064, "role": "production company", "role_id": 941, "is_primary": true}, {"id": 2351060, "title": "The Girl of the golden west = La Fanciulla del west", "work_id": 95392, "role": "production company", "role_id": 941, "is_primary": true}, {"id": 885681, "title": "Manon Lescaut", "work_id": 95417, "role": "production company", "role_id": 941, "is_primary": true}, {"id": 2261589, "title": "Samson et Dalila", "work_id": 95418, "role": "production company", "role_id": 941, "is_primary": true}, {"id": 884130, "title": "Manon: a ballet by Kenneth MacMillan", "work_id": 94467, "role": "production company", "role_id": 941, "is_primary": true}, {"id": 884085, "title": "La Boheme", "work_id": 94455, "role": "production company", "role_id": 941, "is_primary": true}, {"id": 884153, "title": "La Fille mal gardee", "work_id": 94472, "role": "production company", "role_id": 941, "is_primary": true}, {"id": 2648589, "title": "Peter Grimes", "work_id": 79605, "role": "production company", "role_id": 941, "is_primary": true}], "also_known_as": "", "date_of_birth": "", "date_of_death": "", "genders": [], "languages": [], "places_of_operation": [], "biography": "", "biography_author": null, "date_of_biography": "2023-05-09T19:56:08.861315+10:00", "external_links": [], "uuid": "4a6a74fa-a547-46b1-8edc-30b4ffbf9314", "source": {"name": "Vernon", "slug": "vernon"}, "source_identifier": "7126", "external_references": [{"id": 33275, "source": {"name": "Wikidata", "slug": "wikidata"}, "source_identifier": "Q121315576"}], "date_modified": "2025-03-13T01:30:19.084020+11:00"}, {"id": 22062, "name": "TVS", "roles_in_work": [{"id": 1845693, "title": "The Barber of Seville = Il Barbiere di Siviglia", "work_id": 79604, "role": "production company", "role_id": 941, "is_primary": true}, {"id": 2790903, "title": "The Legacy of Greece", "work_id": 84611, "role": "production company", "role_id": 941, "is_primary": true}, {"id": 2790909, "title": "Imperial stone: the art of Rome", "work_id": 84612, "role": "production company", "role_id": 941, "is_primary": true}, {"id": 791111, "title": "Mandela", "work_id": 85835, "role": "production company", "role_id": 941, "is_primary": true}, {"id": 2178708, "title": "Orfeo and Euridice", "work_id": 95424, "role": "production company", "role_id": 941, "is_primary": true}], "also_known_as": "", "date_of_birth": "", "date_of_death": "", "genders": [], "languages": [], "places_of_operation": [], "biography": "", "biography_author": null, "date_of_biography": "2023-05-09T19:37:21.698412+10:00", "external_links": [], "uuid": "8708a643-6bf3-4414-a984-ca10a02db558", "source": {"name": "Vernon", "slug": "vernon"}, "source_identifier": "13773", "external_references": [{"id": 42346, "source": {"name": "Wikidata", "slug": "wikidata"}, "source_identifier": "Q121091080"}], "date_modified": "2025-03-14T20:01:16.756073+11:00"}, {"id": 22059, "name": "Tian Zhuangzhuang", "roles_in_work": [{"id": 2651116, "title": "Gushu artist: the artist of folk art = Gu shu yi ren", "work_id": 115803, "role": "director", "role_id": 938, "is_primary": true}, {"id": 1984239, "title": "The Horse thief", "work_id": 79596, "role": "director", "role_id": 938, "is_primary": true}, {"id": 2308249, "title": "Springtime in a small town = Xiao cheng zhi chun", "work_id": 95149, "role": "director", "role_id": 938, "is_primary": true}, {"id": 2615493, "title": "The Blue kite", "work_id": 85580, "role": "director", "role_id": 938, "is_primary": true}, {"id": 2651117, "title": "Gushu artist: the artist of folk art = Gu shu yi ren", "work_id": 115803, "role": "script", "role_id": 962, "is_primary": false}], "also_known_as": "", "date_of_birth": "1952-04-23", "date_of_death": null, "genders": [{"id": 9, "name": "Male", "slug": "male"}], "languages": [{"id": 80, "name": "Standard Mandarin", "slug": "standard-mandarin"}], "places_of_operation": [{"id": 290, "name": "People's Republic of China", "slug": "peoples-republic-of-china"}], "biography": "Tian Zhuangzhuang (Chinese: 田壮壮; born April 1952 in Beijing) is a Chinese film director, producer and actor.\nTian was born to an influential actor and actress in China. Following a short stint in the military, Tian began his artistic career first as an amateur photographer and then as an assistant cinematographer at the Beijing Agricultural Film Studio. In 1978, he was accepted to the Beijing Film Academy, from which he graduated in 1982, together with classmates Chen Kaige and Zhang Yimou. The class of 1982 collectively would soon gain fame as the so-called  Fifth Generation film movement, with Tian Zhuangzhuang as one of the movement's key figures.Tian's early career was marked both with avant-garde documentary infused films (On the Hunting Ground (1985), The Horse Thief (1986)) to more commercial fare (Li Lianying: The Imperial Eunuch (1991)). In 1991, Tian began work on a quiet epic about one of modern China's darkest moments.  This film, The Blue Kite (1993), would eventually result in Tian's nearly decade long exile from the film industry, an exile he returned from with Springtime in a Small Town (2001). Throughout the 2000s, Tian Zhuangzhuang returned to the fore of Chinese cinema, directing films like the biopic The Go Master (2006) and the historical action film The Warrior and the Wolf (2009). Since his banning after the release of The Blue Kite, Tian has also emerged as a mentor for some of China's newest film talents, and he has helped produce several important films for these new generations of directors.", "biography_author": "Wikidata", "date_of_biography": "2022-05-19T13:14:11.336452+10:00", "external_links": [{"id": 3200, "uri": "https://en.wikipedia.org/wiki/Tian_Zhuangzhuang"}], "uuid": "152dc3be-d9c4-4494-b8ea-b0028932a93d", "source": {"name": "Vernon", "slug": "vernon"}, "source_identifier": "29716", "external_references": [{"id": 13558, "source": {"name": "Wikidata", "slug": "wikidata"}, "source_identifier": "Q532645"}, {"id": 13559, "source": {"name": "VIAF", "slug": "viaf"}, "source_identifier": "74060119"}, {"id": 13560, "source": {"name": "LOC Auth", "slug": "loc-auth"}, "source_identifier": "nr97014305"}, {"id": 13561, "source": {"name": "WorldCat", "slug": "worldcat"}, "source_identifier": "lccn-nr97014305"}], "date_modified": "2025-03-05T14:26:39.237745+11:00"}, {"id": 22058, "name": "Xi'an Film Studio", "roles_in_work": [{"id": 2651202, "title": "Life = Ren Sheng", "work_id": 115811, "role": "production company", "role_id": 941, "is_primary": true}, {"id": 2650892, "title": "The Poetess Li Qing-Zhao = Li Qing Zhao", "work_id": 115776, "role": "production company", "role_id": 941, "is_primary": true}, {"id": 2650698, "title": "Tales of the Silk Road = Si Lu Hua Yu", "work_id": 115756, "role": "production company", "role_id": 941, "is_primary": true}, {"id": 2650588, "title": "The Ballad of the Yellow River = Huang He Yao", "work_id": 115744, "role": "production company", "role_id": 941, "is_primary": true}, {"id": 1984238, "title": "The Horse thief", "work_id": 79596, "role": "production company", "role_id": 941, "is_primary": true}, {"id": 2648817, "title": "King of the children = Hai tzu wang", "work_id": 80099, "role": "production company", "role_id": 941, "is_primary": true}, {"id": 814122, "title": "The River without buoys = Yu Hang piao ti ho liao [NTSC]", "work_id": 93084, "role": "production company", "role_id": 941, "is_primary": true}, {"id": 883424, "title": "Shower = Xizhao", "work_id": 93722, "role": "production company", "role_id": 941, "is_primary": true}, {"id": 2234594, "title": "Raftsmen = Fazi ke", "work_id": 115848, "role": "production company", "role_id": 941, "is_primary": true}, {"id": 2650959, "title": "A Winding mountain path = Shan dao wan wan", "work_id": 115783, "role": "production company", "role_id": 941, "is_primary": true}], "also_known_as": "", "date_of_birth": "", "date_of_death": "", "genders": [], "languages": [], "places_of_operation": [], "biography": "", "biography_author": null, "date_of_biography": "2023-05-09T19:23:27.249345+10:00", "external_links": [], "uuid": "b1010045-4320-49a0-9645-3784c72628a0", "source": {"name": "Vernon", "slug": "vernon"}, "source_identifier": "3890", "external_references": [], "date_modified": "2025-03-05T14:27:32.102668+11:00"}, {"id": 22055, "name": "Pat Murphy", "roles_in_work": [{"id": 2097548, "title": "Anne Devlin", "work_id": 79586, "role": "director", "role_id": 938, "is_primary": true}, {"id": 2174278, "title": "Nora", "work_id": 92752, "role": "director", "role_id": 938, "is_primary": true}, {"id": 2097543, "title": "Anne Devlin", "work_id": 79586, "role": "co-producer", "role_id": 915, "is_primary": true}], "also_known_as": "", "date_of_birth": null, "date_of_death": null, "genders": [{"id": 5, "name": "Female", "slug": "female"}], "languages": [], "places_of_operation": [{"id": 294, "name": "Republic of Ireland", "slug": "republic-of-ireland"}], "biography": "Pat Murphy (born 1951) is an Irish feminist filmmaker and lecturer, the director of Maeve (1982), Anne Devlin (1984) and Nora (2000).", "biography_author": "Wikidata", "date_of_biography": "2022-05-19T12:38:16.128621+10:00", "external_links": [{"id": 2813, "uri": "https://en.wikipedia.org/wiki/Pat_Murphy_(director)"}], "uuid": "b9d7c176-3a81-4e98-bce9-5ab46a189d32", "source": {"name": "Vernon", "slug": "vernon"}, "source_identifier": "26080", "external_references": [{"id": 11985, "source": {"name": "Wikidata", "slug": "wikidata"}, "source_identifier": "Q7143820"}, {"id": 11986, "source": {"name": "VIAF", "slug": "viaf"}, "source_identifier": "45207653"}, {"id": 11987, "source": {"name": "LOC Auth", "slug": "loc-auth"}, "source_identifier": "n86110516"}, {"id": 11988, "source": {"name": "WorldCat", "slug": "worldcat"}, "source_identifier": "lccn-n86110516"}], "date_modified": "2023-09-13T12:31:43.486293+10:00"}, {"id": 22054, "name": "Irish Film Board", "roles_in_work": [{"id": 928840, "title": "If I should fall from grace: the Shane MacGowan story", "work_id": 94286, "role": "production company", "role_id": 941, "is_primary": true}, {"id": 2097301, "title": "Anne Devlin", "work_id": 79586, "role": "production company", "role_id": 941, "is_primary": true}, {"id": 2660555, "title": "Here to Fall", "work_id": 117406, "role": "production company", "role_id": 941, "is_primary": true}], "also_known_as": "", "date_of_birth": "", "date_of_death": "", "genders": [], "languages": [], "places_of_operation": [], "biography": "", "biography_author": null, "date_of_biography": "2023-05-09T12:25:51.649540+10:00", "external_links": [], "uuid": "b3afc404-e86f-400c-974e-030238651913", "source": {"name": "Vernon", "slug": "vernon"}, "source_identifier": "9437", "external_references": [{"id": 32755, "source": {"name": "Wikidata", "slug": "wikidata"}, "source_identifier": "Q121299245"}], "date_modified": "2025-03-05T19:56:43.791533+11:00"}, {"id": 22053, "name": "Bord Scannan na Heireann", "roles_in_work": [{"id": 2097296, "title": "Anne Devlin", "work_id": 79586, "role": "production company", "role_id": 941, "is_primary": true}], "also_known_as": "", "date_of_birth": "1980", "date_of_death": "", "genders": [], "languages": [], "places_of_operation": [], "biography": "", "biography_author": null, "date_of_biography": "2023-05-09T12:25:51.378156+10:00", "external_links": [], "uuid": "622b8423-bab1-4ff8-8159-a6af86b8b13e", "source": {"name": "Vernon", "slug": "vernon"}, "source_identifier": "16134", "external_references": [{"id": 33079, "source": {"name": "Wikidata", "slug": "wikidata"}, "source_identifier": "Q121057801"}], "date_modified": "2023-09-05T18:08:35.227094+10:00"}, {"id": 22052, "name": "Aeon Films", "roles_in_work": [{"id": 2097289, "title": "Anne Devlin", "work_id": 79586, "role": "production company", "role_id": 941, "is_primary": true}], "also_known_as": "", "date_of_birth": "", "date_of_death": "", "genders": [], "languages": [], "places_of_operation": [], "biography": "", "biography_author": null, "date_of_biography": "2023-05-09T12:25:51.119940+10:00", "external_links": [], "uuid": "cb7f7946-ee87-4472-b8cd-6eaa4184a5d6", "source": {"name": "Vernon", "slug": "vernon"}, "source_identifier": "5044", "external_references": [{"id": 35755, "source": {"name": "Wikidata", "slug": "wikidata"}, "source_identifier": "Q121299221"}], "date_modified": "2023-09-05T17:17:17.601953+10:00"}, {"id": 22049, "name": "Michael Dickinson", "roles_in_work": [{"id": 899018, "title": "Lawson's Australia", "work_id": 79572, "role": "director", "role_id": 938, "is_primary": true}, {"id": 2614432, "title": "Tommy", "work_id": 83654, "role": "director", "role_id": 938, "is_primary": true}, {"id": 2202091, "title": "Phar Lap: the people's champion [DVD]", "work_id": 91708, "role": "co-director", "role_id": 959, "is_primary": true}, {"id": 899801, "title": "Lawson's Australia (Captioned)", "work_id": 80640, "role": "director", "role_id": 938, "is_primary": true}], "also_known_as": "", "date_of_birth": "", "date_of_death": "", "genders": [], "languages": [], "places_of_operation": [], "biography": "", "biography_author": null, "date_of_biography": "2023-05-09T18:09:43.714780+10:00", "external_links": [], "uuid": "6d439b0d-bde3-4594-9677-d728dcc2082d", "source": {"name": "Vernon", "slug": "vernon"}, "source_identifier": "25046", "external_references": [], "date_modified": "2025-02-26T20:10:46.525754+11:00"}]}