{"count": 28681, "next": "https://api.acmi.net.au/creators/?page=354", "previous": "https://api.acmi.net.au/creators/?page=352", "results": [{"id": 82073, "name": "Nexus Productions", "roles_in_work": [{"id": 2411494, "title": "In the air is Christopher Gray", "work_id": 114402, "role": "production company", "role_id": 941, "is_primary": true}], "also_known_as": "", "date_of_birth": "", "date_of_death": "", "genders": [], "languages": [], "places_of_operation": [], "biography": "", "biography_author": null, "date_of_biography": "2023-08-11T18:21:42.006316+10:00", "external_links": [], "uuid": "ec51ecd9-7346-47a1-8ebb-c1795c618b0d", "source": {"name": "Vernon", "slug": "vernon"}, "source_identifier": "37925", "external_references": [{"id": 39844, "source": {"name": "Wikidata", "slug": "wikidata"}, "source_identifier": "Q121036015"}], "date_modified": "2023-09-05T23:28:47.856415+10:00"}, {"id": 82072, "name": "Chris Landreth", "roles_in_work": [{"id": 2316633, "title": "Subconscious Password", "work_id": 114401, "role": "creator", "role_id": 968, "is_primary": true}], "also_known_as": "", "date_of_birth": "1961-08-04", "date_of_death": "", "genders": [{"id": 9, "name": "Male", "slug": "male"}], "languages": [], "places_of_operation": [{"id": 1, "name": "United States of America", "slug": "united-states-of-america"}], "biography": "Chris Landreth (born August 4, 1961) is an American animator working in Canada, best known for his work on the 2004 film Ryan. He has made many CGI animated films since the mid-1990s, including The End, Bingo, The Listener, Caustic Sky: A Portrait of Regional Acid Deposition, and Data Driven The Story Of Franz K.\n\n", "biography_author": "Wikidata", "date_of_biography": "2023-08-01T14:25:07.558541+10:00", "external_links": [{"id": 3755, "uri": "https://en.wikipedia.org/wiki/Chris_Landreth"}], "uuid": "88ee8e6c-f9a6-4d6a-ba92-fcf3d2be4b94", "source": {"name": "Vernon", "slug": "vernon"}, "source_identifier": "37904", "external_references": [{"id": 26356, "source": {"name": "Wikidata", "slug": "wikidata"}, "source_identifier": "Q329073"}, {"id": 27801, "source": {"name": "VIAF", "slug": "viaf"}, "source_identifier": "46515503"}, {"id": 27802, "source": {"name": "LOC Auth", "slug": "loc-auth"}, "source_identifier": "no2006053593"}, {"id": 27803, "source": {"name": "WorldCat", "slug": "worldcat"}, "source_identifier": "lccn-no2006053593"}], "date_modified": "2023-09-05T18:32:29.732777+10:00"}, {"id": 82071, "name": "Seneca College Animation Arts Centre", "roles_in_work": [{"id": 2316627, "title": "Subconscious Password", "work_id": 114401, "role": "production company", "role_id": 941, "is_primary": true}], "also_known_as": "", "date_of_birth": "", "date_of_death": "", "genders": [], "languages": [], "places_of_operation": [], "biography": "", "biography_author": null, "date_of_biography": "2023-05-09T19:05:27.701657+10:00", "external_links": [], "uuid": "56644eb7-03a9-469f-b8a5-cfbe472a13cc", "source": {"name": "Vernon", "slug": "vernon"}, "source_identifier": "37931", "external_references": [{"id": 35295, "source": {"name": "Wikidata", "slug": "wikidata"}, "source_identifier": "Q121143925"}], "date_modified": "2023-09-06T01:10:34.159563+10:00"}, {"id": 82070, "name": "Copperheart Entertainment", "roles_in_work": [{"id": 2316625, "title": "Subconscious Password", "work_id": 114401, "role": "production company", "role_id": 941, "is_primary": true}], "also_known_as": "", "date_of_birth": "", "date_of_death": "", "genders": [], "languages": [], "places_of_operation": [], "biography": "", "biography_author": null, "date_of_biography": "2023-05-09T19:05:27.462600+10:00", "external_links": [], "uuid": "a257e816-f61b-4799-ad76-0a21d7f01084", "source": {"name": "Vernon", "slug": "vernon"}, "source_identifier": "37930", "external_references": [{"id": 43487, "source": {"name": "Wikidata", "slug": "wikidata"}, "source_identifier": "Q121086116"}], "date_modified": "2023-09-05T18:45:19.627363+10:00"}, {"id": 82069, "name": "Ainslie Henderson", "roles_in_work": [{"id": 2411240, "title": "I am Tom Moody", "work_id": 114400, "role": "creator", "role_id": 968, "is_primary": true}, {"id": 2660588, "title": "The Making of Longbird", "work_id": 117410, "role": "screenwriter", "role_id": 601, "is_primary": false}], "also_known_as": "", "date_of_birth": "", "date_of_death": "", "genders": [], "languages": [], "places_of_operation": [], "biography": "", "biography_author": null, "date_of_biography": "2023-08-11T18:16:03.928341+10:00", "external_links": [], "uuid": "5a5af4bc-cb66-4760-b55f-13f86bc4b4da", "source": {"name": "Vernon", "slug": "vernon"}, "source_identifier": "37147", "external_references": [], "date_modified": "2025-03-05T19:57:04.505033+11:00"}, {"id": 82068, "name": "Magnus Kravik", "roles_in_work": [{"id": 2409714, "title": "Holy She*p", "work_id": 114399, "role": "director", "role_id": 938, "is_primary": true}, {"id": 2409715, "title": "Holy She*p", "work_id": 114399, "role": "writer", "role_id": 939, "is_primary": true}], "also_known_as": "", "date_of_birth": "", "date_of_death": "", "genders": [], "languages": [], "places_of_operation": [], "biography": "", "biography_author": null, "date_of_biography": "2023-08-11T17:27:47.883716+10:00", "external_links": [], "uuid": "76348ff9-081d-41b2-9c98-2b3b2a624742", "source": {"name": "Vernon", "slug": "vernon"}, "source_identifier": "37922", "external_references": [{"id": 37709, "source": {"name": "Wikidata", "slug": "wikidata"}, "source_identifier": "Q121035969"}], "date_modified": "2023-09-05T22:36:51.733489+10:00"}, {"id": 82067, "name": "Katerina Pantela", "roles_in_work": [{"id": 2409712, "title": "Holy She*p", "work_id": 114399, "role": "director", "role_id": 938, "is_primary": true}, {"id": 2409713, "title": "Holy She*p", "work_id": 114399, "role": "writer", "role_id": 939, "is_primary": true}], "also_known_as": "", "date_of_birth": "", "date_of_death": "", "genders": [], "languages": [], "places_of_operation": [], "biography": "", "biography_author": null, "date_of_biography": "2023-08-11T17:27:46.595657+10:00", "external_links": [], "uuid": "ea77bbca-d66e-4d41-b065-ab7a0278477b", "source": {"name": "Vernon", "slug": "vernon"}, "source_identifier": "37921", "external_references": [{"id": 37315, "source": {"name": "Wikidata", "slug": "wikidata"}, "source_identifier": "Q121143849"}], "date_modified": "2023-09-05T22:01:44.458283+10:00"}, {"id": 82066, "name": "Arts University Bournemouth", "roles_in_work": [{"id": 2409711, "title": "Holy She*p", "work_id": 114399, "role": "production company", "role_id": 941, "is_primary": true}], "also_known_as": "", "date_of_birth": "", "date_of_death": "", "genders": [], "languages": [], "places_of_operation": [], "biography": "", "biography_author": null, "date_of_biography": "2023-08-11T17:27:45.320725+10:00", "external_links": [], "uuid": "ceea48a5-c4fc-4fd3-a3ca-c92edf66af02", "source": {"name": "Vernon", "slug": "vernon"}, "source_identifier": "37923", "external_references": [{"id": 36523, "source": {"name": "Wikidata", "slug": "wikidata"}, "source_identifier": "Q121143739"}], "date_modified": "2023-09-05T17:48:02.928072+10:00"}, {"id": 82065, "name": "Darren Ng", "roles_in_work": [{"id": 2205867, "title": "Pifuskin", "work_id": 114398, "role": "music", "role_id": 949, "is_primary": false}], "also_known_as": "", "date_of_birth": "", "date_of_death": "", "genders": [], "languages": [], "places_of_operation": [], "biography": "", "biography_author": null, "date_of_biography": "2023-05-09T15:35:12.373256+10:00", "external_links": [], "uuid": "1c4be09d-10ee-4fb2-8b57-796fced57f06", "source": {"name": "Vernon", "slug": "vernon"}, "source_identifier": "37927", "external_references": [{"id": 51242, "source": {"name": "Wikidata", "slug": "wikidata"}, "source_identifier": "Q121360596"}], "date_modified": "2023-09-05T18:53:41.621652+10:00"}, {"id": 82064, "name": "Loo Zihan", "roles_in_work": [{"id": 2205864, "title": "Pifuskin", "work_id": 114398, "role": "editor", "role_id": 918, "is_primary": true}], "also_known_as": "", "date_of_birth": "", "date_of_death": "", "genders": [], "languages": [], "places_of_operation": [], "biography": "", "biography_author": null, "date_of_biography": "2023-05-09T15:35:12.126165+10:00", "external_links": [], "uuid": "feec843c-7c9a-448d-8c2d-806c6d0a93aa", "source": {"name": "Vernon", "slug": "vernon"}, "source_identifier": "37926", "external_references": [], "date_modified": "2023-06-14T16:33:30.576250+10:00"}]}