{"count": 28687, "next": "https://api.acmi.net.au/creators/?page=430", "previous": "https://api.acmi.net.au/creators/?page=428", "results": [{"id": 81293, "name": "Rob Wright", "roles_in_work": [{"id": 2196417, "title": "Do they know it's Christmas?", "work_id": 95272, "role": "co-director", "role_id": 959, "is_primary": true}], "also_known_as": "", "date_of_birth": "", "date_of_death": "", "genders": [], "languages": [], "places_of_operation": [], "biography": "", "biography_author": null, "date_of_biography": "2023-05-09T15:17:41.272117+10:00", "external_links": [], "uuid": "dd1013ef-aa65-471d-82a3-a76a756db1f4", "source": {"name": "Vernon", "slug": "vernon"}, "source_identifier": "27617", "external_references": [{"id": 41118, "source": {"name": "Wikidata", "slug": "wikidata"}, "source_identifier": "Q121079407"}], "date_modified": "2023-09-06T00:38:07.304842+10:00"}, {"id": 81292, "name": "Dave Bridges", "roles_in_work": [{"id": 2196415, "title": "Do they know it's Christmas?", "work_id": 95272, "role": "co-director", "role_id": 959, "is_primary": true}], "also_known_as": "", "date_of_birth": "", "date_of_death": "", "genders": [], "languages": [], "places_of_operation": [], "biography": "", "biography_author": null, "date_of_biography": "2023-05-09T15:17:41.023147+10:00", "external_links": [], "uuid": "81b96928-6011-4dc1-b000-502cbcde8c26", "source": {"name": "Vernon", "slug": "vernon"}, "source_identifier": "17461", "external_references": [{"id": 35759, "source": {"name": "Wikidata", "slug": "wikidata"}, "source_identifier": "Q121299287"}], "date_modified": "2023-09-05T18:53:48.244051+10:00"}, {"id": 81291, "name": "Stuart Gillard", "roles_in_work": [{"id": 2252364, "title": "Rocket man = Rocketman", "work_id": 95268, "role": "director", "role_id": 938, "is_primary": true}], "also_known_as": "", "date_of_birth": "1950-04-28", "date_of_death": "", "genders": [{"id": 9, "name": "Male", "slug": "male"}], "languages": [{"id": 1, "name": "English", "slug": "english"}], "places_of_operation": [{"id": 36, "name": "Canada", "slug": "canada"}], "biography": "Stuart Thomas Gillard (born April 28, 1950) is a Canadian film, writer, producer and television director. He is best known for directing the films Teenage Mutant Ninja Turtles III (1993) and RocketMan (1997). He also wrote and directed the romance film Paradise in 1982, his directing debut.\nAs a television director, Gillard's credits include Bordertown, The Outer Limits, the original Charmed and its reboot series, One Tree Hill and 90210. He has also directed numerous television films, many for ABC Family and Disney Channel such as Girl vs. Monster and Twitches.As an actor, Gillard won the Canadian Film Award for Best Actor in 1975 for his performance as a journalist in the film Why Rock the Boat?, and appeared in the 1970s sitcom Excuse My French.", "biography_author": "Wikidata", "date_of_biography": "2023-08-01T17:12:14.799326+10:00", "external_links": [{"id": 5217, "uri": "https://en.wikipedia.org/wiki/Stuart_Gillard"}], "uuid": "69a9fb4d-7a94-4b47-a13e-69e57b33f59e", "source": {"name": "Vernon", "slug": "vernon"}, "source_identifier": "29254", "external_references": [{"id": 25574, "source": {"name": "Wikidata", "slug": "wikidata"}, "source_identifier": "Q278713"}, {"id": 31667, "source": {"name": "VIAF", "slug": "viaf"}, "source_identifier": "90804048"}, {"id": 31668, "source": {"name": "LOC Auth", "slug": "loc-auth"}, "source_identifier": "no2006000091"}, {"id": 31669, "source": {"name": "WorldCat", "slug": "worldcat"}, "source_identifier": "lccn-no2006000091"}], "date_modified": "2023-09-06T01:33:56.974329+10:00"}, {"id": 81290, "name": "Walter Murch", "roles_in_work": [{"id": 2249826, "title": "Return to Oz", "work_id": 95267, "role": "director", "role_id": 938, "is_primary": true}], "also_known_as": "", "date_of_birth": "1943-07-12", "date_of_death": "", "genders": [{"id": 9, "name": "Male", "slug": "male"}], "languages": [{"id": 1, "name": "English", "slug": "english"}], "places_of_operation": [{"id": 1, "name": "United States of America", "slug": "united-states-of-america"}], "biography": "Walter Scott Murch (born July 12, 1943) is an American film editor, director, writer and sound designer. With a career stretching back to 1969, including work on THX 1138, Apocalypse Now, The Godfather I, II, and III, American Graffiti, The Conversation, Ghost and The English Patient, with three Academy Award wins (from nine nominations: six for picture editing and three for sound mixing).For his work on Apocalypse Now, Murch was the first person to receive a credit as \"Sound Designer.\" Murch was also involved with the editing of Apocalypse Now Redux. In 1998, producer Rick Schmidlin chose Murch as his editor for the restoration of Orson Welles's Touch of Evil. Murch is the author of a popular book on film editing, In the Blink of an Eye, and is the subject of Michael Ondaatje's book The Conversations. Roger Ebert called Murch \"the most respected film editor and sound designer in the modern cinema.\" David Thomson calls Murch \"the scholar, gentleman and superb craftsman of modern film\", adding that in sound and editing, \"he is now without a peer.\"", "biography_author": "Wikidata", "date_of_biography": "2023-08-01T17:24:49.797386+10:00", "external_links": [{"id": 3271, "uri": "https://en.wikipedia.org/wiki/Walter_Murch"}], "uuid": "eae7ccb8-fb43-486b-904b-c6b38d442c8b", "source": {"name": "Vernon", "slug": "vernon"}, "source_identifier": "30250", "external_references": [{"id": 13840, "source": {"name": "Wikidata", "slug": "wikidata"}, "source_identifier": "Q1394956"}, {"id": 13841, "source": {"name": "VIAF", "slug": "viaf"}, "source_identifier": "13237273"}, {"id": 13842, "source": {"name": "LOC Auth", "slug": "loc-auth"}, "source_identifier": "no92017670"}, {"id": 13843, "source": {"name": "WorldCat", "slug": "worldcat"}, "source_identifier": "lccn-no92017670"}], "date_modified": "2023-09-06T02:10:38.563510+10:00"}, {"id": 81289, "name": "Tom Dey", "roles_in_work": [{"id": 2296795, "title": "Shanghai noon", "work_id": 95266, "role": "director", "role_id": 938, "is_primary": true}], "also_known_as": "", "date_of_birth": "1965-04-14", "date_of_death": "", "genders": [{"id": 9, "name": "Male", "slug": "male"}], "languages": [], "places_of_operation": [{"id": 1, "name": "United States of America", "slug": "united-states-of-america"}], "biography": "Thomas Ridgeway Dey (born April 14, 1965) is an American film director, screenwriter, and producer. His credits include Shanghai Noon, Showtime, Failure to Launch, and Marmaduke.", "biography_author": "Wikidata", "date_of_biography": "2023-08-01T17:19:29.667890+10:00", "external_links": [{"id": 3215, "uri": "https://en.wikipedia.org/wiki/Tom_Dey"}], "uuid": "c7f6951d-4ba2-4644-ba05-d8b11e51e2ce", "source": {"name": "Vernon", "slug": "vernon"}, "source_identifier": "29827", "external_references": [{"id": 13616, "source": {"name": "Wikidata", "slug": "wikidata"}, "source_identifier": "Q1852104"}, {"id": 13617, "source": {"name": "VIAF", "slug": "viaf"}, "source_identifier": "42046700"}, {"id": 13618, "source": {"name": "LOC Auth", "slug": "loc-auth"}, "source_identifier": "no2002009382"}, {"id": 13619, "source": {"name": "WorldCat", "slug": "worldcat"}, "source_identifier": "lccn-no2002009382"}], "date_modified": "2023-09-06T01:53:04.716554+10:00"}, {"id": 81288, "name": "Jonathan Glickman", "roles_in_work": [{"id": 2296791, "title": "Shanghai noon", "work_id": 95266, "role": "co-producer", "role_id": 915, "is_primary": true}], "also_known_as": "", "date_of_birth": "", "date_of_death": "", "genders": [], "languages": [], "places_of_operation": [], "biography": "", "biography_author": null, "date_of_biography": "2023-05-09T18:28:58.842492+10:00", "external_links": [], "uuid": "27e37bdf-d651-47ae-b72c-872b463b131b", "source": {"name": "Vernon", "slug": "vernon"}, "source_identifier": "22648", "external_references": [{"id": 34676, "source": {"name": "Wikidata", "slug": "wikidata"}, "source_identifier": "Q121315089"}], "date_modified": "2023-09-05T21:48:26.408080+10:00"}, {"id": 81287, "name": "Barry Krost", "roles_in_work": [{"id": 917740, "title": "Tina: what's love got to do with it", "work_id": 95265, "role": "co-producer", "role_id": 915, "is_primary": true}], "also_known_as": "", "date_of_birth": null, "date_of_death": null, "genders": [], "languages": [], "places_of_operation": [], "biography": "", "biography_author": null, "date_of_biography": null, "external_links": [], "uuid": "ba3ecbfe-1e2d-445f-a468-d833808454f0", "source": {"name": "Vernon", "slug": "vernon"}, "source_identifier": null, "external_references": [{"id": 38300, "source": {"name": "Wikidata", "slug": "wikidata"}, "source_identifier": "Q121079022"}], "date_modified": "2023-09-05T17:55:07.160310+10:00"}, {"id": 81286, "name": "Doug Chapin", "roles_in_work": [{"id": 917739, "title": "Tina: what's love got to do with it", "work_id": 95265, "role": "co-producer", "role_id": 915, "is_primary": true}], "also_known_as": "", "date_of_birth": null, "date_of_death": null, "genders": [], "languages": [], "places_of_operation": [], "biography": "", "biography_author": null, "date_of_biography": null, "external_links": [], "uuid": "71b67404-760e-462f-8f88-164d217df3f3", "source": {"name": "Vernon", "slug": "vernon"}, "source_identifier": null, "external_references": [{"id": 50768, "source": {"name": "Wikidata", "slug": "wikidata"}, "source_identifier": "Q121357601"}], "date_modified": "2023-09-05T19:19:48.193624+10:00"}, {"id": 81285, "name": "Pato Guzman", "roles_in_work": [{"id": 2199796, "title": "Down and out in Beverly Hills", "work_id": 95264, "role": "co-producer", "role_id": 915, "is_primary": true}], "also_known_as": "", "date_of_birth": "1933-09-10", "date_of_death": "1991-01-02", "genders": [{"id": 9, "name": "Male", "slug": "male"}], "languages": [{"id": 10, "name": "Spanish", "slug": "spanish"}], "places_of_operation": [{"id": 210, "name": "Chile", "slug": "chile"}], "biography": "Patricio \"Pato\" Guzmán (1933–1991), a native of Chile, worked in the United States as an art director, production designer, and producer of television and film. He worked on such notable shows as The Jack Benny Program, I Love Lucy, The Lucy Show, That Girl.   He also served as a production designer for the Star Trek: The Original Series pilot \"The Cage\" (uncredited) and in that capacity worked directly with art director Matt Jeffries and creator-producer Gene Roddenberry on the design of the original USS Enterprise NCC-1701 exterior and bridge. In the 1980s, Guzman worked with director Paul Mazursky on the films Tempest, Moscow on the Hudson, Down and Out in Beverly Hills, and Enemies, A Love Story.", "biography_author": "Wikidata", "date_of_biography": "2023-08-01T16:27:41.528322+10:00", "external_links": [{"id": 2815, "uri": "https://en.wikipedia.org/wiki/Pato_Guzman"}], "uuid": "203e3b3c-0208-4e27-ad7f-40dd433a0e4e", "source": {"name": "Vernon", "slug": "vernon"}, "source_identifier": "26091", "external_references": [{"id": 11993, "source": {"name": "Wikidata", "slug": "wikidata"}, "source_identifier": "Q7145137"}, {"id": 11994, "source": {"name": "VIAF", "slug": "viaf"}, "source_identifier": "38364573"}, {"id": 11995, "source": {"name": "LOC Auth", "slug": "loc-auth"}, "source_identifier": "n85262681"}, {"id": 11996, "source": {"name": "WorldCat", "slug": "worldcat"}, "source_identifier": "lccn-n85262681"}], "date_modified": "2023-09-05T23:42:22.409894+10:00"}, {"id": 81284, "name": "Tomas Backstrom", "roles_in_work": [{"id": 2000934, "title": "Insomnia (1997)", "work_id": 95258, "role": "co-producer", "role_id": 915, "is_primary": true}], "also_known_as": "", "date_of_birth": null, "date_of_death": null, "genders": [], "languages": [], "places_of_operation": [], "biography": "", "biography_author": null, "date_of_biography": null, "external_links": [], "uuid": "be5f6ad7-0f73-4e99-bcfe-73c46bfc3183", "source": {"name": "Vernon", "slug": "vernon"}, "source_identifier": null, "external_references": [{"id": 42042, "source": {"name": "Wikidata", "slug": "wikidata"}, "source_identifier": "Q121315015"}], "date_modified": "2023-09-06T01:54:30.787507+10:00"}]}