{"count": 28687, "next": "https://api.acmi.net.au/creators/?page=1465", "previous": "https://api.acmi.net.au/creators/?page=1463", "results": [{"id": 35097, "name": "Cassian Harrison", "roles_in_work": [{"id": 2234010, "title": "Martin Luther", "work_id": 94254, "role": "co-producer", "role_id": 915, "is_primary": true}, {"id": 2234014, "title": "Martin Luther", "work_id": 94254, "role": "director", "role_id": 938, "is_primary": true}, {"id": 2234154, "title": "The Greeks: crucible of civilization", "work_id": 94252, "role": "producer/director", "role_id": 31, "is_primary": true}, {"id": 2760800, "title": "Beneath the veil (D)", "work_id": 93372, "role": "producer/director", "role_id": 31, "is_primary": true}], "also_known_as": "", "date_of_birth": "", "date_of_death": "", "genders": [{"id": 9, "name": "Male", "slug": "male"}], "languages": [], "places_of_operation": [], "biography": "", "biography_author": null, "date_of_biography": "2023-05-09T19:32:04.012388+10:00", "external_links": [], "uuid": "da2263cf-e074-40d8-ad30-c3c99247cf08", "source": {"name": "Vernon", "slug": "vernon"}, "source_identifier": "16579", "external_references": [{"id": 35353, "source": {"name": "Wikidata", "slug": "wikidata"}, "source_identifier": "Q107274587"}, {"id": 54163, "source": {"name": "VIAF", "slug": "viaf"}, "source_identifier": "306412244"}], "date_modified": "2025-03-14T17:28:25.096318+11:00"}, {"id": 35093, "name": "DRS", "roles_in_work": [{"id": 2476400, "title": "Yol", "work_id": 93371, "role": "production company", "role_id": 941, "is_primary": true}], "also_known_as": "", "date_of_birth": "", "date_of_death": "", "genders": [], "languages": [], "places_of_operation": [], "biography": "", "biography_author": null, "date_of_biography": "2023-08-17T15:36:12.222128+10:00", "external_links": [], "uuid": "d08105e7-9dc3-4d73-a86e-889df7e97ee8", "source": {"name": "Vernon", "slug": "vernon"}, "source_identifier": "7672", "external_references": [], "date_modified": "2023-08-17T15:36:12.222425+10:00"}, {"id": 35092, "name": "Schweizer Fernselen", "roles_in_work": [{"id": 2476399, "title": "Yol", "work_id": 93371, "role": "production company", "role_id": 941, "is_primary": true}], "also_known_as": "", "date_of_birth": "", "date_of_death": "", "genders": [], "languages": [], "places_of_operation": [], "biography": "", "biography_author": null, "date_of_biography": "2023-08-17T15:36:11.489288+10:00", "external_links": [], "uuid": "1495cdfe-6c44-4e7c-a661-74ae8da57fe7", "source": {"name": "Vernon", "slug": "vernon"}, "source_identifier": "12340", "external_references": [], "date_modified": "2023-08-17T15:36:11.489519+10:00"}, {"id": 35091, "name": "Guney Film", "roles_in_work": [{"id": 2650334, "title": "Suru = The Herd", "work_id": 115652, "role": "production company", "role_id": 941, "is_primary": true}, {"id": 2476397, "title": "Yol", "work_id": 93371, "role": "production company", "role_id": 941, "is_primary": true}], "also_known_as": "", "date_of_birth": "", "date_of_death": "", "genders": [], "languages": [], "places_of_operation": [], "biography": "", "biography_author": null, "date_of_biography": "2023-08-17T15:36:10.229134+10:00", "external_links": [], "uuid": "b927466c-8aad-47a9-8dcb-c179198d1566", "source": {"name": "Vernon", "slug": "vernon"}, "source_identifier": "8940", "external_references": [{"id": 40157, "source": {"name": "Wikidata", "slug": "wikidata"}, "source_identifier": "Q121299432"}], "date_modified": "2025-03-05T14:15:15.033932+11:00"}, {"id": 35090, "name": "Ulu Grosbard", "roles_in_work": [{"id": 2314910, "title": "Straight time", "work_id": 93370, "role": "director", "role_id": 938, "is_primary": true}, {"id": 2474932, "title": "Georgia", "work_id": 94237, "role": "director", "role_id": 938, "is_primary": true}], "also_known_as": "Israel Grosbard", "date_of_birth": "1929-01-09", "date_of_death": "2012-03-19", "genders": [{"id": 9, "name": "Male", "slug": "male"}], "languages": [], "places_of_operation": [{"id": 1, "name": "United States of America", "slug": "united-states-of-america"}], "biography": "Israel \"Ulu\" Grosbard (9 January 1929 – 19 March 2012) was a Belgian-born, naturalized American theatre and film director and film producer.", "biography_author": "Wikidata", "date_of_biography": "2022-05-19T13:18:05.013975+10:00", "external_links": [{"id": 3242, "uri": "https://en.wikipedia.org/wiki/Ulu_Grosbard"}], "uuid": "83d14328-8902-45f8-a99a-05b3cb58d349", "source": {"name": "Vernon", "slug": "vernon"}, "source_identifier": "30024", "external_references": [{"id": 13726, "source": {"name": "Wikidata", "slug": "wikidata"}, "source_identifier": "Q953683"}, {"id": 13727, "source": {"name": "VIAF", "slug": "viaf"}, "source_identifier": "79172076"}, {"id": 13728, "source": {"name": "LOC Auth", "slug": "loc-auth"}, "source_identifier": "n86143607"}, {"id": 13729, "source": {"name": "WorldCat", "slug": "worldcat"}, "source_identifier": "lccn-n86143607"}], "date_modified": "2023-09-13T12:33:08.451016+10:00"}, {"id": 35088, "name": "Sweetwall Productions", "roles_in_work": [{"id": 2314883, "title": "Straight time", "work_id": 93370, "role": "production company", "role_id": 941, "is_primary": true}], "also_known_as": "", "date_of_birth": "", "date_of_death": "", "genders": [], "languages": [], "places_of_operation": [], "biography": "", "biography_author": null, "date_of_biography": "2023-05-09T19:02:46.907067+10:00", "external_links": [], "uuid": "76f74d93-8716-4a04-a34a-1d38040b9ea8", "source": {"name": "Vernon", "slug": "vernon"}, "source_identifier": "13094", "external_references": [{"id": 43351, "source": {"name": "Wikidata", "slug": "wikidata"}, "source_identifier": "Q121337104"}], "date_modified": "2023-09-06T01:38:07.563724+10:00"}, {"id": 35087, "name": "George Melford", "roles_in_work": [{"id": 815220, "title": "The Sheik [NTSC]", "work_id": 93368, "role": "director", "role_id": 938, "is_primary": true}], "also_known_as": "", "date_of_birth": "1877-02-19", "date_of_death": "1961-04-25", "genders": [{"id": 9, "name": "Male", "slug": "male"}], "languages": [{"id": 1, "name": "English", "slug": "english"}], "places_of_operation": [{"id": 1, "name": "United States of America", "slug": "united-states-of-america"}], "biography": "George H. Melford (born George Henry Knauff, February 19, 1877 – April 25, 1961) was an American stage and film actor and director. Often taken for granted as a director today, the stalwart Melford's name by the 1920s was, like Cecil B. DeMille's, appearing in big bold letters above the title of his films.", "biography_author": "Wikidata", "date_of_biography": "2023-08-01T14:58:45.373840+10:00", "external_links": [{"id": 4048, "uri": "https://en.wikipedia.org/wiki/George_Melford"}], "uuid": "cfe5dd56-b249-40d7-835c-8bc87a6aa1b9", "source": {"name": "Vernon", "slug": "vernon"}, "source_identifier": "19641", "external_references": [{"id": 26386, "source": {"name": "Wikidata", "slug": "wikidata"}, "source_identifier": "Q716651"}, {"id": 28616, "source": {"name": "VIAF", "slug": "viaf"}, "source_identifier": "17487251"}, {"id": 28617, "source": {"name": "WorldCat", "slug": "worldcat"}, "source_identifier": "viaf-17487251"}], "date_modified": "2023-09-13T12:29:36.656386+10:00"}, {"id": 35086, "name": "Giorgos Samiotis", "roles_in_work": [{"id": 1997557, "title": "The Travelling players = O Thiassos [NTSC]", "work_id": 93366, "role": "producer", "role_id": 1089, "is_primary": true}], "also_known_as": "", "date_of_birth": null, "date_of_death": "1986-05-27", "genders": [{"id": 9, "name": "Male", "slug": "male"}], "languages": [{"id": 81, "name": "Modern Greek", "slug": "modern-greek"}], "places_of_operation": [{"id": 21, "name": "Greece", "slug": "greece"}], "biography": "Giorgos Tzifos (Greek: Γιώργος Τζιφός; 1918 – 27 May 1986) was a Greek actor in theater and movies.  He played mostly secondary roles in comedies, even Law 4000 of Giorgos Dalianidis.  I Will Make You Queen (as a builder) and I de gyni na fovitai ton andra as a chauffeur.  In 1982, he appeared in the movie Alaloum with Harry Klynn.  He also appeared in that time in a television series about milk, as a hero of little Bobo.  He died on 27 May 1986 and is buried in Athens Cemetery.", "biography_author": "Wikidata", "date_of_biography": "2022-05-19T11:38:28.656299+10:00", "external_links": [{"id": 2151, "uri": "https://en.wikipedia.org/wiki/Giorgos_Tzifos"}], "uuid": "b658f118-f503-40ae-a120-354260e55b05", "source": {"name": "Vernon", "slug": "vernon"}, "source_identifier": "19861", "external_references": [{"id": 9265, "source": {"name": "Wikidata", "slug": "wikidata"}, "source_identifier": "Q5563580"}], "date_modified": "2023-09-13T12:29:42.064238+10:00"}, {"id": 35077, "name": "Robert De Lacey", "roles_in_work": [{"id": 882821, "title": "Ranch house blues", "work_id": 93360, "role": "director", "role_id": 938, "is_primary": true}], "also_known_as": "", "date_of_birth": "1892-01-01", "date_of_death": "1976-03-03", "genders": [{"id": 9, "name": "Male", "slug": "male"}], "languages": [], "places_of_operation": [], "biography": "Robert De Lacey (1892–1976) was an American film director of the silent era. Working at the FBO studios, he specialized in making westerns.", "biography_author": "Wikidata", "date_of_biography": "2023-08-01T16:48:31.549952+10:00", "external_links": [{"id": 5011, "uri": "https://en.wikipedia.org/wiki/Robert_De_Lacey"}], "uuid": "1991b2ab-92d8-4bc2-b07e-e8a5659563f5", "source": {"name": "Vernon", "slug": "vernon"}, "source_identifier": "27692", "external_references": [{"id": 27051, "source": {"name": "Wikidata", "slug": "wikidata"}, "source_identifier": "Q64031749"}, {"id": 31142, "source": {"name": "VIAF", "slug": "viaf"}, "source_identifier": "5963151304667249460001"}, {"id": 31143, "source": {"name": "WorldCat", "slug": "worldcat"}, "source_identifier": "viaf-5963151304667249460001"}], "date_modified": "2023-09-13T12:32:17.840418+10:00"}, {"id": 35069, "name": "Grants Simmons", "roles_in_work": [{"id": 2143200, "title": "Composer Magoo", "work_id": 93347, "role": "director", "role_id": 938, "is_primary": true}], "also_known_as": "", "date_of_birth": "", "date_of_death": "", "genders": [], "languages": [], "places_of_operation": [], "biography": "", "biography_author": null, "date_of_biography": "2023-05-09T13:41:39.497016+10:00", "external_links": [], "uuid": "8cb549d3-14ea-4883-b7af-5e7926cce802", "source": {"name": "Vernon", "slug": "vernon"}, "source_identifier": "20035", "external_references": [], "date_modified": "2023-06-14T16:33:30.576250+10:00"}]}