{"count": 28687, "next": "https://api.acmi.net.au/creators/?page=572", "previous": "https://api.acmi.net.au/creators/?page=570", "results": [{"id": 79873, "name": "Debra Hayward", "roles_in_work": [{"id": 2125072, "title": "Bridget Jones's diary [DVD]", "work_id": 92568, "role": "co-producer", "role_id": 915, "is_primary": true}], "also_known_as": "", "date_of_birth": "", "date_of_death": "", "genders": [], "languages": [], "places_of_operation": [], "biography": "", "biography_author": null, "date_of_biography": "2023-05-09T13:09:51.552398+10:00", "external_links": [], "uuid": "9df67c02-1b36-4bf3-a9ff-52e014ef5d4d", "source": {"name": "Vernon", "slug": "vernon"}, "source_identifier": "17924", "external_references": [{"id": 42988, "source": {"name": "Wikidata", "slug": "wikidata"}, "source_identifier": "Q121299015"}], "date_modified": "2023-09-05T19:06:08.661374+10:00"}, {"id": 79872, "name": "Charles Mills", "roles_in_work": [{"id": 3084401, "title": "A Practical guide to herbs", "work_id": 92564, "role": "co-producer", "role_id": 915, "is_primary": true}], "also_known_as": "", "date_of_birth": "", "date_of_death": "", "genders": [], "languages": [], "places_of_operation": [], "biography": "", "biography_author": null, "date_of_biography": "2023-05-09T11:37:06.679460+10:00", "external_links": [], "uuid": "f71937ad-843a-412d-8527-6b952a38c4b9", "source": {"name": "Vernon", "slug": "vernon"}, "source_identifier": "16702", "external_references": [{"id": 43330, "source": {"name": "Wikidata", "slug": "wikidata"}, "source_identifier": "Q121036403"}], "date_modified": "2025-03-17T10:36:24.039135+11:00"}, {"id": 79871, "name": "Charles Wace", "roles_in_work": [{"id": 3084398, "title": "A Practical guide to herbs", "work_id": 92564, "role": "co-producer", "role_id": 915, "is_primary": true}], "also_known_as": "", "date_of_birth": "", "date_of_death": "", "genders": [], "languages": [], "places_of_operation": [], "biography": "", "biography_author": null, "date_of_biography": "2023-05-09T11:37:06.454458+10:00", "external_links": [], "uuid": "d2b3b9ca-4220-4715-a251-c8ddfe952f0e", "source": {"name": "Vernon", "slug": "vernon"}, "source_identifier": "16741", "external_references": [{"id": 43314, "source": {"name": "Wikidata", "slug": "wikidata"}, "source_identifier": "Q121315056"}], "date_modified": "2025-03-17T10:36:23.459865+11:00"}, {"id": 79870, "name": "Mathieu Mazza", "roles_in_work": [{"id": 2349404, "title": "The French Foreign Legion", "work_id": 92554, "role": "co-producer", "role_id": 915, "is_primary": true}], "also_known_as": "", "date_of_birth": "", "date_of_death": "", "genders": [], "languages": [], "places_of_operation": [], "biography": "", "biography_author": null, "date_of_biography": "2023-05-09T19:53:27.347059+10:00", "external_links": [], "uuid": "2e49813d-160a-469c-915a-0e0bfd0e2651", "source": {"name": "Vernon", "slug": "vernon"}, "source_identifier": "24780", "external_references": [{"id": 34430, "source": {"name": "Wikidata", "slug": "wikidata"}, "source_identifier": "Q121036505"}], "date_modified": "2023-09-05T22:54:07.598915+10:00"}, {"id": 79869, "name": "Michael Wilson", "roles_in_work": [{"id": 2795062, "title": "Tomorrow never dies [Widescreen]", "work_id": 92550, "role": "co-producer", "role_id": 915, "is_primary": true}], "also_known_as": "", "date_of_birth": "", "date_of_death": "", "genders": [], "languages": [], "places_of_operation": [], "biography": "", "biography_author": null, "date_of_biography": "2023-05-09T18:09:12.846632+10:00", "external_links": [], "uuid": "48d243c0-1572-407d-982c-e788f81d19cf", "source": {"name": "Vernon", "slug": "vernon"}, "source_identifier": "25262", "external_references": [], "date_modified": "2025-03-14T20:29:58.344267+11:00"}, {"id": 79868, "name": "Raymond Steiner", "roles_in_work": [{"id": 2341881, "title": "The Cup", "work_id": 92549, "role": "co-producer", "role_id": 915, "is_primary": true}], "also_known_as": "", "date_of_birth": "", "date_of_death": "", "genders": [{"id": 9, "name": "Male", "slug": "male"}], "languages": [], "places_of_operation": [], "biography": "", "biography_author": null, "date_of_biography": "2023-05-09T19:40:44.615046+10:00", "external_links": [], "uuid": "8b91a4ea-7fea-4e97-b393-628456161058", "source": {"name": "Vernon", "slug": "vernon"}, "source_identifier": "27204", "external_references": [{"id": 12416, "source": {"name": "Wikidata", "slug": "wikidata"}, "source_identifier": "Q98070707"}], "date_modified": "2023-09-06T00:23:44.431172+10:00"}, {"id": 79867, "name": "Malcolm Watson", "roles_in_work": [{"id": 2341879, "title": "The Cup", "work_id": 92549, "role": "co-producer", "role_id": 915, "is_primary": true}], "also_known_as": "", "date_of_birth": "", "date_of_death": "", "genders": [{"id": 9, "name": "Male", "slug": "male"}], "languages": [], "places_of_operation": [], "biography": "", "biography_author": null, "date_of_biography": "2023-05-09T19:40:44.365432+10:00", "external_links": [], "uuid": "02fcdbd8-fb74-4def-8c42-76d987f63cbf", "source": {"name": "Vernon", "slug": "vernon"}, "source_identifier": "24237", "external_references": [{"id": 11177, "source": {"name": "Wikidata", "slug": "wikidata"}, "source_identifier": "Q98070682"}], "date_modified": "2023-09-05T22:37:51.526432+10:00"}, {"id": 79866, "name": "Michael Allder", "roles_in_work": [{"id": 2230838, "title": "Project grizzly", "work_id": 92547, "role": "producer", "role_id": 1089, "is_primary": true}, {"id": 1815503, "title": "The Powder room", "work_id": 93081, "role": "producer", "role_id": 1089, "is_primary": true}, {"id": 816583, "title": "The Lucky ones: allied airmen and Buchenwald", "work_id": 93679, "role": "producer/director", "role_id": 31, "is_primary": true}], "also_known_as": "", "date_of_birth": "", "date_of_death": "", "genders": [], "languages": [], "places_of_operation": [], "biography": "", "biography_author": null, "date_of_biography": "2023-05-09T16:36:41.314034+10:00", "external_links": [], "uuid": "8e49405f-75bd-4f93-8539-680e49c0a3e4", "source": {"name": "Vernon", "slug": "vernon"}, "source_identifier": "24960", "external_references": [{"id": 33754, "source": {"name": "Wikidata", "slug": "wikidata"}, "source_identifier": "Q121034220"}], "date_modified": "2023-09-05T23:02:09.919593+10:00"}, {"id": 79865, "name": "Elliott Lewis Rose", "roles_in_work": [{"id": 1996221, "title": "Grace of my heart", "work_id": 92537, "role": "co-producer", "role_id": 915, "is_primary": true}], "also_known_as": "", "date_of_birth": null, "date_of_death": null, "genders": [], "languages": [], "places_of_operation": [], "biography": "", "biography_author": null, "date_of_biography": null, "external_links": [], "uuid": "d76a021e-8f1e-4c21-bd81-db0b56887e95", "source": {"name": "Vernon", "slug": "vernon"}, "source_identifier": null, "external_references": [{"id": 34188, "source": {"name": "Wikidata", "slug": "wikidata"}, "source_identifier": "Q121036264"}], "date_modified": "2023-09-05T19:30:13.227159+10:00"}, {"id": 79864, "name": "Tantamount Productions", "roles_in_work": [{"id": 3104285, "title": "Mabo: the native title revolution", "work_id": 92534, "role": "production company", "role_id": 941, "is_primary": true}], "also_known_as": "", "date_of_birth": null, "date_of_death": null, "genders": [], "languages": [], "places_of_operation": [], "biography": "", "biography_author": null, "date_of_biography": null, "external_links": [], "uuid": "aff01661-ceaa-49c5-aba4-50ddab209060", "source": {"name": "Vernon", "slug": "vernon"}, "source_identifier": "13157", "external_references": [{"id": 32314, "source": {"name": "Wikidata", "slug": "wikidata"}, "source_identifier": "Q121222511"}], "date_modified": "2025-05-22T22:35:08.073831+10:00"}]}