{"count": 28687, "next": "https://api.acmi.net.au/creators/?page=1312", "previous": "https://api.acmi.net.au/creators/?page=1310", "results": [{"id": 38689, "name": "Institute for Reality Therapy, Education Training Centre", "roles_in_work": [{"id": 2751964, "title": "[Positive school climate]", "work_id": 98076, "role": "production company", "role_id": 941, "is_primary": true}], "also_known_as": "", "date_of_birth": "", "date_of_death": "", "genders": [], "languages": [], "places_of_operation": [], "biography": "", "biography_author": null, "date_of_biography": "2023-08-11T12:39:08.991818+10:00", "external_links": [], "uuid": "8f1db775-fdc6-4bed-93d1-08d2f413f60e", "source": {"name": "Vernon", "slug": "vernon"}, "source_identifier": "9317", "external_references": [], "date_modified": "2025-03-13T00:55:41.103224+11:00"}, {"id": 38688, "name": "Institute of Reality Therapy, Educator Training Centre", "roles_in_work": [{"id": 2788333, "title": "Help for parents", "work_id": 115357, "role": "production company", "role_id": 941, "is_primary": true}, {"id": 2788329, "title": "Reality therapy and discipline at home", "work_id": 98075, "role": "production company", "role_id": 941, "is_primary": true}], "also_known_as": "", "date_of_birth": "", "date_of_death": "", "genders": [], "languages": [], "places_of_operation": [], "biography": "", "biography_author": null, "date_of_biography": "2023-08-11T17:17:54.417702+10:00", "external_links": [], "uuid": "af9c1343-9c61-4379-a6d8-4c0817a6522c", "source": {"name": "Vernon", "slug": "vernon"}, "source_identifier": "9322", "external_references": [], "date_modified": "2025-03-14T19:44:05.743259+11:00"}, {"id": 38686, "name": "Dugan Rosalini Film Associates", "roles_in_work": [{"id": 2751961, "title": "Zookeepers", "work_id": 98073, "role": "production company", "role_id": 941, "is_primary": true}, {"id": 2752021, "title": "Otto: zoo gorilla", "work_id": 98096, "role": "production company", "role_id": 941, "is_primary": true}], "also_known_as": "", "date_of_birth": "", "date_of_death": "", "genders": [], "languages": [], "places_of_operation": [], "biography": "", "biography_author": null, "date_of_biography": "2023-05-09T18:20:47.436759+10:00", "external_links": [], "uuid": "2c00c6b2-e88a-49f8-bdfc-a9611291a637", "source": {"name": "Vernon", "slug": "vernon"}, "source_identifier": "7679", "external_references": [{"id": 41713, "source": {"name": "Wikidata", "slug": "wikidata"}, "source_identifier": "Q121036040"}], "date_modified": "2025-03-13T00:56:19.270169+11:00"}, {"id": 38685, "name": "Howard Tracy", "roles_in_work": [{"id": 2751957, "title": "Sculpture of the Parthenon", "work_id": 98070, "role": "producer", "role_id": 1089, "is_primary": true}], "also_known_as": "", "date_of_birth": null, "date_of_death": null, "genders": [], "languages": [], "places_of_operation": [], "biography": "", "biography_author": null, "date_of_biography": null, "external_links": [], "uuid": "d8b95ef9-c83a-47c5-8829-8ad55c54e252", "source": {"name": "Vernon", "slug": "vernon"}, "source_identifier": "20635", "external_references": [], "date_modified": "2025-03-13T00:55:35.744422+11:00"}, {"id": 38684, "name": "Carlos Seegmiller", "roles_in_work": [{"id": 2751952, "title": "Process of newspaper production", "work_id": 98068, "role": "director", "role_id": 938, "is_primary": true}], "also_known_as": "", "date_of_birth": "", "date_of_death": "", "genders": [], "languages": [], "places_of_operation": [], "biography": "", "biography_author": null, "date_of_biography": "2023-08-14T10:25:35.799830+10:00", "external_links": [], "uuid": "adff82ae-08ce-47ac-986e-2f4ed93e3866", "source": {"name": "Vernon", "slug": "vernon"}, "source_identifier": "16507", "external_references": [], "date_modified": "2025-03-13T00:55:32.149805+11:00"}, {"id": 38683, "name": "Steve Marts", "roles_in_work": [{"id": 2751949, "title": "Man of wheat: the saga of Glen Miller", "work_id": 98066, "role": "producer", "role_id": 1089, "is_primary": true}], "also_known_as": "", "date_of_birth": null, "date_of_death": null, "genders": [], "languages": [], "places_of_operation": [], "biography": "", "biography_author": null, "date_of_biography": null, "external_links": [], "uuid": "2fcc26bc-2c0a-414e-8624-4d6d8a8f2148", "source": {"name": "Vernon", "slug": "vernon"}, "source_identifier": "29150", "external_references": [], "date_modified": "2025-03-13T00:55:29.754313+11:00"}, {"id": 38682, "name": "Tim Landry", "roles_in_work": [{"id": 2751944, "title": "Cabbages and kings, or, the dancing princess", "work_id": 98063, "role": "director", "role_id": 938, "is_primary": true}], "also_known_as": "", "date_of_birth": "", "date_of_death": "", "genders": [], "languages": [], "places_of_operation": [], "biography": "", "biography_author": null, "date_of_biography": "2023-08-11T15:10:03.467802+10:00", "external_links": [], "uuid": "b3fc93c4-ff57-4e65-9018-bec5780de3b7", "source": {"name": "Vernon", "slug": "vernon"}, "source_identifier": "29746", "external_references": [], "date_modified": "2025-03-13T00:55:26.247339+11:00"}, {"id": 38681, "name": "Sir Reel Pictures", "roles_in_work": [{"id": 2751943, "title": "Cabbages and kings, or, the dancing princess", "work_id": 98063, "role": "production company", "role_id": 941, "is_primary": true}], "also_known_as": "", "date_of_birth": "", "date_of_death": "", "genders": [], "languages": [], "places_of_operation": [], "biography": "", "biography_author": null, "date_of_biography": "2023-08-11T15:10:02.848169+10:00", "external_links": [], "uuid": "181d7778-6b77-41e2-ac72-b827694893a3", "source": {"name": "Vernon", "slug": "vernon"}, "source_identifier": "12616", "external_references": [], "date_modified": "2025-03-13T00:55:25.657290+11:00"}, {"id": 38680, "name": "Andrew Crilly", "roles_in_work": [{"id": 2751940, "title": "Islands within islands within islands", "work_id": 98062, "role": "producer", "role_id": 1089, "is_primary": true}], "also_known_as": "", "date_of_birth": null, "date_of_death": null, "genders": [], "languages": [], "places_of_operation": [], "biography": "", "biography_author": null, "date_of_biography": null, "external_links": [], "uuid": "fb953f6f-d8ed-4a68-81f2-c4de533cc3cd", "source": {"name": "Vernon", "slug": "vernon"}, "source_identifier": "15150", "external_references": [], "date_modified": "2025-03-13T00:55:23.664378+11:00"}, {"id": 38679, "name": "Martin Luther King Foundation", "roles_in_work": [{"id": 2751923, "title": "Legacy of a dream", "work_id": 98052, "role": "production company", "role_id": 941, "is_primary": true}], "also_known_as": "", "date_of_birth": "", "date_of_death": "", "genders": [], "languages": [], "places_of_operation": [], "biography": "", "biography_author": null, "date_of_biography": "2023-08-11T19:22:50.464991+10:00", "external_links": [], "uuid": "af647382-50d5-48b6-ae17-ea2ce0bd1eb8", "source": {"name": "Vernon", "slug": "vernon"}, "source_identifier": "10321", "external_references": [], "date_modified": "2025-03-13T00:55:11.306766+11:00"}]}