{"count": 28682, "next": "https://api.acmi.net.au/creators/?page=2019", "previous": "https://api.acmi.net.au/creators/?page=2017", "results": [{"id": 22210, "name": "Don Leaver", "roles_in_work": [{"id": 2756072, "title": "Five Go to Smuggler's Top", "work_id": 79805, "role": "producer", "role_id": 1089, "is_primary": true}, {"id": 2756082, "title": "Five Go off in a Caravan/Five Go Adventuring Again", "work_id": 79807, "role": "producer", "role_id": 1089, "is_primary": true}, {"id": 2756086, "title": "Five on Kirrin Island", "work_id": 79808, "role": "producer", "role_id": 1089, "is_primary": true}, {"id": 2756076, "title": "Five Go off to Camp", "work_id": 79806, "role": "producer", "role_id": 1089, "is_primary": true}, {"id": 2756095, "title": "Five Go on a Hike Together/Five Go to Mystery Moor", "work_id": 80535, "role": "producer", "role_id": 1089, "is_primary": true}, {"id": 1814493, "title": "Prime suspect", "work_id": 85545, "role": "producer", "role_id": 1089, "is_primary": true}, {"id": 2756092, "title": "Five Go on a Secret Trail/Five Go to Billycock Hill", "work_id": 80524, "role": "producer/director", "role_id": 31, "is_primary": true}], "also_known_as": "", "date_of_birth": "1929-09-27", "date_of_death": "2015-12-13", "genders": [{"id": 9, "name": "Male", "slug": "male"}], "languages": [], "places_of_operation": [], "biography": "Don Leaver (27 September 1929 – 13 December 2015) was a television director and producer, with a career spanning from 1960 to 2000. He was known for The Avengers, A Fine Romance, A Touch of Frost and Prime Suspect, but directed or produced many other TV dramas.Leaver was born in London, England, his mother dying in childbirth. His father Edward was a chauffeur so Leaver was brought up mainly by his grandmother in Streatham. After training as an actor at the Webber Douglas Academy of Dramatic Art he quickly moved into TV production before being invited to direct by Sydney Newman, then with the ITV franchise holder ABC.He directed The Avengers having already directed its original star, Ian Hendry, in Police Surgeon.As well as directing and then going on to produce episodes for a large number of TV dramas he also directed TV adverts.Leaver produced the first series of the TV police procedural series Prime Suspect, for which he won a BAFTA, having been nominated 3 times before without winning.", "biography_author": "Wikidata", "date_of_biography": "2023-09-05T19:15:16.663831+10:00", "external_links": [{"id": 5781, "uri": "https://en.wikipedia.org/wiki/Don_Leaver"}], "uuid": "b0b69324-c71e-4098-a921-98519eaacb6d", "source": {"name": "Vernon", "slug": "vernon"}, "source_identifier": "18224", "external_references": [{"id": 51821, "source": {"name": "Wikidata", "slug": "wikidata"}, "source_identifier": "Q74698449"}], "date_modified": "2025-03-13T14:38:34.129911+11:00"}, {"id": 22208, "name": "Martin Pullen", "roles_in_work": [{"id": 2765310, "title": "Paddington goes to school", "work_id": 79803, "role": "director", "role_id": 938, "is_primary": true}], "also_known_as": "", "date_of_birth": "", "date_of_death": "", "genders": [], "languages": [], "places_of_operation": [], "biography": "", "biography_author": null, "date_of_biography": "2023-05-09T17:41:31.963967+10:00", "external_links": [], "uuid": "f0ddbcae-4308-47f4-9b3c-2f435a585831", "source": {"name": "Vernon", "slug": "vernon"}, "source_identifier": "24657", "external_references": [], "date_modified": "2025-03-14T17:51:48.669039+11:00"}, {"id": 22207, "name": "Glenn Whiting", "roles_in_work": [{"id": 2765302, "title": "Paddington's birthday bonanza", "work_id": 79800, "role": "director", "role_id": 938, "is_primary": true}], "also_known_as": "", "date_of_birth": "", "date_of_death": "", "genders": [], "languages": [], "places_of_operation": [], "biography": "", "biography_author": null, "date_of_biography": "2023-05-09T17:42:19.407990+10:00", "external_links": [], "uuid": "bccb3ac5-ca59-4691-a6a3-a7be0e9c35f5", "source": {"name": "Vernon", "slug": "vernon"}, "source_identifier": "19904", "external_references": [], "date_modified": "2025-03-14T17:51:43.425873+11:00"}, {"id": 22206, "name": "Barrie Edwards", "roles_in_work": [{"id": 2765301, "title": "Paddington's birthday bonanza", "work_id": 79800, "role": "producer", "role_id": 1089, "is_primary": true}, {"id": 2765309, "title": "Paddington goes to school", "work_id": 79803, "role": "producer", "role_id": 1089, "is_primary": true}], "also_known_as": "", "date_of_birth": "", "date_of_death": "", "genders": [], "languages": [], "places_of_operation": [], "biography": "", "biography_author": null, "date_of_biography": "2023-05-09T17:42:19.167990+10:00", "external_links": [], "uuid": "6d87b148-cddd-430f-9d3b-ee97b75a00a3", "source": {"name": "Vernon", "slug": "vernon"}, "source_identifier": "15690", "external_references": [], "date_modified": "2025-03-14T17:51:48.079314+11:00"}, {"id": 22201, "name": "Kevin Sullivan", "roles_in_work": [{"id": 2097618, "title": "Anne of Green Gables", "work_id": 79794, "role": "director", "role_id": 938, "is_primary": true}, {"id": 2649299, "title": "Anne of Green Gables (Captioned)", "work_id": 81278, "role": "director", "role_id": 938, "is_primary": true}, {"id": 1848451, "title": "The West wing. Season 1. Eps. 09-11", "work_id": 94330, "role": "co-director", "role_id": 959, "is_primary": true}, {"id": 2097606, "title": "Anne of Green Gables", "work_id": 79794, "role": "co-producer", "role_id": 915, "is_primary": true}, {"id": 2649297, "title": "Anne of Green Gables (Captioned)", "work_id": 81278, "role": "co-producer", "role_id": 915, "is_primary": true}, {"id": 2251213, "title": "Road to Avonlea", "work_id": 84613, "role": "producer", "role_id": 1089, "is_primary": true}, {"id": 2250821, "title": "Road to Avonlea (Captioned)", "work_id": 82807, "role": "producer", "role_id": 1089, "is_primary": true}, {"id": 1816159, "title": "The Fir tree", "work_id": 98152, "role": "producer", "role_id": 1089, "is_primary": true}, {"id": 2097666, "title": "Anne of Green Gables: The Sequel (Captioned)", "work_id": 81394, "role": "producer/director", "role_id": 31, "is_primary": true}, {"id": 1984904, "title": "Anne of Green Gables: The Sequel", "work_id": 80887, "role": "producer/director", "role_id": 31, "is_primary": true}], "also_known_as": "", "date_of_birth": null, "date_of_death": "", "genders": [{"id": 9, "name": "Male", "slug": "male"}], "languages": [], "places_of_operation": [{"id": 36, "name": "Canada", "slug": "canada"}], "biography": "Kevin Roderick Sullivan (born c. 1955) is a Canadian writer, director and producer of film and television programs.\n\nKevin Sullivan is best known for detailed period movies such as the Anne of Green Gables series of films, his movie adaptation of Timothy Findley's novel The Piano Man's Daughter, feature films and TV-movies such as Under the Piano, Butterbox Babies, Sleeping Dogs Lie and the CBS mini-series Seasons of Love, as well as long-running television series such as Road to Avonlea and Wind at My Back. His films have been broadcast in over 150 countries. His production company Sullivan Entertainment has produced movies, mini-series and specials for CBS, PBS, Disney, Lifetime, Ion, INSP, Channel 4, BBC, ITV, ZDF and NHK. Source: Wikidata; 01/08/2023", "biography_author": null, "date_of_biography": "2025-03-05T14:00:05.980452+11:00", "external_links": [{"id": 4494, "uri": "https://en.wikipedia.org/wiki/Kevin_Sullivan_(producer)"}], "uuid": "c4db62f0-c5ec-4994-bf24-7f310692f627", "source": {"name": "Vernon", "slug": "vernon"}, "source_identifier": "23312", "external_references": [{"id": 25947, "source": {"name": "Wikidata", "slug": "wikidata"}, "source_identifier": "Q6397567"}, {"id": 29794, "source": {"name": "VIAF", "slug": "viaf"}, "source_identifier": "66133507"}, {"id": 29795, "source": {"name": "LOC Auth", "slug": "loc-auth"}, "source_identifier": "no2016000395"}, {"id": 29796, "source": {"name": "WorldCat", "slug": "worldcat"}, "source_identifier": "lccn-no2016000395"}], "date_modified": "2025-03-05T14:00:05.980681+11:00"}, {"id": 22200, "name": "Sullivan Films", "roles_in_work": [{"id": 1984903, "title": "Anne of Green Gables: The Sequel", "work_id": 80887, "role": "production company", "role_id": 941, "is_primary": true}, {"id": 2097599, "title": "Anne of Green Gables", "work_id": 79794, "role": "production company", "role_id": 941, "is_primary": true}, {"id": 2649296, "title": "Anne of Green Gables (Captioned)", "work_id": 81278, "role": "production company", "role_id": 941, "is_primary": true}, {"id": 2097660, "title": "Anne of Green Gables: The Sequel (Captioned)", "work_id": 81394, "role": "production company", "role_id": 941, "is_primary": true}], "also_known_as": "", "date_of_birth": "", "date_of_death": "", "genders": [], "languages": [], "places_of_operation": [], "biography": "", "biography_author": null, "date_of_biography": "2023-05-09T12:26:15.756098+10:00", "external_links": [], "uuid": "d161bc5e-f06d-434b-9368-07dc527eb88e", "source": {"name": "Vernon", "slug": "vernon"}, "source_identifier": "13040", "external_references": [{"id": 42893, "source": {"name": "Wikidata", "slug": "wikidata"}, "source_identifier": "Q121034534"}], "date_modified": "2025-03-05T14:00:04.163727+11:00"}, {"id": 22198, "name": "Television One (New Zealand)", "roles_in_work": [{"id": 1426419, "title": "The Music theatre = children's music theatre", "work_id": 79792, "role": "production company", "role_id": 941, "is_primary": true}, {"id": 2753236, "title": "Not just your average sausage", "work_id": 98668, "role": "production company", "role_id": 941, "is_primary": true}], "also_known_as": "", "date_of_birth": null, "date_of_death": null, "genders": [], "languages": [], "places_of_operation": [], "biography": "", "biography_author": null, "date_of_biography": null, "external_links": [], "uuid": "3885cdcb-e0ea-4347-b1f7-e30be56f6699", "source": {"name": "Vernon", "slug": "vernon"}, "source_identifier": "13266", "external_references": [], "date_modified": "2025-03-13T01:21:10.859701+11:00"}, {"id": 22197, "name": "Valerie Sayce", "roles_in_work": [{"id": 2222910, "title": "Exercise Beats Arthritis", "work_id": 79789, "role": "director", "role_id": 938, "is_primary": true}], "also_known_as": "", "date_of_birth": "", "date_of_death": "", "genders": [], "languages": [], "places_of_operation": [], "biography": "", "biography_author": null, "date_of_biography": "2023-05-09T16:21:45.463864+10:00", "external_links": [], "uuid": "34c7108b-d3e9-4a14-b59e-b76ceb907c5e", "source": {"name": "Vernon", "slug": "vernon"}, "source_identifier": "30051", "external_references": [{"id": 33193, "source": {"name": "Wikidata", "slug": "wikidata"}, "source_identifier": "Q121270863"}], "date_modified": "2023-09-06T02:02:56.735003+10:00"}, {"id": 22196, "name": "Fraser Publications", "roles_in_work": [{"id": 2222907, "title": "Exercise Beats Arthritis", "work_id": 79789, "role": "producer", "role_id": 1089, "is_primary": true}], "also_known_as": "", "date_of_birth": "", "date_of_death": "", "genders": [], "languages": [], "places_of_operation": [], "biography": "", "biography_author": null, "date_of_biography": "2023-05-09T16:21:45.218530+10:00", "external_links": [], "uuid": "24abff8d-8f66-4ae2-99fa-64be958e636e", "source": {"name": "Vernon", "slug": "vernon"}, "source_identifier": "8533", "external_references": [{"id": 36085, "source": {"name": "Wikidata", "slug": "wikidata"}, "source_identifier": "Q121079417"}], "date_modified": "2023-09-05T19:51:49.216285+10:00"}, {"id": 22193, "name": "Media World", "roles_in_work": [{"id": 899554, "title": "Fire fuels", "work_id": 80378, "role": "co-producer", "role_id": 915, "is_primary": true}, {"id": 2776070, "title": "Flowers of Rethymnon", "work_id": 81630, "role": "production company", "role_id": 941, "is_primary": true}, {"id": 2774814, "title": "Entree Jacques", "work_id": 81608, "role": "production company", "role_id": 941, "is_primary": true}, {"id": 2753342, "title": "Seen and heard", "work_id": 98718, "role": "production company", "role_id": 941, "is_primary": true}, {"id": 2776062, "title": "Independent company", "work_id": 81712, "role": "production company", "role_id": 941, "is_primary": true}, {"id": 919577, "title": "Why learn a language?", "work_id": 99163, "role": "production company", "role_id": 941, "is_primary": true}, {"id": 865756, "title": "Fire weather", "work_id": 80376, "role": "production company", "role_id": 941, "is_primary": true}, {"id": 770633, "title": "Going on to further study (Captioned)", "work_id": 79780, "role": "production company", "role_id": 941, "is_primary": true}], "also_known_as": "", "date_of_birth": "", "date_of_death": "", "genders": [], "languages": [], "places_of_operation": [], "biography": "", "biography_author": null, "date_of_biography": "2023-05-09T19:23:33.952164+10:00", "external_links": [], "uuid": "f0e806db-b256-4408-a400-b7f6d39866ad", "source": {"name": "Vernon", "slug": "vernon"}, "source_identifier": "4459", "external_references": [{"id": 39555, "source": {"name": "Wikidata", "slug": "wikidata"}, "source_identifier": "Q121091238"}], "date_modified": "2025-03-14T18:45:37.819785+11:00"}]}