{"count": 28687, "next": "https://api.acmi.net.au/creators/?page=1765", "previous": "https://api.acmi.net.au/creators/?page=1763", "results": [{"id": 27184, "name": "Hollingsworth Morse", "roles_in_work": [{"id": 2615344, "title": "H.R. Pufnstuf: The wheely bird", "work_id": 85257, "role": "director", "role_id": 938, "is_primary": true}, {"id": 1847264, "title": "H.R. Pufnstuf: the magic path", "work_id": 85240, "role": "director", "role_id": 938, "is_primary": true}], "also_known_as": "", "date_of_birth": null, "date_of_death": null, "genders": [], "languages": [], "places_of_operation": [], "biography": "", "biography_author": null, "date_of_biography": null, "external_links": [], "uuid": "aee45dc5-7936-4914-b009-2334d40eb626", "source": {"name": "Vernon", "slug": "vernon"}, "source_identifier": "9125", "external_references": [], "date_modified": "2025-02-26T20:22:30.879933+11:00"}, {"id": 27178, "name": "New Zealand On Air", "roles_in_work": [{"id": 913344, "title": "Forgotten silver", "work_id": 93208, "role": "production company", "role_id": 941, "is_primary": true}, {"id": 1997343, "title": "Stickmen", "work_id": 93264, "role": "production company", "role_id": 941, "is_primary": true}, {"id": 1993253, "title": "Once were warriors (Captioned)", "work_id": 88852, "role": "production company", "role_id": 941, "is_primary": true}, {"id": 2164987, "title": "Once were warriors", "work_id": 85239, "role": "production company", "role_id": 941, "is_primary": true}], "also_known_as": "", "date_of_birth": "", "date_of_death": "", "genders": [], "languages": [], "places_of_operation": [], "biography": "", "biography_author": null, "date_of_biography": "2023-05-09T14:23:31.306936+10:00", "external_links": [], "uuid": "53e25f84-bfa6-46d9-8213-10fbc459f243", "source": {"name": "Vernon", "slug": "vernon"}, "source_identifier": "10937", "external_references": [{"id": 32326, "source": {"name": "Wikidata", "slug": "wikidata"}, "source_identifier": "Q121034572"}], "date_modified": "2023-09-05T23:28:42.923050+10:00"}, {"id": 27176, "name": "Communicado", "roles_in_work": [{"id": 2164981, "title": "Once were warriors", "work_id": 85239, "role": "production company", "role_id": 941, "is_primary": true}, {"id": 1993250, "title": "Once were warriors (Captioned)", "work_id": 88852, "role": "production company", "role_id": 941, "is_primary": true}, {"id": 2235111, "title": "Rain", "work_id": 95001, "role": "production company", "role_id": 941, "is_primary": true}], "also_known_as": "", "date_of_birth": "", "date_of_death": "", "genders": [], "languages": [], "places_of_operation": [], "biography": "", "biography_author": null, "date_of_biography": "2023-05-09T16:44:33.733685+10:00", "external_links": [], "uuid": "c03f0d51-dc9f-4f11-b99f-31341ac6c593", "source": {"name": "Vernon", "slug": "vernon"}, "source_identifier": "6951", "external_references": [], "date_modified": "2023-06-14T16:33:30.576250+10:00"}, {"id": 27175, "name": "ATTICA Cybernetics", "roles_in_work": [{"id": 2615337, "title": "Romeo and Juliet (PC)", "work_id": 85236, "role": "production company", "role_id": 941, "is_primary": true}, {"id": 788898, "title": "Macbeth (PC)", "work_id": 85237, "role": "production company", "role_id": 941, "is_primary": true}], "also_known_as": "", "date_of_birth": null, "date_of_death": null, "genders": [], "languages": [], "places_of_operation": [], "biography": "", "biography_author": null, "date_of_biography": null, "external_links": [], "uuid": "987e82c8-f6af-4b80-afad-52f0c75829c4", "source": {"name": "Vernon", "slug": "vernon"}, "source_identifier": "5516", "external_references": [], "date_modified": "2025-02-26T20:22:26.461833+11:00"}, {"id": 27174, "name": "Bayside Pictures", "roles_in_work": [{"id": 2125309, "title": "Brilliant lies", "work_id": 85931, "role": "production company", "role_id": 941, "is_primary": true}, {"id": 1989537, "title": "Hotel Sorrento", "work_id": 85235, "role": "production company", "role_id": 941, "is_primary": true}], "also_known_as": "", "date_of_birth": "", "date_of_death": "", "genders": [], "languages": [], "places_of_operation": [], "biography": "", "biography_author": null, "date_of_biography": "2023-05-09T13:10:05.116590+10:00", "external_links": [], "uuid": "69bc5a1a-d8a0-41de-bb88-389f43e599ab", "source": {"name": "Vernon", "slug": "vernon"}, "source_identifier": "5759", "external_references": [{"id": 39031, "source": {"name": "Wikidata", "slug": "wikidata"}, "source_identifier": "Q121337220"}], "date_modified": "2023-09-05T17:56:43.087871+10:00"}, {"id": 27171, "name": "Askhat Murtazin", "roles_in_work": [{"id": 2320272, "title": "Swan Lake", "work_id": 85231, "role": "director", "role_id": 938, "is_primary": true}], "also_known_as": "", "date_of_birth": "", "date_of_death": "", "genders": [], "languages": [], "places_of_operation": [], "biography": "", "biography_author": null, "date_of_biography": "2023-05-09T19:10:55.463455+10:00", "external_links": [], "uuid": "4aeb3fd7-56ac-4296-ac50-33b1b4224b17", "source": {"name": "Vernon", "slug": "vernon"}, "source_identifier": "15578", "external_references": [{"id": 41510, "source": {"name": "Wikidata", "slug": "wikidata"}, "source_identifier": "Q121223256"}], "date_modified": "2023-09-05T17:48:44.239873+10:00"}, {"id": 27168, "name": "Ekran Creative Union Gosteleradio", "roles_in_work": [{"id": 2320264, "title": "Swan Lake", "work_id": 85231, "role": "production company", "role_id": 941, "is_primary": true}], "also_known_as": "", "date_of_birth": "", "date_of_death": "", "genders": [], "languages": [], "places_of_operation": [], "biography": "", "biography_author": null, "date_of_biography": "2023-05-09T19:10:54.749474+10:00", "external_links": [], "uuid": "ced1ec70-cd46-421a-9bcc-d42fbc4a0f57", "source": {"name": "Vernon", "slug": "vernon"}, "source_identifier": "7838", "external_references": [{"id": 42626, "source": {"name": "Wikidata", "slug": "wikidata"}, "source_identifier": "Q121223407"}], "date_modified": "2023-09-05T19:27:36.181238+10:00"}, {"id": 27167, "name": "Jerome Chalou", "roles_in_work": [{"id": 2158493, "title": "Nikita", "work_id": 85228, "role": "producer", "role_id": 1089, "is_primary": true}], "also_known_as": "", "date_of_birth": "", "date_of_death": "", "genders": [], "languages": [], "places_of_operation": [], "biography": "", "biography_author": null, "date_of_biography": "2023-05-09T14:10:38.190020+10:00", "external_links": [], "uuid": "088abf8b-2b77-4a08-81c0-a6af57e03856", "source": {"name": "Vernon", "slug": "vernon"}, "source_identifier": "21766", "external_references": [{"id": 39804, "source": {"name": "Wikidata", "slug": "wikidata"}, "source_identifier": "Q121035411"}], "date_modified": "2023-09-05T21:21:57.990905+10:00"}, {"id": 27166, "name": "Cecchi Gori Group Tiger Cinamatografica", "roles_in_work": [{"id": 811557, "title": "Nelly and Mr Arnaud = Nelly & Monsieur Arnaud [Widescreen]", "work_id": 92479, "role": "production company", "role_id": 941, "is_primary": true}, {"id": 2158491, "title": "Nikita", "work_id": 85228, "role": "production company", "role_id": 941, "is_primary": true}], "also_known_as": "", "date_of_birth": "", "date_of_death": "", "genders": [], "languages": [], "places_of_operation": [], "biography": "", "biography_author": null, "date_of_biography": "2023-05-09T14:10:37.953868+10:00", "external_links": [], "uuid": "f349ade2-86c8-4007-bac9-0f132ef08d22", "source": {"name": "Vernon", "slug": "vernon"}, "source_identifier": "6386", "external_references": [], "date_modified": "2023-06-14T16:33:30.576250+10:00"}, {"id": 27165, "name": "Allan Holzman", "roles_in_work": [{"id": 2319167, "title": "Survivors of the Holocaust", "work_id": 85227, "role": "director", "role_id": 938, "is_primary": true}], "also_known_as": "", "date_of_birth": "", "date_of_death": "", "genders": [], "languages": [], "places_of_operation": [], "biography": "", "biography_author": null, "date_of_biography": "2023-05-09T19:09:37.635622+10:00", "external_links": [], "uuid": "242ec416-9782-4032-9db2-7a4fd0c73e19", "source": {"name": "Vernon", "slug": "vernon"}, "source_identifier": "15007", "external_references": [{"id": 35269, "source": {"name": "Wikidata", "slug": "wikidata"}, "source_identifier": "Q113155395"}], "date_modified": "2023-09-05T17:29:19.738965+10:00"}]}