{"count": 28687, "next": "https://api.acmi.net.au/creators/?page=2260", "previous": "https://api.acmi.net.au/creators/?page=2258", "results": [{"id": 17523, "name": "Five Cities", "roles_in_work": [{"id": 2465240, "title": "Readicut rugs", "work_id": 72073, "role": "production company", "role_id": 941, "is_primary": true}], "also_known_as": "", "date_of_birth": "", "date_of_death": "", "genders": [], "languages": [], "places_of_operation": [], "biography": "", "biography_author": null, "date_of_biography": "2023-08-14T10:30:21.340883+10:00", "external_links": [], "uuid": "3d3d441e-84c9-45cf-a628-caa02fac376e", "source": {"name": "Vernon", "slug": "vernon"}, "source_identifier": "8381", "external_references": [], "date_modified": "2023-08-14T10:30:21.341200+10:00"}, {"id": 17522, "name": "Hilda Limper", "roles_in_work": [{"id": 2237332, "title": "Reaching out: the library and the exceptional child", "work_id": 72070, "role": "director", "role_id": 938, "is_primary": true}], "also_known_as": "", "date_of_birth": "", "date_of_death": "", "genders": [], "languages": [], "places_of_operation": [], "biography": "", "biography_author": null, "date_of_biography": "2023-05-09T16:47:42.428752+10:00", "external_links": [], "uuid": "a336c88e-bcd8-41bd-952e-3fb5370e79f0", "source": {"name": "Vernon", "slug": "vernon"}, "source_identifier": "20559", "external_references": [{"id": 40154, "source": {"name": "Wikidata", "slug": "wikidata"}, "source_identifier": "Q121035928"}], "date_modified": "2023-09-05T20:39:20.067961+10:00"}, {"id": 17521, "name": "Courtaulds", "roles_in_work": [{"id": 857506, "title": "Rayon: first among fibres", "work_id": 72065, "role": "production company", "role_id": 941, "is_primary": true}, {"id": 2469674, "title": "Usutu", "work_id": 74261, "role": "production company", "role_id": 941, "is_primary": true}], "also_known_as": "", "date_of_birth": "", "date_of_death": "", "genders": [], "languages": [], "places_of_operation": [], "biography": "", "biography_author": null, "date_of_biography": "2023-08-14T12:06:21.066470+10:00", "external_links": [], "uuid": "4ebc9cc5-1a09-41c3-a708-eeff46d66e85", "source": {"name": "Vernon", "slug": "vernon"}, "source_identifier": "7124", "external_references": [], "date_modified": "2023-08-14T12:06:21.066872+10:00"}, {"id": 17519, "name": "Stuart Wynn Jones", "roles_in_work": [{"id": 2752118, "title": "Shortspell", "work_id": 98149, "role": "director", "role_id": 938, "is_primary": true}, {"id": 857501, "title": "Raving waving", "work_id": 72063, "role": "director", "role_id": 938, "is_primary": true}], "also_known_as": "", "date_of_birth": "", "date_of_death": "", "genders": [], "languages": [], "places_of_operation": [], "biography": "", "biography_author": null, "date_of_biography": "2023-08-14T10:44:00.449384+10:00", "external_links": [], "uuid": "727e0fc0-0230-439c-b920-ca6f76802c47", "source": {"name": "Vernon", "slug": "vernon"}, "source_identifier": "29274", "external_references": [], "date_modified": "2025-03-13T00:57:28.279789+11:00"}, {"id": 17517, "name": "Elinor Shields", "roles_in_work": [{"id": 2465232, "title": "Rape: the right to resist", "work_id": 72057, "role": "producer", "role_id": 1089, "is_primary": true}], "also_known_as": "", "date_of_birth": "", "date_of_death": "", "genders": [], "languages": [], "places_of_operation": [], "biography": "", "biography_author": null, "date_of_biography": "2023-08-14T10:30:10.012250+10:00", "external_links": [], "uuid": "0985f4c3-7d01-466b-a776-0933adcd88d5", "source": {"name": "Vernon", "slug": "vernon"}, "source_identifier": "18685", "external_references": [], "date_modified": "2023-08-14T10:30:10.012526+10:00"}, {"id": 17516, "name": "Mercenary Productions", "roles_in_work": [{"id": 2465231, "title": "Rape: the right to resist", "work_id": 72057, "role": "production company", "role_id": 941, "is_primary": true}], "also_known_as": "", "date_of_birth": "", "date_of_death": "", "genders": [], "languages": [], "places_of_operation": [], "biography": "", "biography_author": null, "date_of_biography": "2023-08-14T10:30:09.344696+10:00", "external_links": [], "uuid": "65566b8e-a9d6-4090-ad96-a358fdc9d32d", "source": {"name": "Vernon", "slug": "vernon"}, "source_identifier": "10472", "external_references": [], "date_modified": "2023-08-14T10:30:09.344986+10:00"}, {"id": 17512, "name": "Castle Hill Brenchley", "roles_in_work": [{"id": 2235430, "title": "Raku - English style", "work_id": 72052, "role": "production company", "role_id": 941, "is_primary": true}], "also_known_as": "", "date_of_birth": "", "date_of_death": "", "genders": [], "languages": [], "places_of_operation": [], "biography": "", "biography_author": null, "date_of_biography": "2023-05-09T16:45:00.908292+10:00", "external_links": [], "uuid": "5a624023-408a-4259-a554-dfc0c879b844", "source": {"name": "Vernon", "slug": "vernon"}, "source_identifier": "6341", "external_references": [{"id": 37134, "source": {"name": "Wikidata", "slug": "wikidata"}, "source_identifier": "Q121091348"}], "date_modified": "2023-09-05T18:22:06.145273+10:00"}, {"id": 17510, "name": "D R D Productions", "roles_in_work": [{"id": 2235391, "title": "Rajput glory", "work_id": 72050, "role": "production company", "role_id": 941, "is_primary": true}], "also_known_as": "", "date_of_birth": "", "date_of_death": "", "genders": [], "languages": [], "places_of_operation": [], "biography": "", "biography_author": null, "date_of_biography": "2023-05-09T16:44:56.562685+10:00", "external_links": [], "uuid": "659cb93a-c278-4440-8818-1013a9738c8d", "source": {"name": "Vernon", "slug": "vernon"}, "source_identifier": "7286", "external_references": [{"id": 50757, "source": {"name": "Wikidata", "slug": "wikidata"}, "source_identifier": "Q121357567"}], "date_modified": "2023-09-05T18:48:28.462446+10:00"}, {"id": 17507, "name": "Bill Melendez", "roles_in_work": [{"id": 2189591, "title": "Dick Deadeye or duty done", "work_id": 95448, "role": "director", "role_id": 938, "is_primary": true}, {"id": 1984540, "title": "The Lion, the witch and the wardrobe", "work_id": 80340, "role": "director", "role_id": 938, "is_primary": true}, {"id": 918082, "title": "Yes, Virginia, there is a Santa Claus", "work_id": 95502, "role": "co-director", "role_id": 959, "is_primary": true}, {"id": 2105943, "title": "Babar. Story of Babar the little elephant. Babar comes to America.", "work_id": 78803, "role": "co-director", "role_id": 959, "is_primary": true}, {"id": 2105933, "title": "Babar. Story of Babar the little elephant. Babar comes to America.", "work_id": 78803, "role": "co-producer", "role_id": 915, "is_primary": true}, {"id": 918080, "title": "Yes, Virginia, there is a Santa Claus", "work_id": 95502, "role": "co-producer", "role_id": 915, "is_primary": true}, {"id": 857464, "title": "The Rainbow bear", "work_id": 72045, "role": "producer/director", "role_id": 31, "is_primary": true}], "also_known_as": "José Luis Cuauhtémoc Meléndez", "date_of_birth": "1916-11-15", "date_of_death": "2008-09-02", "genders": [{"id": 9, "name": "Male", "slug": "male"}], "languages": [{"id": 1, "name": "English", "slug": "english"}], "places_of_operation": [{"id": 1, "name": "United States of America", "slug": "united-states-of-america"}], "biography": "José Cuauhtémoc \"Bill\" Melendez (November 15, 1916 – September 2, 2008) was an American character animator, voice actor, film director and producer. Melendez is known for working on the Peanuts animated specials. Before Peanuts, he previously worked as an animator for Walt Disney Productions, Warner Bros. Cartoons, and UPA. Melendez provided the voices of Snoopy and Woodstock in the latter as well.\nIn a career spanning over 60 years, he won six Primetime Emmy Awards and was nominated for thirteen more. In addition, he was nominated for an Oscar and five Grammy Awards. The two Peanuts specials, A Charlie Brown Christmas and What Have We Learned, Charlie Brown?, which he directed, were each honored with a Peabody Award.", "biography_author": "Wikidata", "date_of_biography": "2023-08-01T14:13:28.790492+10:00", "external_links": [{"id": 3654, "uri": "https://en.wikipedia.org/wiki/Bill_Melendez"}], "uuid": "7f9848a3-6336-448b-b6a1-d884ba23bebd", "source": {"name": "Vernon", "slug": "vernon"}, "source_identifier": "15983", "external_references": [{"id": 25911, "source": {"name": "Wikidata", "slug": "wikidata"}, "source_identifier": "Q862316"}, {"id": 27531, "source": {"name": "VIAF", "slug": "viaf"}, "source_identifier": "56831815"}, {"id": 27532, "source": {"name": "LOC Auth", "slug": "loc-auth"}, "source_identifier": "no99060861"}, {"id": 27533, "source": {"name": "WorldCat", "slug": "worldcat"}, "source_identifier": "lccn-no99060861"}], "date_modified": "2023-09-05T18:03:53.456840+10:00"}, {"id": 17506, "name": "Bill Melendez Productions", "roles_in_work": [{"id": 2189588, "title": "Dick Deadeye or duty done", "work_id": 95448, "role": "production company", "role_id": 941, "is_primary": true}, {"id": 857462, "title": "The Rainbow bear", "work_id": 72045, "role": "production company", "role_id": 941, "is_primary": true}], "also_known_as": "", "date_of_birth": "", "date_of_death": "", "genders": [], "languages": [], "places_of_operation": [], "biography": "", "biography_author": null, "date_of_biography": "2023-05-09T15:06:45.806692+10:00", "external_links": [], "uuid": "25a650a9-3cbe-49a8-aeac-af61e02907a1", "source": {"name": "Vernon", "slug": "vernon"}, "source_identifier": "5855", "external_references": [], "date_modified": "2023-06-14T16:33:30.576250+10:00"}]}