{"count": 28687, "next": "https://api.acmi.net.au/creators/?page=1440", "previous": "https://api.acmi.net.au/creators/?page=1438", "results": [{"id": 35787, "name": "Tabaluga GbmH", "roles_in_work": [{"id": 2321105, "title": "Tabaluga. Volume 4", "work_id": 93985, "role": "production company", "role_id": 941, "is_primary": true}, {"id": 2321131, "title": "Tabaluga. Volume 5", "work_id": 93984, "role": "production company", "role_id": 941, "is_primary": true}, {"id": 2321141, "title": "Tabaluga. Volume 3", "work_id": 93841, "role": "production company", "role_id": 941, "is_primary": true}], "also_known_as": "", "date_of_birth": "", "date_of_death": "", "genders": [], "languages": [], "places_of_operation": [], "biography": "", "biography_author": null, "date_of_biography": "2023-05-09T19:12:14.627460+10:00", "external_links": [], "uuid": "335a38af-56e0-4988-98c6-b68000ba40cb", "source": {"name": "Vernon", "slug": "vernon"}, "source_identifier": "13132", "external_references": [{"id": 50774, "source": {"name": "Wikidata", "slug": "wikidata"}, "source_identifier": "Q121357661"}], "date_modified": "2023-09-06T01:40:00.656735+10:00"}, {"id": 35784, "name": "Metafilmics", "roles_in_work": [{"id": 2290180, "title": "What dreams may come", "work_id": 93840, "role": "production company", "role_id": 941, "is_primary": true}], "also_known_as": "", "date_of_birth": "", "date_of_death": "", "genders": [], "languages": [], "places_of_operation": [], "biography": "", "biography_author": null, "date_of_biography": "2023-05-09T18:17:39.781743+10:00", "external_links": [], "uuid": "9cfe525b-7eed-427b-9aaf-511a34d23232", "source": {"name": "Vernon", "slug": "vernon"}, "source_identifier": "10480", "external_references": [{"id": 33026, "source": {"name": "Wikidata", "slug": "wikidata"}, "source_identifier": "Q121036061"}], "date_modified": "2023-09-05T23:01:35.670461+10:00"}, {"id": 35774, "name": "Helen Stephens", "roles_in_work": [{"id": 2305701, "title": "Sooty & Co.", "work_id": 93834, "role": "producer", "role_id": 1089, "is_primary": true}], "also_known_as": "", "date_of_birth": "", "date_of_death": "", "genders": [], "languages": [], "places_of_operation": [], "biography": "", "biography_author": null, "date_of_biography": "2023-05-09T18:44:34.711048+10:00", "external_links": [], "uuid": "c08772df-97e0-4add-a1b9-a86cea82c771", "source": {"name": "Vernon", "slug": "vernon"}, "source_identifier": "20439", "external_references": [], "date_modified": "2023-06-14T16:33:30.576250+10:00"}, {"id": 35773, "name": "Sooty Films Productions", "roles_in_work": [{"id": 2305681, "title": "Sooty & Co.", "work_id": 93834, "role": "production company", "role_id": 941, "is_primary": true}], "also_known_as": "", "date_of_birth": "", "date_of_death": "", "genders": [], "languages": [], "places_of_operation": [], "biography": "", "biography_author": null, "date_of_biography": "2023-05-09T18:44:32.561727+10:00", "external_links": [], "uuid": "2fb19748-f51f-4f4e-843e-ed21a9baf4ff", "source": {"name": "Vernon", "slug": "vernon"}, "source_identifier": "12752", "external_references": [], "date_modified": "2023-06-14T16:33:30.576250+10:00"}, {"id": 35770, "name": "Sita Williams", "roles_in_work": [{"id": 2349073, "title": "The Forsyte saga (2002) [DVD]", "work_id": 93854, "role": "producer", "role_id": 1089, "is_primary": true}], "also_known_as": "", "date_of_birth": "", "date_of_death": "", "genders": [], "languages": [], "places_of_operation": [], "biography": "", "biography_author": null, "date_of_biography": "2023-05-09T19:52:51.752371+10:00", "external_links": [], "uuid": "f8f6184c-4e0c-4bab-9be6-c499eb4a422e", "source": {"name": "Vernon", "slug": "vernon"}, "source_identifier": "28875", "external_references": [{"id": 37992, "source": {"name": "Wikidata", "slug": "wikidata"}, "source_identifier": "Q121143991"}], "date_modified": "2023-09-06T01:21:30.358063+10:00"}, {"id": 35765, "name": "Czech Tourist Authority", "roles_in_work": [{"id": 883593, "title": "Reflections of the Czech Republic", "work_id": 93829, "role": "production company", "role_id": 941, "is_primary": true}, {"id": 2405449, "title": "Czechia: the Czech Republic today - tourist regions", "work_id": 93828, "role": "production company", "role_id": 941, "is_primary": true}], "also_known_as": "", "date_of_birth": "", "date_of_death": "", "genders": [], "languages": [], "places_of_operation": [], "biography": "", "biography_author": null, "date_of_biography": "2023-08-11T15:52:39.282995+10:00", "external_links": [], "uuid": "cbb1d061-ae44-4747-9006-84a6ca4908aa", "source": {"name": "Vernon", "slug": "vernon"}, "source_identifier": "7269", "external_references": [], "date_modified": "2023-08-11T15:52:39.283271+10:00"}, {"id": 35764, "name": "Va Unisa", "roles_in_work": [{"id": 2405448, "title": "Czechia: the Czech Republic today - tourist regions", "work_id": 93828, "role": "production company", "role_id": 941, "is_primary": true}], "also_known_as": "", "date_of_birth": "", "date_of_death": "", "genders": [], "languages": [], "places_of_operation": [], "biography": "", "biography_author": null, "date_of_biography": "2023-08-11T15:52:38.663914+10:00", "external_links": [], "uuid": "dc9d1cc8-e551-4285-95ec-94f36cbe04db", "source": {"name": "Vernon", "slug": "vernon"}, "source_identifier": "13980", "external_references": [], "date_modified": "2023-08-11T15:52:38.664245+10:00"}, {"id": 35763, "name": "Terra-Klub", "roles_in_work": [{"id": 2405447, "title": "Czechia: the Czech Republic today - tourist regions", "work_id": 93828, "role": "production company", "role_id": 941, "is_primary": true}], "also_known_as": "", "date_of_birth": "", "date_of_death": "", "genders": [], "languages": [], "places_of_operation": [], "biography": "", "biography_author": null, "date_of_biography": "2023-08-11T15:52:38.026497+10:00", "external_links": [], "uuid": "2b0c852b-2dcf-4e97-842c-34273a466347", "source": {"name": "Vernon", "slug": "vernon"}, "source_identifier": "13297", "external_references": [], "date_modified": "2023-08-11T15:52:38.026773+10:00"}, {"id": 35762, "name": "Malcolm St Clair", "roles_in_work": [{"id": 883589, "title": "The Show off [NTSC]", "work_id": 93826, "role": "director", "role_id": 938, "is_primary": true}, {"id": 2332792, "title": "The Blacksmith", "work_id": 91025, "role": "co-director", "role_id": 959, "is_primary": true}], "also_known_as": "", "date_of_birth": "1897-05-17", "date_of_death": "1952-06-01", "genders": [{"id": 9, "name": "Male", "slug": "male"}], "languages": [{"id": 1, "name": "English", "slug": "english"}], "places_of_operation": [{"id": 1, "name": "United States of America", "slug": "united-states-of-america"}], "biography": "Malcolm St. Clair (May 17, 1897 – June 1, 1952) was a Hollywood film director, writer, producer and actor.", "biography_author": "Wikidata", "date_of_biography": "2023-09-05T22:37:47.166742+10:00", "external_links": [{"id": 5990, "uri": "https://en.wikipedia.org/wiki/Malcolm_St._Clair_(filmmaker)"}], "uuid": "8bae6fb8-4443-42a8-895b-99e45ce4c151", "source": {"name": "Vernon", "slug": "vernon"}, "source_identifier": "24233", "external_references": [{"id": 33387, "source": {"name": "Wikidata", "slug": "wikidata"}, "source_identifier": "Q1760495"}, {"id": 55114, "source": {"name": "VIAF", "slug": "viaf"}, "source_identifier": "24809436"}, {"id": 55115, "source": {"name": "LOC Auth", "slug": "loc-auth"}, "source_identifier": "n87896455"}, {"id": 55116, "source": {"name": "WorldCat", "slug": "worldcat"}, "source_identifier": "lccn-n87896455"}], "date_modified": "2023-09-05T22:37:50.160720+10:00"}, {"id": 35759, "name": "Veronica Iacono", "roles_in_work": [{"id": 3085623, "title": "My mother Nancy", "work_id": 94047, "role": "director", "role_id": 938, "is_primary": true}, {"id": 2321557, "title": "Tales from a suitcase 2", "work_id": 93816, "role": "co-director", "role_id": 959, "is_primary": true}], "also_known_as": "", "date_of_birth": "", "date_of_death": "", "genders": [], "languages": [], "places_of_operation": [], "biography": "", "biography_author": null, "date_of_biography": "2023-05-09T19:12:47.647145+10:00", "external_links": [], "uuid": "d4b7d73d-eb99-4527-bb30-8164a606f78f", "source": {"name": "Vernon", "slug": "vernon"}, "source_identifier": "30078", "external_references": [{"id": 41180, "source": {"name": "Wikidata", "slug": "wikidata"}, "source_identifier": "Q121337431"}], "date_modified": "2025-03-17T10:40:47.401698+11:00"}]}