{"count": 28687, "next": "https://api.acmi.net.au/creators/?page=2749", "previous": "https://api.acmi.net.au/creators/?page=2747", "results": [{"id": 10751, "name": "Jessica Robertson", "roles_in_work": [{"id": 2637112, "title": "Safe place", "work_id": 109792, "role": "director", "role_id": 938, "is_primary": true}, {"id": 2637110, "title": "Safe place", "work_id": 109792, "role": "producer", "role_id": 1089, "is_primary": true}, {"id": 2637113, "title": "Safe place", "work_id": 109792, "role": "writer", "role_id": 939, "is_primary": true}], "also_known_as": "", "date_of_birth": "", "date_of_death": "", "genders": [], "languages": [], "places_of_operation": [], "biography": "", "biography_author": null, "date_of_biography": "2023-05-09T17:13:52.958797+10:00", "external_links": [], "uuid": "65aa9d88-0f06-4c7d-860c-82e1ff6d3d49", "source": {"name": "Vernon", "slug": "vernon"}, "source_identifier": "2407", "external_references": [{"id": 38259, "source": {"name": "Wikidata", "slug": "wikidata"}, "source_identifier": "Q121079177"}], "date_modified": "2025-03-05T10:43:14.500642+11:00"}, {"id": 10750, "name": "Daniel Kalandyk", "roles_in_work": [{"id": 2637130, "title": "[Untitled]", "work_id": 109791, "role": "creator", "role_id": 968, "is_primary": true}], "also_known_as": "", "date_of_birth": "", "date_of_death": "", "genders": [], "languages": [], "places_of_operation": [], "biography": "", "biography_author": null, "date_of_biography": "2023-05-09T17:13:57.264399+10:00", "external_links": [], "uuid": "4e3842fe-f81b-421e-845c-d15d00400594", "source": {"name": "Vernon", "slug": "vernon"}, "source_identifier": "2406", "external_references": [], "date_modified": "2025-03-05T10:43:22.232511+11:00"}, {"id": 10748, "name": "Kenneth Cheong", "roles_in_work": [{"id": 2637128, "title": "Walk", "work_id": 109788, "role": "director", "role_id": 938, "is_primary": true}, {"id": 2641610, "title": "The Auction", "work_id": 110772, "role": "creator", "role_id": 968, "is_primary": true}, {"id": 2637127, "title": "Walk", "work_id": 109788, "role": "producer", "role_id": 1089, "is_primary": true}, {"id": 2637129, "title": "Walk", "work_id": 109788, "role": "writer", "role_id": 939, "is_primary": true}], "also_known_as": "", "date_of_birth": "", "date_of_death": "", "genders": [], "languages": [], "places_of_operation": [], "biography": "", "biography_author": null, "date_of_biography": "2023-05-09T20:01:39.455068+10:00", "external_links": [], "uuid": "6c89759f-97e6-4426-89ac-6b7084d4d15c", "source": {"name": "Vernon", "slug": "vernon"}, "source_identifier": "2404", "external_references": [], "date_modified": "2025-03-05T11:37:20.717706+11:00"}, {"id": 10747, "name": "Cornel Wilczek", "roles_in_work": [{"id": 2637117, "title": "Tea monster", "work_id": 109787, "role": "director", "role_id": 938, "is_primary": true}, {"id": 2637119, "title": "Tea monster", "work_id": 109787, "role": "animator", "role_id": 497, "is_primary": false}, {"id": 2637116, "title": "Tea monster", "work_id": 109787, "role": "writer", "role_id": 939, "is_primary": true}], "also_known_as": "", "date_of_birth": "", "date_of_death": "", "genders": [], "languages": [], "places_of_operation": [], "biography": "", "biography_author": null, "date_of_biography": "2023-05-09T17:13:53.928914+10:00", "external_links": [], "uuid": "1be459db-cf62-4cb5-85d5-613cd1315504", "source": {"name": "Vernon", "slug": "vernon"}, "source_identifier": "2403", "external_references": [{"id": 33064, "source": {"name": "Wikidata", "slug": "wikidata"}, "source_identifier": "Q121299368"}], "date_modified": "2025-03-05T10:43:16.505482+11:00"}, {"id": 10746, "name": "Paul Robertson", "roles_in_work": [{"id": 2637079, "title": "Cuttlefish dreams: Hyper parsnip bitches", "work_id": 109785, "role": "director", "role_id": 938, "is_primary": true}, {"id": 2637075, "title": "Cuttlefish dreams: Hyper parsnip bitches", "work_id": 109785, "role": "animator", "role_id": 497, "is_primary": false}, {"id": 2637077, "title": "Cuttlefish dreams: Hyper parsnip bitches", "work_id": 109785, "role": "writer", "role_id": 939, "is_primary": true}], "also_known_as": "", "date_of_birth": "", "date_of_death": "", "genders": [], "languages": [], "places_of_operation": [], "biography": "", "biography_author": null, "date_of_biography": "2023-05-09T17:13:45.936366+10:00", "external_links": [], "uuid": "22edc392-4125-44ca-8e45-08fbdf2deac5", "source": {"name": "Vernon", "slug": "vernon"}, "source_identifier": "2402", "external_references": [{"id": 38481, "source": {"name": "Wikidata", "slug": "wikidata"}, "source_identifier": "Q120495660"}], "date_modified": "2025-03-05T10:43:01.604501+11:00"}, {"id": 10744, "name": "Luisa Rausa", "roles_in_work": [{"id": 2637142, "title": "Silvia - boys", "work_id": 109782, "role": "creator", "role_id": 968, "is_primary": true}], "also_known_as": "", "date_of_birth": "", "date_of_death": "", "genders": [], "languages": [], "places_of_operation": [], "biography": "", "biography_author": null, "date_of_biography": "2023-05-09T18:59:50.690089+10:00", "external_links": [], "uuid": "cdcafde9-38b6-42f9-b9d0-b511b34bfc5b", "source": {"name": "Vernon", "slug": "vernon"}, "source_identifier": "2400", "external_references": [], "date_modified": "2025-03-05T10:43:31.401005+11:00"}, {"id": 10743, "name": "Salote Tawale", "roles_in_work": [{"id": 2637135, "title": "Buffet of desire", "work_id": 109781, "role": "director", "role_id": 938, "is_primary": true}, {"id": 2638765, "title": "Rollergirl", "work_id": 110739, "role": "creator", "role_id": 968, "is_primary": true}, {"id": 2638770, "title": "Superheroes", "work_id": 110548, "role": "creator", "role_id": 968, "is_primary": true}], "also_known_as": "", "date_of_birth": "", "date_of_death": "", "genders": [], "languages": [], "places_of_operation": [], "biography": "", "biography_author": null, "date_of_biography": "2023-05-09T18:59:47.503045+10:00", "external_links": [], "uuid": "df2e1dc2-bb99-4f77-806f-cc0d4a976283", "source": {"name": "Vernon", "slug": "vernon"}, "source_identifier": "2399", "external_references": [{"id": 34174, "source": {"name": "Wikidata", "slug": "wikidata"}, "source_identifier": "Q121034303"}], "date_modified": "2025-03-05T11:10:37.276515+11:00"}, {"id": 10742, "name": "Marina Sipos", "roles_in_work": [{"id": 2637147, "title": "White poison", "work_id": 109780, "role": "director", "role_id": 938, "is_primary": true}, {"id": 2637149, "title": "Akita", "work_id": 109784, "role": "director", "role_id": 938, "is_primary": true}, {"id": 2637148, "title": "White poison", "work_id": 109780, "role": "animator", "role_id": 497, "is_primary": false}, {"id": 2637150, "title": "Akita", "work_id": 109784, "role": "animator", "role_id": 497, "is_primary": false}, {"id": 2637151, "title": "Akita", "work_id": 109784, "role": "writer", "role_id": 939, "is_primary": true}], "also_known_as": "", "date_of_birth": "", "date_of_death": "", "genders": [], "languages": [], "places_of_operation": [], "biography": "", "biography_author": null, "date_of_biography": "2023-05-09T18:59:54.127542+10:00", "external_links": [], "uuid": "d7c66221-3afd-465b-b189-bb9536aab4e5", "source": {"name": "Vernon", "slug": "vernon"}, "source_identifier": "2398", "external_references": [{"id": 39498, "source": {"name": "Wikidata", "slug": "wikidata"}, "source_identifier": "Q121271199"}], "date_modified": "2025-03-05T10:43:37.562801+11:00"}, {"id": 10741, "name": "Jessie Scott", "roles_in_work": [{"id": 2637138, "title": "Interiors", "work_id": 109778, "role": "director", "role_id": 938, "is_primary": true}, {"id": 2638761, "title": "Labours", "work_id": 110745, "role": "creator", "role_id": 968, "is_primary": true}, {"id": 2637139, "title": "Interiors", "work_id": 109778, "role": "performer", "role_id": 576, "is_primary": false}, {"id": 2637137, "title": "Interiors", "work_id": 109778, "role": "writer", "role_id": 939, "is_primary": true}], "also_known_as": "", "date_of_birth": "", "date_of_death": "", "genders": [], "languages": [], "places_of_operation": [], "biography": "", "biography_author": null, "date_of_biography": "2023-05-09T18:59:48.989312+10:00", "external_links": [], "uuid": "9020d4e9-2b79-460e-a494-c0c87f432eff", "source": {"name": "Vernon", "slug": "vernon"}, "source_identifier": "2397", "external_references": [{"id": 40762, "source": {"name": "Wikidata", "slug": "wikidata"}, "source_identifier": "Q121035218"}], "date_modified": "2025-03-05T11:10:31.172236+11:00"}, {"id": 10740, "name": "Collette Dane", "roles_in_work": [{"id": 2637133, "title": "Agneau", "work_id": 109777, "role": "creator", "role_id": 968, "is_primary": true}], "also_known_as": "", "date_of_birth": "", "date_of_death": "", "genders": [], "languages": [], "places_of_operation": [], "biography": "", "biography_author": null, "date_of_biography": "2023-05-09T18:59:46.354708+10:00", "external_links": [], "uuid": "7d977ab3-4ab1-40a7-a483-d67a1e990fa0", "source": {"name": "Vernon", "slug": "vernon"}, "source_identifier": "34730", "external_references": [], "date_modified": "2025-03-05T10:43:24.654870+11:00"}]}