{"count": 28687, "next": "https://api.acmi.net.au/creators/?page=683", "previous": "https://api.acmi.net.au/creators/?page=681", "results": [{"id": 78763, "name": "Bernhard Wicki", "roles_in_work": [{"id": 2475816, "title": "The Longest day", "work_id": 88098, "role": "co-director", "role_id": 959, "is_primary": true}], "also_known_as": "", "date_of_birth": "1919-10-28", "date_of_death": "2000-01-05", "genders": [{"id": 9, "name": "Male", "slug": "male"}], "languages": [{"id": 5, "name": "German", "slug": "german"}], "places_of_operation": [{"id": 39, "name": "Austria", "slug": "austria"}], "biography": "Bernhard Wicki (28 October 1919 – 5 January 2000) was an Austrian-Swiss actor, film director and screenwriter. He was a key figure in the revitalization of post-war German-language cinema, particularly in West Germany, and also directed several Hollywood films.His works as a director include his debut 1959 anti-war film Die Brücke, the religious drama The Miracle of Father Malachia (1961), the Friedrich Dürrenmatt adaptation The Visit (1964), and the German segments of the World War II epic The Longest Day (1962). He won four German Film Awards for Best Direction.", "biography_author": "Wikidata", "date_of_biography": "2023-09-05T17:59:56.757691+10:00", "external_links": [{"id": 1713, "uri": "https://en.wikipedia.org/wiki/Bernhard_Wicki"}], "uuid": "dcebbd3e-58d9-494c-afd7-744cefd4f5dd", "source": {"name": "Vernon", "slug": "vernon"}, "source_identifier": "15856", "external_references": [{"id": 7475, "source": {"name": "Wikidata", "slug": "wikidata"}, "source_identifier": "Q78924"}, {"id": 7476, "source": {"name": "VIAF", "slug": "viaf"}, "source_identifier": "29729081"}, {"id": 7477, "source": {"name": "LOC Auth", "slug": "loc-auth"}, "source_identifier": "n96000233"}, {"id": 7478, "source": {"name": "WorldCat", "slug": "worldcat"}, "source_identifier": "lccn-n96000233"}], "date_modified": "2023-09-05T17:59:56.767982+10:00"}, {"id": 78762, "name": "William Cran", "roles_in_work": [{"id": 3081179, "title": "Lenin's secret files", "work_id": 88095, "role": "producer", "role_id": 1089, "is_primary": true}], "also_known_as": "", "date_of_birth": "", "date_of_death": "", "genders": [], "languages": [], "places_of_operation": [], "biography": "", "biography_author": null, "date_of_biography": "2023-05-09T19:20:29.307914+10:00", "external_links": [], "uuid": "3b91a9ec-3199-45fa-a22b-d94a927684fb", "source": {"name": "Vernon", "slug": "vernon"}, "source_identifier": "30398", "external_references": [{"id": 38662, "source": {"name": "Wikidata", "slug": "wikidata"}, "source_identifier": "Q121091070"}], "date_modified": "2025-03-17T10:22:45.261833+11:00"}, {"id": 78761, "name": "Arnold Stiefel", "roles_in_work": [{"id": 1992424, "title": "Midnight in the garden of good and evil", "work_id": 88093, "role": "co-producer", "role_id": 915, "is_primary": true}], "also_known_as": "", "date_of_birth": null, "date_of_death": null, "genders": [], "languages": [], "places_of_operation": [], "biography": "", "biography_author": null, "date_of_biography": null, "external_links": [], "uuid": "a709de6d-cc08-4eef-9d61-b83605116cf0", "source": {"name": "Vernon", "slug": "vernon"}, "source_identifier": null, "external_references": [{"id": 43141, "source": {"name": "Wikidata", "slug": "wikidata"}, "source_identifier": "Q121036465"}], "date_modified": "2023-09-05T17:45:32.809788+10:00"}, {"id": 78760, "name": "Andrew Myer", "roles_in_work": [{"id": 2234792, "title": "Radiance", "work_id": 88092, "role": "co-producer", "role_id": 915, "is_primary": true}], "also_known_as": "", "date_of_birth": "", "date_of_death": "", "genders": [], "languages": [], "places_of_operation": [], "biography": "", "biography_author": null, "date_of_biography": "2023-05-09T16:44:00.966213+10:00", "external_links": [], "uuid": "977852f2-af00-444f-9ddd-177fd9aae1e4", "source": {"name": "Vernon", "slug": "vernon"}, "source_identifier": "15202", "external_references": [{"id": 41661, "source": {"name": "Wikidata", "slug": "wikidata"}, "source_identifier": "Q121270856"}], "date_modified": "2023-09-05T17:36:21.770280+10:00"}, {"id": 78759, "name": "Barbara Greene", "roles_in_work": [{"id": 2050372, "title": "'round and 'round", "work_id": 88079, "role": "director", "role_id": 938, "is_primary": true}], "also_known_as": "", "date_of_birth": "", "date_of_death": "", "genders": [], "languages": [], "places_of_operation": [], "biography": "", "biography_author": null, "date_of_biography": "2023-05-09T09:54:24.736685+10:00", "external_links": [], "uuid": "0ed7e9f9-08e6-472f-8d45-bb8fb786753c", "source": {"name": "Vernon", "slug": "vernon"}, "source_identifier": "15646", "external_references": [{"id": 43439, "source": {"name": "Wikidata", "slug": "wikidata"}, "source_identifier": "Q121126812"}], "date_modified": "2023-09-05T17:53:06.984280+10:00"}, {"id": 78758, "name": "Mathew Kelley", "roles_in_work": [{"id": 2114780, "title": "Big brother of Christmas Island: Tai Ko Seng [Widescreen]", "work_id": 88068, "role": "director", "role_id": 938, "is_primary": true}], "also_known_as": "", "date_of_birth": "", "date_of_death": "", "genders": [], "languages": [], "places_of_operation": [], "biography": "", "biography_author": null, "date_of_biography": "2023-05-09T12:52:37.159671+10:00", "external_links": [], "uuid": "4ab007c7-3d42-4bdb-ae27-ee9befa47635", "source": {"name": "Vernon", "slug": "vernon"}, "source_identifier": "24775", "external_references": [{"id": 33302, "source": {"name": "Wikidata", "slug": "wikidata"}, "source_identifier": "Q121159771"}], "date_modified": "2023-09-05T22:53:52.832264+10:00"}, {"id": 78757, "name": "Samantha Kelley", "roles_in_work": [{"id": 2114776, "title": "Big brother of Christmas Island: Tai Ko Seng [Widescreen]", "work_id": 88068, "role": "co-producer", "role_id": 915, "is_primary": true}, {"id": 2238602, "title": "Fearless: stories from Asian women", "work_id": 94966, "role": "co-producer", "role_id": 915, "is_primary": true}], "also_known_as": "", "date_of_birth": "", "date_of_death": "", "genders": [], "languages": [], "places_of_operation": [], "biography": "", "biography_author": null, "date_of_biography": "2023-05-09T16:49:51.289492+10:00", "external_links": [], "uuid": "fb7534e8-9c7d-400e-91c0-8eedd192f8f7", "source": {"name": "Vernon", "slug": "vernon"}, "source_identifier": "28505", "external_references": [{"id": 32262, "source": {"name": "Wikidata", "slug": "wikidata"}, "source_identifier": "Q121036414"}], "date_modified": "2023-09-06T01:03:36.902708+10:00"}, {"id": 78756, "name": "Sarah Stephens", "roles_in_work": [{"id": 1427920, "title": "Untold desires", "work_id": 88066, "role": "director", "role_id": 938, "is_primary": true}], "also_known_as": "", "date_of_birth": null, "date_of_death": null, "genders": [], "languages": [], "places_of_operation": [], "biography": "", "biography_author": null, "date_of_biography": null, "external_links": [], "uuid": "9ddaf6c9-5c2e-4d90-9c92-c8c0e2131f7a", "source": {"name": "Vernon", "slug": "vernon"}, "source_identifier": null, "external_references": [{"id": 41476, "source": {"name": "Wikidata", "slug": "wikidata"}, "source_identifier": "Q121337486"}], "date_modified": "2023-09-06T01:06:40.147359+10:00"}, {"id": 78755, "name": "Andrew Davenport", "roles_in_work": [{"id": 2172055, "title": "Dance with teletubbies", "work_id": 88063, "role": "co-producer", "role_id": 915, "is_primary": true}], "also_known_as": "", "date_of_birth": "", "date_of_death": "", "genders": [], "languages": [], "places_of_operation": [], "biography": "", "biography_author": null, "date_of_biography": "2023-05-09T14:37:34.999069+10:00", "external_links": [], "uuid": "f0bf3d53-29e9-4a1b-8a1e-3bc27fdb164d", "source": {"name": "Vernon", "slug": "vernon"}, "source_identifier": "15151", "external_references": [{"id": 36357, "source": {"name": "Wikidata", "slug": "wikidata"}, "source_identifier": "Q121299456"}], "date_modified": "2023-09-05T17:35:08.894034+10:00"}, {"id": 78754, "name": "Nick Bleszinski", "roles_in_work": [{"id": 2125652, "title": "Bronzed Aussie gods", "work_id": 88062, "role": "co-producer", "role_id": 915, "is_primary": true}], "also_known_as": "", "date_of_birth": "", "date_of_death": "", "genders": [], "languages": [], "places_of_operation": [], "biography": "", "biography_author": null, "date_of_biography": "2023-05-09T13:10:32.741195+10:00", "external_links": [], "uuid": "f5fbcc13-1064-44a2-8298-457b564f387f", "source": {"name": "Vernon", "slug": "vernon"}, "source_identifier": "25734", "external_references": [{"id": 42675, "source": {"name": "Wikidata", "slug": "wikidata"}, "source_identifier": "Q121126622"}], "date_modified": "2023-09-05T23:29:35.112587+10:00"}]}