{"count": 28687, "next": "https://api.acmi.net.au/creators/?page=2401", "previous": "https://api.acmi.net.au/creators/?page=2399", "results": [{"id": 15161, "name": "Philip Owtram", "roles_in_work": [{"id": 2714301, "title": "Friend and foe", "work_id": 67838, "role": "director", "role_id": 938, "is_primary": true}, {"id": 2647001, "title": "Your house in order?", "work_id": 75042, "role": "director", "role_id": 938, "is_primary": true}, {"id": 854183, "title": "The Land must provide", "work_id": 69482, "role": "director", "role_id": 938, "is_primary": true}, {"id": 760759, "title": "Stonehenge. - Rev. ed.", "work_id": 75948, "role": "director", "role_id": 938, "is_primary": true}], "also_known_as": "", "date_of_birth": "", "date_of_death": "", "genders": [], "languages": [], "places_of_operation": [], "biography": "", "biography_author": null, "date_of_biography": "2023-05-09T18:01:11.067503+10:00", "external_links": [], "uuid": "d2d3724c-d80c-40a5-a73b-37c92af41c90", "source": {"name": "Vernon", "slug": "vernon"}, "source_identifier": "26831", "external_references": [{"id": 38712, "source": {"name": "Wikidata", "slug": "wikidata"}, "source_identifier": "Q121035718"}], "date_modified": "2025-03-12T01:05:55.088896+11:00"}, {"id": 15160, "name": "International Cinemedia Centre", "roles_in_work": [{"id": 855094, "title": "Marxism: the theory that split a world", "work_id": 70174, "role": "production company", "role_id": 941, "is_primary": true}, {"id": 2714296, "title": "Freud: the hidden nature of man", "work_id": 67837, "role": "production company", "role_id": 941, "is_primary": true}, {"id": 862845, "title": "I'm a mammal and so are you", "work_id": 76590, "role": "production company", "role_id": 941, "is_primary": true}, {"id": 910103, "title": "The Rideau: Colonel By's peaceable waterway", "work_id": 90710, "role": "production company", "role_id": 941, "is_primary": true}], "also_known_as": "", "date_of_birth": null, "date_of_death": null, "genders": [], "languages": [], "places_of_operation": [], "biography": "", "biography_author": null, "date_of_biography": null, "external_links": [], "uuid": "8df35e6e-d66e-4cbf-b2ec-da0b2990d260", "source": {"name": "Vernon", "slug": "vernon"}, "source_identifier": "9368", "external_references": [], "date_modified": "2025-03-12T01:05:51.879074+11:00"}, {"id": 15159, "name": "Hearst Metrotone", "roles_in_work": [{"id": 2714291, "title": "Fresh water from the sea", "work_id": 67835, "role": "production company", "role_id": 941, "is_primary": true}, {"id": 2263965, "title": "Training men for the atomic age", "work_id": 73977, "role": "production company", "role_id": 941, "is_primary": true}], "also_known_as": "", "date_of_birth": "", "date_of_death": "", "genders": [], "languages": [], "places_of_operation": [], "biography": "", "biography_author": null, "date_of_biography": "2023-05-09T17:33:04.861311+10:00", "external_links": [], "uuid": "6938260c-6e85-4675-b09b-4d2246ba14f8", "source": {"name": "Vernon", "slug": "vernon"}, "source_identifier": "9046", "external_references": [{"id": 41540, "source": {"name": "Wikidata", "slug": "wikidata"}, "source_identifier": "Q121034805"}], "date_modified": "2025-03-12T01:05:48.289053+11:00"}, {"id": 15158, "name": "Teknisk Film", "roles_in_work": [{"id": 2646443, "title": "The Story of my life: a film about Hans Andersen", "work_id": 73243, "role": "production company", "role_id": 941, "is_primary": true}, {"id": 2714288, "title": "Frescoes in Danish churches", "work_id": 67834, "role": "production company", "role_id": 941, "is_primary": true}], "also_known_as": "", "date_of_birth": null, "date_of_death": null, "genders": [], "languages": [], "places_of_operation": [], "biography": "", "biography_author": null, "date_of_biography": null, "external_links": [], "uuid": "1b5416f3-bcd8-4549-80a9-81d95d7331dc", "source": {"name": "Vernon", "slug": "vernon"}, "source_identifier": "13228", "external_references": [], "date_modified": "2025-03-12T01:05:46.271685+11:00"}, {"id": 15157, "name": "Eastman Classroom Films", "roles_in_work": [{"id": 876698, "title": "From Haiti to Trinidad", "work_id": 90217, "role": "production company", "role_id": 941, "is_primary": true}, {"id": 2714286, "title": "Frequency curves", "work_id": 67833, "role": "production company", "role_id": 941, "is_primary": true}, {"id": 878698, "title": "Silver", "work_id": 91347, "role": "production company", "role_id": 941, "is_primary": true}, {"id": 878549, "title": "Ocean liners", "work_id": 91275, "role": "production company", "role_id": 941, "is_primary": true}, {"id": 2616048, "title": "Maple syrup and sugar", "work_id": 86735, "role": "production company", "role_id": 941, "is_primary": true}, {"id": 880255, "title": "Lenses", "work_id": 92307, "role": "production company", "role_id": 941, "is_primary": true}, {"id": 876710, "title": "Digestion", "work_id": 90225, "role": "production company", "role_id": 941, "is_primary": true}, {"id": 2396598, "title": "[Turkey: agriculture]", "work_id": 92413, "role": "production company", "role_id": 941, "is_primary": true}, {"id": 876932, "title": "Fire protection", "work_id": 90366, "role": "production company", "role_id": 941, "is_primary": true}, {"id": 876300, "title": "Pig iron to steel", "work_id": 89998, "role": "production company", "role_id": 941, "is_primary": true}, {"id": 869848, "title": "Fire making", "work_id": 85916, "role": "production company", "role_id": 941, "is_primary": true}, {"id": 791881, "title": "The Blood [SILENT]", "work_id": 86057, "role": "production company", "role_id": 941, "is_primary": true}, {"id": 877334, "title": "The Green plant", "work_id": 90613, "role": "production company", "role_id": 941, "is_primary": true}, {"id": 877786, "title": "The Mining and smelting of copper", "work_id": 90889, "role": "production company", "role_id": 941, "is_primary": true}, {"id": 877895, "title": "Induced currents", "work_id": 90958, "role": "production company", "role_id": 941, "is_primary": true}, {"id": 878543, "title": "Poland", "work_id": 91271, "role": "production company", "role_id": 941, "is_primary": true}, {"id": 878533, "title": "Life history of the mosquito aedes aegypti: carrier of yellow fever", "work_id": 91266, "role": "production company", "role_id": 941, "is_primary": true}], "also_known_as": "", "date_of_birth": "", "date_of_death": "", "genders": [], "languages": [], "places_of_operation": [], "biography": "", "biography_author": null, "date_of_biography": "2023-08-11T12:39:25.306177+10:00", "external_links": [], "uuid": "20f80636-47bc-4b7c-b7d6-1afaac047352", "source": {"name": "Vernon", "slug": "vernon"}, "source_identifier": "7717", "external_references": [], "date_modified": "2025-03-12T01:05:44.882489+11:00"}, {"id": 15156, "name": "Jean Becker", "roles_in_work": [{"id": 1997456, "title": "One deadly summer = L'Ete Meurtrier", "work_id": 93322, "role": "director", "role_id": 938, "is_primary": true}, {"id": 2714283, "title": "The French Revolution: the Bastille", "work_id": 67830, "role": "director", "role_id": 938, "is_primary": true}, {"id": 1994109, "title": "Children of the marshland = Les Enfants du marais [Widescreen]", "work_id": 89848, "role": "director", "role_id": 938, "is_primary": true}], "also_known_as": "", "date_of_birth": "1933-05-10", "date_of_death": null, "genders": [{"id": 9, "name": "Male", "slug": "male"}], "languages": [{"id": 4, "name": "French", "slug": "french"}], "places_of_operation": [{"id": 17, "name": "France", "slug": "france"}], "biography": "Jean Becker (born 10 May 1933) is a French film director, screenwriter and actor. He is son of the director Jacques Becker.", "biography_author": "Wikidata", "date_of_biography": "2023-08-01T15:26:27.552186+10:00", "external_links": [{"id": 4292, "uri": "https://en.wikipedia.org/wiki/Jean_Becker_(director)"}], "uuid": "6cbd0043-cc41-486d-a916-8870823e4950", "source": {"name": "Vernon", "slug": "vernon"}, "source_identifier": "21516", "external_references": [{"id": 26745, "source": {"name": "Wikidata", "slug": "wikidata"}, "source_identifier": "Q1387804"}, {"id": 29279, "source": {"name": "VIAF", "slug": "viaf"}, "source_identifier": "85126014"}, {"id": 29280, "source": {"name": "LOC Auth", "slug": "loc-auth"}, "source_identifier": "no98100751"}, {"id": 29281, "source": {"name": "WorldCat", "slug": "worldcat"}, "source_identifier": "lccn-no98100751"}], "date_modified": "2025-03-12T01:05:42.749031+11:00"}, {"id": 15155, "name": "George Vicas", "roles_in_work": [{"id": 1804423, "title": "The French Revolution: birth of a new France", "work_id": 75678, "role": "producer", "role_id": 1089, "is_primary": true}, {"id": 2714280, "title": "The French Revolution: death of the old regime", "work_id": 67829, "role": "producer", "role_id": 1089, "is_primary": true}, {"id": 758281, "title": "The World of Unesco", "work_id": 74944, "role": "producer/director", "role_id": 31, "is_primary": true}], "also_known_as": "", "date_of_birth": null, "date_of_death": null, "genders": [], "languages": [], "places_of_operation": [], "biography": "", "biography_author": null, "date_of_biography": null, "external_links": [], "uuid": "676c03e9-3a63-4619-a013-b36d5a1d7198", "source": {"name": "Vernon", "slug": "vernon"}, "source_identifier": "19687", "external_references": [], "date_modified": "2025-03-12T01:05:40.724096+11:00"}, {"id": 15154, "name": "Schools Broadcast", "roles_in_work": [{"id": 2714272, "title": "French from France: to swim like a fish = Nager comme un poisson", "work_id": 67827, "role": "production company", "role_id": 941, "is_primary": true}], "also_known_as": "", "date_of_birth": "", "date_of_death": "", "genders": [], "languages": [], "places_of_operation": [], "biography": "", "biography_author": null, "date_of_biography": "2023-08-11T16:49:36.136027+10:00", "external_links": [], "uuid": "34522fd2-cd82-470e-aa18-16ae830ed62a", "source": {"name": "Vernon", "slug": "vernon"}, "source_identifier": "12336", "external_references": [], "date_modified": "2025-03-12T01:05:36.053470+11:00"}, {"id": 15153, "name": "Michael Style", "roles_in_work": [{"id": 2714270, "title": "Les Devoirs a la maison", "work_id": 67826, "role": "director", "role_id": 938, "is_primary": true}, {"id": 2714274, "title": "French from France: to swim like a fish = Nager comme un poisson", "work_id": 67827, "role": "director", "role_id": 938, "is_primary": true}, {"id": 1997935, "title": "Vampire lovers", "work_id": 93551, "role": "co-producer", "role_id": 915, "is_primary": true}], "also_known_as": "", "date_of_birth": "", "date_of_death": "", "genders": [], "languages": [], "places_of_operation": [], "biography": "", "biography_author": null, "date_of_biography": "2023-08-11T19:24:31.483300+10:00", "external_links": [], "uuid": "7c7967d7-3d13-471d-b4bb-76f646d592a6", "source": {"name": "Vernon", "slug": "vernon"}, "source_identifier": "25236", "external_references": [], "date_modified": "2025-03-12T01:05:37.226350+11:00"}, {"id": 15152, "name": "Center for Mass Communication of Columbia University", "roles_in_work": [{"id": 2714254, "title": "Freedom to read", "work_id": 67816, "role": "production company", "role_id": 941, "is_primary": true}, {"id": 856999, "title": "Planting and transplanting at the Brooklyn Botanic Garden", "work_id": 71636, "role": "production company", "role_id": 941, "is_primary": true}], "also_known_as": "", "date_of_birth": null, "date_of_death": null, "genders": [], "languages": [], "places_of_operation": [], "biography": "", "biography_author": null, "date_of_biography": null, "external_links": [], "uuid": "0080ecb9-1295-490c-9332-e49f5fc56896", "source": {"name": "Vernon", "slug": "vernon"}, "source_identifier": "6402", "external_references": [], "date_modified": "2025-03-12T01:05:10.900897+11:00"}]}