{"count": 28687, "next": "https://api.acmi.net.au/creators/?page=191", "previous": "https://api.acmi.net.au/creators/?page=189", "results": [{"id": 83707, "name": "Aasmund Hegglid", "roles_in_work": [{"id": 2655389, "title": "[Celebrating the Site's Industrial Life]", "work_id": 116966, "role": "animator", "role_id": 497, "is_primary": false}], "also_known_as": "", "date_of_birth": "", "date_of_death": "", "genders": [], "languages": [], "places_of_operation": [], "biography": "", "biography_author": null, "date_of_biography": "2023-05-09T11:00:50.589564+10:00", "external_links": [], "uuid": "88a2bc51-4962-4c6d-ada3-add17fc9283b", "source": {"name": "Vernon", "slug": "vernon"}, "source_identifier": "35285", "external_references": [], "date_modified": "2025-03-05T16:14:19.421917+11:00"}, {"id": 83706, "name": "Lochie Bradfield", "roles_in_work": [{"id": 2655407, "title": "[Celebrating the Site's Flora and Fauna]", "work_id": 116965, "role": "music", "role_id": 949, "is_primary": false}], "also_known_as": "", "date_of_birth": "", "date_of_death": "", "genders": [], "languages": [], "places_of_operation": [], "biography": "", "biography_author": null, "date_of_biography": "2023-05-09T11:00:49.299643+10:00", "external_links": [], "uuid": "e9e7dd79-af6a-4d86-8c6a-aaa923d48113", "source": {"name": "Vernon", "slug": "vernon"}, "source_identifier": "35296", "external_references": [{"id": 51385, "source": {"name": "Wikidata", "slug": "wikidata"}, "source_identifier": "Q121360857"}], "date_modified": "2025-03-05T16:14:31.997558+11:00"}, {"id": 83705, "name": "Miriam Lowe", "roles_in_work": [{"id": 2655406, "title": "[Celebrating the Site's Flora and Fauna]", "work_id": 116965, "role": "animator", "role_id": 497, "is_primary": false}], "also_known_as": "", "date_of_birth": "", "date_of_death": "", "genders": [], "languages": [], "places_of_operation": [], "biography": "", "biography_author": null, "date_of_biography": "2023-05-09T11:00:49.085965+10:00", "external_links": [], "uuid": "4419fa29-ba28-49d4-a563-1155790740b4", "source": {"name": "Vernon", "slug": "vernon"}, "source_identifier": "35295", "external_references": [], "date_modified": "2025-03-05T16:14:31.408513+11:00"}, {"id": 83704, "name": "Anna Sassi", "roles_in_work": [{"id": 2655405, "title": "[Celebrating the Site's Flora and Fauna]", "work_id": 116965, "role": "animator", "role_id": 497, "is_primary": false}], "also_known_as": "", "date_of_birth": "", "date_of_death": "", "genders": [], "languages": [], "places_of_operation": [], "biography": "", "biography_author": null, "date_of_biography": "2023-05-09T11:00:48.856569+10:00", "external_links": [], "uuid": "49199820-8b49-44d1-b0ce-1089100b1f27", "source": {"name": "Vernon", "slug": "vernon"}, "source_identifier": "35294", "external_references": [], "date_modified": "2025-03-05T16:14:30.828122+11:00"}, {"id": 83703, "name": "Alan Young", "roles_in_work": [{"id": 2655399, "title": "[Jim's Story]", "work_id": 116968, "role": "director", "role_id": 938, "is_primary": true}, {"id": 2655393, "title": "[The Vault]", "work_id": 116969, "role": "director", "role_id": 938, "is_primary": true}, {"id": 2655388, "title": "[Celebrating the Site's Industrial Life]", "work_id": 116966, "role": "director", "role_id": 938, "is_primary": true}, {"id": 2655404, "title": "[Celebrating the Site's Flora and Fauna]", "work_id": 116965, "role": "director", "role_id": 938, "is_primary": true}, {"id": 2655369, "title": "[The Dead Table]", "work_id": 116967, "role": "director", "role_id": 938, "is_primary": true}, {"id": 2655386, "title": "Unreserved : stories from Truganina Explosives Reserve", "work_id": 116964, "role": "creator", "role_id": 968, "is_primary": true}, {"id": 2655402, "title": "[Jim's Story]", "work_id": 116968, "role": "voice", "role_id": 471, "is_primary": false}], "also_known_as": "", "date_of_birth": "", "date_of_death": "", "genders": [], "languages": [], "places_of_operation": [], "biography": "", "biography_author": null, "date_of_biography": "2023-05-09T11:00:58.068900+10:00", "external_links": [], "uuid": "3c3c233a-ed9a-4ee5-9d2c-5669be0f9623", "source": {"name": "Vernon", "slug": "vernon"}, "source_identifier": "35284", "external_references": [{"id": 35215, "source": {"name": "Wikidata", "slug": "wikidata"}, "source_identifier": "Q121034370"}], "date_modified": "2025-03-05T16:14:30.243028+11:00"}, {"id": 83702, "name": "Bronwen Gray", "roles_in_work": [{"id": 2655387, "title": "[Celebrating the Site's Industrial Life]", "work_id": 116966, "role": "producer", "role_id": 1089, "is_primary": true}, {"id": 2655398, "title": "[Jim's Story]", "work_id": 116968, "role": "producer", "role_id": 1089, "is_primary": true}, {"id": 2655368, "title": "[The Dead Table]", "work_id": 116967, "role": "producer", "role_id": 1089, "is_primary": true}, {"id": 2655403, "title": "[Celebrating the Site's Flora and Fauna]", "work_id": 116965, "role": "producer", "role_id": 1089, "is_primary": true}, {"id": 2655392, "title": "[The Vault]", "work_id": 116969, "role": "producer", "role_id": 1089, "is_primary": true}, {"id": 2655385, "title": "Unreserved : stories from Truganina Explosives Reserve", "work_id": 116964, "role": "producer", "role_id": 1089, "is_primary": true}, {"id": 2655401, "title": "[Jim's Story]", "work_id": 116968, "role": "script", "role_id": 962, "is_primary": false}, {"id": 2655372, "title": "[The Dead Table]", "work_id": 116967, "role": "script", "role_id": 962, "is_primary": false}, {"id": 2655395, "title": "[The Vault]", "work_id": 116969, "role": "writer", "role_id": 939, "is_primary": true}], "also_known_as": "", "date_of_birth": "", "date_of_death": "", "genders": [], "languages": [], "places_of_operation": [], "biography": "", "biography_author": null, "date_of_biography": "2023-05-09T11:00:57.830103+10:00", "external_links": [], "uuid": "6547adc1-331f-47eb-8d0a-267eca958cde", "source": {"name": "Vernon", "slug": "vernon"}, "source_identifier": "35289", "external_references": [{"id": 36341, "source": {"name": "Wikidata", "slug": "wikidata"}, "source_identifier": "Q121034961"}], "date_modified": "2025-03-05T16:14:29.620436+11:00"}, {"id": 83701, "name": "Moyne Shire Council", "roles_in_work": [{"id": 2655344, "title": "Looking Back", "work_id": 116956, "role": "support", "role_id": 492, "is_primary": false}, {"id": 2655352, "title": "Staying Connected", "work_id": 116959, "role": "support", "role_id": 492, "is_primary": false}, {"id": 2655335, "title": "Tales from Caramut Footy", "work_id": 116961, "role": "support", "role_id": 492, "is_primary": false}, {"id": 2655326, "title": "Stories from Yambuk Youth", "work_id": 116960, "role": "support", "role_id": 492, "is_primary": false}, {"id": 2655317, "title": "Sea Changers", "work_id": 116958, "role": "support", "role_id": 492, "is_primary": false}, {"id": 2655309, "title": "Ted: The Kite Man", "work_id": 116962, "role": "support", "role_id": 492, "is_primary": false}, {"id": 2655299, "title": "Port Fairy Connections", "work_id": 116957, "role": "support", "role_id": 492, "is_primary": false}, {"id": 2655287, "title": "ACMI in the regions: Stories from Moyne", "work_id": 116954, "role": "support", "role_id": 492, "is_primary": false}, {"id": 2655278, "title": "The Yambuk Slide", "work_id": 116963, "role": "support", "role_id": 492, "is_primary": false}, {"id": 2655209, "title": "Deen Maar: Past, Present & Future", "work_id": 116955, "role": "support", "role_id": 492, "is_primary": false}], "also_known_as": "", "date_of_birth": "1994", "date_of_death": "", "genders": [], "languages": [], "places_of_operation": [], "biography": "", "biography_author": null, "date_of_biography": "2023-05-09T19:16:09.664904+10:00", "external_links": [], "uuid": "090c0789-b934-4f48-b5b5-ab4cd48013b8", "source": {"name": "Vernon", "slug": "vernon"}, "source_identifier": "35283", "external_references": [], "date_modified": "2025-03-05T16:13:52.649705+11:00"}, {"id": 83700, "name": "Des Surkitt", "roles_in_work": [{"id": 2728105, "title": "The Yellow-box eucalypt", "work_id": 116953, "role": "creator", "role_id": 968, "is_primary": true}], "also_known_as": "", "date_of_birth": "", "date_of_death": "", "genders": [{"id": 9, "name": "Male", "slug": "male"}], "languages": [], "places_of_operation": [], "biography": "", "biography_author": null, "date_of_biography": "2023-08-30T04:26:55.049798+10:00", "external_links": [], "uuid": "c265ac83-c790-4c0d-bcf4-d0a80d8f0b81", "source": {"name": "Vernon", "slug": "vernon"}, "source_identifier": "35264", "external_references": [], "date_modified": "2025-03-12T08:33:17.834661+11:00"}, {"id": 83699, "name": "John Hansen", "roles_in_work": [{"id": 2728099, "title": "The Traveller", "work_id": 116952, "role": "creator", "role_id": 968, "is_primary": true}], "also_known_as": "", "date_of_birth": "Circa 1925", "date_of_death": "", "genders": [{"id": 9, "name": "Male", "slug": "male"}], "languages": [], "places_of_operation": [], "biography": "", "biography_author": null, "date_of_biography": "2023-08-30T04:26:50.630322+10:00", "external_links": [], "uuid": "b9c27a89-8659-4661-b75a-94183af8914e", "source": {"name": "Vernon", "slug": "vernon"}, "source_identifier": "35265", "external_references": [], "date_modified": "2025-03-12T08:33:13.597140+11:00"}, {"id": 83698, "name": "Bruce Christie", "roles_in_work": [{"id": 2728093, "title": "Signals : nerves of the army", "work_id": 116951, "role": "creator", "role_id": 968, "is_primary": true}], "also_known_as": "", "date_of_birth": "", "date_of_death": "", "genders": [{"id": 9, "name": "Male", "slug": "male"}], "languages": [], "places_of_operation": [], "biography": "", "biography_author": null, "date_of_biography": "2023-08-30T04:26:46.194816+10:00", "external_links": [], "uuid": "ebc876e1-1cea-43a6-b2c7-6aad24603f02", "source": {"name": "Vernon", "slug": "vernon"}, "source_identifier": "35261", "external_references": [], "date_modified": "2025-03-12T08:33:09.339983+11:00"}]}