{"count": 28687, "next": "https://api.acmi.net.au/creators/?page=1741", "previous": "https://api.acmi.net.au/creators/?page=1739", "results": [{"id": 27689, "name": "Fred Weintraub", "roles_in_work": [{"id": 2117189, "title": "Black belt Jones", "work_id": 88446, "role": "co-producer", "role_id": 915, "is_primary": true}, {"id": 2219530, "title": "Enter the dragon [Widescreen]", "work_id": 88509, "role": "co-producer", "role_id": 915, "is_primary": true}, {"id": 2219399, "title": "Enter the dragon", "work_id": 85655, "role": "co-producer", "role_id": 915, "is_primary": true}, {"id": 1992828, "title": "Hot potato", "work_id": 88442, "role": "co-producer", "role_id": 915, "is_primary": true}, {"id": 1813924, "title": "Rage", "work_id": 89578, "role": "producer", "role_id": 1089, "is_primary": true}], "also_known_as": "Fred Robert Weintraub", "date_of_birth": "1928-04-27", "date_of_death": "2017-03-05", "genders": [{"id": 9, "name": "Male", "slug": "male"}], "languages": [], "places_of_operation": [{"id": 1, "name": "United States of America", "slug": "united-states-of-america"}], "biography": "Fred Robert Weintraub (April 27, 1928 – March 5, 2017) was an American film and television producer and writer.", "biography_author": "Wikidata", "date_of_biography": "2022-05-19T11:31:32.717607+10:00", "external_links": [{"id": 2077, "uri": "https://en.wikipedia.org/wiki/Fred_Weintraub"}], "uuid": "090f0c34-eee4-476b-8718-fac0ee9f0d1a", "source": {"name": "Vernon", "slug": "vernon"}, "source_identifier": "19252", "external_references": [{"id": 8959, "source": {"name": "Wikidata", "slug": "wikidata"}, "source_identifier": "Q5496528"}, {"id": 8960, "source": {"name": "VIAF", "slug": "viaf"}, "source_identifier": "2165263"}, {"id": 8961, "source": {"name": "LOC Auth", "slug": "loc-auth"}, "source_identifier": "no2003105561"}, {"id": 8962, "source": {"name": "WorldCat", "slug": "worldcat"}, "source_identifier": "lccn-no2003105561"}], "date_modified": "2023-09-13T12:29:29.337722+10:00"}, {"id": 27688, "name": "Concorde Productions", "roles_in_work": [{"id": 2219528, "title": "Enter the dragon [Widescreen]", "work_id": 88509, "role": "production company", "role_id": 941, "is_primary": true}, {"id": 2219395, "title": "Enter the dragon", "work_id": 85655, "role": "production company", "role_id": 941, "is_primary": true}], "also_known_as": "", "date_of_birth": "", "date_of_death": "", "genders": [], "languages": [], "places_of_operation": [], "biography": "", "biography_author": null, "date_of_biography": "2023-05-09T16:14:20.012241+10:00", "external_links": [], "uuid": "fa53ee40-17c4-4ae9-9860-21c5609cf1c0", "source": {"name": "Vernon", "slug": "vernon"}, "source_identifier": "6993", "external_references": [{"id": 34518, "source": {"name": "Wikidata", "slug": "wikidata"}, "source_identifier": "Q121271316"}], "date_modified": "2023-09-05T18:44:50.454879+10:00"}, {"id": 27687, "name": "Merck, Sharp and Dohme", "roles_in_work": [{"id": 2615558, "title": "Prostate disease", "work_id": 85654, "role": "production company", "role_id": 941, "is_primary": true}], "also_known_as": "", "date_of_birth": "", "date_of_death": "", "genders": [], "languages": [], "places_of_operation": [], "biography": "", "biography_author": null, "date_of_biography": "2023-05-09T16:38:00.460963+10:00", "external_links": [], "uuid": "f6254c72-38b7-457f-8d37-12ef4e602dab", "source": {"name": "Vernon", "slug": "vernon"}, "source_identifier": "10474", "external_references": [{"id": 32618, "source": {"name": "Wikidata", "slug": "wikidata"}, "source_identifier": "Q121298948"}], "date_modified": "2025-02-26T20:25:21.181242+11:00"}, {"id": 27682, "name": "Ben Barenholtz", "roles_in_work": [{"id": 2125942, "title": "Bruiser", "work_id": 94235, "role": "co-producer", "role_id": 915, "is_primary": true}, {"id": 2235323, "title": "Raising Arizona", "work_id": 85649, "role": "production company", "role_id": 941, "is_primary": true}], "also_known_as": "", "date_of_birth": "1935-10-05", "date_of_death": "2019-06-27", "genders": [{"id": 9, "name": "Male", "slug": "male"}], "languages": [], "places_of_operation": [{"id": 1, "name": "United States of America", "slug": "united-states-of-america"}], "biography": "Ben Barenholtz (October 5, 1935 – June 27, 2019) was a Polish-born American film producer, exhibitor, and distributor with a significant presence in the independent film scene since the late 1960s. In 1968 Barenholtz opened The Elgin Cinema in New York City which was known for its experimental midnight screenings of new filmmakers.Barenholtz was known for his eye in discovering new directors such as The Coen Brothers, David Lynch, John Sayles and Guy Maddin, and was the first to bring Cousin Cousine, and John Woo's The Killer to the American screens.\nHe is often credited with launching and being a close collaborator of the Coen Brothers. He developed and produced a number of cult movies including Barton Fink, Miller's Crossing and Requiem for a Dream.\nBarenholtz appeared in the documentary The Hicks of Hollywood, had a bit role in Liquid Sky, and appeared as a zombie in Romero's classic Dawn of the Dead. He was the subject in Stuart Samuels' 2005 documentary Midnight Movies: From the Margin to the Mainstream.\nIn 2005 Barenholtz directed his first feature, Music Inn, a documentary about the famed jazz venue, and was the producer of Jamie Greenberg's feature film Stags. In 2012, he produced Suzuya Bobo's first feature, Family Games.\nIn 2012 he directed and produced Wakaliwood: The Documentary, shot in the slums of Kampala, Uganda.\nIn 2016, he received the Berlinale Camera award from the Berlinale Film Festival to honor his contributions to the independent film scene.\nBarenholtz directed his first and only fiction film, Alina, starring Darya Ekamasova, which was released in the fall of 2017. At the time of his death he was developing the sequel to Alina as well as working on an autobiographical film, Aaron.  He died on June 27, 2019, in Prague, Czech Republic, at the age of 83.", "biography_author": "Wikidata", "date_of_biography": "2023-08-01T14:10:15.388284+10:00", "external_links": [{"id": 3624, "uri": "https://en.wikipedia.org/wiki/Ben_Barenholtz"}], "uuid": "24e62f3c-9e28-49f4-b7fd-7639217f2e27", "source": {"name": "Vernon", "slug": "vernon"}, "source_identifier": "15780", "external_references": [{"id": 26064, "source": {"name": "Wikidata", "slug": "wikidata"}, "source_identifier": "Q4885266"}, {"id": 27446, "source": {"name": "VIAF", "slug": "viaf"}, "source_identifier": "24207340"}, {"id": 27447, "source": {"name": "LOC Auth", "slug": "loc-auth"}, "source_identifier": "no97049930"}, {"id": 27448, "source": {"name": "WorldCat", "slug": "worldcat"}, "source_identifier": "lccn-no97049930"}], "date_modified": "2023-09-05T17:57:27.500438+10:00"}, {"id": 27681, "name": "Jim Pedas", "roles_in_work": [{"id": 2235319, "title": "Raising Arizona", "work_id": 85649, "role": "production company", "role_id": 941, "is_primary": true}], "also_known_as": "", "date_of_birth": "", "date_of_death": "", "genders": [], "languages": [], "places_of_operation": [], "biography": "", "biography_author": null, "date_of_biography": "2023-05-09T16:44:51.140082+10:00", "external_links": [], "uuid": "e397d1f5-ef84-46be-99a1-f2bc9bc39723", "source": {"name": "Vernon", "slug": "vernon"}, "source_identifier": "4341", "external_references": [{"id": 40416, "source": {"name": "Wikidata", "slug": "wikidata"}, "source_identifier": "Q121143852"}], "date_modified": "2023-09-05T21:25:19.548774+10:00"}, {"id": 27680, "name": "Ted Pedas", "roles_in_work": [{"id": 2235316, "title": "Raising Arizona", "work_id": 85649, "role": "production company", "role_id": 941, "is_primary": true}], "also_known_as": "", "date_of_birth": "", "date_of_death": "", "genders": [], "languages": [], "places_of_operation": [], "biography": "", "biography_author": null, "date_of_biography": "2023-05-09T16:44:50.893090+10:00", "external_links": [], "uuid": "cf682487-5929-45e0-b39e-8c069adb2181", "source": {"name": "Vernon", "slug": "vernon"}, "source_identifier": "4340", "external_references": [{"id": 35225, "source": {"name": "Wikidata", "slug": "wikidata"}, "source_identifier": "Q121222865"}], "date_modified": "2023-09-06T01:43:04.218646+10:00"}, {"id": 27671, "name": "Michael Kruzan", "roles_in_work": [{"id": 2793550, "title": "The Case of the logical i ranch", "work_id": 85641, "role": "director", "role_id": 938, "is_primary": true}], "also_known_as": "", "date_of_birth": "", "date_of_death": "", "genders": [], "languages": [], "places_of_operation": [], "biography": "", "biography_author": null, "date_of_biography": "2023-05-09T19:32:10.316051+10:00", "external_links": [], "uuid": "5fcf19f8-274b-4a3e-b101-8b47ad5bd99b", "source": {"name": "Vernon", "slug": "vernon"}, "source_identifier": "25126", "external_references": [], "date_modified": "2025-03-14T20:18:48.294369+11:00"}, {"id": 27668, "name": "Duelstar", "roles_in_work": [{"id": 2793547, "title": "The Case of the logical i ranch", "work_id": 85641, "role": "production company", "role_id": 941, "is_primary": true}, {"id": 2793552, "title": "The Adventures of Mary-Kate & Ashley", "work_id": 115474, "role": "production company", "role_id": 941, "is_primary": true}], "also_known_as": "", "date_of_birth": "", "date_of_death": "", "genders": [], "languages": [], "places_of_operation": [], "biography": "", "biography_author": null, "date_of_biography": "2023-05-09T19:32:10.836815+10:00", "external_links": [], "uuid": "2dfe43c1-0f9b-44c4-84b7-38f6f82eb692", "source": {"name": "Vernon", "slug": "vernon"}, "source_identifier": "7678", "external_references": [{"id": 34329, "source": {"name": "Wikidata", "slug": "wikidata"}, "source_identifier": "Q121126519"}], "date_modified": "2025-03-14T20:18:49.512415+11:00"}, {"id": 27667, "name": "Bruce D. Hoffman", "roles_in_work": [{"id": 1814797, "title": "Blood: the microscopic miracle. - 2nd. ed.", "work_id": 85640, "role": "producer", "role_id": 1089, "is_primary": true}, {"id": 2752833, "title": "Endocrine system. 2nd edition.", "work_id": 98482, "role": "producer", "role_id": 1089, "is_primary": true}, {"id": 2754454, "title": "Grouping living things", "work_id": 99209, "role": "producer", "role_id": 1089, "is_primary": true}, {"id": 1817370, "title": "Skin: its structure and function", "work_id": 98601, "role": "producer", "role_id": 1089, "is_primary": true}], "also_known_as": "", "date_of_birth": null, "date_of_death": null, "genders": [], "languages": [], "places_of_operation": [], "biography": "", "biography_author": null, "date_of_biography": null, "external_links": [], "uuid": "3879a308-95c4-4b52-b5e7-ac11b003a2db", "source": {"name": "Vernon", "slug": "vernon"}, "source_identifier": "4325", "external_references": [], "date_modified": "2025-03-13T01:45:19.537917+11:00"}, {"id": 27665, "name": "Kyle Boyd", "roles_in_work": [{"id": 2322712, "title": "Teen suicide", "work_id": 85639, "role": "director", "role_id": 938, "is_primary": true}, {"id": 2322704, "title": "Teen suicide", "work_id": 85639, "role": "co-producer", "role_id": 915, "is_primary": true}], "also_known_as": "", "date_of_birth": "", "date_of_death": "", "genders": [], "languages": [], "places_of_operation": [], "biography": "", "biography_author": null, "date_of_biography": "2023-05-09T19:14:29.958738+10:00", "external_links": [], "uuid": "68c69c8a-bf46-4676-a704-d26da095790b", "source": {"name": "Vernon", "slug": "vernon"}, "source_identifier": "23428", "external_references": [{"id": 33378, "source": {"name": "Wikidata", "slug": "wikidata"}, "source_identifier": "Q121315438"}], "date_modified": "2023-09-05T22:12:51.213920+10:00"}]}