{"count": 28683, "next": "https://api.acmi.net.au/creators/?page=2809", "previous": "https://api.acmi.net.au/creators/?page=2807", "results": [{"id": 8871, "name": "Noel Matthews", "roles_in_work": [{"id": 2619486, "title": "Ararat", "work_id": 114139, "role": "creator", "role_id": 968, "is_primary": true}, {"id": 2619487, "title": "Ararat", "work_id": 114139, "role": "voice", "role_id": 471, "is_primary": false}], "also_known_as": "", "date_of_birth": "", "date_of_death": "", "genders": [], "languages": [], "places_of_operation": [], "biography": "", "biography_author": null, "date_of_biography": "2023-08-11T14:10:10.236081+10:00", "external_links": [], "uuid": "4c026cf9-2a77-44d1-afeb-b36d8cd5cb1e", "source": {"name": "Vernon", "slug": "vernon"}, "source_identifier": "111879", "external_references": [], "date_modified": "2025-02-26T23:12:49.616814+11:00"}, {"id": 8870, "name": "Rob Nairn", "roles_in_work": [{"id": 2675468, "title": "Songlines in the city. Episode 1", "work_id": 114131, "role": "producer", "role_id": 1089, "is_primary": true}], "also_known_as": "", "date_of_birth": null, "date_of_death": null, "genders": [], "languages": [], "places_of_operation": [], "biography": "", "biography_author": null, "date_of_biography": null, "external_links": [], "uuid": "896656b7-a993-49dd-9528-447401ab2929", "source": {"name": "Vernon", "slug": "vernon"}, "source_identifier": "111877", "external_references": [], "date_modified": "2025-03-06T22:42:41.486170+11:00"}, {"id": 8869, "name": "Fiona Dean", "roles_in_work": [{"id": 2675467, "title": "Songlines in the city. Episode 1", "work_id": 114131, "role": "producer", "role_id": 1089, "is_primary": true}], "also_known_as": "", "date_of_birth": null, "date_of_death": null, "genders": [], "languages": [], "places_of_operation": [], "biography": "", "biography_author": null, "date_of_biography": null, "external_links": [], "uuid": "cb6d352a-396c-435e-8244-6d1b64548819", "source": {"name": "Vernon", "slug": "vernon"}, "source_identifier": "111876", "external_references": [], "date_modified": "2025-03-06T22:42:40.890847+11:00"}, {"id": 8868, "name": "Grant Hansen", "roles_in_work": [{"id": 2675465, "title": "Songlines in the city. Episode 1", "work_id": 114131, "role": "producer", "role_id": 1089, "is_primary": true}], "also_known_as": "", "date_of_birth": null, "date_of_death": null, "genders": [], "languages": [], "places_of_operation": [], "biography": "", "biography_author": null, "date_of_biography": null, "external_links": [], "uuid": "1c66de41-82f5-4b9c-9317-841238a39e8f", "source": {"name": "Vernon", "slug": "vernon"}, "source_identifier": "111873", "external_references": [], "date_modified": "2025-03-06T22:42:39.639331+11:00"}, {"id": 8867, "name": "Glen Edwards", "roles_in_work": [{"id": 2675464, "title": "Songlines in the city. Episode 1", "work_id": 114131, "role": "producer", "role_id": 1089, "is_primary": true}], "also_known_as": "", "date_of_birth": null, "date_of_death": null, "genders": [], "languages": [], "places_of_operation": [], "biography": "", "biography_author": null, "date_of_biography": null, "external_links": [], "uuid": "376f1b1c-7c99-40b5-89b6-289e2ef8c307", "source": {"name": "Vernon", "slug": "vernon"}, "source_identifier": "111874", "external_references": [], "date_modified": "2025-03-06T22:42:39.040694+11:00"}, {"id": 8866, "name": "Peter Lane", "roles_in_work": [{"id": 2220903, "title": "Essay writing made easy", "work_id": 86216, "role": "director", "role_id": 938, "is_primary": true}, {"id": 2711294, "title": "The Golden dragons", "work_id": 114172, "role": "camera operator", "role_id": 931, "is_primary": false}, {"id": 2711315, "title": "The Guan Yin Temple", "work_id": 114174, "role": "camera operator", "role_id": 931, "is_primary": false}, {"id": 1904433, "title": "The Poetry Cup", "work_id": 80599, "role": "co-producer", "role_id": 915, "is_primary": true}, {"id": 899782, "title": "The Radical Poets", "work_id": 80604, "role": "co-producer", "role_id": 915, "is_primary": true}, {"id": 2675463, "title": "Songlines in the city. Episode 1", "work_id": 114131, "role": "director", "role_id": 938, "is_primary": true}, {"id": 2675473, "title": "Festival of kites", "work_id": 114135, "role": "film maker", "role_id": 459, "is_primary": false}, {"id": 2711317, "title": "The Guan Yin Temple", "work_id": 114174, "role": "interviewer", "role_id": 457, "is_primary": false}, {"id": 2238080, "title": "Reading Australian Film", "work_id": 81112, "role": "producer/director", "role_id": 31, "is_primary": true}, {"id": 2754275, "title": "Life and study at the university", "work_id": 99131, "role": "producer/director", "role_id": 31, "is_primary": true}], "also_known_as": "", "date_of_birth": "", "date_of_death": "", "genders": [], "languages": [], "places_of_operation": [], "biography": "", "biography_author": null, "date_of_biography": "2023-05-09T20:01:27.565771+10:00", "external_links": [], "uuid": "994f4411-4f8f-473d-a4de-67f353ed9c10", "source": {"name": "Vernon", "slug": "vernon"}, "source_identifier": "110782", "external_references": [{"id": 51744, "source": {"name": "Wikidata", "slug": "wikidata"}, "source_identifier": "Q121357425"}], "date_modified": "2025-03-13T01:41:33.265587+11:00"}, {"id": 8865, "name": "Amaara Raheem", "roles_in_work": [{"id": 2675461, "title": "Lygon Street", "work_id": 114136, "role": "writer", "role_id": 939, "is_primary": true}], "also_known_as": "", "date_of_birth": null, "date_of_death": null, "genders": [], "languages": [], "places_of_operation": [], "biography": "", "biography_author": null, "date_of_biography": null, "external_links": [], "uuid": "b634aa82-ec38-4500-9a57-e05a2010f6db", "source": {"name": "Vernon", "slug": "vernon"}, "source_identifier": "111871", "external_references": [], "date_modified": "2025-03-06T22:42:34.617022+11:00"}, {"id": 8863, "name": "Philip Ashton", "roles_in_work": [{"id": 2619562, "title": "Small towns, big picture: a journey in building community", "work_id": 114130, "role": "director", "role_id": 938, "is_primary": true}, {"id": 2675458, "title": "The Posidon Rush - Jack Flett", "work_id": 114146, "role": "creator", "role_id": 968, "is_primary": true}, {"id": 2676873, "title": "Eucalyptus oil distillery [excerpt]", "work_id": 114142, "role": "creator", "role_id": 968, "is_primary": true}, {"id": 2676875, "title": "First job after leaving school (c.1916)", "work_id": 114143, "role": "creator", "role_id": 968, "is_primary": true}, {"id": 2710992, "title": "Roar culture", "work_id": 108971, "role": "director of photography", "role_id": 925, "is_primary": false}, {"id": 2710991, "title": "Roar culture", "work_id": 108971, "role": "editor", "role_id": 918, "is_primary": true}, {"id": 2675459, "title": "The Posidon Rush - Jack Flett", "work_id": 114146, "role": "film maker", "role_id": 459, "is_primary": false}, {"id": 2619561, "title": "Small towns, big picture: a journey in building community", "work_id": 114130, "role": "producer", "role_id": 1089, "is_primary": true}, {"id": 2619563, "title": "Small towns, big picture: a journey in building community", "work_id": 114130, "role": "screenwriter", "role_id": 601, "is_primary": false}, {"id": 2710990, "title": "Roar culture", "work_id": 108971, "role": "writer", "role_id": 939, "is_primary": true}], "also_known_as": "", "date_of_birth": "", "date_of_death": "", "genders": [], "languages": [], "places_of_operation": [], "biography": "", "biography_author": null, "date_of_biography": "2023-08-11T16:38:58.834962+10:00", "external_links": [], "uuid": "5447c553-277e-4c5d-bf1f-0013df3170b8", "source": {"name": "Vernon", "slug": "vernon"}, "source_identifier": "111878", "external_references": [], "date_modified": "2025-03-11T23:44:20.920896+11:00"}, {"id": 8862, "name": "Fiona Vivian", "roles_in_work": [{"id": 2675457, "title": "Westbourne Grove", "work_id": 114157, "role": "writer", "role_id": 939, "is_primary": true}], "also_known_as": "", "date_of_birth": null, "date_of_death": null, "genders": [], "languages": [], "places_of_operation": [], "biography": "", "biography_author": null, "date_of_biography": null, "external_links": [], "uuid": "b736aede-b0d5-410f-97e1-48c356abcba4", "source": {"name": "Vernon", "slug": "vernon"}, "source_identifier": "111866", "external_references": [], "date_modified": "2025-03-06T22:42:30.414636+11:00"}, {"id": 8861, "name": "Cohuna Historical Society Productions", "roles_in_work": [{"id": 2675454, "title": "Cohuna celebrates the coronation of QE II", "work_id": 114141, "role": "production company", "role_id": 941, "is_primary": true}, {"id": 2637400, "title": "Tom Olsson's Cohuna", "work_id": 114156, "role": "production company", "role_id": 941, "is_primary": true}], "also_known_as": "", "date_of_birth": "", "date_of_death": "", "genders": [], "languages": [], "places_of_operation": [], "biography": "", "biography_author": null, "date_of_biography": "2023-05-09T18:03:10.458567+10:00", "external_links": [], "uuid": "886c1c4f-ca7e-4dac-8f9a-eb0a011fae08", "source": {"name": "Vernon", "slug": "vernon"}, "source_identifier": "111853", "external_references": [{"id": 32967, "source": {"name": "Wikidata", "slug": "wikidata"}, "source_identifier": "Q121035322"}], "date_modified": "2025-03-06T22:42:28.317294+11:00"}]}