{"count": 28687, "next": "https://api.acmi.net.au/creators/?page=1566", "previous": "https://api.acmi.net.au/creators/?page=1564", "results": [{"id": 31935, "name": "C F F Productions", "roles_in_work": [{"id": 2159112, "title": "On the run", "work_id": 90105, "role": "production company", "role_id": 941, "is_primary": true}], "also_known_as": "", "date_of_birth": "", "date_of_death": "", "genders": [], "languages": [], "places_of_operation": [], "biography": "", "biography_author": null, "date_of_biography": "2023-05-09T14:12:53.558767+10:00", "external_links": [], "uuid": "aa667cf8-39b0-4989-b092-c888a0d2091e", "source": {"name": "Vernon", "slug": "vernon"}, "source_identifier": "6167", "external_references": [{"id": 34266, "source": {"name": "Wikidata", "slug": "wikidata"}, "source_identifier": "Q121223368"}], "date_modified": "2023-09-05T18:16:46.502631+10:00"}, {"id": 31929, "name": "Willis Briley", "roles_in_work": [{"id": 2753248, "title": "Fossils: clues to the past", "work_id": 98674, "role": "director", "role_id": 938, "is_primary": true}, {"id": 2288244, "title": "Vision. [No. 20]", "work_id": 90093, "role": "co-director", "role_id": 959, "is_primary": true}], "also_known_as": "", "date_of_birth": "", "date_of_death": "", "genders": [], "languages": [], "places_of_operation": [], "biography": "", "biography_author": null, "date_of_biography": "2023-05-09T18:13:35.944091+10:00", "external_links": [], "uuid": "9c731e8a-94c8-4cbd-91ab-aa2150c57ebf", "source": {"name": "Vernon", "slug": "vernon"}, "source_identifier": "30514", "external_references": [{"id": 35494, "source": {"name": "Wikidata", "slug": "wikidata"}, "source_identifier": "Q121222594"}], "date_modified": "2025-03-13T01:21:22.132736+11:00"}, {"id": 31928, "name": "Thomas Craven", "roles_in_work": [{"id": 2291672, "title": "Vision. [No. 21]", "work_id": 90094, "role": "co-director", "role_id": 959, "is_primary": true}, {"id": 2288241, "title": "Vision. [No. 20]", "work_id": 90093, "role": "co-director", "role_id": 959, "is_primary": true}, {"id": 2753247, "title": "Fossils: clues to the past", "work_id": 98674, "role": "co-producer", "role_id": 915, "is_primary": true}, {"id": 2291669, "title": "Vision. [No. 21]", "work_id": 90094, "role": "producer", "role_id": 1089, "is_primary": true}, {"id": 2748864, "title": "David Lean: a self portrait", "work_id": 96508, "role": "producer/director", "role_id": 31, "is_primary": true}], "also_known_as": "", "date_of_birth": "", "date_of_death": "", "genders": [], "languages": [], "places_of_operation": [], "biography": "", "biography_author": null, "date_of_biography": "2023-05-09T18:20:29.456766+10:00", "external_links": [], "uuid": "ff77061a-e389-4b81-a826-8017418791ac", "source": {"name": "Vernon", "slug": "vernon"}, "source_identifier": "29674", "external_references": [{"id": 40215, "source": {"name": "Wikidata", "slug": "wikidata"}, "source_identifier": "Q121222884"}], "date_modified": "2025-03-13T01:21:21.539647+11:00"}, {"id": 31927, "name": "Thomas Craven Films", "roles_in_work": [{"id": 2291666, "title": "Vision. [No. 21]", "work_id": 90094, "role": "production company", "role_id": 941, "is_primary": true}, {"id": 2288239, "title": "Vision. [No. 20]", "work_id": 90093, "role": "production company", "role_id": 941, "is_primary": true}], "also_known_as": "", "date_of_birth": "", "date_of_death": "", "genders": [], "languages": [], "places_of_operation": [], "biography": "", "biography_author": null, "date_of_biography": "2023-05-09T18:20:28.962707+10:00", "external_links": [], "uuid": "4d08adda-8060-4ccf-91a2-f41f9ab77301", "source": {"name": "Vernon", "slug": "vernon"}, "source_identifier": "13495", "external_references": [{"id": 36800, "source": {"name": "Wikidata", "slug": "wikidata"}, "source_identifier": "Q121034185"}], "date_modified": "2023-09-06T01:48:43.744655+10:00"}, {"id": 31926, "name": "Science Pictures", "roles_in_work": [{"id": 876428, "title": "Principles of respiratory mechanics. Part II", "work_id": 90091, "role": "production company", "role_id": 941, "is_primary": true}, {"id": 2396590, "title": "[Principles of respiratory mechanics. Part I]", "work_id": 90090, "role": "production company", "role_id": 941, "is_primary": true}], "also_known_as": "", "date_of_birth": "", "date_of_death": "", "genders": [], "languages": [], "places_of_operation": [], "biography": "", "biography_author": null, "date_of_biography": "2023-08-11T12:39:11.094602+10:00", "external_links": [], "uuid": "a314efb6-1e62-4fe5-8c64-2cf2e51c45ee", "source": {"name": "Vernon", "slug": "vernon"}, "source_identifier": "12346", "external_references": [], "date_modified": "2023-08-11T12:39:11.094989+10:00"}, {"id": 31925, "name": "Instructional Screen Productions", "roles_in_work": [{"id": 2464831, "title": "Piano reflections: Polonaise in A - Chopin", "work_id": 90088, "role": "production company", "role_id": 941, "is_primary": true}, {"id": 2464830, "title": "Piano reflections: Liebiestraum (No. 3) - Liszt", "work_id": 90089, "role": "production company", "role_id": 941, "is_primary": true}, {"id": 2463763, "title": "Music of the masters. No. 1. \"On wings of song\" - Mendelssohn", "work_id": 91264, "role": "production company", "role_id": 941, "is_primary": true}, {"id": 2463764, "title": "Music of the masters: 'Jesu, joy of man's desiring' Bach", "work_id": 90940, "role": "production company", "role_id": 941, "is_primary": true}, {"id": 2468366, "title": "The Voice of the organ. No. 3", "work_id": 91481, "role": "production company", "role_id": 941, "is_primary": true}, {"id": 2468367, "title": "The Voice of the organ. No. 4", "work_id": 91511, "role": "production company", "role_id": 941, "is_primary": true}, {"id": 2468365, "title": "The Voice of the organ. No. 2", "work_id": 91504, "role": "production company", "role_id": 941, "is_primary": true}, {"id": 2468364, "title": "The Voice of the organ. No. 1", "work_id": 91510, "role": "production company", "role_id": 941, "is_primary": true}], "also_known_as": "", "date_of_birth": "", "date_of_death": "", "genders": [], "languages": [], "places_of_operation": [], "biography": "", "biography_author": null, "date_of_biography": "2023-08-14T11:39:51.789688+10:00", "external_links": [], "uuid": "bf471c40-633c-4294-b5a1-c2cd35b5d1f8", "source": {"name": "Vernon", "slug": "vernon"}, "source_identifier": "9330", "external_references": [], "date_modified": "2023-08-14T11:39:51.789979+10:00"}, {"id": 31923, "name": "Domenico Davanzati", "roles_in_work": [{"id": 1994300, "title": "Senso = Wanton Countess", "work_id": 90083, "role": "producer", "role_id": 1089, "is_primary": true}], "also_known_as": "", "date_of_birth": "1914-11-25", "date_of_death": "1985-01-01", "genders": [{"id": 9, "name": "Male", "slug": "male"}], "languages": [{"id": 6, "name": "Italian", "slug": "italian"}], "places_of_operation": [{"id": 19, "name": "Italy", "slug": "italy"}], "biography": "", "biography_author": null, "date_of_biography": null, "external_links": [], "uuid": "0f593b56-04af-4c8c-9f5f-f4544e73bc90", "source": {"name": "Vernon", "slug": "vernon"}, "source_identifier": "18171", "external_references": [{"id": 8395, "source": {"name": "Wikidata", "slug": "wikidata"}, "source_identifier": "Q19984738"}, {"id": 50519, "source": {"name": "VIAF", "slug": "viaf"}, "source_identifier": "9681210"}, {"id": 50520, "source": {"name": "LOC Auth", "slug": "loc-auth"}, "source_identifier": "nr00002088"}, {"id": 50521, "source": {"name": "WorldCat", "slug": "worldcat"}, "source_identifier": "lccn-nr00002088"}], "date_modified": "2023-09-13T12:29:06.045192+10:00"}, {"id": 31922, "name": "Bendigo and Central Victoria Telecasters Ltd", "roles_in_work": [{"id": 2396585, "title": "[Opening Castlemaine market] [Magnetic Soundtrack]", "work_id": 90082, "role": "production company", "role_id": 941, "is_primary": true}], "also_known_as": "", "date_of_birth": "", "date_of_death": "", "genders": [], "languages": [], "places_of_operation": [], "biography": "", "biography_author": null, "date_of_biography": "2023-08-11T12:39:00.315033+10:00", "external_links": [], "uuid": "e6dc9800-e918-4019-b2fb-165f3fa56cbc", "source": {"name": "Vernon", "slug": "vernon"}, "source_identifier": "5810", "external_references": [], "date_modified": "2023-08-11T12:39:00.315329+10:00"}, {"id": 31921, "name": "A K S Productions", "roles_in_work": [{"id": 2793515, "title": "For Korea: Australian Army trains in Japan", "work_id": 90081, "role": "production company", "role_id": 941, "is_primary": true}], "also_known_as": "", "date_of_birth": "", "date_of_death": "", "genders": [], "languages": [], "places_of_operation": [], "biography": "", "biography_author": null, "date_of_biography": "2023-08-11T16:41:45.274763+10:00", "external_links": [], "uuid": "0b0757c0-6ea6-4645-95d5-e903f7079283", "source": {"name": "Vernon", "slug": "vernon"}, "source_identifier": "4944", "external_references": [], "date_modified": "2025-03-14T20:18:23.957012+11:00"}, {"id": 31920, "name": "Herald Sun", "roles_in_work": [{"id": 804447, "title": "New government in Victoria", "work_id": 90068, "role": "production company", "role_id": 941, "is_primary": true}, {"id": 2289191, "title": "Setting the scene: the Metropolis case", "work_id": 116582, "role": "sponsor", "role_id": 625, "is_primary": false}], "also_known_as": "", "date_of_birth": "", "date_of_death": "", "genders": [], "languages": [], "places_of_operation": [], "biography": "", "biography_author": null, "date_of_biography": "2023-05-09T18:15:35.071223+10:00", "external_links": [], "uuid": "0c2acbbc-73bc-4824-83ec-0e2c93c89dc7", "source": {"name": "Vernon", "slug": "vernon"}, "source_identifier": "4866", "external_references": [{"id": 37908, "source": {"name": "Wikidata", "slug": "wikidata"}, "source_identifier": "Q121143733"}], "date_modified": "2023-09-05T20:37:44.989309+10:00"}]}