{"count": 28682, "next": "https://api.acmi.net.au/creators/?page=2654", "previous": "https://api.acmi.net.au/creators/?page=2652", "results": [{"id": 12015, "name": "Robert W Wagner", "roles_in_work": [{"id": 2676315, "title": "Accent on learning", "work_id": 111377, "role": "director", "role_id": 938, "is_primary": true}], "also_known_as": "", "date_of_birth": "", "date_of_death": "", "genders": [], "languages": [], "places_of_operation": [], "biography": "", "biography_author": null, "date_of_biography": "2023-08-11T13:25:39.197307+10:00", "external_links": [], "uuid": "80e8632c-924b-461c-85d5-1a73ff0d12b4", "source": {"name": "Vernon", "slug": "vernon"}, "source_identifier": "27912", "external_references": [], "date_modified": "2025-03-06T23:04:47.329761+11:00"}, {"id": 12014, "name": "Department of Photography, Ohio State University", "roles_in_work": [{"id": 2676313, "title": "Accent on learning", "work_id": 111377, "role": "production company", "role_id": 941, "is_primary": true}], "also_known_as": "", "date_of_birth": "", "date_of_death": "", "genders": [], "languages": [], "places_of_operation": [], "biography": "", "biography_author": null, "date_of_biography": "2023-08-11T13:25:38.558109+10:00", "external_links": [], "uuid": "e70c1bef-23e0-4a51-b979-cdf19bc82241", "source": {"name": "Vernon", "slug": "vernon"}, "source_identifier": "7452", "external_references": [], "date_modified": "2025-03-06T23:04:46.736495+11:00"}, {"id": 12013, "name": "Swift Film Productions", "roles_in_work": [{"id": 2676311, "title": "Accent on adventure", "work_id": 111376, "role": "production company", "role_id": 941, "is_primary": true}, {"id": 2646975, "title": "Work study case histories. No. 1", "work_id": 74903, "role": "production company", "role_id": 941, "is_primary": true}, {"id": 886045, "title": "Development of movement themes in the gymnasium (TEFC)", "work_id": 95537, "role": "production company", "role_id": 941, "is_primary": true}, {"id": 860990, "title": "Work study practical exercise film. No. 12", "work_id": 74902, "role": "production company", "role_id": 941, "is_primary": true}, {"id": 826774, "title": "Development of movement themes in the gymnasium", "work_id": 96499, "role": "production company", "role_id": 941, "is_primary": true}], "also_known_as": "", "date_of_birth": "", "date_of_death": "", "genders": [], "languages": [], "places_of_operation": [], "biography": "", "biography_author": null, "date_of_biography": "2023-08-11T13:25:33.515352+10:00", "external_links": [], "uuid": "c60ce2fb-797b-4e63-933e-a8dc43fc977c", "source": {"name": "Vernon", "slug": "vernon"}, "source_identifier": "13096", "external_references": [], "date_modified": "2025-03-06T23:04:45.909803+11:00"}, {"id": 12012, "name": "Fred A Niles Communications Centre", "roles_in_work": [{"id": 2676308, "title": "Accelerating the seventies", "work_id": 111375, "role": "production company", "role_id": 941, "is_primary": true}], "also_known_as": "", "date_of_birth": null, "date_of_death": null, "genders": [], "languages": [], "places_of_operation": [], "biography": "", "biography_author": null, "date_of_biography": null, "external_links": [], "uuid": "1a9d43a2-9a33-4c68-98d6-1b799d0eedec", "source": {"name": "Vernon", "slug": "vernon"}, "source_identifier": "8536", "external_references": [], "date_modified": "2025-03-06T23:04:45.099883+11:00"}, {"id": 12011, "name": "Sterling Educational Films", "roles_in_work": [{"id": 1543608, "title": "Yankee clipper. - [Edited version]", "work_id": 74972, "role": "production company", "role_id": 941, "is_primary": true}, {"id": 2678085, "title": "Balloon goes up", "work_id": 65212, "role": "production company", "role_id": 941, "is_primary": true}, {"id": 2712863, "title": "The Emperor's oblong pancake. - 2nd ed.", "work_id": 67132, "role": "production company", "role_id": 941, "is_primary": true}, {"id": 2678662, "title": "[Blood and sand]. - [Edited version]", "work_id": 65496, "role": "production company", "role_id": 941, "is_primary": true}, {"id": 2713359, "title": "Intolerance: the fall of Babylon. - [Edited version]", "work_id": 67375, "role": "production company", "role_id": 941, "is_primary": true}, {"id": 2750146, "title": "The Shape and colour game", "work_id": 97167, "role": "production company", "role_id": 941, "is_primary": true}, {"id": 2679425, "title": "Celluloid college: basic motion picture technique", "work_id": 65898, "role": "production company", "role_id": 941, "is_primary": true}, {"id": 2713662, "title": "Finlandia", "work_id": 67523, "role": "production company", "role_id": 941, "is_primary": true}, {"id": 2679769, "title": "Child's play and the real world (TEFC)", "work_id": 66061, "role": "production company", "role_id": 941, "is_primary": true}, {"id": 2680062, "title": "The Clown princes of Hollywood. - [Edited version]", "work_id": 66197, "role": "production company", "role_id": 941, "is_primary": true}, {"id": 2644892, "title": "Fun factory", "work_id": 67886, "role": "production company", "role_id": 941, "is_primary": true}, {"id": 2646246, "title": "Scruffy", "work_id": 72554, "role": "production company", "role_id": 941, "is_primary": true}, {"id": 2647212, "title": "Colombia and Venezuela", "work_id": 75643, "role": "production company", "role_id": 941, "is_primary": true}, {"id": 2647634, "title": "Children's aggression: its origin and control (TEFC)", "work_id": 76903, "role": "production company", "role_id": 941, "is_primary": true}, {"id": 2715066, "title": "Hailstones and halibut bones. Part 1", "work_id": 68266, "role": "production company", "role_id": 941, "is_primary": true}, {"id": 2715901, "title": "Lon Chaney: The Hunchback of Notre Dame", "work_id": 68679, "role": "production company", "role_id": 941, "is_primary": true}, {"id": 2676307, "title": "Accelerating the seventies", "work_id": 111375, "role": "production company", "role_id": 941, "is_primary": true}, {"id": 2748986, "title": "Star seekers", "work_id": 96584, "role": "production company", "role_id": 941, "is_primary": true}, {"id": 2749326, "title": "Mountain People", "work_id": 96743, "role": "production company", "role_id": 941, "is_primary": true}, {"id": 2749527, "title": "Fair play", "work_id": 96852, "role": "production company", "role_id": 941, "is_primary": true}, {"id": 2749531, "title": "Finders keepers", "work_id": 96853, "role": "production company", "role_id": 941, "is_primary": true}, {"id": 2749534, "title": "Helen Keller", "work_id": 96854, "role": "production company", "role_id": 941, "is_primary": true}, {"id": 2749604, "title": "Cholesterol: eat your heart out", "work_id": 96887, "role": "production company", "role_id": 941, "is_primary": true}, {"id": 2749619, "title": "Weight control: just a step away", "work_id": 96893, "role": "production company", "role_id": 941, "is_primary": true}, {"id": 2749725, "title": "Mouse-activated candle lighter", "work_id": 96944, "role": "production company", "role_id": 941, "is_primary": true}, {"id": 2778244, "title": "The China teapot story: a Chinese legend", "work_id": 81821, "role": "production company", "role_id": 941, "is_primary": true}, {"id": 2778247, "title": "Folktales from around the world", "work_id": 115216, "role": "production company", "role_id": 941, "is_primary": true}, {"id": 746908, "title": "Living traps", "work_id": 69842, "role": "production company", "role_id": 941, "is_primary": true}, {"id": 826329, "title": "Places people live: seacoast people", "work_id": 96295, "role": "production company", "role_id": 941, "is_primary": true}, {"id": 753363, "title": "Sibelius", "work_id": 72800, "role": "production company", "role_id": 941, "is_primary": true}, {"id": 761700, "title": "Lickety-split licorice", "work_id": 76341, "role": "production company", "role_id": 941, "is_primary": true}, {"id": 827344, "title": "Desert people", "work_id": 96742, "role": "production company", "role_id": 941, "is_primary": true}, {"id": 859342, "title": "Teenage pregnancy", "work_id": 73573, "role": "production company", "role_id": 941, "is_primary": true}, {"id": 860274, "title": "VD? See your doctor", "work_id": 74303, "role": "production company", "role_id": 941, "is_primary": true}, {"id": 875955, "title": "The Anti-hero [study extract]", "work_id": 89758, "role": "production company", "role_id": 941, "is_primary": true}, {"id": 856820, "title": "Phagocytes the body's defenders", "work_id": 71511, "role": "production company", "role_id": 941, "is_primary": true}, {"id": 1543658, "title": "Road to yesterday. - [Edited version]", "work_id": 72289, "role": "production company", "role_id": 941, "is_primary": true}, {"id": 1543654, "title": "The Sad clowns", "work_id": 72415, "role": "production company", "role_id": 941, "is_primary": true}, {"id": 1543648, "title": "William S. Hart", "work_id": 74779, "role": "production company", "role_id": 941, "is_primary": true}, {"id": 1543641, "title": "The Story of the serials", "work_id": 73263, "role": "production company", "role_id": 941, "is_primary": true}, {"id": 1543615, "title": "Nosferatu (Dracula). - [Edited version]", "work_id": 95523, "role": "production company", "role_id": 941, "is_primary": true}, {"id": 2677136, "title": "America. - [Edited version]", "work_id": 64712, "role": "production company", "role_id": 941, "is_primary": true}, {"id": 1543602, "title": "Variety. - [Edited version]", "work_id": 74290, "role": "production company", "role_id": 941, "is_primary": true}, {"id": 1543598, "title": "The Three musketeers. - [Edited version]", "work_id": 73780, "role": "production company", "role_id": 941, "is_primary": true}, {"id": 2270347, "title": "Selections from a child's garden of verses", "work_id": 72641, "role": "production company", "role_id": 941, "is_primary": true}, {"id": 861913, "title": "Art images in jazz", "work_id": 75882, "role": "production company", "role_id": 941, "is_primary": true}, {"id": 896176, "title": "When the clouds roll by", "work_id": 74670, "role": "production company", "role_id": 941, "is_primary": true}, {"id": 826474, "title": "Friends and neighbors = Friends and neighbours", "work_id": 96359, "role": "production company", "role_id": 941, "is_primary": true}, {"id": 747268, "title": "The Magician", "work_id": 69998, "role": "production company", "role_id": 941, "is_primary": true}, {"id": 825621, "title": "The House that Jack built", "work_id": 95937, "role": "production company", "role_id": 941, "is_primary": true}, {"id": 825618, "title": "Dick Whittington and his cat", "work_id": 95936, "role": "production company", "role_id": 941, "is_primary": true}, {"id": 939861, "title": "Motion and time", "work_id": 70611, "role": "production company", "role_id": 941, "is_primary": true}, {"id": 753601, "title": "The Smallest elephant in the world", "work_id": 72910, "role": "production company", "role_id": 941, "is_primary": true}, {"id": 872488, "title": "Child's play and the real world", "work_id": 87668, "role": "production company", "role_id": 941, "is_primary": true}, {"id": 865933, "title": "The Emperor's oblong pancake (K). - 2nd ed.", "work_id": 80744, "role": "production company", "role_id": 941, "is_primary": true}], "also_known_as": "", "date_of_birth": "", "date_of_death": "", "genders": [], "languages": [], "places_of_operation": [], "biography": "", "biography_author": null, "date_of_biography": "2023-05-09T18:49:51.064028+10:00", "external_links": [], "uuid": "bfde4d15-580a-4710-bb3c-207510b8665e", "source": {"name": "Vernon", "slug": "vernon"}, "source_identifier": "12945", "external_references": [{"id": 32305, "source": {"name": "Wikidata", "slug": "wikidata"}, "source_identifier": "Q121337036"}], "date_modified": "2025-03-14T18:59:06.337241+11:00"}, {"id": 12010, "name": "American Federation of Arts", "roles_in_work": [{"id": 2676304, "title": "Abstraction", "work_id": 111374, "role": "production company", "role_id": 941, "is_primary": true}, {"id": 826182, "title": "Color", "work_id": 96238, "role": "production company", "role_id": 941, "is_primary": true}, {"id": 2767631, "title": "Shape", "work_id": 72722, "role": "production company", "role_id": 941, "is_primary": true}], "also_known_as": "", "date_of_birth": "", "date_of_death": "", "genders": [], "languages": [], "places_of_operation": [], "biography": "", "biography_author": null, "date_of_biography": "2023-08-14T11:54:32.408833+10:00", "external_links": [], "uuid": "65c9497a-493a-4811-917c-9959ee20510d", "source": {"name": "Vernon", "slug": "vernon"}, "source_identifier": "5199", "external_references": [], "date_modified": "2025-03-14T18:05:32.743715+11:00"}, {"id": 12009, "name": "ACI Films", "roles_in_work": [{"id": 2139520, "title": "Clay", "work_id": 83824, "role": "production company", "role_id": 941, "is_primary": true}, {"id": 886602, "title": "Living science: how materials are changed", "work_id": 96640, "role": "production company", "role_id": 941, "is_primary": true}, {"id": 2173208, "title": "Karate: art or sport?", "work_id": 69346, "role": "production company", "role_id": 941, "is_primary": true}, {"id": 2292318, "title": "Visitors in time", "work_id": 74405, "role": "production company", "role_id": 941, "is_primary": true}, {"id": 853862, "title": "Joanjo: a Portuguese tale (K)", "work_id": 69254, "role": "production company", "role_id": 941, "is_primary": true}, {"id": 860567, "title": "Watts Library reaches out", "work_id": 74531, "role": "production company", "role_id": 941, "is_primary": true}, {"id": 826965, "title": "Garden party", "work_id": 96590, "role": "production company", "role_id": 941, "is_primary": true}, {"id": 825834, "title": "Z is for Zoo", "work_id": 96064, "role": "production company", "role_id": 941, "is_primary": true}, {"id": 826759, "title": "Prints", "work_id": 96492, "role": "production company", "role_id": 941, "is_primary": true}, {"id": 746363, "title": "Leather", "work_id": 69573, "role": "production company", "role_id": 941, "is_primary": true}, {"id": 826181, "title": "Color", "work_id": 96238, "role": "production company", "role_id": 941, "is_primary": true}, {"id": 825830, "title": "Starting to read: ducks", "work_id": 96061, "role": "production company", "role_id": 941, "is_primary": true}, {"id": 825750, "title": "Puppets", "work_id": 96017, "role": "production company", "role_id": 941, "is_primary": true}, {"id": 826179, "title": "Wind", "work_id": 96237, "role": "production company", "role_id": 941, "is_primary": true}, {"id": 825532, "title": "The Peoples of Africa", "work_id": 95895, "role": "production company", "role_id": 941, "is_primary": true}, {"id": 2248991, "title": "The Milky way", "work_id": 70384, "role": "production company", "role_id": 941, "is_primary": true}, {"id": 758999, "title": "The Purple turtle", "work_id": 75248, "role": "production company", "role_id": 941, "is_primary": true}, {"id": 758879, "title": "Macrame", "work_id": 75182, "role": "production company", "role_id": 941, "is_primary": true}, {"id": 888418, "title": "Learning about air", "work_id": 98207, "role": "production company", "role_id": 941, "is_primary": true}, {"id": 896784, "title": "Energy: towards the age of abundance", "work_id": 76087, "role": "production company", "role_id": 941, "is_primary": true}, {"id": 2614523, "title": "Posters", "work_id": 83823, "role": "production company", "role_id": 941, "is_primary": true}, {"id": 2645922, "title": "Rediscovery: art media - paper mache", "work_id": 71346, "role": "production company", "role_id": 941, "is_primary": true}, {"id": 2755416, "title": "Play-clay", "work_id": 96082, "role": "production company", "role_id": 941, "is_primary": true}, {"id": 2755415, "title": "Cylinders (TEFC)", "work_id": 65031, "role": "production company", "role_id": 941, "is_primary": true}, {"id": 2755412, "title": "Boxes (TEFC)", "work_id": 65030, "role": "production company", "role_id": 941, "is_primary": true}, {"id": 2679339, "title": "The Cat and the fiddler", "work_id": 65858, "role": "production company", "role_id": 941, "is_primary": true}, {"id": 2749770, "title": "Picnic with Weismann = Picknick mit Weismann", "work_id": 96969, "role": "production company", "role_id": 941, "is_primary": true}, {"id": 2678803, "title": "Brake free", "work_id": 65583, "role": "production company", "role_id": 941, "is_primary": true}, {"id": 2644613, "title": "Easy way out", "work_id": 67010, "role": "production company", "role_id": 941, "is_primary": true}, {"id": 749155, "title": "Niko: boy of Greece", "work_id": 70905, "role": "production company", "role_id": 941, "is_primary": true}, {"id": 2749303, "title": "Jazzoo [Short version]", "work_id": 96734, "role": "production company", "role_id": 941, "is_primary": true}, {"id": 2749024, "title": "Joanjo: a Portuguese tale", "work_id": 96603, "role": "production company", "role_id": 941, "is_primary": true}, {"id": 2715104, "title": "Hamster from Hamsterdam", "work_id": 68279, "role": "production company", "role_id": 941, "is_primary": true}, {"id": 2680637, "title": "Crayon", "work_id": 66479, "role": "production company", "role_id": 941, "is_primary": true}, {"id": 2748765, "title": "Textures", "work_id": 96453, "role": "production company", "role_id": 941, "is_primary": true}, {"id": 2748764, "title": "Batik", "work_id": 96452, "role": "production company", "role_id": 941, "is_primary": true}, {"id": 2676303, "title": "Abstraction", "work_id": 111374, "role": "production company", "role_id": 941, "is_primary": true}, {"id": 876808, "title": "We'll show you what we're gonna do", "work_id": 90287, "role": "production company", "role_id": 941, "is_primary": true}, {"id": 2750303, "title": "The Artist and his craft: woodblock printer", "work_id": 97242, "role": "production company", "role_id": 941, "is_primary": true}, {"id": 2752242, "title": "Learning about sound", "work_id": 98209, "role": "production company", "role_id": 941, "is_primary": true}, {"id": 2752244, "title": "Learning about water", "work_id": 98210, "role": "production company", "role_id": 941, "is_primary": true}, {"id": 2752240, "title": "Learning about light", "work_id": 98208, "role": "production company", "role_id": 941, "is_primary": true}], "also_known_as": "", "date_of_birth": "", "date_of_death": "", "genders": [], "languages": [], "places_of_operation": [], "biography": "", "biography_author": null, "date_of_biography": "2023-05-09T18:21:48.218729+10:00", "external_links": [], "uuid": "3c0bdf69-90b7-41ee-8f7b-e8a9d002a136", "source": {"name": "Vernon", "slug": "vernon"}, "source_identifier": "3718", "external_references": [], "date_modified": "2025-03-13T14:32:58.223758+11:00"}, {"id": 12008, "name": "Films Incorporated", "roles_in_work": [{"id": 2751525, "title": "Italian-Ethiopian war: Africa in world affairs", "work_id": 97851, "role": "production company", "role_id": 941, "is_primary": true}, {"id": 2751945, "title": "The Human journey: the early years", "work_id": 98064, "role": "production company", "role_id": 941, "is_primary": true}, {"id": 2752035, "title": "How we adapt", "work_id": 98105, "role": "production company", "role_id": 941, "is_primary": true}, {"id": 856303, "title": "One film, three scripts", "work_id": 71123, "role": "production company", "role_id": 941, "is_primary": true}, {"id": 2282368, "title": "Toilette", "work_id": 97552, "role": "production company", "role_id": 941, "is_primary": true}, {"id": 896645, "title": "How the myth was made", "work_id": 75685, "role": "production company", "role_id": 941, "is_primary": true}, {"id": 2751221, "title": "First it seemed kinda strange", "work_id": 97706, "role": "production company", "role_id": 941, "is_primary": true}, {"id": 2752380, "title": "Apemen of Africa", "work_id": 98268, "role": "production company", "role_id": 941, "is_primary": true}, {"id": 2752438, "title": "The Best of zoom Martha", "work_id": 98297, "role": "production company", "role_id": 941, "is_primary": true}, {"id": 2753217, "title": "Accomplished women", "work_id": 98658, "role": "production company", "role_id": 941, "is_primary": true}, {"id": 2753263, "title": "Bombs will make the rainbows break", "work_id": 98684, "role": "production company", "role_id": 941, "is_primary": true}, {"id": 2753511, "title": "Seconds to play", "work_id": 98802, "role": "production company", "role_id": 941, "is_primary": true}, {"id": 2676301, "title": "Abstraction", "work_id": 111374, "role": "production company", "role_id": 941, "is_primary": true}, {"id": 2750285, "title": "The Cemetery of the elephants", "work_id": 97236, "role": "production company", "role_id": 941, "is_primary": true}, {"id": 2748983, "title": "Mountain family in Europe", "work_id": 96582, "role": "production company", "role_id": 941, "is_primary": true}, {"id": 2750815, "title": "The Human journey: the family", "work_id": 97520, "role": "production company", "role_id": 941, "is_primary": true}, {"id": 2749007, "title": "Sunday father", "work_id": 96596, "role": "production company", "role_id": 941, "is_primary": true}, {"id": 2680455, "title": "Co-operative farming in East Germany", "work_id": 66395, "role": "production company", "role_id": 941, "is_primary": true}, {"id": 2749117, "title": "The Last marsh", "work_id": 96639, "role": "production company", "role_id": 941, "is_primary": true}, {"id": 2749212, "title": "White man's country", "work_id": 96692, "role": "production company", "role_id": 941, "is_primary": true}, {"id": 2764801, "title": "The Ground strokes with Billie Jean King on tennis", "work_id": 68223, "role": "production company", "role_id": 941, "is_primary": true}, {"id": 2749311, "title": "The Making of the President, 1968", "work_id": 96737, "role": "production company", "role_id": 941, "is_primary": true}, {"id": 2680858, "title": "Danger! Radio active waste", "work_id": 66590, "role": "production company", "role_id": 941, "is_primary": true}, {"id": 2760592, "title": "Teeth", "work_id": 97237, "role": "production company", "role_id": 941, "is_primary": true}, {"id": 2749410, "title": "Mission to Yenan", "work_id": 96796, "role": "production company", "role_id": 941, "is_primary": true}, {"id": 2647272, "title": "Egyptian villagers", "work_id": 75832, "role": "production company", "role_id": 941, "is_primary": true}, {"id": 2750450, "title": "Finding my way", "work_id": 97332, "role": "production company", "role_id": 941, "is_primary": true}, {"id": 2749538, "title": "From Homo Erectus to neanderthal", "work_id": 96856, "role": "production company", "role_id": 941, "is_primary": true}, {"id": 2750646, "title": "Hollywood: the Selznick years", "work_id": 97430, "role": "production company", "role_id": 941, "is_primary": true}, {"id": 2644727, "title": "Failing to learn, learning to fail (TEFC)", "work_id": 67369, "role": "production company", "role_id": 941, "is_primary": true}, {"id": 2750562, "title": "Nobody ever died of old age", "work_id": 97394, "role": "production company", "role_id": 941, "is_primary": true}, {"id": 2750559, "title": "Chocolate", "work_id": 97393, "role": "production company", "role_id": 941, "is_primary": true}, {"id": 870009, "title": "Hokusai: 'Thirty-six views of Mount Fuji'", "work_id": 86054, "role": "production company", "role_id": 941, "is_primary": true}, {"id": 746169, "title": "Land of hype and glory", "work_id": 69484, "role": "production company", "role_id": 941, "is_primary": true}, {"id": 752188, "title": "River journey on the Upper Nile", "work_id": 72261, "role": "production company", "role_id": 941, "is_primary": true}, {"id": 2749947, "title": "About zoos", "work_id": 97059, "role": "production company", "role_id": 941, "is_primary": true}, {"id": 2749965, "title": "The Making of 'Butch Cassidy and the Sundance Kid'", "work_id": 97068, "role": "production company", "role_id": 941, "is_primary": true}, {"id": 2749969, "title": "Nanook of the North [Sound Version]", "work_id": 97069, "role": "production company", "role_id": 941, "is_primary": true}, {"id": 2781792, "title": "From genes to brains to books", "work_id": 82095, "role": "production company", "role_id": 941, "is_primary": true}, {"id": 2781830, "title": "The Origin of life", "work_id": 85845, "role": "production company", "role_id": 941, "is_primary": true}, {"id": 825808, "title": "Wool in Australia", "work_id": 96041, "role": "production company", "role_id": 941, "is_primary": true}, {"id": 825821, "title": "Birds on a seashore", "work_id": 96052, "role": "production company", "role_id": 941, "is_primary": true}, {"id": 2778287, "title": "Enemies within and without: 1927-1944. - 2nd ed.", "work_id": 96352, "role": "production company", "role_id": 941, "is_primary": true}, {"id": 3088507, "title": "Japan: a century of imperialism", "work_id": 96778, "role": "production company", "role_id": 941, "is_primary": true}, {"id": 3088515, "title": "A Nation transformed 1945-1965", "work_id": 96736, "role": "production company", "role_id": 941, "is_primary": true}, {"id": 3088522, "title": "Japan: the collective giant", "work_id": 96518, "role": "production company", "role_id": 941, "is_primary": true}, {"id": 3082440, "title": "The Rise of Hitler", "work_id": 86433, "role": "production company", "role_id": 941, "is_primary": true}, {"id": 2341052, "title": "The Cook the thief his wife & her lover", "work_id": 83048, "role": "production company", "role_id": 941, "is_primary": true}, {"id": 897261, "title": "Island at the edge", "work_id": 77245, "role": "production company", "role_id": 941, "is_primary": true}, {"id": 768289, "title": "Nanook of the North [Silent]", "work_id": 78869, "role": "production company", "role_id": 941, "is_primary": true}, {"id": 904492, "title": "The Bakhtiari migration", "work_id": 85391, "role": "production company", "role_id": 941, "is_primary": true}, {"id": 763351, "title": "Christmas tree", "work_id": 76995, "role": "production company", "role_id": 941, "is_primary": true}, {"id": 748112, "title": "Miners of Bolivia", "work_id": 70404, "role": "production company", "role_id": 941, "is_primary": true}, {"id": 853748, "title": "Jade Snow", "work_id": 69186, "role": "production company", "role_id": 941, "is_primary": true}, {"id": 878234, "title": "The Lizard", "work_id": 91161, "role": "production company", "role_id": 941, "is_primary": true}, {"id": 1427652, "title": "Wildfire!", "work_id": 87353, "role": "production company", "role_id": 941, "is_primary": true}, {"id": 861389, "title": "Romania", "work_id": 75268, "role": "production company", "role_id": 941, "is_primary": true}, {"id": 2113563, "title": "Between the wars: the Spanish Civil War", "work_id": 97853, "role": "production company", "role_id": 941, "is_primary": true}, {"id": 897168, "title": "The Whole truth (1976)", "work_id": 76986, "role": "production company", "role_id": 941, "is_primary": true}], "also_known_as": "", "date_of_birth": "", "date_of_death": "", "genders": [], "languages": [], "places_of_operation": [], "biography": "", "biography_author": null, "date_of_biography": "2023-08-17T15:09:46.834631+10:00", "external_links": [], "uuid": "66c67e02-87d9-4281-8e56-6142383ddb01", "source": {"name": "Vernon", "slug": "vernon"}, "source_identifier": "4805", "external_references": [], "date_modified": "2025-03-17T10:55:20.970650+11:00"}, {"id": 12007, "name": "John Arvonio", "roles_in_work": [{"id": 2643915, "title": "Abstract in concrete (TEFC)", "work_id": 111373, "role": "director", "role_id": 938, "is_primary": true}], "also_known_as": "", "date_of_birth": "", "date_of_death": "", "genders": [], "languages": [], "places_of_operation": [], "biography": "", "biography_author": null, "date_of_biography": "2023-08-11T13:25:31.350688+10:00", "external_links": [], "uuid": "90374ceb-0a58-40a6-badc-b87d7ca9a2cf", "source": {"name": "Vernon", "slug": "vernon"}, "source_identifier": "22104", "external_references": [], "date_modified": "2025-03-05T12:08:07.052372+11:00"}, {"id": 12006, "name": "John Arvonio Productions", "roles_in_work": [{"id": 2643914, "title": "Abstract in concrete (TEFC)", "work_id": 111373, "role": "production company", "role_id": 941, "is_primary": true}], "also_known_as": "", "date_of_birth": "", "date_of_death": "", "genders": [], "languages": [], "places_of_operation": [], "biography": "", "biography_author": null, "date_of_biography": "2023-08-11T13:25:30.698123+10:00", "external_links": [], "uuid": "ea445924-511d-45d6-9d99-b8d53daa367a", "source": {"name": "Vernon", "slug": "vernon"}, "source_identifier": "9612", "external_references": [], "date_modified": "2025-03-05T12:08:06.452778+11:00"}]}