{"count": 28683, "next": "https://api.acmi.net.au/creators/?page=1545", "previous": "https://api.acmi.net.au/creators/?page=1543", "results": [{"id": 32508, "name": "Yuen Woo-Ping", "roles_in_work": [{"id": 811586, "title": "Drunken master [Dubbed]", "work_id": 92484, "role": "director", "role_id": 938, "is_primary": true}, {"id": 2281136, "title": "Wing Chun", "work_id": 90799, "role": "director", "role_id": 938, "is_primary": true}, {"id": 807337, "title": "Miracle fighters = Qimen dunjia [Widescreen]", "work_id": 91138, "role": "director", "role_id": 938, "is_primary": true}, {"id": 2281135, "title": "Wing Chun", "work_id": 90799, "role": "producer", "role_id": 1089, "is_primary": true}], "also_known_as": "", "date_of_birth": "1945-01-01", "date_of_death": null, "genders": [{"id": 9, "name": "Male", "slug": "male"}], "languages": [{"id": 80, "name": "Standard Mandarin", "slug": "standard-mandarin"}], "places_of_operation": [{"id": 290, "name": "People's Republic of China", "slug": "peoples-republic-of-china"}], "biography": "Yuen Woo-ping (Chinese: 袁和平; pinyin: Yuán Hépíng; alias: Yuen Wo-ping; born 1945) is a Hong Kong martial arts choreographer and film director who worked in Hong Kong action cinema and later Hollywood films. He is one of the inductees on the Avenue of Stars in Hong Kong. Yuen is also a son of Yuen Siu-tien, a martial arts film actor.\n\n", "biography_author": "Wikidata", "date_of_biography": "2022-05-19T13:25:22.389968+10:00", "external_links": [{"id": 3318, "uri": "https://en.wikipedia.org/wiki/Yuen_Woo-ping"}], "uuid": "078bfa99-d42b-46c7-93cc-38d38467035d", "source": {"name": "Vernon", "slug": "vernon"}, "source_identifier": "30613", "external_references": [{"id": 14030, "source": {"name": "Wikidata", "slug": "wikidata"}, "source_identifier": "Q460297"}, {"id": 14031, "source": {"name": "VIAF", "slug": "viaf"}, "source_identifier": "119835194"}, {"id": 14032, "source": {"name": "LOC Auth", "slug": "loc-auth"}, "source_identifier": "nr2002006326"}, {"id": 14033, "source": {"name": "WorldCat", "slug": "worldcat"}, "source_identifier": "lccn-nr2002006326"}], "date_modified": "2023-09-13T12:33:21.855732+10:00"}, {"id": 32506, "name": "Mik Parsons", "roles_in_work": [{"id": 2316356, "title": "Successful lighting for video", "work_id": 90796, "role": "co-director", "role_id": 959, "is_primary": true}, {"id": 2316289, "title": "Successful camerawork for video", "work_id": 90795, "role": "co-director", "role_id": 959, "is_primary": true}, {"id": 2316319, "title": "Successful editing for video", "work_id": 90797, "role": "co-director", "role_id": 959, "is_primary": true}, {"id": 2316403, "title": "Successful sound for video", "work_id": 90798, "role": "co-director", "role_id": 959, "is_primary": true}, {"id": 2316313, "title": "Successful editing for video", "work_id": 90797, "role": "producer", "role_id": 1089, "is_primary": true}, {"id": 2316353, "title": "Successful lighting for video", "work_id": 90796, "role": "producer", "role_id": 1089, "is_primary": true}, {"id": 2316401, "title": "Successful sound for video", "work_id": 90798, "role": "producer", "role_id": 1089, "is_primary": true}, {"id": 2316285, "title": "Successful camerawork for video", "work_id": 90795, "role": "producer", "role_id": 1089, "is_primary": true}], "also_known_as": "", "date_of_birth": "", "date_of_death": "", "genders": [], "languages": [], "places_of_operation": [], "biography": "", "biography_author": null, "date_of_biography": "2023-05-09T19:05:04.498911+10:00", "external_links": [], "uuid": "a4bea263-67fb-4499-84dc-9b649cd709fb", "source": {"name": "Vernon", "slug": "vernon"}, "source_identifier": "25340", "external_references": [{"id": 40013, "source": {"name": "Wikidata", "slug": "wikidata"}, "source_identifier": "Q121079185"}], "date_modified": "2023-09-05T23:14:18.091935+10:00"}, {"id": 32505, "name": "ViT", "roles_in_work": [{"id": 2316310, "title": "Successful editing for video", "work_id": 90797, "role": "production company", "role_id": 941, "is_primary": true}, {"id": 2316346, "title": "Successful lighting for video", "work_id": 90796, "role": "production company", "role_id": 941, "is_primary": true}, {"id": 2316390, "title": "Successful sound for video", "work_id": 90798, "role": "production company", "role_id": 941, "is_primary": true}, {"id": 2316279, "title": "Successful camerawork for video", "work_id": 90795, "role": "production company", "role_id": 941, "is_primary": true}], "also_known_as": "", "date_of_birth": "", "date_of_death": "", "genders": [], "languages": [], "places_of_operation": [], "biography": "", "biography_author": null, "date_of_biography": "2023-05-09T19:05:04.024719+10:00", "external_links": [], "uuid": "5a9e6a07-d068-415e-8703-b66e38d9dcfe", "source": {"name": "Vernon", "slug": "vernon"}, "source_identifier": "14184", "external_references": [{"id": 42804, "source": {"name": "Wikidata", "slug": "wikidata"}, "source_identifier": "Q121270783"}], "date_modified": "2023-09-06T02:07:35.791802+10:00"}, {"id": 32503, "name": "Stoner Productions", "roles_in_work": [{"id": 3081711, "title": "Guernica: testimony of war", "work_id": 90793, "role": "production company", "role_id": 941, "is_primary": true}, {"id": 3081694, "title": "The Mystery of the Taj Mahal", "work_id": 90791, "role": "production company", "role_id": 941, "is_primary": true}, {"id": 3081686, "title": "Theft of the Mona Lisa", "work_id": 90790, "role": "production company", "role_id": 941, "is_primary": true}, {"id": 3081720, "title": "The Faberge eggs: mementos of a doomed dynasty", "work_id": 90794, "role": "production company", "role_id": 941, "is_primary": true}, {"id": 3081702, "title": "Notorious Hope Diamond", "work_id": 90792, "role": "production company", "role_id": 941, "is_primary": true}], "also_known_as": "", "date_of_birth": "", "date_of_death": "", "genders": [], "languages": [], "places_of_operation": [], "biography": "", "biography_author": null, "date_of_biography": "2023-05-09T19:50:04.049014+10:00", "external_links": [], "uuid": "5e0595f5-58c4-4f23-910a-423d09844b0c", "source": {"name": "Vernon", "slug": "vernon"}, "source_identifier": "12970", "external_references": [{"id": 51889, "source": {"name": "Wikidata", "slug": "wikidata"}, "source_identifier": "Q121357704"}], "date_modified": "2025-03-17T10:25:39.257177+11:00"}, {"id": 32502, "name": "Helen Staveley-Taylor", "roles_in_work": [{"id": 3083169, "title": "Classical and operant conditioning", "work_id": 93230, "role": "director", "role_id": 938, "is_primary": true}, {"id": 3083160, "title": "Cognitive development", "work_id": 93229, "role": "director", "role_id": 938, "is_primary": true}, {"id": 3083179, "title": "Memory", "work_id": 90789, "role": "director", "role_id": 938, "is_primary": true}], "also_known_as": "", "date_of_birth": "", "date_of_death": "", "genders": [], "languages": [], "places_of_operation": [], "biography": "", "biography_author": null, "date_of_biography": "2023-05-09T16:39:44.559272+10:00", "external_links": [], "uuid": "283d4e77-aaf0-4e25-bdec-f42c11e5991b", "source": {"name": "Vernon", "slug": "vernon"}, "source_identifier": "20438", "external_references": [], "date_modified": "2025-03-17T10:32:15.894760+11:00"}, {"id": 32501, "name": "Uniview Productions", "roles_in_work": [{"id": 3083184, "title": "Psychology Live", "work_id": 115580, "role": "production company", "role_id": 941, "is_primary": true}, {"id": 3083176, "title": "Memory", "work_id": 90789, "role": "production company", "role_id": 941, "is_primary": true}, {"id": 3083166, "title": "Classical and operant conditioning", "work_id": 93230, "role": "production company", "role_id": 941, "is_primary": true}, {"id": 3083157, "title": "Cognitive development", "work_id": 93229, "role": "production company", "role_id": 941, "is_primary": true}], "also_known_as": "", "date_of_birth": "", "date_of_death": "", "genders": [], "languages": [], "places_of_operation": [], "biography": "", "biography_author": null, "date_of_biography": "2023-05-09T16:39:44.314798+10:00", "external_links": [], "uuid": "baa1f077-9e74-465d-8d45-3fa6b5ddc6f3", "source": {"name": "Vernon", "slug": "vernon"}, "source_identifier": "13945", "external_references": [], "date_modified": "2025-03-17T10:32:17.155248+11:00"}, {"id": 32493, "name": "Greg Brenman", "roles_in_work": [{"id": 2115138, "title": "Billy Elliot [DVD]", "work_id": 91095, "role": "co-producer", "role_id": 915, "is_primary": true}, {"id": 2175004, "title": "Jane Eyre by Charlotte Bronte", "work_id": 90785, "role": "producer", "role_id": 1089, "is_primary": true}], "also_known_as": "", "date_of_birth": "", "date_of_death": "", "genders": [{"id": 9, "name": "Male", "slug": "male"}], "languages": [{"id": 1, "name": "English", "slug": "english"}], "places_of_operation": [{"id": 10, "name": "United Kingdom", "slug": "united-kingdom"}], "biography": "Greg Brenman is an English film and television producer.\nAs previous Head of Drama at UK's Tiger Aspect Productions, he produced over 400 hours of British TV drama.  Titles include Peaky Blinders, Ripper Street, My Mad Fat Diary, Prisoners' Wives, Robin Hood and Secret Diary of a Call Girl.\nIn film, Brenman has produced films such Omagh, White Girl, and Billy Elliot.\nIn 2013, Brenman, with colleague Roanna Benn, formed Drama Republic, a new specialty drama production company. Drama Republic produced Doctor Foster, which Brenman is an executive producer of.\nIn 2017, it was announced that Brenamn would executive produce the Hugo Blick series The Forgiving Earth, which will air on BBC Two and Netflix.", "biography_author": "Wikidata", "date_of_biography": "2023-08-01T15:04:44.951986+10:00", "external_links": [{"id": 4101, "uri": "https://en.wikipedia.org/wiki/Greg_Brenman"}], "uuid": "5311cbb8-922a-47bf-a87d-fa0b328c564f", "source": {"name": "Vernon", "slug": "vernon"}, "source_identifier": "20043", "external_references": [{"id": 26075, "source": {"name": "Wikidata", "slug": "wikidata"}, "source_identifier": "Q16727647"}, {"id": 28758, "source": {"name": "VIAF", "slug": "viaf"}, "source_identifier": "301377036"}, {"id": 28759, "source": {"name": "WorldCat", "slug": "worldcat"}, "source_identifier": "lccn-no98046505"}], "date_modified": "2023-09-05T20:21:21.817725+10:00"}, {"id": 32492, "name": "Andrew Benson", "roles_in_work": [{"id": 3082371, "title": "Hornblower", "work_id": 115561, "role": "producer", "role_id": 1089, "is_primary": true}, {"id": 3082325, "title": "The Even chance", "work_id": 90783, "role": "producer", "role_id": 1089, "is_primary": true}, {"id": 3082337, "title": "The Frogs and the lobsters", "work_id": 91946, "role": "producer", "role_id": 1089, "is_primary": true}, {"id": 3082350, "title": "Examination for lieutenant", "work_id": 90784, "role": "producer", "role_id": 1089, "is_primary": true}, {"id": 3082359, "title": "The Duchess and the devil", "work_id": 91945, "role": "producer", "role_id": 1089, "is_primary": true}], "also_known_as": "", "date_of_birth": "", "date_of_death": "", "genders": [], "languages": [], "places_of_operation": [], "biography": "", "biography_author": null, "date_of_biography": "2023-05-09T19:54:43.363429+10:00", "external_links": [], "uuid": "7710a2dd-e4e9-4eed-bb03-b1080ce69ed1", "source": {"name": "Vernon", "slug": "vernon"}, "source_identifier": "15143", "external_references": [{"id": 38906, "source": {"name": "Wikidata", "slug": "wikidata"}, "source_identifier": "Q121337298"}], "date_modified": "2025-03-17T10:28:47.262144+11:00"}, {"id": 32491, "name": "Meridian Broadcasting", "roles_in_work": [{"id": 3082344, "title": "Examination for lieutenant", "work_id": 90784, "role": "production company", "role_id": 941, "is_primary": true}, {"id": 3082331, "title": "The Frogs and the lobsters", "work_id": 91946, "role": "production company", "role_id": 941, "is_primary": true}, {"id": 3082319, "title": "The Even chance", "work_id": 90783, "role": "production company", "role_id": 941, "is_primary": true}, {"id": 1995559, "title": "The Turn of the screw", "work_id": 91777, "role": "production company", "role_id": 941, "is_primary": true}, {"id": 3082365, "title": "Hornblower", "work_id": 115561, "role": "production company", "role_id": 941, "is_primary": true}, {"id": 3082355, "title": "The Duchess and the devil", "work_id": 91945, "role": "production company", "role_id": 941, "is_primary": true}], "also_known_as": "", "date_of_birth": "", "date_of_death": "", "genders": [], "languages": [], "places_of_operation": [], "biography": "", "biography_author": null, "date_of_biography": "2023-05-09T19:54:42.557740+10:00", "external_links": [], "uuid": "bb7600b0-8695-490f-871b-063134f69db2", "source": {"name": "Vernon", "slug": "vernon"}, "source_identifier": "10476", "external_references": [{"id": 41854, "source": {"name": "Wikidata", "slug": "wikidata"}, "source_identifier": "Q121223496"}], "date_modified": "2025-03-17T10:28:45.514083+11:00"}, {"id": 32485, "name": "Berwin and Dempsey Productions", "roles_in_work": [{"id": 2110083, "title": "Bedrooms and hallways [Widescreen]", "work_id": 90782, "role": "production company", "role_id": 941, "is_primary": true}], "also_known_as": "", "date_of_birth": "", "date_of_death": "", "genders": [], "languages": [], "places_of_operation": [], "biography": "", "biography_author": null, "date_of_biography": "2023-05-09T12:44:50.080510+10:00", "external_links": [], "uuid": "ac15b253-8020-4427-a9b4-ad5043f209c3", "source": {"name": "Vernon", "slug": "vernon"}, "source_identifier": "5821", "external_references": [{"id": 35214, "source": {"name": "Wikidata", "slug": "wikidata"}, "source_identifier": "Q121035713"}], "date_modified": "2023-09-05T18:00:28.852714+10:00"}]}