{"count": 28687, "next": "https://api.acmi.net.au/creators/?page=2330", "previous": "https://api.acmi.net.au/creators/?page=2328", "results": [{"id": 16213, "name": "Beamish Productions", "roles_in_work": [{"id": 2467321, "title": "The Last stronghold: the unknown jungle", "work_id": 69514, "role": "production company", "role_id": 941, "is_primary": true}], "also_known_as": "", "date_of_birth": "", "date_of_death": "", "genders": [], "languages": [], "places_of_operation": [], "biography": "", "biography_author": null, "date_of_biography": "2023-08-14T11:17:45.271559+10:00", "external_links": [], "uuid": "e2260c25-30da-4f09-8342-fc17ecd36860", "source": {"name": "Vernon", "slug": "vernon"}, "source_identifier": "5774", "external_references": [], "date_modified": "2023-08-14T11:17:45.271803+10:00"}, {"id": 16212, "name": "Athol Emerton", "roles_in_work": [{"id": 2645389, "title": "Last of the windjammers", "work_id": 69513, "role": "director", "role_id": 938, "is_primary": true}], "also_known_as": "", "date_of_birth": null, "date_of_death": null, "genders": [], "languages": [], "places_of_operation": [], "biography": "", "biography_author": null, "date_of_biography": null, "external_links": [], "uuid": "6b6079c6-0ad5-4254-b5b6-0d64152594b7", "source": {"name": "Vernon", "slug": "vernon"}, "source_identifier": "15581", "external_references": [], "date_modified": "2025-03-05T12:40:02.900554+11:00"}, {"id": 16211, "name": "New England Film Productions", "roles_in_work": [{"id": 2645388, "title": "Last of the windjammers", "work_id": 69513, "role": "production company", "role_id": 941, "is_primary": true}, {"id": 2776137, "title": "Steve", "work_id": 81628, "role": "production company", "role_id": 941, "is_primary": true}, {"id": 2776165, "title": "The Top end", "work_id": 115202, "role": "production company", "role_id": 941, "is_primary": true}, {"id": 2776149, "title": "Chinese Territory", "work_id": 81633, "role": "production company", "role_id": 941, "is_primary": true}, {"id": 2776125, "title": "George", "work_id": 81808, "role": "production company", "role_id": 941, "is_primary": true}, {"id": 2776118, "title": "Elisabeth", "work_id": 82259, "role": "production company", "role_id": 941, "is_primary": true}], "also_known_as": "", "date_of_birth": "", "date_of_death": "", "genders": [], "languages": [], "places_of_operation": [], "biography": "", "biography_author": null, "date_of_biography": "2023-05-09T18:56:11.290077+10:00", "external_links": [], "uuid": "057eb6e6-2039-49b9-8dbf-c271dcf3542b", "source": {"name": "Vernon", "slug": "vernon"}, "source_identifier": "10898", "external_references": [], "date_modified": "2025-03-14T18:46:07.648683+11:00"}, {"id": 16210, "name": "Exxon Corporation", "roles_in_work": [{"id": 2767952, "title": "Last hour clash (TEFC)", "work_id": 69512, "role": "production company", "role_id": 941, "is_primary": true}], "also_known_as": "", "date_of_birth": null, "date_of_death": null, "genders": [], "languages": [], "places_of_operation": [], "biography": "", "biography_author": null, "date_of_biography": null, "external_links": [], "uuid": "af1572f3-0569-4fe3-8f2b-d07c87684b97", "source": {"name": "Vernon", "slug": "vernon"}, "source_identifier": "8050", "external_references": [], "date_modified": "2025-03-14T18:07:45.442752+11:00"}, {"id": 16209, "name": "Agency for Instructional Television", "roles_in_work": [{"id": 2753025, "title": "Who am I?: developing a self-concept", "work_id": 98571, "role": "production company", "role_id": 941, "is_primary": true}, {"id": 2753049, "title": "Face to face: dealing with conflict", "work_id": 98579, "role": "production company", "role_id": 941, "is_primary": true}, {"id": 2753058, "title": "On the level: a little help from my friends", "work_id": 98586, "role": "production company", "role_id": 941, "is_primary": true}, {"id": 2753407, "title": "Surrounded: peer group membership", "work_id": 98746, "role": "production company", "role_id": 941, "is_primary": true}, {"id": 2750099, "title": "Area II: Barbara searches the squares", "work_id": 97143, "role": "production company", "role_id": 941, "is_primary": true}, {"id": 2750100, "title": "Area III: Barbara finds the formula", "work_id": 97144, "role": "production company", "role_id": 941, "is_primary": true}, {"id": 2400678, "title": "Area 1: Barbara arrives in Arealand", "work_id": 97142, "role": "production company", "role_id": 941, "is_primary": true}, {"id": 2750101, "title": "Measure metric. Vol. 1. Doc Cranshaw and the kid: the medicine show", "work_id": 97145, "role": "production company", "role_id": 941, "is_primary": true}, {"id": 2750096, "title": "Greatest measurement show on earth", "work_id": 97138, "role": "production company", "role_id": 941, "is_primary": true}, {"id": 2750102, "title": "Measure metric. Vol. 2. Doc Cranshaw and the kid: the contest", "work_id": 97146, "role": "production company", "role_id": 941, "is_primary": true}, {"id": 2750103, "title": "Measure metric. Vol. 3. Doc Cranshaw and the kid: the winner", "work_id": 97147, "role": "production company", "role_id": 941, "is_primary": true}, {"id": 2767949, "title": "Last hour clash (TEFC)", "work_id": 69512, "role": "production company", "role_id": 941, "is_primary": true}, {"id": 2767955, "title": "The Parent crunch (TEFC)", "work_id": 75137, "role": "production company", "role_id": 941, "is_primary": true}, {"id": 831560, "title": "Side by side: prejudice", "work_id": 98569, "role": "production company", "role_id": 941, "is_primary": true}, {"id": 887733, "title": "Universe and I. Ep. 4. A Visit to spectrum II", "work_id": 97767, "role": "production company", "role_id": 941, "is_primary": true}], "also_known_as": "", "date_of_birth": "", "date_of_death": "", "genders": [], "languages": [], "places_of_operation": [], "biography": "", "biography_author": null, "date_of_biography": "2023-08-11T14:11:08.240341+10:00", "external_links": [], "uuid": "0921a341-0637-46d1-89d7-1163ae443bd7", "source": {"name": "Vernon", "slug": "vernon"}, "source_identifier": "13797", "external_references": [], "date_modified": "2025-03-14T18:07:44.867325+11:00"}, {"id": 16208, "name": "Mauri Goldberg", "roles_in_work": [{"id": 2749057, "title": "The Invisible planet", "work_id": 96615, "role": "director", "role_id": 938, "is_primary": true}, {"id": 854217, "title": "Laser: the light of the future", "work_id": 69509, "role": "producer/director", "role_id": 31, "is_primary": true}], "also_known_as": "", "date_of_birth": null, "date_of_death": null, "genders": [], "languages": [], "places_of_operation": [], "biography": "", "biography_author": null, "date_of_biography": null, "external_links": [], "uuid": "6f50e0b2-6944-46de-80bb-2cb4da75f695", "source": {"name": "Vernon", "slug": "vernon"}, "source_identifier": "24824", "external_references": [], "date_modified": "2025-03-12T23:52:00.587892+11:00"}, {"id": 16207, "name": "Prism Productions", "roles_in_work": [{"id": 854215, "title": "Laser: the light of the future", "work_id": 69509, "role": "production company", "role_id": 941, "is_primary": true}, {"id": 2749055, "title": "The Invisible planet", "work_id": 96615, "role": "production company", "role_id": 941, "is_primary": true}, {"id": 2749724, "title": "Mouse-activated candle lighter", "work_id": 96944, "role": "production company", "role_id": 941, "is_primary": true}, {"id": 2465505, "title": "Science close-up: snake hunt", "work_id": 97559, "role": "production company", "role_id": 941, "is_primary": true}], "also_known_as": "", "date_of_birth": "", "date_of_death": "", "genders": [], "languages": [], "places_of_operation": [], "biography": "", "biography_author": null, "date_of_biography": "2023-08-14T10:36:01.388621+10:00", "external_links": [], "uuid": "45f7cbfb-ef0e-4555-b6b4-22fcd67e9ae6", "source": {"name": "Vernon", "slug": "vernon"}, "source_identifier": "11652", "external_references": [], "date_modified": "2025-03-13T00:06:04.361730+11:00"}, {"id": 16205, "name": "Duncan Griffin-Beale", "roles_in_work": [{"id": 1913080, "title": "Television production planning", "work_id": 96117, "role": "director", "role_id": 938, "is_primary": true}, {"id": 1913087, "title": "Television production planning (TEFC)", "work_id": 73593, "role": "director", "role_id": 938, "is_primary": true}, {"id": 1811093, "title": "Laser", "work_id": 69505, "role": "producer", "role_id": 1089, "is_primary": true}], "also_known_as": "", "date_of_birth": null, "date_of_death": null, "genders": [], "languages": [], "places_of_operation": [], "biography": "", "biography_author": null, "date_of_biography": null, "external_links": [], "uuid": "93690c00-a4b5-4845-84e3-29a72a14a9e1", "source": {"name": "Vernon", "slug": "vernon"}, "source_identifier": "18462", "external_references": [{"id": 34379, "source": {"name": "Wikidata", "slug": "wikidata"}, "source_identifier": "Q120518184"}], "date_modified": "2023-09-13T12:29:09.913256+10:00"}, {"id": 16204, "name": "Vern Barry", "roles_in_work": [{"id": 2414530, "title": "Las Vegas", "work_id": 69504, "role": "director", "role_id": 938, "is_primary": true}], "also_known_as": "", "date_of_birth": "", "date_of_death": "", "genders": [], "languages": [], "places_of_operation": [], "biography": "", "biography_author": null, "date_of_biography": "2023-08-11T19:18:16.177229+10:00", "external_links": [], "uuid": "9d029dd4-8b64-49f1-8665-e949fb1b3339", "source": {"name": "Vernon", "slug": "vernon"}, "source_identifier": "30071", "external_references": [], "date_modified": "2023-08-11T19:18:16.177475+10:00"}, {"id": 16203, "name": "Film and Television Communications", "roles_in_work": [{"id": 2414529, "title": "Las Vegas", "work_id": 69504, "role": "production company", "role_id": 941, "is_primary": true}], "also_known_as": "", "date_of_birth": "", "date_of_death": "", "genders": [], "languages": [], "places_of_operation": [], "biography": "", "biography_author": null, "date_of_biography": "2023-08-11T19:18:15.518819+10:00", "external_links": [], "uuid": "10581ca1-6966-40da-b34d-a27b7f90b13c", "source": {"name": "Vernon", "slug": "vernon"}, "source_identifier": "8180", "external_references": [], "date_modified": "2023-08-11T19:18:15.519059+10:00"}]}