{"count": 28687, "next": "https://api.acmi.net.au/creators/?page=616", "previous": "https://api.acmi.net.au/creators/?page=614", "results": [{"id": 79433, "name": "Don Mulholland", "roles_in_work": [{"id": 2299237, "title": "Sight and sound", "work_id": 90702, "role": "producer", "role_id": 1089, "is_primary": true}], "also_known_as": "", "date_of_birth": "", "date_of_death": "", "genders": [], "languages": [], "places_of_operation": [], "biography": "", "biography_author": null, "date_of_biography": "2023-05-09T18:33:49.736279+10:00", "external_links": [], "uuid": "47252e51-5c95-4961-b14e-a8b98f031ec9", "source": {"name": "Vernon", "slug": "vernon"}, "source_identifier": "18238", "external_references": [{"id": 33351, "source": {"name": "Wikidata", "slug": "wikidata"}, "source_identifier": "Q121035314"}], "date_modified": "2023-09-05T19:16:09.016005+10:00"}, {"id": 79432, "name": "Mel Thistle", "roles_in_work": [{"id": 2264258, "title": "Science, seedbed of industry", "work_id": 90700, "role": "producer", "role_id": 1089, "is_primary": true}], "also_known_as": "", "date_of_birth": "", "date_of_death": "", "genders": [], "languages": [], "places_of_operation": [], "biography": "", "biography_author": null, "date_of_biography": "2023-05-09T17:33:23.817777+10:00", "external_links": [], "uuid": "4cd3d744-262e-43a7-9c67-5fbefe6334cb", "source": {"name": "Vernon", "slug": "vernon"}, "source_identifier": "24919", "external_references": [{"id": 33362, "source": {"name": "Wikidata", "slug": "wikidata"}, "source_identifier": "Q121036003"}], "date_modified": "2023-09-05T22:59:44.950053+10:00"}, {"id": 79431, "name": "Pied Piper Films", "roles_in_work": [{"id": 2264255, "title": "Science, seedbed of industry", "work_id": 90700, "role": "production company", "role_id": 941, "is_primary": true}], "also_known_as": "", "date_of_birth": "", "date_of_death": "", "genders": [], "languages": [], "places_of_operation": [], "biography": "", "biography_author": null, "date_of_biography": "2023-05-09T17:33:23.564136+10:00", "external_links": [], "uuid": "f0a9b194-1cca-4210-9116-7665dfd2f754", "source": {"name": "Vernon", "slug": "vernon"}, "source_identifier": "11480", "external_references": [{"id": 42446, "source": {"name": "Wikidata", "slug": "wikidata"}, "source_identifier": "Q121126391"}], "date_modified": "2023-09-06T00:07:27.541110+10:00"}, {"id": 79430, "name": "Larry Wachowski", "roles_in_work": [], "also_known_as": "", "date_of_birth": null, "date_of_death": null, "genders": [], "languages": [], "places_of_operation": [], "biography": "", "biography_author": null, "date_of_biography": null, "external_links": [], "uuid": "7006c906-5579-4fad-a590-0f67ee56183b", "source": {"name": "Vernon", "slug": "vernon"}, "source_identifier": null, "external_references": [], "date_modified": "2023-06-14T16:33:30.576250+10:00"}, {"id": 79429, "name": "Andy Wachowski", "roles_in_work": [], "also_known_as": "", "date_of_birth": null, "date_of_death": null, "genders": [], "languages": [], "places_of_operation": [], "biography": "", "biography_author": null, "date_of_biography": null, "external_links": [], "uuid": "a8fffcc3-1c6f-4210-8bd4-f9a2e781063c", "source": {"name": "Vernon", "slug": "vernon"}, "source_identifier": null, "external_references": [], "date_modified": "2023-06-14T16:33:30.576250+10:00"}, {"id": 79428, "name": "David O. Russell", "roles_in_work": [{"id": 1994902, "title": "Three kings", "work_id": 90680, "role": "director", "role_id": 938, "is_primary": true}, {"id": 2650559, "title": "Spanking the monkey", "work_id": 115735, "role": "director", "role_id": 938, "is_primary": true}], "also_known_as": "", "date_of_birth": "20 AUG 1958", "date_of_death": "", "genders": [{"id": 9, "name": "Male", "slug": "male"}], "languages": [{"id": 1, "name": "English", "slug": "english"}], "places_of_operation": [{"id": 1, "name": "United States of America", "slug": "united-states-of-america"}], "biography": "David Owen Russell (born August 20, 1958) is an American film director, screenwriter and producer.\n\nHis early directing career includes the comedy films Spanking the Monkey (1994), Flirting with Disaster (1996), Three Kings (1999), and I Heart Huckabees (2004). He gained critical success with the biographical sports drama The Fighter (2010), the romantic comedy-drama Silver Linings Playbook (2012), and the dark comedy crime film American Hustle (2013). The three films were commercially successful and acclaimed by critics, earning Russell three Academy Award nominations for Best Director, as well as a Best Adapted Screenplay nomination for Silver Linings Playbook and a Best Original Screenplay nomination for American Hustle. Russell received his seventh Golden Globe nomination for the semi-biographical comedy-drama Joy (2015). Source: Wikidata; 01/08/2023", "biography_author": null, "date_of_biography": "2025-03-05T14:21:08.963548+11:00", "external_links": [{"id": 1904, "uri": "https://en.wikipedia.org/wiki/David_O._Russell"}], "uuid": "d8d276d7-f899-4ae8-b433-1e7f9bacc53b", "source": {"name": "Vernon", "slug": "vernon"}, "source_identifier": "17739", "external_references": [{"id": 8261, "source": {"name": "Wikidata", "slug": "wikidata"}, "source_identifier": "Q314342"}, {"id": 8262, "source": {"name": "VIAF", "slug": "viaf"}, "source_identifier": "10048961"}, {"id": 8263, "source": {"name": "LOC Auth", "slug": "loc-auth"}, "source_identifier": "n97077382"}, {"id": 8264, "source": {"name": "WorldCat", "slug": "worldcat"}, "source_identifier": "lccn-n97077382"}, {"id": 28080, "source": {"name": "VIAF", "slug": "viaf"}, "source_identifier": "4320151778218818130007"}], "date_modified": "2025-03-05T14:21:08.963788+11:00"}, {"id": 79427, "name": "Edward McDonnell", "roles_in_work": [{"id": 2000229, "title": "Insomnia (2002)", "work_id": 95009, "role": "co-producer", "role_id": 915, "is_primary": true}, {"id": 1994901, "title": "Three kings", "work_id": 90680, "role": "co-producer", "role_id": 915, "is_primary": true}], "also_known_as": "", "date_of_birth": null, "date_of_death": null, "genders": [], "languages": [], "places_of_operation": [], "biography": "", "biography_author": null, "date_of_biography": null, "external_links": [], "uuid": "7f6ee71c-d95d-47d4-9e9a-9f7a01b18c17", "source": {"name": "Vernon", "slug": "vernon"}, "source_identifier": null, "external_references": [{"id": 51771, "source": {"name": "Wikidata", "slug": "wikidata"}, "source_identifier": "Q121357809"}], "date_modified": "2023-09-05T19:26:11.179944+10:00"}, {"id": 79426, "name": "Stanley A Young", "roles_in_work": [{"id": 910061, "title": "HMS Brave Swordsman", "work_id": 90676, "role": "co-producer", "role_id": 915, "is_primary": true}], "also_known_as": "", "date_of_birth": null, "date_of_death": null, "genders": [], "languages": [], "places_of_operation": [], "biography": "", "biography_author": null, "date_of_biography": null, "external_links": [], "uuid": "757d660b-822d-43eb-8cfb-37c9e9618fc6", "source": {"name": "Vernon", "slug": "vernon"}, "source_identifier": null, "external_references": [{"id": 33671, "source": {"name": "Wikidata", "slug": "wikidata"}, "source_identifier": "Q121315489"}], "date_modified": "2023-09-06T01:26:24.730467+10:00"}, {"id": 79425, "name": "Ron Webber", "roles_in_work": [{"id": 877437, "title": "Valley of the moon", "work_id": 90672, "role": "director", "role_id": 938, "is_primary": true}], "also_known_as": "", "date_of_birth": null, "date_of_death": null, "genders": [], "languages": [], "places_of_operation": [], "biography": "", "biography_author": null, "date_of_biography": null, "external_links": [], "uuid": "9de258bd-9277-4198-9708-1eafe5238910", "source": {"name": "Vernon", "slug": "vernon"}, "source_identifier": null, "external_references": [{"id": 36869, "source": {"name": "Wikidata", "slug": "wikidata"}, "source_identifier": "Q121126294"}], "date_modified": "2023-09-06T00:54:54.939986+10:00"}, {"id": 79424, "name": "Rolf M. Kneller", "roles_in_work": [{"id": 2411487, "title": "In search of history: expedition to the Judean desert", "work_id": 90670, "role": "producer/director", "role_id": 31, "is_primary": true}], "also_known_as": "", "date_of_birth": "", "date_of_death": "", "genders": [], "languages": [], "places_of_operation": [], "biography": "", "biography_author": null, "date_of_biography": "2023-08-11T18:21:32.012776+10:00", "external_links": [], "uuid": "8b906760-9c02-4b71-865b-8bc2a403adc5", "source": {"name": "Vernon", "slug": "vernon"}, "source_identifier": "34358", "external_references": [{"id": 50628, "source": {"name": "Wikidata", "slug": "wikidata"}, "source_identifier": "Q121361230"}], "date_modified": "2023-09-06T00:53:18.003805+10:00"}]}