{"count": 28684, "next": "https://api.acmi.net.au/creators/?page=132", "previous": "https://api.acmi.net.au/creators/?page=130", "results": [{"id": 84294, "name": "Wallace Clarke", "roles_in_work": [{"id": 3110205, "title": "[Wallace Clarke Home Movies: Reel 33]", "work_id": 119215, "role": "creator", "role_id": 968, "is_primary": true}, {"id": 3110221, "title": "[Wallace Clarke Home Movies: Reel 30]", "work_id": 117781, "role": "creator", "role_id": 968, "is_primary": true}, {"id": 3110244, "title": "[Wallace Clarke Home Movies: Reel 20]", "work_id": 119211, "role": "creator", "role_id": 968, "is_primary": true}, {"id": 3110220, "title": "[Wallace Clarke Home Movies: Reel 3]", "work_id": 117758, "role": "creator", "role_id": 968, "is_primary": true}, {"id": 3110243, "title": "[Wallace Clarke Home Movies: Reel 21]", "work_id": 117774, "role": "creator", "role_id": 968, "is_primary": true}, {"id": 3110219, "title": "[Wallace Clarke Home Movies: Reel 12]", "work_id": 117767, "role": "creator", "role_id": 968, "is_primary": true}, {"id": 3110242, "title": "[Wallace Clarke Home Movies: Reel 9]", "work_id": 117764, "role": "creator", "role_id": 968, "is_primary": true}, {"id": 3110203, "title": "[Wallace Clarke Home Movies: Reel 31]", "work_id": 117782, "role": "creator", "role_id": 968, "is_primary": true}, {"id": 3110241, "title": "[Wallace Clarke Home Movies: Reel 8]", "work_id": 117763, "role": "creator", "role_id": 968, "is_primary": true}, {"id": 3110217, "title": "[Wallace Clarke Home Movies: Reel 19]", "work_id": 119210, "role": "creator", "role_id": 968, "is_primary": true}, {"id": 3110240, "title": "[Wallace Clarke Home Movies: Reel 7]", "work_id": 117762, "role": "creator", "role_id": 968, "is_primary": true}, {"id": 3110239, "title": "[Wallace Clarke Home Movies: Reel 32]", "work_id": 117783, "role": "creator", "role_id": 968, "is_primary": true}, {"id": 3110216, "title": "[Wallace Clarke Home Movies: Reel 17]", "work_id": 117772, "role": "creator", "role_id": 968, "is_primary": true}, {"id": 3110238, "title": "[Wallace Clarke Home Movies: Reel 6]", "work_id": 117761, "role": "creator", "role_id": 968, "is_primary": true}, {"id": 3110194, "title": "[Wallace Clarke Home Movies: Reel 22]", "work_id": 117775, "role": "creator", "role_id": 968, "is_primary": true}, {"id": 3110237, "title": "[Wallace Clarke Home Movies: Reel 15]", "work_id": 117770, "role": "creator", "role_id": 968, "is_primary": true}, {"id": 3110214, "title": "[Wallace Clarke Home Movies: Reel 14]", "work_id": 117769, "role": "creator", "role_id": 968, "is_primary": true}, {"id": 3110236, "title": "[Wallace Clarke Home Movies: Reel 10]", "work_id": 117765, "role": "creator", "role_id": 968, "is_primary": true}, {"id": 3110211, "title": "[Wallace Clarke Home Movies: Reel 4: Part 1]", "work_id": 117759, "role": "creator", "role_id": 968, "is_primary": true}, {"id": 3110235, "title": "[Wallace Clarke Home Movies: Reel 26]", "work_id": 119213, "role": "creator", "role_id": 968, "is_primary": true}, {"id": 3110212, "title": "[Wallace Clarke Home Movies: Reel 25]", "work_id": 119212, "role": "creator", "role_id": 968, "is_primary": true}, {"id": 3110234, "title": "[Wallace Clarke Home Movies: Reel 11]", "work_id": 117766, "role": "creator", "role_id": 968, "is_primary": true}, {"id": 3110171, "title": "[Wallace Clarke Home Movies: Reel 1]", "work_id": 117756, "role": "creator", "role_id": 968, "is_primary": true}, {"id": 3110226, "title": "[Wallace Clarke Home Movies: Reel 28]", "work_id": 117779, "role": "creator", "role_id": 968, "is_primary": true}, {"id": 3110224, "title": "[Wallace Clarke Home Movies: Reel 5: Part 1]", "work_id": 117760, "role": "creator", "role_id": 968, "is_primary": true}, {"id": 3110233, "title": "[Wallace Clarke Home Movies: Reel 2]", "work_id": 117757, "role": "creator", "role_id": 968, "is_primary": true}, {"id": 3110227, "title": "[Wallace Clarke Home Movies: Reel 5: Part 2]", "work_id": 117785, "role": "creator", "role_id": 968, "is_primary": true}, {"id": 3110232, "title": "[Wallace Clarke Home Movies: Reel 27]", "work_id": 117778, "role": "creator", "role_id": 968, "is_primary": true}, {"id": 3110210, "title": "[Wallace Clarke Home Movies: Reel 4: Part 2]", "work_id": 117784, "role": "creator", "role_id": 968, "is_primary": true}, {"id": 3110231, "title": "[Wallace Clarke Home Movies: Reel 13]", "work_id": 117768, "role": "creator", "role_id": 968, "is_primary": true}, {"id": 3110230, "title": "[Wallace Clarke Home Movies: Reel 29]", "work_id": 117780, "role": "creator", "role_id": 968, "is_primary": true}, {"id": 3110208, "title": "[Wallace Clarke Home Movies: Reel 24]", "work_id": 117777, "role": "creator", "role_id": 968, "is_primary": true}, {"id": 3110229, "title": "[Wallace Clarke Home Movies: Reel 23]", "work_id": 117776, "role": "creator", "role_id": 968, "is_primary": true}, {"id": 3110222, "title": "[Wallace Clarke Home Movies: Reel 16]", "work_id": 117771, "role": "creator", "role_id": 968, "is_primary": true}, {"id": 3110228, "title": "[Wallace Clarke Home Movies: Reel 18]", "work_id": 117773, "role": "creator", "role_id": 968, "is_primary": true}, {"id": 3110206, "title": "[Wallace Clarke Home Movie Collection]", "work_id": 119191, "role": "creator", "role_id": 968, "is_primary": true}], "also_known_as": "", "date_of_birth": "", "date_of_death": "", "genders": [], "languages": [], "places_of_operation": [], "biography": "", "biography_author": null, "date_of_biography": "2023-07-05T03:56:42.695691+10:00", "external_links": [], "uuid": "dc3b0c22-41be-486a-9660-9a343a2762a7", "source": {"name": "Vernon", "slug": "vernon"}, "source_identifier": "38888", "external_references": [], "date_modified": "2025-12-03T18:52:27.094957+11:00"}, {"id": 84293, "name": "Charles Hayes", "roles_in_work": [{"id": 3111424, "title": "[Charles Hayes Home Movies: Reel 3. Moomba 1964] [excerpt]", "work_id": 117831, "role": "creator", "role_id": 968, "is_primary": true}, {"id": 3111428, "title": "[Charles Hayes Home Movies: Reel 3]", "work_id": 117755, "role": "creator", "role_id": 968, "is_primary": true}, {"id": 3111418, "title": "[Charles Hayes Home Movies: Reel 1]", "work_id": 117753, "role": "creator", "role_id": 968, "is_primary": true}, {"id": 3111460, "title": "[Charles Hayes Home Movies: Reel 11]", "work_id": 118275, "role": "creator", "role_id": 968, "is_primary": true}, {"id": 3111456, "title": "[Charles Hayes Home Movies: Reel 12]", "work_id": 118277, "role": "creator", "role_id": 968, "is_primary": true}, {"id": 3111452, "title": "[Charles Hayes Home Movie Collection]", "work_id": 119160, "role": "creator", "role_id": 968, "is_primary": true}, {"id": 3111458, "title": "[Charles Hayes Home Movies: Reel 6]", "work_id": 117750, "role": "creator", "role_id": 968, "is_primary": true}, {"id": 3111453, "title": "[Charles Hayes Home Movies: Reel 2]", "work_id": 117754, "role": "creator", "role_id": 968, "is_primary": true}, {"id": 3111444, "title": "[Charles Hayes Home Movies: Reel 10]", "work_id": 118274, "role": "creator", "role_id": 968, "is_primary": true}, {"id": 3111442, "title": "[Charles Hayes Home Movies: Reel 9]", "work_id": 118273, "role": "creator", "role_id": 968, "is_primary": true}, {"id": 3111439, "title": "[Charles Hayes Home Movies: Reel 8]", "work_id": 117816, "role": "creator", "role_id": 968, "is_primary": true}, {"id": 3111437, "title": "[Charles Hayes Home Movies: Reel 7]", "work_id": 117751, "role": "creator", "role_id": 968, "is_primary": true}, {"id": 3111432, "title": "[Charles Hayes Home Movies: Reel 5]", "work_id": 117752, "role": "creator", "role_id": 968, "is_primary": true}, {"id": 3111430, "title": "[Charles Hayes Home Movies: Reel 4]", "work_id": 117749, "role": "creator", "role_id": 968, "is_primary": true}], "also_known_as": "", "date_of_birth": "1914", "date_of_death": "1993", "genders": [], "languages": [], "places_of_operation": [], "biography": "Growing up in Port Melbourne, Charles Edward Hayes (1914-1993) purchased his first 9.5mm movie camera in the late ‘40s, starting a hobby that would bring years of enjoyment. Charles worked at Johns & Waygood in City Road, South Melbourne progressing from office boy to the machine shop. In 1942 he was nominated to take charge of the Munitions Annex in Montague making 10lb mortar bombs. He purchased an Austin A40 car in 1949 which he kept until 1973 – the car also makes an appearance or two in the home movies!  The family purchased a property at Miller Road, Heathmont, comprising 5 acres of land in 1950 – they had decided to build some sheds and try being poultry farmers.\n\nOver the years the family had numerous cows, ducks, pigs, sheep, dogs, cats and of course Ticka the cockatoo, all these animals were treated as pets. For socialising and fitness Charles with his wife Elsie, joined the local tennis club and enjoyed playing at the weekend. Charles joined the Ringwood Movie Club through some friends and enjoyed the friendship of the club and continued to record their travels with his trusty home movie camera. In 1966 Charles went on to work for another business in Mitcham, so they eased out of the poultry business.\n\nTheir daughter Olwyn married John Baker on the 9th July 1967 and had two sons. Elenor married Ron Peach on 2nd April 1970 and had two daughters – Elenor kindly donated the films to ACMI. Elise and Charles were happily married more than 50 years - these films remain testament to a happy and hard-working family from Melbourne’s outer eastern suburbs.", "biography_author": null, "date_of_biography": "2026-04-16T17:29:16.424505+10:00", "external_links": [], "uuid": "b9277b38-6046-4045-b6f8-b31abd4b42ad", "source": {"name": "Vernon", "slug": "vernon"}, "source_identifier": "38910", "external_references": [], "date_modified": "2026-04-16T17:29:16.424815+10:00"}, {"id": 84292, "name": "Ronald Gadsden", "roles_in_work": [{"id": 3111760, "title": "[Gadsden Family Home Movie Collection: Reel 22]", "work_id": 117708, "role": "creator", "role_id": 968, "is_primary": true}, {"id": 3111754, "title": "[Gadsden Family Home Movie Collection: Reel 37]", "work_id": 117742, "role": "creator", "role_id": 968, "is_primary": true}, {"id": 3111747, "title": "[Gadsden Family Home Movie Collection: Reel 162]", "work_id": 117731, "role": "creator", "role_id": 968, "is_primary": true}, {"id": 3111737, "title": "[Gadsden Family Home Movie Collection: Reel 149]", "work_id": 117727, "role": "creator", "role_id": 968, "is_primary": true}, {"id": 3111731, "title": "[Gadsden Family Home Movie Collection: Reel 121]", "work_id": 117724, "role": "creator", "role_id": 968, "is_primary": true}, {"id": 3111724, "title": "[Gadsden Family Home Movie Collection: Reel 58]", "work_id": 117746, "role": "creator", "role_id": 968, "is_primary": true}, {"id": 3111716, "title": "[Gadsden Family Home Movie Collection: Reel 164]", "work_id": 117732, "role": "creator", "role_id": 968, "is_primary": true}, {"id": 3111707, "title": "[Gadsden Family Home Movie Collection: Reel 14]", "work_id": 117706, "role": "creator", "role_id": 968, "is_primary": true}, {"id": 3111699, "title": "[Gadsden Family Home Movie Collection: Reel 157]", "work_id": 117728, "role": "creator", "role_id": 968, "is_primary": true}, {"id": 3111690, "title": "[Gadsden Family Home Movie Collection: Reel 67]", "work_id": 117748, "role": "creator", "role_id": 968, "is_primary": true}, {"id": 3111684, "title": "[Gadsden Family Home Movie Collection: Reel 29]", "work_id": 117738, "role": "creator", "role_id": 968, "is_primary": true}, {"id": 3111668, "title": "[Gadsden Family Home Movie Collection: Reel 64]", "work_id": 117747, "role": "creator", "role_id": 968, "is_primary": true}, {"id": 3111663, "title": "[Gadsden Family Home Movie Collection: Reel 130]", "work_id": 117713, "role": "creator", "role_id": 968, "is_primary": true}, {"id": 3111658, "title": "[Gadsden Family Home Movie Collection: Reel 168]", "work_id": 117722, "role": "creator", "role_id": 968, "is_primary": true}, {"id": 3111649, "title": "[Gadsden Family Home Movie Collection: Reel 135]", "work_id": 117726, "role": "creator", "role_id": 968, "is_primary": true}, {"id": 3111539, "title": "[Gadsden Family Home Movie Collection]", "work_id": 119157, "role": "creator", "role_id": 968, "is_primary": true}, {"id": 3111524, "title": "[Gadsden Family Home Movie Collection: Reel 167]", "work_id": 117730, "role": "creator", "role_id": 968, "is_primary": true}, {"id": 3111516, "title": "[Gadsden Family Home Movie Collection: Reel 165]", "work_id": 117729, "role": "creator", "role_id": 968, "is_primary": true}, {"id": 3111495, "title": "[Gadsden Family Home Movie Collection: Reel 147]", "work_id": 117719, "role": "creator", "role_id": 968, "is_primary": true}, {"id": 3111479, "title": "[Gadsden Family Home Movie Collection: Reel 133]", "work_id": 117715, "role": "creator", "role_id": 968, "is_primary": true}, {"id": 3111476, "title": "[Gadsden Family Home Movie Collection: Reel 131]", "work_id": 117714, "role": "creator", "role_id": 968, "is_primary": true}, {"id": 3111445, "title": "[Gadsden Family Home Movie Collection: Reel 39]", "work_id": 117743, "role": "creator", "role_id": 968, "is_primary": true}, {"id": 3111438, "title": "[Gadsden Family Home Movie Collection: Reel 36]", "work_id": 117741, "role": "creator", "role_id": 968, "is_primary": true}, {"id": 3111431, "title": "[Gadsden Family Home Movie Collection: Reel 33]", "work_id": 117739, "role": "creator", "role_id": 968, "is_primary": true}, {"id": 3111427, "title": "[Gadsden Family Home Movie Collection: Reel 32]", "work_id": 117711, "role": "creator", "role_id": 968, "is_primary": true}, {"id": 3111827, "title": "[Gadsden Family Home Movie Collection: Reel 57]", "work_id": 117745, "role": "creator", "role_id": 968, "is_primary": true}, {"id": 3111647, "title": "[Gadsden Family Home Movie Collection: Reel 161]", "work_id": 117721, "role": "creator", "role_id": 968, "is_primary": true}, {"id": 3111765, "title": "[Gadsden Family Home Movie Collection: Reel 27]", "work_id": 117710, "role": "creator", "role_id": 968, "is_primary": true}, {"id": 3111664, "title": "[Gadsden Family Home Movie Collection: Reel 145]", "work_id": 117718, "role": "creator", "role_id": 968, "is_primary": true}, {"id": 3111771, "title": "[Gadsden Family Home Movie Collection: Reel 3]", "work_id": 117735, "role": "creator", "role_id": 968, "is_primary": true}, {"id": 3111394, "title": "[Gadsden Family Home Movie Collection: Reel 19]", "work_id": 117707, "role": "creator", "role_id": 968, "is_primary": true}, {"id": 3111823, "title": "[Gadsden Family Home Movie Collection: Reel 84]", "work_id": 118113, "role": "creator", "role_id": 968, "is_primary": true}, {"id": 3111400, "title": "[Gadsden Family Home Movie Collection: Reel 21]", "work_id": 117736, "role": "creator", "role_id": 968, "is_primary": true}, {"id": 3111776, "title": "[Gadsden Family Home Movie Collection: Reel 42]", "work_id": 117744, "role": "creator", "role_id": 968, "is_primary": true}, {"id": 3111780, "title": "[Gadsden Family Home Movie Collection: Reel 134]", "work_id": 117716, "role": "creator", "role_id": 968, "is_primary": true}, {"id": 3111787, "title": "[Gadsden Family Home Movie Collection: Reel 53]", "work_id": 117712, "role": "creator", "role_id": 968, "is_primary": true}, {"id": 3111791, "title": "[Gadsden Family Home Movie Collection: Reel 166]", "work_id": 117717, "role": "creator", "role_id": 968, "is_primary": true}, {"id": 3111803, "title": "[Gadsden Family Home Movie Collection: Reel 152]", "work_id": 117720, "role": "creator", "role_id": 968, "is_primary": true}, {"id": 3111808, "title": "[Gadsden Family Home Movie Collection: Reel 34]", "work_id": 117740, "role": "creator", "role_id": 968, "is_primary": true}, {"id": 3111814, "title": "[Gadsden Family Home Movie Collection: Reel 26]", "work_id": 117709, "role": "creator", "role_id": 968, "is_primary": true}, {"id": 3111820, "title": "[Gadsden Family Home Movie Collection: Reel 171]", "work_id": 117733, "role": "creator", "role_id": 968, "is_primary": true}, {"id": 3111819, "title": "[Gadsden Family Home Movie Collection: Reel 122]", "work_id": 117725, "role": "creator", "role_id": 968, "is_primary": true}, {"id": 3111419, "title": "[Gadsden Family Home Movie Collection: Reel 28]", "work_id": 117737, "role": "creator", "role_id": 968, "is_primary": true}], "also_known_as": "", "date_of_birth": "", "date_of_death": "", "genders": [], "languages": [], "places_of_operation": [], "biography": "", "biography_author": null, "date_of_biography": "2023-07-19T03:45:11.317746+10:00", "external_links": [], "uuid": "6b0b8480-b357-4f19-86ef-409be58b8da0", "source": {"name": "Vernon", "slug": "vernon"}, "source_identifier": "38851", "external_references": [], "date_modified": "2026-04-16T17:33:09.160450+10:00"}, {"id": 84291, "name": "Stanley Gadsden", "roles_in_work": [{"id": 3111656, "title": "[Gadsden Family Home Movie Collection: Reel 168]", "work_id": 117722, "role": "creator", "role_id": 968, "is_primary": true}, {"id": 3111644, "title": "[Gadsden Family Home Movie Collection: Reel 161]", "work_id": 117721, "role": "creator", "role_id": 968, "is_primary": true}, {"id": 3111661, "title": "[Gadsden Family Home Movie Collection: Reel 145]", "work_id": 117718, "role": "creator", "role_id": 968, "is_primary": true}, {"id": 3111393, "title": "[Gadsden Family Home Movie Collection: Reel 19]", "work_id": 117707, "role": "creator", "role_id": 968, "is_primary": true}, {"id": 3111397, "title": "[Gadsden Family Home Movie Collection: Reel 21]", "work_id": 117736, "role": "creator", "role_id": 968, "is_primary": true}, {"id": 3111417, "title": "[Gadsden Family Home Movie Collection: Reel 28]", "work_id": 117737, "role": "creator", "role_id": 968, "is_primary": true}, {"id": 3111426, "title": "[Gadsden Family Home Movie Collection: Reel 32]", "work_id": 117711, "role": "creator", "role_id": 968, "is_primary": true}, {"id": 3111429, "title": "[Gadsden Family Home Movie Collection: Reel 33]", "work_id": 117739, "role": "creator", "role_id": 968, "is_primary": true}, {"id": 3111436, "title": "[Gadsden Family Home Movie Collection: Reel 36]", "work_id": 117741, "role": "creator", "role_id": 968, "is_primary": true}, {"id": 3111443, "title": "[Gadsden Family Home Movie Collection: Reel 39]", "work_id": 117743, "role": "creator", "role_id": 968, "is_primary": true}, {"id": 3111475, "title": "[Gadsden Family Home Movie Collection: Reel 131]", "work_id": 117714, "role": "creator", "role_id": 968, "is_primary": true}, {"id": 3111478, "title": "[Gadsden Family Home Movie Collection: Reel 133]", "work_id": 117715, "role": "creator", "role_id": 968, "is_primary": true}, {"id": 3111494, "title": "[Gadsden Family Home Movie Collection: Reel 147]", "work_id": 117719, "role": "creator", "role_id": 968, "is_primary": true}, {"id": 3111514, "title": "[Gadsden Family Home Movie Collection: Reel 165]", "work_id": 117729, "role": "creator", "role_id": 968, "is_primary": true}, {"id": 3111523, "title": "[Gadsden Family Home Movie Collection: Reel 167]", "work_id": 117730, "role": "creator", "role_id": 968, "is_primary": true}, {"id": 3111535, "title": "[Gadsden Family Home Movie Collection]", "work_id": 119157, "role": "creator", "role_id": 968, "is_primary": true}, {"id": 3111646, "title": "[Gadsden Family Home Movie Collection: Reel 135]", "work_id": 117726, "role": "creator", "role_id": 968, "is_primary": true}, {"id": 3111660, "title": "[Gadsden Family Home Movie Collection: Reel 130]", "work_id": 117713, "role": "creator", "role_id": 968, "is_primary": true}, {"id": 3111666, "title": "[Gadsden Family Home Movie Collection: Reel 64]", "work_id": 117747, "role": "creator", "role_id": 968, "is_primary": true}, {"id": 3111680, "title": "[Gadsden Family Home Movie Collection: Reel 29]", "work_id": 117738, "role": "creator", "role_id": 968, "is_primary": true}, {"id": 3111688, "title": "[Gadsden Family Home Movie Collection: Reel 67]", "work_id": 117748, "role": "creator", "role_id": 968, "is_primary": true}, {"id": 3111695, "title": "[Gadsden Family Home Movie Collection: Reel 157]", "work_id": 117728, "role": "creator", "role_id": 968, "is_primary": true}, {"id": 3111704, "title": "[Gadsden Family Home Movie Collection: Reel 14]", "work_id": 117706, "role": "creator", "role_id": 968, "is_primary": true}, {"id": 3111711, "title": "[Gadsden Family Home Movie Collection: Reel 164]", "work_id": 117732, "role": "creator", "role_id": 968, "is_primary": true}, {"id": 3111721, "title": "[Gadsden Family Home Movie Collection: Reel 58]", "work_id": 117746, "role": "creator", "role_id": 968, "is_primary": true}, {"id": 3111728, "title": "[Gadsden Family Home Movie Collection: Reel 121]", "work_id": 117724, "role": "creator", "role_id": 968, "is_primary": true}, {"id": 3111735, "title": "[Gadsden Family Home Movie Collection: Reel 149]", "work_id": 117727, "role": "creator", "role_id": 968, "is_primary": true}, {"id": 3111743, "title": "[Gadsden Family Home Movie Collection: Reel 162]", "work_id": 117731, "role": "creator", "role_id": 968, "is_primary": true}, {"id": 3111752, "title": "[Gadsden Family Home Movie Collection: Reel 37]", "work_id": 117742, "role": "creator", "role_id": 968, "is_primary": true}, {"id": 3111757, "title": "[Gadsden Family Home Movie Collection: Reel 22]", "work_id": 117708, "role": "creator", "role_id": 968, "is_primary": true}, {"id": 3111763, "title": "[Gadsden Family Home Movie Collection: Reel 27]", "work_id": 117710, "role": "creator", "role_id": 968, "is_primary": true}, {"id": 3111769, "title": "[Gadsden Family Home Movie Collection: Reel 3]", "work_id": 117735, "role": "creator", "role_id": 968, "is_primary": true}, {"id": 3111775, "title": "[Gadsden Family Home Movie Collection: Reel 42]", "work_id": 117744, "role": "creator", "role_id": 968, "is_primary": true}, {"id": 3111778, "title": "[Gadsden Family Home Movie Collection: Reel 134]", "work_id": 117716, "role": "creator", "role_id": 968, "is_primary": true}, {"id": 3111784, "title": "[Gadsden Family Home Movie Collection: Reel 53]", "work_id": 117712, "role": "creator", "role_id": 968, "is_primary": true}, {"id": 3111789, "title": "[Gadsden Family Home Movie Collection: Reel 166]", "work_id": 117717, "role": "creator", "role_id": 968, "is_primary": true}, {"id": 3111800, "title": "[Gadsden Family Home Movie Collection: Reel 152]", "work_id": 117720, "role": "creator", "role_id": 968, "is_primary": true}, {"id": 3111806, "title": "[Gadsden Family Home Movie Collection: Reel 34]", "work_id": 117740, "role": "creator", "role_id": 968, "is_primary": true}, {"id": 3111811, "title": "[Gadsden Family Home Movie Collection: Reel 26]", "work_id": 117709, "role": "creator", "role_id": 968, "is_primary": true}, {"id": 3111817, "title": "[Gadsden Family Home Movie Collection: Reel 171]", "work_id": 117733, "role": "creator", "role_id": 968, "is_primary": true}, {"id": 3111816, "title": "[Gadsden Family Home Movie Collection: Reel 122]", "work_id": 117725, "role": "creator", "role_id": 968, "is_primary": true}, {"id": 3111822, "title": "[Gadsden Family Home Movie Collection: Reel 84]", "work_id": 118113, "role": "creator", "role_id": 968, "is_primary": true}, {"id": 3111825, "title": "[Gadsden Family Home Movie Collection: Reel 57]", "work_id": 117745, "role": "creator", "role_id": 968, "is_primary": true}], "also_known_as": "", "date_of_birth": "", "date_of_death": "1957", "genders": [], "languages": [], "places_of_operation": [], "biography": "", "biography_author": null, "date_of_biography": "2023-07-19T03:45:10.634577+10:00", "external_links": [], "uuid": "8eae0fc1-969d-436e-b9ae-501d30a28724", "source": {"name": "Vernon", "slug": "vernon"}, "source_identifier": "38850", "external_references": [], "date_modified": "2026-04-16T17:33:08.310709+10:00"}, {"id": 84290, "name": "Robert Suggett", "roles_in_work": [{"id": 2059248, "title": "[Construction of the Water Tower at Fletcher Jones Factory, Warrnambool, 1967]", "work_id": 117704, "role": "creator", "role_id": 968, "is_primary": true}, {"id": 2059245, "title": "[Robert Lennox Suggett Collection]", "work_id": 119190, "role": "creator", "role_id": 968, "is_primary": true}, {"id": 2059251, "title": "[London, 1963 - 1964]", "work_id": 117705, "role": "creator", "role_id": 968, "is_primary": true}], "also_known_as": "", "date_of_birth": "", "date_of_death": "", "genders": [], "languages": [], "places_of_operation": [], "biography": "", "biography_author": null, "date_of_biography": "2023-05-09T10:58:37.439166+10:00", "external_links": [], "uuid": "1976b058-4320-402f-ba95-277dcf006fbd", "source": {"name": "Vernon", "slug": "vernon"}, "source_identifier": "38842", "external_references": [], "date_modified": "2023-06-14T16:33:30.576250+10:00"}, {"id": 84289, "name": "Bailey Marr", "roles_in_work": [{"id": 2719323, "title": "The Adventures of the Lost Treasure [videogame trailer]", "work_id": 117702, "role": "creator", "role_id": 968, "is_primary": true}], "also_known_as": "", "date_of_birth": "", "date_of_death": "", "genders": [], "languages": [], "places_of_operation": [], "biography": "", "biography_author": null, "date_of_biography": "2023-05-09T19:55:38.680196+10:00", "external_links": [], "uuid": "3e3ae010-934e-4cb0-a170-1e41a0b2c24a", "source": {"name": "Vernon", "slug": "vernon"}, "source_identifier": "38786", "external_references": [], "date_modified": "2025-03-12T07:04:44.261041+11:00"}, {"id": 84288, "name": "Bialik College", "roles_in_work": [{"id": 2719319, "title": "The Adventures of the Lost Treasure [videogame trailer]", "work_id": 117702, "role": "creator", "role_id": 968, "is_primary": true}], "also_known_as": "", "date_of_birth": "", "date_of_death": "", "genders": [], "languages": [], "places_of_operation": [], "biography": "", "biography_author": null, "date_of_biography": "2023-05-09T19:55:38.435911+10:00", "external_links": [], "uuid": "03848a45-1550-4d27-91a8-9d8ba0f07b97", "source": {"name": "Vernon", "slug": "vernon"}, "source_identifier": "38785", "external_references": [], "date_modified": "2025-03-12T07:04:43.540773+11:00"}, {"id": 84287, "name": "Kingswood Primary School", "roles_in_work": [{"id": 2719384, "title": "Day One [videogame trailer]", "work_id": 117701, "role": "creator", "role_id": 968, "is_primary": true}], "also_known_as": "", "date_of_birth": "", "date_of_death": "", "genders": [], "languages": [], "places_of_operation": [], "biography": "", "biography_author": null, "date_of_biography": "2023-05-09T19:55:41.841554+10:00", "external_links": [], "uuid": "9090377f-2337-440e-a893-f19300b804e3", "source": {"name": "Vernon", "slug": "vernon"}, "source_identifier": "38778", "external_references": [], "date_modified": "2025-03-12T07:05:03.444938+11:00"}, {"id": 84286, "name": "Tom Barham", "roles_in_work": [{"id": 2719419, "title": "The Mysterious Mister E", "work_id": 117700, "role": "creator", "role_id": 968, "is_primary": true}], "also_known_as": "", "date_of_birth": "", "date_of_death": "", "genders": [], "languages": [], "places_of_operation": [], "biography": "", "biography_author": null, "date_of_biography": "2023-05-09T19:55:54.347601+10:00", "external_links": [], "uuid": "16c90a97-8e3c-44e8-8093-6e4ea96319fc", "source": {"name": "Vernon", "slug": "vernon"}, "source_identifier": "38782", "external_references": [], "date_modified": "2025-03-12T07:05:11.388456+11:00"}, {"id": 84285, "name": "Mansfield State High School", "roles_in_work": [{"id": 2719414, "title": "The Mysterious Mister E", "work_id": 117700, "role": "creator", "role_id": 968, "is_primary": true}], "also_known_as": "", "date_of_birth": "", "date_of_death": "", "genders": [], "languages": [], "places_of_operation": [], "biography": "", "biography_author": null, "date_of_biography": "2023-05-09T19:55:54.115394+10:00", "external_links": [], "uuid": "bb34d9b7-8dc4-4c17-afae-fbdcf94e68e6", "source": {"name": "Vernon", "slug": "vernon"}, "source_identifier": "38780", "external_references": [], "date_modified": "2025-03-12T07:05:10.809384+11:00"}]}