{"count": 28687, "next": "https://api.acmi.net.au/creators/?page=1109", "previous": "https://api.acmi.net.au/creators/?page=1107", "results": [{"id": 74502, "name": "Lionel Rich", "roles_in_work": [{"id": 2680706, "title": "Crossing the Great Sagrada", "work_id": 66517, "role": "co-producers/directors", "role_id": 628, "is_primary": true}], "also_known_as": "", "date_of_birth": "", "date_of_death": "", "genders": [], "languages": [], "places_of_operation": [], "biography": "", "biography_author": null, "date_of_biography": "2023-05-09T13:49:12.791656+10:00", "external_links": [], "uuid": "e1fbf527-b4f7-4799-8b9d-a1799193b591", "source": {"name": "Vernon", "slug": "vernon"}, "source_identifier": "23905", "external_references": [], "date_modified": "2025-03-07T00:41:19.297550+11:00"}, {"id": 74501, "name": "Adrian Brunel", "roles_in_work": [{"id": 2680705, "title": "Crossing the Great Sagrada", "work_id": 66517, "role": "co-producers/directors", "role_id": 628, "is_primary": true}], "also_known_as": "", "date_of_birth": "04 SEP 1892", "date_of_death": "18 FEB 1958", "genders": [{"id": 9, "name": "Male", "slug": "male"}], "languages": [{"id": 1, "name": "English", "slug": "english"}], "places_of_operation": [{"id": 10, "name": "United Kingdom", "slug": "united-kingdom"}], "biography": "Adrian Brunel (4 September 1892 – 18 February 1958) was an English film director and screenwriter. Brunel's directorial career started in the silent era, and reached its peak in the latter half of the 1920s. His surviving work from the 1920s, both full-length feature films and shorts, is highly regarded by silent film historians for its distinctive innovation, sophistication and wit. With the arrival of talkies, Brunel's career ground to a halt and he was absent from the screen for several years before returning in the mid-1930s with a flurry of quota quickie productions, the majority of which are now classed as lost. Brunel's last credit as director was in a 1940 comedy film, although he worked for a few years more as a \"fixer-up\" for films directed or produced by friends in the industry.After decades of neglect, Brunel's work has latterly been rediscovered and has undergone a critical re-evaluation. His lost films are eagerly sought, and the British Film Institute includes two, The Crooked Billet (1929) and Badger's Green (1934), on its \"75 Most Wanted\" list of missing British feature films. Source: Wikidata; 01/08/2023", "biography_author": null, "date_of_biography": "2025-03-07T00:41:18.717171+11:00", "external_links": [{"id": 3488, "uri": "https://en.wikipedia.org/wiki/Adrian_Brunel"}], "uuid": "ea23261b-b2d9-4677-8461-08593e2648ee", "source": {"name": "Vernon", "slug": "vernon"}, "source_identifier": "14655", "external_references": [{"id": 26357, "source": {"name": "Wikidata", "slug": "wikidata"}, "source_identifier": "Q372692"}, {"id": 27095, "source": {"name": "VIAF", "slug": "viaf"}, "source_identifier": "46981121"}, {"id": 27096, "source": {"name": "LOC Auth", "slug": "loc-auth"}, "source_identifier": "no2009072813"}, {"id": 27097, "source": {"name": "WorldCat", "slug": "worldcat"}, "source_identifier": "lccn-no2009072813"}], "date_modified": "2025-03-07T00:41:18.717402+11:00"}, {"id": 74500, "name": "Steve Knapman", "roles_in_work": [{"id": 2267129, "title": "Wildside. Eps. 1-2", "work_id": 91593, "role": "producer", "role_id": 1089, "is_primary": true}, {"id": 2654919, "title": "The Leaving of Liverpool: Part 1", "work_id": 116938, "role": "producer", "role_id": 1089, "is_primary": true}, {"id": 1815388, "title": "The Leaving of Liverpool. [Parts 1 & 2]", "work_id": 89140, "role": "producer", "role_id": 1089, "is_primary": true}, {"id": 2680662, "title": "The Crew", "work_id": 66493, "role": "sound editor", "role_id": 948, "is_primary": false}], "also_known_as": "", "date_of_birth": "", "date_of_death": "", "genders": [{"id": 9, "name": "Male", "slug": "male"}], "languages": [], "places_of_operation": [{"id": 3, "name": "Australia", "slug": "australia"}], "biography": "Steve Knapman is an Australian television producer. He has received critical acclaim in marketing the genre of police drama to an international audience. His best known television series are with writer Kris Wyld: Wildside, White Collar Blue, East West 101 and The Strip. Knapman has also produced several miniseries for the public broadcasting networks ABC and SBS. The Leaving of Liverpool was the most popular such program of the year in 1992.", "biography_author": "Wikidata", "date_of_biography": "2023-09-06T01:31:15.061063+10:00", "external_links": [{"id": 6198, "uri": "https://en.wikipedia.org/wiki/Steve_Knapman"}], "uuid": "d6c56ae6-a0ea-40fa-aa3a-06a3fec5c76d", "source": {"name": "Vernon", "slug": "vernon"}, "source_identifier": "29144", "external_references": [{"id": 35071, "source": {"name": "Wikidata", "slug": "wikidata"}, "source_identifier": "Q7613056"}], "date_modified": "2025-03-07T00:40:46.273115+11:00"}, {"id": 74499, "name": "Leonard Frost", "roles_in_work": [{"id": 2680630, "title": "Crane Island", "work_id": 66476, "role": "producer", "role_id": 1089, "is_primary": true}], "also_known_as": "", "date_of_birth": "01 JAN 1928", "date_of_death": "", "genders": [{"id": 9, "name": "Male", "slug": "male"}], "languages": [{"id": 4, "name": "French", "slug": "french"}], "places_of_operation": [{"id": 36, "name": "Canada", "slug": "canada"}], "biography": "Léonard Forest (born 1928) is an Acadian filmmaker, poet and essayist. He was born in Massachusetts, United States, and grew up in Moncton, New Brunswick, Canada.\n\nHe has worked at the National Film Board from 1953 to 1980 and was involved in about 130 films, either as director, producer, script-writer. Source: Wikidata; 01/08/2023", "biography_author": null, "date_of_biography": "2025-03-07T00:40:23.905875+11:00", "external_links": [{"id": 2567, "uri": "https://en.wikipedia.org/wiki/L%C3%A9onard_Forest"}], "uuid": "7f4d00ff-47f7-4a85-ac16-312e0b5bf7c8", "source": {"name": "Vernon", "slug": "vernon"}, "source_identifier": "23715", "external_references": [{"id": 10964, "source": {"name": "Wikidata", "slug": "wikidata"}, "source_identifier": "Q3271496"}, {"id": 10965, "source": {"name": "VIAF", "slug": "viaf"}, "source_identifier": "80357845"}, {"id": 10966, "source": {"name": "LOC Auth", "slug": "loc-auth"}, "source_identifier": "n98095982"}, {"id": 10967, "source": {"name": "WorldCat", "slug": "worldcat"}, "source_identifier": "lccn-n98095982"}], "date_modified": "2025-03-07T00:40:23.906086+11:00"}, {"id": 74498, "name": "Jon Rhodes", "roles_in_work": [{"id": 2755135, "title": "Woodbridge District School (TEFC)", "work_id": 74857, "role": "", "role_id": 604, "is_primary": false}, {"id": 2680589, "title": "Country teacher", "work_id": 66456, "role": "cinematographer", "role_id": 32, "is_primary": false}, {"id": 758824, "title": "Where dead men lie", "work_id": 75163, "role": "cinematographer", "role_id": 32, "is_primary": false}], "also_known_as": "", "date_of_birth": "", "date_of_death": "", "genders": [{"id": 9, "name": "Male", "slug": "male"}], "languages": [], "places_of_operation": [], "biography": "", "biography_author": null, "date_of_biography": "2023-08-09T03:43:35.333181+10:00", "external_links": [], "uuid": "2580e70b-bc8c-448e-8fc1-7016809f03e0", "source": {"name": "Vernon", "slug": "vernon"}, "source_identifier": "37460", "external_references": [{"id": 37956, "source": {"name": "Wikidata", "slug": "wikidata"}, "source_identifier": "Q121085988"}], "date_modified": "2025-03-13T14:30:19.999753+11:00"}, {"id": 74497, "name": "Rob Bow", "roles_in_work": [{"id": 2680576, "title": "Country editor", "work_id": 66451, "role": "director", "role_id": 938, "is_primary": true}], "also_known_as": "", "date_of_birth": "", "date_of_death": "", "genders": [], "languages": [], "places_of_operation": [], "biography": "", "biography_author": null, "date_of_biography": "2023-05-09T13:47:02.734611+10:00", "external_links": [], "uuid": "a1867633-497b-4772-9d94-cb25228cb196", "source": {"name": "Vernon", "slug": "vernon"}, "source_identifier": "27586", "external_references": [{"id": 32875, "source": {"name": "Wikidata", "slug": "wikidata"}, "source_identifier": "Q121126411"}], "date_modified": "2025-03-07T00:37:24.372237+11:00"}, {"id": 74496, "name": "Arts Council of Australia", "roles_in_work": [{"id": 2680527, "title": "The Australian ballet - Corroboree", "work_id": 66428, "role": "sponsor", "role_id": 625, "is_primary": false}], "also_known_as": "", "date_of_birth": "", "date_of_death": "", "genders": [], "languages": [], "places_of_operation": [], "biography": "", "biography_author": null, "date_of_biography": "2023-05-09T19:22:36.496052+10:00", "external_links": [], "uuid": "7a8e4671-1bdb-49bf-81f6-763a1fe1c503", "source": {"name": "Vernon", "slug": "vernon"}, "source_identifier": "37591", "external_references": [], "date_modified": "2025-03-07T00:36:47.140998+11:00"}, {"id": 74495, "name": "Sydney Symphony Orchestra", "roles_in_work": [{"id": 2680526, "title": "The Australian ballet - Corroboree", "work_id": 66428, "role": "performer", "role_id": 576, "is_primary": false}], "also_known_as": "", "date_of_birth": "", "date_of_death": "", "genders": [], "languages": [], "places_of_operation": [], "biography": "", "biography_author": null, "date_of_biography": "2023-05-09T19:22:36.248728+10:00", "external_links": [], "uuid": "9f73c1ee-ae7c-4781-bd45-9e682ccd2c38", "source": {"name": "Vernon", "slug": "vernon"}, "source_identifier": "37590", "external_references": [], "date_modified": "2025-03-07T00:36:46.550634+11:00"}, {"id": 74494, "name": "National Theatre Ballet Company", "roles_in_work": [{"id": 2680525, "title": "The Australian ballet - Corroboree", "work_id": 66428, "role": "collaborator", "role_id": 536, "is_primary": false}], "also_known_as": "", "date_of_birth": "", "date_of_death": "", "genders": [], "languages": [], "places_of_operation": [], "biography": "", "biography_author": null, "date_of_biography": "2023-05-09T19:22:36.007155+10:00", "external_links": [], "uuid": "43c3fdf8-3347-48bd-9142-ce0a64f43e72", "source": {"name": "Vernon", "slug": "vernon"}, "source_identifier": "37589", "external_references": [], "date_modified": "2025-03-07T00:36:45.963888+11:00"}, {"id": 74493, "name": "William Tresise", "roles_in_work": [{"id": 2680524, "title": "The Australian ballet - Corroboree", "work_id": 66428, "role": "cinematographer", "role_id": 32, "is_primary": false}], "also_known_as": "", "date_of_birth": "", "date_of_death": "", "genders": [], "languages": [], "places_of_operation": [], "biography": "", "biography_author": null, "date_of_biography": "2023-05-09T19:22:35.772608+10:00", "external_links": [], "uuid": "2593acd8-ac55-4424-bdb3-88c3e241d632", "source": {"name": "Vernon", "slug": "vernon"}, "source_identifier": "37613", "external_references": [{"id": 41641, "source": {"name": "Wikidata", "slug": "wikidata"}, "source_identifier": "Q121315665"}], "date_modified": "2025-03-07T00:36:45.369253+11:00"}]}