{"count": 28684, "next": "https://api.acmi.net.au/creators/?page=841", "previous": "https://api.acmi.net.au/creators/?page=839", "results": [{"id": 77179, "name": "Dundee College of the Art", "roles_in_work": [{"id": 2788783, "title": "State of the art", "work_id": 82492, "role": "co-producer", "role_id": 915, "is_primary": true}], "also_known_as": "", "date_of_birth": "", "date_of_death": "", "genders": [], "languages": [], "places_of_operation": [], "biography": "", "biography_author": null, "date_of_biography": "2023-05-09T19:04:58.298256+10:00", "external_links": [], "uuid": "1514abfb-3514-4048-8af8-fe90abd888a7", "source": {"name": "Vernon", "slug": "vernon"}, "source_identifier": "7686", "external_references": [{"id": 51713, "source": {"name": "Wikidata", "slug": "wikidata"}, "source_identifier": "Q121357580"}], "date_modified": "2025-03-14T19:46:01.362771+11:00"}, {"id": 77178, "name": "Klaus Maeck", "roles_in_work": [{"id": 2269953, "title": "William S. Burroughs: commissioner of sewers", "work_id": 82486, "role": "producer/director", "role_id": 31, "is_primary": true}], "also_known_as": "", "date_of_birth": "1954-07-28", "date_of_death": "", "genders": [{"id": 9, "name": "Male", "slug": "male"}], "languages": [{"id": 5, "name": "German", "slug": "german"}], "places_of_operation": [{"id": 18, "name": "Germany", "slug": "germany"}], "biography": "Klaus Maeck (born in Hamburg 28 July 1954) is a German film producer. He is perhaps best remembered for his West German cyberpunk cult classic Decoder. His films have often played at the Berlin Film Festival. Prior to creating Decoder, he was a music and culture journalist in Hamburg, covering the advent of the industrial music scene in the city. His film \"The Edge of Heaven\" won the Cannes Film Festival Award for Best Screenplay.", "biography_author": "Wikidata", "date_of_biography": "2023-09-05T22:11:09.311658+10:00", "external_links": [{"id": 5963, "uri": "https://en.wikipedia.org/wiki/Klaus_Maeck"}], "uuid": "7cbffa6f-4acd-4498-8245-2e693d6aa554", "source": {"name": "Vernon", "slug": "vernon"}, "source_identifier": "23382", "external_references": [{"id": 35762, "source": {"name": "Wikidata", "slug": "wikidata"}, "source_identifier": "Q1745408"}, {"id": 55017, "source": {"name": "VIAF", "slug": "viaf"}, "source_identifier": "51520903"}, {"id": 55018, "source": {"name": "LOC Auth", "slug": "loc-auth"}, "source_identifier": "no2008184086"}, {"id": 55019, "source": {"name": "WorldCat", "slug": "worldcat"}, "source_identifier": "lccn-no2008184086"}], "date_modified": "2023-09-05T22:11:09.332125+10:00"}, {"id": 77177, "name": "Daniel Landin", "roles_in_work": [{"id": 2649952, "title": "The Child and the saw", "work_id": 82483, "role": "co-director", "role_id": 959, "is_primary": true}], "also_known_as": "", "date_of_birth": "", "date_of_death": "", "genders": [], "languages": [], "places_of_operation": [], "biography": "", "biography_author": null, "date_of_biography": "2023-05-09T19:33:27.553973+10:00", "external_links": [], "uuid": "0ea66349-dd2d-40be-a5ff-28a5dc4d0704", "source": {"name": "Vernon", "slug": "vernon"}, "source_identifier": "17397", "external_references": [], "date_modified": "2025-03-05T14:07:51.262139+11:00"}, {"id": 77176, "name": "Richard Heslop", "roles_in_work": [{"id": 2649951, "title": "The Child and the saw", "work_id": 82483, "role": "co-director", "role_id": 959, "is_primary": true}], "also_known_as": "", "date_of_birth": "1961-01-01", "date_of_death": "", "genders": [{"id": 9, "name": "Male", "slug": "male"}], "languages": [], "places_of_operation": [{"id": 10, "name": "United Kingdom", "slug": "united-kingdom"}], "biography": "Richard Heslop (born 1961 in London) is a British director of music videos and films. He has produced videos for artists including Queen, The Cure, and New Order, as well as programmes on Channel 4 and the BBC. He has also been credited as a cinematographer and camera operator.", "biography_author": "Wikidata", "date_of_biography": "2023-09-06T00:29:39.474245+10:00", "external_links": [{"id": 6129, "uri": "https://en.wikipedia.org/wiki/Richard_Heslop_(director)"}], "uuid": "b34c8ea7-a436-4689-8b34-a35024e75dc5", "source": {"name": "Vernon", "slug": "vernon"}, "source_identifier": "27409", "external_references": [{"id": 36638, "source": {"name": "Wikidata", "slug": "wikidata"}, "source_identifier": "Q7326432"}, {"id": 55629, "source": {"name": "VIAF", "slug": "viaf"}, "source_identifier": "287500886"}], "date_modified": "2025-03-05T14:07:50.676548+11:00"}, {"id": 77175, "name": "George Snow", "roles_in_work": [{"id": 2788798, "title": "Video burn", "work_id": 115369, "role": "co-producers/directors", "role_id": 628, "is_primary": true}, {"id": 2788792, "title": "Subversive desires", "work_id": 82479, "role": "co-producers/directors", "role_id": 628, "is_primary": true}], "also_known_as": "", "date_of_birth": "", "date_of_death": "", "genders": [], "languages": [], "places_of_operation": [], "biography": "", "biography_author": null, "date_of_biography": "2023-05-09T19:05:03.409173+10:00", "external_links": [], "uuid": "644f2fc0-72c1-4323-b38f-68ab0b833499", "source": {"name": "Vernon", "slug": "vernon"}, "source_identifier": "19677", "external_references": [], "date_modified": "2025-03-14T19:46:09.965670+11:00"}, {"id": 77174, "name": "Julie Kuzminska", "roles_in_work": [{"id": 2788797, "title": "Video burn", "work_id": 115369, "role": "co-producers/directors", "role_id": 628, "is_primary": true}, {"id": 2788791, "title": "Subversive desires", "work_id": 82479, "role": "co-producers/directors", "role_id": 628, "is_primary": true}], "also_known_as": "", "date_of_birth": "", "date_of_death": "", "genders": [], "languages": [], "places_of_operation": [], "biography": "", "biography_author": null, "date_of_biography": "2023-05-09T19:05:03.173466+10:00", "external_links": [], "uuid": "1e989bbc-3520-4cbd-8d7e-52ddf93aaedf", "source": {"name": "Vernon", "slug": "vernon"}, "source_identifier": "22902", "external_references": [], "date_modified": "2025-03-14T19:46:09.380085+11:00"}, {"id": 77173, "name": "George E. Saxon", "roles_in_work": [{"id": 2788796, "title": "Video burn", "work_id": 115369, "role": "co-producers/directors", "role_id": 628, "is_primary": true}, {"id": 2788790, "title": "Subversive desires", "work_id": 82479, "role": "co-producers/directors", "role_id": 628, "is_primary": true}], "also_known_as": "", "date_of_birth": "", "date_of_death": "", "genders": [], "languages": [], "places_of_operation": [], "biography": "", "biography_author": null, "date_of_biography": "2023-05-09T19:05:02.947222+10:00", "external_links": [], "uuid": "19b31a5f-fa9b-4c7d-b2f7-9d4ee5f7bd9a", "source": {"name": "Vernon", "slug": "vernon"}, "source_identifier": "19589", "external_references": [], "date_modified": "2025-03-14T19:46:08.802514+11:00"}, {"id": 77172, "name": "Lady Yule", "roles_in_work": [{"id": 2269877, "title": "Turn of the tide. The Man at the gate", "work_id": 82468, "role": "co-producer", "role_id": 915, "is_primary": true}], "also_known_as": "", "date_of_birth": null, "date_of_death": "1950-07-25", "genders": [{"id": 5, "name": "Female", "slug": "female"}], "languages": [], "places_of_operation": [], "biography": "Annie Henrietta Yule, Lady Yule (née Yule; 1 August 1874 – 14 July 1950) was a British film financier and a breeder of Arabian horses. She co-founded the British National Films Company and Hanstead Stud, and commissioned the superyachts of her day.", "biography_author": "Wikidata", "date_of_biography": "2023-09-05T22:13:33+10:00", "external_links": [{"id": 5969, "uri": "https://en.wikipedia.org/wiki/Annie_Henrietta_Yule"}], "uuid": "5991d946-f5fa-4a68-ad2f-75b42eae6aba", "source": {"name": "Vernon", "slug": "vernon"}, "source_identifier": "9886", "external_references": [{"id": 51764, "source": {"name": "Wikidata", "slug": "wikidata"}, "source_identifier": "Q4769307"}], "date_modified": "2024-09-10T16:21:37.855107+10:00"}, {"id": 77171, "name": "John Corfield", "roles_in_work": [{"id": 2269870, "title": "Turn of the tide. The Man at the gate", "work_id": 82468, "role": "co-producer", "role_id": 915, "is_primary": true}], "also_known_as": "", "date_of_birth": "1893", "date_of_death": "", "genders": [], "languages": [], "places_of_operation": [], "biography": "", "biography_author": null, "date_of_biography": "2023-05-09T17:43:36.932214+10:00", "external_links": [], "uuid": "ff987153-d3be-40a6-9e01-d176c15eb3ae", "source": {"name": "Vernon", "slug": "vernon"}, "source_identifier": "22187", "external_references": [{"id": 37634, "source": {"name": "Wikidata", "slug": "wikidata"}, "source_identifier": "Q121337492"}], "date_modified": "2023-09-05T21:34:35.016285+10:00"}, {"id": 77170, "name": "Joe Rees", "roles_in_work": [{"id": 2073243, "title": "A Scenic harvest from the kingdom of pain", "work_id": 82466, "role": "co-producers/directors", "role_id": 628, "is_primary": true}], "also_known_as": "", "date_of_birth": "", "date_of_death": "", "genders": [], "languages": [], "places_of_operation": [], "biography": "", "biography_author": null, "date_of_biography": "2023-05-09T11:36:43.119647+10:00", "external_links": [], "uuid": "035bf83c-727d-4577-ab74-9596944b6d80", "source": {"name": "Vernon", "slug": "vernon"}, "source_identifier": "22051", "external_references": [], "date_modified": "2023-06-14T16:33:30.576250+10:00"}]}