{"count": 28687, "next": "https://api.acmi.net.au/creators/?page=1492", "previous": "https://api.acmi.net.au/creators/?page=1490", "results": [{"id": 34309, "name": "Pedigree Films", "roles_in_work": [{"id": 2285368, "title": "Tony Allcock's art of bowls: putting it all together", "work_id": 92659, "role": "production company", "role_id": 941, "is_primary": true}], "also_known_as": "", "date_of_birth": "", "date_of_death": "", "genders": [], "languages": [], "places_of_operation": [], "biography": "", "biography_author": null, "date_of_biography": "2023-05-09T18:08:44.529892+10:00", "external_links": [], "uuid": "2a6cf26b-4c64-47ad-baab-49c8a2b8daeb", "source": {"name": "Vernon", "slug": "vernon"}, "source_identifier": "11370", "external_references": [{"id": 37489, "source": {"name": "Wikidata", "slug": "wikidata"}, "source_identifier": "Q121126692"}], "date_modified": "2023-09-05T23:51:00.678179+10:00"}, {"id": 34308, "name": "Dudi Appleton", "roles_in_work": [{"id": 1996360, "title": "The Most fertile man in Ireland", "work_id": 92657, "role": "director", "role_id": 938, "is_primary": true}], "also_known_as": "", "date_of_birth": null, "date_of_death": null, "genders": [{"id": 9, "name": "Male", "slug": "male"}], "languages": [{"id": 1, "name": "English", "slug": "english"}], "places_of_operation": [{"id": 10, "name": "United Kingdom", "slug": "united-kingdom"}], "biography": "David Jeremy Nicholas Appleton (born 1969) is a journalist and film director. \nAppleton attended Rockport School in Holywood, County Down, and then Campbell College in Belfast before attending Jesus College, Oxford, where he read English.Dudi, as he has been known since a child, attended Central Acting School in London. Though he acted in plays and film, he was more attracted to writing, where he became a travel journalist for The Standard, The Guardian and The Daily Telegraph broadsheets.Working with his Oxford companion JimKeeble, who had moved into writing books, they began writing film scripts. The first which was filmed was A Sort Of Homecoming (1994) which was a short based and filmed in Strangford Lough in County Down. As they continued to write scripts, Appleton wished to direct a full-length feature. In 1999 they made The Most Fertile Man in Ireland (set in County Donegal in west Ulster), for which he would later win the HBO Comedy award in Colorado for best director, awarded to Appleton by Billy Crystal.He has since been writing scripts for Disney, Miramax, Warner Brothers and Scott Free and has worked with directors such as Oliver Stone and Sir Ridley Scott developing adaptations and screenplays.", "biography_author": "Wikidata", "date_of_biography": "2022-05-19T11:19:51.478431+10:00", "external_links": [{"id": 1956, "uri": "https://en.wikipedia.org/wiki/Dudi_Appleton"}], "uuid": "3073d734-a640-42b4-87b6-29559a01d9af", "source": {"name": "Vernon", "slug": "vernon"}, "source_identifier": "18450", "external_references": [{"id": 8477, "source": {"name": "Wikidata", "slug": "wikidata"}, "source_identifier": "Q5311758"}, {"id": 8478, "source": {"name": "VIAF", "slug": "viaf"}, "source_identifier": "240175862"}], "date_modified": "2023-09-13T12:29:09.652242+10:00"}, {"id": 34305, "name": "Alejandro Gonzalez Inarritu", "roles_in_work": [{"id": 1996355, "title": "Love's a bitch = Amores perros [DVD] (D)", "work_id": 92656, "role": "director", "role_id": 938, "is_primary": true}, {"id": 2064577, "title": "21 grams = Twenty one grams", "work_id": 94849, "role": "director", "role_id": 938, "is_primary": true}, {"id": 2063419, "title": "11 09 01: September 11", "work_id": 94909, "role": "co-director", "role_id": 959, "is_primary": true}, {"id": 2064570, "title": "21 grams = Twenty one grams", "work_id": 94849, "role": "co-producer", "role_id": 915, "is_primary": true}, {"id": 1996354, "title": "Love's a bitch = Amores perros [DVD] (D)", "work_id": 92656, "role": "producer", "role_id": 1089, "is_primary": true}], "also_known_as": "", "date_of_birth": "", "date_of_death": "", "genders": [], "languages": [], "places_of_operation": [], "biography": "", "biography_author": null, "date_of_biography": "2023-05-09T11:20:52.117113+10:00", "external_links": [], "uuid": "de3afc3e-d258-434a-91ec-2a3fdb814cab", "source": {"name": "Vernon", "slug": "vernon"}, "source_identifier": "14871", "external_references": [], "date_modified": "2023-06-14T16:33:30.576250+10:00"}, {"id": 34298, "name": "Christopher Ashley", "roles_in_work": [{"id": 1996345, "title": "Jeffrey", "work_id": 92642, "role": "director", "role_id": 938, "is_primary": true}], "also_known_as": "", "date_of_birth": "1964-07-06", "date_of_death": null, "genders": [{"id": 9, "name": "Male", "slug": "male"}], "languages": [], "places_of_operation": [{"id": 1, "name": "United States of America", "slug": "united-states-of-america"}], "biography": "Christopher Ashley (born July 6, 1964) is a Tony Award-winning  American stage director. Since 2007, he has been the artistic director of the La Jolla Playhouse.", "biography_author": "Wikidata", "date_of_biography": "2022-05-19T11:05:30.062957+10:00", "external_links": [{"id": 1819, "uri": "https://en.wikipedia.org/wiki/Christopher_Ashley"}], "uuid": "db26781e-5681-4834-810c-41918d688530", "source": {"name": "Vernon", "slug": "vernon"}, "source_identifier": "16946", "external_references": [{"id": 7920, "source": {"name": "Wikidata", "slug": "wikidata"}, "source_identifier": "Q5111868"}], "date_modified": "2023-09-13T12:28:44.824319+10:00"}, {"id": 34289, "name": "John McRae", "roles_in_work": [{"id": 3084667, "title": "Prisoner: fire at Wentworth", "work_id": 92640, "role": "producer", "role_id": 1089, "is_primary": true}], "also_known_as": "", "date_of_birth": "", "date_of_death": "", "genders": [], "languages": [], "places_of_operation": [], "biography": "", "biography_author": null, "date_of_biography": "2023-05-09T16:33:58.316524+10:00", "external_links": [], "uuid": "03505e4b-15b9-4862-97df-d608c913406f", "source": {"name": "Vernon", "slug": "vernon"}, "source_identifier": "22413", "external_references": [{"id": 38841, "source": {"name": "Wikidata", "slug": "wikidata"}, "source_identifier": "Q121337366"}], "date_modified": "2025-03-17T10:37:28.985941+11:00"}, {"id": 34288, "name": "Reg Grundy Productions", "roles_in_work": [{"id": 3089747, "title": "Prisoner and Wentworth", "work_id": 107713, "role": "production company", "role_id": 941, "is_primary": true}, {"id": 3084665, "title": "Prisoner: fire at Wentworth", "work_id": 92640, "role": "production company", "role_id": 941, "is_primary": true}, {"id": 3084673, "title": "Prisoner: the early years [DVD]", "work_id": 92799, "role": "production company", "role_id": 941, "is_primary": true}, {"id": 3084682, "title": "Prisoner: the end [DVD]", "work_id": 92797, "role": "production company", "role_id": 941, "is_primary": true}, {"id": 3084696, "title": "Prisoner: the terrorist siege [DVD]", "work_id": 92798, "role": "production company", "role_id": 941, "is_primary": true}, {"id": 3084708, "title": "Prisoner [Cell block H]", "work_id": 115595, "role": "production company", "role_id": 941, "is_primary": true}, {"id": 2108339, "title": "Barry McKenzie holds his own [DVD]", "work_id": 94361, "role": "production company", "role_id": 941, "is_primary": true}], "also_known_as": "", "date_of_birth": "", "date_of_death": "", "genders": [], "languages": [], "places_of_operation": [], "biography": "", "biography_author": null, "date_of_biography": "2023-05-09T17:57:43.754938+10:00", "external_links": [], "uuid": "72945545-c64a-4d52-bd36-41253f51ce3c", "source": {"name": "Vernon", "slug": "vernon"}, "source_identifier": "11932", "external_references": [], "date_modified": "2025-03-17T11:06:28.818022+11:00"}, {"id": 34285, "name": "Shaw Production", "roles_in_work": [{"id": 2475595, "title": "Legend of the seven golden vampires", "work_id": 92639, "role": "production company", "role_id": 941, "is_primary": true}], "also_known_as": "", "date_of_birth": "", "date_of_death": "", "genders": [], "languages": [], "places_of_operation": [], "biography": "", "biography_author": null, "date_of_biography": "2023-08-17T15:10:20.072282+10:00", "external_links": [], "uuid": "e8f56431-05d8-4477-bfdf-9c0f575bc51c", "source": {"name": "Vernon", "slug": "vernon"}, "source_identifier": "12514", "external_references": [], "date_modified": "2023-08-17T15:10:20.072499+10:00"}, {"id": 34283, "name": "TV2", "roles_in_work": [{"id": 2137059, "title": "Christ stopped at Eboli = Cristo si e' fermato a Eboli", "work_id": 92638, "role": "production company", "role_id": 941, "is_primary": true}], "also_known_as": "", "date_of_birth": "", "date_of_death": "", "genders": [], "languages": [], "places_of_operation": [], "biography": "", "biography_author": null, "date_of_biography": "2023-05-09T13:31:28.684678+10:00", "external_links": [], "uuid": "a71d0282-3496-44ab-8b18-37f565290c1f", "source": {"name": "Vernon", "slug": "vernon"}, "source_identifier": "13769", "external_references": [{"id": 39516, "source": {"name": "Wikidata", "slug": "wikidata"}, "source_identifier": "Q121078784"}], "date_modified": "2023-09-06T02:00:04.549741+10:00"}, {"id": 34282, "name": "Jack Clayton Productions", "roles_in_work": [{"id": 2356201, "title": "The Innocents [DVD]", "work_id": 95070, "role": "production company", "role_id": 941, "is_primary": true}], "also_known_as": "", "date_of_birth": "", "date_of_death": "", "genders": [], "languages": [], "places_of_operation": [], "biography": "", "biography_author": null, "date_of_biography": "2023-05-09T20:04:11.781599+10:00", "external_links": [], "uuid": "59c68c21-c5b2-4843-9041-c84659960bb2", "source": {"name": "Vernon", "slug": "vernon"}, "source_identifier": "9522", "external_references": [], "date_modified": "2023-06-14T16:33:30.576250+10:00"}, {"id": 34281, "name": "Achilles Productions", "roles_in_work": [{"id": 2356199, "title": "The Innocents [DVD]", "work_id": 95070, "role": "production company", "role_id": 941, "is_primary": true}], "also_known_as": "", "date_of_birth": "", "date_of_death": "", "genders": [], "languages": [], "places_of_operation": [], "biography": "", "biography_author": null, "date_of_biography": "2023-05-09T20:04:11.518190+10:00", "external_links": [], "uuid": "503cdacb-cff4-4964-911e-03cc2dee3f71", "source": {"name": "Vernon", "slug": "vernon"}, "source_identifier": "5005", "external_references": [{"id": 33006, "source": {"name": "Wikidata", "slug": "wikidata"}, "source_identifier": "Q121091097"}], "date_modified": "2023-09-05T17:15:33.107303+10:00"}]}