{"count": 28681, "next": "https://api.acmi.net.au/creators/?page=2567", "previous": "https://api.acmi.net.au/creators/?page=2565", "results": [{"id": 13082, "name": "Ian Ferguson", "roles_in_work": [{"id": 757897, "title": "Wild highlands", "work_id": 74758, "role": "director", "role_id": 938, "is_primary": true}, {"id": 2712992, "title": "The England of Elizabeth", "work_id": 67189, "role": "co-producer", "role_id": 915, "is_primary": true}, {"id": 2645340, "title": "Journey into spring", "work_id": 69288, "role": "co-producer", "role_id": 915, "is_primary": true}, {"id": 2712602, "title": "East Anglian holiday", "work_id": 67004, "role": "co-producer", "role_id": 915, "is_primary": true}, {"id": 918101, "title": "London's country", "work_id": 95556, "role": "co-producer", "role_id": 915, "is_primary": true}, {"id": 2253984, "title": "Room full of energy", "work_id": 92845, "role": "co-producer", "role_id": 915, "is_primary": true}, {"id": 1812860, "title": "The Travel game", "work_id": 73995, "role": "producer", "role_id": 1089, "is_primary": true}, {"id": 1815383, "title": "Any man's kingdom", "work_id": 89127, "role": "producer", "role_id": 1089, "is_primary": true}, {"id": 1810357, "title": "Holiday", "work_id": 88853, "role": "producer", "role_id": 1089, "is_primary": true}, {"id": 1815694, "title": "Round the island", "work_id": 89748, "role": "producer", "role_id": 1089, "is_primary": true}, {"id": 1815783, "title": "North to Wales", "work_id": 91408, "role": "producer", "role_id": 1089, "is_primary": true}, {"id": 1813242, "title": "Scotland for sport", "work_id": 72543, "role": "producer", "role_id": 1089, "is_primary": true}, {"id": 2678410, "title": "Between the tides", "work_id": 65376, "role": "producer", "role_id": 1089, "is_primary": true}], "also_known_as": "", "date_of_birth": null, "date_of_death": "", "genders": [{"id": 9, "name": "Male", "slug": "male"}], "languages": [], "places_of_operation": [], "biography": "", "biography_author": null, "date_of_biography": "2023-05-09T17:14:59.884993+10:00", "external_links": [], "uuid": "c47f37df-e067-4015-bbb1-d4de050489b3", "source": {"name": "Vernon", "slug": "vernon"}, "source_identifier": "20752", "external_references": [{"id": 42582, "source": {"name": "Wikidata", "slug": "wikidata"}, "source_identifier": "Q22323904"}], "date_modified": "2025-03-12T00:34:57.033954+11:00"}, {"id": 13081, "name": "Smith-Corona Inc", "roles_in_work": [{"id": 2678403, "title": "Better typing at your fingertips", "work_id": 65372, "role": "production company", "role_id": 941, "is_primary": true}], "also_known_as": "", "date_of_birth": null, "date_of_death": null, "genders": [], "languages": [], "places_of_operation": [], "biography": "", "biography_author": null, "date_of_biography": null, "external_links": [], "uuid": "b19cae13-833a-4dac-805d-a2e80efc47c0", "source": {"name": "Vernon", "slug": "vernon"}, "source_identifier": "12670", "external_references": [], "date_modified": "2025-03-06T23:50:49.692767+11:00"}, {"id": 13080, "name": "Attila Dargay", "roles_in_work": [{"id": 2678401, "title": "A Better train of thought", "work_id": 65371, "role": "director", "role_id": 938, "is_primary": true}], "also_known_as": "", "date_of_birth": "20 JUL 1927", "date_of_death": "20 OCT 2009", "genders": [{"id": 9, "name": "Male", "slug": "male"}], "languages": [], "places_of_operation": [], "biography": "", "biography_author": null, "date_of_biography": null, "external_links": [], "uuid": "2d8f6f82-5213-45d1-8762-a7e559716c68", "source": {"name": "Vernon", "slug": "vernon"}, "source_identifier": "15588", "external_references": [], "date_modified": "2025-03-06T23:50:48.302612+11:00"}, {"id": 13079, "name": "Stephen Bosustow", "roles_in_work": [{"id": 2645118, "title": "How the whale got his throat", "work_id": 68628, "role": "director", "role_id": 938, "is_primary": true}, {"id": 894609, "title": "Inside Magoo", "work_id": 68969, "role": "co-director", "role_id": 959, "is_primary": true}, {"id": 2645149, "title": "I told 'em exactly how to do it", "work_id": 68730, "role": "co-producer", "role_id": 915, "is_primary": true}, {"id": 2751139, "title": "My mother is the most beautiful woman in the world", "work_id": 97669, "role": "producer", "role_id": 1089, "is_primary": true}, {"id": 2678925, "title": "Brotherhood of man", "work_id": 65642, "role": "producer", "role_id": 1089, "is_primary": true}, {"id": 2750111, "title": "The 2-D shapes game", "work_id": 97150, "role": "producer", "role_id": 1089, "is_primary": true}, {"id": 2678400, "title": "A Better train of thought", "work_id": 65371, "role": "producer", "role_id": 1089, "is_primary": true}, {"id": 1813547, "title": "The Unicorn in the garden", "work_id": 74185, "role": "producer", "role_id": 1089, "is_primary": true}, {"id": 1814801, "title": "Joshua and the blob", "work_id": 90157, "role": "producer", "role_id": 1089, "is_primary": true}, {"id": 1813192, "title": "Gerald Mcboing boing (K)", "work_id": 77255, "role": "producer", "role_id": 1089, "is_primary": true}, {"id": 1805498, "title": "Developing objectives", "work_id": 75740, "role": "producer", "role_id": 1089, "is_primary": true}, {"id": 1819137, "title": "My turtle died today", "work_id": 70727, "role": "producer", "role_id": 1089, "is_primary": true}, {"id": 1819801, "title": "Gerald Mcboing boing", "work_id": 86018, "role": "producer", "role_id": 1089, "is_primary": true}, {"id": 1809279, "title": "Man alive", "work_id": 70074, "role": "producer", "role_id": 1089, "is_primary": true}], "also_known_as": "", "date_of_birth": "1911-11-06", "date_of_death": "1981-07-04", "genders": [{"id": 9, "name": "Male", "slug": "male"}], "languages": [], "places_of_operation": [{"id": 1, "name": "United States of America", "slug": "united-states-of-america"}], "biography": "Stephen Reginald Bosustow (November 6, 1911 in Victoria, British Columbia – July 4, 1981) was a Canadian-born American film producer from 1943 until his retirement in 1979. He was one of the founders of United Productions of America (UPA) and produced nearly 600 cartoon and live-action shorts. He is chiefly remembered for producing a string of Mr. Magoo and Gerald McBoing-Boing cartoons in the 1950s, three of which earned Academy Awards. He is the only film producer in history who received all the Oscar nominations in one category (1956), guaranteeing him the winning Oscar. Magoo's Puddle Jumper was the eventual winner.", "biography_author": "Wikidata", "date_of_biography": "2023-08-01T17:09:53+10:00", "external_links": [{"id": 5197, "uri": "https://en.wikipedia.org/wiki/Stephen_Bosustow"}], "uuid": "51b20a4b-4842-40ea-830b-4c049035afe9", "source": {"name": "Vernon", "slug": "vernon"}, "source_identifier": "4652", "external_references": [{"id": 25134, "source": {"name": "Wikidata", "slug": "wikidata"}, "source_identifier": "Q1670986"}, {"id": 31616, "source": {"name": "VIAF", "slug": "viaf"}, "source_identifier": "34576955"}, {"id": 31617, "source": {"name": "LOC Auth", "slug": "loc-auth"}, "source_identifier": "n86826529"}, {"id": 31618, "source": {"name": "WorldCat", "slug": "worldcat"}, "source_identifier": "lccn-n86826529"}], "date_modified": "2025-03-13T00:37:25.728545+11:00"}, {"id": 13078, "name": "MAFILM Pannonia Filmstudio", "roles_in_work": [{"id": 894918, "title": "Little man - big city", "work_id": 69785, "role": "production company", "role_id": 941, "is_primary": true}, {"id": 2755328, "title": "The Cat = A Macska", "work_id": 80715, "role": "production company", "role_id": 941, "is_primary": true}, {"id": 2755326, "title": "The Cat = A Macska", "work_id": 76589, "role": "production company", "role_id": 941, "is_primary": true}, {"id": 2752989, "title": "Fatal compromise", "work_id": 98551, "role": "production company", "role_id": 941, "is_primary": true}, {"id": 863837, "title": "Take it easy = Nyugi", "work_id": 77522, "role": "production company", "role_id": 941, "is_primary": true}, {"id": 2751385, "title": "Honeymation = Mezes-tangos", "work_id": 97785, "role": "production company", "role_id": 941, "is_primary": true}, {"id": 2678399, "title": "A Better train of thought", "work_id": 65371, "role": "production company", "role_id": 941, "is_primary": true}], "also_known_as": "", "date_of_birth": "", "date_of_death": "", "genders": [], "languages": [], "places_of_operation": [], "biography": "", "biography_author": null, "date_of_biography": "2023-08-11T17:28:32.713790+10:00", "external_links": [], "uuid": "967db856-fb5b-42b3-b349-874106e223fe", "source": {"name": "Vernon", "slug": "vernon"}, "source_identifier": "11265", "external_references": [], "date_modified": "2025-03-13T14:32:10.188148+11:00"}, {"id": 13077, "name": "Glyn Jones", "roles_in_work": [{"id": 2715663, "title": "Horizons unlimited", "work_id": 68549, "role": "director", "role_id": 938, "is_primary": true}, {"id": 1817056, "title": "Your mysterious brain", "work_id": 75046, "role": "producer", "role_id": 1089, "is_primary": true}, {"id": 1818326, "title": "The Beacons and beyond", "work_id": 76003, "role": "producer", "role_id": 1089, "is_primary": true}, {"id": 2767538, "title": "People are the main part of any deal", "work_id": 71442, "role": "producer/director", "role_id": 31, "is_primary": true}, {"id": 2767540, "title": "Better than any sport", "work_id": 65370, "role": "producer/director", "role_id": 31, "is_primary": true}, {"id": 2645005, "title": "The Greatest gamble", "work_id": 68197, "role": "producer/director", "role_id": 31, "is_primary": true}], "also_known_as": "", "date_of_birth": null, "date_of_death": null, "genders": [], "languages": [], "places_of_operation": [], "biography": "", "biography_author": null, "date_of_biography": null, "external_links": [], "uuid": "46cb5d86-a587-4634-915b-426a8f60ca23", "source": {"name": "Vernon", "slug": "vernon"}, "source_identifier": "19911", "external_references": [], "date_modified": "2025-03-14T18:04:52.297475+11:00"}, {"id": 13076, "name": "United States. Agricultural Research Service", "roles_in_work": [{"id": 2678396, "title": "Better seeds for better grasslands", "work_id": 65369, "role": "production company", "role_id": 941, "is_primary": true}], "also_known_as": "", "date_of_birth": "", "date_of_death": "", "genders": [], "languages": [], "places_of_operation": [], "biography": "", "biography_author": null, "date_of_biography": "2023-08-11T14:49:54.839485+10:00", "external_links": [], "uuid": "29974e16-e309-4b28-be13-280ea934932b", "source": {"name": "Vernon", "slug": "vernon"}, "source_identifier": "13873", "external_references": [], "date_modified": "2025-03-06T23:50:44.845121+11:00"}, {"id": 13075, "name": "Alan Anderson", "roles_in_work": [{"id": 2769228, "title": "The Great War", "work_id": 68194, "role": "director", "role_id": 938, "is_primary": true}, {"id": 2755514, "title": "The Pictures that moved: Australian cinema 1896-1920", "work_id": 71562, "role": "director", "role_id": 938, "is_primary": true}, {"id": 745630, "title": "The Job for you", "work_id": 69256, "role": "director", "role_id": 938, "is_primary": true}, {"id": 2678389, "title": "Better pastures - better beef", "work_id": 65364, "role": "director", "role_id": 938, "is_primary": true}, {"id": 2392721, "title": "The Melbourne Wedding Belle", "work_id": 88709, "role": "sound", "role_id": 952, "is_primary": false}, {"id": 2680083, "title": "The Coalminer", "work_id": 66205, "role": "sound", "role_id": 952, "is_primary": false}, {"id": 3107951, "title": "David and Jennifer Learn Their Kerb Drill", "work_id": 66621, "role": "sound", "role_id": 952, "is_primary": false}, {"id": 2392786, "title": "Know your children", "work_id": 95761, "role": "sound", "role_id": 952, "is_primary": false}], "also_known_as": "", "date_of_birth": "", "date_of_death": "", "genders": [], "languages": [], "places_of_operation": [], "biography": "", "biography_author": null, "date_of_biography": "2023-08-09T04:08:33.421926+10:00", "external_links": [], "uuid": "7799b8d4-cb9d-4005-96a6-a9f65f33f61b", "source": {"name": "Vernon", "slug": "vernon"}, "source_identifier": "14726", "external_references": [{"id": 42696, "source": {"name": "Wikidata", "slug": "wikidata"}, "source_identifier": "Q121337118"}], "date_modified": "2025-09-24T12:35:04.447281+10:00"}, {"id": 13074, "name": "Barry Scott", "roles_in_work": [{"id": 2715375, "title": "Hennessy's holiday", "work_id": 68407, "role": "director", "role_id": 938, "is_primary": true}, {"id": 2678385, "title": "Better dairying", "work_id": 65362, "role": "producer", "role_id": 1089, "is_primary": true}, {"id": 2680294, "title": "Concrete pipes and pre-stressed products", "work_id": 66317, "role": "producer", "role_id": 1089, "is_primary": true}, {"id": 2043544, "title": "Behind the menu", "work_id": 85557, "role": "producer", "role_id": 1089, "is_primary": true}, {"id": 825343, "title": "Water into gold", "work_id": 95797, "role": "producer/director", "role_id": 31, "is_primary": true}, {"id": 2680742, "title": "The CSL veterinary story", "work_id": 66533, "role": "producer/director", "role_id": 31, "is_primary": true}, {"id": 2714829, "title": "Good fences", "work_id": 68134, "role": "producer/director", "role_id": 31, "is_primary": true}, {"id": 2714499, "title": "Gas: the magic flame", "work_id": 67954, "role": "producer/director", "role_id": 31, "is_primary": true}], "also_known_as": "", "date_of_birth": "", "date_of_death": "", "genders": [], "languages": [], "places_of_operation": [], "biography": "", "biography_author": null, "date_of_biography": "2023-08-14T11:08:27.966985+10:00", "external_links": [], "uuid": "732fc745-319c-4817-a121-cbf3ce7806ca", "source": {"name": "Vernon", "slug": "vernon"}, "source_identifier": "15737", "external_references": [], "date_modified": "2025-03-12T01:32:42.407771+11:00"}, {"id": 13073, "name": "John Edwards", "roles_in_work": [{"id": 854075, "title": "Killer on the move", "work_id": 69390, "role": "director", "role_id": 938, "is_primary": true}, {"id": 2392230, "title": "Understanding the car", "work_id": 74175, "role": "director", "role_id": 938, "is_primary": true}, {"id": 1544489, "title": "Remembering it all", "work_id": 72135, "role": "director", "role_id": 938, "is_primary": true}, {"id": 1544486, "title": "Night driving", "work_id": 70898, "role": "director", "role_id": 938, "is_primary": true}, {"id": 2391847, "title": "Inspecting the car", "work_id": 68974, "role": "director", "role_id": 938, "is_primary": true}, {"id": 2391917, "title": "Moving off on hills, reversing and parking", "work_id": 70643, "role": "director", "role_id": 938, "is_primary": true}, {"id": 2644160, "title": "Birth of a giant", "work_id": 65455, "role": "director", "role_id": 938, "is_primary": true}, {"id": 2644451, "title": "Cornering and overtaking", "work_id": 66413, "role": "director", "role_id": 938, "is_primary": true}, {"id": 2678382, "title": "Best laid plans", "work_id": 65360, "role": "director", "role_id": 938, "is_primary": true}, {"id": 2392143, "title": "Steering, gear changing and braking", "work_id": 73190, "role": "director", "role_id": 938, "is_primary": true}, {"id": 2716171, "title": "In dense traffic", "work_id": 68815, "role": "director", "role_id": 938, "is_primary": true}, {"id": 2645872, "title": "Printing presses and engineering: one of our own kind", "work_id": 71142, "role": "co-director", "role_id": 959, "is_primary": true}, {"id": 2763467, "title": "Launceston", "work_id": 69524, "role": "co-director", "role_id": 959, "is_primary": true}, {"id": 2346837, "title": "The Empty Beach", "work_id": 80839, "role": "co-producer", "role_id": 915, "is_primary": true}, {"id": 2196398, "title": "Do or die = The Rubicon", "work_id": 93593, "role": "co-producer", "role_id": 915, "is_primary": true}, {"id": 912282, "title": "The Secret life of us. Eps. 01-03", "work_id": 92698, "role": "co-producer", "role_id": 915, "is_primary": true}, {"id": 905576, "title": "I own the racecourse", "work_id": 86214, "role": "co-producer", "role_id": 915, "is_primary": true}, {"id": 2654749, "title": "Love My Way: What's In a Name", "work_id": 116929, "role": "producer", "role_id": 1089, "is_primary": true}, {"id": 2654812, "title": "Love My Way: Stick Sisters", "work_id": 116932, "role": "producer", "role_id": 1089, "is_primary": true}, {"id": 2654704, "title": "Love my way", "work_id": 116927, "role": "producer", "role_id": 1089, "is_primary": true}, {"id": 2654837, "title": "Love My Way: To Dance With Death", "work_id": 116933, "role": "producer", "role_id": 1089, "is_primary": true}, {"id": 2654860, "title": "Love My Way: My Family Up a Tree", "work_id": 116934, "role": "producer", "role_id": 1089, "is_primary": true}, {"id": 2654880, "title": "Love My Way: Only Mortal", "work_id": 116936, "role": "producer", "role_id": 1089, "is_primary": true}, {"id": 2654773, "title": "Love My Way: Crazy Love", "work_id": 116930, "role": "producer", "role_id": 1089, "is_primary": true}, {"id": 2654797, "title": "Love My Way: Spin Cycle", "work_id": 116931, "role": "producer", "role_id": 1089, "is_primary": true}, {"id": 2654900, "title": "Love My Way: Garden of Love", "work_id": 116937, "role": "producer", "role_id": 1089, "is_primary": true}, {"id": 2273711, "title": "Wendy cracked a walnut", "work_id": 83819, "role": "producer", "role_id": 1089, "is_primary": true}, {"id": 2654724, "title": "Love My Way: Don't Tell Me Your Dreams", "work_id": 116928, "role": "producer", "role_id": 1089, "is_primary": true}, {"id": 2712618, "title": "Easy does it", "work_id": 67009, "role": "script", "role_id": 962, "is_primary": false}, {"id": 2229647, "title": "Private eye", "work_id": 86904, "role": "script", "role_id": 962, "is_primary": false}], "also_known_as": "", "date_of_birth": "1953-03-04", "date_of_death": "", "genders": [{"id": 9, "name": "Male", "slug": "male"}], "languages": [], "places_of_operation": [{"id": 3, "name": "Australia", "slug": "australia"}], "biography": "Robert John Edwards  (born 4 March 1953) is an Australian television drama producer.\nHis series credits include Bump (Australian TV series) (Stan), Les Norton (ABC), Party Tricks, Puberty Blues, Offspring,   Rush  (Network Ten),  Love My Way, Tangle, Dangerous (Foxtel), The Secret Life of Us (Network Ten, Channel 4 UK), Police Rescue (ABC, BBC), The Surgeon (Network Ten), Fireflies (ABC), Big Sky (Network Ten) and Stringer (ABC).\nHis mini-series include Australian Gangster, (Channel Seven), Romper Stomper (2017) (Stan), Blue Murder: Killer Cop (Channel Seven), The Beautiful Lie (ABC), Gallipoli, Power Games: The Packer-Murdoch Story, Howzat! Kerry Packer's War (Nine Network), Paper Giants: Birth of Cleo (ABC), Marking Time (ABC), On The Beach (Seven Network, Showtime USA), Do or Die (Network Seven, BSkyB) and Cyclone Tracy (Nine Network).\nHis telemovies include Beaconsfield (Nine Network), six Cody telemovies (Network Seven), pilots for Police Rescue, The Secret Life of Us, Hard Knox (New Line), Fireflies and the children's telemovie I Own The Racecourse (Network Seven).\nIn all, John Edwards' productions have won 31 Logie Awards, 30 Australian Film Institute Awards, 11 AACTA Awards, four People's Choice Awards (Australia), eight ASTRA Awards and more than a dozen Australian craft awards. Furthermore, On The Beach is the first Australian production to have received Golden Globe Award nominations.", "biography_author": "Wikidata", "date_of_biography": "2023-09-05T21:35:27.660628+10:00", "external_links": [{"id": 4368, "uri": "https://en.wikipedia.org/wiki/John_Edwards_(producer)"}], "uuid": "aac9973b-58d6-4937-ac25-a35b1089fed5", "source": {"name": "Vernon", "slug": "vernon"}, "source_identifier": "22233", "external_references": [{"id": 26467, "source": {"name": "Wikidata", "slug": "wikidata"}, "source_identifier": "Q6231395"}, {"id": 29477, "source": {"name": "VIAF", "slug": "viaf"}, "source_identifier": "315546343"}, {"id": 29478, "source": {"name": "WorldCat", "slug": "worldcat"}, "source_identifier": "viaf-315546343"}], "date_modified": "2025-03-14T17:41:51.338999+11:00"}]}