{"count": 28687, "next": "https://api.acmi.net.au/creators/?page=1026", "previous": "https://api.acmi.net.au/creators/?page=1024", "results": [{"id": 75332, "name": "Joachim Kreck", "roles_in_work": [{"id": 2752940, "title": "The Chord sharp = Der Falschspieler = Le Faux joueur", "work_id": 98528, "role": "co-producers/directors", "role_id": 628, "is_primary": true}, {"id": 2303803, "title": "Soccer games", "work_id": 72951, "role": "producer/director", "role_id": 31, "is_primary": true}], "also_known_as": "", "date_of_birth": "", "date_of_death": "", "genders": [], "languages": [], "places_of_operation": [], "biography": "", "biography_author": null, "date_of_biography": "2023-05-09T19:33:37.040333+10:00", "external_links": [], "uuid": "10fb8aa7-758b-44ea-9ddd-2378ab283e3a", "source": {"name": "Vernon", "slug": "vernon"}, "source_identifier": "21957", "external_references": [{"id": 50701, "source": {"name": "Wikidata", "slug": "wikidata"}, "source_identifier": "Q121360545"}], "date_modified": "2025-03-13T01:15:33.774876+11:00"}, {"id": 75331, "name": "Charles Lapp", "roles_in_work": [{"id": 2303795, "title": "So long to run", "work_id": 72943, "role": "director", "role_id": 938, "is_primary": true}], "also_known_as": "", "date_of_birth": "", "date_of_death": "", "genders": [], "languages": [], "places_of_operation": [], "biography": "", "biography_author": null, "date_of_biography": "2023-05-09T18:41:46.024423+10:00", "external_links": [], "uuid": "2050a55a-f74e-452e-8044-9ab6564f0097", "source": {"name": "Vernon", "slug": "vernon"}, "source_identifier": "16693", "external_references": [{"id": 36984, "source": {"name": "Wikidata", "slug": "wikidata"}, "source_identifier": "Q121126410"}], "date_modified": "2023-09-05T18:27:06.139315+10:00"}, {"id": 75330, "name": "Alex Ciecierski", "roles_in_work": [{"id": 2302729, "title": "Sky sailing: waiting for the wind", "work_id": 72893, "role": "co-producers/directors", "role_id": 628, "is_primary": true}], "also_known_as": "", "date_of_birth": "", "date_of_death": "", "genders": [], "languages": [], "places_of_operation": [], "biography": "", "biography_author": null, "date_of_biography": "2023-05-09T18:39:53.048288+10:00", "external_links": [], "uuid": "f5cdc592-b053-474c-96c6-a60abbe5642b", "source": {"name": "Vernon", "slug": "vernon"}, "source_identifier": "14879", "external_references": [], "date_modified": "2023-06-14T16:33:30.576250+10:00"}, {"id": 75329, "name": "Marie Schurrer", "roles_in_work": [{"id": 2302725, "title": "Sky sailing: waiting for the wind", "work_id": 72893, "role": "co-producers/directors", "role_id": 628, "is_primary": true}], "also_known_as": "", "date_of_birth": "", "date_of_death": "", "genders": [], "languages": [], "places_of_operation": [], "biography": "", "biography_author": null, "date_of_biography": "2023-05-09T18:39:52.533835+10:00", "external_links": [], "uuid": "d0108fe1-de68-40ef-b2de-9780cbeb3b6b", "source": {"name": "Vernon", "slug": "vernon"}, "source_identifier": "24412", "external_references": [], "date_modified": "2023-06-14T16:33:30.576250+10:00"}, {"id": 75328, "name": "Joern Gerots", "roles_in_work": [{"id": 2302158, "title": "Ski the outer limits", "work_id": 72881, "role": "co-producer", "role_id": 915, "is_primary": true}], "also_known_as": "", "date_of_birth": "", "date_of_death": "", "genders": [], "languages": [], "places_of_operation": [], "biography": "", "biography_author": null, "date_of_biography": "2023-05-09T18:38:38.483709+10:00", "external_links": [], "uuid": "afe39d13-b573-4c25-92d8-22b31e14f31d", "source": {"name": "Vernon", "slug": "vernon"}, "source_identifier": "22079", "external_references": [{"id": 43418, "source": {"name": "Wikidata", "slug": "wikidata"}, "source_identifier": "Q121036444"}], "date_modified": "2023-09-05T21:31:28.341777+10:00"}, {"id": 75327, "name": "Jean-Claude Labrecque", "roles_in_work": [{"id": 2065182, "title": "60 cycles [French version]", "work_id": 85298, "role": "director", "role_id": 938, "is_primary": true}, {"id": 2615667, "title": "Feux follets", "work_id": 85897, "role": "director", "role_id": 938, "is_primary": true}, {"id": 2065156, "title": "60 cycles", "work_id": 72871, "role": "director", "role_id": 938, "is_primary": true}, {"id": 2064095, "title": "26 times in a row", "work_id": 90335, "role": "producer", "role_id": 1089, "is_primary": true}], "also_known_as": "", "date_of_birth": "19 JUN 1938", "date_of_death": "31 MAY 2019", "genders": [{"id": 9, "name": "Male", "slug": "male"}], "languages": [{"id": 4, "name": "French", "slug": "french"}], "places_of_operation": [{"id": 36, "name": "Canada", "slug": "canada"}], "biography": "Jean-Claude Labrecque,  (June 19, 1938 – May 31, 2019) was a director and cinematographer who learned the basics of filmmaking at the National Film Board of Canada. Source: Wikidata; 01/08/2023", "biography_author": null, "date_of_biography": "2025-02-26T20:26:40.359992+11:00", "external_links": [{"id": 4281, "uri": "https://en.wikipedia.org/wiki/Jean-Claude_Labrecque"}], "uuid": "a3711f7a-0009-4dbf-bec4-fc8045a924fd", "source": {"name": "Vernon", "slug": "vernon"}, "source_identifier": "21571", "external_references": [{"id": 25790, "source": {"name": "Wikidata", "slug": "wikidata"}, "source_identifier": "Q3165036"}, {"id": 29249, "source": {"name": "VIAF", "slug": "viaf"}, "source_identifier": "74050046"}, {"id": 29250, "source": {"name": "LOC Auth", "slug": "loc-auth"}, "source_identifier": "no2008180126"}, {"id": 29251, "source": {"name": "WorldCat", "slug": "worldcat"}, "source_identifier": "lccn-no2008180126"}], "date_modified": "2025-02-26T20:26:40.360311+11:00"}, {"id": 75326, "name": "Carole Kahn", "roles_in_work": [{"id": 2468117, "title": "The Six billion $$$ sell", "work_id": 72863, "role": "producer/director", "role_id": 31, "is_primary": true}], "also_known_as": "", "date_of_birth": "", "date_of_death": "", "genders": [], "languages": [], "places_of_operation": [], "biography": "", "biography_author": null, "date_of_biography": "2023-08-14T11:34:26.228538+10:00", "external_links": [], "uuid": "848bd84c-b071-4e32-8471-a6acdf02e667", "source": {"name": "Vernon", "slug": "vernon"}, "source_identifier": "16530", "external_references": [{"id": 51260, "source": {"name": "Wikidata", "slug": "wikidata"}, "source_identifier": "Q121361320"}], "date_modified": "2023-09-05T18:20:32.585942+10:00"}, {"id": 75325, "name": "Hans Casparius", "roles_in_work": [{"id": 2299426, "title": "Simon", "work_id": 72829, "role": "co-director", "role_id": 959, "is_primary": true}], "also_known_as": "", "date_of_birth": "", "date_of_death": "", "genders": [], "languages": [], "places_of_operation": [], "biography": "", "biography_author": null, "date_of_biography": "2023-05-09T18:34:16.287501+10:00", "external_links": [], "uuid": "893a2d7d-5153-4f66-b3c7-b0c0b90493e1", "source": {"name": "Vernon", "slug": "vernon"}, "source_identifier": "20226", "external_references": [], "date_modified": "2023-06-14T16:33:30.576250+10:00"}, {"id": 75324, "name": "Frederic Ullman", "roles_in_work": [{"id": 2298650, "title": "Siege", "work_id": 72806, "role": "co-producer", "role_id": 915, "is_primary": true}], "also_known_as": "", "date_of_birth": "", "date_of_death": "", "genders": [], "languages": [], "places_of_operation": [], "biography": "", "biography_author": null, "date_of_biography": "2023-05-09T18:32:21.325740+10:00", "external_links": [], "uuid": "d5a4d1d2-02d6-4e7b-897f-29103c9fbca7", "source": {"name": "Vernon", "slug": "vernon"}, "source_identifier": "19269", "external_references": [], "date_modified": "2023-06-14T16:33:30.576250+10:00"}, {"id": 75323, "name": "Willard Goodman", "roles_in_work": [{"id": 2298537, "title": "Shrinkage", "work_id": 72798, "role": "co-director", "role_id": 959, "is_primary": true}], "also_known_as": "", "date_of_birth": "", "date_of_death": "", "genders": [], "languages": [], "places_of_operation": [], "biography": "", "biography_author": null, "date_of_biography": "2023-05-09T18:32:13.017452+10:00", "external_links": [], "uuid": "fc434e11-5865-40bb-89bf-2267e6d8969a", "source": {"name": "Vernon", "slug": "vernon"}, "source_identifier": "30358", "external_references": [{"id": 37064, "source": {"name": "Wikidata", "slug": "wikidata"}, "source_identifier": "Q121143769"}], "date_modified": "2023-09-06T02:14:16.734053+10:00"}]}