{"count": 28687, "next": "https://api.acmi.net.au/creators/?page=1027", "previous": "https://api.acmi.net.au/creators/?page=1025", "results": [{"id": 75322, "name": "Nathan Boxer", "roles_in_work": [{"id": 2298533, "title": "Shrinkage", "work_id": 72798, "role": "co-director", "role_id": 959, "is_primary": true}], "also_known_as": "", "date_of_birth": "", "date_of_death": "", "genders": [], "languages": [], "places_of_operation": [], "biography": "", "biography_author": null, "date_of_biography": "2023-05-09T18:32:12.777871+10:00", "external_links": [], "uuid": "50e490e2-f661-49e2-bce5-30d2a20d1c62", "source": {"name": "Vernon", "slug": "vernon"}, "source_identifier": "25643", "external_references": [{"id": 37384, "source": {"name": "Wikidata", "slug": "wikidata"}, "source_identifier": "Q121126293"}], "date_modified": "2023-09-05T23:25:25.969994+10:00"}, {"id": 75321, "name": "Hazel Swift", "roles_in_work": [{"id": 2298036, "title": "Shirt factory", "work_id": 72774, "role": "director", "role_id": 938, "is_primary": true}], "also_known_as": "", "date_of_birth": "", "date_of_death": "", "genders": [], "languages": [], "places_of_operation": [], "biography": "", "biography_author": null, "date_of_biography": "2023-05-09T18:31:23.737075+10:00", "external_links": [], "uuid": "f3c013ea-6c33-43a6-98dc-f2e35c0bf01c", "source": {"name": "Vernon", "slug": "vernon"}, "source_identifier": "20391", "external_references": [{"id": 38641, "source": {"name": "Wikidata", "slug": "wikidata"}, "source_identifier": "Q121126250"}], "date_modified": "2023-09-05T20:33:04.892684+10:00"}, {"id": 75320, "name": "John Nash", "roles_in_work": [{"id": 2646308, "title": "The Ships That Flew", "work_id": 72772, "role": "narrator", "role_id": 499, "is_primary": false}], "also_known_as": "", "date_of_birth": null, "date_of_death": null, "genders": [], "languages": [], "places_of_operation": [], "biography": "", "biography_author": null, "date_of_biography": null, "external_links": [], "uuid": "bcf13a90-c818-492f-b5cb-48d275032a44", "source": {"name": "Vernon", "slug": "vernon"}, "source_identifier": "37391", "external_references": [], "date_modified": "2025-03-05T13:01:12.353074+11:00"}, {"id": 75319, "name": "Christopher Gardiner", "roles_in_work": [{"id": 2646306, "title": "The Ships That Flew", "work_id": 72772, "role": "editor", "role_id": 918, "is_primary": true}], "also_known_as": "", "date_of_birth": null, "date_of_death": null, "genders": [], "languages": [], "places_of_operation": [], "biography": "", "biography_author": null, "date_of_biography": null, "external_links": [], "uuid": "b4af674b-a2a1-4b8a-a507-5c11815efd58", "source": {"name": "Vernon", "slug": "vernon"}, "source_identifier": "37390", "external_references": [{"id": 37313, "source": {"name": "Wikidata", "slug": "wikidata"}, "source_identifier": "Q121315189"}], "date_modified": "2025-03-05T13:01:11.188812+11:00"}, {"id": 75318, "name": "Mike Franklin", "roles_in_work": [{"id": 2392089, "title": "Ships at work", "work_id": 72771, "role": "cinematographer", "role_id": 32, "is_primary": false}], "also_known_as": "", "date_of_birth": "", "date_of_death": "", "genders": [{"id": 9, "name": "Male", "slug": "male"}], "languages": [], "places_of_operation": [], "biography": "", "biography_author": null, "date_of_biography": "2023-08-09T03:50:30.158828+10:00", "external_links": [], "uuid": "630b9a29-e559-4b65-9b20-1bbe3def3a23", "source": {"name": "Vernon", "slug": "vernon"}, "source_identifier": "37561", "external_references": [{"id": 35746, "source": {"name": "Wikidata", "slug": "wikidata"}, "source_identifier": "Q121270876"}], "date_modified": "2023-08-09T03:50:30.159046+10:00"}, {"id": 75317, "name": "Morton Parker", "roles_in_work": [{"id": 895770, "title": "The Shattered silence", "work_id": 72740, "role": "director", "role_id": 938, "is_primary": true}, {"id": 895769, "title": "The Shattered silence", "work_id": 72740, "role": "co-producer", "role_id": 915, "is_primary": true}], "also_known_as": "", "date_of_birth": null, "date_of_death": null, "genders": [], "languages": [], "places_of_operation": [], "biography": "", "biography_author": null, "date_of_biography": null, "external_links": [], "uuid": "3042b6c1-e9c9-434e-9f29-b96dcf5cea87", "source": {"name": "Vernon", "slug": "vernon"}, "source_identifier": null, "external_references": [], "date_modified": "2023-06-14T16:33:30.576250+10:00"}, {"id": 75316, "name": "Mary Wright", "roles_in_work": [{"id": 2373960, "title": "Sharing: the School Community Library", "work_id": 72738, "role": "script", "role_id": 962, "is_primary": false}], "also_known_as": "", "date_of_birth": "", "date_of_death": "", "genders": [{"id": 5, "name": "Female", "slug": "female"}], "languages": [], "places_of_operation": [], "biography": "", "biography_author": null, "date_of_biography": "2023-07-05T03:47:36.446368+10:00", "external_links": [], "uuid": "11e1b916-f7fb-4fcd-b8d7-e2beefaeef60", "source": {"name": "Vernon", "slug": "vernon"}, "source_identifier": "37579", "external_references": [], "date_modified": "2023-07-05T03:47:36.446645+10:00"}, {"id": 75315, "name": "Robert K Machover", "roles_in_work": [{"id": 2296892, "title": "Shaping things: a choreographic journal", "work_id": 72733, "role": "producer/director", "role_id": 31, "is_primary": true}], "also_known_as": "", "date_of_birth": "", "date_of_death": "", "genders": [], "languages": [], "places_of_operation": [], "biography": "", "biography_author": null, "date_of_biography": "2023-05-09T18:29:14.049569+10:00", "external_links": [], "uuid": "f6d5bdb4-61cf-4e36-9fb1-cdbb9e320ff8", "source": {"name": "Vernon", "slug": "vernon"}, "source_identifier": "27777", "external_references": [{"id": 51473, "source": {"name": "Wikidata", "slug": "wikidata"}, "source_identifier": "Q121361103"}], "date_modified": "2023-09-06T00:42:44.054143+10:00"}, {"id": 75314, "name": "K Samarth", "roles_in_work": [{"id": 2296845, "title": "Shantiniketan: Abode of Peace", "work_id": 72721, "role": "co-director", "role_id": 959, "is_primary": true}], "also_known_as": "", "date_of_birth": "", "date_of_death": "", "genders": [], "languages": [], "places_of_operation": [], "biography": "", "biography_author": null, "date_of_biography": "2023-05-09T18:29:07.672069+10:00", "external_links": [], "uuid": "21f75f19-587e-4ad4-866c-529124169c6a", "source": {"name": "Vernon", "slug": "vernon"}, "source_identifier": "22963", "external_references": [{"id": 34321, "source": {"name": "Wikidata", "slug": "wikidata"}, "source_identifier": "Q121079182"}], "date_modified": "2023-09-05T21:58:25.597308+10:00"}, {"id": 75313, "name": "A P Sinha", "roles_in_work": [{"id": 2296844, "title": "Shantiniketan: Abode of Peace", "work_id": 72721, "role": "co-director", "role_id": 959, "is_primary": true}], "also_known_as": "", "date_of_birth": "", "date_of_death": "", "genders": [], "languages": [], "places_of_operation": [], "biography": "", "biography_author": null, "date_of_biography": "2023-05-09T18:29:07.428492+10:00", "external_links": [], "uuid": "6d3c0866-b428-44dc-9096-997f09d4455d", "source": {"name": "Vernon", "slug": "vernon"}, "source_identifier": "14606", "external_references": [{"id": 39783, "source": {"name": "Wikidata", "slug": "wikidata"}, "source_identifier": "Q121126314"}], "date_modified": "2023-09-05T17:13:36.994704+10:00"}]}