{"count": 28687, "next": "https://api.acmi.net.au/creators/?page=2531", "previous": "https://api.acmi.net.au/creators/?page=2529", "results": [{"id": 13529, "name": "Whitbread", "roles_in_work": [{"id": 2679248, "title": "Care of the horse", "work_id": 65814, "role": "production company", "role_id": 941, "is_primary": true}], "also_known_as": "", "date_of_birth": "", "date_of_death": "", "genders": [], "languages": [], "places_of_operation": [], "biography": "", "biography_author": null, "date_of_biography": "2023-08-11T15:12:01.066376+10:00", "external_links": [], "uuid": "e210db40-91bc-4fa8-a5e7-07dccaff4ae9", "source": {"name": "Vernon", "slug": "vernon"}, "source_identifier": "14339", "external_references": [], "date_modified": "2025-03-07T00:10:23.673038+11:00"}, {"id": 13528, "name": "Dudley J. Morton", "roles_in_work": [{"id": 2679247, "title": "Care of the feet", "work_id": 65813, "role": "director", "role_id": 938, "is_primary": true}], "also_known_as": "", "date_of_birth": null, "date_of_death": null, "genders": [], "languages": [], "places_of_operation": [], "biography": "", "biography_author": null, "date_of_biography": null, "external_links": [], "uuid": "10e22881-43a6-4388-9797-8dd33d0d9638", "source": {"name": "Vernon", "slug": "vernon"}, "source_identifier": "18452", "external_references": [], "date_modified": "2025-03-07T00:10:22.856380+11:00"}, {"id": 13527, "name": "Willard Pictures", "roles_in_work": [{"id": 757095, "title": "The Vital signs and their inter-relation: body temperature, pulse, respiration, blood pressure", "work_id": 74410, "role": "production company", "role_id": 941, "is_primary": true}, {"id": 2679244, "title": "Care of the cardiac patient", "work_id": 65812, "role": "production company", "role_id": 941, "is_primary": true}, {"id": 2679250, "title": "Care of the newborn baby", "work_id": 65815, "role": "production company", "role_id": 941, "is_primary": true}, {"id": 2714092, "title": "Navy material handling: the fork truck", "work_id": 67741, "role": "production company", "role_id": 941, "is_primary": true}, {"id": 2757422, "title": "Isolation technique", "work_id": 69128, "role": "production company", "role_id": 941, "is_primary": true}], "also_known_as": "", "date_of_birth": "", "date_of_death": "", "genders": [], "languages": [], "places_of_operation": [], "biography": "", "biography_author": null, "date_of_biography": "2023-08-11T14:47:57.418694+10:00", "external_links": [], "uuid": "9989bed5-419c-4339-b4e6-5b3630840630", "source": {"name": "Vernon", "slug": "vernon"}, "source_identifier": "14371", "external_references": [], "date_modified": "2025-03-13T14:45:23.064594+11:00"}, {"id": 13526, "name": "Trevor Fletcher", "roles_in_work": [{"id": 2679239, "title": "The Cardioid", "work_id": 65805, "role": "director", "role_id": 938, "is_primary": true}, {"id": 2714149, "title": "Four line conics", "work_id": 67766, "role": "director", "role_id": 938, "is_primary": true}], "also_known_as": "", "date_of_birth": "", "date_of_death": "", "genders": [], "languages": [], "places_of_operation": [], "biography": "", "biography_author": null, "date_of_biography": "2023-08-14T11:06:09.775272+10:00", "external_links": [], "uuid": "ea64f00a-2464-4106-92d2-658f7afe9dbc", "source": {"name": "Vernon", "slug": "vernon"}, "source_identifier": "29971", "external_references": [], "date_modified": "2025-03-12T01:01:46.485103+11:00"}, {"id": 13525, "name": "Polytechnic Films", "roles_in_work": [{"id": 2679238, "title": "The Cardioid", "work_id": 65805, "role": "production company", "role_id": 941, "is_primary": true}], "also_known_as": "", "date_of_birth": "", "date_of_death": "", "genders": [], "languages": [], "places_of_operation": [], "biography": "", "biography_author": null, "date_of_biography": "2023-08-14T11:06:09.157923+10:00", "external_links": [], "uuid": "a631ba47-b177-464c-a840-abffebaf8318", "source": {"name": "Vernon", "slug": "vernon"}, "source_identifier": "11568", "external_references": [], "date_modified": "2025-03-07T00:10:16.070049+11:00"}, {"id": 13522, "name": "Mayo Clinic Film Library", "roles_in_work": [{"id": 2679235, "title": "Carcinoma of the stomach: gastrectomy", "work_id": 65804, "role": "production company", "role_id": 941, "is_primary": true}], "also_known_as": "", "date_of_birth": "", "date_of_death": "", "genders": [], "languages": [], "places_of_operation": [], "biography": "", "biography_author": null, "date_of_biography": "2023-05-09T13:18:21.727995+10:00", "external_links": [], "uuid": "e7cfd3de-7786-4654-b0e6-315aa594b218", "source": {"name": "Vernon", "slug": "vernon"}, "source_identifier": "10387", "external_references": [{"id": 34939, "source": {"name": "Wikidata", "slug": "wikidata"}, "source_identifier": "Q121337440"}], "date_modified": "2025-03-07T00:10:14.055712+11:00"}, {"id": 13519, "name": "Eric L. Morris", "roles_in_work": [{"id": 862763, "title": "The Insurance story. - Rev. ed.", "work_id": 76520, "role": "director", "role_id": 938, "is_primary": true}, {"id": 752592, "title": "Safety with small craft", "work_id": 72444, "role": "director", "role_id": 938, "is_primary": true}, {"id": 2766276, "title": "Survival", "work_id": 73404, "role": "director", "role_id": 938, "is_primary": true}, {"id": 2644290, "title": "The Car Stealers", "work_id": 65799, "role": "director", "role_id": 938, "is_primary": true}, {"id": 2645226, "title": "Insurance: career of challenge", "work_id": 68985, "role": "director", "role_id": 938, "is_primary": true}, {"id": 2646907, "title": "Where have all the drivers gone?", "work_id": 74680, "role": "director", "role_id": 938, "is_primary": true}, {"id": 872392, "title": "Where have all the drivers gone? [B&W]", "work_id": 87599, "role": "director", "role_id": 938, "is_primary": true}, {"id": 745006, "title": "The Insurance story", "work_id": 68984, "role": "director", "role_id": 938, "is_primary": true}], "also_known_as": "", "date_of_birth": "", "date_of_death": "", "genders": [], "languages": [], "places_of_operation": [], "biography": "", "biography_author": null, "date_of_biography": "2023-05-09T19:31:39.617324+10:00", "external_links": [], "uuid": "662d52c3-c299-420b-aab2-1ce7ecf20d92", "source": {"name": "Vernon", "slug": "vernon"}, "source_identifier": "18818", "external_references": [], "date_modified": "2025-03-05T13:15:25.217972+11:00"}, {"id": 13518, "name": "Boris Holtzman", "roles_in_work": [{"id": 2167021, "title": "No place to go", "work_id": 70930, "role": "director", "role_id": 938, "is_primary": true}, {"id": 2763914, "title": "The Car and the city", "work_id": 65796, "role": "producer", "role_id": 1089, "is_primary": true}, {"id": 2763934, "title": "Home to the sea", "work_id": 68530, "role": "producer/director", "role_id": 31, "is_primary": true}, {"id": 2763956, "title": "Things worth keeping", "work_id": 73695, "role": "producer/director", "role_id": 31, "is_primary": true}, {"id": 2763961, "title": "The Vanishing breed", "work_id": 74288, "role": "producer/director", "role_id": 31, "is_primary": true}], "also_known_as": "", "date_of_birth": "", "date_of_death": "", "genders": [], "languages": [], "places_of_operation": [], "biography": "", "biography_author": null, "date_of_biography": "2023-05-09T14:26:38.059478+10:00", "external_links": [], "uuid": "a481e3e5-05a4-499b-95eb-2a08b9a62575", "source": {"name": "Vernon", "slug": "vernon"}, "source_identifier": "16138", "external_references": [{"id": 39097, "source": {"name": "Wikidata", "slug": "wikidata"}, "source_identifier": "Q121034733"}], "date_modified": "2025-03-14T17:44:29.579209+11:00"}, {"id": 13516, "name": "Telemark Productions", "roles_in_work": [{"id": 2768475, "title": "The Head on collision", "work_id": 68355, "role": "production company", "role_id": 941, "is_primary": true}, {"id": 2768482, "title": "The Mystery single vehicle crash", "work_id": 89108, "role": "production company", "role_id": 941, "is_primary": true}, {"id": 2768488, "title": "Overtaking and being overtaken", "work_id": 71294, "role": "production company", "role_id": 941, "is_primary": true}, {"id": 2768492, "title": "Sharing the roads safely", "work_id": 72737, "role": "production company", "role_id": 941, "is_primary": true}, {"id": 2768509, "title": "Who's to blame", "work_id": 74729, "role": "production company", "role_id": 941, "is_primary": true}, {"id": 2768465, "title": "The Cross road crash", "work_id": 66515, "role": "production company", "role_id": 941, "is_primary": true}, {"id": 2768459, "title": "The Car behind", "work_id": 65797, "role": "production company", "role_id": 941, "is_primary": true}, {"id": 2768454, "title": "The Car ahead", "work_id": 65795, "role": "production company", "role_id": 941, "is_primary": true}, {"id": 2779150, "title": "Burke and Wills", "work_id": 96878, "role": "production company", "role_id": 941, "is_primary": true}, {"id": 2392493, "title": "Citizen soldier", "work_id": 76096, "role": "production company", "role_id": 941, "is_primary": true}, {"id": 2768518, "title": "The Skills of Defensive Driving", "work_id": 115073, "role": "production company", "role_id": 941, "is_primary": true}, {"id": 2768470, "title": "Freeway driving", "work_id": 67817, "role": "production company", "role_id": 941, "is_primary": true}], "also_known_as": "", "date_of_birth": "", "date_of_death": "", "genders": [], "languages": [], "places_of_operation": [], "biography": "", "biography_author": null, "date_of_biography": "2023-08-09T03:59:57.903443+10:00", "external_links": [], "uuid": "c0780e69-3a19-4ed4-b946-a4b594942c32", "source": {"name": "Vernon", "slug": "vernon"}, "source_identifier": "4205", "external_references": [], "date_modified": "2025-03-14T19:02:30.700684+11:00"}, {"id": 13515, "name": "Yvan Dalain", "roles_in_work": [{"id": 860863, "title": "Wine growers in Switzerland: Lavaux", "work_id": 74793, "role": "director", "role_id": 938, "is_primary": true}, {"id": 2679219, "title": "Captains three", "work_id": 65794, "role": "director", "role_id": 938, "is_primary": true}], "also_known_as": "", "date_of_birth": null, "date_of_death": null, "genders": [], "languages": [], "places_of_operation": [], "biography": "", "biography_author": null, "date_of_biography": null, "external_links": [], "uuid": "bb36cc4e-6de0-433f-8793-e676595f2ec0", "source": {"name": "Vernon", "slug": "vernon"}, "source_identifier": "30630", "external_references": [], "date_modified": "2025-03-07T00:10:01.261504+11:00"}]}