{"count": 28681, "next": "https://api.acmi.net.au/creators/?page=1860", "previous": "https://api.acmi.net.au/creators/?page=1858", "results": [{"id": 25258, "name": "Medusa Distribuzione", "roles_in_work": [{"id": 2291624, "title": "Seven beauties = Pasqualino settebellezze", "work_id": 83119, "role": "production company", "role_id": 941, "is_primary": true}, {"id": 1999608, "title": "Swept away = Travolti da un insolito destino nell'azzurro mare d'agosto [DVD]", "work_id": 94581, "role": "production company", "role_id": 941, "is_primary": true}], "also_known_as": "", "date_of_birth": "19 JUN 1964", "date_of_death": "", "genders": [], "languages": [], "places_of_operation": [], "biography": "", "biography_author": null, "date_of_biography": "2023-05-09T18:20:25.456378+10:00", "external_links": [], "uuid": "ac30f818-f6f8-4b6e-a56a-0263011964ef", "source": {"name": "Vernon", "slug": "vernon"}, "source_identifier": "4861", "external_references": [], "date_modified": "2023-06-14T16:33:30.576250+10:00"}, {"id": 25257, "name": "John Mackenzie", "roles_in_work": [{"id": 1986961, "title": "The Long Good Friday", "work_id": 83117, "role": "director", "role_id": 938, "is_primary": true}], "also_known_as": "", "date_of_birth": "1928-05-22", "date_of_death": "2011-06-08", "genders": [{"id": 9, "name": "Male", "slug": "male"}], "languages": [{"id": 1, "name": "English", "slug": "english"}], "places_of_operation": [{"id": 10, "name": "United Kingdom", "slug": "united-kingdom"}], "biography": "John Leonard Duncan Mackenzie (22 May 1928 – 8 June 2011) was a Scottish film director who worked in British film from the late 1960s, first as an assistant director and later as an independent director himself.", "biography_author": "Wikidata", "date_of_biography": "2022-05-19T12:02:46.327057+10:00", "external_links": [{"id": 2432, "uri": "https://en.wikipedia.org/wiki/John_Mackenzie_(film_director)"}], "uuid": "ac401966-b4d6-4f34-b18e-abede2a89277", "source": {"name": "Vernon", "slug": "vernon"}, "source_identifier": "22387", "external_references": [{"id": 10407, "source": {"name": "Wikidata", "slug": "wikidata"}, "source_identifier": "Q457559"}, {"id": 10408, "source": {"name": "VIAF", "slug": "viaf"}, "source_identifier": "220594976"}, {"id": 10409, "source": {"name": "LOC Auth", "slug": "loc-auth"}, "source_identifier": "nr2004033677"}, {"id": 10410, "source": {"name": "WorldCat", "slug": "worldcat"}, "source_identifier": "lccn-nr2004033677"}], "date_modified": "2023-09-13T12:30:34.897652+10:00"}, {"id": 25256, "name": "Barry Hanson", "roles_in_work": [{"id": 1986960, "title": "The Long Good Friday", "work_id": 83117, "role": "producer", "role_id": 1089, "is_primary": true}, {"id": 2614562, "title": "The Naked civil servant", "work_id": 83903, "role": "producer", "role_id": 1089, "is_primary": true}], "also_known_as": "", "date_of_birth": null, "date_of_death": null, "genders": [], "languages": [], "places_of_operation": [], "biography": "", "biography_author": null, "date_of_biography": null, "external_links": [], "uuid": "5cd8f639-03ae-4982-a813-5969239b057f", "source": {"name": "Vernon", "slug": "vernon"}, "source_identifier": "15713", "external_references": [], "date_modified": "2025-02-26T20:12:24.329050+11:00"}, {"id": 25251, "name": "Mike Lobell", "roles_in_work": [{"id": 2474876, "title": "Honeymoon in Vegas (Captioned)", "work_id": 84331, "role": "producer", "role_id": 1089, "is_primary": true}, {"id": 2357879, "title": "The Journey of Natty Gann", "work_id": 83114, "role": "producer", "role_id": 1089, "is_primary": true}, {"id": 2274621, "title": "Windows", "work_id": 93549, "role": "producer", "role_id": 1089, "is_primary": true}], "also_known_as": "", "date_of_birth": "", "date_of_death": "", "genders": [{"id": 9, "name": "Male", "slug": "male"}], "languages": [], "places_of_operation": [], "biography": "Mike Lobell is an American film producer. He is known for his collaborations with Andrew Bergman.", "biography_author": "Wikidata", "date_of_biography": "2023-09-05T23:15:01.124253+10:00", "external_links": [{"id": 4736, "uri": "https://en.wikipedia.org/wiki/Mike_Lobell"}], "uuid": "9621d4f8-2eca-4b42-a6bd-dc869510fd33", "source": {"name": "Vernon", "slug": "vernon"}, "source_identifier": "25373", "external_references": [{"id": 26847, "source": {"name": "Wikidata", "slug": "wikidata"}, "source_identifier": "Q25917121"}], "date_modified": "2023-09-05T23:15:01.133099+10:00"}, {"id": 25249, "name": "Clemente Fracassi", "roles_in_work": [{"id": 2614075, "title": "Juliet of the spirits = Giulietta degli spiriti", "work_id": 83111, "role": "producer", "role_id": 1089, "is_primary": true}], "also_known_as": "", "date_of_birth": "", "date_of_death": "", "genders": [], "languages": [], "places_of_operation": [], "biography": "", "biography_author": null, "date_of_biography": "2023-05-09T13:55:39.142804+10:00", "external_links": [], "uuid": "862f73de-0e40-440a-aa7c-7b43588d858d", "source": {"name": "Vernon", "slug": "vernon"}, "source_identifier": "17114", "external_references": [{"id": 32807, "source": {"name": "Wikidata", "slug": "wikidata"}, "source_identifier": "Q121035865"}], "date_modified": "2025-02-26T20:06:15.107191+11:00"}, {"id": 25248, "name": "Francoriz Production", "roles_in_work": [{"id": 2614074, "title": "Juliet of the spirits = Giulietta degli spiriti", "work_id": 83111, "role": "production company", "role_id": 941, "is_primary": true}], "also_known_as": "", "date_of_birth": "", "date_of_death": "", "genders": [], "languages": [], "places_of_operation": [], "biography": "", "biography_author": null, "date_of_biography": "2023-05-09T13:55:38.902852+10:00", "external_links": [], "uuid": "ef6872d7-9d90-44a3-908e-6b9263079252", "source": {"name": "Vernon", "slug": "vernon"}, "source_identifier": "8519", "external_references": [{"id": 43531, "source": {"name": "Wikidata", "slug": "wikidata"}, "source_identifier": "Q121126112"}], "date_modified": "2025-02-26T20:06:14.331097+11:00"}, {"id": 25247, "name": "Phyllis Fajnsztejn", "roles_in_work": [{"id": 2786380, "title": "The Mandala garden", "work_id": 83110, "role": "director", "role_id": 938, "is_primary": true}, {"id": 2786382, "title": "Back yard permaculture", "work_id": 115317, "role": "director", "role_id": 938, "is_primary": true}], "also_known_as": "", "date_of_birth": "", "date_of_death": "", "genders": [], "languages": [], "places_of_operation": [], "biography": "", "biography_author": null, "date_of_biography": "2023-05-09T12:38:58.111094+10:00", "external_links": [], "uuid": "e243e963-e7ab-48c3-923d-5061b0ad75a1", "source": {"name": "Vernon", "slug": "vernon"}, "source_identifier": "26904", "external_references": [{"id": 51251, "source": {"name": "Wikidata", "slug": "wikidata"}, "source_identifier": "Q121357872"}], "date_modified": "2025-03-14T19:31:09.019558+11:00"}, {"id": 25246, "name": "Mandala Productions", "roles_in_work": [{"id": 2786379, "title": "The Mandala garden", "work_id": 83110, "role": "production company", "role_id": 941, "is_primary": true}, {"id": 2786378, "title": "Back yard permaculture", "work_id": 115317, "role": "production company", "role_id": 941, "is_primary": true}], "also_known_as": "", "date_of_birth": "", "date_of_death": "", "genders": [], "languages": [], "places_of_operation": [], "biography": "", "biography_author": null, "date_of_biography": "2023-05-09T12:38:57.889077+10:00", "external_links": [], "uuid": "b8fa4744-2ea4-4fa3-936f-e35139b60513", "source": {"name": "Vernon", "slug": "vernon"}, "source_identifier": "10276", "external_references": [{"id": 41027, "source": {"name": "Wikidata", "slug": "wikidata"}, "source_identifier": "Q121298879"}], "date_modified": "2025-03-14T19:31:08.435123+11:00"}, {"id": 25242, "name": "Personafilm", "roles_in_work": [{"id": 2227224, "title": "Fanny and Alexander", "work_id": 83155, "role": "production company", "role_id": 941, "is_primary": true}, {"id": 2227263, "title": "Fanny and Alexander = Fanny och Alexander", "work_id": 83156, "role": "production company", "role_id": 941, "is_primary": true}, {"id": 2105369, "title": "Autumn sonata", "work_id": 83105, "role": "production company", "role_id": 941, "is_primary": true}], "also_known_as": "", "date_of_birth": "", "date_of_death": "", "genders": [], "languages": [], "places_of_operation": [], "biography": "", "biography_author": null, "date_of_biography": "2023-05-09T16:28:22.735419+10:00", "external_links": [], "uuid": "f557ec8a-cd09-4717-9583-8648de6a8db6", "source": {"name": "Vernon", "slug": "vernon"}, "source_identifier": "11419", "external_references": [{"id": 33382, "source": {"name": "Wikidata", "slug": "wikidata"}, "source_identifier": "Q121298794"}], "date_modified": "2023-09-05T23:53:30.918256+10:00"}, {"id": 25241, "name": "Lewis John Carlino", "roles_in_work": [{"id": 1986903, "title": "The Sailor who fell from grace with the sea", "work_id": 83104, "role": "director", "role_id": 938, "is_primary": true}], "also_known_as": "", "date_of_birth": "1932-01-01", "date_of_death": "2020-06-17", "genders": [{"id": 9, "name": "Male", "slug": "male"}], "languages": [{"id": 1, "name": "English", "slug": "english"}], "places_of_operation": [{"id": 1, "name": "United States of America", "slug": "united-states-of-america"}], "biography": "Lewis John Carlino (January 1, 1932 – June 17, 2020) was an American screenwriter and director. His career spanned five decades and included such works as The Fox, The Brotherhood, The Mechanic, The Sailor Who Fell from Grace with the Sea, I Never Promised You a Rose Garden, Resurrection, and The Great Santini. Carlino was nominated for many awards, including the Academy Award for Best Adapted Screenplay.", "biography_author": "Wikidata", "date_of_biography": "2022-05-19T12:15:54.017314+10:00", "external_links": [{"id": 2577, "uri": "https://en.wikipedia.org/wiki/Lewis_John_Carlino"}], "uuid": "fe2df85e-8a82-4766-9832-15310b8fb1c7", "source": {"name": "Vernon", "slug": "vernon"}, "source_identifier": "23814", "external_references": [{"id": 11008, "source": {"name": "Wikidata", "slug": "wikidata"}, "source_identifier": "Q3237296"}, {"id": 11009, "source": {"name": "VIAF", "slug": "viaf"}, "source_identifier": "86200141"}, {"id": 11010, "source": {"name": "LOC Auth", "slug": "loc-auth"}, "source_identifier": "n87844732"}, {"id": 11011, "source": {"name": "WorldCat", "slug": "worldcat"}, "source_identifier": "lccn-n87844732"}], "date_modified": "2023-09-13T12:30:59.648867+10:00"}]}