{"count": 28687, "next": "https://api.acmi.net.au/creators/?page=169", "previous": "https://api.acmi.net.au/creators/?page=167", "results": [{"id": 83927, "name": "Dean Robb", "roles_in_work": [{"id": 2659378, "title": "Game Masters: Warren Spector interview", "work_id": 117281, "role": "editor", "role_id": 918, "is_primary": true}], "also_known_as": "", "date_of_birth": "", "date_of_death": "", "genders": [], "languages": [], "places_of_operation": [], "biography": "", "biography_author": null, "date_of_biography": "2023-07-05T03:55:21.061601+10:00", "external_links": [], "uuid": "466d5f1d-9a8d-4846-8844-a222f6658832", "source": {"name": "Vernon", "slug": "vernon"}, "source_identifier": "34717", "external_references": [{"id": 33821, "source": {"name": "Wikidata", "slug": "wikidata"}, "source_identifier": "Q121126264"}], "date_modified": "2025-03-05T19:25:19.010701+11:00"}, {"id": 83926, "name": "Tim Schafer", "roles_in_work": [{"id": 2659405, "title": "Game Masters: in conversation with Tim Schafer", "work_id": 117287, "role": "interviewee", "role_id": 496, "is_primary": false}, {"id": 2659373, "title": "Game Masters: Tim Schafer interview", "work_id": 117280, "role": "interviewee", "role_id": 496, "is_primary": false}], "also_known_as": "", "date_of_birth": "", "date_of_death": "", "genders": [], "languages": [], "places_of_operation": [], "biography": "", "biography_author": null, "date_of_biography": "2023-07-05T03:55:35.940413+10:00", "external_links": [], "uuid": "63c5a1f6-0e84-4b1f-b112-8b1acc4bf72a", "source": {"name": "Vernon", "slug": "vernon"}, "source_identifier": "36078", "external_references": [], "date_modified": "2025-03-05T19:25:38.540013+11:00"}, {"id": 83925, "name": "Georgia Fields", "roles_in_work": [{"id": 2659359, "title": "Moon to Dust", "work_id": 117274, "role": "music", "role_id": 949, "is_primary": false}], "also_known_as": "", "date_of_birth": null, "date_of_death": null, "genders": [{"id": 5, "name": "Female", "slug": "female"}], "languages": [], "places_of_operation": [], "biography": "", "biography_author": null, "date_of_biography": null, "external_links": [], "uuid": "3d83404f-0dee-4843-8dfa-0943a9a2b55d", "source": {"name": "Vernon", "slug": "vernon"}, "source_identifier": "36027", "external_references": [{"id": 50835, "source": {"name": "Wikidata", "slug": "wikidata"}, "source_identifier": "Q121361319"}], "date_modified": "2025-03-05T19:22:04.712086+11:00"}, {"id": 83924, "name": "Kanlaya Padungsin", "roles_in_work": [{"id": 2659357, "title": "Moon to Dust", "work_id": 117274, "role": "director", "role_id": 938, "is_primary": true}, {"id": 2659358, "title": "Moon to Dust", "work_id": 117274, "role": "animator", "role_id": 497, "is_primary": false}], "also_known_as": "", "date_of_birth": null, "date_of_death": null, "genders": [], "languages": [], "places_of_operation": [], "biography": "", "biography_author": null, "date_of_biography": null, "external_links": [], "uuid": "35cd8f16-3cd2-401d-a6fd-3d4bc07ab15f", "source": {"name": "Vernon", "slug": "vernon"}, "source_identifier": "36026", "external_references": [{"id": 40894, "source": {"name": "Wikidata", "slug": "wikidata"}, "source_identifier": "Q121271471"}], "date_modified": "2025-03-05T19:22:03.980681+11:00"}, {"id": 83923, "name": "Bass Coast Shire Council", "roles_in_work": [{"id": 2659296, "title": "The Corinella Jetty", "work_id": 117267, "role": "partner", "role_id": 575, "is_primary": false}, {"id": 2659216, "title": "DAK: David Alexander Kopelman", "work_id": 117268, "role": "partner", "role_id": 575, "is_primary": false}, {"id": 2659266, "title": "ACMI in the regions: Stories from Bass Coast", "work_id": 117264, "role": "partner", "role_id": 575, "is_primary": false}, {"id": 2659270, "title": "Life in the waves: a story about Island Surfboards", "work_id": 117270, "role": "partner", "role_id": 575, "is_primary": false}, {"id": 2659279, "title": "Community banking Bass Coast", "work_id": 117266, "role": "partner", "role_id": 575, "is_primary": false}, {"id": 2659305, "title": "The Bass Valley Community Centre", "work_id": 117265, "role": "partner", "role_id": 575, "is_primary": false}, {"id": 2659313, "title": "The Ripple and the shed", "work_id": 117271, "role": "partner", "role_id": 575, "is_primary": false}, {"id": 2659321, "title": "Swell Mamas", "work_id": 117273, "role": "partner", "role_id": 575, "is_primary": false}, {"id": 2659329, "title": "Settlement Soccer Club", "work_id": 117272, "role": "partner", "role_id": 575, "is_primary": false}], "also_known_as": "", "date_of_birth": "", "date_of_death": "", "genders": [], "languages": [], "places_of_operation": [], "biography": "", "biography_author": null, "date_of_biography": "2023-08-09T04:11:47.916691+10:00", "external_links": [], "uuid": "a0697410-83d6-4c76-827c-85195cf66f1a", "source": {"name": "Vernon", "slug": "vernon"}, "source_identifier": "35979", "external_references": [], "date_modified": "2025-03-05T19:21:42.640775+11:00"}, {"id": 83922, "name": "Horsham Rural City Council", "roles_in_work": [{"id": 2659005, "title": "ACMI in the regions: Stories from Horsham Shire", "work_id": 117254, "role": "partner", "role_id": 575, "is_primary": false}, {"id": 2659080, "title": "The Gasifier", "work_id": 117258, "role": "partner", "role_id": 575, "is_primary": false}, {"id": 2659072, "title": "Gil and Liz Hopkins", "work_id": 117259, "role": "partner", "role_id": 575, "is_primary": false}, {"id": 2659064, "title": "An Olive Grove in Laharum", "work_id": 117263, "role": "partner", "role_id": 575, "is_primary": false}, {"id": 2659055, "title": "Clarrie's Ranch", "work_id": 117256, "role": "partner", "role_id": 575, "is_primary": false}, {"id": 2659047, "title": "Horsham Greyhounds", "work_id": 117260, "role": "partner", "role_id": 575, "is_primary": false}, {"id": 2659039, "title": "Horsham's Op Shop Ladies", "work_id": 117261, "role": "partner", "role_id": 575, "is_primary": false}, {"id": 2659031, "title": "At the Foot of the Arapiles", "work_id": 117255, "role": "partner", "role_id": 575, "is_primary": false}, {"id": 2659023, "title": "Dave Jones and his Giant Puppet", "work_id": 117257, "role": "partner", "role_id": 575, "is_primary": false}, {"id": 2659015, "title": "The Natimuk Rock Climbers", "work_id": 117262, "role": "partner", "role_id": 575, "is_primary": false}], "also_known_as": "", "date_of_birth": "", "date_of_death": "", "genders": [], "languages": [], "places_of_operation": [], "biography": "", "biography_author": null, "date_of_biography": "2023-05-09T19:56:57.409104+10:00", "external_links": [], "uuid": "ff465a94-7303-49c4-a9c5-4a2ae9d6564c", "source": {"name": "Vernon", "slug": "vernon"}, "source_identifier": "35966", "external_references": [], "date_modified": "2025-03-05T19:11:53.135378+11:00"}, {"id": 83921, "name": "Nicholas Lee", "roles_in_work": [{"id": 2718373, "title": "Twin [game trailer]", "work_id": 117248, "role": "creator", "role_id": 968, "is_primary": true}], "also_known_as": "", "date_of_birth": "", "date_of_death": "", "genders": [], "languages": [], "places_of_operation": [], "biography": "", "biography_author": null, "date_of_biography": "2023-05-09T18:05:21.176720+10:00", "external_links": [], "uuid": "deba5910-4f1b-4d63-9a50-95ebf35f8cc6", "source": {"name": "Vernon", "slug": "vernon"}, "source_identifier": "35887", "external_references": [], "date_modified": "2025-03-12T06:31:20.149057+11:00"}, {"id": 83920, "name": "James Ruse Agricultural High", "roles_in_work": [{"id": 2718371, "title": "Twin [game trailer]", "work_id": 117248, "role": "creator", "role_id": 968, "is_primary": true}], "also_known_as": "", "date_of_birth": "", "date_of_death": "", "genders": [], "languages": [], "places_of_operation": [], "biography": "", "biography_author": null, "date_of_biography": "2023-05-09T18:05:20.943990+10:00", "external_links": [], "uuid": "3518bc91-9be5-4264-88d1-d73e7762bfca", "source": {"name": "Vernon", "slug": "vernon"}, "source_identifier": "35888", "external_references": [], "date_modified": "2025-03-12T06:31:19.550722+11:00"}, {"id": 83919, "name": "Hugh Jellie", "roles_in_work": [{"id": 2718362, "title": "The Locket", "work_id": 117247, "role": "co-producer", "role_id": 915, "is_primary": true}], "also_known_as": "", "date_of_birth": "", "date_of_death": "", "genders": [], "languages": [], "places_of_operation": [], "biography": "", "biography_author": null, "date_of_biography": "2023-05-09T18:05:25.026646+10:00", "external_links": [], "uuid": "86b7baf2-b23b-421e-a09a-b981bf507cf9", "source": {"name": "Vernon", "slug": "vernon"}, "source_identifier": "35883", "external_references": [{"id": 34987, "source": {"name": "Wikidata", "slug": "wikidata"}, "source_identifier": "Q121126737"}], "date_modified": "2025-03-12T06:31:10.907790+11:00"}, {"id": 83918, "name": "Blake Borcich", "roles_in_work": [{"id": 2718361, "title": "The Locket", "work_id": 117247, "role": "creator", "role_id": 968, "is_primary": true}], "also_known_as": "", "date_of_birth": "", "date_of_death": "", "genders": [], "languages": [], "places_of_operation": [], "biography": "", "biography_author": null, "date_of_biography": "2023-05-09T18:05:24.792269+10:00", "external_links": [], "uuid": "7235190c-6045-4dd0-8b46-96dc5e8486f6", "source": {"name": "Vernon", "slug": "vernon"}, "source_identifier": "35882", "external_references": [], "date_modified": "2025-03-12T06:31:09.083059+11:00"}]}