{"count": 28687, "next": "https://api.acmi.net.au/creators/?page=604", "previous": "https://api.acmi.net.au/creators/?page=602", "results": [{"id": 79553, "name": "Olga Palacio", "roles_in_work": [{"id": 3083070, "title": "Motion and balance", "work_id": 91360, "role": "co-producer", "role_id": 915, "is_primary": true}, {"id": 3083018, "title": "Forces", "work_id": 91355, "role": "co-producer", "role_id": 915, "is_primary": true}, {"id": 3083036, "title": "Properties of matter", "work_id": 91356, "role": "co-producer", "role_id": 915, "is_primary": true}, {"id": 3083053, "title": "Elements, compounds and mixtures", "work_id": 91359, "role": "co-producer", "role_id": 915, "is_primary": true}], "also_known_as": "", "date_of_birth": "", "date_of_death": "", "genders": [], "languages": [], "places_of_operation": [], "biography": "", "biography_author": null, "date_of_biography": "2023-05-09T16:39:31.295363+10:00", "external_links": [], "uuid": "7a3a52c5-ad60-4c1a-a36a-a22edaaa6749", "source": {"name": "Vernon", "slug": "vernon"}, "source_identifier": "25940", "external_references": [{"id": 43406, "source": {"name": "Wikidata", "slug": "wikidata"}, "source_identifier": "Q121222543"}], "date_modified": "2025-03-17T10:31:55.160802+11:00"}, {"id": 79552, "name": "Gene Smith", "roles_in_work": [{"id": 2793539, "title": "Orthodox and Roman Catholicism", "work_id": 91352, "role": "producer/director", "role_id": 31, "is_primary": true}], "also_known_as": "", "date_of_birth": "", "date_of_death": "", "genders": [], "languages": [], "places_of_operation": [], "biography": "", "biography_author": null, "date_of_biography": "2023-05-09T18:30:32.372267+10:00", "external_links": [], "uuid": "da3aee42-4fdf-41dd-89f1-6e79be85a1ba", "source": {"name": "Vernon", "slug": "vernon"}, "source_identifier": "19481", "external_references": [{"id": 51558, "source": {"name": "Wikidata", "slug": "wikidata"}, "source_identifier": "Q121360802"}], "date_modified": "2025-03-14T20:18:41.054192+11:00"}, {"id": 79551, "name": "Stephen Kopels", "roles_in_work": [{"id": 2793542, "title": "Shinto", "work_id": 91354, "role": "producer/director", "role_id": 31, "is_primary": true}, {"id": 2231756, "title": "Protestant Christianity", "work_id": 91351, "role": "producer/director", "role_id": 31, "is_primary": true}, {"id": 2143490, "title": "Confucianism and Taoism", "work_id": 91353, "role": "producer/director", "role_id": 31, "is_primary": true}], "also_known_as": "", "date_of_birth": "", "date_of_death": "", "genders": [], "languages": [], "places_of_operation": [], "biography": "", "biography_author": null, "date_of_biography": "2023-05-09T18:30:30.292572+10:00", "external_links": [], "uuid": "646aaeeb-d2af-4607-a44d-0a04aa9b13f2", "source": {"name": "Vernon", "slug": "vernon"}, "source_identifier": "29053", "external_references": [{"id": 51138, "source": {"name": "Wikidata", "slug": "wikidata"}, "source_identifier": "Q121361296"}], "date_modified": "2025-03-14T20:18:43.068636+11:00"}, {"id": 79550, "name": "Peter Chelsom", "roles_in_work": [{"id": 2476151, "title": "Funny bones", "work_id": 91350, "role": "director", "role_id": 938, "is_primary": true}, {"id": 2476149, "title": "Funny bones", "work_id": 91350, "role": "co-producer", "role_id": 915, "is_primary": true}], "also_known_as": "", "date_of_birth": "1956-04-20", "date_of_death": "", "genders": [{"id": 9, "name": "Male", "slug": "male"}], "languages": [{"id": 1, "name": "English", "slug": "english"}, {"id": 6, "name": "Italian", "slug": "italian"}], "places_of_operation": [{"id": 10, "name": "United Kingdom", "slug": "united-kingdom"}], "biography": "Peter Chelsom (born 20 April 1956) is a British film director, writer, and actor. He has directed such films as Hector and the Search for Happiness, Serendipity, and Shall We Dance? Peter Chelsom is a member of the British Academy, the American Academy, The Directors Guild of America, and The Writers Guild of America.", "biography_author": "Wikidata", "date_of_biography": "2023-09-05T23:54:45.328683+10:00", "external_links": [{"id": 2848, "uri": "https://en.wikipedia.org/wiki/Peter_Chelsom"}], "uuid": "655939e7-5ea4-4c32-beb6-5805a9eff788", "source": {"name": "Vernon", "slug": "vernon"}, "source_identifier": "26494", "external_references": [{"id": 12116, "source": {"name": "Wikidata", "slug": "wikidata"}, "source_identifier": "Q1333379"}, {"id": 12117, "source": {"name": "VIAF", "slug": "viaf"}, "source_identifier": "46967176"}, {"id": 12118, "source": {"name": "LOC Auth", "slug": "loc-auth"}, "source_identifier": "no00012378"}, {"id": 12119, "source": {"name": "WorldCat", "slug": "worldcat"}, "source_identifier": "lccn-no00012378"}], "date_modified": "2023-09-05T23:54:47.806113+10:00"}, {"id": 79549, "name": "Percy Pembroke", "roles_in_work": [{"id": 2298707, "title": "Short orders", "work_id": 91348, "role": "co-director", "role_id": 959, "is_primary": true}], "also_known_as": "", "date_of_birth": "", "date_of_death": "", "genders": [], "languages": [], "places_of_operation": [], "biography": "", "biography_author": null, "date_of_biography": "2023-05-09T18:32:26.410052+10:00", "external_links": [], "uuid": "fce4af92-9cb0-4e29-9eba-76732265c922", "source": {"name": "Vernon", "slug": "vernon"}, "source_identifier": "26435", "external_references": [{"id": 41499, "source": {"name": "Wikidata", "slug": "wikidata"}, "source_identifier": "Q121058100"}], "date_modified": "2023-09-05T23:53:07.624041+10:00"}, {"id": 79548, "name": "Churchill Machine Tool Co.", "roles_in_work": [{"id": 2467581, "title": "The Model NB 18\" x 6\" horizontal spindle surface grinding machine", "work_id": 91339, "role": "sponsor", "role_id": 625, "is_primary": false}], "also_known_as": "", "date_of_birth": "", "date_of_death": "", "genders": [], "languages": [], "places_of_operation": [], "biography": "", "biography_author": null, "date_of_biography": "2023-08-14T11:23:15.853382+10:00", "external_links": [], "uuid": "eecd3e59-4ef3-4001-a17c-477716189f9a", "source": {"name": "Vernon", "slug": "vernon"}, "source_identifier": "34120", "external_references": [], "date_modified": "2023-08-14T11:23:15.853679+10:00"}, {"id": 79547, "name": "Pierre Henfrey", "roles_in_work": [{"id": 2231994, "title": "Primary health care: a team approach", "work_id": 91336, "role": "co-producer", "role_id": 915, "is_primary": true}], "also_known_as": "", "date_of_birth": "", "date_of_death": "", "genders": [], "languages": [], "places_of_operation": [], "biography": "", "biography_author": null, "date_of_biography": "2023-05-09T16:38:48.932047+10:00", "external_links": [], "uuid": "4361544f-294e-4f7d-8d39-c918aa191190", "source": {"name": "Vernon", "slug": "vernon"}, "source_identifier": "26931", "external_references": [{"id": 32884, "source": {"name": "Wikidata", "slug": "wikidata"}, "source_identifier": "Q121271449"}], "date_modified": "2023-09-06T00:09:31.233067+10:00"}, {"id": 79546, "name": "Massimo De Rita", "roles_in_work": [{"id": 2158910, "title": "Mask of satan [Dubbed]", "work_id": 91334, "role": "producer", "role_id": 1089, "is_primary": true}], "also_known_as": "", "date_of_birth": "1935-08-11", "date_of_death": "2013-05-13", "genders": [{"id": 9, "name": "Male", "slug": "male"}], "languages": [{"id": 6, "name": "Italian", "slug": "italian"}], "places_of_operation": [{"id": 19, "name": "Italy", "slug": "italy"}], "biography": "", "biography_author": null, "date_of_biography": "2023-05-09T14:12:30.404843+10:00", "external_links": [], "uuid": "5e0913c3-52b9-498a-b7a8-a71895dee56e", "source": {"name": "Vernon", "slug": "vernon"}, "source_identifier": "24767", "external_references": [{"id": 39085, "source": {"name": "Wikidata", "slug": "wikidata"}, "source_identifier": "Q18811907"}, {"id": 55208, "source": {"name": "VIAF", "slug": "viaf"}, "source_identifier": "86575634"}, {"id": 55209, "source": {"name": "LOC Auth", "slug": "loc-auth"}, "source_identifier": "no97021694"}, {"id": 55210, "source": {"name": "WorldCat", "slug": "worldcat"}, "source_identifier": "lccn-no97021694"}], "date_modified": "2023-09-05T22:53:31.871949+10:00"}, {"id": 79545, "name": "Ronn Mann", "roles_in_work": [{"id": 1995276, "title": "Grass [Widescreen]", "work_id": 91323, "role": "producer/director", "role_id": 31, "is_primary": true}], "also_known_as": "", "date_of_birth": "1958-06-13", "date_of_death": null, "genders": [{"id": 9, "name": "Male", "slug": "male"}], "languages": [], "places_of_operation": [{"id": 36, "name": "Canada", "slug": "canada"}], "biography": "Ronald Mann (born June 13, 1958), credited professionally as Ron Mann, is a Canadian documentary film director.His work includes the films Imagine the Sound (1981); Comic Book Confidential (1988); Grass (1999) and Go Further (2003), both of which feature Woody Harrelson; In the Wake of the Flood (2010), which features author Margaret Atwood; and Altman (2014), about the life and career of film director Robert Altman.", "biography_author": "Wikidata", "date_of_biography": "2023-09-06T00:55:49.753137+10:00", "external_links": [{"id": 6156, "uri": "https://en.wikipedia.org/wiki/Ron_Mann"}], "uuid": "aaf24fa2-d8d1-42c6-a0a1-71b3a73896c9", "source": {"name": "Vernon", "slug": "vernon"}, "source_identifier": null, "external_references": [{"id": 40487, "source": {"name": "Wikidata", "slug": "wikidata"}, "source_identifier": "Q7364111"}, {"id": 55721, "source": {"name": "VIAF", "slug": "viaf"}, "source_identifier": "56817521"}, {"id": 55722, "source": {"name": "LOC Auth", "slug": "loc-auth"}, "source_identifier": "n94043417"}, {"id": 55723, "source": {"name": "WorldCat", "slug": "worldcat"}, "source_identifier": "lccn-n94043417"}], "date_modified": "2023-09-06T00:55:49.774220+10:00"}, {"id": 79544, "name": "Neal Edelstein", "roles_in_work": [{"id": 1995269, "title": "The Straight story", "work_id": 91314, "role": "co-producer", "role_id": 915, "is_primary": true}, {"id": 2476074, "title": "Lumiere and company", "work_id": 92216, "role": "co-producer", "role_id": 915, "is_primary": true}, {"id": 1998100, "title": "Mulholland Drive", "work_id": 93609, "role": "co-producer", "role_id": 915, "is_primary": true}], "also_known_as": "", "date_of_birth": "", "date_of_death": "", "genders": [{"id": 9, "name": "Male", "slug": "male"}], "languages": [], "places_of_operation": [{"id": 1, "name": "United States of America", "slug": "united-states-of-america"}], "biography": "Neal Edelstein is an independent film producer and is known as an early technology adopter.", "biography_author": "Wikidata", "date_of_biography": "2023-09-05T23:26:31.812122+10:00", "external_links": [{"id": 4765, "uri": "https://en.wikipedia.org/wiki/Neal_Edelstein"}], "uuid": "9fb7eca9-4186-4a75-9c80-c3c3f998c277", "source": {"name": "Vernon", "slug": "vernon"}, "source_identifier": "25653", "external_references": [{"id": 25056, "source": {"name": "Wikidata", "slug": "wikidata"}, "source_identifier": "Q16249543"}], "date_modified": "2023-09-05T23:26:31.824156+10:00"}]}