{"count": 28683, "next": "https://api.acmi.net.au/creators/?page=2061", "previous": "https://api.acmi.net.au/creators/?page=2059", "results": [{"id": 21350, "name": "Japan Foundation", "roles_in_work": [{"id": 2615327, "title": "Return to Sandakan", "work_id": 85223, "role": "production company", "role_id": 941, "is_primary": true}, {"id": 767299, "title": "Sacred vandals", "work_id": 78479, "role": "production company", "role_id": 941, "is_primary": true}], "also_known_as": "", "date_of_birth": "", "date_of_death": "", "genders": [], "languages": [], "places_of_operation": [], "biography": "", "biography_author": null, "date_of_biography": "2023-05-09T17:09:16.931703+10:00", "external_links": [], "uuid": "e3aa5d5c-1b1b-45b1-b713-83eb47dcd977", "source": {"name": "Vernon", "slug": "vernon"}, "source_identifier": "9560", "external_references": [{"id": 51591, "source": {"name": "Wikidata", "slug": "wikidata"}, "source_identifier": "Q121357641"}], "date_modified": "2025-02-26T20:22:17.699442+11:00"}, {"id": 21349, "name": "Australian Film Commission. Creative Development Branch", "roles_in_work": [{"id": 2648265, "title": "Rocking the foundations", "work_id": 78668, "role": "production company", "role_id": 941, "is_primary": true}, {"id": 2750325, "title": "A Touch of the terminals", "work_id": 97256, "role": "production company", "role_id": 941, "is_primary": true}, {"id": 767298, "title": "Sacred vandals", "work_id": 78479, "role": "production company", "role_id": 941, "is_primary": true}, {"id": 831627, "title": "Thief of Sydney", "work_id": 98602, "role": "production company", "role_id": 941, "is_primary": true}], "also_known_as": "", "date_of_birth": "", "date_of_death": "", "genders": [], "languages": [], "places_of_operation": [], "biography": "", "biography_author": null, "date_of_biography": "2023-08-09T03:58:08.323792+10:00", "external_links": [], "uuid": "dd9fd8b0-d98e-4e94-913c-598095ad0337", "source": {"name": "Vernon", "slug": "vernon"}, "source_identifier": "4610", "external_references": [{"id": 43086, "source": {"name": "Wikidata", "slug": "wikidata"}, "source_identifier": "Q121337192"}], "date_modified": "2025-03-13T00:20:21.184200+11:00"}, {"id": 21345, "name": "Film Centre (Perth, W.A.)", "roles_in_work": [{"id": 2760621, "title": "The Remarkable bandicoots", "work_id": 78466, "role": "production company", "role_id": 941, "is_primary": true}], "also_known_as": "", "date_of_birth": "", "date_of_death": "", "genders": [], "languages": [], "places_of_operation": [], "biography": "", "biography_author": null, "date_of_biography": "2023-05-09T20:05:06.056908+10:00", "external_links": [], "uuid": "f6c6d60e-4707-4853-bd1c-60fc3c9d92d8", "source": {"name": "Vernon", "slug": "vernon"}, "source_identifier": "8192", "external_references": [{"id": 40237, "source": {"name": "Wikidata", "slug": "wikidata"}, "source_identifier": "Q121034984"}], "date_modified": "2025-03-14T17:26:39.570063+11:00"}, {"id": 21344, "name": "Wildfilm Australia", "roles_in_work": [{"id": 2760620, "title": "The Remarkable bandicoots", "work_id": 78466, "role": "production company", "role_id": 941, "is_primary": true}], "also_known_as": "", "date_of_birth": "", "date_of_death": "", "genders": [], "languages": [], "places_of_operation": [], "biography": "", "biography_author": null, "date_of_biography": "2023-05-09T20:05:05.836797+10:00", "external_links": [], "uuid": "86337841-e65c-40e1-b53a-85fafeb44c3e", "source": {"name": "Vernon", "slug": "vernon"}, "source_identifier": "14364", "external_references": [{"id": 39077, "source": {"name": "Wikidata", "slug": "wikidata"}, "source_identifier": "Q121126053"}], "date_modified": "2025-03-14T17:26:38.979454+11:00"}, {"id": 21342, "name": "David Moore", "roles_in_work": [{"id": 2760614, "title": "The Little Marsupials", "work_id": 78460, "role": "director", "role_id": 938, "is_primary": true}, {"id": 2760629, "title": "Reptiles", "work_id": 78469, "role": "director", "role_id": 938, "is_primary": true}, {"id": 2760624, "title": "The Remarkable bandicoots", "work_id": 78466, "role": "director", "role_id": 938, "is_primary": true}, {"id": 898444, "title": "The Mallee Fowl", "work_id": 78468, "role": "co-director", "role_id": 959, "is_primary": true}, {"id": 2760626, "title": "Crocodile", "work_id": 78467, "role": "co-producer", "role_id": 915, "is_primary": true}, {"id": 2357989, "title": "The Kangaroos", "work_id": 78463, "role": "co-producer", "role_id": 915, "is_primary": true}, {"id": 2760617, "title": "The Tiny Carnivores", "work_id": 78465, "role": "co-producer", "role_id": 915, "is_primary": true}, {"id": 2760622, "title": "The Remarkable bandicoots", "work_id": 78466, "role": "co-producer", "role_id": 915, "is_primary": true}, {"id": 2760631, "title": "The Islands: Watery Outposts of Australia", "work_id": 78471, "role": "producer/director", "role_id": 31, "is_primary": true}], "also_known_as": "", "date_of_birth": "", "date_of_death": "", "genders": [], "languages": [], "places_of_operation": [], "biography": "", "biography_author": null, "date_of_biography": "2023-05-09T20:06:58.732522+10:00", "external_links": [], "uuid": "799a00be-f57c-4035-8ae6-33e1562068ee", "source": {"name": "Vernon", "slug": "vernon"}, "source_identifier": "17725", "external_references": [{"id": 42154, "source": {"name": "Wikidata", "slug": "wikidata"}, "source_identifier": "Q121299409"}], "date_modified": "2025-03-14T17:26:46.414267+11:00"}, {"id": 21335, "name": "Les Films du Levant", "roles_in_work": [{"id": 2749849, "title": "First days of life", "work_id": 97008, "role": "production company", "role_id": 941, "is_primary": true}, {"id": 2331670, "title": "The Birth of a brain : ten billion galaxies (TEFC)", "work_id": 78441, "role": "production company", "role_id": 941, "is_primary": true}], "also_known_as": "", "date_of_birth": "", "date_of_death": "", "genders": [], "languages": [], "places_of_operation": [], "biography": "", "biography_author": null, "date_of_biography": "2023-05-09T19:26:32.210695+10:00", "external_links": [], "uuid": "eabd00c1-c872-4859-b637-9f495ca02b6c", "source": {"name": "Vernon", "slug": "vernon"}, "source_identifier": "10007", "external_references": [{"id": 42826, "source": {"name": "Wikidata", "slug": "wikidata"}, "source_identifier": "Q121126832"}], "date_modified": "2025-03-13T00:07:35.097131+11:00"}, {"id": 21334, "name": "Barbara Schmidt Harrison", "roles_in_work": [{"id": 2466487, "title": "Team Building (TEFC)", "work_id": 78439, "role": "producer", "role_id": 1089, "is_primary": true}], "also_known_as": "", "date_of_birth": "", "date_of_death": "", "genders": [], "languages": [], "places_of_operation": [], "biography": "", "biography_author": null, "date_of_biography": "2023-08-14T10:58:22.689552+10:00", "external_links": [], "uuid": "346c143f-1803-40f2-b467-255f13cc36e7", "source": {"name": "Vernon", "slug": "vernon"}, "source_identifier": "15663", "external_references": [], "date_modified": "2023-08-14T10:58:22.689796+10:00"}, {"id": 21332, "name": "Michael Karris", "roles_in_work": [{"id": 2219213, "title": "English at Work. - Eps. 31-33.", "work_id": 81660, "role": "co-director", "role_id": 959, "is_primary": true}, {"id": 2219034, "title": "English at work. - Eps. 34-36.", "work_id": 81661, "role": "co-director", "role_id": 959, "is_primary": true}, {"id": 2219011, "title": "English at Work. - Eps. 28-30.", "work_id": 81657, "role": "co-director", "role_id": 959, "is_primary": true}, {"id": 898408, "title": "The Occupant", "work_id": 78436, "role": "co-producers/directors", "role_id": 628, "is_primary": true}, {"id": 2774630, "title": "In our own image", "work_id": 83484, "role": "director", "role_id": 938, "is_primary": true}], "also_known_as": "", "date_of_birth": "", "date_of_death": "", "genders": [], "languages": [], "places_of_operation": [], "biography": "", "biography_author": null, "date_of_biography": "2023-05-09T19:29:29.840680+10:00", "external_links": [], "uuid": "592d18a5-1503-4c33-8888-fde06e458653", "source": {"name": "Vernon", "slug": "vernon"}, "source_identifier": "25121", "external_references": [{"id": 40712, "source": {"name": "Wikidata", "slug": "wikidata"}, "source_identifier": "Q121299196"}], "date_modified": "2025-03-14T18:38:41.990157+11:00"}, {"id": 21329, "name": "Valeria Vasilevski", "roles_in_work": [{"id": 2402916, "title": "Boomtown", "work_id": 78435, "role": "producer", "role_id": 1089, "is_primary": true}], "also_known_as": "", "date_of_birth": "", "date_of_death": "", "genders": [], "languages": [], "places_of_operation": [], "biography": "", "biography_author": null, "date_of_biography": "2023-08-11T15:01:53.900639+10:00", "external_links": [], "uuid": "1712e209-362a-4832-be69-1cd93fecead1", "source": {"name": "Vernon", "slug": "vernon"}, "source_identifier": "30045", "external_references": [], "date_modified": "2023-08-11T15:01:53.900881+10:00"}, {"id": 21328, "name": "Reduta Deux", "roles_in_work": [{"id": 2402915, "title": "Boomtown", "work_id": 78435, "role": "production company", "role_id": 941, "is_primary": true}], "also_known_as": "", "date_of_birth": "", "date_of_death": "", "genders": [], "languages": [], "places_of_operation": [], "biography": "", "biography_author": null, "date_of_biography": "2023-08-11T15:01:53.272752+10:00", "external_links": [], "uuid": "0ea794a7-43fb-40df-ab0f-a3686c31c724", "source": {"name": "Vernon", "slug": "vernon"}, "source_identifier": "11406", "external_references": [], "date_modified": "2023-08-11T15:01:53.273001+10:00"}]}