{"count": 28687, "next": "https://api.acmi.net.au/creators/?page=1266", "previous": "https://api.acmi.net.au/creators/?page=1264", "results": [{"id": 39352, "name": "Weed Science Soc of Vic", "roles_in_work": [{"id": 2402693, "title": "Blackberry: the menace and its management", "work_id": 99358, "role": "production company", "role_id": 941, "is_primary": true}], "also_known_as": "", "date_of_birth": "", "date_of_death": "", "genders": [], "languages": [], "places_of_operation": [], "biography": "", "biography_author": null, "date_of_biography": "2023-08-11T14:52:23.669546+10:00", "external_links": [], "uuid": "1dba4641-3dc5-4a34-9187-57181a0bf7f3", "source": {"name": "Vernon", "slug": "vernon"}, "source_identifier": "14276", "external_references": [], "date_modified": "2023-08-11T14:52:23.669862+10:00"}, {"id": 39351, "name": "Victorian Country Education Project", "roles_in_work": [{"id": 2754776, "title": "Go Between. My Name Is Asher Lev", "work_id": 99355, "role": "production company", "role_id": 941, "is_primary": true}], "also_known_as": "", "date_of_birth": "", "date_of_death": "", "genders": [], "languages": [], "places_of_operation": [], "biography": "", "biography_author": null, "date_of_biography": "2023-08-11T17:03:23.888932+10:00", "external_links": [], "uuid": "f875b44c-913c-4098-af24-5922a3ef4946", "source": {"name": "Vernon", "slug": "vernon"}, "source_identifier": "14069", "external_references": [], "date_modified": "2025-03-13T01:51:01.298242+11:00"}, {"id": 39350, "name": "Victoria. Inner City School Support Centre", "roles_in_work": [{"id": 2754767, "title": "Kids making decisions", "work_id": 99351, "role": "production company", "role_id": 941, "is_primary": true}], "also_known_as": "", "date_of_birth": null, "date_of_death": null, "genders": [], "languages": [], "places_of_operation": [], "biography": "", "biography_author": null, "date_of_biography": null, "external_links": [], "uuid": "de5c347c-7e4b-4ad6-aba8-74d58fc4083d", "source": {"name": "Vernon", "slug": "vernon"}, "source_identifier": "4773", "external_references": [], "date_modified": "2025-03-13T01:50:54.961945+11:00"}, {"id": 39349, "name": "Corporate Relations Unit", "roles_in_work": [{"id": 2754766, "title": "Kids making decisions", "work_id": 99351, "role": "production company", "role_id": 941, "is_primary": true}], "also_known_as": "", "date_of_birth": null, "date_of_death": null, "genders": [], "languages": [], "places_of_operation": [], "biography": "", "biography_author": null, "date_of_biography": null, "external_links": [], "uuid": "2ff67206-9ffa-4ae6-9a7b-7907d06112c8", "source": {"name": "Vernon", "slug": "vernon"}, "source_identifier": "7088", "external_references": [], "date_modified": "2025-03-13T01:50:54.373599+11:00"}, {"id": 39348, "name": "John Nairn", "roles_in_work": [{"id": 2754765, "title": "Sunrise profession: land degradation hypothetical", "work_id": 99350, "role": "director", "role_id": 938, "is_primary": true}], "also_known_as": "", "date_of_birth": null, "date_of_death": null, "genders": [], "languages": [], "places_of_operation": [], "biography": "", "biography_author": null, "date_of_biography": null, "external_links": [], "uuid": "255e727b-767d-4774-a970-4dca198a4259", "source": {"name": "Vernon", "slug": "vernon"}, "source_identifier": "22436", "external_references": [], "date_modified": "2025-03-13T01:50:53.536240+11:00"}, {"id": 39347, "name": "John Nicholson", "roles_in_work": [{"id": 2754764, "title": "Sunrise profession: land degradation hypothetical", "work_id": 99350, "role": "producer", "role_id": 1089, "is_primary": true}], "also_known_as": "", "date_of_birth": null, "date_of_death": null, "genders": [], "languages": [], "places_of_operation": [], "biography": "", "biography_author": null, "date_of_biography": null, "external_links": [], "uuid": "a517d748-5bb6-41b6-b972-1d98dab052ca", "source": {"name": "Vernon", "slug": "vernon"}, "source_identifier": "22440", "external_references": [], "date_modified": "2025-03-13T01:50:52.941926+11:00"}, {"id": 39344, "name": "H Simons", "roles_in_work": [{"id": 2779240, "title": "Time scrambler", "work_id": 99340, "role": "production company", "role_id": 941, "is_primary": true}], "also_known_as": "", "date_of_birth": "", "date_of_death": "", "genders": [], "languages": [], "places_of_operation": [], "biography": "", "biography_author": null, "date_of_biography": "2023-05-09T17:48:57.348477+10:00", "external_links": [], "uuid": "5fe468a8-266f-4d8c-81df-ea299f87cee7", "source": {"name": "Vernon", "slug": "vernon"}, "source_identifier": "20173", "external_references": [{"id": 43182, "source": {"name": "Wikidata", "slug": "wikidata"}, "source_identifier": "Q121079127"}], "date_modified": "2025-03-14T19:02:46.678497+11:00"}, {"id": 39342, "name": "Women's Film Fund AFC", "roles_in_work": [{"id": 2754741, "title": "Take heart", "work_id": 99339, "role": "production company", "role_id": 941, "is_primary": true}], "also_known_as": "", "date_of_birth": "", "date_of_death": "", "genders": [], "languages": [], "places_of_operation": [], "biography": "", "biography_author": null, "date_of_biography": "2023-05-09T19:12:17.385132+10:00", "external_links": [], "uuid": "1b722c24-c559-4131-b264-a86ff4e823cf", "source": {"name": "Vernon", "slug": "vernon"}, "source_identifier": "14424", "external_references": [{"id": 38428, "source": {"name": "Wikidata", "slug": "wikidata"}, "source_identifier": "Q121034193"}], "date_modified": "2025-03-13T01:50:35.407564+11:00"}, {"id": 39341, "name": "Profootball", "roles_in_work": [{"id": 2754716, "title": "VFL: skills", "work_id": 99322, "role": "production company", "role_id": 941, "is_primary": true}], "also_known_as": "", "date_of_birth": "", "date_of_death": "", "genders": [], "languages": [], "places_of_operation": [], "biography": "", "biography_author": null, "date_of_biography": "2023-08-14T12:10:25.092820+10:00", "external_links": [], "uuid": "d4fba15e-aa3f-4d33-9632-dbe6bd70d6cd", "source": {"name": "Vernon", "slug": "vernon"}, "source_identifier": "11689", "external_references": [], "date_modified": "2025-03-13T01:50:16.473355+11:00"}, {"id": 39340, "name": "L. Jeffrey Selznick", "roles_in_work": [{"id": 2754710, "title": "Making of a legend: Gone with the wind", "work_id": 99319, "role": "producer", "role_id": 1089, "is_primary": true}], "also_known_as": "", "date_of_birth": null, "date_of_death": null, "genders": [], "languages": [], "places_of_operation": [], "biography": "", "biography_author": null, "date_of_biography": null, "external_links": [], "uuid": "6dd777f4-5a6a-4059-99da-ed17591cd1af", "source": {"name": "Vernon", "slug": "vernon"}, "source_identifier": "23442", "external_references": [], "date_modified": "2025-03-13T01:50:10.566567+11:00"}]}