{"count": 28687, "next": "https://api.acmi.net.au/creators/?page=384", "previous": "https://api.acmi.net.au/creators/?page=382", "results": [{"id": 81753, "name": "Glenn McIver", "roles_in_work": [{"id": 2754236, "title": "Preparing your child for school. Parts 1 & 2", "work_id": 99114, "role": "co-producer", "role_id": 915, "is_primary": true}, {"id": 2754266, "title": "Health down under", "work_id": 99127, "role": "co-producer", "role_id": 915, "is_primary": true}], "also_known_as": "", "date_of_birth": "", "date_of_death": "", "genders": [], "languages": [], "places_of_operation": [], "biography": "", "biography_author": null, "date_of_biography": "2023-05-09T16:38:01.300383+10:00", "external_links": [], "uuid": "714cadac-5944-47ca-8204-101443a6ab28", "source": {"name": "Vernon", "slug": "vernon"}, "source_identifier": "19899", "external_references": [{"id": 32788, "source": {"name": "Wikidata", "slug": "wikidata"}, "source_identifier": "Q121036407"}], "date_modified": "2025-03-13T01:41:27.088500+11:00"}, {"id": 81752, "name": "Pamela Eagles", "roles_in_work": [{"id": 2754410, "title": "Being five", "work_id": 99190, "role": "co-producer", "role_id": 915, "is_primary": true}, {"id": 2754414, "title": "Look at me! I'm three", "work_id": 99191, "role": "co-producer", "role_id": 915, "is_primary": true}, {"id": 2754230, "title": "What we do at kindergarten", "work_id": 99112, "role": "co-producer", "role_id": 915, "is_primary": true}, {"id": 2754418, "title": "Ready or not", "work_id": 99192, "role": "co-producers/directors", "role_id": 628, "is_primary": true}], "also_known_as": "", "date_of_birth": "", "date_of_death": "", "genders": [], "languages": [], "places_of_operation": [], "biography": "", "biography_author": null, "date_of_biography": "2023-05-09T16:47:30.437513+10:00", "external_links": [], "uuid": "32ba1362-f2e5-4a2d-b0de-a2224a78241b", "source": {"name": "Vernon", "slug": "vernon"}, "source_identifier": "26043", "external_references": [{"id": 40880, "source": {"name": "Wikidata", "slug": "wikidata"}, "source_identifier": "Q121078814"}], "date_modified": "2025-03-13T01:43:33.063571+11:00"}, {"id": 81751, "name": "Donn Clauscen", "roles_in_work": [{"id": 2754229, "title": "What we do at kindergarten", "work_id": 99112, "role": "co-producer", "role_id": 915, "is_primary": true}, {"id": 2754409, "title": "Being five", "work_id": 99190, "role": "co-producer", "role_id": 915, "is_primary": true}, {"id": 2754413, "title": "Look at me! I'm three", "work_id": 99191, "role": "co-producer", "role_id": 915, "is_primary": true}], "also_known_as": "", "date_of_birth": "", "date_of_death": "", "genders": [], "languages": [], "places_of_operation": [], "biography": "", "biography_author": null, "date_of_biography": "2023-05-09T12:46:36.678410+10:00", "external_links": [], "uuid": "1a0ec7eb-d6cd-40da-ac52-ed6535108fb2", "source": {"name": "Vernon", "slug": "vernon"}, "source_identifier": "18325", "external_references": [{"id": 43608, "source": {"name": "Wikidata", "slug": "wikidata"}, "source_identifier": "Q121036606"}], "date_modified": "2025-03-13T01:43:29.837330+11:00"}, {"id": 81750, "name": "Dianne Milwright", "roles_in_work": [{"id": 2754408, "title": "Being five", "work_id": 99190, "role": "co-producer", "role_id": 915, "is_primary": true}, {"id": 2754412, "title": "Look at me! I'm three", "work_id": 99191, "role": "co-producer", "role_id": 915, "is_primary": true}, {"id": 2754228, "title": "What we do at kindergarten", "work_id": 99112, "role": "co-producer", "role_id": 915, "is_primary": true}, {"id": 2754416, "title": "Ready or not", "work_id": 99192, "role": "co-producers/directors", "role_id": 628, "is_primary": true}], "also_known_as": "", "date_of_birth": "", "date_of_death": "", "genders": [], "languages": [], "places_of_operation": [], "biography": "", "biography_author": null, "date_of_biography": "2023-05-09T16:47:29.710017+10:00", "external_links": [], "uuid": "0fedff2a-e760-42f8-967c-4a2a8361565e", "source": {"name": "Vernon", "slug": "vernon"}, "source_identifier": "18090", "external_references": [{"id": 34363, "source": {"name": "Wikidata", "slug": "wikidata"}, "source_identifier": "Q121143696"}], "date_modified": "2025-03-13T01:43:31.870099+11:00"}, {"id": 81749, "name": "Philip Bond", "roles_in_work": [{"id": 2222930, "title": "Exercise green!", "work_id": 99098, "role": "co-director", "role_id": 959, "is_primary": true}], "also_known_as": "", "date_of_birth": "", "date_of_death": "", "genders": [], "languages": [], "places_of_operation": [], "biography": "", "biography_author": null, "date_of_biography": "2023-05-09T16:21:47.796985+10:00", "external_links": [], "uuid": "6c63b736-8aef-485f-8cc2-81569c31bcd8", "source": {"name": "Vernon", "slug": "vernon"}, "source_identifier": "26805", "external_references": [{"id": 34546, "source": {"name": "Wikidata", "slug": "wikidata"}, "source_identifier": "Q121079424"}], "date_modified": "2023-09-06T00:04:11.008997+10:00"}, {"id": 81748, "name": "Craig Reardon", "roles_in_work": [{"id": 2754180, "title": "Here's to your health: food and Nutrition", "work_id": 99093, "role": "co-producer", "role_id": 915, "is_primary": true}, {"id": 2754208, "title": "Here's to your health: alcohol", "work_id": 99103, "role": "co-producer", "role_id": 915, "is_primary": true}, {"id": 2754221, "title": "Here's to your health: infectious diseases", "work_id": 99109, "role": "co-producer", "role_id": 915, "is_primary": true}, {"id": 919522, "title": "Here's to your health: health for youth", "work_id": 99072, "role": "co-producer", "role_id": 915, "is_primary": true}, {"id": 2754242, "title": "Here's to your health: skincare", "work_id": 99117, "role": "co-producer", "role_id": 915, "is_primary": true}, {"id": 2754169, "title": "Here's to Your health: std's", "work_id": 99088, "role": "co-producer", "role_id": 915, "is_primary": true}, {"id": 2754138, "title": "Here's to your health: smoking", "work_id": 99075, "role": "co-producer", "role_id": 915, "is_primary": true}], "also_known_as": "", "date_of_birth": null, "date_of_death": null, "genders": [], "languages": [], "places_of_operation": [], "biography": "", "biography_author": null, "date_of_biography": null, "external_links": [], "uuid": "1b9c61ac-a35e-437d-bd77-d4bb846db566", "source": {"name": "Vernon", "slug": "vernon"}, "source_identifier": "17248", "external_references": [{"id": 33157, "source": {"name": "Wikidata", "slug": "wikidata"}, "source_identifier": "Q121337240"}], "date_modified": "2025-03-13T01:41:06.885321+11:00"}, {"id": 81747, "name": "Keith Saggers", "roles_in_work": [{"id": 2754089, "title": "Human rights video kit. Parts 1 & 2", "work_id": 99053, "role": "producer/director", "role_id": 31, "is_primary": true}], "also_known_as": "", "date_of_birth": "", "date_of_death": "", "genders": [], "languages": [], "places_of_operation": [], "biography": "", "biography_author": null, "date_of_biography": "2023-08-11T17:38:02.105024+10:00", "external_links": [], "uuid": "95adc2e7-ebd2-41a1-9f7b-545fc109378c", "source": {"name": "Vernon", "slug": "vernon"}, "source_identifier": "23156", "external_references": [{"id": 51531, "source": {"name": "Wikidata", "slug": "wikidata"}, "source_identifier": "Q121361173"}], "date_modified": "2025-03-13T01:37:26.005358+11:00"}, {"id": 81746, "name": "Glen Iver", "roles_in_work": [{"id": 2754020, "title": "Preparing your child for school", "work_id": 99024, "role": "co-producer", "role_id": 915, "is_primary": true}], "also_known_as": "", "date_of_birth": "", "date_of_death": "", "genders": [], "languages": [], "places_of_operation": [], "biography": "", "biography_author": null, "date_of_biography": "2023-05-09T16:31:02.816014+10:00", "external_links": [], "uuid": "a5f2dea6-9954-43f6-bbc3-42b0bb4c5421", "source": {"name": "Vernon", "slug": "vernon"}, "source_identifier": "19888", "external_references": [{"id": 39314, "source": {"name": "Wikidata", "slug": "wikidata"}, "source_identifier": "Q121086081"}], "date_modified": "2025-03-13T01:36:31.184921+11:00"}, {"id": 81745, "name": "Liz Neeson", "roles_in_work": [{"id": 2298951, "title": "Shred of evidence", "work_id": 99017, "role": "producer/director", "role_id": 31, "is_primary": true}], "also_known_as": "", "date_of_birth": "", "date_of_death": "", "genders": [], "languages": [], "places_of_operation": [], "biography": "", "biography_author": null, "date_of_biography": "2023-05-09T18:33:04.944037+10:00", "external_links": [], "uuid": "72bf452c-ef51-410c-a2f8-f9431a15319c", "source": {"name": "Vernon", "slug": "vernon"}, "source_identifier": "23948", "external_references": [{"id": 50581, "source": {"name": "Wikidata", "slug": "wikidata"}, "source_identifier": "Q121360799"}], "date_modified": "2023-09-05T22:28:48.395020+10:00"}, {"id": 81744, "name": "Jon Erickson", "roles_in_work": [{"id": 2754002, "title": "'Rivers of fire': an eruption of Hawaii's Mauna Loa Volcano", "work_id": 99016, "role": "co-producer", "role_id": 915, "is_primary": true}], "also_known_as": "", "date_of_birth": "1948", "date_of_death": "", "genders": [], "languages": [], "places_of_operation": [], "biography": "", "biography_author": null, "date_of_biography": "2023-05-09T09:54:20.126475+10:00", "external_links": [], "uuid": "21545fc1-3809-4ddc-8d6c-c2c5ce2830e6", "source": {"name": "Vernon", "slug": "vernon"}, "source_identifier": "22629", "external_references": [{"id": 34182, "source": {"name": "Wikidata", "slug": "wikidata"}, "source_identifier": "Q121144139"}], "date_modified": "2025-03-13T01:36:15.650994+11:00"}]}