{"count": 28687, "next": "https://api.acmi.net.au/creators/?page=30", "previous": "https://api.acmi.net.au/creators/?page=28", "results": [{"id": 87056, "name": "Greg Noakes", "roles_in_work": [{"id": 2526927, "title": "Malcolm crew behind the scenes (1/2)", "work_id": 121907, "role": "photographer", "role_id": 440, "is_primary": false}, {"id": 2526926, "title": "Melcolm crew behind the scenes (2/2)", "work_id": 121906, "role": "photographer", "role_id": 440, "is_primary": false}], "also_known_as": "", "date_of_birth": "", "date_of_death": "", "genders": [], "languages": [], "places_of_operation": [], "biography": "", "biography_author": null, "date_of_biography": "2023-05-17T03:40:01.893561+10:00", "external_links": [], "uuid": "3583eaa9-9dec-455a-8c00-8ce6bd99a69a", "source": {"name": "Vernon", "slug": "vernon"}, "source_identifier": "40563", "external_references": [], "date_modified": "2024-07-24T04:07:39.975051+10:00"}, {"id": 87055, "name": "Denbeigh Salter", "roles_in_work": [{"id": 3109456, "title": "'Mad Malcolm' article in Australasian Cinema", "work_id": 121903, "role": "writer", "role_id": 939, "is_primary": true}], "also_known_as": "", "date_of_birth": null, "date_of_death": null, "genders": [], "languages": [], "places_of_operation": [], "biography": "", "biography_author": null, "date_of_biography": null, "external_links": [], "uuid": "19b77f49-264a-4f17-95cd-6f0833ae5508", "source": {"name": "Vernon", "slug": "vernon"}, "source_identifier": "40545", "external_references": [], "date_modified": "2025-11-28T18:37:04.139863+11:00"}, {"id": 87054, "name": "Museum of Applied Arts and Sciences", "roles_in_work": [{"id": 2517582, "title": "Prop tie for Prisoner guard costume", "work_id": 121901, "role": "lender", "role_id": 626, "is_primary": false}, {"id": 2716590, "title": "Guards costume from TV series 'Prisoner'", "work_id": 121899, "role": "lender", "role_id": 626, "is_primary": false}, {"id": 2716591, "title": "Inmates uniform costume from TV series 'Prisoner'", "work_id": 121900, "role": "lender", "role_id": 626, "is_primary": false}], "also_known_as": "", "date_of_birth": "", "date_of_death": "", "genders": [], "languages": [], "places_of_operation": [], "biography": "", "biography_author": null, "date_of_biography": "2023-05-10T03:45:04.320878+10:00", "external_links": [], "uuid": "cd7f6f04-1b95-43bd-98b1-fb29057fed5e", "source": {"name": "Vernon", "slug": "vernon"}, "source_identifier": "2485", "external_references": [], "date_modified": "2025-03-12T02:12:35.482991+11:00"}, {"id": 87053, "name": "Oombarra Productions", "roles_in_work": [{"id": 2719163, "title": "Prop from 'The Drover's Wife' [The State of New South Wales Custodial Order regarding the Johnson Children]", "work_id": 121894, "role": "lender", "role_id": 626, "is_primary": false}, {"id": 2271877, "title": "Prop from 'The Drover's Wife' [The Dawn. A Journal for Australian Women, edited by Louisa Clintoff, vol. 1 no. 1, 9th May 1983, 'Battered Wives] (7)", "work_id": 121893, "role": "lender", "role_id": 626, "is_primary": false}, {"id": 3106193, "title": "Molly Johnson (Leah Purcell) blue hero costume from The Drover's Wife", "work_id": 121897, "role": "lender", "role_id": 626, "is_primary": false}, {"id": 3106195, "title": "Molly Johnson (Leah Purcell) akubra hat from The Drover's Wife", "work_id": 121896, "role": "lender", "role_id": 626, "is_primary": false}, {"id": 2536085, "title": "Joe’s boots that Yadaka wears from 'The Drover's Wife'", "work_id": 121892, "role": "lender", "role_id": 626, "is_primary": false}, {"id": 2536074, "title": "'The Drover's Wife' script/screenplay", "work_id": 121877, "role": "lender", "role_id": 626, "is_primary": false}], "also_known_as": "", "date_of_birth": "", "date_of_death": "", "genders": [], "languages": [], "places_of_operation": [], "biography": "", "biography_author": null, "date_of_biography": "2023-08-30T04:32:40.574559+10:00", "external_links": [], "uuid": "9bccad31-d0bd-48d8-bdcd-763039a0f21d", "source": {"name": "Vernon", "slug": "vernon"}, "source_identifier": "39979", "external_references": [], "date_modified": "2025-06-20T12:36:06.057446+10:00"}, {"id": 87052, "name": "Mish Grigor", "roles_in_work": [{"id": 2728506, "title": "FAWN", "work_id": 121796, "role": "", "role_id": 604, "is_primary": false}], "also_known_as": "", "date_of_birth": "", "date_of_death": "", "genders": [], "languages": [], "places_of_operation": [], "biography": "Mish Grigor is a co-director at APHIDS", "biography_author": null, "date_of_biography": "2025-03-12T08:38:21.351830+11:00", "external_links": [], "uuid": "04c577c8-7ced-4128-a6e1-90c6be65b063", "source": {"name": "Vernon", "slug": "vernon"}, "source_identifier": "40626", "external_references": [], "date_modified": "2025-03-12T08:38:21.352124+11:00"}, {"id": 87051, "name": "Anna Nalpantidis", "roles_in_work": [{"id": 2728505, "title": "FAWN", "work_id": 121796, "role": "executive producer", "role_id": 916, "is_primary": false}], "also_known_as": "", "date_of_birth": "", "date_of_death": "", "genders": [], "languages": [], "places_of_operation": [], "biography": "Anna Nalpantidis is the Executive Producer of Melbourne based collaborative group APHIDS (2023)", "biography_author": null, "date_of_biography": "2025-03-12T08:38:20.755140+11:00", "external_links": [], "uuid": "8e0e59fe-f458-4dea-bf09-fd2299bdbc09", "source": {"name": "Vernon", "slug": "vernon"}, "source_identifier": "40625", "external_references": [], "date_modified": "2025-03-12T08:38:20.755449+11:00"}, {"id": 87050, "name": "Lara Thoms", "roles_in_work": [{"id": 2728504, "title": "FAWN", "work_id": 121796, "role": "director", "role_id": 938, "is_primary": true}], "also_known_as": "", "date_of_birth": "", "date_of_death": "", "genders": [], "languages": [], "places_of_operation": [], "biography": "", "biography_author": null, "date_of_biography": "2023-07-19T03:56:54.222895+10:00", "external_links": [], "uuid": "86ce3c7e-a490-4076-bfee-bf22f5f04985", "source": {"name": "Vernon", "slug": "vernon"}, "source_identifier": "40429", "external_references": [{"id": 38282, "source": {"name": "Wikidata", "slug": "wikidata"}, "source_identifier": "Q121144149"}], "date_modified": "2025-03-12T08:38:20.142458+11:00"}, {"id": 87049, "name": "Raffaele Favero", "roles_in_work": [{"id": 2360122, "title": "[Maryborough mudbrick dome]", "work_id": 121875, "role": "creator", "role_id": 968, "is_primary": true}, {"id": 2360120, "title": "Frontline Afghanistan: A Tribute to Raffaele Favero (1945-83)", "work_id": 121874, "role": "creator", "role_id": 968, "is_primary": true}, {"id": 2360121, "title": "[Maryborough mudbrick dome]", "work_id": 121875, "role": "camera operator", "role_id": 931, "is_primary": false}, {"id": 2360119, "title": "Frontline Afghanistan: A Tribute to Raffaele Favero (1945-83)", "work_id": 121874, "role": "camera operator", "role_id": 931, "is_primary": false}], "also_known_as": "", "date_of_birth": "", "date_of_death": "", "genders": [{"id": 9, "name": "Male", "slug": "male"}], "languages": [], "places_of_operation": [], "biography": "", "biography_author": null, "date_of_biography": "2023-05-10T03:45:16.519342+10:00", "external_links": [], "uuid": "6a43cab6-9baa-43ed-b1d4-cc9cc929de08", "source": {"name": "Vernon", "slug": "vernon"}, "source_identifier": "40623", "external_references": [{"id": 51818, "source": {"name": "Wikidata", "slug": "wikidata"}, "source_identifier": "Q121360714"}], "date_modified": "2023-06-14T16:33:30.576250+10:00"}, {"id": 87048, "name": "Now", "roles_in_work": [{"id": 2474458, "title": "Greta Thunberg detained at anti-mining protest", "work_id": 121873, "role": "creator", "role_id": 968, "is_primary": true}], "also_known_as": "", "date_of_birth": "", "date_of_death": "", "genders": [], "languages": [], "places_of_operation": [], "biography": "", "biography_author": null, "date_of_biography": "2023-08-16T04:09:23.280969+10:00", "external_links": [], "uuid": "99609906-0cb0-4f04-b768-470da02e9613", "source": {"name": "Vernon", "slug": "vernon"}, "source_identifier": "40620", "external_references": [], "date_modified": "2023-08-16T04:09:23.281213+10:00"}, {"id": 87047, "name": "Pete Wilkinson", "roles_in_work": [{"id": 2717261, "title": "Grace Tame visits the Prime Minister", "work_id": 119824, "role": "camera operator", "role_id": 931, "is_primary": false}], "also_known_as": "", "date_of_birth": "", "date_of_death": "", "genders": [], "languages": [], "places_of_operation": [], "biography": "", "biography_author": null, "date_of_biography": "2023-08-16T04:08:13.547745+10:00", "external_links": [], "uuid": "3fc6e166-704b-4b31-a424-4215a3db4d58", "source": {"name": "Vernon", "slug": "vernon"}, "source_identifier": "40619", "external_references": [{"id": 51540, "source": {"name": "Wikidata", "slug": "wikidata"}, "source_identifier": "Q121360793"}], "date_modified": "2025-03-12T05:48:21.060687+11:00"}]}