{"count": 28684, "next": "https://api.acmi.net.au/creators/?page=659", "previous": "https://api.acmi.net.au/creators/?page=657", "results": [{"id": 79000, "name": "Teresa Koenig", "roles_in_work": [{"id": 908509, "title": "Volcano", "work_id": 88939, "role": "co-producer", "role_id": 915, "is_primary": true}], "also_known_as": "", "date_of_birth": null, "date_of_death": null, "genders": [], "languages": [], "places_of_operation": [], "biography": "", "biography_author": null, "date_of_biography": null, "external_links": [], "uuid": "4b8d8b0c-4045-418a-85be-e8d31b70bace", "source": {"name": "Vernon", "slug": "vernon"}, "source_identifier": null, "external_references": [{"id": 51650, "source": {"name": "Wikidata", "slug": "wikidata"}, "source_identifier": "Q121357624"}], "date_modified": "2023-09-06T01:45:27.589162+10:00"}, {"id": 78999, "name": "Gail Willumsen", "roles_in_work": [{"id": 908508, "title": "Volcano", "work_id": 88939, "role": "co-producer", "role_id": 915, "is_primary": true}], "also_known_as": "", "date_of_birth": null, "date_of_death": null, "genders": [], "languages": [], "places_of_operation": [], "biography": "", "biography_author": null, "date_of_biography": null, "external_links": [], "uuid": "dc929fe5-a11f-4978-8108-126ef167f795", "source": {"name": "Vernon", "slug": "vernon"}, "source_identifier": null, "external_references": [{"id": 51896, "source": {"name": "Wikidata", "slug": "wikidata"}, "source_identifier": "Q121357916"}], "date_modified": "2023-09-05T19:55:54.491310+10:00"}, {"id": 78998, "name": "David Frankel", "roles_in_work": [{"id": 2000370, "title": "Miami rhapsody", "work_id": 95054, "role": "director", "role_id": 938, "is_primary": true}, {"id": 2000368, "title": "Miami rhapsody", "work_id": 95054, "role": "co-producer", "role_id": 915, "is_primary": true}, {"id": 2795861, "title": "Apollo 1", "work_id": 88932, "role": "director", "role_id": 938, "is_primary": true}, {"id": 2795907, "title": "We interrupt this program", "work_id": 88971, "role": "director", "role_id": 938, "is_primary": true}], "also_known_as": "", "date_of_birth": "02 APR 1959", "date_of_death": "", "genders": [{"id": 9, "name": "Male", "slug": "male"}], "languages": [], "places_of_operation": [{"id": 1, "name": "United States of America", "slug": "united-states-of-america"}], "biography": "David Frankel (born April 2, 1959) is an American filmmaker. He directed the 2006 film The Devil Wears Prada, as well as Marley & Me (2008), Hope Springs (2012), Jerry & Marge Go Large (2022), and the first and fourth episodes of the Netflix miniseries Inventing Anna (2022). Source: Wikidata; 01/08/2023", "biography_author": null, "date_of_biography": "2025-03-14T20:33:46.398772+11:00", "external_links": [{"id": 1886, "uri": "https://en.wikipedia.org/wiki/David_Frankel"}], "uuid": "0dfd46fc-4efd-498f-a520-2fa825b39644", "source": {"name": "Vernon", "slug": "vernon"}, "source_identifier": "17579", "external_references": [{"id": 8192, "source": {"name": "Wikidata", "slug": "wikidata"}, "source_identifier": "Q934964"}, {"id": 8193, "source": {"name": "VIAF", "slug": "viaf"}, "source_identifier": "84255538"}, {"id": 8194, "source": {"name": "LOC Auth", "slug": "loc-auth"}, "source_identifier": "no96046179"}, {"id": 8195, "source": {"name": "WorldCat", "slug": "worldcat"}, "source_identifier": "lccn-no96046179"}], "date_modified": "2025-03-14T20:33:46.399098+11:00"}, {"id": 78997, "name": "Eric Van Beuren", "roles_in_work": [{"id": 2291821, "title": "Zoo Olympics", "work_id": 88927, "role": "co-producer", "role_id": 915, "is_primary": true}], "also_known_as": "", "date_of_birth": "", "date_of_death": "", "genders": [], "languages": [], "places_of_operation": [], "biography": "", "biography_author": null, "date_of_biography": "2023-05-09T18:20:43.308013+10:00", "external_links": [], "uuid": "66f8fee8-bdd8-46ff-b817-a67fcf2d266a", "source": {"name": "Vernon", "slug": "vernon"}, "source_identifier": "18841", "external_references": [{"id": 41904, "source": {"name": "Wikidata", "slug": "wikidata"}, "source_identifier": "Q121126865"}], "date_modified": "2023-09-05T19:35:13.885830+10:00"}, {"id": 78996, "name": "Francis Nielsen", "roles_in_work": [{"id": 2291819, "title": "Zoo Olympics", "work_id": 88927, "role": "co-producer", "role_id": 915, "is_primary": true}], "also_known_as": "", "date_of_birth": "", "date_of_death": "", "genders": [], "languages": [], "places_of_operation": [], "biography": "", "biography_author": null, "date_of_biography": "2023-05-09T18:20:42.722357+10:00", "external_links": [], "uuid": "71faa92e-7526-41c7-af5f-f2616b53d203", "source": {"name": "Vernon", "slug": "vernon"}, "source_identifier": "19057", "external_references": [{"id": 37804, "source": {"name": "Wikidata", "slug": "wikidata"}, "source_identifier": "Q121337735"}], "date_modified": "2023-09-05T19:46:59.282468+10:00"}, {"id": 78995, "name": "Nick Jeanes", "roles_in_work": [{"id": 908472, "title": "Kids do yoga too", "work_id": 88922, "role": "co-producer", "role_id": 915, "is_primary": true}], "also_known_as": "", "date_of_birth": null, "date_of_death": null, "genders": [], "languages": [], "places_of_operation": [], "biography": "", "biography_author": null, "date_of_biography": null, "external_links": [], "uuid": "12acd4c2-9106-46cb-b0e4-8bf7ef0de4eb", "source": {"name": "Vernon", "slug": "vernon"}, "source_identifier": null, "external_references": [{"id": 33003, "source": {"name": "Wikidata", "slug": "wikidata"}, "source_identifier": "Q121298773"}], "date_modified": "2023-09-05T23:29:59.356641+10:00"}, {"id": 78994, "name": "Torill Kove", "roles_in_work": [{"id": 2165932, "title": "My Grandmother ironed the King's shirts", "work_id": 88919, "role": "director", "role_id": 938, "is_primary": true}], "also_known_as": "", "date_of_birth": "1958-05-25", "date_of_death": "", "genders": [{"id": 5, "name": "Female", "slug": "female"}], "languages": [], "places_of_operation": [{"id": 36, "name": "Canada", "slug": "canada"}], "biography": "Torill Kove (born 25 May 1958) is a Norwegian-born Canadian film director and animator. She won the 2007 Academy Award for Animated Short Film for the film The Danish Poet, co-produced by Norway's Mikrofilm AS and the National Film Board of Canada (NFB).", "biography_author": "Wikidata", "date_of_biography": "2023-08-01T17:21:37.214944+10:00", "external_links": [{"id": 5297, "uri": "https://en.wikipedia.org/wiki/Torill_Kove"}], "uuid": "0c517cfd-e64e-4cc2-95df-91cf71d20de6", "source": {"name": "Vernon", "slug": "vernon"}, "source_identifier": "29929", "external_references": [{"id": 26713, "source": {"name": "Wikidata", "slug": "wikidata"}, "source_identifier": "Q462572"}, {"id": 31867, "source": {"name": "VIAF", "slug": "viaf"}, "source_identifier": "28998728"}, {"id": 31868, "source": {"name": "LOC Auth", "slug": "loc-auth"}, "source_identifier": "n2008011511"}, {"id": 31869, "source": {"name": "WorldCat", "slug": "worldcat"}, "source_identifier": "lccn-n2008011511"}], "date_modified": "2023-09-06T01:57:33.955169+10:00"}, {"id": 78993, "name": "Lars Tommerbakke", "roles_in_work": [{"id": 2165930, "title": "My Grandmother ironed the King's shirts", "work_id": 88919, "role": "co-producer", "role_id": 915, "is_primary": true}], "also_known_as": "", "date_of_birth": "", "date_of_death": "", "genders": [], "languages": [], "places_of_operation": [], "biography": "", "biography_author": null, "date_of_biography": "2023-05-09T14:25:13.403404+10:00", "external_links": [], "uuid": "18acd243-7250-492e-842a-170b73871aee", "source": {"name": "Vernon", "slug": "vernon"}, "source_identifier": "23517", "external_references": [{"id": 37269, "source": {"name": "Wikidata", "slug": "wikidata"}, "source_identifier": "Q121271284"}], "date_modified": "2023-09-05T22:15:09.045258+10:00"}, {"id": 78992, "name": "Stephen Tchal Gadjieff", "roles_in_work": [{"id": 2114213, "title": "Beyond the clouds = Par-dela les nuages", "work_id": 88918, "role": "co-producer", "role_id": 915, "is_primary": true}], "also_known_as": "", "date_of_birth": "", "date_of_death": "", "genders": [], "languages": [], "places_of_operation": [], "biography": "", "biography_author": null, "date_of_biography": "2023-05-09T12:51:43.534141+10:00", "external_links": [], "uuid": "424921dd-8ee2-4536-9c27-62e41feaf9f9", "source": {"name": "Vernon", "slug": "vernon"}, "source_identifier": "29090", "external_references": [{"id": 50589, "source": {"name": "Wikidata", "slug": "wikidata"}, "source_identifier": "Q121357578"}], "date_modified": "2023-09-06T01:29:50.733830+10:00"}, {"id": 78991, "name": "Jack Saper", "roles_in_work": [{"id": 2080795, "title": "Across the Pacific", "work_id": 88915, "role": "co-producer", "role_id": 915, "is_primary": true}], "also_known_as": "", "date_of_birth": "", "date_of_death": "", "genders": [], "languages": [], "places_of_operation": [], "biography": "", "biography_author": null, "date_of_biography": "2023-05-09T11:47:54.610855+10:00", "external_links": [], "uuid": "7e3b0dd0-e24f-4373-8ab5-76ea3774f13c", "source": {"name": "Vernon", "slug": "vernon"}, "source_identifier": "21088", "external_references": [{"id": 34069, "source": {"name": "Wikidata", "slug": "wikidata"}, "source_identifier": "Q121036445"}], "date_modified": "2023-09-05T20:56:50.974408+10:00"}]}