{"count": 28687, "next": "https://api.acmi.net.au/creators/?page=996", "previous": "https://api.acmi.net.au/creators/?page=994", "results": [{"id": 75632, "name": "David Holden", "roles_in_work": [{"id": 2291373, "title": "Vision. [No. 33]", "work_id": 90139, "role": "co-director", "role_id": 959, "is_primary": true}, {"id": 2291696, "title": "Vision. [No. 30]", "work_id": 75569, "role": "co-director", "role_id": 959, "is_primary": true}, {"id": 2291711, "title": "Vision. [No. 32]", "work_id": 90099, "role": "co-producer", "role_id": 915, "is_primary": true}, {"id": 2291692, "title": "Vision. [No. 30]", "work_id": 75569, "role": "co-producer", "role_id": 915, "is_primary": true}, {"id": 2291370, "title": "Vision. [No. 33]", "work_id": 90139, "role": "co-producer", "role_id": 915, "is_primary": true}, {"id": 2291342, "title": "Vision. [No. 31]", "work_id": 90098, "role": "co-producers/directors", "role_id": 628, "is_primary": true}], "also_known_as": "", "date_of_birth": "", "date_of_death": "", "genders": [], "languages": [], "places_of_operation": [], "biography": "", "biography_author": null, "date_of_biography": "2023-05-09T18:20:32.377320+10:00", "external_links": [], "uuid": "2cec0166-c269-47bf-9604-a2d5b8a0bbff", "source": {"name": "Vernon", "slug": "vernon"}, "source_identifier": "17643", "external_references": [{"id": 39175, "source": {"name": "Wikidata", "slug": "wikidata"}, "source_identifier": "Q121036501"}], "date_modified": "2023-09-05T18:58:46.456405+10:00"}, {"id": 75631, "name": "Diane Belle James", "roles_in_work": [{"id": 2647184, "title": "Dogs", "work_id": 75561, "role": "co-director", "role_id": 959, "is_primary": true}], "also_known_as": "", "date_of_birth": "", "date_of_death": "", "genders": [], "languages": [], "places_of_operation": [], "biography": "", "biography_author": null, "date_of_biography": "2023-05-09T15:20:45.204781+10:00", "external_links": [], "uuid": "7e5a5eaf-2a05-4d3a-8495-fd662d4407b9", "source": {"name": "Vernon", "slug": "vernon"}, "source_identifier": "18079", "external_references": [], "date_modified": "2025-03-05T13:20:45.018684+11:00"}, {"id": 75630, "name": "Bob Brown", "roles_in_work": [{"id": 2135941, "title": "Chick, chick, chick", "work_id": 75559, "role": "co-producer", "role_id": 915, "is_primary": true}], "also_known_as": "", "date_of_birth": "", "date_of_death": "", "genders": [], "languages": [], "places_of_operation": [], "biography": "", "biography_author": null, "date_of_biography": "2023-05-09T13:29:29.253092+10:00", "external_links": [], "uuid": "4d619e59-3b6b-49e1-bec5-ed4493a6e977", "source": {"name": "Vernon", "slug": "vernon"}, "source_identifier": "16050", "external_references": [{"id": 38168, "source": {"name": "Wikidata", "slug": "wikidata"}, "source_identifier": "Q121036910"}], "date_modified": "2023-09-05T18:07:21.765376+10:00"}, {"id": 75629, "name": "Mick Brown", "roles_in_work": [{"id": 2135939, "title": "Chick, chick, chick", "work_id": 75559, "role": "co-producer", "role_id": 915, "is_primary": true}], "also_known_as": "", "date_of_birth": "", "date_of_death": "", "genders": [], "languages": [], "places_of_operation": [], "biography": "", "biography_author": null, "date_of_biography": "2023-05-09T13:29:29.005097+10:00", "external_links": [], "uuid": "61d1aaa7-892d-4c5a-85f4-84576064371e", "source": {"name": "Vernon", "slug": "vernon"}, "source_identifier": "25317", "external_references": [{"id": 35739, "source": {"name": "Wikidata", "slug": "wikidata"}, "source_identifier": "Q121085991"}], "date_modified": "2023-09-05T23:13:12.718130+10:00"}, {"id": 75628, "name": "David Crossman", "roles_in_work": [{"id": 2755142, "title": "Aggression", "work_id": 75554, "role": "director", "role_id": 938, "is_primary": true}], "also_known_as": "", "date_of_birth": "", "date_of_death": "", "genders": [], "languages": [], "places_of_operation": [], "biography": "", "biography_author": null, "date_of_biography": "2023-05-09T11:53:54.798258+10:00", "external_links": [], "uuid": "3331a152-2584-44b2-b093-6020e7abdd96", "source": {"name": "Vernon", "slug": "vernon"}, "source_identifier": "17545", "external_references": [{"id": 35900, "source": {"name": "Wikidata", "slug": "wikidata"}, "source_identifier": "Q121035316"}], "date_modified": "2025-03-13T14:30:24.578001+11:00"}, {"id": 75627, "name": "Claire Wilbur", "roles_in_work": [{"id": 2346870, "title": "The End of the game", "work_id": 75548, "role": "co-producer", "role_id": 915, "is_primary": true}], "also_known_as": "", "date_of_birth": "1933-06-08", "date_of_death": "2004-05-20", "genders": [{"id": 5, "name": "Female", "slug": "female"}], "languages": [], "places_of_operation": [{"id": 1, "name": "United States of America", "slug": "united-states-of-america"}], "biography": "Claire Wilbur, also known as Catt Wilbur (June 8, 1933 – May 20, 2004) was an American actress of stage and screen as well as an Academy Award-winning producer of short films. Arguably, she is best known for her performance as the seductive, swinging housewife Elvira in the Radley Metzger film Score (1974).\nWilbur was a member of the original off-Broadway cast of Score, which was later adapted into Metzger's film. She played Elvira for 23 performances from October 28 to November 15, 1970, at the Martinique Theatre in New York City, and was the sole performer to make the transition from the stage play to the film. After Score, Wilbur appeared in the sexploitation film Teenage Hitchhikers.\nAccording to newspaper articles published by Margaret Caldwell, Wilbur's longtime close friend, the actress only accepted the part in the film version of Score to make enough money to produce a documentary short written and directed by her friend Robin Lehman. Wilbur also co-produced Lehman's shorts The End of the Game (1975) and Nightlife (1976), earning an Academy Award nomination for the latter and winning an Oscar for the former in 1976.\nIn later years, she worked as a dedicated animal rights activist and wrote two unpublished books of verse about the Maneki Neko, a porcelain Japanese feline commonly known as \"The Beckoning Cat\": Maneki Neko: The Japanese Legend Of The Beckoning Cat and The Japanese Legend of the Cat and the Crone.\nWilbur was diagnosed with lung cancer in 2003 and died peacefully in her Upper East Side apartment in Manhattan on May 20, 2004.", "biography_author": "Wikidata", "date_of_biography": "2023-08-01T14:27:54.333564+10:00", "external_links": [{"id": 3779, "uri": "https://en.wikipedia.org/wiki/Claire_Wilbur"}], "uuid": "57ebae8c-5998-4cb0-9e17-cc830c13154f", "source": {"name": "Vernon", "slug": "vernon"}, "source_identifier": "17050", "external_references": [{"id": 25921, "source": {"name": "Wikidata", "slug": "wikidata"}, "source_identifier": "Q5125353"}, {"id": 27872, "source": {"name": "VIAF", "slug": "viaf"}, "source_identifier": "103558679"}, {"id": 27873, "source": {"name": "LOC Auth", "slug": "loc-auth"}, "source_identifier": "no2009197507"}, {"id": 27874, "source": {"name": "WorldCat", "slug": "worldcat"}, "source_identifier": "lccn-no2009197507"}], "date_modified": "2023-09-06T10:40:26.904808+10:00"}, {"id": 75626, "name": "Peter Wilkinson", "roles_in_work": [{"id": 2473900, "title": "The Work That Was. Parts 1 & 2", "work_id": 77042, "role": "co-producers/directors", "role_id": 628, "is_primary": true}, {"id": 2271017, "title": "Who pays the price?", "work_id": 75543, "role": "producer/director", "role_id": 31, "is_primary": true}], "also_known_as": "", "date_of_birth": "", "date_of_death": "", "genders": [], "languages": [], "places_of_operation": [], "biography": "", "biography_author": null, "date_of_biography": "2023-08-16T03:40:07.639851+10:00", "external_links": [], "uuid": "81dac6eb-3ab8-4775-8cd2-b91b6a68b891", "source": {"name": "Vernon", "slug": "vernon"}, "source_identifier": "26753", "external_references": [{"id": 51754, "source": {"name": "Wikidata", "slug": "wikidata"}, "source_identifier": "Q121360613"}], "date_modified": "2023-09-06T00:02:19.200385+10:00"}, {"id": 75625, "name": "Brian Nicholls", "roles_in_work": [{"id": 2786256, "title": "Healers quacks or mystics", "work_id": 115315, "role": "co-producers/directors", "role_id": 628, "is_primary": true}, {"id": 2786247, "title": "Something happened", "work_id": 82641, "role": "producer/director", "role_id": 31, "is_primary": true}, {"id": 2786241, "title": "The New healers", "work_id": 82639, "role": "producer/director", "role_id": 31, "is_primary": true}, {"id": 2271005, "title": "The Lost generation", "work_id": 75542, "role": "producer/director", "role_id": 31, "is_primary": true}], "also_known_as": "", "date_of_birth": "", "date_of_death": "", "genders": [], "languages": [], "places_of_operation": [], "biography": "", "biography_author": null, "date_of_biography": "2023-05-09T20:01:32.721545+10:00", "external_links": [], "uuid": "c9d5e1ba-87b3-4eb6-8e65-938c726f0263", "source": {"name": "Vernon", "slug": "vernon"}, "source_identifier": "16244", "external_references": [{"id": 50834, "source": {"name": "Wikidata", "slug": "wikidata"}, "source_identifier": "Q121360580"}], "date_modified": "2025-03-14T19:29:53.055381+11:00"}, {"id": 75624, "name": "Israel Hicks", "roles_in_work": [{"id": 2315525, "title": "Striker", "work_id": 75539, "role": "co-producer", "role_id": 915, "is_primary": true}], "also_known_as": "", "date_of_birth": "", "date_of_death": "", "genders": [], "languages": [], "places_of_operation": [], "biography": "", "biography_author": null, "date_of_biography": "2023-05-09T19:03:34.243793+10:00", "external_links": [], "uuid": "95a4d928-3b45-4392-b584-3ab412a25ed9", "source": {"name": "Vernon", "slug": "vernon"}, "source_identifier": "20913", "external_references": [{"id": 52023, "source": {"name": "Wikidata", "slug": "wikidata"}, "source_identifier": "Q121357893"}], "date_modified": "2023-09-05T20:52:14.173683+10:00"}, {"id": 75623, "name": "Jim Strongin", "roles_in_work": [{"id": 2291314, "title": "Vision. [No. 26]", "work_id": 90096, "role": "co-director", "role_id": 959, "is_primary": true}, {"id": 2291251, "title": "Vision. [No. 22]", "work_id": 75528, "role": "co-director", "role_id": 959, "is_primary": true}], "also_known_as": "", "date_of_birth": "", "date_of_death": "", "genders": [], "languages": [], "places_of_operation": [], "biography": "", "biography_author": null, "date_of_biography": "2023-05-09T18:19:51.034986+10:00", "external_links": [], "uuid": "53dca9de-2218-48f6-af91-ab031ec13e1d", "source": {"name": "Vernon", "slug": "vernon"}, "source_identifier": "21922", "external_references": [{"id": 43443, "source": {"name": "Wikidata", "slug": "wikidata"}, "source_identifier": "Q121036800"}], "date_modified": "2023-09-05T21:25:41.639144+10:00"}]}