{"count": 28687, "next": "https://api.acmi.net.au/creators/?page=328", "previous": "https://api.acmi.net.au/creators/?page=326", "results": [{"id": 82337, "name": "Hu Shu'e", "roles_in_work": [{"id": 2650706, "title": "The Green mountain of bamboo = Zhu shan qing qing", "work_id": 115757, "role": "director", "role_id": 938, "is_primary": true}], "also_known_as": "", "date_of_birth": "", "date_of_death": "", "genders": [], "languages": [], "places_of_operation": [], "biography": "", "biography_author": null, "date_of_biography": "2023-05-09T19:58:48.677415+10:00", "external_links": [], "uuid": "6b0df416-f204-4d32-8b51-653337dfb48d", "source": {"name": "Vernon", "slug": "vernon"}, "source_identifier": "36201", "external_references": [{"id": 42886, "source": {"name": "Wikidata", "slug": "wikidata"}, "source_identifier": "Q121337268"}], "date_modified": "2025-03-05T14:22:37.450275+11:00"}, {"id": 82336, "name": "Cai Huaimin", "roles_in_work": [{"id": 2650704, "title": "Tales of the Silk Road = Si Lu Hua Yu", "work_id": 115756, "role": "cast", "role_id": 33, "is_primary": false}], "also_known_as": "", "date_of_birth": "", "date_of_death": "", "genders": [], "languages": [], "places_of_operation": [], "biography": "", "biography_author": null, "date_of_biography": "2023-05-09T19:13:03.625623+10:00", "external_links": [], "uuid": "88ec66ef-1b7e-4fe6-8d4b-7ae38be2fc05", "source": {"name": "Vernon", "slug": "vernon"}, "source_identifier": "36213", "external_references": [{"id": 42220, "source": {"name": "Wikidata", "slug": "wikidata"}, "source_identifier": "Q121035116"}], "date_modified": "2025-03-05T14:22:36.020348+11:00"}, {"id": 82335, "name": "He Yanyun", "roles_in_work": [{"id": 2650703, "title": "Tales of the Silk Road = Si Lu Hua Yu", "work_id": 115756, "role": "cast", "role_id": 33, "is_primary": false}], "also_known_as": "", "date_of_birth": "", "date_of_death": "", "genders": [], "languages": [], "places_of_operation": [], "biography": "", "biography_author": null, "date_of_biography": "2023-05-09T19:13:03.342964+10:00", "external_links": [], "uuid": "6f6edaf6-5baf-4ae8-9da2-873ca503aff2", "source": {"name": "Vernon", "slug": "vernon"}, "source_identifier": "36212", "external_references": [{"id": 32545, "source": {"name": "Wikidata", "slug": "wikidata"}, "source_identifier": "Q121126626"}], "date_modified": "2025-03-05T14:22:35.450324+11:00"}, {"id": 82334, "name": "Xue Shaoqiang", "roles_in_work": [{"id": 2650702, "title": "Tales of the Silk Road = Si Lu Hua Yu", "work_id": 115756, "role": "editor", "role_id": 918, "is_primary": true}], "also_known_as": "", "date_of_birth": "", "date_of_death": "", "genders": [], "languages": [], "places_of_operation": [], "biography": "", "biography_author": null, "date_of_biography": "2023-05-09T19:13:03.073077+10:00", "external_links": [], "uuid": "89daa628-118b-4354-ae78-bf381e7b081a", "source": {"name": "Vernon", "slug": "vernon"}, "source_identifier": "36211", "external_references": [{"id": 43088, "source": {"name": "Wikidata", "slug": "wikidata"}, "source_identifier": "Q121222951"}], "date_modified": "2025-03-05T14:22:34.873245+11:00"}, {"id": 82333, "name": "Chen Wancai", "roles_in_work": [{"id": 2651206, "title": "Life = Ren Sheng", "work_id": 115811, "role": "cinematographer", "role_id": 32, "is_primary": false}, {"id": 2650701, "title": "Tales of the Silk Road = Si Lu Hua Yu", "work_id": 115756, "role": "cinematographer", "role_id": 32, "is_primary": false}], "also_known_as": "", "date_of_birth": "", "date_of_death": "", "genders": [], "languages": [], "places_of_operation": [], "biography": "", "biography_author": null, "date_of_biography": "2023-05-09T19:13:02.812855+10:00", "external_links": [], "uuid": "eaf02d06-8d08-49d8-ba61-eded88356f8c", "source": {"name": "Vernon", "slug": "vernon"}, "source_identifier": "36210", "external_references": [], "date_modified": "2025-03-05T14:27:34.507333+11:00"}, {"id": 82332, "name": "Zhao Zhixun", "roles_in_work": [{"id": 2650700, "title": "Tales of the Silk Road = Si Lu Hua Yu", "work_id": 115756, "role": "script", "role_id": 962, "is_primary": false}], "also_known_as": "", "date_of_birth": "", "date_of_death": "", "genders": [], "languages": [], "places_of_operation": [], "biography": "", "biography_author": null, "date_of_biography": "2023-05-09T19:13:02.518427+10:00", "external_links": [], "uuid": "63941936-ab77-4320-89ac-92cbec811db0", "source": {"name": "Vernon", "slug": "vernon"}, "source_identifier": "36209", "external_references": [], "date_modified": "2025-03-05T14:22:33.710478+11:00"}, {"id": 82331, "name": "Yan Xuesu", "roles_in_work": [{"id": 2650699, "title": "Tales of the Silk Road = Si Lu Hua Yu", "work_id": 115756, "role": "director", "role_id": 938, "is_primary": true}], "also_known_as": "", "date_of_birth": "", "date_of_death": "", "genders": [], "languages": [], "places_of_operation": [], "biography": "", "biography_author": null, "date_of_biography": "2023-05-09T19:13:02.265002+10:00", "external_links": [], "uuid": "b7e2feaa-554d-4d89-9339-fbd7116cab4e", "source": {"name": "Vernon", "slug": "vernon"}, "source_identifier": "36208", "external_references": [{"id": 41842, "source": {"name": "Wikidata", "slug": "wikidata"}, "source_identifier": "Q121315288"}], "date_modified": "2025-03-05T14:22:33.134061+11:00"}, {"id": 82330, "name": "Di Yunkui", "roles_in_work": [{"id": 2650697, "title": "A French girl seeking a Chinese master = Yang Niu", "work_id": 115755, "role": "cast", "role_id": 33, "is_primary": false}], "also_known_as": "", "date_of_birth": "", "date_of_death": "", "genders": [], "languages": [], "places_of_operation": [], "biography": "", "biography_author": null, "date_of_biography": "2023-05-09T11:29:30.791233+10:00", "external_links": [], "uuid": "336f62b7-1548-4545-8059-018ef4285414", "source": {"name": "Vernon", "slug": "vernon"}, "source_identifier": "36925", "external_references": [{"id": 42442, "source": {"name": "Wikidata", "slug": "wikidata"}, "source_identifier": "Q121034646"}], "date_modified": "2025-03-05T14:22:31.655949+11:00"}, {"id": 82329, "name": "Han Haihua", "roles_in_work": [{"id": 2650696, "title": "A French girl seeking a Chinese master = Yang Niu", "work_id": 115755, "role": "cast", "role_id": 33, "is_primary": false}], "also_known_as": "", "date_of_birth": "", "date_of_death": "", "genders": [], "languages": [], "places_of_operation": [], "biography": "", "biography_author": null, "date_of_biography": "2023-05-09T11:29:30.537199+10:00", "external_links": [], "uuid": "f80d0208-8064-4336-ad8a-6fc61e3b0d46", "source": {"name": "Vernon", "slug": "vernon"}, "source_identifier": "36924", "external_references": [{"id": 38587, "source": {"name": "Wikidata", "slug": "wikidata"}, "source_identifier": "Q121079254"}], "date_modified": "2025-03-05T14:22:31.074142+11:00"}, {"id": 82328, "name": "Lv Yongquan", "roles_in_work": [{"id": 2650695, "title": "A French girl seeking a Chinese master = Yang Niu", "work_id": 115755, "role": "cast", "role_id": 33, "is_primary": false}], "also_known_as": "", "date_of_birth": "", "date_of_death": "", "genders": [], "languages": [], "places_of_operation": [], "biography": "", "biography_author": null, "date_of_biography": "2023-05-09T11:29:30.177390+10:00", "external_links": [], "uuid": "86fb6ba9-1ac9-4af6-9fd0-9ff072d7806f", "source": {"name": "Vernon", "slug": "vernon"}, "source_identifier": "36923", "external_references": [{"id": 41512, "source": {"name": "Wikidata", "slug": "wikidata"}, "source_identifier": "Q121223126"}], "date_modified": "2025-03-05T14:22:30.498534+11:00"}]}