{"count": 28687, "next": "https://api.acmi.net.au/creators/?page=971", "previous": "https://api.acmi.net.au/creators/?page=969", "results": [{"id": 75882, "name": "Bill Paxton", "roles_in_work": [{"id": 2242737, "title": "Fish heads", "work_id": 77121, "role": "co-producers/directors", "role_id": 628, "is_primary": true}], "also_known_as": "", "date_of_birth": "1955-05-17", "date_of_death": "2017-02-25", "genders": [{"id": 9, "name": "Male", "slug": "male"}], "languages": [{"id": 1, "name": "English", "slug": "english"}], "places_of_operation": [{"id": 1, "name": "United States of America", "slug": "united-states-of-america"}], "biography": "William  Paxton (May 17, 1955 – February 25, 2017) was an American actor and filmmaker. He is known for starring in films such as Aliens (1986), Near Dark (1987), Tombstone (1993), True Lies (1994), Apollo 13 (1995), Twister (1996), Titanic (1997), Mighty Joe Young (1998), and A Simple Plan (1998). He had supporting roles in Weird Science (1985), Edge of Tomorrow (2014), and Nightcrawler (2014).\nPaxton starred in the HBO drama series Big Love (2006–2011), for which he earned three Golden Globe Award nominations during the show's run. He was nominated for a Primetime Emmy Award and a Screen Actors Guild Award for portraying Randall McCoy in the History channel miniseries Hatfields & McCoys (2012).", "biography_author": "Wikidata", "date_of_biography": "2023-09-05T18:04:11.799300+10:00", "external_links": [{"id": 5709, "uri": "https://en.wikipedia.org/wiki/Bill_Paxton"}], "uuid": "8de6f60e-acd8-433f-be29-0ea731bdf184", "source": {"name": "Vernon", "slug": "vernon"}, "source_identifier": "1619", "external_references": [{"id": 38080, "source": {"name": "Wikidata", "slug": "wikidata"}, "source_identifier": "Q110374"}, {"id": 54080, "source": {"name": "VIAF", "slug": "viaf"}, "source_identifier": "100239251"}, {"id": 54081, "source": {"name": "LOC Auth", "slug": "loc-auth"}, "source_identifier": "no95055952"}, {"id": 54082, "source": {"name": "WorldCat", "slug": "worldcat"}, "source_identifier": "lccn-no95055952"}], "date_modified": "2023-09-05T18:04:22.731599+10:00"}, {"id": 75881, "name": "J Miller", "roles_in_work": [{"id": 2083834, "title": "Act V", "work_id": 77120, "role": "producer/director", "role_id": 31, "is_primary": true}], "also_known_as": "", "date_of_birth": "", "date_of_death": "", "genders": [], "languages": [], "places_of_operation": [], "biography": "", "biography_author": null, "date_of_biography": "2023-05-09T11:54:00.225820+10:00", "external_links": [], "uuid": "c636ccb3-daf8-46bb-8ec9-f1eac1ca7178", "source": {"name": "Vernon", "slug": "vernon"}, "source_identifier": "20970", "external_references": [], "date_modified": "2023-06-14T16:33:30.576250+10:00"}, {"id": 75880, "name": "Franklin Getchell", "roles_in_work": [{"id": 2170719, "title": "My mother was never a kid", "work_id": 77118, "role": "co-producer", "role_id": 915, "is_primary": true}], "also_known_as": "", "date_of_birth": "", "date_of_death": "", "genders": [], "languages": [], "places_of_operation": [], "biography": "", "biography_author": null, "date_of_biography": "2023-05-09T14:34:51.324021+10:00", "external_links": [], "uuid": "f6b4217e-ec82-4c25-b7cb-6bc23441aaa0", "source": {"name": "Vernon", "slug": "vernon"}, "source_identifier": "19193", "external_references": [{"id": 34337, "source": {"name": "Wikidata", "slug": "wikidata"}, "source_identifier": "Q121079305"}], "date_modified": "2023-09-05T19:51:35.939067+10:00"}, {"id": 75879, "name": "Jeffrey Schon", "roles_in_work": [{"id": 2355114, "title": "The Hottest show on earth", "work_id": 77112, "role": "co-producer", "role_id": 915, "is_primary": true}, {"id": 2793621, "title": "Film noir", "work_id": 85787, "role": "director", "role_id": 938, "is_primary": true}, {"id": 2752478, "title": "This is an emergency", "work_id": 98314, "role": "producer", "role_id": 1089, "is_primary": true}], "also_known_as": "", "date_of_birth": "", "date_of_death": "", "genders": [], "languages": [], "places_of_operation": [], "biography": "", "biography_author": null, "date_of_biography": "2023-05-09T20:02:43.466763+10:00", "external_links": [], "uuid": "b361a157-b1bf-472a-a597-683aed23cbc9", "source": {"name": "Vernon", "slug": "vernon"}, "source_identifier": "21677", "external_references": [], "date_modified": "2025-03-14T20:19:26.057546+11:00"}, {"id": 75878, "name": "Gilles Gascon", "roles_in_work": [{"id": 2072689, "title": "A Piece of cake = Cest pas chinois", "work_id": 77110, "role": "co-producer", "role_id": 915, "is_primary": true}], "also_known_as": "", "date_of_birth": "", "date_of_death": "", "genders": [], "languages": [], "places_of_operation": [], "biography": "", "biography_author": null, "date_of_biography": "2023-05-09T11:35:52.917446+10:00", "external_links": [], "uuid": "00755bd2-620a-44f8-a3ed-0cb1556d2245", "source": {"name": "Vernon", "slug": "vernon"}, "source_identifier": "19828", "external_references": [{"id": 35725, "source": {"name": "Wikidata", "slug": "wikidata"}, "source_identifier": "Q121036560"}], "date_modified": "2023-09-05T20:12:35.028436+10:00"}, {"id": 75877, "name": "Norma Bailey", "roles_in_work": [{"id": 2647848, "title": "Nose and Tina", "work_id": 77550, "role": "director", "role_id": 938, "is_primary": true}, {"id": 912835, "title": "Ikwe", "work_id": 92928, "role": "director", "role_id": 938, "is_primary": true}, {"id": 2128025, "title": "Bush pilot: reflections on a Canadian myth", "work_id": 77109, "role": "co-director", "role_id": 959, "is_primary": true}, {"id": 2250098, "title": "Rice harvest", "work_id": 90343, "role": "co-director", "role_id": 959, "is_primary": true}, {"id": 912834, "title": "Ikwe", "work_id": 92928, "role": "co-producer", "role_id": 915, "is_primary": true}], "also_known_as": "", "date_of_birth": "01 JAN 1949", "date_of_death": "", "genders": [{"id": 5, "name": "Female", "slug": "female"}], "languages": [], "places_of_operation": [{"id": 36, "name": "Canada", "slug": "canada"}], "biography": "Norma Bailey (born 1949, in Gimli, Manitoba, Canada) is a Canadian film writer, producer, and director whose work is rooted in feminist and intersectional film theory. Bailey has directed several films, both in English and French and in various different genres, including fiction and non-fiction films. Her prolific career within the film industry has awarded her various awards and professional accolades including being named to the Order of Manitoba in 2010. Source: Wikidata; 01/08/2023", "biography_author": null, "date_of_biography": "2025-03-05T13:35:10.154851+11:00", "external_links": [{"id": 4792, "uri": "https://en.wikipedia.org/wiki/Norma_Bailey"}], "uuid": "dd82cce5-ac18-41cf-bc1c-e3a8d5ca4131", "source": {"name": "Vernon", "slug": "vernon"}, "source_identifier": "25873", "external_references": [{"id": 26495, "source": {"name": "Wikidata", "slug": "wikidata"}, "source_identifier": "Q3343710"}, {"id": 30556, "source": {"name": "VIAF", "slug": "viaf"}, "source_identifier": "132951001"}, {"id": 30557, "source": {"name": "LOC Auth", "slug": "loc-auth"}, "source_identifier": "no2010163249"}, {"id": 30558, "source": {"name": "WorldCat", "slug": "worldcat"}, "source_identifier": "lccn-no2010163249"}], "date_modified": "2025-03-05T13:35:10.155174+11:00"}, {"id": 75876, "name": "Judy LeGros", "roles_in_work": [{"id": 2259274, "title": "S.P.L.A.S.H.", "work_id": 77105, "role": "co-producer", "role_id": 915, "is_primary": true}, {"id": 907272, "title": "Tree power", "work_id": 87827, "role": "co-producer", "role_id": 915, "is_primary": true}], "also_known_as": "", "date_of_birth": "", "date_of_death": "", "genders": [], "languages": [], "places_of_operation": [], "biography": "", "biography_author": null, "date_of_biography": "2023-05-09T17:25:19.397575+10:00", "external_links": [], "uuid": "b012a6e4-a351-4c74-9de5-e05f11cec049", "source": {"name": "Vernon", "slug": "vernon"}, "source_identifier": "22817", "external_references": [{"id": 39592, "source": {"name": "Wikidata", "slug": "wikidata"}, "source_identifier": "Q121315007"}], "date_modified": "2023-09-05T21:54:11.750226+10:00"}, {"id": 75875, "name": "Sally Heckel", "roles_in_work": [{"id": 2069320, "title": "A Jury of her peers", "work_id": 77092, "role": "producer/director", "role_id": 31, "is_primary": true}], "also_known_as": "", "date_of_birth": null, "date_of_death": "", "genders": [{"id": 5, "name": "Female", "slug": "female"}], "languages": [], "places_of_operation": [], "biography": "", "biography_author": null, "date_of_biography": "2023-05-09T11:29:35.967182+10:00", "external_links": [], "uuid": "af4ca586-b3b1-4e84-a711-dceb78d397ac", "source": {"name": "Vernon", "slug": "vernon"}, "source_identifier": "28446", "external_references": [{"id": 41903, "source": {"name": "Wikidata", "slug": "wikidata"}, "source_identifier": "Q22102111"}, {"id": 55747, "source": {"name": "VIAF", "slug": "viaf"}, "source_identifier": "13640823"}, {"id": 55748, "source": {"name": "LOC Auth", "slug": "loc-auth"}, "source_identifier": "n81119969"}, {"id": 55749, "source": {"name": "WorldCat", "slug": "worldcat"}, "source_identifier": "lccn-n81119969"}], "date_modified": "2023-09-06T01:01:43.127018+10:00"}, {"id": 75874, "name": "Clayton Bailey", "roles_in_work": [{"id": 2765616, "title": "A Right to refuse?", "work_id": 77089, "role": "director", "role_id": 938, "is_primary": true}], "also_known_as": "", "date_of_birth": "", "date_of_death": "", "genders": [], "languages": [], "places_of_operation": [], "biography": "", "biography_author": null, "date_of_biography": "2023-05-09T12:02:11.940153+10:00", "external_links": [], "uuid": "6fd71f24-398a-422e-83c9-cab2c9f9e826", "source": {"name": "Vernon", "slug": "vernon"}, "source_identifier": "17104", "external_references": [{"id": 32751, "source": {"name": "Wikidata", "slug": "wikidata"}, "source_identifier": "Q121337469"}], "date_modified": "2025-03-14T17:53:29.043372+11:00"}, {"id": 75873, "name": "John Lounsbery", "roles_in_work": [{"id": 2283691, "title": "Winnie the Pooh and Tigger too", "work_id": 77071, "role": "director", "role_id": 938, "is_primary": true}, {"id": 2283297, "title": "Winnie the Pooh and Tigger too", "work_id": 80745, "role": "director", "role_id": 938, "is_primary": true}, {"id": 917948, "title": "The Many adventures of Winnie the Pooh", "work_id": 95407, "role": "co-director", "role_id": 959, "is_primary": true}, {"id": 1990413, "title": "The Rescuers", "work_id": 86073, "role": "co-director", "role_id": 959, "is_primary": true}, {"id": 900853, "title": "The Rescuers (Captioned)", "work_id": 81696, "role": "co-director", "role_id": 959, "is_primary": true}], "also_known_as": "John Mitchel Lounsbery", "date_of_birth": "1911-03-09", "date_of_death": "1976-02-13", "genders": [{"id": 9, "name": "Male", "slug": "male"}], "languages": [], "places_of_operation": [{"id": 1, "name": "United States of America", "slug": "united-states-of-america"}], "biography": "John Mitchell Lounsbery (March 9, 1911 – February 13, 1976) was an American animator and director employed by Walt Disney Productions. He is best known as one of Disney's Nine Old Men, of which he was the shortest lived as well as the first to die.", "biography_author": "Wikidata", "date_of_biography": "2023-08-01T15:38:03.964213+10:00", "external_links": [{"id": 4396, "uri": "https://en.wikipedia.org/wiki/John_Lounsbery"}], "uuid": "76a39f1b-79f8-4bbb-8e30-8251931f314f", "source": {"name": "Vernon", "slug": "vernon"}, "source_identifier": "22378", "external_references": [{"id": 25047, "source": {"name": "Wikidata", "slug": "wikidata"}, "source_identifier": "Q1773633"}, {"id": 29547, "source": {"name": "VIAF", "slug": "viaf"}, "source_identifier": "7080146"}, {"id": 29548, "source": {"name": "LOC Auth", "slug": "loc-auth"}, "source_identifier": "no2003057457"}, {"id": 29549, "source": {"name": "WorldCat", "slug": "worldcat"}, "source_identifier": "lccn-no2003057457"}], "date_modified": "2023-09-05T21:40:58.960933+10:00"}]}