{"count": 28687, "next": "https://api.acmi.net.au/creators/?page=1145", "previous": "https://api.acmi.net.au/creators/?page=1143", "results": [{"id": 74142, "name": "Bill Mason", "roles_in_work": [{"id": 2711867, "title": "Death of a legend", "work_id": 66663, "role": "director", "role_id": 938, "is_primary": true}, {"id": 2714994, "title": "Groundwork for progress", "work_id": 68224, "role": "director", "role_id": 938, "is_primary": true}, {"id": 2765455, "title": "Doubles whitewater", "work_id": 66898, "role": "director", "role_id": 938, "is_primary": true}, {"id": 2765462, "title": "Solo whitewater", "work_id": 72986, "role": "director", "role_id": 938, "is_primary": true}, {"id": 2765473, "title": "Doubles basic", "work_id": 76523, "role": "director", "role_id": 938, "is_primary": true}, {"id": 2765481, "title": "Solo basic", "work_id": 76673, "role": "director", "role_id": 938, "is_primary": true}, {"id": 2294139, "title": "Wolf pack", "work_id": 78006, "role": "director", "role_id": 938, "is_primary": true}, {"id": 2713318, "title": "Face of the Earth", "work_id": 67354, "role": "director", "role_id": 938, "is_primary": true}, {"id": 2716199, "title": "In search of the bowhead whale", "work_id": 68829, "role": "director", "role_id": 938, "is_primary": true}, {"id": 2715559, "title": "History of the motor car. Part 2. The Veterans", "work_id": 68497, "role": "director", "role_id": 938, "is_primary": true}, {"id": 2647956, "title": "Blake", "work_id": 77865, "role": "director", "role_id": 938, "is_primary": true}, {"id": 2646376, "title": "Song of the paddle", "work_id": 73004, "role": "director", "role_id": 938, "is_primary": true}, {"id": 2750544, "title": "The Dawn of motoring", "work_id": 97383, "role": "director", "role_id": 938, "is_primary": true}, {"id": 2148996, "title": "Cry of the wild", "work_id": 90661, "role": "director", "role_id": 938, "is_primary": true}, {"id": 2184823, "title": "Paddle to the sea", "work_id": 71312, "role": "director", "role_id": 938, "is_primary": true}, {"id": 2643943, "title": "Air parade: a Shell film for the Festival of Britain 1951", "work_id": 64617, "role": "director", "role_id": 938, "is_primary": true}, {"id": 2644623, "title": "Edward John Eyre", "work_id": 67034, "role": "director", "role_id": 938, "is_primary": true}, {"id": 2677775, "title": "Atomisation", "work_id": 65047, "role": "director", "role_id": 938, "is_primary": true}, {"id": 2680496, "title": "The Cornish engine: a chapter in the history of steam power", "work_id": 66416, "role": "co-director", "role_id": 959, "is_primary": true}, {"id": 2201007, "title": "Dragoncastle", "work_id": 98119, "role": "producer", "role_id": 1089, "is_primary": true}], "also_known_as": "", "date_of_birth": "01 JAN 1929", "date_of_death": "29 OCT 1988", "genders": [{"id": 9, "name": "Male", "slug": "male"}], "languages": [], "places_of_operation": [{"id": 36, "name": "Canada", "slug": "canada"}], "biography": "Bill Mason was a Canadian naturalist, author, artist, filmmaker, and conservationist, noted primarily for his popular canoeing books, films, and art as well as his documentaries on wolves. Mason was also known for including passages from Christian sermons in his films. He was born in 1929 in Winnipeg, Manitoba, and graduated from the University of Manitoba School of Art in 1951.  He developed and refined canoeing strokes and river-running techniques, especially for complex whitewater situations. Mason canoed all of his adult life, ranging widely over the wilderness areas of Canada and the United States.  Termed a \"wilderness artist,\" Mason left a legacy that includes books, films, and artwork on canoeing and nature. His daughter Becky  and son Paul are also both canoeists and artists. Mason died of cancer in 1988. Source: Wikidata; 01/08/2023", "biography_author": null, "date_of_biography": "2025-03-14T17:53:00.632012+11:00", "external_links": [{"id": 3653, "uri": "https://en.wikipedia.org/wiki/Bill_Mason"}], "uuid": "73cf1837-ec81-4695-b0c6-aca99efcbf9d", "source": {"name": "Vernon", "slug": "vernon"}, "source_identifier": "15981", "external_references": [{"id": 25329, "source": {"name": "Wikidata", "slug": "wikidata"}, "source_identifier": "Q862286"}, {"id": 27528, "source": {"name": "VIAF", "slug": "viaf"}, "source_identifier": "79172840"}, {"id": 27529, "source": {"name": "LOC Auth", "slug": "loc-auth"}, "source_identifier": "n83035761"}, {"id": 27530, "source": {"name": "WorldCat", "slug": "worldcat"}, "source_identifier": "lccn-n83035761"}], "date_modified": "2025-03-14T17:53:00.632326+11:00"}, {"id": 74141, "name": "Jean Palardy", "roles_in_work": [{"id": 2712017, "title": "Designed for living", "work_id": 66728, "role": "director", "role_id": 938, "is_primary": true}, {"id": 2676942, "title": "Agronomy", "work_id": 64612, "role": "director", "role_id": 938, "is_primary": true}, {"id": 2679279, "title": "Carnival in Quebec", "work_id": 65831, "role": "director", "role_id": 938, "is_primary": true}, {"id": 2680519, "title": "Correlieu (TEFC)", "work_id": 66426, "role": "director", "role_id": 938, "is_primary": true}, {"id": 3081742, "title": "Le-haut sur ces montagnes", "work_id": 85755, "role": "director", "role_id": 938, "is_primary": true}, {"id": 2128959, "title": "Bush doctor", "work_id": 89489, "role": "director", "role_id": 938, "is_primary": true}, {"id": 857768, "title": "The Rising tide", "work_id": 72253, "role": "director", "role_id": 938, "is_primary": true}, {"id": 2713585, "title": "Film and you", "work_id": 67482, "role": "co-director", "role_id": 959, "is_primary": true}, {"id": 3081749, "title": "La-haut sur ces montagnes. C'est l'aviron.", "work_id": 87669, "role": "co-director", "role_id": 959, "is_primary": true}, {"id": 2332131, "title": "The Bird fancier = L'Homme aux oiseaux", "work_id": 90617, "role": "co-director", "role_id": 959, "is_primary": true}, {"id": 2184021, "title": "Oyster man", "work_id": 76517, "role": "co-director", "role_id": 959, "is_primary": true}, {"id": 755752, "title": "Ti-Jean goes lumbering [B&W]", "work_id": 73819, "role": "producer/director", "role_id": 31, "is_primary": true}, {"id": 871735, "title": "Ti-Jean goes lumbering", "work_id": 87232, "role": "producer/director", "role_id": 31, "is_primary": true}], "also_known_as": "", "date_of_birth": null, "date_of_death": "28 NOV 1991", "genders": [{"id": 9, "name": "Male", "slug": "male"}], "languages": [{"id": 83, "name": "Canadian French", "slug": "canadian-french"}], "places_of_operation": [{"id": 1, "name": "United States of America", "slug": "united-states-of-america"}], "biography": "Jean Palardy  (1905 – November 28, 1991) was a French-Canadian painter, art historian, ethnologist and filmmaker. Source: Wikidata; 01/08/2023", "biography_author": null, "date_of_biography": "2025-03-17T10:25:48.913573+11:00", "external_links": [{"id": 4300, "uri": "https://en.wikipedia.org/wiki/Jean_Palardy"}], "uuid": "d416b36d-d95c-4b01-b31c-17bd203614db", "source": {"name": "Vernon", "slug": "vernon"}, "source_identifier": "21550", "external_references": [{"id": 25496, "source": {"name": "Wikidata", "slug": "wikidata"}, "source_identifier": "Q3173829"}, {"id": 29300, "source": {"name": "VIAF", "slug": "viaf"}, "source_identifier": "12438584"}, {"id": 29301, "source": {"name": "LOC Auth", "slug": "loc-auth"}, "source_identifier": "no2010137961"}, {"id": 29302, "source": {"name": "WorldCat", "slug": "worldcat"}, "source_identifier": "lccn-no2010137961"}], "date_modified": "2025-03-17T10:25:48.913945+11:00"}, {"id": 74140, "name": "Raymond Garceau", "roles_in_work": [{"id": 2750869, "title": "Thingumajigs = Trouvailles ou bizarreries", "work_id": 97546, "role": "director", "role_id": 938, "is_primary": true}, {"id": 854668, "title": "Log drive", "work_id": 69861, "role": "director", "role_id": 938, "is_primary": true}, {"id": 2335541, "title": "The Caleche driver", "work_id": 89481, "role": "director", "role_id": 938, "is_primary": true}, {"id": 2159082, "title": "Mister Mayor", "work_id": 70657, "role": "director", "role_id": 938, "is_primary": true}, {"id": 755754, "title": "Ti-Jean goes west", "work_id": 73820, "role": "director", "role_id": 938, "is_primary": true}, {"id": 2680631, "title": "Crane Island", "work_id": 66476, "role": "director", "role_id": 938, "is_primary": true}, {"id": 2308384, "title": "Stamp of approval", "work_id": 73156, "role": "director", "role_id": 938, "is_primary": true}, {"id": 869734, "title": "Inventors of thingumajigs", "work_id": 85762, "role": "director", "role_id": 938, "is_primary": true}, {"id": 2250767, "title": "River of wood", "work_id": 72267, "role": "director", "role_id": 938, "is_primary": true}, {"id": 806314, "title": "Ti-Jean in the land of iron", "work_id": 90701, "role": "director", "role_id": 938, "is_primary": true}, {"id": 895755, "title": "The Sexton", "work_id": 72704, "role": "co-director", "role_id": 959, "is_primary": true}, {"id": 2676941, "title": "Agronomy", "work_id": 64612, "role": "producer", "role_id": 1089, "is_primary": true}], "also_known_as": "", "date_of_birth": "1919-01-16", "date_of_death": "1994-01-05", "genders": [{"id": 9, "name": "Male", "slug": "male"}], "languages": [], "places_of_operation": [{"id": 36, "name": "Canada", "slug": "canada"}], "biography": "", "biography_author": null, "date_of_biography": "2023-05-09T19:31:21.080046+10:00", "external_links": [], "uuid": "32f8dea6-c0f4-4929-ae73-d7dd83ad1d0d", "source": {"name": "Vernon", "slug": "vernon"}, "source_identifier": "27190", "external_references": [{"id": 38674, "source": {"name": "Wikidata", "slug": "wikidata"}, "source_identifier": "Q3420873"}, {"id": 55593, "source": {"name": "VIAF", "slug": "viaf"}, "source_identifier": "71597307"}, {"id": 55594, "source": {"name": "WorldCat", "slug": "worldcat"}, "source_identifier": "viaf-71597307"}], "date_modified": "2025-03-13T00:31:43.519528+11:00"}, {"id": 74139, "name": "Don Crosby", "roles_in_work": [{"id": 2042900, "title": "New Guinea Patrol", "work_id": 70843, "role": "narrator", "role_id": 499, "is_primary": false}, {"id": 2676935, "title": "An Agricultural Officer in Papua and New Guinea", "work_id": 64607, "role": "narrator", "role_id": 499, "is_primary": false}], "also_known_as": "", "date_of_birth": "1924-10-29", "date_of_death": "1985-12-12", "genders": [{"id": 9, "name": "Male", "slug": "male"}], "languages": [], "places_of_operation": [{"id": 3, "name": "Australia", "slug": "australia"}], "biography": "George Wallace Donald Crosby, OAM (29 October 1924 – 3 December 1985) was an Australian actor of radio, stage, television and film, radio producer, stage manager, airman and trade unionist.", "biography_author": "Wikidata", "date_of_biography": "2023-09-05T19:14:40.472049+10:00", "external_links": [{"id": 5780, "uri": "https://en.wikipedia.org/wiki/Don_Crosby"}], "uuid": "dd7b5328-d856-4144-8115-952d273b04e0", "source": {"name": "Vernon", "slug": "vernon"}, "source_identifier": "37896", "external_references": [{"id": 51425, "source": {"name": "Wikidata", "slug": "wikidata"}, "source_identifier": "Q16011187"}], "date_modified": "2025-03-06T23:10:06.208718+11:00"}, {"id": 74138, "name": "Bruce Hillyard", "roles_in_work": [{"id": 2676934, "title": "An Agricultural Officer in Papua and New Guinea", "work_id": 64607, "role": "camera operator", "role_id": 931, "is_primary": false}, {"id": 2311180, "title": "Turnover", "work_id": 74096, "role": "cinematographer", "role_id": 32, "is_primary": false}, {"id": 2680621, "title": "Craft in the cowshed", "work_id": 66472, "role": "cinematographer", "role_id": 32, "is_primary": false}, {"id": 2716272, "title": "Incredible Floridas", "work_id": 68862, "role": "cinematographer", "role_id": 32, "is_primary": false}, {"id": 2184054, "title": "Pace", "work_id": 71306, "role": "cinematographer", "role_id": 32, "is_primary": false}, {"id": 2311164, "title": "Stirring the pool", "work_id": 73203, "role": "cinematographer", "role_id": 32, "is_primary": false}, {"id": 2392308, "title": "You and Your Vote", "work_id": 75001, "role": "cinematographer", "role_id": 32, "is_primary": false}, {"id": 2679469, "title": "The Challenge", "work_id": 65918, "role": "cinematographer", "role_id": 32, "is_primary": false}, {"id": 2713537, "title": "The Fifth facade", "work_id": 67459, "role": "director of photography", "role_id": 925, "is_primary": false}, {"id": 3106008, "title": "Bullocky", "work_id": 75146, "role": "director of photography", "role_id": 925, "is_primary": false}, {"id": 2644774, "title": "Festival in Adelaide", "work_id": 67448, "role": "director of photography", "role_id": 925, "is_primary": false}], "also_known_as": "", "date_of_birth": "", "date_of_death": "", "genders": [{"id": 9, "name": "Male", "slug": "male"}], "languages": [], "places_of_operation": [], "biography": "", "biography_author": null, "date_of_biography": "2023-08-09T03:55:24.919797+10:00", "external_links": [], "uuid": "def8ab3a-acec-48b9-a627-18b79c97547f", "source": {"name": "Vernon", "slug": "vernon"}, "source_identifier": "37453", "external_references": [], "date_modified": "2025-06-04T22:35:13.854224+10:00"}, {"id": 74137, "name": "Richard Mace", "roles_in_work": [{"id": 2186598, "title": "Papua and New Guinea", "work_id": 86762, "role": "assistant", "role_id": 450, "is_primary": false}, {"id": 2676932, "title": "An Agricultural Officer in Papua and New Guinea", "work_id": 64607, "role": "camera operator", "role_id": 931, "is_primary": false}, {"id": 3081275, "title": "Along the Sepik", "work_id": 64690, "role": "camera operator", "role_id": 931, "is_primary": false}], "also_known_as": "", "date_of_birth": "", "date_of_death": "", "genders": [], "languages": [], "places_of_operation": [], "biography": "", "biography_author": null, "date_of_biography": "2023-05-09T15:16:52.772495+10:00", "external_links": [], "uuid": "68adc4b9-86f7-4d81-8ad9-492afe0e79ae", "source": {"name": "Vernon", "slug": "vernon"}, "source_identifier": "37895", "external_references": [{"id": 51880, "source": {"name": "Wikidata", "slug": "wikidata"}, "source_identifier": "Q121361340"}], "date_modified": "2025-03-17T10:23:05.083607+11:00"}, {"id": 74136, "name": "William Shepherd", "roles_in_work": [{"id": 2676931, "title": "An Agricultural Officer in Papua and New Guinea", "work_id": 64607, "role": "director", "role_id": 938, "is_primary": true}], "also_known_as": "", "date_of_birth": "", "date_of_death": "", "genders": [], "languages": [], "places_of_operation": [], "biography": "", "biography_author": null, "date_of_biography": "2023-05-09T12:01:12.153976+10:00", "external_links": [], "uuid": "5f48b3aa-f2db-49c4-828f-f926525ae3fe", "source": {"name": "Vernon", "slug": "vernon"}, "source_identifier": "30496", "external_references": [{"id": 36036, "source": {"name": "Wikidata", "slug": "wikidata"}, "source_identifier": "Q121299452"}], "date_modified": "2025-03-06T23:10:03.584152+11:00"}, {"id": 74135, "name": "John Walker", "roles_in_work": [{"id": 2072839, "title": "A Plant through the seasons: apple tree", "work_id": 95979, "role": "producer", "role_id": 1089, "is_primary": true}, {"id": 2779577, "title": "The World of animals: looking at amphibians", "work_id": 95977, "role": "producer", "role_id": 1089, "is_primary": true}, {"id": 1805009, "title": "Fungi", "work_id": 95866, "role": "producer", "role_id": 1089, "is_primary": true}], "also_known_as": "", "date_of_birth": "", "date_of_death": "", "genders": [], "languages": [], "places_of_operation": [], "biography": "", "biography_author": null, "date_of_biography": "2023-05-09T18:02:11.330323+10:00", "external_links": [], "uuid": "24c16da6-931f-4447-858b-d7398c328d3f", "source": {"name": "Vernon", "slug": "vernon"}, "source_identifier": "22333", "external_references": [{"id": 35210, "source": {"name": "Wikidata", "slug": "wikidata"}, "source_identifier": "Q121222801"}], "date_modified": "2025-03-14T19:03:47.788673+11:00"}, {"id": 74134, "name": "Bernard Devlin", "roles_in_work": [{"id": 2645894, "title": "Ottawa, today and tomorrow", "work_id": 71235, "role": "director", "role_id": 938, "is_primary": true}, {"id": 2162591, "title": "Once upon a prime time", "work_id": 71115, "role": "director", "role_id": 938, "is_primary": true}, {"id": 2150819, "title": "Night children", "work_id": 70897, "role": "director", "role_id": 938, "is_primary": true}, {"id": 2071581, "title": "A Matter of survival", "work_id": 70215, "role": "director", "role_id": 938, "is_primary": true}, {"id": 860381, "title": "The Visit", "work_id": 74399, "role": "director", "role_id": 938, "is_primary": true}, {"id": 854652, "title": "Local 100", "work_id": 69852, "role": "director", "role_id": 938, "is_primary": true}, {"id": 860457, "title": "Walk down any street", "work_id": 74450, "role": "director", "role_id": 938, "is_primary": true}, {"id": 2676867, "title": "Age of dissent", "work_id": 64595, "role": "director", "role_id": 938, "is_primary": true}, {"id": 2274396, "title": "Seniority versus ability", "work_id": 72654, "role": "director", "role_id": 938, "is_primary": true}, {"id": 760438, "title": "Octopus hunt", "work_id": 75825, "role": "director", "role_id": 938, "is_primary": true}, {"id": 2647987, "title": "A Case of eggs", "work_id": 77957, "role": "director", "role_id": 938, "is_primary": true}, {"id": 2332129, "title": "The Bird fancier = L'Homme aux oiseaux", "work_id": 90617, "role": "co-director", "role_id": 959, "is_primary": true}, {"id": 2757249, "title": "Ski skill", "work_id": 72880, "role": "co-director", "role_id": 959, "is_primary": true}, {"id": 2315529, "title": "Striker", "work_id": 75539, "role": "co-producer", "role_id": 915, "is_primary": true}, {"id": 2676864, "title": "Age of dissent", "work_id": 64595, "role": "co-producer", "role_id": 915, "is_primary": true}, {"id": 908407, "title": "Judoka", "work_id": 88836, "role": "co-producer", "role_id": 915, "is_primary": true}, {"id": 1818088, "title": "Men at work", "work_id": 70296, "role": "producer", "role_id": 1089, "is_primary": true}, {"id": 2209696, "title": "Police club for boys", "work_id": 71686, "role": "producer", "role_id": 1089, "is_primary": true}, {"id": 1808040, "title": "The Motorman", "work_id": 88637, "role": "producer", "role_id": 1089, "is_primary": true}, {"id": 1817217, "title": "The Voyageurs", "work_id": 75640, "role": "producer", "role_id": 1089, "is_primary": true}, {"id": 1817321, "title": "The Village notary", "work_id": 74371, "role": "producer", "role_id": 1089, "is_primary": true}, {"id": 1819155, "title": "Nature's food chain", "work_id": 70781, "role": "producer", "role_id": 1089, "is_primary": true}, {"id": 1813383, "title": "Music professor", "work_id": 70707, "role": "producer", "role_id": 1089, "is_primary": true}, {"id": 2646099, "title": "The Puppeteers", "work_id": 71959, "role": "producer", "role_id": 1089, "is_primary": true}, {"id": 2645731, "title": "Movies in the mill", "work_id": 70638, "role": "producer", "role_id": 1089, "is_primary": true}, {"id": 1820268, "title": "The Sexton", "work_id": 72704, "role": "producer", "role_id": 1089, "is_primary": true}, {"id": 2712908, "title": "The End of the Nancy J.", "work_id": 67152, "role": "producer/director", "role_id": 31, "is_primary": true}], "also_known_as": "", "date_of_birth": "02 SEP 1923", "date_of_death": "01 JAN 1983", "genders": [{"id": 9, "name": "Male", "slug": "male"}], "languages": [{"id": 1, "name": "English", "slug": "english"}], "places_of_operation": [{"id": 36, "name": "Canada", "slug": "canada"}], "biography": "Bernard Devlin (1923–1983) was a Canadian film director, producer and writer who played an important role in the development of French-language film production at the National Film Board of Canada (NFB). Source: Wikidata; 01/08/2023", "biography_author": null, "date_of_biography": "2025-03-13T14:44:13.428784+11:00", "external_links": [{"id": 3633, "uri": "https://en.wikipedia.org/wiki/Bernard_Devlin_(director)"}], "uuid": "9ab89aeb-4829-431c-b275-ab2e44442754", "source": {"name": "Vernon", "slug": "vernon"}, "source_identifier": "15829", "external_references": [{"id": 24963, "source": {"name": "Wikidata", "slug": "wikidata"}, "source_identifier": "Q2897798"}, {"id": 27470, "source": {"name": "VIAF", "slug": "viaf"}, "source_identifier": "44563574"}, {"id": 27471, "source": {"name": "WorldCat", "slug": "worldcat"}, "source_identifier": "viaf-44563574"}], "date_modified": "2025-03-13T14:44:13.429044+11:00"}, {"id": 74133, "name": "Jean Bedard", "roles_in_work": [{"id": 2676860, "title": "Chairmen = L Age de Chaise", "work_id": 64593, "role": "director", "role_id": 938, "is_primary": true}, {"id": 755489, "title": "This is a recorded message [Widescreen]", "work_id": 73715, "role": "director", "role_id": 938, "is_primary": true}], "also_known_as": "", "date_of_birth": "", "date_of_death": "", "genders": [], "languages": [], "places_of_operation": [], "biography": "", "biography_author": null, "date_of_biography": "2023-05-09T13:26:21.430566+10:00", "external_links": [], "uuid": "e5e2b095-f67a-42bb-94fe-d7def80f2097", "source": {"name": "Vernon", "slug": "vernon"}, "source_identifier": "110972", "external_references": [{"id": 40454, "source": {"name": "Wikidata", "slug": "wikidata"}, "source_identifier": "Q121126348"}], "date_modified": "2025-03-06T23:08:04.978173+11:00"}]}