{"count": 28681, "next": "https://api.acmi.net.au/creators/?page=2205", "previous": "https://api.acmi.net.au/creators/?page=2203", "results": [{"id": 18589, "name": "Alvin Yudkoff", "roles_in_work": [{"id": 2748876, "title": "Out of slavery: 1619-1860", "work_id": 96517, "role": "co-producers/directors", "role_id": 628, "is_primary": true}, {"id": 2138584, "title": "Civil War and reconstruction: 1861-1877", "work_id": 82732, "role": "co-producers/directors", "role_id": 628, "is_primary": true}, {"id": 1813400, "title": "Operation Venus", "work_id": 74300, "role": "producer", "role_id": 1089, "is_primary": true}], "also_known_as": "", "date_of_birth": "", "date_of_death": "", "genders": [], "languages": [], "places_of_operation": [], "biography": "", "biography_author": null, "date_of_biography": "2023-05-09T14:53:33.413444+10:00", "external_links": [], "uuid": "1d6aa258-665c-4c3f-a749-46c37f28df61", "source": {"name": "Vernon", "slug": "vernon"}, "source_identifier": "15043", "external_references": [{"id": 35748, "source": {"name": "Wikidata", "slug": "wikidata"}, "source_identifier": "Q121315256"}], "date_modified": "2025-03-12T23:46:48.018117+11:00"}, {"id": 18587, "name": "Directions Unlimited Film Corporation", "roles_in_work": [{"id": 2646782, "title": "VD: a new focus", "work_id": 74297, "role": "production company", "role_id": 941, "is_primary": true}, {"id": 2749270, "title": "Basic law terms", "work_id": 96721, "role": "production company", "role_id": 941, "is_primary": true}], "also_known_as": "", "date_of_birth": null, "date_of_death": null, "genders": [], "languages": [], "places_of_operation": [], "biography": "", "biography_author": null, "date_of_biography": null, "external_links": [], "uuid": "e7d0d492-2a61-4255-965d-bd21e0896d3e", "source": {"name": "Vernon", "slug": "vernon"}, "source_identifier": "7578", "external_references": [], "date_modified": "2025-03-12T23:56:42.171974+11:00"}, {"id": 18586, "name": "Arthur G. Wooster", "roles_in_work": [{"id": 2469690, "title": "Vauxhall: Bedford, England", "work_id": 74295, "role": "director", "role_id": 938, "is_primary": true}], "also_known_as": "", "date_of_birth": "", "date_of_death": "", "genders": [], "languages": [], "places_of_operation": [], "biography": "", "biography_author": null, "date_of_biography": "2023-08-14T12:06:43.425822+10:00", "external_links": [], "uuid": "e4a3025e-35e9-4891-a203-6fe14dce0925", "source": {"name": "Vernon", "slug": "vernon"}, "source_identifier": "34412", "external_references": [], "date_modified": "2023-08-14T12:06:43.426104+10:00"}, {"id": 18585, "name": "Anthony Gilkison Associates", "roles_in_work": [{"id": 2469689, "title": "Vauxhall: Bedford, England", "work_id": 74295, "role": "production company", "role_id": 941, "is_primary": true}, {"id": 825840, "title": "Carbon", "work_id": 96067, "role": "production company", "role_id": 941, "is_primary": true}], "also_known_as": "", "date_of_birth": "", "date_of_death": "", "genders": [], "languages": [], "places_of_operation": [], "biography": "", "biography_author": null, "date_of_biography": "2023-08-14T12:06:42.815899+10:00", "external_links": [], "uuid": "acfd1c3d-99b8-49e2-8095-1e8a1db75f17", "source": {"name": "Vernon", "slug": "vernon"}, "source_identifier": "5295", "external_references": [], "date_modified": "2023-08-14T12:06:42.816282+10:00"}, {"id": 18584, "name": "Sofida Films", "roles_in_work": [{"id": 2646778, "title": "Van Meegeren's faked Vermeers (TEFC)", "work_id": 74285, "role": "production company", "role_id": 941, "is_primary": true}], "also_known_as": "", "date_of_birth": "", "date_of_death": "", "genders": [], "languages": [], "places_of_operation": [], "biography": "", "biography_author": null, "date_of_biography": "2023-08-14T12:06:29.971285+10:00", "external_links": [], "uuid": "eff0eec4-df76-4994-a44c-62111be7eec1", "source": {"name": "Vernon", "slug": "vernon"}, "source_identifier": "12709", "external_references": [], "date_modified": "2025-03-05T13:11:37.028005+11:00"}, {"id": 18577, "name": "Douglas M. Robinson", "roles_in_work": [{"id": 2469680, "title": "Valleys and people", "work_id": 74280, "role": "director", "role_id": 938, "is_primary": true}, {"id": 2471694, "title": "When gold is green", "work_id": 91164, "role": "director", "role_id": 938, "is_primary": true}], "also_known_as": "", "date_of_birth": "", "date_of_death": "", "genders": [], "languages": [], "places_of_operation": [], "biography": "", "biography_author": null, "date_of_biography": "2023-08-14T12:44:42.035392+10:00", "external_links": [], "uuid": "2b8ff8f5-eaa1-4df0-9a75-11968106340f", "source": {"name": "Vernon", "slug": "vernon"}, "source_identifier": "18404", "external_references": [{"id": 36903, "source": {"name": "Wikidata", "slug": "wikidata"}, "source_identifier": "Q120838007"}], "date_modified": "2023-09-05T19:20:37.184088+10:00"}, {"id": 18572, "name": "Victorian Town and Country Planning Board", "roles_in_work": [{"id": 3093070, "title": "Valley of the Yarra", "work_id": 74277, "role": "production company", "role_id": 941, "is_primary": true}], "also_known_as": "", "date_of_birth": "", "date_of_death": "", "genders": [], "languages": [], "places_of_operation": [], "biography": "", "biography_author": null, "date_of_biography": "2023-07-05T03:47:54.380383+10:00", "external_links": [], "uuid": "7703a7b7-db3a-46d0-bc34-c65633cdc06a", "source": {"name": "Vernon", "slug": "vernon"}, "source_identifier": "14084", "external_references": [{"id": 35606, "source": {"name": "Wikidata", "slug": "wikidata"}, "source_identifier": "Q121222705"}], "date_modified": "2025-03-31T22:36:12.345792+11:00"}, {"id": 18567, "name": "Glenn Kirchner", "roles_in_work": [{"id": 2751448, "title": "Physical education for children", "work_id": 97811, "role": "director", "role_id": 938, "is_primary": true}, {"id": 2764451, "title": "Theme development in movement education (TEFC)", "work_id": 76886, "role": "director", "role_id": 938, "is_primary": true}, {"id": 2764455, "title": "Using large apparatus in movement education (TEFC)", "work_id": 75160, "role": "director", "role_id": 938, "is_primary": true}, {"id": 2764459, "title": "Using small equipment in movement education (TEFC)", "work_id": 74254, "role": "director", "role_id": 938, "is_primary": true}], "also_known_as": "", "date_of_birth": "", "date_of_death": "", "genders": [], "languages": [], "places_of_operation": [], "biography": "", "biography_author": null, "date_of_biography": "2023-08-14T12:06:05.956294+10:00", "external_links": [], "uuid": "5d2a7ff7-65a0-40dc-8447-42ac4a9f65ea", "source": {"name": "Vernon", "slug": "vernon"}, "source_identifier": "19898", "external_references": [], "date_modified": "2025-03-14T17:46:26.710619+11:00"}, {"id": 18566, "name": "Millie Goldsholl", "roles_in_work": [{"id": 756722, "title": "Up is down", "work_id": 74239, "role": "director", "role_id": 938, "is_primary": true}, {"id": 896271, "title": "Worth how many words?", "work_id": 74957, "role": "co-director", "role_id": 959, "is_primary": true}], "also_known_as": "", "date_of_birth": null, "date_of_death": null, "genders": [{"id": 5, "name": "Female", "slug": "female"}], "languages": [], "places_of_operation": [{"id": 1, "name": "United States of America", "slug": "united-states-of-america"}], "biography": "Millie Goldsholl (May 22, 1920 - May 23, 2012) is most well known for running the film division of the Chicago graphic design firm, Morton Goldsholl Associates (Goldsholl Design & Film Associates). She also made her own films and animations, including the award-winning Up is Down from 1969.Millie Goldsholl grew up in Freeport, New York on the south shores of Long Island. As a child she developed a love for pastoral life and art, creating elaborate chalk drawings of her family and grandparents' farm animals outside her family's home. Millie moved from the sidewalk to the easel when she entered high school. Here, encouraging art teachers inspired Millie to make a career out of her passion for art. Millie moved to Chicago, Illinois when she was sixteen with her sister and widowed mother. They moved in with Millie's brother, who had recently acquired a factory job and needed help around the house. After failing to enroll in art classes that required too many prerequisites, Millie joined her brother in the factory.Millie entered the design world through her husband, Morton (Mort) Goldsholl, who invited Millie to enter the world of advertising alongside him. The two met at work, a paper box manufacturer where Millie did accounting and Mort designed packaging. Mort kept his day job as a freelance designer and encouraged Millie to enter the newly formed IIT Institute of Design, the first school in Chicago to offer a design degree. Millie ultimately studied architecture, but the school's Bauhaus inspired environment encouraged her to experiment with different materials, mediums and machines. It is here where she was first introduced to filmmaking, and where she developed a lifelong connection to László Moholy-Nagy's vision of industry, art and design.\nIn 1955, Mort and Millie Goldsholl established Goldsholl Design & Film Associates. Mort took responsibility for the design division, while Millie took charge of building a film division. Their Northfield, Illinois studio reflected the flexibility and freedom of the Bauhaus tradition, combining traditional graphic design work alongside a filmmaking studio. Millie compared the studio to a beehive, but noted the proximity led to collaborations and experiments that wouldn't have happened any other way. “We are involved here in every step of the film process, from idea to imagery,” Millie told Rhodes Patterson shortly after moving in, “and we find this maintains the integrity of the concept. Phonics can be manipulated with the same freedom as image. The auditory is mobilized to create mood. Images may be heard, and sound seen. It is not so much in the components of the film structure that its art resides, but rather in relationships, interaction and transitions that it assumes its significance. The pulse or rhythm of a film can produce tension, excitement and release,” she continued. “In editing, the filmmaker gives wings to the parts . . . cleaving them from their place in time and space . . . releasing them into a designer's stratosphere––there to be juggled, taken, rejected, extended, clipped, superimposed and recomposed.”In addition to her Goldsholl Design Associates firm work, Millie made a handful of films on her own, including the award-winning animation, Up is Down (1969). This short film looks at a study of an unconventional, young boy who is temporarily persuaded to accept others' viewpoints as his own. Millie, who dedicated the film to Martin Luther King, considered herself a maverick like the young boy who walks on his hands in the animated film. She once stated, \"It is better to be utopic than myopic – even if you're not a designer – and especially if you are. It's not so much a matter of thinking big as thinking deep.\"Millie died in May 2012, preceded by Mort in 1995. Mort and Millie are survived by their two children, Harry Goldsholl, and Gleda Dreke, as well as their grandchildren: Jesse Goldsholl, Jake Goldsholl, Rebecca Dreke, RD Dreke, and Emily Dreke.\nSince 2006, Millie and Mort Goldsholl's films have been in the care of Chicago Film Archives (CFA). CFA's Mort & Millie Goldsholl Collection contains commercials and industrial films that Goldsholl Design & Film Associates made for their clients as well as experimental films and animations made by both Morton and Millie, unedited travel films shot by Morton and Millie and films that the two collected over the years.", "biography_author": "Wikidata", "date_of_biography": "2023-08-01T16:19:17.460423+10:00", "external_links": [{"id": 4740, "uri": "https://en.wikipedia.org/wiki/Millie_Goldsholl"}], "uuid": "5732e837-737e-4ab0-8d06-1b59052f9c5b", "source": {"name": "Vernon", "slug": "vernon"}, "source_identifier": "4287", "external_references": [{"id": 27035, "source": {"name": "Wikidata", "slug": "wikidata"}, "source_identifier": "Q19630430"}], "date_modified": "2023-09-13T12:31:31.893299+10:00"}, {"id": 18564, "name": "Barbara Davies", "roles_in_work": [{"id": 2469605, "title": "Up in smoke", "work_id": 74238, "role": "director", "role_id": 938, "is_primary": true}], "also_known_as": "", "date_of_birth": "", "date_of_death": "", "genders": [], "languages": [], "places_of_operation": [], "biography": "", "biography_author": null, "date_of_biography": "2023-08-14T12:04:53.245514+10:00", "external_links": [], "uuid": "78e9e478-ed6e-4adb-a0f6-cc05806f1242", "source": {"name": "Vernon", "slug": "vernon"}, "source_identifier": "34354", "external_references": [], "date_modified": "2023-08-14T12:04:53.245749+10:00"}]}