{"count": 28687, "next": "https://api.acmi.net.au/creators/?page=490", "previous": "https://api.acmi.net.au/creators/?page=488", "results": [{"id": 80693, "name": "Frederick Wiseman", "roles_in_work": [{"id": 884413, "title": "High school II [NTSC]", "work_id": 94665, "role": "producer/director", "role_id": 31, "is_primary": true}, {"id": 883849, "title": "Hospital [NTSC]", "work_id": 94198, "role": "producer/director", "role_id": 31, "is_primary": true}, {"id": 2273302, "title": "Welfare [NTSC]", "work_id": 94197, "role": "producer/director", "role_id": 31, "is_primary": true}, {"id": 2233532, "title": "Public housing [NTSC]", "work_id": 94196, "role": "producer/director", "role_id": 31, "is_primary": true}], "also_known_as": "", "date_of_birth": "1930-01-01", "date_of_death": "", "genders": [{"id": 9, "name": "Male", "slug": "male"}], "languages": [{"id": 1, "name": "English", "slug": "english"}, {"id": 4, "name": "French", "slug": "french"}], "places_of_operation": [{"id": 1, "name": "United States of America", "slug": "united-states-of-america"}], "biography": "Frederick Wiseman (born January 1, 1930) is an American filmmaker, documentarian, and theater director. His work is \"devoted primarily to exploring American institutions\". He has been called \"one of the most important and original filmmakers working today\".", "biography_author": "Wikidata", "date_of_biography": "2023-08-01T14:53:09.146756+10:00", "external_links": [{"id": 4002, "uri": "https://en.wikipedia.org/wiki/Frederick_Wiseman"}], "uuid": "2c0267e3-4d72-4ed6-b7e4-565d59da5cc1", "source": {"name": "Vernon", "slug": "vernon"}, "source_identifier": "19288", "external_references": [{"id": 26309, "source": {"name": "Wikidata", "slug": "wikidata"}, "source_identifier": "Q1361201"}, {"id": 28490, "source": {"name": "VIAF", "slug": "viaf"}, "source_identifier": "106694480"}, {"id": 28491, "source": {"name": "LOC Auth", "slug": "loc-auth"}, "source_identifier": "n79007380"}, {"id": 28492, "source": {"name": "WorldCat", "slug": "worldcat"}, "source_identifier": "lccn-n79007380"}], "date_modified": "2023-09-05T19:53:42.257759+10:00"}, {"id": 80692, "name": "Peter Minns", "roles_in_work": [{"id": 3085820, "title": "Chris Patten's east and west", "work_id": 115613, "role": "producer/director", "role_id": 31, "is_primary": true}, {"id": 3085789, "title": "Barbarian diplomacy", "work_id": 94195, "role": "producer/director", "role_id": 31, "is_primary": true}], "also_known_as": "", "date_of_birth": "", "date_of_death": "", "genders": [], "languages": [], "places_of_operation": [], "biography": "", "biography_author": null, "date_of_biography": "2023-05-09T13:32:07.114756+10:00", "external_links": [], "uuid": "cbf35fdb-d98b-4294-8f03-cbe7fd1a170e", "source": {"name": "Vernon", "slug": "vernon"}, "source_identifier": "26647", "external_references": [{"id": 51095, "source": {"name": "Wikidata", "slug": "wikidata"}, "source_identifier": "Q121361019"}], "date_modified": "2025-03-17T10:41:28.570743+11:00"}, {"id": 80691, "name": "Kim Jungeun", "roles_in_work": [{"id": 3085799, "title": "Tiger talk", "work_id": 94194, "role": "producer", "role_id": 1089, "is_primary": true}], "also_known_as": "", "date_of_birth": "", "date_of_death": "", "genders": [], "languages": [], "places_of_operation": [], "biography": "", "biography_author": null, "date_of_biography": "2023-05-09T13:32:05.109813+10:00", "external_links": [], "uuid": "a6e4053e-6706-489d-9d6f-b57209c3cf34", "source": {"name": "Vernon", "slug": "vernon"}, "source_identifier": "23334", "external_references": [{"id": 40865, "source": {"name": "Wikidata", "slug": "wikidata"}, "source_identifier": "Q121034986"}], "date_modified": "2025-03-17T10:41:24.528475+11:00"}, {"id": 80690, "name": "Dorothy Lecour", "roles_in_work": [{"id": 2327975, "title": "The Art of the animator. Part 1", "work_id": 94179, "role": "co-producer", "role_id": 915, "is_primary": true}, {"id": 2327992, "title": "The Art of the animator. Part 2", "work_id": 94178, "role": "co-producer", "role_id": 915, "is_primary": true}], "also_known_as": "", "date_of_birth": "", "date_of_death": "", "genders": [], "languages": [], "places_of_operation": [], "biography": "", "biography_author": null, "date_of_biography": "2023-05-09T19:21:51.109978+10:00", "external_links": [], "uuid": "c56d1479-47fd-47ec-b765-c6ea36958950", "source": {"name": "Vernon", "slug": "vernon"}, "source_identifier": "18356", "external_references": [{"id": 35696, "source": {"name": "Wikidata", "slug": "wikidata"}, "source_identifier": "Q121337480"}], "date_modified": "2023-09-05T19:19:33.933687+10:00"}, {"id": 80689, "name": "Featherstone Productions", "roles_in_work": [{"id": 1428113, "title": "I witness: the art of George Gittoes (D)", "work_id": 94172, "role": "production company", "role_id": 941, "is_primary": true}], "also_known_as": "", "date_of_birth": null, "date_of_death": null, "genders": [], "languages": [], "places_of_operation": [], "biography": "", "biography_author": null, "date_of_biography": null, "external_links": [], "uuid": "dabda966-f400-41e5-b034-f9e523ed7298", "source": {"name": "Vernon", "slug": "vernon"}, "source_identifier": null, "external_references": [{"id": 38533, "source": {"name": "Wikidata", "slug": "wikidata"}, "source_identifier": "Q121058076"}], "date_modified": "2023-09-05T19:40:50.914864+10:00"}, {"id": 80688, "name": "Don Bennetts Films", "roles_in_work": [{"id": 2100634, "title": "Arthur Boyd: testament of a painter", "work_id": 94171, "role": "production company", "role_id": 941, "is_primary": true}], "also_known_as": "", "date_of_birth": "", "date_of_death": "", "genders": [], "languages": [], "places_of_operation": [], "biography": "", "biography_author": null, "date_of_biography": "2023-05-09T12:30:27.176695+10:00", "external_links": [], "uuid": "33aa6b73-1cad-45dc-8d48-11d25a76a4f4", "source": {"name": "Vernon", "slug": "vernon"}, "source_identifier": "7631", "external_references": [{"id": 37868, "source": {"name": "Wikidata", "slug": "wikidata"}, "source_identifier": "Q121034828"}], "date_modified": "2023-09-05T19:14:17.369182+10:00"}, {"id": 80687, "name": "John Izzard", "roles_in_work": [{"id": 2144264, "title": "Conversations with a dead poet: Alan Wearne recalls John Forbes [Widescreen]", "work_id": 94170, "role": "producer", "role_id": 1089, "is_primary": true}], "also_known_as": "", "date_of_birth": "", "date_of_death": "", "genders": [], "languages": [], "places_of_operation": [], "biography": "", "biography_author": null, "date_of_biography": "2023-05-09T13:43:24.101383+10:00", "external_links": [], "uuid": "e0420c93-c9c5-4078-80a3-7139284bff4b", "source": {"name": "Vernon", "slug": "vernon"}, "source_identifier": "22332", "external_references": [{"id": 41270, "source": {"name": "Wikidata", "slug": "wikidata"}, "source_identifier": "Q121034858"}], "date_modified": "2023-09-05T21:39:30.805634+10:00"}, {"id": 80686, "name": "Seedwillow", "roles_in_work": [{"id": 2144261, "title": "Conversations with a dead poet: Alan Wearne recalls John Forbes [Widescreen]", "work_id": 94170, "role": "production company", "role_id": 941, "is_primary": true}], "also_known_as": "", "date_of_birth": "", "date_of_death": "", "genders": [], "languages": [], "places_of_operation": [], "biography": "", "biography_author": null, "date_of_biography": "2023-05-09T13:43:23.859180+10:00", "external_links": [], "uuid": "1fc3f254-2ad3-4401-80ac-3c5056b50771", "source": {"name": "Vernon", "slug": "vernon"}, "source_identifier": "12410", "external_references": [{"id": 42004, "source": {"name": "Wikidata", "slug": "wikidata"}, "source_identifier": "Q121035605"}], "date_modified": "2023-09-06T01:09:49.893512+10:00"}, {"id": 80685, "name": "Sonya Pemberton", "roles_in_work": [{"id": 2793575, "title": "Alien underworld [Widescreen]", "work_id": 94169, "role": "director", "role_id": 938, "is_primary": true}], "also_known_as": "", "date_of_birth": "", "date_of_death": "", "genders": [], "languages": [], "places_of_operation": [], "biography": "", "biography_author": null, "date_of_biography": "2023-05-09T13:30:02.590825+10:00", "external_links": [], "uuid": "d5b18b9b-9a39-481d-8c19-14693657c729", "source": {"name": "Vernon", "slug": "vernon"}, "source_identifier": "28901", "external_references": [{"id": 34388, "source": {"name": "Wikidata", "slug": "wikidata"}, "source_identifier": "Q121143663"}], "date_modified": "2025-03-14T20:18:59.540242+11:00"}, {"id": 80684, "name": "Tattooed Media", "roles_in_work": [{"id": 2793571, "title": "Alien underworld [Widescreen]", "work_id": 94169, "role": "production company", "role_id": 941, "is_primary": true}], "also_known_as": "", "date_of_birth": "", "date_of_death": "", "genders": [], "languages": [], "places_of_operation": [], "biography": "", "biography_author": null, "date_of_biography": "2023-05-09T13:30:01.876240+10:00", "external_links": [], "uuid": "3e914fa1-1cff-4e61-95bb-fc5a40a4a108", "source": {"name": "Vernon", "slug": "vernon"}, "source_identifier": "13190", "external_references": [{"id": 35895, "source": {"name": "Wikidata", "slug": "wikidata"}, "source_identifier": "Q121270952"}], "date_modified": "2025-03-14T20:18:57.760249+11:00"}]}