{"count": 28687, "next": "https://api.acmi.net.au/creators/?page=504", "previous": "https://api.acmi.net.au/creators/?page=502", "results": [{"id": 80553, "name": "Kenneth Lonergan", "roles_in_work": [], "also_known_as": "", "date_of_birth": "1962-10-16", "date_of_death": null, "genders": [{"id": 9, "name": "Male", "slug": "male"}], "languages": [{"id": 1, "name": "English", "slug": "english"}], "places_of_operation": [{"id": 1, "name": "United States of America", "slug": "united-states-of-america"}], "biography": "Kenneth Lonergan (born October 16, 1962) is an American film director, playwright, and screenwriter. He is the co-writer of the film Gangs of New York (2002), and wrote and directed You Can Count On Me (2000), Margaret (2011), and Manchester by the Sea (2016). Lonergan is also known for his work as a playwright. His most noted plays include This Is Our Youth, Lobby Hero and The Waverly Gallery. Each also had a successful revival engagement on Broadway, which resulted in each play receiving a nomination for the Tony Award for Best Revival of a Play\nLonergan won the Academy Award for Best Original Screenplay for Manchester by the Sea, for which he was also nominated for Best Director; he also earned Academy Award nominations for his screenplays for You Can Count on Me and Gangs of New York. He also won the BAFTA Award for Best Original Screenplay for Manchester by the Sea at the 70th British Academy Film Awards.\n\n", "biography_author": "Wikidata", "date_of_biography": "2022-05-19T12:10:53.806833+10:00", "external_links": [{"id": 2524, "uri": "https://en.wikipedia.org/wiki/Kenneth_Lonergan"}], "uuid": "d5ebf3cd-29ed-45dd-9724-bea42df76d95", "source": {"name": "Vernon", "slug": "vernon"}, "source_identifier": "23250", "external_references": [{"id": 10784, "source": {"name": "Wikidata", "slug": "wikidata"}, "source_identifier": "Q968840"}, {"id": 10785, "source": {"name": "VIAF", "slug": "viaf"}, "source_identifier": "19888228"}, {"id": 10786, "source": {"name": "LOC Auth", "slug": "loc-auth"}, "source_identifier": "n99836115"}, {"id": 10787, "source": {"name": "WorldCat", "slug": "worldcat"}, "source_identifier": "lccn-n99836115"}], "date_modified": "2023-09-05T22:05:50.462541+10:00"}, {"id": 80552, "name": "John N. Hart", "roles_in_work": [{"id": 2270702, "title": "You can count on me", "work_id": 93961, "role": "co-producer", "role_id": 915, "is_primary": true}], "also_known_as": "", "date_of_birth": "", "date_of_death": "", "genders": [], "languages": [], "places_of_operation": [], "biography": "", "biography_author": null, "date_of_biography": "2023-05-09T17:44:44.873336+10:00", "external_links": [], "uuid": "4beae194-4849-49bb-a666-9c9847c8abc1", "source": {"name": "Vernon", "slug": "vernon"}, "source_identifier": "22434", "external_references": [{"id": 34592, "source": {"name": "Wikidata", "slug": "wikidata"}, "source_identifier": "Q121270716"}], "date_modified": "2023-09-05T21:42:29.516052+10:00"}, {"id": 80551, "name": "Larry Meistrich", "roles_in_work": [{"id": 2270698, "title": "You can count on me", "work_id": 93961, "role": "co-producer", "role_id": 915, "is_primary": true}], "also_known_as": "Lawrence Steven Meistrich", "date_of_birth": "1966-10-14", "date_of_death": "", "genders": [{"id": 9, "name": "Male", "slug": "male"}], "languages": [{"id": 1, "name": "English", "slug": "english"}], "places_of_operation": [{"id": 1, "name": "United States of America", "slug": "united-states-of-america"}], "biography": "Larry Meistrich (born October 14, 1966) is an American film producer.  He was a founding member of the now defunct film production company The Shooting Gallery.\nMeistrich attended Johns Hopkins University graduating in 1989 with a degree in writing. While at Hopkins, he was a brother of Alpha Delta Phi. \nHe produced Sling Blade, with Billy Bob Thornton, which won the Academy Award for Best Writing, Adapted Screenplay. He won an Independent Spirit Award for producing You Can Count on Me in 2001 and the film was also nominated for an Academy Award for Best Screenplay. Meistrich now is the founder and chairman of NEHST Studios. NEHST has combined with another studio to create DigiNext Films.", "biography_author": "Wikidata", "date_of_biography": "2023-08-01T15:52:11.042914+10:00", "external_links": [{"id": 2545, "uri": "https://en.wikipedia.org/wiki/Larry_Meistrich"}], "uuid": "0a179106-ee57-4c45-b6a8-b5880cac0faa", "source": {"name": "Vernon", "slug": "vernon"}, "source_identifier": "23496", "external_references": [{"id": 10880, "source": {"name": "Wikidata", "slug": "wikidata"}, "source_identifier": "Q6490794"}, {"id": 10881, "source": {"name": "VIAF", "slug": "viaf"}, "source_identifier": "106145577"}, {"id": 10882, "source": {"name": "WorldCat", "slug": "worldcat"}, "source_identifier": "lccn-no2001058883"}], "date_modified": "2023-09-05T22:14:36.799168+10:00"}, {"id": 80550, "name": "Michele Berk", "roles_in_work": [{"id": 2107889, "title": "Bandits [DVD]", "work_id": 93952, "role": "co-producer", "role_id": 915, "is_primary": true}], "also_known_as": "", "date_of_birth": "", "date_of_death": "", "genders": [], "languages": [], "places_of_operation": [], "biography": "", "biography_author": null, "date_of_biography": "2023-05-09T12:41:14.509010+10:00", "external_links": [], "uuid": "b641b0ae-3986-4b32-a3d9-35e2c4adde4a", "source": {"name": "Vernon", "slug": "vernon"}, "source_identifier": "25296", "external_references": [{"id": 41256, "source": {"name": "Wikidata", "slug": "wikidata"}, "source_identifier": "Q121126685"}], "date_modified": "2023-09-05T23:12:48.005953+10:00"}, {"id": 80549, "name": "Michael Birnbaum", "roles_in_work": [{"id": 2107886, "title": "Bandits [DVD]", "work_id": 93952, "role": "co-producer", "role_id": 915, "is_primary": true}], "also_known_as": "", "date_of_birth": "", "date_of_death": "", "genders": [], "languages": [], "places_of_operation": [], "biography": "", "biography_author": null, "date_of_biography": "2023-05-09T12:41:14.271705+10:00", "external_links": [], "uuid": "324b2a38-ef0f-4ec4-bae6-1a75b3eee4e6", "source": {"name": "Vernon", "slug": "vernon"}, "source_identifier": "24981", "external_references": [{"id": 40931, "source": {"name": "Wikidata", "slug": "wikidata"}, "source_identifier": "Q121126551"}], "date_modified": "2023-09-05T23:02:23.740063+10:00"}, {"id": 80548, "name": "Julia Chasma", "roles_in_work": [{"id": 2234216, "title": "Quills", "work_id": 93949, "role": "co-producer", "role_id": 915, "is_primary": true}], "also_known_as": "", "date_of_birth": "", "date_of_death": "", "genders": [], "languages": [], "places_of_operation": [], "biography": "", "biography_author": null, "date_of_biography": "2023-05-09T16:43:11.864149+10:00", "external_links": [], "uuid": "af11b974-fcb5-429a-97c0-9ffb93429925", "source": {"name": "Vernon", "slug": "vernon"}, "source_identifier": "22836", "external_references": [{"id": 33909, "source": {"name": "Wikidata", "slug": "wikidata"}, "source_identifier": "Q121299316"}], "date_modified": "2023-09-05T21:54:35.670490+10:00"}, {"id": 80547, "name": "Jay Roewe", "roles_in_work": [{"id": 1998602, "title": "In bed with Madonna = Truth or dare", "work_id": 93945, "role": "co-producer", "role_id": 915, "is_primary": true}], "also_known_as": "", "date_of_birth": null, "date_of_death": null, "genders": [], "languages": [], "places_of_operation": [], "biography": "", "biography_author": null, "date_of_biography": null, "external_links": [], "uuid": "22adae26-f4df-40d2-b6d1-0db0698bd50e", "source": {"name": "Vernon", "slug": "vernon"}, "source_identifier": null, "external_references": [], "date_modified": "2023-06-14T16:33:30.576250+10:00"}, {"id": 80546, "name": "Tim Clawson", "roles_in_work": [{"id": 1998601, "title": "In bed with Madonna = Truth or dare", "work_id": 93945, "role": "co-producer", "role_id": 915, "is_primary": true}], "also_known_as": "", "date_of_birth": null, "date_of_death": null, "genders": [], "languages": [], "places_of_operation": [], "biography": "", "biography_author": null, "date_of_biography": null, "external_links": [], "uuid": "65b616ff-643e-42f4-8589-2f7a557df761", "source": {"name": "Vernon", "slug": "vernon"}, "source_identifier": null, "external_references": [{"id": 32931, "source": {"name": "Wikidata", "slug": "wikidata"}, "source_identifier": "Q121036885"}], "date_modified": "2023-09-06T01:50:08.353104+10:00"}, {"id": 80545, "name": "Argyle-Wise", "roles_in_work": [{"id": 1998590, "title": "The Sand pebbles", "work_id": 93941, "role": "producer", "role_id": 1089, "is_primary": true}], "also_known_as": "", "date_of_birth": null, "date_of_death": null, "genders": [], "languages": [], "places_of_operation": [], "biography": "", "biography_author": null, "date_of_biography": null, "external_links": [], "uuid": "e18db1e2-0521-41d8-a920-b4ecade5e1aa", "source": {"name": "Vernon", "slug": "vernon"}, "source_identifier": null, "external_references": [{"id": 43274, "source": {"name": "Wikidata", "slug": "wikidata"}, "source_identifier": "Q121271050"}], "date_modified": "2023-09-05T17:43:52.535857+10:00"}, {"id": 80544, "name": "Nicholas Bufalo", "roles_in_work": [{"id": 924627, "title": "The Wiggles: Wiggle Bay", "work_id": 93938, "role": "director", "role_id": 938, "is_primary": true}], "also_known_as": "", "date_of_birth": null, "date_of_death": null, "genders": [], "languages": [], "places_of_operation": [], "biography": "", "biography_author": null, "date_of_biography": null, "external_links": [], "uuid": "e3e39028-b4eb-4260-994f-c23aec2d9cd4", "source": {"name": "Vernon", "slug": "vernon"}, "source_identifier": null, "external_references": [{"id": 41265, "source": {"name": "Wikidata", "slug": "wikidata"}, "source_identifier": "Q121299075"}], "date_modified": "2023-09-05T23:29:04.233579+10:00"}]}