{"count": 28687, "next": "https://api.acmi.net.au/creators/?page=68", "previous": "https://api.acmi.net.au/creators/?page=66", "results": [{"id": 86600, "name": "Sioux Dollman", "roles_in_work": [{"id": 3107730, "title": "Cyberthon V: Spectrum 3 - Yellow", "work_id": 118005, "role": "props", "role_id": 238, "is_primary": false}, {"id": 3107758, "title": "Cyberthon V: Spectrum 4 - Green", "work_id": 117985, "role": "props", "role_id": 238, "is_primary": false}], "also_known_as": "", "date_of_birth": "", "date_of_death": "", "genders": [], "languages": [], "places_of_operation": [], "biography": "", "biography_author": null, "date_of_biography": "2023-08-30T03:37:09.871607+10:00", "external_links": [], "uuid": "575d1840-fd2d-4bcd-ad59-808ea029a462", "source": {"name": "Vernon", "slug": "vernon"}, "source_identifier": "40179", "external_references": [], "date_modified": "2025-09-08T09:25:03.497877+10:00"}, {"id": 86599, "name": "E Fitzsimmons", "roles_in_work": [{"id": 3107753, "title": "Cyberthon V: Spectrum 4 - Green", "work_id": 117985, "role": "camera operator", "role_id": 931, "is_primary": false}], "also_known_as": "", "date_of_birth": "", "date_of_death": "", "genders": [], "languages": [], "places_of_operation": [], "biography": "", "biography_author": null, "date_of_biography": "2023-08-30T03:35:37.692290+10:00", "external_links": [], "uuid": "e5415cfd-7af6-4b06-a7f7-9be330c8762b", "source": {"name": "Vernon", "slug": "vernon"}, "source_identifier": "40425", "external_references": [{"id": 51089, "source": {"name": "Wikidata", "slug": "wikidata"}, "source_identifier": "Q121361086"}], "date_modified": "2025-09-08T09:25:00.228913+10:00"}, {"id": 86598, "name": "Henry Ginsberg", "roles_in_work": [{"id": 1838303, "title": "Giant", "work_id": 83861, "role": "co-producer", "role_id": 915, "is_primary": true}], "also_known_as": "", "date_of_birth": null, "date_of_death": null, "genders": [], "languages": [], "places_of_operation": [], "biography": "", "biography_author": null, "date_of_biography": null, "external_links": [], "uuid": "aa212c4b-20e8-4939-b432-f8b45e0cd1c5", "source": {"name": "Vernon", "slug": "vernon"}, "source_identifier": null, "external_references": [], "date_modified": "2023-06-14T16:33:30.576250+10:00"}, {"id": 86597, "name": "Adam Mosseri", "roles_in_work": [{"id": 2474417, "title": "Head of Instagram scrambles after backlash", "work_id": 120396, "role": "creator", "role_id": 968, "is_primary": true}], "also_known_as": "", "date_of_birth": "", "date_of_death": "", "genders": [{"id": 9, "name": "Male", "slug": "male"}], "languages": [], "places_of_operation": [], "biography": "Head of Instagram", "biography_author": null, "date_of_biography": "2023-08-16T04:08:47.882068+10:00", "external_links": [], "uuid": "e49131e6-197d-4467-b48b-01b9409d8c9e", "source": {"name": "Vernon", "slug": "vernon"}, "source_identifier": "40423", "external_references": [], "date_modified": "2023-08-16T04:08:47.882308+10:00"}, {"id": 86522, "name": "Otis Hope Carey", "roles_in_work": [{"id": 2720095, "title": "Thor meditation robe costume", "work_id": 120372, "role": "artist", "role_id": 505, "is_primary": true}], "also_known_as": "", "date_of_birth": "", "date_of_death": "", "genders": [], "languages": [], "places_of_operation": [], "biography": "", "biography_author": null, "date_of_biography": "2023-08-02T10:23:03.099087+10:00", "external_links": [], "uuid": "9228e6b5-b287-45da-8856-dc7828f8896b", "source": {"name": "Vernon", "slug": "vernon"}, "source_identifier": "40409", "external_references": [], "date_modified": "2025-03-12T07:08:10.832458+11:00"}, {"id": 86521, "name": "Hung Tran", "roles_in_work": [{"id": 2727899, "title": "Why did we fight?: the experience of a Vietnamese Veteran", "work_id": 120356, "role": "creator", "role_id": 968, "is_primary": true}], "also_known_as": "", "date_of_birth": "", "date_of_death": "", "genders": [], "languages": [], "places_of_operation": [], "biography": "", "biography_author": null, "date_of_biography": "2023-08-30T04:24:20.092937+10:00", "external_links": [], "uuid": "889ff820-73ce-4808-b6e2-8290925fe094", "source": {"name": "Vernon", "slug": "vernon"}, "source_identifier": "37066", "external_references": [], "date_modified": "2025-03-12T08:30:48.218119+11:00"}, {"id": 86520, "name": "Keith Paris", "roles_in_work": [{"id": 2727891, "title": "On borrowed time", "work_id": 120355, "role": "creator", "role_id": 968, "is_primary": true}], "also_known_as": "", "date_of_birth": "", "date_of_death": "", "genders": [], "languages": [], "places_of_operation": [], "biography": "", "biography_author": null, "date_of_biography": "2023-08-30T04:24:11.956792+10:00", "external_links": [], "uuid": "c93fc94c-e0e0-403b-b7a4-c92d96727535", "source": {"name": "Vernon", "slug": "vernon"}, "source_identifier": "37065", "external_references": [], "date_modified": "2025-03-12T08:30:40.397333+11:00"}, {"id": 86519, "name": "Patrick Bourke", "roles_in_work": [{"id": 2728408, "title": "An interview with Patrick Bourke", "work_id": 120354, "role": "interviewee", "role_id": 496, "is_primary": false}], "also_known_as": "", "date_of_birth": "", "date_of_death": "", "genders": [{"id": 9, "name": "Male", "slug": "male"}], "languages": [], "places_of_operation": [], "biography": "", "biography_author": null, "date_of_biography": "2023-08-30T04:30:41.352781+10:00", "external_links": [], "uuid": "80b520b9-1e02-4f58-bfa7-e8fe2d8a8ecf", "source": {"name": "Vernon", "slug": "vernon"}, "source_identifier": "36871", "external_references": [], "date_modified": "2025-03-12T08:36:54.623426+11:00"}, {"id": 86517, "name": "Zebracorn Creations", "roles_in_work": [{"id": 3106192, "title": "Soft toy pig from Unpacking", "work_id": 120352, "role": "maker", "role_id": 657, "is_primary": false}], "also_known_as": "", "date_of_birth": "", "date_of_death": "", "genders": [], "languages": [], "places_of_operation": [], "biography": "", "biography_author": null, "date_of_biography": "2023-05-09T19:02:53.720534+10:00", "external_links": [], "uuid": "06b3b0e0-e2a5-474a-8e45-da15c83dd343", "source": {"name": "Vernon", "slug": "vernon"}, "source_identifier": "40372", "external_references": [], "date_modified": "2025-06-20T12:36:00.182111+10:00"}, {"id": 86511, "name": "Izzy Gramp", "roles_in_work": [{"id": 2728484, "title": "Competitive Catacombs of Solaris at Bar SK", "work_id": 120346, "role": "photographer", "role_id": 440, "is_primary": false}, {"id": 2728483, "title": "Competitive Catacombs of Solaris at Bar SK", "work_id": 120345, "role": "photographer", "role_id": 440, "is_primary": false}], "also_known_as": "", "date_of_birth": "", "date_of_death": "", "genders": [], "languages": [], "places_of_operation": [], "biography": "", "biography_author": null, "date_of_biography": "2023-08-30T04:31:52.643754+10:00", "external_links": [], "uuid": "66fa83d6-f0df-4a30-8652-ab1cc30f31f1", "source": {"name": "Vernon", "slug": "vernon"}, "source_identifier": "40380", "external_references": [], "date_modified": "2025-03-12T08:38:02.422209+11:00"}]}