{"count": 28684, "next": "https://api.acmi.net.au/creators/?page=74", "previous": "https://api.acmi.net.au/creators/?page=72", "results": [{"id": 86389, "name": "JMW Turner", "roles_in_work": [{"id": 2718055, "title": "Light and Colour (Goethe’s Theory) - the Morning after the Deluge - Moses Writing the Book of Genesis", "work_id": 120218, "role": "artist", "role_id": 505, "is_primary": true}, {"id": 2718058, "title": "Shade and Darkness - the Evening of the Deluge", "work_id": 120219, "role": "artist", "role_id": 505, "is_primary": true}, {"id": 2718974, "title": "Lecture Diagram: Reflections in Two Transparent Globes Part of II. Various Perspective Diagrams", "work_id": 120217, "role": "artist", "role_id": 505, "is_primary": true}, {"id": 2718060, "title": "Sun Setting over a Lake", "work_id": 120220, "role": "artist", "role_id": 505, "is_primary": true}, {"id": 2718053, "title": "Lecture Diagram: Reflections in a Single Polished Metal Globe and in a Pair of Polished Metal Globes\nPart of II. Various Perspective Diagrams", "work_id": 120212, "role": "artist", "role_id": 505, "is_primary": true}, {"id": 2718968, "title": "Lecture Diagram: Reflections in a Transparent Globe\nPart of II. Various Perspective Diagrams", "work_id": 120216, "role": "artist", "role_id": 505, "is_primary": true}, {"id": 2718981, "title": "Lecture Diagram: Reflections in Two Transparent Globes c.1810  Lecture Diagram: Reflections and Refractions in a Transparent Globe Half-Filled with Water c.1810  Lecture Diagram: Reflections in a Tra…", "work_id": 120214, "role": "artist", "role_id": 505, "is_primary": true}, {"id": 2718964, "title": "Lecture Diagram: Reflections and Refractions in a Transparent Globe Half-Filled with Water\nPart of II. Various Perspective Diagrams", "work_id": 120215, "role": "artist", "role_id": 505, "is_primary": true}, {"id": 2718017, "title": "The Angel Standing in the Sun", "work_id": 120211, "role": "artist", "role_id": 505, "is_primary": true}, {"id": 2718040, "title": "The Deluge", "work_id": 120195, "role": "artist", "role_id": 505, "is_primary": true}], "also_known_as": "", "date_of_birth": "1775", "date_of_death": "1851", "genders": [], "languages": [], "places_of_operation": [], "biography": "", "biography_author": null, "date_of_biography": "2023-08-14T13:04:26.589002+10:00", "external_links": [], "uuid": "59131de4-2290-44b7-9a70-9b2972da2d38", "source": {"name": "Vernon", "slug": "vernon"}, "source_identifier": "40302", "external_references": [], "date_modified": "2025-03-12T06:47:42.695241+11:00"}, {"id": 86388, "name": "Maurice Amar", "roles_in_work": [{"id": 2516071, "title": "Raga Doll", "work_id": 120189, "role": "photographer", "role_id": 440, "is_primary": false}, {"id": 2516070, "title": "Raga Doll", "work_id": 120189, "role": "producer", "role_id": 1089, "is_primary": true}], "also_known_as": "", "date_of_birth": "", "date_of_death": "", "genders": [], "languages": [], "places_of_operation": [], "biography": "", "biography_author": null, "date_of_biography": "2023-07-05T03:57:26.253137+10:00", "external_links": [], "uuid": "3e7a16c0-82f8-4e56-bcbc-a3ebe43b6f5b", "source": {"name": "Vernon", "slug": "vernon"}, "source_identifier": "39110", "external_references": [{"id": 36534, "source": {"name": "Wikidata", "slug": "wikidata"}, "source_identifier": "Q121337407"}], "date_modified": "2024-04-10T05:01:23.061252+10:00"}, {"id": 86387, "name": "Frank Eidlitz", "roles_in_work": [{"id": 2516075, "title": "NBC", "work_id": 120185, "role": "creator", "role_id": 968, "is_primary": true}, {"id": 2516066, "title": "Calder", "work_id": 120190, "role": "creator", "role_id": 968, "is_primary": true}, {"id": 2516067, "title": "Gyorgy Kepes", "work_id": 120188, "role": "creator", "role_id": 968, "is_primary": true}, {"id": 2516068, "title": "Light", "work_id": 120192, "role": "creator", "role_id": 968, "is_primary": true}, {"id": 2516072, "title": "Brett Whiteley", "work_id": 120193, "role": "creator", "role_id": 968, "is_primary": true}, {"id": 2516073, "title": "Ekta", "work_id": 120191, "role": "creator", "role_id": 968, "is_primary": true}, {"id": 2516074, "title": "Frank Eidlitz Design Centre", "work_id": 120187, "role": "creator", "role_id": 968, "is_primary": true}, {"id": 2516076, "title": "Raga shadow", "work_id": 120186, "role": "creator", "role_id": 968, "is_primary": true}, {"id": 2516077, "title": "Frank Eidlitz Collection", "work_id": 120184, "role": "creator", "role_id": 968, "is_primary": true}, {"id": 2516069, "title": "Raga Doll", "work_id": 120189, "role": "producer", "role_id": 1089, "is_primary": true}], "also_known_as": "", "date_of_birth": "1923", "date_of_death": "1997", "genders": [{"id": 9, "name": "Male", "slug": "male"}], "languages": [], "places_of_operation": [], "biography": "", "biography_author": null, "date_of_biography": "2023-07-05T03:57:35.650045+10:00", "external_links": [], "uuid": "ba3bac84-7921-471b-9d8a-ecb29e4814e2", "source": {"name": "Vernon", "slug": "vernon"}, "source_identifier": "38537", "external_references": [], "date_modified": "2024-04-10T05:01:54.378912+10:00"}, {"id": 86386, "name": "Arum Natzorkhang", "roles_in_work": [{"id": 2718905, "title": "Only 3000 BC kids remember", "work_id": 120180, "role": "creator", "role_id": 968, "is_primary": true}], "also_known_as": "", "date_of_birth": "", "date_of_death": "", "genders": [], "languages": [], "places_of_operation": [], "biography": "", "biography_author": null, "date_of_biography": "2023-08-16T04:08:37.394653+10:00", "external_links": [], "uuid": "8ac7cdc4-7d08-4465-ac2e-344a0d2a89a1", "source": {"name": "Vernon", "slug": "vernon"}, "source_identifier": "40358", "external_references": [], "date_modified": "2025-03-12T06:44:41.699808+11:00"}, {"id": 86362, "name": "Geoff Reeve Films & Television Ltd.", "roles_in_work": [{"id": 1985969, "title": "The Shooting party", "work_id": 81678, "role": "production company", "role_id": 941, "is_primary": true}], "also_known_as": "", "date_of_birth": null, "date_of_death": null, "genders": [], "languages": [], "places_of_operation": [], "biography": "", "biography_author": null, "date_of_biography": null, "external_links": [], "uuid": "1ac134e2-70fe-4c16-8c27-ee4163d88e9e", "source": {"name": "Vernon", "slug": "vernon"}, "source_identifier": null, "external_references": [{"id": 35610, "source": {"name": "Wikidata", "slug": "wikidata"}, "source_identifier": "Q121126976"}], "date_modified": "2023-09-05T20:02:02.223600+10:00"}, {"id": 86313, "name": "Andrew Gleeson", "roles_in_work": [{"id": 2716976, "title": "HYPER//ECHO", "work_id": 120097, "role": "artist", "role_id": 505, "is_primary": true}], "also_known_as": "", "date_of_birth": "", "date_of_death": "", "genders": [], "languages": [], "places_of_operation": [], "biography": "", "biography_author": null, "date_of_biography": "2023-06-21T03:41:11.220658+10:00", "external_links": [], "uuid": "eae28abe-c49a-4b57-9fc8-9c27579136b0", "source": {"name": "Vernon", "slug": "vernon"}, "source_identifier": "40347", "external_references": [], "date_modified": "2025-03-12T05:35:29.098467+11:00"}, {"id": 86312, "name": "Cecile Richard", "roles_in_work": [{"id": 2716974, "title": "HYPER//ECHO", "work_id": 120097, "role": "artist", "role_id": 505, "is_primary": true}], "also_known_as": "", "date_of_birth": "", "date_of_death": "", "genders": [], "languages": [], "places_of_operation": [], "biography": "", "biography_author": null, "date_of_biography": "2023-06-21T03:41:11.002389+10:00", "external_links": [], "uuid": "66a4dc65-9a19-496e-a9b3-6bcc75f3e37c", "source": {"name": "Vernon", "slug": "vernon"}, "source_identifier": "40346", "external_references": [], "date_modified": "2025-03-12T05:35:23.078697+11:00"}, {"id": 86311, "name": "Samantha Andrew", "roles_in_work": [{"id": 2719171, "title": "MET GALA REVIEW: Chaotic Australian Edition", "work_id": 120167, "role": "creator", "role_id": 968, "is_primary": true}], "also_known_as": "", "date_of_birth": "", "date_of_death": "", "genders": [{"id": 5, "name": "Female", "slug": "female"}], "languages": [], "places_of_operation": [], "biography": "", "biography_author": null, "date_of_biography": "2023-08-16T04:08:33.977186+10:00", "external_links": [], "uuid": "a10020aa-a90e-4c94-ae48-0ae36ac72c18", "source": {"name": "Vernon", "slug": "vernon"}, "source_identifier": "40334", "external_references": [], "date_modified": "2025-03-12T06:56:03.616517+11:00"}, {"id": 86310, "name": "William Green", "roles_in_work": [{"id": 2716534, "title": "Caricature of Max Walker (Tangles) Bowling with CD-ROM", "work_id": 120166, "role": "artist", "role_id": 505, "is_primary": true}], "also_known_as": "", "date_of_birth": "", "date_of_death": "", "genders": [], "languages": [], "places_of_operation": [], "biography": "", "biography_author": null, "date_of_biography": "2023-05-09T13:18:31.192566+10:00", "external_links": [], "uuid": "da25b5aa-0cb6-4587-882e-fe5ed58180fd", "source": {"name": "Vernon", "slug": "vernon"}, "source_identifier": "40101", "external_references": [], "date_modified": "2025-03-12T02:09:42.014581+11:00"}, {"id": 86309, "name": "Alex Walker", "roles_in_work": [{"id": 2716530, "title": "\"All Stitched Up\" Max Walker's Maximum Infotainment CD-ROM", "work_id": 120165, "role": "donor", "role_id": 606, "is_primary": false}, {"id": 2716536, "title": "Caricature of Max Walker (Tangles) Bowling with CD-ROM", "work_id": 120166, "role": "donor", "role_id": 606, "is_primary": false}], "also_known_as": "", "date_of_birth": "1991", "date_of_death": "", "genders": [{"id": 5, "name": "Female", "slug": "female"}], "languages": [], "places_of_operation": [], "biography": "", "biography_author": null, "date_of_biography": "2023-05-09T13:18:31.434683+10:00", "external_links": [], "uuid": "c9c5d73c-1e0b-4e46-b85c-7f68840042da", "source": {"name": "Vernon", "slug": "vernon"}, "source_identifier": "40020", "external_references": [], "date_modified": "2025-03-12T02:09:42.607263+11:00"}]}