{"count": 28687, "next": "https://api.acmi.net.au/creators/?page=2231", "previous": "https://api.acmi.net.au/creators/?page=2229", "results": [{"id": 18082, "name": "Zzoommovies", "roles_in_work": [{"id": 2075341, "title": "A Stone in the bush", "work_id": 73205, "role": "production company", "role_id": 941, "is_primary": true}], "also_known_as": "", "date_of_birth": "", "date_of_death": "", "genders": [], "languages": [], "places_of_operation": [], "biography": "", "biography_author": null, "date_of_biography": "2023-05-09T11:39:53.786726+10:00", "external_links": [], "uuid": "40fc0e93-077d-4587-b614-7a89b20e3dea", "source": {"name": "Vernon", "slug": "vernon"}, "source_identifier": "14575", "external_references": [{"id": 43213, "source": {"name": "Wikidata", "slug": "wikidata"}, "source_identifier": "Q121035032"}], "date_modified": "2023-09-06T02:27:32.782621+10:00"}, {"id": 18081, "name": "Robert J McCarty", "roles_in_work": [{"id": 2646420, "title": "Steve and Kathy", "work_id": 73196, "role": "director", "role_id": 938, "is_primary": true}], "also_known_as": "", "date_of_birth": null, "date_of_death": null, "genders": [], "languages": [], "places_of_operation": [], "biography": "", "biography_author": null, "date_of_biography": null, "external_links": [], "uuid": "7da12766-9554-496c-b1da-b1964c35e205", "source": {"name": "Vernon", "slug": "vernon"}, "source_identifier": "27773", "external_references": [], "date_modified": "2025-03-05T13:05:01.425424+11:00"}, {"id": 18080, "name": "Ben Maddow", "roles_in_work": [{"id": 2406768, "title": "Emotions of everyday living: the steps of age", "work_id": 73194, "role": "director", "role_id": 938, "is_primary": true}], "also_known_as": "", "date_of_birth": "", "date_of_death": "", "genders": [], "languages": [], "places_of_operation": [], "biography": "", "biography_author": null, "date_of_biography": "2023-08-11T16:21:16.157191+10:00", "external_links": [], "uuid": "2e89b24e-800c-4415-b109-66c246c14807", "source": {"name": "Vernon", "slug": "vernon"}, "source_identifier": "15792", "external_references": [], "date_modified": "2023-08-11T16:21:16.157420+10:00"}, {"id": 18079, "name": "Film Documents", "roles_in_work": [{"id": 2406766, "title": "Emotions of everyday living: the steps of age", "work_id": 73194, "role": "production company", "role_id": 941, "is_primary": true}], "also_known_as": "", "date_of_birth": "", "date_of_death": "", "genders": [], "languages": [], "places_of_operation": [], "biography": "", "biography_author": null, "date_of_biography": "2023-08-11T16:21:14.873702+10:00", "external_links": [], "uuid": "94e3831b-1614-4d63-aa0a-fcf0ca9ad196", "source": {"name": "Vernon", "slug": "vernon"}, "source_identifier": "8209", "external_references": [], "date_modified": "2023-08-11T16:21:14.873932+10:00"}, {"id": 18078, "name": "Commonwealth Public Service Board", "roles_in_work": [{"id": 2311159, "title": "Stirring the pool", "work_id": 73203, "role": "production company", "role_id": 941, "is_primary": true}, {"id": 754259, "title": "Stephen Banner: supervisor", "work_id": 73193, "role": "production company", "role_id": 941, "is_primary": true}], "also_known_as": "", "date_of_birth": "", "date_of_death": "", "genders": [], "languages": [], "places_of_operation": [], "biography": "", "biography_author": null, "date_of_biography": "2023-05-09T18:57:01.562822+10:00", "external_links": [], "uuid": "64e04e9f-7a73-442c-97f5-75b1ca31ffca", "source": {"name": "Vernon", "slug": "vernon"}, "source_identifier": "6944", "external_references": [{"id": 36346, "source": {"name": "Wikidata", "slug": "wikidata"}, "source_identifier": "Q121034557"}], "date_modified": "2023-09-05T18:44:33.122057+10:00"}, {"id": 18077, "name": "Gary Lindberg", "roles_in_work": [{"id": 2398390, "title": "A Step from the shadows", "work_id": 73192, "role": "director", "role_id": 938, "is_primary": true}], "also_known_as": "", "date_of_birth": "", "date_of_death": "", "genders": [], "languages": [], "places_of_operation": [], "biography": "", "biography_author": null, "date_of_biography": "2023-08-11T13:17:29.949716+10:00", "external_links": [], "uuid": "c5578090-8d87-4151-b965-4ca855a034a0", "source": {"name": "Vernon", "slug": "vernon"}, "source_identifier": "19419", "external_references": [], "date_modified": "2023-08-11T13:17:29.950112+10:00"}, {"id": 18076, "name": "James Michael", "roles_in_work": [{"id": 2398389, "title": "A Step from the shadows", "work_id": 73192, "role": "producer", "role_id": 1089, "is_primary": true}], "also_known_as": "", "date_of_birth": "", "date_of_death": "", "genders": [], "languages": [], "places_of_operation": [], "biography": "", "biography_author": null, "date_of_biography": "2023-08-11T13:17:29.321171+10:00", "external_links": [], "uuid": "9f5eeb9c-bcd2-4425-bb3e-be56b2919d18", "source": {"name": "Vernon", "slug": "vernon"}, "source_identifier": "21289", "external_references": [], "date_modified": "2023-08-11T13:17:29.321469+10:00"}, {"id": 18075, "name": "Russell Manning Productions", "roles_in_work": [{"id": 2398388, "title": "A Step from the shadows", "work_id": 73192, "role": "production company", "role_id": 941, "is_primary": true}], "also_known_as": "", "date_of_birth": "", "date_of_death": "", "genders": [], "languages": [], "places_of_operation": [], "biography": "", "biography_author": null, "date_of_biography": "2023-08-11T13:17:28.690669+10:00", "external_links": [], "uuid": "017e8adb-e274-4944-b908-5c3f0d880574", "source": {"name": "Vernon", "slug": "vernon"}, "source_identifier": "12187", "external_references": [], "date_modified": "2023-08-11T13:17:28.690974+10:00"}, {"id": 18074, "name": "United States. Army. Office of Education", "roles_in_work": [{"id": 2756354, "title": "Steering, wheels, front and rear axles", "work_id": 73191, "role": "production company", "role_id": 941, "is_primary": true}], "also_known_as": "", "date_of_birth": "", "date_of_death": "", "genders": [], "languages": [], "places_of_operation": [], "biography": "", "biography_author": null, "date_of_biography": "2023-08-14T10:51:51.876344+10:00", "external_links": [], "uuid": "bd737601-9fe8-42cb-8851-60cbbb67ddaf", "source": {"name": "Vernon", "slug": "vernon"}, "source_identifier": "13956", "external_references": [], "date_modified": "2025-03-13T14:39:42.429541+11:00"}, {"id": 18073, "name": "A. Frank Bundy", "roles_in_work": [{"id": 877933, "title": "Asphalt Lake", "work_id": 90982, "role": "director", "role_id": 938, "is_primary": true}, {"id": 878245, "title": "Petroleum", "work_id": 91169, "role": "director", "role_id": 938, "is_primary": true}, {"id": 862468, "title": "Campanians", "work_id": 76321, "role": "director", "role_id": 938, "is_primary": true}, {"id": 2309826, "title": "Steel challenge", "work_id": 73186, "role": "co-producer", "role_id": 915, "is_primary": true}, {"id": 2766472, "title": "Why tractors overturn", "work_id": 74744, "role": "producer", "role_id": 1089, "is_primary": true}, {"id": 1814807, "title": "Escape from the sea", "work_id": 90182, "role": "producer", "role_id": 1089, "is_primary": true}, {"id": 1811738, "title": "Stone into steel", "work_id": 73206, "role": "producer", "role_id": 1089, "is_primary": true}, {"id": 1807865, "title": "Out of the forest", "work_id": 91226, "role": "producer", "role_id": 1089, "is_primary": true}, {"id": 1806233, "title": "Beef business", "work_id": 90987, "role": "producer", "role_id": 1089, "is_primary": true}], "also_known_as": "", "date_of_birth": "", "date_of_death": "", "genders": [], "languages": [], "places_of_operation": [], "biography": "", "biography_author": null, "date_of_biography": "2023-05-09T18:51:03.322247+10:00", "external_links": [], "uuid": "382361f2-c4fe-4e5f-a1eb-d1b2341f1ce4", "source": {"name": "Vernon", "slug": "vernon"}, "source_identifier": "14589", "external_references": [{"id": 35599, "source": {"name": "Wikidata", "slug": "wikidata"}, "source_identifier": "Q121315596"}], "date_modified": "2023-09-05T17:13:49.629609+10:00"}]}