{"count": 28682, "next": "https://api.acmi.net.au/creators/?page=223", "previous": "https://api.acmi.net.au/creators/?page=221", "results": [{"id": 83383, "name": "Mens Line Australia", "roles_in_work": [{"id": 2316546, "title": "From the beginning to the resistances", "work_id": 116597, "role": "partner", "role_id": 575, "is_primary": false}, {"id": 2316483, "title": "Buddurri Healing", "work_id": 116595, "role": "partner", "role_id": 575, "is_primary": false}, {"id": 2316606, "title": "Streets of Fitzroy [Subtitled]", "work_id": 116602, "role": "partner", "role_id": 575, "is_primary": false}, {"id": 2316682, "title": "Men's voices : Digital Storytelling project (Indigenous men)", "work_id": 116594, "role": "partner", "role_id": 575, "is_primary": false}, {"id": 2316524, "title": "Contentment", "work_id": 116596, "role": "partner", "role_id": 575, "is_primary": false}, {"id": 2316566, "title": "Leaving My Country", "work_id": 116599, "role": "partner", "role_id": 575, "is_primary": false}, {"id": 2316657, "title": "[Untitled]", "work_id": 116605, "role": "partner", "role_id": 575, "is_primary": false}, {"id": 2316639, "title": "Strong and Proud", "work_id": 116604, "role": "partner", "role_id": 575, "is_primary": false}, {"id": 2316620, "title": "Streets of Fitzroy", "work_id": 116603, "role": "partner", "role_id": 575, "is_primary": false}, {"id": 2316667, "title": "[Untitled]", "work_id": 116606, "role": "partner", "role_id": 575, "is_primary": false}, {"id": 2316582, "title": "Robert's story [Subtitled]", "work_id": 116600, "role": "partner", "role_id": 575, "is_primary": false}, {"id": 2316556, "title": "I'm home", "work_id": 116598, "role": "partner", "role_id": 575, "is_primary": false}, {"id": 2316593, "title": "Robert's story", "work_id": 116601, "role": "partner", "role_id": 575, "is_primary": false}, {"id": 2287191, "title": "Little journey", "work_id": 116578, "role": "partner", "role_id": 575, "is_primary": false}, {"id": 2301995, "title": "A Different type of game", "work_id": 116584, "role": "partner", "role_id": 575, "is_primary": false}, {"id": 2302041, "title": "My dad", "work_id": 116585, "role": "partner", "role_id": 575, "is_primary": false}, {"id": 2302010, "title": "Read this title", "work_id": 116588, "role": "partner", "role_id": 575, "is_primary": false}, {"id": 2301896, "title": "Waiting to laugh", "work_id": 116592, "role": "partner", "role_id": 575, "is_primary": false}, {"id": 2287251, "title": "I left my country", "work_id": 116574, "role": "partner", "role_id": 575, "is_primary": false}, {"id": 2287127, "title": "Men's voices: Digital Storytelling project (Vietnamese men)", "work_id": 116570, "role": "partner", "role_id": 575, "is_primary": false}, {"id": 2301977, "title": "Sister", "work_id": 116590, "role": "partner", "role_id": 575, "is_primary": false}, {"id": 2287347, "title": "Australia - my chosen home", "work_id": 116572, "role": "partner", "role_id": 575, "is_primary": false}, {"id": 2287369, "title": "A Life in community", "work_id": 116577, "role": "partner", "role_id": 575, "is_primary": false}, {"id": 2287232, "title": "About my dad", "work_id": 116571, "role": "partner", "role_id": 575, "is_primary": false}, {"id": 2301938, "title": "My Scar", "work_id": 116587, "role": "partner", "role_id": 575, "is_primary": false}, {"id": 2301910, "title": "Men's voices: Digital Storytelling project (Arabic men)", "work_id": 116583, "role": "partner", "role_id": 575, "is_primary": false}, {"id": 2287325, "title": "Two lives", "work_id": 116581, "role": "partner", "role_id": 575, "is_primary": false}, {"id": 2287153, "title": "A Little memory", "work_id": 116579, "role": "partner", "role_id": 575, "is_primary": false}, {"id": 2287212, "title": "Remembering the past and looking forward to the future", "work_id": 116580, "role": "partner", "role_id": 575, "is_primary": false}, {"id": 2287301, "title": "A Journey to a new land", "work_id": 116575, "role": "partner", "role_id": 575, "is_primary": false}, {"id": 2301874, "title": "The Ties that bind", "work_id": 116591, "role": "partner", "role_id": 575, "is_primary": false}, {"id": 2287274, "title": "China tour", "work_id": 116573, "role": "partner", "role_id": 575, "is_primary": false}, {"id": 2301959, "title": "My life to study", "work_id": 116586, "role": "partner", "role_id": 575, "is_primary": false}, {"id": 2287171, "title": "A Journey to freedom", "work_id": 116576, "role": "partner", "role_id": 575, "is_primary": false}, {"id": 2302028, "title": "The Shining black star", "work_id": 116589, "role": "partner", "role_id": 575, "is_primary": false}], "also_known_as": "", "date_of_birth": "", "date_of_death": "", "genders": [], "languages": [], "places_of_operation": [], "biography": "", "biography_author": null, "date_of_biography": "2023-05-09T19:05:33.939092+10:00", "external_links": [], "uuid": "0fd79f59-20c0-47eb-8436-c1b3b470876e", "source": {"name": "Vernon", "slug": "vernon"}, "source_identifier": "33791", "external_references": [], "date_modified": "2023-06-14T16:33:30.576250+10:00"}, {"id": 83382, "name": "Imparja Television", "roles_in_work": [{"id": 2254056, "title": "Rosalie's journey", "work_id": 116562, "role": "funding", "role_id": 609, "is_primary": false}], "also_known_as": "", "date_of_birth": "", "date_of_death": "", "genders": [], "languages": [], "places_of_operation": [], "biography": "", "biography_author": null, "date_of_biography": "2023-05-09T17:15:04.816225+10:00", "external_links": [], "uuid": "241e6e76-3855-401a-b5d4-3b9d55132dbd", "source": {"name": "Vernon", "slug": "vernon"}, "source_identifier": "110872", "external_references": [], "date_modified": "2023-06-14T16:33:30.576250+10:00"}, {"id": 83381, "name": "Duaa Mahmoud", "roles_in_work": [{"id": 2290438, "title": "Yodit and I", "work_id": 116561, "role": "creator", "role_id": 968, "is_primary": true}], "also_known_as": "", "date_of_birth": "", "date_of_death": "", "genders": [{"id": 5, "name": "Female", "slug": "female"}], "languages": [], "places_of_operation": [], "biography": "", "biography_author": null, "date_of_biography": "2023-05-09T18:18:21.672277+10:00", "external_links": [], "uuid": "7b4e45cd-2e0d-47f2-9b6d-a9e47e537343", "source": {"name": "Vernon", "slug": "vernon"}, "source_identifier": "33735", "external_references": [], "date_modified": "2023-06-14T16:33:30.576250+10:00"}, {"id": 83380, "name": "Elinor Moshe", "roles_in_work": [{"id": 2290537, "title": "Two worlds: one me", "work_id": 116560, "role": "creator", "role_id": 968, "is_primary": true}], "also_known_as": "", "date_of_birth": "", "date_of_death": "", "genders": [{"id": 5, "name": "Female", "slug": "female"}], "languages": [], "places_of_operation": [], "biography": "", "biography_author": null, "date_of_biography": "2023-05-09T18:18:30.221134+10:00", "external_links": [], "uuid": "ae850f77-ad57-4104-ad3b-7006a12b637e", "source": {"name": "Vernon", "slug": "vernon"}, "source_identifier": "33738", "external_references": [], "date_modified": "2023-06-14T16:33:30.576250+10:00"}, {"id": 83379, "name": "Thuy Tran", "roles_in_work": [{"id": 2290738, "title": "The Tran family", "work_id": 116559, "role": "creator", "role_id": 968, "is_primary": true}], "also_known_as": "", "date_of_birth": "", "date_of_death": "", "genders": [{"id": 5, "name": "Female", "slug": "female"}], "languages": [], "places_of_operation": [], "biography": "", "biography_author": null, "date_of_biography": "2023-05-09T18:18:49.203705+10:00", "external_links": [], "uuid": "08607ff6-670c-4c53-8dba-1f13f46b5b0e", "source": {"name": "Vernon", "slug": "vernon"}, "source_identifier": "33736", "external_references": [], "date_modified": "2023-06-14T16:33:30.576250+10:00"}, {"id": 83378, "name": "Stacey Fischer", "roles_in_work": [{"id": 2290835, "title": "Second reality", "work_id": 116558, "role": "creator", "role_id": 968, "is_primary": true}], "also_known_as": "", "date_of_birth": "", "date_of_death": "", "genders": [{"id": 5, "name": "Female", "slug": "female"}], "languages": [], "places_of_operation": [], "biography": "", "biography_author": null, "date_of_biography": "2023-05-09T18:18:55.423961+10:00", "external_links": [], "uuid": "77bb5a8e-274a-4f05-a41a-33a598687530", "source": {"name": "Vernon", "slug": "vernon"}, "source_identifier": "33730", "external_references": [], "date_modified": "2023-06-14T16:33:30.576250+10:00"}, {"id": 83377, "name": "Vivian Tran", "roles_in_work": [{"id": 2290804, "title": "A Sad realisation", "work_id": 116557, "role": "creator", "role_id": 968, "is_primary": true}], "also_known_as": "", "date_of_birth": "", "date_of_death": "", "genders": [{"id": 5, "name": "Female", "slug": "female"}], "languages": [], "places_of_operation": [], "biography": "", "biography_author": null, "date_of_biography": "2023-05-09T18:18:53.276344+10:00", "external_links": [], "uuid": "c3aae241-09e8-43f2-b43f-b30bd6a381b3", "source": {"name": "Vernon", "slug": "vernon"}, "source_identifier": "33734", "external_references": [], "date_modified": "2023-06-14T16:33:30.576250+10:00"}, {"id": 83376, "name": "Olivia Jackson", "roles_in_work": [{"id": 2290563, "title": "Out of range", "work_id": 116556, "role": "creator", "role_id": 968, "is_primary": true}], "also_known_as": "", "date_of_birth": "", "date_of_death": "", "genders": [{"id": 5, "name": "Female", "slug": "female"}], "languages": [], "places_of_operation": [], "biography": "", "biography_author": null, "date_of_biography": "2023-05-09T18:18:32.732799+10:00", "external_links": [], "uuid": "e94481ec-1a06-4f4d-86fc-64f1fdbd04a6", "source": {"name": "Vernon", "slug": "vernon"}, "source_identifier": "33733", "external_references": [], "date_modified": "2023-06-14T16:33:30.576250+10:00"}, {"id": 83375, "name": "Louise Bryant", "roles_in_work": [{"id": 2290511, "title": "My first year", "work_id": 116555, "role": "creator", "role_id": 968, "is_primary": true}], "also_known_as": "", "date_of_birth": "", "date_of_death": "", "genders": [{"id": 5, "name": "Female", "slug": "female"}], "languages": [], "places_of_operation": [], "biography": "", "biography_author": null, "date_of_biography": "2023-05-09T18:18:27.829078+10:00", "external_links": [], "uuid": "c3b9683f-e2f7-4a41-9795-1adc181c1d8b", "source": {"name": "Vernon", "slug": "vernon"}, "source_identifier": "33728", "external_references": [], "date_modified": "2023-06-14T16:33:30.576250+10:00"}, {"id": 83374, "name": "Peter Ngo", "roles_in_work": [{"id": 2290711, "title": "iFavourite", "work_id": 116554, "role": "creator", "role_id": 968, "is_primary": true}], "also_known_as": "", "date_of_birth": "", "date_of_death": "", "genders": [{"id": 9, "name": "Male", "slug": "male"}], "languages": [], "places_of_operation": [], "biography": "", "biography_author": null, "date_of_biography": "2023-05-09T18:18:46.977998+10:00", "external_links": [], "uuid": "24d480a5-24fd-4ad3-a76b-4378710f71c3", "source": {"name": "Vernon", "slug": "vernon"}, "source_identifier": "33732", "external_references": [], "date_modified": "2023-06-14T16:33:30.576250+10:00"}]}