{"count": 28687, "next": "https://api.acmi.net.au/creators/?page=2228", "previous": "https://api.acmi.net.au/creators/?page=2226", "results": [{"id": 18142, "name": "Anthony Simmons", "roles_in_work": [{"id": 859078, "title": "Sunday by the sea", "work_id": 73367, "role": "director", "role_id": 938, "is_primary": true}, {"id": 799329, "title": "Bow bells", "work_id": 88280, "role": "director", "role_id": 938, "is_primary": true}, {"id": 909578, "title": "The Gentle Corsican", "work_id": 90223, "role": "director", "role_id": 938, "is_primary": true}], "also_known_as": "", "date_of_birth": "1922-12-16", "date_of_death": "2016-01-22", "genders": [{"id": 9, "name": "Male", "slug": "male"}], "languages": [{"id": 1, "name": "English", "slug": "english"}], "places_of_operation": [{"id": 10, "name": "United Kingdom", "slug": "united-kingdom"}], "biography": "Anthony Simmons (16 December 1922 – 22 January 2016) was a British writer and film director. He was associated with, though separate from, the Free Cinema movement; he said he was greatly influenced by Humphrey Jennings and by Michelangelo Antonioni’s movie Il Grido (1957).", "biography_author": "Wikidata", "date_of_biography": "2023-08-01T14:04:47.642988+10:00", "external_links": [{"id": 3574, "uri": "https://en.wikipedia.org/wiki/Anthony_Simmons_(writer)"}], "uuid": "a6135934-2939-49bf-81dd-878c2dfbf1e1", "source": {"name": "Vernon", "slug": "vernon"}, "source_identifier": "15413", "external_references": [{"id": 26619, "source": {"name": "Wikidata", "slug": "wikidata"}, "source_identifier": "Q2852958"}, {"id": 27326, "source": {"name": "VIAF", "slug": "viaf"}, "source_identifier": "79295838"}, {"id": 27327, "source": {"name": "LOC Auth", "slug": "loc-auth"}, "source_identifier": "n88034503"}, {"id": 27328, "source": {"name": "WorldCat", "slug": "worldcat"}, "source_identifier": "lccn-n88034503"}], "date_modified": "2023-09-13T12:28:16.186147+10:00"}, {"id": 18138, "name": "Peter Llewellin", "roles_in_work": [{"id": 2646488, "title": "The Summer before", "work_id": 73355, "role": "producer", "role_id": 1089, "is_primary": true}], "also_known_as": "", "date_of_birth": null, "date_of_death": null, "genders": [], "languages": [], "places_of_operation": [], "biography": "", "biography_author": null, "date_of_biography": null, "external_links": [], "uuid": "0a036c2b-eea3-48d3-b943-76b144b5ab48", "source": {"name": "Vernon", "slug": "vernon"}, "source_identifier": "26616", "external_references": [], "date_modified": "2025-03-05T13:05:48.613088+11:00"}, {"id": 18133, "name": "Joseph March", "roles_in_work": [{"id": 2399914, "title": "An Equation for progress", "work_id": 88621, "role": "producer", "role_id": 1089, "is_primary": true}, {"id": 1809734, "title": "The Stylist", "work_id": 73335, "role": "producer", "role_id": 1089, "is_primary": true}], "also_known_as": "", "date_of_birth": "", "date_of_death": "", "genders": [], "languages": [], "places_of_operation": [], "biography": "", "biography_author": null, "date_of_biography": "2023-08-11T13:55:25.668451+10:00", "external_links": [], "uuid": "de8b1a98-475b-451d-8bcc-00af70294999", "source": {"name": "Vernon", "slug": "vernon"}, "source_identifier": "22736", "external_references": [], "date_modified": "2023-08-11T13:55:25.668708+10:00"}, {"id": 18127, "name": "David Nelson", "roles_in_work": [{"id": 757595, "title": "What is a limit? (TEFC)", "work_id": 74623, "role": "director", "role_id": 938, "is_primary": true}, {"id": 1997400, "title": "Naked states [DVD] (D)", "work_id": 93296, "role": "co-producer", "role_id": 915, "is_primary": true}, {"id": 2646477, "title": "Student activity: a case study on Dial-a-Bus", "work_id": 73322, "role": "producer", "role_id": 1089, "is_primary": true}, {"id": 2231700, "title": "Turning a sphere inside out (TEFC)", "work_id": 75158, "role": "producer", "role_id": 1089, "is_primary": true}], "also_known_as": "", "date_of_birth": "", "date_of_death": "", "genders": [], "languages": [], "places_of_operation": [], "biography": "", "biography_author": null, "date_of_biography": "2023-05-09T16:37:58.568778+10:00", "external_links": [], "uuid": "b286423a-a6fc-4d0f-aa90-79d66298cae7", "source": {"name": "Vernon", "slug": "vernon"}, "source_identifier": "17734", "external_references": [{"id": 36392, "source": {"name": "Wikidata", "slug": "wikidata"}, "source_identifier": "Q121086184"}], "date_modified": "2025-03-05T13:05:40.633458+11:00"}, {"id": 18124, "name": "Peter Baroutis", "roles_in_work": [{"id": 2315956, "title": "Struggle", "work_id": 73319, "role": "co-director", "role_id": 959, "is_primary": true}, {"id": 1803909, "title": "More than words: cartoons", "work_id": 92628, "role": "producer", "role_id": 1089, "is_primary": true}], "also_known_as": "", "date_of_birth": "", "date_of_death": "", "genders": [], "languages": [], "places_of_operation": [], "biography": "", "biography_author": null, "date_of_biography": "2023-05-09T19:04:18.360865+10:00", "external_links": [], "uuid": "52fec547-582c-4cc1-bd8b-6678db32e09b", "source": {"name": "Vernon", "slug": "vernon"}, "source_identifier": "26459", "external_references": [], "date_modified": "2023-06-14T16:33:30.576250+10:00"}, {"id": 18122, "name": "Keith Morris", "roles_in_work": [{"id": 2315948, "title": "Struggle", "work_id": 73319, "role": "producer", "role_id": 1089, "is_primary": true}], "also_known_as": "", "date_of_birth": "", "date_of_death": "", "genders": [], "languages": [], "places_of_operation": [], "biography": "", "biography_author": null, "date_of_biography": "2023-05-09T19:04:17.868059+10:00", "external_links": [], "uuid": "4d403ab6-c60f-4cf0-b383-d106dee4128c", "source": {"name": "Vernon", "slug": "vernon"}, "source_identifier": "23152", "external_references": [{"id": 51195, "source": {"name": "Wikidata", "slug": "wikidata"}, "source_identifier": "Q121357807"}], "date_modified": "2023-09-05T22:03:57.591233+10:00"}, {"id": 18120, "name": "Israel Cancer Association, Division of Health Education", "roles_in_work": [{"id": 2468223, "title": "The String pullers", "work_id": 73306, "role": "production company", "role_id": 941, "is_primary": true}], "also_known_as": "", "date_of_birth": "", "date_of_death": "", "genders": [], "languages": [], "places_of_operation": [], "biography": "", "biography_author": null, "date_of_biography": "2023-08-14T11:36:44.289021+10:00", "external_links": [], "uuid": "9134b7e3-896b-421f-bda2-d0ce489669fa", "source": {"name": "Vernon", "slug": "vernon"}, "source_identifier": "9459", "external_references": [], "date_modified": "2023-08-14T11:36:44.289407+10:00"}, {"id": 18119, "name": "Bradford Grammar School", "roles_in_work": [{"id": 2466295, "title": "Strike action", "work_id": 73301, "role": "production company", "role_id": 941, "is_primary": true}], "also_known_as": "", "date_of_birth": "", "date_of_death": "", "genders": [], "languages": [], "places_of_operation": [], "biography": "", "biography_author": null, "date_of_biography": "2023-08-14T10:54:05.318908+10:00", "external_links": [], "uuid": "4eb1efb0-b776-4dcf-b1ab-ffbd094f87c2", "source": {"name": "Vernon", "slug": "vernon"}, "source_identifier": "5962", "external_references": [], "date_modified": "2023-08-14T10:54:05.319256+10:00"}, {"id": 18118, "name": "Don", "roles_in_work": [{"id": 2466290, "title": "Strictly for kids", "work_id": 73300, "role": "director", "role_id": 938, "is_primary": true}], "also_known_as": "", "date_of_birth": "", "date_of_death": "", "genders": [], "languages": [], "places_of_operation": [], "biography": "", "biography_author": null, "date_of_biography": "2023-08-14T10:53:57.779226+10:00", "external_links": [], "uuid": "c6b48d61-c1b7-48c1-892c-fc4abc6025de", "source": {"name": "Vernon", "slug": "vernon"}, "source_identifier": "18183", "external_references": [], "date_modified": "2023-08-14T10:53:57.779717+10:00"}, {"id": 18117, "name": "Neill McKee", "roles_in_work": [{"id": 2466289, "title": "Stretching the earth", "work_id": 73299, "role": "producer", "role_id": 1089, "is_primary": true}], "also_known_as": "", "date_of_birth": "", "date_of_death": "", "genders": [], "languages": [], "places_of_operation": [], "biography": "", "biography_author": null, "date_of_biography": "2023-08-14T10:53:55.730275+10:00", "external_links": [], "uuid": "8297ac9b-39cf-42c2-b4a8-bfeea391a1b3", "source": {"name": "Vernon", "slug": "vernon"}, "source_identifier": "33725", "external_references": [], "date_modified": "2023-08-14T10:53:55.730554+10:00"}]}