{"count": 28684, "next": "https://api.acmi.net.au/creators/?page=1330", "previous": "https://api.acmi.net.au/creators/?page=1328", "results": [{"id": 38435, "name": "Davenport Films", "roles_in_work": [{"id": 2750864, "title": "Hansel & Gretel (An Appalachian Version)", "work_id": 97545, "role": "production company", "role_id": 941, "is_primary": true}], "also_known_as": "", "date_of_birth": null, "date_of_death": null, "genders": [], "languages": [], "places_of_operation": [], "biography": "", "biography_author": null, "date_of_biography": null, "external_links": [], "uuid": "75d9e32e-4b46-4692-b006-70faff65989c", "source": {"name": "Vernon", "slug": "vernon"}, "source_identifier": "7334", "external_references": [], "date_modified": "2025-03-13T00:31:40.107650+11:00"}, {"id": 38434, "name": "Steve Heiser", "roles_in_work": [{"id": 2750858, "title": "Transportation: a basic need", "work_id": 97542, "role": "director", "role_id": 938, "is_primary": true}], "also_known_as": "", "date_of_birth": null, "date_of_death": null, "genders": [], "languages": [], "places_of_operation": [], "biography": "", "biography_author": null, "date_of_biography": null, "external_links": [], "uuid": "99d7f9fd-cf0d-4493-8afa-e5736ebf4fe6", "source": {"name": "Vernon", "slug": "vernon"}, "source_identifier": "33558", "external_references": [], "date_modified": "2025-03-13T00:31:35.729471+11:00"}, {"id": 38432, "name": "Judy Collins", "roles_in_work": [{"id": 2750850, "title": "Antonia: a portrait of the woman", "work_id": 97537, "role": "co-director", "role_id": 959, "is_primary": true}, {"id": 2750849, "title": "Antonia: a portrait of the woman", "work_id": 97537, "role": "producer", "role_id": 1089, "is_primary": true}], "also_known_as": "Judith Marjorie Collins", "date_of_birth": "1939-05-01", "date_of_death": null, "genders": [{"id": 5, "name": "Female", "slug": "female"}], "languages": [{"id": 1, "name": "English", "slug": "english"}], "places_of_operation": [{"id": 1, "name": "United States of America", "slug": "united-states-of-america"}], "biography": "Judith Marjorie Collins (born May 1, 1939) is an American singer-songwriter and musician with a career spanning seven decades. An Academy Award-nominated documentary director and a Grammy Award-winning recording artist, she is known for her eclectic tastes in the material she records (which has included folk music, country, show tunes, pop music, rock and roll and standards), for her social activism, and for the clarity of her voice. Her discography consists of 36 studio albums, nine live albums, numerous compilation albums, four holiday albums, and 21 singles.\nCollins' debut album, A Maid of Constant Sorrow, was released in 1961 and consisted of traditional folk songs. She had her first charting single with \"Hard Lovin' Loser\" (No. 97) from her 1966 album In My Life, but it was the lead single from her 1967 album Wildflowers, \"Both Sides, Now\" – written by Joni Mitchell – that gave her international prominence. The single reached No. 8 on the Billboard Pop Singles chart and won her her first Grammy Award for Best Folk Performance. She enjoyed further success with her recordings of \"Someday Soon\", \"Chelsea Morning\" (also written by Mitchell), \"Amazing Grace\", \"Turn! Turn! Turn!\", and \"Cook with Honey\".\nCollins experienced the biggest success of her career with her recording of Stephen Sondheim's \"Send in the Clowns\" from her 1975 album Judith. The single peaked at No. 36 on the Billboard Pop Singles chart in 1975 and then again in 1977 at No. 19, spending 27 non-consecutive weeks on the chart and earning her a Grammy Award nomination for Best Pop Vocal Performance, Female, as well as a Grammy Award for Sondheim for Song of the Year. Judith would also become her best-selling studio album; it was certified Gold by the RIAA in 1975 for sales of over 500,000 copies and Platinum in 1996 for sales of over 1,000,000 copies.In 2017, Collins's rendition of the song \"Amazing Grace\" was selected for preservation in the National Recording Registry by the Library of Congress as being \"culturally, historically, or artistically significant\". That same year, she received a Grammy Award nomination for Best Folk Album for Silver Skies Blue with Ari Hest. In 2019 at the age of 80, she scored her first No. 1 album on an American Billboard Chart with Winter Stories, a duet album with Jonas Fjeld featuring the Chatham County Line. In 2022, she released her first album of all original material, entitled Spellbound.", "biography_author": "Wikidata", "date_of_biography": "2022-05-19T12:07:20.743009+10:00", "external_links": [{"id": 2485, "uri": "https://en.wikipedia.org/wiki/Judy_Collins"}], "uuid": "46de1c85-e8d8-47ad-bd40-dc64b2bfcf2c", "source": {"name": "Vernon", "slug": "vernon"}, "source_identifier": "22808", "external_references": [{"id": 10630, "source": {"name": "Wikidata", "slug": "wikidata"}, "source_identifier": "Q254576"}, {"id": 10631, "source": {"name": "VIAF", "slug": "viaf"}, "source_identifier": "35254302"}, {"id": 10632, "source": {"name": "LOC Auth", "slug": "loc-auth"}, "source_identifier": "n81100647"}, {"id": 10633, "source": {"name": "WorldCat", "slug": "worldcat"}, "source_identifier": "lccn-n81100647"}], "date_modified": "2025-03-13T00:31:30.283861+11:00"}, {"id": 38431, "name": "David Outerbridge", "roles_in_work": [{"id": 2750846, "title": "The Art of the potter", "work_id": 97535, "role": "director", "role_id": 938, "is_primary": true}, {"id": 2750844, "title": "The Art of the potter", "work_id": 97535, "role": "co-producer", "role_id": 915, "is_primary": true}], "also_known_as": "", "date_of_birth": null, "date_of_death": null, "genders": [], "languages": [], "places_of_operation": [], "biography": "", "biography_author": null, "date_of_biography": null, "external_links": [], "uuid": "92edfe58-ec3b-4db5-baca-3b5a48eb1d1b", "source": {"name": "Vernon", "slug": "vernon"}, "source_identifier": "17560", "external_references": [], "date_modified": "2025-03-13T00:31:27.377179+11:00"}, {"id": 38430, "name": "Maurice Evans", "roles_in_work": [{"id": 2750842, "title": "Enter Hamlet", "work_id": 97534, "role": "director", "role_id": 938, "is_primary": true}], "also_known_as": "Maurice Herbert Evans", "date_of_birth": "1901-06-03", "date_of_death": "1989-03-12", "genders": [{"id": 9, "name": "Male", "slug": "male"}], "languages": [{"id": 1, "name": "English", "slug": "english"}], "places_of_operation": [{"id": 10, "name": "United Kingdom", "slug": "united-kingdom"}], "biography": "Maurice Herbert Evans (3 June 1901 – 12 March 1989) was an English actor, noted for his interpretations of Shakespearean characters. His best-known screen roles include Dr. Zaius in the 1968 film Planet of the Apes and Samantha Stephens's father, Maurice, on Bewitched.", "biography_author": "Wikidata", "date_of_biography": "2023-08-01T16:10:04.876068+10:00", "external_links": [{"id": 4657, "uri": "https://en.wikipedia.org/wiki/Maurice_Evans_(actor)"}], "uuid": "a9e87276-ee2e-4b95-b71e-80dbb895bda6", "source": {"name": "Vernon", "slug": "vernon"}, "source_identifier": "24831", "external_references": [{"id": 26307, "source": {"name": "Wikidata", "slug": "wikidata"}, "source_identifier": "Q1233590"}, {"id": 30225, "source": {"name": "VIAF", "slug": "viaf"}, "source_identifier": "111282754"}, {"id": 30226, "source": {"name": "LOC Auth", "slug": "loc-auth"}, "source_identifier": "n85199196"}, {"id": 30227, "source": {"name": "WorldCat", "slug": "worldcat"}, "source_identifier": "lccn-n85199196"}], "date_modified": "2025-03-13T00:31:24.520915+11:00"}, {"id": 38429, "name": "School of Visual Arts", "roles_in_work": [{"id": 2750841, "title": "Enter Hamlet", "work_id": 97534, "role": "production company", "role_id": 941, "is_primary": true}], "also_known_as": "", "date_of_birth": null, "date_of_death": null, "genders": [], "languages": [], "places_of_operation": [], "biography": "", "biography_author": null, "date_of_biography": null, "external_links": [], "uuid": "a54fccea-a651-4fe5-a3cf-0b2a48f96ecc", "source": {"name": "Vernon", "slug": "vernon"}, "source_identifier": "12334", "external_references": [], "date_modified": "2025-03-13T00:31:23.911641+11:00"}, {"id": 38427, "name": "Fruits and Roots", "roles_in_work": [{"id": 2750836, "title": "Another kind of music", "work_id": 97532, "role": "production company", "role_id": 941, "is_primary": true}], "also_known_as": "", "date_of_birth": "", "date_of_death": "", "genders": [], "languages": [], "places_of_operation": [], "biography": "", "biography_author": null, "date_of_biography": "2023-05-09T12:26:33.188348+10:00", "external_links": [], "uuid": "5e6bd2aa-d18f-4348-844d-c0ff6a229fbe", "source": {"name": "Vernon", "slug": "vernon"}, "source_identifier": "8589", "external_references": [{"id": 39495, "source": {"name": "Wikidata", "slug": "wikidata"}, "source_identifier": "Q121079489"}], "date_modified": "2025-03-13T00:31:20.370267+11:00"}, {"id": 38425, "name": "Bullfrog Films", "roles_in_work": [{"id": 888416, "title": "Getting the most from your garden", "work_id": 98206, "role": "production company", "role_id": 941, "is_primary": true}, {"id": 2751220, "title": "Diet for a small planet", "work_id": 97705, "role": "production company", "role_id": 941, "is_primary": true}, {"id": 2751251, "title": "Children of the long-beaked bird", "work_id": 97724, "role": "production company", "role_id": 941, "is_primary": true}, {"id": 2753669, "title": "Solar promise", "work_id": 98875, "role": "production company", "role_id": 941, "is_primary": true}, {"id": 2750829, "title": "Toast", "work_id": 97529, "role": "production company", "role_id": 941, "is_primary": true}], "also_known_as": "", "date_of_birth": "", "date_of_death": "", "genders": [], "languages": [], "places_of_operation": [], "biography": "", "biography_author": null, "date_of_biography": "2023-05-09T17:58:57.948214+10:00", "external_links": [], "uuid": "1d253e0b-c3cc-4c53-bf93-7c9bcac8f0b8", "source": {"name": "Vernon", "slug": "vernon"}, "source_identifier": "6109", "external_references": [{"id": 41067, "source": {"name": "Wikidata", "slug": "wikidata"}, "source_identifier": "Q121091120"}], "date_modified": "2025-03-13T01:30:38.072612+11:00"}, {"id": 38424, "name": "Heinz Gelles", "roles_in_work": [{"id": 2750824, "title": "Marketing the myths", "work_id": 97523, "role": "producer", "role_id": 1089, "is_primary": true}], "also_known_as": "", "date_of_birth": null, "date_of_death": null, "genders": [], "languages": [], "places_of_operation": [], "biography": "", "biography_author": null, "date_of_biography": null, "external_links": [], "uuid": "0f1312a2-dd49-4c48-b55e-a79d4f0a4dcf", "source": {"name": "Vernon", "slug": "vernon"}, "source_identifier": "20408", "external_references": [], "date_modified": "2025-03-13T00:31:11.070098+11:00"}, {"id": 38423, "name": "Arnold Shapiro", "roles_in_work": [{"id": 2750822, "title": "The Feminine mistake", "work_id": 97522, "role": "producer", "role_id": 1089, "is_primary": true}], "also_known_as": "", "date_of_birth": null, "date_of_death": null, "genders": [], "languages": [], "places_of_operation": [], "biography": "", "biography_author": null, "date_of_biography": null, "external_links": [], "uuid": "329c8170-c97b-4741-9d44-4a309d18f59f", "source": {"name": "Vernon", "slug": "vernon"}, "source_identifier": "15486", "external_references": [], "date_modified": "2025-03-13T00:31:09.615033+11:00"}]}