{"count": 28682, "next": "https://api.acmi.net.au/creators/?page=998", "previous": "https://api.acmi.net.au/creators/?page=996", "results": [{"id": 75608, "name": "Ross Simmons", "roles_in_work": [{"id": 2392443, "title": "Hassles", "work_id": 75461, "role": "editor", "role_id": 918, "is_primary": true}], "also_known_as": "", "date_of_birth": "", "date_of_death": "", "genders": [], "languages": [], "places_of_operation": [], "biography": "", "biography_author": null, "date_of_biography": "2023-08-09T03:56:24.682297+10:00", "external_links": [], "uuid": "65c217e6-a94f-4199-a2da-ee3d2aad12e7", "source": {"name": "Vernon", "slug": "vernon"}, "source_identifier": "37379", "external_references": [{"id": 35169, "source": {"name": "Wikidata", "slug": "wikidata"}, "source_identifier": "Q121036262"}], "date_modified": "2023-09-06T00:56:53.782073+10:00"}, {"id": 75607, "name": "Peter James", "roles_in_work": [{"id": 759543, "title": "Who killed Jenny Langby?", "work_id": 75429, "role": "cinematographer", "role_id": 32, "is_primary": false}, {"id": 2134962, "title": "Champions of the Australian Turf", "work_id": 80388, "role": "producer/director", "role_id": 31, "is_primary": true}], "also_known_as": "", "date_of_birth": "1947-03-07", "date_of_death": "", "genders": [{"id": 9, "name": "Male", "slug": "male"}], "languages": [{"id": 1, "name": "English", "slug": "english"}], "places_of_operation": [{"id": 3, "name": "Australia", "slug": "australia"}], "biography": "Peter James (born 7 March 1947 in Sydney) is an Australian cinematographer and director of photography. James is a member of the American Society of Cinematographers (ASC), an organization that offers membership to directors of photography only \"by invitation, based on an individual’s body of work\".James has been either cinematographer or director of photography on more than thirty films since 1973 when he worked on the Australian film Avengers of the Reef. James has won Australian Cinematographers Society's (ACS) Milli Award four times, Australian Film Institute's Award for Best Achievement in Cinematography three times and was nominated for the award for Outstanding Cinematography for a Miniseries or Movie at the 56th Primetime Emmy Awards for his work on the 2003 television film And Starring Pancho Villa as Himself.In 1999, James was inducted into the Australian Cinematographers Society Hall of Fame for having \"made a substantial contribution to the industry and the Society, as well as having left a legacy of fine work and having been responsible for training and influencing others.\"", "biography_author": "Wikidata", "date_of_biography": "2023-09-05T23:58:14.022082+10:00", "external_links": [{"id": 6100, "uri": "https://en.wikipedia.org/wiki/Peter_James_(cinematographer)"}], "uuid": "d037048c-ccf2-4391-912b-d7e5e4b112ad", "source": {"name": "Vernon", "slug": "vernon"}, "source_identifier": "26592", "external_references": [{"id": 40808, "source": {"name": "Wikidata", "slug": "wikidata"}, "source_identifier": "Q2076005"}, {"id": 55498, "source": {"name": "VIAF", "slug": "viaf"}, "source_identifier": "81584343"}, {"id": 55499, "source": {"name": "LOC Auth", "slug": "loc-auth"}, "source_identifier": "n88245626"}, {"id": 55500, "source": {"name": "WorldCat", "slug": "worldcat"}, "source_identifier": "lccn-no2006036056"}], "date_modified": "2023-09-05T23:58:14.046080+10:00"}, {"id": 75606, "name": "South Australia. Dept. of Labour and Industry", "roles_in_work": [{"id": 2647142, "title": "Safety in your hands", "work_id": 75423, "role": "", "role_id": 604, "is_primary": false}], "also_known_as": "", "date_of_birth": "", "date_of_death": "", "genders": [], "languages": [], "places_of_operation": [], "biography": "", "biography_author": null, "date_of_biography": "2023-05-09T17:27:13.236997+10:00", "external_links": [], "uuid": "4d084583-c013-4dd0-9e7a-9bf2bdcbd329", "source": {"name": "Vernon", "slug": "vernon"}, "source_identifier": "39095", "external_references": [], "date_modified": "2025-03-05T13:20:20.085284+11:00"}, {"id": 75605, "name": "Education Dept of S A", "roles_in_work": [{"id": 2208155, "title": "Play safe", "work_id": 75421, "role": "production company", "role_id": 941, "is_primary": true}], "also_known_as": "", "date_of_birth": "", "date_of_death": "", "genders": [], "languages": [], "places_of_operation": [], "biography": "", "biography_author": null, "date_of_biography": "2023-05-09T15:39:30.597100+10:00", "external_links": [], "uuid": "fb3685f3-2b06-46e3-a5eb-51240890ec3d", "source": {"name": "Vernon", "slug": "vernon"}, "source_identifier": "7758", "external_references": [{"id": 37230, "source": {"name": "Wikidata", "slug": "wikidata"}, "source_identifier": "Q121315461"}], "date_modified": "2023-09-05T19:24:58.966305+10:00"}, {"id": 75604, "name": "John Ewart", "roles_in_work": [{"id": 2317363, "title": "Sunday Too Far Away [DVD]", "work_id": 92452, "role": "cast", "role_id": 33, "is_primary": false}, {"id": 759493, "title": "The Making of 'Sunday'", "work_id": 75415, "role": "cast", "role_id": 33, "is_primary": false}, {"id": 2317327, "title": "Sunday Too Far Away", "work_id": 79356, "role": "cast", "role_id": 33, "is_primary": false}], "also_known_as": "", "date_of_birth": "1928-02-26", "date_of_death": "1994-03-08", "genders": [{"id": 9, "name": "Male", "slug": "male"}], "languages": [], "places_of_operation": [{"id": 3, "name": "Australia", "slug": "australia"}], "biography": "John Reford Ewart (26 February 1928 – 8 March 1994) was an Australian actor of radio, stage, television and film. Ewart was a double recipient of the AACTA Award for Best Actor in a Supporting Role", "biography_author": "Wikidata", "date_of_biography": "2023-09-05T21:35:57.119877+10:00", "external_links": [{"id": 5923, "uri": "https://en.wikipedia.org/wiki/John_Ewart"}], "uuid": "6602637a-77cd-4098-87d5-f88c402202db", "source": {"name": "Vernon", "slug": "vernon"}, "source_identifier": "33203", "external_references": [{"id": 50715, "source": {"name": "Wikidata", "slug": "wikidata"}, "source_identifier": "Q15524878"}, {"id": 54874, "source": {"name": "VIAF", "slug": "viaf"}, "source_identifier": "42050161"}, {"id": 54875, "source": {"name": "LOC Auth", "slug": "loc-auth"}, "source_identifier": "no96042557"}, {"id": 54876, "source": {"name": "WorldCat", "slug": "worldcat"}, "source_identifier": "lccn-no96042557"}], "date_modified": "2023-09-05T21:35:57.153837+10:00"}, {"id": 75603, "name": "Ian Davidson", "roles_in_work": [{"id": 2647137, "title": "The Last coastline", "work_id": 75411, "role": "cinematographer", "role_id": 32, "is_primary": false}], "also_known_as": "", "date_of_birth": null, "date_of_death": null, "genders": [{"id": 9, "name": "Male", "slug": "male"}], "languages": [], "places_of_operation": [], "biography": "", "biography_author": null, "date_of_biography": null, "external_links": [], "uuid": "d0461dfc-6680-4905-94c6-23256cbd2dd4", "source": {"name": "Vernon", "slug": "vernon"}, "source_identifier": "37462", "external_references": [{"id": 41968, "source": {"name": "Wikidata", "slug": "wikidata"}, "source_identifier": "Q121223560"}], "date_modified": "2025-03-05T13:20:17.709614+11:00"}, {"id": 75602, "name": "G Turney-Smith", "roles_in_work": [{"id": 2647136, "title": "The Last coastline", "work_id": 75411, "role": "director", "role_id": 938, "is_primary": true}, {"id": 2347760, "title": "The Fallen idol. The Winslow boy", "work_id": 87885, "role": "editor", "role_id": 918, "is_primary": true}], "also_known_as": "", "date_of_birth": "", "date_of_death": "", "genders": [], "languages": [], "places_of_operation": [], "biography": "", "biography_author": null, "date_of_biography": "2023-05-09T19:50:26.733524+10:00", "external_links": [], "uuid": "b703833e-965b-43ec-9e30-928ba6300c16", "source": {"name": "Vernon", "slug": "vernon"}, "source_identifier": "19326", "external_references": [{"id": 39148, "source": {"name": "Wikidata", "slug": "wikidata"}, "source_identifier": "Q121314927"}], "date_modified": "2025-03-05T13:20:17.126378+11:00"}, {"id": 75601, "name": "John Ellson", "roles_in_work": [{"id": 759466, "title": "Ian Chappell on cricket", "work_id": 75408, "role": "cinematographer", "role_id": 32, "is_primary": false}], "also_known_as": "", "date_of_birth": null, "date_of_death": null, "genders": [], "languages": [], "places_of_operation": [], "biography": "", "biography_author": null, "date_of_biography": null, "external_links": [], "uuid": "4bd23ca2-de0d-4f8d-a6f0-0038f3cffff5", "source": {"name": "Vernon", "slug": "vernon"}, "source_identifier": null, "external_references": [{"id": 37125, "source": {"name": "Wikidata", "slug": "wikidata"}, "source_identifier": "Q121036768"}], "date_modified": "2023-09-05T21:35:36.071050+10:00"}, {"id": 75600, "name": "David McCullough", "roles_in_work": [{"id": 1903788, "title": "Good buy", "work_id": 75406, "role": "cinematographer", "role_id": 32, "is_primary": false}], "also_known_as": "", "date_of_birth": null, "date_of_death": null, "genders": [], "languages": [], "places_of_operation": [], "biography": "", "biography_author": null, "date_of_biography": null, "external_links": [], "uuid": "bb0719aa-395f-4895-8f99-664dca3082b3", "source": {"name": "Vernon", "slug": "vernon"}, "source_identifier": null, "external_references": [{"id": 43560, "source": {"name": "Wikidata", "slug": "wikidata"}, "source_identifier": "Q121144073"}], "date_modified": "2023-09-05T19:00:16.441241+10:00"}, {"id": 75599, "name": "Joan Dick", "roles_in_work": [{"id": 2243297, "title": "Five finger discount", "work_id": 75405, "role": "director", "role_id": 938, "is_primary": true}], "also_known_as": "", "date_of_birth": "", "date_of_death": "", "genders": [], "languages": [], "places_of_operation": [], "biography": "", "biography_author": null, "date_of_biography": "2023-05-09T16:57:40.082241+10:00", "external_links": [], "uuid": "d39566af-d785-467e-9aa8-2b5f579986ed", "source": {"name": "Vernon", "slug": "vernon"}, "source_identifier": "21969", "external_references": [{"id": 35927, "source": {"name": "Wikidata", "slug": "wikidata"}, "source_identifier": "Q121270928"}], "date_modified": "2023-09-05T21:27:38.132041+10:00"}]}