{"count": 28687, "next": "https://api.acmi.net.au/creators/?page=1747", "previous": "https://api.acmi.net.au/creators/?page=1745", "results": [{"id": 27546, "name": "Movic", "roles_in_work": [{"id": 2161728, "title": "Ninja scroll (D)", "work_id": 85538, "role": "production company", "role_id": 941, "is_primary": true}], "also_known_as": "", "date_of_birth": "", "date_of_death": "", "genders": [], "languages": [], "places_of_operation": [], "biography": "", "biography_author": null, "date_of_biography": "2023-05-09T14:16:50.841854+10:00", "external_links": [], "uuid": "f9a5a7c5-d8ca-480a-9825-20bc1676fef1", "source": {"name": "Vernon", "slug": "vernon"}, "source_identifier": "10670", "external_references": [{"id": 36710, "source": {"name": "Wikidata", "slug": "wikidata"}, "source_identifier": "Q121299293"}], "date_modified": "2023-09-05T23:22:16.067681+10:00"}, {"id": 27545, "name": "JVC", "roles_in_work": [{"id": 2686214, "title": "Videosphere 'Space Helmet' CRT Television Set", "work_id": 118211, "role": "creator", "role_id": 968, "is_primary": true}, {"id": 2161723, "title": "Ninja scroll (D)", "work_id": 85538, "role": "production company", "role_id": 941, "is_primary": true}, {"id": 2476246, "title": "Ghost dog: way of the samurai [DVD]", "work_id": 92788, "role": "production company", "role_id": 941, "is_primary": true}], "also_known_as": "", "date_of_birth": "", "date_of_death": "", "genders": [], "languages": [], "places_of_operation": [], "biography": "", "biography_author": null, "date_of_biography": "2023-08-17T15:34:11.065749+10:00", "external_links": [], "uuid": "e368add6-f7f1-4761-82c3-8cf56ec15b2c", "source": {"name": "Vernon", "slug": "vernon"}, "source_identifier": "9675", "external_references": [{"id": 41168, "source": {"name": "Wikidata", "slug": "wikidata"}, "source_identifier": "Q121337227"}], "date_modified": "2023-09-05T21:58:19.452263+10:00"}, {"id": 27544, "name": "Diarmuid Lawrence", "roles_in_work": [{"id": 2174848, "title": "Jane Austen's Emma", "work_id": 85537, "role": "director", "role_id": 938, "is_primary": true}], "also_known_as": "", "date_of_birth": "", "date_of_death": "", "genders": [], "languages": [], "places_of_operation": [], "biography": "", "biography_author": null, "date_of_biography": "2023-05-09T14:44:05.315191+10:00", "external_links": [], "uuid": "dd8f695c-408f-4fa7-8b78-9693ffd90753", "source": {"name": "Vernon", "slug": "vernon"}, "source_identifier": "18095", "external_references": [], "date_modified": "2023-06-14T16:33:30.576250+10:00"}, {"id": 27543, "name": "United Film and Television Productions", "roles_in_work": [{"id": 2174846, "title": "Jane Austen's Emma", "work_id": 85537, "role": "production company", "role_id": 941, "is_primary": true}], "also_known_as": "", "date_of_birth": "", "date_of_death": "", "genders": [], "languages": [], "places_of_operation": [], "biography": "", "biography_author": null, "date_of_biography": "2023-05-09T14:44:04.818409+10:00", "external_links": [], "uuid": "84b286f4-e9f2-4df8-a3f4-fb9fa8175bd1", "source": {"name": "Vernon", "slug": "vernon"}, "source_identifier": "13856", "external_references": [], "date_modified": "2023-06-14T16:33:30.576250+10:00"}, {"id": 27541, "name": "Core Original Productions", "roles_in_work": [{"id": 2615479, "title": "Round up", "work_id": 85533, "role": "production company", "role_id": 941, "is_primary": true}], "also_known_as": "", "date_of_birth": null, "date_of_death": null, "genders": [], "languages": [], "places_of_operation": [], "biography": "", "biography_author": null, "date_of_biography": null, "external_links": [], "uuid": "fdd6e7c4-b9e0-4b6f-9d62-e3b69ae602a0", "source": {"name": "Vernon", "slug": "vernon"}, "source_identifier": "7059", "external_references": [], "date_modified": "2025-02-26T20:24:20.360001+11:00"}, {"id": 27537, "name": "John Kricfalusi", "roles_in_work": [{"id": 2248851, "title": "Ren and Stimpy: the stupidest stories", "work_id": 85530, "role": "director", "role_id": 938, "is_primary": true}, {"id": 2248279, "title": "Ren and Stimpy: the classics", "work_id": 88207, "role": "director", "role_id": 938, "is_primary": true}, {"id": 2248319, "title": "Ren and Stimpy: the stinkiest stories", "work_id": 88183, "role": "director", "role_id": 938, "is_primary": true}, {"id": 2248314, "title": "Ren and Stimpy: the stinkiest stories", "work_id": 88183, "role": "co-producer", "role_id": 915, "is_primary": true}, {"id": 2248847, "title": "Ren and Stimpy: the stupidest stories", "work_id": 85530, "role": "co-producer", "role_id": 915, "is_primary": true}, {"id": 2248274, "title": "Ren and Stimpy: the classics", "work_id": 88207, "role": "co-producer", "role_id": 915, "is_primary": true}], "also_known_as": "", "date_of_birth": "", "date_of_death": "", "genders": [], "languages": [], "places_of_operation": [], "biography": "", "biography_author": null, "date_of_biography": "2023-05-09T17:07:40.298068+10:00", "external_links": [], "uuid": "b32ed57b-b494-4dea-8854-6103ccdbb5c7", "source": {"name": "Vernon", "slug": "vernon"}, "source_identifier": "22339", "external_references": [], "date_modified": "2023-06-14T16:33:30.576250+10:00"}, {"id": 27535, "name": "Nickelodeon Movies", "roles_in_work": [{"id": 2474830, "title": "Jimmy Neutron: boy genius", "work_id": 94827, "role": "production company", "role_id": 941, "is_primary": true}, {"id": 2248835, "title": "Ren and Stimpy: the stupidest stories", "work_id": 85530, "role": "production company", "role_id": 941, "is_primary": true}, {"id": 2248267, "title": "Ren and Stimpy: the classics", "work_id": 88207, "role": "production company", "role_id": 941, "is_primary": true}, {"id": 2248303, "title": "Ren and Stimpy: the stinkiest stories", "work_id": 88183, "role": "production company", "role_id": 941, "is_primary": true}, {"id": 1847779, "title": "The Rugrats movie", "work_id": 88189, "role": "production company", "role_id": 941, "is_primary": true}], "also_known_as": "", "date_of_birth": "", "date_of_death": "", "genders": [], "languages": [], "places_of_operation": [], "biography": "", "biography_author": null, "date_of_biography": "2023-08-17T15:00:28.710082+10:00", "external_links": [], "uuid": "eaab6c58-572d-41ae-8fcd-8ba3f11521de", "source": {"name": "Vernon", "slug": "vernon"}, "source_identifier": "3812", "external_references": [], "date_modified": "2023-08-17T15:00:28.710290+10:00"}, {"id": 27534, "name": "Solar", "roles_in_work": [{"id": 2275249, "title": "The Thomas Crown affair (Original)", "work_id": 85528, "role": "production company", "role_id": 941, "is_primary": true}], "also_known_as": "", "date_of_birth": "", "date_of_death": "", "genders": [], "languages": [], "places_of_operation": [], "biography": "", "biography_author": null, "date_of_biography": "2023-05-09T17:51:31.131371+10:00", "external_links": [], "uuid": "175c0331-ffd3-43f8-a4ea-2083e17fb56a", "source": {"name": "Vernon", "slug": "vernon"}, "source_identifier": "12726", "external_references": [{"id": 35449, "source": {"name": "Wikidata", "slug": "wikidata"}, "source_identifier": "Q121035756"}], "date_modified": "2023-09-06T01:22:51.733927+10:00"}, {"id": 27533, "name": "Simkoel", "roles_in_work": [{"id": 2275246, "title": "The Thomas Crown affair (Original)", "work_id": 85528, "role": "production company", "role_id": 941, "is_primary": true}], "also_known_as": "", "date_of_birth": "", "date_of_death": "", "genders": [], "languages": [], "places_of_operation": [], "biography": "", "biography_author": null, "date_of_biography": "2023-05-09T17:51:30.900607+10:00", "external_links": [], "uuid": "a89e6ca3-7018-481a-8ba3-376e713ac414", "source": {"name": "Vernon", "slug": "vernon"}, "source_identifier": "12603", "external_references": [{"id": 37334, "source": {"name": "Wikidata", "slug": "wikidata"}, "source_identifier": "Q121298875"}], "date_modified": "2023-09-06T01:19:45.614225+10:00"}, {"id": 27531, "name": "Rescued Films", "roles_in_work": [{"id": 2223360, "title": "Everynight...everynight", "work_id": 85525, "role": "production company", "role_id": 941, "is_primary": true}], "also_known_as": "", "date_of_birth": "", "date_of_death": "", "genders": [], "languages": [], "places_of_operation": [], "biography": "", "biography_author": null, "date_of_biography": "2023-05-09T16:22:40.692846+10:00", "external_links": [], "uuid": "c9bf86af-42f1-49b0-a933-bd97d68ea9cf", "source": {"name": "Vernon", "slug": "vernon"}, "source_identifier": "11974", "external_references": [{"id": 33679, "source": {"name": "Wikidata", "slug": "wikidata"}, "source_identifier": "Q121126313"}], "date_modified": "2023-09-06T00:26:24.329338+10:00"}]}