{"count": 28687, "next": "https://api.acmi.net.au/creators/?page=24", "previous": "https://api.acmi.net.au/creators/?page=22", "results": [{"id": 87325, "name": "Brian Valenzuela", "roles_in_work": [{"id": 2722094, "title": "Costume sketch for A Promising Young Woman (2020)", "work_id": 122190, "role": "illustrator", "role_id": 605, "is_primary": false}, {"id": 2722090, "title": "Costume sketch for A Promising Young Woman (2020)", "work_id": 122188, "role": "illustrator", "role_id": 605, "is_primary": false}, {"id": 2503848, "title": "Costume sketch for A Promising Young Woman (2020)", "work_id": 122189, "role": "illustrator", "role_id": 605, "is_primary": false}, {"id": 2722103, "title": "Costume sketch for A Promising Young Woman (2020)", "work_id": 122193, "role": "illustrator", "role_id": 605, "is_primary": false}, {"id": 2722097, "title": "Costume sketch for A Promising Young Woman (2020)", "work_id": 122191, "role": "illustrator", "role_id": 605, "is_primary": false}, {"id": 2722100, "title": "Costume sketch for A Promising Young Woman (2020)", "work_id": 122192, "role": "illustrator", "role_id": 605, "is_primary": false}], "also_known_as": "", "date_of_birth": "", "date_of_death": "", "genders": [], "languages": [], "places_of_operation": [], "biography": "", "biography_author": null, "date_of_biography": "2023-07-12T04:10:05.478741+10:00", "external_links": [], "uuid": "be2549d9-0ea2-4e0b-bf74-80883265ad3b", "source": {"name": "Vernon", "slug": "vernon"}, "source_identifier": "40447", "external_references": [], "date_modified": "2025-03-12T07:30:06.759133+11:00"}, {"id": 87324, "name": "Morgan Litho. Co.", "roles_in_work": [{"id": 2722085, "title": "Poster for When Roaring Gulch Got Suffrage (1913)", "work_id": 122184, "role": "", "role_id": 604, "is_primary": false}], "also_known_as": "", "date_of_birth": "", "date_of_death": "", "genders": [], "languages": [], "places_of_operation": [], "biography": "", "biography_author": null, "date_of_biography": "2023-08-30T04:32:35.119349+10:00", "external_links": [], "uuid": "4a405a9e-8005-43ad-bc24-28e41e322e1d", "source": {"name": "Vernon", "slug": "vernon"}, "source_identifier": "40445", "external_references": [], "date_modified": "2025-03-12T07:30:00.919502+11:00"}, {"id": 87323, "name": "Joshua Kissi", "roles_in_work": [{"id": 2513048, "title": "Laverne Cox", "work_id": 122177, "role": "", "role_id": 604, "is_primary": false}], "also_known_as": "", "date_of_birth": "", "date_of_death": "", "genders": [], "languages": [], "places_of_operation": [], "biography": "", "biography_author": null, "date_of_biography": "2023-08-30T04:32:33.352707+10:00", "external_links": [], "uuid": "0ef9b697-1486-485b-8fc9-0f70029cbea5", "source": {"name": "Vernon", "slug": "vernon"}, "source_identifier": "40441", "external_references": [], "date_modified": "2024-03-06T03:45:26.088785+11:00"}, {"id": 87322, "name": "Dan Wynn", "roles_in_work": [{"id": 2721537, "title": "Pam Grier, New York, 1975", "work_id": 122176, "role": "photographer", "role_id": 440, "is_primary": false}], "also_known_as": "", "date_of_birth": "", "date_of_death": "", "genders": [], "languages": [], "places_of_operation": [], "biography": "", "biography_author": null, "date_of_biography": "2023-08-30T04:32:32.178460+10:00", "external_links": [], "uuid": "17494140-398c-41b7-aa5f-801b649f7de4", "source": {"name": "Vernon", "slug": "vernon"}, "source_identifier": "40640", "external_references": [], "date_modified": "2025-03-12T07:23:23.270664+11:00"}, {"id": 87321, "name": "Glen Isip, Nicole Dochych, Tomoe Tsutsumi", "roles_in_work": [{"id": 2721533, "title": "Sakuran graphic novel", "work_id": 122171, "role": "production designer", "role_id": 966, "is_primary": true}], "also_known_as": "", "date_of_birth": "", "date_of_death": "", "genders": [], "languages": [], "places_of_operation": [], "biography": "", "biography_author": null, "date_of_biography": "2023-07-12T04:06:26.801034+10:00", "external_links": [], "uuid": "6eb935ad-e169-4e24-bda1-189c6ec9a621", "source": {"name": "Vernon", "slug": "vernon"}, "source_identifier": "40436", "external_references": [], "date_modified": "2025-03-12T07:23:20.746519+11:00"}, {"id": 87320, "name": "Asmik Ace Inc.", "roles_in_work": [{"id": 2721527, "title": "Costume worn by Anna Tsuchiya in Sakuran (2006)", "work_id": 122169, "role": "lender", "role_id": 626, "is_primary": false}, {"id": 2503859, "title": "Costume worn by Anna Tsuchiya", "work_id": 122199, "role": "lender", "role_id": 626, "is_primary": false}, {"id": 2721520, "title": "Costume worn by Anna Tsuchiya in Sakuran (2006)", "work_id": 122166, "role": "lender", "role_id": 626, "is_primary": false}, {"id": 2721523, "title": "Costume worn by Anna Tsuchiya", "work_id": 122167, "role": "lender", "role_id": 626, "is_primary": false}, {"id": 2721525, "title": "Costume worn by Anna Tsuchiya", "work_id": 122168, "role": "lender", "role_id": 626, "is_primary": false}, {"id": 2721529, "title": "Costume worn by Anna Tsuchiya", "work_id": 122170, "role": "lender", "role_id": 626, "is_primary": false}], "also_known_as": "", "date_of_birth": "", "date_of_death": "", "genders": [], "languages": [], "places_of_operation": [], "biography": "", "biography_author": null, "date_of_biography": "2023-07-12T04:15:04.228444+10:00", "external_links": [], "uuid": "4ca1326c-afe5-4d20-bcf9-8a768ca6283a", "source": {"name": "Vernon", "slug": "vernon"}, "source_identifier": "40075", "external_references": [], "date_modified": "2025-03-12T07:23:19.759387+11:00"}, {"id": 87319, "name": "David Montgomery", "roles_in_work": [{"id": 2503833, "title": "Mae West, c. 1970", "work_id": 122164, "role": "photographer", "role_id": 440, "is_primary": false}], "also_known_as": "", "date_of_birth": "", "date_of_death": "", "genders": [], "languages": [], "places_of_operation": [], "biography": "", "biography_author": null, "date_of_biography": "2023-07-12T04:06:22.770192+10:00", "external_links": [], "uuid": "95f74f6c-0b46-416b-9d3a-4d4a24950738", "source": {"name": "Vernon", "slug": "vernon"}, "source_identifier": "40642", "external_references": [], "date_modified": "2023-11-01T03:42:53.448895+11:00"}, {"id": 87318, "name": "Adele Balkan", "roles_in_work": [{"id": 2721517, "title": "Adele Balkan costume design drawing for Belle of the Nineties (1934)", "work_id": 122162, "role": "illustrator", "role_id": 605, "is_primary": false}], "also_known_as": "", "date_of_birth": "", "date_of_death": "", "genders": [], "languages": [], "places_of_operation": [], "biography": "", "biography_author": null, "date_of_biography": "2023-08-30T04:32:30.453682+10:00", "external_links": [], "uuid": "a47ea16d-b60d-4a57-b63c-5d0573332874", "source": {"name": "Vernon", "slug": "vernon"}, "source_identifier": "40451", "external_references": [], "date_modified": "2025-03-12T07:23:14.179229+11:00"}, {"id": 87317, "name": "Mae West", "roles_in_work": [{"id": 2721514, "title": "'Why I Am What I Am' article, Dare Magazine, May 1950", "work_id": 122161, "role": "writer", "role_id": 939, "is_primary": true}], "also_known_as": "", "date_of_birth": "", "date_of_death": "", "genders": [], "languages": [], "places_of_operation": [], "biography": "", "biography_author": null, "date_of_biography": "2023-07-12T04:06:20.898934+10:00", "external_links": [], "uuid": "36933766-9e9c-4bea-8d93-aa588e53d8b2", "source": {"name": "Vernon", "slug": "vernon"}, "source_identifier": "35239", "external_references": [], "date_modified": "2025-03-12T07:23:13.241969+11:00"}, {"id": 87316, "name": "Vogue Italia", "roles_in_work": [{"id": 2513041, "title": "'Zendaya mania', Vogue Italia, 2022", "work_id": 122153, "role": "publisher", "role_id": 942, "is_primary": true}], "also_known_as": "", "date_of_birth": "", "date_of_death": "", "genders": [], "languages": [], "places_of_operation": [], "biography": "", "biography_author": null, "date_of_biography": "2023-07-12T04:06:18.738197+10:00", "external_links": [], "uuid": "aa276870-9876-4ec3-8268-3319b678f037", "source": {"name": "Vernon", "slug": "vernon"}, "source_identifier": "40554", "external_references": [], "date_modified": "2024-03-06T03:45:19.192712+11:00"}]}