{"count": 28687, "next": "https://api.acmi.net.au/creators/?page=208", "previous": "https://api.acmi.net.au/creators/?page=206", "results": [{"id": 83537, "name": "Sophie Boord", "roles_in_work": [{"id": 2651555, "title": "Interview with Christopher Doyle", "work_id": 116781, "role": "producer", "role_id": 1089, "is_primary": true}], "also_known_as": "", "date_of_birth": "", "date_of_death": "", "genders": [], "languages": [], "places_of_operation": [], "biography": "", "biography_author": null, "date_of_biography": "2023-07-05T03:53:17.750265+10:00", "external_links": [], "uuid": "595544e0-899e-4996-815c-fbcf6459dfa4", "source": {"name": "Vernon", "slug": "vernon"}, "source_identifier": "34792", "external_references": [{"id": 40368, "source": {"name": "Wikidata", "slug": "wikidata"}, "source_identifier": "Q121299130"}], "date_modified": "2025-03-05T14:35:14.758409+11:00"}, {"id": 83536, "name": "Egmont Contreras", "roles_in_work": [{"id": 2651554, "title": "[Our city cares : photographs]", "work_id": 116780, "role": "photographer", "role_id": 440, "is_primary": false}], "also_known_as": "", "date_of_birth": "", "date_of_death": "", "genders": [], "languages": [], "places_of_operation": [], "biography": "", "biography_author": null, "date_of_biography": "2023-05-09T10:56:21.195200+10:00", "external_links": [], "uuid": "ea7227f3-fcd9-4563-8d8d-73e8bd4e7f73", "source": {"name": "Vernon", "slug": "vernon"}, "source_identifier": "34773", "external_references": [], "date_modified": "2025-03-05T14:35:13.946770+11:00"}, {"id": 83535, "name": "Ab Rogers", "roles_in_work": [{"id": 2651552, "title": "Screen worlds : Interview with Ab Rogers", "work_id": 116779, "role": "interviewee", "role_id": 496, "is_primary": false}], "also_known_as": "", "date_of_birth": "", "date_of_death": "", "genders": [], "languages": [], "places_of_operation": [], "biography": "", "biography_author": null, "date_of_biography": "2023-05-09T17:33:55.048716+10:00", "external_links": [], "uuid": "62067035-6422-4b2d-a839-89c78a76a1c0", "source": {"name": "Vernon", "slug": "vernon"}, "source_identifier": "34774", "external_references": [], "date_modified": "2025-03-05T14:35:12.532547+11:00"}, {"id": 83534, "name": "Shane Brennan", "roles_in_work": [{"id": 3085277, "title": "Crash Zone: Truth Hurts", "work_id": 116768, "role": "writer", "role_id": 939, "is_primary": true}], "also_known_as": "", "date_of_birth": "", "date_of_death": "", "genders": [], "languages": [], "places_of_operation": [], "biography": "", "biography_author": null, "date_of_biography": "2023-05-09T18:22:40.124934+10:00", "external_links": [], "uuid": "791f403c-71e9-4ac5-bc86-f686ca9d5e38", "source": {"name": "Vernon", "slug": "vernon"}, "source_identifier": "34755", "external_references": [{"id": 33515, "source": {"name": "Wikidata", "slug": "wikidata"}, "source_identifier": "Q121078795"}], "date_modified": "2025-03-17T10:39:41.253939+11:00"}, {"id": 83533, "name": "Kevin Nemeth", "roles_in_work": [{"id": 3085175, "title": "Crash Zone: No News is Good News", "work_id": 116769, "role": "writer", "role_id": 939, "is_primary": true}, {"id": 3085156, "title": "Crash Zone: Leap of Faith", "work_id": 116771, "role": "writer", "role_id": 939, "is_primary": true}, {"id": 3085094, "title": "Crash Zone: Heroes", "work_id": 116767, "role": "writer", "role_id": 939, "is_primary": true}, {"id": 3085070, "title": "Crash Zone: Birthday", "work_id": 116770, "role": "writer", "role_id": 939, "is_primary": true}], "also_known_as": "", "date_of_birth": "", "date_of_death": "", "genders": [], "languages": [], "places_of_operation": [], "biography": "", "biography_author": null, "date_of_biography": "2023-05-09T18:22:11.343317+10:00", "external_links": [], "uuid": "1bc81e76-3a14-49a1-92c0-dcd01d532b31", "source": {"name": "Vernon", "slug": "vernon"}, "source_identifier": "34756", "external_references": [{"id": 35847, "source": {"name": "Wikidata", "slug": "wikidata"}, "source_identifier": "Q121337656"}], "date_modified": "2025-03-17T10:39:19.798571+11:00"}, {"id": 83532, "name": "Max Dann", "roles_in_work": [{"id": 3085054, "title": "Crash Zone: Big Business", "work_id": 116764, "role": "writer", "role_id": 939, "is_primary": true}], "also_known_as": "", "date_of_birth": "", "date_of_death": "", "genders": [], "languages": [], "places_of_operation": [], "biography": "", "biography_author": null, "date_of_biography": "2023-05-09T18:21:59.439417+10:00", "external_links": [], "uuid": "dd3326f8-1f02-4dc6-bfec-d9e6d5188b8c", "source": {"name": "Vernon", "slug": "vernon"}, "source_identifier": "772", "external_references": [{"id": 35681, "source": {"name": "Wikidata", "slug": "wikidata"}, "source_identifier": "Q121036598"}], "date_modified": "2025-03-17T10:38:55.548880+11:00"}, {"id": 83531, "name": "Philip Dalkin", "roles_in_work": [{"id": 3085218, "title": "Crash Zone: The Dream Team", "work_id": 116762, "role": "writer", "role_id": 939, "is_primary": true}, {"id": 3085113, "title": "Crash Zone: Identity Crisis", "work_id": 116763, "role": "writer", "role_id": 939, "is_primary": true}, {"id": 3085237, "title": "Crash Zone: The Outsider", "work_id": 116773, "role": "writer", "role_id": 939, "is_primary": true}, {"id": 3085295, "title": "Crash Zone: Undercover", "work_id": 116765, "role": "writer", "role_id": 939, "is_primary": true}, {"id": 3085197, "title": "Crash Zone: Secrets and Lies", "work_id": 116766, "role": "writer", "role_id": 939, "is_primary": true}, {"id": 3085153, "title": "Crash Zone: Leap of Faith", "work_id": 116771, "role": "writer", "role_id": 939, "is_primary": true}], "also_known_as": "", "date_of_birth": "", "date_of_death": "", "genders": [], "languages": [], "places_of_operation": [], "biography": "", "biography_author": null, "date_of_biography": "2023-05-09T18:22:23.340742+10:00", "external_links": [], "uuid": "55122ba7-b35f-4612-8e38-8b1ad2108838", "source": {"name": "Vernon", "slug": "vernon"}, "source_identifier": "34754", "external_references": [{"id": 38422, "source": {"name": "Wikidata", "slug": "wikidata"}, "source_identifier": "Q121078908"}], "date_modified": "2025-03-17T10:39:45.023169+11:00"}, {"id": 83530, "name": "Francis Ona", "roles_in_work": [{"id": 2651454, "title": "Foreign Correspondent: Bougainville: The Man Who Would Be King", "work_id": 116761, "role": "cast", "role_id": 33, "is_primary": false}], "also_known_as": "", "date_of_birth": "Circa 1953", "date_of_death": "24 JUL 2005", "genders": [{"id": 9, "name": "Male", "slug": "male"}], "languages": [], "places_of_operation": [], "biography": "", "biography_author": null, "date_of_biography": null, "external_links": [], "uuid": "2481bd4a-72dc-4b30-b9ce-c30850c7d430", "source": {"name": "Vernon", "slug": "vernon"}, "source_identifier": "34749", "external_references": [{"id": 41651, "source": {"name": "Wikidata", "slug": "wikidata"}, "source_identifier": "Q121337331"}], "date_modified": "2025-03-05T14:30:07.536009+11:00"}, {"id": 83529, "name": "Shane McLeod", "roles_in_work": [{"id": 2651453, "title": "Foreign Correspondent: Bougainville: The Man Who Would Be King", "work_id": 116761, "role": "reporter", "role_id": 654, "is_primary": false}], "also_known_as": "", "date_of_birth": null, "date_of_death": null, "genders": [], "languages": [], "places_of_operation": [], "biography": "", "biography_author": null, "date_of_biography": null, "external_links": [], "uuid": "32f8d5c5-3e10-4aab-a7f1-276ec8728ece", "source": {"name": "Vernon", "slug": "vernon"}, "source_identifier": "34785", "external_references": [], "date_modified": "2025-03-05T14:30:06.814998+11:00"}, {"id": 83528, "name": "Gerald Stone", "roles_in_work": [{"id": 2651439, "title": "This Day Tonight: The 1967 Referendum", "work_id": 116759, "role": "reporter", "role_id": 654, "is_primary": false}], "also_known_as": "", "date_of_birth": null, "date_of_death": null, "genders": [], "languages": [], "places_of_operation": [], "biography": "", "biography_author": null, "date_of_biography": null, "external_links": [], "uuid": "2f05fc53-216f-4026-b976-047e1655531c", "source": {"name": "Vernon", "slug": "vernon"}, "source_identifier": "34747", "external_references": [], "date_modified": "2025-03-05T14:30:00.422023+11:00"}]}