{"count": 28687, "next": "https://api.acmi.net.au/creators/?page=844", "previous": "https://api.acmi.net.au/creators/?page=842", "results": [{"id": 77152, "name": "Jean Genet", "roles_in_work": [{"id": 901743, "title": "Un Chant d'amour. Flames of passion. Looking for Langston (X)", "work_id": 82407, "role": "co-director", "role_id": 959, "is_primary": true}], "also_known_as": "", "date_of_birth": null, "date_of_death": null, "genders": [], "languages": [], "places_of_operation": [], "biography": "", "biography_author": null, "date_of_biography": null, "external_links": [], "uuid": "64355a28-d3e9-4de2-a4bf-ec615e0dbba1", "source": {"name": "Vernon", "slug": "vernon"}, "source_identifier": null, "external_references": [{"id": 39076, "source": {"name": "Wikidata", "slug": "wikidata"}, "source_identifier": "Q121314922"}], "date_modified": "2023-09-05T21:15:01.307175+10:00"}, {"id": 77151, "name": "Niko Papatakis", "roles_in_work": [{"id": 901740, "title": "Un Chant d'amour. Flames of passion. Looking for Langston (X)", "work_id": 82407, "role": "co-producer", "role_id": 915, "is_primary": true}], "also_known_as": "", "date_of_birth": null, "date_of_death": null, "genders": [], "languages": [], "places_of_operation": [], "biography": "", "biography_author": null, "date_of_biography": null, "external_links": [], "uuid": "48e5b7fd-1dee-443f-bfaf-39747cc72116", "source": {"name": "Vernon", "slug": "vernon"}, "source_identifier": null, "external_references": [{"id": 36390, "source": {"name": "Wikidata", "slug": "wikidata"}, "source_identifier": "Q121036498"}], "date_modified": "2023-09-05T23:32:05.685873+10:00"}, {"id": 77150, "name": "Green Cape Wildlife Films", "roles_in_work": [{"id": 2173189, "title": "Kangaroos: faces in the mob", "work_id": 82406, "role": "production company", "role_id": 941, "is_primary": true}], "also_known_as": "", "date_of_birth": "", "date_of_death": "", "genders": [], "languages": [], "places_of_operation": [], "biography": "", "biography_author": null, "date_of_biography": "2023-05-09T14:39:53.365652+10:00", "external_links": [], "uuid": "aa3f9742-543b-4646-bad6-077827a2c039", "source": {"name": "Vernon", "slug": "vernon"}, "source_identifier": "8880", "external_references": [{"id": 42976, "source": {"name": "Wikidata", "slug": "wikidata"}, "source_identifier": "Q121144244"}], "date_modified": "2023-09-05T20:20:56.845258+10:00"}, {"id": 77149, "name": "Alfred Road Films", "roles_in_work": [{"id": 2124202, "title": "Breaking through...", "work_id": 82404, "role": "production company", "role_id": 941, "is_primary": true}], "also_known_as": "", "date_of_birth": "", "date_of_death": "", "genders": [], "languages": [], "places_of_operation": [], "biography": "", "biography_author": null, "date_of_biography": "2023-05-09T13:08:25.452472+10:00", "external_links": [], "uuid": "263bcb3c-6d09-434e-8763-595779a8f800", "source": {"name": "Vernon", "slug": "vernon"}, "source_identifier": "14960", "external_references": [{"id": 38546, "source": {"name": "Wikidata", "slug": "wikidata"}, "source_identifier": "Q121270904"}], "date_modified": "2023-09-05T17:28:12.388333+10:00"}, {"id": 77148, "name": "Ernest Heffelmyer", "roles_in_work": [{"id": 2649921, "title": "Jane Edmanson's guide to houseplants", "work_id": 82402, "role": "director", "role_id": 938, "is_primary": true}], "also_known_as": "", "date_of_birth": "", "date_of_death": "", "genders": [], "languages": [], "places_of_operation": [], "biography": "", "biography_author": null, "date_of_biography": "2023-05-09T15:07:31.254169+10:00", "external_links": [], "uuid": "d43ff28c-1457-4211-aa58-e09586b80650", "source": {"name": "Vernon", "slug": "vernon"}, "source_identifier": "18864", "external_references": [{"id": 39062, "source": {"name": "Wikidata", "slug": "wikidata"}, "source_identifier": "Q121079135"}], "date_modified": "2025-03-05T14:07:30.856921+11:00"}, {"id": 77147, "name": "Gardening Australia Magazine", "roles_in_work": [{"id": 2649920, "title": "Jane Edmanson's guide to houseplants", "work_id": 82402, "role": "production company", "role_id": 941, "is_primary": true}], "also_known_as": "", "date_of_birth": "", "date_of_death": "", "genders": [], "languages": [], "places_of_operation": [], "biography": "", "biography_author": null, "date_of_biography": "2023-05-09T15:07:31.028881+10:00", "external_links": [], "uuid": "bc596661-6504-4161-958c-9c8643739b9f", "source": {"name": "Vernon", "slug": "vernon"}, "source_identifier": "8640", "external_references": [{"id": 42215, "source": {"name": "Wikidata", "slug": "wikidata"}, "source_identifier": "Q121144119"}], "date_modified": "2025-03-05T14:07:30.266251+11:00"}, {"id": 77146, "name": "John Gau Productions", "roles_in_work": [{"id": 2615897, "title": "Miracle at sea : the Tony Bullimore rescue", "work_id": 86347, "role": "production company", "role_id": 941, "is_primary": true}, {"id": 2296723, "title": "Blue wilderness", "work_id": 115394, "role": "production company", "role_id": 941, "is_primary": true}, {"id": 2296731, "title": "Give sharks a chance", "work_id": 82399, "role": "production company", "role_id": 941, "is_primary": true}], "also_known_as": "", "date_of_birth": "", "date_of_death": "", "genders": [], "languages": [], "places_of_operation": [], "biography": "", "biography_author": null, "date_of_biography": "2023-05-09T18:28:51.515174+10:00", "external_links": [], "uuid": "8e460ba8-b295-4302-bfdd-9af9da724d7f", "source": {"name": "Vernon", "slug": "vernon"}, "source_identifier": "9620", "external_references": [{"id": 33672, "source": {"name": "Wikidata", "slug": "wikidata"}, "source_identifier": "Q121126810"}], "date_modified": "2025-02-26T20:31:16.494608+11:00"}, {"id": 77145, "name": "Ian O'Hare", "roles_in_work": [{"id": 2144850, "title": "Coral sea dreaming: an evolving balance", "work_id": 82398, "role": "co-producers/directors", "role_id": 628, "is_primary": true}], "also_known_as": "", "date_of_birth": "", "date_of_death": "", "genders": [], "languages": [], "places_of_operation": [], "biography": "", "biography_author": null, "date_of_biography": "2023-05-09T13:44:13.763464+10:00", "external_links": [], "uuid": "8ace526f-69ef-4409-b669-4b994159de13", "source": {"name": "Vernon", "slug": "vernon"}, "source_identifier": "20784", "external_references": [], "date_modified": "2023-06-14T16:33:30.576250+10:00"}, {"id": 77144, "name": "David Hannan", "roles_in_work": [{"id": 2103556, "title": "Australia's Great Barrier Reef", "work_id": 88940, "role": "co-producer", "role_id": 915, "is_primary": true}, {"id": 2224141, "title": "Eye on the reef", "work_id": 85856, "role": "co-producer", "role_id": 915, "is_primary": true}, {"id": 2236484, "title": "Raptures : an underwater odyssey", "work_id": 85992, "role": "co-producer", "role_id": 915, "is_primary": true}, {"id": 2144846, "title": "Coral sea dreaming: an evolving balance", "work_id": 82398, "role": "co-producers/directors", "role_id": 628, "is_primary": true}], "also_known_as": "", "date_of_birth": "", "date_of_death": "", "genders": [], "languages": [], "places_of_operation": [], "biography": "", "biography_author": null, "date_of_biography": "2023-05-09T16:46:39.840094+10:00", "external_links": [], "uuid": "7ddfdf39-0c83-453c-8a60-e7d1f44ff3a1", "source": {"name": "Vernon", "slug": "vernon"}, "source_identifier": "17621", "external_references": [{"id": 34695, "source": {"name": "Wikidata", "slug": "wikidata"}, "source_identifier": "Q121270830"}], "date_modified": "2023-09-05T18:58:14.653670+10:00"}, {"id": 77143, "name": "Natural Symphonies", "roles_in_work": [{"id": 2144842, "title": "Coral sea dreaming: an evolving balance", "work_id": 82398, "role": "production company", "role_id": 941, "is_primary": true}], "also_known_as": "", "date_of_birth": "", "date_of_death": "", "genders": [], "languages": [], "places_of_operation": [], "biography": "", "biography_author": null, "date_of_biography": "2023-05-09T13:44:13.187061+10:00", "external_links": [], "uuid": "777a1483-bc56-4378-8b72-18d38a662f45", "source": {"name": "Vernon", "slug": "vernon"}, "source_identifier": "10848", "external_references": [{"id": 37063, "source": {"name": "Wikidata", "slug": "wikidata"}, "source_identifier": "Q121034326"}], "date_modified": "2023-09-05T23:26:17.728067+10:00"}]}