{"count": 28687, "next": "https://api.acmi.net.au/creators/?page=1120", "previous": "https://api.acmi.net.au/creators/?page=1118", "results": [{"id": 74392, "name": "Susan Gibbard", "roles_in_work": [{"id": 2679430, "title": "Centaur", "work_id": 65899, "role": "director", "role_id": 938, "is_primary": true}], "also_known_as": "", "date_of_birth": "", "date_of_death": "", "genders": [], "languages": [], "places_of_operation": [], "biography": "", "biography_author": null, "date_of_biography": "2023-05-09T13:25:05.613900+10:00", "external_links": [], "uuid": "64d56ec4-562f-4af2-8f2d-8b9a22379db3", "source": {"name": "Vernon", "slug": "vernon"}, "source_identifier": "29339", "external_references": [{"id": 36389, "source": {"name": "Wikidata", "slug": "wikidata"}, "source_identifier": "Q121078886"}], "date_modified": "2025-03-07T00:12:36.909318+11:00"}, {"id": 74391, "name": "Emil E. Brodbeck", "roles_in_work": [{"id": 2679427, "title": "Celluloid college: basic motion picture technique", "work_id": 65898, "role": "co-director", "role_id": 959, "is_primary": true}], "also_known_as": "", "date_of_birth": "", "date_of_death": "", "genders": [], "languages": [], "places_of_operation": [], "biography": "", "biography_author": null, "date_of_biography": "2023-05-09T13:25:00.008817+10:00", "external_links": [], "uuid": "fa4c9be6-bfb4-4fd6-9954-b2bfa3e94ee0", "source": {"name": "Vernon", "slug": "vernon"}, "source_identifier": "18757", "external_references": [{"id": 37995, "source": {"name": "Wikidata", "slug": "wikidata"}, "source_identifier": "Q121078993"}], "date_modified": "2025-03-07T00:12:34.796953+11:00"}, {"id": 74390, "name": "Roy Creveling", "roles_in_work": [{"id": 2679426, "title": "Celluloid college: basic motion picture technique", "work_id": 65898, "role": "co-director", "role_id": 959, "is_primary": true}], "also_known_as": "", "date_of_birth": "", "date_of_death": "", "genders": [], "languages": [], "places_of_operation": [], "biography": "", "biography_author": null, "date_of_biography": "2023-05-09T13:24:59.769337+10:00", "external_links": [], "uuid": "62b890b5-73f8-44c1-87c3-9b15fcd8c0dc", "source": {"name": "Vernon", "slug": "vernon"}, "source_identifier": "28303", "external_references": [{"id": 37013, "source": {"name": "Wikidata", "slug": "wikidata"}, "source_identifier": "Q121315688"}], "date_modified": "2025-03-07T00:12:34.201992+11:00"}, {"id": 74389, "name": "Wynn Roberts", "roles_in_work": [{"id": 2718334, "title": "The Ambassador", "work_id": 121994, "role": "cast", "role_id": 33, "is_primary": false}, {"id": 2679403, "title": "Caulfield: a Living City", "work_id": 65885, "role": "narrator", "role_id": 499, "is_primary": false}], "also_known_as": "", "date_of_birth": "", "date_of_death": "", "genders": [{"id": 9, "name": "Male", "slug": "male"}], "languages": [], "places_of_operation": [], "biography": "", "biography_author": null, "date_of_biography": "2023-05-09T19:20:42.301660+10:00", "external_links": [], "uuid": "a2c95896-f21e-44d8-8bb5-7014c9207c2d", "source": {"name": "Vernon", "slug": "vernon"}, "source_identifier": "37519", "external_references": [{"id": 35711, "source": {"name": "Wikidata", "slug": "wikidata"}, "source_identifier": "Q121086202"}], "date_modified": "2025-03-12T06:30:31.585821+11:00"}, {"id": 74388, "name": "Judith Klein", "roles_in_work": [{"id": 2307829, "title": "Sports challenge = Sports divers", "work_id": 73117, "role": "director", "role_id": 938, "is_primary": true}, {"id": 2165175, "title": "Modulations", "work_id": 85722, "role": "director", "role_id": 938, "is_primary": true}, {"id": 2679394, "title": "Catuor", "work_id": 65883, "role": "director", "role_id": 938, "is_primary": true}], "also_known_as": "", "date_of_birth": "", "date_of_death": "", "genders": [{"id": 5, "name": "Female", "slug": "female"}], "languages": [], "places_of_operation": [], "biography": "", "biography_author": null, "date_of_biography": "2023-05-09T18:47:49.197240+10:00", "external_links": [], "uuid": "6a093ab7-aeea-4bf5-b8cf-9e6fc1dfc9a4", "source": {"name": "Vernon", "slug": "vernon"}, "source_identifier": "22802", "external_references": [{"id": 34756, "source": {"name": "Wikidata", "slug": "wikidata"}, "source_identifier": "Q49828526"}], "date_modified": "2025-03-07T00:12:08.700967+11:00"}, {"id": 74387, "name": "Pierre Heberrt", "roles_in_work": [{"id": 2177213, "title": "Op hop, op hop", "work_id": 71157, "role": "director", "role_id": 938, "is_primary": true}, {"id": 2749746, "title": "Santa Claus is coming tonight", "work_id": 96957, "role": "director", "role_id": 938, "is_primary": true}, {"id": 2210310, "title": "Population explosion", "work_id": 71705, "role": "director", "role_id": 938, "is_primary": true}, {"id": 2645881, "title": "Opus 3: variations on a random structure", "work_id": 71197, "role": "director", "role_id": 938, "is_primary": true}, {"id": 905094, "title": "Under the weather = A L'ombre", "work_id": 85848, "role": "co-producer", "role_id": 915, "is_primary": true}, {"id": 2072692, "title": "A Piece of cake = Cest pas chinois", "work_id": 77110, "role": "co-producer", "role_id": 915, "is_primary": true}, {"id": 2186649, "title": "Des Ensembles", "work_id": 87709, "role": "producer", "role_id": 1089, "is_primary": true}, {"id": 2100550, "title": "Around perception", "work_id": 77844, "role": "producer", "role_id": 1089, "is_primary": true}, {"id": 2156768, "title": "Cycle", "work_id": 77103, "role": "producer", "role_id": 1089, "is_primary": true}, {"id": 2679393, "title": "Catuor", "work_id": 65883, "role": "producer", "role_id": 1089, "is_primary": true}], "also_known_as": "", "date_of_birth": "", "date_of_death": "", "genders": [], "languages": [], "places_of_operation": [], "biography": "", "biography_author": null, "date_of_biography": "2023-05-09T17:31:29.928598+10:00", "external_links": [], "uuid": "ad85e3ad-875f-4632-b650-043748d6c855", "source": {"name": "Vernon", "slug": "vernon"}, "source_identifier": "26930", "external_references": [], "date_modified": "2025-03-13T00:06:20.754362+11:00"}, {"id": 74386, "name": "Patrick Watson", "roles_in_work": [{"id": 2679374, "title": "The Cathode colours them human", "work_id": 65872, "role": "co-producer", "role_id": 915, "is_primary": true}], "also_known_as": "", "date_of_birth": "", "date_of_death": "", "genders": [], "languages": [], "places_of_operation": [], "biography": "", "biography_author": null, "date_of_biography": "2023-05-09T19:32:18.750453+10:00", "external_links": [], "uuid": "57a95a38-ea52-41d6-a692-fc5a0f90931e", "source": {"name": "Vernon", "slug": "vernon"}, "source_identifier": "26155", "external_references": [{"id": 35333, "source": {"name": "Wikidata", "slug": "wikidata"}, "source_identifier": "Q121057848"}], "date_modified": "2025-03-07T00:11:52.599215+11:00"}, {"id": 74385, "name": "J Willis", "roles_in_work": [{"id": 2679373, "title": "The Cathode colours them human", "work_id": 65872, "role": "co-producer", "role_id": 915, "is_primary": true}], "also_known_as": "", "date_of_birth": "", "date_of_death": "", "genders": [], "languages": [], "places_of_operation": [], "biography": "", "biography_author": null, "date_of_biography": "2023-05-09T19:32:18.515023+10:00", "external_links": [], "uuid": "eac92093-0735-437a-95b1-5051e1ec0202", "source": {"name": "Vernon", "slug": "vernon"}, "source_identifier": "21013", "external_references": [{"id": 52178, "source": {"name": "Wikidata", "slug": "wikidata"}, "source_identifier": "Q121357827"}], "date_modified": "2025-03-07T00:11:52.003697+11:00"}, {"id": 74384, "name": "Cecily Burwash", "roles_in_work": [{"id": 2679372, "title": "The Cathode colours them human", "work_id": 65872, "role": "co-producer", "role_id": 915, "is_primary": true}, {"id": 895149, "title": "Mrs Ryan's drama class", "work_id": 70669, "role": "co-producer", "role_id": 915, "is_primary": true}, {"id": 2356310, "title": "The Invention of the adolescent", "work_id": 69077, "role": "co-producer", "role_id": 915, "is_primary": true}, {"id": 2356497, "title": "The Invention of the adolescent (TEFC)", "work_id": 86272, "role": "co-producer", "role_id": 915, "is_primary": true}, {"id": 2316968, "title": "Summerhill (TEFC)", "work_id": 89656, "role": "producer", "role_id": 1089, "is_primary": true}, {"id": 2316967, "title": "Summerhill", "work_id": 73357, "role": "producer", "role_id": 1089, "is_primary": true}], "also_known_as": "", "date_of_birth": "", "date_of_death": "", "genders": [], "languages": [], "places_of_operation": [], "biography": "", "biography_author": null, "date_of_biography": "2023-05-09T20:04:46.806865+10:00", "external_links": [], "uuid": "28d65ba7-ba03-4791-bb28-df3e03c030df", "source": {"name": "Vernon", "slug": "vernon"}, "source_identifier": "16626", "external_references": [{"id": 36653, "source": {"name": "Wikidata", "slug": "wikidata"}, "source_identifier": "Q121079261"}], "date_modified": "2025-03-07T00:11:51.389370+11:00"}, {"id": 74383, "name": "Pat Baldwin", "roles_in_work": [{"id": 2679360, "title": "The Caterpillar and the wild animals", "work_id": 65867, "role": "co-producer", "role_id": 915, "is_primary": true}], "also_known_as": "", "date_of_birth": "", "date_of_death": "", "genders": [], "languages": [], "places_of_operation": [], "biography": "", "biography_author": null, "date_of_biography": "2023-05-09T19:32:15.884875+10:00", "external_links": [], "uuid": "7dff83d3-6b50-4969-977a-19e84985bb42", "source": {"name": "Vernon", "slug": "vernon"}, "source_identifier": "26062", "external_references": [{"id": 38471, "source": {"name": "Wikidata", "slug": "wikidata"}, "source_identifier": "Q121036418"}], "date_modified": "2025-03-07T00:11:42.902323+11:00"}]}