{"count": 28683, "next": "https://api.acmi.net.au/creators/?page=307", "previous": "https://api.acmi.net.au/creators/?page=305", "results": [{"id": 82543, "name": "Zuo Xinhui", "roles_in_work": [{"id": 2650977, "title": "Five little warriors = Wu hu jiang", "work_id": 115785, "role": "cinematographer", "role_id": 32, "is_primary": false}], "also_known_as": "", "date_of_birth": "", "date_of_death": "", "genders": [], "languages": [], "places_of_operation": [], "biography": "", "biography_author": null, "date_of_biography": "2023-05-09T16:58:10.179836+10:00", "external_links": [], "uuid": "4050b292-e9a5-4201-9be5-2d2daab6d355", "source": {"name": "Vernon", "slug": "vernon"}, "source_identifier": "36224", "external_references": [{"id": 43586, "source": {"name": "Wikidata", "slug": "wikidata"}, "source_identifier": "Q121078851"}], "date_modified": "2025-03-05T14:25:18.964903+11:00"}, {"id": 82542, "name": "Guan Xizhi", "roles_in_work": [{"id": 2650980, "title": "Five little warriors = Wu hu jiang", "work_id": 115785, "role": "script", "role_id": 962, "is_primary": false}], "also_known_as": "", "date_of_birth": "", "date_of_death": "", "genders": [], "languages": [], "places_of_operation": [], "biography": "", "biography_author": null, "date_of_biography": "2023-05-09T16:58:09.943409+10:00", "external_links": [], "uuid": "4c15a308-c453-4216-8071-3dafd0d9279b", "source": {"name": "Vernon", "slug": "vernon"}, "source_identifier": "36223", "external_references": [], "date_modified": "2025-03-05T14:25:18.396120+11:00"}, {"id": 82541, "name": "Wang Yiwan", "roles_in_work": [{"id": 2650978, "title": "Five little warriors = Wu hu jiang", "work_id": 115785, "role": "director", "role_id": 938, "is_primary": true}], "also_known_as": "", "date_of_birth": "", "date_of_death": "", "genders": [], "languages": [], "places_of_operation": [], "biography": "", "biography_author": null, "date_of_biography": "2023-05-09T16:58:09.694158+10:00", "external_links": [], "uuid": "88f5059a-6398-41bc-a73b-27e711d4e293", "source": {"name": "Vernon", "slug": "vernon"}, "source_identifier": "36222", "external_references": [{"id": 36692, "source": {"name": "Wikidata", "slug": "wikidata"}, "source_identifier": "Q121160087"}], "date_modified": "2025-03-05T14:25:17.824147+11:00"}, {"id": 82540, "name": "Liu Wenzhi", "roles_in_work": [{"id": 2650972, "title": "The Lost singing = Shi qu de ge sheng", "work_id": 115784, "role": "cast", "role_id": 33, "is_primary": false}], "also_known_as": "", "date_of_birth": null, "date_of_death": null, "genders": [], "languages": [], "places_of_operation": [], "biography": "", "biography_author": null, "date_of_biography": null, "external_links": [], "uuid": "b4b6650a-7412-4db6-bf66-f7ffaebc58a2", "source": {"name": "Vernon", "slug": "vernon"}, "source_identifier": "36309", "external_references": [{"id": 35296, "source": {"name": "Wikidata", "slug": "wikidata"}, "source_identifier": "Q121034810"}], "date_modified": "2025-03-05T14:25:16.358960+11:00"}, {"id": 82539, "name": "Chang Ruyan", "roles_in_work": [{"id": 2650971, "title": "The Lost singing = Shi qu de ge sheng", "work_id": 115784, "role": "cast", "role_id": 33, "is_primary": false}], "also_known_as": "", "date_of_birth": null, "date_of_death": null, "genders": [], "languages": [], "places_of_operation": [], "biography": "", "biography_author": null, "date_of_biography": null, "external_links": [], "uuid": "ef834d30-b9d5-453a-bd7b-530ece7ceced", "source": {"name": "Vernon", "slug": "vernon"}, "source_identifier": "36308", "external_references": [{"id": 40668, "source": {"name": "Wikidata", "slug": "wikidata"}, "source_identifier": "Q121222550"}], "date_modified": "2025-03-05T14:25:15.690162+11:00"}, {"id": 82538, "name": "Shao Yangzhen", "roles_in_work": [{"id": 2475745, "title": "Lucky 13 = Xianu shisan mei", "work_id": 115842, "role": "editor", "role_id": 918, "is_primary": true}, {"id": 2650969, "title": "The Lost singing = Shi qu de ge sheng", "work_id": 115784, "role": "editor", "role_id": 918, "is_primary": true}], "also_known_as": "", "date_of_birth": "", "date_of_death": "", "genders": [], "languages": [], "places_of_operation": [], "biography": "", "biography_author": null, "date_of_biography": "2023-08-17T15:12:12.912080+10:00", "external_links": [], "uuid": "1d49452d-6b80-489b-a4c5-1394185dd518", "source": {"name": "Vernon", "slug": "vernon"}, "source_identifier": "36185", "external_references": [{"id": 51780, "source": {"name": "Wikidata", "slug": "wikidata"}, "source_identifier": "Q121357526"}], "date_modified": "2025-03-05T14:25:15.114733+11:00"}, {"id": 82537, "name": "Zhuang Yongxing", "roles_in_work": [{"id": 2650967, "title": "The Lost singing = Shi qu de ge sheng", "work_id": 115784, "role": "cinematographer", "role_id": 32, "is_primary": false}], "also_known_as": "", "date_of_birth": null, "date_of_death": null, "genders": [], "languages": [], "places_of_operation": [], "biography": "", "biography_author": null, "date_of_biography": null, "external_links": [], "uuid": "31d98fca-2163-4c6f-9661-86730b881c3d", "source": {"name": "Vernon", "slug": "vernon"}, "source_identifier": "36307", "external_references": [{"id": 38280, "source": {"name": "Wikidata", "slug": "wikidata"}, "source_identifier": "Q121337424"}], "date_modified": "2025-03-05T14:25:14.533576+11:00"}, {"id": 82536, "name": "Lin Hongtong", "roles_in_work": [{"id": 2651242, "title": "Death and the maiden = Si shen yu shao nu", "work_id": 115816, "role": "director", "role_id": 938, "is_primary": true}, {"id": 2651402, "title": "The Dreaming age = Meng huan shi jie", "work_id": 115837, "role": "director", "role_id": 938, "is_primary": true}, {"id": 2651243, "title": "Death and the maiden = Si shen yu shao nu", "work_id": 115816, "role": "script", "role_id": 962, "is_primary": false}, {"id": 2650970, "title": "The Lost singing = Shi qu de ge sheng", "work_id": 115784, "role": "script", "role_id": 962, "is_primary": false}], "also_known_as": "", "date_of_birth": "", "date_of_death": "", "genders": [], "languages": [], "places_of_operation": [], "biography": "", "biography_author": null, "date_of_biography": "2023-05-09T19:45:22.308503+10:00", "external_links": [], "uuid": "aae55334-6fea-47a8-9568-3b8a322faa18", "source": {"name": "Vernon", "slug": "vernon"}, "source_identifier": "31366", "external_references": [{"id": 39785, "source": {"name": "Wikidata", "slug": "wikidata"}, "source_identifier": "Q121315566"}], "date_modified": "2025-03-05T14:29:37.292516+11:00"}, {"id": 82535, "name": "Shi Wei", "roles_in_work": [{"id": 2650968, "title": "The Lost singing = Shi qu de ge sheng", "work_id": 115784, "role": "director", "role_id": 938, "is_primary": true}], "also_known_as": "", "date_of_birth": null, "date_of_death": null, "genders": [{"id": 5, "name": "Female", "slug": "female"}], "languages": [], "places_of_operation": [], "biography": "", "biography_author": null, "date_of_biography": null, "external_links": [], "uuid": "ff879171-dcba-4136-bddb-053bb93aa283", "source": {"name": "Vernon", "slug": "vernon"}, "source_identifier": "36306", "external_references": [{"id": 36182, "source": {"name": "Wikidata", "slug": "wikidata"}, "source_identifier": "Q121035292"}], "date_modified": "2025-03-05T14:25:13.362818+11:00"}, {"id": 82534, "name": "Wang Yuzhang", "roles_in_work": [{"id": 2650961, "title": "A Winding mountain path = Shan dao wan wan", "work_id": 115783, "role": "editor", "role_id": 918, "is_primary": true}], "also_known_as": "", "date_of_birth": "", "date_of_death": "", "genders": [], "languages": [], "places_of_operation": [], "biography": "", "biography_author": null, "date_of_biography": "2023-05-09T11:42:41.760862+10:00", "external_links": [], "uuid": "2785780c-b644-4dbe-bf41-fa7b8c42b51a", "source": {"name": "Vernon", "slug": "vernon"}, "source_identifier": "36825", "external_references": [{"id": 40270, "source": {"name": "Wikidata", "slug": "wikidata"}, "source_identifier": "Q121036776"}], "date_modified": "2025-03-05T14:25:11.915784+11:00"}]}