{"count": 28687, "next": "https://api.acmi.net.au/creators/?page=506", "previous": "https://api.acmi.net.au/creators/?page=504", "results": [{"id": 80533, "name": "Nisha Pahuja", "roles_in_work": [{"id": 2122165, "title": "Bollywood bound", "work_id": 93922, "role": "director", "role_id": 938, "is_primary": true}], "also_known_as": "", "date_of_birth": "1978-06-03", "date_of_death": "", "genders": [{"id": 5, "name": "Female", "slug": "female"}], "languages": [], "places_of_operation": [{"id": 50, "name": "India", "slug": "india"}], "biography": "Nisha Pahuja (born 1978) is an independent Canadian filmmaker, born in New Delhi and raised in Toronto, Ontario. This writer/artist/director was introduced to film through studying English literature, working in social services and through working as a documentary researcher. She is currently a Rockefeller Foundation Bellagio Fellow. Nisha's first full-length film debut was in 2003 in Bollywood Bound, and more recently she produced a film The World Before Her (2012) which explored the diverse lifestyles of women competing to become Miss India and juxtaposing it with Hindu Nationalists fighting for their beliefs.", "biography_author": "Wikidata", "date_of_biography": "2023-09-05T23:32:30.402135+10:00", "external_links": [{"id": 6069, "uri": "https://en.wikipedia.org/wiki/Nisha_Pahuja"}], "uuid": "3644e329-39a8-45d2-a637-139b55403d2f", "source": {"name": "Vernon", "slug": "vernon"}, "source_identifier": "25840", "external_references": [{"id": 39925, "source": {"name": "Wikidata", "slug": "wikidata"}, "source_identifier": "Q19895012"}], "date_modified": "2023-09-05T23:32:30.422646+10:00"}, {"id": 80532, "name": "Karen King-Chigbo", "roles_in_work": [{"id": 2122162, "title": "Bollywood bound", "work_id": 93922, "role": "producer", "role_id": 1089, "is_primary": true}], "also_known_as": "", "date_of_birth": "", "date_of_death": "", "genders": [], "languages": [], "places_of_operation": [], "biography": "", "biography_author": null, "date_of_biography": "2023-05-09T13:05:19.928406+10:00", "external_links": [], "uuid": "e21a6cc9-f978-4197-bd7c-89e352a12e89", "source": {"name": "Vernon", "slug": "vernon"}, "source_identifier": "22997", "external_references": [{"id": 36138, "source": {"name": "Wikidata", "slug": "wikidata"}, "source_identifier": "Q121315607"}], "date_modified": "2023-09-05T21:59:46.592963+10:00"}, {"id": 80531, "name": "Mary Downes", "roles_in_work": [{"id": 3085728, "title": "Ireland", "work_id": 93914, "role": "producer/director", "role_id": 31, "is_primary": true}], "also_known_as": "", "date_of_birth": "", "date_of_death": "", "genders": [], "languages": [], "places_of_operation": [], "biography": "", "biography_author": null, "date_of_biography": "2023-05-09T12:51:43.817712+10:00", "external_links": [], "uuid": "e4b917a6-7525-4871-965d-f611bdb73603", "source": {"name": "Vernon", "slug": "vernon"}, "source_identifier": "24715", "external_references": [{"id": 51431, "source": {"name": "Wikidata", "slug": "wikidata"}, "source_identifier": "Q121360853"}], "date_modified": "2025-03-17T10:41:09.364120+11:00"}, {"id": 80530, "name": "Liz Gray", "roles_in_work": [{"id": 916138, "title": "Muhammad: legacy of a prophet [Widescreen]", "work_id": 94573, "role": "co-producer", "role_id": 915, "is_primary": true}, {"id": 2120549, "title": "Blood and flowers: in search of the Aztecs", "work_id": 93912, "role": "producer/director", "role_id": 31, "is_primary": true}], "also_known_as": "", "date_of_birth": "", "date_of_death": "", "genders": [], "languages": [], "places_of_operation": [], "biography": "", "biography_author": null, "date_of_biography": "2023-05-09T13:02:46.462475+10:00", "external_links": [], "uuid": "e0cb2754-0638-4d1d-97e0-f4228c98e89a", "source": {"name": "Vernon", "slug": "vernon"}, "source_identifier": "23943", "external_references": [{"id": 36901, "source": {"name": "Wikidata", "slug": "wikidata"}, "source_identifier": "Q121036848"}], "date_modified": "2023-09-05T22:28:44.203093+10:00"}, {"id": 80529, "name": "Lena Corner", "roles_in_work": [{"id": 3084890, "title": "Public hangings. Series 1. Ep. 10", "work_id": 93895, "role": "co-director", "role_id": 959, "is_primary": true}, {"id": 3084902, "title": "Public hangings. Series 1. Ep. 11", "work_id": 93896, "role": "co-director", "role_id": 959, "is_primary": true}, {"id": 3084915, "title": "Public hangings. Series 1. Ep. 12", "work_id": 93897, "role": "co-director", "role_id": 959, "is_primary": true}, {"id": 3084928, "title": "Public hangings. Series 1. Ep. 13", "work_id": 93898, "role": "co-director", "role_id": 959, "is_primary": true}, {"id": 3084940, "title": "Public hangings. Series 2. Ep. 01", "work_id": 93899, "role": "co-director", "role_id": 959, "is_primary": true}, {"id": 2233475, "title": "Public hangings. Series 2. Ep. 05", "work_id": 93903, "role": "co-director", "role_id": 959, "is_primary": true}, {"id": 2233066, "title": "Public hangings. Series 2. Ep. 02", "work_id": 93900, "role": "co-director", "role_id": 959, "is_primary": true}, {"id": 2233111, "title": "Public hangings. Series 2. Ep. 04", "work_id": 93902, "role": "co-director", "role_id": 959, "is_primary": true}, {"id": 2233161, "title": "Public hangings. Series 2. Ep. 11", "work_id": 93909, "role": "co-director", "role_id": 959, "is_primary": true}, {"id": 3084877, "title": "Public hangings. Series 1. Ep. 09", "work_id": 93894, "role": "co-director", "role_id": 959, "is_primary": true}, {"id": 2233119, "title": "Public hangings. Series 2. Ep. 06", "work_id": 93904, "role": "co-director", "role_id": 959, "is_primary": true}, {"id": 2233134, "title": "Public hangings. Series 2. Ep. 08", "work_id": 93906, "role": "co-director", "role_id": 959, "is_primary": true}, {"id": 2233095, "title": "Public hangings. Series 2. Ep. 03", "work_id": 93901, "role": "co-director", "role_id": 959, "is_primary": true}, {"id": 2233506, "title": "Public hangings. Series 2. Ep. 09", "work_id": 93907, "role": "co-director", "role_id": 959, "is_primary": true}, {"id": 2233471, "title": "Public hangings. Series 2. Ep. 07", "work_id": 93905, "role": "co-director", "role_id": 959, "is_primary": true}, {"id": 3084863, "title": "Public hangings. Series 1. Ep. 08", "work_id": 93893, "role": "co-director", "role_id": 959, "is_primary": true}, {"id": 3084852, "title": "Public hangings. Series 1. Ep. 07", "work_id": 93892, "role": "co-director", "role_id": 959, "is_primary": true}, {"id": 2233142, "title": "Public hangings. Series 2. Ep. 10", "work_id": 93908, "role": "co-director", "role_id": 959, "is_primary": true}], "also_known_as": "", "date_of_birth": "", "date_of_death": "", "genders": [], "languages": [], "places_of_operation": [], "biography": "", "biography_author": null, "date_of_biography": "2023-05-09T16:42:39.850439+10:00", "external_links": [], "uuid": "e7a8ed6a-bf6c-473c-81bd-2baf9a56383b", "source": {"name": "Vernon", "slug": "vernon"}, "source_identifier": "9974", "external_references": [{"id": 36842, "source": {"name": "Wikidata", "slug": "wikidata"}, "source_identifier": "Q121336963"}], "date_modified": "2025-03-17T10:38:30.972529+11:00"}, {"id": 80528, "name": "Catherine Fol", "roles_in_work": [{"id": 2340519, "title": "The Cosmic link [Widescreen]", "work_id": 93886, "role": "director", "role_id": 938, "is_primary": true}, {"id": 917101, "title": "This is not Einstein", "work_id": 95033, "role": "director", "role_id": 938, "is_primary": true}], "also_known_as": "", "date_of_birth": "", "date_of_death": "", "genders": [], "languages": [], "places_of_operation": [], "biography": "", "biography_author": null, "date_of_biography": "2023-05-09T19:38:52.848805+10:00", "external_links": [], "uuid": "2eec430f-4266-484e-a5c1-0d6eefc96f2c", "source": {"name": "Vernon", "slug": "vernon"}, "source_identifier": "16594", "external_references": [{"id": 33090, "source": {"name": "Wikidata", "slug": "wikidata"}, "source_identifier": "Q121143768"}], "date_modified": "2023-09-05T18:22:38.357867+10:00"}, {"id": 80527, "name": "Joseph McGrath", "roles_in_work": [{"id": 2795119, "title": "Casino royale", "work_id": 93885, "role": "co-director", "role_id": 959, "is_primary": true}], "also_known_as": "", "date_of_birth": "01 JAN 1930", "date_of_death": "", "genders": [{"id": 9, "name": "Male", "slug": "male"}], "languages": [{"id": 1, "name": "English", "slug": "english"}], "places_of_operation": [{"id": 10, "name": "United Kingdom", "slug": "united-kingdom"}], "biography": "Joseph McGrath  (born 28 March 1928) is a Scottish film and television director and screenwriter. He was born in Glasgow and studied at Glasgow School of Art in the late 1940s and early 1950s where his energy and talent was admired by his contemporaries.McGrath is best known for his collaborations with The Goon Show stars Peter Sellers and Spike Milligan. He directed the scenes with Sellers and Orson Welles in the multi-director James bond spoof Casino Royale (1967). He also directed Sellers and Spike Milligan in The Magic Christian (1969) and The Great McGonagall (1974).McGrath also worked with director Richard Lester on the Beatles' musical-comedy films A Hard Day's Night (1964) and Help! (1965). In November 1965, McGrath directed the Beatles' first-ever music videos (known at the time as \"promo clips\"), filming the band miming to five of their hit songs, including \"Ticket to Ride\", \"Help!\" and \"Day Tripper\".In the 2004 film The Life and Death of Peter Sellers, Alan Williams plays the unnamed director of Casino Royale, whom Sellers (played by Geoffrey Rush) calls \"Joe\". Source: Wikidata; 01/08/2023", "biography_author": null, "date_of_biography": "2025-03-14T20:30:25.125539+11:00", "external_links": [{"id": 2475, "uri": "https://en.wikipedia.org/wiki/Joseph_McGrath_(film_director)"}], "uuid": "f5228b6e-d654-4bb1-87c9-583a4842d9b3", "source": {"name": "Vernon", "slug": "vernon"}, "source_identifier": "22738", "external_references": [{"id": 10577, "source": {"name": "Wikidata", "slug": "wikidata"}, "source_identifier": "Q6285469"}, {"id": 10578, "source": {"name": "VIAF", "slug": "viaf"}, "source_identifier": "120343005"}, {"id": 10579, "source": {"name": "LOC Auth", "slug": "loc-auth"}, "source_identifier": "n79042624"}, {"id": 10580, "source": {"name": "WorldCat", "slug": "worldcat"}, "source_identifier": "lccn-n79042624"}], "date_modified": "2025-03-14T20:30:25.125817+11:00"}, {"id": 80526, "name": "John Glen", "roles_in_work": [{"id": 2795091, "title": "For your eyes only (Special edition)", "work_id": 93875, "role": "director", "role_id": 938, "is_primary": true}, {"id": 2795101, "title": "Octopussy (Special edition)", "work_id": 93879, "role": "director", "role_id": 938, "is_primary": true}, {"id": 2795111, "title": "A View to a kill (Special edition)", "work_id": 93883, "role": "director", "role_id": 938, "is_primary": true}, {"id": 2795069, "title": "The Living daylights (Special edition)", "work_id": 93872, "role": "director", "role_id": 938, "is_primary": true}, {"id": 2795087, "title": "Licence to kill (Special edition)", "work_id": 93874, "role": "director", "role_id": 938, "is_primary": true}], "also_known_as": "", "date_of_birth": "15 MAY 1932", "date_of_death": "", "genders": [{"id": 9, "name": "Male", "slug": "male"}], "languages": [{"id": 1, "name": "English", "slug": "english"}], "places_of_operation": [{"id": 10, "name": "United Kingdom", "slug": "united-kingdom"}], "biography": "John Glen (born 15 May 1932) is a retired English film director and editor. He is best known for his work on the James Bond series, firstly by editing a number of earlier James Bond films and then later moving on to direct a further five Bond films in the franchise. Source: Wikidata; 01/08/2023", "biography_author": null, "date_of_biography": "2025-03-14T20:30:21.152000+11:00", "external_links": [{"id": 4376, "uri": "https://en.wikipedia.org/wiki/John_Glen_(director)"}], "uuid": "cfad4049-f091-42ef-977e-02d25f3a040e", "source": {"name": "Vernon", "slug": "vernon"}, "source_identifier": "22281", "external_references": [{"id": 25872, "source": {"name": "Wikidata", "slug": "wikidata"}, "source_identifier": "Q545216"}, {"id": 29496, "source": {"name": "VIAF", "slug": "viaf"}, "source_identifier": "49418977"}, {"id": 29497, "source": {"name": "LOC Auth", "slug": "loc-auth"}, "source_identifier": "n93044143"}, {"id": 29498, "source": {"name": "WorldCat", "slug": "worldcat"}, "source_identifier": "lccn-n93044143"}], "date_modified": "2025-03-14T20:30:21.152286+11:00"}, {"id": 80525, "name": "Andrew Faiz", "roles_in_work": [{"id": 2243879, "title": "Flemingdon Park: the global village", "work_id": 93867, "role": "director", "role_id": 938, "is_primary": true}], "also_known_as": "", "date_of_birth": "", "date_of_death": "", "genders": [], "languages": [], "places_of_operation": [], "biography": "", "biography_author": null, "date_of_biography": "2023-05-09T16:59:07.682915+10:00", "external_links": [], "uuid": "4c8d2111-2b41-4386-8b9e-e46af702f21c", "source": {"name": "Vernon", "slug": "vernon"}, "source_identifier": "15159", "external_references": [{"id": 35317, "source": {"name": "Wikidata", "slug": "wikidata"}, "source_identifier": "Q121271085"}], "date_modified": "2023-09-05T17:35:21.295046+10:00"}, {"id": 80524, "name": "Gerry Flahive", "roles_in_work": [{"id": 1820192, "title": "Offstage, onstage: inside the Stratford Festival [Widescreen", "work_id": 94001, "role": "producer", "role_id": 1089, "is_primary": true}, {"id": 2243875, "title": "Flemingdon Park: the global village", "work_id": 93867, "role": "producer", "role_id": 1089, "is_primary": true}], "also_known_as": "", "date_of_birth": "", "date_of_death": "", "genders": [], "languages": [], "places_of_operation": [], "biography": "", "biography_author": null, "date_of_biography": "2023-05-09T16:59:07.454141+10:00", "external_links": [], "uuid": "08399fe0-cdfa-47ed-bbf7-753d30b47664", "source": {"name": "Vernon", "slug": "vernon"}, "source_identifier": "19777", "external_references": [{"id": 43628, "source": {"name": "Wikidata", "slug": "wikidata"}, "source_identifier": "Q121091305"}], "date_modified": "2023-09-05T20:10:18.081865+10:00"}]}