{"count": 28687, "next": "https://api.acmi.net.au/creators/?page=545", "previous": "https://api.acmi.net.au/creators/?page=543", "results": [{"id": 80143, "name": "Ludovico Toeplitz", "roles_in_work": [{"id": 1999691, "title": "The Rise of Catherine the Great [DVD]", "work_id": 94656, "role": "co-producer", "role_id": 915, "is_primary": true}, {"id": 1997076, "title": "The Private life of Henry VIII = The Private life of Henry Eighth", "work_id": 93115, "role": "co-producer", "role_id": 915, "is_primary": true}], "also_known_as": "", "date_of_birth": null, "date_of_death": null, "genders": [], "languages": [], "places_of_operation": [], "biography": "", "biography_author": null, "date_of_biography": null, "external_links": [], "uuid": "15b222e5-4a6b-4693-a2e6-6d74b61933c6", "source": {"name": "Vernon", "slug": "vernon"}, "source_identifier": null, "external_references": [{"id": 41391, "source": {"name": "Wikidata", "slug": "wikidata"}, "source_identifier": "Q121057811"}], "date_modified": "2023-09-05T22:33:45.421272+10:00"}, {"id": 80142, "name": "Howard Malin", "roles_in_work": [{"id": 2265360, "title": "Sebastiane", "work_id": 93114, "role": "co-producer", "role_id": 915, "is_primary": true}], "also_known_as": "", "date_of_birth": "", "date_of_death": "", "genders": [], "languages": [], "places_of_operation": [], "biography": "", "biography_author": null, "date_of_biography": "2023-05-09T17:36:53.167396+10:00", "external_links": [], "uuid": "bf976bdc-f0e4-4377-b68b-01118ac901e0", "source": {"name": "Vernon", "slug": "vernon"}, "source_identifier": "20627", "external_references": [{"id": 35375, "source": {"name": "Wikidata", "slug": "wikidata"}, "source_identifier": "Q121223416"}], "date_modified": "2023-09-05T20:41:46.582241+10:00"}, {"id": 80141, "name": "James Whaley", "roles_in_work": [{"id": 2265355, "title": "Sebastiane", "work_id": 93114, "role": "co-producer", "role_id": 915, "is_primary": true}], "also_known_as": "", "date_of_birth": "", "date_of_death": "", "genders": [], "languages": [], "places_of_operation": [], "biography": "", "biography_author": null, "date_of_biography": "2023-05-09T17:36:52.788247+10:00", "external_links": [], "uuid": "65c79b9c-8513-46d4-8c29-6c742f4cf8a6", "source": {"name": "Vernon", "slug": "vernon"}, "source_identifier": "21338", "external_references": [{"id": 36801, "source": {"name": "Wikidata", "slug": "wikidata"}, "source_identifier": "Q121085999"}], "date_modified": "2023-09-05T21:05:27.373338+10:00"}, {"id": 80140, "name": "Kevin Segalla", "roles_in_work": [{"id": 2471687, "title": "Whatever", "work_id": 93113, "role": "co-producer", "role_id": 915, "is_primary": true}], "also_known_as": "", "date_of_birth": "", "date_of_death": "", "genders": [], "languages": [], "places_of_operation": [], "biography": "", "biography_author": null, "date_of_biography": "2023-08-14T12:44:33.115202+10:00", "external_links": [], "uuid": "155f20e6-f2ae-4e68-861b-835e6aed8152", "source": {"name": "Vernon", "slug": "vernon"}, "source_identifier": "23308", "external_references": [], "date_modified": "2023-08-14T12:44:33.115436+10:00"}, {"id": 80139, "name": "Michelle Yahn", "roles_in_work": [{"id": 2471686, "title": "Whatever", "work_id": 93113, "role": "co-producer", "role_id": 915, "is_primary": true}], "also_known_as": "", "date_of_birth": "", "date_of_death": "", "genders": [], "languages": [], "places_of_operation": [], "biography": "", "biography_author": null, "date_of_biography": "2023-08-14T12:44:32.490187+10:00", "external_links": [], "uuid": "fdd313f1-263d-45f6-adca-846296edc6e7", "source": {"name": "Vernon", "slug": "vernon"}, "source_identifier": "25315", "external_references": [{"id": 38081, "source": {"name": "Wikidata", "slug": "wikidata"}, "source_identifier": "Q121091199"}], "date_modified": "2023-09-05T23:13:10.529356+10:00"}, {"id": 80138, "name": "Ellin Baumel", "roles_in_work": [{"id": 2471685, "title": "Whatever", "work_id": 93113, "role": "co-producer", "role_id": 915, "is_primary": true}], "also_known_as": "", "date_of_birth": "", "date_of_death": "", "genders": [], "languages": [], "places_of_operation": [], "biography": "", "biography_author": null, "date_of_biography": "2023-08-14T12:44:31.874215+10:00", "external_links": [], "uuid": "7aea02ea-0108-4e66-a9f1-af1bb37368fc", "source": {"name": "Vernon", "slug": "vernon"}, "source_identifier": "18727", "external_references": [{"id": 39858, "source": {"name": "Wikidata", "slug": "wikidata"}, "source_identifier": "Q121160058"}], "date_modified": "2023-09-05T19:30:08.258542+10:00"}, {"id": 80137, "name": "Anders Berggren", "roles_in_work": [{"id": 2157243, "title": "Junkmail = Budbringeren", "work_id": 93111, "role": "co-producer", "role_id": 915, "is_primary": true}], "also_known_as": "", "date_of_birth": "", "date_of_death": "", "genders": [], "languages": [], "places_of_operation": [], "biography": "", "biography_author": null, "date_of_biography": "2023-05-09T14:08:09.773475+10:00", "external_links": [], "uuid": "6188877f-ace2-4087-83aa-aa5db1fe8163", "source": {"name": "Vernon", "slug": "vernon"}, "source_identifier": "15090", "external_references": [{"id": 33459, "source": {"name": "Wikidata", "slug": "wikidata"}, "source_identifier": "Q121126315"}], "date_modified": "2023-09-05T17:33:08.690753+10:00"}, {"id": 80136, "name": "Tom Remlov", "roles_in_work": [{"id": 2000935, "title": "Insomnia (1997)", "work_id": 95258, "role": "co-producer", "role_id": 915, "is_primary": true}, {"id": 2157240, "title": "Junkmail = Budbringeren", "work_id": 93111, "role": "co-producer", "role_id": 915, "is_primary": true}], "also_known_as": "", "date_of_birth": "", "date_of_death": "", "genders": [], "languages": [], "places_of_operation": [], "biography": "", "biography_author": null, "date_of_biography": "2023-05-09T14:08:09.536014+10:00", "external_links": [], "uuid": "1b0ede3f-6fe7-4d61-9025-7c56cce24896", "source": {"name": "Vernon", "slug": "vernon"}, "source_identifier": "13609", "external_references": [{"id": 32725, "source": {"name": "Wikidata", "slug": "wikidata"}, "source_identifier": "Q121036459"}], "date_modified": "2023-09-06T01:54:11.561607+10:00"}, {"id": 80135, "name": "Justis Addiss", "roles_in_work": [{"id": 2171995, "title": "James Dean: the rare movies", "work_id": 93108, "role": "co-director", "role_id": 959, "is_primary": true}], "also_known_as": "", "date_of_birth": "", "date_of_death": "", "genders": [], "languages": [], "places_of_operation": [], "biography": "", "biography_author": null, "date_of_biography": "2023-05-09T14:37:29.559966+10:00", "external_links": [], "uuid": "1b2a8774-77c1-40e4-adc4-9c1cd3845083", "source": {"name": "Vernon", "slug": "vernon"}, "source_identifier": "22950", "external_references": [{"id": 43458, "source": {"name": "Wikidata", "slug": "wikidata"}, "source_identifier": "Q121036419"}], "date_modified": "2023-09-05T21:58:18.837662+10:00"}, {"id": 80134, "name": "William Self", "roles_in_work": [{"id": 1998029, "title": "The Shootist [DVD]", "work_id": 93588, "role": "co-producer", "role_id": 915, "is_primary": true}, {"id": 2171986, "title": "James Dean: the rare movies", "work_id": 93108, "role": "co-producer", "role_id": 915, "is_primary": true}], "also_known_as": "", "date_of_birth": "", "date_of_death": "", "genders": [], "languages": [], "places_of_operation": [], "biography": "", "biography_author": null, "date_of_biography": "2023-05-09T14:37:28.943728+10:00", "external_links": [], "uuid": "5697973f-5be3-4dd5-9d1b-24a4cb0a71f6", "source": {"name": "Vernon", "slug": "vernon"}, "source_identifier": "30495", "external_references": [{"id": 50877, "source": {"name": "Wikidata", "slug": "wikidata"}, "source_identifier": "Q121357730"}], "date_modified": "2023-09-06T02:18:02.552729+10:00"}]}