{"count": 28687, "next": "https://api.acmi.net.au/creators/?page=2443", "previous": "https://api.acmi.net.au/creators/?page=2441", "results": [{"id": 14627, "name": "John Alderson", "roles_in_work": [{"id": 2712715, "title": "El Dorado", "work_id": 67060, "role": "director", "role_id": 938, "is_primary": true}, {"id": 1803758, "title": "Sheepdog", "work_id": 72752, "role": "producer", "role_id": 1089, "is_primary": true}], "also_known_as": "", "date_of_birth": "", "date_of_death": "", "genders": [], "languages": [], "places_of_operation": [], "biography": "", "biography_author": null, "date_of_biography": "2023-08-11T16:20:01.553433+10:00", "external_links": [], "uuid": "f8e68ef6-092d-486f-8333-9c8d00a60bce", "source": {"name": "Vernon", "slug": "vernon"}, "source_identifier": "22093", "external_references": [], "date_modified": "2025-03-12T00:29:25.378446+11:00"}, {"id": 14626, "name": "Argosy-Crown Film Unit", "roles_in_work": [{"id": 2712714, "title": "El Dorado", "work_id": 67060, "role": "production company", "role_id": 941, "is_primary": true}], "also_known_as": "", "date_of_birth": "", "date_of_death": "", "genders": [], "languages": [], "places_of_operation": [], "biography": "", "biography_author": null, "date_of_biography": "2023-08-11T16:20:00.917124+10:00", "external_links": [], "uuid": "642aaa0e-e432-4d28-87e0-301f3fee0e5e", "source": {"name": "Vernon", "slug": "vernon"}, "source_identifier": "5364", "external_references": [], "date_modified": "2025-03-12T00:29:24.783411+11:00"}, {"id": 14625, "name": "Norton Heilig", "roles_in_work": [{"id": 2712713, "title": "El Barrio", "work_id": 67059, "role": "director", "role_id": 938, "is_primary": true}], "also_known_as": "", "date_of_birth": null, "date_of_death": null, "genders": [], "languages": [], "places_of_operation": [], "biography": "", "biography_author": null, "date_of_biography": null, "external_links": [], "uuid": "a7460fc5-07e2-497a-9879-75b064ab73b5", "source": {"name": "Vernon", "slug": "vernon"}, "source_identifier": "25923", "external_references": [], "date_modified": "2025-03-12T00:29:23.928525+11:00"}, {"id": 14624, "name": "David Sureck", "roles_in_work": [{"id": 2712712, "title": "El Barrio", "work_id": 67059, "role": "producer", "role_id": 1089, "is_primary": true}], "also_known_as": "", "date_of_birth": null, "date_of_death": null, "genders": [], "languages": [], "places_of_operation": [], "biography": "", "biography_author": null, "date_of_biography": null, "external_links": [], "uuid": "99495c82-12cd-47d5-aacd-413b3f4cf85c", "source": {"name": "Vernon", "slug": "vernon"}, "source_identifier": "17811", "external_references": [], "date_modified": "2025-03-12T00:29:23.336961+11:00"}, {"id": 14623, "name": "Arthur Guest", "roles_in_work": [{"id": 2644628, "title": "Eire", "work_id": 67056, "role": "director", "role_id": 938, "is_primary": true}], "also_known_as": "", "date_of_birth": null, "date_of_death": null, "genders": [], "languages": [], "places_of_operation": [], "biography": "", "biography_author": null, "date_of_biography": null, "external_links": [], "uuid": "928af790-c044-43a1-8b3f-75f78169c965", "source": {"name": "Vernon", "slug": "vernon"}, "source_identifier": "15533", "external_references": [], "date_modified": "2025-03-05T12:21:59.863988+11:00"}, {"id": 14622, "name": "Martin Freeth", "roles_in_work": [{"id": 2293040, "title": "The Trouble with medicine. [Part 2]", "work_id": 83948, "role": "co-producer", "role_id": 915, "is_primary": true}, {"id": 2293016, "title": "The Trouble with medicine. [Part 1]", "work_id": 83949, "role": "co-producer", "role_id": 915, "is_primary": true}, {"id": 2761473, "title": "The Fat in the fire", "work_id": 75191, "role": "producer", "role_id": 1089, "is_primary": true}, {"id": 2761740, "title": "The Spike", "work_id": 76814, "role": "producer", "role_id": 1089, "is_primary": true}, {"id": 1904179, "title": "What little girls are made of (TEFC)", "work_id": 78542, "role": "producer", "role_id": 1089, "is_primary": true}], "also_known_as": "", "date_of_birth": "", "date_of_death": "", "genders": [], "languages": [], "places_of_operation": [], "biography": "", "biography_author": null, "date_of_biography": "2023-05-09T19:53:57.478235+10:00", "external_links": [], "uuid": "4061008c-e464-4fd4-b929-26fbd00cfa92", "source": {"name": "Vernon", "slug": "vernon"}, "source_identifier": "24634", "external_references": [], "date_modified": "2025-03-14T17:35:08.309450+11:00"}, {"id": 14618, "name": "Co-operative Generale du Cinema Francais", "roles_in_work": [{"id": 857870, "title": "The Rose and the mignonette", "work_id": 72348, "role": "production company", "role_id": 941, "is_primary": true}, {"id": 2712704, "title": "1848", "work_id": 67053, "role": "production company", "role_id": 941, "is_primary": true}], "also_known_as": "", "date_of_birth": "", "date_of_death": "", "genders": [], "languages": [], "places_of_operation": [], "biography": "", "biography_author": null, "date_of_biography": "2023-05-09T11:18:49.574233+10:00", "external_links": [], "uuid": "e922c582-403a-48fd-b32e-cfe1175dbd62", "source": {"name": "Vernon", "slug": "vernon"}, "source_identifier": "7043", "external_references": [{"id": 36002, "source": {"name": "Wikidata", "slug": "wikidata"}, "source_identifier": "Q121035149"}], "date_modified": "2025-03-12T00:29:17.236081+11:00"}, {"id": 14617, "name": "William Lewin", "roles_in_work": [{"id": 2712693, "title": "Eight parts of a business letter", "work_id": 67048, "role": "director", "role_id": 938, "is_primary": true}], "also_known_as": "", "date_of_birth": "", "date_of_death": "", "genders": [], "languages": [], "places_of_operation": [], "biography": "", "biography_author": null, "date_of_biography": "2023-08-11T16:19:53.548200+10:00", "external_links": [], "uuid": "135739f3-9550-40c6-82ab-407ed90d36f0", "source": {"name": "Vernon", "slug": "vernon"}, "source_identifier": "30466", "external_references": [], "date_modified": "2025-03-12T00:29:05.171094+11:00"}, {"id": 14616, "name": "G Russell Taylor", "roles_in_work": [{"id": 2712692, "title": "Eight parts of a business letter", "work_id": 67048, "role": "producer", "role_id": 1089, "is_primary": true}], "also_known_as": "", "date_of_birth": "", "date_of_death": "", "genders": [], "languages": [], "places_of_operation": [], "biography": "", "biography_author": null, "date_of_biography": "2023-08-11T16:19:52.863708+10:00", "external_links": [], "uuid": "b2fa00b0-eade-40b0-a28b-dc9954eeaf98", "source": {"name": "Vernon", "slug": "vernon"}, "source_identifier": "19323", "external_references": [], "date_modified": "2025-03-12T00:29:04.589142+11:00"}, {"id": 14615, "name": "Library Films", "roles_in_work": [{"id": 2712691, "title": "Eight parts of a business letter", "work_id": 67048, "role": "production company", "role_id": 941, "is_primary": true}], "also_known_as": "", "date_of_birth": "", "date_of_death": "", "genders": [], "languages": [], "places_of_operation": [], "biography": "", "biography_author": null, "date_of_biography": "2023-08-11T16:19:52.227177+10:00", "external_links": [], "uuid": "c56e54be-bfff-4084-bb9d-b439ccaa494a", "source": {"name": "Vernon", "slug": "vernon"}, "source_identifier": "10044", "external_references": [], "date_modified": "2025-03-12T00:29:04.011078+11:00"}]}