{"count": 28687, "next": "https://api.acmi.net.au/creators/?page=1588", "previous": "https://api.acmi.net.au/creators/?page=1586", "results": [{"id": 31374, "name": "A Zegenhagen", "roles_in_work": [{"id": 2466848, "title": "The Chain gang", "work_id": 89437, "role": "director", "role_id": 938, "is_primary": true}], "also_known_as": "", "date_of_birth": "", "date_of_death": "", "genders": [], "languages": [], "places_of_operation": [], "biography": "", "biography_author": null, "date_of_biography": "2023-08-14T11:06:50.277655+10:00", "external_links": [], "uuid": "97babec4-5414-4fca-8abb-8429e1a0c574", "source": {"name": "Vernon", "slug": "vernon"}, "source_identifier": "14583", "external_references": [], "date_modified": "2023-08-14T11:06:50.277872+10:00"}, {"id": 31373, "name": "English, Scottish and Australian Bank Film Unit", "roles_in_work": [{"id": 2466847, "title": "The Chain gang", "work_id": 89437, "role": "production company", "role_id": 941, "is_primary": true}], "also_known_as": "", "date_of_birth": "", "date_of_death": "", "genders": [], "languages": [], "places_of_operation": [], "biography": "", "biography_author": null, "date_of_biography": "2023-08-14T11:06:49.613783+10:00", "external_links": [], "uuid": "36ba9f46-1cfd-4274-9fa8-7a09feb0b1dd", "source": {"name": "Vernon", "slug": "vernon"}, "source_identifier": "7895", "external_references": [], "date_modified": "2023-08-14T11:06:49.614009+10:00"}, {"id": 31359, "name": "Mary Kane", "roles_in_work": [{"id": 1998467, "title": "Bad lieutenant (D)", "work_id": 93830, "role": "co-producer", "role_id": 915, "is_primary": true}, {"id": 2358128, "title": "The King of New York", "work_id": 89522, "role": "co-producer", "role_id": 915, "is_primary": true}, {"id": 1997197, "title": "If these walls could talk 2", "work_id": 93168, "role": "producer", "role_id": 1089, "is_primary": true}, {"id": 1998471, "title": "The Funeral", "work_id": 93831, "role": "producer", "role_id": 1089, "is_primary": true}, {"id": 1813691, "title": "Dangerous game (Ferrara)", "work_id": 89426, "role": "producer", "role_id": 1089, "is_primary": true}], "also_known_as": "", "date_of_birth": "1962-03-10", "date_of_death": "", "genders": [{"id": 5, "name": "Female", "slug": "female"}], "languages": [], "places_of_operation": [{"id": 1, "name": "United States of America", "slug": "united-states-of-america"}], "biography": "Mary D. Kane (born March 10, 1962)  is an American attorney from Maryland who was the Republican candidate for Lieutenant Governor in 2010, as the running mate of Bob Ehrlich. In October 2011, Kane became the President and CEO of Sister Cities International. Sister Cities International is a nonprofit organization for individual sister cities, counties, and states across the United States. Kane also sits on the board of Suburban Hospital, a member of Johns Hopkins Medicine and Mount St. Mary's University.", "biography_author": "Wikidata", "date_of_biography": "2023-08-01T16:07:57.053740+10:00", "external_links": [{"id": 4642, "uri": "https://en.wikipedia.org/wiki/Mary_Kane"}], "uuid": "580b6552-0a40-4a61-ae57-aa1e70b27778", "source": {"name": "Vernon", "slug": "vernon"}, "source_identifier": "24723", "external_references": [{"id": 26457, "source": {"name": "Wikidata", "slug": "wikidata"}, "source_identifier": "Q13562351"}], "date_modified": "2023-09-05T22:52:05.486132+10:00"}, {"id": 31351, "name": "Jean-Francois Lepetit", "roles_in_work": [{"id": 2228395, "title": "Fat girl = For my sister = A ma soeur! [DVD] (E)", "work_id": 94303, "role": "producer", "role_id": 1089, "is_primary": true}, {"id": 2096101, "title": "Anatomy of Hell = Anatomie de L'Enfer [DVD] (E)", "work_id": 95000, "role": "producer", "role_id": 1089, "is_primary": true}, {"id": 1993694, "title": "Romance (E)", "work_id": 89417, "role": "producer", "role_id": 1089, "is_primary": true}, {"id": 3104597, "title": "La Vie de Famille", "work_id": 115992, "role": "producer", "role_id": 1089, "is_primary": true}], "also_known_as": "", "date_of_birth": "1953-09-12", "date_of_death": "", "genders": [{"id": 9, "name": "Male", "slug": "male"}], "languages": [{"id": 4, "name": "French", "slug": "french"}], "places_of_operation": [{"id": 17, "name": "France", "slug": "france"}], "biography": "", "biography_author": null, "date_of_biography": "2023-05-09T16:29:55.052961+10:00", "external_links": [], "uuid": "1f295947-4f68-44d0-a2fc-f06a21944f64", "source": {"name": "Vernon", "slug": "vernon"}, "source_identifier": "21576", "external_references": [{"id": 33205, "source": {"name": "Wikidata", "slug": "wikidata"}, "source_identifier": "Q3165740"}], "date_modified": "2025-05-22T22:45:14.841077+10:00"}, {"id": 31350, "name": "Mark Waters", "roles_in_work": [{"id": 3081245, "title": "The Morris Gleitzman video", "work_id": 94061, "role": "director", "role_id": 938, "is_primary": true}, {"id": 3081254, "title": "The Victor Kelleher video", "work_id": 94063, "role": "director", "role_id": 938, "is_primary": true}, {"id": 3081233, "title": "The John Marsden video", "work_id": 89416, "role": "director", "role_id": 938, "is_primary": true}, {"id": 3081236, "title": "The Libby Hathorn video", "work_id": 89534, "role": "director", "role_id": 938, "is_primary": true}, {"id": 3081226, "title": "The Emily Rodda video", "work_id": 89414, "role": "director", "role_id": 938, "is_primary": true}, {"id": 3081241, "title": "The Libby Gleeson video", "work_id": 94060, "role": "director", "role_id": 938, "is_primary": true}, {"id": 1996792, "title": "Head over heels", "work_id": 92863, "role": "director", "role_id": 938, "is_primary": true}, {"id": 3081229, "title": "The Gary Crew video", "work_id": 89415, "role": "director", "role_id": 938, "is_primary": true}, {"id": 3081259, "title": "Insight profile", "work_id": 115532, "role": "director", "role_id": 938, "is_primary": true}], "also_known_as": "", "date_of_birth": "1964-06-30", "date_of_death": null, "genders": [{"id": 9, "name": "Male", "slug": "male"}], "languages": [{"id": 1, "name": "English", "slug": "english"}], "places_of_operation": [{"id": 1, "name": "United States of America", "slug": "united-states-of-america"}], "biography": "Mark Stephen Waters (born June 30, 1964) is an American director.", "biography_author": "Wikidata", "date_of_biography": "2023-08-01T16:06:06.784690+10:00", "external_links": [{"id": 4629, "uri": "https://en.wikipedia.org/wiki/Mark_Waters"}], "uuid": "de329a7d-da0a-4cb3-847d-aeccc244305a", "source": {"name": "Vernon", "slug": "vernon"}, "source_identifier": "24572", "external_references": [{"id": 25463, "source": {"name": "Wikidata", "slug": "wikidata"}, "source_identifier": "Q471552"}, {"id": 30152, "source": {"name": "VIAF", "slug": "viaf"}, "source_identifier": "22350252"}, {"id": 30153, "source": {"name": "LOC Auth", "slug": "loc-auth"}, "source_identifier": "no2004059254"}, {"id": 30154, "source": {"name": "WorldCat", "slug": "worldcat"}, "source_identifier": "lccn-no2004059254"}], "date_modified": "2025-03-17T10:22:59.423371+11:00"}, {"id": 31349, "name": "Christine McCaul Gleitzman", "roles_in_work": [{"id": 3081235, "title": "The Libby Hathorn video", "work_id": 89534, "role": "producer", "role_id": 1089, "is_primary": true}, {"id": 3081225, "title": "The Emily Rodda video", "work_id": 89414, "role": "producer", "role_id": 1089, "is_primary": true}, {"id": 3081228, "title": "The Gary Crew video", "work_id": 89415, "role": "producer", "role_id": 1089, "is_primary": true}, {"id": 3081232, "title": "The John Marsden video", "work_id": 89416, "role": "producer", "role_id": 1089, "is_primary": true}, {"id": 3081240, "title": "The Libby Gleeson video", "work_id": 94060, "role": "producer", "role_id": 1089, "is_primary": true}, {"id": 3081244, "title": "The Morris Gleitzman video", "work_id": 94061, "role": "producer", "role_id": 1089, "is_primary": true}, {"id": 3081248, "title": "The Robin Klein video", "work_id": 94062, "role": "producer", "role_id": 1089, "is_primary": true}, {"id": 3081253, "title": "The Victor Kelleher video", "work_id": 94063, "role": "producer", "role_id": 1089, "is_primary": true}, {"id": 3081257, "title": "Insight profile", "work_id": 115532, "role": "producer", "role_id": 1089, "is_primary": true}], "also_known_as": "", "date_of_birth": null, "date_of_death": null, "genders": [], "languages": [], "places_of_operation": [], "biography": "", "biography_author": null, "date_of_biography": null, "external_links": [], "uuid": "81aeea46-c9e6-4ca7-8ecf-bb1aa2fd098d", "source": {"name": "Vernon", "slug": "vernon"}, "source_identifier": "16928", "external_references": [], "date_modified": "2025-03-17T10:22:58.810305+11:00"}, {"id": 31348, "name": "Insight Profile", "roles_in_work": [{"id": 3081255, "title": "Insight profile", "work_id": 115532, "role": "production company", "role_id": 941, "is_primary": true}, {"id": 3081227, "title": "The Gary Crew video", "work_id": 89415, "role": "production company", "role_id": 941, "is_primary": true}, {"id": 3081252, "title": "The Victor Kelleher video", "work_id": 94063, "role": "production company", "role_id": 941, "is_primary": true}, {"id": 3081247, "title": "The Robin Klein video", "work_id": 94062, "role": "production company", "role_id": 941, "is_primary": true}, {"id": 3081243, "title": "The Morris Gleitzman video", "work_id": 94061, "role": "production company", "role_id": 941, "is_primary": true}, {"id": 3081239, "title": "The Libby Gleeson video", "work_id": 94060, "role": "production company", "role_id": 941, "is_primary": true}, {"id": 3081224, "title": "The Emily Rodda video", "work_id": 89414, "role": "production company", "role_id": 941, "is_primary": true}, {"id": 3081234, "title": "The Libby Hathorn video", "work_id": 89534, "role": "production company", "role_id": 941, "is_primary": true}, {"id": 3081231, "title": "The John Marsden video", "work_id": 89416, "role": "production company", "role_id": 941, "is_primary": true}], "also_known_as": "", "date_of_birth": null, "date_of_death": null, "genders": [], "languages": [], "places_of_operation": [], "biography": "", "biography_author": null, "date_of_biography": null, "external_links": [], "uuid": "0f84cd57-a6a4-47d7-a2ab-19c29dbad28b", "source": {"name": "Vernon", "slug": "vernon"}, "source_identifier": "9307", "external_references": [], "date_modified": "2025-03-17T10:22:58.104728+11:00"}, {"id": 31347, "name": "Michael Dinner", "roles_in_work": [{"id": 2132826, "title": "Catholic boys", "work_id": 89412, "role": "director", "role_id": 938, "is_primary": true}], "also_known_as": "", "date_of_birth": "1953-06-05", "date_of_death": "", "genders": [{"id": 9, "name": "Male", "slug": "male"}], "languages": [], "places_of_operation": [{"id": 1, "name": "United States of America", "slug": "united-states-of-america"}], "biography": "Michael Dinner (born May 20, 1953) is an American director, producer, and screenwriter for television.", "biography_author": "Wikidata", "date_of_biography": "2023-08-01T16:13:09.291201+10:00", "external_links": [{"id": 4681, "uri": "https://en.wikipedia.org/wiki/Michael_Dinner"}], "uuid": "4c8622e7-6407-414f-ad60-35d730b1dd03", "source": {"name": "Vernon", "slug": "vernon"}, "source_identifier": "25048", "external_references": [{"id": 25645, "source": {"name": "Wikidata", "slug": "wikidata"}, "source_identifier": "Q3308148"}], "date_modified": "2023-09-05T23:03:52.213532+10:00"}, {"id": 31331, "name": "Phil Alden Robinson", "roles_in_work": [{"id": 1999867, "title": "The Sum of all fears", "work_id": 94826, "role": "director", "role_id": 938, "is_primary": true}, {"id": 2304317, "title": "Sneakers", "work_id": 94120, "role": "director", "role_id": 938, "is_primary": true}, {"id": 2239088, "title": "Field of dreams", "work_id": 89392, "role": "director", "role_id": 938, "is_primary": true}], "also_known_as": "", "date_of_birth": "1950-03-01", "date_of_death": null, "genders": [{"id": 9, "name": "Male", "slug": "male"}], "languages": [{"id": 1, "name": "English", "slug": "english"}], "places_of_operation": [{"id": 1, "name": "United States of America", "slug": "united-states-of-america"}], "biography": "Phil Alden Robinson (born March 1, 1950) is an American film director and screenwriter whose films include Field of Dreams, Sneakers, and The Sum of All Fears.", "biography_author": "Wikidata", "date_of_biography": "2022-05-19T12:43:11.386781+10:00", "external_links": [{"id": 2869, "uri": "https://en.wikipedia.org/wiki/Phil_Alden_Robinson"}], "uuid": "b23a2319-d44b-4702-af14-4e41562c0999", "source": {"name": "Vernon", "slug": "vernon"}, "source_identifier": "26772", "external_references": [{"id": 12194, "source": {"name": "Wikidata", "slug": "wikidata"}, "source_identifier": "Q1387617"}, {"id": 12195, "source": {"name": "VIAF", "slug": "viaf"}, "source_identifier": "120119159"}, {"id": 12196, "source": {"name": "LOC Auth", "slug": "loc-auth"}, "source_identifier": "n89672291"}, {"id": 12197, "source": {"name": "WorldCat", "slug": "worldcat"}, "source_identifier": "lccn-n89672291"}], "date_modified": "2023-09-13T12:31:58.645022+10:00"}, {"id": 31325, "name": "Andre de la Varre", "roles_in_work": [{"id": 2404627, "title": "Colonial Williamsburg", "work_id": 91901, "role": "producer", "role_id": 1089, "is_primary": true}], "also_known_as": "", "date_of_birth": "", "date_of_death": "", "genders": [], "languages": [], "places_of_operation": [], "biography": "", "biography_author": null, "date_of_biography": "2023-08-11T15:36:18.021563+10:00", "external_links": [], "uuid": "be475e0d-848a-4ccc-afaf-65295e2f29b8", "source": {"name": "Vernon", "slug": "vernon"}, "source_identifier": "15097", "external_references": [], "date_modified": "2023-08-11T15:36:18.021844+10:00"}]}