{"count": 28687, "next": "https://api.acmi.net.au/creators/?page=571", "previous": "https://api.acmi.net.au/creators/?page=569", "results": [{"id": 79883, "name": "Roberta Guerra", "roles_in_work": [{"id": 3083767, "title": "The Story of fashion. Vol. 1: Remembrance of things past", "work_id": 92589, "role": "co-director", "role_id": 959, "is_primary": true}, {"id": 3083723, "title": "The Story of fashion. Vol 02: the art and sport of fashion", "work_id": 92585, "role": "co-director", "role_id": 959, "is_primary": true}, {"id": 3083783, "title": "Chanel, Chanel", "work_id": 92590, "role": "co-director", "role_id": 959, "is_primary": true}, {"id": 3083879, "title": "The story of fashion. Vol. 3: The Age of dissent", "work_id": 92598, "role": "co-producer", "role_id": 915, "is_primary": true}], "also_known_as": "", "date_of_birth": "", "date_of_death": "", "genders": [], "languages": [], "places_of_operation": [], "biography": "", "biography_author": null, "date_of_biography": "2023-05-09T17:15:30.625531+10:00", "external_links": [], "uuid": "6a8c6b1e-032c-4d84-8757-30c327f984a3", "source": {"name": "Vernon", "slug": "vernon"}, "source_identifier": "27934", "external_references": [{"id": 39851, "source": {"name": "Wikidata", "slug": "wikidata"}, "source_identifier": "Q121036591"}], "date_modified": "2025-03-17T10:34:49.097010+11:00"}, {"id": 79882, "name": "Eila Hershon", "roles_in_work": [{"id": 3083781, "title": "Chanel, Chanel", "work_id": 92590, "role": "co-director", "role_id": 959, "is_primary": true}, {"id": 3083720, "title": "The Story of fashion. Vol 02: the art and sport of fashion", "work_id": 92585, "role": "co-director", "role_id": 959, "is_primary": true}, {"id": 3083766, "title": "The Story of fashion. Vol. 1: Remembrance of things past", "work_id": 92589, "role": "co-director", "role_id": 959, "is_primary": true}, {"id": 3083876, "title": "The story of fashion. Vol. 3: The Age of dissent", "work_id": 92598, "role": "co-producer", "role_id": 915, "is_primary": true}], "also_known_as": "", "date_of_birth": "", "date_of_death": "", "genders": [], "languages": [], "places_of_operation": [], "biography": "", "biography_author": null, "date_of_biography": "2023-05-09T17:15:30.361387+10:00", "external_links": [], "uuid": "b2adc573-769a-4907-a76e-0c592e21498a", "source": {"name": "Vernon", "slug": "vernon"}, "source_identifier": "18655", "external_references": [{"id": 37873, "source": {"name": "Wikidata", "slug": "wikidata"}, "source_identifier": "Q121036549"}], "date_modified": "2025-03-17T10:34:48.489611+11:00"}, {"id": 79881, "name": "Alan Benson", "roles_in_work": [{"id": 3083662, "title": "Hockney at the Tate", "work_id": 92581, "role": "producer/director", "role_id": 31, "is_primary": true}], "also_known_as": "", "date_of_birth": "", "date_of_death": "", "genders": [], "languages": [], "places_of_operation": [], "biography": "", "biography_author": null, "date_of_biography": "2023-05-09T17:15:46.607705+10:00", "external_links": [], "uuid": "c68d809a-9c76-418d-b591-8e90117fce93", "source": {"name": "Vernon", "slug": "vernon"}, "source_identifier": "14732", "external_references": [{"id": 50864, "source": {"name": "Wikidata", "slug": "wikidata"}, "source_identifier": "Q121360929"}], "date_modified": "2025-03-17T10:34:03.271229+11:00"}, {"id": 79880, "name": "Kim Evans", "roles_in_work": [{"id": 3083939, "title": "Jackson Pollock", "work_id": 92603, "role": "producer/director", "role_id": 31, "is_primary": true}, {"id": 3083948, "title": "Andy Warhol", "work_id": 92604, "role": "producer/director", "role_id": 31, "is_primary": true}, {"id": 3083630, "title": "Marc Chagall", "work_id": 92579, "role": "producer/director", "role_id": 31, "is_primary": true}], "also_known_as": "", "date_of_birth": "01 JAN 1951", "date_of_death": "", "genders": [{"id": 5, "name": "Female", "slug": "female"}], "languages": [{"id": 1, "name": "English", "slug": "english"}], "places_of_operation": [{"id": 10, "name": "United Kingdom", "slug": "united-kingdom"}], "biography": "Kim Evans  (born January 1951) is an arts consultant and documentary filmmaker.\n\nEvans spent ten years on The South Bank Show and Channel 4. She was head of music and arts at the BBC and then executive director arts at Arts Council England. Evans is chair of Clean Break theatre company and a member of the Parole Board for England and Wales. Until July 2014, she was a trustee of the Heritage Lottery Fund. She was made a member of the Order of the British Empire in 2007 for Services to the Arts. She is a trustee of the National Portrait Gallery. Source: Wikidata; 01/08/2023", "biography_author": null, "date_of_biography": "2025-03-17T10:35:04.968748+11:00", "external_links": [{"id": 4497, "uri": "https://en.wikipedia.org/wiki/Kim_Evans"}], "uuid": "87458110-901f-41ea-8017-1010bdcaef87", "source": {"name": "Vernon", "slug": "vernon"}, "source_identifier": "23332", "external_references": [{"id": 25410, "source": {"name": "Wikidata", "slug": "wikidata"}, "source_identifier": "Q28043221"}, {"id": 29800, "source": {"name": "VIAF", "slug": "viaf"}, "source_identifier": "705919"}, {"id": 29801, "source": {"name": "LOC Auth", "slug": "loc-auth"}, "source_identifier": "n87934450"}, {"id": 29802, "source": {"name": "WorldCat", "slug": "worldcat"}, "source_identifier": "lccn-n87934450"}], "date_modified": "2025-03-17T10:35:04.969002+11:00"}, {"id": 79879, "name": "Bruce W. Bassett", "roles_in_work": [{"id": 3083605, "title": "Isamu Noguchi", "work_id": 92577, "role": "producer/director", "role_id": 31, "is_primary": true}], "also_known_as": "", "date_of_birth": "", "date_of_death": "", "genders": [], "languages": [], "places_of_operation": [], "biography": "", "biography_author": null, "date_of_biography": "2023-05-09T17:15:22.862516+10:00", "external_links": [], "uuid": "66dd77d0-6844-4cb4-8dac-a798d6fa69bb", "source": {"name": "Vernon", "slug": "vernon"}, "source_identifier": "16340", "external_references": [{"id": 51710, "source": {"name": "Wikidata", "slug": "wikidata"}, "source_identifier": "Q121361287"}], "date_modified": "2025-03-17T10:33:52.805921+11:00"}, {"id": 79878, "name": "Ywe Yalander", "roles_in_work": [{"id": 3083511, "title": "Alvar Aalto: technology and nature", "work_id": 92574, "role": "director", "role_id": 938, "is_primary": true}], "also_known_as": "", "date_of_birth": "", "date_of_death": "", "genders": [], "languages": [], "places_of_operation": [], "biography": "", "biography_author": null, "date_of_biography": "2023-05-09T17:14:15.976462+10:00", "external_links": [], "uuid": "d544eace-9c4e-4374-a76d-34058e4e05ab", "source": {"name": "Vernon", "slug": "vernon"}, "source_identifier": "30653", "external_references": [{"id": 42027, "source": {"name": "Wikidata", "slug": "wikidata"}, "source_identifier": "Q121315618"}], "date_modified": "2025-03-17T10:33:44.462832+11:00"}, {"id": 79877, "name": "Rick Tejada-Flores", "roles_in_work": [{"id": 3083497, "title": "Jasper John: ideas in paint", "work_id": 92573, "role": "producer/director", "role_id": 31, "is_primary": true}], "also_known_as": "", "date_of_birth": "", "date_of_death": "", "genders": [], "languages": [], "places_of_operation": [], "biography": "", "biography_author": null, "date_of_biography": "2023-05-09T17:15:11.814138+10:00", "external_links": [], "uuid": "a095822d-cc7b-43d9-b6bd-fc22327168ad", "source": {"name": "Vernon", "slug": "vernon"}, "source_identifier": "27559", "external_references": [{"id": 51642, "source": {"name": "Wikidata", "slug": "wikidata"}, "source_identifier": "Q114684569"}], "date_modified": "2025-03-17T10:33:41.859305+11:00"}, {"id": 79876, "name": "Dennie Gordon", "roles_in_work": [{"id": 2475566, "title": "Joe Dirt", "work_id": 92569, "role": "director", "role_id": 938, "is_primary": true}], "also_known_as": "", "date_of_birth": "1953-05-09", "date_of_death": "", "genders": [{"id": 5, "name": "Female", "slug": "female"}], "languages": [], "places_of_operation": [{"id": 1, "name": "United States of America", "slug": "united-states-of-america"}], "biography": "Dennie Gordon is an American film and television director. Her directorial television credits include Party of Five, Sports Night, Ally McBeal, The Practice, Grounded for Life, The Loop, White Collar, Burn Notice, Hell on Wheels, Waco, The Office  and other series. She has also directed the feature films Joe Dirt, New York Minute and What a Girl Wants.\nIn 2000, Gordon won the DGA Award for DGA Award for Outstanding Directorial Achievement in Musical/Variety for episode of the HBO series, Tracey Takes On... starring Tracey Ullman. She is a graduate of Gustavus Adolphus College and the Yale School of Drama.", "biography_author": "Wikidata", "date_of_biography": "2023-09-05T19:08:26.464797+10:00", "external_links": [{"id": 1926, "uri": "https://en.wikipedia.org/wiki/Dennie_Gordon"}], "uuid": "9c7c97cf-beeb-4bbb-9089-4e14cc351aca", "source": {"name": "Vernon", "slug": "vernon"}, "source_identifier": "17984", "external_references": [{"id": 8351, "source": {"name": "Wikidata", "slug": "wikidata"}, "source_identifier": "Q3298323"}, {"id": 8352, "source": {"name": "VIAF", "slug": "viaf"}, "source_identifier": "311813160"}, {"id": 8353, "source": {"name": "LOC Auth", "slug": "loc-auth"}, "source_identifier": "no2003082869"}, {"id": 8354, "source": {"name": "WorldCat", "slug": "worldcat"}, "source_identifier": "lccn-no2003082869"}], "date_modified": "2023-09-05T19:08:28.639257+10:00"}, {"id": 79875, "name": "Sharon Maguire", "roles_in_work": [{"id": 2125081, "title": "Bridget Jones's diary [DVD]", "work_id": 92568, "role": "director", "role_id": 938, "is_primary": true}], "also_known_as": "", "date_of_birth": "1960-11-28", "date_of_death": "", "genders": [{"id": 5, "name": "Female", "slug": "female"}], "languages": [{"id": 1, "name": "English", "slug": "english"}], "places_of_operation": [{"id": 10, "name": "United Kingdom", "slug": "united-kingdom"}], "biography": "Sharon Maguire (born 17 August 1963) is a film director best known for directing Bridget Jones's Diary. The film was based on the book by her close friend Helen Fielding, and one of the main characters – \"Shazza\" – is allegedly based on Maguire.", "biography_author": "Wikidata", "date_of_biography": "2023-08-01T17:03:33.570713+10:00", "external_links": [{"id": 5150, "uri": "https://en.wikipedia.org/wiki/Sharon_Maguire"}], "uuid": "e17aaa4d-63c9-4459-b320-12d0c76bfcb9", "source": {"name": "Vernon", "slug": "vernon"}, "source_identifier": "28719", "external_references": [{"id": 26775, "source": {"name": "Wikidata", "slug": "wikidata"}, "source_identifier": "Q444638"}, {"id": 31489, "source": {"name": "VIAF", "slug": "viaf"}, "source_identifier": "29739966"}, {"id": 31490, "source": {"name": "LOC Auth", "slug": "loc-auth"}, "source_identifier": "no2002053594"}, {"id": 31491, "source": {"name": "WorldCat", "slug": "worldcat"}, "source_identifier": "lccn-no2002053594"}], "date_modified": "2023-09-06T01:13:35.200839+10:00"}, {"id": 79874, "name": "Liza Chasin", "roles_in_work": [{"id": 2125076, "title": "Bridget Jones's diary [DVD]", "work_id": 92568, "role": "co-producer", "role_id": 915, "is_primary": true}], "also_known_as": "", "date_of_birth": "", "date_of_death": "", "genders": [], "languages": [], "places_of_operation": [], "biography": "", "biography_author": null, "date_of_biography": "2023-05-09T13:09:51.789743+10:00", "external_links": [], "uuid": "71f2605b-4c07-4b5c-b47c-3b85928f9602", "source": {"name": "Vernon", "slug": "vernon"}, "source_identifier": "23953", "external_references": [{"id": 36864, "source": {"name": "Wikidata", "slug": "wikidata"}, "source_identifier": "Q121126770"}], "date_modified": "2023-09-05T22:28:50.707530+10:00"}]}