{"count": 28687, "next": "https://api.acmi.net.au/creators/?page=1614", "previous": "https://api.acmi.net.au/creators/?page=1612", "results": [{"id": 30666, "name": "Roadshow Entertainment", "roles_in_work": [{"id": 2650321, "title": "Scream 3", "work_id": 115647, "role": "distributor", "role_id": 437, "is_primary": false}, {"id": 2792401, "title": "Frontline. Series 1. Playing the ego card. Add sex and stir. Smaller fish to fry. This night of nights", "work_id": 85673, "role": "distributor", "role_id": 437, "is_primary": false}, {"id": 2499747, "title": "The Matrix [DVD]", "work_id": 89494, "role": "distributor", "role_id": 437, "is_primary": false}, {"id": 2499767, "title": "Hi 5: It's a Hi 5 Christmas", "work_id": 94985, "role": "distributor", "role_id": 437, "is_primary": false}, {"id": 2760794, "title": "1918 Remembered", "work_id": 88645, "role": "production company", "role_id": 941, "is_primary": true}], "also_known_as": "", "date_of_birth": "", "date_of_death": "", "genders": [], "languages": [], "places_of_operation": [], "biography": "", "biography_author": null, "date_of_biography": "2023-05-09T19:32:27.604031+10:00", "external_links": [], "uuid": "320b4c3c-6302-4d6b-a485-87b90ef007b2", "source": {"name": "Vernon", "slug": "vernon"}, "source_identifier": "12063", "external_references": [{"id": 36139, "source": {"name": "Wikidata", "slug": "wikidata"}, "source_identifier": "Q121091084"}], "date_modified": "2025-03-14T20:09:16.551247+11:00"}, {"id": 30664, "name": "GTV Channel 9", "roles_in_work": [{"id": 2752660, "title": "Ash Wednesday", "work_id": 98402, "role": "production company", "role_id": 941, "is_primary": true}, {"id": 800381, "title": "Graham Kennedy's IMT [26/3/1969]", "work_id": 88635, "role": "production company", "role_id": 941, "is_primary": true}], "also_known_as": "", "date_of_birth": "", "date_of_death": "", "genders": [], "languages": [], "places_of_operation": [], "biography": "", "biography_author": null, "date_of_biography": "2023-05-09T12:32:12.202750+10:00", "external_links": [], "uuid": "55bf5633-0136-45b7-9852-4262b532428a", "source": {"name": "Vernon", "slug": "vernon"}, "source_identifier": "8925", "external_references": [{"id": 36562, "source": {"name": "Wikidata", "slug": "wikidata"}, "source_identifier": "Q121270636"}], "date_modified": "2025-03-13T01:10:11.272054+11:00"}, {"id": 30662, "name": "Master Tele Films", "roles_in_work": [{"id": 2352987, "title": "The Hand that rocks the cradle", "work_id": 88632, "role": "production company", "role_id": 941, "is_primary": true}], "also_known_as": "", "date_of_birth": "", "date_of_death": "", "genders": [], "languages": [], "places_of_operation": [], "biography": "", "biography_author": null, "date_of_biography": "2023-05-09T19:59:32.389610+10:00", "external_links": [], "uuid": "f798d923-e4b3-4c05-a9a7-ee4a1d5b32f9", "source": {"name": "Vernon", "slug": "vernon"}, "source_identifier": "10344", "external_references": [{"id": 32580, "source": {"name": "Wikidata", "slug": "wikidata"}, "source_identifier": "Q121058087"}], "date_modified": "2023-09-05T22:53:33.738909+10:00"}, {"id": 30661, "name": "Harry Edwards", "roles_in_work": [{"id": 874235, "title": "The Golf nut", "work_id": 88631, "role": "director", "role_id": 938, "is_primary": true}], "also_known_as": "", "date_of_birth": "1889-01-01", "date_of_death": "1952-05-26", "genders": [{"id": 9, "name": "Male", "slug": "male"}], "languages": [], "places_of_operation": [{"id": 36, "name": "Canada", "slug": "canada"}], "biography": "Harry Edwards (October 11, 1887 - May 26, 1952) was a Canadian-born American film director and actor. He worked in films from the 1910s to the 1950s.", "biography_author": "Wikidata", "date_of_biography": "2023-08-01T15:08:31.320445+10:00", "external_links": [{"id": 4137, "uri": "https://en.wikipedia.org/wiki/Harry_Edwards_(director)"}], "uuid": "bd99e722-aa80-47ff-ba74-a6acd7adf11e", "source": {"name": "Vernon", "slug": "vernon"}, "source_identifier": "20310", "external_references": [{"id": 26033, "source": {"name": "Wikidata", "slug": "wikidata"}, "source_identifier": "Q3127819"}, {"id": 28852, "source": {"name": "VIAF", "slug": "viaf"}, "source_identifier": "34659210"}, {"id": 28853, "source": {"name": "LOC Auth", "slug": "loc-auth"}, "source_identifier": "n93079671"}, {"id": 28854, "source": {"name": "WorldCat", "slug": "worldcat"}, "source_identifier": "lccn-n93079671"}], "date_modified": "2023-09-13T12:29:51.129381+10:00"}, {"id": 30659, "name": "Esso Film Unit", "roles_in_work": [{"id": 2409766, "title": "Hook, line and sinker", "work_id": 89755, "role": "production company", "role_id": 941, "is_primary": true}, {"id": 874223, "title": "Our native shore", "work_id": 88628, "role": "production company", "role_id": 941, "is_primary": true}], "also_known_as": "", "date_of_birth": "", "date_of_death": "", "genders": [], "languages": [], "places_of_operation": [], "biography": "", "biography_author": null, "date_of_biography": "2023-08-11T17:28:54.766745+10:00", "external_links": [], "uuid": "83a31329-a590-473b-bde7-a5c80c5369b0", "source": {"name": "Vernon", "slug": "vernon"}, "source_identifier": "7976", "external_references": [], "date_modified": "2023-08-11T17:28:54.767048+10:00"}, {"id": 30658, "name": "Jean Epstein", "roles_in_work": [{"id": 2415097, "title": "Lights that never fail", "work_id": 88624, "role": "director", "role_id": 938, "is_primary": true}], "also_known_as": "", "date_of_birth": "", "date_of_death": "", "genders": [], "languages": [], "places_of_operation": [], "biography": "", "biography_author": null, "date_of_biography": "2023-08-11T19:30:33.358676+10:00", "external_links": [], "uuid": "d45ecf50-65ce-42d3-b7eb-f70164c74a1b", "source": {"name": "Vernon", "slug": "vernon"}, "source_identifier": "21529", "external_references": [], "date_modified": "2023-08-11T19:30:33.358894+10:00"}, {"id": 30657, "name": "Etienne-Lallier-Films", "roles_in_work": [{"id": 2415096, "title": "Lights that never fail", "work_id": 88624, "role": "production company", "role_id": 941, "is_primary": true}], "also_known_as": "", "date_of_birth": "", "date_of_death": "", "genders": [], "languages": [], "places_of_operation": [], "biography": "", "biography_author": null, "date_of_biography": "2023-08-11T19:30:32.739648+10:00", "external_links": [], "uuid": "1e61b2e8-3ef1-445f-abac-abddabd558fa", "source": {"name": "Vernon", "slug": "vernon"}, "source_identifier": "7990", "external_references": [], "date_modified": "2023-08-11T19:30:32.739921+10:00"}, {"id": 30656, "name": "Fox Movietone Australia", "roles_in_work": [{"id": 2406971, "title": "England to Australia in under nine days", "work_id": 88622, "role": "production company", "role_id": 941, "is_primary": true}], "also_known_as": "", "date_of_birth": "", "date_of_death": "", "genders": [], "languages": [], "places_of_operation": [], "biography": "", "biography_author": null, "date_of_biography": "2023-08-11T16:27:01.217598+10:00", "external_links": [], "uuid": "932ba273-5eae-45ac-a3e4-c7c852d3904f", "source": {"name": "Vernon", "slug": "vernon"}, "source_identifier": "8477", "external_references": [], "date_modified": "2023-08-11T16:27:01.217874+10:00"}, {"id": 30655, "name": "Earl Clark", "roles_in_work": [{"id": 2412788, "title": "Jackpine journey", "work_id": 89705, "role": "director", "role_id": 938, "is_primary": true}], "also_known_as": "", "date_of_birth": "", "date_of_death": "", "genders": [], "languages": [], "places_of_operation": [], "biography": "", "biography_author": null, "date_of_biography": "2023-08-11T18:45:41.056198+10:00", "external_links": [], "uuid": "5505afab-2c7c-41d2-94aa-02619ac188f4", "source": {"name": "Vernon", "slug": "vernon"}, "source_identifier": "18512", "external_references": [], "date_modified": "2023-08-11T18:45:41.056427+10:00"}, {"id": 30652, "name": "Ira Marvin", "roles_in_work": [{"id": 2399915, "title": "An Equation for progress", "work_id": 88621, "role": "director", "role_id": 938, "is_primary": true}], "also_known_as": "", "date_of_birth": "", "date_of_death": "", "genders": [], "languages": [], "places_of_operation": [], "biography": "", "biography_author": null, "date_of_biography": "2023-08-11T13:55:26.296008+10:00", "external_links": [], "uuid": "aea584e5-537b-4838-9099-bd2396621ea2", "source": {"name": "Vernon", "slug": "vernon"}, "source_identifier": "20847", "external_references": [], "date_modified": "2023-08-11T13:55:26.296256+10:00"}]}