{"count": 28687, "next": "https://api.acmi.net.au/creators/?page=343", "previous": "https://api.acmi.net.au/creators/?page=341", "results": [{"id": 82187, "name": "G Bitzer", "roles_in_work": [{"id": 2650353, "title": "The Birth of a nation", "work_id": 115660, "role": "cinematographer", "role_id": 32, "is_primary": false}, {"id": 2650359, "title": "Intolerance", "work_id": 115661, "role": "cinematographer", "role_id": 32, "is_primary": false}], "also_known_as": "", "date_of_birth": "", "date_of_death": "", "genders": [], "languages": [], "places_of_operation": [], "biography": "", "biography_author": null, "date_of_biography": "2023-05-09T19:27:02.130109+10:00", "external_links": [], "uuid": "df8d96da-738e-47e9-9b3f-06c133e83cda", "source": {"name": "Vernon", "slug": "vernon"}, "source_identifier": "37863", "external_references": [], "date_modified": "2025-03-05T14:15:31.634430+11:00"}, {"id": 82186, "name": "Frank Woods", "roles_in_work": [{"id": 2650352, "title": "The Birth of a nation", "work_id": 115660, "role": "writer", "role_id": 939, "is_primary": true}], "also_known_as": "", "date_of_birth": "01 JAN 1860", "date_of_death": "01 MAY 1939", "genders": [{"id": 9, "name": "Male", "slug": "male"}], "languages": [], "places_of_operation": [{"id": 1, "name": "United States of America", "slug": "united-states-of-america"}], "biography": "Frank E. Woods (1860 – May 1, 1939) was an American screenwriter of the silent era. He wrote for 90 films between 1908 till 1925. He first became a writer with the Biograph Company. Woods was also a pioneering film reviewer. As a writer, his contributions to film criticism are discussed in the 2009 documentary, For the Love of Movies: The Story of American Film Criticism. He was also known for his screenplay collaborations with D. W. Griffith, including the co-scripting of The Birth of a Nation. He is interred in the Hollywood Forever Cemetery in Hollywood, CA.\n\nWoods was one of the 36 founders of the Academy of Motion Picture Arts and Sciences. Source: Wikidata; 01/08/2023", "biography_author": null, "date_of_biography": "2025-03-05T14:15:27.317634+11:00", "external_links": [{"id": 2064, "uri": "https://en.wikipedia.org/wiki/Frank_E._Woods"}], "uuid": "162ae09c-5eb5-4a7c-990d-e5a1ddf127e3", "source": {"name": "Vernon", "slug": "vernon"}, "source_identifier": "37861", "external_references": [{"id": 8906, "source": {"name": "Wikidata", "slug": "wikidata"}, "source_identifier": "Q3082593"}, {"id": 8907, "source": {"name": "VIAF", "slug": "viaf"}, "source_identifier": "24802634"}, {"id": 8908, "source": {"name": "LOC Auth", "slug": "loc-auth"}, "source_identifier": "n97008314"}, {"id": 8909, "source": {"name": "WorldCat", "slug": "worldcat"}, "source_identifier": "lccn-n97008314"}], "date_modified": "2025-03-05T14:15:27.317941+11:00"}, {"id": 82185, "name": "Andi Engel", "roles_in_work": [{"id": 2650349, "title": "Melancholia", "work_id": 115658, "role": "director", "role_id": 938, "is_primary": true}], "also_known_as": "", "date_of_birth": "1942-11-11", "date_of_death": "2006-12-26", "genders": [{"id": 9, "name": "Male", "slug": "male"}], "languages": [], "places_of_operation": [], "biography": "", "biography_author": null, "date_of_biography": null, "external_links": [], "uuid": "ead9d52d-98c7-463b-a15b-e11cb8836172", "source": {"name": "Vernon", "slug": "vernon"}, "source_identifier": "30913", "external_references": [{"id": 7116, "source": {"name": "Wikidata", "slug": "wikidata"}, "source_identifier": "Q55682978"}, {"id": 7117, "source": {"name": "VIAF", "slug": "viaf"}, "source_identifier": "66156309"}, {"id": 7118, "source": {"name": "LOC Auth", "slug": "loc-auth"}, "source_identifier": "no2003039400"}, {"id": 7119, "source": {"name": "WorldCat", "slug": "worldcat"}, "source_identifier": "lccn-no2003039400"}], "date_modified": "2025-03-05T14:15:25.239454+11:00"}, {"id": 82184, "name": "Tilda Swinton", "roles_in_work": [{"id": 2476519, "title": "War requiem", "work_id": 115657, "role": "cast", "role_id": 33, "is_primary": false}], "also_known_as": "Katherine Matilda Swinton", "date_of_birth": "1960-11-05", "date_of_death": "", "genders": [{"id": 5, "name": "Female", "slug": "female"}], "languages": [{"id": 1, "name": "English", "slug": "english"}], "places_of_operation": [{"id": 10, "name": "United Kingdom", "slug": "united-kingdom"}], "biography": "Katherine Matilda Swinton (born 5 November 1960) is a British actress. Known for her roles in independent films and blockbusters, she has received various accolades, including an Academy Award and a British Academy Film Award, in addition to nominations for three Golden Globe Awards. In 2020, The New York Times ranked her as one of the greatest actors of the 21st century.Swinton began her career by appearing in Derek Jarman’s experimental films Caravaggio (1986), The Last of England (1988), War Requiem (1989), and The Garden (1990). Swinton won the Volpi Cup for Best Actress at the Venice Film Festival for her portrayal of Isabella of France in Edward II (1991). She next starred in Sally Potter's Orlando (1992), for which she was nominated for the European Film Award for Best Actress. She was nominated for a Golden Globe Award for her performance in The Deep End (2001), followed with appearances in Vanilla Sky (2001) and Adaptation (2002). For the film Young Adam (2003), Swinton won the British Academy Scotland Award for Best Actress.\nSwinton's performance in Michael Clayton (2007) won her the Academy Award for Best Supporting Actress and the BAFTA Award for Best Actress in a Supporting Role. Prior to this, she appeared in the film Constantine (2005), and subsequently had roles in Julia (2008) and I Am Love (2009). She gained acclaim for her performance in Lynne Ramsay's \npsychological thriller We Need to Talk About Kevin (2011) for which she received a nomination for the BAFTA Award for Best Actress in a Leading Role. Swinton gained wider recognition for her portrayals as the White Witch in The Chronicles of Narnia series (2005–2010) and the Ancient One in the Marvel Cinematic Universe franchise. She is also known for her roles in the Wes Anderson films Moonrise Kingdom (2012), The Grand Budapest Hotel (2014), Isle of Dogs (2018), The French Dispatch (2021), and Asteroid City (2023).\nSwinton was awarded the Richard Harris Award by the British Independent Film Awards in recognition of her contributions to the British film industry. In 2013, she was given a special tribute by the Museum of Modern Art. In 2020, Swinton was awarded the British Film Institute Fellowship for her \"daringly eclectic and striking talents as a performer and filmmaker and recognises her great contribution to film culture, independent film exhibition and philanthropy.\"\n\n", "biography_author": "Wikidata", "date_of_biography": "2023-09-06T01:49:54.595777+10:00", "external_links": [{"id": 5261, "uri": "https://en.wikipedia.org/wiki/Tilda_Swinton"}], "uuid": "ad22feb5-4b88-4d35-830c-43f439309b44", "source": {"name": "Vernon", "slug": "vernon"}, "source_identifier": "37357", "external_references": [{"id": 25163, "source": {"name": "Wikidata", "slug": "wikidata"}, "source_identifier": "Q200534"}, {"id": 31777, "source": {"name": "VIAF", "slug": "viaf"}, "source_identifier": "117443790"}, {"id": 31778, "source": {"name": "LOC Auth", "slug": "loc-auth"}, "source_identifier": "no94027098"}, {"id": 31779, "source": {"name": "WorldCat", "slug": "worldcat"}, "source_identifier": "lccn-no94027098"}], "date_modified": "2023-09-06T01:49:56.830951+10:00"}, {"id": 82183, "name": "Anglo International Films", "roles_in_work": [{"id": 2476515, "title": "War requiem", "work_id": 115657, "role": "production company", "role_id": 941, "is_primary": true}], "also_known_as": "", "date_of_birth": "", "date_of_death": "", "genders": [], "languages": [], "places_of_operation": [], "biography": "", "biography_author": null, "date_of_biography": "2023-08-17T15:37:40.315210+10:00", "external_links": [], "uuid": "31def87b-0542-4292-a8be-0aff76da5a8e", "source": {"name": "Vernon", "slug": "vernon"}, "source_identifier": "30852", "external_references": [{"id": 43084, "source": {"name": "Wikidata", "slug": "wikidata"}, "source_identifier": "Q121143851"}], "date_modified": "2023-09-05T17:38:33.109533+10:00"}, {"id": 82182, "name": "Ariel Productions", "roles_in_work": [{"id": 2650343, "title": "The Sailor's return", "work_id": 115655, "role": "production company", "role_id": 941, "is_primary": true}], "also_known_as": "", "date_of_birth": null, "date_of_death": null, "genders": [], "languages": [], "places_of_operation": [], "biography": "", "biography_author": null, "date_of_biography": null, "external_links": [], "uuid": "6fc1958b-1e3d-418c-91d6-e1f89f286273", "source": {"name": "Vernon", "slug": "vernon"}, "source_identifier": "30851", "external_references": [{"id": 35397, "source": {"name": "Wikidata", "slug": "wikidata"}, "source_identifier": "Q121337405"}], "date_modified": "2025-03-05T14:15:21.213579+11:00"}, {"id": 82181, "name": "Juraj Herz", "roles_in_work": [{"id": 2650342, "title": "Sladke hry minuleho leta = Sweet games of last summer", "work_id": 115654, "role": "director", "role_id": 938, "is_primary": true}], "also_known_as": "", "date_of_birth": "04 SEP 1934", "date_of_death": "08 APR 2018", "genders": [{"id": 9, "name": "Male", "slug": "male"}], "languages": [{"id": 20, "name": "Czech", "slug": "czech"}, {"id": 5, "name": "German", "slug": "german"}], "places_of_operation": [{"id": 49, "name": "Czech Republic", "slug": "czech-republic"}], "biography": "Juraj Herz (4 September 1934 – 8 April 2018) was a Slovak film director, actor, and scene designer, associated with the Czechoslovak New Wave movement of the 1960s. He is best known for his 1969 horror/black comedy The Cremator, often cited as one of the best Czechoslovak films of all time, though many of his other films achieved cult status. He directed for both film and television, and in the latter capacity he directed episodes of a French-Czech television series based on George Simenon's Maigret novels. Source: Wikidata; 01/08/2023", "biography_author": null, "date_of_biography": "2025-03-05T14:15:20.294128+11:00", "external_links": [{"id": 2494, "uri": "https://en.wikipedia.org/wiki/Juraj_Herz"}], "uuid": "ca80b719-5433-49c7-96fe-6399d6200c6b", "source": {"name": "Vernon", "slug": "vernon"}, "source_identifier": "30909", "external_references": [{"id": 10668, "source": {"name": "Wikidata", "slug": "wikidata"}, "source_identifier": "Q1066361"}, {"id": 10669, "source": {"name": "VIAF", "slug": "viaf"}, "source_identifier": "165797885"}, {"id": 10670, "source": {"name": "LOC Auth", "slug": "loc-auth"}, "source_identifier": "no2009018394"}, {"id": 10671, "source": {"name": "WorldCat", "slug": "worldcat"}, "source_identifier": "lccn-no2009018394"}], "date_modified": "2025-03-05T14:15:20.294353+11:00"}, {"id": 82180, "name": "Shyam Benegal", "roles_in_work": [{"id": 2650340, "title": "Ankur = The Seedling", "work_id": 115653, "role": "director", "role_id": 938, "is_primary": true}], "also_known_as": "", "date_of_birth": "14 DEC 1934", "date_of_death": "", "genders": [{"id": 9, "name": "Male", "slug": "male"}], "languages": [{"id": 1, "name": "English", "slug": "english"}, {"id": 40, "name": "Hindi", "slug": "hindi"}], "places_of_operation": [{"id": 308, "name": "British India", "slug": "british-india"}, {"id": 319, "name": "British Raj", "slug": "british-raj"}], "biography": "Shyam Benegal (born 14 December 1934) is an Indian film director, screenwriter and documentary filmmaker. Often regarded as the pioneer of parallel cinema, he is widely considered as one of the greatest filmmakers post 1970s. He has received several accolades, including eighteen National Film Awards, a Filmfare Award and a Nandi Award. In 2005, he was honoured with the Dadasaheb Phalke Award, India's highest award in the field of cinema. In 1976, he was honoured by the Government of India with the Padma Shri, the fourth-highest civilian honour of the country, and in 1991, he was awarded Padma Bhushan, the third-highest civilian honour for his contributions in the field of arts.\n\nBenegal was born in Hyderabad to Sridhar B. Benegal who was prominent in the field of photography. Starting his career as a copywriter, he made his first Documentary film in Gujarati, Gher Betha Ganga (Ganges at the Doorstep) in 1962.  Benegal's first four feature films Ankur (1973), Nishant (1975), Manthan (1976) and Bhumika (1977) made him a pioneer of the new wave film movement of that period. Benegal's films, Mammo (1994), along with Sardari Begum (1996) and Zubeidaa (2001) all of which won National Film Awards for Best Feature Film in Hindi, form the Muslim women Trilogy. Benegal has won the National Film Award for Best Feature Film in Hindi seven times. He was awarded the V. Shantaram Lifetime Achievement Award in 2018. Source: Wikidata; 01/08/2023", "biography_author": null, "date_of_biography": "2025-03-05T14:15:18.858123+11:00", "external_links": [{"id": 3100, "uri": "https://en.wikipedia.org/wiki/Shyam_Benegal"}], "uuid": "254750f8-99e6-4dee-8a18-38442f213cc2", "source": {"name": "Vernon", "slug": "vernon"}, "source_identifier": "30908", "external_references": [{"id": 13155, "source": {"name": "Wikidata", "slug": "wikidata"}, "source_identifier": "Q55406"}, {"id": 13156, "source": {"name": "VIAF", "slug": "viaf"}, "source_identifier": "118158841"}, {"id": 13157, "source": {"name": "LOC Auth", "slug": "loc-auth"}, "source_identifier": "n88147889"}, {"id": 13158, "source": {"name": "WorldCat", "slug": "worldcat"}, "source_identifier": "lccn-n88147889"}], "date_modified": "2025-03-05T14:15:18.858435+11:00"}, {"id": 82179, "name": "Freni Variava", "roles_in_work": [{"id": 2650339, "title": "Ankur = The Seedling", "work_id": 115653, "role": "producer", "role_id": 1089, "is_primary": true}], "also_known_as": "", "date_of_birth": "", "date_of_death": "", "genders": [], "languages": [], "places_of_operation": [], "biography": "", "biography_author": null, "date_of_biography": "2023-05-09T12:26:23.587258+10:00", "external_links": [], "uuid": "7064680a-fe53-4ed0-94dd-46aca7ebb293", "source": {"name": "Vernon", "slug": "vernon"}, "source_identifier": "30907", "external_references": [{"id": 39669, "source": {"name": "Wikidata", "slug": "wikidata"}, "source_identifier": "Q121223461"}], "date_modified": "2025-03-05T14:15:18.256200+11:00"}, {"id": 82178, "name": "Mohan Bijlani", "roles_in_work": [{"id": 2650338, "title": "Ankur = The Seedling", "work_id": 115653, "role": "producer", "role_id": 1089, "is_primary": true}], "also_known_as": "", "date_of_birth": "", "date_of_death": "", "genders": [], "languages": [], "places_of_operation": [], "biography": "", "biography_author": null, "date_of_biography": "2023-05-09T12:26:23.322027+10:00", "external_links": [], "uuid": "1d6e8056-bf83-49cb-875f-ce7cad32f200", "source": {"name": "Vernon", "slug": "vernon"}, "source_identifier": "30906", "external_references": [], "date_modified": "2025-03-05T14:15:17.666770+11:00"}]}