{"count": 28687, "next": "https://api.acmi.net.au/creators/?page=480", "previous": "https://api.acmi.net.au/creators/?page=478", "results": [{"id": 80793, "name": "Bruce McCulloch", "roles_in_work": [{"id": 2318596, "title": "Superstar", "work_id": 94414, "role": "director", "role_id": 938, "is_primary": true}], "also_known_as": "", "date_of_birth": "1961-05-12", "date_of_death": "", "genders": [{"id": 9, "name": "Male", "slug": "male"}], "languages": [{"id": 1, "name": "English", "slug": "english"}], "places_of_operation": [{"id": 36, "name": "Canada", "slug": "canada"}], "biography": "Bruce Ian McCulloch is a Canadian actor, comedian, writer, musician and film director. McCulloch is perhaps best known for his work as a member of the comedy troupe The Kids in the Hall, including starring in the TV series of the same name. He was also a writer for Saturday Night Live. McCulloch has appeared on other series including Twitch City and Gilmore Girls. He directed the films Dog Park, Stealing Harvard and Superstar.He also wrote and directed the romantic comedy Comeback Season which toured film festivals before its release on DVD in 2007. He was the creator and head writer of the 2007-2008 ABC sitcom Carpoolers.", "biography_author": "Wikidata", "date_of_biography": "2023-08-01T14:16:56.582851+10:00", "external_links": [{"id": 1760, "uri": "https://en.wikipedia.org/wiki/Bruce_McCulloch"}], "uuid": "a15c7145-f032-40ef-b8bc-d49babef4130", "source": {"name": "Vernon", "slug": "vernon"}, "source_identifier": "16321", "external_references": [{"id": 7676, "source": {"name": "Wikidata", "slug": "wikidata"}, "source_identifier": "Q2926445"}, {"id": 7677, "source": {"name": "VIAF", "slug": "viaf"}, "source_identifier": "2672701"}, {"id": 7678, "source": {"name": "LOC Auth", "slug": "loc-auth"}, "source_identifier": "no2002107343"}, {"id": 7679, "source": {"name": "WorldCat", "slug": "worldcat"}, "source_identifier": "lccn-no2002107343"}], "date_modified": "2023-09-05T18:13:22.238239+10:00"}, {"id": 80792, "name": "Tina Rathborne", "roles_in_work": [{"id": 2283261, "title": "Twin Peaks. Pilot. Season one. Eps 1-4 [DVD]", "work_id": 94412, "role": "co-director", "role_id": 959, "is_primary": true}], "also_known_as": "", "date_of_birth": "1951-01-01", "date_of_death": "", "genders": [{"id": 5, "name": "Female", "slug": "female"}], "languages": [], "places_of_operation": [{"id": 1, "name": "United States of America", "slug": "united-states-of-america"}], "biography": "Ernestine \"Tina\" Rathborne (born 1950) is an American film director and screenwriter. She is best known for writing and directing the 1988 film Zelly and Me, her feature film directorial debut. Prior to this, she directed television film The Joy That Kills (1984), which later became an episode of the anthology series American Playhouse. Rathborne also went on to direct two episodes of the television series Twin Peaks (\"Episode 3\", \"Episode 17\").\nRathborne is an alumna of Harvard University. She was married to real estate developer and conservationist Philip Yardley DeNormandie from 1973 until their 1987 divorce. They later remarried and had two children. Their second divorce was filed in 2017 and finalized in 2023; Rathborne initiated both divorces.", "biography_author": "Wikidata", "date_of_biography": "2023-09-06T01:51:53.122565+10:00", "external_links": [{"id": 6226, "uri": "https://en.wikipedia.org/wiki/Tina_Rathborne"}], "uuid": "793b03ab-5445-4c9e-9b9b-cc97f4b5b3d6", "source": {"name": "Vernon", "slug": "vernon"}, "source_identifier": "29783", "external_references": [{"id": 34887, "source": {"name": "Wikidata", "slug": "wikidata"}, "source_identifier": "Q16150096"}, {"id": 55981, "source": {"name": "VIAF", "slug": "viaf"}, "source_identifier": "305857454"}, {"id": 55982, "source": {"name": "WorldCat", "slug": "worldcat"}, "source_identifier": "viaf-305857454"}], "date_modified": "2023-09-06T01:51:53.147533+10:00"}, {"id": 80791, "name": "Lorenzo O'Brien", "roles_in_work": [{"id": 1999326, "title": "Walker", "work_id": 94410, "role": "co-producer", "role_id": 915, "is_primary": true}], "also_known_as": "", "date_of_birth": "1955-01-01", "date_of_death": null, "genders": [{"id": 9, "name": "Male", "slug": "male"}], "languages": [], "places_of_operation": [{"id": 1, "name": "United States of America", "slug": "united-states-of-america"}], "biography": "Lorenzo O'Brien (born 1955) is a Peruvian-American writer-producer of Irish descent.\nO'Brien was born in Lima and attended graduate school at UCLA. He has produced many television films and several features including Walker and El Patrullero, which he also wrote.\nO'Brien wrote and produced for the PBS series American Family.", "biography_author": "Wikidata", "date_of_biography": "2022-05-19T12:17:22.518367+10:00", "external_links": [{"id": 2593, "uri": "https://en.wikipedia.org/wiki/Lorenzo_O%27Brien"}], "uuid": "3495d344-f03d-47a3-baf3-97bed348ccbd", "source": {"name": "Vernon", "slug": "vernon"}, "source_identifier": "23985", "external_references": [{"id": 11071, "source": {"name": "Wikidata", "slug": "wikidata"}, "source_identifier": "Q6680786"}, {"id": 11072, "source": {"name": "VIAF", "slug": "viaf"}, "source_identifier": "44118520"}, {"id": 11073, "source": {"name": "LOC Auth", "slug": "loc-auth"}, "source_identifier": "no2008125486"}, {"id": 11074, "source": {"name": "WorldCat", "slug": "worldcat"}, "source_identifier": "lccn-no2008125486"}], "date_modified": "2023-09-05T22:29:56.652016+10:00"}, {"id": 80790, "name": "Angel Flores Marini", "roles_in_work": [{"id": 1999325, "title": "Walker", "work_id": 94410, "role": "co-producer", "role_id": 915, "is_primary": true}], "also_known_as": "", "date_of_birth": null, "date_of_death": null, "genders": [], "languages": [], "places_of_operation": [], "biography": "", "biography_author": null, "date_of_biography": null, "external_links": [], "uuid": "e2999b3b-2345-4796-b3dc-094bc26f85d1", "source": {"name": "Vernon", "slug": "vernon"}, "source_identifier": null, "external_references": [], "date_modified": "2023-06-14T16:33:30.576250+10:00"}, {"id": 80789, "name": "Trace Fraim", "roles_in_work": [{"id": 2193063, "title": "Dirt [DVD]", "work_id": 94408, "role": "co-director", "role_id": 959, "is_primary": true}], "also_known_as": "", "date_of_birth": "", "date_of_death": "", "genders": [], "languages": [], "places_of_operation": [], "biography": "", "biography_author": null, "date_of_biography": "2023-05-09T15:12:07.762424+10:00", "external_links": [], "uuid": "66388143-5a84-4b88-b250-307830b203b0", "source": {"name": "Vernon", "slug": "vernon"}, "source_identifier": "29948", "external_references": [], "date_modified": "2023-06-14T16:33:30.576250+10:00"}, {"id": 80788, "name": "Michael Covert", "roles_in_work": [{"id": 2193059, "title": "Dirt [DVD]", "work_id": 94408, "role": "co-director", "role_id": 959, "is_primary": true}], "also_known_as": "", "date_of_birth": "", "date_of_death": "", "genders": [{"id": 9, "name": "Male", "slug": "male"}], "languages": [], "places_of_operation": [], "biography": "", "biography_author": null, "date_of_biography": "2023-05-09T15:12:07.412363+10:00", "external_links": [], "uuid": "db4061f3-321e-49cc-b629-ceb74c1b939e", "source": {"name": "Vernon", "slug": "vernon"}, "source_identifier": "25020", "external_references": [{"id": 38019, "source": {"name": "Wikidata", "slug": "wikidata"}, "source_identifier": "Q106601187"}], "date_modified": "2023-09-05T23:03:33.133133+10:00"}, {"id": 80787, "name": "Kirk Hassig", "roles_in_work": [{"id": 2193054, "title": "Dirt [DVD]", "work_id": 94408, "role": "co-producer", "role_id": 915, "is_primary": true}], "also_known_as": "", "date_of_birth": "", "date_of_death": "", "genders": [], "languages": [], "places_of_operation": [], "biography": "", "biography_author": null, "date_of_biography": "2023-05-09T15:12:07.162575+10:00", "external_links": [], "uuid": "6c346129-c941-4517-b19e-6eb5ac72b269", "source": {"name": "Vernon", "slug": "vernon"}, "source_identifier": "23359", "external_references": [{"id": 35615, "source": {"name": "Wikidata", "slug": "wikidata"}, "source_identifier": "Q121299486"}], "date_modified": "2023-09-05T22:10:20.179469+10:00"}, {"id": 80786, "name": "Trudi Callon", "roles_in_work": [{"id": 2193049, "title": "Dirt [DVD]", "work_id": 94408, "role": "co-producer", "role_id": 915, "is_primary": true}], "also_known_as": "", "date_of_birth": "", "date_of_death": "", "genders": [], "languages": [], "places_of_operation": [], "biography": "", "biography_author": null, "date_of_biography": "2023-05-09T15:12:06.918849+10:00", "external_links": [], "uuid": "4dd3a788-0142-4e10-a34f-8e35e09fdad5", "source": {"name": "Vernon", "slug": "vernon"}, "source_identifier": "29995", "external_references": [{"id": 38889, "source": {"name": "Wikidata", "slug": "wikidata"}, "source_identifier": "Q121079099"}], "date_modified": "2023-09-06T01:59:06.045615+10:00"}, {"id": 80785, "name": "Jocelyne Saab", "roles_in_work": [{"id": 2165088, "title": "Once upon a time, Beirut = Kan ya makan Beirut", "work_id": 94406, "role": "producer/director", "role_id": 31, "is_primary": true}], "also_known_as": "", "date_of_birth": "1948-04-30", "date_of_death": "2019-01-07", "genders": [{"id": 5, "name": "Female", "slug": "female"}], "languages": [{"id": 19, "name": "Arabic", "slug": "arabic"}, {"id": 4, "name": "French", "slug": "french"}], "places_of_operation": [{"id": 60, "name": "Lebanon", "slug": "lebanon"}], "biography": "Jocelyne Saab (30 April 1948 – 7 January 2019) was a Lebanese journalist and film director. She is recognized as one of the pioneers of Lebanese cinema. A reporter, photographer, scriptwriter, producer, director, artist and founder of the Cultural Resistance International Film Festival of Lebanon, Saab focused on the deprived and disadvantaged – from displaced peoples to exiled fighters, cities at war and a Fourth World without a voice. Her work is grounded in historic violence, and in an awareness of the actions and images required to document, reflect on and counteract it.", "biography_author": "Wikidata", "date_of_biography": "2023-08-01T15:33:07.725665+10:00", "external_links": [{"id": 2394, "uri": "https://en.wikipedia.org/wiki/Jocelyne_Saab"}], "uuid": "ed9387a2-4a6d-4093-a7ce-2ea5050927a4", "source": {"name": "Vernon", "slug": "vernon"}, "source_identifier": "22013", "external_references": [{"id": 10254, "source": {"name": "Wikidata", "slug": "wikidata"}, "source_identifier": "Q454431"}, {"id": 10255, "source": {"name": "VIAF", "slug": "viaf"}, "source_identifier": "223783781"}, {"id": 10256, "source": {"name": "LOC Auth", "slug": "loc-auth"}, "source_identifier": "no2008016517"}, {"id": 10257, "source": {"name": "WorldCat", "slug": "worldcat"}, "source_identifier": "lccn-no2008016517"}], "date_modified": "2023-09-05T21:29:07.999121+10:00"}, {"id": 80784, "name": "Danielle Smith", "roles_in_work": [{"id": 2330052, "title": "The Beat of distant hearts", "work_id": 94404, "role": "producer/director", "role_id": 31, "is_primary": true}], "also_known_as": "", "date_of_birth": "", "date_of_death": "", "genders": [], "languages": [], "places_of_operation": [], "biography": "", "biography_author": null, "date_of_biography": "2023-05-09T19:24:23.725746+10:00", "external_links": [], "uuid": "329d37e4-3528-4e9f-bb96-64fa8b55160d", "source": {"name": "Vernon", "slug": "vernon"}, "source_identifier": "17418", "external_references": [{"id": 51819, "source": {"name": "Wikidata", "slug": "wikidata"}, "source_identifier": "Q121361397"}], "date_modified": "2023-09-05T18:52:45.996681+10:00"}]}