{"count": 28687, "next": "https://api.acmi.net.au/creators/?page=1367", "previous": "https://api.acmi.net.au/creators/?page=1365", "results": [{"id": 37877, "name": "William Claiborne Incorporated", "roles_in_work": [{"id": 825698, "title": "The Noisy underwater world of the Weddell seal", "work_id": 95991, "role": "production company", "role_id": 941, "is_primary": true}, {"id": 2748756, "title": "Places people live: the family farm", "work_id": 96447, "role": "production company", "role_id": 941, "is_primary": true}, {"id": 2748758, "title": "Plains people", "work_id": 96448, "role": "production company", "role_id": 941, "is_primary": true}], "also_known_as": "", "date_of_birth": "", "date_of_death": "", "genders": [], "languages": [], "places_of_operation": [], "biography": "", "biography_author": null, "date_of_biography": "2023-08-14T10:21:53.799291+10:00", "external_links": [], "uuid": "c7299ec8-ef60-4c9e-b043-2f8a2a8617da", "source": {"name": "Vernon", "slug": "vernon"}, "source_identifier": "14374", "external_references": [], "date_modified": "2025-03-12T23:45:19.809086+11:00"}, {"id": 37876, "name": "Egons Tomsons", "roles_in_work": [{"id": 2753528, "title": "Chicago's modern architecture", "work_id": 98811, "role": "producer", "role_id": 1089, "is_primary": true}, {"id": 1806064, "title": "The Impressionists", "work_id": 95990, "role": "producer", "role_id": 1089, "is_primary": true}, {"id": 1807066, "title": "Expressionism", "work_id": 96348, "role": "producer", "role_id": 1089, "is_primary": true}, {"id": 1807099, "title": "Matisse & the Fauves", "work_id": 96349, "role": "producer", "role_id": 1089, "is_primary": true}, {"id": 2749018, "title": "Madrid: capital de Espana", "work_id": 96599, "role": "producer", "role_id": 1089, "is_primary": true}, {"id": 1807118, "title": "Post-Impressionists", "work_id": 96350, "role": "producer", "role_id": 1089, "is_primary": true}, {"id": 1807120, "title": "Surrealism", "work_id": 96351, "role": "producer", "role_id": 1089, "is_primary": true}], "also_known_as": "", "date_of_birth": null, "date_of_death": null, "genders": [], "languages": [], "places_of_operation": [], "biography": "", "biography_author": null, "date_of_biography": null, "external_links": [], "uuid": "dba298c8-ae46-40b7-a554-7c85bcfa24a9", "source": {"name": "Vernon", "slug": "vernon"}, "source_identifier": "4831", "external_references": [], "date_modified": "2025-03-13T01:26:41.610675+11:00"}, {"id": 37875, "name": "Precedent Films", "roles_in_work": [{"id": 825693, "title": "Boswelle's bon voyage", "work_id": 95989, "role": "production company", "role_id": 941, "is_primary": true}, {"id": 2464651, "title": "Our crowded environment", "work_id": 96068, "role": "production company", "role_id": 941, "is_primary": true}], "also_known_as": "", "date_of_birth": "", "date_of_death": "", "genders": [], "languages": [], "places_of_operation": [], "biography": "", "biography_author": null, "date_of_biography": "2023-08-14T10:16:13.064434+10:00", "external_links": [], "uuid": "4949560d-fa9f-47ac-a880-0b2ef55242a0", "source": {"name": "Vernon", "slug": "vernon"}, "source_identifier": "11622", "external_references": [], "date_modified": "2023-08-14T10:16:13.064782+10:00"}, {"id": 37873, "name": "Chemistry Educational Materials Study", "roles_in_work": [{"id": 2757589, "title": "Gas pressure and molecular collisions", "work_id": 95983, "role": "production company", "role_id": 941, "is_primary": true}], "also_known_as": "", "date_of_birth": "", "date_of_death": "", "genders": [], "languages": [], "places_of_operation": [], "biography": "", "biography_author": null, "date_of_biography": "2023-08-11T18:24:59.948233+10:00", "external_links": [], "uuid": "98ec6b59-9262-4816-8f8f-43fae2b3e3e9", "source": {"name": "Vernon", "slug": "vernon"}, "source_identifier": "6547", "external_references": [], "date_modified": "2025-03-13T14:46:25.270502+11:00"}, {"id": 37870, "name": "J Parsons", "roles_in_work": [{"id": 2407469, "title": "Film workshop", "work_id": 95963, "role": "producer", "role_id": 1089, "is_primary": true}], "also_known_as": "", "date_of_birth": "", "date_of_death": "", "genders": [], "languages": [], "places_of_operation": [], "biography": "", "biography_author": null, "date_of_biography": "2023-08-11T16:37:39.988922+10:00", "external_links": [], "uuid": "f2d7e872-7a20-437a-9313-122f3cad40b5", "source": {"name": "Vernon", "slug": "vernon"}, "source_identifier": "20952", "external_references": [], "date_modified": "2023-08-11T16:37:39.989170+10:00"}, {"id": 37869, "name": "J B Parsons and Associates", "roles_in_work": [{"id": 2407468, "title": "Film workshop", "work_id": 95963, "role": "production company", "role_id": 941, "is_primary": true}], "also_known_as": "", "date_of_birth": "", "date_of_death": "", "genders": [], "languages": [], "places_of_operation": [], "biography": "", "biography_author": null, "date_of_biography": "2023-08-11T16:37:39.352293+10:00", "external_links": [], "uuid": "0f0d8aaf-3b52-4755-a5cc-cd6b6f8ec516", "source": {"name": "Vernon", "slug": "vernon"}, "source_identifier": "9511", "external_references": [], "date_modified": "2023-08-11T16:37:39.352516+10:00"}, {"id": 37867, "name": "Douglass Film Industries", "roles_in_work": [{"id": 2414965, "title": "Lifetime sports in education", "work_id": 95955, "role": "production company", "role_id": 941, "is_primary": true}], "also_known_as": "", "date_of_birth": "", "date_of_death": "", "genders": [], "languages": [], "places_of_operation": [], "biography": "", "biography_author": null, "date_of_biography": "2023-08-11T19:28:17.634579+10:00", "external_links": [], "uuid": "0f4da5b7-4418-42fb-9d7c-a8748df07cab", "source": {"name": "Vernon", "slug": "vernon"}, "source_identifier": "7655", "external_references": [], "date_modified": "2023-08-11T19:28:17.634823+10:00"}, {"id": 37866, "name": "Eric Wylam", "roles_in_work": [{"id": 2465658, "title": "Semiconductor physics. Part 5. The Transistor", "work_id": 95946, "role": "director", "role_id": 938, "is_primary": true}], "also_known_as": "", "date_of_birth": "", "date_of_death": "", "genders": [], "languages": [], "places_of_operation": [], "biography": "", "biography_author": null, "date_of_biography": "2023-08-14T10:39:30.474362+10:00", "external_links": [], "uuid": "63c76000-5202-4647-9baa-1c789f069102", "source": {"name": "Vernon", "slug": "vernon"}, "source_identifier": "31896", "external_references": [], "date_modified": "2023-08-14T10:39:30.474735+10:00"}, {"id": 37865, "name": "Philips Educational Service", "roles_in_work": [{"id": 2404754, "title": "Conduction in P and N crystals", "work_id": 95943, "role": "production company", "role_id": 941, "is_primary": true}, {"id": 825631, "title": "P-N Junction (Episode 3)", "work_id": 95944, "role": "production company", "role_id": 941, "is_primary": true}, {"id": 886430, "title": "Television picture tube", "work_id": 95947, "role": "production company", "role_id": 941, "is_primary": true}], "also_known_as": "", "date_of_birth": "", "date_of_death": "", "genders": [], "languages": [], "places_of_operation": [], "biography": "", "biography_author": null, "date_of_biography": "2023-08-11T15:39:22.655912+10:00", "external_links": [], "uuid": "a5b316e0-d039-408c-96a8-54a72ec279db", "source": {"name": "Vernon", "slug": "vernon"}, "source_identifier": "11451", "external_references": [], "date_modified": "2023-08-11T15:39:22.656180+10:00"}, {"id": 37863, "name": "Social Studies Curriculum Development Center, Carnegie Institute of Technology", "roles_in_work": [{"id": 2409934, "title": "How the historian asks questions", "work_id": 95934, "role": "production company", "role_id": 941, "is_primary": true}, {"id": 2409936, "title": "How the historian deals with mind set", "work_id": 95935, "role": "production company", "role_id": 941, "is_primary": true}, {"id": 2409935, "title": "How the historian classifies information", "work_id": 95931, "role": "production company", "role_id": 941, "is_primary": true}, {"id": 2409938, "title": "How the historian proves a hypothesis", "work_id": 95932, "role": "production company", "role_id": 941, "is_primary": true}, {"id": 2409937, "title": "How the historian decides what is fact", "work_id": 95933, "role": "production company", "role_id": 941, "is_primary": true}], "also_known_as": "", "date_of_birth": "", "date_of_death": "", "genders": [], "languages": [], "places_of_operation": [], "biography": "", "biography_author": null, "date_of_biography": "2023-08-11T17:32:33.657824+10:00", "external_links": [], "uuid": "144c8cc1-a1b4-4e26-90cd-4be67816cb11", "source": {"name": "Vernon", "slug": "vernon"}, "source_identifier": "12686", "external_references": [], "date_modified": "2023-08-11T17:32:33.658073+10:00"}]}