{"count": 28687, "next": "https://api.acmi.net.au/creators/?page=2514", "previous": "https://api.acmi.net.au/creators/?page=2512", "results": [{"id": 13748, "name": "Dan Douglas", "roles_in_work": [{"id": 2679683, "title": "Children are people (TEFC)", "work_id": 66022, "role": "producer", "role_id": 1089, "is_primary": true}, {"id": 1811154, "title": "Task of the teacher (TEFC)", "work_id": 73515, "role": "producer", "role_id": 1089, "is_primary": true}, {"id": 2404042, "title": "Children are people", "work_id": 96397, "role": "producer", "role_id": 1089, "is_primary": true}], "also_known_as": "", "date_of_birth": "", "date_of_death": "", "genders": [], "languages": [], "places_of_operation": [], "biography": "", "biography_author": null, "date_of_biography": "2023-08-11T15:24:47.600009+10:00", "external_links": [], "uuid": "2b830acc-9032-4521-a054-795279624959", "source": {"name": "Vernon", "slug": "vernon"}, "source_identifier": "17356", "external_references": [], "date_modified": "2025-03-07T00:17:46.068530+11:00"}, {"id": 13747, "name": "Stockwell College of Education", "roles_in_work": [{"id": 755017, "title": "Task of the teacher (TEFC)", "work_id": 73515, "role": "production company", "role_id": 941, "is_primary": true}, {"id": 2714097, "title": "Form in the making (TEFC)", "work_id": 67744, "role": "production company", "role_id": 941, "is_primary": true}, {"id": 2679682, "title": "Children are people (TEFC)", "work_id": 66022, "role": "production company", "role_id": 941, "is_primary": true}, {"id": 2404041, "title": "Children are people", "work_id": 96397, "role": "production company", "role_id": 941, "is_primary": true}], "also_known_as": "", "date_of_birth": "", "date_of_death": "", "genders": [], "languages": [], "places_of_operation": [], "biography": "", "biography_author": null, "date_of_biography": "2023-08-11T16:44:47.823459+10:00", "external_links": [], "uuid": "6195f560-159b-4cfe-92ae-dd5f70597e68", "source": {"name": "Vernon", "slug": "vernon"}, "source_identifier": "12966", "external_references": [], "date_modified": "2025-03-12T01:01:09.090310+11:00"}, {"id": 13746, "name": "Edward Goldwyn", "roles_in_work": [{"id": 2392670, "title": "Plagued. Episodes 3 & 4", "work_id": 82291, "role": "co-director", "role_id": 959, "is_primary": true}, {"id": 2649842, "title": "Plagued. Episodes 1 & 2", "work_id": 82290, "role": "co-director", "role_id": 959, "is_primary": true}, {"id": 2761682, "title": "Now the chips are down", "work_id": 75462, "role": "producer", "role_id": 1089, "is_primary": true}, {"id": 2761719, "title": "The Planets", "work_id": 71616, "role": "producer", "role_id": 1089, "is_primary": true}, {"id": 1818668, "title": "What is a limit? (TEFC)", "work_id": 74623, "role": "producer", "role_id": 1089, "is_primary": true}, {"id": 2757722, "title": "Discovering the world (TEFC)", "work_id": 95540, "role": "producer", "role_id": 1089, "is_primary": true}, {"id": 2757727, "title": "'Cos it's naughty (TEFC)", "work_id": 66429, "role": "producer", "role_id": 1089, "is_primary": true}, {"id": 2757731, "title": "'Cos its naughty", "work_id": 96398, "role": "producer", "role_id": 1089, "is_primary": true}, {"id": 2757734, "title": "Playing the game (TEFC)", "work_id": 71659, "role": "producer", "role_id": 1089, "is_primary": true}, {"id": 2757737, "title": "Playing the game", "work_id": 96399, "role": "producer", "role_id": 1089, "is_primary": true}, {"id": 2679681, "title": "Checking up (TEFC)", "work_id": 66021, "role": "producer", "role_id": 1089, "is_primary": true}, {"id": 2753371, "title": "China's child", "work_id": 98731, "role": "producer", "role_id": 1089, "is_primary": true}, {"id": 2761398, "title": "Breaking in children (TEFC)", "work_id": 78552, "role": "producer", "role_id": 1089, "is_primary": true}, {"id": 2761406, "title": "The Cancer Detectives of Lin Xian", "work_id": 76828, "role": "producer", "role_id": 1089, "is_primary": true}, {"id": 2761423, "title": "The Chemical dream", "work_id": 97229, "role": "producer", "role_id": 1089, "is_primary": true}, {"id": 2761484, "title": "The Fight to be male", "work_id": 75194, "role": "producer", "role_id": 1089, "is_primary": true}, {"id": 2761515, "title": "Goodbye Gutenberg", "work_id": 76961, "role": "producer", "role_id": 1089, "is_primary": true}, {"id": 2761589, "title": "If at first you don't succeed: you don't succeed (TEFC)", "work_id": 80434, "role": "producer", "role_id": 1089, "is_primary": true}, {"id": 2761594, "title": "If at first you don't succeed: you don't succeed [B&W]", "work_id": 68748, "role": "producer", "role_id": 1089, "is_primary": true}, {"id": 2761600, "title": "If at first you don't succeed: you don't succeed [Colour version]", "work_id": 96817, "role": "producer", "role_id": 1089, "is_primary": true}, {"id": 2757719, "title": "Discovering the world", "work_id": 66812, "role": "producer", "role_id": 1089, "is_primary": true}, {"id": 1811693, "title": "Statistics and probabilty. No. 2 (TEFC)", "work_id": 73179, "role": "producer", "role_id": 1089, "is_primary": true}, {"id": 1811662, "title": "Statistics and probability. No. 3 (TEFC)", "work_id": 73178, "role": "producer", "role_id": 1089, "is_primary": true}, {"id": 1811645, "title": "Statistics and probability. No. 1 (TEFC)", "work_id": 73177, "role": "producer", "role_id": 1089, "is_primary": true}], "also_known_as": "", "date_of_birth": "", "date_of_death": "", "genders": [], "languages": [], "places_of_operation": [], "biography": "", "biography_author": null, "date_of_biography": "2023-08-09T03:59:02.537459+10:00", "external_links": [], "uuid": "fbe38229-a313-4656-a053-70efe55297b9", "source": {"name": "Vernon", "slug": "vernon"}, "source_identifier": "18594", "external_references": [{"id": 37970, "source": {"name": "Wikidata", "slug": "wikidata"}, "source_identifier": "Q121079580"}], "date_modified": "2025-03-14T17:34:51.489938+11:00"}, {"id": 13745, "name": "Steven D McAdam", "roles_in_work": [{"id": 2679679, "title": "Childhood aggression: a social learning approach to family therapy (TEFC)", "work_id": 66020, "role": "director", "role_id": 938, "is_primary": true}, {"id": 856726, "title": "Peer conducted behaviour modification (TEFC)", "work_id": 71431, "role": "director", "role_id": 938, "is_primary": true}], "also_known_as": "", "date_of_birth": "", "date_of_death": "", "genders": [], "languages": [], "places_of_operation": [], "biography": "", "biography_author": null, "date_of_biography": "2023-08-11T15:23:44.466661+10:00", "external_links": [], "uuid": "778fe988-f73d-4b5f-be08-169c250bcc4f", "source": {"name": "Vernon", "slug": "vernon"}, "source_identifier": "29185", "external_references": [], "date_modified": "2025-03-07T00:17:42.921743+11:00"}, {"id": 13744, "name": "Phillip R. Blake", "roles_in_work": [{"id": 1819314, "title": "Peer conducted behaviour modification (TEFC)", "work_id": 71431, "role": "producer", "role_id": 1089, "is_primary": true}, {"id": 2679678, "title": "Childhood aggression: a social learning approach to family therapy (TEFC)", "work_id": 66020, "role": "producer", "role_id": 1089, "is_primary": true}], "also_known_as": "", "date_of_birth": "", "date_of_death": "", "genders": [], "languages": [], "places_of_operation": [], "biography": "", "biography_author": null, "date_of_biography": "2023-08-11T15:23:43.842970+10:00", "external_links": [], "uuid": "52e224b9-ea47-4409-b5d9-6b6892332ac6", "source": {"name": "Vernon", "slug": "vernon"}, "source_identifier": "26888", "external_references": [], "date_modified": "2025-03-07T00:17:42.341170+11:00"}, {"id": 13743, "name": "Oregan Research Institute", "roles_in_work": [{"id": 2679677, "title": "Childhood aggression: a social learning approach to family therapy (TEFC)", "work_id": 66020, "role": "production company", "role_id": 941, "is_primary": true}], "also_known_as": "", "date_of_birth": "", "date_of_death": "", "genders": [], "languages": [], "places_of_operation": [], "biography": "", "biography_author": null, "date_of_biography": "2023-08-11T15:23:43.199155+10:00", "external_links": [], "uuid": "c1919d2d-a02f-4f87-a2df-6a2b60e40be3", "source": {"name": "Vernon", "slug": "vernon"}, "source_identifier": "11175", "external_references": [], "date_modified": "2025-03-07T00:17:41.759193+11:00"}, {"id": 13742, "name": "PRB Productions", "roles_in_work": [{"id": 2679676, "title": "Childhood aggression: a social learning approach to family therapy (TEFC)", "work_id": 66020, "role": "production company", "role_id": 941, "is_primary": true}], "also_known_as": "", "date_of_birth": "", "date_of_death": "", "genders": [], "languages": [], "places_of_operation": [], "biography": "", "biography_author": null, "date_of_biography": "2023-08-11T15:23:42.554454+10:00", "external_links": [], "uuid": "11e2dd97-1a9c-4362-b460-48e471427f91", "source": {"name": "Vernon", "slug": "vernon"}, "source_identifier": "11618", "external_references": [], "date_modified": "2025-03-07T00:17:41.160297+11:00"}, {"id": 13741, "name": "John Ferno", "roles_in_work": [{"id": 2767794, "title": "Desert nomads (french Morocco)", "work_id": 66715, "role": "director", "role_id": 938, "is_primary": true}, {"id": 2767811, "title": "Food for Paris markets", "work_id": 67691, "role": "director", "role_id": 938, "is_primary": true}, {"id": 2767832, "title": "Land behind the dikes: the Netherlands", "work_id": 69480, "role": "director", "role_id": 938, "is_primary": true}, {"id": 2716385, "title": "Industrial Western Europe: factories, mines and waterways", "work_id": 68924, "role": "director", "role_id": 938, "is_primary": true}, {"id": 2767844, "title": "Mountain farmers: Switzerland", "work_id": 70627, "role": "director", "role_id": 938, "is_primary": true}, {"id": 750925, "title": "Po river valley (Italy)", "work_id": 71672, "role": "director", "role_id": 938, "is_primary": true}, {"id": 856268, "title": "On Mediterranean shores: Southern Greece", "work_id": 71090, "role": "director", "role_id": 938, "is_primary": true}, {"id": 910037, "title": "The 400 million", "work_id": 90616, "role": "co-director", "role_id": 959, "is_primary": true}, {"id": 2679675, "title": "A Child went forth", "work_id": 66019, "role": "co-producer", "role_id": 915, "is_primary": true}], "also_known_as": "", "date_of_birth": "", "date_of_death": "", "genders": [], "languages": [], "places_of_operation": [], "biography": "", "biography_author": null, "date_of_biography": "2023-08-11T14:03:20.124727+10:00", "external_links": [], "uuid": "cf178031-bd7b-42a9-9889-b9088cea94f8", "source": {"name": "Vernon", "slug": "vernon"}, "source_identifier": "22249", "external_references": [], "date_modified": "2025-03-14T18:07:11.356969+11:00"}, {"id": 13740, "name": "New York University Film Library", "roles_in_work": [{"id": 2679673, "title": "A Child went forth", "work_id": 66019, "role": "production company", "role_id": 941, "is_primary": true}], "also_known_as": "", "date_of_birth": null, "date_of_death": null, "genders": [], "languages": [], "places_of_operation": [], "biography": "", "biography_author": null, "date_of_biography": null, "external_links": [], "uuid": "031bbb74-f785-4b98-be7d-6310ba72a6d8", "source": {"name": "Vernon", "slug": "vernon"}, "source_identifier": "10928", "external_references": [], "date_modified": "2025-03-07T00:17:38.977632+11:00"}, {"id": 13739, "name": "Swedish Travel Information Bureau", "roles_in_work": [{"id": 2679672, "title": "Child welfare in Sweden", "work_id": 66018, "role": "production company", "role_id": 941, "is_primary": true}], "also_known_as": "", "date_of_birth": "", "date_of_death": "", "genders": [], "languages": [], "places_of_operation": [], "biography": "", "biography_author": null, "date_of_biography": "2023-08-11T15:23:27.923829+10:00", "external_links": [], "uuid": "136961de-3fbe-4b23-be40-41288166e927", "source": {"name": "Vernon", "slug": "vernon"}, "source_identifier": "13092", "external_references": [], "date_modified": "2025-03-07T00:17:38.020922+11:00"}]}