{"count": 28687, "next": "https://api.acmi.net.au/creators/?page=1547", "previous": "https://api.acmi.net.au/creators/?page=1545", "results": [{"id": 32464, "name": "Todd Abbott", "roles_in_work": [{"id": 2344700, "title": "The Dream (Week 1)", "work_id": 90756, "role": "producer", "role_id": 1089, "is_primary": true}, {"id": 2344720, "title": "The Dream (Week 2)", "work_id": 90757, "role": "producer", "role_id": 1089, "is_primary": true}], "also_known_as": "", "date_of_birth": "", "date_of_death": "", "genders": [], "languages": [], "places_of_operation": [], "biography": "", "biography_author": null, "date_of_biography": "2023-05-09T19:45:13.087102+10:00", "external_links": [], "uuid": "102e784f-f549-430e-8f27-046b3fd870c2", "source": {"name": "Vernon", "slug": "vernon"}, "source_identifier": "29798", "external_references": [{"id": 38018, "source": {"name": "Wikidata", "slug": "wikidata"}, "source_identifier": "Q121337683"}], "date_modified": "2023-09-06T01:52:10.280174+10:00"}, {"id": 32463, "name": "Peter Ho-sun Chan", "roles_in_work": [{"id": 1994960, "title": "The Love letter", "work_id": 90755, "role": "director", "role_id": 938, "is_primary": true}], "also_known_as": "", "date_of_birth": "1962-11-28", "date_of_death": null, "genders": [{"id": 9, "name": "Male", "slug": "male"}], "languages": [{"id": 14, "name": "Chinese", "slug": "chinese"}], "places_of_operation": [{"id": 290, "name": "People's Republic of China", "slug": "peoples-republic-of-china"}], "biography": "Peter Ho-sun Chan (born 28 November 1962) is a film director and producer.", "biography_author": "Wikidata", "date_of_biography": "2022-05-19T12:42:00.429648+10:00", "external_links": [{"id": 2855, "uri": "https://en.wikipedia.org/wiki/Peter_Chan"}], "uuid": "4c374e6d-5912-4a2e-8c09-cd942f85d584", "source": {"name": "Vernon", "slug": "vernon"}, "source_identifier": "26583", "external_references": [{"id": 12145, "source": {"name": "Wikidata", "slug": "wikidata"}, "source_identifier": "Q716064"}, {"id": 12146, "source": {"name": "VIAF", "slug": "viaf"}, "source_identifier": "95120693"}, {"id": 12147, "source": {"name": "LOC Auth", "slug": "loc-auth"}, "source_identifier": "no2006119849"}, {"id": 12148, "source": {"name": "WorldCat", "slug": "worldcat"}, "source_identifier": "lccn-no2006119849"}], "date_modified": "2023-09-13T12:31:53.625416+10:00"}, {"id": 32461, "name": "Dan Fuller", "roles_in_work": [{"id": 2402454, "title": "Beachworm! [the art of beachworming]", "work_id": 90753, "role": "producer", "role_id": 1089, "is_primary": true}, {"id": 2402453, "title": "Beachworm! [the art of beachworming]", "work_id": 90753, "role": "production company", "role_id": 941, "is_primary": true}], "also_known_as": "", "date_of_birth": "", "date_of_death": "", "genders": [], "languages": [], "places_of_operation": [], "biography": "", "biography_author": null, "date_of_biography": "2023-08-11T14:46:27.387201+10:00", "external_links": [], "uuid": "d53ffd80-094d-45d8-a95d-e1f6eb94b082", "source": {"name": "Vernon", "slug": "vernon"}, "source_identifier": "17357", "external_references": [], "date_modified": "2023-08-11T14:46:27.387447+10:00"}, {"id": 32458, "name": "Cari Best", "roles_in_work": [{"id": 2109171, "title": "Beatrix Potter: artist, storyteller and countrywoman", "work_id": 90744, "role": "director", "role_id": 938, "is_primary": true}], "also_known_as": "", "date_of_birth": "", "date_of_death": "", "genders": [], "languages": [], "places_of_operation": [], "biography": "", "biography_author": null, "date_of_biography": "2023-05-09T12:43:18.916215+10:00", "external_links": [], "uuid": "07e88031-a508-4204-be5a-fd1502cb7960", "source": {"name": "Vernon", "slug": "vernon"}, "source_identifier": "16456", "external_references": [], "date_modified": "2023-06-14T16:33:30.576250+10:00"}, {"id": 32457, "name": "Judy Taylor", "roles_in_work": [{"id": 2109169, "title": "Beatrix Potter: artist, storyteller and countrywoman", "work_id": 90744, "role": "director", "role_id": 938, "is_primary": true}], "also_known_as": "", "date_of_birth": "", "date_of_death": "", "genders": [], "languages": [], "places_of_operation": [], "biography": "", "biography_author": null, "date_of_biography": "2023-05-09T12:43:18.684046+10:00", "external_links": [], "uuid": "00f35ea9-444e-421e-ae97-e48fdb91e86b", "source": {"name": "Vernon", "slug": "vernon"}, "source_identifier": "22824", "external_references": [], "date_modified": "2023-06-14T16:33:30.576250+10:00"}, {"id": 32456, "name": "Libby Joy", "roles_in_work": [{"id": 2109166, "title": "Beatrix Potter: artist, storyteller and countrywoman", "work_id": 90744, "role": "producer", "role_id": 1089, "is_primary": true}], "also_known_as": "", "date_of_birth": "", "date_of_death": "", "genders": [], "languages": [], "places_of_operation": [], "biography": "", "biography_author": null, "date_of_biography": "2023-05-09T12:43:18.446616+10:00", "external_links": [], "uuid": "b597bcf0-eca9-453e-8dc2-40d19e66f723", "source": {"name": "Vernon", "slug": "vernon"}, "source_identifier": "23834", "external_references": [], "date_modified": "2023-06-14T16:33:30.576250+10:00"}, {"id": 32455, "name": "Virginia Wilkos", "roles_in_work": [{"id": 877537, "title": "Musical Max", "work_id": 90741, "role": "director", "role_id": 938, "is_primary": true}, {"id": 2246604, "title": "Red riding hood", "work_id": 90743, "role": "director", "role_id": 938, "is_primary": true}], "also_known_as": "", "date_of_birth": "", "date_of_death": "", "genders": [], "languages": [], "places_of_operation": [], "biography": "", "biography_author": null, "date_of_biography": "2023-05-09T17:03:52.251847+10:00", "external_links": [], "uuid": "c1bd1355-2bd0-4d97-baaa-0df8d75dbe3e", "source": {"name": "Vernon", "slug": "vernon"}, "source_identifier": "3960", "external_references": [{"id": 36639, "source": {"name": "Wikidata", "slug": "wikidata"}, "source_identifier": "Q121034723"}], "date_modified": "2023-09-06T02:07:24.385847+10:00"}, {"id": 32452, "name": "James Bresnahan", "roles_in_work": [{"id": 2205504, "title": "Picnic", "work_id": 90730, "role": "director", "role_id": 938, "is_primary": true}], "also_known_as": "", "date_of_birth": "", "date_of_death": "", "genders": [], "languages": [], "places_of_operation": [], "biography": "", "biography_author": null, "date_of_biography": "2023-05-09T15:33:50.664783+10:00", "external_links": [], "uuid": "ab552bde-455a-4e6b-bd0e-b1761a80c42f", "source": {"name": "Vernon", "slug": "vernon"}, "source_identifier": "21200", "external_references": [], "date_modified": "2023-06-14T16:33:30.576250+10:00"}, {"id": 32450, "name": "Melissa Reilly", "roles_in_work": [{"id": 2133799, "title": "Cat and canary", "work_id": 90732, "role": "director", "role_id": 938, "is_primary": true}, {"id": 2212383, "title": "Each peach pear plum", "work_id": 90727, "role": "director", "role_id": 938, "is_primary": true}], "also_known_as": "", "date_of_birth": "", "date_of_death": "", "genders": [], "languages": [], "places_of_operation": [], "biography": "", "biography_author": null, "date_of_biography": "2023-05-09T15:48:11.852466+10:00", "external_links": [], "uuid": "f763f718-901c-4a69-a535-4f3cbae03589", "source": {"name": "Vernon", "slug": "vernon"}, "source_identifier": "24932", "external_references": [], "date_modified": "2023-06-14T16:33:30.576250+10:00"}, {"id": 32443, "name": "Steve Campus Productions", "roles_in_work": [{"id": 877512, "title": "The Moat monster", "work_id": 90714, "role": "production company", "role_id": 941, "is_primary": true}, {"id": 2750745, "title": "Foundations of mathematics", "work_id": 97478, "role": "production company", "role_id": 941, "is_primary": true}], "also_known_as": "", "date_of_birth": "", "date_of_death": "", "genders": [], "languages": [], "places_of_operation": [], "biography": "", "biography_author": null, "date_of_biography": "2023-08-11T16:45:54.982979+10:00", "external_links": [], "uuid": "8143df30-70a1-414d-bc4b-22e529e43a76", "source": {"name": "Vernon", "slug": "vernon"}, "source_identifier": "12952", "external_references": [], "date_modified": "2025-03-13T00:30:03.782363+11:00"}]}