{"count": 28687, "next": "https://api.acmi.net.au/creators/?page=1193", "previous": "https://api.acmi.net.au/creators/?page=1191", "results": [{"id": 73427, "name": "Claudio Avilla", "roles_in_work": [{"id": 2100589, "title": "Arrivederci Roma", "work_id": 92031, "role": "cast", "role_id": 33, "is_primary": false}, {"id": 2629697, "title": "Arrivederci Roma", "work_id": 108521, "role": "cast", "role_id": 33, "is_primary": false}], "also_known_as": "", "date_of_birth": "", "date_of_death": "", "genders": [], "languages": [], "places_of_operation": [], "biography": "", "biography_author": null, "date_of_biography": "2023-05-09T12:30:23.253698+10:00", "external_links": [], "uuid": "b189589b-9eeb-4c80-a1c8-f01734564631", "source": {"name": "Vernon", "slug": "vernon"}, "source_identifier": "34472", "external_references": [{"id": 38187, "source": {"name": "Wikidata", "slug": "wikidata"}, "source_identifier": "Q121126875"}], "date_modified": "2025-02-27T22:55:05.785704+11:00"}, {"id": 73426, "name": "Richard Zotorski", "roles_in_work": [{"id": 2629696, "title": "Arrivederci Roma", "work_id": 108521, "role": "producer", "role_id": 1089, "is_primary": true}], "also_known_as": "", "date_of_birth": "", "date_of_death": "", "genders": [], "languages": [], "places_of_operation": [], "biography": "", "biography_author": null, "date_of_biography": "2023-05-09T12:30:22.793115+10:00", "external_links": [], "uuid": "e24bb884-ef48-4325-baab-84e287189413", "source": {"name": "Vernon", "slug": "vernon"}, "source_identifier": "111401", "external_references": [{"id": 32528, "source": {"name": "Wikidata", "slug": "wikidata"}, "source_identifier": "Q121035673"}], "date_modified": "2025-02-27T22:55:05.204669+11:00"}, {"id": 73425, "name": "Jeremy Rochigneux", "roles_in_work": [{"id": 2748709, "title": "Caged birds cannot fly", "work_id": 108429, "role": "contact", "role_id": 543, "is_primary": false}], "also_known_as": "", "date_of_birth": "", "date_of_death": "", "genders": [], "languages": [], "places_of_operation": [], "biography": "", "biography_author": null, "date_of_biography": "2023-05-09T13:15:52.122607+10:00", "external_links": [], "uuid": "fccbd5c9-1b7a-45e0-a8ed-9d1303e9807b", "source": {"name": "Vernon", "slug": "vernon"}, "source_identifier": "111181", "external_references": [], "date_modified": "2025-03-12T23:09:16.596383+11:00"}, {"id": 73424, "name": "Madeleine Belisle", "roles_in_work": [{"id": 2619338, "title": "When the day breaks", "work_id": 108428, "role": "contact", "role_id": 543, "is_primary": false}], "also_known_as": "", "date_of_birth": "", "date_of_death": "", "genders": [], "languages": [], "places_of_operation": [], "biography": "", "biography_author": null, "date_of_biography": "2023-08-14T12:45:09.865975+10:00", "external_links": [], "uuid": "dedc775d-3ce6-4e40-88bd-86f205c90d13", "source": {"name": "Vernon", "slug": "vernon"}, "source_identifier": "111179", "external_references": [], "date_modified": "2025-02-26T23:03:34.651475+11:00"}, {"id": 73423, "name": "Tom Crone", "roles_in_work": [{"id": 2619335, "title": "Father and daughter", "work_id": 108427, "role": "contact", "role_id": 543, "is_primary": false}], "also_known_as": "", "date_of_birth": "", "date_of_death": "", "genders": [], "languages": [], "places_of_operation": [], "biography": "", "biography_author": null, "date_of_biography": "2023-05-09T16:49:34.404340+10:00", "external_links": [], "uuid": "a22985c0-020e-4347-af0b-63aa53b5d3b9", "source": {"name": "Vernon", "slug": "vernon"}, "source_identifier": "111178", "external_references": [], "date_modified": "2025-02-26T23:03:32.647121+11:00"}, {"id": 73422, "name": "Lindsay Cox", "roles_in_work": [{"id": 2748704, "title": "Whyspers", "work_id": 108424, "role": "creator", "role_id": 968, "is_primary": true}, {"id": 2748705, "title": "Whyspers", "work_id": 108424, "role": "animator", "role_id": 497, "is_primary": false}, {"id": 2748706, "title": "Whyspers", "work_id": 108424, "role": "writer", "role_id": 939, "is_primary": true}], "also_known_as": "", "date_of_birth": null, "date_of_death": null, "genders": [], "languages": [], "places_of_operation": [], "biography": "", "biography_author": null, "date_of_biography": null, "external_links": [], "uuid": "d040ee0e-c287-4aa8-8610-638bfe375942", "source": {"name": "Vernon", "slug": "vernon"}, "source_identifier": "111163", "external_references": [{"id": 34305, "source": {"name": "Wikidata", "slug": "wikidata"}, "source_identifier": "Q121160003"}], "date_modified": "2025-03-12T23:09:03.630192+11:00"}, {"id": 73421, "name": "Severed Heads", "roles_in_work": [{"id": 2676450, "title": "Severed Heads - All Saints Day", "work_id": 109875, "role": "performer", "role_id": 576, "is_primary": false}, {"id": 2635942, "title": "Severed Heads compilation. (Big Car. Hot with fleas. Canine)", "work_id": 108398, "role": "performer", "role_id": 576, "is_primary": false}, {"id": 2748674, "title": "Big Car", "work_id": 108397, "role": "performer", "role_id": 576, "is_primary": false}], "also_known_as": "", "date_of_birth": "", "date_of_death": "", "genders": [], "languages": [], "places_of_operation": [], "biography": "", "biography_author": null, "date_of_biography": "2023-05-09T18:24:54.140402+10:00", "external_links": [], "uuid": "0b4d74ba-b9c3-4cb4-a390-20cd6b616950", "source": {"name": "Vernon", "slug": "vernon"}, "source_identifier": "2511", "external_references": [], "date_modified": "2025-03-12T23:05:29.853712+11:00"}, {"id": 73420, "name": "Lev Manovich", "roles_in_work": [{"id": 2748660, "title": "(dis)LOCATIONs symposium", "work_id": 108390, "role": "speaker", "role_id": 486, "is_primary": false}], "also_known_as": "", "date_of_birth": "", "date_of_death": "", "genders": [], "languages": [], "places_of_operation": [], "biography": "", "biography_author": null, "date_of_biography": "2023-05-09T09:55:20.100172+10:00", "external_links": [], "uuid": "1df8ed5b-0b2b-410f-bb46-64720324e72e", "source": {"name": "Vernon", "slug": "vernon"}, "source_identifier": "111003", "external_references": [], "date_modified": "2025-03-12T23:05:09.206496+11:00"}, {"id": 73419, "name": "Ursula Frohne", "roles_in_work": [{"id": 2748659, "title": "(dis)LOCATIONs symposium", "work_id": 108390, "role": "speaker", "role_id": 486, "is_primary": false}], "also_known_as": "", "date_of_birth": "", "date_of_death": "", "genders": [], "languages": [], "places_of_operation": [], "biography": "", "biography_author": null, "date_of_biography": "2023-05-09T09:55:19.861207+10:00", "external_links": [], "uuid": "b5286cb3-d494-4b31-a9c1-73589f2c3435", "source": {"name": "Vernon", "slug": "vernon"}, "source_identifier": "111002", "external_references": [], "date_modified": "2025-03-12T23:05:06.585219+11:00"}, {"id": 73418, "name": "Susan Norrie", "roles_in_work": [{"id": 2748656, "title": "(dis)LOCATIONs symposium", "work_id": 108390, "role": "speaker", "role_id": 486, "is_primary": false}], "also_known_as": "", "date_of_birth": "1953", "date_of_death": "", "genders": [{"id": 5, "name": "Female", "slug": "female"}], "languages": [], "places_of_operation": [], "biography": "Susan Norrie has been working in painting, installation and still photography for more than twenty years.  Since the mid 1990s, she has explored natural and man-made disasters as a metaphor for humanity under crisis. Norrie has been the artist in residence at the University of Melbourne, and at ZKM, Karlsruhe, Germany.  Over the last two decades Norrie has exhibited in solo exhibitions worldwide and group shows at Sydney Biennale 1996 and 2004; Solomon R. Guggenheim Museum, New York; The National Museum of Contemporary Art, Seoul; Liverpool Biennial 2000; Kiasma, Helsinki; and the Hamburger Bahnof, Berlin.\n(SW 30.03.05)", "biography_author": null, "date_of_biography": "2025-03-12T23:05:04.778002+11:00", "external_links": [], "uuid": "b0614554-3e21-4a1f-8a8e-e09fdde734ba", "source": {"name": "Vernon", "slug": "vernon"}, "source_identifier": "111000", "external_references": [], "date_modified": "2025-03-12T23:05:04.778300+11:00"}]}