{"count": 28687, "next": "https://api.acmi.net.au/creators/?page=67", "previous": "https://api.acmi.net.au/creators/?page=65", "results": [{"id": 86610, "name": "Thea Flaum", "roles_in_work": [{"id": 2335590, "title": "The Canterville ghost", "work_id": 81835, "role": "co-producer", "role_id": 915, "is_primary": true}, {"id": 2137801, "title": "Christmas every day", "work_id": 79329, "role": "co-producer", "role_id": 915, "is_primary": true}], "also_known_as": "", "date_of_birth": "", "date_of_death": "", "genders": [], "languages": [], "places_of_operation": [], "biography": "", "biography_author": null, "date_of_biography": "2023-05-09T19:31:26.788988+10:00", "external_links": [], "uuid": "a39d96a9-c78a-4b24-8f92-b9a22d8eace1", "source": {"name": "Vernon", "slug": "vernon"}, "source_identifier": "29637", "external_references": [], "date_modified": "2023-06-14T16:33:30.576250+10:00"}, {"id": 86609, "name": "Stu Rosen", "roles_in_work": [{"id": 1845763, "title": "Hayley Mills Storybook", "work_id": 79922, "role": "co-director", "role_id": 959, "is_primary": true}, {"id": 1845577, "title": "Grimm's Fairy Tales", "work_id": 79204, "role": "co-director", "role_id": 959, "is_primary": true}], "also_known_as": "", "date_of_birth": null, "date_of_death": null, "genders": [], "languages": [], "places_of_operation": [], "biography": "", "biography_author": null, "date_of_biography": null, "external_links": [], "uuid": "ebcb23cd-7075-4774-80c6-060f2d67b94a", "source": {"name": "Vernon", "slug": "vernon"}, "source_identifier": null, "external_references": [], "date_modified": "2023-06-14T16:33:30.576250+10:00"}, {"id": 86608, "name": "Ray Markham", "roles_in_work": [{"id": 1845574, "title": "Grimm's Fairy Tales", "work_id": 79204, "role": "co-producer", "role_id": 915, "is_primary": true}], "also_known_as": "", "date_of_birth": null, "date_of_death": null, "genders": [], "languages": [], "places_of_operation": [], "biography": "", "biography_author": null, "date_of_biography": null, "external_links": [], "uuid": "85773741-82d5-448c-b4e5-cb9a15eb3bf3", "source": {"name": "Vernon", "slug": "vernon"}, "source_identifier": null, "external_references": [], "date_modified": "2023-06-14T16:33:30.576250+10:00"}, {"id": 86607, "name": "Leslie Floyd", "roles_in_work": [{"id": 1845573, "title": "Grimm's Fairy Tales", "work_id": 79204, "role": "co-producer", "role_id": 915, "is_primary": true}], "also_known_as": "", "date_of_birth": null, "date_of_death": null, "genders": [], "languages": [], "places_of_operation": [], "biography": "", "biography_author": null, "date_of_biography": null, "external_links": [], "uuid": "525dca30-2816-40e4-a277-3d685215a90b", "source": {"name": "Vernon", "slug": "vernon"}, "source_identifier": null, "external_references": [], "date_modified": "2023-06-14T16:33:30.576250+10:00"}, {"id": 86606, "name": "Geoffrey Drummond", "roles_in_work": [{"id": 2084040, "title": "Aesop's Fables/ the Animal Alphabet", "work_id": 79197, "role": "producer/director", "role_id": 31, "is_primary": true}], "also_known_as": "", "date_of_birth": "", "date_of_death": "", "genders": [], "languages": [], "places_of_operation": [], "biography": "", "biography_author": null, "date_of_biography": "2023-05-09T11:54:16.197065+10:00", "external_links": [], "uuid": "146e3c41-2595-4878-a0cf-2b0acfc48517", "source": {"name": "Vernon", "slug": "vernon"}, "source_identifier": "19528", "external_references": [], "date_modified": "2023-06-14T16:33:30.576250+10:00"}, {"id": 86605, "name": "Romeo Muller", "roles_in_work": [{"id": 2233174, "title": "Puff the Magic Dragon", "work_id": 78638, "role": "co-producer", "role_id": 915, "is_primary": true}], "also_known_as": "", "date_of_birth": "", "date_of_death": "", "genders": [], "languages": [], "places_of_operation": [], "biography": "", "biography_author": null, "date_of_biography": "2023-05-09T16:41:33.349192+10:00", "external_links": [], "uuid": "002845c2-be0c-40a2-9caa-55a7eccb2241", "source": {"name": "Vernon", "slug": "vernon"}, "source_identifier": "28120", "external_references": [], "date_modified": "2023-06-14T16:33:30.576250+10:00"}, {"id": 86604, "name": "Peter Yarrow", "roles_in_work": [{"id": 2233171, "title": "Puff the Magic Dragon", "work_id": 78638, "role": "co-producer", "role_id": 915, "is_primary": true}], "also_known_as": "", "date_of_birth": "", "date_of_death": "", "genders": [], "languages": [], "places_of_operation": [], "biography": "", "biography_author": null, "date_of_biography": "2023-05-09T16:41:33.085836+10:00", "external_links": [], "uuid": "293fba05-f132-4ff1-bec7-dfff0cf2fb3b", "source": {"name": "Vernon", "slug": "vernon"}, "source_identifier": "26761", "external_references": [], "date_modified": "2023-06-14T16:33:30.576250+10:00"}, {"id": 86603, "name": "Kay Battista", "roles_in_work": [{"id": 2143039, "title": "Conditioning the Athlete to Prevent Sport Injuries", "work_id": 77902, "role": "producer/director", "role_id": 31, "is_primary": true}], "also_known_as": "", "date_of_birth": "", "date_of_death": "", "genders": [], "languages": [], "places_of_operation": [], "biography": "", "biography_author": null, "date_of_biography": "2023-05-09T13:41:27.709294+10:00", "external_links": [], "uuid": "fcbfccee-c13d-46e0-907f-ea58d3fa9604", "source": {"name": "Vernon", "slug": "vernon"}, "source_identifier": "23102", "external_references": [], "date_modified": "2023-06-14T16:33:30.576250+10:00"}, {"id": 86602, "name": "ThinFrog Frog", "roles_in_work": [{"id": 2728501, "title": "Frog Army!", "work_id": 120405, "role": "creator", "role_id": 968, "is_primary": true}], "also_known_as": "", "date_of_birth": "", "date_of_death": "", "genders": [], "languages": [], "places_of_operation": [], "biography": "", "biography_author": null, "date_of_biography": "2023-08-16T04:08:50.192303+10:00", "external_links": [], "uuid": "430c204e-f29b-4cc9-b794-ed1422e6c864", "source": {"name": "Vernon", "slug": "vernon"}, "source_identifier": "40428", "external_references": [], "date_modified": "2025-03-12T08:38:15.018908+11:00"}, {"id": 86601, "name": "Kirsten Vinck", "roles_in_work": [{"id": 3107731, "title": "Cyberthon V: Spectrum 3 - Yellow", "work_id": 118005, "role": "floor manager", "role_id": 1077, "is_primary": false}, {"id": 3107759, "title": "Cyberthon V: Spectrum 4 - Green", "work_id": 117985, "role": "floor manager", "role_id": 1077, "is_primary": false}], "also_known_as": "", "date_of_birth": "", "date_of_death": "", "genders": [], "languages": [], "places_of_operation": [], "biography": "", "biography_author": null, "date_of_biography": "2023-08-30T03:37:10.496486+10:00", "external_links": [], "uuid": "e259394e-94d1-47bc-8916-316a6b1486b3", "source": {"name": "Vernon", "slug": "vernon"}, "source_identifier": "40180", "external_references": [], "date_modified": "2025-09-08T09:25:04.149652+10:00"}]}