{"count": 28687, "next": "https://api.acmi.net.au/creators/?page=2704", "previous": "https://api.acmi.net.au/creators/?page=2702", "results": [{"id": 11410, "name": "Tamara Meem", "roles_in_work": [{"id": 2639903, "title": "The First thing I remember", "work_id": 110555, "role": "director", "role_id": 938, "is_primary": true}, {"id": 2639904, "title": "The First thing I remember", "work_id": 110555, "role": "animator", "role_id": 497, "is_primary": false}], "also_known_as": "", "date_of_birth": null, "date_of_death": null, "genders": [], "languages": [], "places_of_operation": [], "biography": "", "biography_author": null, "date_of_biography": null, "external_links": [], "uuid": "3cd23a20-ac97-41d2-a0c5-b1fdaca58d55", "source": {"name": "Vernon", "slug": "vernon"}, "source_identifier": "3181", "external_references": [], "date_modified": "2025-03-05T11:24:41.210960+11:00"}, {"id": 11409, "name": "Samantha Rebillet", "roles_in_work": [{"id": 2639924, "title": "Butterfly man", "work_id": 110554, "role": "director", "role_id": 938, "is_primary": true}, {"id": 2639925, "title": "Butterfly man", "work_id": 110554, "role": "writer", "role_id": 939, "is_primary": true}], "also_known_as": "", "date_of_birth": "1972-01-08", "date_of_death": "2017-11-27", "genders": [{"id": 5, "name": "Female", "slug": "female"}], "languages": [{"id": 4, "name": "French", "slug": "french"}], "places_of_operation": [{"id": 17, "name": "France", "slug": "france"}], "biography": "Samantha Rebillet (8 January 1972 – 27 November 2017) was a French-born Australian film director, actress, screenwriter, producer, singer and songwriter. \nShe had guest roles in various Australian television series and roles in several films. Rebillet wrote, directed and produced several films and documentaries including the 2004 documentary Butterfly Man which won a Silver Cub Award at the International Documentary Film Festival in Amsterdam.", "biography_author": "Wikidata", "date_of_biography": "2023-08-01T16:59:06.802970+10:00", "external_links": [{"id": 5114, "uri": "https://en.wikipedia.org/wiki/Samantha_Rebillet"}], "uuid": "de45f163-32fe-4938-99af-de1e67f64a63", "source": {"name": "Vernon", "slug": "vernon"}, "source_identifier": "3189", "external_references": [{"id": 26668, "source": {"name": "Wikidata", "slug": "wikidata"}, "source_identifier": "Q16214144"}], "date_modified": "2025-03-05T11:24:55.210837+11:00"}, {"id": 11408, "name": "Stuart Parkyn", "roles_in_work": [{"id": 2639930, "title": "The Saviour", "work_id": 110552, "role": "producer", "role_id": 1089, "is_primary": true}, {"id": 2639920, "title": "Splintered", "work_id": 110558, "role": "producer", "role_id": 1089, "is_primary": true}, {"id": 2639913, "title": "The Instructional guide to dating", "work_id": 110556, "role": "producer", "role_id": 1089, "is_primary": true}], "also_known_as": "", "date_of_birth": null, "date_of_death": null, "genders": [{"id": 9, "name": "Male", "slug": "male"}], "languages": [], "places_of_operation": [], "biography": "", "biography_author": null, "date_of_biography": null, "external_links": [], "uuid": "bfcc0312-5d0e-44ab-bb50-ce80299dfb00", "source": {"name": "Vernon", "slug": "vernon"}, "source_identifier": "3184", "external_references": [{"id": 32523, "source": {"name": "Wikidata", "slug": "wikidata"}, "source_identifier": "Q22115141"}], "date_modified": "2025-03-05T11:24:58.357818+11:00"}, {"id": 11407, "name": "Peter Templeman", "roles_in_work": [{"id": 2639919, "title": "Splintered", "work_id": 110558, "role": "director", "role_id": 938, "is_primary": true}, {"id": 2639928, "title": "The Saviour", "work_id": 110552, "role": "director", "role_id": 938, "is_primary": true}, {"id": 2639915, "title": "Milk men: can we deliver?", "work_id": 110559, "role": "director", "role_id": 938, "is_primary": true}, {"id": 2639916, "title": "Milk men: can we deliver?", "work_id": 110559, "role": "writer", "role_id": 939, "is_primary": true}, {"id": 2639929, "title": "The Saviour", "work_id": 110552, "role": "writer", "role_id": 939, "is_primary": true}], "also_known_as": "", "date_of_birth": null, "date_of_death": null, "genders": [{"id": 9, "name": "Male", "slug": "male"}], "languages": [], "places_of_operation": [], "biography": "", "biography_author": null, "date_of_biography": null, "external_links": [], "uuid": "55f06eb3-65f2-4b85-ab6f-054cd8ef098a", "source": {"name": "Vernon", "slug": "vernon"}, "source_identifier": "3187", "external_references": [{"id": 40306, "source": {"name": "Wikidata", "slug": "wikidata"}, "source_identifier": "Q22323661"}], "date_modified": "2025-03-05T11:24:57.781778+11:00"}, {"id": 11405, "name": "Catherine Green", "roles_in_work": [{"id": 2640904, "title": "Artist: unknown", "work_id": 110549, "role": "creator", "role_id": 968, "is_primary": true}], "also_known_as": "", "date_of_birth": "", "date_of_death": "", "genders": [], "languages": [], "places_of_operation": [], "biography": "", "biography_author": null, "date_of_biography": "2023-08-11T14:14:17.448954+10:00", "external_links": [], "uuid": "8556c443-9261-4038-81be-92063bc60161", "source": {"name": "Vernon", "slug": "vernon"}, "source_identifier": "3179", "external_references": [], "date_modified": "2025-03-05T11:31:08.191763+11:00"}, {"id": 11404, "name": "Kristina Matovic", "roles_in_work": [{"id": 2638888, "title": "Repeat", "work_id": 110547, "role": "creator", "role_id": 968, "is_primary": true}], "also_known_as": "", "date_of_birth": null, "date_of_death": null, "genders": [], "languages": [], "places_of_operation": [], "biography": "", "biography_author": null, "date_of_biography": null, "external_links": [], "uuid": "5e4872f7-7b92-45d4-959c-725cf391a4de", "source": {"name": "Vernon", "slug": "vernon"}, "source_identifier": "3225", "external_references": [], "date_modified": "2025-03-05T11:11:34.558514+11:00"}, {"id": 11403, "name": "Brendan McKnight", "roles_in_work": [{"id": 2638871, "title": "Not just me", "work_id": 110546, "role": "creator", "role_id": 968, "is_primary": true}, {"id": 2638833, "title": "Exquisite video", "work_id": 110756, "role": "creator", "role_id": 968, "is_primary": true}], "also_known_as": "", "date_of_birth": null, "date_of_death": null, "genders": [], "languages": [], "places_of_operation": [], "biography": "", "biography_author": null, "date_of_biography": null, "external_links": [], "uuid": "0a420f5e-cc2c-48fc-9a6b-f644dea9c1db", "source": {"name": "Vernon", "slug": "vernon"}, "source_identifier": "3224", "external_references": [], "date_modified": "2025-03-05T11:11:28.467849+11:00"}, {"id": 11402, "name": "Travis Siniuk", "roles_in_work": [{"id": 2638841, "title": "Hotel", "work_id": 110544, "role": "creator", "role_id": 968, "is_primary": true}], "also_known_as": "", "date_of_birth": null, "date_of_death": null, "genders": [], "languages": [], "places_of_operation": [], "biography": "", "biography_author": null, "date_of_biography": null, "external_links": [], "uuid": "498896cf-3c28-4e13-88e3-6f9f37150812", "source": {"name": "Vernon", "slug": "vernon"}, "source_identifier": "3223", "external_references": [], "date_modified": "2025-03-05T11:11:17.370893+11:00"}, {"id": 11401, "name": "Andrew Pocock", "roles_in_work": [{"id": 2638836, "title": "Goats Gruff: Majesty and the monstroid", "work_id": 110542, "role": "creator", "role_id": 968, "is_primary": true}], "also_known_as": "", "date_of_birth": null, "date_of_death": null, "genders": [], "languages": [], "places_of_operation": [], "biography": "", "biography_author": null, "date_of_biography": null, "external_links": [], "uuid": "f9a4f3ef-4df2-470e-9a30-fd6724900ca6", "source": {"name": "Vernon", "slug": "vernon"}, "source_identifier": "3222", "external_references": [], "date_modified": "2025-03-05T11:11:15.957712+11:00"}, {"id": 11399, "name": "Wade Johnston", "roles_in_work": [{"id": 2640899, "title": "No Sweat ID", "work_id": 110541, "role": "creator", "role_id": 968, "is_primary": true}], "also_known_as": "", "date_of_birth": "", "date_of_death": "", "genders": [], "languages": [], "places_of_operation": [], "biography": "", "biography_author": null, "date_of_biography": "2023-05-09T14:27:15.423764+10:00", "external_links": [], "uuid": "628ba300-9e00-4180-b2b4-dd43232987fa", "source": {"name": "Vernon", "slug": "vernon"}, "source_identifier": "3177", "external_references": [], "date_modified": "2025-03-05T11:31:06.163509+11:00"}]}