{"count": 28687, "next": "https://api.acmi.net.au/creators/?page=1723", "previous": "https://api.acmi.net.au/creators/?page=1721", "results": [{"id": 28150, "name": "Joe Camp", "roles_in_work": [{"id": 2112870, "title": "Benji the hunted", "work_id": 86096, "role": "director", "role_id": 938, "is_primary": true}, {"id": 2615874, "title": "For the love of Benji", "work_id": 86303, "role": "director", "role_id": 938, "is_primary": true}, {"id": 2615787, "title": "Benji", "work_id": 86101, "role": "producer/director", "role_id": 31, "is_primary": true}, {"id": 2615790, "title": "Benji's very own Christmas story", "work_id": 86102, "role": "producer/director", "role_id": 31, "is_primary": true}], "also_known_as": "", "date_of_birth": "20 APR 1939", "date_of_death": "", "genders": [{"id": 9, "name": "Male", "slug": "male"}], "languages": [], "places_of_operation": [{"id": 1, "name": "United States of America", "slug": "united-states-of-america"}], "biography": "Joseph S. Camp Jr. (born April 20, 1939) is a motion picture director and writer who is best known as the creator and director of the Benji films, as well as Hawmps! and The Double McGuffin.Camp resides in Bell Buckle, Tennessee, with his wife Kathleen. They previously owned property in Valley Center, California.Camp is also known for his work with horses. He owns, and has trained, five horses who lived with him at his Valley Center Ranch. He has written a book about his experiences with horses, The Soul of a Horse.His autobiography, Underdog: How One Man Turned Hollywood Rejection into the Worldwide Phenomenon of Benji (published 1993) —republished as Benji and Me  in 2000—covers more than just his experience making \"Dog\" movies.\n\nJoe Camp is also the author of The Soul of a Horse: Life Lessons from the Herd, a 2008 book that tells his story of discovery after he and his wife bought their first horses.\n\nHe owns a production company, Mulberry Square Productions, and had a minority interest in the film studio, Filmdallas Pictures. Source: Wikidata; 01/08/2023", "biography_author": null, "date_of_biography": "2025-02-26T20:31:00.798620+11:00", "external_links": [{"id": 4350, "uri": "https://en.wikipedia.org/wiki/Joe_Camp"}], "uuid": "0d07b93b-fff4-4207-bbfb-8858ef46a0ba", "source": {"name": "Vernon", "slug": "vernon"}, "source_identifier": "22028", "external_references": [{"id": 26200, "source": {"name": "Wikidata", "slug": "wikidata"}, "source_identifier": "Q1982336"}, {"id": 29433, "source": {"name": "VIAF", "slug": "viaf"}, "source_identifier": "39582837"}, {"id": 29434, "source": {"name": "LOC Auth", "slug": "loc-auth"}, "source_identifier": "n79019284"}, {"id": 29435, "source": {"name": "WorldCat", "slug": "worldcat"}, "source_identifier": "lccn-n79019284"}], "date_modified": "2025-02-26T20:31:00.798945+11:00"}, {"id": 28149, "name": "Ben Vaughn", "roles_in_work": [{"id": 2615873, "title": "For the love of Benji", "work_id": 86303, "role": "producer", "role_id": 1089, "is_primary": true}, {"id": 2112866, "title": "Benji the hunted", "work_id": 86096, "role": "producer", "role_id": 1089, "is_primary": true}], "also_known_as": "", "date_of_birth": null, "date_of_death": "", "genders": [{"id": 9, "name": "Male", "slug": "male"}], "languages": [], "places_of_operation": [{"id": 1, "name": "United States of America", "slug": "united-states-of-america"}], "biography": "Ben Vaughn (born 1955 or 1956) is an American singer, songwriter, musician, record producer, composer for television and film, and a syndicated radio show host. Source: Wikidata; 01/08/2023", "biography_author": null, "date_of_biography": "2025-02-26T20:31:00.187570+11:00", "external_links": [{"id": 3631, "uri": "https://en.wikipedia.org/wiki/Ben_Vaughn"}], "uuid": "e27da1f7-e9cd-430a-9b69-d7864e95ef46", "source": {"name": "Vernon", "slug": "vernon"}, "source_identifier": "15809", "external_references": [{"id": 26133, "source": {"name": "Wikidata", "slug": "wikidata"}, "source_identifier": "Q678922"}, {"id": 27464, "source": {"name": "VIAF", "slug": "viaf"}, "source_identifier": "17434660"}, {"id": 27465, "source": {"name": "LOC Auth", "slug": "loc-auth"}, "source_identifier": "no98016114"}, {"id": 27466, "source": {"name": "WorldCat", "slug": "worldcat"}, "source_identifier": "lccn-no98016114"}], "date_modified": "2025-02-26T20:31:00.187804+11:00"}, {"id": 28148, "name": "Embark", "roles_in_work": [{"id": 2112864, "title": "Benji the hunted", "work_id": 86096, "role": "production company", "role_id": 941, "is_primary": true}], "also_known_as": "", "date_of_birth": "", "date_of_death": "", "genders": [], "languages": [], "places_of_operation": [], "biography": "", "biography_author": null, "date_of_biography": "2023-05-09T12:50:13.428805+10:00", "external_links": [], "uuid": "188de563-01bf-46cd-a4ba-25de64f4fd69", "source": {"name": "Vernon", "slug": "vernon"}, "source_identifier": "7868", "external_references": [{"id": 40718, "source": {"name": "Wikidata", "slug": "wikidata"}, "source_identifier": "Q121298963"}], "date_modified": "2023-09-05T19:31:27.516109+10:00"}, {"id": 28142, "name": "Tribal", "roles_in_work": [{"id": 3084554, "title": "The Many faces of epilepsy", "work_id": 93442, "role": "production company", "role_id": 941, "is_primary": true}, {"id": 3084528, "title": "Alzheimer's disease and other dementias: Diagnosis = Speaking from experience", "work_id": 91473, "role": "production company", "role_id": 941, "is_primary": true}, {"id": 3084550, "title": "Epilepsy in childhood", "work_id": 93438, "role": "production company", "role_id": 941, "is_primary": true}], "also_known_as": "", "date_of_birth": "", "date_of_death": "", "genders": [], "languages": [], "places_of_operation": [], "biography": "", "biography_author": null, "date_of_biography": "2023-08-11T13:47:31.935192+10:00", "external_links": [], "uuid": "1473369a-ec24-42ec-8af7-a3d1dce22e3e", "source": {"name": "Vernon", "slug": "vernon"}, "source_identifier": "13703", "external_references": [], "date_modified": "2025-03-17T10:36:59.247033+11:00"}, {"id": 28126, "name": "Nigel Farrell", "roles_in_work": [{"id": 2136180, "title": "Chelsea flower show '98", "work_id": 87082, "role": "producer", "role_id": 1089, "is_primary": true}, {"id": 1807445, "title": "Treasures of the Trust", "work_id": 86079, "role": "producer", "role_id": 1089, "is_primary": true}, {"id": 2125171, "title": "Brilliant gardens", "work_id": 87083, "role": "producer", "role_id": 1089, "is_primary": true}, {"id": 795108, "title": "The Perfect English village", "work_id": 87101, "role": "producer/director", "role_id": 31, "is_primary": true}], "also_known_as": "", "date_of_birth": "", "date_of_death": "", "genders": [], "languages": [], "places_of_operation": [], "biography": "", "biography_author": null, "date_of_biography": "2023-05-09T13:29:59.163882+10:00", "external_links": [], "uuid": "43f9324a-2f9c-49e4-8933-ff28cacb6c4d", "source": {"name": "Vernon", "slug": "vernon"}, "source_identifier": "25808", "external_references": [{"id": 35706, "source": {"name": "Wikidata", "slug": "wikidata"}, "source_identifier": "Q121143758"}], "date_modified": "2023-09-05T23:31:24.110699+10:00"}, {"id": 28125, "name": "Tadpole Lane", "roles_in_work": [{"id": 2125161, "title": "Brilliant gardens", "work_id": 87083, "role": "production company", "role_id": 941, "is_primary": true}, {"id": 871531, "title": "Treasure gardens with Alan Titchmarsh", "work_id": 87095, "role": "production company", "role_id": 941, "is_primary": true}, {"id": 791960, "title": "Treasures of the Trust", "work_id": 86079, "role": "production company", "role_id": 941, "is_primary": true}], "also_known_as": "", "date_of_birth": "", "date_of_death": "", "genders": [], "languages": [], "places_of_operation": [], "biography": "", "biography_author": null, "date_of_biography": "2023-05-09T13:09:57.017717+10:00", "external_links": [], "uuid": "b9b42112-21eb-4377-9825-a55c2b10d1ec", "source": {"name": "Vernon", "slug": "vernon"}, "source_identifier": "13136", "external_references": [{"id": 33516, "source": {"name": "Wikidata", "slug": "wikidata"}, "source_identifier": "Q121299266"}], "date_modified": "2023-09-06T01:40:07.661307+10:00"}, {"id": 28124, "name": "Jan Sverak", "roles_in_work": [{"id": 2496418, "title": "Kolya", "work_id": 86078, "role": "director", "role_id": 938, "is_primary": true}, {"id": 1992350, "title": "The Elementary school = Obecna skola", "work_id": 87958, "role": "director", "role_id": 938, "is_primary": true}, {"id": 2496417, "title": "Kolya", "work_id": 86078, "role": "co-producer", "role_id": 915, "is_primary": true}], "also_known_as": "", "date_of_birth": "1965-02-06", "date_of_death": null, "genders": [{"id": 9, "name": "Male", "slug": "male"}], "languages": [{"id": 20, "name": "Czech", "slug": "czech"}], "places_of_operation": [{"id": 49, "name": "Czech Republic", "slug": "czech-republic"}], "biography": "Jan Svěrák (Czech pronunciation: [ˈjan ˈsvjɛraːk]) (born 6 February 1965 in Žatec) is a Czech film director. He is the son of screenwriter and actor Zdeněk Svěrák. He studied documentary filmmaking at the FAMU. He and his films have received awards including the Academy Award, Crystal Globe, Golden Globe Award, and Tokyo Grand Prix.\nHe lives in Prague.", "biography_author": "Wikidata", "date_of_biography": "2022-05-19T11:53:38.765129+10:00", "external_links": [{"id": 1733, "uri": "https://en.wikipedia.org/wiki/Jan_Sv%C4%9Br%C3%A1k"}], "uuid": "12b8211c-5c7d-465a-b226-8534f665c78a", "source": {"name": "Vernon", "slug": "vernon"}, "source_identifier": "21399", "external_references": [{"id": 9986, "source": {"name": "Wikidata", "slug": "wikidata"}, "source_identifier": "Q504463"}, {"id": 9987, "source": {"name": "VIAF", "slug": "viaf"}, "source_identifier": "79462138"}, {"id": 9988, "source": {"name": "LOC Auth", "slug": "loc-auth"}, "source_identifier": "no98021352"}, {"id": 9989, "source": {"name": "WorldCat", "slug": "worldcat"}, "source_identifier": "lccn-no98021352"}], "date_modified": "2023-09-06T08:54:47.366174+10:00"}, {"id": 28123, "name": "Pandora Cinema", "roles_in_work": [{"id": 2496415, "title": "Kolya", "work_id": 86078, "role": "production company", "role_id": 941, "is_primary": true}, {"id": 2321973, "title": "Tango", "work_id": 94234, "role": "production company", "role_id": 941, "is_primary": true}, {"id": 2199024, "title": "Donnie Darko [DVD]", "work_id": 94430, "role": "production company", "role_id": 941, "is_primary": true}], "also_known_as": "", "date_of_birth": "", "date_of_death": "", "genders": [], "languages": [], "places_of_operation": [], "biography": "", "biography_author": null, "date_of_biography": "2023-05-09T19:13:27.904471+10:00", "external_links": [], "uuid": "d0998c71-f590-4720-a3b9-aa0adcb792f1", "source": {"name": "Vernon", "slug": "vernon"}, "source_identifier": "11261", "external_references": [], "date_modified": "2023-09-06T08:52:51.996090+10:00"}, {"id": 28122, "name": "Ceska televize", "roles_in_work": [{"id": 2496414, "title": "Kolya", "work_id": 86078, "role": "production company", "role_id": 941, "is_primary": true}], "also_known_as": "", "date_of_birth": null, "date_of_death": null, "genders": [], "languages": [], "places_of_operation": [], "biography": "", "biography_author": null, "date_of_biography": null, "external_links": [], "uuid": "53b53184-2742-4360-a6f1-8111c37fa206", "source": {"name": "Vernon", "slug": "vernon"}, "source_identifier": "6475", "external_references": [], "date_modified": "2023-09-06T08:52:51.339893+10:00"}, {"id": 28121, "name": "Biograf Jan Sverak", "roles_in_work": [{"id": 2496412, "title": "Kolya", "work_id": 86078, "role": "production company", "role_id": 941, "is_primary": true}], "also_known_as": "", "date_of_birth": "1965-02-06", "date_of_death": null, "genders": [{"id": 9, "name": "Male", "slug": "male"}], "languages": [{"id": 20, "name": "Czech", "slug": "czech"}], "places_of_operation": [{"id": 49, "name": "Czech Republic", "slug": "czech-republic"}], "biography": "Jan Svěrák (Czech pronunciation: [ˈjan ˈsvjɛraːk]) (born 6 February 1965 in Žatec) is a Czech film director. He is the son of screenwriter and actor Zdeněk Svěrák. He studied documentary filmmaking at the FAMU. He and his films have received awards including the Academy Award, Crystal Globe, Golden Globe Award, and Tokyo Grand Prix.\nHe lives in Prague.", "biography_author": "Wikidata", "date_of_biography": "2022-05-19T10:57:36.631364+10:00", "external_links": [{"id": 1733, "uri": "https://en.wikipedia.org/wiki/Jan_Sv%C4%9Br%C3%A1k"}], "uuid": "69e60cc1-0a33-4d88-80d4-f3db4631079d", "source": {"name": "Vernon", "slug": "vernon"}, "source_identifier": "5868", "external_references": [{"id": 7559, "source": {"name": "Wikidata", "slug": "wikidata"}, "source_identifier": "Q504463"}, {"id": 7560, "source": {"name": "VIAF", "slug": "viaf"}, "source_identifier": "79462138"}, {"id": 7561, "source": {"name": "LOC Auth", "slug": "loc-auth"}, "source_identifier": "no98021352"}, {"id": 7562, "source": {"name": "WorldCat", "slug": "worldcat"}, "source_identifier": "lccn-no98021352"}], "date_modified": "2023-09-13T12:28:29.902898+10:00"}]}