{"count": 28687, "next": "https://api.acmi.net.au/creators/?page=1499", "previous": "https://api.acmi.net.au/creators/?page=1497", "results": [{"id": 34172, "name": "Monogram Pictures Corporation", "roles_in_work": [{"id": 2267406, "title": "The Terror. Ghosts on the loose", "work_id": 92745, "role": "production company", "role_id": 941, "is_primary": true}, {"id": 1996228, "title": "The Invisible ghost", "work_id": 92544, "role": "production company", "role_id": 941, "is_primary": true}], "also_known_as": "", "date_of_birth": "1930", "date_of_death": "1953", "genders": [], "languages": [], "places_of_operation": [], "biography": "", "biography_author": null, "date_of_biography": "2023-05-09T17:39:47.514626+10:00", "external_links": [], "uuid": "f9f9819e-8807-4fe4-ab23-5ff01aac14c6", "source": {"name": "Vernon", "slug": "vernon"}, "source_identifier": "4889", "external_references": [{"id": 37824, "source": {"name": "Wikidata", "slug": "wikidata"}, "source_identifier": "Q121298695"}], "date_modified": "2023-09-05T23:20:28.302411+10:00"}, {"id": 34170, "name": "Frank Rocco", "roles_in_work": [{"id": 2247107, "title": "Red boots for Christmas", "work_id": 92541, "role": "director", "role_id": 938, "is_primary": true}], "also_known_as": "", "date_of_birth": "", "date_of_death": "", "genders": [], "languages": [], "places_of_operation": [], "biography": "", "biography_author": null, "date_of_biography": "2023-05-09T17:04:55.574721+10:00", "external_links": [], "uuid": "a900b82e-4b53-49a4-9f68-07bce3c7eba5", "source": {"name": "Vernon", "slug": "vernon"}, "source_identifier": "19165", "external_references": [], "date_modified": "2023-06-14T16:33:30.576250+10:00"}, {"id": 34169, "name": "Envoy Productions", "roles_in_work": [{"id": 2247102, "title": "Red boots for Christmas", "work_id": 92541, "role": "production company", "role_id": 941, "is_primary": true}], "also_known_as": "", "date_of_birth": "", "date_of_death": "", "genders": [], "languages": [], "places_of_operation": [], "biography": "", "biography_author": null, "date_of_biography": "2023-05-09T17:04:55.094737+10:00", "external_links": [], "uuid": "ee145ef0-e29b-460f-b1d3-316f041e1069", "source": {"name": "Vernon", "slug": "vernon"}, "source_identifier": "7919", "external_references": [], "date_modified": "2023-06-14T16:33:30.576250+10:00"}, {"id": 34168, "name": "Blooming Productions", "roles_in_work": [{"id": 2238467, "title": "Father Christmas", "work_id": 92540, "role": "production company", "role_id": 941, "is_primary": true}], "also_known_as": "", "date_of_birth": "", "date_of_death": "", "genders": [], "languages": [], "places_of_operation": [], "biography": "", "biography_author": null, "date_of_biography": "2023-05-09T16:49:36.934592+10:00", "external_links": [], "uuid": "8f3d792d-7da8-4bf4-b698-8755d4b54d99", "source": {"name": "Vernon", "slug": "vernon"}, "source_identifier": "5899", "external_references": [{"id": 37422, "source": {"name": "Wikidata", "slug": "wikidata"}, "source_identifier": "Q121034568"}], "date_modified": "2023-09-05T18:06:47.073036+10:00"}, {"id": 34166, "name": "Golezsowski", "roles_in_work": [{"id": 2250849, "title": "Robbie the reindeer in hooves of fire", "work_id": 92538, "role": "director", "role_id": 938, "is_primary": true}], "also_known_as": "", "date_of_birth": "", "date_of_death": "", "genders": [], "languages": [], "places_of_operation": [], "biography": "", "biography_author": null, "date_of_biography": "2023-05-09T17:10:44.168352+10:00", "external_links": [], "uuid": "693cf1bc-2a69-480b-8b4f-23723cb147a2", "source": {"name": "Vernon", "slug": "vernon"}, "source_identifier": "8799", "external_references": [], "date_modified": "2023-06-14T16:33:30.576250+10:00"}, {"id": 34165, "name": "Jacqueline White", "roles_in_work": [{"id": 2250846, "title": "Robbie the reindeer in hooves of fire", "work_id": 92538, "role": "producer", "role_id": 1089, "is_primary": true}], "also_known_as": "", "date_of_birth": "", "date_of_death": "", "genders": [], "languages": [], "places_of_operation": [], "biography": "", "biography_author": null, "date_of_biography": "2023-05-09T17:10:43.936235+10:00", "external_links": [], "uuid": "8bcabb1e-9f62-41f0-b49d-477e01cb41e7", "source": {"name": "Vernon", "slug": "vernon"}, "source_identifier": "21133", "external_references": [], "date_modified": "2023-06-14T16:33:30.576250+10:00"}, {"id": 34164, "name": "Comic Relief", "roles_in_work": [{"id": 2141950, "title": "Comic relief", "work_id": 94703, "role": "production company", "role_id": 941, "is_primary": true}, {"id": 2250844, "title": "Robbie the reindeer in hooves of fire", "work_id": 92538, "role": "production company", "role_id": 941, "is_primary": true}], "also_known_as": "", "date_of_birth": "", "date_of_death": "", "genders": [], "languages": [], "places_of_operation": [], "biography": "", "biography_author": null, "date_of_biography": "2023-05-09T17:10:43.704594+10:00", "external_links": [], "uuid": "68ae5c7b-27cf-4745-9951-77fd5951560f", "source": {"name": "Vernon", "slug": "vernon"}, "source_identifier": "6926", "external_references": [{"id": 34769, "source": {"name": "Wikidata", "slug": "wikidata"}, "source_identifier": "Q121143615"}], "date_modified": "2023-09-05T18:44:25.107714+10:00"}, {"id": 34159, "name": "Lin Oliver", "roles_in_work": [{"id": 2291774, "title": "The Trumpet of the swan", "work_id": 92532, "role": "producer", "role_id": 1089, "is_primary": true}], "also_known_as": "", "date_of_birth": "", "date_of_death": "", "genders": [{"id": 5, "name": "Female", "slug": "female"}], "languages": [], "places_of_operation": [], "biography": "", "biography_author": null, "date_of_biography": "2023-05-09T18:20:38.458696+10:00", "external_links": [], "uuid": "8fd0e984-5d57-4235-be51-280fdaac1863", "source": {"name": "Vernon", "slug": "vernon"}, "source_identifier": "23850", "external_references": [{"id": 34455, "source": {"name": "Wikidata", "slug": "wikidata"}, "source_identifier": "Q121079561"}], "date_modified": "2023-06-14T16:33:30.576250+10:00"}, {"id": 34158, "name": "Tiny Tot Productions", "roles_in_work": [{"id": 2291769, "title": "The Trumpet of the swan", "work_id": 92532, "role": "production company", "role_id": 941, "is_primary": true}], "also_known_as": "", "date_of_birth": "", "date_of_death": "", "genders": [], "languages": [], "places_of_operation": [], "biography": "", "biography_author": null, "date_of_biography": "2023-05-09T18:20:38.214878+10:00", "external_links": [], "uuid": "03c4efb6-9612-488c-8421-b536d7cb6908", "source": {"name": "Vernon", "slug": "vernon"}, "source_identifier": "13542", "external_references": [{"id": 36443, "source": {"name": "Wikidata", "slug": "wikidata"}, "source_identifier": "Q121034875"}], "date_modified": "2023-09-06T01:51:56.927689+10:00"}, {"id": 34157, "name": "Lilyfield Productions", "roles_in_work": [{"id": 3082217, "title": "Falling cats", "work_id": 92531, "role": "production company", "role_id": 941, "is_primary": true}], "also_known_as": "", "date_of_birth": "", "date_of_death": "", "genders": [], "languages": [], "places_of_operation": [], "biography": "", "biography_author": null, "date_of_biography": "2023-08-11T14:13:26.363240+10:00", "external_links": [], "uuid": "41550694-6b93-4af9-b642-4fbaf35cf04a", "source": {"name": "Vernon", "slug": "vernon"}, "source_identifier": "10065", "external_references": [], "date_modified": "2025-03-17T10:27:58.574024+11:00"}]}