{"count": 28681, "next": "https://api.acmi.net.au/creators/?page=2620", "previous": "https://api.acmi.net.au/creators/?page=2618", "results": [{"id": 12414, "name": "Archaelogical Institute of America", "roles_in_work": [{"id": 2677209, "title": "The Ancient world: Egypt", "work_id": 64752, "role": "production company", "role_id": 941, "is_primary": true}], "also_known_as": "", "date_of_birth": "", "date_of_death": "", "genders": [], "languages": [], "places_of_operation": [], "biography": "", "biography_author": null, "date_of_biography": "2023-08-14T11:00:59.330594+10:00", "external_links": [], "uuid": "306d654d-bc3d-408a-80dc-7332b186b95f", "source": {"name": "Vernon", "slug": "vernon"}, "source_identifier": "5341", "external_references": [], "date_modified": "2025-03-06T23:15:36.370685+11:00"}, {"id": 12413, "name": "James Sage", "roles_in_work": [{"id": 854142, "title": "Korochan: the little bear", "work_id": 69450, "role": "director", "role_id": 938, "is_primary": true}, {"id": 2643988, "title": "The Ancient Peruvian", "work_id": 64750, "role": "director", "role_id": 938, "is_primary": true}], "also_known_as": "", "date_of_birth": null, "date_of_death": null, "genders": [], "languages": [], "places_of_operation": [], "biography": "", "biography_author": null, "date_of_biography": null, "external_links": [], "uuid": "bf68a535-0dc9-485e-bd24-96791a22dd53", "source": {"name": "Vernon", "slug": "vernon"}, "source_identifier": "21320", "external_references": [], "date_modified": "2025-03-05T12:08:54.355025+11:00"}, {"id": 12412, "name": "Film edizioni scienza e technia", "roles_in_work": [{"id": 2677206, "title": "Ancient Paestum : city of the Greeks and Romans", "work_id": 64748, "role": "production company", "role_id": 941, "is_primary": true}], "also_known_as": "", "date_of_birth": "", "date_of_death": "", "genders": [], "languages": [], "places_of_operation": [], "biography": "", "biography_author": null, "date_of_biography": "2023-08-11T14:05:18.754048+10:00", "external_links": [], "uuid": "b9b02ce6-dc1b-434a-90a6-0bbc1783a86d", "source": {"name": "Vernon", "slug": "vernon"}, "source_identifier": "8211", "external_references": [], "date_modified": "2025-03-06T23:15:33.868331+11:00"}, {"id": 12411, "name": "Leroy Leatherman", "roles_in_work": [{"id": 2646713, "title": "Turkey: nation in transition", "work_id": 74085, "role": "director", "role_id": 938, "is_primary": true}, {"id": 862579, "title": "Yugoslavia", "work_id": 76384, "role": "director", "role_id": 938, "is_primary": true}, {"id": 2677200, "title": "The Ancient Egyptian", "work_id": 64744, "role": "director", "role_id": 938, "is_primary": true}], "also_known_as": "", "date_of_birth": null, "date_of_death": null, "genders": [], "languages": [], "places_of_operation": [], "biography": "", "biography_author": null, "date_of_biography": null, "external_links": [], "uuid": "64c5ca16-b0ce-474e-a597-ba3f2e89324e", "source": {"name": "Vernon", "slug": "vernon"}, "source_identifier": "23737", "external_references": [], "date_modified": "2025-03-06T23:15:29.352128+11:00"}, {"id": 12410, "name": "David A. Smart", "roles_in_work": [{"id": 2680229, "title": "Communism", "work_id": 66290, "role": "director", "role_id": 938, "is_primary": true}, {"id": 860385, "title": "A Visit from St Nicholas: a Coronet fantasy", "work_id": 74401, "role": "director", "role_id": 938, "is_primary": true}, {"id": 1808239, "title": "Healthy lungs", "work_id": 87924, "role": "producer", "role_id": 1089, "is_primary": true}, {"id": 1811648, "title": "The Meaning of the industrial revolution", "work_id": 70229, "role": "producer", "role_id": 1089, "is_primary": true}, {"id": 2373956, "title": "Rumpelstiltskin", "work_id": 72391, "role": "producer", "role_id": 1089, "is_primary": true}, {"id": 2677202, "title": "Ancient Greece", "work_id": 64745, "role": "producer", "role_id": 1089, "is_primary": true}, {"id": 1819674, "title": "Writing better business letters", "work_id": 74963, "role": "producer", "role_id": 1089, "is_primary": true}, {"id": 1814489, "title": "Look it up: dictionary habits", "work_id": 69893, "role": "producer", "role_id": 1089, "is_primary": true}, {"id": 1815761, "title": "A Visit to Ireland", "work_id": 89905, "role": "producer", "role_id": 1089, "is_primary": true}, {"id": 1819153, "title": "The Nature of Light", "work_id": 70777, "role": "producer", "role_id": 1089, "is_primary": true}, {"id": 1818619, "title": "Introduction to foreign trade", "work_id": 69051, "role": "producer", "role_id": 1089, "is_primary": true}, {"id": 2677197, "title": "Ancient Egypt", "work_id": 64743, "role": "producer", "role_id": 1089, "is_primary": true}], "also_known_as": "", "date_of_birth": "", "date_of_death": "", "genders": [], "languages": [], "places_of_operation": [], "biography": "", "biography_author": null, "date_of_biography": "2023-07-05T03:47:33.992532+10:00", "external_links": [], "uuid": "ccae15d7-0647-40c7-a893-8f33656a3641", "source": {"name": "Vernon", "slug": "vernon"}, "source_identifier": "17480", "external_references": [{"id": 32521, "source": {"name": "Wikidata", "slug": "wikidata"}, "source_identifier": "Q121035996"}], "date_modified": "2025-03-07T00:30:49.570114+11:00"}, {"id": 12409, "name": "Wan-go Wen", "roles_in_work": [{"id": 2750063, "title": "The Magic pear tree", "work_id": 97121, "role": "director", "role_id": 938, "is_primary": true}, {"id": 2750061, "title": "The Magic pear tree", "work_id": 97121, "role": "co-producer", "role_id": 915, "is_primary": true}, {"id": 1819239, "title": "Out of a Chinese painting brush (TEFC)", "work_id": 71269, "role": "producer", "role_id": 1089, "is_primary": true}, {"id": 2677195, "title": "Ancient chinese paintings in America", "work_id": 64742, "role": "producer", "role_id": 1089, "is_primary": true}, {"id": 2757788, "title": "China: coming of the west", "work_id": 66258, "role": "producer", "role_id": 1089, "is_primary": true}, {"id": 2678942, "title": "Buddhism in China", "work_id": 65652, "role": "producer", "role_id": 1089, "is_primary": true}, {"id": 2679794, "title": "[Chinese jade carving]", "work_id": 66076, "role": "producer", "role_id": 1089, "is_primary": true}, {"id": 2679800, "title": "Chinese shadow play", "work_id": 66078, "role": "producer", "role_id": 1089, "is_primary": true}, {"id": 1804748, "title": "Two Chinese dancers", "work_id": 78871, "role": "producer", "role_id": 1089, "is_primary": true}, {"id": 1818296, "title": "Painting the Chinese landscape", "work_id": 71321, "role": "producer", "role_id": 1089, "is_primary": true}], "also_known_as": "", "date_of_birth": "", "date_of_death": "", "genders": [{"id": 9, "name": "Male", "slug": "male"}], "languages": [], "places_of_operation": [], "biography": "", "biography_author": null, "date_of_biography": "2023-08-11T12:37:53.280086+10:00", "external_links": [], "uuid": "3ab16466-accc-497d-a529-b6a7fd56007e", "source": {"name": "Vernon", "slug": "vernon"}, "source_identifier": "3863", "external_references": [], "date_modified": "2025-03-13T14:47:14.501211+11:00"}, {"id": 12408, "name": "Harmon Foundation", "roles_in_work": [{"id": 856527, "title": "Out of a Chinese painting brush (TEFC)", "work_id": 71269, "role": "production company", "role_id": 941, "is_primary": true}, {"id": 2645504, "title": "The Lost wax method of bronze casting", "work_id": 69927, "role": "production company", "role_id": 941, "is_primary": true}, {"id": 2677194, "title": "Ancient chinese paintings in America", "work_id": 64742, "role": "production company", "role_id": 941, "is_primary": true}], "also_known_as": "", "date_of_birth": "", "date_of_death": "", "genders": [], "languages": [], "places_of_operation": [], "biography": "", "biography_author": null, "date_of_biography": "2023-08-14T11:19:57.332171+10:00", "external_links": [], "uuid": "20f38a2d-b667-4463-a973-f587613e2fdd", "source": {"name": "Vernon", "slug": "vernon"}, "source_identifier": "8996", "external_references": [], "date_modified": "2025-03-06T23:15:25.103754+11:00"}, {"id": 12407, "name": "China Institute in America", "roles_in_work": [{"id": 2677193, "title": "Ancient chinese paintings in America", "work_id": 64742, "role": "production company", "role_id": 941, "is_primary": true}, {"id": 2757785, "title": "China: coming of the west", "work_id": 66258, "role": "production company", "role_id": 941, "is_primary": true}], "also_known_as": "", "date_of_birth": null, "date_of_death": null, "genders": [], "languages": [], "places_of_operation": [], "biography": "", "biography_author": null, "date_of_biography": null, "external_links": [], "uuid": "0b9edf3d-ea69-49ae-ac60-3025e0e99eae", "source": {"name": "Vernon", "slug": "vernon"}, "source_identifier": "6588", "external_references": [], "date_modified": "2025-03-13T14:47:13.921289+11:00"}, {"id": 12406, "name": "Kare Bergstrom", "roles_in_work": [{"id": 2677189, "title": "Ancient art in Norway", "work_id": 64740, "role": "director", "role_id": 938, "is_primary": true}], "also_known_as": "", "date_of_birth": null, "date_of_death": null, "genders": [], "languages": [], "places_of_operation": [], "biography": "", "biography_author": null, "date_of_biography": null, "external_links": [], "uuid": "821df421-be98-403d-97fb-82806c8077a1", "source": {"name": "Vernon", "slug": "vernon"}, "source_identifier": "22980", "external_references": [], "date_modified": "2025-03-06T23:15:21.464668+11:00"}, {"id": 12405, "name": "Norsk Film", "roles_in_work": [{"id": 2000931, "title": "Insomnia (1997)", "work_id": 95258, "role": "production company", "role_id": 941, "is_primary": true}, {"id": 2289184, "title": "Zero Kelvin = Kjaerlighetens Kjotere [Widescreen]", "work_id": 93725, "role": "production company", "role_id": 941, "is_primary": true}, {"id": 814181, "title": "Pathfinder = Ofelas [Dubbed]", "work_id": 93104, "role": "production company", "role_id": 941, "is_primary": true}, {"id": 2677188, "title": "Ancient art in Norway", "work_id": 64740, "role": "production company", "role_id": 941, "is_primary": true}], "also_known_as": "", "date_of_birth": "", "date_of_death": "", "genders": [], "languages": [], "places_of_operation": [], "biography": "Norsk Film was a Norwegian film production company established in 1932 and disestablished in 2001. It was located in Bærum, with studio facilities at Jar. The company was the leading film producer in Norway by number of films, with a total of about 150 cinema productions at the time of its disestablishment, or about 25% of all Norwegian films. Source: Wikidata; 01/08/2023", "biography_author": null, "date_of_biography": "2025-03-06T23:15:20.877012+11:00", "external_links": [{"id": 4798, "uri": "https://en.wikipedia.org/wiki/Norsk_Film"}], "uuid": "693fd30d-d60c-4cdd-8513-a4d76fcc9cb3", "source": {"name": "Vernon", "slug": "vernon"}, "source_identifier": "4690", "external_references": [{"id": 25287, "source": {"name": "Wikidata", "slug": "wikidata"}, "source_identifier": "Q10603029"}, {"id": 30574, "source": {"name": "VIAF", "slug": "viaf"}, "source_identifier": "231221061"}, {"id": 30575, "source": {"name": "WorldCat", "slug": "worldcat"}, "source_identifier": "viaf-231221061"}], "date_modified": "2025-03-06T23:15:20.877244+11:00"}]}