{"count": 28687, "next": "https://api.acmi.net.au/creators/?page=1292", "previous": "https://api.acmi.net.au/creators/?page=1290", "results": [{"id": 38997, "name": "Formula One Films", "roles_in_work": [{"id": 2753125, "title": "The Liberated letter", "work_id": 98620, "role": "production company", "role_id": 941, "is_primary": true}, {"id": 2753128, "title": "Partners in design", "work_id": 98621, "role": "production company", "role_id": 941, "is_primary": true}], "also_known_as": "", "date_of_birth": null, "date_of_death": null, "genders": [], "languages": [], "places_of_operation": [], "biography": "", "biography_author": null, "date_of_biography": null, "external_links": [], "uuid": "0558a662-e525-481a-b263-7e90497c15a4", "source": {"name": "Vernon", "slug": "vernon"}, "source_identifier": "8444", "external_references": [], "date_modified": "2025-03-13T01:17:47.875032+11:00"}, {"id": 38996, "name": "Letraset International", "roles_in_work": [{"id": 2753124, "title": "The Liberated letter", "work_id": 98620, "role": "production company", "role_id": 941, "is_primary": true}], "also_known_as": "", "date_of_birth": null, "date_of_death": null, "genders": [], "languages": [], "places_of_operation": [], "biography": "", "biography_author": null, "date_of_biography": null, "external_links": [], "uuid": "b7d17a3a-b41d-4129-9b5e-2a71d9e51612", "source": {"name": "Vernon", "slug": "vernon"}, "source_identifier": "10029", "external_references": [], "date_modified": "2025-03-13T01:17:45.286503+11:00"}, {"id": 38995, "name": "Aspect Films", "roles_in_work": [{"id": 2753123, "title": "Communicators", "work_id": 98619, "role": "production company", "role_id": 941, "is_primary": true}], "also_known_as": "", "date_of_birth": "", "date_of_death": "", "genders": [], "languages": [], "places_of_operation": [], "biography": "", "biography_author": null, "date_of_biography": "2023-08-11T15:38:42.394853+10:00", "external_links": [], "uuid": "5c80a797-2d7c-4f93-bb50-f96885d8fc05", "source": {"name": "Vernon", "slug": "vernon"}, "source_identifier": "5451", "external_references": [], "date_modified": "2025-03-13T01:17:44.453097+11:00"}, {"id": 38994, "name": "Greg Logan", "roles_in_work": [{"id": 2753550, "title": "Peer pressure: learning to be yourself", "work_id": 98821, "role": "producer", "role_id": 1089, "is_primary": true}, {"id": 2753121, "title": "Soil and water: a living world", "work_id": 98618, "role": "producer", "role_id": 1089, "is_primary": true}], "also_known_as": "", "date_of_birth": null, "date_of_death": null, "genders": [], "languages": [], "places_of_operation": [], "biography": "", "biography_author": null, "date_of_biography": null, "external_links": [], "uuid": "b0efc553-d7bd-4216-8f49-b9058f71488f", "source": {"name": "Vernon", "slug": "vernon"}, "source_identifier": "20056", "external_references": [], "date_modified": "2025-03-13T01:26:56.107577+11:00"}, {"id": 38989, "name": "Andrew Neal", "roles_in_work": [{"id": 2753384, "title": "An Everyday miracle", "work_id": 98735, "role": "producer", "role_id": 1089, "is_primary": true}, {"id": 2753101, "title": "Jungle & sea of grasses (compilation)", "work_id": 98607, "role": "producer", "role_id": 1089, "is_primary": true}, {"id": 2753105, "title": "Sky above; Sweet fresh water; The Margins of the land", "work_id": 98608, "role": "producer", "role_id": 1089, "is_primary": true}], "also_known_as": "", "date_of_birth": "", "date_of_death": "", "genders": [], "languages": [], "places_of_operation": [], "biography": "", "biography_author": null, "date_of_biography": "2023-05-09T14:07:51.763155+10:00", "external_links": [], "uuid": "cab35f68-d4ca-4a13-a357-1ac27fbd5644", "source": {"name": "Vernon", "slug": "vernon"}, "source_identifier": "15203", "external_references": [{"id": 41532, "source": {"name": "Wikidata", "slug": "wikidata"}, "source_identifier": "Q121299078"}], "date_modified": "2025-03-13T01:22:59.087994+11:00"}, {"id": 38988, "name": "Cath Cantlon", "roles_in_work": [{"id": 2753096, "title": "Up against it", "work_id": 98604, "role": "director", "role_id": 938, "is_primary": true}], "also_known_as": "", "date_of_birth": "", "date_of_death": "", "genders": [], "languages": [], "places_of_operation": [], "biography": "", "biography_author": null, "date_of_biography": "2023-08-14T12:04:47.668250+10:00", "external_links": [], "uuid": "199b2d10-1714-4817-8724-60261c7de863", "source": {"name": "Vernon", "slug": "vernon"}, "source_identifier": "16584", "external_references": [], "date_modified": "2025-03-13T01:17:28.511167+11:00"}, {"id": 38987, "name": "Henley Beach Mural Collective", "roles_in_work": [{"id": 2753095, "title": "Up against it", "work_id": 98604, "role": "production company", "role_id": 941, "is_primary": true}], "also_known_as": "", "date_of_birth": "", "date_of_death": "", "genders": [], "languages": [], "places_of_operation": [], "biography": "", "biography_author": null, "date_of_biography": "2023-08-14T12:04:47.040113+10:00", "external_links": [], "uuid": "9292794a-7dbc-4e37-a494-809fb8015bcf", "source": {"name": "Vernon", "slug": "vernon"}, "source_identifier": "9067", "external_references": [], "date_modified": "2025-03-13T01:17:27.934870+11:00"}, {"id": 38986, "name": "Deborah Tennet", "roles_in_work": [{"id": 2469178, "title": "Time for access", "work_id": 98603, "role": "producer", "role_id": 1089, "is_primary": true}], "also_known_as": "", "date_of_birth": "", "date_of_death": "", "genders": [], "languages": [], "places_of_operation": [], "biography": "", "biography_author": null, "date_of_biography": "2023-08-14T11:54:46.607479+10:00", "external_links": [], "uuid": "572ae5ee-b77e-419d-bbf5-fd16aaba227d", "source": {"name": "Vernon", "slug": "vernon"}, "source_identifier": "17918", "external_references": [], "date_modified": "2023-08-14T11:54:46.607700+10:00"}, {"id": 38985, "name": "Wellington Polytechnic Photographic Students Production", "roles_in_work": [{"id": 2469177, "title": "Time for access", "work_id": 98603, "role": "production company", "role_id": 941, "is_primary": true}], "also_known_as": "", "date_of_birth": "", "date_of_death": "", "genders": [], "languages": [], "places_of_operation": [], "biography": "", "biography_author": null, "date_of_biography": "2023-08-14T11:54:45.968228+10:00", "external_links": [], "uuid": "4ef062d4-128e-4a50-86ba-aaeee9408190", "source": {"name": "Vernon", "slug": "vernon"}, "source_identifier": "14286", "external_references": [], "date_modified": "2023-08-14T11:54:45.968473+10:00"}, {"id": 38982, "name": "David Alexovich", "roles_in_work": [{"id": 2753090, "title": "The Rock cycle", "work_id": 98598, "role": "director", "role_id": 938, "is_primary": true}], "also_known_as": "", "date_of_birth": null, "date_of_death": null, "genders": [], "languages": [], "places_of_operation": [], "biography": "", "biography_author": null, "date_of_biography": null, "external_links": [], "uuid": "29add567-0078-4fb1-b175-cc46dd5d8666", "source": {"name": "Vernon", "slug": "vernon"}, "source_identifier": "17485", "external_references": [], "date_modified": "2025-03-13T01:17:24.826501+11:00"}]}