{"count": 28687, "next": "https://api.acmi.net.au/creators/?page=674", "previous": "https://api.acmi.net.au/creators/?page=672", "results": [{"id": 78853, "name": "Max Mundrey", "roles_in_work": [{"id": 2147438, "title": "Country town", "work_id": 88278, "role": "co-producer", "role_id": 915, "is_primary": true}], "also_known_as": "", "date_of_birth": "", "date_of_death": "", "genders": [], "languages": [], "places_of_operation": [], "biography": "", "biography_author": null, "date_of_biography": "2023-05-09T13:47:49.012915+10:00", "external_links": [], "uuid": "c604c680-520d-4e11-a720-c9c42b4cc15d", "source": {"name": "Vernon", "slug": "vernon"}, "source_identifier": "24875", "external_references": [{"id": 36255, "source": {"name": "Wikidata", "slug": "wikidata"}, "source_identifier": "Q121036204"}], "date_modified": "2023-09-05T22:57:35.953188+10:00"}, {"id": 78852, "name": "Kelly Monkman", "roles_in_work": [{"id": 2103717, "title": "Australia's coral wonderland", "work_id": 88275, "role": "co-producer", "role_id": 915, "is_primary": true}], "also_known_as": "", "date_of_birth": "", "date_of_death": "", "genders": [], "languages": [], "places_of_operation": [], "biography": "", "biography_author": null, "date_of_biography": "2023-05-09T12:35:29.265170+10:00", "external_links": [], "uuid": "ff82e05d-e3d0-4d39-8420-b684a57401b1", "source": {"name": "Vernon", "slug": "vernon"}, "source_identifier": "4175", "external_references": [{"id": 41765, "source": {"name": "Wikidata", "slug": "wikidata"}, "source_identifier": "Q121079469"}], "date_modified": "2023-09-05T22:04:08.837051+10:00"}, {"id": 78851, "name": "David Martinez", "roles_in_work": [{"id": 2248507, "title": "Renzo piano: piece by piece", "work_id": 88270, "role": "co-producer", "role_id": 915, "is_primary": true}], "also_known_as": "", "date_of_birth": "", "date_of_death": "", "genders": [], "languages": [], "places_of_operation": [], "biography": "", "biography_author": null, "date_of_biography": "2023-05-09T17:07:07.363543+10:00", "external_links": [], "uuid": "67cb3322-7569-4552-8a38-4bc7b72b8b29", "source": {"name": "Vernon", "slug": "vernon"}, "source_identifier": "17699", "external_references": [{"id": 52141, "source": {"name": "Wikidata", "slug": "wikidata"}, "source_identifier": "Q121358003"}], "date_modified": "2023-09-05T19:00:09.353759+10:00"}, {"id": 78850, "name": "M Sukmadjaya", "roles_in_work": [{"id": 2233251, "title": "Purple silken mist = Kabut sutra ungu", "work_id": 88263, "role": "co-producer", "role_id": 915, "is_primary": true}], "also_known_as": "", "date_of_birth": "", "date_of_death": "", "genders": [], "languages": [], "places_of_operation": [], "biography": "", "biography_author": null, "date_of_biography": "2023-05-09T16:41:41.484150+10:00", "external_links": [], "uuid": "b4c3b6bd-bcb1-408f-9294-5edbae6649b3", "source": {"name": "Vernon", "slug": "vernon"}, "source_identifier": "24167", "external_references": [{"id": 32554, "source": {"name": "Wikidata", "slug": "wikidata"}, "source_identifier": "Q121222765"}], "date_modified": "2023-09-05T22:35:40.284536+10:00"}, {"id": 78849, "name": "Dharma Effendy", "roles_in_work": [{"id": 2233243, "title": "Purple silken mist = Kabut sutra ungu", "work_id": 88263, "role": "co-producer", "role_id": 915, "is_primary": true}], "also_known_as": "", "date_of_birth": "", "date_of_death": "", "genders": [], "languages": [], "places_of_operation": [], "biography": "", "biography_author": null, "date_of_biography": "2023-05-09T16:41:41.237807+10:00", "external_links": [], "uuid": "6e436cf3-3a92-4bc8-906c-6d88a41815b3", "source": {"name": "Vernon", "slug": "vernon"}, "source_identifier": "18068", "external_references": [{"id": 36063, "source": {"name": "Wikidata", "slug": "wikidata"}, "source_identifier": "Q121036699"}], "date_modified": "2023-09-05T19:10:47.056010+10:00"}, {"id": 78848, "name": "Njoohan Siang", "roles_in_work": [{"id": 2117841, "title": "Bitter coffee = Secangkir kopi pahit", "work_id": 88262, "role": "co-producer", "role_id": 915, "is_primary": true}], "also_known_as": "", "date_of_birth": "", "date_of_death": "", "genders": [], "languages": [], "places_of_operation": [], "biography": "", "biography_author": null, "date_of_biography": "2023-05-09T12:56:38.065523+10:00", "external_links": [], "uuid": "96ae5f1f-55c8-40bb-af20-9551920beef7", "source": {"name": "Vernon", "slug": "vernon"}, "source_identifier": "25843", "external_references": [{"id": 43108, "source": {"name": "Wikidata", "slug": "wikidata"}, "source_identifier": "Q121159960"}], "date_modified": "2023-09-05T23:32:38.323348+10:00"}, {"id": 78847, "name": "Bambang Widitomo", "roles_in_work": [{"id": 2117837, "title": "Bitter coffee = Secangkir kopi pahit", "work_id": 88262, "role": "co-producer", "role_id": 915, "is_primary": true}], "also_known_as": "", "date_of_birth": "", "date_of_death": "", "genders": [], "languages": [], "places_of_operation": [], "biography": "", "biography_author": null, "date_of_biography": "2023-05-09T12:56:37.833306+10:00", "external_links": [], "uuid": "87457702-1cda-4e6e-af16-bed441c6ddc1", "source": {"name": "Vernon", "slug": "vernon"}, "source_identifier": "15627", "external_references": [{"id": 39260, "source": {"name": "Wikidata", "slug": "wikidata"}, "source_identifier": "Q121079317"}], "date_modified": "2023-09-05T17:52:38.690240+10:00"}, {"id": 78846, "name": "Rizal Mantovani", "roles_in_work": [{"id": 2476279, "title": "Kuldesak", "work_id": 88258, "role": "co-producers/directors", "role_id": 628, "is_primary": true}], "also_known_as": "", "date_of_birth": "1967-08-12", "date_of_death": "", "genders": [{"id": 9, "name": "Male", "slug": "male"}], "languages": [{"id": 12, "name": "Indonesian", "slug": "indonesian"}], "places_of_operation": [{"id": 6, "name": "Indonesia", "slug": "indonesia"}], "biography": "", "biography_author": null, "date_of_biography": "2023-08-17T15:34:38.492918+10:00", "external_links": [], "uuid": "780e8559-6e73-407b-88b7-cae0d85d1b1a", "source": {"name": "Vernon", "slug": "vernon"}, "source_identifier": "27580", "external_references": [{"id": 32830, "source": {"name": "Wikidata", "slug": "wikidata"}, "source_identifier": "Q13096502"}, {"id": 55657, "source": {"name": "VIAF", "slug": "viaf"}, "source_identifier": "175305301"}, {"id": 55658, "source": {"name": "LOC Auth", "slug": "loc-auth"}, "source_identifier": "no2011134556"}, {"id": 55659, "source": {"name": "WorldCat", "slug": "worldcat"}, "source_identifier": "lccn-no2011134556"}], "date_modified": "2023-09-06T00:36:42.276814+10:00"}, {"id": 78845, "name": "Riri Riza", "roles_in_work": [{"id": 2476278, "title": "Kuldesak", "work_id": 88258, "role": "co-producers/directors", "role_id": 628, "is_primary": true}], "also_known_as": "", "date_of_birth": "1970-10-02", "date_of_death": "", "genders": [{"id": 9, "name": "Male", "slug": "male"}], "languages": [{"id": 12, "name": "Indonesian", "slug": "indonesian"}], "places_of_operation": [{"id": 6, "name": "Indonesia", "slug": "indonesia"}], "biography": "Mohammad Rivai Riza (born October 2, 1970), better known as Riri Riza, is an Indonesian film director, producer and writer. He is notable for his directorial work on Petualangan Sherina (Sherina's Adventure; 2000), Gie (2005), Laskar Pelangi (The Rainbow Troop; 2008), and Ada Apa Dengan Cinta? 2 (What's Up with Love? 2; 2016). He is also known for his creative partnership with Indonesian producer Mira Lesmana, with whom he manages the film production company, Miles Films.", "biography_author": "Wikidata", "date_of_biography": "2023-09-06T00:36:10.134269+10:00", "external_links": [{"id": 4999, "uri": "https://en.wikipedia.org/wiki/Riri_Riza"}], "uuid": "2f14c5bd-0c76-4bf5-a9a5-caaeaf25ac2b", "source": {"name": "Vernon", "slug": "vernon"}, "source_identifier": "27573", "external_references": [{"id": 25746, "source": {"name": "Wikidata", "slug": "wikidata"}, "source_identifier": "Q2370267"}, {"id": 31106, "source": {"name": "VIAF", "slug": "viaf"}, "source_identifier": "58770933"}, {"id": 31107, "source": {"name": "LOC Auth", "slug": "loc-auth"}, "source_identifier": "no2003061714"}, {"id": 31108, "source": {"name": "WorldCat", "slug": "worldcat"}, "source_identifier": "lccn-no2003061714"}], "date_modified": "2023-09-06T00:36:12.338001+10:00"}, {"id": 78844, "name": "Nan T. Achnas", "roles_in_work": [{"id": 2476277, "title": "Kuldesak", "work_id": 88258, "role": "co-producers/directors", "role_id": 628, "is_primary": true}], "also_known_as": "", "date_of_birth": "", "date_of_death": "", "genders": [], "languages": [], "places_of_operation": [], "biography": "", "biography_author": null, "date_of_biography": "2023-08-17T15:34:37.225747+10:00", "external_links": [], "uuid": "ad7f465b-0cc0-4745-a0c2-462586861a87", "source": {"name": "Vernon", "slug": "vernon"}, "source_identifier": "25596", "external_references": [], "date_modified": "2023-08-17T15:34:37.225953+10:00"}]}