{"count": 28687, "next": "https://api.acmi.net.au/creators/?page=531", "previous": "https://api.acmi.net.au/creators/?page=529", "results": [{"id": 80283, "name": "Buck Henry", "roles_in_work": [{"id": 2475003, "title": "Heaven can wait", "work_id": 93444, "role": "co-director", "role_id": 959, "is_primary": true}], "also_known_as": "Henry Zuckerman", "date_of_birth": "1930-12-09", "date_of_death": "2020-01-08", "genders": [{"id": 9, "name": "Male", "slug": "male"}], "languages": [{"id": 1, "name": "English", "slug": "english"}], "places_of_operation": [{"id": 1, "name": "United States of America", "slug": "united-states-of-america"}], "biography": "Buck Henry (born Henry Zuckerman; December 9, 1930 – January 8, 2020) was an American actor, screenwriter, and director. Henry's contributions to film included his work as a co-writer for Mike Nichols's The Graduate (1967) for which he received a nomination for the Academy Award for Best Adapted Screenplay. He also appeared in Nichols' Catch-22 (1970), Herbert Ross' The Owl and the Pussycat (1970), and Peter Bogdanovich's What's Up, Doc? (1972). In 1978, he co-directed Heaven Can Wait (1978) with Warren Beatty receiving a nomination for the Academy Award for Best Director. He later appeared in Albert Brooks' Defending Your Life (1991), and the Robert Altman films The Player (1992) and Short Cuts (1993). \nHis long career began on television with work on shows with Steve Allen in The New Steve Allen Show (1961). He co-created Get Smart (1965–1970) with Mel Brooks for which he received the Primetime Emmy Award for Outstanding Writing for a Comedy Series. He also served as a multiple-time host of Saturday Night Live. Henry is a member of SNL's Five Timer's Club having hosted 10 times from 1976 to 1980. He later guest-starred in such popular shows as Murphy Brown, Hot in Cleveland, Will & Grace, and 30 Rock.", "biography_author": "Wikidata", "date_of_biography": "2023-09-05T18:15:12.989662+10:00", "external_links": [{"id": 1766, "uri": "https://en.wikipedia.org/wiki/Buck_Henry"}], "uuid": "bf8ebf7d-12e4-4eaf-9402-b0c67b31b29e", "source": {"name": "Vernon", "slug": "vernon"}, "source_identifier": "16367", "external_references": [{"id": 7700, "source": {"name": "Wikidata", "slug": "wikidata"}, "source_identifier": "Q999332"}, {"id": 7701, "source": {"name": "VIAF", "slug": "viaf"}, "source_identifier": "56796406"}, {"id": 7702, "source": {"name": "LOC Auth", "slug": "loc-auth"}, "source_identifier": "n87150389"}, {"id": 7703, "source": {"name": "WorldCat", "slug": "worldcat"}, "source_identifier": "lccn-n87150389"}], "date_modified": "2023-09-05T18:15:13.673055+10:00"}, {"id": 80282, "name": "Laura Monaghan", "roles_in_work": [{"id": 2377973, "title": "Rabbit-Proof Fence", "work_id": 93443, "role": "cast", "role_id": 33, "is_primary": false}], "also_known_as": "", "date_of_birth": "1990", "date_of_death": "", "genders": [{"id": 5, "name": "Female", "slug": "female"}], "languages": [], "places_of_operation": [], "biography": "", "biography_author": null, "date_of_biography": "2023-07-12T03:41:20.312411+10:00", "external_links": [], "uuid": "0dd58168-2a42-42f1-9317-9eefae5d4fd7", "source": {"name": "Vernon", "slug": "vernon"}, "source_identifier": "35640", "external_references": [{"id": 41820, "source": {"name": "Wikidata", "slug": "wikidata"}, "source_identifier": "Q121223468"}], "date_modified": "2023-07-12T03:41:20.312722+10:00"}, {"id": 80281, "name": "Tianna Sansbury", "roles_in_work": [{"id": 2377972, "title": "Rabbit-Proof Fence", "work_id": 93443, "role": "cast", "role_id": 33, "is_primary": false}], "also_known_as": "", "date_of_birth": "1992", "date_of_death": "", "genders": [{"id": 5, "name": "Female", "slug": "female"}], "languages": [], "places_of_operation": [], "biography": "", "biography_author": null, "date_of_biography": "2023-07-12T03:41:20.083254+10:00", "external_links": [], "uuid": "d3618764-2cb1-4572-a5a1-222508e0f041", "source": {"name": "Vernon", "slug": "vernon"}, "source_identifier": "35639", "external_references": [{"id": 41521, "source": {"name": "Wikidata", "slug": "wikidata"}, "source_identifier": "Q2431147"}], "date_modified": "2023-07-12T03:41:20.083618+10:00"}, {"id": 80280, "name": "Everlyn Sampi", "roles_in_work": [{"id": 2377970, "title": "Rabbit-Proof Fence", "work_id": 93443, "role": "cast", "role_id": 33, "is_primary": false}], "also_known_as": "", "date_of_birth": "1988-10-06", "date_of_death": "", "genders": [{"id": 5, "name": "Female", "slug": "female"}], "languages": [], "places_of_operation": [{"id": 3, "name": "Australia", "slug": "australia"}], "biography": "Everlyn Lee Marie Sampi (born 6 October 1988) is an Australian actress. She is of Bardi Australian Aboriginal and Scottish descent. \nSampi starred in the 2002 film Rabbit-Proof Fence, as child of the stolen generation Molly Craig. The film itself is based on the true novel Follow the Rabbit-Proof Fence written by Craig's daughter Doris Pilkington Garimara. Sampi won the 4th Annual Lexus Inside Film Awards for Best Actress on 6 November 2002 for her role in the film.\nSampi appeared in the 2007 Australian drama The Circuit as the character Leonie.\nSampi now lives in Broome, Western Australia.", "biography_author": "Wikidata", "date_of_biography": "2023-08-01T14:48:14.799856+10:00", "external_links": [{"id": 3959, "uri": "https://en.wikipedia.org/wiki/Everlyn_Sampi"}], "uuid": "41be24ed-6bb4-4b42-a748-76eb821164c9", "source": {"name": "Vernon", "slug": "vernon"}, "source_identifier": "35638", "external_references": [{"id": 25480, "source": {"name": "Wikidata", "slug": "wikidata"}, "source_identifier": "Q537980"}, {"id": 28373, "source": {"name": "VIAF", "slug": "viaf"}, "source_identifier": "76005987"}, {"id": 28374, "source": {"name": "LOC Auth", "slug": "loc-auth"}, "source_identifier": "no2003059147"}, {"id": 28375, "source": {"name": "WorldCat", "slug": "worldcat"}, "source_identifier": "lccn-no2003059147"}], "date_modified": "2023-08-15T10:54:32.479203+10:00"}, {"id": 80279, "name": "Christopher Doyle", "roles_in_work": [{"id": 2377968, "title": "Rabbit-Proof Fence", "work_id": 93443, "role": "cinematographer", "role_id": 32, "is_primary": false}, {"id": 2651556, "title": "Interview with Christopher Doyle", "work_id": 116781, "role": "interviewee", "role_id": 496, "is_primary": false}, {"id": 2653653, "title": "Chris Doyle: Screen Worlds Spotlight interview", "work_id": 120154, "role": "interviewee", "role_id": 496, "is_primary": false}], "also_known_as": "", "date_of_birth": "1952", "date_of_death": "", "genders": [{"id": 9, "name": "Male", "slug": "male"}], "languages": [{"id": 1, "name": "English", "slug": "english"}], "places_of_operation": [{"id": 3, "name": "Australia", "slug": "australia"}], "biography": "Christopher Doyle, also known as Dù Kěfēng (Mandarin) or Dou Ho-Fung (Cantonese) (traditional Chinese: 杜可風; simplified Chinese: 杜可风) (born 2 May 1952) is an Australian-Hong Kong cinematographer. He has worked on over fifty Chinese-language films, being best known for his collaborations with Wong Kar-wai in Chungking Express, Happy Together, In the Mood for Love and 2046. Doyle is also known for other films such as Temptress Moon, Hero, Dumplings, and Psycho. He has won awards at the Cannes Film Festival and Venice Film Festival, as well as the AFI Award for cinematography, the Golden Horse award (four times), and the Hong Kong Film Award (six times).", "biography_author": "Wikidata", "date_of_biography": "2023-08-15T10:40:50.307118+10:00", "external_links": [{"id": 3770, "uri": "https://en.wikipedia.org/wiki/Christopher_Doyle"}], "uuid": "bc5377f1-be30-4c7d-b213-a6a3d9dcff62", "source": {"name": "Vernon", "slug": "vernon"}, "source_identifier": "33040", "external_references": [{"id": 25483, "source": {"name": "Wikidata", "slug": "wikidata"}, "source_identifier": "Q457890"}, {"id": 27845, "source": {"name": "VIAF", "slug": "viaf"}, "source_identifier": "24912129"}, {"id": 27846, "source": {"name": "LOC Auth", "slug": "loc-auth"}, "source_identifier": "nr97011422"}, {"id": 27847, "source": {"name": "WorldCat", "slug": "worldcat"}, "source_identifier": "lccn-nr97011422"}], "date_modified": "2025-03-05T14:57:01.011384+11:00"}, {"id": 80278, "name": "Jabel Films", "roles_in_work": [{"id": 2377962, "title": "Rabbit-Proof Fence", "work_id": 93443, "role": "production company", "role_id": 941, "is_primary": true}], "also_known_as": "", "date_of_birth": "", "date_of_death": "", "genders": [], "languages": [], "places_of_operation": [], "biography": "", "biography_author": null, "date_of_biography": "2023-07-12T03:41:18.065647+10:00", "external_links": [], "uuid": "91cd0fc4-af87-4b8f-9418-714969a9deb4", "source": {"name": "Vernon", "slug": "vernon"}, "source_identifier": "9521", "external_references": [{"id": 34354, "source": {"name": "Wikidata", "slug": "wikidata"}, "source_identifier": "Q121078956"}], "date_modified": "2023-09-05T20:54:12.267144+10:00"}, {"id": 80277, "name": "Anna-Maria Monticelli", "roles_in_work": [{"id": 2474908, "title": "La Spagnola", "work_id": 93436, "role": "producer", "role_id": 1089, "is_primary": true}], "also_known_as": "", "date_of_birth": "1952-01-01", "date_of_death": "", "genders": [{"id": 5, "name": "Female", "slug": "female"}], "languages": [], "places_of_operation": [{"id": 3, "name": "Australia", "slug": "australia"}], "biography": "Anna Maria Monticelli is an Australian actress, screenwriter and producer.Monticelli won the 1994 AFI Award for Best Actress in a Supporting Role for her role in Silver City. In 2001 she was nominated for the AFI Award for Best Original Screenplay for La Spagnola. At the 2008 Australian Writers Guild awards she won the best feature film adaptation for her screenplay of J. M. Coetzee's Disgrace. At the Film Critics Circle of Australia Awards she won the 2010 Award for Best Screenplay for Disgrace and was nominated for Best Film in 2010 (producer) for Disgrace and for Best Screenplay - Original in 2002 for La Spagnola.\nMonticelli is married to actor and director Steve Jacobs who directed La Spagnola and Disgrace.", "biography_author": "Wikidata", "date_of_biography": "2023-09-05T17:39:20.510625+10:00", "external_links": [{"id": 1661, "uri": "https://en.wikipedia.org/wiki/Anna_Maria_Monticelli"}], "uuid": "e95e4bc0-47cc-4173-add2-1974d8bc7365", "source": {"name": "Vernon", "slug": "vernon"}, "source_identifier": "15315", "external_references": [{"id": 7247, "source": {"name": "Wikidata", "slug": "wikidata"}, "source_identifier": "Q2850555"}, {"id": 7248, "source": {"name": "VIAF", "slug": "viaf"}, "source_identifier": "120226097"}, {"id": 7249, "source": {"name": "LOC Auth", "slug": "loc-auth"}, "source_identifier": "no2009056998"}, {"id": 7250, "source": {"name": "WorldCat", "slug": "worldcat"}, "source_identifier": "lccn-no2009056998"}], "date_modified": "2023-09-05T17:39:20.520381+10:00"}, {"id": 80276, "name": "Wild Strawberries", "roles_in_work": [{"id": 2474907, "title": "La Spagnola", "work_id": 93436, "role": "production company", "role_id": 941, "is_primary": true}], "also_known_as": "", "date_of_birth": "", "date_of_death": "", "genders": [], "languages": [], "places_of_operation": [], "biography": "", "biography_author": null, "date_of_biography": "2023-08-17T15:01:36.668139+10:00", "external_links": [], "uuid": "aa647ff7-126e-450d-8278-cccc73d8311d", "source": {"name": "Vernon", "slug": "vernon"}, "source_identifier": "14360", "external_references": [{"id": 38615, "source": {"name": "Wikidata", "slug": "wikidata"}, "source_identifier": "Q121035287"}], "date_modified": "2023-09-06T02:13:44.976021+10:00"}, {"id": 80275, "name": "Pippa Bailey", "roles_in_work": [{"id": 882928, "title": "Inje: lost in translation", "work_id": 93431, "role": "producer/director", "role_id": 31, "is_primary": true}], "also_known_as": "", "date_of_birth": null, "date_of_death": null, "genders": [], "languages": [], "places_of_operation": [], "biography": "", "biography_author": null, "date_of_biography": null, "external_links": [], "uuid": "f30ffee9-b42f-4144-8714-6e12c7bd61d3", "source": {"name": "Vernon", "slug": "vernon"}, "source_identifier": null, "external_references": [{"id": 51779, "source": {"name": "Wikidata", "slug": "wikidata"}, "source_identifier": "Q121360571"}], "date_modified": "2023-09-06T00:12:56.123198+10:00"}, {"id": 80274, "name": "Rick Randall", "roles_in_work": [{"id": 882922, "title": "The Sewing room", "work_id": 93429, "role": "director", "role_id": 938, "is_primary": true}], "also_known_as": "", "date_of_birth": null, "date_of_death": null, "genders": [], "languages": [], "places_of_operation": [], "biography": "", "biography_author": null, "date_of_biography": null, "external_links": [], "uuid": "1d9fe216-9d83-4755-b57d-e68bb8b00586", "source": {"name": "Vernon", "slug": "vernon"}, "source_identifier": null, "external_references": [{"id": 32659, "source": {"name": "Wikidata", "slug": "wikidata"}, "source_identifier": "Q121337264"}], "date_modified": "2023-09-06T00:34:37.683880+10:00"}]}