{"count": 28687, "next": "https://api.acmi.net.au/creators/?page=2299", "previous": "https://api.acmi.net.au/creators/?page=2297", "results": [{"id": 16791, "name": "Masterworks Workshop", "roles_in_work": [{"id": 2463719, "title": "Mozart in motion: the masterworks process", "work_id": 70649, "role": "production company", "role_id": 941, "is_primary": true}], "also_known_as": "", "date_of_birth": "", "date_of_death": "", "genders": [], "languages": [], "places_of_operation": [], "biography": "", "biography_author": null, "date_of_biography": "2023-08-14T09:56:36.983673+10:00", "external_links": [], "uuid": "32cbffeb-8f98-4021-b6a2-4fd0d635137f", "source": {"name": "Vernon", "slug": "vernon"}, "source_identifier": "10348", "external_references": [], "date_modified": "2023-08-14T09:56:36.984058+10:00"}, {"id": 16789, "name": "Prudential Insurance Company of America", "roles_in_work": [{"id": 2792917, "title": "Movies learn to talk", "work_id": 70640, "role": "production company", "role_id": 941, "is_primary": true}], "also_known_as": "", "date_of_birth": "", "date_of_death": "", "genders": [], "languages": [], "places_of_operation": [], "biography": "", "biography_author": null, "date_of_biography": "2023-08-11T16:52:16.641258+10:00", "external_links": [], "uuid": "a990848c-6109-4ec2-87a3-cdf4e935bc05", "source": {"name": "Vernon", "slug": "vernon"}, "source_identifier": "11718", "external_references": [], "date_modified": "2025-03-14T20:13:55.986803+11:00"}, {"id": 16788, "name": "Walter Reed Army Institute of Research", "roles_in_work": [{"id": 2463702, "title": "Mouth to mouth rescue breathing", "work_id": 70633, "role": "production company", "role_id": 941, "is_primary": true}], "also_known_as": "", "date_of_birth": "", "date_of_death": "", "genders": [], "languages": [], "places_of_operation": [], "biography": "", "biography_author": null, "date_of_biography": "2023-08-14T09:56:07.979050+10:00", "external_links": [], "uuid": "8214fa14-c5ac-406e-9d07-26c18a140977", "source": {"name": "Vernon", "slug": "vernon"}, "source_identifier": "14235", "external_references": [], "date_modified": "2023-08-14T09:56:07.979332+10:00"}, {"id": 16787, "name": "Donald R. Phillips", "roles_in_work": [{"id": 2764505, "title": "Moussorgsky: 'Pictures at an exhibition'", "work_id": 70632, "role": "director", "role_id": 938, "is_primary": true}], "also_known_as": "", "date_of_birth": "", "date_of_death": "", "genders": [], "languages": [], "places_of_operation": [], "biography": "", "biography_author": null, "date_of_biography": "2023-08-11T14:48:22.806444+10:00", "external_links": [], "uuid": "2ae1687e-17b5-4012-ba46-4faab8aaa1e4", "source": {"name": "Vernon", "slug": "vernon"}, "source_identifier": "18310", "external_references": [], "date_modified": "2025-03-14T17:46:36.988695+11:00"}, {"id": 16786, "name": "Musilog", "roles_in_work": [{"id": 2764511, "title": "Vaughan Williams: a London symphony - Scherzo (Nocturne) (3rd Movement)", "work_id": 74294, "role": "production company", "role_id": 941, "is_primary": true}, {"id": 2764502, "title": "Moussorgsky: 'Pictures at an exhibition'", "work_id": 70632, "role": "production company", "role_id": 941, "is_primary": true}, {"id": 2764495, "title": "Allegro molto from the symphony No.5 in E flat by Jean Sibelius", "work_id": 72801, "role": "production company", "role_id": 941, "is_primary": true}], "also_known_as": "", "date_of_birth": "", "date_of_death": "", "genders": [], "languages": [], "places_of_operation": [], "biography": "", "biography_author": null, "date_of_biography": "2023-08-11T14:48:24.350327+10:00", "external_links": [], "uuid": "1efb37a5-2e9b-49fc-ad97-3ca5804e6d6d", "source": {"name": "Vernon", "slug": "vernon"}, "source_identifier": "10739", "external_references": [], "date_modified": "2025-03-14T17:46:38.738015+11:00"}, {"id": 16783, "name": "Boris Cook", "roles_in_work": [{"id": 2391908, "title": "The Mount Hagen Show", "work_id": 70624, "role": "director", "role_id": 938, "is_primary": true}, {"id": 860934, "title": "Women of Aibom: in the time before before", "work_id": 74838, "role": "director", "role_id": 938, "is_primary": true}, {"id": 2391909, "title": "The Mount Hagen Show", "work_id": 70624, "role": "cinematographer", "role_id": 32, "is_primary": false}, {"id": 1903629, "title": "[William Dobell]", "work_id": 74777, "role": "producer", "role_id": 1089, "is_primary": true}], "also_known_as": "", "date_of_birth": "", "date_of_death": "", "genders": [], "languages": [], "places_of_operation": [], "biography": "", "biography_author": null, "date_of_biography": "2023-08-09T03:47:33.782206+10:00", "external_links": [], "uuid": "db666713-7115-45fd-a67b-86e930377721", "source": {"name": "Vernon", "slug": "vernon"}, "source_identifier": "16136", "external_references": [], "date_modified": "2023-08-09T03:47:33.782424+10:00"}, {"id": 16781, "name": "Mel Gunton", "roles_in_work": [{"id": 2764560, "title": "Motor learning", "work_id": 70616, "role": "director", "role_id": 938, "is_primary": true}], "also_known_as": "", "date_of_birth": "", "date_of_death": "", "genders": [], "languages": [], "places_of_operation": [], "biography": "", "biography_author": null, "date_of_biography": "2023-08-11T12:38:36.077246+10:00", "external_links": [], "uuid": "2bc16bad-7f47-4f5b-b703-dfdca345dfd2", "source": {"name": "Vernon", "slug": "vernon"}, "source_identifier": "24914", "external_references": [], "date_modified": "2025-03-14T17:46:50.713401+11:00"}, {"id": 16780, "name": "Ontario Province. Council of Recreation and Sport", "roles_in_work": [{"id": 2764557, "title": "Motor learning", "work_id": 70616, "role": "production company", "role_id": 941, "is_primary": true}], "also_known_as": "", "date_of_birth": "", "date_of_death": "", "genders": [], "languages": [], "places_of_operation": [], "biography": "", "biography_author": null, "date_of_biography": "2023-08-11T12:38:35.430961+10:00", "external_links": [], "uuid": "ffc51c13-37b5-4bba-abee-6b6b12832b88", "source": {"name": "Vernon", "slug": "vernon"}, "source_identifier": "11140", "external_references": [], "date_modified": "2025-03-14T17:46:50.135046+11:00"}, {"id": 16777, "name": "Pennsylvania State College Productions", "roles_in_work": [{"id": 2401738, "title": "Baby care: feeding", "work_id": 91080, "role": "production company", "role_id": 941, "is_primary": true}, {"id": 2645722, "title": "Motivation and reward in learning", "work_id": 70615, "role": "production company", "role_id": 941, "is_primary": true}, {"id": 858580, "title": "Social behaviour of the Rhesus Monkey (Mucaca mulatta)", "work_id": 72954, "role": "production company", "role_id": 941, "is_primary": true}], "also_known_as": "", "date_of_birth": "", "date_of_death": "", "genders": [], "languages": [], "places_of_operation": [], "biography": "", "biography_author": null, "date_of_biography": "2023-08-11T14:31:18.442717+10:00", "external_links": [], "uuid": "bebd6e0d-ba70-45b8-b2f5-2e13db1c34e7", "source": {"name": "Vernon", "slug": "vernon"}, "source_identifier": "11393", "external_references": [], "date_modified": "2025-03-05T12:46:43.917651+11:00"}, {"id": 16776, "name": "Ralph Barnes", "roles_in_work": [{"id": 2463688, "title": "Motion study in action", "work_id": 70613, "role": "producer", "role_id": 1089, "is_primary": true}], "also_known_as": "", "date_of_birth": "", "date_of_death": "", "genders": [], "languages": [], "places_of_operation": [], "biography": "", "biography_author": null, "date_of_biography": "2023-08-14T09:55:50.075717+10:00", "external_links": [], "uuid": "7ab8cf91-688d-4996-8078-ccf2a2c86e96", "source": {"name": "Vernon", "slug": "vernon"}, "source_identifier": "27071", "external_references": [], "date_modified": "2023-08-14T09:55:50.075980+10:00"}]}