{"count": 28687, "next": "https://api.acmi.net.au/creators/?page=2391", "previous": "https://api.acmi.net.au/creators/?page=2389", "results": [{"id": 15297, "name": "Rank Educational Films", "roles_in_work": [{"id": 2714657, "title": "Gibraltar: Gateway to the Mediterranean", "work_id": 68049, "role": "production company", "role_id": 941, "is_primary": true}], "also_known_as": "", "date_of_birth": "", "date_of_death": "", "genders": [], "languages": [], "places_of_operation": [], "biography": "", "biography_author": null, "date_of_biography": "2023-08-11T17:02:08.670174+10:00", "external_links": [], "uuid": "7f56aa51-888f-4dc6-8547-23667a367c90", "source": {"name": "Vernon", "slug": "vernon"}, "source_identifier": "11856", "external_references": [], "date_modified": "2025-03-12T01:16:35.540416+11:00"}, {"id": 15296, "name": "Zdenka Deitchova", "roles_in_work": [{"id": 897044, "title": "Moon man (K)", "work_id": 76708, "role": "co-producer", "role_id": 915, "is_primary": true}, {"id": 2648453, "title": "Moon man", "work_id": 79230, "role": "co-producer", "role_id": 915, "is_primary": true}, {"id": 899895, "title": "Burt Dow, deep-water man (K)", "work_id": 80740, "role": "co-producer", "role_id": 915, "is_primary": true}, {"id": 898369, "title": "Burt Dow, deep-water man", "work_id": 78400, "role": "co-producer", "role_id": 915, "is_primary": true}, {"id": 2714655, "title": "The Giants", "work_id": 68048, "role": "producer", "role_id": 1089, "is_primary": true}, {"id": 1809533, "title": "Goldilocks and the three bears", "work_id": 90728, "role": "producer", "role_id": 1089, "is_primary": true}, {"id": 2280102, "title": "Wings: a tale of two chickens", "work_id": 90724, "role": "producer", "role_id": 1089, "is_primary": true}, {"id": 795201, "title": "Miffy at the hospital", "work_id": 87127, "role": "production company", "role_id": 941, "is_primary": true}], "also_known_as": "", "date_of_birth": "", "date_of_death": "", "genders": [], "languages": [], "places_of_operation": [], "biography": "", "biography_author": null, "date_of_biography": "2023-05-09T17:58:58.171889+10:00", "external_links": [], "uuid": "ca97e8c5-c582-4ab1-a534-cde5d2a54caf", "source": {"name": "Vernon", "slug": "vernon"}, "source_identifier": "30670", "external_references": [{"id": 33279, "source": {"name": "Wikidata", "slug": "wikidata"}, "source_identifier": "Q121034413"}], "date_modified": "2025-03-12T01:16:34.068895+11:00"}, {"id": 15295, "name": "Sidney Samuelson", "roles_in_work": [{"id": 2714651, "title": "Giant in the sun", "work_id": 68046, "role": "director", "role_id": 938, "is_primary": true}], "also_known_as": "", "date_of_birth": null, "date_of_death": null, "genders": [], "languages": [], "places_of_operation": [], "biography": "", "biography_author": null, "date_of_biography": null, "external_links": [], "uuid": "640cbcda-35b5-460f-a01f-e80c06052965", "source": {"name": "Vernon", "slug": "vernon"}, "source_identifier": "28819", "external_references": [], "date_modified": "2025-03-12T01:16:30.917201+11:00"}, {"id": 15294, "name": "Victor M. Gover", "roles_in_work": [{"id": 854112, "title": "The King's musick", "work_id": 69414, "role": "director", "role_id": 938, "is_primary": true}, {"id": 2646042, "title": "A Portrait of Trinidad", "work_id": 71720, "role": "producer", "role_id": 1089, "is_primary": true}, {"id": 2714650, "title": "Giant in the sun", "work_id": 68046, "role": "producer", "role_id": 1089, "is_primary": true}, {"id": 1811998, "title": "Nigeria 1960 - sunrise in the east", "work_id": 73374, "role": "producer", "role_id": 1089, "is_primary": true}, {"id": 2715842, "title": "How to play cricket", "work_id": 68647, "role": "producer/director", "role_id": 31, "is_primary": true}], "also_known_as": "", "date_of_birth": "", "date_of_death": "", "genders": [], "languages": [], "places_of_operation": [], "biography": "", "biography_author": null, "date_of_biography": "2023-08-11T13:11:50.212122+10:00", "external_links": [], "uuid": "27d45ebc-033c-4296-b334-89a85822c7cd", "source": {"name": "Vernon", "slug": "vernon"}, "source_identifier": "30108", "external_references": [], "date_modified": "2025-03-12T01:42:27.524826+11:00"}, {"id": 15293, "name": "Northern Nigeria Information Services", "roles_in_work": [{"id": 2714649, "title": "Giant in the sun", "work_id": 68046, "role": "production company", "role_id": 941, "is_primary": true}], "also_known_as": "", "date_of_birth": null, "date_of_death": null, "genders": [], "languages": [], "places_of_operation": [], "biography": "", "biography_author": null, "date_of_biography": null, "external_links": [], "uuid": "9c4836ed-4fce-4640-be8e-0b75dba82444", "source": {"name": "Vernon", "slug": "vernon"}, "source_identifier": "10994", "external_references": [], "date_modified": "2025-03-12T01:16:29.664823+11:00"}, {"id": 15291, "name": "British Pathe News", "roles_in_work": [{"id": 859273, "title": "Tanganyika: new nation", "work_id": 73503, "role": "production company", "role_id": 941, "is_primary": true}, {"id": 2714648, "title": "Ghana greets the Queen", "work_id": 68043, "role": "production company", "role_id": 941, "is_primary": true}, {"id": 2403091, "title": "Britain welcomes the President of India", "work_id": 90626, "role": "production company", "role_id": 941, "is_primary": true}, {"id": 858402, "title": "Sierra Leone greets the Queen", "work_id": 72807, "role": "production company", "role_id": 941, "is_primary": true}, {"id": 876505, "title": "The Gambia greets the Queen", "work_id": 90120, "role": "production company", "role_id": 941, "is_primary": true}], "also_known_as": "", "date_of_birth": "", "date_of_death": "", "genders": [], "languages": [], "places_of_operation": [], "biography": "", "biography_author": null, "date_of_biography": "2023-08-11T17:01:57.801615+10:00", "external_links": [], "uuid": "db49c1c5-11a7-4841-b0f8-37478f6b20ee", "source": {"name": "Vernon", "slug": "vernon"}, "source_identifier": "6047", "external_references": [], "date_modified": "2025-03-12T01:16:28.781046+11:00"}, {"id": 15290, "name": "Guy Haselton", "roles_in_work": [{"id": 1814781, "title": "Maya of Ancient and Modern Yucatan", "work_id": 70221, "role": "producer", "role_id": 1089, "is_primary": true}, {"id": 2714644, "title": "Geyser melodies", "work_id": 68041, "role": "producer", "role_id": 1089, "is_primary": true}], "also_known_as": "", "date_of_birth": "", "date_of_death": "", "genders": [], "languages": [], "places_of_operation": [], "biography": "", "biography_author": null, "date_of_biography": "2023-08-11T17:01:53.480389+10:00", "external_links": [], "uuid": "e16286e7-2c2f-4a71-b9ef-5f882b7889d4", "source": {"name": "Vernon", "slug": "vernon"}, "source_identifier": "20140", "external_references": [], "date_modified": "2025-03-12T01:16:23.688060+11:00"}, {"id": 15289, "name": "Guy O Hasleton Productions", "roles_in_work": [{"id": 2714643, "title": "Geyser melodies", "work_id": 68041, "role": "production company", "role_id": 941, "is_primary": true}], "also_known_as": "", "date_of_birth": "", "date_of_death": "", "genders": [], "languages": [], "places_of_operation": [], "biography": "", "biography_author": null, "date_of_biography": "2023-08-11T17:01:52.849325+10:00", "external_links": [], "uuid": "e1c96322-00a5-4267-813c-18c5fb29e1e3", "source": {"name": "Vernon", "slug": "vernon"}, "source_identifier": "8945", "external_references": [], "date_modified": "2025-03-12T01:16:22.997841+11:00"}, {"id": 15287, "name": "Spectacular Associates", "roles_in_work": [{"id": 2714639, "title": "Getting through", "work_id": 68038, "role": "production company", "role_id": 941, "is_primary": true}], "also_known_as": "", "date_of_birth": "", "date_of_death": "", "genders": [], "languages": [], "places_of_operation": [], "biography": "", "biography_author": null, "date_of_biography": "2023-08-11T17:01:39.387634+10:00", "external_links": [], "uuid": "142a502f-b49b-4208-a853-4612f7a4ad7e", "source": {"name": "Vernon", "slug": "vernon"}, "source_identifier": "12837", "external_references": [], "date_modified": "2025-03-12T01:16:19.969686+11:00"}, {"id": 15286, "name": "Ronald Smedley", "roles_in_work": [{"id": 2764792, "title": "Three looms waiting (TEFC)", "work_id": 79666, "role": "producer", "role_id": 1089, "is_primary": true}, {"id": 2764798, "title": "Three looms waiting", "work_id": 71086, "role": "producer", "role_id": 1089, "is_primary": true}, {"id": 2714634, "title": "Getting married", "work_id": 68035, "role": "producer", "role_id": 1089, "is_primary": true}, {"id": 2716142, "title": "Improvised drama. No.1", "work_id": 68803, "role": "producer", "role_id": 1089, "is_primary": true}, {"id": 2716144, "title": "Improvised drama. No.2", "work_id": 68804, "role": "producer", "role_id": 1089, "is_primary": true}, {"id": 2756410, "title": "Last bus", "work_id": 69511, "role": "producer", "role_id": 1089, "is_primary": true}, {"id": 2756415, "title": "The Sentence of the court", "work_id": 72668, "role": "producer", "role_id": 1089, "is_primary": true}], "also_known_as": "", "date_of_birth": "", "date_of_death": "", "genders": [], "languages": [], "places_of_operation": [], "biography": "", "biography_author": null, "date_of_biography": "2023-05-09T19:58:28.038982+10:00", "external_links": [], "uuid": "623ea361-dcfa-4d95-bb3a-933d7c99dab0", "source": {"name": "Vernon", "slug": "vernon"}, "source_identifier": "28216", "external_references": [{"id": 40994, "source": {"name": "Wikidata", "slug": "wikidata"}, "source_identifier": "Q121091274"}], "date_modified": "2025-03-14T17:47:32.667708+11:00"}]}