{"count": 28683, "next": "https://api.acmi.net.au/creators/?page=588", "previous": "https://api.acmi.net.au/creators/?page=586", "results": [{"id": 79709, "name": "Frank Paul Muscolino", "roles_in_work": [{"id": 2212999, "title": "Eagles on the ranges (Aquila audax)", "work_id": 92138, "role": "producer/director", "role_id": 31, "is_primary": true}], "also_known_as": "", "date_of_birth": "", "date_of_death": "", "genders": [], "languages": [], "places_of_operation": [], "biography": "", "biography_author": null, "date_of_biography": "2023-05-09T15:49:30.282520+10:00", "external_links": [], "uuid": "ce5cc5f0-4785-4c32-9229-427051723ebe", "source": {"name": "Vernon", "slug": "vernon"}, "source_identifier": "19156", "external_references": [{"id": 51955, "source": {"name": "Wikidata", "slug": "wikidata"}, "source_identifier": "Q121360769"}], "date_modified": "2023-09-05T19:50:38.708498+10:00"}, {"id": 79708, "name": "Ross McElwee", "roles_in_work": [{"id": 2298131, "title": "Sherman's march: a meditation on the possibility of romantic love in the South during an era of nuclear weapons proliferation", "work_id": 92133, "role": "producer/director", "role_id": 31, "is_primary": true}], "also_known_as": "", "date_of_birth": "", "date_of_death": "", "genders": [], "languages": [], "places_of_operation": [], "biography": "", "biography_author": null, "date_of_biography": "2023-05-09T18:31:30.996837+10:00", "external_links": [], "uuid": "bab89199-8132-4ad9-9abb-e130e4663b6a", "source": {"name": "Vernon", "slug": "vernon"}, "source_identifier": "28277", "external_references": [{"id": 51426, "source": {"name": "Wikidata", "slug": "wikidata"}, "source_identifier": "Q121360912"}], "date_modified": "2023-09-06T00:56:52.442103+10:00"}, {"id": 79707, "name": "John Brumpton", "roles_in_work": [{"id": 2300308, "title": "Silent Number", "work_id": 92095, "role": "cast", "role_id": 33, "is_primary": false}], "also_known_as": "", "date_of_birth": "1958-07-28", "date_of_death": "", "genders": [{"id": 9, "name": "Male", "slug": "male"}], "languages": [], "places_of_operation": [{"id": 3, "name": "Australia", "slug": "australia"}], "biography": "John Brumpton (born 28 July 1958) is an Australian actor who has appeared in a large number of local productions.", "biography_author": "Wikidata", "date_of_biography": "2023-09-05T21:33:21.722527+10:00", "external_links": [{"id": 5920, "uri": "https://en.wikipedia.org/wiki/John_Brumpton"}], "uuid": "98dca381-c91a-4d4b-b039-657b56eb157c", "source": {"name": "Vernon", "slug": "vernon"}, "source_identifier": "32276", "external_references": [{"id": 51161, "source": {"name": "Wikidata", "slug": "wikidata"}, "source_identifier": "Q16201074"}, {"id": 54865, "source": {"name": "VIAF", "slug": "viaf"}, "source_identifier": "7095156565703623500003"}, {"id": 54866, "source": {"name": "WorldCat", "slug": "worldcat"}, "source_identifier": "viaf-7095156565703623500003"}], "date_modified": "2023-09-05T21:33:21.743223+10:00"}, {"id": 79706, "name": "Bronwyn Jones", "roles_in_work": [{"id": 2300303, "title": "Silent Number", "work_id": 92095, "role": "cast", "role_id": 33, "is_primary": false}], "also_known_as": "", "date_of_birth": "", "date_of_death": "", "genders": [], "languages": [], "places_of_operation": [], "biography": "", "biography_author": null, "date_of_biography": "2023-05-09T18:35:29.962919+10:00", "external_links": [], "uuid": "04ef9408-9cec-44d5-aecf-ae180ee43359", "source": {"name": "Vernon", "slug": "vernon"}, "source_identifier": "34496", "external_references": [{"id": 42440, "source": {"name": "Wikidata", "slug": "wikidata"}, "source_identifier": "Q121299502"}], "date_modified": "2023-09-05T18:12:05.786981+10:00"}, {"id": 79705, "name": "S A Department for the Arts", "roles_in_work": [{"id": 2348510, "title": "The Ferrara poems", "work_id": 92093, "role": "production company", "role_id": 941, "is_primary": true}], "also_known_as": "", "date_of_birth": "", "date_of_death": "", "genders": [], "languages": [], "places_of_operation": [], "biography": "", "biography_author": null, "date_of_biography": "2023-05-09T19:52:08.685604+10:00", "external_links": [], "uuid": "b2c68a76-7b33-46d9-96f8-3de5822b73c3", "source": {"name": "Vernon", "slug": "vernon"}, "source_identifier": "12200", "external_references": [{"id": 42183, "source": {"name": "Wikidata", "slug": "wikidata"}, "source_identifier": "Q121223205"}], "date_modified": "2023-09-06T01:00:22.280868+10:00"}, {"id": 79704, "name": "Mark Forstmann", "roles_in_work": [{"id": 2214314, "title": "Eat your greens", "work_id": 92080, "role": "producer/director", "role_id": 31, "is_primary": true}], "also_known_as": "", "date_of_birth": "", "date_of_death": "", "genders": [], "languages": [], "places_of_operation": [], "biography": "", "biography_author": null, "date_of_biography": "2023-05-09T15:51:56.050191+10:00", "external_links": [], "uuid": "9461a76b-5e4b-4103-99bd-4c51ab6faf69", "source": {"name": "Vernon", "slug": "vernon"}, "source_identifier": "24490", "external_references": [{"id": 51232, "source": {"name": "Wikidata", "slug": "wikidata"}, "source_identifier": "Q121361437"}], "date_modified": "2023-09-05T22:45:45.674282+10:00"}, {"id": 79703, "name": "Andrew Schultz", "roles_in_work": [{"id": 2342774, "title": "The Descent", "work_id": 92072, "role": "director", "role_id": 938, "is_primary": true}], "also_known_as": "", "date_of_birth": "", "date_of_death": "", "genders": [], "languages": [], "places_of_operation": [], "biography": "", "biography_author": null, "date_of_biography": "2023-05-09T19:42:23.394467+10:00", "external_links": [], "uuid": "13c82500-1a9a-461e-bab9-0045f90a82c0", "source": {"name": "Vernon", "slug": "vernon"}, "source_identifier": "15211", "external_references": [{"id": 36796, "source": {"name": "Wikidata", "slug": "wikidata"}, "source_identifier": "Q121079231"}], "date_modified": "2023-09-05T17:36:53.993964+10:00"}, {"id": 79702, "name": "Ian Hansbrough", "roles_in_work": [{"id": 911314, "title": "Hollywood 10, Melbourne 1 = Hollywood ten, Melbourne one", "work_id": 92069, "role": "co-producer", "role_id": 915, "is_primary": true}], "also_known_as": "", "date_of_birth": null, "date_of_death": null, "genders": [], "languages": [], "places_of_operation": [], "biography": "", "biography_author": null, "date_of_biography": null, "external_links": [], "uuid": "8eb15e71-909a-4a0b-8a54-ba7d94b55f41", "source": {"name": "Vernon", "slug": "vernon"}, "source_identifier": null, "external_references": [{"id": 36967, "source": {"name": "Wikidata", "slug": "wikidata"}, "source_identifier": "Q121091475"}], "date_modified": "2023-09-05T20:46:02.489099+10:00"}, {"id": 79701, "name": "Alan Lovell", "roles_in_work": [{"id": 2357797, "title": "The Kiss", "work_id": 92067, "role": "producer/director", "role_id": 31, "is_primary": true}], "also_known_as": "", "date_of_birth": "", "date_of_death": "", "genders": [], "languages": [], "places_of_operation": [], "biography": "", "biography_author": null, "date_of_biography": "2023-05-09T20:06:43.413150+10:00", "external_links": [], "uuid": "e623d12c-a882-4afb-adf4-4ee468da5e69", "source": {"name": "Vernon", "slug": "vernon"}, "source_identifier": "14778", "external_references": [{"id": 51828, "source": {"name": "Wikidata", "slug": "wikidata"}, "source_identifier": "Q121361455"}], "date_modified": "2023-09-05T17:20:42.103700+10:00"}, {"id": 79700, "name": "Robert Carter", "roles_in_work": [{"id": 810119, "title": "Kid in a bin", "work_id": 92065, "role": "director", "role_id": 938, "is_primary": true}], "also_known_as": "", "date_of_birth": null, "date_of_death": null, "genders": [{"id": 9, "name": "Male", "slug": "male"}], "languages": [], "places_of_operation": [], "biography": "", "biography_author": null, "date_of_biography": null, "external_links": [], "uuid": "ba53a5e9-8ef2-4a89-a28b-283030973792", "source": {"name": "Vernon", "slug": "vernon"}, "source_identifier": null, "external_references": [{"id": 35813, "source": {"name": "Wikidata", "slug": "wikidata"}, "source_identifier": "Q115244779"}], "date_modified": "2023-09-06T00:40:08.459451+10:00"}]}