{"count": 28687, "next": "https://api.acmi.net.au/creators/?page=2721", "previous": "https://api.acmi.net.au/creators/?page=2719", "results": [{"id": 11161, "name": "Melissa Johnston", "roles_in_work": [{"id": 2640311, "title": "Into the night", "work_id": 110287, "role": "producer", "role_id": 1089, "is_primary": true}], "also_known_as": "", "date_of_birth": "", "date_of_death": "", "genders": [], "languages": [], "places_of_operation": [], "biography": "", "biography_author": null, "date_of_biography": "2023-05-09T16:38:31.336903+10:00", "external_links": [], "uuid": "2c54d11b-1ecf-482b-a669-c254cc95ed85", "source": {"name": "Vernon", "slug": "vernon"}, "source_identifier": "2879", "external_references": [{"id": 34269, "source": {"name": "Wikidata", "slug": "wikidata"}, "source_identifier": "Q121337616"}], "date_modified": "2025-03-05T11:27:14.630369+11:00"}, {"id": 11160, "name": "Warwick Burton", "roles_in_work": [{"id": 2640347, "title": "Turn me on: the history of the vibrator", "work_id": 110286, "role": "producer", "role_id": 1089, "is_primary": true}], "also_known_as": "", "date_of_birth": "", "date_of_death": "", "genders": [], "languages": [], "places_of_operation": [], "biography": "", "biography_author": null, "date_of_biography": "2023-05-09T16:38:33.707723+10:00", "external_links": [], "uuid": "78472a42-5d14-4247-97c6-3ebefa37589d", "source": {"name": "Vernon", "slug": "vernon"}, "source_identifier": "2877", "external_references": [{"id": 35424, "source": {"name": "Wikidata", "slug": "wikidata"}, "source_identifier": "Q121270900"}], "date_modified": "2025-03-05T11:27:27.558918+11:00"}, {"id": 11159, "name": "Catherine Chauchat", "roles_in_work": [{"id": 2640345, "title": "Turn me on: the history of the vibrator", "work_id": 110286, "role": "director", "role_id": 938, "is_primary": true}], "also_known_as": "", "date_of_birth": "", "date_of_death": "", "genders": [], "languages": [], "places_of_operation": [], "biography": "", "biography_author": null, "date_of_biography": "2023-05-09T16:38:33.477906+10:00", "external_links": [], "uuid": "71a8fb55-4cda-4752-896d-0973ccf1f89b", "source": {"name": "Vernon", "slug": "vernon"}, "source_identifier": "2876", "external_references": [{"id": 36087, "source": {"name": "Wikidata", "slug": "wikidata"}, "source_identifier": "Q121091327"}], "date_modified": "2025-03-05T11:27:26.980607+11:00"}, {"id": 11158, "name": "Heather Ellis", "roles_in_work": [{"id": 2638449, "title": "Being positive", "work_id": 110285, "role": "creator", "role_id": 968, "is_primary": true}], "also_known_as": "", "date_of_birth": "", "date_of_death": "", "genders": [], "languages": [], "places_of_operation": [], "biography": "", "biography_author": null, "date_of_biography": "2023-05-09T19:56:31.069950+10:00", "external_links": [], "uuid": "32786724-3fef-49fc-bf49-54858d1370e9", "source": {"name": "Vernon", "slug": "vernon"}, "source_identifier": "2871", "external_references": [], "date_modified": "2025-03-05T11:06:48.802675+11:00"}, {"id": 11157, "name": "Yvonne Kyriakos", "roles_in_work": [{"id": 2638387, "title": "Qesa story", "work_id": 110284, "role": "creator", "role_id": 968, "is_primary": true}], "also_known_as": "", "date_of_birth": "", "date_of_death": "", "genders": [], "languages": [], "places_of_operation": [], "biography": "", "biography_author": null, "date_of_biography": "2023-05-09T19:40:16.881517+10:00", "external_links": [], "uuid": "da05f109-2471-4c5e-899c-dea2f2e42366", "source": {"name": "Vernon", "slug": "vernon"}, "source_identifier": "2870", "external_references": [], "date_modified": "2025-03-05T11:06:01.572296+11:00"}, {"id": 11156, "name": "Mary Hoth", "roles_in_work": [{"id": 2638375, "title": "The Cows of Sudan", "work_id": 110283, "role": "creator", "role_id": 968, "is_primary": true}], "also_known_as": "", "date_of_birth": "", "date_of_death": "", "genders": [], "languages": [], "places_of_operation": [], "biography": "", "biography_author": null, "date_of_biography": "2023-05-09T19:40:26.520403+10:00", "external_links": [], "uuid": "a390d20b-669a-4ee6-8a2a-d376cf4bfb5f", "source": {"name": "Vernon", "slug": "vernon"}, "source_identifier": "2869", "external_references": [], "date_modified": "2025-03-05T11:05:53.794564+11:00"}, {"id": 11155, "name": "Narjiic Day-Burns", "roles_in_work": [{"id": 2638947, "title": "Warriors and dancers", "work_id": 110280, "role": "creator", "role_id": 968, "is_primary": true}], "also_known_as": "", "date_of_birth": "", "date_of_death": "", "genders": [], "languages": [], "places_of_operation": [], "biography": "", "biography_author": null, "date_of_biography": "2023-07-05T03:45:17.811437+10:00", "external_links": [], "uuid": "a0d9f7d2-3099-4aa2-8567-159b55db0cb5", "source": {"name": "Vernon", "slug": "vernon"}, "source_identifier": "2863", "external_references": [], "date_modified": "2025-03-05T11:12:12.896442+11:00"}, {"id": 11154, "name": "George Nelson", "roles_in_work": [{"id": 2638951, "title": "Yorta Yorta: the river people of the Murray 'Tongola'", "work_id": 110279, "role": "creator", "role_id": 968, "is_primary": true}], "also_known_as": "", "date_of_birth": "", "date_of_death": "", "genders": [], "languages": [], "places_of_operation": [], "biography": "", "biography_author": null, "date_of_biography": "2023-05-09T20:08:52.851022+10:00", "external_links": [], "uuid": "3b1e7ec7-f158-48cf-82ed-a988425441cc", "source": {"name": "Vernon", "slug": "vernon"}, "source_identifier": "2862", "external_references": [], "date_modified": "2025-03-05T11:12:15.838800+11:00"}, {"id": 11153, "name": "Clive Atkinson", "roles_in_work": [{"id": 2638939, "title": "The Land is your mother", "work_id": 110277, "role": "creator", "role_id": 968, "is_primary": true}], "also_known_as": "", "date_of_birth": "", "date_of_death": "", "genders": [], "languages": [], "places_of_operation": [], "biography": "", "biography_author": null, "date_of_biography": "2023-05-09T20:08:54.659580+10:00", "external_links": [], "uuid": "dde6c015-3b35-42b6-9a26-fdd7378519a5", "source": {"name": "Vernon", "slug": "vernon"}, "source_identifier": "2859", "external_references": [], "date_modified": "2025-03-05T11:12:06.192745+11:00"}, {"id": 11152, "name": "Bidja Atkinson", "roles_in_work": [{"id": 2638918, "title": "Bidja", "work_id": 110276, "role": "creator", "role_id": 968, "is_primary": true}, {"id": 2638919, "title": "Bidja", "work_id": 110276, "role": "music", "role_id": 949, "is_primary": false}], "also_known_as": "", "date_of_birth": "", "date_of_death": "", "genders": [], "languages": [], "places_of_operation": [], "biography": "", "biography_author": null, "date_of_biography": "2023-05-09T20:08:45.766081+10:00", "external_links": [], "uuid": "505454a8-239f-4dfc-88eb-295334b1dede", "source": {"name": "Vernon", "slug": "vernon"}, "source_identifier": "2858", "external_references": [{"id": 52105, "source": {"name": "Wikidata", "slug": "wikidata"}, "source_identifier": "Q121361408"}], "date_modified": "2025-03-05T11:11:51.490677+11:00"}]}