{"count": 28687, "next": "https://api.acmi.net.au/creators/?page=2466", "previous": "https://api.acmi.net.au/creators/?page=2464", "results": [{"id": 14335, "name": "Arthur Hiller", "roles_in_work": [{"id": 2182777, "title": "Outrageous fortune", "work_id": 95056, "role": "director", "role_id": 938, "is_primary": true}, {"id": 2766574, "title": "The Dehumanizing city...and Hymie Schultz", "work_id": 66687, "role": "director", "role_id": 938, "is_primary": true}, {"id": 3086736, "title": "The Man in the glass booth", "work_id": 95191, "role": "director", "role_id": 938, "is_primary": true}, {"id": 1988371, "title": "Love story", "work_id": 84589, "role": "director", "role_id": 938, "is_primary": true}], "also_known_as": "", "date_of_birth": "1923", "date_of_death": "2016-08-17", "genders": [{"id": 9, "name": "Male", "slug": "male"}], "languages": [{"id": 1, "name": "English", "slug": "english"}], "places_of_operation": [{"id": 36, "name": "Canada", "slug": "canada"}], "biography": "Arthur Hiller,  (November 22, 1923 – August 17, 2016) was a Canadian-American television and film director with over 33 films to his credit during a 50-year career. He began his career directing television in Canada and later in the U.S. By the late 1950s he began directing films, most often comedies. He also directed dramas and romantic subjects, such as Love Story (1970), which was nominated for seven Oscars.\nHiller collaborated on films with screenwriters Paddy Chayefsky and Neil Simon. Among his other films were The Americanization of Emily (1964), Tobruk (1967), The Hospital (1971), The Out-of-Towners (1970), Plaza Suite (1971), The Man in the Glass Booth (1975), Silver Streak (1976), The In-Laws (1979) and Outrageous Fortune (1987).\nHiller served as president of the Directors Guild of America from 1989 to 1993 and president of the Academy of Motion Picture Arts and Sciences from 1993 to 1997. He was the recipient of the Jean Hersholt Humanitarian Award in 2002. An annual film festival in Hiller's honor was held from 2006 until 2009 at his alma mater, Victoria School of Performing and Visual Arts.", "biography_author": "Wikidata", "date_of_biography": "2022-05-19T10:52:51.103038+10:00", "external_links": [{"id": 1684, "uri": "https://en.wikipedia.org/wiki/Arthur_Hiller"}], "uuid": "b3f30c4c-da4f-49cc-bd26-003904c501a0", "source": {"name": "Vernon", "slug": "vernon"}, "source_identifier": "15539", "external_references": [{"id": 7345, "source": {"name": "Wikidata", "slug": "wikidata"}, "source_identifier": "Q455043"}, {"id": 7346, "source": {"name": "VIAF", "slug": "viaf"}, "source_identifier": "81346519"}, {"id": 7347, "source": {"name": "LOC Auth", "slug": "loc-auth"}, "source_identifier": "n88650802"}, {"id": 7348, "source": {"name": "WorldCat", "slug": "worldcat"}, "source_identifier": "lccn-n88650802"}], "date_modified": "2025-03-17T10:45:45.908956+11:00"}, {"id": 14334, "name": "George Justin", "roles_in_work": [{"id": 2766573, "title": "The Dehumanizing city...and Hymie Schultz", "work_id": 66687, "role": "producer", "role_id": 1089, "is_primary": true}], "also_known_as": "", "date_of_birth": null, "date_of_death": null, "genders": [], "languages": [], "places_of_operation": [], "biography": "", "biography_author": null, "date_of_biography": null, "external_links": [], "uuid": "cbdf34bd-2d3c-4c15-8120-3723a346f016", "source": {"name": "Vernon", "slug": "vernon"}, "source_identifier": "19621", "external_references": [], "date_modified": "2025-03-14T17:58:46.559376+11:00"}, {"id": 14333, "name": "Colombia Pictures", "roles_in_work": [{"id": 2122590, "title": "Bottle rocket", "work_id": 93405, "role": "production company", "role_id": 941, "is_primary": true}, {"id": 2766569, "title": "The Dehumanizing city...and Hymie Schultz", "work_id": 66687, "role": "production company", "role_id": 941, "is_primary": true}, {"id": 1995229, "title": "Gilda [DVD]", "work_id": 91246, "role": "production company", "role_id": 941, "is_primary": true}], "also_known_as": "", "date_of_birth": "", "date_of_death": "", "genders": [], "languages": [], "places_of_operation": [], "biography": "", "biography_author": null, "date_of_biography": "2023-05-09T13:06:00.836926+10:00", "external_links": [], "uuid": "01be8eea-f996-4c3b-b43d-19a8d31a9e88", "source": {"name": "Vernon", "slug": "vernon"}, "source_identifier": "6883", "external_references": [], "date_modified": "2025-03-14T17:58:45.405410+11:00"}, {"id": 14332, "name": "Skira-Flag Films", "roles_in_work": [{"id": 2711917, "title": "Degas", "work_id": 66686, "role": "production company", "role_id": 941, "is_primary": true}], "also_known_as": "", "date_of_birth": null, "date_of_death": null, "genders": [], "languages": [], "places_of_operation": [], "biography": "", "biography_author": null, "date_of_biography": null, "external_links": [], "uuid": "79bae180-1a08-4ebf-a6e6-f7d7fb2e8e65", "source": {"name": "Vernon", "slug": "vernon"}, "source_identifier": "12630", "external_references": [], "date_modified": "2025-03-12T00:06:13.240466+11:00"}, {"id": 14331, "name": "Andre Gillet", "roles_in_work": [{"id": 2714320, "title": "From Doric to Gothic", "work_id": 67849, "role": "director", "role_id": 938, "is_primary": true}, {"id": 2711912, "title": "Defense of peace", "work_id": 66682, "role": "director", "role_id": 938, "is_primary": true}], "also_known_as": "", "date_of_birth": "", "date_of_death": "", "genders": [], "languages": [], "places_of_operation": [], "biography": "", "biography_author": null, "date_of_biography": "2023-08-11T16:49:58.048465+10:00", "external_links": [], "uuid": "99362009-8b9f-4e89-9917-079c467b7bf2", "source": {"name": "Vernon", "slug": "vernon"}, "source_identifier": "15101", "external_references": [], "date_modified": "2025-03-12T01:06:08.522210+11:00"}, {"id": 14330, "name": "Marcel De Hubsch", "roles_in_work": [{"id": 2714319, "title": "From Doric to Gothic", "work_id": 67849, "role": "producer", "role_id": 1089, "is_primary": true}, {"id": 2711911, "title": "Defense of peace", "work_id": 66682, "role": "producer", "role_id": 1089, "is_primary": true}, {"id": 2405786, "title": "Defence of Peace", "work_id": 71910, "role": "producer", "role_id": 1089, "is_primary": true}], "also_known_as": "", "date_of_birth": "", "date_of_death": "", "genders": [], "languages": [], "places_of_operation": [], "biography": "", "biography_author": null, "date_of_biography": "2023-08-11T16:49:57.413767+10:00", "external_links": [], "uuid": "e7e18509-971f-455d-969a-088db78d931f", "source": {"name": "Vernon", "slug": "vernon"}, "source_identifier": "24302", "external_references": [], "date_modified": "2025-03-12T01:06:07.951226+11:00"}, {"id": 14329, "name": "Atlantic-Film", "roles_in_work": [{"id": 2711909, "title": "Defense of peace", "work_id": 66682, "role": "production company", "role_id": 941, "is_primary": true}], "also_known_as": "", "date_of_birth": null, "date_of_death": null, "genders": [], "languages": [], "places_of_operation": [], "biography": "", "biography_author": null, "date_of_biography": null, "external_links": [], "uuid": "1c163f05-bf0a-4d16-bfaa-b1c47c9beff4", "source": {"name": "Vernon", "slug": "vernon"}, "source_identifier": "5499", "external_references": [], "date_modified": "2025-03-12T00:06:05.735078+11:00"}, {"id": 14328, "name": "Glaxo Laboratories", "roles_in_work": [{"id": 2711907, "title": "Defence against poliomyelitis", "work_id": 66681, "role": "production company", "role_id": 941, "is_primary": true}], "also_known_as": "", "date_of_birth": null, "date_of_death": null, "genders": [], "languages": [], "places_of_operation": [], "biography": "", "biography_author": null, "date_of_biography": null, "external_links": [], "uuid": "e8f1d140-c33d-45d1-a278-f86a7ded4a3f", "source": {"name": "Vernon", "slug": "vernon"}, "source_identifier": "8742", "external_references": [], "date_modified": "2025-03-12T00:06:04.306689+11:00"}, {"id": 14327, "name": "H.M. Nieter", "roles_in_work": [{"id": 2715717, "title": "Houses in history", "work_id": 68579, "role": "director", "role_id": 938, "is_primary": true}, {"id": 2711906, "title": "Defeat tuberculosis", "work_id": 66680, "role": "director", "role_id": 938, "is_primary": true}, {"id": 877979, "title": "Blood transfusion", "work_id": 91011, "role": "director", "role_id": 938, "is_primary": true}, {"id": 1815504, "title": "New beginning", "work_id": 89395, "role": "producer", "role_id": 1089, "is_primary": true}, {"id": 2415674, "title": "Mass radiography", "work_id": 70182, "role": "producer", "role_id": 1089, "is_primary": true}, {"id": 2406211, "title": "Dinner at school", "work_id": 89319, "role": "producer/director", "role_id": 31, "is_primary": true}], "also_known_as": "", "date_of_birth": "", "date_of_death": "", "genders": [], "languages": [], "places_of_operation": [], "biography": "", "biography_author": null, "date_of_biography": "2023-08-11T19:43:59.678997+10:00", "external_links": [], "uuid": "dec73c0d-3a79-4035-a3fb-ccd51d117b5e", "source": {"name": "Vernon", "slug": "vernon"}, "source_identifier": "4441", "external_references": [], "date_modified": "2025-03-12T01:40:52.701304+11:00"}, {"id": 14326, "name": "Seven-League Productions", "roles_in_work": [{"id": 2711904, "title": "Defeat tuberculosis", "work_id": 66680, "role": "production company", "role_id": 941, "is_primary": true}], "also_known_as": "", "date_of_birth": null, "date_of_death": null, "genders": [], "languages": [], "places_of_operation": [], "biography": "", "biography_author": null, "date_of_biography": null, "external_links": [], "uuid": "66daf3b4-b670-41cf-a902-725d9cef5c11", "source": {"name": "Vernon", "slug": "vernon"}, "source_identifier": "12474", "external_references": [], "date_modified": "2025-03-12T00:06:02.230635+11:00"}]}