{"count": 28681, "next": "https://api.acmi.net.au/creators/?page=2458", "previous": "https://api.acmi.net.au/creators/?page=2456", "results": [{"id": 14426, "name": "Thomas Smith", "roles_in_work": [{"id": 887991, "title": "Energy: new sources. - 2nd ed.", "work_id": 97953, "role": "director", "role_id": 938, "is_primary": true}, {"id": 826425, "title": "The Lemonade stand: what's fair?", "work_id": 96340, "role": "director", "role_id": 938, "is_primary": true}, {"id": 887988, "title": "Energy: less is more. - 2nd ed.", "work_id": 97952, "role": "director", "role_id": 938, "is_primary": true}, {"id": 2749713, "title": "Reflections: a Japanese folk tale", "work_id": 96936, "role": "director", "role_id": 938, "is_primary": true}, {"id": 1848266, "title": "Jim Henson's Jack and the beanstalk: the real story", "work_id": 92837, "role": "co-producer", "role_id": 915, "is_primary": true}, {"id": 2749048, "title": "Newspaper story. - 2nd ed.", "work_id": 96612, "role": "producer", "role_id": 1089, "is_primary": true}, {"id": 2644549, "title": "Discovering the forest", "work_id": 66810, "role": "producer", "role_id": 1089, "is_primary": true}, {"id": 3088542, "title": "Learning about electric current. - 2nd ed.", "work_id": 96758, "role": "producer", "role_id": 1089, "is_primary": true}, {"id": 3088547, "title": "Learning about magnetism. - 2nd ed.", "work_id": 96759, "role": "producer", "role_id": 1089, "is_primary": true}, {"id": 3088550, "title": "Learning about sound. - 2nd ed.", "work_id": 96760, "role": "producer", "role_id": 1089, "is_primary": true}, {"id": 2750350, "title": "Milk: from farm to you. - 3rd ed.", "work_id": 97273, "role": "producer", "role_id": 1089, "is_primary": true}, {"id": 2749369, "title": "Pandas: a gift from China", "work_id": 96768, "role": "producer", "role_id": 1089, "is_primary": true}, {"id": 2749780, "title": "Learning about light. - 2nd ed.", "work_id": 96973, "role": "producer", "role_id": 1089, "is_primary": true}, {"id": 2779546, "title": "Food from the sun", "work_id": 95973, "role": "producer", "role_id": 1089, "is_primary": true}, {"id": 2751235, "title": "Solar energy: how it works", "work_id": 97715, "role": "producer/director", "role_id": 31, "is_primary": true}, {"id": 2750265, "title": "Golden lizard: a folktale from Mexico", "work_id": 97225, "role": "producer/director", "role_id": 31, "is_primary": true}, {"id": 777713, "title": "Investigating hibernation: the golden-mantled ground squirrel", "work_id": 82100, "role": "producer/director", "role_id": 31, "is_primary": true}, {"id": 828461, "title": "The Solar system. - 2nd ed.", "work_id": 97233, "role": "producer/director", "role_id": 31, "is_primary": true}, {"id": 2760551, "title": "Noise: polluting the environment", "work_id": 70946, "role": "producer/director", "role_id": 31, "is_primary": true}, {"id": 745200, "title": "Introduction to the cathode ray oscilloscope", "work_id": 69066, "role": "producer/director", "role_id": 31, "is_primary": true}, {"id": 745170, "title": "Introduction to holography", "work_id": 69053, "role": "producer/director", "role_id": 31, "is_primary": true}, {"id": 828642, "title": "First aid and safety: poisoning", "work_id": 97323, "role": "producer/director", "role_id": 31, "is_primary": true}], "also_known_as": "", "date_of_birth": "", "date_of_death": "", "genders": [], "languages": [], "places_of_operation": [], "biography": "", "biography_author": null, "date_of_biography": "2023-05-09T18:02:07.077504+10:00", "external_links": [], "uuid": "c600daaf-6e83-4f3b-8c07-0513aa02f59d", "source": {"name": "Vernon", "slug": "vernon"}, "source_identifier": "29682", "external_references": [{"id": 35844, "source": {"name": "Wikidata", "slug": "wikidata"}, "source_identifier": "Q121034208"}], "date_modified": "2025-03-17T10:55:31.207525+11:00"}, {"id": 14425, "name": "Jack Stoops", "roles_in_work": [{"id": 2644547, "title": "Discovering texture (TEFC)", "work_id": 66809, "role": "co-producer", "role_id": 915, "is_primary": true}, {"id": 2750801, "title": "Discovering color. - Rev. ed.", "work_id": 97513, "role": "co-producer", "role_id": 915, "is_primary": true}, {"id": 2406618, "title": "Educated eye", "work_id": 96347, "role": "producer", "role_id": 1089, "is_primary": true}], "also_known_as": "", "date_of_birth": "", "date_of_death": "", "genders": [], "languages": [], "places_of_operation": [], "biography": "", "biography_author": null, "date_of_biography": "2023-08-11T16:18:00.104438+10:00", "external_links": [], "uuid": "987e096b-32dd-446a-b74e-f15eada95957", "source": {"name": "Vernon", "slug": "vernon"}, "source_identifier": "21098", "external_references": [], "date_modified": "2025-03-13T00:30:54.191135+11:00"}, {"id": 14423, "name": "Bernard Wilets", "roles_in_work": [{"id": 2644551, "title": "Discovering the music of Japan", "work_id": 66811, "role": "director", "role_id": 938, "is_primary": true}, {"id": 886050, "title": "Discovering the music of Japan (TEFC)", "work_id": 95539, "role": "director", "role_id": 938, "is_primary": true}, {"id": 2749854, "title": "Discovering American folk music", "work_id": 97010, "role": "director", "role_id": 938, "is_primary": true}, {"id": 1806814, "title": "Alexander and the terrible, horrible, no good, very bad day (K)", "work_id": 79970, "role": "producer", "role_id": 1089, "is_primary": true}, {"id": 2405042, "title": "Conservation and our forests", "work_id": 81836, "role": "producer", "role_id": 1089, "is_primary": true}, {"id": 2752901, "title": "What Mary Jo wanted", "work_id": 98506, "role": "producer", "role_id": 1089, "is_primary": true}, {"id": 2712137, "title": "Discovering electronic music (TEFC)", "work_id": 66802, "role": "producer/director", "role_id": 31, "is_primary": true}, {"id": 2712144, "title": "Discovering melody and harmony (TEFC)", "work_id": 66806, "role": "producer/director", "role_id": 31, "is_primary": true}, {"id": 760481, "title": "Man and the state: Machiavelli on political power", "work_id": 75840, "role": "producer/director", "role_id": 31, "is_primary": true}, {"id": 854967, "title": "Man and the state: the trial of Socrates", "work_id": 70078, "role": "producer/director", "role_id": 31, "is_primary": true}, {"id": 2712146, "title": "Discovering mood in music (TEFC)", "work_id": 66807, "role": "producer/director", "role_id": 31, "is_primary": true}, {"id": 2712142, "title": "Discovering jazz (TEFC)", "work_id": 66805, "role": "producer/director", "role_id": 31, "is_primary": true}], "also_known_as": "", "date_of_birth": "1928-03-19", "date_of_death": "2007-02-21", "genders": [{"id": 9, "name": "Male", "slug": "male"}], "languages": [], "places_of_operation": [], "biography": "", "biography_author": null, "date_of_biography": "2023-08-11T16:09:20.525269+10:00", "external_links": [], "uuid": "f53dd20b-21ff-48b0-9265-2933563c014f", "source": {"name": "Vernon", "slug": "vernon"}, "source_identifier": "15850", "external_references": [{"id": 37390, "source": {"name": "Wikidata", "slug": "wikidata"}, "source_identifier": "Q113806148"}, {"id": 54070, "source": {"name": "VIAF", "slug": "viaf"}, "source_identifier": "100834720"}, {"id": 54071, "source": {"name": "LOC Auth", "slug": "loc-auth"}, "source_identifier": "no2009153368"}], "date_modified": "2025-03-13T01:15:08.304694+11:00"}, {"id": 14422, "name": "Robert Raymond", "roles_in_work": [{"id": 2771770, "title": "Into the deep freeze", "work_id": 80440, "role": "director", "role_id": 938, "is_primary": true}, {"id": 2771776, "title": "The Cutting edge", "work_id": 80441, "role": "director", "role_id": 938, "is_primary": true}, {"id": 2771792, "title": "The Last horizon", "work_id": 80408, "role": "director", "role_id": 938, "is_primary": true}, {"id": 1426213, "title": "Life in the Desert", "work_id": 78807, "role": "director", "role_id": 938, "is_primary": true}, {"id": 2339962, "title": "The Coming of man", "work_id": 82134, "role": "co-producer", "role_id": 915, "is_primary": true}, {"id": 2771763, "title": "Road without wheels", "work_id": 80442, "role": "director", "role_id": 938, "is_primary": true}, {"id": 2771798, "title": "Man on the rim series", "work_id": 115164, "role": "director", "role_id": 938, "is_primary": true}, {"id": 2648422, "title": "Return to the dreaming (Captioned)", "work_id": 79120, "role": "producer", "role_id": 1089, "is_primary": true}, {"id": 2788824, "title": "From stone to bronze", "work_id": 98360, "role": "producer", "role_id": 1089, "is_primary": true}, {"id": 2788846, "title": "Out of the fiery furnace", "work_id": 115370, "role": "producer", "role_id": 1089, "is_primary": true}, {"id": 2788827, "title": "Swords and ploughshares", "work_id": 98361, "role": "producer", "role_id": 1089, "is_primary": true}, {"id": 2788831, "title": "Shining conquests", "work_id": 98362, "role": "producer", "role_id": 1089, "is_primary": true}, {"id": 2788834, "title": "Revolution of necessity", "work_id": 98363, "role": "producer", "role_id": 1089, "is_primary": true}, {"id": 2788837, "title": "Into the machine age", "work_id": 98364, "role": "producer", "role_id": 1089, "is_primary": true}, {"id": 2788840, "title": "From alchemy to the atom", "work_id": 98365, "role": "producer", "role_id": 1089, "is_primary": true}, {"id": 2788843, "title": "Age of metals: can it last?", "work_id": 98366, "role": "producer", "role_id": 1089, "is_primary": true}, {"id": 1804825, "title": "Out of the fiery furnace. Parts 6 and 7", "work_id": 78892, "role": "producer", "role_id": 1089, "is_primary": true}, {"id": 2181575, "title": "Out of the fiery furnace. Parts 4 and 5", "work_id": 78891, "role": "producer", "role_id": 1089, "is_primary": true}, {"id": 2181545, "title": "Out of the fiery furnace. Parts 1-3", "work_id": 78893, "role": "producer", "role_id": 1089, "is_primary": true}, {"id": 2339980, "title": "Return to the dreaming", "work_id": 82135, "role": "producer", "role_id": 1089, "is_primary": true}, {"id": 2339946, "title": "The Australian ark", "work_id": 115261, "role": "producer", "role_id": 1089, "is_primary": true}, {"id": 2712134, "title": "Discover Australia's national parks", "work_id": 66800, "role": "producer/director", "role_id": 31, "is_primary": true}, {"id": 857688, "title": "Return to life: artificial respiration", "work_id": 72187, "role": "producer/director", "role_id": 31, "is_primary": true}, {"id": 2788830, "title": "Shining conquests", "work_id": 98362, "role": "production company", "role_id": 941, "is_primary": true}], "also_known_as": "", "date_of_birth": "", "date_of_death": "", "genders": [], "languages": [], "places_of_operation": [], "biography": "", "biography_author": null, "date_of_biography": "2023-05-09T19:40:58.751739+10:00", "external_links": [], "uuid": "ab221fee-f3f5-497d-95fa-5dcb836d9b87", "source": {"name": "Vernon", "slug": "vernon"}, "source_identifier": "27853", "external_references": [{"id": 36042, "source": {"name": "Wikidata", "slug": "wikidata"}, "source_identifier": "Q121079353"}], "date_modified": "2025-03-14T19:46:44.423003+11:00"}, {"id": 14421, "name": "Opus Films", "roles_in_work": [{"id": 2346868, "title": "The End of the game", "work_id": 75548, "role": "production company", "role_id": 941, "is_primary": true}, {"id": 2339958, "title": "The Coming of man", "work_id": 82134, "role": "production company", "role_id": 941, "is_primary": true}, {"id": 865272, "title": "Out of the fiery furnace. Parts 6 and 7", "work_id": 78892, "role": "production company", "role_id": 941, "is_primary": true}, {"id": 760580, "title": "See", "work_id": 75879, "role": "production company", "role_id": 941, "is_primary": true}, {"id": 1426212, "title": "Life in the Desert", "work_id": 78807, "role": "production company", "role_id": 941, "is_primary": true}, {"id": 2788839, "title": "From alchemy to the atom", "work_id": 98365, "role": "production company", "role_id": 941, "is_primary": true}, {"id": 2181542, "title": "Out of the fiery furnace. Parts 1-3", "work_id": 78893, "role": "production company", "role_id": 941, "is_primary": true}, {"id": 2788822, "title": "Out of the fiery furnace", "work_id": 115370, "role": "production company", "role_id": 941, "is_primary": true}, {"id": 2788829, "title": "Shining conquests", "work_id": 98362, "role": "production company", "role_id": 941, "is_primary": true}, {"id": 2788836, "title": "Into the machine age", "work_id": 98364, "role": "production company", "role_id": 941, "is_primary": true}, {"id": 2339976, "title": "Return to the dreaming", "work_id": 82135, "role": "production company", "role_id": 941, "is_primary": true}, {"id": 2788823, "title": "From stone to bronze", "work_id": 98360, "role": "production company", "role_id": 941, "is_primary": true}, {"id": 749145, "title": "Nightlife", "work_id": 70902, "role": "production company", "role_id": 941, "is_primary": true}, {"id": 2788833, "title": "Revolution of necessity", "work_id": 98363, "role": "production company", "role_id": 941, "is_primary": true}, {"id": 2181573, "title": "Out of the fiery furnace. Parts 4 and 5", "work_id": 78891, "role": "production company", "role_id": 941, "is_primary": true}, {"id": 2648421, "title": "Return to the dreaming (Captioned)", "work_id": 79120, "role": "production company", "role_id": 941, "is_primary": true}, {"id": 2339941, "title": "The Australian ark", "work_id": 115261, "role": "production company", "role_id": 941, "is_primary": true}, {"id": 2788842, "title": "Age of metals: can it last?", "work_id": 98366, "role": "production company", "role_id": 941, "is_primary": true}, {"id": 2712133, "title": "Discover Australia's national parks", "work_id": 66800, "role": "production company", "role_id": 941, "is_primary": true}, {"id": 2788826, "title": "Swords and ploughshares", "work_id": 98361, "role": "production company", "role_id": 941, "is_primary": true}], "also_known_as": "", "date_of_birth": "", "date_of_death": "", "genders": [], "languages": [], "places_of_operation": [], "biography": "", "biography_author": null, "date_of_biography": "2023-05-09T19:48:24.964286+10:00", "external_links": [], "uuid": "6d40148d-86e6-40d8-a3ba-8c042a7342f1", "source": {"name": "Vernon", "slug": "vernon"}, "source_identifier": "11164", "external_references": [], "date_modified": "2025-03-14T19:46:43.816688+11:00"}, {"id": 14420, "name": "J Stone", "roles_in_work": [{"id": 2712130, "title": "Discipline and self control (TEFC)", "work_id": 66798, "role": "director", "role_id": 938, "is_primary": true}], "also_known_as": "", "date_of_birth": null, "date_of_death": null, "genders": [], "languages": [], "places_of_operation": [], "biography": "", "biography_author": null, "date_of_biography": null, "external_links": [], "uuid": "17f54c86-fdab-4687-ab57-41b94067ed6a", "source": {"name": "Vernon", "slug": "vernon"}, "source_identifier": "20972", "external_references": [], "date_modified": "2025-03-12T00:11:10.956515+11:00"}, {"id": 14419, "name": "Rob Grant", "roles_in_work": [{"id": 2644539, "title": "Dirty business", "work_id": 66795, "role": "director", "role_id": 938, "is_primary": true}], "also_known_as": "", "date_of_birth": null, "date_of_death": null, "genders": [], "languages": [], "places_of_operation": [], "biography": "", "biography_author": null, "date_of_biography": null, "external_links": [], "uuid": "e97f0d20-3576-4e69-b6a7-242b963502ba", "source": {"name": "Vernon", "slug": "vernon"}, "source_identifier": "27593", "external_references": [], "date_modified": "2025-03-05T12:20:57.241372+11:00"}, {"id": 14418, "name": "Ian Fowler", "roles_in_work": [{"id": 760031, "title": "Dear God in heaven", "work_id": 75649, "role": "director", "role_id": 938, "is_primary": true}, {"id": 2644538, "title": "Dirty business", "work_id": 66795, "role": "producer", "role_id": 1089, "is_primary": true}], "also_known_as": "", "date_of_birth": null, "date_of_death": null, "genders": [], "languages": [], "places_of_operation": [], "biography": "", "biography_author": null, "date_of_biography": null, "external_links": [], "uuid": "020cfbde-bdb4-481e-a005-20b4a89fc063", "source": {"name": "Vernon", "slug": "vernon"}, "source_identifier": "20753", "external_references": [], "date_modified": "2025-03-05T12:20:56.653791+11:00"}, {"id": 14417, "name": "Peckham Productions", "roles_in_work": [{"id": 2712127, "title": "The Directors", "work_id": 66794, "role": "production company", "role_id": 941, "is_primary": true}], "also_known_as": "", "date_of_birth": null, "date_of_death": null, "genders": [], "languages": [], "places_of_operation": [], "biography": "", "biography_author": null, "date_of_biography": null, "external_links": [], "uuid": "8da48255-2540-4f3e-9f87-f946518e6fd6", "source": {"name": "Vernon", "slug": "vernon"}, "source_identifier": "4629", "external_references": [], "date_modified": "2025-03-12T00:11:07.138649+11:00"}, {"id": 14416, "name": "Life Magazine", "roles_in_work": [{"id": 2727807, "title": "Dorothy Dandridge on front cover of LIFE magazine", "work_id": 122115, "role": "creator", "role_id": 968, "is_primary": true}, {"id": 2712126, "title": "The Directors", "work_id": 66794, "role": "production company", "role_id": 941, "is_primary": true}], "also_known_as": "", "date_of_birth": "", "date_of_death": "", "genders": [], "languages": [], "places_of_operation": [], "biography": "", "biography_author": null, "date_of_biography": "2023-07-12T04:05:57.571031+10:00", "external_links": [], "uuid": "6e3415ba-a66a-443e-bd57-6140318327e3", "source": {"name": "Vernon", "slug": "vernon"}, "source_identifier": "4628", "external_references": [{"id": 51002, "source": {"name": "Wikidata", "slug": "wikidata"}, "source_identifier": "Q121357461"}], "date_modified": "2025-03-12T08:29:37.570769+11:00"}]}