{"count": 28687, "next": "https://api.acmi.net.au/creators/?page=141", "previous": "https://api.acmi.net.au/creators/?page=139", "results": [{"id": 84207, "name": "MatEm Productions", "roles_in_work": [{"id": 2304715, "title": "My City Walkabout", "work_id": 117438, "role": "production company", "role_id": 941, "is_primary": true}], "also_known_as": "", "date_of_birth": "", "date_of_death": "", "genders": [], "languages": [], "places_of_operation": [], "biography": "", "biography_author": null, "date_of_biography": "2023-05-09T18:43:17.929904+10:00", "external_links": [], "uuid": "99f749bd-06c2-4b10-b1c9-b21cb1d9a504", "source": {"name": "Vernon", "slug": "vernon"}, "source_identifier": "37423", "external_references": [{"id": 32309, "source": {"name": "Wikidata", "slug": "wikidata"}, "source_identifier": "Q121091435"}], "date_modified": "2023-09-05T22:53:44.187278+10:00"}, {"id": 84206, "name": "Paige Spence", "roles_in_work": [{"id": 2304683, "title": "The Mansion [game trailer]", "work_id": 117436, "role": "creator", "role_id": 968, "is_primary": true}], "also_known_as": "", "date_of_birth": "", "date_of_death": "", "genders": [], "languages": [], "places_of_operation": [], "biography": "", "biography_author": null, "date_of_biography": "2023-05-09T18:43:15.913547+10:00", "external_links": [], "uuid": "fa0a2081-ab15-41b1-9d4f-e57b91d03c1a", "source": {"name": "Vernon", "slug": "vernon"}, "source_identifier": "37401", "external_references": [], "date_modified": "2023-06-14T16:33:30.576250+10:00"}, {"id": 84205, "name": "Bailey Humphries", "roles_in_work": [{"id": 2304669, "title": "Connecting", "work_id": 117435, "role": "creator", "role_id": 968, "is_primary": true}], "also_known_as": "", "date_of_birth": "", "date_of_death": "", "genders": [], "languages": [], "places_of_operation": [], "biography": "", "biography_author": null, "date_of_biography": "2023-05-09T18:43:15.127371+10:00", "external_links": [], "uuid": "0606212b-5278-41ca-868d-e13ca768a16f", "source": {"name": "Vernon", "slug": "vernon"}, "source_identifier": "37400", "external_references": [], "date_modified": "2023-06-14T16:33:30.576250+10:00"}, {"id": 84204, "name": "Emma Reid", "roles_in_work": [{"id": 2304667, "title": "Connecting", "work_id": 117435, "role": "creator", "role_id": 968, "is_primary": true}], "also_known_as": "", "date_of_birth": "", "date_of_death": "", "genders": [], "languages": [], "places_of_operation": [], "biography": "", "biography_author": null, "date_of_biography": "2023-05-09T18:43:14.904877+10:00", "external_links": [], "uuid": "868d7362-b7f8-49d1-ba3a-87023f5639a5", "source": {"name": "Vernon", "slug": "vernon"}, "source_identifier": "37399", "external_references": [], "date_modified": "2023-06-14T16:33:30.576250+10:00"}, {"id": 84203, "name": "Olivia Walker", "roles_in_work": [{"id": 2304665, "title": "Connecting", "work_id": 117435, "role": "creator", "role_id": 968, "is_primary": true}], "also_known_as": "", "date_of_birth": "", "date_of_death": "", "genders": [], "languages": [], "places_of_operation": [], "biography": "", "biography_author": null, "date_of_biography": "2023-05-09T18:43:14.683275+10:00", "external_links": [], "uuid": "8b653659-bbf8-436e-a845-f16f14cd9aa9", "source": {"name": "Vernon", "slug": "vernon"}, "source_identifier": "37398", "external_references": [], "date_modified": "2023-06-14T16:33:30.576250+10:00"}, {"id": 84202, "name": "Swifts Creek P-12 School", "roles_in_work": [{"id": 2304663, "title": "Connecting", "work_id": 117435, "role": "school", "role_id": 619, "is_primary": false}], "also_known_as": "", "date_of_birth": "", "date_of_death": "", "genders": [], "languages": [], "places_of_operation": [], "biography": "", "biography_author": null, "date_of_biography": "2023-05-09T18:43:14.459632+10:00", "external_links": [], "uuid": "27261028-e292-418a-a76b-d81cc4dc1885", "source": {"name": "Vernon", "slug": "vernon"}, "source_identifier": "37397", "external_references": [], "date_modified": "2023-06-14T16:33:30.576250+10:00"}, {"id": 84201, "name": "Meg Llanwarne", "roles_in_work": [{"id": 2304645, "title": "Closure", "work_id": 117434, "role": "creator", "role_id": 968, "is_primary": true}], "also_known_as": "", "date_of_birth": "", "date_of_death": "", "genders": [], "languages": [], "places_of_operation": [], "biography": "", "biography_author": null, "date_of_biography": "2023-05-09T18:43:13.638108+10:00", "external_links": [], "uuid": "871afea4-139b-4573-954a-d69c7eee6c05", "source": {"name": "Vernon", "slug": "vernon"}, "source_identifier": "37396", "external_references": [], "date_modified": "2023-06-14T16:33:30.576250+10:00"}, {"id": 84200, "name": "Chloe Hardingham", "roles_in_work": [{"id": 2304642, "title": "Closure", "work_id": 117434, "role": "creator", "role_id": 968, "is_primary": true}], "also_known_as": "", "date_of_birth": "", "date_of_death": "", "genders": [], "languages": [], "places_of_operation": [], "biography": "", "biography_author": null, "date_of_biography": "2023-05-09T18:43:13.421577+10:00", "external_links": [], "uuid": "a8870d1c-0382-4e88-8f82-567162e9b6d7", "source": {"name": "Vernon", "slug": "vernon"}, "source_identifier": "37395", "external_references": [], "date_modified": "2023-06-14T16:33:30.576250+10:00"}, {"id": 84199, "name": "St Mary's Anglican Girls' College", "roles_in_work": [{"id": 2719390, "title": "Extrasensory Perception", "work_id": 117698, "role": "creator", "role_id": 968, "is_primary": true}, {"id": 2719430, "title": "The Shackles You Cannot See", "work_id": 117697, "role": "creator", "role_id": 968, "is_primary": true}, {"id": 2719483, "title": "Survival of the fittest", "work_id": 117679, "role": "creator", "role_id": 968, "is_primary": true}, {"id": 2304637, "title": "Closure", "work_id": 117434, "role": "school", "role_id": 619, "is_primary": false}], "also_known_as": "", "date_of_birth": "", "date_of_death": "", "genders": [], "languages": [], "places_of_operation": [], "biography": "", "biography_author": null, "date_of_biography": "2023-05-09T19:58:02.642641+10:00", "external_links": [], "uuid": "9ececfda-e183-4a7a-81e9-35ea707791e0", "source": {"name": "Vernon", "slug": "vernon"}, "source_identifier": "37394", "external_references": [], "date_modified": "2025-03-12T07:05:30.281290+11:00"}, {"id": 84198, "name": "Amita Kirpalani", "roles_in_work": [{"id": 2096238, "title": "Angelica Mesiti: The Calling interview", "work_id": 117451, "role": "interviewer", "role_id": 457, "is_primary": false}, {"id": 2307521, "title": "Spectacle Talks: Hello Flux Panel Discussion", "work_id": 117431, "role": "interviewer", "role_id": 457, "is_primary": false}], "also_known_as": "", "date_of_birth": "", "date_of_death": "", "genders": [{"id": 5, "name": "Female", "slug": "female"}], "languages": [], "places_of_operation": [], "biography": "", "biography_author": null, "date_of_biography": "2023-05-09T18:47:18.487978+10:00", "external_links": [], "uuid": "d604d080-02e9-4f69-afc2-0482035bd530", "source": {"name": "Vernon", "slug": "vernon"}, "source_identifier": "36829", "external_references": [], "date_modified": "2023-06-14T16:33:30.576250+10:00"}]}