{"count": 28687, "next": "https://api.acmi.net.au/creators/?page=1176", "previous": "https://api.acmi.net.au/creators/?page=1174", "results": [{"id": 73617, "name": "Melbourne Girls' College", "roles_in_work": [{"id": 2637078, "title": "Directors of the future", "work_id": 109708, "role": "production facilities", "role_id": 442, "is_primary": false}, {"id": 2636972, "title": "Imagery of the mind", "work_id": 109676, "role": "production facilities", "role_id": 442, "is_primary": false}, {"id": 2636939, "title": "Can you stop the music?", "work_id": 109677, "role": "production facilities", "role_id": 442, "is_primary": false}, {"id": 2637012, "title": "Crying within", "work_id": 109690, "role": "production facilities", "role_id": 442, "is_primary": false}, {"id": 2637082, "title": "Genre", "work_id": 109713, "role": "production facilities", "role_id": 442, "is_primary": false}, {"id": 2643712, "title": "The Lane game", "work_id": 111256, "role": "school", "role_id": 619, "is_primary": false}], "also_known_as": "", "date_of_birth": "", "date_of_death": "", "genders": [], "languages": [], "places_of_operation": [], "biography": "", "biography_author": null, "date_of_biography": "2023-05-09T19:57:54.207355+10:00", "external_links": [], "uuid": "eb2e2cea-87cb-44df-b5a8-97b02bad6d47", "source": {"name": "Vernon", "slug": "vernon"}, "source_identifier": "2238", "external_references": [], "date_modified": "2025-03-05T12:06:00.041636+11:00"}, {"id": 73616, "name": "Princes Hill Secondary College", "roles_in_work": [{"id": 2636982, "title": "Stan", "work_id": 109673, "role": "production facilities", "role_id": 442, "is_primary": false}, {"id": 2637526, "title": "Cliche", "work_id": 109747, "role": "production facilities", "role_id": 442, "is_primary": false}], "also_known_as": "", "date_of_birth": "", "date_of_death": "", "genders": [], "languages": [], "places_of_operation": [], "biography": "", "biography_author": null, "date_of_biography": "2023-05-09T19:20:27.944425+10:00", "external_links": [], "uuid": "788fa065-926b-4361-b22c-f54e6d0f09e2", "source": {"name": "Vernon", "slug": "vernon"}, "source_identifier": "2253", "external_references": [], "date_modified": "2025-03-05T10:48:10.304732+11:00"}, {"id": 73615, "name": "Mornington Secondary College", "roles_in_work": [{"id": 3105774, "title": "The Sword", "work_id": 109703, "role": "production facilities", "role_id": 442, "is_primary": false}, {"id": 2636893, "title": "The Adventures of Buzz Boy & Buzz Girl", "work_id": 109672, "role": "production facilities", "role_id": 442, "is_primary": false}, {"id": 2637004, "title": "Caveboy meets Future Boy", "work_id": 109701, "role": "production facilities", "role_id": 442, "is_primary": false}, {"id": 2637056, "title": "Monster madness", "work_id": 109700, "role": "production facilities", "role_id": 442, "is_primary": false}, {"id": 2637115, "title": "Nuggit & Goofs", "work_id": 109717, "role": "production facilities", "role_id": 442, "is_primary": false}, {"id": 2637123, "title": "Weirdo", "work_id": 109716, "role": "production facilities", "role_id": 442, "is_primary": false}], "also_known_as": "", "date_of_birth": "", "date_of_death": "", "genders": [], "languages": [], "places_of_operation": [], "biography": "", "biography_author": null, "date_of_biography": "2023-05-09T19:58:00.619778+10:00", "external_links": [], "uuid": "30193849-5fd8-465f-8a38-fe79a0a59f2a", "source": {"name": "Vernon", "slug": "vernon"}, "source_identifier": "2251", "external_references": [], "date_modified": "2025-05-29T22:35:03.687223+10:00"}, {"id": 73614, "name": "Penola Catholic College", "roles_in_work": [{"id": 2636963, "title": "Detention", "work_id": 109671, "role": "production facilities", "role_id": 442, "is_primary": false}], "also_known_as": "", "date_of_birth": "", "date_of_death": "", "genders": [], "languages": [], "places_of_operation": [], "biography": "", "biography_author": null, "date_of_biography": "2023-05-09T19:33:37.366495+10:00", "external_links": [], "uuid": "b31547a9-ee01-4d2f-a33a-428a14bf9354", "source": {"name": "Vernon", "slug": "vernon"}, "source_identifier": "2249", "external_references": [], "date_modified": "2025-03-05T10:42:02.676082+11:00"}, {"id": 73613, "name": "Cathy Williams", "roles_in_work": [{"id": 2636969, "title": "A Haunted school", "work_id": 109670, "role": "", "role_id": 604, "is_primary": false}], "also_known_as": "", "date_of_birth": "", "date_of_death": "", "genders": [], "languages": [], "places_of_operation": [], "biography": "", "biography_author": null, "date_of_biography": "2023-05-09T19:33:43.318302+10:00", "external_links": [], "uuid": "7267d2f9-01b1-4fc0-a8a6-5d68b7e896e8", "source": {"name": "Vernon", "slug": "vernon"}, "source_identifier": "2247", "external_references": [], "date_modified": "2025-03-05T10:42:06.972105+11:00"}, {"id": 73612, "name": "Laura Gordon", "roles_in_work": [{"id": 2636968, "title": "A Haunted school", "work_id": 109670, "role": "", "role_id": 604, "is_primary": false}], "also_known_as": "", "date_of_birth": "", "date_of_death": "", "genders": [], "languages": [], "places_of_operation": [], "biography": "", "biography_author": null, "date_of_biography": "2023-05-09T19:33:43.052727+10:00", "external_links": [], "uuid": "490177e2-c0bd-407c-b23f-b44d5f9c9691", "source": {"name": "Vernon", "slug": "vernon"}, "source_identifier": "2246", "external_references": [], "date_modified": "2025-03-05T10:42:06.395995+11:00"}, {"id": 73611, "name": "Paul Lamont", "roles_in_work": [{"id": 2636967, "title": "A Haunted school", "work_id": 109670, "role": "", "role_id": 604, "is_primary": false}], "also_known_as": "", "date_of_birth": "", "date_of_death": "", "genders": [], "languages": [], "places_of_operation": [], "biography": "", "biography_author": null, "date_of_biography": "2023-05-09T19:33:42.799716+10:00", "external_links": [], "uuid": "c611ece5-4671-48f5-b483-eeeac8613dfa", "source": {"name": "Vernon", "slug": "vernon"}, "source_identifier": "2245", "external_references": [], "date_modified": "2025-03-05T10:42:05.828412+11:00"}, {"id": 73610, "name": "Warrandyte High School", "roles_in_work": [{"id": 2637420, "title": "Quotes", "work_id": 109669, "role": "production facilities", "role_id": 442, "is_primary": false}], "also_known_as": "", "date_of_birth": "", "date_of_death": "", "genders": [], "languages": [], "places_of_operation": [], "biography": "", "biography_author": null, "date_of_biography": "2023-05-09T19:57:57.297312+10:00", "external_links": [], "uuid": "ac7f4931-59a9-4dd7-8a45-7f6b1f1bc54e", "source": {"name": "Vernon", "slug": "vernon"}, "source_identifier": "2242", "external_references": [], "date_modified": "2025-03-05T10:46:22.987751+11:00"}, {"id": 73609, "name": "Warragul Regional College", "roles_in_work": [{"id": 2637417, "title": "The good, the bad and the animated", "work_id": 109667, "role": "production facilities", "role_id": 442, "is_primary": false}, {"id": 2636959, "title": "Crushed", "work_id": 109682, "role": "production facilities", "role_id": 442, "is_primary": false}], "also_known_as": "", "date_of_birth": "", "date_of_death": "", "genders": [], "languages": [], "places_of_operation": [], "biography": "", "biography_author": null, "date_of_biography": "2023-05-09T19:57:53.058109+10:00", "external_links": [], "uuid": "4a795c8a-3045-4a40-ae75-79a27d16badf", "source": {"name": "Vernon", "slug": "vernon"}, "source_identifier": "2239", "external_references": [], "date_modified": "2025-03-05T10:46:21.241621+11:00"}, {"id": 73608, "name": "Belgrave Heights Christian School", "roles_in_work": [{"id": 2637356, "title": "Screen Battle Royale", "work_id": 109666, "role": "collaborator", "role_id": 536, "is_primary": false}], "also_known_as": "", "date_of_birth": "", "date_of_death": "", "genders": [], "languages": [], "places_of_operation": [], "biography": "", "biography_author": null, "date_of_biography": "2023-05-09T17:33:49.061229+10:00", "external_links": [], "uuid": "83785c39-3ce6-4965-b87e-6751bb2e4b48", "source": {"name": "Vernon", "slug": "vernon"}, "source_identifier": "2131", "external_references": [], "date_modified": "2025-03-05T10:45:48.806053+11:00"}]}