{"count": 28687, "next": "https://api.acmi.net.au/creators/?page=1555", "previous": "https://api.acmi.net.au/creators/?page=1553", "results": [{"id": 32236, "name": "Tonie Marshall", "roles_in_work": [{"id": 909883, "title": "Venus beauty = Venus beaute (institut)", "work_id": 90501, "role": "director", "role_id": 938, "is_primary": true}], "also_known_as": "Anthony-Lee Caroline Julie Marshall", "date_of_birth": "1951-11-29", "date_of_death": "2020-03-12", "genders": [{"id": 5, "name": "Female", "slug": "female"}], "languages": [{"id": 4, "name": "French", "slug": "french"}], "places_of_operation": [{"id": 17, "name": "France", "slug": "france"}], "biography": "Tonie Marshall (29 November 1951 – 12 March 2020) was a French-American actress, screenwriter, and film director. In 2000, she became the first female director to win a César award for her film Venus Beauty Institute.", "biography_author": "Wikidata", "date_of_biography": "2023-08-01T17:20:20.346917+10:00", "external_links": [{"id": 5284, "uri": "https://en.wikipedia.org/wiki/Tonie_Marshall"}], "uuid": "01ed7d17-d4df-4deb-9de2-cc2faf7e096e", "source": {"name": "Vernon", "slug": "vernon"}, "source_identifier": "13635", "external_references": [{"id": 25685, "source": {"name": "Wikidata", "slug": "wikidata"}, "source_identifier": "Q2555171"}, {"id": 31834, "source": {"name": "VIAF", "slug": "viaf"}, "source_identifier": "153791871"}, {"id": 31835, "source": {"name": "LOC Auth", "slug": "loc-auth"}, "source_identifier": "no2010119484"}, {"id": 31836, "source": {"name": "WorldCat", "slug": "worldcat"}, "source_identifier": "lccn-no2010119484"}], "date_modified": "2023-09-13T12:33:04.707954+10:00"}, {"id": 32232, "name": "Arte France", "roles_in_work": [{"id": 1999623, "title": "Intimacy", "work_id": 94596, "role": "production company", "role_id": 941, "is_primary": true}, {"id": 929255, "title": "Time out = L'Emploi du temps", "work_id": 94844, "role": "production company", "role_id": 941, "is_primary": true}, {"id": 1999149, "title": "Under the sand = Sous le sable [DVD]", "work_id": 94306, "role": "production company", "role_id": 941, "is_primary": true}, {"id": 1999288, "title": "Trouble every day [DVD] (D)", "work_id": 94368, "role": "production company", "role_id": 941, "is_primary": true}, {"id": 2195752, "title": "Divine intervention = Chronicle of love and pain", "work_id": 100504, "role": "production company", "role_id": 941, "is_primary": true}, {"id": 2195780, "title": "Divine intervention = Chronicle of love and pain [DVD]", "work_id": 94370, "role": "production company", "role_id": 941, "is_primary": true}, {"id": 1997415, "title": "The Piano teacher = La Pianiste [DVD] (E)", "work_id": 93313, "role": "production company", "role_id": 941, "is_primary": true}, {"id": 1997322, "title": "Vengo [DVD]", "work_id": 93244, "role": "production company", "role_id": 941, "is_primary": true}, {"id": 909878, "title": "Venus beauty = Venus beaute (institut)", "work_id": 90501, "role": "production company", "role_id": 941, "is_primary": true}, {"id": 2172079, "title": "Dancer in the dark", "work_id": 92505, "role": "production company", "role_id": 941, "is_primary": true}, {"id": 917098, "title": "This is not Einstein", "work_id": 95033, "role": "production company", "role_id": 941, "is_primary": true}, {"id": 2000515, "title": "Lumumba", "work_id": 95089, "role": "production company", "role_id": 941, "is_primary": true}, {"id": 2228387, "title": "Fat girl = For my sister = A ma soeur! [DVD] (E)", "work_id": 94303, "role": "production company", "role_id": 941, "is_primary": true}, {"id": 2102438, "title": "At the height of summer = Vertical ray of the sun = Mua he chieu thang dung", "work_id": 93060, "role": "production company", "role_id": 941, "is_primary": true}, {"id": 1996070, "title": "The Captive = La Captive", "work_id": 92470, "role": "production company", "role_id": 941, "is_primary": true}], "also_known_as": "", "date_of_birth": "", "date_of_death": "", "genders": [], "languages": [], "places_of_operation": [], "biography": "", "biography_author": null, "date_of_biography": "2023-05-09T16:29:53.609496+10:00", "external_links": [], "uuid": "104c6e60-a7e3-4bc6-9372-62c2b4da659a", "source": {"name": "Vernon", "slug": "vernon"}, "source_identifier": "5401", "external_references": [], "date_modified": "2023-06-14T16:33:30.576250+10:00"}, {"id": 32231, "name": "Katja Von Garnier", "roles_in_work": [{"id": 805688, "title": "Makin' up!. The Most beautiful breasts in the world", "work_id": 90500, "role": "director", "role_id": 938, "is_primary": true}], "also_known_as": "", "date_of_birth": "1966-12-15", "date_of_death": null, "genders": [{"id": 5, "name": "Female", "slug": "female"}], "languages": [{"id": 1, "name": "English", "slug": "english"}, {"id": 5, "name": "German", "slug": "german"}], "places_of_operation": [{"id": 18, "name": "Germany", "slug": "germany"}], "biography": "Katja von Garnier (born 15 December 1966, in Wiesbaden) is a German film director.", "biography_author": "Wikidata", "date_of_biography": "2023-08-01T15:47:19.791800+10:00", "external_links": [{"id": 4471, "uri": "https://en.wikipedia.org/wiki/Katja_von_Garnier"}], "uuid": "7d9c27be-19a9-42d2-8272-07aaf7655480", "source": {"name": "Vernon", "slug": "vernon"}, "source_identifier": "23099", "external_references": [{"id": 25939, "source": {"name": "Wikidata", "slug": "wikidata"}, "source_identifier": "Q67791"}, {"id": 29741, "source": {"name": "VIAF", "slug": "viaf"}, "source_identifier": "78417926"}, {"id": 29742, "source": {"name": "LOC Auth", "slug": "loc-auth"}, "source_identifier": "no99068926"}, {"id": 29743, "source": {"name": "WorldCat", "slug": "worldcat"}, "source_identifier": "lccn-no99068926"}], "date_modified": "2023-09-13T12:30:47.774788+10:00"}, {"id": 32228, "name": "Edward Stanley", "roles_in_work": [{"id": 2471599, "title": "What do they read?", "work_id": 91486, "role": "producer", "role_id": 1089, "is_primary": true}, {"id": 2471505, "title": "Westminster Abbey. - [Rev. version]", "work_id": 90497, "role": "producer", "role_id": 1089, "is_primary": true}], "also_known_as": "", "date_of_birth": "", "date_of_death": "", "genders": [], "languages": [], "places_of_operation": [], "biography": "", "biography_author": null, "date_of_biography": "2023-08-14T12:42:48.672085+10:00", "external_links": [], "uuid": "f3f9309e-65f2-4921-b323-cd2f445efa97", "source": {"name": "Vernon", "slug": "vernon"}, "source_identifier": "18629", "external_references": [], "date_modified": "2023-08-14T12:42:48.672309+10:00"}, {"id": 32227, "name": "Kingdom Productions", "roles_in_work": [{"id": 2471598, "title": "What do they read?", "work_id": 91486, "role": "production company", "role_id": 941, "is_primary": true}, {"id": 2471503, "title": "Westminster Abbey. - [Rev. version]", "work_id": 90497, "role": "production company", "role_id": 941, "is_primary": true}], "also_known_as": "", "date_of_birth": "", "date_of_death": "", "genders": [], "languages": [], "places_of_operation": [], "biography": "", "biography_author": null, "date_of_biography": "2023-08-14T12:42:48.046162+10:00", "external_links": [], "uuid": "58e415e5-d146-42d9-85d7-66b2f7b27aec", "source": {"name": "Vernon", "slug": "vernon"}, "source_identifier": "9774", "external_references": [], "date_modified": "2023-08-14T12:42:48.046386+10:00"}, {"id": 32225, "name": "Rob Landeros", "roles_in_work": [{"id": 1994709, "title": "Tender loving care", "work_id": 90496, "role": "producer", "role_id": 1089, "is_primary": true}], "also_known_as": "", "date_of_birth": null, "date_of_death": null, "genders": [{"id": 9, "name": "Male", "slug": "male"}], "languages": [], "places_of_operation": [], "biography": "Rob Landeros is a computer game designer and graphic artist.  Together with Graeme Devine, he co-founded Trilobyte, where he created the highly commercially successful games The 7th Guest and The 11th Hour.  After leaving Trilobyte, he co-founded Aftermath Media, where he released the interactive movies Tender Loving Care and Point of View.", "biography_author": "Wikidata", "date_of_biography": "2022-05-19T12:51:29.686657+10:00", "external_links": [{"id": 2955, "uri": "https://en.wikipedia.org/wiki/Rob_Landeros"}], "uuid": "28202099-b59a-4396-bba4-75f3d8f60334", "source": {"name": "Vernon", "slug": "vernon"}, "source_identifier": "27599", "external_references": [{"id": 12555, "source": {"name": "Wikidata", "slug": "wikidata"}, "source_identifier": "Q7340291"}, {"id": 12556, "source": {"name": "VIAF", "slug": "viaf"}, "source_identifier": "76155458"}, {"id": 12557, "source": {"name": "LOC Auth", "slug": "loc-auth"}, "source_identifier": "nr00025819"}, {"id": 12558, "source": {"name": "WorldCat", "slug": "worldcat"}, "source_identifier": "lccn-nr00025819"}], "date_modified": "2023-09-13T12:32:14.599872+10:00"}, {"id": 32222, "name": "Columbia Picture", "roles_in_work": [{"id": 2750010, "title": "Granny lives in Galway", "work_id": 97094, "role": "production company", "role_id": 941, "is_primary": true}, {"id": 2219536, "title": "Erin Brockovich [DVD]", "work_id": 90493, "role": "production company", "role_id": 941, "is_primary": true}], "also_known_as": "", "date_of_birth": "", "date_of_death": "", "genders": [], "languages": [], "places_of_operation": [], "biography": "", "biography_author": null, "date_of_biography": "2023-05-09T16:14:20.600044+10:00", "external_links": [], "uuid": "43f11143-09b0-4b86-ac4e-3baecfbc8012", "source": {"name": "Vernon", "slug": "vernon"}, "source_identifier": "6906", "external_references": [{"id": 42311, "source": {"name": "Wikidata", "slug": "wikidata"}, "source_identifier": "Q121315448"}], "date_modified": "2025-03-13T00:11:53.607631+11:00"}, {"id": 32210, "name": "Green Moon Productions", "roles_in_work": [{"id": 2147921, "title": "Crazy in Alabama", "work_id": 90486, "role": "production company", "role_id": 941, "is_primary": true}], "also_known_as": "", "date_of_birth": "", "date_of_death": "", "genders": [], "languages": [], "places_of_operation": [], "biography": "", "biography_author": null, "date_of_biography": "2023-05-09T13:48:30.665243+10:00", "external_links": [], "uuid": "e5c47399-14f9-47cf-9d9a-3509e5f880f8", "source": {"name": "Vernon", "slug": "vernon"}, "source_identifier": "8883", "external_references": [{"id": 37517, "source": {"name": "Wikidata", "slug": "wikidata"}, "source_identifier": "Q121271197"}], "date_modified": "2023-09-05T20:20:58.068746+10:00"}, {"id": 32205, "name": "Festival Film Production", "roles_in_work": [{"id": 2476234, "title": "The Magic box", "work_id": 90484, "role": "production company", "role_id": 941, "is_primary": true}], "also_known_as": "", "date_of_birth": "", "date_of_death": "", "genders": [], "languages": [], "places_of_operation": [], "biography": "", "biography_author": null, "date_of_biography": "2023-08-17T15:34:02.260393+10:00", "external_links": [], "uuid": "65df0870-8b8d-4b36-9084-7b2c0395456f", "source": {"name": "Vernon", "slug": "vernon"}, "source_identifier": "8151", "external_references": [], "date_modified": "2023-08-17T15:34:02.260680+10:00"}, {"id": 32204, "name": "Howard Zieff", "roles_in_work": [{"id": 2000963, "title": "Unfaithfully yours (1984)", "work_id": 95276, "role": "director", "role_id": 938, "is_primary": true}, {"id": 2229638, "title": "Private Benjamin", "work_id": 90483, "role": "director", "role_id": 938, "is_primary": true}], "also_known_as": "", "date_of_birth": "1927-10-21", "date_of_death": "2009-02-22", "genders": [{"id": 9, "name": "Male", "slug": "male"}], "languages": [], "places_of_operation": [{"id": 1, "name": "United States of America", "slug": "united-states-of-america"}], "biography": "Howard Buton Zieff (October 21, 1927 – February 22, 2009) (pronounced Zeef) was an American director, television commercial director, and advertising photographer.", "biography_author": "Wikidata", "date_of_biography": "2023-08-01T15:13:10.292908+10:00", "external_links": [{"id": 4173, "uri": "https://en.wikipedia.org/wiki/Howard_Zieff"}], "uuid": "d5946a82-27a7-47ee-85be-faf01ad4f1a9", "source": {"name": "Vernon", "slug": "vernon"}, "source_identifier": "20641", "external_references": [{"id": 24924, "source": {"name": "Wikidata", "slug": "wikidata"}, "source_identifier": "Q427308"}, {"id": 28959, "source": {"name": "VIAF", "slug": "viaf"}, "source_identifier": "24792495"}, {"id": 28960, "source": {"name": "LOC Auth", "slug": "loc-auth"}, "source_identifier": "no2003044941"}, {"id": 28961, "source": {"name": "WorldCat", "slug": "worldcat"}, "source_identifier": "lccn-no2003044941"}], "date_modified": "2023-09-05T20:42:13.600824+10:00"}]}