{"count": 28687, "next": "https://api.acmi.net.au/creators/?page=1835", "previous": "https://api.acmi.net.au/creators/?page=1833", "results": [{"id": 25715, "name": "Moorabbin College of TAFE", "roles_in_work": [{"id": 2752790, "title": "Safety in ceramics", "work_id": 98460, "role": "production company", "role_id": 941, "is_primary": true}, {"id": 782828, "title": "Something to say (Captioned)", "work_id": 83614, "role": "production company", "role_id": 941, "is_primary": true}], "also_known_as": "", "date_of_birth": "", "date_of_death": "", "genders": [], "languages": [], "places_of_operation": [], "biography": "", "biography_author": null, "date_of_biography": "2023-08-14T10:34:45.752614+10:00", "external_links": [], "uuid": "f0c40cf4-7e0b-440a-9962-cd3d865fb5c5", "source": {"name": "Vernon", "slug": "vernon"}, "source_identifier": "10634", "external_references": [], "date_modified": "2025-03-13T01:11:47.320920+11:00"}, {"id": 25712, "name": "CPB Project", "roles_in_work": [{"id": 793837, "title": "Media law", "work_id": 86704, "role": "production company", "role_id": 941, "is_primary": true}, {"id": 2786633, "title": "The Pacific century. Faculty manual", "work_id": 83610, "role": "production company", "role_id": 941, "is_primary": true}], "also_known_as": "", "date_of_birth": "", "date_of_death": "", "genders": [], "languages": [], "places_of_operation": [], "biography": "", "biography_author": null, "date_of_biography": "2023-05-09T12:53:43.176572+10:00", "external_links": [], "uuid": "ab228b64-29ca-4e78-ad11-744d08350ae5", "source": {"name": "Vernon", "slug": "vernon"}, "source_identifier": "7132", "external_references": [{"id": 34670, "source": {"name": "Wikidata", "slug": "wikidata"}, "source_identifier": "Q121337301"}], "date_modified": "2025-03-14T19:33:36.218916+11:00"}, {"id": 25711, "name": "Annenberg", "roles_in_work": [{"id": 793836, "title": "Media law", "work_id": 86704, "role": "production company", "role_id": 941, "is_primary": true}, {"id": 2786632, "title": "The Pacific century. Faculty manual", "work_id": 83610, "role": "production company", "role_id": 941, "is_primary": true}], "also_known_as": "", "date_of_birth": "", "date_of_death": "", "genders": [], "languages": [], "places_of_operation": [], "biography": "", "biography_author": null, "date_of_biography": "2023-05-09T12:53:42.953085+10:00", "external_links": [], "uuid": "130018f6-ffcd-45fe-946f-ed6834ed10cf", "source": {"name": "Vernon", "slug": "vernon"}, "source_identifier": "5278", "external_references": [{"id": 32629, "source": {"name": "Wikidata", "slug": "wikidata"}, "source_identifier": "Q121315447"}], "date_modified": "2025-03-14T19:33:35.630148+11:00"}, {"id": 25710, "name": "Westview Press", "roles_in_work": [{"id": 2786630, "title": "The Pacific century. Faculty manual", "work_id": 83610, "role": "production company", "role_id": 941, "is_primary": true}, {"id": 2786635, "title": "The Pacific century. Study guide", "work_id": 83611, "role": "production company", "role_id": 941, "is_primary": true}], "also_known_as": "", "date_of_birth": "", "date_of_death": "", "genders": [], "languages": [], "places_of_operation": [], "biography": "", "biography_author": null, "date_of_biography": "2023-05-09T12:53:42.443045+10:00", "external_links": [], "uuid": "f88e2d98-b9c2-4e56-92d5-e09e848e1636", "source": {"name": "Vernon", "slug": "vernon"}, "source_identifier": "11737", "external_references": [{"id": 34723, "source": {"name": "Wikidata", "slug": "wikidata"}, "source_identifier": "Q7989759"}], "date_modified": "2025-03-14T19:33:37.619264+11:00"}, {"id": 25708, "name": "Jeff Watson Productions", "roles_in_work": [{"id": 879140, "title": "The Last plane out of Berlin", "work_id": 91610, "role": "production company", "role_id": 941, "is_primary": true}, {"id": 2614389, "title": "Classic cars in Australia", "work_id": 83608, "role": "production company", "role_id": 941, "is_primary": true}], "also_known_as": "", "date_of_birth": "", "date_of_death": "", "genders": [], "languages": [], "places_of_operation": [], "biography": "", "biography_author": null, "date_of_biography": "2023-05-09T13:33:45.655336+10:00", "external_links": [], "uuid": "65574cca-916e-4fe8-896d-39bd6f077b1b", "source": {"name": "Vernon", "slug": "vernon"}, "source_identifier": "9579", "external_references": [{"id": 33379, "source": {"name": "Wikidata", "slug": "wikidata"}, "source_identifier": "Q121337743"}], "date_modified": "2025-02-26T20:10:12.808370+11:00"}, {"id": 25702, "name": "Hawkshead", "roles_in_work": [{"id": 2185636, "title": "Delia Smith's summer collection", "work_id": 83606, "role": "production company", "role_id": 941, "is_primary": true}], "also_known_as": "", "date_of_birth": "", "date_of_death": "", "genders": [], "languages": [], "places_of_operation": [], "biography": "", "biography_author": null, "date_of_biography": "2023-05-09T15:00:35.250345+10:00", "external_links": [], "uuid": "67479f17-df76-4c6f-ab28-f280058b7130", "source": {"name": "Vernon", "slug": "vernon"}, "source_identifier": "9028", "external_references": [{"id": 39189, "source": {"name": "Wikidata", "slug": "wikidata"}, "source_identifier": "Q121040121"}], "date_modified": "2023-09-05T20:32:42.998887+10:00"}, {"id": 25701, "name": "Video School", "roles_in_work": [{"id": 2163441, "title": "My first science video", "work_id": 84118, "role": "production company", "role_id": 941, "is_primary": true}, {"id": 2787321, "title": "Desert animals", "work_id": 85122, "role": "production company", "role_id": 941, "is_primary": true}, {"id": 2787313, "title": "Jungle animals", "work_id": 85120, "role": "production company", "role_id": 941, "is_primary": true}, {"id": 2787325, "title": "Sea animals", "work_id": 85206, "role": "production company", "role_id": 941, "is_primary": true}, {"id": 2778572, "title": "The Liquid show", "work_id": 98623, "role": "production company", "role_id": 941, "is_primary": true}, {"id": 2787304, "title": "Farm animals", "work_id": 84114, "role": "production company", "role_id": 941, "is_primary": true}, {"id": 2787292, "title": "Pets", "work_id": 83604, "role": "production company", "role_id": 941, "is_primary": true}, {"id": 2787287, "title": "See how they grow", "work_id": 115339, "role": "production company", "role_id": 941, "is_primary": true}, {"id": 2163355, "title": "My first magic video", "work_id": 85112, "role": "production company", "role_id": 941, "is_primary": true}, {"id": 2787317, "title": "Tree animals", "work_id": 85121, "role": "production company", "role_id": 941, "is_primary": true}], "also_known_as": "", "date_of_birth": "", "date_of_death": "", "genders": [], "languages": [], "places_of_operation": [], "biography": "", "biography_author": null, "date_of_biography": "2023-05-09T17:38:09.704272+10:00", "external_links": [], "uuid": "23654e03-3307-45ca-ba60-1f5ed0a17f3a", "source": {"name": "Vernon", "slug": "vernon"}, "source_identifier": "3849", "external_references": [{"id": 40806, "source": {"name": "Wikidata", "slug": "wikidata"}, "source_identifier": "Q121035080"}], "date_modified": "2025-03-14T19:39:38.879316+11:00"}, {"id": 25700, "name": "Tom Gordon", "roles_in_work": [{"id": 2787302, "title": "Wild animals", "work_id": 84113, "role": "director", "role_id": 938, "is_primary": true}, {"id": 2787310, "title": "Pond animals", "work_id": 84115, "role": "director", "role_id": 938, "is_primary": true}, {"id": 2787306, "title": "Farm animals", "work_id": 84114, "role": "director", "role_id": 938, "is_primary": true}, {"id": 2787290, "title": "Mini beasts", "work_id": 83602, "role": "director", "role_id": 938, "is_primary": true}, {"id": 2787298, "title": "Woodland animals", "work_id": 84112, "role": "director", "role_id": 938, "is_primary": true}, {"id": 2787294, "title": "Pets", "work_id": 83604, "role": "director", "role_id": 938, "is_primary": true}, {"id": 2787322, "title": "Desert animals", "work_id": 85122, "role": "producer/director", "role_id": 31, "is_primary": true}, {"id": 2787318, "title": "Tree animals", "work_id": 85121, "role": "producer/director", "role_id": 31, "is_primary": true}, {"id": 2787329, "title": "See how they grow", "work_id": 115339, "role": "producer/director", "role_id": 31, "is_primary": true}, {"id": 2787326, "title": "Sea animals", "work_id": 85206, "role": "producer/director", "role_id": 31, "is_primary": true}, {"id": 2787314, "title": "Jungle animals", "work_id": 85120, "role": "producer/director", "role_id": 31, "is_primary": true}], "also_known_as": "", "date_of_birth": "", "date_of_death": "", "genders": [], "languages": [], "places_of_operation": [], "biography": "", "biography_author": null, "date_of_biography": "2023-05-09T17:38:11.583721+10:00", "external_links": [], "uuid": "eb9b9346-2e1d-448a-8877-c6299255ad64", "source": {"name": "Vernon", "slug": "vernon"}, "source_identifier": "29835", "external_references": [{"id": 50800, "source": {"name": "Wikidata", "slug": "wikidata"}, "source_identifier": "Q121361123"}], "date_modified": "2025-03-14T19:39:40.061533+11:00"}, {"id": 25699, "name": "School Video", "roles_in_work": [{"id": 2787300, "title": "Wild animals", "work_id": 84113, "role": "production company", "role_id": 941, "is_primary": true}, {"id": 2787308, "title": "Pond animals", "work_id": 84115, "role": "production company", "role_id": 941, "is_primary": true}, {"id": 2787288, "title": "Mini beasts", "work_id": 83602, "role": "production company", "role_id": 941, "is_primary": true}, {"id": 2787296, "title": "Woodland animals", "work_id": 84112, "role": "production company", "role_id": 941, "is_primary": true}], "also_known_as": "", "date_of_birth": "", "date_of_death": "", "genders": [], "languages": [], "places_of_operation": [], "biography": "", "biography_author": null, "date_of_biography": "2023-05-09T17:38:11.125467+10:00", "external_links": [], "uuid": "b29bdac7-34a1-410e-bd82-7c3f42f951db", "source": {"name": "Vernon", "slug": "vernon"}, "source_identifier": "12335", "external_references": [], "date_modified": "2025-03-14T19:39:25.526915+11:00"}, {"id": 25698, "name": "David Furnham", "roles_in_work": [{"id": 2161583, "title": "My first cookery video", "work_id": 83600, "role": "director", "role_id": 938, "is_primary": true}, {"id": 2163456, "title": "My first science video", "work_id": 84118, "role": "director", "role_id": 938, "is_primary": true}, {"id": 2163407, "title": "My first music video", "work_id": 83601, "role": "director", "role_id": 938, "is_primary": true}, {"id": 2163315, "title": "My first green video", "work_id": 83603, "role": "director", "role_id": 938, "is_primary": true}, {"id": 2163451, "title": "My first nature video", "work_id": 84119, "role": "director", "role_id": 938, "is_primary": true}, {"id": 2163359, "title": "My first magic video", "work_id": 85112, "role": "director", "role_id": 938, "is_primary": true}, {"id": 2161575, "title": "My first activity video", "work_id": 84117, "role": "director", "role_id": 938, "is_primary": true}], "also_known_as": "", "date_of_birth": "", "date_of_death": "", "genders": [], "languages": [], "places_of_operation": [], "biography": "", "biography_author": null, "date_of_biography": "2023-05-09T14:20:55.114580+10:00", "external_links": [], "uuid": "3bb48b8c-6bbd-466c-8ab6-6e9ab3ab55df", "source": {"name": "Vernon", "slug": "vernon"}, "source_identifier": "17582", "external_references": [], "date_modified": "2023-06-14T16:33:30.576250+10:00"}]}