{"count": 28687, "next": "https://api.acmi.net.au/creators/?page=1479", "previous": "https://api.acmi.net.au/creators/?page=1477", "results": [{"id": 34733, "name": "Waris Hussein", "roles_in_work": [{"id": 1997002, "title": "Henry VIII and his six wives", "work_id": 93066, "role": "director", "role_id": 938, "is_primary": true}], "also_known_as": "", "date_of_birth": "1938-12-09", "date_of_death": null, "genders": [{"id": 9, "name": "Male", "slug": "male"}], "languages": [{"id": 1, "name": "English", "slug": "english"}], "places_of_operation": [{"id": 10, "name": "United Kingdom", "slug": "united-kingdom"}], "biography": "Waris Hussein (né Habibullah; born 9 December 1938) is a British-Indian television and film director. At the beginning of his career he was employed by the BBC as its youngest drama director. He directed early episodes of Doctor Who, including the first serial, An Unearthly Child (1963), and later directed the multiple-award-winning Thames Television serial Edward & Mrs. Simpson (1978).", "biography_author": "Wikidata", "date_of_biography": "2023-08-01T17:24:58.361268+10:00", "external_links": [{"id": 5332, "uri": "https://en.wikipedia.org/wiki/Waris_Hussein"}], "uuid": "7098442e-0383-4442-8b9c-8ac862fa1e60", "source": {"name": "Vernon", "slug": "vernon"}, "source_identifier": "30278", "external_references": [{"id": 26014, "source": {"name": "Wikidata", "slug": "wikidata"}, "source_identifier": "Q2570928"}, {"id": 31952, "source": {"name": "VIAF", "slug": "viaf"}, "source_identifier": "26145641"}, {"id": 31953, "source": {"name": "LOC Auth", "slug": "loc-auth"}, "source_identifier": "n88051133"}, {"id": 31954, "source": {"name": "WorldCat", "slug": "worldcat"}, "source_identifier": "lccn-n88051133"}], "date_modified": "2023-09-13T12:33:14.866345+10:00"}, {"id": 34730, "name": "Marc Trabulus", "roles_in_work": [{"id": 2075425, "title": "A Streetcar named desire", "work_id": 93065, "role": "producer", "role_id": 1089, "is_primary": true}], "also_known_as": "", "date_of_birth": "", "date_of_death": "", "genders": [], "languages": [], "places_of_operation": [], "biography": "", "biography_author": null, "date_of_biography": "2023-05-09T11:39:59.980786+10:00", "external_links": [], "uuid": "dcab235f-1253-49da-bcc9-394658b398c5", "source": {"name": "Vernon", "slug": "vernon"}, "source_identifier": "24298", "external_references": [{"id": 34528, "source": {"name": "Wikidata", "slug": "wikidata"}, "source_identifier": "Q121035075"}], "date_modified": "2023-09-05T22:39:55.501820+10:00"}, {"id": 34725, "name": "Jean Delannoy", "roles_in_work": [{"id": 2355166, "title": "The Hunchback of Notre-Dame = Notre Dame de Paris", "work_id": 93063, "role": "director", "role_id": 938, "is_primary": true}, {"id": 3104592, "title": "Le Bossu = the Hunchback", "work_id": 115990, "role": "director", "role_id": 938, "is_primary": true}, {"id": 3104895, "title": "Chiens Perdus Sans Collier = Lost Dogs Without Collar", "work_id": 116135, "role": "director", "role_id": 938, "is_primary": true}, {"id": 3104963, "title": "Marie Antoinette, Reine de France = Marie Antoinette, Queen of France", "work_id": 116172, "role": "director", "role_id": 938, "is_primary": true}], "also_known_as": "", "date_of_birth": "12 JAN 1908", "date_of_death": "18 JUN 2008", "genders": [{"id": 9, "name": "Male", "slug": "male"}], "languages": [{"id": 4, "name": "French", "slug": "french"}], "places_of_operation": [{"id": 17, "name": "France", "slug": "france"}], "biography": "Jean Delannoy (French pronunciation: ​[ʒɑ̃ dəlanwa]; 12 January 1908 – 18 June 2008) was a French actor, film editor, screenwriter and film director. Source: Wikidata; 01/08/2023", "biography_author": null, "date_of_biography": "2025-05-22T22:52:03.867534+10:00", "external_links": [{"id": 4294, "uri": "https://en.wikipedia.org/wiki/Jean_Delannoy"}], "uuid": "61f99566-4782-4343-adec-32801e72ba13", "source": {"name": "Vernon", "slug": "vernon"}, "source_identifier": "21525", "external_references": [{"id": 25462, "source": {"name": "Wikidata", "slug": "wikidata"}, "source_identifier": "Q449087"}, {"id": 29282, "source": {"name": "VIAF", "slug": "viaf"}, "source_identifier": "9858472"}, {"id": 29283, "source": {"name": "LOC Auth", "slug": "loc-auth"}, "source_identifier": "n85341167"}, {"id": 29284, "source": {"name": "WorldCat", "slug": "worldcat"}, "source_identifier": "lccn-n85341167"}], "date_modified": "2025-05-22T22:52:03.867792+10:00"}, {"id": 34724, "name": "Simon Francis", "roles_in_work": [{"id": 924027, "title": "The Norman Gunston show 1", "work_id": 93178, "role": "director", "role_id": 938, "is_primary": true}, {"id": 2330432, "title": "The Best of Big Brother", "work_id": 93062, "role": "director", "role_id": 938, "is_primary": true}, {"id": 924033, "title": "The Norman Gunston show 3", "work_id": 93180, "role": "director", "role_id": 938, "is_primary": true}, {"id": 924030, "title": "The Norman Gunston show 2", "work_id": 93179, "role": "director", "role_id": 938, "is_primary": true}], "also_known_as": "", "date_of_birth": "", "date_of_death": "", "genders": [], "languages": [], "places_of_operation": [], "biography": "", "biography_author": null, "date_of_biography": "2023-05-09T19:24:47.743998+10:00", "external_links": [], "uuid": "4bd9b3cb-25fd-4e1a-8f52-44eaf860c35e", "source": {"name": "Vernon", "slug": "vernon"}, "source_identifier": "28846", "external_references": [{"id": 40287, "source": {"name": "Wikidata", "slug": "wikidata"}, "source_identifier": "Q121126175"}], "date_modified": "2023-09-06T01:20:12.364568+10:00"}, {"id": 34717, "name": "Oscar Lewenstein", "roles_in_work": [{"id": 1996983, "title": "Rita, Sue and Bob too", "work_id": 93059, "role": "production company", "role_id": 941, "is_primary": true}], "also_known_as": "", "date_of_birth": "1917-01-18", "date_of_death": "1997-02-23", "genders": [{"id": 9, "name": "Male", "slug": "male"}], "languages": [], "places_of_operation": [], "biography": "Silvion Oscar Lewenstein (18 January 1917 – 23 February 1997) was a British theatre and film producer, who helped create some of the leading British theatre and film productions of the 1950s and 1960s.", "biography_author": "Wikidata", "date_of_biography": "2022-05-19T12:37:34.686266+10:00", "external_links": [{"id": 2805, "uri": "https://en.wikipedia.org/wiki/Oscar_Lewenstein"}], "uuid": "d73db6bf-38c2-433d-ad5c-e93c45551979", "source": {"name": "Vernon", "slug": "vernon"}, "source_identifier": "25975", "external_references": [{"id": 11957, "source": {"name": "Wikidata", "slug": "wikidata"}, "source_identifier": "Q7106096"}, {"id": 11958, "source": {"name": "VIAF", "slug": "viaf"}, "source_identifier": "25410479"}, {"id": 11959, "source": {"name": "LOC Auth", "slug": "loc-auth"}, "source_identifier": "n94095689"}, {"id": 11960, "source": {"name": "WorldCat", "slug": "worldcat"}, "source_identifier": "lccn-n94095689"}], "date_modified": "2023-09-13T12:31:41.488926+10:00"}, {"id": 34715, "name": "Philip Davis", "roles_in_work": [{"id": 1996977, "title": "i.d.", "work_id": 93056, "role": "director", "role_id": 938, "is_primary": true}], "also_known_as": "", "date_of_birth": "1953-07-30", "date_of_death": null, "genders": [{"id": 9, "name": "Male", "slug": "male"}], "languages": [{"id": 1, "name": "English", "slug": "english"}], "places_of_operation": [{"id": 10, "name": "United Kingdom", "slug": "united-kingdom"}], "biography": "Philip Davis (born 30 July 1953) is an English actor, writer, director and narrator.", "biography_author": "Wikidata", "date_of_biography": "2022-05-19T12:43:20.561883+10:00", "external_links": [{"id": 2871, "uri": "https://en.wikipedia.org/wiki/Phil_Davis_(actor)"}], "uuid": "b3685a2e-3665-4e62-b354-72abe6b2edd4", "source": {"name": "Vernon", "slug": "vernon"}, "source_identifier": "26812", "external_references": [{"id": 12202, "source": {"name": "Wikidata", "slug": "wikidata"}, "source_identifier": "Q915916"}, {"id": 12203, "source": {"name": "VIAF", "slug": "viaf"}, "source_identifier": "68536057"}, {"id": 12204, "source": {"name": "LOC Auth", "slug": "loc-auth"}, "source_identifier": "no97042869"}, {"id": 12205, "source": {"name": "WorldCat", "slug": "worldcat"}, "source_identifier": "lccn-no97042869"}], "date_modified": "2023-09-13T12:31:59.899844+10:00"}, {"id": 34713, "name": "Tom Clegg", "roles_in_work": [{"id": 2171415, "title": "McVicar", "work_id": 93055, "role": "director", "role_id": 938, "is_primary": true}], "also_known_as": "", "date_of_birth": "1934-10-16", "date_of_death": "2016-07-25", "genders": [{"id": 9, "name": "Male", "slug": "male"}], "languages": [{"id": 1, "name": "English", "slug": "english"}], "places_of_operation": [{"id": 10, "name": "United Kingdom", "slug": "united-kingdom"}], "biography": "Thomas Harrison Clegg (16 October 1934 – 24 July 2016) was a British television and film director. He was known as an action director, responsible for many episodes of The Sweeney, its cinema version Sweeney 2 (1978), and Sharpe.\nIn March 2014, Tom joined actress Georgina Hale as very special guests at a 43tv Retro TV Sweeney Meet in Hammersmith, London. Both Tom & Georgina gave an after dinner talk about their careers in TV & Film, and in particular The Sweeney.\n\n", "biography_author": "Wikidata", "date_of_biography": "2022-05-19T13:15:24.402207+10:00", "external_links": [{"id": 3213, "uri": "https://en.wikipedia.org/wiki/Tom_Clegg_(director)"}], "uuid": "8eed397d-b900-4657-a985-fdb69825cb58", "source": {"name": "Vernon", "slug": "vernon"}, "source_identifier": "29819", "external_references": [{"id": 13608, "source": {"name": "Wikidata", "slug": "wikidata"}, "source_identifier": "Q5609809"}, {"id": 13609, "source": {"name": "VIAF", "slug": "viaf"}, "source_identifier": "39582960"}, {"id": 13610, "source": {"name": "LOC Auth", "slug": "loc-auth"}, "source_identifier": "no00071737"}, {"id": 13611, "source": {"name": "WorldCat", "slug": "worldcat"}, "source_identifier": "lccn-no00071737"}], "date_modified": "2023-09-13T12:33:02.075019+10:00"}, {"id": 34711, "name": "Curbishley-Baird Productions", "roles_in_work": [{"id": 2171403, "title": "McVicar", "work_id": 93055, "role": "production company", "role_id": 941, "is_primary": true}, {"id": 1848706, "title": "The Who rocks America: 1982 American Tour", "work_id": 95277, "role": "production company", "role_id": 941, "is_primary": true}], "also_known_as": "", "date_of_birth": "", "date_of_death": "", "genders": [], "languages": [], "places_of_operation": [], "biography": "", "biography_author": null, "date_of_biography": "2023-05-09T14:36:35.138405+10:00", "external_links": [], "uuid": "09164884-953b-4854-b2d3-3e80fb2cb13e", "source": {"name": "Vernon", "slug": "vernon"}, "source_identifier": "7234", "external_references": [{"id": 41130, "source": {"name": "Wikidata", "slug": "wikidata"}, "source_identifier": "Q121035715"}], "date_modified": "2023-09-05T18:47:29.663394+10:00"}, {"id": 34708, "name": "Berwick Street Films", "roles_in_work": [{"id": 2264965, "title": "Scum (D)", "work_id": 93054, "role": "production company", "role_id": 941, "is_primary": true}], "also_known_as": "", "date_of_birth": "", "date_of_death": "", "genders": [], "languages": [], "places_of_operation": [], "biography": "", "biography_author": null, "date_of_biography": "2023-05-09T17:35:04.977766+10:00", "external_links": [], "uuid": "c844ba15-6f76-4c3c-bde3-394079257f2a", "source": {"name": "Vernon", "slug": "vernon"}, "source_identifier": "5820", "external_references": [{"id": 43262, "source": {"name": "Wikidata", "slug": "wikidata"}, "source_identifier": "Q121034967"}], "date_modified": "2023-09-05T18:00:27.831771+10:00"}, {"id": 34706, "name": "Willis Goldbeck", "roles_in_work": [{"id": 2000992, "title": "Love laughs at Andy Hardy", "work_id": 95324, "role": "director", "role_id": 938, "is_primary": true}, {"id": 1996967, "title": "The Man who shot Liberty Valance", "work_id": 93052, "role": "producer", "role_id": 1089, "is_primary": true}], "also_known_as": "", "date_of_birth": "1898-10-24", "date_of_death": "1979-09-17", "genders": [{"id": 9, "name": "Male", "slug": "male"}], "languages": [{"id": 1, "name": "English", "slug": "english"}], "places_of_operation": [{"id": 1, "name": "United States of America", "slug": "united-states-of-america"}], "biography": "Willis Goldbeck (October 24, 1898 – September 17, 1979) was an American screenwriter, film director and producer. He wrote for 40 films between 1923 and 1962. He also directed ten films between 1942 and 1951. Willis graduated from Worcester Academy.\n\n", "biography_author": "Wikidata", "date_of_biography": "2022-05-19T13:23:19.450662+10:00", "external_links": [{"id": 3297, "uri": "https://en.wikipedia.org/wiki/Willis_Goldbeck"}], "uuid": "ccf617e3-336a-4234-ab49-6d2b6c791487", "source": {"name": "Vernon", "slug": "vernon"}, "source_identifier": "30515", "external_references": [{"id": 13948, "source": {"name": "Wikidata", "slug": "wikidata"}, "source_identifier": "Q342853"}, {"id": 13949, "source": {"name": "VIAF", "slug": "viaf"}, "source_identifier": "5134243"}, {"id": 13950, "source": {"name": "LOC Auth", "slug": "loc-auth"}, "source_identifier": "n79109164"}, {"id": 13951, "source": {"name": "WorldCat", "slug": "worldcat"}, "source_identifier": "lccn-n79109164"}], "date_modified": "2023-09-13T12:33:18.626371+10:00"}]}