{"count": 28687, "next": "https://api.acmi.net.au/creators/?page=937", "previous": "https://api.acmi.net.au/creators/?page=935", "results": [{"id": 76222, "name": "Jan Roberts", "roles_in_work": [{"id": 932880, "title": "Munda Nyuringu: he's taken the land. He believes it is his. He won't give it back.", "work_id": 78199, "role": "co-producers/directors", "role_id": 628, "is_primary": true}], "also_known_as": "", "date_of_birth": null, "date_of_death": null, "genders": [], "languages": [], "places_of_operation": [], "biography": "", "biography_author": null, "date_of_biography": null, "external_links": [], "uuid": "d2d49b41-21be-4ac6-90d7-49e95efc7b34", "source": {"name": "Vernon", "slug": "vernon"}, "source_identifier": null, "external_references": [], "date_modified": "2023-06-14T16:33:30.576250+10:00"}, {"id": 76221, "name": "Robert Bropho", "roles_in_work": [{"id": 2495665, "title": "Always Was Always Will Be", "work_id": 122457, "role": "creator", "role_id": 968, "is_primary": true}, {"id": 1921565, "title": "In the name of the crow", "work_id": 81859, "role": "co-director", "role_id": 959, "is_primary": true}, {"id": 932879, "title": "Munda Nyuringu: he's taken the land. He believes it is his. He won't give it back.", "work_id": 78199, "role": "co-producers/directors", "role_id": 628, "is_primary": true}], "also_known_as": "", "date_of_birth": "", "date_of_death": "", "genders": [], "languages": [], "places_of_operation": [], "biography": "", "biography_author": null, "date_of_biography": "2023-08-30T04:10:19.995300+10:00", "external_links": [], "uuid": "7ec7cf9a-f47e-48ab-ac33-26c025a24c1a", "source": {"name": "Vernon", "slug": "vernon"}, "source_identifier": "27664", "external_references": [{"id": 42091, "source": {"name": "Wikidata", "slug": "wikidata"}, "source_identifier": "Q121036642"}], "date_modified": "2023-09-06T04:06:44.164891+10:00"}, {"id": 76220, "name": "Henry Chalfant", "roles_in_work": [{"id": 2316561, "title": "Style wars", "work_id": 78194, "role": "co-producer", "role_id": 915, "is_primary": true}], "also_known_as": "", "date_of_birth": "", "date_of_death": "", "genders": [], "languages": [], "places_of_operation": [], "biography": "", "biography_author": null, "date_of_biography": "2023-05-09T19:05:19.520567+10:00", "external_links": [], "uuid": "a43d1ac6-48e5-496d-8c76-013c92fee79c", "source": {"name": "Vernon", "slug": "vernon"}, "source_identifier": "20478", "external_references": [{"id": 42635, "source": {"name": "Wikidata", "slug": "wikidata"}, "source_identifier": "Q121315649"}], "date_modified": "2023-09-05T20:36:32.323033+10:00"}, {"id": 76219, "name": "David Hubbard", "roles_in_work": [{"id": 2752148, "title": "Potter's Song: Art and philosophy of Paul Soldner", "work_id": 98162, "role": "co-director", "role_id": 959, "is_primary": true}, {"id": 2752137, "title": "Creating with ceramics", "work_id": 98157, "role": "co-director", "role_id": 959, "is_primary": true}, {"id": 2148569, "title": "Creating with watercolor", "work_id": 78175, "role": "co-producers/directors", "role_id": 628, "is_primary": true}], "also_known_as": "", "date_of_birth": "", "date_of_death": "", "genders": [], "languages": [], "places_of_operation": [], "biography": "", "biography_author": null, "date_of_biography": "2023-05-09T15:47:18.802194+10:00", "external_links": [], "uuid": "06549531-7b7c-4e37-a663-9efbb8ca9733", "source": {"name": "Vernon", "slug": "vernon"}, "source_identifier": "17645", "external_references": [{"id": 34504, "source": {"name": "Wikidata", "slug": "wikidata"}, "source_identifier": "Q121314993"}], "date_modified": "2025-03-13T01:00:03.491358+11:00"}, {"id": 76218, "name": "Dick Hoffman", "roles_in_work": [{"id": 2752135, "title": "Creating with ceramics", "work_id": 98157, "role": "co-director", "role_id": 959, "is_primary": true}, {"id": 2752146, "title": "Potter's Song: Art and philosophy of Paul Soldner", "work_id": 98162, "role": "co-director", "role_id": 959, "is_primary": true}, {"id": 2148556, "title": "Creating with watercolor", "work_id": 78175, "role": "co-producers/directors", "role_id": 628, "is_primary": true}], "also_known_as": "", "date_of_birth": "", "date_of_death": "", "genders": [], "languages": [], "places_of_operation": [], "biography": "", "biography_author": null, "date_of_biography": "2023-05-09T15:47:18.340208+10:00", "external_links": [], "uuid": "69eff010-e182-494e-82d6-1a717f783431", "source": {"name": "Vernon", "slug": "vernon"}, "source_identifier": "18113", "external_references": [{"id": 35354, "source": {"name": "Wikidata", "slug": "wikidata"}, "source_identifier": "Q121036568"}], "date_modified": "2025-03-13T01:00:02.272366+11:00"}, {"id": 76217, "name": "David Taft", "roles_in_work": [{"id": 2321423, "title": "Taking chances", "work_id": 85247, "role": "director", "role_id": 938, "is_primary": true}, {"id": 2142831, "title": "Compelling images (TEFC)", "work_id": 78173, "role": "producer", "role_id": 1089, "is_primary": true}], "also_known_as": "", "date_of_birth": "", "date_of_death": "", "genders": [], "languages": [], "places_of_operation": [], "biography": "", "biography_author": null, "date_of_biography": "2023-05-09T19:12:36.338615+10:00", "external_links": [], "uuid": "c6219514-b575-4dda-9900-3991e7141553", "source": {"name": "Vernon", "slug": "vernon"}, "source_identifier": "17814", "external_references": [{"id": 40737, "source": {"name": "Wikidata", "slug": "wikidata"}, "source_identifier": "Q121299272"}], "date_modified": "2023-09-05T19:03:01.386414+10:00"}, {"id": 76216, "name": "Frank Bendinelli", "roles_in_work": [{"id": 898114, "title": "Love stories", "work_id": 78169, "role": "co-director", "role_id": 959, "is_primary": true}], "also_known_as": "", "date_of_birth": null, "date_of_death": null, "genders": [], "languages": [], "places_of_operation": [], "biography": "", "biography_author": null, "date_of_biography": null, "external_links": [], "uuid": "4ac7c35f-e378-4d8b-a3f4-07ff2c7be7f7", "source": {"name": "Vernon", "slug": "vernon"}, "source_identifier": null, "external_references": [{"id": 40031, "source": {"name": "Wikidata", "slug": "wikidata"}, "source_identifier": "Q121298767"}], "date_modified": "2023-09-05T19:48:50.935094+10:00"}, {"id": 76215, "name": "John Langley", "roles_in_work": [{"id": 2140487, "title": "Cocaine blues", "work_id": 78165, "role": "co-producers/directors", "role_id": 628, "is_primary": true}], "also_known_as": "", "date_of_birth": "1943-06-01", "date_of_death": "2021-06-26", "genders": [{"id": 9, "name": "Male", "slug": "male"}], "languages": [], "places_of_operation": [{"id": 1, "name": "United States of America", "slug": "united-states-of-america"}], "biography": "John Russell Langley (June 1, 1943 – June 26, 2021) was an American television and film director, writer, and producer who was best known as the creator and executive producer of the television show Cops, which premiered on Fox in March 1989.\nPrior to that, he was among the reality television pioneers as a producer of various two-hour event specials in syndicated television markets during the 1980s. In fact, Langley was often credited as being the \"Godfather of Reality Television\" with the appearance of Cops in 1989.", "biography_author": "Wikidata", "date_of_biography": "2023-09-05T21:40:38.894637+10:00", "external_links": [{"id": 5928, "uri": "https://en.wikipedia.org/wiki/John_Langley"}], "uuid": "5e4401ef-d547-4267-9068-b8a42ed0c755", "source": {"name": "Vernon", "slug": "vernon"}, "source_identifier": "22368", "external_references": [{"id": 32902, "source": {"name": "Wikidata", "slug": "wikidata"}, "source_identifier": "Q1700788"}, {"id": 54893, "source": {"name": "VIAF", "slug": "viaf"}, "source_identifier": "302893230"}, {"id": 54894, "source": {"name": "LOC Auth", "slug": "loc-auth"}, "source_identifier": "n2002126230"}, {"id": 54895, "source": {"name": "WorldCat", "slug": "worldcat"}, "source_identifier": "lccn-n2002126230"}], "date_modified": "2023-09-05T21:40:38.918458+10:00"}, {"id": 76214, "name": "Malcolm Barbour", "roles_in_work": [{"id": 2140483, "title": "Cocaine blues", "work_id": 78165, "role": "co-producers/directors", "role_id": 628, "is_primary": true}], "also_known_as": "", "date_of_birth": "", "date_of_death": "", "genders": [{"id": 9, "name": "Male", "slug": "male"}], "languages": [], "places_of_operation": [], "biography": "Malcolm Barbour is an American former television producer and the co-creator and former executive producer of the television program Cops (alongside John Langley). Prior to Cops, Barbour worked with Langley on Who Murdered JFK, Cocaine Blues and American Vice: The Doping of a Nation. He stopped being a producer in 1994.In 2003, a Golden Palm Star on the Palm Springs, California, Walk of Stars was dedicated to him.", "biography_author": "Wikidata", "date_of_biography": "2023-09-05T22:37:16.326931+10:00", "external_links": [{"id": 5988, "uri": "https://en.wikipedia.org/wiki/Malcolm_Barbour"}], "uuid": "f8388d39-874d-4650-95c8-689629897f1b", "source": {"name": "Vernon", "slug": "vernon"}, "source_identifier": "24216", "external_references": [{"id": 35677, "source": {"name": "Wikidata", "slug": "wikidata"}, "source_identifier": "Q6742181"}], "date_modified": "2023-09-05T22:37:16.347188+10:00"}, {"id": 76213, "name": "John Coles", "roles_in_work": [{"id": 864639, "title": "Hellfire", "work_id": 78163, "role": "director", "role_id": 938, "is_primary": true}], "also_known_as": "", "date_of_birth": null, "date_of_death": null, "genders": [], "languages": [], "places_of_operation": [], "biography": "", "biography_author": null, "date_of_biography": null, "external_links": [], "uuid": "53724581-91b1-42a9-9c78-ed05ae14ad62", "source": {"name": "Vernon", "slug": "vernon"}, "source_identifier": null, "external_references": [{"id": 41440, "source": {"name": "Wikidata", "slug": "wikidata"}, "source_identifier": "Q121315494"}], "date_modified": "2023-09-05T21:34:30.716265+10:00"}]}