{"count": 28687, "next": "https://api.acmi.net.au/creators/?page=243", "previous": "https://api.acmi.net.au/creators/?page=241", "results": [{"id": 83187, "name": "Albert Hollebecke", "roles_in_work": [{"id": 3104911, "title": "Le Testament du Dr Cordelier = The Testament of Dr Cordelier (TV Version)", "work_id": 116144, "role": "producer", "role_id": 1089, "is_primary": true}], "also_known_as": "", "date_of_birth": null, "date_of_death": null, "genders": [], "languages": [], "places_of_operation": [], "biography": "", "biography_author": null, "date_of_biography": null, "external_links": [], "uuid": "7b8e58db-47f2-4f70-9b1d-69891311d8c2", "source": {"name": "Vernon", "slug": "vernon"}, "source_identifier": "31213", "external_references": [{"id": 33570, "source": {"name": "Wikidata", "slug": "wikidata"}, "source_identifier": "Q121035466"}], "date_modified": "2025-05-22T22:51:26.736049+10:00"}, {"id": 83186, "name": "David Mage", "roles_in_work": [{"id": 3104906, "title": "La Mort En Ce Jardin = Death in the Garden", "work_id": 116141, "role": "producer", "role_id": 1089, "is_primary": true}], "also_known_as": "", "date_of_birth": null, "date_of_death": null, "genders": [], "languages": [], "places_of_operation": [], "biography": "", "biography_author": null, "date_of_biography": null, "external_links": [], "uuid": "6d17e213-acf2-41f3-84bf-a9f0c00026d9", "source": {"name": "Vernon", "slug": "vernon"}, "source_identifier": "31212", "external_references": [{"id": 34868, "source": {"name": "Wikidata", "slug": "wikidata"}, "source_identifier": "Q121126615"}], "date_modified": "2025-05-22T22:51:23.414051+10:00"}, {"id": 83185, "name": "Oscar Dancigers", "roles_in_work": [{"id": 3104905, "title": "La Mort En Ce Jardin = Death in the Garden", "work_id": 116141, "role": "producer", "role_id": 1089, "is_primary": true}], "also_known_as": "", "date_of_birth": null, "date_of_death": null, "genders": [], "languages": [], "places_of_operation": [], "biography": "", "biography_author": null, "date_of_biography": null, "external_links": [], "uuid": "afde3738-26ca-4938-a253-1ba5c3de4bc5", "source": {"name": "Vernon", "slug": "vernon"}, "source_identifier": "31211", "external_references": [{"id": 36358, "source": {"name": "Wikidata", "slug": "wikidata"}, "source_identifier": "Q121298999"}], "date_modified": "2025-05-22T22:51:22.800835+10:00"}, {"id": 83184, "name": "Michel Drach", "roles_in_work": [{"id": 3105131, "title": "On N'enterre Pas le Dimanche = No Funeral on Sundays", "work_id": 116262, "role": "director", "role_id": 938, "is_primary": true}, {"id": 3104904, "title": "Amelie Ou le Temps D'aimer = Amelia or Time for Love", "work_id": 116140, "role": "director", "role_id": 938, "is_primary": true}], "also_known_as": "Michel Philippe Drach", "date_of_birth": "18 OCT 1930", "date_of_death": "15 FEB 1990", "genders": [{"id": 9, "name": "Male", "slug": "male"}], "languages": [{"id": 4, "name": "French", "slug": "french"}], "places_of_operation": [{"id": 17, "name": "France", "slug": "france"}], "biography": "Michel Drach (18 October 1930 in Paris – 14 February 1990 in Paris) was a French film director, writer, producer and actor. Source: Wikidata; 01/08/2023", "biography_author": null, "date_of_biography": "2025-05-22T22:56:53.301709+10:00", "external_links": [{"id": 4724, "uri": "https://en.wikipedia.org/wiki/Michel_Drach"}], "uuid": "784519e1-5dff-4fe0-91d2-c61eea2d3105", "source": {"name": "Vernon", "slug": "vernon"}, "source_identifier": "31210", "external_references": [{"id": 25106, "source": {"name": "Wikidata", "slug": "wikidata"}, "source_identifier": "Q530783"}, {"id": 30391, "source": {"name": "VIAF", "slug": "viaf"}, "source_identifier": "10116"}, {"id": 30392, "source": {"name": "LOC Auth", "slug": "loc-auth"}, "source_identifier": "n2015036222"}, {"id": 30393, "source": {"name": "WorldCat", "slug": "worldcat"}, "source_identifier": "lccn-n2015036222"}], "date_modified": "2025-05-22T22:56:53.301945+10:00"}, {"id": 83183, "name": "Mina Berard", "roles_in_work": [{"id": 3104903, "title": "Amelie Ou le Temps D'aimer = Amelia or Time for Love", "work_id": 116140, "role": "producer", "role_id": 1089, "is_primary": true}], "also_known_as": "", "date_of_birth": "", "date_of_death": "", "genders": [], "languages": [], "places_of_operation": [], "biography": "", "biography_author": null, "date_of_biography": "2023-05-09T12:00:37.990060+10:00", "external_links": [], "uuid": "0aca13e2-28b5-43d5-813c-8073ec8748f5", "source": {"name": "Vernon", "slug": "vernon"}, "source_identifier": "31209", "external_references": [{"id": 37859, "source": {"name": "Wikidata", "slug": "wikidata"}, "source_identifier": "Q121086208"}], "date_modified": "2025-05-22T22:51:21.334867+10:00"}, {"id": 83182, "name": "Georges Jouanne", "roles_in_work": [{"id": 3104901, "title": "Entree des Artistes = the Curtain Rises", "work_id": 116139, "role": "producer", "role_id": 1089, "is_primary": true}], "also_known_as": "", "date_of_birth": "", "date_of_death": "", "genders": [], "languages": [], "places_of_operation": [], "biography": "", "biography_author": null, "date_of_biography": "2023-05-09T16:15:11.268025+10:00", "external_links": [], "uuid": "dd2bb72b-6a12-4827-8f7d-8ba49929cd85", "source": {"name": "Vernon", "slug": "vernon"}, "source_identifier": "31208", "external_references": [{"id": 51179, "source": {"name": "Wikidata", "slug": "wikidata"}, "source_identifier": "Q121358045"}], "date_modified": "2025-05-22T22:51:19.888711+10:00"}, {"id": 83181, "name": "Jacques Rouffio", "roles_in_work": [{"id": 3104898, "title": "Le Sucre = the Sugar", "work_id": 116137, "role": "director", "role_id": 938, "is_primary": true}, {"id": 3105097, "title": "Lea L'hiver = Lea, in Winter", "work_id": 116245, "role": "producer", "role_id": 1089, "is_primary": true}], "also_known_as": "Jacques Camille Jean Rouffio", "date_of_birth": "1928-08-14", "date_of_death": "2016-07-08", "genders": [{"id": 9, "name": "Male", "slug": "male"}], "languages": [{"id": 4, "name": "French", "slug": "french"}], "places_of_operation": [{"id": 17, "name": "France", "slug": "france"}], "biography": "Jacques Rouffio (14 August 1928 – 8 July 2016) was a French film director and screenwriter. His 1986 film My Brother-in-law Killed My Sister was entered into the 36th Berlin International Film Festival.; 11/08/2023", "biography_author": null, "date_of_biography": "2025-05-22T22:56:28.317621+10:00", "external_links": [{"id": 4241, "uri": "https://en.wikipedia.org/wiki/Jacques_Rouffio"}], "uuid": "8f8cdbe7-9f41-476b-81b6-4e1b8e0c8185", "source": {"name": "Vernon", "slug": "vernon"}, "source_identifier": "31063", "external_references": [{"id": 26018, "source": {"name": "Wikidata", "slug": "wikidata"}, "source_identifier": "Q1678092"}, {"id": 29140, "source": {"name": "VIAF", "slug": "viaf"}, "source_identifier": "224107247"}, {"id": 29141, "source": {"name": "LOC Auth", "slug": "loc-auth"}, "source_identifier": "nr97036478"}, {"id": 29142, "source": {"name": "WorldCat", "slug": "worldcat"}, "source_identifier": "lccn-nr97036478"}], "date_modified": "2025-05-22T22:56:28.318036+10:00"}, {"id": 83180, "name": "Rene Gainville", "roles_in_work": [{"id": 3104894, "title": "L'associe = the Associate", "work_id": 116134, "role": "director", "role_id": 938, "is_primary": true}, {"id": 3104918, "title": "Un Jeune Couple = a Young Couple", "work_id": 116147, "role": "director", "role_id": 938, "is_primary": true}], "also_known_as": "", "date_of_birth": "", "date_of_death": "", "genders": [], "languages": [], "places_of_operation": [], "biography": "", "biography_author": null, "date_of_biography": "2023-08-11T19:09:57.748226+10:00", "external_links": [], "uuid": "4e99d7e5-2cb2-474d-9eed-963201c98d5f", "source": {"name": "Vernon", "slug": "vernon"}, "source_identifier": "31207", "external_references": [], "date_modified": "2025-05-22T22:51:31.804768+10:00"}, {"id": 83179, "name": "Simone Allouche", "roles_in_work": [{"id": 3104893, "title": "L'associe = the Associate", "work_id": 116134, "role": "producer", "role_id": 1089, "is_primary": true}], "also_known_as": "", "date_of_birth": "", "date_of_death": "", "genders": [], "languages": [], "places_of_operation": [], "biography": "", "biography_author": null, "date_of_biography": "2023-08-11T19:09:57.106123+10:00", "external_links": [], "uuid": "a8125c55-51e1-4966-a698-49171eb4ecc8", "source": {"name": "Vernon", "slug": "vernon"}, "source_identifier": "31206", "external_references": [{"id": 40152, "source": {"name": "Wikidata", "slug": "wikidata"}, "source_identifier": "Q121035462"}], "date_modified": "2025-05-22T22:51:13.848290+10:00"}, {"id": 83178, "name": "Jean Larriaga", "roles_in_work": [{"id": 3104892, "title": "Un officier de police sans importance = A police officer without importance", "work_id": 116133, "role": "director", "role_id": 938, "is_primary": true}], "also_known_as": "", "date_of_birth": "1945-04-14", "date_of_death": "2016-12-25", "genders": [{"id": 9, "name": "Male", "slug": "male"}], "languages": [{"id": 4, "name": "French", "slug": "french"}], "places_of_operation": [{"id": 17, "name": "France", "slug": "france"}], "biography": "", "biography_author": null, "date_of_biography": null, "external_links": [], "uuid": "683db4da-5830-4c5e-b89d-8c99fac075c3", "source": {"name": "Vernon", "slug": "vernon"}, "source_identifier": "31205", "external_references": [{"id": 42401, "source": {"name": "Wikidata", "slug": "wikidata"}, "source_identifier": "Q15253713"}, {"id": 54799, "source": {"name": "VIAF", "slug": "viaf"}, "source_identifier": "32165730"}, {"id": 54800, "source": {"name": "LOC Auth", "slug": "loc-auth"}, "source_identifier": "nb2003037378"}, {"id": 54801, "source": {"name": "WorldCat", "slug": "worldcat"}, "source_identifier": "lccn-nb2003037378"}], "date_modified": "2025-05-22T22:51:13.003714+10:00"}]}