{"count": 28687, "next": "https://api.acmi.net.au/creators/?page=2098", "previous": "https://api.acmi.net.au/creators/?page=2096", "results": [{"id": 20589, "name": "University of Newcastle Upon Tyne. Audio Visual Centre", "roles_in_work": [{"id": 2647866, "title": "A Complete SPSS job (TEFC)", "work_id": 77597, "role": "production company", "role_id": 941, "is_primary": true}, {"id": 2397420, "title": "Describing the Data No.1 (TEFC)", "work_id": 77595, "role": "production company", "role_id": 941, "is_primary": true}, {"id": 2397422, "title": "Describing the Data No.2 (TEFC)", "work_id": 77596, "role": "production company", "role_id": 941, "is_primary": true}, {"id": 2397425, "title": "Data Subsets and Spss Files (TEFC)", "work_id": 77600, "role": "production company", "role_id": 941, "is_primary": true}], "also_known_as": "", "date_of_birth": "", "date_of_death": "", "genders": [], "languages": [], "places_of_operation": [], "biography": "", "biography_author": null, "date_of_biography": "2023-08-11T12:57:31.457164+10:00", "external_links": [], "uuid": "6779f107-e745-4d5b-bbec-5f0a570bff40", "source": {"name": "Vernon", "slug": "vernon"}, "source_identifier": "13928", "external_references": [], "date_modified": "2025-03-05T13:35:21.958068+11:00"}, {"id": 20588, "name": "John Sucho", "roles_in_work": [{"id": 2760490, "title": "Decreasing inappropriate behaviours (TEFC): timeout", "work_id": 77592, "role": "director", "role_id": 938, "is_primary": true}], "also_known_as": "", "date_of_birth": "", "date_of_death": "", "genders": [], "languages": [], "places_of_operation": [], "biography": "", "biography_author": null, "date_of_biography": "2023-08-11T17:07:58.672578+10:00", "external_links": [], "uuid": "8f0eacf4-cd41-4c7a-9991-dd77a59908b4", "source": {"name": "Vernon", "slug": "vernon"}, "source_identifier": "22548", "external_references": [], "date_modified": "2025-03-14T17:25:26.446708+11:00"}, {"id": 20587, "name": "John Socha", "roles_in_work": [{"id": 2760492, "title": "Decreasing inappropriate behaviours (TEFC): physical restraint", "work_id": 77591, "role": "director", "role_id": 938, "is_primary": true}, {"id": 2760494, "title": "Decreasing inappropriate behaviours (TEFC): Overcorrection", "work_id": 77593, "role": "director", "role_id": 938, "is_primary": true}, {"id": 2760484, "title": "Discovering reinforcers (TEFC)", "work_id": 77587, "role": "director", "role_id": 938, "is_primary": true}, {"id": 2760488, "title": "Decreasing inappropriate behaviours (TEFC): reinforcement procedure", "work_id": 77590, "role": "director", "role_id": 938, "is_primary": true}, {"id": 2760486, "title": "Graduated guidance and backward chaining (TEFC)", "work_id": 77589, "role": "director", "role_id": 938, "is_primary": true}], "also_known_as": "", "date_of_birth": "", "date_of_death": "", "genders": [], "languages": [], "places_of_operation": [], "biography": "", "biography_author": null, "date_of_biography": "2023-08-11T17:08:03.302126+10:00", "external_links": [], "uuid": "6987b518-f9a5-4a45-81a0-937640c06f30", "source": {"name": "Vernon", "slug": "vernon"}, "source_identifier": "22534", "external_references": [], "date_modified": "2025-03-14T17:25:29.316062+11:00"}, {"id": 20586, "name": "Macomb Community College Instructional Television", "roles_in_work": [{"id": 2760493, "title": "Decreasing inappropriate behaviours (TEFC): Overcorrection", "work_id": 77593, "role": "production company", "role_id": 941, "is_primary": true}, {"id": 2760483, "title": "Discovering reinforcers (TEFC)", "work_id": 77587, "role": "production company", "role_id": 941, "is_primary": true}, {"id": 2760485, "title": "Graduated guidance and backward chaining (TEFC)", "work_id": 77589, "role": "production company", "role_id": 941, "is_primary": true}, {"id": 2760487, "title": "Decreasing inappropriate behaviours (TEFC): reinforcement procedure", "work_id": 77590, "role": "production company", "role_id": 941, "is_primary": true}, {"id": 2760489, "title": "Decreasing inappropriate behaviours (TEFC): timeout", "work_id": 77592, "role": "production company", "role_id": 941, "is_primary": true}, {"id": 2760491, "title": "Decreasing inappropriate behaviours (TEFC): physical restraint", "work_id": 77591, "role": "production company", "role_id": 941, "is_primary": true}], "also_known_as": "", "date_of_birth": "", "date_of_death": "", "genders": [], "languages": [], "places_of_operation": [], "biography": "", "biography_author": null, "date_of_biography": "2023-08-11T17:08:02.678769+10:00", "external_links": [], "uuid": "6aa26500-4096-4412-9f0d-4f63b6ad08ba", "source": {"name": "Vernon", "slug": "vernon"}, "source_identifier": "10219", "external_references": [], "date_modified": "2025-03-14T17:25:28.732093+11:00"}, {"id": 20585, "name": "Philip Institute of Technology (Vic.)", "roles_in_work": [{"id": 2465019, "title": "Prevention and Management of Soft Tissue Injuries", "work_id": 77583, "role": "producer", "role_id": 1089, "is_primary": true}], "also_known_as": "", "date_of_birth": "", "date_of_death": "", "genders": [], "languages": [], "places_of_operation": [], "biography": "", "biography_author": null, "date_of_biography": "2023-08-14T10:25:04.506898+10:00", "external_links": [], "uuid": "775d71f5-244d-406b-8724-6b6f5073c3be", "source": {"name": "Vernon", "slug": "vernon"}, "source_identifier": "11447", "external_references": [], "date_modified": "2023-08-14T10:25:04.507279+10:00"}, {"id": 20582, "name": "Glenn Silber", "roles_in_work": [{"id": 2215503, "title": "El Salvador: another Vietnam", "work_id": 77579, "role": "co-producers/directors", "role_id": 628, "is_primary": true}, {"id": 1820097, "title": "From the ashes", "work_id": 77682, "role": "producer", "role_id": 1089, "is_primary": true}], "also_known_as": "", "date_of_birth": "1950-06-27", "date_of_death": "", "genders": [{"id": 9, "name": "Male", "slug": "male"}], "languages": [], "places_of_operation": [], "biography": "", "biography_author": null, "date_of_biography": "2023-05-09T15:53:54.477070+10:00", "external_links": [], "uuid": "134a6ed3-8336-4f50-9793-18da4d9721c4", "source": {"name": "Vernon", "slug": "vernon"}, "source_identifier": "19901", "external_references": [{"id": 34242, "source": {"name": "Wikidata", "slug": "wikidata"}, "source_identifier": "Q22102099"}, {"id": 54566, "source": {"name": "VIAF", "slug": "viaf"}, "source_identifier": "45695063"}, {"id": 54567, "source": {"name": "LOC Auth", "slug": "loc-auth"}, "source_identifier": "n84030842"}], "date_modified": "2023-09-05T20:15:28.195727+10:00"}, {"id": 20581, "name": "Catalyst Media Productions", "roles_in_work": [{"id": 2215496, "title": "El Salvador: another Vietnam", "work_id": 77579, "role": "production company", "role_id": 941, "is_primary": true}], "also_known_as": "", "date_of_birth": "", "date_of_death": "", "genders": [], "languages": [], "places_of_operation": [], "biography": "", "biography_author": null, "date_of_biography": "2023-05-09T15:53:54.233051+10:00", "external_links": [], "uuid": "c8f0eee6-865f-4788-a9d1-d60ddff7368c", "source": {"name": "Vernon", "slug": "vernon"}, "source_identifier": "6351", "external_references": [{"id": 40003, "source": {"name": "Wikidata", "slug": "wikidata"}, "source_identifier": "Q121160029"}], "date_modified": "2023-09-05T18:22:08.743715+10:00"}, {"id": 20580, "name": "Cambridge Documentary", "roles_in_work": [{"id": 2464874, "title": "Pink triangles", "work_id": 77578, "role": "production company", "role_id": 941, "is_primary": true}], "also_known_as": "", "date_of_birth": "", "date_of_death": "", "genders": [], "languages": [], "places_of_operation": [], "biography": "", "biography_author": null, "date_of_biography": "2023-08-14T10:21:30.750415+10:00", "external_links": [], "uuid": "b47ea5c3-cfd1-4b98-8d14-3939133dd3a8", "source": {"name": "Vernon", "slug": "vernon"}, "source_identifier": "6212", "external_references": [], "date_modified": "2023-08-14T10:21:30.750819+10:00"}, {"id": 20578, "name": "Clarity Educational Productions", "roles_in_work": [{"id": 2647861, "title": "The Life and times of Rosie the riveter", "work_id": 77577, "role": "production company", "role_id": 941, "is_primary": true}], "also_known_as": "", "date_of_birth": "", "date_of_death": "", "genders": [], "languages": [], "places_of_operation": [], "biography": "", "biography_author": null, "date_of_biography": "2023-08-14T11:18:30.352979+10:00", "external_links": [], "uuid": "14f5b221-02dc-49a3-b4c1-c52bd6b7dd04", "source": {"name": "Vernon", "slug": "vernon"}, "source_identifier": "6802", "external_references": [], "date_modified": "2025-03-05T13:35:18.494095+11:00"}, {"id": 20576, "name": "New Zealand Broadcasting Corporation", "roles_in_work": [{"id": 765057, "title": "Circus", "work_id": 77693, "role": "production company", "role_id": 941, "is_primary": true}, {"id": 2181850, "title": "Death flight 901: the Erebus disaster", "work_id": 77576, "role": "production company", "role_id": 941, "is_primary": true}, {"id": 765138, "title": "Babies need books", "work_id": 77732, "role": "production company", "role_id": 941, "is_primary": true}], "also_known_as": "", "date_of_birth": "", "date_of_death": "", "genders": [], "languages": [], "places_of_operation": [], "biography": "", "biography_author": null, "date_of_biography": "2023-05-09T14:54:05.090679+10:00", "external_links": [], "uuid": "e529ab98-c3bf-4c5b-be47-3af9edf392e0", "source": {"name": "Vernon", "slug": "vernon"}, "source_identifier": "4309", "external_references": [], "date_modified": "2023-06-14T16:33:30.576250+10:00"}]}