{"count": 28681, "next": "https://api.acmi.net.au/creators/?page=2152", "previous": "https://api.acmi.net.au/creators/?page=2150", "results": [{"id": 19554, "name": "Sunrise Films", "roles_in_work": [{"id": 2770176, "title": "Lena the glassblower: Sweden", "work_id": 98258, "role": "production company", "role_id": 941, "is_primary": true}, {"id": 2753389, "title": "Kathy's pacing horse", "work_id": 98738, "role": "production company", "role_id": 941, "is_primary": true}, {"id": 2749565, "title": "To be a clown", "work_id": 96867, "role": "production company", "role_id": 941, "is_primary": true}, {"id": 2770145, "title": "Gopal's golden pendant: India", "work_id": 97762, "role": "production company", "role_id": 941, "is_primary": true}, {"id": 2770149, "title": "Hasan the carpet weaver: Kashmir", "work_id": 97763, "role": "production company", "role_id": 941, "is_primary": true}, {"id": 2770155, "title": "Igor and the dancing stallions (Yugoslavia)", "work_id": 98201, "role": "production company", "role_id": 941, "is_primary": true}, {"id": 2770162, "title": "Jafar's blue tiles (Iran)", "work_id": 76932, "role": "production company", "role_id": 941, "is_primary": true}, {"id": 2770185, "title": "Ming-Oi the magician (Hong Kong)", "work_id": 97901, "role": "production company", "role_id": 941, "is_primary": true}, {"id": 2770194, "title": "Serama's mask", "work_id": 76143, "role": "production company", "role_id": 941, "is_primary": true}, {"id": 2770197, "title": "Slima the dhowmaker: Tanzania", "work_id": 76911, "role": "production company", "role_id": 941, "is_primary": true}, {"id": 2770201, "title": "Valerie's stained glass window (France)", "work_id": 77046, "role": "production company", "role_id": 941, "is_primary": true}, {"id": 2770214, "title": "Yoshiko the Papermaker (Japan)", "work_id": 97759, "role": "production company", "role_id": 941, "is_primary": true}], "also_known_as": "", "date_of_birth": "", "date_of_death": "", "genders": [], "languages": [], "places_of_operation": [], "biography": "", "biography_author": null, "date_of_biography": "2023-08-11T19:04:23.867606+10:00", "external_links": [], "uuid": "4018d8f6-cf65-4b61-bc3e-b5e009596b0b", "source": {"name": "Vernon", "slug": "vernon"}, "source_identifier": "13054", "external_references": [], "date_modified": "2025-03-14T18:17:48.107878+11:00"}, {"id": 19553, "name": "Bratislav Pojar", "roles_in_work": [{"id": 2122396, "title": "Booom", "work_id": 76142, "role": "director", "role_id": 938, "is_primary": true}], "also_known_as": "", "date_of_birth": "", "date_of_death": "", "genders": [], "languages": [], "places_of_operation": [], "biography": "", "biography_author": null, "date_of_biography": "2023-05-09T13:05:39.104340+10:00", "external_links": [], "uuid": "a1937e83-53a0-406c-9b77-c7ce1985fba9", "source": {"name": "Vernon", "slug": "vernon"}, "source_identifier": "16169", "external_references": [{"id": 39179, "source": {"name": "Wikidata", "slug": "wikidata"}, "source_identifier": "Q121337345"}], "date_modified": "2023-09-05T18:09:10.914915+10:00"}, {"id": 19548, "name": "Bescher Films", "roles_in_work": [{"id": 2467902, "title": "The Plan", "work_id": 76140, "role": "production company", "role_id": 941, "is_primary": true}], "also_known_as": "", "date_of_birth": "", "date_of_death": "", "genders": [], "languages": [], "places_of_operation": [], "biography": "", "biography_author": null, "date_of_biography": "2023-08-14T11:29:35.558621+10:00", "external_links": [], "uuid": "e633987e-2662-4320-85b2-b3658685009f", "source": {"name": "Vernon", "slug": "vernon"}, "source_identifier": "5823", "external_references": [], "date_modified": "2023-08-14T11:29:35.558927+10:00"}, {"id": 19546, "name": "Pepsi-Cola", "roles_in_work": [{"id": 2193463, "title": "Penalty kicks, free kicks and goal keeping", "work_id": 76138, "role": "production company", "role_id": 941, "is_primary": true}, {"id": 2765561, "title": "Shooting", "work_id": 76135, "role": "production company", "role_id": 941, "is_primary": true}, {"id": 2765578, "title": "Physical preparation", "work_id": 76139, "role": "production company", "role_id": 941, "is_primary": true}, {"id": 2765569, "title": "Trapping and heading", "work_id": 76136, "role": "production company", "role_id": 941, "is_primary": true}, {"id": 2765589, "title": "Pele: the master and his method", "work_id": 114909, "role": "production company", "role_id": 941, "is_primary": true}, {"id": 2765555, "title": "Ball juggling and dribbling", "work_id": 76134, "role": "production company", "role_id": 941, "is_primary": true}], "also_known_as": "", "date_of_birth": "", "date_of_death": "", "genders": [], "languages": [], "places_of_operation": [], "biography": "", "biography_author": null, "date_of_biography": "2023-05-09T18:31:57.350562+10:00", "external_links": [], "uuid": "00e3ed1d-888d-43ca-9124-978d0595895b", "source": {"name": "Vernon", "slug": "vernon"}, "source_identifier": "11401", "external_references": [{"id": 37755, "source": {"name": "Wikidata", "slug": "wikidata"}, "source_identifier": "Q121035639"}], "date_modified": "2025-03-14T17:53:24.219583+11:00"}, {"id": 19545, "name": "Peter Oyston", "roles_in_work": [{"id": 2406636, "title": "Effective Questioning in a Classroom Discussion(TEFC)", "work_id": 76133, "role": "producer", "role_id": 1089, "is_primary": true}], "also_known_as": "", "date_of_birth": "", "date_of_death": "", "genders": [], "languages": [], "places_of_operation": [], "biography": "", "biography_author": null, "date_of_biography": "2023-08-11T16:18:26.351133+10:00", "external_links": [], "uuid": "d73fa838-684d-4939-b394-2276b6bf2fd1", "source": {"name": "Vernon", "slug": "vernon"}, "source_identifier": "26667", "external_references": [], "date_modified": "2023-08-11T16:18:26.351369+10:00"}, {"id": 19544, "name": "University of Lancaster (Microteaching Research Unit)", "roles_in_work": [{"id": 2406635, "title": "Effective Questioning in a Classroom Discussion(TEFC)", "work_id": 76133, "role": "production company", "role_id": 941, "is_primary": true}], "also_known_as": "", "date_of_birth": "", "date_of_death": "", "genders": [], "languages": [], "places_of_operation": [], "biography": "", "biography_author": null, "date_of_biography": "2023-08-11T16:18:25.727926+10:00", "external_links": [], "uuid": "12af0b79-79d8-4016-9f70-8f0aca8246c2", "source": {"name": "Vernon", "slug": "vernon"}, "source_identifier": "13920", "external_references": [], "date_modified": "2023-08-11T16:18:25.728166+10:00"}, {"id": 19539, "name": "Jean Yarbrough", "roles_in_work": [{"id": 2647380, "title": "Far from alone", "work_id": 76125, "role": "director", "role_id": 938, "is_primary": true}], "also_known_as": "", "date_of_birth": null, "date_of_death": null, "genders": [], "languages": [], "places_of_operation": [], "biography": "", "biography_author": null, "date_of_biography": null, "external_links": [], "uuid": "ee6109a8-2a76-40f2-881d-4c52d2514985", "source": {"name": "Vernon", "slug": "vernon"}, "source_identifier": "21566", "external_references": [], "date_modified": "2025-03-05T13:25:16.382904+11:00"}, {"id": 19538, "name": "Board of Temperance of the Methodist Church", "roles_in_work": [{"id": 2647379, "title": "Far from alone", "work_id": 76125, "role": "production company", "role_id": 941, "is_primary": true}], "also_known_as": "", "date_of_birth": null, "date_of_death": null, "genders": [], "languages": [], "places_of_operation": [], "biography": "", "biography_author": null, "date_of_biography": null, "external_links": [], "uuid": "d42cc72f-4f39-444c-b65c-93afe7b24605", "source": {"name": "Vernon", "slug": "vernon"}, "source_identifier": "5926", "external_references": [], "date_modified": "2025-03-05T13:25:15.790174+11:00"}, {"id": 19537, "name": "Face Film Productions", "roles_in_work": [{"id": 2647376, "title": "Faces of India: Raju, a guide from Rishikesh", "work_id": 76124, "role": "production company", "role_id": 941, "is_primary": true}], "also_known_as": "", "date_of_birth": "", "date_of_death": "", "genders": [], "languages": [], "places_of_operation": [], "biography": "", "biography_author": null, "date_of_biography": "2023-05-09T16:25:46.709014+10:00", "external_links": [], "uuid": "0acecc0a-bf92-4563-b513-af227945fa3d", "source": {"name": "Vernon", "slug": "vernon"}, "source_identifier": "8068", "external_references": [{"id": 40652, "source": {"name": "Wikidata", "slug": "wikidata"}, "source_identifier": "Q121315071"}], "date_modified": "2025-03-05T13:25:13.663586+11:00"}, {"id": 19536, "name": "Tom Haydon", "roles_in_work": [{"id": 2748772, "title": "William Morris Hughes", "work_id": 96456, "role": "director", "role_id": 938, "is_primary": true}, {"id": 2132932, "title": "Casey", "work_id": 96317, "role": "co-producers/directors", "role_id": 628, "is_primary": true}, {"id": 826693, "title": "Mister Prime Minister: Robert Gordon Menzies", "work_id": 96458, "role": "producer/director", "role_id": 31, "is_primary": true}, {"id": 826691, "title": "Mister Prime Minister: Joseph Aloysius Lyons", "work_id": 96457, "role": "producer/director", "role_id": 31, "is_primary": true}, {"id": 2748770, "title": "Mister Prime Minister: John Curtin", "work_id": 96455, "role": "producer/director", "role_id": 31, "is_primary": true}, {"id": 1932122, "title": "The Last Tasmanian: a story of genocide", "work_id": 87569, "role": "producer/director", "role_id": 31, "is_primary": true}, {"id": 1932087, "title": "The Last Tasmanian : A story of genocide", "work_id": 86578, "role": "producer/director", "role_id": 31, "is_primary": true}, {"id": 888140, "title": "Mister prime minister: Alfred Deakin", "work_id": 98053, "role": "producer/director", "role_id": 31, "is_primary": true}, {"id": 862230, "title": "Dig a million, make a million", "work_id": 76121, "role": "producer/director", "role_id": 31, "is_primary": true}, {"id": 2751577, "title": "Mister Prime Minister: Joseph Benedict Chifley", "work_id": 97875, "role": "producer/director", "role_id": 31, "is_primary": true}], "also_known_as": "", "date_of_birth": "", "date_of_death": "", "genders": [], "languages": [], "places_of_operation": [], "biography": "", "biography_author": null, "date_of_biography": "2023-05-09T13:23:20.337104+10:00", "external_links": [], "uuid": "92f33ed3-c828-44e9-9f43-95b5bf2973a8", "source": {"name": "Vernon", "slug": "vernon"}, "source_identifier": "29840", "external_references": [], "date_modified": "2025-03-13T00:46:19.586332+11:00"}]}