{"count": 28687, "next": "https://api.acmi.net.au/creators/?page=189", "previous": "https://api.acmi.net.au/creators/?page=187", "results": [{"id": 83727, "name": "Aaron Huynh", "roles_in_work": [{"id": 2655568, "title": "Future", "work_id": 116979, "role": "creator", "role_id": 968, "is_primary": true}], "also_known_as": "", "date_of_birth": "", "date_of_death": "", "genders": [], "languages": [], "places_of_operation": [], "biography": "", "biography_author": null, "date_of_biography": "2023-05-09T17:43:54.034498+10:00", "external_links": [], "uuid": "4f67fcaa-7661-4bd1-9d97-47d7660f5c82", "source": {"name": "Vernon", "slug": "vernon"}, "source_identifier": "35319", "external_references": [], "date_modified": "2025-03-05T16:16:23.910216+11:00"}, {"id": 83726, "name": "Carey Baptist Grammar School", "roles_in_work": [{"id": 2719501, "title": "When I Grow Up", "work_id": 117684, "role": "creator", "role_id": 968, "is_primary": true}, {"id": 2655555, "title": "Control Your Carbon Dioxides", "work_id": 116978, "role": "creator", "role_id": 968, "is_primary": true}], "also_known_as": "", "date_of_birth": "", "date_of_death": "", "genders": [], "languages": [], "places_of_operation": [], "biography": "", "biography_author": null, "date_of_biography": "2023-05-09T19:58:04.637004+10:00", "external_links": [], "uuid": "f62d70f0-12ab-4157-a24f-08ce51cb8812", "source": {"name": "Vernon", "slug": "vernon"}, "source_identifier": "35312", "external_references": [], "date_modified": "2025-03-12T07:05:34.807517+11:00"}, {"id": 83725, "name": "Cara Thomas", "roles_in_work": [{"id": 2655556, "title": "Control Your Carbon Dioxides", "work_id": 116978, "role": "creator", "role_id": 968, "is_primary": true}], "also_known_as": "", "date_of_birth": "", "date_of_death": "", "genders": [], "languages": [], "places_of_operation": [], "biography": "", "biography_author": null, "date_of_biography": "2023-05-09T17:43:51.510697+10:00", "external_links": [], "uuid": "f8eef952-fa11-43f3-8e26-eb74c5734644", "source": {"name": "Vernon", "slug": "vernon"}, "source_identifier": "35311", "external_references": [], "date_modified": "2025-03-05T16:16:16.857741+11:00"}, {"id": 83724, "name": "Auburn Primary School", "roles_in_work": [{"id": 2655565, "title": "Bins vs. Rubbish [game trailer]", "work_id": 116977, "role": "creator", "role_id": 968, "is_primary": true}], "also_known_as": "", "date_of_birth": "", "date_of_death": "", "genders": [], "languages": [], "places_of_operation": [], "biography": "", "biography_author": null, "date_of_biography": "2023-05-09T17:43:45.609352+10:00", "external_links": [], "uuid": "9ec25df8-ee40-4f33-8775-aeab41c9ef6c", "source": {"name": "Vernon", "slug": "vernon"}, "source_identifier": "35318", "external_references": [], "date_modified": "2025-03-05T16:16:22.725639+11:00"}, {"id": 83723, "name": "Ari Kritzerseferi", "roles_in_work": [{"id": 2655564, "title": "Bins vs. Rubbish [game trailer]", "work_id": 116977, "role": "creator", "role_id": 968, "is_primary": true}], "also_known_as": "", "date_of_birth": "", "date_of_death": "", "genders": [], "languages": [], "places_of_operation": [], "biography": "", "biography_author": null, "date_of_biography": "2023-05-09T17:43:45.383954+10:00", "external_links": [], "uuid": "c585792a-2ce8-4518-a1ff-c153a3725a87", "source": {"name": "Vernon", "slug": "vernon"}, "source_identifier": "35317", "external_references": [], "date_modified": "2025-03-05T16:16:22.152590+11:00"}, {"id": 83722, "name": "Harry Dempsey", "roles_in_work": [{"id": 2655562, "title": "Bins vs. Rubbish [game trailer]", "work_id": 116977, "role": "creator", "role_id": 968, "is_primary": true}], "also_known_as": "", "date_of_birth": "", "date_of_death": "", "genders": [], "languages": [], "places_of_operation": [], "biography": "", "biography_author": null, "date_of_biography": "2023-05-09T17:43:45.142352+10:00", "external_links": [], "uuid": "368906a3-5fb3-4695-b377-9d485b9e1a2d", "source": {"name": "Vernon", "slug": "vernon"}, "source_identifier": "35316", "external_references": [], "date_modified": "2025-03-05T16:16:21.560232+11:00"}, {"id": 83721, "name": "Jordan Trieu", "roles_in_work": [{"id": 2655563, "title": "Bins vs. Rubbish [game trailer]", "work_id": 116977, "role": "creator", "role_id": 968, "is_primary": true}], "also_known_as": "", "date_of_birth": "", "date_of_death": "", "genders": [], "languages": [], "places_of_operation": [], "biography": "", "biography_author": null, "date_of_biography": "2023-05-09T17:43:44.913933+10:00", "external_links": [], "uuid": "25938098-dae1-48ff-b167-5ed40c7c4b0e", "source": {"name": "Vernon", "slug": "vernon"}, "source_identifier": "35315", "external_references": [], "date_modified": "2025-03-05T16:16:20.981058+11:00"}, {"id": 83720, "name": "Luc Thompson", "roles_in_work": [{"id": 2655561, "title": "Bins vs. Rubbish [game trailer]", "work_id": 116977, "role": "creator", "role_id": 968, "is_primary": true}], "also_known_as": "", "date_of_birth": "", "date_of_death": "", "genders": [], "languages": [], "places_of_operation": [], "biography": "", "biography_author": null, "date_of_biography": "2023-05-09T17:43:44.690992+10:00", "external_links": [], "uuid": "df27558d-801b-4037-8181-6fee34b49312", "source": {"name": "Vernon", "slug": "vernon"}, "source_identifier": "35314", "external_references": [], "date_modified": "2025-03-05T16:16:20.402722+11:00"}, {"id": 83719, "name": "David Clune", "roles_in_work": [{"id": 2655425, "title": "Digital Storytelling workshop : general public (September 2007)", "work_id": 116970, "role": "creator", "role_id": 968, "is_primary": true}, {"id": 2655432, "title": "My ambitions", "work_id": 116975, "role": "creator", "role_id": 968, "is_primary": true}], "also_known_as": "", "date_of_birth": "", "date_of_death": "", "genders": [{"id": 9, "name": "Male", "slug": "male"}], "languages": [], "places_of_operation": [], "biography": "", "biography_author": null, "date_of_biography": "2023-05-09T17:03:26.882348+10:00", "external_links": [], "uuid": "0638b242-58e4-46da-b26a-36a8a872f2da", "source": {"name": "Vernon", "slug": "vernon"}, "source_identifier": "35297", "external_references": [], "date_modified": "2025-03-05T16:14:50.238677+11:00"}, {"id": 83718, "name": "Robyn Colls", "roles_in_work": [{"id": 2655428, "title": "Digital Storytelling workshop : general public (September 2007)", "work_id": 116970, "role": "creator", "role_id": 968, "is_primary": true}, {"id": 2655441, "title": "May's early days", "work_id": 116974, "role": "creator", "role_id": 968, "is_primary": true}], "also_known_as": "", "date_of_birth": "", "date_of_death": "", "genders": [{"id": 5, "name": "Female", "slug": "female"}], "languages": [], "places_of_operation": [], "biography": "", "biography_author": null, "date_of_biography": "2023-05-09T17:03:22.981664+10:00", "external_links": [], "uuid": "0af3a555-2904-47ed-96f8-c5bc43542a95", "source": {"name": "Vernon", "slug": "vernon"}, "source_identifier": "35300", "external_references": [], "date_modified": "2025-03-05T16:14:56.817263+11:00"}]}