{"count": 28687, "next": "https://api.acmi.net.au/creators/?page=385", "previous": "https://api.acmi.net.au/creators/?page=383", "results": [{"id": 81743, "name": "Kathleen English", "roles_in_work": [{"id": 2754001, "title": "'Rivers of fire': an eruption of Hawaii's Mauna Loa Volcano", "work_id": 99016, "role": "co-producer", "role_id": 915, "is_primary": true}], "also_known_as": "", "date_of_birth": "", "date_of_death": "", "genders": [], "languages": [], "places_of_operation": [], "biography": "", "biography_author": null, "date_of_biography": "2023-05-09T09:54:19.892538+10:00", "external_links": [], "uuid": "8889ad5b-718c-4eaa-b0f3-9840c53a0092", "source": {"name": "Vernon", "slug": "vernon"}, "source_identifier": "23077", "external_references": [{"id": 35409, "source": {"name": "Wikidata", "slug": "wikidata"}, "source_identifier": "Q121091127"}], "date_modified": "2025-03-13T01:36:15.059584+11:00"}, {"id": 81742, "name": "Deborah Lawther", "roles_in_work": [{"id": 2753991, "title": "Phiguring out acids and bases", "work_id": 99011, "role": "co-producer", "role_id": 915, "is_primary": true}], "also_known_as": "", "date_of_birth": "", "date_of_death": "", "genders": [], "languages": [], "places_of_operation": [], "biography": "", "biography_author": null, "date_of_biography": "2023-05-09T15:30:13.870831+10:00", "external_links": [], "uuid": "0e34ff86-faa4-4631-a669-6cd566fa5c1d", "source": {"name": "Vernon", "slug": "vernon"}, "source_identifier": "17910", "external_references": [{"id": 51654, "source": {"name": "Wikidata", "slug": "wikidata"}, "source_identifier": "Q121357924"}], "date_modified": "2025-03-13T01:36:08.357779+11:00"}, {"id": 81741, "name": "Julie Sheehan", "roles_in_work": [{"id": 2753973, "title": "Countering sexism", "work_id": 99003, "role": "co-producer", "role_id": 915, "is_primary": true}, {"id": 2753977, "title": "Women working in the media", "work_id": 99004, "role": "co-producer", "role_id": 915, "is_primary": true}], "also_known_as": "", "date_of_birth": "", "date_of_death": "", "genders": [], "languages": [], "places_of_operation": [], "biography": "", "biography_author": null, "date_of_biography": "2023-05-09T13:46:52.134614+10:00", "external_links": [], "uuid": "dad9ea7c-c2e7-44ca-b3ca-df1cdef44b10", "source": {"name": "Vernon", "slug": "vernon"}, "source_identifier": "22911", "external_references": [{"id": 41986, "source": {"name": "Wikidata", "slug": "wikidata"}, "source_identifier": "Q121036516"}], "date_modified": "2025-03-13T01:35:58.309607+11:00"}, {"id": 81740, "name": "David Stansfield", "roles_in_work": [{"id": 2116323, "title": "Bits and bytes. Parts 1-12", "work_id": 98954, "role": "co-producer", "role_id": 915, "is_primary": true}], "also_known_as": "", "date_of_birth": "", "date_of_death": "", "genders": [], "languages": [], "places_of_operation": [], "biography": "", "biography_author": null, "date_of_biography": "2023-05-09T12:54:43.442690+10:00", "external_links": [], "uuid": "157e6050-065a-4f91-9c9a-4597cef8cb14", "source": {"name": "Vernon", "slug": "vernon"}, "source_identifier": "17806", "external_references": [{"id": 36974, "source": {"name": "Wikidata", "slug": "wikidata"}, "source_identifier": "Q107295130"}], "date_modified": "2023-09-05T19:02:53.724719+10:00"}, {"id": 81739, "name": "Denise Boiteau", "roles_in_work": [{"id": 2116320, "title": "Bits and bytes. Parts 1-12", "work_id": 98954, "role": "co-producer", "role_id": 915, "is_primary": true}], "also_known_as": "", "date_of_birth": "", "date_of_death": "", "genders": [], "languages": [], "places_of_operation": [], "biography": "", "biography_author": null, "date_of_biography": "2023-05-09T12:54:43.208874+10:00", "external_links": [], "uuid": "c6569d05-5f57-4a6b-ab88-3f10f296163c", "source": {"name": "Vernon", "slug": "vernon"}, "source_identifier": "17976", "external_references": [{"id": 50612, "source": {"name": "Wikidata", "slug": "wikidata"}, "source_identifier": "Q121357798"}], "date_modified": "2023-09-05T19:08:06.536988+10:00"}, {"id": 81738, "name": "Peter Whitechurch", "roles_in_work": [{"id": 832366, "title": "Olympic games 1956", "work_id": 98943, "role": "producer/director", "role_id": 31, "is_primary": true}], "also_known_as": "", "date_of_birth": null, "date_of_death": null, "genders": [], "languages": [], "places_of_operation": [], "biography": "", "biography_author": null, "date_of_biography": null, "external_links": [], "uuid": "3fd5edb5-3857-4553-90aa-0f0a8ab8c64f", "source": {"name": "Vernon", "slug": "vernon"}, "source_identifier": null, "external_references": [{"id": 51661, "source": {"name": "Wikidata", "slug": "wikidata"}, "source_identifier": "Q121360880"}], "date_modified": "2023-09-06T00:02:17.284007+10:00"}, {"id": 81737, "name": "David Melnick", "roles_in_work": [{"id": 2753784, "title": "That's entertainment. Part 2", "work_id": 98926, "role": "co-producer", "role_id": 915, "is_primary": true}], "also_known_as": "", "date_of_birth": "", "date_of_death": "", "genders": [], "languages": [], "places_of_operation": [], "biography": "", "biography_author": null, "date_of_biography": "2023-05-09T19:18:03.095580+10:00", "external_links": [], "uuid": "007d392f-d0f3-4392-94e5-7c579ab306e7", "source": {"name": "Vernon", "slug": "vernon"}, "source_identifier": "17711", "external_references": [{"id": 36252, "source": {"name": "Wikidata", "slug": "wikidata"}, "source_identifier": "Q121159758"}], "date_modified": "2025-03-13T01:32:09.208448+11:00"}, {"id": 81736, "name": "Saul Chaplin", "roles_in_work": [{"id": 2753783, "title": "That's entertainment. Part 2", "work_id": 98926, "role": "co-producer", "role_id": 915, "is_primary": true}], "also_known_as": "", "date_of_birth": "", "date_of_death": "", "genders": [], "languages": [], "places_of_operation": [], "biography": "", "biography_author": null, "date_of_biography": "2023-05-09T19:18:02.762646+10:00", "external_links": [], "uuid": "6bf62679-9a1f-4902-a0b5-ae2006a5e931", "source": {"name": "Vernon", "slug": "vernon"}, "source_identifier": "28608", "external_references": [{"id": 41937, "source": {"name": "Wikidata", "slug": "wikidata"}, "source_identifier": "Q121079576"}], "date_modified": "2025-03-13T01:32:08.608319+11:00"}, {"id": 81735, "name": "Paul Gerber", "roles_in_work": [{"id": 2753746, "title": "The Challenge of survival: chemicals", "work_id": 98911, "role": "producer/director", "role_id": 31, "is_primary": true}], "also_known_as": "", "date_of_birth": "", "date_of_death": "", "genders": [], "languages": [], "places_of_operation": [], "biography": "", "biography_author": null, "date_of_biography": "2023-05-09T19:33:19.583593+10:00", "external_links": [], "uuid": "0e3d576c-d317-42ae-942c-054309b57e09", "source": {"name": "Vernon", "slug": "vernon"}, "source_identifier": "26228", "external_references": [{"id": 40126, "source": {"name": "Wikidata", "slug": "wikidata"}, "source_identifier": "Q120147054"}], "date_modified": "2025-03-13T01:31:37.804489+11:00"}, {"id": 81734, "name": "Abdellatif Ben Ammar", "roles_in_work": [{"id": 2753718, "title": "Tree of survival", "work_id": 98900, "role": "producer/director", "role_id": 31, "is_primary": true}], "also_known_as": "", "date_of_birth": null, "date_of_death": null, "genders": [], "languages": [], "places_of_operation": [], "biography": "", "biography_author": null, "date_of_biography": null, "external_links": [], "uuid": "00b45d81-2847-4670-9c20-0594ab04cee7", "source": {"name": "Vernon", "slug": "vernon"}, "source_identifier": "31858", "external_references": [{"id": 52061, "source": {"name": "Wikidata", "slug": "wikidata"}, "source_identifier": "Q121360642"}], "date_modified": "2025-03-13T01:31:16.397829+11:00"}]}