{"count": 28687, "next": "https://api.acmi.net.au/creators/?page=1959", "previous": "https://api.acmi.net.au/creators/?page=1957", "results": [{"id": 23389, "name": "Mutual", "roles_in_work": [{"id": 2263238, "title": "Saving Private Ryan", "work_id": 88086, "role": "production company", "role_id": 941, "is_primary": true}, {"id": 2136072, "title": "Charlie Chaplin. Vol. 01", "work_id": 81168, "role": "production company", "role_id": 941, "is_primary": true}, {"id": 2136091, "title": "Charlie Chaplin. Vol. 03", "work_id": 81169, "role": "production company", "role_id": 941, "is_primary": true}, {"id": 875829, "title": "[Behind the screen]", "work_id": 89674, "role": "production company", "role_id": 941, "is_primary": true}, {"id": 2136090, "title": "Charlie Chaplin. Vol. 02", "work_id": 81167, "role": "production company", "role_id": 941, "is_primary": true}], "also_known_as": "", "date_of_birth": "", "date_of_death": "", "genders": [], "languages": [], "places_of_operation": [], "biography": "", "biography_author": null, "date_of_biography": "2023-05-09T17:32:06.378538+10:00", "external_links": [], "uuid": "59dd76cd-bb3a-4a11-83cb-24469f752171", "source": {"name": "Vernon", "slug": "vernon"}, "source_identifier": "10740", "external_references": [], "date_modified": "2023-06-14T16:33:30.576250+10:00"}, {"id": 23384, "name": "Focus in Education", "roles_in_work": [{"id": 2306660, "title": "Space: the frontiers and beyond", "work_id": 81162, "role": "production company", "role_id": 941, "is_primary": true}], "also_known_as": "", "date_of_birth": "", "date_of_death": "", "genders": [], "languages": [], "places_of_operation": [], "biography": "", "biography_author": null, "date_of_biography": "2023-05-09T18:46:05.477066+10:00", "external_links": [], "uuid": "d1132006-c6be-4a06-a51f-da9b91079e4d", "source": {"name": "Vernon", "slug": "vernon"}, "source_identifier": "8421", "external_references": [{"id": 34072, "source": {"name": "Wikidata", "slug": "wikidata"}, "source_identifier": "Q121034441"}], "date_modified": "2023-09-05T19:45:01.671284+10:00"}, {"id": 23382, "name": "Safari Productions", "roles_in_work": [{"id": 781939, "title": "Gardening secrets: Spring", "work_id": 83307, "role": "production company", "role_id": 941, "is_primary": true}, {"id": 2352530, "title": "Action Downunder", "work_id": 115182, "role": "production company", "role_id": 941, "is_primary": true}, {"id": 2352540, "title": "The Great New Zealand Fishing Safari", "work_id": 81160, "role": "production company", "role_id": 941, "is_primary": true}, {"id": 781949, "title": "Gardening secrets: Summer", "work_id": 83310, "role": "production company", "role_id": 941, "is_primary": true}], "also_known_as": "", "date_of_birth": "", "date_of_death": "", "genders": [], "languages": [], "places_of_operation": [], "biography": "", "biography_author": null, "date_of_biography": "2023-05-09T19:58:36.981739+10:00", "external_links": [], "uuid": "57ed1963-00ad-4652-bd60-06889d8c5382", "source": {"name": "Vernon", "slug": "vernon"}, "source_identifier": "12229", "external_references": [{"id": 38836, "source": {"name": "Wikidata", "slug": "wikidata"}, "source_identifier": "Q121337580"}], "date_modified": "2023-09-06T01:01:30.972493+10:00"}, {"id": 23381, "name": "Johanna Demetrakas", "roles_in_work": [{"id": 2162283, "title": "Massage for Health", "work_id": 81152, "role": "director", "role_id": 938, "is_primary": true}, {"id": 2751550, "title": "Right out of history: Judy Chicago's 'Dinner party'", "work_id": 97861, "role": "director", "role_id": 938, "is_primary": true}, {"id": 2162282, "title": "Massage for Health", "work_id": 81152, "role": "co-producer", "role_id": 915, "is_primary": true}], "also_known_as": "", "date_of_birth": "", "date_of_death": "", "genders": [], "languages": [], "places_of_operation": [], "biography": "", "biography_author": null, "date_of_biography": "2023-05-09T14:18:38.795668+10:00", "external_links": [], "uuid": "899777a9-3f78-4da3-a3c9-e2ad0b10dbcd", "source": {"name": "Vernon", "slug": "vernon"}, "source_identifier": "22082", "external_references": [{"id": 37023, "source": {"name": "Wikidata", "slug": "wikidata"}, "source_identifier": "Q121222709"}], "date_modified": "2025-03-13T00:46:01.110762+11:00"}, {"id": 23379, "name": "Healing Arts Home Video", "roles_in_work": [{"id": 2162280, "title": "Massage for Health", "work_id": 81152, "role": "production company", "role_id": 941, "is_primary": true}], "also_known_as": "", "date_of_birth": "", "date_of_death": "", "genders": [], "languages": [], "places_of_operation": [], "biography": "", "biography_author": null, "date_of_biography": "2023-05-09T14:18:37.956590+10:00", "external_links": [], "uuid": "45de9362-63ad-4472-a6db-e5686e42371f", "source": {"name": "Vernon", "slug": "vernon"}, "source_identifier": "9039", "external_references": [{"id": 37623, "source": {"name": "Wikidata", "slug": "wikidata"}, "source_identifier": "Q121271097"}], "date_modified": "2023-09-05T20:33:18.554820+10:00"}, {"id": 23376, "name": "Sky Visuals", "roles_in_work": [{"id": 903909, "title": "Wild bush budgie; a very particular parrot.", "work_id": 84997, "role": "production company", "role_id": 941, "is_primary": true}, {"id": 774711, "title": "Wild Dog Dingo", "work_id": 81236, "role": "production company", "role_id": 941, "is_primary": true}, {"id": 2473958, "title": "The Art of tracking", "work_id": 85857, "role": "production company", "role_id": 941, "is_primary": true}, {"id": 2649923, "title": "Islands in the sky: the search for the Black Tree Kangaroo", "work_id": 82403, "role": "production company", "role_id": 941, "is_primary": true}, {"id": 905287, "title": "Flight of the rhino", "work_id": 85990, "role": "production company", "role_id": 941, "is_primary": true}, {"id": 774397, "title": "Brumby: Horse Run Wild", "work_id": 81151, "role": "production company", "role_id": 941, "is_primary": true}], "also_known_as": "", "date_of_birth": "", "date_of_death": "", "genders": [], "languages": [], "places_of_operation": [], "biography": "", "biography_author": null, "date_of_biography": "2023-08-16T03:40:45.278678+10:00", "external_links": [], "uuid": "02d81624-c266-4e37-a2c2-7a452976ab64", "source": {"name": "Vernon", "slug": "vernon"}, "source_identifier": "12636", "external_references": [{"id": 34911, "source": {"name": "Wikidata", "slug": "wikidata"}, "source_identifier": "Q121222940"}], "date_modified": "2025-03-05T14:07:31.700863+11:00"}, {"id": 23375, "name": "Harold Lasswell", "roles_in_work": [{"id": 2649218, "title": "Democracy", "work_id": 81141, "role": "producer", "role_id": 1089, "is_primary": true}], "also_known_as": "", "date_of_birth": null, "date_of_death": null, "genders": [], "languages": [], "places_of_operation": [], "biography": "", "biography_author": null, "date_of_biography": null, "external_links": [], "uuid": "75563a72-09eb-47c9-b488-9330cb395202", "source": {"name": "Vernon", "slug": "vernon"}, "source_identifier": "20273", "external_references": [], "date_modified": "2025-03-05T13:57:31.228095+11:00"}, {"id": 23374, "name": "One World Films", "roles_in_work": [{"id": 774396, "title": "Brumby: Horse Run Wild", "work_id": 81151, "role": "distributor", "role_id": 437, "is_primary": false}, {"id": 1846067, "title": "The Social Climbers", "work_id": 81140, "role": "distributor", "role_id": 437, "is_primary": false}, {"id": 2188412, "title": "Passage Out of Paradise", "work_id": 81245, "role": "distributor", "role_id": 437, "is_primary": false}, {"id": 774726, "title": "The Great Camel Race", "work_id": 81240, "role": "distributor", "role_id": 437, "is_primary": false}, {"id": 774712, "title": "Wild Dog Dingo", "work_id": 81236, "role": "production company", "role_id": 941, "is_primary": true}], "also_known_as": "", "date_of_birth": "", "date_of_death": "", "genders": [], "languages": [], "places_of_operation": [], "biography": "", "biography_author": null, "date_of_biography": "2023-05-09T15:04:56.704723+10:00", "external_links": [], "uuid": "b8f12721-fe0e-430b-b769-70ea777f9447", "source": {"name": "Vernon", "slug": "vernon"}, "source_identifier": "11134", "external_references": [{"id": 35519, "source": {"name": "Wikidata", "slug": "wikidata"}, "source_identifier": "Q121034751"}], "date_modified": "2023-09-05T23:37:06.440447+10:00"}, {"id": 23373, "name": "David Richardson", "roles_in_work": [{"id": 2773228, "title": "The Mechanical paradise", "work_id": 81143, "role": "director", "role_id": 938, "is_primary": true}, {"id": 2773236, "title": "The Powers that be", "work_id": 81145, "role": "director", "role_id": 938, "is_primary": true}, {"id": 2773243, "title": "The Landscape of Pleasure", "work_id": 81146, "role": "director", "role_id": 938, "is_primary": true}, {"id": 2773257, "title": "Threshold of liberty", "work_id": 81144, "role": "director", "role_id": 938, "is_primary": true}, {"id": 2773264, "title": "View from the edge", "work_id": 81147, "role": "director", "role_id": 938, "is_primary": true}, {"id": 2773285, "title": "The Shock of the New Series", "work_id": 115174, "role": "director", "role_id": 938, "is_primary": true}, {"id": 2773277, "title": "The Future that Was", "work_id": 81246, "role": "director", "role_id": 938, "is_primary": true}, {"id": 2773270, "title": "Culture as nature", "work_id": 81185, "role": "director", "role_id": 938, "is_primary": true}, {"id": 2773248, "title": "Trouble in utopia", "work_id": 81138, "role": "director", "role_id": 938, "is_primary": true}], "also_known_as": "", "date_of_birth": null, "date_of_death": null, "genders": [], "languages": [], "places_of_operation": [], "biography": "", "biography_author": null, "date_of_biography": null, "external_links": [], "uuid": "df7dc87b-0db1-41df-9c57-18193632b3ae", "source": {"name": "Vernon", "slug": "vernon"}, "source_identifier": "17769", "external_references": [], "date_modified": "2025-03-14T18:27:06.285854+11:00"}, {"id": 23371, "name": "Peter Hood", "roles_in_work": [{"id": 2063487, "title": "14 Days to Remember", "work_id": 81133, "role": "director", "role_id": 938, "is_primary": true}], "also_known_as": "", "date_of_birth": "", "date_of_death": "", "genders": [], "languages": [], "places_of_operation": [], "biography": "", "biography_author": null, "date_of_biography": "2023-05-09T11:19:18.496167+10:00", "external_links": [], "uuid": "5376308f-40a2-4bdd-86ca-1ca1fd29608e", "source": {"name": "Vernon", "slug": "vernon"}, "source_identifier": "26580", "external_references": [{"id": 42527, "source": {"name": "Wikidata", "slug": "wikidata"}, "source_identifier": "Q121034230"}], "date_modified": "2023-09-05T23:57:49.314300+10:00"}]}