{"count": 28687, "next": "https://api.acmi.net.au/creators/?page=1448", "previous": "https://api.acmi.net.au/creators/?page=1446", "results": [{"id": 35561, "name": "Kino-Korsakoff", "roles_in_work": [{"id": 2319487, "title": "Suture", "work_id": 93698, "role": "production company", "role_id": 941, "is_primary": true}], "also_known_as": "", "date_of_birth": "", "date_of_death": "", "genders": [], "languages": [], "places_of_operation": [], "biography": "", "biography_author": null, "date_of_biography": "2023-05-09T19:09:58.353343+10:00", "external_links": [], "uuid": "79d7aec1-e59c-4e7a-b6c7-d780e393c5d9", "source": {"name": "Vernon", "slug": "vernon"}, "source_identifier": "9785", "external_references": [{"id": 42927, "source": {"name": "Wikidata", "slug": "wikidata"}, "source_identifier": "Q121271517"}], "date_modified": "2023-09-05T22:09:49.852100+10:00"}, {"id": 35557, "name": "Sentana Films", "roles_in_work": [{"id": 2468756, "title": "The White rose [NTSC]", "work_id": 93694, "role": "production company", "role_id": 941, "is_primary": true}], "also_known_as": "", "date_of_birth": "", "date_of_death": "", "genders": [], "languages": [], "places_of_operation": [], "biography": "", "biography_author": null, "date_of_biography": "2023-08-14T11:45:36.268906+10:00", "external_links": [], "uuid": "56eaa80b-b7c2-4eee-b776-9c7a5f7cf5c9", "source": {"name": "Vernon", "slug": "vernon"}, "source_identifier": "12439", "external_references": [], "date_modified": "2023-08-14T11:45:36.269195+10:00"}, {"id": 35553, "name": "Antal Gottmann", "roles_in_work": [{"id": 2249632, "title": "Revolt of Job = Job lazadasa [NTSC]", "work_id": 93692, "role": "producer", "role_id": 1089, "is_primary": true}], "also_known_as": "", "date_of_birth": "", "date_of_death": "", "genders": [], "languages": [], "places_of_operation": [], "biography": "", "biography_author": null, "date_of_biography": "2023-05-09T17:08:52.886966+10:00", "external_links": [], "uuid": "50d21f31-f7a0-4dac-a3af-0197a112ab35", "source": {"name": "Vernon", "slug": "vernon"}, "source_identifier": "15369", "external_references": [{"id": 37899, "source": {"name": "Wikidata", "slug": "wikidata"}, "source_identifier": "Q121271150"}], "date_modified": "2023-09-05T17:41:08.545787+10:00"}, {"id": 35552, "name": "Hungarian TV", "roles_in_work": [{"id": 2249626, "title": "Revolt of Job = Job lazadasa [NTSC]", "work_id": 93692, "role": "production company", "role_id": 941, "is_primary": true}], "also_known_as": "", "date_of_birth": "", "date_of_death": "", "genders": [], "languages": [], "places_of_operation": [], "biography": "", "biography_author": null, "date_of_biography": "2023-05-09T17:08:52.388329+10:00", "external_links": [], "uuid": "2fc23e67-05f9-41bf-bb86-6420f3c8fc7d", "source": {"name": "Vernon", "slug": "vernon"}, "source_identifier": "9190", "external_references": [{"id": 33063, "source": {"name": "Wikidata", "slug": "wikidata"}, "source_identifier": "Q121270784"}], "date_modified": "2023-09-05T20:45:00.034312+10:00"}, {"id": 35551, "name": "Mafilm Tarsulas Studio", "roles_in_work": [{"id": 2249621, "title": "Revolt of Job = Job lazadasa [NTSC]", "work_id": 93692, "role": "production company", "role_id": 941, "is_primary": true}], "also_known_as": "", "date_of_birth": "", "date_of_death": "", "genders": [], "languages": [], "places_of_operation": [], "biography": "", "biography_author": null, "date_of_biography": "2023-05-09T17:08:52.145578+10:00", "external_links": [], "uuid": "2f0aa433-3bc6-49c4-94ef-b9e8fc2fe524", "source": {"name": "Vernon", "slug": "vernon"}, "source_identifier": "10238", "external_references": [{"id": 41008, "source": {"name": "Wikidata", "slug": "wikidata"}, "source_identifier": "Q121091056"}], "date_modified": "2023-09-05T22:36:29.599631+10:00"}, {"id": 35548, "name": "Commi Fag", "roles_in_work": [{"id": 2248416, "title": "Render: spanning time with Ani DiFranco", "work_id": 93691, "role": "production company", "role_id": 941, "is_primary": true}], "also_known_as": "", "date_of_birth": "", "date_of_death": "", "genders": [], "languages": [], "places_of_operation": [], "biography": "", "biography_author": null, "date_of_biography": "2023-05-09T17:06:59.526640+10:00", "external_links": [], "uuid": "24ac61bb-0878-4733-b253-d8063073958c", "source": {"name": "Vernon", "slug": "vernon"}, "source_identifier": "6929", "external_references": [{"id": 42674, "source": {"name": "Wikidata", "slug": "wikidata"}, "source_identifier": "Q121036022"}], "date_modified": "2023-09-05T18:44:26.774764+10:00"}, {"id": 35547, "name": "Righteous Babe", "roles_in_work": [{"id": 2248412, "title": "Render: spanning time with Ani DiFranco", "work_id": 93691, "role": "production company", "role_id": 941, "is_primary": true}], "also_known_as": "", "date_of_birth": "", "date_of_death": "", "genders": [], "languages": [], "places_of_operation": [], "biography": "", "biography_author": null, "date_of_biography": "2023-05-09T17:06:59.184746+10:00", "external_links": [], "uuid": "8f4e9526-ecf5-4490-b219-02614c3713b7", "source": {"name": "Vernon", "slug": "vernon"}, "source_identifier": "12028", "external_references": [{"id": 41177, "source": {"name": "Wikidata", "slug": "wikidata"}, "source_identifier": "Q121040102"}], "date_modified": "2023-09-06T00:35:25.010585+10:00"}, {"id": 35544, "name": "Cedric Kahn", "roles_in_work": [{"id": 2219372, "title": "Ennui = L'Ennui [Widescreen]", "work_id": 93686, "role": "director", "role_id": 938, "is_primary": true}], "also_known_as": "", "date_of_birth": "17 JUN 1966", "date_of_death": "", "genders": [], "languages": [], "places_of_operation": [], "biography": "", "biography_author": null, "date_of_biography": "2023-05-09T16:14:02.139003+10:00", "external_links": [], "uuid": "6ed6c23c-0157-4905-8a76-93add15e503f", "source": {"name": "Vernon", "slug": "vernon"}, "source_identifier": "16631", "external_references": [], "date_modified": "2023-06-14T16:33:30.576250+10:00"}, {"id": 35543, "name": "Centre National de la Cinematographie", "roles_in_work": [{"id": 819884, "title": "Nenette and Boni [Widescreen] [NTSC]", "work_id": 94443, "role": "production company", "role_id": 941, "is_primary": true}, {"id": 2219366, "title": "Ennui = L'Ennui [Widescreen]", "work_id": 93686, "role": "production company", "role_id": 941, "is_primary": true}], "also_known_as": "", "date_of_birth": "", "date_of_death": "", "genders": [], "languages": [], "places_of_operation": [], "biography": "", "biography_author": null, "date_of_biography": "2023-05-09T16:14:01.434221+10:00", "external_links": [], "uuid": "c2e7ad70-3f52-4d9d-a56e-945bba4001d8", "source": {"name": "Vernon", "slug": "vernon"}, "source_identifier": "6452", "external_references": [{"id": 40181, "source": {"name": "Wikidata", "slug": "wikidata"}, "source_identifier": "Q121078772"}], "date_modified": "2023-09-05T18:24:12.996060+10:00"}, {"id": 35533, "name": "Debra Chasnoff", "roles_in_work": [{"id": 1998211, "title": "It's elementary: talking about gay issues in school", "work_id": 93676, "role": "director", "role_id": 938, "is_primary": true}, {"id": 1998210, "title": "It's elementary: talking about gay issues in school", "work_id": 93676, "role": "co-producer", "role_id": 915, "is_primary": true}], "also_known_as": "", "date_of_birth": "1957-10-12", "date_of_death": "2017-11-07", "genders": [{"id": 5, "name": "Female", "slug": "female"}], "languages": [], "places_of_operation": [{"id": 1, "name": "United States of America", "slug": "united-states-of-america"}], "biography": "Debra Chasnoff (October 12, 1957 – November 7, 2017) was an American documentary filmmaker and activist whose films address progressive social justice issues.  Her production company GroundSpark produces and distributes films, educational resources and campaigns on issues ranging from environmental concerns to affordable housing to preventing prejudice.\n\n", "biography_author": "Wikidata", "date_of_biography": "2022-05-19T11:16:14.370404+10:00", "external_links": [{"id": 1918, "uri": "https://en.wikipedia.org/wiki/Debra_Chasnoff"}], "uuid": "7288b480-47c2-468b-8549-f0030a1f6696", "source": {"name": "Vernon", "slug": "vernon"}, "source_identifier": "17921", "external_references": [{"id": 8318, "source": {"name": "Wikidata", "slug": "wikidata"}, "source_identifier": "Q5248446"}, {"id": 8319, "source": {"name": "VIAF", "slug": "viaf"}, "source_identifier": "226668477"}, {"id": 8320, "source": {"name": "LOC Auth", "slug": "loc-auth"}, "source_identifier": "no97012439"}, {"id": 8321, "source": {"name": "WorldCat", "slug": "worldcat"}, "source_identifier": "lccn-no97012439"}], "date_modified": "2023-09-13T12:29:02.942207+10:00"}]}