{"count": 28687, "next": "https://api.acmi.net.au/creators/?page=1227", "previous": "https://api.acmi.net.au/creators/?page=1225", "results": [{"id": 73083, "name": "Géza Bereményi", "roles_in_work": [{"id": 2618002, "title": "Bourgeois dictionaries (Private Hungary 7)", "work_id": 107929, "role": "source film", "role_id": 462, "is_primary": false}], "also_known_as": "", "date_of_birth": "", "date_of_death": "", "genders": [], "languages": [], "places_of_operation": [], "biography": "", "biography_author": null, "date_of_biography": "2023-05-09T13:07:15.777822+10:00", "external_links": [], "uuid": "265b0437-1e1b-4e09-bee9-36956b0eeb27", "source": {"name": "Vernon", "slug": "vernon"}, "source_identifier": "110372", "external_references": [], "date_modified": "2025-02-26T22:36:58.020304+11:00"}, {"id": 73082, "name": "Üj Zsuzsa", "roles_in_work": [{"id": 2618001, "title": "Bourgeois dictionaries (Private Hungary 7)", "work_id": 107929, "role": "source film", "role_id": 462, "is_primary": false}], "also_known_as": "", "date_of_birth": "", "date_of_death": "", "genders": [], "languages": [], "places_of_operation": [], "biography": "", "biography_author": null, "date_of_biography": "2023-05-09T13:07:15.549592+10:00", "external_links": [], "uuid": "cf69211b-bd68-4412-a5f4-90ba28ed6e21", "source": {"name": "Vernon", "slug": "vernon"}, "source_identifier": "110371", "external_references": [], "date_modified": "2025-02-26T22:36:57.439486+11:00"}, {"id": 73081, "name": "Szalai Istvan", "roles_in_work": [{"id": 2618000, "title": "Bourgeois dictionaries (Private Hungary 7)", "work_id": 107929, "role": "source film", "role_id": 462, "is_primary": false}], "also_known_as": "", "date_of_birth": "", "date_of_death": "", "genders": [], "languages": [], "places_of_operation": [], "biography": "", "biography_author": null, "date_of_biography": "2023-05-09T13:07:15.320082+10:00", "external_links": [], "uuid": "e5823ad3-cef7-4cb2-ba1b-fd05ea896b96", "source": {"name": "Vernon", "slug": "vernon"}, "source_identifier": "110370", "external_references": [], "date_modified": "2025-02-26T22:36:56.855820+11:00"}, {"id": 73080, "name": "Scherter Judit", "roles_in_work": [{"id": 2617999, "title": "Bourgeois dictionaries (Private Hungary 7)", "work_id": 107929, "role": "source film", "role_id": 462, "is_primary": false}], "also_known_as": "", "date_of_birth": "", "date_of_death": "", "genders": [], "languages": [], "places_of_operation": [], "biography": "", "biography_author": null, "date_of_biography": "2023-05-09T13:07:15.090825+10:00", "external_links": [], "uuid": "770218ce-ea7d-430f-9463-c3c90b57f96d", "source": {"name": "Vernon", "slug": "vernon"}, "source_identifier": "110369", "external_references": [], "date_modified": "2025-02-26T22:36:56.158296+11:00"}, {"id": 73079, "name": "Komjáthy Ference", "roles_in_work": [{"id": 2617998, "title": "Bourgeois dictionaries (Private Hungary 7)", "work_id": 107929, "role": "source film", "role_id": 462, "is_primary": false}], "also_known_as": "", "date_of_birth": "", "date_of_death": "", "genders": [], "languages": [], "places_of_operation": [], "biography": "", "biography_author": null, "date_of_biography": "2023-05-09T13:07:14.846380+10:00", "external_links": [], "uuid": "d61c65e6-9686-4860-a90e-ecb8e078bd55", "source": {"name": "Vernon", "slug": "vernon"}, "source_identifier": "110368", "external_references": [], "date_modified": "2025-02-26T22:36:55.582726+11:00"}, {"id": 73078, "name": "Hortubágyi Lászlö", "roles_in_work": [{"id": 2617997, "title": "Bourgeois dictionaries (Private Hungary 7)", "work_id": 107929, "role": "source film", "role_id": 462, "is_primary": false}], "also_known_as": "", "date_of_birth": "", "date_of_death": "", "genders": [], "languages": [], "places_of_operation": [], "biography": "", "biography_author": null, "date_of_biography": "2023-05-09T13:07:14.610983+10:00", "external_links": [], "uuid": "8a66f170-8af3-40b1-855d-0198d12c37de", "source": {"name": "Vernon", "slug": "vernon"}, "source_identifier": "110367", "external_references": [], "date_modified": "2025-02-26T22:36:55.004344+11:00"}, {"id": 73077, "name": "Kati Gulyás", "roles_in_work": [{"id": 2617996, "title": "Bourgeois dictionaries (Private Hungary 7)", "work_id": 107929, "role": "source film", "role_id": 462, "is_primary": false}], "also_known_as": "", "date_of_birth": "", "date_of_death": "", "genders": [], "languages": [], "places_of_operation": [], "biography": "", "biography_author": null, "date_of_biography": "2023-05-09T13:07:14.379506+10:00", "external_links": [], "uuid": "08a8a8b4-fa91-452f-8430-0d2d94fc284a", "source": {"name": "Vernon", "slug": "vernon"}, "source_identifier": "110366", "external_references": [], "date_modified": "2025-02-26T22:36:54.425453+11:00"}, {"id": 73076, "name": "John J. Godfrey", "roles_in_work": [{"id": 2617994, "title": "Olympic fragments", "work_id": 107928, "role": "editor", "role_id": 918, "is_primary": true}, {"id": 2748044, "title": "Interpolation", "work_id": 107927, "role": "editor", "role_id": 918, "is_primary": true}, {"id": 2628552, "title": "The Reflecting pool: collected work 1977-80", "work_id": 107961, "role": "supervising engineer", "role_id": 475, "is_primary": false}], "also_known_as": "", "date_of_birth": "", "date_of_death": "", "genders": [], "languages": [], "places_of_operation": [], "biography": "", "biography_author": null, "date_of_biography": "2023-08-11T18:37:12.440075+10:00", "external_links": [], "uuid": "ef3c6b84-7fc9-4e14-bb34-77fc2dec8485", "source": {"name": "Vernon", "slug": "vernon"}, "source_identifier": "110314", "external_references": [{"id": 38233, "source": {"name": "Wikidata", "slug": "wikidata"}, "source_identifier": "Q121036299"}], "date_modified": "2025-03-12T22:52:04.537762+11:00"}, {"id": 73075, "name": "Bob Artell", "roles_in_work": [{"id": 2617993, "title": "Olympic fragments", "work_id": 107928, "role": "editor", "role_id": 918, "is_primary": true}], "also_known_as": "", "date_of_birth": null, "date_of_death": null, "genders": [], "languages": [], "places_of_operation": [], "biography": "", "biography_author": null, "date_of_biography": null, "external_links": [], "uuid": "6aa61b31-8dd8-461c-8354-2237031f8fd2", "source": {"name": "Vernon", "slug": "vernon"}, "source_identifier": "110365", "external_references": [{"id": 41711, "source": {"name": "Wikidata", "slug": "wikidata"}, "source_identifier": "Q121036205"}], "date_modified": "2025-02-26T22:36:45.860138+11:00"}, {"id": 73074, "name": "Television Laboratory at WNET/Thirteen", "roles_in_work": [{"id": 2747919, "title": "Pick up your feet: the double dutch show", "work_id": 107909, "role": "production facilities", "role_id": 442, "is_primary": false}], "also_known_as": "", "date_of_birth": "", "date_of_death": "", "genders": [], "languages": [], "places_of_operation": [], "biography": "", "biography_author": null, "date_of_biography": "2023-05-09T15:33:34.859150+10:00", "external_links": [], "uuid": "33d3b785-4f0a-454b-921a-63d05c18ce86", "source": {"name": "Vernon", "slug": "vernon"}, "source_identifier": "110527", "external_references": [], "date_modified": "2025-03-12T22:40:09.571037+11:00"}]}