{"count": 28687, "next": "https://api.acmi.net.au/creators/?page=2758", "previous": "https://api.acmi.net.au/creators/?page=2756", "results": [{"id": 10632, "name": "Sam Batty", "roles_in_work": [{"id": 2636930, "title": "Barry and the psycho doorstop salesman", "work_id": 109681, "role": "creator", "role_id": 968, "is_primary": true}], "also_known_as": "", "date_of_birth": "", "date_of_death": "", "genders": [], "languages": [], "places_of_operation": [], "biography": "", "biography_author": null, "date_of_biography": "2023-05-09T19:57:49.657863+10:00", "external_links": [], "uuid": "81bd6ee9-32da-4362-9082-07a9f3f0e287", "source": {"name": "Vernon", "slug": "vernon"}, "source_identifier": "2263", "external_references": [], "date_modified": "2025-03-05T10:41:46.556173+11:00"}, {"id": 10631, "name": "Goran Stolevski", "roles_in_work": [{"id": 2636983, "title": "Tumbleweeds", "work_id": 109680, "role": "creator", "role_id": 968, "is_primary": true}], "also_known_as": "", "date_of_birth": "", "date_of_death": "", "genders": [], "languages": [], "places_of_operation": [], "biography": "", "biography_author": null, "date_of_biography": "2023-05-09T19:20:28.605052+10:00", "external_links": [], "uuid": "a82074e0-5d04-402d-b639-8e1b37a57006", "source": {"name": "Vernon", "slug": "vernon"}, "source_identifier": "2262", "external_references": [], "date_modified": "2025-03-05T10:42:17.325244+11:00"}, {"id": 10627, "name": "Andrew Moroney", "roles_in_work": [{"id": 2636986, "title": "Would you like gravy with that?", "work_id": 109678, "role": "creator", "role_id": 968, "is_primary": true}], "also_known_as": "", "date_of_birth": "", "date_of_death": "", "genders": [], "languages": [], "places_of_operation": [], "biography": "", "biography_author": null, "date_of_biography": "2023-05-09T19:33:55.504546+10:00", "external_links": [], "uuid": "3e94a353-9116-4553-bef4-a7295b8fc2f0", "source": {"name": "Vernon", "slug": "vernon"}, "source_identifier": "2257", "external_references": [], "date_modified": "2025-03-05T10:42:19.560639+11:00"}, {"id": 10626, "name": "Emily White", "roles_in_work": [{"id": 2636936, "title": "Can you stop the music?", "work_id": 109677, "role": "creator", "role_id": 968, "is_primary": true}], "also_known_as": "", "date_of_birth": "", "date_of_death": "", "genders": [], "languages": [], "places_of_operation": [], "biography": "", "biography_author": null, "date_of_biography": "2023-05-09T19:20:17.800454+10:00", "external_links": [], "uuid": "8fb53715-707a-4e3f-a57f-69e2c9b1edd5", "source": {"name": "Vernon", "slug": "vernon"}, "source_identifier": "2235", "external_references": [], "date_modified": "2025-03-05T10:41:47.947668+11:00"}, {"id": 10624, "name": "Alison Schofield", "roles_in_work": [{"id": 2636971, "title": "Imagery of the mind", "work_id": 109676, "role": "creator", "role_id": 968, "is_primary": true}], "also_known_as": "", "date_of_birth": "", "date_of_death": "", "genders": [], "languages": [], "places_of_operation": [], "biography": "", "biography_author": null, "date_of_biography": "2023-05-09T19:57:53.960189+10:00", "external_links": [], "uuid": "04b094f4-0947-45ee-877e-55b32edc7c0f", "source": {"name": "Vernon", "slug": "vernon"}, "source_identifier": "2256", "external_references": [], "date_modified": "2025-03-05T10:42:08.380168+11:00"}, {"id": 10623, "name": "Chris Solomon", "roles_in_work": [{"id": 2636984, "title": "Unself portrait", "work_id": 109674, "role": "creator", "role_id": 968, "is_primary": true}], "also_known_as": "", "date_of_birth": "", "date_of_death": "", "genders": [], "languages": [], "places_of_operation": [], "biography": "", "biography_author": null, "date_of_biography": "2023-05-09T19:20:29.148008+10:00", "external_links": [], "uuid": "0910711c-f2b3-46b1-8343-4d06445f374f", "source": {"name": "Vernon", "slug": "vernon"}, "source_identifier": "2254", "external_references": [], "date_modified": "2025-03-05T10:42:18.145759+11:00"}, {"id": 10621, "name": "Hilary Hoggett", "roles_in_work": [{"id": 2636981, "title": "Stan", "work_id": 109673, "role": "creator", "role_id": 968, "is_primary": true}], "also_known_as": "", "date_of_birth": "", "date_of_death": "", "genders": [], "languages": [], "places_of_operation": [], "biography": "", "biography_author": null, "date_of_biography": "2023-05-09T19:20:27.729575+10:00", "external_links": [], "uuid": "c03dff3a-ec15-49b5-9adb-e2776818bf1a", "source": {"name": "Vernon", "slug": "vernon"}, "source_identifier": "2252", "external_references": [], "date_modified": "2025-03-05T10:42:15.860509+11:00"}, {"id": 10619, "name": "Brendon Cunningham", "roles_in_work": [{"id": 2636891, "title": "The Adventures of Buzz Boy & Buzz Girl", "work_id": 109672, "role": "creator", "role_id": 968, "is_primary": true}], "also_known_as": "", "date_of_birth": "", "date_of_death": "", "genders": [], "languages": [], "places_of_operation": [], "biography": "", "biography_author": null, "date_of_biography": "2023-05-09T19:57:48.878436+10:00", "external_links": [], "uuid": "dc2026a5-a798-461e-9cf2-9fc50eb1c3e1", "source": {"name": "Vernon", "slug": "vernon"}, "source_identifier": "2250", "external_references": [], "date_modified": "2025-03-05T10:41:19.867847+11:00"}, {"id": 10617, "name": "Brent Jacuta", "roles_in_work": [{"id": 2636962, "title": "Detention", "work_id": 109671, "role": "creator", "role_id": 968, "is_primary": true}], "also_known_as": "", "date_of_birth": "", "date_of_death": "", "genders": [], "languages": [], "places_of_operation": [], "biography": "", "biography_author": null, "date_of_biography": "2023-05-09T19:33:37.152104+10:00", "external_links": [], "uuid": "cf38e86d-03b1-43a8-bd80-0bd8f711dd0d", "source": {"name": "Vernon", "slug": "vernon"}, "source_identifier": "2248", "external_references": [], "date_modified": "2025-03-05T10:42:02.095780+11:00"}, {"id": 10616, "name": "Glen Waverley Secondary College", "roles_in_work": [{"id": 2642983, "title": "Mozzie bytes", "work_id": 110484, "role": "creator", "role_id": 968, "is_primary": true}, {"id": 2636970, "title": "A Haunted school", "work_id": 109670, "role": "production facilities", "role_id": 442, "is_primary": false}, {"id": 2642523, "title": "A Fist full of trolleys", "work_id": 114298, "role": "school", "role_id": 619, "is_primary": false}, {"id": 2642533, "title": "Derick and Jonathan", "work_id": 114297, "role": "school", "role_id": 619, "is_primary": false}], "also_known_as": "", "date_of_birth": "", "date_of_death": "", "genders": [], "languages": [], "places_of_operation": [], "biography": "", "biography_author": null, "date_of_biography": "2023-05-09T19:33:43.546825+10:00", "external_links": [], "uuid": "38eb08a6-33ed-48b9-a08d-48b61943adb7", "source": {"name": "Vernon", "slug": "vernon"}, "source_identifier": "2244", "external_references": [], "date_modified": "2025-03-05T11:52:34.014093+11:00"}]}