{"count": 28687, "next": "https://api.acmi.net.au/creators/?page=826", "previous": "https://api.acmi.net.au/creators/?page=824", "results": [{"id": 77333, "name": "Cinemarque Entertainment", "roles_in_work": [{"id": 1986950, "title": "Heathers", "work_id": 83115, "role": "production company", "role_id": 941, "is_primary": true}], "also_known_as": "", "date_of_birth": null, "date_of_death": null, "genders": [], "languages": [], "places_of_operation": [], "biography": "", "biography_author": null, "date_of_biography": null, "external_links": [], "uuid": "ea8700bc-e493-4648-9b43-66445efa4b1b", "source": {"name": "Vernon", "slug": "vernon"}, "source_identifier": null, "external_references": [{"id": 42773, "source": {"name": "Wikidata", "slug": "wikidata"}, "source_identifier": "Q121299459"}], "date_modified": "2023-09-05T18:38:00.643775+10:00"}, {"id": 77332, "name": "Burt Lancaster", "roles_in_work": [{"id": 1986921, "title": "Judgment at Nuremberg", "work_id": 83107, "role": "cast", "role_id": 33, "is_primary": false}], "also_known_as": "Burton Stephen Lancaster", "date_of_birth": "1913-11-02", "date_of_death": "1994-10-20", "genders": [{"id": 9, "name": "Male", "slug": "male"}], "languages": [{"id": 1, "name": "English", "slug": "english"}], "places_of_operation": [{"id": 1, "name": "United States of America", "slug": "united-states-of-america"}], "biography": "Burton Stephen Lancaster (November 2, 1913 – October 20, 1994) was an American actor and producer. Initially known for playing tough guys with a tender heart, he went on to achieve success with more complex, and challenging roles over a 45-year career in films and television series. He was a four-time nominee for the Academy Award for Best Actor (winning once), and he also won two BAFTA Awards and one Golden Globe Award for Best Lead Actor. The American Film Institute ranks Lancaster as #19 of the greatest male stars of classic Hollywood cinema.Lancaster performed as a circus acrobat in the 1930s. After serving in World War II, the 32-year-old Lancaster landed a role in a Broadway play and drew the attention of a Hollywood agent. His breakthrough role was in the film noir The Killers in 1946 alongside Ava Gardner.  A critical success, it launched both of their careers. Not long after in 1948, Lancaster starred alongside Barbara Stanwyck in the commercially and critically acclaimed film Sorry, Wrong Number where he portrayed the husband to her bedridden, invalid character. In 1953, Lancaster played the illicit lover of Deborah Kerr in the military drama From Here to Eternity. A box office smash, it won eight Academy Awards, including Best Picture, and landed a Best Actor nomination for Lancaster.\nLater in the 1950s, he starred in The Rainmaker (1956), with Katharine Hepburn, earning a Best Actor Golden Globe nomination, and in 1957 he starred in Gunfight at the O.K. Corral (1957) with frequent co-star Kirk Douglas. During the 1950s, his production company, Hecht-Hill-Lancaster, was highly successful, with Lancaster acting in films such as: Trapeze (1956), a box office smash in which he used his acrobatic skills and for which he won the Silver Bear for Best Actor; Sweet Smell of Success (1957), a dark drama today considered a classic; Run Silent, Run Deep (1958), a WWII submarine drama with Clark Gable; and Separate Tables (1958), a hotel-set drama which received seven Oscar nominations.\nIn the early 1960s, Lancaster starred in a string of critically successful films, each in very disparate roles. Playing a charismatic biblical con-man in Elmer Gantry in 1960 won him the Academy Award and the Golden Globe for Best Actor. He played a Nazi war criminal in 1961 in the all-star, war-crime-trial film, Judgment at Nuremberg. Playing a bird expert prisoner in Birdman of Alcatraz in 1962, he earned the BAFTA Award for Best Foreign Actor and his third Oscar nomination. In 1963, Lancaster traveled to Italy to star as an Italian prince in Visconti's epic period drama The Leopard. In 1964, he played a US Air Force General who, opposed by a Colonel played by Douglas, tries to overthrow the President in Seven Days in May. Then, in 1966, he played an explosives expert in the western The Professionals. Although the reception of his 1968 film The Swimmer was initially lackluster upon release, in the years after it has grown in stature critically and attained a cult following.\nIn 1970, Lancaster starred in the box-office hit, air-disaster drama Airport. In 1974 he again starred in a Visconti film, Conversation Piece. He experienced a career resurgence in 1980 with the crime-romance Atlantic City, winning the BAFTA for Best Actor and landing his fourth Oscar nomination. Starting in the late 1970s, he also appeared in television mini-series, including the award-winning Separate but Equal with Sidney Poitier. He continued acting into his late 70s, until a stroke in 1990 forced him to retire; four years later he died from a heart attack. His final film role was in the Oscar-nominated Field of Dreams.\n\n", "biography_author": "Wikidata", "date_of_biography": "2023-09-05T18:16:20.266966+10:00", "external_links": [{"id": 5721, "uri": "https://en.wikipedia.org/wiki/Burt_Lancaster"}], "uuid": "b7e20a56-927e-497c-987d-dfb8ebea9333", "source": {"name": "Vernon", "slug": "vernon"}, "source_identifier": null, "external_references": [{"id": 35869, "source": {"name": "Wikidata", "slug": "wikidata"}, "source_identifier": "Q160528"}, {"id": 54122, "source": {"name": "VIAF", "slug": "viaf"}, "source_identifier": "115079271"}, {"id": 54123, "source": {"name": "LOC Auth", "slug": "loc-auth"}, "source_identifier": "n83065628"}, {"id": 54124, "source": {"name": "WorldCat", "slug": "worldcat"}, "source_identifier": "lccn-n83065628"}], "date_modified": "2023-09-05T18:16:25.315938+10:00"}, {"id": 77331, "name": "Montgomery Clift", "roles_in_work": [{"id": 1986920, "title": "Judgment at Nuremberg", "work_id": 83107, "role": "cast", "role_id": 33, "is_primary": false}], "also_known_as": "", "date_of_birth": "1920-10-17", "date_of_death": "1966-07-23", "genders": [{"id": 9, "name": "Male", "slug": "male"}], "languages": [{"id": 1, "name": "English", "slug": "english"}], "places_of_operation": [{"id": 1, "name": "United States of America", "slug": "united-states-of-america"}], "biography": "Edward Montgomery Clift (; October 17, 1920 – July 23, 1966) was an American actor. A four-time Academy Award nominee, he was known for his portrayal of \"moody, sensitive young men\", according to The New York Times.He is best remembered for his roles in Howard Hawks's Red River (1948), George Stevens's A Place in the Sun (1951), Fred Zinnemann's From Here to Eternity (1953), Stanley Kramer's Judgment at Nuremberg (1961), and John Huston's The Misfits (1961).\nAlong with Marlon Brando and James Dean, Clift was considered one of the original method actors in Hollywood (though Clift distanced himself from the term); he was one of the first actors to be invited to study in the Actors Studio with Lee Strasberg and Elia Kazan. He also executed a rare move by not signing a contract after arriving in Hollywood, only doing so after his first two films were a success. This was described as \"a power differential that would go on to structure the star–studio relationship for the next 40 years\". A documentary titled Making Montgomery Clift was made by his nephew in 2018, to clarify myths that were created about the actor.", "biography_author": "Wikidata", "date_of_biography": "2023-09-05T23:20:55.827602+10:00", "external_links": [{"id": 6048, "uri": "https://en.wikipedia.org/wiki/Montgomery_Clift"}], "uuid": "9de688b9-0118-42bc-9cf3-45f2c898e1f6", "source": {"name": "Vernon", "slug": "vernon"}, "source_identifier": null, "external_references": [{"id": 51957, "source": {"name": "Wikidata", "slug": "wikidata"}, "source_identifier": "Q193102"}, {"id": 55309, "source": {"name": "VIAF", "slug": "viaf"}, "source_identifier": "12318841"}, {"id": 55310, "source": {"name": "LOC Auth", "slug": "loc-auth"}, "source_identifier": "n79068349"}, {"id": 55311, "source": {"name": "WorldCat", "slug": "worldcat"}, "source_identifier": "lccn-n79068349"}], "date_modified": "2023-09-05T23:20:58.644436+10:00"}, {"id": 77330, "name": "Marlene Dietrich", "roles_in_work": [{"id": 1986917, "title": "Judgment at Nuremberg", "work_id": 83107, "role": "cast", "role_id": 33, "is_primary": false}], "also_known_as": "Marie Magdalene Dietrich", "date_of_birth": "1901-12-27", "date_of_death": "1992-05-06", "genders": [{"id": 5, "name": "Female", "slug": "female"}], "languages": [{"id": 1, "name": "English", "slug": "english"}, {"id": 4, "name": "French", "slug": "french"}, {"id": 5, "name": "German", "slug": "german"}, {"id": 6, "name": "Italian", "slug": "italian"}], "places_of_operation": [{"id": 322, "name": "German Empire", "slug": "german-empire"}], "biography": "Marie Magdalene \"Marlene\" Dietrich (, German: [maʁˈleːnə ˈdiːtʁɪç] ; 27 December 1901 – 6 May 1992) was a German and American actress and singer whose career spanned from the 1910s to the 1980s.In 1920s Berlin, Dietrich performed on the stage and in silent films. Her performance as Lola-Lola in Josef von Sternberg's The Blue Angel (1930) brought her international acclaim and a contract with Paramount Pictures. She starred in many Hollywood films, including six iconic roles directed by Sternberg: Morocco (1930) (her only Academy Award nomination), Dishonored (1931), Shanghai Express and Blonde Venus (both 1932), The Scarlet Empress (1934), The Devil Is a Woman (1935), Desire (1936), and Destry Rides Again (1939). She successfully traded on her glamorous persona and exotic looks, and became one of the era's highest-paid actresses. Throughout World War II, she was a high-profile entertainer in the United States. Although she delivered notable performances in several post-war films, including Billy Wilder's A Foreign Affair (1948), Alfred Hitchcock's Stage Fright (1950), Billy Wilder's Witness for the Prosecution (1957), Orson Welles's Touch of Evil (1958), and Stanley Kramer's Judgment at Nuremberg (1961), she spent most of the 1950s to the 1970s touring the world as a marquee live-show performer.\nDietrich was known for her humanitarian efforts during World War II, housing German and French exiles, providing financial support and even advocating their American citizenship. For her work on improving morale on the front lines during the war, she received several honors from the United States, France, Belgium, and Israel. In 1999, the American Film Institute named Dietrich the ninth greatest female screen legend of classic Hollywood cinema.\n\n", "biography_author": "Wikidata", "date_of_biography": "2023-09-05T22:47:45.094642+10:00", "external_links": [{"id": 6005, "uri": "https://en.wikipedia.org/wiki/Marlene_Dietrich"}], "uuid": "4a63e156-77e9-4c4a-b723-6c6cf30c9050", "source": {"name": "Vernon", "slug": "vernon"}, "source_identifier": null, "external_references": [{"id": 51352, "source": {"name": "Wikidata", "slug": "wikidata"}, "source_identifier": "Q4612"}, {"id": 55177, "source": {"name": "VIAF", "slug": "viaf"}, "source_identifier": "97773925"}, {"id": 55178, "source": {"name": "LOC Auth", "slug": "loc-auth"}, "source_identifier": "n50032559"}, {"id": 55179, "source": {"name": "WorldCat", "slug": "worldcat"}, "source_identifier": "lccn-n50032559"}], "date_modified": "2023-09-05T22:47:49.034217+10:00"}, {"id": 77329, "name": "Richard Widmark", "roles_in_work": [{"id": 1986916, "title": "Judgment at Nuremberg", "work_id": 83107, "role": "cast", "role_id": 33, "is_primary": false}, {"id": 2614962, "title": "The Bedford incident", "work_id": 84580, "role": "co-producer", "role_id": 915, "is_primary": true}], "also_known_as": "Richard Weedt Widmark", "date_of_birth": "26 DEC 1914", "date_of_death": "24 MAR 2008", "genders": [{"id": 9, "name": "Male", "slug": "male"}], "languages": [{"id": 1, "name": "English", "slug": "english"}], "places_of_operation": [{"id": 1, "name": "United States of America", "slug": "united-states-of-america"}], "biography": "Richard Weedt Widmark (December 26, 1914 – March 24, 2008) was an American film, stage, and television actor and producer.\n\nHe was nominated for an Academy Award for his role as the villainous Tommy Udo in his debut film, Kiss of Death (1947), for which he also won the Golden Globe Award for Most Promising Newcomer. Early in his career, Widmark was typecast in similar villainous or anti-hero roles in films noir, but he later branched out into more heroic leading and supporting roles in Westerns, mainstream dramas, and horror films among others.\n\nFor his contributions to the motion picture industry, Widmark has a star on the Hollywood Walk of Fame at 6800 Hollywood Boulevard. In 2002, he was inducted into the Western Performers Hall of Fame at the National Cowboy & Western Heritage Museum in Oklahoma City, Oklahoma. Source: Wikidata; 01/08/2023", "biography_author": null, "date_of_biography": "2025-02-26T20:17:14.299304+11:00", "external_links": [{"id": 2948, "uri": "https://en.wikipedia.org/wiki/Richard_Widmark"}], "uuid": "048e570b-e691-49a5-a73f-7ba004398865", "source": {"name": "Vernon", "slug": "vernon"}, "source_identifier": "27534", "external_references": [{"id": 12526, "source": {"name": "Wikidata", "slug": "wikidata"}, "source_identifier": "Q320036"}, {"id": 12527, "source": {"name": "VIAF", "slug": "viaf"}, "source_identifier": "49280025"}, {"id": 12528, "source": {"name": "LOC Auth", "slug": "loc-auth"}, "source_identifier": "n85040587"}, {"id": 12529, "source": {"name": "WorldCat", "slug": "worldcat"}, "source_identifier": "lccn-n85040587"}], "date_modified": "2025-02-26T20:17:14.299622+11:00"}, {"id": 77328, "name": "Andrew McPhail", "roles_in_work": [{"id": 1996935, "title": "He died with a felafel in his hand", "work_id": 93010, "role": "co-producer", "role_id": 915, "is_primary": true}, {"id": 2307661, "title": "Spirits of the air, gremlins of the clouds", "work_id": 83099, "role": "co-producer", "role_id": 915, "is_primary": true}], "also_known_as": "", "date_of_birth": "", "date_of_death": "", "genders": [], "languages": [], "places_of_operation": [], "biography": "", "biography_author": null, "date_of_biography": "2023-05-09T18:47:30.073117+10:00", "external_links": [], "uuid": "d1a90af6-1e29-4b4a-8855-cb1865d83492", "source": {"name": "Vernon", "slug": "vernon"}, "source_identifier": "15196", "external_references": [{"id": 34519, "source": {"name": "Wikidata", "slug": "wikidata"}, "source_identifier": "Q121271346"}], "date_modified": "2023-09-05T17:36:11.226411+10:00"}, {"id": 77327, "name": "Jonathan Wacks", "roles_in_work": [{"id": 2248552, "title": "Repo man", "work_id": 83096, "role": "co-producer", "role_id": 915, "is_primary": true}], "also_known_as": "", "date_of_birth": "1948-01-01", "date_of_death": "", "genders": [{"id": 9, "name": "Male", "slug": "male"}], "languages": [], "places_of_operation": [{"id": 1, "name": "United States of America", "slug": "united-states-of-america"}], "biography": "Jonathan Philip Wacks is an American film director, producer and screenwriter.\nHe has directed a number of films including Powwow Highway, produced by George Harrison.  The film won the Sundance Film Festival Filmmaker’s Trophy, was nominated for four Independent Spirit Awards, and won awards for best picture, director, and actor at the American Indian Film Festival in San Francisco.\nWacks’ first film, Crossroads/South Africa (PBS), won a Student Academy Award in the documentary category.  He then produced the acclaimed cult-hit Repo Man, starring Emilio Estevez and Harry Dean Stanton, and directed Mystery Date (Orion), starring Ethan Hawke and Teri Polo and Ed and His Dead Mother, starring Steve Buscemi and Ned Beatty. He also directed an array of TV productions including 21 Jump Street, with Johnny Depp, Sirens and Going To Extremes.\nPrior to his career as a director, Wacks served as Vice President of Production at the Samuel Goldwyn Company.  He is a former Chairman of the Board of the Independent Feature Project/West (now Film Independent), the largest organization of independent filmmakers in America, and has served on the selection committee of the Writers’ Program at the Sundance Institute.  His work has been seen at numerous international film festivals including Sundance, Montreal, Tokyo, Florence, London, Leipzig, Leeds, Cape Town, Deauville, New York, Munich, and Berlin.\nWacks has written several screenplays including, Recoil based on the Jim Thompson novel, \"No Cure for Love\", \"My African Heart\", \"Coldsleep Lullaby\", and \"Stuck\".  He served as Chair of the Visual and Media Arts Department at Emerson College, Head of the Film Department at the Vancouver Film School in British Columbia and Chair of the Moving Image Arts Department at the College of Santa Fe.  He was also Director of Garson Studios in Santa Fe.  Wacks holds a BA (Hons.) from the University of Essex (UK) and an MFA from the UCLA School of Theater, Film and Television.  He is a member of the Directors Guild of America.", "biography_author": "Wikidata", "date_of_biography": "2023-09-05T21:49:24.029180+10:00", "external_links": [{"id": 5941, "uri": "https://en.wikipedia.org/wiki/Jonathan_Wacks"}], "uuid": "5816862e-2f86-4c55-b64e-3e311dd02454", "source": {"name": "Vernon", "slug": "vernon"}, "source_identifier": "22673", "external_references": [{"id": 33394, "source": {"name": "Wikidata", "slug": "wikidata"}, "source_identifier": "Q19666266"}], "date_modified": "2023-09-05T21:49:24.051125+10:00"}, {"id": 77326, "name": "Vincent Malle", "roles_in_work": [{"id": 2084357, "title": "Alamo Bay", "work_id": 83094, "role": "co-producer", "role_id": 915, "is_primary": true}, {"id": 1994185, "title": "Le Souffle au coeur = Dearest love = Murmur of the Heart", "work_id": 89921, "role": "co-producer", "role_id": 915, "is_primary": true}], "also_known_as": "", "date_of_birth": "", "date_of_death": "", "genders": [], "languages": [], "places_of_operation": [], "biography": "", "biography_author": null, "date_of_biography": "2023-05-09T11:54:42.189746+10:00", "external_links": [], "uuid": "dcb3b81e-9e56-45e6-a6c7-1c07dd619f3d", "source": {"name": "Vernon", "slug": "vernon"}, "source_identifier": "30139", "external_references": [{"id": 38199, "source": {"name": "Wikidata", "slug": "wikidata"}, "source_identifier": "Q121271008"}], "date_modified": "2023-09-06T02:06:42.051764+10:00"}, {"id": 77325, "name": "Franz Seitz", "roles_in_work": [{"id": 2614049, "title": "The Tin drum", "work_id": 83090, "role": "co-producer", "role_id": 915, "is_primary": true}], "also_known_as": "", "date_of_birth": "22 OCT 1920", "date_of_death": "19 JAN 2006", "genders": [{"id": 9, "name": "Male", "slug": "male"}], "languages": [{"id": 5, "name": "German", "slug": "german"}], "places_of_operation": [{"id": 18, "name": "Germany", "slug": "germany"}], "biography": "Franz Seitz Jr. (22 October 1921 – 19 January 2006) was a German film producer, screenwriter and film director. He produced more than 70 films between 1951 and 2006. He was a member of the jury at the 16th Berlin International Film Festival.His 1982 film Doctor Faustus was entered into the 13th Moscow International Film Festival where it won the Silver Prize. In 1983 he was a member of the jury at the 33rd Berlin International Film Festival. In 1991 his film Success was entered into the 41st Berlin International Film Festival. In 1997 he won the Berlinale Camera award at the 47th Berlin International Film Festival.His father, Franz Seitz Sr. was also a film director. Source: Wikidata; 01/08/2023", "biography_author": null, "date_of_biography": "2025-02-26T20:05:49.330036+11:00", "external_links": [{"id": 2068, "uri": "https://en.wikipedia.org/wiki/Franz_Seitz_Jr."}], "uuid": "fb3de4e3-806f-4cd0-8a63-c5ceadfa32d0", "source": {"name": "Vernon", "slug": "vernon"}, "source_identifier": "19203", "external_references": [{"id": 8920, "source": {"name": "Wikidata", "slug": "wikidata"}, "source_identifier": "Q91077"}, {"id": 8921, "source": {"name": "VIAF", "slug": "viaf"}, "source_identifier": "42048389"}, {"id": 8922, "source": {"name": "LOC Auth", "slug": "loc-auth"}, "source_identifier": "n83208726"}, {"id": 8923, "source": {"name": "WorldCat", "slug": "worldcat"}, "source_identifier": "lccn-n83208726"}], "date_modified": "2025-02-26T20:05:49.330273+11:00"}, {"id": 77324, "name": "Daniel Wilson", "roles_in_work": [{"id": 2752082, "title": "The Legend of Mark Twain", "work_id": 98129, "role": "producer", "role_id": 1089, "is_primary": true}, {"id": 2353009, "title": "The Handmaid's tale", "work_id": 83088, "role": "producer", "role_id": 1089, "is_primary": true}, {"id": 1806084, "title": "How life begins", "work_id": 96004, "role": "producer", "role_id": 1089, "is_primary": true}], "also_known_as": "", "date_of_birth": "1840-03-06", "date_of_death": "1919-02-13", "genders": [{"id": 9, "name": "Male", "slug": "male"}], "languages": [{"id": 4, "name": "French", "slug": "french"}], "places_of_operation": [{"id": 17, "name": "France", "slug": "france"}], "biography": "", "biography_author": null, "date_of_biography": "2023-05-09T19:59:35.069712+10:00", "external_links": [], "uuid": "7bbefdbe-7ad6-495c-82d5-b477516fbbd2", "source": {"name": "Vernon", "slug": "vernon"}, "source_identifier": "17412", "external_references": [{"id": 40727, "source": {"name": "Wikidata", "slug": "wikidata"}, "source_identifier": "Q3014816"}, {"id": 54260, "source": {"name": "VIAF", "slug": "viaf"}, "source_identifier": "103649510"}, {"id": 54261, "source": {"name": "LOC Auth", "slug": "loc-auth"}, "source_identifier": "no2018087336"}, {"id": 54262, "source": {"name": "WorldCat", "slug": "worldcat"}, "source_identifier": "lccn-no2018087336"}], "date_modified": "2025-03-13T00:57:02.616245+11:00"}]}