{"count": 28687, "next": "https://api.acmi.net.au/creators/?page=326", "previous": "https://api.acmi.net.au/creators/?page=324", "results": [{"id": 82357, "name": "Sun Hualin", "roles_in_work": [{"id": 2650730, "title": "The Bureau head's boyfriend = Nu ju zhang de nan peng you", "work_id": 115759, "role": "cinematographer", "role_id": 32, "is_primary": false}], "also_known_as": "", "date_of_birth": "", "date_of_death": "", "genders": [], "languages": [], "places_of_operation": [], "biography": "", "biography_author": null, "date_of_biography": "2023-05-09T19:30:35.317763+10:00", "external_links": [], "uuid": "e6107354-b2d7-4307-84e4-d6bb5e9cc385", "source": {"name": "Vernon", "slug": "vernon"}, "source_identifier": "36377", "external_references": [{"id": 41618, "source": {"name": "Wikidata", "slug": "wikidata"}, "source_identifier": "Q121223345"}], "date_modified": "2025-03-05T14:22:52.097035+11:00"}, {"id": 82356, "name": "Qiu Yiren", "roles_in_work": [{"id": 2650729, "title": "The Bureau head's boyfriend = Nu ju zhang de nan peng you", "work_id": 115759, "role": "cinematographer", "role_id": 32, "is_primary": false}], "also_known_as": "", "date_of_birth": "", "date_of_death": "", "genders": [], "languages": [], "places_of_operation": [], "biography": "", "biography_author": null, "date_of_biography": "2023-05-09T19:30:35.079731+10:00", "external_links": [], "uuid": "d72be990-6c3b-487f-bfb6-e08bae9d74fd", "source": {"name": "Vernon", "slug": "vernon"}, "source_identifier": "36376", "external_references": [{"id": 41607, "source": {"name": "Wikidata", "slug": "wikidata"}, "source_identifier": "Q121271520"}], "date_modified": "2025-03-05T14:22:51.511735+11:00"}, {"id": 82355, "name": "Li Yizhong", "roles_in_work": [{"id": 2650728, "title": "The Bureau head's boyfriend = Nu ju zhang de nan peng you", "work_id": 115759, "role": "script", "role_id": 962, "is_primary": false}], "also_known_as": "", "date_of_birth": "", "date_of_death": "", "genders": [], "languages": [], "places_of_operation": [], "biography": "", "biography_author": null, "date_of_biography": "2023-05-09T19:30:34.849296+10:00", "external_links": [], "uuid": "eb3ae9c1-45ca-4bd2-9494-a2c6bc7f49eb", "source": {"name": "Vernon", "slug": "vernon"}, "source_identifier": "36375", "external_references": [], "date_modified": "2025-03-05T14:22:50.935988+11:00"}, {"id": 82354, "name": "Wang Linan", "roles_in_work": [{"id": 2650726, "title": "The Bureau head's boyfriend = Nu ju zhang de nan peng you", "work_id": 115759, "role": "script", "role_id": 962, "is_primary": false}], "also_known_as": "", "date_of_birth": "", "date_of_death": "", "genders": [], "languages": [], "places_of_operation": [], "biography": "", "biography_author": null, "date_of_biography": "2023-05-09T19:30:34.385593+10:00", "external_links": [], "uuid": "713cecd9-29ea-488b-9d7d-01b1ac6fcc9a", "source": {"name": "Vernon", "slug": "vernon"}, "source_identifier": "36374", "external_references": [], "date_modified": "2025-03-05T14:22:49.752479+11:00"}, {"id": 82353, "name": "Wei Jiawen", "roles_in_work": [{"id": 2650723, "title": "The Season for love = Lien ai chi chie", "work_id": 115758, "role": "composer", "role_id": 538, "is_primary": false}], "also_known_as": "", "date_of_birth": null, "date_of_death": null, "genders": [], "languages": [], "places_of_operation": [], "biography": "", "biography_author": null, "date_of_biography": null, "external_links": [], "uuid": "f87e78d1-f0c9-43d8-a1f1-3fe85a65f2b5", "source": {"name": "Vernon", "slug": "vernon"}, "source_identifier": "36700", "external_references": [], "date_modified": "2025-03-05T14:22:47.740778+11:00"}, {"id": 82352, "name": "Wu Huiming", "roles_in_work": [{"id": 2650722, "title": "The Season for love = Lien ai chi chie", "work_id": 115758, "role": "cast", "role_id": 33, "is_primary": false}], "also_known_as": "", "date_of_birth": null, "date_of_death": null, "genders": [], "languages": [], "places_of_operation": [], "biography": "", "biography_author": null, "date_of_biography": null, "external_links": [], "uuid": "06026631-e28a-4ab2-92d6-a52e7adfe06c", "source": {"name": "Vernon", "slug": "vernon"}, "source_identifier": "36699", "external_references": [{"id": 37510, "source": {"name": "Wikidata", "slug": "wikidata"}, "source_identifier": "Q121270918"}], "date_modified": "2025-03-05T14:22:47.147756+11:00"}, {"id": 82351, "name": "Zhou Guobin", "roles_in_work": [{"id": 2650721, "title": "The Season for love = Lien ai chi chie", "work_id": 115758, "role": "cast", "role_id": 33, "is_primary": false}], "also_known_as": "", "date_of_birth": null, "date_of_death": null, "genders": [{"id": 9, "name": "Male", "slug": "male"}], "languages": [], "places_of_operation": [], "biography": "", "biography_author": null, "date_of_biography": null, "external_links": [], "uuid": "e1e9f56a-e248-44d8-9d7e-b959f4527312", "source": {"name": "Vernon", "slug": "vernon"}, "source_identifier": "36698", "external_references": [{"id": 38922, "source": {"name": "Wikidata", "slug": "wikidata"}, "source_identifier": "Q121034963"}], "date_modified": "2025-03-05T14:22:46.537100+11:00"}, {"id": 82350, "name": "G.E. Batuqingele", "roles_in_work": [{"id": 2650720, "title": "The Season for love = Lien ai chi chie", "work_id": 115758, "role": "cast", "role_id": 33, "is_primary": false}], "also_known_as": "", "date_of_birth": null, "date_of_death": null, "genders": [{"id": 9, "name": "Male", "slug": "male"}], "languages": [], "places_of_operation": [], "biography": "", "biography_author": null, "date_of_biography": null, "external_links": [], "uuid": "db7c43af-5fa3-48a5-803c-a566a9246074", "source": {"name": "Vernon", "slug": "vernon"}, "source_identifier": "36697", "external_references": [{"id": 50622, "source": {"name": "Wikidata", "slug": "wikidata"}, "source_identifier": "Q121357472"}], "date_modified": "2025-03-05T14:22:45.941879+11:00"}, {"id": 82349, "name": "Cong Shan", "roles_in_work": [{"id": 2650719, "title": "The Season for love = Lien ai chi chie", "work_id": 115758, "role": "cast", "role_id": 33, "is_primary": false}], "also_known_as": "", "date_of_birth": null, "date_of_death": null, "genders": [{"id": 5, "name": "Female", "slug": "female"}], "languages": [], "places_of_operation": [], "biography": "", "biography_author": null, "date_of_biography": null, "external_links": [], "uuid": "00d0fc3f-fcc8-41cc-8c48-79b6e7a5c6cf", "source": {"name": "Vernon", "slug": "vernon"}, "source_identifier": "36696", "external_references": [{"id": 32709, "source": {"name": "Wikidata", "slug": "wikidata"}, "source_identifier": "Q121299257"}], "date_modified": "2025-03-05T14:22:45.347572+11:00"}, {"id": 82348, "name": "Lin Jian", "roles_in_work": [{"id": 2650717, "title": "The Season for love = Lien ai chi chie", "work_id": 115758, "role": "cinematographer", "role_id": 32, "is_primary": false}], "also_known_as": "", "date_of_birth": null, "date_of_death": null, "genders": [], "languages": [], "places_of_operation": [], "biography": "", "biography_author": null, "date_of_biography": null, "external_links": [], "uuid": "1b9b5cac-130f-40b2-9793-f940d87aa0f4", "source": {"name": "Vernon", "slug": "vernon"}, "source_identifier": "36634", "external_references": [{"id": 39874, "source": {"name": "Wikidata", "slug": "wikidata"}, "source_identifier": "Q121036558"}], "date_modified": "2025-03-05T14:22:44.174704+11:00"}]}