{"count": 28687, "next": "https://api.acmi.net.au/creators/?page=2723", "previous": "https://api.acmi.net.au/creators/?page=2721", "results": [{"id": 11137, "name": "Khadra Hersi", "roles_in_work": [{"id": 2638980, "title": "Changes", "work_id": 110248, "role": "creator", "role_id": 968, "is_primary": true}], "also_known_as": "", "date_of_birth": "", "date_of_death": "", "genders": [], "languages": [], "places_of_operation": [], "biography": "", "biography_author": null, "date_of_biography": "2023-05-09T16:43:02.855577+10:00", "external_links": [], "uuid": "406a45d2-c642-427d-8c26-37073d6e0846", "source": {"name": "Vernon", "slug": "vernon"}, "source_identifier": "2845", "external_references": [], "date_modified": "2025-03-05T11:12:39.341214+11:00"}, {"id": 11136, "name": "Kendall Jarkowiec", "roles_in_work": [{"id": 2638983, "title": "Disability, what disability", "work_id": 110247, "role": "creator", "role_id": 968, "is_primary": true}], "also_known_as": "", "date_of_birth": "", "date_of_death": "", "genders": [], "languages": [], "places_of_operation": [], "biography": "", "biography_author": null, "date_of_biography": "2023-05-09T16:43:04.122206+10:00", "external_links": [], "uuid": "c21a9eb3-8b08-4379-ba4a-a5c3424928c4", "source": {"name": "Vernon", "slug": "vernon"}, "source_identifier": "2844", "external_references": [], "date_modified": "2025-03-05T11:12:41.752003+11:00"}, {"id": 11135, "name": "Kaye Waghorne", "roles_in_work": [{"id": 2638988, "title": "A Letter to Selby", "work_id": 110246, "role": "creator", "role_id": 968, "is_primary": true}], "also_known_as": "", "date_of_birth": "", "date_of_death": "", "genders": [], "languages": [], "places_of_operation": [], "biography": "", "biography_author": null, "date_of_biography": "2023-05-09T16:43:06.477948+10:00", "external_links": [], "uuid": "11947394-4750-4f67-a54b-a1dde0e770ad", "source": {"name": "Vernon", "slug": "vernon"}, "source_identifier": "2843", "external_references": [], "date_modified": "2025-03-05T11:12:45.746929+11:00"}, {"id": 11134, "name": "Huy Kim", "roles_in_work": [{"id": 2638994, "title": "The Vision", "work_id": 110245, "role": "creator", "role_id": 968, "is_primary": true}], "also_known_as": "", "date_of_birth": "", "date_of_death": "", "genders": [], "languages": [], "places_of_operation": [], "biography": "", "biography_author": null, "date_of_biography": "2023-05-09T16:43:10.953271+10:00", "external_links": [], "uuid": "a1fc5312-9d8d-4bcd-a6c8-3f3133696703", "source": {"name": "Vernon", "slug": "vernon"}, "source_identifier": "2842", "external_references": [], "date_modified": "2025-03-05T11:12:50.746482+11:00"}, {"id": 11132, "name": "Chris Fitchett", "roles_in_work": [{"id": 2644152, "title": "The Big day", "work_id": 65401, "role": "director", "role_id": 938, "is_primary": true}, {"id": 898108, "title": "Blood money", "work_id": 78151, "role": "director", "role_id": 938, "is_primary": true}, {"id": 2121469, "title": "Blurred", "work_id": 95108, "role": "co-producer", "role_id": 915, "is_primary": true}, {"id": 2176420, "title": "One wild weekend with the lonesome rustler", "work_id": 92234, "role": "co-producer", "role_id": 915, "is_primary": true}, {"id": 929667, "title": "Under the radar", "work_id": 94955, "role": "co-producer", "role_id": 915, "is_primary": true}, {"id": 2640563, "title": "Getting wet", "work_id": 114259, "role": "producer", "role_id": 1089, "is_primary": true}, {"id": 1806283, "title": "Getting wet", "work_id": 78845, "role": "producer", "role_id": 1089, "is_primary": true}, {"id": 1805594, "title": "Queensland", "work_id": 78362, "role": "producer", "role_id": 1089, "is_primary": true}], "also_known_as": "", "date_of_birth": "", "date_of_death": "", "genders": [{"id": 9, "name": "Male", "slug": "male"}], "languages": [], "places_of_operation": [], "biography": "Chris Fitchett is an Australian writer, producer and script editor.\nHe has worked for many years a development and production executive for state and federal government film funding agencies including Project Manager/Deputy Director of Film Victoria, CEO of the Commercial Television Production Fund, and Chief Executive of the Australian Film Commission.\nHe teaches at Bond University.", "biography_author": "Wikidata", "date_of_biography": "2023-09-05T18:31:53.156675+10:00", "external_links": [{"id": 5747, "uri": "https://en.wikipedia.org/wiki/Chris_Fitchett"}], "uuid": "83a3dbcc-6fc2-46ce-be1a-5b42c154b771", "source": {"name": "Vernon", "slug": "vernon"}, "source_identifier": "2937", "external_references": [{"id": 33562, "source": {"name": "Wikidata", "slug": "wikidata"}, "source_identifier": "Q28086157"}], "date_modified": "2025-03-05T12:11:42.968152+11:00"}, {"id": 11131, "name": "Karen Adams", "roles_in_work": [{"id": 2638437, "title": "Safe harbours", "work_id": 114255, "role": "creator", "role_id": 968, "is_primary": true}, {"id": 2643248, "title": "Old and new", "work_id": 93757, "role": "creator", "role_id": 968, "is_primary": true}], "also_known_as": "", "date_of_birth": "", "date_of_death": "", "genders": [{"id": 5, "name": "Female", "slug": "female"}], "languages": [], "places_of_operation": [], "biography": "", "biography_author": null, "date_of_biography": "2023-08-14T10:34:22.980407+10:00", "external_links": [], "uuid": "791eceec-638c-4718-8d58-287e959fb263", "source": {"name": "Vernon", "slug": "vernon"}, "source_identifier": "2840", "external_references": [], "date_modified": "2025-03-05T11:55:23.314391+11:00"}, {"id": 11130, "name": "Dale Williamson", "roles_in_work": [{"id": 2638428, "title": "An Album of sunny memories: for Delcie", "work_id": 114253, "role": "creator", "role_id": 968, "is_primary": true}], "also_known_as": "", "date_of_birth": "", "date_of_death": "", "genders": [{"id": 5, "name": "Female", "slug": "female"}], "languages": [], "places_of_operation": [], "biography": "", "biography_author": null, "date_of_biography": "2023-08-14T10:34:36.465282+10:00", "external_links": [], "uuid": "d2808641-b18b-49df-ba13-ebdc525ef2d4", "source": {"name": "Vernon", "slug": "vernon"}, "source_identifier": "2839", "external_references": [], "date_modified": "2025-03-05T11:06:32.021501+11:00"}, {"id": 11129, "name": "Paul O'Toole", "roles_in_work": [{"id": 2638436, "title": "Love : earned or learned", "work_id": 114254, "role": "creator", "role_id": 968, "is_primary": true}], "also_known_as": "", "date_of_birth": "", "date_of_death": "", "genders": [{"id": 9, "name": "Male", "slug": "male"}], "languages": [], "places_of_operation": [], "biography": "", "biography_author": null, "date_of_biography": "2023-08-14T10:34:34.073478+10:00", "external_links": [], "uuid": "4f44c700-01fd-4d79-8be6-029a0c4bc3f7", "source": {"name": "Vernon", "slug": "vernon"}, "source_identifier": "2838", "external_references": [], "date_modified": "2025-03-05T11:06:37.633001+11:00"}, {"id": 11128, "name": "Kaylene Tyler", "roles_in_work": [{"id": 2638440, "title": "A Story on purpose", "work_id": 114256, "role": "creator", "role_id": 968, "is_primary": true}], "also_known_as": "", "date_of_birth": "", "date_of_death": "", "genders": [{"id": 5, "name": "Female", "slug": "female"}], "languages": [], "places_of_operation": [], "biography": "", "biography_author": null, "date_of_biography": "2023-08-14T10:34:25.377075+10:00", "external_links": [], "uuid": "600284bf-1b20-4bae-aae0-4f87c45dd01e", "source": {"name": "Vernon", "slug": "vernon"}, "source_identifier": "2836", "external_references": [], "date_modified": "2025-03-05T11:06:41.911533+11:00"}, {"id": 11127, "name": "John Thompson", "roles_in_work": [{"id": 2638446, "title": "We shall remember them", "work_id": 114258, "role": "creator", "role_id": 968, "is_primary": true}, {"id": 2116484, "title": "Bizarre cults", "work_id": 92662, "role": "co-producer", "role_id": 915, "is_primary": true}], "also_known_as": "", "date_of_birth": "", "date_of_death": "", "genders": [{"id": 9, "name": "Male", "slug": "male"}], "languages": [], "places_of_operation": [], "biography": "", "biography_author": null, "date_of_biography": "2023-08-14T10:34:30.162947+10:00", "external_links": [], "uuid": "052108aa-6ebc-4bad-8af9-94e3a28162f3", "source": {"name": "Vernon", "slug": "vernon"}, "source_identifier": "2834", "external_references": [{"id": 38434, "source": {"name": "Wikidata", "slug": "wikidata"}, "source_identifier": "Q121299442"}], "date_modified": "2025-03-05T11:06:46.258222+11:00"}]}