{"count": 28682, "next": "https://api.acmi.net.au/creators/?page=14", "previous": "https://api.acmi.net.au/creators/?page=12", "results": [{"id": 87653, "name": "James Merry", "roles_in_work": [{"id": 3097475, "title": "Kundalini Orchid Headpiece", "work_id": 122759, "role": "", "role_id": 604, "is_primary": false}, {"id": 3097478, "title": "Utopia Silicone prosthetics", "work_id": 122762, "role": "maker", "role_id": 657, "is_primary": false}, {"id": 3097481, "title": "White Orchid Headpiece design drawing", "work_id": 122764, "role": "maker", "role_id": 657, "is_primary": false}], "also_known_as": "", "date_of_birth": "1982", "date_of_death": null, "genders": [{"id": 9, "name": "Male", "slug": "male"}], "languages": [], "places_of_operation": [], "biography": "", "biography_author": null, "date_of_biography": null, "external_links": [], "uuid": "90f951d6-1667-41de-9f17-293f18b65a10", "source": {"name": "Vernon", "slug": "vernon"}, "source_identifier": "40755", "external_references": [], "date_modified": "2025-05-08T22:36:58.841818+10:00"}, {"id": 87652, "name": "One Little Independent Records", "roles_in_work": [{"id": 3097474, "title": "Bjork: The Gate\nMusic Video", "work_id": 122758, "role": "", "role_id": 604, "is_primary": false}, {"id": 3097480, "title": "White Orchid dress from The Gate music video", "work_id": 122763, "role": "lender", "role_id": 626, "is_primary": false}], "also_known_as": "", "date_of_birth": null, "date_of_death": null, "genders": [], "languages": [], "places_of_operation": [], "biography": "", "biography_author": null, "date_of_biography": null, "external_links": [], "uuid": "b6812830-6f2f-4ee6-9871-e3d9b007a625", "source": {"name": "Vernon", "slug": "vernon"}, "source_identifier": "40761", "external_references": [], "date_modified": "2025-05-08T22:36:57.893457+10:00"}, {"id": 87651, "name": "Andrew Huang", "roles_in_work": [{"id": 3097473, "title": "Bjork: The Gate\nMusic Video", "work_id": 122758, "role": "director", "role_id": 938, "is_primary": true}, {"id": 3097462, "title": "Bjork: The Gate\nAnimatic Music Video", "work_id": 122747, "role": "director", "role_id": 938, "is_primary": true}, {"id": 3097472, "title": "Bjork: The Gate\nDeconstructed Video", "work_id": 122757, "role": "director", "role_id": 938, "is_primary": true}, {"id": 3097484, "title": "Bjork: The Gate", "work_id": 122746, "role": "director", "role_id": 938, "is_primary": true}, {"id": 3097463, "title": "Bjork: The Gate\nConcept art developing prism", "work_id": 122748, "role": "director", "role_id": 938, "is_primary": true}, {"id": 3097464, "title": "Bjork: The Gate\nConcept art developing prism", "work_id": 122749, "role": "director", "role_id": 938, "is_primary": true}, {"id": 3097465, "title": "Bjork: The Gate\nConcept art\nBeginning after the end", "work_id": 122750, "role": "director", "role_id": 938, "is_primary": true}, {"id": 3097466, "title": "Bjork: The Gate\nConcept art\nDrone-like heads of avatar", "work_id": 122751, "role": "director", "role_id": 938, "is_primary": true}, {"id": 3097467, "title": "Bjork: The Gate\nConcept art\nPrior to Gucci developing dress", "work_id": 122752, "role": "director", "role_id": 938, "is_primary": true}, {"id": 3097468, "title": "Bjork: The Gate\nConcept art\nRender of avatar", "work_id": 122753, "role": "director", "role_id": 938, "is_primary": true}, {"id": 3097469, "title": "Bjork: The Gate\nConcept Drawings", "work_id": 122754, "role": "director", "role_id": 938, "is_primary": true}, {"id": 3097470, "title": "Bjork: The Gate\nConcept Drawings", "work_id": 122755, "role": "director", "role_id": 938, "is_primary": true}, {"id": 3097471, "title": "Bjork: The Gate\nConcept Drawings", "work_id": 122756, "role": "director", "role_id": 938, "is_primary": true}], "also_known_as": "", "date_of_birth": null, "date_of_death": null, "genders": [], "languages": [], "places_of_operation": [], "biography": "", "biography_author": null, "date_of_biography": null, "external_links": [], "uuid": "45689049-7c89-4b44-afa0-0efc3caa3f84", "source": {"name": "Vernon", "slug": "vernon"}, "source_identifier": "40763", "external_references": [], "date_modified": "2025-05-08T22:37:01.425925+10:00"}, {"id": 87650, "name": "Die Gute Fabrik", "roles_in_work": [{"id": 3097448, "title": "Saltsea Chronicles, Affie (finished)", "work_id": 122733, "role": "", "role_id": 604, "is_primary": false}, {"id": 3097444, "title": " Njarfie Roust panorama, morning (process)", "work_id": 122729, "role": "", "role_id": 604, "is_primary": false}, {"id": 3097445, "title": "Njarfie Roust building concepts sketch (process)", "work_id": 122730, "role": "", "role_id": 604, "is_primary": false}, {"id": 3097446, "title": "Njarfie Roust concept sketch (process)", "work_id": 122731, "role": "", "role_id": 604, "is_primary": false}, {"id": 3097447, "title": "Njarfie Roust panorama, evening (process)", "work_id": 122732, "role": "", "role_id": 604, "is_primary": false}, {"id": 3097449, "title": "Saltsea Chronicles, boat concept art (process)", "work_id": 122734, "role": "", "role_id": 604, "is_primary": false}, {"id": 3097460, "title": "Saltsea Chronicles,Fat njar customer (finished)", "work_id": 122745, "role": "", "role_id": 604, "is_primary": false}, {"id": 3097459, "title": "Saltsea Chronicles, Siaso radio room (process)", "work_id": 122744, "role": "", "role_id": 604, "is_primary": false}, {"id": 3097458, "title": "Saltsea Chronicles, Nest Citizen (finished)", "work_id": 122743, "role": "", "role_id": 604, "is_primary": false}, {"id": 3097457, "title": "Saltsea Chronicles, location concept Siaso (process)", "work_id": 122742, "role": "", "role_id": 604, "is_primary": false}, {"id": 3097456, "title": "Saltsea Chronicles, Lissa (finished)", "work_id": 122741, "role": "", "role_id": 604, "is_primary": false}, {"id": 3097455, "title": "Saltsea Chronicles, Kids choir (finished)", "work_id": 122740, "role": "", "role_id": 604, "is_primary": false}, {"id": 3097454, "title": "Saltsea Chronicles, Iris 2D animations x 12 (process)", "work_id": 122739, "role": "", "role_id": 604, "is_primary": false}, {"id": 3097453, "title": "Saltsea Chronicles, Early Iris Concept Sketch (process)", "work_id": 122738, "role": "", "role_id": 604, "is_primary": false}, {"id": 3097452, "title": "Saltsea Chronicles, Early Iris Concept Sketch (process)", "work_id": 122737, "role": "", "role_id": 604, "is_primary": false}, {"id": 3097451, "title": "Saltsea Chronicles, Don (finished)", "work_id": 122736, "role": "", "role_id": 604, "is_primary": false}, {"id": 3097450, "title": "Saltsea Chronicles, Celeste (finished)", "work_id": 122735, "role": "", "role_id": 604, "is_primary": false}, {"id": 3097443, "title": " Njarfie Roust panorama, afternoon (process)", "work_id": 122728, "role": "", "role_id": 604, "is_primary": false}, {"id": 3097461, "title": "Saltsea Chronicles", "work_id": 122727, "role": "games developer/developer", "role_id": 1092, "is_primary": false}], "also_known_as": "", "date_of_birth": null, "date_of_death": null, "genders": [], "languages": [], "places_of_operation": [], "biography": "", "biography_author": null, "date_of_biography": null, "external_links": [], "uuid": "5d1ac124-0bb5-42fb-9606-572d5f43cd85", "source": {"name": "Vernon", "slug": "vernon"}, "source_identifier": "40844", "external_references": [], "date_modified": "2025-05-08T22:36:40.266973+10:00"}, {"id": 87649, "name": "Sutu, The Love Punks & The Satellite Sisters", "roles_in_work": [{"id": 3097442, "title": "NEOMAD, The Love Punks and Satellite Sisters", "work_id": 122710, "role": "artist", "role_id": 505, "is_primary": true}], "also_known_as": "", "date_of_birth": null, "date_of_death": null, "genders": [], "languages": [], "places_of_operation": [], "biography": "", "biography_author": null, "date_of_biography": null, "external_links": [], "uuid": "3d2f8cf2-9716-4e9f-b43e-a2bca8f0b7ea", "source": {"name": "Vernon", "slug": "vernon"}, "source_identifier": "40863", "external_references": [], "date_modified": "2025-05-08T22:36:20.286151+10:00"}, {"id": 87648, "name": "Wah Cheung", "roles_in_work": [{"id": 3097437, "title": "Neomad poster (Digtial file)", "work_id": 122724, "role": "designer", "role_id": 495, "is_primary": false}], "also_known_as": "", "date_of_birth": null, "date_of_death": null, "genders": [], "languages": [], "places_of_operation": [], "biography": "", "biography_author": null, "date_of_biography": null, "external_links": [], "uuid": "1db95de6-831b-47e6-9afb-e9afef969ce1", "source": {"name": "Vernon", "slug": "vernon"}, "source_identifier": "40824", "external_references": [], "date_modified": "2025-05-08T22:36:15.204605+10:00"}, {"id": 87647, "name": "The Satellite Sisters", "roles_in_work": [{"id": 3097430, "title": "Neomad Book Three – Porkchop Plots", "work_id": 122719, "role": "writer", "role_id": 939, "is_primary": true}, {"id": 3097425, "title": "Neomad Book One – Space Junk", "work_id": 122718, "role": "writer", "role_id": 939, "is_primary": true}], "also_known_as": "", "date_of_birth": null, "date_of_death": null, "genders": [], "languages": [], "places_of_operation": [], "biography": "", "biography_author": null, "date_of_biography": null, "external_links": [], "uuid": "7f21b8e7-216e-4e2e-ac8d-f29a63a4b1fd", "source": {"name": "Vernon", "slug": "vernon"}, "source_identifier": "40828", "external_references": [], "date_modified": "2025-05-08T22:36:09.437887+10:00"}, {"id": 87646, "name": "The Love Punks", "roles_in_work": [{"id": 3097429, "title": "Neomad Book Three – Porkchop Plots", "work_id": 122719, "role": "writer", "role_id": 939, "is_primary": true}, {"id": 3097424, "title": "Neomad Book One – Space Junk", "work_id": 122718, "role": "writer", "role_id": 939, "is_primary": true}], "also_known_as": "", "date_of_birth": null, "date_of_death": null, "genders": [], "languages": [], "places_of_operation": [], "biography": "", "biography_author": null, "date_of_biography": null, "external_links": [], "uuid": "4f8493c9-c5fb-428c-9a8c-cbefe9d793ee", "source": {"name": "Vernon", "slug": "vernon"}, "source_identifier": "40827", "external_references": [], "date_modified": "2025-05-08T22:36:08.831916+10:00"}, {"id": 87645, "name": "Stu Campbell", "roles_in_work": [{"id": 3097432, "title": "Neomad Concept Drawing 1", "work_id": 122720, "role": "illustrator", "role_id": 605, "is_primary": false}, {"id": 3097423, "title": "Neomad Book One – Space Junk", "work_id": 122718, "role": "illustrator", "role_id": 605, "is_primary": false}, {"id": 3097414, "title": "Hero image for Neomad Episode/Book 1: Space Junk (Digtal file)", "work_id": 122714, "role": "illustrator", "role_id": 605, "is_primary": false}, {"id": 3097428, "title": "Neomad Book Three – Porkchop Plots", "work_id": 122719, "role": "illustrator", "role_id": 605, "is_primary": false}, {"id": 3097420, "title": "Illustration from Neomad Episode/Book 2: The Last Crystal (Digital file)", "work_id": 122717, "role": "illustrator", "role_id": 605, "is_primary": false}, {"id": 3097418, "title": "Illustration from Neomad Episode/Book 2: The Last Crystal (Digital file)", "work_id": 122716, "role": "illustrator", "role_id": 605, "is_primary": false}, {"id": 3097416, "title": "Illustration from Neomad Episode/Book 1: Space Junk (Digtal file)", "work_id": 122715, "role": "illustrator", "role_id": 605, "is_primary": false}, {"id": 3097434, "title": "Neomad Concept Drawing 3", "work_id": 122722, "role": "illustrator", "role_id": 605, "is_primary": false}, {"id": 3097436, "title": "Neomad poster (Digtial file)", "work_id": 122724, "role": "illustrator", "role_id": 605, "is_primary": false}, {"id": 3097435, "title": "Neomad Concept Drawing 4", "work_id": 122723, "role": "illustrator", "role_id": 605, "is_primary": false}, {"id": 3097433, "title": "Neomad Concept Drawing 2", "work_id": 122721, "role": "illustrator", "role_id": 605, "is_primary": false}, {"id": 3097427, "title": "Neomad Book Three – Porkchop Plots", "work_id": 122719, "role": "writer", "role_id": 939, "is_primary": true}, {"id": 3097422, "title": "Neomad Book One – Space Junk", "work_id": 122718, "role": "writer", "role_id": 939, "is_primary": true}], "also_known_as": "", "date_of_birth": null, "date_of_death": null, "genders": [], "languages": [], "places_of_operation": [], "biography": "", "biography_author": null, "date_of_biography": null, "external_links": [], "uuid": "56aabb82-f42e-4957-820b-539fca75c901", "source": {"name": "Vernon", "slug": "vernon"}, "source_identifier": "40823", "external_references": [], "date_modified": "2025-05-08T22:36:14.612031+10:00"}, {"id": 87644, "name": "Dudley Billing", "roles_in_work": [{"id": 3097413, "title": "Corbyn Munda as Crazy Tank, Nathaniel Edwins as Future Smash, Trenton Lockyer as Junk Budd filming Junk Punks with Benjamin Ducroz (lying down)", "work_id": 122713, "role": "co-director", "role_id": 959, "is_primary": true}], "also_known_as": "", "date_of_birth": null, "date_of_death": null, "genders": [], "languages": [], "places_of_operation": [], "biography": "", "biography_author": null, "date_of_biography": null, "external_links": [], "uuid": "8df08c52-b07e-4702-b738-990cef5a8108", "source": {"name": "Vernon", "slug": "vernon"}, "source_identifier": "40825", "external_references": [], "date_modified": "2025-05-08T22:35:52.615142+10:00"}]}