{"count": 28687, "next": "https://api.acmi.net.au/creators/?page=1902", "previous": "https://api.acmi.net.au/creators/?page=1900", "results": [{"id": 24474, "name": "Nouvelles Éditions de Films", "roles_in_work": [{"id": 2171285, "title": "May fools = Milou en mai = Milou in May", "work_id": 82250, "role": "production company", "role_id": 941, "is_primary": true}, {"id": 1994110, "title": "Lift to the scaffold = L'Ascenseur pour l'echafaud", "work_id": 89850, "role": "production company", "role_id": 941, "is_primary": true}, {"id": 1994133, "title": "Lacombe Lucien [Widescreen]", "work_id": 89879, "role": "production company", "role_id": 941, "is_primary": true}, {"id": 1990348, "title": "Au revoir les enfants", "work_id": 85957, "role": "production company", "role_id": 941, "is_primary": true}], "also_known_as": "", "date_of_birth": "", "date_of_death": "", "genders": [], "languages": [], "places_of_operation": [], "biography": "", "biography_author": null, "date_of_biography": "2023-05-09T14:36:23.095832+10:00", "external_links": [], "uuid": "2352ea04-277e-446d-b04d-110745775d6b", "source": {"name": "Vernon", "slug": "vernon"}, "source_identifier": "4624", "external_references": [{"id": 43134, "source": {"name": "Wikidata", "slug": "wikidata"}, "source_identifier": "Q112769437"}], "date_modified": "2023-09-05T23:35:02.911023+10:00"}, {"id": 24473, "name": "Joseph Blatt", "roles_in_work": [{"id": 2783417, "title": "What is statistics?", "work_id": 82249, "role": "producer", "role_id": 1089, "is_primary": true}, {"id": 1846768, "title": "For all practical purposes. Statistics. 5", "work_id": 83393, "role": "producer/director", "role_id": 31, "is_primary": true}, {"id": 1846756, "title": "For all practical purposes. Social choice. 1", "work_id": 83359, "role": "producer/director", "role_id": 31, "is_primary": true}, {"id": 1846811, "title": "For all practical purposes. Statistics. 3", "work_id": 83444, "role": "producer/director", "role_id": 31, "is_primary": true}, {"id": 1846779, "title": "For all practical purposes. Social choice. 4", "work_id": 83413, "role": "producer/director", "role_id": 31, "is_primary": true}, {"id": 881436, "title": "An Astronaut's view of earth", "work_id": 92814, "role": "producer/director", "role_id": 31, "is_primary": true}, {"id": 1846807, "title": "For all practical purposes. Social choice. 5", "work_id": 83441, "role": "producer/director", "role_id": 31, "is_primary": true}, {"id": 781983, "title": "For all practical purposes. Computer science. 5", "work_id": 83319, "role": "producer/director", "role_id": 31, "is_primary": true}, {"id": 1846772, "title": "For all practical purposes. Statistics. 2", "work_id": 83398, "role": "producer/director", "role_id": 31, "is_primary": true}, {"id": 1846799, "title": "For all practical purposes. Computer science. 1", "work_id": 83434, "role": "producer/director", "role_id": 31, "is_primary": true}, {"id": 1846795, "title": "For all practical purposes. Computer science. 2", "work_id": 83430, "role": "producer/director", "role_id": 31, "is_primary": true}, {"id": 1846709, "title": "For all practical purposes. Social choice. 3", "work_id": 83318, "role": "producer/director", "role_id": 31, "is_primary": true}, {"id": 1846815, "title": "For all practical purposes. Statistics. 4", "work_id": 83445, "role": "producer/director", "role_id": 31, "is_primary": true}, {"id": 1846831, "title": "For all practical purposes. Statistics. 1", "work_id": 83497, "role": "producer/director", "role_id": 31, "is_primary": true}, {"id": 2783507, "title": "Time series", "work_id": 83460, "role": "producer/director", "role_id": 31, "is_primary": true}, {"id": 2614217, "title": "For all practical purposes. Social choice. 2", "work_id": 83347, "role": "producer/director", "role_id": 31, "is_primary": true}], "also_known_as": "", "date_of_birth": "", "date_of_death": "", "genders": [], "languages": [], "places_of_operation": [], "biography": "", "biography_author": null, "date_of_biography": "2023-05-09T18:35:08.280440+10:00", "external_links": [], "uuid": "4ffabc87-4499-4fa0-a447-f691d847808b", "source": {"name": "Vernon", "slug": "vernon"}, "source_identifier": "22715", "external_references": [{"id": 52208, "source": {"name": "Wikidata", "slug": "wikidata"}, "source_identifier": "Q121360610"}], "date_modified": "2025-03-14T19:16:46.232526+11:00"}, {"id": 24472, "name": "American Statistical Association", "roles_in_work": [{"id": 2783708, "title": "Binomial distributions", "work_id": 83478, "role": "production company", "role_id": 941, "is_primary": true}, {"id": 2783728, "title": "The Sample mean and control charts", "work_id": 83520, "role": "production company", "role_id": 941, "is_primary": true}, {"id": 2783486, "title": "Normal calculations", "work_id": 83293, "role": "production company", "role_id": 941, "is_primary": true}, {"id": 2783536, "title": "Describing relationships", "work_id": 83573, "role": "production company", "role_id": 941, "is_primary": true}, {"id": 2783638, "title": "Blocking and sampling", "work_id": 83477, "role": "production company", "role_id": 941, "is_primary": true}, {"id": 2783804, "title": "Inference for one mean", "work_id": 84156, "role": "production company", "role_id": 941, "is_primary": true}, {"id": 2783566, "title": "Correlation", "work_id": 83459, "role": "production company", "role_id": 941, "is_primary": true}, {"id": 2783821, "title": "Comparing two means", "work_id": 83456, "role": "production company", "role_id": 941, "is_primary": true}, {"id": 2783877, "title": "Against all odds: inside statistics", "work_id": 115276, "role": "production company", "role_id": 941, "is_primary": true}, {"id": 2783837, "title": "Inference for proportions", "work_id": 83487, "role": "production company", "role_id": 941, "is_primary": true}, {"id": 2783587, "title": "Multidimensional data analysis", "work_id": 83486, "role": "production company", "role_id": 941, "is_primary": true}, {"id": 2783853, "title": "Inference for two-way tables", "work_id": 83506, "role": "production company", "role_id": 941, "is_primary": true}, {"id": 2783672, "title": "What is probability?", "work_id": 83552, "role": "production company", "role_id": 941, "is_primary": true}, {"id": 2783690, "title": "Random variables", "work_id": 83510, "role": "production company", "role_id": 941, "is_primary": true}, {"id": 2783500, "title": "Time series", "work_id": 83460, "role": "production company", "role_id": 941, "is_primary": true}, {"id": 2783413, "title": "What is statistics?", "work_id": 82249, "role": "production company", "role_id": 941, "is_primary": true}], "also_known_as": "", "date_of_birth": "", "date_of_death": "", "genders": [], "languages": [], "places_of_operation": [], "biography": "", "biography_author": null, "date_of_biography": "2023-05-09T18:36:08.916744+10:00", "external_links": [], "uuid": "30698e06-6dc5-4375-a152-a8ed8ec20040", "source": {"name": "Vernon", "slug": "vernon"}, "source_identifier": "5220", "external_references": [{"id": 33091, "source": {"name": "Wikidata", "slug": "wikidata"}, "source_identifier": "Q121057854"}], "date_modified": "2025-03-14T19:17:57.821827+11:00"}, {"id": 24469, "name": "COMAP", "roles_in_work": [{"id": 1846786, "title": "For all practical purposes. Summing up", "work_id": 83420, "role": "production company", "role_id": 941, "is_primary": true}, {"id": 1846770, "title": "For all practical purposes. Statistics. 2", "work_id": 83398, "role": "production company", "role_id": 941, "is_primary": true}, {"id": 1846806, "title": "For all practical purposes. Social choice. 5", "work_id": 83441, "role": "production company", "role_id": 941, "is_primary": true}, {"id": 1846707, "title": "For all practical purposes. Social choice. 3", "work_id": 83318, "role": "production company", "role_id": 941, "is_primary": true}, {"id": 1846809, "title": "For all practical purposes. Statistics. 3", "work_id": 83444, "role": "production company", "role_id": 941, "is_primary": true}, {"id": 1846797, "title": "For all practical purposes. Computer science. 1", "work_id": 83434, "role": "production company", "role_id": 941, "is_primary": true}, {"id": 1846794, "title": "For all practical purposes. Computer science. 2", "work_id": 83430, "role": "production company", "role_id": 941, "is_primary": true}, {"id": 781981, "title": "For all practical purposes. Computer science. 5", "work_id": 83319, "role": "production company", "role_id": 941, "is_primary": true}, {"id": 2246471, "title": "For all practical purposes. On size and shape. 2", "work_id": 84108, "role": "production company", "role_id": 941, "is_primary": true}, {"id": 2614249, "title": "For all practical purposes. Computer science. 3", "work_id": 83391, "role": "production company", "role_id": 941, "is_primary": true}, {"id": 2783429, "title": "Picturing distributions", "work_id": 82702, "role": "production company", "role_id": 941, "is_primary": true}, {"id": 2783447, "title": "Describing distributions", "work_id": 83084, "role": "production company", "role_id": 941, "is_primary": true}, {"id": 2783464, "title": "Normal distributions", "work_id": 83241, "role": "production company", "role_id": 941, "is_primary": true}, {"id": 2783480, "title": "Normal calculations", "work_id": 83293, "role": "production company", "role_id": 941, "is_primary": true}, {"id": 2783502, "title": "Time series", "work_id": 83460, "role": "production company", "role_id": 941, "is_primary": true}, {"id": 2783514, "title": "Models for growth", "work_id": 83498, "role": "production company", "role_id": 941, "is_primary": true}, {"id": 2783529, "title": "Describing relationships", "work_id": 83573, "role": "production company", "role_id": 941, "is_primary": true}, {"id": 2783556, "title": "Correlation", "work_id": 83459, "role": "production company", "role_id": 941, "is_primary": true}, {"id": 2783576, "title": "Multidimensional data analysis", "work_id": 83486, "role": "production company", "role_id": 941, "is_primary": true}, {"id": 2783616, "title": "Experimental design", "work_id": 83458, "role": "production company", "role_id": 941, "is_primary": true}, {"id": 2783633, "title": "Blocking and sampling", "work_id": 83477, "role": "production company", "role_id": 941, "is_primary": true}, {"id": 2783651, "title": "Samples and surveys", "work_id": 83557, "role": "production company", "role_id": 941, "is_primary": true}, {"id": 2783669, "title": "What is probability?", "work_id": 83552, "role": "production company", "role_id": 941, "is_primary": true}, {"id": 2783688, "title": "Random variables", "work_id": 83510, "role": "production company", "role_id": 941, "is_primary": true}, {"id": 2783705, "title": "Binomial distributions", "work_id": 83478, "role": "production company", "role_id": 941, "is_primary": true}, {"id": 2783722, "title": "The Sample mean and control charts", "work_id": 83520, "role": "production company", "role_id": 941, "is_primary": true}, {"id": 2783753, "title": "Confidence intervals", "work_id": 83455, "role": "production company", "role_id": 941, "is_primary": true}, {"id": 2783779, "title": "Significance tests", "work_id": 83556, "role": "production company", "role_id": 941, "is_primary": true}, {"id": 2783800, "title": "Inference for one mean", "work_id": 84156, "role": "production company", "role_id": 941, "is_primary": true}, {"id": 2783818, "title": "Comparing two means", "work_id": 83456, "role": "production company", "role_id": 941, "is_primary": true}, {"id": 2783834, "title": "Inference for proportions", "work_id": 83487, "role": "production company", "role_id": 941, "is_primary": true}, {"id": 2783852, "title": "Inference for two-way tables", "work_id": 83506, "role": "production company", "role_id": 941, "is_primary": true}, {"id": 2783862, "title": "Inference for relationships", "work_id": 83383, "role": "production company", "role_id": 941, "is_primary": true}, {"id": 2783871, "title": "Case study", "work_id": 83474, "role": "production company", "role_id": 941, "is_primary": true}, {"id": 2246372, "title": "For all practical purposes. Computer science. 4", "work_id": 83388, "role": "production company", "role_id": 941, "is_primary": true}, {"id": 2246410, "title": "For all practical purposes. Management science. 2", "work_id": 83170, "role": "production company", "role_id": 941, "is_primary": true}, {"id": 2246429, "title": "For all practical purposes. Management science. 3", "work_id": 83229, "role": "production company", "role_id": 941, "is_primary": true}, {"id": 2246510, "title": "For all practical purposes. Management science. 1", "work_id": 82248, "role": "production company", "role_id": 941, "is_primary": true}, {"id": 2246494, "title": "For all practical purposes. On size and shape. 4", "work_id": 83426, "role": "production company", "role_id": 941, "is_primary": true}, {"id": 2614216, "title": "For all practical purposes. Social choice. 2", "work_id": 83347, "role": "production company", "role_id": 941, "is_primary": true}, {"id": 2246509, "title": "For all practical purposes. On size and shape. 5", "work_id": 83341, "role": "production company", "role_id": 941, "is_primary": true}, {"id": 2246440, "title": "For all practical purposes. Management science. 4", "work_id": 83291, "role": "production company", "role_id": 941, "is_primary": true}, {"id": 2246466, "title": "For all practical purposes. On size and shape. 1", "work_id": 83435, "role": "production company", "role_id": 941, "is_primary": true}, {"id": 2246485, "title": "For all practical purposes. On size and shape. 3", "work_id": 83342, "role": "production company", "role_id": 941, "is_primary": true}, {"id": 2246458, "title": "For all practical purposes. Management science. 5", "work_id": 83390, "role": "production company", "role_id": 941, "is_primary": true}, {"id": 1846766, "title": "For all practical purposes. Statistics. 5", "work_id": 83393, "role": "production company", "role_id": 941, "is_primary": true}, {"id": 1846813, "title": "For all practical purposes. Statistics. 4", "work_id": 83445, "role": "production company", "role_id": 941, "is_primary": true}, {"id": 1846754, "title": "For all practical purposes. Social choice. 1", "work_id": 83359, "role": "production company", "role_id": 941, "is_primary": true}, {"id": 1846829, "title": "For all practical purposes. Statistics. 1", "work_id": 83497, "role": "production company", "role_id": 941, "is_primary": true}], "also_known_as": "", "date_of_birth": "", "date_of_death": "", "genders": [], "languages": [], "places_of_operation": [], "biography": "", "biography_author": null, "date_of_biography": "2023-05-09T18:36:12.193838+10:00", "external_links": [], "uuid": "e568193d-5069-4b91-94af-40316b0ebc71", "source": {"name": "Vernon", "slug": "vernon"}, "source_identifier": "6920", "external_references": [{"id": 33513, "source": {"name": "Wikidata", "slug": "wikidata"}, "source_identifier": "Q121299242"}], "date_modified": "2025-03-14T19:17:54.962669+11:00"}, {"id": 24468, "name": "New South Wales Cancer Council", "roles_in_work": [{"id": 2466415, "title": "Taking care of yourself: breast self-examination", "work_id": 82247, "role": "production company", "role_id": 941, "is_primary": true}], "also_known_as": "", "date_of_birth": "", "date_of_death": "", "genders": [], "languages": [], "places_of_operation": [], "biography": "", "biography_author": null, "date_of_biography": "2023-08-14T10:56:44.457052+10:00", "external_links": [], "uuid": "00037267-d2a2-4efd-94fa-126d68d7f025", "source": {"name": "Vernon", "slug": "vernon"}, "source_identifier": "11035", "external_references": [], "date_modified": "2023-08-14T10:56:44.457307+10:00"}, {"id": 24467, "name": "Westmead Hospital", "roles_in_work": [{"id": 2466414, "title": "Taking care of yourself: breast self-examination", "work_id": 82247, "role": "production company", "role_id": 941, "is_primary": true}], "also_known_as": "", "date_of_birth": "", "date_of_death": "", "genders": [], "languages": [], "places_of_operation": [], "biography": "", "biography_author": null, "date_of_biography": "2023-08-14T10:56:43.796782+10:00", "external_links": [], "uuid": "0c9d97c2-3a94-474f-a925-0a0afe5a5714", "source": {"name": "Vernon", "slug": "vernon"}, "source_identifier": "14325", "external_references": [], "date_modified": "2023-08-14T10:56:43.797025+10:00"}, {"id": 24466, "name": "Instant Replay Productions", "roles_in_work": [{"id": 2466413, "title": "Taking care of yourself: breast self-examination", "work_id": 82247, "role": "production company", "role_id": 941, "is_primary": true}], "also_known_as": "", "date_of_birth": "", "date_of_death": "", "genders": [], "languages": [], "places_of_operation": [], "biography": "", "biography_author": null, "date_of_biography": "2023-08-14T10:56:42.749310+10:00", "external_links": [], "uuid": "6658e115-2410-4cab-a349-d3394e369798", "source": {"name": "Vernon", "slug": "vernon"}, "source_identifier": "9313", "external_references": [], "date_modified": "2023-08-14T10:56:42.749546+10:00"}, {"id": 24465, "name": "Victor Halperin", "roles_in_work": [{"id": 1986223, "title": "White zombie", "work_id": 82246, "role": "director", "role_id": 938, "is_primary": true}], "also_known_as": "", "date_of_birth": "1895-08-24", "date_of_death": "1983-05-17", "genders": [{"id": 9, "name": "Male", "slug": "male"}], "languages": [{"id": 1, "name": "English", "slug": "english"}], "places_of_operation": [{"id": 1, "name": "United States of America", "slug": "united-states-of-america"}], "biography": "Victor Hugo Halperin (August 24, 1895 in Chicago, Illinois – May 17, 1983 in Bentonville, Arkansas) was an American stage actor, stage director, film director, producer, and writer. The majority of his works involved romance and horror. His brother, with whom he collaborated, was producer Edward Halperin (May 12, 1898 – March 2, 1981).\n\n", "biography_author": "Wikidata", "date_of_biography": "2022-05-19T13:18:59.902422+10:00", "external_links": [{"id": 3253, "uri": "https://en.wikipedia.org/wiki/Victor_Halperin"}], "uuid": "ab61a38a-4b13-4e24-8bb2-ad4d039a7033", "source": {"name": "Vernon", "slug": "vernon"}, "source_identifier": "30098", "external_references": [{"id": 13767, "source": {"name": "Wikidata", "slug": "wikidata"}, "source_identifier": "Q1937093"}, {"id": 13768, "source": {"name": "VIAF", "slug": "viaf"}, "source_identifier": "54349249"}, {"id": 13769, "source": {"name": "LOC Auth", "slug": "loc-auth"}, "source_identifier": "n87896496"}, {"id": 13770, "source": {"name": "WorldCat", "slug": "worldcat"}, "source_identifier": "lccn-n87896496"}], "date_modified": "2023-09-13T12:33:09.938005+10:00"}, {"id": 24463, "name": "Yves Gerard Issembert", "roles_in_work": [{"id": 2784594, "title": "Capitalism, socialism, communism", "work_id": 115283, "role": "director", "role_id": 938, "is_primary": true}, {"id": 2753628, "title": "Learning about computers", "work_id": 98855, "role": "director", "role_id": 938, "is_primary": true}, {"id": 2753615, "title": "Computer: tool for the future", "work_id": 98849, "role": "director", "role_id": 938, "is_primary": true}, {"id": 2784580, "title": "Capitalism", "work_id": 82244, "role": "director", "role_id": 938, "is_primary": true}, {"id": 2795981, "title": "Israel", "work_id": 89013, "role": "director", "role_id": 938, "is_primary": true}, {"id": 2306656, "title": "South America: physical geography", "work_id": 88897, "role": "producer/director", "role_id": 31, "is_primary": true}, {"id": 2193015, "title": "Dinosaurs on earth: then and now", "work_id": 88986, "role": "producer/director", "role_id": 31, "is_primary": true}], "also_known_as": "", "date_of_birth": "", "date_of_death": "", "genders": [], "languages": [], "places_of_operation": [], "biography": "", "biography_author": null, "date_of_biography": "2023-05-09T18:46:05.225646+10:00", "external_links": [], "uuid": "08a9b73e-5669-4d4d-bb91-aa0302d1ee28", "source": {"name": "Vernon", "slug": "vernon"}, "source_identifier": "30634", "external_references": [{"id": 37332, "source": {"name": "Wikidata", "slug": "wikidata"}, "source_identifier": "Q121337513"}], "date_modified": "2025-03-14T20:34:09.106376+11:00"}, {"id": 24462, "name": "Leopold Lacroix", "roles_in_work": [{"id": 2159115, "title": "Italy: where the past is always present", "work_id": 82241, "role": "producer", "role_id": 1089, "is_primary": true}], "also_known_as": "", "date_of_birth": "", "date_of_death": "", "genders": [], "languages": [], "places_of_operation": [], "biography": "", "biography_author": null, "date_of_biography": "2023-05-09T14:12:53.838267+10:00", "external_links": [], "uuid": "e1fe440a-2c25-4ee5-9885-012758a7b607", "source": {"name": "Vernon", "slug": "vernon"}, "source_identifier": "23732", "external_references": [{"id": 38819, "source": {"name": "Wikidata", "slug": "wikidata"}, "source_identifier": "Q121298737"}], "date_modified": "2023-09-05T22:20:49.239187+10:00"}]}