{"count": 28687, "next": "https://api.acmi.net.au/creators/?page=832", "previous": "https://api.acmi.net.au/creators/?page=830", "results": [{"id": 77273, "name": "Brendan Lavelle", "roles_in_work": [{"id": 2099194, "title": "Ark of Gondwana: Victoria's rainforest heritage", "work_id": 82868, "role": "co-director", "role_id": 959, "is_primary": true}], "also_known_as": "", "date_of_birth": "", "date_of_death": "", "genders": [], "languages": [], "places_of_operation": [], "biography": "", "biography_author": null, "date_of_biography": "2023-05-09T12:28:31.254761+10:00", "external_links": [], "uuid": "b08dfc9c-4bf2-43ae-8e2f-127390aed281", "source": {"name": "Vernon", "slug": "vernon"}, "source_identifier": "16179", "external_references": [{"id": 41423, "source": {"name": "Wikidata", "slug": "wikidata"}, "source_identifier": "Q121270954"}], "date_modified": "2023-09-05T18:09:23.190450+10:00"}, {"id": 77272, "name": "Marion Crooke", "roles_in_work": [{"id": 2099192, "title": "Ark of Gondwana: Victoria's rainforest heritage", "work_id": 82868, "role": "co-director", "role_id": 959, "is_primary": true}, {"id": 1931968, "title": "Harold", "work_id": 85117, "role": "co-producer", "role_id": 915, "is_primary": true}, {"id": 2099191, "title": "Ark of Gondwana: Victoria's rainforest heritage", "work_id": 82868, "role": "producer", "role_id": 1089, "is_primary": true}], "also_known_as": "", "date_of_birth": "", "date_of_death": "", "genders": [], "languages": [], "places_of_operation": [], "biography": "", "biography_author": null, "date_of_biography": "2023-05-09T12:28:30.995208+10:00", "external_links": [], "uuid": "68964056-1a4d-4dce-87d9-1c7f5e737bba", "source": {"name": "Vernon", "slug": "vernon"}, "source_identifier": "24446", "external_references": [{"id": 38588, "source": {"name": "Wikidata", "slug": "wikidata"}, "source_identifier": "Q121078869"}], "date_modified": "2023-09-05T22:44:22.192047+10:00"}, {"id": 77271, "name": "Terry Turle", "roles_in_work": [{"id": 780367, "title": "In the lap of the gods", "work_id": 82867, "role": "producer/director", "role_id": 31, "is_primary": true}], "also_known_as": "", "date_of_birth": null, "date_of_death": null, "genders": [], "languages": [], "places_of_operation": [], "biography": "", "biography_author": null, "date_of_biography": null, "external_links": [], "uuid": "9e66a400-f4b4-4a42-bfdd-401a86f69505", "source": {"name": "Vernon", "slug": "vernon"}, "source_identifier": null, "external_references": [{"id": 50597, "source": {"name": "Wikidata", "slug": "wikidata"}, "source_identifier": "Q121360726"}], "date_modified": "2023-09-06T01:46:44.791826+10:00"}, {"id": 77270, "name": "Bob Plasto", "roles_in_work": [{"id": 2756842, "title": "A Big Country: The Legend of Jimmy Governor", "work_id": 116744, "role": "narrator", "role_id": 499, "is_primary": false}, {"id": 2387132, "title": "The Killing times", "work_id": 82864, "role": "producer/director", "role_id": 31, "is_primary": true}], "also_known_as": "", "date_of_birth": "", "date_of_death": "", "genders": [], "languages": [], "places_of_operation": [], "biography": "", "biography_author": null, "date_of_biography": "2023-08-02T10:10:48.057619+10:00", "external_links": [], "uuid": "04fb36fd-ed39-4936-a71e-67b3c58337d3", "source": {"name": "Vernon", "slug": "vernon"}, "source_identifier": "16097", "external_references": [{"id": 51275, "source": {"name": "Wikidata", "slug": "wikidata"}, "source_identifier": "Q121361391"}], "date_modified": "2025-03-13T14:42:03.859188+11:00"}, {"id": 77269, "name": "Jonathan Pearl", "roles_in_work": [{"id": 2248615, "title": "Reproductive technology: facts and issues", "work_id": 82862, "role": "co-producer", "role_id": 915, "is_primary": true}], "also_known_as": "", "date_of_birth": "", "date_of_death": "", "genders": [], "languages": [], "places_of_operation": [], "biography": "", "biography_author": null, "date_of_biography": "2023-05-09T17:07:18.221312+10:00", "external_links": [], "uuid": "87c48ab2-d20a-4c50-b2c1-7c8f10631296", "source": {"name": "Vernon", "slug": "vernon"}, "source_identifier": "22663", "external_references": [{"id": 32397, "source": {"name": "Wikidata", "slug": "wikidata"}, "source_identifier": "Q121036893"}], "date_modified": "2023-09-05T21:48:55.409952+10:00"}, {"id": 77268, "name": "Nina Burr", "roles_in_work": [{"id": 2786929, "title": "Hidden depths", "work_id": 115327, "role": "producer/director", "role_id": 31, "is_primary": true}, {"id": 2786932, "title": "Understandably depressed", "work_id": 82841, "role": "producer/director", "role_id": 31, "is_primary": true}, {"id": 2786935, "title": "What depresses me ...", "work_id": 82842, "role": "producer/director", "role_id": 31, "is_primary": true}, {"id": 2786938, "title": "Fighting depression", "work_id": 82843, "role": "producer/director", "role_id": 31, "is_primary": true}, {"id": 2786931, "title": "Hidden depths", "work_id": 115327, "role": "producer/director", "role_id": 31, "is_primary": true}], "also_known_as": "", "date_of_birth": "", "date_of_death": "", "genders": [], "languages": [], "places_of_operation": [], "biography": "", "biography_author": null, "date_of_biography": "2023-05-09T18:17:04.240759+10:00", "external_links": [], "uuid": "29007b5e-6e08-4484-b7e3-d7387f8b933b", "source": {"name": "Vernon", "slug": "vernon"}, "source_identifier": "25832", "external_references": [{"id": 51310, "source": {"name": "Wikidata", "slug": "wikidata"}, "source_identifier": "Q121360844"}], "date_modified": "2025-03-14T19:36:07.481281+11:00"}, {"id": 77267, "name": "Joseph Matthews", "roles_in_work": [{"id": 2275979, "title": "Vietnam, Australia's war", "work_id": 82840, "role": "co-producers/directors", "role_id": 628, "is_primary": true}], "also_known_as": "", "date_of_birth": "", "date_of_death": "", "genders": [], "languages": [], "places_of_operation": [], "biography": "", "biography_author": null, "date_of_biography": "2023-05-09T17:52:18.749863+10:00", "external_links": [], "uuid": "782516e5-070d-4370-b1c6-46170e10d072", "source": {"name": "Vernon", "slug": "vernon"}, "source_identifier": "22737", "external_references": [], "date_modified": "2023-06-14T16:33:30.576250+10:00"}, {"id": 77266, "name": "Peter Corbett", "roles_in_work": [{"id": 2276021, "title": "Vietnam: the long road home", "work_id": 82839, "role": "producer/director", "role_id": 31, "is_primary": true}], "also_known_as": "", "date_of_birth": "", "date_of_death": "", "genders": [], "languages": [], "places_of_operation": [], "biography": "", "biography_author": null, "date_of_biography": "2023-05-09T17:52:21.497653+10:00", "external_links": [], "uuid": "51d12d7f-144c-417e-b87c-2648c3f1af6d", "source": {"name": "Vernon", "slug": "vernon"}, "source_identifier": "26505", "external_references": [{"id": 50941, "source": {"name": "Wikidata", "slug": "wikidata"}, "source_identifier": "Q121361073"}], "date_modified": "2023-09-05T23:55:13.306157+10:00"}, {"id": 77265, "name": "Portland Arts Advisory Board", "roles_in_work": [{"id": 2276017, "title": "Vietnam: the long road home", "work_id": 82839, "role": "production company", "role_id": 941, "is_primary": true}], "also_known_as": "", "date_of_birth": "", "date_of_death": "", "genders": [], "languages": [], "places_of_operation": [], "biography": "", "biography_author": null, "date_of_biography": "2023-05-09T17:52:21.147849+10:00", "external_links": [], "uuid": "4ff68296-4cec-4d26-b108-a521727b7258", "source": {"name": "Vernon", "slug": "vernon"}, "source_identifier": "11583", "external_references": [{"id": 39637, "source": {"name": "Wikidata", "slug": "wikidata"}, "source_identifier": "Q121315413"}], "date_modified": "2023-09-06T00:13:39.887461+10:00"}, {"id": 77264, "name": "John Rabinovitch", "roles_in_work": [{"id": 2650129, "title": "Future wave: Japan design", "work_id": 82836, "role": "producer/director", "role_id": 31, "is_primary": true}], "also_known_as": "", "date_of_birth": null, "date_of_death": null, "genders": [], "languages": [], "places_of_operation": [], "biography": "", "biography_author": null, "date_of_biography": null, "external_links": [], "uuid": "2517eec1-045b-44ae-a160-7647879f1774", "source": {"name": "Vernon", "slug": "vernon"}, "source_identifier": "22208", "external_references": [{"id": 51730, "source": {"name": "Wikidata", "slug": "wikidata"}, "source_identifier": "Q121360959"}], "date_modified": "2025-03-05T14:10:43.110467+11:00"}]}