{"count": 28681, "next": "https://api.acmi.net.au/creators/?page=1480", "previous": "https://api.acmi.net.au/creators/?page=1478", "results": [{"id": 34686, "name": "Damien O'Donnell", "roles_in_work": [{"id": 1996949, "title": "East is east", "work_id": 93022, "role": "director", "role_id": 938, "is_primary": true}], "also_known_as": "", "date_of_birth": "1967-01-01", "date_of_death": null, "genders": [{"id": 9, "name": "Male", "slug": "male"}], "languages": [{"id": 1, "name": "English", "slug": "english"}], "places_of_operation": [{"id": 294, "name": "Republic of Ireland", "slug": "republic-of-ireland"}], "biography": "Damien O'Donnell (born 1967 in Dublin) is an Irish film director and writer. \nHe has directed East is East (1999), Heartlands (2002) and Inside I'm Dancing (2004), amongst others. \nHe is from Coolock, Dublin. He has also directed advertisements for Bulmers Original Dry Irish Cider, which is brewed in Clonmel, Co. Tipperary. \nHe won the Empire Award for Best Newcomer and received a British Independent Film Awards nomination for East is East.", "biography_author": "Wikidata", "date_of_biography": "2022-05-19T11:10:03.124507+10:00", "external_links": [{"id": 1863, "uri": "https://en.wikipedia.org/wiki/Damien_O%27Donnell"}], "uuid": "ea4e547b-2e4d-4569-b558-d64c27134b24", "source": {"name": "Vernon", "slug": "vernon"}, "source_identifier": "17344", "external_references": [{"id": 8093, "source": {"name": "Wikidata", "slug": "wikidata"}, "source_identifier": "Q910181"}, {"id": 8094, "source": {"name": "VIAF", "slug": "viaf"}, "source_identifier": "292485855"}, {"id": 8095, "source": {"name": "LOC Auth", "slug": "loc-auth"}, "source_identifier": "no00102693"}, {"id": 8096, "source": {"name": "WorldCat", "slug": "worldcat"}, "source_identifier": "lccn-no00102693"}], "date_modified": "2023-09-13T12:28:53.698210+10:00"}, {"id": 34685, "name": "Leslee Udwin", "roles_in_work": [{"id": 1996948, "title": "East is east", "work_id": 93022, "role": "producer", "role_id": 1089, "is_primary": true}], "also_known_as": "", "date_of_birth": null, "date_of_death": null, "genders": [{"id": 5, "name": "Female", "slug": "female"}], "languages": [], "places_of_operation": [{"id": 33, "name": "Israel", "slug": "israel"}], "biography": "Leslee Udwin (born 1957) is a Jewish British filmmaker, actress, director, producer and human rights activist.", "biography_author": "Wikidata", "date_of_biography": "2022-05-19T12:15:13.986987+10:00", "external_links": [{"id": 2569, "uri": "https://en.wikipedia.org/wiki/Leslee_Udwin"}], "uuid": "ef05bd56-07e0-4bb8-b324-0795d3da2ad9", "source": {"name": "Vernon", "slug": "vernon"}, "source_identifier": "23753", "external_references": [{"id": 10976, "source": {"name": "Wikidata", "slug": "wikidata"}, "source_identifier": "Q19421046"}, {"id": 10977, "source": {"name": "VIAF", "slug": "viaf"}, "source_identifier": "273387306"}, {"id": 10978, "source": {"name": "LOC Auth", "slug": "loc-auth"}, "source_identifier": "no00102694"}, {"id": 10979, "source": {"name": "WorldCat", "slug": "worldcat"}, "source_identifier": "lccn-no00102694"}], "date_modified": "2023-09-13T12:30:58.351568+10:00"}, {"id": 34682, "name": "Seijun Suzuki", "roles_in_work": [{"id": 1996945, "title": "Tokyo drifter", "work_id": 93021, "role": "director", "role_id": 938, "is_primary": true}, {"id": 1996942, "title": "Branded to kill [Widescreen]", "work_id": 93019, "role": "director", "role_id": 938, "is_primary": true}, {"id": 2208622, "title": "Pistol opera", "work_id": 94496, "role": "director", "role_id": 938, "is_primary": true}], "also_known_as": "Seitaro Suzuki", "date_of_birth": "1923-05-24", "date_of_death": "2017-02-13", "genders": [{"id": 9, "name": "Male", "slug": "male"}], "languages": [{"id": 2, "name": "Japanese", "slug": "japanese"}], "places_of_operation": [{"id": 8, "name": "Japan", "slug": "japan"}], "biography": "Seijun Suzuki (鈴木 清順, Suzuki Seijun), born Seitaro Suzuki (鈴木 清太郎, Suzuki Seitarō) (24 May 1923  – 13 February 2017), was a Japanese filmmaker, actor, and screenwriter. His films are known for their jarring visual style, irreverent humour, nihilistic cool and entertainment-over-logic sensibility. He made 40 predominately B-movies for the Nikkatsu Company between 1956 and 1967, working most prolifically in the yakuza genre. His increasingly surreal style began to draw the ire of the studio in 1963 and culminated in his ultimate dismissal for what is now regarded as his magnum opus, Branded to Kill (1967), starring notable collaborator Joe Shishido. Suzuki successfully sued the studio for wrongful dismissal, but he was blacklisted for 10 years after that. As an independent filmmaker, he won critical acclaim and a Japanese Academy Award for his Taishō Trilogy, Zigeunerweisen (1980), Kagero-za (1981) and Yumeji (1991).\nHis films remained widely unknown outside Japan until a series of theatrical retrospectives beginning in the mid-1980s, home video releases of key films such as Branded to Kill and Tokyo Drifter in the late 1990s and tributes by such acclaimed filmmakers as Jim Jarmusch, Takeshi Kitano, Wong Kar-wai and Quentin Tarantino signaled his international discovery. Suzuki continued making films, albeit sporadically. In Japan, he is more commonly recognized as an actor for his numerous roles in Japanese films and television.", "biography_author": "Wikidata", "date_of_biography": "2022-05-19T13:03:30.509994+10:00", "external_links": [{"id": 3084, "uri": "https://en.wikipedia.org/wiki/Seijun_Suzuki"}], "uuid": "1e52a9f0-2ed9-4bb8-982d-71f824f8aab8", "source": {"name": "Vernon", "slug": "vernon"}, "source_identifier": "28673", "external_references": [{"id": 13085, "source": {"name": "Wikidata", "slug": "wikidata"}, "source_identifier": "Q2296663"}, {"id": 13086, "source": {"name": "VIAF", "slug": "viaf"}, "source_identifier": "112091182"}, {"id": 13087, "source": {"name": "LOC Auth", "slug": "loc-auth"}, "source_identifier": "n83000268"}, {"id": 13088, "source": {"name": "WorldCat", "slug": "worldcat"}, "source_identifier": "lccn-n83000268"}], "date_modified": "2023-09-13T12:32:41.624479+10:00"}, {"id": 34680, "name": "Nikkatsu Kabushiki Kaisha", "roles_in_work": [{"id": 1996943, "title": "Tokyo drifter", "work_id": 93021, "role": "production company", "role_id": 941, "is_primary": true}, {"id": 1996940, "title": "Branded to kill [Widescreen]", "work_id": 93019, "role": "production company", "role_id": 941, "is_primary": true}, {"id": 2352813, "title": "The Grudge = Ju-on (2003)", "work_id": 94903, "role": "production company", "role_id": 941, "is_primary": true}, {"id": 2352839, "title": "The Grudge 2 = Ju-on 2", "work_id": 95173, "role": "production company", "role_id": 941, "is_primary": true}], "also_known_as": "", "date_of_birth": "", "date_of_death": "", "genders": [], "languages": [], "places_of_operation": [], "biography": "", "biography_author": null, "date_of_biography": "2023-05-09T19:59:13.703109+10:00", "external_links": [], "uuid": "f23d8e72-c163-4c80-811d-ca761b34b979", "source": {"name": "Vernon", "slug": "vernon"}, "source_identifier": "4663", "external_references": [], "date_modified": "2023-06-14T16:33:30.576250+10:00"}, {"id": 34679, "name": "Jane Innes", "roles_in_work": [{"id": 3083101, "title": "Constitutional futures", "work_id": 93016, "role": "producer", "role_id": 1089, "is_primary": true}, {"id": 3083084, "title": "The Australian Constitution", "work_id": 93012, "role": "producer", "role_id": 1089, "is_primary": true}, {"id": 3083089, "title": "An Australian Republic?", "work_id": 93013, "role": "producer", "role_id": 1089, "is_primary": true}, {"id": 3083093, "title": "The Power game", "work_id": 93014, "role": "producer", "role_id": 1089, "is_primary": true}, {"id": 3083097, "title": "Rights and wrongs", "work_id": 93015, "role": "producer", "role_id": 1089, "is_primary": true}, {"id": 3083108, "title": "Millenium Dilemma: Constitutional Change in Australia", "work_id": 115574, "role": "producer", "role_id": 1089, "is_primary": true}], "also_known_as": "", "date_of_birth": null, "date_of_death": null, "genders": [], "languages": [], "places_of_operation": [], "biography": "", "biography_author": null, "date_of_biography": null, "external_links": [], "uuid": "1b21a3cb-d534-4052-994a-c46d8f4c8970", "source": {"name": "Vernon", "slug": "vernon"}, "source_identifier": "21412", "external_references": [], "date_modified": "2025-03-17T10:32:01.162172+11:00"}, {"id": 34678, "name": "University of Wollongong", "roles_in_work": [{"id": 3083106, "title": "Millenium Dilemma: Constitutional Change in Australia", "work_id": 115574, "role": "production company", "role_id": 941, "is_primary": true}, {"id": 3083100, "title": "Constitutional futures", "work_id": 93016, "role": "production company", "role_id": 941, "is_primary": true}, {"id": 3083096, "title": "Rights and wrongs", "work_id": 93015, "role": "production company", "role_id": 941, "is_primary": true}, {"id": 3083092, "title": "The Power game", "work_id": 93014, "role": "production company", "role_id": 941, "is_primary": true}, {"id": 3083088, "title": "An Australian Republic?", "work_id": 93013, "role": "production company", "role_id": 941, "is_primary": true}, {"id": 3083083, "title": "The Australian Constitution", "work_id": 93012, "role": "production company", "role_id": 941, "is_primary": true}], "also_known_as": "", "date_of_birth": null, "date_of_death": null, "genders": [], "languages": [], "places_of_operation": [], "biography": "", "biography_author": null, "date_of_biography": null, "external_links": [], "uuid": "dfa33994-e14e-4b9d-9a04-154accfa32eb", "source": {"name": "Vernon", "slug": "vernon"}, "source_identifier": "13943", "external_references": [], "date_modified": "2025-03-17T10:32:00.576444+11:00"}, {"id": 34673, "name": "Columbia Picture Industries Inc", "roles_in_work": [{"id": 2069608, "title": "A Knight's Tale", "work_id": 93005, "role": "production company", "role_id": 941, "is_primary": true}], "also_known_as": "", "date_of_birth": "", "date_of_death": "", "genders": [], "languages": [], "places_of_operation": [], "biography": "", "biography_author": null, "date_of_biography": "2023-05-09T11:30:03.606544+10:00", "external_links": [], "uuid": "865121f9-7207-41d7-bbfe-17be931b01c1", "source": {"name": "Vernon", "slug": "vernon"}, "source_identifier": "6907", "external_references": [], "date_modified": "2023-06-14T16:33:30.576250+10:00"}, {"id": 34653, "name": "Scott McGinnis", "roles_in_work": [{"id": 1996925, "title": "Last gasp", "work_id": 92989, "role": "director", "role_id": 938, "is_primary": true}], "also_known_as": "", "date_of_birth": "1958-11-19", "date_of_death": null, "genders": [{"id": 9, "name": "Male", "slug": "male"}], "languages": [{"id": 1, "name": "English", "slug": "english"}], "places_of_operation": [{"id": 1, "name": "United States of America", "slug": "united-states-of-america"}], "biography": "", "biography_author": null, "date_of_biography": null, "external_links": [], "uuid": "2314ab58-bfae-4e2a-96d0-de8382a5750a", "source": {"name": "Vernon", "slug": "vernon"}, "source_identifier": "28635", "external_references": [{"id": 33574, "source": {"name": "Wikidata", "slug": "wikidata"}, "source_identifier": "Q2260984"}, {"id": 55782, "source": {"name": "VIAF", "slug": "viaf"}, "source_identifier": "34654835"}, {"id": 55783, "source": {"name": "LOC Auth", "slug": "loc-auth"}, "source_identifier": "no2013066785"}, {"id": 55784, "source": {"name": "WorldCat", "slug": "worldcat"}, "source_identifier": "lccn-no2013066785"}], "date_modified": "2023-09-13T12:32:39.873654+10:00"}, {"id": 34649, "name": "Sam Grossman", "roles_in_work": [{"id": 881982, "title": "The Van", "work_id": 92988, "role": "director", "role_id": 938, "is_primary": true}], "also_known_as": "", "date_of_birth": "1945-05-27", "date_of_death": "1999-02-22", "genders": [{"id": 9, "name": "Male", "slug": "male"}], "languages": [], "places_of_operation": [], "biography": "Sam Grossman was an American film director and writer, mainly known for The Van, and for directing various music documentaries in the 1980s. Additionally, he wrote several stage plays and worked \"extensively\" in television. He died of cancer at his home in West Los Angeles on February 22, 1999.", "biography_author": "Wikidata", "date_of_biography": "2022-05-19T13:00:24.434113+10:00", "external_links": [{"id": 3052, "uri": "https://en.wikipedia.org/wiki/Sam_Grossman"}], "uuid": "07e77010-6a2c-4be6-b33e-0e20302b7a80", "source": {"name": "Vernon", "slug": "vernon"}, "source_identifier": "28472", "external_references": [{"id": 12952, "source": {"name": "Wikidata", "slug": "wikidata"}, "source_identifier": "Q24897478"}, {"id": 12953, "source": {"name": "VIAF", "slug": "viaf"}, "source_identifier": "87337366"}, {"id": 12954, "source": {"name": "WorldCat", "slug": "worldcat"}, "source_identifier": "viaf-87337366"}], "date_modified": "2023-09-13T12:32:32.685217+10:00"}, {"id": 34646, "name": "Topps Chewing Gum Production", "roles_in_work": [{"id": 2349817, "title": "The Garbage pail kids", "work_id": 92987, "role": "production company", "role_id": 941, "is_primary": true}], "also_known_as": "", "date_of_birth": "", "date_of_death": "", "genders": [], "languages": [], "places_of_operation": [], "biography": "", "biography_author": null, "date_of_biography": "2023-05-09T19:54:13.341874+10:00", "external_links": [], "uuid": "8edac102-47ad-4eeb-99ed-471eaaea34ab", "source": {"name": "Vernon", "slug": "vernon"}, "source_identifier": "13660", "external_references": [{"id": 35350, "source": {"name": "Wikidata", "slug": "wikidata"}, "source_identifier": "Q121315506"}], "date_modified": "2023-09-06T01:57:23.327726+10:00"}]}