{"count": 28683, "next": "https://api.acmi.net.au/creators/?page=1475", "previous": "https://api.acmi.net.au/creators/?page=1473", "results": [{"id": 34815, "name": "Sci Fi Channel", "roles_in_work": [{"id": 2212569, "title": "Dune. Episode 3", "work_id": 93130, "role": "production company", "role_id": 941, "is_primary": true}, {"id": 2212539, "title": "Dune. Episode 2", "work_id": 93131, "role": "production company", "role_id": 941, "is_primary": true}, {"id": 2212508, "title": "Dune. Episode 1", "work_id": 93129, "role": "production company", "role_id": 941, "is_primary": true}], "also_known_as": "", "date_of_birth": "", "date_of_death": "", "genders": [], "languages": [], "places_of_operation": [], "biography": "", "biography_author": null, "date_of_biography": "2023-05-09T15:48:32.341777+10:00", "external_links": [], "uuid": "c157e04f-e6a3-4da8-b8e6-2e382ba588d6", "source": {"name": "Vernon", "slug": "vernon"}, "source_identifier": "12341", "external_references": [{"id": 41060, "source": {"name": "Wikidata", "slug": "wikidata"}, "source_identifier": "Q121034505"}], "date_modified": "2023-09-06T01:08:05.859410+10:00"}, {"id": 34814, "name": "Ryszard Bugajski", "roles_in_work": [{"id": 1997097, "title": "Interrogation = Przesluchanie [NTSC] (D)", "work_id": 93124, "role": "director", "role_id": 938, "is_primary": true}], "also_known_as": "", "date_of_birth": "1943-04-27", "date_of_death": "2019-06-07", "genders": [{"id": 9, "name": "Male", "slug": "male"}], "languages": [{"id": 24, "name": "Polish", "slug": "polish"}], "places_of_operation": [{"id": 44, "name": "Poland", "slug": "poland"}], "biography": "Ryszard Bugajski (27 April 1943 – 7 June 2019) was a Polish film director and screenwriter. He directed 23 films and television shows since 1972. His 1982 film Interrogation starring Krystyna Janda and Adam Ferency, described as \"the most anti-Communist film in the history of Polish People's Republic\" was entered into the 1990 Cannes Film Festival after being suppressed by the Polish communist authorities for several years.", "biography_author": "Wikidata", "date_of_biography": "2022-05-19T12:59:29.420210+10:00", "external_links": [{"id": 3043, "uri": "https://en.wikipedia.org/wiki/Ryszard_Bugajski"}], "uuid": "74696461-0f83-4293-be23-8415c905f404", "source": {"name": "Vernon", "slug": "vernon"}, "source_identifier": "28390", "external_references": [{"id": 12914, "source": {"name": "Wikidata", "slug": "wikidata"}, "source_identifier": "Q432961"}, {"id": 12915, "source": {"name": "VIAF", "slug": "viaf"}, "source_identifier": "101716043"}, {"id": 12916, "source": {"name": "LOC Auth", "slug": "loc-auth"}, "source_identifier": "n84184277"}, {"id": 12917, "source": {"name": "WorldCat", "slug": "worldcat"}, "source_identifier": "lccn-n84184277"}], "date_modified": "2023-09-13T12:32:30.305237+10:00"}, {"id": 34811, "name": "Janusz Zaorski", "roles_in_work": [{"id": 882254, "title": "Mother of kings = Sons and comrades = Matka krolow", "work_id": 93122, "role": "director", "role_id": 938, "is_primary": true}], "also_known_as": "", "date_of_birth": "1947-09-19", "date_of_death": null, "genders": [{"id": 9, "name": "Male", "slug": "male"}], "languages": [{"id": 24, "name": "Polish", "slug": "polish"}], "places_of_operation": [{"id": 44, "name": "Poland", "slug": "poland"}], "biography": "Janusz Zaorski (born 19 September 1947) is a Polish film director, scenarist and actor, representative of the cinema of moral anxiety (Polish: kino moralnego niepokoju), trend in Polish cinema. Zaorski has directed mainly psychological dramas, comedies and TV series.\nZaorski graduated National Film School in Łódź in 1969. He made his own individual film director debut in 1970. In 1987 Zaorski was selected as a chairman of the Polish Federation of Film Societies (Polska Federacja Dyskusyjnych Klubów Filmowych). He was also an art director of the Film Group \"Dom\" (since 1988), member of the Cinematography Committee (1987–1989), president of the Radio & Television Committee (1991–1992), president of The National Council of Radio Broadcasting and Television (Krajowa Rada Radiofonii i Telewizji; 1994–1995), member of the European Film Academy.", "biography_author": "Wikidata", "date_of_biography": "2023-08-01T15:24:35.607041+10:00", "external_links": [{"id": 4276, "uri": "https://en.wikipedia.org/wiki/Janusz_Zaorski"}], "uuid": "ae7f619a-d6f0-4aa4-b342-5f4bbd079dbe", "source": {"name": "Vernon", "slug": "vernon"}, "source_identifier": "21470", "external_references": [{"id": 26022, "source": {"name": "Wikidata", "slug": "wikidata"}, "source_identifier": "Q1683085"}, {"id": 29235, "source": {"name": "VIAF", "slug": "viaf"}, "source_identifier": "161186757"}, {"id": 29236, "source": {"name": "LOC Auth", "slug": "loc-auth"}, "source_identifier": "no2009086808"}, {"id": 29237, "source": {"name": "WorldCat", "slug": "worldcat"}, "source_identifier": "lccn-no2009086808"}], "date_modified": "2023-09-13T12:30:18.059461+10:00"}, {"id": 34807, "name": "William Kronick", "roles_in_work": [{"id": 2271096, "title": "The World's greatest stunts", "work_id": 93119, "role": "director", "role_id": 938, "is_primary": true}, {"id": 2271093, "title": "The World's greatest stunts", "work_id": 93119, "role": "co-producer", "role_id": 915, "is_primary": true}, {"id": 2751526, "title": "Italian-Ethiopian war: Africa in world affairs", "work_id": 97851, "role": "producer", "role_id": 1089, "is_primary": true}], "also_known_as": "", "date_of_birth": "1934-01-02", "date_of_death": "", "genders": [{"id": 9, "name": "Male", "slug": "male"}], "languages": [], "places_of_operation": [{"id": 1, "name": "United States of America", "slug": "united-states-of-america"}], "biography": "William Kronick (born 1934) is an American film and television writer, director and producer.  He worked in the film industry from 1960 to 2000, when he segued into writing novels.", "biography_author": "Wikidata", "date_of_biography": "2023-09-06T02:16:50.260927+10:00", "external_links": [{"id": 6250, "uri": "https://en.wikipedia.org/wiki/William_Kronick"}], "uuid": "73a0573e-b52c-4749-88a7-970791c73ea4", "source": {"name": "Vernon", "slug": "vernon"}, "source_identifier": "30460", "external_references": [{"id": 37306, "source": {"name": "Wikidata", "slug": "wikidata"}, "source_identifier": "Q8014119"}, {"id": 56068, "source": {"name": "VIAF", "slug": "viaf"}, "source_identifier": "272141359"}, {"id": 56069, "source": {"name": "WorldCat", "slug": "worldcat"}, "source_identifier": "viaf-272141359"}], "date_modified": "2025-03-13T00:45:45.523704+11:00"}, {"id": 34805, "name": "GRB Entertainment", "roles_in_work": [{"id": 2271088, "title": "The World's greatest stunts", "work_id": 93119, "role": "production company", "role_id": 941, "is_primary": true}], "also_known_as": "", "date_of_birth": "", "date_of_death": "", "genders": [], "languages": [], "places_of_operation": [], "biography": "", "biography_author": null, "date_of_biography": "2023-05-09T17:45:24.079170+10:00", "external_links": [], "uuid": "9aa9b26a-e3b4-449f-acd9-25b98c631420", "source": {"name": "Vernon", "slug": "vernon"}, "source_identifier": "8862", "external_references": [{"id": 37827, "source": {"name": "Wikidata", "slug": "wikidata"}, "source_identifier": "Q121271155"}], "date_modified": "2023-09-05T20:20:47.283107+10:00"}, {"id": 34803, "name": "Alexander Korda Films", "roles_in_work": [{"id": 2473833, "title": "That Hamilton woman", "work_id": 93117, "role": "production company", "role_id": 941, "is_primary": true}], "also_known_as": "Kellner Sándor László", "date_of_birth": "1893-09-16", "date_of_death": "1956-01-23", "genders": [{"id": 9, "name": "Male", "slug": "male"}], "languages": [{"id": 1, "name": "English", "slug": "english"}, {"id": 5, "name": "German", "slug": "german"}, {"id": 8, "name": "Hungarian", "slug": "hungarian"}], "places_of_operation": [{"id": 292, "name": "Austria-Hungary", "slug": "austria-hungary"}], "biography": "Sir Alexander Korda (; born Sándor László Kellner; Hungarian: Korda Sándor; 16 September 1893 – 23 January 1956) was a Hungarian–born British film director, producer and screenwriter, who founded his own film production studios and film distribution company.Born in Hungary, where he began his career, he worked briefly in the Austrian and German film industries during the era of silent films, before being based in Hollywood from 1926 to 1930 for the first of his two brief periods there (the other was during World War II). The change led to a divorce from his first wife, the Hungarian film actress María Corda, who was unable to make the transition from silent films to \"talkies\" because of her strong Hungarian accent.\nFrom 1930, Korda was active in the British film industry, and soon became one of its leading figures. He was the founder of London Films and, post-war, the owner of British Lion Films, a film distribution company. Korda produced many outstanding classics of the British film industry, including The Private Life of Henry VIII, Rembrandt, Things To Come, The Thief of Baghdad and The Third Man. In 1942, Korda became the first filmmaker to receive a knighthood.\n\n", "biography_author": "Wikidata", "date_of_biography": "2023-08-15T10:22:11.935407+10:00", "external_links": [{"id": 1596, "uri": "https://en.wikipedia.org/wiki/Alexander_Korda"}], "uuid": "2ddbafdc-b88d-4c8f-a4fd-9f0d904c6538", "source": {"name": "Vernon", "slug": "vernon"}, "source_identifier": "14924", "external_references": [{"id": 6988, "source": {"name": "Wikidata", "slug": "wikidata"}, "source_identifier": "Q55221"}, {"id": 6989, "source": {"name": "VIAF", "slug": "viaf"}, "source_identifier": "102339929"}, {"id": 6990, "source": {"name": "LOC Auth", "slug": "loc-auth"}, "source_identifier": "n81142348"}, {"id": 6991, "source": {"name": "WorldCat", "slug": "worldcat"}, "source_identifier": "lccn-n81142348"}], "date_modified": "2023-09-05T17:26:02.584494+10:00"}, {"id": 34801, "name": "Elliott Kastner Corporation", "roles_in_work": [{"id": 2228541, "title": "Farewell my lovely", "work_id": 93116, "role": "production company", "role_id": 941, "is_primary": true}], "also_known_as": "", "date_of_birth": "1930-01-07", "date_of_death": "2010-06-30", "genders": [{"id": 9, "name": "Male", "slug": "male"}], "languages": [{"id": 1, "name": "English", "slug": "english"}], "places_of_operation": [{"id": 1, "name": "United States of America", "slug": "united-states-of-america"}], "biography": "Elliott Kastner (January 7, 1930 – June 30, 2010) was an American film producer, whose best known credits include Where Eagles Dare (1968), The Long Goodbye (1973), The Missouri Breaks (1976), and Angel Heart (1987).\n\n", "biography_author": "Wikidata", "date_of_biography": "2022-05-19T11:23:44.531235+10:00", "external_links": [{"id": 1997, "uri": "https://en.wikipedia.org/wiki/Elliott_Kastner"}], "uuid": "634892a5-3e2d-4007-b4b7-861f4981c8f1", "source": {"name": "Vernon", "slug": "vernon"}, "source_identifier": "7862", "external_references": [{"id": 8632, "source": {"name": "Wikidata", "slug": "wikidata"}, "source_identifier": "Q475223"}, {"id": 8633, "source": {"name": "VIAF", "slug": "viaf"}, "source_identifier": "94159094"}, {"id": 8634, "source": {"name": "LOC Auth", "slug": "loc-auth"}, "source_identifier": "no96053586"}, {"id": 8635, "source": {"name": "WorldCat", "slug": "worldcat"}, "source_identifier": "lccn-no96053586"}], "date_modified": "2023-09-13T12:29:16.318670+10:00"}, {"id": 34797, "name": "Disctac London", "roles_in_work": [{"id": 2265351, "title": "Sebastiane", "work_id": 93114, "role": "production company", "role_id": 941, "is_primary": true}], "also_known_as": "", "date_of_birth": "", "date_of_death": "", "genders": [], "languages": [], "places_of_operation": [], "biography": "", "biography_author": null, "date_of_biography": "2023-05-09T17:36:52.423227+10:00", "external_links": [], "uuid": "180ef972-7368-43ed-8d8b-f276ff19540c", "source": {"name": "Vernon", "slug": "vernon"}, "source_identifier": "7593", "external_references": [{"id": 37637, "source": {"name": "Wikidata", "slug": "wikidata"}, "source_identifier": "Q121223253"}], "date_modified": "2023-09-05T19:13:06.415742+10:00"}, {"id": 34796, "name": "Susan Skoog", "roles_in_work": [{"id": 2471689, "title": "Whatever", "work_id": 93113, "role": "director", "role_id": 938, "is_primary": true}, {"id": 2471688, "title": "Whatever", "work_id": 93113, "role": "co-producer", "role_id": 915, "is_primary": true}], "also_known_as": "", "date_of_birth": "", "date_of_death": "", "genders": [], "languages": [], "places_of_operation": [], "biography": "", "biography_author": null, "date_of_biography": "2023-08-14T12:44:34.352803+10:00", "external_links": [], "uuid": "2368d038-96cf-47cf-b490-c1f81c81181c", "source": {"name": "Vernon", "slug": "vernon"}, "source_identifier": "29361", "external_references": [], "date_modified": "2023-08-14T12:44:34.353041+10:00"}, {"id": 34792, "name": "Pal Sletaune", "roles_in_work": [{"id": 2157246, "title": "Junkmail = Budbringeren", "work_id": 93111, "role": "director", "role_id": 938, "is_primary": true}], "also_known_as": "", "date_of_birth": "", "date_of_death": "", "genders": [], "languages": [], "places_of_operation": [], "biography": "", "biography_author": null, "date_of_biography": "2023-05-09T14:08:10.018785+10:00", "external_links": [], "uuid": "15a6e2da-2d45-48d1-889c-f40f3083e15a", "source": {"name": "Vernon", "slug": "vernon"}, "source_identifier": "26033", "external_references": [], "date_modified": "2023-06-14T16:33:30.576250+10:00"}]}