{"count": 28687, "next": "https://api.acmi.net.au/creators/?page=2064", "previous": "https://api.acmi.net.au/creators/?page=2062", "results": [{"id": 21295, "name": "Ernest Troost", "roles_in_work": [{"id": 2185951, "title": "Panama", "work_id": 78402, "role": "director", "role_id": 938, "is_primary": true}, {"id": 2185929, "title": "Panama", "work_id": 82706, "role": "director", "role_id": 938, "is_primary": true}, {"id": 905563, "title": "The Clown of God (K)", "work_id": 86190, "role": "co-producer", "role_id": 915, "is_primary": true}, {"id": 898364, "title": "The Clown of God", "work_id": 78397, "role": "co-producer", "role_id": 915, "is_primary": true}, {"id": 877533, "title": "From page to screen", "work_id": 90737, "role": "producer/director", "role_id": 31, "is_primary": true}], "also_known_as": "", "date_of_birth": "1953-06-19", "date_of_death": "", "genders": [{"id": 9, "name": "Male", "slug": "male"}], "languages": [], "places_of_operation": [{"id": 1, "name": "United States of America", "slug": "united-states-of-america"}], "biography": "", "biography_author": null, "date_of_biography": "2023-05-09T15:01:00.325959+10:00", "external_links": [], "uuid": "ee25b7f2-0fd8-4b37-8fe1-28160cfef223", "source": {"name": "Vernon", "slug": "vernon"}, "source_identifier": "18873", "external_references": [{"id": 33424, "source": {"name": "Wikidata", "slug": "wikidata"}, "source_identifier": "Q1356550"}, {"id": 54395, "source": {"name": "VIAF", "slug": "viaf"}, "source_identifier": "302768926"}, {"id": 54396, "source": {"name": "LOC Auth", "slug": "loc-auth"}, "source_identifier": "n95017821"}, {"id": 54397, "source": {"name": "WorldCat", "slug": "worldcat"}, "source_identifier": "lccn-n95017821"}], "date_modified": "2023-09-05T19:35:54.931810+10:00"}, {"id": 21293, "name": "Paul Hammerich", "roles_in_work": [{"id": 898358, "title": "The Ugly duckling", "work_id": 78392, "role": "co-producer", "role_id": 915, "is_primary": true}, {"id": 1807038, "title": "The Swineherd (K)", "work_id": 80743, "role": "producer", "role_id": 1089, "is_primary": true}, {"id": 1805632, "title": "The Swineherd", "work_id": 78393, "role": "producer", "role_id": 1089, "is_primary": true}], "also_known_as": "", "date_of_birth": "1927-06-12", "date_of_death": "1992-04-16", "genders": [{"id": 9, "name": "Male", "slug": "male"}], "languages": [{"id": 34, "name": "Danish", "slug": "danish"}], "places_of_operation": [{"id": 34, "name": "Denmark", "slug": "denmark"}], "biography": "Paul Hammerich (12 June 1927 – 16 April 1992) was a Danish journalist and writer.\nHammerich was one of the writers behind the successful Danish TV-series, Matador, which is considered one of the greatest Danish TV productions of all time.He was married three times; from 1982 to his death with actress Malene Schwartz.", "biography_author": "Wikidata", "date_of_biography": "2023-08-01T16:29:52.361233+10:00", "external_links": [{"id": 4840, "uri": "https://en.wikipedia.org/wiki/Paul_Hammerich"}], "uuid": "e88448c0-dea9-4be2-969a-68abf463f777", "source": {"name": "Vernon", "slug": "vernon"}, "source_identifier": "26241", "external_references": [{"id": 25337, "source": {"name": "Wikidata", "slug": "wikidata"}, "source_identifier": "Q523592"}, {"id": 30684, "source": {"name": "VIAF", "slug": "viaf"}, "source_identifier": "61584953"}, {"id": 30685, "source": {"name": "LOC Auth", "slug": "loc-auth"}, "source_identifier": "n90624160"}, {"id": 30686, "source": {"name": "WorldCat", "slug": "worldcat"}, "source_identifier": "lccn-n90624160"}], "date_modified": "2023-09-13T12:31:47.258728+10:00"}, {"id": 21292, "name": "Francesco Tenze", "roles_in_work": [{"id": 2648143, "title": "Fourteen rats and a ratcatcher", "work_id": 78387, "role": "director", "role_id": 938, "is_primary": true}, {"id": 865983, "title": "Fourteen rats and a ratcatcher (K)", "work_id": 80760, "role": "director", "role_id": 938, "is_primary": true}], "also_known_as": "", "date_of_birth": null, "date_of_death": null, "genders": [], "languages": [], "places_of_operation": [], "biography": "", "biography_author": null, "date_of_biography": null, "external_links": [], "uuid": "90de16b5-c21a-4a7c-95a4-005c4224f7f2", "source": {"name": "Vernon", "slug": "vernon"}, "source_identifier": "19036", "external_references": [], "date_modified": "2025-03-05T13:40:23.315141+11:00"}, {"id": 21291, "name": "Dianne Jackson", "roles_in_work": [{"id": 2648139, "title": "The Snowman", "work_id": 78386, "role": "director", "role_id": 938, "is_primary": true}, {"id": 865914, "title": "The Snowman (K)", "work_id": 80738, "role": "director", "role_id": 938, "is_primary": true}], "also_known_as": "", "date_of_birth": "1941-07-28", "date_of_death": "1992-12-31", "genders": [{"id": 5, "name": "Female", "slug": "female"}], "languages": [{"id": 1, "name": "English", "slug": "english"}], "places_of_operation": [{"id": 10, "name": "United Kingdom", "slug": "united-kingdom"}], "biography": "Dianne Jackson (28 July 1941 – 31 December 1992) was an English animation director, best known for The Snowman, made in 1982 and subsequently repeated every Christmas on Channel 4 in the United Kingdom.\nShe had a long career as an animator, and her earliest credit was for The Beatles' Yellow Submarine in 1968. She is particularly noted for recreating the style of the original artists in her animations, for example of Raymond Briggs's picture book, The Snowman.\nShe also directed Granpa by John Burningham in 1989 and was due to direct Raymond Briggs' Father Christmas in 1991, having completed storyboarding for the film, although due to her illness this was directed by Dave Unwin. She also planned the first series of animated adaptations of the tales of Beatrix Potter as The World of Peter Rabbit and Friends. However, she died of cancer on New Year's Eve 1992 at the age of 51. The series episode \"The Tailor of Gloucester\", which was made the year after she died, is \"dedicated to [her] memory\".", "biography_author": "Wikidata", "date_of_biography": "2023-08-01T14:39:18.152604+10:00", "external_links": [{"id": 3881, "uri": "https://en.wikipedia.org/wiki/Dianne_Jackson"}], "uuid": "47e042fb-13ba-4dd4-8ff3-593e8c435606", "source": {"name": "Vernon", "slug": "vernon"}, "source_identifier": "18089", "external_references": [{"id": 26028, "source": {"name": "Wikidata", "slug": "wikidata"}, "source_identifier": "Q3026284"}, {"id": 28167, "source": {"name": "VIAF", "slug": "viaf"}, "source_identifier": "81830250"}, {"id": 28168, "source": {"name": "LOC Auth", "slug": "loc-auth"}, "source_identifier": "no2003108591"}, {"id": 28169, "source": {"name": "WorldCat", "slug": "worldcat"}, "source_identifier": "lccn-no2003108591"}], "date_modified": "2025-03-05T13:40:20.711487+11:00"}, {"id": 21290, "name": "John Coates", "roles_in_work": [{"id": 2282270, "title": "The World of Peter Rabbit and friends", "work_id": 115438, "role": "producer", "role_id": 1089, "is_primary": true}, {"id": 2648138, "title": "The Snowman", "work_id": 78386, "role": "producer", "role_id": 1089, "is_primary": true}, {"id": 1807034, "title": "The Snowman (K)", "work_id": 80738, "role": "producer", "role_id": 1089, "is_primary": true}, {"id": 2238469, "title": "Father Christmas", "work_id": 92540, "role": "producer", "role_id": 1089, "is_primary": true}, {"id": 1814379, "title": "The Wind in the willows", "work_id": 85456, "role": "producer", "role_id": 1089, "is_primary": true}, {"id": 1809429, "title": "The Bear (Animated)", "work_id": 90684, "role": "producer", "role_id": 1089, "is_primary": true}], "also_known_as": "", "date_of_birth": "07 NOV 1927", "date_of_death": "16 SEP 2012", "genders": [{"id": 9, "name": "Male", "slug": "male"}], "languages": [{"id": 1, "name": "English", "slug": "english"}], "places_of_operation": [{"id": 10, "name": "United Kingdom", "slug": "united-kingdom"}], "biography": "John Coates (7 November 1927 – 16 September 2012) was a British film producer, best known for producing the animated film The Snowman based on the picture book by Raymond Briggs, one of the first animated productions screened on Channel Four and still repeated every year on the channel.\n\nHe co-founded the animation studio TVC (Television Cartoons) London with George Dunning in 1957 and worked on The Beatles's animated feature Yellow Submarine and produced numerous other animated films including When the Wind Blows, Granpa, Father Christmas, The World of Peter Rabbit and Friends and The Bear.\n\nJohn's business partner for many years was Norman David Kauffman, who first worked with him at the age of 16 as a trainee animator. He became a Director of TVC and associated companies in 1999 until his retirement in 2012.\n\nJohn was the nephew of the 1st Baron Rank, and worked within the Rank Organisation after leaving school at Stowe. He had 3 siblings, most notably, Anne V. Coates, Academy Award-winning editor of Laurence of Arabia.\n\nCoates died of cancer at the age of 84 in his home in Kent, England, on 16 September 2012. The Snowman and the Snowdog is dedicated to his memory. Source: Wikidata; 01/08/2023", "biography_author": null, "date_of_biography": "2025-03-05T13:40:20.134344+11:00", "external_links": [{"id": 4361, "uri": "https://en.wikipedia.org/wiki/John_Coates_(producer)"}], "uuid": "d126d7bd-8ec0-4ef6-8a64-884fb9bf668b", "source": {"name": "Vernon", "slug": "vernon"}, "source_identifier": "22178", "external_references": [{"id": 26038, "source": {"name": "Wikidata", "slug": "wikidata"}, "source_identifier": "Q4250255"}, {"id": 29463, "source": {"name": "VIAF", "slug": "viaf"}, "source_identifier": "305407419"}, {"id": 29464, "source": {"name": "WorldCat", "slug": "worldcat"}, "source_identifier": "viaf-305407419"}], "date_modified": "2025-03-05T13:40:20.134697+11:00"}, {"id": 21289, "name": "Snowman Enterprises", "roles_in_work": [{"id": 2648137, "title": "The Snowman", "work_id": 78386, "role": "production company", "role_id": 941, "is_primary": true}, {"id": 865912, "title": "The Snowman (K)", "work_id": 80738, "role": "production company", "role_id": 941, "is_primary": true}], "also_known_as": "", "date_of_birth": null, "date_of_death": null, "genders": [], "languages": [], "places_of_operation": [], "biography": "", "biography_author": null, "date_of_biography": null, "external_links": [], "uuid": "16b28a2f-0a9f-420b-a2b6-3067bfa60b07", "source": {"name": "Vernon", "slug": "vernon"}, "source_identifier": "12680", "external_references": [], "date_modified": "2025-03-05T13:40:19.556019+11:00"}, {"id": 21288, "name": "Michael Sporn", "roles_in_work": [{"id": 2789015, "title": "Doctor De Soto and 5 other funny stories", "work_id": 84126, "role": "director", "role_id": 938, "is_primary": true}, {"id": 865957, "title": "Doctor De Soto (K)", "work_id": 80752, "role": "director", "role_id": 938, "is_primary": true}, {"id": 864891, "title": "Morris's disappearing bag (K)", "work_id": 78385, "role": "director", "role_id": 938, "is_primary": true}, {"id": 870619, "title": "Morris's disappearing bag", "work_id": 86429, "role": "director", "role_id": 938, "is_primary": true}, {"id": 2174829, "title": "Monty", "work_id": 90745, "role": "director", "role_id": 938, "is_primary": true}, {"id": 1846406, "title": "The Amazing bone", "work_id": 82013, "role": "director", "role_id": 938, "is_primary": true}, {"id": 864895, "title": "Doctor De Soto", "work_id": 78389, "role": "director", "role_id": 938, "is_primary": true}, {"id": 2648185, "title": "The Amazing Bone", "work_id": 78493, "role": "director", "role_id": 938, "is_primary": true}, {"id": 2614137, "title": "Max's Christmas and 3 other Christmas stories", "work_id": 83182, "role": "co-director", "role_id": 959, "is_primary": true}, {"id": 2174827, "title": "Monty", "work_id": 90745, "role": "co-producer", "role_id": 915, "is_primary": true}, {"id": 2285421, "title": "What's under my bed?", "work_id": 90721, "role": "producer/director", "role_id": 31, "is_primary": true}, {"id": 865391, "title": "Max's Christmas (K)", "work_id": 79233, "role": "producer/director", "role_id": 31, "is_primary": true}, {"id": 2342463, "title": "The Day Jimmy's boa ate the wash", "work_id": 90733, "role": "producer/director", "role_id": 31, "is_primary": true}], "also_known_as": "", "date_of_birth": "23 APR 1946", "date_of_death": "19 JAN 2014", "genders": [{"id": 9, "name": "Male", "slug": "male"}], "languages": [{"id": 1, "name": "English", "slug": "english"}, {"id": 3, "name": "Russian", "slug": "russian"}], "places_of_operation": [{"id": 1, "name": "United States of America", "slug": "united-states-of-america"}], "biography": "Michael Sporn (April 23, 1946 – January 19, 2014) was an American animator who founded his New York City-based company, Michael Sporn Animation\n\nin 1980, and produced and directed numerous animated TV specials and short spots.\n\nSporn was nominated for an Oscar in 1984 and an Emmy in 1988 for adaptations of two books by William Steig. His adaptation of the children's book The Man Who Walked Between the Towers (2005) won the Audience Choice Award for Best Short Film at the 2005 Heartland Film Festival, the award for Best Short Animation Made for Children at the 2006 Ottawa International Animation Festival, and was short-listed for an Oscar nomination. Source: Wikidata; 01/08/2023", "biography_author": null, "date_of_biography": "2025-03-14T19:48:24.667205+11:00", "external_links": [{"id": 4713, "uri": "https://en.wikipedia.org/wiki/Michael_Sporn"}], "uuid": "f8464fc1-bbf1-4077-a904-1d081bb41e13", "source": {"name": "Vernon", "slug": "vernon"}, "source_identifier": "25232", "external_references": [{"id": 25719, "source": {"name": "Wikidata", "slug": "wikidata"}, "source_identifier": "Q3308531"}, {"id": 30362, "source": {"name": "VIAF", "slug": "viaf"}, "source_identifier": "265449046"}, {"id": 30363, "source": {"name": "LOC Auth", "slug": "loc-auth"}, "source_identifier": "n80144980"}, {"id": 30364, "source": {"name": "WorldCat", "slug": "worldcat"}, "source_identifier": "lccn-n80144980"}], "date_modified": "2025-03-14T19:48:24.667450+11:00"}, {"id": 21283, "name": "Brotherhood of St Lawrence Production Co", "roles_in_work": [{"id": 2648135, "title": "The Brotherhood of St Laurence", "work_id": 78378, "role": "producer", "role_id": 1089, "is_primary": true}], "also_known_as": "", "date_of_birth": "", "date_of_death": "", "genders": [], "languages": [], "places_of_operation": [], "biography": "", "biography_author": null, "date_of_biography": "2023-08-14T11:05:48.762445+10:00", "external_links": [], "uuid": "305460c7-f01c-4aac-a9d3-4fbaf99e8131", "source": {"name": "Vernon", "slug": "vernon"}, "source_identifier": "6080", "external_references": [], "date_modified": "2025-03-05T13:40:18.160071+11:00"}, {"id": 21282, "name": "Peter Bramley", "roles_in_work": [{"id": 2374044, "title": "Golden summers: the Heidelberg school", "work_id": 78374, "role": "producer", "role_id": 1089, "is_primary": true}], "also_known_as": "", "date_of_birth": "", "date_of_death": "", "genders": [], "languages": [], "places_of_operation": [], "biography": "", "biography_author": null, "date_of_biography": "2023-07-05T03:50:23.721653+10:00", "external_links": [], "uuid": "24e68592-c055-48a4-8e7a-892e2de7988b", "source": {"name": "Vernon", "slug": "vernon"}, "source_identifier": "26475", "external_references": [{"id": 50620, "source": {"name": "Wikidata", "slug": "wikidata"}, "source_identifier": "Q121357754"}], "date_modified": "2023-09-05T23:54:11.412554+10:00"}, {"id": 21277, "name": "Media Study", "roles_in_work": [{"id": 2166661, "title": "No place to hide", "work_id": 78370, "role": "production company", "role_id": 941, "is_primary": true}], "also_known_as": "", "date_of_birth": "", "date_of_death": "", "genders": [], "languages": [], "places_of_operation": [], "biography": "", "biography_author": null, "date_of_biography": "2023-05-09T14:26:12.253611+10:00", "external_links": [], "uuid": "3e7d2135-2bfb-41ef-9614-61a24b119470", "source": {"name": "Vernon", "slug": "vernon"}, "source_identifier": "10428", "external_references": [{"id": 35022, "source": {"name": "Wikidata", "slug": "wikidata"}, "source_identifier": "Q121034448"}], "date_modified": "2023-09-05T22:58:47.980528+10:00"}]}