{"count": 28687, "next": "https://api.acmi.net.au/creators/?page=1033", "previous": "https://api.acmi.net.au/creators/?page=1031", "results": [{"id": 75262, "name": "Planet Earth", "roles_in_work": [{"id": 2250545, "title": "River (Planet earth)", "work_id": 72273, "role": "production company", "role_id": 941, "is_primary": true}], "also_known_as": "", "date_of_birth": "", "date_of_death": "", "genders": [], "languages": [], "places_of_operation": [], "biography": "", "biography_author": null, "date_of_biography": "2023-05-09T17:10:16.701468+10:00", "external_links": [], "uuid": "aecce44c-072a-4264-8e79-7bb2769054db", "source": {"name": "Vernon", "slug": "vernon"}, "source_identifier": "11511", "external_references": [{"id": 34605, "source": {"name": "Wikidata", "slug": "wikidata"}, "source_identifier": "Q121222908"}], "date_modified": "2023-09-06T00:13:05.029052+10:00"}, {"id": 75261, "name": "Roger Morin", "roles_in_work": [{"id": 896954, "title": "Inside Newfoundland", "work_id": 76496, "role": "co-director", "role_id": 959, "is_primary": true}, {"id": 2250642, "title": "River watch", "work_id": 72270, "role": "producer", "role_id": 1089, "is_primary": true}], "also_known_as": "", "date_of_birth": "", "date_of_death": "", "genders": [], "languages": [], "places_of_operation": [], "biography": "", "biography_author": null, "date_of_biography": "2023-05-09T17:10:24.132027+10:00", "external_links": [], "uuid": "b070a2c6-0c15-450f-bd4c-7a7173c57b5f", "source": {"name": "Vernon", "slug": "vernon"}, "source_identifier": "28067", "external_references": [{"id": 37561, "source": {"name": "Wikidata", "slug": "wikidata"}, "source_identifier": "Q121085951"}], "date_modified": "2023-09-06T00:52:01.047055+10:00"}, {"id": 75260, "name": "Paul Stein", "roles_in_work": [{"id": 2121082, "title": "Blossom time: a romance in the music of Franz Schubert", "work_id": 95433, "role": "director", "role_id": 938, "is_primary": true}, {"id": 2250653, "title": "Rise of industrial America: the rise of the American city", "work_id": 72251, "role": "producer", "role_id": 1089, "is_primary": true}], "also_known_as": "", "date_of_birth": "", "date_of_death": "", "genders": [], "languages": [], "places_of_operation": [], "biography": "", "biography_author": null, "date_of_biography": "2023-05-09T17:10:25.153379+10:00", "external_links": [], "uuid": "47b2e7ee-664b-4ca8-a080-2cd2aec22c41", "source": {"name": "Vernon", "slug": "vernon"}, "source_identifier": "26266", "external_references": [{"id": 42324, "source": {"name": "Wikidata", "slug": "wikidata"}, "source_identifier": "Q121086090"}], "date_modified": "2023-09-05T23:49:46.548790+10:00"}, {"id": 75259, "name": "Noel Cunningham Reid", "roles_in_work": [{"id": 895620, "title": "The Right line", "work_id": 72234, "role": "co-director", "role_id": 959, "is_primary": true}], "also_known_as": "", "date_of_birth": null, "date_of_death": null, "genders": [], "languages": [], "places_of_operation": [], "biography": "", "biography_author": null, "date_of_biography": null, "external_links": [], "uuid": "119f764c-a741-4b1c-bc34-3d0b311a6eda", "source": {"name": "Vernon", "slug": "vernon"}, "source_identifier": null, "external_references": [{"id": 42364, "source": {"name": "Wikidata", "slug": "wikidata"}, "source_identifier": "Q121126845"}], "date_modified": "2023-09-05T23:32:54.326184+10:00"}, {"id": 75258, "name": "Barry Helmer", "roles_in_work": [{"id": 2250139, "title": "Riches of the earth", "work_id": 86941, "role": "co-director", "role_id": 959, "is_primary": true}, {"id": 2250268, "title": "Riches of the Earth. Rev. ed.", "work_id": 72223, "role": "co-director", "role_id": 959, "is_primary": true}], "also_known_as": "", "date_of_birth": "", "date_of_death": "", "genders": [], "languages": [], "places_of_operation": [], "biography": "", "biography_author": null, "date_of_biography": "2023-05-09T17:09:52.731157+10:00", "external_links": [], "uuid": "d9991f5d-cbee-4276-96ce-c999c59a83bf", "source": {"name": "Vernon", "slug": "vernon"}, "source_identifier": "15714", "external_references": [{"id": 43621, "source": {"name": "Wikidata", "slug": "wikidata"}, "source_identifier": "Q121144203"}], "date_modified": "2023-09-05T17:54:54.975499+10:00"}, {"id": 75257, "name": "Milton A. Fruchtman", "roles_in_work": [{"id": 2250047, "title": "Rhythmetron: with the Dance Theatre of Harlem and Arthur Mitchell", "work_id": 72213, "role": "producer/director", "role_id": 31, "is_primary": true}], "also_known_as": "", "date_of_birth": "", "date_of_death": "", "genders": [], "languages": [], "places_of_operation": [], "biography": "", "biography_author": null, "date_of_biography": "2023-05-09T17:09:39.558699+10:00", "external_links": [], "uuid": "97d52724-88ba-4ba2-956d-a0c2f7535ac8", "source": {"name": "Vernon", "slug": "vernon"}, "source_identifier": "25436", "external_references": [{"id": 50586, "source": {"name": "Wikidata", "slug": "wikidata"}, "source_identifier": "Q121360836"}], "date_modified": "2023-09-05T23:16:18.429663+10:00"}, {"id": 75256, "name": "Peter Shankland", "roles_in_work": [{"id": 2249779, "title": "Rhine boatmen", "work_id": 72202, "role": "producer/director", "role_id": 31, "is_primary": true}], "also_known_as": "", "date_of_birth": "", "date_of_death": "", "genders": [], "languages": [], "places_of_operation": [], "biography": "", "biography_author": null, "date_of_biography": "2023-05-09T17:09:07.295577+10:00", "external_links": [], "uuid": "d07ad271-805a-4fdb-ab83-f989c458ad12", "source": {"name": "Vernon", "slug": "vernon"}, "source_identifier": "34362", "external_references": [{"id": 50575, "source": {"name": "Wikidata", "slug": "wikidata"}, "source_identifier": "Q121361364"}], "date_modified": "2023-09-06T00:00:53.194913+10:00"}, {"id": 75255, "name": "R. Lifchitz", "roles_in_work": [{"id": 2646157, "title": "Reverie de Claude Debussy", "work_id": 72194, "role": "co-producer", "role_id": 915, "is_primary": true}], "also_known_as": "", "date_of_birth": "", "date_of_death": "", "genders": [], "languages": [], "places_of_operation": [], "biography": "", "biography_author": null, "date_of_biography": "2023-05-09T17:08:38.810293+10:00", "external_links": [], "uuid": "64d9f5d7-f1b0-45d2-b724-4e65ff4a841d", "source": {"name": "Vernon", "slug": "vernon"}, "source_identifier": "27028", "external_references": [{"id": 42262, "source": {"name": "Wikidata", "slug": "wikidata"}, "source_identifier": "Q121337434"}], "date_modified": "2025-03-05T12:56:56.256244+11:00"}, {"id": 75254, "name": "Sverides Radio Sweeden", "roles_in_work": [{"id": 857676, "title": "The Restless Earth", "work_id": 72182, "role": "production company", "role_id": 941, "is_primary": true}], "also_known_as": "", "date_of_birth": null, "date_of_death": null, "genders": [], "languages": [], "places_of_operation": [], "biography": "", "biography_author": null, "date_of_biography": null, "external_links": [], "uuid": "a9eb8324-84f5-4819-90a1-e43a66932113", "source": {"name": "Vernon", "slug": "vernon"}, "source_identifier": null, "external_references": [{"id": 35957, "source": {"name": "Wikidata", "slug": "wikidata"}, "source_identifier": "Q121035324"}], "date_modified": "2023-09-06T01:38:01.262781+10:00"}, {"id": 75253, "name": "Studio Hamburg", "roles_in_work": [{"id": 857675, "title": "The Restless Earth", "work_id": 72182, "role": "production company", "role_id": 941, "is_primary": true}], "also_known_as": "", "date_of_birth": null, "date_of_death": null, "genders": [], "languages": [], "places_of_operation": [], "biography": "", "biography_author": null, "date_of_biography": null, "external_links": [], "uuid": "f2afa712-451e-42d2-9394-076243e461f6", "source": {"name": "Vernon", "slug": "vernon"}, "source_identifier": null, "external_references": [{"id": 33862, "source": {"name": "Wikidata", "slug": "wikidata"}, "source_identifier": "Q121079563"}], "date_modified": "2023-09-06T01:34:37.466851+10:00"}]}