{"count": 28687, "next": "https://api.acmi.net.au/creators/?page=347", "previous": "https://api.acmi.net.au/creators/?page=345", "results": [{"id": 82147, "name": "Emma McLean", "roles_in_work": [{"id": 2792419, "title": "Frontline", "work_id": 115439, "role": "co-producer", "role_id": 915, "is_primary": true}], "also_known_as": "", "date_of_birth": null, "date_of_death": null, "genders": [], "languages": [], "places_of_operation": [], "biography": "", "biography_author": null, "date_of_biography": null, "external_links": [], "uuid": "5fcdfd10-9a59-46c2-aa8e-323fce170d71", "source": {"name": "Vernon", "slug": "vernon"}, "source_identifier": "18775", "external_references": [{"id": 32558, "source": {"name": "Wikidata", "slug": "wikidata"}, "source_identifier": "Q121036532"}], "date_modified": "2025-03-14T20:09:22.195477+11:00"}, {"id": 82146, "name": "Frederick Warne and Company", "roles_in_work": [{"id": 2282267, "title": "The World of Peter Rabbit and friends", "work_id": 115438, "role": "production company", "role_id": 941, "is_primary": true}], "also_known_as": "", "date_of_birth": "", "date_of_death": "", "genders": [], "languages": [], "places_of_operation": [], "biography": "", "biography_author": null, "date_of_biography": "2023-05-09T18:02:24.159721+10:00", "external_links": [], "uuid": "d001b051-d641-4c23-9736-bd8d391c1098", "source": {"name": "Vernon", "slug": "vernon"}, "source_identifier": "4248", "external_references": [{"id": 41859, "source": {"name": "Wikidata", "slug": "wikidata"}, "source_identifier": "Q121299165"}], "date_modified": "2023-09-05T19:53:29.367543+10:00"}, {"id": 82145, "name": "Bill Butt", "roles_in_work": [{"id": 2792220, "title": "Eyewitness", "work_id": 115432, "role": "producer", "role_id": 1089, "is_primary": true}], "also_known_as": "", "date_of_birth": "", "date_of_death": "", "genders": [], "languages": [], "places_of_operation": [], "biography": "", "biography_author": null, "date_of_biography": "2023-05-09T18:38:37.557031+10:00", "external_links": [], "uuid": "98b3b079-f7d4-43ad-a36b-921f69078aa4", "source": {"name": "Vernon", "slug": "vernon"}, "source_identifier": "15942", "external_references": [{"id": 38602, "source": {"name": "Wikidata", "slug": "wikidata"}, "source_identifier": "Q121091096"}], "date_modified": "2025-03-14T20:07:57.607976+11:00"}, {"id": 82144, "name": "Mike Cocker", "roles_in_work": [{"id": 2791727, "title": "Number patterns: Fibonacci and others", "work_id": 84855, "role": "co-director", "role_id": 959, "is_primary": true}, {"id": 2791743, "title": "Mathematical eye", "work_id": 115424, "role": "co-director", "role_id": 959, "is_primary": true}], "also_known_as": "", "date_of_birth": "", "date_of_death": "", "genders": [], "languages": [], "places_of_operation": [], "biography": "", "biography_author": null, "date_of_biography": "2023-05-09T14:24:23.294178+10:00", "external_links": [], "uuid": "7fcf8e3a-ff39-4c51-a7c4-364d46fde2d2", "source": {"name": "Vernon", "slug": "vernon"}, "source_identifier": "25347", "external_references": [{"id": 41693, "source": {"name": "Wikidata", "slug": "wikidata"}, "source_identifier": "Q121299215"}], "date_modified": "2025-03-14T20:04:58.071894+11:00"}, {"id": 82143, "name": "Fulmar Productions", "roles_in_work": [{"id": 2791702, "title": "J'accuse", "work_id": 115423, "role": "production company", "role_id": 941, "is_primary": true}], "also_known_as": "", "date_of_birth": "", "date_of_death": "", "genders": [], "languages": [], "places_of_operation": [], "biography": "", "biography_author": null, "date_of_biography": "2023-05-09T14:19:50.334144+10:00", "external_links": [], "uuid": "7bd53227-2f07-46b4-b54b-5dc4c3b74b87", "source": {"name": "Vernon", "slug": "vernon"}, "source_identifier": "8602", "external_references": [{"id": 35859, "source": {"name": "Wikidata", "slug": "wikidata"}, "source_identifier": "Q121299100"}], "date_modified": "2025-03-14T20:04:29.898768+11:00"}, {"id": 82142, "name": "Coast Telecourses USA", "roles_in_work": [{"id": 2791634, "title": "Photography: an introduction", "work_id": 115421, "role": "production company", "role_id": 941, "is_primary": true}], "also_known_as": "", "date_of_birth": "", "date_of_death": "", "genders": [], "languages": [], "places_of_operation": [], "biography": "", "biography_author": null, "date_of_biography": "2023-05-09T15:32:43.417590+10:00", "external_links": [], "uuid": "93931a87-3f99-4188-b022-7955fa228326", "source": {"name": "Vernon", "slug": "vernon"}, "source_identifier": "6850", "external_references": [{"id": 35413, "source": {"name": "Wikidata", "slug": "wikidata"}, "source_identifier": "Q121159931"}], "date_modified": "2025-03-14T20:04:05.776386+11:00"}, {"id": 82141, "name": "Julian Ware", "roles_in_work": [{"id": 2791606, "title": "The Nuclear age", "work_id": 115420, "role": "producer", "role_id": 1089, "is_primary": true}], "also_known_as": "", "date_of_birth": "", "date_of_death": "", "genders": [], "languages": [], "places_of_operation": [], "biography": "", "biography_author": null, "date_of_biography": "2023-05-09T14:50:18.048903+10:00", "external_links": [], "uuid": "5cda882e-5765-4349-bc72-1204e3c6a2ba", "source": {"name": "Vernon", "slug": "vernon"}, "source_identifier": "22878", "external_references": [{"id": 35559, "source": {"name": "Wikidata", "slug": "wikidata"}, "source_identifier": "Q121223574"}], "date_modified": "2025-03-14T20:03:48.921163+11:00"}, {"id": 82140, "name": "Mike Kleinsteuber", "roles_in_work": [{"id": 2306973, "title": "Spaceship Earth", "work_id": 115419, "role": "co-director", "role_id": 959, "is_primary": true}], "also_known_as": "", "date_of_birth": "", "date_of_death": "", "genders": [], "languages": [], "places_of_operation": [], "biography": "", "biography_author": null, "date_of_biography": "2023-05-09T18:46:38.699472+10:00", "external_links": [], "uuid": "5d15cf0d-ffad-41e8-9270-b9ce84ffe4f2", "source": {"name": "Vernon", "slug": "vernon"}, "source_identifier": "25369", "external_references": [{"id": 36808, "source": {"name": "Wikidata", "slug": "wikidata"}, "source_identifier": "Q121223367"}], "date_modified": "2023-09-05T23:14:58.506040+10:00"}, {"id": 82139, "name": "Tony Cash", "roles_in_work": [{"id": 2790968, "title": "Art of the western world", "work_id": 115414, "role": "co-producer", "role_id": 915, "is_primary": true}], "also_known_as": "", "date_of_birth": "", "date_of_death": "", "genders": [], "languages": [], "places_of_operation": [], "biography": "", "biography_author": null, "date_of_biography": "2023-05-09T19:37:20.765630+10:00", "external_links": [], "uuid": "81a72312-8533-4a25-9a63-73a39f5fa57c", "source": {"name": "Vernon", "slug": "vernon"}, "source_identifier": "13645", "external_references": [{"id": 38634, "source": {"name": "Wikidata", "slug": "wikidata"}, "source_identifier": "Q121337696"}], "date_modified": "2025-03-14T20:01:56.723622+11:00"}, {"id": 82138, "name": "Andrew Snell", "roles_in_work": [{"id": 2790966, "title": "Art of the western world", "work_id": 115414, "role": "co-producer", "role_id": 915, "is_primary": true}], "also_known_as": "", "date_of_birth": "", "date_of_death": "", "genders": [], "languages": [], "places_of_operation": [], "biography": "", "biography_author": null, "date_of_biography": "2023-05-09T19:37:20.527362+10:00", "external_links": [], "uuid": "10a742d3-6f62-4467-b50c-bf62aeb4aeb8", "source": {"name": "Vernon", "slug": "vernon"}, "source_identifier": "15217", "external_references": [{"id": 38815, "source": {"name": "Wikidata", "slug": "wikidata"}, "source_identifier": "Q121271502"}], "date_modified": "2025-03-14T20:01:56.137097+11:00"}]}