{"count": 28687, "next": "https://api.acmi.net.au/creators/?page=741", "previous": "https://api.acmi.net.au/creators/?page=739", "results": [{"id": 78183, "name": "Renny Harlin", "roles_in_work": [{"id": 2184522, "title": "Deep blue sea", "work_id": 95045, "role": "director", "role_id": 938, "is_primary": true}, {"id": 2476410, "title": "The Long kiss goodnight (Captioned)", "work_id": 86139, "role": "director", "role_id": 938, "is_primary": true}, {"id": 2476407, "title": "The Long kiss goodnight (Captioned)", "work_id": 86139, "role": "co-producer", "role_id": 915, "is_primary": true}, {"id": 2616202, "title": "Rambling Rose", "work_id": 86855, "role": "producer", "role_id": 1089, "is_primary": true}], "also_known_as": "Renny Lauri Mauritz Harjola", "date_of_birth": "1959-03-15", "date_of_death": "", "genders": [{"id": 9, "name": "Male", "slug": "male"}], "languages": [{"id": 1, "name": "English", "slug": "english"}, {"id": 21, "name": "Finnish", "slug": "finnish"}, {"id": 5, "name": "German", "slug": "german"}], "places_of_operation": [{"id": 54, "name": "Finland", "slug": "finland"}], "biography": "Renny Harlin (born 15 March 1959) is a Finnish film director, producer, and screenwriter who has worked in Hollywood, Europe, and China. His best-known films include A Nightmare on Elm Street 4: The Dream Master, The Adventures of Ford Fairlane, Die Hard 2, Cliffhanger, The Long Kiss Goodnight, and Deep Blue Sea.\n\nHarlin's films have grossed over $520 million in the United States and over $1.2 billion in the worldwide aggregate box office, making him the 151st highest-grossing director in the global film market as of October 2022, and the most internationally successful Finnish filmmaker in terms of revenue.; 17/08/2023", "biography_author": null, "date_of_biography": "2025-02-26T20:40:02.797894+11:00", "external_links": [{"id": 2927, "uri": "https://en.wikipedia.org/wiki/Renny_Harlin"}], "uuid": "c7fad4b3-1c7c-40cb-b660-e9b755937ff5", "source": {"name": "Vernon", "slug": "vernon"}, "source_identifier": "27271", "external_references": [{"id": 12447, "source": {"name": "Wikidata", "slug": "wikidata"}, "source_identifier": "Q318712"}, {"id": 12448, "source": {"name": "VIAF", "slug": "viaf"}, "source_identifier": "88588428"}, {"id": 12449, "source": {"name": "LOC Auth", "slug": "loc-auth"}, "source_identifier": "no97016987"}, {"id": 12450, "source": {"name": "WorldCat", "slug": "worldcat"}, "source_identifier": "lccn-no97016987"}], "date_modified": "2025-02-26T20:40:02.798216+11:00"}, {"id": 78182, "name": "Vivien Boder", "roles_in_work": [{"id": 2268661, "title": "To forget Venice = Dimenticare Venezia", "work_id": 86130, "role": "co-producer", "role_id": 915, "is_primary": true}], "also_known_as": "", "date_of_birth": "", "date_of_death": "", "genders": [], "languages": [], "places_of_operation": [], "biography": "", "biography_author": null, "date_of_biography": "2023-05-09T17:41:46.702678+10:00", "external_links": [], "uuid": "3cbb53b7-eaef-42bc-a4a6-860a2ad4c7ab", "source": {"name": "Vernon", "slug": "vernon"}, "source_identifier": "30167", "external_references": [{"id": 32615, "source": {"name": "Wikidata", "slug": "wikidata"}, "source_identifier": "Q121222712"}], "date_modified": "2023-09-06T02:08:14.927496+10:00"}, {"id": 78181, "name": "Ennio DiMeo", "roles_in_work": [{"id": 2268658, "title": "To forget Venice = Dimenticare Venezia", "work_id": 86130, "role": "co-producer", "role_id": 915, "is_primary": true}], "also_known_as": "", "date_of_birth": "", "date_of_death": "", "genders": [], "languages": [], "places_of_operation": [], "biography": "", "biography_author": null, "date_of_biography": "2023-05-09T17:41:46.360244+10:00", "external_links": [], "uuid": "a9cf3fbe-8752-4fab-945a-48fc1796e731", "source": {"name": "Vernon", "slug": "vernon"}, "source_identifier": "18778", "external_references": [{"id": 35089, "source": {"name": "Wikidata", "slug": "wikidata"}, "source_identifier": "Q121222678"}], "date_modified": "2023-09-05T19:33:06.412457+10:00"}, {"id": 78180, "name": "Saadi Yacef", "roles_in_work": [{"id": 2330000, "title": "The Battle of Algiers [Widescreen]", "work_id": 86125, "role": "co-producer", "role_id": 915, "is_primary": true}], "also_known_as": "", "date_of_birth": "1928-01-20", "date_of_death": "2021-09-10", "genders": [{"id": 9, "name": "Male", "slug": "male"}], "languages": [{"id": 19, "name": "Arabic", "slug": "arabic"}, {"id": 4, "name": "French", "slug": "french"}], "places_of_operation": [{"id": 215, "name": "Algeria", "slug": "algeria"}], "biography": "Saadi Yacef (Arabic: ياسف سعدي, romanized: Yāsaf Saʿadī; 20 January 1928 – 10 September 2021) was an Algerian independence fighter, serving as a leader of the National Liberation Front during his country's war of independence. He was a Senator in Algeria's Council of the Nation until his death.", "biography_author": "Wikidata", "date_of_biography": "2023-08-01T16:57:45.161232+10:00", "external_links": [{"id": 5098, "uri": "https://en.wikipedia.org/wiki/Saadi_Yacef"}], "uuid": "8f2589ae-d57e-4f57-934d-092805444166", "source": {"name": "Vernon", "slug": "vernon"}, "source_identifier": "28421", "external_references": [{"id": 26281, "source": {"name": "Wikidata", "slug": "wikidata"}, "source_identifier": "Q168663"}, {"id": 31363, "source": {"name": "VIAF", "slug": "viaf"}, "source_identifier": "54153788"}, {"id": 31364, "source": {"name": "LOC Auth", "slug": "loc-auth"}, "source_identifier": "n84169273"}, {"id": 31365, "source": {"name": "WorldCat", "slug": "worldcat"}, "source_identifier": "lccn-n84169273"}], "date_modified": "2023-09-06T01:00:53.897752+10:00"}, {"id": 78179, "name": "Antonio Musu", "roles_in_work": [{"id": 2329996, "title": "The Battle of Algiers [Widescreen]", "work_id": 86125, "role": "co-producer", "role_id": 915, "is_primary": true}], "also_known_as": "", "date_of_birth": "1916-05-14", "date_of_death": "1979-10-08", "genders": [{"id": 9, "name": "Male", "slug": "male"}], "languages": [{"id": 6, "name": "Italian", "slug": "italian"}], "places_of_operation": [{"id": 19, "name": "Italy", "slug": "italy"}], "biography": "", "biography_author": null, "date_of_biography": "2023-05-09T19:24:19.992382+10:00", "external_links": [], "uuid": "641818d4-36fa-488c-a5a2-065cfd02323b", "source": {"name": "Vernon", "slug": "vernon"}, "source_identifier": "15430", "external_references": [{"id": 35313, "source": {"name": "Wikidata", "slug": "wikidata"}, "source_identifier": "Q13399810"}, {"id": 53977, "source": {"name": "VIAF", "slug": "viaf"}, "source_identifier": "38353996"}, {"id": 53978, "source": {"name": "LOC Auth", "slug": "loc-auth"}, "source_identifier": "n85173996"}, {"id": 53979, "source": {"name": "WorldCat", "slug": "worldcat"}, "source_identifier": "lccn-n85173996"}], "date_modified": "2023-09-05T17:42:52.524227+10:00"}, {"id": 78178, "name": "Robin Williams", "roles_in_work": [{"id": 2476313, "title": "Mrs. Doubtfire (Captioned)", "work_id": 86114, "role": "co-producer", "role_id": 915, "is_primary": true}], "also_known_as": "Robin McLaurin Williams", "date_of_birth": "1951-07-21", "date_of_death": "2014-08-11", "genders": [{"id": 9, "name": "Male", "slug": "male"}], "languages": [{"id": 1, "name": "English", "slug": "english"}], "places_of_operation": [{"id": 1, "name": "United States of America", "slug": "united-states-of-america"}], "biography": "Robin McLaurin Williams (July 21, 1951 – August 11, 2014) was an American actor and comedian. Known for his improvisational skills and the wide variety of characters he created on the spur of the moment and portrayed on film, in dramas and comedies alike, he is regarded as one of the greatest comedians of all time. He received numerous accolades including an Academy Award, two Primetime Emmy Awards, six Golden Globe Awards, two Screen Actors Guild Awards, and five Grammy Awards.\nWilliams began performing stand-up comedy in San Francisco and Los Angeles during the mid-1970s, and released several comedy albums including Reality ... What a Concept in 1980. He rose to fame playing the alien Mork in the ABC sitcom Mork & Mindy (1978–1982). He received his first leading film role in Popeye (1980). Williams went on to win the Academy Award for Best Supporting Actor for Good Will Hunting (1997). His other Oscar-nominated roles were for Good Morning, Vietnam (1987), Dead Poets Society (1989), and The Fisher King (1991). \nWilliams starred in the critically acclaimed dramas The World According to Garp (1982), Moscow on the Hudson (1984), Dead Poets Society (1989), Awakenings (1990), Patch Adams (1998), Insomnia (2002), One Hour Photo (2002), and World's Greatest Dad (2009). He also starred in family films such as Hook (1991), Mrs. Doubtfire (1993), Jumanji (1995), Jack (1996), Flubber (1997), RV (2006), and the Night at the Museum trilogy (2006–2014). He lent his voice to the animated films Aladdin (1992), Robots (2005), Happy Feet (2006), and its 2011 sequel. \nWilliams was found dead at his home in Paradise Cay, California, in August 2014, at the age of 63. At the time of his suicide, he had been diagnosed with Parkinson's disease. According to his widow, Williams had experienced depression, anxiety, and increasing paranoia. His autopsy found \"diffuse Lewy body disease\" and Lewy body dementia professionals said his symptoms were consistent with dementia with Lewy bodies.", "biography_author": "Wikidata", "date_of_biography": "2023-09-06T00:49:58.731549+10:00", "external_links": [{"id": 5055, "uri": "https://en.wikipedia.org/wiki/Robin_Williams"}], "uuid": "868d4ad3-3c6a-4c7c-88a1-17db70c1fd15", "source": {"name": "Vernon", "slug": "vernon"}, "source_identifier": "27975", "external_references": [{"id": 25367, "source": {"name": "Wikidata", "slug": "wikidata"}, "source_identifier": "Q83338"}, {"id": 31258, "source": {"name": "VIAF", "slug": "viaf"}, "source_identifier": "93723961"}, {"id": 31259, "source": {"name": "LOC Auth", "slug": "loc-auth"}, "source_identifier": "n99250620"}, {"id": 31260, "source": {"name": "WorldCat", "slug": "worldcat"}, "source_identifier": "lccn-n99250620"}], "date_modified": "2023-09-06T00:50:00.869662+10:00"}, {"id": 78177, "name": "Masha Williams", "roles_in_work": [{"id": 2476312, "title": "Mrs. Doubtfire (Captioned)", "work_id": 86114, "role": "co-producer", "role_id": 915, "is_primary": true}], "also_known_as": "", "date_of_birth": "", "date_of_death": "", "genders": [], "languages": [], "places_of_operation": [], "biography": "", "biography_author": null, "date_of_biography": "2023-08-17T15:35:07.278346+10:00", "external_links": [], "uuid": "484ed9be-1c23-4e1f-a6aa-8af564c09fc0", "source": {"name": "Vernon", "slug": "vernon"}, "source_identifier": "24764", "external_references": [{"id": 33785, "source": {"name": "Wikidata", "slug": "wikidata"}, "source_identifier": "Q121315228"}], "date_modified": "2023-09-05T22:53:22.352867+10:00"}, {"id": 78176, "name": "Sophie Marceau", "roles_in_work": [{"id": 2123576, "title": "Braveheart (Captioned)", "work_id": 86112, "role": "cast", "role_id": 33, "is_primary": false}, {"id": 2123581, "title": "Braveheart [DVD]", "work_id": 90451, "role": "cast", "role_id": 33, "is_primary": false}], "also_known_as": "Sophie Danièle Sylvie Maupu", "date_of_birth": "1966-11-17", "date_of_death": "", "genders": [{"id": 5, "name": "Female", "slug": "female"}], "languages": [{"id": 1, "name": "English", "slug": "english"}, {"id": 4, "name": "French", "slug": "french"}], "places_of_operation": [{"id": 17, "name": "France", "slug": "france"}], "biography": "Sophie Marceau (French: [sɔfi maʁso]; born Sophie Danièle Sylvie Maupu, 17 November 1966) is a French actress. As a teenager, she achieved popularity with her debut films La Boum (1980) and La Boum 2 (1982), receiving a César Award for Most Promising Actress (known as the French Oscar). She became a film star in Europe with a string of successful films, including  L'Étudiante (1988), Pacific Palisades (1990), Fanfan (1993) and Revenge of the Musketeers (1994). She became an international film star with her performances in Braveheart (1995), Firelight (1997), Anna Karenina (1997) and as Elektra King in the 19th James Bond film The World Is Not Enough (1999). Some of her later films tackle critical social issues such as Arrêtez-moi (2013), Jailbirds (2015) and Everything Went Fine (2021).Marceau has appeared on more than 300 magazine covers worldwide and been the face of numerous luxury brands. She was made Officer (Officier) in the Ordre des Arts et des Lettres by the Minister of Culture of France in 2003 and in 2015, it was revealed that she had refused the Legion of Honour (Ordre national de la Légion d'honneur).", "biography_author": "Wikidata", "date_of_biography": "2023-08-01T17:08:02.616282+10:00", "external_links": [{"id": 5182, "uri": "https://en.wikipedia.org/wiki/Sophie_Marceau"}], "uuid": "63418bb6-951a-4e0d-b739-a7262b990ca4", "source": {"name": "Vernon", "slug": "vernon"}, "source_identifier": "38170", "external_references": [{"id": 25189, "source": {"name": "Wikidata", "slug": "wikidata"}, "source_identifier": "Q162753"}, {"id": 31580, "source": {"name": "VIAF", "slug": "viaf"}, "source_identifier": "39486030"}, {"id": 31581, "source": {"name": "LOC Auth", "slug": "loc-auth"}, "source_identifier": "no97041447"}, {"id": 31582, "source": {"name": "WorldCat", "slug": "worldcat"}, "source_identifier": "lccn-no97041447"}], "date_modified": "2023-09-06T01:24:04.549570+10:00"}, {"id": 78175, "name": "Alan Ladd Jnr", "roles_in_work": [{"id": 2123570, "title": "Braveheart [DVD]", "work_id": 90451, "role": "co-producer", "role_id": 915, "is_primary": true}, {"id": 2123560, "title": "Braveheart (Captioned)", "work_id": 86112, "role": "co-producer", "role_id": 915, "is_primary": true}], "also_known_as": "", "date_of_birth": "", "date_of_death": "", "genders": [], "languages": [], "places_of_operation": [], "biography": "", "biography_author": null, "date_of_biography": "2023-05-09T13:07:19.095920+10:00", "external_links": [], "uuid": "0955de7e-08ea-49a9-901c-13b536ad25a3", "source": {"name": "Vernon", "slug": "vernon"}, "source_identifier": "14773", "external_references": [{"id": 41121, "source": {"name": "Wikidata", "slug": "wikidata"}, "source_identifier": "Q121036637"}], "date_modified": "2023-09-05T17:20:38.327221+10:00"}, {"id": 78174, "name": "M Tsekhanovsky", "roles_in_work": [{"id": 2337452, "title": "The Christmas tree", "work_id": 86109, "role": "co-director", "role_id": 959, "is_primary": true}], "also_known_as": "", "date_of_birth": "", "date_of_death": "", "genders": [], "languages": [], "places_of_operation": [], "biography": "", "biography_author": null, "date_of_biography": "2023-05-09T19:34:11.666730+10:00", "external_links": [], "uuid": "e64f76cf-3b38-432b-94b4-8a72453b7544", "source": {"name": "Vernon", "slug": "vernon"}, "source_identifier": "24169", "external_references": [{"id": 34517, "source": {"name": "Wikidata", "slug": "wikidata"}, "source_identifier": "Q121143593"}], "date_modified": "2023-09-05T22:35:43.328528+10:00"}]}