{"count": 28681, "next": "https://api.acmi.net.au/creators/?page=1383", "previous": "https://api.acmi.net.au/creators/?page=1381", "results": [{"id": 37482, "name": "Allen Klein", "roles_in_work": [{"id": 2340328, "title": "The Concert for Bangla Desh", "work_id": 95278, "role": "co-producer", "role_id": 915, "is_primary": true}, {"id": 2207230, "title": "Pity me not = Without each other", "work_id": 95395, "role": "producer", "role_id": 1089, "is_primary": true}], "also_known_as": "", "date_of_birth": "", "date_of_death": "", "genders": [], "languages": [], "places_of_operation": [], "biography": "", "biography_author": null, "date_of_biography": "2023-05-09T19:38:38.130099+10:00", "external_links": [], "uuid": "1bd9c127-9f38-4590-800e-8906e4477f90", "source": {"name": "Vernon", "slug": "vernon"}, "source_identifier": "15027", "external_references": [{"id": 32971, "source": {"name": "Wikidata", "slug": "wikidata"}, "source_identifier": "Q121298990"}], "date_modified": "2023-09-05T17:29:49.893874+10:00"}, {"id": 37479, "name": "Mark Neale", "roles_in_work": [{"id": 2165323, "title": "Mojo working: Jimi Hendrix 1942-1970", "work_id": 95275, "role": "director", "role_id": 938, "is_primary": true}], "also_known_as": "", "date_of_birth": "", "date_of_death": "", "genders": [], "languages": [], "places_of_operation": [], "biography": "", "biography_author": null, "date_of_biography": "2023-05-09T14:24:17.566607+10:00", "external_links": [], "uuid": "5ab104a0-55bb-4eb6-a71b-bb48d128a357", "source": {"name": "Vernon", "slug": "vernon"}, "source_identifier": "24526", "external_references": [{"id": 42242, "source": {"name": "Wikidata", "slug": "wikidata"}, "source_identifier": "Q121337383"}], "date_modified": "2023-09-05T22:46:32.178280+10:00"}, {"id": 37477, "name": "Screen Ventures", "roles_in_work": [{"id": 2165312, "title": "Mojo working: Jimi Hendrix 1942-1970", "work_id": 95275, "role": "production company", "role_id": 941, "is_primary": true}], "also_known_as": "", "date_of_birth": "", "date_of_death": "", "genders": [], "languages": [], "places_of_operation": [], "biography": "", "biography_author": null, "date_of_biography": "2023-05-09T14:24:16.668197+10:00", "external_links": [], "uuid": "f11a14ec-6257-4f20-9158-ce5dc866dd26", "source": {"name": "Vernon", "slug": "vernon"}, "source_identifier": "12380", "external_references": [{"id": 52059, "source": {"name": "Wikidata", "slug": "wikidata"}, "source_identifier": "Q121357452"}], "date_modified": "2023-09-06T01:09:02.678466+10:00"}, {"id": 37475, "name": "Transatlantic Films", "roles_in_work": [{"id": 2207316, "title": "Placido: a year in the life of Placido Domingo", "work_id": 95274, "role": "production company", "role_id": 941, "is_primary": true}, {"id": 3104581, "title": "La Longue Marche = the Long March (Cinemascope Print)", "work_id": 115985, "role": "production company", "role_id": 941, "is_primary": true}], "also_known_as": "", "date_of_birth": "", "date_of_death": "", "genders": [], "languages": [], "places_of_operation": [], "biography": "", "biography_author": null, "date_of_biography": "2023-05-09T15:37:31.543519+10:00", "external_links": [], "uuid": "f8af377a-b727-425e-842a-080fe485adae", "source": {"name": "Vernon", "slug": "vernon"}, "source_identifier": "13683", "external_references": [{"id": 37444, "source": {"name": "Wikidata", "slug": "wikidata"}, "source_identifier": "Q121126286"}], "date_modified": "2025-05-22T22:45:03.038650+10:00"}, {"id": 37474, "name": "Tim Halpin", "roles_in_work": [{"id": 2322209, "title": "Tamworth 88: the Bicentennial Country Music Festival", "work_id": 95273, "role": "director", "role_id": 938, "is_primary": true}], "also_known_as": "", "date_of_birth": null, "date_of_death": null, "genders": [], "languages": [], "places_of_operation": [], "biography": "", "biography_author": null, "date_of_biography": "2023-05-09T19:13:45+10:00", "external_links": [], "uuid": "e15d62cd-cc82-48f1-9a54-dd2941c072ce", "source": {"name": "Vernon", "slug": "vernon"}, "source_identifier": "29738", "external_references": [], "date_modified": "2024-09-10T14:20:22.060534+10:00"}, {"id": 37473, "name": "John Begley", "roles_in_work": [{"id": 2322204, "title": "Tamworth 88: the Bicentennial Country Music Festival", "work_id": 95273, "role": "producer", "role_id": 1089, "is_primary": true}], "also_known_as": "", "date_of_birth": "", "date_of_death": "", "genders": [], "languages": [], "places_of_operation": [], "biography": "", "biography_author": null, "date_of_biography": "2023-05-09T19:13:44.784576+10:00", "external_links": [], "uuid": "50978b65-09fb-4fbf-b3f9-4f600784a48f", "source": {"name": "Vernon", "slug": "vernon"}, "source_identifier": "22125", "external_references": [{"id": 32310, "source": {"name": "Wikidata", "slug": "wikidata"}, "source_identifier": "Q121034469"}], "date_modified": "2023-09-05T21:32:41.255109+10:00"}, {"id": 37472, "name": "Taree", "roles_in_work": [{"id": 2322199, "title": "Tamworth 88: the Bicentennial Country Music Festival", "work_id": 95273, "role": "production company", "role_id": 941, "is_primary": true}], "also_known_as": "", "date_of_birth": "", "date_of_death": "", "genders": [], "languages": [], "places_of_operation": [], "biography": "", "biography_author": null, "date_of_biography": "2023-05-09T19:13:44.531960+10:00", "external_links": [], "uuid": "eb83dcd6-3d61-4bf6-a573-87a2dc89367d", "source": {"name": "Vernon", "slug": "vernon"}, "source_identifier": "13164", "external_references": [{"id": 36219, "source": {"name": "Wikidata", "slug": "wikidata"}, "source_identifier": "Q121078830"}], "date_modified": "2023-09-06T01:41:37.644573+10:00"}, {"id": 37471, "name": "8 Television Tamworth", "roles_in_work": [{"id": 2322192, "title": "Tamworth 88: the Bicentennial Country Music Festival", "work_id": 95273, "role": "production company", "role_id": 941, "is_primary": true}], "also_known_as": "", "date_of_birth": "", "date_of_death": "", "genders": [], "languages": [], "places_of_operation": [], "biography": "", "biography_author": null, "date_of_biography": "2023-05-09T19:13:44.287213+10:00", "external_links": [], "uuid": "3fe39a0c-aea6-45e4-9ed1-4d425a04aab3", "source": {"name": "Vernon", "slug": "vernon"}, "source_identifier": "3683", "external_references": [{"id": 34591, "source": {"name": "Wikidata", "slug": "wikidata"}, "source_identifier": "Q121315514"}], "date_modified": "2023-09-05T17:13:21.873470+10:00"}, {"id": 37470, "name": "BAL Marketing", "roles_in_work": [{"id": 2322183, "title": "Tamworth 88: the Bicentennial Country Music Festival", "work_id": 95273, "role": "production company", "role_id": 941, "is_primary": true}], "also_known_as": "", "date_of_birth": "", "date_of_death": "", "genders": [], "languages": [], "places_of_operation": [], "biography": "", "biography_author": null, "date_of_biography": "2023-05-09T19:13:43.761715+10:00", "external_links": [], "uuid": "e770ed1f-4568-44f3-bd75-16565a7a633b", "source": {"name": "Vernon", "slug": "vernon"}, "source_identifier": "5687", "external_references": [{"id": 36235, "source": {"name": "Wikidata", "slug": "wikidata"}, "source_identifier": "Q121270620"}], "date_modified": "2023-09-05T17:52:31.000757+10:00"}, {"id": 37467, "name": "PolyGram Music Video", "roles_in_work": [{"id": 2196412, "title": "Do they know it's Christmas?", "work_id": 95272, "role": "production company", "role_id": 941, "is_primary": true}], "also_known_as": "", "date_of_birth": "", "date_of_death": "", "genders": [], "languages": [], "places_of_operation": [], "biography": "", "biography_author": null, "date_of_biography": "2023-05-09T15:17:40.791191+10:00", "external_links": [], "uuid": "2d389f4a-3c86-42f9-8b96-b8f4869afa99", "source": {"name": "Vernon", "slug": "vernon"}, "source_identifier": "11564", "external_references": [{"id": 34712, "source": {"name": "Wikidata", "slug": "wikidata"}, "source_identifier": "Q121299048"}], "date_modified": "2023-09-06T00:13:26.589466+10:00"}]}