{"count": 28684, "next": "https://api.acmi.net.au/creators/?page=352", "previous": "https://api.acmi.net.au/creators/?page=350", "results": [{"id": 82094, "name": "Vincent McMurray", "roles_in_work": [{"id": 2517458, "title": "8mm Minette Viewer", "work_id": 114465, "role": "donor", "role_id": 606, "is_primary": false}], "also_known_as": "", "date_of_birth": "", "date_of_death": "", "genders": [], "languages": [], "places_of_operation": [], "biography": "Source: http://www.screenhub.com.au/news-article/news/film/david-tiley/sale-of-cinema-collectibles-spotlights-remarkable-child-magician-tap-dancer-and-hoarder-255574\n[Viewed 20/04/2018]\nAuthor: David Tiley\n\n\"Sale of cinema collectibles spotlights remarkable child magician, tap dancer and hoarder\nDAVID TILEY\nVincent McMurray was an unusual compulsive collector of cinema memorabilia, who was hugely loved despite his defects. Now his vast hoard is up for sale.\nSale of cinema collectibles spotlights remarkable child magician, tap dancer and hoarder\n\nOn Sunday 22 April, in suburban Melbourne, the family of the late Vincent McMurray will sell his huge collection of cinema memorabilia. His daughter Fran Steffanoni hopes to attract collectors who will understand the value of his 8mm, 9.5mm, 16mm and 35mm projectors and parts, and his large quantity of slide projectors for stage and screen use.\n\nThat is a pretty local announcement. But the flyer from the Cinema Pioneers suggested people could contact Fran Steffanoni, and so I did. That is how I found the wonderful world of the McMurray family.\n\n‘He was a character,’ Fran said, ‘a hoarder and a collector. He was just an awesome man who collected a lot of shit and if he wasn’t dead I would kill him.\n\n‘I was a school teacher and I had to give up work to sort out all the stuff for Mum. It was a grieving process and it kept me close to him.’\n\nHe started to hoard in the 1960's when the  kids were very young. Fran remembers throwing out an empty chocolate box, which he dug out of the rubbish and brought into the lounge room. ‘Who threw this out?’ he said. ‘Why did you throw it out? It’s a perfectly good box. I could put nuts and bolts in it.’\n\nThe only way the family could throw anything away was to screw it up in newspaper, disguise it and then hide it in the bottom of the bin.\n\nAside from this one giant eccentricity, he was a very loveable man, kind and humorous and optimistic. His father ran a travelling vaudeville show, and performed as a tap dancer and Adrian the Magician, travelling between Melbourne and Adelaide. Vincent was born in 1934 and went on the road with him when he was only a few years old. He hardly went to school and only learned to read and write by puzzling out the connection between images and word balloons in comics.\n\nHis father was also a photographer. He had a booth at Luna Park and at the Zoo, where he posed customers beside the lion cage, concentrating so fiercely he didn't notice when a lion escaped and sat peacefully next to him. Eventually he was killed as a passenger in a head on collision on those lonely border roads.\n\nOnce Vincent settled down and bought a house, he was home with a vengeance.  Each Christmas he would tap dance on the lounge room floor, and sing mournful songs like My Dog Shep and The Boy that Santa Forgot, while he and the littlies wept. They loved it, of course, and so did he as tears streamed down his face. Fran is proud that the men in her family could cry in public.\n\nAs she remembers, ‘We were a pretty poor family and didn’t have holidays but we would get up very early in the morning and travel through the Victorian countryside looking for anything to do with horses. Dad would go and knock on the doors of houses so he could look in old sheds. He would come back to the car and say, “Irene, come inside and have a cup of tea” and the old lady would give us scones and Dad would organise to buy a horse-drawn vehicle.\n\nOne day, ‘He goes up to some sheds and comes racing out with his arms going backwards and forwards and he is running like crazy. He was shouting, “Put your heads down” and jumped into the car and we heard a shotgun firing.’\n\nHe put his growing pile of carts and carriages into the back yard, and there they stayed until his dying day. He was very good at swapping, and eventually traded a collection of clocks and four piano box buggies for an enclosed and restored brougham, which he re-upholstered to take Fran to her wedding.\n\nBut his collection grew and grew. He filled the two car garage. He built a new bedroom on the back and then filled that. Eventually he had nine sheds in the back yard, and resorted to filling all his own clapped out and hoarded cars so they sat in a colony at the front of the house.\n\nThen Fran figured her parents needed a computer, partly because her mother was a typist. Instead, Vincent took it over and discovered eBay. From then on, he was swapping and buying on an international scale. Fran bought Irene her own computer.\n\nSeven years ago he developed lung cancer, was treated and had an operation which didn’t seem to work. The doctors gave him at most a couple of months to live. He demanded more treatment, they said it would kill him and he had the pleasure of shouting at surgeons, pointing out he was going to die anyway. They surrendered and he lived another four years.\n\nWhen he went in for radiotherapy his kids would gather around and sing the old vaudeville songs (not the really sad ones) while his wife Irene stood in the corridor, too embarrassed to stay.\n\nAs technology moved on and time took its toll on old stuff, the junk became a collection and became more valuable. Vincent was careful and ordered, so he had some unknown rules of storage, and kept everything meticulously protected from decay. Once he died, they had an enormous amount of stuff which could be turned into cash, given that Irene didn’t have any money on account of her husband kept buying things although she loved him a lot because he was otherwise the best of men.\n\nHe bought old cans of film which sometimes had random bits from other productions, which is why Fran discovered his (unused) pornography collection. A local porn producer bought what seems to be the earliest skinflick made in Australia.\n\nWhen they opened the doors to the nine sheds they were confronted with a wall of boxes. It was not possible to step into each room, or know what was inside. Even shutting the doors was hard because the contents bulged out. Deep in one of the sheds they found the brougham, trapped for decades.\n\nOne of Fran’s three brothers was determined to throw it all into skips, and they did indeed dispose of the crappiest material, like the chocolate boxes he intercepted on the way to the bin. But Fran is a practical and interesting woman in her own right - an art teacher in primary school who insisted her kids learnt practical technique and was enchanted when they recognised they could draw something that recreated what they saw.\n\nShe devised an order of disposal, which became a three year journey so overwhelming she sometimes broke down and cried. They organised a sale at a country showgrounds with a professional auctioneer for the horse stuff, which was definitely valuable. Fran figured that would create some space so they could manoever the rest, but discovered that Vincent had packed the interiors and underside of the carts as well. They were wedged solid next to each other. It took months to simply pull them out and onto trucks.\n\nThey dragged everything out of the long shed which extended down the side of the house and into the back yard, and discovered that Vincent had built it with a lot of asbestos. All the money from the auction went to dispose of it.\n\nThere was an obvious mad side to Vincent, though he was also a wise collector. Film footage is said to be heading for the National Film and Sound Archive and ACMI went through the material before the sale. The museum acquired what it calls ‘quite a few boxes of material’ which is still being catalogued, and includes film and objects.\n\nThe family had an argument over Vincent’s epitaph. He insisted on the words, ‘Here today and still here tomorrow’ which is a backhanded tribute to his religion but can be applied to the impact of his strange collections.\n\nHis family expressed their love, and then added another two words.\n\nDance on.\n\nFIRST PUBLISHED ON THURSDAY 19 APRIL, 2018\"", "biography_author": null, "date_of_biography": "2024-04-17T04:06:30.141176+10:00", "external_links": [], "uuid": "c4bd99e3-62c6-4cc6-8aba-f7deafcb662b", "source": {"name": "Vernon", "slug": "vernon"}, "source_identifier": "38925", "external_references": [], "date_modified": "2024-04-17T04:06:30.141425+10:00"}, {"id": 82093, "name": "Kirsty Sword Gusmão", "roles_in_work": [{"id": 2058106, "title": "[Kirsty Sword Gusmão Film Collection]", "work_id": 114452, "role": "creator", "role_id": 968, "is_primary": true}], "also_known_as": "", "date_of_birth": "", "date_of_death": "", "genders": [], "languages": [], "places_of_operation": [], "biography": "", "biography_author": null, "date_of_biography": "2023-05-09T10:52:23.183817+10:00", "external_links": [], "uuid": "bdb88739-48e7-4feb-a652-bffd750bc49b", "source": {"name": "Vernon", "slug": "vernon"}, "source_identifier": "38645", "external_references": [], "date_modified": "2023-06-14T16:33:30.576250+10:00"}, {"id": 82092, "name": "Douglas Wilson", "roles_in_work": [{"id": 2051586, "title": "[Douglas Wilson Home Movies: Reel 5]", "work_id": 117734, "role": "creator", "role_id": 968, "is_primary": true}, {"id": 2051574, "title": "[Douglas Wilson Home Movies: Reel 2]", "work_id": 114447, "role": "creator", "role_id": 968, "is_primary": true}, {"id": 2051583, "title": "[Douglas Wilson Home Movies: Reel 4]", "work_id": 114449, "role": "creator", "role_id": 968, "is_primary": true}, {"id": 2051588, "title": "[Douglas Wilson Home Movie Collection]", "work_id": 119152, "role": "creator", "role_id": 968, "is_primary": true}, {"id": 2051604, "title": "[Douglas Wilson Home Movies: Reel 3]", "work_id": 114448, "role": "creator", "role_id": 968, "is_primary": true}, {"id": 2051570, "title": "[Douglas Wilson Home Movies: Reel 1]", "work_id": 114446, "role": "creator", "role_id": 968, "is_primary": true}], "also_known_as": "", "date_of_birth": "", "date_of_death": "", "genders": [], "languages": [], "places_of_operation": [], "biography": "", "biography_author": null, "date_of_biography": "2023-05-09T10:01:13.164703+10:00", "external_links": [], "uuid": "47eef15b-7aed-49e7-b351-e0bb99b3d357", "source": {"name": "Vernon", "slug": "vernon"}, "source_identifier": "38881", "external_references": [], "date_modified": "2023-06-14T16:33:30.576250+10:00"}, {"id": 82091, "name": "Ditmar", "roles_in_work": [{"id": 2686154, "title": "16mm projector", "work_id": 99430, "role": "manufacturer", "role_id": 627, "is_primary": true}], "also_known_as": "", "date_of_birth": "1840", "date_of_death": "", "genders": [], "languages": [], "places_of_operation": [], "biography": "", "biography_author": null, "date_of_biography": "2023-05-09T11:19:48.762714+10:00", "external_links": [], "uuid": "0d3e9b8d-53c9-42f0-af5c-416ef5ce745f", "source": {"name": "Vernon", "slug": "vernon"}, "source_identifier": "39173", "external_references": [], "date_modified": "2025-03-11T12:14:22.633475+11:00"}, {"id": 82090, "name": "Jesse Taylorsmith", "roles_in_work": [{"id": 2686419, "title": "[Remix: Transport]", "work_id": 119318, "role": "creator", "role_id": 968, "is_primary": true}, {"id": 2047562, "title": "Unpacking Filmscapes - The Coloured Sky: New Women II", "work_id": 117471, "role": "camera operator", "role_id": 931, "is_primary": false}, {"id": 2091682, "title": "An Interview with Gillian Armstrong", "work_id": 117688, "role": "camera operator", "role_id": 931, "is_primary": false}, {"id": 2307464, "title": "Spectacle Director Showcase: Leo Baker", "work_id": 117448, "role": "camera operator", "role_id": 931, "is_primary": false}, {"id": 2307507, "title": "Spectacle Talks: Hello Flux Panel Discussion", "work_id": 117431, "role": "camera operator", "role_id": 931, "is_primary": false}, {"id": 2047288, "title": "Hollywood Costume: What is Costume Design? with Prof. D. Nadoolman Landis", "work_id": 117425, "role": "camera operator", "role_id": 931, "is_primary": false}, {"id": 2660417, "title": "Hollywood Costume. Inside the wardrobe: panel discussion", "work_id": 117384, "role": "camera operator", "role_id": 931, "is_primary": false}, {"id": 3112124, "title": "[John Anderson Home Movies: Reel 4 and Reel 5] [excerpts]", "work_id": 117832, "role": "editor", "role_id": 918, "is_primary": true}, {"id": 2508711, "title": "[KenRa Films Present: the Kenneth Rankine Home Movie Collection: Reel 17. Olympic Pool 1943]  [excerpt]", "work_id": 114431, "role": "editor", "role_id": 918, "is_primary": true}, {"id": 2508695, "title": "[KenRa Films Present Kenneth Rankine Home Movie Collection: Reel 12. Car Racing] [excerpt]", "work_id": 114416, "role": "editor", "role_id": 918, "is_primary": true}, {"id": 2201543, "title": "DreamWorks Animation Masterclass: Jason Schleifer", "work_id": 117457, "role": "editor", "role_id": 918, "is_primary": true}, {"id": 2201952, "title": "DreamWorks Animation Masterclass: Christophe Lautrette", "work_id": 117456, "role": "editor", "role_id": 918, "is_primary": true}, {"id": 2201538, "title": "DreamWorks Animation Masterclass: Doug Cooper", "work_id": 117455, "role": "editor", "role_id": 918, "is_primary": true}, {"id": 2201954, "title": "DreamWorks Animation Masterclass: Kendal Cronkhite", "work_id": 117458, "role": "editor", "role_id": 918, "is_primary": true}, {"id": 2096229, "title": "Angelica Mesiti: The Calling interview", "work_id": 117451, "role": "editor", "role_id": 918, "is_primary": true}, {"id": 2047561, "title": "Unpacking Filmscapes - The Coloured Sky: New Women II", "work_id": 117471, "role": "editor", "role_id": 918, "is_primary": true}, {"id": 3111425, "title": "[Charles Hayes Home Movies: Reel 3. Moomba 1964] [excerpt]", "work_id": 117831, "role": "editor", "role_id": 918, "is_primary": true}, {"id": 2307469, "title": "Spectacle Director Showcase: Leo Baker", "work_id": 117448, "role": "sound", "role_id": 952, "is_primary": false}, {"id": 2307517, "title": "Spectacle Talks: Hello Flux Panel Discussion", "work_id": 117431, "role": "sound", "role_id": 952, "is_primary": false}, {"id": 2047563, "title": "Unpacking Filmscapes - The Coloured Sky: New Women II", "work_id": 117471, "role": "sound", "role_id": 952, "is_primary": false}], "also_known_as": "", "date_of_birth": "", "date_of_death": "", "genders": [], "languages": [], "places_of_operation": [], "biography": "", "biography_author": null, "date_of_biography": "2023-08-02T10:17:01.059056+10:00", "external_links": [], "uuid": "e99edb89-b76a-4b7e-a042-586335e651e1", "source": {"name": "Vernon", "slug": "vernon"}, "source_identifier": "37005", "external_references": [{"id": 35897, "source": {"name": "Wikidata", "slug": "wikidata"}, "source_identifier": "Q121144108"}], "date_modified": "2026-04-16T17:40:46.526538+10:00"}, {"id": 82089, "name": "Kenneth Rankine", "roles_in_work": [{"id": 2508700, "title": "[KenRa Films Present: the Kenneth Rankine Home Movie Collection: Reel 6]", "work_id": 114421, "role": "creator", "role_id": 968, "is_primary": true}, {"id": 2508701, "title": "[KenRa Films Present: the Kenneth Rankine Home Movie Collection: Reel 7]", "work_id": 114422, "role": "creator", "role_id": 968, "is_primary": true}, {"id": 2508702, "title": "[KenRa Films Present: the Kenneth Rankine Home Movie Collection: Reel 8]", "work_id": 114423, "role": "creator", "role_id": 968, "is_primary": true}, {"id": 2508703, "title": "[KenRa Films Present: the Kenneth Rankine Home Movie Collection: Reel 9]", "work_id": 114424, "role": "creator", "role_id": 968, "is_primary": true}, {"id": 2508704, "title": "[KenRa Films Present: the Kenneth Rankine Home Movie Collection: Reel 10]", "work_id": 114425, "role": "creator", "role_id": 968, "is_primary": true}, {"id": 2508705, "title": "[KenRa Films Present: the Kenneth Rankine Home Movie Collection: Reel 11]", "work_id": 114426, "role": "creator", "role_id": 968, "is_primary": true}, {"id": 2508706, "title": "[KenRa Films Present: the Kenneth Rankine Home Movie Collection: Reel 12]", "work_id": 114427, "role": "creator", "role_id": 968, "is_primary": true}, {"id": 2508707, "title": "[KenRa Films Present: the Kenneth Rankine Home Movie Collection: Reel 13]", "work_id": 114428, "role": "creator", "role_id": 968, "is_primary": true}, {"id": 2508709, "title": "[KenRa Films Present: the Kenneth Rankine Home Movie Collection: Reel 15]", "work_id": 114430, "role": "creator", "role_id": 968, "is_primary": true}, {"id": 2508710, "title": "[KenRa Films Present: the Kenneth Rankine Home Movie Collection: Reel 17. Olympic Pool 1943]  [excerpt]", "work_id": 114431, "role": "creator", "role_id": 968, "is_primary": true}, {"id": 2508712, "title": "[KenRa Films Present: the Kenneth Rankine Home Movie Collection: Reel 17]", "work_id": 114432, "role": "creator", "role_id": 968, "is_primary": true}, {"id": 2508713, "title": "[KenRa Films Present: the Kenneth Rankine Home Movie Collection: Reel 18]", "work_id": 114433, "role": "creator", "role_id": 968, "is_primary": true}, {"id": 2508715, "title": "[KenRa Films Present: the Kenneth Rankine Home Movie Collection: Reel 21]", "work_id": 114436, "role": "creator", "role_id": 968, "is_primary": true}, {"id": 2508716, "title": "[KenRa Films Present: the Kenneth Rankine Home Movie Collection: Reel 23]", "work_id": 114437, "role": "creator", "role_id": 968, "is_primary": true}, {"id": 2508717, "title": "[KenRa Films Present: the Kenneth Rankine Home Movie Collection: Reel 25]", "work_id": 114438, "role": "creator", "role_id": 968, "is_primary": true}, {"id": 2508718, "title": "[KenRa Films Present: the Kenneth Rankine Home Movie Collection: Reel 28]", "work_id": 114439, "role": "creator", "role_id": 968, "is_primary": true}, {"id": 2508720, "title": "[KenRa Films Present: the Kenneth Rankine Home Movie Collection: Reel 31]", "work_id": 114440, "role": "creator", "role_id": 968, "is_primary": true}, {"id": 2508721, "title": "[KenRa Films Present: the Kenneth Rankine Home Movie Collection: Reel 32]", "work_id": 114441, "role": "creator", "role_id": 968, "is_primary": true}, {"id": 2508722, "title": "[KenRa Films Present: the Kenneth Rankine Home Movie Collection: Reel 33]", "work_id": 114442, "role": "creator", "role_id": 968, "is_primary": true}, {"id": 2508723, "title": "[KenRa Films Present: the Kenneth Rankine Home Movie Collection: Reel 34]", "work_id": 114443, "role": "creator", "role_id": 968, "is_primary": true}, {"id": 2508724, "title": "[KenRa Films Present: the Kenneth Rankine Home Movie Collection: Reel 35]", "work_id": 114444, "role": "creator", "role_id": 968, "is_primary": true}, {"id": 2508725, "title": "KenRa Films Presents: Join the Vic. Sporting Car Club Now", "work_id": 119636, "role": "creator", "role_id": 968, "is_primary": true}, {"id": 2508726, "title": "[KenRa Films Present: the Kenneth Rankine Home Movie Collection: Reel 37]", "work_id": 114445, "role": "creator", "role_id": 968, "is_primary": true}, {"id": 2508727, "title": "[KenRa Films Present: the Kenneth Rankine Home Movie Collection]", "work_id": 114415, "role": "creator", "role_id": 968, "is_primary": true}, {"id": 2508728, "title": "[KenRa Films Present: the Kenneth Rankine Home Movie Collection: Reel 19]", "work_id": 114434, "role": "creator", "role_id": 968, "is_primary": true}, {"id": 2508930, "title": "Patsy Comes To Stay", "work_id": 119291, "role": "creator", "role_id": 968, "is_primary": true}, {"id": 2508931, "title": "[KenRa Films Present: the Kenneth Rankine Home Movie Collection: Reel 29]", "work_id": 119292, "role": "creator", "role_id": 968, "is_primary": true}, {"id": 2508708, "title": "[KenRa Films Present: the Kenneth Rankine Home Movie Collection: Reel 14]", "work_id": 114429, "role": "creator", "role_id": 968, "is_primary": true}, {"id": 2508689, "title": "Hubby gets a Hobby", "work_id": 119632, "role": "creator", "role_id": 968, "is_primary": true}, {"id": 2508694, "title": "[KenRa Films Present Kenneth Rankine Home Movie Collection: Reel 12. Car Racing] [excerpt]", "work_id": 114416, "role": "creator", "role_id": 968, "is_primary": true}, {"id": 2508696, "title": "[KenRa Films Present: the Kenneth Rankine Home Movie Collection: Reel 1]", "work_id": 114417, "role": "creator", "role_id": 968, "is_primary": true}, {"id": 2508697, "title": "[KenRa Films Present: the Kenneth Rankine Home Movie Collection: Reel 2]", "work_id": 114418, "role": "creator", "role_id": 968, "is_primary": true}, {"id": 2508698, "title": "[KenRa Films Present: the Kenneth Rankine Home Movie Collection: Reel 3]", "work_id": 114419, "role": "creator", "role_id": 968, "is_primary": true}, {"id": 2508699, "title": "[KenRa Films Present: the Kenneth Rankine Home Movie Collection: Reel 5]", "work_id": 114420, "role": "creator", "role_id": 968, "is_primary": true}], "also_known_as": "", "date_of_birth": "11 SEP 1890", "date_of_death": "20 DEC 1968", "genders": [], "languages": [], "places_of_operation": [], "biography": "Kenneth Carruthers Rankine (1890 - 1968) was a keen amateur cinematographer and filmmaker. His collection of his amateur movies has been donated to ACMI by Kenneth's granddaughter in August 2016. Ken lived in Caulfield, complete with a separate movie studio behind the house.\n\nWith a flourish of professionalism “KenRa Films Present” is the custom-made title that introduces many of his films. The collection is comprises 23 cans of colour,silent, 16mm film.\n\nKen’s subjects include: car racing, swimming pools, gardens, Victorian and interstate holidays, beauty pageants, workings of a shipping port, water skiing and Royal visits. \n\nNotably one of his films came third in a Western Australian amateur film competition - “Every Man Should Have A Hobby” a fictional narrative of a man pursuing his secret hobby of filmmaking.", "biography_author": null, "date_of_biography": "2024-01-17T03:55:26.980703+11:00", "external_links": [], "uuid": "4338ea09-7f13-4490-8596-5811c9ae6498", "source": {"name": "Vernon", "slug": "vernon"}, "source_identifier": "38765", "external_references": [], "date_modified": "2024-01-17T03:55:26.980927+11:00"}, {"id": 82088, "name": "George Shevtsov", "roles_in_work": [{"id": 2720052, "title": "Miss Fisher's Murder Mysteries: Murder Under the Mistletoe (Series 02. Ep. 13)", "work_id": 114407, "role": "cast", "role_id": 33, "is_primary": false}], "also_known_as": "", "date_of_birth": "", "date_of_death": "", "genders": [], "languages": [], "places_of_operation": [], "biography": "", "biography_author": null, "date_of_biography": "2023-05-09T14:13:06.749629+10:00", "external_links": [], "uuid": "8f4e15d6-6294-42c1-9ce5-7b474987c05b", "source": {"name": "Vernon", "slug": "vernon"}, "source_identifier": "38402", "external_references": [{"id": 37092, "source": {"name": "Wikidata", "slug": "wikidata"}, "source_identifier": "Q121035166"}], "date_modified": "2025-03-12T07:07:54.782609+11:00"}, {"id": 82087, "name": "Marco Chiappi", "roles_in_work": [{"id": 2720006, "title": "Miss Fisher's Murder Mysteries: Dead Air (Series 02. Ep. 11)", "work_id": 114406, "role": "cast", "role_id": 33, "is_primary": false}], "also_known_as": "", "date_of_birth": "", "date_of_death": "", "genders": [], "languages": [], "places_of_operation": [], "biography": "", "biography_author": null, "date_of_biography": "2023-05-09T14:13:18.385921+10:00", "external_links": [], "uuid": "ba105d45-6f0d-43cc-9131-f176f0474b6b", "source": {"name": "Vernon", "slug": "vernon"}, "source_identifier": "38396", "external_references": [{"id": 41485, "source": {"name": "Wikidata", "slug": "wikidata"}, "source_identifier": "Q121144056"}], "date_modified": "2025-03-12T07:07:42.428799+11:00"}, {"id": 82086, "name": "Rhys Muldoon", "roles_in_work": [{"id": 2720004, "title": "Miss Fisher's Murder Mysteries: Dead Air (Series 02. Ep. 11)", "work_id": 114406, "role": "cast", "role_id": 33, "is_primary": false}], "also_known_as": "", "date_of_birth": "", "date_of_death": "", "genders": [], "languages": [], "places_of_operation": [], "biography": "", "biography_author": null, "date_of_biography": "2023-05-09T14:13:18.134800+10:00", "external_links": [], "uuid": "8d616b0a-830d-47f6-b926-e0f522f4767d", "source": {"name": "Vernon", "slug": "vernon"}, "source_identifier": "38395", "external_references": [{"id": 36417, "source": {"name": "Wikidata", "slug": "wikidata"}, "source_identifier": "Q121034476"}], "date_modified": "2025-03-12T07:07:41.811224+11:00"}, {"id": 82085, "name": "Abbe Holmes", "roles_in_work": [{"id": 2720036, "title": "Miss Fisher's Murder Mysteries: Murder on the Ballarat train  (Series 01. Ep. 02)", "work_id": 114405, "role": "cast", "role_id": 33, "is_primary": false}], "also_known_as": "", "date_of_birth": "", "date_of_death": "", "genders": [], "languages": [], "places_of_operation": [], "biography": "", "biography_author": null, "date_of_biography": "2023-05-09T14:13:11.455222+10:00", "external_links": [], "uuid": "6702e28b-4203-433c-8c92-f1f746a905d8", "source": {"name": "Vernon", "slug": "vernon"}, "source_identifier": "38389", "external_references": [{"id": 36321, "source": {"name": "Wikidata", "slug": "wikidata"}, "source_identifier": "Q121035737"}], "date_modified": "2025-03-12T07:07:49.855243+11:00"}]}