{"count": 28683, "next": "https://api.acmi.net.au/creators/?page=151", "previous": "https://api.acmi.net.au/creators/?page=149", "results": [{"id": 84103, "name": "A E Jeakins", "roles_in_work": [{"id": 2660488, "title": "Island people", "work_id": 117397, "role": "cinematographer", "role_id": 32, "is_primary": false}], "also_known_as": "", "date_of_birth": null, "date_of_death": null, "genders": [], "languages": [], "places_of_operation": [], "biography": "", "biography_author": null, "date_of_biography": null, "external_links": [], "uuid": "bd456737-a7c4-4696-aa4c-193fc3dff21a", "source": {"name": "Vernon", "slug": "vernon"}, "source_identifier": "37092", "external_references": [{"id": 42384, "source": {"name": "Wikidata", "slug": "wikidata"}, "source_identifier": "Q121160075"}], "date_modified": "2025-03-05T19:56:01.728827+11:00"}, {"id": 84102, "name": "Realist Film Unit (Great Britain)", "roles_in_work": [{"id": 2660485, "title": "Island people", "work_id": 117397, "role": "production company", "role_id": 941, "is_primary": true}], "also_known_as": "", "date_of_birth": null, "date_of_death": null, "genders": [], "languages": [], "places_of_operation": [], "biography": "", "biography_author": null, "date_of_biography": null, "external_links": [], "uuid": "9fc30ef9-cc87-4e62-bc33-1ad74e913bf0", "source": {"name": "Vernon", "slug": "vernon"}, "source_identifier": "37091", "external_references": [{"id": 40008, "source": {"name": "Wikidata", "slug": "wikidata"}, "source_identifier": "Q121222853"}], "date_modified": "2025-03-05T19:55:59.949071+11:00"}, {"id": 84101, "name": "Nikki Rose", "roles_in_work": [{"id": 2718848, "title": "The Race", "work_id": 117396, "role": "producer", "role_id": 1089, "is_primary": true}], "also_known_as": "", "date_of_birth": "", "date_of_death": "", "genders": [], "languages": [], "places_of_operation": [], "biography": "", "biography_author": null, "date_of_biography": "2023-05-09T19:30:04.358234+10:00", "external_links": [], "uuid": "c32c2922-f5d9-4b5e-9a6a-4df354183d42", "source": {"name": "Vernon", "slug": "vernon"}, "source_identifier": "37243", "external_references": [{"id": 41864, "source": {"name": "Wikidata", "slug": "wikidata"}, "source_identifier": "Q121315155"}], "date_modified": "2025-03-12T06:42:42.204375+11:00"}, {"id": 84100, "name": "Kinetoscope Productions", "roles_in_work": [{"id": 2718843, "title": "The Race", "work_id": 117396, "role": "production company", "role_id": 941, "is_primary": true}], "also_known_as": "", "date_of_birth": "", "date_of_death": "", "genders": [], "languages": [], "places_of_operation": [], "biography": "", "biography_author": null, "date_of_biography": "2023-05-09T19:30:04.138598+10:00", "external_links": [], "uuid": "bc3211ab-89ca-4918-bdf1-2019713636d1", "source": {"name": "Vernon", "slug": "vernon"}, "source_identifier": "37242", "external_references": [{"id": 36619, "source": {"name": "Wikidata", "slug": "wikidata"}, "source_identifier": "Q121086157"}], "date_modified": "2025-03-12T06:42:40.283358+11:00"}, {"id": 84099, "name": "Kenneth Mitchell", "roles_in_work": [{"id": 2718770, "title": "One Man's Walk", "work_id": 117395, "role": "creator", "role_id": 968, "is_primary": true}], "also_known_as": "", "date_of_birth": "", "date_of_death": "", "genders": [], "languages": [], "places_of_operation": [], "biography": "", "biography_author": null, "date_of_biography": "2023-05-09T19:29:56.498713+10:00", "external_links": [], "uuid": "4e3b8b3c-776c-40f3-b788-b807fa9c37b9", "source": {"name": "Vernon", "slug": "vernon"}, "source_identifier": "37221", "external_references": [], "date_modified": "2025-03-12T06:40:25.391628+11:00"}, {"id": 84098, "name": "Steve Byrne", "roles_in_work": [{"id": 2718767, "title": "One Man's Walk", "work_id": 117395, "role": "executive producer", "role_id": 916, "is_primary": false}], "also_known_as": "", "date_of_birth": "", "date_of_death": "", "genders": [], "languages": [], "places_of_operation": [], "biography": "", "biography_author": null, "date_of_biography": "2023-05-09T19:29:56.284141+10:00", "external_links": [], "uuid": "6125f63a-ec92-4edf-804b-0484ad538ede", "source": {"name": "Vernon", "slug": "vernon"}, "source_identifier": "37220", "external_references": [], "date_modified": "2025-03-12T06:40:17.535040+11:00"}, {"id": 84097, "name": "Interplay Theatre", "roles_in_work": [{"id": 2718765, "title": "One Man's Walk", "work_id": 117395, "role": "production company", "role_id": 941, "is_primary": true}], "also_known_as": "", "date_of_birth": "", "date_of_death": "", "genders": [], "languages": [], "places_of_operation": [], "biography": "", "biography_author": null, "date_of_biography": "2023-05-09T19:29:56.068389+10:00", "external_links": [], "uuid": "14dca388-9621-46b4-8935-1cde059b5559", "source": {"name": "Vernon", "slug": "vernon"}, "source_identifier": "37219", "external_references": [{"id": 33451, "source": {"name": "Wikidata", "slug": "wikidata"}, "source_identifier": "Q121314964"}], "date_modified": "2025-03-12T06:40:12.786846+11:00"}, {"id": 84096, "name": "Chloe Petite", "roles_in_work": [{"id": 2718730, "title": "A Mile in our Shoes", "work_id": 117394, "role": "photographer", "role_id": 440, "is_primary": false}], "also_known_as": "", "date_of_birth": "", "date_of_death": "", "genders": [], "languages": [], "places_of_operation": [], "biography": "", "biography_author": null, "date_of_biography": "2023-05-09T19:29:50.259172+10:00", "external_links": [], "uuid": "1b437912-b184-4abd-bcf2-c1c85ac7c9ad", "source": {"name": "Vernon", "slug": "vernon"}, "source_identifier": "37209", "external_references": [], "date_modified": "2025-03-12T06:39:08.988958+11:00"}, {"id": 84095, "name": "Sarah Mortimer", "roles_in_work": [{"id": 2718728, "title": "A Mile in our Shoes", "work_id": 117394, "role": "editor", "role_id": 918, "is_primary": true}], "also_known_as": "", "date_of_birth": "", "date_of_death": "", "genders": [], "languages": [], "places_of_operation": [], "biography": "", "biography_author": null, "date_of_biography": "2023-05-09T19:29:50.024587+10:00", "external_links": [], "uuid": "bd38456d-4d98-4569-98b1-dd55a28a28fd", "source": {"name": "Vernon", "slug": "vernon"}, "source_identifier": "37208", "external_references": [{"id": 35888, "source": {"name": "Wikidata", "slug": "wikidata"}, "source_identifier": "Q121299126"}], "date_modified": "2025-03-12T06:39:04.317657+11:00"}, {"id": 84094, "name": "Daniel Walker", "roles_in_work": [{"id": 2718727, "title": "A Mile in our Shoes", "work_id": 117394, "role": "director", "role_id": 938, "is_primary": true}], "also_known_as": "", "date_of_birth": "", "date_of_death": "", "genders": [], "languages": [], "places_of_operation": [], "biography": "", "biography_author": null, "date_of_biography": "2023-05-09T19:29:49.800498+10:00", "external_links": [], "uuid": "5a6291aa-f0be-498b-849a-bbcd7ffe3599", "source": {"name": "Vernon", "slug": "vernon"}, "source_identifier": "37207", "external_references": [{"id": 41138, "source": {"name": "Wikidata", "slug": "wikidata"}, "source_identifier": "Q121337641"}], "date_modified": "2025-03-12T06:39:00.763507+11:00"}]}