{"count": 28681, "next": "https://api.acmi.net.au/creators/?page=1690", "previous": "https://api.acmi.net.au/creators/?page=1688", "results": [{"id": 28859, "name": "Emile Ardolino", "roles_in_work": [{"id": 2193937, "title": "Dirty dancing", "work_id": 86899, "role": "director", "role_id": 938, "is_primary": true}], "also_known_as": "", "date_of_birth": "1943-05-09", "date_of_death": "1993-11-20", "genders": [{"id": 9, "name": "Male", "slug": "male"}], "languages": [{"id": 1, "name": "English", "slug": "english"}], "places_of_operation": [{"id": 1, "name": "United States of America", "slug": "united-states-of-america"}], "biography": "Emile Ardolino (May 9, 1943 – November 20, 1993) was an American film director, choreographer, and producer, best known for his films Dirty Dancing (1987) and Sister Act (1992).\n\n", "biography_author": "Wikidata", "date_of_biography": "2022-05-19T11:24:11.991345+10:00", "external_links": [{"id": 2001, "uri": "https://en.wikipedia.org/wiki/Emile_Ardolino"}], "uuid": "faa1aefe-766b-44e0-bd74-40f19f453cf2", "source": {"name": "Vernon", "slug": "vernon"}, "source_identifier": "18760", "external_references": [{"id": 8652, "source": {"name": "Wikidata", "slug": "wikidata"}, "source_identifier": "Q490198"}, {"id": 8653, "source": {"name": "VIAF", "slug": "viaf"}, "source_identifier": "79170544"}, {"id": 8654, "source": {"name": "LOC Auth", "slug": "loc-auth"}, "source_identifier": "n87838419"}, {"id": 8655, "source": {"name": "WorldCat", "slug": "worldcat"}, "source_identifier": "lccn-n87838419"}], "date_modified": "2023-09-13T12:29:16.798083+10:00"}, {"id": 28858, "name": "Phil Roman", "roles_in_work": [{"id": 2305471, "title": "Someday you'll find her, Charlie Brown. It's your first kiss, Charlie Brown.", "work_id": 86898, "role": "director", "role_id": 938, "is_primary": true}], "also_known_as": "", "date_of_birth": "", "date_of_death": "", "genders": [], "languages": [], "places_of_operation": [], "biography": "", "biography_author": null, "date_of_biography": "2023-05-09T18:44:13.856277+10:00", "external_links": [], "uuid": "ce1bb48d-3d53-411d-93a0-f176ddad67dd", "source": {"name": "Vernon", "slug": "vernon"}, "source_identifier": "26794", "external_references": [], "date_modified": "2023-06-14T16:33:30.576250+10:00"}, {"id": 28857, "name": "United Feature Syndicate", "roles_in_work": [{"id": 2305467, "title": "Someday you'll find her, Charlie Brown. It's your first kiss, Charlie Brown.", "work_id": 86898, "role": "production company", "role_id": 941, "is_primary": true}], "also_known_as": "", "date_of_birth": "", "date_of_death": "", "genders": [], "languages": [], "places_of_operation": [], "biography": "", "biography_author": null, "date_of_biography": "2023-05-09T18:44:13.618885+10:00", "external_links": [], "uuid": "2e9142c5-1131-40c3-aa99-3b71479b04ac", "source": {"name": "Vernon", "slug": "vernon"}, "source_identifier": "13855", "external_references": [], "date_modified": "2023-06-14T16:33:30.576250+10:00"}, {"id": 28853, "name": "European Broadcasting Union", "roles_in_work": [{"id": 2794101, "title": "Planet Earth", "work_id": 115490, "role": "production company", "role_id": 941, "is_primary": true}, {"id": 2794089, "title": "Weather & climate - precipitation", "work_id": 86891, "role": "production company", "role_id": 941, "is_primary": true}, {"id": 2794079, "title": "Weather & climate : temperature", "work_id": 86893, "role": "production company", "role_id": 941, "is_primary": true}, {"id": 2794072, "title": "Tectonics", "work_id": 86894, "role": "production company", "role_id": 941, "is_primary": true}], "also_known_as": "", "date_of_birth": "", "date_of_death": "", "genders": [], "languages": [], "places_of_operation": [], "biography": "The European Broadcasting Union (EBU; French: Union européenne de radio-télévision, UER) is an alliance of public service media organisations whose countries are within the European Broadcasting Area or who are members of the Council of Europe. As of 2022, it is made up of 112 member organizations from 54 countries, and 30 associate members from a further 19 countries. It was established in 1950, and has its administrative headquarters in Geneva and technical office in Brussels.\nThe EBU owns and operates the Eurovision and Euroradio telecommunications networks on which major television and radio broadcasts are distributed live to its members. It also operates the daily Eurovision news exchange in which members share breaking news footage. In 2017, the EBU launched the Eurovision Social Newswire, an eyewitness and video verification service. Led by Head of Social Newsgathering, Derek Bowler, the service provides members of the EBU with verified and cleared-for-use newsworthy eyewitness media emerging on social media.The EBU, in co-operation with its members, produces programmes and organizes events in which its members can participate, such as the Eurovision Song Contest, its best known production, or the Eurovision Debates between candidates for president of the European Commission for the 2014 and 2019 parliamentary elections. The Director-General is Noel Curran since 2017.\n\n", "biography_author": "Wikidata", "date_of_biography": "2023-09-05T19:37:58.161498+10:00", "external_links": [{"id": 5806, "uri": "https://en.wikipedia.org/wiki/European_Broadcasting_Union"}], "uuid": "dd9cb84a-6e9f-4995-9ce0-88326dd63554", "source": {"name": "Vernon", "slug": "vernon"}, "source_identifier": "8004", "external_references": [{"id": 50993, "source": {"name": "Wikidata", "slug": "wikidata"}, "source_identifier": "Q166400"}, {"id": 54404, "source": {"name": "VIAF", "slug": "viaf"}, "source_identifier": "153573117"}, {"id": 54405, "source": {"name": "LOC Auth", "slug": "loc-auth"}, "source_identifier": "n80051882"}, {"id": 54406, "source": {"name": "WorldCat", "slug": "worldcat"}, "source_identifier": "lccn-n80051882"}], "date_modified": "2025-03-14T20:22:30.861884+11:00"}, {"id": 28849, "name": "Monkey See Productions", "roles_in_work": [{"id": 2616252, "title": "Me depressed?: don't make me laugh", "work_id": 86889, "role": "distributor", "role_id": 437, "is_primary": false}, {"id": 906225, "title": "I Think they think: overcoming social phobia", "work_id": 86890, "role": "distributor", "role_id": 437, "is_primary": false}, {"id": 2239235, "title": "Fight or flight : overcoming panic and agoraphobia", "work_id": 86888, "role": "distributor", "role_id": 437, "is_primary": false}, {"id": 2616254, "title": "Me depressed?: don't make me laugh", "work_id": 86889, "role": "production company", "role_id": 941, "is_primary": true}, {"id": 906226, "title": "I Think they think: overcoming social phobia", "work_id": 86890, "role": "production company", "role_id": 941, "is_primary": true}, {"id": 2239240, "title": "Fight or flight : overcoming panic and agoraphobia", "work_id": 86888, "role": "production company", "role_id": 941, "is_primary": true}], "also_known_as": "", "date_of_birth": "", "date_of_death": "", "genders": [], "languages": [], "places_of_operation": [], "biography": "", "biography_author": null, "date_of_biography": "2023-05-09T16:50:43.635125+10:00", "external_links": [], "uuid": "0b4a578d-6d96-4399-8239-addb88035677", "source": {"name": "Vernon", "slug": "vernon"}, "source_identifier": "10618", "external_references": [{"id": 34830, "source": {"name": "Wikidata", "slug": "wikidata"}, "source_identifier": "Q121271330"}], "date_modified": "2025-02-26T20:40:57.616647+11:00"}, {"id": 28838, "name": "Gibba", "roles_in_work": [{"id": 2616234, "title": "Robinson Crusoe (Gibba)", "work_id": 86877, "role": "director", "role_id": 938, "is_primary": true}], "also_known_as": "", "date_of_birth": "", "date_of_death": "", "genders": [], "languages": [], "places_of_operation": [], "biography": "", "biography_author": null, "date_of_biography": "2023-05-09T17:12:25.457898+10:00", "external_links": [], "uuid": "48792b20-7f9b-400a-bd42-e51a2fcb5aae", "source": {"name": "Vernon", "slug": "vernon"}, "source_identifier": "8724", "external_references": [{"id": 37690, "source": {"name": "Wikidata", "slug": "wikidata"}, "source_identifier": "Q528370"}], "date_modified": "2025-02-26T20:40:44.392455+11:00"}, {"id": 28837, "name": "IFE International", "roles_in_work": [{"id": 2616232, "title": "Robinson Crusoe (Gibba)", "work_id": 86877, "role": "production company", "role_id": 941, "is_primary": true}], "also_known_as": "", "date_of_birth": "", "date_of_death": "", "genders": [], "languages": [], "places_of_operation": [], "biography": "", "biography_author": null, "date_of_biography": "2023-05-09T17:12:25.222646+10:00", "external_links": [], "uuid": "df88b623-76f8-4023-8697-a0849b170ecc", "source": {"name": "Vernon", "slug": "vernon"}, "source_identifier": "9230", "external_references": [{"id": 36477, "source": {"name": "Wikidata", "slug": "wikidata"}, "source_identifier": "Q121126962"}], "date_modified": "2025-02-26T20:40:43.792826+11:00"}, {"id": 28836, "name": "Corona Cinematografica", "roles_in_work": [{"id": 2616230, "title": "Robinson Crusoe (Gibba)", "work_id": 86877, "role": "production company", "role_id": 941, "is_primary": true}], "also_known_as": "", "date_of_birth": "", "date_of_death": "", "genders": [], "languages": [], "places_of_operation": [], "biography": "", "biography_author": null, "date_of_biography": "2023-05-09T17:12:24.990623+10:00", "external_links": [], "uuid": "99183769-5342-40ec-9de0-45db60b9a3d4", "source": {"name": "Vernon", "slug": "vernon"}, "source_identifier": "7062", "external_references": [{"id": 51480, "source": {"name": "Wikidata", "slug": "wikidata"}, "source_identifier": "Q121357840"}], "date_modified": "2025-02-26T20:40:43.168189+11:00"}, {"id": 28835, "name": "Harvig Jensen", "roles_in_work": [{"id": 2415515, "title": "Making pottery. No. 1", "work_id": 86876, "role": "producer", "role_id": 1089, "is_primary": true}], "also_known_as": "", "date_of_birth": "", "date_of_death": "", "genders": [], "languages": [], "places_of_operation": [], "biography": "", "biography_author": null, "date_of_biography": "2023-08-11T19:40:05.343870+10:00", "external_links": [], "uuid": "7ace4780-a871-42ab-86de-921ba200c65d", "source": {"name": "Vernon", "slug": "vernon"}, "source_identifier": "4121", "external_references": [], "date_modified": "2023-08-11T19:40:05.344091+10:00"}, {"id": 28834, "name": "Hartvig Jensen Film Productions", "roles_in_work": [{"id": 2415514, "title": "Making pottery. No. 1", "work_id": 86876, "role": "production company", "role_id": 941, "is_primary": true}], "also_known_as": "", "date_of_birth": "", "date_of_death": "", "genders": [], "languages": [], "places_of_operation": [], "biography": "", "biography_author": null, "date_of_biography": "2023-08-11T19:40:04.693596+10:00", "external_links": [], "uuid": "db439a02-088e-4e46-b728-78c43088b757", "source": {"name": "Vernon", "slug": "vernon"}, "source_identifier": "4124", "external_references": [], "date_modified": "2023-08-11T19:40:04.693898+10:00"}]}