{"count": 28683, "next": "https://api.acmi.net.au/creators/?page=633", "previous": "https://api.acmi.net.au/creators/?page=631", "results": [{"id": 79259, "name": "Muneo Yamada", "roles_in_work": [{"id": 2171913, "title": "Monkey: eps. 4-6", "work_id": 89964, "role": "co-producer", "role_id": 915, "is_primary": true}], "also_known_as": "", "date_of_birth": "", "date_of_death": "", "genders": [], "languages": [], "places_of_operation": [], "biography": "", "biography_author": null, "date_of_biography": "2023-05-09T14:37:21.791534+10:00", "external_links": [], "uuid": "ffb376a0-f70c-425c-ae35-405fbe8bccd4", "source": {"name": "Vernon", "slug": "vernon"}, "source_identifier": "25550", "external_references": [{"id": 34176, "source": {"name": "Wikidata", "slug": "wikidata"}, "source_identifier": "Q121091431"}], "date_modified": "2023-09-05T23:22:46.577028+10:00"}, {"id": 79258, "name": "Tsuneo Hayakawa", "roles_in_work": [{"id": 2171909, "title": "Monkey: eps. 4-6", "work_id": 89964, "role": "co-producer", "role_id": 915, "is_primary": true}], "also_known_as": "", "date_of_birth": "", "date_of_death": "", "genders": [], "languages": [], "places_of_operation": [], "biography": "", "biography_author": null, "date_of_biography": "2023-05-09T14:37:21.544375+10:00", "external_links": [], "uuid": "79a36c0b-8982-43ef-8d22-c157ce8eccd2", "source": {"name": "Vernon", "slug": "vernon"}, "source_identifier": "30003", "external_references": [{"id": 40856, "source": {"name": "Wikidata", "slug": "wikidata"}, "source_identifier": "Q121270815"}], "date_modified": "2023-09-06T01:59:28.774103+10:00"}, {"id": 79257, "name": "Manfred Wong", "roles_in_work": [{"id": 1994208, "title": "The Storm riders = Fung Wan: Hungba Tinha", "work_id": 89961, "role": "co-producer", "role_id": 915, "is_primary": true}], "also_known_as": "王文俊", "date_of_birth": "1957-01-01", "date_of_death": null, "genders": [{"id": 9, "name": "Male", "slug": "male"}], "languages": [], "places_of_operation": [{"id": 290, "name": "People's Republic of China", "slug": "peoples-republic-of-china"}], "biography": "Manfred Wong (Chinese: 王文雋; Wong Man-Chun; born 5 June 1957, in Hong Kong) is a Hong Kong radio personality, film producer, screenwriter, film director and actor. He is best known for his involvement as a writer for the Young and Dangerous film series.", "biography_author": "Wikidata", "date_of_biography": "2022-05-19T12:20:12.905255+10:00", "external_links": [{"id": 2615, "uri": "https://en.wikipedia.org/wiki/Manfred_Wong"}], "uuid": "bff24de5-8ab3-472d-80d4-cca01bf5df7a", "source": {"name": "Vernon", "slug": "vernon"}, "source_identifier": "24253", "external_references": [{"id": 11178, "source": {"name": "Wikidata", "slug": "wikidata"}, "source_identifier": "Q10301318"}, {"id": 11179, "source": {"name": "VIAF", "slug": "viaf"}, "source_identifier": "46969599"}, {"id": 11180, "source": {"name": "WorldCat", "slug": "worldcat"}, "source_identifier": "viaf-46969599"}], "date_modified": "2023-09-05T22:38:24.948653+10:00"}, {"id": 79256, "name": "Li Zhu An", "roles_in_work": [{"id": 1994207, "title": "The Storm riders = Fung Wan: Hungba Tinha", "work_id": 89961, "role": "co-producer", "role_id": 915, "is_primary": true}], "also_known_as": "", "date_of_birth": null, "date_of_death": null, "genders": [], "languages": [], "places_of_operation": [], "biography": "", "biography_author": null, "date_of_biography": null, "external_links": [], "uuid": "6b41d1a9-2f7a-46da-9de4-18ab53fa3ad9", "source": {"name": "Vernon", "slug": "vernon"}, "source_identifier": null, "external_references": [{"id": 35818, "source": {"name": "Wikidata", "slug": "wikidata"}, "source_identifier": "Q121126746"}], "date_modified": "2023-09-05T22:24:20.434201+10:00"}, {"id": 79255, "name": "Martin Melcher", "roles_in_work": [{"id": 2205901, "title": "Pillow talk", "work_id": 89948, "role": "co-producer", "role_id": 915, "is_primary": true}], "also_known_as": "", "date_of_birth": "1915-08-01", "date_of_death": "1968-04-20", "genders": [{"id": 9, "name": "Male", "slug": "male"}], "languages": [], "places_of_operation": [{"id": 1, "name": "United States of America", "slug": "united-states-of-america"}], "biography": "Martin Melcher (August 1, 1915 – April 20, 1968) was an American motion picture and music executive. He was married to popular singer and actress Doris Day, with whom he owned a series of business ventures named Arwin. Melcher produced several films in the 1950s and 1960s through the independent film production company Arwin Productions, released music through the record label Arwin Records, and published music through the music publishing companies Arwin Music and Daywin Music, Mart Music and Artists Music. He also was the president of Kirk Douglas' music publishing company, Peter Vincent Music.", "biography_author": "Wikidata", "date_of_biography": "2023-08-01T16:06:57.681897+10:00", "external_links": [{"id": 2661, "uri": "https://en.wikipedia.org/wiki/Martin_Melcher"}], "uuid": "047e5889-832b-4929-b1c2-6482bb56b452", "source": {"name": "Vernon", "slug": "vernon"}, "source_identifier": "24653", "external_references": [{"id": 11361, "source": {"name": "Wikidata", "slug": "wikidata"}, "source_identifier": "Q1644646"}, {"id": 11362, "source": {"name": "VIAF", "slug": "viaf"}, "source_identifier": "46626999"}, {"id": 11363, "source": {"name": "LOC Auth", "slug": "loc-auth"}, "source_identifier": "nr92025630"}, {"id": 11364, "source": {"name": "WorldCat", "slug": "worldcat"}, "source_identifier": "lccn-nr92025630"}], "date_modified": "2023-09-05T22:50:01.215699+10:00"}, {"id": 79254, "name": "Arwin Productions", "roles_in_work": [{"id": 2205896, "title": "Pillow talk", "work_id": 89948, "role": "production company", "role_id": 941, "is_primary": true}], "also_known_as": "", "date_of_birth": "", "date_of_death": "", "genders": [], "languages": [], "places_of_operation": [], "biography": "", "biography_author": null, "date_of_biography": "2023-05-09T15:35:22.295068+10:00", "external_links": [], "uuid": "659cf01d-07d6-447a-acd3-c481e9b104d2", "source": {"name": "Vernon", "slug": "vernon"}, "source_identifier": "4580", "external_references": [{"id": 38247, "source": {"name": "Wikidata", "slug": "wikidata"}, "source_identifier": "Q121078854"}], "date_modified": "2023-09-05T17:48:07.623345+10:00"}, {"id": 79253, "name": "Miroslav Steinbach", "roles_in_work": [{"id": 1994191, "title": "Mandragora [Widescreen] (E)", "work_id": 89947, "role": "co-producer", "role_id": 915, "is_primary": true}], "also_known_as": "", "date_of_birth": null, "date_of_death": null, "genders": [], "languages": [], "places_of_operation": [], "biography": "", "biography_author": null, "date_of_biography": null, "external_links": [], "uuid": "e8c66beb-74cb-43bc-b285-80d1722fe638", "source": {"name": "Vernon", "slug": "vernon"}, "source_identifier": null, "external_references": [{"id": 32798, "source": {"name": "Wikidata", "slug": "wikidata"}, "source_identifier": "Q121271200"}], "date_modified": "2023-09-05T23:18:26.645976+10:00"}, {"id": 79252, "name": "Petr Heinvosky", "roles_in_work": [{"id": 1994190, "title": "Mandragora [Widescreen] (E)", "work_id": 89947, "role": "co-producer", "role_id": 915, "is_primary": true}], "also_known_as": "", "date_of_birth": null, "date_of_death": null, "genders": [], "languages": [], "places_of_operation": [], "biography": "", "biography_author": null, "date_of_biography": null, "external_links": [], "uuid": "63a6a27c-303d-4d54-8d43-5741037a2ad3", "source": {"name": "Vernon", "slug": "vernon"}, "source_identifier": null, "external_references": [{"id": 42817, "source": {"name": "Wikidata", "slug": "wikidata"}, "source_identifier": "Q121298964"}], "date_modified": "2023-09-06T00:02:36.214284+10:00"}, {"id": 79251, "name": "Jaraslav Stanek", "roles_in_work": [{"id": 1994189, "title": "Mandragora [Widescreen] (E)", "work_id": 89947, "role": "co-producer", "role_id": 915, "is_primary": true}], "also_known_as": "", "date_of_birth": null, "date_of_death": null, "genders": [], "languages": [], "places_of_operation": [], "biography": "", "biography_author": null, "date_of_biography": null, "external_links": [], "uuid": "231ab397-ef85-4204-b2ae-e527f9553c25", "source": {"name": "Vernon", "slug": "vernon"}, "source_identifier": null, "external_references": [{"id": 38964, "source": {"name": "Wikidata", "slug": "wikidata"}, "source_identifier": "Q121126501"}], "date_modified": "2023-09-05T21:09:17.761881+10:00"}, {"id": 79250, "name": "Claude Nedjar", "roles_in_work": [{"id": 1994186, "title": "Le Souffle au coeur = Dearest love = Murmur of the Heart", "work_id": 89921, "role": "co-producer", "role_id": 915, "is_primary": true}, {"id": 3104329, "title": "Ben et Benedict = Ben and Benedict", "work_id": 115865, "role": "producer", "role_id": 1089, "is_primary": true}, {"id": 3104452, "title": "La Trace = the Trail", "work_id": 115920, "role": "producer", "role_id": 1089, "is_primary": true}], "also_known_as": "", "date_of_birth": "1938-08-16", "date_of_death": "2003-02-13", "genders": [{"id": 9, "name": "Male", "slug": "male"}], "languages": [{"id": 4, "name": "French", "slug": "french"}], "places_of_operation": [{"id": 17, "name": "France", "slug": "france"}], "biography": "", "biography_author": null, "date_of_biography": "2023-05-09T12:50:11.100864+10:00", "external_links": [], "uuid": "7576d680-789a-4e9c-82f0-75c3ebdbdaa8", "source": {"name": "Vernon", "slug": "vernon"}, "source_identifier": "17082", "external_references": [{"id": 33651, "source": {"name": "Wikidata", "slug": "wikidata"}, "source_identifier": "Q2977888"}, {"id": 54226, "source": {"name": "VIAF", "slug": "viaf"}, "source_identifier": "14977403"}, {"id": 54227, "source": {"name": "LOC Auth", "slug": "loc-auth"}, "source_identifier": "no2001013385"}, {"id": 54228, "source": {"name": "WorldCat", "slug": "worldcat"}, "source_identifier": "lccn-no2001013385"}], "date_modified": "2025-05-22T22:41:01.208281+10:00"}]}