{"count": 28687, "next": "https://api.acmi.net.au/creators/?page=1557", "previous": "https://api.acmi.net.au/creators/?page=1555", "results": [{"id": 32165, "name": "Lamar Trotti", "roles_in_work": [{"id": 1994480, "title": "As young as you feel", "work_id": 90437, "role": "producer", "role_id": 1089, "is_primary": true}], "also_known_as": "", "date_of_birth": "1900-10-18", "date_of_death": "1952-08-28", "genders": [{"id": 9, "name": "Male", "slug": "male"}], "languages": [{"id": 1, "name": "English", "slug": "english"}], "places_of_operation": [{"id": 1, "name": "United States of America", "slug": "united-states-of-america"}], "biography": "Lamar Jefferson Trotti (October 18, 1900 – August 28, 1952) was an American screenwriter, producer, and motion picture executive.", "biography_author": "Wikidata", "date_of_biography": "2022-05-19T12:12:37.627357+10:00", "external_links": [{"id": 2541, "uri": "https://en.wikipedia.org/wiki/Lamar_Trotti"}], "uuid": "d7dfced2-501f-4dcc-82fe-5f11f70c829a", "source": {"name": "Vernon", "slug": "vernon"}, "source_identifier": "23457", "external_references": [{"id": 10864, "source": {"name": "Wikidata", "slug": "wikidata"}, "source_identifier": "Q964595"}, {"id": 10865, "source": {"name": "VIAF", "slug": "viaf"}, "source_identifier": "56811844"}, {"id": 10866, "source": {"name": "LOC Auth", "slug": "loc-auth"}, "source_identifier": "n86105813"}, {"id": 10867, "source": {"name": "WorldCat", "slug": "worldcat"}, "source_identifier": "lccn-n86105813"}], "date_modified": "2023-09-13T12:30:53.332301+10:00"}, {"id": 32151, "name": "Fox 2000", "roles_in_work": [{"id": 2239066, "title": "Fight club [DVD]", "work_id": 90452, "role": "production company", "role_id": 941, "is_primary": true}, {"id": 2239227, "title": "Fight club", "work_id": 94812, "role": "production company", "role_id": 941, "is_primary": true}], "also_known_as": "", "date_of_birth": "", "date_of_death": "", "genders": [], "languages": [], "places_of_operation": [], "biography": "", "biography_author": null, "date_of_biography": "2023-05-09T16:50:42.825630+10:00", "external_links": [], "uuid": "8f14eb4c-af44-4cc8-8e4d-18eb1e1e2159", "source": {"name": "Vernon", "slug": "vernon"}, "source_identifier": "8469", "external_references": [], "date_modified": "2023-06-14T16:33:30.576250+10:00"}, {"id": 32149, "name": "Robert D Webb", "roles_in_work": [{"id": 1994439, "title": "Love me tender", "work_id": 90428, "role": "director", "role_id": 938, "is_primary": true}], "also_known_as": "", "date_of_birth": "1903-01-08", "date_of_death": "1990-04-18", "genders": [{"id": 9, "name": "Male", "slug": "male"}], "languages": [], "places_of_operation": [{"id": 1, "name": "United States of America", "slug": "united-states-of-america"}], "biography": "Robert D. Webb (January 8, 1903 – April 18, 1990) was an American film director. He directed 16 films between 1945 and 1968. He won the Academy Award for Best Assistant Director for In Old Chicago, the last time that category was offered.", "biography_author": "Wikidata", "date_of_biography": "2022-05-19T12:52:32.991216+10:00", "external_links": [{"id": 2967, "uri": "https://en.wikipedia.org/wiki/Robert_D._Webb"}], "uuid": "5332f9ad-8ddf-4dc3-b4ea-b85d6469772d", "source": {"name": "Vernon", "slug": "vernon"}, "source_identifier": "27688", "external_references": [{"id": 12604, "source": {"name": "Wikidata", "slug": "wikidata"}, "source_identifier": "Q1806583"}, {"id": 12605, "source": {"name": "VIAF", "slug": "viaf"}, "source_identifier": "78336625"}, {"id": 12606, "source": {"name": "LOC Auth", "slug": "loc-auth"}, "source_identifier": "no90004644"}, {"id": 12607, "source": {"name": "WorldCat", "slug": "worldcat"}, "source_identifier": "lccn-no90004644"}], "date_modified": "2023-09-13T12:32:17.341732+10:00"}, {"id": 32148, "name": "Joseph Newman", "roles_in_work": [{"id": 1994428, "title": "Love nest", "work_id": 90426, "role": "director", "role_id": 938, "is_primary": true}, {"id": 2331227, "title": "The Big circus", "work_id": 93491, "role": "director", "role_id": 938, "is_primary": true}], "also_known_as": "", "date_of_birth": "1909-08-17", "date_of_death": "2006-01-23", "genders": [{"id": 9, "name": "Male", "slug": "male"}], "languages": [{"id": 1, "name": "English", "slug": "english"}], "places_of_operation": [{"id": 1, "name": "United States of America", "slug": "united-states-of-america"}], "biography": "Joseph M. Newman (August 17, 1909 – January 23, 2006) was an American film director most famous for his 1955 film This Island Earth. His credits include episodes of The Twilight Zone and The Alfred Hitchcock Hour.\r\nHe was nominated for two Academy Awards in the now defunct category of Assistant Director, for David Copperfield and San Francisco. He was also the last person nominated Assistant Director to die.", "biography_author": "Wikidata", "date_of_biography": "2022-05-19T12:06:22+10:00", "external_links": [{"id": 2474, "uri": "https://en.wikipedia.org/wiki/Joseph_M._Newman"}], "uuid": "07c01811-eec5-472d-a8ac-84741ebd2f6b", "source": {"name": "Vernon", "slug": "vernon"}, "source_identifier": "22739", "external_references": [{"id": 10581, "source": {"name": "Wikidata", "slug": "wikidata"}, "source_identifier": "Q466631"}, {"id": 10582, "source": {"name": "VIAF", "slug": "viaf"}, "source_identifier": "17430339"}, {"id": 10583, "source": {"name": "LOC Auth", "slug": "loc-auth"}, "source_identifier": "n94121549"}, {"id": 10584, "source": {"name": "WorldCat", "slug": "worldcat"}, "source_identifier": "lccn-n94121549"}], "date_modified": "2023-09-13T14:55:08.114521+10:00"}, {"id": 32146, "name": "Noon Attack", "roles_in_work": [{"id": 2295046, "title": "The Truth about cats and dogs", "work_id": 90424, "role": "production company", "role_id": 941, "is_primary": true}], "also_known_as": "", "date_of_birth": "", "date_of_death": "", "genders": [], "languages": [], "places_of_operation": [], "biography": "", "biography_author": null, "date_of_biography": "2023-05-09T18:25:49.102228+10:00", "external_links": [], "uuid": "e258b80b-1121-45f2-b7d8-af0202c9e2da", "source": {"name": "Vernon", "slug": "vernon"}, "source_identifier": "10984", "external_references": [{"id": 35523, "source": {"name": "Wikidata", "slug": "wikidata"}, "source_identifier": "Q121126127"}], "date_modified": "2023-09-05T23:33:22.609146+10:00"}, {"id": 32142, "name": "John Woo Film Productions", "roles_in_work": [{"id": 2127337, "title": "Bullet in the head", "work_id": 90415, "role": "production company", "role_id": 941, "is_primary": true}], "also_known_as": "", "date_of_birth": "", "date_of_death": "", "genders": [], "languages": [], "places_of_operation": [], "biography": "", "biography_author": null, "date_of_biography": "2023-05-09T13:13:48.702286+10:00", "external_links": [], "uuid": "9a88f1f5-1c0a-465f-96c8-320ed84f9ea0", "source": {"name": "Vernon", "slug": "vernon"}, "source_identifier": "9635", "external_references": [], "date_modified": "2023-06-14T16:33:30.576250+10:00"}, {"id": 32141, "name": "Golden Princess Film Production Ltd", "roles_in_work": [{"id": 2065820, "title": "A Chinese ghost story II = Sinnui yauman II [Widescreen]", "work_id": 90416, "role": "production company", "role_id": 941, "is_primary": true}, {"id": 2127332, "title": "Bullet in the head", "work_id": 90415, "role": "production company", "role_id": 941, "is_primary": true}], "also_known_as": "", "date_of_birth": "", "date_of_death": "", "genders": [], "languages": [], "places_of_operation": [], "biography": "", "biography_author": null, "date_of_biography": "2023-05-09T13:13:48.363398+10:00", "external_links": [], "uuid": "c0734ac8-cfb6-4fa9-8e8f-f7a98eeb7bfe", "source": {"name": "Vernon", "slug": "vernon"}, "source_identifier": "8788", "external_references": [], "date_modified": "2023-06-14T16:33:30.576250+10:00"}, {"id": 32140, "name": "Yuen Kwai", "roles_in_work": [{"id": 2245798, "title": "Fong Sai Yuk = The Legend", "work_id": 90413, "role": "director", "role_id": 938, "is_primary": true}], "also_known_as": "", "date_of_birth": "1951-02-15", "date_of_death": "", "genders": [{"id": 9, "name": "Male", "slug": "male"}], "languages": [{"id": 80, "name": "Standard Mandarin", "slug": "standard-mandarin"}], "places_of_operation": [{"id": 290, "name": "People's Republic of China", "slug": "peoples-republic-of-china"}], "biography": "Corey Yuen (Chinese: 元奎; pinyin: Yuán Kuí; Cantonese Yale: Yuen4 Kwai1; born Ying Gang-ming (殷元奎); 16 December 1951) is a Hong Kong film director, film producer, action choreographer, and former actor.\nYuen was a member of the Peking Opera Schools and one of the Seven Little Fortunes. As an actor, Yuen is perhaps best known as Rubber Legs' student in 1979 kung fu comedy film Dance of the Drunk Mantis. As an action director, Yuen gained fame in American cinema beginning with 1998 film Lethal Weapon 4, followed by the 2000 blockbuster X-Men and six of Jet Li's American works: Romeo Must Die, Kiss of the Dragon, The One, Cradle 2 the Grave, War, and The Expendables.", "biography_author": "Wikidata", "date_of_biography": "2023-08-01T17:30:14.700013+10:00", "external_links": [{"id": 1849, "uri": "https://en.wikipedia.org/wiki/Corey_Yuen"}], "uuid": "ae4d8641-643f-420e-b9c3-bddcbe53c84a", "source": {"name": "Vernon", "slug": "vernon"}, "source_identifier": "30612", "external_references": [{"id": 24890, "source": {"name": "Wikidata", "slug": "wikidata"}, "source_identifier": "Q676051"}, {"id": 32086, "source": {"name": "VIAF", "slug": "viaf"}, "source_identifier": "119923997"}, {"id": 32087, "source": {"name": "LOC Auth", "slug": "loc-auth"}, "source_identifier": "no2003104350"}, {"id": 32088, "source": {"name": "WorldCat", "slug": "worldcat"}, "source_identifier": "lccn-no2003104350"}], "date_modified": "2023-09-06T02:23:54.593177+10:00"}, {"id": 32139, "name": "Eastern Production Company", "roles_in_work": [{"id": 2245795, "title": "Fong Sai Yuk = The Legend", "work_id": 90413, "role": "production company", "role_id": 941, "is_primary": true}], "also_known_as": "", "date_of_birth": "", "date_of_death": "", "genders": [], "languages": [], "places_of_operation": [], "biography": "", "biography_author": null, "date_of_biography": "2023-05-09T17:02:34.816273+10:00", "external_links": [], "uuid": "da0d119c-07cc-4c5f-a055-d4c8e754b3ef", "source": {"name": "Vernon", "slug": "vernon"}, "source_identifier": "7714", "external_references": [], "date_modified": "2023-06-14T16:33:30.576250+10:00"}, {"id": 32138, "name": "Mandarin films", "roles_in_work": [{"id": 2335184, "title": "The Bride with white hair", "work_id": 90412, "role": "production company", "role_id": 941, "is_primary": true}], "also_known_as": "", "date_of_birth": "", "date_of_death": "", "genders": [], "languages": [], "places_of_operation": [], "biography": "", "biography_author": null, "date_of_biography": "2023-05-09T19:30:51.488155+10:00", "external_links": [], "uuid": "239fb1f5-4bac-49ac-b884-8c824df84f05", "source": {"name": "Vernon", "slug": "vernon"}, "source_identifier": "10277", "external_references": [], "date_modified": "2023-06-14T16:33:30.576250+10:00"}]}