{"count": 28681, "next": "https://api.acmi.net.au/creators/?page=850", "previous": "https://api.acmi.net.au/creators/?page=848", "results": [{"id": 77088, "name": "Out on a Limb", "roles_in_work": [{"id": 2223427, "title": "Exiles of love", "work_id": 82220, "role": "distributor", "role_id": 437, "is_primary": false}], "also_known_as": "", "date_of_birth": "", "date_of_death": "", "genders": [], "languages": [], "places_of_operation": [], "biography": "", "biography_author": null, "date_of_biography": "2023-05-09T16:22:46.843398+10:00", "external_links": [], "uuid": "a63740cf-031d-4c70-8bf4-0c306800144e", "source": {"name": "Vernon", "slug": "vernon"}, "source_identifier": "30742", "external_references": [], "date_modified": "2023-06-14T16:33:30.576250+10:00"}, {"id": 77087, "name": "Joan Chen", "roles_in_work": [{"id": 2274036, "title": "Turtle beach", "work_id": 82219, "role": "cast", "role_id": 33, "is_primary": false}], "also_known_as": "", "date_of_birth": "1961-04-26", "date_of_death": "", "genders": [{"id": 5, "name": "Female", "slug": "female"}], "languages": [{"id": 14, "name": "Chinese", "slug": "chinese"}, {"id": 1, "name": "English", "slug": "english"}], "places_of_operation": [{"id": 1, "name": "United States of America", "slug": "united-states-of-america"}], "biography": "Joan Chen (born April 26, 1961) is a Chinese-American actress and film director.  In China, she performed in the 1979 film Little Flower and came to the attention of American audiences for her performance in the 1987 film The Last Emperor. She is also known for her roles in Twin Peaks, Red Rose White Rose, Saving Face, and The Home Song Stories, and for directing the feature film Xiu Xiu: The Sent Down Girl.", "biography_author": "Wikidata", "date_of_biography": "2023-08-01T15:32:20.255029+10:00", "external_links": [{"id": 4341, "uri": "https://en.wikipedia.org/wiki/Joan_Chen"}], "uuid": "686ea86b-f24d-49f1-a90e-1957aed3d4f5", "source": {"name": "Vernon", "slug": "vernon"}, "source_identifier": "32508", "external_references": [{"id": 26929, "source": {"name": "Wikidata", "slug": "wikidata"}, "source_identifier": "Q270672"}, {"id": 29406, "source": {"name": "VIAF", "slug": "viaf"}, "source_identifier": "39570906"}, {"id": 29407, "source": {"name": "LOC Auth", "slug": "loc-auth"}, "source_identifier": "n92078556"}, {"id": 29408, "source": {"name": "WorldCat", "slug": "worldcat"}, "source_identifier": "lccn-n92078556"}], "date_modified": "2023-09-05T21:27:02.130380+10:00"}, {"id": 77086, "name": "Richard Goleszowski", "roles_in_work": [{"id": 2077687, "title": "Aardman animations. Vol. 01", "work_id": 82218, "role": "co-director", "role_id": 959, "is_primary": true}], "also_known_as": "", "date_of_birth": "", "date_of_death": "", "genders": [], "languages": [], "places_of_operation": [], "biography": "", "biography_author": null, "date_of_biography": "2023-05-09T11:43:09.256607+10:00", "external_links": [], "uuid": "2c20c66c-dedd-4603-98e9-24cf67df0d3e", "source": {"name": "Vernon", "slug": "vernon"}, "source_identifier": "27390", "external_references": [{"id": 35937, "source": {"name": "Wikidata", "slug": "wikidata"}, "source_identifier": "Q121315046"}], "date_modified": "2023-09-06T00:29:19.515805+10:00"}, {"id": 77085, "name": "Visionary Communications", "roles_in_work": [{"id": 2785755, "title": "Pauline at the beach = Pauline a la plage", "work_id": 83027, "role": "distributor", "role_id": 437, "is_primary": false}, {"id": 2785777, "title": "Comedies et proverbes", "work_id": 115311, "role": "distributor", "role_id": 437, "is_primary": false}, {"id": 2133683, "title": "Celine and Julie go boating = Celine et Julie vont en bateau", "work_id": 83023, "role": "distributor", "role_id": 437, "is_primary": false}, {"id": 2785794, "title": "Six contes moraux = Six moral tales", "work_id": 115305, "role": "distributor", "role_id": 437, "is_primary": false}, {"id": 2614359, "title": "2 ou 3 choses que je sais d'elle = 2 or 3 things I know about her", "work_id": 83583, "role": "distributor", "role_id": 437, "is_primary": false}, {"id": 2614366, "title": "The Marquise of O... = Die Marquise von O...", "work_id": 83586, "role": "distributor", "role_id": 437, "is_primary": false}, {"id": 2614815, "title": "World of Apu = World of Apu", "work_id": 84370, "role": "distributor", "role_id": 437, "is_primary": false}, {"id": 2649796, "title": "Things change", "work_id": 82257, "role": "distributor", "role_id": 437, "is_primary": false}, {"id": 2649939, "title": "King and country", "work_id": 82457, "role": "distributor", "role_id": 437, "is_primary": false}, {"id": 2649946, "title": "The Unvanquished = Aparajito", "work_id": 82481, "role": "distributor", "role_id": 437, "is_primary": false}, {"id": 2649949, "title": "The Child and the saw", "work_id": 82483, "role": "distributor", "role_id": 437, "is_primary": false}, {"id": 2649953, "title": "Dark eyes", "work_id": 82493, "role": "distributor", "role_id": 437, "is_primary": false}, {"id": 2650260, "title": "Six in Paris = Paris vu par ...", "work_id": 83029, "role": "distributor", "role_id": 437, "is_primary": false}, {"id": 2650269, "title": "The Goalkeeper's fear of the penalty = Die Angst des Tormanns beim Elfmeter", "work_id": 83042, "role": "distributor", "role_id": 437, "is_primary": false}, {"id": 2788778, "title": "State of the art", "work_id": 82492, "role": "distributor", "role_id": 437, "is_primary": false}, {"id": 2788786, "title": "Subversive desires", "work_id": 82479, "role": "distributor", "role_id": 437, "is_primary": false}, {"id": 2788793, "title": "Video burn", "work_id": 115369, "role": "distributor", "role_id": 437, "is_primary": false}, {"id": 2785728, "title": "The Aviator's wife = La Femme de l'Aviateur ou On ne saurait penser a rien = One can't think of nothing", "work_id": 83018, "role": "distributor", "role_id": 437, "is_primary": false}, {"id": 2785741, "title": "Le Beau mariage = A Good marriage", "work_id": 83017, "role": "distributor", "role_id": 437, "is_primary": false}, {"id": 2290162, "title": "Two thousand women", "work_id": 84429, "role": "distributor", "role_id": 437, "is_primary": false}, {"id": 2269939, "title": "William S. Burroughs: commissioner of sewers", "work_id": 82486, "role": "distributor", "role_id": 437, "is_primary": false}, {"id": 2213526, "title": "Eat the peach", "work_id": 82788, "role": "distributor", "role_id": 437, "is_primary": false}, {"id": 2304905, "title": "Solaris [Widescreen]", "work_id": 82450, "role": "distributor", "role_id": 437, "is_primary": false}, {"id": 2156986, "title": "My childhood. My ain folk", "work_id": 82819, "role": "distributor", "role_id": 437, "is_primary": false}, {"id": 2263923, "title": "Scorsese x 4: four short films by Martin Scorsese", "work_id": 83026, "role": "distributor", "role_id": 437, "is_primary": false}, {"id": 2238529, "title": "Feverhouse", "work_id": 82461, "role": "distributor", "role_id": 437, "is_primary": false}, {"id": 2178649, "title": "David Anderson: works on film", "work_id": 83570, "role": "distributor", "role_id": 437, "is_primary": false}, {"id": 2172022, "title": "Jan Svankmajer. - Volume 2.", "work_id": 82470, "role": "distributor", "role_id": 437, "is_primary": false}, {"id": 2088535, "title": "An Actor's revenge", "work_id": 83581, "role": "distributor", "role_id": 437, "is_primary": false}, {"id": 2352215, "title": "The Great Mr. Handel", "work_id": 82467, "role": "distributor", "role_id": 437, "is_primary": false}, {"id": 2185697, "title": "Paisa", "work_id": 83587, "role": "distributor", "role_id": 437, "is_primary": false}, {"id": 2088741, "title": "An Enemy of the people = Ganashatru", "work_id": 82491, "role": "distributor", "role_id": 437, "is_primary": false}, {"id": 2085355, "title": "Alice", "work_id": 82465, "role": "distributor", "role_id": 437, "is_primary": false}, {"id": 2084777, "title": "Alice in the cities = Alice in den Stadten", "work_id": 82790, "role": "distributor", "role_id": 437, "is_primary": false}, {"id": 2094886, "title": "An Unfinished piece for mechanical piano", "work_id": 82458, "role": "distributor", "role_id": 437, "is_primary": false}, {"id": 1986340, "title": "The Man with the golden arm", "work_id": 82480, "role": "distributor", "role_id": 437, "is_primary": false}, {"id": 1986417, "title": "The Spider's stratagem", "work_id": 82546, "role": "distributor", "role_id": 437, "is_primary": false}, {"id": 2222681, "title": "Evergreen", "work_id": 83019, "role": "distributor", "role_id": 437, "is_primary": false}, {"id": 2321037, "title": "Swoon", "work_id": 83970, "role": "distributor", "role_id": 437, "is_primary": false}, {"id": 782758, "title": "NFB Animation classics", "work_id": 83585, "role": "distributor", "role_id": 437, "is_primary": false}, {"id": 1986727, "title": "Intervista", "work_id": 83022, "role": "distributor", "role_id": 437, "is_primary": false}, {"id": 1986336, "title": "The Rules of the game = La Regle du jeu", "work_id": 82478, "role": "distributor", "role_id": 437, "is_primary": false}, {"id": 1986717, "title": "Gas! or It became necessary to destroy the world in order to save it", "work_id": 83020, "role": "distributor", "role_id": 437, "is_primary": false}, {"id": 1987396, "title": "Hush-a-bye baby", "work_id": 83547, "role": "distributor", "role_id": 437, "is_primary": false}, {"id": 2327300, "title": "The Angelic conversation", "work_id": 82490, "role": "distributor", "role_id": 437, "is_primary": false}, {"id": 2305834, "title": "Song of the road = Pather panchali", "work_id": 83589, "role": "distributor", "role_id": 437, "is_primary": false}, {"id": 2233585, "title": "Punk and its after shocks", "work_id": 83568, "role": "distributor", "role_id": 437, "is_primary": false}, {"id": 2202040, "title": "Peripheral vision / O Yuki Conjugate", "work_id": 82695, "role": "distributor", "role_id": 437, "is_primary": false}, {"id": 1986698, "title": "Madonna of the seven moons", "work_id": 83014, "role": "distributor", "role_id": 437, "is_primary": false}, {"id": 2110468, "title": "Before the revolution = Prima della rivoluzione", "work_id": 82739, "role": "distributor", "role_id": 437, "is_primary": false}, {"id": 1986296, "title": "I know where I'm going", "work_id": 82366, "role": "distributor", "role_id": 437, "is_primary": false}, {"id": 2348636, "title": "The Final academy documents 1962/63", "work_id": 83582, "role": "distributor", "role_id": 437, "is_primary": false}, {"id": 2228392, "title": "Fat of the land", "work_id": 82463, "role": "distributor", "role_id": 437, "is_primary": false}, {"id": 1987406, "title": "Germany year zero = Allemagne, annee zero", "work_id": 83565, "role": "distributor", "role_id": 437, "is_primary": false}, {"id": 782686, "title": "Voyage to Italy = Viaggio in Italia", "work_id": 83566, "role": "distributor", "role_id": 437, "is_primary": false}, {"id": 1987131, "title": "Hiroshima mon amour", "work_id": 83175, "role": "distributor", "role_id": 437, "is_primary": false}, {"id": 2298882, "title": "Show me what you look like", "work_id": 82453, "role": "distributor", "role_id": 437, "is_primary": false}, {"id": 2097212, "title": "Animation on 4. Vol. 01", "work_id": 82700, "role": "distributor", "role_id": 437, "is_primary": false}, {"id": 1986720, "title": "Hanussen", "work_id": 83021, "role": "distributor", "role_id": 437, "is_primary": false}, {"id": 2279966, "title": "Wings of desire = Der Himmel uber Berlin", "work_id": 82488, "role": "distributor", "role_id": 437, "is_primary": false}, {"id": 1986314, "title": "My way home", "work_id": 82456, "role": "distributor", "role_id": 437, "is_primary": false}, {"id": 2348664, "title": "The Final Academy Documents 1982", "work_id": 84333, "role": "distributor", "role_id": 437, "is_primary": false}, {"id": 2334508, "title": "The Brothers Quay. Vol. 01", "work_id": 82498, "role": "distributor", "role_id": 437, "is_primary": false}, {"id": 2328058, "title": "The Ascent = Voskhozhdenie", "work_id": 82485, "role": "distributor", "role_id": 437, "is_primary": false}, {"id": 781009, "title": "Wayward girls & wicked women. - Volume 3.", "work_id": 83032, "role": "distributor", "role_id": 437, "is_primary": false}, {"id": 1986346, "title": "House of games", "work_id": 82482, "role": "distributor", "role_id": 437, "is_primary": false}, {"id": 781003, "title": "Wayward girls & wicked women. - Volume 1.", "work_id": 83030, "role": "distributor", "role_id": 437, "is_primary": false}, {"id": 2327948, "title": "The Arsenal stadium mystery", "work_id": 83569, "role": "distributor", "role_id": 437, "is_primary": false}, {"id": 781006, "title": "Wayward girls & wicked women. - Volume 2.", "work_id": 83031, "role": "distributor", "role_id": 437, "is_primary": false}, {"id": 1986384, "title": "Woman of the dunes = Suna no onna", "work_id": 82495, "role": "distributor", "role_id": 437, "is_primary": false}, {"id": 1986702, "title": "The Lower depths", "work_id": 83015, "role": "distributor", "role_id": 437, "is_primary": false}, {"id": 2174838, "title": "Jan Svankmajer. Vol. 1.", "work_id": 82469, "role": "distributor", "role_id": 437, "is_primary": false}, {"id": 2322489, "title": "Tati shorts", "work_id": 83588, "role": "distributor", "role_id": 437, "is_primary": false}, {"id": 2188269, "title": "Detour", "work_id": 82460, "role": "distributor", "role_id": 437, "is_primary": false}, {"id": 2234817, "title": "Radio Dog", "work_id": 82451, "role": "distributor", "role_id": 437, "is_primary": false}, {"id": 2308362, "title": "Stalker", "work_id": 82449, "role": "distributor", "role_id": 437, "is_primary": false}, {"id": 2260606, "title": "Salaam Bombay!", "work_id": 82605, "role": "distributor", "role_id": 437, "is_primary": false}, {"id": 2246546, "title": "Red ensign", "work_id": 82484, "role": "distributor", "role_id": 437, "is_primary": false}, {"id": 2329146, "title": "The Bad sleep well = Warui yatsu hodo yoku nemeru", "work_id": 82496, "role": "distributor", "role_id": 437, "is_primary": false}, {"id": 778963, "title": "Maimed artist", "work_id": 82448, "role": "distributor", "role_id": 437, "is_primary": false}, {"id": 2234432, "title": "Ra: the path of the sun god: a vision of ancient Egypt", "work_id": 82455, "role": "distributor", "role_id": 437, "is_primary": false}, {"id": 2224037, "title": "Extreme art", "work_id": 82462, "role": "distributor", "role_id": 437, "is_primary": false}, {"id": 2785784, "title": "The Collector girl = La Collectionneuse", "work_id": 83016, "role": "distributor", "role_id": 437, "is_primary": false}, {"id": 2118947, "title": "Blanche fury", "work_id": 83567, "role": "distributor", "role_id": 437, "is_primary": false}, {"id": 2302201, "title": "Sky cries Mary until the grinders cease", "work_id": 82224, "role": "distributor", "role_id": 437, "is_primary": false}, {"id": 2315547, "title": "Strip Jack naked: nighthawks 2", "work_id": 82258, "role": "distributor", "role_id": 437, "is_primary": false}, {"id": 2235048, "title": "Radio Tirana: harmony and forschung", "work_id": 82454, "role": "distributor", "role_id": 437, "is_primary": false}, {"id": 2224054, "title": "Extreme art 2", "work_id": 82459, "role": "distributor", "role_id": 437, "is_primary": false}, {"id": 2330373, "title": "The Best of 'Out' & 'Out on Tuesday'", "work_id": 82714, "role": "distributor", "role_id": 437, "is_primary": false}, {"id": 901738, "title": "Un Chant d'amour. Flames of passion. Looking for Langston (X)", "work_id": 82407, "role": "distributor", "role_id": 437, "is_primary": false}, {"id": 2212172, "title": "Drunken angel", "work_id": 83024, "role": "distributor", "role_id": 437, "is_primary": false}, {"id": 2331239, "title": "The Big combo", "work_id": 82487, "role": "distributor", "role_id": 437, "is_primary": false}, {"id": 2302249, "title": "Slacker", "work_id": 83592, "role": "distributor", "role_id": 437, "is_primary": false}, {"id": 2141015, "title": "Color me lurid: the weird world of George Kuchar", "work_id": 82489, "role": "distributor", "role_id": 437, "is_primary": false}, {"id": 2113161, "title": "Betty Blue = 37.2 Le Matin", "work_id": 83969, "role": "distributor", "role_id": 437, "is_primary": false}, {"id": 2065547, "title": "A Canterbury tale", "work_id": 82497, "role": "distributor", "role_id": 437, "is_primary": false}, {"id": 902718, "title": "Green animation", "work_id": 83584, "role": "distributor", "role_id": 437, "is_primary": false}, {"id": 2151806, "title": "On the Black Hill", "work_id": 83028, "role": "distributor", "role_id": 437, "is_primary": false}, {"id": 2476625, "title": "I See a dark stranger = The Adventuress", "work_id": 82494, "role": "distributor", "role_id": 437, "is_primary": false}, {"id": 2073234, "title": "A Scenic harvest from the kingdom of pain", "work_id": 82466, "role": "distributor", "role_id": 437, "is_primary": false}, {"id": 2065354, "title": "8 1/2 = Eight and a half", "work_id": 23745, "role": "distributor", "role_id": 437, "is_primary": false}, {"id": 2177232, "title": "Open city = Rome, open city = Roma, citta aperta", "work_id": 83591, "role": "distributor", "role_id": 437, "is_primary": false}, {"id": 2077677, "title": "Aardman animations. Vol. 01", "work_id": 82218, "role": "distributor", "role_id": 437, "is_primary": false}, {"id": 2269861, "title": "Turn of the tide. The Man at the gate", "work_id": 82468, "role": "distributor", "role_id": 437, "is_primary": false}, {"id": 2476603, "title": "The Silver fleet", "work_id": 82452, "role": "distributor", "role_id": 437, "is_primary": false}, {"id": 2214274, "title": "Eat a bowl of tea", "work_id": 83025, "role": "distributor", "role_id": 437, "is_primary": false}, {"id": 2079239, "title": "Accattone", "work_id": 82738, "role": "distributor", "role_id": 437, "is_primary": false}, {"id": 2183991, "title": "Decoder", "work_id": 82477, "role": "distributor", "role_id": 437, "is_primary": false}, {"id": 2135641, "title": "Chess fever", "work_id": 83564, "role": "distributor", "role_id": 437, "is_primary": false}, {"id": 2183363, "title": "December bride", "work_id": 82464, "role": "distributor", "role_id": 437, "is_primary": false}], "also_known_as": "", "date_of_birth": "", "date_of_death": "", "genders": [], "languages": [], "places_of_operation": [], "biography": "", "biography_author": null, "date_of_biography": "2023-08-17T15:39:03.428859+10:00", "external_links": [], "uuid": "9a7a1182-aab4-4b5d-8c9d-417005687618", "source": {"name": "Vernon", "slug": "vernon"}, "source_identifier": "30757", "external_references": [], "date_modified": "2025-03-14T19:46:07.615452+11:00"}, {"id": 77084, "name": "Catherine Adams", "roles_in_work": [{"id": 2387085, "title": "Mimi pulka", "work_id": 82214, "role": "co-producers/directors", "role_id": 628, "is_primary": true}], "also_known_as": "", "date_of_birth": "", "date_of_death": "", "genders": [], "languages": [], "places_of_operation": [], "biography": "", "biography_author": null, "date_of_biography": "2023-08-02T10:10:12.947100+10:00", "external_links": [], "uuid": "83d78e62-0647-4403-ad55-8fda36d1e0c6", "source": {"name": "Vernon", "slug": "vernon"}, "source_identifier": "16588", "external_references": [], "date_modified": "2023-08-02T10:10:12.947324+10:00"}, {"id": 77083, "name": "Bob Hill", "roles_in_work": [{"id": 2183812, "title": "Overseas and undersold. Part 1", "work_id": 82208, "role": "co-director", "role_id": 959, "is_primary": true}, {"id": 2183083, "title": "Overseas and undersold. Part 2", "work_id": 82209, "role": "co-director", "role_id": 959, "is_primary": true}], "also_known_as": "", "date_of_birth": "", "date_of_death": "", "genders": [], "languages": [], "places_of_operation": [], "biography": "", "biography_author": null, "date_of_biography": "2023-05-09T14:57:18.363534+10:00", "external_links": [], "uuid": "393a0c1f-0115-4687-92eb-b6bbeeabfbad", "source": {"name": "Vernon", "slug": "vernon"}, "source_identifier": "16068", "external_references": [{"id": 38973, "source": {"name": "Wikidata", "slug": "wikidata"}, "source_identifier": "Q121126503"}], "date_modified": "2023-09-05T18:07:29.853389+10:00"}, {"id": 77082, "name": "Paul Hawker", "roles_in_work": [{"id": 782456, "title": "Literacy for a lifetime", "work_id": 83488, "role": "director", "role_id": 938, "is_primary": true}, {"id": 2183808, "title": "Overseas and undersold. Part 1", "work_id": 82208, "role": "co-director", "role_id": 959, "is_primary": true}, {"id": 2183084, "title": "Overseas and undersold. Part 2", "work_id": 82209, "role": "co-director", "role_id": 959, "is_primary": true}, {"id": 2183079, "title": "Overseas and undersold. Part 2", "work_id": 82209, "role": "co-producer", "role_id": 915, "is_primary": true}, {"id": 2183803, "title": "Overseas and undersold. Part 1", "work_id": 82208, "role": "co-producer", "role_id": 915, "is_primary": true}], "also_known_as": "", "date_of_birth": "", "date_of_death": "", "genders": [], "languages": [], "places_of_operation": [], "biography": "", "biography_author": null, "date_of_biography": "2023-05-09T14:57:18.011045+10:00", "external_links": [], "uuid": "5ad2c1df-28f0-4f93-81dc-11e032e74d57", "source": {"name": "Vernon", "slug": "vernon"}, "source_identifier": "26244", "external_references": [{"id": 34784, "source": {"name": "Wikidata", "slug": "wikidata"}, "source_identifier": "Q121034295"}], "date_modified": "2023-09-05T23:46:35.991781+10:00"}, {"id": 77081, "name": "Blake Edwards", "roles_in_work": [{"id": 2124239, "title": "Breakfast at Tiffany's", "work_id": 84594, "role": "director", "role_id": 938, "is_primary": true}, {"id": 781045, "title": "The Pink panther (Captioned)", "work_id": 83040, "role": "director", "role_id": 938, "is_primary": true}, {"id": 2180151, "title": "Days of wine and roses", "work_id": 82205, "role": "director", "role_id": 938, "is_primary": true}, {"id": 2270578, "title": "Victor/Victoria", "work_id": 84576, "role": "director", "role_id": 938, "is_primary": true}, {"id": 788236, "title": "The Pink panther", "work_id": 85075, "role": "director", "role_id": 938, "is_primary": true}, {"id": 2270568, "title": "Victor/Victoria", "work_id": 84576, "role": "co-producer", "role_id": 915, "is_primary": true}, {"id": 1989218, "title": "The Party", "work_id": 85072, "role": "producer/director", "role_id": 31, "is_primary": true}], "also_known_as": "William Blake Crump", "date_of_birth": "1922-07-26", "date_of_death": "2010-12-15", "genders": [{"id": 9, "name": "Male", "slug": "male"}], "languages": [{"id": 1, "name": "English", "slug": "english"}], "places_of_operation": [{"id": 1, "name": "United States of America", "slug": "united-states-of-america"}], "biography": "Blake Edwards (born William Blake Crump; July 26, 1922 – December 15, 2010) was an American film director, producer, screenwriter, and actor.\nEdwards began his career in the 1940s as an actor, but he soon began writing screenplays and radio scripts before turning to producing and directing in television and films. His best-known films include Breakfast at Tiffany's (1961), Days of Wine and Roses (1962), The Great Race (1965), 10 (1979), Victor/Victoria (1982), and the hugely successful Pink Panther film series with British actor Peter Sellers. Often thought of as primarily a director of comedies, he also directed several drama, musical, and detective films. Late in his career, he took up writing, producing and directing for theater.\nIn 2004, he received an Honorary Academy Award in recognition of his writing, directing and producing an extraordinary body of work for the screen.\n\n", "biography_author": "Wikidata", "date_of_biography": "2023-08-01T14:13:58.441024+10:00", "external_links": [{"id": 1734, "uri": "https://en.wikipedia.org/wiki/Blake_Edwards"}], "uuid": "cb0a816f-a6ea-42a6-9785-709c23d8dbf9", "source": {"name": "Vernon", "slug": "vernon"}, "source_identifier": "16036", "external_references": [{"id": 7563, "source": {"name": "Wikidata", "slug": "wikidata"}, "source_identifier": "Q56093"}, {"id": 7564, "source": {"name": "VIAF", "slug": "viaf"}, "source_identifier": "54332293"}, {"id": 7565, "source": {"name": "LOC Auth", "slug": "loc-auth"}, "source_identifier": "n80081875"}, {"id": 7566, "source": {"name": "WorldCat", "slug": "worldcat"}, "source_identifier": "lccn-n80081875"}], "date_modified": "2023-09-05T18:06:36.173798+10:00"}, {"id": 77080, "name": "Shayne Mooney", "roles_in_work": [{"id": 1426948, "title": "Living with Aids", "work_id": 82204, "role": "producer/director", "role_id": 31, "is_primary": true}], "also_known_as": "", "date_of_birth": null, "date_of_death": null, "genders": [], "languages": [], "places_of_operation": [], "biography": "", "biography_author": null, "date_of_biography": null, "external_links": [], "uuid": "10eb915c-206c-4faf-9c7e-1420d56b356c", "source": {"name": "Vernon", "slug": "vernon"}, "source_identifier": null, "external_references": [{"id": 51111, "source": {"name": "Wikidata", "slug": "wikidata"}, "source_identifier": "Q121361012"}], "date_modified": "2023-09-06T01:14:15.859507+10:00"}, {"id": 77079, "name": "Arthur Beau Palmer", "roles_in_work": [{"id": 2774560, "title": "Going to the dogs", "work_id": 82193, "role": "producer/director", "role_id": 31, "is_primary": true}], "also_known_as": "", "date_of_birth": "", "date_of_death": "", "genders": [], "languages": [], "places_of_operation": [], "biography": "", "biography_author": null, "date_of_biography": "2023-07-26T03:35:21.521851+10:00", "external_links": [], "uuid": "2df0d2f7-fd49-404d-b058-93607bc8f392", "source": {"name": "Vernon", "slug": "vernon"}, "source_identifier": "15515", "external_references": [{"id": 50713, "source": {"name": "Wikidata", "slug": "wikidata"}, "source_identifier": "Q121361098"}], "date_modified": "2025-03-14T18:37:55.456700+11:00"}]}