{"count": 28681, "next": "https://api.acmi.net.au/creators/?page=1150", "previous": "https://api.acmi.net.au/creators/?page=1148", "results": [{"id": 73911, "name": "Wodonga Senior Secondary College", "roles_in_work": [{"id": 2643718, "title": "The Black pages", "work_id": 111258, "role": "school", "role_id": 619, "is_primary": false}], "also_known_as": "", "date_of_birth": "", "date_of_death": "", "genders": [], "languages": [], "places_of_operation": [], "biography": "", "biography_author": null, "date_of_biography": "2023-05-09T19:28:10.760204+10:00", "external_links": [], "uuid": "93190443-5c9d-48b1-8c8b-a3c1d7fd212b", "source": {"name": "Vernon", "slug": "vernon"}, "source_identifier": "31880", "external_references": [], "date_modified": "2025-03-05T12:06:02.897155+11:00"}, {"id": 73910, "name": "Huntingtower School, Mt Waverley", "roles_in_work": [{"id": 2719497, "title": "Thief", "work_id": 117685, "role": "creator", "role_id": 968, "is_primary": true}, {"id": 2643715, "title": "Amour de la toilette", "work_id": 111257, "role": "school", "role_id": 619, "is_primary": false}], "also_known_as": "", "date_of_birth": "", "date_of_death": "", "genders": [], "languages": [], "places_of_operation": [], "biography": "", "biography_author": null, "date_of_biography": "2023-05-09T19:58:12.981123+10:00", "external_links": [], "uuid": "2ba4c743-7bad-4032-bfc8-eb4f7417a22d", "source": {"name": "Vernon", "slug": "vernon"}, "source_identifier": "31878", "external_references": [], "date_modified": "2025-03-12T07:05:33.658774+11:00"}, {"id": 73909, "name": "Calufield Grammar School, Wheelers Hill", "roles_in_work": [{"id": 2643706, "title": "Push", "work_id": 111254, "role": "school", "role_id": 619, "is_primary": false}], "also_known_as": "", "date_of_birth": "", "date_of_death": "", "genders": [], "languages": [], "places_of_operation": [], "biography": "", "biography_author": null, "date_of_biography": "2023-05-09T19:28:07.528327+10:00", "external_links": [], "uuid": "aa3d2131-50b3-4673-81cc-26286dd24285", "source": {"name": "Vernon", "slug": "vernon"}, "source_identifier": "31886", "external_references": [], "date_modified": "2025-03-05T12:05:57.252465+11:00"}, {"id": 73908, "name": "Mount Lilydale Mercy College", "roles_in_work": [{"id": 2643702, "title": "The Note", "work_id": 111253, "role": "school", "role_id": 619, "is_primary": false}], "also_known_as": "", "date_of_birth": "", "date_of_death": "", "genders": [], "languages": [], "places_of_operation": [], "biography": "", "biography_author": null, "date_of_biography": "2023-05-09T19:28:03.369040+10:00", "external_links": [], "uuid": "264fff9e-6dde-4766-ba51-ef500d382a3f", "source": {"name": "Vernon", "slug": "vernon"}, "source_identifier": "31884", "external_references": [], "date_modified": "2025-03-05T12:05:55.849905+11:00"}, {"id": 73907, "name": "St Monica's College", "roles_in_work": [{"id": 2643696, "title": "Bus stop", "work_id": 111246, "role": "school", "role_id": 619, "is_primary": false}], "also_known_as": "", "date_of_birth": "", "date_of_death": "", "genders": [], "languages": [], "places_of_operation": [], "biography": "", "biography_author": null, "date_of_biography": "2023-05-09T19:28:08.327206+10:00", "external_links": [], "uuid": "125cbd19-54a8-4eb3-8d9b-dc2f56696d8f", "source": {"name": "Vernon", "slug": "vernon"}, "source_identifier": "31888", "external_references": [], "date_modified": "2025-03-05T12:05:52.864467+11:00"}, {"id": 73906, "name": "Josh Simons", "roles_in_work": [{"id": 2643690, "title": "Subterfuge", "work_id": 111251, "role": "creator", "role_id": 968, "is_primary": true}], "also_known_as": "", "date_of_birth": "", "date_of_death": "", "genders": [], "languages": [], "places_of_operation": [], "biography": "", "biography_author": null, "date_of_biography": "2023-05-09T19:28:04.689639+10:00", "external_links": [], "uuid": "70e63707-fb13-4b1e-a322-ef3642570976", "source": {"name": "Vernon", "slug": "vernon"}, "source_identifier": "31893", "external_references": [], "date_modified": "2025-03-05T12:05:47.971885+11:00"}, {"id": 73905, "name": "James Base", "roles_in_work": [{"id": 2643680, "title": "Frequency", "work_id": 111250, "role": "creator", "role_id": 968, "is_primary": true}], "also_known_as": "", "date_of_birth": "", "date_of_death": "", "genders": [], "languages": [], "places_of_operation": [], "biography": "", "biography_author": null, "date_of_biography": "2023-05-09T19:28:00.602283+10:00", "external_links": [], "uuid": "9510bc62-1fae-44cc-a86c-d34f0697d4e3", "source": {"name": "Vernon", "slug": "vernon"}, "source_identifier": "31891", "external_references": [], "date_modified": "2025-03-05T12:05:40.886584+11:00"}, {"id": 73904, "name": "Tom Fancke", "roles_in_work": [{"id": 2643678, "title": "Deception", "work_id": 111249, "role": "creator", "role_id": 968, "is_primary": true}], "also_known_as": "", "date_of_birth": "", "date_of_death": "", "genders": [], "languages": [], "places_of_operation": [], "biography": "", "biography_author": null, "date_of_biography": "2023-05-09T19:28:08.889291+10:00", "external_links": [], "uuid": "b4d54db3-9aa0-400a-bfea-424629ee1afe", "source": {"name": "Vernon", "slug": "vernon"}, "source_identifier": "31892", "external_references": [], "date_modified": "2025-03-05T12:05:39.454085+11:00"}, {"id": 73903, "name": "Erica Stevens", "roles_in_work": [{"id": 2643674, "title": "Black, white and all shades of grey", "work_id": 111248, "role": "creator", "role_id": 968, "is_primary": true}], "also_known_as": "", "date_of_birth": "", "date_of_death": "", "genders": [], "languages": [], "places_of_operation": [], "biography": "", "biography_author": null, "date_of_biography": "2023-05-09T19:27:58.026878+10:00", "external_links": [], "uuid": "391b2cad-3bd4-4c77-a31a-be840ae02e1f", "source": {"name": "Vernon", "slug": "vernon"}, "source_identifier": "31890", "external_references": [], "date_modified": "2025-03-05T12:05:36.599254+11:00"}, {"id": 73902, "name": "QPIX Ltd", "roles_in_work": [{"id": 2643630, "title": "Conservation conscious", "work_id": 111241, "role": "production company", "role_id": 941, "is_primary": true}], "also_known_as": "", "date_of_birth": "", "date_of_death": "", "genders": [], "languages": [], "places_of_operation": [], "biography": "", "biography_author": null, "date_of_biography": "2023-05-09T13:43:01.206555+10:00", "external_links": [], "uuid": "a21cc26a-f355-4c27-a0ad-57d9e5e336cd", "source": {"name": "Vernon", "slug": "vernon"}, "source_identifier": "3638", "external_references": [{"id": 36395, "source": {"name": "Wikidata", "slug": "wikidata"}, "source_identifier": "Q121086037"}], "date_modified": "2025-03-05T12:05:09.879678+11:00"}]}