{"count": 28687, "next": "https://api.acmi.net.au/creators/?page=2513", "previous": "https://api.acmi.net.au/creators/?page=2511", "results": [{"id": 13761, "name": "Krosney", "roles_in_work": [{"id": 2679709, "title": "The Children of Bet Alpha", "work_id": 66031, "role": "production company", "role_id": 941, "is_primary": true}], "also_known_as": "", "date_of_birth": null, "date_of_death": null, "genders": [], "languages": [], "places_of_operation": [], "biography": "", "biography_author": null, "date_of_biography": null, "external_links": [], "uuid": "21484b12-9bfa-4edf-8f45-c41a66a3f604", "source": {"name": "Vernon", "slug": "vernon"}, "source_identifier": "9843", "external_references": [], "date_modified": "2025-03-07T00:20:04.070251+11:00"}, {"id": 13760, "name": "Ritzau Film", "roles_in_work": [{"id": 2679708, "title": "The Children of Bet Alpha", "work_id": 66031, "role": "production company", "role_id": 941, "is_primary": true}], "also_known_as": "", "date_of_birth": null, "date_of_death": null, "genders": [], "languages": [], "places_of_operation": [], "biography": "", "biography_author": null, "date_of_biography": null, "external_links": [], "uuid": "aec92f13-b48f-4e0f-aa54-419b6308bc36", "source": {"name": "Vernon", "slug": "vernon"}, "source_identifier": "12037", "external_references": [], "date_modified": "2025-03-07T00:20:03.485100+11:00"}, {"id": 13759, "name": "Phoenix Films", "roles_in_work": [{"id": 1845523, "title": "Hopper's Silence", "work_id": 78879, "role": "producer", "role_id": 1089, "is_primary": true}, {"id": 748551, "title": "Moving pictures: the art of Jan Lenica", "work_id": 70646, "role": "production company", "role_id": 941, "is_primary": true}, {"id": 2750126, "title": "Olympia. Part II. Festival of beauty: the diving sequence", "work_id": 97158, "role": "production company", "role_id": 941, "is_primary": true}, {"id": 2750141, "title": "The Superlative horse", "work_id": 97164, "role": "production company", "role_id": 941, "is_primary": true}, {"id": 2679707, "title": "The Children of Bet Alpha", "work_id": 66031, "role": "production company", "role_id": 941, "is_primary": true}, {"id": 2750212, "title": "Land divers of Melanesia", "work_id": 97194, "role": "production company", "role_id": 941, "is_primary": true}, {"id": 2680304, "title": "Coney", "work_id": 66321, "role": "production company", "role_id": 941, "is_primary": true}, {"id": 2750377, "title": "Dead birds", "work_id": 97294, "role": "production company", "role_id": 941, "is_primary": true}, {"id": 2750403, "title": "Le Pink grapefruit", "work_id": 97307, "role": "production company", "role_id": 941, "is_primary": true}, {"id": 2750417, "title": "Woman is", "work_id": 97315, "role": "production company", "role_id": 941, "is_primary": true}, {"id": 2750472, "title": "Women of the Toubou", "work_id": 97345, "role": "production company", "role_id": 941, "is_primary": true}, {"id": 2750477, "title": "The Incredible San Francisco artists' soapbox derby", "work_id": 97347, "role": "production company", "role_id": 941, "is_primary": true}, {"id": 2645107, "title": "Hotspot", "work_id": 68569, "role": "production company", "role_id": 941, "is_primary": true}, {"id": 2646312, "title": "The Shout it out alphabet film", "work_id": 72791, "role": "production company", "role_id": 941, "is_primary": true}, {"id": 2714696, "title": "Glass houses", "work_id": 68071, "role": "production company", "role_id": 941, "is_primary": true}, {"id": 2647382, "title": "Islam and the sciences", "work_id": 76145, "role": "production company", "role_id": 941, "is_primary": true}, {"id": 2750823, "title": "Marketing the myths", "work_id": 97523, "role": "production company", "role_id": 941, "is_primary": true}, {"id": 2750843, "title": "The Art of the potter", "work_id": 97535, "role": "production company", "role_id": 941, "is_primary": true}, {"id": 2750848, "title": "Antonia: a portrait of the woman", "work_id": 97537, "role": "production company", "role_id": 941, "is_primary": true}, {"id": 2750859, "title": "Zeca: portrait of a Vaqueiro", "work_id": 97543, "role": "production company", "role_id": 941, "is_primary": true}, {"id": 2751071, "title": "How Mole got his trousers", "work_id": 97645, "role": "production company", "role_id": 941, "is_primary": true}, {"id": 2751471, "title": "The Stronger", "work_id": 97824, "role": "production company", "role_id": 941, "is_primary": true}, {"id": 2751486, "title": "In continuo", "work_id": 97830, "role": "production company", "role_id": 941, "is_primary": true}, {"id": 2751548, "title": "Right out of history: Judy Chicago's 'Dinner party'", "work_id": 97861, "role": "production company", "role_id": 941, "is_primary": true}, {"id": 2751824, "title": "Palette of glass", "work_id": 98002, "role": "production company", "role_id": 941, "is_primary": true}, {"id": 2751832, "title": "Sky rider", "work_id": 98006, "role": "production company", "role_id": 941, "is_primary": true}, {"id": 2751983, "title": "Linda's film on menstruation", "work_id": 98082, "role": "production company", "role_id": 941, "is_primary": true}, {"id": 2752350, "title": "William's doll", "work_id": 98257, "role": "production company", "role_id": 941, "is_primary": true}, {"id": 2752360, "title": "So many voices: a look at abortion in America", "work_id": 98260, "role": "production company", "role_id": 941, "is_primary": true}, {"id": 2752397, "title": "And yet it moves", "work_id": 98277, "role": "production company", "role_id": 941, "is_primary": true}, {"id": 2752456, "title": "Marusska and Wolf Castle", "work_id": 98306, "role": "production company", "role_id": 941, "is_primary": true}, {"id": 2752996, "title": "Maps: how to read them", "work_id": 98554, "role": "production company", "role_id": 941, "is_primary": true}, {"id": 2749726, "title": "Two little frosts", "work_id": 96945, "role": "production company", "role_id": 941, "is_primary": true}, {"id": 792303, "title": "Cell 2", "work_id": 86180, "role": "production company", "role_id": 941, "is_primary": true}, {"id": 2343321, "title": "The Detour", "work_id": 75563, "role": "production company", "role_id": 941, "is_primary": true}, {"id": 1846377, "title": "The Fish from Japan", "work_id": 81963, "role": "production company", "role_id": 941, "is_primary": true}, {"id": 887118, "title": "Otto Messmer and Felix the Cat", "work_id": 97309, "role": "production company", "role_id": 941, "is_primary": true}, {"id": 747830, "title": "Medusa challenger", "work_id": 70269, "role": "production company", "role_id": 941, "is_primary": true}, {"id": 861162, "title": "The Young traveller in London", "work_id": 75022, "role": "production company", "role_id": 941, "is_primary": true}, {"id": 792305, "title": "The Young person's guide to the orchestra", "work_id": 86181, "role": "production company", "role_id": 941, "is_primary": true}, {"id": 1846373, "title": "Animals move in many ways [revised]", "work_id": 81873, "role": "production company", "role_id": 941, "is_primary": true}, {"id": 2195651, "title": "Divided trail: a Native American odyssey", "work_id": 97538, "role": "production company", "role_id": 941, "is_primary": true}, {"id": 762731, "title": "The Murderer", "work_id": 76758, "role": "production company", "role_id": 941, "is_primary": true}, {"id": 2209783, "title": "Ponies of Miklaengi", "work_id": 71700, "role": "production company", "role_id": 941, "is_primary": true}, {"id": 2615808, "title": "South America the series. -Volume 1", "work_id": 86194, "role": "production company", "role_id": 941, "is_primary": true}, {"id": 792308, "title": "Cell 1", "work_id": 86184, "role": "production company", "role_id": 941, "is_primary": true}, {"id": 1997460, "title": "Southern comfort", "work_id": 93324, "role": "production company", "role_id": 941, "is_primary": true}, {"id": 747572, "title": "The Olympia marathon sequence", "work_id": 70139, "role": "production company", "role_id": 941, "is_primary": true}, {"id": 853702, "title": "Italy today", "work_id": 69150, "role": "production company", "role_id": 941, "is_primary": true}, {"id": 2348308, "title": "The First moving picture show", "work_id": 88411, "role": "production company", "role_id": 941, "is_primary": true}, {"id": 853858, "title": "Joan Sutherland: who's afraid of opera: \"The Barber of Seville\"", "work_id": 69253, "role": "production company", "role_id": 941, "is_primary": true}, {"id": 1987322, "title": "The Pawnbroker", "work_id": 83432, "role": "production company", "role_id": 941, "is_primary": true}, {"id": 2189562, "title": "Dick", "work_id": 93452, "role": "production company", "role_id": 941, "is_primary": true}, {"id": 821188, "title": "The Christmas visitor", "work_id": 94807, "role": "production company", "role_id": 941, "is_primary": true}, {"id": 862264, "title": "An Afternoon with Grigor Piatigorsky", "work_id": 76148, "role": "production company", "role_id": 941, "is_primary": true}, {"id": 828643, "title": "Housemoving", "work_id": 97324, "role": "production company", "role_id": 941, "is_primary": true}, {"id": 828640, "title": "What is inflation?", "work_id": 97322, "role": "production company", "role_id": 941, "is_primary": true}, {"id": 765659, "title": "A Dancer's grammar", "work_id": 77911, "role": "production company", "role_id": 941, "is_primary": true}, {"id": 2337055, "title": "The Choice", "work_id": 98703, "role": "production company", "role_id": 941, "is_primary": true}, {"id": 894898, "title": "The Lincoln Center International Choral Festival", "work_id": 69743, "role": "production company", "role_id": 941, "is_primary": true}, {"id": 829226, "title": "Potters of Hebron", "work_id": 97581, "role": "production company", "role_id": 941, "is_primary": true}, {"id": 2193083, "title": "Peege", "work_id": 71429, "role": "production company", "role_id": 941, "is_primary": true}, {"id": 760590, "title": "Yours truly, Andrea G. Stern", "work_id": 75883, "role": "production company", "role_id": 941, "is_primary": true}, {"id": 870528, "title": "South America the series. -Volume 4", "work_id": 86378, "role": "production company", "role_id": 941, "is_primary": true}, {"id": 857170, "title": "The Prefects", "work_id": 71782, "role": "production company", "role_id": 941, "is_primary": true}, {"id": 863185, "title": "Martha Clarke: light and dark", "work_id": 76925, "role": "production company", "role_id": 941, "is_primary": true}, {"id": 1847389, "title": "Mouse around", "work_id": 86172, "role": "production company", "role_id": 941, "is_primary": true}, {"id": 870536, "title": "South America the series. -Volume 2", "work_id": 86380, "role": "production company", "role_id": 941, "is_primary": true}, {"id": 856063, "title": "No lies", "work_id": 70924, "role": "production company", "role_id": 941, "is_primary": true}, {"id": 1848810, "title": "The New friend", "work_id": 99018, "role": "production company", "role_id": 941, "is_primary": true}, {"id": 752228, "title": "Rivers of sand", "work_id": 72277, "role": "production company", "role_id": 941, "is_primary": true}, {"id": 870532, "title": "South America the series. -Volume 3", "work_id": 86379, "role": "production company", "role_id": 941, "is_primary": true}, {"id": 758839, "title": "Undercurrents", "work_id": 75166, "role": "production company", "role_id": 941, "is_primary": true}, {"id": 750502, "title": "Organism", "work_id": 71485, "role": "production company", "role_id": 941, "is_primary": true}], "also_known_as": "", "date_of_birth": "", "date_of_death": "", "genders": [], "languages": [], "places_of_operation": [], "biography": "", "biography_author": null, "date_of_biography": "2023-05-09T20:04:33.587119+10:00", "external_links": [], "uuid": "12edf07e-a8bc-4f72-9219-5bc941c2d867", "source": {"name": "Vernon", "slug": "vernon"}, "source_identifier": "11457", "external_references": [], "date_modified": "2025-03-13T01:16:11.909933+11:00"}, {"id": 13757, "name": "Francis Thompson", "roles_in_work": [{"id": 2714324, "title": "From generation to generation", "work_id": 67853, "role": "director", "role_id": 938, "is_primary": true}, {"id": 2713474, "title": "Emotions of every-day living. No. 3. Fears of children", "work_id": 67430, "role": "director", "role_id": 938, "is_primary": true}, {"id": 859682, "title": "Time is life", "work_id": 73838, "role": "director", "role_id": 938, "is_primary": true}, {"id": 755670, "title": "Three steps to start", "work_id": 73788, "role": "director", "role_id": 938, "is_primary": true}, {"id": 861015, "title": "World friendship", "work_id": 74924, "role": "director", "role_id": 938, "is_primary": true}, {"id": 856002, "title": "New York - New York", "work_id": 70877, "role": "director", "role_id": 938, "is_primary": true}, {"id": 2679698, "title": "N.Y., N.Y.: a day in New York", "work_id": 66028, "role": "producer/director", "role_id": 31, "is_primary": true}], "also_known_as": "", "date_of_birth": "1908-01-03", "date_of_death": "2003-12-26", "genders": [{"id": 9, "name": "Male", "slug": "male"}], "languages": [], "places_of_operation": [{"id": 1, "name": "United States of America", "slug": "united-states-of-america"}], "biography": "E. Francis Thompson (January 3, 1908 – December 26, 2003) was an influential American film director, producer, and writer.Thompson was born Ebenezer Francis Thompson on January 3, 1908, in Titusville, Pennsylvania, and commenced his career as a painter and art teacher before he directed his first film Evolution of a Skyscraper.He is best known for the films, N.Y., N.Y. (1957), To Be Alive! (1964), and City Out of Wilderness (1974) and is credited with making the first IMAX film, To Fly (1976).Thompson's style can most accurately be described as ciné-poème. In many of his films, Thompson employs a variety of kaleidoscopic lenses, distorting devices, and secretive techniques, turning his work into more of an abstract art installation than feature film. \nHe won the 1965 Academy Award for Best Documentary (Short Subject) for To Be Alive! (1964), which he co-directed with Alexander Hammid. He was a member of the Directors Guild of America and the Academy of Motion Picture Arts and Sciences, with a 50-year career in filmmaking, retiring in 1987.Thompson died on December 26, 2003, in New York at the age of 95.", "biography_author": "Wikidata", "date_of_biography": "2023-08-01T14:50:35.329439+10:00", "external_links": [{"id": 3981, "uri": "https://en.wikipedia.org/wiki/Francis_Thompson_(film_director)"}], "uuid": "1afbeb98-28f0-4604-93ca-9161cc7c7ca6", "source": {"name": "Vernon", "slug": "vernon"}, "source_identifier": "1490", "external_references": [{"id": 25084, "source": {"name": "Wikidata", "slug": "wikidata"}, "source_identifier": "Q22945339"}, {"id": 28432, "source": {"name": "VIAF", "slug": "viaf"}, "source_identifier": "50290759"}, {"id": 28433, "source": {"name": "LOC Auth", "slug": "loc-auth"}, "source_identifier": "no2006064595"}, {"id": 28434, "source": {"name": "WorldCat", "slug": "worldcat"}, "source_identifier": "lccn-no2006064595"}], "date_modified": "2025-03-12T01:10:02.155045+11:00"}, {"id": 13756, "name": "Centralfilm", "roles_in_work": [{"id": 2679697, "title": "Children in town", "work_id": 66027, "role": "production company", "role_id": 941, "is_primary": true}], "also_known_as": "", "date_of_birth": null, "date_of_death": null, "genders": [], "languages": [], "places_of_operation": [], "biography": "", "biography_author": null, "date_of_biography": null, "external_links": [], "uuid": "12762507-a109-4c2e-928a-5b3f437786ab", "source": {"name": "Vernon", "slug": "vernon"}, "source_identifier": "6432", "external_references": [], "date_modified": "2025-03-07T00:17:55.972122+11:00"}, {"id": 13755, "name": "Stockholm Parks Department", "roles_in_work": [{"id": 2679696, "title": "Children in town", "work_id": 66027, "role": "production company", "role_id": 941, "is_primary": true}], "also_known_as": "", "date_of_birth": null, "date_of_death": null, "genders": [], "languages": [], "places_of_operation": [], "biography": "", "biography_author": null, "date_of_biography": null, "external_links": [], "uuid": "7d5db78e-f116-4a62-86b6-1aaf1f621952", "source": {"name": "Vernon", "slug": "vernon"}, "source_identifier": "12964", "external_references": [], "date_modified": "2025-03-07T00:17:55.277799+11:00"}, {"id": 13752, "name": "Film Centre", "roles_in_work": [{"id": 753485, "title": "Six candles", "work_id": 72862, "role": "production company", "role_id": 941, "is_primary": true}, {"id": 2679691, "title": "Children Growing Up with Other People", "work_id": 66025, "role": "production company", "role_id": 941, "is_primary": true}, {"id": 2469673, "title": "Usutu", "work_id": 74261, "role": "production company", "role_id": 941, "is_primary": true}], "also_known_as": "", "date_of_birth": "", "date_of_death": "", "genders": [], "languages": [], "places_of_operation": [], "biography": "", "biography_author": null, "date_of_biography": "2023-08-14T12:06:20.445626+10:00", "external_links": [], "uuid": "26f8daee-9e34-411f-b85a-1270f465da19", "source": {"name": "Vernon", "slug": "vernon"}, "source_identifier": "8191", "external_references": [], "date_modified": "2025-03-07T00:17:51.786375+11:00"}, {"id": 13751, "name": "Margaret Thomson", "roles_in_work": [{"id": 859936, "title": "The Troubled mind", "work_id": 74035, "role": "director", "role_id": 938, "is_primary": true}, {"id": 2713130, "title": "Every baby a wanted baby", "work_id": 67257, "role": "director", "role_id": 938, "is_primary": true}, {"id": 756106, "title": "Training for industry", "work_id": 73974, "role": "director", "role_id": 938, "is_primary": true}, {"id": 2616285, "title": "Reseeding for better grass", "work_id": 86975, "role": "director", "role_id": 938, "is_primary": true}, {"id": 2680396, "title": "Continuous observation", "work_id": 66364, "role": "director", "role_id": 938, "is_primary": true}, {"id": 2713383, "title": "A Family affair", "work_id": 67384, "role": "director", "role_id": 938, "is_primary": true}, {"id": 858239, "title": "A Sense of belonging", "work_id": 72656, "role": "director", "role_id": 938, "is_primary": true}, {"id": 2714508, "title": "Gastro-enteritis in infancy", "work_id": 67960, "role": "director", "role_id": 938, "is_primary": true}, {"id": 872484, "title": "New Zealand's exotic forests", "work_id": 87666, "role": "director", "role_id": 938, "is_primary": true}, {"id": 757820, "title": "The Whole works", "work_id": 74725, "role": "director", "role_id": 938, "is_primary": true}, {"id": 2679688, "title": "Children Growing Up with Other People", "work_id": 66025, "role": "director", "role_id": 938, "is_primary": true}, {"id": 1559736, "title": "Respiratory tract infection in children's wards", "work_id": 72178, "role": "director", "role_id": 938, "is_primary": true}, {"id": 803308, "title": "Endotracheal anaesthesia", "work_id": 89628, "role": "director", "role_id": 938, "is_primary": true}, {"id": 2679706, "title": "Children learning by experience", "work_id": 66030, "role": "director", "role_id": 938, "is_primary": true}, {"id": 2713024, "title": "Enrolled nurse", "work_id": 67205, "role": "director", "role_id": 938, "is_primary": true}, {"id": 3087107, "title": "Nitrous oxide, oxygen, ether, anaesthesia", "work_id": 70915, "role": "director", "role_id": 938, "is_primary": true}, {"id": 3087112, "title": "Open drop ether", "work_id": 71160, "role": "director", "role_id": 938, "is_primary": true}, {"id": 2644403, "title": "Clean milk", "work_id": 66172, "role": "director", "role_id": 938, "is_primary": true}, {"id": 2646740, "title": "Understanding aggression", "work_id": 74166, "role": "director", "role_id": 938, "is_primary": true}, {"id": 1819720, "title": "Your children's teeth", "work_id": 75034, "role": "producer", "role_id": 1089, "is_primary": true}, {"id": 2646994, "title": "Your children's ears", "work_id": 75029, "role": "producer", "role_id": 1089, "is_primary": true}, {"id": 2645539, "title": "Making grass silage", "work_id": 70040, "role": "producer", "role_id": 1089, "is_primary": true}], "also_known_as": "", "date_of_birth": "10 JUN 1910", "date_of_death": "30 DEC 2005", "genders": [{"id": 5, "name": "Female", "slug": "female"}], "languages": [], "places_of_operation": [], "biography": "Margaret Thomson  (10 June 1910 – 30 December 2005) was an Australian-born documentary filmmaker who divided her forty-year career between New Zealand and England. She was the first female film director active in New Zealand.", "biography_author": "Wikidata", "date_of_biography": "2023-08-01T16:03:31.448455+10:00", "external_links": [{"id": 4607, "uri": "https://en.wikipedia.org/wiki/Margaret_Thomson"}], "uuid": "de09b9d9-0c7e-43a7-b0e6-400d50de9cf4", "source": {"name": "Vernon", "slug": "vernon"}, "source_identifier": "4711", "external_references": [{"id": 26634, "source": {"name": "Wikidata", "slug": "wikidata"}, "source_identifier": "Q41751150"}], "date_modified": "2025-03-17T10:46:44.941133+11:00"}, {"id": 13750, "name": "Tasmanian Government Film Unit", "roles_in_work": [{"id": 2715180, "title": "Hard to windward", "work_id": 68317, "role": "production company", "role_id": 941, "is_primary": true}, {"id": 2715007, "title": "Growing up at St Giles", "work_id": 68232, "role": "production company", "role_id": 941, "is_primary": true}, {"id": 2714513, "title": "Gateway to charm", "work_id": 67966, "role": "production company", "role_id": 941, "is_primary": true}, {"id": 2646335, "title": "Smoke signal", "work_id": 72916, "role": "production company", "role_id": 941, "is_primary": true}, {"id": 2714007, "title": "For all who read", "work_id": 67706, "role": "production company", "role_id": 941, "is_primary": true}, {"id": 2679686, "title": "Children crossing", "work_id": 66024, "role": "production company", "role_id": 941, "is_primary": true}, {"id": 2713718, "title": "First aid on the dairy farm", "work_id": 67552, "role": "production company", "role_id": 941, "is_primary": true}, {"id": 2766163, "title": "The Use of poison", "work_id": 74247, "role": "production company", "role_id": 941, "is_primary": true}, {"id": 2766156, "title": "War on warrens", "work_id": 66738, "role": "production company", "role_id": 941, "is_primary": true}, {"id": 2712216, "title": "Do unto others", "work_id": 66849, "role": "production company", "role_id": 941, "is_primary": true}, {"id": 754361, "title": "Mining in Australia: the the story of copper", "work_id": 73235, "role": "production company", "role_id": 941, "is_primary": true}, {"id": 755025, "title": "Tasmanian Magazine. No. 1", "work_id": 73520, "role": "production company", "role_id": 941, "is_primary": true}, {"id": 755024, "title": "Tasmanian magazine. No. 4", "work_id": 73519, "role": "production company", "role_id": 941, "is_primary": true}, {"id": 801649, "title": "Tasmanian magazine. No. 3", "work_id": 89092, "role": "production company", "role_id": 941, "is_primary": true}, {"id": 801648, "title": "Tasmanian magazine. No. 2", "work_id": 89091, "role": "production company", "role_id": 941, "is_primary": true}, {"id": 874988, "title": "Seed of success", "work_id": 89229, "role": "production company", "role_id": 941, "is_primary": true}, {"id": 756793, "title": "Valley of the Derwent", "work_id": 74274, "role": "production company", "role_id": 941, "is_primary": true}, {"id": 790932, "title": "Angler's island", "work_id": 85779, "role": "production company", "role_id": 941, "is_primary": true}, {"id": 876659, "title": "Power in the mountains", "work_id": 90197, "role": "production company", "role_id": 941, "is_primary": true}, {"id": 757924, "title": "The Wildlife of Macquarie Island", "work_id": 74769, "role": "production company", "role_id": 941, "is_primary": true}, {"id": 857536, "title": "Rearing dairy calves", "work_id": 72086, "role": "production company", "role_id": 941, "is_primary": true}, {"id": 2392118, "title": "The Splendour and the Peaks", "work_id": 73105, "role": "production company", "role_id": 941, "is_primary": true}, {"id": 2391865, "title": "It needn't happen", "work_id": 69141, "role": "production company", "role_id": 941, "is_primary": true}, {"id": 753548, "title": "Skin deep", "work_id": 72887, "role": "production company", "role_id": 941, "is_primary": true}, {"id": 755023, "title": "Tasmanian magazine. No. 5", "work_id": 73518, "role": "production company", "role_id": 941, "is_primary": true}, {"id": 2715913, "title": "Huon's new harvest", "work_id": 68685, "role": "production company", "role_id": 941, "is_primary": true}, {"id": 755020, "title": "Tasmania: Australia's apple isle", "work_id": 73516, "role": "production company", "role_id": 941, "is_primary": true}, {"id": 2715445, "title": "The Hidden factor", "work_id": 68443, "role": "production company", "role_id": 941, "is_primary": true}], "also_known_as": "", "date_of_birth": "", "date_of_death": "", "genders": [], "languages": [], "places_of_operation": [], "biography": "", "biography_author": null, "date_of_biography": "2023-08-09T03:52:21.734702+10:00", "external_links": [], "uuid": "0c061a93-c917-479d-afb0-ff6c0b973e04", "source": {"name": "Vernon", "slug": "vernon"}, "source_identifier": "13182", "external_references": [{"id": 34122, "source": {"name": "Wikidata", "slug": "wikidata"}, "source_identifier": "Q121126696"}], "date_modified": "2025-03-14T17:56:54.945958+11:00"}, {"id": 13749, "name": "Lorna Ridgeway", "roles_in_work": [{"id": 755019, "title": "Task of the teacher (TEFC)", "work_id": 73515, "role": "director", "role_id": 938, "is_primary": true}, {"id": 2679684, "title": "Children are people (TEFC)", "work_id": 66022, "role": "director", "role_id": 938, "is_primary": true}, {"id": 2404043, "title": "Children are people", "work_id": 96397, "role": "director", "role_id": 938, "is_primary": true}], "also_known_as": "", "date_of_birth": "", "date_of_death": "", "genders": [], "languages": [], "places_of_operation": [], "biography": "", "biography_author": null, "date_of_biography": "2023-08-11T15:24:48.222241+10:00", "external_links": [], "uuid": "b05001d9-2fed-4ee1-87a7-482545cf0988", "source": {"name": "Vernon", "slug": "vernon"}, "source_identifier": "23995", "external_references": [], "date_modified": "2025-03-07T00:17:46.652580+11:00"}]}