{"count": 28682, "next": "https://api.acmi.net.au/creators/?page=1347", "previous": "https://api.acmi.net.au/creators/?page=1345", "results": [{"id": 38195, "name": "Paideia", "roles_in_work": [{"id": 2749756, "title": "Attraction of gravity", "work_id": 96962, "role": "production company", "role_id": 941, "is_primary": true}], "also_known_as": "", "date_of_birth": "", "date_of_death": "", "genders": [], "languages": [], "places_of_operation": [], "biography": "", "biography_author": null, "date_of_biography": "2023-08-11T14:26:23.321411+10:00", "external_links": [], "uuid": "39dfb316-7984-4708-9f13-73dcbaf1a5b9", "source": {"name": "Vernon", "slug": "vernon"}, "source_identifier": "11237", "external_references": [], "date_modified": "2025-03-13T00:06:27.980056+11:00"}, {"id": 38194, "name": "William Boundy", "roles_in_work": [{"id": 2749753, "title": "Accuracy in measurement", "work_id": 96960, "role": "producer", "role_id": 1089, "is_primary": true}], "also_known_as": "", "date_of_birth": "", "date_of_death": "", "genders": [], "languages": [], "places_of_operation": [], "biography": "", "biography_author": null, "date_of_biography": "2023-08-11T13:26:34.937249+10:00", "external_links": [], "uuid": "55dab88f-7d4c-4d5f-b82d-09f4df16d1b1", "source": {"name": "Vernon", "slug": "vernon"}, "source_identifier": "30375", "external_references": [], "date_modified": "2025-03-13T00:06:25.653521+11:00"}, {"id": 38193, "name": "James B. Kelly", "roles_in_work": [{"id": 2749752, "title": "Red Sunday: the story of the Battle of Little Big Horn", "work_id": 96959, "role": "director", "role_id": 938, "is_primary": true}], "also_known_as": "", "date_of_birth": "", "date_of_death": "", "genders": [], "languages": [], "places_of_operation": [], "biography": "", "biography_author": null, "date_of_biography": "2023-05-09T17:04:00.014417+10:00", "external_links": [], "uuid": "8b9f655a-32f3-4eaa-8c03-e3e21c18c92d", "source": {"name": "Vernon", "slug": "vernon"}, "source_identifier": "21190", "external_references": [{"id": 32616, "source": {"name": "Wikidata", "slug": "wikidata"}, "source_identifier": "Q121337394"}], "date_modified": "2025-03-13T00:06:24.842781+11:00"}, {"id": 38190, "name": "Joan Laskoff", "roles_in_work": [{"id": 3105458, "title": "Un Inconnu Nomme Eiffel", "work_id": 116466, "role": "director", "role_id": 938, "is_primary": true}, {"id": 2749748, "title": "The Unknown Eiffel", "work_id": 96958, "role": "director", "role_id": 938, "is_primary": true}], "also_known_as": "", "date_of_birth": "", "date_of_death": "", "genders": [], "languages": [], "places_of_operation": [], "biography": "", "biography_author": null, "date_of_biography": "2023-08-14T12:02:50.606902+10:00", "external_links": [], "uuid": "94179293-d2d1-4e45-aee9-dfab7f3697d3", "source": {"name": "Vernon", "slug": "vernon"}, "source_identifier": "21981", "external_references": [], "date_modified": "2025-05-22T23:06:25.389108+10:00"}, {"id": 38189, "name": "Lennox Art Group", "roles_in_work": [{"id": 2749747, "title": "The Unknown Eiffel", "work_id": 96958, "role": "production company", "role_id": 941, "is_primary": true}], "also_known_as": "", "date_of_birth": "", "date_of_death": "", "genders": [], "languages": [], "places_of_operation": [], "biography": "", "biography_author": null, "date_of_biography": "2023-08-14T11:38:23.815867+10:00", "external_links": [], "uuid": "c83f2246-b007-4907-96e4-af1dbacbab62", "source": {"name": "Vernon", "slug": "vernon"}, "source_identifier": "9975", "external_references": [], "date_modified": "2025-03-13T00:06:21.606719+11:00"}, {"id": 38187, "name": "A Dave Smallin Production", "roles_in_work": [{"id": 2749739, "title": "What about tomorrow?", "work_id": 96954, "role": "production company", "role_id": 941, "is_primary": true}], "also_known_as": "", "date_of_birth": "", "date_of_death": "", "genders": [], "languages": [], "places_of_operation": [], "biography": "", "biography_author": null, "date_of_biography": "2023-05-09T18:17:28.686707+10:00", "external_links": [], "uuid": "926f7d6f-c296-4f6f-b657-543d1ac01aa7", "source": {"name": "Vernon", "slug": "vernon"}, "source_identifier": "4930", "external_references": [{"id": 42820, "source": {"name": "Wikidata", "slug": "wikidata"}, "source_identifier": "Q121222707"}], "date_modified": "2025-03-13T00:06:15.887726+11:00"}, {"id": 38186, "name": "University of Denver", "roles_in_work": [{"id": 2398367, "title": "A Snort history", "work_id": 96953, "role": "production company", "role_id": 941, "is_primary": true}], "also_known_as": "", "date_of_birth": "", "date_of_death": "", "genders": [], "languages": [], "places_of_operation": [], "biography": "", "biography_author": null, "date_of_biography": "2023-08-11T13:17:03.000253+10:00", "external_links": [], "uuid": "e9919dab-1a97-489c-a5e5-47e9b0306233", "source": {"name": "Vernon", "slug": "vernon"}, "source_identifier": "13915", "external_references": [], "date_modified": "2023-08-11T13:17:03.000578+10:00"}, {"id": 38185, "name": "John La Pointe", "roles_in_work": [{"id": 2749738, "title": "Ride On", "work_id": 96952, "role": "director", "role_id": 938, "is_primary": true}], "also_known_as": "", "date_of_birth": null, "date_of_death": null, "genders": [], "languages": [], "places_of_operation": [], "biography": "", "biography_author": null, "date_of_biography": null, "external_links": [], "uuid": "e87d42ba-746b-41bb-b0ea-2368d4f98455", "source": {"name": "Vernon", "slug": "vernon"}, "source_identifier": "22363", "external_references": [], "date_modified": "2025-03-13T00:06:15.049176+11:00"}, {"id": 38184, "name": "Lucien Clergue", "roles_in_work": [{"id": 2749736, "title": "Picasso: war, peace & love", "work_id": 96951, "role": "director", "role_id": 938, "is_primary": true}], "also_known_as": "", "date_of_birth": null, "date_of_death": null, "genders": [], "languages": [], "places_of_operation": [], "biography": "", "biography_author": null, "date_of_biography": null, "external_links": [], "uuid": "9ac227a8-46cc-4370-99bd-d8c4153f3c01", "source": {"name": "Vernon", "slug": "vernon"}, "source_identifier": "24074", "external_references": [], "date_modified": "2025-03-13T00:06:13.627641+11:00"}, {"id": 38183, "name": "Lifestyle Productions", "roles_in_work": [{"id": 2749721, "title": "Where is dead?", "work_id": 96942, "role": "production company", "role_id": 941, "is_primary": true}], "also_known_as": "", "date_of_birth": null, "date_of_death": null, "genders": [], "languages": [], "places_of_operation": [], "biography": "", "biography_author": null, "date_of_biography": null, "external_links": [], "uuid": "9baf18aa-ee34-4cf3-85b5-1eaae00bc9f3", "source": {"name": "Vernon", "slug": "vernon"}, "source_identifier": "34578", "external_references": [], "date_modified": "2025-03-13T00:06:02.046271+11:00"}]}