{"count": 28687, "next": "https://api.acmi.net.au/creators/?page=970", "previous": "https://api.acmi.net.au/creators/?page=968", "results": [{"id": 75892, "name": "Jacolyn Kildare", "roles_in_work": [{"id": 2647714, "title": "Earthly beings", "work_id": 77148, "role": "co-producer", "role_id": 915, "is_primary": true}], "also_known_as": "", "date_of_birth": "", "date_of_death": "", "genders": [], "languages": [], "places_of_operation": [], "biography": "", "biography_author": null, "date_of_biography": "2023-05-09T15:50:06.923737+10:00", "external_links": [], "uuid": "032983ae-8469-4f7b-a1ee-b4f04aa53d05", "source": {"name": "Vernon", "slug": "vernon"}, "source_identifier": "21122", "external_references": [{"id": 32478, "source": {"name": "Wikidata", "slug": "wikidata"}, "source_identifier": "Q121079289"}], "date_modified": "2025-03-05T13:31:20.768445+11:00"}, {"id": 75891, "name": "Barry Lank", "roles_in_work": [{"id": 765272, "title": "Muscle", "work_id": 77784, "role": "director", "role_id": 938, "is_primary": true}, {"id": 2412612, "title": "It's a hobby for Harvey", "work_id": 77147, "role": "producer/director", "role_id": 31, "is_primary": true}], "also_known_as": "", "date_of_birth": "", "date_of_death": "", "genders": [], "languages": [], "places_of_operation": [], "biography": "", "biography_author": null, "date_of_biography": "2023-08-11T18:42:11.776448+10:00", "external_links": [], "uuid": "684611bd-7106-4630-8ab4-5f9496c1b241", "source": {"name": "Vernon", "slug": "vernon"}, "source_identifier": "1824", "external_references": [{"id": 42011, "source": {"name": "Wikidata", "slug": "wikidata"}, "source_identifier": "Q121223419"}], "date_modified": "2023-09-05T17:55:07.798545+10:00"}, {"id": 75890, "name": "Terry Dunn", "roles_in_work": [{"id": 2237257, "title": "Reaching out: a story about mainstreaming", "work_id": 77145, "role": "producer", "role_id": 1089, "is_primary": true}], "also_known_as": "", "date_of_birth": "", "date_of_death": "", "genders": [], "languages": [], "places_of_operation": [], "biography": "", "biography_author": null, "date_of_biography": "2023-05-09T16:47:36.753205+10:00", "external_links": [], "uuid": "b277dbe9-d21a-407c-b8f0-68ce447cd460", "source": {"name": "Vernon", "slug": "vernon"}, "source_identifier": "29589", "external_references": [{"id": 40351, "source": {"name": "Wikidata", "slug": "wikidata"}, "source_identifier": "Q121337429"}], "date_modified": "2023-09-06T01:45:58.345948+10:00"}, {"id": 75889, "name": "Gary Rocklen", "roles_in_work": [{"id": 2162597, "title": "Once upon a mouse and other mousetime stories", "work_id": 94674, "role": "co-producer", "role_id": 915, "is_primary": true}, {"id": 2162572, "title": "Once upon a mouse", "work_id": 77139, "role": "producer", "role_id": 1089, "is_primary": true}], "also_known_as": "", "date_of_birth": "", "date_of_death": "", "genders": [], "languages": [], "places_of_operation": [], "biography": "", "biography_author": null, "date_of_biography": "2023-05-09T14:19:46.356379+10:00", "external_links": [], "uuid": "3bf0d30c-be5f-4cca-b4e2-8cf016186ceb", "source": {"name": "Vernon", "slug": "vernon"}, "source_identifier": "19434", "external_references": [{"id": 50949, "source": {"name": "Wikidata", "slug": "wikidata"}, "source_identifier": "Q117863004"}], "date_modified": "2023-09-05T19:58:20.929508+10:00"}, {"id": 75888, "name": "Don Ezard", "roles_in_work": [{"id": 897230, "title": "Koko Pops: Koko's history of music", "work_id": 77132, "role": "co-director", "role_id": 959, "is_primary": true}, {"id": 1807084, "title": "Ironbark Bill (Captioned)", "work_id": 79149, "role": "producer", "role_id": 1089, "is_primary": true}, {"id": 2648499, "title": "Ironbark Bill", "work_id": 79383, "role": "producer", "role_id": 1089, "is_primary": true}, {"id": 1807155, "title": "Where the forest meets the sea", "work_id": 79196, "role": "producer", "role_id": 1089, "is_primary": true}, {"id": 1813096, "title": "Where the forest meets the sea (Captioned)", "work_id": 79755, "role": "producer", "role_id": 1089, "is_primary": true}], "also_known_as": "", "date_of_birth": null, "date_of_death": null, "genders": [], "languages": [], "places_of_operation": [], "biography": "", "biography_author": null, "date_of_biography": null, "external_links": [], "uuid": "b80bdaec-2ccb-4c97-b9fc-4a5aedc785fa", "source": {"name": "Vernon", "slug": "vernon"}, "source_identifier": "18204", "external_references": [{"id": 40073, "source": {"name": "Wikidata", "slug": "wikidata"}, "source_identifier": "Q121034267"}], "date_modified": "2025-03-05T13:46:25.417491+11:00"}, {"id": 75887, "name": "Skandia Insurance", "roles_in_work": [{"id": 2066663, "title": "A Child is born", "work_id": 77127, "role": "production company", "role_id": 941, "is_primary": true}], "also_known_as": "", "date_of_birth": "", "date_of_death": "", "genders": [], "languages": [], "places_of_operation": [], "biography": "", "biography_author": null, "date_of_biography": "2023-05-09T11:24:11.842190+10:00", "external_links": [], "uuid": "b106a913-0f82-48eb-bae8-67fc28ab648e", "source": {"name": "Vernon", "slug": "vernon"}, "source_identifier": "12624", "external_references": [{"id": 41263, "source": {"name": "Wikidata", "slug": "wikidata"}, "source_identifier": "Q121035403"}], "date_modified": "2023-09-06T01:21:33.654791+10:00"}, {"id": 75886, "name": "Jon Else", "roles_in_work": [{"id": 2342103, "title": "The Day after trinity", "work_id": 77122, "role": "producer/director", "role_id": 31, "is_primary": true}], "also_known_as": "", "date_of_birth": "1944-06-16", "date_of_death": "", "genders": [{"id": 9, "name": "Male", "slug": "male"}], "languages": [], "places_of_operation": [{"id": 1, "name": "United States of America", "slug": "united-states-of-america"}], "biography": "Jon H. Else is an American documentary filmmaker and professor at the UC Berkeley Graduate School of Journalism. He directs the documentary program.", "biography_author": "Wikidata", "date_of_biography": "2023-08-01T15:41:06.585956+10:00", "external_links": [{"id": 2450, "uri": "https://en.wikipedia.org/wiki/Jon_H._Else"}], "uuid": "5018ff29-81bc-4d38-805a-8b9297245fa1", "source": {"name": "Vernon", "slug": "vernon"}, "source_identifier": "22606", "external_references": [{"id": 10478, "source": {"name": "Wikidata", "slug": "wikidata"}, "source_identifier": "Q6270824"}, {"id": 10479, "source": {"name": "VIAF", "slug": "viaf"}, "source_identifier": "53012134"}, {"id": 10480, "source": {"name": "LOC Auth", "slug": "loc-auth"}, "source_identifier": "n81083806"}, {"id": 10481, "source": {"name": "WorldCat", "slug": "worldcat"}, "source_identifier": "lccn-n81083806"}, {"id": 54921, "source": {"name": "VIAF", "slug": "viaf"}, "source_identifier": "537147907522179210006"}], "date_modified": "2023-09-05T21:47:18.360594+10:00"}, {"id": 75885, "name": "Paul Kaufman", "roles_in_work": [{"id": 2242749, "title": "Fish heads", "work_id": 77121, "role": "co-producers/directors", "role_id": 628, "is_primary": true}], "also_known_as": "", "date_of_birth": "", "date_of_death": "", "genders": [], "languages": [], "places_of_operation": [], "biography": "", "biography_author": null, "date_of_biography": "2023-05-09T16:56:41.666642+10:00", "external_links": [], "uuid": "a30545a9-c582-4ae4-9b43-5e7475673310", "source": {"name": "Vernon", "slug": "vernon"}, "source_identifier": "1622", "external_references": [], "date_modified": "2023-06-14T16:33:30.576250+10:00"}, {"id": 75884, "name": "Joan Farber", "roles_in_work": [{"id": 2242745, "title": "Fish heads", "work_id": 77121, "role": "co-producers/directors", "role_id": 628, "is_primary": true}], "also_known_as": "", "date_of_birth": "", "date_of_death": "", "genders": [], "languages": [], "places_of_operation": [], "biography": "", "biography_author": null, "date_of_biography": "2023-05-09T16:56:41.330528+10:00", "external_links": [], "uuid": "0b33a63b-32d3-45e7-bbb2-755fc0b1e69a", "source": {"name": "Vernon", "slug": "vernon"}, "source_identifier": "1621", "external_references": [], "date_modified": "2023-06-14T16:33:30.576250+10:00"}, {"id": 75883, "name": "Rocky Schenck", "roles_in_work": [{"id": 2242741, "title": "Fish heads", "work_id": 77121, "role": "co-producers/directors", "role_id": 628, "is_primary": true}], "also_known_as": "", "date_of_birth": "1960-01-01", "date_of_death": "", "genders": [{"id": 9, "name": "Male", "slug": "male"}], "languages": [], "places_of_operation": [{"id": 1, "name": "United States of America", "slug": "united-states-of-america"}], "biography": "Rocky Schenck (born April 18, 1955) is an American photographer and music video director. Schenck has photographed several album covers and has written and directed numerous music videos and short films. He has shot fashion, editorial and portraits for magazines such as Vogue, Rolling Stone, Time, New York Times, Entertainment Weekly, and others. Schenck has collaborated with many personalities in the music and entertainment worlds, including Alice in Chains, Jerry Cantrell, Adele, Ozzy Osbourne, John Prine , Robert Plant, Willie Nelson, B.B. King, Stevie Nicks, Nick Cave, P.J. Harvey, Annie Lennox, Alison Krauss, Ray Bradbury, Ellen DeGeneres, Baz Luhrmann, Kylie Minogue, T-Bone Burnett, Joni Mitchell, The Cramps, Tom Cruise, Johnny Mathis, Linda Ronstadt, Sheryl Crow, Josh Duhamel, Diana Krall, Brian Wilson, Donna Summer, Nicole Kidman, Gary Coleman, k.d. lang, Jerry Lee Lewis, Natalie Cole, Gloria Estefan, Neil Diamond, Laurence Fishburne, Gladys Knight, Frances Bean Cobain, and Rod Stewart.", "biography_author": "Wikidata", "date_of_biography": "2023-09-06T00:50:19.365564+10:00", "external_links": [{"id": 6149, "uri": "https://en.wikipedia.org/wiki/Rocky_Schenck"}], "uuid": "e475fdc2-4d6e-4f7e-9656-9e6af76ce3ec", "source": {"name": "Vernon", "slug": "vernon"}, "source_identifier": "1620", "external_references": [{"id": 33289, "source": {"name": "Wikidata", "slug": "wikidata"}, "source_identifier": "Q2081364"}, {"id": 55694, "source": {"name": "VIAF", "slug": "viaf"}, "source_identifier": "63145970042332250670"}, {"id": 55695, "source": {"name": "LOC Auth", "slug": "loc-auth"}, "source_identifier": "n2003006975"}, {"id": 55696, "source": {"name": "WorldCat", "slug": "worldcat"}, "source_identifier": "lccn-n2003006975"}], "date_modified": "2023-09-06T00:50:19.389140+10:00"}]}