{"count": 28682, "next": "https://api.acmi.net.au/creators/?page=1770", "previous": "https://api.acmi.net.au/creators/?page=1768", "results": [{"id": 27056, "name": "Jordan Kerner", "roles_in_work": [{"id": 1990032, "title": "Mighty Ducks 2", "work_id": 85599, "role": "co-producer", "role_id": 915, "is_primary": true}, {"id": 2476375, "title": "George of the jungle", "work_id": 93137, "role": "co-producer", "role_id": 915, "is_primary": true}, {"id": 2000360, "title": "Inspector Gadget", "work_id": 95052, "role": "co-producer", "role_id": 915, "is_primary": true}, {"id": 1991573, "title": "Up close & personal (Captioned)", "work_id": 87323, "role": "co-producer", "role_id": 915, "is_primary": true}, {"id": 1978732, "title": "When a man loves a woman", "work_id": 95463, "role": "co-producer", "role_id": 915, "is_primary": true}, {"id": 1989352, "title": "Fried green tomatoes at the Whistle Stop Cafe (Captioned)", "work_id": 85146, "role": "producer", "role_id": 1089, "is_primary": true}, {"id": 1989560, "title": "Fried green tomatoes at the Whistle Stop Cafe", "work_id": 85273, "role": "producer", "role_id": 1089, "is_primary": true}], "also_known_as": "", "date_of_birth": "1950-02-05", "date_of_death": null, "genders": [{"id": 9, "name": "Male", "slug": "male"}], "languages": [{"id": 1, "name": "English", "slug": "english"}], "places_of_operation": [{"id": 1, "name": "United States of America", "slug": "united-states-of-america"}], "biography": "Jordan Kerner is an American film producer.", "biography_author": "Wikidata", "date_of_biography": "2023-08-01T15:42:10.805465+10:00", "external_links": [{"id": 4431, "uri": "https://en.wikipedia.org/wiki/Jordan_Kerner"}], "uuid": "d7a5c18e-aa2e-4ef0-8a96-bde438caf6b0", "source": {"name": "Vernon", "slug": "vernon"}, "source_identifier": "22688", "external_references": [{"id": 25060, "source": {"name": "Wikidata", "slug": "wikidata"}, "source_identifier": "Q16145374"}], "date_modified": "2023-09-13T12:30:39.404202+10:00"}, {"id": 27055, "name": "Jon Avnet", "roles_in_work": [{"id": 1991574, "title": "Up close & personal (Captioned)", "work_id": 87323, "role": "director", "role_id": 938, "is_primary": true}, {"id": 1978733, "title": "When a man loves a woman", "work_id": 95463, "role": "co-producer", "role_id": 915, "is_primary": true}, {"id": 2476376, "title": "George of the jungle", "work_id": 93137, "role": "co-producer", "role_id": 915, "is_primary": true}, {"id": 1990033, "title": "Mighty Ducks 2", "work_id": 85599, "role": "co-producer", "role_id": 915, "is_primary": true}, {"id": 1991571, "title": "Up close & personal (Captioned)", "work_id": 87323, "role": "co-producer", "role_id": 915, "is_primary": true}, {"id": 2250675, "title": "Risky business", "work_id": 88440, "role": "producer", "role_id": 1089, "is_primary": true}, {"id": 1989559, "title": "Fried green tomatoes at the Whistle Stop Cafe", "work_id": 85273, "role": "producer/director", "role_id": 31, "is_primary": true}, {"id": 1989351, "title": "Fried green tomatoes at the Whistle Stop Cafe (Captioned)", "work_id": 85146, "role": "producer/director", "role_id": 31, "is_primary": true}], "also_known_as": "", "date_of_birth": "1949-11-17", "date_of_death": "", "genders": [{"id": 9, "name": "Male", "slug": "male"}], "languages": [{"id": 1, "name": "English", "slug": "english"}], "places_of_operation": [{"id": 1, "name": "United States of America", "slug": "united-states-of-america"}], "biography": "Jonathan Michael Avnet (born November 17, 1949), is an American director, writer and producer.", "biography_author": "Wikidata", "date_of_biography": "2023-09-05T21:47:03.993709+10:00", "external_links": [{"id": 4422, "uri": "https://en.wikipedia.org/wiki/Jon_Avnet"}], "uuid": "b33c922b-a2a3-4432-9fe9-13530e25b2a8", "source": {"name": "Vernon", "slug": "vernon"}, "source_identifier": "22602", "external_references": [{"id": 25326, "source": {"name": "Wikidata", "slug": "wikidata"}, "source_identifier": "Q939079"}, {"id": 29611, "source": {"name": "VIAF", "slug": "viaf"}, "source_identifier": "114756928"}, {"id": 29612, "source": {"name": "LOC Auth", "slug": "loc-auth"}, "source_identifier": "n92072417"}, {"id": 29613, "source": {"name": "WorldCat", "slug": "worldcat"}, "source_identifier": "lccn-n92072417"}], "date_modified": "2023-09-05T21:47:06.039367+10:00"}, {"id": 27052, "name": "Bertrand Blier", "roles_in_work": [{"id": 3105166, "title": "Si J'etais Un Espion... = Breakdown", "work_id": 116278, "role": "director", "role_id": 938, "is_primary": true}, {"id": 1989330, "title": "Too beautiful for you = Trop belle pour toi", "work_id": 85142, "role": "director", "role_id": 938, "is_primary": true}, {"id": 1994121, "title": "Cold cuts = Buffet froid [Widescreen]", "work_id": 89853, "role": "director", "role_id": 938, "is_primary": true}, {"id": 2474839, "title": "Get out your handkerchiefs = Preparez vos mouchoirs", "work_id": 89883, "role": "director", "role_id": 938, "is_primary": true}, {"id": 1994153, "title": "Mon homme", "work_id": 89885, "role": "director", "role_id": 938, "is_primary": true}, {"id": 803911, "title": "Getting it up = Les Valseuses [Widescreen]", "work_id": 89849, "role": "director", "role_id": 938, "is_primary": true}, {"id": 3104835, "title": "Buffet Froid = Cold Cuts", "work_id": 116107, "role": "director", "role_id": 938, "is_primary": true}], "also_known_as": "", "date_of_birth": "1939-03-14", "date_of_death": null, "genders": [{"id": 9, "name": "Male", "slug": "male"}], "languages": [{"id": 4, "name": "French", "slug": "french"}], "places_of_operation": [{"id": 17, "name": "France", "slug": "france"}], "biography": "Bertrand Blier (French: [bɛʁtʁɑ̃ blje]; born 14 March 1939) is a French film director and writer. His 1978 film Get Out Your Handkerchiefs won the Academy Award for Best Foreign Language Film at the 51st Academy Awards.He is the son of famous French actor Bernard Blier. His 1996 film Mon Homme was entered into the 46th Berlin International Film Festival. His 2005 film How Much Do You Love Me? was entered into the 28th Moscow International Film Festival where he won the Silver George for Best Director.A defence of Blier's work until 2000 was written by Sue Harris, Queen Mary College, London and published in 2001  by Manchester University Press.\n\n", "biography_author": "Wikidata", "date_of_biography": "2022-05-19T10:56:03.649699+10:00", "external_links": [{"id": 1716, "uri": "https://en.wikipedia.org/wiki/Bertrand_Blier"}], "uuid": "a79f9c42-78e2-488a-937f-f98568e787ec", "source": {"name": "Vernon", "slug": "vernon"}, "source_identifier": "15889", "external_references": [{"id": 7492, "source": {"name": "Wikidata", "slug": "wikidata"}, "source_identifier": "Q432246"}, {"id": 7493, "source": {"name": "VIAF", "slug": "viaf"}, "source_identifier": "84966977"}, {"id": 7494, "source": {"name": "LOC Auth", "slug": "loc-auth"}, "source_identifier": "n85800462"}, {"id": 7495, "source": {"name": "WorldCat", "slug": "worldcat"}, "source_identifier": "lccn-n85800462"}], "date_modified": "2025-05-22T22:57:17.502423+10:00"}, {"id": 27051, "name": "Peter Richardson", "roles_in_work": [{"id": 2615252, "title": "Eat the rich", "work_id": 85141, "role": "director", "role_id": 938, "is_primary": true}], "also_known_as": "", "date_of_birth": "1951-10-15", "date_of_death": null, "genders": [{"id": 9, "name": "Male", "slug": "male"}], "languages": [{"id": 1, "name": "English", "slug": "english"}], "places_of_operation": [{"id": 10, "name": "United Kingdom", "slug": "united-kingdom"}], "biography": "Peter Richardson (born 15 October 1951) is an English director, screenwriter, actor and comedian. He founded the Comic Strip troupe of performers, which showcased his double act with Nigel Planer and launched the careers of French and Saunders, Rik Mayall and Adrian Edmondson, and Alexei Sayle. Richardson approached Channel 4 to make a series of short, self-contained one-off comedy films with this group, which led to The Comic Strip Presents..., the majority of which featured Richardson in acting, writing and directing roles.\nRichardson began his career as a teenager acting in Alan Bennett's Forty Years On, before he Trained at the Bristol Old Vic Theatre School from 1971 to 1973. He later created his own experimental theatre shows with Nigel Planer amongst others, mixing comedy and improvisation with rock music. Two of these shows, Rank and The Wild Boys toured nationally.\nAlthough he did not reach the same level of public recognition as some of his contemporaries, Richardson was influential on British television comedy throughout the 1980s as the driving force behind The Comic Strip Presents... films, first shown on Channel 4 in 1982. The series was one of the first examples of alternative comedy to appear on British television. Richardson has been involved in the production of over 40 Comic Strip films and has directed 17 of them. The series won a Rose D'Or for The Strike in 1988. He developed the series into feature films; The Supergrass, Eat the Rich, The Pope Must Die, and Churchill: The Hollywood Years, none of which achieved great box office success. In the 1990s, Richardson introduced a new generation of performers, Doon Mackichan, Mark Caven, Phil Cornwell, Sara Stockbridge, George Yiasoumi and Gary Beadle, who appeared in his productions. He co-wrote and directed the 1990s cult mockumentary comedy series Stella Street with Phil Cornwell and John Sessions. In 2004, Richardson co-founded the production company Great Western Features with Nick Smith, which is based in Totnes, Devon. In 2005, he directed the Comic Strip film Sex Actually. In the 2010s, Richardson wrote and directed three more Comic Strip films, 2011's The Hunt for Tony Blair,  2012's Five Go To Rehab and 2016's Red Top. In a July 2021 interview, Richardson said he is putting together a book on The Comic Strip due to come out in 2022.", "biography_author": "Wikidata", "date_of_biography": "2023-08-01T16:35:20.398697+10:00", "external_links": [{"id": 4891, "uri": "https://en.wikipedia.org/wiki/Peter_Richardson_(British_director)"}], "uuid": "6ce31c74-71e7-416a-86e8-5e56dc44f63b", "source": {"name": "Vernon", "slug": "vernon"}, "source_identifier": "26683", "external_references": [{"id": 26232, "source": {"name": "Wikidata", "slug": "wikidata"}, "source_identifier": "Q3376846"}, {"id": 30818, "source": {"name": "VIAF", "slug": "viaf"}, "source_identifier": "103348289"}, {"id": 30819, "source": {"name": "LOC Auth", "slug": "loc-auth"}, "source_identifier": "n2007074253"}, {"id": 30820, "source": {"name": "WorldCat", "slug": "worldcat"}, "source_identifier": "lccn-n2007074253"}], "date_modified": "2025-02-26T20:21:18.056729+11:00"}, {"id": 27050, "name": "Tim Van Rellim", "roles_in_work": [{"id": 2069611, "title": "A Knight's Tale", "work_id": 93005, "role": "co-producer", "role_id": 915, "is_primary": true}, {"id": 2615251, "title": "Eat the rich", "work_id": 85141, "role": "producer", "role_id": 1089, "is_primary": true}], "also_known_as": "", "date_of_birth": "", "date_of_death": "", "genders": [], "languages": [], "places_of_operation": [], "biography": "", "biography_author": null, "date_of_biography": "2023-05-09T11:30:03.845916+10:00", "external_links": [], "uuid": "d738c591-05f7-4b1f-9099-1a0536d204b3", "source": {"name": "Vernon", "slug": "vernon"}, "source_identifier": "29762", "external_references": [{"id": 36878, "source": {"name": "Wikidata", "slug": "wikidata"}, "source_identifier": "Q121091167"}], "date_modified": "2025-02-26T20:21:17.467065+11:00"}, {"id": 27049, "name": "Ironfist Pictures", "roles_in_work": [{"id": 2615250, "title": "Eat the rich", "work_id": 85141, "role": "production company", "role_id": 941, "is_primary": true}], "also_known_as": "", "date_of_birth": null, "date_of_death": null, "genders": [], "languages": [], "places_of_operation": [], "biography": "", "biography_author": null, "date_of_biography": null, "external_links": [], "uuid": "ac54d7ee-3e28-4aa1-a49b-c494e6a01240", "source": {"name": "Vernon", "slug": "vernon"}, "source_identifier": "9441", "external_references": [], "date_modified": "2025-02-26T20:21:16.872505+11:00"}, {"id": 27048, "name": "Business Victoria: Dept of State Development", "roles_in_work": [{"id": 2466265, "title": "Streetlife", "work_id": 85139, "role": "production company", "role_id": 941, "is_primary": true}], "also_known_as": "", "date_of_birth": "", "date_of_death": "", "genders": [], "languages": [], "places_of_operation": [], "biography": "", "biography_author": null, "date_of_biography": "2023-08-14T10:53:23.466614+10:00", "external_links": [], "uuid": "c3da0117-30e2-4999-bbb9-159e02e3d216", "source": {"name": "Vernon", "slug": "vernon"}, "source_identifier": "6147", "external_references": [], "date_modified": "2023-08-14T10:53:23.466963+10:00"}, {"id": 27045, "name": "Fugitive Features", "roles_in_work": [{"id": 1995260, "title": "Love, honour and obey", "work_id": 91310, "role": "production company", "role_id": 941, "is_primary": true}, {"id": 2358049, "title": "The Krays", "work_id": 85138, "role": "production company", "role_id": 941, "is_primary": true}], "also_known_as": "", "date_of_birth": "", "date_of_death": "", "genders": [], "languages": [], "places_of_operation": [], "biography": "", "biography_author": null, "date_of_biography": "2023-05-09T20:07:04.864024+10:00", "external_links": [], "uuid": "3f8c24c7-4683-44b9-ac3d-4db83f69566c", "source": {"name": "Vernon", "slug": "vernon"}, "source_identifier": "8592", "external_references": [{"id": 35674, "source": {"name": "Wikidata", "slug": "wikidata"}, "source_identifier": "Q121270975"}], "date_modified": "2023-09-05T19:54:38.283287+10:00"}, {"id": 27044, "name": "Harding Productions", "roles_in_work": [{"id": 2467272, "title": "The Joy of flying free", "work_id": 85137, "role": "production company", "role_id": 941, "is_primary": true}], "also_known_as": "", "date_of_birth": "", "date_of_death": "", "genders": [], "languages": [], "places_of_operation": [], "biography": "", "biography_author": null, "date_of_biography": "2023-08-14T11:16:38.265263+10:00", "external_links": [], "uuid": "fb7bf114-be3a-4a05-a36e-f9304c8c120a", "source": {"name": "Vernon", "slug": "vernon"}, "source_identifier": "8992", "external_references": [], "date_modified": "2023-08-14T11:16:38.265550+10:00"}, {"id": 27043, "name": "National Free Flight Society", "roles_in_work": [{"id": 2467271, "title": "The Joy of flying free", "work_id": 85137, "role": "production company", "role_id": 941, "is_primary": true}], "also_known_as": "", "date_of_birth": "", "date_of_death": "", "genders": [], "languages": [], "places_of_operation": [], "biography": "", "biography_author": null, "date_of_biography": "2023-08-14T11:16:37.654631+10:00", "external_links": [], "uuid": "5c031dea-935d-4747-afef-6d1ee384c85f", "source": {"name": "Vernon", "slug": "vernon"}, "source_identifier": "10809", "external_references": [], "date_modified": "2023-08-14T11:16:37.654876+10:00"}]}