{"count": 28687, "next": "https://api.acmi.net.au/creators/?page=486", "previous": "https://api.acmi.net.au/creators/?page=484", "results": [{"id": 80733, "name": "Hsien Ping Han", "roles_in_work": [{"id": 2151150, "title": "Mirror image = Ming dai zhui zhu", "work_id": 94313, "role": "co-producer", "role_id": 915, "is_primary": true}], "also_known_as": "", "date_of_birth": "", "date_of_death": "", "genders": [], "languages": [], "places_of_operation": [], "biography": "", "biography_author": null, "date_of_biography": "2023-05-09T13:52:44.911011+10:00", "external_links": [], "uuid": "8c76f1c1-275b-45ce-b7bc-9510d9423fa0", "source": {"name": "Vernon", "slug": "vernon"}, "source_identifier": "20646", "external_references": [{"id": 42158, "source": {"name": "Wikidata", "slug": "wikidata"}, "source_identifier": "Q121223467"}], "date_modified": "2023-09-05T20:42:39.897614+10:00"}, {"id": 80732, "name": "Asiatic Films", "roles_in_work": [{"id": 2151142, "title": "Mirror image = Ming dai zhui zhu", "work_id": 94313, "role": "production company", "role_id": 941, "is_primary": true}], "also_known_as": "", "date_of_birth": "", "date_of_death": "", "genders": [], "languages": [], "places_of_operation": [], "biography": "", "biography_author": null, "date_of_biography": "2023-05-09T13:52:43.995297+10:00", "external_links": [], "uuid": "64c2da89-f471-4c51-8559-f423df7a1749", "source": {"name": "Vernon", "slug": "vernon"}, "source_identifier": "5447", "external_references": [{"id": 33573, "source": {"name": "Wikidata", "slug": "wikidata"}, "source_identifier": "Q121299027"}], "date_modified": "2023-09-05T17:48:42.855350+10:00"}, {"id": 80731, "name": "Emily Fielden", "roles_in_work": [{"id": 915556, "title": "Tim Roth: made in Britain", "work_id": 94311, "role": "co-producer", "role_id": 915, "is_primary": true}], "also_known_as": "", "date_of_birth": null, "date_of_death": null, "genders": [], "languages": [], "places_of_operation": [], "biography": "", "biography_author": null, "date_of_biography": null, "external_links": [], "uuid": "14a749d2-2ae2-45c6-b407-821972fff8e7", "source": {"name": "Vernon", "slug": "vernon"}, "source_identifier": null, "external_references": [{"id": 38868, "source": {"name": "Wikidata", "slug": "wikidata"}, "source_identifier": "Q121036940"}], "date_modified": "2023-09-05T19:32:00.543520+10:00"}, {"id": 80730, "name": "Damon Thomas", "roles_in_work": [{"id": 915555, "title": "Tim Roth: made in Britain", "work_id": 94311, "role": "co-producer", "role_id": 915, "is_primary": true}, {"id": 915557, "title": "Tim Roth: made in Britain", "work_id": 94311, "role": "director", "role_id": 938, "is_primary": true}], "also_known_as": "", "date_of_birth": null, "date_of_death": null, "genders": [], "languages": [], "places_of_operation": [], "biography": "", "biography_author": null, "date_of_biography": null, "external_links": [], "uuid": "f5bba940-540b-4716-aa94-09b660b788f9", "source": {"name": "Vernon", "slug": "vernon"}, "source_identifier": null, "external_references": [{"id": 36651, "source": {"name": "Wikidata", "slug": "wikidata"}, "source_identifier": "Q121144035"}], "date_modified": "2023-09-05T18:49:52.912476+10:00"}, {"id": 80729, "name": "Taka Nagasawa", "roles_in_work": [{"id": 1999146, "title": "Vampire hunter D: bloodlust [DVD]", "work_id": 94305, "role": "co-producer", "role_id": 915, "is_primary": true}], "also_known_as": "", "date_of_birth": null, "date_of_death": null, "genders": [], "languages": [], "places_of_operation": [], "biography": "", "biography_author": null, "date_of_biography": null, "external_links": [], "uuid": "20df67cc-56c8-45c6-bcef-67215a483a39", "source": {"name": "Vernon", "slug": "vernon"}, "source_identifier": null, "external_references": [{"id": 34044, "source": {"name": "Wikidata", "slug": "wikidata"}, "source_identifier": "Q121143980"}], "date_modified": "2023-09-06T01:40:12.463427+10:00"}, {"id": 80728, "name": "Elizabeth Robinson", "roles_in_work": [{"id": 2475650, "title": "Last orders", "work_id": 94301, "role": "co-producer", "role_id": 915, "is_primary": true}], "also_known_as": "", "date_of_birth": "", "date_of_death": "", "genders": [{"id": 5, "name": "Female", "slug": "female"}], "languages": [], "places_of_operation": [{"id": 1, "name": "United States of America", "slug": "united-states-of-america"}], "biography": "Elisabeth Robinson is an American novelist, screenwriter and film producer. She is the author of The True & Outstanding Adventures of the Hunt Sisters, a national and New York Times bestseller. The epistolary novel, her first, was published in the US by Little, Brown  and translated into ten languages.", "biography_author": "Wikidata", "date_of_biography": "2023-09-05T19:29:37.809106+10:00", "external_links": [{"id": 1995, "uri": "https://en.wikipedia.org/wiki/Elisabeth_Robinson"}], "uuid": "70928a6d-3f37-487e-a0ab-ce691efb8b16", "source": {"name": "Vernon", "slug": "vernon"}, "source_identifier": "18711", "external_references": [{"id": 8623, "source": {"name": "Wikidata", "slug": "wikidata"}, "source_identifier": "Q19665357"}], "date_modified": "2023-09-05T19:29:37.819010+10:00"}, {"id": 80727, "name": "Gary Doust", "roles_in_work": [{"id": 819259, "title": "Making Venus", "work_id": 94300, "role": "director", "role_id": 938, "is_primary": true}], "also_known_as": "", "date_of_birth": null, "date_of_death": null, "genders": [], "languages": [], "places_of_operation": [], "biography": "", "biography_author": null, "date_of_biography": null, "external_links": [], "uuid": "7db797c9-87e1-4065-b6b7-27049617ee14", "source": {"name": "Vernon", "slug": "vernon"}, "source_identifier": null, "external_references": [{"id": 36240, "source": {"name": "Wikidata", "slug": "wikidata"}, "source_identifier": "Q121034687"}], "date_modified": "2023-09-05T19:57:39.897527+10:00"}, {"id": 80726, "name": "Samantha Starbuck", "roles_in_work": [{"id": 819246, "title": "Human instinct. Ep. 4. Natural born heroes", "work_id": 94298, "role": "producer/director", "role_id": 31, "is_primary": true}], "also_known_as": "", "date_of_birth": null, "date_of_death": null, "genders": [], "languages": [], "places_of_operation": [], "biography": "", "biography_author": null, "date_of_biography": null, "external_links": [], "uuid": "aba2c554-7e03-499d-a842-037951425150", "source": {"name": "Vernon", "slug": "vernon"}, "source_identifier": null, "external_references": [{"id": 51851, "source": {"name": "Wikidata", "slug": "wikidata"}, "source_identifier": "Q121361383"}], "date_modified": "2023-09-06T01:03:45.069824+10:00"}, {"id": 80725, "name": "Nigel Patterson", "roles_in_work": [{"id": 819242, "title": "Human instinct. Ep. 3. The Will to win", "work_id": 94297, "role": "producer/director", "role_id": 31, "is_primary": true}], "also_known_as": "", "date_of_birth": null, "date_of_death": null, "genders": [], "languages": [], "places_of_operation": [], "biography": "", "biography_author": null, "date_of_biography": null, "external_links": [], "uuid": "3e0f22b1-e009-4a78-8934-de55c206e625", "source": {"name": "Vernon", "slug": "vernon"}, "source_identifier": null, "external_references": [{"id": 51454, "source": {"name": "Wikidata", "slug": "wikidata"}, "source_identifier": "Q121361035"}], "date_modified": "2023-09-05T23:31:51.814889+10:00"}, {"id": 80724, "name": "Natasha Bondy", "roles_in_work": [{"id": 819851, "title": "Human instinct. Ep. 2. Deepest desires", "work_id": 94437, "role": "producer/director", "role_id": 31, "is_primary": true}, {"id": 819238, "title": "Human instinct. Ep. 1. Born to survive", "work_id": 94296, "role": "producer/director", "role_id": 31, "is_primary": true}], "also_known_as": "", "date_of_birth": null, "date_of_death": null, "genders": [], "languages": [], "places_of_operation": [], "biography": "", "biography_author": null, "date_of_biography": null, "external_links": [], "uuid": "d4431543-e63b-48ae-8eb6-e42336c2f07b", "source": {"name": "Vernon", "slug": "vernon"}, "source_identifier": null, "external_references": [{"id": 51875, "source": {"name": "Wikidata", "slug": "wikidata"}, "source_identifier": "Q121361068"}], "date_modified": "2023-09-05T23:25:23.620923+10:00"}]}