{"count": 28684, "next": "https://api.acmi.net.au/creators/?page=2196", "previous": "https://api.acmi.net.au/creators/?page=2194", "results": [{"id": 18761, "name": "Cine-Service", "roles_in_work": [{"id": 2646911, "title": "Where there's a will...", "work_id": 74688, "role": "production company", "role_id": 941, "is_primary": true}], "also_known_as": "", "date_of_birth": "", "date_of_death": "", "genders": [], "languages": [], "places_of_operation": [], "biography": "", "biography_author": null, "date_of_biography": "2023-08-14T12:46:46.455601+10:00", "external_links": [], "uuid": "72c39207-9b96-4a00-b20b-35c104335a14", "source": {"name": "Vernon", "slug": "vernon"}, "source_identifier": "6748", "external_references": [], "date_modified": "2025-03-05T13:15:28.159136+11:00"}, {"id": 18759, "name": "Carlos Pasini", "roles_in_work": [{"id": 860744, "title": "Where the houses used to be", "work_id": 74685, "role": "director", "role_id": 938, "is_primary": true}, {"id": 2767697, "title": "The Mehinacu", "work_id": 81105, "role": "producer/director", "role_id": 31, "is_primary": true}], "also_known_as": "", "date_of_birth": "", "date_of_death": "", "genders": [], "languages": [], "places_of_operation": [], "biography": "", "biography_author": null, "date_of_biography": "2023-05-09T18:44:18.733544+10:00", "external_links": [], "uuid": "778b825e-ec91-44cb-9588-0b0a44233169", "source": {"name": "Vernon", "slug": "vernon"}, "source_identifier": "16505", "external_references": [{"id": 43057, "source": {"name": "Wikidata", "slug": "wikidata"}, "source_identifier": "Q121035248"}], "date_modified": "2025-03-14T18:05:59.015736+11:00"}, {"id": 18758, "name": "Jeremy Isaacs", "roles_in_work": [{"id": 2790546, "title": "The World at war. Part 2 [DVD]", "work_id": 94951, "role": "co-producer", "role_id": 915, "is_primary": true}, {"id": 2790561, "title": "The World at war. Part 4 [DVD]", "work_id": 94953, "role": "co-producer", "role_id": 915, "is_primary": true}, {"id": 2790554, "title": "The World at war. Part 3 [DVD]", "work_id": 94952, "role": "co-producer", "role_id": 915, "is_primary": true}, {"id": 1813604, "title": "Where the houses used to be", "work_id": 74685, "role": "producer", "role_id": 1089, "is_primary": true}, {"id": 2752522, "title": "Pacific: the island to island war & the bomb", "work_id": 98331, "role": "producer", "role_id": 1089, "is_primary": true}, {"id": 2790565, "title": "The World at war. Part 5 [DVD]", "work_id": 94954, "role": "producer", "role_id": 1089, "is_primary": true}, {"id": 1814492, "title": "South America: votes or violence", "work_id": 78875, "role": "producer", "role_id": 1089, "is_primary": true}], "also_known_as": "", "date_of_birth": "", "date_of_death": "", "genders": [], "languages": [], "places_of_operation": [], "biography": "", "biography_author": null, "date_of_biography": "2023-05-09T17:56:44.382205+10:00", "external_links": [], "uuid": "7deef91e-b6e5-4a00-afbb-624d4b9e3e94", "source": {"name": "Vernon", "slug": "vernon"}, "source_identifier": "21744", "external_references": [{"id": 40081, "source": {"name": "Wikidata", "slug": "wikidata"}, "source_identifier": "Q121035317"}], "date_modified": "2025-03-14T19:57:19.625539+11:00"}, {"id": 18756, "name": "Tarrif Insurance Companies", "roles_in_work": [{"id": 872391, "title": "Where have all the drivers gone? [B&W]", "work_id": 87599, "role": "production company", "role_id": 941, "is_primary": true}, {"id": 2646906, "title": "Where have all the drivers gone?", "work_id": 74680, "role": "production company", "role_id": 941, "is_primary": true}], "also_known_as": "", "date_of_birth": null, "date_of_death": null, "genders": [], "languages": [], "places_of_operation": [], "biography": "", "biography_author": null, "date_of_biography": null, "external_links": [], "uuid": "16098c71-6d0d-46dc-9bdd-127987398b6a", "source": {"name": "Vernon", "slug": "vernon"}, "source_identifier": "13167", "external_references": [], "date_modified": "2025-03-05T13:15:24.628257+11:00"}, {"id": 18755, "name": "Education Division Boston", "roles_in_work": [{"id": 2763025, "title": "Where does the sun go?", "work_id": 74679, "role": "production company", "role_id": 941, "is_primary": true}], "also_known_as": "", "date_of_birth": "", "date_of_death": "", "genders": [], "languages": [], "places_of_operation": [], "biography": "", "biography_author": null, "date_of_biography": "2023-08-11T12:54:39.071059+10:00", "external_links": [], "uuid": "ccc85147-9c51-4faa-815b-02de958d820d", "source": {"name": "Vernon", "slug": "vernon"}, "source_identifier": "7769", "external_references": [], "date_modified": "2025-03-14T17:40:16.564107+11:00"}, {"id": 18754, "name": "Jeff Inman", "roles_in_work": [{"id": 872604, "title": "The Art of negotiating", "work_id": 87731, "role": "director", "role_id": 938, "is_primary": true}, {"id": 860734, "title": "Where do you go from here", "work_id": 74677, "role": "director", "role_id": 938, "is_primary": true}, {"id": 2647237, "title": "Oh what a lovely report", "work_id": 75743, "role": "director", "role_id": 938, "is_primary": true}, {"id": 863614, "title": "The Art of negotiating (TEFC)", "work_id": 77341, "role": "director", "role_id": 938, "is_primary": true}], "also_known_as": "", "date_of_birth": null, "date_of_death": null, "genders": [], "languages": [], "places_of_operation": [], "biography": "", "biography_author": null, "date_of_biography": null, "external_links": [], "uuid": "1ea19f2f-994f-4a15-8f73-bc27eb51144c", "source": {"name": "Vernon", "slug": "vernon"}, "source_identifier": "21639", "external_references": [], "date_modified": "2025-03-05T13:21:24.082192+11:00"}, {"id": 18752, "name": "Dept of Health", "roles_in_work": [{"id": 2392282, "title": "Where are we heading", "work_id": 74676, "role": "production company", "role_id": 941, "is_primary": true}, {"id": 2647723, "title": "Drugs: some get busted", "work_id": 77161, "role": "production company", "role_id": 941, "is_primary": true}], "also_known_as": "", "date_of_birth": "", "date_of_death": "", "genders": [], "languages": [], "places_of_operation": [], "biography": "", "biography_author": null, "date_of_biography": "2023-08-09T03:54:43.917016+10:00", "external_links": [], "uuid": "7df82873-943b-4ae6-a079-a4a05c91f4f1", "source": {"name": "Vernon", "slug": "vernon"}, "source_identifier": "7499", "external_references": [], "date_modified": "2025-03-05T13:31:26.274858+11:00"}, {"id": 18750, "name": "Jerome Karasic", "roles_in_work": [{"id": 2471707, "title": "When in pain", "work_id": 74666, "role": "producer", "role_id": 1089, "is_primary": true}], "also_known_as": "", "date_of_birth": "", "date_of_death": "", "genders": [], "languages": [], "places_of_operation": [], "biography": "", "biography_author": null, "date_of_biography": "2023-08-14T12:44:57.700051+10:00", "external_links": [], "uuid": "8af7498c-65ff-4d34-9b49-0639932d9f6d", "source": {"name": "Vernon", "slug": "vernon"}, "source_identifier": "21773", "external_references": [], "date_modified": "2023-08-14T12:44:57.700272+10:00"}, {"id": 18749, "name": "Claire Menken", "roles_in_work": [{"id": 2471706, "title": "When in pain", "work_id": 74666, "role": "production company", "role_id": 941, "is_primary": true}], "also_known_as": "", "date_of_birth": "", "date_of_death": "", "genders": [], "languages": [], "places_of_operation": [], "biography": "", "biography_author": null, "date_of_biography": "2023-08-14T12:44:57.090250+10:00", "external_links": [], "uuid": "8207972c-32b8-48e1-b7b3-46992b384370", "source": {"name": "Vernon", "slug": "vernon"}, "source_identifier": "4103", "external_references": [], "date_modified": "2023-08-14T12:44:57.090480+10:00"}, {"id": 18748, "name": "Shepard Menken", "roles_in_work": [{"id": 2471705, "title": "When in pain", "work_id": 74666, "role": "production company", "role_id": 941, "is_primary": true}], "also_known_as": "", "date_of_birth": "", "date_of_death": "", "genders": [], "languages": [], "places_of_operation": [], "biography": "", "biography_author": null, "date_of_biography": "2023-08-14T12:44:56.478756+10:00", "external_links": [], "uuid": "3d9e4195-d0fa-4507-92f8-c0938483a964", "source": {"name": "Vernon", "slug": "vernon"}, "source_identifier": "4102", "external_references": [], "date_modified": "2023-08-14T12:44:56.479093+10:00"}]}