{"count": 28687, "next": "https://api.acmi.net.au/creators/?page=1139", "previous": "https://api.acmi.net.au/creators/?page=1137", "results": [{"id": 74202, "name": "Peter Lamb", "roles_in_work": [{"id": 2677420, "title": "Approximately panther", "work_id": 64856, "role": "producer/director", "role_id": 31, "is_primary": true}], "also_known_as": "", "date_of_birth": "", "date_of_death": "", "genders": [], "languages": [], "places_of_operation": [], "biography": "", "biography_author": null, "date_of_biography": "2023-05-09T12:28:56.698120+10:00", "external_links": [], "uuid": "477e2a65-5e94-4c0f-aef6-38be642fd847", "source": {"name": "Vernon", "slug": "vernon"}, "source_identifier": "26607", "external_references": [{"id": 51485, "source": {"name": "Wikidata", "slug": "wikidata"}, "source_identifier": "Q121360740"}], "date_modified": "2025-03-06T23:20:39.471350+11:00"}, {"id": 74201, "name": "James McCarthy", "roles_in_work": [{"id": 2677412, "title": "Approach to art teaching", "work_id": 64852, "role": "co-director", "role_id": 959, "is_primary": true}, {"id": 2792044, "title": "Koalas", "work_id": 75290, "role": "composer", "role_id": 538, "is_primary": false}], "also_known_as": "", "date_of_birth": "", "date_of_death": "", "genders": [], "languages": [], "places_of_operation": [], "biography": "", "biography_author": null, "date_of_biography": "2023-05-09T15:38:08.848823+10:00", "external_links": [], "uuid": "da9997ab-cf6e-4d92-bd9c-243d682d420a", "source": {"name": "Vernon", "slug": "vernon"}, "source_identifier": "21281", "external_references": [{"id": 41874, "source": {"name": "Wikidata", "slug": "wikidata"}, "source_identifier": "Q121222938"}], "date_modified": "2025-03-14T20:06:21.690378+11:00"}, {"id": 74200, "name": "Bruce Hilliard", "roles_in_work": [{"id": 2677411, "title": "Approach to art teaching", "work_id": 64852, "role": "co-director", "role_id": 959, "is_primary": true}], "also_known_as": "", "date_of_birth": "", "date_of_death": "", "genders": [], "languages": [], "places_of_operation": [], "biography": "", "biography_author": null, "date_of_biography": "2023-05-09T12:27:43.415227+10:00", "external_links": [], "uuid": "f3332f2b-033c-48c0-bed0-ea1528fdfb12", "source": {"name": "Vernon", "slug": "vernon"}, "source_identifier": "16306", "external_references": [{"id": 38499, "source": {"name": "Wikidata", "slug": "wikidata"}, "source_identifier": "Q121298937"}], "date_modified": "2025-03-06T23:20:33.172694+11:00"}, {"id": 74199, "name": "John Simpson", "roles_in_work": [{"id": 2644003, "title": "The Apprentice", "work_id": 64850, "role": "cinematographer", "role_id": 32, "is_primary": false}], "also_known_as": "", "date_of_birth": "", "date_of_death": "", "genders": [{"id": 9, "name": "Male", "slug": "male"}], "languages": [], "places_of_operation": [], "biography": "", "biography_author": null, "date_of_biography": "2023-08-09T03:41:32.327333+10:00", "external_links": [], "uuid": "4d8aa2cb-27c5-466d-a801-744afe0c009e", "source": {"name": "Vernon", "slug": "vernon"}, "source_identifier": "37564", "external_references": [{"id": 42207, "source": {"name": "Wikidata", "slug": "wikidata"}, "source_identifier": "Q121222593"}], "date_modified": "2025-03-05T12:09:05.018119+11:00"}, {"id": 74198, "name": "Alastair Duncan", "roles_in_work": [{"id": 1864523, "title": "The Venomous Australians", "work_id": 74317, "role": "narrator", "role_id": 499, "is_primary": false}, {"id": 2190458, "title": "Pattern of life", "work_id": 71405, "role": "narrator", "role_id": 499, "is_primary": false}, {"id": 3105909, "title": "Anzac: a nation's heritage", "work_id": 64833, "role": "narrator", "role_id": 499, "is_primary": false}], "also_known_as": "", "date_of_birth": "", "date_of_death": "", "genders": [], "languages": [], "places_of_operation": [], "biography": "", "biography_author": null, "date_of_biography": "2023-08-09T03:41:28.448308+10:00", "external_links": [], "uuid": "c568fa4d-50d9-49d1-99f2-ac58cba86966", "source": {"name": "Vernon", "slug": "vernon"}, "source_identifier": "37557", "external_references": [], "date_modified": "2025-06-02T22:35:06.644577+10:00"}, {"id": 74197, "name": "Liane Brandan", "roles_in_work": [{"id": 2643996, "title": "Anything you want to be", "work_id": 64830, "role": "producer/director", "role_id": 31, "is_primary": true}], "also_known_as": "", "date_of_birth": "", "date_of_death": "", "genders": [], "languages": [], "places_of_operation": [], "biography": "", "biography_author": null, "date_of_biography": "2023-05-09T12:27:20.784890+10:00", "external_links": [], "uuid": "407fd5f1-ac0a-4c02-ba76-b451f93f356c", "source": {"name": "Vernon", "slug": "vernon"}, "source_identifier": "23832", "external_references": [], "date_modified": "2025-03-05T12:09:00.415410+11:00"}, {"id": 74196, "name": "Pat Ferns", "roles_in_work": [{"id": 2758110, "title": "Jonathan Miller's London", "work_id": 75929, "role": "co-producer", "role_id": 915, "is_primary": true}, {"id": 2751192, "title": "End of the old order: 1900-1918", "work_id": 97695, "role": "co-producer", "role_id": 915, "is_primary": true}, {"id": 3088561, "title": "Mao: long march to power", "work_id": 97698, "role": "co-producer", "role_id": 915, "is_primary": true}, {"id": 3088573, "title": "Mao: organised chaos", "work_id": 97699, "role": "co-producer", "role_id": 915, "is_primary": true}, {"id": 2173220, "title": "Karen Kain: ballerina", "work_id": 75095, "role": "co-producer", "role_id": 915, "is_primary": true}, {"id": 895236, "title": "The Newcomers: inhabiting a new land", "work_id": 70883, "role": "co-producer", "role_id": 915, "is_primary": true}, {"id": 2758085, "title": "Hildegard Knef's Berlin", "work_id": 75342, "role": "co-producer", "role_id": 915, "is_primary": true}, {"id": 2757933, "title": "Anthony Burgess's Rome", "work_id": 64821, "role": "co-producer", "role_id": 915, "is_primary": true}, {"id": 2757948, "title": "George Plimpton's New York", "work_id": 66121, "role": "co-producer", "role_id": 915, "is_primary": true}, {"id": 2757965, "title": "Mai Zetterling's Stockholm", "work_id": 66124, "role": "co-producer", "role_id": 915, "is_primary": true}, {"id": 2757978, "title": "R.D. Laing's Glasgow", "work_id": 66126, "role": "co-producer", "role_id": 915, "is_primary": true}, {"id": 2757991, "title": "Elie Wiesel's Jerusalem", "work_id": 67114, "role": "co-producer", "role_id": 915, "is_primary": true}, {"id": 2758011, "title": "Glenn Gould's Toronto", "work_id": 68079, "role": "co-producer", "role_id": 915, "is_primary": true}, {"id": 2758026, "title": "Peter Ustinov's Leningrad", "work_id": 71508, "role": "co-producer", "role_id": 915, "is_primary": true}, {"id": 2758039, "title": "Studs Terkel's Chicago", "work_id": 75149, "role": "co-producer", "role_id": 915, "is_primary": true}, {"id": 2758054, "title": "Germaine Greer's Sydney", "work_id": 75152, "role": "co-producer", "role_id": 915, "is_primary": true}, {"id": 2758072, "title": "John Huston's Dublin", "work_id": 75309, "role": "co-producer", "role_id": 915, "is_primary": true}], "also_known_as": "", "date_of_birth": "", "date_of_death": "", "genders": [], "languages": [], "places_of_operation": [], "biography": "", "biography_author": null, "date_of_biography": "2023-05-09T19:05:17.120625+10:00", "external_links": [], "uuid": "3bbe68d3-6452-45f0-a5f9-454ef6439b9f", "source": {"name": "Vernon", "slug": "vernon"}, "source_identifier": "26067", "external_references": [{"id": 38512, "source": {"name": "Wikidata", "slug": "wikidata"}, "source_identifier": "Q121223283"}], "date_modified": "2025-03-17T10:55:40.271999+11:00"}, {"id": 74195, "name": "Phillip Garth Law", "roles_in_work": [{"id": 2678674, "title": "Blue Ice", "work_id": 65505, "role": "director", "role_id": 938, "is_primary": true}, {"id": 2677346, "title": "Antarctic Vigil", "work_id": 64817, "role": "cinematographer", "role_id": 32, "is_primary": false}, {"id": 2648602, "title": "Antarctic Pioneers", "work_id": 79627, "role": "co-director", "role_id": 959, "is_primary": true}], "also_known_as": "", "date_of_birth": "", "date_of_death": "", "genders": [{"id": 9, "name": "Male", "slug": "male"}], "languages": [], "places_of_operation": [], "biography": "", "biography_author": null, "date_of_biography": "2023-08-09T03:42:38.492697+10:00", "external_links": [], "uuid": "10d07379-13ae-45ae-88e6-6b9301e84d3f", "source": {"name": "Vernon", "slug": "vernon"}, "source_identifier": "35869", "external_references": [{"id": 41980, "source": {"name": "Wikidata", "slug": "wikidata"}, "source_identifier": "Q2088038"}], "date_modified": "2025-03-06T23:56:20.179601+11:00"}, {"id": 74194, "name": "Strowan Robertson", "roles_in_work": [{"id": 2677324, "title": "Another side of the forest = L'Autre visage de la foret", "work_id": 64807, "role": "director", "role_id": 938, "is_primary": true}, {"id": 757548, "title": "The Whales are waiting", "work_id": 74603, "role": "director", "role_id": 938, "is_primary": true}], "also_known_as": "", "date_of_birth": "", "date_of_death": "", "genders": [{"id": 9, "name": "Male", "slug": "male"}], "languages": [], "places_of_operation": [{"id": 36, "name": "Canada", "slug": "canada"}], "biography": "", "biography_author": null, "date_of_biography": "2023-05-09T12:26:36.518553+10:00", "external_links": [], "uuid": "a6d75bd6-253f-4783-8cd1-955b28f8f46a", "source": {"name": "Vernon", "slug": "vernon"}, "source_identifier": "12999", "external_references": [{"id": 33229, "source": {"name": "Wikidata", "slug": "wikidata"}, "source_identifier": "Q59575887"}], "date_modified": "2025-03-06T23:17:04.091014+11:00"}, {"id": 74193, "name": "Raoul Fox", "roles_in_work": [{"id": 2677323, "title": "Another side of the forest = L'Autre visage de la foret", "work_id": 64807, "role": "director", "role_id": 938, "is_primary": true}, {"id": 2166594, "title": "Kainai", "work_id": 88805, "role": "director", "role_id": 938, "is_primary": true}], "also_known_as": "", "date_of_birth": "", "date_of_death": "", "genders": [], "languages": [], "places_of_operation": [], "biography": "", "biography_author": null, "date_of_biography": "2023-05-09T14:26:06.460375+10:00", "external_links": [], "uuid": "f3929c32-c929-4cdb-9781-6fe56494dced", "source": {"name": "Vernon", "slug": "vernon"}, "source_identifier": "27123", "external_references": [{"id": 43236, "source": {"name": "Wikidata", "slug": "wikidata"}, "source_identifier": "Q120115084"}], "date_modified": "2025-03-06T23:17:03.504919+11:00"}]}