{"count": 28687, "next": "https://api.acmi.net.au/creators/?page=1793", "previous": "https://api.acmi.net.au/creators/?page=1791", "results": [{"id": 26555, "name": "Peter Hyams", "roles_in_work": [{"id": 2615287, "title": "Capricorn one", "work_id": 85184, "role": "director", "role_id": 938, "is_primary": true}, {"id": 2181971, "title": "Outland", "work_id": 84647, "role": "director", "role_id": 938, "is_primary": true}, {"id": 2064540, "title": "2010", "work_id": 84606, "role": "producer/director", "role_id": 31, "is_primary": true}], "also_known_as": "", "date_of_birth": "1943", "date_of_death": null, "genders": [{"id": 9, "name": "Male", "slug": "male"}], "languages": [], "places_of_operation": [{"id": 1, "name": "United States of America", "slug": "united-states-of-america"}], "biography": "Peter Hyams (born July 26, 1943) is an American film director, screenwriter and cinematographer known for directing Capricorn One (which he also wrote), the 1981 science fiction-thriller Outland, the 1984 science fiction film 2010: The Year We Make Contact (a sequel to Stanley Kubrick's 2001: A Space Odyssey), the 1986 action/comedy Running Scared, the comic book adaptation Timecop, the action film Sudden Death (both starring Jean-Claude Van Damme), and the horror films The Relic and End of Days.\nHyams would later joke, \"O. J. Simpson was in [Capricorn One], and Robert Blake was in Busting (Hyams' first feature). I've said many times: Some people have AFI Lifetime Achievement awards, some people have multiple Oscars, my bit of trivia is that I've made films with two leading men who were subsequently tried for the first-degree murder of their wives.\"", "biography_author": "Wikidata", "date_of_biography": "2022-05-19T12:42:12.478280+10:00", "external_links": [{"id": 2857, "uri": "https://en.wikipedia.org/wiki/Peter_Hyams"}], "uuid": "f6c2df9a-767d-4b2c-ac6f-cda84ad3df91", "source": {"name": "Vernon", "slug": "vernon"}, "source_identifier": "26587", "external_references": [{"id": 12153, "source": {"name": "Wikidata", "slug": "wikidata"}, "source_identifier": "Q458766"}, {"id": 12154, "source": {"name": "VIAF", "slug": "viaf"}, "source_identifier": "116713923"}, {"id": 12155, "source": {"name": "LOC Auth", "slug": "loc-auth"}, "source_identifier": "n81075200"}, {"id": 12156, "source": {"name": "WorldCat", "slug": "worldcat"}, "source_identifier": "lccn-n81075200"}], "date_modified": "2025-02-26T20:21:47.592422+11:00"}, {"id": 26550, "name": "Frank McCarthy", "roles_in_work": [{"id": 2190715, "title": "Patton", "work_id": 84603, "role": "producer", "role_id": 1089, "is_primary": true}], "also_known_as": "", "date_of_birth": "1912-06-08", "date_of_death": "1986-12-01", "genders": [{"id": 9, "name": "Male", "slug": "male"}], "languages": [], "places_of_operation": [{"id": 1, "name": "United States of America", "slug": "united-states-of-america"}], "biography": "Frank McCarthy (June 8, 1912 – December 1, 1986) was the secretary of the General Staff of the United States Department of War during World War II; briefly United States Assistant Secretary of State for Administration in 1945; and later a distinguished film producer, whose production Patton won the 1970 Academy Award for Best Picture.\n\n", "biography_author": "Wikidata", "date_of_biography": "2022-05-19T11:29:38.793833+10:00", "external_links": [{"id": 2058, "uri": "https://en.wikipedia.org/wiki/Frank_McCarthy_(producer)"}], "uuid": "ee1c8630-4923-46d9-8518-fd683e84729c", "source": {"name": "Vernon", "slug": "vernon"}, "source_identifier": "19148", "external_references": [{"id": 8882, "source": {"name": "Wikidata", "slug": "wikidata"}, "source_identifier": "Q1313523"}, {"id": 8883, "source": {"name": "VIAF", "slug": "viaf"}, "source_identifier": "45827694"}, {"id": 8884, "source": {"name": "LOC Auth", "slug": "loc-auth"}, "source_identifier": "n87860259"}, {"id": 8885, "source": {"name": "WorldCat", "slug": "worldcat"}, "source_identifier": "lccn-n87860259"}], "date_modified": "2023-09-13T12:29:25.324054+10:00"}, {"id": 26549, "name": "Fred Gallo", "roles_in_work": [{"id": 909169, "title": "Machine gun blues = Black rose of Harlem", "work_id": 89590, "role": "director", "role_id": 938, "is_primary": true}, {"id": 2121874, "title": "Bodyheat = Body heat", "work_id": 84602, "role": "producer", "role_id": 1089, "is_primary": true}], "also_known_as": "", "date_of_birth": "1965-01-12", "date_of_death": "", "genders": [{"id": 9, "name": "Male", "slug": "male"}], "languages": [{"id": 1, "name": "English", "slug": "english"}], "places_of_operation": [], "biography": "Fred Gallo (born January 12, 1965) is an American director, producer and writer.", "biography_author": "Wikidata", "date_of_biography": "2023-09-05T19:52:23.630372+10:00", "external_links": [{"id": 5821, "uri": "https://en.wikipedia.org/wiki/Fred_Gallo"}], "uuid": "89d226d0-877b-41b4-b6d7-8ebc207d24fe", "source": {"name": "Vernon", "slug": "vernon"}, "source_identifier": "19224", "external_references": [{"id": 34302, "source": {"name": "Wikidata", "slug": "wikidata"}, "source_identifier": "Q27947716"}, {"id": 54465, "source": {"name": "VIAF", "slug": "viaf"}, "source_identifier": "103657183"}, {"id": 54466, "source": {"name": "LOC Auth", "slug": "loc-auth"}, "source_identifier": "no00018684"}, {"id": 54467, "source": {"name": "WorldCat", "slug": "worldcat"}, "source_identifier": "lccn-no00018684"}], "date_modified": "2023-09-05T19:52:23.651172+10:00"}, {"id": 26548, "name": "PolyGram", "roles_in_work": [{"id": 2106183, "title": "Backbeat (Captioned)", "work_id": 86324, "role": "production company", "role_id": 941, "is_primary": true}, {"id": 2106148, "title": "Backbeat", "work_id": 85376, "role": "production company", "role_id": 941, "is_primary": true}, {"id": 2111084, "title": "Being John Malkovich [DVD]", "work_id": 92455, "role": "production company", "role_id": 941, "is_primary": true}, {"id": 1988407, "title": "Four weddings and a funeral", "work_id": 84601, "role": "production company", "role_id": 941, "is_primary": true}, {"id": 2192360, "title": "Pavarotti in London", "work_id": 95288, "role": "production company", "role_id": 941, "is_primary": true}, {"id": 2121281, "title": "Bob Roberts", "work_id": 93448, "role": "production company", "role_id": 941, "is_primary": true}, {"id": 2243850, "title": "Flashdance", "work_id": 87781, "role": "production company", "role_id": 941, "is_primary": true}, {"id": 2227575, "title": "Fargo", "work_id": 85501, "role": "production company", "role_id": 941, "is_primary": true}, {"id": 1990704, "title": "Four weddings and a funeral (Captioned)", "work_id": 86323, "role": "production company", "role_id": 941, "is_primary": true}, {"id": 2250250, "title": "Ridicule", "work_id": 87778, "role": "production company", "role_id": 941, "is_primary": true}], "also_known_as": "", "date_of_birth": "", "date_of_death": "", "genders": [], "languages": [], "places_of_operation": [], "biography": "", "biography_author": null, "date_of_biography": "2023-05-09T17:09:51.889732+10:00", "external_links": [], "uuid": "5034ecac-3a1d-4947-b9e3-e318f57352f3", "source": {"name": "Vernon", "slug": "vernon"}, "source_identifier": "1908", "external_references": [], "date_modified": "2023-06-14T16:33:30.576250+10:00"}, {"id": 26547, "name": "Circle Films", "roles_in_work": [{"id": 1988463, "title": "Miller's Crossing", "work_id": 84619, "role": "production company", "role_id": 941, "is_primary": true}, {"id": 2614969, "title": "Barton Fink", "work_id": 84599, "role": "production company", "role_id": 941, "is_primary": true}, {"id": 2235311, "title": "Raising Arizona", "work_id": 85649, "role": "production company", "role_id": 941, "is_primary": true}], "also_known_as": "", "date_of_birth": "", "date_of_death": "", "genders": [], "languages": [], "places_of_operation": [], "biography": "", "biography_author": null, "date_of_biography": "2023-05-09T16:44:50.642873+10:00", "external_links": [], "uuid": "b0d5680b-d2dc-4ffe-b174-4d733a032f71", "source": {"name": "Vernon", "slug": "vernon"}, "source_identifier": "6782", "external_references": [], "date_modified": "2025-02-26T20:17:24.539554+11:00"}, {"id": 26546, "name": "David Byrne", "roles_in_work": [{"id": 868419, "title": "True stories", "work_id": 84598, "role": "director", "role_id": 938, "is_primary": true}, {"id": 2578912, "title": "", "work_id": 124001, "role": "musician", "role_id": 169, "is_primary": false}], "also_known_as": "", "date_of_birth": "1952-05-14", "date_of_death": null, "genders": [{"id": 9, "name": "Male", "slug": "male"}], "languages": [{"id": 1, "name": "English", "slug": "english"}], "places_of_operation": [{"id": 1, "name": "United States of America", "slug": "united-states-of-america"}], "biography": "David Byrne (; born 14 May 1952) is a Scottish-American singer, songwriter, record producer, actor, writer, music theorist, and filmmaker. He was a founding member and the principal songwriter, lead singer, and guitarist of the American new wave band Talking Heads.\nByrne has released solo recordings and worked with various media including film, photography, opera, fiction, and non-fiction. He has received an Academy Award, a Grammy Award, a Tony Award, and a Golden Globe Award, and he is an inductee to the Rock and Roll Hall of Fame as part of Talking Heads.\n\n", "biography_author": "Wikidata", "date_of_biography": "2022-05-19T11:12:11.224252+10:00", "external_links": [{"id": 1879, "uri": "https://en.wikipedia.org/wiki/David_Byrne"}], "uuid": "0ab7a576-9e9f-4c4e-a99b-fc140e6dc49f", "source": {"name": "Vernon", "slug": "vernon"}, "source_identifier": "17522", "external_references": [{"id": 8165, "source": {"name": "Wikidata", "slug": "wikidata"}, "source_identifier": "Q336640"}, {"id": 8166, "source": {"name": "VIAF", "slug": "viaf"}, "source_identifier": "105011735"}, {"id": 8167, "source": {"name": "LOC Auth", "slug": "loc-auth"}, "source_identifier": "n84221208"}, {"id": 8168, "source": {"name": "WorldCat", "slug": "worldcat"}, "source_identifier": "lccn-n84221208"}], "date_modified": "2023-09-13T12:28:56.193376+10:00"}, {"id": 26543, "name": "Five Films", "roles_in_work": [{"id": 2111915, "title": "Belle de Jour", "work_id": 84597, "role": "production company", "role_id": 941, "is_primary": true}], "also_known_as": "", "date_of_birth": "", "date_of_death": "", "genders": [], "languages": [], "places_of_operation": [], "biography": "", "biography_author": null, "date_of_biography": "2023-05-09T12:48:49.613373+10:00", "external_links": [], "uuid": "79e3904d-9ab8-4571-8636-271f1721a9cb", "source": {"name": "Vernon", "slug": "vernon"}, "source_identifier": "8383", "external_references": [{"id": 36415, "source": {"name": "Wikidata", "slug": "wikidata"}, "source_identifier": "Q121035884"}], "date_modified": "2023-09-05T19:44:22.795500+10:00"}, {"id": 26542, "name": "Paris Film", "roles_in_work": [{"id": 2111912, "title": "Belle de Jour", "work_id": 84597, "role": "production company", "role_id": 941, "is_primary": true}], "also_known_as": "", "date_of_birth": "", "date_of_death": "", "genders": [], "languages": [], "places_of_operation": [], "biography": "", "biography_author": null, "date_of_biography": "2023-05-09T12:48:49.271263+10:00", "external_links": [], "uuid": "47eed74e-1e5b-4de8-a809-d144e41c73a9", "source": {"name": "Vernon", "slug": "vernon"}, "source_identifier": "11299", "external_references": [{"id": 35745, "source": {"name": "Wikidata", "slug": "wikidata"}, "source_identifier": "Q121078805"}], "date_modified": "2023-09-05T23:40:45.625129+10:00"}, {"id": 26537, "name": "Richard Shepherd", "roles_in_work": [{"id": 2124235, "title": "Breakfast at Tiffany's", "work_id": 84594, "role": "co-producer", "role_id": 915, "is_primary": true}, {"id": 2355264, "title": "The Hunger", "work_id": 90482, "role": "producer", "role_id": 1089, "is_primary": true}, {"id": 2355260, "title": "The Hunger", "work_id": 90482, "role": "production company", "role_id": 941, "is_primary": true}], "also_known_as": "", "date_of_birth": "1927-06-04", "date_of_death": "2014-01-14", "genders": [{"id": 9, "name": "Male", "slug": "male"}], "languages": [], "places_of_operation": [{"id": 1, "name": "United States of America", "slug": "united-states-of-america"}], "biography": "Richard Shepherd (born Richard Allen Silberman; June 4, 1927 – January 14, 2014) was an American film producer.", "biography_author": "Wikidata", "date_of_biography": "2023-08-01T16:45:58.192570+10:00", "external_links": [{"id": 4991, "uri": "https://en.wikipedia.org/wiki/Richard_Shepherd_(producer)"}], "uuid": "6ba7eace-f2fb-4d95-8625-b809535af1d5", "source": {"name": "Vernon", "slug": "vernon"}, "source_identifier": "27508", "external_references": [{"id": 26965, "source": {"name": "Wikidata", "slug": "wikidata"}, "source_identifier": "Q15962220"}, {"id": 31091, "source": {"name": "VIAF", "slug": "viaf"}, "source_identifier": "63561137"}, {"id": 31092, "source": {"name": "LOC Auth", "slug": "loc-auth"}, "source_identifier": "no00097296"}, {"id": 31093, "source": {"name": "WorldCat", "slug": "worldcat"}, "source_identifier": "lccn-no00097296"}], "date_modified": "2023-09-06T00:33:17.434808+10:00"}, {"id": 26534, "name": "Howard G. Minsky", "roles_in_work": [{"id": 1988370, "title": "Love story", "work_id": 84589, "role": "producer", "role_id": 1089, "is_primary": true}], "also_known_as": "", "date_of_birth": "1914-01-21", "date_of_death": "2008-08-10", "genders": [{"id": 9, "name": "Male", "slug": "male"}], "languages": [], "places_of_operation": [{"id": 1, "name": "United States of America", "slug": "united-states-of-america"}], "biography": "Howard G Minsky (21 January 1914 – 10 August 2008) was an American film producer, studio executive and former talent manager, who started his career during the silent film era, selling film reel door-to-door. After working for both 20th Century Fox and Paramount Pictures, he worked  for a talent agency. He was best known as the producer of the blockbuster film Love Story. When released in 1970, it was widely thought that Love Story saved Paramount Pictures during a financially strained time. He later produced Jory in 1973.Minsky was married to his wife, Sylvia, for  over 65 years until her death in 2002. He lived in Palm Beach, Florida until his death in 2008.", "biography_author": "Wikidata", "date_of_biography": "2022-05-19T11:46:14.925263+10:00", "external_links": [{"id": 2241, "uri": "https://en.wikipedia.org/wiki/Howard_G._Minsky"}], "uuid": "3d5ef3b8-8924-49d0-914d-984f2e8d4985", "source": {"name": "Vernon", "slug": "vernon"}, "source_identifier": "20615", "external_references": [{"id": 9628, "source": {"name": "Wikidata", "slug": "wikidata"}, "source_identifier": "Q5919717"}, {"id": 9629, "source": {"name": "VIAF", "slug": "viaf"}, "source_identifier": "58533433"}, {"id": 9630, "source": {"name": "LOC Auth", "slug": "loc-auth"}, "source_identifier": "n2007059170"}, {"id": 9631, "source": {"name": "WorldCat", "slug": "worldcat"}, "source_identifier": "lccn-n2007059170"}], "date_modified": "2023-09-13T12:30:01.094310+10:00"}]}