{"count": 28687, "next": "https://api.acmi.net.au/creators/?page=520", "previous": "https://api.acmi.net.au/creators/?page=518", "results": [{"id": 80393, "name": "Charles Atlas", "roles_in_work": [{"id": 2210954, "title": "Blue studio: five segments", "work_id": 93640, "role": "co-producers/directors", "role_id": 628, "is_primary": true}], "also_known_as": "", "date_of_birth": null, "date_of_death": "", "genders": [{"id": 9, "name": "Male", "slug": "male"}], "languages": [{"id": 1, "name": "English", "slug": "english"}], "places_of_operation": [{"id": 1, "name": "United States of America", "slug": "united-states-of-america"}], "biography": "Charles Atlas is a video artist and film director who also does lighting and set design.\nHe is a pioneer in developing media-dance, also called dance for camera. Media dance is work that is created directly for the camera. While Atlas’ primary artistic medium is video, he also began to experiment with live electronic performance in 2003. Atlas worked collaboratively with Merce Cunningham from 1975 to 1981. Before his time as the Cunningham company’s filmmaker-in-residence (1978 – 1983), when he made 10 dance films, Atlas was an assistant stage manager for the company, and was already filming Cunningham in little experimental movement studies during breaks from rehearsal. Following his work with Cunningham, he worked independently in film while collaborating with other professionals in the field.", "biography_author": "Wikidata", "date_of_biography": "2023-09-06T10:34:38.949730+10:00", "external_links": [{"id": 6268, "uri": "https://en.wikipedia.org/wiki/Charles_Atlas_(artist)"}], "uuid": "d4ff9440-4e43-4160-9d77-db592dc0c3b0", "source": {"name": "Vernon", "slug": "vernon"}, "source_identifier": "2476", "external_references": [{"id": 32593, "source": {"name": "Wikidata", "slug": "wikidata"}, "source_identifier": "Q5075231"}, {"id": 56128, "source": {"name": "VIAF", "slug": "viaf"}, "source_identifier": "272303319"}, {"id": 56129, "source": {"name": "LOC Auth", "slug": "loc-auth"}, "source_identifier": "no92030324"}, {"id": 56130, "source": {"name": "WorldCat", "slug": "worldcat"}, "source_identifier": "lccn-no92030324"}], "date_modified": "2023-09-06T10:34:38.969859+10:00"}, {"id": 80392, "name": "Merce Cunningham", "roles_in_work": [{"id": 2210918, "title": "Beach birds for camera", "work_id": 93642, "role": "co-director", "role_id": 959, "is_primary": true}, {"id": 2210969, "title": "Points in space", "work_id": 93637, "role": "co-director", "role_id": 959, "is_primary": true}, {"id": 2210952, "title": "Blue studio: five segments", "work_id": 93640, "role": "co-producers/directors", "role_id": 628, "is_primary": true}], "also_known_as": "", "date_of_birth": "1919-04-16", "date_of_death": "2009-07-26", "genders": [{"id": 9, "name": "Male", "slug": "male"}], "languages": [{"id": 1, "name": "English", "slug": "english"}], "places_of_operation": [{"id": 1, "name": "United States of America", "slug": "united-states-of-america"}], "biography": "Mercier Philip \"Merce\" Cunningham (April 16, 1919 – July 26, 2009) was an American dancer and choreographer who was at the forefront of American modern dance for more than 50 years. He frequently collaborated with artists of other disciplines, including musicians John Cage, David Tudor, Brian Eno, and graphic artists Robert Rauschenberg, Bruce Nauman, Andy Warhol, Roy Lichtenstein, Frank Stella, and Jasper Johns; and fashion designer Rei Kawakubo. Works that he produced with these artists had a profound impact on avant-garde art beyond the world of dance.\nAs a choreographer, teacher, and leader of the Merce Cunningham Dance Company, Cunningham had a profound influence on modern dance. Many dancers who trained with Cunningham formed their own companies. They include Paul Taylor, Remy Charlip, Viola Farber, Charles Moulton, Karole Armitage, Deborah Hay, Robert Kovich, Foofwa d'Imobilité, Kimberly Bartosik, Flo Ankah, Jan Van Dyke, Jonah Bokaer, and Alice Reyes.\nIn 2009, the Cunningham Dance Foundation announced the Legacy Plan, a plan for the continuation of Cunningham's work and the celebration and preservation of his artistic legacy.Cunningham earned some of the highest honours bestowed in the arts, including the National Medal of Arts and the MacArthur Fellowship. He also received Japan's Praemium Imperiale and a British Laurence Olivier Award, and was named Officier of the Légion d'honneur in France.\nCunningham's life and artistic vision have been the subject of numerous books, films, and exhibitions, and his works have been presented by groups including the Paris Opéra Ballet, New York City Ballet, American Ballet Theatre, White Oak Dance Project, and London's Rambert Dance Company.", "biography_author": "Wikidata", "date_of_biography": "2023-09-05T23:00:57.679011+10:00", "external_links": [{"id": 6024, "uri": "https://en.wikipedia.org/wiki/Merce_Cunningham"}], "uuid": "ffe25f39-24c9-40a9-a409-0ec3c36d1fb7", "source": {"name": "Vernon", "slug": "vernon"}, "source_identifier": "24943", "external_references": [{"id": 36973, "source": {"name": "Wikidata", "slug": "wikidata"}, "source_identifier": "Q318364"}, {"id": 55239, "source": {"name": "VIAF", "slug": "viaf"}, "source_identifier": "56747674"}, {"id": 55240, "source": {"name": "LOC Auth", "slug": "loc-auth"}, "source_identifier": "n83047112"}, {"id": 55241, "source": {"name": "WorldCat", "slug": "worldcat"}, "source_identifier": "lccn-n83047112"}], "date_modified": "2023-09-05T23:01:00.443103+10:00"}, {"id": 80391, "name": "Rick Elgood", "roles_in_work": [{"id": 2172076, "title": "Dancehall queen [DVD]", "work_id": 93632, "role": "co-director", "role_id": 959, "is_primary": true}], "also_known_as": "", "date_of_birth": "", "date_of_death": "", "genders": [], "languages": [], "places_of_operation": [], "biography": "", "biography_author": null, "date_of_biography": "2023-05-09T14:37:36.934342+10:00", "external_links": [], "uuid": "625cba69-470f-49a4-9df5-636c3ab9d877", "source": {"name": "Vernon", "slug": "vernon"}, "source_identifier": "27545", "external_references": [{"id": 43391, "source": {"name": "Wikidata", "slug": "wikidata"}, "source_identifier": "Q121143679"}], "date_modified": "2023-09-06T00:34:31.207314+10:00"}, {"id": 80390, "name": "Carl Bradshaw", "roles_in_work": [{"id": 2172070, "title": "Dancehall queen [DVD]", "work_id": 93632, "role": "co-producer", "role_id": 915, "is_primary": true}], "also_known_as": "", "date_of_birth": null, "date_of_death": "", "genders": [{"id": 9, "name": "Male", "slug": "male"}], "languages": [], "places_of_operation": [], "biography": "Carl Bradshaw OD is a Jamaican actor and film producer who has been described as \"Jamaica's most renowned actor\" and \"arguably Jamaica's premier actor\".", "biography_author": "Wikidata", "date_of_biography": "2023-09-05T18:18:49.917397+10:00", "external_links": [{"id": 5729, "uri": "https://en.wikipedia.org/wiki/Carl_Bradshaw_(actor)"}], "uuid": "233ce2fe-b627-4c14-872b-50e37ebf8b53", "source": {"name": "Vernon", "slug": "vernon"}, "source_identifier": "16463", "external_references": [{"id": 41892, "source": {"name": "Wikidata", "slug": "wikidata"}, "source_identifier": "Q16727627"}, {"id": 54143, "source": {"name": "VIAF", "slug": "viaf"}, "source_identifier": "146831655"}], "date_modified": "2023-09-05T18:18:49.938412+10:00"}, {"id": 80389, "name": "Elie Samaha", "roles_in_work": [{"id": 2475643, "title": "The Pledge", "work_id": 93630, "role": "co-producer", "role_id": 915, "is_primary": true}], "also_known_as": "", "date_of_birth": "1955-05-10", "date_of_death": "", "genders": [{"id": 9, "name": "Male", "slug": "male"}], "languages": [{"id": 19, "name": "Arabic", "slug": "arabic"}], "places_of_operation": [{"id": 60, "name": "Lebanon", "slug": "lebanon"}], "biography": "Elie Samaha (Arabic: إيلي سماحة) is a film producer in Los Angeles, with production credits beginning with The Immortals in 1995. He has produced over 83 works, primarily films along with some video games. He produced The Boondock Saints (1999), Battlefield Earth (2000), Driven (2001), 3,000 Miles to Graceland (2001), Heist (2001), The Pledge (2001), Spartan (2004), among many others.Samaha built his reputation in Hollywood first as the owner of Celebrity Cleaners and then with his nightclub on Sunset Strip, the Roxbury. Parlaying the Hollywood friendships he formed through his clubs, Samaha was given a distribution deal with Warner Bros. Pictures in 1999.", "biography_author": "Wikidata", "date_of_biography": "2023-09-05T19:28:54.193405+10:00", "external_links": [{"id": 1993, "uri": "https://en.wikipedia.org/wiki/Elie_Samaha"}], "uuid": "8d935710-498e-4031-871a-99768303a34c", "source": {"name": "Vernon", "slug": "vernon"}, "source_identifier": "18683", "external_references": [{"id": 8615, "source": {"name": "Wikidata", "slug": "wikidata"}, "source_identifier": "Q381545"}, {"id": 8616, "source": {"name": "VIAF", "slug": "viaf"}, "source_identifier": "51380407"}, {"id": 8617, "source": {"name": "LOC Auth", "slug": "loc-auth"}, "source_identifier": "no2003071644"}, {"id": 8618, "source": {"name": "WorldCat", "slug": "worldcat"}, "source_identifier": "lccn-no2003071644"}], "date_modified": "2023-09-05T19:28:54.203555+10:00"}, {"id": 80388, "name": "Alan Cumming", "roles_in_work": [{"id": 2327519, "title": "The Anniversary party", "work_id": 93629, "role": "co-director", "role_id": 959, "is_primary": true}, {"id": 2327507, "title": "The Anniversary party", "work_id": 93629, "role": "co-producer", "role_id": 915, "is_primary": true}], "also_known_as": "", "date_of_birth": "1965-01-27", "date_of_death": "", "genders": [{"id": 9, "name": "Male", "slug": "male"}], "languages": [{"id": 1, "name": "English", "slug": "english"}], "places_of_operation": [{"id": 10, "name": "United Kingdom", "slug": "united-kingdom"}], "biography": "Alan Cumming  (born 27 January 1965) is a Scottish actor. Known for his roles on stage and screen, he has received numerous accolades including a BAFTA Award, an Emmy Award, two Tony Awards, and an Olivier Award. He received the Laurence Olivier Award for Best Comedy Performance for the West End production of Accidental Death of an Anarchist (1991). His other Olivier-nominated roles were in The Conquest of the South Pole (1988), La Bête (1992), and Cabaret (1994). Cumming won the Tony Award for Best Actor in a Musical for reprising his role as the Emcee on Broadway in Cabaret (1998). His other performances on Broadway include Design for Living (2001), and Macbeth (2013).\nCumming is known for his film roles in Circle of Friends (1995), GoldenEye (1995), Emma (1996), Romy and Michele's High School Reunion (1997), Spice World (1997), Eyes Wide Shut (1999), \nNicholas Nickleby (2002), The Tempest (2010), Burlesque (2010), and Battle of the Sexes (2017). He also known for his roles as Fegan Floop in the Spy Kids trilogy (2001–2003), Nightcrawler in X2 (2003), and Loki in Son of the Mask (2005). \nOn television, Cumming is best known for his role in the CBS series The Good Wife (2010–2016), for which he was nominated for three Primetime Emmy Awards, two Screen Actors Guild Awards, two Golden Globe Awards. Cumming also starred in the CBS series Instinct (2018–2019) and the Apple TV+ series Schmigadoon! (2021-2023). Cumming has written a novel, Tommy's Tale (2002), and two memoirs in 2014 and 2019.", "biography_author": "Wikidata", "date_of_biography": "2023-08-01T13:55:59.215242+10:00", "external_links": [{"id": 1577, "uri": "https://en.wikipedia.org/wiki/Alan_Cumming"}], "uuid": "7d0d42de-0a14-414a-9219-681c14a5046b", "source": {"name": "Vernon", "slug": "vernon"}, "source_identifier": "14745", "external_references": [{"id": 6911, "source": {"name": "Wikidata", "slug": "wikidata"}, "source_identifier": "Q316629"}, {"id": 6912, "source": {"name": "VIAF", "slug": "viaf"}, "source_identifier": "14971996"}, {"id": 6913, "source": {"name": "LOC Auth", "slug": "loc-auth"}, "source_identifier": "no97042902"}, {"id": 6914, "source": {"name": "WorldCat", "slug": "worldcat"}, "source_identifier": "lccn-no97042902"}], "date_modified": "2023-09-05T17:20:13.554851+10:00"}, {"id": 80387, "name": "Jennifer Jason Leigh", "roles_in_work": [{"id": 2327514, "title": "The Anniversary party", "work_id": 93629, "role": "co-director", "role_id": 959, "is_primary": true}, {"id": 2474930, "title": "Georgia", "work_id": 94237, "role": "co-producer", "role_id": 915, "is_primary": true}, {"id": 2327504, "title": "The Anniversary party", "work_id": 93629, "role": "co-producer", "role_id": 915, "is_primary": true}], "also_known_as": "Jennifer Leigh Morrow", "date_of_birth": "1962-02-05", "date_of_death": "", "genders": [{"id": 5, "name": "Female", "slug": "female"}], "languages": [{"id": 1, "name": "English", "slug": "english"}], "places_of_operation": [{"id": 1, "name": "United States of America", "slug": "united-states-of-america"}], "biography": "Jennifer Jason Leigh (born Jennifer Leigh Morrow; February 5, 1962) is an American actress, screenwriter, and producer. She began her career on television during the 1970s before making her film breakthrough as Stacy Hamilton in Fast Times at Ridgemont High (1982). She later received critical praise for her performances in Last Exit to Brooklyn (1989), Miami Blues (1990), Backdraft (1991), Single White Female (1992), and Short Cuts (1993).\nLeigh was nominated for a Golden Globe for her portrayal of Dorothy Parker in Mrs. Parker and the Vicious Circle (1994). She starred in a 1995 film written by her mother, screenwriter Barbara Turner, titled Georgia. She co-wrote and co-directed a film with Alan Cumming titled The Anniversary Party (2001). Leigh starred in the neo-noir crime drama film Road to Perdition (2002). She starred in the family drama film Margot at the Wedding (2007). She had a recurring role on the Showtime comedy-drama series Weeds as Jill Price-Gray. In 2015, she received critical acclaim for her voice work as Lisa in Charlie Kaufman's Anomalisa, and for her role as Daisy Domergue in The Hateful Eight, for which she was nominated for the Golden Globe and Academy Award for Best Supporting Actress. From 2017 to 2021, she starred in the Netflix comedy-drama series Atypical. Leigh starred in the science-fiction horror films, Annihilation (2018) and Possessor (2020).\nFor her stage work, Leigh was nominated for a Drama Desk award for her off-Broadway performance as Beverly Moss in Mike Leigh's Abigail's Party. Her Broadway debut occurred in 1998, when she became the replacement for the role of Sally Bowles in the musical Cabaret.", "biography_author": "Wikidata", "date_of_biography": "2023-09-05T21:20:35.816823+10:00", "external_links": [{"id": 2367, "uri": "https://en.wikipedia.org/wiki/Jennifer_Jason_Leigh"}], "uuid": "0e9af608-049c-4b48-b90b-35c04296890b", "source": {"name": "Vernon", "slug": "vernon"}, "source_identifier": "21705", "external_references": [{"id": 10146, "source": {"name": "Wikidata", "slug": "wikidata"}, "source_identifier": "Q232902"}, {"id": 10147, "source": {"name": "VIAF", "slug": "viaf"}, "source_identifier": "66665198"}, {"id": 10148, "source": {"name": "LOC Auth", "slug": "loc-auth"}, "source_identifier": "n92097720"}, {"id": 10149, "source": {"name": "WorldCat", "slug": "worldcat"}, "source_identifier": "lccn-n92097720"}], "date_modified": "2023-09-05T21:20:37.970689+10:00"}, {"id": 80386, "name": "Philip Hinchcliffe", "roles_in_work": [{"id": 2196320, "title": "Doctor Who: revenge of the Cybermen", "work_id": 86438, "role": "producer", "role_id": 1089, "is_primary": true}, {"id": 2196347, "title": "Doctor Who: the hand of fear", "work_id": 86900, "role": "producer", "role_id": 1089, "is_primary": true}, {"id": 2196335, "title": "Doctor Who: the ark in space", "work_id": 93628, "role": "producer", "role_id": 1089, "is_primary": true}, {"id": 2196366, "title": "Doctor Who: the seeds of doom", "work_id": 86901, "role": "producer", "role_id": 1089, "is_primary": true}], "also_known_as": "", "date_of_birth": "", "date_of_death": "", "genders": [], "languages": [], "places_of_operation": [], "biography": "", "biography_author": null, "date_of_biography": "2023-05-09T15:17:32.581866+10:00", "external_links": [], "uuid": "cdd05dd3-496c-4fcb-ae0c-77ad8668419b", "source": {"name": "Vernon", "slug": "vernon"}, "source_identifier": "26822", "external_references": [{"id": 42747, "source": {"name": "Wikidata", "slug": "wikidata"}, "source_identifier": "Q121034785"}], "date_modified": "2023-09-06T00:04:48.018078+10:00"}, {"id": 80385, "name": "James Younger", "roles_in_work": [{"id": 924329, "title": "The Planets", "work_id": 93627, "role": "co-producer", "role_id": 915, "is_primary": true}], "also_known_as": "", "date_of_birth": null, "date_of_death": null, "genders": [], "languages": [], "places_of_operation": [], "biography": "", "biography_author": null, "date_of_biography": null, "external_links": [], "uuid": "deaa22d5-73d6-4fc0-93e8-6f1891197005", "source": {"name": "Vernon", "slug": "vernon"}, "source_identifier": null, "external_references": [{"id": 40207, "source": {"name": "Wikidata", "slug": "wikidata"}, "source_identifier": "Q121298957"}], "date_modified": "2023-09-05T21:05:40.113424+10:00"}, {"id": 80384, "name": "David McNab", "roles_in_work": [{"id": 924328, "title": "The Planets", "work_id": 93627, "role": "co-producer", "role_id": 915, "is_primary": true}], "also_known_as": "", "date_of_birth": null, "date_of_death": null, "genders": [], "languages": [], "places_of_operation": [], "biography": "", "biography_author": null, "date_of_biography": null, "external_links": [], "uuid": "ed8b257c-cc85-414c-8390-78d6f9a7827f", "source": {"name": "Vernon", "slug": "vernon"}, "source_identifier": null, "external_references": [{"id": 38412, "source": {"name": "Wikidata", "slug": "wikidata"}, "source_identifier": "Q121036446"}], "date_modified": "2023-09-05T19:00:22.231605+10:00"}]}