{"count": 28687, "next": "https://api.acmi.net.au/creators/?page=764", "previous": "https://api.acmi.net.au/creators/?page=762", "results": [{"id": 77953, "name": "Arnon Mitchell", "roles_in_work": [{"id": 2123178, "title": "Boys on the side", "work_id": 85439, "role": "co-producer", "role_id": 915, "is_primary": true}], "also_known_as": "", "date_of_birth": "1944-12-06", "date_of_death": "", "genders": [{"id": 9, "name": "Male", "slug": "male"}], "languages": [{"id": 11, "name": "Hebrew", "slug": "hebrew"}], "places_of_operation": [{"id": 33, "name": "Israel", "slug": "israel"}], "biography": "Arnon Milchan (Hebrew: ארנון מילצ'ן; December 6, 1944) is an Israeli businessman, film producer and former spy. He has been involved in over 130 full-length motion pictures and is the founder of production company Regency Enterprises. Regency's film credits include 12 Years a Slave, JFK, Heat, Fight Club, and Mr. & Mrs. Smith. Milchan has earned two nominations for the Academy Award for Best Picture, for L.A. Confidential and The Revenant. Milchan was also an Israeli intelligence operative from the mid-1960s to the mid-1980s.", "biography_author": "Wikidata", "date_of_biography": "2023-08-01T14:06:17.690010+10:00", "external_links": [{"id": 1676, "uri": "https://en.wikipedia.org/wiki/Arnon_Milchan"}], "uuid": "7ab6d0e3-69bf-4a80-8968-84ec46b3f8c5", "source": {"name": "Vernon", "slug": "vernon"}, "source_identifier": "15491", "external_references": [{"id": 7313, "source": {"name": "Wikidata", "slug": "wikidata"}, "source_identifier": "Q697131"}, {"id": 7314, "source": {"name": "VIAF", "slug": "viaf"}, "source_identifier": "85613076"}, {"id": 7315, "source": {"name": "LOC Auth", "slug": "loc-auth"}, "source_identifier": "n96024551"}, {"id": 7316, "source": {"name": "WorldCat", "slug": "worldcat"}, "source_identifier": "lccn-n96024551"}], "date_modified": "2023-09-05T17:45:42.379063+10:00"}, {"id": 77952, "name": "Heva Productions", "roles_in_work": [{"id": 2123167, "title": "Boys on the side", "work_id": 85439, "role": "production company", "role_id": 941, "is_primary": true}], "also_known_as": "", "date_of_birth": "", "date_of_death": "", "genders": [], "languages": [], "places_of_operation": [], "biography": "", "biography_author": null, "date_of_biography": "2023-05-09T13:06:50.319829+10:00", "external_links": [], "uuid": "b400b760-fe97-4c75-bda5-59b54b21ded7", "source": {"name": "Vernon", "slug": "vernon"}, "source_identifier": "9090", "external_references": [{"id": 37022, "source": {"name": "Wikidata", "slug": "wikidata"}, "source_identifier": "Q121035670"}], "date_modified": "2023-09-05T20:38:54.296329+10:00"}, {"id": 77951, "name": "Samuel Wu", "roles_in_work": [{"id": 2296916, "title": "Sharing the fruits of progress", "work_id": 85433, "role": "co-producer", "role_id": 915, "is_primary": true}], "also_known_as": "", "date_of_birth": "", "date_of_death": "", "genders": [], "languages": [], "places_of_operation": [], "biography": "", "biography_author": null, "date_of_biography": "2023-05-09T18:29:16.706277+10:00", "external_links": [], "uuid": "f0788c9e-48ac-4815-96e9-03acf6933f6e", "source": {"name": "Vernon", "slug": "vernon"}, "source_identifier": "28524", "external_references": [{"id": 34236, "source": {"name": "Wikidata", "slug": "wikidata"}, "source_identifier": "Q121079045"}], "date_modified": "2023-09-06T01:04:18.888417+10:00"}, {"id": 77950, "name": "David J.C. Shih", "roles_in_work": [{"id": 2615440, "title": "Festivals in Taiwan", "work_id": 85431, "role": "co-producer", "role_id": 915, "is_primary": true}], "also_known_as": "", "date_of_birth": "", "date_of_death": "", "genders": [], "languages": [], "places_of_operation": [], "biography": "", "biography_author": null, "date_of_biography": "2023-05-09T16:49:35.547732+10:00", "external_links": [], "uuid": "9df01f70-6925-4401-8aca-c6a130019281", "source": {"name": "Vernon", "slug": "vernon"}, "source_identifier": "17649", "external_references": [{"id": 37363, "source": {"name": "Wikidata", "slug": "wikidata"}, "source_identifier": "Q121337384"}], "date_modified": "2025-02-26T20:23:50.570907+11:00"}, {"id": 77949, "name": "Richard Alexander", "roles_in_work": [{"id": 2793051, "title": "The Fragile rice bowl: workers in New China", "work_id": 85422, "role": "co-producer", "role_id": 915, "is_primary": true}], "also_known_as": "", "date_of_birth": "", "date_of_death": "", "genders": [], "languages": [], "places_of_operation": [], "biography": "", "biography_author": null, "date_of_biography": "2023-05-09T19:53:28.240384+10:00", "external_links": [], "uuid": "246f1071-05d3-4f15-9e70-a2a069e036da", "source": {"name": "Vernon", "slug": "vernon"}, "source_identifier": "27311", "external_references": [{"id": 37989, "source": {"name": "Wikidata", "slug": "wikidata"}, "source_identifier": "Q121222667"}], "date_modified": "2025-03-14T20:15:15.257391+11:00"}, {"id": 77948, "name": "Brenda Louie", "roles_in_work": [{"id": 2793050, "title": "The Fragile rice bowl: workers in New China", "work_id": 85422, "role": "co-producer", "role_id": 915, "is_primary": true}], "also_known_as": "", "date_of_birth": "", "date_of_death": "", "genders": [], "languages": [], "places_of_operation": [], "biography": "", "biography_author": null, "date_of_biography": "2023-05-09T19:53:28.008554+10:00", "external_links": [], "uuid": "eb8ff926-6fd2-4ce0-b4d0-0de5a1ffeccd", "source": {"name": "Vernon", "slug": "vernon"}, "source_identifier": "16175", "external_references": [{"id": 36257, "source": {"name": "Wikidata", "slug": "wikidata"}, "source_identifier": "Q121298914"}], "date_modified": "2025-03-14T20:15:14.667191+11:00"}, {"id": 77947, "name": "Neil MacIndoe", "roles_in_work": [{"id": 2236685, "title": "Rats in the Ranks", "work_id": 85419, "role": "contributor", "role_id": 616, "is_primary": false}], "also_known_as": "", "date_of_birth": "", "date_of_death": "", "genders": [], "languages": [], "places_of_operation": [], "biography": "", "biography_author": null, "date_of_biography": "2023-05-09T16:46:50.987535+10:00", "external_links": [], "uuid": "1ba26740-a1d1-4069-a291-5f16ca571c81", "source": {"name": "Vernon", "slug": "vernon"}, "source_identifier": "38880", "external_references": [], "date_modified": "2023-06-14T16:33:30.576250+10:00"}, {"id": 77946, "name": "Kate Butler", "roles_in_work": [{"id": 2236680, "title": "Rats in the Ranks", "work_id": 85419, "role": "contributor", "role_id": 616, "is_primary": false}], "also_known_as": "", "date_of_birth": "", "date_of_death": "", "genders": [], "languages": [], "places_of_operation": [], "biography": "", "biography_author": null, "date_of_biography": "2023-05-09T16:46:50.715839+10:00", "external_links": [], "uuid": "2826a1d9-b070-4fb7-bd74-7464578132b9", "source": {"name": "Vernon", "slug": "vernon"}, "source_identifier": "38879", "external_references": [], "date_modified": "2023-06-14T16:33:30.576250+10:00"}, {"id": 77945, "name": "Larry Hand", "roles_in_work": [{"id": 2236672, "title": "Rats in the Ranks", "work_id": 85419, "role": "contributor", "role_id": 616, "is_primary": false}], "also_known_as": "", "date_of_birth": "", "date_of_death": "", "genders": [], "languages": [], "places_of_operation": [], "biography": "", "biography_author": null, "date_of_biography": "2023-05-09T16:46:50.456069+10:00", "external_links": [], "uuid": "30c73cad-84a1-4f2a-a171-a46141ceb00f", "source": {"name": "Vernon", "slug": "vernon"}, "source_identifier": "38877", "external_references": [], "date_modified": "2023-06-14T16:33:30.576250+10:00"}, {"id": 77944, "name": "Dee Mosbacher", "roles_in_work": [{"id": 2314849, "title": "Straight from the heart", "work_id": 85420, "role": "co-producers/directors", "role_id": 628, "is_primary": true}, {"id": 2180670, "title": "Out for a change: addressing homophobia in women's sports", "work_id": 85417, "role": "producer/director", "role_id": 31, "is_primary": true}], "also_known_as": "", "date_of_birth": "1949-01-13", "date_of_death": "", "genders": [{"id": 5, "name": "Female", "slug": "female"}], "languages": [], "places_of_operation": [{"id": 1, "name": "United States of America", "slug": "united-states-of-america"}], "biography": "Diane \"Dee\" Mosbacher (born 1949) is an American filmmaker, lesbian feminist activist, and practicing psychiatrist. In 1993, she founded Woman Vision, a nonprofit organization.\n\n", "biography_author": "Wikidata", "date_of_biography": "2023-09-05T19:06:18.392579+10:00", "external_links": [{"id": 5775, "uri": "https://en.wikipedia.org/wiki/Dee_Mosbacher"}], "uuid": "a9db6c5d-8f74-4297-84ae-cf5420e52239", "source": {"name": "Vernon", "slug": "vernon"}, "source_identifier": "17931", "external_references": [{"id": 51157, "source": {"name": "Wikidata", "slug": "wikidata"}, "source_identifier": "Q1182285"}, {"id": 54300, "source": {"name": "VIAF", "slug": "viaf"}, "source_identifier": "92743013"}, {"id": 54301, "source": {"name": "LOC Auth", "slug": "loc-auth"}, "source_identifier": "no98101758"}, {"id": 54302, "source": {"name": "WorldCat", "slug": "worldcat"}, "source_identifier": "lccn-no98101758"}], "date_modified": "2023-09-05T19:06:29.775033+10:00"}]}