{"count": 28687, "next": "https://api.acmi.net.au/creators/?page=2856", "previous": "https://api.acmi.net.au/creators/?page=2854", "results": [{"id": 6623, "name": "Craig Brooks", "roles_in_work": [{"id": 2709183, "title": "Flare", "work_id": 108090, "role": "director", "role_id": 938, "is_primary": true}, {"id": 2709128, "title": "Washing machine circa 1522", "work_id": 108084, "role": "director", "role_id": 938, "is_primary": true}, {"id": 2709182, "title": "Flare", "work_id": 108090, "role": "creator", "role_id": 968, "is_primary": true}, {"id": 2709126, "title": "Washing machine circa 1522", "work_id": 108084, "role": "creator", "role_id": 968, "is_primary": true}, {"id": 2709127, "title": "Washing machine circa 1522", "work_id": 108084, "role": "animator", "role_id": 497, "is_primary": false}, {"id": 2709184, "title": "Flare", "work_id": 108090, "role": "animator", "role_id": 497, "is_primary": false}, {"id": 2709026, "title": "Talent nite", "work_id": 108071, "role": "animator", "role_id": 497, "is_primary": false}, {"id": 2709129, "title": "Washing machine circa 1522", "work_id": 108084, "role": "script", "role_id": 962, "is_primary": false}, {"id": 2709185, "title": "Flare", "work_id": 108090, "role": "script", "role_id": 962, "is_primary": false}], "also_known_as": "", "date_of_birth": "", "date_of_death": "", "genders": [], "languages": [], "places_of_operation": [], "biography": "", "biography_author": null, "date_of_biography": "2023-05-09T20:08:27.200588+10:00", "external_links": [], "uuid": "cb8f9186-dc13-4324-a4d9-242e9ac65ed6", "source": {"name": "Vernon", "slug": "vernon"}, "source_identifier": "110161", "external_references": [{"id": 32561, "source": {"name": "Wikidata", "slug": "wikidata"}, "source_identifier": "Q121035123"}], "date_modified": "2025-03-11T22:55:06.398752+11:00"}, {"id": 6617, "name": "John Rowdon", "roles_in_work": [{"id": 2709036, "title": "Penguins off the page", "work_id": 108072, "role": "director", "role_id": 938, "is_primary": true}, {"id": 2709042, "title": "Penguins off the page", "work_id": 108072, "role": "creator", "role_id": 968, "is_primary": true}, {"id": 2708931, "title": "Private & confidential box", "work_id": 108063, "role": "creator", "role_id": 968, "is_primary": true}, {"id": 2709034, "title": "Penguins off the page", "work_id": 108072, "role": "animator", "role_id": 497, "is_primary": false}, {"id": 2708933, "title": "Private & confidential box", "work_id": 108063, "role": "animator", "role_id": 497, "is_primary": false}, {"id": 2709039, "title": "Penguins off the page", "work_id": 108072, "role": "designer", "role_id": 495, "is_primary": false}, {"id": 2709038, "title": "Penguins off the page", "work_id": 108072, "role": "writer", "role_id": 939, "is_primary": true}], "also_known_as": "", "date_of_birth": "", "date_of_death": "", "genders": [], "languages": [], "places_of_operation": [], "biography": "", "biography_author": null, "date_of_biography": "2023-05-09T19:35:45.251761+10:00", "external_links": [], "uuid": "c0d2d003-a645-4612-b01f-532cf8641440", "source": {"name": "Vernon", "slug": "vernon"}, "source_identifier": "110172", "external_references": [{"id": 42553, "source": {"name": "Wikidata", "slug": "wikidata"}, "source_identifier": "Q121337712"}], "date_modified": "2025-03-11T22:51:25.723126+11:00"}, {"id": 6616, "name": "Nicole McKinnon", "roles_in_work": [{"id": 2709023, "title": "Talent nite", "work_id": 108071, "role": "creator", "role_id": 968, "is_primary": true}, {"id": 2711002, "title": "Writers' block", "work_id": 109089, "role": "creator", "role_id": 968, "is_primary": true}, {"id": 2708921, "title": "Twinkle twinkle", "work_id": 108062, "role": "creator", "role_id": 968, "is_primary": true}, {"id": 2708919, "title": "Twinkle twinkle", "work_id": 108062, "role": "animator", "role_id": 497, "is_primary": false}, {"id": 916099, "title": "It's like that", "work_id": 94565, "role": "co-director", "role_id": 959, "is_primary": true}, {"id": 916091, "title": "It's like that", "work_id": 94565, "role": "co-producer", "role_id": 915, "is_primary": true}, {"id": 2708917, "title": "Twinkle twinkle", "work_id": 108062, "role": "writer", "role_id": 939, "is_primary": true}, {"id": 2709025, "title": "Talent nite", "work_id": 108071, "role": "writer", "role_id": 939, "is_primary": true}], "also_known_as": "", "date_of_birth": "", "date_of_death": "", "genders": [], "languages": [], "places_of_operation": [], "biography": "Nicole has worked as a freelance animator, illustrator and web editor. At the time of writing she teaches Animation and Concept Development at the Department of CReative Media, RMIT.\n\nNicole is also a founding member of the Southern Ladies Animation Group (SLAG).", "biography_author": null, "date_of_biography": "2025-03-11T23:44:28.257098+11:00", "external_links": [], "uuid": "522f0ebb-6cd4-44ae-9907-43f7feae7314", "source": {"name": "Vernon", "slug": "vernon"}, "source_identifier": "112305", "external_references": [{"id": 35138, "source": {"name": "Wikidata", "slug": "wikidata"}, "source_identifier": "Q121126414"}], "date_modified": "2025-03-11T23:44:28.257328+11:00"}, {"id": 6614, "name": "Diana Janicki", "roles_in_work": [{"id": 2708903, "title": "Nice day", "work_id": 108061, "role": "creator", "role_id": 968, "is_primary": true}, {"id": 2708896, "title": "Metamorphosis: DJ", "work_id": 108060, "role": "creator", "role_id": 968, "is_primary": true}, {"id": 2708898, "title": "Metamorphosis: DJ", "work_id": 108060, "role": "animator", "role_id": 497, "is_primary": false}], "also_known_as": "", "date_of_birth": "", "date_of_death": "", "genders": [], "languages": [], "places_of_operation": [], "biography": "", "biography_author": null, "date_of_biography": "2023-05-09T20:08:11.943162+10:00", "external_links": [], "uuid": "8627ee04-7169-430a-bf9f-3ff087a34c3b", "source": {"name": "Vernon", "slug": "vernon"}, "source_identifier": "110138", "external_references": [], "date_modified": "2025-03-11T22:49:28.533800+11:00"}, {"id": 6613, "name": "William Trumble", "roles_in_work": [{"id": 2629438, "title": "Achille's heel", "work_id": 108113, "role": "director", "role_id": 938, "is_primary": true}, {"id": 2708861, "title": "Not the chosen one", "work_id": 108056, "role": "creator", "role_id": 968, "is_primary": true}, {"id": 2709231, "title": "The Vending machine", "work_id": 108094, "role": "creator", "role_id": 968, "is_primary": true}, {"id": 2629440, "title": "Achille's heel", "work_id": 108113, "role": "creator", "role_id": 968, "is_primary": true}, {"id": 2709230, "title": "The Vending machine", "work_id": 108094, "role": "animator", "role_id": 497, "is_primary": false}, {"id": 2709156, "title": "Essence of Terror", "work_id": 114015, "role": "animator", "role_id": 497, "is_primary": false}, {"id": 2629435, "title": "Achille's heel", "work_id": 108113, "role": "animator", "role_id": 497, "is_primary": false}, {"id": 2629436, "title": "Achille's heel", "work_id": 108113, "role": "writer", "role_id": 939, "is_primary": true}], "also_known_as": "", "date_of_birth": "", "date_of_death": "", "genders": [], "languages": [], "places_of_operation": [], "biography": "", "biography_author": null, "date_of_biography": "2023-05-09T20:09:05.403656+10:00", "external_links": [], "uuid": "c3ffc361-fd94-445f-b2cc-01264b535690", "source": {"name": "Vernon", "slug": "vernon"}, "source_identifier": "110462", "external_references": [{"id": 34006, "source": {"name": "Wikidata", "slug": "wikidata"}, "source_identifier": "Q121337078"}], "date_modified": "2025-03-11T22:56:02.568264+11:00"}, {"id": 6612, "name": "Jeremy Parker", "roles_in_work": [{"id": 2629841, "title": "Picture start", "work_id": 108581, "role": "director", "role_id": 938, "is_primary": true}, {"id": 2629840, "title": "Picture start", "work_id": 108581, "role": "creator", "role_id": 968, "is_primary": true}, {"id": 2709529, "title": "The Greatest story untold", "work_id": 108144, "role": "assistant", "role_id": 450, "is_primary": false}, {"id": 1662556, "title": "Still life with aeroplane", "work_id": 86233, "role": "co-producer", "role_id": 915, "is_primary": true}, {"id": 2641327, "title": "A Monster's Voyage", "work_id": 114271, "role": "editor", "role_id": 918, "is_primary": true}, {"id": 2708859, "title": "Not the chosen one", "work_id": 108056, "role": "editor", "role_id": 918, "is_primary": true}, {"id": 2709330, "title": "Robot cycle", "work_id": 108114, "role": "editor", "role_id": 918, "is_primary": true}, {"id": 2636588, "title": "Appeal", "work_id": 109505, "role": "editor", "role_id": 918, "is_primary": true}, {"id": 2709339, "title": "Icaros", "work_id": 108115, "role": "photographer", "role_id": 440, "is_primary": false}, {"id": 2711536, "title": "Memo", "work_id": 109246, "role": "producer", "role_id": 1089, "is_primary": true}, {"id": 2709219, "title": "Pharmaceutical girl", "work_id": 108092, "role": "producer", "role_id": 1089, "is_primary": true}, {"id": 2709187, "title": "Flare", "work_id": 108090, "role": "technician", "role_id": 518, "is_primary": false}, {"id": 2709406, "title": "High wire", "work_id": 108126, "role": "voice", "role_id": 471, "is_primary": false}, {"id": 2709578, "title": "All ears", "work_id": 108148, "role": "writer", "role_id": 939, "is_primary": true}], "also_known_as": "", "date_of_birth": "", "date_of_death": "", "genders": [], "languages": [], "places_of_operation": [], "biography": "", "biography_author": null, "date_of_biography": "2023-08-16T03:35:30.481043+10:00", "external_links": [], "uuid": "6c1b9a3d-a917-4df9-8461-1a052638b721", "source": {"name": "Vernon", "slug": "vernon"}, "source_identifier": "110148", "external_references": [], "date_modified": "2025-03-11T23:53:55.492415+11:00"}, {"id": 6611, "name": "Alyssa Rothwell", "roles_in_work": [{"id": 2711369, "title": "Three Mile Creek", "work_id": 109163, "role": "creator", "role_id": 968, "is_primary": true}, {"id": 2709220, "title": "Pharmaceutical girl", "work_id": 108092, "role": "choreograph actress", "role_id": 524, "is_primary": false}, {"id": 2708857, "title": "Not the chosen one", "work_id": 108056, "role": "colouring", "role_id": 504, "is_primary": false}, {"id": 2615820, "title": "Three Mile Creek (MAC)", "work_id": 86231, "role": "producer", "role_id": 1089, "is_primary": true}], "also_known_as": "", "date_of_birth": "", "date_of_death": "", "genders": [], "languages": [], "places_of_operation": [], "biography": "", "biography_author": null, "date_of_biography": "2023-08-16T03:35:33.809241+10:00", "external_links": [], "uuid": "9687fcb1-3b8b-4c4b-ac95-4a6fcab8fbac", "source": {"name": "Vernon", "slug": "vernon"}, "source_identifier": "110007", "external_references": [{"id": 42436, "source": {"name": "Wikidata", "slug": "wikidata"}, "source_identifier": "Q121271113"}], "date_modified": "2025-03-11T23:51:06.857586+11:00"}, {"id": 6608, "name": "Yongki Liawinata", "roles_in_work": [{"id": 2708838, "title": "Not the chosen one", "work_id": 108056, "role": "director", "role_id": 938, "is_primary": true}, {"id": 2708836, "title": "Not the chosen one", "work_id": 108056, "role": "creator", "role_id": 968, "is_primary": true}, {"id": 2708834, "title": "Not the chosen one", "work_id": 108056, "role": "animator", "role_id": 497, "is_primary": false}, {"id": 2708832, "title": "Not the chosen one", "work_id": 108056, "role": "writer", "role_id": 939, "is_primary": true}], "also_known_as": "", "date_of_birth": "", "date_of_death": "", "genders": [], "languages": [], "places_of_operation": [], "biography": "", "biography_author": null, "date_of_biography": "2023-05-09T20:09:01.861741+10:00", "external_links": [], "uuid": "fd1995eb-da51-4abc-8486-2bdf69cb6e84", "source": {"name": "Vernon", "slug": "vernon"}, "source_identifier": "110136", "external_references": [{"id": 37030, "source": {"name": "Wikidata", "slug": "wikidata"}, "source_identifier": "Q121035612"}], "date_modified": "2025-03-11T22:48:24.233586+11:00"}, {"id": 6607, "name": "Jeong Kyu Kim", "roles_in_work": [{"id": 2709074, "title": "An afternoon with...", "work_id": 108074, "role": "creator", "role_id": 968, "is_primary": true}, {"id": 2708827, "title": "Washing machine [caveman]", "work_id": 108055, "role": "creator", "role_id": 968, "is_primary": true}], "also_known_as": "", "date_of_birth": "", "date_of_death": "", "genders": [], "languages": [], "places_of_operation": [], "biography": "", "biography_author": null, "date_of_biography": "2023-05-09T20:08:17.514172+10:00", "external_links": [], "uuid": "f34a1a58-735c-4336-8de0-41577e8b4e12", "source": {"name": "Vernon", "slug": "vernon"}, "source_identifier": "110135", "external_references": [], "date_modified": "2025-03-11T22:52:05.926459+11:00"}, {"id": 6606, "name": "Csaba Szamosy", "roles_in_work": [{"id": 2708825, "title": "The Great Australian cultural exchange programme", "work_id": 108054, "role": "creator", "role_id": 968, "is_primary": true}, {"id": 2618901, "title": "Metamorphosick", "work_id": 108086, "role": "creator", "role_id": 968, "is_primary": true}, {"id": 2709224, "title": "Octikuki", "work_id": 108093, "role": "creator", "role_id": 968, "is_primary": true}, {"id": 2709225, "title": "Octikuki", "work_id": 108093, "role": "animator", "role_id": 497, "is_primary": false}], "also_known_as": "", "date_of_birth": "", "date_of_death": "", "genders": [], "languages": [], "places_of_operation": [], "biography": "", "biography_author": null, "date_of_biography": "2023-05-09T20:08:44.926584+10:00", "external_links": [], "uuid": "4fe2e476-0434-4368-8ce3-455ae4061c03", "source": {"name": "Vernon", "slug": "vernon"}, "source_identifier": "110134", "external_references": [], "date_modified": "2025-03-11T22:55:55.918032+11:00"}]}