{"count": 28687, "next": "https://api.acmi.net.au/creators/?page=1155", "previous": "https://api.acmi.net.au/creators/?page=1153", "results": [{"id": 73865, "name": "Michael Hill", "roles_in_work": [{"id": 2643313, "title": "WCSC", "work_id": 111116, "role": "creator", "role_id": 968, "is_primary": true}, {"id": 2641555, "title": "Norbert", "work_id": 114285, "role": "creator", "role_id": 968, "is_primary": true}], "also_known_as": "", "date_of_birth": "", "date_of_death": "", "genders": [], "languages": [], "places_of_operation": [], "biography": "", "biography_author": null, "date_of_biography": "2023-05-09T19:01:03.021933+10:00", "external_links": [], "uuid": "d4292e1f-9031-4eee-90e3-9061fe93ef9a", "source": {"name": "Vernon", "slug": "vernon"}, "source_identifier": "3221", "external_references": [], "date_modified": "2025-03-05T11:55:48.287262+11:00"}, {"id": 73864, "name": "Ollie Brown", "roles_in_work": [{"id": 2643303, "title": "Duck", "work_id": 111113, "role": "composer", "role_id": 538, "is_primary": false}], "also_known_as": "", "date_of_birth": "", "date_of_death": "", "genders": [], "languages": [], "places_of_operation": [], "biography": "", "biography_author": null, "date_of_biography": "2023-05-09T15:47:48.950739+10:00", "external_links": [], "uuid": "912c3495-73e1-4d5d-b74d-4d76368a6369", "source": {"name": "Vernon", "slug": "vernon"}, "source_identifier": "3592", "external_references": [], "date_modified": "2025-03-05T11:55:44.667881+11:00"}, {"id": 73863, "name": "The Deafness Foundation", "roles_in_work": [{"id": 2685946, "title": "Visit to the Tulip Farm", "work_id": 119769, "role": "funding", "role_id": 609, "is_primary": false}, {"id": 2685938, "title": "Going to my mum's house", "work_id": 119760, "role": "funding", "role_id": 609, "is_primary": false}, {"id": 2685926, "title": "Going to Nan & Pop's Farm", "work_id": 119761, "role": "funding", "role_id": 609, "is_primary": false}, {"id": 2685911, "title": "The Impact", "work_id": 119763, "role": "funding", "role_id": 609, "is_primary": false}, {"id": 2685806, "title": "My Life with Epilepsy", "work_id": 119766, "role": "funding", "role_id": 609, "is_primary": false}, {"id": 2685800, "title": "Birth without knives", "work_id": 119757, "role": "funding", "role_id": 609, "is_primary": false}, {"id": 2685794, "title": "The descent and rise of an ordinary woman", "work_id": 119759, "role": "funding", "role_id": 609, "is_primary": false}, {"id": 2685788, "title": "The Naked Artist", "work_id": 119767, "role": "funding", "role_id": 609, "is_primary": false}, {"id": 2685781, "title": "The Crying Game", "work_id": 119758, "role": "funding", "role_id": 609, "is_primary": false}, {"id": 2685775, "title": "[Untitled]", "work_id": 119770, "role": "funding", "role_id": 609, "is_primary": false}, {"id": 2685770, "title": "Kyara", "work_id": 119764, "role": "funding", "role_id": 609, "is_primary": false}, {"id": 2636340, "title": "Hopes and Dreams", "work_id": 119762, "role": "funding", "role_id": 609, "is_primary": false}, {"id": 2685966, "title": "My Dad", "work_id": 119765, "role": "funding", "role_id": 609, "is_primary": false}, {"id": 2685977, "title": "The Sound of a Meringue Being Tortured", "work_id": 119768, "role": "funding", "role_id": 609, "is_primary": false}, {"id": 2642875, "title": "Lost in Time and Space", "work_id": 111042, "role": "partner", "role_id": 575, "is_primary": false}, {"id": 2636290, "title": "The Brown dressing gown", "work_id": 114200, "role": "partner", "role_id": 575, "is_primary": false}], "also_known_as": "", "date_of_birth": "", "date_of_death": "", "genders": [], "languages": [], "places_of_operation": [], "biography": "", "biography_author": null, "date_of_biography": "2023-05-09T20:06:23.167721+10:00", "external_links": [], "uuid": "7eeb2ae1-276e-45a3-b6e6-57a1680e8764", "source": {"name": "Vernon", "slug": "vernon"}, "source_identifier": "3451", "external_references": [], "date_modified": "2025-03-11T12:01:40.638617+11:00"}, {"id": 73862, "name": "Bruce Smeaton", "roles_in_work": [{"id": 2642855, "title": "Film film: Lending", "work_id": 111040, "role": "music", "role_id": 949, "is_primary": false}, {"id": 2642864, "title": "Film film: Lending / Showing", "work_id": 111041, "role": "music", "role_id": 949, "is_primary": false}, {"id": 2647132, "title": "Kangaroo Island", "work_id": 75410, "role": "music", "role_id": 949, "is_primary": false}, {"id": 2337303, "title": "The Chant of Jimmie Blacksmith", "work_id": 80727, "role": "music", "role_id": 949, "is_primary": false}], "also_known_as": "", "date_of_birth": "", "date_of_death": "", "genders": [], "languages": [], "places_of_operation": [], "biography": "", "biography_author": null, "date_of_biography": "2023-05-09T19:33:58.767186+10:00", "external_links": [], "uuid": "a08c13b0-56fe-4dad-bddf-36d9506e59da", "source": {"name": "Vernon", "slug": "vernon"}, "source_identifier": "3510", "external_references": [{"id": 51769, "source": {"name": "Wikidata", "slug": "wikidata"}, "source_identifier": "Q121361145"}], "date_modified": "2025-03-05T13:20:14.967251+11:00"}, {"id": 73861, "name": "Victoria. Dept. of Sustainability and Environment", "roles_in_work": [{"id": 2180661, "title": "Our water our future", "work_id": 116513, "role": "production company", "role_id": 941, "is_primary": true}, {"id": 2642703, "title": "From the ashes: stories from the Gippsland Bushfires 06-07 : Digital Storytelling project", "work_id": 111022, "role": "support", "role_id": 492, "is_primary": false}], "also_known_as": "", "date_of_birth": "", "date_of_death": "", "genders": [], "languages": [], "places_of_operation": [], "biography": "", "biography_author": null, "date_of_biography": "2023-05-09T19:31:45.271978+10:00", "external_links": [], "uuid": "db55fab3-a640-49cb-ada5-0d230bf41b7e", "source": {"name": "Vernon", "slug": "vernon"}, "source_identifier": "31971", "external_references": [{"id": 39363, "source": {"name": "Wikidata", "slug": "wikidata"}, "source_identifier": "Q121270790"}], "date_modified": "2025-03-05T11:49:24.385131+11:00"}, {"id": 73860, "name": "Wellington Shire Council", "roles_in_work": [{"id": 2685991, "title": "Generations of Hands", "work_id": 119647, "role": "partner", "role_id": 575, "is_primary": false}, {"id": 2686009, "title": "Mary's Story", "work_id": 119649, "role": "partner", "role_id": 575, "is_primary": false}, {"id": 2686001, "title": "Quilts of Understanding", "work_id": 119648, "role": "partner", "role_id": 575, "is_primary": false}, {"id": 2638420, "title": "The Next Chapter", "work_id": 119646, "role": "partner", "role_id": 575, "is_primary": false}, {"id": 2642874, "title": "Lost in Time and Space", "work_id": 111042, "role": "partner", "role_id": 575, "is_primary": false}, {"id": 2638414, "title": "Me do", "work_id": 114309, "role": "partner", "role_id": 575, "is_primary": false}, {"id": 2642701, "title": "From the ashes: stories from the Gippsland Bushfires 06-07 : Digital Storytelling project", "work_id": 111022, "role": "support", "role_id": 492, "is_primary": false}, {"id": 2642682, "title": "I've survived", "work_id": 111068, "role": "support", "role_id": 492, "is_primary": false}, {"id": 2642648, "title": "Community under siege", "work_id": 111064, "role": "support", "role_id": 492, "is_primary": false}, {"id": 2642676, "title": "Grateful angels", "work_id": 111065, "role": "support", "role_id": 492, "is_primary": false}, {"id": 2642660, "title": "Dad's tools", "work_id": 111063, "role": "support", "role_id": 492, "is_primary": false}, {"id": 2642688, "title": "My nightmare has just begun", "work_id": 111067, "role": "support", "role_id": 492, "is_primary": false}, {"id": 2642694, "title": "Waterholes : our turn", "work_id": 111069, "role": "support", "role_id": 492, "is_primary": false}, {"id": 2642654, "title": "D-Day", "work_id": 111066, "role": "support", "role_id": 492, "is_primary": false}], "also_known_as": "", "date_of_birth": "", "date_of_death": "", "genders": [], "languages": [], "places_of_operation": [], "biography": "", "biography_author": null, "date_of_biography": "2023-07-05T03:45:53.066074+10:00", "external_links": [], "uuid": "4b9bef2d-7f06-4b26-bc01-3f99eca06462", "source": {"name": "Vernon", "slug": "vernon"}, "source_identifier": "3449", "external_references": [], "date_modified": "2025-03-11T12:01:54.314629+11:00"}, {"id": 73859, "name": "Latrobe City", "roles_in_work": [{"id": 2642711, "title": "Going, going, still here!", "work_id": 114312, "role": "partner", "role_id": 575, "is_primary": false}, {"id": 2642700, "title": "From the ashes: stories from the Gippsland Bushfires 06-07 : Digital Storytelling project", "work_id": 111022, "role": "partner", "role_id": 575, "is_primary": false}, {"id": 2642692, "title": "Waterholes : our turn", "work_id": 111069, "role": "partner", "role_id": 575, "is_primary": false}, {"id": 2642686, "title": "My nightmare has just begun", "work_id": 111067, "role": "partner", "role_id": 575, "is_primary": false}, {"id": 2642680, "title": "I've survived", "work_id": 111068, "role": "partner", "role_id": 575, "is_primary": false}, {"id": 2642674, "title": "Grateful angels", "work_id": 111065, "role": "partner", "role_id": 575, "is_primary": false}, {"id": 2642665, "title": "Floods through fire", "work_id": 111021, "role": "partner", "role_id": 575, "is_primary": false}, {"id": 2642658, "title": "Dad's tools", "work_id": 111063, "role": "partner", "role_id": 575, "is_primary": false}, {"id": 2642652, "title": "D-Day", "work_id": 111066, "role": "partner", "role_id": 575, "is_primary": false}, {"id": 2642647, "title": "Community under siege", "work_id": 111064, "role": "partner", "role_id": 575, "is_primary": false}, {"id": 2642706, "title": "The Burning question", "work_id": 114311, "role": "partner", "role_id": 575, "is_primary": false}], "also_known_as": "", "date_of_birth": "", "date_of_death": "", "genders": [], "languages": [], "places_of_operation": [], "biography": "", "biography_author": null, "date_of_biography": "2023-07-05T03:45:52.328344+10:00", "external_links": [], "uuid": "6f6dfea1-cb67-4603-aea1-ebd4aaaddbec", "source": {"name": "Vernon", "slug": "vernon"}, "source_identifier": "3485", "external_references": [], "date_modified": "2025-03-05T11:49:30.796949+11:00"}, {"id": 73858, "name": "Bec Scott", "roles_in_work": [{"id": 2657122, "title": "A Singular raising", "work_id": 111019, "role": "creator", "role_id": 968, "is_primary": true}], "also_known_as": "", "date_of_birth": "", "date_of_death": "", "genders": [{"id": 5, "name": "Female", "slug": "female"}], "languages": [], "places_of_operation": [], "biography": "", "biography_author": null, "date_of_biography": "2023-05-09T19:15:54.237233+10:00", "external_links": [], "uuid": "43a89f38-574b-4b06-baf9-81bfb14bbb37", "source": {"name": "Vernon", "slug": "vernon"}, "source_identifier": "35460", "external_references": [], "date_modified": "2025-03-05T17:23:52.973104+11:00"}, {"id": 73857, "name": "Ed Whalan", "roles_in_work": [{"id": 2657126, "title": "Out of Alice", "work_id": 111018, "role": "creator", "role_id": 968, "is_primary": true}], "also_known_as": "", "date_of_birth": "", "date_of_death": "", "genders": [{"id": 9, "name": "Male", "slug": "male"}], "languages": [], "places_of_operation": [], "biography": "", "biography_author": null, "date_of_biography": "2023-05-09T19:15:52.734707+10:00", "external_links": [], "uuid": "77e34f9e-e1d0-4cd4-83dd-00fe5dea67b6", "source": {"name": "Vernon", "slug": "vernon"}, "source_identifier": "35461", "external_references": [], "date_modified": "2025-03-05T17:23:55.767686+11:00"}, {"id": 73856, "name": "Yan Wawrzynczak", "roles_in_work": [{"id": 2657130, "title": "Breathe", "work_id": 111014, "role": "creator", "role_id": 968, "is_primary": true}], "also_known_as": "", "date_of_birth": "", "date_of_death": "", "genders": [{"id": 9, "name": "Male", "slug": "male"}], "languages": [], "places_of_operation": [], "biography": "", "biography_author": null, "date_of_biography": "2023-05-09T19:15:46.121701+10:00", "external_links": [], "uuid": "8a953843-f162-4ba3-b355-986722e146c3", "source": {"name": "Vernon", "slug": "vernon"}, "source_identifier": "35462", "external_references": [], "date_modified": "2025-03-05T17:23:58.569665+11:00"}]}