{"count": 28687, "next": "https://api.acmi.net.au/creators/?page=1294", "previous": "https://api.acmi.net.au/creators/?page=1292", "results": [{"id": 38968, "name": "Migrant Women's Film Group", "roles_in_work": [{"id": 2753029, "title": "Devrim", "work_id": 98573, "role": "production company", "role_id": 941, "is_primary": true}], "also_known_as": "", "date_of_birth": "", "date_of_death": "", "genders": [], "languages": [], "places_of_operation": [], "biography": "", "biography_author": null, "date_of_biography": "2023-05-09T15:05:04.802643+10:00", "external_links": [], "uuid": "9690f5a0-5a63-4b51-b615-21f566a6a03f", "source": {"name": "Vernon", "slug": "vernon"}, "source_identifier": "10522", "external_references": [{"id": 50852, "source": {"name": "Wikidata", "slug": "wikidata"}, "source_identifier": "Q121357876"}], "date_modified": "2025-03-13T01:16:38.168313+11:00"}, {"id": 38967, "name": "Eric Horter", "roles_in_work": [{"id": 2753021, "title": "What is physical fitness?", "work_id": 98566, "role": "director", "role_id": 938, "is_primary": true}, {"id": 2753023, "title": "Fitness for living: how to get fit", "work_id": 98567, "role": "director", "role_id": 938, "is_primary": true}], "also_known_as": "", "date_of_birth": null, "date_of_death": null, "genders": [], "languages": [], "places_of_operation": [], "biography": "", "biography_author": null, "date_of_biography": null, "external_links": [], "uuid": "a48e2621-affc-4c95-ab97-45f103670b7e", "source": {"name": "Vernon", "slug": "vernon"}, "source_identifier": "18811", "external_references": [], "date_modified": "2025-03-13T01:16:33.595182+11:00"}, {"id": 38966, "name": "Christo Topuganov", "roles_in_work": [{"id": 2753011, "title": "Shout it out numbers", "work_id": 98561, "role": "director", "role_id": 938, "is_primary": true}], "also_known_as": "", "date_of_birth": "", "date_of_death": "", "genders": [], "languages": [], "places_of_operation": [], "biography": "", "biography_author": null, "date_of_biography": "2023-08-14T10:44:02.536742+10:00", "external_links": [], "uuid": "02cb4eb8-a4ad-4a2e-be6b-f58ed61bcc7e", "source": {"name": "Vernon", "slug": "vernon"}, "source_identifier": "16939", "external_references": [], "date_modified": "2025-03-13T01:16:24.789294+11:00"}, {"id": 38965, "name": "Sal Bruno", "roles_in_work": [{"id": 2752997, "title": "Maps: how to read them", "work_id": 98554, "role": "director", "role_id": 938, "is_primary": true}], "also_known_as": "", "date_of_birth": null, "date_of_death": null, "genders": [], "languages": [], "places_of_operation": [], "biography": "", "biography_author": null, "date_of_biography": null, "external_links": [], "uuid": "e9287e93-e5b8-407d-8488-e49c416031c3", "source": {"name": "Vernon", "slug": "vernon"}, "source_identifier": "28432", "external_references": [], "date_modified": "2025-03-13T01:16:12.497885+11:00"}, {"id": 38964, "name": "Kathy Tallon", "roles_in_work": [{"id": 2752993, "title": "Abraham Lincoln. - 2nd edition.", "work_id": 98552, "role": "director", "role_id": 938, "is_primary": true}], "also_known_as": "", "date_of_birth": "", "date_of_death": "", "genders": [], "languages": [], "places_of_operation": [], "biography": "", "biography_author": null, "date_of_biography": "2023-08-11T13:25:07.327302+10:00", "external_links": [], "uuid": "15672ce2-3744-4a49-ae58-37c05c39fe3b", "source": {"name": "Vernon", "slug": "vernon"}, "source_identifier": "23094", "external_references": [], "date_modified": "2025-03-13T01:16:09.671133+11:00"}, {"id": 38963, "name": "Scott Craig", "roles_in_work": [{"id": 2752992, "title": "Abraham Lincoln. - 2nd edition.", "work_id": 98552, "role": "producer", "role_id": 1089, "is_primary": true}], "also_known_as": "", "date_of_birth": "", "date_of_death": "", "genders": [], "languages": [], "places_of_operation": [], "biography": "", "biography_author": null, "date_of_biography": "2023-08-11T13:25:06.680025+10:00", "external_links": [], "uuid": "cdfeb985-2160-4a42-9c65-e6f3cc3a7bc5", "source": {"name": "Vernon", "slug": "vernon"}, "source_identifier": "28622", "external_references": [], "date_modified": "2025-03-13T01:16:09.088038+11:00"}, {"id": 38962, "name": "Scott Craig Productions", "roles_in_work": [{"id": 2752991, "title": "Abraham Lincoln. - 2nd edition.", "work_id": 98552, "role": "production company", "role_id": 941, "is_primary": true}], "also_known_as": "", "date_of_birth": "", "date_of_death": "", "genders": [], "languages": [], "places_of_operation": [], "biography": "", "biography_author": null, "date_of_biography": "2023-08-11T13:25:06.059192+10:00", "external_links": [], "uuid": "cdc5d967-2fd3-4bd6-91cd-667c185a7d14", "source": {"name": "Vernon", "slug": "vernon"}, "source_identifier": "12356", "external_references": [], "date_modified": "2025-03-13T01:16:08.507279+11:00"}, {"id": 38961, "name": "Josef Gemes", "roles_in_work": [{"id": 2752990, "title": "Fatal compromise", "work_id": 98551, "role": "director", "role_id": 938, "is_primary": true}], "also_known_as": "", "date_of_birth": "", "date_of_death": "", "genders": [{"id": 9, "name": "Male", "slug": "male"}], "languages": [], "places_of_operation": [], "biography": "", "biography_author": null, "date_of_biography": "2023-08-11T16:36:09.655746+10:00", "external_links": [], "uuid": "07781b32-1aa2-4c10-9c51-2e66c3deffc5", "source": {"name": "Vernon", "slug": "vernon"}, "source_identifier": "37529", "external_references": [], "date_modified": "2025-03-13T01:16:07.660932+11:00"}, {"id": 38959, "name": "Robert Loader", "roles_in_work": [{"id": 2752977, "title": "Drought (D)", "work_id": 98543, "role": "producer", "role_id": 1089, "is_primary": true}], "also_known_as": "", "date_of_birth": null, "date_of_death": null, "genders": [], "languages": [], "places_of_operation": [], "biography": "", "biography_author": null, "date_of_biography": null, "external_links": [], "uuid": "cbc38d70-cb5a-443b-a4ff-46c6f13984de", "source": {"name": "Vernon", "slug": "vernon"}, "source_identifier": "27813", "external_references": [], "date_modified": "2025-03-13T01:15:58.960137+11:00"}, {"id": 38958, "name": "Golden Dolphin", "roles_in_work": [{"id": 2752976, "title": "Drought (D)", "work_id": 98543, "role": "production company", "role_id": 941, "is_primary": true}], "also_known_as": "", "date_of_birth": null, "date_of_death": null, "genders": [], "languages": [], "places_of_operation": [], "biography": "", "biography_author": null, "date_of_biography": null, "external_links": [], "uuid": "640e3382-df57-49dd-8938-94e91e172b8b", "source": {"name": "Vernon", "slug": "vernon"}, "source_identifier": "8782", "external_references": [], "date_modified": "2025-03-13T01:15:58.375435+11:00"}]}