{"count": 28687, "next": "https://api.acmi.net.au/creators/?page=2009", "previous": "https://api.acmi.net.au/creators/?page=2007", "results": [{"id": 22420, "name": "Christopher Morahan", "roles_in_work": [{"id": 2357055, "title": "The Jewel in the Crown. V.4. an Uneasy Peace", "work_id": 80127, "role": "co-director", "role_id": 959, "is_primary": true}, {"id": 2356974, "title": "The Jewel in the Crown. V.1. Incident at Mayapore", "work_id": 80134, "role": "co-director", "role_id": 959, "is_primary": true}, {"id": 2357202, "title": "The Jewel in the Crown. V.5. a Nation Born", "work_id": 80131, "role": "co-director", "role_id": 959, "is_primary": true}, {"id": 2357016, "title": "The Jewel in the Crown. V.2. a Secret Vow", "work_id": 80130, "role": "co-director", "role_id": 959, "is_primary": true}, {"id": 1845854, "title": "Jewel in the Crown. V.3. a People in Crisis", "work_id": 80128, "role": "co-director", "role_id": 959, "is_primary": true}, {"id": 2357197, "title": "The Jewel in the Crown. V.5. a Nation Born", "work_id": 80131, "role": "producer", "role_id": 1089, "is_primary": true}, {"id": 2357052, "title": "The Jewel in the Crown. V.4. an Uneasy Peace", "work_id": 80127, "role": "producer", "role_id": 1089, "is_primary": true}, {"id": 2356971, "title": "The Jewel in the Crown. V.1. Incident at Mayapore", "work_id": 80134, "role": "producer", "role_id": 1089, "is_primary": true}, {"id": 2357012, "title": "The Jewel in the Crown. V.2. a Secret Vow", "work_id": 80130, "role": "producer", "role_id": 1089, "is_primary": true}, {"id": 1845853, "title": "Jewel in the Crown. V.3. a People in Crisis", "work_id": 80128, "role": "producer", "role_id": 1089, "is_primary": true}], "also_known_as": "", "date_of_birth": "", "date_of_death": "", "genders": [], "languages": [], "places_of_operation": [], "biography": "", "biography_author": null, "date_of_biography": "2023-05-09T20:05:42.933473+10:00", "external_links": [], "uuid": "50cd139e-aaec-4bf1-8dd1-fd6a1d7742ed", "source": {"name": "Vernon", "slug": "vernon"}, "source_identifier": "16979", "external_references": [{"id": 42127, "source": {"name": "Wikidata", "slug": "wikidata"}, "source_identifier": "Q121315025"}], "date_modified": "2023-09-05T18:36:27.700591+10:00"}, {"id": 22419, "name": "Giles Foster", "roles_in_work": [{"id": 2300132, "title": "Silas Marner", "work_id": 80132, "role": "director", "role_id": 938, "is_primary": true}, {"id": 771516, "title": "Northanger Abbey", "work_id": 80126, "role": "director", "role_id": 938, "is_primary": true}, {"id": 773396, "title": "Hotel du Lac", "work_id": 80852, "role": "director", "role_id": 938, "is_primary": true}, {"id": 2321799, "title": "Talking heads by Alan Bennett", "work_id": 90706, "role": "co-director", "role_id": 959, "is_primary": true}], "also_known_as": "", "date_of_birth": null, "date_of_death": "", "genders": [{"id": 9, "name": "Male", "slug": "male"}], "languages": [{"id": 1, "name": "English", "slug": "english"}], "places_of_operation": [{"id": 10, "name": "United Kingdom", "slug": "united-kingdom"}], "biography": "Giles Foster has been an English television director since 1975, specialising in television dramas. He has also directed in Australia and in Germany (2012-2014). He wrote some television dramas in the 1970s.He is from Bath, Somerset and was educated at Monkton Combe School.", "biography_author": "Wikidata", "date_of_biography": "2023-08-01T15:01:13.333384+10:00", "external_links": [{"id": 4071, "uri": "https://en.wikipedia.org/wiki/Giles_Foster"}], "uuid": "ed0ad83a-fbb8-4716-b79a-8085b2e74a7a", "source": {"name": "Vernon", "slug": "vernon"}, "source_identifier": "19818", "external_references": [{"id": 25794, "source": {"name": "Wikidata", "slug": "wikidata"}, "source_identifier": "Q3105993"}, {"id": 28675, "source": {"name": "VIAF", "slug": "viaf"}, "source_identifier": "298790627"}], "date_modified": "2023-09-05T20:12:15.367664+10:00"}, {"id": 22418, "name": "Louis Marks", "roles_in_work": [{"id": 1813791, "title": "Northanger Abbey", "work_id": 80126, "role": "producer", "role_id": 1089, "is_primary": true}, {"id": 1814016, "title": "Middlemarch", "work_id": 84066, "role": "producer", "role_id": 1089, "is_primary": true}, {"id": 2300126, "title": "Silas Marner", "work_id": 80132, "role": "producer", "role_id": 1089, "is_primary": true}], "also_known_as": "", "date_of_birth": "1928-03-23", "date_of_death": "2010-09-17", "genders": [{"id": 9, "name": "Male", "slug": "male"}], "languages": [{"id": 1, "name": "English", "slug": "english"}], "places_of_operation": [{"id": 10, "name": "United Kingdom", "slug": "united-kingdom"}], "biography": "Louis Frank Marks (23 March 1928 – 17 September 2010) was an English screenwriter and producer, mainly for BBC Television. His career began in the late 1950s and continued into the next century.", "biography_author": "Wikidata", "date_of_biography": "2023-08-01T15:59:38.806048+10:00", "external_links": [{"id": 4572, "uri": "https://en.wikipedia.org/wiki/Louis_Marks"}], "uuid": "aecf8f10-8dd4-47c6-a1d3-d5191fe422c8", "source": {"name": "Vernon", "slug": "vernon"}, "source_identifier": "24029", "external_references": [{"id": 25075, "source": {"name": "Wikidata", "slug": "wikidata"}, "source_identifier": "Q6687769"}, {"id": 30010, "source": {"name": "VIAF", "slug": "viaf"}, "source_identifier": "39240936"}, {"id": 30011, "source": {"name": "LOC Auth", "slug": "loc-auth"}, "source_identifier": "nr92024513"}, {"id": 30012, "source": {"name": "WorldCat", "slug": "worldcat"}, "source_identifier": "lccn-nr92024513"}], "date_modified": "2023-09-05T22:31:50.506432+10:00"}, {"id": 22417, "name": "Gareth Davies", "roles_in_work": [{"id": 771512, "title": "Oliver Twist. Part 2", "work_id": 80125, "role": "director", "role_id": 938, "is_primary": true}, {"id": 2754686, "title": "Oliver Twist", "work_id": 99308, "role": "director", "role_id": 938, "is_primary": true}, {"id": 2648841, "title": "Oliver Twist. Part 1", "work_id": 80124, "role": "director", "role_id": 938, "is_primary": true}, {"id": 3081559, "title": "Buffy the vampire slayer", "work_id": 115536, "role": "producer", "role_id": 1089, "is_primary": true}, {"id": 3081467, "title": "Out of mind, out of sight. Prophesy girl", "work_id": 89946, "role": "producer", "role_id": 1089, "is_primary": true}, {"id": 3081461, "title": "Angel. I Robot, you Jane", "work_id": 89944, "role": "producer", "role_id": 1089, "is_primary": true}, {"id": 3081455, "title": "Witch. Teacher's pet", "work_id": 89943, "role": "producer", "role_id": 1089, "is_primary": true}], "also_known_as": "", "date_of_birth": "", "date_of_death": "", "genders": [], "languages": [], "places_of_operation": [], "biography": "", "biography_author": null, "date_of_biography": "2023-05-09T18:20:12.766344+10:00", "external_links": [], "uuid": "3e42c5ca-731d-4890-8d09-3a53639a0a20", "source": {"name": "Vernon", "slug": "vernon"}, "source_identifier": "19357", "external_references": [{"id": 43527, "source": {"name": "Wikidata", "slug": "wikidata"}, "source_identifier": "Q121222551"}], "date_modified": "2025-03-17T10:24:44.402752+11:00"}, {"id": 22416, "name": "Terrance Dicks", "roles_in_work": [{"id": 1813790, "title": "Oliver Twist. Part 2", "work_id": 80125, "role": "producer", "role_id": 1089, "is_primary": true}, {"id": 2754685, "title": "Oliver Twist", "work_id": 99308, "role": "producer", "role_id": 1089, "is_primary": true}, {"id": 2648840, "title": "Oliver Twist. Part 1", "work_id": 80124, "role": "producer", "role_id": 1089, "is_primary": true}], "also_known_as": "", "date_of_birth": null, "date_of_death": null, "genders": [], "languages": [], "places_of_operation": [], "biography": "", "biography_author": null, "date_of_biography": null, "external_links": [], "uuid": "baedb3a9-94eb-43df-829e-178f0e066f59", "source": {"name": "Vernon", "slug": "vernon"}, "source_identifier": "29571", "external_references": [], "date_modified": "2025-03-13T01:48:31.718462+11:00"}, {"id": 22415, "name": "Charles Sturridge", "roles_in_work": [{"id": 2499734, "title": "Where angels fear to tread", "work_id": 85607, "role": "director", "role_id": 938, "is_primary": true}, {"id": 2225419, "title": "Fairy tale: a true story", "work_id": 87265, "role": "director", "role_id": 938, "is_primary": true}, {"id": 2068555, "title": "A Handful of dust", "work_id": 83816, "role": "director", "role_id": 938, "is_primary": true}, {"id": 901131, "title": "Jim Henson's the storyteller. Vol. 1", "work_id": 81918, "role": "co-director", "role_id": 959, "is_primary": true}, {"id": 2124496, "title": "Brideshead revisited. Episodes 02 & 03", "work_id": 80118, "role": "director", "role_id": 938, "is_primary": true}, {"id": 2124515, "title": "Brideshead revisited. Episodes 06 & 07", "work_id": 80121, "role": "director", "role_id": 938, "is_primary": true}, {"id": 2648833, "title": "Brideshead revisited. Episodes 04 & 05", "work_id": 80119, "role": "director", "role_id": 938, "is_primary": true}, {"id": 2124533, "title": "Brideshead revisited. Episodes 10 & 11", "work_id": 80123, "role": "director", "role_id": 938, "is_primary": true}, {"id": 2125014, "title": "Brideshead revisited. Episodes 08 & 09", "work_id": 80122, "role": "director", "role_id": 938, "is_primary": true}, {"id": 2125118, "title": "Brideshead revisited. Pt. 1 [episodes 1-5]", "work_id": 88136, "role": "director", "role_id": 938, "is_primary": true}, {"id": 2124479, "title": "Brideshead revisited. Episode 01", "work_id": 80117, "role": "director", "role_id": 938, "is_primary": true}], "also_known_as": "", "date_of_birth": "24 JUN 1951", "date_of_death": "", "genders": [{"id": 9, "name": "Male", "slug": "male"}], "languages": [{"id": 1, "name": "English", "slug": "english"}], "places_of_operation": [{"id": 10, "name": "United Kingdom", "slug": "united-kingdom"}], "biography": "Charles B. G. Sturridge (born 24 June 1951) is an English director and screenwriter. He is the recipient of a BAFTA Children's Award and four BAFTA TV Awards. He has also been nominated for three Primetime Emmy Awards. Source: Wikidata; 01/08/2023", "biography_author": null, "date_of_biography": "2025-03-05T13:51:34.339292+11:00", "external_links": [{"id": 3744, "uri": "https://en.wikipedia.org/wiki/Charles_Sturridge"}], "uuid": "745e2445-411f-430d-b9db-cc04a31dde60", "source": {"name": "Vernon", "slug": "vernon"}, "source_identifier": "16731", "external_references": [{"id": 26736, "source": {"name": "Wikidata", "slug": "wikidata"}, "source_identifier": "Q1066169"}, {"id": 27770, "source": {"name": "VIAF", "slug": "viaf"}, "source_identifier": "34665661"}, {"id": 27771, "source": {"name": "LOC Auth", "slug": "loc-auth"}, "source_identifier": "n86042760"}, {"id": 27772, "source": {"name": "WorldCat", "slug": "worldcat"}, "source_identifier": "lccn-n86042760"}], "date_modified": "2025-03-05T13:51:34.339690+11:00"}, {"id": 22414, "name": "Derek Granger", "roles_in_work": [{"id": 2124493, "title": "Brideshead revisited. Episodes 02 & 03", "work_id": 80118, "role": "producer", "role_id": 1089, "is_primary": true}, {"id": 2124530, "title": "Brideshead revisited. Episodes 10 & 11", "work_id": 80123, "role": "producer", "role_id": 1089, "is_primary": true}, {"id": 2648832, "title": "Brideshead revisited. Episodes 04 & 05", "work_id": 80119, "role": "producer", "role_id": 1089, "is_primary": true}, {"id": 2068554, "title": "A Handful of dust", "work_id": 83816, "role": "producer", "role_id": 1089, "is_primary": true}, {"id": 2499733, "title": "Where angels fear to tread", "work_id": 85607, "role": "producer", "role_id": 1089, "is_primary": true}, {"id": 2125008, "title": "Brideshead revisited. Episodes 08 & 09", "work_id": 80122, "role": "producer", "role_id": 1089, "is_primary": true}, {"id": 2124513, "title": "Brideshead revisited. Episodes 06 & 07", "work_id": 80121, "role": "producer", "role_id": 1089, "is_primary": true}, {"id": 2125112, "title": "Brideshead revisited. Pt. 1 [episodes 1-5]", "work_id": 88136, "role": "producer", "role_id": 1089, "is_primary": true}, {"id": 2124477, "title": "Brideshead revisited. Episode 01", "work_id": 80117, "role": "producer", "role_id": 1089, "is_primary": true}], "also_known_as": "", "date_of_birth": "", "date_of_death": "", "genders": [], "languages": [], "places_of_operation": [], "biography": "", "biography_author": null, "date_of_biography": "2023-05-09T13:09:54.203091+10:00", "external_links": [], "uuid": "bcf3dee8-5312-4034-b324-73a99d36ae08", "source": {"name": "Vernon", "slug": "vernon"}, "source_identifier": "18029", "external_references": [{"id": 51619, "source": {"name": "Wikidata", "slug": "wikidata"}, "source_identifier": "Q121357703"}], "date_modified": "2025-03-05T13:51:33.752016+11:00"}, {"id": 22412, "name": "Cyril Coke", "roles_in_work": [{"id": 1847735, "title": "The Onedin line. Series 2. Part 3", "work_id": 87881, "role": "co-director", "role_id": 959, "is_primary": true}, {"id": 868948, "title": "Pride and prejudice. Parts 1 & 2", "work_id": 85136, "role": "director", "role_id": 938, "is_primary": true}, {"id": 2228989, "title": "Pride and prejudice. Part 1", "work_id": 80114, "role": "director", "role_id": 938, "is_primary": true}, {"id": 2228995, "title": "Pride and prejudice. Part 2", "work_id": 80115, "role": "director", "role_id": 938, "is_primary": true}], "also_known_as": "", "date_of_birth": "", "date_of_death": "", "genders": [], "languages": [], "places_of_operation": [], "biography": "", "biography_author": null, "date_of_biography": "2023-05-09T16:31:29.278041+10:00", "external_links": [], "uuid": "a1f9bcd4-5dc8-45aa-900f-7fbb4f88c973", "source": {"name": "Vernon", "slug": "vernon"}, "source_identifier": "17281", "external_references": [{"id": 36035, "source": {"name": "Wikidata", "slug": "wikidata"}, "source_identifier": "Q121035483"}], "date_modified": "2023-09-05T18:48:13.879956+10:00"}, {"id": 22411, "name": "Jonathan Powell", "roles_in_work": [{"id": 2228988, "title": "Pride and prejudice. Part 1", "work_id": 80114, "role": "producer", "role_id": 1089, "is_primary": true}, {"id": 2107994, "title": "Barchester Chronicles", "work_id": 81713, "role": "producer", "role_id": 1089, "is_primary": true}, {"id": 2614464, "title": "Tinker tailor soldier spy", "work_id": 83715, "role": "producer", "role_id": 1089, "is_primary": true}, {"id": 2065874, "title": "A Christmas Carol: Being a Ghost Story of Christmas", "work_id": 81639, "role": "producer", "role_id": 1089, "is_primary": true}, {"id": 1813587, "title": "Pride and prejudice. Parts 1 & 2", "work_id": 85136, "role": "producer", "role_id": 1089, "is_primary": true}, {"id": 2228993, "title": "Pride and prejudice. Part 2", "work_id": 80115, "role": "producer", "role_id": 1089, "is_primary": true}, {"id": 1808772, "title": "The Mayor of Casterbridge / by Thomas Hardy", "work_id": 82765, "role": "producer", "role_id": 1089, "is_primary": true}], "also_known_as": "", "date_of_birth": "", "date_of_death": "", "genders": [], "languages": [], "places_of_operation": [], "biography": "", "biography_author": null, "date_of_biography": "2023-05-09T16:31:28.927468+10:00", "external_links": [], "uuid": "2d62f32f-0988-4a1e-8390-527b6e2f2da5", "source": {"name": "Vernon", "slug": "vernon"}, "source_identifier": "22664", "external_references": [{"id": 36050, "source": {"name": "Wikidata", "slug": "wikidata"}, "source_identifier": "Q121222917"}], "date_modified": "2025-02-26T20:11:11.006631+11:00"}, {"id": 22410, "name": "Brian Lighthill", "roles_in_work": [{"id": 1845809, "title": "The Pickwick papers. Part 2", "work_id": 80113, "role": "director", "role_id": 938, "is_primary": true}, {"id": 2754689, "title": "Pickwick papers", "work_id": 99309, "role": "director", "role_id": 938, "is_primary": true}, {"id": 2648830, "title": "The Pickwick papers. Part 1", "work_id": 80112, "role": "director", "role_id": 938, "is_primary": true}], "also_known_as": "", "date_of_birth": null, "date_of_death": null, "genders": [], "languages": [], "places_of_operation": [], "biography": "", "biography_author": null, "date_of_biography": null, "external_links": [], "uuid": "5a976647-064b-4ca3-b07d-4adb4a93fefc", "source": {"name": "Vernon", "slug": "vernon"}, "source_identifier": "16236", "external_references": [], "date_modified": "2025-03-13T01:48:34.385701+11:00"}]}