{"count": 28684, "next": "https://api.acmi.net.au/creators/?page=2043", "previous": "https://api.acmi.net.au/creators/?page=2041", "results": [{"id": 21684, "name": "Frank Godwin", "roles_in_work": [{"id": 2215574, "title": "Electric Eskimo (Captioned)", "work_id": 79093, "role": "director", "role_id": 938, "is_primary": true}, {"id": 2648441, "title": "Electric Eskimo", "work_id": 79217, "role": "director", "role_id": 938, "is_primary": true}, {"id": 2261538, "title": "Sammy's super T-shirt (Captioned)", "work_id": 79088, "role": "producer", "role_id": 1089, "is_primary": true}, {"id": 2302703, "title": "Sky pirates", "work_id": 79220, "role": "producer", "role_id": 1089, "is_primary": true}, {"id": 1811310, "title": "Headline hunters", "work_id": 89056, "role": "producer", "role_id": 1089, "is_primary": true}, {"id": 2261530, "title": "Sammy's super T-shirt", "work_id": 79225, "role": "producer", "role_id": 1089, "is_primary": true}], "also_known_as": "", "date_of_birth": "1917-06-23", "date_of_death": "2012-09-06", "genders": [{"id": 9, "name": "Male", "slug": "male"}], "languages": [{"id": 1, "name": "English", "slug": "english"}], "places_of_operation": [{"id": 10, "name": "United Kingdom", "slug": "united-kingdom"}], "biography": "Frank Godwin (23 June 1917 – 6 September 2012) was an English film producer, best known for the film Woman in a Dressing Gown.\nBorn to a theatrical family, Godwin initially worked as an accountant and joined Gainsborough Studios in 1943.\nIn 1956, Godwin established a film production company with film director J. Lee Thompson and writer Ted Willis. They made two films for Associated British Picture Corporation: the award-winning Woman in a Dressing Gown (1957) and No Trees in the Street (1959).Godwin was a producer for films such as Don't Bother to Knock (1961) and Demons of the Mind (1972). His final film was Terry on the Fence (1985) which he also wrote and directed.", "biography_author": "Wikidata", "date_of_biography": "2023-09-05T19:49:47.795655+10:00", "external_links": [{"id": 5818, "uri": "https://en.wikipedia.org/wiki/Frank_Godwin_(film_producer)"}], "uuid": "05b247a6-721b-4a30-bd0b-886fc76c0128", "source": {"name": "Vernon", "slug": "vernon"}, "source_identifier": "19119", "external_references": [{"id": 42845, "source": {"name": "Wikidata", "slug": "wikidata"}, "source_identifier": "Q5486886"}, {"id": 54455, "source": {"name": "VIAF", "slug": "viaf"}, "source_identifier": "170332674"}, {"id": 54456, "source": {"name": "LOC Auth", "slug": "loc-auth"}, "source_identifier": "n2011024709"}, {"id": 54457, "source": {"name": "WorldCat", "slug": "worldcat"}, "source_identifier": "lccn-n2011024709"}], "date_modified": "2025-03-05T13:45:48.246580+11:00"}, {"id": 21683, "name": "Michael Gorrell Barnes", "roles_in_work": [{"id": 2264102, "title": "Scramble (Captioned)", "work_id": 79087, "role": "producer", "role_id": 1089, "is_primary": true}], "also_known_as": "", "date_of_birth": "", "date_of_death": "", "genders": [], "languages": [], "places_of_operation": [], "biography": "", "biography_author": null, "date_of_biography": "2023-05-09T17:33:14.627674+10:00", "external_links": [], "uuid": "40dc91bc-d489-45a6-a698-01ac52fe80e3", "source": {"name": "Vernon", "slug": "vernon"}, "source_identifier": "25070", "external_references": [], "date_modified": "2023-06-14T16:33:30.576250+10:00"}, {"id": 21682, "name": "Eady-Barnes Productions", "roles_in_work": [{"id": 1994319, "title": "Night ferry", "work_id": 90163, "role": "production company", "role_id": 941, "is_primary": true}, {"id": 2264519, "title": "Scramble", "work_id": 79224, "role": "production company", "role_id": 941, "is_primary": true}, {"id": 876385, "title": "Down to earth", "work_id": 90062, "role": "production company", "role_id": 941, "is_primary": true}, {"id": 2264091, "title": "Scramble (Captioned)", "work_id": 79087, "role": "production company", "role_id": 941, "is_primary": true}], "also_known_as": "", "date_of_birth": "", "date_of_death": "", "genders": [], "languages": [], "places_of_operation": [], "biography": "", "biography_author": null, "date_of_biography": "2023-05-09T17:33:44.153579+10:00", "external_links": [], "uuid": "3961af3b-ce7a-4170-8dd3-0fa46f4e46e6", "source": {"name": "Vernon", "slug": "vernon"}, "source_identifier": "7701", "external_references": [{"id": 38897, "source": {"name": "Wikidata", "slug": "wikidata"}, "source_identifier": "Q121223047"}], "date_modified": "2023-09-05T19:22:42.941919+10:00"}, {"id": 21681, "name": "Hugh Stewart", "roles_in_work": [{"id": 1806982, "title": "Mr Horatio Knibbles (Captioned)", "work_id": 79086, "role": "producer", "role_id": 1089, "is_primary": true}, {"id": 2075063, "title": "A Stitch in time", "work_id": 85636, "role": "producer", "role_id": 1089, "is_primary": true}, {"id": 1983982, "title": "Mr Horatio Knibbles", "work_id": 79228, "role": "producer", "role_id": 1089, "is_primary": true}, {"id": 1815697, "title": "Anoop and the elephant", "work_id": 89766, "role": "producer", "role_id": 1089, "is_primary": true}], "also_known_as": "", "date_of_birth": "1910-12-14", "date_of_death": "2011-05-31", "genders": [{"id": 9, "name": "Male", "slug": "male"}], "languages": [{"id": 1, "name": "English", "slug": "english"}], "places_of_operation": [{"id": 10, "name": "United Kingdom", "slug": "united-kingdom"}], "biography": "Hugh St Clair Stewart  MBE (14 December 1910 – 31 May 2011) was a British film editor and producer. He filmed Bergen-Belsen concentration camp following its liberation in April 1945.\n\n", "biography_author": "Wikidata", "date_of_biography": "2023-08-01T15:13:41.900122+10:00", "external_links": [{"id": 4178, "uri": "https://en.wikipedia.org/wiki/Hugh_Stewart_(film_editor)"}], "uuid": "f5894e5c-b23a-4bfd-8ba8-d9e5ae666245", "source": {"name": "Vernon", "slug": "vernon"}, "source_identifier": "20693", "external_references": [{"id": 24978, "source": {"name": "Wikidata", "slug": "wikidata"}, "source_identifier": "Q5932751"}, {"id": 28971, "source": {"name": "VIAF", "slug": "viaf"}, "source_identifier": "107560919"}, {"id": 28972, "source": {"name": "LOC Auth", "slug": "loc-auth"}, "source_identifier": "n91067582"}, {"id": 28973, "source": {"name": "WorldCat", "slug": "worldcat"}, "source_identifier": "lccn-n91067582"}], "date_modified": "2023-09-05T20:43:59.600812+10:00"}, {"id": 21680, "name": "Peter Matulavich", "roles_in_work": [{"id": 2753770, "title": "Prehistoric mammals", "work_id": 98921, "role": "director", "role_id": 938, "is_primary": true}, {"id": 2648400, "title": "Harry the dirty dog", "work_id": 79076, "role": "producer", "role_id": 1089, "is_primary": true}, {"id": 2616262, "title": "Harry the dirty dog", "work_id": 86908, "role": "producer/director", "role_id": 31, "is_primary": true}, {"id": 2648986, "title": "Harry and the Lady Next Door", "work_id": 80526, "role": "producer/director", "role_id": 31, "is_primary": true}], "also_known_as": "", "date_of_birth": null, "date_of_death": null, "genders": [], "languages": [], "places_of_operation": [], "biography": "", "biography_author": null, "date_of_biography": null, "external_links": [], "uuid": "c2254a6f-005e-4c4b-8247-58a040263c2f", "source": {"name": "Vernon", "slug": "vernon"}, "source_identifier": "26633", "external_references": [], "date_modified": "2025-03-13T01:31:59.970596+11:00"}, {"id": 21677, "name": "Jackie Cockle", "roles_in_work": [{"id": 902816, "title": "Truckers", "work_id": 83701, "role": "co-director", "role_id": 959, "is_primary": true}, {"id": 2105344, "title": "Autumn Antics", "work_id": 80523, "role": "co-director", "role_id": 959, "is_primary": true}, {"id": 2769975, "title": "Spring Follies", "work_id": 79998, "role": "co-director", "role_id": 959, "is_primary": true}, {"id": 2770010, "title": "Oh! Mr Toad!", "work_id": 80631, "role": "co-director", "role_id": 959, "is_primary": true}, {"id": 1426263, "title": "Cockleshell Bay", "work_id": 79073, "role": "director", "role_id": 938, "is_primary": true}, {"id": 2769999, "title": "Masquerade", "work_id": 79999, "role": "director", "role_id": 938, "is_primary": true}, {"id": 2795126, "title": "Stripey to the rescue: plus four other stories", "work_id": 88196, "role": "producer", "role_id": 1089, "is_primary": true}, {"id": 2795165, "title": "The Animal shelf", "work_id": 115511, "role": "producer", "role_id": 1089, "is_primary": true}, {"id": 2795134, "title": "Music in the woods: plus four other stories", "work_id": 88197, "role": "producer", "role_id": 1089, "is_primary": true}, {"id": 2795143, "title": "Little mut goes flying: plus four other stories", "work_id": 88199, "role": "producer", "role_id": 1089, "is_primary": true}, {"id": 2795151, "title": "Hottest day of the year: plus four other stories", "work_id": 88194, "role": "producer", "role_id": 1089, "is_primary": true}, {"id": 2795159, "title": "The mystery of the pictures: plus four other stories", "work_id": 88198, "role": "producer", "role_id": 1089, "is_primary": true}, {"id": 1819258, "title": "Truckers", "work_id": 83701, "role": "producer", "role_id": 1089, "is_primary": true}, {"id": 1847709, "title": "Bob the builder", "work_id": 87721, "role": "producer", "role_id": 1089, "is_primary": true}, {"id": 1847436, "title": "Oakie Doke and the orchestra", "work_id": 86316, "role": "producer", "role_id": 1089, "is_primary": true}], "also_known_as": "", "date_of_birth": "1950-01-01", "date_of_death": "", "genders": [{"id": 5, "name": "Female", "slug": "female"}], "languages": [], "places_of_operation": [], "biography": "Jackie Cockle (born 1950) is a British stop motion animation specialist, best known as the co-founder of the HOT Animation studio, which specializes in stop motion animation. She is the creator and creative producer of the pre-school animation Timmy Time, creative producer of Bob the Builder and Brambly Hedge, director of The Wind in the Willows and more. Cockle, a graduate of the Manchester College of Art and Design, has won 3 BAFTA awards: one in the best animation category for Bob the Builder 30 minute special (2002), and two in the pre-school animation for Timmy Time (2010, 2013) - a production of the Bristol-based Aardman Animations.", "biography_author": "Wikidata", "date_of_biography": "2023-09-05T20:57:32.580265+10:00", "external_links": [{"id": 5889, "uri": "https://en.wikipedia.org/wiki/Jackie_Cockle"}], "uuid": "36e14d3e-9259-4bb7-80e6-7bf86370b53c", "source": {"name": "Vernon", "slug": "vernon"}, "source_identifier": "21113", "external_references": [{"id": 51418, "source": {"name": "Wikidata", "slug": "wikidata"}, "source_identifier": "Q16730100"}], "date_modified": "2025-03-14T20:30:41.184659+11:00"}, {"id": 21676, "name": "Jock Blair", "roles_in_work": [{"id": 2208397, "title": "Playing Beatie Bow", "work_id": 79072, "role": "producer", "role_id": 1089, "is_primary": true}, {"id": 1807532, "title": "Sara Dane", "work_id": 79355, "role": "producer", "role_id": 1089, "is_primary": true}, {"id": 1810223, "title": "Robbery under arms [DVD]", "work_id": 95631, "role": "producer", "role_id": 1089, "is_primary": true}], "also_known_as": "", "date_of_birth": "", "date_of_death": "", "genders": [], "languages": [], "places_of_operation": [], "biography": "", "biography_author": null, "date_of_biography": "2023-05-09T15:40:03.418341+10:00", "external_links": [], "uuid": "1d7230ee-b9ee-4402-a4ce-dd9e40cef089", "source": {"name": "Vernon", "slug": "vernon"}, "source_identifier": "22014", "external_references": [{"id": 42372, "source": {"name": "Wikidata", "slug": "wikidata"}, "source_identifier": "Q121079416"}], "date_modified": "2023-09-05T21:29:20.678774+10:00"}, {"id": 21675, "name": "Charles Warren", "roles_in_work": [{"id": 2403291, "title": "Button Moon", "work_id": 79070, "role": "producer", "role_id": 1089, "is_primary": true}], "also_known_as": "", "date_of_birth": "", "date_of_death": "", "genders": [], "languages": [], "places_of_operation": [], "biography": "", "biography_author": null, "date_of_biography": "2023-08-11T15:09:08.400881+10:00", "external_links": [], "uuid": "55b92ea9-cc47-47ac-ad62-3d7311189497", "source": {"name": "Vernon", "slug": "vernon"}, "source_identifier": "16743", "external_references": [], "date_modified": "2023-08-11T15:09:08.401162+10:00"}, {"id": 21674, "name": "Czechoslovak TV", "roles_in_work": [{"id": 2400441, "title": "And That's All. Part. 1", "work_id": 79064, "role": "producer", "role_id": 1089, "is_primary": true}, {"id": 2648395, "title": "And That's All. Part. 2", "work_id": 79065, "role": "producer", "role_id": 1089, "is_primary": true}], "also_known_as": "", "date_of_birth": "", "date_of_death": "", "genders": [], "languages": [], "places_of_operation": [], "biography": "", "biography_author": null, "date_of_biography": "2023-08-11T14:05:45.353229+10:00", "external_links": [], "uuid": "4215262c-782e-46c2-b36d-c81834be44dd", "source": {"name": "Vernon", "slug": "vernon"}, "source_identifier": "7276", "external_references": [], "date_modified": "2025-03-05T13:45:16.779482+11:00"}, {"id": 21673, "name": "Robert Van der Vvyer", "roles_in_work": [{"id": 2407385, "title": "Family matters", "work_id": 79063, "role": "director", "role_id": 938, "is_primary": true}], "also_known_as": "", "date_of_birth": "", "date_of_death": "", "genders": [], "languages": [], "places_of_operation": [], "biography": "", "biography_author": null, "date_of_biography": "2023-08-11T16:35:30.871345+10:00", "external_links": [], "uuid": "263dfbcd-2afe-4d39-8fd0-96278dc0e2a6", "source": {"name": "Vernon", "slug": "vernon"}, "source_identifier": "27901", "external_references": [], "date_modified": "2023-08-11T16:35:30.871605+10:00"}]}