{"count": 28687, "next": "https://api.acmi.net.au/creators/?page=2417", "previous": "https://api.acmi.net.au/creators/?page=2415", "results": [{"id": 14955, "name": "Atlas Computer Company", "roles_in_work": [{"id": 2713658, "title": "Finite Elements", "work_id": 67521, "role": "production company", "role_id": 941, "is_primary": true}], "also_known_as": "", "date_of_birth": null, "date_of_death": null, "genders": [], "languages": [], "places_of_operation": [], "biography": "", "biography_author": null, "date_of_biography": null, "external_links": [], "uuid": "15c3486b-3a3a-4973-9d5d-0e9948be3d42", "source": {"name": "Vernon", "slug": "vernon"}, "source_identifier": "5506", "external_references": [], "date_modified": "2025-03-12T00:48:10.813434+11:00"}, {"id": 14954, "name": "Soundmasters", "roles_in_work": [{"id": 877645, "title": "A Recital of faith", "work_id": 90803, "role": "production company", "role_id": 941, "is_primary": true}, {"id": 874577, "title": "Driven to kill", "work_id": 88871, "role": "production company", "role_id": 941, "is_primary": true}, {"id": 3110939, "title": "Bushland fantasy", "work_id": 85808, "role": "production company", "role_id": 941, "is_primary": true}, {"id": 2713654, "title": "Fine feathers", "work_id": 67518, "role": "production company", "role_id": 941, "is_primary": true}, {"id": 876186, "title": "Harnessing the rainbow", "work_id": 89912, "role": "production company", "role_id": 941, "is_primary": true}], "also_known_as": "", "date_of_birth": "", "date_of_death": "", "genders": [], "languages": [], "places_of_operation": [], "biography": "", "biography_author": null, "date_of_biography": "2023-07-05T03:50:39.445277+10:00", "external_links": [], "uuid": "023c3b93-03a4-4faf-b6d4-790c03543464", "source": {"name": "Vernon", "slug": "vernon"}, "source_identifier": "4118", "external_references": [{"id": 40764, "source": {"name": "Wikidata", "slug": "wikidata"}, "source_identifier": "Q121143871"}], "date_modified": "2026-04-16T17:09:02.328747+10:00"}, {"id": 14953, "name": "Jack Gold", "roles_in_work": [{"id": 2174613, "title": "Me and the Girls", "work_id": 79688, "role": "director", "role_id": 938, "is_primary": true}, {"id": 2766580, "title": "The Fine art of aggression", "work_id": 67517, "role": "director", "role_id": 938, "is_primary": true}, {"id": 2650346, "title": "The Sailor's return", "work_id": 115655, "role": "director", "role_id": 938, "is_primary": true}, {"id": 2755541, "title": "The Merchant of Venice", "work_id": 79393, "role": "director", "role_id": 938, "is_primary": true}, {"id": 1847961, "title": "Goodnight Mister Tom", "work_id": 89820, "role": "director", "role_id": 938, "is_primary": true}, {"id": 894932, "title": "Living jazz", "work_id": 69806, "role": "director", "role_id": 938, "is_primary": true}, {"id": 906608, "title": "The Visit", "work_id": 87295, "role": "director", "role_id": 938, "is_primary": true}, {"id": 2174595, "title": "Me and the Girls (Captioned)", "work_id": 79172, "role": "director", "role_id": 938, "is_primary": true}, {"id": 906607, "title": "The Visit", "work_id": 87295, "role": "co-producer", "role_id": 915, "is_primary": true}, {"id": 773233, "title": "Macbeth", "work_id": 80809, "role": "director", "role_id": 938, "is_primary": true}, {"id": 812346, "title": "Escape from Sobibor", "work_id": 92673, "role": "director", "role_id": 938, "is_primary": true}, {"id": 2614563, "title": "The Naked civil servant", "work_id": 83903, "role": "director", "role_id": 938, "is_primary": true}], "also_known_as": "", "date_of_birth": "28 JUN 1930", "date_of_death": "09 AUG 2015", "genders": [{"id": 9, "name": "Male", "slug": "male"}], "languages": [{"id": 1, "name": "English", "slug": "english"}], "places_of_operation": [{"id": 10, "name": "United Kingdom", "slug": "united-kingdom"}], "biography": "Jacob M. \"Jack\" Gold (28 June 1930 – 9 August 2015) was a British film and television director. He was part of the British realist tradition which followed the Free Cinema movement. Source: Wikidata; 01/08/2023", "biography_author": null, "date_of_biography": "2025-03-14T17:58:49.127557+11:00", "external_links": [{"id": 4214, "uri": "https://en.wikipedia.org/wiki/Jack_Gold"}], "uuid": "787c0061-f426-445b-ae8b-02be7d2430f3", "source": {"name": "Vernon", "slug": "vernon"}, "source_identifier": "21043", "external_references": [{"id": 26160, "source": {"name": "Wikidata", "slug": "wikidata"}, "source_identifier": "Q543700"}, {"id": 29063, "source": {"name": "VIAF", "slug": "viaf"}, "source_identifier": "117982283"}, {"id": 29064, "source": {"name": "LOC Auth", "slug": "loc-auth"}, "source_identifier": "no90002436"}, {"id": 29065, "source": {"name": "WorldCat", "slug": "worldcat"}, "source_identifier": "lccn-no90002436"}], "date_modified": "2025-03-14T17:58:49.127770+11:00"}, {"id": 14952, "name": "Ronald Shedlo", "roles_in_work": [{"id": 2131442, "title": "Carrington", "work_id": 86252, "role": "co-producer", "role_id": 915, "is_primary": true}, {"id": 2766578, "title": "The Fine art of aggression", "work_id": 67517, "role": "producer", "role_id": 1089, "is_primary": true}], "also_known_as": "", "date_of_birth": "1940-05-01", "date_of_death": "2007-04-02", "genders": [{"id": 9, "name": "Male", "slug": "male"}], "languages": [], "places_of_operation": [], "biography": "", "biography_author": null, "date_of_biography": "2023-05-09T13:20:56.003956+10:00", "external_links": [], "uuid": "6ead937c-5025-441d-8241-4c041dc2d565", "source": {"name": "Vernon", "slug": "vernon"}, "source_identifier": "28214", "external_references": [{"id": 35302, "source": {"name": "Wikidata", "slug": "wikidata"}, "source_identifier": "Q89036157"}, {"id": 55716, "source": {"name": "VIAF", "slug": "viaf"}, "source_identifier": "168858341"}, {"id": 55717, "source": {"name": "LOC Auth", "slug": "loc-auth"}, "source_identifier": "no2013025003"}], "date_modified": "2025-03-14T17:58:48.549574+11:00"}, {"id": 14951, "name": "Robert Waterman Films", "roles_in_work": [{"id": 2713647, "title": "Finding information", "work_id": 67515, "role": "production company", "role_id": 941, "is_primary": true}], "also_known_as": "", "date_of_birth": "", "date_of_death": "", "genders": [], "languages": [], "places_of_operation": [], "biography": "", "biography_author": null, "date_of_biography": "2023-08-11T16:37:50.127058+10:00", "external_links": [], "uuid": "4c65e12c-e1e4-40dc-adf4-1de74a705fde", "source": {"name": "Vernon", "slug": "vernon"}, "source_identifier": "12078", "external_references": [], "date_modified": "2025-03-12T00:48:02.810969+11:00"}, {"id": 14950, "name": "Richard Siegel", "roles_in_work": [{"id": 2235605, "title": "Rape. Part 1. Problems in proof", "work_id": 72055, "role": "director", "role_id": 938, "is_primary": true}, {"id": 2713646, "title": "Find yourself, then your job", "work_id": 67514, "role": "director", "role_id": 938, "is_primary": true}, {"id": 2235629, "title": "Rape. Part 2. Providing the proof", "work_id": 72056, "role": "director", "role_id": 938, "is_primary": true}], "also_known_as": "", "date_of_birth": "", "date_of_death": "", "genders": [], "languages": [], "places_of_operation": [], "biography": "", "biography_author": null, "date_of_biography": "2023-05-09T16:45:23.212401+10:00", "external_links": [], "uuid": "7fd36c24-e87e-43f0-95cc-092b44cdfc5c", "source": {"name": "Vernon", "slug": "vernon"}, "source_identifier": "27510", "external_references": [{"id": 38022, "source": {"name": "Wikidata", "slug": "wikidata"}, "source_identifier": "Q120837875"}], "date_modified": "2025-03-12T00:48:02.004363+11:00"}, {"id": 14949, "name": "Valentine Smith", "roles_in_work": [{"id": 2713645, "title": "Find yourself, then your job", "work_id": 67514, "role": "producer", "role_id": 1089, "is_primary": true}], "also_known_as": "", "date_of_birth": null, "date_of_death": null, "genders": [], "languages": [], "places_of_operation": [], "biography": "", "biography_author": null, "date_of_biography": null, "external_links": [], "uuid": "b79259f3-bf44-43da-bb8b-0f9693c6707b", "source": {"name": "Vernon", "slug": "vernon"}, "source_identifier": "30042", "external_references": [], "date_modified": "2025-03-12T00:48:01.415254+11:00"}, {"id": 14948, "name": "Paul Ellis", "roles_in_work": [{"id": 2766737, "title": "The Hard sell", "work_id": 68315, "role": "director", "role_id": 938, "is_primary": true}, {"id": 874809, "title": "Small business: the company you keep", "work_id": 89112, "role": "director", "role_id": 938, "is_primary": true}, {"id": 2766730, "title": "Finance in the balance", "work_id": 67512, "role": "director", "role_id": 938, "is_primary": true}, {"id": 1805522, "title": "Investment planning", "work_id": 69080, "role": "producer", "role_id": 1089, "is_primary": true}, {"id": 1805548, "title": "Seeing the future", "work_id": 72635, "role": "producer", "role_id": 1089, "is_primary": true}, {"id": 1805535, "title": "Producing a plan", "work_id": 71876, "role": "producer", "role_id": 1089, "is_primary": true}], "also_known_as": "", "date_of_birth": null, "date_of_death": null, "genders": [], "languages": [], "places_of_operation": [], "biography": "", "biography_author": null, "date_of_biography": null, "external_links": [], "uuid": "2ec4e2e1-7c52-40bb-91e2-0034ba94159c", "source": {"name": "Vernon", "slug": "vernon"}, "source_identifier": "26217", "external_references": [], "date_modified": "2025-03-14T18:00:02.974258+11:00"}, {"id": 14947, "name": "Michael Darlow", "roles_in_work": [{"id": 863594, "title": "Who's in charge? (TEFC)", "work_id": 77327, "role": "director", "role_id": 938, "is_primary": true}, {"id": 864253, "title": "Do you think you can manage? (TEFC)", "work_id": 77841, "role": "director", "role_id": 938, "is_primary": true}, {"id": 2713639, "title": "Finale", "work_id": 67511, "role": "co-director", "role_id": 959, "is_primary": true}], "also_known_as": "", "date_of_birth": "", "date_of_death": "", "genders": [], "languages": [], "places_of_operation": [], "biography": "", "biography_author": null, "date_of_biography": "2023-05-09T16:53:09.177966+10:00", "external_links": [], "uuid": "162c96dd-5bbc-4674-a50c-ea3114b30e0e", "source": {"name": "Vernon", "slug": "vernon"}, "source_identifier": "25040", "external_references": [{"id": 41225, "source": {"name": "Wikidata", "slug": "wikidata"}, "source_identifier": "Q121034232"}], "date_modified": "2025-03-12T00:47:57.036562+11:00"}, {"id": 14945, "name": "Gerald Elsworth", "roles_in_work": [{"id": 2713628, "title": "Una Filma di", "work_id": 67507, "role": "producer", "role_id": 1089, "is_primary": true}], "also_known_as": "", "date_of_birth": "", "date_of_death": "", "genders": [], "languages": [], "places_of_operation": [], "biography": "", "biography_author": null, "date_of_biography": "2023-08-14T12:03:00.769848+10:00", "external_links": [], "uuid": "bbff7b6a-e2cb-4439-9e26-6a3c3b2ec3ff", "source": {"name": "Vernon", "slug": "vernon"}, "source_identifier": "19728", "external_references": [], "date_modified": "2025-03-12T00:47:49.955178+11:00"}]}