{"count": 28687, "next": "https://api.acmi.net.au/creators/?page=1526", "previous": "https://api.acmi.net.au/creators/?page=1524", "results": [{"id": 32990, "name": "Richard Graham", "roles_in_work": [{"id": 2396501, "title": "[A Design for leisure]", "work_id": 91557, "role": "producer", "role_id": 1089, "is_primary": true}], "also_known_as": "", "date_of_birth": "", "date_of_death": "", "genders": [], "languages": [], "places_of_operation": [], "biography": "", "biography_author": null, "date_of_biography": "2023-08-11T12:18:45.269690+10:00", "external_links": [], "uuid": "9d43818d-5523-4927-9eec-9a1b958b1101", "source": {"name": "Vernon", "slug": "vernon"}, "source_identifier": "27395", "external_references": [], "date_modified": "2023-08-11T12:18:45.269940+10:00"}, {"id": 32989, "name": "Australia. Dept. of Tourism", "roles_in_work": [{"id": 2396500, "title": "[A Design for leisure]", "work_id": 91557, "role": "production company", "role_id": 941, "is_primary": true}], "also_known_as": "", "date_of_birth": "", "date_of_death": "", "genders": [], "languages": [], "places_of_operation": [], "biography": "", "biography_author": null, "date_of_biography": "2023-08-11T12:18:44.648407+10:00", "external_links": [], "uuid": "f4144f86-4160-4f7c-bae2-4081bd668025", "source": {"name": "Vernon", "slug": "vernon"}, "source_identifier": "4858", "external_references": [], "date_modified": "2023-08-11T12:18:44.648637+10:00"}, {"id": 32988, "name": "Jonathan Shestack", "roles_in_work": [{"id": 2195959, "title": "Disturbing behavior = Disturbing behaviour", "work_id": 94106, "role": "co-producer", "role_id": 915, "is_primary": true}, {"id": 2084059, "title": "Air Force One", "work_id": 95376, "role": "co-producer", "role_id": 915, "is_primary": true}, {"id": 1995414, "title": "The Last seduction", "work_id": 91543, "role": "producer", "role_id": 1089, "is_primary": true}], "also_known_as": "", "date_of_birth": "", "date_of_death": "", "genders": [], "languages": [], "places_of_operation": [], "biography": "", "biography_author": null, "date_of_biography": "2023-05-09T15:16:49.178877+10:00", "external_links": [], "uuid": "2e9d406f-8f12-4178-b137-9407aab7576e", "source": {"name": "Vernon", "slug": "vernon"}, "source_identifier": "22668", "external_references": [{"id": 38876, "source": {"name": "Wikidata", "slug": "wikidata"}, "source_identifier": "Q121079386"}], "date_modified": "2023-09-05T21:49:04.562925+10:00"}, {"id": 32985, "name": "Alf Potter", "roles_in_work": [{"id": 879013, "title": "VFL Grand final 1970 Carlton vs Collingwood: 3rd quarter", "work_id": 91521, "role": "director", "role_id": 938, "is_primary": true}, {"id": 879018, "title": "VFL Grand final 1970 Carlton vs Collingwood: final quarter", "work_id": 91524, "role": "director", "role_id": 938, "is_primary": true}, {"id": 2469917, "title": "VFL Grand Final. 1973: 4th quarter [Richmond v Carlton]", "work_id": 91526, "role": "director", "role_id": 938, "is_primary": true}], "also_known_as": "", "date_of_birth": "", "date_of_death": "", "genders": [], "languages": [], "places_of_operation": [], "biography": "", "biography_author": null, "date_of_biography": "2023-08-14T12:10:22.942313+10:00", "external_links": [], "uuid": "88929f70-ef8f-4cd7-9fd8-28b8af85f3c9", "source": {"name": "Vernon", "slug": "vernon"}, "source_identifier": "14944", "external_references": [], "date_modified": "2023-08-14T12:10:22.942565+10:00"}, {"id": 32982, "name": "Jean Wein", "roles_in_work": [{"id": 2122786, "title": "Boro's ballet: the making of an Australian ballet 1939-1961", "work_id": 91512, "role": "producer", "role_id": 1089, "is_primary": true}], "also_known_as": "", "date_of_birth": "", "date_of_death": "", "genders": [], "languages": [], "places_of_operation": [], "biography": "", "biography_author": null, "date_of_biography": "2023-05-09T13:06:19.265693+10:00", "external_links": [], "uuid": "22280b0f-4643-469d-aa90-9c6f01dff7a3", "source": {"name": "Vernon", "slug": "vernon"}, "source_identifier": "21564", "external_references": [{"id": 43252, "source": {"name": "Wikidata", "slug": "wikidata"}, "source_identifier": "Q121091042"}], "date_modified": "2023-09-05T21:17:35.014024+10:00"}, {"id": 32981, "name": "GTV9 Melbourne", "roles_in_work": [{"id": 879197, "title": "The VFL Grand Final, 1969: 3rd and 4th quarters [Carlton v Richmond]", "work_id": 91633, "role": "production company", "role_id": 941, "is_primary": true}, {"id": 879022, "title": "The VFL 2nd Semi Final, 1969 [Carlton v Collingwood]", "work_id": 91527, "role": "production company", "role_id": 941, "is_primary": true}, {"id": 2103572, "title": "Australia's New Faces 1969 Grand Final", "work_id": 91761, "role": "production company", "role_id": 941, "is_primary": true}, {"id": 878989, "title": "The VFL Grand Final, 1970: 4th quarter [Carlton v Collingwood]", "work_id": 91509, "role": "production company", "role_id": 941, "is_primary": true}, {"id": 879019, "title": "The VFL Preliminary Final, 1969: 3rd quarter [Richmond v Collingwood]", "work_id": 91525, "role": "production company", "role_id": 941, "is_primary": true}], "also_known_as": "", "date_of_birth": "", "date_of_death": "", "genders": [], "languages": [], "places_of_operation": [], "biography": "", "biography_author": null, "date_of_biography": "2023-05-09T12:35:15.331378+10:00", "external_links": [], "uuid": "87f781f2-5f2d-4a60-a16e-3083cc61e899", "source": {"name": "Vernon", "slug": "vernon"}, "source_identifier": "8927", "external_references": [{"id": 50655, "source": {"name": "Wikidata", "slug": "wikidata"}, "source_identifier": "Q121358020"}], "date_modified": "2023-09-05T20:24:00.817002+10:00"}, {"id": 32979, "name": "Joseph Vilsmaier", "roles_in_work": [{"id": 2308371, "title": "Stalingrad", "work_id": 93732, "role": "director", "role_id": 938, "is_primary": true}, {"id": 2308370, "title": "Stalingrad", "work_id": 93732, "role": "co-producer", "role_id": 915, "is_primary": true}, {"id": 2141663, "title": "Comedian harmonists", "work_id": 91498, "role": "producer", "role_id": 1089, "is_primary": true}], "also_known_as": "", "date_of_birth": "1939-01-24", "date_of_death": "2020-02-11", "genders": [{"id": 9, "name": "Male", "slug": "male"}], "languages": [{"id": 5, "name": "German", "slug": "german"}], "places_of_operation": [{"id": 18, "name": "Germany", "slug": "germany"}], "biography": "Joseph Vilsmaier (pronounced [ˈjoː.zɛf ˈfɪls.maɪ̯.ɐ] (listen), 24 January 1939 – 11 February 2020) was a German film director who began his career as a technician and cameraman. He is internationally known for films such as Comedian Harmonists.", "biography_author": "Wikidata", "date_of_biography": "2022-05-19T12:06:46.846847+10:00", "external_links": [{"id": 2479, "uri": "https://en.wikipedia.org/wiki/Joseph_Vilsmaier"}], "uuid": "f7531a46-e187-4e96-96d8-66a112922457", "source": {"name": "Vernon", "slug": "vernon"}, "source_identifier": "22752", "external_references": [{"id": 10601, "source": {"name": "Wikidata", "slug": "wikidata"}, "source_identifier": "Q63069"}, {"id": 10602, "source": {"name": "VIAF", "slug": "viaf"}, "source_identifier": "34665782"}, {"id": 10603, "source": {"name": "LOC Auth", "slug": "loc-auth"}, "source_identifier": "n91032253"}, {"id": 10604, "source": {"name": "WorldCat", "slug": "worldcat"}, "source_identifier": "lccn-n91032253"}], "date_modified": "2023-09-13T12:30:43.739982+10:00"}, {"id": 32978, "name": "Senator", "roles_in_work": [{"id": 2141658, "title": "Comedian harmonists", "work_id": 91498, "role": "production company", "role_id": 941, "is_primary": true}], "also_known_as": "", "date_of_birth": "", "date_of_death": "", "genders": [], "languages": [], "places_of_operation": [], "biography": "", "biography_author": null, "date_of_biography": "2023-05-09T13:38:37.521095+10:00", "external_links": [], "uuid": "7fc4d16d-eb85-4e78-abf7-868a27247dc4", "source": {"name": "Vernon", "slug": "vernon"}, "source_identifier": "12428", "external_references": [], "date_modified": "2023-06-14T16:33:30.576250+10:00"}, {"id": 32977, "name": "Iduna", "roles_in_work": [{"id": 2141653, "title": "Comedian harmonists", "work_id": 91498, "role": "production company", "role_id": 941, "is_primary": true}], "also_known_as": "", "date_of_birth": "", "date_of_death": "", "genders": [], "languages": [], "places_of_operation": [], "biography": "", "biography_author": null, "date_of_biography": "2023-05-09T13:38:37.232779+10:00", "external_links": [], "uuid": "c9645a82-9c70-4aa3-901d-69b8f09e8075", "source": {"name": "Vernon", "slug": "vernon"}, "source_identifier": "9229", "external_references": [], "date_modified": "2023-06-14T16:33:30.576250+10:00"}, {"id": 32976, "name": "Perathon", "roles_in_work": [{"id": 2141652, "title": "Comedian harmonists", "work_id": 91498, "role": "production company", "role_id": 941, "is_primary": true}, {"id": 2308359, "title": "Stalingrad", "work_id": 93732, "role": "production company", "role_id": 941, "is_primary": true}], "also_known_as": "", "date_of_birth": "", "date_of_death": "", "genders": [], "languages": [], "places_of_operation": [], "biography": "", "biography_author": null, "date_of_biography": "2023-05-09T18:48:31.959889+10:00", "external_links": [], "uuid": "9dd819ee-e801-4b48-bc81-3447467ec6da", "source": {"name": "Vernon", "slug": "vernon"}, "source_identifier": "11403", "external_references": [], "date_modified": "2023-06-14T16:33:30.576250+10:00"}]}