{"count": 28684, "next": "https://api.acmi.net.au/creators/?page=958", "previous": "https://api.acmi.net.au/creators/?page=956", "results": [{"id": 76009, "name": "Zlatko Pavlinic", "roles_in_work": [{"id": 863891, "title": "Way to your neighbour", "work_id": 77568, "role": "animator", "role_id": 497, "is_primary": false}], "also_known_as": "", "date_of_birth": null, "date_of_death": null, "genders": [], "languages": [], "places_of_operation": [], "biography": "", "biography_author": null, "date_of_biography": null, "external_links": [], "uuid": "cfb3981c-e932-4ad5-a890-4ad8065ea7e4", "source": {"name": "Vernon", "slug": "vernon"}, "source_identifier": null, "external_references": [], "date_modified": "2023-06-14T16:33:30.576250+10:00"}, {"id": 76008, "name": "Laura Alper", "roles_in_work": [{"id": 912922, "title": "Is it hot in here?: a film about menopause", "work_id": 92954, "role": "co-director", "role_id": 959, "is_primary": true}, {"id": 2076548, "title": "A Union free seminar", "work_id": 92895, "role": "co-director", "role_id": 959, "is_primary": true}, {"id": 912767, "title": "Why unions?", "work_id": 92898, "role": "co-director", "role_id": 959, "is_primary": true}, {"id": 897485, "title": "Who wants unions?", "work_id": 77560, "role": "co-director", "role_id": 959, "is_primary": true}], "also_known_as": "", "date_of_birth": "", "date_of_death": "", "genders": [], "languages": [], "places_of_operation": [], "biography": "", "biography_author": null, "date_of_biography": "2023-05-09T11:41:41.575075+10:00", "external_links": [], "uuid": "352a18fb-c62a-4c50-95df-6bbf5c9e790a", "source": {"name": "Vernon", "slug": "vernon"}, "source_identifier": "23528", "external_references": [{"id": 42665, "source": {"name": "Wikidata", "slug": "wikidata"}, "source_identifier": "Q121091255"}], "date_modified": "2023-09-05T22:15:23.604763+10:00"}, {"id": 76007, "name": "Laszlo Barna", "roles_in_work": [{"id": 2335147, "title": "The Business of aging", "work_id": 92920, "role": "director", "role_id": 938, "is_primary": true}, {"id": 897484, "title": "Who wants unions?", "work_id": 77560, "role": "co-director", "role_id": 959, "is_primary": true}, {"id": 912768, "title": "Why unions?", "work_id": 92898, "role": "co-director", "role_id": 959, "is_primary": true}, {"id": 2076549, "title": "A Union free seminar", "work_id": 92895, "role": "co-director", "role_id": 959, "is_primary": true}, {"id": 2335141, "title": "The Business of aging", "work_id": 92920, "role": "co-producer", "role_id": 915, "is_primary": true}], "also_known_as": "", "date_of_birth": "1948-01-01", "date_of_death": "", "genders": [{"id": 9, "name": "Male", "slug": "male"}], "languages": [], "places_of_operation": [{"id": 25, "name": "Hungary", "slug": "hungary"}], "biography": "Laszlo Barna (born 1948) is a Gemini Award-winning executive producer of television programs and films. Born in Hungary but living and working in Canada, Barna produced prominent television shows such as Da Vinci's Inquest and Blue Murder.", "biography_author": "Wikidata", "date_of_biography": "2023-08-01T15:52:44.380708+10:00", "external_links": [{"id": 4518, "uri": "https://en.wikipedia.org/wiki/Laszlo_Barna"}], "uuid": "7a65065f-3be6-46d1-b62c-69fd2b3071c6", "source": {"name": "Vernon", "slug": "vernon"}, "source_identifier": "23523", "external_references": [{"id": 27005, "source": {"name": "Wikidata", "slug": "wikidata"}, "source_identifier": "Q6495006"}, {"id": 29858, "source": {"name": "VIAF", "slug": "viaf"}, "source_identifier": "9740999"}, {"id": 29859, "source": {"name": "LOC Auth", "slug": "loc-auth"}, "source_identifier": "nr96004991"}, {"id": 29860, "source": {"name": "WorldCat", "slug": "worldcat"}, "source_identifier": "lccn-nr96004991"}], "date_modified": "2023-09-05T22:15:15.679111+10:00"}, {"id": 76006, "name": "Mark Zannis", "roles_in_work": [{"id": 2076545, "title": "A Union free seminar", "work_id": 92895, "role": "co-producer", "role_id": 915, "is_primary": true}, {"id": 912903, "title": "Unemployment: voices from the line", "work_id": 92950, "role": "co-producer", "role_id": 915, "is_primary": true}, {"id": 912765, "title": "Why unions?", "work_id": 92898, "role": "co-producer", "role_id": 915, "is_primary": true}, {"id": 2138644, "title": "Class project: the garbage movie", "work_id": 77883, "role": "co-producer", "role_id": 915, "is_primary": true}, {"id": 2130087, "title": "Captive minds: hypnosis and beyond", "work_id": 77975, "role": "co-producer", "role_id": 915, "is_primary": true}, {"id": 1804687, "title": "Moving pictures", "work_id": 90454, "role": "producer", "role_id": 1089, "is_primary": true}, {"id": 2148716, "title": "Cree way", "work_id": 90813, "role": "producer", "role_id": 1089, "is_primary": true}, {"id": 1814945, "title": "The Politics of persuasion", "work_id": 90342, "role": "producer", "role_id": 1089, "is_primary": true}, {"id": 1804185, "title": "Who wants unions?", "work_id": 77560, "role": "producer", "role_id": 1089, "is_primary": true}, {"id": 2348099, "title": "The Fiddlers of James Bay", "work_id": 77998, "role": "producer", "role_id": 1089, "is_primary": true}], "also_known_as": "", "date_of_birth": "", "date_of_death": "", "genders": [], "languages": [], "places_of_operation": [], "biography": "", "biography_author": null, "date_of_biography": "2023-05-09T19:51:21.170210+10:00", "external_links": [], "uuid": "115f7a17-96c6-48ae-a5d2-b5f3650f3c12", "source": {"name": "Vernon", "slug": "vernon"}, "source_identifier": "24574", "external_references": [{"id": 41206, "source": {"name": "Wikidata", "slug": "wikidata"}, "source_identifier": "Q121144189"}], "date_modified": "2023-09-05T22:47:32.897578+10:00"}, {"id": 76005, "name": "Camille Coudari", "roles_in_work": [{"id": 2647855, "title": "The Great chess movie", "work_id": 77552, "role": "co-director", "role_id": 959, "is_primary": true}], "also_known_as": "", "date_of_birth": "1951-07-29", "date_of_death": "", "genders": [{"id": 9, "name": "Male", "slug": "male"}], "languages": [], "places_of_operation": [{"id": 36, "name": "Canada", "slug": "canada"}], "biography": "Camille Coudari (born 29 July 1951), is a Canadian chess International Master (IM) (1979).", "biography_author": "Wikidata", "date_of_biography": "2023-09-05T18:17:53.555468+10:00", "external_links": [{"id": 5726, "uri": "https://en.wikipedia.org/wiki/Camille_Coudari"}], "uuid": "5f717340-6851-4bdd-b0e1-97a2c590bc81", "source": {"name": "Vernon", "slug": "vernon"}, "source_identifier": "16446", "external_references": [{"id": 51584, "source": {"name": "Wikidata", "slug": "wikidata"}, "source_identifier": "Q22045781"}, {"id": 54134, "source": {"name": "VIAF", "slug": "viaf"}, "source_identifier": "105876757"}, {"id": 54135, "source": {"name": "LOC Auth", "slug": "loc-auth"}, "source_identifier": "no2012077150"}, {"id": 54136, "source": {"name": "WorldCat", "slug": "worldcat"}, "source_identifier": "lccn-no2012077150"}], "date_modified": "2025-03-05T13:35:14.972193+11:00"}, {"id": 76004, "name": "Helene Verrier", "roles_in_work": [{"id": 2647853, "title": "The Great chess movie", "work_id": 77552, "role": "producer", "role_id": 1089, "is_primary": true}, {"id": 2649692, "title": "The Plant", "work_id": 82033, "role": "producer", "role_id": 1089, "is_primary": true}, {"id": 2753537, "title": "Le Jongleur = The Juggler", "work_id": 98816, "role": "producer", "role_id": 1089, "is_primary": true}], "also_known_as": "", "date_of_birth": "", "date_of_death": "", "genders": [], "languages": [], "places_of_operation": [], "biography": "", "biography_author": null, "date_of_biography": "2023-05-09T19:57:52.664995+10:00", "external_links": [], "uuid": "d5b12aa1-2b63-446f-92b3-5cffc9d82e2d", "source": {"name": "Vernon", "slug": "vernon"}, "source_identifier": "20448", "external_references": [{"id": 40846, "source": {"name": "Wikidata", "slug": "wikidata"}, "source_identifier": "Q121144157"}], "date_modified": "2025-03-13T01:26:48.022789+11:00"}, {"id": 76003, "name": "Cynthia Scott/Canada Council", "roles_in_work": [{"id": 897472, "title": "For the love of dance", "work_id": 77549, "role": "co-producer", "role_id": 915, "is_primary": true}], "also_known_as": "", "date_of_birth": "1939-01-01", "date_of_death": null, "genders": [{"id": 5, "name": "Female", "slug": "female"}], "languages": [{"id": 1, "name": "English", "slug": "english"}], "places_of_operation": [{"id": 36, "name": "Canada", "slug": "canada"}], "biography": "Cynthia Scott  (born January 1, 1939) is a Canadian award-winning filmmaker who has produced, directed, written, and edited several films with the National Film Board of Canada (NFB). Her works have won the Oscar and Canadian Film Award. Scott is a member of the Royal Canadian Academy of Arts. Her projects with the NFB are mainly focused on documentary filmmaking. Some of Scott's most notable documentaries for the NFB feature dancing and the dance world including Flamenco at 5:15 (1983), which won an Academy Award for Best Documentary (Short Subject) at the 56th Academy Awards in 1984. She is married to filmmaker John N. Smith.", "biography_author": "Wikidata", "date_of_biography": "2023-09-05T18:48:10.165138+10:00", "external_links": [{"id": 3809, "uri": "https://en.wikipedia.org/wiki/Cynthia_Scott"}], "uuid": "d130803e-9db0-435f-9681-64ad829d274e", "source": {"name": "Vernon", "slug": "vernon"}, "source_identifier": null, "external_references": [{"id": 42603, "source": {"name": "Wikidata", "slug": "wikidata"}, "source_identifier": "Q2790955"}, {"id": 54243, "source": {"name": "VIAF", "slug": "viaf"}, "source_identifier": "7592331"}, {"id": 54244, "source": {"name": "LOC Auth", "slug": "loc-auth"}, "source_identifier": "n93004924"}, {"id": 54245, "source": {"name": "WorldCat", "slug": "worldcat"}, "source_identifier": "lccn-n93004924"}], "date_modified": "2023-09-05T18:48:10.181490+10:00"}, {"id": 76002, "name": "Sparky Greene", "roles_in_work": [{"id": 2159099, "title": "On the run", "work_id": 77546, "role": "producer/director", "role_id": 31, "is_primary": true}], "also_known_as": "", "date_of_birth": "", "date_of_death": "", "genders": [], "languages": [], "places_of_operation": [], "biography": "", "biography_author": null, "date_of_biography": "2023-05-09T14:12:51.851318+10:00", "external_links": [], "uuid": "d366e095-86c0-4bf3-a88a-64ef218e3cb7", "source": {"name": "Vernon", "slug": "vernon"}, "source_identifier": "12823", "external_references": [{"id": 50742, "source": {"name": "Wikidata", "slug": "wikidata"}, "source_identifier": "Q121361200"}], "date_modified": "2023-09-06T01:24:53.370032+10:00"}, {"id": 76001, "name": "John Sturner", "roles_in_work": [{"id": 2647842, "title": "The Remarkable riderless runaway tricycle", "work_id": 77541, "role": "co-producer", "role_id": 915, "is_primary": true}, {"id": 2129692, "title": "Cannonball", "work_id": 78246, "role": "co-producer", "role_id": 915, "is_primary": true}, {"id": 2065389, "title": "A Boy, a dog and a frog", "work_id": 77959, "role": "co-producer", "role_id": 915, "is_primary": true}, {"id": 2096548, "title": "Angus lost", "work_id": 77960, "role": "co-producer", "role_id": 915, "is_primary": true}], "also_known_as": "", "date_of_birth": "", "date_of_death": "", "genders": [], "languages": [], "places_of_operation": [], "biography": "", "biography_author": null, "date_of_biography": "2023-05-09T13:17:37.815434+10:00", "external_links": [], "uuid": "1161afc0-c68e-4afd-ab84-b70cd32f16c8", "source": {"name": "Vernon", "slug": "vernon"}, "source_identifier": "22547", "external_references": [{"id": 40888, "source": {"name": "Wikidata", "slug": "wikidata"}, "source_identifier": "Q121036322"}], "date_modified": "2025-03-05T13:35:05.977532+11:00"}, {"id": 76000, "name": "S R S", "roles_in_work": [{"id": 2647835, "title": "Computers: the friendly invasion", "work_id": 77539, "role": "production company", "role_id": 941, "is_primary": true}], "also_known_as": "", "date_of_birth": "", "date_of_death": "", "genders": [], "languages": [], "places_of_operation": [], "biography": "", "biography_author": null, "date_of_biography": "2023-05-09T13:40:36.723334+10:00", "external_links": [], "uuid": "da4e9dca-b2c8-4375-8ffb-5e8e03381315", "source": {"name": "Vernon", "slug": "vernon"}, "source_identifier": "12216", "external_references": [{"id": 42610, "source": {"name": "Wikidata", "slug": "wikidata"}, "source_identifier": "Q121085986"}], "date_modified": "2025-03-05T13:35:00.685612+11:00"}]}