{"count": 28687, "next": "https://api.acmi.net.au/creators/?page=1065", "previous": "https://api.acmi.net.au/creators/?page=1063", "results": [{"id": 74942, "name": "Geoff Moon", "roles_in_work": [{"id": 2413954, "title": "Kingfisher", "work_id": 69411, "role": "co-producer", "role_id": 915, "is_primary": true}], "also_known_as": "", "date_of_birth": "", "date_of_death": "", "genders": [], "languages": [], "places_of_operation": [], "biography": "", "biography_author": null, "date_of_biography": "2023-08-11T19:07:58.865364+10:00", "external_links": [], "uuid": "ccd1d44c-9713-4a11-8511-7c4439c98b79", "source": {"name": "Vernon", "slug": "vernon"}, "source_identifier": "19502", "external_references": [{"id": 39962, "source": {"name": "Wikidata", "slug": "wikidata"}, "source_identifier": "Q121315030"}], "date_modified": "2023-09-05T20:01:39.516546+10:00"}, {"id": 74941, "name": "Finley Hunt", "roles_in_work": [{"id": 2413946, "title": "King Zog and the energy crunch", "work_id": 69410, "role": "producer/director", "role_id": 31, "is_primary": true}], "also_known_as": "", "date_of_birth": "", "date_of_death": "", "genders": [], "languages": [], "places_of_operation": [], "biography": "", "biography_author": null, "date_of_biography": "2023-08-11T19:07:49.287949+10:00", "external_links": [], "uuid": "c0c82602-cde2-4dc1-89e9-8b1c0cf4fc97", "source": {"name": "Vernon", "slug": "vernon"}, "source_identifier": "19001", "external_references": [{"id": 51292, "source": {"name": "Wikidata", "slug": "wikidata"}, "source_identifier": "Q121360914"}], "date_modified": "2023-09-05T19:43:55.496730+10:00"}, {"id": 74940, "name": "Stanley Clish", "roles_in_work": [{"id": 854092, "title": "King of blades", "work_id": 69404, "role": "producer/director", "role_id": 31, "is_primary": true}], "also_known_as": "", "date_of_birth": null, "date_of_death": null, "genders": [], "languages": [], "places_of_operation": [], "biography": "", "biography_author": null, "date_of_biography": null, "external_links": [], "uuid": "ba39c694-9dc5-4809-8286-b6cbc270a4a1", "source": {"name": "Vernon", "slug": "vernon"}, "source_identifier": null, "external_references": [{"id": 51836, "source": {"name": "Wikidata", "slug": "wikidata"}, "source_identifier": "Q121361298"}], "date_modified": "2023-09-06T01:26:33.820068+10:00"}, {"id": 74939, "name": "Vladimir Jutrisa", "roles_in_work": [{"id": 2336058, "title": "The Carp = Saran", "work_id": 85810, "role": "co-director", "role_id": 959, "is_primary": true}, {"id": 2358039, "title": "The Kind hearted ant", "work_id": 69393, "role": "co-director", "role_id": 959, "is_primary": true}], "also_known_as": "", "date_of_birth": "", "date_of_death": "", "genders": [], "languages": [], "places_of_operation": [], "biography": "", "biography_author": null, "date_of_biography": "2023-05-09T20:07:03.925311+10:00", "external_links": [], "uuid": "2ce31fca-bb28-471d-8d6e-3295dab20e8e", "source": {"name": "Vernon", "slug": "vernon"}, "source_identifier": "30172", "external_references": [{"id": 40482, "source": {"name": "Wikidata", "slug": "wikidata"}, "source_identifier": "Q121337290"}], "date_modified": "2023-09-06T02:08:25.127047+10:00"}, {"id": 74938, "name": "Aleksandar Marks", "roles_in_work": [{"id": 2358035, "title": "The Kind hearted ant", "work_id": 69393, "role": "co-director", "role_id": 959, "is_primary": true}], "also_known_as": "", "date_of_birth": "", "date_of_death": "", "genders": [], "languages": [], "places_of_operation": [], "biography": "", "biography_author": null, "date_of_biography": "2023-05-09T20:07:03.586602+10:00", "external_links": [], "uuid": "e7d9032c-70c3-43c7-99d1-1e8cd58d6063", "source": {"name": "Vernon", "slug": "vernon"}, "source_identifier": "14875", "external_references": [{"id": 51255, "source": {"name": "Wikidata", "slug": "wikidata"}, "source_identifier": "Q121357842"}], "date_modified": "2023-09-05T17:24:20.587184+10:00"}, {"id": 74937, "name": "Laszlo Pal", "roles_in_work": [{"id": 2645369, "title": "Kiel Olympiad: Olympic yachting 1972", "work_id": 69387, "role": "co-director", "role_id": 959, "is_primary": true}], "also_known_as": "", "date_of_birth": "", "date_of_death": "", "genders": [], "languages": [], "places_of_operation": [], "biography": "", "biography_author": null, "date_of_biography": "2023-08-11T19:06:30.645532+10:00", "external_links": [], "uuid": "f570e06c-c1a2-4f65-a9bf-6cbc3f58612e", "source": {"name": "Vernon", "slug": "vernon"}, "source_identifier": "23526", "external_references": [{"id": 42952, "source": {"name": "Wikidata", "slug": "wikidata"}, "source_identifier": "Q121337230"}], "date_modified": "2025-03-05T12:37:36.786232+11:00"}, {"id": 74936, "name": "Dick Enersen", "roles_in_work": [{"id": 2645368, "title": "Kiel Olympiad: Olympic yachting 1972", "work_id": 69387, "role": "co-director", "role_id": 959, "is_primary": true}], "also_known_as": "", "date_of_birth": "", "date_of_death": "", "genders": [], "languages": [], "places_of_operation": [], "biography": "", "biography_author": null, "date_of_biography": "2023-08-11T19:06:30.015581+10:00", "external_links": [], "uuid": "0f0b9923-14ec-4abe-98ec-0b2853b8ca6e", "source": {"name": "Vernon", "slug": "vernon"}, "source_identifier": "18105", "external_references": [{"id": 38690, "source": {"name": "Wikidata", "slug": "wikidata"}, "source_identifier": "Q121078855"}], "date_modified": "2025-03-05T12:37:36.209628+11:00"}, {"id": 74935, "name": "Terence Weathers", "roles_in_work": [{"id": 2645513, "title": "The Magic bean", "work_id": 69984, "role": "director", "role_id": 938, "is_primary": true}, {"id": 2413798, "title": "Keep clean, eyes open: your responsibility", "work_id": 69358, "role": "producer/director", "role_id": 31, "is_primary": true}], "also_known_as": "", "date_of_birth": "", "date_of_death": "", "genders": [], "languages": [], "places_of_operation": [], "biography": "", "biography_author": null, "date_of_biography": "2023-08-11T19:04:36.710042+10:00", "external_links": [], "uuid": "1068a840-dfe4-476d-87d1-b02a2f2a7bee", "source": {"name": "Vernon", "slug": "vernon"}, "source_identifier": "29567", "external_references": [{"id": 37094, "source": {"name": "Wikidata", "slug": "wikidata"}, "source_identifier": "Q121034750"}], "date_modified": "2025-03-05T12:41:30.623513+11:00"}, {"id": 74934, "name": "Charlie Nairn", "roles_in_work": [{"id": 2767682, "title": "Kataragama: a god for all seasons", "work_id": 69351, "role": "producer/director", "role_id": 31, "is_primary": true}], "also_known_as": "", "date_of_birth": "", "date_of_death": "", "genders": [], "languages": [], "places_of_operation": [], "biography": "", "biography_author": null, "date_of_biography": "2023-05-09T18:44:10.307846+10:00", "external_links": [], "uuid": "e3bc1ef8-13a0-4090-ac91-3cf03e07bc4e", "source": {"name": "Vernon", "slug": "vernon"}, "source_identifier": "16749", "external_references": [{"id": 51935, "source": {"name": "Wikidata", "slug": "wikidata"}, "source_identifier": "Q121360828"}], "date_modified": "2025-03-14T18:05:48.546929+11:00"}, {"id": 74933, "name": "Jean-Claude Roboly", "roles_in_work": [{"id": 2173210, "title": "Karate: art or sport?", "work_id": 69346, "role": "producer/director", "role_id": 31, "is_primary": true}], "also_known_as": "", "date_of_birth": "", "date_of_death": "", "genders": [], "languages": [], "places_of_operation": [], "biography": "", "biography_author": null, "date_of_biography": "2023-05-09T14:39:58.139553+10:00", "external_links": [], "uuid": "437518bb-7c76-42cf-bcbe-3658cf619df5", "source": {"name": "Vernon", "slug": "vernon"}, "source_identifier": "21573", "external_references": [{"id": 51312, "source": {"name": "Wikidata", "slug": "wikidata"}, "source_identifier": "Q121360662"}], "date_modified": "2023-09-05T21:10:50.926858+10:00"}]}