{"count": 28681, "next": "https://api.acmi.net.au/creators/?page=1093", "previous": "https://api.acmi.net.au/creators/?page=1091", "results": [{"id": 74658, "name": "Yoram Gross", "roles_in_work": [{"id": 2094360, "title": "An Introduction to the defence cataloguing system", "work_id": 69067, "role": "director", "role_id": 938, "is_primary": true}, {"id": 2184052, "title": "Pace", "work_id": 71306, "role": "creator", "role_id": 968, "is_primary": true}, {"id": 2119221, "title": "Yoram Gross interview collection", "work_id": 116568, "role": "", "role_id": 604, "is_primary": false}, {"id": 2119209, "title": "Blinky Bill production featurette", "work_id": 116565, "role": "", "role_id": 604, "is_primary": false}, {"id": 2614206, "title": "The Little convict", "work_id": 83329, "role": "co-producers/directors", "role_id": 628, "is_primary": true}, {"id": 2653662, "title": "Yoram Gross : Screen Worlds Spotlight interview", "work_id": 120155, "role": "interviewee", "role_id": 496, "is_primary": false}, {"id": 2199326, "title": "Dot and the Koala", "work_id": 79905, "role": "producer/director", "role_id": 31, "is_primary": true}, {"id": 2199186, "title": "Dot and Keeto", "work_id": 119721, "role": "producer/director", "role_id": 31, "is_primary": true}, {"id": 2199282, "title": "Dot and the kangaroo", "work_id": 79791, "role": "producer/director", "role_id": 31, "is_primary": true}, {"id": 2199054, "title": "Dot and the Whale", "work_id": 80083, "role": "producer/director", "role_id": 31, "is_primary": true}, {"id": 2199014, "title": "Dot and the Smugglers", "work_id": 80080, "role": "producer/director", "role_id": 31, "is_primary": true}, {"id": 1903785, "title": "Good buy", "work_id": 75406, "role": "producer/director", "role_id": 31, "is_primary": true}, {"id": 2199251, "title": "Dot and the Bunny", "work_id": 79904, "role": "producer/director", "role_id": 31, "is_primary": true}, {"id": 2199354, "title": "Dot goes to Hollywood", "work_id": 80065, "role": "producer/director", "role_id": 31, "is_primary": true}, {"id": 2199216, "title": "Dot and Santa Claus", "work_id": 83010, "role": "producer/director", "role_id": 31, "is_primary": true}, {"id": 2326430, "title": "Detective Blinky; Blink Bill's wedding picnic.", "work_id": 85380, "role": "producer/director", "role_id": 31, "is_primary": true}, {"id": 2326443, "title": "The Adventures of Blinky Bill", "work_id": 115451, "role": "producer/director", "role_id": 31, "is_primary": true}, {"id": 2100570, "title": "Around the World with Dot", "work_id": 80082, "role": "producer/director", "role_id": 31, "is_primary": true}, {"id": 2326357, "title": "The Adventures of Blinky Bill: Mayor Blinky Bill", "work_id": 94917, "role": "producer/director", "role_id": 31, "is_primary": true}, {"id": 2615394, "title": "Dot in space", "work_id": 85379, "role": "producer/director", "role_id": 31, "is_primary": true}, {"id": 2713724, "title": "The First animated step", "work_id": 67554, "role": "producer/director", "role_id": 31, "is_primary": true}, {"id": 2321110, "title": "Tabaluga. Volume 4", "work_id": 93985, "role": "producer/director", "role_id": 31, "is_primary": true}, {"id": 2321139, "title": "Tabaluga. Volume 5", "work_id": 93984, "role": "producer/director", "role_id": 31, "is_primary": true}, {"id": 2321152, "title": "Tabaluga. Volume 3", "work_id": 93841, "role": "producer/director", "role_id": 31, "is_primary": true}, {"id": 2119201, "title": "[Yoram Gross materials]", "work_id": 116564, "role": "producer/director", "role_id": 31, "is_primary": true}, {"id": 2335566, "title": "The Camel boy", "work_id": 84004, "role": "producer/director", "role_id": 31, "is_primary": true}, {"id": 2118920, "title": "Blinky Bill (Captioned)", "work_id": 84217, "role": "producer/director", "role_id": 31, "is_primary": true}, {"id": 2118975, "title": "Blinky Bill", "work_id": 83201, "role": "producer/director", "role_id": 31, "is_primary": true}, {"id": 2262293, "title": "Sarah: the seventh match", "work_id": 82914, "role": "producer/director", "role_id": 31, "is_primary": true}], "also_known_as": "", "date_of_birth": "1926-10-18", "date_of_death": "2015-09-21", "genders": [{"id": 9, "name": "Male", "slug": "male"}], "languages": [{"id": 1, "name": "English", "slug": "english"}], "places_of_operation": [{"id": 3, "name": "Australia", "slug": "australia"}], "biography": "Yoram Jerzy Gross  (18 October 1926 – 21 September 2015) was a Polish-born, Australian producer of children's and family entertainment. \nHe was known for his adaptation of children's characters from books and films, and best known for the production of the films Dot and the Kangaroo and Blinky Bill: The Mischievous Koala.", "biography_author": "Wikidata", "date_of_biography": "2023-09-06T02:23:03.216204+10:00", "external_links": [{"id": 5374, "uri": "https://en.wikipedia.org/wiki/Yoram_Gross"}], "uuid": "9b3f329b-4080-4622-a397-cf64921b9fd7", "source": {"name": "Vernon", "slug": "vernon"}, "source_identifier": "4044", "external_references": [{"id": 25953, "source": {"name": "Wikidata", "slug": "wikidata"}, "source_identifier": "Q54855"}, {"id": 32077, "source": {"name": "VIAF", "slug": "viaf"}, "source_identifier": "228008707"}, {"id": 32078, "source": {"name": "LOC Auth", "slug": "loc-auth"}, "source_identifier": "n85389593"}, {"id": 32079, "source": {"name": "WorldCat", "slug": "worldcat"}, "source_identifier": "lccn-n85389593"}], "date_modified": "2025-03-12T00:50:48.602623+11:00"}, {"id": 74657, "name": "Neil Davis", "roles_in_work": [{"id": 2368978, "title": "Frontline", "work_id": 76070, "role": "cast", "role_id": 33, "is_primary": false}, {"id": 2713721, "title": "First aid on the dairy farm", "work_id": 67552, "role": "cinematographer", "role_id": 32, "is_primary": false}], "also_known_as": "", "date_of_birth": "1934", "date_of_death": "1985", "genders": [], "languages": [], "places_of_operation": [], "biography": "", "biography_author": null, "date_of_biography": "2023-06-27T16:57:00.132630+10:00", "external_links": [], "uuid": "9548de01-b2e9-496d-a4b8-119f65a65aa0", "source": {"name": "Vernon", "slug": "vernon"}, "source_identifier": "32876", "external_references": [{"id": 35272, "source": {"name": "Wikidata", "slug": "wikidata"}, "source_identifier": "Q121299553"}], "date_modified": "2025-03-12T00:50:46.815544+11:00"}, {"id": 74656, "name": "William Alwyn", "roles_in_work": [{"id": 2072518, "title": "A Night to remember [DVD]", "work_id": 90686, "role": "music", "role_id": 949, "is_primary": false}, {"id": 2616175, "title": "A Night to remember (Captioned)", "work_id": 86829, "role": "music", "role_id": 949, "is_primary": false}, {"id": 2616211, "title": "The Card", "work_id": 86856, "role": "music", "role_id": 949, "is_primary": false}, {"id": 2713700, "title": "Fires were started", "work_id": 67541, "role": "music", "role_id": 949, "is_primary": false}, {"id": 1865032, "title": "The Seekers: land of fury", "work_id": 87386, "role": "music", "role_id": 949, "is_primary": false}, {"id": 2476634, "title": "I See a dark stranger = The Adventuress", "work_id": 82494, "role": "music", "role_id": 949, "is_primary": false}, {"id": 2476240, "title": "The Magic box", "work_id": 90484, "role": "music", "role_id": 949, "is_primary": false}, {"id": 2475670, "title": "The October man", "work_id": 84661, "role": "music", "role_id": 949, "is_primary": false}, {"id": 2347771, "title": "The Fallen idol. The Winslow boy", "work_id": 87885, "role": "music", "role_id": 949, "is_primary": false}, {"id": 1998151, "title": "Odd man out", "work_id": 93644, "role": "music", "role_id": 949, "is_primary": false}, {"id": 2320658, "title": "Swiss Family Robinson", "work_id": 84253, "role": "music", "role_id": 949, "is_primary": false}], "also_known_as": "", "date_of_birth": "1905-11-07", "date_of_death": "1985-09-11", "genders": [{"id": 9, "name": "Male", "slug": "male"}], "languages": [{"id": 1, "name": "English", "slug": "english"}], "places_of_operation": [{"id": 10, "name": "United Kingdom", "slug": "united-kingdom"}], "biography": "William Alwyn  (born William Alwyn Smith; 7 November 1905 – 11 September 1985), was an English composer, conductor, and music teacher.; 17/08/2023", "biography_author": null, "date_of_biography": "2025-03-12T00:50:27.517976+11:00", "external_links": [{"id": 5343, "uri": "https://en.wikipedia.org/wiki/William_Alwyn"}], "uuid": "c2cea00a-e798-40c9-b74b-f80425a49e9b", "source": {"name": "Vernon", "slug": "vernon"}, "source_identifier": "31483", "external_references": [{"id": 25221, "source": {"name": "Wikidata", "slug": "wikidata"}, "source_identifier": "Q541685"}, {"id": 31985, "source": {"name": "VIAF", "slug": "viaf"}, "source_identifier": "1145857762023020847"}, {"id": 31986, "source": {"name": "LOC Auth", "slug": "loc-auth"}, "source_identifier": "n79108037"}, {"id": 31987, "source": {"name": "WorldCat", "slug": "worldcat"}, "source_identifier": "lccn-n79108037"}], "date_modified": "2025-03-12T00:50:27.518296+11:00"}, {"id": 74655, "name": "Robert Bas", "roles_in_work": [{"id": 2713638, "title": "Finale", "work_id": 67511, "role": "co-director", "role_id": 959, "is_primary": true}], "also_known_as": "", "date_of_birth": "", "date_of_death": "", "genders": [], "languages": [], "places_of_operation": [], "biography": "", "biography_author": null, "date_of_biography": "2023-05-09T16:53:08.940974+10:00", "external_links": [], "uuid": "0923e5a3-5be0-4942-8af4-ba1f0d2f8592", "source": {"name": "Vernon", "slug": "vernon"}, "source_identifier": "27647", "external_references": [{"id": 35119, "source": {"name": "Wikidata", "slug": "wikidata"}, "source_identifier": "Q121036217"}], "date_modified": "2025-03-12T00:47:56.434939+11:00"}, {"id": 74654, "name": "Bruce A. Block", "roles_in_work": [{"id": 2760675, "title": "Editing", "work_id": 67496, "role": "director", "role_id": 938, "is_primary": true}, {"id": 2760672, "title": "Camera", "work_id": 67495, "role": "director", "role_id": 938, "is_primary": true}, {"id": 2174745, "title": "Meat and poultry: how to select them", "work_id": 97563, "role": "director", "role_id": 938, "is_primary": true}], "also_known_as": "", "date_of_birth": "", "date_of_death": "", "genders": [], "languages": [], "places_of_operation": [], "biography": "", "biography_author": null, "date_of_biography": "2023-05-09T15:53:12.096248+10:00", "external_links": [], "uuid": "e9fad507-736a-4db7-8541-29f68b3abd20", "source": {"name": "Vernon", "slug": "vernon"}, "source_identifier": "16283", "external_references": [{"id": 40627, "source": {"name": "Wikidata", "slug": "wikidata"}, "source_identifier": "Q120697271"}], "date_modified": "2025-03-14T17:27:07.814950+11:00"}, {"id": 74653, "name": "Paul Aratow", "roles_in_work": [{"id": 2644791, "title": "Film graphics: abstract aspect of editing", "work_id": 67492, "role": "co-producer", "role_id": 915, "is_primary": true}], "also_known_as": "", "date_of_birth": "", "date_of_death": "", "genders": [], "languages": [], "places_of_operation": [], "biography": "", "biography_author": null, "date_of_biography": "2023-05-09T16:52:06.698516+10:00", "external_links": [], "uuid": "59dc5122-6e01-4ffd-925f-f3e3866cfbcf", "source": {"name": "Vernon", "slug": "vernon"}, "source_identifier": "26162", "external_references": [{"id": 36941, "source": {"name": "Wikidata", "slug": "wikidata"}, "source_identifier": "Q121036899"}], "date_modified": "2025-03-05T12:26:18.340549+11:00"}, {"id": 74652, "name": "Donald Peters", "roles_in_work": [{"id": 2308301, "title": "Stagecoach to the stars", "work_id": 73150, "role": "director", "role_id": 938, "is_primary": true}, {"id": 2714563, "title": "The Gentle art of film projection", "work_id": 67987, "role": "director", "role_id": 938, "is_primary": true}, {"id": 855245, "title": "Men at work", "work_id": 70296, "role": "director", "role_id": 938, "is_primary": true}, {"id": 2713586, "title": "Film and you", "work_id": 67482, "role": "co-director", "role_id": 959, "is_primary": true}, {"id": 2313441, "title": "Story of Peter and the Potter", "work_id": 73246, "role": "producer/director", "role_id": 31, "is_primary": true}], "also_known_as": "", "date_of_birth": "", "date_of_death": "", "genders": [], "languages": [], "places_of_operation": [], "biography": "", "biography_author": null, "date_of_biography": "2023-05-09T19:55:10.606056+10:00", "external_links": [], "uuid": "0dd48667-7fdd-452f-b66f-d708d329fbce", "source": {"name": "Vernon", "slug": "vernon"}, "source_identifier": "18245", "external_references": [{"id": 43551, "source": {"name": "Wikidata", "slug": "wikidata"}, "source_identifier": "Q121036035"}], "date_modified": "2025-03-12T01:15:19.202557+11:00"}, {"id": 74651, "name": "Ernest Lindgren", "roles_in_work": [{"id": 2713582, "title": "Film and reality", "work_id": 67481, "role": "co-director", "role_id": 959, "is_primary": true}], "also_known_as": "", "date_of_birth": "", "date_of_death": "", "genders": [], "languages": [], "places_of_operation": [], "biography": "", "biography_author": null, "date_of_biography": "2023-05-09T16:51:34.727778+10:00", "external_links": [], "uuid": "31c85d68-82db-4b60-9648-555b553321af", "source": {"name": "Vernon", "slug": "vernon"}, "source_identifier": "18868", "external_references": [{"id": 38419, "source": {"name": "Wikidata", "slug": "wikidata"}, "source_identifier": "Q121126084"}], "date_modified": "2025-03-12T00:47:11.589886+11:00"}, {"id": 74650, "name": "Lawrence Cherry", "roles_in_work": [{"id": 870710, "title": "Forest fire suppression [B&W]", "work_id": 86505, "role": "director", "role_id": 938, "is_primary": true}, {"id": 761991, "title": "The Pony", "work_id": 76453, "role": "director", "role_id": 938, "is_primary": true}, {"id": 2713567, "title": "Fighting forest fires with hand tools", "work_id": 67474, "role": "director", "role_id": 938, "is_primary": true}, {"id": 2713570, "title": "Fighting forest fires with power pumps", "work_id": 67475, "role": "director", "role_id": 938, "is_primary": true}, {"id": 2714044, "title": "Forest fire suppression", "work_id": 67721, "role": "director", "role_id": 938, "is_primary": true}, {"id": 908137, "title": "Hog family 'supreme'", "work_id": 88528, "role": "co-director", "role_id": 959, "is_primary": true}, {"id": 908136, "title": "Hog family 'supreme'", "work_id": 88528, "role": "co-producer", "role_id": 915, "is_primary": true}, {"id": 2165076, "title": "Mastitus: disease of the udder", "work_id": 70190, "role": "co-producer", "role_id": 915, "is_primary": true}, {"id": 2313475, "title": "Story of standards", "work_id": 73252, "role": "producer", "role_id": 1089, "is_primary": true}, {"id": 2134098, "title": "Central experimental farm", "work_id": 85798, "role": "producer/director", "role_id": 31, "is_primary": true}], "also_known_as": "", "date_of_birth": null, "date_of_death": "1966-11-15", "genders": [{"id": 9, "name": "Male", "slug": "male"}], "languages": [], "places_of_operation": [{"id": 36, "name": "Canada", "slug": "canada"}], "biography": "", "biography_author": null, "date_of_biography": "2023-05-09T19:00:57.229776+10:00", "external_links": [], "uuid": "4328cb04-3141-41b2-b562-4b2bca04374d", "source": {"name": "Vernon", "slug": "vernon"}, "source_identifier": "4905", "external_references": [{"id": 35682, "source": {"name": "Wikidata", "slug": "wikidata"}, "source_identifier": "Q3219887"}, {"id": 55036, "source": {"name": "VIAF", "slug": "viaf"}, "source_identifier": "5494150085887315060008"}, {"id": 55037, "source": {"name": "LOC Auth", "slug": "loc-auth"}, "source_identifier": "no2017092718"}, {"id": 55038, "source": {"name": "WorldCat", "slug": "worldcat"}, "source_identifier": "lccn-no2017092718"}], "date_modified": "2025-03-12T01:00:28.100026+11:00"}, {"id": 74649, "name": "Joern Utzon", "roles_in_work": [{"id": 2713541, "title": "The Fifth facade", "work_id": 67459, "role": "narrator", "role_id": 499, "is_primary": false}], "also_known_as": "", "date_of_birth": "", "date_of_death": "", "genders": [{"id": 9, "name": "Male", "slug": "male"}], "languages": [], "places_of_operation": [], "biography": "", "biography_author": null, "date_of_biography": "2023-05-09T19:51:24.863733+10:00", "external_links": [], "uuid": "edcff8aa-673b-4c7d-9792-47110c023be9", "source": {"name": "Vernon", "slug": "vernon"}, "source_identifier": "37454", "external_references": [], "date_modified": "2025-03-12T00:46:38.540585+11:00"}]}