{"count": 28687, "next": "https://api.acmi.net.au/creators/?page=1822", "previous": "https://api.acmi.net.au/creators/?page=1820", "results": [{"id": 25930, "name": "River Road Productions", "roles_in_work": [{"id": 2120671, "title": "Blood simple", "work_id": 83805, "role": "production company", "role_id": 941, "is_primary": true}], "also_known_as": "", "date_of_birth": "", "date_of_death": "", "genders": [], "languages": [], "places_of_operation": [], "biography": "", "biography_author": null, "date_of_biography": "2023-05-09T13:03:08.303099+10:00", "external_links": [], "uuid": "954dbce2-473e-4e8c-a206-2a28997f397b", "source": {"name": "Vernon", "slug": "vernon"}, "source_identifier": "12038", "external_references": [{"id": 38519, "source": {"name": "Wikidata", "slug": "wikidata"}, "source_identifier": "Q121271470"}], "date_modified": "2023-09-06T00:36:29.116645+10:00"}, {"id": 25924, "name": "Kelvin Hogarth", "roles_in_work": [{"id": 2143987, "title": "Conquering the continent", "work_id": 83801, "role": "producer", "role_id": 1089, "is_primary": true}], "also_known_as": "", "date_of_birth": "", "date_of_death": "", "genders": [], "languages": [], "places_of_operation": [], "biography": "", "biography_author": null, "date_of_biography": "2023-05-09T13:42:56.475565+10:00", "external_links": [], "uuid": "60a99fad-c390-4357-b2de-69ecde1a8c4e", "source": {"name": "Vernon", "slug": "vernon"}, "source_identifier": "23167", "external_references": [{"id": 32976, "source": {"name": "Wikidata", "slug": "wikidata"}, "source_identifier": "Q121034680"}], "date_modified": "2023-09-05T22:04:10.771032+10:00"}, {"id": 25923, "name": "Outback Explorers Video Productions", "roles_in_work": [{"id": 2143984, "title": "Conquering the continent", "work_id": 83801, "role": "production company", "role_id": 941, "is_primary": true}, {"id": 783499, "title": "Desert parks: the how to travel video", "work_id": 83803, "role": "production company", "role_id": 941, "is_primary": true}], "also_known_as": "", "date_of_birth": "", "date_of_death": "", "genders": [], "languages": [], "places_of_operation": [], "biography": "", "biography_author": null, "date_of_biography": "2023-05-09T13:42:56.221289+10:00", "external_links": [], "uuid": "06c39bd0-0340-4f97-b9aa-e2ee5e308acc", "source": {"name": "Vernon", "slug": "vernon"}, "source_identifier": "11198", "external_references": [{"id": 42715, "source": {"name": "Wikidata", "slug": "wikidata"}, "source_identifier": "Q121035779"}], "date_modified": "2023-09-05T23:38:15.625109+10:00"}, {"id": 25922, "name": "Hollywood House", "roles_in_work": [{"id": 2176752, "title": "Oops those Hollywood bloopers", "work_id": 93278, "role": "production company", "role_id": 941, "is_primary": true}, {"id": 867700, "title": "Trial at Nuremberg. Facing judgement.", "work_id": 83800, "role": "production company", "role_id": 941, "is_primary": true}], "also_known_as": "", "date_of_birth": "", "date_of_death": "", "genders": [], "languages": [], "places_of_operation": [], "biography": "", "biography_author": null, "date_of_biography": "2023-05-09T14:46:30.524987+10:00", "external_links": [], "uuid": "4860512c-8382-4582-ba4c-2b873f2fc9cf", "source": {"name": "Vernon", "slug": "vernon"}, "source_identifier": "9127", "external_references": [{"id": 39437, "source": {"name": "Wikidata", "slug": "wikidata"}, "source_identifier": "Q121337511"}], "date_modified": "2023-09-05T20:40:47.033394+10:00"}, {"id": 25917, "name": "Jo Lane", "roles_in_work": [{"id": 2407593, "title": "Flying the flag : the story of the Eureka flag", "work_id": 85993, "role": "director", "role_id": 938, "is_primary": true}, {"id": 2616039, "title": "We the jury", "work_id": 86702, "role": "director", "role_id": 938, "is_primary": true}, {"id": 902914, "title": "Life at Little Lon", "work_id": 83794, "role": "director", "role_id": 938, "is_primary": true}, {"id": 791292, "title": "Glued to the telly", "work_id": 85882, "role": "director", "role_id": 938, "is_primary": true}], "also_known_as": "", "date_of_birth": "", "date_of_death": "", "genders": [], "languages": [], "places_of_operation": [], "biography": "", "biography_author": null, "date_of_biography": "2023-08-11T16:40:39.250928+10:00", "external_links": [], "uuid": "dfb9b8bd-3134-4f74-97f5-2cc1af3c1a6f", "source": {"name": "Vernon", "slug": "vernon"}, "source_identifier": "21953", "external_references": [], "date_modified": "2025-02-26T20:33:05.677813+11:00"}, {"id": 25915, "name": "Philip Tyndall", "roles_in_work": [{"id": 2524125, "title": "Words and silk", "work_id": 83792, "role": "co-producer", "role_id": 915, "is_primary": true}, {"id": 2524127, "title": "Words and silk", "work_id": 83792, "role": "director", "role_id": 938, "is_primary": true}], "also_known_as": "", "date_of_birth": null, "date_of_death": null, "genders": [], "languages": [], "places_of_operation": [], "biography": "", "biography_author": null, "date_of_biography": null, "external_links": [], "uuid": "92c28f48-a7fd-48b9-9a80-862af8f28417", "source": {"name": "Vernon", "slug": "vernon"}, "source_identifier": "26843", "external_references": [], "date_modified": "2024-06-12T03:35:25.518288+10:00"}, {"id": 25914, "name": "Kangaroo Films", "roles_in_work": [{"id": 2524124, "title": "Words and silk", "work_id": 83792, "role": "production company", "role_id": 941, "is_primary": true}], "also_known_as": "", "date_of_birth": null, "date_of_death": null, "genders": [], "languages": [], "places_of_operation": [], "biography": "", "biography_author": null, "date_of_biography": null, "external_links": [], "uuid": "21c36c3a-23fd-4db6-a5d5-cc04d92c00d1", "source": {"name": "Vernon", "slug": "vernon"}, "source_identifier": "9699", "external_references": [], "date_modified": "2024-06-12T03:35:23.545732+10:00"}, {"id": 25913, "name": "Luigi Acquisto", "roles_in_work": [{"id": 2213111, "title": "East Timor: birth of a nation", "work_id": 94965, "role": "co-director", "role_id": 959, "is_primary": true}, {"id": 902901, "title": "Collectors", "work_id": 83791, "role": "co-producer", "role_id": 915, "is_primary": true}, {"id": 2213102, "title": "East Timor: birth of a nation", "work_id": 94965, "role": "co-producer", "role_id": 915, "is_primary": true}, {"id": 2133766, "title": "Cat's cradle", "work_id": 83973, "role": "producer", "role_id": 1089, "is_primary": true}, {"id": 1813817, "title": "Black dogs", "work_id": 83978, "role": "producer", "role_id": 1089, "is_primary": true}, {"id": 1816198, "title": "Forget me not", "work_id": 92089, "role": "producer", "role_id": 1089, "is_primary": true}, {"id": 1806472, "title": "Hot curry cowboy", "work_id": 87533, "role": "producer", "role_id": 1089, "is_primary": true}, {"id": 2774663, "title": "Girls in schools", "work_id": 99274, "role": "producer/director", "role_id": 31, "is_primary": true}, {"id": 2774661, "title": "You jump, you fly: a multicultural textile project linking health and art", "work_id": 84523, "role": "producer/director", "role_id": 31, "is_primary": true}], "also_known_as": "", "date_of_birth": "", "date_of_death": "", "genders": [], "languages": [], "places_of_operation": [], "biography": "", "biography_author": null, "date_of_biography": "2023-05-09T19:29:43.166608+10:00", "external_links": [], "uuid": "ac7996b0-7369-4b2f-9243-f81990d823d6", "source": {"name": "Vernon", "slug": "vernon"}, "source_identifier": "24095", "external_references": [{"id": 40687, "source": {"name": "Wikidata", "slug": "wikidata"}, "source_identifier": "Q121143598"}], "date_modified": "2025-03-14T18:39:04.332027+11:00"}, {"id": 25904, "name": "Sigma Film Productions", "roles_in_work": [{"id": 2178403, "title": "Orlando", "work_id": 83785, "role": "production company", "role_id": 941, "is_primary": true}, {"id": 2246446, "title": "For a lost soldier = Voor een verloren soldaat", "work_id": 87168, "role": "production company", "role_id": 941, "is_primary": true}], "also_known_as": "", "date_of_birth": "", "date_of_death": "", "genders": [], "languages": [], "places_of_operation": [], "biography": "", "biography_author": null, "date_of_biography": "2023-05-09T17:03:31.842829+10:00", "external_links": [], "uuid": "0c5db0ee-aeec-4cea-935b-0d6c37b24db5", "source": {"name": "Vernon", "slug": "vernon"}, "source_identifier": "3911", "external_references": [{"id": 36465, "source": {"name": "Wikidata", "slug": "wikidata"}, "source_identifier": "Q121143611"}], "date_modified": "2023-09-06T01:19:03.970574+10:00"}, {"id": 25903, "name": "Mikado Film Srl (Rome)", "roles_in_work": [{"id": 1995578, "title": "The Red violin = Le Violon rouge = Violino rosso, Il", "work_id": 91809, "role": "production company", "role_id": 941, "is_primary": true}, {"id": 2178398, "title": "Orlando", "work_id": 83785, "role": "production company", "role_id": 941, "is_primary": true}, {"id": 2337143, "title": "The Circle = Dayereh = Il Cerchio [Widescreen]", "work_id": 100500, "role": "production company", "role_id": 941, "is_primary": true}, {"id": 2337129, "title": "The Circle = Dayereh = Il Cerchio [DVD]", "work_id": 93656, "role": "production company", "role_id": 941, "is_primary": true}, {"id": 2337161, "title": "The Circle = Dayereh = Il Cerchio [Widescreen] [NTSC]", "work_id": 100498, "role": "production company", "role_id": 941, "is_primary": true}], "also_known_as": "", "date_of_birth": "1984", "date_of_death": "", "genders": [], "languages": [], "places_of_operation": [], "biography": "", "biography_author": null, "date_of_biography": "2023-05-09T19:33:44.275534+10:00", "external_links": [], "uuid": "d5132831-33f2-4d6c-99b3-5b59c1b72740", "source": {"name": "Vernon", "slug": "vernon"}, "source_identifier": "4880", "external_references": [{"id": 35568, "source": {"name": "Wikidata", "slug": "wikidata"}, "source_identifier": "Q121160026"}], "date_modified": "2023-09-05T23:14:19.303171+10:00"}]}