{"count": 28687, "next": "https://api.acmi.net.au/creators/?page=2846", "previous": "https://api.acmi.net.au/creators/?page=2844", "results": [{"id": 7099, "name": "Dia Center for the Arts", "roles_in_work": [{"id": 2710051, "title": "Fantastic prayers", "work_id": 108231, "role": "publisher", "role_id": 942, "is_primary": true}], "also_known_as": "", "date_of_birth": "", "date_of_death": "", "genders": [], "languages": [], "places_of_operation": [], "biography": "", "biography_author": null, "date_of_biography": "2023-05-09T16:28:26.636873+10:00", "external_links": [], "uuid": "92e85390-0303-4d4f-8b4a-fca0a8815555", "source": {"name": "Vernon", "slug": "vernon"}, "source_identifier": "1714", "external_references": [], "date_modified": "2025-03-11T23:21:29.794826+11:00"}, {"id": 7097, "name": "Constance De Jong", "roles_in_work": [{"id": 2710040, "title": "Fantastic prayers", "work_id": 108231, "role": "creator", "role_id": 968, "is_primary": true}, {"id": 2710036, "title": "Fantastic prayers", "work_id": 108231, "role": "collaborator", "role_id": 536, "is_primary": false}, {"id": 2710043, "title": "Fantastic prayers", "work_id": 108231, "role": "writer", "role_id": 939, "is_primary": true}], "also_known_as": "", "date_of_birth": "", "date_of_death": "", "genders": [], "languages": [], "places_of_operation": [], "biography": "Constance De Jong is a writer and performer based in New York. She has worked in avante-garde performance and installation and has published a number of books including 'ITILOE' and 'Modern Love'. De Jong has collaborated extensively with artist Tony Oursler in works such as the CD-Rom 'Fantastic Prayers', the video piece 'Joyride TM' and the theatrical performance 'Relatives'. She is also the author of the libretto for 'Satyagraha', an opera written by Philip Glass.", "biography_author": null, "date_of_biography": "2025-03-11T23:21:27.026696+11:00", "external_links": [], "uuid": "5ddf2926-ce67-4791-bb3e-d2cacd7a47b0", "source": {"name": "Vernon", "slug": "vernon"}, "source_identifier": "110712", "external_references": [{"id": 39582, "source": {"name": "Wikidata", "slug": "wikidata"}, "source_identifier": "Q121126310"}], "date_modified": "2025-03-11T23:21:27.026950+11:00"}, {"id": 7092, "name": "Martin Murphy", "roles_in_work": [{"id": 2629837, "title": "Nightride", "work_id": 108578, "role": "director", "role_id": 938, "is_primary": true}, {"id": 809976, "title": "The Adventures of Handyman", "work_id": 92027, "role": "director", "role_id": 938, "is_primary": true}, {"id": 810062, "title": "Nightride", "work_id": 92048, "role": "director", "role_id": 938, "is_primary": true}, {"id": 2640822, "title": "Nightride", "work_id": 110383, "role": "director", "role_id": 938, "is_primary": true}, {"id": 2711497, "title": "Vern's update", "work_id": 112627, "role": "creator", "role_id": 968, "is_primary": true}, {"id": 2640823, "title": "Nightride", "work_id": 110383, "role": "writer", "role_id": 939, "is_primary": true}, {"id": 2629838, "title": "Nightride", "work_id": 108578, "role": "writer", "role_id": 939, "is_primary": true}], "also_known_as": "", "date_of_birth": "", "date_of_death": "", "genders": [], "languages": [], "places_of_operation": [], "biography": "", "biography_author": null, "date_of_biography": "2023-05-09T19:46:03.101763+10:00", "external_links": [], "uuid": "570aec54-2d6d-4cb7-bdc9-e50dd293fe5c", "source": {"name": "Vernon", "slug": "vernon"}, "source_identifier": "110840", "external_references": [{"id": 33446, "source": {"name": "Wikidata", "slug": "wikidata"}, "source_identifier": "Q113586169"}], "date_modified": "2025-03-11T23:52:59.915998+11:00"}, {"id": 7091, "name": "Hiroyuki Yamaga", "roles_in_work": [{"id": 2279999, "title": "Wings of Honneamise", "work_id": 89968, "role": "director", "role_id": 938, "is_primary": true}], "also_known_as": "", "date_of_birth": "1962-01-01", "date_of_death": "", "genders": [{"id": 9, "name": "Male", "slug": "male"}], "languages": [], "places_of_operation": [{"id": 8, "name": "Japan", "slug": "japan"}], "biography": "Hiroyuki Yamaga (山賀 博之, Yamaga Hiroyuki) is a Japanese anime director and producer, and a founding member of the animation studio Gainax. He is best known for directing the film Royal Space Force: The Wings of Honnêamise (1987) at age 24, directing Mahoromatic (2001), Magical Shopping Arcade Abenobashi (2002), and an episode of Gurren Lagann (2007). Yamaga also wrote the screenplay for Gundam 0080 (1989). \nHe is portrayed by actor Tsuyoshi Muro in the 2014 TV Drama Aoi Honō based on the autobiographical manga by his fellow Osaka University of Arts alumnus Kazuhiko Shimamoto.", "biography_author": "Wikidata", "date_of_biography": "2023-08-01T15:11:57.859460+10:00", "external_links": [{"id": 4164, "uri": "https://en.wikipedia.org/wiki/Hiroyuki_Yamaga"}], "uuid": "669251e9-ce67-4af7-abe9-186a57b5ec1d", "source": {"name": "Vernon", "slug": "vernon"}, "source_identifier": "1388", "external_references": [{"id": 26453, "source": {"name": "Wikidata", "slug": "wikidata"}, "source_identifier": "Q5771603"}, {"id": 28935, "source": {"name": "VIAF", "slug": "viaf"}, "source_identifier": "36717565"}, {"id": 28936, "source": {"name": "LOC Auth", "slug": "loc-auth"}, "source_identifier": "no2008016897"}, {"id": 28937, "source": {"name": "WorldCat", "slug": "worldcat"}, "source_identifier": "lccn-no2008016897"}], "date_modified": "2023-09-05T20:40:34.025874+10:00"}, {"id": 7090, "name": "Romy Achituv", "roles_in_work": [], "also_known_as": "", "date_of_birth": "", "date_of_death": "", "genders": [], "languages": [], "places_of_operation": [], "biography": "", "biography_author": null, "date_of_biography": "2023-08-14T10:59:52.868154+10:00", "external_links": [], "uuid": "7eb10924-0c44-4080-8755-6cace1a34b5e", "source": {"name": "Vernon", "slug": "vernon"}, "source_identifier": "111453", "external_references": [], "date_modified": "2026-05-20T19:09:47.833501+10:00"}, {"id": 7089, "name": "Camille Utterback", "roles_in_work": [], "also_known_as": "", "date_of_birth": "", "date_of_death": "", "genders": [], "languages": [], "places_of_operation": [], "biography": "", "biography_author": null, "date_of_biography": "2023-08-14T10:59:52.249166+10:00", "external_links": [], "uuid": "0fce3def-b815-4ebe-85b2-a11675f976fa", "source": {"name": "Vernon", "slug": "vernon"}, "source_identifier": "110689", "external_references": [], "date_modified": "2026-05-20T19:09:47.091938+10:00"}, {"id": 7088, "name": "Emily Weil", "roles_in_work": [{"id": 2748215, "title": "Platform 1", "work_id": 108271, "role": "creator", "role_id": 968, "is_primary": true}, {"id": 2748217, "title": "Platform 1", "work_id": 108271, "role": "principal", "role_id": 461, "is_primary": false}], "also_known_as": "", "date_of_birth": null, "date_of_death": null, "genders": [], "languages": [], "places_of_operation": [], "biography": "", "biography_author": null, "date_of_biography": null, "external_links": [], "uuid": "5f219b2c-3b8b-4073-b255-269ddee1a431", "source": {"name": "Vernon", "slug": "vernon"}, "source_identifier": "110775", "external_references": [], "date_modified": "2025-03-12T22:57:40.711086+11:00"}, {"id": 7086, "name": "Golan Levin", "roles_in_work": [{"id": 2710023, "title": "Audio visual environment suite", "work_id": 108227, "role": "composer", "role_id": 538, "is_primary": false}, {"id": 2710026, "title": "Audio visual environment suite", "work_id": 108227, "role": "creator", "role_id": 968, "is_primary": true}, {"id": 2710015, "title": "Audio visual environment suite", "work_id": 108227, "role": "director", "role_id": 938, "is_primary": true}, {"id": 2710017, "title": "Audio visual environment suite", "work_id": 108227, "role": "programmer", "role_id": 483, "is_primary": false}], "also_known_as": "", "date_of_birth": "", "date_of_death": "", "genders": [], "languages": [], "places_of_operation": [], "biography": "", "biography_author": null, "date_of_biography": "2023-08-11T14:27:29.866858+10:00", "external_links": [], "uuid": "ba9f4329-86bc-4f78-b103-13cfb31baf17", "source": {"name": "Vernon", "slug": "vernon"}, "source_identifier": "110695", "external_references": [], "date_modified": "2025-03-11T23:21:18.496617+11:00"}, {"id": 7085, "name": "David Charles", "roles_in_work": [{"id": 2710007, "title": "Fell", "work_id": 108226, "role": "creator", "role_id": 968, "is_primary": true}], "also_known_as": "", "date_of_birth": "", "date_of_death": "", "genders": [], "languages": [], "places_of_operation": [], "biography": "", "biography_author": null, "date_of_biography": "2023-05-09T15:08:56.508408+10:00", "external_links": [], "uuid": "d97dd6d5-9cac-4889-a1b1-8e5619d884ab", "source": {"name": "Vernon", "slug": "vernon"}, "source_identifier": "111099", "external_references": [], "date_modified": "2025-03-11T23:21:08.532397+11:00"}, {"id": 7078, "name": "Wesley Enoch", "roles_in_work": [{"id": 2710003, "title": "Grace", "work_id": 108224, "role": "creator", "role_id": 968, "is_primary": true}], "also_known_as": "", "date_of_birth": "", "date_of_death": "", "genders": [], "languages": [], "places_of_operation": [], "biography": "", "biography_author": null, "date_of_biography": "2023-08-11T17:06:59.673802+10:00", "external_links": [], "uuid": "0b7b5b63-b561-4217-b8f1-3bef79b7d1bf", "source": {"name": "Vernon", "slug": "vernon"}, "source_identifier": "1404", "external_references": [], "date_modified": "2025-03-11T23:21:05.755654+11:00"}]}