{"count": 28682, "next": "https://api.acmi.net.au/creators/?page=1867", "previous": "https://api.acmi.net.au/creators/?page=1865", "results": [{"id": 25130, "name": "Objektiv Filmstudio Vallalat", "roles_in_work": [{"id": 1986721, "title": "Hanussen", "work_id": 83021, "role": "production company", "role_id": 941, "is_primary": true}, {"id": 811526, "title": "Angi Vera", "work_id": 92472, "role": "production company", "role_id": 941, "is_primary": true}, {"id": 2349732, "title": "The Gambler", "work_id": 93153, "role": "production company", "role_id": 941, "is_primary": true}], "also_known_as": "", "date_of_birth": "", "date_of_death": "", "genders": [], "languages": [], "places_of_operation": [], "biography": "", "biography_author": null, "date_of_biography": "2023-05-09T19:54:05.675515+10:00", "external_links": [], "uuid": "3987bdf9-f7a2-424c-93bb-47b017627536", "source": {"name": "Vernon", "slug": "vernon"}, "source_identifier": "11069", "external_references": [{"id": 41042, "source": {"name": "Wikidata", "slug": "wikidata"}, "source_identifier": "Q121299400"}], "date_modified": "2023-09-05T23:35:17.037388+10:00"}, {"id": 25128, "name": "Barbet Schroeder", "roles_in_work": [{"id": 883417, "title": "Mistress = Maitresse (D)", "work_id": 93719, "role": "director", "role_id": 938, "is_primary": true}, {"id": 2650262, "title": "Six in Paris = Paris vu par ...", "work_id": 83029, "role": "director", "role_id": 938, "is_primary": true}, {"id": 2785790, "title": "The Collector girl = La Collectionneuse", "work_id": 83016, "role": "co-producer", "role_id": 915, "is_primary": true}, {"id": 2614370, "title": "The Marquise of O... = Die Marquise von O...", "work_id": 83586, "role": "co-producer", "role_id": 915, "is_primary": true}, {"id": 3110512, "title": "Celine and Julie go boating = Celine et Julie vont en bateau", "work_id": 83023, "role": "producer", "role_id": 1089, "is_primary": true}, {"id": 3110516, "title": "Celine et Julie Vont En Bateau = Celine and Julie Go Boating", "work_id": 116096, "role": "producer", "role_id": 1089, "is_primary": true}, {"id": 3104418, "title": "La Collectionneuse = the Collector Girl", "work_id": 115905, "role": "producer", "role_id": 1089, "is_primary": true}, {"id": 3104456, "title": "Ma Nuit Chez Maud = My Night with Maud", "work_id": 115922, "role": "producer", "role_id": 1089, "is_primary": true}, {"id": 3104955, "title": "La Carriere de Suzanne = Suzanne's Career", "work_id": 116167, "role": "producer", "role_id": 1089, "is_primary": true}, {"id": 3104606, "title": "Le Pont du Nord = North Bridge", "work_id": 115996, "role": "producer", "role_id": 1089, "is_primary": true}], "also_known_as": "", "date_of_birth": "1941-08-26", "date_of_death": null, "genders": [{"id": 9, "name": "Male", "slug": "male"}], "languages": [{"id": 4, "name": "French", "slug": "french"}], "places_of_operation": [{"id": 17, "name": "France", "slug": "france"}], "biography": "Barbet Schroeder (born 26 August 1941) is an Iranian-born Swiss film director and producer who started his career in French cinema in the 1960s, working with directors such as Jean-Luc Godard and Jacques Rivette. Since the late 1980s, he has directed many big budget Hollywood films, often mixing melodrama with the thriller genre in films like Single White Female, Kiss of Death, and Murder by Numbers. He has been nominated for the Palme d'Or for his 1987 film Barfly.", "biography_author": "Wikidata", "date_of_biography": "2022-05-19T10:53:59.749653+10:00", "external_links": [{"id": 1695, "uri": "https://en.wikipedia.org/wiki/Barbet_Schroeder"}], "uuid": "e469a031-af0b-47a1-8ce1-17005b1ea3ee", "source": {"name": "Vernon", "slug": "vernon"}, "source_identifier": "15676", "external_references": [{"id": 7396, "source": {"name": "Wikidata", "slug": "wikidata"}, "source_identifier": "Q504627"}, {"id": 7397, "source": {"name": "VIAF", "slug": "viaf"}, "source_identifier": "79167710"}, {"id": 7398, "source": {"name": "LOC Auth", "slug": "loc-auth"}, "source_identifier": "n87853424"}, {"id": 7399, "source": {"name": "WorldCat", "slug": "worldcat"}, "source_identifier": "lccn-n87853424"}], "date_modified": "2026-03-13T13:39:09.999286+11:00"}, {"id": 25124, "name": "Jane Moore", "roles_in_work": [{"id": 2399189, "title": "AIDAB: Australia's aid program making a difference", "work_id": 83013, "role": "producer", "role_id": 1089, "is_primary": true}], "also_known_as": "", "date_of_birth": "", "date_of_death": "", "genders": [], "languages": [], "places_of_operation": [], "biography": "", "biography_author": null, "date_of_biography": "2023-08-11T13:39:44.617632+10:00", "external_links": [], "uuid": "62a24cf8-bb5e-475f-9cf9-f4e300beafd4", "source": {"name": "Vernon", "slug": "vernon"}, "source_identifier": "21422", "external_references": [], "date_modified": "2023-08-11T13:39:44.617976+10:00"}, {"id": 25123, "name": "University of Canberra", "roles_in_work": [{"id": 2399188, "title": "AIDAB: Australia's aid program making a difference", "work_id": 83013, "role": "production company", "role_id": 941, "is_primary": true}], "also_known_as": "", "date_of_birth": "", "date_of_death": "", "genders": [], "languages": [], "places_of_operation": [], "biography": "", "biography_author": null, "date_of_biography": "2023-08-11T13:39:43.973129+10:00", "external_links": [], "uuid": "86e0f479-56bc-474a-83d2-0fe1d7fb18ec", "source": {"name": "Vernon", "slug": "vernon"}, "source_identifier": "13914", "external_references": [], "date_modified": "2023-08-11T13:39:43.973455+10:00"}, {"id": 25122, "name": "Acteurs Auteurs Associes", "roles_in_work": [{"id": 2785709, "title": "Full moon in Paris = Les Nuits de la pleine lune", "work_id": 83012, "role": "production company", "role_id": 941, "is_primary": true}], "also_known_as": "", "date_of_birth": "", "date_of_death": "", "genders": [], "languages": [], "places_of_operation": [], "biography": "", "biography_author": null, "date_of_biography": "2023-05-09T19:23:07.036889+10:00", "external_links": [], "uuid": "db4cc9ff-6ea6-4c44-9e3f-4db00ec40478", "source": {"name": "Vernon", "slug": "vernon"}, "source_identifier": "5012", "external_references": [{"id": 32469, "source": {"name": "Wikidata", "slug": "wikidata"}, "source_identifier": "Q121271122"}], "date_modified": "2025-03-14T19:25:35.049210+11:00"}, {"id": 25121, "name": "Eric Rohmer", "roles_in_work": [{"id": 2785798, "title": "Six contes moraux = Six moral tales", "work_id": 115305, "role": "director", "role_id": 938, "is_primary": true}, {"id": 2614068, "title": "A Tale of springtime = Conte de printemps", "work_id": 83109, "role": "director", "role_id": 938, "is_primary": true}, {"id": 2614371, "title": "The Marquise of O... = Die Marquise von O...", "work_id": 83586, "role": "director", "role_id": 938, "is_primary": true}, {"id": 3104419, "title": "La Collectionneuse = the Collector Girl", "work_id": 115905, "role": "director", "role_id": 938, "is_primary": true}, {"id": 2785792, "title": "The Collector girl = La Collectionneuse", "work_id": 83016, "role": "director", "role_id": 938, "is_primary": true}, {"id": 2650266, "title": "Six in Paris = Paris vu par ...", "work_id": 83029, "role": "director", "role_id": 938, "is_primary": true}, {"id": 2785723, "title": "Full moon in Paris = Les Nuits de la pleine lune", "work_id": 83012, "role": "director", "role_id": 938, "is_primary": true}, {"id": 2785737, "title": "The Aviator's wife = La Femme de l'Aviateur ou On ne saurait penser a rien = One can't think of nothing", "work_id": 83018, "role": "director", "role_id": 938, "is_primary": true}, {"id": 2785752, "title": "Le Beau mariage = A Good marriage", "work_id": 83017, "role": "director", "role_id": 938, "is_primary": true}, {"id": 2785764, "title": "Pauline at the beach = Pauline a la plage", "work_id": 83027, "role": "director", "role_id": 938, "is_primary": true}, {"id": 2785775, "title": "Boyfriends and girlfriends = L'Ami de mon amie", "work_id": 83011, "role": "director", "role_id": 938, "is_primary": true}, {"id": 2785780, "title": "Comedies et proverbes", "work_id": 115311, "role": "director", "role_id": 938, "is_primary": true}, {"id": 2785781, "title": "My night with Maud = ma nuit chez Maud", "work_id": 87461, "role": "director", "role_id": 938, "is_primary": true}, {"id": 2322127, "title": "A Winter's tale = Conte d'hiver", "work_id": 89866, "role": "director", "role_id": 938, "is_primary": true}, {"id": 2322115, "title": "A Summer's tale = Conte d'ete", "work_id": 88767, "role": "director", "role_id": 938, "is_primary": true}, {"id": 2322090, "title": "Autumn tale = Conte d'Automne", "work_id": 89725, "role": "director", "role_id": 938, "is_primary": true}, {"id": 3104369, "title": "Le Signe du Lion = the Sign of Leo", "work_id": 115883, "role": "director", "role_id": 938, "is_primary": true}, {"id": 3104458, "title": "Ma Nuit Chez Maud = My Night with Maud", "work_id": 115922, "role": "director", "role_id": 938, "is_primary": true}, {"id": 3104655, "title": "Pauline a la Plage = Pauline at the Beach", "work_id": 116018, "role": "director", "role_id": 938, "is_primary": true}, {"id": 3104953, "title": "Le Rayon Vert = the Green Ray", "work_id": 116165, "role": "director", "role_id": 938, "is_primary": true}, {"id": 3104956, "title": "La Carriere de Suzanne = Suzanne's Career", "work_id": 116167, "role": "director", "role_id": 938, "is_primary": true}, {"id": 3105164, "title": "4 aventures de Reinette et Mirabelle = 4 adventures of Reinette and Mirabelle", "work_id": 116277, "role": "director", "role_id": 938, "is_primary": true}, {"id": 2322060, "title": "Tales of the four seasons = Contes des quatre saisons", "work_id": 115318, "role": "director", "role_id": 938, "is_primary": true}], "also_known_as": "Maurice Henri Joseph Schérer", "date_of_birth": "1920-03-21", "date_of_death": "2010-01-11", "genders": [{"id": 9, "name": "Male", "slug": "male"}], "languages": [{"id": 4, "name": "French", "slug": "french"}, {"id": 5, "name": "German", "slug": "german"}], "places_of_operation": [{"id": 17, "name": "France", "slug": "france"}], "biography": "Jean Marie Maurice Schérer or Maurice Henri Joseph Schérer, known as Éric Rohmer (French: [eʁik ʁomɛʁ]; 21 March 1920 – 11 January 2010), was a French film director, film critic, journalist, novelist, screenwriter, and teacher.\nRohmer was the last of the post-World War II French New Wave directors to become established. He edited the influential film journal Cahiers du cinéma from 1957 to 1963, while most of his colleagues—among them Jean-Luc Godard and François Truffaut—were making the transition from critics to filmmakers and gaining international attention.\nRohmer gained international acclaim around 1969 when his film My Night at Maud's was nominated at the Academy Awards. He won the San Sebastián International Film Festival with Claire's Knee in 1971 and the Golden Lion at the Venice Film Festival for The Green Ray in 1986. Rohmer went on to receive the Venice Film Festival's Career Golden Lion in 2001.\nAfter Rohmer's death in 2010, his obituary in The Daily Telegraph described him as \"the most durable filmmaker of the French New Wave\", outlasting his peers and \"still making movies the public wanted to see\" late in his career.", "biography_author": "Wikidata", "date_of_biography": "2022-05-19T11:24:55.835076+10:00", "external_links": [{"id": 2009, "uri": "https://en.wikipedia.org/wiki/%C3%89ric_Rohmer"}], "uuid": "9330b557-37fb-4e3a-b943-2616eec9a6a8", "source": {"name": "Vernon", "slug": "vernon"}, "source_identifier": "18834", "external_references": [{"id": 8685, "source": {"name": "Wikidata", "slug": "wikidata"}, "source_identifier": "Q50764"}, {"id": 8686, "source": {"name": "VIAF", "slug": "viaf"}, "source_identifier": "56615643"}, {"id": 8687, "source": {"name": "LOC Auth", "slug": "loc-auth"}, "source_identifier": "n79124606"}, {"id": 8688, "source": {"name": "WorldCat", "slug": "worldcat"}, "source_identifier": "lccn-n79124606"}], "date_modified": "2025-05-22T22:57:15.997125+10:00"}, {"id": 25120, "name": "Sofica Investimage", "roles_in_work": [{"id": 2785771, "title": "Boyfriends and girlfriends = L'Ami de mon amie", "work_id": 83011, "role": "production company", "role_id": 941, "is_primary": true}], "also_known_as": "", "date_of_birth": "", "date_of_death": "", "genders": [], "languages": [], "places_of_operation": [], "biography": "", "biography_author": null, "date_of_biography": "2023-05-09T19:23:14.034311+10:00", "external_links": [], "uuid": "2cc8caef-8db5-4e75-98a3-6b656eb16db8", "source": {"name": "Vernon", "slug": "vernon"}, "source_identifier": "12708", "external_references": [{"id": 36295, "source": {"name": "Wikidata", "slug": "wikidata"}, "source_identifier": "Q121035940"}], "date_modified": "2025-03-14T19:25:48.734971+11:00"}, {"id": 25106, "name": "Cinefort", "roles_in_work": [{"id": 2786896, "title": "Making perfect babies", "work_id": 82986, "role": "production company", "role_id": 941, "is_primary": true}, {"id": 2786889, "title": "On the eighth day: perfecting Mother Nature", "work_id": 115326, "role": "production company", "role_id": 941, "is_primary": true}, {"id": 2786890, "title": "Making babies", "work_id": 82985, "role": "production company", "role_id": 941, "is_primary": true}], "also_known_as": "", "date_of_birth": "", "date_of_death": "", "genders": [], "languages": [], "places_of_operation": [], "biography": "", "biography_author": null, "date_of_biography": "2023-05-09T14:00:27.297142+10:00", "external_links": [], "uuid": "a1eb7cbe-8743-42d7-b311-174e7218a2dc", "source": {"name": "Vernon", "slug": "vernon"}, "source_identifier": "6683", "external_references": [{"id": 33170, "source": {"name": "Wikidata", "slug": "wikidata"}, "source_identifier": "Q121035122"}], "date_modified": "2025-03-14T19:35:46.620565+11:00"}, {"id": 25098, "name": "Pat Phillips", "roles_in_work": [{"id": 2102847, "title": "Asthma", "work_id": 82975, "role": "director", "role_id": 938, "is_primary": true}], "also_known_as": "", "date_of_birth": "", "date_of_death": "", "genders": [], "languages": [], "places_of_operation": [], "biography": "", "biography_author": null, "date_of_biography": "2023-05-09T12:33:59.372016+10:00", "external_links": [], "uuid": "a95e5e83-20f8-4434-9b5c-579064f9dbbc", "source": {"name": "Vernon", "slug": "vernon"}, "source_identifier": "26082", "external_references": [{"id": 41109, "source": {"name": "Wikidata", "slug": "wikidata"}, "source_identifier": "Q121271136"}], "date_modified": "2023-09-05T23:41:48.514422+10:00"}, {"id": 25097, "name": "Marie Meyrick", "roles_in_work": [{"id": 2102842, "title": "Asthma", "work_id": 82975, "role": "producer", "role_id": 1089, "is_primary": true}], "also_known_as": "", "date_of_birth": "", "date_of_death": "", "genders": [], "languages": [], "places_of_operation": [], "biography": "", "biography_author": null, "date_of_biography": "2023-05-09T12:33:59.135869+10:00", "external_links": [], "uuid": "0ad1df61-1cd2-4187-94da-ca1ca71dc659", "source": {"name": "Vernon", "slug": "vernon"}, "source_identifier": "24410", "external_references": [{"id": 36770, "source": {"name": "Wikidata", "slug": "wikidata"}, "source_identifier": "Q121057904"}], "date_modified": "2023-09-05T22:42:46.590948+10:00"}]}