{"count": 28687, "next": "https://api.acmi.net.au/creators/?page=29", "previous": "https://api.acmi.net.au/creators/?page=27", "results": [{"id": 87144, "name": "nked", "roles_in_work": [{"id": 2500527, "title": "Las Patronas", "work_id": 121996, "role": "creator", "role_id": 968, "is_primary": true}, {"id": 2474468, "title": "Las Patronas, Mexican women's group giving food aid to migrants crossing the border", "work_id": 121998, "role": "", "role_id": 604, "is_primary": false}], "also_known_as": "", "date_of_birth": "", "date_of_death": "", "genders": [], "languages": [], "places_of_operation": [], "biography": "", "biography_author": null, "date_of_biography": "2023-08-16T04:09:31.534105+10:00", "external_links": [], "uuid": "33d37b78-0eab-49e7-9937-2123eb301393", "source": {"name": "Vernon", "slug": "vernon"}, "source_identifier": "40643", "external_references": [], "date_modified": "2023-09-20T03:56:22.988865+10:00"}, {"id": 87143, "name": "David Gallan", "roles_in_work": [{"id": 2718333, "title": "The Ambassador", "work_id": 121994, "role": "creator", "role_id": 968, "is_primary": true}], "also_known_as": "", "date_of_birth": "", "date_of_death": "", "genders": [{"id": 9, "name": "Male", "slug": "male"}], "languages": [], "places_of_operation": [], "biography": "", "biography_author": null, "date_of_biography": "2023-05-09T19:20:41.931832+10:00", "external_links": [], "uuid": "186b13f9-b7d5-44ac-aaeb-7af2c6ee4414", "source": {"name": "Vernon", "slug": "vernon"}, "source_identifier": "40361", "external_references": [], "date_modified": "2025-03-12T06:30:29.785932+11:00"}, {"id": 87098, "name": "EyezQueenRF", "roles_in_work": [{"id": 2474467, "title": "ASL interpreter at Rihanna's Super Bowl performance shines", "work_id": 121983, "role": "creator", "role_id": 968, "is_primary": true}], "also_known_as": "", "date_of_birth": "", "date_of_death": "", "genders": [], "languages": [], "places_of_operation": [], "biography": "", "biography_author": null, "date_of_biography": "2023-08-16T04:09:30.291633+10:00", "external_links": [], "uuid": "74a07b71-4722-47ae-8d52-aede7ca1c029", "source": {"name": "Vernon", "slug": "vernon"}, "source_identifier": "40639", "external_references": [], "date_modified": "2023-08-16T04:09:30.291854+10:00"}, {"id": 87097, "name": "Matemusic1 Music1", "roles_in_work": [{"id": 2474462, "title": "Earthquake in Turkey", "work_id": 121982, "role": "creator", "role_id": 968, "is_primary": true}], "also_known_as": "", "date_of_birth": "", "date_of_death": "", "genders": [], "languages": [], "places_of_operation": [], "biography": "", "biography_author": null, "date_of_biography": "2023-08-16T04:09:25.563840+10:00", "external_links": [], "uuid": "a8097745-52e6-45af-b814-d3600ab11d7b", "source": {"name": "Vernon", "slug": "vernon"}, "source_identifier": "40634", "external_references": [], "date_modified": "2023-08-16T04:09:25.564065+10:00"}, {"id": 87085, "name": "Reynolds & Branson Ltd.", "roles_in_work": [{"id": 2681619, "title": "Magic lantern projector with curtain", "work_id": 121948, "role": "manufacturer", "role_id": 627, "is_primary": true}], "also_known_as": "", "date_of_birth": "1816", "date_of_death": "1972", "genders": [], "languages": [], "places_of_operation": [], "biography": "https://en.wikipedia.org/wiki/Reynolds_and_Branson", "biography_author": null, "date_of_biography": "2025-03-07T01:48:59.648996+11:00", "external_links": [], "uuid": "6549a51e-ac4f-4189-b2c2-3acc6f29da3e", "source": {"name": "Vernon", "slug": "vernon"}, "source_identifier": "40424", "external_references": [], "date_modified": "2025-03-07T01:48:59.649329+11:00"}, {"id": 87073, "name": "Sebastian Valencia", "roles_in_work": [{"id": 2474460, "title": "Wake up", "work_id": 121928, "role": "creator", "role_id": 968, "is_primary": true}], "also_known_as": "", "date_of_birth": "", "date_of_death": "", "genders": [], "languages": [], "places_of_operation": [], "biography": "", "biography_author": null, "date_of_biography": "2023-08-16T04:09:24.409490+10:00", "external_links": [], "uuid": "2e4e4a8d-05ae-4c88-bb08-89cdefaee6a3", "source": {"name": "Vernon", "slug": "vernon"}, "source_identifier": "40630", "external_references": [], "date_modified": "2023-08-16T04:09:24.409716+10:00"}, {"id": 87060, "name": "Dmitry Shostakovich", "roles_in_work": [{"id": 2523336, "title": "Odna (Alone) soundtrack", "work_id": 121917, "role": "director", "role_id": 938, "is_primary": true}], "also_known_as": "", "date_of_birth": "1906-09-12", "date_of_death": "1975-08-09", "genders": [{"id": 9, "name": "Male", "slug": "male"}], "languages": [{"id": 3, "name": "Russian", "slug": "russian"}], "places_of_operation": [{"id": 180, "name": "Soviet Union", "slug": "soviet-union"}], "biography": "Dmitri Dmitriyevich Shostakovich (25 September [O.S. 12 September] 1906 – 9 August 1975) was a Soviet-era Russian composer and pianist who became internationally known after the premiere of his First Symphony in 1926 and was regarded throughout his life as a major composer.\nShostakovich achieved early fame in the Soviet Union, but had a complex relationship with its government. His 1934 opera Lady Macbeth of Mtsensk was initially a success, but eventually was condemned by the Soviet government, putting his career at risk. In 1948 his work was denounced under the Zhdanov Doctrine, with professional consequences lasting several years. Even after his censure was rescinded in 1956, performances of his music were occasionally subject to state interventions, as with his Thirteenth Symphony (1962). Shostakovich was a member of the Supreme Soviet of the RSFSR (1947) and the Supreme Soviet of the Soviet Union (from 1962 until his death), as well as chairman of the RSFSR Union of Composers (1960–1968). Over the course of his career, he earned several important awards, including the Order of Lenin, from the Soviet government.\nShostakovich combined a variety of different musical techniques in his works. His music is characterized by sharp contrasts, elements of the grotesque, and ambivalent tonality; he was also heavily influenced by neoclassicism and by the late Romanticism of Gustav Mahler. His orchestral works include 15 symphonies and six concerti (two each for piano, violin, and cello). His chamber works include 15 string quartets, a piano quintet, and two piano trios. His solo piano works include two sonatas, an early set of 24 preludes, and a later set of 24 preludes and fugues. Stage works include three completed operas and three ballets. Shostakovich also wrote several song cycles, and a substantial quantity of music for theatre and film.\nShostakovich's reputation has continued to grow after his death. Scholarly interest has increased significantly since the late 20th century, including considerable debate about the relationship between his music and his attitudes toward the Soviet government.", "biography_author": "Wikidata", "date_of_biography": "2023-09-05T19:13:19.123197+10:00", "external_links": [{"id": 5778, "uri": "https://en.wikipedia.org/wiki/Dmitri_Shostakovich"}], "uuid": "789f64dd-41c7-4e44-bb2a-32f6bcec4c10", "source": {"name": "Vernon", "slug": "vernon"}, "source_identifier": "40572", "external_references": [{"id": 39070, "source": {"name": "Wikidata", "slug": "wikidata"}, "source_identifier": "Q80135"}, {"id": 54319, "source": {"name": "VIAF", "slug": "viaf"}, "source_identifier": "89612684"}, {"id": 54320, "source": {"name": "LOC Auth", "slug": "loc-auth"}, "source_identifier": "n79140959"}, {"id": 54321, "source": {"name": "WorldCat", "slug": "worldcat"}, "source_identifier": "lccn-n79140959"}], "date_modified": "2024-05-29T03:40:43.520048+10:00"}, {"id": 87059, "name": "MOOG Music Inc.,", "roles_in_work": [{"id": 2589774, "title": "Percy Grainger's MOOG Theremin, signed by Bob Moog", "work_id": 121916, "role": "manufacturer", "role_id": 627, "is_primary": true}], "also_known_as": "", "date_of_birth": "1953", "date_of_death": "", "genders": [], "languages": [], "places_of_operation": [], "biography": "", "biography_author": null, "date_of_biography": "2023-05-09T18:26:59.068293+10:00", "external_links": [], "uuid": "b8f869d6-7b08-43dc-9487-959367468f7f", "source": {"name": "Vernon", "slug": "vernon"}, "source_identifier": "40552", "external_references": [], "date_modified": "2024-12-18T03:36:29.761399+11:00"}, {"id": 87058, "name": "Dover St Studios", "roles_in_work": [{"id": 2360112, "title": "Portrait of Leon Theremin", "work_id": 121915, "role": "director", "role_id": 938, "is_primary": true}], "also_known_as": "", "date_of_birth": "", "date_of_death": "", "genders": [], "languages": [], "places_of_operation": [], "biography": "", "biography_author": null, "date_of_biography": "2023-05-10T03:45:05.611444+10:00", "external_links": [], "uuid": "ac0a20be-6c05-46d1-99b2-bc8d56a9f20a", "source": {"name": "Vernon", "slug": "vernon"}, "source_identifier": "40570", "external_references": [], "date_modified": "2023-06-14T16:33:30.576250+10:00"}, {"id": 87057, "name": "Albert Glinsky", "roles_in_work": [{"id": 2519860, "title": "Theremin: Ether Music and Espionage book", "work_id": 121913, "role": "author", "role_id": 943, "is_primary": true}], "also_known_as": "", "date_of_birth": "", "date_of_death": "", "genders": [], "languages": [], "places_of_operation": [], "biography": "", "biography_author": null, "date_of_biography": "2023-08-30T22:36:20.588617+10:00", "external_links": [], "uuid": "c1bb8e7f-a14d-4019-8cd7-bec0df1bb126", "source": {"name": "Vernon", "slug": "vernon"}, "source_identifier": "40571", "external_references": [], "date_modified": "2024-05-01T03:56:19.354915+10:00"}]}