{"count": 28687, "next": "https://api.acmi.net.au/creators/?page=981", "previous": "https://api.acmi.net.au/creators/?page=979", "results": [{"id": 75782, "name": "Teruji Dhibata", "roles_in_work": [{"id": 2413844, "title": "Ki or breathing", "work_id": 76563, "role": "co-producer", "role_id": 915, "is_primary": true}], "also_known_as": "", "date_of_birth": "", "date_of_death": "", "genders": [], "languages": [], "places_of_operation": [], "biography": "", "biography_author": null, "date_of_biography": "2023-08-11T19:05:34.200796+10:00", "external_links": [], "uuid": "2b5540c8-2b75-4dda-9eab-ded1dd7df7f6", "source": {"name": "Vernon", "slug": "vernon"}, "source_identifier": "29624", "external_references": [{"id": 40065, "source": {"name": "Wikidata", "slug": "wikidata"}, "source_identifier": "Q121036314"}], "date_modified": "2023-09-06T01:46:57.937849+10:00"}, {"id": 75781, "name": "Keith Alexander", "roles_in_work": [{"id": 1819039, "title": "Home and away", "work_id": 76560, "role": "producer", "role_id": 1089, "is_primary": true}], "also_known_as": "", "date_of_birth": null, "date_of_death": null, "genders": [], "languages": [], "places_of_operation": [], "biography": "", "biography_author": null, "date_of_biography": null, "external_links": [], "uuid": "28feea34-0b84-41bd-8bbc-169c946c7f46", "source": {"name": "Vernon", "slug": "vernon"}, "source_identifier": null, "external_references": [{"id": 32278, "source": {"name": "Wikidata", "slug": "wikidata"}, "source_identifier": "Q121079398"}], "date_modified": "2023-09-05T22:03:35.450909+10:00"}, {"id": 75780, "name": "Sidney Nolan", "roles_in_work": [{"id": 896990, "title": "Kelly country", "work_id": 76556, "role": "co-producer", "role_id": 915, "is_primary": true}], "also_known_as": "", "date_of_birth": null, "date_of_death": null, "genders": [], "languages": [], "places_of_operation": [], "biography": "", "biography_author": null, "date_of_biography": null, "external_links": [], "uuid": "0aeb7b65-6d75-4c5a-a04f-19f439f7a0f0", "source": {"name": "Vernon", "slug": "vernon"}, "source_identifier": null, "external_references": [{"id": 34066, "source": {"name": "Wikidata", "slug": "wikidata"}, "source_identifier": "Q121036580"}], "date_modified": "2023-09-06T01:18:51.796761+10:00"}, {"id": 75779, "name": "Tony Dutton", "roles_in_work": [{"id": 2107375, "title": "Balinese surfer", "work_id": 76554, "role": "co-producer", "role_id": 915, "is_primary": true}], "also_known_as": "", "date_of_birth": "", "date_of_death": "", "genders": [], "languages": [], "places_of_operation": [], "biography": "", "biography_author": null, "date_of_biography": "2023-05-09T12:40:35.971473+10:00", "external_links": [], "uuid": "f8b898b2-4c6e-4e6e-b58d-393abd362670", "source": {"name": "Vernon", "slug": "vernon"}, "source_identifier": "29860", "external_references": [{"id": 38307, "source": {"name": "Wikidata", "slug": "wikidata"}, "source_identifier": "Q121222866"}], "date_modified": "2023-09-06T01:55:48.666607+10:00"}, {"id": 75778, "name": "Don Burrows", "roles_in_work": [{"id": 2078790, "title": "A Zoo in the trees", "work_id": 76542, "role": "composer", "role_id": 538, "is_primary": false}, {"id": 2392803, "title": "Great Barrier Reef", "work_id": 96070, "role": "music", "role_id": 949, "is_primary": false}], "also_known_as": "", "date_of_birth": "1928", "date_of_death": "", "genders": [], "languages": [], "places_of_operation": [], "biography": "", "biography_author": null, "date_of_biography": "2023-08-09T04:08:48.912047+10:00", "external_links": [], "uuid": "0a6ec514-03fb-4a76-923f-7fcf3a694ce1", "source": {"name": "Vernon", "slug": "vernon"}, "source_identifier": "32317", "external_references": [{"id": 50624, "source": {"name": "Wikidata", "slug": "wikidata"}, "source_identifier": "Q121361091"}], "date_modified": "2023-09-05T19:14:25.994499+10:00"}, {"id": 75777, "name": "Barnett Addis", "roles_in_work": [{"id": 2083880, "title": "Actualization through assertion (TEFC)", "work_id": 76533, "role": "director", "role_id": 938, "is_primary": true}, {"id": 2081082, "title": "Actualization through assertion", "work_id": 85600, "role": "director", "role_id": 938, "is_primary": true}, {"id": 2081080, "title": "Actualization through assertion", "work_id": 85600, "role": "co-producer", "role_id": 915, "is_primary": true}, {"id": 2083876, "title": "Actualization through assertion (TEFC)", "work_id": 76533, "role": "co-producer", "role_id": 915, "is_primary": true}], "also_known_as": "", "date_of_birth": "", "date_of_death": "", "genders": [], "languages": [], "places_of_operation": [], "biography": "", "biography_author": null, "date_of_biography": "2023-05-09T11:54:03.302552+10:00", "external_links": [], "uuid": "f9b1f915-45ed-4e33-9ca5-c244eabdc278", "source": {"name": "Vernon", "slug": "vernon"}, "source_identifier": "15684", "external_references": [{"id": 34303, "source": {"name": "Wikidata", "slug": "wikidata"}, "source_identifier": "Q121314949"}], "date_modified": "2023-09-05T17:53:46.795695+10:00"}, {"id": 75776, "name": "Robert Liberman", "roles_in_work": [{"id": 2083872, "title": "Actualization through assertion (TEFC)", "work_id": 76533, "role": "co-producer", "role_id": 915, "is_primary": true}, {"id": 2081076, "title": "Actualization through assertion", "work_id": 85600, "role": "co-producer", "role_id": 915, "is_primary": true}], "also_known_as": "", "date_of_birth": "", "date_of_death": "", "genders": [], "languages": [], "places_of_operation": [], "biography": "", "biography_author": null, "date_of_biography": "2023-05-09T11:54:02.835506+10:00", "external_links": [], "uuid": "08d084b6-5115-4635-bf4a-5d506a503c63", "source": {"name": "Vernon", "slug": "vernon"}, "source_identifier": "27811", "external_references": [{"id": 34841, "source": {"name": "Wikidata", "slug": "wikidata"}, "source_identifier": "Q121315537"}], "date_modified": "2023-09-06T00:44:04.185475+10:00"}, {"id": 75775, "name": "Larry King", "roles_in_work": [{"id": 2083869, "title": "Actualization through assertion (TEFC)", "work_id": 76533, "role": "co-producer", "role_id": 915, "is_primary": true}, {"id": 2081073, "title": "Actualization through assertion", "work_id": 85600, "role": "co-producer", "role_id": 915, "is_primary": true}], "also_known_as": "", "date_of_birth": "", "date_of_death": "", "genders": [], "languages": [], "places_of_operation": [], "biography": "", "biography_author": null, "date_of_biography": "2023-05-09T11:54:02.610414+10:00", "external_links": [], "uuid": "a004e2da-99dc-4b31-9c4d-f4f3c0e391a4", "source": {"name": "Vernon", "slug": "vernon"}, "source_identifier": "23488", "external_references": [{"id": 33277, "source": {"name": "Wikidata", "slug": "wikidata"}, "source_identifier": "Q121144050"}], "date_modified": "2023-09-05T22:14:18.774967+10:00"}, {"id": 75774, "name": "Hermann D. Tauchert", "roles_in_work": [{"id": 2355890, "title": "The Industrial city", "work_id": 76530, "role": "producer/director", "role_id": 31, "is_primary": true}, {"id": 2750810, "title": "Clothing. - 3rd ed.", "work_id": 97517, "role": "producer/director", "role_id": 31, "is_primary": true}, {"id": 2296926, "title": "Shelter (3rd Edition)", "work_id": 97525, "role": "producer/director", "role_id": 31, "is_primary": true}], "also_known_as": "", "date_of_birth": "", "date_of_death": "", "genders": [], "languages": [], "places_of_operation": [], "biography": "", "biography_author": null, "date_of_biography": "2023-05-09T20:03:49.120529+10:00", "external_links": [], "uuid": "33f437d4-1d18-4541-afaa-30490d63cc51", "source": {"name": "Vernon", "slug": "vernon"}, "source_identifier": "20534", "external_references": [{"id": 51760, "source": {"name": "Wikidata", "slug": "wikidata"}, "source_identifier": "Q121361118"}], "date_modified": "2025-03-13T00:31:00.949155+11:00"}, {"id": 75773, "name": "Pete Rodriguez", "roles_in_work": [{"id": 2647534, "title": "The Cadillac", "work_id": 76526, "role": "co-producer", "role_id": 915, "is_primary": true}], "also_known_as": "", "date_of_birth": "", "date_of_death": "", "genders": [], "languages": [], "places_of_operation": [], "biography": "", "biography_author": null, "date_of_biography": "2023-05-09T19:31:05.660322+10:00", "external_links": [], "uuid": "6d380007-d6a3-4bd7-acb7-abfbfc574153", "source": {"name": "Vernon", "slug": "vernon"}, "source_identifier": "26444", "external_references": [{"id": 41192, "source": {"name": "Wikidata", "slug": "wikidata"}, "source_identifier": "Q121143628"}], "date_modified": "2025-03-05T13:27:05.779549+11:00"}]}