{"count": 28687, "next": "https://api.acmi.net.au/creators/?page=640", "previous": "https://api.acmi.net.au/creators/?page=638", "results": [{"id": 79193, "name": "Harry Knapp", "roles_in_work": [{"id": 1993945, "title": "It's my party", "work_id": 89606, "role": "co-producer", "role_id": 915, "is_primary": true}], "also_known_as": "", "date_of_birth": null, "date_of_death": null, "genders": [], "languages": [], "places_of_operation": [], "biography": "", "biography_author": null, "date_of_biography": null, "external_links": [], "uuid": "d96fed66-27ca-497d-ba8f-7ac579b99319", "source": {"name": "Vernon", "slug": "vernon"}, "source_identifier": null, "external_references": [{"id": 41039, "source": {"name": "Wikidata", "slug": "wikidata"}, "source_identifier": "Q121126882"}], "date_modified": "2023-09-05T20:31:14.466422+10:00"}, {"id": 79192, "name": "Roger Berlind", "roles_in_work": [{"id": 2114259, "title": "Beyond therapy", "work_id": 89601, "role": "production company", "role_id": 941, "is_primary": true}], "also_known_as": "", "date_of_birth": "", "date_of_death": "", "genders": [], "languages": [], "places_of_operation": [], "biography": "", "biography_author": null, "date_of_biography": "2023-05-09T12:51:47.686259+10:00", "external_links": [], "uuid": "fae5483c-cf28-47d4-83a7-2aec8b987fe4", "source": {"name": "Vernon", "slug": "vernon"}, "source_identifier": "28027", "external_references": [{"id": 40444, "source": {"name": "Wikidata", "slug": "wikidata"}, "source_identifier": "Q121315081"}], "date_modified": "2023-09-06T00:50:48.481214+10:00"}, {"id": 79191, "name": "Telly Savalas", "roles_in_work": [{"id": 2114335, "title": "Beyond reason", "work_id": 89599, "role": "director", "role_id": 938, "is_primary": true}], "also_known_as": "Aristotelis Savalas", "date_of_birth": "1922-01-21", "date_of_death": "1994-01-22", "genders": [{"id": 9, "name": "Male", "slug": "male"}], "languages": [{"id": 1, "name": "English", "slug": "english"}, {"id": 81, "name": "Modern Greek", "slug": "modern-greek"}], "places_of_operation": [{"id": 1, "name": "United States of America", "slug": "united-states-of-america"}], "biography": "Aristotelis \"Telly\" Savalas (January 21, 1922 – January 22, 1994) was an American actor. Noted for his bald head and deep, resonant voice, he is perhaps best known for portraying Lt. Theo Kojak on the crime drama series Kojak (1973–1978) and James Bond archvillain Ernst Stavro Blofeld in the film On Her Majesty's Secret Service (1969).\nSavalas' other roles include Birdman of Alcatraz (1962), The Greatest Story Ever Told (1965), Battle of the Bulge (1965), The Dirty Dozen (1967), Kelly's Heroes (1970), Horror Express (1972), Lisa and the Devil (1974), and Escape to Athena (1979). For Birdman of Alcatraz, he was nominated for the Academy Award and Golden Globe for Best Supporting Actor.\nAs a singer, Savalas released a cover of the Bread song \"If\", which became a UK number-one single in 1975. The song also peaked at number 12 in Australia. In Canada, it reached #40 on the AC/Pop chart, and #88 on the rock chart.", "biography_author": "Wikidata", "date_of_biography": "2023-08-01T17:15:43.787765+10:00", "external_links": [{"id": 3183, "uri": "https://en.wikipedia.org/wiki/Telly_Savalas"}], "uuid": "8dc9d721-e211-4d32-9adb-a0bf9bce1d5f", "source": {"name": "Vernon", "slug": "vernon"}, "source_identifier": "29550", "external_references": [{"id": 13493, "source": {"name": "Wikidata", "slug": "wikidata"}, "source_identifier": "Q209471"}, {"id": 13494, "source": {"name": "VIAF", "slug": "viaf"}, "source_identifier": "87759753"}, {"id": 13495, "source": {"name": "LOC Auth", "slug": "loc-auth"}, "source_identifier": "n85199133"}, {"id": 13496, "source": {"name": "WorldCat", "slug": "worldcat"}, "source_identifier": "lccn-n85199133"}], "date_modified": "2023-09-06T01:44:17.309691+10:00"}, {"id": 79190, "name": "Stephen Stept", "roles_in_work": [{"id": 2177360, "title": "Darrow = Clarence Darrow: attorney for the damned", "work_id": 89597, "role": "co-producer", "role_id": 915, "is_primary": true}], "also_known_as": "", "date_of_birth": "", "date_of_death": "", "genders": [], "languages": [], "places_of_operation": [], "biography": "", "biography_author": null, "date_of_biography": "2023-05-09T14:47:21.144907+10:00", "external_links": [], "uuid": "ab690f7b-29f1-4bbe-8c13-6b0b09434e6a", "source": {"name": "Vernon", "slug": "vernon"}, "source_identifier": "29088", "external_references": [{"id": 38940, "source": {"name": "Wikidata", "slug": "wikidata"}, "source_identifier": "Q121222588"}], "date_modified": "2023-09-06T01:29:48.987051+10:00"}, {"id": 79189, "name": "Michael Tannen", "roles_in_work": [{"id": 2174593, "title": "One trick pony", "work_id": 89596, "role": "co-producer", "role_id": 915, "is_primary": true}], "also_known_as": "", "date_of_birth": "", "date_of_death": "", "genders": [], "languages": [], "places_of_operation": [], "biography": "", "biography_author": null, "date_of_biography": "2023-05-09T14:43:34.411010+10:00", "external_links": [], "uuid": "3b739e3b-f6dc-4556-87e4-affc89f79134", "source": {"name": "Vernon", "slug": "vernon"}, "source_identifier": "25239", "external_references": [{"id": 51367, "source": {"name": "Wikidata", "slug": "wikidata"}, "source_identifier": "Q121358023"}], "date_modified": "2023-09-05T23:09:57.058756+10:00"}, {"id": 79188, "name": "Alan Brewer", "roles_in_work": [{"id": 2208609, "title": "Playing for keeps", "work_id": 89595, "role": "co-producer", "role_id": 915, "is_primary": true}], "also_known_as": "", "date_of_birth": "1915-01-01", "date_of_death": "2007-11-21", "genders": [{"id": 9, "name": "Male", "slug": "male"}], "languages": [], "places_of_operation": [{"id": 36, "name": "Canada", "slug": "canada"}], "biography": "Alan West Brewer (1915 – 21 November 2007) was a Britanno-Canadian physicist and climatologist. Born in Montreal, Quebec, Canada and raised in Derby, England, he earned a scholarship to study physics at the University College London. He received his M.Sc. there, and began to work for the Met Office in 1937. During World War II, he researched contrails for the Royal Air Force, making the discovery that the stratosphere is much drier than had been presumed. Later this observation led to the development of Brewer-Dobson circulation. Brewer worked at the Subdepartment of Atmospheric, Oceanic and Planetary Physics, University of Oxford from 1948 until 1962, when he became a professor at University of Toronto. In 1977, Brewer retired from the University of Toronto, returning to England, in Devon, where he farmed until nearly 80 years old.In late 1959, he and James Milford developed the Oxford-Kew ozone sonde. He also developed the Brewer ozone spectrophotometer with Dave Wardle which is currently the most accurate instrument for measuring ozone.Brewer married Iris, another UCL physicist, in 1939. They had three children.", "biography_author": "Wikidata", "date_of_biography": "2023-08-01T13:55:51.871478+10:00", "external_links": [{"id": 1575, "uri": "https://en.wikipedia.org/wiki/Alan_Brewer"}, {"id": 3499, "uri": "https://en.wikipedia.org/wiki/Alan_West_Brewer"}], "uuid": "64c8a7fa-98d9-436b-baba-5400d3d43918", "source": {"name": "Vernon", "slug": "vernon"}, "source_identifier": "14735", "external_references": [{"id": 6900, "source": {"name": "Wikidata", "slug": "wikidata"}, "source_identifier": "Q4706240"}, {"id": 6901, "source": {"name": "VIAF", "slug": "viaf"}, "source_identifier": "203878066"}, {"id": 6902, "source": {"name": "WorldCat", "slug": "worldcat"}, "source_identifier": "viaf-203878066"}, {"id": 27128, "source": {"name": "WorldCat", "slug": "worldcat"}, "source_identifier": "np-brewer,%20a%20w"}], "date_modified": "2023-09-05T17:19:50.539832+10:00"}, {"id": 79187, "name": "Bob Weinstein", "roles_in_work": [{"id": 2208613, "title": "Playing for keeps", "work_id": 89595, "role": "co-director", "role_id": 959, "is_primary": true}, {"id": 2208604, "title": "Playing for keeps", "work_id": 89595, "role": "co-producer", "role_id": 915, "is_primary": true}], "also_known_as": "", "date_of_birth": "1954-10-18", "date_of_death": "", "genders": [{"id": 9, "name": "Male", "slug": "male"}], "languages": [], "places_of_operation": [{"id": 1, "name": "United States of America", "slug": "united-states-of-america"}], "biography": "Robert Weinstein (born October 18, 1954) is an American film producer. He is the founder and head of Dimension Films, former co-chairman of Miramax Films and The Weinstein Company (TWC), all of which he co-founded with his older brother, Harvey. He has focused on making action and horror films.", "biography_author": "Wikidata", "date_of_biography": "2023-08-01T14:14:35.383913+10:00", "external_links": [{"id": 1740, "uri": "https://en.wikipedia.org/wiki/Bob_Weinstein"}], "uuid": "4fc207c0-e3ab-4a31-aca0-201c7b2dea39", "source": {"name": "Vernon", "slug": "vernon"}, "source_identifier": "16114", "external_references": [{"id": 7590, "source": {"name": "Wikidata", "slug": "wikidata"}, "source_identifier": "Q888311"}, {"id": 7591, "source": {"name": "VIAF", "slug": "viaf"}, "source_identifier": "7040365"}, {"id": 7592, "source": {"name": "LOC Auth", "slug": "loc-auth"}, "source_identifier": "no2001040886"}, {"id": 7593, "source": {"name": "WorldCat", "slug": "worldcat"}, "source_identifier": "lccn-no2001040886"}], "date_modified": "2023-09-05T18:08:01.395921+10:00"}, {"id": 79186, "name": "Mike Elliott", "roles_in_work": [{"id": 909167, "title": "Machine gun blues = Black rose of Harlem", "work_id": 89590, "role": "co-producer", "role_id": 915, "is_primary": true}], "also_known_as": "", "date_of_birth": null, "date_of_death": null, "genders": [{"id": 9, "name": "Male", "slug": "male"}], "languages": [], "places_of_operation": [{"id": 1, "name": "United States of America", "slug": "united-states-of-america"}], "biography": "Mike Elliott is an American film producer, film director and writer. He has produced or co-produced over 100 films, with a special focus on direct-to-video sequels.", "biography_author": "Wikidata", "date_of_biography": "2023-09-05T23:14:42.166588+10:00", "external_links": [{"id": 6037, "uri": "https://en.wikipedia.org/wiki/Mike_Elliott_(filmmaker)"}], "uuid": "c2995de4-0ea1-41df-9d1b-2e38dbd296ec", "source": {"name": "Vernon", "slug": "vernon"}, "source_identifier": null, "external_references": [{"id": 39293, "source": {"name": "Wikidata", "slug": "wikidata"}, "source_identifier": "Q6846685"}], "date_modified": "2023-09-05T23:14:42.188391+10:00"}, {"id": 79185, "name": "Lawrence Konner", "roles_in_work": [{"id": 2355793, "title": "The In crowd", "work_id": 89585, "role": "co-producer", "role_id": 915, "is_primary": true}], "also_known_as": "", "date_of_birth": "1949-09-14", "date_of_death": "", "genders": [{"id": 9, "name": "Male", "slug": "male"}], "languages": [{"id": 1, "name": "English", "slug": "english"}], "places_of_operation": [{"id": 1, "name": "United States of America", "slug": "united-states-of-america"}], "biography": "Lawrence Konner is an American screenwriter, producer and film director. Konner has written over twenty-five feature films, including Mona Lisa Smile, Planet of the Apes, The Legend of Billie Jean, The Jewel of the Nile, and Star Trek VI: The Undiscovered Country. Konner’s writing for television spans over forty-five years. His works include the HBO series The Sopranos, for which Konner earned an Emmy nomination in 2001, and Boardwalk Empire, for which he received the WGA Award for Best New Series in 2010. He was also nominated for an Emmy for his work as writer and executive producer on the 2016 miniseries Roots. Other television credits include Family and Little House on the Prairie.\nIn 1995, Konner produced and directed a documentary short, One Thing I Know, which premiered at the Sundance Film Festival, screened at the Cannes Film Festival, and won the Special Jury Prize at the USA Film Festival. In 2003, through his independent company, The Documentary Campaign, Konner produced Persons of Interest, a feature-length documentary about the illegal detentions of thousands of Muslims in the aftermath of September 11, which premiered in competition at the Sundance Film Festival and won the Amnesty International Humanitarian Award. In 2005, Konner produced the film Zizek!, a documentary that follows the philosopher Slavoj Žižek on a worldwide speaking tour.\nKonner has taught screenwriting at Princeton University, Columbia University and Vassar College.", "biography_author": "Wikidata", "date_of_biography": "2023-08-01T15:53:45.878885+10:00", "external_links": [{"id": 2555, "uri": "https://en.wikipedia.org/wiki/Lawrence_Konner"}], "uuid": "7567b5d6-237d-407a-9efe-e3ee82456f6a", "source": {"name": "Vernon", "slug": "vernon"}, "source_identifier": "23587", "external_references": [{"id": 10919, "source": {"name": "Wikidata", "slug": "wikidata"}, "source_identifier": "Q4572341"}, {"id": 10920, "source": {"name": "VIAF", "slug": "viaf"}, "source_identifier": "100914574"}, {"id": 10921, "source": {"name": "LOC Auth", "slug": "loc-auth"}, "source_identifier": "n85296730"}, {"id": 10922, "source": {"name": "WorldCat", "slug": "worldcat"}, "source_identifier": "lccn-n85296730"}], "date_modified": "2023-09-05T22:17:17.727989+10:00"}, {"id": 79184, "name": "Keith Rubinstein", "roles_in_work": [{"id": 2355789, "title": "The In crowd", "work_id": 89585, "role": "co-producer", "role_id": 915, "is_primary": true}], "also_known_as": "", "date_of_birth": "", "date_of_death": "", "genders": [], "languages": [], "places_of_operation": [], "biography": "", "biography_author": null, "date_of_biography": "2023-05-09T20:03:41.862420+10:00", "external_links": [], "uuid": "6b6c2b0e-48f7-4a3c-a8de-99e2f59c0062", "source": {"name": "Vernon", "slug": "vernon"}, "source_identifier": "23155", "external_references": [{"id": 34985, "source": {"name": "Wikidata", "slug": "wikidata"}, "source_identifier": "Q121222922"}], "date_modified": "2023-09-05T22:03:59.536745+10:00"}]}