{"count": 28687, "next": "https://api.acmi.net.au/creators/?page=273", "previous": "https://api.acmi.net.au/creators/?page=271", "results": [{"id": 82887, "name": "Ce Cun Zhuang", "roles_in_work": [{"id": 2651418, "title": "Crescent moon = Yueyaer  = 月牙儿", "work_id": 115838, "role": "cast", "role_id": 33, "is_primary": false}], "also_known_as": "", "date_of_birth": "", "date_of_death": "", "genders": [], "languages": [], "places_of_operation": [], "biography": "", "biography_author": null, "date_of_biography": "2023-05-09T13:49:27.423127+10:00", "external_links": [], "uuid": "c977ef31-7bb1-4977-bc87-7f888e8c2d1a", "source": {"name": "Vernon", "slug": "vernon"}, "source_identifier": "37644", "external_references": [{"id": 32602, "source": {"name": "Wikidata", "slug": "wikidata"}, "source_identifier": "Q121126043"}], "date_modified": "2025-03-05T14:29:47.108209+11:00"}, {"id": 82886, "name": "Si Qin Gao Wa", "roles_in_work": [{"id": 2651417, "title": "Crescent moon = Yueyaer  = 月牙儿", "work_id": 115838, "role": "cast", "role_id": 33, "is_primary": false}], "also_known_as": "", "date_of_birth": "", "date_of_death": "", "genders": [], "languages": [], "places_of_operation": [], "biography": "", "biography_author": null, "date_of_biography": "2023-05-09T13:49:27.180562+10:00", "external_links": [], "uuid": "d67f12b8-87bd-48b1-82f2-28a104a45054", "source": {"name": "Vernon", "slug": "vernon"}, "source_identifier": "37643", "external_references": [{"id": 43022, "source": {"name": "Wikidata", "slug": "wikidata"}, "source_identifier": "Q121035124"}], "date_modified": "2025-03-05T14:29:46.521776+11:00"}, {"id": 82885, "name": "Song Dan Dan", "roles_in_work": [{"id": 2651416, "title": "Crescent moon = Yueyaer  = 月牙儿", "work_id": 115838, "role": "cast", "role_id": 33, "is_primary": false}], "also_known_as": "", "date_of_birth": "", "date_of_death": "", "genders": [], "languages": [], "places_of_operation": [], "biography": "", "biography_author": null, "date_of_biography": "2023-05-09T13:49:26.935496+10:00", "external_links": [], "uuid": "fa32dde6-74b2-4af8-b8a7-ac221b0b9860", "source": {"name": "Vernon", "slug": "vernon"}, "source_identifier": "37642", "external_references": [{"id": 33619, "source": {"name": "Wikidata", "slug": "wikidata"}, "source_identifier": "Q121271384"}], "date_modified": "2025-03-05T14:29:45.929069+11:00"}, {"id": 82884, "name": "An Xiao Hua", "roles_in_work": [{"id": 2651415, "title": "Crescent moon = Yueyaer  = 月牙儿", "work_id": 115838, "role": "editor", "role_id": 918, "is_primary": true}], "also_known_as": "", "date_of_birth": "", "date_of_death": "", "genders": [], "languages": [], "places_of_operation": [], "biography": "", "biography_author": null, "date_of_biography": "2023-05-09T13:49:26.670119+10:00", "external_links": [], "uuid": "4b73e43a-29a5-479b-a306-231e0774e366", "source": {"name": "Vernon", "slug": "vernon"}, "source_identifier": "37641", "external_references": [{"id": 35540, "source": {"name": "Wikidata", "slug": "wikidata"}, "source_identifier": "Q121036570"}], "date_modified": "2025-03-05T14:29:45.339910+11:00"}, {"id": 82883, "name": "Ting Mei", "roles_in_work": [{"id": 2651414, "title": "Crescent moon = Yueyaer  = 月牙儿", "work_id": 115838, "role": "editor", "role_id": 918, "is_primary": true}], "also_known_as": "", "date_of_birth": "", "date_of_death": "", "genders": [], "languages": [], "places_of_operation": [], "biography": "", "biography_author": null, "date_of_biography": "2023-05-09T13:49:26.428185+10:00", "external_links": [], "uuid": "94b1289a-b523-4372-a95c-8e89249d591b", "source": {"name": "Vernon", "slug": "vernon"}, "source_identifier": "37640", "external_references": [], "date_modified": "2025-03-05T14:29:44.694208+11:00"}, {"id": 82882, "name": "Xu Jingxin", "roles_in_work": [{"id": 2651413, "title": "Crescent moon = Yueyaer  = 月牙儿", "work_id": 115838, "role": "composer", "role_id": 538, "is_primary": false}, {"id": 2317482, "title": "Sunrise = 日出", "work_id": 115841, "role": "editor", "role_id": 918, "is_primary": true}], "also_known_as": "", "date_of_birth": "", "date_of_death": "", "genders": [], "languages": [], "places_of_operation": [], "biography": "", "biography_author": null, "date_of_biography": "2023-05-09T19:07:05.540946+10:00", "external_links": [], "uuid": "3ff2a0ad-de15-4d11-86bd-9f1e5cc96037", "source": {"name": "Vernon", "slug": "vernon"}, "source_identifier": "37639", "external_references": [{"id": 33533, "source": {"name": "Wikidata", "slug": "wikidata"}, "source_identifier": "Q121144105"}], "date_modified": "2025-03-05T14:29:44.099461+11:00"}, {"id": 82881, "name": "Meng Fan Jun", "roles_in_work": [{"id": 2651412, "title": "Crescent moon = Yueyaer  = 月牙儿", "work_id": 115838, "role": "cinematographer", "role_id": 32, "is_primary": false}], "also_known_as": "", "date_of_birth": "", "date_of_death": "", "genders": [], "languages": [], "places_of_operation": [], "biography": "", "biography_author": null, "date_of_biography": "2023-05-09T13:49:25.929872+10:00", "external_links": [], "uuid": "9d1b8ae9-73ae-47b0-86f9-e0b50fe07ef2", "source": {"name": "Vernon", "slug": "vernon"}, "source_identifier": "37638", "external_references": [{"id": 33359, "source": {"name": "Wikidata", "slug": "wikidata"}, "source_identifier": "Q121315164"}], "date_modified": "2025-03-05T14:29:43.431904+11:00"}, {"id": 82880, "name": "Sun Cheng", "roles_in_work": [{"id": 2651411, "title": "Crescent moon = Yueyaer  = 月牙儿", "work_id": 115838, "role": "cinematographer", "role_id": 32, "is_primary": false}], "also_known_as": "", "date_of_birth": "", "date_of_death": "", "genders": [], "languages": [], "places_of_operation": [], "biography": "", "biography_author": null, "date_of_biography": "2023-05-09T13:49:25.692153+10:00", "external_links": [], "uuid": "f0f21eda-3f0e-4951-b3ab-177eb44c9e84", "source": {"name": "Vernon", "slug": "vernon"}, "source_identifier": "37637", "external_references": [{"id": 33886, "source": {"name": "Wikidata", "slug": "wikidata"}, "source_identifier": "Q121036335"}], "date_modified": "2025-03-05T14:29:42.838241+11:00"}, {"id": 82879, "name": "Zhanag Fan", "roles_in_work": [{"id": 2651410, "title": "Crescent moon = Yueyaer  = 月牙儿", "work_id": 115838, "role": "writer", "role_id": 939, "is_primary": true}], "also_known_as": "", "date_of_birth": "", "date_of_death": "", "genders": [], "languages": [], "places_of_operation": [], "biography": "", "biography_author": null, "date_of_biography": "2023-05-09T13:49:25.448458+10:00", "external_links": [], "uuid": "9f672c70-4286-43c9-8b89-012b3e324e61", "source": {"name": "Vernon", "slug": "vernon"}, "source_identifier": "37636", "external_references": [{"id": 40206, "source": {"name": "Wikidata", "slug": "wikidata"}, "source_identifier": "Q121223335"}], "date_modified": "2025-03-05T14:29:42.252849+11:00"}, {"id": 82878, "name": "Wang Zhi An", "roles_in_work": [{"id": 2651409, "title": "Crescent moon = Yueyaer  = 月牙儿", "work_id": 115838, "role": "writer", "role_id": 939, "is_primary": true}], "also_known_as": "", "date_of_birth": "", "date_of_death": "", "genders": [], "languages": [], "places_of_operation": [], "biography": "", "biography_author": null, "date_of_biography": "2023-05-09T13:49:25.097258+10:00", "external_links": [], "uuid": "0723637a-fdde-40b6-b986-b160cbd87593", "source": {"name": "Vernon", "slug": "vernon"}, "source_identifier": "37635", "external_references": [{"id": 35630, "source": {"name": "Wikidata", "slug": "wikidata"}, "source_identifier": "Q121036474"}], "date_modified": "2025-03-05T14:29:41.664458+11:00"}]}