{"count": 28687, "next": "https://api.acmi.net.au/creators/?page=2588", "previous": "https://api.acmi.net.au/creators/?page=2586", "results": [{"id": 12820, "name": "Pathescope Company of America", "roles_in_work": [{"id": 2760698, "title": "First aid for fractures: introduction", "work_id": 90368, "role": "production company", "role_id": 941, "is_primary": true}, {"id": 2760531, "title": "Auxiliary views: single auxiliaries", "work_id": 65173, "role": "production company", "role_id": 941, "is_primary": true}, {"id": 2760529, "title": "Auxiliary views: double auxiliaries", "work_id": 65171, "role": "production company", "role_id": 941, "is_primary": true}, {"id": 2716419, "title": "The Inner man steps out", "work_id": 68947, "role": "production company", "role_id": 941, "is_primary": true}, {"id": 2678007, "title": "Auxiliary views. Pt. 1", "work_id": 65172, "role": "production company", "role_id": 941, "is_primary": true}, {"id": 2760694, "title": "The Thomas leg splint", "work_id": 67546, "role": "production company", "role_id": 941, "is_primary": true}, {"id": 2760692, "title": "Skull, spine, and pelvis", "work_id": 67545, "role": "production company", "role_id": 941, "is_primary": true}, {"id": 2760696, "title": "The Universal leg splint", "work_id": 67548, "role": "production company", "role_id": 941, "is_primary": true}, {"id": 2401723, "title": "Sections", "work_id": 72616, "role": "production company", "role_id": 941, "is_primary": true}, {"id": 2401725, "title": "Size description", "work_id": 72874, "role": "production company", "role_id": 941, "is_primary": true}, {"id": 2401728, "title": "Shape description. Part 1", "work_id": 72723, "role": "production company", "role_id": 941, "is_primary": true}, {"id": 875331, "title": "Orthographic projection", "work_id": 89453, "role": "production company", "role_id": 941, "is_primary": true}, {"id": 2401727, "title": "Shop procedures", "work_id": 72779, "role": "production company", "role_id": 941, "is_primary": true}, {"id": 2401724, "title": "Shape description. Part 2", "work_id": 72724, "role": "production company", "role_id": 941, "is_primary": true}, {"id": 2760534, "title": "Sections and conventions", "work_id": 72617, "role": "production company", "role_id": 941, "is_primary": true}, {"id": 2760540, "title": "According to plan", "work_id": 89424, "role": "production company", "role_id": 941, "is_primary": true}], "also_known_as": "", "date_of_birth": "", "date_of_death": "", "genders": [], "languages": [], "places_of_operation": [], "biography": "", "biography_author": null, "date_of_biography": "2023-08-11T14:31:02.326315+10:00", "external_links": [], "uuid": "b412c70c-d00f-452c-8a64-ce6af58462ba", "source": {"name": "Vernon", "slug": "vernon"}, "source_identifier": "11338", "external_references": [], "date_modified": "2025-03-14T17:27:25.001051+11:00"}, {"id": 12819, "name": "Jon Wilkman", "roles_in_work": [{"id": 2754932, "title": "Autos and all that traffic", "work_id": 65168, "role": "director", "role_id": 938, "is_primary": true}], "also_known_as": "", "date_of_birth": "", "date_of_death": "", "genders": [], "languages": [], "places_of_operation": [], "biography": "", "biography_author": null, "date_of_biography": "2023-08-11T19:00:29.101079+10:00", "external_links": [], "uuid": "20c87fae-deef-43cb-a73d-e2dd0530aab6", "source": {"name": "Vernon", "slug": "vernon"}, "source_identifier": "1808", "external_references": [], "date_modified": "2025-03-13T01:55:18.429506+11:00"}, {"id": 12818, "name": "British Films", "roles_in_work": [{"id": 2679115, "title": "Camp schools", "work_id": 65741, "role": "production company", "role_id": 941, "is_primary": true}, {"id": 2678000, "title": "The Autonomic nervous system", "work_id": 65167, "role": "production company", "role_id": 941, "is_primary": true}, {"id": 2712805, "title": "Electrostatic copying", "work_id": 67100, "role": "production company", "role_id": 941, "is_primary": true}, {"id": 2679628, "title": "Cheddar Gorge and its caves", "work_id": 65990, "role": "production company", "role_id": 941, "is_primary": true}, {"id": 2680764, "title": "The Curiosity that kills the cat", "work_id": 66546, "role": "production company", "role_id": 941, "is_primary": true}, {"id": 2644223, "title": "Briefing for health", "work_id": 65606, "role": "production company", "role_id": 941, "is_primary": true}, {"id": 752876, "title": "The Sea shall test her", "work_id": 72572, "role": "production company", "role_id": 941, "is_primary": true}, {"id": 860571, "title": "Wave particle duality", "work_id": 74533, "role": "production company", "role_id": 941, "is_primary": true}, {"id": 803444, "title": "Royal Air Force police dog training", "work_id": 89686, "role": "production company", "role_id": 941, "is_primary": true}, {"id": 2414118, "title": "Land of invention", "work_id": 69485, "role": "production company", "role_id": 941, "is_primary": true}], "also_known_as": "", "date_of_birth": "", "date_of_death": "", "genders": [], "languages": [], "places_of_operation": [], "biography": "", "biography_author": null, "date_of_biography": "2023-08-11T19:11:49.978773+10:00", "external_links": [], "uuid": "63301f4b-0dcd-420a-bd74-c97c46740378", "source": {"name": "Vernon", "slug": "vernon"}, "source_identifier": "6014", "external_references": [], "date_modified": "2025-03-12T00:30:28.952114+11:00"}, {"id": 12815, "name": "Instrument Society of America", "roles_in_work": [{"id": 2644084, "title": "Automatic process control", "work_id": 65164, "role": "production company", "role_id": 941, "is_primary": true}], "also_known_as": "", "date_of_birth": "", "date_of_death": "", "genders": [], "languages": [], "places_of_operation": [], "biography": "", "biography_author": null, "date_of_biography": "2023-08-11T14:30:32.142073+10:00", "external_links": [], "uuid": "793f8826-ca1f-4f72-8875-e8abd3641da7", "source": {"name": "Vernon", "slug": "vernon"}, "source_identifier": "9332", "external_references": [], "date_modified": "2025-03-05T12:10:55.958335+11:00"}, {"id": 12814, "name": "Wetenschap Universitaire Film", "roles_in_work": [{"id": 2677992, "title": "Autistic Syndrome 1", "work_id": 65159, "role": "production company", "role_id": 941, "is_primary": true}], "also_known_as": "", "date_of_birth": "", "date_of_death": "", "genders": [], "languages": [], "places_of_operation": [], "biography": "", "biography_author": null, "date_of_biography": "2023-08-11T14:30:27.757393+10:00", "external_links": [], "uuid": "b8132e7d-52c4-4ba0-96d5-cba3b69b33c0", "source": {"name": "Vernon", "slug": "vernon"}, "source_identifier": "14331", "external_references": [], "date_modified": "2025-03-06T23:32:38.524843+11:00"}, {"id": 12813, "name": "Stichting Film", "roles_in_work": [{"id": 2677991, "title": "Autistic Syndrome 1", "work_id": 65159, "role": "production company", "role_id": 941, "is_primary": true}], "also_known_as": "", "date_of_birth": "", "date_of_death": "", "genders": [], "languages": [], "places_of_operation": [], "biography": "", "biography_author": null, "date_of_biography": "2023-08-11T14:30:27.038947+10:00", "external_links": [], "uuid": "06ad7768-b3c0-4f9f-b352-15146a804a4e", "source": {"name": "Vernon", "slug": "vernon"}, "source_identifier": "12959", "external_references": [], "date_modified": "2025-03-06T23:32:37.945715+11:00"}, {"id": 12812, "name": "Jack Willis", "roles_in_work": [{"id": 2677990, "title": "Child psychiatry: autism's lonely children", "work_id": 65158, "role": "director", "role_id": 938, "is_primary": true}, {"id": 895872, "title": "Spectrum: psychobiology - split brain (D)", "work_id": 73083, "role": "co-director", "role_id": 959, "is_primary": true}, {"id": 913123, "title": "Paul Jacob and the nuclear gang", "work_id": 93076, "role": "co-director", "role_id": 959, "is_primary": true}, {"id": 1813538, "title": "Paul Jacob and the nuclear gang", "work_id": 93076, "role": "producer", "role_id": 1089, "is_primary": true}], "also_known_as": "", "date_of_birth": null, "date_of_death": null, "genders": [], "languages": [], "places_of_operation": [], "biography": "", "biography_author": null, "date_of_biography": null, "external_links": [], "uuid": "5aa8d89e-7542-42ff-a0e9-79adcff1a83e", "source": {"name": "Vernon", "slug": "vernon"}, "source_identifier": "21105", "external_references": [], "date_modified": "2025-03-06T23:32:37.107439+11:00"}, {"id": 12811, "name": "Philip Burton", "roles_in_work": [{"id": 859196, "title": "Take a deep deadly breath. Part II", "work_id": 73459, "role": "director", "role_id": 938, "is_primary": true}, {"id": 2754935, "title": "Autos, autos everywhere", "work_id": 65169, "role": "director", "role_id": 938, "is_primary": true}, {"id": 862751, "title": "Take a deep deadly breath. Part III", "work_id": 76513, "role": "director", "role_id": 938, "is_primary": true}, {"id": 2677989, "title": "Child psychiatry: autism's lonely children", "work_id": 65158, "role": "director", "role_id": 938, "is_primary": true}, {"id": 895871, "title": "Spectrum: psychobiology - split brain (D)", "work_id": 73083, "role": "co-director", "role_id": 959, "is_primary": true}], "also_known_as": "", "date_of_birth": "", "date_of_death": "", "genders": [], "languages": [], "places_of_operation": [], "biography": "", "biography_author": null, "date_of_biography": "2023-08-11T19:00:42.540613+10:00", "external_links": [], "uuid": "fe5abe19-ea5c-4c08-b1a2-039e684290ee", "source": {"name": "Vernon", "slug": "vernon"}, "source_identifier": "1809", "external_references": [], "date_modified": "2025-03-13T01:55:20.492218+11:00"}, {"id": 12810, "name": "David Prowitt", "roles_in_work": [{"id": 2677988, "title": "Child psychiatry: autism's lonely children", "work_id": 65158, "role": "producer", "role_id": 1089, "is_primary": true}, {"id": 2765072, "title": "The Chain of life", "work_id": 76397, "role": "producer", "role_id": 1089, "is_primary": true}, {"id": 1807206, "title": "Spectrum: psychobiology - split brain (D)", "work_id": 73083, "role": "producer", "role_id": 1089, "is_primary": true}], "also_known_as": "", "date_of_birth": "", "date_of_death": "", "genders": [], "languages": [], "places_of_operation": [], "biography": "", "biography_author": null, "date_of_biography": "2023-08-14T11:07:20.194401+10:00", "external_links": [], "uuid": "77fa2606-f860-4daa-9f62-22857ced5efa", "source": {"name": "Vernon", "slug": "vernon"}, "source_identifier": "17762", "external_references": [], "date_modified": "2025-03-14T17:49:08.191637+11:00"}, {"id": 12809, "name": "Joan M. Curtis", "roles_in_work": [{"id": 2677986, "title": "Autism without tears", "work_id": 65157, "role": "producer", "role_id": 1089, "is_primary": true}], "also_known_as": "", "date_of_birth": "", "date_of_death": "", "genders": [], "languages": [], "places_of_operation": [], "biography": "", "biography_author": null, "date_of_biography": "2023-08-11T14:30:21.649443+10:00", "external_links": [], "uuid": "422b7dfd-42ac-49ae-9d80-0733751ef686", "source": {"name": "Vernon", "slug": "vernon"}, "source_identifier": "18434", "external_references": [], "date_modified": "2025-03-06T23:32:34.470579+11:00"}]}