{"count": 28687, "next": "https://api.acmi.net.au/creators/?page=1267", "previous": "https://api.acmi.net.au/creators/?page=1265", "results": [{"id": 39339, "name": "Selznick Properties", "roles_in_work": [{"id": 2754709, "title": "Making of a legend: Gone with the wind", "work_id": 99319, "role": "production company", "role_id": 941, "is_primary": true}], "also_known_as": "", "date_of_birth": null, "date_of_death": null, "genders": [], "languages": [], "places_of_operation": [], "biography": "", "biography_author": null, "date_of_biography": null, "external_links": [], "uuid": "4c2970aa-35fc-4024-948f-2a227f0260d2", "source": {"name": "Vernon", "slug": "vernon"}, "source_identifier": "12424", "external_references": [], "date_modified": "2025-03-13T01:50:09.964282+11:00"}, {"id": 39338, "name": "Brent Maddock", "roles_in_work": [{"id": 2754704, "title": "It's me, Claudia!", "work_id": 99317, "role": "director", "role_id": 938, "is_primary": true}], "also_known_as": "", "date_of_birth": null, "date_of_death": null, "genders": [], "languages": [], "places_of_operation": [], "biography": "", "biography_author": null, "date_of_biography": null, "external_links": [], "uuid": "3fa2603b-6d3d-4d5e-92d1-c6de75b718e7", "source": {"name": "Vernon", "slug": "vernon"}, "source_identifier": "16183", "external_references": [], "date_modified": "2025-03-13T01:50:06.457182+11:00"}, {"id": 39337, "name": "Soyuzmul Film Studios", "roles_in_work": [{"id": 2754701, "title": "Cinderella", "work_id": 99316, "role": "production company", "role_id": 941, "is_primary": true}], "also_known_as": "", "date_of_birth": "", "date_of_death": "", "genders": [], "languages": [], "places_of_operation": [], "biography": "", "biography_author": null, "date_of_biography": "2023-08-11T15:26:21.450020+10:00", "external_links": [], "uuid": "cc9aa79b-7f7d-4e16-8582-299fbba07506", "source": {"name": "Vernon", "slug": "vernon"}, "source_identifier": "12818", "external_references": [], "date_modified": "2025-03-13T01:50:02.128336+11:00"}, {"id": 39336, "name": "Peter Coyle", "roles_in_work": [{"id": 2754698, "title": "Keeping warm", "work_id": 99314, "role": "producer", "role_id": 1089, "is_primary": true}], "also_known_as": "", "date_of_birth": null, "date_of_death": null, "genders": [], "languages": [], "places_of_operation": [], "biography": "", "biography_author": null, "date_of_biography": null, "external_links": [], "uuid": "8131861f-290f-4688-8a06-37b6cb49f3da", "source": {"name": "Vernon", "slug": "vernon"}, "source_identifier": "26507", "external_references": [], "date_modified": "2025-03-13T01:48:40.786978+11:00"}, {"id": 39334, "name": "Patrick Gillespie", "roles_in_work": [{"id": 2754694, "title": "Penguin island: Australia's little penguins", "work_id": 99312, "role": "director", "role_id": 938, "is_primary": true}], "also_known_as": "", "date_of_birth": "", "date_of_death": "", "genders": [], "languages": [], "places_of_operation": [], "biography": "", "biography_author": null, "date_of_biography": "2023-08-14T10:18:19.463014+10:00", "external_links": [], "uuid": "92237c72-74d1-4a68-ac7e-06155af32fe1", "source": {"name": "Vernon", "slug": "vernon"}, "source_identifier": "26128", "external_references": [], "date_modified": "2025-03-13T01:48:37.890104+11:00"}, {"id": 39333, "name": "Gordon Badham", "roles_in_work": [{"id": 2754693, "title": "Penguin island: Australia's little penguins", "work_id": 99312, "role": "producer", "role_id": 1089, "is_primary": true}], "also_known_as": "", "date_of_birth": "", "date_of_death": "", "genders": [], "languages": [], "places_of_operation": [], "biography": "", "biography_author": null, "date_of_biography": "2023-08-14T10:18:18.837865+10:00", "external_links": [], "uuid": "d3579571-5765-41df-aeb4-03802133d021", "source": {"name": "Vernon", "slug": "vernon"}, "source_identifier": "19922", "external_references": [], "date_modified": "2025-03-13T01:48:37.293569+11:00"}, {"id": 39332, "name": "BandG Communications", "roles_in_work": [{"id": 2754692, "title": "Penguin island: Australia's little penguins", "work_id": 99312, "role": "production company", "role_id": 941, "is_primary": true}], "also_known_as": "", "date_of_birth": "", "date_of_death": "", "genders": [], "languages": [], "places_of_operation": [], "biography": "", "biography_author": null, "date_of_biography": "2023-08-14T10:18:18.221122+10:00", "external_links": [], "uuid": "89865163-df23-410a-82de-8478bcd3cc61", "source": {"name": "Vernon", "slug": "vernon"}, "source_identifier": "5704", "external_references": [], "date_modified": "2025-03-13T01:48:36.693013+11:00"}, {"id": 39330, "name": "Jane Howell", "roles_in_work": [{"id": 2754683, "title": "Winter's tale", "work_id": 99307, "role": "director", "role_id": 938, "is_primary": true}], "also_known_as": "", "date_of_birth": null, "date_of_death": null, "genders": [], "languages": [], "places_of_operation": [], "biography": "", "biography_author": null, "date_of_biography": null, "external_links": [], "uuid": "cc35ce75-da5f-4c30-879d-7fda1b776aa8", "source": {"name": "Vernon", "slug": "vernon"}, "source_identifier": "21411", "external_references": [], "date_modified": "2025-03-13T01:48:30.880809+11:00"}, {"id": 39329, "name": "Jethro Films Pty Ltd", "roles_in_work": [{"id": 2754678, "title": "Raoul Wallenberg: between the lines [Edited version]", "work_id": 99306, "role": "production company", "role_id": 941, "is_primary": true}], "also_known_as": "", "date_of_birth": null, "date_of_death": null, "genders": [], "languages": [], "places_of_operation": [], "biography": "", "biography_author": null, "date_of_biography": null, "external_links": [], "uuid": "77cfacae-d8ac-4b22-b72f-13189e5aff50", "source": {"name": "Vernon", "slug": "vernon"}, "source_identifier": "9594", "external_references": [], "date_modified": "2025-03-13T01:48:27.632997+11:00"}, {"id": 39328, "name": "Russell Goodear", "roles_in_work": [{"id": 2754677, "title": "Attenborough on Gandhi", "work_id": 99305, "role": "producer", "role_id": 1089, "is_primary": true}], "also_known_as": "", "date_of_birth": "", "date_of_death": "", "genders": [], "languages": [], "places_of_operation": [], "biography": "", "biography_author": null, "date_of_biography": "2023-08-11T14:26:21.128268+10:00", "external_links": [], "uuid": "4f7a3fa3-3f8d-4e6e-befb-470b8f53ddf5", "source": {"name": "Vernon", "slug": "vernon"}, "source_identifier": "28358", "external_references": [], "date_modified": "2025-03-13T01:48:26.680797+11:00"}]}