{"count": 28687, "next": "https://api.acmi.net.au/creators/?page=1336", "previous": "https://api.acmi.net.au/creators/?page=1334", "results": [{"id": 38352, "name": "Asbestos", "roles_in_work": [{"id": 2750407, "title": "Kick me", "work_id": 97308, "role": "production company", "role_id": 941, "is_primary": true}], "also_known_as": "", "date_of_birth": "", "date_of_death": "", "genders": [], "languages": [], "places_of_operation": [], "biography": "", "biography_author": null, "date_of_biography": "2023-08-11T19:05:40.456816+10:00", "external_links": [], "uuid": "0e06a501-1ef8-44ce-9991-967589b1dd04", "source": {"name": "Vernon", "slug": "vernon"}, "source_identifier": "5436", "external_references": [], "date_modified": "2025-03-13T00:21:36.932820+11:00"}, {"id": 38351, "name": "Lawrence Halprin", "roles_in_work": [{"id": 2750406, "title": "Le Pink grapefruit", "work_id": 97307, "role": "director", "role_id": 938, "is_primary": true}], "also_known_as": "", "date_of_birth": null, "date_of_death": null, "genders": [], "languages": [], "places_of_operation": [], "biography": "", "biography_author": null, "date_of_biography": null, "external_links": [], "uuid": "cc520215-f3d5-4641-b410-b3a5ec95dcd1", "source": {"name": "Vernon", "slug": "vernon"}, "source_identifier": "23583", "external_references": [], "date_modified": "2025-03-13T00:21:36.113339+11:00"}, {"id": 38350, "name": "Sue Yung Li Ikeda", "roles_in_work": [{"id": 2750405, "title": "Le Pink grapefruit", "work_id": 97307, "role": "producer", "role_id": 1089, "is_primary": true}], "also_known_as": "", "date_of_birth": null, "date_of_death": null, "genders": [], "languages": [], "places_of_operation": [], "biography": "", "biography_author": null, "date_of_biography": null, "external_links": [], "uuid": "9e876ff7-8fb7-4b1a-9197-a833824a3bd2", "source": {"name": "Vernon", "slug": "vernon"}, "source_identifier": "29319", "external_references": [], "date_modified": "2025-03-13T00:21:35.522836+11:00"}, {"id": 38349, "name": "Roadhouse Productions", "roles_in_work": [{"id": 2750404, "title": "Le Pink grapefruit", "work_id": 97307, "role": "production company", "role_id": 941, "is_primary": true}], "also_known_as": "", "date_of_birth": null, "date_of_death": null, "genders": [], "languages": [], "places_of_operation": [], "biography": "", "biography_author": null, "date_of_biography": null, "external_links": [], "uuid": "7debc8b2-13a5-40c2-92a5-c9cb593f5495", "source": {"name": "Vernon", "slug": "vernon"}, "source_identifier": "12061", "external_references": [], "date_modified": "2025-03-13T00:21:34.828666+11:00"}, {"id": 38348, "name": "Peter Pilafian", "roles_in_work": [{"id": 2750402, "title": "Master weavers of the Andes", "work_id": 97306, "role": "director", "role_id": 938, "is_primary": true}], "also_known_as": "", "date_of_birth": "", "date_of_death": "", "genders": [], "languages": [], "places_of_operation": [], "biography": "", "biography_author": null, "date_of_biography": "2023-08-11T19:44:08.683325+10:00", "external_links": [], "uuid": "b14422b2-dbf6-44e6-b551-381cf663ec83", "source": {"name": "Vernon", "slug": "vernon"}, "source_identifier": "26671", "external_references": [], "date_modified": "2025-03-13T00:21:33.285537+11:00"}, {"id": 38347, "name": "Sydney Panorama Productions", "roles_in_work": [{"id": 2750396, "title": "It's easy to criticize", "work_id": 97303, "role": "production company", "role_id": 941, "is_primary": true}], "also_known_as": "", "date_of_birth": "", "date_of_death": "", "genders": [], "languages": [], "places_of_operation": [], "biography": "", "biography_author": null, "date_of_biography": "2023-08-11T18:42:26.780331+10:00", "external_links": [], "uuid": "ebb251c9-ff1a-49fe-bf6e-e18cf239c0ab", "source": {"name": "Vernon", "slug": "vernon"}, "source_identifier": "13106", "external_references": [], "date_modified": "2025-03-13T00:21:28.994947+11:00"}, {"id": 38346, "name": "Albert Wallace", "roles_in_work": [{"id": 2750392, "title": "Watch out", "work_id": 97301, "role": "director", "role_id": 938, "is_primary": true}, {"id": 2750389, "title": "Good health: talking feet", "work_id": 97300, "role": "director", "role_id": 938, "is_primary": true}], "also_known_as": "", "date_of_birth": "", "date_of_death": "", "genders": [], "languages": [], "places_of_operation": [], "biography": "", "biography_author": null, "date_of_biography": "2023-08-11T17:06:32.025870+10:00", "external_links": [], "uuid": "729365ec-6b48-43e3-a30a-8cb409bd1f42", "source": {"name": "Vernon", "slug": "vernon"}, "source_identifier": "14848", "external_references": [], "date_modified": "2025-03-13T00:21:26.084896+11:00"}, {"id": 38345, "name": "Philip Grosset", "roles_in_work": [{"id": 2750391, "title": "Watch out", "work_id": 97301, "role": "producer", "role_id": 1089, "is_primary": true}, {"id": 2750388, "title": "Good health: talking feet", "work_id": 97300, "role": "producer", "role_id": 1089, "is_primary": true}], "also_known_as": "", "date_of_birth": "", "date_of_death": "", "genders": [], "languages": [], "places_of_operation": [], "biography": "", "biography_author": null, "date_of_biography": "2023-08-11T17:06:31.394624+10:00", "external_links": [], "uuid": "74ccd07b-c2c4-404c-b116-efdb4f3d667d", "source": {"name": "Vernon", "slug": "vernon"}, "source_identifier": "26819", "external_references": [], "date_modified": "2025-03-13T00:21:25.474470+11:00"}, {"id": 38344, "name": "ATV Colour Productions", "roles_in_work": [{"id": 2750387, "title": "Good health: talking feet", "work_id": 97300, "role": "production company", "role_id": 941, "is_primary": true}], "also_known_as": "", "date_of_birth": "", "date_of_death": "", "genders": [], "languages": [], "places_of_operation": [], "biography": "", "biography_author": null, "date_of_biography": "2023-08-11T17:06:30.745088+10:00", "external_links": [], "uuid": "2934c7ee-e55d-4532-8ccc-90337c641ef4", "source": {"name": "Vernon", "slug": "vernon"}, "source_identifier": "33342", "external_references": [], "date_modified": "2025-03-13T00:21:22.907497+11:00"}, {"id": 38343, "name": "Douglas Miller", "roles_in_work": [{"id": 2750380, "title": "The Small farm in America", "work_id": 97295, "role": "producer", "role_id": 1089, "is_primary": true}, {"id": 2753060, "title": "Machine story", "work_id": 98587, "role": "producer", "role_id": 1089, "is_primary": true}], "also_known_as": "", "date_of_birth": "", "date_of_death": "", "genders": [], "languages": [], "places_of_operation": [], "biography": "", "biography_author": null, "date_of_biography": "2023-08-14T11:34:37.880363+10:00", "external_links": [], "uuid": "0934297d-13aa-4fc0-8106-dd9fc3d4746d", "source": {"name": "Vernon", "slug": "vernon"}, "source_identifier": "18407", "external_references": [], "date_modified": "2025-03-13T01:17:02.107060+11:00"}]}