{"count": 28681, "next": "https://api.acmi.net.au/creators/?page=1644", "previous": "https://api.acmi.net.au/creators/?page=1642", "results": [{"id": 29941, "name": "Horace Shepard", "roles_in_work": [{"id": 872930, "title": "Peterborough Cathedral", "work_id": 87896, "role": "director", "role_id": 938, "is_primary": true}, {"id": 2795510, "title": "Cleopatra and Antony", "work_id": 88855, "role": "director", "role_id": 938, "is_primary": true}], "also_known_as": "", "date_of_birth": "", "date_of_death": "", "genders": [], "languages": [], "places_of_operation": [], "biography": "", "biography_author": null, "date_of_biography": "2023-08-11T18:51:18.373980+10:00", "external_links": [], "uuid": "aa04a633-6f64-4d2a-ad3a-6ed8e6566026", "source": {"name": "Vernon", "slug": "vernon"}, "source_identifier": "20593", "external_references": [], "date_modified": "2025-03-14T20:32:15.819736+11:00"}, {"id": 29933, "name": "Anatole de Grunwald", "roles_in_work": [{"id": 2347749, "title": "The Fallen idol. The Winslow boy", "work_id": 87885, "role": "producer", "role_id": 1089, "is_primary": true}, {"id": 2219090, "title": "English without tears", "work_id": 94733, "role": "production company", "role_id": 941, "is_primary": true}], "also_known_as": "", "date_of_birth": "1910-12-25", "date_of_death": "1967-01-13", "genders": [{"id": 9, "name": "Male", "slug": "male"}], "languages": [{"id": 1, "name": "English", "slug": "english"}], "places_of_operation": [{"id": 10, "name": "United Kingdom", "slug": "united-kingdom"}], "biography": "Anatole \"Tolly\" de Grunwald (25 December 1910 – 13 January 1967) was a Russian British film producer and screenwriter.", "biography_author": "Wikidata", "date_of_biography": "2023-08-01T14:01:14.674281+10:00", "external_links": [{"id": 3543, "uri": "https://en.wikipedia.org/wiki/Anatole_de_Grunwald"}], "uuid": "f6f9b93b-0cf5-4d83-98fd-77b06d496f34", "source": {"name": "Vernon", "slug": "vernon"}, "source_identifier": "15087", "external_references": [{"id": 25001, "source": {"name": "Wikidata", "slug": "wikidata"}, "source_identifier": "Q487554"}, {"id": 27229, "source": {"name": "VIAF", "slug": "viaf"}, "source_identifier": "122745837"}, {"id": 27230, "source": {"name": "LOC Auth", "slug": "loc-auth"}, "source_identifier": "no90007311"}, {"id": 27231, "source": {"name": "WorldCat", "slug": "worldcat"}, "source_identifier": "lccn-no90007311"}], "date_modified": "2023-09-05T17:33:07.985449+10:00"}, {"id": 29932, "name": "Robin Laing", "roles_in_work": [{"id": 2244620, "title": "Flip and two twisters", "work_id": 93247, "role": "co-producer", "role_id": 915, "is_primary": true}, {"id": 913267, "title": "Ruby and Rata", "work_id": 93154, "role": "co-producer", "role_id": 915, "is_primary": true}, {"id": 911550, "title": "Mr Wrong", "work_id": 92298, "role": "co-producer", "role_id": 915, "is_primary": true}, {"id": 2123863, "title": "Bread and roses", "work_id": 87884, "role": "producer", "role_id": 1089, "is_primary": true}], "also_known_as": "", "date_of_birth": null, "date_of_death": null, "genders": [{"id": 5, "name": "Female", "slug": "female"}], "languages": [], "places_of_operation": [], "biography": "Robin Laing  is a New Zealand film producer.", "biography_author": "Wikidata", "date_of_biography": "2023-09-06T00:49:22+10:00", "external_links": [{"id": 6148, "uri": "https://en.wikipedia.org/wiki/Robin_Laing_(producer)"}], "uuid": "ce3ea4f7-6ca5-4399-b5ad-2ace8a917b86", "source": {"name": "Vernon", "slug": "vernon"}, "source_identifier": "27959", "external_references": [{"id": 50816, "source": {"name": "Wikidata", "slug": "wikidata"}, "source_identifier": "Q107199887"}, {"id": 55692, "source": {"name": "VIAF", "slug": "viaf"}, "source_identifier": "43990816"}, {"id": 55693, "source": {"name": "LOC Auth", "slug": "loc-auth"}, "source_identifier": "no2003075591"}], "date_modified": "2024-09-10T16:14:43.561575+10:00"}, {"id": 29931, "name": "Preston-Laing Productions", "roles_in_work": [{"id": 2123861, "title": "Bread and roses", "work_id": 87884, "role": "production company", "role_id": 941, "is_primary": true}, {"id": 913265, "title": "Ruby and Rata", "work_id": 93154, "role": "production company", "role_id": 941, "is_primary": true}, {"id": 911548, "title": "Mr Wrong", "work_id": 92298, "role": "production company", "role_id": 941, "is_primary": true}], "also_known_as": "", "date_of_birth": "", "date_of_death": "", "genders": [], "languages": [], "places_of_operation": [], "biography": "", "biography_author": null, "date_of_biography": "2023-05-09T13:07:53.830559+10:00", "external_links": [], "uuid": "c50b7074-f7d1-4ac8-9d49-f1d64438d800", "source": {"name": "Vernon", "slug": "vernon"}, "source_identifier": "11634", "external_references": [{"id": 41255, "source": {"name": "Wikidata", "slug": "wikidata"}, "source_identifier": "Q121271407"}], "date_modified": "2023-09-06T00:14:00.066534+10:00"}, {"id": 29926, "name": "ABTV", "roles_in_work": [{"id": 2128380, "title": "Byzantium: the lost empire", "work_id": 87876, "role": "production company", "role_id": 941, "is_primary": true}], "also_known_as": "", "date_of_birth": "", "date_of_death": "", "genders": [], "languages": [], "places_of_operation": [], "biography": "", "biography_author": null, "date_of_biography": "2023-05-09T13:15:14.439305+10:00", "external_links": [], "uuid": "e0fdd8ce-f5ba-419d-a65d-5f7260fd3f6b", "source": {"name": "Vernon", "slug": "vernon"}, "source_identifier": "4998", "external_references": [{"id": 34616, "source": {"name": "Wikidata", "slug": "wikidata"}, "source_identifier": "Q121091356"}], "date_modified": "2023-09-05T17:15:17.030452+10:00"}, {"id": 29924, "name": "Stephen Leigh", "roles_in_work": [{"id": 2795358, "title": "Fidel Castro: maximum leader", "work_id": 87871, "role": "producer", "role_id": 1089, "is_primary": true}], "also_known_as": "", "date_of_birth": "", "date_of_death": "", "genders": [], "languages": [], "places_of_operation": [], "biography": "", "biography_author": null, "date_of_biography": "2023-05-09T17:26:42.373211+10:00", "external_links": [], "uuid": "93b3bf66-72c1-4dca-bdc6-9e56a00f772c", "source": {"name": "Vernon", "slug": "vernon"}, "source_identifier": "29054", "external_references": [{"id": 35277, "source": {"name": "Wikidata", "slug": "wikidata"}, "source_identifier": "Q121034228"}], "date_modified": "2025-03-14T20:31:37.567363+11:00"}, {"id": 29921, "name": "Carlton International", "roles_in_work": [{"id": 2795323, "title": "Saddam Hussein: the godfather of Iraq", "work_id": 87869, "role": "production company", "role_id": 941, "is_primary": true}, {"id": 2795338, "title": "Nelson Mandela", "work_id": 87870, "role": "production company", "role_id": 941, "is_primary": true}, {"id": 2795355, "title": "Fidel Castro: maximum leader", "work_id": 87871, "role": "production company", "role_id": 941, "is_primary": true}, {"id": 2795306, "title": "Margaret Thatcher", "work_id": 87868, "role": "production company", "role_id": 941, "is_primary": true}, {"id": 2795369, "title": "Ronald Reagan", "work_id": 87872, "role": "production company", "role_id": 941, "is_primary": true}, {"id": 2795289, "title": "Lech Walesa", "work_id": 87867, "role": "production company", "role_id": 941, "is_primary": true}], "also_known_as": "", "date_of_birth": "", "date_of_death": "", "genders": [], "languages": [], "places_of_operation": [], "biography": "", "biography_author": null, "date_of_biography": "2023-05-09T17:26:49.183673+10:00", "external_links": [], "uuid": "5cf3dfcf-b31f-462a-8415-dbc1a7a6587a", "source": {"name": "Vernon", "slug": "vernon"}, "source_identifier": "6301", "external_references": [{"id": 39428, "source": {"name": "Wikidata", "slug": "wikidata"}, "source_identifier": "Q121143912"}], "date_modified": "2025-03-14T20:31:40.207419+11:00"}, {"id": 29920, "name": "Mentorn International", "roles_in_work": [{"id": 2795320, "title": "Saddam Hussein: the godfather of Iraq", "work_id": 87869, "role": "production company", "role_id": 941, "is_primary": true}, {"id": 2795303, "title": "Margaret Thatcher", "work_id": 87868, "role": "production company", "role_id": 941, "is_primary": true}, {"id": 2795365, "title": "Ronald Reagan", "work_id": 87872, "role": "production company", "role_id": 941, "is_primary": true}, {"id": 2795287, "title": "Lech Walesa", "work_id": 87867, "role": "production company", "role_id": 941, "is_primary": true}, {"id": 2795336, "title": "Nelson Mandela", "work_id": 87870, "role": "production company", "role_id": 941, "is_primary": true}, {"id": 2795353, "title": "Fidel Castro: maximum leader", "work_id": 87871, "role": "production company", "role_id": 941, "is_primary": true}], "also_known_as": "", "date_of_birth": "", "date_of_death": "", "genders": [], "languages": [], "places_of_operation": [], "biography": "", "biography_author": null, "date_of_biography": "2023-05-09T17:26:48.961354+10:00", "external_links": [], "uuid": "52a77086-7544-42ef-b27d-c6a31811b20c", "source": {"name": "Vernon", "slug": "vernon"}, "source_identifier": "10470", "external_references": [{"id": 40283, "source": {"name": "Wikidata", "slug": "wikidata"}, "source_identifier": "Q121337176"}], "date_modified": "2025-03-14T20:31:39.609269+11:00"}, {"id": 29919, "name": "Reel", "roles_in_work": [{"id": 2795364, "title": "Ronald Reagan", "work_id": 87872, "role": "production company", "role_id": 941, "is_primary": true}, {"id": 2795301, "title": "Margaret Thatcher", "work_id": 87868, "role": "production company", "role_id": 941, "is_primary": true}, {"id": 2795318, "title": "Saddam Hussein: the godfather of Iraq", "work_id": 87869, "role": "production company", "role_id": 941, "is_primary": true}, {"id": 2795334, "title": "Nelson Mandela", "work_id": 87870, "role": "production company", "role_id": 941, "is_primary": true}, {"id": 2795350, "title": "Fidel Castro: maximum leader", "work_id": 87871, "role": "production company", "role_id": 941, "is_primary": true}, {"id": 2795284, "title": "Lech Walesa", "work_id": 87867, "role": "production company", "role_id": 941, "is_primary": true}], "also_known_as": "", "date_of_birth": "", "date_of_death": "", "genders": [], "languages": [], "places_of_operation": [], "biography": "", "biography_author": null, "date_of_biography": "2023-05-09T17:26:48.742017+10:00", "external_links": [], "uuid": "38f008f5-fd5e-473a-8c6c-f53fd7437424", "source": {"name": "Vernon", "slug": "vernon"}, "source_identifier": "11922", "external_references": [{"id": 40186, "source": {"name": "Wikidata", "slug": "wikidata"}, "source_identifier": "Q121091270"}], "date_modified": "2025-03-14T20:31:39.017020+11:00"}, {"id": 29916, "name": "Rhett Kirkwood", "roles_in_work": [{"id": 2202090, "title": "Phar Lap: the people's champion [DVD]", "work_id": 91708, "role": "producer", "role_id": 1089, "is_primary": true}], "also_known_as": "", "date_of_birth": "", "date_of_death": "", "genders": [], "languages": [], "places_of_operation": [], "biography": "", "biography_author": null, "date_of_biography": "2023-05-09T15:28:10.663783+10:00", "external_links": [], "uuid": "61da8c0a-d8d5-4058-a599-76effd3d2d67", "source": {"name": "Vernon", "slug": "vernon"}, "source_identifier": "27287", "external_references": [{"id": 34382, "source": {"name": "Wikidata", "slug": "wikidata"}, "source_identifier": "Q121034894"}], "date_modified": "2023-09-06T00:26:47.304876+10:00"}]}