{"count": 28687, "next": "https://api.acmi.net.au/creators/?page=2118", "previous": "https://api.acmi.net.au/creators/?page=2116", "results": [{"id": 20216, "name": "Phil Lohrey", "roles_in_work": [{"id": 2414559, "title": "Last stands: Tasmania", "work_id": 77164, "role": "director", "role_id": 938, "is_primary": true}, {"id": 2414557, "title": "Last stands: Tasmania", "work_id": 77164, "role": "co-producer", "role_id": 915, "is_primary": true}], "also_known_as": "", "date_of_birth": "", "date_of_death": "", "genders": [], "languages": [], "places_of_operation": [], "biography": "", "biography_author": null, "date_of_biography": "2023-08-11T19:18:49.452760+10:00", "external_links": [], "uuid": "f62d86b8-cc0b-44ea-80bf-d92ade4bbd5e", "source": {"name": "Vernon", "slug": "vernon"}, "source_identifier": "26790", "external_references": [], "date_modified": "2023-08-11T19:18:49.452999+10:00"}, {"id": 20215, "name": "Island Films", "roles_in_work": [{"id": 2410267, "title": "Huon cry", "work_id": 77569, "role": "production company", "role_id": 941, "is_primary": true}, {"id": 2414556, "title": "Last stands: Tasmania", "work_id": 77164, "role": "production company", "role_id": 941, "is_primary": true}, {"id": 2409575, "title": "Hillary ventures south", "work_id": 90280, "role": "production company", "role_id": 941, "is_primary": true}], "also_known_as": "", "date_of_birth": "", "date_of_death": "", "genders": [], "languages": [], "places_of_operation": [], "biography": "", "biography_author": null, "date_of_biography": "2023-08-11T19:18:47.559133+10:00", "external_links": [], "uuid": "0be3b9dd-7bed-44c6-872e-681aa6254b82", "source": {"name": "Vernon", "slug": "vernon"}, "source_identifier": "9451", "external_references": [], "date_modified": "2023-08-11T19:18:47.559375+10:00"}, {"id": 20212, "name": "Cinecontact", "roles_in_work": [{"id": 2174130, "title": "Kathe Kollwitz", "work_id": 77163, "role": "production company", "role_id": 941, "is_primary": true}], "also_known_as": "", "date_of_birth": "", "date_of_death": "", "genders": [], "languages": [], "places_of_operation": [], "biography": "", "biography_author": null, "date_of_biography": "2023-05-09T14:42:13.008090+10:00", "external_links": [], "uuid": "53b97318-1be7-46c4-b3e7-3714a6e1edb5", "source": {"name": "Vernon", "slug": "vernon"}, "source_identifier": "6676", "external_references": [{"id": 35339, "source": {"name": "Wikidata", "slug": "wikidata"}, "source_identifier": "Q121126346"}], "date_modified": "2023-09-05T18:37:44.384503+10:00"}, {"id": 20209, "name": "Scottish Health Education Unit", "roles_in_work": [{"id": 2761041, "title": "Confusion", "work_id": 77157, "role": "production company", "role_id": 941, "is_primary": true}, {"id": 2761045, "title": "Confusion: diagnosis and management", "work_id": 77160, "role": "production company", "role_id": 941, "is_primary": true}], "also_known_as": "", "date_of_birth": "", "date_of_death": "", "genders": [], "languages": [], "places_of_operation": [], "biography": "", "biography_author": null, "date_of_biography": "2023-08-11T15:40:47.587899+10:00", "external_links": [], "uuid": "14ee87c7-6967-418e-bd48-83b269cdb4e9", "source": {"name": "Vernon", "slug": "vernon"}, "source_identifier": "12367", "external_references": [], "date_modified": "2025-03-14T17:30:17.669005+11:00"}, {"id": 20208, "name": "Sidhartha Films", "roles_in_work": [{"id": 2761039, "title": "Confusion", "work_id": 77157, "role": "production company", "role_id": 941, "is_primary": true}, {"id": 2758328, "title": "Management in hospital", "work_id": 77158, "role": "production company", "role_id": 941, "is_primary": true}, {"id": 2758323, "title": "Management in the community", "work_id": 77159, "role": "production company", "role_id": 941, "is_primary": true}, {"id": 2761043, "title": "Confusion: diagnosis and management", "work_id": 77160, "role": "production company", "role_id": 941, "is_primary": true}], "also_known_as": "", "date_of_birth": "", "date_of_death": "", "genders": [], "languages": [], "places_of_operation": [], "biography": "", "biography_author": null, "date_of_biography": "2023-08-11T19:41:27.453939+10:00", "external_links": [], "uuid": "f1a8db91-2378-4cf6-a830-fa285cd797b8", "source": {"name": "Vernon", "slug": "vernon"}, "source_identifier": "12569", "external_references": [], "date_modified": "2025-03-14T17:30:17.084209+11:00"}, {"id": 20207, "name": "Patricia Stallone", "roles_in_work": [{"id": 2106251, "title": "Babies Are People Too (Captioned)", "work_id": 79141, "role": "director", "role_id": 938, "is_primary": true}, {"id": 897239, "title": "Killing us softly: advertising's image of women", "work_id": 77156, "role": "co-producers/directors", "role_id": 628, "is_primary": true}], "also_known_as": "", "date_of_birth": "", "date_of_death": "", "genders": [], "languages": [], "places_of_operation": [], "biography": "", "biography_author": null, "date_of_biography": "2023-05-09T12:39:08.631904+10:00", "external_links": [], "uuid": "7236a7df-d6ec-49ed-a804-0c5d17a59137", "source": {"name": "Vernon", "slug": "vernon"}, "source_identifier": "26118", "external_references": [{"id": 35926, "source": {"name": "Wikidata", "slug": "wikidata"}, "source_identifier": "Q121126248"}], "date_modified": "2023-09-05T23:42:48.464945+10:00"}, {"id": 20204, "name": "Cambridge Documentary Films", "roles_in_work": [{"id": 2128925, "title": "Calling the shots: the advertising of alcohol", "work_id": 77754, "role": "production company", "role_id": 941, "is_primary": true}, {"id": 864571, "title": "Taking our bodies back", "work_id": 78081, "role": "production company", "role_id": 941, "is_primary": true}, {"id": 897236, "title": "Killing us softly: advertising's image of women", "work_id": 77156, "role": "production company", "role_id": 941, "is_primary": true}, {"id": 2311031, "title": "Still killing us softly", "work_id": 81187, "role": "production company", "role_id": 941, "is_primary": true}, {"id": 2235594, "title": "Rape culture", "work_id": 77770, "role": "production company", "role_id": 941, "is_primary": true}], "also_known_as": "", "date_of_birth": "", "date_of_death": "", "genders": [], "languages": [], "places_of_operation": [], "biography": "Cambridge Documentary Films is a non profit organization established in Massachusetts in 1974.  The purpose of the organization is to create new perspectives on important social issues and give voice to groups and individuals whose perspectives are ignored by mainstream media. Cambridge Documentary Films produces and distributes award-winning documentaries to thousands of universities, community organizations, schools, libraries and public interest organizations throughout the United States and the world. These films have won numerous awards, including an Academy Award  and have been screened at the UN General Assembly, The White House, the Office of the Vice President, the US Congress and numerous state houses. The subjects include: advertising's image of women, domestic violence, trauma, rape, eating disorders, self-esteem, media literacy, homophobia, the labor movement, gender roles, career counseling, nuclear war, reproductive health hazards, the women's health movement, gay and lesbian parenting and other social issues.", "biography_author": "Wikidata", "date_of_biography": "2023-09-05T18:17:22.632851+10:00", "external_links": [{"id": 5723, "uri": "https://en.wikipedia.org/wiki/Cambridge_Documentary_Films"}], "uuid": "912bae46-3f48-4d4a-8228-f7a0a95a9331", "source": {"name": "Vernon", "slug": "vernon"}, "source_identifier": "6213", "external_references": [{"id": 35180, "source": {"name": "Wikidata", "slug": "wikidata"}, "source_identifier": "Q5025409"}], "date_modified": "2023-09-05T18:17:22.655541+10:00"}, {"id": 20202, "name": "Dave Bell Associates", "roles_in_work": [{"id": 918350, "title": "Mrs Peabody's beach", "work_id": 96280, "role": "production company", "role_id": 941, "is_primary": true}, {"id": 2182651, "title": "Dealing with Discipline Problems (TEFC)", "work_id": 78314, "role": "production company", "role_id": 941, "is_primary": true}, {"id": 2647811, "title": "Five steps to conflict resolution (TEFC)", "work_id": 77464, "role": "production company", "role_id": 941, "is_primary": true}, {"id": 2750821, "title": "The Feminine mistake", "work_id": 97522, "role": "production company", "role_id": 941, "is_primary": true}, {"id": 2752847, "title": "Sweet sixteen and pregnant", "work_id": 98487, "role": "production company", "role_id": 941, "is_primary": true}, {"id": 882702, "title": "Right and left hand values", "work_id": 93308, "role": "production company", "role_id": 941, "is_primary": true}, {"id": 864009, "title": "Classroom crisis: dealing with violence in school (TEFC)", "work_id": 77671, "role": "production company", "role_id": 941, "is_primary": true}, {"id": 827997, "title": "Fergi builds a business: Fergi goes inc.", "work_id": 97028, "role": "production company", "role_id": 941, "is_primary": true}, {"id": 2291745, "title": "The Truly exceptional Dan Haley", "work_id": 77149, "role": "production company", "role_id": 941, "is_primary": true}], "also_known_as": "", "date_of_birth": "", "date_of_death": "", "genders": [], "languages": [], "places_of_operation": [], "biography": "", "biography_author": null, "date_of_biography": "2023-05-09T18:20:35.927121+10:00", "external_links": [], "uuid": "e9a3dc45-7b86-443f-a292-53d4abd5d301", "source": {"name": "Vernon", "slug": "vernon"}, "source_identifier": "4583", "external_references": [{"id": 39703, "source": {"name": "Wikidata", "slug": "wikidata"}, "source_identifier": "Q121034192"}], "date_modified": "2025-03-13T01:13:02.774430+11:00"}, {"id": 20200, "name": "Chuck Eyler", "roles_in_work": [{"id": 2647715, "title": "Earthly beings", "work_id": 77148, "role": "director", "role_id": 938, "is_primary": true}, {"id": 2647713, "title": "Earthly beings", "work_id": 77148, "role": "co-producer", "role_id": 915, "is_primary": true}], "also_known_as": "", "date_of_birth": "", "date_of_death": "", "genders": [], "languages": [], "places_of_operation": [], "biography": "", "biography_author": null, "date_of_biography": "2023-05-09T15:50:07.157271+10:00", "external_links": [], "uuid": "63b60935-5ae6-4991-88e0-f844a8656d85", "source": {"name": "Vernon", "slug": "vernon"}, "source_identifier": "17018", "external_references": [{"id": 38627, "source": {"name": "Wikidata", "slug": "wikidata"}, "source_identifier": "Q121160084"}], "date_modified": "2025-03-05T13:31:21.342109+11:00"}, {"id": 20199, "name": "Heaping Teaspoon Animation", "roles_in_work": [{"id": 2647712, "title": "Earthly beings", "work_id": 77148, "role": "production company", "role_id": 941, "is_primary": true}], "also_known_as": "", "date_of_birth": "", "date_of_death": "", "genders": [], "languages": [], "places_of_operation": [], "biography": "", "biography_author": null, "date_of_biography": "2023-05-09T15:50:06.450551+10:00", "external_links": [], "uuid": "c74e42a3-eeb3-4b4c-b37a-cf162afaf442", "source": {"name": "Vernon", "slug": "vernon"}, "source_identifier": "9044", "external_references": [{"id": 41809, "source": {"name": "Wikidata", "slug": "wikidata"}, "source_identifier": "Q121337270"}], "date_modified": "2025-03-05T13:31:19.610823+11:00"}]}