{"count": 28687, "next": "https://api.acmi.net.au/creators/?page=1512", "previous": "https://api.acmi.net.au/creators/?page=1510", "results": [{"id": 33425, "name": "Vladimir Michalek", "roles_in_work": [{"id": 2400473, "title": "Angel exit. Sekala has to die", "work_id": 92246, "role": "director", "role_id": 938, "is_primary": true}], "also_known_as": "", "date_of_birth": "", "date_of_death": "", "genders": [], "languages": [], "places_of_operation": [], "biography": "", "biography_author": null, "date_of_biography": "2023-08-11T14:06:22.506632+10:00", "external_links": [], "uuid": "8310fd66-0e33-453b-94b0-8294f1d48169", "source": {"name": "Vernon", "slug": "vernon"}, "source_identifier": "30173", "external_references": [], "date_modified": "2023-08-11T14:06:22.506896+10:00"}, {"id": 33424, "name": "Jaroslav Boucek", "roles_in_work": [{"id": 2400472, "title": "Angel exit. Sekala has to die", "work_id": 92246, "role": "producer", "role_id": 1089, "is_primary": true}], "also_known_as": "", "date_of_birth": "", "date_of_death": "", "genders": [], "languages": [], "places_of_operation": [], "biography": "", "biography_author": null, "date_of_biography": "2023-08-11T14:06:21.876896+10:00", "external_links": [], "uuid": "a4f16461-571c-4207-9826-36ef8b68183f", "source": {"name": "Vernon", "slug": "vernon"}, "source_identifier": "21480", "external_references": [], "date_modified": "2023-08-11T14:06:21.877153+10:00"}, {"id": 33423, "name": "BUC Film", "roles_in_work": [{"id": 2400471, "title": "Angel exit. Sekala has to die", "work_id": 92246, "role": "production company", "role_id": 941, "is_primary": true}], "also_known_as": "", "date_of_birth": "", "date_of_death": "", "genders": [], "languages": [], "places_of_operation": [], "biography": "", "biography_author": null, "date_of_biography": "2023-08-11T14:06:21.234527+10:00", "external_links": [], "uuid": "f069ef8f-960c-44ae-89bb-a374224f688c", "source": {"name": "Vernon", "slug": "vernon"}, "source_identifier": "6100", "external_references": [], "date_modified": "2023-08-11T14:06:21.234774+10:00"}, {"id": 33422, "name": "Rudolf Dorl", "roles_in_work": [{"id": 2228578, "title": "Prague 2000", "work_id": 92244, "role": "director", "role_id": 938, "is_primary": true}], "also_known_as": "", "date_of_birth": "", "date_of_death": "", "genders": [], "languages": [], "places_of_operation": [], "biography": "", "biography_author": null, "date_of_biography": "2023-05-09T16:30:26.008208+10:00", "external_links": [], "uuid": "49c76d79-0a15-4f9f-b463-5d671455e2d3", "source": {"name": "Vernon", "slug": "vernon"}, "source_identifier": "28326", "external_references": [{"id": 34328, "source": {"name": "Wikidata", "slug": "wikidata"}, "source_identifier": "Q121337155"}], "date_modified": "2023-09-06T00:58:01.736202+10:00"}, {"id": 33421, "name": "ABCD Video", "roles_in_work": [{"id": 2228576, "title": "Prague 2000", "work_id": 92244, "role": "production company", "role_id": 941, "is_primary": true}], "also_known_as": "", "date_of_birth": "", "date_of_death": "", "genders": [], "languages": [], "places_of_operation": [], "biography": "", "biography_author": null, "date_of_biography": "2023-05-09T16:30:25.755948+10:00", "external_links": [], "uuid": "2efeb2d5-e7fc-4dfb-9045-cb8c7a21850c", "source": {"name": "Vernon", "slug": "vernon"}, "source_identifier": "4988", "external_references": [{"id": 34758, "source": {"name": "Wikidata", "slug": "wikidata"}, "source_identifier": "Q121034539"}], "date_modified": "2023-09-05T17:14:40.829329+10:00"}, {"id": 33420, "name": "Jana Chytilova", "roles_in_work": [{"id": 2086210, "title": "Alphonse Mucha", "work_id": 92243, "role": "director", "role_id": 938, "is_primary": true}], "also_known_as": "", "date_of_birth": "", "date_of_death": "", "genders": [], "languages": [], "places_of_operation": [], "biography": "", "biography_author": null, "date_of_biography": "2023-05-09T11:57:12.543027+10:00", "external_links": [], "uuid": "7fdfeed4-3836-4aed-8547-611a3220a375", "source": {"name": "Vernon", "slug": "vernon"}, "source_identifier": "21402", "external_references": [{"id": 51548, "source": {"name": "Wikidata", "slug": "wikidata"}, "source_identifier": "Q121357671"}], "date_modified": "2023-09-05T21:07:22.945146+10:00"}, {"id": 33419, "name": "Mucha Inc", "roles_in_work": [{"id": 2086209, "title": "Alphonse Mucha", "work_id": 92243, "role": "production company", "role_id": 941, "is_primary": true}], "also_known_as": "", "date_of_birth": "", "date_of_death": "", "genders": [], "languages": [], "places_of_operation": [], "biography": "", "biography_author": null, "date_of_biography": "2023-05-09T11:57:12.303326+10:00", "external_links": [], "uuid": "6284c742-655d-47df-b671-0da37f9ee88f", "source": {"name": "Vernon", "slug": "vernon"}, "source_identifier": "10707", "external_references": [{"id": 43521, "source": {"name": "Wikidata", "slug": "wikidata"}, "source_identifier": "Q121035991"}], "date_modified": "2023-09-05T23:22:33.613697+10:00"}, {"id": 33415, "name": "Cath Murphy", "roles_in_work": [{"id": 880086, "title": "Laugh slap howl", "work_id": 92236, "role": "director", "role_id": 938, "is_primary": true}], "also_known_as": "", "date_of_birth": null, "date_of_death": null, "genders": [], "languages": [], "places_of_operation": [], "biography": "", "biography_author": null, "date_of_biography": null, "external_links": [], "uuid": "249322ac-fa9d-4b2f-a770-33ee6143d8ae", "source": {"name": "Vernon", "slug": "vernon"}, "source_identifier": "16586", "external_references": [{"id": 42356, "source": {"name": "Wikidata", "slug": "wikidata"}, "source_identifier": "Q120700015"}], "date_modified": "2023-09-13T12:28:38.698341+10:00"}, {"id": 33410, "name": "JAM Productions", "roles_in_work": [{"id": 2176414, "title": "One wild weekend with the lonesome rustler", "work_id": 92234, "role": "production company", "role_id": 941, "is_primary": true}], "also_known_as": "", "date_of_birth": "", "date_of_death": "", "genders": [], "languages": [], "places_of_operation": [], "biography": "", "biography_author": null, "date_of_biography": "2023-05-09T14:46:07.339950+10:00", "external_links": [], "uuid": "6b3500f1-bf8d-48e9-8710-6f3737e78238", "source": {"name": "Vernon", "slug": "vernon"}, "source_identifier": "9536", "external_references": [{"id": 36074, "source": {"name": "Wikidata", "slug": "wikidata"}, "source_identifier": "Q121315589"}], "date_modified": "2023-09-05T21:01:41.160300+10:00"}, {"id": 33407, "name": "Commonwealth Government of Australia", "roles_in_work": [{"id": 3093087, "title": "Glimpses of Australia. [No. 02?]", "work_id": 92229, "role": "production company", "role_id": 941, "is_primary": true}, {"id": 2374120, "title": "[Kodak Cinegraph compilation. No. 12]", "work_id": 92414, "role": "production company", "role_id": 941, "is_primary": true}], "also_known_as": "", "date_of_birth": "", "date_of_death": "", "genders": [], "languages": [], "places_of_operation": [], "biography": "", "biography_author": null, "date_of_biography": "2023-07-05T03:51:37.632251+10:00", "external_links": [], "uuid": "1d51b37a-5803-4e2b-ba85-c92a7d6ed35b", "source": {"name": "Vernon", "slug": "vernon"}, "source_identifier": "6941", "external_references": [{"id": 40511, "source": {"name": "Wikidata", "slug": "wikidata"}, "source_identifier": "Q121315193"}], "date_modified": "2025-03-31T22:36:42.529634+11:00"}]}