{"count": 28687, "next": "https://api.acmi.net.au/creators/?page=1116", "previous": "https://api.acmi.net.au/creators/?page=1114", "results": [{"id": 74432, "name": "Lilias Fraser", "roles_in_work": [{"id": 2646616, "title": "Those who make the way: Mount Isa, the first fifty years", "work_id": 73761, "role": "director", "role_id": 938, "is_primary": true}, {"id": 2072664, "title": "A Pace ahead", "work_id": 71307, "role": "director", "role_id": 938, "is_primary": true}, {"id": 2165478, "title": "Dairying in Australia", "work_id": 95881, "role": "director", "role_id": 938, "is_primary": true}, {"id": 2250039, "title": "Rice Growing in the Riverina = Irrigation farming in the Riverina", "work_id": 72218, "role": "director", "role_id": 938, "is_primary": true}, {"id": 2086578, "title": "Aluminium in Australia", "work_id": 95939, "role": "director", "role_id": 938, "is_primary": true}, {"id": 2678429, "title": "Beyond the boom: metal mining in Australia", "work_id": 65381, "role": "director", "role_id": 938, "is_primary": true}, {"id": 2677833, "title": "Australian by design", "work_id": 65074, "role": "director", "role_id": 938, "is_primary": true}, {"id": 2749885, "title": "Robert Richard Torrens", "work_id": 97024, "role": "director", "role_id": 938, "is_primary": true}, {"id": 1903710, "title": "Mining men", "work_id": 75288, "role": "director", "role_id": 938, "is_primary": true}, {"id": 2316466, "title": "Sugar from Queensland", "work_id": 95860, "role": "director", "role_id": 938, "is_primary": true}, {"id": 2392271, "title": "Water birds of the inland", "work_id": 74493, "role": "director", "role_id": 938, "is_primary": true}, {"id": 2392246, "title": "Viewpoint on Adelaide", "work_id": 74347, "role": "director", "role_id": 938, "is_primary": true}, {"id": 2715091, "title": "Hamersley '66", "work_id": 68274, "role": "co-director", "role_id": 959, "is_primary": true}, {"id": 2715089, "title": "Hamersley '66", "work_id": 68274, "role": "co-producer", "role_id": 915, "is_primary": true}, {"id": 2679761, "title": "Children's Theatre", "work_id": 66057, "role": "co-producer", "role_id": 915, "is_primary": true}, {"id": 1741403, "title": "Working together", "work_id": 87434, "role": "co-producer", "role_id": 915, "is_primary": true}, {"id": 2677980, "title": "Australia's wheat", "work_id": 65154, "role": "co-producer", "role_id": 915, "is_primary": true}, {"id": 1904839, "title": "For Tomorrow", "work_id": 90305, "role": "co-producers/directors", "role_id": 628, "is_primary": true}, {"id": 2753980, "title": "Metal makers", "work_id": 99006, "role": "producer/director", "role_id": 31, "is_primary": true}, {"id": 1912005, "title": "Women of the iron frontier", "work_id": 83789, "role": "producer/director", "role_id": 31, "is_primary": true}, {"id": 2072646, "title": "A Pace ahead", "work_id": 71307, "role": "production company", "role_id": 941, "is_primary": true}], "also_known_as": "", "date_of_birth": "", "date_of_death": "", "genders": [], "languages": [], "places_of_operation": [], "biography": "", "biography_author": null, "date_of_biography": "2023-08-09T04:10:48.546563+10:00", "external_links": [], "uuid": "df9fb85d-5a56-47bd-a0f8-1628d648516f", "source": {"name": "Vernon", "slug": "vernon"}, "source_identifier": "23844", "external_references": [{"id": 33342, "source": {"name": "Wikidata", "slug": "wikidata"}, "source_identifier": "Q121144153"}], "date_modified": "2025-03-13T01:36:00.479813+11:00"}, {"id": 74431, "name": "Stanley Jackson", "roles_in_work": [{"id": 2343643, "title": "The Discovery of insulin", "work_id": 87700, "role": "director", "role_id": 938, "is_primary": true}, {"id": 2713486, "title": "Feelings of depression", "work_id": 67437, "role": "director", "role_id": 938, "is_primary": true}, {"id": 2679703, "title": "Children learn from filmstrips", "work_id": 66029, "role": "director", "role_id": 938, "is_primary": true}, {"id": 2680492, "title": "Cornet at night", "work_id": 66414, "role": "director", "role_id": 938, "is_primary": true}, {"id": 2680932, "title": "Profile of a problem drinker", "work_id": 66625, "role": "director", "role_id": 938, "is_primary": true}, {"id": 2646423, "title": "Stigma", "work_id": 73197, "role": "director", "role_id": 938, "is_primary": true}, {"id": 860791, "title": "Who will teach your child?", "work_id": 74722, "role": "director", "role_id": 938, "is_primary": true}, {"id": 2097853, "title": "Antigonish", "work_id": 89284, "role": "director", "role_id": 938, "is_primary": true}, {"id": 2316693, "title": "Summer is for kids", "work_id": 73358, "role": "director", "role_id": 938, "is_primary": true}, {"id": 2069214, "title": "A Foreign language", "work_id": 90310, "role": "director", "role_id": 938, "is_primary": true}, {"id": 2272629, "title": "To serve the mind", "work_id": 91032, "role": "director", "role_id": 938, "is_primary": true}, {"id": 787579, "title": "The Quest", "work_id": 84926, "role": "director", "role_id": 938, "is_primary": true}, {"id": 2298574, "title": "Shyness", "work_id": 72799, "role": "director", "role_id": 938, "is_primary": true}, {"id": 877971, "title": "Universities at war", "work_id": 91008, "role": "director", "role_id": 938, "is_primary": true}, {"id": 2646763, "title": "The Vacant lot", "work_id": 74264, "role": "co-producer", "role_id": 915, "is_primary": true}, {"id": 2713745, "title": "First steps", "work_id": 67565, "role": "co-producer", "role_id": 915, "is_primary": true}], "also_known_as": "", "date_of_birth": null, "date_of_death": "04 JUL 1981", "genders": [{"id": 9, "name": "Male", "slug": "male"}], "languages": [], "places_of_operation": [{"id": 36, "name": "Canada", "slug": "canada"}], "biography": "Stanley Jackson (1914-1981) was a Canadian film director, producer, writer and narrator with the National Film Board of Canada (NFB). Source: Wikidata; 01/08/2023", "biography_author": null, "date_of_biography": "2025-03-12T00:51:11.585151+11:00", "external_links": [{"id": 5190, "uri": "https://en.wikipedia.org/wiki/Stanley_Jackson_(filmmaker)"}], "uuid": "e718ee38-ca3e-452a-b0da-ef7bc1f9725d", "source": {"name": "Vernon", "slug": "vernon"}, "source_identifier": "28966", "external_references": [{"id": 26061, "source": {"name": "Wikidata", "slug": "wikidata"}, "source_identifier": "Q3496835"}, {"id": 31598, "source": {"name": "VIAF", "slug": "viaf"}, "source_identifier": "9483478"}, {"id": 31599, "source": {"name": "LOC Auth", "slug": "loc-auth"}, "source_identifier": "no99069486"}, {"id": 31600, "source": {"name": "WorldCat", "slug": "worldcat"}, "source_identifier": "lccn-no99069486"}], "date_modified": "2025-03-12T00:51:11.585478+11:00"}, {"id": 74430, "name": "M D", "roles_in_work": [{"id": 2679694, "title": "Children in the hospital", "work_id": 66026, "role": "co-producer", "role_id": 915, "is_primary": true}], "also_known_as": "", "date_of_birth": "", "date_of_death": "", "genders": [], "languages": [], "places_of_operation": [], "biography": "", "biography_author": null, "date_of_biography": "2023-05-09T13:30:10.171002+10:00", "external_links": [], "uuid": "7ba69fb4-18b0-4a63-8b09-d6487e396770", "source": {"name": "Vernon", "slug": "vernon"}, "source_identifier": "24154", "external_references": [{"id": 35245, "source": {"name": "Wikidata", "slug": "wikidata"}, "source_identifier": "Q121057970"}], "date_modified": "2025-03-07T00:17:53.792017+11:00"}, {"id": 74429, "name": "Edward Mason", "roles_in_work": [{"id": 2679693, "title": "Children in the hospital", "work_id": 66026, "role": "co-producer", "role_id": 915, "is_primary": true}], "also_known_as": "", "date_of_birth": "", "date_of_death": "", "genders": [], "languages": [], "places_of_operation": [], "biography": "", "biography_author": null, "date_of_biography": "2023-05-09T13:30:09.936518+10:00", "external_links": [], "uuid": "13aa9883-9411-4a64-9796-98ab67bf03ca", "source": {"name": "Vernon", "slug": "vernon"}, "source_identifier": "18576", "external_references": [{"id": 41528, "source": {"name": "Wikidata", "slug": "wikidata"}, "source_identifier": "Q121057970"}], "date_modified": "2025-03-07T00:17:53.212405+11:00"}, {"id": 74428, "name": "Robert Humble", "roles_in_work": [{"id": 2767571, "title": "Kathy and Ian: three-year-olds", "work_id": 69356, "role": "director", "role_id": 938, "is_primary": true}, {"id": 2767578, "title": "Jamie, Ethan and Keir: 2-14 months", "work_id": 69201, "role": "director", "role_id": 938, "is_primary": true}, {"id": 2757671, "title": "Jamie, Ethan and Marlon: the first two months", "work_id": 69199, "role": "director", "role_id": 938, "is_primary": true}, {"id": 2767575, "title": "4 years-6 years = Four years to six years", "work_id": 66016, "role": "director", "role_id": 938, "is_primary": true}, {"id": 2767568, "title": "Debbie and Robert: 12-24 months (TEFC)", "work_id": 66668, "role": "director", "role_id": 938, "is_primary": true}], "also_known_as": "", "date_of_birth": "", "date_of_death": "", "genders": [], "languages": [], "places_of_operation": [], "biography": "", "biography_author": null, "date_of_biography": "2023-05-09T14:56:18.576088+10:00", "external_links": [], "uuid": "4dce0c92-8e29-4fb1-bb91-9e20aa9f76bb", "source": {"name": "Vernon", "slug": "vernon"}, "source_identifier": "27766", "external_references": [{"id": 34359, "source": {"name": "Wikidata", "slug": "wikidata"}, "source_identifier": "Q121160079"}], "date_modified": "2025-03-14T18:05:12.164536+11:00"}, {"id": 74427, "name": "Theodore Conant", "roles_in_work": [{"id": 2679967, "title": "City under pressure", "work_id": 66148, "role": "director", "role_id": 938, "is_primary": true}, {"id": 2223642, "title": "Experienced hands: a study in continuing education", "work_id": 87804, "role": "director", "role_id": 938, "is_primary": true}, {"id": 2679662, "title": "Child of the future: how he might learn", "work_id": 66015, "role": "producer/director", "role_id": 31, "is_primary": true}, {"id": 2057995, "title": "[Korean artist] (TEFC)", "work_id": 69449, "role": "producer/director", "role_id": 31, "is_primary": true}], "also_known_as": "", "date_of_birth": "1926-07-13", "date_of_death": "2015-10-14", "genders": [{"id": 9, "name": "Male", "slug": "male"}], "languages": [], "places_of_operation": [], "biography": "", "biography_author": null, "date_of_biography": "2023-05-09T16:23:15+10:00", "external_links": [], "uuid": "a83b9a47-3b3b-4856-b3ac-0efe1545ea86", "source": {"name": "Vernon", "slug": "vernon"}, "source_identifier": "29649", "external_references": [{"id": 51226, "source": {"name": "Wikidata", "slug": "wikidata"}, "source_identifier": "Q107521244"}, {"id": 55962, "source": {"name": "LOC Auth", "slug": "loc-auth"}, "source_identifier": "n2016029439"}], "date_modified": "2025-03-07T00:25:22.947052+11:00"}, {"id": 74426, "name": "Merrill S. Brody", "roles_in_work": [{"id": 2679659, "title": "The Child in the middle", "work_id": 66012, "role": "co-producer", "role_id": 915, "is_primary": true}], "also_known_as": "", "date_of_birth": "", "date_of_death": "", "genders": [], "languages": [], "places_of_operation": [], "biography": "", "biography_author": null, "date_of_biography": "2023-05-09T19:33:27.677338+10:00", "external_links": [], "uuid": "e3a53f24-d984-4699-a388-511a11a8bae3", "source": {"name": "Vernon", "slug": "vernon"}, "source_identifier": "24949", "external_references": [{"id": 38302, "source": {"name": "Wikidata", "slug": "wikidata"}, "source_identifier": "Q121079556"}], "date_modified": "2025-03-07T00:17:29.034479+11:00"}, {"id": 74425, "name": "Allen Stark", "roles_in_work": [{"id": 2209698, "title": "Police club for boys", "work_id": 71686, "role": "director", "role_id": 938, "is_primary": true}, {"id": 2645732, "title": "Movies in the mill", "work_id": 70638, "role": "director", "role_id": 938, "is_primary": true}, {"id": 2679936, "title": "City in siege", "work_id": 66137, "role": "co-director", "role_id": 959, "is_primary": true}, {"id": 2679655, "title": "Child guidance clinic [Abridged version]", "work_id": 66011, "role": "producer", "role_id": 1089, "is_primary": true}], "also_known_as": "", "date_of_birth": "", "date_of_death": "", "genders": [], "languages": [], "places_of_operation": [], "biography": "", "biography_author": null, "date_of_biography": "2023-05-09T15:42:48.457952+10:00", "external_links": [], "uuid": "0656f191-50e0-4aad-883d-72532362a176", "source": {"name": "Vernon", "slug": "vernon"}, "source_identifier": "15030", "external_references": [{"id": 33964, "source": {"name": "Wikidata", "slug": "wikidata"}, "source_identifier": "Q121271168"}], "date_modified": "2025-03-07T00:25:02.588323+11:00"}, {"id": 74424, "name": "Martin Shuttleworth", "roles_in_work": [{"id": 2644369, "title": "Child draw nearer", "work_id": 66010, "role": "co-producers/directors", "role_id": 628, "is_primary": true}], "also_known_as": "", "date_of_birth": "", "date_of_death": "", "genders": [], "languages": [], "places_of_operation": [], "biography": "", "biography_author": null, "date_of_biography": "2023-05-09T13:29:42.043979+10:00", "external_links": [], "uuid": "dd96ab02-aa5c-4644-a804-02ead3d88aac", "source": {"name": "Vernon", "slug": "vernon"}, "source_identifier": "24669", "external_references": [], "date_modified": "2025-03-05T12:16:38.868108+11:00"}, {"id": 74423, "name": "Annie Mygind", "roles_in_work": [{"id": 2644368, "title": "Child draw nearer", "work_id": 66010, "role": "co-producers/directors", "role_id": 628, "is_primary": true}], "also_known_as": "", "date_of_birth": "", "date_of_death": "", "genders": [], "languages": [], "places_of_operation": [], "biography": "", "biography_author": null, "date_of_biography": "2023-05-09T13:29:41.805102+10:00", "external_links": [], "uuid": "e0bed832-655c-4ad0-a1c6-bb6967f0e7a5", "source": {"name": "Vernon", "slug": "vernon"}, "source_identifier": "15365", "external_references": [], "date_modified": "2025-03-05T12:16:38.285661+11:00"}]}