{"count": 28687, "next": "https://api.acmi.net.au/creators/?page=2453", "previous": "https://api.acmi.net.au/creators/?page=2451", "results": [{"id": 14500, "name": "Bede College, Durham", "roles_in_work": [{"id": 2644597, "title": "Double vision", "work_id": 66897, "role": "production company", "role_id": 941, "is_primary": true}, {"id": 860449, "title": "The Waggon train: an exercise in primary drama", "work_id": 74441, "role": "production company", "role_id": 941, "is_primary": true}], "also_known_as": "", "date_of_birth": "", "date_of_death": "", "genders": [], "languages": [], "places_of_operation": [], "biography": "", "biography_author": null, "date_of_biography": "2023-08-11T16:13:55.067305+10:00", "external_links": [], "uuid": "f0e92c5e-b20d-4135-8d6f-010332456cb4", "source": {"name": "Vernon", "slug": "vernon"}, "source_identifier": "4804", "external_references": [], "date_modified": "2025-03-05T12:21:37.515032+11:00"}, {"id": 14499, "name": "Dana H. Hodgdon", "roles_in_work": [{"id": 2759197, "title": "Building belief. Pt. 2", "work_id": 96830, "role": "director", "role_id": 938, "is_primary": true}, {"id": 2759194, "title": "Building belief. Pt. 1", "work_id": 96829, "role": "director", "role_id": 938, "is_primary": true}, {"id": 2398362, "title": "A Sense of the other (TEFC)", "work_id": 72663, "role": "director", "role_id": 938, "is_primary": true}, {"id": 2759191, "title": "Dorothy Heathcote talks to teachers. Pt. 1 (TEFC)", "work_id": 66892, "role": "co-producer", "role_id": 915, "is_primary": true}, {"id": 2759188, "title": "Dorothy Heathcote talks to teachers. Pt. 2 (TEFC)", "work_id": 66891, "role": "co-producer", "role_id": 915, "is_primary": true}, {"id": 1820176, "title": "Developmental sentence scoring (TEFC)", "work_id": 77726, "role": "producer", "role_id": 1089, "is_primary": true}], "also_known_as": "", "date_of_birth": "", "date_of_death": "", "genders": [], "languages": [], "places_of_operation": [], "biography": "", "biography_author": null, "date_of_biography": "2023-08-11T13:16:55.222453+10:00", "external_links": [], "uuid": "0699edaa-c375-4352-a62f-3b6a28c13d47", "source": {"name": "Vernon", "slug": "vernon"}, "source_identifier": "17375", "external_references": [], "date_modified": "2025-03-13T14:52:06.625199+11:00"}, {"id": 14498, "name": "Bernice Gregorio", "roles_in_work": [{"id": 2759190, "title": "Dorothy Heathcote talks to teachers. Pt. 1 (TEFC)", "work_id": 66892, "role": "co-producer", "role_id": 915, "is_primary": true}, {"id": 2759187, "title": "Dorothy Heathcote talks to teachers. Pt. 2 (TEFC)", "work_id": 66891, "role": "co-producer", "role_id": 915, "is_primary": true}, {"id": 2759193, "title": "Building belief. Pt. 1", "work_id": 96829, "role": "producer", "role_id": 1089, "is_primary": true}, {"id": 2398361, "title": "A Sense of the other (TEFC)", "work_id": 72663, "role": "producer", "role_id": 1089, "is_primary": true}, {"id": 1820175, "title": "Developmental sentence scoring (TEFC)", "work_id": 77726, "role": "producer", "role_id": 1089, "is_primary": true}, {"id": 2759196, "title": "Building belief. Pt. 2", "work_id": 96830, "role": "producer", "role_id": 1089, "is_primary": true}], "also_known_as": "", "date_of_birth": "", "date_of_death": "", "genders": [], "languages": [], "places_of_operation": [], "biography": "", "biography_author": null, "date_of_biography": "2023-08-11T13:16:54.579031+10:00", "external_links": [], "uuid": "98601caf-90c6-4ae4-a175-ec6ebe7e7cee", "source": {"name": "Vernon", "slug": "vernon"}, "source_identifier": "15859", "external_references": [], "date_modified": "2025-03-13T14:52:06.043304+11:00"}, {"id": 14497, "name": "Northwestern University", "roles_in_work": [{"id": 2749043, "title": "Any empty space", "work_id": 96610, "role": "production company", "role_id": 941, "is_primary": true}, {"id": 2759189, "title": "Dorothy Heathcote talks to teachers. Pt. 1 (TEFC)", "work_id": 66892, "role": "production company", "role_id": 941, "is_primary": true}, {"id": 2759186, "title": "Dorothy Heathcote talks to teachers. Pt. 2 (TEFC)", "work_id": 66891, "role": "production company", "role_id": 941, "is_primary": true}, {"id": 2398360, "title": "A Sense of the other (TEFC)", "work_id": 72663, "role": "production company", "role_id": 941, "is_primary": true}], "also_known_as": "", "date_of_birth": "", "date_of_death": "", "genders": [], "languages": [], "places_of_operation": [], "biography": "", "biography_author": null, "date_of_biography": "2023-08-11T13:16:53.936936+10:00", "external_links": [], "uuid": "c825e57b-e386-4851-902b-d2ed560bb86f", "source": {"name": "Vernon", "slug": "vernon"}, "source_identifier": "11010", "external_references": [], "date_modified": "2025-03-13T14:52:03.126685+11:00"}, {"id": 14493, "name": "John Quick", "roles_in_work": [{"id": 2766552, "title": "Don't tell me I'll find out (TEFC)", "work_id": 66887, "role": "director", "role_id": 938, "is_primary": true}, {"id": 2766563, "title": "What would happen if...? (TEFC)", "work_id": 74648, "role": "director", "role_id": 938, "is_primary": true}, {"id": 2766555, "title": "Energy and models (TEFC)", "work_id": 67162, "role": "director", "role_id": 938, "is_primary": true}, {"id": 2766559, "title": "Let's try it (TEFC)", "work_id": 69626, "role": "producer", "role_id": 1089, "is_primary": true}], "also_known_as": "", "date_of_birth": "", "date_of_death": "", "genders": [], "languages": [], "places_of_operation": [], "biography": "", "biography_author": null, "date_of_biography": "2023-08-11T16:26:54.742484+10:00", "external_links": [], "uuid": "2fe9665e-1611-4da9-9789-6cfae0e97dd2", "source": {"name": "Vernon", "slug": "vernon"}, "source_identifier": "22478", "external_references": [], "date_modified": "2025-03-14T17:58:43.793832+11:00"}, {"id": 14492, "name": "Leo Trachtenberg", "roles_in_work": [{"id": 2411526, "title": "In the crash", "work_id": 93100, "role": "director", "role_id": 938, "is_primary": true}, {"id": 877761, "title": "The Trap", "work_id": 90865, "role": "director", "role_id": 938, "is_primary": true}, {"id": 2644587, "title": "Don't push your luck", "work_id": 66885, "role": "director", "role_id": 938, "is_primary": true}, {"id": 2411524, "title": "In the crash", "work_id": 93100, "role": "co-producer", "role_id": 915, "is_primary": true}, {"id": 858347, "title": "The Shield", "work_id": 72764, "role": "producer/director", "role_id": 31, "is_primary": true}, {"id": 2714705, "title": "Glaucoma: Sneak thief of sight", "work_id": 68075, "role": "producer/director", "role_id": 31, "is_primary": true}, {"id": 2412631, "title": "It's still up to you", "work_id": 69164, "role": "producer/director", "role_id": 31, "is_primary": true}], "also_known_as": "", "date_of_birth": "", "date_of_death": "", "genders": [], "languages": [], "places_of_operation": [], "biography": "", "biography_author": null, "date_of_biography": "2023-08-11T18:42:37.907701+10:00", "external_links": [], "uuid": "fe19d8e2-9985-48f6-b712-444450b9fa51", "source": {"name": "Vernon", "slug": "vernon"}, "source_identifier": "23695", "external_references": [{"id": 32532, "source": {"name": "Wikidata", "slug": "wikidata"}, "source_identifier": "Q120358722"}], "date_modified": "2025-03-12T01:17:25.093120+11:00"}, {"id": 14491, "name": "Harvest Films", "roles_in_work": [{"id": 2411522, "title": "In the crash", "work_id": 93100, "role": "production company", "role_id": 941, "is_primary": true}, {"id": 877760, "title": "The Trap", "work_id": 90865, "role": "production company", "role_id": 941, "is_primary": true}, {"id": 2412630, "title": "It's still up to you", "work_id": 69164, "role": "production company", "role_id": 941, "is_primary": true}, {"id": 2714704, "title": "Glaucoma: Sneak thief of sight", "work_id": 68075, "role": "production company", "role_id": 941, "is_primary": true}, {"id": 2644586, "title": "Don't push your luck", "work_id": 66885, "role": "production company", "role_id": 941, "is_primary": true}, {"id": 858963, "title": "Straight talk on eye safety", "work_id": 73278, "role": "production company", "role_id": 941, "is_primary": true}], "also_known_as": "", "date_of_birth": "", "date_of_death": "", "genders": [], "languages": [], "places_of_operation": [], "biography": "", "biography_author": null, "date_of_biography": "2023-08-11T18:42:37.268950+10:00", "external_links": [], "uuid": "020b0354-fd25-43e9-94d2-b046bc0255af", "source": {"name": "Vernon", "slug": "vernon"}, "source_identifier": "9013", "external_references": [], "date_modified": "2025-03-12T01:17:24.499461+11:00"}, {"id": 14490, "name": "Douglas Leiterman", "roles_in_work": [{"id": 2712310, "title": "Don't label me", "work_id": 66881, "role": "director", "role_id": 938, "is_primary": true}, {"id": 1428022, "title": "Forty million shoes: a report on Brazil", "work_id": 88425, "role": "director", "role_id": 938, "is_primary": true}, {"id": 895329, "title": "One more river", "work_id": 71140, "role": "co-director", "role_id": 959, "is_primary": true}, {"id": 910253, "title": "The Jamestown story", "work_id": 90931, "role": "co-producer", "role_id": 915, "is_primary": true}, {"id": 2415750, "title": "Media: massaging the mind (TEFC)", "work_id": 70250, "role": "co-producer", "role_id": 915, "is_primary": true}, {"id": 2644739, "title": "The Family: life styles of the future (TEFC)", "work_id": 67391, "role": "co-producer", "role_id": 915, "is_primary": true}, {"id": 2749548, "title": "The World of the future", "work_id": 96861, "role": "co-producer", "role_id": 915, "is_primary": true}, {"id": 1428020, "title": "Forty million shoes: a report on Brazil", "work_id": 88425, "role": "co-producer", "role_id": 915, "is_primary": true}, {"id": 896020, "title": "To alter human behavior: without mind control (TEFC)", "work_id": 73868, "role": "co-producer", "role_id": 915, "is_primary": true}, {"id": 896787, "title": "Energy: towards the age of abundance", "work_id": 76087, "role": "co-producer", "role_id": 915, "is_primary": true}, {"id": 908146, "title": "On a par, not a pedestal: women in the corporation", "work_id": 88544, "role": "co-producer", "role_id": 915, "is_primary": true}, {"id": 1817686, "title": "One more river", "work_id": 71140, "role": "producer", "role_id": 1089, "is_primary": true}], "also_known_as": "", "date_of_birth": "", "date_of_death": "", "genders": [], "languages": [], "places_of_operation": [], "biography": "", "biography_author": null, "date_of_biography": "2023-08-11T19:45:51.439669+10:00", "external_links": [], "uuid": "cbaf39cb-7a3c-4b95-8462-956efeeab30d", "source": {"name": "Vernon", "slug": "vernon"}, "source_identifier": "18403", "external_references": [{"id": 42445, "source": {"name": "Wikidata", "slug": "wikidata"}, "source_identifier": "Q120695365"}], "date_modified": "2025-03-13T00:01:44.951856+11:00"}, {"id": 14489, "name": "Richard Ballentine", "roles_in_work": [{"id": 2467608, "title": "The Most", "work_id": 70596, "role": "co-producer", "role_id": 915, "is_primary": true}, {"id": 2712309, "title": "Don't label me", "work_id": 66881, "role": "producer", "role_id": 1089, "is_primary": true}], "also_known_as": "", "date_of_birth": "", "date_of_death": "", "genders": [], "languages": [], "places_of_operation": [], "biography": "", "biography_author": null, "date_of_biography": "2023-08-14T11:23:49.556113+10:00", "external_links": [], "uuid": "f9923fbf-d837-48dc-8b35-eda863839297", "source": {"name": "Vernon", "slug": "vernon"}, "source_identifier": "27321", "external_references": [], "date_modified": "2025-03-12T00:16:03.242693+11:00"}, {"id": 14487, "name": "Bob Kellett", "roles_in_work": [{"id": 861919, "title": "The World of PVC", "work_id": 75887, "role": "director", "role_id": 938, "is_primary": true}, {"id": 2644584, "title": "Don't lose your grip", "work_id": 66884, "role": "sound", "role_id": 952, "is_primary": false}, {"id": 3093024, "title": "Don't be cut up", "work_id": 66873, "role": "sound", "role_id": 952, "is_primary": false}, {"id": 3093035, "title": "Don't be let down", "work_id": 66875, "role": "sound", "role_id": 952, "is_primary": false}, {"id": 3093042, "title": "Don't be sawed", "work_id": 66876, "role": "sound", "role_id": 952, "is_primary": false}, {"id": 3093049, "title": "Don't Be Scalped", "work_id": 66877, "role": "sound", "role_id": 952, "is_primary": false}, {"id": 3093056, "title": "Don't be shocked", "work_id": 66878, "role": "sound", "role_id": 952, "is_primary": false}], "also_known_as": "", "date_of_birth": "", "date_of_death": "", "genders": [], "languages": [], "places_of_operation": [], "biography": "", "biography_author": null, "date_of_biography": "2023-07-05T03:46:36.333931+10:00", "external_links": [], "uuid": "a2df7585-826a-4137-8487-4efe817394a3", "source": {"name": "Vernon", "slug": "vernon"}, "source_identifier": "16075", "external_references": [{"id": 40254, "source": {"name": "Wikidata", "slug": "wikidata"}, "source_identifier": "Q121036010"}], "date_modified": "2025-03-31T22:35:55.819686+11:00"}]}