{"count": 28687, "next": "https://api.acmi.net.au/creators/?page=990", "previous": "https://api.acmi.net.au/creators/?page=988", "results": [{"id": 75692, "name": "Rob Heywood", "roles_in_work": [{"id": 2374005, "title": "Projection Without Tears", "work_id": 76047, "role": "co-producer", "role_id": 915, "is_primary": true}], "also_known_as": "", "date_of_birth": "", "date_of_death": "", "genders": [], "languages": [], "places_of_operation": [], "biography": "", "biography_author": null, "date_of_biography": "2023-07-05T03:48:15.237437+10:00", "external_links": [], "uuid": "74b2a8d6-e174-4937-8a8e-15e3a3769af7", "source": {"name": "Vernon", "slug": "vernon"}, "source_identifier": "27594", "external_references": [{"id": 37401, "source": {"name": "Wikidata", "slug": "wikidata"}, "source_identifier": "Q121143881"}], "date_modified": "2023-09-06T00:37:30.897574+10:00"}, {"id": 75691, "name": "John Oakley", "roles_in_work": [{"id": 2180597, "title": "Our partner in the southern hemisphere", "work_id": 76046, "role": "co-producer", "role_id": 915, "is_primary": true}], "also_known_as": "", "date_of_birth": "", "date_of_death": "", "genders": [], "languages": [], "places_of_operation": [], "biography": "", "biography_author": null, "date_of_biography": "2023-05-09T14:52:12.393997+10:00", "external_links": [], "uuid": "c46bcec1-cb7d-4453-8992-5df8d7423df3", "source": {"name": "Vernon", "slug": "vernon"}, "source_identifier": "22443", "external_references": [{"id": 33801, "source": {"name": "Wikidata", "slug": "wikidata"}, "source_identifier": "Q121126245"}], "date_modified": "2023-09-05T21:42:32.957434+10:00"}, {"id": 75690, "name": "Bill Justice", "roles_in_work": [{"id": 2170311, "title": "Noah's Ark", "work_id": 76020, "role": "director", "role_id": 938, "is_primary": true}, {"id": 2170891, "title": "Noah's Ark", "work_id": 82717, "role": "director", "role_id": 938, "is_primary": true}], "also_known_as": "", "date_of_birth": "1914-02-09", "date_of_death": "2011-02-10", "genders": [{"id": 9, "name": "Male", "slug": "male"}], "languages": [{"id": 1, "name": "English", "slug": "english"}], "places_of_operation": [{"id": 1, "name": "United States of America", "slug": "united-states-of-america"}], "biography": "William Barnard Justice (February 9, 1914 – February 10, 2011) was an American animator and engineer for the Walt Disney Company. He was a graduate of the Herron School of Art and Design in Indianapolis.\nJustice joined Walt Disney Studios as an animator in 1937 and worked on such features as Fantasia, The Three Caballeros, Alice in Wonderland, and Peter Pan.  He is arguably best known as the animator of the rabbit Thumper from Bambi and chipmunks Chip 'n Dale.  He was the director of The Truth About Mother Goose, Noah's Ark, and A Symposium On Popular Songs, all of which were nominated for Academy Awards as Best Short Subject, Cartoon.  In total, Justice worked on 57 shorts and 19 features.In 1960, Justice started redesigning and making new Disney character costumes for Disneyland, and later for the other Disney parks and resorts.\nIn 1965, Justice joined Walt Disney Imagineering, where he programmed figures for several Disney attractions such as Pirates of the Caribbean, the Haunted Mansion and Country Bear Jamboree.\n\n", "biography_author": "Wikidata", "date_of_biography": "2023-08-01T14:13:10.754113+10:00", "external_links": [{"id": 3651, "uri": "https://en.wikipedia.org/wiki/Bill_Justice"}], "uuid": "30779dc7-f508-46f5-95a9-003fb4d6c795", "source": {"name": "Vernon", "slug": "vernon"}, "source_identifier": "15971", "external_references": [{"id": 25049, "source": {"name": "Wikidata", "slug": "wikidata"}, "source_identifier": "Q862224"}, {"id": 27522, "source": {"name": "VIAF", "slug": "viaf"}, "source_identifier": "49430149"}, {"id": 27523, "source": {"name": "LOC Auth", "slug": "loc-auth"}, "source_identifier": "n2012021459"}, {"id": 27524, "source": {"name": "WorldCat", "slug": "worldcat"}, "source_identifier": "lccn-n2012021459"}], "date_modified": "2023-09-05T18:03:06.685555+10:00"}, {"id": 75689, "name": "Lempio Collection", "roles_in_work": [{"id": 2125602, "title": "Bronski Beat: the first chapter", "work_id": 87230, "role": "distributor", "role_id": 437, "is_primary": false}, {"id": 2337273, "title": "The Changeling", "work_id": 86937, "role": "distributor", "role_id": 437, "is_primary": false}, {"id": 2241735, "title": "First Fleet: rite of passage", "work_id": 87238, "role": "distributor", "role_id": 437, "is_primary": false}, {"id": 1992369, "title": "Kill or be Killed", "work_id": 87979, "role": "distributor", "role_id": 437, "is_primary": false}, {"id": 798240, "title": "The Solar System", "work_id": 87971, "role": "distributor", "role_id": 437, "is_primary": false}, {"id": 2104630, "title": "Australian made", "work_id": 87976, "role": "distributor", "role_id": 437, "is_primary": false}, {"id": 2321979, "title": "Talk radio", "work_id": 87003, "role": "distributor", "role_id": 437, "is_primary": false}, {"id": 1992361, "title": "Tourist trap", "work_id": 87975, "role": "distributor", "role_id": 437, "is_primary": false}, {"id": 2321640, "title": "Tales of terror", "work_id": 87020, "role": "distributor", "role_id": 437, "is_primary": false}, {"id": 2183342, "title": "Decameron nights", "work_id": 86947, "role": "distributor", "role_id": 437, "is_primary": false}, {"id": 2303647, "title": "Smokey and the hot wire gang", "work_id": 87978, "role": "distributor", "role_id": 437, "is_primary": false}, {"id": 1847559, "title": "The Life and times of Grizzly Adams = The Renewal", "work_id": 86932, "role": "distributor", "role_id": 437, "is_primary": false}, {"id": 2206101, "title": "Pirates of Spring Cove", "work_id": 87018, "role": "distributor", "role_id": 437, "is_primary": false}, {"id": 1847751, "title": "The New adventures of the Lone Ranger", "work_id": 87966, "role": "distributor", "role_id": 437, "is_primary": false}, {"id": 2351660, "title": "The Gold bug", "work_id": 76014, "role": "distributor", "role_id": 437, "is_primary": false}, {"id": 2190738, "title": "Patty Hearst", "work_id": 86943, "role": "distributor", "role_id": 437, "is_primary": false}, {"id": 2136347, "title": "Children of two countries. Parts I and II", "work_id": 87967, "role": "distributor", "role_id": 437, "is_primary": false}, {"id": 2331837, "title": "The Big lift", "work_id": 87007, "role": "distributor", "role_id": 437, "is_primary": false}, {"id": 2283222, "title": "Twice dead", "work_id": 87989, "role": "distributor", "role_id": 437, "is_primary": false}, {"id": 1847557, "title": "Hayley Mills storybook volume 3", "work_id": 86931, "role": "distributor", "role_id": 437, "is_primary": false}, {"id": 2251813, "title": "Robinson Crusoe", "work_id": 87961, "role": "distributor", "role_id": 437, "is_primary": false}, {"id": 906253, "title": "The Pied piper of Hamelin: Cinderella", "work_id": 86929, "role": "distributor", "role_id": 437, "is_primary": false}, {"id": 1991382, "title": "Who dares wins", "work_id": 87029, "role": "distributor", "role_id": 437, "is_primary": false}, {"id": 1991369, "title": "The Stepfather", "work_id": 87009, "role": "distributor", "role_id": 437, "is_primary": false}, {"id": 2234067, "title": "Quest for fire", "work_id": 87286, "role": "distributor", "role_id": 437, "is_primary": false}, {"id": 1991315, "title": "Hell in the Pacific", "work_id": 86948, "role": "distributor", "role_id": 437, "is_primary": false}, {"id": 2216356, "title": "Elvis: aloha from Hawaii", "work_id": 87974, "role": "distributor", "role_id": 437, "is_primary": false}, {"id": 2354029, "title": "The Haunted house of horror", "work_id": 87977, "role": "distributor", "role_id": 437, "is_primary": false}, {"id": 2057976, "title": "[Kids' fun: a compilation of cartoon adventures]", "work_id": 87962, "role": "distributor", "role_id": 437, "is_primary": false}, {"id": 794895, "title": "The Outlaw", "work_id": 87041, "role": "distributor", "role_id": 437, "is_primary": false}, {"id": 1991347, "title": "Hit", "work_id": 87000, "role": "distributor", "role_id": 437, "is_primary": false}, {"id": 1991340, "title": "Magical mystery tour", "work_id": 86997, "role": "distributor", "role_id": 437, "is_primary": false}, {"id": 1991296, "title": "Marked woman", "work_id": 86944, "role": "distributor", "role_id": 437, "is_primary": false}, {"id": 2320705, "title": "Sylvester and Tweety", "work_id": 87964, "role": "distributor", "role_id": 437, "is_primary": false}, {"id": 1991306, "title": "Never cry wolf", "work_id": 86946, "role": "distributor", "role_id": 437, "is_primary": false}, {"id": 2193690, "title": "Dirty rotten scoundrels", "work_id": 86942, "role": "distributor", "role_id": 437, "is_primary": false}, {"id": 2193928, "title": "Dirty dancing", "work_id": 86899, "role": "distributor", "role_id": 437, "is_primary": false}, {"id": 1991494, "title": "Frankenstein's Great-aunt Tillie", "work_id": 87228, "role": "distributor", "role_id": 437, "is_primary": false}, {"id": 873064, "title": "Many classic moments", "work_id": 87965, "role": "distributor", "role_id": 437, "is_primary": false}, {"id": 1991284, "title": "Heart condition", "work_id": 86938, "role": "distributor", "role_id": 437, "is_primary": false}, {"id": 1991269, "title": "The Muppet movie", "work_id": 86921, "role": "distributor", "role_id": 437, "is_primary": false}, {"id": 2252975, "title": "Rock n' roll the greatest years: 1967 volume 2", "work_id": 87027, "role": "distributor", "role_id": 437, "is_primary": false}, {"id": 2172106, "title": "Dangerous charter", "work_id": 87988, "role": "distributor", "role_id": 437, "is_primary": false}, {"id": 871302, "title": "Joe and the sleeping beauty", "work_id": 86933, "role": "distributor", "role_id": 437, "is_primary": false}, {"id": 2291384, "title": "Witches' brew", "work_id": 87229, "role": "distributor", "role_id": 437, "is_primary": false}, {"id": 2326109, "title": "The 3 worlds of Gulliver", "work_id": 87022, "role": "distributor", "role_id": 437, "is_primary": false}, {"id": 2115003, "title": "Bigfoot in Harry and the Hendersons", "work_id": 87963, "role": "distributor", "role_id": 437, "is_primary": false}, {"id": 2305763, "title": "Something to hide", "work_id": 87019, "role": "distributor", "role_id": 437, "is_primary": false}, {"id": 2128890, "title": "Call it murder = Midnight", "work_id": 87980, "role": "distributor", "role_id": 437, "is_primary": false}, {"id": 2291517, "title": "With Love to the Person Next to Me", "work_id": 80972, "role": "distributor", "role_id": 437, "is_primary": false}, {"id": 2196234, "title": "Doctor Jekyll and sister Hyde", "work_id": 87990, "role": "distributor", "role_id": 437, "is_primary": false}, {"id": 2261489, "title": "Salvation", "work_id": 87970, "role": "distributor", "role_id": 437, "is_primary": false}], "also_known_as": "", "date_of_birth": "", "date_of_death": "", "genders": [], "languages": [], "places_of_operation": [], "biography": "", "biography_author": null, "date_of_biography": "2023-05-09T20:01:11.419784+10:00", "external_links": [], "uuid": "64494a01-2848-4402-995d-6089085fb4aa", "source": {"name": "Vernon", "slug": "vernon"}, "source_identifier": "30732", "external_references": [], "date_modified": "2023-06-14T16:33:30.576250+10:00"}, {"id": 75688, "name": "Jehane Burns", "roles_in_work": [{"id": 2184219, "title": "Degas in the Metropolitan", "work_id": 76011, "role": "co-producers/directors", "role_id": 628, "is_primary": true}], "also_known_as": "", "date_of_birth": "", "date_of_death": "", "genders": [], "languages": [], "places_of_operation": [], "biography": "", "biography_author": null, "date_of_biography": "2023-05-09T14:57:59.169111+10:00", "external_links": [], "uuid": "2ebccdcf-c670-43be-8c2a-fe2609cf41d3", "source": {"name": "Vernon", "slug": "vernon"}, "source_identifier": "21684", "external_references": [], "date_modified": "2023-06-14T16:33:30.576250+10:00"}, {"id": 75687, "name": "Leah Miller", "roles_in_work": [{"id": 2257720, "title": "Roundabout", "work_id": 81996, "role": "co-director", "role_id": 959, "is_primary": true}, {"id": 2750854, "title": "Hundred penny box", "work_id": 97541, "role": "co-producer", "role_id": 915, "is_primary": true}, {"id": 2339063, "title": "The Cloudmaker", "work_id": 76009, "role": "co-producer", "role_id": 915, "is_primary": true}], "also_known_as": "", "date_of_birth": "", "date_of_death": "", "genders": [], "languages": [], "places_of_operation": [], "biography": "", "biography_author": null, "date_of_biography": "2023-05-09T19:36:52.792173+10:00", "external_links": [], "uuid": "bc3b5f88-9ac2-46a9-b781-2be1f3d6ae63", "source": {"name": "Vernon", "slug": "vernon"}, "source_identifier": "23611", "external_references": [{"id": 42550, "source": {"name": "Wikidata", "slug": "wikidata"}, "source_identifier": "Q121144253"}], "date_modified": "2025-03-13T00:31:33.022536+11:00"}, {"id": 75686, "name": "Kevin Connor", "roles_in_work": [{"id": 2137981, "title": "Cicero: the queen's drum horse", "work_id": 76007, "role": "director", "role_id": 938, "is_primary": true}], "also_known_as": "", "date_of_birth": "1937-09-24", "date_of_death": "", "genders": [{"id": 9, "name": "Male", "slug": "male"}], "languages": [{"id": 1, "name": "English", "slug": "english"}], "places_of_operation": [{"id": 10, "name": "United Kingdom", "slug": "united-kingdom"}], "biography": "Kevin Connor (born 14 July 1937) is an English film and television director based in Hollywood.", "biography_author": "Wikidata", "date_of_biography": "2023-08-01T15:49:04.267030+10:00", "external_links": [{"id": 4487, "uri": "https://en.wikipedia.org/wiki/Kevin_Connor_(director)"}], "uuid": "9cedf004-2242-4754-bf09-b6d3e80a9094", "source": {"name": "Vernon", "slug": "vernon"}, "source_identifier": "23285", "external_references": [{"id": 26569, "source": {"name": "Wikidata", "slug": "wikidata"}, "source_identifier": "Q320259"}, {"id": 29777, "source": {"name": "VIAF", "slug": "viaf"}, "source_identifier": "85137918"}, {"id": 29778, "source": {"name": "LOC Auth", "slug": "loc-auth"}, "source_identifier": "no98101353"}, {"id": 29779, "source": {"name": "WorldCat", "slug": "worldcat"}, "source_identifier": "lccn-no98101353"}], "date_modified": "2023-09-05T22:06:41.509915+10:00"}, {"id": 75685, "name": "Terence Dudley", "roles_in_work": [{"id": 2137978, "title": "Cicero: the queen's drum horse", "work_id": 76007, "role": "co-producer", "role_id": 915, "is_primary": true}], "also_known_as": "", "date_of_birth": "1919-09-28", "date_of_death": "1988-12-25", "genders": [{"id": 9, "name": "Male", "slug": "male"}], "languages": [{"id": 1, "name": "English", "slug": "english"}], "places_of_operation": [{"id": 10, "name": "United Kingdom", "slug": "united-kingdom"}], "biography": "Terence Dudley (28 September 1919 – 25 December 1988) was a British television director, producer and screenwriter who worked on many programmes for the BBC.\nDudley produced the BBC science fiction series Doomwatch (1970—72), and directed three of its episodes. He subsequently produced the series Survivors (1975—1977), also directing one episode, and wrote the script for the season three premiere episode, \"Manhunt\". His young son, Stephen, had a regular part in Doomwatch. Dudley also directed eight early episodes of All Creatures Great and Small, including the 1983 Christmas special.\nHe began an association with Doctor Who when he directed Meglos (1980) for John Nathan-Turner. That same year, he was asked to become producer of Blake's 7 after David Maloney was reassigned before it was known that a fourth season would be made. Dudley turned the offer down, as he no longer wished to work as a producer. The following year he embarked on a brief career as a screenwriter for Doctor Who. He wrote three scripts for the programme—Four to Doomsday (1982), Black Orchid (1982) and The King's Demons (1983). He novelised the latter two stories for Target Books. He also wrote the script of K-9 and Company (1981), the one-off drama starring Elisabeth Sladen which was intended as a pilot for a spin-off series involving Sarah Jane Smith and the robot dog K9.\nDudley died after a long period of cancer on Christmas Day 1988.", "biography_author": "Wikidata", "date_of_biography": "2023-09-06T01:44:50.075576+10:00", "external_links": [{"id": 6214, "uri": "https://en.wikipedia.org/wiki/Terence_Dudley"}], "uuid": "29c87445-b3c1-4d98-9478-40bfb9fa5f11", "source": {"name": "Vernon", "slug": "vernon"}, "source_identifier": "29556", "external_references": [{"id": 51845, "source": {"name": "Wikidata", "slug": "wikidata"}, "source_identifier": "Q7701892"}, {"id": 55942, "source": {"name": "VIAF", "slug": "viaf"}, "source_identifier": "14606940"}, {"id": 55943, "source": {"name": "LOC Auth", "slug": "loc-auth"}, "source_identifier": "nr00006507"}, {"id": 55944, "source": {"name": "WorldCat", "slug": "worldcat"}, "source_identifier": "lccn-nr00006507"}], "date_modified": "2023-09-06T01:44:50.094166+10:00"}, {"id": 75684, "name": "Joan Root", "roles_in_work": [{"id": 2133749, "title": "Castles of clay", "work_id": 76006, "role": "co-producer", "role_id": 915, "is_primary": true}], "also_known_as": "", "date_of_birth": "1936-03-25", "date_of_death": "2006-01-13", "genders": [{"id": 5, "name": "Female", "slug": "female"}], "languages": [{"id": 1, "name": "English", "slug": "english"}], "places_of_operation": [{"id": 174, "name": "Kenya", "slug": "kenya"}], "biography": "Joan Root (18 January 1936 – 13 January 2006) was a Kenyan conservationist, ecological activist and Oscar-nominated filmmaker.\n With her film-maker husband, Alan Root she made a series of acclaimed wildlife films. The couple divorced in 1981 and Alan Root settled in Nairobi afterward.", "biography_author": "Wikidata", "date_of_biography": "2023-09-05T21:28:25.797523+10:00", "external_links": [{"id": 5912, "uri": "https://en.wikipedia.org/wiki/Joan_Root"}], "uuid": "3e313a01-5b19-41a5-b7dc-42276f975024", "source": {"name": "Vernon", "slug": "vernon"}, "source_identifier": "21988", "external_references": [{"id": 51491, "source": {"name": "Wikidata", "slug": "wikidata"}, "source_identifier": "Q1690776"}, {"id": 54839, "source": {"name": "VIAF", "slug": "viaf"}, "source_identifier": "11216771"}, {"id": 54840, "source": {"name": "LOC Auth", "slug": "loc-auth"}, "source_identifier": "n83039897"}, {"id": 54841, "source": {"name": "WorldCat", "slug": "worldcat"}, "source_identifier": "lccn-n83039897"}], "date_modified": "2023-09-05T21:28:25.816981+10:00"}, {"id": 75683, "name": "Doug Miles", "roles_in_work": [{"id": 2178076, "title": "Ordinary people", "work_id": 75995, "role": "producer/director", "role_id": 31, "is_primary": true}], "also_known_as": "", "date_of_birth": "", "date_of_death": "", "genders": [], "languages": [], "places_of_operation": [], "biography": "", "biography_author": null, "date_of_biography": "2023-05-09T14:48:25.283188+10:00", "external_links": [], "uuid": "33e481b5-fdc5-4525-92ab-774cc416bb91", "source": {"name": "Vernon", "slug": "vernon"}, "source_identifier": "18373", "external_references": [{"id": 51588, "source": {"name": "Wikidata", "slug": "wikidata"}, "source_identifier": "Q121360867"}], "date_modified": "2023-09-05T19:19:59.105216+10:00"}]}