{"count": 28687, "next": "https://api.acmi.net.au/creators/?page=1105", "previous": "https://api.acmi.net.au/creators/?page=1103", "results": [{"id": 74542, "name": "Lorne Batchelor", "roles_in_work": [{"id": 2644530, "title": "Dick Hickey: blacksmith", "work_id": 66766, "role": "co-producer", "role_id": 915, "is_primary": true}], "also_known_as": "", "date_of_birth": "", "date_of_death": "", "genders": [], "languages": [], "places_of_operation": [], "biography": "", "biography_author": null, "date_of_biography": "2023-05-09T15:06:48.519583+10:00", "external_links": [], "uuid": "7ade3421-662e-4504-881c-d0eb5a1c1c6e", "source": {"name": "Vernon", "slug": "vernon"}, "source_identifier": "23997", "external_references": [{"id": 41751, "source": {"name": "Wikidata", "slug": "wikidata"}, "source_identifier": "Q121091138"}], "date_modified": "2025-03-05T12:20:50.985489+11:00"}, {"id": 74541, "name": "Dave Bennett", "roles_in_work": [{"id": 2644529, "title": "Dick Hickey: blacksmith", "work_id": 66766, "role": "co-producer", "role_id": 915, "is_primary": true}], "also_known_as": "", "date_of_birth": "", "date_of_death": "", "genders": [], "languages": [], "places_of_operation": [], "biography": "", "biography_author": null, "date_of_biography": "2023-05-09T15:06:48.286162+10:00", "external_links": [], "uuid": "2b22bc81-9e63-4d15-b7d9-46640856a9f3", "source": {"name": "Vernon", "slug": "vernon"}, "source_identifier": "17460", "external_references": [{"id": 41503, "source": {"name": "Wikidata", "slug": "wikidata"}, "source_identifier": "Q121299135"}], "date_modified": "2025-03-05T12:20:50.402840+11:00"}, {"id": 74540, "name": "Milan Chvostek", "roles_in_work": [{"id": 2775603, "title": "Diabetes", "work_id": 66758, "role": "producer/director", "role_id": 31, "is_primary": true}, {"id": 2775669, "title": "The Invisible reef", "work_id": 76130, "role": "producer/director", "role_id": 31, "is_primary": true}], "also_known_as": "", "date_of_birth": "", "date_of_death": "", "genders": [], "languages": [], "places_of_operation": [], "biography": "", "biography_author": null, "date_of_biography": "2023-05-09T20:05:08.899683+10:00", "external_links": [], "uuid": "98a18580-22bd-434f-ab03-e1a1d9ac4390", "source": {"name": "Vernon", "slug": "vernon"}, "source_identifier": "25423", "external_references": [{"id": 50972, "source": {"name": "Wikidata", "slug": "wikidata"}, "source_identifier": "Q121360890"}], "date_modified": "2025-03-14T18:44:32.090378+11:00"}, {"id": 74539, "name": "George Manno", "roles_in_work": [{"id": 2712037, "title": "Detect and protect", "work_id": 66740, "role": "producer/director", "role_id": 31, "is_primary": true}], "also_known_as": "", "date_of_birth": "", "date_of_death": "", "genders": [], "languages": [], "places_of_operation": [], "biography": "", "biography_author": null, "date_of_biography": "2023-05-09T15:04:22.317650+10:00", "external_links": [], "uuid": "29fcc2b0-0ad1-4232-9223-c967366a2f9e", "source": {"name": "Vernon", "slug": "vernon"}, "source_identifier": "19637", "external_references": [{"id": 51501, "source": {"name": "Wikidata", "slug": "wikidata"}, "source_identifier": "Q121361002"}], "date_modified": "2025-03-12T00:09:21.887758+11:00"}, {"id": 74538, "name": "Frank Waters", "roles_in_work": [{"id": 2644625, "title": "Edward John Eyre", "work_id": 67034, "role": "narrator", "role_id": 499, "is_primary": false}, {"id": 2711973, "title": "Desert Conquest", "work_id": 66711, "role": "narrator", "role_id": 499, "is_primary": false}], "also_known_as": "", "date_of_birth": "", "date_of_death": "", "genders": [{"id": 9, "name": "Male", "slug": "male"}], "languages": [], "places_of_operation": [], "biography": "", "biography_author": null, "date_of_biography": "2023-05-09T15:53:12.352770+10:00", "external_links": [], "uuid": "d815f538-1aba-40e1-96d1-78926b1ca2bb", "source": {"name": "Vernon", "slug": "vernon"}, "source_identifier": "37549", "external_references": [], "date_modified": "2025-03-12T00:08:08.569709+11:00"}, {"id": 74537, "name": "Phil Pike", "roles_in_work": [{"id": 2308280, "title": "Squinka", "work_id": 77428, "role": "cinematographer", "role_id": 32, "is_primary": false}, {"id": 2711970, "title": "Desert Conquest", "work_id": 66711, "role": "cinematographer", "role_id": 32, "is_primary": false}], "also_known_as": "", "date_of_birth": "", "date_of_death": "", "genders": [{"id": 9, "name": "Male", "slug": "male"}], "languages": [], "places_of_operation": [], "biography": "", "biography_author": null, "date_of_biography": "2023-05-09T18:48:22.875607+10:00", "external_links": [], "uuid": "1a2ee3d5-403e-49b9-85ef-25d0e3c8ff2d", "source": {"name": "Vernon", "slug": "vernon"}, "source_identifier": "37546", "external_references": [{"id": 42965, "source": {"name": "Wikidata", "slug": "wikidata"}, "source_identifier": "Q121091046"}], "date_modified": "2025-03-12T00:08:03.338588+11:00"}, {"id": 74536, "name": "AMP Society", "roles_in_work": [{"id": 2755193, "title": "The Nest egg", "work_id": 77387, "role": "production company", "role_id": 941, "is_primary": true}, {"id": 2755206, "title": "Out of sight", "work_id": 77763, "role": "production company", "role_id": 941, "is_primary": true}, {"id": 2711969, "title": "Desert Conquest", "work_id": 66711, "role": "sponsor", "role_id": 625, "is_primary": false}], "also_known_as": "", "date_of_birth": "", "date_of_death": "", "genders": [], "languages": [], "places_of_operation": [], "biography": "", "biography_author": null, "date_of_biography": "2023-05-09T16:47:31.313017+10:00", "external_links": [], "uuid": "e4983f35-583a-4170-8e15-3f22f847b38d", "source": {"name": "Vernon", "slug": "vernon"}, "source_identifier": "5232", "external_references": [{"id": 41320, "source": {"name": "Wikidata", "slug": "wikidata"}, "source_identifier": "Q121079408"}], "date_modified": "2025-03-13T14:30:57.486595+11:00"}, {"id": 74535, "name": "A Vickers", "roles_in_work": [{"id": 2711966, "title": "Desert cargo", "work_id": 66710, "role": "co-producer", "role_id": 915, "is_primary": true}], "also_known_as": "", "date_of_birth": "", "date_of_death": "", "genders": [], "languages": [], "places_of_operation": [], "biography": "", "biography_author": null, "date_of_biography": "2023-05-09T15:01:54.947833+10:00", "external_links": [], "uuid": "aa11c054-83e4-4d62-ad99-ce2097606b0a", "source": {"name": "Vernon", "slug": "vernon"}, "source_identifier": "14617", "external_references": [{"id": 34657, "source": {"name": "Wikidata", "slug": "wikidata"}, "source_identifier": "Q121299492"}], "date_modified": "2025-03-12T00:07:49.621844+11:00"}, {"id": 74534, "name": "Adrian Reid", "roles_in_work": [{"id": 2711939, "title": "Sportshort. No. 2. Denis Compton", "work_id": 66698, "role": "co-producer", "role_id": 915, "is_primary": true}], "also_known_as": "", "date_of_birth": "", "date_of_death": "", "genders": [], "languages": [], "places_of_operation": [], "biography": "", "biography_author": null, "date_of_biography": "2023-05-09T18:47:51.686342+10:00", "external_links": [], "uuid": "ee717492-132b-4222-9789-2018a2328350", "source": {"name": "Vernon", "slug": "vernon"}, "source_identifier": "14666", "external_references": [{"id": 41746, "source": {"name": "Wikidata", "slug": "wikidata"}, "source_identifier": "Q121270808"}], "date_modified": "2025-03-12T00:06:49.964829+11:00"}, {"id": 74533, "name": "Bertrand Langlois", "roles_in_work": [{"id": 2711932, "title": "Demon and marvels", "work_id": 66693, "role": "director", "role_id": 938, "is_primary": true}], "also_known_as": "", "date_of_birth": "", "date_of_death": "", "genders": [{"id": 9, "name": "Male", "slug": "male"}], "languages": [], "places_of_operation": [], "biography": "", "biography_author": null, "date_of_biography": "2023-05-09T15:01:21.020323+10:00", "external_links": [], "uuid": "0a33e4b1-8b60-48fb-b368-442c0d98bcff", "source": {"name": "Vernon", "slug": "vernon"}, "source_identifier": "15890", "external_references": [{"id": 7496, "source": {"name": "Wikidata", "slug": "wikidata"}, "source_identifier": "Q46510839"}], "date_modified": "2025-03-12T00:06:24.235142+11:00"}]}