{"count": 28687, "next": "https://api.acmi.net.au/creators/?page=1997", "previous": "https://api.acmi.net.au/creators/?page=1995", "results": [{"id": 22648, "name": "Steve Steve Jodrell", "roles_in_work": [{"id": 2296762, "title": "Shame", "work_id": 82772, "role": "director", "role_id": 938, "is_primary": true}, {"id": 2649991, "title": "Songs from Lift-off", "work_id": 82570, "role": "director", "role_id": 938, "is_primary": true}, {"id": 1984692, "title": "Tudawali", "work_id": 80686, "role": "director", "role_id": 938, "is_primary": true}, {"id": 2771343, "title": "More Winners : His master's ghost (Captioned)", "work_id": 81395, "role": "director", "role_id": 938, "is_primary": true}, {"id": 918120, "title": "Round the twist Series 1 - Volume 1 [DVD]", "work_id": 95569, "role": "co-director", "role_id": 959, "is_primary": true}, {"id": 918057, "title": "Sky trackers: Family and self", "work_id": 95475, "role": "co-director", "role_id": 959, "is_primary": true}, {"id": 3085398, "title": "Crash zone. Vol. 4. Season 2. Eps 01-05", "work_id": 94017, "role": "co-director", "role_id": 959, "is_primary": true}, {"id": 3085421, "title": "Crash zone. Vol. 5. Season 2. Eps 06-09", "work_id": 94016, "role": "co-director", "role_id": 959, "is_primary": true}, {"id": 901368, "title": "Round the twist Series 2 - Volume 4", "work_id": 82116, "role": "co-director", "role_id": 959, "is_primary": true}, {"id": 3085447, "title": "Crash zone. Vol. 6. Season 2. Eps 10-13", "work_id": 94018, "role": "co-director", "role_id": 959, "is_primary": true}, {"id": 2213946, "title": "EC, Poss & Kim", "work_id": 83660, "role": "co-director", "role_id": 959, "is_primary": true}, {"id": 918127, "title": "Round the twist Series 1 & 2 - Volume 2 [DVD]", "work_id": 95570, "role": "co-director", "role_id": 959, "is_primary": true}, {"id": 918134, "title": "Round the twist Series 2 - Volume 3 [DVD]", "work_id": 95571, "role": "co-director", "role_id": 959, "is_primary": true}, {"id": 2771352, "title": "More Winners : His Master's Ghost", "work_id": 80536, "role": "director", "role_id": 938, "is_primary": true}, {"id": 2717722, "title": "Round the twist: spaghetti pig out", "work_id": 116680, "role": "director", "role_id": 938, "is_primary": true}, {"id": 2717747, "title": "Round the twist: the gum-leaf war", "work_id": 116682, "role": "director", "role_id": 938, "is_primary": true}, {"id": 2717763, "title": "Round the twist: Wunderpants", "work_id": 116683, "role": "director", "role_id": 938, "is_primary": true}, {"id": 2717696, "title": "Round the twist: Lucky Lips", "work_id": 116684, "role": "director", "role_id": 938, "is_primary": true}, {"id": 2614442, "title": "EC, Nipper and Aku", "work_id": 83682, "role": "director", "role_id": 938, "is_primary": true}], "also_known_as": "", "date_of_birth": "", "date_of_death": "", "genders": [], "languages": [], "places_of_operation": [], "biography": "", "biography_author": null, "date_of_biography": "2023-08-17T15:05:06.302107+10:00", "external_links": [], "uuid": "ecf7aedf-c4e1-49e3-926d-34b090f1018d", "source": {"name": "Vernon", "slug": "vernon"}, "source_identifier": "29141", "external_references": [], "date_modified": "2025-03-17T10:40:13.355031+11:00"}, {"id": 22644, "name": "Warfield Productions", "roles_in_work": [{"id": 2136781, "title": "Chitty Chitty Bang Bang", "work_id": 80515, "role": "production company", "role_id": 941, "is_primary": true}, {"id": 2136900, "title": "Chitty Chitty Bang Bang (Captioned)", "work_id": 84986, "role": "production company", "role_id": 941, "is_primary": true}], "also_known_as": "", "date_of_birth": "", "date_of_death": "", "genders": [], "languages": [], "places_of_operation": [], "biography": "", "biography_author": null, "date_of_biography": "2023-05-09T13:31:13.164032+10:00", "external_links": [], "uuid": "2e06fb4d-b73e-4787-bc9f-59641013fd22", "source": {"name": "Vernon", "slug": "vernon"}, "source_identifier": "14241", "external_references": [{"id": 32328, "source": {"name": "Wikidata", "slug": "wikidata"}, "source_identifier": "Q121299140"}], "date_modified": "2023-09-06T02:11:42.286223+10:00"}, {"id": 22642, "name": "Pru Donovan", "roles_in_work": [{"id": 2649003, "title": "On your marks it's bright sparks. - Volume 2.", "work_id": 80541, "role": "producer", "role_id": 1089, "is_primary": true}, {"id": 2159526, "title": "On your marks it's bright sparks. - Volume 1.", "work_id": 80514, "role": "producer", "role_id": 1089, "is_primary": true}], "also_known_as": "", "date_of_birth": "", "date_of_death": "", "genders": [], "languages": [], "places_of_operation": [], "biography": "", "biography_author": null, "date_of_biography": "2023-05-09T14:13:29.748679+10:00", "external_links": [], "uuid": "791f7013-3252-46a2-aa59-da46db62d0ad", "source": {"name": "Vernon", "slug": "vernon"}, "source_identifier": "26989", "external_references": [{"id": 33833, "source": {"name": "Wikidata", "slug": "wikidata"}, "source_identifier": "Q121315548"}], "date_modified": "2025-03-05T13:55:14.160030+11:00"}, {"id": 22640, "name": "Susie Campbell", "roles_in_work": [{"id": 2214078, "title": "Imagine, EC and me", "work_id": 85030, "role": "co-producer", "role_id": 915, "is_primary": true}, {"id": 2166543, "title": "Kaboodle 2. - Volume 3. (Captioned)", "work_id": 81398, "role": "producer", "role_id": 1089, "is_primary": true}, {"id": 2649369, "title": "Kaboodle 2. - Volume 4. (Captioned)", "work_id": 81400, "role": "producer", "role_id": 1089, "is_primary": true}, {"id": 1804511, "title": "Seen but not heard", "work_id": 80513, "role": "producer", "role_id": 1089, "is_primary": true}, {"id": 2166566, "title": "Kaboodle 2. - Volume 6. (Captioned)", "work_id": 81393, "role": "producer", "role_id": 1089, "is_primary": true}, {"id": 2649366, "title": "Kaboodle 2. - Volume 5. (Captioned)", "work_id": 81399, "role": "producer", "role_id": 1089, "is_primary": true}, {"id": 2164111, "title": "Kaboodle 2. - Volume 1. (Captioned)", "work_id": 81396, "role": "producer", "role_id": 1089, "is_primary": true}, {"id": 2166254, "title": "Kaboodle 2. - Volume 2. (Captioned)", "work_id": 81397, "role": "producer", "role_id": 1089, "is_primary": true}], "also_known_as": "", "date_of_birth": "", "date_of_death": "", "genders": [], "languages": [], "places_of_operation": [], "biography": "", "biography_author": null, "date_of_biography": "2023-05-09T15:51:35.409178+10:00", "external_links": [], "uuid": "7045cf07-4411-4ba0-b216-ab14d713b62c", "source": {"name": "Vernon", "slug": "vernon"}, "source_identifier": "29376", "external_references": [{"id": 36693, "source": {"name": "Wikidata", "slug": "wikidata"}, "source_identifier": "Q121222740"}], "date_modified": "2025-03-05T14:00:53.549989+11:00"}, {"id": 22639, "name": "Marble Arch Productions", "roles_in_work": [{"id": 2754913, "title": "All quiet on the Western Front", "work_id": 99422, "role": "production company", "role_id": 941, "is_primary": true}, {"id": 2648979, "title": "Cry freedom", "work_id": 80512, "role": "production company", "role_id": 941, "is_primary": true}], "also_known_as": "", "date_of_birth": "", "date_of_death": "", "genders": [], "languages": [], "places_of_operation": [], "biography": "", "biography_author": null, "date_of_biography": "2023-05-09T13:50:27.966723+10:00", "external_links": [], "uuid": "9b512886-274c-4ac3-b40f-bee52267a0d9", "source": {"name": "Vernon", "slug": "vernon"}, "source_identifier": "10293", "external_references": [{"id": 37536, "source": {"name": "Wikidata", "slug": "wikidata"}, "source_identifier": "Q121035178"}], "date_modified": "2025-03-13T01:55:00.997231+11:00"}, {"id": 22636, "name": "Nepenthe Productions", "roles_in_work": [{"id": 2648970, "title": "Watership down", "work_id": 80510, "role": "production company", "role_id": 941, "is_primary": true}], "also_known_as": "", "date_of_birth": "", "date_of_death": "", "genders": [], "languages": [], "places_of_operation": [], "biography": "", "biography_author": null, "date_of_biography": "2023-08-14T12:36:04.373029+10:00", "external_links": [], "uuid": "f506f7ab-1705-436b-b2a2-f07ce85d07eb", "source": {"name": "Vernon", "slug": "vernon"}, "source_identifier": "10872", "external_references": [], "date_modified": "2025-03-05T13:52:56.727391+11:00"}, {"id": 22635, "name": "Ronald A Weinberg", "roles_in_work": [{"id": 2648989, "title": "David to the Rescue", "work_id": 80527, "role": "co-producer", "role_id": 915, "is_primary": true}, {"id": 903160, "title": "Madeline in London", "work_id": 84092, "role": "co-producer", "role_id": 915, "is_primary": true}, {"id": 903167, "title": "Madeline's rescue", "work_id": 84093, "role": "co-producer", "role_id": 915, "is_primary": true}, {"id": 903153, "title": "Madeline and the bad hat", "work_id": 84091, "role": "co-producer", "role_id": 915, "is_primary": true}, {"id": 2775172, "title": "Good medicine; witch way out", "work_id": 80509, "role": "co-producer", "role_id": 915, "is_primary": true}, {"id": 2775184, "title": "Little houses for little people", "work_id": 80890, "role": "co-producer", "role_id": 915, "is_primary": true}, {"id": 2775196, "title": "Good medicine; witch way out (Captioned)", "work_id": 81381, "role": "co-producer", "role_id": 915, "is_primary": true}, {"id": 2775203, "title": "The World of David the Gnome", "work_id": 115191, "role": "co-producer", "role_id": 915, "is_primary": true}, {"id": 2100667, "title": "Arthur: Arthur's first sleepover", "work_id": 94915, "role": "co-producer", "role_id": 915, "is_primary": true}, {"id": 903181, "title": "Madeline", "work_id": 84096, "role": "co-producer", "role_id": 915, "is_primary": true}, {"id": 903174, "title": "Madeline and the gypsies", "work_id": 84095, "role": "co-producer", "role_id": 915, "is_primary": true}, {"id": 2614647, "title": "Madeline's Christmas", "work_id": 84094, "role": "producer", "role_id": 1089, "is_primary": true}], "also_known_as": "", "date_of_birth": "", "date_of_death": "", "genders": [], "languages": [], "places_of_operation": [], "biography": "", "biography_author": null, "date_of_biography": "2023-05-09T18:01:32.463911+10:00", "external_links": [], "uuid": "8ee4c35d-98bf-4922-b321-c1cff2ee5315", "source": {"name": "Vernon", "slug": "vernon"}, "source_identifier": "28186", "external_references": [{"id": 40199, "source": {"name": "Wikidata", "slug": "wikidata"}, "source_identifier": "Q121299152"}], "date_modified": "2025-03-14T18:43:02.441613+11:00"}, {"id": 22634, "name": "BRB International", "roles_in_work": [{"id": 2775180, "title": "Little houses for little people", "work_id": 80890, "role": "production company", "role_id": 941, "is_primary": true}, {"id": 2775169, "title": "Good medicine; witch way out", "work_id": 80509, "role": "production company", "role_id": 941, "is_primary": true}], "also_known_as": "", "date_of_birth": "", "date_of_death": "", "genders": [], "languages": [], "places_of_operation": [], "biography": "", "biography_author": null, "date_of_biography": "2023-05-09T18:01:31.984382+10:00", "external_links": [], "uuid": "8355c4a3-e938-4af4-9b16-1c0fbfe10fd9", "source": {"name": "Vernon", "slug": "vernon"}, "source_identifier": "5979", "external_references": [{"id": 34332, "source": {"name": "Wikidata", "slug": "wikidata"}, "source_identifier": "Q121271288"}], "date_modified": "2025-03-14T18:42:54.139856+11:00"}, {"id": 22633, "name": "Miramax Films", "roles_in_work": [{"id": 2264141, "title": "Scream", "work_id": 86740, "role": "production company", "role_id": 941, "is_primary": true}, {"id": 2085986, "title": "All the pretty horses", "work_id": 92465, "role": "production company", "role_id": 941, "is_primary": true}, {"id": 2775178, "title": "Little houses for little people", "work_id": 80890, "role": "production company", "role_id": 941, "is_primary": true}, {"id": 2615494, "title": "Pret-a-porter = Ready to wear", "work_id": 85584, "role": "production company", "role_id": 941, "is_primary": true}, {"id": 2775163, "title": "The World of David the Gnome", "work_id": 115191, "role": "production company", "role_id": 941, "is_primary": true}, {"id": 2775192, "title": "Good medicine; witch way out (Captioned)", "work_id": 81381, "role": "production company", "role_id": 941, "is_primary": true}, {"id": 2775167, "title": "Good medicine; witch way out", "work_id": 80509, "role": "production company", "role_id": 941, "is_primary": true}, {"id": 2123522, "title": "Brassed off", "work_id": 86545, "role": "production company", "role_id": 941, "is_primary": true}, {"id": 2057984, "title": "[Kill Bill] Vol. 2", "work_id": 94858, "role": "production company", "role_id": 941, "is_primary": true}, {"id": 1996392, "title": "Malena", "work_id": 92674, "role": "production company", "role_id": 941, "is_primary": true}, {"id": 2158733, "title": "Marvin's room", "work_id": 87544, "role": "production company", "role_id": 941, "is_primary": true}, {"id": 907130, "title": "Microcosmos", "work_id": 87756, "role": "production company", "role_id": 941, "is_primary": true}, {"id": 2320993, "title": "Swingers", "work_id": 93966, "role": "production company", "role_id": 941, "is_primary": true}, {"id": 1987438, "title": "Tie me up! Tie me down! = Atame!", "work_id": 83590, "role": "production company", "role_id": 941, "is_primary": true}, {"id": 1991650, "title": "Good Will Hunting", "work_id": 87381, "role": "production company", "role_id": 941, "is_primary": true}, {"id": 1978979, "title": "Chicago", "work_id": 95640, "role": "production company", "role_id": 941, "is_primary": true}, {"id": 2341509, "title": "The Crossing guard", "work_id": 89217, "role": "production company", "role_id": 941, "is_primary": true}, {"id": 2116055, "title": "Bioncle: mask of light", "work_id": 94857, "role": "production company", "role_id": 941, "is_primary": true}, {"id": 2228521, "title": "Farewell my concubine", "work_id": 85175, "role": "production company", "role_id": 941, "is_primary": true}, {"id": 2193996, "title": "Dirty pretty things", "work_id": 94986, "role": "production company", "role_id": 941, "is_primary": true}, {"id": 2109466, "title": "Beautiful girls", "work_id": 87813, "role": "production company", "role_id": 941, "is_primary": true}, {"id": 2355521, "title": "The Hours", "work_id": 94979, "role": "production company", "role_id": 941, "is_primary": true}, {"id": 2273658, "title": "Welcome to Sarajevo", "work_id": 92361, "role": "production company", "role_id": 941, "is_primary": true}, {"id": 1998342, "title": "Holy smoke", "work_id": 93735, "role": "production company", "role_id": 941, "is_primary": true}, {"id": 1992090, "title": "Kids (D)", "work_id": 87791, "role": "production company", "role_id": 941, "is_primary": true}, {"id": 1998116, "title": "Pulp fiction [DVD]", "work_id": 93617, "role": "production company", "role_id": 941, "is_primary": true}, {"id": 2223371, "title": "Everyone says I love you", "work_id": 87786, "role": "production company", "role_id": 941, "is_primary": true}, {"id": 1992040, "title": "The Wings of the dove", "work_id": 87780, "role": "production company", "role_id": 941, "is_primary": true}, {"id": 2134116, "title": "Central station = Central do Brasil", "work_id": 91477, "role": "production company", "role_id": 941, "is_primary": true}, {"id": 2331299, "title": "The Big one", "work_id": 95097, "role": "production company", "role_id": 941, "is_primary": true}, {"id": 2475718, "title": "The Postman = Il Postino", "work_id": 89776, "role": "production company", "role_id": 941, "is_primary": true}, {"id": 1994166, "title": "Good Will Hunting (Captioned)", "work_id": 89906, "role": "production company", "role_id": 941, "is_primary": true}, {"id": 2218852, "title": "Enchanted April", "work_id": 83746, "role": "production company", "role_id": 941, "is_primary": true}, {"id": 2337108, "title": "The Cider House rules", "work_id": 93135, "role": "production company", "role_id": 941, "is_primary": true}, {"id": 2249164, "title": "Restoration", "work_id": 86675, "role": "production company", "role_id": 941, "is_primary": true}, {"id": 929204, "title": "Naqoyqatsi: life as war", "work_id": 94835, "role": "production company", "role_id": 941, "is_primary": true}, {"id": 2302859, "title": "Sliding doors", "work_id": 87752, "role": "production company", "role_id": 941, "is_primary": true}, {"id": 1999357, "title": "Gangs of New York", "work_id": 94422, "role": "production company", "role_id": 941, "is_primary": true}, {"id": 2476350, "title": "Frida", "work_id": 94846, "role": "production company", "role_id": 941, "is_primary": true}, {"id": 2296805, "title": "Shakespeare in love", "work_id": 88322, "role": "production company", "role_id": 941, "is_primary": true}, {"id": 2135556, "title": "Chasing Amy [DVD]", "work_id": 92801, "role": "production company", "role_id": 941, "is_primary": true}, {"id": 2121198, "title": "Blue in the face", "work_id": 88770, "role": "production company", "role_id": 941, "is_primary": true}, {"id": 929194, "title": "Kill Bill Vol. 1", "work_id": 94833, "role": "production company", "role_id": 941, "is_primary": true}, {"id": 2346841, "title": "The English patient (Captioned)", "work_id": 87325, "role": "production company", "role_id": 941, "is_primary": true}, {"id": 2208596, "title": "Playing for keeps", "work_id": 89595, "role": "production company", "role_id": 941, "is_primary": true}, {"id": 1995801, "title": "She's so lovely", "work_id": 92332, "role": "production company", "role_id": 941, "is_primary": true}, {"id": 2121278, "title": "Bob Roberts", "work_id": 93448, "role": "production company", "role_id": 941, "is_primary": true}, {"id": 2136951, "title": "Chocolat [DVD]", "work_id": 93962, "role": "production company", "role_id": 941, "is_primary": true}, {"id": 2264142, "title": "Scream 2", "work_id": 87485, "role": "production company", "role_id": 941, "is_primary": true}, {"id": 1995545, "title": "The English patient [DVD]", "work_id": 91707, "role": "production company", "role_id": 941, "is_primary": true}, {"id": 911084, "title": "The Talented Mr. Ripley [DVD]", "work_id": 91702, "role": "production company", "role_id": 941, "is_primary": true}, {"id": 2144485, "title": "Cop land", "work_id": 94816, "role": "production company", "role_id": 941, "is_primary": true}, {"id": 2136921, "title": "Chocolat", "work_id": 95636, "role": "production company", "role_id": 941, "is_primary": true}, {"id": 2000552, "title": "Things to do in Denver when you're dead", "work_id": 95100, "role": "production company", "role_id": 941, "is_primary": true}], "also_known_as": "", "date_of_birth": "1979", "date_of_death": "", "genders": [], "languages": [], "places_of_operation": [], "biography": "", "biography_author": null, "date_of_biography": "2023-08-17T15:35:34.874858+10:00", "external_links": [], "uuid": "cf4e23da-5b35-4cd2-b95f-7de01108628b", "source": {"name": "Vernon", "slug": "vernon"}, "source_identifier": "4886", "external_references": [], "date_modified": "2025-03-14T18:43:01.246120+11:00"}, {"id": 22632, "name": "Cinar Films", "roles_in_work": [{"id": 903172, "title": "Madeline and the gypsies", "work_id": 84095, "role": "production company", "role_id": 941, "is_primary": true}, {"id": 2775165, "title": "Good medicine; witch way out", "work_id": 80509, "role": "production company", "role_id": 941, "is_primary": true}, {"id": 2775177, "title": "Little houses for little people", "work_id": 80890, "role": "production company", "role_id": 941, "is_primary": true}, {"id": 2775190, "title": "Good medicine; witch way out (Captioned)", "work_id": 81381, "role": "production company", "role_id": 941, "is_primary": true}, {"id": 2775199, "title": "The World of David the Gnome", "work_id": 115191, "role": "production company", "role_id": 941, "is_primary": true}, {"id": 903165, "title": "Madeline's rescue", "work_id": 84093, "role": "production company", "role_id": 941, "is_primary": true}, {"id": 903179, "title": "Madeline", "work_id": 84096, "role": "production company", "role_id": 941, "is_primary": true}, {"id": 903158, "title": "Madeline in London", "work_id": 84092, "role": "production company", "role_id": 941, "is_primary": true}, {"id": 903151, "title": "Madeline and the bad hat", "work_id": 84091, "role": "production company", "role_id": 941, "is_primary": true}], "also_known_as": "", "date_of_birth": "", "date_of_death": "", "genders": [], "languages": [], "places_of_operation": [], "biography": "", "biography_author": null, "date_of_biography": "2023-05-09T18:01:31.264684+10:00", "external_links": [], "uuid": "d9a6479b-3427-4018-a241-2039bc203510", "source": {"name": "Vernon", "slug": "vernon"}, "source_identifier": "6641", "external_references": [{"id": 40425, "source": {"name": "Wikidata", "slug": "wikidata"}, "source_identifier": "Q121223528"}], "date_modified": "2025-03-14T18:43:00.544153+11:00"}]}