{"count": 28687, "next": "https://api.acmi.net.au/creators/?page=1903", "previous": "https://api.acmi.net.au/creators/?page=1901", "results": [{"id": 24448, "name": "Lightyear Entertainment", "roles_in_work": [{"id": 2782862, "title": "The Snow queen", "work_id": 82235, "role": "production company", "role_id": 941, "is_primary": true}, {"id": 2782880, "title": "Stories to remember", "work_id": 115272, "role": "production company", "role_id": 941, "is_primary": true}], "also_known_as": "", "date_of_birth": "", "date_of_death": "", "genders": [], "languages": [], "places_of_operation": [], "biography": "", "biography_author": null, "date_of_biography": "2023-05-09T19:00:33.976474+10:00", "external_links": [], "uuid": "b173e37e-aa1a-46a7-8772-875d67936761", "source": {"name": "Vernon", "slug": "vernon"}, "source_identifier": "10063", "external_references": [{"id": 41535, "source": {"name": "Wikidata", "slug": "wikidata"}, "source_identifier": "Q121337235"}], "date_modified": "2025-03-14T19:14:55.166348+11:00"}, {"id": 24447, "name": "Klassika Studio Moscow", "roles_in_work": [{"id": 2782859, "title": "The Snow queen", "work_id": 82235, "role": "production company", "role_id": 941, "is_primary": true}, {"id": 2782877, "title": "Stories to remember", "work_id": 115272, "role": "production company", "role_id": 941, "is_primary": true}], "also_known_as": "", "date_of_birth": "", "date_of_death": "", "genders": [], "languages": [], "places_of_operation": [], "biography": "", "biography_author": null, "date_of_biography": "2023-05-09T19:00:33.633875+10:00", "external_links": [], "uuid": "79edd0b5-7486-41c5-9144-8acbaf0201c4", "source": {"name": "Vernon", "slug": "vernon"}, "source_identifier": "9798", "external_references": [{"id": 42643, "source": {"name": "Wikidata", "slug": "wikidata"}, "source_identifier": "Q121035887"}], "date_modified": "2025-03-14T19:14:54.465235+11:00"}, {"id": 24446, "name": "Hal Trussell", "roles_in_work": [{"id": 2782689, "title": "The Mouse that roared: a marketing overview", "work_id": 82231, "role": "director", "role_id": 938, "is_primary": true}, {"id": 2782716, "title": "Marketing / Coast Community College District", "work_id": 115271, "role": "director", "role_id": 938, "is_primary": true}, {"id": 2782704, "title": "Gold in the hills: a case study in market segmentation", "work_id": 82684, "role": "director", "role_id": 938, "is_primary": true}], "also_known_as": "", "date_of_birth": "", "date_of_death": "", "genders": [], "languages": [], "places_of_operation": [], "biography": "", "biography_author": null, "date_of_biography": "2023-05-09T15:46:54.457837+10:00", "external_links": [], "uuid": "93728df6-d08c-4d2d-b514-bf614697b687", "source": {"name": "Vernon", "slug": "vernon"}, "source_identifier": "20205", "external_references": [{"id": 52198, "source": {"name": "Wikidata", "slug": "wikidata"}, "source_identifier": "Q121357821"}], "date_modified": "2025-03-14T19:14:48.597332+11:00"}, {"id": 24445, "name": "KOCE-TV (Television station : Huntington Beach, Calif.)", "roles_in_work": [{"id": 2790197, "title": "Photojournalism", "work_id": 84496, "role": "production company", "role_id": 941, "is_primary": true}, {"id": 2790203, "title": "Artistic expression", "work_id": 84497, "role": "production company", "role_id": 941, "is_primary": true}, {"id": 2790209, "title": "The Marketplace", "work_id": 84498, "role": "production company", "role_id": 941, "is_primary": true}, {"id": 2790215, "title": "A Lifetime in photography", "work_id": 84499, "role": "production company", "role_id": 941, "is_primary": true}, {"id": 2790137, "title": "The Film", "work_id": 84486, "role": "production company", "role_id": 941, "is_primary": true}, {"id": 2790131, "title": "Controlling exposure", "work_id": 84485, "role": "production company", "role_id": 941, "is_primary": true}, {"id": 2790125, "title": "Responding to light", "work_id": 84484, "role": "production company", "role_id": 941, "is_primary": true}, {"id": 2790119, "title": "Seeing with the camera", "work_id": 84483, "role": "production company", "role_id": 941, "is_primary": true}, {"id": 2790113, "title": "The Camera", "work_id": 84482, "role": "production company", "role_id": 941, "is_primary": true}, {"id": 2790107, "title": "A Visual heritage", "work_id": 84481, "role": "production company", "role_id": 941, "is_primary": true}, {"id": 2790101, "title": "Image and Impact", "work_id": 84480, "role": "production company", "role_id": 941, "is_primary": true}, {"id": 2790179, "title": "The Portrait", "work_id": 84493, "role": "production company", "role_id": 941, "is_primary": true}, {"id": 2790191, "title": "Visual documents", "work_id": 84495, "role": "production company", "role_id": 941, "is_primary": true}, {"id": 2790161, "title": "The Darkroom", "work_id": 84490, "role": "production company", "role_id": 941, "is_primary": true}, {"id": 2790167, "title": "The Studio", "work_id": 84491, "role": "production company", "role_id": 941, "is_primary": true}, {"id": 2790173, "title": "Time and motion", "work_id": 84492, "role": "production company", "role_id": 941, "is_primary": true}, {"id": 2790185, "title": "Landscape & cityscape", "work_id": 84494, "role": "production company", "role_id": 941, "is_primary": true}, {"id": 2782687, "title": "The Mouse that roared: a marketing overview", "work_id": 82231, "role": "production company", "role_id": 941, "is_primary": true}, {"id": 2790220, "title": "The Photographic vision", "work_id": 115400, "role": "production company", "role_id": 941, "is_primary": true}, {"id": 2790143, "title": "Reading photographs", "work_id": 84487, "role": "production company", "role_id": 941, "is_primary": true}, {"id": 2790149, "title": "Structure within the image", "work_id": 84488, "role": "production company", "role_id": 941, "is_primary": true}, {"id": 2790155, "title": "Color", "work_id": 84489, "role": "production company", "role_id": 941, "is_primary": true}], "also_known_as": "", "date_of_birth": "", "date_of_death": "", "genders": [], "languages": [], "places_of_operation": [], "biography": "", "biography_author": null, "date_of_biography": "2023-05-09T15:46:45.419740+10:00", "external_links": [], "uuid": "59ad854f-0191-41e2-b537-d32433ff76d3", "source": {"name": "Vernon", "slug": "vernon"}, "source_identifier": "4553", "external_references": [], "date_modified": "2025-03-14T19:54:24.436325+11:00"}, {"id": 24444, "name": "Susan F Walker", "roles_in_work": [{"id": 2649789, "title": "The Divine Garbo", "work_id": 82230, "role": "director", "role_id": 938, "is_primary": true}, {"id": 2248803, "title": "Remembering Marilyn", "work_id": 93280, "role": "co-producer", "role_id": 915, "is_primary": true}, {"id": 2649788, "title": "The Divine Garbo", "work_id": 82230, "role": "co-producer", "role_id": 915, "is_primary": true}], "also_known_as": "", "date_of_birth": "", "date_of_death": "", "genders": [], "languages": [], "places_of_operation": [], "biography": "", "biography_author": null, "date_of_biography": "2023-05-09T19:43:59.755904+10:00", "external_links": [], "uuid": "ccdf95c6-5ea9-4a05-9b71-9d751b4c638b", "source": {"name": "Vernon", "slug": "vernon"}, "source_identifier": "29335", "external_references": [{"id": 37038, "source": {"name": "Wikidata", "slug": "wikidata"}, "source_identifier": "Q120401924"}], "date_modified": "2025-03-05T14:06:15.301690+11:00"}, {"id": 24442, "name": "Hughes Leisure Group", "roles_in_work": [{"id": 2614575, "title": "Queen Elizabeth 2 sails around New Zealand and Australia", "work_id": 83916, "role": "production company", "role_id": 941, "is_primary": true}, {"id": 2614577, "title": "San Francisco: city at the end of the rainbow", "work_id": 83917, "role": "production company", "role_id": 941, "is_primary": true}, {"id": 2781180, "title": "Poland: a proud heritage", "work_id": 82234, "role": "production company", "role_id": 941, "is_primary": true}, {"id": 2298602, "title": "Si Spain!", "work_id": 84935, "role": "production company", "role_id": 941, "is_primary": true}, {"id": 2357163, "title": "The James Dean story: a different kind of motion picture", "work_id": 83339, "role": "production company", "role_id": 941, "is_primary": true}, {"id": 2262235, "title": "San Francisco; Hollywood; Beverly Hills", "work_id": 83910, "role": "production company", "role_id": 941, "is_primary": true}, {"id": 2286687, "title": "Two hours of christmas cartoons", "work_id": 85863, "role": "production company", "role_id": 941, "is_primary": true}, {"id": 2293716, "title": "Canada: Toronto and Niagara Falls", "work_id": 82239, "role": "production company", "role_id": 941, "is_primary": true}, {"id": 2215435, "title": "Egypt and Turkey", "work_id": 82229, "role": "production company", "role_id": 941, "is_primary": true}, {"id": 2352013, "title": "The Great Canadian train ride", "work_id": 83912, "role": "production company", "role_id": 941, "is_primary": true}], "also_known_as": "", "date_of_birth": "", "date_of_death": "", "genders": [], "languages": [], "places_of_operation": [], "biography": "", "biography_author": null, "date_of_biography": "2023-05-09T20:05:40.008302+10:00", "external_links": [], "uuid": "6149e18f-7bf8-4f70-83cc-8b3efc19bea4", "source": {"name": "Vernon", "slug": "vernon"}, "source_identifier": "9183", "external_references": [{"id": 38087, "source": {"name": "Wikidata", "slug": "wikidata"}, "source_identifier": "Q121337438"}], "date_modified": "2025-03-14T19:08:28.521046+11:00"}, {"id": 24440, "name": "Salo Productions", "roles_in_work": [{"id": 2781159, "title": "Finland: fresh and original", "work_id": 82228, "role": "production company", "role_id": 941, "is_primary": true}], "also_known_as": "", "date_of_birth": "", "date_of_death": "", "genders": [], "languages": [], "places_of_operation": [], "biography": "", "biography_author": null, "date_of_biography": "2023-05-09T19:12:54.316963+10:00", "external_links": [], "uuid": "0da063b5-62f1-4ddd-be23-cc749ff91c69", "source": {"name": "Vernon", "slug": "vernon"}, "source_identifier": "12244", "external_references": [{"id": 37482, "source": {"name": "Wikidata", "slug": "wikidata"}, "source_identifier": "Q121034668"}], "date_modified": "2025-03-14T19:08:23.936808+11:00"}, {"id": 24436, "name": "Gil Scrine Films", "roles_in_work": [{"id": 901530, "title": "Manufacturing consent: Noam Chomsky and the media. Part 1", "work_id": 82227, "role": "distributor", "role_id": 437, "is_primary": false}, {"id": 793067, "title": "The Bad society", "work_id": 86417, "role": "distributor", "role_id": 437, "is_primary": false}, {"id": 1992347, "title": "The Elementary school = Obecna skola", "work_id": 87958, "role": "distributor", "role_id": 437, "is_primary": false}, {"id": 2124420, "title": "Brian Wilson : I wasn't made for these times", "work_id": 86402, "role": "distributor", "role_id": 437, "is_primary": false}, {"id": 2117873, "title": "Bitter paradise: The Sellout of East Timor", "work_id": 86418, "role": "distributor", "role_id": 437, "is_primary": false}, {"id": 1427417, "title": "East side story : the story of Soviet musicals", "work_id": 86404, "role": "distributor", "role_id": 437, "is_primary": false}, {"id": 2072003, "title": "A Mongolian tale", "work_id": 86950, "role": "distributor", "role_id": 437, "is_primary": false}, {"id": 2073292, "title": "A Portrait of Bishhop Carlos Ximenes Belo", "work_id": 86589, "role": "distributor", "role_id": 437, "is_primary": false}, {"id": 2143008, "title": "Concrete city", "work_id": 84121, "role": "distributor", "role_id": 437, "is_primary": false}, {"id": 1427342, "title": "The Panama deception", "work_id": 84120, "role": "distributor", "role_id": 437, "is_primary": false}, {"id": 2125552, "title": "Broken harvest", "work_id": 86422, "role": "distributor", "role_id": 437, "is_primary": false}, {"id": 2254771, "title": "Rosetta", "work_id": 89354, "role": "distributor", "role_id": 437, "is_primary": false}, {"id": 901525, "title": "Manufacturing consent: Noam Chomsky and the media. Part 2", "work_id": 82226, "role": "distributor", "role_id": 437, "is_primary": false}, {"id": 2615417, "title": "Boys and Balls", "work_id": 85418, "role": "production company", "role_id": 941, "is_primary": true}], "also_known_as": "", "date_of_birth": "", "date_of_death": "", "genders": [], "languages": [], "places_of_operation": [], "biography": "", "biography_author": null, "date_of_biography": "2023-05-09T17:15:48.397978+10:00", "external_links": [], "uuid": "995acaf5-ec6a-4d45-91bb-9c961d53d8e3", "source": {"name": "Vernon", "slug": "vernon"}, "source_identifier": "8730", "external_references": [{"id": 37635, "source": {"name": "Wikidata", "slug": "wikidata"}, "source_identifier": "Q121036057"}], "date_modified": "2025-02-26T20:23:36.487393+11:00"}, {"id": 24435, "name": "Maria Ferro", "roles_in_work": [{"id": 2774570, "title": "Country women", "work_id": 82225, "role": "director", "role_id": 938, "is_primary": true}], "also_known_as": "", "date_of_birth": "", "date_of_death": "", "genders": [], "languages": [], "places_of_operation": [], "biography": "", "biography_author": null, "date_of_biography": "2023-05-09T19:29:09.302512+10:00", "external_links": [], "uuid": "76acfda9-5afe-4032-b656-1fbd33e784c7", "source": {"name": "Vernon", "slug": "vernon"}, "source_identifier": "24389", "external_references": [{"id": 43169, "source": {"name": "Wikidata", "slug": "wikidata"}, "source_identifier": "Q121035365"}], "date_modified": "2025-03-14T18:38:02.205767+11:00"}, {"id": 24432, "name": "Sky Cries Mary", "roles_in_work": [{"id": 2302203, "title": "Sky cries Mary until the grinders cease", "work_id": 82224, "role": "production company", "role_id": 941, "is_primary": true}], "also_known_as": "", "date_of_birth": "", "date_of_death": "", "genders": [], "languages": [], "places_of_operation": [], "biography": "", "biography_author": null, "date_of_biography": "2023-05-09T18:38:48.997793+10:00", "external_links": [], "uuid": "6de115b9-e3d9-4461-aad9-3e2df76a938c", "source": {"name": "Vernon", "slug": "vernon"}, "source_identifier": "12634", "external_references": [{"id": 37574, "source": {"name": "Wikidata", "slug": "wikidata"}, "source_identifier": "Q121079488"}], "date_modified": "2023-09-06T01:21:37.744992+10:00"}]}