{"count": 28687, "next": "https://api.acmi.net.au/creators/?page=1141", "previous": "https://api.acmi.net.au/creators/?page=1139", "results": [{"id": 74182, "name": "Roger Blais", "roles_in_work": [{"id": 878038, "title": "How do you drive?", "work_id": 91057, "role": "director", "role_id": 938, "is_primary": true}, {"id": 2324411, "title": "Terra nova", "work_id": 73626, "role": "director", "role_id": 938, "is_primary": true}, {"id": 2166000, "title": "My island home", "work_id": 70719, "role": "director", "role_id": 938, "is_primary": true}, {"id": 876964, "title": "Treasure of the forest", "work_id": 90384, "role": "director", "role_id": 938, "is_primary": true}, {"id": 2292916, "title": "They called it 'fire proof'", "work_id": 73678, "role": "director", "role_id": 938, "is_primary": true}, {"id": 747461, "title": "Man in the peace tower", "work_id": 70088, "role": "director", "role_id": 938, "is_primary": true}, {"id": 878295, "title": "Wheat country", "work_id": 91188, "role": "director", "role_id": 938, "is_primary": true}, {"id": 761532, "title": "Journey from Zero", "work_id": 76269, "role": "director", "role_id": 938, "is_primary": true}, {"id": 2757216, "title": "In search of home", "work_id": 68827, "role": "director", "role_id": 938, "is_primary": true}, {"id": 2757183, "title": "Canada's atom goes to work", "work_id": 65755, "role": "director", "role_id": 938, "is_primary": true}, {"id": 854863, "title": "The Magic mineral", "work_id": 69992, "role": "director", "role_id": 938, "is_primary": true}, {"id": 746445, "title": "Let's discuss smoking", "work_id": 69609, "role": "director", "role_id": 938, "is_primary": true}, {"id": 2757251, "title": "Ski skill", "work_id": 72880, "role": "co-director", "role_id": 959, "is_primary": true}, {"id": 2257201, "title": "Royal river [Abridged version]", "work_id": 89317, "role": "co-director", "role_id": 959, "is_primary": true}, {"id": 1804743, "title": "Let's discuss it", "work_id": 90836, "role": "producer", "role_id": 1089, "is_primary": true}, {"id": 2677256, "title": "Angkor, the lost city", "work_id": 64769, "role": "producer", "role_id": 1089, "is_primary": true}, {"id": 2679278, "title": "Carnival in Quebec", "work_id": 65831, "role": "producer", "role_id": 1089, "is_primary": true}, {"id": 2337320, "title": "The Charwoman", "work_id": 90630, "role": "producer", "role_id": 1089, "is_primary": true}, {"id": 2159079, "title": "Mister Mayor", "work_id": 70657, "role": "producer", "role_id": 1089, "is_primary": true}, {"id": 2335539, "title": "The Caleche driver", "work_id": 89481, "role": "producer", "role_id": 1089, "is_primary": true}, {"id": 2128956, "title": "Bush doctor", "work_id": 89489, "role": "producer", "role_id": 1089, "is_primary": true}, {"id": 2284166, "title": "Youth and music", "work_id": 90408, "role": "producer", "role_id": 1089, "is_primary": true}, {"id": 2296601, "title": "Shadow on the prairie", "work_id": 90751, "role": "producer/director", "role_id": 31, "is_primary": true}, {"id": 2714981, "title": "Grierson", "work_id": 68217, "role": "producer/director", "role_id": 31, "is_primary": true}, {"id": 2712107, "title": "The Dikes", "work_id": 66783, "role": "producer/director", "role_id": 31, "is_primary": true}, {"id": 2247099, "title": "Rehearsal", "work_id": 72124, "role": "producer/director", "role_id": 31, "is_primary": true}, {"id": 2212989, "title": "Each man's son", "work_id": 87764, "role": "producer/director", "role_id": 31, "is_primary": true}], "also_known_as": "", "date_of_birth": "06 FEB 1917", "date_of_death": "09 NOV 2012", "genders": [{"id": 9, "name": "Male", "slug": "male"}], "languages": [{"id": 4, "name": "French", "slug": "french"}], "places_of_operation": [{"id": 36, "name": "Canada", "slug": "canada"}], "biography": "Roger Blais (February 6, 1917 – November 9, 2012) was a Canadian film director and producer, who played a key role in the development and expansion of the Quebec division of the National Film Board of Canada. As a filmmaker, he was most noted for the films Royal Journey and Grierson, both of which won the Canadian Film Award for Best Feature Length Documentary in 1952 and 1973, respectively. Source: Wikidata; 01/08/2023", "biography_author": null, "date_of_biography": "2025-03-13T14:44:14.033794+11:00", "external_links": [{"id": 5058, "uri": "https://en.wikipedia.org/wiki/Roger_Blais_(filmmaker)"}], "uuid": "ccf2fe27-eb1d-4558-a220-3d8c6f67b141", "source": {"name": "Vernon", "slug": "vernon"}, "source_identifier": "28029", "external_references": [{"id": 26481, "source": {"name": "Wikidata", "slug": "wikidata"}, "source_identifier": "Q3438713"}, {"id": 31264, "source": {"name": "VIAF", "slug": "viaf"}, "source_identifier": "105487680"}, {"id": 31265, "source": {"name": "WorldCat", "slug": "worldcat"}, "source_identifier": "viaf-105487680"}], "date_modified": "2025-03-13T14:44:14.034024+11:00"}, {"id": 74181, "name": "Derek May", "roles_in_work": [{"id": 2677243, "title": "Angel", "work_id": 64764, "role": "director", "role_id": 938, "is_primary": true}, {"id": 2186168, "title": "Pandora", "work_id": 86760, "role": "director", "role_id": 938, "is_primary": true}, {"id": 2171533, "title": "Mcbus", "work_id": 88666, "role": "director", "role_id": 938, "is_primary": true}, {"id": 2647227, "title": "Helicopter Canada", "work_id": 75673, "role": "writer", "role_id": 939, "is_primary": true}], "also_known_as": "", "date_of_birth": null, "date_of_death": null, "genders": [{"id": 9, "name": "Male", "slug": "male"}], "languages": [], "places_of_operation": [{"id": 36, "name": "Canada", "slug": "canada"}], "biography": "Derek May (1932–1992) was a Canadian animation, dramatic and documentary film director who worked primarily for the National Film Board of Canada (NFB). Originally a painter, his first film with the NFB was the 1966 experimental short, Angel. His documentary work often focused on the role of the artist in society. His other credits include collaborating the Donald Brittain on the narration for Helicopter Canada. Source: Wikidata; 01/08/2023", "biography_author": null, "date_of_biography": "2025-03-06T23:15:59.195992+11:00", "external_links": [{"id": 3874, "uri": "https://en.wikipedia.org/wiki/Derek_May"}], "uuid": "25a2e270-0774-42fb-9f35-5b9b4dd8b0bc", "source": {"name": "Vernon", "slug": "vernon"}, "source_identifier": "18037", "external_references": [{"id": 26518, "source": {"name": "Wikidata", "slug": "wikidata"}, "source_identifier": "Q27108241"}, {"id": 28146, "source": {"name": "VIAF", "slug": "viaf"}, "source_identifier": "106558731"}, {"id": 28147, "source": {"name": "LOC Auth", "slug": "loc-auth"}, "source_identifier": "no2011107968"}, {"id": 28148, "source": {"name": "WorldCat", "slug": "worldcat"}, "source_identifier": "lccn-no2011107968"}], "date_modified": "2025-03-06T23:15:59.196241+11:00"}, {"id": 74180, "name": "Anne Henderson", "roles_in_work": [{"id": 755604, "title": "Threads", "work_id": 73765, "role": "director", "role_id": 938, "is_primary": true}, {"id": 2074519, "title": "A Song for Tibet", "work_id": 83286, "role": "director", "role_id": 938, "is_primary": true}, {"id": 2356314, "title": "The Impossible takes a little longer", "work_id": 92929, "role": "director", "role_id": 938, "is_primary": true}, {"id": 2677238, "title": "And they lived happily ever after", "work_id": 64761, "role": "co-director", "role_id": 959, "is_primary": true}, {"id": 2074507, "title": "A Song for Tibet", "work_id": 83286, "role": "co-producer", "role_id": 915, "is_primary": true}, {"id": 2614904, "title": "Holding our ground", "work_id": 84506, "role": "producer/director", "role_id": 31, "is_primary": true}], "also_known_as": "", "date_of_birth": "", "date_of_death": "", "genders": [], "languages": [], "places_of_operation": [], "biography": "", "biography_author": null, "date_of_biography": "2023-05-09T20:04:24.398611+10:00", "external_links": [], "uuid": "08e80f9b-d34d-4623-9c39-edad5916f44a", "source": {"name": "Vernon", "slug": "vernon"}, "source_identifier": "15333", "external_references": [{"id": 43127, "source": {"name": "Wikidata", "slug": "wikidata"}, "source_identifier": "Q120306178"}], "date_modified": "2025-03-06T23:15:55.063587+11:00"}, {"id": 74179, "name": "Irene Angelico", "roles_in_work": [{"id": 800453, "title": "Meditation in motion", "work_id": 88665, "role": "director", "role_id": 938, "is_primary": true}, {"id": 2677237, "title": "And they lived happily ever after", "work_id": 64761, "role": "co-director", "role_id": 959, "is_primary": true}, {"id": 2176816, "title": "Dark lullabies", "work_id": 78478, "role": "producer/director", "role_id": 31, "is_primary": true}], "also_known_as": "", "date_of_birth": "", "date_of_death": "", "genders": [{"id": 5, "name": "Female", "slug": "female"}], "languages": [], "places_of_operation": [], "biography": "Irene Lilienheim Angelico (born December 9, 1946) is a Canadian film director, producer and writer.", "biography_author": "Wikidata", "date_of_biography": "2023-09-05T20:50:09.586289+10:00", "external_links": [{"id": 5881, "uri": "https://en.wikipedia.org/wiki/Irene_Angelico"}], "uuid": "02e6b38d-462f-49f7-a6bf-aeb9d91e744d", "source": {"name": "Vernon", "slug": "vernon"}, "source_identifier": "20855", "external_references": [{"id": 33901, "source": {"name": "Wikidata", "slug": "wikidata"}, "source_identifier": "Q98716218"}, {"id": 54712, "source": {"name": "VIAF", "slug": "viaf"}, "source_identifier": "105744988"}, {"id": 54713, "source": {"name": "LOC Auth", "slug": "loc-auth"}, "source_identifier": "no2007093143"}], "date_modified": "2025-03-06T23:15:54.439049+11:00"}, {"id": 74178, "name": "Len Chatwin", "roles_in_work": [{"id": 2677235, "title": "And they lived happily ever after", "work_id": 64761, "role": "co-producer", "role_id": 915, "is_primary": true}, {"id": 1815292, "title": "V.T.R. Rosedale", "work_id": 87805, "role": "producer", "role_id": 1089, "is_primary": true}, {"id": 2757520, "title": "Would I ever like to work", "work_id": 87435, "role": "producer", "role_id": 1089, "is_primary": true}, {"id": 2065520, "title": "A Bus for us", "work_id": 94753, "role": "producer", "role_id": 1089, "is_primary": true}], "also_known_as": "", "date_of_birth": "", "date_of_death": "", "genders": [], "languages": [], "places_of_operation": [], "biography": "", "biography_author": null, "date_of_biography": "2023-05-09T18:40:54.762339+10:00", "external_links": [], "uuid": "c20e418a-dcdd-45d8-b114-84421e33c733", "source": {"name": "Vernon", "slug": "vernon"}, "source_identifier": "23664", "external_references": [{"id": 41295, "source": {"name": "Wikidata", "slug": "wikidata"}, "source_identifier": "Q121035188"}], "date_modified": "2025-03-13T14:46:08.429447+11:00"}, {"id": 74177, "name": "Kathleen Shannon", "roles_in_work": [{"id": 2757521, "title": "Would I ever like to work", "work_id": 87435, "role": "director", "role_id": 938, "is_primary": true}, {"id": 2714812, "title": "Goldwood", "work_id": 68126, "role": "director", "role_id": 938, "is_primary": true}, {"id": 2677236, "title": "And they lived happily ever after", "work_id": 64761, "role": "co-director", "role_id": 959, "is_primary": true}, {"id": 3087127, "title": "I'll find a way", "work_id": 68759, "role": "co-producer", "role_id": 915, "is_primary": true}, {"id": 3087138, "title": "Kevin Alec", "work_id": 69376, "role": "co-producer", "role_id": 915, "is_primary": true}, {"id": 3087151, "title": "My name is Susan Yee", "work_id": 70722, "role": "co-producer", "role_id": 915, "is_primary": true}, {"id": 2289791, "title": "Too dirty for a woman", "work_id": 92894, "role": "co-producer", "role_id": 915, "is_primary": true}, {"id": 2318334, "title": "Sun, wind and wood", "work_id": 77806, "role": "co-producer", "role_id": 915, "is_primary": true}, {"id": 2356308, "title": "The Impossible takes a little longer", "work_id": 92929, "role": "co-producer", "role_id": 915, "is_primary": true}, {"id": 2189750, "title": "Patricia's moving picture", "work_id": 71397, "role": "co-producer", "role_id": 915, "is_primary": true}, {"id": 2163622, "title": "My friends call me Tony", "work_id": 70718, "role": "co-producer", "role_id": 915, "is_primary": true}, {"id": 2321094, "title": "Sylvie's story", "work_id": 92949, "role": "co-producer", "role_id": 915, "is_primary": true}, {"id": 912724, "title": "Nuclear addiction: Dr. Rosalie Bertell on the Cost of Det...", "work_id": 92888, "role": "co-producer", "role_id": 915, "is_primary": true}, {"id": 2677234, "title": "And they lived happily ever after", "work_id": 64761, "role": "co-producer", "role_id": 915, "is_primary": true}, {"id": 2648174, "title": "Behind the veil: nuns. Pt. 1.", "work_id": 78447, "role": "co-producer", "role_id": 915, "is_primary": true}, {"id": 2678214, "title": "Beautiful Lennard Island", "work_id": 65282, "role": "co-producer", "role_id": 915, "is_primary": true}, {"id": 2094896, "title": "An Unremarkable birth", "work_id": 78008, "role": "co-producer", "role_id": 915, "is_primary": true}, {"id": 912716, "title": "It's just better", "work_id": 92884, "role": "co-producer", "role_id": 915, "is_primary": true}, {"id": 2243501, "title": "Flamenco at 5.15", "work_id": 77987, "role": "co-producer", "role_id": 915, "is_primary": true}, {"id": 2157511, "title": "Just a lady", "work_id": 87894, "role": "co-producer", "role_id": 915, "is_primary": true}, {"id": 898033, "title": "Gurdeep Singh Bains", "work_id": 78067, "role": "co-producer", "role_id": 915, "is_primary": true}, {"id": 897331, "title": "If you love this planet", "work_id": 77394, "role": "co-producer", "role_id": 915, "is_primary": true}, {"id": 2111581, "title": "Behind the veil: nuns. Pt. 2.", "work_id": 78446, "role": "co-producer", "role_id": 915, "is_primary": true}, {"id": 912872, "title": "On our own", "work_id": 92941, "role": "co-producer", "role_id": 915, "is_primary": true}, {"id": 912824, "title": "Head start: meeting the computer challenge", "work_id": 92926, "role": "co-producer", "role_id": 915, "is_primary": true}, {"id": 2757474, "title": "Co-op housing: getting it together", "work_id": 66393, "role": "producer", "role_id": 1089, "is_primary": true}, {"id": 2176813, "title": "Dark lullabies", "work_id": 78478, "role": "producer", "role_id": 1089, "is_primary": true}, {"id": 2757519, "title": "Would I ever like to work", "work_id": 87435, "role": "producer", "role_id": 1089, "is_primary": true}, {"id": 2288264, "title": "The Town mouse and the country mouse", "work_id": 76328, "role": "producer", "role_id": 1089, "is_primary": true}, {"id": 2757502, "title": "The Spring and fall of Nina Polanski", "work_id": 73126, "role": "producer", "role_id": 1089, "is_primary": true}, {"id": 2167961, "title": "Maud Lewis: a world without shadows", "work_id": 76094, "role": "producer", "role_id": 1089, "is_primary": true}, {"id": 2757477, "title": "Co-op housing: the best move we ever made", "work_id": 66394, "role": "producer", "role_id": 1089, "is_primary": true}, {"id": 2757513, "title": "Tiger on a tight leash", "work_id": 73818, "role": "producer/director", "role_id": 31, "is_primary": true}, {"id": 2757485, "title": "It's not enough", "work_id": 69161, "role": "producer/director", "role_id": 31, "is_primary": true}, {"id": 2224244, "title": "Extensions of the family", "work_id": 88057, "role": "producer/director", "role_id": 31, "is_primary": true}, {"id": 2292910, "title": "They appreciate you more", "work_id": 87714, "role": "producer/director", "role_id": 31, "is_primary": true}, {"id": 748482, "title": "Mothers are people", "work_id": 70606, "role": "producer/director", "role_id": 31, "is_primary": true}, {"id": 790793, "title": "Luckily I need little sleep", "work_id": 85734, "role": "producer/director", "role_id": 31, "is_primary": true}], "also_known_as": "", "date_of_birth": "01 JAN 1935", "date_of_death": "09 JAN 1998", "genders": [{"id": 5, "name": "Female", "slug": "female"}], "languages": [], "places_of_operation": [{"id": 36, "name": "Canada", "slug": "canada"}], "biography": "Kathleen Shannon  (November 11, 1935 – January 9, 1998) was a Canadian film director and producer. She is best known as the founder and first executive producer of Studio D of the National Film Board of Canada, the first government-funded film studio in the world dedicated to women filmmakers. Source: Wikidata; 01/08/2023", "biography_author": null, "date_of_biography": "2025-03-17T10:46:54.712160+11:00", "external_links": [{"id": 4469, "uri": "https://en.wikipedia.org/wiki/Kathleen_Shannon"}], "uuid": "44209db0-f5f3-44c3-a176-da231932eab6", "source": {"name": "Vernon", "slug": "vernon"}, "source_identifier": "23084", "external_references": [{"id": 25862, "source": {"name": "Wikidata", "slug": "wikidata"}, "source_identifier": "Q16014183"}], "date_modified": "2025-03-17T10:46:54.712479+11:00"}, {"id": 74176, "name": "Norma Adams", "roles_in_work": [{"id": 2677213, "title": "....And everything nice", "work_id": 64753, "role": "producer/director", "role_id": 31, "is_primary": true}], "also_known_as": "", "date_of_birth": "", "date_of_death": "", "genders": [], "languages": [], "places_of_operation": [], "biography": "", "biography_author": null, "date_of_biography": "2023-05-09T09:55:20.069980+10:00", "external_links": [], "uuid": "920a9e7c-1e1f-4850-9e30-98cfdbc9562e", "source": {"name": "Vernon", "slug": "vernon"}, "source_identifier": "25872", "external_references": [{"id": 50802, "source": {"name": "Wikidata", "slug": "wikidata"}, "source_identifier": "Q121361087"}], "date_modified": "2025-03-06T23:15:38.949461+11:00"}, {"id": 74175, "name": "Russell Morash", "roles_in_work": [{"id": 2327414, "title": "Sharing the Leadership", "work_id": 72736, "role": "producer/director", "role_id": 31, "is_primary": true}, {"id": 2327427, "title": "[Roadblocks to communication]", "work_id": 72291, "role": "producer/director", "role_id": 31, "is_primary": true}, {"id": 2677182, "title": "The Anatomy of a group", "work_id": 64735, "role": "producer/director", "role_id": 31, "is_primary": true}, {"id": 2712068, "title": "Diagnosing group operations", "work_id": 66759, "role": "producer/director", "role_id": 31, "is_primary": true}], "also_known_as": "", "date_of_birth": "", "date_of_death": "", "genders": [], "languages": [], "places_of_operation": [], "biography": "", "biography_author": null, "date_of_biography": "2023-05-09T19:21:05.997389+10:00", "external_links": [], "uuid": "23bbb42b-9238-4968-a989-e11bb1054808", "source": {"name": "Vernon", "slug": "vernon"}, "source_identifier": "28362", "external_references": [{"id": 50766, "source": {"name": "Wikidata", "slug": "wikidata"}, "source_identifier": "Q121361089"}], "date_modified": "2025-03-12T00:10:09.420148+11:00"}, {"id": 74174, "name": "John Ossei", "roles_in_work": [{"id": 2677175, "title": "Ananse's farm", "work_id": 64732, "role": "director", "role_id": 938, "is_primary": true}], "also_known_as": "", "date_of_birth": "", "date_of_death": "", "genders": [], "languages": [], "places_of_operation": [], "biography": "", "biography_author": null, "date_of_biography": "2023-05-09T12:23:43.914268+10:00", "external_links": [], "uuid": "bee26424-a9e7-4837-8183-a664a44f14c7", "source": {"name": "Vernon", "slug": "vernon"}, "source_identifier": "22341", "external_references": [{"id": 51748, "source": {"name": "Wikidata", "slug": "wikidata"}, "source_identifier": "Q121357865"}], "date_modified": "2025-03-06T23:15:11.541679+11:00"}, {"id": 74173, "name": "Keith Hall", "roles_in_work": [{"id": 2677169, "title": "Amy is a tiger", "work_id": 64730, "role": "producer/director", "role_id": 31, "is_primary": true}], "also_known_as": "", "date_of_birth": "", "date_of_death": "", "genders": [], "languages": [], "places_of_operation": [], "biography": "", "biography_author": null, "date_of_biography": "2023-05-09T12:00:58.583592+10:00", "external_links": [], "uuid": "2083ae32-1692-4907-b44c-7974277846fe", "source": {"name": "Vernon", "slug": "vernon"}, "source_identifier": "23142", "external_references": [{"id": 51182, "source": {"name": "Wikidata", "slug": "wikidata"}, "source_identifier": "Q121361221"}], "date_modified": "2025-03-06T23:15:07.516649+11:00"}]}