{"count": 28687, "next": "https://api.acmi.net.au/creators/?page=2459", "previous": "https://api.acmi.net.au/creators/?page=2457", "results": [{"id": 14421, "name": "Opus Films", "roles_in_work": [{"id": 2788826, "title": "Swords and ploughshares", "work_id": 98361, "role": "production company", "role_id": 941, "is_primary": true}, {"id": 2712133, "title": "Discover Australia's national parks", "work_id": 66800, "role": "production company", "role_id": 941, "is_primary": true}, {"id": 1426212, "title": "Life in the Desert", "work_id": 78807, "role": "production company", "role_id": 941, "is_primary": true}, {"id": 2339941, "title": "The Australian ark", "work_id": 115261, "role": "production company", "role_id": 941, "is_primary": true}, {"id": 2339976, "title": "Return to the dreaming", "work_id": 82135, "role": "production company", "role_id": 941, "is_primary": true}, {"id": 2346868, "title": "The End of the game", "work_id": 75548, "role": "production company", "role_id": 941, "is_primary": true}, {"id": 2339958, "title": "The Coming of man", "work_id": 82134, "role": "production company", "role_id": 941, "is_primary": true}, {"id": 865272, "title": "Out of the fiery furnace. Parts 6 and 7", "work_id": 78892, "role": "production company", "role_id": 941, "is_primary": true}, {"id": 760580, "title": "See", "work_id": 75879, "role": "production company", "role_id": 941, "is_primary": true}, {"id": 2648421, "title": "Return to the dreaming (Captioned)", "work_id": 79120, "role": "production company", "role_id": 941, "is_primary": true}, {"id": 2788823, "title": "From stone to bronze", "work_id": 98360, "role": "production company", "role_id": 941, "is_primary": true}, {"id": 2788822, "title": "Out of the fiery furnace", "work_id": 115370, "role": "production company", "role_id": 941, "is_primary": true}, {"id": 2788829, "title": "Shining conquests", "work_id": 98362, "role": "production company", "role_id": 941, "is_primary": true}, {"id": 2788833, "title": "Revolution of necessity", "work_id": 98363, "role": "production company", "role_id": 941, "is_primary": true}, {"id": 2788836, "title": "Into the machine age", "work_id": 98364, "role": "production company", "role_id": 941, "is_primary": true}, {"id": 2788839, "title": "From alchemy to the atom", "work_id": 98365, "role": "production company", "role_id": 941, "is_primary": true}, {"id": 2788842, "title": "Age of metals: can it last?", "work_id": 98366, "role": "production company", "role_id": 941, "is_primary": true}, {"id": 2181573, "title": "Out of the fiery furnace. Parts 4 and 5", "work_id": 78891, "role": "production company", "role_id": 941, "is_primary": true}, {"id": 749145, "title": "Nightlife", "work_id": 70902, "role": "production company", "role_id": 941, "is_primary": true}, {"id": 2181542, "title": "Out of the fiery furnace. Parts 1-3", "work_id": 78893, "role": "production company", "role_id": 941, "is_primary": true}], "also_known_as": "", "date_of_birth": "", "date_of_death": "", "genders": [], "languages": [], "places_of_operation": [], "biography": "", "biography_author": null, "date_of_biography": "2023-05-09T19:48:24.964286+10:00", "external_links": [], "uuid": "6d40148d-86e6-40d8-a3ba-8c042a7342f1", "source": {"name": "Vernon", "slug": "vernon"}, "source_identifier": "11164", "external_references": [], "date_modified": "2025-03-14T19:46:43.816688+11:00"}, {"id": 14420, "name": "J Stone", "roles_in_work": [{"id": 2712130, "title": "Discipline and self control (TEFC)", "work_id": 66798, "role": "director", "role_id": 938, "is_primary": true}], "also_known_as": "", "date_of_birth": null, "date_of_death": null, "genders": [], "languages": [], "places_of_operation": [], "biography": "", "biography_author": null, "date_of_biography": null, "external_links": [], "uuid": "17f54c86-fdab-4687-ab57-41b94067ed6a", "source": {"name": "Vernon", "slug": "vernon"}, "source_identifier": "20972", "external_references": [], "date_modified": "2025-03-12T00:11:10.956515+11:00"}, {"id": 14419, "name": "Rob Grant", "roles_in_work": [{"id": 2644539, "title": "Dirty business", "work_id": 66795, "role": "director", "role_id": 938, "is_primary": true}], "also_known_as": "", "date_of_birth": null, "date_of_death": null, "genders": [], "languages": [], "places_of_operation": [], "biography": "", "biography_author": null, "date_of_biography": null, "external_links": [], "uuid": "e97f0d20-3576-4e69-b6a7-242b963502ba", "source": {"name": "Vernon", "slug": "vernon"}, "source_identifier": "27593", "external_references": [], "date_modified": "2025-03-05T12:20:57.241372+11:00"}, {"id": 14418, "name": "Ian Fowler", "roles_in_work": [{"id": 760031, "title": "Dear God in heaven", "work_id": 75649, "role": "director", "role_id": 938, "is_primary": true}, {"id": 2644538, "title": "Dirty business", "work_id": 66795, "role": "producer", "role_id": 1089, "is_primary": true}], "also_known_as": "", "date_of_birth": null, "date_of_death": null, "genders": [], "languages": [], "places_of_operation": [], "biography": "", "biography_author": null, "date_of_biography": null, "external_links": [], "uuid": "020cfbde-bdb4-481e-a005-20b4a89fc063", "source": {"name": "Vernon", "slug": "vernon"}, "source_identifier": "20753", "external_references": [], "date_modified": "2025-03-05T12:20:56.653791+11:00"}, {"id": 14417, "name": "Peckham Productions", "roles_in_work": [{"id": 2712127, "title": "The Directors", "work_id": 66794, "role": "production company", "role_id": 941, "is_primary": true}], "also_known_as": "", "date_of_birth": null, "date_of_death": null, "genders": [], "languages": [], "places_of_operation": [], "biography": "", "biography_author": null, "date_of_biography": null, "external_links": [], "uuid": "8da48255-2540-4f3e-9f87-f946518e6fd6", "source": {"name": "Vernon", "slug": "vernon"}, "source_identifier": "4629", "external_references": [], "date_modified": "2025-03-12T00:11:07.138649+11:00"}, {"id": 14416, "name": "Life Magazine", "roles_in_work": [{"id": 2727807, "title": "Dorothy Dandridge on front cover of LIFE magazine", "work_id": 122115, "role": "creator", "role_id": 968, "is_primary": true}, {"id": 2712126, "title": "The Directors", "work_id": 66794, "role": "production company", "role_id": 941, "is_primary": true}], "also_known_as": "", "date_of_birth": "", "date_of_death": "", "genders": [], "languages": [], "places_of_operation": [], "biography": "", "biography_author": null, "date_of_biography": "2023-07-12T04:05:57.571031+10:00", "external_links": [], "uuid": "6e3415ba-a66a-443e-bd57-6140318327e3", "source": {"name": "Vernon", "slug": "vernon"}, "source_identifier": "4628", "external_references": [{"id": 51002, "source": {"name": "Wikidata", "slug": "wikidata"}, "source_identifier": "Q121357461"}], "date_modified": "2025-03-12T08:29:37.570769+11:00"}, {"id": 14411, "name": "University of Minnesota", "roles_in_work": [{"id": 2712489, "title": "Duck hunter's dilemma", "work_id": 66962, "role": "production company", "role_id": 941, "is_primary": true}, {"id": 2758397, "title": "Using analytical tools", "work_id": 74249, "role": "production company", "role_id": 941, "is_primary": true}, {"id": 2219465, "title": "Epilepsy: first aid for seizures", "work_id": 76470, "role": "production company", "role_id": 941, "is_primary": true}, {"id": 2712104, "title": "Dihedral kaleidoscopes (TEFC)", "work_id": 66782, "role": "production company", "role_id": 941, "is_primary": true}, {"id": 2752481, "title": "Circles of learning", "work_id": 98315, "role": "production company", "role_id": 941, "is_primary": true}], "also_known_as": "", "date_of_birth": "", "date_of_death": "", "genders": [], "languages": [], "places_of_operation": [], "biography": "", "biography_author": null, "date_of_biography": "2023-05-09T16:37:53.137896+10:00", "external_links": [], "uuid": "0469aba9-7e01-4187-aca6-d72b4da65d6d", "source": {"name": "Vernon", "slug": "vernon"}, "source_identifier": "13892", "external_references": [{"id": 35823, "source": {"name": "Wikidata", "slug": "wikidata"}, "source_identifier": "Q238101"}], "date_modified": "2025-03-13T01:06:17.181315+11:00"}, {"id": 14410, "name": "Vignette Films", "roles_in_work": [{"id": 2712098, "title": "Different with dignity", "work_id": 66778, "role": "production company", "role_id": 941, "is_primary": true}], "also_known_as": "", "date_of_birth": "", "date_of_death": "", "genders": [], "languages": [], "places_of_operation": [], "biography": "", "biography_author": null, "date_of_biography": "2023-08-11T16:07:27.763345+10:00", "external_links": [], "uuid": "10701802-94dc-426a-bc0c-234425abb276", "source": {"name": "Vernon", "slug": "vernon"}, "source_identifier": "14138", "external_references": [], "date_modified": "2025-03-12T00:10:39.428182+11:00"}, {"id": 14409, "name": "Jerome Blustein", "roles_in_work": [{"id": 2712097, "title": "A Different path: the kibbutz - search for a new society", "work_id": 66777, "role": "director", "role_id": 938, "is_primary": true}], "also_known_as": "", "date_of_birth": null, "date_of_death": null, "genders": [], "languages": [], "places_of_operation": [], "biography": "", "biography_author": null, "date_of_biography": null, "external_links": [], "uuid": "0aeed791-f6fe-467e-888d-69afa8ed7418", "source": {"name": "Vernon", "slug": "vernon"}, "source_identifier": "21765", "external_references": [], "date_modified": "2025-03-12T00:10:37.391675+11:00"}, {"id": 14408, "name": "Bastian Wimmer", "roles_in_work": [{"id": 869296, "title": "Antarctica", "work_id": 85449, "role": "director", "role_id": 938, "is_primary": true}, {"id": 2715397, "title": "Here comes the sun", "work_id": 68419, "role": "co-producer", "role_id": 915, "is_primary": true}, {"id": 2712096, "title": "A Different path: the kibbutz - search for a new society", "work_id": 66777, "role": "producer", "role_id": 1089, "is_primary": true}], "also_known_as": "", "date_of_birth": null, "date_of_death": null, "genders": [], "languages": [], "places_of_operation": [], "biography": "", "biography_author": null, "date_of_biography": null, "external_links": [], "uuid": "d12004b3-8801-4a5b-a40e-aab4adb22e99", "source": {"name": "Vernon", "slug": "vernon"}, "source_identifier": "15758", "external_references": [], "date_modified": "2025-03-12T01:32:59.676275+11:00"}]}