{"count": 28687, "next": "https://api.acmi.net.au/creators/?page=404", "previous": "https://api.acmi.net.au/creators/?page=402", "results": [{"id": 81553, "name": "Jeanne Collachla", "roles_in_work": [{"id": 2750840, "title": "Robert Frost's The death of the hired man", "work_id": 97533, "role": "producer/director", "role_id": 31, "is_primary": true}], "also_known_as": "", "date_of_birth": "", "date_of_death": "", "genders": [], "languages": [], "places_of_operation": [], "biography": "", "biography_author": null, "date_of_biography": "2023-05-09T17:11:17.139271+10:00", "external_links": [], "uuid": "e12cbf1c-47af-488a-b7d1-ec37fa31cf0b", "source": {"name": "Vernon", "slug": "vernon"}, "source_identifier": "21598", "external_references": [{"id": 51848, "source": {"name": "Wikidata", "slug": "wikidata"}, "source_identifier": "Q121360621"}], "date_modified": "2025-03-13T00:31:23.093553+11:00"}, {"id": 81552, "name": "Daniel Hoffman", "roles_in_work": [{"id": 2750830, "title": "Toast", "work_id": 97529, "role": "producer/director", "role_id": 31, "is_primary": true}], "also_known_as": "", "date_of_birth": "", "date_of_death": "", "genders": [], "languages": [], "places_of_operation": [], "biography": "", "biography_author": null, "date_of_biography": "2023-05-09T17:58:58.195996+10:00", "external_links": [], "uuid": "1b0a7c83-240c-4f5d-8d37-b5775c988aba", "source": {"name": "Vernon", "slug": "vernon"}, "source_identifier": "31735", "external_references": [{"id": 51794, "source": {"name": "Wikidata", "slug": "wikidata"}, "source_identifier": "Q121361318"}], "date_modified": "2025-03-13T00:31:15.447227+11:00"}, {"id": 81551, "name": "Bob Conroy", "roles_in_work": [{"id": 2750817, "title": "The Human journey: the family", "work_id": 97520, "role": "producer/director", "role_id": 31, "is_primary": true}], "also_known_as": "", "date_of_birth": "", "date_of_death": "", "genders": [], "languages": [], "places_of_operation": [], "biography": "", "biography_author": null, "date_of_biography": "2023-05-09T20:02:44.885022+10:00", "external_links": [], "uuid": "69c4a20f-05af-446c-9f7a-927e19bc62ec", "source": {"name": "Vernon", "slug": "vernon"}, "source_identifier": "16057", "external_references": [{"id": 51484, "source": {"name": "Wikidata", "slug": "wikidata"}, "source_identifier": "Q121361137"}], "date_modified": "2025-03-13T00:31:05.941170+11:00"}, {"id": 81550, "name": "Robert L Bendick", "roles_in_work": [{"id": 2750765, "title": "Merrily we roll along", "work_id": 97490, "role": "producer/director", "role_id": 31, "is_primary": true}], "also_known_as": "", "date_of_birth": null, "date_of_death": null, "genders": [], "languages": [], "places_of_operation": [], "biography": "", "biography_author": null, "date_of_biography": null, "external_links": [], "uuid": "ac12b117-eb1b-4c94-aff8-8a3ec58babb1", "source": {"name": "Vernon", "slug": "vernon"}, "source_identifier": "27794", "external_references": [{"id": 51420, "source": {"name": "Wikidata", "slug": "wikidata"}, "source_identifier": "Q121361370"}], "date_modified": "2025-03-13T00:30:21.695904+11:00"}, {"id": 81549, "name": "Steve Campus", "roles_in_work": [{"id": 2750746, "title": "Foundations of mathematics", "work_id": 97478, "role": "producer/director", "role_id": 31, "is_primary": true}], "also_known_as": "", "date_of_birth": "", "date_of_death": "", "genders": [], "languages": [], "places_of_operation": [], "biography": "", "biography_author": null, "date_of_biography": "2023-08-11T16:45:55.603608+10:00", "external_links": [], "uuid": "fac27435-c3e8-4b8e-b8f4-5efc3db59eac", "source": {"name": "Vernon", "slug": "vernon"}, "source_identifier": "29116", "external_references": [{"id": 51135, "source": {"name": "Wikidata", "slug": "wikidata"}, "source_identifier": "Q121360685"}], "date_modified": "2025-03-13T00:30:04.393543+11:00"}, {"id": 81548, "name": "Daryl Evans", "roles_in_work": [{"id": 2381604, "title": "Ceremony", "work_id": 117278, "role": "sound", "role_id": 952, "is_primary": false}, {"id": 2750724, "title": "Circus", "work_id": 97465, "role": "sound", "role_id": 952, "is_primary": false}], "also_known_as": "", "date_of_birth": "", "date_of_death": "", "genders": [{"id": 9, "name": "Male", "slug": "male"}], "languages": [], "places_of_operation": [], "biography": "", "biography_author": null, "date_of_biography": "2023-07-26T03:37:38.046490+10:00", "external_links": [], "uuid": "41067ff2-9f06-4c2e-8a78-cd9572378ddc", "source": {"name": "Vernon", "slug": "vernon"}, "source_identifier": "36058", "external_references": [], "date_modified": "2025-03-13T00:27:33.386639+11:00"}, {"id": 81547, "name": "Dennis Hicks", "roles_in_work": [{"id": 2750716, "title": "Multicultural education: a teaching style", "work_id": 97462, "role": "co-producer", "role_id": 915, "is_primary": true}], "also_known_as": "", "date_of_birth": "", "date_of_death": "", "genders": [], "languages": [], "places_of_operation": [], "biography": "", "biography_author": null, "date_of_biography": "2023-08-14T09:57:14.838430+10:00", "external_links": [], "uuid": "b15a1e5b-d0b5-4283-9464-68d89f57c967", "source": {"name": "Vernon", "slug": "vernon"}, "source_identifier": "17999", "external_references": [{"id": 39731, "source": {"name": "Wikidata", "slug": "wikidata"}, "source_identifier": "Q121036791"}], "date_modified": "2025-03-13T00:27:27.334344+11:00"}, {"id": 81546, "name": "David Arnold", "roles_in_work": [{"id": 2750715, "title": "Multicultural education: a teaching style", "work_id": 97462, "role": "co-producer", "role_id": 915, "is_primary": true}], "also_known_as": "", "date_of_birth": "", "date_of_death": "", "genders": [], "languages": [], "places_of_operation": [], "biography": "", "biography_author": null, "date_of_biography": "2023-08-14T09:57:14.197856+10:00", "external_links": [], "uuid": "21b65717-b7bb-4d62-82c5-8e43771be0db", "source": {"name": "Vernon", "slug": "vernon"}, "source_identifier": "17490", "external_references": [{"id": 41813, "source": {"name": "Wikidata", "slug": "wikidata"}, "source_identifier": "Q121078821"}], "date_modified": "2025-03-13T00:27:26.739243+11:00"}, {"id": 81545, "name": "Sonya Freidman", "roles_in_work": [{"id": 2750698, "title": "Documentary: 1935 - 1955", "work_id": 97457, "role": "co-director", "role_id": 959, "is_primary": true}, {"id": 2750701, "title": "Documentary: 1948 - 1976", "work_id": 97458, "role": "co-director", "role_id": 959, "is_primary": true}, {"id": 2750695, "title": "Documentary: 1922 - 1939", "work_id": 97456, "role": "co-director", "role_id": 959, "is_primary": true}], "also_known_as": "", "date_of_birth": "", "date_of_death": "", "genders": [], "languages": [], "places_of_operation": [], "biography": "", "biography_author": null, "date_of_biography": "2023-05-09T15:17:53.422478+10:00", "external_links": [], "uuid": "a119088c-0caa-4da2-9992-fc9fda558416", "source": {"name": "Vernon", "slug": "vernon"}, "source_identifier": "28899", "external_references": [{"id": 36155, "source": {"name": "Wikidata", "slug": "wikidata"}, "source_identifier": "Q121143965"}], "date_modified": "2025-03-13T00:27:16.899330+11:00"}, {"id": 81544, "name": "Ladislas Starevich", "roles_in_work": [{"id": 2750628, "title": "Revenge of a kinematograph cameraman", "work_id": 97422, "role": "director", "role_id": 938, "is_primary": true}], "also_known_as": "", "date_of_birth": "", "date_of_death": "", "genders": [], "languages": [], "places_of_operation": [], "biography": "", "biography_author": null, "date_of_biography": "2023-05-09T17:09:28.208568+10:00", "external_links": [], "uuid": "d0e8452f-6f96-4f34-acdc-947a1b67210a", "source": {"name": "Vernon", "slug": "vernon"}, "source_identifier": "23452", "external_references": [{"id": 51495, "source": {"name": "Wikidata", "slug": "wikidata"}, "source_identifier": "Q121357959"}], "date_modified": "2025-03-13T00:26:32.343609+11:00"}]}