{"count": 28687, "next": "https://api.acmi.net.au/creators/?page=2552", "previous": "https://api.acmi.net.au/creators/?page=2550", "results": [{"id": 13273, "name": "Boris Kolar", "roles_in_work": [{"id": 2678731, "title": "Boomerang = Bumerang", "work_id": 65540, "role": "director", "role_id": 938, "is_primary": true}, {"id": 895103, "title": "The Monster and you", "work_id": 70555, "role": "co-director", "role_id": 959, "is_primary": true}, {"id": 895862, "title": "The Specialist", "work_id": 73077, "role": "co-director", "role_id": 959, "is_primary": true}], "also_known_as": "", "date_of_birth": null, "date_of_death": null, "genders": [], "languages": [], "places_of_operation": [], "biography": "", "biography_author": null, "date_of_biography": null, "external_links": [], "uuid": "5538d874-5cda-43b7-84cc-f3f67f0db26c", "source": {"name": "Vernon", "slug": "vernon"}, "source_identifier": "4274", "external_references": [], "date_modified": "2025-03-06T23:57:05.133440+11:00"}, {"id": 13272, "name": "Zagreb Film", "roles_in_work": [{"id": 895859, "title": "The Specialist", "work_id": 73077, "role": "production company", "role_id": 941, "is_primary": true}, {"id": 863889, "title": "Way to your neighbour", "work_id": 77568, "role": "production company", "role_id": 941, "is_primary": true}, {"id": 2358031, "title": "The Kind hearted ant", "work_id": 69393, "role": "production company", "role_id": 941, "is_primary": true}, {"id": 860382, "title": "A Visit from space", "work_id": 74400, "role": "production company", "role_id": 941, "is_primary": true}, {"id": 2336049, "title": "The Carp = Saran", "work_id": 85810, "role": "production company", "role_id": 941, "is_primary": true}, {"id": 777485, "title": "The Neatos and the Litterbugs in the mystery of ...", "work_id": 82032, "role": "production company", "role_id": 941, "is_primary": true}, {"id": 862642, "title": "Balada O Podravini", "work_id": 76428, "role": "production company", "role_id": 941, "is_primary": true}, {"id": 821182, "title": "Irony; Soul; Liberator; That's life", "work_id": 94803, "role": "production company", "role_id": 941, "is_primary": true}, {"id": 895100, "title": "The Monster and you", "work_id": 70555, "role": "production company", "role_id": 941, "is_primary": true}, {"id": 2158917, "title": "Masque of the red death", "work_id": 70179, "role": "production company", "role_id": 941, "is_primary": true}, {"id": 762278, "title": "Skyscraper = Neboder = Le gratte ciel = Das hochhaus", "work_id": 76566, "role": "production company", "role_id": 941, "is_primary": true}, {"id": 747503, "title": "Man: the polluter", "work_id": 70104, "role": "production company", "role_id": 941, "is_primary": true}, {"id": 2647490, "title": "The Pill = Pilula = La Pilule = Die Tablette", "work_id": 76448, "role": "production company", "role_id": 941, "is_primary": true}, {"id": 2749374, "title": "Tawny scrawny lion", "work_id": 96770, "role": "production company", "role_id": 941, "is_primary": true}, {"id": 2749563, "title": "Clothing and fashion: a history", "work_id": 96866, "role": "production company", "role_id": 941, "is_primary": true}, {"id": 2749561, "title": "Poky little puppy", "work_id": 96865, "role": "production company", "role_id": 941, "is_primary": true}, {"id": 2647252, "title": "Flower lovers", "work_id": 75799, "role": "production company", "role_id": 941, "is_primary": true}, {"id": 2680688, "title": "Criticus", "work_id": 66509, "role": "production company", "role_id": 941, "is_primary": true}, {"id": 2680607, "title": "Cow on the frontier = Krava na granici", "work_id": 66467, "role": "production company", "role_id": 941, "is_primary": true}, {"id": 2678730, "title": "Boomerang = Bumerang", "work_id": 65540, "role": "production company", "role_id": 941, "is_primary": true}, {"id": 853908, "title": "The Journey", "work_id": 69284, "role": "production company", "role_id": 941, "is_primary": true}], "also_known_as": "", "date_of_birth": "", "date_of_death": "", "genders": [], "languages": [], "places_of_operation": [], "biography": "Zagreb Film is a Croatian film company principally known for its animation studio. From Zagreb, it was founded in 1953. They have produced hundreds of animated films, as well as documentaries, television commercials, educational films and several feature films.\n\nZagreb Film produced the cartoon series Professor Balthazar (Croatian: Profesor Baltazar), created by Zlatko Grgić, about an amusing professor who solved various imaginative problems. Another popular cartoon of theirs was Inspector Mask (Inspektor Maska). Source: Wikidata; 01/08/2023", "biography_author": null, "date_of_biography": "2025-03-13T00:01:55.331828+11:00", "external_links": [{"id": 5380, "uri": "https://en.wikipedia.org/wiki/Zagreb_Film"}], "uuid": "8f841aac-5c5b-4b6b-a035-b5acfee5bbac", "source": {"name": "Vernon", "slug": "vernon"}, "source_identifier": "4054", "external_references": [{"id": 26844, "source": {"name": "Wikidata", "slug": "wikidata"}, "source_identifier": "Q140373"}, {"id": 32095, "source": {"name": "VIAF", "slug": "viaf"}, "source_identifier": "131344460"}, {"id": 32096, "source": {"name": "LOC Auth", "slug": "loc-auth"}, "source_identifier": "n80036650"}, {"id": 32097, "source": {"name": "WorldCat", "slug": "worldcat"}, "source_identifier": "lccn-n80036650"}], "date_modified": "2025-03-13T00:01:55.332205+11:00"}, {"id": 13271, "name": "Alain Grothe", "roles_in_work": [{"id": 2678729, "title": "Boom (Canada's Expo 67)", "work_id": 65539, "role": "director", "role_id": 938, "is_primary": true}], "also_known_as": "", "date_of_birth": null, "date_of_death": null, "genders": [], "languages": [], "places_of_operation": [], "biography": "", "biography_author": null, "date_of_biography": null, "external_links": [], "uuid": "f7f3dbb4-ad7f-4329-9c1c-7c22fe3897c4", "source": {"name": "Vernon", "slug": "vernon"}, "source_identifier": "14717", "external_references": [], "date_modified": "2025-03-06T23:57:03.749395+11:00"}, {"id": 13269, "name": "Southern Educational Film Production Service", "roles_in_work": [{"id": 2644200, "title": "Books and people: the wealth within", "work_id": 65535, "role": "production company", "role_id": 941, "is_primary": true}], "also_known_as": "", "date_of_birth": "", "date_of_death": "", "genders": [], "languages": [], "places_of_operation": [], "biography": "", "biography_author": null, "date_of_biography": "2023-08-11T15:01:48.298436+10:00", "external_links": [], "uuid": "3b44d659-7d9a-4ba6-a56b-e4c1eaf679f1", "source": {"name": "Vernon", "slug": "vernon"}, "source_identifier": "12795", "external_references": [], "date_modified": "2025-03-05T12:12:15.393967+11:00"}, {"id": 13268, "name": "George C. Stoney", "roles_in_work": [{"id": 853625, "title": "The Invader", "work_id": 69074, "role": "director", "role_id": 938, "is_primary": true}, {"id": 857347, "title": "Proud years", "work_id": 71936, "role": "director", "role_id": 938, "is_primary": true}, {"id": 2678722, "title": "Booked for safekeeping", "work_id": 65534, "role": "director", "role_id": 938, "is_primary": true}, {"id": 896646, "title": "How the myth was made", "work_id": 75685, "role": "co-director", "role_id": 959, "is_primary": true}, {"id": 908071, "title": "Little Burgundy = La P'tite Bourgogne", "work_id": 88476, "role": "co-producer", "role_id": 915, "is_primary": true}, {"id": 1809043, "title": "A Young social worker speaks her mind", "work_id": 88294, "role": "producer", "role_id": 1089, "is_primary": true}, {"id": 1813561, "title": "Up against the system", "work_id": 74235, "role": "producer", "role_id": 1089, "is_primary": true}, {"id": 1813468, "title": "Nell and Fred", "work_id": 70805, "role": "producer", "role_id": 1089, "is_primary": true}, {"id": 1813474, "title": "VTR St-Jacques", "work_id": 74434, "role": "producer", "role_id": 1089, "is_primary": true}, {"id": 1809042, "title": "You are on Indian land", "work_id": 88293, "role": "producer", "role_id": 1089, "is_primary": true}, {"id": 870286, "title": "The Cry for help", "work_id": 86197, "role": "producer/director", "role_id": 31, "is_primary": true}, {"id": 896644, "title": "How the myth was made", "work_id": 75685, "role": "production company", "role_id": 941, "is_primary": true}], "also_known_as": "", "date_of_birth": "", "date_of_death": "", "genders": [], "languages": [], "places_of_operation": [], "biography": "", "biography_author": null, "date_of_biography": "2023-08-11T15:01:46.031341+10:00", "external_links": [], "uuid": "f7cbe43b-6b6a-4335-9ccc-9ceb8c0965c4", "source": {"name": "Vernon", "slug": "vernon"}, "source_identifier": "19573", "external_references": [], "date_modified": "2025-03-06T23:56:58.524984+11:00"}, {"id": 13267, "name": "Stoney Associates", "roles_in_work": [{"id": 2678721, "title": "Booked for safekeeping", "work_id": 65534, "role": "production company", "role_id": 941, "is_primary": true}], "also_known_as": "", "date_of_birth": "", "date_of_death": "", "genders": [], "languages": [], "places_of_operation": [], "biography": "", "biography_author": null, "date_of_biography": "2023-08-11T15:01:45.378566+10:00", "external_links": [], "uuid": "016243fc-d276-45e2-a8f6-6d2d624dea55", "source": {"name": "Vernon", "slug": "vernon"}, "source_identifier": "12971", "external_references": [], "date_modified": "2025-03-06T23:56:57.915509+11:00"}, {"id": 13266, "name": "Iowa State University Film Production Unit", "roles_in_work": [{"id": 2751874, "title": "We are of the soil", "work_id": 98026, "role": "production company", "role_id": 941, "is_primary": true}, {"id": 2678720, "title": "A Book by it's cover", "work_id": 65533, "role": "production company", "role_id": 941, "is_primary": true}], "also_known_as": "", "date_of_birth": "", "date_of_death": "", "genders": [], "languages": [], "places_of_operation": [], "biography": "", "biography_author": null, "date_of_biography": "2023-08-11T12:52:46.051979+10:00", "external_links": [], "uuid": "7e69788f-ad52-4d7b-ab78-1c24d0f10929", "source": {"name": "Vernon", "slug": "vernon"}, "source_identifier": "9430", "external_references": [], "date_modified": "2025-03-13T00:52:17.684036+11:00"}, {"id": 13265, "name": "Bryan Nelson", "roles_in_work": [{"id": 2678717, "title": "The Booby prize", "work_id": 65530, "role": "director", "role_id": 938, "is_primary": true}], "also_known_as": "", "date_of_birth": null, "date_of_death": null, "genders": [], "languages": [], "places_of_operation": [], "biography": "", "biography_author": null, "date_of_biography": null, "external_links": [], "uuid": "bf31eb92-50ea-4ac9-a19a-b6f2a0de17a1", "source": {"name": "Vernon", "slug": "vernon"}, "source_identifier": "16359", "external_references": [], "date_modified": "2025-03-06T23:56:54.728425+11:00"}, {"id": 13264, "name": "Christopher Myline", "roles_in_work": [{"id": 2678716, "title": "The Booby prize", "work_id": 65530, "role": "producer", "role_id": 1089, "is_primary": true}], "also_known_as": "", "date_of_birth": null, "date_of_death": null, "genders": [], "languages": [], "places_of_operation": [], "biography": "", "biography_author": null, "date_of_biography": null, "external_links": [], "uuid": "5bbcb304-feca-40c3-93f8-3968f07c2b80", "source": {"name": "Vernon", "slug": "vernon"}, "source_identifier": "16982", "external_references": [], "date_modified": "2025-03-06T23:56:54.139781+11:00"}, {"id": 13262, "name": "Gakushu Kenkyusha", "roles_in_work": [{"id": 2678713, "title": "Bones and muscles (TEFC)", "work_id": 65528, "role": "producer", "role_id": 1089, "is_primary": true}], "also_known_as": "", "date_of_birth": null, "date_of_death": null, "genders": [], "languages": [], "places_of_operation": [], "biography": "", "biography_author": null, "date_of_biography": null, "external_links": [], "uuid": "cb82a3d3-a6eb-4cc4-af09-bdf73f6e4db7", "source": {"name": "Vernon", "slug": "vernon"}, "source_identifier": "8623", "external_references": [], "date_modified": "2025-03-06T23:56:51.731188+11:00"}]}