{"count": 28687, "next": "https://api.acmi.net.au/creators/?page=2381", "previous": "https://api.acmi.net.au/creators/?page=2379", "results": [{"id": 15426, "name": "JW Newman Corp", "roles_in_work": [{"id": 2761023, "title": "Who's responsible?", "work_id": 68250, "role": "production company", "role_id": 941, "is_primary": true}], "also_known_as": "", "date_of_birth": "", "date_of_death": "", "genders": [], "languages": [], "places_of_operation": [], "biography": "", "biography_author": null, "date_of_biography": "2023-08-14T12:48:11.018724+10:00", "external_links": [], "uuid": "4f7ab802-fa2d-4d23-bd26-fe6abc7a956a", "source": {"name": "Vernon", "slug": "vernon"}, "source_identifier": "9676", "external_references": [], "date_modified": "2025-03-14T17:30:09.642882+11:00"}, {"id": 15425, "name": "Robert Sande", "roles_in_work": [{"id": 2761014, "title": "Kids, parents and pressures", "work_id": 68247, "role": "director", "role_id": 938, "is_primary": true}, {"id": 2752195, "title": "Your new job", "work_id": 98189, "role": "producer", "role_id": 1089, "is_primary": true}, {"id": 2761025, "title": "Who's responsible?", "work_id": 68250, "role": "producer/director", "role_id": 31, "is_primary": true}, {"id": 2761020, "title": "Self esteem", "work_id": 68249, "role": "producer/director", "role_id": 31, "is_primary": true}, {"id": 2761022, "title": "Who's responsible?", "work_id": 68250, "role": "production company", "role_id": 941, "is_primary": true}], "also_known_as": "", "date_of_birth": "", "date_of_death": "", "genders": [], "languages": [], "places_of_operation": [], "biography": "", "biography_author": null, "date_of_biography": "2023-08-14T12:48:11.648183+10:00", "external_links": [], "uuid": "8894bbcc-0bd2-461a-853f-dde3ae6a89f1", "source": {"name": "Vernon", "slug": "vernon"}, "source_identifier": "27874", "external_references": [], "date_modified": "2025-03-14T17:30:10.244274+11:00"}, {"id": 15424, "name": "Robert Sande Productions", "roles_in_work": [{"id": 2761018, "title": "Self esteem", "work_id": 68249, "role": "production company", "role_id": 941, "is_primary": true}, {"id": 2761012, "title": "Kids, parents and pressures", "work_id": 68247, "role": "production company", "role_id": 941, "is_primary": true}], "also_known_as": "", "date_of_birth": "", "date_of_death": "", "genders": [], "languages": [], "places_of_operation": [], "biography": "", "biography_author": null, "date_of_biography": "2023-08-14T12:48:07.906138+10:00", "external_links": [], "uuid": "6bcca20b-6998-4a3e-a23e-bd23149c09a5", "source": {"name": "Vernon", "slug": "vernon"}, "source_identifier": "12074", "external_references": [], "date_modified": "2025-03-14T17:30:07.637118+11:00"}, {"id": 15423, "name": "Dennis Trewin", "roles_in_work": [{"id": 2768789, "title": "It's an outdoor world", "work_id": 76295, "role": "director", "role_id": 938, "is_primary": true}, {"id": 2768796, "title": "The Way to tomorrow", "work_id": 74544, "role": "director", "role_id": 938, "is_primary": true}, {"id": 2715028, "title": "Guardians of health and welfare", "work_id": 68246, "role": "cinematographer", "role_id": 32, "is_primary": false}, {"id": 2715029, "title": "Guardians of health and welfare", "work_id": 68246, "role": "editor", "role_id": 918, "is_primary": true}], "also_known_as": "", "date_of_birth": "", "date_of_death": "", "genders": [], "languages": [], "places_of_operation": [], "biography": "", "biography_author": null, "date_of_biography": "2023-05-09T13:07:03.604506+10:00", "external_links": [], "uuid": "bcb2843d-d24b-49c7-9726-f07e9ef956fa", "source": {"name": "Vernon", "slug": "vernon"}, "source_identifier": "18014", "external_references": [{"id": 40496, "source": {"name": "Wikidata", "slug": "wikidata"}, "source_identifier": "Q121078793"}], "date_modified": "2025-03-14T18:11:09.325141+11:00"}, {"id": 15422, "name": "Warden and Gilbert at Columbia University", "roles_in_work": [{"id": 2715016, "title": "Growth: a study of Johnny and Jimmy. Part 2", "work_id": 68238, "role": "production company", "role_id": 941, "is_primary": true}, {"id": 2715015, "title": "Growth: a study of Johnny and Jimmy. Part 3", "work_id": 68237, "role": "production company", "role_id": 941, "is_primary": true}, {"id": 2715014, "title": "Growth: a study of Johnny and Jimmy. Part 1", "work_id": 68236, "role": "production company", "role_id": 941, "is_primary": true}], "also_known_as": "", "date_of_birth": "", "date_of_death": "", "genders": [], "languages": [], "places_of_operation": [], "biography": "", "biography_author": null, "date_of_biography": "2023-08-11T17:10:39.195480+10:00", "external_links": [], "uuid": "1b230802-7a2d-4b9b-b6b1-cbd237d5271a", "source": {"name": "Vernon", "slug": "vernon"}, "source_identifier": "14239", "external_references": [], "date_modified": "2025-03-12T01:25:41.499604+11:00"}, {"id": 15421, "name": "Text Book Films", "roles_in_work": [{"id": 825701, "title": "New Guinea: highland regions", "work_id": 95993, "role": "production company", "role_id": 941, "is_primary": true}, {"id": 2715013, "title": "Growing up in New Guinea", "work_id": 68235, "role": "production company", "role_id": 941, "is_primary": true}, {"id": 2749479, "title": "Productivity", "work_id": 96825, "role": "production company", "role_id": 941, "is_primary": true}, {"id": 2414914, "title": "Let's look at New Zealand", "work_id": 69617, "role": "production company", "role_id": 941, "is_primary": true}, {"id": 2414913, "title": "Let's look at New Guinea", "work_id": 69616, "role": "production company", "role_id": 941, "is_primary": true}, {"id": 825700, "title": "New Guinea: coastal regions", "work_id": 95992, "role": "production company", "role_id": 941, "is_primary": true}], "also_known_as": "", "date_of_birth": "", "date_of_death": "", "genders": [], "languages": [], "places_of_operation": [], "biography": "", "biography_author": null, "date_of_biography": "2023-08-11T19:26:59.897329+10:00", "external_links": [], "uuid": "1dc46782-1529-42f7-8977-ff3ec24a77d4", "source": {"name": "Vernon", "slug": "vernon"}, "source_identifier": "13313", "external_references": [], "date_modified": "2025-03-13T00:00:58.047007+11:00"}, {"id": 15418, "name": "Reichert Klein", "roles_in_work": [{"id": 2715009, "title": "Growing up female", "work_id": 68233, "role": "production company", "role_id": 941, "is_primary": true}], "also_known_as": "", "date_of_birth": "1946-06-16", "date_of_death": "2022-12-01", "genders": [{"id": 5, "name": "Female", "slug": "female"}], "languages": [], "places_of_operation": [{"id": 1, "name": "United States of America", "slug": "united-states-of-america"}], "biography": "Julia Reichert is an American Academy Award-winning documentary filmmaker and feminist.\nReichert grew up in Bordentown Township, New Jersey, and was a 1964 graduate of Bordentown Regional High School. She graduated from Antioch College in 1970 with a degree in documentary arts. She is professor emeritus in the Department of Theater, Dance, and Motion Pictures at Wright State University. Reichert was honored with the International Documentary Association’s Career Achievement Award in 2018.", "biography_author": "Wikidata", "date_of_biography": "2022-05-19T12:48:34.486253+10:00", "external_links": [{"id": 2922, "uri": "https://en.wikipedia.org/wiki/Julia_Reichert"}], "uuid": "5ce33517-f40b-4214-825b-a1b4f535d66c", "source": {"name": "Vernon", "slug": "vernon"}, "source_identifier": "27238", "external_references": [{"id": 12429, "source": {"name": "Wikidata", "slug": "wikidata"}, "source_identifier": "Q1711898"}, {"id": 12430, "source": {"name": "VIAF", "slug": "viaf"}, "source_identifier": "73157523317127031805"}], "date_modified": "2025-03-12T01:25:35.920109+11:00"}, {"id": 15417, "name": "Andrew Steane", "roles_in_work": [{"id": 3110446, "title": "They found a cave; Waxworks (Captioned)", "work_id": 79094, "role": "director", "role_id": 938, "is_primary": true}, {"id": 2715008, "title": "Growing up at St Giles", "work_id": 68232, "role": "director", "role_id": 938, "is_primary": true}, {"id": 3110438, "title": "They found a cave", "work_id": 79218, "role": "director", "role_id": 938, "is_primary": true}], "also_known_as": "", "date_of_birth": null, "date_of_death": null, "genders": [{"id": 9, "name": "Male", "slug": "male"}], "languages": [{"id": 1, "name": "English", "slug": "english"}], "places_of_operation": [], "biography": "", "biography_author": null, "date_of_biography": null, "external_links": [], "uuid": "4848aa11-0276-4b7c-af88-ba5ff3e92047", "source": {"name": "Vernon", "slug": "vernon"}, "source_identifier": "15222", "external_references": [], "date_modified": "2026-02-27T17:44:19.472510+11:00"}, {"id": 15415, "name": "New Films", "roles_in_work": [{"id": 2752384, "title": "Forests and wood", "work_id": 98270, "role": "production company", "role_id": 941, "is_primary": true}, {"id": 2715004, "title": "Community College Mt Gambier: growing", "work_id": 68231, "role": "production company", "role_id": 941, "is_primary": true}, {"id": 2647138, "title": "Leisure lines", "work_id": 75412, "role": "production company", "role_id": 941, "is_primary": true}], "also_known_as": "", "date_of_birth": "", "date_of_death": "", "genders": [], "languages": [], "places_of_operation": [], "biography": "", "biography_author": null, "date_of_biography": "2023-05-09T13:39:52.017407+10:00", "external_links": [], "uuid": "5e5590ea-c787-4ff9-834a-a84c265e8dcf", "source": {"name": "Vernon", "slug": "vernon"}, "source_identifier": "10901", "external_references": [{"id": 32693, "source": {"name": "Wikidata", "slug": "wikidata"}, "source_identifier": "Q121086097"}], "date_modified": "2025-03-13T01:03:05.700652+11:00"}, {"id": 15414, "name": "Eothen Films", "roles_in_work": [{"id": 2750091, "title": "How babies are born", "work_id": 97136, "role": "production company", "role_id": 941, "is_primary": true}, {"id": 2750177, "title": "As girls grow up", "work_id": 97178, "role": "production company", "role_id": 941, "is_primary": true}, {"id": 2645015, "title": "Growing old", "work_id": 68230, "role": "production company", "role_id": 941, "is_primary": true}, {"id": 2764274, "title": "Blood and circulation", "work_id": 70242, "role": "production company", "role_id": 941, "is_primary": true}, {"id": 894864, "title": "Learning to live", "work_id": 69566, "role": "production company", "role_id": 941, "is_primary": true}, {"id": 751187, "title": "Preparing for Sarah. Parts 1 and 2", "work_id": 71793, "role": "production company", "role_id": 941, "is_primary": true}, {"id": 2289591, "title": "Their first year", "work_id": 73655, "role": "production company", "role_id": 941, "is_primary": true}], "also_known_as": "", "date_of_birth": "", "date_of_death": "", "genders": [], "languages": [], "places_of_operation": [], "biography": "", "biography_author": null, "date_of_biography": "2023-05-09T18:16:24.479652+10:00", "external_links": [], "uuid": "b0fcb55f-3740-47cb-bece-c8ff529fd4a6", "source": {"name": "Vernon", "slug": "vernon"}, "source_identifier": "7922", "external_references": [{"id": 36402, "source": {"name": "Wikidata", "slug": "wikidata"}, "source_identifier": "Q121299520"}], "date_modified": "2025-03-13T00:16:06.010506+11:00"}]}