{"count": 28687, "next": "https://api.acmi.net.au/creators/?page=1565", "previous": "https://api.acmi.net.au/creators/?page=1563", "results": [{"id": 31957, "name": "TMS Film GmbH", "roles_in_work": [{"id": 2475913, "title": "Hitler: a film from Germany = Hitler, Ein Film Aus Deutschland", "work_id": 90143, "role": "production company", "role_id": 941, "is_primary": true}], "also_known_as": "", "date_of_birth": "", "date_of_death": "", "genders": [], "languages": [], "places_of_operation": [], "biography": "", "biography_author": null, "date_of_biography": "2023-08-17T15:14:15.430314+10:00", "external_links": [], "uuid": "2ed1575f-ce2c-43af-ac24-4d3ff3da4e8d", "source": {"name": "Vernon", "slug": "vernon"}, "source_identifier": "13555", "external_references": [], "date_modified": "2023-08-17T15:14:15.430551+10:00"}, {"id": 31956, "name": "Douglass Baglin", "roles_in_work": [{"id": 2474008, "title": "What have you done with my country", "work_id": 90140, "role": "co-producer", "role_id": 915, "is_primary": true}, {"id": 1811375, "title": "Wool testing developments", "work_id": 96308, "role": "producer", "role_id": 1089, "is_primary": true}], "also_known_as": "", "date_of_birth": "", "date_of_death": "", "genders": [], "languages": [], "places_of_operation": [], "biography": "", "biography_author": null, "date_of_biography": "2023-08-16T03:41:19.672793+10:00", "external_links": [], "uuid": "a67638d2-4904-4d50-ae93-3e435e505070", "source": {"name": "Vernon", "slug": "vernon"}, "source_identifier": "18421", "external_references": [{"id": 40604, "source": {"name": "Wikidata", "slug": "wikidata"}, "source_identifier": "Q121034403"}], "date_modified": "2023-09-05T19:21:22.905146+10:00"}, {"id": 31954, "name": "Standard Triumph", "roles_in_work": [{"id": 2465013, "title": "Presenting Standard Triumph", "work_id": 90136, "role": "production company", "role_id": 941, "is_primary": true}], "also_known_as": "", "date_of_birth": "", "date_of_death": "", "genders": [], "languages": [], "places_of_operation": [], "biography": "", "biography_author": null, "date_of_biography": "2023-08-14T10:24:53.740171+10:00", "external_links": [], "uuid": "3ba150c0-db24-4eae-83dd-413427f17c78", "source": {"name": "Vernon", "slug": "vernon"}, "source_identifier": "12911", "external_references": [], "date_modified": "2023-08-14T10:24:53.740502+10:00"}, {"id": 31953, "name": "Department of Navy", "roles_in_work": [{"id": 2465005, "title": "Prepare to dive", "work_id": 90135, "role": "production company", "role_id": 941, "is_primary": true}], "also_known_as": "", "date_of_birth": "", "date_of_death": "", "genders": [], "languages": [], "places_of_operation": [], "biography": "", "biography_author": null, "date_of_biography": "2023-08-14T10:24:36.320749+10:00", "external_links": [], "uuid": "1b89a6f7-12d8-432e-80e1-e548dac5d156", "source": {"name": "Vernon", "slug": "vernon"}, "source_identifier": "7451", "external_references": [], "date_modified": "2023-08-14T10:24:36.321076+10:00"}, {"id": 31952, "name": "Tree Films", "roles_in_work": [{"id": 2072558, "title": "A Place in the country: Renfrewshire Regional Park", "work_id": 90134, "role": "production company", "role_id": 941, "is_primary": true}], "also_known_as": "", "date_of_birth": "", "date_of_death": "", "genders": [], "languages": [], "places_of_operation": [], "biography": "", "biography_author": null, "date_of_biography": "2023-05-09T11:35:42.439916+10:00", "external_links": [], "uuid": "c7846a38-3103-4c2e-a164-19da4bee70df", "source": {"name": "Vernon", "slug": "vernon"}, "source_identifier": "13697", "external_references": [{"id": 36574, "source": {"name": "Wikidata", "slug": "wikidata"}, "source_identifier": "Q121315317"}], "date_modified": "2023-09-06T01:58:18.296906+10:00"}, {"id": 31948, "name": "George Jeske", "roles_in_work": [{"id": 809457, "title": "Collars and cuffs", "work_id": 91830, "role": "director", "role_id": 938, "is_primary": true}, {"id": 909527, "title": "Laurel and Hardy: Save the ship. Eve's love letters. White wings. A man about town", "work_id": 90129, "role": "co-director", "role_id": 959, "is_primary": true}], "also_known_as": "", "date_of_birth": "1891-02-22", "date_of_death": "1951-10-28", "genders": [{"id": 9, "name": "Male", "slug": "male"}], "languages": [{"id": 1, "name": "English", "slug": "english"}], "places_of_operation": [{"id": 1, "name": "United States of America", "slug": "united-states-of-america"}], "biography": "George Washington Jeske (February 22, 1891 – October 28, 1951) was an American screenwriter, director, and actor.", "biography_author": "Wikidata", "date_of_biography": "2023-08-01T14:58:32.938850+10:00", "external_links": [{"id": 4046, "uri": "https://en.wikipedia.org/wiki/George_Jeske"}], "uuid": "dbb5c791-9867-4b6d-bff9-aa6ce2a5ca72", "source": {"name": "Vernon", "slug": "vernon"}, "source_identifier": "19619", "external_references": [{"id": 26031, "source": {"name": "Wikidata", "slug": "wikidata"}, "source_identifier": "Q3760546"}, {"id": 28610, "source": {"name": "VIAF", "slug": "viaf"}, "source_identifier": "12627017"}, {"id": 28611, "source": {"name": "LOC Auth", "slug": "loc-auth"}, "source_identifier": "no89014166"}, {"id": 28612, "source": {"name": "WorldCat", "slug": "worldcat"}, "source_identifier": "lccn-no89014166"}], "date_modified": "2023-09-13T12:29:35.884323+10:00"}, {"id": 31946, "name": "James Parrott", "roles_in_work": [{"id": 877377, "title": "Blotto", "work_id": 90643, "role": "director", "role_id": 938, "is_primary": true}, {"id": 913128, "title": "Laurel and Hardy: Country hospital. Them thar hills. Tit for tat", "work_id": 93080, "role": "co-director", "role_id": 959, "is_primary": true}, {"id": 909530, "title": "Laurel and Hardy: The Chimp. That's my wife. Flying elephants", "work_id": 90130, "role": "co-director", "role_id": 959, "is_primary": true}, {"id": 909520, "title": "Laurel & Hardy: Wrong again. Angora love. They go boom", "work_id": 90127, "role": "co-director", "role_id": 959, "is_primary": true}, {"id": 924546, "title": "Laurel and Hardy: The Music box. Busy bodies. Towed in a hole", "work_id": 93856, "role": "co-director", "role_id": 959, "is_primary": true}, {"id": 924527, "title": "Laurel and Hardy: Be big. Laughing gravy", "work_id": 93849, "role": "co-director", "role_id": 959, "is_primary": true}], "also_known_as": "", "date_of_birth": "1897-08-02", "date_of_death": "1939-05-10", "genders": [{"id": 9, "name": "Male", "slug": "male"}], "languages": [], "places_of_operation": [{"id": 1, "name": "United States of America", "slug": "united-states-of-america"}], "biography": "James Parrott (August 2, 1897 – May 10, 1939) was an American actor and film director; and the younger brother of film comedian Charley Chase.", "biography_author": "Wikidata", "date_of_biography": "2023-08-01T15:22:33+10:00", "external_links": [{"id": 4258, "uri": "https://en.wikipedia.org/wiki/James_Parrott"}], "uuid": "86ecc07b-eea0-45d7-96b1-e6cfa5f824ed", "source": {"name": "Vernon", "slug": "vernon"}, "source_identifier": "21303", "external_references": [{"id": 26295, "source": {"name": "Wikidata", "slug": "wikidata"}, "source_identifier": "Q3161328"}, {"id": 29184, "source": {"name": "VIAF", "slug": "viaf"}, "source_identifier": "65531066"}, {"id": 29185, "source": {"name": "LOC Auth", "slug": "loc-auth"}, "source_identifier": "n87847847"}, {"id": 29186, "source": {"name": "WorldCat", "slug": "worldcat"}, "source_identifier": "lccn-n87847847"}], "date_modified": "2023-09-13T13:30:03.527465+10:00"}, {"id": 31943, "name": "Tudor Films", "roles_in_work": [{"id": 2222794, "title": "Everything in life", "work_id": 90125, "role": "production company", "role_id": 941, "is_primary": true}], "also_known_as": "", "date_of_birth": "", "date_of_death": "", "genders": [], "languages": [], "places_of_operation": [], "biography": "", "biography_author": null, "date_of_biography": "2023-05-09T16:21:24.989937+10:00", "external_links": [], "uuid": "f0019da6-e305-4c99-9294-245ec650d673", "source": {"name": "Vernon", "slug": "vernon"}, "source_identifier": "13745", "external_references": [{"id": 38297, "source": {"name": "Wikidata", "slug": "wikidata"}, "source_identifier": "Q121079364"}], "date_modified": "2023-09-06T01:59:32.292483+10:00"}, {"id": 31938, "name": "S. Pippos", "roles_in_work": [{"id": 2408242, "title": "Gala presentation and crowning of Miss Australia 1970", "work_id": 90108, "role": "director", "role_id": 938, "is_primary": true}], "also_known_as": "", "date_of_birth": "", "date_of_death": "", "genders": [], "languages": [], "places_of_operation": [], "biography": "", "biography_author": null, "date_of_biography": "2023-08-11T16:56:25.272641+10:00", "external_links": [], "uuid": "8de77470-1672-4bca-8046-7bfb1ed904f7", "source": {"name": "Vernon", "slug": "vernon"}, "source_identifier": "28412", "external_references": [], "date_modified": "2023-08-11T16:56:25.272875+10:00"}, {"id": 31937, "name": "Lynton Taylor", "roles_in_work": [{"id": 2408241, "title": "Gala presentation and crowning of Miss Australia 1970", "work_id": 90108, "role": "producer", "role_id": 1089, "is_primary": true}], "also_known_as": "", "date_of_birth": "", "date_of_death": "", "genders": [], "languages": [], "places_of_operation": [], "biography": "", "biography_author": null, "date_of_biography": "2023-08-11T16:56:24.645146+10:00", "external_links": [], "uuid": "d0b43ca6-c788-4cbe-80ce-a03a00f733a8", "source": {"name": "Vernon", "slug": "vernon"}, "source_identifier": "24148", "external_references": [], "date_modified": "2023-08-11T16:56:24.645376+10:00"}]}