{"count": 28687, "next": "https://api.acmi.net.au/creators/?page=1961", "previous": "https://api.acmi.net.au/creators/?page=1959", "results": [{"id": 23357, "name": "Istituto Luce Italnoleggio Cinematografico", "roles_in_work": [{"id": 2649206, "title": "Noi Tre", "work_id": 81110, "role": "production company", "role_id": 941, "is_primary": true}], "also_known_as": "", "date_of_birth": null, "date_of_death": null, "genders": [], "languages": [], "places_of_operation": [], "biography": "", "biography_author": null, "date_of_biography": null, "external_links": [], "uuid": "368650ed-1aec-4c01-ba75-b01e65cae76a", "source": {"name": "Vernon", "slug": "vernon"}, "source_identifier": "9464", "external_references": [], "date_modified": "2025-03-05T13:57:23.709564+11:00"}, {"id": 23355, "name": "Michael Beckham", "roles_in_work": [{"id": 2770489, "title": "The Last refuge", "work_id": 97464, "role": "producer", "role_id": 1089, "is_primary": true}, {"id": 787626, "title": "Nicholas and Alexandra", "work_id": 84938, "role": "producer/director", "role_id": 31, "is_primary": true}, {"id": 2767693, "title": "The Kayapo: out of the forest", "work_id": 81103, "role": "producer/director", "role_id": 31, "is_primary": true}], "also_known_as": "", "date_of_birth": "", "date_of_death": "", "genders": [], "languages": [], "places_of_operation": [], "biography": "", "biography_author": null, "date_of_biography": "2023-08-14T12:09:28.238378+10:00", "external_links": [], "uuid": "25f23a03-b3e5-45f5-816d-c8fcd297dbcf", "source": {"name": "Vernon", "slug": "vernon"}, "source_identifier": "24972", "external_references": [{"id": 38821, "source": {"name": "Wikidata", "slug": "wikidata"}, "source_identifier": "Q121337066"}], "date_modified": "2025-03-14T18:19:28.501945+11:00"}, {"id": 23354, "name": "Charles Nairn", "roles_in_work": [{"id": 2767691, "title": "The Kawelka Ongka's Big Moka", "work_id": 81102, "role": "director", "role_id": 938, "is_primary": true}], "also_known_as": "", "date_of_birth": "", "date_of_death": "", "genders": [], "languages": [], "places_of_operation": [], "biography": "", "biography_author": null, "date_of_biography": "2023-05-09T18:44:19.521104+10:00", "external_links": [], "uuid": "77cd37a3-833c-46a1-9bcf-c095cf794fb5", "source": {"name": "Vernon", "slug": "vernon"}, "source_identifier": "16707", "external_references": [{"id": 37385, "source": {"name": "Wikidata", "slug": "wikidata"}, "source_identifier": "Q121035096"}], "date_modified": "2025-03-14T18:05:54.777403+11:00"}, {"id": 23353, "name": "Goldcrest TV", "roles_in_work": [{"id": 2773191, "title": "The World: A Television History. Ep. 25. World in Conflict", "work_id": 81099, "role": "production company", "role_id": 941, "is_primary": true}, {"id": 2772964, "title": "The World: A Television History. Ep. 01. Human Origins", "work_id": 81116, "role": "production company", "role_id": 941, "is_primary": true}, {"id": 2772970, "title": "The World: A Television History. Ep. 02. The Agricultural Revolution", "work_id": 81117, "role": "production company", "role_id": 941, "is_primary": true}, {"id": 2773010, "title": "The World: A Television History. Ep. 05. Greece and Rome", "work_id": 81120, "role": "production company", "role_id": 941, "is_primary": true}, {"id": 2773022, "title": "The World: A Television History. Ep. 05. The World Religions", "work_id": 81121, "role": "production company", "role_id": 941, "is_primary": true}, {"id": 2773030, "title": "The World: A Television History. Ep. 07. The End of the Ancient World", "work_id": 81122, "role": "production company", "role_id": 941, "is_primary": true}, {"id": 2773071, "title": "The World: A Television History. Ep. 08. Islam", "work_id": 81123, "role": "production company", "role_id": 941, "is_primary": true}, {"id": 2773087, "title": "The World: A Television History. Ep. 09. Europe Recovers", "work_id": 81124, "role": "production company", "role_id": 941, "is_primary": true}, {"id": 2773093, "title": "The World: A Television History. Ep. 10. The Mongol Onslaught", "work_id": 81125, "role": "production company", "role_id": 941, "is_primary": true}, {"id": 2773100, "title": "The World: A Television History. Ep. 11. The Expansion of Europe", "work_id": 81126, "role": "production company", "role_id": 941, "is_primary": true}, {"id": 2773117, "title": "The World: A Television History. Ep. 14. The Ottoman Empire", "work_id": 81095, "role": "production company", "role_id": 941, "is_primary": true}, {"id": 2773123, "title": "The World: A Television History. Ep. 15. Africa before the Europeans", "work_id": 81127, "role": "production company", "role_id": 941, "is_primary": true}, {"id": 2773134, "title": "The World: A Television History. Ep. 16. The Americas before the Europeans", "work_id": 81128, "role": "production company", "role_id": 941, "is_primary": true}, {"id": 2773139, "title": "The World: A Television History. Ep. 17. Europe: State and Power", "work_id": 81096, "role": "production company", "role_id": 941, "is_primary": true}, {"id": 2773146, "title": "The World: A Television History. Ep. 18. The West and Wider World", "work_id": 81097, "role": "production company", "role_id": 941, "is_primary": true}, {"id": 2773157, "title": "The World: A Television History. Ep. 20. The Age of Revolutions", "work_id": 81101, "role": "production company", "role_id": 941, "is_primary": true}, {"id": 2773163, "title": "The World: A Television History. Ep. 21. The Making of Russia", "work_id": 81129, "role": "production company", "role_id": 941, "is_primary": true}, {"id": 2773170, "title": "The World: A Television History. Ep. 22. The Making of the United States of America", "work_id": 81130, "role": "production company", "role_id": 941, "is_primary": true}, {"id": 2773178, "title": "The World: A Television History. Ep. 23. Industry and Empire", "work_id": 81100, "role": "production company", "role_id": 941, "is_primary": true}, {"id": 2773185, "title": "The World: A Television History. Ep. 24. The End of the Old Order", "work_id": 81131, "role": "production company", "role_id": 941, "is_primary": true}, {"id": 2773198, "title": "The World: A Television History. Ep. 26. The Modern World", "work_id": 81132, "role": "production company", "role_id": 941, "is_primary": true}], "also_known_as": "", "date_of_birth": null, "date_of_death": null, "genders": [], "languages": [], "places_of_operation": [], "biography": "", "biography_author": null, "date_of_biography": null, "external_links": [], "uuid": "a8549237-ebdd-405c-be6b-5d877673329c", "source": {"name": "Vernon", "slug": "vernon"}, "source_identifier": "8778", "external_references": [], "date_modified": "2025-03-14T18:26:46.703377+11:00"}, {"id": 23352, "name": "David Wright", "roles_in_work": [{"id": 2773127, "title": "The World: A Television History. Ep. 15. Africa before the Europeans", "work_id": 81127, "role": "director", "role_id": 938, "is_primary": true}, {"id": 2773096, "title": "The World: A Television History. Ep. 10. The Mongol Onslaught", "work_id": 81125, "role": "director", "role_id": 938, "is_primary": true}, {"id": 2773166, "title": "The World: A Television History. Ep. 21. The Making of Russia", "work_id": 81129, "role": "director", "role_id": 938, "is_primary": true}, {"id": 2773120, "title": "The World: A Television History. Ep. 14. The Ottoman Empire", "work_id": 81095, "role": "director", "role_id": 938, "is_primary": true}, {"id": 2773114, "title": "The World: A Television History. Ep. 13. China and Japan", "work_id": 81094, "role": "director", "role_id": 938, "is_primary": true}, {"id": 2773137, "title": "The World: A Television History. Ep. 16. The Americas before the Europeans", "work_id": 81128, "role": "director", "role_id": 938, "is_primary": true}, {"id": 2773109, "title": "The World: A Television History. Ep. 12. China in Transition", "work_id": 81093, "role": "director", "role_id": 938, "is_primary": true}, {"id": 2773181, "title": "The World: A Television History. Ep. 23. Industry and Empire", "work_id": 81100, "role": "director", "role_id": 938, "is_primary": true}, {"id": 2773090, "title": "The World: A Television History. Ep. 09. Europe Recovers", "work_id": 81124, "role": "director", "role_id": 938, "is_primary": true}, {"id": 2773103, "title": "The World: A Television History. Ep. 11. The Expansion of Europe", "work_id": 81126, "role": "director", "role_id": 938, "is_primary": true}, {"id": 2773079, "title": "The World: A Television History. Ep. 08. Islam", "work_id": 81123, "role": "producer/director", "role_id": 31, "is_primary": true}], "also_known_as": "", "date_of_birth": null, "date_of_death": null, "genders": [], "languages": [], "places_of_operation": [], "biography": "", "biography_author": null, "date_of_biography": null, "external_links": [], "uuid": "b07fcefe-94a8-47eb-8d95-8c6b43f9d672", "source": {"name": "Vernon", "slug": "vernon"}, "source_identifier": "17861", "external_references": [], "date_modified": "2025-03-14T18:26:48.575373+11:00"}, {"id": 23351, "name": "Bricomin Films", "roles_in_work": [{"id": 2773213, "title": "The World: A Television History", "work_id": 115173, "role": "production company", "role_id": 941, "is_primary": true}, {"id": 2772965, "title": "The World: A Television History. Ep. 01. Human Origins", "work_id": 81116, "role": "production company", "role_id": 941, "is_primary": true}, {"id": 2773073, "title": "The World: A Television History. Ep. 08. Islam", "work_id": 81123, "role": "production company", "role_id": 941, "is_primary": true}, {"id": 2773199, "title": "The World: A Television History. Ep. 26. The Modern World", "work_id": 81132, "role": "production company", "role_id": 941, "is_primary": true}, {"id": 2773147, "title": "The World: A Television History. Ep. 18. The West and Wider World", "work_id": 81097, "role": "production company", "role_id": 941, "is_primary": true}, {"id": 2773088, "title": "The World: A Television History. Ep. 09. Europe Recovers", "work_id": 81124, "role": "production company", "role_id": 941, "is_primary": true}, {"id": 2773171, "title": "The World: A Television History. Ep. 22. The Making of the United States of America", "work_id": 81130, "role": "production company", "role_id": 941, "is_primary": true}, {"id": 2773193, "title": "The World: A Television History. Ep. 25. World in Conflict", "work_id": 81099, "role": "production company", "role_id": 941, "is_primary": true}, {"id": 2773011, "title": "The World: A Television History. Ep. 05. Greece and Rome", "work_id": 81120, "role": "production company", "role_id": 941, "is_primary": true}, {"id": 2773158, "title": "The World: A Television History. Ep. 20. The Age of Revolutions", "work_id": 81101, "role": "production company", "role_id": 941, "is_primary": true}, {"id": 2773140, "title": "The World: A Television History. Ep. 17. Europe: State and Power", "work_id": 81096, "role": "production company", "role_id": 941, "is_primary": true}, {"id": 2772971, "title": "The World: A Television History. Ep. 02. The Agricultural Revolution", "work_id": 81117, "role": "production company", "role_id": 941, "is_primary": true}, {"id": 2773101, "title": "The World: A Television History. Ep. 11. The Expansion of Europe", "work_id": 81126, "role": "production company", "role_id": 941, "is_primary": true}, {"id": 2772986, "title": "The World: A Television History. Ep. 03. The Birth of Civilisation", "work_id": 81118, "role": "production company", "role_id": 941, "is_primary": true}, {"id": 2773187, "title": "The World: A Television History. Ep. 24. The End of the Old Order", "work_id": 81131, "role": "production company", "role_id": 941, "is_primary": true}, {"id": 2773107, "title": "The World: A Television History. Ep. 12. China in Transition", "work_id": 81093, "role": "production company", "role_id": 941, "is_primary": true}, {"id": 2772999, "title": "The World: A Television History. Ep. 04. The Age of Iron", "work_id": 81119, "role": "production company", "role_id": 941, "is_primary": true}, {"id": 2773164, "title": "The World: A Television History. Ep. 21. The Making of Russia", "work_id": 81129, "role": "production company", "role_id": 941, "is_primary": true}, {"id": 2773112, "title": "The World: A Television History. Ep. 13. China and Japan", "work_id": 81094, "role": "production company", "role_id": 941, "is_primary": true}, {"id": 2773135, "title": "The World: A Television History. Ep. 16. The Americas before the Europeans", "work_id": 81128, "role": "production company", "role_id": 941, "is_primary": true}, {"id": 2773179, "title": "The World: A Television History. Ep. 23. Industry and Empire", "work_id": 81100, "role": "production company", "role_id": 941, "is_primary": true}, {"id": 2773124, "title": "The World: A Television History. Ep. 15. Africa before the Europeans", "work_id": 81127, "role": "production company", "role_id": 941, "is_primary": true}, {"id": 2773118, "title": "The World: A Television History. Ep. 14. The Ottoman Empire", "work_id": 81095, "role": "production company", "role_id": 941, "is_primary": true}, {"id": 2773094, "title": "The World: A Television History. Ep. 10. The Mongol Onslaught", "work_id": 81125, "role": "production company", "role_id": 941, "is_primary": true}, {"id": 2773023, "title": "The World: A Television History. Ep. 05. The World Religions", "work_id": 81121, "role": "production company", "role_id": 941, "is_primary": true}, {"id": 2773154, "title": "The World: A Television History. Ep. 19. Asia", "work_id": 81098, "role": "production company", "role_id": 941, "is_primary": true}, {"id": 2773031, "title": "The World: A Television History. Ep. 07. The End of the Ancient World", "work_id": 81122, "role": "production company", "role_id": 941, "is_primary": true}], "also_known_as": "", "date_of_birth": null, "date_of_death": null, "genders": [], "languages": [], "places_of_operation": [], "biography": "", "biography_author": null, "date_of_biography": null, "external_links": [], "uuid": "0759d7ed-7461-49f5-9d08-d45d8015d811", "source": {"name": "Vernon", "slug": "vernon"}, "source_identifier": "5989", "external_references": [], "date_modified": "2025-03-14T18:26:57.383955+11:00"}, {"id": 23350, "name": "Network Television", "roles_in_work": [{"id": 2773131, "title": "The World: A Television History. Ep. 16. The Americas before the Europeans", "work_id": 81128, "role": "production company", "role_id": 941, "is_primary": true}, {"id": 2773169, "title": "The World: A Television History. Ep. 22. The Making of the United States of America", "work_id": 81130, "role": "production company", "role_id": 941, "is_primary": true}, {"id": 2307092, "title": "A Global market", "work_id": 84822, "role": "production company", "role_id": 941, "is_primary": true}, {"id": 2773122, "title": "The World: A Television History. Ep. 15. Africa before the Europeans", "work_id": 81127, "role": "production company", "role_id": 941, "is_primary": true}, {"id": 2773177, "title": "The World: A Television History. Ep. 23. Industry and Empire", "work_id": 81100, "role": "production company", "role_id": 941, "is_primary": true}, {"id": 2307141, "title": "The Swirling seas", "work_id": 84827, "role": "production company", "role_id": 941, "is_primary": true}, {"id": 2773116, "title": "The World: A Television History. Ep. 14. The Ottoman Empire", "work_id": 81095, "role": "production company", "role_id": 941, "is_primary": true}, {"id": 2773110, "title": "The World: A Television History. Ep. 13. China and Japan", "work_id": 81094, "role": "production company", "role_id": 941, "is_primary": true}, {"id": 2773184, "title": "The World: A Television History. Ep. 24. The End of the Old Order", "work_id": 81131, "role": "production company", "role_id": 941, "is_primary": true}, {"id": 2773105, "title": "The World: A Television History. Ep. 12. China in Transition", "work_id": 81093, "role": "production company", "role_id": 941, "is_primary": true}, {"id": 2773190, "title": "The World: A Television History. Ep. 25. World in Conflict", "work_id": 81099, "role": "production company", "role_id": 941, "is_primary": true}, {"id": 2773099, "title": "The World: A Television History. Ep. 11. The Expansion of Europe", "work_id": 81126, "role": "production company", "role_id": 941, "is_primary": true}, {"id": 2773092, "title": "The World: A Television History. Ep. 10. The Mongol Onslaught", "work_id": 81125, "role": "production company", "role_id": 941, "is_primary": true}, {"id": 2773197, "title": "The World: A Television History. Ep. 26. The Modern World", "work_id": 81132, "role": "production company", "role_id": 941, "is_primary": true}, {"id": 2306957, "title": "Spaceship Earth", "work_id": 115419, "role": "production company", "role_id": 941, "is_primary": true}, {"id": 2773145, "title": "The World: A Television History. Ep. 18. The West and Wider World", "work_id": 81097, "role": "production company", "role_id": 941, "is_primary": true}, {"id": 2773162, "title": "The World: A Television History. Ep. 21. The Making of Russia", "work_id": 81129, "role": "production company", "role_id": 941, "is_primary": true}, {"id": 2773138, "title": "The World: A Television History. Ep. 17. Europe: State and Power", "work_id": 81096, "role": "production company", "role_id": 941, "is_primary": true}, {"id": 2773086, "title": "The World: A Television History. Ep. 09. Europe Recovers", "work_id": 81124, "role": "production company", "role_id": 941, "is_primary": true}, {"id": 2773205, "title": "The World: A Television History", "work_id": 115173, "role": "production company", "role_id": 941, "is_primary": true}, {"id": 2773068, "title": "The World: A Television History. Ep. 08. Islam", "work_id": 81123, "role": "production company", "role_id": 941, "is_primary": true}, {"id": 2773029, "title": "The World: A Television History. Ep. 07. The End of the Ancient World", "work_id": 81122, "role": "production company", "role_id": 941, "is_primary": true}, {"id": 2773021, "title": "The World: A Television History. Ep. 05. The World Religions", "work_id": 81121, "role": "production company", "role_id": 941, "is_primary": true}, {"id": 2773009, "title": "The World: A Television History. Ep. 05. Greece and Rome", "work_id": 81120, "role": "production company", "role_id": 941, "is_primary": true}, {"id": 2772996, "title": "The World: A Television History. Ep. 04. The Age of Iron", "work_id": 81119, "role": "production company", "role_id": 941, "is_primary": true}, {"id": 2772984, "title": "The World: A Television History. Ep. 03. The Birth of Civilisation", "work_id": 81118, "role": "production company", "role_id": 941, "is_primary": true}, {"id": 2772969, "title": "The World: A Television History. Ep. 02. The Agricultural Revolution", "work_id": 81117, "role": "production company", "role_id": 941, "is_primary": true}, {"id": 2772963, "title": "The World: A Television History. Ep. 01. Human Origins", "work_id": 81116, "role": "production company", "role_id": 941, "is_primary": true}, {"id": 2615089, "title": "Running water", "work_id": 84831, "role": "production company", "role_id": 941, "is_primary": true}, {"id": 2615084, "title": "The New global geography", "work_id": 84818, "role": "production company", "role_id": 941, "is_primary": true}, {"id": 2307194, "title": "The Watchkeepers", "work_id": 84837, "role": "production company", "role_id": 941, "is_primary": true}, {"id": 2307000, "title": "Living quarters", "work_id": 84819, "role": "production company", "role_id": 941, "is_primary": true}, {"id": 2307022, "title": "Restless rocks", "work_id": 84820, "role": "production company", "role_id": 941, "is_primary": true}, {"id": 2306982, "title": "Feast or famine", "work_id": 84835, "role": "production company", "role_id": 941, "is_primary": true}, {"id": 2307067, "title": "Disappearing forests", "work_id": 84833, "role": "production company", "role_id": 941, "is_primary": true}, {"id": 2773150, "title": "The World: A Television History. Ep. 19. Asia", "work_id": 81098, "role": "production company", "role_id": 941, "is_primary": true}, {"id": 2773156, "title": "The World: A Television History. Ep. 20. The Age of Revolutions", "work_id": 81101, "role": "production company", "role_id": 941, "is_primary": true}, {"id": 2307040, "title": "The Air-conditioning", "work_id": 84825, "role": "production company", "role_id": 941, "is_primary": true}], "also_known_as": "", "date_of_birth": "", "date_of_death": "", "genders": [], "languages": [], "places_of_operation": [], "biography": "", "biography_author": null, "date_of_biography": "2023-05-09T18:46:55.076343+10:00", "external_links": [], "uuid": "96494197-71d9-4bbc-806b-14ec27a55257", "source": {"name": "Vernon", "slug": "vernon"}, "source_identifier": "10882", "external_references": [{"id": 37972, "source": {"name": "Wikidata", "slug": "wikidata"}, "source_identifier": "Q121223504"}], "date_modified": "2025-03-14T18:26:55.383313+11:00"}, {"id": 23349, "name": "Milos Forman", "roles_in_work": [{"id": 2168109, "title": "One flew over the cuckoo's nest [DVD]", "work_id": 92457, "role": "director", "role_id": 938, "is_primary": true}, {"id": 1985207, "title": "Amadeus", "work_id": 81092, "role": "director", "role_id": 938, "is_primary": true}, {"id": 1995933, "title": "The Firemen's ball = Hori, ma paneko", "work_id": 92392, "role": "director", "role_id": 938, "is_primary": true}, {"id": 2614957, "title": "Hair", "work_id": 84579, "role": "director", "role_id": 938, "is_primary": true}, {"id": 2065337, "title": "A Blonde in love = Loves of a blonde", "work_id": 86353, "role": "director", "role_id": 938, "is_primary": true}, {"id": 1990909, "title": "The People vs. Larry Flynt", "work_id": 86523, "role": "director", "role_id": 938, "is_primary": true}, {"id": 1998062, "title": "Man on the moon [DVD]", "work_id": 93598, "role": "director", "role_id": 938, "is_primary": true}], "also_known_as": "", "date_of_birth": "1932", "date_of_death": "", "genders": [], "languages": [], "places_of_operation": [], "biography": "", "biography_author": null, "date_of_biography": "2023-05-09T14:30:04.272872+10:00", "external_links": [], "uuid": "c4143064-91b3-4d8e-99d7-fd35199ea0fc", "source": {"name": "Vernon", "slug": "vernon"}, "source_identifier": "25431", "external_references": [], "date_modified": "2025-02-26T20:17:08.185656+11:00"}, {"id": 23348, "name": "Saul Zaentz Company", "roles_in_work": [{"id": 2614965, "title": "At play in the fields of the Lord", "work_id": 84587, "role": "production company", "role_id": 941, "is_primary": true}, {"id": 1985205, "title": "Amadeus", "work_id": 81092, "role": "production company", "role_id": 941, "is_primary": true}], "also_known_as": "", "date_of_birth": "1921-02-28", "date_of_death": "2014-01-03", "genders": [{"id": 9, "name": "Male", "slug": "male"}], "languages": [], "places_of_operation": [{"id": 1, "name": "United States of America", "slug": "united-states-of-america"}], "biography": "Saul Zaentz (; February 28, 1921 – January 3, 2014) was an American film producer and record company executive. He won the Academy Award for Best Picture three times and, in 1996, was awarded the Irving G. Thalberg Memorial Award.\nZaentz's film production career, primarily financed by the profits from Creedence Clearwater Revival, was marked by a dedication to the adaptation of the novel. A prolific reader, Zaentz typically did not produce original screenplays.  His final production, Goya's Ghosts, was an exception, being an original story by Jean-Claude Carrière and Miloš Forman.\n\n", "biography_author": "Wikidata", "date_of_biography": "2022-05-19T13:02:39.505125+10:00", "external_links": [{"id": 3075, "uri": "https://en.wikipedia.org/wiki/Saul_Zaentz"}], "uuid": "e34bbf34-62d4-4fa8-8134-eef6a34d978a", "source": {"name": "Vernon", "slug": "vernon"}, "source_identifier": "12305", "external_references": [{"id": 13048, "source": {"name": "Wikidata", "slug": "wikidata"}, "source_identifier": "Q736466"}, {"id": 13049, "source": {"name": "VIAF", "slug": "viaf"}, "source_identifier": "85731470"}, {"id": 13050, "source": {"name": "LOC Auth", "slug": "loc-auth"}, "source_identifier": "nr93000368"}, {"id": 13051, "source": {"name": "WorldCat", "slug": "worldcat"}, "source_identifier": "lccn-nr93000368"}], "date_modified": "2025-02-26T20:17:19.149554+11:00"}, {"id": 23344, "name": "Vision Quest Films", "roles_in_work": [{"id": 2235904, "title": "Rajneesh: Spiritual Terrorist", "work_id": 81090, "role": "production company", "role_id": 941, "is_primary": true}], "also_known_as": "", "date_of_birth": "", "date_of_death": "", "genders": [], "languages": [], "places_of_operation": [], "biography": "", "biography_author": null, "date_of_biography": "2023-05-09T16:45:52.743421+10:00", "external_links": [], "uuid": "2c97ce60-58f5-47e2-9082-3efc713f7b1b", "source": {"name": "Vernon", "slug": "vernon"}, "source_identifier": "14167", "external_references": [{"id": 33444, "source": {"name": "Wikidata", "slug": "wikidata"}, "source_identifier": "Q121314939"}], "date_modified": "2023-09-06T02:07:30.692451+10:00"}]}