{"count": 28687, "next": "https://api.acmi.net.au/creators/?page=2794", "previous": "https://api.acmi.net.au/creators/?page=2792", "results": [{"id": 9137, "name": "Walid Ra'ad", "roles_in_work": [{"id": 2619567, "title": "The Dead Weight of a Quarrel Hangs", "work_id": 109061, "role": "director", "role_id": 938, "is_primary": true}, {"id": 2619566, "title": "The Dead Weight of a Quarrel Hangs", "work_id": 109061, "role": "creator", "role_id": 968, "is_primary": true}], "also_known_as": "", "date_of_birth": "1967", "date_of_death": "", "genders": [{"id": 9, "name": "Male", "slug": "male"}], "languages": [], "places_of_operation": [], "biography": "Walid Raad is a media astist and an Assistant Professor of Art at Cooper Union in New York, whose works include textual analysis, video, perofrmance and photography projects. He is also a memeber of the Arab Image Foundation (Beirut/New York) and founding member of the Atlas Group.", "biography_author": null, "date_of_biography": "2025-02-26T23:15:59.651844+11:00", "external_links": [], "uuid": "f31cced2-a133-4316-9320-11a79b3c3fd5", "source": {"name": "Vernon", "slug": "vernon"}, "source_identifier": "111932", "external_references": [], "date_modified": "2025-02-26T23:15:59.652165+11:00"}, {"id": 9136, "name": "Frank Mosvold", "roles_in_work": [{"id": 3106922, "title": "Bolgene", "work_id": 109060, "role": "director", "role_id": 938, "is_primary": true}], "also_known_as": "", "date_of_birth": "1965-05-07", "date_of_death": null, "genders": [{"id": 9, "name": "Male", "slug": "male"}], "languages": [{"id": 35, "name": "Swedish", "slug": "swedish"}], "places_of_operation": [{"id": 35, "name": "Norway", "slug": "norway"}], "biography": "Frank Mosvold (born 7 May 1965) is a Norwegian film and television producer. He has a B.S. in economics from Babson College (Wellesley, Ma) and Master in fine art in film production from Loyola Marymount University (Los Angeles, CA). In 1996 Frank Mosvold started his own production company, Kool Produktion AS.  He has produced several award-winning shorts, including the Terje Vigen award at the Norwegian Short Film Festival for the film An Accidental Story. In 2004 he begin work on the animated television series together with Tom Petter Hansen and Trond Morten Venaasen. Together they have produced the animated television series Hubert and Sunshine Kathy (also known as Ella Bella Bingo) and its 2020 film adaptation.", "biography_author": "Wikidata", "date_of_biography": "2023-08-01T14:51:51.566710+10:00", "external_links": [{"id": 3991, "uri": "https://en.wikipedia.org/wiki/Frank_Mosvold"}], "uuid": "4232a953-cfc8-4f8b-82df-1a8c3ea2adb3", "source": {"name": "Vernon", "slug": "vernon"}, "source_identifier": "112013", "external_references": [{"id": 26852, "source": {"name": "Wikidata", "slug": "wikidata"}, "source_identifier": "Q5488557"}, {"id": 28455, "source": {"name": "VIAF", "slug": "viaf"}, "source_identifier": "64213813"}, {"id": 28456, "source": {"name": "LOC Auth", "slug": "loc-auth"}, "source_identifier": "no2019001570"}, {"id": 28457, "source": {"name": "WorldCat", "slug": "worldcat"}, "source_identifier": "lccn-no2019001570"}], "date_modified": "2025-08-20T15:07:53.696522+10:00"}, {"id": 9134, "name": "Image Link", "roles_in_work": [{"id": 2466264, "title": "Streetlife", "work_id": 85139, "role": "distributor", "role_id": 437, "is_primary": false}, {"id": 2754910, "title": "Reading between the lines: inside the stories", "work_id": 99420, "role": "production company", "role_id": 941, "is_primary": true}, {"id": 2754912, "title": "Reading between the lines: live at six o'clock", "work_id": 99421, "role": "production company", "role_id": 941, "is_primary": true}, {"id": 2619565, "title": "Small towns, big picture: a journey in building community", "work_id": 114130, "role": "production company", "role_id": 941, "is_primary": true}, {"id": 2754822, "title": "Researching the topic", "work_id": 99385, "role": "production company", "role_id": 941, "is_primary": true}, {"id": 2754908, "title": "Reading between the lines: the inside story of a daily newspaper", "work_id": 99419, "role": "production company", "role_id": 941, "is_primary": true}, {"id": 2466266, "title": "Streetlife", "work_id": 85139, "role": "production company", "role_id": 941, "is_primary": true}, {"id": 780290, "title": "Putting waste to work: energy from methane", "work_id": 82837, "role": "production company", "role_id": 941, "is_primary": true}, {"id": 1540680, "title": "Finding out", "work_id": 115361, "role": "production company", "role_id": 941, "is_primary": true}, {"id": 877264, "title": "Tough at the top: business management styles", "work_id": 90549, "role": "production company", "role_id": 941, "is_primary": true}], "also_known_as": "", "date_of_birth": "", "date_of_death": "", "genders": [], "languages": [], "places_of_operation": [], "biography": "", "biography_author": null, "date_of_biography": "2023-08-14T10:53:24.104954+10:00", "external_links": [], "uuid": "350bc1ff-014f-4215-9293-424b5dac4516", "source": {"name": "Vernon", "slug": "vernon"}, "source_identifier": "112295", "external_references": [], "date_modified": "2025-03-13T01:53:10.252504+11:00"}, {"id": 9133, "name": "Judy Spokes", "roles_in_work": [{"id": 2619564, "title": "Small towns, big picture: a journey in building community", "work_id": 114130, "role": "producer", "role_id": 1089, "is_primary": true}], "also_known_as": "", "date_of_birth": null, "date_of_death": null, "genders": [], "languages": [], "places_of_operation": [], "biography": "", "biography_author": null, "date_of_biography": null, "external_links": [], "uuid": "af51235a-5ecb-4b6d-a072-1e258b3d6370", "source": {"name": "Vernon", "slug": "vernon"}, "source_identifier": "1827", "external_references": [], "date_modified": "2025-02-26T23:15:57.489682+11:00"}, {"id": 9132, "name": "Maureen Rogers", "roles_in_work": [{"id": 2619560, "title": "Small towns, big picture: a journey in building community", "work_id": 114130, "role": "producer", "role_id": 1089, "is_primary": true}], "also_known_as": "", "date_of_birth": null, "date_of_death": null, "genders": [], "languages": [], "places_of_operation": [], "biography": "", "biography_author": null, "date_of_biography": null, "external_links": [], "uuid": "9ce07fec-6c0c-46f4-af97-986b446cb3d4", "source": {"name": "Vernon", "slug": "vernon"}, "source_identifier": "112294", "external_references": [], "date_modified": "2025-02-26T23:15:54.893490+11:00"}, {"id": 9131, "name": "Cheng Yu", "roles_in_work": [{"id": 2711245, "title": "The Prisoner", "work_id": 109050, "role": "creator", "role_id": 968, "is_primary": true}], "also_known_as": "", "date_of_birth": "", "date_of_death": "", "genders": [], "languages": [], "places_of_operation": [], "biography": "", "biography_author": null, "date_of_biography": "2023-08-11T13:04:47.681551+10:00", "external_links": [], "uuid": "de29eae7-5638-4b35-8d4f-a13e7a0e8a3a", "source": {"name": "Vernon", "slug": "vernon"}, "source_identifier": "2444", "external_references": [], "date_modified": "2025-03-11T23:48:38.361568+11:00"}, {"id": 9130, "name": "Sharon Hsieh", "roles_in_work": [{"id": 2711243, "title": "A Little something", "work_id": 109049, "role": "creator", "role_id": 968, "is_primary": true}], "also_known_as": "", "date_of_birth": "", "date_of_death": "", "genders": [], "languages": [], "places_of_operation": [], "biography": "", "biography_author": null, "date_of_biography": "2023-08-11T13:04:54.162135+10:00", "external_links": [], "uuid": "d9b256c1-b94a-4bae-8d1c-95f714466ffa", "source": {"name": "Vernon", "slug": "vernon"}, "source_identifier": "2439", "external_references": [], "date_modified": "2025-03-11T23:48:36.636648+11:00"}, {"id": 9129, "name": "Gina Moore", "roles_in_work": [{"id": 2711239, "title": "Drive", "work_id": 109048, "role": "creator", "role_id": 968, "is_primary": true}], "also_known_as": "", "date_of_birth": "", "date_of_death": "", "genders": [], "languages": [], "places_of_operation": [], "biography": "", "biography_author": null, "date_of_biography": "2023-08-11T13:04:36.254018+10:00", "external_links": [], "uuid": "d9bd50bd-cd7a-494a-8d14-1705b93362f4", "source": {"name": "Vernon", "slug": "vernon"}, "source_identifier": "2329", "external_references": [], "date_modified": "2025-03-11T23:48:29.031292+11:00"}, {"id": 9128, "name": "Dell Stewart", "roles_in_work": [{"id": 2711238, "title": "Blackdog", "work_id": 109047, "role": "creator", "role_id": 968, "is_primary": true}, {"id": 916103, "title": "It's like that", "work_id": 94565, "role": "co-director", "role_id": 959, "is_primary": true}], "also_known_as": "", "date_of_birth": "", "date_of_death": "", "genders": [], "languages": [], "places_of_operation": [], "biography": "", "biography_author": null, "date_of_biography": "2023-08-11T13:04:55.197888+10:00", "external_links": [], "uuid": "df0aec55-0ed6-46aa-8c0d-78f4ad7f56ae", "source": {"name": "Vernon", "slug": "vernon"}, "source_identifier": "2436", "external_references": [], "date_modified": "2025-03-11T23:48:27.146334+11:00"}, {"id": 9127, "name": "Emma Jackson", "roles_in_work": [{"id": 2711231, "title": "Off the chain", "work_id": 114159, "role": "creator", "role_id": 968, "is_primary": true}], "also_known_as": "", "date_of_birth": "", "date_of_death": "", "genders": [], "languages": [], "places_of_operation": [], "biography": "", "biography_author": null, "date_of_biography": "2023-08-11T13:04:43.920274+10:00", "external_links": [], "uuid": "252f08b8-11bd-48c1-9938-b3b7e23f9610", "source": {"name": "Vernon", "slug": "vernon"}, "source_identifier": "2441", "external_references": [], "date_modified": "2025-03-11T23:48:22.257578+11:00"}]}