{"count": 28681, "next": "https://api.acmi.net.au/creators/?page=1695", "previous": "https://api.acmi.net.au/creators/?page=1693", "results": [{"id": 28738, "name": "Prakash Jha", "roles_in_work": [{"id": 2464693, "title": "Pas de deus", "work_id": 86769, "role": "director", "role_id": 938, "is_primary": true}], "also_known_as": "", "date_of_birth": "", "date_of_death": "", "genders": [], "languages": [], "places_of_operation": [], "biography": "", "biography_author": null, "date_of_biography": "2023-08-14T10:17:19.588432+10:00", "external_links": [], "uuid": "8b7dcdbe-4864-45a5-9b60-cfbef24c3489", "source": {"name": "Vernon", "slug": "vernon"}, "source_identifier": "26977", "external_references": [], "date_modified": "2023-08-14T10:17:19.588815+10:00"}, {"id": 28737, "name": "Earle Schokman", "roles_in_work": [{"id": 2465962, "title": "Something for everyone", "work_id": 86766, "role": "director", "role_id": 938, "is_primary": true}], "also_known_as": "", "date_of_birth": "", "date_of_death": "", "genders": [], "languages": [], "places_of_operation": [], "biography": "", "biography_author": null, "date_of_biography": "2023-08-14T10:46:20.127938+10:00", "external_links": [], "uuid": "2ee824de-592e-441a-8a73-af8ec7a4aadd", "source": {"name": "Vernon", "slug": "vernon"}, "source_identifier": "18516", "external_references": [], "date_modified": "2023-08-14T10:46:20.128241+10:00"}, {"id": 28736, "name": "Dallas M. Fitzgerald", "roles_in_work": [{"id": 2616065, "title": "On parade: the Hollywood Sunkist Kiddies", "work_id": 86756, "role": "director", "role_id": 938, "is_primary": true}, {"id": 2402629, "title": "Big doings", "work_id": 91786, "role": "director", "role_id": 938, "is_primary": true}], "also_known_as": "", "date_of_birth": "", "date_of_death": "", "genders": [], "languages": [], "places_of_operation": [], "biography": "", "biography_author": null, "date_of_biography": "2023-08-11T14:50:47.059390+10:00", "external_links": [], "uuid": "fc3fa6e3-faaf-4ea2-aa7d-936b6eb5b89e", "source": {"name": "Vernon", "slug": "vernon"}, "source_identifier": "17336", "external_references": [], "date_modified": "2025-02-26T20:33:29.889076+11:00"}, {"id": 28734, "name": "John Erman", "roles_in_work": [{"id": 2075429, "title": "A Streetcar named desire", "work_id": 93065, "role": "director", "role_id": 938, "is_primary": true}, {"id": 2255037, "title": "Roots. - Volume 1", "work_id": 86752, "role": "co-director", "role_id": 959, "is_primary": true}, {"id": 872453, "title": "The Last to go", "work_id": 87643, "role": "producer/director", "role_id": 31, "is_primary": true}], "also_known_as": "", "date_of_birth": "1935-08-03", "date_of_death": "2021-06-25", "genders": [{"id": 9, "name": "Male", "slug": "male"}], "languages": [{"id": 1, "name": "English", "slug": "english"}], "places_of_operation": [{"id": 1, "name": "United States of America", "slug": "united-states-of-america"}], "biography": "John Erman (August 3, 1935 – June 25, 2021) was an American television director, producer, and actor. He was nominated for ten Primetime Emmy Awards, winning once for the film Who Will Love My Children? (1983). He also won two Directors Guild of America Awards for the miniseries Roots (1977) and the film An Early Frost (1985).", "biography_author": "Wikidata", "date_of_biography": "2023-08-01T15:35:11.639340+10:00", "external_links": [{"id": 4370, "uri": "https://en.wikipedia.org/wiki/John_Erman"}], "uuid": "d8d8ccf4-17af-4dc0-94bf-adb3130eb003", "source": {"name": "Vernon", "slug": "vernon"}, "source_identifier": "22240", "external_references": [{"id": 25805, "source": {"name": "Wikidata", "slug": "wikidata"}, "source_identifier": "Q3181443"}, {"id": 29482, "source": {"name": "VIAF", "slug": "viaf"}, "source_identifier": "113685907"}, {"id": 29483, "source": {"name": "LOC Auth", "slug": "loc-auth"}, "source_identifier": "n92062750"}, {"id": 29484, "source": {"name": "WorldCat", "slug": "worldcat"}, "source_identifier": "lccn-n92062750"}], "date_modified": "2023-09-05T21:35:52.459549+10:00"}, {"id": 28733, "name": "David Greene", "roles_in_work": [{"id": 2255036, "title": "Roots. - Volume 1", "work_id": 86752, "role": "co-director", "role_id": 959, "is_primary": true}, {"id": 883215, "title": "Liberace: behind the music", "work_id": 93570, "role": "director", "role_id": 938, "is_primary": true}], "also_known_as": "", "date_of_birth": "1921-02-22", "date_of_death": "2003-04-07", "genders": [{"id": 9, "name": "Male", "slug": "male"}], "languages": [{"id": 1, "name": "English", "slug": "english"}], "places_of_operation": [{"id": 10, "name": "United Kingdom", "slug": "united-kingdom"}], "biography": "Lucius David Syms-Greene (born Lucius David Syms Brian Lederman; 22 February 1921 – 7 April 2003), known as David Greene, was a British television and film director, and actor.", "biography_author": "Wikidata", "date_of_biography": "2023-09-05T18:57:50.129777+10:00", "external_links": [{"id": 5768, "uri": "https://en.wikipedia.org/wiki/David_Greene_(director)"}], "uuid": "7d9701ba-2b0e-415d-95ae-07d160403941", "source": {"name": "Vernon", "slug": "vernon"}, "source_identifier": "17605", "external_references": [{"id": 51441, "source": {"name": "Wikidata", "slug": "wikidata"}, "source_identifier": "Q556343"}, {"id": 54274, "source": {"name": "VIAF", "slug": "viaf"}, "source_identifier": "61748697"}, {"id": 54275, "source": {"name": "LOC Auth", "slug": "loc-auth"}, "source_identifier": "n85199188"}, {"id": 54276, "source": {"name": "WorldCat", "slug": "worldcat"}, "source_identifier": "lccn-n85199188"}], "date_modified": "2023-09-05T18:57:50.156055+10:00"}, {"id": 28731, "name": "Cathy Beitz", "roles_in_work": [{"id": 2102610, "title": "Assertive team communication", "work_id": 87049, "role": "director", "role_id": 938, "is_primary": true}, {"id": 2794919, "title": "Collected stories of the XPT", "work_id": 88014, "role": "director", "role_id": 938, "is_primary": true}, {"id": 2102598, "title": "Assertive team communication", "work_id": 87049, "role": "co-producer", "role_id": 915, "is_primary": true}, {"id": 2794915, "title": "Collected stories of the XPT", "work_id": 88014, "role": "co-producer", "role_id": 915, "is_primary": true}, {"id": 2794906, "title": "The Indian Pacific", "work_id": 88013, "role": "producer", "role_id": 1089, "is_primary": true}, {"id": 870987, "title": "Handling angry customers over the phone", "work_id": 86750, "role": "producer/director", "role_id": 31, "is_primary": true}], "also_known_as": "", "date_of_birth": "", "date_of_death": "", "genders": [], "languages": [], "places_of_operation": [], "biography": "", "biography_author": null, "date_of_biography": "2023-05-09T20:04:07.705126+10:00", "external_links": [], "uuid": "a5e8d402-8316-4c73-ae9f-6032ce20ce72", "source": {"name": "Vernon", "slug": "vernon"}, "source_identifier": "16610", "external_references": [{"id": 38456, "source": {"name": "Wikidata", "slug": "wikidata"}, "source_identifier": "Q121299349"}], "date_modified": "2025-03-14T20:28:47.708842+11:00"}, {"id": 28728, "name": "Riverside Productions", "roles_in_work": [{"id": 2215084, "title": "Effective resumes: resumes for maximum impact", "work_id": 86749, "role": "production company", "role_id": 941, "is_primary": true}], "also_known_as": "", "date_of_birth": "", "date_of_death": "", "genders": [], "languages": [], "places_of_operation": [], "biography": "", "biography_author": null, "date_of_biography": "2023-05-09T15:53:14.751188+10:00", "external_links": [], "uuid": "a2797851-0572-42f6-991a-caa7af066d40", "source": {"name": "Vernon", "slug": "vernon"}, "source_identifier": "12045", "external_references": [{"id": 35196, "source": {"name": "Wikidata", "slug": "wikidata"}, "source_identifier": "Q121126628"}], "date_modified": "2023-09-06T00:36:30.366084+10:00"}, {"id": 28727, "name": "Fusion", "roles_in_work": [{"id": 2406295, "title": "Discovery : Explore the world of oil & gas (MAC & PC)", "work_id": 86747, "role": "production company", "role_id": 941, "is_primary": true}], "also_known_as": "", "date_of_birth": "", "date_of_death": "", "genders": [], "languages": [], "places_of_operation": [], "biography": "", "biography_author": null, "date_of_biography": "2023-08-11T16:10:28.923659+10:00", "external_links": [], "uuid": "c2d8dd47-bd82-478c-8c3f-eeafcba1351e", "source": {"name": "Vernon", "slug": "vernon"}, "source_identifier": "8605", "external_references": [], "date_modified": "2023-08-11T16:10:28.923890+10:00"}, {"id": 28726, "name": "Macromedia", "roles_in_work": [{"id": 2406294, "title": "Discovery : Explore the world of oil & gas (MAC & PC)", "work_id": 86747, "role": "production company", "role_id": 941, "is_primary": true}], "also_known_as": "", "date_of_birth": "", "date_of_death": "", "genders": [], "languages": [], "places_of_operation": [], "biography": "", "biography_author": null, "date_of_biography": "2023-08-11T16:10:28.231648+10:00", "external_links": [], "uuid": "0adfeea4-5b8d-4183-b350-1687156ba864", "source": {"name": "Vernon", "slug": "vernon"}, "source_identifier": "10223", "external_references": [], "date_modified": "2023-08-11T16:10:28.231899+10:00"}, {"id": 28724, "name": "Thierry Ganay", "roles_in_work": [{"id": 2616059, "title": "Yvonne's perfume = Le Parfum d'Yvonne [Widescreen]", "work_id": 86744, "role": "producer", "role_id": 1089, "is_primary": true}], "also_known_as": "", "date_of_birth": null, "date_of_death": null, "genders": [], "languages": [], "places_of_operation": [], "biography": "", "biography_author": null, "date_of_biography": null, "external_links": [], "uuid": "ea08855a-cddb-4271-97ad-2ecae289f26c", "source": {"name": "Vernon", "slug": "vernon"}, "source_identifier": "29657", "external_references": [], "date_modified": "2025-02-26T20:33:22.924940+11:00"}]}