{"count": 28687, "next": "https://api.acmi.net.au/creators/?page=2402", "previous": "https://api.acmi.net.au/creators/?page=2400", "results": [{"id": 15151, "name": "Alexander Hammid", "roles_in_work": [{"id": 853680, "title": "Israel: an adventure", "work_id": 69130, "role": "director", "role_id": 938, "is_primary": true}, {"id": 853700, "title": "Marriage for moderns: it takes all kinds", "work_id": 69143, "role": "director", "role_id": 938, "is_primary": true}, {"id": 854065, "title": "Kid brother", "work_id": 69385, "role": "director", "role_id": 938, "is_primary": true}, {"id": 2714250, "title": "Freedom of the press", "work_id": 67814, "role": "director", "role_id": 938, "is_primary": true}, {"id": 2714570, "title": "The Gentleman in room 6", "work_id": 67990, "role": "director", "role_id": 938, "is_primary": true}, {"id": 2764270, "title": "Marriage today", "work_id": 70167, "role": "director", "role_id": 938, "is_primary": true}, {"id": 2043665, "title": "Angry Boy", "work_id": 90625, "role": "director", "role_id": 938, "is_primary": true}, {"id": 860799, "title": "Who's boss", "work_id": 74728, "role": "director", "role_id": 938, "is_primary": true}, {"id": 756796, "title": "The Valley of the Tennessee", "work_id": 74275, "role": "director", "role_id": 938, "is_primary": true}, {"id": 856581, "title": "Pablo Casals: master class at Berkeley", "work_id": 71305, "role": "director", "role_id": 938, "is_primary": true}, {"id": 899822, "title": "[Maya Deren Compilation]", "work_id": 80675, "role": "co-director", "role_id": 959, "is_primary": true}, {"id": 857255, "title": "Private life of a cat", "work_id": 71852, "role": "producer/director", "role_id": 31, "is_primary": true}], "also_known_as": "", "date_of_birth": "1907-12-17", "date_of_death": "2004-07-26", "genders": [{"id": 9, "name": "Male", "slug": "male"}], "languages": [{"id": 20, "name": "Czech", "slug": "czech"}, {"id": 1, "name": "English", "slug": "english"}], "places_of_operation": [{"id": 1, "name": "United States of America", "slug": "united-states-of-america"}], "biography": "Alexandr Hackenschmied, born Alexander Siegfried George Hackenschmied, known later as Alexander Hammid (17 December 1907, Linz – 26 July 2004, New York City) was a Czech-American photographer, film director, cinematographer and film editor. He immigrated to the U.S. in 1938 and became involved in American avant-garde cinema. He is best known for three films: Crisis (1939), Meshes of the Afternoon (1943) and To Be Alive! (1964). He made Meshes of the Afternoon with Maya Deren, to whom he was married from 1942 to 1947. His second marriage was to the photographer Hella Heyman, who had also collaborated with Hammid and Deren on several films.He won the 1965 Academy Award for Best Documentary (Short Subject) for To Be Alive! (1964), which he co-directed with Francis Thompson.", "biography_author": "Wikidata", "date_of_biography": "2023-08-01T13:58:23.766804+10:00", "external_links": [{"id": 3521, "uri": "https://en.wikipedia.org/wiki/Alexandr_Hackenschmied"}], "uuid": "8b60c0e6-3f27-45e0-b580-7628e8880b1f", "source": {"name": "Vernon", "slug": "vernon"}, "source_identifier": "14921", "external_references": [{"id": 26597, "source": {"name": "Wikidata", "slug": "wikidata"}, "source_identifier": "Q357624"}, {"id": 27178, "source": {"name": "VIAF", "slug": "viaf"}, "source_identifier": "221982787"}, {"id": 27179, "source": {"name": "LOC Auth", "slug": "loc-auth"}, "source_identifier": "n88034718"}, {"id": 27180, "source": {"name": "WorldCat", "slug": "worldcat"}, "source_identifier": "lccn-n88034718"}], "date_modified": "2025-03-14T17:45:47.073656+11:00"}, {"id": 15150, "name": "Strand Film Zoological Productions", "roles_in_work": [{"id": 2714244, "title": "Free to roam", "work_id": 67812, "role": "production company", "role_id": 941, "is_primary": true}], "also_known_as": "", "date_of_birth": null, "date_of_death": null, "genders": [], "languages": [], "places_of_operation": [], "biography": "", "biography_author": null, "date_of_biography": null, "external_links": [], "uuid": "7fa72bc8-e49b-46f4-8f87-178c64b74763", "source": {"name": "Vernon", "slug": "vernon"}, "source_identifier": "12986", "external_references": [], "date_modified": "2025-03-12T01:05:01.278778+11:00"}, {"id": 15149, "name": "Brian Lewis", "roles_in_work": [{"id": 2714243, "title": "Free to move (TEFC)", "work_id": 67811, "role": "director", "role_id": 938, "is_primary": true}, {"id": 918401, "title": "Free to Move", "work_id": 96404, "role": "director", "role_id": 938, "is_primary": true}, {"id": 2787670, "title": "The Chosen people", "work_id": 84038, "role": "director", "role_id": 938, "is_primary": true}, {"id": 2751226, "title": "Volleyball: a sport come of age", "work_id": 97708, "role": "producer/director", "role_id": 31, "is_primary": true}], "also_known_as": "", "date_of_birth": null, "date_of_death": null, "genders": [], "languages": [], "places_of_operation": [], "biography": "", "biography_author": null, "date_of_biography": null, "external_links": [], "uuid": "b4070f42-bffe-444e-a7b0-f95a27c0e3d0", "source": {"name": "Vernon", "slug": "vernon"}, "source_identifier": "16235", "external_references": [], "date_modified": "2025-03-13T00:38:34.524593+11:00"}, {"id": 15147, "name": "Derek Monk", "roles_in_work": [{"id": 886042, "title": "Dance in the primary school (TEFC)", "work_id": 95535, "role": "director", "role_id": 938, "is_primary": true}, {"id": 2749097, "title": "Dance in the primary school", "work_id": 96631, "role": "director", "role_id": 938, "is_primary": true}, {"id": 2714241, "title": "Free to move (TEFC)", "work_id": 67811, "role": "co-producer", "role_id": 915, "is_primary": true}, {"id": 918399, "title": "Free to Move", "work_id": 96404, "role": "co-producer", "role_id": 915, "is_primary": true}, {"id": 2749618, "title": "Swimming in the primary school", "work_id": 96892, "role": "producer", "role_id": 1089, "is_primary": true}, {"id": 2714463, "title": "Games in the primary school (TEFC)", "work_id": 67938, "role": "producer", "role_id": 1089, "is_primary": true}], "also_known_as": "", "date_of_birth": null, "date_of_death": null, "genders": [], "languages": [], "places_of_operation": [], "biography": "", "biography_author": null, "date_of_biography": null, "external_links": [], "uuid": "667b51c1-9cf8-4921-a23d-75a4c042f05e", "source": {"name": "Vernon", "slug": "vernon"}, "source_identifier": "18041", "external_references": [], "date_modified": "2025-03-13T00:02:31.010414+11:00"}, {"id": 15146, "name": "Schools Council", "roles_in_work": [{"id": 2749096, "title": "Dance in the primary school", "work_id": 96631, "role": "production company", "role_id": 941, "is_primary": true}, {"id": 2714240, "title": "Free to move (TEFC)", "work_id": 67811, "role": "production company", "role_id": 941, "is_primary": true}, {"id": 918398, "title": "Free to Move", "work_id": 96404, "role": "production company", "role_id": 941, "is_primary": true}, {"id": 886041, "title": "Dance in the primary school (TEFC)", "work_id": 95535, "role": "production company", "role_id": 941, "is_primary": true}, {"id": 2321271, "title": "Take three (TEFC)", "work_id": 73466, "role": "production company", "role_id": 941, "is_primary": true}], "also_known_as": "", "date_of_birth": "", "date_of_death": "", "genders": [], "languages": [], "places_of_operation": [], "biography": "", "biography_author": null, "date_of_biography": "2023-05-09T19:12:26.353699+10:00", "external_links": [], "uuid": "d24f0902-bc00-4c4b-bb97-c9e0324d8c94", "source": {"name": "Vernon", "slug": "vernon"}, "source_identifier": "12337", "external_references": [{"id": 38656, "source": {"name": "Wikidata", "slug": "wikidata"}, "source_identifier": "Q121315491"}], "date_modified": "2025-03-12T23:52:29.756503+11:00"}, {"id": 15145, "name": "Rex Clayton", "roles_in_work": [{"id": 2714237, "title": "Weekend Magazine: free music", "work_id": 67809, "role": "producer", "role_id": 1089, "is_primary": true}, {"id": 2467296, "title": "The Last film search", "work_id": 98005, "role": "producer", "role_id": 1089, "is_primary": true}], "also_known_as": "", "date_of_birth": "", "date_of_death": "", "genders": [], "languages": [], "places_of_operation": [], "biography": "", "biography_author": null, "date_of_biography": "2023-08-14T12:40:21.865357+10:00", "external_links": [], "uuid": "fd7ece6c-33e5-483b-80f0-da1dc460a4b6", "source": {"name": "Vernon", "slug": "vernon"}, "source_identifier": "27281", "external_references": [], "date_modified": "2025-03-12T01:02:50.614457+11:00"}, {"id": 15144, "name": "J Has", "roles_in_work": [{"id": 2644866, "title": "Free as the birds", "work_id": 67807, "role": "director", "role_id": 938, "is_primary": true}], "also_known_as": "", "date_of_birth": null, "date_of_death": null, "genders": [], "languages": [], "places_of_operation": [], "biography": "", "biography_author": null, "date_of_biography": null, "external_links": [], "uuid": "f826e31d-944d-43c5-a716-20db558b9aa5", "source": {"name": "Vernon", "slug": "vernon"}, "source_identifier": "21008", "external_references": [], "date_modified": "2025-03-05T12:27:10.827612+11:00"}, {"id": 15143, "name": "Fulco Film", "roles_in_work": [{"id": 2644863, "title": "Fellini: the director as creator", "work_id": 67806, "role": "production company", "role_id": 941, "is_primary": true}], "also_known_as": "", "date_of_birth": null, "date_of_death": null, "genders": [], "languages": [], "places_of_operation": [], "biography": "", "biography_author": null, "date_of_biography": null, "external_links": [], "uuid": "f63f4747-314c-47bc-ac51-3ba1614a3808", "source": {"name": "Vernon", "slug": "vernon"}, "source_identifier": "8598", "external_references": [], "date_modified": "2025-03-05T12:27:08.784554+11:00"}, {"id": 15142, "name": "Radiotelevisione Italiana", "roles_in_work": [{"id": 2293355, "title": "Tosca", "work_id": 94456, "role": "production company", "role_id": 941, "is_primary": true}, {"id": 2644862, "title": "Fellini: the director as creator", "work_id": 67806, "role": "production company", "role_id": 941, "is_primary": true}, {"id": 2644915, "title": "The Hen = La Gallina", "work_id": 67931, "role": "production company", "role_id": 941, "is_primary": true}, {"id": 2645135, "title": "The Caterpillar = I Bruchi", "work_id": 68708, "role": "production company", "role_id": 941, "is_primary": true}, {"id": 2714527, "title": "The Cat = Il Gatto", "work_id": 67972, "role": "production company", "role_id": 941, "is_primary": true}, {"id": 2649723, "title": "Jesus of Nazareth", "work_id": 82079, "role": "production company", "role_id": 941, "is_primary": true}, {"id": 1996589, "title": "The Tree of wooden clogs = L'albero degli zoccoli", "work_id": 92769, "role": "production company", "role_id": 941, "is_primary": true}, {"id": 903556, "title": "The Night of Saint Lawrence = La Notte di San Lorenzo", "work_id": 84582, "role": "production company", "role_id": 941, "is_primary": true}, {"id": 2177658, "title": "Orchestra rehearsal = Prova d'orchestra", "work_id": 83747, "role": "production company", "role_id": 941, "is_primary": true}, {"id": 2083912, "title": "Aida", "work_id": 94474, "role": "production company", "role_id": 941, "is_primary": true}, {"id": 2269246, "title": "Turandot", "work_id": 95380, "role": "production company", "role_id": 941, "is_primary": true}, {"id": 856719, "title": "The Sheep = La Pecora", "work_id": 71426, "role": "production company", "role_id": 941, "is_primary": true}, {"id": 2219545, "title": "Ernani: opera in four acts", "work_id": 94473, "role": "production company", "role_id": 941, "is_primary": true}, {"id": 1999159, "title": "The Son's room = La Stanza Del Figlio", "work_id": 94307, "role": "production company", "role_id": 941, "is_primary": true}, {"id": 1985196, "title": "The Mystery of Oberwald = Il Mistero Di Oberwald", "work_id": 81071, "role": "production company", "role_id": 941, "is_primary": true}, {"id": 884184, "title": "Il Trittico", "work_id": 94478, "role": "production company", "role_id": 941, "is_primary": true}, {"id": 2137056, "title": "Christ stopped at Eboli = Cristo si e' fermato a Eboli", "work_id": 92638, "role": "production company", "role_id": 941, "is_primary": true}, {"id": 1984820, "title": "And the Ship Sails on = E la Nave Va", "work_id": 80829, "role": "production company", "role_id": 941, "is_primary": true}, {"id": 1985324, "title": "La Traviata", "work_id": 81221, "role": "production company", "role_id": 941, "is_primary": true}, {"id": 884121, "title": "The Lombards at the first Crusade = I Lombardi alla prima Crociata", "work_id": 94465, "role": "production company", "role_id": 941, "is_primary": true}, {"id": 1997444, "title": "Francesco", "work_id": 93320, "role": "production company", "role_id": 941, "is_primary": true}, {"id": 1993397, "title": "Nostalgia = Nostalghia", "work_id": 89078, "role": "production company", "role_id": 941, "is_primary": true}, {"id": 790138, "title": "Nostromo. Parts 1 & 2", "work_id": 85577, "role": "production company", "role_id": 941, "is_primary": true}, {"id": 2615217, "title": "My father, my master = Padre, padrone.", "work_id": 85087, "role": "production company", "role_id": 941, "is_primary": true}, {"id": 819961, "title": "Il Trovatore", "work_id": 94460, "role": "production company", "role_id": 941, "is_primary": true}, {"id": 1987547, "title": "Nuovo Cinema Paradiso", "work_id": 83783, "role": "production company", "role_id": 941, "is_primary": true}, {"id": 794145, "title": "Franco Zeffirelli's production of Verdi's Don Carlo", "work_id": 86814, "role": "production company", "role_id": 941, "is_primary": true}, {"id": 2228499, "title": "Farewell Moscow", "work_id": 86376, "role": "production company", "role_id": 941, "is_primary": true}, {"id": 885528, "title": "Nabucco", "work_id": 95382, "role": "production company", "role_id": 941, "is_primary": true}, {"id": 1986418, "title": "The Spider's stratagem", "work_id": 82546, "role": "production company", "role_id": 941, "is_primary": true}, {"id": 2103666, "title": "Attila", "work_id": 94466, "role": "production company", "role_id": 941, "is_primary": true}], "also_known_as": "", "date_of_birth": "", "date_of_death": "", "genders": [], "languages": [], "places_of_operation": [], "biography": "", "biography_author": null, "date_of_biography": "2023-05-09T19:32:48.645466+10:00", "external_links": [], "uuid": "2f502a39-8d45-4363-bc54-3498b8f4704e", "source": {"name": "Vernon", "slug": "vernon"}, "source_identifier": "3881", "external_references": [{"id": 39506, "source": {"name": "Wikidata", "slug": "wikidata"}, "source_identifier": "Q121035064"}], "date_modified": "2025-03-12T01:12:31.424766+11:00"}, {"id": 15139, "name": "Connecticut Films", "roles_in_work": [{"id": 2714228, "title": "Frederick", "work_id": 67805, "role": "production company", "role_id": 941, "is_primary": true}, {"id": 2237321, "title": "Reaching out: the library and the exceptional child", "work_id": 72070, "role": "production company", "role_id": 941, "is_primary": true}, {"id": 2753663, "title": "Pulcinella and the magic fish", "work_id": 98871, "role": "production company", "role_id": 941, "is_primary": true}, {"id": 2320640, "title": "Swimmy", "work_id": 73419, "role": "production company", "role_id": 941, "is_primary": true}], "also_known_as": "", "date_of_birth": "", "date_of_death": "", "genders": [], "languages": [], "places_of_operation": [], "biography": "", "biography_author": null, "date_of_biography": "2023-05-09T19:11:24.412708+10:00", "external_links": [], "uuid": "40b7676d-df90-4762-a81d-6994c68d90af", "source": {"name": "Vernon", "slug": "vernon"}, "source_identifier": "7005", "external_references": [{"id": 35868, "source": {"name": "Wikidata", "slug": "wikidata"}, "source_identifier": "Q121126397"}], "date_modified": "2025-03-13T01:30:33.651930+11:00"}]}