{"count": 28687, "next": "https://api.acmi.net.au/creators/?page=1589", "previous": "https://api.acmi.net.au/creators/?page=1587", "results": [{"id": 31323, "name": "Peter Hadingham", "roles_in_work": [{"id": 2415806, "title": "Meet the chief", "work_id": 89376, "role": "director", "role_id": 938, "is_primary": true}], "also_known_as": "", "date_of_birth": "", "date_of_death": "", "genders": [], "languages": [], "places_of_operation": [], "biography": "", "biography_author": null, "date_of_biography": "2023-08-11T19:47:00.156660+10:00", "external_links": [], "uuid": "a7ac7da2-2399-443e-b6ab-3ee57d8ff10c", "source": {"name": "Vernon", "slug": "vernon"}, "source_identifier": "26565", "external_references": [], "date_modified": "2023-08-11T19:47:00.156907+10:00"}, {"id": 31321, "name": "Bo Widerberg", "roles_in_work": [{"id": 1993659, "title": "Love lessons = Lust och Fagring Stor", "work_id": 89369, "role": "director", "role_id": 938, "is_primary": true}, {"id": 2752492, "title": "Ballad of Joe Hill", "work_id": 98318, "role": "producer/director", "role_id": 31, "is_primary": true}], "also_known_as": "", "date_of_birth": null, "date_of_death": null, "genders": [], "languages": [], "places_of_operation": [], "biography": "", "biography_author": null, "date_of_biography": null, "external_links": [], "uuid": "8b5b74f9-c07a-41a6-8916-30bacd227003", "source": {"name": "Vernon", "slug": "vernon"}, "source_identifier": "16042", "external_references": [], "date_modified": "2025-03-13T01:06:23.928225+11:00"}, {"id": 31316, "name": "Les Productions Bagheera", "roles_in_work": [{"id": 2344851, "title": "The Dreamlife of angels = La Vie revee des anges", "work_id": 89368, "role": "production company", "role_id": 941, "is_primary": true}], "also_known_as": "", "date_of_birth": "", "date_of_death": "", "genders": [], "languages": [], "places_of_operation": [], "biography": "", "biography_author": null, "date_of_biography": "2023-05-09T19:45:24.379718+10:00", "external_links": [], "uuid": "37c9d5d4-c364-4f2a-b925-636aedc23dde", "source": {"name": "Vernon", "slug": "vernon"}, "source_identifier": "10022", "external_references": [{"id": 41970, "source": {"name": "Wikidata", "slug": "wikidata"}, "source_identifier": "Q78297902"}], "date_modified": "2023-09-05T22:21:46.965036+10:00"}, {"id": 31315, "name": "George Huang", "roles_in_work": [{"id": 2320644, "title": "Swimming with sharks = The Buddy factor [Widescreen]", "work_id": 89367, "role": "director", "role_id": 938, "is_primary": true}], "also_known_as": "", "date_of_birth": null, "date_of_death": null, "genders": [{"id": 9, "name": "Male", "slug": "male"}], "languages": [{"id": 1, "name": "English", "slug": "english"}], "places_of_operation": [{"id": 1, "name": "United States of America", "slug": "united-states-of-america"}], "biography": "George Huang is an American filmmaker. In addition to working on his own films, he also contributes work to other independent filmmakers, including Robert Rodríguez.", "biography_author": "Wikidata", "date_of_biography": "2022-05-19T11:35:30.921819+10:00", "external_links": [{"id": 2116, "uri": "https://en.wikipedia.org/wiki/George_Huang_(director)"}], "uuid": "d7546520-2bb2-4ca0-ad17-0e69de34ede8", "source": {"name": "Vernon", "slug": "vernon"}, "source_identifier": "19614", "external_references": [{"id": 9121, "source": {"name": "Wikidata", "slug": "wikidata"}, "source_identifier": "Q5540807"}], "date_modified": "2023-09-13T12:29:35.635469+10:00"}, {"id": 31312, "name": "Keystone Partners", "roles_in_work": [{"id": 2320636, "title": "Swimming with sharks = The Buddy factor [Widescreen]", "work_id": 89367, "role": "production company", "role_id": 941, "is_primary": true}], "also_known_as": "", "date_of_birth": "", "date_of_death": "", "genders": [], "languages": [], "places_of_operation": [], "biography": "", "biography_author": null, "date_of_biography": "2023-05-09T19:11:24.086257+10:00", "external_links": [], "uuid": "5130e880-41a4-48c3-a4de-0b8ac0f72551", "source": {"name": "Vernon", "slug": "vernon"}, "source_identifier": "4546", "external_references": [{"id": 35797, "source": {"name": "Wikidata", "slug": "wikidata"}, "source_identifier": "Q121271254"}], "date_modified": "2023-09-05T22:08:13.025482+10:00"}, {"id": 31310, "name": "Atelier Filmique", "roles_in_work": [{"id": 2466387, "title": "Synthesis = Synthese. No. 3/7? [French language]", "work_id": 89471, "role": "production company", "role_id": 941, "is_primary": true}, {"id": 2466382, "title": "Synthesis = Synthese. No. 1/74 [French language]", "work_id": 89357, "role": "production company", "role_id": 941, "is_primary": true}, {"id": 2466388, "title": "Synthesis = Synthese. No. 3/73 [French language]", "work_id": 89661, "role": "production company", "role_id": 941, "is_primary": true}, {"id": 2466381, "title": "Synthesis = Synthese. No. 1/72 [French language]", "work_id": 89419, "role": "production company", "role_id": 941, "is_primary": true}, {"id": 2466390, "title": "Synthesis = Synthese. No. 4/72 [French language]", "work_id": 89356, "role": "production company", "role_id": 941, "is_primary": true}, {"id": 2466392, "title": "Synthesis = Synthese. No. 5/72 [French language]", "work_id": 89405, "role": "production company", "role_id": 941, "is_primary": true}, {"id": 2466380, "title": "Synthesis = Synthese. No. 1/7? [French language]", "work_id": 89396, "role": "production company", "role_id": 941, "is_primary": true}, {"id": 2466391, "title": "Synthesis = Synthese. No. 4/74 [French language]", "work_id": 89406, "role": "production company", "role_id": 941, "is_primary": true}, {"id": 2466393, "title": "Synthesis = Synthese. No. 5/74 [French language]", "work_id": 89386, "role": "production company", "role_id": 941, "is_primary": true}], "also_known_as": "", "date_of_birth": "", "date_of_death": "", "genders": [], "languages": [], "places_of_operation": [], "biography": "", "biography_author": null, "date_of_biography": "2023-08-14T10:56:12.319947+10:00", "external_links": [], "uuid": "b9cc6086-357c-4a04-9cb5-26d8c4d35602", "source": {"name": "Vernon", "slug": "vernon"}, "source_identifier": "5486", "external_references": [], "date_modified": "2023-08-14T10:56:12.320192+10:00"}, {"id": 31309, "name": "Frederic Fonteyne", "roles_in_work": [{"id": 2073276, "title": "A Pornographic affair = Une Liaison pornographique [Widescreen]", "work_id": 89355, "role": "director", "role_id": 938, "is_primary": true}], "also_known_as": "", "date_of_birth": "1968-01-09", "date_of_death": "", "genders": [{"id": 9, "name": "Male", "slug": "male"}], "languages": [], "places_of_operation": [{"id": 37, "name": "Belgium", "slug": "belgium"}], "biography": "Frédéric Fonteyne (French pronunciation: ​[fʁedeʁik fɔ̃tɛn]; born 9 January 1968) is a Belgian film director. He studied film at the Institut des arts de diffusion in Louvain-la-Neuve. His 2020 film Working Girls was selected as the Belgian entry for the Best International Feature Film at the 93rd Academy Awards.", "biography_author": "Wikidata", "date_of_biography": "2023-09-05T19:53:06.993637+10:00", "external_links": [{"id": 5822, "uri": "https://en.wikipedia.org/wiki/Fr%C3%A9d%C3%A9ric_Fonteyne"}], "uuid": "fccb7290-f152-49e9-a859-c1ec215846c4", "source": {"name": "Vernon", "slug": "vernon"}, "source_identifier": "19263", "external_references": [{"id": 37410, "source": {"name": "Wikidata", "slug": "wikidata"}, "source_identifier": "Q2265192"}, {"id": 54468, "source": {"name": "VIAF", "slug": "viaf"}, "source_identifier": "46539575"}, {"id": 54469, "source": {"name": "LOC Auth", "slug": "loc-auth"}, "source_identifier": "no2007051899"}, {"id": 54470, "source": {"name": "WorldCat", "slug": "worldcat"}, "source_identifier": "lccn-no2007051899"}], "date_modified": "2023-09-05T19:53:07.019049+10:00"}, {"id": 31305, "name": "Fama Film", "roles_in_work": [{"id": 2073257, "title": "A Pornographic affair = Une Liaison pornographique [Widescreen]", "work_id": 89355, "role": "production company", "role_id": 941, "is_primary": true}], "also_known_as": "", "date_of_birth": "", "date_of_death": "", "genders": [], "languages": [], "places_of_operation": [], "biography": "", "biography_author": null, "date_of_biography": "2023-05-09T11:36:44.901411+10:00", "external_links": [], "uuid": "d5e38fc7-dddd-4e9f-8771-5f1602ede533", "source": {"name": "Vernon", "slug": "vernon"}, "source_identifier": "8087", "external_references": [{"id": 39340, "source": {"name": "Wikidata", "slug": "wikidata"}, "source_identifier": "Q121144106"}], "date_modified": "2023-09-05T19:39:58.810972+10:00"}, {"id": 31304, "name": "Le Production Lazemec", "roles_in_work": [{"id": 2073253, "title": "A Pornographic affair = Une Liaison pornographique [Widescreen]", "work_id": 89355, "role": "production company", "role_id": 941, "is_primary": true}], "also_known_as": "", "date_of_birth": "", "date_of_death": "", "genders": [], "languages": [], "places_of_operation": [], "biography": "", "biography_author": null, "date_of_biography": "2023-05-09T11:36:44.387766+10:00", "external_links": [], "uuid": "10dad543-a9ad-4e05-9774-3485e938b30c", "source": {"name": "Vernon", "slug": "vernon"}, "source_identifier": "9941", "external_references": [{"id": 41197, "source": {"name": "Wikidata", "slug": "wikidata"}, "source_identifier": "Q121034767"}], "date_modified": "2023-09-05T22:17:37.359805+10:00"}, {"id": 31303, "name": "Samsa Film", "roles_in_work": [{"id": 2073250, "title": "A Pornographic affair = Une Liaison pornographique [Widescreen]", "work_id": 89355, "role": "production company", "role_id": 941, "is_primary": true}], "also_known_as": "", "date_of_birth": "", "date_of_death": "", "genders": [], "languages": [], "places_of_operation": [], "biography": "", "biography_author": null, "date_of_biography": "2023-05-09T11:36:44.100646+10:00", "external_links": [], "uuid": "27f8037f-5c85-45d7-9164-88b4ba66ad84", "source": {"name": "Vernon", "slug": "vernon"}, "source_identifier": "12257", "external_references": [{"id": 35977, "source": {"name": "Wikidata", "slug": "wikidata"}, "source_identifier": "Q121337313"}], "date_modified": "2023-09-06T01:03:50.610429+10:00"}]}