{"count": 28682, "next": "https://api.acmi.net.au/creators/?page=391", "previous": "https://api.acmi.net.au/creators/?page=389", "results": [{"id": 81679, "name": "Brian Butler", "roles_in_work": [{"id": 2752929, "title": "Watching them write, seeing them learn: a kindergarten writing community at work", "work_id": 98524, "role": "producer/director", "role_id": 31, "is_primary": true}], "also_known_as": "", "date_of_birth": "", "date_of_death": "", "genders": [], "languages": [], "places_of_operation": [], "biography": "", "biography_author": null, "date_of_biography": "2023-08-14T12:35:13.954690+10:00", "external_links": [], "uuid": "18508600-f4c2-4c00-9596-40f09faf746b", "source": {"name": "Vernon", "slug": "vernon"}, "source_identifier": "16200", "external_references": [{"id": 51241, "source": {"name": "Wikidata", "slug": "wikidata"}, "source_identifier": "Q121360563"}], "date_modified": "2025-03-13T01:15:27.063218+11:00"}, {"id": 81678, "name": "Sally Abbott-Smith", "roles_in_work": [{"id": 2752823, "title": "What's the difference!", "work_id": 98475, "role": "co-producer", "role_id": 915, "is_primary": true}], "also_known_as": "", "date_of_birth": "", "date_of_death": "", "genders": [], "languages": [], "places_of_operation": [], "biography": "", "biography_author": null, "date_of_biography": "2023-05-09T18:08:48.235462+10:00", "external_links": [], "uuid": "cc1c8f8b-9491-45e1-898d-da6b28b9112e", "source": {"name": "Vernon", "slug": "vernon"}, "source_identifier": "28438", "external_references": [{"id": 41072, "source": {"name": "Wikidata", "slug": "wikidata"}, "source_identifier": "Q121315436"}], "date_modified": "2025-03-13T01:12:32.154611+11:00"}, {"id": 81677, "name": "Priscilla M. Clarke", "roles_in_work": [{"id": 2752822, "title": "What's the difference!", "work_id": 98475, "role": "co-producer", "role_id": 915, "is_primary": true}], "also_known_as": "", "date_of_birth": "", "date_of_death": "", "genders": [], "languages": [], "places_of_operation": [], "biography": "", "biography_author": null, "date_of_biography": "2023-05-09T18:08:47.988094+10:00", "external_links": [], "uuid": "459d4172-aa4a-4f71-9eab-f1813648430c", "source": {"name": "Vernon", "slug": "vernon"}, "source_identifier": "26987", "external_references": [{"id": 36456, "source": {"name": "Wikidata", "slug": "wikidata"}, "source_identifier": "Q121222841"}], "date_modified": "2025-03-13T01:12:31.575584+11:00"}, {"id": 81676, "name": "Naomi Robin", "roles_in_work": [{"id": 2779034, "title": "Matter of taste", "work_id": 98471, "role": "co-producer", "role_id": 915, "is_primary": true}], "also_known_as": "", "date_of_birth": "", "date_of_death": "", "genders": [], "languages": [], "places_of_operation": [], "biography": "", "biography_author": null, "date_of_biography": "2023-05-09T20:03:41.569157+10:00", "external_links": [], "uuid": "5d0f52ac-3fd6-49ae-9933-801b0e54792f", "source": {"name": "Vernon", "slug": "vernon"}, "source_identifier": "27964", "external_references": [{"id": 43116, "source": {"name": "Wikidata", "slug": "wikidata"}, "source_identifier": "Q121314995"}], "date_modified": "2025-03-14T19:02:08.627315+11:00"}, {"id": 81675, "name": "James B. Maas", "roles_in_work": [{"id": 2779031, "title": "Matter of taste", "work_id": 98471, "role": "co-producer", "role_id": 915, "is_primary": true}], "also_known_as": "", "date_of_birth": "", "date_of_death": "", "genders": [], "languages": [], "places_of_operation": [], "biography": "", "biography_author": null, "date_of_biography": "2023-05-09T20:03:41.305759+10:00", "external_links": [], "uuid": "75c96169-076f-4664-80ad-85b637dc24aa", "source": {"name": "Vernon", "slug": "vernon"}, "source_identifier": "21191", "external_references": [{"id": 34309, "source": {"name": "Wikidata", "slug": "wikidata"}, "source_identifier": "Q121223092"}], "date_modified": "2025-03-14T19:02:08.039636+11:00"}, {"id": 81674, "name": "Bill Scholer", "roles_in_work": [{"id": 2752794, "title": "Aussie assault", "work_id": 98461, "role": "co-producer", "role_id": 915, "is_primary": true}], "also_known_as": "", "date_of_birth": "", "date_of_death": "", "genders": [], "languages": [], "places_of_operation": [], "biography": "", "biography_author": null, "date_of_biography": "2023-05-09T12:35:08.233338+10:00", "external_links": [], "uuid": "c7f5e330-7054-47f3-a163-e94ed4157a0f", "source": {"name": "Vernon", "slug": "vernon"}, "source_identifier": "16003", "external_references": [{"id": 43247, "source": {"name": "Wikidata", "slug": "wikidata"}, "source_identifier": "Q121126044"}], "date_modified": "2025-03-13T01:11:49.928083+11:00"}, {"id": 81673, "name": "Garry Holt", "roles_in_work": [{"id": 2752793, "title": "Aussie assault", "work_id": 98461, "role": "co-producer", "role_id": 915, "is_primary": true}], "also_known_as": "", "date_of_birth": "", "date_of_death": "", "genders": [], "languages": [], "places_of_operation": [], "biography": "", "biography_author": null, "date_of_biography": "2023-05-09T12:35:07.957529+10:00", "external_links": [], "uuid": "59342e81-45fd-4561-a5c1-668583745842", "source": {"name": "Vernon", "slug": "vernon"}, "source_identifier": "19370", "external_references": [{"id": 40430, "source": {"name": "Wikidata", "slug": "wikidata"}, "source_identifier": "Q121036309"}], "date_modified": "2025-03-13T01:11:49.335528+11:00"}, {"id": 81672, "name": "Ron Rowe", "roles_in_work": [{"id": 2752782, "title": "Education: where do we go from here?", "work_id": 98454, "role": "producer/director", "role_id": 31, "is_primary": true}], "also_known_as": "", "date_of_birth": "", "date_of_death": "", "genders": [], "languages": [], "places_of_operation": [], "biography": "", "biography_author": null, "date_of_biography": "2023-05-09T15:52:51.491766+10:00", "external_links": [], "uuid": "cba9fb9c-92a3-44ac-8952-e723f27ac139", "source": {"name": "Vernon", "slug": "vernon"}, "source_identifier": "28170", "external_references": [{"id": 52022, "source": {"name": "Wikidata", "slug": "wikidata"}, "source_identifier": "Q121361342"}], "date_modified": "2025-03-13T01:11:41.063441+11:00"}, {"id": 81671, "name": "Louise Janas", "roles_in_work": [{"id": 2752773, "title": "Dysphasic school children", "work_id": 98450, "role": "producer/director", "role_id": 31, "is_primary": true}], "also_known_as": "", "date_of_birth": "", "date_of_death": "", "genders": [], "languages": [], "places_of_operation": [], "biography": "", "biography_author": null, "date_of_biography": "2023-05-09T15:48:06.554435+10:00", "external_links": [], "uuid": "93724cdd-16fb-426a-889f-7fab133b73b3", "source": {"name": "Vernon", "slug": "vernon"}, "source_identifier": "24044", "external_references": [{"id": 51316, "source": {"name": "Wikidata", "slug": "wikidata"}, "source_identifier": "Q121360935"}], "date_modified": "2025-03-13T01:11:32.192648+11:00"}, {"id": 81670, "name": "Tom Chen", "roles_in_work": [{"id": 2752760, "title": "Drink-driving education", "work_id": 98442, "role": "co-director", "role_id": 959, "is_primary": true}], "also_known_as": "", "date_of_birth": "", "date_of_death": "", "genders": [], "languages": [], "places_of_operation": [], "biography": "", "biography_author": null, "date_of_biography": "2023-05-09T15:46:27.997771+10:00", "external_links": [], "uuid": "5b0a2003-bb14-40b1-8ec8-9b4ff0e4e747", "source": {"name": "Vernon", "slug": "vernon"}, "source_identifier": "29817", "external_references": [{"id": 42514, "source": {"name": "Wikidata", "slug": "wikidata"}, "source_identifier": "Q121036334"}], "date_modified": "2025-03-13T01:11:22.835678+11:00"}]}