{"count": 28687, "next": "https://api.acmi.net.au/creators/?page=412", "previous": "https://api.acmi.net.au/creators/?page=410", "results": [{"id": 81473, "name": "Fritz Rolano", "roles_in_work": [{"id": 2749315, "title": "The Making of the President, 1968", "work_id": 96737, "role": "co-director", "role_id": 959, "is_primary": true}], "also_known_as": "", "date_of_birth": null, "date_of_death": null, "genders": [], "languages": [], "places_of_operation": [], "biography": "", "biography_author": null, "date_of_biography": null, "external_links": [], "uuid": "667b28f4-f9eb-42fb-a82e-477684825354", "source": {"name": "Vernon", "slug": "vernon"}, "source_identifier": "19299", "external_references": [{"id": 34326, "source": {"name": "Wikidata", "slug": "wikidata"}, "source_identifier": "Q121222611"}], "date_modified": "2025-03-12T23:57:09.720122+11:00"}, {"id": 81472, "name": "Robert Abel", "roles_in_work": [{"id": 2753624, "title": "Elvis on tour", "work_id": 98852, "role": "director", "role_id": 938, "is_primary": true}, {"id": 2749314, "title": "The Making of the President, 1968", "work_id": 96737, "role": "co-director", "role_id": 959, "is_primary": true}], "also_known_as": "", "date_of_birth": "10 MAR 1937", "date_of_death": "23 SEP 2001", "genders": [{"id": 9, "name": "Male", "slug": "male"}], "languages": [], "places_of_operation": [{"id": 1, "name": "United States of America", "slug": "united-states-of-america"}], "biography": "Robert Abel (March 10, 1937 – September 23, 2001) was an American pioneer in visual effects, computer animation and interactive media, best known for the work of his company, Robert Abel and Associates.\n\nBorn in Cleveland, he received degrees in Design and Film from UCLA. He began his work in computer graphics in the 1950s, as an apprentice to John Whitney.In the 1960s and early 1970s, Abel wrote or directed several films, including The Making of the President, 1968, Elvis on Tour and Let the Good Times Roll.\n\nIn 1971, Abel and Con Pederson founded Robert Abel and Associates (RA&A), creating slit-scan effects and using motion-controlled cameras for television commercials and films. RA&A began using Evans & Sutherland computers to previsualize their effects; this led to the creation of the trailer for The Black Hole, and the development of their own software for digitally animating films (including Tron).Abel and Associates was contracted to provide Paramount Pictures the special effects for Star Trek: The Motion Picture, but was not able to deliver them, and was taken off the film.In 1984, Robert Abel and Associates produced a commercial named Brilliance for the Canned Food Information Council for airing during the Super Bowl XIX telecast. It featured a sexy robot with reflective environment mapping and human-like motion.Abel & Associates closed in 1987 following an ill-fated merger with now defunct Omnibus Computer Graphics, Inc., a company which had been based in Toronto.\n\nIn the 1990s, Abel founded Synapse Technologies, an early interactive media company, which produced pioneering educational projects for IBM, including \"Columbus: Discovery, Encounter and Beyond\" and \"Evolution/Revolution: The World from 1890-1930\".\n\nHe received numerous honors, including a Golden Globe Award (for Elvis on Tour), 2 Emmy Awards, and 33 Clios.\n\nAbel died from complications following a myocardial infarction at the age of 64.Abel's film By the Sea, made with Pat O'Neill, was preserved by the Academy Film Archive in 2007. Source: Wikidata; 01/08/2023", "biography_author": null, "date_of_biography": "2025-03-13T01:30:01.824106+11:00", "external_links": [{"id": 5004, "uri": "https://en.wikipedia.org/wiki/Robert_Abel_(animator)"}], "uuid": "53691e76-0a92-4c58-a05e-a2747c4c2960", "source": {"name": "Vernon", "slug": "vernon"}, "source_identifier": "27627", "external_references": [{"id": 25779, "source": {"name": "Wikidata", "slug": "wikidata"}, "source_identifier": "Q7341326"}, {"id": 31120, "source": {"name": "VIAF", "slug": "viaf"}, "source_identifier": "53276971"}, {"id": 31121, "source": {"name": "LOC Auth", "slug": "loc-auth"}, "source_identifier": "n89104404"}, {"id": 31122, "source": {"name": "WorldCat", "slug": "worldcat"}, "source_identifier": "lccn-n89104404"}], "date_modified": "2025-03-13T01:30:01.824304+11:00"}, {"id": 81471, "name": "Yasuaki Okada", "roles_in_work": [{"id": 2749281, "title": "Pasteur's experiments", "work_id": 96724, "role": "co-producer", "role_id": 915, "is_primary": true}], "also_known_as": "", "date_of_birth": "", "date_of_death": "", "genders": [], "languages": [], "places_of_operation": [], "biography": "", "biography_author": null, "date_of_biography": "2023-05-09T15:07:04.111371+10:00", "external_links": [], "uuid": "49acabdf-1efe-4d1a-806c-ba41dda6b4c0", "source": {"name": "Vernon", "slug": "vernon"}, "source_identifier": "30571", "external_references": [{"id": 42660, "source": {"name": "Wikidata", "slug": "wikidata"}, "source_identifier": "Q121143862"}], "date_modified": "2025-03-12T23:56:49.042182+11:00"}, {"id": 81470, "name": "Phil Tucker", "roles_in_work": [{"id": 2305078, "title": "Solo: behind the scenes", "work_id": 96718, "role": "co-producer", "role_id": 915, "is_primary": true}], "also_known_as": "", "date_of_birth": "", "date_of_death": "", "genders": [], "languages": [], "places_of_operation": [], "biography": "", "biography_author": null, "date_of_biography": "2023-05-09T18:43:43.997351+10:00", "external_links": [], "uuid": "a89d5f84-bbf0-408d-ad67-dd5e0beeb56c", "source": {"name": "Vernon", "slug": "vernon"}, "source_identifier": "26799", "external_references": [{"id": 41879, "source": {"name": "Wikidata", "slug": "wikidata"}, "source_identifier": "Q121036288"}], "date_modified": "2023-09-06T00:03:50.656178+10:00"}, {"id": 81469, "name": "Dotty Mandlin", "roles_in_work": [{"id": 2065076, "title": "60 second spot: the making of a television commercial", "work_id": 96717, "role": "co-producer", "role_id": 915, "is_primary": true}], "also_known_as": "", "date_of_birth": "", "date_of_death": "", "genders": [], "languages": [], "places_of_operation": [], "biography": "", "biography_author": null, "date_of_biography": "2023-05-09T11:21:44.371599+10:00", "external_links": [], "uuid": "9ee16e9c-1933-4c5f-8c30-9e194a7e40e9", "source": {"name": "Vernon", "slug": "vernon"}, "source_identifier": "4791", "external_references": [{"id": 37552, "source": {"name": "Wikidata", "slug": "wikidata"}, "source_identifier": "Q121126204"}], "date_modified": "2023-09-05T19:19:45.118391+10:00"}, {"id": 81468, "name": "David Kopp", "roles_in_work": [{"id": 2749214, "title": "White man's country", "work_id": 96692, "role": "co-director", "role_id": 959, "is_primary": true}], "also_known_as": "", "date_of_birth": "1939-09-24", "date_of_death": "2014-03-06", "genders": [{"id": 9, "name": "Male", "slug": "male"}], "languages": [{"id": 1, "name": "English", "slug": "english"}], "places_of_operation": [{"id": 1, "name": "United States of America", "slug": "united-states-of-america"}], "biography": "David Richard Koff (September 24, 1939 – March 6, 2014) was an American maker of documentary films, social activist, writer, researcher, and editor.  His interest in social and economic justice has shaped a career largely spent exploring human rights, colonialism, resistance movements, racism, labor unions, and the oppression and exploitation of undocumented workers in America. However, he veered from political concerns long enough to write and co-produce the film People of the Wind, for which, in 1976, he was nominated for an Academy Award for Best Feature Documentary.", "biography_author": "Wikidata", "date_of_biography": "2023-09-05T18:59:29.216846+10:00", "external_links": [{"id": 1894, "uri": "https://en.wikipedia.org/wiki/David_Koff"}], "uuid": "7f420087-118c-4b81-ae38-caa1ed9c29e6", "source": {"name": "Vernon", "slug": "vernon"}, "source_identifier": "17671", "external_references": [{"id": 8223, "source": {"name": "Wikidata", "slug": "wikidata"}, "source_identifier": "Q5236095"}, {"id": 8224, "source": {"name": "VIAF", "slug": "viaf"}, "source_identifier": "90769068"}, {"id": 8225, "source": {"name": "LOC Auth", "slug": "loc-auth"}, "source_identifier": "n89608723"}, {"id": 8226, "source": {"name": "WorldCat", "slug": "worldcat"}, "source_identifier": "lccn-n89608723"}], "date_modified": "2025-03-12T23:56:02.317466+11:00"}, {"id": 81467, "name": "Josef Albers", "roles_in_work": [{"id": 2719130, "title": "Study for Homage to the Square", "work_id": 120270, "role": "artist", "role_id": 505, "is_primary": true}, {"id": 2719133, "title": "Study for Homage to the Square: Beaming", "work_id": 120271, "role": "artist", "role_id": 505, "is_primary": true}, {"id": 2719137, "title": "Study for Homage to the Square: Beaming 1963 Study for Homage to the Square 1964 Oil paint on fibreboard", "work_id": 120269, "role": "artist", "role_id": 505, "is_primary": true}, {"id": 2718924, "title": "Study for Homage to the Square: Departing in Yellow", "work_id": 120278, "role": "artist", "role_id": 505, "is_primary": true}, {"id": 2749178, "title": "To open eyes", "work_id": 96677, "role": "artist", "role_id": 505, "is_primary": true}], "also_known_as": "", "date_of_birth": "1888", "date_of_death": "1976", "genders": [], "languages": [], "places_of_operation": [], "biography": "", "biography_author": null, "date_of_biography": "2023-05-09T19:04:41.270503+10:00", "external_links": [], "uuid": "334444d4-0135-4f67-a7fe-5110c0416ce6", "source": {"name": "Vernon", "slug": "vernon"}, "source_identifier": "31721", "external_references": [], "date_modified": "2025-03-12T23:55:26.220693+11:00"}, {"id": 81466, "name": "Vilhjalmur Knudsen", "roles_in_work": [{"id": 2241068, "title": "Fire on Heimaey", "work_id": 96675, "role": "co-producers/directors", "role_id": 628, "is_primary": true}], "also_known_as": "", "date_of_birth": "", "date_of_death": "", "genders": [], "languages": [], "places_of_operation": [], "biography": "", "biography_author": null, "date_of_biography": "2023-05-09T16:53:47.859875+10:00", "external_links": [], "uuid": "d67278d8-7d82-4a9f-9fc0-dae442aefaa4", "source": {"name": "Vernon", "slug": "vernon"}, "source_identifier": "30129", "external_references": [], "date_modified": "2023-06-14T16:33:30.576250+10:00"}, {"id": 81465, "name": "Ron Lea", "roles_in_work": [{"id": 2749154, "title": "Solar energy", "work_id": 96659, "role": "producer", "role_id": 1089, "is_primary": true}, {"id": 2750236, "title": "Energy", "work_id": 97204, "role": "producer", "role_id": 1089, "is_primary": true}, {"id": 2749152, "title": "Selective breeding", "work_id": 96658, "role": "producer", "role_id": 1089, "is_primary": true}, {"id": 2749147, "title": "Design for living", "work_id": 96655, "role": "producer", "role_id": 1089, "is_primary": true}], "also_known_as": "", "date_of_birth": "", "date_of_death": "", "genders": [], "languages": [], "places_of_operation": [], "biography": "", "biography_author": null, "date_of_biography": "2023-05-09T18:43:28.263152+10:00", "external_links": [], "uuid": "318386a6-33ae-418a-9770-02b26d9e809d", "source": {"name": "Vernon", "slug": "vernon"}, "source_identifier": "28153", "external_references": [], "date_modified": "2025-03-13T00:16:54.678218+11:00"}, {"id": 81464, "name": "Len Brown", "roles_in_work": [{"id": 2749141, "title": "Ghana: primary products", "work_id": 96653, "role": "producer", "role_id": 1089, "is_primary": true}, {"id": 2749139, "title": "Ghana: using what's around you", "work_id": 96652, "role": "producer", "role_id": 1089, "is_primary": true}, {"id": 2750216, "title": "Ghana: ways forward", "work_id": 97195, "role": "producer", "role_id": 1089, "is_primary": true}], "also_known_as": "", "date_of_birth": null, "date_of_death": null, "genders": [], "languages": [], "places_of_operation": [], "biography": "", "biography_author": null, "date_of_biography": null, "external_links": [], "uuid": "557c9090-b01f-41aa-bb88-53fc0a15b407", "source": {"name": "Vernon", "slug": "vernon"}, "source_identifier": "23663", "external_references": [{"id": 41727, "source": {"name": "Wikidata", "slug": "wikidata"}, "source_identifier": "Q121299033"}], "date_modified": "2025-03-13T00:16:40.617362+11:00"}]}