{"count": 28687, "next": "https://api.acmi.net.au/creators/?page=1403", "previous": "https://api.acmi.net.au/creators/?page=1401", "results": [{"id": 36930, "name": "Search Films", "roles_in_work": [{"id": 2349013, "title": "The Fog of war", "work_id": 94854, "role": "production company", "role_id": 941, "is_primary": true}], "also_known_as": "", "date_of_birth": "", "date_of_death": "", "genders": [], "languages": [], "places_of_operation": [], "biography": "", "biography_author": null, "date_of_biography": "2023-05-09T19:52:47.364130+10:00", "external_links": [], "uuid": "b54d8fd2-7aba-42f5-8e3f-a856631a86b9", "source": {"name": "Vernon", "slug": "vernon"}, "source_identifier": "12394", "external_references": [{"id": 41946, "source": {"name": "Wikidata", "slug": "wikidata"}, "source_identifier": "Q121315314"}], "date_modified": "2023-09-06T01:09:40.669459+10:00"}, {"id": 36911, "name": "Ventanarosa Productions", "roles_in_work": [{"id": 2476351, "title": "Frida", "work_id": 94846, "role": "production company", "role_id": 941, "is_primary": true}], "also_known_as": "", "date_of_birth": "", "date_of_death": "", "genders": [], "languages": [], "places_of_operation": [], "biography": "", "biography_author": null, "date_of_biography": "2023-08-17T15:35:35.489055+10:00", "external_links": [], "uuid": "31afa0e6-0ab9-4ca9-9a6f-4c663fa352cf", "source": {"name": "Vernon", "slug": "vernon"}, "source_identifier": "14017", "external_references": [], "date_modified": "2023-08-17T15:35:35.489342+10:00"}, {"id": 36906, "name": "Saticoy", "roles_in_work": [{"id": 2322118, "title": "Targets", "work_id": 94843, "role": "production company", "role_id": 941, "is_primary": true}], "also_known_as": "", "date_of_birth": "", "date_of_death": "", "genders": [], "languages": [], "places_of_operation": [], "biography": "", "biography_author": null, "date_of_biography": "2023-05-09T19:13:38.893410+10:00", "external_links": [], "uuid": "436eea45-d0e6-46ec-bdb2-b3cf7e3209d5", "source": {"name": "Vernon", "slug": "vernon"}, "source_identifier": "12299", "external_references": [{"id": 37750, "source": {"name": "Wikidata", "slug": "wikidata"}, "source_identifier": "Q121271509"}], "date_modified": "2023-09-06T01:06:53.697299+10:00"}, {"id": 36899, "name": "Silverstar Productions", "roles_in_work": [{"id": 2065116, "title": "9/11", "work_id": 94841, "role": "production company", "role_id": 941, "is_primary": true}], "also_known_as": "", "date_of_birth": "", "date_of_death": "", "genders": [], "languages": [], "places_of_operation": [], "biography": "", "biography_author": null, "date_of_biography": "2023-05-09T11:21:47.819512+10:00", "external_links": [], "uuid": "387923ec-91ab-4647-ab06-cd2c4f06a32c", "source": {"name": "Vernon", "slug": "vernon"}, "source_identifier": "12600", "external_references": [{"id": 32997, "source": {"name": "Wikidata", "slug": "wikidata"}, "source_identifier": "Q121091049"}], "date_modified": "2023-09-06T01:19:40.463615+10:00"}, {"id": 36898, "name": "Goldfish Pictures", "roles_in_work": [{"id": 2065114, "title": "9/11", "work_id": 94841, "role": "production company", "role_id": 941, "is_primary": true}], "also_known_as": "", "date_of_birth": "", "date_of_death": "", "genders": [], "languages": [], "places_of_operation": [], "biography": "", "biography_author": null, "date_of_biography": "2023-05-09T11:21:47.530046+10:00", "external_links": [], "uuid": "fbb38a28-cf1e-4133-b59b-08650866a4a3", "source": {"name": "Vernon", "slug": "vernon"}, "source_identifier": "8791", "external_references": [{"id": 33306, "source": {"name": "Wikidata", "slug": "wikidata"}, "source_identifier": "Q121143685"}], "date_modified": "2023-09-05T20:16:20.288933+10:00"}, {"id": 36895, "name": "Bruno Levy", "roles_in_work": [{"id": 1999904, "title": "The Spanish apartment = L'Auberge Espagnole", "work_id": 94839, "role": "producer", "role_id": 1089, "is_primary": true}], "also_known_as": "", "date_of_birth": "1979-08-03", "date_of_death": null, "genders": [{"id": 9, "name": "Male", "slug": "male"}], "languages": [{"id": 4, "name": "French", "slug": "french"}], "places_of_operation": [{"id": 17, "name": "France", "slug": "france"}], "biography": "Bruno Lévy (born 3 August 1979) is a French artist living in New York City. His artwork deals primarily with creating dynamic relationships between audio and video. He is best known for creating interactive video paintings and 3D video installations, as part of the new media collective SWEATSHOPPE, which he co-founded in 2009 with Blake Shaw. He has shot and directed music videos for bands such as The Walkmen and Modeselektor. In 2007, Bruno Levy shifted his focus to tattooing.", "biography_author": "Wikidata", "date_of_biography": "2023-08-01T14:17:54.056778+10:00", "external_links": [{"id": 3694, "uri": "https://en.wikipedia.org/wiki/Bruno_Levy"}], "uuid": "9ff0630b-5f8d-4988-9ec3-936966c7e57c", "source": {"name": "Vernon", "slug": "vernon"}, "source_identifier": "16346", "external_references": [{"id": 25063, "source": {"name": "Wikidata", "slug": "wikidata"}, "source_identifier": "Q15198545"}], "date_modified": "2023-09-13T12:28:34.951463+10:00"}, {"id": 36891, "name": "Colbalt Media Group", "roles_in_work": [{"id": 2476585, "title": "House of sand and fog", "work_id": 94838, "role": "production company", "role_id": 941, "is_primary": true}], "also_known_as": "", "date_of_birth": "", "date_of_death": "", "genders": [], "languages": [], "places_of_operation": [], "biography": "", "biography_author": null, "date_of_biography": "2023-08-17T15:38:32.382101+10:00", "external_links": [], "uuid": "6a971a4e-060f-4567-a076-ffa4b03b0d88", "source": {"name": "Vernon", "slug": "vernon"}, "source_identifier": "6872", "external_references": [], "date_modified": "2023-08-17T15:38:32.382313+10:00"}, {"id": 36889, "name": "Spellbound", "roles_in_work": [{"id": 2357931, "title": "The Koala brothers", "work_id": 94837, "role": "production company", "role_id": 941, "is_primary": true}], "also_known_as": "", "date_of_birth": "", "date_of_death": "", "genders": [], "languages": [], "places_of_operation": [], "biography": "", "biography_author": null, "date_of_biography": "2023-05-09T20:06:53.434968+10:00", "external_links": [], "uuid": "d145c045-30f5-4c59-8313-78598d419551", "source": {"name": "Vernon", "slug": "vernon"}, "source_identifier": "12850", "external_references": [{"id": 39212, "source": {"name": "Wikidata", "slug": "wikidata"}, "source_identifier": "Q121086162"}], "date_modified": "2023-09-06T01:24:57.133569+10:00"}, {"id": 36888, "name": "Famous Flying Films", "roles_in_work": [{"id": 2357929, "title": "The Koala brothers", "work_id": 94837, "role": "production company", "role_id": 941, "is_primary": true}], "also_known_as": "", "date_of_birth": "", "date_of_death": "", "genders": [], "languages": [], "places_of_operation": [], "biography": "", "biography_author": null, "date_of_biography": "2023-05-09T20:06:53.138501+10:00", "external_links": [], "uuid": "6dce1d90-8991-4336-ba24-6a5124dc5516", "source": {"name": "Vernon", "slug": "vernon"}, "source_identifier": "8096", "external_references": [{"id": 36690, "source": {"name": "Wikidata", "slug": "wikidata"}, "source_identifier": "Q121299464"}], "date_modified": "2023-09-05T19:40:02.418238+10:00"}, {"id": 36885, "name": "Crawfords Australia", "roles_in_work": [{"id": 2514674, "title": "Acropolis Now promotional coffee cup, saucer and side plate", "work_id": 107634, "role": "manufacturer", "role_id": 627, "is_primary": true}, {"id": 3090094, "title": "Acropolis Now promotional coffee cup, saucer and plate", "work_id": 120427, "role": "manufacturer", "role_id": 627, "is_primary": true}, {"id": 929369, "title": "The Saddle Club: friends forever", "work_id": 94863, "role": "production company", "role_id": 941, "is_primary": true}, {"id": 929362, "title": "The Saddle Club: horse crazy", "work_id": 94862, "role": "production company", "role_id": 941, "is_primary": true}, {"id": 916421, "title": "The Saddle Club: adventures at Pine Hollow [DVD]", "work_id": 94830, "role": "production company", "role_id": 941, "is_primary": true}], "also_known_as": "", "date_of_birth": "", "date_of_death": "", "genders": [], "languages": [], "places_of_operation": [], "biography": "", "biography_author": null, "date_of_biography": "2023-08-14T13:03:11.025227+10:00", "external_links": [], "uuid": "e816c8ec-45cf-4aa8-9c7e-c655f3f6e02e", "source": {"name": "Vernon", "slug": "vernon"}, "source_identifier": "7152", "external_references": [], "date_modified": "2025-03-17T11:08:05.321743+11:00"}]}