{"count": 28687, "next": "https://api.acmi.net.au/creators/?page=979", "previous": "https://api.acmi.net.au/creators/?page=977", "results": [{"id": 75802, "name": "Isabel Brenner", "roles_in_work": [{"id": 2168811, "title": "Jail", "work_id": 76685, "role": "co-producer", "role_id": 915, "is_primary": true}], "also_known_as": "", "date_of_birth": "", "date_of_death": "", "genders": [], "languages": [], "places_of_operation": [], "biography": "", "biography_author": null, "date_of_biography": "2023-05-09T14:31:10.349567+10:00", "external_links": [], "uuid": "26ea8f06-1613-447c-8180-6a9bdd5294d4", "source": {"name": "Vernon", "slug": "vernon"}, "source_identifier": "20900", "external_references": [{"id": 51283, "source": {"name": "Wikidata", "slug": "wikidata"}, "source_identifier": "Q121357625"}], "date_modified": "2023-09-05T20:51:27.690895+10:00"}, {"id": 75801, "name": "Robert Sdraulig", "roles_in_work": [{"id": 2223585, "title": "Experiment in romance", "work_id": 76682, "role": "producer/director", "role_id": 31, "is_primary": true}], "also_known_as": "", "date_of_birth": "", "date_of_death": "", "genders": [], "languages": [], "places_of_operation": [], "biography": "", "biography_author": null, "date_of_biography": "2023-05-09T16:23:05.301597+10:00", "external_links": [], "uuid": "0028bc06-1f52-4b08-b05b-335746a95dd7", "source": {"name": "Vernon", "slug": "vernon"}, "source_identifier": "27879", "external_references": [{"id": 52234, "source": {"name": "Wikidata", "slug": "wikidata"}, "source_identifier": "Q121361048"}], "date_modified": "2023-09-06T00:46:28.488451+10:00"}, {"id": 75800, "name": "Paul Goldman", "roles_in_work": [{"id": 2104661, "title": "Australian rules (A) [DVD]", "work_id": 94508, "role": "director", "role_id": 938, "is_primary": true}, {"id": 2647565, "title": "Dragon", "work_id": 76680, "role": "co-producer", "role_id": 915, "is_primary": true}, {"id": 2307719, "title": "Spectacle Director Showcase: Paul Goldman", "work_id": 117428, "role": "interviewee", "role_id": 496, "is_primary": false}], "also_known_as": "", "date_of_birth": "01 JAN 2000", "date_of_death": "", "genders": [{"id": 9, "name": "Male", "slug": "male"}], "languages": [], "places_of_operation": [{"id": 3, "name": "Australia", "slug": "australia"}], "biography": "Paul Goldman (born 1957) is an Australian film director, screenwriter and cinematographer.\n\nGoldman was born in Melbourne, Victoria, Australia, and studied at Swinburne Film and Television School.He was cinematographer on the 1988 film Ghosts... of the Civil Dead, co-written by Nick Cave and directed by John Hillcoat.He won the 2002 AACTA Award for Best Adapted Screenplay for Australian Rules, a film he also directed.\n\nApart from directing feature films and documentaries, Goldman has also directed music videos, including \"Nick the Stripper\" (1980) by The Birthday Party, and \"Better the Devil You Know\" (1990) by Kylie Minogue. He won the MTV Video Music Award for Best Male Video for directing Elvis Costello's \"Veronica\" (1989). Source: Wikidata; 01/08/2023", "biography_author": null, "date_of_biography": "2025-03-05T13:27:26.138511+11:00", "external_links": [{"id": 4835, "uri": "https://en.wikipedia.org/wiki/Paul_Goldman_(director)"}], "uuid": "30b122c2-101c-4689-bc24-7149633ccd9d", "source": {"name": "Vernon", "slug": "vernon"}, "source_identifier": "26230", "external_references": [{"id": 25033, "source": {"name": "Wikidata", "slug": "wikidata"}, "source_identifier": "Q2059818"}, {"id": 30670, "source": {"name": "VIAF", "slug": "viaf"}, "source_identifier": "5138963"}, {"id": 30671, "source": {"name": "WorldCat", "slug": "worldcat"}, "source_identifier": "viaf-5138963"}], "date_modified": "2025-03-05T13:27:26.138780+11:00"}, {"id": 75799, "name": "Harry Bardwell", "roles_in_work": [{"id": 2106242, "title": "Backs to the blast: an Australian nuclear story", "work_id": 76678, "role": "producer/director", "role_id": 31, "is_primary": true}, {"id": 2351970, "title": "The Great artesian basin", "work_id": 76918, "role": "script", "role_id": 962, "is_primary": false}], "also_known_as": "", "date_of_birth": "", "date_of_death": "", "genders": [], "languages": [], "places_of_operation": [], "biography": "", "biography_author": null, "date_of_biography": "2023-05-09T19:57:43.944266+10:00", "external_links": [], "uuid": "a7a1b487-48ce-425f-94e9-2e00c1eafb4b", "source": {"name": "Vernon", "slug": "vernon"}, "source_identifier": "20302", "external_references": [{"id": 51825, "source": {"name": "Wikidata", "slug": "wikidata"}, "source_identifier": "Q121360973"}], "date_modified": "2023-09-05T20:30:12.623458+10:00"}, {"id": 75798, "name": "Dept of Science and Technology", "roles_in_work": [{"id": 2647551, "title": "[Noise] = Hearing conservation", "work_id": 76660, "role": "production company", "role_id": 941, "is_primary": true}], "also_known_as": "", "date_of_birth": "", "date_of_death": "", "genders": [], "languages": [], "places_of_operation": [], "biography": "", "biography_author": null, "date_of_biography": "2023-05-09T10:54:56.897742+10:00", "external_links": [], "uuid": "2d6ca338-dc4d-49fc-b5f4-1dae98684c88", "source": {"name": "Vernon", "slug": "vernon"}, "source_identifier": "7513", "external_references": [{"id": 42944, "source": {"name": "Wikidata", "slug": "wikidata"}, "source_identifier": "Q121337443"}], "date_modified": "2025-03-05T13:27:17.194660+11:00"}, {"id": 75797, "name": "Doris Storm", "roles_in_work": [{"id": 897021, "title": "The Myths of shoplifting", "work_id": 76658, "role": "co-producer", "role_id": 915, "is_primary": true}], "also_known_as": "", "date_of_birth": null, "date_of_death": null, "genders": [], "languages": [], "places_of_operation": [], "biography": "", "biography_author": null, "date_of_biography": null, "external_links": [], "uuid": "0550698f-cafd-47be-833a-cba0797e8aaf", "source": {"name": "Vernon", "slug": "vernon"}, "source_identifier": null, "external_references": [{"id": 42704, "source": {"name": "Wikidata", "slug": "wikidata"}, "source_identifier": "Q121143939"}], "date_modified": "2023-09-05T19:19:12.032214+10:00"}, {"id": 75796, "name": "Jim Beattie", "roles_in_work": [{"id": 2100287, "title": "Art makes people", "work_id": 76640, "role": "composer", "role_id": 538, "is_primary": false}], "also_known_as": "", "date_of_birth": "", "date_of_death": "", "genders": [], "languages": [], "places_of_operation": [], "biography": "", "biography_author": null, "date_of_biography": "2023-05-09T12:29:52.969292+10:00", "external_links": [], "uuid": "3fb1ee39-4451-4ad5-a559-7bea8fc4596d", "source": {"name": "Vernon", "slug": "vernon"}, "source_identifier": "39000", "external_references": [], "date_modified": "2023-06-14T16:33:30.576250+10:00"}, {"id": 75795, "name": "Rona Saunders", "roles_in_work": [{"id": 2100282, "title": "Art makes people", "work_id": 76640, "role": "director", "role_id": 938, "is_primary": true}], "also_known_as": "", "date_of_birth": "", "date_of_death": "", "genders": [], "languages": [], "places_of_operation": [], "biography": "", "biography_author": null, "date_of_biography": "2023-05-09T12:29:52.732323+10:00", "external_links": [], "uuid": "d6a8ebdc-7a6a-4fcb-beb5-924a87eb866b", "source": {"name": "Vernon", "slug": "vernon"}, "source_identifier": "28184", "external_references": [], "date_modified": "2023-06-14T16:33:30.576250+10:00"}, {"id": 75794, "name": "Don Dennett", "roles_in_work": [{"id": 2180021, "title": "Otway countdown", "work_id": 76639, "role": "producer/director", "role_id": 31, "is_primary": true}], "also_known_as": "", "date_of_birth": "", "date_of_death": "", "genders": [], "languages": [], "places_of_operation": [], "biography": "", "biography_author": null, "date_of_biography": "2023-05-09T14:51:15.083520+10:00", "external_links": [], "uuid": "b37294f3-a2d7-4ca4-aa4a-7583d6dd139e", "source": {"name": "Vernon", "slug": "vernon"}, "source_identifier": "18200", "external_references": [{"id": 51178, "source": {"name": "Wikidata", "slug": "wikidata"}, "source_identifier": "Q121360910"}], "date_modified": "2023-09-05T19:14:44.652394+10:00"}, {"id": 75793, "name": "Commentator", "roles_in_work": [{"id": 2647544, "title": "A Matter of Chance Episode 1", "work_id": 76620, "role": "co-director", "role_id": 959, "is_primary": true}, {"id": 2071271, "title": "A Matter of Chance Episode 6", "work_id": 76624, "role": "co-director", "role_id": 959, "is_primary": true}, {"id": 2071256, "title": "A Matter of Chance Episode 3", "work_id": 76622, "role": "co-director", "role_id": 959, "is_primary": true}, {"id": 2071244, "title": "A Matter of Chance Episode 2", "work_id": 76621, "role": "co-director", "role_id": 959, "is_primary": true}, {"id": 2071261, "title": "A Matter of Chance Episode 5", "work_id": 76623, "role": "co-director", "role_id": 959, "is_primary": true}], "also_known_as": "", "date_of_birth": "", "date_of_death": "", "genders": [], "languages": [], "places_of_operation": [], "biography": "", "biography_author": null, "date_of_biography": "2023-05-09T11:33:25.679965+10:00", "external_links": [], "uuid": "1130c735-7f26-4b0c-a6b5-11582c7073b1", "source": {"name": "Vernon", "slug": "vernon"}, "source_identifier": "6928", "external_references": [{"id": 39404, "source": {"name": "Wikidata", "slug": "wikidata"}, "source_identifier": "Q121036869"}], "date_modified": "2025-03-05T13:27:12.957960+11:00"}]}