{"count": 28687, "next": "https://api.acmi.net.au/creators/?page=2405", "previous": "https://api.acmi.net.au/creators/?page=2403", "results": [{"id": 15112, "name": "Sol-Film", "roles_in_work": [{"id": 2714112, "title": "The Fortune in the forests", "work_id": 67751, "role": "production company", "role_id": 941, "is_primary": true}], "also_known_as": "", "date_of_birth": "", "date_of_death": "", "genders": [], "languages": [], "places_of_operation": [], "biography": "", "biography_author": null, "date_of_biography": "2023-08-14T11:12:10.255768+10:00", "external_links": [], "uuid": "0f3cb992-c173-4b16-ad65-135eb1648032", "source": {"name": "Vernon", "slug": "vernon"}, "source_identifier": "12732", "external_references": [], "date_modified": "2025-03-12T01:01:19.596069+11:00"}, {"id": 15111, "name": "Alasdair Clayre", "roles_in_work": [{"id": 2761112, "title": "Eating", "work_id": 78923, "role": "co-producer", "role_id": 915, "is_primary": true}, {"id": 2761183, "title": "Trading", "work_id": 78295, "role": "co-producer", "role_id": 915, "is_primary": true}, {"id": 2761175, "title": "Creating", "work_id": 78294, "role": "co-producer", "role_id": 915, "is_primary": true}, {"id": 2761165, "title": "Mediating", "work_id": 78293, "role": "co-producer", "role_id": 915, "is_primary": true}, {"id": 2761155, "title": "Understanding", "work_id": 78292, "role": "co-producer", "role_id": 915, "is_primary": true}, {"id": 2761143, "title": "Living", "work_id": 78291, "role": "co-producer", "role_id": 915, "is_primary": true}, {"id": 2761123, "title": "Correcting", "work_id": 78289, "role": "co-producer", "role_id": 915, "is_primary": true}, {"id": 2761134, "title": "Working", "work_id": 78290, "role": "co-producer", "role_id": 915, "is_primary": true}, {"id": 2761094, "title": "Remembering", "work_id": 78287, "role": "co-producer", "role_id": 915, "is_primary": true}, {"id": 2761103, "title": "Caring", "work_id": 78288, "role": "co-producer", "role_id": 915, "is_primary": true}, {"id": 1809880, "title": "The Right instrument?", "work_id": 72233, "role": "producer", "role_id": 1089, "is_primary": true}, {"id": 2714111, "title": "Forster and Lawrence", "work_id": 67750, "role": "producer", "role_id": 1089, "is_primary": true}, {"id": 1808164, "title": "The Novel and television", "work_id": 87682, "role": "producer", "role_id": 1089, "is_primary": true}, {"id": 859166, "title": "The Development of instruments and their music: a symphony is recorded", "work_id": 73432, "role": "producer/director", "role_id": 31, "is_primary": true}], "also_known_as": "", "date_of_birth": "", "date_of_death": "", "genders": [], "languages": [], "places_of_operation": [], "biography": "", "biography_author": null, "date_of_biography": "2023-05-09T17:07:06.020459+10:00", "external_links": [], "uuid": "b23b5d79-e356-4ea0-80b1-7c73b96d6b18", "source": {"name": "Vernon", "slug": "vernon"}, "source_identifier": "14819", "external_references": [], "date_modified": "2025-03-14T17:31:19.998648+11:00"}, {"id": 15108, "name": "Husmors Filmer", "roles_in_work": [{"id": 2715628, "title": "Homecraft in Sweden", "work_id": 68531, "role": "production company", "role_id": 941, "is_primary": true}, {"id": 2714096, "title": "Form for function (TEFC)", "work_id": 67743, "role": "production company", "role_id": 941, "is_primary": true}], "also_known_as": "", "date_of_birth": "", "date_of_death": "", "genders": [], "languages": [], "places_of_operation": [], "biography": "", "biography_author": null, "date_of_biography": "2023-08-11T16:44:38.682197+10:00", "external_links": [], "uuid": "9698d295-cb88-4d81-914f-eb0ce510f33b", "source": {"name": "Vernon", "slug": "vernon"}, "source_identifier": "4435", "external_references": [], "date_modified": "2025-03-12T01:38:07.429056+11:00"}, {"id": 15107, "name": "Erik Wernicke", "roles_in_work": [{"id": 2714095, "title": "Form + function (TEFC)", "work_id": 67742, "role": "director", "role_id": 938, "is_primary": true}], "also_known_as": "", "date_of_birth": "", "date_of_death": "", "genders": [], "languages": [], "places_of_operation": [], "biography": "", "biography_author": null, "date_of_biography": "2023-08-11T16:44:36.511172+10:00", "external_links": [], "uuid": "87fc49e1-1a51-4962-bc15-91e004597cc2", "source": {"name": "Vernon", "slug": "vernon"}, "source_identifier": "18852", "external_references": [], "date_modified": "2025-03-12T01:01:07.413345+11:00"}, {"id": 15106, "name": "Hans Ruths", "roles_in_work": [{"id": 2714094, "title": "Form + function (TEFC)", "work_id": 67742, "role": "producer", "role_id": 1089, "is_primary": true}], "also_known_as": "", "date_of_birth": "", "date_of_death": "", "genders": [], "languages": [], "places_of_operation": [], "biography": "", "biography_author": null, "date_of_biography": "2023-08-11T16:44:35.884472+10:00", "external_links": [], "uuid": "a68f4818-456e-4178-87a0-24510b4534b9", "source": {"name": "Vernon", "slug": "vernon"}, "source_identifier": "20232", "external_references": [], "date_modified": "2025-03-12T01:01:06.815716+11:00"}, {"id": 15105, "name": "Dido Films", "roles_in_work": [{"id": 2714093, "title": "Form + function (TEFC)", "work_id": 67742, "role": "production company", "role_id": 941, "is_primary": true}], "also_known_as": "", "date_of_birth": "", "date_of_death": "", "genders": [], "languages": [], "places_of_operation": [], "biography": "", "biography_author": null, "date_of_biography": "2023-08-11T16:44:35.236330+10:00", "external_links": [], "uuid": "c5404f65-06c5-4ecb-bb09-188b1b62bd10", "source": {"name": "Vernon", "slug": "vernon"}, "source_identifier": "7569", "external_references": [], "date_modified": "2025-03-12T01:01:03.216722+11:00"}, {"id": 15104, "name": "Radio Nederland", "roles_in_work": [{"id": 2714091, "title": "Give them a chance: forgotten refugees", "work_id": 67740, "role": "production company", "role_id": 941, "is_primary": true}], "also_known_as": "", "date_of_birth": "", "date_of_death": "", "genders": [], "languages": [], "places_of_operation": [], "biography": "", "biography_author": null, "date_of_biography": "2023-08-11T17:02:32.116581+10:00", "external_links": [], "uuid": "414be338-f89f-4c5e-a33c-05674d8d879d", "source": {"name": "Vernon", "slug": "vernon"}, "source_identifier": "11824", "external_references": [], "date_modified": "2025-03-12T01:01:01.557295+11:00"}, {"id": 15102, "name": "Barry Merton", "roles_in_work": [{"id": 857793, "title": "Rivers in steel", "work_id": 72274, "role": "director", "role_id": 938, "is_primary": true}, {"id": 864691, "title": "Port, power and people", "work_id": 78218, "role": "director", "role_id": 938, "is_primary": true}, {"id": 2714088, "title": "Forgotten people", "work_id": 67739, "role": "director", "role_id": 938, "is_primary": true}, {"id": 2645928, "title": "Passing Era of the Steam Horse", "work_id": 71380, "role": "producer", "role_id": 1089, "is_primary": true}, {"id": 1804462, "title": "Passing era of the steam horse [B&W]", "work_id": 86801, "role": "producer", "role_id": 1089, "is_primary": true}, {"id": 2714089, "title": "Forgotten people", "work_id": 67739, "role": "writer", "role_id": 939, "is_primary": true}], "also_known_as": "", "date_of_birth": "", "date_of_death": "", "genders": [], "languages": [], "places_of_operation": [], "biography": "", "biography_author": null, "date_of_biography": "2023-07-12T03:35:22.210449+10:00", "external_links": [], "uuid": "3bb54bfc-c26d-4002-98b5-c0f11f623d30", "source": {"name": "Vernon", "slug": "vernon"}, "source_identifier": "15726", "external_references": [{"id": 33970, "source": {"name": "Wikidata", "slug": "wikidata"}, "source_identifier": "Q121035467"}], "date_modified": "2025-03-12T01:00:57.844552+11:00"}, {"id": 15101, "name": "Mathias, Kenyon and Merton Pictures", "roles_in_work": [{"id": 857792, "title": "Rivers in steel", "work_id": 72274, "role": "production company", "role_id": 941, "is_primary": true}, {"id": 2715603, "title": "Holiday with a purpose", "work_id": 68517, "role": "production company", "role_id": 941, "is_primary": true}, {"id": 2714087, "title": "Forgotten people", "work_id": 67739, "role": "production company", "role_id": 941, "is_primary": true}], "also_known_as": "", "date_of_birth": "", "date_of_death": "", "genders": [], "languages": [], "places_of_operation": [], "biography": "", "biography_author": null, "date_of_biography": "2023-07-12T03:35:21.729439+10:00", "external_links": [], "uuid": "0f059984-3b39-433a-a1d1-cc5946e2e22a", "source": {"name": "Vernon", "slug": "vernon"}, "source_identifier": "10365", "external_references": [{"id": 43109, "source": {"name": "Wikidata", "slug": "wikidata"}, "source_identifier": "Q121086167"}], "date_modified": "2025-03-12T01:37:37.933063+11:00"}, {"id": 15100, "name": "Brian Kavanagh", "roles_in_work": [{"id": 772841, "title": "A City's child", "work_id": 80698, "role": "director", "role_id": 938, "is_primary": true}, {"id": 2199137, "title": "Double deal", "work_id": 80981, "role": "director", "role_id": 938, "is_primary": true}, {"id": 2199129, "title": "Double deal", "work_id": 80981, "role": "co-producer", "role_id": 915, "is_primary": true}, {"id": 2337301, "title": "The Chant of Jimmie Blacksmith", "work_id": 80727, "role": "editor", "role_id": 918, "is_primary": true}, {"id": 1903993, "title": "Wool: an exhibition of the Art Gallery of South Australia, Adelaide Festival of Arts, 1972", "work_id": 76763, "role": "producer", "role_id": 1089, "is_primary": true}, {"id": 853948, "title": "Joyful and triumphant", "work_id": 69300, "role": "producer/director", "role_id": 31, "is_primary": true}, {"id": 2644857, "title": "Forgotten loneliness", "work_id": 67738, "role": "sound", "role_id": 952, "is_primary": false}], "also_known_as": "", "date_of_birth": "01 JAN 1935", "date_of_death": "", "genders": [{"id": 9, "name": "Male", "slug": "male"}], "languages": [], "places_of_operation": [{"id": 3, "name": "Australia", "slug": "australia"}], "biography": "Brian Kavanagh (born 1935) is an Australian author, editor, writer, producer, and director of films and documentaries. As a film editor, he is known for his collaborative works with Fred Schepisi and Murray Fahey. In 1986, he was honored with the Australia Film Institute Award for Best Achievement in Editing, for his work on Frog Dreaming. In 1997, he was awarded a lifetime membership of Australian Screen Editors. Source: Wikidata; 01/08/2023", "biography_author": null, "date_of_biography": "2025-03-05T12:27:04.157818+11:00", "external_links": [{"id": 3676, "uri": "https://en.wikipedia.org/wiki/Brian_Kavanagh_(filmmaker)"}], "uuid": "4c0b56f0-ecc2-498c-8907-e071d37d803e", "source": {"name": "Vernon", "slug": "vernon"}, "source_identifier": "16229", "external_references": [{"id": 25501, "source": {"name": "Wikidata", "slug": "wikidata"}, "source_identifier": "Q4964286"}, {"id": 27588, "source": {"name": "VIAF", "slug": "viaf"}, "source_identifier": "5498157040173967040007"}, {"id": 27589, "source": {"name": "WorldCat", "slug": "worldcat"}, "source_identifier": "lccn-no2019144543"}], "date_modified": "2025-03-05T12:27:04.158516+11:00"}]}