{"count": 28687, "next": "https://api.acmi.net.au/creators/?page=1173", "previous": "https://api.acmi.net.au/creators/?page=1171", "results": [{"id": 73647, "name": "Mark Eden", "roles_in_work": [{"id": 2676373, "title": "Kissing Mark", "work_id": 109862, "role": "sound", "role_id": 952, "is_primary": false}, {"id": 2676378, "title": "Passing through", "work_id": 109874, "role": "sound", "role_id": 952, "is_primary": false}, {"id": 2676382, "title": "Resonate", "work_id": 109870, "role": "sound", "role_id": 952, "is_primary": false}, {"id": 2676386, "title": "Three studies for a portrait. No. 1. Yesterday", "work_id": 109867, "role": "sound", "role_id": 952, "is_primary": false}, {"id": 2676391, "title": "Three studies for a portrait. No. 2. Today", "work_id": 109868, "role": "sound", "role_id": 952, "is_primary": false}, {"id": 2676394, "title": "Three studies for a portrait. No. 3. Tomorrow", "work_id": 109869, "role": "sound", "role_id": 952, "is_primary": false}, {"id": 2676400, "title": "Wounded", "work_id": 109861, "role": "sound", "role_id": 952, "is_primary": false}, {"id": 2676334, "title": "Tina Gonsalves. Animation video 1999-2001", "work_id": 109860, "role": "sound", "role_id": 952, "is_primary": false}, {"id": 2676338, "title": "Boxing fragments", "work_id": 109872, "role": "sound", "role_id": 952, "is_primary": false}, {"id": 2676342, "title": "Convergence", "work_id": 109871, "role": "sound", "role_id": 952, "is_primary": false}, {"id": 2676346, "title": "Deeper", "work_id": 109865, "role": "sound", "role_id": 952, "is_primary": false}, {"id": 2676350, "title": "Dissect", "work_id": 109866, "role": "sound", "role_id": 952, "is_primary": false}, {"id": 2676354, "title": "Emerge", "work_id": 109863, "role": "sound", "role_id": 952, "is_primary": false}, {"id": 2676359, "title": "Erosion", "work_id": 109873, "role": "sound", "role_id": 952, "is_primary": false}, {"id": 2676364, "title": "Hollow", "work_id": 109864, "role": "sound", "role_id": 952, "is_primary": false}, {"id": 2676368, "title": "I don't know you", "work_id": 109859, "role": "sound", "role_id": 952, "is_primary": false}], "also_known_as": "", "date_of_birth": "", "date_of_death": "", "genders": [], "languages": [], "places_of_operation": [], "biography": "", "biography_author": null, "date_of_biography": "2023-05-09T17:08:34.324534+10:00", "external_links": [], "uuid": "b4947d05-e085-4d46-ac24-2c33b95e7f2d", "source": {"name": "Vernon", "slug": "vernon"}, "source_identifier": "2505", "external_references": [], "date_modified": "2025-03-06T23:05:16.519356+11:00"}, {"id": 73646, "name": "Ben Forster", "roles_in_work": [{"id": 2637579, "title": "Reasons for optimism", "work_id": 109806, "role": "creator", "role_id": 968, "is_primary": true}], "also_known_as": "", "date_of_birth": "", "date_of_death": "", "genders": [{"id": 9, "name": "Male", "slug": "male"}], "languages": [], "places_of_operation": [], "biography": "", "biography_author": null, "date_of_biography": "2023-05-09T16:51:01.576015+10:00", "external_links": [], "uuid": "084d8d3e-91cf-4659-966a-70dd23e51f05", "source": {"name": "Vernon", "slug": "vernon"}, "source_identifier": "2454", "external_references": [], "date_modified": "2025-03-05T10:49:09.691258+11:00"}, {"id": 73645, "name": "Breast Cancer Network of Australia", "roles_in_work": [{"id": 2637578, "title": "Journeys with breast cancer", "work_id": 109805, "role": "funding", "role_id": 609, "is_primary": false}], "also_known_as": "", "date_of_birth": "", "date_of_death": "", "genders": [], "languages": [], "places_of_operation": [], "biography": "", "biography_author": null, "date_of_biography": "2023-05-09T16:51:05.225945+10:00", "external_links": [], "uuid": "7e3ac28f-4283-4d34-a0c4-95cc3e9a1c9c", "source": {"name": "Vernon", "slug": "vernon"}, "source_identifier": "2453", "external_references": [], "date_modified": "2025-03-05T10:49:08.439780+11:00"}, {"id": 73644, "name": "Sharna Hackett", "roles_in_work": [{"id": 2637126, "title": "Triangle", "work_id": 109799, "role": "animator", "role_id": 497, "is_primary": false}], "also_known_as": "", "date_of_birth": "", "date_of_death": "", "genders": [], "languages": [], "places_of_operation": [], "biography": "", "biography_author": null, "date_of_biography": "2023-05-09T17:13:55.626936+10:00", "external_links": [], "uuid": "d3ba9371-245c-4c02-89aa-90cf7f39069a", "source": {"name": "Vernon", "slug": "vernon"}, "source_identifier": "2415", "external_references": [], "date_modified": "2025-03-05T10:43:19.442169+11:00"}, {"id": 73643, "name": "Stefan Duscio", "roles_in_work": [{"id": 2637102, "title": "Perfume", "work_id": 109793, "role": "animator", "role_id": 497, "is_primary": false}], "also_known_as": "", "date_of_birth": "", "date_of_death": "", "genders": [], "languages": [], "places_of_operation": [], "biography": "", "biography_author": null, "date_of_biography": "2023-05-09T17:13:50.744909+10:00", "external_links": [], "uuid": "26534fd4-e105-43ba-8767-9f33459b1484", "source": {"name": "Vernon", "slug": "vernon"}, "source_identifier": "2408", "external_references": [], "date_modified": "2025-03-05T10:43:10.228805+11:00"}, {"id": 73642, "name": "Bec Charlesworth", "roles_in_work": [{"id": 2637094, "title": "Manogigantism", "work_id": 109789, "role": "animator", "role_id": 497, "is_primary": false}], "also_known_as": "", "date_of_birth": "", "date_of_death": "", "genders": [], "languages": [], "places_of_operation": [], "biography": "", "biography_author": null, "date_of_biography": "2023-05-09T17:13:49.041947+10:00", "external_links": [], "uuid": "848584a6-fdad-46b2-9097-76a42d886410", "source": {"name": "Vernon", "slug": "vernon"}, "source_identifier": "2405", "external_references": [], "date_modified": "2025-03-05T10:43:07.240006+11:00"}, {"id": 73641, "name": "Antuong Nguyen", "roles_in_work": [{"id": 2637134, "title": "Autowash", "work_id": 109783, "role": "", "role_id": 604, "is_primary": false}], "also_known_as": "", "date_of_birth": "", "date_of_death": "", "genders": [], "languages": [], "places_of_operation": [], "biography": "", "biography_author": null, "date_of_biography": "2023-05-09T18:59:46.959854+10:00", "external_links": [], "uuid": "6d387a0f-2426-4ac1-8262-a584b558e514", "source": {"name": "Vernon", "slug": "vernon"}, "source_identifier": "2401", "external_references": [], "date_modified": "2025-03-05T10:43:25.446402+11:00"}, {"id": 73640, "name": "Paul Andrew", "roles_in_work": [{"id": 2637564, "title": "The Man in the irony mask", "work_id": 109771, "role": "director", "role_id": 938, "is_primary": true}, {"id": 2637563, "title": "The Man in the irony mask", "work_id": 109771, "role": "producer", "role_id": 1089, "is_primary": true}, {"id": 2637565, "title": "The Man in the irony mask", "work_id": 109771, "role": "writer", "role_id": 939, "is_primary": true}], "also_known_as": "", "date_of_birth": null, "date_of_death": null, "genders": [], "languages": [], "places_of_operation": [], "biography": "", "biography_author": null, "date_of_biography": null, "external_links": [], "uuid": "82919fbb-e37e-4552-93cf-3dc97e67a7b1", "source": {"name": "Vernon", "slug": "vernon"}, "source_identifier": "2388", "external_references": [{"id": 35068, "source": {"name": "Wikidata", "slug": "wikidata"}, "source_identifier": "Q121314966"}], "date_modified": "2025-03-05T10:48:53.731930+11:00"}, {"id": 73639, "name": "Diploma of Multimedia, Swinburne University of Technology (TAFE Division)", "roles_in_work": [{"id": 2637551, "title": "In the Mind's Eye", "work_id": 109770, "role": "production facilities", "role_id": 442, "is_primary": false}], "also_known_as": "", "date_of_birth": "", "date_of_death": "", "genders": [], "languages": [], "places_of_operation": [], "biography": "", "biography_author": null, "date_of_biography": "2023-08-11T18:22:43.979559+10:00", "external_links": [], "uuid": "f957577f-e8c3-438d-bf7b-7c62ce068a99", "source": {"name": "Vernon", "slug": "vernon"}, "source_identifier": "2387", "external_references": [], "date_modified": "2025-03-05T10:48:38.160207+11:00"}, {"id": 73638, "name": "Marieka Walsh", "roles_in_work": [{"id": 2637470, "title": "Mary", "work_id": 109743, "role": "animator", "role_id": 497, "is_primary": false}], "also_known_as": "", "date_of_birth": "", "date_of_death": "", "genders": [], "languages": [], "places_of_operation": [], "biography": "", "biography_author": null, "date_of_biography": "2023-05-09T14:12:08.945469+10:00", "external_links": [], "uuid": "173cfd61-9c41-4f9d-8e98-35ffd396cfed", "source": {"name": "Vernon", "slug": "vernon"}, "source_identifier": "2360", "external_references": [], "date_modified": "2025-03-05T10:47:15.274638+11:00"}]}