{"count": 28682, "next": "https://api.acmi.net.au/creators/?page=1463", "previous": "https://api.acmi.net.au/creators/?page=1461", "results": [{"id": 35148, "name": "Bimal Roy Productions", "roles_in_work": [{"id": 2188767, "title": "Devdas", "work_id": 93417, "role": "production company", "role_id": 941, "is_primary": true}], "also_known_as": "", "date_of_birth": "", "date_of_death": "", "genders": [], "languages": [], "places_of_operation": [], "biography": "", "biography_author": null, "date_of_biography": "2023-05-09T15:05:22.426447+10:00", "external_links": [], "uuid": "ae1f0d3f-59aa-4f17-8f51-3ff38dc87023", "source": {"name": "Vernon", "slug": "vernon"}, "source_identifier": "5862", "external_references": [], "date_modified": "2023-06-14T16:33:30.576250+10:00"}, {"id": 35146, "name": "Chris Smith", "roles_in_work": [{"id": 2088463, "title": "American movie [NTSC]", "work_id": 93415, "role": "director", "role_id": 938, "is_primary": true}, {"id": 2088459, "title": "American movie [NTSC]", "work_id": 93415, "role": "co-producer", "role_id": 915, "is_primary": true}], "also_known_as": "", "date_of_birth": "1970-05-20", "date_of_death": "", "genders": [{"id": 9, "name": "Male", "slug": "male"}], "languages": [{"id": 1, "name": "English", "slug": "english"}], "places_of_operation": [{"id": 1, "name": "United States of America", "slug": "united-states-of-america"}], "biography": "Chris Smith (born 1970) is an American filmmaker. He directed American Movie, which was awarded the Grand Jury Prize for Documentary at the 1999 Sundance Film Festival.", "biography_author": "Wikidata", "date_of_biography": "2023-08-01T14:25:27.112040+10:00", "external_links": [{"id": 3758, "uri": "https://en.wikipedia.org/wiki/Chris_Smith_(filmmaker)"}], "uuid": "8359daf6-66a6-4244-92dc-e5dbc71dc7b7", "source": {"name": "Vernon", "slug": "vernon"}, "source_identifier": "16875", "external_references": [{"id": 25796, "source": {"name": "Wikidata", "slug": "wikidata"}, "source_identifier": "Q5108097"}, {"id": 27813, "source": {"name": "VIAF", "slug": "viaf"}, "source_identifier": "51234533"}, {"id": 27814, "source": {"name": "LOC Auth", "slug": "loc-auth"}, "source_identifier": "no00051321"}, {"id": 27815, "source": {"name": "WorldCat", "slug": "worldcat"}, "source_identifier": "lccn-no00051321"}], "date_modified": "2023-09-05T18:33:16.250344+10:00"}, {"id": 35145, "name": "Northwestern Movie Company", "roles_in_work": [{"id": 2088455, "title": "American movie [NTSC]", "work_id": 93415, "role": "production company", "role_id": 941, "is_primary": true}], "also_known_as": "", "date_of_birth": "", "date_of_death": "", "genders": [], "languages": [], "places_of_operation": [], "biography": "", "biography_author": null, "date_of_biography": "2023-05-09T12:00:43.238460+10:00", "external_links": [], "uuid": "e4476f3a-b88a-44bb-a54f-dc915187cf81", "source": {"name": "Vernon", "slug": "vernon"}, "source_identifier": "11009", "external_references": [{"id": 43441, "source": {"name": "Wikidata", "slug": "wikidata"}, "source_identifier": "Q121058112"}], "date_modified": "2023-09-05T23:35:00.368119+10:00"}, {"id": 35133, "name": "Dariush Mehrjui", "roles_in_work": [{"id": 913618, "title": "Leila [NTSC]", "work_id": 93410, "role": "director", "role_id": 938, "is_primary": true}, {"id": 913616, "title": "Leila [NTSC]", "work_id": 93410, "role": "co-producer", "role_id": 915, "is_primary": true}], "also_known_as": "", "date_of_birth": "1939-12-08", "date_of_death": null, "genders": [{"id": 9, "name": "Male", "slug": "male"}], "languages": [{"id": 26, "name": "Persian", "slug": "persian"}], "places_of_operation": [{"id": 258, "name": "Iran", "slug": "iran"}], "biography": "Dariush Mehrjui (Persian: داریوش مهرجویی; born December 8, 1939, also spelled as Mehrjouyi) is an Iranian filmmaker.\nHe is a member of the Iranian Academy of the Arts.Mehrjui was a founding member of the Iranian New Wave movement of the early 1970s. His second film, Gaav, is considered to be the first film of this movement, which also included Masoud Kimiai and Nasser Taqvai. Most of his films are inspired by literature and adapted from Iranian and foreign novels and plays.", "biography_author": "Wikidata", "date_of_biography": "2023-08-01T14:32:53.797707+10:00", "external_links": [{"id": 3823, "uri": "https://en.wikipedia.org/wiki/Dariush_Mehrjui"}], "uuid": "4a51a746-037c-47bf-b144-2880c645c957", "source": {"name": "Vernon", "slug": "vernon"}, "source_identifier": "17436", "external_references": [{"id": 25093, "source": {"name": "Wikidata", "slug": "wikidata"}, "source_identifier": "Q1166019"}, {"id": 28001, "source": {"name": "VIAF", "slug": "viaf"}, "source_identifier": "2065256"}, {"id": 28002, "source": {"name": "LOC Auth", "slug": "loc-auth"}, "source_identifier": "no96063538"}, {"id": 28003, "source": {"name": "WorldCat", "slug": "worldcat"}, "source_identifier": "viaf-2065256"}], "date_modified": "2023-09-13T12:28:55.184717+10:00"}, {"id": 35132, "name": "Ashutosh Gowariker", "roles_in_work": [{"id": 815388, "title": "Lagaan: Once upon a time in India [NTSC]", "work_id": 93409, "role": "director", "role_id": 938, "is_primary": true}], "also_known_as": "", "date_of_birth": "1964-02-15", "date_of_death": null, "genders": [{"id": 9, "name": "Male", "slug": "male"}], "languages": [{"id": 40, "name": "Hindi", "slug": "hindi"}], "places_of_operation": [{"id": 50, "name": "India", "slug": "india"}], "biography": "Ashutosh Gowariker (born 15 February 1964) is an Indian film director, actor, screenwriter and producer who works in Hindi cinema. He is known for directing films \"set on a huge canvas while boasting of an opulent treatment\".He is particularly known for Lagaan (2001), Swades (2004), Jodhaa Akbar (2008), and Mohenjo Daro (2016).\nHis film Lagaan was nominated in the Best Foreign Language Film category in 74th Academy Awards, which makes him a voting member of the Academy Awards. He returned to acting by playing the lead role in the critically acclaimed comedy drama Ventilator (2016).", "biography_author": "Wikidata", "date_of_biography": "2023-08-01T14:07:35.280538+10:00", "external_links": [{"id": 3597, "uri": "https://en.wikipedia.org/wiki/Ashutosh_Gowariker"}], "uuid": "ad3231e0-ca36-4421-8ab6-8ec9e2fd7f8c", "source": {"name": "Vernon", "slug": "vernon"}, "source_identifier": "15577", "external_references": [{"id": 26282, "source": {"name": "Wikidata", "slug": "wikidata"}, "source_identifier": "Q281249"}, {"id": 27381, "source": {"name": "VIAF", "slug": "viaf"}, "source_identifier": "194906851"}, {"id": 27382, "source": {"name": "LOC Auth", "slug": "loc-auth"}, "source_identifier": "no96009510"}, {"id": 27383, "source": {"name": "WorldCat", "slug": "worldcat"}, "source_identifier": "lccn-no96009510"}], "date_modified": "2023-09-13T12:28:20.246352+10:00"}, {"id": 35131, "name": "Aamir Khan", "roles_in_work": [{"id": 1816305, "title": "Lagaan: Once upon a time in India [NTSC]", "work_id": 93409, "role": "producer", "role_id": 1089, "is_primary": true}], "also_known_as": "", "date_of_birth": "1965-03-14", "date_of_death": null, "genders": [{"id": 9, "name": "Male", "slug": "male"}], "languages": [{"id": 1, "name": "English", "slug": "english"}, {"id": 40, "name": "Hindi", "slug": "hindi"}, {"id": 75, "name": "Urdu", "slug": "urdu"}], "places_of_operation": [{"id": 50, "name": "India", "slug": "india"}], "biography": "Mohammed Aamir Hussain Khan (pronounced [ˈaːmɪr xaːn]; born 14 March 1965) is an Indian actor who works in Hindi films. Referred to in the media as \"Mr. Perfectionist\", through his career spanning over 30 years, Khan has established himself as one of the most notable actors of Indian cinema. Khan is the recipient of numerous awards, including nine Filmfare Awards, four National Film Awards, and an AACTA Award, with one of his film productions also receiving an Academy Award nomination. He was honoured by the Government of India with the Padma Shri in 2003 and the Padma Bhushan in 2010, and received an honorary title from the Government of China in 2017.Aamir Khan first appeared on screen as a child actor in his uncle Nasir Hussain's film Yaadon Ki Baaraat (1973). As an adult, his first feature film role was in Holi (1984). He began a full-time acting career with a leading role in Qayamat Se Qayamat Tak (1988). His performance in Raakh (1989) earned him a National Film Award in the Special Mention category. He established himself as a leading actor in the 1990s by appearing in a number of commercially successful films, including Dil (1990), Raja Hindustani (1996) for which he won his first Filmfare Award for Best Actor, and Sarfarosh (1999).In 1999, he founded Aamir Khan Productions, whose first film, Lagaan (2001), was nominated for the Academy Award for Best Foreign Language Film, and earned him a National Film Award for Best Popular Film and two more Filmfare Awards (Best Actor and Best Film). His performance in Dil Chahta Hai (2001) also received appreciation. After a four-year hiatus, Khan returned to appear in leading roles, notably in Fanaa (2006) and Rang De Basanti (2006). He made his directorial debut with Taare Zameen Par (2007), which won him the Filmfare Awards for Best Film and Best Director. Khan's biggest commercial successes came with Ghajini (2008), 3 Idiots (2009), Dhoom 3 (2013), PK (2014), and Dangal (2016), each having held the record for being the highest-grossing Indian film. Khan won his third Best Actor award at Filmfare for Dangal.He has a large following, especially in India and China, and has been described by Newsweek as \"the biggest movie star in the world\". He has been regularly listed among The 500 Most Influential Muslims of the world. He also created and hosted the television talk show Satyamev Jayate. His work as a social reformer earned him an appearance on the Time 100 list of most influential people in the world in 2013.", "biography_author": "Wikidata", "date_of_biography": "2023-08-01T13:53:27+10:00", "external_links": [{"id": 3484, "uri": "https://en.wikipedia.org/wiki/Aamir_Khan"}], "uuid": "ef1457f6-b2e2-4779-8287-58db44090889", "source": {"name": "Vernon", "slug": "vernon"}, "source_identifier": "14621", "external_references": [{"id": 26258, "source": {"name": "Wikidata", "slug": "wikidata"}, "source_identifier": "Q9557"}, {"id": 27083, "source": {"name": "VIAF", "slug": "viaf"}, "source_identifier": "74062260"}, {"id": 27084, "source": {"name": "LOC Auth", "slug": "loc-auth"}, "source_identifier": "no96009501"}, {"id": 27085, "source": {"name": "WorldCat", "slug": "worldcat"}, "source_identifier": "lccn-no96009501"}], "date_modified": "2023-09-13T12:42:28.305483+10:00"}, {"id": 35125, "name": "Epoch Producing Corporation", "roles_in_work": [{"id": 2332085, "title": "The Birth of a nation [DVD]", "work_id": 93401, "role": "production company", "role_id": 941, "is_primary": true}], "also_known_as": "", "date_of_birth": "", "date_of_death": "", "genders": [], "languages": [], "places_of_operation": [], "biography": "", "biography_author": null, "date_of_biography": "2023-05-09T19:27:05.325808+10:00", "external_links": [], "uuid": "31ec6043-dea0-4039-b315-e2a86a935fac", "source": {"name": "Vernon", "slug": "vernon"}, "source_identifier": "7935", "external_references": [{"id": 34145, "source": {"name": "Wikidata", "slug": "wikidata"}, "source_identifier": "Q121315429"}], "date_modified": "2023-09-05T19:33:45.647061+10:00"}, {"id": 35122, "name": "Image Ten", "roles_in_work": [{"id": 2153131, "title": "Night of the living dead (Special 30th anniversary ed.)", "work_id": 93396, "role": "production company", "role_id": 941, "is_primary": true}, {"id": 2156450, "title": "Night of the living dead (1968)", "work_id": 93407, "role": "production company", "role_id": 941, "is_primary": true}], "also_known_as": "", "date_of_birth": "", "date_of_death": "", "genders": [], "languages": [], "places_of_operation": [], "biography": "", "biography_author": null, "date_of_biography": "2023-05-09T14:05:38.964680+10:00", "external_links": [], "uuid": "9b275ecd-94f4-4816-a184-c555eea9fc65", "source": {"name": "Vernon", "slug": "vernon"}, "source_identifier": "9243", "external_references": [{"id": 37591, "source": {"name": "Wikidata", "slug": "wikidata"}, "source_identifier": "Q121034703"}], "date_modified": "2023-09-05T20:47:44.214583+10:00"}, {"id": 35118, "name": "Delca-Bioscop", "roles_in_work": [{"id": 2335351, "title": "The Cabinet of Dr Caligari [DVD]", "work_id": 93387, "role": "production company", "role_id": 941, "is_primary": true}], "also_known_as": "", "date_of_birth": "", "date_of_death": "", "genders": [], "languages": [], "places_of_operation": [], "biography": "", "biography_author": null, "date_of_biography": "2023-05-09T19:31:02.222350+10:00", "external_links": [], "uuid": "3d3ddda7-c73d-44ad-929a-4e2a5d9cff54", "source": {"name": "Vernon", "slug": "vernon"}, "source_identifier": "7386", "external_references": [{"id": 34077, "source": {"name": "Wikidata", "slug": "wikidata"}, "source_identifier": "Q121144085"}], "date_modified": "2023-09-05T19:06:59.128811+10:00"}, {"id": 35117, "name": "Mayflower Pictures Corporation", "roles_in_work": [{"id": 2330008, "title": "The Beachcomber = Vessel of wrath", "work_id": 93383, "role": "production company", "role_id": 941, "is_primary": true}], "also_known_as": "", "date_of_birth": "", "date_of_death": "", "genders": [], "languages": [], "places_of_operation": [], "biography": "", "biography_author": null, "date_of_biography": "2023-05-09T19:24:21.095932+10:00", "external_links": [], "uuid": "ca49fa0c-0b6a-40eb-8d61-3325e00f244d", "source": {"name": "Vernon", "slug": "vernon"}, "source_identifier": "10385", "external_references": [{"id": 39558, "source": {"name": "Wikidata", "slug": "wikidata"}, "source_identifier": "Q121034745"}], "date_modified": "2023-09-05T22:58:16.410093+10:00"}]}