{"count": 28687, "next": "https://api.acmi.net.au/creators/?page=110", "previous": "https://api.acmi.net.au/creators/?page=108", "results": [{"id": 84899, "name": "Felix Media", "roles_in_work": [{"id": 2660918, "title": "The Calling", "work_id": 117423, "role": "production company", "role_id": 941, "is_primary": true}], "also_known_as": "", "date_of_birth": "", "date_of_death": "", "genders": [], "languages": [], "places_of_operation": [], "biography": "", "biography_author": null, "date_of_biography": "2023-05-09T19:31:21.958610+10:00", "external_links": [], "uuid": "01f69a48-a086-433c-88e2-916e3665891b", "source": {"name": "Vernon", "slug": "vernon"}, "source_identifier": "39834", "external_references": [{"id": 32292, "source": {"name": "Wikidata", "slug": "wikidata"}, "source_identifier": "Q121035712"}], "date_modified": "2025-03-05T20:00:40.800206+11:00"}, {"id": 84898, "name": "Aron Dyer", "roles_in_work": [{"id": 2660917, "title": "The Calling", "work_id": 117423, "role": "sound", "role_id": 952, "is_primary": false}], "also_known_as": "", "date_of_birth": "", "date_of_death": "", "genders": [], "languages": [], "places_of_operation": [], "biography": "", "biography_author": null, "date_of_biography": "2023-05-09T19:31:21.614481+10:00", "external_links": [], "uuid": "9bc4fdcb-04e4-4d33-bd47-a81bbe4e235a", "source": {"name": "Vernon", "slug": "vernon"}, "source_identifier": "39833", "external_references": [], "date_modified": "2025-03-05T20:00:40.217769+11:00"}, {"id": 84897, "name": "Bonnie Elliot", "roles_in_work": [{"id": 2660916, "title": "The Calling", "work_id": 117423, "role": "cinematographer", "role_id": 32, "is_primary": false}], "also_known_as": "", "date_of_birth": "", "date_of_death": "", "genders": [], "languages": [], "places_of_operation": [], "biography": "", "biography_author": null, "date_of_biography": "2023-05-09T19:31:21.361874+10:00", "external_links": [], "uuid": "8a24955f-6c26-4919-a00f-af0937721401", "source": {"name": "Vernon", "slug": "vernon"}, "source_identifier": "39832", "external_references": [{"id": 42018, "source": {"name": "Wikidata", "slug": "wikidata"}, "source_identifier": "Q121299079"}], "date_modified": "2025-03-05T20:00:39.630341+11:00"}, {"id": 84896, "name": "Dick Ovenden", "roles_in_work": [{"id": 2393050, "title": "Cookery Nook [advertisement]", "work_id": 118321, "role": "animator", "role_id": 497, "is_primary": false}], "also_known_as": "", "date_of_birth": "", "date_of_death": "", "genders": [], "languages": [], "places_of_operation": [], "biography": "", "biography_author": null, "date_of_biography": "2023-08-09T04:23:48.958666+10:00", "external_links": [], "uuid": "4d39929a-7d5e-437d-80cb-3b3eb73dfc8d", "source": {"name": "Vernon", "slug": "vernon"}, "source_identifier": "38602", "external_references": [], "date_modified": "2023-08-09T04:23:48.958895+10:00"}, {"id": 84895, "name": "Wilbur Sampson", "roles_in_work": [{"id": 3108989, "title": "Bring out a Briton", "work_id": 118320, "role": "composer", "role_id": 538, "is_primary": false}], "also_known_as": "", "date_of_birth": "", "date_of_death": "", "genders": [], "languages": [], "places_of_operation": [], "biography": "", "biography_author": null, "date_of_biography": "2023-08-09T04:23:47.075198+10:00", "external_links": [], "uuid": "35f7d68f-b81b-4fdf-ac32-de11ff33c6e1", "source": {"name": "Vernon", "slug": "vernon"}, "source_identifier": "38527", "external_references": [], "date_modified": "2025-10-09T18:54:50.730429+11:00"}, {"id": 84894, "name": "Keith Loone", "roles_in_work": [{"id": 3108988, "title": "Bring out a Briton", "work_id": 118320, "role": "director of photography", "role_id": 925, "is_primary": false}], "also_known_as": "", "date_of_birth": "", "date_of_death": "", "genders": [], "languages": [], "places_of_operation": [], "biography": "", "biography_author": null, "date_of_biography": "2023-08-09T04:23:46.467996+10:00", "external_links": [], "uuid": "1c97e505-9ae7-48d5-89fa-906d938139a2", "source": {"name": "Vernon", "slug": "vernon"}, "source_identifier": "38526", "external_references": [], "date_modified": "2025-10-09T18:54:50.022448+11:00"}, {"id": 84893, "name": "Harry Julius", "roles_in_work": [{"id": 2393042, "title": "Collected Cartoons of the Moment by Harry Julius [NFSA Compilation]", "work_id": 118318, "role": "animator", "role_id": 497, "is_primary": false}], "also_known_as": "", "date_of_birth": "", "date_of_death": "", "genders": [], "languages": [], "places_of_operation": [], "biography": "", "biography_author": null, "date_of_biography": "2023-08-09T04:23:41.923337+10:00", "external_links": [], "uuid": "31255964-c0cf-4656-b439-237382348f85", "source": {"name": "Vernon", "slug": "vernon"}, "source_identifier": "38311", "external_references": [], "date_modified": "2023-08-09T04:23:41.923646+10:00"}, {"id": 84892, "name": "Ray Vaughan", "roles_in_work": [{"id": 2393039, "title": "Sea Raider [original release]", "work_id": 118317, "role": "cinematographer", "role_id": 32, "is_primary": false}], "also_known_as": "", "date_of_birth": "", "date_of_death": "", "genders": [], "languages": [], "places_of_operation": [], "biography": "", "biography_author": null, "date_of_biography": "2023-08-09T04:23:39.470776+10:00", "external_links": [], "uuid": "5397f720-8420-41be-a3c1-6776d455425b", "source": {"name": "Vernon", "slug": "vernon"}, "source_identifier": "38306", "external_references": [{"id": 33749, "source": {"name": "Wikidata", "slug": "wikidata"}, "source_identifier": "Q121222871"}], "date_modified": "2023-09-06T00:22:56.548692+10:00"}, {"id": 84891, "name": "Claude Carter", "roles_in_work": [{"id": 2393038, "title": "Sea Raider [original release]", "work_id": 118317, "role": "cinematographer", "role_id": 32, "is_primary": false}], "also_known_as": "", "date_of_birth": "", "date_of_death": "", "genders": [], "languages": [], "places_of_operation": [], "biography": "", "biography_author": null, "date_of_biography": "2023-08-09T04:23:38.862240+10:00", "external_links": [], "uuid": "f26975bf-55ba-47ff-a476-2f0bf000c3c5", "source": {"name": "Vernon", "slug": "vernon"}, "source_identifier": "38305", "external_references": [{"id": 34835, "source": {"name": "Wikidata", "slug": "wikidata"}, "source_identifier": "Q121036790"}], "date_modified": "2023-09-05T18:40:01.829994+10:00"}, {"id": 84890, "name": "Louis Ralph", "roles_in_work": [{"id": 2393037, "title": "Sea Raider [original release]", "work_id": 118317, "role": "director", "role_id": 938, "is_primary": true}], "also_known_as": "", "date_of_birth": "", "date_of_death": "", "genders": [], "languages": [], "places_of_operation": [], "biography": "", "biography_author": null, "date_of_biography": "2023-08-09T04:23:38.225674+10:00", "external_links": [], "uuid": "bbc890d8-1619-45e3-ad56-f1ba4a9b3569", "source": {"name": "Vernon", "slug": "vernon"}, "source_identifier": "38304", "external_references": [{"id": 42447, "source": {"name": "Wikidata", "slug": "wikidata"}, "source_identifier": "Q121035848"}], "date_modified": "2023-09-05T22:31:58.235704+10:00"}]}