{"count": 28683, "next": "https://api.acmi.net.au/creators/?page=2857", "previous": "https://api.acmi.net.au/creators/?page=2855", "results": [{"id": 6599, "name": "John Sharpe", "roles_in_work": [{"id": 2628796, "title": "Silent voices", "work_id": 108066, "role": "director", "role_id": 938, "is_primary": true}, {"id": 2708780, "title": "Chill out!", "work_id": 108048, "role": "creator", "role_id": 968, "is_primary": true}, {"id": 2628801, "title": "Silent voices", "work_id": 108066, "role": "creator", "role_id": 968, "is_primary": true}, {"id": 2708946, "title": "This is not my city", "work_id": 108064, "role": "creator", "role_id": 968, "is_primary": true}, {"id": 2708944, "title": "This is not my city", "work_id": 108064, "role": "animator", "role_id": 497, "is_primary": false}, {"id": 2708955, "title": "deCollage", "work_id": 108065, "role": "animator", "role_id": 497, "is_primary": false}, {"id": 2628798, "title": "Silent voices", "work_id": 108066, "role": "animator", "role_id": 497, "is_primary": false}, {"id": 2628800, "title": "Silent voices", "work_id": 108066, "role": "artist", "role_id": 505, "is_primary": true}, {"id": 2708960, "title": "deCollage", "work_id": 108065, "role": "creator", "role_id": 968, "is_primary": true}, {"id": 2708959, "title": "deCollage", "work_id": 108065, "role": "editor", "role_id": 918, "is_primary": true}, {"id": 2628799, "title": "Silent voices", "work_id": 108066, "role": "editor", "role_id": 918, "is_primary": true}, {"id": 2708815, "title": "The Chase", "work_id": 108053, "role": "photographer", "role_id": 440, "is_primary": false}, {"id": 2708941, "title": "This is not my city", "work_id": 108064, "role": "sound designer", "role_id": 927, "is_primary": false}, {"id": 2628797, "title": "Silent voices", "work_id": 108066, "role": "writer", "role_id": 939, "is_primary": true}, {"id": 2708813, "title": "The Chase", "work_id": 108053, "role": "writer", "role_id": 939, "is_primary": true}], "also_known_as": "", "date_of_birth": "", "date_of_death": "", "genders": [], "languages": [], "places_of_operation": [], "biography": "", "biography_author": null, "date_of_biography": "2023-05-09T19:35:56.231907+10:00", "external_links": [], "uuid": "6cdab13b-d575-4221-b35f-5e746887c475", "source": {"name": "Vernon", "slug": "vernon"}, "source_identifier": "110173", "external_references": [{"id": 41640, "source": {"name": "Wikidata", "slug": "wikidata"}, "source_identifier": "Q121034670"}], "date_modified": "2025-03-11T22:50:15.336049+11:00"}, {"id": 6598, "name": "Sharon Parker", "roles_in_work": [{"id": 2708802, "title": "This way up", "work_id": 108051, "role": "creator", "role_id": 968, "is_primary": true}, {"id": 2708794, "title": "The Rainy night when the thingy caught fire and everything burned", "work_id": 108050, "role": "creator", "role_id": 968, "is_primary": true}, {"id": 2708779, "title": "Chill out!", "work_id": 108048, "role": "creator", "role_id": 968, "is_primary": true}, {"id": 2708803, "title": "This way up", "work_id": 108051, "role": "animator", "role_id": 497, "is_primary": false}, {"id": 2708796, "title": "The Rainy night when the thingy caught fire and everything burned", "work_id": 108050, "role": "animator", "role_id": 497, "is_primary": false}, {"id": 2709694, "title": "The Fang", "work_id": 108153, "role": "animator", "role_id": 497, "is_primary": false}, {"id": 2709212, "title": "Pharmaceutical girl", "work_id": 108092, "role": "assistant", "role_id": 450, "is_primary": false}, {"id": 2708814, "title": "The Chase", "work_id": 108053, "role": "cast", "role_id": 33, "is_primary": false}, {"id": 916101, "title": "It's like that", "work_id": 94565, "role": "co-director", "role_id": 959, "is_primary": true}, {"id": 916092, "title": "It's like that", "work_id": 94565, "role": "co-producer", "role_id": 915, "is_primary": true}, {"id": 2709584, "title": "All ears", "work_id": 108148, "role": "foley", "role_id": 955, "is_primary": false}, {"id": 2709213, "title": "Pharmaceutical girl", "work_id": 108092, "role": "set builder", "role_id": 522, "is_primary": false}, {"id": 2708812, "title": "The Chase", "work_id": 108053, "role": "writer", "role_id": 939, "is_primary": true}], "also_known_as": "", "date_of_birth": "", "date_of_death": "", "genders": [], "languages": [], "places_of_operation": [], "biography": "", "biography_author": null, "date_of_biography": "2023-05-09T20:07:31.894210+10:00", "external_links": [], "uuid": "443b7884-8e41-466a-89ab-0801394d7768", "source": {"name": "Vernon", "slug": "vernon"}, "source_identifier": "110129", "external_references": [{"id": 33239, "source": {"name": "Wikidata", "slug": "wikidata"}, "source_identifier": "Q121337003"}], "date_modified": "2025-03-11T23:06:39.640810+11:00"}, {"id": 6597, "name": "Alan Dorin", "roles_in_work": [{"id": 2709063, "title": "Apoidea", "work_id": 108073, "role": "director", "role_id": 938, "is_primary": true}, {"id": 2708778, "title": "Chill out!", "work_id": 108048, "role": "creator", "role_id": 968, "is_primary": true}, {"id": 2709065, "title": "Apoidea", "work_id": 108073, "role": "creator", "role_id": 968, "is_primary": true}, {"id": 2709060, "title": "Apoidea", "work_id": 108073, "role": "animator", "role_id": 497, "is_primary": false}, {"id": 2709061, "title": "Apoidea", "work_id": 108073, "role": "writer", "role_id": 939, "is_primary": true}], "also_known_as": "", "date_of_birth": "", "date_of_death": "", "genders": [], "languages": [], "places_of_operation": [], "biography": "", "biography_author": null, "date_of_biography": "2023-05-09T19:35:27.428845+10:00", "external_links": [], "uuid": "92fbfac2-30dc-4a98-8081-853b828e2f39", "source": {"name": "Vernon", "slug": "vernon"}, "source_identifier": "110128", "external_references": [{"id": 39229, "source": {"name": "Wikidata", "slug": "wikidata"}, "source_identifier": "Q121315161"}], "date_modified": "2025-03-11T22:51:56.303997+11:00"}, {"id": 6596, "name": "Marco Bresciani", "roles_in_work": [{"id": 2708870, "title": "Spaghetti western", "work_id": 108057, "role": "creator", "role_id": 968, "is_primary": true}, {"id": 2708777, "title": "Chill out!", "work_id": 108048, "role": "creator", "role_id": 968, "is_primary": true}, {"id": 2708871, "title": "Spaghetti western", "work_id": 108057, "role": "animator", "role_id": 497, "is_primary": false}, {"id": 2709681, "title": "The Fang", "work_id": 108153, "role": "animator", "role_id": 497, "is_primary": false}, {"id": 2709680, "title": "The Fang", "work_id": 108153, "role": "editor", "role_id": 918, "is_primary": true}], "also_known_as": "", "date_of_birth": "", "date_of_death": "", "genders": [], "languages": [], "places_of_operation": [], "biography": "", "biography_author": null, "date_of_biography": "2023-05-09T20:00:06.186582+10:00", "external_links": [], "uuid": "d80e5103-00f2-440d-83c5-8cb1b657dda2", "source": {"name": "Vernon", "slug": "vernon"}, "source_identifier": "110127", "external_references": [{"id": 36949, "source": {"name": "Wikidata", "slug": "wikidata"}, "source_identifier": "Q121126159"}], "date_modified": "2025-03-11T23:06:23.791079+11:00"}, {"id": 6595, "name": "Dik Jarman", "roles_in_work": [{"id": 2709080, "title": "Washing machine [the cat]", "work_id": 108075, "role": "director", "role_id": 938, "is_primary": true}, {"id": 2708773, "title": "Thou shalt not...kill", "work_id": 108046, "role": "creator", "role_id": 968, "is_primary": true}, {"id": 2709079, "title": "Washing machine [the cat]", "work_id": 108075, "role": "creator", "role_id": 968, "is_primary": true}, {"id": 2709204, "title": "Pharmaceutical girl", "work_id": 108092, "role": "creator", "role_id": 968, "is_primary": true}, {"id": 2709206, "title": "Pharmaceutical girl", "work_id": 108092, "role": "animator", "role_id": 497, "is_primary": false}, {"id": 2709082, "title": "Washing machine [the cat]", "work_id": 108075, "role": "animator", "role_id": 497, "is_primary": false}, {"id": 2709687, "title": "The Fang", "work_id": 108153, "role": "animator", "role_id": 497, "is_primary": false}, {"id": 2709167, "title": "La Maison des Cochons", "work_id": 114016, "role": "assistant", "role_id": 450, "is_primary": false}, {"id": 2709155, "title": "Essence of Terror", "work_id": 114015, "role": "assistant", "role_id": 450, "is_primary": false}, {"id": 2709581, "title": "All ears", "work_id": 108148, "role": "prop finisher", "role_id": 529, "is_primary": false}, {"id": 2709207, "title": "Pharmaceutical girl", "work_id": 108092, "role": "set & puppet design", "role_id": 521, "is_primary": false}, {"id": 2709205, "title": "Pharmaceutical girl", "work_id": 108092, "role": "writer", "role_id": 939, "is_primary": true}, {"id": 2709081, "title": "Washing machine [the cat]", "work_id": 108075, "role": "writer", "role_id": 939, "is_primary": true}], "also_known_as": "", "date_of_birth": "", "date_of_death": "", "genders": [], "languages": [], "places_of_operation": [], "biography": "", "biography_author": null, "date_of_biography": "2023-05-09T20:08:54.361103+10:00", "external_links": [], "uuid": "a015e2cf-6750-488b-9a50-952e2186b379", "source": {"name": "Vernon", "slug": "vernon"}, "source_identifier": "110122", "external_references": [{"id": 40100, "source": {"name": "Wikidata", "slug": "wikidata"}, "source_identifier": "Q121337550"}], "date_modified": "2025-03-11T23:06:32.177808+11:00"}, {"id": 6594, "name": "Adrian Lim", "roles_in_work": [{"id": 2709112, "title": "World #37...previsited", "work_id": 108082, "role": "director", "role_id": 938, "is_primary": true}, {"id": 2709111, "title": "World #37...previsited", "work_id": 108082, "role": "creator", "role_id": 968, "is_primary": true}, {"id": 2708772, "title": "Thou shalt not...kill", "work_id": 108046, "role": "creator", "role_id": 968, "is_primary": true}, {"id": 2709114, "title": "World #37...previsited", "work_id": 108082, "role": "animator", "role_id": 497, "is_primary": false}, {"id": 2709113, "title": "World #37...previsited", "work_id": 108082, "role": "writer", "role_id": 939, "is_primary": true}], "also_known_as": "", "date_of_birth": "", "date_of_death": "", "genders": [], "languages": [], "places_of_operation": [], "biography": "", "biography_author": null, "date_of_biography": "2023-05-09T20:08:50.613293+10:00", "external_links": [], "uuid": "0289ec5b-53f8-4b99-991b-54b579b22ab8", "source": {"name": "Vernon", "slug": "vernon"}, "source_identifier": "110123", "external_references": [{"id": 39683, "source": {"name": "Wikidata", "slug": "wikidata"}, "source_identifier": "Q121143870"}], "date_modified": "2025-03-11T22:53:31.216541+11:00"}, {"id": 6593, "name": "Alastair MacInnes", "roles_in_work": [{"id": 2708968, "title": "Killjoy", "work_id": 108067, "role": "creator", "role_id": 968, "is_primary": true}, {"id": 2628718, "title": "Astrozoology 101", "work_id": 108045, "role": "creator", "role_id": 968, "is_primary": true}, {"id": 2708776, "title": "Chill out!", "work_id": 108048, "role": "creator", "role_id": 968, "is_primary": true}, {"id": 2708881, "title": "The Pied piper", "work_id": 108058, "role": "creator", "role_id": 968, "is_primary": true}, {"id": 2628719, "title": "Astrozoology 101", "work_id": 108045, "role": "animator", "role_id": 497, "is_primary": false}, {"id": 2708972, "title": "Killjoy", "work_id": 108067, "role": "animator", "role_id": 497, "is_primary": false}, {"id": 2708884, "title": "The Pied piper", "work_id": 108058, "role": "animator", "role_id": 497, "is_primary": false}, {"id": 2709211, "title": "Pharmaceutical girl", "work_id": 108092, "role": "assistant", "role_id": 450, "is_primary": false}, {"id": 2709674, "title": "The Fang", "work_id": 108153, "role": "creator", "role_id": 968, "is_primary": true}, {"id": 2709672, "title": "The Fang", "work_id": 108153, "role": "director", "role_id": 938, "is_primary": true}, {"id": 2709677, "title": "The Fang", "work_id": 108153, "role": "editor", "role_id": 918, "is_primary": true}, {"id": 2709047, "title": "Penguins off the page", "work_id": 108072, "role": "music", "role_id": 949, "is_primary": false}, {"id": 2708845, "title": "Not the chosen one", "work_id": 108056, "role": "music", "role_id": 949, "is_primary": false}, {"id": 2708914, "title": "Twinkle twinkle", "work_id": 108062, "role": "music", "role_id": 949, "is_primary": false}, {"id": 2709670, "title": "The Fang", "work_id": 108153, "role": "producer", "role_id": 1089, "is_primary": true}, {"id": 2709210, "title": "Pharmaceutical girl", "work_id": 108092, "role": "set builder", "role_id": 522, "is_primary": false}, {"id": 2708846, "title": "Not the chosen one", "work_id": 108056, "role": "sound", "role_id": 952, "is_primary": false}, {"id": 2709166, "title": "La Maison des Cochons", "work_id": 114016, "role": "sound", "role_id": 952, "is_primary": false}, {"id": 2708916, "title": "Twinkle twinkle", "work_id": 108062, "role": "sound", "role_id": 952, "is_primary": false}, {"id": 2708848, "title": "Not the chosen one", "work_id": 108056, "role": "special effects", "role_id": 929, "is_primary": false}, {"id": 2708784, "title": "From the ladle to the grave", "work_id": 108049, "role": "voice", "role_id": 471, "is_primary": false}], "also_known_as": "", "date_of_birth": "", "date_of_death": "", "genders": [], "languages": [], "places_of_operation": [], "biography": "", "biography_author": null, "date_of_biography": "2023-05-09T20:09:03.660484+10:00", "external_links": [], "uuid": "23da223e-0d37-4e57-b418-b8383a5e038c", "source": {"name": "Vernon", "slug": "vernon"}, "source_identifier": "110124", "external_references": [{"id": 36244, "source": {"name": "Wikidata", "slug": "wikidata"}, "source_identifier": "Q121091215"}], "date_modified": "2025-03-11T23:06:20.113758+11:00"}, {"id": 6592, "name": "Gillian Morisson", "roles_in_work": [{"id": 2708819, "title": "The Chase", "work_id": 108053, "role": "director", "role_id": 938, "is_primary": true}, {"id": 2628717, "title": "Astrozoology 101", "work_id": 108045, "role": "creator", "role_id": 968, "is_primary": true}, {"id": 2708821, "title": "The Chase", "work_id": 108053, "role": "creator", "role_id": 968, "is_primary": true}, {"id": 2708786, "title": "From the ladle to the grave", "work_id": 108049, "role": "voice", "role_id": 471, "is_primary": false}, {"id": 2708816, "title": "The Chase", "work_id": 108053, "role": "writer", "role_id": 939, "is_primary": true}], "also_known_as": "", "date_of_birth": "", "date_of_death": "", "genders": [], "languages": [], "places_of_operation": [], "biography": "", "biography_author": null, "date_of_biography": "2023-05-09T19:35:30.917050+10:00", "external_links": [], "uuid": "18f99722-4048-411c-ac65-24b21d6fe884", "source": {"name": "Vernon", "slug": "vernon"}, "source_identifier": "110125", "external_references": [{"id": 51833, "source": {"name": "Wikidata", "slug": "wikidata"}, "source_identifier": "Q121357775"}], "date_modified": "2025-03-11T22:47:54.441297+11:00"}, {"id": 6590, "name": "Robert Gligorov", "roles_in_work": [{"id": 2708769, "title": "Bobe's legend", "work_id": 108042, "role": "creator", "role_id": 968, "is_primary": true}], "also_known_as": "", "date_of_birth": "", "date_of_death": "", "genders": [{"id": 9, "name": "Male", "slug": "male"}], "languages": [], "places_of_operation": [], "biography": "", "biography_author": null, "date_of_biography": "2023-05-09T13:04:20.495135+10:00", "external_links": [], "uuid": "84b5d816-baca-4c23-bd96-59e0636324e6", "source": {"name": "Vernon", "slug": "vernon"}, "source_identifier": "110126", "external_references": [], "date_modified": "2025-03-11T22:46:09.289436+11:00"}, {"id": 6589, "name": "Arena Theatre Company", "roles_in_work": [{"id": 2633094, "title": "Panacea - The Documentary", "work_id": 108675, "role": "creator", "role_id": 968, "is_primary": true}, {"id": 2633092, "title": "Collaborator", "work_id": 108673, "role": "creator", "role_id": 968, "is_primary": true}, {"id": 2708765, "title": "Panacea", "work_id": 108040, "role": "creator", "role_id": 968, "is_primary": true}, {"id": 2633093, "title": "Panacea - the Soundtrack", "work_id": 108674, "role": "creator", "role_id": 968, "is_primary": true}, {"id": 2186527, "title": "PANACEA: the documentary", "work_id": 87537, "role": "production company", "role_id": 941, "is_primary": true}], "also_known_as": "", "date_of_birth": "", "date_of_death": "", "genders": [], "languages": [], "places_of_operation": [], "biography": "", "biography_author": null, "date_of_biography": "2023-05-09T15:02:02.560099+10:00", "external_links": [], "uuid": "99d6a7c8-7659-4853-8bc4-d7c79c4eceeb", "source": {"name": "Vernon", "slug": "vernon"}, "source_identifier": "110237", "external_references": [{"id": 38345, "source": {"name": "Wikidata", "slug": "wikidata"}, "source_identifier": "Q121315263"}], "date_modified": "2025-03-11T22:45:30.619865+11:00"}]}