{"count": 28687, "next": "https://api.acmi.net.au/creators/?page=1552", "previous": "https://api.acmi.net.au/creators/?page=1550", "results": [{"id": 32311, "name": "Ted Geisel", "roles_in_work": [{"id": 2749764, "title": "Dr Seuss on the loose: Sneetches", "work_id": 96966, "role": "co-producer", "role_id": 915, "is_primary": true}, {"id": 2200821, "title": "Dr Seuss: how Grinch stole Christmas", "work_id": 90565, "role": "co-producer", "role_id": 915, "is_primary": true}, {"id": 2749557, "title": "Dr Seuss on the loose: the Zax", "work_id": 96864, "role": "producer", "role_id": 1089, "is_primary": true}], "also_known_as": "", "date_of_birth": "1904-03-02", "date_of_death": "1991-09-24", "genders": [{"id": 9, "name": "Male", "slug": "male"}], "languages": [{"id": 1, "name": "English", "slug": "english"}], "places_of_operation": [{"id": 1, "name": "United States of America", "slug": "united-states-of-america"}], "biography": "Theodor Seuss Geisel (  sooss GHY-zəl, zoyss -⁠; March 2, 1904 – September 24, 1991) was an American children's author and cartoonist. He is known for his work writing and illustrating more than 60 books under the pen name Dr. Seuss ( SOOSS, ZOOSS). His work includes many of the most popular children's books of all time, selling over 600 million copies and being translated into more than 20 languages by the time of his death.Geisel adopted the name \"Dr. Seuss\" as an undergraduate at Dartmouth College and as a graduate student at Lincoln College, Oxford. He left Oxford in 1927 to begin his career as an illustrator and cartoonist for Vanity Fair, Life and various other publications. He also worked as an illustrator for advertising campaigns, most notably for FLIT and Standard Oil, and as a political cartoonist for the New York newspaper PM. He published his first children's book And to Think That I Saw It on Mulberry Street in 1937. During World War II, he took a brief hiatus from children's literature to illustrate political cartoons, and he worked in the animation and film department of the United States Army.\nAfter the war, Geisel returned to writing children's books, writing acclaimed works such as If I Ran the Zoo (1950), Horton Hears a Who! (1955), The Cat in the Hat (1957), How the Grinch Stole Christmas! (1957), Green Eggs and Ham (1960), One Fish, Two Fish, Red Fish, Blue Fish (1960), The Sneetches and Other Stories (1961), The Lorax (1971), The Butter Battle Book (1984), and Oh, the Places You'll Go! (1990). He published over 60 books during his career, which have spawned numerous adaptations, including 11 television specials, five feature films, a Broadway musical, and four television series.\nHe received two Primetime Emmy Awards for Outstanding Children's Special for Halloween Is Grinch Night (1978) and Outstanding Animated Program for The Grinch Grinches the Cat in the Hat (1982). In 1984, he won a Pulitzer Prize Special Citation. His birthday, March 2, has been adopted as the annual date for National Read Across America Day, an initiative focused on reading created by the National Education Association.", "biography_author": "Wikidata", "date_of_biography": "2023-09-06T01:42:47.468320+10:00", "external_links": [{"id": 6210, "uri": "https://en.wikipedia.org/wiki/Dr._Seuss"}], "uuid": "7d3f6860-bf3c-45e3-800e-fbd8b22fda44", "source": {"name": "Vernon", "slug": "vernon"}, "source_identifier": "4343", "external_references": [{"id": 51555, "source": {"name": "Wikidata", "slug": "wikidata"}, "source_identifier": "Q298685"}, {"id": 55932, "source": {"name": "VIAF", "slug": "viaf"}, "source_identifier": "20959831"}, {"id": 55933, "source": {"name": "LOC Auth", "slug": "loc-auth"}, "source_identifier": "n91084846"}, {"id": 55934, "source": {"name": "WorldCat", "slug": "worldcat"}, "source_identifier": "viaf-7408695"}], "date_modified": "2025-03-13T00:06:33.768302+11:00"}, {"id": 32309, "name": "Interscope Commmunication", "roles_in_work": [{"id": 2258884, "title": "Runaway bride", "work_id": 90564, "role": "production company", "role_id": 941, "is_primary": true}], "also_known_as": "", "date_of_birth": "", "date_of_death": "", "genders": [], "languages": [], "places_of_operation": [], "biography": "", "biography_author": null, "date_of_biography": "2023-05-09T17:24:24.533382+10:00", "external_links": [], "uuid": "29861dad-3eab-4c9d-8f5b-82a2bf6351ad", "source": {"name": "Vernon", "slug": "vernon"}, "source_identifier": "9411", "external_references": [], "date_modified": "2023-06-14T16:33:30.576250+10:00"}, {"id": 32307, "name": "Jon Reiss", "roles_in_work": [{"id": 2113755, "title": "Better living through circuitry [DVD]", "work_id": 90562, "role": "director", "role_id": 938, "is_primary": true}], "also_known_as": "", "date_of_birth": null, "date_of_death": "", "genders": [{"id": 9, "name": "Male", "slug": "male"}], "languages": [], "places_of_operation": [{"id": 1, "name": "United States of America", "slug": "united-states-of-america"}], "biography": "Jon Reiss is a film producer and director, and an author.  He has made the feature film Cleopatra's Second Husband (1998) and the documentaries Better Living Through Circuitry (1999) and Bomb It (2007).  He has directed music videos for artists, including Nine Inch Nails, Slayer, Danzig, and the Black Crowes.", "biography_author": "Wikidata", "date_of_biography": "2023-08-01T15:41:28.280416+10:00", "external_links": [{"id": 4426, "uri": "https://en.wikipedia.org/wiki/Jon_Reiss"}], "uuid": "c2ad06e0-4a0f-4c1c-9e01-a6743a49e936", "source": {"name": "Vernon", "slug": "vernon"}, "source_identifier": "22623", "external_references": [{"id": 25940, "source": {"name": "Wikidata", "slug": "wikidata"}, "source_identifier": "Q6271453"}, {"id": 29629, "source": {"name": "VIAF", "slug": "viaf"}, "source_identifier": "67149106001168490395"}, {"id": 29630, "source": {"name": "LOC Auth", "slug": "loc-auth"}, "source_identifier": "no98118417"}, {"id": 29631, "source": {"name": "WorldCat", "slug": "worldcat"}, "source_identifier": "lccn-no98118417"}], "date_modified": "2023-09-05T21:47:52.908168+10:00"}, {"id": 32306, "name": "John Reiss", "roles_in_work": [{"id": 2113718, "title": "Better living through circuitry", "work_id": 90561, "role": "director", "role_id": 938, "is_primary": true}], "also_known_as": "", "date_of_birth": "", "date_of_death": "", "genders": [], "languages": [], "places_of_operation": [], "biography": "", "biography_author": null, "date_of_biography": "2023-05-09T12:51:13.875279+10:00", "external_links": [], "uuid": "d7687ac5-9095-4fa7-aabc-699241227dcd", "source": {"name": "Vernon", "slug": "vernon"}, "source_identifier": "22493", "external_references": [], "date_modified": "2023-06-14T16:33:30.576250+10:00"}, {"id": 32305, "name": "Brian McNelis", "roles_in_work": [{"id": 2113750, "title": "Better living through circuitry [DVD]", "work_id": 90562, "role": "producer", "role_id": 1089, "is_primary": true}, {"id": 2113714, "title": "Better living through circuitry", "work_id": 90561, "role": "producer", "role_id": 1089, "is_primary": true}], "also_known_as": "", "date_of_birth": "", "date_of_death": "", "genders": [], "languages": [], "places_of_operation": [], "biography": "", "biography_author": null, "date_of_biography": "2023-05-09T12:51:16.094378+10:00", "external_links": [], "uuid": "d7864a8d-072b-49ff-b4ae-b81d1c7481fd", "source": {"name": "Vernon", "slug": "vernon"}, "source_identifier": "16239", "external_references": [{"id": 42627, "source": {"name": "Wikidata", "slug": "wikidata"}, "source_identifier": "Q121034188"}], "date_modified": "2023-09-05T18:11:00.917869+10:00"}, {"id": 32302, "name": "Michael J. Churchill", "roles_in_work": [{"id": 2234762, "title": "Racing silver: German Motorracing 1900-1971", "work_id": 90557, "role": "director", "role_id": 938, "is_primary": true}], "also_known_as": "", "date_of_birth": "", "date_of_death": "", "genders": [], "languages": [], "places_of_operation": [], "biography": "", "biography_author": null, "date_of_biography": "2023-05-09T16:43:57.869617+10:00", "external_links": [], "uuid": "624a93a0-7e07-4a20-9f74-413d591a2383", "source": {"name": "Vernon", "slug": "vernon"}, "source_identifier": "25014", "external_references": [{"id": 33274, "source": {"name": "Wikidata", "slug": "wikidata"}, "source_identifier": "Q121223131"}], "date_modified": "2023-09-05T23:06:07.946244+10:00"}, {"id": 32301, "name": "Hay Fisher", "roles_in_work": [{"id": 2234701, "title": "Racing green: Great British racing cars of the 50's and 60's", "work_id": 90556, "role": "producer", "role_id": 1089, "is_primary": true}], "also_known_as": "", "date_of_birth": "", "date_of_death": "", "genders": [], "languages": [], "places_of_operation": [], "biography": "", "biography_author": null, "date_of_biography": "2023-05-09T16:43:53.024017+10:00", "external_links": [], "uuid": "e1ab9736-8fb6-4f94-ad7c-4b5c8ed5964e", "source": {"name": "Vernon", "slug": "vernon"}, "source_identifier": "20384", "external_references": [{"id": 34471, "source": {"name": "Wikidata", "slug": "wikidata"}, "source_identifier": "Q121126070"}], "date_modified": "2023-09-05T20:32:44.915628+10:00"}, {"id": 32298, "name": "Yves Rousset-Rouard", "roles_in_work": [{"id": 1994800, "title": "Emmanuelle", "work_id": 90554, "role": "producer", "role_id": 1089, "is_primary": true}], "also_known_as": "", "date_of_birth": "1940-04-01", "date_of_death": null, "genders": [{"id": 9, "name": "Male", "slug": "male"}], "languages": [{"id": 4, "name": "French", "slug": "french"}], "places_of_operation": [{"id": 17, "name": "France", "slug": "france"}], "biography": "", "biography_author": null, "date_of_biography": null, "external_links": [], "uuid": "6eeacb36-e6da-4651-86a0-f8b2eb5efab9", "source": {"name": "Vernon", "slug": "vernon"}, "source_identifier": "30638", "external_references": [{"id": 14050, "source": {"name": "Wikidata", "slug": "wikidata"}, "source_identifier": "Q3573945"}, {"id": 14051, "source": {"name": "VIAF", "slug": "viaf"}, "source_identifier": "229691963"}, {"id": 14052, "source": {"name": "WorldCat", "slug": "worldcat"}, "source_identifier": "viaf-229691963"}], "date_modified": "2023-09-13T12:33:22.346013+10:00"}, {"id": 32297, "name": "Gerard Pires", "roles_in_work": [{"id": 2322562, "title": "Taxi", "work_id": 90553, "role": "director", "role_id": 938, "is_primary": true}], "also_known_as": "", "date_of_birth": "1942-08-31", "date_of_death": null, "genders": [{"id": 9, "name": "Male", "slug": "male"}], "languages": [{"id": 4, "name": "French", "slug": "french"}], "places_of_operation": [{"id": 17, "name": "France", "slug": "france"}], "biography": "Gérard Pirès (born 31 August 1942) is a French film director and writer.", "biography_author": "Wikidata", "date_of_biography": "2022-05-19T11:37:28.337423+10:00", "external_links": [{"id": 2139, "uri": "https://en.wikipedia.org/wiki/G%C3%A9rard_Pir%C3%A8s"}], "uuid": "cd8ffe86-f7e6-4e39-a264-1ac746691428", "source": {"name": "Vernon", "slug": "vernon"}, "source_identifier": "19760", "external_references": [{"id": 9211, "source": {"name": "Wikidata", "slug": "wikidata"}, "source_identifier": "Q1031374"}, {"id": 9212, "source": {"name": "VIAF", "slug": "viaf"}, "source_identifier": "81481172"}, {"id": 9213, "source": {"name": "LOC Auth", "slug": "loc-auth"}, "source_identifier": "nr2006025234"}, {"id": 9214, "source": {"name": "WorldCat", "slug": "worldcat"}, "source_identifier": "lccn-nr2006025234"}], "date_modified": "2023-09-13T12:29:40.307072+10:00"}, {"id": 32296, "name": "ARP-TF1 Films", "roles_in_work": [{"id": 2322548, "title": "Taxi", "work_id": 90553, "role": "production company", "role_id": 941, "is_primary": true}], "also_known_as": "", "date_of_birth": "", "date_of_death": "", "genders": [], "languages": [], "places_of_operation": [], "biography": "", "biography_author": null, "date_of_biography": "2023-05-09T19:14:16.402465+10:00", "external_links": [], "uuid": "1a65db04-3d7f-4ef8-a4c9-cd8b33638eff", "source": {"name": "Vernon", "slug": "vernon"}, "source_identifier": "5390", "external_references": [{"id": 40910, "source": {"name": "Wikidata", "slug": "wikidata"}, "source_identifier": "Q121036013"}], "date_modified": "2023-09-05T17:45:44.331180+10:00"}]}