{"count": 28687, "next": "https://api.acmi.net.au/creators/?page=2153", "previous": "https://api.acmi.net.au/creators/?page=2151", "results": [{"id": 19545, "name": "Peter Oyston", "roles_in_work": [{"id": 2406636, "title": "Effective Questioning in a Classroom Discussion(TEFC)", "work_id": 76133, "role": "producer", "role_id": 1089, "is_primary": true}], "also_known_as": "", "date_of_birth": "", "date_of_death": "", "genders": [], "languages": [], "places_of_operation": [], "biography": "", "biography_author": null, "date_of_biography": "2023-08-11T16:18:26.351133+10:00", "external_links": [], "uuid": "d73fa838-684d-4939-b394-2276b6bf2fd1", "source": {"name": "Vernon", "slug": "vernon"}, "source_identifier": "26667", "external_references": [], "date_modified": "2023-08-11T16:18:26.351369+10:00"}, {"id": 19544, "name": "University of Lancaster (Microteaching Research Unit)", "roles_in_work": [{"id": 2406635, "title": "Effective Questioning in a Classroom Discussion(TEFC)", "work_id": 76133, "role": "production company", "role_id": 941, "is_primary": true}], "also_known_as": "", "date_of_birth": "", "date_of_death": "", "genders": [], "languages": [], "places_of_operation": [], "biography": "", "biography_author": null, "date_of_biography": "2023-08-11T16:18:25.727926+10:00", "external_links": [], "uuid": "12af0b79-79d8-4016-9f70-8f0aca8246c2", "source": {"name": "Vernon", "slug": "vernon"}, "source_identifier": "13920", "external_references": [], "date_modified": "2023-08-11T16:18:25.728166+10:00"}, {"id": 19539, "name": "Jean Yarbrough", "roles_in_work": [{"id": 2647380, "title": "Far from alone", "work_id": 76125, "role": "director", "role_id": 938, "is_primary": true}], "also_known_as": "", "date_of_birth": null, "date_of_death": null, "genders": [], "languages": [], "places_of_operation": [], "biography": "", "biography_author": null, "date_of_biography": null, "external_links": [], "uuid": "ee6109a8-2a76-40f2-881d-4c52d2514985", "source": {"name": "Vernon", "slug": "vernon"}, "source_identifier": "21566", "external_references": [], "date_modified": "2025-03-05T13:25:16.382904+11:00"}, {"id": 19538, "name": "Board of Temperance of the Methodist Church", "roles_in_work": [{"id": 2647379, "title": "Far from alone", "work_id": 76125, "role": "production company", "role_id": 941, "is_primary": true}], "also_known_as": "", "date_of_birth": null, "date_of_death": null, "genders": [], "languages": [], "places_of_operation": [], "biography": "", "biography_author": null, "date_of_biography": null, "external_links": [], "uuid": "d42cc72f-4f39-444c-b65c-93afe7b24605", "source": {"name": "Vernon", "slug": "vernon"}, "source_identifier": "5926", "external_references": [], "date_modified": "2025-03-05T13:25:15.790174+11:00"}, {"id": 19537, "name": "Face Film Productions", "roles_in_work": [{"id": 2647376, "title": "Faces of India: Raju, a guide from Rishikesh", "work_id": 76124, "role": "production company", "role_id": 941, "is_primary": true}], "also_known_as": "", "date_of_birth": "", "date_of_death": "", "genders": [], "languages": [], "places_of_operation": [], "biography": "", "biography_author": null, "date_of_biography": "2023-05-09T16:25:46.709014+10:00", "external_links": [], "uuid": "0acecc0a-bf92-4563-b513-af227945fa3d", "source": {"name": "Vernon", "slug": "vernon"}, "source_identifier": "8068", "external_references": [{"id": 40652, "source": {"name": "Wikidata", "slug": "wikidata"}, "source_identifier": "Q121315071"}], "date_modified": "2025-03-05T13:25:13.663586+11:00"}, {"id": 19536, "name": "Tom Haydon", "roles_in_work": [{"id": 2748772, "title": "William Morris Hughes", "work_id": 96456, "role": "director", "role_id": 938, "is_primary": true}, {"id": 2132932, "title": "Casey", "work_id": 96317, "role": "co-producers/directors", "role_id": 628, "is_primary": true}, {"id": 826691, "title": "Mister Prime Minister: Joseph Aloysius Lyons", "work_id": 96457, "role": "producer/director", "role_id": 31, "is_primary": true}, {"id": 2751577, "title": "Mister Prime Minister: Joseph Benedict Chifley", "work_id": 97875, "role": "producer/director", "role_id": 31, "is_primary": true}, {"id": 2748770, "title": "Mister Prime Minister: John Curtin", "work_id": 96455, "role": "producer/director", "role_id": 31, "is_primary": true}, {"id": 862230, "title": "Dig a million, make a million", "work_id": 76121, "role": "producer/director", "role_id": 31, "is_primary": true}, {"id": 826693, "title": "Mister Prime Minister: Robert Gordon Menzies", "work_id": 96458, "role": "producer/director", "role_id": 31, "is_primary": true}, {"id": 1932122, "title": "The Last Tasmanian: a story of genocide", "work_id": 87569, "role": "producer/director", "role_id": 31, "is_primary": true}, {"id": 1932087, "title": "The Last Tasmanian : A story of genocide", "work_id": 86578, "role": "producer/director", "role_id": 31, "is_primary": true}, {"id": 888140, "title": "Mister prime minister: Alfred Deakin", "work_id": 98053, "role": "producer/director", "role_id": 31, "is_primary": true}], "also_known_as": "", "date_of_birth": "", "date_of_death": "", "genders": [], "languages": [], "places_of_operation": [], "biography": "", "biography_author": null, "date_of_biography": "2023-05-09T13:23:20.337104+10:00", "external_links": [], "uuid": "92f33ed3-c828-44e9-9f43-95b5bf2973a8", "source": {"name": "Vernon", "slug": "vernon"}, "source_identifier": "29840", "external_references": [], "date_modified": "2025-03-13T00:46:19.586332+11:00"}, {"id": 19529, "name": "Baylis Glascock", "roles_in_work": [{"id": 2471320, "title": "Wayang Kulit: the shadow puppet theatre of Java", "work_id": 76103, "role": "director", "role_id": 938, "is_primary": true}, {"id": 2471319, "title": "Wayang Kulit: the shadow puppet theatre of Java", "work_id": 76103, "role": "producer", "role_id": 1089, "is_primary": true}], "also_known_as": "", "date_of_birth": "", "date_of_death": "", "genders": [], "languages": [], "places_of_operation": [], "biography": "", "biography_author": null, "date_of_biography": "2023-08-14T12:36:46.526692+10:00", "external_links": [], "uuid": "2f34bf26-cfbd-463c-b456-4bc331cc3067", "source": {"name": "Vernon", "slug": "vernon"}, "source_identifier": "30788", "external_references": [], "date_modified": "2023-08-14T12:36:46.527005+10:00"}, {"id": 19528, "name": "Baylis Glascock Films", "roles_in_work": [{"id": 2471318, "title": "Wayang Kulit: the shadow puppet theatre of Java", "work_id": 76103, "role": "production company", "role_id": 941, "is_primary": true}], "also_known_as": "", "date_of_birth": "", "date_of_death": "", "genders": [], "languages": [], "places_of_operation": [], "biography": "", "biography_author": null, "date_of_biography": "2023-08-14T12:36:45.122934+10:00", "external_links": [], "uuid": "17e87290-f69c-4ee8-bfa4-ca34be98ab88", "source": {"name": "Vernon", "slug": "vernon"}, "source_identifier": "30787", "external_references": [], "date_modified": "2023-08-14T12:36:45.123154+10:00"}, {"id": 19527, "name": "John Tchalenko", "roles_in_work": [{"id": 2409898, "title": "Hot glass", "work_id": 76102, "role": "director", "role_id": 938, "is_primary": true}], "also_known_as": "", "date_of_birth": "", "date_of_death": "", "genders": [], "languages": [], "places_of_operation": [], "biography": "", "biography_author": null, "date_of_biography": "2023-08-11T17:31:15.644682+10:00", "external_links": [], "uuid": "7849c57e-f0d1-43e2-9098-6cd2d94ba7c7", "source": {"name": "Vernon", "slug": "vernon"}, "source_identifier": "22556", "external_references": [], "date_modified": "2023-08-11T17:31:15.645006+10:00"}, {"id": 19526, "name": "National Film School (Great Britain)", "roles_in_work": [{"id": 864022, "title": "Sins of the father and of the son", "work_id": 77680, "role": "production company", "role_id": 941, "is_primary": true}, {"id": 2409897, "title": "Hot glass", "work_id": 76102, "role": "production company", "role_id": 941, "is_primary": true}], "also_known_as": "", "date_of_birth": "", "date_of_death": "", "genders": [], "languages": [], "places_of_operation": [], "biography": "", "biography_author": null, "date_of_biography": "2023-08-11T17:31:15.013347+10:00", "external_links": [], "uuid": "98f1fdde-a284-4ba0-9aa0-130996f440fc", "source": {"name": "Vernon", "slug": "vernon"}, "source_identifier": "10798", "external_references": [], "date_modified": "2023-08-11T17:31:15.013749+10:00"}]}