{"count": 28687, "next": "https://api.acmi.net.au/creators/?page=854", "previous": "https://api.acmi.net.au/creators/?page=852", "results": [{"id": 77052, "name": "Arthur Crabtree", "roles_in_work": [{"id": 1986701, "title": "Madonna of the seven moons", "work_id": 83014, "role": "director", "role_id": 938, "is_primary": true}, {"id": 2305515, "title": "Somerset Maugham's Quartet", "work_id": 82113, "role": "co-director", "role_id": 959, "is_primary": true}], "also_known_as": "", "date_of_birth": "1900-10-29", "date_of_death": "1975-03-15", "genders": [{"id": 9, "name": "Male", "slug": "male"}], "languages": [{"id": 1, "name": "English", "slug": "english"}], "places_of_operation": [{"id": 10, "name": "United Kingdom", "slug": "united-kingdom"}], "biography": "Arthur Crabtree (29 October 1900 in Shipley, Yorkshire, England – 15 March 1975 in Worthing, Sussex, England) was a British cinematographer and film director. He directed films with comedians such as Will Hay, the Crazy Gang and Arthur Askey and several of the Gainsborough Melodramas.", "biography_author": "Wikidata", "date_of_biography": "2023-08-01T14:06:37.884176+10:00", "external_links": [{"id": 3589, "uri": "https://en.wikipedia.org/wiki/Arthur_Crabtree"}], "uuid": "62450ef3-0c95-4282-8b4b-a7e27e1a70b6", "source": {"name": "Vernon", "slug": "vernon"}, "source_identifier": "15521", "external_references": [{"id": 26624, "source": {"name": "Wikidata", "slug": "wikidata"}, "source_identifier": "Q709019"}, {"id": 27365, "source": {"name": "VIAF", "slug": "viaf"}, "source_identifier": "5124149108587068780002"}, {"id": 27366, "source": {"name": "LOC Auth", "slug": "loc-auth"}, "source_identifier": "nr97041887"}, {"id": 27367, "source": {"name": "WorldCat", "slug": "worldcat"}, "source_identifier": "lccn-nr97041887"}], "date_modified": "2023-09-05T17:46:36.096010+10:00"}, {"id": 77051, "name": "Gregory Read", "roles_in_work": [{"id": 2204576, "title": "Photographers of Australia: Dupain, Sievers, Moore", "work_id": 82109, "role": "director", "role_id": 938, "is_primary": true}, {"id": 2204575, "title": "Photographers of Australia: Dupain, Sievers, Moore", "work_id": 82109, "role": "co-producer", "role_id": 915, "is_primary": true}], "also_known_as": "", "date_of_birth": "", "date_of_death": "", "genders": [{"id": 9, "name": "Male", "slug": "male"}], "languages": [], "places_of_operation": [], "biography": "Gregory J. Read is an Australian filmmaker.\nRead started his film career writing, directing, producing and editing the documentaries Spirits of the Carnival, Tides of Passage, and Photographers of Australia: Dupain, Sievers, Moore. In 2006 Read wrote and directed Like Minds starring Eddie Redmayne (in his feature film début), Tom Sturridge, Toni Collette and Richard Roxburough.\nAlthough Like Minds was Read's directorial feature film début,  he had assisted in the production of many low-budget Australian features and directed, produced and/or art directed may television commercials and Music videos for performers such as Kate Ceberano, Iva Davis, Grant McLennon and the Divinyls.\nIn 2008 Gregory established Aerial Film Australia, an specialist aerial company with credits on films such as, Unbroken, San Andreas (film), Pirates of the Caribbean: Dead Men Tell No Tales, Alien: Covenant, Lion, The Meg, The Shallows, Peter Rabbit, Pacific Rim: Uprising, Aquaman and Spiderhead.\nIn 2011 Gregory produced with Anthony Waddington the multi award-winning Fred Schepisi directed film The Eye of the Storm (2011 film)\n2007-2018 Gregory wrote, shot and directed the Australian Writers' Guild (AWGIE) award-winning (2020) feature documentary, Own the Sky chronicling David Mayman's epic journey in the development of the world's first real Jetpack. 2018 Gregory shot, field directed and associate produced the Akos Armont directed feature documentary Brabham (2020).", "biography_author": "Wikidata", "date_of_biography": "2023-08-01T15:05:50.288730+10:00", "external_links": [{"id": 4110, "uri": "https://en.wikipedia.org/wiki/Gregory_J._Read"}], "uuid": "8ec60c9c-98fc-4784-8efe-dc141bf6871d", "source": {"name": "Vernon", "slug": "vernon"}, "source_identifier": "20088", "external_references": [{"id": 26510, "source": {"name": "Wikidata", "slug": "wikidata"}, "source_identifier": "Q5606993"}, {"id": 28781, "source": {"name": "VIAF", "slug": "viaf"}, "source_identifier": "94263136"}, {"id": 28782, "source": {"name": "WorldCat", "slug": "worldcat"}, "source_identifier": "lccn-no2008012026"}], "date_modified": "2023-09-05T20:23:17.762356+10:00"}, {"id": 77050, "name": "Wolfgang Knochell", "roles_in_work": [{"id": 2204573, "title": "Photographers of Australia: Dupain, Sievers, Moore", "work_id": 82109, "role": "co-producer", "role_id": 915, "is_primary": true}], "also_known_as": "", "date_of_birth": "", "date_of_death": "", "genders": [], "languages": [], "places_of_operation": [], "biography": "", "biography_author": null, "date_of_biography": "2023-05-09T15:32:08.364390+10:00", "external_links": [], "uuid": "48a53afb-3bcf-4178-a133-e9b0b53e86c4", "source": {"name": "Vernon", "slug": "vernon"}, "source_identifier": "30538", "external_references": [{"id": 43136, "source": {"name": "Wikidata", "slug": "wikidata"}, "source_identifier": "Q121299220"}], "date_modified": "2023-09-06T02:19:33.801946+10:00"}, {"id": 77049, "name": "Richard Yerxa", "roles_in_work": [{"id": 2781142, "title": "Bali: A Window on Paradise", "work_id": 82106, "role": "co-producer", "role_id": 915, "is_primary": true}], "also_known_as": "", "date_of_birth": "", "date_of_death": "", "genders": [], "languages": [], "places_of_operation": [], "biography": "", "biography_author": null, "date_of_biography": "2023-05-09T19:12:52.489764+10:00", "external_links": [], "uuid": "5b702649-9e76-4cf3-bc91-f2942b77e028", "source": {"name": "Vernon", "slug": "vernon"}, "source_identifier": "27538", "external_references": [{"id": 33406, "source": {"name": "Wikidata", "slug": "wikidata"}, "source_identifier": "Q121091310"}], "date_modified": "2025-03-14T19:08:20.390157+11:00"}, {"id": 77048, "name": "David F. Oyster", "roles_in_work": [{"id": 2781825, "title": "From genes to brains to books", "work_id": 82095, "role": "co-director", "role_id": 959, "is_primary": true}, {"id": 2752316, "title": "Evolution: the four billion year legacy", "work_id": 98240, "role": "co-director", "role_id": 959, "is_primary": true}, {"id": 2782056, "title": "The Edge of forever", "work_id": 82882, "role": "co-producer", "role_id": 915, "is_primary": true}], "also_known_as": "", "date_of_birth": "1945-08-18", "date_of_death": "", "genders": [{"id": 9, "name": "Male", "slug": "male"}], "languages": [], "places_of_operation": [{"id": 1, "name": "United States of America", "slug": "united-states-of-america"}], "biography": "", "biography_author": null, "date_of_biography": "2023-05-09T19:47:43.061626+10:00", "external_links": [], "uuid": "b36c41a9-484f-41b6-9a8e-9a451ae85bca", "source": {"name": "Vernon", "slug": "vernon"}, "source_identifier": "17569", "external_references": [{"id": 41417, "source": {"name": "Wikidata", "slug": "wikidata"}, "source_identifier": "Q3017851"}, {"id": 54271, "source": {"name": "VIAF", "slug": "viaf"}, "source_identifier": "162387903"}, {"id": 54272, "source": {"name": "LOC Auth", "slug": "loc-auth"}, "source_identifier": "no98099034"}, {"id": 54273, "source": {"name": "WorldCat", "slug": "worldcat"}, "source_identifier": "viaf-162387903"}], "date_modified": "2025-03-14T19:11:10.306959+11:00"}, {"id": 77047, "name": "David Kennard", "roles_in_work": [{"id": 2781820, "title": "From genes to brains to books", "work_id": 82095, "role": "co-director", "role_id": 959, "is_primary": true}, {"id": 2752318, "title": "Evolution: the four billion year legacy", "work_id": 98240, "role": "co-director", "role_id": 959, "is_primary": true}, {"id": 2781810, "title": "From genes to brains to books", "work_id": 82095, "role": "co-producer", "role_id": 915, "is_primary": true}], "also_known_as": "", "date_of_birth": "", "date_of_death": "", "genders": [], "languages": [], "places_of_operation": [], "biography": "", "biography_author": null, "date_of_biography": "2023-05-09T19:47:42.779989+10:00", "external_links": [], "uuid": "1db29ebe-0601-44aa-90a1-3a70ea4e2f42", "source": {"name": "Vernon", "slug": "vernon"}, "source_identifier": "17665", "external_references": [{"id": 39949, "source": {"name": "Wikidata", "slug": "wikidata"}, "source_identifier": "Q121036753"}], "date_modified": "2025-03-14T19:10:26.266971+11:00"}, {"id": 77046, "name": "Geoffrey Hines-Stiles", "roles_in_work": [{"id": 2781806, "title": "From genes to brains to books", "work_id": 82095, "role": "co-producer", "role_id": 915, "is_primary": true}], "also_known_as": "", "date_of_birth": "", "date_of_death": "", "genders": [], "languages": [], "places_of_operation": [], "biography": "", "biography_author": null, "date_of_biography": "2023-05-09T19:47:42.082673+10:00", "external_links": [], "uuid": "c2fb6bc2-1193-492d-ab84-cea5f684c2f0", "source": {"name": "Vernon", "slug": "vernon"}, "source_identifier": "19535", "external_references": [{"id": 37217, "source": {"name": "Wikidata", "slug": "wikidata"}, "source_identifier": "Q121036235"}], "date_modified": "2025-03-14T19:10:24.327083+11:00"}, {"id": 77045, "name": "Ben Mendelsohn", "roles_in_work": [{"id": 2649731, "title": "The Big steal", "work_id": 82090, "role": "cast", "role_id": 33, "is_primary": false}], "also_known_as": "", "date_of_birth": "03 APR 1969", "date_of_death": "", "genders": [{"id": 9, "name": "Male", "slug": "male"}], "languages": [{"id": 1, "name": "English", "slug": "english"}], "places_of_operation": [{"id": 3, "name": "Australia", "slug": "australia"}], "biography": "Paul Benjamin Mendelsohn (born 3 April 1969) is an Australian actor. He first rose to prominence in Australia for his breakout role in The Year My Voice Broke (1987). He gained international attention for his starring role in the crime drama Animal Kingdom (2010). He has since had roles in films such as The Dark Knight Rises (2012), Starred Up (2013), Mississippi Grind (2015), Rogue One (2016), Darkest Hour (2017) and Ready Player One (2018).\n\nMendelsohn starred in the Netflix drama series Bloodline (2015–2017), for which he won the Primetime Emmy Award for Outstanding Supporting Actor in a Drama Series in 2016. He joined the Marvel Cinematic Universe as Talos in the superhero film Captain Marvel (2019) and the Disney+ series Secret Invasion (2023). He has also starred in the HBO crime miniseries The Outsider (2020). Source: Wikidata; 01/08/2023", "biography_author": null, "date_of_biography": "2025-03-05T14:05:42.860362+11:00", "external_links": [{"id": 3628, "uri": "https://en.wikipedia.org/wiki/Ben_Mendelsohn"}], "uuid": "553e9c26-8973-4e6c-94f1-8c2cfa43b722", "source": {"name": "Vernon", "slug": "vernon"}, "source_identifier": "35097", "external_references": [{"id": 27029, "source": {"name": "Wikidata", "slug": "wikidata"}, "source_identifier": "Q816565"}, {"id": 27455, "source": {"name": "VIAF", "slug": "viaf"}, "source_identifier": "78495269"}, {"id": 27456, "source": {"name": "LOC Auth", "slug": "loc-auth"}, "source_identifier": "no2004082206"}, {"id": 27457, "source": {"name": "WorldCat", "slug": "worldcat"}, "source_identifier": "lccn-no2004082206"}], "date_modified": "2025-03-05T14:05:42.860596+11:00"}, {"id": 77044, "name": "David Lewis", "roles_in_work": [{"id": 2350305, "title": "The gay men's guide to safer sex (E)", "work_id": 82087, "role": "director", "role_id": 938, "is_primary": true}, {"id": 2096910, "title": "Animated Alphabet", "work_id": 80888, "role": "director", "role_id": 938, "is_primary": true}, {"id": 2072568, "title": "A Place in the country: Renfrewshire Regional Park", "work_id": 90134, "role": "director", "role_id": 938, "is_primary": true}], "also_known_as": "", "date_of_birth": "", "date_of_death": "", "genders": [], "languages": [], "places_of_operation": [], "biography": "", "biography_author": null, "date_of_biography": "2023-05-09T19:54:54.862408+10:00", "external_links": [], "uuid": "857b88dc-5e78-4ef5-a196-118ad87c39a5", "source": {"name": "Vernon", "slug": "vernon"}, "source_identifier": "17688", "external_references": [{"id": 33074, "source": {"name": "Wikidata", "slug": "wikidata"}, "source_identifier": "Q121035004"}], "date_modified": "2023-09-05T18:59:44.799789+10:00"}, {"id": 77043, "name": "Bob Penn", "roles_in_work": [{"id": 2777770, "title": "Learning", "work_id": 82085, "role": "co-producer", "role_id": 915, "is_primary": true}], "also_known_as": "", "date_of_birth": null, "date_of_death": null, "genders": [], "languages": [], "places_of_operation": [], "biography": "", "biography_author": null, "date_of_biography": null, "external_links": [], "uuid": "c4e6c2b4-b6b7-4c6d-9941-fc50614f1da5", "source": {"name": "Vernon", "slug": "vernon"}, "source_identifier": null, "external_references": [{"id": 34826, "source": {"name": "Wikidata", "slug": "wikidata"}, "source_identifier": "Q121223510"}], "date_modified": "2023-09-05T18:07:50.042560+10:00"}]}