{"count": 28682, "next": "https://api.acmi.net.au/creators/?page=1245", "previous": "https://api.acmi.net.au/creators/?page=1243", "results": [{"id": 72727, "name": "Hossein Valamanesh", "roles_in_work": [{"id": 2711565, "title": "From the heart", "work_id": 109406, "role": "producer/director", "role_id": 31, "is_primary": true}], "also_known_as": "", "date_of_birth": "1949", "date_of_death": "", "genders": [], "languages": [], "places_of_operation": [], "biography": "Born 1949 Tehran, Iran; lives and works in Adelaide.\nValamanesh graduated from the School of Fine Art Painting in Tehran in 1970 and emigrated to Australia in 1973. Since graduating from further studies at South Australian School of Art he has exhibited frequently in Australia and internationally, including in Germany, Poland and Japan. He has received numerous awards including a Fellowship Residency in Kunstlerhaus Bethanien, Berlin, 1991, and more recently an Australia Council Fellowship. Hossein's work is included in most major public Australian art collections.", "biography_author": null, "date_of_biography": "2025-03-11T23:55:24.896528+11:00", "external_links": [], "uuid": "f5e12308-e15a-4b63-a12d-a19ee0280c3e", "source": {"name": "Vernon", "slug": "vernon"}, "source_identifier": "2049", "external_references": [{"id": 51301, "source": {"name": "Wikidata", "slug": "wikidata"}, "source_identifier": "Q121360646"}], "date_modified": "2025-03-11T23:55:24.896824+11:00"}, {"id": 72726, "name": "Arlene TextaQueen", "roles_in_work": [{"id": 2711583, "title": "Snap!", "work_id": 109405, "role": "producer/director", "role_id": 31, "is_primary": true}], "also_known_as": "", "date_of_birth": "1975", "date_of_death": "", "genders": [], "languages": [], "places_of_operation": [], "biography": "Born 1975, lives and works in Melbourne.\nArlene TextaQueen has been devoted to her felt-tip marker medium for over seven years (not including her childhood dedication) and has been drawing nude portraits for nearly as long. Exhibiting widely and wildly, from Sydney's Squatspace to Gertrude Contemporary Art Spaces, international intimate slide shows to solo exhibitionist in the 2002 Sydney Gay and Lesbian Mardi Gras at Mori Gallery, and featuring in Primavera, 2002, at Sydney's Museum of Contemporary Art, TextaQueen is ever prolific and keen to exhibit.", "biography_author": null, "date_of_biography": "2025-03-11T23:55:47.026477+11:00", "external_links": [], "uuid": "856dfde2-ebd9-463a-9a78-b970cebdb387", "source": {"name": "Vernon", "slug": "vernon"}, "source_identifier": "2048", "external_references": [{"id": 51699, "source": {"name": "Wikidata", "slug": "wikidata"}, "source_identifier": "Q121360896"}], "date_modified": "2025-03-11T23:55:47.026690+11:00"}, {"id": 72725, "name": "Julie Rrap", "roles_in_work": [{"id": 2711559, "title": "FleshPool", "work_id": 109404, "role": "producer/director", "role_id": 31, "is_primary": true}], "also_known_as": "", "date_of_birth": "", "date_of_death": "", "genders": [], "languages": [], "places_of_operation": [], "biography": "Lives and works in Sydney.\nRrap completed a BA at the University of Queensland and later studied at the National Art School and City Art Institute, Sydney. Between 1986 and 1994 she lived and worked in Europe. Her work has been featured in numerous solo exhibitions in Australia and overseas, and in major international exhibitions including the Biennale of Sydney, 1986, 1988, 1992; The Body Show, Art Gallery of New South Wales, 1997; and Systems End: Contemporary Art in Australia, Japan and Korea, 1996. Rrap has received the Hermann's Art Award in 2001; three Australia Council Fellowships; and has undertaken residencies in Italy, Paris and Grenoble.", "biography_author": null, "date_of_biography": "2025-03-11T23:55:17.568430+11:00", "external_links": [], "uuid": "1015dc8a-638e-4661-8b6a-005b26f1d91a", "source": {"name": "Vernon", "slug": "vernon"}, "source_identifier": "111901", "external_references": [{"id": 52097, "source": {"name": "Wikidata", "slug": "wikidata"}, "source_identifier": "Q121360600"}], "date_modified": "2025-03-11T23:55:17.568664+11:00"}, {"id": 72724, "name": "Scott Redford", "roles_in_work": [{"id": 2711550, "title": "Blood disco: Dirk wears white socks", "work_id": 109403, "role": "producer/director", "role_id": 31, "is_primary": true}], "also_known_as": "", "date_of_birth": "1962", "date_of_death": "", "genders": [], "languages": [], "places_of_operation": [], "biography": "Born 1962, lives and works in Brisbane.\nRedford is an artist and curator. He has exhibited nationally since 1983 and internationally since 1997. In 2001-03 Redford was the recipient of an Australia Council Residency at the Kunstlerhaus Bethanien, Berlin. Major exhibitions he has participated in include the 1993 and 1999 Australian Perspectas at the Art Gallery of New South Wales; the 1996 Adelaide Biennale of Australian Art at Art Gallery of South Australia; Photographica Australis Taipei Art Museum, Taiwan and Asian tour; and Fieldwork: Australian Art 1968-2002, National Gallery of Victoria, 2002.", "biography_author": null, "date_of_biography": "2025-03-11T23:55:06.369386+11:00", "external_links": [], "uuid": "5aee2c93-d8b5-461a-966f-e1308fb81f22", "source": {"name": "Vernon", "slug": "vernon"}, "source_identifier": "2047", "external_references": [{"id": 52123, "source": {"name": "Wikidata", "slug": "wikidata"}, "source_identifier": "Q121361219"}], "date_modified": "2025-03-11T23:55:06.369690+11:00"}, {"id": 72723, "name": "Janet Merewether", "roles_in_work": [{"id": 2144180, "title": "Contemporary case studies", "work_id": 93043, "role": "producer/director", "role_id": 31, "is_primary": true}, {"id": 2711568, "title": "Knit-face", "work_id": 109402, "role": "producer/director", "role_id": 31, "is_primary": true}, {"id": 2318811, "title": "Surplus government asset", "work_id": 87642, "role": "producer/director", "role_id": 31, "is_primary": true}], "also_known_as": "", "date_of_birth": "", "date_of_death": "", "genders": [], "languages": [], "places_of_operation": [], "biography": "Born lives and works in Sydney.\nMerewether is a film director and media artist who has studied at Sydney College of the Arts and Australian Film Television and Radio School, and is completing her master's at the University of Technology, Sydney. Her award-winning short films and videos have screened in numerous festivals internationally including the New York Film Festival. Her latest film, Short Before the Movie, premiered at the New Directors/New Films festival at MoMA, New York. She is currently developing a documentary entitled Jabe Babe: A Heightened Life and completing her short film Palermo: 'History' Standing Still. Retrospectives of her work have screened in Berlin, Boston, Seoul and Taipei.", "biography_author": null, "date_of_biography": "2025-03-11T23:55:28.502318+11:00", "external_links": [], "uuid": "895309fe-9428-4bf5-baae-08c49a6a1035", "source": {"name": "Vernon", "slug": "vernon"}, "source_identifier": "110733", "external_references": [{"id": 51152, "source": {"name": "Wikidata", "slug": "wikidata"}, "source_identifier": "Q121361144"}], "date_modified": "2025-03-11T23:55:28.502637+11:00"}, {"id": 72722, "name": "Simryn Gill", "roles_in_work": [{"id": 2711589, "title": "Vessel", "work_id": 109398, "role": "producer/director", "role_id": 31, "is_primary": true}], "also_known_as": "", "date_of_birth": "1959", "date_of_death": "", "genders": [], "languages": [], "places_of_operation": [], "biography": "Born 1959 Singapore, lives and works in Sydney.\nGill currently divides her time between Sydney and Port Dickson, Malaysia. Her art practice involves object-making, compiling collections, photography and the use of text. Her recent solo exhibitions have been held at Ikon Gallery, Birmingham, England, 2000; Petronas Gallery, Kuala Lumpur, 2001; the Art Gallery of New South Wales, 2002; and the Berkeley Art Museum, University of California, 2004. She received an Australia Council Fellowship in 2003.", "biography_author": null, "date_of_biography": "2025-03-11T23:55:54.265299+11:00", "external_links": [], "uuid": "99100abd-1169-4780-978d-da3c6424018a", "source": {"name": "Vernon", "slug": "vernon"}, "source_identifier": "2042", "external_references": [{"id": 51535, "source": {"name": "Wikidata", "slug": "wikidata"}, "source_identifier": "Q121361069"}], "date_modified": "2025-03-11T23:55:54.265554+11:00"}, {"id": 72721, "name": "Vernon Ah Kee", "roles_in_work": [{"id": 2711592, "title": "Whitefellanormal", "work_id": 109395, "role": "producer/director", "role_id": 31, "is_primary": true}], "also_known_as": "", "date_of_birth": "", "date_of_death": "", "genders": [], "languages": [], "places_of_operation": [], "biography": "Born in North Queensland, lives and works in Brisbane.\nAh Kee holds a Bachelor of Visual Arts in contemporary Australian Indigenous art and an honours in Fine Art; he is currently researching his doctorate. Ah Kee's work is primarily a critique of Australian popular culture, specifically the black/white dichotomy. Recently he has concentrated on a conceptual use of text and minimal expression, combining a combative writing style with a strong visual sense. He has exhibited in group and solo shows, and he currently lectures on contemporary Australian Indigenous art at Queensland College of Arts, with interests including Aboriginal education, identity and art.\nVernon Ah Kee is represented by Bellas Milani Gallery, Brisbane.", "biography_author": null, "date_of_biography": "2025-03-11T23:55:57.977671+11:00", "external_links": [], "uuid": "0e288f38-1c5f-41b5-84a9-38a43794e882", "source": {"name": "Vernon", "slug": "vernon"}, "source_identifier": "2054", "external_references": [{"id": 52224, "source": {"name": "Wikidata", "slug": "wikidata"}, "source_identifier": "Q121360790"}], "date_modified": "2025-03-11T23:55:57.977985+11:00"}, {"id": 72061, "name": "Kale Frost", "roles_in_work": [{"id": 2685552, "title": "LEGO Mosaic", "work_id": 100875, "role": "creator", "role_id": 968, "is_primary": true}], "also_known_as": "", "date_of_birth": "", "date_of_death": "", "genders": [], "languages": [], "places_of_operation": [], "biography": "", "biography_author": null, "date_of_biography": "2023-06-07T03:45:46.932170+10:00", "external_links": [], "uuid": "b299f88a-3356-4fa5-b011-4af257755d4d", "source": {"name": "Vernon", "slug": "vernon"}, "source_identifier": "39411", "external_references": [], "date_modified": "2025-03-11T11:51:01.110490+11:00"}, {"id": 72060, "name": "Phillip Lord", "roles_in_work": [{"id": 2685652, "title": "Clips from The LEGO Movie", "work_id": 107647, "role": "director", "role_id": 938, "is_primary": true}, {"id": 2685551, "title": "Unikitty concept art", "work_id": 100760, "role": "artist", "role_id": 505, "is_primary": true}], "also_known_as": "", "date_of_birth": "1975", "date_of_death": "", "genders": [], "languages": [], "places_of_operation": [], "biography": "", "biography_author": null, "date_of_biography": "2023-06-07T03:45:49.346196+10:00", "external_links": [], "uuid": "37d305a1-c8cd-4dd6-a11e-c67c2022b5dc", "source": {"name": "Vernon", "slug": "vernon"}, "source_identifier": "39477", "external_references": [], "date_modified": "2025-03-11T11:56:45.077924+11:00"}, {"id": 72059, "name": "Chris Miller", "roles_in_work": [{"id": 2685651, "title": "Clips from The LEGO Movie", "work_id": 107647, "role": "director", "role_id": 938, "is_primary": true}, {"id": 2685550, "title": "Unikitty concept art", "work_id": 100760, "role": "artist", "role_id": 505, "is_primary": true}], "also_known_as": "", "date_of_birth": "1975", "date_of_death": "", "genders": [], "languages": [], "places_of_operation": [], "biography": "", "biography_author": null, "date_of_biography": "2023-06-07T03:45:49.113976+10:00", "external_links": [], "uuid": "f9a37077-a296-4712-a450-21e59c375355", "source": {"name": "Vernon", "slug": "vernon"}, "source_identifier": "39476", "external_references": [], "date_modified": "2025-03-11T11:56:44.480957+11:00"}]}