{"count": 28687, "next": "https://api.acmi.net.au/creators/?page=888", "previous": "https://api.acmi.net.au/creators/?page=886", "results": [{"id": 76712, "name": "Philips Classics", "roles_in_work": [{"id": 899922, "title": "Jessye Norman Sings Carmen", "work_id": 80787, "role": "production company", "role_id": 941, "is_primary": true}], "also_known_as": "", "date_of_birth": null, "date_of_death": null, "genders": [], "languages": [], "places_of_operation": [], "biography": "", "biography_author": null, "date_of_biography": null, "external_links": [], "uuid": "ddba5f36-2809-42b1-b2d2-cc3700665ed0", "source": {"name": "Vernon", "slug": "vernon"}, "source_identifier": null, "external_references": [{"id": 33243, "source": {"name": "Wikidata", "slug": "wikidata"}, "source_identifier": "Q121223271"}], "date_modified": "2023-09-06T00:06:37.266338+10:00"}, {"id": 76711, "name": "Yoram Globus", "roles_in_work": [{"id": 2178918, "title": "Otello", "work_id": 80782, "role": "co-producer", "role_id": 915, "is_primary": true}, {"id": 2172142, "title": "Dancers", "work_id": 95364, "role": "co-producer", "role_id": 915, "is_primary": true}, {"id": 1992743, "title": "Love streams", "work_id": 88382, "role": "co-producer", "role_id": 915, "is_primary": true}, {"id": 2246238, "title": "Fool for love", "work_id": 94236, "role": "co-producer", "role_id": 915, "is_primary": true}], "also_known_as": "", "date_of_birth": "1941-10-21", "date_of_death": "", "genders": [{"id": 9, "name": "Male", "slug": "male"}], "languages": [], "places_of_operation": [{"id": 33, "name": "Israel", "slug": "israel"}], "biography": "Yoram Globus (Hebrew: יורם גלובוס; born 7 September 1943) is an Israeli–American film producer, cinema owner, and distributor. He has been involved in over 300 full-length motion pictures and he is most known for his association with The Cannon Group, Inc., an American film production company, which he co-owned with his cousin Menahem Golan.", "biography_author": "Wikidata", "date_of_biography": "2023-08-01T17:29:54.110418+10:00", "external_links": [{"id": 3316, "uri": "https://en.wikipedia.org/wiki/Yoram_Globus"}], "uuid": "82434fc3-e3cc-4dcc-b695-3a0375688c98", "source": {"name": "Vernon", "slug": "vernon"}, "source_identifier": "30598", "external_references": [{"id": 14022, "source": {"name": "Wikidata", "slug": "wikidata"}, "source_identifier": "Q1382548"}, {"id": 14023, "source": {"name": "VIAF", "slug": "viaf"}, "source_identifier": "117434542"}, {"id": 14024, "source": {"name": "LOC Auth", "slug": "loc-auth"}, "source_identifier": "n85151776"}, {"id": 14025, "source": {"name": "WorldCat", "slug": "worldcat"}, "source_identifier": "lccn-n85151776"}], "date_modified": "2023-09-06T02:22:56.046351+10:00"}, {"id": 76710, "name": "Menahem Golan", "roles_in_work": [{"id": 1992742, "title": "Love streams", "work_id": 88382, "role": "co-producer", "role_id": 915, "is_primary": true}, {"id": 2172139, "title": "Dancers", "work_id": 95364, "role": "co-producer", "role_id": 915, "is_primary": true}, {"id": 2178914, "title": "Otello", "work_id": 80782, "role": "co-producer", "role_id": 915, "is_primary": true}, {"id": 2246233, "title": "Fool for love", "work_id": 94236, "role": "co-producer", "role_id": 915, "is_primary": true}], "also_known_as": "", "date_of_birth": "1929-05-31", "date_of_death": "2014-08-08", "genders": [{"id": 9, "name": "Male", "slug": "male"}], "languages": [{"id": 1, "name": "English", "slug": "english"}, {"id": 11, "name": "Hebrew", "slug": "hebrew"}], "places_of_operation": [{"id": 33, "name": "Israel", "slug": "israel"}], "biography": "Menahem Golan (Hebrew: מנחם גולן; May 31, 1929 – August 8, 2014, originally Menachem Globus) was an Israeli film producer, screenwriter, and director. He was best known for co-owning The Cannon Group with his cousin Yoram Globus. Cannon specialized in producing low-to-mid-budget American films, primarily genre films, during the 1980s after Golan and Globus had achieved significant filmmaking success in their native Israel during the 1970s.Golan produced films featuring actors such as Sean Connery, Sylvester Stallone, Chuck Norris, Jean-Claude Van Damme, and Charles Bronson, and for a period, was known as a producer of comic book-style films like Masters of the Universe, Superman IV: The Quest for Peace, Captain America, and his aborted attempt to bring Spider-Man to the silver screen. Golan also wrote and \"polished\" numerous film scripts under the pen name Joseph Goldman. At the time of his death, Golan had produced over 200 films, directed 44, and won 8 \"Kinor David\" awards as well as \"Israel Prize\" in Cinema. He was nominated for a BAFTA Award for Best Foreign-Language Film for Franco Zeffirelli's Otello.", "biography_author": "Wikidata", "date_of_biography": "2023-08-01T16:11:52.388552+10:00", "external_links": [{"id": 2692, "uri": "https://en.wikipedia.org/wiki/Menahem_Golan"}], "uuid": "55c9adef-9c0c-471f-8f2a-00949b51908f", "source": {"name": "Vernon", "slug": "vernon"}, "source_identifier": "24940", "external_references": [{"id": 11488, "source": {"name": "Wikidata", "slug": "wikidata"}, "source_identifier": "Q542003"}, {"id": 11489, "source": {"name": "VIAF", "slug": "viaf"}, "source_identifier": "35893703"}, {"id": 11490, "source": {"name": "LOC Auth", "slug": "loc-auth"}, "source_identifier": "n85185291"}, {"id": 11491, "source": {"name": "WorldCat", "slug": "worldcat"}, "source_identifier": "lccn-n85185291"}], "date_modified": "2023-09-05T23:00:42.626357+10:00"}, {"id": 76709, "name": "Paul Rea", "roles_in_work": [{"id": 2649092, "title": "Paradise Camp", "work_id": 80780, "role": "co-producer", "role_id": 915, "is_primary": true}, {"id": 2776083, "title": "The Sword and the Flower", "work_id": 81620, "role": "co-producer", "role_id": 915, "is_primary": true}], "also_known_as": "", "date_of_birth": "", "date_of_death": "", "genders": [], "languages": [], "places_of_operation": [], "biography": "", "biography_author": null, "date_of_biography": "2023-05-09T17:01:49.155142+10:00", "external_links": [], "uuid": "86114872-f45b-421e-a5fc-7793bb2c39b6", "source": {"name": "Vernon", "slug": "vernon"}, "source_identifier": "26318", "external_references": [{"id": 42165, "source": {"name": "Wikidata", "slug": "wikidata"}, "source_identifier": "Q121036724"}], "date_modified": "2025-03-14T18:45:41.808949+11:00"}, {"id": 76708, "name": "Penne Hackforth-Jones", "roles_in_work": [{"id": 2357424, "title": "The Journalist", "work_id": 80778, "role": "cast", "role_id": 33, "is_primary": false}, {"id": 2640877, "title": "The Door", "work_id": 114236, "role": "cast", "role_id": 33, "is_primary": false}], "also_known_as": "", "date_of_birth": "1949-08-05", "date_of_death": "2013-05-17", "genders": [{"id": 5, "name": "Female", "slug": "female"}], "languages": [{"id": 1, "name": "English", "slug": "english"}], "places_of_operation": [{"id": 1, "name": "United States of America", "slug": "united-states-of-america"}], "biography": "Penne Hackforth-Jones (5 August 1949 – 17 May 2013) was an American-born Australian actress and biographer.", "biography_author": "Wikidata", "date_of_biography": "2023-09-05T23:52:00.926284+10:00", "external_links": [{"id": 6094, "uri": "https://en.wikipedia.org/wiki/Penne_Hackforth-Jones"}], "uuid": "e415ac43-aaae-41ef-8c43-b56aa0efbd79", "source": {"name": "Vernon", "slug": "vernon"}, "source_identifier": "2968", "external_references": [{"id": 43507, "source": {"name": "Wikidata", "slug": "wikidata"}, "source_identifier": "Q7163398"}, {"id": 55469, "source": {"name": "VIAF", "slug": "viaf"}, "source_identifier": "91828883"}, {"id": 55470, "source": {"name": "LOC Auth", "slug": "loc-auth"}, "source_identifier": "n92105781"}, {"id": 55471, "source": {"name": "WorldCat", "slug": "worldcat"}, "source_identifier": "lccn-n92105781"}], "date_modified": "2025-03-05T11:30:58.026089+11:00"}, {"id": 76707, "name": "Elizabeth Alexander", "roles_in_work": [{"id": 2357422, "title": "The Journalist", "work_id": 80778, "role": "cast", "role_id": 33, "is_primary": false}], "also_known_as": "", "date_of_birth": "1952-08-21", "date_of_death": "", "genders": [{"id": 5, "name": "Female", "slug": "female"}], "languages": [{"id": 1, "name": "English", "slug": "english"}], "places_of_operation": [{"id": 3, "name": "Australia", "slug": "australia"}], "biography": "Elizabeth Alexander (sometimes credited as Liz Alexander; born 21 August 1952) is an Australian actress, director and teacher.", "biography_author": "Wikidata", "date_of_biography": "2023-09-05T19:29:20.551200+10:00", "external_links": [{"id": 5793, "uri": "https://en.wikipedia.org/wiki/Elizabeth_Alexander_(actress)"}], "uuid": "83b91375-0736-402b-9113-7cd3ee575ba3", "source": {"name": "Vernon", "slug": "vernon"}, "source_identifier": "38126", "external_references": [{"id": 51139, "source": {"name": "Wikidata", "slug": "wikidata"}, "source_identifier": "Q3027478"}, {"id": 54370, "source": {"name": "VIAF", "slug": "viaf"}, "source_identifier": "54355607"}, {"id": 54371, "source": {"name": "LOC Auth", "slug": "loc-auth"}, "source_identifier": "n2012072788"}, {"id": 54372, "source": {"name": "WorldCat", "slug": "worldcat"}, "source_identifier": "lccn-nr2003038648"}], "date_modified": "2023-09-05T19:29:20.574151+10:00"}, {"id": 76706, "name": "Maureen Walsh", "roles_in_work": [{"id": 2093136, "title": "An Interview with May Gibbs", "work_id": 80774, "role": "producer/director", "role_id": 31, "is_primary": true}], "also_known_as": "", "date_of_birth": "", "date_of_death": "", "genders": [], "languages": [], "places_of_operation": [], "biography": "", "biography_author": null, "date_of_biography": "2023-05-09T12:15:21.527216+10:00", "external_links": [], "uuid": "636a706e-3fb4-4ab8-8476-d831e4e15b52", "source": {"name": "Vernon", "slug": "vernon"}, "source_identifier": "24822", "external_references": [{"id": 51360, "source": {"name": "Wikidata", "slug": "wikidata"}, "source_identifier": "Q121361245"}], "date_modified": "2023-09-05T22:55:40.332212+10:00"}, {"id": 76705, "name": "W.R. Geddes", "roles_in_work": [{"id": 773071, "title": "The Sacred cow of India", "work_id": 80767, "role": "director", "role_id": 938, "is_primary": true}], "also_known_as": "", "date_of_birth": null, "date_of_death": null, "genders": [], "languages": [], "places_of_operation": [], "biography": "", "biography_author": null, "date_of_biography": null, "external_links": [], "uuid": "09bf5d70-c3f9-432e-b795-2ace6393f602", "source": {"name": "Vernon", "slug": "vernon"}, "source_identifier": null, "external_references": [{"id": 42634, "source": {"name": "Wikidata", "slug": "wikidata"}, "source_identifier": "Q121299356"}], "date_modified": "2023-09-06T02:09:43.072650+10:00"}, {"id": 76704, "name": "Norman Priggen", "roles_in_work": [{"id": 2351178, "title": "The Go-between", "work_id": 80728, "role": "co-producer", "role_id": 915, "is_primary": true}, {"id": 1984734, "title": "The Servant", "work_id": 80729, "role": "co-producer", "role_id": 915, "is_primary": true}, {"id": 2079161, "title": "Accident", "work_id": 80730, "role": "co-producer", "role_id": 915, "is_primary": true}], "also_known_as": "", "date_of_birth": "", "date_of_death": "", "genders": [], "languages": [], "places_of_operation": [], "biography": "", "biography_author": null, "date_of_biography": "2023-05-09T19:56:22.815061+10:00", "external_links": [], "uuid": "c10b2d49-3cac-4441-9962-213df087c384", "source": {"name": "Vernon", "slug": "vernon"}, "source_identifier": "25905", "external_references": [{"id": 41274, "source": {"name": "Wikidata", "slug": "wikidata"}, "source_identifier": "Q121337581"}], "date_modified": "2023-09-05T23:34:31.658501+10:00"}, {"id": 76703, "name": "Robert Velaise", "roles_in_work": [{"id": 2351172, "title": "The Go-between", "work_id": 80728, "role": "co-producer", "role_id": 915, "is_primary": true}], "also_known_as": "", "date_of_birth": "", "date_of_death": "", "genders": [], "languages": [], "places_of_operation": [], "biography": "", "biography_author": null, "date_of_biography": "2023-05-09T19:56:22.557151+10:00", "external_links": [], "uuid": "d14deaa4-2f6a-4f81-bb12-3b77d1b57a1b", "source": {"name": "Vernon", "slug": "vernon"}, "source_identifier": "27902", "external_references": [{"id": 33360, "source": {"name": "Wikidata", "slug": "wikidata"}, "source_identifier": "Q121086178"}], "date_modified": "2023-09-06T00:47:36.846823+10:00"}]}