{"count": 28681, "next": "https://api.acmi.net.au/creators/?page=1870", "previous": "https://api.acmi.net.au/creators/?page=1868", "results": [{"id": 25061, "name": "Cochrane Productions", "roles_in_work": [{"id": 2249798, "title": "Rhino christmas", "work_id": 85602, "role": "production company", "role_id": 941, "is_primary": true}, {"id": 2161343, "title": "Nirvana Street murder", "work_id": 82925, "role": "production company", "role_id": 941, "is_primary": true}], "also_known_as": "", "date_of_birth": "", "date_of_death": "", "genders": [], "languages": [], "places_of_operation": [], "biography": "", "biography_author": null, "date_of_biography": "2023-05-09T17:09:09.865138+10:00", "external_links": [], "uuid": "6cc85416-22eb-4f73-8991-77dc031e26b6", "source": {"name": "Vernon", "slug": "vernon"}, "source_identifier": "6862", "external_references": [{"id": 51044, "source": {"name": "Wikidata", "slug": "wikidata"}, "source_identifier": "Q121357612"}], "date_modified": "2023-09-05T18:43:13.225137+10:00"}, {"id": 25060, "name": "Vellis", "roles_in_work": [{"id": 2161340, "title": "Nirvana Street murder", "work_id": 82925, "role": "production company", "role_id": 941, "is_primary": true}], "also_known_as": "", "date_of_birth": "", "date_of_death": "", "genders": [], "languages": [], "places_of_operation": [], "biography": "", "biography_author": null, "date_of_biography": "2023-05-09T14:15:57.660072+10:00", "external_links": [], "uuid": "0eb8843a-0796-41ad-80df-11cc4f78a27e", "source": {"name": "Vernon", "slug": "vernon"}, "source_identifier": "14014", "external_references": [], "date_modified": "2023-06-14T16:33:30.576250+10:00"}, {"id": 25059, "name": "Triple Image", "roles_in_work": [{"id": 2259644, "title": "Sacred sex (E)", "work_id": 82924, "role": "production company", "role_id": 941, "is_primary": true}], "also_known_as": "", "date_of_birth": "", "date_of_death": "", "genders": [], "languages": [], "places_of_operation": [], "biography": "", "biography_author": null, "date_of_biography": "2023-05-09T17:26:10.962293+10:00", "external_links": [], "uuid": "9c924ef2-d520-42f6-b9ec-154d70d5da8d", "source": {"name": "Vernon", "slug": "vernon"}, "source_identifier": "13718", "external_references": [{"id": 36704, "source": {"name": "Wikidata", "slug": "wikidata"}, "source_identifier": "Q121034968"}], "date_modified": "2023-09-06T01:58:53.393994+10:00"}, {"id": 25057, "name": "Chris Strewe", "roles_in_work": [{"id": 2218886, "title": "Encounters with whales", "work_id": 82920, "role": "director", "role_id": 938, "is_primary": true}], "also_known_as": "", "date_of_birth": "", "date_of_death": "", "genders": [], "languages": [], "places_of_operation": [], "biography": "", "biography_author": null, "date_of_biography": "2023-05-09T16:12:47.710770+10:00", "external_links": [], "uuid": "08734ba2-c80a-461f-82bb-70eec6dbee0f", "source": {"name": "Vernon", "slug": "vernon"}, "source_identifier": "16879", "external_references": [{"id": 32738, "source": {"name": "Wikidata", "slug": "wikidata"}, "source_identifier": "Q121085975"}], "date_modified": "2023-09-05T18:33:19.580982+10:00"}, {"id": 25056, "name": "Ross Isaacs", "roles_in_work": [{"id": 2218883, "title": "Encounters with whales", "work_id": 82920, "role": "producer", "role_id": 1089, "is_primary": true}], "also_known_as": "", "date_of_birth": "", "date_of_death": "", "genders": [], "languages": [], "places_of_operation": [], "biography": "", "biography_author": null, "date_of_biography": "2023-05-09T16:12:47.261454+10:00", "external_links": [], "uuid": "0a0586c1-a719-482c-b708-535184d38ea6", "source": {"name": "Vernon", "slug": "vernon"}, "source_identifier": "28270", "external_references": [{"id": 33133, "source": {"name": "Wikidata", "slug": "wikidata"}, "source_identifier": "Q121222764"}], "date_modified": "2023-09-06T00:56:43.241656+10:00"}, {"id": 25055, "name": "Ocean Planet Images", "roles_in_work": [{"id": 2218881, "title": "Encounters with whales", "work_id": 82920, "role": "production company", "role_id": 941, "is_primary": true}], "also_known_as": "", "date_of_birth": "", "date_of_death": "", "genders": [], "languages": [], "places_of_operation": [], "biography": "", "biography_author": null, "date_of_biography": "2023-05-09T16:12:46.900846+10:00", "external_links": [], "uuid": "a6d24542-901e-4309-8eff-e42476e91771", "source": {"name": "Vernon", "slug": "vernon"}, "source_identifier": "11075", "external_references": [{"id": 34103, "source": {"name": "Wikidata", "slug": "wikidata"}, "source_identifier": "Q121159980"}], "date_modified": "2023-09-05T23:35:20.036084+10:00"}, {"id": 25051, "name": "Kushner-Locke", "roles_in_work": [{"id": 2334302, "title": "The Brave little toaster", "work_id": 82919, "role": "production company", "role_id": 941, "is_primary": true}, {"id": 1996921, "title": "Last gasp", "work_id": 92989, "role": "production company", "role_id": 941, "is_primary": true}], "also_known_as": "", "date_of_birth": "", "date_of_death": "", "genders": [], "languages": [], "places_of_operation": [], "biography": "", "biography_author": null, "date_of_biography": "2023-05-09T19:29:51.107284+10:00", "external_links": [], "uuid": "e1c84775-99f3-415b-8f7e-b604a6ab5436", "source": {"name": "Vernon", "slug": "vernon"}, "source_identifier": "9857", "external_references": [{"id": 37290, "source": {"name": "Wikidata", "slug": "wikidata"}, "source_identifier": "Q121223470"}], "date_modified": "2023-09-05T22:12:44.535995+10:00"}, {"id": 25050, "name": "Hyperion Pictures (US)", "roles_in_work": [{"id": 1847093, "title": "Nutcracker", "work_id": 84110, "role": "production company", "role_id": 941, "is_primary": true}, {"id": 2334300, "title": "The Brave little toaster", "work_id": 82919, "role": "production company", "role_id": 941, "is_primary": true}], "also_known_as": "", "date_of_birth": "", "date_of_death": "", "genders": [], "languages": [], "places_of_operation": [], "biography": "", "biography_author": null, "date_of_biography": "2023-05-09T19:29:50.871743+10:00", "external_links": [], "uuid": "d87d4747-2e90-4535-924f-d7766b532e7f", "source": {"name": "Vernon", "slug": "vernon"}, "source_identifier": "4438", "external_references": [], "date_modified": "2023-06-14T16:33:30.576250+10:00"}, {"id": 25049, "name": "Jerry Bresler", "roles_in_work": [{"id": 2795115, "title": "Casino royale", "work_id": 93885, "role": "co-producer", "role_id": 915, "is_primary": true}, {"id": 1986651, "title": "The Vikings", "work_id": 82918, "role": "producer", "role_id": 1089, "is_primary": true}, {"id": 1996117, "title": "Gidget goes to Rome", "work_id": 92486, "role": "producer", "role_id": 1089, "is_primary": true}, {"id": 1992575, "title": "Gidget goes Hawaiian", "work_id": 88184, "role": "producer", "role_id": 1089, "is_primary": true}], "also_known_as": "", "date_of_birth": "1912", "date_of_death": "1977", "genders": [{"id": 9, "name": "Male", "slug": "male"}], "languages": [{"id": 1, "name": "English", "slug": "english"}], "places_of_operation": [{"id": 1, "name": "United States of America", "slug": "united-states-of-america"}], "biography": "Jerry Bresler (Jerome S. Bresler: April 13, 1908 in Denver, Colorado – August 23, 1977 in Los Angeles)  was an American film producer. He won an Oscar in 1944 as co-producer for Heavenly Music (Best Short Subject, Two-reel)  and in 1945 for Stairway to Light (Best Short Subject, one-reel).He began his film career as a production supervisor. In the late 1930s, he joined MGM as a unit manager and worked on the Dr. Kildare series and other films. After his success with short films (the two Academy Awards, and three other nominations), he began to work on features, producing such films as Richard Fleischer's movie The Vikings in 1958, Sam Peckinpah's Major Dundee (1965) and the James Bond spoof Casino Royale in 1967, and his final film, Pussycat, Pussycat, I Love You.It was the post-production interference at Columbia Pictures on Major Dundee which for a time gave Bresler a reputation as a studio hatchet-man. The more complicated history of the production has become known over the years, and the editing of the film is seen as one part of that history.In 1965, he was a member of the jury at the 15th Berlin International Film Festival.", "biography_author": "Wikidata", "date_of_biography": "2022-05-19T11:57:50+10:00", "external_links": [{"id": 2375, "uri": "https://en.wikipedia.org/wiki/Jerry_Bresler_(film_producer)"}], "uuid": "480cef51-85c1-475f-97ea-ac7cfb457470", "source": {"name": "Vernon", "slug": "vernon"}, "source_identifier": "21785", "external_references": [{"id": 10177, "source": {"name": "Wikidata", "slug": "wikidata"}, "source_identifier": "Q3177454"}, {"id": 10178, "source": {"name": "VIAF", "slug": "viaf"}, "source_identifier": "204752602"}, {"id": 10179, "source": {"name": "LOC Auth", "slug": "loc-auth"}, "source_identifier": "no2014101683"}, {"id": 10180, "source": {"name": "WorldCat", "slug": "worldcat"}, "source_identifier": "lccn-no2014101683"}], "date_modified": "2025-03-14T20:30:23.832036+11:00"}, {"id": 25048, "name": "Guy Hamilton", "roles_in_work": [{"id": 2339409, "title": "The Colditz story", "work_id": 86656, "role": "director", "role_id": 938, "is_primary": true}, {"id": 2795048, "title": "Goldfinger", "work_id": 88101, "role": "director", "role_id": 938, "is_primary": true}, {"id": 2222823, "title": "Evil under the sun", "work_id": 85616, "role": "director", "role_id": 938, "is_primary": true}, {"id": 2795074, "title": "Live and let die (Special edition)", "work_id": 93873, "role": "director", "role_id": 938, "is_primary": true}, {"id": 1995504, "title": "Funeral in Berlin", "work_id": 91698, "role": "director", "role_id": 938, "is_primary": true}, {"id": 2108819, "title": "Battle of Britain", "work_id": 82917, "role": "director", "role_id": 938, "is_primary": true}, {"id": 914630, "title": "The Man with the golden gun (Special edition)", "work_id": 93880, "role": "director", "role_id": 938, "is_primary": true}, {"id": 914624, "title": "Diamonds are forever (Special edition)", "work_id": 93877, "role": "director", "role_id": 938, "is_primary": true}], "also_known_as": "Mervyn Ian Guy Hamilton", "date_of_birth": "1922", "date_of_death": "2016-04-20", "genders": [{"id": 9, "name": "Male", "slug": "male"}], "languages": [{"id": 1, "name": "English", "slug": "english"}], "places_of_operation": [{"id": 10, "name": "United Kingdom", "slug": "united-kingdom"}], "biography": "Mervyn Ian Guy Hamilton, DSC (16 September 1922 – 20 April 2016) was an English film director. He directed 22 films from the 1950s to the 1980s, including four James Bond films.\n\n", "biography_author": "Wikidata", "date_of_biography": "2022-05-19T11:40:30.110483+10:00", "external_links": [{"id": 2176, "uri": "https://en.wikipedia.org/wiki/Guy_Hamilton"}], "uuid": "a09ed6bc-5156-49af-be34-4e63aee1a527", "source": {"name": "Vernon", "slug": "vernon"}, "source_identifier": "20139", "external_references": [{"id": 9363, "source": {"name": "Wikidata", "slug": "wikidata"}, "source_identifier": "Q363653"}, {"id": 9364, "source": {"name": "VIAF", "slug": "viaf"}, "source_identifier": "79166791"}, {"id": 9365, "source": {"name": "LOC Auth", "slug": "loc-auth"}, "source_identifier": "n92054597"}, {"id": 9366, "source": {"name": "WorldCat", "slug": "worldcat"}, "source_identifier": "lccn-n92054597"}], "date_modified": "2025-03-14T20:30:05.087466+11:00"}]}