{"count": 28687, "next": "https://api.acmi.net.au/creators/?page=2028", "previous": "https://api.acmi.net.au/creators/?page=2026", "results": [{"id": 22024, "name": "Alfred L Werker", "roles_in_work": [{"id": 2409147, "title": "He walked by night", "work_id": 79554, "role": "director", "role_id": 938, "is_primary": true}, {"id": 907276, "title": "Behind the scenes at Walt Disney studios", "work_id": 87828, "role": "co-director", "role_id": 959, "is_primary": true}], "also_known_as": "", "date_of_birth": "", "date_of_death": "", "genders": [], "languages": [], "places_of_operation": [], "biography": "", "biography_author": null, "date_of_biography": "2023-08-11T17:16:13.056667+10:00", "external_links": [], "uuid": "056fceb4-383e-4953-abd4-24ff4667d0d6", "source": {"name": "Vernon", "slug": "vernon"}, "source_identifier": "14956", "external_references": [], "date_modified": "2023-08-11T17:16:13.056898+10:00"}, {"id": 22023, "name": "Robert T Kane", "roles_in_work": [{"id": 2409146, "title": "He walked by night", "work_id": 79554, "role": "producer", "role_id": 1089, "is_primary": true}], "also_known_as": "", "date_of_birth": "", "date_of_death": "", "genders": [], "languages": [], "places_of_operation": [], "biography": "", "biography_author": null, "date_of_biography": "2023-08-11T17:16:12.418377+10:00", "external_links": [], "uuid": "9b981fb7-79ec-4ffa-9f28-917bcac7f8d8", "source": {"name": "Vernon", "slug": "vernon"}, "source_identifier": "27894", "external_references": [], "date_modified": "2023-08-11T17:16:12.418640+10:00"}, {"id": 22022, "name": "Edward Small", "roles_in_work": [{"id": 1984176, "title": "I Cover the Waterfront", "work_id": 79551, "role": "producer", "role_id": 1089, "is_primary": true}, {"id": 2185892, "title": "Palooka", "work_id": 95322, "role": "producer", "role_id": 1089, "is_primary": true}, {"id": 2283709, "title": "The Toast of New York", "work_id": 92783, "role": "producer", "role_id": 1089, "is_primary": true}], "also_known_as": "", "date_of_birth": "1891-02-01", "date_of_death": "1977-01-25", "genders": [{"id": 9, "name": "Male", "slug": "male"}], "languages": [], "places_of_operation": [{"id": 1, "name": "United States of America", "slug": "united-states-of-america"}], "biography": "Edward Small (born Edward Schmalheiser, February 1, 1891, Brooklyn, New York – January 25, 1977, Los Angeles) was a film producer from the late 1920s through 1970, who was enormously prolific over a 50-year career. He is best known for the movies The Count of Monte Cristo (1934), The Man in the Iron Mask (1939), The Corsican Brothers (1941), Brewster's Millions (1945), Raw Deal (1948), Black Magic (1949), Witness for the Prosecution (1957) and Solomon and Sheba (1959).", "biography_author": "Wikidata", "date_of_biography": "2022-05-19T11:22:20+10:00", "external_links": [{"id": 1983, "uri": "https://en.wikipedia.org/wiki/Edward_Small"}], "uuid": "2fd67dbf-b54b-4fe4-8a8e-4410dfff320a", "source": {"name": "Vernon", "slug": "vernon"}, "source_identifier": "18628", "external_references": [{"id": 8576, "source": {"name": "Wikidata", "slug": "wikidata"}, "source_identifier": "Q1616048"}, {"id": 8577, "source": {"name": "VIAF", "slug": "viaf"}, "source_identifier": "16823458"}, {"id": 8578, "source": {"name": "LOC Auth", "slug": "loc-auth"}, "source_identifier": "no96067576"}, {"id": 8579, "source": {"name": "WorldCat", "slug": "worldcat"}, "source_identifier": "lccn-no96067576"}], "date_modified": "2023-09-13T12:58:15.842340+10:00"}, {"id": 22021, "name": "Erle C Kenton", "roles_in_work": [{"id": 1984170, "title": "You're Telling Me", "work_id": 79549, "role": "director", "role_id": 938, "is_primary": true}, {"id": 1995674, "title": "A Small town idol", "work_id": 92108, "role": "co-director", "role_id": 959, "is_primary": true}], "also_known_as": "", "date_of_birth": "1896-08-01", "date_of_death": "1980-01-28", "genders": [{"id": 9, "name": "Male", "slug": "male"}], "languages": [{"id": 1, "name": "English", "slug": "english"}], "places_of_operation": [{"id": 1, "name": "United States of America", "slug": "united-states-of-america"}], "biography": "Erle C. Kenton (August 1, 1896 – January 28, 1980) was an American film director. Kenton was  director of B films, with his most famous film being Island of Lost Souls starring Charles Laughton.", "biography_author": "Wikidata", "date_of_biography": "2022-05-19T11:25:11.708276+10:00", "external_links": [{"id": 2012, "uri": "https://en.wikipedia.org/wiki/Erle_C._Kenton"}], "uuid": "97464a26-0602-4b14-8875-2283f136a4d5", "source": {"name": "Vernon", "slug": "vernon"}, "source_identifier": "18858", "external_references": [{"id": 8697, "source": {"name": "Wikidata", "slug": "wikidata"}, "source_identifier": "Q219499"}, {"id": 8698, "source": {"name": "VIAF", "slug": "viaf"}, "source_identifier": "64255631"}, {"id": 8699, "source": {"name": "LOC Auth", "slug": "loc-auth"}, "source_identifier": "n87911725"}, {"id": 8700, "source": {"name": "WorldCat", "slug": "worldcat"}, "source_identifier": "lccn-n87911725"}], "date_modified": "2023-09-13T12:29:19.072516+10:00"}, {"id": 22019, "name": "Robin Lough", "roles_in_work": [{"id": 3083964, "title": "Miro: theatre of dreams", "work_id": 92605, "role": "director", "role_id": 938, "is_primary": true}, {"id": 1810877, "title": "Carmen", "work_id": 79543, "role": "producer", "role_id": 1089, "is_primary": true}, {"id": 1807872, "title": "L'incoronazione di Poppea", "work_id": 95383, "role": "producer", "role_id": 1089, "is_primary": true}], "also_known_as": "", "date_of_birth": "", "date_of_death": "", "genders": [], "languages": [], "places_of_operation": [], "biography": "", "biography_author": null, "date_of_biography": "2023-05-09T17:15:29.170706+10:00", "external_links": [], "uuid": "8ada7617-9d91-46e4-992d-32712431af99", "source": {"name": "Vernon", "slug": "vernon"}, "source_identifier": "27961", "external_references": [{"id": 43029, "source": {"name": "Wikidata", "slug": "wikidata"}, "source_identifier": "Q121034285"}], "date_modified": "2025-03-17T10:35:09.017476+11:00"}, {"id": 22017, "name": "Emerald City Productions", "roles_in_work": [{"id": 1812818, "title": "Ghost Stories from the Pickwick Papers", "work_id": 79565, "role": "producer", "role_id": 1089, "is_primary": true}, {"id": 2203610, "title": "Phantom of the Opera", "work_id": 79540, "role": "production company", "role_id": 941, "is_primary": true}], "also_known_as": "", "date_of_birth": "", "date_of_death": "", "genders": [], "languages": [], "places_of_operation": [], "biography": "", "biography_author": null, "date_of_biography": "2023-05-09T15:30:34.626483+10:00", "external_links": [], "uuid": "dff18f89-1a5b-41f7-a5cf-65cbf10800f0", "source": {"name": "Vernon", "slug": "vernon"}, "source_identifier": "7873", "external_references": [{"id": 33648, "source": {"name": "Wikidata", "slug": "wikidata"}, "source_identifier": "Q121270762"}], "date_modified": "2023-09-05T19:31:34.463108+10:00"}, {"id": 22015, "name": "Joseph L Mankiewicz", "roles_in_work": [{"id": 2200981, "title": "Dragonwyk", "work_id": 95113, "role": "director", "role_id": 938, "is_primary": true}, {"id": 1989475, "title": "Guys and dolls", "work_id": 85188, "role": "director", "role_id": 938, "is_primary": true}, {"id": 1984160, "title": "Julius Caesar", "work_id": 79538, "role": "director", "role_id": 938, "is_primary": true}, {"id": 2084918, "title": "All about Eve", "work_id": 85308, "role": "director", "role_id": 938, "is_primary": true}, {"id": 2350571, "title": "The Ghost and Mrs. Muir", "work_id": 84544, "role": "director", "role_id": 938, "is_primary": true}, {"id": 2139593, "title": "Cleopatra [DVD]", "work_id": 92626, "role": "director", "role_id": 938, "is_primary": true}, {"id": 2329669, "title": "The Barefoot contessa", "work_id": 85050, "role": "director", "role_id": 938, "is_primary": true}, {"id": 880787, "title": "Sleuth", "work_id": 92551, "role": "director", "role_id": 938, "is_primary": true}, {"id": 2316436, "title": "Suddenly last summer", "work_id": 80450, "role": "director", "role_id": 938, "is_primary": true}, {"id": 2649327, "title": "The Philadelphia story", "work_id": 81325, "role": "producer", "role_id": 1089, "is_primary": true}, {"id": 1986444, "title": "The Philadelphia story (Captioned)", "work_id": 82654, "role": "producer", "role_id": 1089, "is_primary": true}, {"id": 1985341, "title": "Woman of the Year", "work_id": 81225, "role": "producer", "role_id": 1089, "is_primary": true}, {"id": 2249860, "title": "Reunion in France", "work_id": 88495, "role": "producer", "role_id": 1089, "is_primary": true}, {"id": 1998416, "title": "The Quiet American", "work_id": 93785, "role": "producer/director", "role_id": 31, "is_primary": true}], "also_known_as": "", "date_of_birth": "1909-02-11", "date_of_death": "1993-02-05", "genders": [{"id": 9, "name": "Male", "slug": "male"}], "languages": [{"id": 1, "name": "English", "slug": "english"}, {"id": 5, "name": "German", "slug": "german"}], "places_of_operation": [{"id": 1, "name": "United States of America", "slug": "united-states-of-america"}], "biography": "Joseph Leo Mankiewicz (; February 11, 1909 – February 5, 1993) was an American film director, screenwriter, and producer. Mankiewicz had a long Hollywood career, and won both the Academy Award for Best Director and the Academy Award for Best Adapted Screenplay in consecutive years for A Letter to Three Wives (1949) and All About Eve (1950), the latter of which was nominated for 14 Academy Awards and won six.Comfortable in a variety of genres and able to elicit career performances from actors and actresses alike, Mankiewicz combined ironic, sophisticated scripts with a precise, sometimes stylized mise en scène.\nMankiewicz worked for seventeen years as a screenwriter for Paramount Pictures and as a writer and producer for Metro-Goldwyn-Mayer before getting a chance to direct at 20th Century Fox. Over six years, he made 11 films for Fox.\nDuring his over 40-year career in Hollywood, Mankiewicz wrote 48 screenplays. He also produced more than 20 films, including The Philadelphia Story (1940) which was nominated for the Academy Award for Best Picture, and Woman of the Year (1942), for which he introduced Katharine Hepburn to Spencer Tracy.", "biography_author": "Wikidata", "date_of_biography": "2022-05-19T12:06:02.174144+10:00", "external_links": [{"id": 2472, "uri": "https://en.wikipedia.org/wiki/Joseph_L._Mankiewicz"}], "uuid": "34995ba5-a887-4b97-919a-e94de7adb6fc", "source": {"name": "Vernon", "slug": "vernon"}, "source_identifier": "22730", "external_references": [{"id": 10565, "source": {"name": "Wikidata", "slug": "wikidata"}, "source_identifier": "Q51583"}, {"id": 10566, "source": {"name": "VIAF", "slug": "viaf"}, "source_identifier": "102369298"}, {"id": 10567, "source": {"name": "LOC Auth", "slug": "loc-auth"}, "source_identifier": "n83047932"}, {"id": 10568, "source": {"name": "WorldCat", "slug": "worldcat"}, "source_identifier": "lccn-n83047932"}], "date_modified": "2025-03-05T14:00:25.423357+11:00"}, {"id": 22011, "name": "Gabriel Pascal", "roles_in_work": [{"id": 2233636, "title": "Pygmalion", "work_id": 79535, "role": "producer", "role_id": 1089, "is_primary": true}, {"id": 2112914, "title": "Bernard Shaw's Caesar and Cleopatra", "work_id": 83476, "role": "producer/director", "role_id": 31, "is_primary": true}], "also_known_as": "", "date_of_birth": "1894-06-04", "date_of_death": "1954-07-06", "genders": [{"id": 9, "name": "Male", "slug": "male"}], "languages": [{"id": 1, "name": "English", "slug": "english"}, {"id": 8, "name": "Hungarian", "slug": "hungarian"}], "places_of_operation": [{"id": 25, "name": "Hungary", "slug": "hungary"}], "biography": "Gabriel Pascal (born Gábor Lehel; 4 June 1894 – 6 July 1954) was a Hungarian film producer and director whose best-known films were made in the United Kingdom.\nPascal was the first film producer to successfully bring the plays of George Bernard Shaw to the screen. His most successful production was Pygmalion (1938), for which Pascal received an Academy Award nomination as its producer. Later adaptations of Shaw plays included Major Barbara (1941), Caesar and Cleopatra (1945) and Androcles and the Lion (1952).", "biography_author": "Wikidata", "date_of_biography": "2023-08-01T14:53:29.089552+10:00", "external_links": [{"id": 4004, "uri": "https://en.wikipedia.org/wiki/Gabriel_Pascal"}], "uuid": "daa7ece1-fa95-4d16-bf09-3c13dfa5bc89", "source": {"name": "Vernon", "slug": "vernon"}, "source_identifier": "19334", "external_references": [{"id": 26121, "source": {"name": "Wikidata", "slug": "wikidata"}, "source_identifier": "Q1489537"}, {"id": 28497, "source": {"name": "VIAF", "slug": "viaf"}, "source_identifier": "46923373"}, {"id": 28498, "source": {"name": "LOC Auth", "slug": "loc-auth"}, "source_identifier": "no96030538"}, {"id": 28499, "source": {"name": "WorldCat", "slug": "worldcat"}, "source_identifier": "lccn-no96030538"}], "date_modified": "2023-09-05T19:55:36.719720+10:00"}, {"id": 22010, "name": "Pascal Film Productions", "roles_in_work": [{"id": 2233633, "title": "Pygmalion", "work_id": 79535, "role": "production company", "role_id": 941, "is_primary": true}], "also_known_as": "", "date_of_birth": "", "date_of_death": "", "genders": [], "languages": [], "places_of_operation": [], "biography": "", "biography_author": null, "date_of_biography": "2023-05-09T16:42:21.234347+10:00", "external_links": [], "uuid": "d6273773-db7f-4670-a57b-c37d1c589565", "source": {"name": "Vernon", "slug": "vernon"}, "source_identifier": "11314", "external_references": [{"id": 39083, "source": {"name": "Wikidata", "slug": "wikidata"}, "source_identifier": "Q121222930"}], "date_modified": "2023-09-05T23:41:02.624052+10:00"}, {"id": 22009, "name": "Harvey Cort", "roles_in_work": [{"id": 1810663, "title": "The Great Chase", "work_id": 79533, "role": "producer", "role_id": 1089, "is_primary": true}], "also_known_as": "", "date_of_birth": null, "date_of_death": null, "genders": [{"id": 9, "name": "Male", "slug": "male"}], "languages": [], "places_of_operation": [], "biography": "", "biography_author": null, "date_of_biography": null, "external_links": [], "uuid": "31cc418f-ed15-49bc-b9b4-66223d40257f", "source": {"name": "Vernon", "slug": "vernon"}, "source_identifier": "20368", "external_references": [{"id": 33430, "source": {"name": "Wikidata", "slug": "wikidata"}, "source_identifier": "Q47331072"}], "date_modified": "2023-09-13T12:29:52.962091+10:00"}]}