{"count": 28687, "next": "https://api.acmi.net.au/creators/?page=104", "previous": "https://api.acmi.net.au/creators/?page=102", "results": [{"id": 85111, "name": "O'Hara Smith", "roles_in_work": [{"id": 2781031, "title": "Switzerland: The Alpine Wonderland", "work_id": 80943, "role": "co-producer", "role_id": 915, "is_primary": true}], "also_known_as": "", "date_of_birth": "", "date_of_death": "", "genders": [], "languages": [], "places_of_operation": [], "biography": "", "biography_author": null, "date_of_biography": "2023-05-09T19:12:41.650316+10:00", "external_links": [], "uuid": "7837d6a1-749e-4027-9797-4171f087f42a", "source": {"name": "Vernon", "slug": "vernon"}, "source_identifier": "25933", "external_references": [], "date_modified": "2025-03-14T19:07:57.600405+11:00"}, {"id": 85110, "name": "Mark F Neuhaus", "roles_in_work": [{"id": 2781020, "title": "Essence of Africa", "work_id": 80941, "role": "co-producer", "role_id": 915, "is_primary": true}], "also_known_as": "", "date_of_birth": "", "date_of_death": "", "genders": [], "languages": [], "places_of_operation": [], "biography": "", "biography_author": null, "date_of_biography": "2023-05-09T19:12:40.186111+10:00", "external_links": [], "uuid": "3c3b00d7-c44c-4f15-b885-5755cd01dede", "source": {"name": "Vernon", "slug": "vernon"}, "source_identifier": "24485", "external_references": [], "date_modified": "2025-03-14T19:07:55.170342+11:00"}, {"id": 85109, "name": "Helen Weiss", "roles_in_work": [{"id": 2781017, "title": "Essence of Africa", "work_id": 80941, "role": "co-producer", "role_id": 915, "is_primary": true}], "also_known_as": "", "date_of_birth": "", "date_of_death": "", "genders": [], "languages": [], "places_of_operation": [], "biography": "", "biography_author": null, "date_of_biography": "2023-05-09T19:12:39.939918+10:00", "external_links": [], "uuid": "6feb12af-1271-4f8d-8202-73395e25e375", "source": {"name": "Vernon", "slug": "vernon"}, "source_identifier": "20443", "external_references": [], "date_modified": "2025-03-14T19:07:54.581542+11:00"}, {"id": 85108, "name": "Earl Olsen", "roles_in_work": [{"id": 2780964, "title": "World of Cruise Ships", "work_id": 80933, "role": "co-producers/directors", "role_id": 628, "is_primary": true}], "also_known_as": "", "date_of_birth": "", "date_of_death": "", "genders": [], "languages": [], "places_of_operation": [], "biography": "", "biography_author": null, "date_of_biography": "2023-05-09T19:13:13.986517+10:00", "external_links": [], "uuid": "274c060c-40e8-43ee-b38d-2b251be72cab", "source": {"name": "Vernon", "slug": "vernon"}, "source_identifier": "18514", "external_references": [], "date_modified": "2025-03-14T19:07:45.973133+11:00"}, {"id": 85107, "name": "Kevin Keating", "roles_in_work": [{"id": 2780962, "title": "World of Cruise Ships", "work_id": 80933, "role": "co-producers/directors", "role_id": 628, "is_primary": true}], "also_known_as": "", "date_of_birth": "", "date_of_death": "", "genders": [], "languages": [], "places_of_operation": [], "biography": "", "biography_author": null, "date_of_biography": "2023-05-09T19:13:13.602489+10:00", "external_links": [], "uuid": "c90472f8-8dae-4755-997e-f581b0f4b5db", "source": {"name": "Vernon", "slug": "vernon"}, "source_identifier": "23294", "external_references": [], "date_modified": "2025-03-14T19:07:45.401539+11:00"}, {"id": 85106, "name": "Lamont Johnson", "roles_in_work": [{"id": 2778184, "title": "Jack and the beanstalk", "work_id": 86208, "role": "director", "role_id": 938, "is_primary": true}], "also_known_as": "", "date_of_birth": "", "date_of_death": "", "genders": [], "languages": [], "places_of_operation": [], "biography": "", "biography_author": null, "date_of_biography": "2023-05-09T18:43:20.366966+10:00", "external_links": [], "uuid": "37f8afdf-6d2e-4b99-b72e-fe262420ccbc", "source": {"name": "Vernon", "slug": "vernon"}, "source_identifier": "23459", "external_references": [], "date_modified": "2025-03-14T18:58:51.749251+11:00"}, {"id": 85105, "name": "Shelley Duvall", "roles_in_work": [{"id": 2778173, "title": "Sleeping beauty", "work_id": 84133, "role": "co-producer", "role_id": 915, "is_primary": true}, {"id": 2778212, "title": "Rapunzel", "work_id": 86924, "role": "co-producer", "role_id": 915, "is_primary": true}, {"id": 2778182, "title": "Jack and the beanstalk", "work_id": 86208, "role": "co-producer", "role_id": 915, "is_primary": true}], "also_known_as": "", "date_of_birth": "1949", "date_of_death": "", "genders": [], "languages": [], "places_of_operation": [], "biography": "", "biography_author": null, "date_of_biography": "2023-05-09T18:43:35.135837+10:00", "external_links": [], "uuid": "4b012001-3284-4fb5-851a-100405534f9e", "source": {"name": "Vernon", "slug": "vernon"}, "source_identifier": "28742", "external_references": [], "date_modified": "2025-03-14T18:58:58.070710+11:00"}, {"id": 85104, "name": "Richard Goss", "roles_in_work": [{"id": 2773549, "title": "Meerkats United; The Impossible bird", "work_id": 80352, "role": "co-director", "role_id": 959, "is_primary": true}, {"id": 2793404, "title": "Meerkats united. Meerkats divided.", "work_id": 85549, "role": "co-producer", "role_id": 915, "is_primary": true}, {"id": 2793405, "title": "Meerkats united. Meerkats divided.", "work_id": 85549, "role": "director", "role_id": 938, "is_primary": true}], "also_known_as": "", "date_of_birth": "", "date_of_death": "", "genders": [], "languages": [], "places_of_operation": [], "biography": "", "biography_author": null, "date_of_biography": "2023-05-09T20:01:18.516668+10:00", "external_links": [], "uuid": "56d86aff-153d-4f3f-a053-1f1ee2715b89", "source": {"name": "Vernon", "slug": "vernon"}, "source_identifier": "27394", "external_references": [], "date_modified": "2025-03-14T20:17:36.188503+11:00"}, {"id": 85103, "name": "Richard Brook", "roles_in_work": [{"id": 2773547, "title": "Meerkats United; The Impossible bird", "work_id": 80352, "role": "co-producer", "role_id": 915, "is_primary": true}], "also_known_as": "", "date_of_birth": "", "date_of_death": "", "genders": [], "languages": [], "places_of_operation": [], "biography": "", "biography_author": null, "date_of_biography": "2023-05-09T19:24:07.681336+10:00", "external_links": [], "uuid": "09cacbc7-66ca-41f2-b544-96a2a72bf992", "source": {"name": "Vernon", "slug": "vernon"}, "source_identifier": "27337", "external_references": [], "date_modified": "2025-03-14T18:28:11.133327+11:00"}, {"id": 85102, "name": "Marion Zunz", "roles_in_work": [{"id": 2793403, "title": "Meerkats united. Meerkats divided.", "work_id": 85549, "role": "co-producer", "role_id": 915, "is_primary": true}, {"id": 2773545, "title": "Meerkats United; The Impossible bird", "work_id": 80352, "role": "co-producer", "role_id": 915, "is_primary": true}, {"id": 2214104, "title": "Echo of the elephants", "work_id": 82908, "role": "producer", "role_id": 1089, "is_primary": true}], "also_known_as": "", "date_of_birth": "", "date_of_death": "", "genders": [], "languages": [], "places_of_operation": [], "biography": "", "biography_author": null, "date_of_biography": "2023-05-09T20:01:18.038429+10:00", "external_links": [], "uuid": "edc99704-d777-4638-a9bd-7426c08d197f", "source": {"name": "Vernon", "slug": "vernon"}, "source_identifier": "24451", "external_references": [], "date_modified": "2025-03-14T20:17:34.991059+11:00"}]}