{"count": 28687, "next": "https://api.acmi.net.au/creators/?page=248", "previous": "https://api.acmi.net.au/creators/?page=246", "results": [{"id": 83137, "name": "Albert Valentin", "roles_in_work": [{"id": 3104795, "title": "L'etrange Monsieur Victor = the Strange Mr. Victor", "work_id": 116085, "role": "producer", "role_id": 1089, "is_primary": true}], "also_known_as": "", "date_of_birth": null, "date_of_death": null, "genders": [], "languages": [], "places_of_operation": [], "biography": "", "biography_author": null, "date_of_biography": null, "external_links": [], "uuid": "402063eb-5529-40aa-a60a-ab8e1d847456", "source": {"name": "Vernon", "slug": "vernon"}, "source_identifier": "31164", "external_references": [{"id": 42416, "source": {"name": "Wikidata", "slug": "wikidata"}, "source_identifier": "Q121222735"}], "date_modified": "2025-05-22T22:50:04.215260+10:00"}, {"id": 83136, "name": "Pierre Tchernia", "roles_in_work": [{"id": 3104793, "title": "La Gueule de L'autre = the Other One's Mug", "work_id": 116084, "role": "director", "role_id": 938, "is_primary": true}], "also_known_as": "Pierre Tcherniakowsky", "date_of_birth": "1928-01-29", "date_of_death": "2016-10-08", "genders": [{"id": 9, "name": "Male", "slug": "male"}], "languages": [{"id": 4, "name": "French", "slug": "french"}], "places_of_operation": [{"id": 17, "name": "France", "slug": "france"}], "biography": "Pierre Tcherniakowski (29 January 1928 – 8 October 2016), better known as Pierre Tchernia, was a French cinema and television producer, screenwriter, presenter, animator and actor. In France he was known as \"Magic\" Tchernia and Monsieur Cinema.", "biography_author": "Wikidata", "date_of_biography": "2023-08-15T12:08:48.431020+10:00", "external_links": [{"id": 2889, "uri": "https://en.wikipedia.org/wiki/Pierre_Tchernia"}], "uuid": "f8c57e61-89f6-4750-9e71-3da1fd8cde89", "source": {"name": "Vernon", "slug": "vernon"}, "source_identifier": "31163", "external_references": [{"id": 12286, "source": {"name": "Wikidata", "slug": "wikidata"}, "source_identifier": "Q1894524"}, {"id": 12287, "source": {"name": "VIAF", "slug": "viaf"}, "source_identifier": "9854103"}, {"id": 12288, "source": {"name": "LOC Auth", "slug": "loc-auth"}, "source_identifier": "n90725447"}, {"id": 12289, "source": {"name": "WorldCat", "slug": "worldcat"}, "source_identifier": "lccn-n90725447"}], "date_modified": "2025-05-22T22:50:02.752032+10:00"}, {"id": 83135, "name": "Robert Paillardon", "roles_in_work": [{"id": 3104788, "title": "Le Chevalier de Maison Rouge = the Cavalier Maison Rouge", "work_id": 116082, "role": "producer", "role_id": 1089, "is_primary": true}], "also_known_as": "", "date_of_birth": null, "date_of_death": null, "genders": [], "languages": [], "places_of_operation": [], "biography": "", "biography_author": null, "date_of_biography": null, "external_links": [], "uuid": "c20a3258-2ce3-419f-8645-b0f28bd43440", "source": {"name": "Vernon", "slug": "vernon"}, "source_identifier": "31162", "external_references": [{"id": 33042, "source": {"name": "Wikidata", "slug": "wikidata"}, "source_identifier": "Q121222630"}], "date_modified": "2025-05-22T22:47:24.714322+10:00"}, {"id": 83134, "name": "Marcel Cartier", "roles_in_work": [{"id": 3104786, "title": "Le Silence de la Mer = the Silence of the Sea", "work_id": 116081, "role": "producer", "role_id": 1089, "is_primary": true}], "also_known_as": "", "date_of_birth": null, "date_of_death": null, "genders": [], "languages": [], "places_of_operation": [], "biography": "", "biography_author": null, "date_of_biography": null, "external_links": [], "uuid": "90560e93-d514-43fb-9d03-90c0a86009e1", "source": {"name": "Vernon", "slug": "vernon"}, "source_identifier": "31161", "external_references": [{"id": 39264, "source": {"name": "Wikidata", "slug": "wikidata"}, "source_identifier": "Q121058081"}], "date_modified": "2025-05-22T22:47:23.245421+10:00"}, {"id": 83133, "name": "Daniel Ceccaldi", "roles_in_work": [{"id": 3104929, "title": "Le Vol D'icare (TV Version)", "work_id": 116153, "role": "director", "role_id": 938, "is_primary": true}, {"id": 3104783, "title": "Messieurs les Ronds de Cuir = The Pencil Pushers (TV Version)", "work_id": 116079, "role": "director", "role_id": 938, "is_primary": true}], "also_known_as": "", "date_of_birth": "1927-07-25", "date_of_death": "2003-03-27", "genders": [{"id": 9, "name": "Male", "slug": "male"}], "languages": [{"id": 4, "name": "French", "slug": "french"}], "places_of_operation": [{"id": 17, "name": "France", "slug": "france"}], "biography": "Daniel Ceccaldi (25 July 1927 – 27 March 2003) was a French actor.\n\nHe was born in Meaux, Seine-et-Marne, France. The mild-mannered Daniel Ceccaldi is famous as Claude Jade's father Lucien Darbon in François Truffaut's movies Stolen Kisses and Bed and Board. Note: Christine refers to him twice as \"Lucien\", not papa, indicating perhaps that he is not her biological father, echoing Truffaut's own experience. The American critic Bob Wade wrote about Ceccaldi in 'Stolen Kisses': \"Claude Jade's parents are memorably played by Daniel Ceccaldi and Claire Duhamel. Ceccaldi’s role may represent the most pleasant and neurosis-free father in any movie of the era. He overflows with Dickensian warmth and geniality.\"; 11/08/2023", "biography_author": null, "date_of_biography": "2025-05-22T22:51:38.689473+10:00", "external_links": [{"id": 3815, "uri": "https://en.wikipedia.org/wiki/Daniel_Ceccaldi"}], "uuid": "ad0e6bfd-ff3e-44aa-9301-f9369a727c35", "source": {"name": "Vernon", "slug": "vernon"}, "source_identifier": "31160", "external_references": [{"id": 26132, "source": {"name": "Wikidata", "slug": "wikidata"}, "source_identifier": "Q663802"}, {"id": 27979, "source": {"name": "VIAF", "slug": "viaf"}, "source_identifier": "5057558"}, {"id": 27980, "source": {"name": "LOC Auth", "slug": "loc-auth"}, "source_identifier": "no97010403"}, {"id": 27981, "source": {"name": "WorldCat", "slug": "worldcat"}, "source_identifier": "lccn-no97010403"}], "date_modified": "2025-05-22T22:51:38.689713+10:00"}, {"id": 83132, "name": "Marianne Khoury", "roles_in_work": [{"id": 3104780, "title": "Adieu Bonaparte = Al-Wedaa Ya Bonaparte", "work_id": 116078, "role": "producer", "role_id": 1089, "is_primary": true}], "also_known_as": "", "date_of_birth": null, "date_of_death": "", "genders": [{"id": 5, "name": "Female", "slug": "female"}], "languages": [], "places_of_operation": [{"id": 182, "name": "Egypt", "slug": "egypt"}], "biography": "", "biography_author": null, "date_of_biography": "2023-05-09T11:54:09.964562+10:00", "external_links": [], "uuid": "f8868b70-b423-4417-9030-3bebd43287c6", "source": {"name": "Vernon", "slug": "vernon"}, "source_identifier": "31159", "external_references": [{"id": 36976, "source": {"name": "Wikidata", "slug": "wikidata"}, "source_identifier": "Q100261615"}], "date_modified": "2025-05-22T22:47:19.251131+10:00"}, {"id": 83131, "name": "Sofracima", "roles_in_work": [{"id": 3104766, "title": "La Guerre Est Finie = the War Is Over", "work_id": 116072, "role": "production company", "role_id": 941, "is_primary": true}], "also_known_as": "", "date_of_birth": null, "date_of_death": null, "genders": [], "languages": [], "places_of_operation": [], "biography": "", "biography_author": null, "date_of_biography": null, "external_links": [], "uuid": "98360142-d48f-4777-9417-686085ab5e56", "source": {"name": "Vernon", "slug": "vernon"}, "source_identifier": "30895", "external_references": [{"id": 36998, "source": {"name": "Wikidata", "slug": "wikidata"}, "source_identifier": "Q121144127"}], "date_modified": "2025-05-22T22:47:09.317605+10:00"}, {"id": 83130, "name": "Rachel Weinberg", "roles_in_work": [{"id": 3104765, "title": "Pic et Pic et Colegram = Eeeny, Meeny, Miney Moe", "work_id": 116071, "role": "director", "role_id": 938, "is_primary": true}], "also_known_as": "Rachel Guzy", "date_of_birth": "25 OCT 1929", "date_of_death": "26 NOV 2018", "genders": [{"id": 5, "name": "Female", "slug": "female"}], "languages": [{"id": 4, "name": "French", "slug": "french"}], "places_of_operation": [{"id": 17, "name": "France", "slug": "france"}], "biography": "Rachel Weinberg is a French film director, screenwriter and actress, born on 25 October 1929 in Roanne, Loire. Source: Wikidata; 01/08/2023", "biography_author": null, "date_of_biography": "2025-05-22T22:47:08.460433+10:00", "external_links": [{"id": 4939, "uri": "https://en.wikipedia.org/wiki/Rachel_Weinberg"}], "uuid": "3a702def-1040-402f-81ad-28f4d4820b9f", "source": {"name": "Vernon", "slug": "vernon"}, "source_identifier": "31158", "external_references": [{"id": 25778, "source": {"name": "Wikidata", "slug": "wikidata"}, "source_identifier": "Q3416122"}, {"id": 30947, "source": {"name": "VIAF", "slug": "viaf"}, "source_identifier": "90732433"}, {"id": 30948, "source": {"name": "WorldCat", "slug": "worldcat"}, "source_identifier": "viaf-90732433"}], "date_modified": "2025-05-22T22:47:08.460700+10:00"}, {"id": 83129, "name": "Jean-Serge Breton", "roles_in_work": [{"id": 3104760, "title": "L'affiche Rouge = the Red Poster", "work_id": 116069, "role": "producer", "role_id": 1089, "is_primary": true}], "also_known_as": "", "date_of_birth": null, "date_of_death": null, "genders": [], "languages": [], "places_of_operation": [], "biography": "", "biography_author": null, "date_of_biography": null, "external_links": [], "uuid": "f8c96243-4bed-4a0d-87a4-67b2bd31d50e", "source": {"name": "Vernon", "slug": "vernon"}, "source_identifier": "31157", "external_references": [{"id": 41886, "source": {"name": "Wikidata", "slug": "wikidata"}, "source_identifier": "Q121299164"}], "date_modified": "2025-05-22T22:47:04.885870+10:00"}, {"id": 83128, "name": "John Berry", "roles_in_work": [{"id": 3104759, "title": "Le Voyage a Paimpol = the Journey to Paimpol", "work_id": 116068, "role": "director", "role_id": 938, "is_primary": true}], "also_known_as": "", "date_of_birth": "1917-09-06", "date_of_death": "1999-11-29", "genders": [{"id": 9, "name": "Male", "slug": "male"}], "languages": [{"id": 1, "name": "English", "slug": "english"}], "places_of_operation": [{"id": 1, "name": "United States of America", "slug": "united-states-of-america"}], "biography": "John Berry (September 6, 1917 – November 29, 1999) was an American film director, who went into exile in France when his career was interrupted by the Hollywood blacklist.; 11/08/2023", "biography_author": null, "date_of_biography": "2025-05-22T22:47:04.044037+10:00", "external_links": [{"id": 4356, "uri": "https://en.wikipedia.org/wiki/John_Berry_(film_director)"}], "uuid": "907ede5d-3a14-44f3-ac56-02f5a8f57d72", "source": {"name": "Vernon", "slug": "vernon"}, "source_identifier": "31156", "external_references": [{"id": 25826, "source": {"name": "Wikidata", "slug": "wikidata"}, "source_identifier": "Q563508"}, {"id": 29448, "source": {"name": "VIAF", "slug": "viaf"}, "source_identifier": "64194502"}, {"id": 29449, "source": {"name": "LOC Auth", "slug": "loc-auth"}, "source_identifier": "no95045087"}, {"id": 29450, "source": {"name": "WorldCat", "slug": "worldcat"}, "source_identifier": "lccn-no95045087"}], "date_modified": "2025-05-22T22:47:04.044257+10:00"}]}