{"count": 28687, "next": "https://api.acmi.net.au/creators/?page=2289", "previous": "https://api.acmi.net.au/creators/?page=2287", "results": [{"id": 16987, "name": "Organisation for Economic Co-operation and Development", "roles_in_work": [{"id": 2464404, "title": "Not enough", "work_id": 70990, "role": "production company", "role_id": 941, "is_primary": true}], "also_known_as": "", "date_of_birth": "", "date_of_death": "", "genders": [], "languages": [], "places_of_operation": [], "biography": "", "biography_author": null, "date_of_biography": "2023-08-14T10:11:33.448369+10:00", "external_links": [], "uuid": "4973ea56-b9f6-4951-abac-e71d1607cc34", "source": {"name": "Vernon", "slug": "vernon"}, "source_identifier": "11177", "external_references": [], "date_modified": "2023-08-14T10:11:33.448685+10:00"}, {"id": 16986, "name": "Ben Haanstra Film Productions", "roles_in_work": [{"id": 2464403, "title": "Not enough", "work_id": 70990, "role": "production company", "role_id": 941, "is_primary": true}], "also_known_as": "", "date_of_birth": "", "date_of_death": "", "genders": [], "languages": [], "places_of_operation": [], "biography": "", "biography_author": null, "date_of_biography": "2023-08-14T10:11:32.732075+10:00", "external_links": [], "uuid": "75b095fc-040b-48fe-88f7-1d82f08978e8", "source": {"name": "Vernon", "slug": "vernon"}, "source_identifier": "5808", "external_references": [], "date_modified": "2023-08-14T10:11:32.732367+10:00"}, {"id": 16984, "name": "Double Crown", "roles_in_work": [{"id": 2373935, "title": "Not by choice", "work_id": 70989, "role": "production company", "role_id": 941, "is_primary": true}], "also_known_as": "", "date_of_birth": "", "date_of_death": "", "genders": [], "languages": [], "places_of_operation": [], "biography": "", "biography_author": null, "date_of_biography": "2023-07-05T03:47:21.084934+10:00", "external_links": [], "uuid": "ba2c1fb0-2eca-4c23-98d1-ff22dba0e4da", "source": {"name": "Vernon", "slug": "vernon"}, "source_identifier": "7648", "external_references": [{"id": 38250, "source": {"name": "Wikidata", "slug": "wikidata"}, "source_identifier": "Q121337519"}], "date_modified": "2023-09-05T19:19:46.413892+10:00"}, {"id": 16981, "name": "Peter Vollstadt", "roles_in_work": [{"id": 2464389, "title": "Northern New England, USA: an invitation", "work_id": 70973, "role": "director", "role_id": 938, "is_primary": true}], "also_known_as": "", "date_of_birth": "", "date_of_death": "", "genders": [], "languages": [], "places_of_operation": [], "biography": "", "biography_author": null, "date_of_biography": "2023-08-14T10:11:09.155961+10:00", "external_links": [], "uuid": "d281f9ca-9ee7-46c5-a8e2-3afc3f2939f1", "source": {"name": "Vernon", "slug": "vernon"}, "source_identifier": "26737", "external_references": [], "date_modified": "2023-08-14T10:11:09.156345+10:00"}, {"id": 16980, "name": "Film Group", "roles_in_work": [{"id": 2464388, "title": "Northern New England, USA: an invitation", "work_id": 70973, "role": "production company", "role_id": 941, "is_primary": true}], "also_known_as": "", "date_of_birth": "", "date_of_death": "", "genders": [], "languages": [], "places_of_operation": [], "biography": "", "biography_author": null, "date_of_biography": "2023-08-14T10:11:08.511825+10:00", "external_links": [], "uuid": "adf16205-9bb1-49b7-87d3-fb10366c7ad9", "source": {"name": "Vernon", "slug": "vernon"}, "source_identifier": "13386", "external_references": [], "date_modified": "2023-08-14T10:11:08.512231+10:00"}, {"id": 16974, "name": "John Page", "roles_in_work": [{"id": 2398543, "title": "Achimota", "work_id": 89667, "role": "director", "role_id": 938, "is_primary": true}, {"id": 800269, "title": "Fight for life", "work_id": 88593, "role": "director", "role_id": 938, "is_primary": true}, {"id": 874576, "title": "Here is the Gold Coast", "work_id": 88870, "role": "director", "role_id": 938, "is_primary": true}, {"id": 856108, "title": "North and south of the Niger", "work_id": 70962, "role": "director", "role_id": 938, "is_primary": true}], "also_known_as": "", "date_of_birth": "", "date_of_death": "", "genders": [], "languages": [], "places_of_operation": [], "biography": "", "biography_author": null, "date_of_biography": "2023-08-11T13:26:53.020830+10:00", "external_links": [], "uuid": "85d5a6a6-b15d-4e31-a4ab-02d51e2f2498", "source": {"name": "Vernon", "slug": "vernon"}, "source_identifier": "22452", "external_references": [], "date_modified": "2023-08-11T13:26:53.021121+10:00"}, {"id": 16973, "name": "Taurus Film Productions", "roles_in_work": [{"id": 856107, "title": "North and south of the Niger", "work_id": 70962, "role": "production company", "role_id": 941, "is_primary": true}, {"id": 2646589, "title": "Thank you, from John", "work_id": 73645, "role": "production company", "role_id": 941, "is_primary": true}], "also_known_as": "", "date_of_birth": null, "date_of_death": null, "genders": [], "languages": [], "places_of_operation": [], "biography": "", "biography_author": null, "date_of_biography": null, "external_links": [], "uuid": "ae2560f0-97c8-42c6-bcbc-bcbc94ebb2c8", "source": {"name": "Vernon", "slug": "vernon"}, "source_identifier": "13195", "external_references": [], "date_modified": "2025-03-05T13:07:00.723464+11:00"}, {"id": 16972, "name": "Norman Schenker", "roles_in_work": [{"id": 1819206, "title": "The Normal stomach: fluoroscopic observations", "work_id": 70957, "role": "producer", "role_id": 1089, "is_primary": true}, {"id": 1819205, "title": "The Normal esophagus: fluoroscopic observations", "work_id": 70956, "role": "producer", "role_id": 1089, "is_primary": true}, {"id": 2403398, "title": "Carcinoma of the esophagus: fluroscopic observations of adva", "work_id": 91223, "role": "producer", "role_id": 1089, "is_primary": true}], "also_known_as": "", "date_of_birth": "", "date_of_death": "", "genders": [], "languages": [], "places_of_operation": [], "biography": "", "biography_author": null, "date_of_biography": "2023-08-11T15:11:43.983963+10:00", "external_links": [], "uuid": "1e8dff15-39b3-4367-91eb-62a4abfa0a7c", "source": {"name": "Vernon", "slug": "vernon"}, "source_identifier": "25862", "external_references": [], "date_modified": "2023-08-11T15:11:43.984213+10:00"}, {"id": 16971, "name": "Association of American Medical Colleges", "roles_in_work": [{"id": 856098, "title": "The Normal esophagus: fluoroscopic observations", "work_id": 70956, "role": "production company", "role_id": 941, "is_primary": true}, {"id": 856101, "title": "The Normal stomach: fluoroscopic observations", "work_id": 70957, "role": "production company", "role_id": 941, "is_primary": true}, {"id": 2403394, "title": "Carcinoma of the esophagus invading the trachea: Fluoroscopic and laryngoscopic observations", "work_id": 91100, "role": "production company", "role_id": 941, "is_primary": true}], "also_known_as": "", "date_of_birth": "", "date_of_death": "", "genders": [], "languages": [], "places_of_operation": [], "biography": "", "biography_author": null, "date_of_biography": "2023-08-11T15:11:38.353963+10:00", "external_links": [], "uuid": "db5205d0-efb7-454f-a61d-3898ba4c324d", "source": {"name": "Vernon", "slug": "vernon"}, "source_identifier": "4860", "external_references": [], "date_modified": "2023-08-11T15:11:38.354186+10:00"}, {"id": 16970, "name": "Medical Films", "roles_in_work": [{"id": 2760474, "title": "Postnatal care", "work_id": 71731, "role": "production company", "role_id": 941, "is_primary": true}, {"id": 2760472, "title": "A Normal birth", "work_id": 70955, "role": "production company", "role_id": 941, "is_primary": true}], "also_known_as": "", "date_of_birth": "", "date_of_death": "", "genders": [], "languages": [], "places_of_operation": [], "biography": "", "biography_author": null, "date_of_biography": "2023-08-11T13:10:45.035943+10:00", "external_links": [], "uuid": "af63734b-497a-41aa-baad-10da644cbc01", "source": {"name": "Vernon", "slug": "vernon"}, "source_identifier": "10438", "external_references": [], "date_modified": "2025-03-14T17:25:13.912902+11:00"}]}