{"count": 28687, "next": "https://api.acmi.net.au/creators/?page=398", "previous": "https://api.acmi.net.au/creators/?page=396", "results": [{"id": 81613, "name": "Gina Blumenfeld", "roles_in_work": [{"id": 2751980, "title": "Mother may I?", "work_id": 98081, "role": "co-producer", "role_id": 915, "is_primary": true}], "also_known_as": "", "date_of_birth": "", "date_of_death": "", "genders": [], "languages": [], "places_of_operation": [], "biography": "", "biography_author": null, "date_of_biography": "2023-08-14T09:54:52.881267+10:00", "external_links": [], "uuid": "96980408-4d43-455b-8d0a-9178e122d118", "source": {"name": "Vernon", "slug": "vernon"}, "source_identifier": "19847", "external_references": [{"id": 35262, "source": {"name": "Wikidata", "slug": "wikidata"}, "source_identifier": "Q121057877"}], "date_modified": "2025-03-13T00:55:51.936263+11:00"}, {"id": 81612, "name": "Joan Goldi", "roles_in_work": [{"id": 2751975, "title": "Cold water: the silent killer", "work_id": 98079, "role": "co-producer", "role_id": 915, "is_primary": true}], "also_known_as": "", "date_of_birth": "", "date_of_death": "", "genders": [], "languages": [], "places_of_operation": [], "biography": "", "biography_author": null, "date_of_biography": "2023-05-09T13:37:51.226449+10:00", "external_links": [], "uuid": "65b722be-bf2d-40fb-bfb3-e80b016a1a12", "source": {"name": "Vernon", "slug": "vernon"}, "source_identifier": "4497", "external_references": [{"id": 43115, "source": {"name": "Wikidata", "slug": "wikidata"}, "source_identifier": "Q121036538"}], "date_modified": "2025-03-13T00:55:48.491197+11:00"}, {"id": 81611, "name": "John Goldi", "roles_in_work": [{"id": 2751974, "title": "Cold water: the silent killer", "work_id": 98079, "role": "co-producer", "role_id": 915, "is_primary": true}], "also_known_as": "", "date_of_birth": "", "date_of_death": "", "genders": [], "languages": [], "places_of_operation": [], "biography": "", "biography_author": null, "date_of_biography": "2023-05-09T13:37:50.997724+10:00", "external_links": [], "uuid": "da446ec5-3335-4bd1-accc-65708efee7f8", "source": {"name": "Vernon", "slug": "vernon"}, "source_identifier": "4496", "external_references": [{"id": 33827, "source": {"name": "Wikidata", "slug": "wikidata"}, "source_identifier": "Q121159797"}], "date_modified": "2025-03-13T00:55:47.893465+11:00"}, {"id": 81610, "name": "W.R. Callaghan", "roles_in_work": [{"id": 2751970, "title": "Albert Speer: the last nazi", "work_id": 98078, "role": "co-producer", "role_id": 915, "is_primary": true}], "also_known_as": "", "date_of_birth": "", "date_of_death": "", "genders": [], "languages": [], "places_of_operation": [], "biography": "", "biography_author": null, "date_of_biography": "2023-05-09T11:54:49.940492+10:00", "external_links": [], "uuid": "72ad156b-5a9f-4a5e-9fab-685e1a659662", "source": {"name": "Vernon", "slug": "vernon"}, "source_identifier": "30208", "external_references": [{"id": 34773, "source": {"name": "Wikidata", "slug": "wikidata"}, "source_identifier": "Q121091130"}], "date_modified": "2025-03-13T00:55:45.230014+11:00"}, {"id": 81609, "name": "Dugan Rosalini", "roles_in_work": [{"id": 2752022, "title": "Otto: zoo gorilla", "work_id": 98096, "role": "producer/director", "role_id": 31, "is_primary": true}, {"id": 2751962, "title": "Zookeepers", "work_id": 98073, "role": "producer/director", "role_id": 31, "is_primary": true}], "also_known_as": "", "date_of_birth": "", "date_of_death": "", "genders": [], "languages": [], "places_of_operation": [], "biography": "", "biography_author": null, "date_of_biography": "2023-05-09T18:20:47.768593+10:00", "external_links": [], "uuid": "8bca8c26-0690-4c64-9a10-e108c0bf6551", "source": {"name": "Vernon", "slug": "vernon"}, "source_identifier": "18457", "external_references": [{"id": 51404, "source": {"name": "Wikidata", "slug": "wikidata"}, "source_identifier": "Q121361027"}], "date_modified": "2025-03-13T00:56:19.871444+11:00"}, {"id": 81608, "name": "Handojo Misc", "roles_in_work": [{"id": 2751848, "title": "Si Mamad (Cinemascope Print)", "work_id": 98012, "role": "co-director", "role_id": 959, "is_primary": true}], "also_known_as": "", "date_of_birth": "", "date_of_death": "", "genders": [], "languages": [], "places_of_operation": [], "biography": "", "biography_author": null, "date_of_biography": "2023-05-09T18:32:16.091030+10:00", "external_links": [], "uuid": "d0dec31f-d195-431c-9e3e-33989c33acb3", "source": {"name": "Vernon", "slug": "vernon"}, "source_identifier": "8982", "external_references": [{"id": 34094, "source": {"name": "Wikidata", "slug": "wikidata"}, "source_identifier": "Q121036216"}], "date_modified": "2025-03-13T00:51:54.801079+11:00"}, {"id": 81607, "name": "Chuck Olin", "roles_in_work": [{"id": 2751825, "title": "Palette of glass", "work_id": 98002, "role": "producer/director", "role_id": 31, "is_primary": true}], "also_known_as": "", "date_of_birth": "11 JAN 1937", "date_of_death": "20 JAN 2005", "genders": [{"id": 9, "name": "Male", "slug": "male"}], "languages": [], "places_of_operation": [], "biography": "", "biography_author": null, "date_of_biography": "2023-05-09T15:00:53.260052+10:00", "external_links": [], "uuid": "5fa66ca4-07e8-418e-ab4e-e6cc0b8a55c1", "source": {"name": "Vernon", "slug": "vernon"}, "source_identifier": "17023", "external_references": [{"id": 51268, "source": {"name": "Wikidata", "slug": "wikidata"}, "source_identifier": "Q121360820"}], "date_modified": "2025-03-13T00:51:39.186429+11:00"}, {"id": 81606, "name": "Shirley Ann Richards", "roles_in_work": [{"id": 2751765, "title": "Dad and Dave come to town", "work_id": 97968, "role": "cast", "role_id": 33, "is_primary": false}], "also_known_as": "", "date_of_birth": "", "date_of_death": "", "genders": [], "languages": [], "places_of_operation": [], "biography": "", "biography_author": null, "date_of_biography": "2023-05-09T14:20:52.267840+10:00", "external_links": [], "uuid": "14f0ef4e-cfd0-4ff5-820c-043f798409ee", "source": {"name": "Vernon", "slug": "vernon"}, "source_identifier": "34629", "external_references": [], "date_modified": "2025-03-13T00:50:53.879213+11:00"}, {"id": 81605, "name": "Elise Swerhone", "roles_in_work": [{"id": 2751755, "title": "Nonoonse Anishinabe Ishichekewin Ka Kanawentank", "work_id": 97965, "role": "co-director", "role_id": 959, "is_primary": true}], "also_known_as": "", "date_of_birth": "", "date_of_death": "", "genders": [], "languages": [], "places_of_operation": [], "biography": "", "biography_author": null, "date_of_biography": "2023-05-09T14:42:25.701128+10:00", "external_links": [], "uuid": "c3c9c8f9-defe-466c-88f4-abb62a74051b", "source": {"name": "Vernon", "slug": "vernon"}, "source_identifier": "18695", "external_references": [{"id": 36779, "source": {"name": "Wikidata", "slug": "wikidata"}, "source_identifier": "Q117860255"}], "date_modified": "2025-03-13T00:50:43.682006+11:00"}, {"id": 81604, "name": "Sara Berger", "roles_in_work": [{"id": 2751754, "title": "Nonoonse Anishinabe Ishichekewin Ka Kanawentank", "work_id": 97965, "role": "co-director", "role_id": 959, "is_primary": true}], "also_known_as": "", "date_of_birth": "", "date_of_death": "", "genders": [], "languages": [], "places_of_operation": [], "biography": "", "biography_author": null, "date_of_biography": "2023-05-09T14:42:25.470802+10:00", "external_links": [], "uuid": "4c3e13ee-254b-4cef-8d6c-12ba646f318a", "source": {"name": "Vernon", "slug": "vernon"}, "source_identifier": "28562", "external_references": [{"id": 33056, "source": {"name": "Wikidata", "slug": "wikidata"}, "source_identifier": "Q121337336"}], "date_modified": "2025-03-13T00:50:42.550447+11:00"}]}