{"count": 28687, "next": "https://api.acmi.net.au/creators/?page=2266", "previous": "https://api.acmi.net.au/creators/?page=2264", "results": [{"id": 17396, "name": "Litton Industries", "roles_in_work": [{"id": 2467906, "title": "The Preparation of food: Stone age to space age", "work_id": 71791, "role": "production company", "role_id": 941, "is_primary": true}, {"id": 2465374, "title": "Rush hour space age", "work_id": 72405, "role": "production company", "role_id": 941, "is_primary": true}, {"id": 2469294, "title": "Treasures of the earth", "work_id": 75725, "role": "sponsor", "role_id": 625, "is_primary": false}], "also_known_as": "", "date_of_birth": "", "date_of_death": "", "genders": [], "languages": [], "places_of_operation": [], "biography": "", "biography_author": null, "date_of_biography": "2023-08-14T11:57:32.541146+10:00", "external_links": [], "uuid": "679993da-b571-4f8c-8565-d5d075820ba4", "source": {"name": "Vernon", "slug": "vernon"}, "source_identifier": "10110", "external_references": [], "date_modified": "2023-08-14T11:57:32.541391+10:00"}, {"id": 17395, "name": "C Larrance", "roles_in_work": [{"id": 2760478, "title": "Prenatal care", "work_id": 71789, "role": "director", "role_id": 938, "is_primary": true}], "also_known_as": "", "date_of_birth": "", "date_of_death": "", "genders": [], "languages": [], "places_of_operation": [], "biography": "", "biography_author": null, "date_of_biography": "2023-08-11T13:10:47.876979+10:00", "external_links": [], "uuid": "d7074919-b47f-4b25-b3c7-b9e95760f0f5", "source": {"name": "Vernon", "slug": "vernon"}, "source_identifier": "16401", "external_references": [{"id": 38609, "source": {"name": "Wikidata", "slug": "wikidata"}, "source_identifier": "Q120307681"}], "date_modified": "2025-03-14T17:25:16.474453+11:00"}, {"id": 17390, "name": "Samuel A Datlowe", "roles_in_work": [{"id": 2464999, "title": "Preface to a life", "work_id": 71781, "role": "producer", "role_id": 1089, "is_primary": true}], "also_known_as": "", "date_of_birth": "", "date_of_death": "", "genders": [], "languages": [], "places_of_operation": [], "biography": "", "biography_author": null, "date_of_biography": "2023-08-14T10:24:27.846816+10:00", "external_links": [], "uuid": "5b30bdd3-5762-4a46-b5af-7e1f00f98603", "source": {"name": "Vernon", "slug": "vernon"}, "source_identifier": "28513", "external_references": [], "date_modified": "2023-08-14T10:24:27.847086+10:00"}, {"id": 17389, "name": "Sun Dial Films", "roles_in_work": [{"id": 1903282, "title": "Roots of happiness", "work_id": 72345, "role": "production company", "role_id": 941, "is_primary": true}, {"id": 2464998, "title": "Preface to a life", "work_id": 71781, "role": "production company", "role_id": 941, "is_primary": true}], "also_known_as": "", "date_of_birth": "", "date_of_death": "", "genders": [], "languages": [], "places_of_operation": [], "biography": "", "biography_author": null, "date_of_biography": "2023-08-14T10:24:27.225065+10:00", "external_links": [], "uuid": "ff0f44f0-7757-4ebb-931b-c4d483c6a1d2", "source": {"name": "Vernon", "slug": "vernon"}, "source_identifier": "13047", "external_references": [], "date_modified": "2023-08-14T10:24:27.225397+10:00"}, {"id": 17386, "name": "Workshop Productions", "roles_in_work": [{"id": 2464966, "title": "Precise measurement in engineering", "work_id": 71776, "role": "production company", "role_id": 941, "is_primary": true}], "also_known_as": "", "date_of_birth": "", "date_of_death": "", "genders": [], "languages": [], "places_of_operation": [], "biography": "", "biography_author": null, "date_of_biography": "2023-08-14T10:23:50.866673+10:00", "external_links": [], "uuid": "2233e5ee-526f-4f2c-b865-50f2e631b6b9", "source": {"name": "Vernon", "slug": "vernon"}, "source_identifier": "14442", "external_references": [], "date_modified": "2023-08-14T10:23:50.866956+10:00"}, {"id": 17385, "name": "Edgar M. Queeny", "roles_in_work": [{"id": 2464963, "title": "Prairie wings", "work_id": 71773, "role": "producer", "role_id": 1089, "is_primary": true}], "also_known_as": "", "date_of_birth": "", "date_of_death": "", "genders": [], "languages": [], "places_of_operation": [], "biography": "", "biography_author": null, "date_of_biography": "2023-08-14T10:23:46.184369+10:00", "external_links": [], "uuid": "a2428731-b250-4794-bd48-eb4da8dda153", "source": {"name": "Vernon", "slug": "vernon"}, "source_identifier": "18496", "external_references": [], "date_modified": "2023-08-14T10:23:46.184642+10:00"}, {"id": 17384, "name": "Ducks Unlimited", "roles_in_work": [{"id": 2464962, "title": "Prairie wings", "work_id": 71773, "role": "production company", "role_id": 941, "is_primary": true}], "also_known_as": "", "date_of_birth": "", "date_of_death": "", "genders": [], "languages": [], "places_of_operation": [], "biography": "", "biography_author": null, "date_of_biography": "2023-08-14T10:23:45.567342+10:00", "external_links": [], "uuid": "75d830d7-ad4f-4725-aa4e-f1849cecaec0", "source": {"name": "Vernon", "slug": "vernon"}, "source_identifier": "7675", "external_references": [], "date_modified": "2023-08-14T10:23:45.567660+10:00"}, {"id": 17383, "name": "Prahran College of Technology", "roles_in_work": [{"id": 2464958, "title": "Prahran the city", "work_id": 71771, "role": "production company", "role_id": 941, "is_primary": true}], "also_known_as": "", "date_of_birth": "", "date_of_death": "", "genders": [], "languages": [], "places_of_operation": [], "biography": "", "biography_author": null, "date_of_biography": "2023-08-14T10:23:40.133455+10:00", "external_links": [], "uuid": "ed9b0c20-53f4-494b-8dca-c9da7442daab", "source": {"name": "Vernon", "slug": "vernon"}, "source_identifier": "11608", "external_references": [], "date_modified": "2023-08-14T10:23:40.133796+10:00"}, {"id": 17382, "name": "Central office of Information[B", "roles_in_work": [{"id": 2464955, "title": "Practising headsprings", "work_id": 71770, "role": "production company", "role_id": 941, "is_primary": true}], "also_known_as": "", "date_of_birth": "", "date_of_death": "", "genders": [], "languages": [], "places_of_operation": [], "biography": "", "biography_author": null, "date_of_biography": "2023-08-14T10:23:35.076072+10:00", "external_links": [], "uuid": "4552c6db-a953-4a23-ab61-eb1b170f3c95", "source": {"name": "Vernon", "slug": "vernon"}, "source_identifier": "6418", "external_references": [], "date_modified": "2023-08-14T10:23:35.076346+10:00"}, {"id": 17379, "name": "Bob Privett", "roles_in_work": [{"id": 751118, "title": "The Power to fly: the history and development of the flying machine", "work_id": 71760, "role": "director", "role_id": 938, "is_primary": true}, {"id": 754004, "title": "Speed the plough", "work_id": 73088, "role": "director", "role_id": 938, "is_primary": true}, {"id": 860313, "title": "The Victoria line report. No. 2. Down and along", "work_id": 74335, "role": "director", "role_id": 938, "is_primary": true}, {"id": 824628, "title": "The Moving spirit: the history and development of the horseless carriage", "work_id": 95557, "role": "director", "role_id": 938, "is_primary": true}, {"id": 761485, "title": "Down a long way: the story of an oilwell", "work_id": 76249, "role": "director", "role_id": 938, "is_primary": true}, {"id": 2316677, "title": "Submarine control", "work_id": 89085, "role": "director", "role_id": 938, "is_primary": true}], "also_known_as": "", "date_of_birth": "", "date_of_death": "", "genders": [], "languages": [], "places_of_operation": [], "biography": "", "biography_author": null, "date_of_biography": "2023-05-09T19:05:33.238766+10:00", "external_links": [], "uuid": "ca8f8b48-b374-47dd-a6c9-9a48568a051c", "source": {"name": "Vernon", "slug": "vernon"}, "source_identifier": "16098", "external_references": [{"id": 43000, "source": {"name": "Wikidata", "slug": "wikidata"}, "source_identifier": "Q121034898"}], "date_modified": "2023-09-05T18:07:52.049378+10:00"}]}