{"count": 28687, "next": "https://api.acmi.net.au/creators/?page=960", "previous": "https://api.acmi.net.au/creators/?page=958", "results": [{"id": 75992, "name": "Reevan Dolgoy", "roles_in_work": [{"id": 2231371, "title": "Promises, promises: small town survival", "work_id": 77502, "role": "director", "role_id": 938, "is_primary": true}, {"id": 874930, "title": "Giv'em a half turn", "work_id": 89193, "role": "director", "role_id": 938, "is_primary": true}, {"id": 2162705, "title": "Jablonski", "work_id": 85756, "role": "director", "role_id": 938, "is_primary": true}], "also_known_as": "", "date_of_birth": "", "date_of_death": "", "genders": [], "languages": [], "places_of_operation": [], "biography": "", "biography_author": null, "date_of_biography": "2023-05-09T16:37:26.145317+10:00", "external_links": [], "uuid": "0c5a02bd-e41b-4439-9322-e77f40da85e7", "source": {"name": "Vernon", "slug": "vernon"}, "source_identifier": "27223", "external_references": [{"id": 43155, "source": {"name": "Wikidata", "slug": "wikidata"}, "source_identifier": "Q120308495"}], "date_modified": "2023-09-06T00:24:33.040595+10:00"}, {"id": 75991, "name": "Vyner Gillespie", "roles_in_work": [{"id": 2468926, "title": "This woman is not a car", "work_id": 77493, "role": "co-producer", "role_id": 915, "is_primary": true}], "also_known_as": "", "date_of_birth": "", "date_of_death": "", "genders": [], "languages": [], "places_of_operation": [], "biography": "", "biography_author": null, "date_of_biography": "2023-08-14T11:49:30.032099+10:00", "external_links": [], "uuid": "639d2b96-91f0-4e32-a532-b9a2ab5c32c4", "source": {"name": "Vernon", "slug": "vernon"}, "source_identifier": "30187", "external_references": [{"id": 34364, "source": {"name": "Wikidata", "slug": "wikidata"}, "source_identifier": "Q121143622"}], "date_modified": "2023-09-06T02:09:18.414869+10:00"}, {"id": 75990, "name": "Jenny Jacobs", "roles_in_work": [{"id": 2468925, "title": "This woman is not a car", "work_id": 77493, "role": "co-producer", "role_id": 915, "is_primary": true}], "also_known_as": "", "date_of_birth": "", "date_of_death": "", "genders": [], "languages": [], "places_of_operation": [], "biography": "", "biography_author": null, "date_of_biography": "2023-08-14T11:49:29.408963+10:00", "external_links": [], "uuid": "b4799d4c-2f56-490a-a979-171930267ac9", "source": {"name": "Vernon", "slug": "vernon"}, "source_identifier": "21723", "external_references": [{"id": 39672, "source": {"name": "Wikidata", "slug": "wikidata"}, "source_identifier": "Q121079146"}], "date_modified": "2023-09-05T21:21:02.063921+10:00"}, {"id": 75989, "name": "Finn Harald Wetterfors", "roles_in_work": [{"id": 2176488, "title": "One word of truth", "work_id": 77486, "role": "co-producer", "role_id": 915, "is_primary": true}], "also_known_as": "", "date_of_birth": "", "date_of_death": "", "genders": [], "languages": [], "places_of_operation": [], "biography": "", "biography_author": null, "date_of_biography": "2023-05-09T14:46:11.345507+10:00", "external_links": [], "uuid": "3f93bf4b-e7ce-40d8-8984-7089f087c024", "source": {"name": "Vernon", "slug": "vernon"}, "source_identifier": "8353", "external_references": [{"id": 33716, "source": {"name": "Wikidata", "slug": "wikidata"}, "source_identifier": "Q121126881"}], "date_modified": "2023-09-05T19:43:56.840897+10:00"}, {"id": 75988, "name": "Harry Howlett", "roles_in_work": [{"id": 2176483, "title": "One word of truth", "work_id": 77486, "role": "co-producer", "role_id": 915, "is_primary": true}], "also_known_as": "", "date_of_birth": "", "date_of_death": "", "genders": [], "languages": [], "places_of_operation": [], "biography": "", "biography_author": null, "date_of_biography": "2023-05-09T14:46:11.112596+10:00", "external_links": [], "uuid": "b4066e90-f772-4467-aa0b-27eee5dbb0e7", "source": {"name": "Vernon", "slug": "vernon"}, "source_identifier": "20324", "external_references": [{"id": 40685, "source": {"name": "Wikidata", "slug": "wikidata"}, "source_identifier": "Q121036413"}], "date_modified": "2023-09-05T20:31:03.880080+10:00"}, {"id": 75987, "name": "Ailsa Hamilton", "roles_in_work": [{"id": 2176478, "title": "One word of truth", "work_id": 77486, "role": "co-producer", "role_id": 915, "is_primary": true}], "also_known_as": "", "date_of_birth": "", "date_of_death": "", "genders": [], "languages": [], "places_of_operation": [], "biography": "", "biography_author": null, "date_of_biography": "2023-05-09T14:46:10.876969+10:00", "external_links": [], "uuid": "3e33c6d7-2b0c-49f6-b015-70f020183a91", "source": {"name": "Vernon", "slug": "vernon"}, "source_identifier": "14685", "external_references": [{"id": 37033, "source": {"name": "Wikidata", "slug": "wikidata"}, "source_identifier": "Q121126029"}], "date_modified": "2023-09-05T17:17:37.285205+10:00"}, {"id": 75986, "name": "Kate Quillan", "roles_in_work": [{"id": 897412, "title": "Norman and the killer", "work_id": 77485, "role": "co-producer", "role_id": 915, "is_primary": true}], "also_known_as": "", "date_of_birth": null, "date_of_death": null, "genders": [], "languages": [], "places_of_operation": [], "biography": "", "biography_author": null, "date_of_biography": null, "external_links": [], "uuid": "be377c69-a446-4ecd-adea-3c2936e9a7c0", "source": {"name": "Vernon", "slug": "vernon"}, "source_identifier": null, "external_references": [{"id": 38954, "source": {"name": "Wikidata", "slug": "wikidata"}, "source_identifier": "Q121079382"}], "date_modified": "2023-09-05T22:01:41.528606+10:00"}, {"id": 75985, "name": "Peggy King", "roles_in_work": [{"id": 897410, "title": "Norman and the killer", "work_id": 77485, "role": "co-producer", "role_id": 915, "is_primary": true}], "also_known_as": "", "date_of_birth": null, "date_of_death": null, "genders": [], "languages": [], "places_of_operation": [], "biography": "", "biography_author": null, "date_of_biography": null, "external_links": [], "uuid": "5bc4e7e1-fae2-46a0-b277-ec5c3ab09a95", "source": {"name": "Vernon", "slug": "vernon"}, "source_identifier": null, "external_references": [{"id": 39423, "source": {"name": "Wikidata", "slug": "wikidata"}, "source_identifier": "Q121091086"}], "date_modified": "2023-09-05T23:51:10.815173+10:00"}, {"id": 75984, "name": "Steve Raymen", "roles_in_work": [{"id": 2415439, "title": "Luther Metke at 94", "work_id": 77484, "role": "co-director", "role_id": 959, "is_primary": true}], "also_known_as": "", "date_of_birth": "", "date_of_death": "", "genders": [], "languages": [], "places_of_operation": [], "biography": "", "biography_author": null, "date_of_biography": "2023-08-11T19:37:42.886545+10:00", "external_links": [], "uuid": "268ab637-fe47-4371-a194-9a875a3397c4", "source": {"name": "Vernon", "slug": "vernon"}, "source_identifier": "29158", "external_references": [{"id": 38000, "source": {"name": "Wikidata", "slug": "wikidata"}, "source_identifier": "Q121036824"}], "date_modified": "2023-09-06T01:31:33.187331+10:00"}, {"id": 75983, "name": "Jorge Preloran", "roles_in_work": [{"id": 2415438, "title": "Luther Metke at 94", "work_id": 77484, "role": "co-director", "role_id": 959, "is_primary": true}, {"id": 2415437, "title": "Luther Metke at 94", "work_id": 77484, "role": "co-producer", "role_id": 915, "is_primary": true}], "also_known_as": "", "date_of_birth": "1933-05-28", "date_of_death": "2009-03-28", "genders": [{"id": 9, "name": "Male", "slug": "male"}], "languages": [{"id": 10, "name": "Spanish", "slug": "spanish"}], "places_of_operation": [{"id": 23, "name": "Argentina", "slug": "argentina"}], "biography": "Jorge Ricardo Preloran (May 28, 1933 – March 28, 2009) was an Argentine filmmaker and a pioneer in ethnobiographic film making.", "biography_author": "Wikidata", "date_of_biography": "2023-08-15T11:28:54.511785+10:00", "external_links": [{"id": 4432, "uri": "https://en.wikipedia.org/wiki/Jorge_Preloran"}], "uuid": "515e0053-c997-469f-944f-29ce9b55e2d6", "source": {"name": "Vernon", "slug": "vernon"}, "source_identifier": "22691", "external_references": [{"id": 26124, "source": {"name": "Wikidata", "slug": "wikidata"}, "source_identifier": "Q2348620"}, {"id": 29644, "source": {"name": "VIAF", "slug": "viaf"}, "source_identifier": "1353313"}, {"id": 29645, "source": {"name": "LOC Auth", "slug": "loc-auth"}, "source_identifier": "n82063190"}, {"id": 29646, "source": {"name": "WorldCat", "slug": "worldcat"}, "source_identifier": "lccn-n82063190"}], "date_modified": "2023-09-05T21:49:44.401259+10:00"}]}