{"count": 28687, "next": "https://api.acmi.net.au/creators/?page=460", "previous": "https://api.acmi.net.au/creators/?page=458", "results": [{"id": 80993, "name": "Joy Polstein", "roles_in_work": [{"id": 2476354, "title": "Frida", "work_id": 94846, "role": "co-producer", "role_id": 915, "is_primary": true}], "also_known_as": "", "date_of_birth": "", "date_of_death": "", "genders": [], "languages": [], "places_of_operation": [], "biography": "", "biography_author": null, "date_of_biography": "2023-08-17T15:35:37.409519+10:00", "external_links": [], "uuid": "5ff29540-dc1d-4a25-b4e8-d651a047285f", "source": {"name": "Vernon", "slug": "vernon"}, "source_identifier": "22775", "external_references": [], "date_modified": "2023-08-17T15:35:37.409743+10:00"}, {"id": 80992, "name": "Salma Hayek", "roles_in_work": [{"id": 2476353, "title": "Frida", "work_id": 94846, "role": "co-producer", "role_id": 915, "is_primary": true}], "also_known_as": "Salma Valgarma Hayek Jiménez", "date_of_birth": "1966-09-02", "date_of_death": "", "genders": [{"id": 5, "name": "Female", "slug": "female"}], "languages": [{"id": 1, "name": "English", "slug": "english"}, {"id": 10, "name": "Spanish", "slug": "spanish"}], "places_of_operation": [{"id": 185, "name": "Mexico", "slug": "mexico"}], "biography": "Salma Hayek Pinault ( HY-ek, Spanish: [ˈsalma ˈxaʝek]; born Salma Valgarma Hayek Jiménez; September 2, 1966) is a Mexican and American actress and film producer. She began her career in Mexico with starring roles in the telenovela Teresa (1989–1991) as well as the romantic drama Midaq Alley (1995). She soon established herself in Hollywood with appearances in films such as Desperado (1995), From Dusk till Dawn (1996), Wild Wild West (1999), and Dogma (1999).\nHayek's portrayal of painter Frida Kahlo in the biopic Frida (2002), which she also produced, made her the first Mexican actress to be nominated for the Academy Award for Best Actress. In subsequent years, Hayek focused more on producing while starring in the action-centered pictures Once Upon a Time in Mexico (2003), After the Sunset (2004) and Bandidas (2006). She achieved further commercial success with the comedies Grown Ups (2010), Grown Ups 2 (2013) and The Hitman's Bodyguard (2017), and lent her voice for the animated Puss in Boots (2011) and Sausage Party (2016). She also earned critical acclaim for her performances in the dramas Tale of Tales (2015), Beatriz at Dinner (2017) and House of Gucci (2021). She played Ajak in the Marvel Cinematic Universe film Eternals (2021), which emerged as her highest-grossing live action film.\nHayek's directing, producing and acting work on television has earned her four Emmy Awards nominations. She won the Daytime Emmy Award for Outstanding Directing in a Children Special for The Maldonado Miracle (2004) and received two Primetime Emmy Award nominations, one for Outstanding Guest Actress in a Comedy Series and the other for Outstanding Comedy Series, for her work on the ABC television comedy-drama Ugly Betty (2006–2010). She also produced and played Minerva Mirabal in the Showtime film In the Time of the Butterflies (2001) and guest-starred on the NBC comedy series 30 Rock (2009–2013).As a public figure, Hayek has been cited as one of Hollywood's most powerful and influential Latina actresses as well as one of the world's most beautiful women by various media outlets. Time magazine named her one of the 100 most influential people in the world in 2023. She is married to business magnate François-Henri Pinault, with whom she has a daughter.", "biography_author": "Wikidata", "date_of_biography": "2023-09-06T01:02:10.246158+10:00", "external_links": [{"id": 3050, "uri": "https://en.wikipedia.org/wiki/Salma_Hayek"}], "uuid": "cd1c7ace-3eb2-4328-b452-1fbf4a38cee9", "source": {"name": "Vernon", "slug": "vernon"}, "source_identifier": "28461", "external_references": [{"id": 12942, "source": {"name": "Wikidata", "slug": "wikidata"}, "source_identifier": "Q125106"}, {"id": 12943, "source": {"name": "VIAF", "slug": "viaf"}, "source_identifier": "76514944"}, {"id": 12944, "source": {"name": "LOC Auth", "slug": "loc-auth"}, "source_identifier": "no98078281"}, {"id": 12945, "source": {"name": "WorldCat", "slug": "worldcat"}, "source_identifier": "lccn-no98078281"}], "date_modified": "2023-09-06T01:02:12.431882+10:00"}, {"id": 80991, "name": "Stephen McEveety", "roles_in_work": [{"id": 2476459, "title": "The Passion of the Christ", "work_id": 94845, "role": "co-producer", "role_id": 915, "is_primary": true}], "also_known_as": "", "date_of_birth": "1954-11-04", "date_of_death": "", "genders": [{"id": 9, "name": "Male", "slug": "male"}], "languages": [{"id": 1, "name": "English", "slug": "english"}], "places_of_operation": [{"id": 1, "name": "United States of America", "slug": "united-states-of-america"}], "biography": "Stephen Mark \"Steve\" McEveety (born November 4, 1954) is an American film producer, who has over 40 years experience in senior positions in the entertainment industry.\nMcEveety is one of six children, and attended Notre Dame High School and Loyola Marymount University. He and his wife Susie have four children. As a child, Steve McEveety appeared in episodes of the TV series' Gunsmoke, My Three Sons, and Star Trek (\"Miri\", 1966). Later, he worked as an assistant director and production manager.\nMcEveety worked many years at Mel Gibson's Icon Productions where he executive produced What Women Want, Payback, Anna Karenina, Immortal Beloved, The Man Without a Face and Braveheart, the last of which gained ten Academy Award nominations and received five Oscars. McEveety produced The Passion of the Christ, Airborne, which he also wrote, as well as 187, Paparazzi, and We Were Soldiers.\nAfter completing an exclusive producing deal with Icon, McEveety partnered with David Segel, John Shepherd and Todd Burns to launch Mpower Pictures. The company's first release was the Toronto Award Winning Bella. McEveety produced An American Carol, written & directed by David Zucker, and The Stoning of Soraya M., written & directed by Cyrus Nowrasteh, that took 2nd Runner-up at the 2009 Toronto Film Festival. Through Mpower Pictures McEveety also produced the movie Snowmen (October 2011), which won the Tribeca Film Festival Audience Award, Runner-up, the Dallas International Film Festival Audience Award, the TIFF Sprockets Golden Sprocket Award and the Heartland Crystal Heart Award. Most recently, McEveety produced Machine Gun Preacher with Mpower Pictures, in association with a number of other companies.\nIn 2015, McEveety went on to produce Man Down, directed by Dito Montiel, starring Shia Labeouf, Gary Oldman, and Kate Mara. It was released by Lionsgate in late 2016.", "biography_author": "Wikidata", "date_of_biography": "2023-09-06T01:28:56.502822+10:00", "external_links": [{"id": 3142, "uri": "https://en.wikipedia.org/wiki/Stephen_McEveety"}], "uuid": "edda0d1e-38ae-42c1-a98e-ce221758b209", "source": {"name": "Vernon", "slug": "vernon"}, "source_identifier": "29064", "external_references": [{"id": 13330, "source": {"name": "Wikidata", "slug": "wikidata"}, "source_identifier": "Q3498608"}, {"id": 55864, "source": {"name": "VIAF", "slug": "viaf"}, "source_identifier": "162153971"}, {"id": 55865, "source": {"name": "LOC Auth", "slug": "loc-auth"}, "source_identifier": "no2003038440"}], "date_modified": "2023-09-06T01:28:56.512457+10:00"}, {"id": 80990, "name": "Laurent Cantet", "roles_in_work": [{"id": 929259, "title": "Time out = L'Emploi du temps", "work_id": 94844, "role": "director", "role_id": 938, "is_primary": true}], "also_known_as": "", "date_of_birth": "1961-06-15", "date_of_death": null, "genders": [{"id": 9, "name": "Male", "slug": "male"}], "languages": [{"id": 4, "name": "French", "slug": "french"}], "places_of_operation": [{"id": 17, "name": "France", "slug": "france"}], "biography": "Laurent Cantet ([lɔʁɑ̃ kɑ̃tɛ]; born 11 April 1961) is a French director, cinematographer and screenwriter. His film Entre les murs (The Class) won the top prize at the Cannes Film Festival in 2008.\n\n", "biography_author": "Wikidata", "date_of_biography": "2022-05-19T12:13:33.884038+10:00", "external_links": [{"id": 2551, "uri": "https://en.wikipedia.org/wiki/Laurent_Cantet"}], "uuid": "07933256-54d7-4ba8-9e06-e8a175ad4a11", "source": {"name": "Vernon", "slug": "vernon"}, "source_identifier": "23552", "external_references": [{"id": 10903, "source": {"name": "Wikidata", "slug": "wikidata"}, "source_identifier": "Q117071"}, {"id": 10904, "source": {"name": "VIAF", "slug": "viaf"}, "source_identifier": "56777112"}, {"id": 10905, "source": {"name": "LOC Auth", "slug": "loc-auth"}, "source_identifier": "nr2001008413"}, {"id": 10906, "source": {"name": "WorldCat", "slug": "worldcat"}, "source_identifier": "lccn-nr2001008413"}], "date_modified": "2023-09-05T22:16:20.426282+10:00"}, {"id": 80989, "name": "Caroline Benjo", "roles_in_work": [{"id": 1819953, "title": "Time out = L'Emploi du temps", "work_id": 94844, "role": "producer", "role_id": 1089, "is_primary": true}], "also_known_as": "", "date_of_birth": "1961-11-14", "date_of_death": null, "genders": [{"id": 5, "name": "Female", "slug": "female"}], "languages": [{"id": 4, "name": "French", "slug": "french"}], "places_of_operation": [{"id": 17, "name": "France", "slug": "france"}], "biography": "", "biography_author": null, "date_of_biography": null, "external_links": [], "uuid": "51bbb908-c732-4aa5-b792-396f5c9a5c28", "source": {"name": "Vernon", "slug": "vernon"}, "source_identifier": null, "external_references": [{"id": 7752, "source": {"name": "Wikidata", "slug": "wikidata"}, "source_identifier": "Q80820700"}, {"id": 7753, "source": {"name": "VIAF", "slug": "viaf"}, "source_identifier": "311606899"}, {"id": 54158, "source": {"name": "VIAF", "slug": "viaf"}, "source_identifier": "109816"}, {"id": 54159, "source": {"name": "LOC Auth", "slug": "loc-auth"}, "source_identifier": "no99063640"}], "date_modified": "2023-09-05T18:20:53.763227+10:00"}, {"id": 80988, "name": "Havas Images", "roles_in_work": [{"id": 929257, "title": "Time out = L'Emploi du temps", "work_id": 94844, "role": "production company", "role_id": 941, "is_primary": true}], "also_known_as": "", "date_of_birth": null, "date_of_death": null, "genders": [], "languages": [], "places_of_operation": [], "biography": "", "biography_author": null, "date_of_biography": null, "external_links": [], "uuid": "39a330bb-61ed-4994-a361-668b83c063a2", "source": {"name": "Vernon", "slug": "vernon"}, "source_identifier": null, "external_references": [{"id": 43106, "source": {"name": "Wikidata", "slug": "wikidata"}, "source_identifier": "Q121337223"}], "date_modified": "2023-09-05T20:32:36.805836+10:00"}, {"id": 80987, "name": "Larry Houston", "roles_in_work": [{"id": 929248, "title": "X-Men: the legend of Wolverine", "work_id": 94842, "role": "producer/director", "role_id": 31, "is_primary": true}], "also_known_as": "", "date_of_birth": null, "date_of_death": null, "genders": [], "languages": [], "places_of_operation": [], "biography": "", "biography_author": null, "date_of_biography": null, "external_links": [], "uuid": "f7663320-1e54-4454-a288-31786c0507db", "source": {"name": "Vernon", "slug": "vernon"}, "source_identifier": null, "external_references": [{"id": 50694, "source": {"name": "Wikidata", "slug": "wikidata"}, "source_identifier": "Q121361198"}], "date_modified": "2023-09-05T22:14:11.189684+10:00"}, {"id": 80986, "name": "James Hanlon", "roles_in_work": [{"id": 2065133, "title": "9/11", "work_id": 94841, "role": "co-director", "role_id": 959, "is_primary": true}], "also_known_as": "", "date_of_birth": "1966-01-01", "date_of_death": "", "genders": [{"id": 9, "name": "Male", "slug": "male"}], "languages": [{"id": 1, "name": "English", "slug": "english"}], "places_of_operation": [{"id": 1, "name": "United States of America", "slug": "united-states-of-america"}], "biography": "James Hanlon (born 1966) is an American actor and director; he also served as a New York City firefighter. He executive produced and directed the CBS documentary film 9/11.\n\n", "biography_author": "Wikidata", "date_of_biography": "2023-08-01T15:21:51.554243+10:00", "external_links": [{"id": 4252, "uri": "https://en.wikipedia.org/wiki/James_Hanlon"}], "uuid": "b40da248-4e6b-4feb-9d7c-808acba29e3a", "source": {"name": "Vernon", "slug": "vernon"}, "source_identifier": "21246", "external_references": [{"id": 26417, "source": {"name": "Wikidata", "slug": "wikidata"}, "source_identifier": "Q3161132"}, {"id": 29166, "source": {"name": "VIAF", "slug": "viaf"}, "source_identifier": "164970898"}, {"id": 29167, "source": {"name": "LOC Auth", "slug": "loc-auth"}, "source_identifier": "no2011075608"}, {"id": 29168, "source": {"name": "WorldCat", "slug": "worldcat"}, "source_identifier": "lccn-no2011075608"}], "date_modified": "2023-09-05T21:03:21.582984+10:00"}, {"id": 80985, "name": "Gedeon Naudet", "roles_in_work": [{"id": 2065130, "title": "9/11", "work_id": 94841, "role": "co-director", "role_id": 959, "is_primary": true}], "also_known_as": "", "date_of_birth": "1970-03-27", "date_of_death": "", "genders": [{"id": 9, "name": "Male", "slug": "male"}], "languages": [{"id": 4, "name": "French", "slug": "french"}], "places_of_operation": [{"id": 17, "name": "France", "slug": "france"}], "biography": "", "biography_author": null, "date_of_biography": "2023-05-09T11:21:48.904011+10:00", "external_links": [{"id": 5832, "uri": "https://en.wikipedia.org/wiki/G%C3%A9d%C3%A9on_Naudet"}], "uuid": "8bb04c12-f330-41ad-9131-cd2317ee1ec9", "source": {"name": "Vernon", "slug": "vernon"}, "source_identifier": "4158", "external_references": [{"id": 34483, "source": {"name": "Wikidata", "slug": "wikidata"}, "source_identifier": "Q3122888"}, {"id": 54495, "source": {"name": "VIAF", "slug": "viaf"}, "source_identifier": "83428384"}, {"id": 54496, "source": {"name": "LOC Auth", "slug": "loc-auth"}, "source_identifier": "no2003057735"}, {"id": 54497, "source": {"name": "WorldCat", "slug": "worldcat"}, "source_identifier": "lccn-no2003057735"}], "date_modified": "2023-09-05T20:00:07.897155+10:00"}, {"id": 80984, "name": "Jules Naudet", "roles_in_work": [{"id": 2065127, "title": "9/11", "work_id": 94841, "role": "co-director", "role_id": 959, "is_primary": true}], "also_known_as": "", "date_of_birth": "1973-04-26", "date_of_death": "", "genders": [{"id": 9, "name": "Male", "slug": "male"}], "languages": [{"id": 4, "name": "French", "slug": "french"}], "places_of_operation": [{"id": 17, "name": "France", "slug": "france"}], "biography": "WARNING: 2015-05-11, that auto-generated WorldCat link targets the wrong Jules Naudet.", "biography_author": "Wikidata", "date_of_biography": "2023-08-01T15:44:48.538780+10:00", "external_links": [{"id": 4450, "uri": "https://en.wikipedia.org/wiki/Jules_Naudet"}], "uuid": "5302f9d1-7a5e-4d38-bba4-8f0bbd159b20", "source": {"name": "Vernon", "slug": "vernon"}, "source_identifier": "4157", "external_references": [{"id": 26575, "source": {"name": "Wikidata", "slug": "wikidata"}, "source_identifier": "Q14629988"}, {"id": 29691, "source": {"name": "VIAF", "slug": "viaf"}, "source_identifier": "53824950"}, {"id": 29692, "source": {"name": "LOC Auth", "slug": "loc-auth"}, "source_identifier": "no2002091909"}, {"id": 29693, "source": {"name": "WorldCat", "slug": "worldcat"}, "source_identifier": "lccn-no2002091909"}], "date_modified": "2023-09-05T21:54:25.064582+10:00"}]}