{"count": 28687, "next": "https://api.acmi.net.au/creators/?page=1344", "previous": "https://api.acmi.net.au/creators/?page=1342", "results": [{"id": 38239, "name": "Alma Gray", "roles_in_work": [{"id": 888659, "title": "Eclair. Episodes 1 & 2 and Pmf the robot", "work_id": 98379, "role": "director", "role_id": 938, "is_primary": true}, {"id": 2752629, "title": "Eclair. Episodes 11 & 12 and PMF the robot", "work_id": 98384, "role": "director", "role_id": 938, "is_primary": true}, {"id": 2752626, "title": "Eclair. Episodes 9 & 10 and Francescope", "work_id": 98383, "role": "director", "role_id": 938, "is_primary": true}, {"id": 2752623, "title": "Eclair. Episodes 7 & 8 and Francescope", "work_id": 98382, "role": "director", "role_id": 938, "is_primary": true}, {"id": 2752620, "title": "Eclair. Episodes 5 & 6 and Pmf the robot", "work_id": 98381, "role": "director", "role_id": 938, "is_primary": true}, {"id": 2752617, "title": "Eclair. Episodes 3 & 4 and PMF the robot", "work_id": 98380, "role": "director", "role_id": 938, "is_primary": true}, {"id": 2750610, "title": "Eclair. Episode 12", "work_id": 97413, "role": "co-producer", "role_id": 915, "is_primary": true}, {"id": 2750598, "title": "Eclair. Episode 08", "work_id": 97409, "role": "co-producer", "role_id": 915, "is_primary": true}, {"id": 2750602, "title": "Eclair. Episode 10", "work_id": 97411, "role": "co-producer", "role_id": 915, "is_primary": true}, {"id": 2214236, "title": "Eclair. Episode 03", "work_id": 97038, "role": "co-producer", "role_id": 915, "is_primary": true}, {"id": 2214259, "title": "Eclair. Episode 04", "work_id": 97039, "role": "co-producer", "role_id": 915, "is_primary": true}, {"id": 2214888, "title": "Eclair. Episode 09", "work_id": 97410, "role": "co-producer", "role_id": 915, "is_primary": true}, {"id": 2749908, "title": "Eclair. Episode 01", "work_id": 97036, "role": "co-producer", "role_id": 915, "is_primary": true}, {"id": 2214785, "title": "Eclair. Episode 06", "work_id": 97041, "role": "co-producer", "role_id": 915, "is_primary": true}, {"id": 2749912, "title": "Eclair. Episode 02", "work_id": 97037, "role": "co-producer", "role_id": 915, "is_primary": true}, {"id": 2750606, "title": "Eclair. Episode 11", "work_id": 97412, "role": "co-producer", "role_id": 915, "is_primary": true}, {"id": 2749916, "title": "Eclair. Episode 05", "work_id": 97040, "role": "co-producer", "role_id": 915, "is_primary": true}, {"id": 2750594, "title": "Eclair. Episode 07", "work_id": 97408, "role": "co-producer", "role_id": 915, "is_primary": true}], "also_known_as": "", "date_of_birth": "", "date_of_death": "", "genders": [], "languages": [], "places_of_operation": [], "biography": "", "biography_author": null, "date_of_biography": "2023-05-09T15:52:47.019550+10:00", "external_links": [], "uuid": "b4a3921c-7dd4-49a1-919a-ce9d23699e0a", "source": {"name": "Vernon", "slug": "vernon"}, "source_identifier": "15035", "external_references": [{"id": 43518, "source": {"name": "Wikidata", "slug": "wikidata"}, "source_identifier": "Q121126123"}], "date_modified": "2025-03-13T01:08:14.623009+11:00"}, {"id": 38238, "name": "David Ash", "roles_in_work": [{"id": 2214234, "title": "Eclair. Episode 03", "work_id": 97038, "role": "co-producer", "role_id": 915, "is_primary": true}, {"id": 2750597, "title": "Eclair. Episode 08", "work_id": 97409, "role": "co-producer", "role_id": 915, "is_primary": true}, {"id": 2750601, "title": "Eclair. Episode 10", "work_id": 97411, "role": "co-producer", "role_id": 915, "is_primary": true}, {"id": 2750605, "title": "Eclair. Episode 11", "work_id": 97412, "role": "co-producer", "role_id": 915, "is_primary": true}, {"id": 2750609, "title": "Eclair. Episode 12", "work_id": 97413, "role": "co-producer", "role_id": 915, "is_primary": true}, {"id": 2749907, "title": "Eclair. Episode 01", "work_id": 97036, "role": "co-producer", "role_id": 915, "is_primary": true}, {"id": 2749911, "title": "Eclair. Episode 02", "work_id": 97037, "role": "co-producer", "role_id": 915, "is_primary": true}, {"id": 2749915, "title": "Eclair. Episode 05", "work_id": 97040, "role": "co-producer", "role_id": 915, "is_primary": true}, {"id": 2750593, "title": "Eclair. Episode 07", "work_id": 97408, "role": "co-producer", "role_id": 915, "is_primary": true}, {"id": 2214254, "title": "Eclair. Episode 04", "work_id": 97039, "role": "co-producer", "role_id": 915, "is_primary": true}, {"id": 2214885, "title": "Eclair. Episode 09", "work_id": 97410, "role": "co-producer", "role_id": 915, "is_primary": true}, {"id": 2214781, "title": "Eclair. Episode 06", "work_id": 97041, "role": "co-producer", "role_id": 915, "is_primary": true}, {"id": 2752625, "title": "Eclair. Episodes 9 & 10 and Francescope", "work_id": 98383, "role": "producer", "role_id": 1089, "is_primary": true}, {"id": 2752622, "title": "Eclair. Episodes 7 & 8 and Francescope", "work_id": 98382, "role": "producer", "role_id": 1089, "is_primary": true}, {"id": 2752619, "title": "Eclair. Episodes 5 & 6 and Pmf the robot", "work_id": 98381, "role": "producer", "role_id": 1089, "is_primary": true}, {"id": 1816269, "title": "Eclair. Episodes 1 & 2 and Pmf the robot", "work_id": 98379, "role": "producer", "role_id": 1089, "is_primary": true}, {"id": 2752628, "title": "Eclair. Episodes 11 & 12 and PMF the robot", "work_id": 98384, "role": "producer", "role_id": 1089, "is_primary": true}, {"id": 2752616, "title": "Eclair. Episodes 3 & 4 and PMF the robot", "work_id": 98380, "role": "producer", "role_id": 1089, "is_primary": true}], "also_known_as": "", "date_of_birth": "", "date_of_death": "", "genders": [], "languages": [], "places_of_operation": [], "biography": "", "biography_author": null, "date_of_biography": "2023-05-09T15:52:46.794364+10:00", "external_links": [], "uuid": "621353f7-9087-4e59-8c0e-e0efa0d7f407", "source": {"name": "Vernon", "slug": "vernon"}, "source_identifier": "17491", "external_references": [{"id": 40169, "source": {"name": "Wikidata", "slug": "wikidata"}, "source_identifier": "Q121315002"}], "date_modified": "2025-03-13T01:08:14.017730+11:00"}, {"id": 38237, "name": "Shaw Ashton", "roles_in_work": [{"id": 2749905, "title": "Sam Smith: Genuine England", "work_id": 97035, "role": "director", "role_id": 938, "is_primary": true}], "also_known_as": "", "date_of_birth": null, "date_of_death": null, "genders": [], "languages": [], "places_of_operation": [], "biography": "", "biography_author": null, "date_of_biography": null, "external_links": [], "uuid": "c0c0cad9-be33-4569-b53f-4d20a48145bd", "source": {"name": "Vernon", "slug": "vernon"}, "source_identifier": "28728", "external_references": [], "date_modified": "2025-03-13T00:10:32.403704+11:00"}, {"id": 38236, "name": "Andrew Lee", "roles_in_work": [{"id": 2749904, "title": "Sam Smith: Genuine England", "work_id": 97035, "role": "producer", "role_id": 1089, "is_primary": true}], "also_known_as": "", "date_of_birth": null, "date_of_death": null, "genders": [], "languages": [], "places_of_operation": [], "biography": "", "biography_author": null, "date_of_biography": null, "external_links": [], "uuid": "2d174fc1-c2ab-4cd0-b793-449e00f14a0f", "source": {"name": "Vernon", "slug": "vernon"}, "source_identifier": "15183", "external_references": [], "date_modified": "2025-03-13T00:10:31.819668+11:00"}, {"id": 38235, "name": "John Woods", "roles_in_work": [{"id": 2749897, "title": "The Long distance search for the great Australian funny bone. - Edited version", "work_id": 97031, "role": "director", "role_id": 938, "is_primary": true}], "also_known_as": "", "date_of_birth": "", "date_of_death": "", "genders": [], "languages": [], "places_of_operation": [], "biography": "", "biography_author": null, "date_of_biography": "2023-08-14T11:19:47.792179+10:00", "external_links": [], "uuid": "b5569d96-8e20-4fb0-8ee7-3b6c4c1d9fbf", "source": {"name": "Vernon", "slug": "vernon"}, "source_identifier": "22588", "external_references": [], "date_modified": "2025-03-13T00:10:26.573374+11:00"}, {"id": 38233, "name": "Cecil Rubie", "roles_in_work": [{"id": 2749890, "title": "The Last to discover water", "work_id": 97026, "role": "producer", "role_id": 1089, "is_primary": true}], "also_known_as": "", "date_of_birth": null, "date_of_death": null, "genders": [], "languages": [], "places_of_operation": [], "biography": "", "biography_author": null, "date_of_biography": null, "external_links": [], "uuid": "dfeee7cd-6a41-4a6d-a1a2-c04e61427643", "source": {"name": "Vernon", "slug": "vernon"}, "source_identifier": "16625", "external_references": [], "date_modified": "2025-03-13T00:10:21.085857+11:00"}, {"id": 38232, "name": "United States Women's Lacrosse Association", "roles_in_work": [{"id": 2749887, "title": "Discover women's lacrosse", "work_id": 97025, "role": "production company", "role_id": 941, "is_primary": true}], "also_known_as": "", "date_of_birth": "", "date_of_death": "", "genders": [], "languages": [], "places_of_operation": [], "biography": "", "biography_author": null, "date_of_biography": "2023-08-11T16:09:01.332059+10:00", "external_links": [], "uuid": "2f3e3fcb-be9a-453e-ba89-250a3c040aef", "source": {"name": "Vernon", "slug": "vernon"}, "source_identifier": "13887", "external_references": [], "date_modified": "2025-03-13T00:10:19.047685+11:00"}, {"id": 38231, "name": "Filmadelphia", "roles_in_work": [{"id": 2749886, "title": "Discover women's lacrosse", "work_id": 97025, "role": "production company", "role_id": 941, "is_primary": true}], "also_known_as": "", "date_of_birth": "", "date_of_death": "", "genders": [], "languages": [], "places_of_operation": [], "biography": "", "biography_author": null, "date_of_biography": "2023-08-11T16:09:00.717259+10:00", "external_links": [], "uuid": "569aff0f-df35-417d-972b-64a4026da88e", "source": {"name": "Vernon", "slug": "vernon"}, "source_identifier": "8262", "external_references": [], "date_modified": "2025-03-13T00:10:18.468777+11:00"}, {"id": 38230, "name": "Jack Regas", "roles_in_work": [{"id": 2749875, "title": "Psst! Hammerman's after you", "work_id": 97021, "role": "director", "role_id": 938, "is_primary": true}], "also_known_as": "", "date_of_birth": null, "date_of_death": null, "genders": [], "languages": [], "places_of_operation": [], "biography": "", "biography_author": null, "date_of_biography": null, "external_links": [], "uuid": "dc6fe640-e36a-4f5f-9f42-24f39a72133c", "source": {"name": "Vernon", "slug": "vernon"}, "source_identifier": "21080", "external_references": [], "date_modified": "2025-03-13T00:10:13.788536+11:00"}, {"id": 38229, "name": "D Martin Tahse", "roles_in_work": [{"id": 2749874, "title": "Psst! Hammerman's after you", "work_id": 97021, "role": "producer", "role_id": 1089, "is_primary": true}], "also_known_as": "", "date_of_birth": null, "date_of_death": null, "genders": [], "languages": [], "places_of_operation": [], "biography": "", "biography_author": null, "date_of_biography": null, "external_links": [], "uuid": "ef75d39e-0c76-46ca-83e4-6470ee9dd39d", "source": {"name": "Vernon", "slug": "vernon"}, "source_identifier": "17309", "external_references": [], "date_modified": "2025-03-13T00:10:13.197657+11:00"}]}