{"count": 28687, "next": "https://api.acmi.net.au/creators/?page=1680", "previous": "https://api.acmi.net.au/creators/?page=1678", "results": [{"id": 29095, "name": "Mohsen Makhmalbaf", "roles_in_work": [{"id": 1991416, "title": "Gabbeh", "work_id": 87142, "role": "director", "role_id": 938, "is_primary": true}, {"id": 1993621, "title": "A Moment of innocence = Bread and flower = Nun va goldoon", "work_id": 89331, "role": "director", "role_id": 938, "is_primary": true}, {"id": 1999313, "title": "The Marriage of the blessed = Arusi-ye khuban [NTSC]", "work_id": 94383, "role": "director", "role_id": 938, "is_primary": true}, {"id": 819633, "title": "Once upon a time, cinema [NTSC] = Nassereddin Shah, actor-e cinema", "work_id": 94381, "role": "director", "role_id": 938, "is_primary": true}, {"id": 2118167, "title": "Blackboards", "work_id": 92188, "role": "co-producer", "role_id": 915, "is_primary": true}, {"id": 2118425, "title": "Blackboards", "work_id": 92189, "role": "co-producer", "role_id": 915, "is_primary": true}, {"id": 1997220, "title": "Boycott = Baycot [NTSC]", "work_id": 93184, "role": "producer/director", "role_id": 31, "is_primary": true}, {"id": 2169601, "title": "Kandahar = Safar e Ghandehar", "work_id": 93700, "role": "producer/director", "role_id": 31, "is_primary": true}], "also_known_as": "", "date_of_birth": "1957-05-29", "date_of_death": null, "genders": [{"id": 9, "name": "Male", "slug": "male"}], "languages": [{"id": 26, "name": "Persian", "slug": "persian"}], "places_of_operation": [{"id": 258, "name": "Iran", "slug": "iran"}], "biography": "Mohsen Makhmalbaf (Persian: محسن مخملباف, Mohsen Makhmalbaaf; born May 29, 1957) is an Iranian film director, writer, film editor, and producer. He has made more than 20 feature films, won some 50 awards and been a juror in more than 15 major film festivals. His award-winning films include Kandahar; his latest documentary is The Gardener and latest feature The President.\nMakhmalbaf's films have been widely presented at international film festivals in the past ten years. The director belongs to the new wave movement of Iranian cinema. Time selected Makhmalbaf's 2001 film Kandahar as one of the top 100 films of all time. In 2006, he was a member of the Jury at the Venice Film Festival.\nMakhmalbaf left Iran in 2005 shortly after the election of Mahmoud Ahmadinejad, and has lived in Paris since the events of the 2009 Iranian presidential election.", "biography_author": "Wikidata", "date_of_biography": "2022-05-19T12:32:57.809664+10:00", "external_links": [{"id": 2755, "uri": "https://en.wikipedia.org/wiki/Mohsen_Makhmalbaf"}], "uuid": "a888d0f2-ebbc-4dc7-a37d-c811138195aa", "source": {"name": "Vernon", "slug": "vernon"}, "source_identifier": "25487", "external_references": [{"id": 11742, "source": {"name": "Wikidata", "slug": "wikidata"}, "source_identifier": "Q55211"}, {"id": 11743, "source": {"name": "VIAF", "slug": "viaf"}, "source_identifier": "67309249"}, {"id": 11744, "source": {"name": "LOC Auth", "slug": "loc-auth"}, "source_identifier": "n88664107"}, {"id": 11745, "source": {"name": "WorldCat", "slug": "worldcat"}, "source_identifier": "viaf-67309249"}], "date_modified": "2023-09-13T12:31:33.152613+10:00"}, {"id": 29088, "name": "Gus Mercurio Enterprises", "roles_in_work": [{"id": 2329118, "title": "The Backbone of life", "work_id": 87137, "role": "production company", "role_id": 941, "is_primary": true}], "also_known_as": "", "date_of_birth": "", "date_of_death": "", "genders": [], "languages": [], "places_of_operation": [], "biography": "", "biography_author": null, "date_of_biography": "2023-05-09T19:23:13.641071+10:00", "external_links": [], "uuid": "b6f8988f-ee9e-4142-a75b-9dab1fa01c84", "source": {"name": "Vernon", "slug": "vernon"}, "source_identifier": "8942", "external_references": [{"id": 41657, "source": {"name": "Wikidata", "slug": "wikidata"}, "source_identifier": "Q121126177"}], "date_modified": "2023-09-05T20:24:58.087650+10:00"}, {"id": 29086, "name": "Healing Arts", "roles_in_work": [{"id": 2472130, "title": "Yoga for beginners", "work_id": 87136, "role": "production company", "role_id": 941, "is_primary": true}], "also_known_as": "", "date_of_birth": "", "date_of_death": "", "genders": [], "languages": [], "places_of_operation": [], "biography": "", "biography_author": null, "date_of_biography": "2023-08-14T12:53:59.030685+10:00", "external_links": [], "uuid": "a516e695-21c0-4754-bcd1-9fc6fbdea015", "source": {"name": "Vernon", "slug": "vernon"}, "source_identifier": "9038", "external_references": [], "date_modified": "2023-08-14T12:53:59.030951+10:00"}, {"id": 29085, "name": "Michael Ngai", "roles_in_work": [{"id": 2466406, "title": "Taijiquan (Tai Chi): the 24 forms", "work_id": 87135, "role": "director", "role_id": 938, "is_primary": true}], "also_known_as": "", "date_of_birth": "", "date_of_death": "", "genders": [], "languages": [], "places_of_operation": [], "biography": "", "biography_author": null, "date_of_biography": "2023-08-14T10:56:33.792640+10:00", "external_links": [], "uuid": "8b7d034a-ab45-4cb0-b6f6-b8e7fde0b80c", "source": {"name": "Vernon", "slug": "vernon"}, "source_identifier": "25171", "external_references": [], "date_modified": "2023-08-14T10:56:33.792916+10:00"}, {"id": 29084, "name": "East Acton Videos", "roles_in_work": [{"id": 2466405, "title": "Taijiquan (Tai Chi): the 24 forms", "work_id": 87135, "role": "production company", "role_id": 941, "is_primary": true}], "also_known_as": "", "date_of_birth": "", "date_of_death": "", "genders": [], "languages": [], "places_of_operation": [], "biography": "", "biography_author": null, "date_of_biography": "2023-08-14T10:56:33.150829+10:00", "external_links": [], "uuid": "f96cf2f0-46dd-410f-a563-30ef8d5f6dfc", "source": {"name": "Vernon", "slug": "vernon"}, "source_identifier": "7709", "external_references": [], "date_modified": "2023-08-14T10:56:33.151096+10:00"}, {"id": 29083, "name": "Robert Mellor", "roles_in_work": [{"id": 2466130, "title": "Stages", "work_id": 87134, "role": "director", "role_id": 938, "is_primary": true}], "also_known_as": "", "date_of_birth": "", "date_of_death": "", "genders": [], "languages": [], "places_of_operation": [], "biography": "", "biography_author": null, "date_of_biography": "2023-08-14T10:50:09.976241+10:00", "external_links": [], "uuid": "9279ff30-3cbd-4e8b-bad3-278e30493f46", "source": {"name": "Vernon", "slug": "vernon"}, "source_identifier": "27833", "external_references": [], "date_modified": "2023-08-14T10:50:09.976541+10:00"}, {"id": 29081, "name": "Knowledge Media", "roles_in_work": [{"id": 2065748, "title": "A Century of fantastic cinema: an interactive history of science fiction and horror films (PC)", "work_id": 87133, "role": "production company", "role_id": 941, "is_primary": true}], "also_known_as": "", "date_of_birth": "", "date_of_death": "", "genders": [], "languages": [], "places_of_operation": [], "biography": "", "biography_author": null, "date_of_biography": "2023-05-09T11:22:54.589259+10:00", "external_links": [], "uuid": "b55aac2e-165c-4685-b4ad-8f1988fe9623", "source": {"name": "Vernon", "slug": "vernon"}, "source_identifier": "9806", "external_references": [{"id": 35316, "source": {"name": "Wikidata", "slug": "wikidata"}, "source_identifier": "Q121091444"}], "date_modified": "2023-09-05T22:11:19.052869+10:00"}, {"id": 29080, "name": "American MPC Research", "roles_in_work": [{"id": 2213414, "title": "Earthquake! (PC)", "work_id": 87132, "role": "production company", "role_id": 941, "is_primary": true}], "also_known_as": "", "date_of_birth": "", "date_of_death": "", "genders": [], "languages": [], "places_of_operation": [], "biography": "", "biography_author": null, "date_of_biography": "2023-05-09T15:50:09.130507+10:00", "external_links": [], "uuid": "de77e104-ad76-46d6-bb76-fea49cbeaedc", "source": {"name": "Vernon", "slug": "vernon"}, "source_identifier": "5211", "external_references": [{"id": 42081, "source": {"name": "Wikidata", "slug": "wikidata"}, "source_identifier": "Q121315111"}], "date_modified": "2023-09-05T17:31:41.414706+10:00"}, {"id": 29075, "name": "Commonwealth Department of Primary Industries and Energy", "roles_in_work": [{"id": 2794230, "title": "Energy efficient light", "work_id": 87125, "role": "production company", "role_id": 941, "is_primary": true}, {"id": 2794235, "title": "The Energy management program", "work_id": 87126, "role": "production company", "role_id": 941, "is_primary": true}, {"id": 2794239, "title": "The Energy audit", "work_id": 87128, "role": "production company", "role_id": 941, "is_primary": true}, {"id": 2794243, "title": "Energy efficient air", "work_id": 87129, "role": "production company", "role_id": 941, "is_primary": true}, {"id": 2794247, "title": "Energy management in commercial buildings", "work_id": 115493, "role": "production company", "role_id": 941, "is_primary": true}], "also_known_as": "", "date_of_birth": null, "date_of_death": null, "genders": [], "languages": [], "places_of_operation": [], "biography": "", "biography_author": null, "date_of_biography": null, "external_links": [], "uuid": "4b48e38b-5dff-4666-ac62-fdb48842a0c9", "source": {"name": "Vernon", "slug": "vernon"}, "source_identifier": "6936", "external_references": [], "date_modified": "2025-03-14T20:23:54.196717+11:00"}, {"id": 29073, "name": "Samuelson Entertainment", "roles_in_work": [{"id": 1991399, "title": "Wilde", "work_id": 87124, "role": "production company", "role_id": 941, "is_primary": true}], "also_known_as": "", "date_of_birth": "1951-10-16", "date_of_death": null, "genders": [{"id": 9, "name": "Male", "slug": "male"}], "languages": [{"id": 1, "name": "English", "slug": "english"}], "places_of_operation": [{"id": 10, "name": "United Kingdom", "slug": "united-kingdom"}], "biography": "Peter Samuelson (born 16 October 1951) is an American and British TV and film producer known for films such as Revenge of the Nerds and Arlington Road.", "biography_author": "Wikidata", "date_of_biography": "2022-05-19T13:01:48.662996+10:00", "external_links": [{"id": 3065, "uri": "https://en.wikipedia.org/wiki/Peter_Samuelson"}], "uuid": "ba8e9163-1a39-4acc-b7f4-197ea33be9c3", "source": {"name": "Vernon", "slug": "vernon"}, "source_identifier": "12266", "external_references": [{"id": 13012, "source": {"name": "Wikidata", "slug": "wikidata"}, "source_identifier": "Q7176765"}, {"id": 13013, "source": {"name": "VIAF", "slug": "viaf"}, "source_identifier": "26712622"}, {"id": 13014, "source": {"name": "LOC Auth", "slug": "loc-auth"}, "source_identifier": "no2001042004"}, {"id": 13015, "source": {"name": "WorldCat", "slug": "worldcat"}, "source_identifier": "lccn-no2001042004"}], "date_modified": "2023-09-13T12:32:37.620786+10:00"}]}