{"count": 28687, "next": "https://api.acmi.net.au/creators/?page=836", "previous": "https://api.acmi.net.au/creators/?page=834", "results": [{"id": 77232, "name": "Pratibha Parmar", "roles_in_work": [{"id": 2330409, "title": "The Best of 'Out' & 'Out on Tuesday'", "work_id": 82714, "role": "co-director", "role_id": 959, "is_primary": true}], "also_known_as": "", "date_of_birth": "", "date_of_death": "", "genders": [], "languages": [], "places_of_operation": [], "biography": "", "biography_author": null, "date_of_biography": "2023-05-09T19:24:46.248635+10:00", "external_links": [], "uuid": "85512bf7-ca95-4ed5-a849-9f54582c86db", "source": {"name": "Vernon", "slug": "vernon"}, "source_identifier": "26978", "external_references": [{"id": 32436, "source": {"name": "Wikidata", "slug": "wikidata"}, "source_identifier": "Q121144122"}], "date_modified": "2023-09-06T00:13:55.470629+10:00"}, {"id": 77231, "name": "Susan Ardill", "roles_in_work": [{"id": 2328718, "title": "The Australian Experience", "work_id": 117447, "role": "director", "role_id": 938, "is_primary": true}, {"id": 2615521, "title": "Sheep's back", "work_id": 85622, "role": "producer", "role_id": 1089, "is_primary": true}, {"id": 2328706, "title": "The Australian Experience", "work_id": 117447, "role": "producer", "role_id": 1089, "is_primary": true}, {"id": 2328763, "title": "Land of the long weekend", "work_id": 85387, "role": "producer", "role_id": 1089, "is_primary": true}, {"id": 2330385, "title": "The Best of 'Out' & 'Out on Tuesday'", "work_id": 82714, "role": "producer/director", "role_id": 31, "is_primary": true}, {"id": 2328777, "title": "Populate or perish", "work_id": 85621, "role": "producer/director", "role_id": 31, "is_primary": true}], "also_known_as": "", "date_of_birth": "", "date_of_death": "", "genders": [], "languages": [], "places_of_operation": [], "biography": "", "biography_author": null, "date_of_biography": "2023-05-09T19:24:44.923748+10:00", "external_links": [], "uuid": "0dce55c0-b0c7-4bca-8004-9546d3735a85", "source": {"name": "Vernon", "slug": "vernon"}, "source_identifier": "29328", "external_references": [{"id": 52007, "source": {"name": "Wikidata", "slug": "wikidata"}, "source_identifier": "Q121357523"}], "date_modified": "2025-02-26T20:25:02.991210+11:00"}, {"id": 77230, "name": "James Bradley", "roles_in_work": [{"id": 2178665, "title": "David Anderson: works on film", "work_id": 83570, "role": "co-producer", "role_id": 915, "is_primary": true}, {"id": 2097232, "title": "Animation on 4. Vol. 01", "work_id": 82700, "role": "co-producer", "role_id": 915, "is_primary": true}], "also_known_as": "", "date_of_birth": "", "date_of_death": "", "genders": [], "languages": [], "places_of_operation": [], "biography": "", "biography_author": null, "date_of_biography": "2023-05-09T14:49:09.055517+10:00", "external_links": [], "uuid": "402f525d-4776-44d5-b81e-c63e460105df", "source": {"name": "Vernon", "slug": "vernon"}, "source_identifier": "21199", "external_references": [{"id": 39322, "source": {"name": "Wikidata", "slug": "wikidata"}, "source_identifier": "Q121091425"}], "date_modified": "2023-09-05T21:02:14.625722+10:00"}, {"id": 77229, "name": "Barnaby Spurrier", "roles_in_work": [{"id": 2178661, "title": "David Anderson: works on film", "work_id": 83570, "role": "co-producer", "role_id": 915, "is_primary": true}, {"id": 2097229, "title": "Animation on 4. Vol. 01", "work_id": 82700, "role": "co-producer", "role_id": 915, "is_primary": true}], "also_known_as": "", "date_of_birth": "", "date_of_death": "", "genders": [], "languages": [], "places_of_operation": [], "biography": "", "biography_author": null, "date_of_biography": "2023-05-09T14:49:08.717768+10:00", "external_links": [], "uuid": "cc531ae4-aff9-4d87-b433-922903793ffb", "source": {"name": "Vernon", "slug": "vernon"}, "source_identifier": "15681", "external_references": [{"id": 38203, "source": {"name": "Wikidata", "slug": "wikidata"}, "source_identifier": "Q121222621"}], "date_modified": "2023-09-05T17:53:41.409971+10:00"}, {"id": 77228, "name": "Lee Stork", "roles_in_work": [{"id": 2097221, "title": "Animation on 4. Vol. 01", "work_id": 82700, "role": "co-producer", "role_id": 915, "is_primary": true}], "also_known_as": "", "date_of_birth": "", "date_of_death": "", "genders": [], "languages": [], "places_of_operation": [], "biography": "", "biography_author": null, "date_of_biography": "2023-05-09T12:25:45.871882+10:00", "external_links": [], "uuid": "fe9bccf8-e15c-425c-9e0c-6a227051b864", "source": {"name": "Vernon", "slug": "vernon"}, "source_identifier": "23639", "external_references": [{"id": 51043, "source": {"name": "Wikidata", "slug": "wikidata"}, "source_identifier": "Q121357485"}], "date_modified": "2023-09-05T22:18:48.088847+10:00"}, {"id": 77227, "name": "Dept of Industry, Technology and Commerce", "roles_in_work": [{"id": 2781588, "title": "Sheer genius", "work_id": 82691, "role": "production company", "role_id": 941, "is_primary": true}], "also_known_as": "", "date_of_birth": "", "date_of_death": "", "genders": [], "languages": [], "places_of_operation": [], "biography": "", "biography_author": null, "date_of_biography": "2023-05-09T19:50:24.052743+10:00", "external_links": [], "uuid": "e21b3775-53fa-4826-a258-8d37a264313d", "source": {"name": "Vernon", "slug": "vernon"}, "source_identifier": "7505", "external_references": [{"id": 35826, "source": {"name": "Wikidata", "slug": "wikidata"}, "source_identifier": "Q121223085"}], "date_modified": "2025-03-14T19:09:48.579292+11:00"}, {"id": 77226, "name": "Meray Dahan", "roles_in_work": [{"id": 779725, "title": "Ladies in lines", "work_id": 82690, "role": "producer/director", "role_id": 31, "is_primary": true}], "also_known_as": "", "date_of_birth": null, "date_of_death": null, "genders": [], "languages": [], "places_of_operation": [], "biography": "", "biography_author": null, "date_of_biography": null, "external_links": [], "uuid": "3106642e-01bf-4877-959e-d78b2025258a", "source": {"name": "Vernon", "slug": "vernon"}, "source_identifier": null, "external_references": [{"id": 51647, "source": {"name": "Wikidata", "slug": "wikidata"}, "source_identifier": "Q121360907"}], "date_modified": "2023-09-05T23:00:50.888985+10:00"}, {"id": 77225, "name": "David Oyster", "roles_in_work": [{"id": 2328127, "title": "The Astronomers. Eps. 1-3", "work_id": 82688, "role": "co-producers/directors", "role_id": 628, "is_primary": true}], "also_known_as": "", "date_of_birth": "", "date_of_death": "", "genders": [], "languages": [], "places_of_operation": [], "biography": "", "biography_author": null, "date_of_biography": "2023-05-09T19:22:04.434047+10:00", "external_links": [], "uuid": "6471c098-77be-4692-9da7-b5065f6a0291", "source": {"name": "Vernon", "slug": "vernon"}, "source_identifier": "17744", "external_references": [], "date_modified": "2023-06-14T16:33:30.576250+10:00"}, {"id": 77224, "name": "Julio Moline", "roles_in_work": [{"id": 2328125, "title": "The Astronomers. Eps. 1-3", "work_id": 82688, "role": "co-producers/directors", "role_id": 628, "is_primary": true}], "also_known_as": "", "date_of_birth": "", "date_of_death": "", "genders": [], "languages": [], "places_of_operation": [], "biography": "", "biography_author": null, "date_of_biography": "2023-05-09T19:22:04.189247+10:00", "external_links": [], "uuid": "5af8b02a-c65b-42a8-a6d8-1bfc85c3fd3c", "source": {"name": "Vernon", "slug": "vernon"}, "source_identifier": "22927", "external_references": [], "date_modified": "2023-06-14T16:33:30.576250+10:00"}, {"id": 77223, "name": "James F. Golway", "roles_in_work": [{"id": 2794444, "title": "The DNA connection", "work_id": 87307, "role": "co-producer", "role_id": 915, "is_primary": true}, {"id": 2328122, "title": "The Astronomers. Eps. 1-3", "work_id": 82688, "role": "co-producers/directors", "role_id": 628, "is_primary": true}], "also_known_as": "", "date_of_birth": "", "date_of_death": "", "genders": [], "languages": [], "places_of_operation": [], "biography": "", "biography_author": null, "date_of_biography": "2023-05-09T19:45:38.117680+10:00", "external_links": [], "uuid": "65b0434f-2567-400a-9bf0-43a595dc24c1", "source": {"name": "Vernon", "slug": "vernon"}, "source_identifier": "21230", "external_references": [{"id": 39807, "source": {"name": "Wikidata", "slug": "wikidata"}, "source_identifier": "Q121091306"}], "date_modified": "2025-03-14T20:25:39.668587+11:00"}]}