{"count": 28687, "next": "https://api.acmi.net.au/creators/?page=1432", "previous": "https://api.acmi.net.au/creators/?page=1430", "results": [{"id": 36072, "name": "Keyfilms", "roles_in_work": [{"id": 2174674, "title": "Monsoon wedding [DVD]", "work_id": 94165, "role": "production company", "role_id": 941, "is_primary": true}], "also_known_as": "", "date_of_birth": "", "date_of_death": "", "genders": [], "languages": [], "places_of_operation": [], "biography": "", "biography_author": null, "date_of_biography": "2023-05-09T14:43:44.710140+10:00", "external_links": [], "uuid": "396287a7-aecb-4dd1-8302-a95cf6686e35", "source": {"name": "Vernon", "slug": "vernon"}, "source_identifier": "9741", "external_references": [{"id": 32557, "source": {"name": "Wikidata", "slug": "wikidata"}, "source_identifier": "Q121270754"}], "date_modified": "2023-09-05T22:08:12.365136+10:00"}, {"id": 36071, "name": "IFC Productions (US)", "roles_in_work": [{"id": 2174669, "title": "Monsoon wedding [DVD]", "work_id": 94165, "role": "production company", "role_id": 941, "is_primary": true}, {"id": 2225252, "title": "Fahrenheit 9/11", "work_id": 95013, "role": "production company", "role_id": 941, "is_primary": true}], "also_known_as": "", "date_of_birth": "", "date_of_death": "", "genders": [], "languages": [], "places_of_operation": [], "biography": "", "biography_author": null, "date_of_biography": "2023-05-09T16:25:24.692647+10:00", "external_links": [], "uuid": "a5d97b47-18ac-402b-ae2f-1e2facc5ccaa", "source": {"name": "Vernon", "slug": "vernon"}, "source_identifier": "4507", "external_references": [{"id": 35370, "source": {"name": "Wikidata", "slug": "wikidata"}, "source_identifier": "Q121035409"}], "date_modified": "2023-09-05T20:47:14.619979+10:00"}, {"id": 36065, "name": "New Wave Entertainmnet", "roles_in_work": [{"id": 2345713, "title": "The Emperor and the assassin", "work_id": 94161, "role": "production company", "role_id": 941, "is_primary": true}], "also_known_as": "", "date_of_birth": "", "date_of_death": "", "genders": [], "languages": [], "places_of_operation": [], "biography": "", "biography_author": null, "date_of_biography": "2023-05-09T19:46:29.861159+10:00", "external_links": [], "uuid": "d2eba16e-38b7-4e7c-9774-cb5047bee2c7", "source": {"name": "Vernon", "slug": "vernon"}, "source_identifier": "10919", "external_references": [{"id": 38417, "source": {"name": "Wikidata", "slug": "wikidata"}, "source_identifier": "Q121271266"}], "date_modified": "2023-09-05T23:28:39.510128+10:00"}, {"id": 36064, "name": "Ted Wilde", "roles_in_work": [{"id": 1998920, "title": "Speedy", "work_id": 94159, "role": "director", "role_id": 938, "is_primary": true}], "also_known_as": "", "date_of_birth": "1889-12-16", "date_of_death": "1929-12-17", "genders": [{"id": 9, "name": "Male", "slug": "male"}], "languages": [{"id": 1, "name": "English", "slug": "english"}], "places_of_operation": [{"id": 1, "name": "United States of America", "slug": "united-states-of-america"}], "biography": "Ted Wilde (December 16, 1889 – December 17, 1929) was a comedy writer and director during the era of silent movies, though he also directed two talkies released in 1930. He was born in New York City. His initial career was as a member of Harold Lloyd's writing staff. His final film as a director was Clancy in Wall Street. He died of a stroke in Hollywood at the age of 40, and was interred in the Forest Lawn Memorial Park Cemetery in Glendale, California.", "biography_author": "Wikidata", "date_of_biography": "2022-05-19T13:12:38.506460+10:00", "external_links": [{"id": 3182, "uri": "https://en.wikipedia.org/wiki/Ted_Wilde"}], "uuid": "3426b0cb-a5be-4e5f-bb6d-474c03723ad5", "source": {"name": "Vernon", "slug": "vernon"}, "source_identifier": "29543", "external_references": [{"id": 13489, "source": {"name": "Wikidata", "slug": "wikidata"}, "source_identifier": "Q1350928"}, {"id": 13490, "source": {"name": "VIAF", "slug": "viaf"}, "source_identifier": "71119453"}, {"id": 13491, "source": {"name": "LOC Auth", "slug": "loc-auth"}, "source_identifier": "no2005025254"}, {"id": 13492, "source": {"name": "WorldCat", "slug": "worldcat"}, "source_identifier": "lccn-no2005025254"}], "date_modified": "2023-09-13T12:32:57.827215+10:00"}, {"id": 36060, "name": "Polivideo", "roles_in_work": [{"id": 2752084, "title": "Sophocles: Oedipus the King", "work_id": 98130, "role": "production company", "role_id": 941, "is_primary": true}, {"id": 818660, "title": "The Secret life of Sergei Eisenstien", "work_id": 94156, "role": "production company", "role_id": 941, "is_primary": true}, {"id": 885529, "title": "Nabucco", "work_id": 95382, "role": "production company", "role_id": 941, "is_primary": true}, {"id": 2083916, "title": "Aida", "work_id": 94474, "role": "production company", "role_id": 941, "is_primary": true}], "also_known_as": "", "date_of_birth": "", "date_of_death": "", "genders": [], "languages": [], "places_of_operation": [], "biography": "", "biography_author": null, "date_of_biography": "2023-05-09T11:54:06.479958+10:00", "external_links": [], "uuid": "16086248-9764-4a8e-be93-c81ed78dde9e", "source": {"name": "Vernon", "slug": "vernon"}, "source_identifier": "11553", "external_references": [{"id": 34399, "source": {"name": "Wikidata", "slug": "wikidata"}, "source_identifier": "Q121143976"}], "date_modified": "2025-03-13T00:57:04.014472+11:00"}, {"id": 36055, "name": "David Gordon Green", "roles_in_work": [{"id": 1998911, "title": "George Washington", "work_id": 94154, "role": "director", "role_id": 938, "is_primary": true}, {"id": 1998906, "title": "George Washington", "work_id": 94154, "role": "co-producer", "role_id": 915, "is_primary": true}], "also_known_as": "", "date_of_birth": "1975-04-09", "date_of_death": null, "genders": [{"id": 9, "name": "Male", "slug": "male"}], "languages": [{"id": 1, "name": "English", "slug": "english"}], "places_of_operation": [{"id": 1, "name": "United States of America", "slug": "united-states-of-america"}], "biography": "David Gordon Green (born April 9, 1975) is an American filmmaker. He directed the dramas George Washington (2000), All the Real Girls (2003), and Snow Angels (2007), as well as the thriller Undertow (2004), all of which he wrote or co-wrote.\nIn 2008, Green transitioned into comedy, directing the films Pineapple Express (2008), Your Highness and The Sitter (both 2011). He returned to his dramatic roots with the independent films  Prince Avalanche and Joe (both 2013), followed by the films Manglehorn (2014), Our Brand Is Crisis (2015), and Stronger (2017). Green also directed the slasher films Halloween (2018) and Halloween Kills (2021), which he co-wrote with frequent collaborator Danny McBride. He is also set to direct the next installment of the franchise.\nGreen also directed episodes of the acclaimed comedy series Eastbound & Down (2009–2013), Red Oaks (2014–17), Vice Principals (2016–17), and The Righteous Gemstones (2019–present), on all of which he additionally served as executive producer.", "biography_author": "Wikidata", "date_of_biography": "2022-05-19T11:13:20.145568+10:00", "external_links": [{"id": 1888, "uri": "https://en.wikipedia.org/wiki/David_Gordon_Green"}], "uuid": "335d975f-5631-4935-b96c-981a8a1cf74f", "source": {"name": "Vernon", "slug": "vernon"}, "source_identifier": "17603", "external_references": [{"id": 8200, "source": {"name": "Wikidata", "slug": "wikidata"}, "source_identifier": "Q2296698"}, {"id": 8201, "source": {"name": "VIAF", "slug": "viaf"}, "source_identifier": "73530958"}, {"id": 8202, "source": {"name": "LOC Auth", "slug": "loc-auth"}, "source_identifier": "no2002103790"}, {"id": 8203, "source": {"name": "WorldCat", "slug": "worldcat"}, "source_identifier": "lccn-no2002103790"}], "date_modified": "2023-09-13T12:28:57.544026+10:00"}, {"id": 36049, "name": "Evegnii Bauer", "roles_in_work": [{"id": 2406549, "title": "Early Russian cinema. Vol 7: Evgenii Bauer", "work_id": 94187, "role": "director", "role_id": 938, "is_primary": true}, {"id": 2415487, "title": "Mad love: three films by Evgenii Bauer", "work_id": 94151, "role": "director", "role_id": 938, "is_primary": true}], "also_known_as": "", "date_of_birth": "", "date_of_death": "", "genders": [], "languages": [], "places_of_operation": [], "biography": "", "biography_author": null, "date_of_biography": "2023-08-11T19:38:49.586338+10:00", "external_links": [], "uuid": "f696136e-ced3-4845-af5a-9fca95f97167", "source": {"name": "Vernon", "slug": "vernon"}, "source_identifier": "18929", "external_references": [], "date_modified": "2023-08-11T19:38:49.586640+10:00"}, {"id": 36048, "name": "A Chanshokov", "roles_in_work": [{"id": 2415486, "title": "Mad love: three films by Evgenii Bauer", "work_id": 94151, "role": "producer", "role_id": 1089, "is_primary": true}], "also_known_as": "", "date_of_birth": "", "date_of_death": "", "genders": [], "languages": [], "places_of_operation": [], "biography": "", "biography_author": null, "date_of_biography": "2023-08-11T19:38:48.815508+10:00", "external_links": [], "uuid": "4c7c8700-2d95-47b0-ad5a-1cfb157ef611", "source": {"name": "Vernon", "slug": "vernon"}, "source_identifier": "14584", "external_references": [], "date_modified": "2023-08-11T19:38:48.815757+10:00"}, {"id": 36046, "name": "Jim Needham", "roles_in_work": [{"id": 2474040, "title": "Australia's art of the Dreamtime: Quinkin country", "work_id": 94143, "role": "director", "role_id": 938, "is_primary": true}], "also_known_as": "", "date_of_birth": "", "date_of_death": "", "genders": [], "languages": [], "places_of_operation": [], "biography": "", "biography_author": null, "date_of_biography": "2023-08-16T03:41:40.714222+10:00", "external_links": [], "uuid": "1b12b136-9932-45b3-b5b4-0c5c6e25094b", "source": {"name": "Vernon", "slug": "vernon"}, "source_identifier": "21909", "external_references": [{"id": 37518, "source": {"name": "Wikidata", "slug": "wikidata"}, "source_identifier": "Q121271114"}], "date_modified": "2023-09-05T21:25:14.678221+10:00"}, {"id": 36045, "name": "WIPB-TV, Ball State University", "roles_in_work": [{"id": 2474039, "title": "Australia's art of the Dreamtime: Quinkin country", "work_id": 94143, "role": "production company", "role_id": 941, "is_primary": true}], "also_known_as": "", "date_of_birth": "", "date_of_death": "", "genders": [], "languages": [], "places_of_operation": [], "biography": "", "biography_author": null, "date_of_biography": "2023-08-16T03:41:40.088228+10:00", "external_links": [], "uuid": "58b1338f-664a-4e5e-b638-ac252ea81312", "source": {"name": "Vernon", "slug": "vernon"}, "source_identifier": "14399", "external_references": [{"id": 37098, "source": {"name": "Wikidata", "slug": "wikidata"}, "source_identifier": "Q121035986"}], "date_modified": "2023-09-06T02:19:13.500110+10:00"}]}