{"count": 28687, "next": "https://api.acmi.net.au/creators/?page=157", "previous": "https://api.acmi.net.au/creators/?page=155", "results": [{"id": 84047, "name": "eShed", "roles_in_work": [{"id": 2718688, "title": "The Box", "work_id": 117385, "role": "production company", "role_id": 941, "is_primary": true}], "also_known_as": "", "date_of_birth": "", "date_of_death": "", "genders": [], "languages": [], "places_of_operation": [], "biography": "", "biography_author": null, "date_of_biography": "2023-05-09T19:30:12.620663+10:00", "external_links": [], "uuid": "abec3957-aeb1-4eae-a305-ea69df9c1d5a", "source": {"name": "Vernon", "slug": "vernon"}, "source_identifier": "37188", "external_references": [{"id": 39877, "source": {"name": "Wikidata", "slug": "wikidata"}, "source_identifier": "Q121271159"}], "date_modified": "2025-03-12T06:38:05.674315+11:00"}, {"id": 84046, "name": "Watershed", "roles_in_work": [{"id": 2718686, "title": "The Box", "work_id": 117385, "role": "production company", "role_id": 941, "is_primary": true}], "also_known_as": "", "date_of_birth": "", "date_of_death": "", "genders": [], "languages": [], "places_of_operation": [], "biography": "", "biography_author": null, "date_of_biography": "2023-05-09T19:30:12.380969+10:00", "external_links": [], "uuid": "0a766e58-bac3-4d6b-b59c-5aecff50c191", "source": {"name": "Vernon", "slug": "vernon"}, "source_identifier": "37187", "external_references": [{"id": 35763, "source": {"name": "Wikidata", "slug": "wikidata"}, "source_identifier": "Q121314983"}], "date_modified": "2025-03-12T06:38:02.718808+11:00"}, {"id": 84045, "name": "First Light", "roles_in_work": [{"id": 2718813, "title": "Prehistoric Pet Shop", "work_id": 117391, "role": "production company", "role_id": 941, "is_primary": true}, {"id": 2718661, "title": "Beloved", "work_id": 117387, "role": "production company", "role_id": 941, "is_primary": true}, {"id": 2718683, "title": "The Box", "work_id": 117385, "role": "production company", "role_id": 941, "is_primary": true}, {"id": 2718705, "title": "Destination Point", "work_id": 117393, "role": "production company", "role_id": 941, "is_primary": true}, {"id": 2718715, "title": "A Mile in our Shoes", "work_id": 117394, "role": "production company", "role_id": 941, "is_primary": true}, {"id": 2718736, "title": "My Grandma", "work_id": 117389, "role": "production company", "role_id": 941, "is_primary": true}, {"id": 2718753, "title": "Olympic Legacy: this was forever", "work_id": 117390, "role": "production company", "role_id": 941, "is_primary": true}, {"id": 2718764, "title": "One Man's Walk", "work_id": 117395, "role": "production company", "role_id": 941, "is_primary": true}, {"id": 2718774, "title": "One Week Later", "work_id": 117388, "role": "production company", "role_id": 941, "is_primary": true}, {"id": 2718793, "title": "Pirates of the Indian Ocean", "work_id": 117386, "role": "production company", "role_id": 941, "is_primary": true}, {"id": 2718840, "title": "The Race", "work_id": 117396, "role": "production company", "role_id": 941, "is_primary": true}, {"id": 2718854, "title": "Until My Heart's, Like, Finished", "work_id": 117392, "role": "production company", "role_id": 941, "is_primary": true}], "also_known_as": "", "date_of_birth": "", "date_of_death": "", "genders": [], "languages": [], "places_of_operation": [], "biography": "", "biography_author": null, "date_of_biography": "2023-05-09T19:30:12.126634+10:00", "external_links": [], "uuid": "650e2d30-e6f5-418f-a432-7a3e2b989a77", "source": {"name": "Vernon", "slug": "vernon"}, "source_identifier": "37189", "external_references": [{"id": 32861, "source": {"name": "Wikidata", "slug": "wikidata"}, "source_identifier": "Q121143756"}], "date_modified": "2025-03-12T06:43:01.129109+11:00"}, {"id": 84044, "name": "Fiona Reilly", "roles_in_work": [{"id": 2660421, "title": "Hollywood Costume. Inside the wardrobe: panel discussion", "work_id": 117384, "role": "speaker", "role_id": 486, "is_primary": false}], "also_known_as": "", "date_of_birth": null, "date_of_death": null, "genders": [], "languages": [], "places_of_operation": [], "biography": "Head of Costume at NIDA 2013", "biography_author": null, "date_of_biography": "2025-03-05T19:55:12.706624+11:00", "external_links": [], "uuid": "3051675f-6979-4d9f-af7c-7fbd74b77ed8", "source": {"name": "Vernon", "slug": "vernon"}, "source_identifier": "37006", "external_references": [], "date_modified": "2025-03-05T19:55:12.706951+11:00"}, {"id": 84043, "name": "Cappi Ireland", "roles_in_work": [{"id": 2660420, "title": "Hollywood Costume. Inside the wardrobe: panel discussion", "work_id": 117384, "role": "participants", "role_id": 622, "is_primary": false}], "also_known_as": "", "date_of_birth": null, "date_of_death": null, "genders": [{"id": 5, "name": "Female", "slug": "female"}], "languages": [], "places_of_operation": [], "biography": "Fashion designer", "biography_author": null, "date_of_biography": "2025-03-05T19:55:12.104405+11:00", "external_links": [], "uuid": "b954794b-9140-4eef-a184-9398782b39b5", "source": {"name": "Vernon", "slug": "vernon"}, "source_identifier": "37002", "external_references": [], "date_modified": "2025-03-05T19:55:12.104682+11:00"}, {"id": 84042, "name": "Deborah Nadoolman Landis", "roles_in_work": [{"id": 2047289, "title": "Hollywood Costume: What is Costume Design? with Prof. D. Nadoolman Landis", "work_id": 117425, "role": "interviewee", "role_id": 496, "is_primary": false}, {"id": 2660409, "title": "Hollywood Costume: Deborah Nadoolman Landis interview", "work_id": 117383, "role": "interviewee", "role_id": 496, "is_primary": false}], "also_known_as": "", "date_of_birth": "26 MAY 1952", "date_of_death": null, "genders": [], "languages": [], "places_of_operation": [], "biography": "Deborah Nadoolman Landis is an American film and theatre costume designer. She worked on such notable films as Animal House, The Blues Brothers, Three Amigos, and Raiders of the Lost Ark.", "biography_author": null, "date_of_biography": "2025-03-05T19:55:05.094938+11:00", "external_links": [], "uuid": "cec68e04-c28c-4911-868d-e41e61971f40", "source": {"name": "Vernon", "slug": "vernon"}, "source_identifier": "36659", "external_references": [], "date_modified": "2025-03-05T19:55:05.095197+11:00"}, {"id": 84041, "name": "Sam Mapplebeck", "roles_in_work": [{"id": 2689232, "title": "[Remix: 1956 Melbourne Olympic Games]", "work_id": 119321, "role": "creator", "role_id": 968, "is_primary": true}, {"id": 2364171, "title": "Spectacle Talks: Gotye and his Collaborators", "work_id": 117446, "role": "camera operator", "role_id": 931, "is_primary": false}, {"id": 2307503, "title": "Spectacle Talks: Hello Flux Panel Discussion", "work_id": 117431, "role": "camera operator", "role_id": 931, "is_primary": false}, {"id": 2307615, "title": "Spectacle Director Showcase: Oh Yeah Wow", "work_id": 117443, "role": "camera operator", "role_id": 931, "is_primary": false}, {"id": 2307706, "title": "Spectacle Director Showcase: Paul Goldman", "work_id": 117428, "role": "camera operator", "role_id": 931, "is_primary": false}, {"id": 2660411, "title": "Hollywood Costume: Deborah Nadoolman Landis interview", "work_id": 117383, "role": "camera operator", "role_id": 931, "is_primary": false}, {"id": 2660927, "title": "In conversation with Chris Dercon and Kaat Debo", "work_id": 117426, "role": "camera operator", "role_id": 931, "is_primary": false}, {"id": 2307540, "title": "Spectacle Director Showcase: Natasha Pincus", "work_id": 117444, "role": "camera operator", "role_id": 931, "is_primary": false}, {"id": 2088899, "title": "An Evening with Shaun Tan", "work_id": 117424, "role": "camera operator", "role_id": 931, "is_primary": false}, {"id": 2307460, "title": "Spectacle Director Showcase: Leo Baker", "work_id": 117448, "role": "camera operator", "role_id": 931, "is_primary": false}, {"id": 2307525, "title": "Spectacle: Interview with Curators Jonathan Wells and Meg Grey Wells", "work_id": 117430, "role": "camera operator", "role_id": 931, "is_primary": false}, {"id": 2059219, "title": "[Remix: Sunnies]", "work_id": 117828, "role": "editor", "role_id": 918, "is_primary": true}, {"id": 2307500, "title": "Spectacle Talks: Hello Flux Panel Discussion", "work_id": 117431, "role": "editor", "role_id": 918, "is_primary": true}, {"id": 2088893, "title": "An Evening with Shaun Tan", "work_id": 117424, "role": "editor", "role_id": 918, "is_primary": true}, {"id": 2374542, "title": "[Remix: Strike A Pose]", "work_id": 119293, "role": "editor", "role_id": 918, "is_primary": true}, {"id": 2307614, "title": "Spectacle Director Showcase: Oh Yeah Wow", "work_id": 117443, "role": "editor", "role_id": 918, "is_primary": true}, {"id": 2596175, "title": "Baan Biik Woora Woora Water, Land and Sky", "work_id": 125197, "role": "editor", "role_id": 918, "is_primary": true}, {"id": 2660406, "title": "Hollywood Costume: Deborah Nadoolman Landis interview", "work_id": 117383, "role": "editor", "role_id": 918, "is_primary": true}, {"id": 2091685, "title": "An Interview with Gillian Armstrong", "work_id": 117688, "role": "editor", "role_id": 918, "is_primary": true}, {"id": 2660415, "title": "Hollywood Costume. Inside the wardrobe: panel discussion", "work_id": 117384, "role": "editor", "role_id": 918, "is_primary": true}, {"id": 2243743, "title": "Flash Back: ACMI Collections Mash-up White Night 2017", "work_id": 117723, "role": "editor", "role_id": 918, "is_primary": true}, {"id": 2202000, "title": "DreamWorks: Inside the Studio", "work_id": 117454, "role": "editor", "role_id": 918, "is_primary": true}, {"id": 2307697, "title": "Spectacle Director Showcase: Paul Goldman", "work_id": 117428, "role": "editor", "role_id": 918, "is_primary": true}, {"id": 2059198, "title": "[Remix: Hats]", "work_id": 117829, "role": "editor", "role_id": 918, "is_primary": true}, {"id": 2364173, "title": "Spectacle Talks: Gotye and his Collaborators", "work_id": 117446, "role": "sound", "role_id": 952, "is_primary": false}, {"id": 2660929, "title": "In conversation with Chris Dercon and Kaat Debo", "work_id": 117426, "role": "sound", "role_id": 952, "is_primary": false}, {"id": 2307531, "title": "Spectacle: Interview with Curators Jonathan Wells and Meg Grey Wells", "work_id": 117430, "role": "sound", "role_id": 952, "is_primary": false}, {"id": 2307552, "title": "Spectacle Director Showcase: Natasha Pincus", "work_id": 117444, "role": "sound", "role_id": 952, "is_primary": false}, {"id": 2307625, "title": "Spectacle Director Showcase: Oh Yeah Wow", "work_id": 117443, "role": "sound", "role_id": 952, "is_primary": false}, {"id": 2307513, "title": "Spectacle Talks: Hello Flux Panel Discussion", "work_id": 117431, "role": "sound", "role_id": 952, "is_primary": false}, {"id": 2307467, "title": "Spectacle Director Showcase: Leo Baker", "work_id": 117448, "role": "sound", "role_id": 952, "is_primary": false}, {"id": 2307711, "title": "Spectacle Director Showcase: Paul Goldman", "work_id": 117428, "role": "sound", "role_id": 952, "is_primary": false}, {"id": 2088904, "title": "An Evening with Shaun Tan", "work_id": 117424, "role": "sound", "role_id": 952, "is_primary": false}], "also_known_as": "", "date_of_birth": "", "date_of_death": "", "genders": [{"id": 9, "name": "Male", "slug": "male"}], "languages": [], "places_of_operation": [], "biography": "", "biography_author": null, "date_of_biography": "2023-07-05T03:57:06.470512+10:00", "external_links": [], "uuid": "4f40dfed-239d-4b6f-bcfb-57bd4736cf6a", "source": {"name": "Vernon", "slug": "vernon"}, "source_identifier": "37004", "external_references": [{"id": 39160, "source": {"name": "Wikidata", "slug": "wikidata"}, "source_identifier": "Q121036773"}], "date_modified": "2025-03-11T14:30:00.883048+11:00"}, {"id": 84040, "name": "Viewfinder: Monash Mind Centre", "roles_in_work": [{"id": 2660343, "title": "View [Finder]: Digital Storytelling Project", "work_id": 117377, "role": "partner", "role_id": 575, "is_primary": false}], "also_known_as": "", "date_of_birth": "", "date_of_death": "", "genders": [], "languages": [], "places_of_operation": [], "biography": "", "biography_author": null, "date_of_biography": "2023-05-09T18:01:08.743655+10:00", "external_links": [], "uuid": "cd21bf32-87ea-43ba-8462-8637bd6cf9c3", "source": {"name": "Vernon", "slug": "vernon"}, "source_identifier": "38734", "external_references": [], "date_modified": "2025-03-05T19:53:45.060288+11:00"}, {"id": 84039, "name": "Ric Colsey", "roles_in_work": [{"id": 2660340, "title": "Where I'm @", "work_id": 117382, "role": "creator", "role_id": 968, "is_primary": true}], "also_known_as": "", "date_of_birth": "", "date_of_death": "", "genders": [], "languages": [], "places_of_operation": [], "biography": "", "biography_author": null, "date_of_biography": "2023-05-09T18:01:10.739887+10:00", "external_links": [], "uuid": "f5e03912-46a8-429b-b3a2-2007ddf31b19", "source": {"name": "Vernon", "slug": "vernon"}, "source_identifier": "37051", "external_references": [], "date_modified": "2025-03-05T19:53:43.041440+11:00"}, {"id": 84038, "name": "Tom Horan", "roles_in_work": [{"id": 2660338, "title": "The Rainforest", "work_id": 117381, "role": "creator", "role_id": 968, "is_primary": true}], "also_known_as": "", "date_of_birth": "", "date_of_death": "", "genders": [], "languages": [], "places_of_operation": [], "biography": "", "biography_author": null, "date_of_biography": "2023-05-09T18:01:06.709035+10:00", "external_links": [], "uuid": "138ad6f8-3b09-4d21-ade3-c15c65dfe37e", "source": {"name": "Vernon", "slug": "vernon"}, "source_identifier": "37052", "external_references": [], "date_modified": "2025-03-05T19:53:41.439385+11:00"}]}