{"count": 28683, "next": "https://api.acmi.net.au/creators/?page=638", "previous": "https://api.acmi.net.au/creators/?page=636", "results": [{"id": 79209, "name": "Sydney Lumet", "roles_in_work": [{"id": 2354431, "title": "The Hill", "work_id": 89732, "role": "director", "role_id": 938, "is_primary": true}], "also_known_as": "", "date_of_birth": "1924-06-25", "date_of_death": "2011-04-09", "genders": [{"id": 9, "name": "Male", "slug": "male"}], "languages": [{"id": 1, "name": "English", "slug": "english"}], "places_of_operation": [{"id": 1, "name": "United States of America", "slug": "united-states-of-america"}], "biography": "Sidney Arthur Lumet ( loo-MET; June 25, 1924 – April 9, 2011) was an American film director. Lumet started his career in theatre before transitioning to film where he gained a reputation for making realistic and gritty New York dramas which focused on the working class, tackled social injustices and often questioned authority. Lumet is often identified as part of the New Hollywood wave of filmmakers such as Martin Scorsese, Robert Altman, and Woody Allen. Nominated for five Academy Awards he received the Academy Honorary Award in 2004.He was nominated five times for Academy Awards: four for Best Director for 12 Angry Men (1957), Dog Day Afternoon (1975), Network (1976), and The Verdict (1982) and one for Best Adapted Screenplay for Prince of the City (1981). Other notable films include The Pawnbroker (1961), A View from the Bridge (1962), Long Day's Journey into Night (1962), Fail Safe (1964), The Hill (1965), Murder on the Orient Express (1974), Equus (1977), The Wiz (1978), The Morning After (1986), Running on Empty (1988), and Before the Devil Knows You're Dead (2007).\nA member of the inaugural class at New York's Actors Studio, Lumet started acting off-Broadway and made his Broadway acting debut in the 1935 play Dead End. He later went on to direct the Broadway plays Night of the Auk (1956), Caligula (1960), and Nowhere to Go But Up (1962). Lumet is also known for his work on television. He received a Primetime Emmy Award for Outstanding Directing for a Drama Series nomination for NBC Sunday Showcase (1961). He also directed for Goodyear Television Playhouse, Kraft Television Theatre, and Playhouse 90.", "biography_author": "Wikidata", "date_of_biography": "2023-08-01T17:14:27.571366+10:00", "external_links": [{"id": 3107, "uri": "https://en.wikipedia.org/wiki/Sidney_Lumet"}], "uuid": "dbd17f1d-a5d1-426e-b2f6-e64243cf0735", "source": {"name": "Vernon", "slug": "vernon"}, "source_identifier": "29421", "external_references": [{"id": 13421, "source": {"name": "Wikidata", "slug": "wikidata"}, "source_identifier": "Q51559"}, {"id": 13422, "source": {"name": "VIAF", "slug": "viaf"}, "source_identifier": "112355762"}, {"id": 13423, "source": {"name": "LOC Auth", "slug": "loc-auth"}, "source_identifier": "n79011000"}, {"id": 13424, "source": {"name": "WorldCat", "slug": "worldcat"}, "source_identifier": "lccn-n79011000"}], "date_modified": "2023-09-06T01:38:59.868670+10:00"}, {"id": 79208, "name": "Elise McCredie", "roles_in_work": [{"id": 2315025, "title": "Strange fits of passion", "work_id": 89722, "role": "director", "role_id": 938, "is_primary": true}], "also_known_as": "", "date_of_birth": "", "date_of_death": "", "genders": [{"id": 5, "name": "Female", "slug": "female"}], "languages": [], "places_of_operation": [], "biography": "", "biography_author": null, "date_of_biography": "2023-05-09T19:02:56.207345+10:00", "external_links": [], "uuid": "043e523b-8bc8-451e-a76a-43ecd665825c", "source": {"name": "Vernon", "slug": "vernon"}, "source_identifier": "18694", "external_references": [{"id": 39579, "source": {"name": "Wikidata", "slug": "wikidata"}, "source_identifier": "Q117859466"}], "date_modified": "2023-09-05T19:29:11.794571+10:00"}, {"id": 79207, "name": "Robert Forster", "roles_in_work": [{"id": 909235, "title": "The Mountain", "work_id": 89695, "role": "co-producer", "role_id": 915, "is_primary": true}, {"id": 2047647, "title": "Haircuts and Music: Robert Forster in conversation with Michael Dwyer", "work_id": 117652, "role": "speaker", "role_id": 486, "is_primary": false}], "also_known_as": "", "date_of_birth": null, "date_of_death": null, "genders": [], "languages": [], "places_of_operation": [], "biography": "", "biography_author": null, "date_of_biography": null, "external_links": [], "uuid": "efd6eb1d-622a-4a00-9605-bffe609580be", "source": {"name": "Vernon", "slug": "vernon"}, "source_identifier": null, "external_references": [], "date_modified": "2023-06-14T16:33:30.576250+10:00"}, {"id": 79206, "name": "Leo Fowler", "roles_in_work": [{"id": 909234, "title": "The Mountain", "work_id": 89695, "role": "co-producer", "role_id": 915, "is_primary": true}], "also_known_as": "", "date_of_birth": null, "date_of_death": null, "genders": [], "languages": [], "places_of_operation": [], "biography": "", "biography_author": null, "date_of_biography": null, "external_links": [], "uuid": "ce37ba9a-1448-4576-a85c-a013ef64bc64", "source": {"name": "Vernon", "slug": "vernon"}, "source_identifier": null, "external_references": [{"id": 33361, "source": {"name": "Wikidata", "slug": "wikidata"}, "source_identifier": "Q121036823"}], "date_modified": "2023-09-05T22:19:23.028187+10:00"}, {"id": 79205, "name": "Allan Martel", "roles_in_work": [{"id": 2248902, "title": "Reservoir", "work_id": 89691, "role": "producer", "role_id": 1089, "is_primary": true}], "also_known_as": "", "date_of_birth": "", "date_of_death": "", "genders": [], "languages": [], "places_of_operation": [], "biography": "", "biography_author": null, "date_of_biography": "2023-05-09T17:07:45.848359+10:00", "external_links": [], "uuid": "311b22b3-3f87-41aa-99bb-61d6a6d65d7b", "source": {"name": "Vernon", "slug": "vernon"}, "source_identifier": "15015", "external_references": [{"id": 42899, "source": {"name": "Wikidata", "slug": "wikidata"}, "source_identifier": "Q121085945"}], "date_modified": "2023-09-05T17:29:28.873253+10:00"}, {"id": 79204, "name": "Mark Robson", "roles_in_work": [{"id": 2353133, "title": "The Harder they fall", "work_id": 89680, "role": "director", "role_id": 938, "is_primary": true}, {"id": 2356169, "title": "The Inn of the sixth happiness", "work_id": 94716, "role": "director", "role_id": 938, "is_primary": true}, {"id": 1996432, "title": "Isle of the dead", "work_id": 92686, "role": "director", "role_id": 938, "is_primary": true}, {"id": 2109681, "title": "Bedlam", "work_id": 92746, "role": "director", "role_id": 938, "is_primary": true}], "also_known_as": "", "date_of_birth": "1913-12-04", "date_of_death": "1978-06-20", "genders": [{"id": 9, "name": "Male", "slug": "male"}], "languages": [{"id": 1, "name": "English", "slug": "english"}], "places_of_operation": [{"id": 36, "name": "Canada", "slug": "canada"}], "biography": "Mark Robson (4 December 1913 – 20 June 1978) was a Canadian-American film director, producer, and editor. Robson began his 45-year career in Hollywood as a film editor. He later began working as a director and producer. He directed 34 films during his career, including Champion (1949), Bright Victory (1951), The Bridges at Toko-Ri (1954), Peyton Place (1957), The Inn of the Sixth Happiness (1958), Von Ryan's Express (1965), Valley of the Dolls (1967), and Earthquake (1974).\nRobson was twice nominated for the Academy Award for Best Director – for Peyton Place and The Inn of the Sixth Happiness – as well as four nominations for the Directors Guild of America Award for Outstanding Directing in Feature Films. Two of his films were nominated for the Cannes Film Festival's Palme d'Or. In 1960, he received a star on the Hollywood Walk of Fame for his contributions to the motion picture industry.", "biography_author": "Wikidata", "date_of_biography": "2023-08-01T16:05:45.186770+10:00", "external_links": [{"id": 2647, "uri": "https://en.wikipedia.org/wiki/Mark_Robson_(film_director)"}], "uuid": "220431b1-3188-4cad-a69a-245ae0dd5d7e", "source": {"name": "Vernon", "slug": "vernon"}, "source_identifier": "24543", "external_references": [{"id": 11304, "source": {"name": "Wikidata", "slug": "wikidata"}, "source_identifier": "Q31225"}, {"id": 11305, "source": {"name": "VIAF", "slug": "viaf"}, "source_identifier": "90658895"}, {"id": 11306, "source": {"name": "LOC Auth", "slug": "loc-auth"}, "source_identifier": "n88068071"}, {"id": 11307, "source": {"name": "WorldCat", "slug": "worldcat"}, "source_identifier": "lccn-n88068071"}], "date_modified": "2023-09-05T22:46:49.109230+10:00"}, {"id": 79203, "name": "Philip Yordan", "roles_in_work": [{"id": 2353129, "title": "The Harder they fall", "work_id": 89680, "role": "producer", "role_id": 1089, "is_primary": true}], "also_known_as": "", "date_of_birth": "1914-04-01", "date_of_death": "2003-03-24", "genders": [{"id": 9, "name": "Male", "slug": "male"}], "languages": [{"id": 1, "name": "English", "slug": "english"}], "places_of_operation": [{"id": 1, "name": "United States of America", "slug": "united-states-of-america"}], "biography": "Philip Yordan (April 1, 1914 – March 24, 2003) was an American screenwriter of the 1940s, 1950s and 1960s who produced several films. He acted as a front for blacklisted writers although his use of surrogate screenwriters predates the McCarthy era.: 332  His actual contributions to the scripts he is credited with writing is controversial: 334  and he was known to some as a credit-grabber. Born to Polish immigrants, he earned degrees from both University of Illinois and Chicago-Kent College of Law.", "biography_author": "Wikidata", "date_of_biography": "2023-08-01T16:37:51.555486+10:00", "external_links": [{"id": 2875, "uri": "https://en.wikipedia.org/wiki/Philip_Yordan"}], "uuid": "4e0dc0af-da81-4f90-93ba-4c673ca35053", "source": {"name": "Vernon", "slug": "vernon"}, "source_identifier": "26846", "external_references": [{"id": 12218, "source": {"name": "Wikidata", "slug": "wikidata"}, "source_identifier": "Q327165"}, {"id": 12219, "source": {"name": "VIAF", "slug": "viaf"}, "source_identifier": "24792509"}, {"id": 12220, "source": {"name": "LOC Auth", "slug": "loc-auth"}, "source_identifier": "no92010066"}, {"id": 12221, "source": {"name": "WorldCat", "slug": "worldcat"}, "source_identifier": "lccn-no92010066"}], "date_modified": "2023-09-06T00:05:16.858972+10:00"}, {"id": 79202, "name": "Marc Maurette", "roles_in_work": [{"id": 2051440, "title": "[Chinese theatre]", "work_id": 89672, "role": "co-director", "role_id": 959, "is_primary": true}], "also_known_as": "", "date_of_birth": "", "date_of_death": "", "genders": [], "languages": [], "places_of_operation": [], "biography": "", "biography_author": null, "date_of_biography": "2023-05-09T10:00:12.941204+10:00", "external_links": [], "uuid": "34cfd8c5-3f6f-4980-91f6-639fd5536e83", "source": {"name": "Vernon", "slug": "vernon"}, "source_identifier": "24290", "external_references": [{"id": 33959, "source": {"name": "Wikidata", "slug": "wikidata"}, "source_identifier": "Q121036531"}], "date_modified": "2023-09-05T22:39:41.027894+10:00"}, {"id": 79201, "name": "Paul Raphael", "roles_in_work": [{"id": 1993982, "title": "The Leading man", "work_id": 89659, "role": "co-producer", "role_id": 915, "is_primary": true}], "also_known_as": "", "date_of_birth": null, "date_of_death": null, "genders": [], "languages": [], "places_of_operation": [], "biography": "", "biography_author": null, "date_of_biography": null, "external_links": [], "uuid": "6bcecedf-87da-4c32-a68f-9888d37ea731", "source": {"name": "Vernon", "slug": "vernon"}, "source_identifier": null, "external_references": [{"id": 38893, "source": {"name": "Wikidata", "slug": "wikidata"}, "source_identifier": "Q121299309"}], "date_modified": "2023-09-05T23:49:11.559137+10:00"}, {"id": 79200, "name": "Daniel Grodnik", "roles_in_work": [{"id": 2063768, "title": "1969", "work_id": 89657, "role": "co-producer", "role_id": 915, "is_primary": true}, {"id": 2228809, "title": "Powder", "work_id": 95203, "role": "co-producer", "role_id": 915, "is_primary": true}], "also_known_as": "", "date_of_birth": "1952-05-30", "date_of_death": "", "genders": [{"id": 9, "name": "Male", "slug": "male"}], "languages": [], "places_of_operation": [{"id": 1, "name": "United States of America", "slug": "united-states-of-america"}], "biography": "Daniel Grodnik (born May 30, 1952) is an American film producer living in Los Angeles, California. In 1989, he and partner Tim Matheson took over National Lampoon, becoming its chairman and CEO. Mr. Grodnik in is a member of the Producer's Guild and the Writer's Guild.\nGrodnik is also an adjunct professor at the Dodge College of Film and Media Arts at Chapman University and annually grades the master's thesis in the Peter Stark producing program at his alma mater, the University of Southern California.", "biography_author": "Wikidata", "date_of_biography": "2023-08-01T14:32:26.078402+10:00", "external_links": [{"id": 3816, "uri": "https://en.wikipedia.org/wiki/Daniel_Grodnik"}], "uuid": "d21c7edd-f74c-4b46-aa8a-98c08d1314a7", "source": {"name": "Vernon", "slug": "vernon"}, "source_identifier": "17392", "external_references": [{"id": 26865, "source": {"name": "Wikidata", "slug": "wikidata"}, "source_identifier": "Q5217354"}, {"id": 27982, "source": {"name": "VIAF", "slug": "viaf"}, "source_identifier": "255458071"}, {"id": 27983, "source": {"name": "WorldCat", "slug": "worldcat"}, "source_identifier": "viaf-255458071"}], "date_modified": "2023-09-05T18:51:14.078361+10:00"}]}