{"count": 28687, "next": "https://api.acmi.net.au/creators/?page=568", "previous": "https://api.acmi.net.au/creators/?page=566", "results": [{"id": 79913, "name": "Jane Armstrong", "roles_in_work": [{"id": 2185946, "title": "Panama Canal: the mountain and the mosquito", "work_id": 92660, "role": "co-producer", "role_id": 915, "is_primary": true}], "also_known_as": "", "date_of_birth": "", "date_of_death": "", "genders": [], "languages": [], "places_of_operation": [], "biography": "", "biography_author": null, "date_of_biography": "2023-05-09T15:00:59.995880+10:00", "external_links": [], "uuid": "cdfbda1f-2fb6-45da-aad2-011c480b8dd6", "source": {"name": "Vernon", "slug": "vernon"}, "source_identifier": "21405", "external_references": [{"id": 41063, "source": {"name": "Wikidata", "slug": "wikidata"}, "source_identifier": "Q121222677"}], "date_modified": "2023-09-05T21:07:33.210800+10:00"}, {"id": 79912, "name": "Mickey Shepherd", "roles_in_work": [{"id": 2285372, "title": "Tony Allcock's art of bowls: putting it all together", "work_id": 92659, "role": "co-producers/directors", "role_id": 628, "is_primary": true}], "also_known_as": "", "date_of_birth": "", "date_of_death": "", "genders": [], "languages": [], "places_of_operation": [], "biography": "", "biography_author": null, "date_of_biography": "2023-05-09T18:08:44.779590+10:00", "external_links": [], "uuid": "17bcb4a3-ae70-408e-982c-155e15d1a460", "source": {"name": "Vernon", "slug": "vernon"}, "source_identifier": "25333", "external_references": [], "date_modified": "2023-06-14T16:33:30.576250+10:00"}, {"id": 79911, "name": "Andy Byatt", "roles_in_work": [{"id": 3082488, "title": "The Blue planet. Eps. 1-3", "work_id": 92652, "role": "co-producer", "role_id": 915, "is_primary": true}, {"id": 3082496, "title": "The Blue planet. Eps. 4-6", "work_id": 92653, "role": "co-producer", "role_id": 915, "is_primary": true}, {"id": 3082478, "title": "The Blue planet. Eps. 7-9", "work_id": 92654, "role": "co-producer", "role_id": 915, "is_primary": true}], "also_known_as": "", "date_of_birth": "", "date_of_death": "", "genders": [], "languages": [], "places_of_operation": [], "biography": "", "biography_author": null, "date_of_biography": "2023-05-09T19:29:10.053624+10:00", "external_links": [], "uuid": "7c31e426-2d1c-4d38-a6fa-57ff1739afb6", "source": {"name": "Vernon", "slug": "vernon"}, "source_identifier": "15239", "external_references": [{"id": 33766, "source": {"name": "Wikidata", "slug": "wikidata"}, "source_identifier": "Q121091235"}], "date_modified": "2025-03-17T10:29:21.148187+11:00"}, {"id": 79910, "name": "Victoria Maxwell", "roles_in_work": [{"id": 1996344, "title": "Jeffrey", "work_id": 92642, "role": "co-producer", "role_id": 915, "is_primary": true}], "also_known_as": "", "date_of_birth": null, "date_of_death": null, "genders": [], "languages": [], "places_of_operation": [], "biography": "", "biography_author": null, "date_of_biography": null, "external_links": [], "uuid": "dc597bea-f4ca-43ad-869c-592c740e445f", "source": {"name": "Vernon", "slug": "vernon"}, "source_identifier": null, "external_references": [], "date_modified": "2023-06-14T16:33:30.576250+10:00"}, {"id": 79909, "name": "Mitchell Maxwell", "roles_in_work": [{"id": 1996343, "title": "Jeffrey", "work_id": 92642, "role": "co-producer", "role_id": 915, "is_primary": true}], "also_known_as": "", "date_of_birth": null, "date_of_death": null, "genders": [], "languages": [], "places_of_operation": [], "biography": "", "biography_author": null, "date_of_biography": null, "external_links": [], "uuid": "687ccb53-babb-4ab3-8200-f8d26407e3b0", "source": {"name": "Vernon", "slug": "vernon"}, "source_identifier": null, "external_references": [], "date_modified": "2023-06-14T16:33:30.576250+10:00"}, {"id": 79908, "name": "Mark Balsam", "roles_in_work": [{"id": 1996342, "title": "Jeffrey", "work_id": 92642, "role": "co-producer", "role_id": 915, "is_primary": true}], "also_known_as": "", "date_of_birth": null, "date_of_death": null, "genders": [], "languages": [], "places_of_operation": [], "biography": "", "biography_author": null, "date_of_biography": null, "external_links": [], "uuid": "fed47aea-f5cd-437a-8e38-e5aa7fcaa6b7", "source": {"name": "Vernon", "slug": "vernon"}, "source_identifier": null, "external_references": [{"id": 34600, "source": {"name": "Wikidata", "slug": "wikidata"}, "source_identifier": "Q121270990"}], "date_modified": "2023-09-05T22:45:12.315076+10:00"}, {"id": 79907, "name": "Jenniphr Goodman", "roles_in_work": [{"id": 1996339, "title": "The Tao of Steve", "work_id": 92641, "role": "director", "role_id": 938, "is_primary": true}], "also_known_as": "", "date_of_birth": null, "date_of_death": null, "genders": [{"id": 5, "name": "Female", "slug": "female"}], "languages": [], "places_of_operation": [{"id": 1, "name": "United States of America", "slug": "united-states-of-america"}], "biography": "Jenniphr Goodman is a film director best known for directing and co-writing the 2000 film The Tao of Steve.\nShe received her B.A. in creative writing and film making in 1984 through Pitzer College. She is also a graduate of New York University's film school at the Tisch School of the Arts.", "biography_author": "Wikidata", "date_of_biography": "2022-05-19T11:57:10.869741+10:00", "external_links": [{"id": 2368, "uri": "https://en.wikipedia.org/wiki/Jenniphr_Goodman"}], "uuid": "0157625f-da62-4462-a0a8-723dd5f2fffc", "source": {"name": "Vernon", "slug": "vernon"}, "source_identifier": "21712", "external_references": [{"id": 10150, "source": {"name": "Wikidata", "slug": "wikidata"}, "source_identifier": "Q6179101"}], "date_modified": "2023-09-05T21:20:44.554452+10:00"}, {"id": 79906, "name": "Vee King Shaw", "roles_in_work": [{"id": 2475597, "title": "Legend of the seven golden vampires", "work_id": 92639, "role": "co-producer", "role_id": 915, "is_primary": true}], "also_known_as": "", "date_of_birth": "", "date_of_death": "", "genders": [], "languages": [], "places_of_operation": [], "biography": "", "biography_author": null, "date_of_biography": "2023-08-17T15:10:21.306077+10:00", "external_links": [], "uuid": "6c013a4a-e327-4e5a-9a53-2c460e7676a6", "source": {"name": "Vernon", "slug": "vernon"}, "source_identifier": "30064", "external_references": [{"id": 32586, "source": {"name": "Wikidata", "slug": "wikidata"}, "source_identifier": "Q121271475"}], "date_modified": "2023-09-06T02:03:24.821826+10:00"}, {"id": 79905, "name": "Don Houghton", "roles_in_work": [{"id": 2475596, "title": "Legend of the seven golden vampires", "work_id": 92639, "role": "co-producer", "role_id": 915, "is_primary": true}], "also_known_as": "", "date_of_birth": "1930-02-02", "date_of_death": "1991-07-02", "genders": [{"id": 9, "name": "Male", "slug": "male"}], "languages": [{"id": 1, "name": "English", "slug": "english"}], "places_of_operation": [{"id": 10, "name": "United Kingdom", "slug": "united-kingdom"}], "biography": "Donald Herbert Houghton (2 February 1930 – 2 July 1991) was a British television screenwriter and producer.", "biography_author": "Wikidata", "date_of_biography": "2023-09-05T19:15:08.803583+10:00", "external_links": [{"id": 3893, "uri": "https://en.wikipedia.org/wiki/Don_Houghton"}], "uuid": "719c4314-d006-48c2-a51b-c25c0becec0e", "source": {"name": "Vernon", "slug": "vernon"}, "source_identifier": "18219", "external_references": [{"id": 25801, "source": {"name": "Wikidata", "slug": "wikidata"}, "source_identifier": "Q5292800"}, {"id": 28203, "source": {"name": "VIAF", "slug": "viaf"}, "source_identifier": "49801407"}, {"id": 28204, "source": {"name": "LOC Auth", "slug": "loc-auth"}, "source_identifier": "n2012060192"}, {"id": 28205, "source": {"name": "WorldCat", "slug": "worldcat"}, "source_identifier": "lccn-n2012060192"}], "date_modified": "2023-09-05T19:15:08.813030+10:00"}, {"id": 79904, "name": "Nicola Carraro", "roles_in_work": [{"id": 2137065, "title": "Christ stopped at Eboli = Cristo si e' fermato a Eboli", "work_id": 92638, "role": "co-producer", "role_id": 915, "is_primary": true}], "also_known_as": "", "date_of_birth": "", "date_of_death": "", "genders": [], "languages": [], "places_of_operation": [], "biography": "", "biography_author": null, "date_of_biography": "2023-05-09T13:31:29.171065+10:00", "external_links": [], "uuid": "8990b846-f328-47a1-bcfd-153b9d748bf5", "source": {"name": "Vernon", "slug": "vernon"}, "source_identifier": "25780", "external_references": [{"id": 40905, "source": {"name": "Wikidata", "slug": "wikidata"}, "source_identifier": "Q121223564"}], "date_modified": "2023-09-05T23:30:34.416181+10:00"}]}