{"count": 28687, "next": "https://api.acmi.net.au/creators/?page=881", "previous": "https://api.acmi.net.au/creators/?page=879", "results": [{"id": 76782, "name": "Western", "roles_in_work": [{"id": 2236599, "title": "Razorback", "work_id": 80988, "role": "production company", "role_id": 941, "is_primary": true}], "also_known_as": "", "date_of_birth": "", "date_of_death": "", "genders": [], "languages": [], "places_of_operation": [], "biography": "", "biography_author": null, "date_of_biography": "2023-05-09T16:46:47.087173+10:00", "external_links": [], "uuid": "7d5949a7-f372-4e0e-b30d-cd16486fb308", "source": {"name": "Vernon", "slug": "vernon"}, "source_identifier": "14305", "external_references": [{"id": 40244, "source": {"name": "Wikidata", "slug": "wikidata"}, "source_identifier": "Q121086180"}], "date_modified": "2023-09-06T02:13:02.063376+10:00"}, {"id": 76781, "name": "Piper Laurie", "roles_in_work": [{"id": 1985064, "title": "Tim", "work_id": 80987, "role": "cast", "role_id": 33, "is_primary": false}], "also_known_as": "", "date_of_birth": null, "date_of_death": null, "genders": [], "languages": [], "places_of_operation": [], "biography": "", "biography_author": null, "date_of_biography": null, "external_links": [], "uuid": "b27a6fd5-d448-4129-afeb-bf72adfd0c40", "source": {"name": "Vernon", "slug": "vernon"}, "source_identifier": null, "external_references": [], "date_modified": "2023-06-14T16:33:30.576250+10:00"}, {"id": 76780, "name": "James Grafton", "roles_in_work": [{"id": 2649162, "title": "Sunstruck", "work_id": 80986, "role": "co-producer", "role_id": 915, "is_primary": true}], "also_known_as": "", "date_of_birth": "", "date_of_death": "", "genders": [], "languages": [], "places_of_operation": [], "biography": "", "biography_author": null, "date_of_biography": "2023-05-09T19:07:54.641843+10:00", "external_links": [], "uuid": "61f5ab90-cd01-46c1-b98c-ad6147fea74f", "source": {"name": "Vernon", "slug": "vernon"}, "source_identifier": "21216", "external_references": [{"id": 35931, "source": {"name": "Wikidata", "slug": "wikidata"}, "source_identifier": "Q121298950"}], "date_modified": "2025-03-05T13:56:55.651757+11:00"}, {"id": 76779, "name": "Jack Neary", "roles_in_work": [{"id": 2649161, "title": "Sunstruck", "work_id": 80986, "role": "co-producer", "role_id": 915, "is_primary": true}], "also_known_as": "", "date_of_birth": "", "date_of_death": "", "genders": [], "languages": [], "places_of_operation": [], "biography": "", "biography_author": null, "date_of_biography": "2023-05-09T19:07:54.393545+10:00", "external_links": [], "uuid": "834f48f4-b8a8-4c1e-a18b-99525dc5af8c", "source": {"name": "Vernon", "slug": "vernon"}, "source_identifier": "21072", "external_references": [{"id": 32599, "source": {"name": "Wikidata", "slug": "wikidata"}, "source_identifier": "Q121315533"}], "date_modified": "2025-03-05T13:56:55.061993+11:00"}, {"id": 76778, "name": "William Holden", "roles_in_work": [{"id": 2284079, "title": "The Towering inferno", "work_id": 88651, "role": "cast", "role_id": 33, "is_primary": false}, {"id": 2345496, "title": "The Earthling", "work_id": 80985, "role": "cast", "role_id": 33, "is_primary": false}, {"id": 2317545, "title": "Sunset Boulevard", "work_id": 84563, "role": "cast", "role_id": 33, "is_primary": false}], "also_known_as": "William Franklin Beedle", "date_of_birth": "1918-04-17", "date_of_death": "1981-11-12", "genders": [{"id": 9, "name": "Male", "slug": "male"}], "languages": [{"id": 1, "name": "English", "slug": "english"}], "places_of_operation": [{"id": 1, "name": "United States of America", "slug": "united-states-of-america"}], "biography": "William Franklin Holden (né William Franklin Beedle, Jr.) (April 17, 1918 – November 12, 1981) was an American actor and one of the biggest box-office draws of the 1950s. Holden won the Academy Award for Best Actor for the film Stalag 17 (1953) and the Primetime Emmy Award for Outstanding Lead Actor in a Limited or Anthology Series or Movie for the television miniseries The Blue Knight (1973). Holden starred in some of Hollywood's most popular and critically acclaimed films, including Sunset Boulevard (1950), Sabrina (1954), Picnic (1955), The Bridge on the River Kwai (1957), The Wild Bunch (1969) and Network (1976). He was named one of the \"Top 10 Stars of the Year\" six times (1954–1958, 1961), and appeared as 25th on the American Film Institute's list of 25 greatest male stars of Classical Hollywood cinema.", "biography_author": "Wikidata", "date_of_biography": "2023-08-01T17:27:46.030225+10:00", "external_links": [{"id": 5353, "uri": "https://en.wikipedia.org/wiki/William_Holden"}], "uuid": "2b95e2ad-918e-4e60-b29f-d68f3c412c95", "source": {"name": "Vernon", "slug": "vernon"}, "source_identifier": "34110", "external_references": [{"id": 26771, "source": {"name": "Wikidata", "slug": "wikidata"}, "source_identifier": "Q95002"}, {"id": 32015, "source": {"name": "VIAF", "slug": "viaf"}, "source_identifier": "76500358"}, {"id": 32016, "source": {"name": "LOC Auth", "slug": "loc-auth"}, "source_identifier": "n82090865"}, {"id": 32017, "source": {"name": "WorldCat", "slug": "worldcat"}, "source_identifier": "lccn-n82090865"}], "date_modified": "2023-09-06T02:16:36.650223+10:00"}, {"id": 76777, "name": "John Strong", "roles_in_work": [{"id": 2345491, "title": "The Earthling", "work_id": 80985, "role": "co-producer", "role_id": 915, "is_primary": true}], "also_known_as": "", "date_of_birth": "", "date_of_death": "", "genders": [], "languages": [], "places_of_operation": [], "biography": "", "biography_author": null, "date_of_biography": "2023-05-09T19:46:08.741143+10:00", "external_links": [], "uuid": "fd7193ef-0bc6-4a5a-a2f3-005e76a84595", "source": {"name": "Vernon", "slug": "vernon"}, "source_identifier": "22544", "external_references": [{"id": 40746, "source": {"name": "Wikidata", "slug": "wikidata"}, "source_identifier": "Q121223439"}], "date_modified": "2023-09-05T21:44:50.861397+10:00"}, {"id": 76776, "name": "Elliot Schick", "roles_in_work": [{"id": 2345489, "title": "The Earthling", "work_id": 80985, "role": "co-producer", "role_id": 915, "is_primary": true}], "also_known_as": "", "date_of_birth": "", "date_of_death": "", "genders": [], "languages": [], "places_of_operation": [], "biography": "", "biography_author": null, "date_of_biography": "2023-05-09T19:46:08.495546+10:00", "external_links": [], "uuid": "e3d24a08-01bb-4c0f-a7ac-1eb8de287cf2", "source": {"name": "Vernon", "slug": "vernon"}, "source_identifier": "18730", "external_references": [{"id": 51617, "source": {"name": "Wikidata", "slug": "wikidata"}, "source_identifier": "Q121357552"}], "date_modified": "2023-09-05T19:30:10.357215+10:00"}, {"id": 76775, "name": "John Jarratt", "roles_in_work": [{"id": 2211580, "title": "Drink no Longer Water", "work_id": 90314, "role": "cast", "role_id": 33, "is_primary": false}, {"id": 2317613, "title": "Summer City", "work_id": 80983, "role": "cast", "role_id": 33, "is_primary": false}], "also_known_as": "", "date_of_birth": "1951-08-05", "date_of_death": "", "genders": [{"id": 9, "name": "Male", "slug": "male"}], "languages": [{"id": 1, "name": "English", "slug": "english"}], "places_of_operation": [{"id": 3, "name": "Australia", "slug": "australia"}], "biography": "John Jarratt (born 5 August 1952)is an Australian television film actor, producer and director and TV presenter who rose to fame through his work in the Australian New Wave. He has appeared in a number of film roles including Picnic at Hanging Rock (1975), Summer City (1977), The Odd Angry Shot (1979), We of the Never Never (1982), Next of Kin (1982), and Dark Age (1987). He portrayed the antagonist Mick Taylor in the Wolf Creek franchise. He voiced the protagonist's father, Jack Hunter, in an audio drama adaptation of The Phoenix Files. He is also known for his recurring role in the drama series McLeod's Daughters.", "biography_author": "Wikidata", "date_of_biography": "2023-08-01T15:37:13.317500+10:00", "external_links": [{"id": 4388, "uri": "https://en.wikipedia.org/wiki/John_Jarratt"}], "uuid": "2a14060b-0519-4115-8fb0-bf57a8ebe17d", "source": {"name": "Vernon", "slug": "vernon"}, "source_identifier": "34327", "external_references": [{"id": 27027, "source": {"name": "Wikidata", "slug": "wikidata"}, "source_identifier": "Q592869"}, {"id": 29528, "source": {"name": "VIAF", "slug": "viaf"}, "source_identifier": "22352271"}, {"id": 29529, "source": {"name": "LOC Auth", "slug": "loc-auth"}, "source_identifier": "no2005101161"}, {"id": 29530, "source": {"name": "WorldCat", "slug": "worldcat"}, "source_identifier": "lccn-no2005101161"}], "date_modified": "2023-09-05T21:39:41.523057+10:00"}, {"id": 76774, "name": "Sandy Harbutt", "roles_in_work": [{"id": 2311153, "title": "Stone", "work_id": 80982, "role": "producer/director", "role_id": 31, "is_primary": true}], "also_known_as": "", "date_of_birth": "1941-01-01", "date_of_death": "2020-11-21", "genders": [{"id": 9, "name": "Male", "slug": "male"}], "languages": [], "places_of_operation": [{"id": 3, "name": "Australia", "slug": "australia"}], "biography": "Sandy Harbutt (1941 – 21 November 2020) was an Australian actor, writer and director, best known for the outlaw biker film, Stone (1974). Although it was very successful at the box office, it was the only feature he ever directed. He was once married to actress Helen Morse.", "biography_author": "Wikidata", "date_of_biography": "2023-08-01T16:59:44.284292+10:00", "external_links": [{"id": 3068, "uri": "https://en.wikipedia.org/wiki/Sandy_Harbutt"}], "uuid": "9fa41aaf-7d17-4526-a52c-b3978a74e923", "source": {"name": "Vernon", "slug": "vernon"}, "source_identifier": "28545", "external_references": [{"id": 13024, "source": {"name": "Wikidata", "slug": "wikidata"}, "source_identifier": "Q7417274"}, {"id": 13025, "source": {"name": "VIAF", "slug": "viaf"}, "source_identifier": "107074114"}, {"id": 13026, "source": {"name": "WorldCat", "slug": "worldcat"}, "source_identifier": "viaf-107074114"}], "date_modified": "2023-09-06T01:05:02.406594+10:00"}, {"id": 76773, "name": "Lynn Barker", "roles_in_work": [{"id": 2199133, "title": "Double deal", "work_id": 80981, "role": "co-producer", "role_id": 915, "is_primary": true}], "also_known_as": "", "date_of_birth": "", "date_of_death": "", "genders": [], "languages": [], "places_of_operation": [], "biography": "", "biography_author": null, "date_of_biography": "2023-05-09T15:23:11.195544+10:00", "external_links": [], "uuid": "c21682b1-64ea-47f9-80ef-0a5872df6139", "source": {"name": "Vernon", "slug": "vernon"}, "source_identifier": "24133", "external_references": [{"id": 34252, "source": {"name": "Wikidata", "slug": "wikidata"}, "source_identifier": "Q121298747"}], "date_modified": "2023-09-05T22:35:13.946697+10:00"}]}