{"count": 28687, "next": "https://api.acmi.net.au/creators/?page=1426", "previous": "https://api.acmi.net.au/creators/?page=1424", "results": [{"id": 36232, "name": "Chang Shu A&V Production", "roles_in_work": [{"id": 2151138, "title": "Mirror image = Ming dai zhui zhu", "work_id": 94313, "role": "production company", "role_id": 941, "is_primary": true}], "also_known_as": "", "date_of_birth": "", "date_of_death": "", "genders": [], "languages": [], "places_of_operation": [], "biography": "", "biography_author": null, "date_of_biography": "2023-05-09T13:52:43.735491+10:00", "external_links": [], "uuid": "85495477-dc82-4893-8b89-181e01bc6f68", "source": {"name": "Vernon", "slug": "vernon"}, "source_identifier": "6487", "external_references": [{"id": 39467, "source": {"name": "Wikidata", "slug": "wikidata"}, "source_identifier": "Q121223372"}], "date_modified": "2023-09-05T18:24:26.713430+10:00"}, {"id": 36227, "name": "Street Lite", "roles_in_work": [{"id": 2136421, "title": "China girl", "work_id": 94308, "role": "production company", "role_id": 941, "is_primary": true}], "also_known_as": "", "date_of_birth": "", "date_of_death": "", "genders": [], "languages": [], "places_of_operation": [], "biography": "", "biography_author": null, "date_of_biography": "2023-05-09T13:30:21.449805+10:00", "external_links": [], "uuid": "f512e348-4123-4cfa-8925-4f96a5ea468f", "source": {"name": "Vernon", "slug": "vernon"}, "source_identifier": "12990", "external_references": [{"id": 37496, "source": {"name": "Wikidata", "slug": "wikidata"}, "source_identifier": "Q121034425"}], "date_modified": "2023-09-06T01:33:15.680892+10:00"}, {"id": 36222, "name": "MPB", "roles_in_work": [{"id": 2475646, "title": "Last orders", "work_id": 94301, "role": "production company", "role_id": 941, "is_primary": true}], "also_known_as": "", "date_of_birth": "", "date_of_death": "", "genders": [], "languages": [], "places_of_operation": [], "biography": "", "biography_author": null, "date_of_biography": "2023-08-17T15:10:59.042968+10:00", "external_links": [], "uuid": "c00a917f-6f63-4440-b5f7-0264cb8cbea6", "source": {"name": "Vernon", "slug": "vernon"}, "source_identifier": "10687", "external_references": [], "date_modified": "2023-08-17T15:10:59.043196+10:00"}, {"id": 36221, "name": "Urania Pictures", "roles_in_work": [{"id": 2228393, "title": "Fat girl = For my sister = A ma soeur! [DVD] (E)", "work_id": 94303, "role": "production company", "role_id": 941, "is_primary": true}], "also_known_as": "", "date_of_birth": "", "date_of_death": "", "genders": [], "languages": [], "places_of_operation": [], "biography": "", "biography_author": null, "date_of_biography": "2023-05-09T16:29:54.818636+10:00", "external_links": [], "uuid": "0a30965c-8c0b-4aa1-828d-028b95416af2", "source": {"name": "Vernon", "slug": "vernon"}, "source_identifier": "13952", "external_references": [{"id": 51737, "source": {"name": "Wikidata", "slug": "wikidata"}, "source_identifier": "Q121357426"}], "date_modified": "2023-09-06T02:01:56.271109+10:00"}, {"id": 36220, "name": "Immagine e Cinema (IT)", "roles_in_work": [{"id": 2228391, "title": "Fat girl = For my sister = A ma soeur! [DVD] (E)", "work_id": 94303, "role": "production company", "role_id": 941, "is_primary": true}], "also_known_as": "", "date_of_birth": "", "date_of_death": "", "genders": [], "languages": [], "places_of_operation": [], "biography": "", "biography_author": null, "date_of_biography": "2023-05-09T16:29:54.342381+10:00", "external_links": [], "uuid": "2855229a-2469-4e9b-9b46-6e47490b16c9", "source": {"name": "Vernon", "slug": "vernon"}, "source_identifier": "4522", "external_references": [{"id": 41245, "source": {"name": "Wikidata", "slug": "wikidata"}, "source_identifier": "Q3796666"}], "date_modified": "2023-09-05T20:47:52.109176+10:00"}, {"id": 36217, "name": "Danis Tanovic", "roles_in_work": [{"id": 2164232, "title": "No man's land = Nikogarsnja zemlja", "work_id": 100503, "role": "director", "role_id": 938, "is_primary": true}, {"id": 2164874, "title": "No man's land = Nikogarsnja zemlja [DVD]", "work_id": 94304, "role": "director", "role_id": 938, "is_primary": true}, {"id": 2063418, "title": "11 09 01: September 11", "work_id": 94909, "role": "co-director", "role_id": 959, "is_primary": true}], "also_known_as": "", "date_of_birth": "1969-02-20", "date_of_death": null, "genders": [{"id": 9, "name": "Male", "slug": "male"}], "languages": [{"id": 82, "name": "Bosnian", "slug": "bosnian"}], "places_of_operation": [{"id": 272, "name": "Bosnia and Herzegovina", "slug": "bosnia-and-herzegovina"}], "biography": "Danis Tanović (born 20 February 1969) is a Bosnian film director and screenwriter. He is best known for having directed and written the script for the 2001 Bosnian movie No Man's Land which won him many awards, including an Academy Award for Best Foreign Language Film and a Golden Globe Award for Best Foreign Language Film among many others.\nTanović has also written and directed award winning Bosnian films An Episode in the Life of an Iron Picker and Death in Sarajevo. He is regarded as one of the best Bosnian directors and screenwriters of all time and also, one of the best from Southeast Europe.\nTanović is the only person born in the territory of present-day Bosnia and Herzegovina to have won an Academy Award.", "biography_author": "Wikidata", "date_of_biography": "2022-05-19T11:10:56.609044+10:00", "external_links": [{"id": 1869, "uri": "https://en.wikipedia.org/wiki/Danis_Tanovi%C4%87"}], "uuid": "09341514-7601-44f3-9760-2d4413761069", "source": {"name": "Vernon", "slug": "vernon"}, "source_identifier": "17420", "external_references": [{"id": 8122, "source": {"name": "Wikidata", "slug": "wikidata"}, "source_identifier": "Q313497"}, {"id": 8123, "source": {"name": "VIAF", "slug": "viaf"}, "source_identifier": "119406474"}, {"id": 8124, "source": {"name": "LOC Auth", "slug": "loc-auth"}, "source_identifier": "no2003057696"}, {"id": 8125, "source": {"name": "WorldCat", "slug": "worldcat"}, "source_identifier": "lccn-no2003057696"}], "date_modified": "2023-09-13T12:28:54.934321+10:00"}, {"id": 36214, "name": "Casablanca", "roles_in_work": [{"id": 2164864, "title": "No man's land = Nikogarsnja zemlja [DVD]", "work_id": 94304, "role": "production company", "role_id": 941, "is_primary": true}, {"id": 2164205, "title": "No man's land = Nikogarsnja zemlja", "work_id": 100503, "role": "production company", "role_id": 941, "is_primary": true}], "also_known_as": "", "date_of_birth": "", "date_of_death": "", "genders": [], "languages": [], "places_of_operation": [], "biography": "", "biography_author": null, "date_of_biography": "2023-05-09T14:23:15.940984+10:00", "external_links": [], "uuid": "8af5c5e8-3504-40e0-81d6-10d32ce4edbf", "source": {"name": "Vernon", "slug": "vernon"}, "source_identifier": "6326", "external_references": [], "date_modified": "2023-06-14T16:33:30.576250+10:00"}, {"id": 36212, "name": "Man's Films", "roles_in_work": [{"id": 2164195, "title": "No man's land = Nikogarsnja zemlja", "work_id": 100503, "role": "production company", "role_id": 941, "is_primary": true}, {"id": 2164857, "title": "No man's land = Nikogarsnja zemlja [DVD]", "work_id": 94304, "role": "production company", "role_id": 941, "is_primary": true}], "also_known_as": "", "date_of_birth": "", "date_of_death": "", "genders": [], "languages": [], "places_of_operation": [], "biography": "", "biography_author": null, "date_of_biography": "2023-05-09T14:23:15.230859+10:00", "external_links": [], "uuid": "e532a244-e0ac-45d3-be4d-5d730cfc5241", "source": {"name": "Vernon", "slug": "vernon"}, "source_identifier": "10284", "external_references": [], "date_modified": "2023-06-14T16:33:30.576250+10:00"}, {"id": 36211, "name": "Fabrica Films", "roles_in_work": [{"id": 2164855, "title": "No man's land = Nikogarsnja zemlja [DVD]", "work_id": 94304, "role": "production company", "role_id": 941, "is_primary": true}, {"id": 2164191, "title": "No man's land = Nikogarsnja zemlja", "work_id": 100503, "role": "production company", "role_id": 941, "is_primary": true}], "also_known_as": "", "date_of_birth": "", "date_of_death": "", "genders": [], "languages": [], "places_of_operation": [], "biography": "", "biography_author": null, "date_of_biography": "2023-05-09T14:23:14.993740+10:00", "external_links": [], "uuid": "a2a39b10-30bf-40a1-850a-ccaa0e4e8194", "source": {"name": "Vernon", "slug": "vernon"}, "source_identifier": "8067", "external_references": [{"id": 42520, "source": {"name": "Wikidata", "slug": "wikidata"}, "source_identifier": "Q121223442"}], "date_modified": "2023-09-05T19:39:28.130180+10:00"}, {"id": 36199, "name": "Pegasus", "roles_in_work": [{"id": 2354548, "title": "The History of the Luftwaffe", "work_id": 94290, "role": "production company", "role_id": 941, "is_primary": true}, {"id": 928853, "title": "The Story of the Spitfire", "work_id": 94289, "role": "production company", "role_id": 941, "is_primary": true}], "also_known_as": "", "date_of_birth": "", "date_of_death": "", "genders": [], "languages": [], "places_of_operation": [], "biography": "", "biography_author": null, "date_of_biography": "2023-05-09T20:01:47.529951+10:00", "external_links": [], "uuid": "bc5f469d-e3f3-4667-9a28-afeeee806343", "source": {"name": "Vernon", "slug": "vernon"}, "source_identifier": "11374", "external_references": [{"id": 32639, "source": {"name": "Wikidata", "slug": "wikidata"}, "source_identifier": "Q121223579"}], "date_modified": "2023-09-05T23:51:05.936795+10:00"}]}