{"count": 28681, "next": "https://api.acmi.net.au/creators/?page=1183", "previous": "https://api.acmi.net.au/creators/?page=1181", "results": [{"id": 73532, "name": "Peter Moon", "roles_in_work": [{"id": 2711000, "title": "Fair go!", "work_id": 108973, "role": "writer", "role_id": 939, "is_primary": true}], "also_known_as": "", "date_of_birth": "", "date_of_death": "", "genders": [], "languages": [], "places_of_operation": [], "biography": "", "biography_author": null, "date_of_biography": "2023-05-09T16:25:49.357978+10:00", "external_links": [], "uuid": "0462cb9a-3578-4043-b6d8-7a1f0b13224c", "source": {"name": "Vernon", "slug": "vernon"}, "source_identifier": "112314", "external_references": [{"id": 39163, "source": {"name": "Wikidata", "slug": "wikidata"}, "source_identifier": "Q121036454"}], "date_modified": "2025-03-11T23:44:27.365211+11:00"}, {"id": 73530, "name": "Tina Douglas", "roles_in_work": [{"id": 2710977, "title": "Short cuts. Magic movie screens: from vacuum cleaning to Plumper's dance party", "work_id": 108965, "role": "editor", "role_id": 918, "is_primary": true}], "also_known_as": "", "date_of_birth": "", "date_of_death": "", "genders": [], "languages": [], "places_of_operation": [], "biography": "", "biography_author": null, "date_of_biography": "2023-05-09T18:32:02.692625+10:00", "external_links": [], "uuid": "8fdc2005-ce19-43e5-ad1e-b03daf25d6de", "source": {"name": "Vernon", "slug": "vernon"}, "source_identifier": "1835", "external_references": [{"id": 42453, "source": {"name": "Wikidata", "slug": "wikidata"}, "source_identifier": "Q121036815"}], "date_modified": "2025-03-11T23:44:09.978917+11:00"}, {"id": 73528, "name": "Fran Swinn", "roles_in_work": [{"id": 2710954, "title": "Casterton lights up!", "work_id": 108954, "role": "collaborator", "role_id": 536, "is_primary": false}], "also_known_as": "", "date_of_birth": "", "date_of_death": "", "genders": [], "languages": [], "places_of_operation": [], "biography": "", "biography_author": null, "date_of_biography": "2023-05-09T13:20:52.077551+10:00", "external_links": [], "uuid": "4a05c734-cbfe-4355-acce-5bf2bb499bdb", "source": {"name": "Vernon", "slug": "vernon"}, "source_identifier": "1847", "external_references": [], "date_modified": "2025-03-11T23:43:57.312784+11:00"}, {"id": 73527, "name": "Nick Moore", "roles_in_work": [{"id": 2710952, "title": "Casterton lights up!", "work_id": 108954, "role": "editor", "role_id": 918, "is_primary": true}], "also_known_as": "", "date_of_birth": "", "date_of_death": "", "genders": [], "languages": [], "places_of_operation": [], "biography": "", "biography_author": null, "date_of_biography": "2023-05-09T13:20:51.801137+10:00", "external_links": [], "uuid": "a785a3ec-0c71-4837-8dda-2d5b11a08a59", "source": {"name": "Vernon", "slug": "vernon"}, "source_identifier": "1846", "external_references": [{"id": 36925, "source": {"name": "Wikidata", "slug": "wikidata"}, "source_identifier": "Q121036293"}], "date_modified": "2025-03-11T23:43:56.714794+11:00"}, {"id": 73526, "name": "Mal Waldon", "roles_in_work": [{"id": 3108575, "title": "Live sheep export to Iran", "work_id": 109012, "role": "narrator", "role_id": 499, "is_primary": false}, {"id": 3108623, "title": "Police horses: who cares?", "work_id": 108953, "role": "narrator", "role_id": 499, "is_primary": false}], "also_known_as": "", "date_of_birth": "", "date_of_death": "", "genders": [], "languages": [], "places_of_operation": [], "biography": "", "biography_author": null, "date_of_biography": "2023-05-09T19:04:36.958997+10:00", "external_links": [], "uuid": "c02c8adb-25fa-4a1b-999d-d95154d565b3", "source": {"name": "Vernon", "slug": "vernon"}, "source_identifier": "1356", "external_references": [], "date_modified": "2025-10-01T16:43:03.055348+10:00"}, {"id": 73525, "name": "Adrian Wells", "roles_in_work": [{"id": 3108547, "title": "30 Seconds to go", "work_id": 108952, "role": "consultant", "role_id": 460, "is_primary": false}], "also_known_as": "", "date_of_birth": "", "date_of_death": "", "genders": [], "languages": [], "places_of_operation": [], "biography": "", "biography_author": null, "date_of_biography": "2023-05-09T19:04:07.216500+10:00", "external_links": [], "uuid": "378feb96-1858-47d8-a53c-ee2ec41c415e", "source": {"name": "Vernon", "slug": "vernon"}, "source_identifier": "1355", "external_references": [], "date_modified": "2025-10-01T16:41:23.093190+10:00"}, {"id": 73524, "name": "Natasha Dwyer", "roles_in_work": [{"id": 2619522, "title": "MAP - Promotional CDROM", "work_id": 108948, "role": "designer", "role_id": 495, "is_primary": false}, {"id": 2637884, "title": "MAP Memory and Place Attract Loop", "work_id": 109994, "role": "designer", "role_id": 495, "is_primary": false}, {"id": 2619523, "title": "MAP - Promotional CDROM", "work_id": 108948, "role": "interface design", "role_id": 574, "is_primary": false}], "also_known_as": "", "date_of_birth": "", "date_of_death": "", "genders": [], "languages": [], "places_of_operation": [], "biography": "", "biography_author": null, "date_of_biography": "2023-08-11T19:42:45.486127+10:00", "external_links": [], "uuid": "c54d6341-5fac-40f1-a4b5-1afdcd85e327", "source": {"name": "Vernon", "slug": "vernon"}, "source_identifier": "1548", "external_references": [], "date_modified": "2025-03-05T10:58:04.551655+11:00"}, {"id": 73523, "name": "Keith Klemm", "roles_in_work": [{"id": 3108687, "title": "The Voice of Agriculture", "work_id": 119301, "role": "sound", "role_id": 952, "is_primary": false}, {"id": 3108526, "title": "Where the River Kiewa Flows", "work_id": 119558, "role": "sound", "role_id": 952, "is_primary": false}, {"id": 3108665, "title": "Fat pigs are out", "work_id": 108938, "role": "sound", "role_id": 952, "is_primary": false}], "also_known_as": "", "date_of_birth": "", "date_of_death": "", "genders": [], "languages": [], "places_of_operation": [], "biography": "", "biography_author": null, "date_of_biography": "2023-07-05T04:00:47.836057+10:00", "external_links": [], "uuid": "3004f18f-2b04-44ab-bede-16e74221a60f", "source": {"name": "Vernon", "slug": "vernon"}, "source_identifier": "1644", "external_references": [], "date_modified": "2025-10-01T16:44:22.466710+10:00"}, {"id": 73522, "name": "Lewis Myers", "roles_in_work": [{"id": 3108636, "title": "A Dairyland Romance", "work_id": 108936, "role": "narrator", "role_id": 499, "is_primary": false}], "also_known_as": "", "date_of_birth": "", "date_of_death": "", "genders": [], "languages": [], "places_of_operation": [], "biography": "", "biography_author": null, "date_of_biography": "2023-08-09T03:40:26.473570+10:00", "external_links": [], "uuid": "392892df-7df3-4227-8c14-1a4c712884fd", "source": {"name": "Vernon", "slug": "vernon"}, "source_identifier": "1173", "external_references": [], "date_modified": "2025-10-01T16:43:13.331645+10:00"}, {"id": 73521, "name": "Bruce Gundry", "roles_in_work": [{"id": 3108627, "title": "Police horses: who cares?", "work_id": 108953, "role": "sound", "role_id": 952, "is_primary": false}, {"id": 2710359, "title": "And now for some quotations", "work_id": 108930, "role": "sound", "role_id": 952, "is_primary": false}, {"id": 3108574, "title": "Live sheep export to Iran", "work_id": 109012, "role": "sound designer", "role_id": 927, "is_primary": false}], "also_known_as": "", "date_of_birth": "", "date_of_death": "", "genders": [], "languages": [], "places_of_operation": [], "biography": "", "biography_author": null, "date_of_biography": "2023-05-09T19:04:37.940062+10:00", "external_links": [], "uuid": "5bb0b704-c65d-438e-88b0-5b0b95a533fd", "source": {"name": "Vernon", "slug": "vernon"}, "source_identifier": "1360", "external_references": [], "date_modified": "2025-10-01T16:43:05.944537+10:00"}]}