{"count": 28687, "next": "https://api.acmi.net.au/creators/?page=1163", "previous": "https://api.acmi.net.au/creators/?page=1161", "results": [{"id": 73769, "name": "Jacki Weaver", "roles_in_work": [{"id": 2640508, "title": "The Two-wheeled time machine", "work_id": 110394, "role": "cast", "role_id": 33, "is_primary": false}, {"id": 2128779, "title": "Caddie", "work_id": 77912, "role": "cast", "role_id": 33, "is_primary": false}, {"id": 2202066, "title": "Petersen", "work_id": 80950, "role": "cast", "role_id": 33, "is_primary": false}, {"id": 2314041, "title": "Stork", "work_id": 92860, "role": "cast", "role_id": 33, "is_primary": false}], "also_known_as": "Jacqueline Ruth Weaver", "date_of_birth": "25 MAY 1947", "date_of_death": "", "genders": [{"id": 5, "name": "Female", "slug": "female"}], "languages": [{"id": 1, "name": "English", "slug": "english"}], "places_of_operation": [{"id": 3, "name": "Australia", "slug": "australia"}], "biography": "Jacqueline Ruth Weaver  (born 25 May 1947) is an Australian theatre, film, and television actress. Weaver emerged in the 1970s Australian New Wave through her work in Ozploitation films such as Stork (1971), Alvin Purple (1973), and Petersen (1974). She later starred in Picnic at Hanging Rock (1975), Caddie (1976), Squizzy Taylor (1982), and a number of television films, miniseries, and Australian productions of plays such as Death of a Salesman and A Streetcar Named Desire.\n\nWeaver garnered critical acclaim, an Academy Award for Best Supporting Actress nomination, and won the National Board of Review Award for Best Supporting Actress for her performance as the matriarch of a criminal family in the 2010 crime film Animal Kingdom. In 2012, she received another Academy Award nomination for Best Supporting Actress for her performance in the romantic comedy-drama film Silver Linings Playbook . In the following years, Weaver appeared in the films The Five-Year Engagement (2012), Parkland (2013), Magic in the Moonlight (2014), The Disaster Artist (2017), Bird Box (2018), Widows (2018), Poms (2019), Stage Mother (2020), and Father Stu (2022).\n\nOn television, Weaver starred in the Starz comedy series Blunt Talk (2015–16), Fox Showcase political thriller Secret City (2016–19), Epix thriller Perpetual Grace, LTD (2019), and the Stan science fiction series Bloom (2019–20). In 2021, she had a recurring role as Caroline Warner in the Paramount Network neo-Western series Yellowstone. Source: Wikidata; 01/08/2023", "biography_author": null, "date_of_biography": "2025-03-05T11:28:26.500313+11:00", "external_links": [{"id": 4229, "uri": "https://en.wikipedia.org/wiki/Jacki_Weaver"}], "uuid": "1ea48f16-ec5d-4acd-903b-c0c75f9f8748", "source": {"name": "Vernon", "slug": "vernon"}, "source_identifier": "3035", "external_references": [{"id": 25935, "source": {"name": "Wikidata", "slug": "wikidata"}, "source_identifier": "Q241897"}, {"id": 29104, "source": {"name": "VIAF", "slug": "viaf"}, "source_identifier": "41365755"}, {"id": 29105, "source": {"name": "LOC Auth", "slug": "loc-auth"}, "source_identifier": "nb2007007309"}, {"id": 29106, "source": {"name": "WorldCat", "slug": "worldcat"}, "source_identifier": "lccn-nb2007007309"}], "date_modified": "2025-03-05T11:28:26.500623+11:00"}, {"id": 73768, "name": "Matt Day", "roles_in_work": [{"id": 2640506, "title": "The Two-wheeled time machine", "work_id": 110394, "role": "cast", "role_id": 33, "is_primary": false}], "also_known_as": "", "date_of_birth": "1971-09-28", "date_of_death": "", "genders": [{"id": 9, "name": "Male", "slug": "male"}], "languages": [], "places_of_operation": [{"id": 3, "name": "Australia", "slug": "australia"}], "biography": "Matthew Day  (born 28 September 1971) is an Australian actor and filmmaker.", "biography_author": "Wikidata", "date_of_biography": "2023-09-05T22:54:20.663659+10:00", "external_links": [{"id": 6014, "uri": "https://en.wikipedia.org/wiki/Matt_Day"}], "uuid": "ffb42a44-7b25-4a96-b839-c723c85465d7", "source": {"name": "Vernon", "slug": "vernon"}, "source_identifier": "3034", "external_references": [{"id": 40185, "source": {"name": "Wikidata", "slug": "wikidata"}, "source_identifier": "Q6006384"}, {"id": 55211, "source": {"name": "VIAF", "slug": "viaf"}, "source_identifier": "85939357"}, {"id": 55212, "source": {"name": "LOC Auth", "slug": "loc-auth"}, "source_identifier": "no2004097203"}, {"id": 55213, "source": {"name": "WorldCat", "slug": "worldcat"}, "source_identifier": "lccn-no2004097203"}], "date_modified": "2025-03-05T11:28:25.917454+11:00"}, {"id": 73761, "name": "Luke Dunn Gielmuda", "roles_in_work": [{"id": 2619454, "title": "Project Vlad", "work_id": 114048, "role": "producer", "role_id": 1089, "is_primary": true}, {"id": 2640450, "title": "Project Vlad", "work_id": 110376, "role": "producer", "role_id": 1089, "is_primary": true}, {"id": 2232067, "title": "Project Vlad", "work_id": 92256, "role": "producer", "role_id": 1089, "is_primary": true}], "also_known_as": "", "date_of_birth": "", "date_of_death": "", "genders": [], "languages": [], "places_of_operation": [], "biography": "", "biography_author": null, "date_of_biography": "2023-05-09T16:39:04.632258+10:00", "external_links": [], "uuid": "5237cd08-8a3b-45cd-bffa-c7aa00be2189", "source": {"name": "Vernon", "slug": "vernon"}, "source_identifier": "111477", "external_references": [{"id": 38706, "source": {"name": "Wikidata", "slug": "wikidata"}, "source_identifier": "Q121035959"}], "date_modified": "2025-03-05T11:28:06.409480+11:00"}, {"id": 73760, "name": "Lisa Angove", "roles_in_work": [{"id": 2640375, "title": "Harvey", "work_id": 110374, "role": "cast", "role_id": 33, "is_primary": false}], "also_known_as": "", "date_of_birth": "", "date_of_death": "", "genders": [], "languages": [], "places_of_operation": [], "biography": "", "biography_author": null, "date_of_biography": "2023-05-09T17:05:30.130232+10:00", "external_links": [], "uuid": "f6245322-fe4a-4289-b86b-c72630263ed8", "source": {"name": "Vernon", "slug": "vernon"}, "source_identifier": "34565", "external_references": [{"id": 41310, "source": {"name": "Wikidata", "slug": "wikidata"}, "source_identifier": "Q121035782"}], "date_modified": "2025-03-05T11:27:36.843245+11:00"}, {"id": 73759, "name": "Nicholas Hope", "roles_in_work": [{"id": 2640373, "title": "Harvey", "work_id": 110374, "role": "cast", "role_id": 33, "is_primary": false}], "also_known_as": "", "date_of_birth": "", "date_of_death": "", "genders": [], "languages": [], "places_of_operation": [], "biography": "", "biography_author": null, "date_of_biography": "2023-05-09T17:05:29.894272+10:00", "external_links": [], "uuid": "77f2c2ad-1c05-4a50-b6ef-0ae2ad1c7fe7", "source": {"name": "Vernon", "slug": "vernon"}, "source_identifier": "34139", "external_references": [], "date_modified": "2025-03-05T11:27:36.265778+11:00"}, {"id": 73758, "name": "Michael Yuen", "roles_in_work": [{"id": 2641395, "title": "Swarm", "work_id": 110363, "role": "creator", "role_id": 968, "is_primary": true}], "also_known_as": "", "date_of_birth": "1983", "date_of_death": "", "genders": [], "languages": [], "places_of_operation": [], "biography": "Michael Yuen (b. 1983) is an Adelaide based artist working in the area of interactive installation art whose work utilises new technologies to create new experiences. He is also an active new media curator and sound engineer. Yuen has formal training as a composer at the Electronic Music Unit, University of Adelaide, under the guidance of Stephen Whittington. His work explores the sonic and the visual through the application of technology and works predominantly in installation. Elements of integrated interaction and computer-generated chance are used to create works, which are owned more by the public than the artist. He seeks an art of experience that rejects the notion of object-based art. Yuen”s research into interactive art has led him to develop camera based gesture recognition systems.\n(from www.yuen.va.com.au)", "biography_author": null, "date_of_biography": "2025-03-05T11:34:53.307058+11:00", "external_links": [], "uuid": "1312dda8-e4da-4e22-8518-138c02a4c431", "source": {"name": "Vernon", "slug": "vernon"}, "source_identifier": "3015", "external_references": [], "date_modified": "2025-03-05T11:34:53.307365+11:00"}, {"id": 73757, "name": "Victoria. Dept. of Justice", "roles_in_work": [{"id": 2641393, "title": "By the light of the moon", "work_id": 110362, "role": "funding", "role_id": 609, "is_primary": false}], "also_known_as": "", "date_of_birth": "", "date_of_death": "", "genders": [], "languages": [], "places_of_operation": [], "biography": "", "biography_author": null, "date_of_biography": "2023-05-09T13:16:10.765791+10:00", "external_links": [], "uuid": "fe2a2134-7e8f-4239-b8bb-70c6acb531f6", "source": {"name": "Vernon", "slug": "vernon"}, "source_identifier": "3014", "external_references": [], "date_modified": "2025-03-05T11:34:51.937511+11:00"}, {"id": 73756, "name": "Matt Madden", "roles_in_work": [{"id": 2641350, "title": "Rowing on the Yarra", "work_id": 110361, "role": "music", "role_id": 949, "is_primary": false}], "also_known_as": "", "date_of_birth": "", "date_of_death": "", "genders": [], "languages": [], "places_of_operation": [], "biography": "", "biography_author": null, "date_of_biography": "2023-05-09T17:20:57.784028+10:00", "external_links": [], "uuid": "53ec8d1a-01dc-4490-94dd-95e45a0ce61b", "source": {"name": "Vernon", "slug": "vernon"}, "source_identifier": "2999", "external_references": [{"id": 51630, "source": {"name": "Wikidata", "slug": "wikidata"}, "source_identifier": "Q121361334"}], "date_modified": "2025-03-05T11:34:07.410106+11:00"}, {"id": 73751, "name": "Julie McGregor", "roles_in_work": [{"id": 2641248, "title": "Death of television", "work_id": 110334, "role": "", "role_id": 604, "is_primary": false}, {"id": 2282382, "title": "Token gesture", "work_id": 75190, "role": "producer", "role_id": 1089, "is_primary": true}], "also_known_as": "", "date_of_birth": "", "date_of_death": "", "genders": [], "languages": [], "places_of_operation": [], "biography": "", "biography_author": null, "date_of_biography": "2023-05-09T18:02:39.958839+10:00", "external_links": [], "uuid": "2cfc9508-bb4a-4c79-aa7e-ae5b71d59a8c", "source": {"name": "Vernon", "slug": "vernon"}, "source_identifier": "2960", "external_references": [{"id": 41582, "source": {"name": "Wikidata", "slug": "wikidata"}, "source_identifier": "Q121144037"}], "date_modified": "2025-03-05T11:33:00.041439+11:00"}, {"id": 73750, "name": "John Derum", "roles_in_work": [{"id": 2641247, "title": "Death of television", "work_id": 110334, "role": "cast", "role_id": 33, "is_primary": false}], "also_known_as": "", "date_of_birth": "", "date_of_death": "", "genders": [], "languages": [], "places_of_operation": [], "biography": "", "biography_author": null, "date_of_biography": "2023-05-09T14:55:55.141071+10:00", "external_links": [], "uuid": "dfa8f807-e5cc-4744-85f5-579297b42cd2", "source": {"name": "Vernon", "slug": "vernon"}, "source_identifier": "2959", "external_references": [{"id": 34909, "source": {"name": "Wikidata", "slug": "wikidata"}, "source_identifier": "Q121126252"}], "date_modified": "2025-03-05T11:32:59.457372+11:00"}]}