{"count": 28687, "next": "https://api.acmi.net.au/creators/?page=1708", "previous": "https://api.acmi.net.au/creators/?page=1706", "results": [{"id": 28466, "name": "Douglas McGrath", "roles_in_work": [{"id": 2216618, "title": "Emma (Paltrow)", "work_id": 86412, "role": "director", "role_id": 938, "is_primary": true}], "also_known_as": "", "date_of_birth": "1958-02-02", "date_of_death": "2022-11-03", "genders": [{"id": 9, "name": "Male", "slug": "male"}], "languages": [{"id": 1, "name": "English", "slug": "english"}], "places_of_operation": [{"id": 1, "name": "United States of America", "slug": "united-states-of-america"}], "biography": "Douglas Geoffrey McGrath (February 12, 1958 – November 3, 2022) was an American screenwriter, film director, and actor. He received various accolades, including nominations for an Academy Award, BAFTA Award, Tony Award, and Primetime Emmy Award.\nMcGrath started his career as a writer for Saturday Night Live from 1980 to 1981. He co-wrote with Woody Allen the film Bullets Over Broadway (1994), for which he received a nomination for the Academy Award for Best Original Screenplay as well as BAFTA and Writers Guild of America Award nominations. He then directed such films as Emma (1996), Company Man (2000), Nicholas Nickleby (2002), and Infamous (2006). He also appeared in such films as Quiz Show (1994), The Daytrippers (1996), Happiness (1998), The Insider (1999), and Michael Clayton (2007).\nHe also made appearances in television including a recurring role as Principal Toby Cook in Lena Dunham's HBO series Girls from 2015 to 2016. He also appeared in the Amazon Prime comedy series Crisis in Six Scenes (2016), and the Netflix western limited series Godless (2017).\nMcGrath received a Tony Award for Best Book of a Musical nomination for the Broadway musical Beautiful: The Carole King Musical in 2014. He also directed the HBO documentaries His Way (2011), and Becoming Mike Nichols (2016). He wrote political commentary, such as \"The Flapjack File\", a column for The New Republic, as well as articles for The New Yorker, The New York Times, and Vanity Fair.", "biography_author": "Wikidata", "date_of_biography": "2023-08-01T14:43:07.095398+10:00", "external_links": [{"id": 3916, "uri": "https://en.wikipedia.org/wiki/Douglas_McGrath"}], "uuid": "206b6461-9ca1-4213-8823-070351456296", "source": {"name": "Vernon", "slug": "vernon"}, "source_identifier": "18406", "external_references": [{"id": 25120, "source": {"name": "Wikidata", "slug": "wikidata"}, "source_identifier": "Q3038028"}, {"id": 28259, "source": {"name": "VIAF", "slug": "viaf"}, "source_identifier": "100242452"}, {"id": 28260, "source": {"name": "LOC Auth", "slug": "loc-auth"}, "source_identifier": "n83043958"}, {"id": 28261, "source": {"name": "WorldCat", "slug": "worldcat"}, "source_identifier": "lccn-n83043958"}], "date_modified": "2023-09-05T19:20:44.518835+10:00"}, {"id": 28465, "name": "Haft Entertainment", "roles_in_work": [{"id": 1998756, "title": "Tigerland [DVD]", "work_id": 94074, "role": "production company", "role_id": 941, "is_primary": true}, {"id": 2216610, "title": "Emma (Paltrow)", "work_id": 86412, "role": "production company", "role_id": 941, "is_primary": true}], "also_known_as": "", "date_of_birth": "", "date_of_death": "", "genders": [], "languages": [], "places_of_operation": [], "biography": "", "biography_author": null, "date_of_biography": "2023-05-09T15:55:29.629919+10:00", "external_links": [], "uuid": "27eb4975-c0cc-4512-b146-2952f4e213ae", "source": {"name": "Vernon", "slug": "vernon"}, "source_identifier": "8957", "external_references": [{"id": 36676, "source": {"name": "Wikidata", "slug": "wikidata"}, "source_identifier": "Q121058110"}], "date_modified": "2023-09-05T20:26:46.086284+10:00"}, {"id": 28464, "name": "Matchmaker Films", "roles_in_work": [{"id": 2216608, "title": "Emma (Paltrow)", "work_id": 86412, "role": "production company", "role_id": 941, "is_primary": true}], "also_known_as": "", "date_of_birth": "", "date_of_death": "", "genders": [], "languages": [], "places_of_operation": [], "biography": "", "biography_author": null, "date_of_biography": "2023-05-09T15:55:29.376421+10:00", "external_links": [], "uuid": "4b46cb46-4800-4505-b252-c0d5595f8e7e", "source": {"name": "Vernon", "slug": "vernon"}, "source_identifier": "10354", "external_references": [{"id": 36010, "source": {"name": "Wikidata", "slug": "wikidata"}, "source_identifier": "Q121337080"}], "date_modified": "2023-09-05T22:53:42.373674+10:00"}, {"id": 28463, "name": "James Bidgood", "roles_in_work": [{"id": 2206040, "title": "Pink narcissus", "work_id": 86410, "role": "director", "role_id": 938, "is_primary": true}], "also_known_as": "", "date_of_birth": "1933-03-28", "date_of_death": "2022-01-31", "genders": [{"id": 9, "name": "Male", "slug": "male"}], "languages": [{"id": 1, "name": "English", "slug": "english"}], "places_of_operation": [{"id": 1, "name": "United States of America", "slug": "united-states-of-america"}], "biography": "James Alan Bidgood (March 28, 1933 – January 31, 2022) was an American filmmaker, photographer and visual and performance artist, known for his highly stylized and homoerotic works.", "biography_author": "Wikidata", "date_of_biography": "2022-05-19T11:51:39.041817+10:00", "external_links": [{"id": 2304, "uri": "https://en.wikipedia.org/wiki/James_Bidgood_(filmmaker)"}], "uuid": "7ae623c9-5694-4592-ae1b-2e2da0a9d8c9", "source": {"name": "Vernon", "slug": "vernon"}, "source_identifier": "21195", "external_references": [{"id": 9891, "source": {"name": "Wikidata", "slug": "wikidata"}, "source_identifier": "Q1680036"}, {"id": 9892, "source": {"name": "VIAF", "slug": "viaf"}, "source_identifier": "74705814"}, {"id": 9893, "source": {"name": "LOC Auth", "slug": "loc-auth"}, "source_identifier": "nb99104327"}, {"id": 9894, "source": {"name": "WorldCat", "slug": "worldcat"}, "source_identifier": "lccn-nb99104327"}], "date_modified": "2023-09-13T12:30:12.434985+10:00"}, {"id": 28462, "name": "Holman Brothers", "roles_in_work": [{"id": 2413057, "title": "Joe's party", "work_id": 86407, "role": "production company", "role_id": 941, "is_primary": true}], "also_known_as": "", "date_of_birth": "", "date_of_death": "", "genders": [], "languages": [], "places_of_operation": [], "biography": "", "biography_author": null, "date_of_biography": "2023-08-11T18:51:32.856945+10:00", "external_links": [], "uuid": "265ee4f6-fb92-4367-bc51-77b4c9bb8dca", "source": {"name": "Vernon", "slug": "vernon"}, "source_identifier": "9133", "external_references": [], "date_modified": "2023-08-11T18:51:32.857203+10:00"}, {"id": 28461, "name": "TVA Group Production", "roles_in_work": [{"id": 2413056, "title": "Joe's party", "work_id": 86407, "role": "production company", "role_id": 941, "is_primary": true}], "also_known_as": "", "date_of_birth": "", "date_of_death": "", "genders": [], "languages": [], "places_of_operation": [], "biography": "", "biography_author": null, "date_of_biography": "2023-08-11T18:51:32.234097+10:00", "external_links": [], "uuid": "4395bf77-921d-492b-8a5a-d475fa323464", "source": {"name": "Vernon", "slug": "vernon"}, "source_identifier": "13129", "external_references": [], "date_modified": "2023-08-11T18:51:32.234330+10:00"}, {"id": 28450, "name": "Don Was", "roles_in_work": [{"id": 2124438, "title": "Brian Wilson : I wasn't made for these times", "work_id": 86402, "role": "director", "role_id": 938, "is_primary": true}, {"id": 2124429, "title": "Brian Wilson : I wasn't made for these times", "work_id": 86402, "role": "co-producer", "role_id": 915, "is_primary": true}], "also_known_as": "", "date_of_birth": "1952-09-13", "date_of_death": "", "genders": [{"id": 9, "name": "Male", "slug": "male"}], "languages": [{"id": 1, "name": "English", "slug": "english"}], "places_of_operation": [{"id": 1, "name": "United States of America", "slug": "united-states-of-america"}], "biography": "Don Edward Fagenson (born September 13, 1952), known professionally as Don Was, is an American musician, record producer, music director, film composer, documentary filmmaker and radio host. Since 2011, he has also served as president of the American jazz label Blue Note Records.\nFor his work as a record producer, he has won six Grammy Awards, including Album of the Year in 1989 for Bonnie Raitt's Nick of Time and Producer of the Year in 1994. In 1995 he produced and directed a documentary about the life of Brian Wilson, I Just Wasn’t Made for These Times, that won the San Francisco Film Festival's Golden Gate Award. As a film composer, he won the 1994 British Academy Award (BAFTA) for Best Original Score in recognition of his work on the film Backbeat. He won the 2014 Emmy Award for Outstanding Music Direction for his work on the CBS TV special The Beatles: The Night That Changed America.\nRecords that he has produced have sold close to 100 million albums for a wide range of artists including The Rolling Stones, Bob Dylan, Willie Nelson,  John Mayer, Wayne Shorter, Kris Kristofferson, Iggy Pop, The B-52s, Brian Wilson, Elton John, Garth Brooks and Ryan Adams.\nPrimarily known as a bassist, he has toured as a member of Bob Weir and The Wolf Bros since 2018.\n\n", "biography_author": "Wikidata", "date_of_biography": "2023-08-01T14:41:27.621908+10:00", "external_links": [{"id": 3902, "uri": "https://en.wikipedia.org/wiki/Don_Was"}], "uuid": "045b2cf0-4f29-43ed-8a72-dbc846836e41", "source": {"name": "Vernon", "slug": "vernon"}, "source_identifier": "18267", "external_references": [{"id": 25871, "source": {"name": "Wikidata", "slug": "wikidata"}, "source_identifier": "Q499028"}, {"id": 28222, "source": {"name": "VIAF", "slug": "viaf"}, "source_identifier": "51887976"}, {"id": 28223, "source": {"name": "LOC Auth", "slug": "loc-auth"}, "source_identifier": "no97026131"}, {"id": 28224, "source": {"name": "WorldCat", "slug": "worldcat"}, "source_identifier": "lccn-no97026131"}], "date_modified": "2023-09-05T19:17:11.322010+10:00"}, {"id": 28449, "name": "Cro-Magnon Films", "roles_in_work": [{"id": 2124425, "title": "Brian Wilson : I wasn't made for these times", "work_id": 86402, "role": "production company", "role_id": 941, "is_primary": true}], "also_known_as": "", "date_of_birth": "", "date_of_death": "", "genders": [], "languages": [], "places_of_operation": [], "biography": "", "biography_author": null, "date_of_biography": "2023-05-09T13:08:55.841948+10:00", "external_links": [], "uuid": "e32d4c41-f8f3-4bf1-826b-c3cb653cd299", "source": {"name": "Vernon", "slug": "vernon"}, "source_identifier": "7192", "external_references": [{"id": 33031, "source": {"name": "Wikidata", "slug": "wikidata"}, "source_identifier": "Q121091249"}], "date_modified": "2023-09-05T18:47:02.497132+10:00"}, {"id": 28448, "name": "Stony Creek Films", "roles_in_work": [{"id": 2352194, "title": "The Great Macarthy [DVD]", "work_id": 95133, "role": "production company", "role_id": 941, "is_primary": true}], "also_known_as": "", "date_of_birth": "", "date_of_death": "", "genders": [], "languages": [], "places_of_operation": [], "biography": "", "biography_author": null, "date_of_biography": "2023-05-09T19:58:04.506790+10:00", "external_links": [], "uuid": "6a8b16b8-3656-4412-891d-6ecb5f3accbe", "source": {"name": "Vernon", "slug": "vernon"}, "source_identifier": "12973", "external_references": [{"id": 33491, "source": {"name": "Wikidata", "slug": "wikidata"}, "source_identifier": "Q121337202"}], "date_modified": "2023-09-06T01:33:06.422223+10:00"}, {"id": 28447, "name": "Smiley Film", "roles_in_work": [{"id": 2615915, "title": "Cosi", "work_id": 86401, "role": "production company", "role_id": 941, "is_primary": true}], "also_known_as": "", "date_of_birth": "", "date_of_death": "", "genders": [], "languages": [], "places_of_operation": [], "biography": "", "biography_author": null, "date_of_biography": "2023-05-09T13:44:32.032630+10:00", "external_links": [], "uuid": "9d5546c3-4dcf-41b1-abbb-4c4a06e2c099", "source": {"name": "Vernon", "slug": "vernon"}, "source_identifier": "12666", "external_references": [{"id": 38306, "source": {"name": "Wikidata", "slug": "wikidata"}, "source_identifier": "Q121058109"}], "date_modified": "2025-02-26T20:31:29.793681+11:00"}]}