{"count": 28687, "next": "https://api.acmi.net.au/creators/?page=641", "previous": "https://api.acmi.net.au/creators/?page=639", "results": [{"id": 79183, "name": "Ron Koslow", "roles_in_work": [{"id": 1993891, "title": "Moving in = Firstborn", "work_id": 89581, "role": "co-producer", "role_id": 915, "is_primary": true}], "also_known_as": "", "date_of_birth": null, "date_of_death": null, "genders": [], "languages": [], "places_of_operation": [], "biography": "", "biography_author": null, "date_of_biography": null, "external_links": [], "uuid": "5c8d54dc-22e5-4233-845e-d6f3a86eb89b", "source": {"name": "Vernon", "slug": "vernon"}, "source_identifier": null, "external_references": [{"id": 36518, "source": {"name": "Wikidata", "slug": "wikidata"}, "source_identifier": "Q121036325"}], "date_modified": "2023-09-06T00:54:31.031947+10:00"}, {"id": 79182, "name": "Amos Kollek", "roles_in_work": [{"id": 2474858, "title": "Forever, Lulu", "work_id": 89580, "role": "producer/director", "role_id": 31, "is_primary": true}], "also_known_as": "", "date_of_birth": "1947-09-15", "date_of_death": "", "genders": [{"id": 9, "name": "Male", "slug": "male"}], "languages": [{"id": 1, "name": "English", "slug": "english"}, {"id": 11, "name": "Hebrew", "slug": "hebrew"}], "places_of_operation": [{"id": 33, "name": "Israel", "slug": "israel"}], "biography": "Amos Kollek (Hebrew: עמוס קולק; born September 15, 1947) is an Israeli film director, writer and actor.", "biography_author": "Wikidata", "date_of_biography": "2023-09-05T17:31:59.577448+10:00", "external_links": [{"id": 1624, "uri": "https://en.wikipedia.org/wiki/Amos_Kollek"}], "uuid": "d9edb9aa-ea77-462d-a3b1-336027c7a733", "source": {"name": "Vernon", "slug": "vernon"}, "source_identifier": "15071", "external_references": [{"id": 7095, "source": {"name": "Wikidata", "slug": "wikidata"}, "source_identifier": "Q474266"}, {"id": 7096, "source": {"name": "VIAF", "slug": "viaf"}, "source_identifier": "2677948"}, {"id": 7097, "source": {"name": "LOC Auth", "slug": "loc-auth"}, "source_identifier": "n50072821"}, {"id": 7098, "source": {"name": "WorldCat", "slug": "worldcat"}, "source_identifier": "lccn-n50072821"}], "date_modified": "2023-09-05T17:31:59.592097+10:00"}, {"id": 79181, "name": "Bob Larson", "roles_in_work": [{"id": 2145134, "title": "Continental divide", "work_id": 89575, "role": "producer", "role_id": 1089, "is_primary": true}], "also_known_as": "", "date_of_birth": "1944-05-28", "date_of_death": "", "genders": [{"id": 9, "name": "Male", "slug": "male"}], "languages": [{"id": 1, "name": "English", "slug": "english"}], "places_of_operation": [{"id": 1, "name": "United States of America", "slug": "united-states-of-america"}], "biography": "Bob Larson (born May 28, 1944) is an American radio and television evangelist, and a pastor of Spiritual Freedom Church in Phoenix, Arizona. Larson has authored numerous books critical of rock music and Satanism.\n\n", "biography_author": "Wikidata", "date_of_biography": "2023-08-01T14:14:22.113651+10:00", "external_links": [{"id": 1738, "uri": "https://en.wikipedia.org/wiki/Bob_Larson"}], "uuid": "e76d9e11-968c-48f9-8da5-b36eaa675af9", "source": {"name": "Vernon", "slug": "vernon"}, "source_identifier": "16080", "external_references": [{"id": 7579, "source": {"name": "Wikidata", "slug": "wikidata"}, "source_identifier": "Q888053"}, {"id": 7580, "source": {"name": "VIAF", "slug": "viaf"}, "source_identifier": "65711030"}, {"id": 7581, "source": {"name": "LOC Auth", "slug": "loc-auth"}, "source_identifier": "n95000670"}, {"id": 7582, "source": {"name": "WorldCat", "slug": "worldcat"}, "source_identifier": "lccn-n95000670"}], "date_modified": "2023-09-05T18:07:41.570735+10:00"}, {"id": 79180, "name": "Armand Schaefer", "roles_in_work": [{"id": 1993865, "title": "Hurricane express", "work_id": 89573, "role": "co-director", "role_id": 959, "is_primary": true}], "also_known_as": "", "date_of_birth": "1898-08-05", "date_of_death": "1967-09-26", "genders": [{"id": 9, "name": "Male", "slug": "male"}], "languages": [], "places_of_operation": [{"id": 36, "name": "Canada", "slug": "canada"}], "biography": "Armand Schaefer (5 August 1898 – 26 September 1967) was a Canadian film producer and director. He produced more than 100 films between 1932 and 1953. He also directed 24 films between 1931 and 1946. He was born in Tavistock, Ontario, Canada. From 1955 to 1956, he joined Gene Autry as co-executive producers of the Dickie Jones western television series Buffalo Bill, Jr.", "biography_author": "Wikidata", "date_of_biography": "2023-09-05T17:44:52.686203+10:00", "external_links": [{"id": 5687, "uri": "https://en.wikipedia.org/wiki/Armand_Schaefer"}], "uuid": "15564a91-4efe-4662-971b-874402472024", "source": {"name": "Vernon", "slug": "vernon"}, "source_identifier": null, "external_references": [{"id": 42044, "source": {"name": "Wikidata", "slug": "wikidata"}, "source_identifier": "Q2861964"}, {"id": 53992, "source": {"name": "VIAF", "slug": "viaf"}, "source_identifier": "37124498"}, {"id": 53993, "source": {"name": "LOC Auth", "slug": "loc-auth"}, "source_identifier": "no89000225"}, {"id": 53994, "source": {"name": "WorldCat", "slug": "worldcat"}, "source_identifier": "lccn-no89000225"}], "date_modified": "2023-09-05T17:44:52.717681+10:00"}, {"id": 79179, "name": "J.P. McGowan", "roles_in_work": [{"id": 1993864, "title": "Hurricane express", "work_id": 89573, "role": "co-director", "role_id": 959, "is_primary": true}], "also_known_as": "", "date_of_birth": null, "date_of_death": null, "genders": [], "languages": [], "places_of_operation": [], "biography": "", "biography_author": null, "date_of_biography": null, "external_links": [], "uuid": "cc04f8d1-0deb-4d44-b8c0-962a7af185ef", "source": {"name": "Vernon", "slug": "vernon"}, "source_identifier": null, "external_references": [], "date_modified": "2023-06-14T16:33:30.576250+10:00"}, {"id": 79178, "name": "Michael Rosenblatt", "roles_in_work": [{"id": 2224088, "title": "Extremities", "work_id": 89572, "role": "co-producer", "role_id": 915, "is_primary": true}], "also_known_as": "", "date_of_birth": "", "date_of_death": "", "genders": [], "languages": [], "places_of_operation": [], "biography": "", "biography_author": null, "date_of_biography": "2023-05-09T16:23:56.154208+10:00", "external_links": [], "uuid": "88b62d24-0494-46b5-b46b-547742b48acb", "source": {"name": "Vernon", "slug": "vernon"}, "source_identifier": "25210", "external_references": [{"id": 36167, "source": {"name": "Wikidata", "slug": "wikidata"}, "source_identifier": "Q121299549"}], "date_modified": "2023-09-05T23:08:40.087591+10:00"}, {"id": 79177, "name": "George W. Perkins", "roles_in_work": [{"id": 2224083, "title": "Extremities", "work_id": 89572, "role": "co-producer", "role_id": 915, "is_primary": true}], "also_known_as": "", "date_of_birth": "", "date_of_death": "", "genders": [], "languages": [], "places_of_operation": [], "biography": "", "biography_author": null, "date_of_biography": "2023-05-09T16:23:55.913959+10:00", "external_links": [], "uuid": "347b5bc5-31a9-4567-957f-e9c26e853464", "source": {"name": "Vernon", "slug": "vernon"}, "source_identifier": "19691", "external_references": [{"id": 42669, "source": {"name": "Wikidata", "slug": "wikidata"}, "source_identifier": "Q121222655"}], "date_modified": "2023-09-05T20:07:03.306464+10:00"}, {"id": 79176, "name": "Thomas Coleman", "roles_in_work": [{"id": 2224080, "title": "Extremities", "work_id": 89572, "role": "co-producer", "role_id": 915, "is_primary": true}], "also_known_as": "", "date_of_birth": "", "date_of_death": "", "genders": [], "languages": [], "places_of_operation": [], "biography": "", "biography_author": null, "date_of_biography": "2023-05-09T16:23:55.327965+10:00", "external_links": [], "uuid": "479f1bd2-2bb9-42c2-a0f2-856573d6b863", "source": {"name": "Vernon", "slug": "vernon"}, "source_identifier": "29673", "external_references": [{"id": 50900, "source": {"name": "Wikidata", "slug": "wikidata"}, "source_identifier": "Q121357587"}], "date_modified": "2023-09-06T01:48:41.134969+10:00"}, {"id": 79175, "name": "Edmund Grainger", "roles_in_work": [{"id": 2245401, "title": "Flying leathernecks", "work_id": 90420, "role": "producer", "role_id": 1089, "is_primary": true}, {"id": 2118335, "title": "Blackbeard the pirate", "work_id": 89569, "role": "producer", "role_id": 1089, "is_primary": true}], "also_known_as": "", "date_of_birth": "1906-10-01", "date_of_death": "1981-07-06", "genders": [{"id": 9, "name": "Male", "slug": "male"}], "languages": [{"id": 1, "name": "English", "slug": "english"}], "places_of_operation": [{"id": 1, "name": "United States of America", "slug": "united-states-of-america"}], "biography": "Edmund Grainger (1906–1981) was an American film producer. He produced more than sixty films during his career, and also occasionally worked as an assistant director. During the 1930s he was employed by Universal Pictures. He worked for RKO during Howard Hughes' ownership of the studio. \nGrainger was the son of James D. Grainger, a film executive who worked for a variety of companies from the silent era onwards.", "biography_author": "Wikidata", "date_of_biography": "2023-08-01T14:44:22.249033+10:00", "external_links": [{"id": 3929, "uri": "https://en.wikipedia.org/wiki/Edmund_Grainger"}], "uuid": "c9f909ef-d7df-4d09-8cc4-4ed52237ad48", "source": {"name": "Vernon", "slug": "vernon"}, "source_identifier": "18567", "external_references": [{"id": 25156, "source": {"name": "Wikidata", "slug": "wikidata"}, "source_identifier": "Q3048096"}, {"id": 28293, "source": {"name": "VIAF", "slug": "viaf"}, "source_identifier": "31552057"}, {"id": 28294, "source": {"name": "LOC Auth", "slug": "loc-auth"}, "source_identifier": "no89009022"}, {"id": 28295, "source": {"name": "WorldCat", "slug": "worldcat"}, "source_identifier": "lccn-no89009022"}], "date_modified": "2023-09-05T19:24:28.998580+10:00"}, {"id": 79174, "name": "Multimedia 21 Fund - Cinemedia", "roles_in_work": [{"id": 1786157, "title": "Lore of the land (PC & MAC)", "work_id": 89568, "role": "production company", "role_id": 941, "is_primary": true}], "also_known_as": "", "date_of_birth": null, "date_of_death": null, "genders": [], "languages": [], "places_of_operation": [], "biography": "", "biography_author": null, "date_of_biography": null, "external_links": [], "uuid": "f6356fc0-6728-404b-ba8c-e9bad84bc9ea", "source": {"name": "Vernon", "slug": "vernon"}, "source_identifier": null, "external_references": [{"id": 39074, "source": {"name": "Wikidata", "slug": "wikidata"}, "source_identifier": "Q121034768"}], "date_modified": "2023-09-05T23:22:43.005973+10:00"}]}