{"count": 28684, "next": "https://api.acmi.net.au/creators/?page=2069", "previous": "https://api.acmi.net.au/creators/?page=2067", "results": [{"id": 21200, "name": "Patrick Lui", "roles_in_work": [{"id": 2761101, "title": "Caring", "work_id": 78288, "role": "co-producer", "role_id": 915, "is_primary": true}, {"id": 2761092, "title": "Remembering", "work_id": 78287, "role": "co-producer", "role_id": 915, "is_primary": true}, {"id": 2761110, "title": "Eating", "work_id": 78923, "role": "co-producer", "role_id": 915, "is_primary": true}, {"id": 2761122, "title": "Correcting", "work_id": 78289, "role": "co-producer", "role_id": 915, "is_primary": true}, {"id": 2761132, "title": "Working", "work_id": 78290, "role": "co-producer", "role_id": 915, "is_primary": true}, {"id": 2761141, "title": "Living", "work_id": 78291, "role": "co-producer", "role_id": 915, "is_primary": true}, {"id": 2761154, "title": "Understanding", "work_id": 78292, "role": "co-producer", "role_id": 915, "is_primary": true}, {"id": 2761163, "title": "Mediating", "work_id": 78293, "role": "co-producer", "role_id": 915, "is_primary": true}, {"id": 2761174, "title": "Creating", "work_id": 78294, "role": "co-producer", "role_id": 915, "is_primary": true}, {"id": 2761182, "title": "Trading", "work_id": 78295, "role": "co-producer", "role_id": 915, "is_primary": true}, {"id": 1816178, "title": "It happened here again", "work_id": 98186, "role": "producer", "role_id": 1089, "is_primary": true}], "also_known_as": "", "date_of_birth": "", "date_of_death": "", "genders": [], "languages": [], "places_of_operation": [], "biography": "", "biography_author": null, "date_of_biography": "2023-05-09T17:07:05.776656+10:00", "external_links": [], "uuid": "6abdb988-2408-429d-8b15-049593f3b39e", "source": {"name": "Vernon", "slug": "vernon"}, "source_identifier": "26137", "external_references": [], "date_modified": "2025-03-14T17:31:19.399741+11:00"}, {"id": 21198, "name": "Alan Foley", "roles_in_work": [{"id": 2769128, "title": "The Invisible disability: hearing impairment", "work_id": 78286, "role": "director", "role_id": 938, "is_primary": true}], "also_known_as": "", "date_of_birth": "", "date_of_death": "", "genders": [], "languages": [], "places_of_operation": [], "biography": "", "biography_author": null, "date_of_biography": "2023-08-11T15:12:54.988060+10:00", "external_links": [], "uuid": "b3739fab-7a5e-4fb4-a207-95a38acf6735", "source": {"name": "Vernon", "slug": "vernon"}, "source_identifier": "14753", "external_references": [], "date_modified": "2025-03-14T18:12:44.656551+11:00"}, {"id": 21197, "name": "Burwood State College Special Education Film Unit", "roles_in_work": [{"id": 2769119, "title": "The Invisible disability: hearing impairment", "work_id": 78286, "role": "production company", "role_id": 941, "is_primary": true}], "also_known_as": "", "date_of_birth": "", "date_of_death": "", "genders": [], "languages": [], "places_of_operation": [], "biography": "", "biography_author": null, "date_of_biography": "2023-08-11T15:12:53.766519+10:00", "external_links": [], "uuid": "2d6634c7-ece9-46df-b1e8-4b1b063bf75b", "source": {"name": "Vernon", "slug": "vernon"}, "source_identifier": "6138", "external_references": [], "date_modified": "2025-03-14T18:12:43.492748+11:00"}, {"id": 21196, "name": "Francis Treacey", "roles_in_work": [{"id": 2769116, "title": "Carronbank: Deaf Blind Education", "work_id": 78285, "role": "director", "role_id": 938, "is_primary": true}, {"id": 2749870, "title": "Sexism in the primary school", "work_id": 97018, "role": "producer", "role_id": 1089, "is_primary": true}], "also_known_as": "", "date_of_birth": "", "date_of_death": "", "genders": [], "languages": [], "places_of_operation": [], "biography": "", "biography_author": null, "date_of_biography": "2023-08-11T15:12:52.806144+10:00", "external_links": [], "uuid": "9762f0a9-4e7a-4492-85e5-7c6348c8b026", "source": {"name": "Vernon", "slug": "vernon"}, "source_identifier": "19060", "external_references": [], "date_modified": "2025-03-14T18:12:42.612634+11:00"}, {"id": 21195, "name": "Victoria College (Melbourne, Vic.)", "roles_in_work": [{"id": 2769113, "title": "Carronbank: Deaf Blind Education", "work_id": 78285, "role": "co-producer", "role_id": 915, "is_primary": true}, {"id": 2752677, "title": "Overhead projection & hand produced transparencies", "work_id": 98411, "role": "production company", "role_id": 941, "is_primary": true}], "also_known_as": "", "date_of_birth": "", "date_of_death": "", "genders": [], "languages": [], "places_of_operation": [], "biography": "", "biography_author": null, "date_of_biography": "2023-08-11T15:12:52.184661+10:00", "external_links": [], "uuid": "72d98508-a771-4bbf-90f2-80aa23685c27", "source": {"name": "Vernon", "slug": "vernon"}, "source_identifier": "3844", "external_references": [], "date_modified": "2025-03-14T18:12:42.030503+11:00"}, {"id": 21194, "name": "Des Pickering", "roles_in_work": [{"id": 2769112, "title": "Carronbank: Deaf Blind Education", "work_id": 78285, "role": "co-producer", "role_id": 915, "is_primary": true}, {"id": 2769124, "title": "The Invisible disability: hearing impairment", "work_id": 78286, "role": "producer", "role_id": 1089, "is_primary": true}], "also_known_as": "", "date_of_birth": "", "date_of_death": "", "genders": [], "languages": [], "places_of_operation": [], "biography": "", "biography_author": null, "date_of_biography": "2023-08-11T15:12:54.379311+10:00", "external_links": [], "uuid": "86c8f7cb-5b4f-4b11-8cf4-90dc037925d6", "source": {"name": "Vernon", "slug": "vernon"}, "source_identifier": "18055", "external_references": [], "date_modified": "2025-03-14T18:12:44.075921+11:00"}, {"id": 21193, "name": "Larry Zetlin", "roles_in_work": [{"id": 2415330, "title": "Looking after Yaimini", "work_id": 78666, "role": "co-director", "role_id": 959, "is_primary": true}, {"id": 2415328, "title": "Looking after Yaimini", "work_id": 78666, "role": "producer", "role_id": 1089, "is_primary": true}, {"id": 2413979, "title": "Koalas: Out on a Limb", "work_id": 78284, "role": "producer/director", "role_id": 31, "is_primary": true}], "also_known_as": "", "date_of_birth": "", "date_of_death": "", "genders": [], "languages": [], "places_of_operation": [], "biography": "", "biography_author": null, "date_of_biography": "2023-08-11T19:35:28.894408+10:00", "external_links": [], "uuid": "9e1d32f8-4074-4cbb-97ba-26c372df4874", "source": {"name": "Vernon", "slug": "vernon"}, "source_identifier": "23514", "external_references": [], "date_modified": "2023-08-11T19:35:28.894617+10:00"}, {"id": 21191, "name": "York St Film Productions", "roles_in_work": [{"id": 2315196, "title": "Street kids", "work_id": 78282, "role": "production company", "role_id": 941, "is_primary": true}], "also_known_as": "", "date_of_birth": "", "date_of_death": "", "genders": [], "languages": [], "places_of_operation": [], "biography": "", "biography_author": null, "date_of_biography": "2023-05-09T19:03:08.420463+10:00", "external_links": [], "uuid": "74ab502d-65f1-4f5a-85d8-676a1a1f492a", "source": {"name": "Vernon", "slug": "vernon"}, "source_identifier": "14506", "external_references": [{"id": 41452, "source": {"name": "Wikidata", "slug": "wikidata"}, "source_identifier": "Q121315279"}], "date_modified": "2023-09-06T02:23:07.881955+10:00"}, {"id": 21189, "name": "Children's Film Foundation", "roles_in_work": [{"id": 2648440, "title": "Electric Eskimo", "work_id": 79217, "role": "producer", "role_id": 1089, "is_primary": true}, {"id": 2215571, "title": "Electric Eskimo (Captioned)", "work_id": 79093, "role": "producer", "role_id": 1089, "is_primary": true}, {"id": 1983949, "title": "The Sky Pirates (Captioned)", "work_id": 79112, "role": "producer", "role_id": 1089, "is_primary": true}, {"id": 2251734, "title": "Robin Hood junior", "work_id": 79219, "role": "production company", "role_id": 941, "is_primary": true}, {"id": 874030, "title": "Blind man's bluff", "work_id": 88531, "role": "production company", "role_id": 941, "is_primary": true}, {"id": 879467, "title": "The Boy who turned yellow", "work_id": 91810, "role": "production company", "role_id": 941, "is_primary": true}, {"id": 875367, "title": "[Avalanche]", "work_id": 89476, "role": "production company", "role_id": 941, "is_primary": true}, {"id": 1990910, "title": "Friend or foe", "work_id": 86529, "role": "production company", "role_id": 941, "is_primary": true}, {"id": 2264096, "title": "Scramble (Captioned)", "work_id": 79087, "role": "production company", "role_id": 941, "is_primary": true}, {"id": 2264524, "title": "Scramble", "work_id": 79224, "role": "production company", "role_id": 941, "is_primary": true}, {"id": 803664, "title": "Anoop and the elephant", "work_id": 89766, "role": "production company", "role_id": 941, "is_primary": true}, {"id": 1994272, "title": "Kadoyng", "work_id": 90042, "role": "production company", "role_id": 941, "is_primary": true}, {"id": 809672, "title": "The Copter kids", "work_id": 91921, "role": "production company", "role_id": 941, "is_primary": true}, {"id": 874131, "title": "Cry wolf", "work_id": 88583, "role": "production company", "role_id": 941, "is_primary": true}, {"id": 886024, "title": "Black Island", "work_id": 95529, "role": "production company", "role_id": 941, "is_primary": true}, {"id": 2151940, "title": "Mischief", "work_id": 90106, "role": "production company", "role_id": 941, "is_primary": true}, {"id": 2648091, "title": "Friend or foe", "work_id": 78279, "role": "production company", "role_id": 941, "is_primary": true}, {"id": 879487, "title": "Blinker's spy-spotter", "work_id": 91821, "role": "production company", "role_id": 941, "is_primary": true}], "also_known_as": "", "date_of_birth": "", "date_of_death": "", "genders": [], "languages": [], "places_of_operation": [], "biography": "The Children's Film Foundation (CFF) is a non-profit organisation which makes films and other media for children in the United Kingdom. Originally it made films to be shown as part of children's Saturday morning matinée cinema programming. The films typically were about 55 minutes long. Over time the organisation's role broadened and its name changed, first to the Children's Film and Television Foundation in the mid-80s and to the Children's Media Foundation in 2012.", "biography_author": "Wikidata", "date_of_biography": "2023-09-05T18:31:05.303097+10:00", "external_links": [{"id": 5746, "uri": "https://en.wikipedia.org/wiki/Children%27s_Film_Foundation"}], "uuid": "914d526b-5ab4-45a9-bd1d-cf225729bb06", "source": {"name": "Vernon", "slug": "vernon"}, "source_identifier": "6571", "external_references": [{"id": 35017, "source": {"name": "Wikidata", "slug": "wikidata"}, "source_identifier": "Q5098088"}], "date_modified": "2025-03-05T13:45:47.655541+11:00"}, {"id": 21181, "name": "M Bakembaeba", "roles_in_work": [{"id": 2467685, "title": "The North of Russia", "work_id": 78271, "role": "director", "role_id": 938, "is_primary": true}], "also_known_as": "", "date_of_birth": "", "date_of_death": "", "genders": [], "languages": [], "places_of_operation": [], "biography": "", "biography_author": null, "date_of_biography": "2023-08-14T11:25:24.645225+10:00", "external_links": [], "uuid": "f0ab6bb7-6c22-479b-a6a6-e24330d831f3", "source": {"name": "Vernon", "slug": "vernon"}, "source_identifier": "24150", "external_references": [], "date_modified": "2023-08-14T11:25:24.645435+10:00"}]}