{"count": 28682, "next": "https://api.acmi.net.au/creators/?page=1004", "previous": "https://api.acmi.net.au/creators/?page=1002", "results": [{"id": 75548, "name": "Bob O'Donnell", "roles_in_work": [{"id": 2281980, "title": "Your turn in the box", "work_id": 75053, "role": "producer/director", "role_id": 31, "is_primary": true}], "also_known_as": "", "date_of_birth": "", "date_of_death": "", "genders": [], "languages": [], "places_of_operation": [], "biography": "", "biography_author": null, "date_of_biography": "2023-05-09T18:02:02.815016+10:00", "external_links": [], "uuid": "e8246470-55e2-4a43-8bbb-4732cc236d8d", "source": {"name": "Vernon", "slug": "vernon"}, "source_identifier": "16093", "external_references": [{"id": 51517, "source": {"name": "Wikidata", "slug": "wikidata"}, "source_identifier": "Q121360775"}], "date_modified": "2023-09-05T18:07:49.418263+10:00"}, {"id": 75547, "name": "David Robbins", "roles_in_work": [{"id": 2281497, "title": "Your child is a genius", "work_id": 75026, "role": "producer/director", "role_id": 31, "is_primary": true}], "also_known_as": "", "date_of_birth": "", "date_of_death": "", "genders": [], "languages": [], "places_of_operation": [], "biography": "", "biography_author": null, "date_of_biography": "2023-05-09T18:01:16.165804+10:00", "external_links": [], "uuid": "c0324235-e801-4d1c-9c87-a0d66726e745", "source": {"name": "Vernon", "slug": "vernon"}, "source_identifier": "17773", "external_references": [{"id": 52027, "source": {"name": "Wikidata", "slug": "wikidata"}, "source_identifier": "Q121361327"}], "date_modified": "2023-09-05T19:02:35.513811+10:00"}, {"id": 75546, "name": "Gene De Poris", "roles_in_work": [{"id": 861152, "title": "You'll get yours when you're 65", "work_id": 75014, "role": "producer/director", "role_id": 31, "is_primary": true}], "also_known_as": "", "date_of_birth": null, "date_of_death": null, "genders": [], "languages": [], "places_of_operation": [], "biography": "", "biography_author": null, "date_of_biography": null, "external_links": [], "uuid": "23262422-cbf5-452d-be11-8fa961dca0e7", "source": {"name": "Vernon", "slug": "vernon"}, "source_identifier": null, "external_references": [{"id": 51800, "source": {"name": "Wikidata", "slug": "wikidata"}, "source_identifier": "Q121361117"}], "date_modified": "2023-09-05T20:00:20.132829+10:00"}, {"id": 75545, "name": "Conrad Standish", "roles_in_work": [{"id": 861124, "title": "Yesterday", "work_id": 74991, "role": "director", "role_id": 938, "is_primary": true}], "also_known_as": "", "date_of_birth": null, "date_of_death": null, "genders": [], "languages": [], "places_of_operation": [], "biography": "", "biography_author": null, "date_of_biography": null, "external_links": [], "uuid": "860d20bf-8fdf-427d-9b88-58b3b91ae3be", "source": {"name": "Vernon", "slug": "vernon"}, "source_identifier": null, "external_references": [{"id": 43050, "source": {"name": "Wikidata", "slug": "wikidata"}, "source_identifier": "Q121079377"}], "date_modified": "2023-09-05T18:45:03.833912+10:00"}, {"id": 75544, "name": "Gordon White", "roles_in_work": [{"id": 2727374, "title": "The Correspondence", "work_id": 107370, "role": "creator", "role_id": 968, "is_primary": true}, {"id": 2727465, "title": "In our words: stories from Victorian veterans [April 2010]", "work_id": 107369, "role": "creator", "role_id": 968, "is_primary": true}, {"id": 1814689, "title": "Yesterday", "work_id": 74991, "role": "producer", "role_id": 1089, "is_primary": true}], "also_known_as": "", "date_of_birth": "", "date_of_death": "", "genders": [{"id": 9, "name": "Male", "slug": "male"}], "languages": [], "places_of_operation": [], "biography": "", "biography_author": null, "date_of_biography": "2023-08-30T04:20:19.021775+10:00", "external_links": [], "uuid": "46f91542-9c66-4ba1-8547-aecd15c3d336", "source": {"name": "Vernon", "slug": "vernon"}, "source_identifier": "35254", "external_references": [{"id": 43018, "source": {"name": "Wikidata", "slug": "wikidata"}, "source_identifier": "Q121091026"}], "date_modified": "2025-03-12T08:26:55.508516+11:00"}, {"id": 75543, "name": "David Fulton", "roles_in_work": [{"id": 2072812, "title": "A Portrait of Leonard Hutchinson", "work_id": 74977, "role": "co-director", "role_id": 959, "is_primary": true}, {"id": 2341665, "title": "The Cry of the gull", "work_id": 90812, "role": "co-producer", "role_id": 915, "is_primary": true}], "also_known_as": "", "date_of_birth": "", "date_of_death": "", "genders": [], "languages": [], "places_of_operation": [], "biography": "", "biography_author": null, "date_of_biography": "2023-05-09T19:40:30.441122+10:00", "external_links": [], "uuid": "da40ed34-3225-40e8-bf89-c4509866bf7b", "source": {"name": "Vernon", "slug": "vernon"}, "source_identifier": "17581", "external_references": [{"id": 37438, "source": {"name": "Wikidata", "slug": "wikidata"}, "source_identifier": "Q121079412"}], "date_modified": "2023-09-05T18:57:08.833932+10:00"}, {"id": 75542, "name": "Gloria Montero", "roles_in_work": [{"id": 2072809, "title": "A Portrait of Leonard Hutchinson", "work_id": 74977, "role": "co-director", "role_id": 959, "is_primary": true}, {"id": 2341661, "title": "The Cry of the gull", "work_id": 90812, "role": "co-producer", "role_id": 915, "is_primary": true}], "also_known_as": "", "date_of_birth": "", "date_of_death": "", "genders": [], "languages": [], "places_of_operation": [], "biography": "", "biography_author": null, "date_of_biography": "2023-05-09T19:40:30.192087+10:00", "external_links": [], "uuid": "515a1bd4-4e01-4acf-840c-b6109f4e5df9", "source": {"name": "Vernon", "slug": "vernon"}, "source_identifier": "19908", "external_references": [{"id": 34825, "source": {"name": "Wikidata", "slug": "wikidata"}, "source_identifier": "Q121299468"}], "date_modified": "2023-09-05T20:15:49.344674+10:00"}, {"id": 75541, "name": "Hal Wallace", "roles_in_work": [{"id": 2277871, "title": "The World of Andrew Wyeth", "work_id": 74931, "role": "co-producer", "role_id": 915, "is_primary": true}], "also_known_as": "", "date_of_birth": "", "date_of_death": "", "genders": [], "languages": [], "places_of_operation": [], "biography": "", "biography_author": null, "date_of_biography": "2023-05-09T17:54:46.809402+10:00", "external_links": [], "uuid": "b8eddad5-f309-4bd2-910e-83216883adea", "source": {"name": "Vernon", "slug": "vernon"}, "source_identifier": "20207", "external_references": [{"id": 33911, "source": {"name": "Wikidata", "slug": "wikidata"}, "source_identifier": "Q121036728"}], "date_modified": "2023-09-05T20:27:27.372730+10:00"}, {"id": 75540, "name": "Suzanne Gibbs", "roles_in_work": [{"id": 2781392, "title": "The Living forest", "work_id": 74921, "role": "co-producer", "role_id": 915, "is_primary": true}], "also_known_as": "", "date_of_birth": null, "date_of_death": null, "genders": [], "languages": [], "places_of_operation": [], "biography": "", "biography_author": null, "date_of_biography": null, "external_links": [], "uuid": "a2c48da3-f0cc-4f49-99d6-220ad223461e", "source": {"name": "Vernon", "slug": "vernon"}, "source_identifier": null, "external_references": [{"id": 52167, "source": {"name": "Wikidata", "slug": "wikidata"}, "source_identifier": "Q121357861"}], "date_modified": "2023-09-06T01:37:35.421414+10:00"}, {"id": 75539, "name": "John Dutot", "roles_in_work": [{"id": 2646980, "title": "Working with a computer: step by step", "work_id": 74915, "role": "co-producer", "role_id": 915, "is_primary": true}], "also_known_as": "", "date_of_birth": null, "date_of_death": null, "genders": [], "languages": [], "places_of_operation": [], "biography": "", "biography_author": null, "date_of_biography": null, "external_links": [], "uuid": "11d40ded-84e0-4d0c-8824-d3881dd9662f", "source": {"name": "Vernon", "slug": "vernon"}, "source_identifier": "22227", "external_references": [{"id": 34392, "source": {"name": "Wikidata", "slug": "wikidata"}, "source_identifier": "Q121223328"}], "date_modified": "2025-03-05T13:16:18.410545+11:00"}]}