{"count": 28681, "next": "https://api.acmi.net.au/creators/?page=1554", "previous": "https://api.acmi.net.au/creators/?page=1552", "results": [{"id": 32249, "name": "Filmsonar a Epinay", "roles_in_work": [{"id": 1994735, "title": "The End of the day = La Fin du jour", "work_id": 90518, "role": "production company", "role_id": 941, "is_primary": true}, {"id": 3104617, "title": "fin du jour", "work_id": 116001, "role": "production company", "role_id": 941, "is_primary": true}], "also_known_as": "", "date_of_birth": null, "date_of_death": null, "genders": [], "languages": [], "places_of_operation": [], "biography": "", "biography_author": null, "date_of_biography": null, "external_links": [], "uuid": "c413a438-13b7-4744-bab7-3217c7f3fc73", "source": {"name": "Vernon", "slug": "vernon"}, "source_identifier": "8327", "external_references": [], "date_modified": "2025-05-22T22:45:28.823307+10:00"}, {"id": 32246, "name": "Citel Films", "roles_in_work": [{"id": 2358091, "title": "The Lacemaker = La Dentelliere", "work_id": 90514, "role": "production company", "role_id": 941, "is_primary": true}, {"id": 3104739, "title": "La Dentelliere = the Lacemaker", "work_id": 116061, "role": "production company", "role_id": 941, "is_primary": true}], "also_known_as": "", "date_of_birth": "", "date_of_death": "", "genders": [], "languages": [], "places_of_operation": [], "biography": "", "biography_author": null, "date_of_biography": "2023-05-09T20:07:07.895876+10:00", "external_links": [], "uuid": "fe1f50d8-363e-4385-bdc4-5a37a474fff6", "source": {"name": "Vernon", "slug": "vernon"}, "source_identifier": "6787", "external_references": [{"id": 43442, "source": {"name": "Wikidata", "slug": "wikidata"}, "source_identifier": "Q121337258"}], "date_modified": "2025-05-22T22:46:51.841332+10:00"}, {"id": 32245, "name": "Filmproduktion Janus", "roles_in_work": [{"id": 3104738, "title": "La Dentelliere = the Lacemaker", "work_id": 116061, "role": "production company", "role_id": 941, "is_primary": true}, {"id": 2358088, "title": "The Lacemaker = La Dentelliere", "work_id": 90514, "role": "production company", "role_id": 941, "is_primary": true}], "also_known_as": "", "date_of_birth": "", "date_of_death": "", "genders": [], "languages": [], "places_of_operation": [], "biography": "", "biography_author": null, "date_of_biography": "2023-05-09T20:07:07.656945+10:00", "external_links": [], "uuid": "da10ff64-6d30-4dc5-8bc9-4e7a94f19504", "source": {"name": "Vernon", "slug": "vernon"}, "source_identifier": "8238", "external_references": [{"id": 33837, "source": {"name": "Wikidata", "slug": "wikidata"}, "source_identifier": "Q121057975"}], "date_modified": "2025-05-22T22:46:51.021689+10:00"}, {"id": 32238, "name": "Don McDougall", "roles_in_work": [{"id": 3085551, "title": "The Honour of Cochise", "work_id": 90504, "role": "director", "role_id": 938, "is_primary": true}], "also_known_as": "", "date_of_birth": "", "date_of_death": "", "genders": [], "languages": [], "places_of_operation": [], "biography": "", "biography_author": null, "date_of_biography": "2023-05-09T13:05:36.269775+10:00", "external_links": [], "uuid": "5c8f19ef-12bf-46e9-b45a-fb57b73d5873", "source": {"name": "Vernon", "slug": "vernon"}, "source_identifier": "18233", "external_references": [{"id": 41908, "source": {"name": "Wikidata", "slug": "wikidata"}, "source_identifier": "Q121126174"}], "date_modified": "2025-03-17T10:40:33.110263+11:00"}, {"id": 32237, "name": "David Dortort", "roles_in_work": [{"id": 3085560, "title": "Bonanza: The Ape. The Savage", "work_id": 94279, "role": "producer", "role_id": 1089, "is_primary": true}, {"id": 3085549, "title": "The Honour of Cochise", "work_id": 90504, "role": "producer", "role_id": 1089, "is_primary": true}, {"id": 3085533, "title": "The Underdog", "work_id": 90502, "role": "producer", "role_id": 1089, "is_primary": true}, {"id": 3085542, "title": "The Dark gate", "work_id": 90503, "role": "producer", "role_id": 1089, "is_primary": true}], "also_known_as": "", "date_of_birth": "23 OCT 1916", "date_of_death": "05 SEP 2010", "genders": [{"id": 9, "name": "Male", "slug": "male"}], "languages": [], "places_of_operation": [{"id": 1, "name": "United States of America", "slug": "united-states-of-america"}], "biography": "David Dortort (born David Solomon Katz; October 23, 1916 – September 5, 2010) was a Hollywood screenwriter and producer, widely known for his role as producer in two successful NBC television series: Bonanza (1959–73) and The High Chaparral (1967–71). Dortort's focus shifted in the late 1960s to the newer series, leaving the production of Bonanza largely to his associates during its last five and a half years (1967–1973).\n\nFrom 1954–55, Dortort was involved in directing and writing for The Public Defender. He produced The Restless Gun (1957–59), The Cowboys television version (1974), and a prequel series featuring younger versions of the Bonanza characters called Ponderosa (2001), which was produced with Beth Sullivan. In 1979–1980, he created the 13-week CBS miniseries, The Chisholms. Michael Landon appeared in a supporting role in the pilot for The Restless Gun, starring John Payne, aired on March 19, 1957, as an episode of The Schlitz Playhouse of Stars and Dan Blocker played multiple roles in five episodes of The Restless Gun.Alan W. Livingston of NBC hired Dortort to write the screenplay for the pilot episode of Bonanza.  He did it at night, while producing The Restless Gun by day.In 2001, the alumni association of City College of New York, where he had studied history, honored him with its John H. Finley award. Source: Wikidata; 01/08/2023", "biography_author": null, "date_of_biography": "2025-03-17T10:40:35.114817+11:00", "external_links": [{"id": 3833, "uri": "https://en.wikipedia.org/wiki/David_Dortort"}], "uuid": "7e62c2eb-22e5-4cbe-9a8c-af9df50d7999", "source": {"name": "Vernon", "slug": "vernon"}, "source_identifier": "17554", "external_references": [{"id": 25516, "source": {"name": "Wikidata", "slug": "wikidata"}, "source_identifier": "Q3017795"}, {"id": 28021, "source": {"name": "VIAF", "slug": "viaf"}, "source_identifier": "158692327"}, {"id": 28022, "source": {"name": "LOC Auth", "slug": "loc-auth"}, "source_identifier": "no2010116036"}, {"id": 28023, "source": {"name": "WorldCat", "slug": "worldcat"}, "source_identifier": "lccn-no2010116036"}], "date_modified": "2025-03-17T10:40:35.115110+11:00"}, {"id": 32236, "name": "Tonie Marshall", "roles_in_work": [{"id": 909883, "title": "Venus beauty = Venus beaute (institut)", "work_id": 90501, "role": "director", "role_id": 938, "is_primary": true}], "also_known_as": "Anthony-Lee Caroline Julie Marshall", "date_of_birth": "1951-11-29", "date_of_death": "2020-03-12", "genders": [{"id": 5, "name": "Female", "slug": "female"}], "languages": [{"id": 4, "name": "French", "slug": "french"}], "places_of_operation": [{"id": 17, "name": "France", "slug": "france"}], "biography": "Tonie Marshall (29 November 1951 – 12 March 2020) was a French-American actress, screenwriter, and film director. In 2000, she became the first female director to win a César award for her film Venus Beauty Institute.", "biography_author": "Wikidata", "date_of_biography": "2023-08-01T17:20:20.346917+10:00", "external_links": [{"id": 5284, "uri": "https://en.wikipedia.org/wiki/Tonie_Marshall"}], "uuid": "01ed7d17-d4df-4deb-9de2-cc2faf7e096e", "source": {"name": "Vernon", "slug": "vernon"}, "source_identifier": "13635", "external_references": [{"id": 25685, "source": {"name": "Wikidata", "slug": "wikidata"}, "source_identifier": "Q2555171"}, {"id": 31834, "source": {"name": "VIAF", "slug": "viaf"}, "source_identifier": "153791871"}, {"id": 31835, "source": {"name": "LOC Auth", "slug": "loc-auth"}, "source_identifier": "no2010119484"}, {"id": 31836, "source": {"name": "WorldCat", "slug": "worldcat"}, "source_identifier": "lccn-no2010119484"}], "date_modified": "2023-09-13T12:33:04.707954+10:00"}, {"id": 32232, "name": "Arte France", "roles_in_work": [{"id": 1999288, "title": "Trouble every day [DVD] (D)", "work_id": 94368, "role": "production company", "role_id": 941, "is_primary": true}, {"id": 2195752, "title": "Divine intervention = Chronicle of love and pain", "work_id": 100504, "role": "production company", "role_id": 941, "is_primary": true}, {"id": 2195780, "title": "Divine intervention = Chronicle of love and pain [DVD]", "work_id": 94370, "role": "production company", "role_id": 941, "is_primary": true}, {"id": 1997415, "title": "The Piano teacher = La Pianiste [DVD] (E)", "work_id": 93313, "role": "production company", "role_id": 941, "is_primary": true}, {"id": 909878, "title": "Venus beauty = Venus beaute (institut)", "work_id": 90501, "role": "production company", "role_id": 941, "is_primary": true}, {"id": 1997322, "title": "Vengo [DVD]", "work_id": 93244, "role": "production company", "role_id": 941, "is_primary": true}, {"id": 929255, "title": "Time out = L'Emploi du temps", "work_id": 94844, "role": "production company", "role_id": 941, "is_primary": true}, {"id": 2172079, "title": "Dancer in the dark", "work_id": 92505, "role": "production company", "role_id": 941, "is_primary": true}, {"id": 917098, "title": "This is not Einstein", "work_id": 95033, "role": "production company", "role_id": 941, "is_primary": true}, {"id": 2000515, "title": "Lumumba", "work_id": 95089, "role": "production company", "role_id": 941, "is_primary": true}, {"id": 2228387, "title": "Fat girl = For my sister = A ma soeur! [DVD] (E)", "work_id": 94303, "role": "production company", "role_id": 941, "is_primary": true}, {"id": 2102438, "title": "At the height of summer = Vertical ray of the sun = Mua he chieu thang dung", "work_id": 93060, "role": "production company", "role_id": 941, "is_primary": true}, {"id": 1996070, "title": "The Captive = La Captive", "work_id": 92470, "role": "production company", "role_id": 941, "is_primary": true}, {"id": 1999623, "title": "Intimacy", "work_id": 94596, "role": "production company", "role_id": 941, "is_primary": true}, {"id": 1999149, "title": "Under the sand = Sous le sable [DVD]", "work_id": 94306, "role": "production company", "role_id": 941, "is_primary": true}], "also_known_as": "", "date_of_birth": "", "date_of_death": "", "genders": [], "languages": [], "places_of_operation": [], "biography": "", "biography_author": null, "date_of_biography": "2023-05-09T16:29:53.609496+10:00", "external_links": [], "uuid": "104c6e60-a7e3-4bc6-9372-62c2b4da659a", "source": {"name": "Vernon", "slug": "vernon"}, "source_identifier": "5401", "external_references": [], "date_modified": "2023-06-14T16:33:30.576250+10:00"}, {"id": 32231, "name": "Katja Von Garnier", "roles_in_work": [{"id": 805688, "title": "Makin' up!. The Most beautiful breasts in the world", "work_id": 90500, "role": "director", "role_id": 938, "is_primary": true}], "also_known_as": "", "date_of_birth": "1966-12-15", "date_of_death": null, "genders": [{"id": 5, "name": "Female", "slug": "female"}], "languages": [{"id": 1, "name": "English", "slug": "english"}, {"id": 5, "name": "German", "slug": "german"}], "places_of_operation": [{"id": 18, "name": "Germany", "slug": "germany"}], "biography": "Katja von Garnier (born 15 December 1966, in Wiesbaden) is a German film director.", "biography_author": "Wikidata", "date_of_biography": "2023-08-01T15:47:19.791800+10:00", "external_links": [{"id": 4471, "uri": "https://en.wikipedia.org/wiki/Katja_von_Garnier"}], "uuid": "7d9c27be-19a9-42d2-8272-07aaf7655480", "source": {"name": "Vernon", "slug": "vernon"}, "source_identifier": "23099", "external_references": [{"id": 25939, "source": {"name": "Wikidata", "slug": "wikidata"}, "source_identifier": "Q67791"}, {"id": 29741, "source": {"name": "VIAF", "slug": "viaf"}, "source_identifier": "78417926"}, {"id": 29742, "source": {"name": "LOC Auth", "slug": "loc-auth"}, "source_identifier": "no99068926"}, {"id": 29743, "source": {"name": "WorldCat", "slug": "worldcat"}, "source_identifier": "lccn-no99068926"}], "date_modified": "2023-09-13T12:30:47.774788+10:00"}, {"id": 32228, "name": "Edward Stanley", "roles_in_work": [{"id": 2471599, "title": "What do they read?", "work_id": 91486, "role": "producer", "role_id": 1089, "is_primary": true}, {"id": 2471505, "title": "Westminster Abbey. - [Rev. version]", "work_id": 90497, "role": "producer", "role_id": 1089, "is_primary": true}], "also_known_as": "", "date_of_birth": "", "date_of_death": "", "genders": [], "languages": [], "places_of_operation": [], "biography": "", "biography_author": null, "date_of_biography": "2023-08-14T12:42:48.672085+10:00", "external_links": [], "uuid": "f3f9309e-65f2-4921-b323-cd2f445efa97", "source": {"name": "Vernon", "slug": "vernon"}, "source_identifier": "18629", "external_references": [], "date_modified": "2023-08-14T12:42:48.672309+10:00"}, {"id": 32227, "name": "Kingdom Productions", "roles_in_work": [{"id": 2471598, "title": "What do they read?", "work_id": 91486, "role": "production company", "role_id": 941, "is_primary": true}, {"id": 2471503, "title": "Westminster Abbey. - [Rev. version]", "work_id": 90497, "role": "production company", "role_id": 941, "is_primary": true}], "also_known_as": "", "date_of_birth": "", "date_of_death": "", "genders": [], "languages": [], "places_of_operation": [], "biography": "", "biography_author": null, "date_of_biography": "2023-08-14T12:42:48.046162+10:00", "external_links": [], "uuid": "58e415e5-d146-42d9-85d7-66b2f7b27aec", "source": {"name": "Vernon", "slug": "vernon"}, "source_identifier": "9774", "external_references": [], "date_modified": "2023-08-14T12:42:48.046386+10:00"}]}