{"count": 28687, "next": "https://api.acmi.net.au/creators/?page=1189", "previous": "https://api.acmi.net.au/creators/?page=1187", "results": [{"id": 73469, "name": "Ben Suthers", "roles_in_work": [{"id": 2635818, "title": "Synthing", "work_id": 108681, "role": "collaborator", "role_id": 536, "is_primary": false}], "also_known_as": "", "date_of_birth": "", "date_of_death": "", "genders": [], "languages": [], "places_of_operation": [], "biography": "", "biography_author": null, "date_of_biography": "2023-05-09T19:11:43.664755+10:00", "external_links": [], "uuid": "953e2d94-6a60-4cdb-a454-aae770585ad2", "source": {"name": "Vernon", "slug": "vernon"}, "source_identifier": "1428", "external_references": [], "date_modified": "2025-03-05T10:29:25.003354+11:00"}, {"id": 73468, "name": "Luke Roberts", "roles_in_work": [{"id": 2637482, "title": "[Spider]", "work_id": 108671, "role": "creator", "role_id": 968, "is_primary": true}], "also_known_as": "", "date_of_birth": "", "date_of_death": "", "genders": [], "languages": [], "places_of_operation": [], "biography": "", "biography_author": null, "date_of_biography": "2023-05-09T15:09:02.177652+10:00", "external_links": [], "uuid": "a2b0c831-e6f0-48b7-8a7e-2c4d1b538b46", "source": {"name": "Vernon", "slug": "vernon"}, "source_identifier": "111663", "external_references": [], "date_modified": "2025-03-05T10:47:28.308256+11:00"}, {"id": 73467, "name": "Paul Capsis", "roles_in_work": [{"id": 2633084, "title": "Let me die, again", "work_id": 108667, "role": "cast", "role_id": 33, "is_primary": false}], "also_known_as": "", "date_of_birth": null, "date_of_death": null, "genders": [], "languages": [], "places_of_operation": [], "biography": "", "biography_author": null, "date_of_biography": null, "external_links": [], "uuid": "01aa62ad-b649-4ae8-9beb-d784d841cc65", "source": {"name": "Vernon", "slug": "vernon"}, "source_identifier": "1307", "external_references": [{"id": 36979, "source": {"name": "Wikidata", "slug": "wikidata"}, "source_identifier": "Q121337652"}], "date_modified": "2025-02-28T22:41:06.341971+11:00"}, {"id": 73466, "name": "Janez Ferlan", "roles_in_work": [{"id": 2633079, "title": "Ron's story", "work_id": 108666, "role": "special effects", "role_id": 929, "is_primary": false}], "also_known_as": "", "date_of_birth": "", "date_of_death": "", "genders": [], "languages": [], "places_of_operation": [], "biography": "", "biography_author": null, "date_of_biography": "2023-05-09T17:14:48.574063+10:00", "external_links": [], "uuid": "3a299842-9545-4924-b43b-18aee9ab6613", "source": {"name": "Vernon", "slug": "vernon"}, "source_identifier": "1343", "external_references": [], "date_modified": "2025-02-28T22:41:03.038131+11:00"}, {"id": 73465, "name": "Stanka Brjevic", "roles_in_work": [{"id": 2633078, "title": "Ron's story", "work_id": 108666, "role": "special effects", "role_id": 929, "is_primary": false}], "also_known_as": "", "date_of_birth": "", "date_of_death": "", "genders": [], "languages": [], "places_of_operation": [], "biography": "", "biography_author": null, "date_of_biography": "2023-05-09T17:14:48.338587+10:00", "external_links": [], "uuid": "b72a72cf-1d56-49f4-b128-d1943c2bbc63", "source": {"name": "Vernon", "slug": "vernon"}, "source_identifier": "1342", "external_references": [], "date_modified": "2025-02-28T22:41:02.420401+11:00"}, {"id": 73464, "name": "Boris Greguric", "roles_in_work": [{"id": 2633077, "title": "Ron's story", "work_id": 108666, "role": "editor", "role_id": 918, "is_primary": true}], "also_known_as": "", "date_of_birth": "", "date_of_death": "", "genders": [], "languages": [], "places_of_operation": [], "biography": "", "biography_author": null, "date_of_biography": "2023-05-09T17:14:48.094567+10:00", "external_links": [], "uuid": "24875bbb-82da-465f-a2f1-bd5e66af1ef1", "source": {"name": "Vernon", "slug": "vernon"}, "source_identifier": "1341", "external_references": [{"id": 38124, "source": {"name": "Wikidata", "slug": "wikidata"}, "source_identifier": "Q121036283"}], "date_modified": "2025-02-28T22:41:01.821709+11:00"}, {"id": 73463, "name": "Tim Browning", "roles_in_work": [{"id": 2619475, "title": "Dalai Lama in Australia production", "work_id": 108656, "role": "creator", "role_id": 968, "is_primary": true}], "also_known_as": "", "date_of_birth": "", "date_of_death": "", "genders": [{"id": 9, "name": "Male", "slug": "male"}], "languages": [], "places_of_operation": [], "biography": "", "biography_author": null, "date_of_biography": "2023-05-09T14:31:17.517183+10:00", "external_links": [], "uuid": "3b14f6d9-f848-479e-89b6-6b1abcfede8f", "source": {"name": "Vernon", "slug": "vernon"}, "source_identifier": "111629", "external_references": [], "date_modified": "2025-02-26T23:12:36.888153+11:00"}, {"id": 73462, "name": "Brian McKenzie", "roles_in_work": [{"id": 2308435, "title": "Stan and George's new life", "work_id": 83988, "role": "director", "role_id": 938, "is_primary": true}, {"id": 3105787, "title": "The Last days work", "work_id": 79047, "role": "director", "role_id": 938, "is_primary": true}, {"id": 766434, "title": "I'll be home for Christmas", "work_id": 78164, "role": "director", "role_id": 938, "is_primary": true}, {"id": 2291529, "title": "With Love to the Person Next to Me", "work_id": 80972, "role": "director", "role_id": 938, "is_primary": true}, {"id": 767941, "title": "I Call It Home", "work_id": 78745, "role": "director", "role_id": 938, "is_primary": true}, {"id": 911334, "title": "Kelvin and his friends", "work_id": 92088, "role": "director", "role_id": 938, "is_primary": true}, {"id": 2189833, "title": "Pat and Eddy's greyhound racing family", "work_id": 92227, "role": "director", "role_id": 938, "is_primary": true}, {"id": 2287528, "title": "Winter's harvest = Raccolta d'inverno", "work_id": 76220, "role": "director", "role_id": 938, "is_primary": true}, {"id": 2072801, "title": "A Place to belong", "work_id": 83289, "role": "director", "role_id": 938, "is_primary": true}, {"id": 2633045, "title": "Winter's harvest", "work_id": 108653, "role": "director", "role_id": 938, "is_primary": true}, {"id": 2633044, "title": "Winter's harvest", "work_id": 108653, "role": "creator", "role_id": 968, "is_primary": true}, {"id": 2287541, "title": "Winter's harvest = Raccolta d'inverno", "work_id": 76220, "role": "cinematographer", "role_id": 32, "is_primary": false}, {"id": 911333, "title": "Kelvin and his friends", "work_id": 92088, "role": "co-producer", "role_id": 915, "is_primary": true}, {"id": 3085661, "title": "Family foibles", "work_id": 115610, "role": "co-producer", "role_id": 915, "is_primary": true}, {"id": 2287522, "title": "Winter's harvest = Raccolta d'inverno", "work_id": 76220, "role": "co-producer", "role_id": 915, "is_primary": true}, {"id": 2633043, "title": "Winter's harvest", "work_id": 108653, "role": "director of photography", "role_id": 925, "is_primary": false}, {"id": 2159338, "title": "On the waves of the Adriatic", "work_id": 86978, "role": "producer/director", "role_id": 31, "is_primary": true}, {"id": 2633046, "title": "Winter's harvest", "work_id": 108653, "role": "production company", "role_id": 941, "is_primary": true}, {"id": 2633042, "title": "Winter's harvest", "work_id": 108653, "role": "writer", "role_id": 939, "is_primary": true}], "also_known_as": "", "date_of_birth": "", "date_of_death": "", "genders": [], "languages": [], "places_of_operation": [], "biography": "", "biography_author": null, "date_of_biography": "2023-05-09T18:48:40.378580+10:00", "external_links": [], "uuid": "b37d5546-782a-4d9d-ad67-f347cec4a2ae", "source": {"name": "Vernon", "slug": "vernon"}, "source_identifier": "111614", "external_references": [{"id": 39173, "source": {"name": "Wikidata", "slug": "wikidata"}, "source_identifier": "Q117858976"}], "date_modified": "2025-05-29T22:35:12.721331+10:00"}, {"id": 73461, "name": "Mark Tarpey", "roles_in_work": [{"id": 2633041, "title": "Winter's harvest", "work_id": 108653, "role": "sound", "role_id": 952, "is_primary": false}], "also_known_as": "", "date_of_birth": "", "date_of_death": "", "genders": [], "languages": [], "places_of_operation": [], "biography": "", "biography_author": null, "date_of_biography": "2023-05-09T18:12:16.028280+10:00", "external_links": [], "uuid": "86703e1c-ae99-4424-afd1-697ade1cb083", "source": {"name": "Vernon", "slug": "vernon"}, "source_identifier": "1668", "external_references": [], "date_modified": "2025-02-28T22:40:28.550705+11:00"}, {"id": 73460, "name": "Tom Walsh", "roles_in_work": [{"id": 3106934, "title": "Blue", "work_id": 108652, "role": "music", "role_id": 949, "is_primary": false}], "also_known_as": "", "date_of_birth": "", "date_of_death": "", "genders": [], "languages": [], "places_of_operation": [], "biography": "", "biography_author": null, "date_of_biography": "2023-05-09T13:03:58.737622+10:00", "external_links": [], "uuid": "949fe215-37fb-46d6-8ee8-9de17660148c", "source": {"name": "Vernon", "slug": "vernon"}, "source_identifier": "1736", "external_references": [{"id": 52035, "source": {"name": "Wikidata", "slug": "wikidata"}, "source_identifier": "Q121360861"}], "date_modified": "2025-08-20T15:08:35.699788+10:00"}]}