{"count": 28687, "next": "https://api.acmi.net.au/creators/?page=1702", "previous": "https://api.acmi.net.au/creators/?page=1700", "results": [{"id": 28595, "name": "Quartet", "roles_in_work": [{"id": 2616007, "title": "Eating Raoul", "work_id": 86573, "role": "production company", "role_id": 941, "is_primary": true}], "also_known_as": "", "date_of_birth": "", "date_of_death": "", "genders": [], "languages": [], "places_of_operation": [], "biography": "", "biography_author": null, "date_of_biography": "2023-05-09T15:52:35.132030+10:00", "external_links": [], "uuid": "01d5963f-9752-421d-83fe-414fe3eabef8", "source": {"name": "Vernon", "slug": "vernon"}, "source_identifier": "11762", "external_references": [{"id": 43279, "source": {"name": "Wikidata", "slug": "wikidata"}, "source_identifier": "Q121223389"}], "date_modified": "2025-02-26T20:32:40.390329+11:00"}, {"id": 28594, "name": "International Classis", "roles_in_work": [{"id": 2616006, "title": "Eating Raoul", "work_id": 86573, "role": "production company", "role_id": 941, "is_primary": true}], "also_known_as": "", "date_of_birth": "", "date_of_death": "", "genders": [], "languages": [], "places_of_operation": [], "biography": "", "biography_author": null, "date_of_biography": "2023-05-09T15:52:34.898557+10:00", "external_links": [], "uuid": "e5a24393-9f31-4069-87c1-eaa882e8e783", "source": {"name": "Vernon", "slug": "vernon"}, "source_identifier": "9371", "external_references": [{"id": 41611, "source": {"name": "Wikidata", "slug": "wikidata"}, "source_identifier": "Q121223128"}], "date_modified": "2025-02-26T20:32:39.793951+11:00"}, {"id": 28593, "name": "Thin Man", "roles_in_work": [{"id": 2266066, "title": "Secrets & lies = Secrets and lies [DVD]", "work_id": 92795, "role": "production company", "role_id": 941, "is_primary": true}], "also_known_as": "", "date_of_birth": "", "date_of_death": "", "genders": [], "languages": [], "places_of_operation": [], "biography": "", "biography_author": null, "date_of_biography": "2023-05-09T17:37:48.398438+10:00", "external_links": [], "uuid": "aeafc4d8-376a-429a-bc07-b052780d12d1", "source": {"name": "Vernon", "slug": "vernon"}, "source_identifier": "13481", "external_references": [], "date_modified": "2023-06-14T16:33:30.576250+10:00"}, {"id": 28590, "name": "Julian Farino", "roles_in_work": [{"id": 2180251, "title": "Our Mutual friend", "work_id": 86547, "role": "director", "role_id": 938, "is_primary": true}], "also_known_as": "", "date_of_birth": "1965-12-12", "date_of_death": "", "genders": [{"id": 9, "name": "Male", "slug": "male"}], "languages": [{"id": 1, "name": "English", "slug": "english"}], "places_of_operation": [{"id": 10, "name": "United Kingdom", "slug": "united-kingdom"}], "biography": "Julian Farino (born 12 December 1965) is an English film and television producer and director. He is most well-known for directing much of the first three seasons of the HBO series Entourage.", "biography_author": "Wikidata", "date_of_biography": "2023-09-05T21:55:20.830153+10:00", "external_links": [{"id": 5946, "uri": "https://en.wikipedia.org/wiki/Julian_Farino"}], "uuid": "3693765c-52dc-4ab2-aa3c-5e4ae7b2ac50", "source": {"name": "Vernon", "slug": "vernon"}, "source_identifier": "22860", "external_references": [{"id": 36268, "source": {"name": "Wikidata", "slug": "wikidata"}, "source_identifier": "Q15500352"}, {"id": 54948, "source": {"name": "VIAF", "slug": "viaf"}, "source_identifier": "66276435"}, {"id": 54949, "source": {"name": "LOC Auth", "slug": "loc-auth"}, "source_identifier": "no2008050095"}, {"id": 54950, "source": {"name": "WorldCat", "slug": "worldcat"}, "source_identifier": "lccn-no2008050095"}], "date_modified": "2023-09-05T21:55:20.850793+10:00"}, {"id": 28589, "name": "Catherine Wearing", "roles_in_work": [{"id": 2180247, "title": "Our Mutual friend", "work_id": 86547, "role": "producer", "role_id": 1089, "is_primary": true}], "also_known_as": "", "date_of_birth": "", "date_of_death": "", "genders": [], "languages": [], "places_of_operation": [], "biography": "", "biography_author": null, "date_of_biography": "2023-05-09T14:51:36.431595+10:00", "external_links": [], "uuid": "0941873f-1132-4069-b6dc-518ec032bf6c", "source": {"name": "Vernon", "slug": "vernon"}, "source_identifier": "16606", "external_references": [{"id": 34963, "source": {"name": "Wikidata", "slug": "wikidata"}, "source_identifier": "Q121035410"}], "date_modified": "2023-09-05T18:22:46.494205+10:00"}, {"id": 28588, "name": "Mark Herman", "roles_in_work": [{"id": 2123529, "title": "Brassed off", "work_id": 86545, "role": "director", "role_id": 938, "is_primary": true}, {"id": 1848133, "title": "Little voice", "work_id": 91696, "role": "director", "role_id": 938, "is_primary": true}], "also_known_as": "", "date_of_birth": "1954-01-01", "date_of_death": null, "genders": [{"id": 9, "name": "Male", "slug": "male"}], "languages": [{"id": 1, "name": "English", "slug": "english"}], "places_of_operation": [{"id": 10, "name": "United Kingdom", "slug": "united-kingdom"}], "biography": "Mark Herman (born 1954) is an English film director and screenwriter, best known for writing and directing the 2008 film The Boy in the Striped Pyjamas.", "biography_author": "Wikidata", "date_of_biography": "2022-05-19T12:22:35.291799+10:00", "external_links": [{"id": 2641, "uri": "https://en.wikipedia.org/wiki/Mark_Herman"}], "uuid": "df38e2c5-0bf7-49b5-a5c7-0619de92d2e1", "source": {"name": "Vernon", "slug": "vernon"}, "source_identifier": "24501", "external_references": [{"id": 11281, "source": {"name": "Wikidata", "slug": "wikidata"}, "source_identifier": "Q1900142"}, {"id": 11282, "source": {"name": "VIAF", "slug": "viaf"}, "source_identifier": "2671428"}, {"id": 11283, "source": {"name": "LOC Auth", "slug": "loc-auth"}, "source_identifier": "n93009028"}, {"id": 11284, "source": {"name": "WorldCat", "slug": "worldcat"}, "source_identifier": "lccn-n93009028"}], "date_modified": "2023-09-13T12:31:13.925812+10:00"}, {"id": 28587, "name": "Steve Abbot", "roles_in_work": [{"id": 2123526, "title": "Brassed off", "work_id": 86545, "role": "producer", "role_id": 1089, "is_primary": true}], "also_known_as": "", "date_of_birth": "", "date_of_death": "", "genders": [], "languages": [], "places_of_operation": [], "biography": "", "biography_author": null, "date_of_biography": "2023-05-09T13:07:15.161870+10:00", "external_links": [], "uuid": "e0123a75-c765-48e3-9a55-78929cb7d556", "source": {"name": "Vernon", "slug": "vernon"}, "source_identifier": "29104", "external_references": [{"id": 38895, "source": {"name": "Wikidata", "slug": "wikidata"}, "source_identifier": "Q121126747"}], "date_modified": "2023-09-06T01:30:02.990010+10:00"}, {"id": 28586, "name": "Peter Cattaneo", "roles_in_work": [{"id": 2349624, "title": "The Full Monty", "work_id": 86544, "role": "director", "role_id": 938, "is_primary": true}], "also_known_as": "", "date_of_birth": "1964-07-01", "date_of_death": null, "genders": [{"id": 9, "name": "Male", "slug": "male"}], "languages": [{"id": 1, "name": "English", "slug": "english"}], "places_of_operation": [{"id": 10, "name": "United Kingdom", "slug": "united-kingdom"}], "biography": "Peter Joseph Cattaneo MBE (born 1 July 1964) is a British filmmaker. He is most known for directing the comedy film The Full Monty, for which he won the MTV Movie Award for Best New Filmmaker.", "biography_author": "Wikidata", "date_of_biography": "2022-05-19T12:41:14.708953+10:00", "external_links": [{"id": 2847, "uri": "https://en.wikipedia.org/wiki/Peter_Cattaneo"}], "uuid": "6b9f0b07-9652-4755-a5a7-d5595608f9a8", "source": {"name": "Vernon", "slug": "vernon"}, "source_identifier": "26490", "external_references": [{"id": 12112, "source": {"name": "Wikidata", "slug": "wikidata"}, "source_identifier": "Q1241761"}, {"id": 12113, "source": {"name": "VIAF", "slug": "viaf"}, "source_identifier": "85811270"}, {"id": 12114, "source": {"name": "LOC Auth", "slug": "loc-auth"}, "source_identifier": "no2011065877"}, {"id": 12115, "source": {"name": "WorldCat", "slug": "worldcat"}, "source_identifier": "lccn-no2011065877"}], "date_modified": "2023-09-13T12:31:52.382095+10:00"}, {"id": 28585, "name": "Uberto Pasolini", "roles_in_work": [{"id": 2349622, "title": "The Full Monty", "work_id": 86544, "role": "producer", "role_id": 1089, "is_primary": true}], "also_known_as": "", "date_of_birth": "1957-05-01", "date_of_death": null, "genders": [{"id": 9, "name": "Male", "slug": "male"}], "languages": [{"id": 6, "name": "Italian", "slug": "italian"}], "places_of_operation": [{"id": 19, "name": "Italy", "slug": "italy"}], "biography": "Uberto Pasolini Dall'Onda (born 1 May 1957 in Rome, Italy) is an Italian film producer, director, and former investment banker known for producing the 1997 film The Full Monty and directing and producing the 2008 film Machan and the 2013 film Still Life.", "biography_author": "Wikidata", "date_of_biography": "2022-05-19T13:17:41.791577+10:00", "external_links": [{"id": 3238, "uri": "https://en.wikipedia.org/wiki/Uberto_Pasolini"}], "uuid": "a02cfb20-7a38-4f6a-aa66-c8434127eec7", "source": {"name": "Vernon", "slug": "vernon"}, "source_identifier": "30012", "external_references": [{"id": 13706, "source": {"name": "Wikidata", "slug": "wikidata"}, "source_identifier": "Q3547630"}, {"id": 13707, "source": {"name": "VIAF", "slug": "viaf"}, "source_identifier": "121909627"}, {"id": 13708, "source": {"name": "LOC Auth", "slug": "loc-auth"}, "source_identifier": "no99002274"}, {"id": 13709, "source": {"name": "WorldCat", "slug": "worldcat"}, "source_identifier": "lccn-no99002274"}], "date_modified": "2023-09-13T12:33:07.213683+10:00"}, {"id": 28584, "name": "Redwave Productions", "roles_in_work": [{"id": 2349618, "title": "The Full Monty", "work_id": 86544, "role": "production company", "role_id": 941, "is_primary": true}], "also_known_as": "", "date_of_birth": "", "date_of_death": "", "genders": [], "languages": [], "places_of_operation": [], "biography": "", "biography_author": null, "date_of_biography": "2023-05-09T19:53:54.234961+10:00", "external_links": [], "uuid": "abb04e59-1f5b-4491-8bad-19dbf325adc7", "source": {"name": "Vernon", "slug": "vernon"}, "source_identifier": "11919", "external_references": [{"id": 35857, "source": {"name": "Wikidata", "slug": "wikidata"}, "source_identifier": "Q121034483"}], "date_modified": "2023-09-06T00:24:29.593023+10:00"}]}