{"count": 28687, "next": "https://api.acmi.net.au/creators/?page=1615", "previous": "https://api.acmi.net.au/creators/?page=1613", "results": [{"id": 30651, "name": "Stamen Films", "roles_in_work": [{"id": 2324872, "title": "Thank god he met Lizzie", "work_id": 88618, "role": "production company", "role_id": 941, "is_primary": true}], "also_known_as": "", "date_of_birth": "", "date_of_death": "", "genders": [], "languages": [], "places_of_operation": [], "biography": "", "biography_author": null, "date_of_biography": "2023-05-09T19:17:32.338732+10:00", "external_links": [], "uuid": "d6bf43ab-ec31-4106-917d-6d06f11e0123", "source": {"name": "Vernon", "slug": "vernon"}, "source_identifier": "12906", "external_references": [{"id": 40242, "source": {"name": "Wikidata", "slug": "wikidata"}, "source_identifier": "Q121270672"}], "date_modified": "2023-09-06T01:25:46.966157+10:00"}, {"id": 30647, "name": "Paul Maslansky", "roles_in_work": [{"id": 1993082, "title": "The Russia house", "work_id": 88607, "role": "co-producer", "role_id": 915, "is_primary": true}, {"id": 2249824, "title": "Return to Oz", "work_id": 95267, "role": "producer", "role_id": 1089, "is_primary": true}], "also_known_as": "", "date_of_birth": "1933-11-23", "date_of_death": "", "genders": [{"id": 9, "name": "Male", "slug": "male"}], "languages": [{"id": 1, "name": "English", "slug": "english"}], "places_of_operation": [{"id": 1, "name": "United States of America", "slug": "united-states-of-america"}], "biography": "Paul Marc Maslansky (born November 23, 1933) is an American film producer and writer best known for the Police Academy movies.", "biography_author": "Wikidata", "date_of_biography": "2023-09-05T23:47:41.669312+10:00", "external_links": [{"id": 6087, "uri": "https://en.wikipedia.org/wiki/Paul_Maslansky"}], "uuid": "1fe70c90-08df-4664-8b91-11a74bbbd55f", "source": {"name": "Vernon", "slug": "vernon"}, "source_identifier": "26283", "external_references": [{"id": 50545, "source": {"name": "Wikidata", "slug": "wikidata"}, "source_identifier": "Q2061182"}, {"id": 55445, "source": {"name": "VIAF", "slug": "viaf"}, "source_identifier": "263392019"}, {"id": 55446, "source": {"name": "LOC Auth", "slug": "loc-auth"}, "source_identifier": "no00036683"}, {"id": 55447, "source": {"name": "WorldCat", "slug": "worldcat"}, "source_identifier": "lccn-no00036683"}], "date_modified": "2023-09-05T23:47:46.696651+10:00"}, {"id": 30643, "name": "Victoria. Visual Education Centre", "roles_in_work": [{"id": 2392769, "title": "The Bristol school", "work_id": 95702, "role": "production company", "role_id": 941, "is_primary": true}, {"id": 825191, "title": "The Children's physical education display on the Melbourne Cricket Ground", "work_id": 95725, "role": "production company", "role_id": 941, "is_primary": true}, {"id": 874156, "title": "Prelude to fractions", "work_id": 88599, "role": "production company", "role_id": 941, "is_primary": true}, {"id": 918245, "title": "Burwood Teachers' College", "work_id": 95665, "role": "production company", "role_id": 941, "is_primary": true}], "also_known_as": "", "date_of_birth": "", "date_of_death": "", "genders": [], "languages": [], "places_of_operation": [], "biography": "", "biography_author": null, "date_of_biography": "2023-08-09T04:08:21.254826+10:00", "external_links": [], "uuid": "b1273c5a-fd65-4dce-bfc6-96c0a68314e5", "source": {"name": "Vernon", "slug": "vernon"}, "source_identifier": "7750", "external_references": [{"id": 42117, "source": {"name": "Wikidata", "slug": "wikidata"}, "source_identifier": "Q121337420"}], "date_modified": "2023-09-06T02:05:49.050984+10:00"}, {"id": 30629, "name": "National General Pictures", "roles_in_work": [{"id": 2135511, "title": "Charro !", "work_id": 88586, "role": "production company", "role_id": 941, "is_primary": true}, {"id": 2337009, "title": "The Chinese connection = Fist of fury", "work_id": 89521, "role": "production company", "role_id": 941, "is_primary": true}], "also_known_as": "", "date_of_birth": "", "date_of_death": "", "genders": [], "languages": [], "places_of_operation": [], "biography": "National General Corporation (NGC) was a theater chain holding company, film distribution and production company and was considered one of the \"instant majors\".  It was in operation from 1951 to 1974.", "biography_author": "Wikidata", "date_of_biography": "2023-09-05T23:26:06.234786+10:00", "external_links": [{"id": 6060, "uri": "https://en.wikipedia.org/wiki/National_General_Pictures"}], "uuid": "9ccea0cb-2ba6-4720-bb1a-182b6f4e32c7", "source": {"name": "Vernon", "slug": "vernon"}, "source_identifier": "10811", "external_references": [{"id": 51258, "source": {"name": "Wikidata", "slug": "wikidata"}, "source_identifier": "Q6972872"}, {"id": 55343, "source": {"name": "VIAF", "slug": "viaf"}, "source_identifier": "133819533"}, {"id": 55344, "source": {"name": "LOC Auth", "slug": "loc-auth"}, "source_identifier": "no98094840"}, {"id": 55345, "source": {"name": "WorldCat", "slug": "worldcat"}, "source_identifier": "lccn-no98094840"}], "date_modified": "2023-09-05T23:26:06.254416+10:00"}, {"id": 30625, "name": "Edmee Campbell-Dobbie", "roles_in_work": [{"id": 2473989, "title": "Children of the Musgraves", "work_id": 88579, "role": "director", "role_id": 938, "is_primary": true}], "also_known_as": "", "date_of_birth": "", "date_of_death": "", "genders": [], "languages": [], "places_of_operation": [], "biography": "", "biography_author": null, "date_of_biography": "2023-08-16T03:41:07.157563+10:00", "external_links": [], "uuid": "2ae4fcdb-b8cf-488b-b10e-2b2abea858af", "source": {"name": "Vernon", "slug": "vernon"}, "source_identifier": "18561", "external_references": [{"id": 33425, "source": {"name": "Wikidata", "slug": "wikidata"}, "source_identifier": "Q121126771"}], "date_modified": "2023-09-05T19:24:13.924971+10:00"}, {"id": 30624, "name": "Alfred Zeisler", "roles_in_work": [{"id": 874122, "title": "Crime over London", "work_id": 88573, "role": "director", "role_id": 938, "is_primary": true}, {"id": 2327100, "title": "The Amazing adventure", "work_id": 92782, "role": "producer/director", "role_id": 31, "is_primary": true}], "also_known_as": "", "date_of_birth": "1892-09-26", "date_of_death": "1985-03-01", "genders": [{"id": 9, "name": "Male", "slug": "male"}], "languages": [{"id": 1, "name": "English", "slug": "english"}, {"id": 5, "name": "German", "slug": "german"}], "places_of_operation": [{"id": 1, "name": "United States of America", "slug": "united-states-of-america"}], "biography": "Alfred Zeisler (September 26, 1892 – March 1, 1985) was an American-born German film producer, director, actor and screenwriter. He produced 29 films between 1927 and 1936. He also directed 16 films between 1924 and 1949.", "biography_author": "Wikidata", "date_of_biography": "2023-08-01T13:59:35.318978+10:00", "external_links": [{"id": 3527, "uri": "https://en.wikipedia.org/wiki/Alfred_Zeisler"}], "uuid": "ffa7fa46-6e93-4473-9316-b20acca80aa8", "source": {"name": "Vernon", "slug": "vernon"}, "source_identifier": "14963", "external_references": [{"id": 26221, "source": {"name": "Wikidata", "slug": "wikidata"}, "source_identifier": "Q78298"}, {"id": 27193, "source": {"name": "VIAF", "slug": "viaf"}, "source_identifier": "52812638"}, {"id": 27194, "source": {"name": "LOC Auth", "slug": "loc-auth"}, "source_identifier": "no96067588"}, {"id": 27195, "source": {"name": "WorldCat", "slug": "worldcat"}, "source_identifier": "lccn-no96067588"}], "date_modified": "2023-09-05T17:28:23.735701+10:00"}, {"id": 30623, "name": "Marcel Hellman", "roles_in_work": [{"id": 1993365, "title": "Accused", "work_id": 89000, "role": "co-producer", "role_id": 915, "is_primary": true}, {"id": 1809764, "title": "Crime over London", "work_id": 88573, "role": "producer", "role_id": 1089, "is_primary": true}, {"id": 1995033, "title": "Jump for glory", "work_id": 91010, "role": "producer", "role_id": 1089, "is_primary": true}, {"id": 1814261, "title": "The Amateur gentleman", "work_id": 89826, "role": "producer", "role_id": 1089, "is_primary": true}, {"id": 1997592, "title": "Happy go lovely", "work_id": 93379, "role": "producer", "role_id": 1089, "is_primary": true}], "also_known_as": "", "date_of_birth": "1898-05-31", "date_of_death": "1986-04-28", "genders": [{"id": 9, "name": "Male", "slug": "male"}], "languages": [{"id": 1, "name": "English", "slug": "english"}], "places_of_operation": [{"id": 10, "name": "United Kingdom", "slug": "united-kingdom"}], "biography": "Marcel Hellman (31 May 1898 – 28 April 1986) was a Romanian-born British film producer, who worked closely with Douglas Fairbanks Jr. and Harold French.\nIn 1936 he founded Criterion Film Productions together with Douglas Fairbanks Jr., which produced four films with Fairbanks in the lead, and in 1942 he started a production company known as Excelsior Films Ltd, which in the late 1950s changed name to Marcel Hellman Productions.", "biography_author": "Wikidata", "date_of_biography": "2022-05-19T12:20:50.930605+10:00", "external_links": [{"id": 2622, "uri": "https://en.wikipedia.org/wiki/Marcel_Hellman"}], "uuid": "2e23ce40-e19b-4d6c-bcde-59d8c0f5be5e", "source": {"name": "Vernon", "slug": "vernon"}, "source_identifier": "24303", "external_references": [{"id": 11210, "source": {"name": "Wikidata", "slug": "wikidata"}, "source_identifier": "Q215151"}, {"id": 11211, "source": {"name": "VIAF", "slug": "viaf"}, "source_identifier": "4392154983543567860002"}], "date_modified": "2023-09-13T12:31:10.155420+10:00"}, {"id": 30616, "name": "Video Pro", "roles_in_work": [{"id": 2410058, "title": "How to use your video camera", "work_id": 88568, "role": "production company", "role_id": 941, "is_primary": true}], "also_known_as": "", "date_of_birth": "", "date_of_death": "", "genders": [], "languages": [], "places_of_operation": [], "biography": "", "biography_author": null, "date_of_biography": "2023-08-11T17:34:58.886994+10:00", "external_links": [], "uuid": "a37c2f52-7fbf-4217-9208-e3b88f19b20c", "source": {"name": "Vernon", "slug": "vernon"}, "source_identifier": "14112", "external_references": [], "date_modified": "2023-08-11T17:34:58.887248+10:00"}, {"id": 30612, "name": "Fiveson Productions", "roles_in_work": [{"id": 2315281, "title": "Stress: your own worst enemy", "work_id": 88565, "role": "production company", "role_id": 941, "is_primary": true}], "also_known_as": "", "date_of_birth": "", "date_of_death": "", "genders": [], "languages": [], "places_of_operation": [], "biography": "", "biography_author": null, "date_of_biography": "2023-05-09T19:03:16.968658+10:00", "external_links": [], "uuid": "4b031f03-77a9-4c97-9229-af6a12fdbdd2", "source": {"name": "Vernon", "slug": "vernon"}, "source_identifier": "8386", "external_references": [{"id": 32448, "source": {"name": "Wikidata", "slug": "wikidata"}, "source_identifier": "Q121271024"}], "date_modified": "2023-09-05T19:44:23.500680+10:00"}, {"id": 30611, "name": "Moynihan Associates", "roles_in_work": [{"id": 2472004, "title": "Word processing: kissing the girls goodbye", "work_id": 90932, "role": "production company", "role_id": 941, "is_primary": true}, {"id": 2472005, "title": "Word processing: worries and wonders", "work_id": 88563, "role": "production company", "role_id": 941, "is_primary": true}], "also_known_as": "", "date_of_birth": "", "date_of_death": "", "genders": [], "languages": [], "places_of_operation": [], "biography": "", "biography_author": null, "date_of_biography": "2023-08-14T12:51:26.757209+10:00", "external_links": [], "uuid": "6e63d8c5-3ba7-49ca-8761-3fe8ef2d550e", "source": {"name": "Vernon", "slug": "vernon"}, "source_identifier": "10684", "external_references": [], "date_modified": "2023-08-14T12:51:26.757446+10:00"}]}