{"count": 28687, "next": "https://api.acmi.net.au/creators/?page=2029", "previous": "https://api.acmi.net.au/creators/?page=2027", "results": [{"id": 22003, "name": "Hunt Stromberg", "roles_in_work": [{"id": 2247126, "title": "Red dust", "work_id": 88441, "role": "co-producer", "role_id": 915, "is_primary": true}, {"id": 1997596, "title": "Lady of burlesque", "work_id": 93380, "role": "producer", "role_id": 1089, "is_primary": true}, {"id": 2476620, "title": "Northwest passage", "work_id": 95609, "role": "producer", "role_id": 1089, "is_primary": true}, {"id": 2228982, "title": "Pride and prejudice (S) (Captioned)", "work_id": 85193, "role": "producer", "role_id": 1089, "is_primary": true}, {"id": 2228963, "title": "Pride and prejudice", "work_id": 79529, "role": "producer", "role_id": 1089, "is_primary": true}, {"id": 1811352, "title": "The Women [DVD]", "work_id": 94583, "role": "producer", "role_id": 1089, "is_primary": true}, {"id": 2649393, "title": "Maytime", "work_id": 81463, "role": "producer", "role_id": 1089, "is_primary": true}, {"id": 2254484, "title": "Rose Marie", "work_id": 81734, "role": "producer", "role_id": 1089, "is_primary": true}, {"id": 2270938, "title": "The Thin man", "work_id": 81332, "role": "producer", "role_id": 1089, "is_primary": true}], "also_known_as": "", "date_of_birth": "1894-07-12", "date_of_death": "1968-08-23", "genders": [{"id": 9, "name": "Male", "slug": "male"}], "languages": [{"id": 1, "name": "English", "slug": "english"}], "places_of_operation": [{"id": 1, "name": "United States of America", "slug": "united-states-of-america"}], "biography": "Hunt Stromberg (July 12, 1894 – August 23, 1968) was a film producer during Hollywood's Golden Age. In a prolific 30-year career beginning in 1921, Stromberg produced, wrote, and directed some of Hollywood's most profitable and enduring films, including The Thin Man series, the Nelson Eddy/Jeanette MacDonald operettas, The Women, and The Great Ziegfeld, which won the Academy Award for Best Picture of 1936.", "biography_author": "Wikidata", "date_of_biography": "2022-05-19T11:46:55+10:00", "external_links": [{"id": 2250, "uri": "https://en.wikipedia.org/wiki/Hunt_Stromberg"}], "uuid": "603e8882-c43f-41c8-96b5-809ff658b431", "source": {"name": "Vernon", "slug": "vernon"}, "source_identifier": "20715", "external_references": [{"id": 9664, "source": {"name": "Wikidata", "slug": "wikidata"}, "source_identifier": "Q1638070"}, {"id": 9665, "source": {"name": "VIAF", "slug": "viaf"}, "source_identifier": "52007849"}, {"id": 9666, "source": {"name": "LOC Auth", "slug": "loc-auth"}, "source_identifier": "n85151847"}, {"id": 9667, "source": {"name": "WorldCat", "slug": "worldcat"}, "source_identifier": "lccn-n85151847"}], "date_modified": "2025-03-05T14:01:06.768325+11:00"}, {"id": 22002, "name": "George Pal", "roles_in_work": [{"id": 1984241, "title": "Tom Thumb", "work_id": 79614, "role": "director", "role_id": 938, "is_primary": true}, {"id": 1815735, "title": "Prospecting for petroleum", "work_id": 89838, "role": "producer", "role_id": 1089, "is_primary": true}, {"id": 1991420, "title": "Wonderful world of the Brothers Grimm", "work_id": 87148, "role": "producer", "role_id": 1089, "is_primary": true}, {"id": 1988852, "title": "The War of the worlds", "work_id": 84906, "role": "producer", "role_id": 1089, "is_primary": true}, {"id": 775471, "title": "The Seven Faces of Dr Lao", "work_id": 81439, "role": "producer/director", "role_id": 31, "is_primary": true}], "also_known_as": "Marczincsak György Pál", "date_of_birth": "1908-02-01", "date_of_death": "1980-05-02", "genders": [{"id": 9, "name": "Male", "slug": "male"}], "languages": [{"id": 1, "name": "English", "slug": "english"}], "places_of_operation": [{"id": 25, "name": "Hungary", "slug": "hungary"}], "biography": "George Pal (born György Pál Marczincsak; Hungarian: [ˈmɒrt͡sint͡ʃɒk ˈɟørɟ ˈpɑːl]; February 1, 1908 – May 2, 1980) was a Hungarian-American animator, film director and producer, principally associated with the fantasy and science-fiction genres. He became an American citizen after emigrating from Europe.\r\nHe was nominated for Academy Awards (in the category Best Short Subjects, Cartoon) for seven consecutive years (1942–1948) and received an honorary award in 1944. This makes him the second-most nominated Hungarian exile (together with William S. Darling and Ernest Laszlo) after Miklós Rózsa.", "biography_author": "Wikidata", "date_of_biography": "2023-08-01T14:59:02+10:00", "external_links": [{"id": 4051, "uri": "https://en.wikipedia.org/wiki/George_Pal"}], "uuid": "c11a41b8-1a0c-4234-8c2b-620429638243", "source": {"name": "Vernon", "slug": "vernon"}, "source_identifier": "19655", "external_references": [{"id": 25320, "source": {"name": "Wikidata", "slug": "wikidata"}, "source_identifier": "Q731331"}, {"id": 28624, "source": {"name": "VIAF", "slug": "viaf"}, "source_identifier": "76501106"}, {"id": 28625, "source": {"name": "LOC Auth", "slug": "loc-auth"}, "source_identifier": "n84050504"}, {"id": 28626, "source": {"name": "WorldCat", "slug": "worldcat"}, "source_identifier": "lccn-n84050504"}], "date_modified": "2023-09-13T13:04:23.202881+10:00"}, {"id": 22001, "name": "Galaxy Films", "roles_in_work": [{"id": 2476497, "title": "Godzilla: king of the monsters", "work_id": 87172, "role": "production company", "role_id": 941, "is_primary": true}], "also_known_as": "", "date_of_birth": "", "date_of_death": "", "genders": [], "languages": [], "places_of_operation": [], "biography": "", "biography_author": null, "date_of_biography": "2023-08-17T15:37:26.332071+10:00", "external_links": [], "uuid": "7019e708-3484-48bc-b001-5c379ef1252b", "source": {"name": "Vernon", "slug": "vernon"}, "source_identifier": "3951", "external_references": [], "date_modified": "2023-08-17T15:37:26.332347+10:00"}, {"id": 21998, "name": "London Weekend Television", "roles_in_work": [{"id": 1845681, "title": "Maria Callas", "work_id": 79522, "role": "co-producer", "role_id": 915, "is_primary": true}, {"id": 2754843, "title": "The Global warming. Parts 1 & 2", "work_id": 99396, "role": "production company", "role_id": 941, "is_primary": true}, {"id": 3083906, "title": "Francis Bacon", "work_id": 92601, "role": "production company", "role_id": 941, "is_primary": true}, {"id": 1987658, "title": "Hullabaloo over Georgie & Bonnie's pictures", "work_id": 83857, "role": "production company", "role_id": 941, "is_primary": true}, {"id": 885525, "title": "It'll be alright on the night. 3", "work_id": 95381, "role": "production company", "role_id": 941, "is_primary": true}, {"id": 2754876, "title": "The Climate machine. Parts 1 & 2", "work_id": 99408, "role": "production company", "role_id": 941, "is_primary": true}, {"id": 2213002, "title": "Early days", "work_id": 94522, "role": "production company", "role_id": 941, "is_primary": true}, {"id": 2351511, "title": "Climate & man", "work_id": 115375, "role": "production company", "role_id": 941, "is_primary": true}, {"id": 2122802, "title": "Bosnia at war: we are all neighbours", "work_id": 85416, "role": "production company", "role_id": 941, "is_primary": true}, {"id": 814812, "title": "Henrik Ibsen", "work_id": 93260, "role": "production company", "role_id": 941, "is_primary": true}], "also_known_as": "", "date_of_birth": "", "date_of_death": "", "genders": [], "languages": [], "places_of_operation": [], "biography": "", "biography_author": null, "date_of_biography": "2023-05-09T19:56:57.431265+10:00", "external_links": [], "uuid": "73473770-3d79-448f-aa84-c19981f0c680", "source": {"name": "Vernon", "slug": "vernon"}, "source_identifier": "10141", "external_references": [], "date_modified": "2025-03-17T10:34:55.585480+11:00"}, {"id": 21996, "name": "Derek Bailey", "roles_in_work": [{"id": 2259107, "title": "Rusalka", "work_id": 95294, "role": "director", "role_id": 938, "is_primary": true}, {"id": 917840, "title": "Natasha", "work_id": 95344, "role": "director", "role_id": 938, "is_primary": true}, {"id": 2649252, "title": "Gilbert & Sullivan's Trial By Jury", "work_id": 81210, "role": "director", "role_id": 938, "is_primary": true}, {"id": 2649336, "title": "La Stupenda: a portrait of Dame Joan Sutherland", "work_id": 81335, "role": "director", "role_id": 938, "is_primary": true}, {"id": 2259105, "title": "Rusalka", "work_id": 95294, "role": "co-producer", "role_id": 915, "is_primary": true}, {"id": 769914, "title": "Aida", "work_id": 79521, "role": "director", "role_id": 938, "is_primary": true}, {"id": 884146, "title": "Gloriana", "work_id": 94470, "role": "director", "role_id": 938, "is_primary": true}], "also_known_as": "", "date_of_birth": "1934-06-18", "date_of_death": "", "genders": [{"id": 9, "name": "Male", "slug": "male"}], "languages": [], "places_of_operation": [], "biography": "", "biography_author": null, "date_of_biography": "2023-08-09T03:58:41.502039+10:00", "external_links": [], "uuid": "9ba2c955-6b6e-4930-8714-16f06496adec", "source": {"name": "Vernon", "slug": "vernon"}, "source_identifier": "18024", "external_references": [{"id": 41685, "source": {"name": "Wikidata", "slug": "wikidata"}, "source_identifier": "Q29379613"}, {"id": 54307, "source": {"name": "VIAF", "slug": "viaf"}, "source_identifier": "39574236"}, {"id": 54308, "source": {"name": "LOC Auth", "slug": "loc-auth"}, "source_identifier": "nr96002365"}, {"id": 54309, "source": {"name": "WorldCat", "slug": "worldcat"}, "source_identifier": "lccn-nr96002365"}], "date_modified": "2025-03-05T14:00:30.628035+11:00"}, {"id": 21995, "name": "Luca Ronconi", "roles_in_work": [{"id": 2219546, "title": "Ernani: opera in four acts", "work_id": 94473, "role": "producer", "role_id": 1089, "is_primary": true}, {"id": 1809644, "title": "Aida", "work_id": 79521, "role": "producer", "role_id": 1089, "is_primary": true}], "also_known_as": "", "date_of_birth": "08 MAR 1933", "date_of_death": "", "genders": [{"id": 9, "name": "Male", "slug": "male"}], "languages": [], "places_of_operation": [], "biography": "", "biography_author": null, "date_of_biography": "2023-05-09T16:14:21.409727+10:00", "external_links": [], "uuid": "5c7327c2-d6a0-48ea-a783-1e0b57b6aa95", "source": {"name": "Vernon", "slug": "vernon"}, "source_identifier": "24066", "external_references": [], "date_modified": "2023-06-14T16:33:30.576250+10:00"}, {"id": 21989, "name": "Bill Phillips", "roles_in_work": [{"id": 769901, "title": "Mcgilvray the Game Is Not the Same", "work_id": 79508, "role": "director", "role_id": 938, "is_primary": true}], "also_known_as": "", "date_of_birth": null, "date_of_death": null, "genders": [], "languages": [], "places_of_operation": [], "biography": "", "biography_author": null, "date_of_biography": null, "external_links": [], "uuid": "71fbe61c-01ed-4dc9-b9f4-5333b2a17ef4", "source": {"name": "Vernon", "slug": "vernon"}, "source_identifier": "15993", "external_references": [], "date_modified": "2023-11-13T14:53:37.571346+11:00"}, {"id": 21985, "name": "Production Group", "roles_in_work": [{"id": 2781050, "title": "India: Land of Spirit and Mystique", "work_id": 80944, "role": "production company", "role_id": 941, "is_primary": true}, {"id": 769891, "title": "Netball: the Australian way", "work_id": 79501, "role": "production company", "role_id": 941, "is_primary": true}, {"id": 2754782, "title": "What's an Accountant?", "work_id": 99359, "role": "production company", "role_id": 941, "is_primary": true}], "also_known_as": "", "date_of_birth": "", "date_of_death": "", "genders": [], "languages": [], "places_of_operation": [], "biography": "", "biography_author": null, "date_of_biography": "2023-05-09T19:13:15.772232+10:00", "external_links": [], "uuid": "4742badf-abc3-4935-b635-2e15e8b3687e", "source": {"name": "Vernon", "slug": "vernon"}, "source_identifier": "11669", "external_references": [{"id": 43421, "source": {"name": "Wikidata", "slug": "wikidata"}, "source_identifier": "Q121079264"}], "date_modified": "2025-03-14T19:08:00.214243+11:00"}, {"id": 21981, "name": "Athletic Institute", "roles_in_work": [{"id": 1845676, "title": "Competitive Diving Men and Women Optional Dives", "work_id": 79519, "role": "director", "role_id": 938, "is_primary": true}, {"id": 1845646, "title": "Compulsory Gymnastic Routines for Women Level Class V", "work_id": 79491, "role": "director", "role_id": 938, "is_primary": true}, {"id": 1845648, "title": "Compulsory Gymnastic Routines for Women Level Class IV", "work_id": 79492, "role": "director", "role_id": 938, "is_primary": true}, {"id": 1845683, "title": "Competitive Diving Men and Women Fundamentals of Diving", "work_id": 79523, "role": "producer", "role_id": 1089, "is_primary": true}, {"id": 2648577, "title": "Compulsory Gymastic Routines for Women Level Class III", "work_id": 79527, "role": "producer", "role_id": 1089, "is_primary": true}, {"id": 1845665, "title": "The Required Dives", "work_id": 79512, "role": "producer/director", "role_id": 31, "is_primary": true}, {"id": 2753545, "title": "Competitive diving", "work_id": 98819, "role": "production company", "role_id": 941, "is_primary": true}, {"id": 2750937, "title": "Competitive diving : Basic diving skills", "work_id": 97584, "role": "production company", "role_id": 941, "is_primary": true}, {"id": 2750938, "title": "Freestyle and backstroke", "work_id": 97585, "role": "production company", "role_id": 941, "is_primary": true}, {"id": 2751521, "title": "Fundamentals of squash: Basic shots & tactics", "work_id": 97848, "role": "production company", "role_id": 941, "is_primary": true}, {"id": 2751522, "title": "Fundamentals of squash: Grip, forehand, backhand", "work_id": 97849, "role": "production company", "role_id": 941, "is_primary": true}, {"id": 2751523, "title": "Fundamentals of squash: Serves, returns, volleys", "work_id": 97850, "role": "production company", "role_id": 941, "is_primary": true}, {"id": 2751817, "title": "Competitive swimming: starts, turns, stroke drills", "work_id": 97998, "role": "production company", "role_id": 941, "is_primary": true}, {"id": 2752120, "title": "Invitation to archery", "work_id": 98150, "role": "production company", "role_id": 941, "is_primary": true}, {"id": 1845678, "title": "Competitive diving: men and women optional dives. Pt. 2", "work_id": 79520, "role": "production company", "role_id": 941, "is_primary": true}], "also_known_as": "", "date_of_birth": "", "date_of_death": "", "genders": [], "languages": [], "places_of_operation": [], "biography": "", "biography_author": null, "date_of_biography": "2023-08-11T18:39:00.477138+10:00", "external_links": [], "uuid": "87ac2f02-6f03-4c89-8b14-4a510cb52ce5", "source": {"name": "Vernon", "slug": "vernon"}, "source_identifier": "5487", "external_references": [], "date_modified": "2025-03-13T01:26:53.710210+11:00"}, {"id": 21978, "name": "Colin Gregg", "roles_in_work": [{"id": 1984113, "title": "To the Lighthouse", "work_id": 79486, "role": "director", "role_id": 938, "is_primary": true}], "also_known_as": "", "date_of_birth": "1947-01-10", "date_of_death": null, "genders": [{"id": 9, "name": "Male", "slug": "male"}], "languages": [{"id": 1, "name": "English", "slug": "english"}], "places_of_operation": [{"id": 10, "name": "United Kingdom", "slug": "united-kingdom"}], "biography": "Colin Gregg (born 10 January 1947) is a British film and television director, editor and photographer. His work includes the films To the Lighthouse (1983), Lamb (1985), and We Think the World of You (1988). He has also directed episodes of television series including Kavanagh QC and Inspector Morse, both starring John Thaw, and the BBC's Screen Two. In addition, Gregg has directed adverts, including the award winning commercial for the British drink Blackcurrant Tango.", "biography_author": "Wikidata", "date_of_biography": "2023-08-01T14:30:15.728355+10:00", "external_links": [{"id": 3799, "uri": "https://en.wikipedia.org/wiki/Colin_Gregg"}], "uuid": "3431194b-8bfb-4baa-9523-f33976b82166", "source": {"name": "Vernon", "slug": "vernon"}, "source_identifier": "17177", "external_references": [{"id": 26764, "source": {"name": "Wikidata", "slug": "wikidata"}, "source_identifier": "Q2982601"}, {"id": 27929, "source": {"name": "VIAF", "slug": "viaf"}, "source_identifier": "224434794"}, {"id": 27930, "source": {"name": "WorldCat", "slug": "worldcat"}, "source_identifier": "viaf-224434794"}], "date_modified": "2023-09-13T12:28:50.397230+10:00"}]}