{"count": 28684, "next": "https://api.acmi.net.au/creators/?page=757", "previous": "https://api.acmi.net.au/creators/?page=755", "results": [{"id": 78020, "name": "Peter Guber", "roles_in_work": [{"id": 1992570, "title": "The Witches of Eastwick", "work_id": 88181, "role": "co-producer", "role_id": 915, "is_primary": true}, {"id": 2108628, "title": "Batman", "work_id": 85656, "role": "co-producer", "role_id": 915, "is_primary": true}], "also_known_as": "", "date_of_birth": "1942-03-01", "date_of_death": "", "genders": [{"id": 9, "name": "Male", "slug": "male"}], "languages": [{"id": 1, "name": "English", "slug": "english"}], "places_of_operation": [{"id": 1, "name": "United States of America", "slug": "united-states-of-america"}], "biography": "Howard Peter Guber (born March 1, 1942) is an American film producer, business executive, entrepreneur, educator, and author. He is chairman and CEO of Mandalay Entertainment. Guber's most recent films from Mandalay Entertainment include The Kids Are All Right, Soul Surfer and Bernie. He has also produced Rain Man, Batman, The Color Purple, Midnight Express, Gorillas in the Mist, The Witches of Eastwick, Missing, and Flashdance. Guber's films have grossed over $3 billion worldwide and received 50 Academy Award nominations.Guber is also co-owner of four professional sports teams: the Golden State Warriors of the National Basketball Association, the Los Angeles Dodgers of Major League Baseball, Los Angeles Football Club (LAFC) of Major League Soccer, and the professional eSports organization aXiomatic Gaming with a controlling interest in one of the world's premier eSports franchises, Team Liquid.Guber formerly served as chairman of Dick Clark Productions, which produces the American Music Awards, the Golden Globe Awards and other shows. He is also chairman of the Strategic Board; was an investor in NextVR, which sold to Apple in 2020; and is chairman of Mandalay Sports Media. He is co-executive chairman of aXiomatic, a broad-based esports and gaming company. He is a Regent of the University of California and a professor at the UCLA School of Theater, Film and Television and the UCLA Anderson School of Management. For 10 years, Guber was an entertainment and media analyst for Fox Business.\nGuber's most recent business book, Tell to Win – Connect, Persuade, and Triumph with the Hidden Power of Story, became a No. 1 New York Times bestseller.\nGuber is also noted for other books that include Inside the Deep and Shootout: Surviving Fame and (Mis)Fortune in Hollywood, which became a television series on AMC called Shootout. Guber hosted the show from 2003 to 2008 with Peter Bart, editor of Variety. Guber wrote a cover article for the Harvard Business Review, titled \"The Four Truths of the Storyteller\".", "biography_author": "Wikidata", "date_of_biography": "2023-08-01T16:34:08.304217+10:00", "external_links": [{"id": 2854, "uri": "https://en.wikipedia.org/wiki/Peter_Guber"}], "uuid": "8cd8c83b-d09a-4dbf-8285-c1892d4a9ded", "source": {"name": "Vernon", "slug": "vernon"}, "source_identifier": "26564", "external_references": [{"id": 12137, "source": {"name": "Wikidata", "slug": "wikidata"}, "source_identifier": "Q970867"}, {"id": 12138, "source": {"name": "VIAF", "slug": "viaf"}, "source_identifier": "52500031"}, {"id": 12139, "source": {"name": "LOC Auth", "slug": "loc-auth"}, "source_identifier": "no92026443"}, {"id": 12140, "source": {"name": "WorldCat", "slug": "worldcat"}, "source_identifier": "lccn-no92026443"}], "date_modified": "2023-09-05T23:57:03.194365+10:00"}, {"id": 78019, "name": "Derek Bromhall", "roles_in_work": [{"id": 2281554, "title": "The World of the unborn. Parts 1 and 2", "work_id": 85651, "role": "producer/director", "role_id": 31, "is_primary": true}], "also_known_as": "", "date_of_birth": "", "date_of_death": "", "genders": [], "languages": [], "places_of_operation": [], "biography": "", "biography_author": null, "date_of_biography": "2023-05-09T18:01:22.794411+10:00", "external_links": [], "uuid": "bedb537c-fc20-4d08-9b53-33d7bf714e0a", "source": {"name": "Vernon", "slug": "vernon"}, "source_identifier": "18026", "external_references": [{"id": 51105, "source": {"name": "Wikidata", "slug": "wikidata"}, "source_identifier": "Q121361055"}], "date_modified": "2023-09-05T19:09:50.344617+10:00"}, {"id": 78018, "name": "Damian Davis", "roles_in_work": [{"id": 2171559, "title": "McFeast: breasts", "work_id": 85650, "role": "co-director", "role_id": 959, "is_primary": true}], "also_known_as": "", "date_of_birth": "", "date_of_death": "", "genders": [], "languages": [], "places_of_operation": [], "biography": "", "biography_author": null, "date_of_biography": "2023-05-09T14:36:51.210312+10:00", "external_links": [], "uuid": "41c91414-6748-4451-9a3b-b3189bd4069f", "source": {"name": "Vernon", "slug": "vernon"}, "source_identifier": "17340", "external_references": [{"id": 36125, "source": {"name": "Wikidata", "slug": "wikidata"}, "source_identifier": "Q121126672"}], "date_modified": "2023-09-05T18:49:25.911658+10:00"}, {"id": 78017, "name": "Michael Rachmil", "roles_in_work": [{"id": 2257766, "title": "Roxanne", "work_id": 85646, "role": "co-producer", "role_id": 915, "is_primary": true}], "also_known_as": "", "date_of_birth": "", "date_of_death": "", "genders": [], "languages": [], "places_of_operation": [], "biography": "", "biography_author": null, "date_of_biography": "2023-05-09T17:21:00.339205+10:00", "external_links": [], "uuid": "b90462d1-9239-41c2-8052-b4a414701e8e", "source": {"name": "Vernon", "slug": "vernon"}, "source_identifier": "25197", "external_references": [{"id": 37675, "source": {"name": "Wikidata", "slug": "wikidata"}, "source_identifier": "Q121126561"}], "date_modified": "2023-09-05T23:08:03.928075+10:00"}, {"id": 78016, "name": "Irving Ravetch", "roles_in_work": [{"id": 1838320, "title": "Hud", "work_id": 90966, "role": "co-producer", "role_id": 915, "is_primary": true}, {"id": 1990135, "title": "Hombre", "work_id": 85645, "role": "co-producer", "role_id": 915, "is_primary": true}], "also_known_as": "", "date_of_birth": "1920-11-14", "date_of_death": "2010-09-19", "genders": [{"id": 9, "name": "Male", "slug": "male"}], "languages": [{"id": 1, "name": "English", "slug": "english"}], "places_of_operation": [{"id": 1, "name": "United States of America", "slug": "united-states-of-america"}], "biography": "Irving Dover Ravetch (November 14, 1920 – September 19, 2010) was an American screenwriter and film producer who frequently collaborated with his wife Harriet Frank Jr.", "biography_author": "Wikidata", "date_of_biography": "2022-05-19T11:48:19.008024+10:00", "external_links": [{"id": 2267, "uri": "https://en.wikipedia.org/wiki/Irving_Ravetch"}], "uuid": "5afe5632-0c6b-47fe-ac67-e5e9802d04ca", "source": {"name": "Vernon", "slug": "vernon"}, "source_identifier": "20884", "external_references": [{"id": 9734, "source": {"name": "Wikidata", "slug": "wikidata"}, "source_identifier": "Q1673282"}, {"id": 9735, "source": {"name": "VIAF", "slug": "viaf"}, "source_identifier": "100401729"}, {"id": 9736, "source": {"name": "LOC Auth", "slug": "loc-auth"}, "source_identifier": "n87840013"}, {"id": 9737, "source": {"name": "WorldCat", "slug": "worldcat"}, "source_identifier": "lccn-n87840013"}], "date_modified": "2023-09-05T20:51:17.617288+10:00"}, {"id": 78015, "name": "Jim Carabatos", "roles_in_work": [{"id": 1990130, "title": "Hamburger hill", "work_id": 85644, "role": "co-producer", "role_id": 915, "is_primary": true}], "also_known_as": "", "date_of_birth": null, "date_of_death": null, "genders": [], "languages": [], "places_of_operation": [], "biography": "", "biography_author": null, "date_of_biography": null, "external_links": [], "uuid": "10b6e870-aa39-4fa2-841a-1394750cf710", "source": {"name": "Vernon", "slug": "vernon"}, "source_identifier": null, "external_references": [{"id": 37114, "source": {"name": "Wikidata", "slug": "wikidata"}, "source_identifier": "Q121086197"}], "date_modified": "2023-09-05T21:24:22.808808+10:00"}, {"id": 78014, "name": "Marcia Nasatir", "roles_in_work": [{"id": 1990129, "title": "Hamburger hill", "work_id": 85644, "role": "co-producer", "role_id": 915, "is_primary": true}], "also_known_as": "", "date_of_birth": "1926-05-08", "date_of_death": "2021-08-03", "genders": [{"id": 5, "name": "Female", "slug": "female"}], "languages": [], "places_of_operation": [{"id": 1, "name": "United States of America", "slug": "united-states-of-america"}], "biography": "Marcia Nasatir (May 8, 1926 – August 3, 2021) was an American film producer and studio executive. She was the first female vice-president of a major movie studio, when she became a vice-president at United Artists in 1974.", "biography_author": "Wikidata", "date_of_biography": "2023-09-05T22:40:56.605316+10:00", "external_links": [{"id": 5997, "uri": "https://en.wikipedia.org/wiki/Marcia_Nasatir"}], "uuid": "0980a5d6-ff85-43b5-92a0-985637c949da", "source": {"name": "Vernon", "slug": "vernon"}, "source_identifier": null, "external_references": [{"id": 33242, "source": {"name": "Wikidata", "slug": "wikidata"}, "source_identifier": "Q55941561"}, {"id": 55151, "source": {"name": "VIAF", "slug": "viaf"}, "source_identifier": "11094501"}, {"id": 55152, "source": {"name": "LOC Auth", "slug": "loc-auth"}, "source_identifier": "n77005958"}, {"id": 55153, "source": {"name": "WorldCat", "slug": "worldcat"}, "source_identifier": "lccn-n77005958"}], "date_modified": "2023-09-05T22:40:56.630331+10:00"}, {"id": 78013, "name": "Interaccess", "roles_in_work": [{"id": 1990128, "title": "Hamburger hill", "work_id": 85644, "role": "production company", "role_id": 941, "is_primary": true}], "also_known_as": "", "date_of_birth": null, "date_of_death": null, "genders": [], "languages": [], "places_of_operation": [], "biography": "", "biography_author": null, "date_of_biography": null, "external_links": [], "uuid": "9163da9a-f46c-4e48-a516-409035df580c", "source": {"name": "Vernon", "slug": "vernon"}, "source_identifier": null, "external_references": [{"id": 34795, "source": {"name": "Wikidata", "slug": "wikidata"}, "source_identifier": "Q121126950"}], "date_modified": "2023-09-05T20:49:12.657677+10:00"}, {"id": 78012, "name": "Nasitir-Carabatsos", "roles_in_work": [{"id": 1990127, "title": "Hamburger hill", "work_id": 85644, "role": "production company", "role_id": 941, "is_primary": true}], "also_known_as": "", "date_of_birth": null, "date_of_death": null, "genders": [], "languages": [], "places_of_operation": [], "biography": "", "biography_author": null, "date_of_biography": null, "external_links": [], "uuid": "29212fa5-6f25-4cfd-973a-845be3b797b5", "source": {"name": "Vernon", "slug": "vernon"}, "source_identifier": null, "external_references": [{"id": 40890, "source": {"name": "Wikidata", "slug": "wikidata"}, "source_identifier": "Q121160002"}], "date_modified": "2023-09-05T23:25:14.524365+10:00"}, {"id": 78011, "name": "Matt Clark", "roles_in_work": [{"id": 2322707, "title": "Teen suicide", "work_id": 85639, "role": "co-producer", "role_id": 915, "is_primary": true}], "also_known_as": "", "date_of_birth": "", "date_of_death": "", "genders": [], "languages": [], "places_of_operation": [], "biography": "", "biography_author": null, "date_of_biography": "2023-05-09T19:14:29.718173+10:00", "external_links": [], "uuid": "ff0e8011-7a0d-4f8a-b8b8-f1569d47b4a8", "source": {"name": "Vernon", "slug": "vernon"}, "source_identifier": "24784", "external_references": [{"id": 34836, "source": {"name": "Wikidata", "slug": "wikidata"}, "source_identifier": "Q121299044"}], "date_modified": "2023-09-05T22:54:15.513518+10:00"}]}