{"count": 28681, "next": "https://api.acmi.net.au/creators/?page=1972", "previous": "https://api.acmi.net.au/creators/?page=1970", "results": [{"id": 23119, "name": "Omni Zoetrope", "roles_in_work": [{"id": 2098408, "title": "Apocalypse now", "work_id": 82071, "role": "production company", "role_id": 941, "is_primary": true}, {"id": 2098441, "title": "Apocalypse now: redux [DVD]", "work_id": 93847, "role": "production company", "role_id": 941, "is_primary": true}, {"id": 1984956, "title": "The Black stallion", "work_id": 80940, "role": "production company", "role_id": 941, "is_primary": true}], "also_known_as": "", "date_of_birth": "", "date_of_death": "", "genders": [], "languages": [], "places_of_operation": [], "biography": "", "biography_author": null, "date_of_biography": "2023-05-09T12:27:33.394735+10:00", "external_links": [], "uuid": "c642a06f-f1f6-4fda-a894-f47af55d0294", "source": {"name": "Vernon", "slug": "vernon"}, "source_identifier": "11127", "external_references": [{"id": 36296, "source": {"name": "Wikidata", "slug": "wikidata"}, "source_identifier": "Q121271364"}], "date_modified": "2023-09-05T23:36:52.790562+10:00"}, {"id": 23118, "name": "Stan Kibby", "roles_in_work": [{"id": 2781003, "title": "Hawaii: Sights and Sounds of the Islands", "work_id": 80939, "role": "director", "role_id": 938, "is_primary": true}], "also_known_as": "", "date_of_birth": "", "date_of_death": "", "genders": [], "languages": [], "places_of_operation": [], "biography": "", "biography_author": null, "date_of_biography": "2023-05-09T19:12:38.973949+10:00", "external_links": [], "uuid": "5683446b-ab4d-4b8c-81a3-2402cb789dcd", "source": {"name": "Vernon", "slug": "vernon"}, "source_identifier": "28931", "external_references": [], "date_modified": "2025-03-14T19:07:52.605507+11:00"}, {"id": 23117, "name": "Jerry Blair", "roles_in_work": [{"id": 2780999, "title": "Hawaii: Sights and Sounds of the Islands", "work_id": 80939, "role": "producer", "role_id": 1089, "is_primary": true}], "also_known_as": "", "date_of_birth": "", "date_of_death": "", "genders": [], "languages": [], "places_of_operation": [], "biography": "", "biography_author": null, "date_of_biography": "2023-05-09T19:12:38.756838+10:00", "external_links": [], "uuid": "a9717dcb-11de-4e8b-9a1d-594214acca75", "source": {"name": "Vernon", "slug": "vernon"}, "source_identifier": "21784", "external_references": [], "date_modified": "2025-03-14T19:07:51.918338+11:00"}, {"id": 23115, "name": "Jim Settlemoir", "roles_in_work": [{"id": 2780989, "title": "Lights, Camera, Los Angeles", "work_id": 80938, "role": "co-director", "role_id": 959, "is_primary": true}, {"id": 2780985, "title": "Lights, Camera, Los Angeles", "work_id": 80938, "role": "producer", "role_id": 1089, "is_primary": true}], "also_known_as": "", "date_of_birth": "", "date_of_death": "", "genders": [], "languages": [], "places_of_operation": [], "biography": "", "biography_author": null, "date_of_biography": "2023-05-09T19:13:12.123576+10:00", "external_links": [], "uuid": "f2bc39f4-2af1-4ba3-b6ee-d1392e7ef7a3", "source": {"name": "Vernon", "slug": "vernon"}, "source_identifier": "21916", "external_references": [{"id": 40188, "source": {"name": "Wikidata", "slug": "wikidata"}, "source_identifier": "Q121270629"}], "date_modified": "2025-03-14T19:07:49.959435+11:00"}, {"id": 23114, "name": "Candlelight Associates", "roles_in_work": [{"id": 2780981, "title": "Lights, Camera, Los Angeles", "work_id": 80938, "role": "production company", "role_id": 941, "is_primary": true}], "also_known_as": "", "date_of_birth": "", "date_of_death": "", "genders": [], "languages": [], "places_of_operation": [], "biography": "", "biography_author": null, "date_of_biography": "2023-05-09T19:13:11.534857+10:00", "external_links": [], "uuid": "3e563fb9-0f4f-4301-98ae-7d98c7ab735b", "source": {"name": "Vernon", "slug": "vernon"}, "source_identifier": "6260", "external_references": [{"id": 40585, "source": {"name": "Wikidata", "slug": "wikidata"}, "source_identifier": "Q121337027"}], "date_modified": "2025-03-14T19:07:48.797923+11:00"}, {"id": 23112, "name": "Maureen Zrike", "roles_in_work": [{"id": 2780977, "title": "Japan: The Island Empire", "work_id": 80936, "role": "director", "role_id": 938, "is_primary": true}], "also_known_as": "", "date_of_birth": "", "date_of_death": "", "genders": [], "languages": [], "places_of_operation": [], "biography": "", "biography_author": null, "date_of_biography": "2023-05-09T19:12:36.593295+10:00", "external_links": [], "uuid": "ffffe2fc-e948-4bfa-8d6a-6fdb851a6b15", "source": {"name": "Vernon", "slug": "vernon"}, "source_identifier": "24823", "external_references": [{"id": 40801, "source": {"name": "Wikidata", "slug": "wikidata"}, "source_identifier": "Q121126598"}], "date_modified": "2025-03-14T19:07:47.958228+11:00"}, {"id": 23111, "name": "Christopher Zrike", "roles_in_work": [{"id": 2781107, "title": "Mystical Malaysia", "work_id": 80970, "role": "producer", "role_id": 1089, "is_primary": true}, {"id": 2780973, "title": "Japan: The Island Empire", "work_id": 80936, "role": "producer", "role_id": 1089, "is_primary": true}], "also_known_as": "", "date_of_birth": "", "date_of_death": "", "genders": [], "languages": [], "places_of_operation": [], "biography": "", "biography_author": null, "date_of_biography": "2023-05-09T19:12:49.097889+10:00", "external_links": [], "uuid": "ca53e923-d79c-4914-a3c1-3b9179242121", "source": {"name": "Vernon", "slug": "vernon"}, "source_identifier": "17015", "external_references": [{"id": 38413, "source": {"name": "Wikidata", "slug": "wikidata"}, "source_identifier": "Q121034746"}], "date_modified": "2025-03-14T19:08:12.825524+11:00"}, {"id": 23105, "name": "Picture Postcard Productions Inc", "roles_in_work": [{"id": 2780959, "title": "World of Cruise Ships", "work_id": 80933, "role": "production company", "role_id": 941, "is_primary": true}], "also_known_as": "", "date_of_birth": "", "date_of_death": "", "genders": [], "languages": [], "places_of_operation": [], "biography": "", "biography_author": null, "date_of_biography": "2023-05-09T19:13:13.287241+10:00", "external_links": [], "uuid": "319e7c88-e7dc-4c52-a319-e99a6ad26b1a", "source": {"name": "Vernon", "slug": "vernon"}, "source_identifier": "11476", "external_references": [], "date_modified": "2025-03-14T19:07:44.836364+11:00"}, {"id": 23100, "name": "Kageneck Video", "roles_in_work": [{"id": 2780948, "title": "Eternal France", "work_id": 80928, "role": "production company", "role_id": 941, "is_primary": true}], "also_known_as": "", "date_of_birth": "", "date_of_death": "", "genders": [], "languages": [], "places_of_operation": [], "biography": "", "biography_author": null, "date_of_biography": "2023-05-09T19:12:34.033456+10:00", "external_links": [], "uuid": "5aeee4fe-a79d-4f6c-95d7-6a764ccd913a", "source": {"name": "Vernon", "slug": "vernon"}, "source_identifier": "9684", "external_references": [{"id": 41385, "source": {"name": "Wikidata", "slug": "wikidata"}, "source_identifier": "Q121079570"}], "date_modified": "2025-03-14T19:07:42.846717+11:00"}, {"id": 23099, "name": "Austin Steele", "roles_in_work": [{"id": 2792598, "title": "The Dalai Lama of Tibet", "work_id": 85277, "role": "director", "role_id": 938, "is_primary": true}, {"id": 1804711, "title": "The Face of Italy", "work_id": 80927, "role": "producer", "role_id": 1089, "is_primary": true}], "also_known_as": "", "date_of_birth": "", "date_of_death": "", "genders": [], "languages": [], "places_of_operation": [], "biography": "", "biography_author": null, "date_of_biography": "2023-05-09T19:41:26.225035+10:00", "external_links": [], "uuid": "15b45823-431f-4f4c-9472-340567868085", "source": {"name": "Vernon", "slug": "vernon"}, "source_identifier": "15601", "external_references": [{"id": 32903, "source": {"name": "Wikidata", "slug": "wikidata"}, "source_identifier": "Q121091220"}], "date_modified": "2025-03-14T20:10:51.733304+11:00"}]}