{"count": 28687, "next": "https://api.acmi.net.au/creators/?page=129", "previous": "https://api.acmi.net.au/creators/?page=127", "results": [{"id": 84327, "name": "Nick Lockett", "roles_in_work": [{"id": 2685707, "title": "Family viewing television in Yuendumu", "work_id": 99882, "role": "photographer", "role_id": 440, "is_primary": false}], "also_known_as": "", "date_of_birth": "", "date_of_death": "", "genders": [], "languages": [], "places_of_operation": [], "biography": "", "biography_author": null, "date_of_biography": "2023-05-09T18:26:34.702126+10:00", "external_links": [], "uuid": "17d4947b-bcfd-4577-9732-024144d7f6fc", "source": {"name": "Vernon", "slug": "vernon"}, "source_identifier": "39634", "external_references": [], "date_modified": "2025-03-11T11:58:26.273985+11:00"}, {"id": 84326, "name": "EVTV", "roles_in_work": [{"id": 2685709, "title": "Filming Seven Sisters Dreaming for EVTV", "work_id": 107508, "role": "creator", "role_id": 968, "is_primary": true}, {"id": 2685706, "title": "Live broadcast at the launch of EVTV", "work_id": 99733, "role": "creator", "role_id": 968, "is_primary": true}], "also_known_as": "", "date_of_birth": "", "date_of_death": "", "genders": [], "languages": [], "places_of_operation": [], "biography": "", "biography_author": null, "date_of_biography": "2023-05-09T18:26:38.394187+10:00", "external_links": [], "uuid": "6a9ea5c3-91e0-4e21-87fc-7e3e08764924", "source": {"name": "Vernon", "slug": "vernon"}, "source_identifier": "39635", "external_references": [], "date_modified": "2025-03-11T11:58:29.841151+11:00"}, {"id": 84325, "name": "Sam Barlow", "roles_in_work": [{"id": 2686337, "title": "Her Story", "work_id": 117917, "role": "creator", "role_id": 968, "is_primary": true}], "also_known_as": "", "date_of_birth": "", "date_of_death": "", "genders": [], "languages": [], "places_of_operation": [], "biography": "", "biography_author": null, "date_of_biography": "2023-08-11T17:18:50.825240+10:00", "external_links": [], "uuid": "18bf080e-e915-42dc-bbd8-d700b4d1b239", "source": {"name": "Vernon", "slug": "vernon"}, "source_identifier": "39633", "external_references": [], "date_modified": "2025-03-11T12:18:05.431658+11:00"}, {"id": 84324, "name": "Devolver", "roles_in_work": [], "also_known_as": "", "date_of_birth": null, "date_of_death": null, "genders": [], "languages": [], "places_of_operation": [], "biography": "", "biography_author": null, "date_of_biography": null, "external_links": [], "uuid": "eb001f17-1c0e-4ef5-ab88-32ca78970542", "source": {"name": "Vernon", "slug": "vernon"}, "source_identifier": null, "external_references": [], "date_modified": "2023-06-14T16:33:30.576250+10:00"}, {"id": 84323, "name": "No Code", "roles_in_work": [{"id": 2686329, "title": "Observation", "work_id": 117905, "role": "creator", "role_id": 968, "is_primary": true}], "also_known_as": "", "date_of_birth": "", "date_of_death": "", "genders": [], "languages": [], "places_of_operation": [], "biography": "", "biography_author": null, "date_of_biography": "2023-07-19T03:51:02.253299+10:00", "external_links": [], "uuid": "9f5c1a72-30d1-4cee-909a-84358a1c3cd5", "source": {"name": "Vernon", "slug": "vernon"}, "source_identifier": "39631", "external_references": [], "date_modified": "2025-03-11T12:17:55.822444+11:00"}, {"id": 84322, "name": "Valve", "roles_in_work": [{"id": 2686316, "title": "Portal 2", "work_id": 117903, "role": "creator", "role_id": 968, "is_primary": true}, {"id": 3092231, "title": "Portal 2 Companion Cube Plush", "work_id": 117980, "role": "developer", "role_id": 658, "is_primary": true}, {"id": 3092233, "title": "Portal 2: Lego Dimensions Set", "work_id": 117981, "role": "developer", "role_id": 658, "is_primary": true}], "also_known_as": "", "date_of_birth": "1996", "date_of_death": "", "genders": [], "languages": [], "places_of_operation": [], "biography": "", "biography_author": null, "date_of_biography": "2023-05-09T15:45:02.468644+10:00", "external_links": [], "uuid": "55c529f7-cc5e-4dc5-b89b-41c72d63d4f8", "source": {"name": "Vernon", "slug": "vernon"}, "source_identifier": "39628", "external_references": [], "date_modified": "2025-03-19T22:40:30.441562+11:00"}, {"id": 84321, "name": "Tim Shiel", "roles_in_work": [{"id": 2686326, "title": "Vinyl record of The Gardens Between soundtrack", "work_id": 107479, "role": "creator", "role_id": 968, "is_primary": true}], "also_known_as": "", "date_of_birth": "", "date_of_death": "", "genders": [], "languages": [], "places_of_operation": [], "biography": "", "biography_author": null, "date_of_biography": "2023-08-30T03:40:57.104466+10:00", "external_links": [], "uuid": "2e886ec6-e985-4c41-8e05-a2bef0f49557", "source": {"name": "Vernon", "slug": "vernon"}, "source_identifier": "39630", "external_references": [], "date_modified": "2025-03-11T12:17:50.374568+11:00"}, {"id": 84320, "name": "The Voxel Agents", "roles_in_work": [{"id": 2686327, "title": "The Gardens Between", "work_id": 117900, "role": "creator", "role_id": 968, "is_primary": true}, {"id": 2686324, "title": "Concept art in The Gardens Between", "work_id": 117901, "role": "creator", "role_id": 968, "is_primary": true}], "also_known_as": "", "date_of_birth": "2009", "date_of_death": "", "genders": [], "languages": [], "places_of_operation": [], "biography": "", "biography_author": null, "date_of_biography": "2023-08-30T03:40:58.078284+10:00", "external_links": [], "uuid": "4bd30461-822b-42ff-a6c2-b3b811381ec9", "source": {"name": "Vernon", "slug": "vernon"}, "source_identifier": "39629", "external_references": [], "date_modified": "2025-03-11T12:17:51.811522+11:00"}, {"id": 84319, "name": "Mary Onus", "roles_in_work": [{"id": 3106831, "title": "Bill Onus portrait", "work_id": 99721, "role": "photographer", "role_id": 440, "is_primary": false}], "also_known_as": "", "date_of_birth": "", "date_of_death": "", "genders": [], "languages": [], "places_of_operation": [], "biography": "", "biography_author": null, "date_of_biography": "2023-08-30T03:40:32.337293+10:00", "external_links": [], "uuid": "46e67ba6-08ab-4bc3-abc2-12e1f68a7735", "source": {"name": "Vernon", "slug": "vernon"}, "source_identifier": "39627", "external_references": [], "date_modified": "2025-07-28T12:47:17.839117+10:00"}, {"id": 84318, "name": "John Harvey", "roles_in_work": [{"id": 2686304, "title": "Canopy", "work_id": 117898, "role": "creator", "role_id": 968, "is_primary": true}], "also_known_as": "", "date_of_birth": "", "date_of_death": "", "genders": [], "languages": [], "places_of_operation": [], "biography": "", "biography_author": null, "date_of_biography": "2023-05-09T13:17:52.510480+10:00", "external_links": [], "uuid": "18179124-bddc-492d-b7bc-693df6cf8669", "source": {"name": "Vernon", "slug": "vernon"}, "source_identifier": "39626", "external_references": [], "date_modified": "2025-03-11T12:17:29.422704+11:00"}]}