{"count": 28687, "next": "https://api.acmi.net.au/creators/?page=2102", "previous": "https://api.acmi.net.au/creators/?page=2100", "results": [{"id": 20522, "name": "Michael Kriegsman", "roles_in_work": [{"id": 2407357, "title": "Face value", "work_id": 77521, "role": "director", "role_id": 938, "is_primary": true}], "also_known_as": "", "date_of_birth": "", "date_of_death": "", "genders": [], "languages": [], "places_of_operation": [], "biography": "", "biography_author": null, "date_of_biography": "2023-08-11T16:34:59.949075+10:00", "external_links": [], "uuid": "1f7e4aa3-6aeb-4f36-9fd9-979e7eb5805f", "source": {"name": "Vernon", "slug": "vernon"}, "source_identifier": "25125", "external_references": [], "date_modified": "2023-08-11T16:34:59.949343+10:00"}, {"id": 20519, "name": "Else, Couturie and Korty", "roles_in_work": [{"id": 2275928, "title": "Vietnam requiem", "work_id": 77518, "role": "production company", "role_id": 941, "is_primary": true}], "also_known_as": "", "date_of_birth": "", "date_of_death": "", "genders": [], "languages": [], "places_of_operation": [], "biography": "", "biography_author": null, "date_of_biography": "2023-05-09T17:52:15.939289+10:00", "external_links": [], "uuid": "49dfcc97-d9fc-4ad3-94ae-ccc3cfde4cba", "source": {"name": "Vernon", "slug": "vernon"}, "source_identifier": "7865", "external_references": [{"id": 42261, "source": {"name": "Wikidata", "slug": "wikidata"}, "source_identifier": "Q121315154"}], "date_modified": "2023-09-05T19:30:51.257458+10:00"}, {"id": 20518, "name": "Caroline Weaver", "roles_in_work": [{"id": 2770123, "title": "A Prospect of Kew", "work_id": 77517, "role": "producer", "role_id": 1089, "is_primary": true}], "also_known_as": "", "date_of_birth": "", "date_of_death": "", "genders": [], "languages": [], "places_of_operation": [], "biography": "", "biography_author": null, "date_of_biography": "2023-05-09T13:48:45.207211+10:00", "external_links": [], "uuid": "7c3256c3-00fc-4c60-95b2-e216313647b7", "source": {"name": "Vernon", "slug": "vernon"}, "source_identifier": "16551", "external_references": [{"id": 37312, "source": {"name": "Wikidata", "slug": "wikidata"}, "source_identifier": "Q121270991"}], "date_modified": "2025-03-14T18:17:26.274246+11:00"}, {"id": 20517, "name": "Second Banana Films", "roles_in_work": [{"id": 879958, "title": "Storm", "work_id": 92163, "role": "production company", "role_id": 941, "is_primary": true}, {"id": 2752325, "title": "Dudu and the line", "work_id": 98243, "role": "production company", "role_id": 941, "is_primary": true}, {"id": 863828, "title": "There's dragons (K)", "work_id": 77516, "role": "production company", "role_id": 941, "is_primary": true}], "also_known_as": "", "date_of_birth": null, "date_of_death": null, "genders": [], "languages": [], "places_of_operation": [], "biography": "", "biography_author": null, "date_of_biography": null, "external_links": [], "uuid": "278d558b-4455-4a4a-b4a5-f9a1b0ae05fd", "source": {"name": "Vernon", "slug": "vernon"}, "source_identifier": "12406", "external_references": [], "date_modified": "2025-03-13T01:02:18.619758+11:00"}, {"id": 20516, "name": "Richard Lightbody", "roles_in_work": [{"id": 2760790, "title": "Lost in a crowd", "work_id": 77511, "role": "producer", "role_id": 1089, "is_primary": true}], "also_known_as": "", "date_of_birth": "", "date_of_death": "", "genders": [], "languages": [], "places_of_operation": [], "biography": "", "biography_author": null, "date_of_biography": "2023-08-11T13:02:23.741056+10:00", "external_links": [], "uuid": "364e6052-1e6d-477e-a912-fa7417a4dea3", "source": {"name": "Vernon", "slug": "vernon"}, "source_identifier": "27447", "external_references": [], "date_modified": "2025-03-14T17:28:18.597473+11:00"}, {"id": 20514, "name": "Lemle", "roles_in_work": [{"id": 2764323, "title": "TV news", "work_id": 98124, "role": "production company", "role_id": 941, "is_primary": true}, {"id": 2764279, "title": "Political spots", "work_id": 77508, "role": "production company", "role_id": 941, "is_primary": true}, {"id": 2764290, "title": "Soap operas", "work_id": 77614, "role": "production company", "role_id": 941, "is_primary": true}], "also_known_as": "", "date_of_birth": "", "date_of_death": "", "genders": [], "languages": [], "places_of_operation": [], "biography": "", "biography_author": null, "date_of_biography": "2023-05-09T17:49:57.412345+10:00", "external_links": [], "uuid": "7f04e7fe-d13a-47c3-9fab-b53f6c8e40ca", "source": {"name": "Vernon", "slug": "vernon"}, "source_identifier": "4612", "external_references": [{"id": 37913, "source": {"name": "Wikidata", "slug": "wikidata"}, "source_identifier": "Q121034235"}], "date_modified": "2025-03-14T17:45:57.013566+11:00"}, {"id": 20513, "name": "Laybourne", "roles_in_work": [{"id": 2764289, "title": "Soap operas", "work_id": 77614, "role": "production company", "role_id": 941, "is_primary": true}, {"id": 2764276, "title": "Political spots", "work_id": 77508, "role": "production company", "role_id": 941, "is_primary": true}, {"id": 2764321, "title": "TV news", "work_id": 98124, "role": "production company", "role_id": 941, "is_primary": true}], "also_known_as": "", "date_of_birth": "", "date_of_death": "", "genders": [], "languages": [], "places_of_operation": [], "biography": "", "biography_author": null, "date_of_biography": "2023-05-09T17:49:57.191915+10:00", "external_links": [], "uuid": "006c28f2-d5a3-429d-b4b0-ed7506671c93", "source": {"name": "Vernon", "slug": "vernon"}, "source_identifier": "9931", "external_references": [], "date_modified": "2025-03-14T17:45:56.430799+11:00"}, {"id": 20511, "name": "Ronald Roethe", "roles_in_work": [{"id": 2760612, "title": "Divorce", "work_id": 77504, "role": "director", "role_id": 938, "is_primary": true}], "also_known_as": "", "date_of_birth": "", "date_of_death": "", "genders": [], "languages": [], "places_of_operation": [], "biography": "", "biography_author": null, "date_of_biography": "2023-08-11T16:12:05.080450+10:00", "external_links": [], "uuid": "fc45ca2f-f96a-4c76-98b1-c95cbd6c12cb", "source": {"name": "Vernon", "slug": "vernon"}, "source_identifier": "28212", "external_references": [], "date_modified": "2025-03-14T17:26:32.921569+11:00"}, {"id": 20509, "name": "Alan Patient", "roles_in_work": [{"id": 2763898, "title": "Trouble in Paradise", "work_id": 77501, "role": "producer", "role_id": 1089, "is_primary": true}], "also_known_as": "", "date_of_birth": "", "date_of_death": "", "genders": [], "languages": [], "places_of_operation": [], "biography": "", "biography_author": null, "date_of_biography": "2023-05-09T14:50:13.565279+10:00", "external_links": [], "uuid": "9ba00ef8-f7fc-4a93-b132-78e65ded72f9", "source": {"name": "Vernon", "slug": "vernon"}, "source_identifier": "14787", "external_references": [{"id": 34998, "source": {"name": "Wikidata", "slug": "wikidata"}, "source_identifier": "Q121035831"}], "date_modified": "2025-03-14T17:44:14.302132+11:00"}, {"id": 20508, "name": "Honeycomb Prod Co", "roles_in_work": [{"id": 2647819, "title": "You're the cream in my coffee", "work_id": 77497, "role": "production company", "role_id": 941, "is_primary": true}], "also_known_as": "", "date_of_birth": "", "date_of_death": "", "genders": [], "languages": [], "places_of_operation": [], "biography": "", "biography_author": null, "date_of_biography": "2023-08-14T12:54:07.526035+10:00", "external_links": [], "uuid": "d836b4b9-f16f-44a1-9959-81c64ad193d7", "source": {"name": "Vernon", "slug": "vernon"}, "source_identifier": "9143", "external_references": [], "date_modified": "2025-03-05T13:32:36.737832+11:00"}]}