{"count": 28687, "next": "https://api.acmi.net.au/creators/?page=1474", "previous": "https://api.acmi.net.au/creators/?page=1472", "results": [{"id": 34843, "name": "Hungry Eye Lowland", "roles_in_work": [{"id": 2349728, "title": "The Gambler", "work_id": 93153, "role": "production company", "role_id": 941, "is_primary": true}], "also_known_as": "", "date_of_birth": "", "date_of_death": "", "genders": [], "languages": [], "places_of_operation": [], "biography": "", "biography_author": null, "date_of_biography": "2023-05-09T19:54:05.429540+10:00", "external_links": [], "uuid": "bc651d2a-23c7-444a-ad27-bf54005235f9", "source": {"name": "Vernon", "slug": "vernon"}, "source_identifier": "9191", "external_references": [{"id": 37198, "source": {"name": "Wikidata", "slug": "wikidata"}, "source_identifier": "Q121159734"}], "date_modified": "2023-09-05T20:45:01.358645+10:00"}, {"id": 34842, "name": "Gambler Productions", "roles_in_work": [{"id": 2349727, "title": "The Gambler", "work_id": 93153, "role": "production company", "role_id": 941, "is_primary": true}], "also_known_as": "", "date_of_birth": "", "date_of_death": "", "genders": [], "languages": [], "places_of_operation": [], "biography": "", "biography_author": null, "date_of_biography": "2023-05-09T19:54:05.194706+10:00", "external_links": [], "uuid": "94638ed4-0fa5-4175-ae3d-27a897838cc6", "source": {"name": "Vernon", "slug": "vernon"}, "source_identifier": "8632", "external_references": [{"id": 43049, "source": {"name": "Wikidata", "slug": "wikidata"}, "source_identifier": "Q121126172"}], "date_modified": "2023-09-05T19:55:59.300844+10:00"}, {"id": 34841, "name": "Frank Yablans", "roles_in_work": [{"id": 2168534, "title": "Mommie dearest", "work_id": 94906, "role": "producer", "role_id": 1089, "is_primary": true}, {"id": 1997180, "title": "The Fury", "work_id": 93151, "role": "producer", "role_id": 1089, "is_primary": true}], "also_known_as": "", "date_of_birth": "1935-08-27", "date_of_death": "2014-11-27", "genders": [{"id": 9, "name": "Male", "slug": "male"}], "languages": [], "places_of_operation": [{"id": 1, "name": "United States of America", "slug": "united-states-of-america"}], "biography": "Frank Yablans (August 27, 1935 – November 27, 2014) was an American studio executive, film producer, and screenwriter. Yablans served as an executive at Paramount Pictures, including President of the studio, in the 1960s and 70s. As a filmmaker, he is best known for writing and producing the film Mommie Dearest (1981), which was nominated for nine Razzies at the 2nd Golden Raspberry Awards and \"won\" Worst Picture and Worst Screenplay for Yablans.", "biography_author": "Wikidata", "date_of_biography": "2023-08-01T14:52:26.198630+10:00", "external_links": [{"id": 2065, "uri": "https://en.wikipedia.org/wiki/Frank_Yablans"}], "uuid": "79e74645-5d2f-4d32-a751-322e569530c8", "source": {"name": "Vernon", "slug": "vernon"}, "source_identifier": "19190", "external_references": [{"id": 8910, "source": {"name": "Wikidata", "slug": "wikidata"}, "source_identifier": "Q3082871"}, {"id": 28470, "source": {"name": "VIAF", "slug": "viaf"}, "source_identifier": "208088727"}, {"id": 28471, "source": {"name": "LOC Auth", "slug": "loc-auth"}, "source_identifier": "no95015357"}, {"id": 28472, "source": {"name": "WorldCat", "slug": "worldcat"}, "source_identifier": "lccn-no95015357"}], "date_modified": "2023-09-05T19:51:26.703761+10:00"}, {"id": 34840, "name": "Robert Sarkis", "roles_in_work": [{"id": 2263421, "title": "Scarfies [DVD]", "work_id": 93150, "role": "director", "role_id": 938, "is_primary": true}], "also_known_as": "", "date_of_birth": "", "date_of_death": "", "genders": [], "languages": [], "places_of_operation": [], "biography": "", "biography_author": null, "date_of_biography": "2023-05-09T17:32:24.631794+10:00", "external_links": [], "uuid": "87a4c1ca-aa1b-455d-9c8c-0a41ce61d186", "source": {"name": "Vernon", "slug": "vernon"}, "source_identifier": "27875", "external_references": [], "date_modified": "2023-06-14T16:33:30.576250+10:00"}, {"id": 34839, "name": "Lisa Chatfield", "roles_in_work": [{"id": 2263415, "title": "Scarfies [DVD]", "work_id": 93150, "role": "producer", "role_id": 1089, "is_primary": true}], "also_known_as": "", "date_of_birth": "", "date_of_death": "", "genders": [], "languages": [], "places_of_operation": [], "biography": "", "biography_author": null, "date_of_biography": "2023-05-09T17:32:24.396310+10:00", "external_links": [], "uuid": "87ddb84a-7790-4d2d-bb32-c97e16d2da0f", "source": {"name": "Vernon", "slug": "vernon"}, "source_identifier": "23913", "external_references": [{"id": 38035, "source": {"name": "Wikidata", "slug": "wikidata"}, "source_identifier": "Q121299099"}], "date_modified": "2023-09-05T22:27:24.187935+10:00"}, {"id": 34838, "name": "Nightmare Productions", "roles_in_work": [{"id": 2263413, "title": "Scarfies [DVD]", "work_id": 93150, "role": "production company", "role_id": 941, "is_primary": true}], "also_known_as": "", "date_of_birth": "", "date_of_death": "", "genders": [], "languages": [], "places_of_operation": [], "biography": "", "biography_author": null, "date_of_biography": "2023-05-09T17:32:24.152134+10:00", "external_links": [], "uuid": "1a40c605-1f68-4451-9b27-23f19f47f21f", "source": {"name": "Vernon", "slug": "vernon"}, "source_identifier": "10968", "external_references": [{"id": 51332, "source": {"name": "Wikidata", "slug": "wikidata"}, "source_identifier": "Q121357756"}], "date_modified": "2023-09-05T23:31:55.610460+10:00"}, {"id": 34837, "name": "Hugh Wilson", "roles_in_work": [{"id": 1997170, "title": "Guarding Tess", "work_id": 93148, "role": "director", "role_id": 938, "is_primary": true}], "also_known_as": "", "date_of_birth": "1943-08-21", "date_of_death": "2018-01-14", "genders": [{"id": 9, "name": "Male", "slug": "male"}], "languages": [{"id": 1, "name": "English", "slug": "english"}], "places_of_operation": [{"id": 1, "name": "United States of America", "slug": "united-states-of-america"}], "biography": "Hugh Hamilton Wilson Jr. (August 21, 1943 – January 14, 2018) was an American film director, writer and television showrunner. He is best known as the creator of the TV series WKRP in Cincinnati and Frank's Place, and as the director of the film comedies Police Academy and The First Wives Club.", "biography_author": "Wikidata", "date_of_biography": "2022-05-19T11:46:44.913037+10:00", "external_links": [{"id": 2248, "uri": "https://en.wikipedia.org/wiki/Hugh_Wilson_(director)"}], "uuid": "2cf08041-49d9-4725-abd4-b88857e708a3", "source": {"name": "Vernon", "slug": "vernon"}, "source_identifier": "20697", "external_references": [{"id": 9656, "source": {"name": "Wikidata", "slug": "wikidata"}, "source_identifier": "Q968324"}, {"id": 9657, "source": {"name": "VIAF", "slug": "viaf"}, "source_identifier": "100234342"}, {"id": 9658, "source": {"name": "LOC Auth", "slug": "loc-auth"}, "source_identifier": "n85376940"}, {"id": 9659, "source": {"name": "WorldCat", "slug": "worldcat"}, "source_identifier": "lccn-n85376940"}], "date_modified": "2023-09-13T12:30:02.863276+10:00"}, {"id": 34830, "name": "Big Deal Picures", "roles_in_work": [{"id": 2308341, "title": "Staggered", "work_id": 93140, "role": "production company", "role_id": 941, "is_primary": true}], "also_known_as": "", "date_of_birth": "", "date_of_death": "", "genders": [], "languages": [], "places_of_operation": [], "biography": "", "biography_author": null, "date_of_biography": "2023-05-09T18:48:29.782605+10:00", "external_links": [], "uuid": "4a1d7659-e92f-4b6f-bf54-ba6dc8d6a348", "source": {"name": "Vernon", "slug": "vernon"}, "source_identifier": "5845", "external_references": [{"id": 40136, "source": {"name": "Wikidata", "slug": "wikidata"}, "source_identifier": "Q121270914"}], "date_modified": "2023-09-05T18:01:46.161251+10:00"}, {"id": 34827, "name": "Azoff Films", "roles_in_work": [{"id": 2355345, "title": "The Hurricane", "work_id": 93138, "role": "production company", "role_id": 941, "is_primary": true}], "also_known_as": "", "date_of_birth": "", "date_of_death": "", "genders": [], "languages": [], "places_of_operation": [], "biography": "", "biography_author": null, "date_of_biography": "2023-05-09T20:03:00.330987+10:00", "external_links": [], "uuid": "bccebea6-f6f1-476b-9f21-9d03c59f5190", "source": {"name": "Vernon", "slug": "vernon"}, "source_identifier": "5651", "external_references": [{"id": 52188, "source": {"name": "Wikidata", "slug": "wikidata"}, "source_identifier": "Q121357456"}], "date_modified": "2023-09-05T17:52:03.875908+10:00"}, {"id": 34822, "name": "Richard Gladstein", "roles_in_work": [{"id": 924396, "title": "Hurly burly", "work_id": 93664, "role": "co-producer", "role_id": 915, "is_primary": true}, {"id": 2337112, "title": "The Cider House rules", "work_id": 93135, "role": "producer", "role_id": 1089, "is_primary": true}], "also_known_as": "", "date_of_birth": "", "date_of_death": "", "genders": [], "languages": [], "places_of_operation": [], "biography": "", "biography_author": null, "date_of_biography": "2023-05-09T19:33:40.241387+10:00", "external_links": [], "uuid": "2b84fdb2-73bc-4edf-9c52-540e55f1c5e5", "source": {"name": "Vernon", "slug": "vernon"}, "source_identifier": "27470", "external_references": [], "date_modified": "2023-06-14T16:33:30.576250+10:00"}]}