{"count": 28687, "next": "https://api.acmi.net.au/creators/?page=2670", "previous": "https://api.acmi.net.au/creators/?page=2668", "results": [{"id": 11813, "name": "Shantelle Thompson", "roles_in_work": [{"id": 2656058, "title": "My miracle", "work_id": 111178, "role": "creator", "role_id": 968, "is_primary": true}], "also_known_as": "", "date_of_birth": "", "date_of_death": "", "genders": [{"id": 5, "name": "Female", "slug": "female"}], "languages": [], "places_of_operation": [], "biography": "", "biography_author": null, "date_of_biography": "2023-05-09T17:09:49.620093+10:00", "external_links": [], "uuid": "f776da86-54a8-4aea-a89e-82f04b1f59cb", "source": {"name": "Vernon", "slug": "vernon"}, "source_identifier": "35349", "external_references": [], "date_modified": "2025-03-05T16:21:52.982527+11:00"}, {"id": 11812, "name": "Ada Peterson", "roles_in_work": [{"id": 2656063, "title": "Rhonda’s story : spoken by Ada Peterson", "work_id": 111177, "role": "creator", "role_id": 968, "is_primary": true}, {"id": 2656073, "title": "Ada's story", "work_id": 111175, "role": "creator", "role_id": 968, "is_primary": true}], "also_known_as": "", "date_of_birth": "", "date_of_death": "", "genders": [{"id": 5, "name": "Female", "slug": "female"}], "languages": [], "places_of_operation": [], "biography": "", "biography_author": null, "date_of_biography": "2023-05-09T17:09:58.773774+10:00", "external_links": [], "uuid": "0cfb3739-20bb-414f-8259-2a87b859cd25", "source": {"name": "Vernon", "slug": "vernon"}, "source_identifier": "35345", "external_references": [], "date_modified": "2025-03-05T16:22:03.125593+11:00"}, {"id": 11811, "name": "Simone Spencer", "roles_in_work": [{"id": 2656033, "title": "Barkindji memories", "work_id": 111173, "role": "creator", "role_id": 968, "is_primary": true}], "also_known_as": "", "date_of_birth": "", "date_of_death": "", "genders": [{"id": 5, "name": "Female", "slug": "female"}], "languages": [], "places_of_operation": [], "biography": "", "biography_author": null, "date_of_biography": "2023-05-09T17:09:55.882503+10:00", "external_links": [], "uuid": "24024718-9ae6-41c1-8c69-a948f93cc7d2", "source": {"name": "Vernon", "slug": "vernon"}, "source_identifier": "35347", "external_references": [], "date_modified": "2025-03-05T16:21:36.079142+11:00"}, {"id": 11808, "name": "Tristan Mungatopi", "roles_in_work": [{"id": 3110302, "title": "From Melville to Melbourne", "work_id": 111165, "role": "creator", "role_id": 968, "is_primary": true}, {"id": 3110359, "title": "Behind the scenes", "work_id": 111168, "role": "cast", "role_id": 33, "is_primary": false}], "also_known_as": "", "date_of_birth": "", "date_of_death": "", "genders": [], "languages": [], "places_of_operation": [], "biography": "", "biography_author": null, "date_of_biography": "2023-07-05T03:45:56.816417+10:00", "external_links": [], "uuid": "6d24e3d0-8e19-482d-9041-c7a4ab5e17bb", "source": {"name": "Vernon", "slug": "vernon"}, "source_identifier": "33557", "external_references": [{"id": 42648, "source": {"name": "Wikidata", "slug": "wikidata"}, "source_identifier": "Q121079204"}], "date_modified": "2025-12-17T14:36:31.358093+11:00"}, {"id": 11805, "name": "Nicole Hucks", "roles_in_work": [{"id": 3093393, "title": "Where she belongs...", "work_id": 111164, "role": "creator", "role_id": 968, "is_primary": true}, {"id": 3093401, "title": "Pitcha this : youth telling stories : Digital Storytelling project", "work_id": 111158, "role": "creator", "role_id": 968, "is_primary": true}], "also_known_as": "", "date_of_birth": "", "date_of_death": "", "genders": [{"id": 5, "name": "Female", "slug": "female"}], "languages": [], "places_of_operation": [], "biography": "", "biography_author": null, "date_of_biography": "2023-05-09T15:41:34.870304+10:00", "external_links": [], "uuid": "6385a82a-1917-46fc-b317-f70f886cc7b3", "source": {"name": "Vernon", "slug": "vernon"}, "source_identifier": "34723", "external_references": [], "date_modified": "2025-04-02T22:35:36.665272+11:00"}, {"id": 11804, "name": "Simone Andy", "roles_in_work": [{"id": 3093368, "title": "My Grandfather TL", "work_id": 111163, "role": "creator", "role_id": 968, "is_primary": true}, {"id": 3093403, "title": "Pitcha this : youth telling stories : Digital Storytelling project", "work_id": 111158, "role": "creator", "role_id": 968, "is_primary": true}], "also_known_as": "", "date_of_birth": "", "date_of_death": "", "genders": [{"id": 5, "name": "Female", "slug": "female"}], "languages": [], "places_of_operation": [], "biography": "", "biography_author": null, "date_of_biography": "2023-05-09T15:41:35.352953+10:00", "external_links": [], "uuid": "c52151e1-ec01-4c50-81f2-575e782b745c", "source": {"name": "Vernon", "slug": "vernon"}, "source_identifier": "35383", "external_references": [], "date_modified": "2025-04-02T22:35:38.307956+11:00"}, {"id": 11803, "name": "Teialah Mason", "roles_in_work": [{"id": 3093378, "title": "My Nan", "work_id": 111162, "role": "creator", "role_id": 968, "is_primary": true}, {"id": 3093404, "title": "Pitcha this : youth telling stories : Digital Storytelling project", "work_id": 111158, "role": "creator", "role_id": 968, "is_primary": true}], "also_known_as": "", "date_of_birth": "", "date_of_death": "", "genders": [{"id": 5, "name": "Female", "slug": "female"}], "languages": [], "places_of_operation": [], "biography": "", "biography_author": null, "date_of_biography": "2023-05-09T15:41:35.577270+10:00", "external_links": [], "uuid": "879796f2-deba-4951-94c0-cc3c68423fa6", "source": {"name": "Vernon", "slug": "vernon"}, "source_identifier": "35384", "external_references": [], "date_modified": "2025-04-02T22:35:39.120830+11:00"}, {"id": 11802, "name": "Kalimna Andy", "roles_in_work": [{"id": 3093399, "title": "Pitcha this : youth telling stories : Digital Storytelling project", "work_id": 111158, "role": "creator", "role_id": 968, "is_primary": true}, {"id": 3093388, "title": "The Walker women", "work_id": 111161, "role": "creator", "role_id": 968, "is_primary": true}], "also_known_as": "", "date_of_birth": "", "date_of_death": "", "genders": [{"id": 5, "name": "Female", "slug": "female"}], "languages": [], "places_of_operation": [], "biography": "", "biography_author": null, "date_of_biography": "2023-05-09T15:41:34.426983+10:00", "external_links": [], "uuid": "368afee6-d1b4-4d2f-8d3c-b78184caff41", "source": {"name": "Vernon", "slug": "vernon"}, "source_identifier": "35380", "external_references": [], "date_modified": "2025-04-02T22:35:35.353001+11:00"}, {"id": 11801, "name": "Rebecca Phillips", "roles_in_work": [{"id": 3093402, "title": "Pitcha this : youth telling stories : Digital Storytelling project", "work_id": 111158, "role": "creator", "role_id": 968, "is_primary": true}, {"id": 3093363, "title": "Between generations", "work_id": 111159, "role": "creator", "role_id": 968, "is_primary": true}], "also_known_as": "", "date_of_birth": "", "date_of_death": "", "genders": [{"id": 5, "name": "Female", "slug": "female"}], "languages": [], "places_of_operation": [], "biography": "", "biography_author": null, "date_of_biography": "2023-05-09T15:41:35.128510+10:00", "external_links": [], "uuid": "295cb414-b4d7-4bc8-b4a4-5fae21912f22", "source": {"name": "Vernon", "slug": "vernon"}, "source_identifier": "35382", "external_references": [], "date_modified": "2025-04-02T22:35:37.590529+11:00"}, {"id": 11800, "name": "Lionel Austin", "roles_in_work": [{"id": 3093373, "title": "My island home", "work_id": 111157, "role": "creator", "role_id": 968, "is_primary": true}, {"id": 3093400, "title": "Pitcha this : youth telling stories : Digital Storytelling project", "work_id": 111158, "role": "creator", "role_id": 968, "is_primary": true}], "also_known_as": "", "date_of_birth": "", "date_of_death": "", "genders": [{"id": 9, "name": "Male", "slug": "male"}], "languages": [], "places_of_operation": [], "biography": "", "biography_author": null, "date_of_biography": "2023-05-09T15:41:34.650697+10:00", "external_links": [], "uuid": "c925b0f2-cc7e-4392-b43e-90151a5e5fc9", "source": {"name": "Vernon", "slug": "vernon"}, "source_identifier": "35381", "external_references": [], "date_modified": "2025-04-02T22:35:36.060272+11:00"}]}