{"count": 28683, "next": "https://api.acmi.net.au/creators/?page=2217", "previous": "https://api.acmi.net.au/creators/?page=2215", "results": [{"id": 18351, "name": "Fraser Film and Video", "roles_in_work": [{"id": 2646619, "title": "Those who make the way: Mount Isa, the first fifty years", "work_id": 73761, "role": "production company", "role_id": 941, "is_primary": true}, {"id": 1912003, "title": "Women of the iron frontier", "work_id": 83789, "role": "production company", "role_id": 941, "is_primary": true}], "also_known_as": "", "date_of_birth": null, "date_of_death": null, "genders": [], "languages": [], "places_of_operation": [], "biography": "", "biography_author": null, "date_of_biography": null, "external_links": [], "uuid": "6a975330-2817-43dd-bdc8-efb33533388f", "source": {"name": "Vernon", "slug": "vernon"}, "source_identifier": "8531", "external_references": [], "date_modified": "2025-03-05T13:07:22.257291+11:00"}, {"id": 18349, "name": "Preben Frank Film", "roles_in_work": [{"id": 2646611, "title": "Thorvaldsen: Denmark's great sculptor", "work_id": 73760, "role": "production company", "role_id": 941, "is_primary": true}, {"id": 877696, "title": "The Danish village church", "work_id": 90832, "role": "production company", "role_id": 941, "is_primary": true}], "also_known_as": "", "date_of_birth": null, "date_of_death": null, "genders": [], "languages": [], "places_of_operation": [], "biography": "", "biography_author": null, "date_of_biography": null, "external_links": [], "uuid": "af428f29-8978-496b-a739-eed283aef96b", "source": {"name": "Vernon", "slug": "vernon"}, "source_identifier": "11621", "external_references": [], "date_modified": "2025-03-05T13:07:17.187356+11:00"}, {"id": 18348, "name": "Sol Film", "roles_in_work": [{"id": 755573, "title": "Thomas the orienteer", "work_id": 73755, "role": "production company", "role_id": 941, "is_primary": true}, {"id": 2650276, "title": "Egypt: the Nile River kingdom", "work_id": 83049, "role": "production company", "role_id": 941, "is_primary": true}], "also_known_as": "", "date_of_birth": "", "date_of_death": "", "genders": [], "languages": [], "places_of_operation": [], "biography": "", "biography_author": null, "date_of_biography": "2023-05-09T15:53:49.287759+10:00", "external_links": [], "uuid": "89400591-4406-48b1-9288-1921db3bbecc", "source": {"name": "Vernon", "slug": "vernon"}, "source_identifier": "12724", "external_references": [{"id": 35672, "source": {"name": "Wikidata", "slug": "wikidata"}, "source_identifier": "Q121126408"}], "date_modified": "2025-03-05T14:12:07.246015+11:00"}, {"id": 18346, "name": "Chadstone High School. Senior students", "roles_in_work": [{"id": 2468911, "title": "This was Chadstone", "work_id": 73750, "role": "production company", "role_id": 941, "is_primary": true}], "also_known_as": "", "date_of_birth": "", "date_of_death": "", "genders": [], "languages": [], "places_of_operation": [], "biography": "", "biography_author": null, "date_of_biography": "2023-08-14T11:49:13.934449+10:00", "external_links": [], "uuid": "da6d5bca-0c7d-4505-b5ec-c76fa5e02fd7", "source": {"name": "Vernon", "slug": "vernon"}, "source_identifier": "12434", "external_references": [], "date_modified": "2023-08-14T11:49:13.934777+10:00"}, {"id": 18344, "name": "Newfilms", "roles_in_work": [{"id": 2647157, "title": "The Cavity caper", "work_id": 75464, "role": "production company", "role_id": 941, "is_primary": true}, {"id": 3086064, "title": "The Cross country event", "work_id": 97649, "role": "production company", "role_id": 941, "is_primary": true}, {"id": 3086074, "title": "The Ten commandments", "work_id": 97647, "role": "production company", "role_id": 941, "is_primary": true}, {"id": 2524114, "title": "This little pig went to market", "work_id": 73747, "role": "production company", "role_id": 941, "is_primary": true}, {"id": 859946, "title": "Trucking along", "work_id": 74043, "role": "production company", "role_id": 941, "is_primary": true}, {"id": 762864, "title": "Injury in sport", "work_id": 76804, "role": "production company", "role_id": 941, "is_primary": true}, {"id": 2127896, "title": "Bush corridors", "work_id": 76704, "role": "production company", "role_id": 941, "is_primary": true}, {"id": 2647574, "title": "Breaking point", "work_id": 76703, "role": "production company", "role_id": 941, "is_primary": true}, {"id": 762008, "title": "Time to share", "work_id": 76460, "role": "production company", "role_id": 941, "is_primary": true}], "also_known_as": "", "date_of_birth": "", "date_of_death": "", "genders": [], "languages": [], "places_of_operation": [], "biography": "", "biography_author": null, "date_of_biography": "2023-05-09T19:40:06.321650+10:00", "external_links": [], "uuid": "17746fb4-6424-4c84-af38-90852d0a3517", "source": {"name": "Vernon", "slug": "vernon"}, "source_identifier": "3712", "external_references": [{"id": 35120, "source": {"name": "Wikidata", "slug": "wikidata"}, "source_identifier": "Q121079378"}], "date_modified": "2025-03-17T10:42:24.603432+11:00"}, {"id": 18343, "name": "Cinesports", "roles_in_work": [{"id": 2468896, "title": "This is volleyball", "work_id": 73743, "role": "production company", "role_id": 941, "is_primary": true}], "also_known_as": "", "date_of_birth": "", "date_of_death": "", "genders": [], "languages": [], "places_of_operation": [], "biography": "", "biography_author": null, "date_of_biography": "2023-08-14T11:48:49.523601+10:00", "external_links": [], "uuid": "6416e839-07d0-4ae3-bcbc-b5fd5748170d", "source": {"name": "Vernon", "slug": "vernon"}, "source_identifier": "32629", "external_references": [], "date_modified": "2023-08-14T11:48:49.523893+10:00"}, {"id": 18339, "name": "Crown International Pictures", "roles_in_work": [{"id": 2468893, "title": "This is the place", "work_id": 73732, "role": "production company", "role_id": 941, "is_primary": true}, {"id": 881980, "title": "The Van", "work_id": 92988, "role": "production company", "role_id": 941, "is_primary": true}], "also_known_as": "", "date_of_birth": "", "date_of_death": "", "genders": [], "languages": [], "places_of_operation": [], "biography": "", "biography_author": null, "date_of_biography": "2023-08-14T11:48:42.132214+10:00", "external_links": [], "uuid": "bb7780fa-6b8a-4f20-b0f9-6ea426eca80f", "source": {"name": "Vernon", "slug": "vernon"}, "source_identifier": "7204", "external_references": [], "date_modified": "2023-08-14T11:48:42.132425+10:00"}, {"id": 18338, "name": "Madeleine Williams", "roles_in_work": [{"id": 2392179, "title": "This is the ABC", "work_id": 73729, "role": "producer", "role_id": 1089, "is_primary": true}], "also_known_as": "", "date_of_birth": "", "date_of_death": "", "genders": [], "languages": [], "places_of_operation": [], "biography": "", "biography_author": null, "date_of_biography": "2023-08-09T03:53:16.565581+10:00", "external_links": [], "uuid": "f9fa3ccf-d05e-4b7b-8700-46e74c753039", "source": {"name": "Vernon", "slug": "vernon"}, "source_identifier": "24186", "external_references": [], "date_modified": "2023-08-09T03:53:16.565823+10:00"}, {"id": 18334, "name": "Ernest Pintoff", "roles_in_work": [{"id": 860375, "title": "The Violinist", "work_id": 74392, "role": "director", "role_id": 938, "is_primary": true}, {"id": 3092688, "title": "This is Marshall McLuhan: the medium is the message", "work_id": 73723, "role": "co-producer", "role_id": 915, "is_primary": true}, {"id": 827408, "title": "The Critic", "work_id": 96775, "role": "producer/director", "role_id": 31, "is_primary": true}, {"id": 864390, "title": "The Interview", "work_id": 77916, "role": "producer/director", "role_id": 31, "is_primary": true}], "also_known_as": "", "date_of_birth": "1931-12-15", "date_of_death": "2002-01-12", "genders": [{"id": 9, "name": "Male", "slug": "male"}], "languages": [{"id": 1, "name": "English", "slug": "english"}], "places_of_operation": [{"id": 1, "name": "United States of America", "slug": "united-states-of-america"}], "biography": "Ernest Pintoff (December 15, 1931 in Watertown, Connecticut – January 12, 2002 in Woodland Hills, Los Angeles) was an American film and television director, screenwriter and film producer.He won the Oscar for Best Animated Short for The Critic (1963), a satire on modern art written and narrated by Mel Brooks.", "biography_author": "Wikidata", "date_of_biography": "2023-08-01T14:47:09.761527+10:00", "external_links": [{"id": 3949, "uri": "https://en.wikipedia.org/wiki/Ernest_Pintoff"}], "uuid": "89dc8217-6af0-4f6e-ad80-d2777413db6c", "source": {"name": "Vernon", "slug": "vernon"}, "source_identifier": "18870", "external_references": [{"id": 25657, "source": {"name": "Wikidata", "slug": "wikidata"}, "source_identifier": "Q1356497"}, {"id": 28346, "source": {"name": "VIAF", "slug": "viaf"}, "source_identifier": "32184323"}, {"id": 28347, "source": {"name": "LOC Auth", "slug": "loc-auth"}, "source_identifier": "n90638780"}, {"id": 28348, "source": {"name": "WorldCat", "slug": "worldcat"}, "source_identifier": "lccn-n90638780"}], "date_modified": "2025-03-26T22:35:02.272951+11:00"}, {"id": 18332, "name": "Kodak International Film", "roles_in_work": [{"id": 2468883, "title": "This Bloomin' world", "work_id": 73713, "role": "production company", "role_id": 941, "is_primary": true}], "also_known_as": "", "date_of_birth": "", "date_of_death": "", "genders": [], "languages": [], "places_of_operation": [], "biography": "", "biography_author": null, "date_of_biography": "2023-08-14T11:48:21.824690+10:00", "external_links": [], "uuid": "4b6e4d0a-5635-4f4a-abb2-f6f67da82c2b", "source": {"name": "Vernon", "slug": "vernon"}, "source_identifier": "9814", "external_references": [], "date_modified": "2023-08-14T11:48:21.824905+10:00"}]}