{"count": 28687, "next": "https://api.acmi.net.au/creators/?page=2834", "previous": "https://api.acmi.net.au/creators/?page=2832", "results": [{"id": 7905, "name": "Indigenous Unit, AFC", "roles_in_work": [{"id": 2748643, "title": "Payback", "work_id": 114042, "role": "partner", "role_id": 575, "is_primary": false}, {"id": 2359993, "title": "Stories and songs of the people: they came for gathering", "work_id": 91860, "role": "production company", "role_id": 941, "is_primary": true}, {"id": 2633021, "title": "Bush mechanics", "work_id": 108648, "role": "production company", "role_id": 941, "is_primary": true}], "also_known_as": "", "date_of_birth": "", "date_of_death": "", "genders": [], "languages": [], "places_of_operation": [], "biography": "", "biography_author": null, "date_of_biography": "2023-05-10T03:35:17.087140+10:00", "external_links": [], "uuid": "aaf1f701-9c50-4659-a0c5-64d69de3f9bc", "source": {"name": "Vernon", "slug": "vernon"}, "source_identifier": "111584", "external_references": [{"id": 42516, "source": {"name": "Wikidata", "slug": "wikidata"}, "source_identifier": "Q121337101"}], "date_modified": "2025-03-12T23:03:25.685624+11:00"}, {"id": 7903, "name": "Chunky Move", "roles_in_work": [{"id": 3097906, "title": "Closer", "work_id": 108388, "role": "production company", "role_id": 941, "is_primary": true}], "also_known_as": "", "date_of_birth": "", "date_of_death": "", "genders": [], "languages": [], "places_of_operation": [], "biography": "Chunky Move is an Australian contemporary dance company from Southbank, Victoria\n\nIt was founded in 1995 and debuted at the Melbourne International Arts Festival with artistic director Gideon Obarzanek.\nThe company's work is diverse and has included stage, new-media and installation works. Chunky Move has toured extensively including the United States of America, Singapore, Hong Kong, France, Germany, Hungary, United Kingdom, Colombia, Japan, Belgium, Canada and Russia. Reviews of their performances are regularly published in the Village Voice.\nIn 2011 Gideon Obarzanek announced that he would be stepping down as artistic director. Anouk van Dijk was announced as the new artistic director, starting her new role in 2012 - 2018. In December 2018, Antony Hamilton was appointed artistic director of the company. Since commencing this role in April 2019, the team has been signalling the programming that will be characteristic of Chunky Move's future, including the presentation of Token Armies for Melbourne International Arts Festival 2019. In 2020 Chunky Move celebrates its 25th anniversary.\nWorks include:\n\nToken Armies (2019) - Antony Hamilton\nUniversal Estate (2019) - Antony Hamilton\nSimulcast (2019)\nNext Move 11 (2018)\nCommon Ground (2018)\nAccumulation (2018)\nREDSHIFT (2017)\nANTI—GRAVITY (2017)\nNext Move 9 (works by Jo Lloyd, Nicola Gunn and Melanie Lane, 2016)\nL U C I D (2016)\nRule of Thirds (2016)\nDepth of Field (2015)\nMiss Universal (2015)\nComplexity of Belonging (2014)\nIt Cannot Be Stopped (2014)\n247 Days (2013)\nEmbodiment 1:1:1 \nAn Act of Now (2012)\nKeep Everything (2012)\nAORTA(choreographed by Stepahnie Lake, 2013)\ngentle is the power\nAssembly\nIt Sounds Silly (choreographed by Adam Wheeler)\nConnected\nFaker\nMix Tape (choreographed by Stephanie Lake) awarded 2010 Green Room Award: Best Choreography - Stephanie Lake and 2010 Green Room Award: Best Male Dancer - Timothy Ohl \nMortal Engine\nBlack Marrow (choreographed by Erna Ómarsdóttir and Damien Jalet)\nGlow (2007) using a \"sophisticated video tracking system\" and \"interactive video technologies\" with Frieder Weiss's interactive system design\ndisagreeable object (choreographed by Michelle Heaven)\nI Like This (choreographed by Antony Hamilton and Byron Perry)\nDance Like Your Old Man (film)\nTwo Faced Bastard\nI Want to Dance Better at Parties  (2006)\nTense Dave (2005) awarded the 2005 Bessie Award for Choreography\nWanted: ballet for a contemporary democracy\nCloser \nArcade\nCrumpled\nCorrupted 2\nConnected", "biography_author": "Wikidata", "date_of_biography": "2023-09-05T18:37:19.513182+10:00", "external_links": [{"id": 5751, "uri": "https://en.wikipedia.org/wiki/Chunky_Move"}], "uuid": "0d14f416-54ab-4f23-b28a-43f1a8818324", "source": {"name": "Vernon", "slug": "vernon"}, "source_identifier": "110078", "external_references": [{"id": 41375, "source": {"name": "Wikidata", "slug": "wikidata"}, "source_identifier": "Q287500"}], "date_modified": "2025-05-20T22:35:12.933659+10:00"}, {"id": 7900, "name": "Bob Rogers", "roles_in_work": [{"id": 2748636, "title": "Ballet robotique", "work_id": 108387, "role": "creator", "role_id": 968, "is_primary": true}, {"id": 1807353, "title": "Rainbow war", "work_id": 86408, "role": "producer", "role_id": 1089, "is_primary": true}, {"id": 1845713, "title": "Rainbow war (Captioned)", "work_id": 79715, "role": "producer", "role_id": 1089, "is_primary": true}, {"id": 765195, "title": "Ballet robotique", "work_id": 77752, "role": "producer/director", "role_id": 31, "is_primary": true}, {"id": 2753490, "title": "Car of your dreams", "work_id": 98791, "role": "producer/director", "role_id": 31, "is_primary": true}, {"id": 865191, "title": "Rainbow war (K)", "work_id": 78758, "role": "producer/director", "role_id": 31, "is_primary": true}], "also_known_as": "", "date_of_birth": "", "date_of_death": "", "genders": [], "languages": [], "places_of_operation": [], "biography": "", "biography_author": null, "date_of_biography": "2023-08-11T14:34:34.863203+10:00", "external_links": [], "uuid": "01123af8-625e-40c9-8621-6c71a0db8b8e", "source": {"name": "Vernon", "slug": "vernon"}, "source_identifier": "111056", "external_references": [], "date_modified": "2025-03-13T01:26:13.917216+11:00"}, {"id": 7897, "name": "Jochen Kuhn", "roles_in_work": [{"id": 2748635, "title": "Recently 2", "work_id": 108386, "role": "director", "role_id": 938, "is_primary": true}, {"id": 2748634, "title": "Recently 2", "work_id": 108386, "role": "creator", "role_id": 968, "is_primary": true}, {"id": 2748633, "title": "Recently 2", "work_id": 108386, "role": "animator", "role_id": 497, "is_primary": false}], "also_known_as": "", "date_of_birth": "1954-04-07", "date_of_death": "", "genders": [{"id": 9, "name": "Male", "slug": "male"}], "languages": [{"id": 5, "name": "German", "slug": "german"}], "places_of_operation": [{"id": 18, "name": "Germany", "slug": "germany"}], "biography": "", "biography_author": null, "date_of_biography": "2023-08-14T10:30:40.423438+10:00", "external_links": [], "uuid": "c01347cf-b63f-4c19-b36a-908c550de7ba", "source": {"name": "Vernon", "slug": "vernon"}, "source_identifier": "110977", "external_references": [{"id": 38478, "source": {"name": "Wikidata", "slug": "wikidata"}, "source_identifier": "Q1294775"}, {"id": 54842, "source": {"name": "VIAF", "slug": "viaf"}, "source_identifier": "223451584"}, {"id": 54843, "source": {"name": "WorldCat", "slug": "worldcat"}, "source_identifier": "viaf-223451584"}], "date_modified": "2025-03-12T23:02:57.485929+11:00"}, {"id": 7896, "name": "Hadar Friedlich", "roles_in_work": [{"id": 2748632, "title": "Grief", "work_id": 108385, "role": "director", "role_id": 938, "is_primary": true}, {"id": 2748631, "title": "Grief", "work_id": 108385, "role": "creator", "role_id": 968, "is_primary": true}], "also_known_as": "", "date_of_birth": "", "date_of_death": "", "genders": [], "languages": [], "places_of_operation": [], "biography": "", "biography_author": null, "date_of_biography": "2023-08-11T17:10:17.341934+10:00", "external_links": [], "uuid": "2634a521-f981-4c16-9eb6-8fcd6ef8a5f4", "source": {"name": "Vernon", "slug": "vernon"}, "source_identifier": "110975", "external_references": [{"id": 35012, "source": {"name": "Wikidata", "slug": "wikidata"}, "source_identifier": "Q115016025"}], "date_modified": "2025-03-12T23:02:55.347233+11:00"}, {"id": 7890, "name": "Michael Booth", "roles_in_work": [{"id": 2748619, "title": "The Hitch", "work_id": 108384, "role": "director", "role_id": 938, "is_primary": true}, {"id": 2748620, "title": "The Hitch", "work_id": 108384, "role": "creator", "role_id": 968, "is_primary": true}, {"id": 2748621, "title": "The Hitch", "work_id": 108384, "role": "producer", "role_id": 1089, "is_primary": true}], "also_known_as": "", "date_of_birth": "", "date_of_death": "", "genders": [], "languages": [], "places_of_operation": [], "biography": "\nMichael Booth attended the NIDA Playwright's Studio in 1996. His first play 'The Tunnel' was workshopped at the National Playwrights' Conference, and subsequently performed as part of '3 Strikes', the first program put on by the Tamarama Rock Surfers at the Old Fitzroy Hotel.\n\nHe has directed several theatre productions, including 'Spike Heels' for the 2000 Sydney Fringe and a new production of David Mamet's 'Sexual Perversity in Chicago'.\n\nMichael studied acting at the Atlantic Theatre Company in New York, the Steppenwolf Theatre Company in Chicago, and has performed in many plays around Sydney.", "biography_author": null, "date_of_biography": "2025-03-12T23:02:51.009580+11:00", "external_links": [], "uuid": "fb94be97-680c-480d-824e-7196675ea4d6", "source": {"name": "Vernon", "slug": "vernon"}, "source_identifier": "110973", "external_references": [{"id": 36913, "source": {"name": "Wikidata", "slug": "wikidata"}, "source_identifier": "Q121126565"}], "date_modified": "2025-03-12T23:02:51.009810+11:00"}, {"id": 7881, "name": "Liz Garneau", "roles_in_work": [{"id": 2748609, "title": "The French doors", "work_id": 108383, "role": "producer", "role_id": 1089, "is_primary": true}], "also_known_as": "", "date_of_birth": "", "date_of_death": "", "genders": [], "languages": [], "places_of_operation": [], "biography": "", "biography_author": null, "date_of_biography": "2023-05-09T19:53:20.350175+10:00", "external_links": [], "uuid": "6511dc1f-b687-47d9-9eed-b6cb80bf9d7e", "source": {"name": "Vernon", "slug": "vernon"}, "source_identifier": "111088", "external_references": [{"id": 39614, "source": {"name": "Wikidata", "slug": "wikidata"}, "source_identifier": "Q121036000"}], "date_modified": "2025-03-12T23:02:41.391523+11:00"}, {"id": 7880, "name": "Steve Ayson", "roles_in_work": [{"id": 2748608, "title": "The French doors", "work_id": 108383, "role": "director", "role_id": 938, "is_primary": true}, {"id": 2748607, "title": "The French doors", "work_id": 108383, "role": "creator", "role_id": 968, "is_primary": true}], "also_known_as": "", "date_of_birth": "", "date_of_death": "", "genders": [], "languages": [], "places_of_operation": [], "biography": "Steve Ayson grew up in Hamilton, New Zealand. He trained in graphic design and pursued a career in advertising which led to his interest in film. The French Doors is his second short film, and was funded by the New Zealand Film Commission.", "biography_author": null, "date_of_biography": "2025-03-12T23:02:40.692045+11:00", "external_links": [], "uuid": "4d105273-ad96-48ae-9a5e-388917d9e7e1", "source": {"name": "Vernon", "slug": "vernon"}, "source_identifier": "110970", "external_references": [{"id": 37640, "source": {"name": "Wikidata", "slug": "wikidata"}, "source_identifier": "Q121270880"}], "date_modified": "2025-03-12T23:02:40.692319+11:00"}, {"id": 7878, "name": "Vikki Wilson", "roles_in_work": [{"id": 2748604, "title": "Superpermanence", "work_id": 108382, "role": "creator", "role_id": 968, "is_primary": true}, {"id": 2748606, "title": "Superpermanence", "work_id": 108382, "role": "visual artist", "role_id": 493, "is_primary": false}], "also_known_as": "", "date_of_birth": "", "date_of_death": "", "genders": [], "languages": [], "places_of_operation": [], "biography": "", "biography_author": null, "date_of_biography": "2023-05-09T19:08:41.646814+10:00", "external_links": [], "uuid": "8a940e55-79a9-4495-9ebe-b19f08e784b5", "source": {"name": "Vernon", "slug": "vernon"}, "source_identifier": "110969", "external_references": [], "date_modified": "2025-03-12T23:02:39.208772+11:00"}, {"id": 7877, "name": "Kalman Apple", "roles_in_work": [{"id": 2748603, "title": "Speed for thespians", "work_id": 108381, "role": "director", "role_id": 938, "is_primary": true}, {"id": 2748602, "title": "Speed for thespians", "work_id": 108381, "role": "creator", "role_id": 968, "is_primary": true}], "also_known_as": "", "date_of_birth": "2000-01-01", "date_of_death": "", "genders": [{"id": 9, "name": "Male", "slug": "male"}], "languages": [], "places_of_operation": [], "biography": "", "biography_author": null, "date_of_biography": "2023-08-14T10:48:26.158330+10:00", "external_links": [], "uuid": "b2465a94-c7c6-4915-a23c-a8f6de93a3fa", "source": {"name": "Vernon", "slug": "vernon"}, "source_identifier": "110968", "external_references": [{"id": 38837, "source": {"name": "Wikidata", "slug": "wikidata"}, "source_identifier": "Q22114981"}], "date_modified": "2025-03-12T23:02:37.155979+11:00"}]}