{"count": 28687, "next": "https://api.acmi.net.au/creators/?page=2326", "previous": "https://api.acmi.net.au/creators/?page=2324", "results": [{"id": 16293, "name": "Richard Sanderson", "roles_in_work": [{"id": 2414962, "title": "Life in China: mill worker's family", "work_id": 69672, "role": "producer", "role_id": 1089, "is_primary": true}, {"id": 860893, "title": "Wire sculpture", "work_id": 74812, "role": "producer/director", "role_id": 31, "is_primary": true}], "also_known_as": "", "date_of_birth": "", "date_of_death": "", "genders": [], "languages": [], "places_of_operation": [], "biography": "", "biography_author": null, "date_of_biography": "2023-08-11T19:28:10.969055+10:00", "external_links": [], "uuid": "22ff917f-2264-466e-84e0-99b365fbf387", "source": {"name": "Vernon", "slug": "vernon"}, "source_identifier": "27309", "external_references": [], "date_modified": "2023-08-11T19:28:10.969342+10:00"}, {"id": 16292, "name": "Department of Photography and Cinema, Ohio State University", "roles_in_work": [{"id": 2414961, "title": "Life in China: mill worker's family", "work_id": 69672, "role": "production company", "role_id": 941, "is_primary": true}], "also_known_as": "", "date_of_birth": "", "date_of_death": "", "genders": [], "languages": [], "places_of_operation": [], "biography": "", "biography_author": null, "date_of_biography": "2023-08-11T19:28:10.310072+10:00", "external_links": [], "uuid": "43b5b3fb-3f61-4a4d-b8ad-571cd10a0675", "source": {"name": "Vernon", "slug": "vernon"}, "source_identifier": "7453", "external_references": [], "date_modified": "2023-08-11T19:28:10.310336+10:00"}, {"id": 16291, "name": "Victorian Department of Youth, Sport and Recreation", "roles_in_work": [{"id": 2414964, "title": "Life. Be in it", "work_id": 69657, "role": "production company", "role_id": 941, "is_primary": true}], "also_known_as": "", "date_of_birth": "", "date_of_death": "", "genders": [], "languages": [], "places_of_operation": [], "biography": "", "biography_author": null, "date_of_biography": "2023-08-11T19:28:15.364781+10:00", "external_links": [], "uuid": "d7661c8f-ef16-4621-a744-d5a890654ab9", "source": {"name": "Vernon", "slug": "vernon"}, "source_identifier": "14073", "external_references": [], "date_modified": "2023-08-11T19:28:15.365145+10:00"}, {"id": 16290, "name": "Pierre des Bonnet", "roles_in_work": [{"id": 2646363, "title": "Soldiers in Sinai: a peacekeeping story", "work_id": 72984, "role": "director", "role_id": 938, "is_primary": true}, {"id": 757268, "title": "The Wasted years", "work_id": 74484, "role": "director", "role_id": 938, "is_primary": true}, {"id": 746557, "title": "Life at the top", "work_id": 69656, "role": "director", "role_id": 938, "is_primary": true}, {"id": 2647064, "title": "The Most beautiful place on earth: international zone", "work_id": 75256, "role": "co-director", "role_id": 959, "is_primary": true}], "also_known_as": "", "date_of_birth": null, "date_of_death": null, "genders": [], "languages": [], "places_of_operation": [], "biography": "", "biography_author": null, "date_of_biography": null, "external_links": [], "uuid": "52a09882-cbcf-412f-8e25-6515204f2432", "source": {"name": "Vernon", "slug": "vernon"}, "source_identifier": "26923", "external_references": [], "date_modified": "2025-03-05T13:17:17.751479+11:00"}, {"id": 16283, "name": "Bro-Dart Industries", "roles_in_work": [{"id": 2467342, "title": "The Library is...", "work_id": 69646, "role": "production company", "role_id": 941, "is_primary": true}], "also_known_as": "", "date_of_birth": "", "date_of_death": "", "genders": [], "languages": [], "places_of_operation": [], "biography": "", "biography_author": null, "date_of_biography": "2023-08-14T11:18:14.443074+10:00", "external_links": [], "uuid": "73293c51-69b4-4b11-b044-141ae6d4e0d0", "source": {"name": "Vernon", "slug": "vernon"}, "source_identifier": "6070", "external_references": [], "date_modified": "2023-08-14T11:18:14.443359+10:00"}, {"id": 16282, "name": "Wayne Films", "roles_in_work": [{"id": 2467341, "title": "The Library is...", "work_id": 69646, "role": "production company", "role_id": 941, "is_primary": true}], "also_known_as": "", "date_of_birth": "", "date_of_death": "", "genders": [], "languages": [], "places_of_operation": [], "biography": "", "biography_author": null, "date_of_biography": "2023-08-14T11:18:13.826589+10:00", "external_links": [], "uuid": "b0fae2a5-f140-48ff-8656-79f80d1d6152", "source": {"name": "Vernon", "slug": "vernon"}, "source_identifier": "14265", "external_references": [], "date_modified": "2023-08-14T11:18:13.826963+10:00"}, {"id": 16281, "name": "United States. Dept.of the Army", "roles_in_work": [{"id": 2414944, "title": "Libraries without bars", "work_id": 69645, "role": "production company", "role_id": 941, "is_primary": true}], "also_known_as": "", "date_of_birth": "", "date_of_death": "", "genders": [], "languages": [], "places_of_operation": [], "biography": "", "biography_author": null, "date_of_biography": "2023-08-11T19:27:41.636111+10:00", "external_links": [], "uuid": "d36d228f-3ee1-440a-b197-b88930b7a9b5", "source": {"name": "Vernon", "slug": "vernon"}, "source_identifier": "13880", "external_references": [], "date_modified": "2023-08-11T19:27:41.636396+10:00"}, {"id": 16279, "name": "Patty Newman", "roles_in_work": [{"id": 2414943, "title": "Libra", "work_id": 69643, "role": "director", "role_id": 938, "is_primary": true}], "also_known_as": "", "date_of_birth": "", "date_of_death": "", "genders": [], "languages": [], "places_of_operation": [], "biography": "", "biography_author": null, "date_of_biography": "2023-08-11T19:27:39.389592+10:00", "external_links": [], "uuid": "a1cc7d25-b3e5-4a09-8d37-2e858eb66c99", "source": {"name": "Vernon", "slug": "vernon"}, "source_identifier": "26158", "external_references": [], "date_modified": "2023-08-11T19:27:39.389847+10:00"}, {"id": 16278, "name": "Ted Coeffler", "roles_in_work": [{"id": 2414942, "title": "Libra", "work_id": 69643, "role": "producer", "role_id": 1089, "is_primary": true}], "also_known_as": "", "date_of_birth": "", "date_of_death": "", "genders": [], "languages": [], "places_of_operation": [], "biography": "", "biography_author": null, "date_of_biography": "2023-08-11T19:27:38.749689+10:00", "external_links": [], "uuid": "fcfcb374-b9e7-4ef6-9c69-9772aade6306", "source": {"name": "Vernon", "slug": "vernon"}, "source_identifier": "29515", "external_references": [], "date_modified": "2023-08-11T19:27:38.749960+10:00"}, {"id": 16268, "name": "Kiwi Polish Company", "roles_in_work": [{"id": 2645441, "title": "A Letter to Christopher", "work_id": 69632, "role": "production company", "role_id": 941, "is_primary": true}, {"id": 2465841, "title": "Shine, Sir!", "work_id": 72765, "role": "production company", "role_id": 941, "is_primary": true}], "also_known_as": "", "date_of_birth": "", "date_of_death": "", "genders": [], "languages": [], "places_of_operation": [], "biography": "", "biography_author": null, "date_of_biography": "2023-08-14T10:43:24.056579+10:00", "external_links": [], "uuid": "3f4dae27-cde6-452e-a15b-4369c467b2c9", "source": {"name": "Vernon", "slug": "vernon"}, "source_identifier": "9797", "external_references": [], "date_modified": "2025-03-05T12:40:40.451672+11:00"}]}