{"count": 28687, "next": "https://api.acmi.net.au/creators/?page=901", "previous": "https://api.acmi.net.au/creators/?page=899", "results": [{"id": 76582, "name": "Gus Mercurio", "roles_in_work": [{"id": 2560254, "title": "The Man from Snowy River", "work_id": 80009, "role": "cast", "role_id": 33, "is_primary": false}, {"id": 2329123, "title": "The Backbone of life", "work_id": 87137, "role": "producer", "role_id": 1089, "is_primary": true}], "also_known_as": "", "date_of_birth": "1928-08-10", "date_of_death": "2010-12-07", "genders": [{"id": 9, "name": "Male", "slug": "male"}], "languages": [{"id": 1, "name": "English", "slug": "english"}], "places_of_operation": [{"id": 3, "name": "Australia", "slug": "australia"}], "biography": "Augustino Eugenio Mercurio  (10 August 1928 – 7 December 2010) better known as Gus Mercurio, was an American-born Australian character actor who appeared in radio, television, and film.", "biography_author": "Wikidata", "date_of_biography": "2023-09-05T20:24:57.409227+10:00", "external_links": [{"id": 5852, "uri": "https://en.wikipedia.org/wiki/Gus_Mercurio"}], "uuid": "12f29642-add1-449a-aafb-cbf7cdb087e8", "source": {"name": "Vernon", "slug": "vernon"}, "source_identifier": "20124", "external_references": [{"id": 41160, "source": {"name": "Wikidata", "slug": "wikidata"}, "source_identifier": "Q1555323"}, {"id": 54595, "source": {"name": "VIAF", "slug": "viaf"}, "source_identifier": "87506222"}, {"id": 54596, "source": {"name": "WorldCat", "slug": "worldcat"}, "source_identifier": "viaf-87506222"}], "date_modified": "2024-10-23T03:35:37.854622+11:00"}, {"id": 76581, "name": "Kirk Douglas", "roles_in_work": [{"id": 2560249, "title": "The Man from Snowy River", "work_id": 80009, "role": "cast", "role_id": 33, "is_primary": false}, {"id": 2614720, "title": "Spartacus", "work_id": 84158, "role": "cast", "role_id": 33, "is_primary": false}], "also_known_as": "איסר דניאלאָוויטש", "date_of_birth": "1916", "date_of_death": "2020-02-05", "genders": [{"id": 9, "name": "Male", "slug": "male"}], "languages": [{"id": 1, "name": "English", "slug": "english"}, {"id": 4, "name": "French", "slug": "french"}, {"id": 22, "name": "Yiddish", "slug": "yiddish"}], "places_of_operation": [{"id": 1, "name": "United States of America", "slug": "united-states-of-america"}], "biography": "Kirk Douglas (born Issur Danielovitch; December 9, 1916 – February 5, 2020) was an American actor and filmmaker. After an impoverished childhood, he made his film debut in The Strange Love of Martha Ivers (1946) with Barbara Stanwyck. Douglas soon developed into a leading box-office star throughout the 1950s, known for serious dramas, including westerns and war films. During his career, he appeared in more than 90 films and was known for his explosive acting style. He was named by the American Film Institute the 17th-greatest male star of Classic Hollywood cinema.\n\nDouglas played an unscrupulous boxing hero in Champion (1949), which brought him his first nomination for the Academy Award for Best Actor. His other early films include Out of the Past (1947); Young Man with a Horn (1950), playing opposite Lauren Bacall and Doris Day; Ace in the Hole (1951); and Detective Story (1951), for which he received a Golden Globe nomination. He received his second Oscar nomination for his dramatic role in The Bad and the Beautiful (1952), opposite Lana Turner, and earned his third for portraying Vincent van Gogh in Lust for Life (1956), a role for which he won the Golden Globe for the Best Actor in a Drama. He also starred with James Mason in the adventure 20,000 Leagues Under the Sea (1954), a large box-office hit.\n\nIn September 1949, he established Bryna Productions, which began producing films as varied as Paths of Glory (1957) and Spartacus (1960). In those two films, he collaborated with the then-relatively unknown director Stanley Kubrick, taking lead roles in both films. Douglas helped to break the Hollywood blacklist by having Dalton Trumbo write Spartacus with an official on-screen credit. He produced and starred in Lonely Are the Brave (1962) and Seven Days in May (1964), the latter opposite Burt Lancaster, with whom he made seven films. In 1963, he starred in the Broadway play One Flew Over the Cuckoo's Nest, a story that he purchased and later gave to his son Michael Douglas, who turned it into an Oscar-winning film.  Douglas continued acting into the 1980s, appearing in such films as Saturn 3 (1980), The Man from Snowy River (1980), Tough Guys (1986), a reunion with Lancaster, and in the television version of Inherit the Wind (1988) plus in an episode of Touched by an Angel in 2002, for which he received his third nomination for an Emmy Award.\n\nAs an actor and philanthropist, Douglas received an Academy Honorary Award for Lifetime Achievement and the Presidential Medal of Freedom. As an author, he wrote ten novels and memoirs. After barely surviving a helicopter crash in 1991 and then suffering a stroke in 1996, he focused on renewing his spiritual and religious life. He lived with his second wife, producer Anne Buydens, until his death in 2020. A centenarian, Douglas was one of the last surviving stars of the film industry's Golden Age.; 17/08/2023", "biography_author": null, "date_of_biography": "2025-02-26T20:14:07.619634+11:00", "external_links": [{"id": 4504, "uri": "https://en.wikipedia.org/wiki/Kirk_Douglas"}], "uuid": "d5f60043-4407-4c44-b3f1-6b929ba1bb79", "source": {"name": "Vernon", "slug": "vernon"}, "source_identifier": "33026", "external_references": [{"id": 26785, "source": {"name": "Wikidata", "slug": "wikidata"}, "source_identifier": "Q104027"}, {"id": 29821, "source": {"name": "VIAF", "slug": "viaf"}, "source_identifier": "110926589"}, {"id": 29822, "source": {"name": "LOC Auth", "slug": "loc-auth"}, "source_identifier": "n84156475"}, {"id": 29823, "source": {"name": "WorldCat", "slug": "worldcat"}, "source_identifier": "lccn-n84156475"}], "date_modified": "2025-02-26T20:14:07.619855+11:00"}, {"id": 76580, "name": "Sandy Gore", "roles_in_work": [{"id": 2648785, "title": "Street Hero", "work_id": 80006, "role": "cast", "role_id": 33, "is_primary": false}], "also_known_as": "", "date_of_birth": "28 JUN 1950", "date_of_death": "", "genders": [{"id": 5, "name": "Female", "slug": "female"}], "languages": [], "places_of_operation": [{"id": 3, "name": "Australia", "slug": "australia"}], "biography": "Sandy Gore (born 28 June 1950) is an Australian film, stage and television actress. She has had an extensive stage career in Australia with the Melbourne Theatre Company and Sydney Theatre Company including playing Vivian in Wit (2000) and Maria in Uncle Vanya (2010), reprising the latter role in New York in 2012. Source: Wikidata; 01/08/2023", "biography_author": null, "date_of_biography": "2025-03-05T13:51:03.275923+11:00", "external_links": [{"id": 5117, "uri": "https://en.wikipedia.org/wiki/Sandy_Gore"}], "uuid": "a3cba57f-7315-4e2e-b665-619deb456db9", "source": {"name": "Vernon", "slug": "vernon"}, "source_identifier": "33670", "external_references": [{"id": 27069, "source": {"name": "Wikidata", "slug": "wikidata"}, "source_identifier": "Q7417264"}, {"id": 31405, "source": {"name": "VIAF", "slug": "viaf"}, "source_identifier": "101532101"}, {"id": 31406, "source": {"name": "LOC Auth", "slug": "loc-auth"}, "source_identifier": "no2009166707"}, {"id": 31407, "source": {"name": "WorldCat", "slug": "worldcat"}, "source_identifier": "lccn-no2009166707"}, {"id": 55759, "source": {"name": "VIAF", "slug": "viaf"}, "source_identifier": "4285149068367465730007"}], "date_modified": "2025-03-05T13:51:03.276136+11:00"}, {"id": 76579, "name": "Vince Colosimo", "roles_in_work": [{"id": 2648783, "title": "Street Hero", "work_id": 80006, "role": "cast", "role_id": 33, "is_primary": false}], "also_known_as": "", "date_of_birth": "11 NOV 1966", "date_of_death": "", "genders": [{"id": 9, "name": "Male", "slug": "male"}], "languages": [], "places_of_operation": [{"id": 3, "name": "Australia", "slug": "australia"}], "biography": "Vincenzo Colosimo (born 11 November 1966) is an Australian AFI Award winning stage, television and screen actor. He has worked in both Australia and the United States. He is of Italian descent and lives in Melbourne, Australia. He was previously married to Australian actress Jane Hall. Source: Wikidata; 01/08/2023", "biography_author": null, "date_of_biography": "2025-03-05T13:51:02.104998+11:00", "external_links": [{"id": 5318, "uri": "https://en.wikipedia.org/wiki/Vince_Colosimo"}], "uuid": "9d00c48b-17c0-4498-9d68-dae671166574", "source": {"name": "Vernon", "slug": "vernon"}, "source_identifier": "32643", "external_references": [{"id": 27072, "source": {"name": "Wikidata", "slug": "wikidata"}, "source_identifier": "Q7931468"}, {"id": 31916, "source": {"name": "VIAF", "slug": "viaf"}, "source_identifier": "41562771"}, {"id": 31917, "source": {"name": "LOC Auth", "slug": "loc-auth"}, "source_identifier": "no2004119282"}, {"id": 31918, "source": {"name": "WorldCat", "slug": "worldcat"}, "source_identifier": "lccn-no2004119282"}], "date_modified": "2025-03-05T13:51:02.105328+11:00"}, {"id": 76578, "name": "Television Production Unit Centre for the Study of Higher Education", "roles_in_work": [{"id": 2285310, "title": "Tone, Touch and Technique for the Young Pianist", "work_id": 79967, "role": "co-producer", "role_id": 915, "is_primary": true}], "also_known_as": "", "date_of_birth": "", "date_of_death": "", "genders": [], "languages": [], "places_of_operation": [], "biography": "", "biography_author": null, "date_of_biography": "2023-05-09T18:08:39.317134+10:00", "external_links": [], "uuid": "4add4790-5644-44fb-9339-eeed7fd5cf7e", "source": {"name": "Vernon", "slug": "vernon"}, "source_identifier": "13271", "external_references": [{"id": 40769, "source": {"name": "Wikidata", "slug": "wikidata"}, "source_identifier": "Q121036837"}], "date_modified": "2023-09-06T01:44:02.782479+10:00"}, {"id": 76577, "name": "Lionel Jeffries", "roles_in_work": [{"id": 1998301, "title": "Wombling free", "work_id": 93717, "role": "director", "role_id": 938, "is_primary": true}, {"id": 2648777, "title": "The Water Babies", "work_id": 79961, "role": "director", "role_id": 938, "is_primary": true}, {"id": 916807, "title": "The Railway children. Swallows and amazons [DVD]", "work_id": 94947, "role": "co-director", "role_id": 959, "is_primary": true}], "also_known_as": "Lionel Charles Jeffries", "date_of_birth": "1926-06-10", "date_of_death": "2010-02-19", "genders": [{"id": 9, "name": "Male", "slug": "male"}], "languages": [{"id": 1, "name": "English", "slug": "english"}], "places_of_operation": [{"id": 10, "name": "United Kingdom", "slug": "united-kingdom"}], "biography": "Lionel Charles Jeffries (10 June 1926 – 19 February 2010) was an English actor, director, and screenwriter. He appeared primarily in films and received a Golden Globe Award nomination during his acting career.", "biography_author": "Wikidata", "date_of_biography": "2023-09-05T22:27:11.601822+10:00", "external_links": [{"id": 2585, "uri": "https://en.wikipedia.org/wiki/Lionel_Jeffries"}], "uuid": "b4944240-7330-4356-a66e-4f59b18c07e8", "source": {"name": "Vernon", "slug": "vernon"}, "source_identifier": "23903", "external_references": [{"id": 11043, "source": {"name": "Wikidata", "slug": "wikidata"}, "source_identifier": "Q940924"}, {"id": 11044, "source": {"name": "VIAF", "slug": "viaf"}, "source_identifier": "57976983"}, {"id": 11045, "source": {"name": "LOC Auth", "slug": "loc-auth"}, "source_identifier": "n82225089"}, {"id": 11046, "source": {"name": "WorldCat", "slug": "worldcat"}, "source_identifier": "lccn-n82225089"}], "date_modified": "2025-03-05T13:50:57.646709+11:00"}, {"id": 76576, "name": "Murray Bell", "roles_in_work": [{"id": 2246386, "title": "Footrot Flats - the Dogs Tail Tale", "work_id": 79957, "role": "director", "role_id": 938, "is_primary": true}], "also_known_as": "", "date_of_birth": "", "date_of_death": "", "genders": [], "languages": [], "places_of_operation": [], "biography": "", "biography_author": null, "date_of_biography": "2023-05-09T17:03:27.271515+10:00", "external_links": [], "uuid": "c8acb7ac-449e-4de0-ab45-fd7dbc793dea", "source": {"name": "Vernon", "slug": "vernon"}, "source_identifier": "25555", "external_references": [{"id": 38614, "source": {"name": "Wikidata", "slug": "wikidata"}, "source_identifier": "Q121337146"}], "date_modified": "2023-09-05T23:22:49.518557+10:00"}, {"id": 76575, "name": "Rob Williams", "roles_in_work": [{"id": 2235487, "title": "Ramp Riot 111", "work_id": 79947, "role": "producer/director", "role_id": 31, "is_primary": true}], "also_known_as": "", "date_of_birth": "", "date_of_death": "", "genders": [], "languages": [], "places_of_operation": [], "biography": "", "biography_author": null, "date_of_biography": "2023-05-09T16:45:07.079359+10:00", "external_links": [], "uuid": "c7a49b88-1559-4889-accc-ce305104aa27", "source": {"name": "Vernon", "slug": "vernon"}, "source_identifier": "27616", "external_references": [{"id": 51827, "source": {"name": "Wikidata", "slug": "wikidata"}, "source_identifier": "Q121361169"}], "date_modified": "2023-09-06T00:38:06.110406+10:00"}, {"id": 76574, "name": "Frank Oz", "roles_in_work": [{"id": 871580, "title": "In & out = In and out", "work_id": 87121, "role": "director", "role_id": 938, "is_primary": true}, {"id": 2193705, "title": "Dirty rotten scoundrels", "work_id": 86942, "role": "director", "role_id": 938, "is_primary": true}, {"id": 2355855, "title": "The Indian in the cupboard", "work_id": 85865, "role": "director", "role_id": 938, "is_primary": true}, {"id": 913998, "title": "The Score [DVD]", "work_id": 93610, "role": "director", "role_id": 938, "is_primary": true}, {"id": 1998430, "title": "The Muppets take Manhattan [DVD]", "work_id": 93801, "role": "director", "role_id": 938, "is_primary": true}, {"id": 1996440, "title": "The Little shop of horrors", "work_id": 92689, "role": "director", "role_id": 938, "is_primary": true}, {"id": 2194019, "title": "Dirty rotten scoundrels (Captioned)", "work_id": 81702, "role": "director", "role_id": 938, "is_primary": true}, {"id": 2342293, "title": "The Dark crystal", "work_id": 79946, "role": "co-director", "role_id": 959, "is_primary": true}, {"id": 2615777, "title": "The Great Muppet caper", "work_id": 86092, "role": "co-producer", "role_id": 915, "is_primary": true}], "also_known_as": "Frank Richard Oznowicz", "date_of_birth": "25 MAY 1944", "date_of_death": "", "genders": [{"id": 9, "name": "Male", "slug": "male"}], "languages": [{"id": 1, "name": "English", "slug": "english"}], "places_of_operation": [{"id": 1, "name": "United States of America", "slug": "united-states-of-america"}], "biography": "Frank Oz (born Frank Richard Oznowicz; May 25, 1944) is an American actor, puppeteer, and filmmaker. Oz is best known for his involvement with Jim Henson and the Muppets, as well as his directorial work in feature films and theater.\n\nDuring his adolescence, Oz worked as an apprentice puppeteer in Oakland, California. Despite his interest in journalism, Oz continued his career as a puppeteer when he was hired by Jim Henson in 1963 to work for The Jim Henson Company where he went on to perform several characters in multiple television series and specials. Oz performed the Muppet characters of Miss Piggy, Fozzie Bear, Animal, and Sam Eagle on The Muppet Show (1976–1981), and Cookie Monster, Bert, and Grover on Sesame Street (1969–2007). He also performed the character of Yoda in the Star Wars series, beginning with The Empire Strikes Back (1980) and reprising the role in six subsequent films and various media over the course of the next forty years.\n\nHis work as a director includes The Dark Crystal (1982), The Muppets Take Manhattan (1984), Little Shop of Horrors (1986), Dirty Rotten Scoundrels (1988), What About Bob? (1991), In & Out (1997), Death at a Funeral (2007), and an episode of the US television series Leverage (2011). Source: Wikidata; 01/08/2023", "biography_author": null, "date_of_biography": "2025-02-26T20:28:11.067754+11:00", "external_links": [{"id": 3993, "uri": "https://en.wikipedia.org/wiki/Frank_Oz"}], "uuid": "d73f35d8-1cdb-4f6f-a7e3-d1048416c916", "source": {"name": "Vernon", "slug": "vernon"}, "source_identifier": "19154", "external_references": [{"id": 24916, "source": {"name": "Wikidata", "slug": "wikidata"}, "source_identifier": "Q311319"}, {"id": 28461, "source": {"name": "VIAF", "slug": "viaf"}, "source_identifier": "117464165"}, {"id": 28462, "source": {"name": "LOC Auth", "slug": "loc-auth"}, "source_identifier": "n80035343"}, {"id": 28463, "source": {"name": "WorldCat", "slug": "worldcat"}, "source_identifier": "lccn-n80035343"}], "date_modified": "2025-02-26T20:28:11.068070+11:00"}, {"id": 76573, "name": "Denmark", "roles_in_work": [{"id": 2772335, "title": "Tuvalu", "work_id": 79939, "role": "co-producer", "role_id": 915, "is_primary": true}, {"id": 2772392, "title": "Solomon Islands", "work_id": 79941, "role": "co-producer", "role_id": 915, "is_primary": true}, {"id": 2772264, "title": "Vanuatu", "work_id": 79937, "role": "co-producer", "role_id": 915, "is_primary": true}], "also_known_as": "", "date_of_birth": "", "date_of_death": "", "genders": [], "languages": [], "places_of_operation": [], "biography": "", "biography_author": null, "date_of_biography": "2023-05-09T18:44:05.662708+10:00", "external_links": [], "uuid": "e6ad8416-be74-4fc8-af02-ef5159c85c14", "source": {"name": "Vernon", "slug": "vernon"}, "source_identifier": "7402", "external_references": [], "date_modified": "2025-03-14T18:26:02.701237+11:00"}]}