{"count": 28687, "next": "https://api.acmi.net.au/creators/?page=700", "previous": "https://api.acmi.net.au/creators/?page=698", "results": [{"id": 78593, "name": "David Weiland", "roles_in_work": [{"id": 2228118, "title": "Fashion: a 'Frost's Century' episode", "work_id": 87631, "role": "co-producer", "role_id": 915, "is_primary": true}], "also_known_as": "", "date_of_birth": "", "date_of_death": "", "genders": [], "languages": [], "places_of_operation": [], "biography": "", "biography_author": null, "date_of_biography": "2023-05-09T16:29:32.158315+10:00", "external_links": [], "uuid": "64162df5-8844-4713-98fb-cc8fb356acc1", "source": {"name": "Vernon", "slug": "vernon"}, "source_identifier": "17845", "external_references": [{"id": 38783, "source": {"name": "Wikidata", "slug": "wikidata"}, "source_identifier": "Q121337297"}], "date_modified": "2023-09-05T19:03:30.004535+10:00"}, {"id": 78592, "name": "Ray Connolly", "roles_in_work": [{"id": 2171963, "title": "James Dean: the first American teenager", "work_id": 87626, "role": "director", "role_id": 938, "is_primary": true}], "also_known_as": "", "date_of_birth": "1940-01-01", "date_of_death": "", "genders": [{"id": 9, "name": "Male", "slug": "male"}], "languages": [{"id": 98, "name": "British English", "slug": "british-english"}], "places_of_operation": [{"id": 10, "name": "United Kingdom", "slug": "united-kingdom"}], "biography": "Ray Connolly (born 4 December 1940) is a British writer. He is best known for his journalism and for writing the screenplays for the films That'll Be the Day and its sequel Stardust, for which he won a Writers' Guild of Great Britain Best Screenplay award.", "biography_author": "Wikidata", "date_of_biography": "2023-08-01T16:42:21.623073+10:00", "external_links": [{"id": 2913, "uri": "https://en.wikipedia.org/wiki/Ray_Connolly"}], "uuid": "c67dc074-5d0d-47fb-afbb-3cb0ab21343b", "source": {"name": "Vernon", "slug": "vernon"}, "source_identifier": "27146", "external_references": [{"id": 12389, "source": {"name": "Wikidata", "slug": "wikidata"}, "source_identifier": "Q7297349"}, {"id": 12390, "source": {"name": "VIAF", "slug": "viaf"}, "source_identifier": "115416662"}, {"id": 12391, "source": {"name": "LOC Auth", "slug": "loc-auth"}, "source_identifier": "n81037432"}, {"id": 12392, "source": {"name": "WorldCat", "slug": "worldcat"}, "source_identifier": "lccn-n81037432"}], "date_modified": "2023-09-06T00:22:14.741065+10:00"}, {"id": 78591, "name": "Sydney Pink", "roles_in_work": [{"id": 2476482, "title": "Journey to the seventh planet", "work_id": 87625, "role": "producer/director", "role_id": 31, "is_primary": true}], "also_known_as": "", "date_of_birth": "1916-03-16", "date_of_death": "2002-10-12", "genders": [{"id": 9, "name": "Male", "slug": "male"}], "languages": [], "places_of_operation": [{"id": 1, "name": "United States of America", "slug": "united-states-of-america"}], "biography": "Sidney W. Pink (1916-2002) was an American film producer and occasional director. He has been called the father of feature-length 3-D movies. He is also noted for producing early Spaghetti Westerns and low-budget science-fiction films, and for his role in actor Dustin Hoffman's transition from stage to screen. \nBorn in Pittsburgh, Pennsylvania in 1916, Pink died in 2002 at his home in Pompano Beach, Florida, following a long illness.", "biography_author": "Wikidata", "date_of_biography": "2023-09-06T01:39:19.704162+10:00", "external_links": [{"id": 3166, "uri": "https://en.wikipedia.org/wiki/Sidney_W._Pink"}], "uuid": "30d29ebe-318f-4b5f-a508-0d76844b4bf3", "source": {"name": "Vernon", "slug": "vernon"}, "source_identifier": "29423", "external_references": [{"id": 13425, "source": {"name": "Wikidata", "slug": "wikidata"}, "source_identifier": "Q1703930"}, {"id": 13426, "source": {"name": "VIAF", "slug": "viaf"}, "source_identifier": "18021715"}, {"id": 13427, "source": {"name": "LOC Auth", "slug": "loc-auth"}, "source_identifier": "n88265448"}, {"id": 13428, "source": {"name": "WorldCat", "slug": "worldcat"}, "source_identifier": "lccn-n88265448"}], "date_modified": "2023-09-06T01:39:19.714051+10:00"}, {"id": 78590, "name": "Rex Carlton", "roles_in_work": [{"id": 2334734, "title": "The Brain that wouldn't die", "work_id": 87624, "role": "co-producer", "role_id": 915, "is_primary": true}], "also_known_as": "", "date_of_birth": "", "date_of_death": "", "genders": [], "languages": [], "places_of_operation": [], "biography": "", "biography_author": null, "date_of_biography": "2023-05-09T19:30:22.603027+10:00", "external_links": [], "uuid": "0e0e5307-7c16-49d0-8aaf-fe90f6801574", "source": {"name": "Vernon", "slug": "vernon"}, "source_identifier": "27280", "external_references": [{"id": 38089, "source": {"name": "Wikidata", "slug": "wikidata"}, "source_identifier": "Q121337485"}], "date_modified": "2023-09-06T00:26:38.320743+10:00"}, {"id": 78589, "name": "Mort Landberg", "roles_in_work": [{"id": 2334729, "title": "The Brain that wouldn't die", "work_id": 87624, "role": "co-producer", "role_id": 915, "is_primary": true}], "also_known_as": "", "date_of_birth": "", "date_of_death": "", "genders": [], "languages": [], "places_of_operation": [], "biography": "", "biography_author": null, "date_of_biography": "2023-05-09T19:30:22.356074+10:00", "external_links": [], "uuid": "992bcc7f-8e95-422c-a33a-4132a7a10fdb", "source": {"name": "Vernon", "slug": "vernon"}, "source_identifier": "25532", "external_references": [{"id": 38028, "source": {"name": "Wikidata", "slug": "wikidata"}, "source_identifier": "Q121337505"}], "date_modified": "2023-09-05T23:21:30.410338+10:00"}, {"id": 78588, "name": "Alexander Kozyr", "roles_in_work": [{"id": 2108649, "title": "Battle beyond the sun", "work_id": 87623, "role": "co-director", "role_id": 959, "is_primary": true}], "also_known_as": "", "date_of_birth": "1903-01-27", "date_of_death": "1961-03-15", "genders": [{"id": 9, "name": "Male", "slug": "male"}], "languages": [], "places_of_operation": [{"id": 291, "name": "Russian Empire", "slug": "russian-empire"}, {"id": 180, "name": "Soviet Union", "slug": "soviet-union"}], "biography": "", "biography_author": null, "date_of_biography": "2023-05-09T12:42:22.808377+10:00", "external_links": [{"id": 1597, "uri": "https://en.wikipedia.org/wiki/Aleksandr_Kozyr"}], "uuid": "056beb4c-d528-45ec-b321-455a1d483fbf", "source": {"name": "Vernon", "slug": "vernon"}, "source_identifier": "14925", "external_references": [{"id": 6992, "source": {"name": "Wikidata", "slug": "wikidata"}, "source_identifier": "Q4715237"}], "date_modified": "2023-09-05T17:26:05.683527+10:00"}, {"id": 78587, "name": "Bernard L Kowalski", "roles_in_work": [{"id": 2103650, "title": "Attack of the giant leeches", "work_id": 87619, "role": "director", "role_id": 938, "is_primary": true}], "also_known_as": "", "date_of_birth": "1929-08-02", "date_of_death": "2007-10-26", "genders": [{"id": 9, "name": "Male", "slug": "male"}], "languages": [], "places_of_operation": [{"id": 1, "name": "United States of America", "slug": "united-states-of-america"}], "biography": "Bernard Louis Kowalski (August 2, 1929 – October 26, 2007) was an American film and television director of Polish descent, nominated for two Primetime Emmys.", "biography_author": "Wikidata", "date_of_biography": "2023-08-01T14:11:20.603263+10:00", "external_links": [{"id": 1710, "uri": "https://en.wikipedia.org/wiki/Bernard_L._Kowalski"}], "uuid": "872d50e0-8bbb-41b9-9b00-0a98927926cd", "source": {"name": "Vernon", "slug": "vernon"}, "source_identifier": "15837", "external_references": [{"id": 7459, "source": {"name": "Wikidata", "slug": "wikidata"}, "source_identifier": "Q822540"}, {"id": 7460, "source": {"name": "VIAF", "slug": "viaf"}, "source_identifier": "17419890"}, {"id": 7461, "source": {"name": "LOC Auth", "slug": "loc-auth"}, "source_identifier": "no92029560"}, {"id": 7462, "source": {"name": "WorldCat", "slug": "worldcat"}, "source_identifier": "lccn-no92029560"}], "date_modified": "2023-09-05T17:59:24.840082+10:00"}, {"id": 78586, "name": "Hiroshi Inagaki", "roles_in_work": [{"id": 2262222, "title": "Samurai banners [Widescreen]", "work_id": 87618, "role": "director", "role_id": 938, "is_primary": true}], "also_known_as": "", "date_of_birth": "1905-12-30", "date_of_death": "1980-05-21", "genders": [{"id": 9, "name": "Male", "slug": "male"}], "languages": [{"id": 2, "name": "Japanese", "slug": "japanese"}], "places_of_operation": [{"id": 8, "name": "Japan", "slug": "japan"}], "biography": "Hiroshi Inagaki (Japanese: 稲垣 浩, Hepburn: Inagaki Hiroshi, 30 December 1905 – 1 May 1980) was a Japanese filmmaker who worked on over 100 films in a career spanning over five decades. He is one of the most successful and critically acclaimed filmmakers in the history of Japanese cinema, having directed several jidaigeki epics such as the 1954 Academy Award-winning film Samurai I: Musashi Miyamoto, and its two sequels (1955's Samurai II: Duel at Ichijoji Temple (1955) and 1956's Samurai III: Duel at Ganryu Island).", "biography_author": "Wikidata", "date_of_biography": "2023-08-01T15:11:35.365366+10:00", "external_links": [{"id": 4160, "uri": "https://en.wikipedia.org/wiki/Hiroshi_Inagaki"}], "uuid": "fb3e8509-0f49-4a0c-8488-5cec7d66004a", "source": {"name": "Vernon", "slug": "vernon"}, "source_identifier": "20579", "external_references": [{"id": 25909, "source": {"name": "Wikidata", "slug": "wikidata"}, "source_identifier": "Q960868"}, {"id": 28923, "source": {"name": "VIAF", "slug": "viaf"}, "source_identifier": "74058656"}, {"id": 28924, "source": {"name": "LOC Auth", "slug": "loc-auth"}, "source_identifier": "n78040786"}, {"id": 28925, "source": {"name": "WorldCat", "slug": "worldcat"}, "source_identifier": "lccn-n78040786"}], "date_modified": "2023-09-05T20:40:12.870549+10:00"}, {"id": 78585, "name": "Toshiro Mifune", "roles_in_work": [{"id": 2650458, "title": "Akahige = Red beard (Cinemascope Print)", "work_id": 115697, "role": "cast", "role_id": 33, "is_primary": false}, {"id": 2262216, "title": "Samurai banners [Widescreen]", "work_id": 87618, "role": "co-producer", "role_id": 915, "is_primary": true}, {"id": 2650407, "title": "Joi-Uchi = Rebellion (Cinemascope print)", "work_id": 115676, "role": "producer", "role_id": 1089, "is_primary": true}], "also_known_as": "", "date_of_birth": "", "date_of_death": "", "genders": [], "languages": [], "places_of_operation": [], "biography": "", "biography_author": null, "date_of_biography": "2023-05-09T17:30:44.900854+10:00", "external_links": [], "uuid": "e81310f6-8b12-401d-a1a9-2cf71be5197c", "source": {"name": "Vernon", "slug": "vernon"}, "source_identifier": "29944", "external_references": [], "date_modified": "2025-03-05T14:20:15.326603+11:00"}, {"id": 78584, "name": "Robert Florey", "roles_in_work": [{"id": 2233187, "title": "Pumping iron", "work_id": 86482, "role": "co-director", "role_id": 959, "is_primary": true}, {"id": 2340502, "title": "The Cocoanuts", "work_id": 87610, "role": "co-director", "role_id": 959, "is_primary": true}], "also_known_as": "Robert Gustave Fuchs", "date_of_birth": "1900-09-14", "date_of_death": "1979-05-16", "genders": [{"id": 9, "name": "Male", "slug": "male"}], "languages": [{"id": 1, "name": "English", "slug": "english"}, {"id": 4, "name": "French", "slug": "french"}], "places_of_operation": [{"id": 17, "name": "France", "slug": "france"}], "biography": "Robert Florey (14 September 1900 – 16 May 1979) was a French-American director, screenwriter, film journalist and actor.\nBorn as Robert Fuchs in Paris, he became an orphan at an early age and was then raised in Switzerland. In 1920 he worked at first as a film journalist, then as an assistant and extra in featurettes from Louis Feuillade. Florey moved to the United States in 1921. As a director, Florey's most productive decades were the 1930s and 1940s, working on relatively low-budget fillers for Paramount and Warner Brothers. His reputation is balanced between his avant-garde expressionist style, most evident in his early career, and his work as a fast, reliable studio-system director called on to finish troubled projects, such as 1939's Hotel Imperial.\nFlorey directed more than 50 films, the best known likely being the Marx Brothers first feature, The Cocoanuts (1929). His 1932 foray into Universal-style horror, Murders in the Rue Morgue, is regarded by horror fans as highly reflective of German expressionism. In 2006, as his 1937 film Daughter of Shanghai was selected for preservation in the United States National Film Registry by the Library of Congress, Florey was called \"widely acclaimed as the best director working in major studio B-films\".", "biography_author": "Wikidata", "date_of_biography": "2023-08-01T16:49:03.899581+10:00", "external_links": [{"id": 2978, "uri": "https://en.wikipedia.org/wiki/Robert_Florey"}], "uuid": "8f763d2f-cd17-46f9-860c-6605905a3512", "source": {"name": "Vernon", "slug": "vernon"}, "source_identifier": "27725", "external_references": [{"id": 12648, "source": {"name": "Wikidata", "slug": "wikidata"}, "source_identifier": "Q1349886"}, {"id": 12649, "source": {"name": "VIAF", "slug": "viaf"}, "source_identifier": "117037952"}, {"id": 12650, "source": {"name": "LOC Auth", "slug": "loc-auth"}, "source_identifier": "n85148215"}, {"id": 12651, "source": {"name": "WorldCat", "slug": "worldcat"}, "source_identifier": "lccn-n85148215"}], "date_modified": "2023-09-06T00:41:32.023152+10:00"}]}