{"count": 28687, "next": "https://api.acmi.net.au/creators/?page=2158", "previous": "https://api.acmi.net.au/creators/?page=2156", "results": [{"id": 19456, "name": "Sarah Pillsbury", "roles_in_work": [{"id": 2188047, "title": "Desperately seeking Susan [DVD]", "work_id": 93947, "role": "co-producer", "role_id": 915, "is_primary": true}, {"id": 1994957, "title": "The Love letter", "work_id": 90755, "role": "co-producer", "role_id": 915, "is_primary": true}, {"id": 2250731, "title": "River's edge", "work_id": 83882, "role": "co-producer", "role_id": 915, "is_primary": true}, {"id": 2095624, "title": "And the band played on", "work_id": 85315, "role": "co-producer", "role_id": 915, "is_primary": true}, {"id": 896743, "title": "Board and care", "work_id": 76005, "role": "co-producer", "role_id": 915, "is_primary": true}, {"id": 1990541, "title": "How to make an American quilt", "work_id": 86151, "role": "co-producer", "role_id": 915, "is_primary": true}, {"id": 896740, "title": "Board and care", "work_id": 76005, "role": "production company", "role_id": 941, "is_primary": true}], "also_known_as": "", "date_of_birth": "1951-02-20", "date_of_death": "", "genders": [{"id": 5, "name": "Female", "slug": "female"}], "languages": [], "places_of_operation": [{"id": 1, "name": "United States of America", "slug": "united-states-of-america"}], "biography": "", "biography_author": null, "date_of_biography": "2023-05-09T17:10:32.484071+10:00", "external_links": [], "uuid": "a76970b7-379f-49e8-9b9d-b043d9739bf6", "source": {"name": "Vernon", "slug": "vernon"}, "source_identifier": "4079", "external_references": [{"id": 32676, "source": {"name": "Wikidata", "slug": "wikidata"}, "source_identifier": "Q15549874"}, {"id": 55773, "source": {"name": "VIAF", "slug": "viaf"}, "source_identifier": "55690976"}, {"id": 55774, "source": {"name": "LOC Auth", "slug": "loc-auth"}, "source_identifier": "n88034824"}, {"id": 55775, "source": {"name": "WorldCat", "slug": "worldcat"}, "source_identifier": "lccn-n88034824"}], "date_modified": "2023-09-06T01:06:22.359638+10:00"}, {"id": 19455, "name": "Jean Vigo", "roles_in_work": [{"id": 886441, "title": "L'atalante [study extract]", "work_id": 96027, "role": "director", "role_id": 938, "is_primary": true}, {"id": 1994579, "title": "L'Atalante", "work_id": 90460, "role": "director", "role_id": 938, "is_primary": true}, {"id": 2105532, "title": "Avant-garde", "work_id": 79035, "role": "co-director", "role_id": 959, "is_primary": true}, {"id": 2752114, "title": "Zero de conduite = Zero in conduct", "work_id": 98147, "role": "producer/director", "role_id": 31, "is_primary": true}, {"id": 862107, "title": "Zero de conduite = Zero in conduct (TEFC)", "work_id": 76001, "role": "producer/director", "role_id": 31, "is_primary": true}], "also_known_as": "Jean Bonaventure de Vigo Almereyda", "date_of_birth": "26 APR 1905", "date_of_death": "05 OCT 1934", "genders": [{"id": 9, "name": "Male", "slug": "male"}], "languages": [{"id": 4, "name": "French", "slug": "french"}], "places_of_operation": [{"id": 17, "name": "France", "slug": "france"}], "biography": "Jean Vigo (French: [vigo]; 26 April 1905 – 5 October 1934) was a  French film director who helped establish poetic realism in film in the 1930s. His work influenced French New Wave cinema of the late 1950s and early 1960s. Source: Wikidata; 01/08/2023", "biography_author": null, "date_of_biography": "2025-03-13T00:57:25.519723+11:00", "external_links": [{"id": 4304, "uri": "https://en.wikipedia.org/wiki/Jean_Vigo"}], "uuid": "9209641c-f9f5-498b-a38a-b8fa19a00be2", "source": {"name": "Vernon", "slug": "vernon"}, "source_identifier": "21562", "external_references": [{"id": 25181, "source": {"name": "Wikidata", "slug": "wikidata"}, "source_identifier": "Q55395"}, {"id": 29311, "source": {"name": "VIAF", "slug": "viaf"}, "source_identifier": "59115995"}, {"id": 29312, "source": {"name": "LOC Auth", "slug": "loc-auth"}, "source_identifier": "n80014990"}, {"id": 29313, "source": {"name": "WorldCat", "slug": "worldcat"}, "source_identifier": "lccn-n80014990"}], "date_modified": "2025-03-13T00:57:25.520022+11:00"}, {"id": 19453, "name": "Ernst Lubitsch", "roles_in_work": [{"id": 862100, "title": "Passion (TEFC)", "work_id": 75996, "role": "director", "role_id": 938, "is_primary": true}, {"id": 1985799, "title": "To Be or Not to Be", "work_id": 81450, "role": "director", "role_id": 938, "is_primary": true}, {"id": 1985798, "title": "To Be or Not to Be", "work_id": 81450, "role": "co-producer", "role_id": 915, "is_primary": true}, {"id": 2161321, "title": "Ninotchka", "work_id": 81216, "role": "producer/director", "role_id": 31, "is_primary": true}, {"id": 815222, "title": "The Shop around the corner [NTSC]", "work_id": 93369, "role": "producer/director", "role_id": 31, "is_primary": true}, {"id": 1988666, "title": "The Merry widow", "work_id": 84675, "role": "producer/director", "role_id": 31, "is_primary": true}], "also_known_as": "", "date_of_birth": "1892-01-29", "date_of_death": "1947-11-30", "genders": [{"id": 9, "name": "Male", "slug": "male"}], "languages": [{"id": 1, "name": "English", "slug": "english"}, {"id": 5, "name": "German", "slug": "german"}], "places_of_operation": [{"id": 18, "name": "Germany", "slug": "germany"}], "biography": "Ernst Lubitsch (; January 29, 1892 – November 30, 1947) was a German-born American film director, producer, writer, and actor. His urbane comedies of manners gave him the reputation of being Hollywood's most elegant and sophisticated director; as his prestige grew, his films were promoted as having \"the Lubitsch touch\". Among his best known works are Trouble in Paradise, Design for Living, Ninotchka, The Shop Around the Corner, To Be or Not to Be and Heaven Can Wait.\nIn 1946, he received an Honorary Academy Award for his distinguished contributions to the art of the motion picture.", "biography_author": "Wikidata", "date_of_biography": "2022-05-19T11:25:41.330073+10:00", "external_links": [{"id": 2017, "uri": "https://en.wikipedia.org/wiki/Ernst_Lubitsch"}], "uuid": "e60206b9-507b-4a40-9179-19b0c4a48b0a", "source": {"name": "Vernon", "slug": "vernon"}, "source_identifier": "18878", "external_references": [{"id": 8717, "source": {"name": "Wikidata", "slug": "wikidata"}, "source_identifier": "Q51562"}, {"id": 8718, "source": {"name": "VIAF", "slug": "viaf"}, "source_identifier": "56627503"}, {"id": 8719, "source": {"name": "LOC Auth", "slug": "loc-auth"}, "source_identifier": "n50043553"}, {"id": 8720, "source": {"name": "WorldCat", "slug": "worldcat"}, "source_identifier": "lccn-n50043553"}], "date_modified": "2023-09-13T12:29:20.067259+10:00"}, {"id": 19450, "name": "J Gary Mitchell Film Company", "roles_in_work": [{"id": 919418, "title": "The Wizard of No", "work_id": 98873, "role": "production company", "role_id": 941, "is_primary": true}, {"id": 862093, "title": "Incest: the victim nobody believes", "work_id": 75992, "role": "production company", "role_id": 941, "is_primary": true}, {"id": 2402219, "title": "Battered women: violence behind closed doors", "work_id": 77538, "role": "production company", "role_id": 941, "is_primary": true}, {"id": 864744, "title": "Cocaine pain", "work_id": 78283, "role": "production company", "role_id": 941, "is_primary": true}], "also_known_as": "", "date_of_birth": "", "date_of_death": "", "genders": [], "languages": [], "places_of_operation": [], "biography": "", "biography_author": null, "date_of_biography": "2023-08-11T14:40:56.322581+10:00", "external_links": [], "uuid": "f93e295f-7e56-41e5-94de-1cd9591dd829", "source": {"name": "Vernon", "slug": "vernon"}, "source_identifier": "9514", "external_references": [], "date_modified": "2023-08-11T14:40:56.322942+10:00"}, {"id": 19449, "name": "Oleksandr Petrovych Dovzhenko", "roles_in_work": [{"id": 862091, "title": "Earth = Zemlia (TEFC)", "work_id": 75989, "role": "director", "role_id": 938, "is_primary": true}, {"id": 773536, "title": "Earth = Zemlya", "work_id": 80898, "role": "director", "role_id": 938, "is_primary": true}, {"id": 773543, "title": "Zvenigora", "work_id": 80901, "role": "director", "role_id": 938, "is_primary": true}, {"id": 2650385, "title": "Zemlya = Earth", "work_id": 115667, "role": "director", "role_id": 938, "is_primary": true}, {"id": 2297101, "title": "Shchors", "work_id": 115695, "role": "director", "role_id": 938, "is_primary": true}, {"id": 2650421, "title": "Zvenigora (Musical Soundtrack)", "work_id": 115682, "role": "director", "role_id": 938, "is_primary": true}, {"id": 2650386, "title": "Zemlya = Earth", "work_id": 115667, "role": "", "role_id": 604, "is_primary": false}, {"id": 2650366, "title": "Arsenal", "work_id": 115663, "role": "producer/director", "role_id": 31, "is_primary": true}, {"id": 2650367, "title": "Arsenal", "work_id": 115663, "role": "writer", "role_id": 939, "is_primary": true}], "also_known_as": "", "date_of_birth": "10 SEP 1894", "date_of_death": "25 NOV 1956", "genders": [{"id": 9, "name": "Male", "slug": "male"}], "languages": [], "places_of_operation": [], "biography": "", "biography_author": null, "date_of_biography": "2023-05-09T18:29:34.683245+10:00", "external_links": [], "uuid": "8c5f3f2f-d41d-4a48-a919-9526e1c6584e", "source": {"name": "Vernon", "slug": "vernon"}, "source_identifier": "33033", "external_references": [], "date_modified": "2025-03-05T14:16:07.976505+11:00"}, {"id": 19447, "name": "VUFKU", "roles_in_work": [{"id": 796814, "title": "Man with a movie camera [Special edition]", "work_id": 87553, "role": "production company", "role_id": 941, "is_primary": true}, {"id": 773535, "title": "Earth = Zemlya", "work_id": 80898, "role": "production company", "role_id": 941, "is_primary": true}, {"id": 2649111, "title": "The Man with the movie camera = Chelovek s kinoapparatom", "work_id": 80830, "role": "production company", "role_id": 941, "is_primary": true}, {"id": 862089, "title": "Earth = Zemlia (TEFC)", "work_id": 75989, "role": "production company", "role_id": 941, "is_primary": true}, {"id": 773542, "title": "Zvenigora", "work_id": 80901, "role": "production company", "role_id": 941, "is_primary": true}, {"id": 2650384, "title": "Zemlya = Earth", "work_id": 115667, "role": "production company", "role_id": 941, "is_primary": true}, {"id": 2650420, "title": "Zvenigora (Musical Soundtrack)", "work_id": 115682, "role": "production company", "role_id": 941, "is_primary": true}, {"id": 2650451, "title": "The Man with a movie camera: fragments from a cameraman's diary", "work_id": 115696, "role": "production company", "role_id": 941, "is_primary": true}, {"id": 2650365, "title": "Arsenal", "work_id": 115663, "role": "production company", "role_id": 941, "is_primary": true}], "also_known_as": "", "date_of_birth": null, "date_of_death": null, "genders": [], "languages": [], "places_of_operation": [], "biography": "", "biography_author": null, "date_of_biography": null, "external_links": [], "uuid": "1e5808db-641e-4486-997a-1fab4ec5f1fe", "source": {"name": "Vernon", "slug": "vernon"}, "source_identifier": "14204", "external_references": [], "date_modified": "2025-03-05T14:20:12.665275+11:00"}, {"id": 19441, "name": "Larry S. Elikann", "roles_in_work": [{"id": 2407906, "title": "Francesca baby", "work_id": 75987, "role": "director", "role_id": 938, "is_primary": true}, {"id": 2793362, "title": "Skating rink", "work_id": 97694, "role": "director", "role_id": 938, "is_primary": true}], "also_known_as": "", "date_of_birth": "", "date_of_death": "", "genders": [], "languages": [], "places_of_operation": [], "biography": "", "biography_author": null, "date_of_biography": "2023-08-11T16:49:12.906435+10:00", "external_links": [], "uuid": "1b643de4-395f-4616-9fe0-7cf4638d9e3a", "source": {"name": "Vernon", "slug": "vernon"}, "source_identifier": "23502", "external_references": [], "date_modified": "2025-03-14T20:17:13.648240+11:00"}, {"id": 19440, "name": "Martin Tahse", "roles_in_work": [{"id": 2793368, "title": "Very good friends", "work_id": 98092, "role": "producer", "role_id": 1089, "is_primary": true}, {"id": 2793361, "title": "Skating rink", "work_id": 97694, "role": "producer", "role_id": 1089, "is_primary": true}, {"id": 2793364, "title": "Schoolboy father", "work_id": 98034, "role": "producer", "role_id": 1089, "is_primary": true}, {"id": 2407905, "title": "Francesca baby", "work_id": 75987, "role": "producer", "role_id": 1089, "is_primary": true}], "also_known_as": "", "date_of_birth": "", "date_of_death": "", "genders": [], "languages": [], "places_of_operation": [], "biography": "", "biography_author": null, "date_of_biography": "2023-08-11T16:49:12.273899+10:00", "external_links": [], "uuid": "6b73805c-b115-4ec9-b7e4-98b1d7243780", "source": {"name": "Vernon", "slug": "vernon"}, "source_identifier": "24672", "external_references": [], "date_modified": "2025-03-14T20:17:17.667468+11:00"}, {"id": 19439, "name": "Martin Tahse Productions", "roles_in_work": [{"id": 2407904, "title": "Francesca baby", "work_id": 75987, "role": "production company", "role_id": 941, "is_primary": true}, {"id": 2793363, "title": "Schoolboy father", "work_id": 98034, "role": "production company", "role_id": 941, "is_primary": true}, {"id": 2793360, "title": "Skating rink", "work_id": 97694, "role": "production company", "role_id": 941, "is_primary": true}, {"id": 2793366, "title": "Very good friends", "work_id": 98092, "role": "production company", "role_id": 941, "is_primary": true}], "also_known_as": "", "date_of_birth": "", "date_of_death": "", "genders": [], "languages": [], "places_of_operation": [], "biography": "", "biography_author": null, "date_of_biography": "2023-08-11T16:49:11.653723+10:00", "external_links": [], "uuid": "c01512a6-a955-4590-9f58-1fe3bca630e5", "source": {"name": "Vernon", "slug": "vernon"}, "source_identifier": "10325", "external_references": [], "date_modified": "2025-03-14T20:17:16.480915+11:00"}, {"id": 19438, "name": "Arthur Zigouras", "roles_in_work": [{"id": 2464423, "title": "Not without sight", "work_id": 75986, "role": "director", "role_id": 938, "is_primary": true}], "also_known_as": "", "date_of_birth": "", "date_of_death": "", "genders": [], "languages": [], "places_of_operation": [], "biography": "", "biography_author": null, "date_of_biography": "2023-08-14T10:11:55.153936+10:00", "external_links": [], "uuid": "14150368-7c75-4fbb-9f85-ae535e7d2522", "source": {"name": "Vernon", "slug": "vernon"}, "source_identifier": "15565", "external_references": [], "date_modified": "2023-08-14T10:11:55.154201+10:00"}]}