{"count": 28687, "next": "https://api.acmi.net.au/creators/?page=1946", "previous": "https://api.acmi.net.au/creators/?page=1944", "results": [{"id": 23637, "name": "Cine-Neighbour", "roles_in_work": [{"id": 2649346, "title": "Atlantic City USA", "work_id": 81371, "role": "production company", "role_id": 941, "is_primary": true}], "also_known_as": "", "date_of_birth": null, "date_of_death": null, "genders": [], "languages": [], "places_of_operation": [], "biography": "", "biography_author": null, "date_of_biography": null, "external_links": [], "uuid": "4be3ad52-c4eb-4379-86da-367e7a951e08", "source": {"name": "Vernon", "slug": "vernon"}, "source_identifier": "6727", "external_references": [], "date_modified": "2025-03-05T14:00:37.151290+11:00"}, {"id": 23636, "name": "Peter Fairman", "roles_in_work": [{"id": 2147902, "title": "Crocodile Dundee (Captioned)", "work_id": 81369, "role": "director", "role_id": 938, "is_primary": true}], "also_known_as": "", "date_of_birth": "", "date_of_death": "", "genders": [], "languages": [], "places_of_operation": [], "biography": "", "biography_author": null, "date_of_biography": "2023-05-09T13:48:28.608383+10:00", "external_links": [], "uuid": "7d109936-12eb-4669-86ad-b6cd89a51cd4", "source": {"name": "Vernon", "slug": "vernon"}, "source_identifier": "26534", "external_references": [{"id": 38342, "source": {"name": "Wikidata", "slug": "wikidata"}, "source_identifier": "Q121034284"}], "date_modified": "2023-09-05T23:55:38.790781+10:00"}, {"id": 23635, "name": "Michael Douglas", "roles_in_work": [{"id": 2168104, "title": "One flew over the cuckoo's nest [DVD]", "work_id": 92457, "role": "co-producer", "role_id": 915, "is_primary": true}, {"id": 2243755, "title": "Flatliners", "work_id": 91445, "role": "co-producer", "role_id": 915, "is_primary": true}, {"id": 2649707, "title": "Jewel of the Nile (Captioned)", "work_id": 82047, "role": "producer", "role_id": 1089, "is_primary": true}, {"id": 2252868, "title": "Romancing the stone", "work_id": 93606, "role": "producer", "role_id": 1089, "is_primary": true}, {"id": 2252908, "title": "Romancing the Stone (Captioned)", "work_id": 81368, "role": "producer", "role_id": 1089, "is_primary": true}, {"id": 2614516, "title": "The China syndrome", "work_id": 83811, "role": "producer", "role_id": 1089, "is_primary": true}], "also_known_as": "Michael Kirk Douglas", "date_of_birth": "25 SEP 1944", "date_of_death": "", "genders": [{"id": 9, "name": "Male", "slug": "male"}], "languages": [{"id": 1, "name": "English", "slug": "english"}], "places_of_operation": [{"id": 1, "name": "United States of America", "slug": "united-states-of-america"}], "biography": "Michael Kirk Douglas (born September 25, 1944) is an American actor and film producer. He has received numerous accolades, including two Academy Awards, five Golden Globe Awards, a Primetime Emmy Award, the Cecil B. DeMille Award, and the AFI Life Achievement Award.The elder son of Kirk Douglas and Diana Dill, Douglas received his Bachelor of Arts in drama from the University of California, Santa Barbara. His early acting roles included film, stage, and television productions. Douglas first achieved prominence for his performance in the ABC police procedural television series The Streets of San Francisco, for which he received three consecutive Emmy Award nominations. In 1975, Douglas produced One Flew Over the Cuckoo's Nest, having acquired the rights to the Ken Kesey novel from his father. The film received critical and popular acclaim, and won the Academy Award for Best Picture, earning Douglas his first Oscar as one of the film's producers.\n\nDouglas went on to produce films including The China Syndrome (1979) and Romancing the Stone (1984), for which he received the Golden Globe Award for Best Motion Picture – Musical or Comedy, and The Jewel of the Nile (1985).\n\nDouglas received critical acclaim for his portrayal of Gordon Gekko in Oliver Stone's Wall Street (1987), for which he won the Academy Award for Best Actor (a role he reprised in the sequel Wall Street: Money Never Sleeps in 2010). Other notable roles include in Fatal Attraction (1987), The War of the Roses (1989), Basic Instinct (1992), Falling Down (1993), The American President (1995), The Game (1997), Traffic (2000), and Wonder Boys (2000).\n\nIn 2013, for his portrayal of Liberace in the HBO film Behind the Candelabra, he won the Primetime Emmy Award for Outstanding Lead Actor in a Miniseries or a Movie. Douglas starred as an aging acting coach in the Netflix comedy series The Kominsky Method (2018–2021), for which he won a Golden Globe Award for Best Actor – Television Series Musical or Comedy. He has portrayed Hank Pym in the Marvel Cinematic Universe, beginning with Ant-Man (2015).\n\nDouglas has received notice for his humanitarian and political activism. He sits on the board of the Nuclear Threat Initiative, is an honorary board member of the anti-war grant-making foundation Ploughshares Fund and he was appointed as a United Nations Messenger of Peace in 1998. He has been married to actress Catherine Zeta-Jones since 2000. Source: Wikidata; 01/08/2023", "biography_author": null, "date_of_biography": "2025-03-05T14:05:30.800585+11:00", "external_links": [{"id": 4682, "uri": "https://en.wikipedia.org/wiki/Michael_Douglas"}], "uuid": "125eed99-4b81-41fe-aa3b-8306ef8e9464", "source": {"name": "Vernon", "slug": "vernon"}, "source_identifier": "25049", "external_references": [{"id": 24911, "source": {"name": "Wikidata", "slug": "wikidata"}, "source_identifier": "Q119798"}, {"id": 30289, "source": {"name": "VIAF", "slug": "viaf"}, "source_identifier": "84033248"}, {"id": 30290, "source": {"name": "LOC Auth", "slug": "loc-auth"}, "source_identifier": "n85376869"}, {"id": 30291, "source": {"name": "WorldCat", "slug": "worldcat"}, "source_identifier": "lccn-n85376869"}], "date_modified": "2025-03-05T14:05:30.800816+11:00"}, {"id": 23634, "name": "El Corazon Productions", "roles_in_work": [{"id": 2252863, "title": "Romancing the stone", "work_id": 93606, "role": "production company", "role_id": 941, "is_primary": true}, {"id": 2252907, "title": "Romancing the Stone (Captioned)", "work_id": 81368, "role": "production company", "role_id": 941, "is_primary": true}], "also_known_as": "", "date_of_birth": "", "date_of_death": "", "genders": [], "languages": [], "places_of_operation": [], "biography": "", "biography_author": null, "date_of_biography": "2023-05-09T17:13:52.061418+10:00", "external_links": [], "uuid": "2a909a99-6cf7-4ce7-b72f-6760f2308c2b", "source": {"name": "Vernon", "slug": "vernon"}, "source_identifier": "7839", "external_references": [{"id": 43148, "source": {"name": "Wikidata", "slug": "wikidata"}, "source_identifier": "Q121079187"}], "date_modified": "2023-09-05T19:27:36.807615+10:00"}, {"id": 23630, "name": "NVC Arts", "roles_in_work": [{"id": 805858, "title": "Frank McCourt [Widescreen]", "work_id": 90546, "role": "production company", "role_id": 941, "is_primary": true}, {"id": 775163, "title": "La Sylphide", "work_id": 81361, "role": "production company", "role_id": 941, "is_primary": true}, {"id": 1847659, "title": "The Tales of Hoffmann = les contes d'Hoffmann", "work_id": 87347, "role": "production company", "role_id": 941, "is_primary": true}, {"id": 2289704, "title": "Theodora", "work_id": 93581, "role": "production company", "role_id": 941, "is_primary": true}, {"id": 797193, "title": "Great Pas de deux", "work_id": 87687, "role": "production company", "role_id": 941, "is_primary": true}, {"id": 2321976, "title": "Tango among friends", "work_id": 87742, "role": "production company", "role_id": 941, "is_primary": true}, {"id": 2168934, "title": "Dame Kiri Te Kanawa: my world of opera", "work_id": 83965, "role": "production company", "role_id": 941, "is_primary": true}, {"id": 3084351, "title": "The Wave of the future [Widescreen]", "work_id": 93028, "role": "production company", "role_id": 941, "is_primary": true}], "also_known_as": "", "date_of_birth": "", "date_of_death": "", "genders": [], "languages": [], "places_of_operation": [], "biography": "", "biography_author": null, "date_of_biography": "2023-05-09T19:41:36.870783+10:00", "external_links": [], "uuid": "6a8dde9f-b315-4c60-8f52-561e3793ef57", "source": {"name": "Vernon", "slug": "vernon"}, "source_identifier": "4704", "external_references": [{"id": 43437, "source": {"name": "Wikidata", "slug": "wikidata"}, "source_identifier": "Q121337359"}], "date_modified": "2025-03-17T10:36:11.949718+11:00"}, {"id": 23627, "name": "TFI Films", "roles_in_work": [{"id": 809361, "title": "The Crisis = La Crise", "work_id": 91778, "role": "production company", "role_id": 941, "is_primary": true}, {"id": 2316248, "title": "Subway [Dubbed]", "work_id": 81360, "role": "production company", "role_id": 941, "is_primary": true}, {"id": 1989329, "title": "Too beautiful for you = Trop belle pour toi", "work_id": 85142, "role": "production company", "role_id": 941, "is_primary": true}], "also_known_as": "", "date_of_birth": "", "date_of_death": "", "genders": [], "languages": [], "places_of_operation": [], "biography": "", "biography_author": null, "date_of_biography": "2023-05-09T19:04:51.299070+10:00", "external_links": [], "uuid": "c22a734e-b794-4276-ba5e-bacba3171405", "source": {"name": "Vernon", "slug": "vernon"}, "source_identifier": "13324", "external_references": [{"id": 34421, "source": {"name": "Wikidata", "slug": "wikidata"}, "source_identifier": "Q121036031"}], "date_modified": "2023-09-06T01:47:07.108161+10:00"}, {"id": 23626, "name": "TSF Production", "roles_in_work": [{"id": 2316242, "title": "Subway [Dubbed]", "work_id": 81360, "role": "production company", "role_id": 941, "is_primary": true}], "also_known_as": "", "date_of_birth": "", "date_of_death": "", "genders": [], "languages": [], "places_of_operation": [], "biography": "", "biography_author": null, "date_of_biography": "2023-05-09T19:04:50.821363+10:00", "external_links": [], "uuid": "5b9677f0-7772-43d4-b697-4b49192ac0d3", "source": {"name": "Vernon", "slug": "vernon"}, "source_identifier": "13740", "external_references": [{"id": 38730, "source": {"name": "Wikidata", "slug": "wikidata"}, "source_identifier": "Q121271391"}], "date_modified": "2023-09-06T01:59:27.011437+10:00"}, {"id": 23625, "name": "Les Films du Loup", "roles_in_work": [{"id": 2316238, "title": "Subway [Dubbed]", "work_id": 81360, "role": "production company", "role_id": 941, "is_primary": true}], "also_known_as": "", "date_of_birth": "", "date_of_death": "", "genders": [], "languages": [], "places_of_operation": [], "biography": "", "biography_author": null, "date_of_biography": "2023-05-09T19:04:50.583013+10:00", "external_links": [], "uuid": "9feac400-ccb0-4691-a551-a6d1dada5fc1", "source": {"name": "Vernon", "slug": "vernon"}, "source_identifier": "10008", "external_references": [{"id": 38862, "source": {"name": "Wikidata", "slug": "wikidata"}, "source_identifier": "Q110772867"}], "date_modified": "2023-09-05T22:21:34.841258+10:00"}, {"id": 23624, "name": "John Street", "roles_in_work": [{"id": 2330998, "title": "The Best of...What's Left of...Not Only but Also...The Video", "work_id": 81359, "role": "co-producers/directors", "role_id": 628, "is_primary": true}, {"id": 1815551, "title": "Joyce Grenfell entertains: a selection from the works of Joyce Grenfell", "work_id": 93249, "role": "producer", "role_id": 1089, "is_primary": true}], "also_known_as": "", "date_of_birth": "", "date_of_death": "", "genders": [], "languages": [], "places_of_operation": [], "biography": "", "biography_author": null, "date_of_biography": "2023-05-09T19:25:32.122373+10:00", "external_links": [], "uuid": "7d9bffa4-104c-491c-8e42-4700b5752d83", "source": {"name": "Vernon", "slug": "vernon"}, "source_identifier": "18262", "external_references": [{"id": 42776, "source": {"name": "Wikidata", "slug": "wikidata"}, "source_identifier": "Q121035133"}], "date_modified": "2023-09-05T21:44:50.165026+10:00"}, {"id": 23614, "name": "Film Four International", "roles_in_work": [{"id": 2183369, "title": "December bride", "work_id": 82464, "role": "production company", "role_id": 941, "is_primary": true}, {"id": 2476378, "title": "Very Annie Mary", "work_id": 93319, "role": "production company", "role_id": 941, "is_primary": true}, {"id": 1999494, "title": "Late night shopping", "work_id": 94497, "role": "production company", "role_id": 941, "is_primary": true}, {"id": 1999466, "title": "Life is sweet", "work_id": 94484, "role": "production company", "role_id": 941, "is_primary": true}, {"id": 867942, "title": "Comrades: a Lanternist's account of the Tolpuddle Martyrs and what became of them", "work_id": 84077, "role": "production company", "role_id": 941, "is_primary": true}, {"id": 2615429, "title": "Naked", "work_id": 85428, "role": "production company", "role_id": 941, "is_primary": true}, {"id": 2159050, "title": "Mississippi masala [DVD]", "work_id": 94891, "role": "production company", "role_id": 941, "is_primary": true}, {"id": 1995023, "title": "Raining stones", "work_id": 90994, "role": "production company", "role_id": 941, "is_primary": true}, {"id": 2107672, "title": "Bandit Queen", "work_id": 86502, "role": "production company", "role_id": 941, "is_primary": true}, {"id": 2211617, "title": "Drowning by numbers", "work_id": 81350, "role": "production company", "role_id": 941, "is_primary": true}, {"id": 2125868, "title": "Brother", "work_id": 93807, "role": "production company", "role_id": 941, "is_primary": true}, {"id": 2064728, "title": "24 Hour party people", "work_id": 94972, "role": "production company", "role_id": 941, "is_primary": true}, {"id": 2296165, "title": "Sexy beast", "work_id": 93596, "role": "production company", "role_id": 941, "is_primary": true}, {"id": 1994750, "title": "Carla's song", "work_id": 90534, "role": "production company", "role_id": 941, "is_primary": true}, {"id": 2476536, "title": "The War zone (E)", "work_id": 91312, "role": "production company", "role_id": 941, "is_primary": true}, {"id": 1994861, "title": "Ladybird, ladybird", "work_id": 90593, "role": "production company", "role_id": 941, "is_primary": true}, {"id": 1996946, "title": "East is east", "work_id": 93022, "role": "production company", "role_id": 941, "is_primary": true}, {"id": 2167972, "title": "Maurice", "work_id": 85310, "role": "production company", "role_id": 941, "is_primary": true}, {"id": 2381431, "title": "The Kimberley mob", "work_id": 82213, "role": "production company", "role_id": 941, "is_primary": true}, {"id": 1997347, "title": "Hotel splendide", "work_id": 93270, "role": "production company", "role_id": 941, "is_primary": true}, {"id": 2085363, "title": "Alice", "work_id": 82465, "role": "production company", "role_id": 941, "is_primary": true}], "also_known_as": "", "date_of_birth": "", "date_of_death": "", "genders": [], "languages": [], "places_of_operation": [], "biography": "", "biography_author": null, "date_of_biography": "2023-08-17T15:37:57.499464+10:00", "external_links": [], "uuid": "d0ac2688-28e3-4793-ab97-eb359cbc0ebc", "source": {"name": "Vernon", "slug": "vernon"}, "source_identifier": "8214", "external_references": [{"id": 37051, "source": {"name": "Wikidata", "slug": "wikidata"}, "source_identifier": "Q121222732"}], "date_modified": "2025-02-26T20:23:44.261128+11:00"}]}