{"count": 28684, "next": "https://api.acmi.net.au/creators/?page=2389", "previous": "https://api.acmi.net.au/creators/?page=2387", "results": [{"id": 15319, "name": "Bob Lomax", "roles_in_work": [{"id": 2714718, "title": "Glider in the sky", "work_id": 68080, "role": "director", "role_id": 938, "is_primary": true}], "also_known_as": "", "date_of_birth": "", "date_of_death": "", "genders": [], "languages": [], "places_of_operation": [], "biography": "", "biography_author": null, "date_of_biography": "2023-08-11T17:03:10.926383+10:00", "external_links": [], "uuid": "e0a5b563-a3b7-45be-9c8d-8b2735e8def7", "source": {"name": "Vernon", "slug": "vernon"}, "source_identifier": "16083", "external_references": [], "date_modified": "2025-03-12T01:17:35.150259+11:00"}, {"id": 15318, "name": "W.D. & H.O. Wills", "roles_in_work": [{"id": 2714717, "title": "Glider in the sky", "work_id": 68080, "role": "producer", "role_id": 1089, "is_primary": true}, {"id": 2714716, "title": "Glider in the sky", "work_id": 68080, "role": "production company", "role_id": 941, "is_primary": true}], "also_known_as": "", "date_of_birth": "", "date_of_death": "", "genders": [], "languages": [], "places_of_operation": [], "biography": "", "biography_author": null, "date_of_biography": "2023-08-11T17:03:10.289984+10:00", "external_links": [], "uuid": "1c0e7bbe-9b68-4e19-8fd2-6d7abc0f2141", "source": {"name": "Vernon", "slug": "vernon"}, "source_identifier": "4039", "external_references": [], "date_modified": "2025-03-12T01:17:34.566836+11:00"}, {"id": 15316, "name": "Richard Philps", "roles_in_work": [{"id": 1819580, "title": "Pottery without a wheel. Part 3. Slab work and coiled work", "work_id": 71739, "role": "producer", "role_id": 1089, "is_primary": true}, {"id": 2714707, "title": "Glazing", "work_id": 68076, "role": "producer", "role_id": 1089, "is_primary": true}, {"id": 2789153, "title": "Pottery without a wheel. Parts. 1-3", "work_id": 82594, "role": "producer", "role_id": 1089, "is_primary": true}, {"id": 2789155, "title": "Throwing", "work_id": 73804, "role": "producer", "role_id": 1089, "is_primary": true}, {"id": 2789158, "title": "Throwing", "work_id": 83337, "role": "producer", "role_id": 1089, "is_primary": true}, {"id": 2789164, "title": "The Potter: a series of films", "work_id": 115384, "role": "producer", "role_id": 1089, "is_primary": true}], "also_known_as": "", "date_of_birth": null, "date_of_death": null, "genders": [], "languages": [], "places_of_operation": [], "biography": "", "biography_author": null, "date_of_biography": null, "external_links": [], "uuid": "df739bec-8813-426f-8ad5-71b9aedcfcb6", "source": {"name": "Vernon", "slug": "vernon"}, "source_identifier": "27480", "external_references": [], "date_modified": "2025-03-14T19:49:38.160058+11:00"}, {"id": 15315, "name": "Mary Beales", "roles_in_work": [{"id": 2714702, "title": "Glasshouse soils", "work_id": 68073, "role": "director", "role_id": 938, "is_primary": true}, {"id": 875129, "title": "Dover: spring 1947", "work_id": 89320, "role": "director", "role_id": 938, "is_primary": true}], "also_known_as": "", "date_of_birth": "", "date_of_death": "", "genders": [], "languages": [], "places_of_operation": [], "biography": "", "biography_author": null, "date_of_biography": "2023-08-11T17:02:55.280441+10:00", "external_links": [], "uuid": "4f4cb57a-256f-4cc3-8ff0-95108bba8a27", "source": {"name": "Vernon", "slug": "vernon"}, "source_identifier": "24707", "external_references": [], "date_modified": "2025-03-12T01:17:22.796345+11:00"}, {"id": 15314, "name": "Central Office of Inofrmation Film", "roles_in_work": [{"id": 2714700, "title": "Glasshouse soils", "work_id": 68073, "role": "production company", "role_id": 941, "is_primary": true}], "also_known_as": "", "date_of_birth": "", "date_of_death": "", "genders": [], "languages": [], "places_of_operation": [], "biography": "", "biography_author": null, "date_of_biography": "2023-08-11T17:02:54.006744+10:00", "external_links": [], "uuid": "473e89fb-3c07-474e-b040-15ae3c2ddc91", "source": {"name": "Vernon", "slug": "vernon"}, "source_identifier": "6424", "external_references": [], "date_modified": "2025-03-12T01:17:21.593696+11:00"}, {"id": 15313, "name": "Maclovia", "roles_in_work": [{"id": 2714698, "title": "Glasses for Susan a new day", "work_id": 68072, "role": "production company", "role_id": 941, "is_primary": true}], "also_known_as": "", "date_of_birth": null, "date_of_death": null, "genders": [], "languages": [], "places_of_operation": [], "biography": "", "biography_author": null, "date_of_biography": null, "external_links": [], "uuid": "9742cace-b79e-4860-81bd-f9d913dbbfee", "source": {"name": "Vernon", "slug": "vernon"}, "source_identifier": "10215", "external_references": [], "date_modified": "2025-03-12T01:17:20.169153+11:00"}, {"id": 15312, "name": "William Shilling", "roles_in_work": [{"id": 2714697, "title": "Glass houses", "work_id": 68071, "role": "director", "role_id": 938, "is_primary": true}], "also_known_as": "", "date_of_birth": null, "date_of_death": null, "genders": [], "languages": [], "places_of_operation": [], "biography": "", "biography_author": null, "date_of_biography": null, "external_links": [], "uuid": "0ccb0371-35c7-48fa-ad9b-93a49798eee6", "source": {"name": "Vernon", "slug": "vernon"}, "source_identifier": "30366", "external_references": [], "date_modified": "2025-03-12T01:17:19.416237+11:00"}, {"id": 15311, "name": "Frank Worth", "roles_in_work": [{"id": 2714695, "title": "Glass", "work_id": 68070, "role": "director", "role_id": 938, "is_primary": true}, {"id": 1904859, "title": "Pilkington Brothers offer: the best of both worlds", "work_id": 90614, "role": "director", "role_id": 938, "is_primary": true}], "also_known_as": "", "date_of_birth": null, "date_of_death": null, "genders": [], "languages": [], "places_of_operation": [], "biography": "", "biography_author": null, "date_of_biography": null, "external_links": [], "uuid": "19bc7a15-1a9d-4cb5-94f6-927707bafc10", "source": {"name": "Vernon", "slug": "vernon"}, "source_identifier": "19188", "external_references": [], "date_modified": "2025-03-12T01:17:17.993086+11:00"}, {"id": 15310, "name": "Pilkington Brothers", "roles_in_work": [{"id": 2714693, "title": "Glass", "work_id": 68070, "role": "production company", "role_id": 941, "is_primary": true}], "also_known_as": "", "date_of_birth": null, "date_of_death": null, "genders": [], "languages": [], "places_of_operation": [], "biography": "", "biography_author": null, "date_of_biography": null, "external_links": [], "uuid": "595f3edc-cec5-4dc8-bb9c-7b83e5cb307a", "source": {"name": "Vernon", "slug": "vernon"}, "source_identifier": "11488", "external_references": [], "date_modified": "2025-03-12T01:17:16.809053+11:00"}, {"id": 15307, "name": "John Sharpies", "roles_in_work": [{"id": 2714686, "title": "Give him air", "work_id": 68064, "role": "director", "role_id": 938, "is_primary": true}], "also_known_as": "", "date_of_birth": "", "date_of_death": "", "genders": [], "languages": [], "places_of_operation": [], "biography": "", "biography_author": null, "date_of_biography": "2023-08-11T17:02:24.321027+10:00", "external_links": [], "uuid": "75db870b-84af-4daa-89a9-051ccbbb295c", "source": {"name": "Vernon", "slug": "vernon"}, "source_identifier": "22524", "external_references": [], "date_modified": "2025-03-12T01:17:11.169124+11:00"}]}