{"count": 28687, "next": "https://api.acmi.net.au/creators/?page=2124", "previous": "https://api.acmi.net.au/creators/?page=2122", "results": [{"id": 20103, "name": "Australian Computer Society", "roles_in_work": [{"id": 2473899, "title": "The Teacher and the Computer", "work_id": 76951, "role": "producer", "role_id": 1089, "is_primary": true}, {"id": 2647658, "title": "Computers in Agriculture", "work_id": 76949, "role": "production company", "role_id": 941, "is_primary": true}, {"id": 1550444, "title": "Computers in the Mining Industry", "work_id": 76955, "role": "production company", "role_id": 941, "is_primary": true}, {"id": 1904097, "title": "Computers as work aids in transport; Impact of computers in local government", "work_id": 77772, "role": "production company", "role_id": 941, "is_primary": true}, {"id": 1550442, "title": "Factory production", "work_id": 76950, "role": "production company", "role_id": 941, "is_primary": true}, {"id": 1550445, "title": "Computing in the Aust. Dept. of Defence", "work_id": 76952, "role": "production company", "role_id": 941, "is_primary": true}, {"id": 1550443, "title": "Computers in engineering", "work_id": 76954, "role": "production company", "role_id": 941, "is_primary": true}], "also_known_as": "", "date_of_birth": "", "date_of_death": "", "genders": [], "languages": [], "places_of_operation": [], "biography": "", "biography_author": null, "date_of_biography": "2023-08-16T03:40:06.600216+10:00", "external_links": [], "uuid": "5295c57e-46c6-4a3f-b078-e92aab825aa7", "source": {"name": "Vernon", "slug": "vernon"}, "source_identifier": "4604", "external_references": [], "date_modified": "2025-03-05T13:30:42.020154+11:00"}, {"id": 20101, "name": "Bert Decker", "roles_in_work": [{"id": 2466045, "title": "Speaking effectively...to one or one thousand", "work_id": 76945, "role": "director", "role_id": 938, "is_primary": true}], "also_known_as": "", "date_of_birth": "", "date_of_death": "", "genders": [{"id": 9, "name": "Male", "slug": "male"}], "languages": [], "places_of_operation": [], "biography": "A true visionary, Bert launched Decker Communications in 1979 to transform people’s lives – and that mission remains the same today. Bert’s passion for communications evolved from his early career as a successful filmmaker. After turning the camera on himself, he became keenly aware of the power of video feedback and the need for communications coaching. Since then, Bert has become a nationally recognized communications expert, appearing on the NBC TODAY Show several times, commentator on Presidential Debates, and featured on ABC’s 20/20 and dozens of other print and broadcast media.\n\nBert is entrepreneurial to his core. In addition to speaking and writing, he is the founder of seven companies and organizations, Chairman of the Advisory Board of The Salvation Army, and fancies himself an early adopter of all things tech.\n\nBert raised his three children in the Decker Method and is now working on his grandchildren. He and his wife Dru Scott live in San Francisco.", "biography_author": null, "date_of_biography": "2023-08-14T10:48:10.636488+10:00", "external_links": [], "uuid": "0bc2dec3-8ded-4fc3-b2e6-0e2ed853fd4d", "source": {"name": "Vernon", "slug": "vernon"}, "source_identifier": "15867", "external_references": [], "date_modified": "2023-08-14T10:48:10.636810+10:00"}, {"id": 20100, "name": "Toastmasters International", "roles_in_work": [{"id": 2466044, "title": "Speaking effectively...to one or one thousand", "work_id": 76945, "role": "production company", "role_id": 941, "is_primary": true}], "also_known_as": "", "date_of_birth": "", "date_of_death": "", "genders": [], "languages": [], "places_of_operation": [], "biography": "", "biography_author": null, "date_of_biography": "2023-08-14T10:48:09.997668+10:00", "external_links": [], "uuid": "e51a305c-6546-41e9-975e-df792ba1cc23", "source": {"name": "Vernon", "slug": "vernon"}, "source_identifier": "13556", "external_references": [], "date_modified": "2023-08-14T10:48:09.998002+10:00"}, {"id": 20099, "name": "Sunset Films", "roles_in_work": [{"id": 2466043, "title": "Speaking effectively...to one or one thousand", "work_id": 76945, "role": "production company", "role_id": 941, "is_primary": true}], "also_known_as": "", "date_of_birth": "", "date_of_death": "", "genders": [], "languages": [], "places_of_operation": [], "biography": "", "biography_author": null, "date_of_biography": "2023-08-14T10:48:09.316698+10:00", "external_links": [], "uuid": "c6c3636e-a6f0-46f3-ba63-cd842956e939", "source": {"name": "Vernon", "slug": "vernon"}, "source_identifier": "13061", "external_references": [], "date_modified": "2023-08-14T10:48:09.317015+10:00"}, {"id": 20093, "name": "Henry Lutman", "roles_in_work": [{"id": 2755333, "title": "Architype", "work_id": 76940, "role": "director", "role_id": 938, "is_primary": true}], "also_known_as": "", "date_of_birth": "", "date_of_death": "", "genders": [], "languages": [], "places_of_operation": [], "biography": "", "biography_author": null, "date_of_biography": "2023-05-09T16:51:45.680595+10:00", "external_links": [], "uuid": "64f1b067-579b-4050-aca9-7b29b0f8216b", "source": {"name": "Vernon", "slug": "vernon"}, "source_identifier": "20499", "external_references": [{"id": 34867, "source": {"name": "Wikidata", "slug": "wikidata"}, "source_identifier": "Q121035607"}], "date_modified": "2025-03-13T14:32:13.496784+11:00"}, {"id": 20092, "name": "Colin Thomas", "roles_in_work": [{"id": 2755340, "title": "Filling time", "work_id": 76942, "role": "producer", "role_id": 1089, "is_primary": true}, {"id": 2755335, "title": "Down and out", "work_id": 76941, "role": "producer", "role_id": 1089, "is_primary": true}, {"id": 2755332, "title": "Architype", "work_id": 76940, "role": "producer", "role_id": 1089, "is_primary": true}], "also_known_as": "", "date_of_birth": "", "date_of_death": "", "genders": [], "languages": [], "places_of_operation": [], "biography": "", "biography_author": null, "date_of_biography": "2023-05-09T16:51:46.984615+10:00", "external_links": [], "uuid": "ed13b504-7ed2-4bdb-9150-ec0825930863", "source": {"name": "Vernon", "slug": "vernon"}, "source_identifier": "17200", "external_references": [{"id": 38227, "source": {"name": "Wikidata", "slug": "wikidata"}, "source_identifier": "Q121034241"}], "date_modified": "2025-03-13T14:32:15.708708+11:00"}, {"id": 20089, "name": "Deepa Mehta", "roles_in_work": [{"id": 2212784, "title": "Earth", "work_id": 88965, "role": "director", "role_id": 938, "is_primary": true}, {"id": 2241378, "title": "Fire", "work_id": 88962, "role": "director", "role_id": 938, "is_primary": true}, {"id": 2770189, "title": "Ming-Oi the magician (Hong Kong)", "work_id": 97901, "role": "co-director", "role_id": 959, "is_primary": true}, {"id": 2212779, "title": "Earth", "work_id": 88965, "role": "co-producer", "role_id": 915, "is_primary": true}, {"id": 2241375, "title": "Fire", "work_id": 88962, "role": "co-producer", "role_id": 915, "is_primary": true}, {"id": 2770215, "title": "Yoshiko the Papermaker (Japan)", "work_id": 97759, "role": "producer", "role_id": 1089, "is_primary": true}, {"id": 2770163, "title": "Jafar's blue tiles (Iran)", "work_id": 76932, "role": "producer/director", "role_id": 31, "is_primary": true}], "also_known_as": "", "date_of_birth": "01 JAN 1950", "date_of_death": "", "genders": [{"id": 5, "name": "Female", "slug": "female"}], "languages": [{"id": 1, "name": "English", "slug": "english"}], "places_of_operation": [{"id": 50, "name": "India", "slug": "india"}], "biography": "Deepa Mehta,  ([diːpa ˈmeːɦta]; born 15 September 1950) is an Indian-born Canadian film director and screenwriter, best known for her Elements Trilogy, Fire (1996), Earth (1998), and Water (2005).\n\nEarth was submitted by India as its official entry for the Academy Award for Best Foreign Language Film, and Water was Canada's official entry for the Academy Award for Best Foreign Language Film, making it only the third non-French-language Canadian film submitted in that category after Attila Bertalan's 1990 invented-language film A Bullet to the Head and Zacharias Kunuk's 2001 Inuktitut-language feature Atanarjuat: The Fast Runner.\n\nShe co-founded Hamilton-Mehta Productions, with her husband, producer David Hamilton in 1996. She was awarded a Genie Award in 2003 for the screenplay of Bollywood/Hollywood. In May 2012, Mehta received the Governor General's Performing Arts Award for Lifetime Artistic Achievement, Canada's highest honour in the performing arts. Source: Wikidata; 01/08/2023", "biography_author": null, "date_of_biography": "2025-03-14T18:17:48.718112+11:00", "external_links": [{"id": 3865, "uri": "https://en.wikipedia.org/wiki/Deepa_Mehta"}], "uuid": "1bbfb9db-c7b0-4cdb-8e43-1adcf5c288f9", "source": {"name": "Vernon", "slug": "vernon"}, "source_identifier": "4594", "external_references": [{"id": 26770, "source": {"name": "Wikidata", "slug": "wikidata"}, "source_identifier": "Q299140"}, {"id": 28119, "source": {"name": "VIAF", "slug": "viaf"}, "source_identifier": "55317328"}, {"id": 28120, "source": {"name": "LOC Auth", "slug": "loc-auth"}, "source_identifier": "n96065172"}, {"id": 28121, "source": {"name": "WorldCat", "slug": "worldcat"}, "source_identifier": "lccn-n96065172"}], "date_modified": "2025-03-14T18:17:48.718386+11:00"}, {"id": 20088, "name": "Irby Smith", "roles_in_work": [{"id": 1987971, "title": "Major league (Captioned)", "work_id": 84222, "role": "co-producer", "role_id": 915, "is_primary": true}, {"id": 2277229, "title": "Young guns II (Captioned)", "work_id": 84227, "role": "co-producer", "role_id": 915, "is_primary": true}, {"id": 2138948, "title": "City slickers (Captioned)", "work_id": 84221, "role": "producer", "role_id": 1089, "is_primary": true}, {"id": 2647654, "title": "The Power of listening", "work_id": 76927, "role": "producer/director", "role_id": 31, "is_primary": true}, {"id": 863203, "title": "Performance appraisal: the human dynamics", "work_id": 76933, "role": "producer/director", "role_id": 31, "is_primary": true}], "also_known_as": "", "date_of_birth": "", "date_of_death": "", "genders": [], "languages": [], "places_of_operation": [], "biography": "", "biography_author": null, "date_of_biography": "2023-05-09T17:53:44.732454+10:00", "external_links": [], "uuid": "1592d916-f5a0-465e-883d-649efb200090", "source": {"name": "Vernon", "slug": "vernon"}, "source_identifier": "20854", "external_references": [{"id": 37006, "source": {"name": "Wikidata", "slug": "wikidata"}, "source_identifier": "Q121271224"}], "date_modified": "2025-03-05T13:30:38.901376+11:00"}, {"id": 20084, "name": "Prospective Films", "roles_in_work": [{"id": 2068669, "title": "A Director talks about his film", "work_id": 76926, "role": "production company", "role_id": 941, "is_primary": true}], "also_known_as": "", "date_of_birth": "", "date_of_death": "", "genders": [], "languages": [], "places_of_operation": [], "biography": "", "biography_author": null, "date_of_biography": "2023-05-09T11:28:25.568517+10:00", "external_links": [], "uuid": "43338628-4312-4ba0-bfa7-b3017305eef0", "source": {"name": "Vernon", "slug": "vernon"}, "source_identifier": "11708", "external_references": [{"id": 41108, "source": {"name": "Wikidata", "slug": "wikidata"}, "source_identifier": "Q121271071"}], "date_modified": "2023-09-06T00:14:41.093094+10:00"}, {"id": 20083, "name": "Zlatko Lavanic", "roles_in_work": [{"id": 2464612, "title": "One day in the life of Rajko Maksim", "work_id": 76923, "role": "director", "role_id": 938, "is_primary": true}], "also_known_as": "", "date_of_birth": "", "date_of_death": "", "genders": [], "languages": [], "places_of_operation": [], "biography": "", "biography_author": null, "date_of_biography": "2023-08-14T10:15:15.880318+10:00", "external_links": [], "uuid": "7a2eb416-dd81-4503-8ec9-7e90303eb233", "source": {"name": "Vernon", "slug": "vernon"}, "source_identifier": "30691", "external_references": [], "date_modified": "2023-08-14T10:15:15.880632+10:00"}]}