{"count": 28683, "next": "https://api.acmi.net.au/creators/?page=224", "previous": "https://api.acmi.net.au/creators/?page=222", "results": [{"id": 83373, "name": "Sophie Obradovic", "roles_in_work": [{"id": 2290272, "title": "I am Sophie hear me rawr!!...meow", "work_id": 116553, "role": "creator", "role_id": 968, "is_primary": true}], "also_known_as": "", "date_of_birth": "", "date_of_death": "", "genders": [{"id": 5, "name": "Female", "slug": "female"}], "languages": [], "places_of_operation": [], "biography": "", "biography_author": null, "date_of_biography": "2023-05-09T18:18:02.516237+10:00", "external_links": [], "uuid": "ae2dcf68-bdb1-4e52-8417-546294a26c55", "source": {"name": "Vernon", "slug": "vernon"}, "source_identifier": "33729", "external_references": [], "date_modified": "2023-06-14T16:33:30.576250+10:00"}, {"id": 83372, "name": "Parthena Savvidou", "roles_in_work": [{"id": 2290486, "title": "Gia mas (About us)", "work_id": 116552, "role": "creator", "role_id": 968, "is_primary": true}], "also_known_as": "", "date_of_birth": "", "date_of_death": "", "genders": [{"id": 5, "name": "Female", "slug": "female"}], "languages": [], "places_of_operation": [], "biography": "", "biography_author": null, "date_of_biography": "2023-05-09T18:18:25.892973+10:00", "external_links": [], "uuid": "ac8a69f2-d470-4ae5-a873-ae027bbdb38d", "source": {"name": "Vernon", "slug": "vernon"}, "source_identifier": "33737", "external_references": [], "date_modified": "2023-06-14T16:33:30.576250+10:00"}, {"id": 83371, "name": "Barbara Mullen", "roles_in_work": [{"id": 2290458, "title": "A Concrete thinker", "work_id": 116551, "role": "creator", "role_id": 968, "is_primary": true}], "also_known_as": "", "date_of_birth": "", "date_of_death": "", "genders": [{"id": 5, "name": "Female", "slug": "female"}], "languages": [], "places_of_operation": [], "biography": "", "biography_author": null, "date_of_biography": "2023-05-09T18:18:23.830398+10:00", "external_links": [], "uuid": "24eb1d61-bf71-47ba-ad08-1336fb018e65", "source": {"name": "Vernon", "slug": "vernon"}, "source_identifier": "33739", "external_references": [], "date_modified": "2023-06-14T16:33:30.576250+10:00"}, {"id": 83370, "name": "Service Stream", "roles_in_work": [{"id": 2656880, "title": "The Unpredictability of life...", "work_id": 117033, "role": "support", "role_id": 492, "is_primary": false}, {"id": 2656885, "title": "A True friend", "work_id": 117031, "role": "support", "role_id": 492, "is_primary": false}, {"id": 2656890, "title": "My neice", "work_id": 117029, "role": "support", "role_id": 492, "is_primary": false}, {"id": 2656895, "title": "Under cover", "work_id": 117032, "role": "support", "role_id": 492, "is_primary": false}, {"id": 2658088, "title": "Anything can happen in life", "work_id": 117133, "role": "support", "role_id": 492, "is_primary": false}, {"id": 2658098, "title": "My life with my family", "work_id": 117135, "role": "support", "role_id": 492, "is_primary": false}, {"id": 2658138, "title": "Welcome to my nightmare", "work_id": 117143, "role": "support", "role_id": 492, "is_primary": false}, {"id": 2658146, "title": "Building", "work_id": 117134, "role": "support", "role_id": 492, "is_primary": false}, {"id": 2658151, "title": "True friend", "work_id": 117142, "role": "support", "role_id": 492, "is_primary": false}, {"id": 2658156, "title": "Our time", "work_id": 117138, "role": "support", "role_id": 492, "is_primary": false}, {"id": 2658161, "title": "My worst nightmare", "work_id": 117136, "role": "support", "role_id": 492, "is_primary": false}, {"id": 2658166, "title": "Recollection", "work_id": 117139, "role": "support", "role_id": 492, "is_primary": false}, {"id": 2658171, "title": "Sweet long ride", "work_id": 117141, "role": "support", "role_id": 492, "is_primary": false}, {"id": 2658176, "title": "Not ready", "work_id": 117137, "role": "support", "role_id": 492, "is_primary": false}, {"id": 2658181, "title": "Resident me-ville", "work_id": 117140, "role": "support", "role_id": 492, "is_primary": false}, {"id": 2290533, "title": "Two worlds: one me", "work_id": 116560, "role": "support", "role_id": 492, "is_primary": false}, {"id": 2290559, "title": "Out of range", "work_id": 116556, "role": "support", "role_id": 492, "is_primary": false}, {"id": 2290414, "title": "Western stories: expressions for the future : Digital Storytelling project", "work_id": 116549, "role": "support", "role_id": 492, "is_primary": false}, {"id": 2290271, "title": "I am Sophie hear me rawr!!...meow", "work_id": 116553, "role": "support", "role_id": 492, "is_primary": false}, {"id": 2290829, "title": "Second reality", "work_id": 116558, "role": "support", "role_id": 492, "is_primary": false}, {"id": 2290455, "title": "A Concrete thinker", "work_id": 116551, "role": "support", "role_id": 492, "is_primary": false}, {"id": 2290435, "title": "Yodit and I", "work_id": 116561, "role": "support", "role_id": 492, "is_primary": false}, {"id": 2290507, "title": "My first year", "work_id": 116555, "role": "support", "role_id": 492, "is_primary": false}, {"id": 2290708, "title": "iFavourite", "work_id": 116554, "role": "support", "role_id": 492, "is_primary": false}, {"id": 2290481, "title": "Gia mas (About us)", "work_id": 116552, "role": "support", "role_id": 492, "is_primary": false}, {"id": 2290734, "title": "The Tran family", "work_id": 116559, "role": "support", "role_id": 492, "is_primary": false}, {"id": 2290772, "title": "Behind the scenes", "work_id": 116550, "role": "support", "role_id": 492, "is_primary": false}, {"id": 2656789, "title": "The Best time of my life", "work_id": 117024, "role": "support", "role_id": 492, "is_primary": false}, {"id": 2290801, "title": "A Sad realisation", "work_id": 116557, "role": "support", "role_id": 492, "is_primary": false}, {"id": 2656794, "title": "Bittersweet", "work_id": 117025, "role": "support", "role_id": 492, "is_primary": false}, {"id": 2656799, "title": "For the love of...Lolo", "work_id": 117026, "role": "support", "role_id": 492, "is_primary": false}, {"id": 2656809, "title": "The Most important question in the world", "work_id": 117028, "role": "support", "role_id": 492, "is_primary": false}, {"id": 2656844, "title": "Western stories : expressions for the future : Digital Storytelling project", "work_id": 117022, "role": "support", "role_id": 492, "is_primary": false}, {"id": 2656860, "title": "Insert name here", "work_id": 117027, "role": "support", "role_id": 492, "is_primary": false}, {"id": 2656865, "title": "Where I'm supposed to be...", "work_id": 117034, "role": "support", "role_id": 492, "is_primary": false}, {"id": 2656870, "title": "Trench coat man", "work_id": 117030, "role": "support", "role_id": 492, "is_primary": false}, {"id": 2656875, "title": "A Beating passion", "work_id": 117023, "role": "support", "role_id": 492, "is_primary": false}], "also_known_as": "", "date_of_birth": "", "date_of_death": "", "genders": [], "languages": [], "places_of_operation": [], "biography": "", "biography_author": null, "date_of_biography": "2023-05-09T19:27:17.107728+10:00", "external_links": [], "uuid": "e47cbf1d-028a-4698-94c8-cb58d13895b5", "source": {"name": "Vernon", "slug": "vernon"}, "source_identifier": "35424", "external_references": [], "date_modified": "2025-03-05T17:36:04.007521+11:00"}, {"id": 83369, "name": "Ana Boado", "roles_in_work": [{"id": 2290769, "title": "Behind the scenes", "work_id": 116550, "role": "creator", "role_id": 968, "is_primary": true}], "also_known_as": "", "date_of_birth": "", "date_of_death": "", "genders": [{"id": 5, "name": "Female", "slug": "female"}], "languages": [], "places_of_operation": [], "biography": "", "biography_author": null, "date_of_biography": "2023-05-09T18:18:50.918416+10:00", "external_links": [], "uuid": "5f3437cb-a036-4c38-9b24-b15aaed43ea5", "source": {"name": "Vernon", "slug": "vernon"}, "source_identifier": "33731", "external_references": [], "date_modified": "2023-06-14T16:33:30.576250+10:00"}, {"id": 83368, "name": "School of Creative Arts, University of Melbourne", "roles_in_work": [{"id": 2070617, "title": "A Little something about us", "work_id": 116548, "role": "production company", "role_id": 941, "is_primary": true}], "also_known_as": "", "date_of_birth": "", "date_of_death": "", "genders": [], "languages": [], "places_of_operation": [], "biography": "", "biography_author": null, "date_of_biography": "2023-05-09T11:32:14.849699+10:00", "external_links": [], "uuid": "13191f28-5c2e-40e0-95cc-19fbf34652c8", "source": {"name": "Vernon", "slug": "vernon"}, "source_identifier": "33659", "external_references": [{"id": 39597, "source": {"name": "Wikidata", "slug": "wikidata"}, "source_identifier": "Q121079067"}], "date_modified": "2023-09-06T01:08:02.665197+10:00"}, {"id": 83367, "name": "Sze Ching Lee", "roles_in_work": [{"id": 2070615, "title": "A Little something about us", "work_id": 116548, "role": "director", "role_id": 938, "is_primary": true}], "also_known_as": "", "date_of_birth": "", "date_of_death": "", "genders": [], "languages": [], "places_of_operation": [], "biography": "", "biography_author": null, "date_of_biography": "2023-05-09T11:32:14.595618+10:00", "external_links": [], "uuid": "fe1baf4b-eaa9-4e5d-b17b-d6e478e7da44", "source": {"name": "Vernon", "slug": "vernon"}, "source_identifier": "33658", "external_references": [{"id": 33892, "source": {"name": "Wikidata", "slug": "wikidata"}, "source_identifier": "Q121034801"}], "date_modified": "2023-09-06T01:39:44.436529+10:00"}, {"id": 83366, "name": "Julia Morris", "roles_in_work": [{"id": 2180409, "title": "Crossenvale stories : Digital Storytelling project", "work_id": 116539, "role": "project coordinator", "role_id": 623, "is_primary": false}], "also_known_as": "", "date_of_birth": "", "date_of_death": "", "genders": [], "languages": [], "places_of_operation": [], "biography": "", "biography_author": null, "date_of_biography": "2023-05-09T14:51:54.181039+10:00", "external_links": [], "uuid": "72680796-0aa7-4611-9e3f-1f5fea7e2f90", "source": {"name": "Vernon", "slug": "vernon"}, "source_identifier": "33648", "external_references": [], "date_modified": "2023-06-14T16:33:30.576250+10:00"}, {"id": 83365, "name": "Beverly Bailey", "roles_in_work": [{"id": 2180399, "title": "The Wolf", "work_id": 116547, "role": "creator", "role_id": 968, "is_primary": true}], "also_known_as": "", "date_of_birth": "", "date_of_death": "", "genders": [{"id": 5, "name": "Female", "slug": "female"}], "languages": [], "places_of_operation": [], "biography": "", "biography_author": null, "date_of_biography": "2023-05-09T14:51:53.074068+10:00", "external_links": [], "uuid": "cb55b408-f1e1-442c-9b27-fda2af7b666c", "source": {"name": "Vernon", "slug": "vernon"}, "source_identifier": "33650", "external_references": [], "date_modified": "2023-06-14T16:33:30.576250+10:00"}, {"id": 83364, "name": "Vicki Baker", "roles_in_work": [{"id": 2180394, "title": "Where my heart lies", "work_id": 116546, "role": "creator", "role_id": 968, "is_primary": true}], "also_known_as": "", "date_of_birth": "", "date_of_death": "", "genders": [{"id": 5, "name": "Female", "slug": "female"}], "languages": [], "places_of_operation": [], "biography": "", "biography_author": null, "date_of_biography": "2023-05-09T14:51:51.373010+10:00", "external_links": [], "uuid": "591cf7f9-19e0-42fc-ad75-c51c3d543c54", "source": {"name": "Vernon", "slug": "vernon"}, "source_identifier": "33657", "external_references": [], "date_modified": "2023-06-14T16:33:30.576250+10:00"}]}