{"count": 28687, "next": "https://api.acmi.net.au/creators/?page=2242", "previous": "https://api.acmi.net.au/creators/?page=2240", "results": [{"id": 17877, "name": "Ion Popescu Gopo", "roles_in_work": [{"id": 2465860, "title": "Short history = Scurta istorie", "work_id": 72787, "role": "director", "role_id": 938, "is_primary": true}], "also_known_as": "", "date_of_birth": "", "date_of_death": "", "genders": [], "languages": [], "places_of_operation": [], "biography": "", "biography_author": null, "date_of_biography": "2023-08-14T10:43:50.580144+10:00", "external_links": [], "uuid": "135820de-41bb-47c7-aada-944921eaa516", "source": {"name": "Vernon", "slug": "vernon"}, "source_identifier": "20840", "external_references": [], "date_modified": "2023-08-14T10:43:50.580511+10:00"}, {"id": 17876, "name": "Studioul Cinematografic Bucuresti", "roles_in_work": [{"id": 2465859, "title": "Short history = Scurta istorie", "work_id": 72787, "role": "production company", "role_id": 941, "is_primary": true}], "also_known_as": "", "date_of_birth": "", "date_of_death": "", "genders": [], "languages": [], "places_of_operation": [], "biography": "", "biography_author": null, "date_of_biography": "2023-08-14T10:43:49.968709+10:00", "external_links": [], "uuid": "31e8f044-8b05-4e35-bf97-6e2dd87215ab", "source": {"name": "Vernon", "slug": "vernon"}, "source_identifier": "13024", "external_references": [], "date_modified": "2023-08-14T10:43:49.969084+10:00"}, {"id": 17872, "name": "Herman Van Der Horst", "roles_in_work": [{"id": 2465846, "title": "Shoot the nets", "work_id": 72777, "role": "director", "role_id": 938, "is_primary": true}, {"id": 2466179, "title": "Steady", "work_id": 73181, "role": "producer", "role_id": 1089, "is_primary": true}], "also_known_as": "", "date_of_birth": "", "date_of_death": "", "genders": [], "languages": [], "places_of_operation": [], "biography": "", "biography_author": null, "date_of_biography": "2023-08-14T10:51:31.976733+10:00", "external_links": [], "uuid": "09d9c004-bf47-4d13-a987-cf149c634a7f", "source": {"name": "Vernon", "slug": "vernon"}, "source_identifier": "20533", "external_references": [], "date_modified": "2023-08-14T10:51:31.977013+10:00"}, {"id": 17871, "name": "Cinetone Studios", "roles_in_work": [{"id": 2466178, "title": "Steady", "work_id": 73181, "role": "production company", "role_id": 941, "is_primary": true}, {"id": 2465845, "title": "Shoot the nets", "work_id": 72777, "role": "production company", "role_id": 941, "is_primary": true}, {"id": 826416, "title": "Glass", "work_id": 96335, "role": "production company", "role_id": 941, "is_primary": true}], "also_known_as": "", "date_of_birth": "", "date_of_death": "", "genders": [], "languages": [], "places_of_operation": [], "biography": "", "biography_author": null, "date_of_biography": "2023-08-14T10:51:31.343061+10:00", "external_links": [], "uuid": "a438ceca-5006-4560-ae2b-e6fac2571f37", "source": {"name": "Vernon", "slug": "vernon"}, "source_identifier": "6775", "external_references": [], "date_modified": "2023-08-14T10:51:31.343483+10:00"}, {"id": 17866, "name": "Christopher Cordeaux", "roles_in_work": [{"id": 757474, "title": "The Weather map", "work_id": 74569, "role": "director", "role_id": 938, "is_primary": true}, {"id": 2392088, "title": "Ships at work", "work_id": 72771, "role": "director", "role_id": 938, "is_primary": true}, {"id": 2392309, "title": "You and Your Vote", "work_id": 75001, "role": "assistant", "role_id": 450, "is_primary": false}], "also_known_as": "", "date_of_birth": "", "date_of_death": "", "genders": [], "languages": [], "places_of_operation": [], "biography": "", "biography_author": null, "date_of_biography": "2023-08-09T03:55:07.706845+10:00", "external_links": [], "uuid": "d27f3411-6ec9-473d-8e29-ba1d126c7435", "source": {"name": "Vernon", "slug": "vernon"}, "source_identifier": "16953", "external_references": [{"id": 50677, "source": {"name": "Wikidata", "slug": "wikidata"}, "source_identifier": "Q121358044"}], "date_modified": "2023-09-05T18:35:30.862196+10:00"}, {"id": 17865, "name": "Great Britain. Royal Air Force. Film Production Unit", "roles_in_work": [{"id": 2464437, "title": "Now it can be told", "work_id": 82719, "role": "production company", "role_id": 941, "is_primary": true}, {"id": 2465842, "title": "Ship-Busters", "work_id": 72766, "role": "production company", "role_id": 941, "is_primary": true}], "also_known_as": "", "date_of_birth": "", "date_of_death": "", "genders": [], "languages": [], "places_of_operation": [], "biography": "", "biography_author": null, "date_of_biography": "2023-08-14T10:43:26.493684+10:00", "external_links": [], "uuid": "399dbb6e-6b9a-4b71-b725-a0e13dc63714", "source": {"name": "Vernon", "slug": "vernon"}, "source_identifier": "12142", "external_references": [], "date_modified": "2023-08-14T10:43:26.494008+10:00"}, {"id": 17864, "name": "The London Press Exchange", "roles_in_work": [{"id": 2465840, "title": "Shine, Sir!", "work_id": 72765, "role": "production company", "role_id": 941, "is_primary": true}], "also_known_as": "", "date_of_birth": "", "date_of_death": "", "genders": [], "languages": [], "places_of_operation": [], "biography": "", "biography_author": null, "date_of_biography": "2023-08-14T10:43:23.420347+10:00", "external_links": [], "uuid": "75f6ea0d-10d7-4b4b-8bda-75b39b0cd463", "source": {"name": "Vernon", "slug": "vernon"}, "source_identifier": "38312", "external_references": [], "date_modified": "2023-08-14T10:43:23.420615+10:00"}, {"id": 17863, "name": "Noel Black", "roles_in_work": [{"id": 2767436, "title": "I'm a fool", "work_id": 72762, "role": "director", "role_id": 938, "is_primary": true}, {"id": 2346586, "title": "The Electric grandmother", "work_id": 77451, "role": "director", "role_id": 938, "is_primary": true}], "also_known_as": "", "date_of_birth": "30 JUN 1937", "date_of_death": "05 JUL 2014", "genders": [{"id": 9, "name": "Male", "slug": "male"}], "languages": [], "places_of_operation": [{"id": 1, "name": "United States of America", "slug": "united-states-of-america"}], "biography": "Noel Black (June 30, 1937 – July 5, 2014) was an American film and television director, screenwriter, and producer.Black was born in Chicago, Illinois. He won awards at the 1966 Cannes Film Festival for an 18-minute short subject filmed in 1965 called Skaterdater. It had no dialogue, but used music and sound effects to advance the plot. It was nominated for an Academy Award for Best Live Action Short Film in 1966.He directed the 1968 cult film Pretty Poison, and subsequently concentrated on directing for television, occasionally directing films such as Private School.As a screenwriter, he wrote the 1985 coming-of-age comedy Mischief, set in the 1950s.Black died of bacterial pneumonia in Santa Barbara, California on July 5, 2014. He was 77. Source: Wikidata; 01/08/2023", "biography_author": null, "date_of_biography": "2025-03-14T18:04:01.697644+11:00", "external_links": [{"id": 4788, "uri": "https://en.wikipedia.org/wiki/Noel_Black"}], "uuid": "7185e3bf-7b4b-4902-b556-633fa8598751", "source": {"name": "Vernon", "slug": "vernon"}, "source_identifier": "111060", "external_references": [{"id": 25707, "source": {"name": "Wikidata", "slug": "wikidata"}, "source_identifier": "Q3342653"}, {"id": 30545, "source": {"name": "VIAF", "slug": "viaf"}, "source_identifier": "60578106"}, {"id": 30546, "source": {"name": "LOC Auth", "slug": "loc-auth"}, "source_identifier": "n86818974"}, {"id": 30547, "source": {"name": "WorldCat", "slug": "worldcat"}, "source_identifier": "lccn-n86818974"}], "date_modified": "2025-03-14T18:04:01.697898+11:00"}, {"id": 17862, "name": "James Wilkins", "roles_in_work": [{"id": 2646302, "title": "Sheridan's world of society: 18th century London (TEFC)", "work_id": 72761, "role": "director", "role_id": 938, "is_primary": true}, {"id": 2465837, "title": "Sheridan's world of society: 18th century London (TEFC)", "work_id": 86864, "role": "director", "role_id": 938, "is_primary": true}], "also_known_as": "", "date_of_birth": "", "date_of_death": "", "genders": [], "languages": [], "places_of_operation": [], "biography": "", "biography_author": null, "date_of_biography": "2023-08-14T10:43:17.481500+10:00", "external_links": [], "uuid": "c5de6936-33ae-4a25-91bd-45e5ccb13e21", "source": {"name": "Vernon", "slug": "vernon"}, "source_identifier": "21342", "external_references": [], "date_modified": "2025-03-05T13:01:09.132414+11:00"}, {"id": 17861, "name": "EPPI Classroom Films", "roles_in_work": [{"id": 2465833, "title": "Shelter (USA)", "work_id": 72759, "role": "production company", "role_id": 941, "is_primary": true}], "also_known_as": "", "date_of_birth": "", "date_of_death": "", "genders": [], "languages": [], "places_of_operation": [], "biography": "", "biography_author": null, "date_of_biography": "2023-08-14T10:43:11.764652+10:00", "external_links": [], "uuid": "81d9ed31-38dc-4368-8969-9cc51abd5ec8", "source": {"name": "Vernon", "slug": "vernon"}, "source_identifier": "7937", "external_references": [], "date_modified": "2023-08-14T10:43:11.765012+10:00"}]}