{"count": 28687, "next": "https://api.acmi.net.au/creators/?page=1416", "previous": "https://api.acmi.net.au/creators/?page=1414", "results": [{"id": 36492, "name": "Steve Cantor", "roles_in_work": [{"id": 2189354, "title": "Devil's playground", "work_id": 94483, "role": "producer", "role_id": 1089, "is_primary": true}], "also_known_as": "", "date_of_birth": null, "date_of_death": null, "genders": [{"id": 9, "name": "Male", "slug": "male"}], "languages": [{"id": 1, "name": "English", "slug": "english"}], "places_of_operation": [{"id": 1, "name": "United States of America", "slug": "united-states-of-america"}], "biography": "Steven Cantor is an American film/television director and film/television producer. Seven of his films have been nominated for Emmy Awards, with one winning, and he was nominated for an Academy Award for his first film. Notable works include the films Tent City, USA, Unraveled, No One Dies in Lily Dale, Reporter with Nicholas Kristof, I Am an Animal, What Remains, loudQUIETloud: A Film about Pixies, American Masters: Willie Nelson, Devil's Playground, Blood Ties, and \"Dancer.\"Cantor also directed and executive produced the HBO series Family Bonds, and has executive produced numerous other television series through his Stick Figure Productions banner.In 2017, Cantor released \"STEP\" with Fox Searchlight Pictures, documenting the senior year of a girls' high-school step dance team against the background of inner-city Baltimore.", "biography_author": "Wikidata", "date_of_biography": "2022-05-19T13:09:29.537471+10:00", "external_links": [{"id": 3147, "uri": "https://en.wikipedia.org/wiki/Steven_Cantor"}], "uuid": "50209d1c-627f-4574-94e4-ed3f4eaaa59e", "source": {"name": "Vernon", "slug": "vernon"}, "source_identifier": "29117", "external_references": [{"id": 13345, "source": {"name": "Wikidata", "slug": "wikidata"}, "source_identifier": "Q7614545"}, {"id": 13346, "source": {"name": "VIAF", "slug": "viaf"}, "source_identifier": "55874616"}, {"id": 13347, "source": {"name": "LOC Auth", "slug": "loc-auth"}, "source_identifier": "n96019455"}, {"id": 13348, "source": {"name": "WorldCat", "slug": "worldcat"}, "source_identifier": "lccn-n96019455"}], "date_modified": "2023-09-13T12:32:51.733068+10:00"}, {"id": 36491, "name": "Stick Figure Productions", "roles_in_work": [{"id": 2189351, "title": "Devil's playground", "work_id": 94483, "role": "production company", "role_id": 941, "is_primary": true}], "also_known_as": "", "date_of_birth": "", "date_of_death": "", "genders": [], "languages": [], "places_of_operation": [], "biography": "", "biography_author": null, "date_of_biography": "2023-05-09T15:06:21.144994+10:00", "external_links": [], "uuid": "0cd4d2b1-47d8-416e-8479-9e71255acb8d", "source": {"name": "Vernon", "slug": "vernon"}, "source_identifier": "12960", "external_references": [{"id": 41006, "source": {"name": "Wikidata", "slug": "wikidata"}, "source_identifier": "Q121126203"}], "date_modified": "2023-09-06T01:32:43.292778+10:00"}, {"id": 36490, "name": "Jeffrey Taylor", "roles_in_work": [{"id": 2283612, "title": "What's cooking?", "work_id": 94482, "role": "producer", "role_id": 1089, "is_primary": true}], "also_known_as": "", "date_of_birth": "", "date_of_death": "", "genders": [], "languages": [], "places_of_operation": [], "biography": "", "biography_author": null, "date_of_biography": "2023-05-09T18:05:51.627748+10:00", "external_links": [], "uuid": "a94a8adc-71d4-4e33-bb22-4f7b35a98ad1", "source": {"name": "Vernon", "slug": "vernon"}, "source_identifier": "21681", "external_references": [{"id": 42185, "source": {"name": "Wikidata", "slug": "wikidata"}, "source_identifier": "Q121315684"}], "date_modified": "2023-09-05T21:19:59.831564+10:00"}, {"id": 36489, "name": "BeCause Entertainment", "roles_in_work": [{"id": 2283610, "title": "What's cooking?", "work_id": 94482, "role": "production company", "role_id": 941, "is_primary": true}], "also_known_as": "", "date_of_birth": "", "date_of_death": "", "genders": [], "languages": [], "places_of_operation": [], "biography": "", "biography_author": null, "date_of_biography": "2023-05-09T18:05:51.117091+10:00", "external_links": [], "uuid": "da7dd051-16c3-4bf9-94f9-d41b0be36032", "source": {"name": "Vernon", "slug": "vernon"}, "source_identifier": "5780", "external_references": [{"id": 41707, "source": {"name": "Wikidata", "slug": "wikidata"}, "source_identifier": "Q121270711"}], "date_modified": "2023-09-05T17:56:51.949769+10:00"}, {"id": 36486, "name": "Crusader Entertainment", "roles_in_work": [{"id": 2320520, "title": "Swimming upstream", "work_id": 94480, "role": "production company", "role_id": 941, "is_primary": true}], "also_known_as": "", "date_of_birth": "", "date_of_death": "", "genders": [], "languages": [], "places_of_operation": [], "biography": "", "biography_author": null, "date_of_biography": "2023-05-09T19:11:15.822694+10:00", "external_links": [], "uuid": "7f9e0c28-3bb3-4c06-91f0-b0dd76259f68", "source": {"name": "Vernon", "slug": "vernon"}, "source_identifier": "7214", "external_references": [{"id": 39291, "source": {"name": "Wikidata", "slug": "wikidata"}, "source_identifier": "Q121035486"}], "date_modified": "2023-09-05T18:47:11.246709+10:00"}, {"id": 36485, "name": "Hartmut Schottler", "roles_in_work": [{"id": 2186111, "title": "Der Freischutz", "work_id": 94477, "role": "director", "role_id": 938, "is_primary": true}], "also_known_as": "", "date_of_birth": "", "date_of_death": "", "genders": [], "languages": [], "places_of_operation": [], "biography": "", "biography_author": null, "date_of_biography": "2023-05-09T15:01:17.441512+10:00", "external_links": [], "uuid": "50192d99-ebbd-481d-a934-36da80b0b8bd", "source": {"name": "Vernon", "slug": "vernon"}, "source_identifier": "20358", "external_references": [{"id": 35297, "source": {"name": "Wikidata", "slug": "wikidata"}, "source_identifier": "Q121315333"}], "date_modified": "2023-09-05T20:31:58.851996+10:00"}, {"id": 36484, "name": "Achim Freyer", "roles_in_work": [{"id": 2186108, "title": "Der Freischutz", "work_id": 94477, "role": "producer", "role_id": 1089, "is_primary": true}], "also_known_as": "", "date_of_birth": "", "date_of_death": "", "genders": [], "languages": [], "places_of_operation": [], "biography": "", "biography_author": null, "date_of_biography": "2023-05-09T15:01:17.215123+10:00", "external_links": [], "uuid": "f7b3ce1b-e2d6-42b9-8d4c-ce4f0f2c868d", "source": {"name": "Vernon", "slug": "vernon"}, "source_identifier": "14638", "external_references": [{"id": 43474, "source": {"name": "Wikidata", "slug": "wikidata"}, "source_identifier": "Q121271123"}], "date_modified": "2023-09-05T17:15:33.732235+10:00"}, {"id": 36478, "name": "Gosteleradio", "roles_in_work": [{"id": 2179130, "title": "David Oistrakh: remembering a musician", "work_id": 95307, "role": "production company", "role_id": 941, "is_primary": true}, {"id": 917804, "title": "Giselle", "work_id": 95298, "role": "production company", "role_id": 941, "is_primary": true}, {"id": 915876, "title": "The Sleeping beauty (Imperial Russian Ballet)", "work_id": 94476, "role": "production company", "role_id": 941, "is_primary": true}], "also_known_as": "", "date_of_birth": "", "date_of_death": "", "genders": [], "languages": [], "places_of_operation": [], "biography": "", "biography_author": null, "date_of_biography": "2023-05-09T14:49:59.394881+10:00", "external_links": [], "uuid": "719a274d-683a-4e70-bb7f-5a730f0f0652", "source": {"name": "Vernon", "slug": "vernon"}, "source_identifier": "13973", "external_references": [{"id": 42977, "source": {"name": "Wikidata", "slug": "wikidata"}, "source_identifier": "Q121222768"}], "date_modified": "2023-09-05T20:17:49.510401+10:00"}, {"id": 36476, "name": "Giancarlo Sbragia", "roles_in_work": [{"id": 2083921, "title": "Aida", "work_id": 94474, "role": "producer", "role_id": 1089, "is_primary": true}], "also_known_as": "", "date_of_birth": "1926-03-14", "date_of_death": "1994-06-28", "genders": [{"id": 9, "name": "Male", "slug": "male"}], "languages": [{"id": 6, "name": "Italian", "slug": "italian"}], "places_of_operation": [{"id": 19, "name": "Italy", "slug": "italy"}], "biography": "Giancarlo Sbragia (14 March 1926 – 28 June 1994) was an Italian actor, voice actor, stage director and playwright.", "biography_author": "Wikidata", "date_of_biography": "2023-09-05T20:10:52.553720+10:00", "external_links": [{"id": 5841, "uri": "https://en.wikipedia.org/wiki/Giancarlo_Sbragia"}], "uuid": "fbce0100-06d2-4051-8c12-24cdde5b9ff9", "source": {"name": "Vernon", "slug": "vernon"}, "source_identifier": "19789", "external_references": [{"id": 34110, "source": {"name": "Wikidata", "slug": "wikidata"}, "source_identifier": "Q3762966"}, {"id": 54533, "source": {"name": "VIAF", "slug": "viaf"}, "source_identifier": "41934009"}, {"id": 54534, "source": {"name": "LOC Auth", "slug": "loc-auth"}, "source_identifier": "no2005082180"}, {"id": 54535, "source": {"name": "WorldCat", "slug": "worldcat"}, "source_identifier": "lccn-no2005082180"}], "date_modified": "2023-09-05T20:10:58.063780+10:00"}, {"id": 36475, "name": "Preben Montell", "roles_in_work": [{"id": 2219548, "title": "Ernani: opera in four acts", "work_id": 94473, "role": "director", "role_id": 938, "is_primary": true}, {"id": 917808, "title": "Giselle", "work_id": 95298, "role": "co-director", "role_id": 959, "is_primary": true}, {"id": 917845, "title": "Napoli", "work_id": 95345, "role": "co-director", "role_id": 959, "is_primary": true}], "also_known_as": "", "date_of_birth": "", "date_of_death": "", "genders": [], "languages": [], "places_of_operation": [], "biography": "", "biography_author": null, "date_of_biography": "2023-05-09T16:14:21.669410+10:00", "external_links": [], "uuid": "be2f4c32-532a-4610-bd18-d29dc994b47a", "source": {"name": "Vernon", "slug": "vernon"}, "source_identifier": "26979", "external_references": [{"id": 36912, "source": {"name": "Wikidata", "slug": "wikidata"}, "source_identifier": "Q121144230"}], "date_modified": "2023-09-06T00:13:56.841290+10:00"}]}