{"count": 28687, "next": "https://api.acmi.net.au/creators/?page=472", "previous": "https://api.acmi.net.au/creators/?page=470", "results": [{"id": 80873, "name": "Xue Song", "roles_in_work": [{"id": 3085947, "title": "The Great step forward: China women in the 20th century. Parts 1 and 2", "work_id": 94555, "role": "co-director", "role_id": 959, "is_primary": true}, {"id": 3085979, "title": "The Dragon stirs", "work_id": 115615, "role": "co-director", "role_id": 959, "is_primary": true}, {"id": 3085883, "title": "Broken China: the earthquake that never happened", "work_id": 94553, "role": "co-director", "role_id": 959, "is_primary": true}, {"id": 3085918, "title": "Revenge of the river gods", "work_id": 94554, "role": "co-director", "role_id": 959, "is_primary": true}], "also_known_as": "", "date_of_birth": "", "date_of_death": "", "genders": [], "languages": [], "places_of_operation": [], "biography": "", "biography_author": null, "date_of_biography": "2023-05-09T19:58:44.190947+10:00", "external_links": [], "uuid": "347ac67d-8e58-4073-b823-b767176b7998", "source": {"name": "Vernon", "slug": "vernon"}, "source_identifier": "30557", "external_references": [{"id": 41882, "source": {"name": "Wikidata", "slug": "wikidata"}, "source_identifier": "Q121091110"}], "date_modified": "2025-03-17T10:42:04.221223+11:00"}, {"id": 80872, "name": "Liu Chun", "roles_in_work": [{"id": 3085945, "title": "The Great step forward: China women in the 20th century. Parts 1 and 2", "work_id": 94555, "role": "co-director", "role_id": 959, "is_primary": true}, {"id": 3085915, "title": "Revenge of the river gods", "work_id": 94554, "role": "co-director", "role_id": 959, "is_primary": true}, {"id": 3085880, "title": "Broken China: the earthquake that never happened", "work_id": 94553, "role": "co-director", "role_id": 959, "is_primary": true}, {"id": 3085976, "title": "The Dragon stirs", "work_id": 115615, "role": "co-director", "role_id": 959, "is_primary": true}], "also_known_as": "", "date_of_birth": "", "date_of_death": "", "genders": [], "languages": [], "places_of_operation": [], "biography": "", "biography_author": null, "date_of_biography": "2023-05-09T19:58:43.951021+10:00", "external_links": [], "uuid": "79ed3c6d-364a-477c-b65e-b6f8ea19d683", "source": {"name": "Vernon", "slug": "vernon"}, "source_identifier": "23938", "external_references": [{"id": 33917, "source": {"name": "Wikidata", "slug": "wikidata"}, "source_identifier": "Q121079025"}], "date_modified": "2025-03-17T10:42:03.625820+11:00"}, {"id": 80871, "name": "Lin Xiezhong", "roles_in_work": [{"id": 3085877, "title": "Broken China: the earthquake that never happened", "work_id": 94553, "role": "co-producer", "role_id": 915, "is_primary": true}, {"id": 3085912, "title": "Revenge of the river gods", "work_id": 94554, "role": "co-producer", "role_id": 915, "is_primary": true}, {"id": 3085973, "title": "The Dragon stirs", "work_id": 115615, "role": "co-producer", "role_id": 915, "is_primary": true}, {"id": 3085943, "title": "The Great step forward: China women in the 20th century. Parts 1 and 2", "work_id": 94555, "role": "co-producer", "role_id": 915, "is_primary": true}], "also_known_as": "", "date_of_birth": "", "date_of_death": "", "genders": [], "languages": [], "places_of_operation": [], "biography": "", "biography_author": null, "date_of_biography": "2023-05-09T19:58:43.718691+10:00", "external_links": [], "uuid": "73c60d09-905c-4ce3-aba3-ee19510e4597", "source": {"name": "Vernon", "slug": "vernon"}, "source_identifier": "23853", "external_references": [{"id": 32891, "source": {"name": "Wikidata", "slug": "wikidata"}, "source_identifier": "Q121036197"}], "date_modified": "2025-03-17T10:42:03.024581+11:00"}, {"id": 80870, "name": "Wei Bin", "roles_in_work": [{"id": 3085941, "title": "The Great step forward: China women in the 20th century. Parts 1 and 2", "work_id": 94555, "role": "co-producer", "role_id": 915, "is_primary": true}, {"id": 3085874, "title": "Broken China: the earthquake that never happened", "work_id": 94553, "role": "co-producer", "role_id": 915, "is_primary": true}, {"id": 3085909, "title": "Revenge of the river gods", "work_id": 94554, "role": "co-producer", "role_id": 915, "is_primary": true}, {"id": 3085970, "title": "The Dragon stirs", "work_id": 115615, "role": "co-producer", "role_id": 915, "is_primary": true}], "also_known_as": "", "date_of_birth": "", "date_of_death": "", "genders": [], "languages": [], "places_of_operation": [], "biography": "", "biography_author": null, "date_of_biography": "2023-05-09T19:58:42.970712+10:00", "external_links": [], "uuid": "ee045910-199c-4513-b810-95903b406b4f", "source": {"name": "Vernon", "slug": "vernon"}, "source_identifier": "30311", "external_references": [{"id": 37162, "source": {"name": "Wikidata", "slug": "wikidata"}, "source_identifier": "Q121036740"}], "date_modified": "2025-03-17T10:42:02.317761+11:00"}, {"id": 80869, "name": "Yu Bo", "roles_in_work": [{"id": 3085907, "title": "Revenge of the river gods", "work_id": 94554, "role": "co-producer", "role_id": 915, "is_primary": true}, {"id": 3085939, "title": "The Great step forward: China women in the 20th century. Parts 1 and 2", "work_id": 94555, "role": "co-producer", "role_id": 915, "is_primary": true}, {"id": 3085872, "title": "Broken China: the earthquake that never happened", "work_id": 94553, "role": "co-producer", "role_id": 915, "is_primary": true}, {"id": 3085968, "title": "The Dragon stirs", "work_id": 115615, "role": "co-producer", "role_id": 915, "is_primary": true}], "also_known_as": "", "date_of_birth": "", "date_of_death": "", "genders": [], "languages": [], "places_of_operation": [], "biography": "", "biography_author": null, "date_of_biography": "2023-05-09T19:58:42.741445+10:00", "external_links": [], "uuid": "961d8faf-d630-4e12-82d8-d90e384afb4f", "source": {"name": "Vernon", "slug": "vernon"}, "source_identifier": "30607", "external_references": [{"id": 33192, "source": {"name": "Wikidata", "slug": "wikidata"}, "source_identifier": "Q121126012"}], "date_modified": "2025-03-17T10:42:01.722173+11:00"}, {"id": 80868, "name": "Zhao Shujing", "roles_in_work": [{"id": 3085904, "title": "Revenge of the river gods", "work_id": 94554, "role": "co-producer", "role_id": 915, "is_primary": true}, {"id": 3085965, "title": "The Dragon stirs", "work_id": 115615, "role": "co-producer", "role_id": 915, "is_primary": true}, {"id": 3085868, "title": "Broken China: the earthquake that never happened", "work_id": 94553, "role": "co-producer", "role_id": 915, "is_primary": true}, {"id": 3085937, "title": "The Great step forward: China women in the 20th century. Parts 1 and 2", "work_id": 94555, "role": "co-producer", "role_id": 915, "is_primary": true}], "also_known_as": "", "date_of_birth": "", "date_of_death": "", "genders": [], "languages": [], "places_of_operation": [], "biography": "", "biography_author": null, "date_of_biography": "2023-05-09T19:58:42.462714+10:00", "external_links": [], "uuid": "cc2adae0-57b2-44fd-9c7f-80b4d3b8799e", "source": {"name": "Vernon", "slug": "vernon"}, "source_identifier": "30681", "external_references": [{"id": 37453, "source": {"name": "Wikidata", "slug": "wikidata"}, "source_identifier": "Q121078911"}], "date_modified": "2025-03-17T10:42:01.133811+11:00"}, {"id": 80867, "name": "Chen Meng", "roles_in_work": [{"id": 3085902, "title": "Revenge of the river gods", "work_id": 94554, "role": "co-producer", "role_id": 915, "is_primary": true}, {"id": 3085936, "title": "The Great step forward: China women in the 20th century. Parts 1 and 2", "work_id": 94555, "role": "co-producer", "role_id": 915, "is_primary": true}, {"id": 3085962, "title": "The Dragon stirs", "work_id": 115615, "role": "co-producer", "role_id": 915, "is_primary": true}, {"id": 3085865, "title": "Broken China: the earthquake that never happened", "work_id": 94553, "role": "co-producer", "role_id": 915, "is_primary": true}], "also_known_as": "", "date_of_birth": "", "date_of_death": "", "genders": [], "languages": [], "places_of_operation": [], "biography": "", "biography_author": null, "date_of_biography": "2023-05-09T19:58:42.227338+10:00", "external_links": [], "uuid": "6566ac57-72a1-41c3-b045-064718551c27", "source": {"name": "Vernon", "slug": "vernon"}, "source_identifier": "16766", "external_references": [{"id": 34552, "source": {"name": "Wikidata", "slug": "wikidata"}, "source_identifier": "Q121299410"}], "date_modified": "2025-03-17T10:42:00.539007+11:00"}, {"id": 80866, "name": "Yuan Zhengming", "roles_in_work": [{"id": 3085863, "title": "Broken China: the earthquake that never happened", "work_id": 94553, "role": "co-producer", "role_id": 915, "is_primary": true}, {"id": 3085934, "title": "The Great step forward: China women in the 20th century. Parts 1 and 2", "work_id": 94555, "role": "co-producer", "role_id": 915, "is_primary": true}, {"id": 3085959, "title": "The Dragon stirs", "work_id": 115615, "role": "co-producer", "role_id": 915, "is_primary": true}, {"id": 3085898, "title": "Revenge of the river gods", "work_id": 94554, "role": "co-producer", "role_id": 915, "is_primary": true}], "also_known_as": "", "date_of_birth": "", "date_of_death": "", "genders": [], "languages": [], "places_of_operation": [], "biography": "", "biography_author": null, "date_of_biography": "2023-05-09T19:58:41.975720+10:00", "external_links": [], "uuid": "d9993e2f-0aeb-473c-be4f-6151cf546b3f", "source": {"name": "Vernon", "slug": "vernon"}, "source_identifier": "30611", "external_references": [{"id": 34697, "source": {"name": "Wikidata", "slug": "wikidata"}, "source_identifier": "Q121126941"}], "date_modified": "2025-03-17T10:41:59.931205+11:00"}, {"id": 80865, "name": "CCTV", "roles_in_work": [{"id": 3085926, "title": "The Great step forward: China women in the 20th century. Parts 1 and 2", "work_id": 94555, "role": "production company", "role_id": 941, "is_primary": true}, {"id": 3085951, "title": "The Dragon stirs", "work_id": 115615, "role": "production company", "role_id": 941, "is_primary": true}, {"id": 3085856, "title": "Broken China: the earthquake that never happened", "work_id": 94553, "role": "production company", "role_id": 941, "is_primary": true}, {"id": 3085890, "title": "Revenge of the river gods", "work_id": 94554, "role": "production company", "role_id": 941, "is_primary": true}], "also_known_as": "", "date_of_birth": "", "date_of_death": "", "genders": [], "languages": [], "places_of_operation": [], "biography": "", "biography_author": null, "date_of_biography": "2023-05-09T19:58:41.245239+10:00", "external_links": [], "uuid": "7f5ea2ea-3364-4996-ae60-be406ea6326e", "source": {"name": "Vernon", "slug": "vernon"}, "source_identifier": "6382", "external_references": [{"id": 33659, "source": {"name": "Wikidata", "slug": "wikidata"}, "source_identifier": "Q121034782"}], "date_modified": "2025-03-17T10:41:58.124833+11:00"}, {"id": 80864, "name": "Gina Riley", "roles_in_work": [{"id": 2753085, "title": "Punching keys", "work_id": 98597, "role": "cast", "role_id": 33, "is_primary": false}, {"id": 2174112, "title": "Kath and Kim. Series 2 [DVD]", "work_id": 94551, "role": "co-producer", "role_id": 915, "is_primary": true}], "also_known_as": "", "date_of_birth": "", "date_of_death": "", "genders": [], "languages": [], "places_of_operation": [], "biography": "", "biography_author": null, "date_of_biography": "2023-05-09T16:42:15.587011+10:00", "external_links": [], "uuid": "838f7989-fa21-470e-9bad-85de5577f6f7", "source": {"name": "Vernon", "slug": "vernon"}, "source_identifier": "19850", "external_references": [{"id": 36681, "source": {"name": "Wikidata", "slug": "wikidata"}, "source_identifier": "Q121078889"}], "date_modified": "2025-03-13T01:17:18.018274+11:00"}]}