{"count": 28687, "next": "https://api.acmi.net.au/creators/?page=1020", "previous": "https://api.acmi.net.au/creators/?page=1018", "results": [{"id": 75392, "name": "Department of Housing, Environment and Community Development", "roles_in_work": [{"id": 2321453, "title": "Tale of one city", "work_id": 73476, "role": "production company", "role_id": 941, "is_primary": true}], "also_known_as": "", "date_of_birth": "", "date_of_death": "", "genders": [], "languages": [], "places_of_operation": [], "biography": "", "biography_author": null, "date_of_biography": "2023-05-09T19:12:38.216314+10:00", "external_links": [], "uuid": "2fb2053e-7b77-414f-b573-8a3b91c85e32", "source": {"name": "Vernon", "slug": "vernon"}, "source_identifier": "7443", "external_references": [{"id": 42173, "source": {"name": "Wikidata", "slug": "wikidata"}, "source_identifier": "Q121091455"}], "date_modified": "2023-09-05T19:09:18.153819+10:00"}, {"id": 75391, "name": "Donald Stearn", "roles_in_work": [{"id": 2075245, "title": "A Tale of mail", "work_id": 73475, "role": "co-director", "role_id": 959, "is_primary": true}], "also_known_as": "", "date_of_birth": "", "date_of_death": "", "genders": [], "languages": [], "places_of_operation": [], "biography": "", "biography_author": null, "date_of_biography": "2023-05-09T11:39:47.079670+10:00", "external_links": [], "uuid": "432bc1fa-5275-43b1-be1c-3a15cd6e7d5d", "source": {"name": "Vernon", "slug": "vernon"}, "source_identifier": "18314", "external_references": [{"id": 36356, "source": {"name": "Wikidata", "slug": "wikidata"}, "source_identifier": "Q121078833"}], "date_modified": "2023-09-05T19:18:32.308956+10:00"}, {"id": 75390, "name": "John Slater", "roles_in_work": [{"id": 2321273, "title": "Take three (TEFC)", "work_id": 73466, "role": "producer/director", "role_id": 31, "is_primary": true}], "also_known_as": "", "date_of_birth": "", "date_of_death": "", "genders": [], "languages": [], "places_of_operation": [], "biography": "", "biography_author": null, "date_of_biography": "2023-05-09T19:12:26.595010+10:00", "external_links": [], "uuid": "6bb04b65-7d8a-4f14-b8b9-644d05e39748", "source": {"name": "Vernon", "slug": "vernon"}, "source_identifier": "33335", "external_references": [{"id": 51881, "source": {"name": "Wikidata", "slug": "wikidata"}, "source_identifier": "Q121360842"}], "date_modified": "2023-09-05T21:44:37.382279+10:00"}, {"id": 75389, "name": "Michael Daley", "roles_in_work": [{"id": 2320811, "title": "System 6: a fragile nest", "work_id": 73446, "role": "co-producer", "role_id": 915, "is_primary": true}], "also_known_as": "", "date_of_birth": "", "date_of_death": "", "genders": [], "languages": [], "places_of_operation": [], "biography": "", "biography_author": null, "date_of_biography": "2023-05-09T19:11:46.543693+10:00", "external_links": [], "uuid": "838f315a-07ea-4092-aca9-46cd9491e139", "source": {"name": "Vernon", "slug": "vernon"}, "source_identifier": "25038", "external_references": [{"id": 35979, "source": {"name": "Wikidata", "slug": "wikidata"}, "source_identifier": "Q121299156"}], "date_modified": "2023-09-05T23:03:40.145872+10:00"}, {"id": 75388, "name": "Craig Collie", "roles_in_work": [{"id": 2320807, "title": "System 6: a fragile nest", "work_id": 73446, "role": "co-producer", "role_id": 915, "is_primary": true}], "also_known_as": "", "date_of_birth": "", "date_of_death": "", "genders": [], "languages": [], "places_of_operation": [], "biography": "", "biography_author": null, "date_of_biography": "2023-05-09T19:11:46.303713+10:00", "external_links": [], "uuid": "75f3e0da-e34c-4ded-a3a3-7186c7a9c876", "source": {"name": "Vernon", "slug": "vernon"}, "source_identifier": "17232", "external_references": [{"id": 41015, "source": {"name": "Wikidata", "slug": "wikidata"}, "source_identifier": "Q121223144"}], "date_modified": "2023-09-05T18:46:12.856499+10:00"}, {"id": 75387, "name": "P.H. Lifchitz", "roles_in_work": [{"id": 2646512, "title": "Symphonie mechanique", "work_id": 73431, "role": "co-producer", "role_id": 915, "is_primary": true}], "also_known_as": "", "date_of_birth": "", "date_of_death": "", "genders": [], "languages": [], "places_of_operation": [], "biography": "", "biography_author": null, "date_of_biography": "2023-05-09T19:12:11.797009+10:00", "external_links": [], "uuid": "8bf4968b-81c3-41ae-814f-1e0410e52206", "source": {"name": "Vernon", "slug": "vernon"}, "source_identifier": "26009", "external_references": [{"id": 34885, "source": {"name": "Wikidata", "slug": "wikidata"}, "source_identifier": "Q121337211"}], "date_modified": "2025-03-05T13:06:02.853125+11:00"}, {"id": 75386, "name": "Noel Korn", "roles_in_work": [{"id": 2320759, "title": "Symbolism in literature", "work_id": 73427, "role": "co-producer", "role_id": 915, "is_primary": true}], "also_known_as": "", "date_of_birth": "", "date_of_death": "", "genders": [], "languages": [], "places_of_operation": [], "biography": "", "biography_author": null, "date_of_biography": "2023-05-09T19:11:41.379866+10:00", "external_links": [], "uuid": "ce84e02a-06f9-4cbb-aad9-9886288dea61", "source": {"name": "Vernon", "slug": "vernon"}, "source_identifier": "25850", "external_references": [{"id": 41716, "source": {"name": "Wikidata", "slug": "wikidata"}, "source_identifier": "Q121144291"}], "date_modified": "2023-09-05T23:32:56.197246+10:00"}, {"id": 75385, "name": "Herb Schick", "roles_in_work": [{"id": 2320756, "title": "Symbolism in literature", "work_id": 73427, "role": "co-producer", "role_id": 915, "is_primary": true}], "also_known_as": "", "date_of_birth": "", "date_of_death": "", "genders": [], "languages": [], "places_of_operation": [], "biography": "", "biography_author": null, "date_of_biography": "2023-05-09T19:11:41.143103+10:00", "external_links": [], "uuid": "7d7a666d-d5c4-45d1-a2b0-5754f26f2d3a", "source": {"name": "Vernon", "slug": "vernon"}, "source_identifier": "20509", "external_references": [{"id": 42829, "source": {"name": "Wikidata", "slug": "wikidata"}, "source_identifier": "Q121271130"}], "date_modified": "2023-09-05T20:37:46.044639+10:00"}, {"id": 75384, "name": "Dierdre Walsh", "roles_in_work": [{"id": 2320692, "title": "Sykes", "work_id": 73426, "role": "producer/director", "role_id": 31, "is_primary": true}], "also_known_as": "", "date_of_birth": "", "date_of_death": "", "genders": [], "languages": [], "places_of_operation": [], "biography": "", "biography_author": null, "date_of_biography": "2023-05-09T19:11:34.435779+10:00", "external_links": [], "uuid": "9bfbe501-ac6b-4083-b401-ba7fa938fc73", "source": {"name": "Vernon", "slug": "vernon"}, "source_identifier": "18137", "external_references": [{"id": 50945, "source": {"name": "Wikidata", "slug": "wikidata"}, "source_identifier": "Q121360926"}], "date_modified": "2023-09-05T19:12:18.593162+10:00"}, {"id": 75383, "name": "R.H. Materna", "roles_in_work": [{"id": 2320677, "title": "Sydney in sight", "work_id": 73424, "role": "producer/director", "role_id": 31, "is_primary": true}], "also_known_as": "", "date_of_birth": "", "date_of_death": "", "genders": [], "languages": [], "places_of_operation": [], "biography": "", "biography_author": null, "date_of_biography": "2023-05-09T19:11:32.075265+10:00", "external_links": [], "uuid": "ca16ef37-2e3b-407c-97c2-3103ba649024", "source": {"name": "Vernon", "slug": "vernon"}, "source_identifier": "27016", "external_references": [{"id": 51532, "source": {"name": "Wikidata", "slug": "wikidata"}, "source_identifier": "Q121360550"}], "date_modified": "2023-09-06T00:17:05.163031+10:00"}]}