{"count": 28682, "next": "https://api.acmi.net.au/creators/?page=1125", "previous": "https://api.acmi.net.au/creators/?page=1123", "results": [{"id": 74338, "name": "David Bennett", "roles_in_work": [{"id": 877706, "title": "Let's discuss it", "work_id": 90836, "role": "director", "role_id": 938, "is_primary": true}, {"id": 2138913, "title": "City of many faces", "work_id": 90817, "role": "director", "role_id": 938, "is_primary": true}, {"id": 856013, "title": "The Newcomers", "work_id": 70882, "role": "director", "role_id": 938, "is_primary": true}, {"id": 2678782, "title": "Boy meets band", "work_id": 65568, "role": "co-director", "role_id": 959, "is_primary": true}, {"id": 2779914, "title": "Laws of heredity", "work_id": 69532, "role": "producer", "role_id": 1089, "is_primary": true}, {"id": 2679607, "title": "Charting the universe with optical and radio telescopes", "work_id": 65981, "role": "producer", "role_id": 1089, "is_primary": true}, {"id": 2779613, "title": "Your sleep and rest", "work_id": 95967, "role": "producer", "role_id": 1089, "is_primary": true}, {"id": 2779596, "title": "Your health: your food", "work_id": 95970, "role": "producer", "role_id": 1089, "is_primary": true}, {"id": 2793853, "title": "The Physical environment", "work_id": 71535, "role": "producer", "role_id": 1089, "is_primary": true}, {"id": 2714361, "title": "Frontiers in space", "work_id": 67870, "role": "producer", "role_id": 1089, "is_primary": true}, {"id": 2779589, "title": "Your body and its parts", "work_id": 82034, "role": "producer", "role_id": 1089, "is_primary": true}], "also_known_as": "", "date_of_birth": "", "date_of_death": "", "genders": [], "languages": [], "places_of_operation": [], "biography": "", "biography_author": null, "date_of_biography": "2023-05-09T20:02:06.934635+10:00", "external_links": [], "uuid": "0b882955-c528-4981-847b-99bc4a820ab9", "source": {"name": "Vernon", "slug": "vernon"}, "source_identifier": "17503", "external_references": [{"id": 42341, "source": {"name": "Wikidata", "slug": "wikidata"}, "source_identifier": "Q121034324"}], "date_modified": "2025-03-14T20:21:16.068510+11:00"}, {"id": 74337, "name": "Tim Wilson", "roles_in_work": [{"id": 2757189, "title": "The Chairmaker and the boys", "work_id": 65916, "role": "co-producer", "role_id": 915, "is_primary": true}, {"id": 2195173, "title": "People of the rock", "work_id": 87660, "role": "co-producer", "role_id": 915, "is_primary": true}, {"id": 910382, "title": "Landfall Asia", "work_id": 91134, "role": "co-producer", "role_id": 915, "is_primary": true}, {"id": 2679140, "title": "Canada on stage", "work_id": 65751, "role": "producer", "role_id": 1089, "is_primary": true}, {"id": 1809380, "title": "Journey from Zero", "work_id": 76269, "role": "producer", "role_id": 1089, "is_primary": true}, {"id": 1809675, "title": "The Stowaway", "work_id": 73273, "role": "producer", "role_id": 1089, "is_primary": true}, {"id": 2678781, "title": "Boy meets band", "work_id": 65568, "role": "producer", "role_id": 1089, "is_primary": true}, {"id": 2165993, "title": "My island home", "work_id": 70719, "role": "producer", "role_id": 1089, "is_primary": true}, {"id": 1804716, "title": "The Saddlemaker", "work_id": 78860, "role": "producer", "role_id": 1089, "is_primary": true}, {"id": 2129589, "title": "Canada in world war one", "work_id": 87899, "role": "producer", "role_id": 1089, "is_primary": true}, {"id": 2283659, "title": "The Tiny terrors", "work_id": 76464, "role": "producer", "role_id": 1089, "is_primary": true}, {"id": 1814568, "title": "The Magic mineral", "work_id": 69992, "role": "producer", "role_id": 1089, "is_primary": true}, {"id": 1814189, "title": "Fraser's River", "work_id": 89782, "role": "producer", "role_id": 1089, "is_primary": true}, {"id": 2210735, "title": "Portrait of Canada", "work_id": 71716, "role": "producer", "role_id": 1089, "is_primary": true}, {"id": 1818949, "title": "The Modern prospector", "work_id": 70523, "role": "producer", "role_id": 1089, "is_primary": true}, {"id": 1807798, "title": "Wheat country", "work_id": 91188, "role": "producer", "role_id": 1089, "is_primary": true}], "also_known_as": "", "date_of_birth": "", "date_of_death": "", "genders": [], "languages": [], "places_of_operation": [], "biography": "", "biography_author": null, "date_of_biography": "2023-05-09T19:33:53.311909+10:00", "external_links": [], "uuid": "cf49f8b3-d49b-4fd2-9c1f-f5f2bc4c033c", "source": {"name": "Vernon", "slug": "vernon"}, "source_identifier": "29765", "external_references": [{"id": 32661, "source": {"name": "Wikidata", "slug": "wikidata"}, "source_identifier": "Q121035896"}], "date_modified": "2025-03-13T14:43:57.295760+11:00"}, {"id": 74336, "name": "John Hollingsworth", "roles_in_work": [{"id": 2644217, "title": "The Boy Kumasenu", "work_id": 65567, "role": "co-director", "role_id": 959, "is_primary": true}], "also_known_as": "", "date_of_birth": "", "date_of_death": "", "genders": [], "languages": [], "places_of_operation": [], "biography": "", "biography_author": null, "date_of_biography": "2023-05-09T19:29:33.418599+10:00", "external_links": [], "uuid": "83782fe3-d1a5-4f89-a8bc-c3c4b66aceb1", "source": {"name": "Vernon", "slug": "vernon"}, "source_identifier": "22316", "external_references": [{"id": 43457, "source": {"name": "Wikidata", "slug": "wikidata"}, "source_identifier": "Q121126809"}], "date_modified": "2025-03-05T12:12:27.146282+11:00"}, {"id": 74335, "name": "Tony Ganz", "roles_in_work": [{"id": 2678761, "title": "Bowery men's shelter", "work_id": 65560, "role": "co-producers/directors", "role_id": 628, "is_primary": true}, {"id": 2748825, "title": "Village Life in Tonga", "work_id": 96490, "role": "producer/director", "role_id": 31, "is_primary": true}], "also_known_as": "", "date_of_birth": "", "date_of_death": "", "genders": [], "languages": [], "places_of_operation": [], "biography": "", "biography_author": null, "date_of_biography": "2023-05-09T18:05:38.862110+10:00", "external_links": [], "uuid": "61bd410f-db7a-4a00-8c30-c7020eaff674", "source": {"name": "Vernon", "slug": "vernon"}, "source_identifier": "29866", "external_references": [{"id": 51579, "source": {"name": "Wikidata", "slug": "wikidata"}, "source_identifier": "Q121360946"}], "date_modified": "2025-03-12T23:46:11.227482+11:00"}, {"id": 74334, "name": "Rhoden Streeter", "roles_in_work": [{"id": 2678760, "title": "Bowery men's shelter", "work_id": 65560, "role": "co-producers/directors", "role_id": 628, "is_primary": true}, {"id": 2748826, "title": "Village Life in Tonga", "work_id": 96490, "role": "producer/director", "role_id": 31, "is_primary": true}], "also_known_as": "", "date_of_birth": "", "date_of_death": "", "genders": [{"id": 9, "name": "Male", "slug": "male"}], "languages": [], "places_of_operation": [], "biography": "", "biography_author": null, "date_of_biography": "2023-05-09T18:05:39.118460+10:00", "external_links": [], "uuid": "4c599051-80ca-4804-a544-bee19b44721a", "source": {"name": "Vernon", "slug": "vernon"}, "source_identifier": "27291", "external_references": [{"id": 40253, "source": {"name": "Wikidata", "slug": "wikidata"}, "source_identifier": "Q112154781"}], "date_modified": "2025-03-12T23:46:11.823529+11:00"}, {"id": 74333, "name": "Sheldon Cohen", "roles_in_work": [{"id": 2753544, "title": "Pies", "work_id": 98818, "role": "director", "role_id": 938, "is_primary": true}, {"id": 897337, "title": "The Sweater", "work_id": 77396, "role": "director", "role_id": 938, "is_primary": true}, {"id": 2678755, "title": "Bossa pop", "work_id": 65553, "role": "director", "role_id": 938, "is_primary": true}, {"id": 2303759, "title": "Snow cat: based on the book by Dayal Kaur Khalsa", "work_id": 87984, "role": "director", "role_id": 938, "is_primary": true}, {"id": 2205852, "title": "Pies", "work_id": 80103, "role": "director", "role_id": 938, "is_primary": true}, {"id": 2303750, "title": "Snow cat: based on the book by Dayal Kaur Khalsa", "work_id": 87984, "role": "co-producer", "role_id": 915, "is_primary": true}], "also_known_as": "", "date_of_birth": "01 JAN 1949", "date_of_death": "", "genders": [{"id": 9, "name": "Male", "slug": "male"}], "languages": [{"id": 1, "name": "English", "slug": "english"}, {"id": 4, "name": "French", "slug": "french"}], "places_of_operation": [{"id": 36, "name": "Canada", "slug": "canada"}], "biography": "Sheldon Cohen (born 1949) is a Montreal-based animator and children's book illustrator. Source: Wikidata; 01/08/2023", "biography_author": null, "date_of_biography": "2025-03-13T01:26:52.870152+11:00", "external_links": [{"id": 5153, "uri": "https://en.wikipedia.org/wiki/Sheldon_Cohen_(artist)"}], "uuid": "d0219d95-ee65-4c48-a079-6f6d0c5e669b", "source": {"name": "Vernon", "slug": "vernon"}, "source_identifier": "28737", "external_references": [{"id": 26964, "source": {"name": "Wikidata", "slug": "wikidata"}, "source_identifier": "Q7493474"}, {"id": 31498, "source": {"name": "VIAF", "slug": "viaf"}, "source_identifier": "75496593"}, {"id": 31499, "source": {"name": "LOC Auth", "slug": "loc-auth"}, "source_identifier": "n91095993"}, {"id": 31500, "source": {"name": "WorldCat", "slug": "worldcat"}, "source_identifier": "lccn-n91095993"}], "date_modified": "2025-03-13T01:26:52.870440+11:00"}, {"id": 74332, "name": "Yvon Mallette", "roles_in_work": [{"id": 2678734, "title": "Boomsville", "work_id": 65541, "role": "director", "role_id": 938, "is_primary": true}, {"id": 2347945, "title": "The Family that dwelt apart", "work_id": 75184, "role": "director", "role_id": 938, "is_primary": true}], "also_known_as": "", "date_of_birth": "1935-04-01", "date_of_death": "", "genders": [{"id": 9, "name": "Male", "slug": "male"}], "languages": [], "places_of_operation": [{"id": 36, "name": "Canada", "slug": "canada"}], "biography": "", "biography_author": null, "date_of_biography": "2023-05-09T19:51:03.277012+10:00", "external_links": [], "uuid": "b0ba5165-bf69-4d2b-98a5-8d12cbe32799", "source": {"name": "Vernon", "slug": "vernon"}, "source_identifier": "30640", "external_references": [{"id": 38436, "source": {"name": "Wikidata", "slug": "wikidata"}, "source_identifier": "Q15502109"}], "date_modified": "2025-03-06T23:57:07.161810+11:00"}, {"id": 74331, "name": "Donald Ginsberg", "roles_in_work": [{"id": 874517, "title": "The Long way back", "work_id": 88832, "role": "director", "role_id": 938, "is_primary": true}, {"id": 2678726, "title": "Books for Beaver River", "work_id": 65537, "role": "director", "role_id": 938, "is_primary": true}, {"id": 2201904, "title": "Perspective: student nurse", "work_id": 73323, "role": "director", "role_id": 938, "is_primary": true}], "also_known_as": "", "date_of_birth": "", "date_of_death": "", "genders": [], "languages": [], "places_of_operation": [], "biography": "", "biography_author": null, "date_of_biography": "2023-05-09T15:27:45.552404+10:00", "external_links": [], "uuid": "b61ae903-545d-4dd8-9ede-dc28e8950f2b", "source": {"name": "Vernon", "slug": "vernon"}, "source_identifier": "18297", "external_references": [{"id": 34915, "source": {"name": "Wikidata", "slug": "wikidata"}, "source_identifier": "Q121144131"}], "date_modified": "2025-03-06T23:57:01.486284+11:00"}, {"id": 74330, "name": "Ian Clark", "roles_in_work": [{"id": 2712481, "title": "Dry Hands", "work_id": 66959, "role": "director", "role_id": 938, "is_primary": true}, {"id": 2712479, "title": "Dry Hands", "work_id": 66959, "role": "co-producer", "role_id": 915, "is_primary": true}, {"id": 2678714, "title": "Bonsai: the art of training dwarfed potted trees", "work_id": 65529, "role": "producer/director", "role_id": 31, "is_primary": true}], "also_known_as": "", "date_of_birth": "", "date_of_death": "", "genders": [], "languages": [], "places_of_operation": [], "biography": "", "biography_author": null, "date_of_biography": "2023-05-09T15:47:44.268179+10:00", "external_links": [], "uuid": "98496122-711e-4a9d-ac26-d699d11de02b", "source": {"name": "Vernon", "slug": "vernon"}, "source_identifier": "4451", "external_references": [{"id": 35936, "source": {"name": "Wikidata", "slug": "wikidata"}, "source_identifier": "Q121315186"}], "date_modified": "2025-03-12T00:23:11.058737+11:00"}, {"id": 74329, "name": "William Fertik", "roles_in_work": [{"id": 2644192, "title": "The Bolero", "work_id": 65522, "role": "co-director", "role_id": 959, "is_primary": true}], "also_known_as": "", "date_of_birth": null, "date_of_death": "", "genders": [{"id": 9, "name": "Male", "slug": "male"}], "languages": [], "places_of_operation": [], "biography": "", "biography_author": null, "date_of_biography": "2023-05-09T19:28:49.288263+10:00", "external_links": [], "uuid": "ba05dad9-7639-40c7-9d04-1d1626c5912c", "source": {"name": "Vernon", "slug": "vernon"}, "source_identifier": "30418", "external_references": [{"id": 38937, "source": {"name": "Wikidata", "slug": "wikidata"}, "source_identifier": "Q22101843"}], "date_modified": "2025-03-05T12:12:10.183727+11:00"}]}