{"count": 28687, "next": "https://api.acmi.net.au/creators/?page=1084", "previous": "https://api.acmi.net.au/creators/?page=1082", "results": [{"id": 74752, "name": "Lorna Rasmussen", "roles_in_work": [{"id": 2645001, "title": "Great Grandmother", "work_id": 68186, "role": "director", "role_id": 938, "is_primary": true}, {"id": 908643, "title": "Happily unmarried", "work_id": 89049, "role": "co-producer", "role_id": 915, "is_primary": true}], "also_known_as": "", "date_of_birth": null, "date_of_death": null, "genders": [], "languages": [], "places_of_operation": [], "biography": "", "biography_author": null, "date_of_biography": null, "external_links": [], "uuid": "1e26f5a0-f6b2-4f02-a3ee-cf54778e5f44", "source": {"name": "Vernon", "slug": "vernon"}, "source_identifier": "23994", "external_references": [{"id": 39461, "source": {"name": "Wikidata", "slug": "wikidata"}, "source_identifier": "Q121271253"}], "date_modified": "2025-03-05T12:31:01.787086+11:00"}, {"id": 74751, "name": "Douglas Campbell", "roles_in_work": [{"id": 2714923, "title": "Great expectations. Part 1", "work_id": 68183, "role": "co-director", "role_id": 959, "is_primary": true}, {"id": 894956, "title": "The Secret'st man [b&w]", "work_id": 69959, "role": "co-director", "role_id": 959, "is_primary": true}, {"id": 903849, "title": "The Secret'st man", "work_id": 84931, "role": "co-director", "role_id": 959, "is_primary": true}, {"id": 2270914, "title": "The Themes of Macbeth", "work_id": 69960, "role": "co-director", "role_id": 959, "is_primary": true}, {"id": 2714927, "title": "Great expectations. Part 2", "work_id": 68184, "role": "co-director", "role_id": 959, "is_primary": true}], "also_known_as": "", "date_of_birth": "", "date_of_death": "", "genders": [], "languages": [], "places_of_operation": [], "biography": "", "biography_author": null, "date_of_biography": "2023-05-09T17:45:08.002179+10:00", "external_links": [], "uuid": "bd419d15-a219-4963-8825-ab891ba51a3e", "source": {"name": "Vernon", "slug": "vernon"}, "source_identifier": "18384", "external_references": [{"id": 38178, "source": {"name": "Wikidata", "slug": "wikidata"}, "source_identifier": "Q1989397"}], "date_modified": "2025-03-12T01:22:46.571371+11:00"}, {"id": 74750, "name": "Robert Springer", "roles_in_work": [{"id": 2750203, "title": "Safe Skateboarding", "work_id": 97190, "role": "co-producer", "role_id": 915, "is_primary": true}, {"id": 2644996, "title": "Gravity waves", "work_id": 68174, "role": "co-producer", "role_id": 915, "is_primary": true}], "also_known_as": "", "date_of_birth": "", "date_of_death": "", "genders": [], "languages": [], "places_of_operation": [], "biography": "", "biography_author": null, "date_of_biography": "2023-05-09T17:26:59.388951+10:00", "external_links": [], "uuid": "d3418edc-8fde-4a54-b4e5-1c60ad57c6f8", "source": {"name": "Vernon", "slug": "vernon"}, "source_identifier": "27886", "external_references": [{"id": 37799, "source": {"name": "Wikidata", "slug": "wikidata"}, "source_identifier": "Q121223279"}], "date_modified": "2025-03-13T00:16:24.654965+11:00"}, {"id": 74749, "name": "Christopher Outwater", "roles_in_work": [{"id": 2644995, "title": "Gravity waves", "work_id": 68174, "role": "co-producer", "role_id": 915, "is_primary": true}], "also_known_as": "", "date_of_birth": null, "date_of_death": null, "genders": [], "languages": [], "places_of_operation": [], "biography": "", "biography_author": null, "date_of_biography": null, "external_links": [], "uuid": "8f331776-5a4e-4cbf-8190-725f45c32cee", "source": {"name": "Vernon", "slug": "vernon"}, "source_identifier": "16989", "external_references": [{"id": 37311, "source": {"name": "Wikidata", "slug": "wikidata"}, "source_identifier": "Q121036646"}], "date_modified": "2025-03-05T12:30:57.557627+11:00"}, {"id": 74748, "name": "John Luck", "roles_in_work": [{"id": 2714867, "title": "A Grain of sand", "work_id": 68152, "role": "co-producer", "role_id": 915, "is_primary": true}], "also_known_as": "", "date_of_birth": "", "date_of_death": "", "genders": [], "languages": [], "places_of_operation": [], "biography": "", "biography_author": null, "date_of_biography": "2023-05-09T11:28:09.222615+10:00", "external_links": [], "uuid": "e929a8e4-9fe5-4f0a-a282-78050231ad71", "source": {"name": "Vernon", "slug": "vernon"}, "source_identifier": "22379", "external_references": [{"id": 32419, "source": {"name": "Wikidata", "slug": "wikidata"}, "source_identifier": "Q121159872"}], "date_modified": "2025-03-12T01:21:45.618398+11:00"}, {"id": 74747, "name": "Sarah Raxlen", "roles_in_work": [{"id": 2714853, "title": "Gore Road", "work_id": 68146, "role": "director", "role_id": 938, "is_primary": true}], "also_known_as": "", "date_of_birth": null, "date_of_death": null, "genders": [], "languages": [], "places_of_operation": [], "biography": "", "biography_author": null, "date_of_biography": null, "external_links": [], "uuid": "adf3429e-e968-4bd8-b382-c6e38c73c39b", "source": {"name": "Vernon", "slug": "vernon"}, "source_identifier": "28586", "external_references": [{"id": 42502, "source": {"name": "Wikidata", "slug": "wikidata"}, "source_identifier": "Q121270886"}], "date_modified": "2025-03-12T01:21:35.489995+11:00"}, {"id": 74746, "name": "W. Lee Wilder", "roles_in_work": [{"id": 2714793, "title": "The Golden axe", "work_id": 68116, "role": "producer/director", "role_id": 31, "is_primary": true}, {"id": 2302709, "title": "Sleeping beauty", "work_id": 84946, "role": "producer/director", "role_id": 31, "is_primary": true}, {"id": 2258366, "title": "Rumpelstiltskin", "work_id": 72392, "role": "producer/director", "role_id": 31, "is_primary": true}], "also_known_as": "", "date_of_birth": "", "date_of_death": "", "genders": [], "languages": [], "places_of_operation": [], "biography": "", "biography_author": null, "date_of_biography": "2023-05-09T19:57:19.213564+10:00", "external_links": [], "uuid": "1f765d75-e04a-4533-bc02-b47c28b0842b", "source": {"name": "Vernon", "slug": "vernon"}, "source_identifier": "30205", "external_references": [{"id": 51265, "source": {"name": "Wikidata", "slug": "wikidata"}, "source_identifier": "Q121361236"}], "date_modified": "2025-03-12T01:20:50.235447+11:00"}, {"id": 74745, "name": "Bob Talbot", "roles_in_work": [{"id": 895544, "title": "The Quest", "work_id": 71996, "role": "co-producer", "role_id": 915, "is_primary": true}, {"id": 2644978, "title": "Gold is forever", "work_id": 68110, "role": "producer/director", "role_id": 31, "is_primary": true}], "also_known_as": "", "date_of_birth": null, "date_of_death": null, "genders": [], "languages": [], "places_of_operation": [], "biography": "", "biography_author": null, "date_of_biography": null, "external_links": [], "uuid": "95a241ba-ff4b-43c4-bc36-7700b307a31e", "source": {"name": "Vernon", "slug": "vernon"}, "source_identifier": "16111", "external_references": [{"id": 42006, "source": {"name": "Wikidata", "slug": "wikidata"}, "source_identifier": "Q121079405"}], "date_modified": "2025-03-05T12:30:39.849810+11:00"}, {"id": 74744, "name": "Kenneth Mott", "roles_in_work": [{"id": 2714777, "title": "Going to school in Australia", "work_id": 68109, "role": "producer/director", "role_id": 31, "is_primary": true}], "also_known_as": "", "date_of_birth": null, "date_of_death": null, "genders": [], "languages": [], "places_of_operation": [], "biography": "", "biography_author": null, "date_of_biography": null, "external_links": [], "uuid": "7cb2c588-a1e0-4d2d-a9f5-99ed0c2c486d", "source": {"name": "Vernon", "slug": "vernon"}, "source_identifier": "23238", "external_references": [{"id": 51116, "source": {"name": "Wikidata", "slug": "wikidata"}, "source_identifier": "Q121360715"}], "date_modified": "2025-03-12T01:20:37.903408+11:00"}, {"id": 74743, "name": "Myron Emery", "roles_in_work": [{"id": 2644976, "title": "God with a green face", "work_id": 68099, "role": "co-producers/directors", "role_id": 628, "is_primary": true}], "also_known_as": "", "date_of_birth": "", "date_of_death": "", "genders": [], "languages": [], "places_of_operation": [], "biography": "", "biography_author": null, "date_of_biography": "2023-08-11T17:03:39.809809+10:00", "external_links": [], "uuid": "dce89e5f-629e-47e7-867c-07e8f0a6565b", "source": {"name": "Vernon", "slug": "vernon"}, "source_identifier": "25573", "external_references": [], "date_modified": "2025-03-05T12:30:38.384769+11:00"}]}