{"count": 28687, "next": "https://api.acmi.net.au/creators/?page=1388", "previous": "https://api.acmi.net.au/creators/?page=1386", "results": [{"id": 37378, "name": "Ryuhei Kitamura", "roles_in_work": [{"id": 2106113, "title": "Azumi", "work_id": 95177, "role": "director", "role_id": 938, "is_primary": true}], "also_known_as": "", "date_of_birth": "1969-05-30", "date_of_death": null, "genders": [{"id": 9, "name": "Male", "slug": "male"}], "languages": [], "places_of_operation": [{"id": 8, "name": "Japan", "slug": "japan"}], "biography": "Ryuhei Kitamura (北村 龍平, Kitamura Ryūhei) (born May 30, 1969) is a Japanese filmmaker.\n\n", "biography_author": "Wikidata", "date_of_biography": "2022-05-19T12:59:35.782383+10:00", "external_links": [{"id": 3044, "uri": "https://en.wikipedia.org/wiki/Ryuhei_Kitamura"}], "uuid": "d1141593-38ea-462d-a260-bab686303be9", "source": {"name": "Vernon", "slug": "vernon"}, "source_identifier": "28392", "external_references": [{"id": 12918, "source": {"name": "Wikidata", "slug": "wikidata"}, "source_identifier": "Q2088074"}, {"id": 12919, "source": {"name": "VIAF", "slug": "viaf"}, "source_identifier": "118419607"}, {"id": 12920, "source": {"name": "LOC Auth", "slug": "loc-auth"}, "source_identifier": "no2016030137"}, {"id": 12921, "source": {"name": "WorldCat", "slug": "worldcat"}, "source_identifier": "lccn-no2016030137"}], "date_modified": "2023-09-13T12:32:30.593295+10:00"}, {"id": 37375, "name": "Sedic International Inc", "roles_in_work": [{"id": 2106095, "title": "Azumi", "work_id": 95177, "role": "production company", "role_id": 941, "is_primary": true}], "also_known_as": "", "date_of_birth": "", "date_of_death": "", "genders": [], "languages": [], "places_of_operation": [], "biography": "", "biography_author": null, "date_of_biography": "2023-05-09T12:38:56.555439+10:00", "external_links": [], "uuid": "cd2e7907-27d2-4c55-860e-22e121c58533", "source": {"name": "Vernon", "slug": "vernon"}, "source_identifier": "12409", "external_references": [{"id": 43336, "source": {"name": "Wikidata", "slug": "wikidata"}, "source_identifier": "Q121034300"}], "date_modified": "2023-09-06T01:09:47.998985+10:00"}, {"id": 37374, "name": "Sanjay Gupta", "roles_in_work": [{"id": 2164090, "title": "Kaante", "work_id": 95176, "role": "director", "role_id": 938, "is_primary": true}, {"id": 2164084, "title": "Kaante", "work_id": 95176, "role": "co-producer", "role_id": 915, "is_primary": true}], "also_known_as": "", "date_of_birth": "1969-10-23", "date_of_death": "", "genders": [{"id": 9, "name": "Male", "slug": "male"}], "languages": [], "places_of_operation": [{"id": 50, "name": "India", "slug": "india"}], "biography": "Sanjay Gupta is an Indian filmmaker, producer and screenwriter working primarily in Bollywood industry. Gupta is mostly known for his remakes of American action-thriller and crime films, including films such as Aatish, Kaante, Kaabil, Shootout at Lokhandwala, Shootout at Wadala, Jazbaa and Zinda. and Karam and Mumbai Saga. He has frequently cast Sanjay Dutt and John Abraham in his movies.", "biography_author": "Wikidata", "date_of_biography": "2023-08-01T17:00:05.091833+10:00", "external_links": [{"id": 5121, "uri": "https://en.wikipedia.org/wiki/Sanjay_Gupta_(director)"}], "uuid": "ef97fca6-ac63-4bd5-828e-ba3797311efb", "source": {"name": "Vernon", "slug": "vernon"}, "source_identifier": "28557", "external_references": [{"id": 25321, "source": {"name": "Wikidata", "slug": "wikidata"}, "source_identifier": "Q644401"}, {"id": 31409, "source": {"name": "VIAF", "slug": "viaf"}, "source_identifier": "41531111"}, {"id": 31410, "source": {"name": "LOC Auth", "slug": "loc-auth"}, "source_identifier": "no2003066910"}, {"id": 31411, "source": {"name": "WorldCat", "slug": "worldcat"}, "source_identifier": "lccn-no2003066910"}], "date_modified": "2023-09-06T01:05:28.521992+10:00"}, {"id": 37373, "name": "Pritish Nandy Communications", "roles_in_work": [{"id": 2164089, "title": "Kaante", "work_id": 95176, "role": "co-producer", "role_id": 915, "is_primary": true}, {"id": 2164075, "title": "Kaante", "work_id": 95176, "role": "production company", "role_id": 941, "is_primary": true}], "also_known_as": "", "date_of_birth": "", "date_of_death": "", "genders": [], "languages": [], "places_of_operation": [], "biography": "", "biography_author": null, "date_of_biography": "2023-05-09T14:21:47.999636+10:00", "external_links": [], "uuid": "1f3af24c-2c08-4ba5-a0bb-004be3a26335", "source": {"name": "Vernon", "slug": "vernon"}, "source_identifier": "11654", "external_references": [{"id": 35946, "source": {"name": "Wikidata", "slug": "wikidata"}, "source_identifier": "Q121143932"}], "date_modified": "2023-09-06T00:14:21.710077+10:00"}, {"id": 37372, "name": "Scott Ritter", "roles_in_work": [{"id": 930563, "title": "In shifting sands: the truth about UNSCOM and the disarming of Iraq", "work_id": 95175, "role": "director", "role_id": 938, "is_primary": true}], "also_known_as": "William Scott Ritter, Jr.", "date_of_birth": "1961-07-15", "date_of_death": null, "genders": [{"id": 9, "name": "Male", "slug": "male"}], "languages": [{"id": 1, "name": "English", "slug": "english"}], "places_of_operation": [{"id": 1, "name": "United States of America", "slug": "united-states-of-america"}], "biography": "William Scott Ritter Jr. (born July 15, 1961) is a former United States Marine Corps intelligence officer. He served with the United Nations implementing arms control treaties, with General Norman Schwarzkopf in the Persian Gulf during Operation Desert Storm, and in Iraq, overseeing the disarmament of weapons of mass destruction (WMD), as a United Nations weapons inspector, from 1991 to 1998. He later became a critic of United States foreign policy in the Middle East. Following a 2011 law enforcement sting operation, he was convicted of unlawful contact with a minor and five other charges that resulted in two years of incarceration.", "biography_author": "Wikidata", "date_of_biography": "2022-05-19T13:03:03.803224+10:00", "external_links": [{"id": 3079, "uri": "https://en.wikipedia.org/wiki/Scott_Ritter"}], "uuid": "dff2caba-8f23-49b9-bb6b-c8e3e81ba85d", "source": {"name": "Vernon", "slug": "vernon"}, "source_identifier": "28644", "external_references": [{"id": 13064, "source": {"name": "Wikidata", "slug": "wikidata"}, "source_identifier": "Q713752"}, {"id": 13065, "source": {"name": "VIAF", "slug": "viaf"}, "source_identifier": "7610212"}, {"id": 13066, "source": {"name": "LOC Auth", "slug": "loc-auth"}, "source_identifier": "n99014708"}, {"id": 13067, "source": {"name": "WorldCat", "slug": "worldcat"}, "source_identifier": "lccn-n99014708"}], "date_modified": "2023-09-13T12:32:40.613887+10:00"}, {"id": 37361, "name": "Dacfilm", "roles_in_work": [{"id": 2202811, "title": "Phenomena", "work_id": 95171, "role": "production company", "role_id": 941, "is_primary": true}], "also_known_as": "", "date_of_birth": "", "date_of_death": "", "genders": [], "languages": [], "places_of_operation": [], "biography": "", "biography_author": null, "date_of_biography": "2023-05-09T15:29:41.760766+10:00", "external_links": [], "uuid": "4c4d296a-dc93-4de8-8164-f64bf5799bfd", "source": {"name": "Vernon", "slug": "vernon"}, "source_identifier": "7292", "external_references": [{"id": 34643, "source": {"name": "Wikidata", "slug": "wikidata"}, "source_identifier": "Q121222999"}], "date_modified": "2023-09-05T18:48:52.631777+10:00"}, {"id": 37356, "name": "De La Gueville", "roles_in_work": [{"id": 2337029, "title": "The Chinese girl = La Chinoise", "work_id": 95164, "role": "production company", "role_id": 941, "is_primary": true}], "also_known_as": "", "date_of_birth": "", "date_of_death": "", "genders": [], "languages": [], "places_of_operation": [], "biography": "", "biography_author": null, "date_of_biography": "2023-05-09T19:33:34.127998+10:00", "external_links": [], "uuid": "a6e60f6e-c5d9-46ec-b3cc-5070ec273f8d", "source": {"name": "Vernon", "slug": "vernon"}, "source_identifier": "7360", "external_references": [{"id": 37708, "source": {"name": "Wikidata", "slug": "wikidata"}, "source_identifier": "Q121315067"}], "date_modified": "2023-09-05T19:04:22.990438+10:00"}, {"id": 37352, "name": "Shockiku", "roles_in_work": [{"id": 2263319, "title": "Scandal = Shuban", "work_id": 95156, "role": "production company", "role_id": 941, "is_primary": true}], "also_known_as": "", "date_of_birth": "", "date_of_death": "", "genders": [], "languages": [], "places_of_operation": [], "biography": "", "biography_author": null, "date_of_biography": "2023-05-09T17:32:16.868189+10:00", "external_links": [], "uuid": "7b262761-4884-4a89-9bc2-9f64c71f20d1", "source": {"name": "Vernon", "slug": "vernon"}, "source_identifier": "12545", "external_references": [], "date_modified": "2023-06-14T16:33:30.576250+10:00"}, {"id": 37345, "name": "John Junkerman", "roles_in_work": [{"id": 2228858, "title": "Power and terror: Noam Chomsky in our times", "work_id": 95152, "role": "director", "role_id": 938, "is_primary": true}], "also_known_as": "", "date_of_birth": "1952-08-03", "date_of_death": null, "genders": [{"id": 9, "name": "Male", "slug": "male"}], "languages": [{"id": 1, "name": "English", "slug": "english"}], "places_of_operation": [{"id": 1, "name": "United States of America", "slug": "united-states-of-america"}], "biography": "", "biography_author": null, "date_of_biography": null, "external_links": [], "uuid": "d32431df-ba08-4aed-ba9f-00023677618d", "source": {"name": "Vernon", "slug": "vernon"}, "source_identifier": "22338", "external_references": [{"id": 10389, "source": {"name": "Wikidata", "slug": "wikidata"}, "source_identifier": "Q3181844"}, {"id": 10390, "source": {"name": "VIAF", "slug": "viaf"}, "source_identifier": "32291829"}, {"id": 10391, "source": {"name": "LOC Auth", "slug": "loc-auth"}, "source_identifier": "n85073757"}, {"id": 10392, "source": {"name": "WorldCat", "slug": "worldcat"}, "source_identifier": "lccn-n85073757"}], "date_modified": "2023-09-13T12:30:33.848097+10:00"}, {"id": 37344, "name": "Siglo", "roles_in_work": [{"id": 2228856, "title": "Power and terror: Noam Chomsky in our times", "work_id": 95152, "role": "production company", "role_id": 941, "is_primary": true}], "also_known_as": "", "date_of_birth": "", "date_of_death": "", "genders": [], "languages": [], "places_of_operation": [], "biography": "", "biography_author": null, "date_of_biography": "2023-05-09T16:31:06.640471+10:00", "external_links": [], "uuid": "6c44241d-84cc-45b6-9ce2-e9cf2643e448", "source": {"name": "Vernon", "slug": "vernon"}, "source_identifier": "12576", "external_references": [{"id": 33163, "source": {"name": "Wikidata", "slug": "wikidata"}, "source_identifier": "Q121036034"}], "date_modified": "2023-09-06T01:19:00.924748+10:00"}]}