{"count": 28681, "next": "https://api.acmi.net.au/creators/?page=2664", "previous": "https://api.acmi.net.au/creators/?page=2662", "results": [{"id": 11886, "name": "Rolmar Baldonado", "roles_in_work": [{"id": 2639898, "title": "Two nights", "work_id": 114269, "role": "director", "role_id": 938, "is_primary": true}, {"id": 2639900, "title": "Two nights", "work_id": 114269, "role": "writer", "role_id": 939, "is_primary": true}], "also_known_as": "", "date_of_birth": "", "date_of_death": "", "genders": [], "languages": [], "places_of_operation": [], "biography": "", "biography_author": null, "date_of_biography": "2023-05-09T11:53:11.131121+10:00", "external_links": [], "uuid": "ed53f8eb-fe8d-4df2-a93d-8038447192c9", "source": {"name": "Vernon", "slug": "vernon"}, "source_identifier": "30765", "external_references": [{"id": 51747, "source": {"name": "Wikidata", "slug": "wikidata"}, "source_identifier": "Q121357960"}], "date_modified": "2025-03-05T11:24:37.238287+11:00"}, {"id": 11880, "name": "Reece Schubert", "roles_in_work": [{"id": 2643834, "title": "Love Triangle", "work_id": 111271, "role": "creator", "role_id": 968, "is_primary": true}], "also_known_as": "", "date_of_birth": "", "date_of_death": "", "genders": [], "languages": [], "places_of_operation": [], "biography": "", "biography_author": null, "date_of_biography": "2023-05-09T17:14:31.636445+10:00", "external_links": [], "uuid": "aaae486e-d410-490b-9d9b-442fdd583018", "source": {"name": "Vernon", "slug": "vernon"}, "source_identifier": "3658", "external_references": [], "date_modified": "2025-03-05T12:07:12.851781+11:00"}, {"id": 11879, "name": "Sam Samai", "roles_in_work": [{"id": 2643831, "title": "Kaulah", "work_id": 111270, "role": "creator", "role_id": 968, "is_primary": true}, {"id": 2374283, "title": "In conversation with Sam Samai", "work_id": 116698, "role": "interviewee", "role_id": 496, "is_primary": false}], "also_known_as": "", "date_of_birth": "", "date_of_death": "", "genders": [], "languages": [], "places_of_operation": [], "biography": "", "biography_author": null, "date_of_biography": "2023-07-05T03:53:04.322508+10:00", "external_links": [], "uuid": "b769e277-1295-488e-b52d-272f18000c34", "source": {"name": "Vernon", "slug": "vernon"}, "source_identifier": "3657", "external_references": [], "date_modified": "2025-03-05T12:07:11.417239+11:00"}, {"id": 11878, "name": "Kuit Shyan", "roles_in_work": [{"id": 2643828, "title": "Germ art", "work_id": 111269, "role": "creator", "role_id": 968, "is_primary": true}], "also_known_as": "", "date_of_birth": "", "date_of_death": "", "genders": [], "languages": [], "places_of_operation": [], "biography": "", "biography_author": null, "date_of_biography": "2023-05-09T17:14:27.252659+10:00", "external_links": [], "uuid": "081a2262-7fd0-4f29-a552-cb322d34bf5b", "source": {"name": "Vernon", "slug": "vernon"}, "source_identifier": "3656", "external_references": [], "date_modified": "2025-03-05T12:07:09.995476+11:00"}, {"id": 11876, "name": "Aarthi Sriram", "roles_in_work": [{"id": 2643821, "title": "Figaro", "work_id": 111267, "role": "creator", "role_id": 968, "is_primary": true}], "also_known_as": "", "date_of_birth": "", "date_of_death": "", "genders": [], "languages": [], "places_of_operation": [], "biography": "", "biography_author": null, "date_of_biography": "2023-05-09T17:14:26.283260+10:00", "external_links": [], "uuid": "9abc9638-f617-49e9-bf46-ab0bf15614bf", "source": {"name": "Vernon", "slug": "vernon"}, "source_identifier": "3655", "external_references": [], "date_modified": "2025-03-05T12:07:06.066838+11:00"}, {"id": 11875, "name": "Cordelia Brown", "roles_in_work": [{"id": 2643818, "title": "Husk", "work_id": 111266, "role": "creator", "role_id": 968, "is_primary": true}], "also_known_as": "", "date_of_birth": "", "date_of_death": "", "genders": [], "languages": [], "places_of_operation": [], "biography": "", "biography_author": null, "date_of_biography": "2023-05-09T17:14:28.026931+10:00", "external_links": [], "uuid": "a786d5f7-7540-4c2e-b034-c507eda84df1", "source": {"name": "Vernon", "slug": "vernon"}, "source_identifier": "3651", "external_references": [], "date_modified": "2025-03-05T12:07:04.600284+11:00"}, {"id": 11874, "name": "Qian Chen", "roles_in_work": [{"id": 2643815, "title": "On the way", "work_id": 111265, "role": "creator", "role_id": 968, "is_primary": true}], "also_known_as": "", "date_of_birth": "", "date_of_death": "", "genders": [], "languages": [], "places_of_operation": [], "biography": "", "biography_author": null, "date_of_biography": "2023-05-09T17:14:34.206006+10:00", "external_links": [], "uuid": "2f2e1724-0c0c-4b1c-9745-40c001d9f84a", "source": {"name": "Vernon", "slug": "vernon"}, "source_identifier": "3650", "external_references": [], "date_modified": "2025-03-05T12:07:03.163061+11:00"}, {"id": 11873, "name": "Emily Day", "roles_in_work": [{"id": 2643812, "title": "Metamorphosis", "work_id": 111264, "role": "creator", "role_id": 968, "is_primary": true}], "also_known_as": "", "date_of_birth": "", "date_of_death": "", "genders": [], "languages": [], "places_of_operation": [], "biography": "", "biography_author": null, "date_of_biography": "2023-05-09T17:14:32.401729+10:00", "external_links": [], "uuid": "7761237f-7ced-48a8-82fa-6f6f664d64b5", "source": {"name": "Vernon", "slug": "vernon"}, "source_identifier": "3649", "external_references": [], "date_modified": "2025-03-05T12:07:01.706610+11:00"}, {"id": 11872, "name": "Shreyas Deshpande", "roles_in_work": [{"id": 2643809, "title": "The Toy", "work_id": 111263, "role": "creator", "role_id": 968, "is_primary": true}], "also_known_as": "", "date_of_birth": "", "date_of_death": "", "genders": [], "languages": [], "places_of_operation": [], "biography": "", "biography_author": null, "date_of_biography": "2023-05-09T17:14:37.570426+10:00", "external_links": [], "uuid": "a67e9e25-4f60-4f29-823f-8975c98cb438", "source": {"name": "Vernon", "slug": "vernon"}, "source_identifier": "3646", "external_references": [], "date_modified": "2025-03-05T12:07:00.259708+11:00"}, {"id": 11871, "name": "Eskandarian Mirza", "roles_in_work": [{"id": 2643806, "title": "The Beautiful Game", "work_id": 111262, "role": "creator", "role_id": 968, "is_primary": true}], "also_known_as": "", "date_of_birth": "", "date_of_death": "", "genders": [], "languages": [], "places_of_operation": [], "biography": "", "biography_author": null, "date_of_biography": "2023-05-09T17:14:24.621278+10:00", "external_links": [], "uuid": "71d25b7b-e3a2-40e2-9061-40bbb05388a5", "source": {"name": "Vernon", "slug": "vernon"}, "source_identifier": "3645", "external_references": [], "date_modified": "2025-03-05T12:06:58.800100+11:00"}]}