{"count": 28687, "next": "https://api.acmi.net.au/creators/?page=2699", "previous": "https://api.acmi.net.au/creators/?page=2697", "results": [{"id": 11465, "name": "Richard Yang", "roles_in_work": [{"id": 2642050, "title": "Battle scene", "work_id": 110631, "role": "creator", "role_id": 968, "is_primary": true}], "also_known_as": "", "date_of_birth": "", "date_of_death": "", "genders": [], "languages": [], "places_of_operation": [], "biography": "", "biography_author": null, "date_of_biography": "2023-05-09T18:50:06.198735+10:00", "external_links": [], "uuid": "cbca3657-2aa4-4c13-985a-d284656d3486", "source": {"name": "Vernon", "slug": "vernon"}, "source_identifier": "3361", "external_references": [], "date_modified": "2025-03-05T11:42:31.035892+11:00"}, {"id": 11464, "name": "Wong Jenn Ting", "roles_in_work": [{"id": 2642058, "title": "I am not alone", "work_id": 110630, "role": "creator", "role_id": 968, "is_primary": true}], "also_known_as": "", "date_of_birth": "", "date_of_death": "", "genders": [], "languages": [], "places_of_operation": [], "biography": "", "biography_author": null, "date_of_biography": "2023-05-09T18:50:25.083927+10:00", "external_links": [], "uuid": "5e5967a5-a5c5-4110-a062-4609354e104b", "source": {"name": "Vernon", "slug": "vernon"}, "source_identifier": "3370", "external_references": [], "date_modified": "2025-03-05T11:42:36.526150+11:00"}, {"id": 11463, "name": "Michelle Lee", "roles_in_work": [{"id": 2642076, "title": "Stan", "work_id": 110628, "role": "creator", "role_id": 968, "is_primary": true}], "also_known_as": "", "date_of_birth": "", "date_of_death": "", "genders": [], "languages": [], "places_of_operation": [], "biography": "", "biography_author": null, "date_of_biography": "2023-05-09T18:50:16.608219+10:00", "external_links": [], "uuid": "2449b534-760c-455d-ae28-d3d7e5d81f95", "source": {"name": "Vernon", "slug": "vernon"}, "source_identifier": "3355", "external_references": [], "date_modified": "2025-03-05T11:42:49.322269+11:00"}, {"id": 11462, "name": "Alison de Kruiff", "roles_in_work": [{"id": 2642032, "title": "Help the homeless TVC", "work_id": 110626, "role": "creator", "role_id": 968, "is_primary": true}], "also_known_as": "", "date_of_birth": "", "date_of_death": "", "genders": [], "languages": [], "places_of_operation": [], "biography": "", "biography_author": null, "date_of_biography": "2023-05-09T19:58:12.063098+10:00", "external_links": [], "uuid": "76a1e4b6-46e7-4505-a008-d4d4802b4a26", "source": {"name": "Vernon", "slug": "vernon"}, "source_identifier": "3349", "external_references": [], "date_modified": "2025-03-05T11:42:17.797566+11:00"}, {"id": 11461, "name": "Megan Nairn", "roles_in_work": [{"id": 2642038, "title": "A Monster problem", "work_id": 110625, "role": "creator", "role_id": 968, "is_primary": true}], "also_known_as": "", "date_of_birth": "", "date_of_death": "", "genders": [], "languages": [], "places_of_operation": [], "biography": "", "biography_author": null, "date_of_biography": "2023-05-09T19:58:11.273984+10:00", "external_links": [], "uuid": "cc5a0511-1aeb-4dd4-851d-aee1727cbffb", "source": {"name": "Vernon", "slug": "vernon"}, "source_identifier": "3350", "external_references": [], "date_modified": "2025-03-05T11:42:21.993722+11:00"}, {"id": 11459, "name": "Matt Alpass", "roles_in_work": [{"id": 2642042, "title": "Three 60", "work_id": 110627, "role": "creator", "role_id": 968, "is_primary": true}, {"id": 2642026, "title": "Co-op", "work_id": 110623, "role": "creator", "role_id": 968, "is_primary": true}], "also_known_as": "", "date_of_birth": "", "date_of_death": "", "genders": [], "languages": [], "places_of_operation": [], "biography": "", "biography_author": null, "date_of_biography": "2023-05-09T19:58:08.379350+10:00", "external_links": [], "uuid": "c3d32b92-9464-4aca-94f3-fb099bce32df", "source": {"name": "Vernon", "slug": "vernon"}, "source_identifier": "3340", "external_references": [], "date_modified": "2025-03-05T11:42:24.776163+11:00"}, {"id": 11458, "name": "Cedric Austria", "roles_in_work": [{"id": 2642024, "title": "Co-op", "work_id": 110623, "role": "creator", "role_id": 968, "is_primary": true}], "also_known_as": "", "date_of_birth": "", "date_of_death": "", "genders": [], "languages": [], "places_of_operation": [], "biography": "", "biography_author": null, "date_of_biography": "2023-05-09T19:58:07.813233+10:00", "external_links": [], "uuid": "724881e6-9d93-4b66-a286-964da1a27dfc", "source": {"name": "Vernon", "slug": "vernon"}, "source_identifier": "3345", "external_references": [], "date_modified": "2025-03-05T11:42:12.709905+11:00"}, {"id": 11457, "name": "Andrew Di Pietrantonio", "roles_in_work": [{"id": 2642023, "title": "Co-op", "work_id": 110623, "role": "creator", "role_id": 968, "is_primary": true}], "also_known_as": "", "date_of_birth": "", "date_of_death": "", "genders": [], "languages": [], "places_of_operation": [], "biography": "", "biography_author": null, "date_of_biography": "2023-05-09T19:58:07.442420+10:00", "external_links": [], "uuid": "2777dbbb-59e2-458d-917f-03f9e397c0a9", "source": {"name": "Vernon", "slug": "vernon"}, "source_identifier": "3344", "external_references": [], "date_modified": "2025-03-05T11:42:12.142247+11:00"}, {"id": 11456, "name": "Onur Aksoy", "roles_in_work": [{"id": 2642022, "title": "Co-op", "work_id": 110623, "role": "creator", "role_id": 968, "is_primary": true}], "also_known_as": "", "date_of_birth": "", "date_of_death": "", "genders": [], "languages": [], "places_of_operation": [], "biography": "", "biography_author": null, "date_of_biography": "2023-05-09T19:58:07.075757+10:00", "external_links": [], "uuid": "25d49e27-8f61-441c-ae1e-164f3ca4088e", "source": {"name": "Vernon", "slug": "vernon"}, "source_identifier": "3343", "external_references": [], "date_modified": "2025-03-05T11:42:11.567804+11:00"}, {"id": 11455, "name": "James Cook", "roles_in_work": [{"id": 2642020, "title": "Co-op", "work_id": 110623, "role": "creator", "role_id": 968, "is_primary": true}], "also_known_as": "", "date_of_birth": "", "date_of_death": "", "genders": [], "languages": [], "places_of_operation": [], "biography": "", "biography_author": null, "date_of_biography": "2023-05-09T19:58:06.587960+10:00", "external_links": [], "uuid": "ec89c571-7500-49ea-9fe8-5e714b498c44", "source": {"name": "Vernon", "slug": "vernon"}, "source_identifier": "3342", "external_references": [], "date_modified": "2025-03-05T11:42:10.415333+11:00"}]}