{"count": 28687, "next": "https://api.acmi.net.au/creators/?page=1366", "previous": "https://api.acmi.net.au/creators/?page=1364", "results": [{"id": 37909, "name": "Grant Rohloff", "roles_in_work": [{"id": 2471805, "title": "Which is my world?", "work_id": 96139, "role": "producer", "role_id": 1089, "is_primary": true}], "also_known_as": "", "date_of_birth": "", "date_of_death": "", "genders": [], "languages": [], "places_of_operation": [], "biography": "", "biography_author": null, "date_of_biography": "2023-08-14T12:46:58.667868+10:00", "external_links": [], "uuid": "5e5cd624-908d-47ec-926c-db4ae8c6d89e", "source": {"name": "Vernon", "slug": "vernon"}, "source_identifier": "20032", "external_references": [], "date_modified": "2023-08-14T12:46:58.668212+10:00"}, {"id": 37908, "name": "Art Evans Productions", "roles_in_work": [{"id": 825994, "title": "South America: Indians of the Andes", "work_id": 96138, "role": "production company", "role_id": 941, "is_primary": true}, {"id": 2751501, "title": "Economics for elementary: trade", "work_id": 97837, "role": "production company", "role_id": 941, "is_primary": true}], "also_known_as": "", "date_of_birth": "", "date_of_death": "", "genders": [], "languages": [], "places_of_operation": [], "biography": "", "biography_author": null, "date_of_biography": "2023-08-11T16:17:51.006013+10:00", "external_links": [], "uuid": "a409918b-5384-456c-a8ca-79ddb1c25c16", "source": {"name": "Vernon", "slug": "vernon"}, "source_identifier": "5394", "external_references": [], "date_modified": "2025-03-13T00:45:26.957433+11:00"}, {"id": 37903, "name": "Ansvar Insurance", "roles_in_work": [{"id": 2405492, "title": "Danger level", "work_id": 96121, "role": "production company", "role_id": 941, "is_primary": true}, {"id": 2406480, "title": "Drinking-driving. Edited version", "work_id": 96903, "role": "production company", "role_id": 941, "is_primary": true}], "also_known_as": "", "date_of_birth": "", "date_of_death": "", "genders": [], "languages": [], "places_of_operation": [], "biography": "", "biography_author": null, "date_of_biography": "2023-08-11T16:14:35.908164+10:00", "external_links": [], "uuid": "a36efb71-1d52-4212-9551-0cc841ec4db6", "source": {"name": "Vernon", "slug": "vernon"}, "source_identifier": "5285", "external_references": [], "date_modified": "2023-08-11T16:14:35.908381+10:00"}, {"id": 37902, "name": "CETO", "roles_in_work": [{"id": 2469469, "title": "TV training: sound in television", "work_id": 96119, "role": "production company", "role_id": 941, "is_primary": true}], "also_known_as": "", "date_of_birth": "", "date_of_death": "", "genders": [], "languages": [], "places_of_operation": [], "biography": "", "biography_author": null, "date_of_biography": "2023-08-14T12:01:49.758338+10:00", "external_links": [], "uuid": "8c554e35-00be-4820-a1e3-11d238f1dde8", "source": {"name": "Vernon", "slug": "vernon"}, "source_identifier": "6477", "external_references": [], "date_modified": "2023-08-14T12:01:49.758643+10:00"}, {"id": 37901, "name": "United Salvage", "roles_in_work": [{"id": 2408672, "title": "Gold from the sea: epics of salvage", "work_id": 96110, "role": "production company", "role_id": 941, "is_primary": true}], "also_known_as": "", "date_of_birth": "", "date_of_death": "", "genders": [], "languages": [], "places_of_operation": [], "biography": "", "biography_author": null, "date_of_biography": "2023-08-11T17:05:04.048824+10:00", "external_links": [], "uuid": "6512793b-dd4c-448b-ae12-8f8971d790ea", "source": {"name": "Vernon", "slug": "vernon"}, "source_identifier": "13871", "external_references": [], "date_modified": "2023-08-11T17:05:04.049088+10:00"}, {"id": 37895, "name": "D. Dwight Davis", "roles_in_work": [{"id": 2468279, "title": "The Tropical jungle", "work_id": 96100, "role": "producer", "role_id": 1089, "is_primary": true}], "also_known_as": "", "date_of_birth": "1908", "date_of_death": "1965", "genders": [], "languages": [], "places_of_operation": [], "biography": "", "biography_author": null, "date_of_biography": "2023-08-14T11:38:06.476408+10:00", "external_links": [], "uuid": "38dc0a24-2473-4d2d-95f6-b57b253f7c36", "source": {"name": "Vernon", "slug": "vernon"}, "source_identifier": "17295", "external_references": [], "date_modified": "2023-08-14T11:38:06.476597+10:00"}, {"id": 37892, "name": "Senior Film Productions", "roles_in_work": [{"id": 2466397, "title": "T.V. commercials: Dulux", "work_id": 96089, "role": "production company", "role_id": 941, "is_primary": true}], "also_known_as": "", "date_of_birth": "", "date_of_death": "", "genders": [], "languages": [], "places_of_operation": [], "biography": "", "biography_author": null, "date_of_biography": "2023-08-14T10:56:19.407989+10:00", "external_links": [], "uuid": "c1a002dc-1e2d-44ed-b5b8-a582b5b005e6", "source": {"name": "Vernon", "slug": "vernon"}, "source_identifier": "12432", "external_references": [], "date_modified": "2023-08-14T10:56:19.408231+10:00"}, {"id": 37887, "name": "Clyde B Smith", "roles_in_work": [{"id": 2406553, "title": "Early stone tools", "work_id": 96039, "role": "director", "role_id": 938, "is_primary": true}], "also_known_as": "", "date_of_birth": "", "date_of_death": "", "genders": [], "languages": [], "places_of_operation": [], "biography": "", "biography_author": null, "date_of_biography": "2023-08-11T16:16:27.190975+10:00", "external_links": [], "uuid": "681235b3-d6be-4a55-8fc2-0972af257d40", "source": {"name": "Vernon", "slug": "vernon"}, "source_identifier": "17149", "external_references": [], "date_modified": "2023-08-11T16:16:27.191205+10:00"}, {"id": 37881, "name": "Frank Stokes", "roles_in_work": [{"id": 918298, "title": "Water for the city", "work_id": 96010, "role": "co-producer", "role_id": 915, "is_primary": true}, {"id": 2750692, "title": "Trucks in our neighbourhood: a first film", "work_id": 97455, "role": "producer", "role_id": 1089, "is_primary": true}], "also_known_as": "", "date_of_birth": null, "date_of_death": null, "genders": [], "languages": [], "places_of_operation": [], "biography": "", "biography_author": null, "date_of_biography": null, "external_links": [], "uuid": "1ba5d76d-bc09-4456-993f-dc5cdc0826e9", "source": {"name": "Vernon", "slug": "vernon"}, "source_identifier": "19177", "external_references": [], "date_modified": "2025-03-13T00:27:10.736259+11:00"}, {"id": 37879, "name": "Allan Ashbolt", "roles_in_work": [{"id": 2344968, "title": "The Drover's wife: a short story by Henry Lawson", "work_id": 96005, "role": "producer", "role_id": 1089, "is_primary": true}], "also_known_as": "", "date_of_birth": "", "date_of_death": "", "genders": [], "languages": [], "places_of_operation": [], "biography": "", "biography_author": null, "date_of_biography": "2023-05-09T19:45:32.603393+10:00", "external_links": [], "uuid": "8d329b8f-824f-44c6-9379-263dc7e780d6", "source": {"name": "Vernon", "slug": "vernon"}, "source_identifier": "14995", "external_references": [{"id": 36192, "source": {"name": "Wikidata", "slug": "wikidata"}, "source_identifier": "Q121337167"}], "date_modified": "2023-09-05T17:29:08.210089+10:00"}]}