{"count": 28687, "next": "https://api.acmi.net.au/creators/?page=194", "previous": "https://api.acmi.net.au/creators/?page=192", "results": [{"id": 83677, "name": "Louis Irving", "roles_in_work": [{"id": 2654904, "title": "Love My Way: Garden of Love", "work_id": 116937, "role": "director of photography", "role_id": 925, "is_primary": false}, {"id": 2654671, "title": "Love My Way: A Different Planet", "work_id": 116935, "role": "director of photography", "role_id": 925, "is_primary": false}, {"id": 2654723, "title": "Love My Way: Don't Tell Me Your Dreams", "work_id": 116928, "role": "director of photography", "role_id": 925, "is_primary": false}, {"id": 2654746, "title": "Love My Way: What's In a Name", "work_id": 116929, "role": "director of photography", "role_id": 925, "is_primary": false}, {"id": 2654772, "title": "Love My Way: Crazy Love", "work_id": 116930, "role": "director of photography", "role_id": 925, "is_primary": false}, {"id": 2654796, "title": "Love My Way: Spin Cycle", "work_id": 116931, "role": "director of photography", "role_id": 925, "is_primary": false}, {"id": 2654820, "title": "Love My Way: Stick Sisters", "work_id": 116932, "role": "director of photography", "role_id": 925, "is_primary": false}, {"id": 2654842, "title": "Love My Way: To Dance With Death", "work_id": 116933, "role": "director of photography", "role_id": 925, "is_primary": false}, {"id": 2654864, "title": "Love My Way: My Family Up a Tree", "work_id": 116934, "role": "director of photography", "role_id": 925, "is_primary": false}, {"id": 2654884, "title": "Love My Way: Only Mortal", "work_id": 116936, "role": "director of photography", "role_id": 925, "is_primary": false}], "also_known_as": "", "date_of_birth": null, "date_of_death": null, "genders": [], "languages": [], "places_of_operation": [], "biography": "", "biography_author": null, "date_of_biography": null, "external_links": [], "uuid": "3e11feca-9d37-4e79-a910-799173181976", "source": {"name": "Vernon", "slug": "vernon"}, "source_identifier": "35245", "external_references": [], "date_modified": "2025-03-05T15:35:36.636040+11:00"}, {"id": 83676, "name": "Jessica Hobbs", "roles_in_work": [{"id": 2654744, "title": "Love My Way: What's In a Name", "work_id": 116929, "role": "director", "role_id": 938, "is_primary": true}, {"id": 2654903, "title": "Love My Way: Garden of Love", "work_id": 116937, "role": "director", "role_id": 938, "is_primary": true}, {"id": 2654883, "title": "Love My Way: Only Mortal", "work_id": 116936, "role": "director", "role_id": 938, "is_primary": true}, {"id": 2654670, "title": "Love My Way: A Different Planet", "work_id": 116935, "role": "director", "role_id": 938, "is_primary": true}, {"id": 2654770, "title": "Love My Way: Crazy Love", "work_id": 116930, "role": "director", "role_id": 938, "is_primary": true}, {"id": 2654721, "title": "Love My Way: Don't Tell Me Your Dreams", "work_id": 116928, "role": "director", "role_id": 938, "is_primary": true}], "also_known_as": "", "date_of_birth": "1967-01-01", "date_of_death": null, "genders": [{"id": 5, "name": "Female", "slug": "female"}], "languages": [], "places_of_operation": [{"id": 9, "name": "New Zealand", "slug": "new-zealand"}], "biography": "Jessica Hobbs (born 1967) is a New Zealand television director. She won the 2021 Outstanding Directing for a Drama Series Emmy Award for the episode \"War\" of The Crown.\n\n", "biography_author": "Wikidata", "date_of_biography": "2023-09-05T21:23:39.439662+10:00", "external_links": [{"id": 5905, "uri": "https://en.wikipedia.org/wiki/Jessica_Hobbs"}], "uuid": "5461baa1-e2eb-4414-be58-18d4cabac8e7", "source": {"name": "Vernon", "slug": "vernon"}, "source_identifier": "35111", "external_references": [{"id": 40966, "source": {"name": "Wikidata", "slug": "wikidata"}, "source_identifier": "Q106240689"}, {"id": 54820, "source": {"name": "VIAF", "slug": "viaf"}, "source_identifier": "305403388"}, {"id": 54821, "source": {"name": "LOC Auth", "slug": "loc-auth"}, "source_identifier": "no2017147167"}, {"id": 54822, "source": {"name": "WorldCat", "slug": "worldcat"}, "source_identifier": "lccn-no2017147167"}], "date_modified": "2025-03-05T15:35:36.060650+11:00"}, {"id": 83675, "name": "Foxtel", "roles_in_work": [{"id": 2654511, "title": "Love my way", "work_id": 116927, "role": "production company", "role_id": 941, "is_primary": true}, {"id": 2654877, "title": "Love My Way: Only Mortal", "work_id": 116936, "role": "production company", "role_id": 941, "is_primary": true}, {"id": 2654664, "title": "Love My Way: A Different Planet", "work_id": 116935, "role": "production company", "role_id": 941, "is_primary": true}, {"id": 2654767, "title": "Love My Way: Crazy Love", "work_id": 116930, "role": "production company", "role_id": 941, "is_primary": true}, {"id": 2654742, "title": "Love My Way: What's In a Name", "work_id": 116929, "role": "production company", "role_id": 941, "is_primary": true}, {"id": 2654791, "title": "Love My Way: Spin Cycle", "work_id": 116931, "role": "production company", "role_id": 941, "is_primary": true}, {"id": 2654718, "title": "Love My Way: Don't Tell Me Your Dreams", "work_id": 116928, "role": "production company", "role_id": 941, "is_primary": true}, {"id": 2654814, "title": "Love My Way: Stick Sisters", "work_id": 116932, "role": "production company", "role_id": 941, "is_primary": true}, {"id": 2654836, "title": "Love My Way: To Dance With Death", "work_id": 116933, "role": "production company", "role_id": 941, "is_primary": true}, {"id": 2654897, "title": "Love My Way: Garden of Love", "work_id": 116937, "role": "production company", "role_id": 941, "is_primary": true}, {"id": 2654859, "title": "Love My Way: My Family Up a Tree", "work_id": 116934, "role": "production company", "role_id": 941, "is_primary": true}], "also_known_as": "", "date_of_birth": null, "date_of_death": null, "genders": [], "languages": [], "places_of_operation": [], "biography": "", "biography_author": null, "date_of_biography": null, "external_links": [], "uuid": "32750b33-ac42-4bb1-8a83-44979088b968", "source": {"name": "Vernon", "slug": "vernon"}, "source_identifier": "35095", "external_references": [{"id": 41435, "source": {"name": "Wikidata", "slug": "wikidata"}, "source_identifier": "Q121034294"}], "date_modified": "2025-03-05T15:35:32.583162+11:00"}, {"id": 83674, "name": "Raj Roy", "roles_in_work": [{"id": 2654268, "title": "Raj Roy interview: 'Tim Burton: The Exhibition'", "work_id": 116926, "role": "interviewee", "role_id": 496, "is_primary": false}], "also_known_as": "", "date_of_birth": "", "date_of_death": "", "genders": [{"id": 9, "name": "Male", "slug": "male"}], "languages": [], "places_of_operation": [], "biography": "", "biography_author": null, "date_of_biography": "2023-05-09T16:44:54.400474+10:00", "external_links": [], "uuid": "a9d80661-21a2-4c69-af35-f1a5e3412f00", "source": {"name": "Vernon", "slug": "vernon"}, "source_identifier": "35081", "external_references": [], "date_modified": "2025-03-05T15:29:23.156427+11:00"}, {"id": 83673, "name": "Walter Bird", "roles_in_work": [{"id": 2654714, "title": "Triptych", "work_id": 116925, "role": "creator", "role_id": 968, "is_primary": true}], "also_known_as": "", "date_of_birth": "", "date_of_death": "", "genders": [{"id": 9, "name": "Male", "slug": "male"}], "languages": [], "places_of_operation": [], "biography": "", "biography_author": null, "date_of_biography": "2023-05-09T20:06:03.272873+10:00", "external_links": [], "uuid": "2a4d8349-dfbb-4dfb-ac61-83559e6e1792", "source": {"name": "Vernon", "slug": "vernon"}, "source_identifier": "35104", "external_references": [], "date_modified": "2025-03-05T15:33:55.942242+11:00"}, {"id": 83672, "name": "Angela Josifoska", "roles_in_work": [{"id": 2654265, "title": "Prayer for fame", "work_id": 116924, "role": "creator", "role_id": 968, "is_primary": true}], "also_known_as": "", "date_of_birth": "", "date_of_death": "", "genders": [{"id": 5, "name": "Female", "slug": "female"}], "languages": [], "places_of_operation": [], "biography": "", "biography_author": null, "date_of_biography": "2023-05-09T20:06:01.421462+10:00", "external_links": [], "uuid": "18db1e13-ca4d-44a3-ae81-01ebb0602f21", "source": {"name": "Vernon", "slug": "vernon"}, "source_identifier": "35080", "external_references": [], "date_modified": "2025-03-05T15:29:20.916292+11:00"}, {"id": 83671, "name": "Raelanah Loloa", "roles_in_work": [{"id": 2654308, "title": "Old life, new life", "work_id": 116923, "role": "creator", "role_id": 968, "is_primary": true}], "also_known_as": "", "date_of_birth": "", "date_of_death": "", "genders": [{"id": 5, "name": "Female", "slug": "female"}], "languages": [], "places_of_operation": [], "biography": "", "biography_author": null, "date_of_biography": "2023-05-09T20:05:59.805221+10:00", "external_links": [], "uuid": "9cae664d-95e8-4f0f-888e-dc8a34dc1808", "source": {"name": "Vernon", "slug": "vernon"}, "source_identifier": "35093", "external_references": [], "date_modified": "2025-03-05T15:29:50.498578+11:00"}, {"id": 83670, "name": "Haris Fazlic", "roles_in_work": [{"id": 2654293, "title": "Never give up", "work_id": 116922, "role": "creator", "role_id": 968, "is_primary": true}], "also_known_as": "", "date_of_birth": "", "date_of_death": "", "genders": [{"id": 9, "name": "Male", "slug": "male"}], "languages": [], "places_of_operation": [], "biography": "", "biography_author": null, "date_of_biography": "2023-05-09T20:05:58.157640+10:00", "external_links": [], "uuid": "00da042a-5b04-4e21-8cf3-cd9b633047f5", "source": {"name": "Vernon", "slug": "vernon"}, "source_identifier": "35087", "external_references": [], "date_modified": "2025-03-05T15:29:40.445664+11:00"}, {"id": 83669, "name": "Erin Wilson", "roles_in_work": [{"id": 2654288, "title": "My special family", "work_id": 116921, "role": "creator", "role_id": 968, "is_primary": true}], "also_known_as": "", "date_of_birth": "", "date_of_death": "", "genders": [{"id": 5, "name": "Female", "slug": "female"}], "languages": [], "places_of_operation": [], "biography": "", "biography_author": null, "date_of_biography": "2023-05-09T20:05:56.519515+10:00", "external_links": [], "uuid": "84952c04-4922-4b65-af18-2ad527286f23", "source": {"name": "Vernon", "slug": "vernon"}, "source_identifier": "35086", "external_references": [], "date_modified": "2025-03-05T15:29:37.001679+11:00"}, {"id": 83668, "name": "Vyna Nguyen", "roles_in_work": [{"id": 2654318, "title": "Lucky", "work_id": 116920, "role": "creator", "role_id": 968, "is_primary": true}], "also_known_as": "", "date_of_birth": "", "date_of_death": "", "genders": [{"id": 5, "name": "Female", "slug": "female"}], "languages": [], "places_of_operation": [], "biography": "", "biography_author": null, "date_of_biography": "2023-05-09T20:05:54.897172+10:00", "external_links": [], "uuid": "7fc337c0-c89d-46ea-8e73-6eed4a40d67b", "source": {"name": "Vernon", "slug": "vernon"}, "source_identifier": "35096", "external_references": [], "date_modified": "2025-03-05T15:29:57.160664+11:00"}]}