{"count": 28687, "next": "https://api.acmi.net.au/creators/?page=681", "previous": "https://api.acmi.net.au/creators/?page=679", "results": [{"id": 78783, "name": "Barbara Margolis", "roles_in_work": [{"id": 2099144, "title": "Are we winning mommy?: America and the cold war", "work_id": 88152, "role": "producer/director", "role_id": 31, "is_primary": true}], "also_known_as": "", "date_of_birth": "", "date_of_death": "", "genders": [], "languages": [], "places_of_operation": [], "biography": "", "biography_author": null, "date_of_biography": "2023-05-09T12:28:22.431229+10:00", "external_links": [], "uuid": "0c53f91f-1346-418f-b7ed-742cbf422070", "source": {"name": "Vernon", "slug": "vernon"}, "source_identifier": "15656", "external_references": [{"id": 51471, "source": {"name": "Wikidata", "slug": "wikidata"}, "source_identifier": "Q121360805"}], "date_modified": "2023-09-05T17:53:11.039288+10:00"}, {"id": 78782, "name": "Sveriges TV", "roles_in_work": [{"id": 2099140, "title": "Are we winning mommy?: America and the cold war", "work_id": 88152, "role": "production company", "role_id": 941, "is_primary": true}], "also_known_as": "", "date_of_birth": "", "date_of_death": "", "genders": [], "languages": [], "places_of_operation": [], "biography": "", "biography_author": null, "date_of_biography": "2023-05-09T12:28:22.175920+10:00", "external_links": [], "uuid": "deb94272-1e31-4d6d-b70c-6f83a134d3f5", "source": {"name": "Vernon", "slug": "vernon"}, "source_identifier": "13085", "external_references": [{"id": 37469, "source": {"name": "Wikidata", "slug": "wikidata"}, "source_identifier": "Q121035476"}], "date_modified": "2023-09-06T01:38:02.526317+10:00"}, {"id": 78781, "name": "Jonathan Dent", "roles_in_work": [{"id": 3085802, "title": "Tiger talk", "work_id": 94194, "role": "director", "role_id": 938, "is_primary": true}, {"id": 3081186, "title": "A Cold war", "work_id": 88150, "role": "producer", "role_id": 1089, "is_primary": true}], "also_known_as": "", "date_of_birth": "", "date_of_death": "", "genders": [], "languages": [], "places_of_operation": [], "biography": "", "biography_author": null, "date_of_biography": "2023-05-09T19:20:31.487925+10:00", "external_links": [], "uuid": "f96a29ee-aea4-4c27-b3c3-91fb4604857e", "source": {"name": "Vernon", "slug": "vernon"}, "source_identifier": "22642", "external_references": [{"id": 43393, "source": {"name": "Wikidata", "slug": "wikidata"}, "source_identifier": "Q121126074"}], "date_modified": "2025-03-17T10:41:25.148186+11:00"}, {"id": 78780, "name": "Mark R. Harris", "roles_in_work": [{"id": 2476110, "title": "Gods and monsters", "work_id": 88137, "role": "co-producer", "role_id": 915, "is_primary": true}], "also_known_as": "", "date_of_birth": "", "date_of_death": "", "genders": [], "languages": [], "places_of_operation": [], "biography": "", "biography_author": null, "date_of_biography": "2023-08-17T15:32:26.513057+10:00", "external_links": [], "uuid": "e80fc01f-7d4b-4230-bc44-16d4e795b1d7", "source": {"name": "Vernon", "slug": "vernon"}, "source_identifier": "24537", "external_references": [{"id": 41315, "source": {"name": "Wikidata", "slug": "wikidata"}, "source_identifier": "Q121036200"}], "date_modified": "2023-09-05T22:46:38.095091+10:00"}, {"id": 78779, "name": "Gregg Fienberg", "roles_in_work": [{"id": 2476109, "title": "Gods and monsters", "work_id": 88137, "role": "co-producer", "role_id": 915, "is_primary": true}, {"id": 2283272, "title": "Twin Peaks. Season one. Eps 5-7 [DVD]", "work_id": 94413, "role": "producer", "role_id": 1089, "is_primary": true}, {"id": 2283634, "title": "Twin Peaks. Season one. Ep. 7. Bonus features [DVD]", "work_id": 93073, "role": "producer", "role_id": 1089, "is_primary": true}, {"id": 2283647, "title": "Twin Peaks. Season one. Eps 1 and 2 [DVD]", "work_id": 92724, "role": "producer", "role_id": 1089, "is_primary": true}, {"id": 2283654, "title": "Twin Peaks. Season one. Eps 5 and 6 [DVD]", "work_id": 93072, "role": "producer", "role_id": 1089, "is_primary": true}, {"id": 2285756, "title": "Twin Peaks: fire walk with me", "work_id": 92353, "role": "producer", "role_id": 1089, "is_primary": true}, {"id": 2283258, "title": "Twin Peaks. Pilot. Season one. Eps 1-4 [DVD]", "work_id": 94412, "role": "producer", "role_id": 1089, "is_primary": true}], "also_known_as": "", "date_of_birth": "1960-09-12", "date_of_death": "", "genders": [{"id": 9, "name": "Male", "slug": "male"}], "languages": [], "places_of_operation": [{"id": 1, "name": "United States of America", "slug": "united-states-of-america"}], "biography": "Gregg Fienberg (born September 12, 1960) is an American television producer and director. He worked on the Western drama Deadwood in both capacities and received a Directors Guild of America Award and two Emmy Award nominations for the series. He was an Emmy nominated producer for the mystery series Twin Peaks. He was also the executive producer and unit production manager for the HBO series True Blood.", "biography_author": "Wikidata", "date_of_biography": "2023-09-05T20:22:33.110450+10:00", "external_links": [{"id": 4106, "uri": "https://en.wikipedia.org/wiki/Gregg_Fienberg"}], "uuid": "faf6f238-a45e-48d9-94de-d9d32eafdf40", "source": {"name": "Vernon", "slug": "vernon"}, "source_identifier": "20074", "external_references": [{"id": 25117, "source": {"name": "Wikidata", "slug": "wikidata"}, "source_identifier": "Q5606526"}, {"id": 28769, "source": {"name": "VIAF", "slug": "viaf"}, "source_identifier": "86460230"}, {"id": 28770, "source": {"name": "LOC Auth", "slug": "loc-auth"}, "source_identifier": "no2012040462"}, {"id": 28771, "source": {"name": "WorldCat", "slug": "worldcat"}, "source_identifier": "lccn-no2012040462"}], "date_modified": "2023-09-05T20:22:33.119423+10:00"}, {"id": 78778, "name": "Paul Colichman", "roles_in_work": [{"id": 2476108, "title": "Gods and monsters", "work_id": 88137, "role": "co-producer", "role_id": 915, "is_primary": true}], "also_known_as": "", "date_of_birth": "1962-01-01", "date_of_death": "", "genders": [{"id": 9, "name": "Male", "slug": "male"}], "languages": [], "places_of_operation": [], "biography": "Paul Colichman (born 1962) is an American media entrepreneur who founded the gay cable channel Here!. In 2008, John Waters nicknamed Colichman \"the gay Citizen Hearst.\" He is the CEO of Here Media, Inc. and has produced and/or distributed over 200 motion pictures and television series episodes, most notably Academy-award winning film Gods and Monsters, starring Ian McKellen, Brendan Fraser and Lynn Redgrave.", "biography_author": "Wikidata", "date_of_biography": "2023-09-05T23:45:09.350077+10:00", "external_links": [{"id": 2825, "uri": "https://en.wikipedia.org/wiki/Paul_Colichman"}], "uuid": "9f28e477-3c81-42bd-87ba-4a689c8a1b57", "source": {"name": "Vernon", "slug": "vernon"}, "source_identifier": "26193", "external_references": [{"id": 12031, "source": {"name": "Wikidata", "slug": "wikidata"}, "source_identifier": "Q7149902"}], "date_modified": "2023-09-05T23:45:09.360172+10:00"}, {"id": 78777, "name": "Penelope Everett", "roles_in_work": [{"id": 2298260, "title": "Shonky golf with Mick Molloy", "work_id": 88135, "role": "co-producer", "role_id": 915, "is_primary": true}], "also_known_as": "", "date_of_birth": "", "date_of_death": "", "genders": [], "languages": [], "places_of_operation": [], "biography": "", "biography_author": null, "date_of_biography": "2023-05-09T18:31:43.586818+10:00", "external_links": [], "uuid": "2b19c815-4e11-463f-a619-b95b04eb7797", "source": {"name": "Vernon", "slug": "vernon"}, "source_identifier": "26405", "external_references": [{"id": 37059, "source": {"name": "Wikidata", "slug": "wikidata"}, "source_identifier": "Q121036269"}], "date_modified": "2023-09-05T23:51:37.372123+10:00"}, {"id": 78776, "name": "Emma Moss", "roles_in_work": [{"id": 2298258, "title": "Shonky golf with Mick Molloy", "work_id": 88135, "role": "co-producer", "role_id": 915, "is_primary": true}], "also_known_as": "", "date_of_birth": "", "date_of_death": "", "genders": [], "languages": [], "places_of_operation": [], "biography": "", "biography_author": null, "date_of_biography": "2023-05-09T18:31:43.344129+10:00", "external_links": [], "uuid": "37d8cb43-850e-4453-a3db-52e1ed7bf2bd", "source": {"name": "Vernon", "slug": "vernon"}, "source_identifier": "18776", "external_references": [{"id": 42289, "source": {"name": "Wikidata", "slug": "wikidata"}, "source_identifier": "Q121126633"}], "date_modified": "2023-09-05T19:32:16.379949+10:00"}, {"id": 78775, "name": "Stephen Luby", "roles_in_work": [{"id": 2496431, "title": "Crackerjack", "work_id": 94287, "role": "co-producer", "role_id": 915, "is_primary": true}, {"id": 2298256, "title": "Shonky golf with Mick Molloy", "work_id": 88135, "role": "co-producer", "role_id": 915, "is_primary": true}], "also_known_as": "", "date_of_birth": "", "date_of_death": "", "genders": [], "languages": [], "places_of_operation": [], "biography": "", "biography_author": null, "date_of_biography": "2023-05-09T18:31:43.101132+10:00", "external_links": [], "uuid": "0443eadf-3a8b-4705-8401-32573f2f2d72", "source": {"name": "Vernon", "slug": "vernon"}, "source_identifier": "29058", "external_references": [{"id": 37149, "source": {"name": "Wikidata", "slug": "wikidata"}, "source_identifier": "Q121086083"}], "date_modified": "2023-09-06T08:56:36.921654+10:00"}, {"id": 78774, "name": "Aanya Whitehead", "roles_in_work": [{"id": 2343372, "title": "The Diaries of Vaslav Nijinsky", "work_id": 95194, "role": "co-producer", "role_id": 915, "is_primary": true}, {"id": 1932143, "title": "Urban clan", "work_id": 88128, "role": "co-producer", "role_id": 915, "is_primary": true}, {"id": 2171217, "title": "One night the moon [DVD]", "work_id": 93592, "role": "co-producer", "role_id": 915, "is_primary": true}], "also_known_as": "", "date_of_birth": "", "date_of_death": "", "genders": [], "languages": [], "places_of_operation": [], "biography": "", "biography_author": null, "date_of_biography": "2023-05-09T19:43:17.347161+10:00", "external_links": [], "uuid": "e68e35c7-0d88-47b9-b743-bd9b0e319299", "source": {"name": "Vernon", "slug": "vernon"}, "source_identifier": "14622", "external_references": [{"id": 41594, "source": {"name": "Wikidata", "slug": "wikidata"}, "source_identifier": "Q121036590"}], "date_modified": "2023-09-05T17:14:02.272555+10:00"}]}