{"count": 28682, "next": "https://api.acmi.net.au/creators/?page=2023", "previous": "https://api.acmi.net.au/creators/?page=2021", "results": [{"id": 22118, "name": "Canada Council", "roles_in_work": [{"id": 1984829, "title": "Family Viewing", "work_id": 80836, "role": "production company", "role_id": 941, "is_primary": true}, {"id": 905059, "title": "Gala", "work_id": 85826, "role": "production company", "role_id": 941, "is_primary": true}, {"id": 2077549, "title": "A Winter Tan", "work_id": 79671, "role": "production company", "role_id": 941, "is_primary": true}], "also_known_as": "", "date_of_birth": "", "date_of_death": "", "genders": [], "languages": [], "places_of_operation": [], "biography": "", "biography_author": null, "date_of_biography": "2023-05-09T11:43:01.093427+10:00", "external_links": [], "uuid": "6a8879b2-2ccd-4c87-b967-83345948e130", "source": {"name": "Vernon", "slug": "vernon"}, "source_identifier": "6238", "external_references": [], "date_modified": "2023-06-14T16:33:30.576250+10:00"}, {"id": 22115, "name": "Harold Young", "roles_in_work": [{"id": 1984266, "title": "The Scarlet Pimpernel", "work_id": 79669, "role": "director", "role_id": 938, "is_primary": true}, {"id": 2403218, "title": "The Hurdles", "work_id": 91267, "role": "director", "role_id": 938, "is_primary": true}, {"id": 910263, "title": "Discus", "work_id": 90960, "role": "co-director", "role_id": 959, "is_primary": true}, {"id": 2403201, "title": "High jump", "work_id": 90981, "role": "co-director", "role_id": 959, "is_primary": true}, {"id": 2403210, "title": "Relays", "work_id": 91301, "role": "co-director", "role_id": 959, "is_primary": true}, {"id": 910258, "title": "Distances", "work_id": 90956, "role": "co-director", "role_id": 959, "is_primary": true}, {"id": 2403214, "title": "The Sprints", "work_id": 91345, "role": "co-director", "role_id": 959, "is_primary": true}], "also_known_as": "", "date_of_birth": "1897-11-13", "date_of_death": "1972-03-03", "genders": [{"id": 9, "name": "Male", "slug": "male"}], "languages": [], "places_of_operation": [{"id": 1, "name": "United States of America", "slug": "united-states-of-america"}], "biography": "Harold Young (November 13, 1897 – March 3, 1972) was an American film director, editor, and occasional actor.", "biography_author": "Wikidata", "date_of_biography": "2023-08-01T15:08:16.993779+10:00", "external_links": [{"id": 4135, "uri": "https://en.wikipedia.org/wiki/Harold_Young_(director)"}, {"id": 5645, "uri": "https://en.wikipedia.org/wiki/Harold_Young_(filmmaker)"}], "uuid": "24854641-3ee3-4920-bda6-7984aa61f001", "source": {"name": "Vernon", "slug": "vernon"}, "source_identifier": "20289", "external_references": [{"id": 26069, "source": {"name": "Wikidata", "slug": "wikidata"}, "source_identifier": "Q3127658"}, {"id": 28849, "source": {"name": "VIAF", "slug": "viaf"}, "source_identifier": "69131916"}, {"id": 28850, "source": {"name": "LOC Auth", "slug": "loc-auth"}, "source_identifier": "no89011755"}, {"id": 28851, "source": {"name": "WorldCat", "slug": "worldcat"}, "source_identifier": "lccn-no89011755"}], "date_modified": "2023-09-13T12:29:50.883096+10:00"}, {"id": 22114, "name": "Lex Marinos", "roles_in_work": [{"id": 2089050, "title": "An Indecent obsession", "work_id": 79668, "role": "director", "role_id": 938, "is_primary": true}, {"id": 866160, "title": "Boundaries of the heart", "work_id": 81000, "role": "director", "role_id": 938, "is_primary": true}], "also_known_as": "", "date_of_birth": "1949-02-01", "date_of_death": null, "genders": [{"id": 9, "name": "Male", "slug": "male"}], "languages": [], "places_of_operation": [{"id": 3, "name": "Australia", "slug": "australia"}], "biography": "Alexander Francis Marinos  (born 1 February 1949) is an Australian actor. Notable for his acting role as Bruno, the Italian son-in-law of Ted Bullpitt, on the 1980s Australian comedy television series Kingswood Country and as host of Late Night Legends on ABC2, he was also a presenter on radio station Double Jay (2JJ, now Triple J) in the late 1970s with Ted Robinson.\n\n", "biography_author": "Wikidata", "date_of_biography": "2022-05-19T12:16:07.223406+10:00", "external_links": [{"id": 2580, "uri": "https://en.wikipedia.org/wiki/Lex_Marinos"}], "uuid": "2ea64870-6fd7-4425-83d5-c00590f337da", "source": {"name": "Vernon", "slug": "vernon"}, "source_identifier": "23821", "external_references": [{"id": 11020, "source": {"name": "Wikidata", "slug": "wikidata"}, "source_identifier": "Q6537578"}, {"id": 11021, "source": {"name": "VIAF", "slug": "viaf"}, "source_identifier": "272126430"}, {"id": 11022, "source": {"name": "WorldCat", "slug": "worldcat"}, "source_identifier": "viaf-272126430"}], "date_modified": "2023-09-13T12:31:00.722825+10:00"}, {"id": 22113, "name": "Ian Bradley", "roles_in_work": [{"id": 2351999, "title": "The Great Bookie Robbery", "work_id": 95117, "role": "producer", "role_id": 1089, "is_primary": true}, {"id": 2089048, "title": "An Indecent obsession", "work_id": 79668, "role": "producer", "role_id": 1089, "is_primary": true}], "also_known_as": "", "date_of_birth": "", "date_of_death": "", "genders": [], "languages": [], "places_of_operation": [], "biography": "", "biography_author": null, "date_of_biography": "2023-05-09T19:57:47.062951+10:00", "external_links": [], "uuid": "46e1ffb6-b27c-441e-aca8-104567990d79", "source": {"name": "Vernon", "slug": "vernon"}, "source_identifier": "20741", "external_references": [{"id": 43297, "source": {"name": "Wikidata", "slug": "wikidata"}, "source_identifier": "Q121126542"}], "date_modified": "2023-09-05T20:45:41.626792+10:00"}, {"id": 22111, "name": "Robert Daley", "roles_in_work": [{"id": 1987724, "title": "The Outlaw Josey Wales", "work_id": 83881, "role": "producer", "role_id": 1089, "is_primary": true}, {"id": 2350386, "title": "The Gauntlet", "work_id": 84664, "role": "producer", "role_id": 1089, "is_primary": true}, {"id": 1993010, "title": "Magnum force", "work_id": 88500, "role": "producer", "role_id": 1089, "is_primary": true}, {"id": 1996764, "title": "Play misty for me [DVD]", "work_id": 92851, "role": "producer", "role_id": 1089, "is_primary": true}, {"id": 1989028, "title": "Thunderbolt and Lightfoot", "work_id": 85011, "role": "producer", "role_id": 1089, "is_primary": true}], "also_known_as": "", "date_of_birth": null, "date_of_death": "2016-07-02", "genders": [{"id": 9, "name": "Male", "slug": "male"}], "languages": [], "places_of_operation": [{"id": 1, "name": "United States of America", "slug": "united-states-of-america"}], "biography": "Robert Daley was an American film producer and former assistant director.", "biography_author": "Wikidata", "date_of_biography": "2022-05-19T12:52:37.157496+10:00", "external_links": [{"id": 2968, "uri": "https://en.wikipedia.org/wiki/Robert_Daley_(producer)"}], "uuid": "910c355c-58ba-452f-9156-9ba9d1562c63", "source": {"name": "Vernon", "slug": "vernon"}, "source_identifier": "27689", "external_references": [{"id": 12608, "source": {"name": "Wikidata", "slug": "wikidata"}, "source_identifier": "Q7343365"}, {"id": 50528, "source": {"name": "VIAF", "slug": "viaf"}, "source_identifier": "202023053"}, {"id": 50529, "source": {"name": "LOC Auth", "slug": "loc-auth"}, "source_identifier": "no2015141778"}, {"id": 50530, "source": {"name": "WorldCat", "slug": "worldcat"}, "source_identifier": "lccn-no2015141778"}], "date_modified": "2023-09-13T12:32:17.591767+10:00"}, {"id": 22109, "name": "Malpaso Company", "roles_in_work": [{"id": 2350383, "title": "The Gauntlet", "work_id": 84664, "role": "production company", "role_id": 941, "is_primary": true}, {"id": 2185808, "title": "Pale rider", "work_id": 84645, "role": "production company", "role_id": 941, "is_primary": true}, {"id": 2078727, "title": "Absolute power", "work_id": 94815, "role": "production company", "role_id": 941, "is_primary": true}, {"id": 1989027, "title": "Thunderbolt and Lightfoot", "work_id": 85011, "role": "production company", "role_id": 941, "is_primary": true}, {"id": 1999937, "title": "Mystic river", "work_id": 94847, "role": "production company", "role_id": 941, "is_primary": true}, {"id": 1993044, "title": "Unforgiven [Widescreen]", "work_id": 88510, "role": "production company", "role_id": 941, "is_primary": true}, {"id": 1996763, "title": "Play misty for me [DVD]", "work_id": 92851, "role": "production company", "role_id": 941, "is_primary": true}, {"id": 1992888, "title": "Heartbreak ridge", "work_id": 88456, "role": "production company", "role_id": 941, "is_primary": true}, {"id": 2335278, "title": "The Bridges of Madison County", "work_id": 85541, "role": "production company", "role_id": 941, "is_primary": true}, {"id": 1987723, "title": "The Outlaw Josey Wales", "work_id": 83881, "role": "production company", "role_id": 941, "is_primary": true}, {"id": 1988064, "title": "Unforgiven", "work_id": 84257, "role": "production company", "role_id": 941, "is_primary": true}, {"id": 2193965, "title": "Dirty Harry", "work_id": 84577, "role": "production company", "role_id": 941, "is_primary": true}, {"id": 2306632, "title": "Space cowboys", "work_id": 92728, "role": "production company", "role_id": 941, "is_primary": true}], "also_known_as": "", "date_of_birth": "", "date_of_death": "", "genders": [], "languages": [], "places_of_operation": [], "biography": "", "biography_author": null, "date_of_biography": "2023-05-09T19:55:02.749134+10:00", "external_links": [], "uuid": "a7c3e67d-999c-4b2d-8d11-2c654396e715", "source": {"name": "Vernon", "slug": "vernon"}, "source_identifier": "4696", "external_references": [{"id": 34510, "source": {"name": "Wikidata", "slug": "wikidata"}, "source_identifier": "Q121057923"}], "date_modified": "2023-09-05T22:38:02.194628+10:00"}, {"id": 22104, "name": "John Cromwell", "roles_in_work": [{"id": 902068, "title": "Of human bondage. Rain", "work_id": 82812, "role": "co-director", "role_id": 959, "is_primary": true}], "also_known_as": "", "date_of_birth": "1887-12-23", "date_of_death": "1979-09-26", "genders": [{"id": 9, "name": "Male", "slug": "male"}], "languages": [{"id": 1, "name": "English", "slug": "english"}], "places_of_operation": [{"id": 1, "name": "United States of America", "slug": "united-states-of-america"}], "biography": "John Cromwell (born Elwood Dager; December 23, 1886 – September 26, 1979) was an American film and stage director and actor. His films spanned the early days of sound to film noir in the early 1950s, by which time his directing career was almost terminated by the Hollywood blacklist.", "biography_author": "Wikidata", "date_of_biography": "2022-05-19T12:01:02.178376+10:00", "external_links": [{"id": 2413, "uri": "https://en.wikipedia.org/wiki/John_Cromwell_(director)"}], "uuid": "dd97d7e1-1c4e-46e5-9adf-082555a6e8d7", "source": {"name": "Vernon", "slug": "vernon"}, "source_identifier": "4498", "external_references": [{"id": 10330, "source": {"name": "Wikidata", "slug": "wikidata"}, "source_identifier": "Q1348309"}, {"id": 10331, "source": {"name": "VIAF", "slug": "viaf"}, "source_identifier": "120302261"}, {"id": 10332, "source": {"name": "LOC Auth", "slug": "loc-auth"}, "source_identifier": "n85085841"}, {"id": 10333, "source": {"name": "WorldCat", "slug": "worldcat"}, "source_identifier": "lccn-n85085841"}], "date_modified": "2023-09-13T12:30:31.325752+10:00"}, {"id": 22101, "name": "Paul Jay", "roles_in_work": [{"id": 2402661, "title": "Birth of language (TEFC)", "work_id": 79653, "role": "director", "role_id": 938, "is_primary": true}], "also_known_as": "", "date_of_birth": "", "date_of_death": "", "genders": [], "languages": [], "places_of_operation": [], "biography": "", "biography_author": null, "date_of_biography": "2023-08-11T14:51:39.425037+10:00", "external_links": [], "uuid": "bff97aef-c352-48ee-9a13-78abc291de6a", "source": {"name": "Vernon", "slug": "vernon"}, "source_identifier": "26254", "external_references": [], "date_modified": "2023-08-11T14:51:39.425274+10:00"}, {"id": 22100, "name": "High Road Productions Inc", "roles_in_work": [{"id": 2402660, "title": "Birth of language (TEFC)", "work_id": 79653, "role": "production company", "role_id": 941, "is_primary": true}], "also_known_as": "", "date_of_birth": "", "date_of_death": "", "genders": [], "languages": [], "places_of_operation": [], "biography": "", "biography_author": null, "date_of_biography": "2023-08-11T14:51:38.804229+10:00", "external_links": [], "uuid": "73e63ccb-e6e9-4311-adb8-8c495c2c4f44", "source": {"name": "Vernon", "slug": "vernon"}, "source_identifier": "9095", "external_references": [], "date_modified": "2023-08-11T14:51:38.804477+10:00"}, {"id": 22099, "name": "Eric Hill", "roles_in_work": [{"id": 2307960, "title": "Spots First Video", "work_id": 79647, "role": "producer", "role_id": 1089, "is_primary": true}, {"id": 2307875, "title": "Spot's First Video (Captioned)", "work_id": 79714, "role": "producer", "role_id": 1089, "is_primary": true}], "also_known_as": "", "date_of_birth": "", "date_of_death": "", "genders": [], "languages": [], "places_of_operation": [], "biography": "", "biography_author": null, "date_of_biography": "2023-05-09T18:47:59.090522+10:00", "external_links": [], "uuid": "5c96927d-fc8a-4c37-bb63-d7e2aa8c8f23", "source": {"name": "Vernon", "slug": "vernon"}, "source_identifier": "18810", "external_references": [{"id": 33144, "source": {"name": "Wikidata", "slug": "wikidata"}, "source_identifier": "Q121035062"}], "date_modified": "2023-09-05T19:34:30.503494+10:00"}]}