{"count": 28687, "next": "https://api.acmi.net.au/creators/?page=247", "previous": "https://api.acmi.net.au/creators/?page=245", "results": [{"id": 83147, "name": "Jean-Francois Adam", "roles_in_work": [{"id": 3104822, "title": "M Comme Mathieu = M as in Mathieu", "work_id": 116099, "role": "director", "role_id": 938, "is_primary": true}], "also_known_as": "Jean-Francois Albert Hermant Abraham-Adam", "date_of_birth": "1938-02-14", "date_of_death": "1980-10-14", "genders": [{"id": 9, "name": "Male", "slug": "male"}], "languages": [{"id": 4, "name": "French", "slug": "french"}], "places_of_operation": [{"id": 17, "name": "France", "slug": "france"}], "biography": "Jean-François Adam (1935 or 1936 –  14 October 1980) was a French actor and director.", "biography_author": "Wikidata", "date_of_biography": "2023-09-05T21:11:18.008837+10:00", "external_links": [{"id": 5899, "uri": "https://en.wikipedia.org/wiki/Jean-Fran%C3%A7ois_Adam"}], "uuid": "ff22ad4f-d92e-455f-be03-46bc71fb69a4", "source": {"name": "Vernon", "slug": "vernon"}, "source_identifier": "31176", "external_references": [{"id": 43473, "source": {"name": "Wikidata", "slug": "wikidata"}, "source_identifier": "Q3165423"}, {"id": 54774, "source": {"name": "VIAF", "slug": "viaf"}, "source_identifier": "204131"}, {"id": 54775, "source": {"name": "LOC Auth", "slug": "loc-auth"}, "source_identifier": "no2011076862"}, {"id": 54776, "source": {"name": "WorldCat", "slug": "worldcat"}, "source_identifier": "lccn-no2011076862"}], "date_modified": "2025-05-22T22:50:24.191771+10:00"}, {"id": 83146, "name": "Bob Zagury", "roles_in_work": [{"id": 3104821, "title": "M Comme Mathieu = M as in Mathieu", "work_id": 116099, "role": "producer", "role_id": 1089, "is_primary": true}], "also_known_as": "", "date_of_birth": "", "date_of_death": "", "genders": [], "languages": [], "places_of_operation": [], "biography": "", "biography_author": null, "date_of_biography": "2023-08-11T19:38:01.727372+10:00", "external_links": [], "uuid": "e9cd5a87-6037-41af-9f5a-206ad2a581fe", "source": {"name": "Vernon", "slug": "vernon"}, "source_identifier": "31175", "external_references": [{"id": 38822, "source": {"name": "Wikidata", "slug": "wikidata"}, "source_identifier": "Q121337739"}], "date_modified": "2025-05-22T22:50:23.580447+10:00"}, {"id": 83145, "name": "Alain Jessua", "roles_in_work": [{"id": 3104820, "title": "En Toute Innocence = No Harm Intended", "work_id": 116098, "role": "director", "role_id": 938, "is_primary": true}, {"id": 3105183, "title": "La Vie a L'envers = Life Upside Down", "work_id": 116289, "role": "director", "role_id": 938, "is_primary": true}], "also_known_as": "Alain Rene Sando Jessua", "date_of_birth": "16 JAN 1932", "date_of_death": "30 NOV 2017", "genders": [{"id": 9, "name": "Male", "slug": "male"}], "languages": [{"id": 4, "name": "French", "slug": "french"}], "places_of_operation": [{"id": 17, "name": "France", "slug": "france"}], "biography": "Alain Jessua (16 January 1932 – 30 November 2017) was a French film director and screenwriter. He directed ten films between 1956 and 1997. He worked as assistant director for Jacques Becker on the set of Casque d'or, with Max Ophüls for Madame de... and Lola Montès and with Marcel Carné on Wasteland. Léon la lune his first short film won the influential Prix Jean Vigo in 1957. He directed first feature film in 1963 La vie à l'envers that won Best First Film at Venice Film Festival, in 1964.\n\nHis 1967 film Jeu de massacre was entered into the 1967 Cannes Film Festival, where it won the award for Best Screenplay. His 1979 film The Dogs was entered into the 11th Moscow International Film Festival. In 1984 Alain Jessua directed Frankenstein 90, inspired by Mary Shelley's book, with Eddy Mitchell in the role of the creature. Source: Wikidata; 01/08/2023", "biography_author": null, "date_of_biography": "2025-05-22T23:00:10.534543+10:00", "external_links": [{"id": 3494, "uri": "https://en.wikipedia.org/wiki/Alain_Jessua"}], "uuid": "d2c0c413-4df7-4f99-ab39-64a691732b7a", "source": {"name": "Vernon", "slug": "vernon"}, "source_identifier": "31174", "external_references": [{"id": 25478, "source": {"name": "Wikidata", "slug": "wikidata"}, "source_identifier": "Q476825"}, {"id": 27113, "source": {"name": "VIAF", "slug": "viaf"}, "source_identifier": "39562198"}, {"id": 27114, "source": {"name": "LOC Auth", "slug": "loc-auth"}, "source_identifier": "no96052807"}, {"id": 27115, "source": {"name": "WorldCat", "slug": "worldcat"}, "source_identifier": "lccn-no96052807"}], "date_modified": "2025-05-22T23:00:10.534807+10:00"}, {"id": 83144, "name": "Louis Duchesne", "roles_in_work": [{"id": 3104926, "title": "Tu Seras Terriblement Gentille = You'll Be Awfully Nice", "work_id": 116152, "role": "producer", "role_id": 1089, "is_primary": true}, {"id": 3104819, "title": "En Toute Innocence = No Harm Intended", "work_id": 116098, "role": "producer", "role_id": 1089, "is_primary": true}], "also_known_as": "Louis Joseph Duchesne", "date_of_birth": "1926-03-28", "date_of_death": "2001-08-27", "genders": [{"id": 9, "name": "Male", "slug": "male"}], "languages": [{"id": 4, "name": "French", "slug": "french"}], "places_of_operation": [{"id": 17, "name": "France", "slug": "france"}], "biography": "", "biography_author": null, "date_of_biography": "2023-05-09T16:12:38.982672+10:00", "external_links": [], "uuid": "451e9134-5960-487e-8571-9291bab040f6", "source": {"name": "Vernon", "slug": "vernon"}, "source_identifier": "31173", "external_references": [{"id": 32856, "source": {"name": "Wikidata", "slug": "wikidata"}, "source_identifier": "Q21634478"}, {"id": 55093, "source": {"name": "VIAF", "slug": "viaf"}, "source_identifier": "44048242"}, {"id": 55094, "source": {"name": "LOC Auth", "slug": "loc-auth"}, "source_identifier": "no2006027005"}, {"id": 55095, "source": {"name": "WorldCat", "slug": "worldcat"}, "source_identifier": "lccn-no2006027005"}], "date_modified": "2025-05-22T22:51:36.632285+10:00"}, {"id": 83143, "name": "Merzak Allouache", "roles_in_work": [{"id": 3104818, "title": "Un Amour a Paris = a Romance in Paris", "work_id": 116097, "role": "director", "role_id": 938, "is_primary": true}], "also_known_as": "", "date_of_birth": "06 OCT 1944", "date_of_death": "", "genders": [{"id": 9, "name": "Male", "slug": "male"}], "languages": [{"id": 4, "name": "French", "slug": "french"}], "places_of_operation": [{"id": 215, "name": "Algeria", "slug": "algeria"}], "biography": "Merzak Allouache (born 6 October 1944) is an Algerian film director and screenwriter. His 1976 film Omar Gatlato was later entered into the 10th Moscow International Film Festival where it won the Silver Prize. His 1996 Salut cousin! was submitted to the 69th Academy Awards in the category of Best Foreign Language Film. He is one of the most influential Algerian filmmakers, considered by some to be the most important.  He is the only Algerian filmmaker who devoted most, if not all, of his cinematic work to his native country. Source: Wikidata; 15/08/2023", "biography_author": null, "date_of_biography": "2025-05-22T22:50:21.127792+10:00", "external_links": [{"id": 4674, "uri": "https://en.wikipedia.org/wiki/Merzak_Allouache"}], "uuid": "989aaf93-d007-4318-afc9-cab2c33cf39d", "source": {"name": "Vernon", "slug": "vernon"}, "source_identifier": "31172", "external_references": [{"id": 25045, "source": {"name": "Wikidata", "slug": "wikidata"}, "source_identifier": "Q1624921"}, {"id": 30274, "source": {"name": "VIAF", "slug": "viaf"}, "source_identifier": "73951322"}, {"id": 30275, "source": {"name": "LOC Auth", "slug": "loc-auth"}, "source_identifier": "n91001749"}, {"id": 30276, "source": {"name": "WorldCat", "slug": "worldcat"}, "source_identifier": "lccn-n91001749"}], "date_modified": "2025-05-22T22:50:21.128133+10:00"}, {"id": 83142, "name": "Philippe Diaz", "roles_in_work": [{"id": 3104814, "title": "Mauvais Sang = Bad Blood", "work_id": 116095, "role": "producer", "role_id": 1089, "is_primary": true}], "also_known_as": "", "date_of_birth": "", "date_of_death": "", "genders": [{"id": 9, "name": "Male", "slug": "male"}], "languages": [], "places_of_operation": [], "biography": "Philippe Diaz, is a French filmmaker and producer. He is best known as the director of critically acclaimed films The Empire in Africa, New World Order: Somewhere in Africa and Now & Later.", "biography_author": "Wikidata", "date_of_biography": "2023-09-06T00:06:02.874188+10:00", "external_links": [{"id": 6107, "uri": "https://en.wikipedia.org/wiki/Philippe_Diaz"}], "uuid": "ca2c8b30-da26-47d5-a2e6-398def5520c6", "source": {"name": "Vernon", "slug": "vernon"}, "source_identifier": "31171", "external_references": [{"id": 41243, "source": {"name": "Wikidata", "slug": "wikidata"}, "source_identifier": "Q3379795"}], "date_modified": "2025-05-22T22:50:18.014927+10:00"}, {"id": 83141, "name": "Andre Delvaux", "roles_in_work": [{"id": 3104811, "title": "Rendez-Vous a Bray = Meeting in Bray", "work_id": 116093, "role": "director", "role_id": 938, "is_primary": true}], "also_known_as": "", "date_of_birth": "21 MAR 1926", "date_of_death": "04 OCT 2002", "genders": [{"id": 9, "name": "Male", "slug": "male"}], "languages": [{"id": 38, "name": "Dutch", "slug": "dutch"}, {"id": 4, "name": "French", "slug": "french"}], "places_of_operation": [{"id": 37, "name": "Belgium", "slug": "belgium"}], "biography": "André Albert Auguste Delvaux (French: [dɛlvo]; 21 March 1926 – 4 October 2002) was a Belgian film director. He co-founded the film school INSAS in 1962 and is regarded as the founder of the Belgian national cinema. Adapting works by writers such as Johan Daisne, Julien Gracq and Marguerite Yourcenar, he received international attention for directing magic realist films.\n\nDelvaux received the Louis Delluc Prize for Rendezvous at Bray (1971) and the André Cavens Award for Woman Between Wolf and Dog (1979) and The Abyss (1988). The king of Belgium made him a baron in 1996. The Académie André Delvaux is named after him and he posthumously received the first Honorary Magritte Award in 2011. Source: Wikidata; 01/08/2023", "biography_author": null, "date_of_biography": "2025-05-22T22:50:16.271388+10:00", "external_links": [{"id": 1633, "uri": "https://en.wikipedia.org/wiki/Andr%C3%A9_Delvaux"}], "uuid": "d1738d9c-fb43-445b-96cf-a0cb0b4ffeaf", "source": {"name": "Vernon", "slug": "vernon"}, "source_identifier": "31169", "external_references": [{"id": 7136, "source": {"name": "Wikidata", "slug": "wikidata"}, "source_identifier": "Q518295"}, {"id": 7137, "source": {"name": "VIAF", "slug": "viaf"}, "source_identifier": "12345499"}, {"id": 7138, "source": {"name": "LOC Auth", "slug": "loc-auth"}, "source_identifier": "n87801693"}, {"id": 7139, "source": {"name": "WorldCat", "slug": "worldcat"}, "source_identifier": "lccn-n87801693"}], "date_modified": "2025-05-22T22:50:16.271681+10:00"}, {"id": 83140, "name": "Philippe Condroyer", "roles_in_work": [{"id": 3105435, "title": "Autopsie D'un Temoignage = Autopsy of a Witness", "work_id": 116448, "role": "director", "role_id": 938, "is_primary": true}, {"id": 3104806, "title": "Tintin et les Oranges Bleues", "work_id": 116090, "role": "director", "role_id": 938, "is_primary": true}, {"id": 3105429, "title": "Le Feu = the Fire", "work_id": 116445, "role": "director", "role_id": 938, "is_primary": true}], "also_known_as": "Philippe Gilles Condroyer", "date_of_birth": "1927-05-03", "date_of_death": "2017-11-05", "genders": [{"id": 9, "name": "Male", "slug": "male"}], "languages": [{"id": 4, "name": "French", "slug": "french"}], "places_of_operation": [{"id": 17, "name": "France", "slug": "france"}], "biography": "", "biography_author": null, "date_of_biography": "2023-05-09T17:38:24.242511+10:00", "external_links": [], "uuid": "ac5c8890-7dc4-4f25-bfdf-268a5da6c75f", "source": {"name": "Vernon", "slug": "vernon"}, "source_identifier": "31167", "external_references": [{"id": 37766, "source": {"name": "Wikidata", "slug": "wikidata"}, "source_identifier": "Q665608"}, {"id": 55517, "source": {"name": "VIAF", "slug": "viaf"}, "source_identifier": "12024481"}, {"id": 55518, "source": {"name": "LOC Auth", "slug": "loc-auth"}, "source_identifier": "no2004091876"}, {"id": 55519, "source": {"name": "WorldCat", "slug": "worldcat"}, "source_identifier": "lccn-no2004091876"}], "date_modified": "2025-05-22T23:06:09.400877+10:00"}, {"id": 83139, "name": "Ralph Habib", "roles_in_work": [{"id": 3104805, "title": "Escapade", "work_id": 116089, "role": "director", "role_id": 938, "is_primary": true}], "also_known_as": "", "date_of_birth": "29 JUN 1912", "date_of_death": "27 JUN 1969", "genders": [{"id": 9, "name": "Male", "slug": "male"}], "languages": [{"id": 4, "name": "French", "slug": "french"}], "places_of_operation": [{"id": 17, "name": "France", "slug": "france"}], "biography": "Ralph Habib (Paris, 29 June 1912 – Paris, 27 June 1969) was a French film director of Lebanese origin. He started his film career with Pathé. He later worked as assistant director notably Jean Dréville and Jean-Paul Le Chanois before directing his own films. Source: Wikidata; 01/08/2023", "biography_author": null, "date_of_biography": "2025-05-22T22:50:11.375361+10:00", "external_links": [{"id": 2905, "uri": "https://en.wikipedia.org/wiki/Ralph_Habib"}], "uuid": "ca070270-4d2b-45c3-a7b4-8e5e79a1b2f0", "source": {"name": "Vernon", "slug": "vernon"}, "source_identifier": "31166", "external_references": [{"id": 12354, "source": {"name": "Wikidata", "slug": "wikidata"}, "source_identifier": "Q2129634"}, {"id": 12355, "source": {"name": "VIAF", "slug": "viaf"}, "source_identifier": "34718002"}, {"id": 12356, "source": {"name": "LOC Auth", "slug": "loc-auth"}, "source_identifier": "no2012025839"}, {"id": 12357, "source": {"name": "WorldCat", "slug": "worldcat"}, "source_identifier": "lccn-no2012025839"}], "date_modified": "2025-05-22T22:50:11.375600+10:00"}, {"id": 83138, "name": "Armand Barbault", "roles_in_work": [{"id": 3104799, "title": "Vivement Dimanche! = Confidentially Yours!", "work_id": 116087, "role": "producer", "role_id": 1089, "is_primary": true}], "also_known_as": "", "date_of_birth": null, "date_of_death": null, "genders": [], "languages": [], "places_of_operation": [], "biography": "", "biography_author": null, "date_of_biography": null, "external_links": [], "uuid": "9688cb31-9a83-44d6-ad76-ffddc6decebe", "source": {"name": "Vernon", "slug": "vernon"}, "source_identifier": "31165", "external_references": [{"id": 37337, "source": {"name": "Wikidata", "slug": "wikidata"}, "source_identifier": "Q121035596"}], "date_modified": "2025-05-22T22:50:07.168313+10:00"}]}