{"count": 28682, "next": "https://api.acmi.net.au/creators/?page=2448", "previous": "https://api.acmi.net.au/creators/?page=2446", "results": [{"id": 14561, "name": "Leslie Woodhead", "roles_in_work": [{"id": 2770473, "title": "The Dumping grounds", "work_id": 66967, "role": "producer", "role_id": 1089, "is_primary": true}, {"id": 2767695, "title": "The Lau of Malaita", "work_id": 81104, "role": "producer/director", "role_id": 31, "is_primary": true}, {"id": 2767689, "title": "The Wodaabe", "work_id": 81067, "role": "producer/director", "role_id": 31, "is_primary": true}], "also_known_as": "", "date_of_birth": null, "date_of_death": "", "genders": [{"id": 9, "name": "Male", "slug": "male"}], "languages": [{"id": 1, "name": "English", "slug": "english"}], "places_of_operation": [{"id": 10, "name": "United Kingdom", "slug": "united-kingdom"}], "biography": "James Leslie John Woodhead, OBE (born 1937) is a British documentary filmmaker.\n\nFor his National Service commencing in 1956, he served in Fife at the Joint Services School for Linguists where he was taught Russian. He was posted to West Berlin to monitor the communications of Soviet pilots flying in and out of East Germany. \"The experience I've come to realise since that it shaped my continuing obsession with what was going on in eastern Europe and particularly the Iron Curtain at that time.\"As a young filmmaker, he was assigned to film a new rock 'n' roll band called The Beatles, playing at the Cavern Club in Liverpool. Woodhead first made his name as a reporter for Granada Television's flagship current affairs series World in Action. He remained with Granada for 28 years. Woodhead was among the first exponents of docudrama, a format which allowed him to explore daily life of those \"behind the wall\" during the Cold War, when journalists had little direct access. Among these were his films Invasion, about Soviet invasion and the Prague Spring of 1968, and Strike which deals with the rise of  Solidarność in Poland. In 1999 his documentary film A Cry From The Grave, which documents, hour by hour, the atrocities of the Srebrenica massacre, won awards at four film festivals.\n\nWoodhead went freelance in 1989. Since then, he has made a number of films for BBC's Storyville and Arena series – among them My Life as a Spy, Star Wars Dreams (a history of the American missile defence program). He has also worked with the Sundance channel, making Godless in America, a documentary about the life of Madalyn Murray O'Hair who founded American Atheists and successfully campaigned for the separation of church and state. He was appointed an OBE for services to television in 1994. In 2006, he was nominated for an Emmy for his HBO documentary Children of Beslan about the Beslan school hostage crisis.; 14/08/2023", "biography_author": null, "date_of_biography": "2025-03-14T18:19:22.426502+11:00", "external_links": [{"id": 4543, "uri": "https://en.wikipedia.org/wiki/Leslie_Woodhead"}], "uuid": "2b0b44fc-7672-46e0-840b-945ae4536d60", "source": {"name": "Vernon", "slug": "vernon"}, "source_identifier": "23789", "external_references": [{"id": 26266, "source": {"name": "Wikidata", "slug": "wikidata"}, "source_identifier": "Q6531252"}, {"id": 29928, "source": {"name": "VIAF", "slug": "viaf"}, "source_identifier": "14981490"}, {"id": 29929, "source": {"name": "LOC Auth", "slug": "loc-auth"}, "source_identifier": "nr88005262"}, {"id": 29930, "source": {"name": "WorldCat", "slug": "worldcat"}, "source_identifier": "lccn-nr88005262"}], "date_modified": "2025-03-14T18:19:22.426704+11:00"}, {"id": 14560, "name": "Sydney G Stiber", "roles_in_work": [{"id": 2712502, "title": "Duke Ellington at the White House", "work_id": 66966, "role": "production company", "role_id": 941, "is_primary": true}], "also_known_as": "", "date_of_birth": "", "date_of_death": "", "genders": [], "languages": [], "places_of_operation": [], "biography": "", "biography_author": null, "date_of_biography": "2023-08-11T16:15:22.282119+10:00", "external_links": [], "uuid": "b0117cae-54cc-4e29-936f-f3b57a5daf91", "source": {"name": "Vernon", "slug": "vernon"}, "source_identifier": "29415", "external_references": [], "date_modified": "2025-03-12T00:23:37.461859+11:00"}, {"id": 14557, "name": "Minnesota Museum of Natural History", "roles_in_work": [{"id": 2712490, "title": "Duck hunter's dilemma", "work_id": 66962, "role": "production company", "role_id": 941, "is_primary": true}], "also_known_as": "", "date_of_birth": null, "date_of_death": null, "genders": [], "languages": [], "places_of_operation": [], "biography": "", "biography_author": null, "date_of_biography": null, "external_links": [], "uuid": "3c829694-c186-4053-ad97-2d01245fba7a", "source": {"name": "Vernon", "slug": "vernon"}, "source_identifier": "10567", "external_references": [], "date_modified": "2025-03-12T00:23:23.587262+11:00"}, {"id": 14556, "name": "A R Taylor", "roles_in_work": [{"id": 2712478, "title": "Drums for a holiday", "work_id": 66958, "role": "director", "role_id": 938, "is_primary": true}], "also_known_as": "", "date_of_birth": null, "date_of_death": null, "genders": [], "languages": [], "places_of_operation": [], "biography": "", "biography_author": null, "date_of_biography": null, "external_links": [], "uuid": "c0ca1dc2-c40d-44ca-a76a-b8fd6c540590", "source": {"name": "Vernon", "slug": "vernon"}, "source_identifier": "14609", "external_references": [], "date_modified": "2025-03-12T00:23:06.674072+11:00"}, {"id": 14555, "name": "Peter Stiles", "roles_in_work": [{"id": 2712477, "title": "Drums for a holiday", "work_id": 66958, "role": "producer", "role_id": 1089, "is_primary": true}], "also_known_as": "", "date_of_birth": null, "date_of_death": null, "genders": [], "languages": [], "places_of_operation": [], "biography": "", "biography_author": null, "date_of_biography": null, "external_links": [], "uuid": "bc6d3530-9444-44e4-a1eb-a8ebe8e35171", "source": {"name": "Vernon", "slug": "vernon"}, "source_identifier": "26725", "external_references": [], "date_modified": "2025-03-12T00:23:06.083823+11:00"}, {"id": 14553, "name": "Focus Films", "roles_in_work": [{"id": 2752776, "title": "Democratic curriculum", "work_id": 98452, "role": "production company", "role_id": 941, "is_primary": true}, {"id": 2712469, "title": "Drugs, use or abuse", "work_id": 66956, "role": "production company", "role_id": 941, "is_primary": true}, {"id": 826407, "title": "Rabbits", "work_id": 96331, "role": "production company", "role_id": 941, "is_primary": true}], "also_known_as": "", "date_of_birth": null, "date_of_death": null, "genders": [], "languages": [], "places_of_operation": [], "biography": "", "biography_author": null, "date_of_biography": null, "external_links": [], "uuid": "0ca77e63-82fe-4878-a509-997f3165348d", "source": {"name": "Vernon", "slug": "vernon"}, "source_identifier": "8420", "external_references": [], "date_modified": "2025-03-13T01:11:34.473265+11:00"}, {"id": 14551, "name": "Pantel films", "roles_in_work": [{"id": 2712467, "title": "Drugs - better dead?", "work_id": 66954, "role": "production company", "role_id": 941, "is_primary": true}], "also_known_as": "", "date_of_birth": "", "date_of_death": "", "genders": [], "languages": [], "places_of_operation": [], "biography": "", "biography_author": null, "date_of_biography": "2023-05-09T15:46:40.017820+10:00", "external_links": [], "uuid": "9b3a093d-b1b0-4b51-aa09-e6d204c0ac2f", "source": {"name": "Vernon", "slug": "vernon"}, "source_identifier": "11272", "external_references": [{"id": 33563, "source": {"name": "Wikidata", "slug": "wikidata"}, "source_identifier": "Q121337623"}], "date_modified": "2025-03-12T00:22:53.905330+11:00"}, {"id": 14549, "name": "Eli Hollander", "roles_in_work": [{"id": 2712457, "title": "The Drug problem, what do you think?", "work_id": 66946, "role": "director", "role_id": 938, "is_primary": true}], "also_known_as": "", "date_of_birth": null, "date_of_death": null, "genders": [], "languages": [], "places_of_operation": [], "biography": "", "biography_author": null, "date_of_biography": null, "external_links": [], "uuid": "4c13dd9d-885b-4d67-9b95-26b63f929e5b", "source": {"name": "Vernon", "slug": "vernon"}, "source_identifier": "18676", "external_references": [], "date_modified": "2025-03-12T00:22:43.508443+11:00"}, {"id": 14548, "name": "Alfred Kelman", "roles_in_work": [{"id": 2767536, "title": "The Facts for girls", "work_id": 77814, "role": "director", "role_id": 938, "is_primary": true}, {"id": 2712454, "title": "Drug of choice", "work_id": 66945, "role": "producer", "role_id": 1089, "is_primary": true}, {"id": 2767534, "title": "The Facts for girls", "work_id": 77814, "role": "producer", "role_id": 1089, "is_primary": true}], "also_known_as": "", "date_of_birth": "", "date_of_death": "", "genders": [], "languages": [], "places_of_operation": [], "biography": "", "biography_author": null, "date_of_biography": "2023-08-11T16:15:05.111456+10:00", "external_links": [], "uuid": "7dd3f184-7647-4a88-8981-6d893c82027f", "source": {"name": "Vernon", "slug": "vernon"}, "source_identifier": "1193", "external_references": [], "date_modified": "2025-03-12T00:22:40.273990+11:00"}, {"id": 14547, "name": "Searle Educational Systems", "roles_in_work": [{"id": 2712453, "title": "Drug of choice", "work_id": 66945, "role": "production company", "role_id": 941, "is_primary": true}, {"id": 2407405, "title": "Fat of the land", "work_id": 88714, "role": "production company", "role_id": 941, "is_primary": true}], "also_known_as": "", "date_of_birth": "", "date_of_death": "", "genders": [], "languages": [], "places_of_operation": [], "biography": "", "biography_author": null, "date_of_biography": "2023-08-11T16:36:02.864179+10:00", "external_links": [], "uuid": "20189c3c-5feb-4141-b5b9-ede2a624581d", "source": {"name": "Vernon", "slug": "vernon"}, "source_identifier": "12397", "external_references": [], "date_modified": "2025-03-12T00:22:38.543718+11:00"}]}