{"count": 28687, "next": "https://api.acmi.net.au/creators/?page=452", "previous": "https://api.acmi.net.au/creators/?page=450", "results": [{"id": 81073, "name": "Beni Atoori", "roles_in_work": [{"id": 2000131, "title": "Thirteen conversations about one thing = 13 conversations ab", "work_id": 94959, "role": "co-producer", "role_id": 915, "is_primary": true}], "also_known_as": "", "date_of_birth": null, "date_of_death": null, "genders": [], "languages": [], "places_of_operation": [], "biography": "", "biography_author": null, "date_of_biography": null, "external_links": [], "uuid": "f521699d-3d48-4146-b530-01d8fc5a1993", "source": {"name": "Vernon", "slug": "vernon"}, "source_identifier": null, "external_references": [{"id": 39842, "source": {"name": "Wikidata", "slug": "wikidata"}, "source_identifier": "Q121337517"}], "date_modified": "2023-09-05T17:58:25.341440+10:00"}, {"id": 81072, "name": "Khoa Do", "roles_in_work": [{"id": 2348690, "title": "The Finished people", "work_id": 94956, "role": "producer/director", "role_id": 31, "is_primary": true}], "also_known_as": "", "date_of_birth": "1979-01-01", "date_of_death": "", "genders": [{"id": 9, "name": "Male", "slug": "male"}], "languages": [{"id": 1, "name": "English", "slug": "english"}], "places_of_operation": [{"id": 3, "name": "Australia", "slug": "australia"}], "biography": "Khoa Do (Vietnamese: Đỗ Khoa, listen), is a Vietnamese-born Australian film director, screenwriter, and philanthropist. He received the Young Australian of the Year Award in 2005.", "biography_author": "Wikidata", "date_of_biography": "2023-08-01T15:49:59.799072+10:00", "external_links": [{"id": 2533, "uri": "https://en.wikipedia.org/wiki/Khoa_Do"}], "uuid": "3e2a48b4-196d-43c4-901c-3b83d4a6ce1f", "source": {"name": "Vernon", "slug": "vernon"}, "source_identifier": "112234", "external_references": [{"id": 10826, "source": {"name": "Wikidata", "slug": "wikidata"}, "source_identifier": "Q6401926"}, {"id": 10827, "source": {"name": "VIAF", "slug": "viaf"}, "source_identifier": "86499020"}, {"id": 10828, "source": {"name": "LOC Auth", "slug": "loc-auth"}, "source_identifier": "n2008013875"}, {"id": 10829, "source": {"name": "WorldCat", "slug": "worldcat"}, "source_identifier": "lccn-n2008013875"}], "date_modified": "2023-09-05T22:08:29.528638+10:00"}, {"id": 81071, "name": "Evan Clarry", "roles_in_work": [{"id": 929668, "title": "Under the radar", "work_id": 94955, "role": "director", "role_id": 938, "is_primary": true}, {"id": 2121475, "title": "Blurred", "work_id": 95108, "role": "director", "role_id": 938, "is_primary": true}], "also_known_as": "", "date_of_birth": "", "date_of_death": "", "genders": [], "languages": [], "places_of_operation": [], "biography": "", "biography_author": null, "date_of_biography": "2023-05-09T13:04:35.728391+10:00", "external_links": [], "uuid": "059b9ad6-2243-4919-a78c-59d90dbdf5c6", "source": {"name": "Vernon", "slug": "vernon"}, "source_identifier": "18920", "external_references": [{"id": 41697, "source": {"name": "Wikidata", "slug": "wikidata"}, "source_identifier": "Q113585891"}], "date_modified": "2023-09-05T19:38:21.404738+10:00"}, {"id": 81070, "name": "Jerome Kuehl", "roles_in_work": [{"id": 2790562, "title": "The World at war. Part 4 [DVD]", "work_id": 94953, "role": "co-producer", "role_id": 915, "is_primary": true}], "also_known_as": "", "date_of_birth": "", "date_of_death": "", "genders": [], "languages": [], "places_of_operation": [], "biography": "", "biography_author": null, "date_of_biography": "2023-05-09T17:56:44.614663+10:00", "external_links": [], "uuid": "8a5deba2-1b8e-49ee-9b6e-9d01dcf77700", "source": {"name": "Vernon", "slug": "vernon"}, "source_identifier": "21774", "external_references": [{"id": 34838, "source": {"name": "Wikidata", "slug": "wikidata"}, "source_identifier": "Q121299402"}], "date_modified": "2025-03-14T19:57:17.573722+11:00"}, {"id": 81069, "name": "Michael Parton", "roles_in_work": [{"id": 2790556, "title": "The World at war. Part 3 [DVD]", "work_id": 94952, "role": "co-producer", "role_id": 915, "is_primary": true}], "also_known_as": "", "date_of_birth": "", "date_of_death": "", "genders": [], "languages": [], "places_of_operation": [], "biography": "", "biography_author": null, "date_of_biography": "2023-05-09T17:56:23.884783+10:00", "external_links": [], "uuid": "ec4043cd-edeb-4943-898c-6498744f5c45", "source": {"name": "Vernon", "slug": "vernon"}, "source_identifier": "25182", "external_references": [{"id": 39953, "source": {"name": "Wikidata", "slug": "wikidata"}, "source_identifier": "Q121057861"}], "date_modified": "2025-03-14T19:57:13.818553+11:00"}, {"id": 81068, "name": "Philip Whitehead", "roles_in_work": [{"id": 2790553, "title": "The World at war. Part 3 [DVD]", "work_id": 94952, "role": "co-producer", "role_id": 915, "is_primary": true}, {"id": 2790550, "title": "The World at war. Part 2 [DVD]", "work_id": 94951, "role": "co-producer", "role_id": 915, "is_primary": true}], "also_known_as": "", "date_of_birth": "", "date_of_death": "", "genders": [], "languages": [], "places_of_operation": [], "biography": "", "biography_author": null, "date_of_biography": "2023-05-09T17:56:23.198401+10:00", "external_links": [], "uuid": "6aca277f-82a9-4b93-a8ac-96599713d40f", "source": {"name": "Vernon", "slug": "vernon"}, "source_identifier": "26845", "external_references": [{"id": 41222, "source": {"name": "Wikidata", "slug": "wikidata"}, "source_identifier": "Q121036385"}], "date_modified": "2025-03-14T19:57:12.073720+11:00"}, {"id": 81067, "name": "John Pett", "roles_in_work": [{"id": 2790549, "title": "The World at war. Part 2 [DVD]", "work_id": 94951, "role": "co-producer", "role_id": 915, "is_primary": true}, {"id": 2790558, "title": "The World at war. Part 3 [DVD]", "work_id": 94952, "role": "co-producer", "role_id": 915, "is_primary": true}], "also_known_as": "", "date_of_birth": "", "date_of_death": "", "genders": [], "languages": [], "places_of_operation": [], "biography": "", "biography_author": null, "date_of_biography": "2023-05-09T17:56:24.337377+10:00", "external_links": [], "uuid": "80c06f19-810d-4447-9ac2-5e1dd03138ac", "source": {"name": "Vernon", "slug": "vernon"}, "source_identifier": "22465", "external_references": [{"id": 33584, "source": {"name": "Wikidata", "slug": "wikidata"}, "source_identifier": "Q121315310"}], "date_modified": "2025-03-14T19:57:14.979302+11:00"}, {"id": 81066, "name": "Hugh Raggett", "roles_in_work": [{"id": 2790543, "title": "The World at war. Part 1 [DVD]", "work_id": 94950, "role": "co-director", "role_id": 959, "is_primary": true}], "also_known_as": "", "date_of_birth": "", "date_of_death": "", "genders": [], "languages": [], "places_of_operation": [], "biography": "", "biography_author": null, "date_of_biography": "2023-05-09T17:56:19.835720+10:00", "external_links": [], "uuid": "19564f02-e751-4a7b-a07c-7733d3eb9cb2", "source": {"name": "Vernon", "slug": "vernon"}, "source_identifier": "20691", "external_references": [{"id": 32617, "source": {"name": "Wikidata", "slug": "wikidata"}, "source_identifier": "Q121126373"}], "date_modified": "2025-03-14T19:57:05.621905+11:00"}, {"id": 81065, "name": "Richard Pilbrow", "roles_in_work": [{"id": 916806, "title": "The Railway children. Swallows and amazons [DVD]", "work_id": 94947, "role": "co-producer", "role_id": 915, "is_primary": true}], "also_known_as": "", "date_of_birth": null, "date_of_death": null, "genders": [], "languages": [], "places_of_operation": [], "biography": "", "biography_author": null, "date_of_biography": null, "external_links": [], "uuid": "64833d76-3a7f-42a1-b28f-33f8ee8012f7", "source": {"name": "Vernon", "slug": "vernon"}, "source_identifier": null, "external_references": [{"id": 32459, "source": {"name": "Wikidata", "slug": "wikidata"}, "source_identifier": "Q121315371"}], "date_modified": "2023-09-06T00:31:54.078188+10:00"}, {"id": 81064, "name": "Robert Lynn", "roles_in_work": [{"id": 916805, "title": "The Railway children. Swallows and amazons [DVD]", "work_id": 94947, "role": "co-producer", "role_id": 915, "is_primary": true}], "also_known_as": "", "date_of_birth": null, "date_of_death": null, "genders": [], "languages": [], "places_of_operation": [], "biography": "", "biography_author": null, "date_of_biography": null, "external_links": [], "uuid": "6fc9fe0a-9b95-4672-85a7-f6a8da90a082", "source": {"name": "Vernon", "slug": "vernon"}, "source_identifier": null, "external_references": [{"id": 33738, "source": {"name": "Wikidata", "slug": "wikidata"}, "source_identifier": "Q121036517"}], "date_modified": "2023-09-06T00:44:13.679058+10:00"}]}