{"count": 28687, "next": "https://api.acmi.net.au/creators/?page=316", "previous": "https://api.acmi.net.au/creators/?page=314", "results": [{"id": 82457, "name": "Shunghong Wang", "roles_in_work": [{"id": 2650855, "title": "The Road = Lu", "work_id": 115771, "role": "cast", "role_id": 33, "is_primary": false}], "also_known_as": "", "date_of_birth": null, "date_of_death": null, "genders": [], "languages": [], "places_of_operation": [], "biography": "", "biography_author": null, "date_of_biography": null, "external_links": [], "uuid": "a597094a-346a-4002-b2a8-1ca824b3a2fd", "source": {"name": "Vernon", "slug": "vernon"}, "source_identifier": "36431", "external_references": [], "date_modified": "2025-03-05T14:24:09.827722+11:00"}, {"id": 82456, "name": "Wang Yan", "roles_in_work": [{"id": 2650854, "title": "The Road = Lu", "work_id": 115771, "role": "cast", "role_id": 33, "is_primary": false}, {"id": 2651330, "title": "The Magic flying mouse = Fei tian shen shu", "work_id": 115826, "role": "cast", "role_id": 33, "is_primary": false}], "also_known_as": "", "date_of_birth": null, "date_of_death": null, "genders": [], "languages": [], "places_of_operation": [], "biography": "", "biography_author": null, "date_of_biography": null, "external_links": [], "uuid": "29955103-3446-45ad-bbb8-a2f3e698f2c8", "source": {"name": "Vernon", "slug": "vernon"}, "source_identifier": "36400", "external_references": [], "date_modified": "2025-03-05T14:28:51.943883+11:00"}, {"id": 82455, "name": "Ma Ding", "roles_in_work": [{"id": 2650853, "title": "The Road = Lu", "work_id": 115771, "role": "sound", "role_id": 952, "is_primary": false}], "also_known_as": "", "date_of_birth": null, "date_of_death": null, "genders": [], "languages": [], "places_of_operation": [], "biography": "", "biography_author": null, "date_of_biography": null, "external_links": [], "uuid": "dd1db540-3a20-48e3-aa48-0a706418443a", "source": {"name": "Vernon", "slug": "vernon"}, "source_identifier": "36430", "external_references": [], "date_modified": "2025-03-05T14:24:08.647289+11:00"}, {"id": 82454, "name": "Wang-gong Zheng", "roles_in_work": [{"id": 2650852, "title": "The Road = Lu", "work_id": 115771, "role": "cinematographer", "role_id": 32, "is_primary": false}], "also_known_as": "", "date_of_birth": null, "date_of_death": null, "genders": [], "languages": [], "places_of_operation": [], "biography": "", "biography_author": null, "date_of_biography": null, "external_links": [], "uuid": "587037ea-cbe0-4b2c-a76e-c17267614510", "source": {"name": "Vernon", "slug": "vernon"}, "source_identifier": "36429", "external_references": [], "date_modified": "2025-03-05T14:24:08.060874+11:00"}, {"id": 82453, "name": "Liang Ming", "roles_in_work": [{"id": 2650851, "title": "The Road = Lu", "work_id": 115771, "role": "cinematographer", "role_id": 32, "is_primary": false}], "also_known_as": "", "date_of_birth": null, "date_of_death": null, "genders": [], "languages": [], "places_of_operation": [], "biography": "", "biography_author": null, "date_of_biography": null, "external_links": [], "uuid": "50dc2b28-8c41-4711-9767-ddd3a87aca75", "source": {"name": "Vernon", "slug": "vernon"}, "source_identifier": "36428", "external_references": [], "date_modified": "2025-03-05T14:24:07.474175+11:00"}, {"id": 82452, "name": "Lizhou Chen", "roles_in_work": [{"id": 2650849, "title": "The Road = Lu", "work_id": 115771, "role": "director", "role_id": 938, "is_primary": true}, {"id": 2650850, "title": "The Road = Lu", "work_id": 115771, "role": "script", "role_id": 962, "is_primary": false}], "also_known_as": "", "date_of_birth": null, "date_of_death": null, "genders": [], "languages": [], "places_of_operation": [], "biography": "", "biography_author": null, "date_of_biography": null, "external_links": [], "uuid": "3b3af39d-80ff-459c-b9d4-61c62ef9e084", "source": {"name": "Vernon", "slug": "vernon"}, "source_identifier": "36427", "external_references": [], "date_modified": "2025-03-05T14:24:06.884642+11:00"}, {"id": 82451, "name": "Fujian Film Company of the People's Republic of China", "roles_in_work": [{"id": 2650848, "title": "The Road = Lu", "work_id": 115771, "role": "production company", "role_id": 941, "is_primary": true}, {"id": 2346523, "title": "The Eight celestials crossing the sea = Ba xian guo hai", "work_id": 115788, "role": "production company", "role_id": 941, "is_primary": true}], "also_known_as": "", "date_of_birth": "", "date_of_death": "", "genders": [], "languages": [], "places_of_operation": [], "biography": "", "biography_author": null, "date_of_biography": "2023-05-09T19:47:43.404235+10:00", "external_links": [], "uuid": "779d28b6-5166-49a9-bbcd-e05534f03fc2", "source": {"name": "Vernon", "slug": "vernon"}, "source_identifier": "36426", "external_references": [], "date_modified": "2025-03-05T14:24:05.705984+11:00"}, {"id": 82450, "name": "Dng Zhizhi", "roles_in_work": [{"id": 2650847, "title": "The Ancient chime bell makes a comeback = Qi ji de zai xian", "work_id": 115770, "role": "cast", "role_id": 33, "is_primary": false}], "also_known_as": "", "date_of_birth": "", "date_of_death": "", "genders": [], "languages": [], "places_of_operation": [], "biography": "", "biography_author": null, "date_of_biography": "2023-05-09T19:21:43.650324+10:00", "external_links": [], "uuid": "82002940-d7a9-4139-96c4-25b2e826736c", "source": {"name": "Vernon", "slug": "vernon"}, "source_identifier": "36933", "external_references": [{"id": 42305, "source": {"name": "Wikidata", "slug": "wikidata"}, "source_identifier": "Q121035711"}], "date_modified": "2025-03-05T14:24:04.815386+11:00"}, {"id": 82449, "name": "Wei Guochun", "roles_in_work": [{"id": 2281939, "title": "Your smile = Ni de wei xiao", "work_id": 115787, "role": "cast", "role_id": 33, "is_primary": false}, {"id": 2650846, "title": "The Ancient chime bell makes a comeback = Qi ji de zai xian", "work_id": 115770, "role": "cast", "role_id": 33, "is_primary": false}, {"id": 1865959, "title": "The Smile of a tour guide = Nide Weixiao", "work_id": 115843, "role": "cast", "role_id": 33, "is_primary": false}], "also_known_as": "", "date_of_birth": "", "date_of_death": "", "genders": [], "languages": [], "places_of_operation": [], "biography": "", "biography_author": null, "date_of_biography": "2023-05-09T19:21:43.422435+10:00", "external_links": [], "uuid": "93632533-a323-47ae-90ae-336d679d4d12", "source": {"name": "Vernon", "slug": "vernon"}, "source_identifier": "36149", "external_references": [{"id": 34878, "source": {"name": "Wikidata", "slug": "wikidata"}, "source_identifier": "Q121270675"}], "date_modified": "2025-03-05T14:24:04.231927+11:00"}, {"id": 82448, "name": "Zhou Jie", "roles_in_work": [{"id": 2650845, "title": "The Ancient chime bell makes a comeback = Qi ji de zai xian", "work_id": 115770, "role": "cast", "role_id": 33, "is_primary": false}], "also_known_as": "", "date_of_birth": "", "date_of_death": "", "genders": [], "languages": [], "places_of_operation": [], "biography": "", "biography_author": null, "date_of_biography": "2023-05-09T19:21:43.197656+10:00", "external_links": [], "uuid": "23d41f8a-22eb-4628-8f4c-055ea4fdebe2", "source": {"name": "Vernon", "slug": "vernon"}, "source_identifier": "36932", "external_references": [{"id": 38549, "source": {"name": "Wikidata", "slug": "wikidata"}, "source_identifier": "Q121270694"}], "date_modified": "2025-03-05T14:24:03.653671+11:00"}]}