{"count": 28682, "next": "https://api.acmi.net.au/creators/?page=1605", "previous": "https://api.acmi.net.au/creators/?page=1603", "results": [{"id": 30923, "name": "Marco Ferreri", "roles_in_work": [{"id": 809699, "title": "Blow out = La Grande bouffe", "work_id": 91932, "role": "director", "role_id": 938, "is_primary": true}, {"id": 805633, "title": "The Flesh = La Carne", "work_id": 90488, "role": "director", "role_id": 938, "is_primary": true}, {"id": 1993337, "title": "Tales of ordinary madness = Storie di ordinaria follia", "work_id": 88966, "role": "director", "role_id": 938, "is_primary": true}], "also_known_as": "", "date_of_birth": "1928-05-11", "date_of_death": "1997-05-09", "genders": [{"id": 9, "name": "Male", "slug": "male"}], "languages": [{"id": 6, "name": "Italian", "slug": "italian"}, {"id": 10, "name": "Spanish", "slug": "spanish"}], "places_of_operation": [{"id": 19, "name": "Italy", "slug": "italy"}, {"id": 300, "name": "Kingdom of Italy", "slug": "kingdom-of-italy"}], "biography": "Marco Ferreri (11 May 1928 – 9 May 1997) was an Italian film director, screenwriter and actor, who began his career in the 1950s directing three films in Spain, followed by 24 Italian films before his death in 1997. He is considered one of the greatest European cinematic provocateurs of his time and had a constant presence in prestigious festival circuit - including eight films in competition in Cannes Film Festival and a Golden Bear win in 1991 Berlin Film Festival. Three of his films are among 100 films selected for preservation for significant contribution to Italian cinema.", "biography_author": "Wikidata", "date_of_biography": "2022-05-19T12:21:15.638246+10:00", "external_links": [{"id": 2626, "uri": "https://en.wikipedia.org/wiki/Marco_Ferreri"}], "uuid": "4daa2747-95d4-4ce0-80e2-889166776e6d", "source": {"name": "Vernon", "slug": "vernon"}, "source_identifier": "24314", "external_references": [{"id": 11224, "source": {"name": "Wikidata", "slug": "wikidata"}, "source_identifier": "Q53018"}, {"id": 11225, "source": {"name": "VIAF", "slug": "viaf"}, "source_identifier": "66509111"}, {"id": 11226, "source": {"name": "LOC Auth", "slug": "loc-auth"}, "source_identifier": "n80030813"}, {"id": 11227, "source": {"name": "WorldCat", "slug": "worldcat"}, "source_identifier": "lccn-n80030813"}], "date_modified": "2023-09-13T12:31:10.657968+10:00"}, {"id": 30918, "name": "Goldwyn films", "roles_in_work": [{"id": 2212777, "title": "Earth", "work_id": 88965, "role": "production company", "role_id": 941, "is_primary": true}], "also_known_as": "", "date_of_birth": "", "date_of_death": "", "genders": [], "languages": [], "places_of_operation": [], "biography": "", "biography_author": null, "date_of_biography": "2023-05-09T15:48:54.833571+10:00", "external_links": [], "uuid": "0a40c45a-9da5-4f03-a136-a3e80dc39855", "source": {"name": "Vernon", "slug": "vernon"}, "source_identifier": "8797", "external_references": [], "date_modified": "2023-06-14T16:33:30.576250+10:00"}, {"id": 30917, "name": "Cracking the Earth Films", "roles_in_work": [{"id": 2212773, "title": "Earth", "work_id": 88965, "role": "production company", "role_id": 941, "is_primary": true}], "also_known_as": "", "date_of_birth": "", "date_of_death": "", "genders": [], "languages": [], "places_of_operation": [], "biography": "", "biography_author": null, "date_of_biography": "2023-05-09T15:48:54.597418+10:00", "external_links": [], "uuid": "b5534f68-5b10-4d46-8563-508777628158", "source": {"name": "Vernon", "slug": "vernon"}, "source_identifier": "7139", "external_references": [], "date_modified": "2023-06-14T16:33:30.576250+10:00"}, {"id": 30912, "name": "Island Digital Media", "roles_in_work": [{"id": 2476361, "title": "Gravesend", "work_id": 88963, "role": "production company", "role_id": 941, "is_primary": true}], "also_known_as": "", "date_of_birth": "", "date_of_death": "", "genders": [], "languages": [], "places_of_operation": [], "biography": "", "biography_author": null, "date_of_biography": "2023-08-17T15:35:43.089882+10:00", "external_links": [], "uuid": "b2335361-a606-48d3-b658-a9ee069c874b", "source": {"name": "Vernon", "slug": "vernon"}, "source_identifier": "9449", "external_references": [], "date_modified": "2023-08-17T15:35:43.090103+10:00"}, {"id": 30910, "name": "Trial by Fire Films", "roles_in_work": [{"id": 2241372, "title": "Fire", "work_id": 88962, "role": "production company", "role_id": 941, "is_primary": true}], "also_known_as": "", "date_of_birth": "", "date_of_death": "", "genders": [], "languages": [], "places_of_operation": [], "biography": "", "biography_author": null, "date_of_biography": "2023-05-09T16:54:20.662898+10:00", "external_links": [], "uuid": "d88a44ec-c7cc-4039-80cb-87141de2429b", "source": {"name": "Vernon", "slug": "vernon"}, "source_identifier": "13701", "external_references": [], "date_modified": "2023-06-14T16:33:30.576250+10:00"}, {"id": 30900, "name": "Michele D'Acosta", "roles_in_work": [{"id": 1993292, "title": "Fetishes", "work_id": 88945, "role": "co-producer", "role_id": 915, "is_primary": true}, {"id": 2115022, "title": "Biggie and Tupac", "work_id": 95126, "role": "producer", "role_id": 1089, "is_primary": true}], "also_known_as": "", "date_of_birth": "", "date_of_death": "", "genders": [], "languages": [], "places_of_operation": [], "biography": "", "biography_author": null, "date_of_biography": "2023-05-09T12:52:58.875905+10:00", "external_links": [], "uuid": "00bf8909-9c89-4f5f-8a8a-8ee9bbd79f34", "source": {"name": "Vernon", "slug": "vernon"}, "source_identifier": "25298", "external_references": [{"id": 42046, "source": {"name": "Wikidata", "slug": "wikidata"}, "source_identifier": "Q121299226"}], "date_modified": "2023-09-05T23:12:50.262387+10:00"}, {"id": 30895, "name": "Television New Zealand Natural History Unit", "roles_in_work": [{"id": 2103551, "title": "Australia's Great Barrier Reef", "work_id": 88940, "role": "production company", "role_id": 941, "is_primary": true}], "also_known_as": "", "date_of_birth": "", "date_of_death": "", "genders": [], "languages": [], "places_of_operation": [], "biography": "", "biography_author": null, "date_of_biography": "2023-05-09T12:35:12.778754+10:00", "external_links": [], "uuid": "8c83a5c0-8d71-493e-b82d-39d7da770285", "source": {"name": "Vernon", "slug": "vernon"}, "source_identifier": "13265", "external_references": [{"id": 43194, "source": {"name": "Wikidata", "slug": "wikidata"}, "source_identifier": "Q121223429"}], "date_modified": "2023-09-06T01:44:00.463121+10:00"}, {"id": 30892, "name": "Craig Rogers", "roles_in_work": [{"id": 2141921, "title": "Comets and asteroids", "work_id": 88938, "role": "producer", "role_id": 1089, "is_primary": true}], "also_known_as": "", "date_of_birth": "", "date_of_death": "", "genders": [], "languages": [], "places_of_operation": [], "biography": "", "biography_author": null, "date_of_biography": "2023-05-09T13:39:04.413095+10:00", "external_links": [], "uuid": "8c5d97cf-5eee-4754-b649-623fcbc90049", "source": {"name": "Vernon", "slug": "vernon"}, "source_identifier": "17249", "external_references": [], "date_modified": "2023-06-14T16:33:30.576250+10:00"}, {"id": 30891, "name": "Gaylon Emerzian", "roles_in_work": [{"id": 2330205, "title": "The Benefits of insects", "work_id": 88936, "role": "director", "role_id": 938, "is_primary": true}], "also_known_as": "", "date_of_birth": "", "date_of_death": "", "genders": [], "languages": [], "places_of_operation": [], "biography": "", "biography_author": null, "date_of_biography": "2023-05-09T19:24:34.231322+10:00", "external_links": [], "uuid": "bbfabb46-10cc-4e5a-bc7d-192b7d8d519f", "source": {"name": "Vernon", "slug": "vernon"}, "source_identifier": "19460", "external_references": [], "date_modified": "2023-06-14T16:33:30.576250+10:00"}, {"id": 30890, "name": "Jonathan Grupper", "roles_in_work": [{"id": 2184110, "title": "Deep sea dive", "work_id": 88935, "role": "producer", "role_id": 1089, "is_primary": true}], "also_known_as": "", "date_of_birth": "", "date_of_death": "", "genders": [], "languages": [], "places_of_operation": [], "biography": "", "biography_author": null, "date_of_biography": "2023-05-09T14:57:47.582843+10:00", "external_links": [], "uuid": "9f45e97d-f654-4983-932c-5143e192b685", "source": {"name": "Vernon", "slug": "vernon"}, "source_identifier": "22649", "external_references": [], "date_modified": "2023-06-14T16:33:30.576250+10:00"}]}