{"count": 28687, "next": "https://api.acmi.net.au/creators/?page=2348", "previous": "https://api.acmi.net.au/creators/?page=2346", "results": [{"id": 15884, "name": "Lee Gordon", "roles_in_work": [{"id": 2762155, "title": "The Inner mind of Milton Whitty", "work_id": 68948, "role": "producer", "role_id": 1089, "is_primary": true}, {"id": 2760775, "title": "The Cost (TEFC)", "work_id": 78147, "role": "producer", "role_id": 1089, "is_primary": true}, {"id": 2081955, "title": "Adoption: children are waiting", "work_id": 90750, "role": "producer", "role_id": 1089, "is_primary": true}, {"id": 2762173, "title": "Return of Milton Whitty", "work_id": 72185, "role": "producer", "role_id": 1089, "is_primary": true}], "also_known_as": "", "date_of_birth": "", "date_of_death": "", "genders": [], "languages": [], "places_of_operation": [], "biography": "", "biography_author": null, "date_of_biography": "2023-05-09T20:04:18.066217+10:00", "external_links": [], "uuid": "f6fd6616-e396-46ec-b152-8487d2999214", "source": {"name": "Vernon", "slug": "vernon"}, "source_identifier": "23622", "external_references": [{"id": 43630, "source": {"name": "Wikidata", "slug": "wikidata"}, "source_identifier": "Q121337320"}], "date_modified": "2025-03-14T17:37:12.237141+11:00"}, {"id": 15882, "name": "RN Productions", "roles_in_work": [{"id": 2716413, "title": "The Initial interview", "work_id": 68944, "role": "production company", "role_id": 941, "is_primary": true}], "also_known_as": "", "date_of_birth": "", "date_of_death": "", "genders": [], "languages": [], "places_of_operation": [], "biography": "", "biography_author": null, "date_of_biography": "2023-05-09T20:04:05.787909+10:00", "external_links": [], "uuid": "70b51724-675b-47fb-bda3-f87feb352054", "source": {"name": "Vernon", "slug": "vernon"}, "source_identifier": "11800", "external_references": [{"id": 38745, "source": {"name": "Wikidata", "slug": "wikidata"}, "source_identifier": "Q121299338"}], "date_modified": "2025-03-12T01:56:19.556305+11:00"}, {"id": 15881, "name": "Soumi-Films", "roles_in_work": [{"id": 2764392, "title": "Inhabitants: their activities", "work_id": 68941, "role": "production company", "role_id": 941, "is_primary": true}], "also_known_as": "", "date_of_birth": "", "date_of_death": "", "genders": [], "languages": [], "places_of_operation": [], "biography": "", "biography_author": null, "date_of_biography": "2023-08-11T18:35:14.207480+10:00", "external_links": [], "uuid": "128240b3-6fe0-4e33-8c4e-29d9dc464be0", "source": {"name": "Vernon", "slug": "vernon"}, "source_identifier": "12764", "external_references": [], "date_modified": "2025-03-14T17:46:07.219280+11:00"}, {"id": 15880, "name": "Carole Hart", "roles_in_work": [{"id": 2766119, "title": "Information processing (TEFC)", "work_id": 68938, "role": "co-producer", "role_id": 915, "is_primary": true}, {"id": 909303, "title": "Free to be, you and me", "work_id": 89810, "role": "co-producer", "role_id": 915, "is_primary": true}, {"id": 2753298, "title": "Oh, boy! Babies!", "work_id": 98697, "role": "producer", "role_id": 1089, "is_primary": true}, {"id": 2766140, "title": "Social psychology (TEFC)", "work_id": 72958, "role": "producer", "role_id": 1089, "is_primary": true}], "also_known_as": "", "date_of_birth": "", "date_of_death": "", "genders": [], "languages": [], "places_of_operation": [], "biography": "", "biography_author": null, "date_of_biography": "2023-05-09T18:42:15.486466+10:00", "external_links": [], "uuid": "80a40b46-1b11-432d-b59a-fc47d582a6c9", "source": {"name": "Vernon", "slug": "vernon"}, "source_identifier": "4377", "external_references": [{"id": 35374, "source": {"name": "Wikidata", "slug": "wikidata"}, "source_identifier": "Q121035282"}], "date_modified": "2025-03-14T17:56:48.427235+11:00"}, {"id": 15878, "name": "Wolverhampton Education Committee", "roles_in_work": [{"id": 2716399, "title": "Infant dance (TEFC)", "work_id": 68931, "role": "production company", "role_id": 941, "is_primary": true}], "also_known_as": "", "date_of_birth": null, "date_of_death": null, "genders": [], "languages": [], "places_of_operation": [], "biography": "", "biography_author": null, "date_of_biography": null, "external_links": [], "uuid": "57fec709-af23-4c00-b1ec-b5e94bcfc87e", "source": {"name": "Vernon", "slug": "vernon"}, "source_identifier": "14415", "external_references": [], "date_modified": "2025-03-12T01:56:10.029123+11:00"}, {"id": 15876, "name": "David Tapper", "roles_in_work": [{"id": 2754978, "title": "Industries of the future", "work_id": 68926, "role": "director", "role_id": 938, "is_primary": true}], "also_known_as": "", "date_of_birth": "", "date_of_death": "", "genders": [], "languages": [], "places_of_operation": [], "biography": "", "biography_author": null, "date_of_biography": "2023-08-11T19:00:09.257629+10:00", "external_links": [], "uuid": "5c763920-0348-4a50-8b92-bf7ccf39e8f1", "source": {"name": "Vernon", "slug": "vernon"}, "source_identifier": "17815", "external_references": [], "date_modified": "2025-03-13T01:55:52.614897+11:00"}, {"id": 15875, "name": "Frank Green", "roles_in_work": [{"id": 1811753, "title": "Sheffield made", "work_id": 89163, "role": "producer", "role_id": 1089, "is_primary": true}, {"id": 2646418, "title": "Steel and atomic energy", "work_id": 73185, "role": "producer", "role_id": 1089, "is_primary": true}, {"id": 2716388, "title": "The Industrious flame", "work_id": 68925, "role": "producer", "role_id": 1089, "is_primary": true}, {"id": 1814288, "title": "The Dounreay project", "work_id": 89857, "role": "producer", "role_id": 1089, "is_primary": true}, {"id": 1812713, "title": "Three men made history", "work_id": 73779, "role": "producer", "role_id": 1089, "is_primary": true}, {"id": 1805210, "title": "Speed the scrap [Short version]", "work_id": 87025, "role": "producer", "role_id": 1089, "is_primary": true}, {"id": 1810756, "title": "Speed the scrap [Long version]", "work_id": 73089, "role": "producer", "role_id": 1089, "is_primary": true}, {"id": 1809955, "title": "Calder Hall", "work_id": 88654, "role": "producer", "role_id": 1089, "is_primary": true}, {"id": 1809639, "title": "Chapelcross: Scotland's first nuclear power station", "work_id": 88539, "role": "producer", "role_id": 1089, "is_primary": true}, {"id": 1810957, "title": "More power from the atom", "work_id": 88879, "role": "producer", "role_id": 1089, "is_primary": true}], "also_known_as": "", "date_of_birth": null, "date_of_death": null, "genders": [], "languages": [], "places_of_operation": [], "biography": "", "biography_author": null, "date_of_biography": null, "external_links": [], "uuid": "8072d432-75f6-4caa-a9b2-493caf3499d5", "source": {"name": "Vernon", "slug": "vernon"}, "source_identifier": "19121", "external_references": [], "date_modified": "2025-03-12T01:56:02.103218+11:00"}, {"id": 15874, "name": "British Gas Council", "roles_in_work": [{"id": 2716387, "title": "The Industrious flame", "work_id": 68925, "role": "production company", "role_id": 941, "is_primary": true}, {"id": 859607, "title": "Three men made history", "work_id": 73779, "role": "production company", "role_id": 941, "is_primary": true}, {"id": 2467529, "title": "The Manufacture of gas", "work_id": 70129, "role": "production company", "role_id": 941, "is_primary": true}], "also_known_as": "", "date_of_birth": "", "date_of_death": "", "genders": [], "languages": [], "places_of_operation": [], "biography": "", "biography_author": null, "date_of_biography": "2023-08-14T11:22:01.424443+10:00", "external_links": [], "uuid": "d27cf080-5999-48b7-b713-3a316fa45b57", "source": {"name": "Vernon", "slug": "vernon"}, "source_identifier": "6017", "external_references": [], "date_modified": "2025-03-12T01:56:01.503403+11:00"}, {"id": 15873, "name": "Ace Films", "roles_in_work": [{"id": 2646417, "title": "Steel and atomic energy", "work_id": 73185, "role": "production company", "role_id": 941, "is_primary": true}, {"id": 874253, "title": "Calder Hall", "work_id": 88654, "role": "production company", "role_id": 941, "is_primary": true}, {"id": 856163, "title": "Nuclear power today and tomorrow", "work_id": 71011, "role": "production company", "role_id": 941, "is_primary": true}, {"id": 871467, "title": "Speed the scrap [Short version]", "work_id": 87025, "role": "production company", "role_id": 941, "is_primary": true}, {"id": 793064, "title": "Kill as we go", "work_id": 86416, "role": "production company", "role_id": 941, "is_primary": true}, {"id": 874049, "title": "Chapelcross: Scotland's first nuclear power station", "work_id": 88539, "role": "production company", "role_id": 941, "is_primary": true}, {"id": 874586, "title": "More power from the atom", "work_id": 88879, "role": "production company", "role_id": 941, "is_primary": true}, {"id": 800226, "title": "Calder Hall: how a thermal reactor works", "work_id": 88577, "role": "production company", "role_id": 941, "is_primary": true}, {"id": 2270971, "title": "The Thin red line [1964]", "work_id": 87792, "role": "production company", "role_id": 941, "is_primary": true}, {"id": 876117, "title": "The Dounreay project", "work_id": 89857, "role": "production company", "role_id": 941, "is_primary": true}, {"id": 859608, "title": "Three men made history", "work_id": 73779, "role": "production company", "role_id": 941, "is_primary": true}, {"id": 874895, "title": "Sheffield made", "work_id": 89163, "role": "production company", "role_id": 941, "is_primary": true}, {"id": 858743, "title": "Speed the scrap [Long version]", "work_id": 73089, "role": "production company", "role_id": 941, "is_primary": true}, {"id": 2716386, "title": "The Industrious flame", "work_id": 68925, "role": "production company", "role_id": 941, "is_primary": true}], "also_known_as": "", "date_of_birth": "", "date_of_death": "", "genders": [], "languages": [], "places_of_operation": [], "biography": "", "biography_author": null, "date_of_biography": "2023-05-09T17:45:13.309132+10:00", "external_links": [], "uuid": "0ce719b9-507d-43a8-a4f4-1697a4da1ec6", "source": {"name": "Vernon", "slug": "vernon"}, "source_identifier": "3715", "external_references": [{"id": 38238, "source": {"name": "Wikidata", "slug": "wikidata"}, "source_identifier": "Q121315078"}], "date_modified": "2025-03-12T01:56:00.859432+11:00"}, {"id": 15872, "name": "Ruddell Films", "roles_in_work": [{"id": 2716383, "title": "Industrial weight lifter", "work_id": 68923, "role": "production company", "role_id": 941, "is_primary": true}], "also_known_as": "", "date_of_birth": "", "date_of_death": "", "genders": [], "languages": [], "places_of_operation": [], "biography": "", "biography_author": null, "date_of_biography": "2023-08-11T18:23:58.854344+10:00", "external_links": [], "uuid": "b5b89dca-2423-4d2b-ac6e-2102b99aeba0", "source": {"name": "Vernon", "slug": "vernon"}, "source_identifier": "12176", "external_references": [], "date_modified": "2025-03-12T01:55:58.570387+11:00"}]}