{"count": 28687, "next": "https://api.acmi.net.au/creators/?page=733", "previous": "https://api.acmi.net.au/creators/?page=731", "results": [{"id": 78263, "name": "Jonathan Shteinman", "roles_in_work": [{"id": 2096075, "title": "Angel baby", "work_id": 86397, "role": "co-producer", "role_id": 915, "is_primary": true}, {"id": 2354751, "title": "The Honourable Wally Norman", "work_id": 94945, "role": "co-producer", "role_id": 915, "is_primary": true}, {"id": 2324874, "title": "Thank god he met Lizzie", "work_id": 88618, "role": "producer", "role_id": 1089, "is_primary": true}], "also_known_as": "", "date_of_birth": "", "date_of_death": "", "genders": [], "languages": [], "places_of_operation": [], "biography": "", "biography_author": null, "date_of_biography": "2023-05-09T20:02:05.466628+10:00", "external_links": [], "uuid": "87d30210-2c4e-481c-abff-46fd7dbc6c01", "source": {"name": "Vernon", "slug": "vernon"}, "source_identifier": "22669", "external_references": [{"id": 34119, "source": {"name": "Wikidata", "slug": "wikidata"}, "source_identifier": "Q121078846"}], "date_modified": "2023-09-05T21:49:05.637862+10:00"}, {"id": 78262, "name": "et al", "roles_in_work": [{"id": 905761, "title": "Macbeth [Animated]", "work_id": 86385, "role": "co-director", "role_id": 959, "is_primary": true}, {"id": 905755, "title": "Hamlet [Animated]", "work_id": 86384, "role": "co-director", "role_id": 959, "is_primary": true}, {"id": 2285861, "title": "Tombstone", "work_id": 88766, "role": "co-producer", "role_id": 915, "is_primary": true}], "also_known_as": "", "date_of_birth": "", "date_of_death": "", "genders": [], "languages": [], "places_of_operation": [], "biography": "", "biography_author": null, "date_of_biography": "2023-05-09T18:09:40.570798+10:00", "external_links": [], "uuid": "1e8529ed-1851-4366-a3ef-bbb4e7a47b4a", "source": {"name": "Vernon", "slug": "vernon"}, "source_identifier": "7984", "external_references": [{"id": 40314, "source": {"name": "Wikidata", "slug": "wikidata"}, "source_identifier": "Q311624"}], "date_modified": "2023-09-05T19:37:03.130071+10:00"}, {"id": 78261, "name": "Natalia Orlova", "roles_in_work": [{"id": 905760, "title": "Macbeth [Animated]", "work_id": 86385, "role": "co-director", "role_id": 959, "is_primary": true}, {"id": 905754, "title": "Hamlet [Animated]", "work_id": 86384, "role": "co-director", "role_id": 959, "is_primary": true}], "also_known_as": "", "date_of_birth": null, "date_of_death": null, "genders": [], "languages": [], "places_of_operation": [], "biography": "", "biography_author": null, "date_of_biography": null, "external_links": [], "uuid": "70472bb7-91ae-4308-8bbc-42cfe36b7568", "source": {"name": "Vernon", "slug": "vernon"}, "source_identifier": null, "external_references": [{"id": 37050, "source": {"name": "Wikidata", "slug": "wikidata"}, "source_identifier": "Q121222897"}], "date_modified": "2023-09-05T23:25:20.815728+10:00"}, {"id": 78260, "name": "Elizabeth Babakhina", "roles_in_work": [{"id": 905759, "title": "Macbeth [Animated]", "work_id": 86385, "role": "co-producer", "role_id": 915, "is_primary": true}, {"id": 905753, "title": "Hamlet [Animated]", "work_id": 86384, "role": "co-producer", "role_id": 915, "is_primary": true}], "also_known_as": "", "date_of_birth": null, "date_of_death": null, "genders": [], "languages": [], "places_of_operation": [], "biography": "", "biography_author": null, "date_of_biography": null, "external_links": [], "uuid": "99b2bb16-dc35-4989-8fc6-c059b8c3c87b", "source": {"name": "Vernon", "slug": "vernon"}, "source_identifier": null, "external_references": [{"id": 33344, "source": {"name": "Wikidata", "slug": "wikidata"}, "source_identifier": "Q121337322"}], "date_modified": "2023-09-05T19:29:23.004696+10:00"}, {"id": 78259, "name": "Christopher Grace", "roles_in_work": [{"id": 905752, "title": "Hamlet [Animated]", "work_id": 86384, "role": "co-producer", "role_id": 915, "is_primary": true}, {"id": 905758, "title": "Macbeth [Animated]", "work_id": 86385, "role": "co-producer", "role_id": 915, "is_primary": true}], "also_known_as": "", "date_of_birth": null, "date_of_death": null, "genders": [], "languages": [], "places_of_operation": [], "biography": "", "biography_author": null, "date_of_biography": null, "external_links": [], "uuid": "fbfdd313-1225-4998-9fd1-25d648959768", "source": {"name": "Vernon", "slug": "vernon"}, "source_identifier": null, "external_references": [{"id": 37952, "source": {"name": "Wikidata", "slug": "wikidata"}, "source_identifier": "Q121337679"}], "date_modified": "2023-09-05T18:35:54.034611+10:00"}, {"id": 78258, "name": "Edwin Marin", "roles_in_work": [{"id": 2615909, "title": "Show business", "work_id": 86383, "role": "director", "role_id": 938, "is_primary": true}], "also_known_as": "", "date_of_birth": "21 FEB 1899", "date_of_death": "02 MAY 1951", "genders": [{"id": 9, "name": "Male", "slug": "male"}], "languages": [], "places_of_operation": [{"id": 1, "name": "United States of America", "slug": "united-states-of-america"}], "biography": "Edwin L. Marin (February 21, 1899 – May 2, 1951) was an American film director who directed 58 films between 1932 and 1951, working with Randolph Scott, Anna May Wong, John Wayne, Peter Lorre, George Raft, Bela Lugosi, Judy Garland, Eddie Cantor, and Hoagy Carmichael, among many others. Source: Wikidata; 01/08/2023", "biography_author": null, "date_of_biography": "2025-02-26T20:31:22.637115+11:00", "external_links": [{"id": 1985, "uri": "https://en.wikipedia.org/wiki/Edwin_L._Marin"}], "uuid": "2a6e1e99-18b0-4567-abc5-fc94d885242b", "source": {"name": "Vernon", "slug": "vernon"}, "source_identifier": "18640", "external_references": [{"id": 8584, "source": {"name": "Wikidata", "slug": "wikidata"}, "source_identifier": "Q920059"}, {"id": 8585, "source": {"name": "VIAF", "slug": "viaf"}, "source_identifier": "49430545"}, {"id": 8586, "source": {"name": "LOC Auth", "slug": "loc-auth"}, "source_identifier": "no94002454"}, {"id": 8587, "source": {"name": "WorldCat", "slug": "worldcat"}, "source_identifier": "lccn-no94002454"}], "date_modified": "2025-02-26T20:31:22.637345+11:00"}, {"id": 78257, "name": "Eddie Cantor", "roles_in_work": [{"id": 2615908, "title": "Show business", "work_id": 86383, "role": "producer", "role_id": 1089, "is_primary": true}], "also_known_as": "Edward Israel Iskowitz", "date_of_birth": "31 JAN 1892", "date_of_death": "10 OCT 1964", "genders": [{"id": 9, "name": "Male", "slug": "male"}], "languages": [{"id": 1, "name": "English", "slug": "english"}], "places_of_operation": [{"id": 1, "name": "United States of America", "slug": "united-states-of-america"}], "biography": "Eddie Cantor (born Isidore Itzkowitz; January 31, 1892 – October 10, 1964) was an American comedian, actor, dancer, singer, songwriter, film producer, screenwriter and author. Familiar to Broadway, radio, movie, and early television audiences, this \"Apostle of Pep\" was regarded almost as a family member by millions because his top-rated radio shows revealed intimate stories and amusing anecdotes about his wife, Ida, and five daughters. Some of his hits include \"Makin' Whoopee\", \"Ida (Sweet as Apple Cider)\", \"If You Knew Susie\", \"Ma! He's Making Eyes at Me\", “Mandy”, \"My Baby Just Cares for Me”, \"Margie\", and \"How Ya Gonna Keep 'em Down on the Farm (After They've Seen Paree)?\" He also wrote a few songs, including \"Merrily We Roll Along\", the Merrie Melodies Warner Bros. cartoon theme.\n\nHis eye-rolling song-and-dance routines eventually led to his nickname \"Banjo Eyes\". In 1933, artist Frederick J. Garner caricatured Cantor with large round eyes resembling the drum-like pot of a banjo. Cantor's eyes became his trademark, often exaggerated in illustrations, and leading to his appearance on Broadway in the musical Banjo Eyes (1941).\n\nHis charity and humanitarian work was extensive, and he helped to develop March of Dimes; he is credited with coining its name. Cantor was awarded an honorary Oscar in 1956 for distinguished service to the film industry. Source: Wikidata; 01/08/2023", "biography_author": null, "date_of_biography": "2025-02-26T20:31:22.034463+11:00", "external_links": [{"id": 1961, "uri": "https://en.wikipedia.org/wiki/Eddie_Cantor"}], "uuid": "227b99f9-5a45-4822-a5fc-6439f74ab5f0", "source": {"name": "Vernon", "slug": "vernon"}, "source_identifier": "18542", "external_references": [{"id": 8498, "source": {"name": "Wikidata", "slug": "wikidata"}, "source_identifier": "Q350472"}, {"id": 8499, "source": {"name": "VIAF", "slug": "viaf"}, "source_identifier": "27180183"}, {"id": 8500, "source": {"name": "LOC Auth", "slug": "loc-auth"}, "source_identifier": "n83046955"}, {"id": 8501, "source": {"name": "WorldCat", "slug": "worldcat"}, "source_identifier": "lccn-n83046955"}], "date_modified": "2025-02-26T20:31:22.034776+11:00"}, {"id": 78256, "name": "Iain Quarrier", "roles_in_work": [{"id": 2174474, "title": "One plus one", "work_id": 86372, "role": "co-producer", "role_id": 915, "is_primary": true}], "also_known_as": "", "date_of_birth": "1941-04-12", "date_of_death": null, "genders": [{"id": 9, "name": "Male", "slug": "male"}], "languages": [], "places_of_operation": [{"id": 36, "name": "Canada", "slug": "canada"}], "biography": "Iain Quarrier (April 12, 1941 – 2016) was a Canadian actor. He appeared in only five movies in the mid- to late 1960s before retiring from the film business following the murder of his close friend Sharon Tate in 1969.", "biography_author": "Wikidata", "date_of_biography": "2023-09-05T20:45:19.467080+10:00", "external_links": [{"id": 5877, "uri": "https://en.wikipedia.org/wiki/Iain_Quarrier"}], "uuid": "aafad8d9-6ced-4cad-a946-d9c2d4c23596", "source": {"name": "Vernon", "slug": "vernon"}, "source_identifier": "20729", "external_references": [{"id": 51940, "source": {"name": "Wikidata", "slug": "wikidata"}, "source_identifier": "Q13466355"}, {"id": 54700, "source": {"name": "VIAF", "slug": "viaf"}, "source_identifier": "197149066606865602162"}, {"id": 54701, "source": {"name": "LOC Auth", "slug": "loc-auth"}, "source_identifier": "no97046927"}, {"id": 54702, "source": {"name": "WorldCat", "slug": "worldcat"}, "source_identifier": "lccn-no97046927"}], "date_modified": "2023-09-05T20:45:19.487193+10:00"}, {"id": 78255, "name": "Michael Pearson", "roles_in_work": [{"id": 2174472, "title": "One plus one", "work_id": 86372, "role": "co-producer", "role_id": 915, "is_primary": true}], "also_known_as": "", "date_of_birth": "", "date_of_death": "", "genders": [], "languages": [], "places_of_operation": [], "biography": "", "biography_author": null, "date_of_biography": "2023-05-09T14:43:17.213484+10:00", "external_links": [], "uuid": "d8a3d234-96c0-47e5-a0dc-ab34a2c6cf53", "source": {"name": "Vernon", "slug": "vernon"}, "source_identifier": "25188", "external_references": [{"id": 37484, "source": {"name": "Wikidata", "slug": "wikidata"}, "source_identifier": "Q121298716"}], "date_modified": "2023-09-05T23:07:57.142695+10:00"}, {"id": 78254, "name": "Camilla Nesbitt", "roles_in_work": [{"id": 2079429, "title": "Aclà", "work_id": 86371, "role": "co-producer", "role_id": 915, "is_primary": true}], "also_known_as": "", "date_of_birth": "", "date_of_death": "", "genders": [], "languages": [], "places_of_operation": [], "biography": "", "biography_author": null, "date_of_biography": "2023-05-09T11:45:48.044104+10:00", "external_links": [], "uuid": "dd33d55f-7405-4b43-8d03-d69a1315aa72", "source": {"name": "Vernon", "slug": "vernon"}, "source_identifier": "16445", "external_references": [{"id": 42471, "source": {"name": "Wikidata", "slug": "wikidata"}, "source_identifier": "Q121036812"}], "date_modified": "2023-09-05T18:17:48.742299+10:00"}]}