{"count": 28687, "next": "https://api.acmi.net.au/creators/?page=675", "previous": "https://api.acmi.net.au/creators/?page=673", "results": [{"id": 78843, "name": "Mira Lesmana", "roles_in_work": [{"id": 2476276, "title": "Kuldesak", "work_id": 88258, "role": "co-producers/directors", "role_id": 628, "is_primary": true}], "also_known_as": "", "date_of_birth": "1964-08-08", "date_of_death": "", "genders": [{"id": 5, "name": "Female", "slug": "female"}], "languages": [{"id": 12, "name": "Indonesian", "slug": "indonesian"}], "places_of_operation": [{"id": 6, "name": "Indonesia", "slug": "indonesia"}], "biography": "Mira Lesmanawati or better known as Mira Lesmana (born in Jakarta, Indonesia on August 8, 1964) is an Indonesian film director, producer and songwriter of mixed Dutch, Javanese and Madurese descent. She is the elder sister of Indonesian jazz musician, Indra Lesmana.", "biography_author": "Wikidata", "date_of_biography": "2023-09-05T23:17:22.961911+10:00", "external_links": [{"id": 4745, "uri": "https://en.wikipedia.org/wiki/Mira_Lesmana"}], "uuid": "470e6193-0c35-4083-8b00-a4be2f1aceeb", "source": {"name": "Vernon", "slug": "vernon"}, "source_identifier": "25451", "external_references": [{"id": 25659, "source": {"name": "Wikidata", "slug": "wikidata"}, "source_identifier": "Q1993617"}], "date_modified": "2023-09-05T23:17:25.133868+10:00"}, {"id": 78842, "name": "Ludo Graham", "roles_in_work": [{"id": 2102266, "title": "Astrology: strictly supernatural", "work_id": 88255, "role": "co-director", "role_id": 959, "is_primary": true}, {"id": 2322158, "title": "Tarot: strictly supernatural", "work_id": 89038, "role": "co-director", "role_id": 959, "is_primary": true}], "also_known_as": "", "date_of_birth": "", "date_of_death": "", "genders": [], "languages": [], "places_of_operation": [], "biography": "", "biography_author": null, "date_of_biography": "2023-05-09T19:13:41.862588+10:00", "external_links": [], "uuid": "f19c4a91-ad08-42b0-8129-14c46b87aa1f", "source": {"name": "Vernon", "slug": "vernon"}, "source_identifier": "24091", "external_references": [{"id": 39092, "source": {"name": "Wikidata", "slug": "wikidata"}, "source_identifier": "Q121144237"}], "date_modified": "2023-09-05T22:33:44.161313+10:00"}, {"id": 78841, "name": "Justin Hardy", "roles_in_work": [{"id": 2322160, "title": "Tarot: strictly supernatural", "work_id": 89038, "role": "co-director", "role_id": 959, "is_primary": true}, {"id": 2102262, "title": "Astrology: strictly supernatural", "work_id": 88255, "role": "co-director", "role_id": 959, "is_primary": true}], "also_known_as": "", "date_of_birth": "", "date_of_death": "", "genders": [], "languages": [], "places_of_operation": [], "biography": "", "biography_author": null, "date_of_biography": "2023-05-09T19:13:42.081740+10:00", "external_links": [], "uuid": "286fb816-3265-443a-a873-366557392002", "source": {"name": "Vernon", "slug": "vernon"}, "source_identifier": "22940", "external_references": [{"id": 32354, "source": {"name": "Wikidata", "slug": "wikidata"}, "source_identifier": "Q121299526"}], "date_modified": "2023-09-05T21:57:51.113613+10:00"}, {"id": 78840, "name": "Kaki Kirby", "roles_in_work": [{"id": 2102260, "title": "Astrology: strictly supernatural", "work_id": 88255, "role": "co-producer", "role_id": 915, "is_primary": true}], "also_known_as": "", "date_of_birth": "", "date_of_death": "", "genders": [], "languages": [], "places_of_operation": [], "biography": "", "biography_author": null, "date_of_biography": "2023-05-09T12:32:55.751127+10:00", "external_links": [], "uuid": "7dd2e1b5-6587-4d6d-a4e1-bd28432616c9", "source": {"name": "Vernon", "slug": "vernon"}, "source_identifier": "22971", "external_references": [{"id": 34611, "source": {"name": "Wikidata", "slug": "wikidata"}, "source_identifier": "Q121078843"}], "date_modified": "2023-09-05T21:58:53.957214+10:00"}, {"id": 78839, "name": "Stuart B Rekant", "roles_in_work": [{"id": 2102257, "title": "Astrology: strictly supernatural", "work_id": 88255, "role": "co-producer", "role_id": 915, "is_primary": true}], "also_known_as": "", "date_of_birth": "", "date_of_death": "", "genders": [], "languages": [], "places_of_operation": [], "biography": "", "biography_author": null, "date_of_biography": "2023-05-09T12:32:55.512569+10:00", "external_links": [], "uuid": "def59324-5f4a-442e-ae8c-38054d4f4654", "source": {"name": "Vernon", "slug": "vernon"}, "source_identifier": "29242", "external_references": [{"id": 37545, "source": {"name": "Wikidata", "slug": "wikidata"}, "source_identifier": "Q121036522"}], "date_modified": "2023-09-06T01:33:24.414932+10:00"}, {"id": 78838, "name": "Grace Gilroy", "roles_in_work": [{"id": 2124974, "title": "Bride of Chucky", "work_id": 88254, "role": "co-producer", "role_id": 915, "is_primary": true}], "also_known_as": "", "date_of_birth": "", "date_of_death": "", "genders": [], "languages": [], "places_of_operation": [], "biography": "", "biography_author": null, "date_of_biography": "2023-05-09T13:09:44.053263+10:00", "external_links": [], "uuid": "24716a9c-c848-4d1f-b4ab-db8787e8c26a", "source": {"name": "Vernon", "slug": "vernon"}, "source_identifier": "19966", "external_references": [{"id": 32904, "source": {"name": "Wikidata", "slug": "wikidata"}, "source_identifier": "Q121036772"}], "date_modified": "2023-09-05T20:18:08.380634+10:00"}, {"id": 78837, "name": "Laurence Rees", "roles_in_work": [{"id": 2170376, "title": "Noel Coward: private lives", "work_id": 88252, "role": "co-director", "role_id": 959, "is_primary": true}, {"id": 2170371, "title": "Noel Coward: private lives", "work_id": 88252, "role": "co-producer", "role_id": 915, "is_primary": true}, {"id": 1810646, "title": "War of the century", "work_id": 91036, "role": "producer", "role_id": 1089, "is_primary": true}], "also_known_as": "", "date_of_birth": "1957-01-01", "date_of_death": "", "genders": [{"id": 9, "name": "Male", "slug": "male"}], "languages": [{"id": 1, "name": "English", "slug": "english"}], "places_of_operation": [{"id": 10, "name": "United Kingdom", "slug": "united-kingdom"}], "biography": "Laurence Rees (born 1957) is an English historian. He is a BAFTA winning historical documentary filmmaker and a British Book Award winning author of several books about Adolf Hitler, the Nazis and the atrocities committed, especially by them, during the 20th century. He is the former Head of BBC TV History Programmes.", "biography_author": "Wikidata", "date_of_biography": "2023-09-05T22:16:11.790392+10:00", "external_links": [{"id": 5970, "uri": "https://en.wikipedia.org/wiki/Laurence_Rees"}], "uuid": "5aa152ff-5d5b-4000-8a8b-bb84a4f62a39", "source": {"name": "Vernon", "slug": "vernon"}, "source_identifier": "23550", "external_references": [{"id": 52002, "source": {"name": "Wikidata", "slug": "wikidata"}, "source_identifier": "Q2746242"}, {"id": 55033, "source": {"name": "VIAF", "slug": "viaf"}, "source_identifier": "86480954"}, {"id": 55034, "source": {"name": "LOC Auth", "slug": "loc-auth"}, "source_identifier": "nr94006927"}, {"id": 55035, "source": {"name": "WorldCat", "slug": "worldcat"}, "source_identifier": "lccn-nr94006927"}], "date_modified": "2023-09-05T22:16:11.811893+10:00"}, {"id": 78836, "name": "Zoran Rakovic", "roles_in_work": [{"id": 2142611, "title": "Computer games", "work_id": 88241, "role": "co-producer", "role_id": 915, "is_primary": true}], "also_known_as": "", "date_of_birth": "", "date_of_death": "", "genders": [], "languages": [], "places_of_operation": [], "biography": "", "biography_author": null, "date_of_biography": "2023-05-09T13:40:30.522951+10:00", "external_links": [], "uuid": "91aae63b-a424-45fd-9d19-843e7438ff0c", "source": {"name": "Vernon", "slug": "vernon"}, "source_identifier": "30698", "external_references": [{"id": 32621, "source": {"name": "Wikidata", "slug": "wikidata"}, "source_identifier": "Q121126449"}], "date_modified": "2023-09-06T02:27:27.441464+10:00"}, {"id": 78835, "name": "Jeremy Ducker", "roles_in_work": [{"id": 2290055, "title": "What goes around comes around", "work_id": 88234, "role": "producer/director", "role_id": 31, "is_primary": true}], "also_known_as": "", "date_of_birth": "", "date_of_death": "", "genders": [], "languages": [], "places_of_operation": [], "biography": "", "biography_author": null, "date_of_biography": "2023-05-09T18:17:22.599793+10:00", "external_links": [], "uuid": "a41b0ad8-754f-48e5-bd9d-3b069eed6005", "source": {"name": "Vernon", "slug": "vernon"}, "source_identifier": "21739", "external_references": [{"id": 50856, "source": {"name": "Wikidata", "slug": "wikidata"}, "source_identifier": "Q121361256"}], "date_modified": "2023-09-05T21:21:14.951205+10:00"}, {"id": 78834, "name": "David F. Turnbull", "roles_in_work": [{"id": 799149, "title": "Michael Palin's Hemingway adventure", "work_id": 88229, "role": "director", "role_id": 938, "is_primary": true}], "also_known_as": "", "date_of_birth": null, "date_of_death": null, "genders": [], "languages": [], "places_of_operation": [], "biography": "", "biography_author": null, "date_of_biography": null, "external_links": [], "uuid": "48d0c9d8-2cdb-4737-a304-d1a3dcc8190a", "source": {"name": "Vernon", "slug": "vernon"}, "source_identifier": null, "external_references": [{"id": 39907, "source": {"name": "Wikidata", "slug": "wikidata"}, "source_identifier": "Q121035866"}], "date_modified": "2023-09-05T18:56:42.947818+10:00"}]}