{"count": 28687, "next": "https://api.acmi.net.au/creators/?page=1397", "previous": "https://api.acmi.net.au/creators/?page=1395", "results": [{"id": 37113, "name": "Shuki Levy", "roles_in_work": [{"id": 2259228, "title": "Rusty: the great rescue", "work_id": 94994, "role": "director", "role_id": 938, "is_primary": true}], "also_known_as": "", "date_of_birth": "1947-06-03", "date_of_death": "", "genders": [{"id": 9, "name": "Male", "slug": "male"}], "languages": [{"id": 1, "name": "English", "slug": "english"}, {"id": 11, "name": "Hebrew", "slug": "hebrew"}], "places_of_operation": [{"id": 33, "name": "Israel", "slug": "israel"}], "biography": "Shuki Levy (Hebrew: שוקי לוי; born June 3, 1947) is an Israeli-American music composer and television producer. Levy's best known work is soundtrack compositions for children's television programs of the 1980s, such as The Real Ghostbusters, Inspector Gadget, The Mysterious Cities of Gold, M.A.S.K., Dinosaucers, He-Man and the Masters of the Universe, She-Ra: Princess of Power, and Jayce and the Wheeled Warriors. In the 1990s, he became known chiefly for his work on the Power Rangers franchise, Digimon: Digital Monsters, Masked Rider, VR Troopers, and Big Bad Beetleborgs. He has also written and directed numerous episodes for some these television shows, and directed a few films, such as Perfect Victims (1988) and Blind Vision (1991). He was also part of a musical duo known as Shuky & Aviva (alternatively Shuki & Aviva) with his partner Aviva Paz.", "biography_author": "Wikidata", "date_of_biography": "2023-08-01T17:04:58.254892+10:00", "external_links": [{"id": 5160, "uri": "https://en.wikipedia.org/wiki/Shuki_Levy"}], "uuid": "c5844544-4304-44c9-8cc5-b9d6f1fdbb57", "source": {"name": "Vernon", "slug": "vernon"}, "source_identifier": "28791", "external_references": [{"id": 26834, "source": {"name": "Wikidata", "slug": "wikidata"}, "source_identifier": "Q2056096"}, {"id": 31518, "source": {"name": "VIAF", "slug": "viaf"}, "source_identifier": "49408633"}, {"id": 31519, "source": {"name": "LOC Auth", "slug": "loc-auth"}, "source_identifier": "no2010015006"}, {"id": 31520, "source": {"name": "WorldCat", "slug": "worldcat"}, "source_identifier": "lccn-no2010015006"}], "date_modified": "2023-09-06T01:17:31.431517+10:00"}, {"id": 37112, "name": "Craig Golin", "roles_in_work": [{"id": 2259226, "title": "Rusty: the great rescue", "work_id": 94994, "role": "producer", "role_id": 1089, "is_primary": true}], "also_known_as": "", "date_of_birth": "", "date_of_death": "", "genders": [], "languages": [], "places_of_operation": [], "biography": "", "biography_author": null, "date_of_biography": "2023-05-09T17:25:13.802570+10:00", "external_links": [], "uuid": "7db6ef9a-a910-4415-821d-798ec2d2e1ed", "source": {"name": "Vernon", "slug": "vernon"}, "source_identifier": "17235", "external_references": [{"id": 35280, "source": {"name": "Wikidata", "slug": "wikidata"}, "source_identifier": "Q121271164"}], "date_modified": "2023-09-05T18:46:16.394647+10:00"}, {"id": 37111, "name": "Saban Entertainment", "roles_in_work": [{"id": 2259222, "title": "Rusty: the great rescue", "work_id": 94994, "role": "production company", "role_id": 941, "is_primary": true}], "also_known_as": "", "date_of_birth": "", "date_of_death": "", "genders": [], "languages": [], "places_of_operation": [], "biography": "Saban Entertainment, Inc. (along with Saban International; currently operating under the legal name, BVS Entertainment, Inc.) was a worldwide-served independent US-Israeli television production company formed in 1980 by Haim Saban and Shuki Levy, which was originally founded as a music production company under the name, Saban Productions. The first TV show produced by Saban is the live action/animated show Kidd Video.\nThe company imported, dubbed, and adapted various Japanese series such as Maple Town, Noozles, Funky Fables, Samurai Pizza Cats, and the first three Digimon series to North American and international markets over syndication, including both animation and live-action shows. Saban also adapted various tokusatsu shows from Toei Company, including Power Rangers (based on the Super Sentai series), Big Bad Beetleborgs (based on Juukou B-Fighter), VR Troopers (featuring elements of Metal Hero series such as Space Sheriff Shaider, Jikuu Senshi Spielban, and Choujinki Metalder), and Masked Rider (an original interpretation using scenes from the Japanese Kamen Rider Black RX).\nSaban was involved in the co-production of French/US animated shows created by Jean Chalopin for DIC Entertainment. Some of these early 1980s co-productions were Camp Candy, Ulysses 31, Jayce and the Wheeled Warriors, and The Mysterious Cities of Gold (the third of which was a Japanese co-production).\nSaban has also distributed and provided music for television programs produced by other companies such as The Super Mario Bros. Super Show!, Inspector Gadget and the first two dubbed seasons of Dragon Ball Z.\nIn the 1990s, Saban also operated a production company Libra Pictures, which was targeted to older audiences than it was on Saban's normal kid-friendly output, as well as a syndicated subsidiary Saban Domestic Distribution, whose primarily purpose was to distribute shows for first-run and off-net syndication.\n\n", "biography_author": "Wikidata", "date_of_biography": "2023-08-01T16:57:50.531150+10:00", "external_links": [{"id": 5099, "uri": "https://en.wikipedia.org/wiki/Saban_Entertainment"}], "uuid": "c9907a00-1609-4963-a1cd-b0c6248b66fb", "source": {"name": "Vernon", "slug": "vernon"}, "source_identifier": "12222", "external_references": [{"id": 25269, "source": {"name": "Wikidata", "slug": "wikidata"}, "source_identifier": "Q2719775"}, {"id": 31366, "source": {"name": "VIAF", "slug": "viaf"}, "source_identifier": "312563078"}, {"id": 31367, "source": {"name": "LOC Auth", "slug": "loc-auth"}, "source_identifier": "no2003038881"}, {"id": 31368, "source": {"name": "WorldCat", "slug": "worldcat"}, "source_identifier": "lccn-no2003038881"}], "date_modified": "2023-09-06T01:00:55.958736+10:00"}, {"id": 37108, "name": "InDigEnt (US)", "roles_in_work": [{"id": 2322050, "title": "Tape", "work_id": 94993, "role": "production company", "role_id": 941, "is_primary": true}], "also_known_as": "", "date_of_birth": "", "date_of_death": "", "genders": [], "languages": [], "places_of_operation": [], "biography": "", "biography_author": null, "date_of_biography": "2023-05-09T19:13:34.938508+10:00", "external_links": [], "uuid": "3e4d9fc4-4f0b-4764-800b-aaf1f8b71eb2", "source": {"name": "Vernon", "slug": "vernon"}, "source_identifier": "4724", "external_references": [{"id": 39792, "source": {"name": "Wikidata", "slug": "wikidata"}, "source_identifier": "Q121035972"}], "date_modified": "2023-09-05T20:48:26.571297+10:00"}, {"id": 37098, "name": "Broadcast News Networks", "roles_in_work": [{"id": 2065243, "title": "7 Days in September", "work_id": 94988, "role": "production company", "role_id": 941, "is_primary": true}], "also_known_as": "", "date_of_birth": "", "date_of_death": "", "genders": [], "languages": [], "places_of_operation": [], "biography": "", "biography_author": null, "date_of_biography": "2023-05-09T11:21:58.832186+10:00", "external_links": [], "uuid": "03ac77b3-c9b2-41a8-a1b2-a2f601e79a00", "source": {"name": "Vernon", "slug": "vernon"}, "source_identifier": "6066", "external_references": [{"id": 34458, "source": {"name": "Wikidata", "slug": "wikidata"}, "source_identifier": "Q121223132"}], "date_modified": "2023-09-05T18:11:59.237222+10:00"}, {"id": 37091, "name": "Lightstream films", "roles_in_work": [{"id": 2174414, "title": "One perfect day", "work_id": 94984, "role": "production company", "role_id": 941, "is_primary": true}], "also_known_as": "", "date_of_birth": "", "date_of_death": "", "genders": [], "languages": [], "places_of_operation": [], "biography": "", "biography_author": null, "date_of_biography": "2023-05-09T14:43:11.318247+10:00", "external_links": [], "uuid": "60fec9db-5d92-4f98-8b92-00487c76594b", "source": {"name": "Vernon", "slug": "vernon"}, "source_identifier": "10062", "external_references": [{"id": 39912, "source": {"name": "Wikidata", "slug": "wikidata"}, "source_identifier": "Q121035014"}], "date_modified": "2023-09-05T22:24:41.018793+10:00"}, {"id": 37086, "name": "Morgan Spurlock", "roles_in_work": [{"id": 2318421, "title": "Super size me", "work_id": 94982, "role": "director", "role_id": 938, "is_primary": true}, {"id": 2318415, "title": "Super size me", "work_id": 94982, "role": "co-producer", "role_id": 915, "is_primary": true}], "also_known_as": "", "date_of_birth": "1970-11-07", "date_of_death": null, "genders": [{"id": 9, "name": "Male", "slug": "male"}], "languages": [{"id": 1, "name": "English", "slug": "english"}], "places_of_operation": [{"id": 1, "name": "United States of America", "slug": "united-states-of-america"}], "biography": "Morgan Valentine Spurlock (born November 7, 1970) is an American documentary filmmaker, humorist, television producer, screenwriter and playwright.\nSpurlock's films include Super Size Me (2004), Where in the World Is Osama bin Laden? (2008), POM Wonderful Presents: The Greatest Movie Ever Sold (2011), Comic-Con Episode IV: A Fan's Hope (2011), One Direction: This Is Us (2013) and Super Size Me 2 (2017). He was the executive producer and star of the reality television series 30 Days (2005–2008). In June 2013, Spurlock became host and producer of the CNN show Morgan Spurlock Inside Man (2013–2016). He is also the co-founder of short-film content marketing company Cinelan, which produced the Focus Forward campaign for GE.", "biography_author": "Wikidata", "date_of_biography": "2022-05-19T12:33:15.959942+10:00", "external_links": [{"id": 2758, "uri": "https://en.wikipedia.org/wiki/Morgan_Spurlock"}], "uuid": "f9eb8295-b35e-4bed-8980-775c43578b64", "source": {"name": "Vernon", "slug": "vernon"}, "source_identifier": "25523", "external_references": [{"id": 11754, "source": {"name": "Wikidata", "slug": "wikidata"}, "source_identifier": "Q364421"}, {"id": 11755, "source": {"name": "VIAF", "slug": "viaf"}, "source_identifier": "72505094"}, {"id": 11756, "source": {"name": "LOC Auth", "slug": "loc-auth"}, "source_identifier": "no2004105275"}, {"id": 11757, "source": {"name": "WorldCat", "slug": "worldcat"}, "source_identifier": "lccn-no2004105275"}], "date_modified": "2023-09-13T12:31:33.646804+10:00"}, {"id": 37085, "name": "Showtime Independent", "roles_in_work": [{"id": 2318410, "title": "Super size me", "work_id": 94982, "role": "production company", "role_id": 941, "is_primary": true}], "also_known_as": "", "date_of_birth": "", "date_of_death": "", "genders": [], "languages": [], "places_of_operation": [], "biography": "", "biography_author": null, "date_of_biography": "2023-05-09T19:08:29.167714+10:00", "external_links": [], "uuid": "bd6b1def-02d9-4dc1-b5e9-02125dbbeb95", "source": {"name": "Vernon", "slug": "vernon"}, "source_identifier": "12557", "external_references": [{"id": 39730, "source": {"name": "Wikidata", "slug": "wikidata"}, "source_identifier": "Q121079448"}], "date_modified": "2023-09-06T01:17:04.087000+10:00"}, {"id": 37084, "name": "Samuel Goldwyn Films", "roles_in_work": [{"id": 2318405, "title": "Super size me", "work_id": 94982, "role": "production company", "role_id": 941, "is_primary": true}], "also_known_as": "", "date_of_birth": "", "date_of_death": "", "genders": [], "languages": [], "places_of_operation": [], "biography": "Samuel Goldwyn Films is an American film company that licenses, releases and distributes art-house, independent and foreign films. It was founded by Samuel Goldwyn Jr., the son of the Hollywood business magnate/mogul, Samuel Goldwyn. The current incarnation is a successor to The Samuel Goldwyn Company.", "biography_author": "Wikidata", "date_of_biography": "2023-09-06T01:04:10.617635+10:00", "external_links": [{"id": 6166, "uri": "https://en.wikipedia.org/wiki/Samuel_Goldwyn_Films"}], "uuid": "46785a83-c51d-42fb-b918-b93e8731bfb5", "source": {"name": "Vernon", "slug": "vernon"}, "source_identifier": "12264", "external_references": [{"id": 51031, "source": {"name": "Wikidata", "slug": "wikidata"}, "source_identifier": "Q3010012"}, {"id": 55756, "source": {"name": "VIAF", "slug": "viaf"}, "source_identifier": "136333548"}, {"id": 55757, "source": {"name": "LOC Auth", "slug": "loc-auth"}, "source_identifier": "no94028897"}, {"id": 55758, "source": {"name": "WorldCat", "slug": "worldcat"}, "source_identifier": "lccn-no94028897"}], "date_modified": "2023-09-06T01:04:10.641140+10:00"}, {"id": 37083, "name": "Roadside Attractions", "roles_in_work": [{"id": 2318399, "title": "Super size me", "work_id": 94982, "role": "production company", "role_id": 941, "is_primary": true}], "also_known_as": "", "date_of_birth": "", "date_of_death": "", "genders": [], "languages": [], "places_of_operation": [], "biography": "Roadside Attractions is an American production company and film distributor based in Los Angeles, California, founded on July 27, 2000, by Howard Cohen and Eric d’Arbeloff, specializing largely in independent films. Lionsgate bought a portion of Roadside in 2007.", "biography_author": "Wikidata", "date_of_biography": "2023-09-06T00:37:16.362497+10:00", "external_links": [{"id": 6138, "uri": "https://en.wikipedia.org/wiki/Roadside_Attractions"}], "uuid": "b6b4f886-db88-43b1-90f7-90360475babc", "source": {"name": "Vernon", "slug": "vernon"}, "source_identifier": "12064", "external_references": [{"id": 50840, "source": {"name": "Wikidata", "slug": "wikidata"}, "source_identifier": "Q7339672"}, {"id": 55663, "source": {"name": "VIAF", "slug": "viaf"}, "source_identifier": "306402921"}, {"id": 55664, "source": {"name": "LOC Auth", "slug": "loc-auth"}, "source_identifier": "no00067524"}, {"id": 55665, "source": {"name": "WorldCat", "slug": "worldcat"}, "source_identifier": "lccn-no00067524"}], "date_modified": "2023-09-06T00:37:16.386986+10:00"}]}