{"count": 28682, "next": "https://api.acmi.net.au/creators/?page=2155", "previous": "https://api.acmi.net.au/creators/?page=2153", "results": [{"id": 19502, "name": "Arbor Films", "roles_in_work": [{"id": 864842, "title": "The Impersonation", "work_id": 78344, "role": "production company", "role_id": 941, "is_primary": true}, {"id": 761049, "title": "Tom Phillips", "work_id": 76060, "role": "production company", "role_id": 941, "is_primary": true}, {"id": 765291, "title": "Clothespeak", "work_id": 77792, "role": "production company", "role_id": 941, "is_primary": true}, {"id": 2406740, "title": "Elizabeth Maconchy", "work_id": 78346, "role": "production company", "role_id": 941, "is_primary": true}, {"id": 2411396, "title": "Imperial city", "work_id": 76440, "role": "production company", "role_id": 941, "is_primary": true}], "also_known_as": "", "date_of_birth": "", "date_of_death": "", "genders": [], "languages": [], "places_of_operation": [], "biography": "", "biography_author": null, "date_of_biography": "2023-08-11T18:19:33.156167+10:00", "external_links": [], "uuid": "e21912e3-72d9-4d1f-84a9-bb4f030c110f", "source": {"name": "Vernon", "slug": "vernon"}, "source_identifier": "3774", "external_references": [], "date_modified": "2023-08-11T18:19:33.156391+10:00"}, {"id": 19500, "name": "Otter Productions", "roles_in_work": [{"id": 2411419, "title": "In a rehearsal room", "work_id": 76059, "role": "production company", "role_id": 941, "is_primary": true}], "also_known_as": "", "date_of_birth": "", "date_of_death": "", "genders": [], "languages": [], "places_of_operation": [], "biography": "", "biography_author": null, "date_of_biography": "2023-08-11T18:20:03.685799+10:00", "external_links": [], "uuid": "ab7856f2-cf5e-4f19-8d67-9374fcde9a4d", "source": {"name": "Vernon", "slug": "vernon"}, "source_identifier": "11194", "external_references": [], "date_modified": "2023-08-11T18:20:03.686032+10:00"}, {"id": 19498, "name": "Willem Vilioen", "roles_in_work": [{"id": 2401923, "title": "Bantu tribes of Southern Africa", "work_id": 76057, "role": "producer", "role_id": 1089, "is_primary": true}], "also_known_as": "", "date_of_birth": "", "date_of_death": "", "genders": [], "languages": [], "places_of_operation": [], "biography": "", "biography_author": null, "date_of_biography": "2023-08-11T14:34:53.110407+10:00", "external_links": [], "uuid": "15cafada-2296-4346-be07-ca974c11d801", "source": {"name": "Vernon", "slug": "vernon"}, "source_identifier": "30360", "external_references": [], "date_modified": "2023-08-11T14:34:53.110673+10:00"}, {"id": 19497, "name": "Paul Hoefler Special Productions", "roles_in_work": [{"id": 878046, "title": "Gymnastics! Fundamentals and techniques. Pt. 1", "work_id": 91063, "role": "production company", "role_id": 941, "is_primary": true}, {"id": 878047, "title": "Gymnastics! Fundamentals and techniques. Pt. 2", "work_id": 91064, "role": "production company", "role_id": 941, "is_primary": true}, {"id": 2401922, "title": "Bantu tribes of Southern Africa", "work_id": 76057, "role": "production company", "role_id": 941, "is_primary": true}], "also_known_as": "", "date_of_birth": "", "date_of_death": "", "genders": [], "languages": [], "places_of_operation": [], "biography": "", "biography_author": null, "date_of_biography": "2023-08-11T14:34:52.483066+10:00", "external_links": [], "uuid": "3d19aae5-0be2-4201-aead-369fc650ad8b", "source": {"name": "Vernon", "slug": "vernon"}, "source_identifier": "11349", "external_references": [], "date_modified": "2023-08-11T14:34:52.483406+10:00"}, {"id": 19496, "name": "Reid H Ray", "roles_in_work": [{"id": 2406226, "title": "Discover America", "work_id": 76056, "role": "director", "role_id": 938, "is_primary": true}, {"id": 1915958, "title": "The Heritage of the uncommon man", "work_id": 90276, "role": "producer", "role_id": 1089, "is_primary": true}], "also_known_as": "", "date_of_birth": "", "date_of_death": "", "genders": [], "languages": [], "places_of_operation": [], "biography": "", "biography_author": null, "date_of_biography": "2023-08-11T16:08:55.873995+10:00", "external_links": [], "uuid": "8da2c818-ffb9-4869-a14c-298baccb13e1", "source": {"name": "Vernon", "slug": "vernon"}, "source_identifier": "27239", "external_references": [], "date_modified": "2023-08-11T16:08:55.874222+10:00"}, {"id": 19495, "name": "Reid Ray Films", "roles_in_work": [{"id": 2406225, "title": "Discover America", "work_id": 76056, "role": "production company", "role_id": 941, "is_primary": true}], "also_known_as": "", "date_of_birth": "", "date_of_death": "", "genders": [], "languages": [], "places_of_operation": [], "biography": "", "biography_author": null, "date_of_biography": "2023-08-11T16:08:55.231023+10:00", "external_links": [], "uuid": "dbd05e16-f166-432c-a005-5c3f339ab669", "source": {"name": "Vernon", "slug": "vernon"}, "source_identifier": "11940", "external_references": [], "date_modified": "2023-08-11T16:08:55.231241+10:00"}, {"id": 19491, "name": "Tony Paice", "roles_in_work": [{"id": 2754768, "title": "Kids making decisions", "work_id": 99351, "role": "director", "role_id": 938, "is_primary": true}, {"id": 2752639, "title": "Just a story", "work_id": 98390, "role": "co-producer", "role_id": 915, "is_primary": true}, {"id": 2374004, "title": "Projection Without Tears", "work_id": 76047, "role": "co-producer", "role_id": 915, "is_primary": true}, {"id": 2754778, "title": "Hidden costs", "work_id": 99356, "role": "co-producers/directors", "role_id": 628, "is_primary": true}, {"id": 2753900, "title": "Carnivore capers", "work_id": 98972, "role": "producer", "role_id": 1089, "is_primary": true}, {"id": 2753838, "title": "Student participation", "work_id": 98950, "role": "producer", "role_id": 1089, "is_primary": true}, {"id": 2753956, "title": "Ride with care", "work_id": 98996, "role": "producer", "role_id": 1089, "is_primary": true}, {"id": 2754125, "title": "Home entertainment last century", "work_id": 99065, "role": "producer", "role_id": 1089, "is_primary": true}, {"id": 2754395, "title": "Getting started with Health Education", "work_id": 99186, "role": "producer", "role_id": 1089, "is_primary": true}, {"id": 2754522, "title": "Clickers club: photo adventures in curriculum", "work_id": 99241, "role": "producer", "role_id": 1089, "is_primary": true}, {"id": 1816469, "title": "Students in action", "work_id": 99005, "role": "producer", "role_id": 1089, "is_primary": true}, {"id": 1816468, "title": "Science talent search", "work_id": 98997, "role": "producer", "role_id": 1089, "is_primary": true}, {"id": 2752733, "title": "Plastic economy: banking and technology", "work_id": 98433, "role": "producer/director", "role_id": 31, "is_primary": true}, {"id": 2752610, "title": "Holidays pay", "work_id": 98377, "role": "producer/director", "role_id": 31, "is_primary": true}, {"id": 2754270, "title": "Rachel; Just one of the kids", "work_id": 99128, "role": "producer/director", "role_id": 31, "is_primary": true}, {"id": 2754648, "title": "Zoo Dance", "work_id": 99293, "role": "producer/director", "role_id": 31, "is_primary": true}], "also_known_as": "", "date_of_birth": "", "date_of_death": "", "genders": [], "languages": [], "places_of_operation": [], "biography": "", "biography_author": null, "date_of_biography": "2023-07-05T03:48:14.888630+10:00", "external_links": [], "uuid": "11e904a7-a30c-4eca-b1bd-1bd24fe6ff02", "source": {"name": "Vernon", "slug": "vernon"}, "source_identifier": "29895", "external_references": [{"id": 37522, "source": {"name": "Wikidata", "slug": "wikidata"}, "source_identifier": "Q121315454"}], "date_modified": "2025-03-13T01:51:02.726638+11:00"}, {"id": 19487, "name": "Geoff Todd", "roles_in_work": [{"id": 2765894, "title": "Eat Art", "work_id": 76038, "role": "producer", "role_id": 1089, "is_primary": true}], "also_known_as": "", "date_of_birth": "", "date_of_death": "", "genders": [], "languages": [], "places_of_operation": [], "biography": "", "biography_author": null, "date_of_biography": "2023-08-11T16:17:01.555622+10:00", "external_links": [], "uuid": "7df92128-2c86-421a-a2d8-316c9714f8c5", "source": {"name": "Vernon", "slug": "vernon"}, "source_identifier": "19518", "external_references": [], "date_modified": "2025-03-14T17:55:21.074551+11:00"}, {"id": 19486, "name": "United States. Dept. of State", "roles_in_work": [{"id": 2767971, "title": "The History of United States foreign relations", "work_id": 115050, "role": "production company", "role_id": 941, "is_primary": true}, {"id": 2767959, "title": "Youth to maturity", "work_id": 76036, "role": "production company", "role_id": 941, "is_primary": true}], "also_known_as": "", "date_of_birth": "", "date_of_death": "", "genders": [], "languages": [], "places_of_operation": [], "biography": "", "biography_author": null, "date_of_biography": "2023-08-14T12:55:50.149470+10:00", "external_links": [], "uuid": "a804c407-7471-48d0-b9fa-54a9e3ba7c02", "source": {"name": "Vernon", "slug": "vernon"}, "source_identifier": "13879", "external_references": [], "date_modified": "2025-03-14T18:07:51.397419+11:00"}, {"id": 19485, "name": "Anna Jackson", "roles_in_work": [{"id": 2757071, "title": "Loading the Dice(TEFC)", "work_id": 78524, "role": "co-producer", "role_id": 915, "is_primary": true}, {"id": 2764636, "title": "You are what you eat", "work_id": 76035, "role": "producer", "role_id": 1089, "is_primary": true}, {"id": 2758558, "title": "Fibre and Frame (TEFC)", "work_id": 78535, "role": "producer", "role_id": 1089, "is_primary": true}, {"id": 1804373, "title": "So You Want to Stop Smoking", "work_id": 80792, "role": "producer", "role_id": 1089, "is_primary": true}, {"id": 2757075, "title": "Work and play (TEFC)", "work_id": 78599, "role": "producer", "role_id": 1089, "is_primary": true}, {"id": 2757079, "title": "The Food Connection (TEFC)", "work_id": 78600, "role": "producer", "role_id": 1089, "is_primary": true}, {"id": 1808372, "title": "Facing Up to Aids: sex in the '90s", "work_id": 81499, "role": "producer", "role_id": 1089, "is_primary": true}, {"id": 1816276, "title": "Maths at home", "work_id": 98386, "role": "producer", "role_id": 1089, "is_primary": true}, {"id": 2758554, "title": "Woven hangings (TEFC)", "work_id": 78534, "role": "producer", "role_id": 1089, "is_primary": true}], "also_known_as": "", "date_of_birth": "", "date_of_death": "", "genders": [], "languages": [], "places_of_operation": [], "biography": "", "biography_author": null, "date_of_biography": "2023-08-11T19:34:47.880435+10:00", "external_links": [], "uuid": "4c9e761f-04f6-4d58-92cb-b74c0d75ec8a", "source": {"name": "Vernon", "slug": "vernon"}, "source_identifier": "15305", "external_references": [], "date_modified": "2025-03-13T14:43:02.507891+11:00"}]}