{"count": 28683, "next": "https://api.acmi.net.au/creators/?page=2229", "previous": "https://api.acmi.net.au/creators/?page=2227", "results": [{"id": 18110, "name": "Nathan Gross", "roles_in_work": [{"id": 2468213, "title": "The Story of the Timna copper miner", "work_id": 73267, "role": "director", "role_id": 938, "is_primary": true}], "also_known_as": "", "date_of_birth": "", "date_of_death": "", "genders": [], "languages": [], "places_of_operation": [], "biography": "", "biography_author": null, "date_of_biography": "2023-08-14T11:36:31.916165+10:00", "external_links": [], "uuid": "72ef221b-f37e-4ac3-b2fc-67c51ea53353", "source": {"name": "Vernon", "slug": "vernon"}, "source_identifier": "34009", "external_references": [], "date_modified": "2023-08-14T11:36:31.916365+10:00"}, {"id": 18109, "name": "Y. Ephrati", "roles_in_work": [{"id": 2468212, "title": "The Story of the Timna copper miner", "work_id": 73267, "role": "producer", "role_id": 1089, "is_primary": true}], "also_known_as": "", "date_of_birth": "", "date_of_death": "", "genders": [], "languages": [], "places_of_operation": [], "biography": "", "biography_author": null, "date_of_biography": "2023-08-14T11:36:31.291519+10:00", "external_links": [], "uuid": "395c9733-7e2e-4a43-b1d0-112aebaa8cb7", "source": {"name": "Vernon", "slug": "vernon"}, "source_identifier": "34008", "external_references": [], "date_modified": "2023-08-14T11:36:31.291912+10:00"}, {"id": 18105, "name": "Andrei Vinnitsky", "roles_in_work": [{"id": 2468209, "title": "The Story of the Bees", "work_id": 73257, "role": "director", "role_id": 938, "is_primary": true}], "also_known_as": "", "date_of_birth": "", "date_of_death": "", "genders": [], "languages": [], "places_of_operation": [], "biography": "", "biography_author": null, "date_of_biography": "2023-08-14T11:36:26.382495+10:00", "external_links": [], "uuid": "99bbffc2-fe81-485b-add1-6d4ec439d021", "source": {"name": "Vernon", "slug": "vernon"}, "source_identifier": "15136", "external_references": [], "date_modified": "2023-08-14T11:36:26.382763+10:00"}, {"id": 18104, "name": "Moscow Technical Film Studios", "roles_in_work": [{"id": 2468208, "title": "The Story of the Bees", "work_id": 73257, "role": "production company", "role_id": 941, "is_primary": true}], "also_known_as": "", "date_of_birth": "", "date_of_death": "", "genders": [], "languages": [], "places_of_operation": [], "biography": "", "biography_author": null, "date_of_biography": "2023-08-14T11:36:25.770469+10:00", "external_links": [], "uuid": "0752511b-e0a1-418d-9551-fe0dcf933c5a", "source": {"name": "Vernon", "slug": "vernon"}, "source_identifier": "10654", "external_references": [], "date_modified": "2023-08-14T11:36:25.770837+10:00"}, {"id": 18102, "name": "Charles de Lautour", "roles_in_work": [{"id": 2646442, "title": "The Story of money", "work_id": 73242, "role": "director", "role_id": 938, "is_primary": true}, {"id": 909020, "title": "Down lands", "work_id": 89452, "role": "co-director", "role_id": 959, "is_primary": true}], "also_known_as": "", "date_of_birth": null, "date_of_death": null, "genders": [], "languages": [], "places_of_operation": [], "biography": "", "biography_author": null, "date_of_biography": null, "external_links": [], "uuid": "99f30d0e-6e07-4d40-9afd-13b3e64379cb", "source": {"name": "Vernon", "slug": "vernon"}, "source_identifier": "16665", "external_references": [], "date_modified": "2025-03-05T13:05:15.622480+11:00"}, {"id": 18100, "name": "Gerald Cookson", "roles_in_work": [{"id": 858925, "title": "The Story of fine china", "work_id": 73238, "role": "director", "role_id": 938, "is_primary": true}, {"id": 2415334, "title": "Looking at Britain: British press", "work_id": 91812, "role": "director", "role_id": 938, "is_primary": true}, {"id": 1804863, "title": "Taking a time study", "work_id": 73469, "role": "producer", "role_id": 1089, "is_primary": true}], "also_known_as": "", "date_of_birth": "", "date_of_death": "", "genders": [], "languages": [], "places_of_operation": [], "biography": "", "biography_author": null, "date_of_biography": "2023-08-11T19:35:34.548380+10:00", "external_links": [], "uuid": "6d4b1604-d514-43d6-b4c1-77f75717d12f", "source": {"name": "Vernon", "slug": "vernon"}, "source_identifier": "19726", "external_references": [], "date_modified": "2023-08-11T19:35:34.548647+10:00"}, {"id": 18098, "name": "Brian Merrett", "roles_in_work": [{"id": 2646536, "title": "Tasmania's holiday highlands", "work_id": 73523, "role": "director", "role_id": 938, "is_primary": true}, {"id": 754362, "title": "Mining in Australia: the the story of copper", "work_id": 73235, "role": "director", "role_id": 938, "is_primary": true}], "also_known_as": "", "date_of_birth": null, "date_of_death": null, "genders": [], "languages": [], "places_of_operation": [], "biography": "", "biography_author": null, "date_of_biography": null, "external_links": [], "uuid": "47c10d07-4cf3-4eaa-ab64-60adfce91fda", "source": {"name": "Vernon", "slug": "vernon"}, "source_identifier": "33087", "external_references": [], "date_modified": "2025-03-05T13:06:17.859069+11:00"}, {"id": 18097, "name": "Wango Weng", "roles_in_work": [{"id": 2468200, "title": "The Story of Chinese art (TEFC)", "work_id": 73233, "role": "producer", "role_id": 1089, "is_primary": true}], "also_known_as": "", "date_of_birth": "", "date_of_death": "", "genders": [], "languages": [], "places_of_operation": [], "biography": "", "biography_author": null, "date_of_biography": "2023-08-14T11:36:11.917157+10:00", "external_links": [], "uuid": "64286c6a-c4c0-4ed2-93df-d6aa1033b947", "source": {"name": "Vernon", "slug": "vernon"}, "source_identifier": "33244", "external_references": [], "date_modified": "2023-08-14T11:36:11.917392+10:00"}, {"id": 18094, "name": "Flory Films", "roles_in_work": [{"id": 2301768, "title": "Sitting right", "work_id": 89183, "role": "production company", "role_id": 941, "is_primary": true}, {"id": 858912, "title": "The Story of a brownie scout troop", "work_id": 73224, "role": "production company", "role_id": 941, "is_primary": true}], "also_known_as": "", "date_of_birth": "", "date_of_death": "", "genders": [], "languages": [], "places_of_operation": [], "biography": "", "biography_author": null, "date_of_biography": "2023-05-09T18:38:03.404406+10:00", "external_links": [], "uuid": "bc8f5bef-8d7c-4180-8bd5-1b0e67d8b7c6", "source": {"name": "Vernon", "slug": "vernon"}, "source_identifier": "8404", "external_references": [{"id": 35828, "source": {"name": "Wikidata", "slug": "wikidata"}, "source_identifier": "Q121126894"}], "date_modified": "2023-09-05T19:44:53.086936+10:00"}, {"id": 18093, "name": "CSIRO. Film Unit", "roles_in_work": [{"id": 754715, "title": "Supply and drainage ditches", "work_id": 73388, "role": "production company", "role_id": 941, "is_primary": true}, {"id": 754333, "title": "Storms on the sun. Part one. Flare - surge events", "work_id": 73221, "role": "production company", "role_id": 941, "is_primary": true}, {"id": 825942, "title": "Two blades of grass [excerpt]", "work_id": 96116, "role": "production company", "role_id": 941, "is_primary": true}, {"id": 859015, "title": "Structural fatigue and air safety", "work_id": 73316, "role": "production company", "role_id": 941, "is_primary": true}, {"id": 756425, "title": "Two blades of grass", "work_id": 74114, "role": "production company", "role_id": 941, "is_primary": true}, {"id": 2795757, "title": "[Wine growing]", "work_id": 91519, "role": "production company", "role_id": 941, "is_primary": true}], "also_known_as": "", "date_of_birth": "", "date_of_death": "", "genders": [], "languages": [], "places_of_operation": [], "biography": "", "biography_author": null, "date_of_biography": "2023-08-11T12:42:50.604896+10:00", "external_links": [], "uuid": "4202e07c-5578-43f0-bea0-590dc0387c00", "source": {"name": "Vernon", "slug": "vernon"}, "source_identifier": "30797", "external_references": [], "date_modified": "2025-03-14T20:33:13.725655+11:00"}]}