{"count": 28687, "next": "https://api.acmi.net.au/creators/?page=192", "previous": "https://api.acmi.net.au/creators/?page=190", "results": [{"id": 83697, "name": "Peg Osborne", "roles_in_work": [{"id": 2728087, "title": "The Parachute workers", "work_id": 116950, "role": "creator", "role_id": 968, "is_primary": true}], "also_known_as": "", "date_of_birth": "", "date_of_death": "", "genders": [{"id": 5, "name": "Female", "slug": "female"}], "languages": [], "places_of_operation": [], "biography": "", "biography_author": null, "date_of_biography": "2023-08-30T04:26:41.629964+10:00", "external_links": [], "uuid": "7ae6f91b-bca1-4e7d-9a7d-03a31ff3798f", "source": {"name": "Vernon", "slug": "vernon"}, "source_identifier": "35266", "external_references": [], "date_modified": "2025-03-12T08:33:05.078793+11:00"}, {"id": 83696, "name": "Charlie Safstrom", "roles_in_work": [{"id": 2728081, "title": "One hour and twelve minutes left to live", "work_id": 116949, "role": "creator", "role_id": 968, "is_primary": true}], "also_known_as": "", "date_of_birth": "", "date_of_death": "", "genders": [{"id": 9, "name": "Male", "slug": "male"}], "languages": [], "places_of_operation": [], "biography": "", "biography_author": null, "date_of_biography": "2023-08-30T04:26:37.119393+10:00", "external_links": [], "uuid": "5207468b-3928-4941-827a-3626815f6e7e", "source": {"name": "Vernon", "slug": "vernon"}, "source_identifier": "35262", "external_references": [], "date_modified": "2025-03-12T08:33:00.843631+11:00"}, {"id": 83695, "name": "David Higgins", "roles_in_work": [{"id": 2728075, "title": "Join the Navy and see the world", "work_id": 116948, "role": "creator", "role_id": 968, "is_primary": true}], "also_known_as": "", "date_of_birth": "", "date_of_death": "", "genders": [{"id": 9, "name": "Male", "slug": "male"}], "languages": [], "places_of_operation": [], "biography": "", "biography_author": null, "date_of_biography": "2023-08-30T04:26:32.590480+10:00", "external_links": [], "uuid": "8cf3c7ad-72f6-475a-ac76-4d93abc73b5c", "source": {"name": "Vernon", "slug": "vernon"}, "source_identifier": "35263", "external_references": [], "date_modified": "2025-03-12T08:32:56.547111+11:00"}, {"id": 83694, "name": "Wes Bailey", "roles_in_work": [{"id": 2728069, "title": "An Interview with Wes Bailey", "work_id": 116947, "role": "interviewee", "role_id": 496, "is_primary": false}], "also_known_as": "", "date_of_birth": "", "date_of_death": "", "genders": [{"id": 9, "name": "Male", "slug": "male"}], "languages": [], "places_of_operation": [], "biography": "", "biography_author": null, "date_of_biography": "2023-08-30T04:26:28.151930+10:00", "external_links": [], "uuid": "fd73d9d6-79fb-467c-af36-0b30550ec556", "source": {"name": "Vernon", "slug": "vernon"}, "source_identifier": "35590", "external_references": [], "date_modified": "2025-03-12T08:32:52.272991+11:00"}, {"id": 83693, "name": "Phil Bailey", "roles_in_work": [{"id": 2728063, "title": "An Interview with Phil Bailey", "work_id": 116946, "role": "interviewee", "role_id": 496, "is_primary": false}], "also_known_as": "", "date_of_birth": "", "date_of_death": "", "genders": [{"id": 5, "name": "Female", "slug": "female"}], "languages": [], "places_of_operation": [], "biography": "", "biography_author": null, "date_of_biography": "2023-08-30T04:26:23.728614+10:00", "external_links": [], "uuid": "14f3085e-a6a4-4c98-a370-6b745eccd80c", "source": {"name": "Vernon", "slug": "vernon"}, "source_identifier": "35588", "external_references": [], "date_modified": "2025-03-12T08:32:47.949755+11:00"}, {"id": 83692, "name": "Joyce Bryan", "roles_in_work": [{"id": 2728057, "title": "An Interview with Joyce Bryan", "work_id": 116945, "role": "interviewee", "role_id": 496, "is_primary": false}], "also_known_as": "", "date_of_birth": "", "date_of_death": "", "genders": [{"id": 5, "name": "Female", "slug": "female"}], "languages": [], "places_of_operation": [], "biography": "", "biography_author": null, "date_of_biography": "2023-08-30T04:26:19.330100+10:00", "external_links": [], "uuid": "85e48e54-3e51-4d6e-8e2f-08781bf20353", "source": {"name": "Vernon", "slug": "vernon"}, "source_identifier": "35587", "external_references": [], "date_modified": "2025-03-12T08:32:43.663735+11:00"}, {"id": 83691, "name": "James Irvine", "roles_in_work": [{"id": 2728052, "title": "An Interview with James Ross Irvine", "work_id": 116944, "role": "interviewee", "role_id": 496, "is_primary": false}], "also_known_as": "", "date_of_birth": "", "date_of_death": "", "genders": [{"id": 9, "name": "Male", "slug": "male"}], "languages": [], "places_of_operation": [], "biography": "", "biography_author": null, "date_of_biography": "2023-08-30T04:26:15.543843+10:00", "external_links": [], "uuid": "9ef9cbda-825d-422f-9e40-c8f0683060b6", "source": {"name": "Vernon", "slug": "vernon"}, "source_identifier": "35586", "external_references": [], "date_modified": "2025-03-12T08:32:40.003869+11:00"}, {"id": 83690, "name": "Evelyn Warner", "roles_in_work": [{"id": 2728046, "title": "An Interview with Evelyn Warner", "work_id": 116943, "role": "interviewee", "role_id": 496, "is_primary": false}], "also_known_as": "", "date_of_birth": "", "date_of_death": "", "genders": [{"id": 5, "name": "Female", "slug": "female"}], "languages": [], "places_of_operation": [], "biography": "", "biography_author": null, "date_of_biography": "2023-08-30T04:26:11.128400+10:00", "external_links": [], "uuid": "feed2527-435b-4b92-bde3-dabeebf5410e", "source": {"name": "Vernon", "slug": "vernon"}, "source_identifier": "35585", "external_references": [], "date_modified": "2025-03-12T08:32:35.729831+11:00"}, {"id": 83689, "name": "Thomas Parkinson", "roles_in_work": [{"id": 2654945, "title": "The First Wave", "work_id": 116941, "role": "writer", "role_id": 939, "is_primary": true}], "also_known_as": "", "date_of_birth": "", "date_of_death": "", "genders": [], "languages": [], "places_of_operation": [], "biography": "", "biography_author": null, "date_of_biography": "2023-05-09T19:51:53.090312+10:00", "external_links": [], "uuid": "f1d9fe15-da78-4d5e-bb91-44aa1ad26086", "source": {"name": "Vernon", "slug": "vernon"}, "source_identifier": "35247", "external_references": [{"id": 33235, "source": {"name": "Wikidata", "slug": "wikidata"}, "source_identifier": "Q121299158"}], "date_modified": "2025-03-05T16:05:21.412321+11:00"}, {"id": 83688, "name": "Liz Burke", "roles_in_work": [{"id": 2654944, "title": "The First Wave", "work_id": 116941, "role": "producer", "role_id": 1089, "is_primary": true}], "also_known_as": "", "date_of_birth": "", "date_of_death": "", "genders": [], "languages": [], "places_of_operation": [], "biography": "", "biography_author": null, "date_of_biography": "2023-05-09T19:51:52.283550+10:00", "external_links": [], "uuid": "06c6f45c-f6db-4b37-a2bb-1f8e19273798", "source": {"name": "Vernon", "slug": "vernon"}, "source_identifier": "35248", "external_references": [{"id": 34054, "source": {"name": "Wikidata", "slug": "wikidata"}, "source_identifier": "Q121337459"}], "date_modified": "2025-03-05T16:05:20.823945+11:00"}]}