{"count": 28682, "next": "https://api.acmi.net.au/creators/?page=49", "previous": "https://api.acmi.net.au/creators/?page=47", "results": [{"id": 86786, "name": "Christopher Walker", "roles_in_work": [{"id": 2270028, "title": "William Shakespeare [man of the millennium]", "work_id": 90271, "role": "producer/director", "role_id": 31, "is_primary": true}], "also_known_as": "", "date_of_birth": "", "date_of_death": "", "genders": [], "languages": [], "places_of_operation": [], "biography": "", "biography_author": null, "date_of_biography": "2023-05-09T17:43:46.931732+10:00", "external_links": [], "uuid": "5741aab3-8f55-444c-a8f6-4afdf600ba81", "source": {"name": "Vernon", "slug": "vernon"}, "source_identifier": "17011", "external_references": [], "date_modified": "2023-06-14T16:33:30.576250+10:00"}, {"id": 86785, "name": "Bert Stern", "roles_in_work": [{"id": 1847967, "title": "Jazz on a summer's day", "work_id": 89965, "role": "producer/director", "role_id": 31, "is_primary": true}], "also_known_as": "", "date_of_birth": null, "date_of_death": null, "genders": [], "languages": [], "places_of_operation": [], "biography": "", "biography_author": null, "date_of_biography": null, "external_links": [], "uuid": "9d35ec23-221f-4c24-b22f-eb8763c8e359", "source": {"name": "Vernon", "slug": "vernon"}, "source_identifier": null, "external_references": [], "date_modified": "2023-06-14T16:33:30.576250+10:00"}, {"id": 86784, "name": "Ron Jones", "roles_in_work": [{"id": 2196377, "title": "Doctor Who: time flight", "work_id": 89459, "role": "director", "role_id": 938, "is_primary": true}], "also_known_as": "", "date_of_birth": "", "date_of_death": "", "genders": [], "languages": [], "places_of_operation": [], "biography": "", "biography_author": null, "date_of_biography": "2023-05-09T15:17:33.953574+10:00", "external_links": [], "uuid": "04940f31-b85e-491b-82f7-c59badeea28a", "source": {"name": "Vernon", "slug": "vernon"}, "source_identifier": "28150", "external_references": [], "date_modified": "2023-06-14T16:33:30.576250+10:00"}, {"id": 86783, "name": "Gordon Carr", "roles_in_work": [{"id": 1847953, "title": "The Queen mother : 90 glorious years", "work_id": 89457, "role": "co-producer", "role_id": 915, "is_primary": true}], "also_known_as": "", "date_of_birth": null, "date_of_death": null, "genders": [], "languages": [], "places_of_operation": [], "biography": "", "biography_author": null, "date_of_biography": null, "external_links": [], "uuid": "f7cbdc94-4a49-4f4d-8415-364c8108ed6b", "source": {"name": "Vernon", "slug": "vernon"}, "source_identifier": null, "external_references": [], "date_modified": "2023-06-14T16:33:30.576250+10:00"}, {"id": 86782, "name": "Angela Stewart", "roles_in_work": [{"id": 1847952, "title": "The Queen mother : 90 glorious years", "work_id": 89457, "role": "co-producer", "role_id": 915, "is_primary": true}], "also_known_as": "", "date_of_birth": null, "date_of_death": null, "genders": [], "languages": [], "places_of_operation": [], "biography": "", "biography_author": null, "date_of_biography": null, "external_links": [], "uuid": "7290d7eb-0782-4298-b78c-6c9b6d0d3258", "source": {"name": "Vernon", "slug": "vernon"}, "source_identifier": null, "external_references": [], "date_modified": "2023-06-14T16:33:30.576250+10:00"}, {"id": 86781, "name": "Xanthe Parkin", "roles_in_work": [{"id": 1847951, "title": "The Queen mother : 90 glorious years", "work_id": 89457, "role": "co-producer", "role_id": 915, "is_primary": true}], "also_known_as": "", "date_of_birth": null, "date_of_death": null, "genders": [], "languages": [], "places_of_operation": [], "biography": "", "biography_author": null, "date_of_biography": null, "external_links": [], "uuid": "3ef45142-73cd-47de-b471-cfc673cc076d", "source": {"name": "Vernon", "slug": "vernon"}, "source_identifier": null, "external_references": [], "date_modified": "2023-06-14T16:33:30.576250+10:00"}, {"id": 86780, "name": "Joe Costello", "roles_in_work": [{"id": 2246459, "title": "Recycling : the endless circle", "work_id": 89018, "role": "co-director", "role_id": 959, "is_primary": true}, {"id": 2246486, "title": "Recycling: it's everybody's job", "work_id": 89019, "role": "co-director", "role_id": 959, "is_primary": true}], "also_known_as": "", "date_of_birth": "", "date_of_death": "", "genders": [], "languages": [], "places_of_operation": [], "biography": "", "biography_author": null, "date_of_biography": "2023-05-09T17:03:35.511954+10:00", "external_links": [], "uuid": "9a193668-e2bf-4220-8156-8a3dab4d6e43", "source": {"name": "Vernon", "slug": "vernon"}, "source_identifier": "22031", "external_references": [], "date_modified": "2023-06-14T16:33:30.576250+10:00"}, {"id": 86779, "name": "Foster Wiley", "roles_in_work": [{"id": 1847944, "title": "I can help too", "work_id": 89031, "role": "producer/director", "role_id": 31, "is_primary": true}, {"id": 1847896, "title": "I Can make friends", "work_id": 88948, "role": "producer/director", "role_id": 31, "is_primary": true}], "also_known_as": "", "date_of_birth": null, "date_of_death": null, "genders": [], "languages": [], "places_of_operation": [], "biography": "", "biography_author": null, "date_of_biography": null, "external_links": [], "uuid": "2d2d83a9-2401-4acb-ab90-b8c721b07333", "source": {"name": "Vernon", "slug": "vernon"}, "source_identifier": null, "external_references": [], "date_modified": "2023-06-14T16:33:30.576250+10:00"}, {"id": 86778, "name": "Allison Argo", "roles_in_work": [{"id": 1847857, "title": "The Last frog", "work_id": 88925, "role": "producer/director", "role_id": 31, "is_primary": true}], "also_known_as": "", "date_of_birth": null, "date_of_death": null, "genders": [], "languages": [], "places_of_operation": [], "biography": "", "biography_author": null, "date_of_biography": null, "external_links": [], "uuid": "67509363-8487-46e2-8033-aac9fd7c1bc2", "source": {"name": "Vernon", "slug": "vernon"}, "source_identifier": null, "external_references": [], "date_modified": "2023-06-14T16:33:30.576250+10:00"}, {"id": 86777, "name": "Valerie Botta", "roles_in_work": [{"id": 2221757, "title": "Europe: physical geography", "work_id": 88899, "role": "co-producer", "role_id": 915, "is_primary": true}], "also_known_as": "", "date_of_birth": "", "date_of_death": "", "genders": [], "languages": [], "places_of_operation": [], "biography": "", "biography_author": null, "date_of_biography": "2023-05-09T16:18:41.293218+10:00", "external_links": [], "uuid": "fb35238f-dc3b-44a1-bbd7-ca4928a28d46", "source": {"name": "Vernon", "slug": "vernon"}, "source_identifier": "30049", "external_references": [], "date_modified": "2023-06-14T16:33:30.576250+10:00"}]}