{"count": 28687, "next": "https://api.acmi.net.au/creators/?page=2492", "previous": "https://api.acmi.net.au/creators/?page=2490", "results": [{"id": 14023, "name": "Douglas Clarke", "roles_in_work": [{"id": 2713516, "title": "Festival in Edinburgh", "work_id": 67449, "role": "director", "role_id": 938, "is_primary": true}, {"id": 2680336, "title": "Conquest of the dark", "work_id": 66335, "role": "director", "role_id": 938, "is_primary": true}, {"id": 2680414, "title": "Controlled heat", "work_id": 66375, "role": "co-director", "role_id": 959, "is_primary": true}], "also_known_as": "", "date_of_birth": null, "date_of_death": null, "genders": [], "languages": [], "places_of_operation": [], "biography": "", "biography_author": null, "date_of_biography": null, "external_links": [], "uuid": "d3a8177c-faed-45cb-ac57-75ad6f37e0ce", "source": {"name": "Vernon", "slug": "vernon"}, "source_identifier": "18385", "external_references": [], "date_modified": "2025-03-12T00:46:17.024972+11:00"}, {"id": 14022, "name": "Grahame Tharp", "roles_in_work": [{"id": 2680665, "title": "Cricket", "work_id": 66494, "role": "director", "role_id": 938, "is_primary": true}, {"id": 2713685, "title": "Fire risks with underground conveyors", "work_id": 67535, "role": "director", "role_id": 938, "is_primary": true}, {"id": 910395, "title": "The World of life: a journal of the outdoors. Issue No. 7", "work_id": 91147, "role": "co-producer", "role_id": 915, "is_primary": true}, {"id": 910466, "title": "The World of life: a journal of the outdoors. Issue No. 9", "work_id": 91180, "role": "co-producer", "role_id": 915, "is_primary": true}, {"id": 910455, "title": "The World of life: a journal of the outdoors. Issue No. 17", "work_id": 91174, "role": "co-producer", "role_id": 915, "is_primary": true}, {"id": 2680333, "title": "Conquest of Everest", "work_id": 66333, "role": "co-producers/directors", "role_id": 628, "is_primary": true}], "also_known_as": "", "date_of_birth": "1912-07-13", "date_of_death": null, "genders": [{"id": 9, "name": "Male", "slug": "male"}], "languages": [], "places_of_operation": [], "biography": "", "biography_author": null, "date_of_biography": null, "external_links": [], "uuid": "f83d6b50-c68e-4b3a-8e8e-383360569803", "source": {"name": "Vernon", "slug": "vernon"}, "source_identifier": "20017", "external_references": [{"id": 42567, "source": {"name": "Wikidata", "slug": "wikidata"}, "source_identifier": "Q22101642"}, {"id": 54580, "source": {"name": "VIAF", "slug": "viaf"}, "source_identifier": "315182889"}, {"id": 54581, "source": {"name": "LOC Auth", "slug": "loc-auth"}, "source_identifier": "no2015031878"}, {"id": 54582, "source": {"name": "WorldCat", "slug": "worldcat"}, "source_identifier": "lccn-no2015031878"}], "date_modified": "2025-03-12T00:50:16.929034+11:00"}, {"id": 14021, "name": "Group 3", "roles_in_work": [{"id": 2680330, "title": "Conquest of Everest", "work_id": 66333, "role": "production company", "role_id": 941, "is_primary": true}], "also_known_as": "", "date_of_birth": null, "date_of_death": null, "genders": [], "languages": [], "places_of_operation": [], "biography": "", "biography_author": null, "date_of_biography": null, "external_links": [], "uuid": "7ea45c56-4aa4-4d35-a118-ae0b4a5ec233", "source": {"name": "Vernon", "slug": "vernon"}, "source_identifier": "8915", "external_references": [], "date_modified": "2025-03-07T00:31:58.864327+11:00"}, {"id": 14020, "name": "Countrymen Productions", "roles_in_work": [{"id": 2680329, "title": "Conquest of Everest", "work_id": 66333, "role": "production company", "role_id": 941, "is_primary": true}], "also_known_as": "", "date_of_birth": null, "date_of_death": null, "genders": [], "languages": [], "places_of_operation": [], "biography": "", "biography_author": null, "date_of_biography": null, "external_links": [], "uuid": "afaba09a-9e50-4450-b25e-f2743104392f", "source": {"name": "Vernon", "slug": "vernon"}, "source_identifier": "7119", "external_references": [], "date_modified": "2025-03-07T00:31:58.265599+11:00"}, {"id": 14019, "name": "Gryphon Productions", "roles_in_work": [{"id": 2680326, "title": "Conquest of a germ", "work_id": 66332, "role": "production company", "role_id": 941, "is_primary": true}, {"id": 2646440, "title": "The Story of money", "work_id": 73242, "role": "production company", "role_id": 941, "is_primary": true}], "also_known_as": "", "date_of_birth": null, "date_of_death": null, "genders": [], "languages": [], "places_of_operation": [], "biography": "", "biography_author": null, "date_of_biography": null, "external_links": [], "uuid": "7b4ea4a1-a7d8-4f97-bfa2-d7f50d8f1c39", "source": {"name": "Vernon", "slug": "vernon"}, "source_identifier": "8921", "external_references": [], "date_modified": "2025-03-07T00:31:55.814054+11:00"}, {"id": 14018, "name": "David Shaw Smith", "roles_in_work": [{"id": 2680325, "title": "Connemara and its ponies", "work_id": 66331, "role": "producer", "role_id": 1089, "is_primary": true}], "also_known_as": "", "date_of_birth": "", "date_of_death": "", "genders": [], "languages": [], "places_of_operation": [], "biography": "", "biography_author": null, "date_of_biography": "2023-08-11T15:40:49.795478+10:00", "external_links": [], "uuid": "61aa6370-cb5e-43da-94d6-6f55396e3841", "source": {"name": "Vernon", "slug": "vernon"}, "source_identifier": "17788", "external_references": [], "date_modified": "2025-03-07T00:31:54.940566+11:00"}, {"id": 14017, "name": "Encyclopaedia Britannica Educational Corporation", "roles_in_work": [{"id": 2750856, "title": "Transportation: a basic need", "work_id": 97542, "role": "production company", "role_id": 941, "is_primary": true}, {"id": 859408, "title": "Tennessee Williams: theater in process", "work_id": 73618, "role": "production company", "role_id": 941, "is_primary": true}, {"id": 2793842, "title": "The Coniferous forest biome", "work_id": 66330, "role": "production company", "role_id": 941, "is_primary": true}, {"id": 2750834, "title": "Like you, like me: see what I feel", "work_id": 97531, "role": "production company", "role_id": 941, "is_primary": true}, {"id": 859371, "title": "Television: behind the scenes", "work_id": 73589, "role": "production company", "role_id": 941, "is_primary": true}, {"id": 859473, "title": "Theories on the origin of life", "work_id": 73660, "role": "production company", "role_id": 941, "is_primary": true}, {"id": 752157, "title": "Rise of industrial America: the rise of labor", "work_id": 72247, "role": "production company", "role_id": 941, "is_primary": true}, {"id": 2250651, "title": "Rise of industrial America: the rise of the American city", "work_id": 72251, "role": "production company", "role_id": 941, "is_primary": true}], "also_known_as": "", "date_of_birth": "", "date_of_death": "", "genders": [], "languages": [], "places_of_operation": [], "biography": "", "biography_author": null, "date_of_biography": "2023-05-09T20:02:11.934860+10:00", "external_links": [], "uuid": "2b24d99d-0960-4cfd-918a-eed642f88c69", "source": {"name": "Vernon", "slug": "vernon"}, "source_identifier": "30822", "external_references": [{"id": 40550, "source": {"name": "Wikidata", "slug": "wikidata"}, "source_identifier": "Q121315562"}], "date_modified": "2025-03-14T20:21:08.815068+11:00"}, {"id": 14015, "name": "Frank Jacoby", "roles_in_work": [{"id": 2762416, "title": "Submerged glory", "work_id": 73338, "role": "director", "role_id": 938, "is_primary": true}, {"id": 854071, "title": "Killer at large", "work_id": 69388, "role": "director", "role_id": 938, "is_primary": true}, {"id": 854978, "title": "The Man in the blue helmet", "work_id": 70084, "role": "director", "role_id": 938, "is_primary": true}, {"id": 855302, "title": "Mexico: the golden egg", "work_id": 70343, "role": "director", "role_id": 938, "is_primary": true}, {"id": 2680319, "title": "Congo: the way ahead", "work_id": 66328, "role": "co-director", "role_id": 959, "is_primary": true}, {"id": 897020, "title": "The Myths of shoplifting", "work_id": 76658, "role": "co-producer", "role_id": 915, "is_primary": true}, {"id": 2680555, "title": "The Count-down under", "work_id": 66442, "role": "producer", "role_id": 1089, "is_primary": true}], "also_known_as": "", "date_of_birth": "", "date_of_death": "", "genders": [], "languages": [], "places_of_operation": [], "biography": "", "biography_author": null, "date_of_biography": "2023-05-09T13:42:09.281661+10:00", "external_links": [], "uuid": "ab3acb06-53d7-4c9c-9a31-b5a23f1bba46", "source": {"name": "Vernon", "slug": "vernon"}, "source_identifier": "19133", "external_references": [{"id": 33209, "source": {"name": "Wikidata", "slug": "wikidata"}, "source_identifier": "Q121159971"}], "date_modified": "2025-03-07T00:37:10.304306+11:00"}, {"id": 14014, "name": "Peter Schnitzler", "roles_in_work": [{"id": 874086, "title": "Tom", "work_id": 88556, "role": "director", "role_id": 938, "is_primary": true}, {"id": 876937, "title": "Guy", "work_id": 90369, "role": "director", "role_id": 938, "is_primary": true}, {"id": 2291701, "title": "Vision. [No. 30]", "work_id": 75569, "role": "co-director", "role_id": 959, "is_primary": true}, {"id": 2291712, "title": "Vision. [No. 32]", "work_id": 90099, "role": "co-director", "role_id": 959, "is_primary": true}, {"id": 2291376, "title": "Vision. [No. 33]", "work_id": 90139, "role": "co-director", "role_id": 959, "is_primary": true}, {"id": 1813808, "title": "Teddy", "work_id": 89478, "role": "producer", "role_id": 1089, "is_primary": true}, {"id": 2680315, "title": "Confrontation: a nurse and an addict", "work_id": 66326, "role": "producer", "role_id": 1089, "is_primary": true}, {"id": 862189, "title": "Parenting: growing with children", "work_id": 76085, "role": "producer/director", "role_id": 31, "is_primary": true}], "also_known_as": "", "date_of_birth": "", "date_of_death": "", "genders": [], "languages": [], "places_of_operation": [], "biography": "", "biography_author": null, "date_of_biography": "2023-05-09T18:20:32.619449+10:00", "external_links": [], "uuid": "c0b8591c-4258-4d2f-8a2c-0975cfd4df44", "source": {"name": "Vernon", "slug": "vernon"}, "source_identifier": "26705", "external_references": [{"id": 39402, "source": {"name": "Wikidata", "slug": "wikidata"}, "source_identifier": "Q120518193"}], "date_modified": "2025-03-07T00:31:47.734207+11:00"}, {"id": 14013, "name": "Stanley Milgram", "roles_in_work": [{"id": 2680313, "title": "Conformity and independence (TEFC)", "work_id": 66325, "role": "director", "role_id": 938, "is_primary": true}, {"id": 895297, "title": "Obedience", "work_id": 71031, "role": "co-producer", "role_id": 915, "is_primary": true}, {"id": 895265, "title": "Nonverbal communication (TEFC)", "work_id": 70953, "role": "co-producer", "role_id": 915, "is_primary": true}, {"id": 2645262, "title": "Invitation to social psychology (TEFC)", "work_id": 69090, "role": "producer", "role_id": 1089, "is_primary": true}, {"id": 2715872, "title": "Human aggression (TEFC)", "work_id": 68664, "role": "producer", "role_id": 1089, "is_primary": true}], "also_known_as": "", "date_of_birth": "", "date_of_death": "", "genders": [], "languages": [], "places_of_operation": [], "biography": "", "biography_author": null, "date_of_biography": "2023-08-11T18:39:10.610924+10:00", "external_links": [], "uuid": "732cf69c-38ee-4035-af2d-6b65741e4e19", "source": {"name": "Vernon", "slug": "vernon"}, "source_identifier": "28972", "external_references": [], "date_modified": "2025-03-12T01:45:18.294291+11:00"}]}