{"count": 28681, "next": "https://api.acmi.net.au/creators/?page=221", "previous": "https://api.acmi.net.au/creators/?page=219", "results": [{"id": 83403, "name": "Milad Bardan", "roles_in_work": [{"id": 2301878, "title": "The Ties that bind", "work_id": 116591, "role": "creator", "role_id": 968, "is_primary": true}], "also_known_as": "", "date_of_birth": "", "date_of_death": "", "genders": [{"id": 9, "name": "Male", "slug": "male"}], "languages": [], "places_of_operation": [], "biography": "", "biography_author": null, "date_of_biography": "2023-05-09T18:38:11.980109+10:00", "external_links": [], "uuid": "84f673ab-a07a-40fd-8fc4-5dc552b6370e", "source": {"name": "Vernon", "slug": "vernon"}, "source_identifier": "34011", "external_references": [], "date_modified": "2023-06-14T16:33:30.576250+10:00"}, {"id": 83402, "name": "Nabil Bardan", "roles_in_work": [{"id": 2301980, "title": "Sister", "work_id": 116590, "role": "creator", "role_id": 968, "is_primary": true}], "also_known_as": "", "date_of_birth": "", "date_of_death": "", "genders": [{"id": 9, "name": "Male", "slug": "male"}], "languages": [], "places_of_operation": [], "biography": "", "biography_author": null, "date_of_biography": "2023-05-09T18:38:19.695369+10:00", "external_links": [], "uuid": "0dc5c194-e6cd-4f1a-a1bc-9d093035cedf", "source": {"name": "Vernon", "slug": "vernon"}, "source_identifier": "34013", "external_references": [], "date_modified": "2023-06-14T16:33:30.576250+10:00"}, {"id": 83401, "name": "Ash Bardan", "roles_in_work": [{"id": 2302030, "title": "The Shining black star", "work_id": 116589, "role": "creator", "role_id": 968, "is_primary": true}], "also_known_as": "", "date_of_birth": "", "date_of_death": "", "genders": [{"id": 9, "name": "Male", "slug": "male"}], "languages": [], "places_of_operation": [], "biography": "", "biography_author": null, "date_of_biography": "2023-05-09T18:38:24.693409+10:00", "external_links": [], "uuid": "0ea78c66-5488-49e5-a146-f45b18db0900", "source": {"name": "Vernon", "slug": "vernon"}, "source_identifier": "34012", "external_references": [], "date_modified": "2023-06-14T16:33:30.576250+10:00"}, {"id": 83400, "name": "Tristan Tatenhou", "roles_in_work": [{"id": 2302013, "title": "Read this title", "work_id": 116588, "role": "creator", "role_id": 968, "is_primary": true}], "also_known_as": "", "date_of_birth": "", "date_of_death": "", "genders": [{"id": 9, "name": "Male", "slug": "male"}], "languages": [], "places_of_operation": [], "biography": "", "biography_author": null, "date_of_biography": "2023-05-09T18:38:22.990998+10:00", "external_links": [], "uuid": "b165b304-c669-4f23-88a6-a390ea03eeaf", "source": {"name": "Vernon", "slug": "vernon"}, "source_identifier": "33937", "external_references": [], "date_modified": "2023-06-14T16:33:30.576250+10:00"}, {"id": 83399, "name": "Daniel Fabris", "roles_in_work": [{"id": 2301942, "title": "My Scar", "work_id": 116587, "role": "creator", "role_id": 968, "is_primary": true}], "also_known_as": "", "date_of_birth": "", "date_of_death": "", "genders": [{"id": 9, "name": "Male", "slug": "male"}], "languages": [], "places_of_operation": [], "biography": "", "biography_author": null, "date_of_biography": "2023-05-09T18:38:16.513913+10:00", "external_links": [], "uuid": "bd12907c-e490-4660-baff-76d546033e6f", "source": {"name": "Vernon", "slug": "vernon"}, "source_identifier": "33938", "external_references": [], "date_modified": "2023-06-14T16:33:30.576250+10:00"}, {"id": 83398, "name": "Fei Hu Song", "roles_in_work": [{"id": 2301963, "title": "My life to study", "work_id": 116586, "role": "creator", "role_id": 968, "is_primary": true}], "also_known_as": "", "date_of_birth": "", "date_of_death": "", "genders": [{"id": 9, "name": "Male", "slug": "male"}], "languages": [], "places_of_operation": [], "biography": "", "biography_author": null, "date_of_biography": "2023-05-09T18:38:18.247893+10:00", "external_links": [], "uuid": "3cf59550-9832-4a35-bf2f-f790eb3361e4", "source": {"name": "Vernon", "slug": "vernon"}, "source_identifier": "33933", "external_references": [], "date_modified": "2023-06-14T16:33:30.576250+10:00"}, {"id": 83397, "name": "Fan Chen", "roles_in_work": [{"id": 2302043, "title": "My dad", "work_id": 116585, "role": "creator", "role_id": 968, "is_primary": true}], "also_known_as": "", "date_of_birth": "", "date_of_death": "", "genders": [{"id": 9, "name": "Male", "slug": "male"}], "languages": [], "places_of_operation": [], "biography": "", "biography_author": null, "date_of_biography": "2023-05-09T18:38:26.228236+10:00", "external_links": [], "uuid": "35ad0023-4200-40f4-9ab7-777098bae8fb", "source": {"name": "Vernon", "slug": "vernon"}, "source_identifier": "33936", "external_references": [], "date_modified": "2023-06-14T16:33:30.576250+10:00"}, {"id": 83396, "name": "Stephen Hodges", "roles_in_work": [{"id": 2301997, "title": "A Different type of game", "work_id": 116584, "role": "creator", "role_id": 968, "is_primary": true}], "also_known_as": "", "date_of_birth": "", "date_of_death": "", "genders": [{"id": 9, "name": "Male", "slug": "male"}], "languages": [], "places_of_operation": [], "biography": "", "biography_author": null, "date_of_biography": "2023-05-09T18:38:21.159236+10:00", "external_links": [], "uuid": "f3c5337e-2266-4bea-8b1a-724848542da8", "source": {"name": "Vernon", "slug": "vernon"}, "source_identifier": "33934", "external_references": [], "date_modified": "2023-06-14T16:33:30.576250+10:00"}, {"id": 83395, "name": "Enno Patalas", "roles_in_work": [{"id": 2289187, "title": "Setting the scene: the Metropolis case", "work_id": 116582, "role": "creator", "role_id": 968, "is_primary": true}], "also_known_as": "", "date_of_birth": "", "date_of_death": "", "genders": [], "languages": [], "places_of_operation": [], "biography": "", "biography_author": null, "date_of_biography": "2023-05-09T18:15:34.811342+10:00", "external_links": [], "uuid": "96ba5f55-e782-4c52-82f3-bc5a17a9828c", "source": {"name": "Vernon", "slug": "vernon"}, "source_identifier": "33878", "external_references": [], "date_modified": "2023-06-14T16:33:30.576250+10:00"}, {"id": 83394, "name": "Duc Hoang Nguyen", "roles_in_work": [{"id": 2287328, "title": "Two lives", "work_id": 116581, "role": "creator", "role_id": 968, "is_primary": true}], "also_known_as": "", "date_of_birth": "", "date_of_death": "", "genders": [{"id": 9, "name": "Male", "slug": "male"}], "languages": [], "places_of_operation": [], "biography": "", "biography_author": null, "date_of_biography": "2023-05-09T18:12:05.179762+10:00", "external_links": [], "uuid": "554859bf-5f8d-4821-9b26-4aa043018b1f", "source": {"name": "Vernon", "slug": "vernon"}, "source_identifier": "33799", "external_references": [], "date_modified": "2023-06-14T16:33:30.576250+10:00"}]}