{"count": 28687, "next": "https://api.acmi.net.au/creators/?page=2216", "previous": "https://api.acmi.net.au/creators/?page=2214", "results": [{"id": 18390, "name": "Morse Films", "roles_in_work": [{"id": 2646627, "title": "Thursday's children", "work_id": 73809, "role": "production company", "role_id": 941, "is_primary": true}, {"id": 2468311, "title": "The Vision of William Blake (TEFC)", "work_id": 74397, "role": "production company", "role_id": 941, "is_primary": true}], "also_known_as": "", "date_of_birth": "", "date_of_death": "", "genders": [], "languages": [], "places_of_operation": [], "biography": "", "biography_author": null, "date_of_biography": "2023-08-14T11:38:57.164487+10:00", "external_links": [], "uuid": "fbd48051-62f0-4422-b5ca-8facdb35c68a", "source": {"name": "Vernon", "slug": "vernon"}, "source_identifier": "10646", "external_references": [], "date_modified": "2025-03-05T13:07:26.768260+11:00"}, {"id": 18389, "name": "Yoshi Tanaka", "roles_in_work": [{"id": 2469076, "title": "Thundering wheels", "work_id": 73807, "role": "director", "role_id": 938, "is_primary": true}], "also_known_as": "", "date_of_birth": "", "date_of_death": "", "genders": [], "languages": [], "places_of_operation": [], "biography": "", "biography_author": null, "date_of_biography": "2023-08-14T11:52:46.142423+10:00", "external_links": [], "uuid": "27fc0dc6-4524-423e-872b-cc7f62d4924b", "source": {"name": "Vernon", "slug": "vernon"}, "source_identifier": "32024", "external_references": [], "date_modified": "2023-08-14T11:52:46.142769+10:00"}, {"id": 18388, "name": "Hideo Kamo", "roles_in_work": [{"id": 2469075, "title": "Thundering wheels", "work_id": 73807, "role": "producer", "role_id": 1089, "is_primary": true}], "also_known_as": "", "date_of_birth": "", "date_of_death": "", "genders": [], "languages": [], "places_of_operation": [], "biography": "", "biography_author": null, "date_of_biography": "2023-08-14T11:52:45.519674+10:00", "external_links": [], "uuid": "a2314f20-3d4d-42c4-8b67-ad10fc6f89fb", "source": {"name": "Vernon", "slug": "vernon"}, "source_identifier": "32023", "external_references": [], "date_modified": "2023-08-14T11:52:45.519912+10:00"}, {"id": 18387, "name": "Nagai Eigasha", "roles_in_work": [{"id": 2469074, "title": "Thundering wheels", "work_id": 73807, "role": "production company", "role_id": 941, "is_primary": true}], "also_known_as": "", "date_of_birth": "", "date_of_death": "", "genders": [], "languages": [], "places_of_operation": [], "biography": "", "biography_author": null, "date_of_biography": "2023-08-14T11:52:44.894742+10:00", "external_links": [], "uuid": "ff453b69-ee60-411a-acaf-b0aaa182c993", "source": {"name": "Vernon", "slug": "vernon"}, "source_identifier": "32022", "external_references": [], "date_modified": "2023-08-14T11:52:44.894968+10:00"}, {"id": 18386, "name": "Orra McMurray", "roles_in_work": [{"id": 2754922, "title": "[Various women's athletic events from the 1976 Olympic Games]", "work_id": 76188, "role": "production company", "role_id": 941, "is_primary": true}, {"id": 2754921, "title": "Various sports", "work_id": 74292, "role": "production company", "role_id": 941, "is_primary": true}, {"id": 2754920, "title": "Throwing sports", "work_id": 73805, "role": "production company", "role_id": 941, "is_primary": true}], "also_known_as": "", "date_of_birth": "", "date_of_death": "", "genders": [], "languages": [], "places_of_operation": [], "biography": "", "biography_author": null, "date_of_biography": "2023-05-09T15:52:10.412596+10:00", "external_links": [], "uuid": "a530de25-f0d6-4e2b-9619-4617f2c7fbad", "source": {"name": "Vernon", "slug": "vernon"}, "source_identifier": "32021", "external_references": [{"id": 37540, "source": {"name": "Wikidata", "slug": "wikidata"}, "source_identifier": "Q121035132"}], "date_modified": "2025-03-13T01:55:11.763320+11:00"}, {"id": 18383, "name": "James Uys", "roles_in_work": [{"id": 2646622, "title": "Three wise men of the world", "work_id": 73795, "role": "director", "role_id": 938, "is_primary": true}], "also_known_as": "", "date_of_birth": "", "date_of_death": "", "genders": [], "languages": [], "places_of_operation": [], "biography": "", "biography_author": null, "date_of_biography": "2023-08-14T11:51:47.567161+10:00", "external_links": [], "uuid": "c2fe3248-eba3-4f4d-ae35-4b77c20d1aaf", "source": {"name": "Vernon", "slug": "vernon"}, "source_identifier": "33845", "external_references": [], "date_modified": "2025-03-05T13:07:23.920786+11:00"}, {"id": 18382, "name": "Mimosa Films", "roles_in_work": [{"id": 2646621, "title": "Three wise men of the world", "work_id": 73795, "role": "production company", "role_id": 941, "is_primary": true}], "also_known_as": "", "date_of_birth": "", "date_of_death": "", "genders": [], "languages": [], "places_of_operation": [], "biography": "", "biography_author": null, "date_of_biography": "2023-08-14T11:51:46.946911+10:00", "external_links": [], "uuid": "6eabcfe4-0c86-46d6-a597-81b8165e6459", "source": {"name": "Vernon", "slug": "vernon"}, "source_identifier": "33844", "external_references": [], "date_modified": "2025-03-05T13:07:23.340669+11:00"}, {"id": 18371, "name": "Adelaide College of Advanced Education", "roles_in_work": [{"id": 2466569, "title": "The 3 R's: South Australian Public Education in the 1890's (TEFC)", "work_id": 73785, "role": "production company", "role_id": 941, "is_primary": true}], "also_known_as": "", "date_of_birth": "", "date_of_death": "", "genders": [], "languages": [], "places_of_operation": [], "biography": "", "biography_author": null, "date_of_biography": "2023-08-14T11:00:20.554104+10:00", "external_links": [], "uuid": "5ac86075-b7ec-4b75-8d91-218c98e48486", "source": {"name": "Vernon", "slug": "vernon"}, "source_identifier": "5028", "external_references": [], "date_modified": "2023-08-14T11:00:20.554413+10:00"}, {"id": 18369, "name": "Ilya Tolston", "roles_in_work": [{"id": 2469007, "title": "Three pirates bold", "work_id": 73783, "role": "director", "role_id": 938, "is_primary": true}], "also_known_as": "", "date_of_birth": "", "date_of_death": "", "genders": [], "languages": [], "places_of_operation": [], "biography": "", "biography_author": null, "date_of_biography": "2023-08-14T11:51:29.469298+10:00", "external_links": [], "uuid": "44867cd3-6a31-4090-915e-0e13d34e1a87", "source": {"name": "Vernon", "slug": "vernon"}, "source_identifier": "32192", "external_references": [], "date_modified": "2023-08-14T11:51:29.469569+10:00"}, {"id": 18368, "name": "Victor Kayfetz", "roles_in_work": [{"id": 2469006, "title": "Three pirates bold", "work_id": 73783, "role": "producer", "role_id": 1089, "is_primary": true}], "also_known_as": "", "date_of_birth": "", "date_of_death": "", "genders": [], "languages": [], "places_of_operation": [], "biography": "", "biography_author": null, "date_of_biography": "2023-08-14T11:51:28.843336+10:00", "external_links": [], "uuid": "19c0b9b2-8ef6-467e-b677-2f71e31f502f", "source": {"name": "Vernon", "slug": "vernon"}, "source_identifier": "32191", "external_references": [], "date_modified": "2023-08-14T11:51:28.843546+10:00"}]}