{"count": 28687, "next": "https://api.acmi.net.au/creators/?page=2708", "previous": "https://api.acmi.net.au/creators/?page=2706", "results": [{"id": 11349, "name": "Romaine Moreton", "roles_in_work": [{"id": 2686506, "title": "Jaara Nyilamum", "work_id": 118039, "role": "artist", "role_id": 505, "is_primary": true}, {"id": 2640168, "title": "Redreaming the dark", "work_id": 110503, "role": "writer", "role_id": 939, "is_primary": true}, {"id": 2639992, "title": "Cherish", "work_id": 110505, "role": "writer", "role_id": 939, "is_primary": true}], "also_known_as": "", "date_of_birth": "", "date_of_death": "", "genders": [], "languages": [], "places_of_operation": [], "biography": "", "biography_author": null, "date_of_biography": "2023-05-09T20:10:31.765051+10:00", "external_links": [], "uuid": "d0ef15b9-5edd-4c38-8b2c-b6d00cd05f4b", "source": {"name": "Vernon", "slug": "vernon"}, "source_identifier": "3121", "external_references": [{"id": 39502, "source": {"name": "Wikidata", "slug": "wikidata"}, "source_identifier": "Q121337360"}], "date_modified": "2025-03-11T12:21:50.513568+11:00"}, {"id": 11348, "name": "Charlotte Seymour", "roles_in_work": [{"id": 2248709, "title": "Remembering country", "work_id": 89418, "role": "co-producer", "role_id": 915, "is_primary": true}, {"id": 2640167, "title": "Redreaming the dark", "work_id": 110503, "role": "producer", "role_id": 1089, "is_primary": true}, {"id": 2043456, "title": "Large as life: an interview with Pat Thompson", "work_id": 83744, "role": "producer/director", "role_id": 31, "is_primary": true}], "also_known_as": "", "date_of_birth": "", "date_of_death": "", "genders": [], "languages": [], "places_of_operation": [], "biography": "", "biography_author": null, "date_of_biography": "2023-05-09T20:09:57.035890+10:00", "external_links": [], "uuid": "ee2b9501-e8fa-4318-9e8d-f8ad62c0439f", "source": {"name": "Vernon", "slug": "vernon"}, "source_identifier": "3120", "external_references": [{"id": 50726, "source": {"name": "Wikidata", "slug": "wikidata"}, "source_identifier": "Q121357615"}], "date_modified": "2025-03-05T11:26:20.993120+11:00"}, {"id": 11347, "name": "Lisa Duff", "roles_in_work": [{"id": 909897, "title": "Sexing the label: love and gender in a queer world", "work_id": 90515, "role": "co-producer", "role_id": 915, "is_primary": true}, {"id": 1814904, "title": "Tsunami", "work_id": 92164, "role": "producer", "role_id": 1089, "is_primary": true}, {"id": 2640162, "title": "Range of experience", "work_id": 110502, "role": "producer", "role_id": 1089, "is_primary": true}], "also_known_as": "", "date_of_birth": "", "date_of_death": "", "genders": [], "languages": [], "places_of_operation": [], "biography": "", "biography_author": null, "date_of_biography": "2023-05-09T20:10:21.460779+10:00", "external_links": [], "uuid": "10029c1b-1ad8-4eac-9b79-480de6a827a7", "source": {"name": "Vernon", "slug": "vernon"}, "source_identifier": "3119", "external_references": [{"id": 51162, "source": {"name": "Wikidata", "slug": "wikidata"}, "source_identifier": "Q121357551"}], "date_modified": "2025-03-05T11:26:18.941327+11:00"}, {"id": 11346, "name": "Marc Gillezeau", "roles_in_work": [{"id": 2640161, "title": "Range of experience", "work_id": 110502, "role": "producer", "role_id": 1089, "is_primary": true}], "also_known_as": "", "date_of_birth": "", "date_of_death": "", "genders": [], "languages": [], "places_of_operation": [], "biography": "", "biography_author": null, "date_of_biography": "2023-05-09T20:10:21.227572+10:00", "external_links": [], "uuid": "8f9bdce4-8f4a-4c6f-bb89-acdcbe9dd07e", "source": {"name": "Vernon", "slug": "vernon"}, "source_identifier": "3118", "external_references": [{"id": 39706, "source": {"name": "Wikidata", "slug": "wikidata"}, "source_identifier": "Q121160034"}], "date_modified": "2025-03-05T11:26:18.351141+11:00"}, {"id": 11345, "name": "Maryella Hatfield", "roles_in_work": [{"id": 2640158, "title": "Range of experience", "work_id": 110502, "role": "director", "role_id": 938, "is_primary": true}, {"id": 2640040, "title": "Eden", "work_id": 110532, "role": "director", "role_id": 938, "is_primary": true}, {"id": 2640041, "title": "Eden", "work_id": 110532, "role": "producer", "role_id": 1089, "is_primary": true}, {"id": 879820, "title": "Eden", "work_id": 92081, "role": "producer/director", "role_id": 31, "is_primary": true}, {"id": 2640160, "title": "Range of experience", "work_id": 110502, "role": "writer", "role_id": 939, "is_primary": true}], "also_known_as": "", "date_of_birth": "", "date_of_death": "", "genders": [], "languages": [], "places_of_operation": [], "biography": "", "biography_author": null, "date_of_biography": "2023-05-09T20:10:21.001114+10:00", "external_links": [], "uuid": "ec166028-8392-4425-9a3b-18cf6bb14e90", "source": {"name": "Vernon", "slug": "vernon"}, "source_identifier": "3117", "external_references": [], "date_modified": "2025-03-05T11:26:17.747440+11:00"}, {"id": 11344, "name": "Jason Camenzuli", "roles_in_work": [{"id": 2640005, "title": "Crouching at the door", "work_id": 110501, "role": "writer", "role_id": 939, "is_primary": true}], "also_known_as": "", "date_of_birth": "", "date_of_death": "", "genders": [], "languages": [], "places_of_operation": [], "biography": "", "biography_author": null, "date_of_biography": "2023-05-09T20:09:26.450397+10:00", "external_links": [], "uuid": "e780ecef-279a-40c3-8697-d2e98bb0f7e8", "source": {"name": "Vernon", "slug": "vernon"}, "source_identifier": "3116", "external_references": [{"id": 40093, "source": {"name": "Wikidata", "slug": "wikidata"}, "source_identifier": "Q121126210"}], "date_modified": "2025-03-05T11:25:25.376200+11:00"}, {"id": 11343, "name": "Sean Croyston", "roles_in_work": [{"id": 2640004, "title": "Crouching at the door", "work_id": 110501, "role": "producer", "role_id": 1089, "is_primary": true}], "also_known_as": "", "date_of_birth": "", "date_of_death": "", "genders": [], "languages": [], "places_of_operation": [], "biography": "", "biography_author": null, "date_of_biography": "2023-05-09T20:09:26.233253+10:00", "external_links": [], "uuid": "eb727e80-32a7-4b43-b84f-ae7b732ce639", "source": {"name": "Vernon", "slug": "vernon"}, "source_identifier": "3115", "external_references": [{"id": 43633, "source": {"name": "Wikidata", "slug": "wikidata"}, "source_identifier": "Q121223151"}], "date_modified": "2025-03-05T11:25:24.771073+11:00"}, {"id": 11342, "name": "Marzena Domaradzka", "roles_in_work": [{"id": 2640002, "title": "Crouching at the door", "work_id": 110501, "role": "director", "role_id": 938, "is_primary": true}], "also_known_as": "", "date_of_birth": "", "date_of_death": "", "genders": [], "languages": [], "places_of_operation": [], "biography": "", "biography_author": null, "date_of_biography": "2023-05-09T20:09:25.999995+10:00", "external_links": [], "uuid": "004a40cb-706d-4fa2-ae2b-1af4b3917bce", "source": {"name": "Vernon", "slug": "vernon"}, "source_identifier": "3114", "external_references": [{"id": 37909, "source": {"name": "Wikidata", "slug": "wikidata"}, "source_identifier": "Q121299501"}], "date_modified": "2025-03-05T11:25:24.191924+11:00"}, {"id": 11336, "name": "Albanvale Primary School", "roles_in_work": [{"id": 2642992, "title": "Scratch that film!", "work_id": 110483, "role": "creator", "role_id": 968, "is_primary": true}], "also_known_as": "", "date_of_birth": "", "date_of_death": "", "genders": [], "languages": [], "places_of_operation": [], "biography": "", "biography_author": null, "date_of_biography": "2023-05-09T19:08:32.417368+10:00", "external_links": [], "uuid": "b5d45a4a-e2b8-45d8-ac5c-527c724f2529", "source": {"name": "Vernon", "slug": "vernon"}, "source_identifier": "3532", "external_references": [], "date_modified": "2025-03-05T11:52:39.962380+11:00"}, {"id": 11335, "name": "Richmond West Primary School", "roles_in_work": [{"id": 2642994, "title": "Scribbles", "work_id": 110479, "role": "creator", "role_id": 968, "is_primary": true}], "also_known_as": "", "date_of_birth": "", "date_of_death": "", "genders": [], "languages": [], "places_of_operation": [], "biography": "", "biography_author": null, "date_of_biography": "2023-05-09T19:08:28.473076+10:00", "external_links": [], "uuid": "e1173bdb-9f2f-4513-82e0-88c5638c59b1", "source": {"name": "Vernon", "slug": "vernon"}, "source_identifier": "3530", "external_references": [], "date_modified": "2025-03-05T11:52:41.487171+11:00"}]}