{"count": 28687, "next": "https://api.acmi.net.au/creators/?page=2383", "previous": "https://api.acmi.net.au/creators/?page=2381", "results": [{"id": 15402, "name": "Helen Jean Secondari", "roles_in_work": [{"id": 827805, "title": "Two cities: London and New York", "work_id": 96939, "role": "director", "role_id": 938, "is_primary": true}, {"id": 2714959, "title": "The Greeks in search of meaning", "work_id": 68201, "role": "director", "role_id": 938, "is_primary": true}, {"id": 2752054, "title": "The Golden age of the automobile", "work_id": 98114, "role": "director", "role_id": 938, "is_primary": true}, {"id": 2751023, "title": "Elizabeth: the queen who shaped an age", "work_id": 97624, "role": "co-producer", "role_id": 915, "is_primary": true}, {"id": 2714958, "title": "The Greeks in search of meaning", "work_id": 68201, "role": "co-producer", "role_id": 915, "is_primary": true}, {"id": 1818271, "title": "The Middle ages: a wanderers guide to life and letters", "work_id": 70367, "role": "producer", "role_id": 1089, "is_primary": true}, {"id": 2646275, "title": "Shakespeare: A Mirror to man", "work_id": 72714, "role": "producer", "role_id": 1089, "is_primary": true}, {"id": 752362, "title": "Romanticism: revolt of the spirit", "work_id": 72337, "role": "producer/director", "role_id": 31, "is_primary": true}, {"id": 2750154, "title": "Two towns: Gubbio in Italy, Chillicothe in Ohio", "work_id": 97170, "role": "producer/director", "role_id": 31, "is_primary": true}, {"id": 2750150, "title": "Two farms: Wisconsin, Hungary", "work_id": 97169, "role": "producer/director", "role_id": 31, "is_primary": true}], "also_known_as": "", "date_of_birth": "", "date_of_death": "", "genders": [], "languages": [], "places_of_operation": [], "biography": "", "biography_author": null, "date_of_biography": "2023-08-14T11:14:46.954188+10:00", "external_links": [], "uuid": "70905a62-abfd-477e-bb75-789a1164f88a", "source": {"name": "Vernon", "slug": "vernon"}, "source_identifier": "20429", "external_references": [], "date_modified": "2025-03-13T00:56:42.908445+11:00"}, {"id": 15401, "name": "John H. Secondari", "roles_in_work": [{"id": 2716065, "title": "I, Leonardo Da Vinci", "work_id": 68758, "role": "co-producer", "role_id": 915, "is_primary": true}, {"id": 2751022, "title": "Elizabeth: the queen who shaped an age", "work_id": 97624, "role": "co-producer", "role_id": 915, "is_primary": true}, {"id": 2714957, "title": "The Greeks in search of meaning", "work_id": 68201, "role": "co-producer", "role_id": 915, "is_primary": true}, {"id": 1808371, "title": "Two cities: London and New York", "work_id": 96939, "role": "producer", "role_id": 1089, "is_primary": true}, {"id": 2750153, "title": "Two towns: Gubbio in Italy, Chillicothe in Ohio", "work_id": 97170, "role": "producer", "role_id": 1089, "is_primary": true}, {"id": 2646274, "title": "Shakespeare: A Mirror to man", "work_id": 72714, "role": "producer", "role_id": 1089, "is_primary": true}, {"id": 2750149, "title": "Two farms: Wisconsin, Hungary", "work_id": 97169, "role": "producer", "role_id": 1089, "is_primary": true}, {"id": 2751356, "title": "The Romans: life, laughter and laws", "work_id": 97771, "role": "producer", "role_id": 1089, "is_primary": true}, {"id": 2752053, "title": "The Golden age of the automobile", "work_id": 98114, "role": "producer", "role_id": 1089, "is_primary": true}, {"id": 752361, "title": "Romanticism: revolt of the spirit", "work_id": 72337, "role": "producer/director", "role_id": 31, "is_primary": true}], "also_known_as": "", "date_of_birth": "", "date_of_death": "", "genders": [], "languages": [], "places_of_operation": [], "biography": "", "biography_author": null, "date_of_biography": "2023-08-14T11:14:45.676147+10:00", "external_links": [], "uuid": "469b088e-fb48-4a61-a843-6024507a7b03", "source": {"name": "Vernon", "slug": "vernon"}, "source_identifier": "22297", "external_references": [], "date_modified": "2025-03-13T00:56:42.303112+11:00"}, {"id": 15399, "name": "Australian National Football Council", "roles_in_work": [{"id": 1999358, "title": "Gangs of New York", "work_id": 94422, "role": "production company", "role_id": 941, "is_primary": true}, {"id": 2645007, "title": "The Greatest game on earth", "work_id": 68198, "role": "production company", "role_id": 941, "is_primary": true}], "also_known_as": "", "date_of_birth": null, "date_of_death": null, "genders": [], "languages": [], "places_of_operation": [], "biography": "", "biography_author": null, "date_of_biography": null, "external_links": [], "uuid": "619147fd-14f3-4359-b9e3-fa7222c6153e", "source": {"name": "Vernon", "slug": "vernon"}, "source_identifier": "4868", "external_references": [], "date_modified": "2025-03-05T12:31:06.423456+11:00"}, {"id": 15398, "name": "Melbourne Repertory Film Unit", "roles_in_work": [{"id": 2042962, "title": "Sunday in Melbourne", "work_id": 73369, "role": "production company", "role_id": 941, "is_primary": true}, {"id": 2616082, "title": "Step by step", "work_id": 86796, "role": "production company", "role_id": 941, "is_primary": true}, {"id": 2645006, "title": "The Greatest game on earth", "work_id": 68198, "role": "production company", "role_id": 941, "is_primary": true}, {"id": 2715276, "title": "Heads", "work_id": 68357, "role": "production company", "role_id": 941, "is_primary": true}, {"id": 2616079, "title": "Step by step [B&W]", "work_id": 86795, "role": "production company", "role_id": 941, "is_primary": true}], "also_known_as": "", "date_of_birth": null, "date_of_death": null, "genders": [], "languages": [], "places_of_operation": [], "biography": "", "biography_author": null, "date_of_biography": null, "external_links": [], "uuid": "9cc667a4-e4f6-407b-9b55-cb16a491f445", "source": {"name": "Vernon", "slug": "vernon"}, "source_identifier": "4867", "external_references": [], "date_modified": "2025-03-12T01:31:20.315611+11:00"}, {"id": 15397, "name": "Derek Phillips", "roles_in_work": [{"id": 2401523, "title": "Aubreys television", "work_id": 76553, "role": "director", "role_id": 938, "is_primary": true}, {"id": 2645003, "title": "The Greater community animal", "work_id": 68196, "role": "producer", "role_id": 1089, "is_primary": true}], "also_known_as": "", "date_of_birth": "", "date_of_death": "", "genders": [], "languages": [], "places_of_operation": [], "biography": "", "biography_author": null, "date_of_biography": "2023-08-11T14:26:25.499289+10:00", "external_links": [], "uuid": "1321a9b5-a0aa-4ced-96fb-0657ee0b387e", "source": {"name": "Vernon", "slug": "vernon"}, "source_identifier": "18042", "external_references": [], "date_modified": "2025-03-05T12:31:03.516772+11:00"}, {"id": 15393, "name": "Ken Little", "roles_in_work": [{"id": 2714937, "title": "Great Plan problems", "work_id": 68192, "role": "producer", "role_id": 1089, "is_primary": true}, {"id": 2758672, "title": "The Mackenzie file", "work_id": 69972, "role": "producer", "role_id": 1089, "is_primary": true}], "also_known_as": "", "date_of_birth": "", "date_of_death": "", "genders": [], "languages": [], "places_of_operation": [], "biography": "", "biography_author": null, "date_of_biography": "2023-08-11T17:08:51.377453+10:00", "external_links": [], "uuid": "40e9544c-8e16-466a-b478-ea15e7b7f6ac", "source": {"name": "Vernon", "slug": "vernon"}, "source_identifier": "23199", "external_references": [], "date_modified": "2025-03-12T01:22:53.175224+11:00"}, {"id": 15390, "name": "Reg Groves", "roles_in_work": [{"id": 2644998, "title": "The Great game", "work_id": 68185, "role": "producer", "role_id": 1089, "is_primary": true}], "also_known_as": "", "date_of_birth": null, "date_of_death": null, "genders": [], "languages": [], "places_of_operation": [], "biography": "", "biography_author": null, "date_of_biography": null, "external_links": [], "uuid": "cbafda6b-46c5-4d93-8ab1-6c0cc44f4088", "source": {"name": "Vernon", "slug": "vernon"}, "source_identifier": "27225", "external_references": [], "date_modified": "2025-03-05T12:30:59.608396+11:00"}, {"id": 15388, "name": "Henriette Montgomery", "roles_in_work": [{"id": 2714916, "title": "The Great cover-up", "work_id": 68181, "role": "producer", "role_id": 1089, "is_primary": true}], "also_known_as": "", "date_of_birth": null, "date_of_death": null, "genders": [], "languages": [], "places_of_operation": [], "biography": "", "biography_author": null, "date_of_biography": null, "external_links": [], "uuid": "134e5b33-69fd-45e3-a3b1-543fe9966f52", "source": {"name": "Vernon", "slug": "vernon"}, "source_identifier": "20471", "external_references": [], "date_modified": "2025-03-12T01:22:39.117818+11:00"}, {"id": 15387, "name": "C B S", "roles_in_work": [{"id": 2767924, "title": "The Grapes of wrath", "work_id": 68179, "role": "production company", "role_id": 941, "is_primary": true}], "also_known_as": "", "date_of_birth": null, "date_of_death": null, "genders": [], "languages": [], "places_of_operation": [], "biography": "", "biography_author": null, "date_of_biography": null, "external_links": [], "uuid": "606bf941-16ba-43e2-a2de-fa9cc4479783", "source": {"name": "Vernon", "slug": "vernon"}, "source_identifier": "6161", "external_references": [], "date_modified": "2025-03-14T18:07:37.442430+11:00"}, {"id": 15386, "name": "A H Luff", "roles_in_work": [{"id": 2714906, "title": "Grease", "work_id": 68175, "role": "director", "role_id": 938, "is_primary": true}], "also_known_as": "", "date_of_birth": null, "date_of_death": null, "genders": [], "languages": [], "places_of_operation": [], "biography": "", "biography_author": null, "date_of_biography": null, "external_links": [], "uuid": "aeeb01a9-1424-496c-a44d-82c33c392763", "source": {"name": "Vernon", "slug": "vernon"}, "source_identifier": "14593", "external_references": [], "date_modified": "2025-03-12T01:22:32.252163+11:00"}]}