{"count": 28687, "next": "https://api.acmi.net.au/creators/?page=701", "previous": "https://api.acmi.net.au/creators/?page=699", "results": [{"id": 78583, "name": "Joseph Santley", "roles_in_work": [{"id": 2340499, "title": "The Cocoanuts", "work_id": 87610, "role": "co-director", "role_id": 959, "is_primary": true}], "also_known_as": "Joseph Mansfield", "date_of_birth": "1889-01-10", "date_of_death": "1971-08-08", "genders": [{"id": 9, "name": "Male", "slug": "male"}], "languages": [{"id": 1, "name": "English", "slug": "english"}], "places_of_operation": [{"id": 1, "name": "United States of America", "slug": "united-states-of-america"}], "biography": "Joseph Mansfield Santley (born Joseph Ishmael Mansfield, January 10, 1890 – August 8, 1971) was an American actor, singer, dancer, writer, director, and producer of musical theatrical plays motion pictures and television shows. He adopted the stage name of his stepfather, actor Eugene Santley.", "biography_author": "Wikidata", "date_of_biography": "2023-08-01T15:43:37.649162+10:00", "external_links": [{"id": 2477, "uri": "https://en.wikipedia.org/wiki/Joseph_Santley"}], "uuid": "711726d1-26bd-4f5d-9c02-b696b5611bb4", "source": {"name": "Vernon", "slug": "vernon"}, "source_identifier": "22746", "external_references": [{"id": 10589, "source": {"name": "Wikidata", "slug": "wikidata"}, "source_identifier": "Q1628080"}, {"id": 10590, "source": {"name": "VIAF", "slug": "viaf"}, "source_identifier": "169149196560174792659"}, {"id": 10591, "source": {"name": "LOC Auth", "slug": "loc-auth"}, "source_identifier": "n86105752"}, {"id": 10592, "source": {"name": "WorldCat", "slug": "worldcat"}, "source_identifier": "lccn-n86105752"}], "date_modified": "2023-09-05T21:51:34.014990+10:00"}, {"id": 78582, "name": "James R. Cowan", "roles_in_work": [{"id": 2340495, "title": "The Cocoanuts", "work_id": 87610, "role": "co-producer", "role_id": 915, "is_primary": true}], "also_known_as": "", "date_of_birth": "", "date_of_death": "", "genders": [], "languages": [], "places_of_operation": [], "biography": "", "biography_author": null, "date_of_biography": "2023-05-09T19:38:50.411120+10:00", "external_links": [], "uuid": "1ccaa559-6f98-4233-9bff-2f1553328e95", "source": {"name": "Vernon", "slug": "vernon"}, "source_identifier": "21310", "external_references": [{"id": 41211, "source": {"name": "Wikidata", "slug": "wikidata"}, "source_identifier": "Q121036833"}], "date_modified": "2023-09-05T21:04:52.446138+10:00"}, {"id": 78581, "name": "Monta Bell", "roles_in_work": [{"id": 2340491, "title": "The Cocoanuts", "work_id": 87610, "role": "co-producer", "role_id": 915, "is_primary": true}], "also_known_as": "", "date_of_birth": "1891-02-05", "date_of_death": "1958-02-04", "genders": [{"id": 9, "name": "Male", "slug": "male"}], "languages": [{"id": 1, "name": "English", "slug": "english"}], "places_of_operation": [{"id": 1, "name": "United States of America", "slug": "united-states-of-america"}], "biography": "Louis Monta Bell  (February 5, 1891 – February 4, 1958) was an American film director, producer, and screenwriter.", "biography_author": "Wikidata", "date_of_biography": "2023-08-01T16:20:24.681478+10:00", "external_links": [{"id": 2757, "uri": "https://en.wikipedia.org/wiki/Monta_Bell"}], "uuid": "88c44258-b667-4790-9a3a-a0b9e4667d86", "source": {"name": "Vernon", "slug": "vernon"}, "source_identifier": "25513", "external_references": [{"id": 11750, "source": {"name": "Wikidata", "slug": "wikidata"}, "source_identifier": "Q389128"}, {"id": 11751, "source": {"name": "VIAF", "slug": "viaf"}, "source_identifier": "222125886"}, {"id": 11752, "source": {"name": "LOC Auth", "slug": "loc-auth"}, "source_identifier": "n85151604"}, {"id": 11753, "source": {"name": "WorldCat", "slug": "worldcat"}, "source_identifier": "lccn-n85151604"}], "date_modified": "2023-09-05T23:20:36.929788+10:00"}, {"id": 78580, "name": "Jacques Feyder", "roles_in_work": [{"id": 2650433, "title": "La Kermesse Heroique = Carnival in Flanders", "work_id": 115688, "role": "director", "role_id": 938, "is_primary": true}, {"id": 2357766, "title": "The Kiss", "work_id": 87608, "role": "director", "role_id": 938, "is_primary": true}, {"id": 3104664, "title": "Le Grand Jeu = the Full Deck", "work_id": 116023, "role": "director", "role_id": 938, "is_primary": true}], "also_known_as": "", "date_of_birth": "21 JUL 1885", "date_of_death": "24 MAY 1948", "genders": [{"id": 9, "name": "Male", "slug": "male"}], "languages": [{"id": 4, "name": "French", "slug": "french"}, {"id": 5, "name": "German", "slug": "german"}], "places_of_operation": [{"id": 17, "name": "France", "slug": "france"}], "biography": "Jacques Feyder (French: [fɛ.dɛʁ]; 21 July 1885 – 24 May 1948) was a Belgian actor, screenwriter and film director who worked principally in France, but also in the US, Britain and Germany. He was a director of silent films during the 1920s, and in the 1930s he became associated with the style of poetic realism in French cinema. He adopted French nationality in 1928. Source: Wikidata; 01/08/2023", "biography_author": null, "date_of_biography": "2025-05-22T22:45:58.804995+10:00", "external_links": [{"id": 2295, "uri": "https://en.wikipedia.org/wiki/Jacques_Feyder"}], "uuid": "ec1a170a-684f-4d7c-92da-8df84a487265", "source": {"name": "Vernon", "slug": "vernon"}, "source_identifier": "21148", "external_references": [{"id": 9853, "source": {"name": "Wikidata", "slug": "wikidata"}, "source_identifier": "Q122187"}, {"id": 9854, "source": {"name": "VIAF", "slug": "viaf"}, "source_identifier": "100242928"}, {"id": 9855, "source": {"name": "LOC Auth", "slug": "loc-auth"}, "source_identifier": "n85208849"}, {"id": 9856, "source": {"name": "WorldCat", "slug": "worldcat"}, "source_identifier": "lccn-n85208849"}], "date_modified": "2025-05-22T22:45:58.805247+10:00"}, {"id": 78579, "name": "Big Sky", "roles_in_work": [{"id": 2283943, "title": "The Tom Jones special", "work_id": 87612, "role": "distributor", "role_id": 437, "is_primary": false}, {"id": 2262775, "title": "Santa Fe trail. The Cuba story", "work_id": 87613, "role": "distributor", "role_id": 437, "is_primary": false}, {"id": 2476479, "title": "Journey to the seventh planet", "work_id": 87625, "role": "distributor", "role_id": 437, "is_primary": false}, {"id": 2357761, "title": "The Kiss", "work_id": 87608, "role": "distributor", "role_id": 437, "is_primary": false}, {"id": 2084823, "title": "Alice, sweet Alice = Holy terror = Communion", "work_id": 87915, "role": "distributor", "role_id": 437, "is_primary": false}, {"id": 2334720, "title": "The Brain that wouldn't die", "work_id": 87624, "role": "distributor", "role_id": 437, "is_primary": false}, {"id": 2096351, "title": "And then there were none = Ten little indians", "work_id": 87611, "role": "distributor", "role_id": 437, "is_primary": false}, {"id": 2354349, "title": "The History of pornography (E)", "work_id": 87632, "role": "distributor", "role_id": 437, "is_primary": false}, {"id": 2103638, "title": "Attack of the giant leeches", "work_id": 87619, "role": "distributor", "role_id": 437, "is_primary": false}, {"id": 2315649, "title": "Streisand: my name is Barbra", "work_id": 87914, "role": "distributor", "role_id": 437, "is_primary": false}, {"id": 2308985, "title": "Stage door canteen", "work_id": 87609, "role": "distributor", "role_id": 437, "is_primary": false}, {"id": 2340483, "title": "The Cocoanuts", "work_id": 87610, "role": "distributor", "role_id": 437, "is_primary": false}, {"id": 796967, "title": "Mademoiselle Striptease", "work_id": 87617, "role": "distributor", "role_id": 437, "is_primary": false}, {"id": 1991932, "title": "Glen or Glenda", "work_id": 87627, "role": "distributor", "role_id": 437, "is_primary": false}, {"id": 797035, "title": "Naughty nostalgia. - Volume 2 (E)", "work_id": 87636, "role": "distributor", "role_id": 437, "is_primary": false}, {"id": 1991895, "title": "The Last time I saw Paris", "work_id": 87614, "role": "distributor", "role_id": 437, "is_primary": false}, {"id": 2267297, "title": "The Terror of Tiny Town", "work_id": 88225, "role": "distributor", "role_id": 437, "is_primary": false}, {"id": 796963, "title": "The Man who knew too much: the secret agent", "work_id": 87616, "role": "distributor", "role_id": 437, "is_primary": false}, {"id": 796960, "title": "Nosferatu. Vampyr", "work_id": 87615, "role": "distributor", "role_id": 437, "is_primary": false}, {"id": 1991937, "title": "The Mysterians", "work_id": 87629, "role": "distributor", "role_id": 437, "is_primary": false}, {"id": 797033, "title": "Naughty cartoons (E)", "work_id": 87635, "role": "distributor", "role_id": 437, "is_primary": false}, {"id": 797032, "title": "Naughty nostalgia. - Volume 1 (E)", "work_id": 87634, "role": "distributor", "role_id": 437, "is_primary": false}, {"id": 2203566, "title": "Phantom from 10,000 leagues", "work_id": 87734, "role": "distributor", "role_id": 437, "is_primary": false}], "also_known_as": "", "date_of_birth": "", "date_of_death": "", "genders": [], "languages": [], "places_of_operation": [], "biography": "", "biography_author": null, "date_of_biography": "2023-08-17T15:37:09.367141+10:00", "external_links": [], "uuid": "a62a71df-79dc-4d86-8ee6-f34dd80e40f3", "source": {"name": "Vernon", "slug": "vernon"}, "source_identifier": "30710", "external_references": [], "date_modified": "2023-08-17T15:37:09.367351+10:00"}, {"id": 78578, "name": "Simon Crouch", "roles_in_work": [{"id": 1427788, "title": "Land of the borders", "work_id": 87559, "role": "producer/director", "role_id": 31, "is_primary": true}], "also_known_as": "", "date_of_birth": null, "date_of_death": null, "genders": [], "languages": [], "places_of_operation": [], "biography": "", "biography_author": null, "date_of_biography": null, "external_links": [], "uuid": "be9fabf1-6300-495e-bf15-be60afaa58cb", "source": {"name": "Vernon", "slug": "vernon"}, "source_identifier": null, "external_references": [{"id": 51644, "source": {"name": "Wikidata", "slug": "wikidata"}, "source_identifier": "Q121361325"}], "date_modified": "2023-09-06T01:20:01.270277+10:00"}, {"id": 78577, "name": "Michael McNulty", "roles_in_work": [{"id": 1427784, "title": "Waco: the rules of engagement", "work_id": 87558, "role": "co-producer", "role_id": 915, "is_primary": true}], "also_known_as": "", "date_of_birth": null, "date_of_death": null, "genders": [], "languages": [], "places_of_operation": [], "biography": "", "biography_author": null, "date_of_biography": null, "external_links": [], "uuid": "bc8b2401-d4e7-41ad-9385-ee707aca7814", "source": {"name": "Vernon", "slug": "vernon"}, "source_identifier": null, "external_references": [{"id": 36481, "source": {"name": "Wikidata", "slug": "wikidata"}, "source_identifier": "Q121036372"}], "date_modified": "2023-09-05T23:06:59.832160+10:00"}, {"id": 78576, "name": "Dan Gifford", "roles_in_work": [{"id": 1427782, "title": "Waco: the rules of engagement", "work_id": 87558, "role": "co-producer", "role_id": 915, "is_primary": true}], "also_known_as": "", "date_of_birth": null, "date_of_death": null, "genders": [], "languages": [], "places_of_operation": [], "biography": "", "biography_author": null, "date_of_biography": null, "external_links": [], "uuid": "dd965ca2-ff2d-4e7d-8b42-4003db937b15", "source": {"name": "Vernon", "slug": "vernon"}, "source_identifier": null, "external_references": [{"id": 40766, "source": {"name": "Wikidata", "slug": "wikidata"}, "source_identifier": "Q121223090"}], "date_modified": "2023-09-05T18:50:12.226421+10:00"}, {"id": 78575, "name": "Edgar Reitz", "roles_in_work": [{"id": 2794755, "title": "2 x 50 Years of French cinema: night of the filmmakers: I am curious, film", "work_id": 87551, "role": "co-director", "role_id": 959, "is_primary": true}], "also_known_as": "", "date_of_birth": "", "date_of_death": "", "genders": [], "languages": [], "places_of_operation": [], "biography": "", "biography_author": null, "date_of_biography": "2023-05-09T19:33:46.550287+10:00", "external_links": [], "uuid": "8f9f208d-289b-4b0a-b64a-21db47ea484e", "source": {"name": "Vernon", "slug": "vernon"}, "source_identifier": "18557", "external_references": [{"id": 36120, "source": {"name": "Wikidata", "slug": "wikidata"}, "source_identifier": "Q121159760"}], "date_modified": "2025-03-14T20:27:50.216118+11:00"}, {"id": 78574, "name": "Anne-Marie Mieville", "roles_in_work": [{"id": 2794752, "title": "2 x 50 Years of French cinema: night of the filmmakers: I am curious, film", "work_id": 87551, "role": "co-director", "role_id": 959, "is_primary": true}], "also_known_as": "", "date_of_birth": "", "date_of_death": "", "genders": [], "languages": [], "places_of_operation": [], "biography": "", "biography_author": null, "date_of_biography": "2023-05-09T19:33:46.317635+10:00", "external_links": [], "uuid": "3b38868e-b799-4f15-a3e1-f99112df397f", "source": {"name": "Vernon", "slug": "vernon"}, "source_identifier": "15355", "external_references": [{"id": 38477, "source": {"name": "Wikidata", "slug": "wikidata"}, "source_identifier": "Q121223380"}], "date_modified": "2025-03-14T20:27:49.618982+11:00"}]}