{"count": 28682, "next": "https://api.acmi.net.au/creators/?page=1087", "previous": "https://api.acmi.net.au/creators/?page=1085", "results": [{"id": 74718, "name": "Roberto Capanno", "roles_in_work": [{"id": 2714529, "title": "The Cat = Il Gatto", "work_id": 67972, "role": "co-producer", "role_id": 915, "is_primary": true}], "also_known_as": "", "date_of_birth": "", "date_of_death": "", "genders": [], "languages": [], "places_of_operation": [], "biography": "", "biography_author": null, "date_of_biography": "2023-05-09T19:32:49.158463+10:00", "external_links": [], "uuid": "b3d8787d-7783-4dfd-9742-4000402a22d2", "source": {"name": "Vernon", "slug": "vernon"}, "source_identifier": "27930", "external_references": [], "date_modified": "2025-03-12T01:12:32.796717+11:00"}, {"id": 74717, "name": "Peter White", "roles_in_work": [{"id": 2714518, "title": "Gateway to independence", "work_id": 67968, "role": "producer/director", "role_id": 31, "is_primary": true}], "also_known_as": "", "date_of_birth": "", "date_of_death": "", "genders": [], "languages": [], "places_of_operation": [], "biography": "", "biography_author": null, "date_of_biography": "2023-08-11T16:59:04.069391+10:00", "external_links": [], "uuid": "6b5afdb9-4ba9-4ac0-a73b-67932521e618", "source": {"name": "Vernon", "slug": "vernon"}, "source_identifier": "26457", "external_references": [{"id": 51850, "source": {"name": "Wikidata", "slug": "wikidata"}, "source_identifier": "Q121360756"}], "date_modified": "2025-03-12T01:12:25.001415+11:00"}, {"id": 74716, "name": "Seiji Koga", "roles_in_work": [{"id": 2714490, "title": "Gardens of Japan", "work_id": 67949, "role": "producer/director", "role_id": 31, "is_primary": true}], "also_known_as": "", "date_of_birth": null, "date_of_death": null, "genders": [], "languages": [], "places_of_operation": [], "biography": "", "biography_author": null, "date_of_biography": null, "external_links": [], "uuid": "d0285e04-9e2b-4d6c-8723-6041351d6035", "source": {"name": "Vernon", "slug": "vernon"}, "source_identifier": "34713", "external_references": [{"id": 51542, "source": {"name": "Wikidata", "slug": "wikidata"}, "source_identifier": "Q121361161"}], "date_modified": "2025-03-12T01:12:04.968197+11:00"}, {"id": 74715, "name": "Christopher Nutter", "roles_in_work": [{"id": 2644923, "title": "Garden = Jardin", "work_id": 67943, "role": "director", "role_id": 938, "is_primary": true}], "also_known_as": "", "date_of_birth": null, "date_of_death": null, "genders": [], "languages": [], "places_of_operation": [], "biography": "", "biography_author": null, "date_of_biography": null, "external_links": [], "uuid": "b2024bf6-e048-4720-aa35-e19160523297", "source": {"name": "Vernon", "slug": "vernon"}, "source_identifier": "16987", "external_references": [{"id": 38754, "source": {"name": "Wikidata", "slug": "wikidata"}, "source_identifier": "Q121035620"}], "date_modified": "2025-03-05T12:30:03.152647+11:00"}, {"id": 74714, "name": "Milan Chuostek", "roles_in_work": [{"id": 2775623, "title": "Garbage ouroboros", "work_id": 67941, "role": "producer/director", "role_id": 31, "is_primary": true}], "also_known_as": "", "date_of_birth": "", "date_of_death": "", "genders": [], "languages": [], "places_of_operation": [], "biography": "", "biography_author": null, "date_of_biography": "2023-05-09T20:05:29.779960+10:00", "external_links": [], "uuid": "3b9374d9-edcf-4946-9cd0-ceda1c8b87a0", "source": {"name": "Vernon", "slug": "vernon"}, "source_identifier": "25421", "external_references": [{"id": 51538, "source": {"name": "Wikidata", "slug": "wikidata"}, "source_identifier": "Q121360598"}], "date_modified": "2025-03-14T18:44:24.887018+11:00"}, {"id": 74713, "name": "Marcel Carriere", "roles_in_work": [{"id": 869770, "title": "Glimpses of China", "work_id": 85803, "role": "director", "role_id": 938, "is_primary": true}, {"id": 2714467, "title": "Games of the XXI Olympiad: Montreal 1976", "work_id": 67939, "role": "director", "role_id": 938, "is_primary": true}, {"id": 2205941, "title": "Ping pong", "work_id": 91163, "role": "director", "role_id": 938, "is_primary": true}, {"id": 895112, "title": "The Moontrap", "work_id": 70567, "role": "co-director", "role_id": 959, "is_primary": true}, {"id": 2223662, "title": "Explorations: wrestling", "work_id": 74960, "role": "co-director", "role_id": 959, "is_primary": true}], "also_known_as": "", "date_of_birth": "", "date_of_death": "", "genders": [], "languages": [], "places_of_operation": [], "biography": "", "biography_author": null, "date_of_biography": "2023-05-09T16:23:18.799717+10:00", "external_links": [], "uuid": "be246216-9c30-4e97-8676-881e56729367", "source": {"name": "Vernon", "slug": "vernon"}, "source_identifier": "24301", "external_references": [{"id": 42466, "source": {"name": "Wikidata", "slug": "wikidata"}, "source_identifier": "Q121079545"}], "date_modified": "2025-03-12T01:11:46.873258+11:00"}, {"id": 74712, "name": "Ashley Murray", "roles_in_work": [{"id": 2714465, "title": "Games of the XXI Olympiad: Montreal 1976", "work_id": 67939, "role": "producer", "role_id": 1089, "is_primary": true}], "also_known_as": "", "date_of_birth": null, "date_of_death": null, "genders": [], "languages": [], "places_of_operation": [], "biography": "", "biography_author": null, "date_of_biography": null, "external_links": [], "uuid": "d5c3d817-5ff9-46e9-b753-2580b546e7e6", "source": {"name": "Vernon", "slug": "vernon"}, "source_identifier": "15571", "external_references": [{"id": 37707, "source": {"name": "Wikidata", "slug": "wikidata"}, "source_identifier": "Q121270616"}], "date_modified": "2025-03-12T01:11:45.684291+11:00"}, {"id": 74711, "name": "Vivian Milroy", "roles_in_work": [{"id": 2714447, "title": "The Gallant little tailor", "work_id": 67929, "role": "co-producer", "role_id": 915, "is_primary": true}], "also_known_as": "", "date_of_birth": "03 JUN 1917", "date_of_death": "02 SEP 2009", "genders": [{"id": 5, "name": "Female", "slug": "female"}], "languages": [], "places_of_operation": [], "biography": "Vivian Milroy (1917-2009) was an English director and producer working in both film and television, and was also a screenwriter in both mediums. He first trained as an actor at RADA, graduating in 1939, and for a short time at the very start of his career, he performed as an actor in television films. He is best known for the films Don't Say Die (1950), which he both directed and wrote, and Crow Hollow (1952); and also for directing Armchair Theatre and Coronation Street. Source: Wikidata; 01/08/2023", "biography_author": null, "date_of_biography": "2025-03-12T01:11:33.246466+11:00", "external_links": [{"id": 5326, "uri": "https://en.wikipedia.org/wiki/Vivian_Milroy"}], "uuid": "cda3a2e6-7be2-44d2-ac7a-0790e135a1e7", "source": {"name": "Vernon", "slug": "vernon"}, "source_identifier": "30163", "external_references": [{"id": 25963, "source": {"name": "Wikidata", "slug": "wikidata"}, "source_identifier": "Q58920598"}], "date_modified": "2025-03-12T01:11:33.246706+11:00"}, {"id": 74710, "name": "Louis Hagan", "roles_in_work": [{"id": 2714446, "title": "The Gallant little tailor", "work_id": 67929, "role": "co-producer", "role_id": 915, "is_primary": true}], "also_known_as": "", "date_of_birth": "", "date_of_death": "", "genders": [], "languages": [], "places_of_operation": [], "biography": "", "biography_author": null, "date_of_biography": "2023-05-09T19:54:52.974657+10:00", "external_links": [], "uuid": "1c54b31f-e24f-4941-8cd0-03e1e944d498", "source": {"name": "Vernon", "slug": "vernon"}, "source_identifier": "24023", "external_references": [{"id": 39689, "source": {"name": "Wikidata", "slug": "wikidata"}, "source_identifier": "Q121058018"}], "date_modified": "2025-03-12T01:11:32.647793+11:00"}, {"id": 74709, "name": "Don Owen", "roles_in_work": [{"id": 2715487, "title": "High steel", "work_id": 68461, "role": "director", "role_id": 938, "is_primary": true}, {"id": 2714421, "title": "Further glimpses of Joey", "work_id": 67916, "role": "director", "role_id": 938, "is_primary": true}, {"id": 2170333, "title": "Nobody waved good-bye", "work_id": 86610, "role": "director", "role_id": 938, "is_primary": true}, {"id": 2346945, "title": "The Ernie game", "work_id": 87765, "role": "director", "role_id": 938, "is_primary": true}, {"id": 749372, "title": "Notes for a film about Donna and Gail", "work_id": 70996, "role": "director", "role_id": 938, "is_primary": true}, {"id": 2258888, "title": "Runner", "work_id": 76417, "role": "director", "role_id": 938, "is_primary": true}, {"id": 2293336, "title": "Toronto jazz", "work_id": 73931, "role": "director", "role_id": 938, "is_primary": true}, {"id": 894837, "title": "Ladies and gentlemen...Mr Leonard Cohen", "work_id": 69465, "role": "co-director", "role_id": 959, "is_primary": true}, {"id": 2170330, "title": "Nobody waved good-bye", "work_id": 86610, "role": "co-producer", "role_id": 915, "is_primary": true}], "also_known_as": "", "date_of_birth": "19 SEP 1931", "date_of_death": "21 FEB 2016", "genders": [{"id": 9, "name": "Male", "slug": "male"}], "languages": [{"id": 1, "name": "English", "slug": "english"}], "places_of_operation": [{"id": 36, "name": "Canada", "slug": "canada"}], "biography": "Don Owen (September 19, 1931 – February 21, 2016) was a Canadian film director, writer and producer who spent most of his career with the National Film Board of Canada (NFB). His films Nobody Waved Good-bye and The Ernie Game are regarded as two of the most significant English Canadian films of the 1960s. Source: Wikidata; 01/08/2023", "biography_author": null, "date_of_biography": "2025-03-12T01:36:08.862111+11:00", "external_links": [{"id": 1940, "uri": "https://en.wikipedia.org/wiki/Don_Owen_(filmmaker)"}], "uuid": "6057eef8-c854-4bc8-91e9-6a17050a325c", "source": {"name": "Vernon", "slug": "vernon"}, "source_identifier": "1147", "external_references": [{"id": 8413, "source": {"name": "Wikidata", "slug": "wikidata"}, "source_identifier": "Q3035874"}, {"id": 8414, "source": {"name": "VIAF", "slug": "viaf"}, "source_identifier": "514149106072368491083"}, {"id": 8415, "source": {"name": "LOC Auth", "slug": "loc-auth"}, "source_identifier": "no2002002626"}, {"id": 8416, "source": {"name": "WorldCat", "slug": "worldcat"}, "source_identifier": "lccn-no2002002626"}], "date_modified": "2025-03-12T01:36:08.862389+11:00"}]}