{"count": 28684, "next": "https://api.acmi.net.au/creators/?page=1493", "previous": "https://api.acmi.net.au/creators/?page=1491", "results": [{"id": 34268, "name": "Kinji Fukasaku", "roles_in_work": [{"id": 2108895, "title": "Battle royale (Collector's edition) [DVD] (D)", "work_id": 94892, "role": "director", "role_id": 938, "is_primary": true}, {"id": 2293132, "title": "Tora! tora! tora!", "work_id": 92619, "role": "co-director", "role_id": 959, "is_primary": true}], "also_known_as": "", "date_of_birth": "1930-07-03", "date_of_death": "2003-01-12", "genders": [{"id": 9, "name": "Male", "slug": "male"}], "languages": [{"id": 2, "name": "Japanese", "slug": "japanese"}], "places_of_operation": [{"id": 8, "name": "Japan", "slug": "japan"}], "biography": "Kinji Fukasaku (深作 欣二, Fukasaku Kinji, 3 July 1930 – 12 January 2003) was a Japanese film director and screenwriter. Known for his \"broad range and innovative filmmaking,\" Fukasaku worked in many different genres and styles, but was best known for his gritty yakuza films, typified by the Battles Without Honor and Humanity series (1973–1976). According to the Berkeley Art Museum and Pacific Film Archive, \"his turbulent energy and at times extreme violence express a cynical critique of social conditions and genuine sympathy for those left out of Japan's postwar prosperity.\" He used a cinema verite-inspired shaky camera technique in many of his films from the early 1970s.Fukasaku wrote and directed over 60 films between 1961 and 2003. Some Western sources have associated him with the Japanese New Wave movement of the '60s and '70s, but this belies his commercial success. His works include the Japanese portion of the Hollywood war film Tora! Tora! Tora! (1970), jidaigeki such as Shogun's Samurai (1978), the space opera Message from Space (1978), the post-apocalyptic science fiction film Virus (1980), the fantasy film Samurai Reincarnation (1981), and the influential dystopian thriller Battle Royale (2000).\nFukasaku won the Japan Academy Film Prize for Director of the Year three times, out of nine total nominations. He served as President of the Directors Guild of Japan from 1996, until his death from prostate cancer in 2003. In 1997, he received the Purple Medal of Honor from the Japanese government for his work in film. His films have inspired directors such as Quentin Tarantino, William Friedkin, and John Woo.", "biography_author": "Wikidata", "date_of_biography": "2023-08-01T15:50:52.124954+10:00", "external_links": [{"id": 4502, "uri": "https://en.wikipedia.org/wiki/Kinji_Fukasaku"}], "uuid": "c5d52ebc-027d-49c9-90a9-f97cabcb350e", "source": {"name": "Vernon", "slug": "vernon"}, "source_identifier": "23350", "external_references": [{"id": 25432, "source": {"name": "Wikidata", "slug": "wikidata"}, "source_identifier": "Q470779"}, {"id": 29815, "source": {"name": "VIAF", "slug": "viaf"}, "source_identifier": "29733954"}, {"id": 29816, "source": {"name": "LOC Auth", "slug": "loc-auth"}, "source_identifier": "no98066856"}, {"id": 29817, "source": {"name": "WorldCat", "slug": "worldcat"}, "source_identifier": "lccn-no98066856"}], "date_modified": "2023-09-05T22:09:43.480280+10:00"}, {"id": 34266, "name": "Elmo Williams", "roles_in_work": [{"id": 2293125, "title": "Tora! tora! tora!", "work_id": 92619, "role": "producer", "role_id": 1089, "is_primary": true}], "also_known_as": "", "date_of_birth": "1913-04-30", "date_of_death": "2015-11-25", "genders": [{"id": 9, "name": "Male", "slug": "male"}], "languages": [], "places_of_operation": [{"id": 1, "name": "United States of America", "slug": "united-states-of-america"}], "biography": "James Elmo Williams (April 30, 1913 – November 25, 2015) was an American film and television editor, producer, director and executive. His work on the film High Noon (1952) received the Academy Award for Best Film Editing. In 2006, Williams published Elmo Williams: A Hollywood Memoir.\n\n", "biography_author": "Wikidata", "date_of_biography": "2022-05-19T11:23:54.867031+10:00", "external_links": [{"id": 1999, "uri": "https://en.wikipedia.org/wiki/Elmo_Williams"}], "uuid": "91d70229-6fa8-4de9-b0e9-507e1a635b3d", "source": {"name": "Vernon", "slug": "vernon"}, "source_identifier": "18741", "external_references": [{"id": 8640, "source": {"name": "Wikidata", "slug": "wikidata"}, "source_identifier": "Q717147"}, {"id": 8641, "source": {"name": "VIAF", "slug": "viaf"}, "source_identifier": "19356337"}, {"id": 8642, "source": {"name": "LOC Auth", "slug": "loc-auth"}, "source_identifier": "no2002105862"}, {"id": 8643, "source": {"name": "WorldCat", "slug": "worldcat"}, "source_identifier": "lccn-no2002105862"}], "date_modified": "2023-09-13T12:29:16.558284+10:00"}, {"id": 34265, "name": "Eric Valli", "roles_in_work": [{"id": 1996283, "title": "Himalaya", "work_id": 92617, "role": "director", "role_id": 938, "is_primary": true}], "also_known_as": "", "date_of_birth": "1952-12-21", "date_of_death": null, "genders": [{"id": 9, "name": "Male", "slug": "male"}], "languages": [{"id": 4, "name": "French", "slug": "french"}], "places_of_operation": [{"id": 17, "name": "France", "slug": "france"}], "biography": "Éric Valli (born 1952, in Dijon, France) is a French photographer and film director.\nValli specializes in mountain scenery and is an expert on the Himalaya Mountains.  In 1999 he directed the adventure film Caravan about survival in the Himalayas starring Thinle Lhondup which became the first Nepalese film to be nominated for a Best Foreign Film Award at the Oscars.Valli has also shot a documentary with Diane Summers on the honey hunters of Nepal documenting honey hunting by the Gurung tribesmen of west-central Nepal. In it, they enter the jungle in search of wild honey where they use indigenous tools under precarious conditions to collect honey.\nValli has received three World Press Awards for his work Chasseurs de Miel (1988), Chasseurs des Ténèbres (1991) and Les enfants de la poussière (1991).", "biography_author": "Wikidata", "date_of_biography": "2022-05-19T11:25:03.010173+10:00", "external_links": [{"id": 2010, "uri": "https://en.wikipedia.org/wiki/%C3%89ric_Valli"}], "uuid": "9b9cdafc-56da-4ef7-a439-40f9ca38cbf7", "source": {"name": "Vernon", "slug": "vernon"}, "source_identifier": "18840", "external_references": [{"id": 8689, "source": {"name": "Wikidata", "slug": "wikidata"}, "source_identifier": "Q288424"}, {"id": 8690, "source": {"name": "VIAF", "slug": "viaf"}, "source_identifier": "41847488"}, {"id": 8691, "source": {"name": "LOC Auth", "slug": "loc-auth"}, "source_identifier": "n82016288"}, {"id": 8692, "source": {"name": "WorldCat", "slug": "worldcat"}, "source_identifier": "lccn-n82016288"}], "date_modified": "2023-09-13T12:29:18.795856+10:00"}, {"id": 34264, "name": "Christophe Barratier", "roles_in_work": [{"id": 2288903, "title": "The Trench", "work_id": 92771, "role": "co-producer", "role_id": 915, "is_primary": true}, {"id": 1996282, "title": "Himalaya", "work_id": 92617, "role": "producer", "role_id": 1089, "is_primary": true}], "also_known_as": "", "date_of_birth": "1963-06-17", "date_of_death": "", "genders": [{"id": 9, "name": "Male", "slug": "male"}], "languages": [{"id": 4, "name": "French", "slug": "french"}], "places_of_operation": [{"id": 17, "name": "France", "slug": "france"}], "biography": "Christophe Barratier (born 17 June 1963) is a French film producer, director and screenwriter, and lyricist.", "biography_author": "Wikidata", "date_of_biography": "2023-08-01T14:26:28.925190+10:00", "external_links": [{"id": 3768, "uri": "https://en.wikipedia.org/wiki/Christophe_Barratier"}], "uuid": "4735c306-865e-4a28-ba14-11527e6640e4", "source": {"name": "Vernon", "slug": "vernon"}, "source_identifier": "16942", "external_references": [{"id": 25829, "source": {"name": "Wikidata", "slug": "wikidata"}, "source_identifier": "Q642942"}, {"id": 27842, "source": {"name": "VIAF", "slug": "viaf"}, "source_identifier": "7596777"}, {"id": 27843, "source": {"name": "LOC Auth", "slug": "loc-auth"}, "source_identifier": "no2002060861"}, {"id": 27844, "source": {"name": "WorldCat", "slug": "worldcat"}, "source_identifier": "lccn-no2002060861"}], "date_modified": "2023-09-06T10:38:56.588821+10:00"}, {"id": 34258, "name": "Sf Norge As", "roles_in_work": [{"id": 2225615, "title": "Faithless = Trolosa [Widescreen]", "work_id": 92613, "role": "production company", "role_id": 941, "is_primary": true}], "also_known_as": "", "date_of_birth": "", "date_of_death": "", "genders": [], "languages": [], "places_of_operation": [], "biography": "", "biography_author": null, "date_of_biography": "2023-05-09T16:25:54.890797+10:00", "external_links": [], "uuid": "5dda1add-0362-4cbe-be17-036f825341db", "source": {"name": "Vernon", "slug": "vernon"}, "source_identifier": "12483", "external_references": [{"id": 36482, "source": {"name": "Wikidata", "slug": "wikidata"}, "source_identifier": "Q7390026"}], "date_modified": "2023-09-06T01:12:22.147609+10:00"}, {"id": 34257, "name": "Ab Svensk Film Industri", "roles_in_work": [{"id": 2225612, "title": "Faithless = Trolosa [Widescreen]", "work_id": 92613, "role": "production company", "role_id": 941, "is_primary": true}], "also_known_as": "", "date_of_birth": "", "date_of_death": "", "genders": [], "languages": [], "places_of_operation": [], "biography": "", "biography_author": null, "date_of_biography": "2023-05-09T16:25:54.615127+10:00", "external_links": [], "uuid": "5f3eaeb8-7f9b-44ad-b873-cd416c4e7bb1", "source": {"name": "Vernon", "slug": "vernon"}, "source_identifier": "4978", "external_references": [{"id": 34008, "source": {"name": "Wikidata", "slug": "wikidata"}, "source_identifier": "Q177955"}], "date_modified": "2023-09-05T17:14:24.406446+10:00"}, {"id": 34256, "name": "SVT Drama", "roles_in_work": [{"id": 2225608, "title": "Faithless = Trolosa [Widescreen]", "work_id": 92613, "role": "production company", "role_id": 941, "is_primary": true}], "also_known_as": "", "date_of_birth": "", "date_of_death": "", "genders": [], "languages": [], "places_of_operation": [], "biography": "", "biography_author": null, "date_of_biography": "2023-05-09T16:25:54.377665+10:00", "external_links": [], "uuid": "d2929da7-49ba-4b3e-9ebd-cef1e3712988", "source": {"name": "Vernon", "slug": "vernon"}, "source_identifier": "13086", "external_references": [{"id": 36863, "source": {"name": "Wikidata", "slug": "wikidata"}, "source_identifier": "Q19960498"}], "date_modified": "2023-09-06T01:38:05.827840+10:00"}, {"id": 34253, "name": "Sue Vuletich", "roles_in_work": [{"id": 2471603, "title": "What do you mean I've changed?: journeys through post-natal depression", "work_id": 92609, "role": "producer", "role_id": 1089, "is_primary": true}], "also_known_as": "", "date_of_birth": "", "date_of_death": "", "genders": [], "languages": [], "places_of_operation": [], "biography": "", "biography_author": null, "date_of_biography": "2023-08-14T12:42:54.242701+10:00", "external_links": [], "uuid": "d8b3687f-efa2-44df-89f0-8c6456d2be89", "source": {"name": "Vernon", "slug": "vernon"}, "source_identifier": "29312", "external_references": [], "date_modified": "2023-08-14T12:42:54.243013+10:00"}, {"id": 34252, "name": "Grafitti Pictures", "roles_in_work": [{"id": 2471602, "title": "What do you mean I've changed?: journeys through post-natal depression", "work_id": 92609, "role": "production company", "role_id": 941, "is_primary": true}], "also_known_as": "", "date_of_birth": "", "date_of_death": "", "genders": [], "languages": [], "places_of_operation": [], "biography": "", "biography_author": null, "date_of_biography": "2023-08-14T12:42:53.615988+10:00", "external_links": [], "uuid": "03380cbd-e066-4cc0-a463-9ef1803ba517", "source": {"name": "Vernon", "slug": "vernon"}, "source_identifier": "8835", "external_references": [], "date_modified": "2023-08-14T12:42:53.616241+10:00"}, {"id": 34247, "name": "Christopher Martin", "roles_in_work": [{"id": 3083961, "title": "Miro: theatre of dreams", "work_id": 92605, "role": "producer", "role_id": 1089, "is_primary": true}], "also_known_as": "", "date_of_birth": "", "date_of_death": "", "genders": [], "languages": [], "places_of_operation": [], "biography": "", "biography_author": null, "date_of_biography": "2023-05-09T17:15:28.939415+10:00", "external_links": [], "uuid": "6e1917ab-44fd-4d84-9a87-4cd7fab05a2f", "source": {"name": "Vernon", "slug": "vernon"}, "source_identifier": "16971", "external_references": [{"id": 36556, "source": {"name": "Wikidata", "slug": "wikidata"}, "source_identifier": "Q121222589"}], "date_modified": "2025-03-17T10:35:08.432850+11:00"}]}