{"count": 28687, "next": "https://api.acmi.net.au/creators/?page=2119", "previous": "https://api.acmi.net.au/creators/?page=2117", "results": [{"id": 20197, "name": "Barry Lank Productions", "roles_in_work": [{"id": 2412611, "title": "It's a hobby for Harvey", "work_id": 77147, "role": "production company", "role_id": 941, "is_primary": true}], "also_known_as": "", "date_of_birth": "", "date_of_death": "", "genders": [], "languages": [], "places_of_operation": [], "biography": "", "biography_author": null, "date_of_biography": "2023-08-11T18:42:11.146003+10:00", "external_links": [], "uuid": "9485e44c-4308-4ab3-b5fb-8cacec23e99b", "source": {"name": "Vernon", "slug": "vernon"}, "source_identifier": "5731", "external_references": [], "date_modified": "2023-08-11T18:42:11.146242+10:00"}, {"id": 20196, "name": "John Cosgrove", "roles_in_work": [{"id": 828003, "title": "Fergi builds a business: Fergi diversifies", "work_id": 97029, "role": "director", "role_id": 938, "is_primary": true}, {"id": 2752849, "title": "Sweet sixteen and pregnant", "work_id": 98487, "role": "director", "role_id": 938, "is_primary": true}, {"id": 828000, "title": "Fergi builds a business: Fergi goes inc.", "work_id": 97028, "role": "director", "role_id": 938, "is_primary": true}, {"id": 2291753, "title": "The Truly exceptional Dan Haley", "work_id": 77149, "role": "director", "role_id": 938, "is_primary": true}, {"id": 2237259, "title": "Reaching out: a story about mainstreaming", "work_id": 77145, "role": "director", "role_id": 938, "is_primary": true}, {"id": 2749239, "title": "If the fergi fits, wear it", "work_id": 96704, "role": "co-director", "role_id": 959, "is_primary": true}, {"id": 918352, "title": "Mrs Peabody's beach", "work_id": 96280, "role": "co-producer", "role_id": 915, "is_primary": true}], "also_known_as": "", "date_of_birth": "", "date_of_death": "", "genders": [], "languages": [], "places_of_operation": [], "biography": "", "biography_author": null, "date_of_biography": "2023-05-09T18:20:36.505751+10:00", "external_links": [], "uuid": "98ea28ad-f1cd-4a2e-b396-0f896e076b05", "source": {"name": "Vernon", "slug": "vernon"}, "source_identifier": "22189", "external_references": [{"id": 51472, "source": {"name": "Wikidata", "slug": "wikidata"}, "source_identifier": "Q121357831"}], "date_modified": "2025-03-13T01:13:03.963024+11:00"}, {"id": 20193, "name": "David Mills", "roles_in_work": [{"id": 2770674, "title": "The Silent epidemic", "work_id": 77134, "role": "producer", "role_id": 1089, "is_primary": true}, {"id": 2770493, "title": "Learning to lose", "work_id": 77176, "role": "producer", "role_id": 1089, "is_primary": true}], "also_known_as": "", "date_of_birth": "", "date_of_death": "", "genders": [], "languages": [], "places_of_operation": [], "biography": "", "biography_author": null, "date_of_biography": "2023-08-14T12:09:30.755701+10:00", "external_links": [], "uuid": "1697be22-39c6-4d5f-81bf-0e33a9725aa7", "source": {"name": "Vernon", "slug": "vernon"}, "source_identifier": "17718", "external_references": [], "date_modified": "2025-03-14T18:20:11.058276+11:00"}, {"id": 20191, "name": "Gil Scrine", "roles_in_work": [{"id": 2128929, "title": "Buried alive, the story of East Timor", "work_id": 79835, "role": "co-director", "role_id": 959, "is_primary": true}, {"id": 1813360, "title": "Strangers in Paradise", "work_id": 79871, "role": "producer", "role_id": 1089, "is_primary": true}, {"id": 1904039, "title": "Home on the range: U.S. bases in Australia", "work_id": 77131, "role": "producer/director", "role_id": 31, "is_primary": true}], "also_known_as": "", "date_of_birth": "", "date_of_death": "", "genders": [], "languages": [], "places_of_operation": [], "biography": "", "biography_author": null, "date_of_biography": "2023-05-09T13:16:03.905756+10:00", "external_links": [], "uuid": "12538f21-7f4d-4ab2-a8e2-cb8b8178dd1b", "source": {"name": "Vernon", "slug": "vernon"}, "source_identifier": "19806", "external_references": [{"id": 33817, "source": {"name": "Wikidata", "slug": "wikidata"}, "source_identifier": "Q121299066"}], "date_modified": "2023-09-05T20:11:55.233855+10:00"}, {"id": 20190, "name": "Arthur Mokin Productions", "roles_in_work": [{"id": 2752413, "title": "Teenage whiz kids", "work_id": 98283, "role": "production company", "role_id": 941, "is_primary": true}, {"id": 2409065, "title": "Happy to be me (TEFC)", "work_id": 77130, "role": "production company", "role_id": 941, "is_primary": true}], "also_known_as": "", "date_of_birth": "", "date_of_death": "", "genders": [], "languages": [], "places_of_operation": [], "biography": "", "biography_author": null, "date_of_biography": "2023-08-11T17:14:25.749845+10:00", "external_links": [], "uuid": "815535d0-b182-4bde-8c38-922ee10bdd4b", "source": {"name": "Vernon", "slug": "vernon"}, "source_identifier": "5409", "external_references": [], "date_modified": "2025-03-13T01:05:17.898936+11:00"}, {"id": 20189, "name": "Brian Blake", "roles_in_work": [{"id": 2791285, "title": "Crisis over Cuba", "work_id": 84715, "role": "producer", "role_id": 1089, "is_primary": true}, {"id": 2770527, "title": "The Miami experiment", "work_id": 97258, "role": "producer", "role_id": 1089, "is_primary": true}, {"id": 2770461, "title": "A Dignified exit", "work_id": 77129, "role": "producer", "role_id": 1089, "is_primary": true}, {"id": 2465925, "title": "Smoking: a double standard", "work_id": 97054, "role": "producer", "role_id": 1089, "is_primary": true}], "also_known_as": "", "date_of_birth": "", "date_of_death": "", "genders": [], "languages": [], "places_of_operation": [], "biography": "", "biography_author": null, "date_of_biography": "2023-08-14T12:08:45.627162+10:00", "external_links": [], "uuid": "6072c861-472a-46c9-9211-20a5c532c5e1", "source": {"name": "Vernon", "slug": "vernon"}, "source_identifier": "16195", "external_references": [], "date_modified": "2025-03-14T18:19:39.740995+11:00"}, {"id": 20188, "name": "Womens Film Fund", "roles_in_work": [{"id": 2101031, "title": "As a matter of fact: a film about abortion", "work_id": 87528, "role": "production company", "role_id": 941, "is_primary": true}, {"id": 2392549, "title": "Bread and dripping", "work_id": 77128, "role": "sponsor", "role_id": 625, "is_primary": false}], "also_known_as": "", "date_of_birth": "", "date_of_death": "", "genders": [], "languages": [], "places_of_operation": [], "biography": "", "biography_author": null, "date_of_biography": "2023-08-09T03:57:31.890947+10:00", "external_links": [], "uuid": "97b42e6b-b997-4b23-9611-ec6b618daffa", "source": {"name": "Vernon", "slug": "vernon"}, "source_identifier": "14423", "external_references": [{"id": 41680, "source": {"name": "Wikidata", "slug": "wikidata"}, "source_identifier": "Q121078921"}], "date_modified": "2023-09-06T02:20:00.274577+10:00"}, {"id": 20187, "name": "Women's Film Collective", "roles_in_work": [{"id": 2392548, "title": "Bread and dripping", "work_id": 77128, "role": "director", "role_id": 938, "is_primary": true}], "also_known_as": "", "date_of_birth": "", "date_of_death": "", "genders": [], "languages": [], "places_of_operation": [], "biography": "", "biography_author": null, "date_of_biography": "2023-08-09T03:57:31.110370+10:00", "external_links": [], "uuid": "15fc57cd-8d74-4c52-9e0e-24e1fff05f19", "source": {"name": "Vernon", "slug": "vernon"}, "source_identifier": "14422", "external_references": [], "date_modified": "2023-08-09T03:57:31.110593+10:00"}, {"id": 20186, "name": "Wimins Films", "roles_in_work": [{"id": 2392547, "title": "Bread and dripping", "work_id": 77128, "role": "production company", "role_id": 941, "is_primary": true}], "also_known_as": "", "date_of_birth": "", "date_of_death": "", "genders": [], "languages": [], "places_of_operation": [], "biography": "", "biography_author": null, "date_of_biography": "2023-08-09T03:57:30.390939+10:00", "external_links": [], "uuid": "cb84f79e-0240-42b7-bab5-95383869ae40", "source": {"name": "Vernon", "slug": "vernon"}, "source_identifier": "14382", "external_references": [], "date_modified": "2023-08-09T03:57:30.391176+10:00"}, {"id": 20184, "name": "Andrew McLaughlin", "roles_in_work": [{"id": 2397701, "title": "A Life Worth Living", "work_id": 77126, "role": "producer", "role_id": 1089, "is_primary": true}], "also_known_as": "", "date_of_birth": "", "date_of_death": "", "genders": [], "languages": [], "places_of_operation": [], "biography": "", "biography_author": null, "date_of_biography": "2023-08-11T13:03:38.524020+10:00", "external_links": [], "uuid": "1383279a-75b1-41fd-af1f-0979f2f934df", "source": {"name": "Vernon", "slug": "vernon"}, "source_identifier": "15195", "external_references": [], "date_modified": "2023-08-11T13:03:38.524310+10:00"}]}