{"count": 28687, "next": "https://api.acmi.net.au/creators/?page=2808", "previous": "https://api.acmi.net.au/creators/?page=2806", "results": [{"id": 8886, "name": "Tim Cuthbertson", "roles_in_work": [{"id": 2637529, "title": "Life (in a box)", "work_id": 109751, "role": "creator", "role_id": 968, "is_primary": true}, {"id": 2675484, "title": "Just another lonely unicycle robot", "work_id": 108789, "role": "creator", "role_id": 968, "is_primary": true}], "also_known_as": "", "date_of_birth": "", "date_of_death": "", "genders": [], "languages": [], "places_of_operation": [], "biography": "", "biography_author": null, "date_of_biography": "2023-05-09T15:09:47.656569+10:00", "external_links": [], "uuid": "524bd7af-e150-4104-b3fa-aed1bcaa4673", "source": {"name": "Vernon", "slug": "vernon"}, "source_identifier": "111214", "external_references": [], "date_modified": "2025-03-06T22:42:59.463091+11:00"}, {"id": 8885, "name": "James Tilyard", "roles_in_work": [{"id": 2675483, "title": "When darkness falls", "work_id": 108788, "role": "creator", "role_id": 968, "is_primary": true}], "also_known_as": "", "date_of_birth": "", "date_of_death": "", "genders": [], "languages": [], "places_of_operation": [], "biography": "", "biography_author": null, "date_of_biography": "2023-05-09T15:09:54.146689+10:00", "external_links": [], "uuid": "9bf57c9c-4f5b-461b-9d68-2407c04eb495", "source": {"name": "Vernon", "slug": "vernon"}, "source_identifier": "1739", "external_references": [], "date_modified": "2025-03-06T22:42:58.525833+11:00"}, {"id": 8884, "name": "Sally Biasuitti", "roles_in_work": [{"id": 2675482, "title": "Some kind of sweet obsession", "work_id": 108787, "role": "creator", "role_id": 968, "is_primary": true}], "also_known_as": "", "date_of_birth": "", "date_of_death": "", "genders": [], "languages": [], "places_of_operation": [], "biography": "", "biography_author": null, "date_of_biography": "2023-05-09T15:09:50.260427+10:00", "external_links": [], "uuid": "490452c7-8cb1-428e-afe3-28c342fecc51", "source": {"name": "Vernon", "slug": "vernon"}, "source_identifier": "2364", "external_references": [], "date_modified": "2025-03-06T22:42:57.706195+11:00"}, {"id": 8883, "name": "Jamie MacDowell", "roles_in_work": [{"id": 2675481, "title": "A Life before", "work_id": 108786, "role": "creator", "role_id": 968, "is_primary": true}, {"id": 2636973, "title": "Nine lives", "work_id": 109679, "role": "creator", "role_id": 968, "is_primary": true}], "also_known_as": "", "date_of_birth": "", "date_of_death": "", "genders": [], "languages": [], "places_of_operation": [], "biography": "", "biography_author": null, "date_of_biography": "2023-05-09T19:57:55.550377+10:00", "external_links": [], "uuid": "1648839d-ce18-443a-9cf3-848f0fb6ba9d", "source": {"name": "Vernon", "slug": "vernon"}, "source_identifier": "2260", "external_references": [], "date_modified": "2025-03-06T22:42:56.904841+11:00"}, {"id": 8882, "name": "Jim Curtis", "roles_in_work": [{"id": 2675480, "title": "A Life before", "work_id": 108786, "role": "creator", "role_id": 968, "is_primary": true}], "also_known_as": "", "date_of_birth": "", "date_of_death": "", "genders": [], "languages": [], "places_of_operation": [], "biography": "", "biography_author": null, "date_of_biography": "2023-05-09T15:09:48.848771+10:00", "external_links": [], "uuid": "75bb4a9f-1a54-44ea-9057-5852e4af6e91", "source": {"name": "Vernon", "slug": "vernon"}, "source_identifier": "1333", "external_references": [], "date_modified": "2025-03-06T22:42:56.322435+11:00"}, {"id": 8881, "name": "Nick Ball", "roles_in_work": [{"id": 2675479, "title": "A Life before", "work_id": 108786, "role": "creator", "role_id": 968, "is_primary": true}], "also_known_as": "", "date_of_birth": "", "date_of_death": "", "genders": [], "languages": [], "places_of_operation": [], "biography": "", "biography_author": null, "date_of_biography": "2023-05-09T15:09:48.628936+10:00", "external_links": [], "uuid": "b6417144-bb47-4c4f-b100-3b6304e9dc4a", "source": {"name": "Vernon", "slug": "vernon"}, "source_identifier": "1332", "external_references": [], "date_modified": "2025-03-06T22:42:55.729611+11:00"}, {"id": 8880, "name": "Eleanor Ratcliffe", "roles_in_work": [{"id": 2637504, "title": "There's nothing about Margot", "work_id": 108785, "role": "creator", "role_id": 968, "is_primary": true}], "also_known_as": "", "date_of_birth": "", "date_of_death": "", "genders": [], "languages": [], "places_of_operation": [], "biography": "", "biography_author": null, "date_of_biography": "2023-05-09T15:09:52.092732+10:00", "external_links": [], "uuid": "570a7ed9-ea71-4d6a-8da6-6d037b1989cb", "source": {"name": "Vernon", "slug": "vernon"}, "source_identifier": "1261", "external_references": [], "date_modified": "2025-03-05T10:47:51.042381+11:00"}, {"id": 8879, "name": "Bronwyn Hazlewood", "roles_in_work": [{"id": 2637503, "title": "There's nothing about Margot", "work_id": 108785, "role": "creator", "role_id": 968, "is_primary": true}], "also_known_as": "", "date_of_birth": "", "date_of_death": "", "genders": [], "languages": [], "places_of_operation": [], "biography": "", "biography_author": null, "date_of_biography": "2023-05-09T15:09:51.874287+10:00", "external_links": [], "uuid": "7e6acfb3-327b-4c5e-8ad5-947c2cbf18fd", "source": {"name": "Vernon", "slug": "vernon"}, "source_identifier": "1260", "external_references": [], "date_modified": "2025-03-05T10:47:50.468674+11:00"}, {"id": 8878, "name": "Charlotte Rolfe", "roles_in_work": [{"id": 2637500, "title": "My home", "work_id": 108784, "role": "creator", "role_id": 968, "is_primary": true}], "also_known_as": "", "date_of_birth": "", "date_of_death": "", "genders": [], "languages": [], "places_of_operation": [], "biography": "", "biography_author": null, "date_of_biography": "2023-05-09T15:09:49.722131+10:00", "external_links": [], "uuid": "5a33deb1-3eec-40ff-b317-09aa8346cd50", "source": {"name": "Vernon", "slug": "vernon"}, "source_identifier": "1196", "external_references": [], "date_modified": "2025-03-05T10:47:47.719096+11:00"}, {"id": 8877, "name": "Alex Marriot", "roles_in_work": [{"id": 2675478, "title": "The Trip", "work_id": 108783, "role": "creator", "role_id": 968, "is_primary": true}], "also_known_as": "", "date_of_birth": "", "date_of_death": "", "genders": [], "languages": [], "places_of_operation": [], "biography": "", "biography_author": null, "date_of_biography": "2023-05-09T15:09:52.669109+10:00", "external_links": [], "uuid": "93e247b4-0fae-4922-bfde-d5ff768d88b0", "source": {"name": "Vernon", "slug": "vernon"}, "source_identifier": "1455", "external_references": [], "date_modified": "2025-03-06T22:42:54.882721+11:00"}]}