{"count": 28687, "next": "https://api.acmi.net.au/creators/?page=577", "previous": "https://api.acmi.net.au/creators/?page=575", "results": [{"id": 79823, "name": "Vincent Landay", "roles_in_work": [{"id": 2111091, "title": "Being John Malkovich [DVD]", "work_id": 92455, "role": "co-producer", "role_id": 915, "is_primary": true}, {"id": 2270877, "title": "The Work of director Spike Jonze", "work_id": 94962, "role": "co-producer", "role_id": 915, "is_primary": true}, {"id": 2081315, "title": "Adaptation", "work_id": 94876, "role": "co-producer", "role_id": 915, "is_primary": true}], "also_known_as": "", "date_of_birth": "2000-01-01", "date_of_death": "", "genders": [{"id": 9, "name": "Male", "slug": "male"}], "languages": [], "places_of_operation": [{"id": 36, "name": "Canada", "slug": "canada"}], "biography": "Vincent Landay is a Canadian-American film producer. He has worked with Spike Jonze on his music videos and feature films since 1993. Some of the movies he has produced include Being John Malkovich and Where the Wild Things Are, as well as the 2010 Canadian short film Higglety Pigglety Pop! or There Must Be More to Life, created for the Blu-ray release of  Where the Wild Things Are.\nHe has made music videos for Kanye West, REM, Jay Z and many more artists.", "biography_author": "Wikidata", "date_of_biography": "2023-08-01T17:23:50.275000+10:00", "external_links": [{"id": 5321, "uri": "https://en.wikipedia.org/wiki/Vincent_Landay"}], "uuid": "b5347fd0-12a2-44eb-8952-155e29807d43", "source": {"name": "Vernon", "slug": "vernon"}, "source_identifier": "30137", "external_references": [{"id": 25605, "source": {"name": "Wikidata", "slug": "wikidata"}, "source_identifier": "Q7931899"}, {"id": 31925, "source": {"name": "VIAF", "slug": "viaf"}, "source_identifier": "308290300"}, {"id": 31926, "source": {"name": "LOC Auth", "slug": "loc-auth"}, "source_identifier": "no2003090688"}, {"id": 31927, "source": {"name": "WorldCat", "slug": "worldcat"}, "source_identifier": "lccn-no2003090688"}], "date_modified": "2023-09-06T02:06:41.337722+10:00"}, {"id": 79822, "name": "Sandy Stern", "roles_in_work": [{"id": 2111088, "title": "Being John Malkovich [DVD]", "work_id": 92455, "role": "co-producer", "role_id": 915, "is_primary": true}], "also_known_as": "", "date_of_birth": "", "date_of_death": "", "genders": [{"id": 9, "name": "Male", "slug": "male"}], "languages": [], "places_of_operation": [{"id": 1, "name": "United States of America", "slug": "united-states-of-america"}], "biography": "Sandy Stern is an American film producer, known for his work on the films Pump Up the Volume (1990), Being John Malkovich (1999) and Saved! (2004).", "biography_author": "Wikidata", "date_of_biography": "2023-08-01T16:59:51.016323+10:00", "external_links": [{"id": 5119, "uri": "https://en.wikipedia.org/wiki/Sandy_Stern"}], "uuid": "9a010078-b887-49a5-96f3-d682ffa10d37", "source": {"name": "Vernon", "slug": "vernon"}, "source_identifier": "28553", "external_references": [{"id": 25811, "source": {"name": "Wikidata", "slug": "wikidata"}, "source_identifier": "Q7417486"}, {"id": 31408, "source": {"name": "VIAF", "slug": "viaf"}, "source_identifier": "92790449"}, {"id": 55763, "source": {"name": "VIAF", "slug": "viaf"}, "source_identifier": "309873910"}], "date_modified": "2023-09-06T01:05:12.827999+10:00"}, {"id": 79821, "name": "Michael Stipe", "roles_in_work": [{"id": 2111087, "title": "Being John Malkovich [DVD]", "work_id": 92455, "role": "co-producer", "role_id": 915, "is_primary": true}], "also_known_as": "", "date_of_birth": "1960-01-04", "date_of_death": "", "genders": [{"id": 9, "name": "Male", "slug": "male"}], "languages": [{"id": 84, "name": "American English", "slug": "american-english"}], "places_of_operation": [{"id": 1, "name": "United States of America", "slug": "united-states-of-america"}], "biography": "John Michael Stipe (; born January 4, 1960) is an American singer, songwriter and artist, best known as the lead singer and lyricist of alternative rock band R.E.M. He is known for his vocal quality, poetic lyrics and unique stage presence.\nPossessing a distinctive voice, Stipe has been noted for the \"mumbling\" style of his early career. Since the mid-1980s, Stipe has sung in \"wailing, keening, arching vocal figures\" that R.E.M. biographer David Buckley compared to Celtic folk artists and Muslim muezzin. He was in charge of R.E.M.'s visual aspect, often selecting album artwork and directing many of the band's music videos. Outside the music industry, he owns and runs two film production studios, C-00 and Single Cell Pictures.\nAs a member of R.E.M., Stipe was inducted into the Rock and Roll Hall of Fame in 2007. As a singer-songwriter, Stipe influenced a wide range of artists, including Kurt Cobain of Nirvana and Thom Yorke of Radiohead. Bono of U2 has described his voice as \"extraordinary\", and Yorke told The Guardian that Stipe is his favorite lyricist, saying \"I loved the way he would take an emotion and then take a step back from it and in doing so make it so much more powerful.\"", "biography_author": "Wikidata", "date_of_biography": "2023-08-01T16:16:20.336505+10:00", "external_links": [{"id": 4714, "uri": "https://en.wikipedia.org/wiki/Michael_Stipe"}], "uuid": "372ef8c7-dddc-4b40-9888-bdbfb58ae637", "source": {"name": "Vernon", "slug": "vernon"}, "source_identifier": "25234", "external_references": [{"id": 25470, "source": {"name": "Wikidata", "slug": "wikidata"}, "source_identifier": "Q215182"}, {"id": 30365, "source": {"name": "VIAF", "slug": "viaf"}, "source_identifier": "84964040"}, {"id": 30366, "source": {"name": "LOC Auth", "slug": "loc-auth"}, "source_identifier": "n91125827"}, {"id": 30367, "source": {"name": "WorldCat", "slug": "worldcat"}, "source_identifier": "lccn-n91125827"}], "date_modified": "2023-09-05T23:09:56.001139+10:00"}, {"id": 79820, "name": "Isabelle Pragier", "roles_in_work": [{"id": 2212497, "title": "Early frost", "work_id": 92444, "role": "co-producer", "role_id": 915, "is_primary": true}], "also_known_as": "", "date_of_birth": "", "date_of_death": "", "genders": [], "languages": [], "places_of_operation": [], "biography": "", "biography_author": null, "date_of_biography": "2023-05-09T15:48:25.404828+10:00", "external_links": [], "uuid": "2a1e6c65-20ce-4d2c-97a2-c64a6f2dfac4", "source": {"name": "Vernon", "slug": "vernon"}, "source_identifier": "20905", "external_references": [{"id": 32266, "source": {"name": "Wikidata", "slug": "wikidata"}, "source_identifier": "Q121271450"}], "date_modified": "2023-09-05T20:51:33.755569+10:00"}, {"id": 79819, "name": "Laurent Lavole", "roles_in_work": [{"id": 2212493, "title": "Early frost", "work_id": 92444, "role": "co-producer", "role_id": 915, "is_primary": true}], "also_known_as": "", "date_of_birth": "", "date_of_death": "", "genders": [], "languages": [], "places_of_operation": [], "biography": "", "biography_author": null, "date_of_biography": "2023-05-09T15:48:25.157883+10:00", "external_links": [], "uuid": "11428dbe-bc8c-4f29-b70d-f43918dab77f", "source": {"name": "Vernon", "slug": "vernon"}, "source_identifier": "23556", "external_references": [{"id": 38299, "source": {"name": "Wikidata", "slug": "wikidata"}, "source_identifier": "Q121036575"}], "date_modified": "2023-09-05T22:16:26.311867+10:00"}, {"id": 79818, "name": "Marc Abraham", "roles_in_work": [{"id": 2076456, "title": "A Thousand acres", "work_id": 92438, "role": "co-producer", "role_id": 915, "is_primary": true}, {"id": 2125231, "title": "Bring it on [DVD]", "work_id": 94288, "role": "co-producer", "role_id": 915, "is_primary": true}], "also_known_as": "", "date_of_birth": "1949-05-28", "date_of_death": "", "genders": [{"id": 9, "name": "Male", "slug": "male"}], "languages": [], "places_of_operation": [{"id": 1, "name": "United States of America", "slug": "united-states-of-america"}], "biography": "Marc Abraham is an American film producer, director, and former president of Strike Entertainment, a production company he launched in early 2002 with a multi-year, first look arrangement with Universal Pictures.", "biography_author": "Wikidata", "date_of_biography": "2023-08-01T16:02:11.334816+10:00", "external_links": [{"id": 4596, "uri": "https://en.wikipedia.org/wiki/Marc_Abraham"}], "uuid": "734e7890-adf7-4162-a516-950b62b54a8f", "source": {"name": "Vernon", "slug": "vernon"}, "source_identifier": "24270", "external_references": [{"id": 25688, "source": {"name": "Wikidata", "slug": "wikidata"}, "source_identifier": "Q2446795"}, {"id": 30071, "source": {"name": "VIAF", "slug": "viaf"}, "source_identifier": "78848051"}, {"id": 30072, "source": {"name": "LOC Auth", "slug": "loc-auth"}, "source_identifier": "n2009008784"}, {"id": 30073, "source": {"name": "WorldCat", "slug": "worldcat"}, "source_identifier": "lccn-n2009008784"}], "date_modified": "2023-09-05T22:38:56.830229+10:00"}, {"id": 79817, "name": "Via Rosa", "roles_in_work": [{"id": 2076453, "title": "A Thousand acres", "work_id": 92438, "role": "production company", "role_id": 941, "is_primary": true}], "also_known_as": "", "date_of_birth": "", "date_of_death": "", "genders": [], "languages": [], "places_of_operation": [], "biography": "", "biography_author": null, "date_of_biography": "2023-05-09T11:41:33.321119+10:00", "external_links": [], "uuid": "3ecb5ce3-9476-4607-b866-23977582474e", "source": {"name": "Vernon", "slug": "vernon"}, "source_identifier": "14043", "external_references": [{"id": 34338, "source": {"name": "Wikidata", "slug": "wikidata"}, "source_identifier": "Q121034514"}], "date_modified": "2023-09-06T02:03:53.344218+10:00"}, {"id": 79816, "name": "Ray Taylor", "roles_in_work": [{"id": 2352613, "title": "The Green hornet. Vol. 1", "work_id": 92425, "role": "co-director", "role_id": 959, "is_primary": true}, {"id": 2352617, "title": "The Green hornet. Vol. 2", "work_id": 92426, "role": "co-director", "role_id": 959, "is_primary": true}], "also_known_as": "", "date_of_birth": "", "date_of_death": "", "genders": [], "languages": [], "places_of_operation": [], "biography": "", "biography_author": null, "date_of_biography": "2023-05-09T19:58:46.393621+10:00", "external_links": [], "uuid": "177e146a-9cff-476d-bc48-b48a7b02beb9", "source": {"name": "Vernon", "slug": "vernon"}, "source_identifier": "27177", "external_references": [{"id": 34816, "source": {"name": "Wikidata", "slug": "wikidata"}, "source_identifier": "Q121159727"}], "date_modified": "2023-09-06T00:22:53.992717+10:00"}, {"id": 79815, "name": "Frederick Stephani", "roles_in_work": [{"id": 2243567, "title": "Flash Gordon. Vol. 02", "work_id": 92424, "role": "director", "role_id": 938, "is_primary": true}, {"id": 2243551, "title": "Flash Gordon. Vol. 01", "work_id": 92423, "role": "director", "role_id": 938, "is_primary": true}], "also_known_as": "", "date_of_birth": "", "date_of_death": "", "genders": [], "languages": [], "places_of_operation": [], "biography": "", "biography_author": null, "date_of_biography": "2023-05-09T16:58:26.024603+10:00", "external_links": [], "uuid": "ca60e707-2994-4b27-9cca-947033f6edc5", "source": {"name": "Vernon", "slug": "vernon"}, "source_identifier": "19285", "external_references": [{"id": 38156, "source": {"name": "Wikidata", "slug": "wikidata"}, "source_identifier": "Q121223120"}], "date_modified": "2023-09-05T19:53:27.907160+10:00"}, {"id": 79814, "name": "Spencer Bennet", "roles_in_work": [{"id": 2082325, "title": "Adventures of Captain Africa: mighty jungle avenger. Vol. 2", "work_id": 92420, "role": "director", "role_id": 938, "is_primary": true}, {"id": 2082308, "title": "Adventures of Captain Africa: mighty jungle avenger. Vol. 1", "work_id": 92419, "role": "director", "role_id": 938, "is_primary": true}], "also_known_as": "", "date_of_birth": "", "date_of_death": "", "genders": [], "languages": [], "places_of_operation": [], "biography": "", "biography_author": null, "date_of_biography": "2023-05-09T11:50:54.294953+10:00", "external_links": [], "uuid": "4c98fd1a-2b0c-4ca3-a366-02e83c192b40", "source": {"name": "Vernon", "slug": "vernon"}, "source_identifier": "28910", "external_references": [{"id": 34910, "source": {"name": "Wikidata", "slug": "wikidata"}, "source_identifier": "Q121315612"}], "date_modified": "2023-09-06T01:25:00.827610+10:00"}]}