{"count": 28684, "next": "https://api.acmi.net.au/creators/?page=2849", "previous": "https://api.acmi.net.au/creators/?page=2847", "results": [{"id": 6805, "name": "Les LeVeque", "roles_in_work": [{"id": 2637698, "title": "Les LeVeque videoworks. Volume 2 (1999 - 2000)", "work_id": 114030, "role": "", "role_id": 604, "is_primary": false}, {"id": 2637695, "title": "2 Spellbound", "work_id": 114031, "role": "creator", "role_id": 968, "is_primary": true}, {"id": 2709779, "title": "4 Vertigo", "work_id": 114029, "role": "creator", "role_id": 968, "is_primary": true}, {"id": 2637696, "title": "2 Spellbound", "work_id": 114031, "role": "director", "role_id": 938, "is_primary": true}], "also_known_as": "", "date_of_birth": "", "date_of_death": "", "genders": [], "languages": [], "places_of_operation": [], "biography": "Les LeVeque is an artist who works with electronic media and lives in New York City. Recently he has been making short videos and video installations where Hollywood movies are transformed into a sensuous hallucinatory unveiling of repressed representations. Screenings of his experimental videos include: The New York Video Festival, Pandemonium Festival of the Moving Image, The Sundance Film Festival, Festival International Nouveau Cinema Nouveaux Medias, Viennale Vienna International Film Festival, the San Francisco International Film Festival, the 2000 Whitney Biennial and the Pompidou Center.\n\nEDUCATION\n1992   MFA, Department of Art Media Studies, Syracuse University.\n\nACADEMIC EXPERIENCE\n2000-present Faculty member, Milton Avery Graduate School of the Arts, Bard College.\n1999-2000 Visiting Assistant Professor, Film and Electronic Arts Program, Bard College.\n1998-99    Part-time Lecturer, Visual Arts Department, Rutgers University.\n1995-97    Visiting Assistant Professor, Department of Art and Art History, Colgate University.\n1994   Visiting Assistant Professor, Department of Media Study, State University of New York at Buffalo.\n1993-94 Visiting Assistant Professor, Art Department, Ithaca College.\n1993 Adjunct Professor, Department of Art and Art History, Colgate University.\n1992-93   Adjunct Professor, Department of Art Media Studies and the Department of Foundation, Syracuse University.\n1989-91 Instructor, Department of Art Media Studies and the Department of Foundation, Syracuse University.\n\nOTHER RELATED EXPERIENCE\n2002   Curator, 'Negation and Consumption', Ocularis, Brooklyn,NY.\n2001   Curator, Experimental Film and Video, Voyager Press.\n2000-present    Programmer, D.U.M.B.O. Short Film and Video Festival, Brooklyn, NY.\n2000 Juror, Experimental Film and Video, New York Exposition of Short Film and Video,.\n1995-99    Artist Advisory Board, representing video, The New York Foundation For The Arts.\n1995-96    Programmer, Alternative Cinema , Colgate University.\n1992   Co-founding member, The Up-State Media Posse.\n1991   Co-Curator, Performance Festival, Syracuse University.\n1990-92    Instructor, Computer Animation and Audio Sampling Workshops, Light Work Community Darkroom.\n\nAWARDS AND GRANTS\n2002   Honorable mention, Transmediale.02.\n2000   Silver Spire Award, San Francisco International Film Festival.\n1998   Reel Frontier Award, Best Short, Arizona International Film Festival.\nFinishing Funds Grant, Experimental Television LTD.\n1997   Honorable mention, 22nd Annual Atlanta Film and Video Festival.\n1996   Certificate of Merit, San Francisco International Film Festival.\n1995   Funded Residency, Sculpture Space.\n   Director's Citation, Black Maria Film and Video Festival.\n1994   Director's Citation, Black Maria Film and Video Festival.\n1991   Juror's Choice Award, Black Maria Film and Video Festival.\n   University Fellowship, Syracuse University, Syracuse, NY.\n1990   The National Endowment for the Arts and the Rockefeller Foundation, New Forms Re-Grant,\nAdministered by Hallwalls Contemporary Arts Center, Buffalo, NY\n\n\n2001   Stutter the Searchers\nColor, Stereo, 12:15 minutes\nRed Green Blue Gone with the Wind\nColor, Stereo, 11:45 minutes\nRed Green Blue Gone with the Wind\n(a video installation)\n\n2000   Backwards Birth of a Nation\nBlack and White, Stereo, 13 minutes\nDistributed by Video Data Bank\nBackwards Birth of a Nation\n(a video installation)\n\n4 Vertigo\nColor, Stereo, 9 minutes\nDistributed by Video Data Bank\n4 Vertigo (a video installation)\n4 Vertigo (a web project)\n\n1999   2 Spellbound\nBlack and White, Stereo, 7:30 minutes.\nDistributed by Video Data Bank\n\n1998   A Song From The Cultural Revolution\nColor, Stereo, 5 minutes\nDistributed by Video Data Bank\n\nflight\nColor, Stereo, 7 minutes\nDistributed by Video Data Bank\nflight (a video installation)\nA multi-channel video installation.\n\n1997   Encoded Facial Gestures, #1, #2, #3, #4\nColor, Stereo, 7:30 minutes\nDistributed by Video Data Bank\n\nDissing D.A.R.E: education as spectacle\nLes LeVeque and Diane Nerwen.\nColor, Stereo, 6:00 minutes\nDistributed by Video Data Bank\n\nIs It Love (#2)\nA six channel video installation.\n\nThorazine Rebel\nDaniella Dooling and Les LeVeque.\nColor, Stereo, 8:22 minutes\n\nQuartet\nA n inter-active sound installation\n\n1996   Is It Love\nAn inter-active multi-channel video installation\n\nYou Kept Our Rendezvous\nAn inter-active sound installation\n\n1995   the free space of the commodity\nColor, Stereo, 2:52 minutes\nDistributed by Video Data Bank\n\nKEPT\nLes LeVeque and Diane Nerwen.\nBlack and White, Color, Stereo, 1:52 minutes\n\n1993   GASP\nLes LeVeque and Diane Nerwen.\nColor, Stereo, 13:00 minutes.\n\n1992   PREEXISTING CONDITIONS\nLes LeVeque and Diane Nerwen.\nColor, Stereo, 9:30 minutes.\n\nUntitled\nA multi-channel kinetic video installation.\n\nNoisy Insignificance\nJohn Knecht and Les LeVeque\nA ten channel video installation\n\n1991   More Questions Concerning Technology\nA multi-channel kinetic video installation.\n\nTHE WARDEN THREW A PARTY\nDiane Nerwen and Les LeVeque.\nColor, Stereo, 6:42 minutes\n\nLIGHT SWEET CRUDE\nLes LeVeque and Diane Nerwen.\nColor, Stereo, 11:34 minutes\n\n1990   Some Questions Concerning Technology\nA multi-channel kinetic video installation.\n\nGENERAL EDUCATION Lesson 1: Partnerships\nColor, Stereo, 2:34 minutes.\n\nFREDDIE BRICE PAINTS TWO PAINTINGS\nLes LeVeque and Kerry Schuss\nColor, Stereo, 22:30 minutes", "biography_author": null, "date_of_biography": "2025-03-11T23:09:15.723359+11:00", "external_links": [], "uuid": "079dccfd-b84b-4b47-b995-d50dade2d2ab", "source": {"name": "Vernon", "slug": "vernon"}, "source_identifier": "110677", "external_references": [], "date_modified": "2025-03-11T23:09:15.723730+11:00"}, {"id": 6804, "name": "Martin Sorrondeguy", "roles_in_work": [{"id": 2709774, "title": "Beyond the screams: a US Latino hardcore punk documentary", "work_id": 114027, "role": "creator", "role_id": 968, "is_primary": true}, {"id": 2709775, "title": "Beyond the screams: a US Latino hardcore punk documentary", "work_id": 114027, "role": "film maker", "role_id": 459, "is_primary": false}], "also_known_as": "", "date_of_birth": "", "date_of_death": "", "genders": [], "languages": [], "places_of_operation": [], "biography": "", "biography_author": null, "date_of_biography": "2023-08-11T14:50:34.219829+10:00", "external_links": [], "uuid": "0edfdff3-2457-4539-8088-55d000f1ceb3", "source": {"name": "Vernon", "slug": "vernon"}, "source_identifier": "110676", "external_references": [], "date_modified": "2025-03-11T23:09:14.749278+11:00"}, {"id": 6797, "name": "Emma Sleath", "roles_in_work": [{"id": 2710134, "title": "Rise", "work_id": 108243, "role": "director", "role_id": 938, "is_primary": true}, {"id": 908028, "title": "Rise", "work_id": 88427, "role": "director", "role_id": 938, "is_primary": true}, {"id": 2710133, "title": "Rise", "work_id": 108243, "role": "creator", "role_id": 968, "is_primary": true}, {"id": 2711498, "title": "Elizabeth", "work_id": 109214, "role": "creator", "role_id": 968, "is_primary": true}, {"id": 2709749, "title": "Pulse", "work_id": 108201, "role": "creator", "role_id": 968, "is_primary": true}, {"id": 2709748, "title": "Pulse", "work_id": 108201, "role": "director", "role_id": 938, "is_primary": true}, {"id": 2709751, "title": "Pulse", "work_id": 108201, "role": "editor", "role_id": 918, "is_primary": true}], "also_known_as": "", "date_of_birth": "", "date_of_death": "", "genders": [], "languages": [], "places_of_operation": [], "biography": "", "biography_author": null, "date_of_biography": "2023-05-09T17:10:13.907309+10:00", "external_links": [], "uuid": "18846568-d6dd-49d3-80ff-263b13c99c1c", "source": {"name": "Vernon", "slug": "vernon"}, "source_identifier": "110687", "external_references": [{"id": 42053, "source": {"name": "Wikidata", "slug": "wikidata"}, "source_identifier": "Q121034268"}], "date_modified": "2025-03-11T23:53:00.733325+11:00"}, {"id": 6796, "name": "Hilary Blackman", "roles_in_work": [{"id": 2709741, "title": "Gather", "work_id": 114026, "role": "creator", "role_id": 968, "is_primary": true}, {"id": 2709743, "title": "Gather", "work_id": 114026, "role": "director", "role_id": 938, "is_primary": true}, {"id": 2709745, "title": "Gather", "work_id": 114026, "role": "editor", "role_id": 918, "is_primary": true}], "also_known_as": "", "date_of_birth": null, "date_of_death": null, "genders": [], "languages": [], "places_of_operation": [], "biography": "", "biography_author": null, "date_of_biography": null, "external_links": [], "uuid": "ef1a7819-affd-4010-8ce2-5d98f4d43222", "source": {"name": "Vernon", "slug": "vernon"}, "source_identifier": "110685", "external_references": [], "date_modified": "2025-03-11T23:08:25.722635+11:00"}, {"id": 6795, "name": "Scott Millwood", "roles_in_work": [{"id": 2266915, "title": "Wildness", "work_id": 94427, "role": "director", "role_id": 938, "is_primary": true}, {"id": 2709738, "title": "Gather", "work_id": 114026, "role": "creator", "role_id": 968, "is_primary": true}, {"id": 2709740, "title": "Gather", "work_id": 114026, "role": "director", "role_id": 938, "is_primary": true}, {"id": 2709737, "title": "Gather", "work_id": 114026, "role": "editor", "role_id": 918, "is_primary": true}], "also_known_as": "", "date_of_birth": "", "date_of_death": "", "genders": [], "languages": [], "places_of_operation": [], "biography": "", "biography_author": null, "date_of_biography": "2023-05-09T17:38:52.233857+10:00", "external_links": [], "uuid": "b522a921-ff2a-49a3-bd90-671a15cef483", "source": {"name": "Vernon", "slug": "vernon"}, "source_identifier": "110684", "external_references": [{"id": 32794, "source": {"name": "Wikidata", "slug": "wikidata"}, "source_identifier": "Q121034742"}], "date_modified": "2025-03-11T23:08:22.414183+11:00"}, {"id": 6794, "name": "Margie Medlin", "roles_in_work": [{"id": 2748397, "title": "Behaviour", "work_id": 114036, "role": "director", "role_id": 938, "is_primary": true}, {"id": 2633002, "title": "Miss World", "work_id": 108643, "role": "creator", "role_id": 968, "is_primary": true}, {"id": 2748391, "title": "Behaviour", "work_id": 114036, "role": "creator", "role_id": 968, "is_primary": true}, {"id": 2291068, "title": "With inertia", "work_id": 79009, "role": "co-director", "role_id": 959, "is_primary": true}, {"id": 2635966, "title": "Margie Medlin compilation", "work_id": 114037, "role": "creator", "role_id": 968, "is_primary": true}, {"id": 2619405, "title": "Elasticity and volume: films about movement and space", "work_id": 108512, "role": "producer", "role_id": 1089, "is_primary": true}], "also_known_as": "", "date_of_birth": "", "date_of_death": "", "genders": [], "languages": [], "places_of_operation": [], "biography": "", "biography_author": null, "date_of_biography": "2023-05-09T18:19:23.573527+10:00", "external_links": [], "uuid": "a096ad29-6787-4851-8e6b-fc1e8059d07d", "source": {"name": "Vernon", "slug": "vernon"}, "source_identifier": "110681", "external_references": [{"id": 36209, "source": {"name": "Wikidata", "slug": "wikidata"}, "source_identifier": "Q121126176"}], "date_modified": "2025-03-12T22:59:14.830343+11:00"}, {"id": 6793, "name": "Phillip Crawford", "roles_in_work": [{"id": 2619420, "title": "Denial", "work_id": 114090, "role": "director", "role_id": 938, "is_primary": true}, {"id": 2629785, "title": "First love", "work_id": 108555, "role": "director", "role_id": 938, "is_primary": true}, {"id": 2619421, "title": "Denial", "work_id": 114090, "role": "creator", "role_id": 968, "is_primary": true}, {"id": 2629786, "title": "First love", "work_id": 108555, "role": "creator", "role_id": 968, "is_primary": true}, {"id": 913088, "title": "Hurt", "work_id": 93040, "role": "co-director", "role_id": 959, "is_primary": true}, {"id": 2709728, "title": "Hurt", "work_id": 108155, "role": "creator", "role_id": 968, "is_primary": true}, {"id": 2709730, "title": "Hurt", "work_id": 108155, "role": "director", "role_id": 938, "is_primary": true}, {"id": 1932495, "title": "Knot at home project: disc two", "work_id": 95568, "role": "producer", "role_id": 1089, "is_primary": true}, {"id": 1932489, "title": "Knot at home project: disc one", "work_id": 95567, "role": "producer", "role_id": 1089, "is_primary": true}, {"id": 795572, "title": "Denial", "work_id": 87237, "role": "producer/director", "role_id": 31, "is_primary": true}, {"id": 2619419, "title": "Denial", "work_id": 114090, "role": "writer", "role_id": 939, "is_primary": true}, {"id": 2629784, "title": "First love", "work_id": 108555, "role": "writer", "role_id": 939, "is_primary": true}], "also_known_as": "", "date_of_birth": "", "date_of_death": "", "genders": [{"id": 9, "name": "Male", "slug": "male"}], "languages": [], "places_of_operation": [], "biography": "Phillip Crawford worked for 8 years in community welfare and youth issues before undertaking a degree in film and television at the Victorian College of the Arts. Graduating in 1997, Phillip's final year film 'Denial', a raw, visceral film about child abuse, went on to win a number of awards and screened at over 25 festivals internationally. More recent short films 'First Love' and 'Rule of Thumb' have also screened at a number of festivals and explored cruelty, beauty and isolation as seen through the eyes of young people. In 1998, Phillip began working with BIG hART - an award winning arts company that initiate arts projects with marginalised young people. Working with 250 young people in regional Australia the outcome was the featurette 'Hurt' which has screened internationally and led to a number of similar film and video projects engaging young people around Australia. A multi-screen installation version of this work has been commissioned for exhibition within the screeen gallery. Currently, Phillip is creative director of 'Not at Home', a film, video and performance project exploring issues of homelessness with young people around the country.", "biography_author": null, "date_of_biography": "2025-03-11T23:08:19.765909+11:00", "external_links": [], "uuid": "36694f74-e8c9-44f5-b1bb-faa1f041c7e0", "source": {"name": "Vernon", "slug": "vernon"}, "source_identifier": "110686", "external_references": [{"id": 35056, "source": {"name": "Wikidata", "slug": "wikidata"}, "source_identifier": "Q121058101"}], "date_modified": "2025-03-11T23:08:19.766163+11:00"}, {"id": 6792, "name": "BIG hART", "roles_in_work": [{"id": 3097439, "title": "NEOMAD: The Complete Collection", "work_id": 122725, "role": "artist", "role_id": 505, "is_primary": true}, {"id": 913086, "title": "Hurt", "work_id": 93040, "role": "co-producer", "role_id": 915, "is_primary": true}, {"id": 3097411, "title": "Born Ready (Sidney Eaton) on the set of Neomad Episode 1: Space Junk (Intro)", "work_id": 122712, "role": "copyright owner", "role_id": 1020, "is_primary": false}, {"id": 3097426, "title": "Neomad Book One – Space Junk", "work_id": 122718, "role": "copyright owner", "role_id": 1020, "is_primary": false}, {"id": 3097421, "title": "Illustration from Neomad Episode/Book 2: The Last Crystal (Digital file)", "work_id": 122717, "role": "copyright owner", "role_id": 1020, "is_primary": false}, {"id": 3097419, "title": "Illustration from Neomad Episode/Book 2: The Last Crystal (Digital file)", "work_id": 122716, "role": "copyright owner", "role_id": 1020, "is_primary": false}, {"id": 3097417, "title": "Illustration from Neomad Episode/Book 1: Space Junk (Digtal file)", "work_id": 122715, "role": "copyright owner", "role_id": 1020, "is_primary": false}, {"id": 3097415, "title": "Hero image for Neomad Episode/Book 1: Space Junk (Digtal file)", "work_id": 122714, "role": "copyright owner", "role_id": 1020, "is_primary": false}, {"id": 3097409, "title": "Alison Lockyer and Layla Walker on the set of The Satellite Sisters (Digital file)", "work_id": 122711, "role": "copyright owner", "role_id": 1020, "is_primary": false}, {"id": 3097431, "title": "Neomad Book Three – Porkchop Plots", "work_id": 122719, "role": "copyright owner", "role_id": 1020, "is_primary": false}, {"id": 3097438, "title": "Neomad poster (Digtial file)", "work_id": 122724, "role": "copyright owner", "role_id": 1020, "is_primary": false}, {"id": 3097441, "title": "We Made This Comic", "work_id": 122726, "role": "copyright owner", "role_id": 1020, "is_primary": false}, {"id": 2709724, "title": "Hurt", "work_id": 108155, "role": "creator", "role_id": 968, "is_primary": true}, {"id": 1932488, "title": "Knot at home project: disc one", "work_id": 95567, "role": "production company", "role_id": 941, "is_primary": true}, {"id": 1932494, "title": "Knot at home project: disc two", "work_id": 95568, "role": "production company", "role_id": 941, "is_primary": true}, {"id": 2709726, "title": "Hurt", "work_id": 108155, "role": "production company", "role_id": 941, "is_primary": true}], "also_known_as": "", "date_of_birth": null, "date_of_death": null, "genders": [], "languages": [], "places_of_operation": [], "biography": "", "biography_author": null, "date_of_biography": null, "external_links": [], "uuid": "0bde5888-01d2-404b-9993-3d400e1675c2", "source": {"name": "Vernon", "slug": "vernon"}, "source_identifier": "111810", "external_references": [], "date_modified": "2025-05-08T22:36:19.475775+10:00"}, {"id": 6791, "name": "Roberta Ciabarra", "roles_in_work": [{"id": 2709714, "title": "Innamorati", "work_id": 108154, "role": "creator", "role_id": 968, "is_primary": true}, {"id": 2711659, "title": "Cinemedia Access Collection Promo", "work_id": 109295, "role": "narrator", "role_id": 499, "is_primary": false}], "also_known_as": "", "date_of_birth": "", "date_of_death": "", "genders": [], "languages": [], "places_of_operation": [], "biography": "", "biography_author": null, "date_of_biography": "2023-08-09T03:40:06.413174+10:00", "external_links": [], "uuid": "456cf08f-50c1-40bf-bce8-736a7778998e", "source": {"name": "Vernon", "slug": "vernon"}, "source_identifier": "111111", "external_references": [], "date_modified": "2025-03-11T23:57:22.651792+11:00"}, {"id": 6789, "name": "Dave Jones", "roles_in_work": [{"id": 2711664, "title": "Talks: a Natimuk Primary School animation", "work_id": 109311, "role": "creator", "role_id": 968, "is_primary": true}, {"id": 2643867, "title": "ACMI Animation Open Studios: three weekends in September and October 2007", "work_id": 111275, "role": "animator", "role_id": 497, "is_primary": false}, {"id": 2709688, "title": "The Fang", "work_id": 108153, "role": "animator", "role_id": 497, "is_primary": false}], "also_known_as": "", "date_of_birth": "", "date_of_death": "", "genders": [], "languages": [], "places_of_operation": [], "biography": "", "biography_author": null, "date_of_biography": "2023-05-09T20:00:10.463210+10:00", "external_links": [], "uuid": "f2bae3dc-9ce3-4a72-ad37-87a5f7d80626", "source": {"name": "Vernon", "slug": "vernon"}, "source_identifier": "112291", "external_references": [], "date_modified": "2025-03-12T00:00:05.596724+11:00"}]}