{"count": 28687, "next": "https://api.acmi.net.au/creators/?page=249", "previous": "https://api.acmi.net.au/creators/?page=247", "results": [{"id": 83127, "name": "Dominique Laurent", "roles_in_work": [{"id": 3104758, "title": "Le Voyage a Paimpol = the Journey to Paimpol", "work_id": 116068, "role": "producer", "role_id": 1089, "is_primary": true}], "also_known_as": "", "date_of_birth": "", "date_of_death": "", "genders": [], "languages": [], "places_of_operation": [], "biography": "", "biography_author": null, "date_of_biography": "2023-08-11T19:21:49.473500+10:00", "external_links": [], "uuid": "58251837-45ed-4767-93d7-34416a963798", "source": {"name": "Vernon", "slug": "vernon"}, "source_identifier": "31155", "external_references": [{"id": 41793, "source": {"name": "Wikidata", "slug": "wikidata"}, "source_identifier": "Q121057866"}], "date_modified": "2025-05-22T22:47:03.443133+10:00"}, {"id": 83126, "name": "Jerome Goulven", "roles_in_work": [{"id": 3104756, "title": "Un Drole de Paroissien = Thank Heaven for Small Favors", "work_id": 116067, "role": "producer", "role_id": 1089, "is_primary": true}, {"id": 3104973, "title": "La Tete Contre les Murs = the Keepers", "work_id": 116180, "role": "producer", "role_id": 1089, "is_primary": true}], "also_known_as": "", "date_of_birth": null, "date_of_death": null, "genders": [], "languages": [], "places_of_operation": [], "biography": "", "biography_author": null, "date_of_biography": null, "external_links": [], "uuid": "f368bab4-d2e8-48fc-876f-eb8177f9e28c", "source": {"name": "Vernon", "slug": "vernon"}, "source_identifier": "31154", "external_references": [{"id": 42083, "source": {"name": "Wikidata", "slug": "wikidata"}, "source_identifier": "Q121091320"}], "date_modified": "2025-05-22T22:52:11.255049+10:00"}, {"id": 83125, "name": "Henri Diamant-Berger", "roles_in_work": [{"id": 3104755, "title": "Un Drole de Paroissien = Thank Heaven for Small Favors", "work_id": 116067, "role": "producer", "role_id": 1089, "is_primary": true}], "also_known_as": "Henri Simon Diamantberger", "date_of_birth": "1895-06-09", "date_of_death": "1972-05-02", "genders": [{"id": 9, "name": "Male", "slug": "male"}], "languages": [{"id": 1, "name": "English", "slug": "english"}, {"id": 4, "name": "French", "slug": "french"}], "places_of_operation": [{"id": 17, "name": "France", "slug": "france"}], "biography": "Henri Diamant-Berger (9 June 1895 – 7 May 1972) was a French director, producer and screenwriter. In a career that lasted more than 50 years, he directed 48 films between 1913 and 1959, produced 17 between 1925 and 1967 and wrote 21 screenplays between 1916 and 1971.", "biography_author": "Wikidata", "date_of_biography": "2022-05-19T11:44:05.997216+10:00", "external_links": [{"id": 2219, "uri": "https://en.wikipedia.org/wiki/Henri_Diamant-Berger"}], "uuid": "2b7417ca-2101-4fcc-bf7e-ae050588f3a7", "source": {"name": "Vernon", "slug": "vernon"}, "source_identifier": "31153", "external_references": [{"id": 9533, "source": {"name": "Wikidata", "slug": "wikidata"}, "source_identifier": "Q510692"}, {"id": 9534, "source": {"name": "VIAF", "slug": "viaf"}, "source_identifier": "44505761"}, {"id": 9535, "source": {"name": "LOC Auth", "slug": "loc-auth"}, "source_identifier": "nr95013753"}, {"id": 9536, "source": {"name": "WorldCat", "slug": "worldcat"}, "source_identifier": "lccn-nr95013753"}], "date_modified": "2025-05-22T22:47:01.361773+10:00"}, {"id": 83124, "name": "Gerard Vergez", "roles_in_work": [{"id": 3104845, "title": "Ballade Pour Un Chien = Ballad for a Dog", "work_id": 116112, "role": "director", "role_id": 938, "is_primary": true}, {"id": 3104752, "title": "Les Cavaliers de L'orage = the Horsemen of the Storm", "work_id": 116065, "role": "director", "role_id": 938, "is_primary": true}, {"id": 3104831, "title": "Teresa", "work_id": 116105, "role": "director", "role_id": 938, "is_primary": true}], "also_known_as": "Gérard Jean Verges", "date_of_birth": null, "date_of_death": "2021-12-24", "genders": [{"id": 9, "name": "Male", "slug": "male"}], "languages": [{"id": 4, "name": "French", "slug": "french"}], "places_of_operation": [{"id": 17, "name": "France", "slug": "france"}], "biography": "", "biography_author": null, "date_of_biography": "2023-05-09T19:16:58.558369+10:00", "external_links": [], "uuid": "c37d3587-61d4-4b16-925d-47de7c9cc718", "source": {"name": "Vernon", "slug": "vernon"}, "source_identifier": "31152", "external_references": [{"id": 9215, "source": {"name": "Wikidata", "slug": "wikidata"}, "source_identifier": "Q3124352"}, {"id": 9216, "source": {"name": "VIAF", "slug": "viaf"}, "source_identifier": "7579922"}, {"id": 9217, "source": {"name": "WorldCat", "slug": "worldcat"}, "source_identifier": "viaf-7579922"}], "date_modified": "2025-05-22T22:50:40.783492+10:00"}, {"id": 83123, "name": "Rachid Bouchareb", "roles_in_work": [{"id": 3104750, "title": "Baton Rouge", "work_id": 116064, "role": "director", "role_id": 938, "is_primary": true}], "also_known_as": "", "date_of_birth": "01 SEP 1953", "date_of_death": "", "genders": [{"id": 9, "name": "Male", "slug": "male"}], "languages": [{"id": 4, "name": "French", "slug": "french"}], "places_of_operation": [{"id": 17, "name": "France", "slug": "france"}], "biography": "Rachid Bouchareb (born 1 September 1953) is a French film director and producer. His films are based on the complex history of France and its relationship with its former colony, Algeria. His films also examine racial discrimination and conflicts in other countries, using historical dramas and contemporary settings to show his message. Source: Wikidata; 01/08/2023", "biography_author": null, "date_of_biography": "2025-05-22T22:46:58.784201+10:00", "external_links": [{"id": 2898, "uri": "https://en.wikipedia.org/wiki/Rachid_Bouchareb"}], "uuid": "350019be-c33a-4045-92fe-51951e8ef1e1", "source": {"name": "Vernon", "slug": "vernon"}, "source_identifier": "31151", "external_references": [{"id": 12324, "source": {"name": "Wikidata", "slug": "wikidata"}, "source_identifier": "Q951671"}, {"id": 12325, "source": {"name": "VIAF", "slug": "viaf"}, "source_identifier": "161853316"}, {"id": 12326, "source": {"name": "LOC Auth", "slug": "loc-auth"}, "source_identifier": "no2002112610"}, {"id": 12327, "source": {"name": "WorldCat", "slug": "worldcat"}, "source_identifier": "viaf-161853316"}], "date_modified": "2025-05-22T22:46:58.784419+10:00"}, {"id": 83122, "name": "Euzhan Palcy", "roles_in_work": [{"id": 3104747, "title": "Rue Cases-Negres = Black Shack Alley = Sugar Cane Alley", "work_id": 116063, "role": "director", "role_id": 938, "is_primary": true}], "also_known_as": "", "date_of_birth": "13 JAN 1958", "date_of_death": "", "genders": [{"id": 5, "name": "Female", "slug": "female"}], "languages": [{"id": 1, "name": "English", "slug": "english"}, {"id": 4, "name": "French", "slug": "french"}], "places_of_operation": [{"id": 17, "name": "France", "slug": "france"}, {"id": 1, "name": "United States of America", "slug": "united-states-of-america"}], "biography": "Euzhan Palcy ([ø.ʒɑ̃ pal.si]; born 13 January 1958) is a French film director, screenwriter, and producer. Her films are known to explore themes of race, gender, and politics, with an emphasis on the perpetuated effects of colonialism. Palcy's first feature film Sugar Cane Alley (1983) received numerous awards including the César Award for Best First Feature Film. For directing A Dry White Season (1989), she became the first black female director to have a film produced by a major Hollywood studio, that being by MGM.Palcy also directed the independent film Siméon (1992). She has since moved towards directing documentaries and television projects such as Aimé Césaire: A Voice for History (1994). She then directed the television films Ruby Bridges (1998) and The Killing Yard (2001), as well as the documentary The Journey of the Dissidents (2005) and the miniseries The Brides of Bourbon Island (2007).Throughout her career, Palcy has explored various genres, often breaking ground being the first female black director to do so. She is the first black director to win a César Award and the Venice Film Festival's Silver Lion, both for Sugar Cane Alley (1983). In 2022, she was given the Academy Honorary Award for her contributions to cinema. Source: Wikidata; 01/08/2023", "biography_author": null, "date_of_biography": "2025-05-22T22:46:56.691447+10:00", "external_links": [{"id": 2026, "uri": "https://en.wikipedia.org/wiki/Euzhan_Palcy"}], "uuid": "0780fa4c-9535-4a83-9c40-da38d59563c1", "source": {"name": "Vernon", "slug": "vernon"}, "source_identifier": "31150", "external_references": [{"id": 8756, "source": {"name": "Wikidata", "slug": "wikidata"}, "source_identifier": "Q440423"}, {"id": 8757, "source": {"name": "VIAF", "slug": "viaf"}, "source_identifier": "69025467"}, {"id": 8758, "source": {"name": "LOC Auth", "slug": "loc-auth"}, "source_identifier": "nr95028964"}, {"id": 8759, "source": {"name": "WorldCat", "slug": "worldcat"}, "source_identifier": "lccn-nr95028964"}], "date_modified": "2025-05-22T22:46:56.691662+10:00"}, {"id": 83121, "name": "Alex Regis", "roles_in_work": [{"id": 3104746, "title": "Rue Cases-Negres = Black Shack Alley = Sugar Cane Alley", "work_id": 116063, "role": "producer", "role_id": 1089, "is_primary": true}], "also_known_as": "", "date_of_birth": "", "date_of_death": "", "genders": [], "languages": [], "places_of_operation": [], "biography": "", "biography_author": null, "date_of_biography": "2023-05-09T17:21:19.500758+10:00", "external_links": [], "uuid": "37037717-52ac-46ad-8501-d24d3fa710ff", "source": {"name": "Vernon", "slug": "vernon"}, "source_identifier": "31149", "external_references": [{"id": 37148, "source": {"name": "Wikidata", "slug": "wikidata"}, "source_identifier": "Q121035140"}], "date_modified": "2025-05-22T22:46:56.101913+10:00"}, {"id": 83120, "name": "Michel Loulergue", "roles_in_work": [{"id": 3104745, "title": "Rue Cases-Negres = Black Shack Alley = Sugar Cane Alley", "work_id": 116063, "role": "producer", "role_id": 1089, "is_primary": true}], "also_known_as": "", "date_of_birth": "", "date_of_death": "", "genders": [], "languages": [], "places_of_operation": [], "biography": "", "biography_author": null, "date_of_biography": "2023-05-09T17:21:19.272693+10:00", "external_links": [], "uuid": "13212226-4baf-40a3-9f1e-87d4e2c5e837", "source": {"name": "Vernon", "slug": "vernon"}, "source_identifier": "31148", "external_references": [{"id": 41137, "source": {"name": "Wikidata", "slug": "wikidata"}, "source_identifier": "Q121034373"}], "date_modified": "2025-05-22T22:46:55.388746+10:00"}, {"id": 83119, "name": "Elie Chouraqui", "roles_in_work": [{"id": 3104735, "title": "Une Page D'amour = a Moment of Love (TV Version)", "work_id": 116059, "role": "director", "role_id": 938, "is_primary": true}], "also_known_as": "", "date_of_birth": null, "date_of_death": null, "genders": [], "languages": [], "places_of_operation": [], "biography": "", "biography_author": null, "date_of_biography": null, "external_links": [], "uuid": "ef784055-1730-44aa-a776-1f46f1140ee1", "source": {"name": "Vernon", "slug": "vernon"}, "source_identifier": "31147", "external_references": [], "date_modified": "2025-05-22T22:46:48.726230+10:00"}, {"id": 83118, "name": "Rene Bezard", "roles_in_work": [{"id": 3105210, "title": "Cadet Rousselle", "work_id": 116301, "role": "producer", "role_id": 1089, "is_primary": true}, {"id": 3104881, "title": "La Peau et les Os = Skin and Bone", "work_id": 116129, "role": "producer", "role_id": 1089, "is_primary": true}, {"id": 3104728, "title": "Le Capitan", "work_id": 116057, "role": "producer", "role_id": 1089, "is_primary": true}], "also_known_as": "", "date_of_birth": "", "date_of_death": "", "genders": [], "languages": [], "places_of_operation": [], "biography": "", "biography_author": null, "date_of_biography": "2023-08-17T15:33:28.971987+10:00", "external_links": [], "uuid": "80c7a040-21ae-4b42-8dc4-72a4f56b1542", "source": {"name": "Vernon", "slug": "vernon"}, "source_identifier": "31146", "external_references": [{"id": 34047, "source": {"name": "Wikidata", "slug": "wikidata"}, "source_identifier": "Q121336977"}], "date_modified": "2025-05-22T23:00:30.247199+10:00"}]}