{"count": 28687, "next": "https://api.acmi.net.au/creators/?page=1540", "previous": "https://api.acmi.net.au/creators/?page=1538", "results": [{"id": 32693, "name": "CB Instructional Ltd", "roles_in_work": [{"id": 2467543, "title": "The Meadow ant", "work_id": 91122, "role": "production company", "role_id": 941, "is_primary": true}], "also_known_as": "", "date_of_birth": "", "date_of_death": "", "genders": [], "languages": [], "places_of_operation": [], "biography": "", "biography_author": null, "date_of_biography": "2023-08-14T11:22:22.544090+10:00", "external_links": [], "uuid": "00cf1f14-0625-4823-a881-3d0144638a41", "source": {"name": "Vernon", "slug": "vernon"}, "source_identifier": "6363", "external_references": [], "date_modified": "2023-08-14T11:22:22.544352+10:00"}, {"id": 32691, "name": "Better Hearing Institute", "roles_in_work": [{"id": 2415166, "title": "Listen up with Norm Crosby", "work_id": 91111, "role": "production company", "role_id": 941, "is_primary": true}], "also_known_as": "", "date_of_birth": "", "date_of_death": "", "genders": [], "languages": [], "places_of_operation": [], "biography": "", "biography_author": null, "date_of_biography": "2023-08-11T19:32:05.963313+10:00", "external_links": [], "uuid": "a39104c0-7bd1-4794-b9e4-181399d44da0", "source": {"name": "Vernon", "slug": "vernon"}, "source_identifier": "5826", "external_references": [], "date_modified": "2023-08-11T19:32:05.963542+10:00"}, {"id": 32690, "name": "Bureau of Aernautics, United States", "roles_in_work": [{"id": 2396577, "title": "[Life cycle of endamoeba histolytica]", "work_id": 91110, "role": "production company", "role_id": 941, "is_primary": true}], "also_known_as": "", "date_of_birth": "", "date_of_death": "", "genders": [], "languages": [], "places_of_operation": [], "biography": "", "biography_author": null, "date_of_biography": "2023-08-11T12:38:45.349113+10:00", "external_links": [], "uuid": "4248b6b5-da8b-4852-bead-a99289fab9f9", "source": {"name": "Vernon", "slug": "vernon"}, "source_identifier": "6126", "external_references": [], "date_modified": "2023-08-11T12:38:45.349410+10:00"}, {"id": 32685, "name": "C W S Film Unit", "roles_in_work": [{"id": 2402901, "title": "Boiler house practice", "work_id": 91104, "role": "production company", "role_id": 941, "is_primary": true}], "also_known_as": "", "date_of_birth": "", "date_of_death": "", "genders": [], "languages": [], "places_of_operation": [], "biography": "", "biography_author": null, "date_of_biography": "2023-08-11T15:01:31.832074+10:00", "external_links": [], "uuid": "4b44a74d-a9c4-421d-9206-106e5dac9f1b", "source": {"name": "Vernon", "slug": "vernon"}, "source_identifier": "6171", "external_references": [], "date_modified": "2023-08-11T15:01:31.832329+10:00"}, {"id": 32682, "name": "Geoff Noyce", "roles_in_work": [{"id": 2397893, "title": "A Malecite fancy basket: national Indian arts and crafts", "work_id": 91101, "role": "director", "role_id": 938, "is_primary": true}], "also_known_as": "", "date_of_birth": "", "date_of_death": "", "genders": [], "languages": [], "places_of_operation": [], "biography": "", "biography_author": null, "date_of_biography": "2023-08-11T13:07:50.389354+10:00", "external_links": [], "uuid": "d4ed50b0-58b6-4291-a4f5-aa80ff9745e7", "source": {"name": "Vernon", "slug": "vernon"}, "source_identifier": "19506", "external_references": [], "date_modified": "2023-08-11T13:07:50.389676+10:00"}, {"id": 32681, "name": "B T Film Sound", "roles_in_work": [{"id": 2397892, "title": "A Malecite fancy basket: national Indian arts and crafts", "work_id": 91101, "role": "production company", "role_id": 941, "is_primary": true}], "also_known_as": "", "date_of_birth": "", "date_of_death": "", "genders": [], "languages": [], "places_of_operation": [], "biography": "", "biography_author": null, "date_of_biography": "2023-08-11T13:07:49.749315+10:00", "external_links": [], "uuid": "e95e7b12-a81d-4204-ace5-05cd84b4d94d", "source": {"name": "Vernon", "slug": "vernon"}, "source_identifier": "5669", "external_references": [], "date_modified": "2023-08-11T13:07:49.749604+10:00"}, {"id": 32677, "name": "Tiger Aspect Pictures", "roles_in_work": [{"id": 2115135, "title": "Billy Elliot [DVD]", "work_id": 91095, "role": "production company", "role_id": 941, "is_primary": true}], "also_known_as": "", "date_of_birth": "", "date_of_death": "", "genders": [], "languages": [], "places_of_operation": [], "biography": "", "biography_author": null, "date_of_biography": "2023-05-09T12:53:09.378921+10:00", "external_links": [], "uuid": "a1fa82e5-d9dc-4416-bb74-c7f5f8d33f4b", "source": {"name": "Vernon", "slug": "vernon"}, "source_identifier": "13515", "external_references": [{"id": 39955, "source": {"name": "Wikidata", "slug": "wikidata"}, "source_identifier": "Q121126254"}], "date_modified": "2023-09-06T01:49:45.339043+10:00"}, {"id": 32674, "name": "International Educational Media", "roles_in_work": [{"id": 2465861, "title": "Short order cookery", "work_id": 91084, "role": "production company", "role_id": 941, "is_primary": true}], "also_known_as": "", "date_of_birth": "", "date_of_death": "", "genders": [], "languages": [], "places_of_operation": [], "biography": "", "biography_author": null, "date_of_biography": "2023-08-14T10:43:52.708570+10:00", "external_links": [], "uuid": "7cc1bdde-fb8d-4d80-9aa3-6998b49ff0e2", "source": {"name": "Vernon", "slug": "vernon"}, "source_identifier": "9378", "external_references": [], "date_modified": "2023-08-14T10:43:52.708975+10:00"}, {"id": 32673, "name": "Paul H Seilzinger", "roles_in_work": [{"id": 2401740, "title": "Baby care: feeding", "work_id": 91080, "role": "director", "role_id": 938, "is_primary": true}], "also_known_as": "", "date_of_birth": "", "date_of_death": "", "genders": [], "languages": [], "places_of_operation": [], "biography": "", "biography_author": null, "date_of_biography": "2023-08-11T14:31:19.724450+10:00", "external_links": [], "uuid": "18ea1224-a16b-4f5d-b47b-95b7f3d4c699", "source": {"name": "Vernon", "slug": "vernon"}, "source_identifier": "26236", "external_references": [], "date_modified": "2023-08-11T14:31:19.724768+10:00"}, {"id": 32672, "name": "Irving C. Boerlin", "roles_in_work": [{"id": 2401739, "title": "Baby care: feeding", "work_id": 91080, "role": "producer", "role_id": 1089, "is_primary": true}], "also_known_as": "", "date_of_birth": "", "date_of_death": "", "genders": [], "languages": [], "places_of_operation": [], "biography": "", "biography_author": null, "date_of_biography": "2023-08-11T14:31:19.079132+10:00", "external_links": [], "uuid": "feac41c4-824b-43b4-83f5-763a88b9af9f", "source": {"name": "Vernon", "slug": "vernon"}, "source_identifier": "20873", "external_references": [], "date_modified": "2023-08-11T14:31:19.079359+10:00"}]}