{"count": 28683, "next": "https://api.acmi.net.au/creators/?page=993", "previous": "https://api.acmi.net.au/creators/?page=991", "results": [{"id": 75658, "name": "GW Australia Video Marketing", "roles_in_work": [{"id": 2771171, "title": "The Best Remaining Seats", "work_id": 80201, "role": "distributor", "role_id": 437, "is_primary": false}, {"id": 2771177, "title": "Going It Alone", "work_id": 80202, "role": "distributor", "role_id": 437, "is_primary": false}, {"id": 2296659, "title": "Shadow sister", "work_id": 75848, "role": "distributor", "role_id": 437, "is_primary": false}, {"id": 2083602, "title": "Ageing", "work_id": 79237, "role": "distributor", "role_id": 437, "is_primary": false}, {"id": 2097866, "title": "Antiques for Everyone", "work_id": 79769, "role": "distributor", "role_id": 437, "is_primary": false}, {"id": 2181569, "title": "Out of the fiery furnace. Parts 4 and 5", "work_id": 78891, "role": "distributor", "role_id": 437, "is_primary": false}, {"id": 2113131, "title": "Better Wine Enjoyment", "work_id": 79249, "role": "distributor", "role_id": 437, "is_primary": false}, {"id": 2181537, "title": "Out of the fiery furnace. Parts 1-3", "work_id": 78893, "role": "distributor", "role_id": 437, "is_primary": false}, {"id": 772670, "title": "Margaret Mead and Samoa", "work_id": 80644, "role": "distributor", "role_id": 437, "is_primary": false}, {"id": 2181792, "title": "Death and destiny: a Journey into Ancient Egypt", "work_id": 78649, "role": "distributor", "role_id": 437, "is_primary": false}, {"id": 2788845, "title": "Out of the fiery furnace", "work_id": 115370, "role": "distributor", "role_id": 437, "is_primary": false}, {"id": 2771115, "title": "Other People's Money", "work_id": 80162, "role": "distributor", "role_id": 437, "is_primary": false}, {"id": 2771129, "title": "Poor Man's Cinema", "work_id": 80163, "role": "distributor", "role_id": 437, "is_primary": false}, {"id": 2771137, "title": "Bette Davis' eyes", "work_id": 80164, "role": "distributor", "role_id": 437, "is_primary": false}, {"id": 2771146, "title": "Funny Business", "work_id": 80165, "role": "distributor", "role_id": 437, "is_primary": false}, {"id": 2771148, "title": "The Blink of an eye", "work_id": 80166, "role": "distributor", "role_id": 437, "is_primary": false}, {"id": 2771159, "title": "You Can't Say That", "work_id": 80167, "role": "distributor", "role_id": 437, "is_primary": false}, {"id": 2771165, "title": "Switzerland/Texas", "work_id": 80200, "role": "distributor", "role_id": 437, "is_primary": false}], "also_known_as": "", "date_of_birth": "", "date_of_death": "", "genders": [], "languages": [], "places_of_operation": [], "biography": "", "biography_author": null, "date_of_biography": "2023-05-09T19:28:43.624535+10:00", "external_links": [], "uuid": "2d563436-e295-4b70-a365-40eceed6ee05", "source": {"name": "Vernon", "slug": "vernon"}, "source_identifier": "30724", "external_references": [], "date_modified": "2025-03-14T19:46:43.225361+11:00"}, {"id": 75657, "name": "Ray Harris", "roles_in_work": [{"id": 2767224, "title": "On Paper", "work_id": 75823, "role": "co-producer", "role_id": 915, "is_primary": true}, {"id": 2767182, "title": "Survey 12: on paper", "work_id": 92253, "role": "producer/director", "role_id": 31, "is_primary": true}], "also_known_as": "", "date_of_birth": "", "date_of_death": "", "genders": [], "languages": [], "places_of_operation": [], "biography": "", "biography_author": null, "date_of_biography": "2023-05-09T19:09:47.773885+10:00", "external_links": [], "uuid": "2f40d158-ab14-4e1c-8a99-b582b988e1c0", "source": {"name": "Vernon", "slug": "vernon"}, "source_identifier": "27156", "external_references": [{"id": 37036, "source": {"name": "Wikidata", "slug": "wikidata"}, "source_identifier": "Q121337219"}], "date_modified": "2025-03-14T18:02:57.175668+11:00"}, {"id": 75656, "name": "Michael Bongiovanni", "roles_in_work": [{"id": 2767223, "title": "On Paper", "work_id": 75823, "role": "co-producer", "role_id": 915, "is_primary": true}, {"id": 2767227, "title": "Imants Tillers", "work_id": 92047, "role": "co-producer", "role_id": 915, "is_primary": true}, {"id": 2767181, "title": "Survey 12: on paper", "work_id": 92253, "role": "producer/director", "role_id": 31, "is_primary": true}], "also_known_as": "", "date_of_birth": "", "date_of_death": "", "genders": [], "languages": [], "places_of_operation": [], "biography": "", "biography_author": null, "date_of_biography": "2023-05-09T19:10:01.102555+10:00", "external_links": [], "uuid": "b045c04b-bfac-4bc5-9dae-1d16ff4b9fd9", "source": {"name": "Vernon", "slug": "vernon"}, "source_identifier": "24987", "external_references": [{"id": 39251, "source": {"name": "Wikidata", "slug": "wikidata"}, "source_identifier": "Q121223300"}], "date_modified": "2025-03-14T18:02:59.379131+11:00"}, {"id": 75655, "name": "Ken Otton", "roles_in_work": [{"id": 2767216, "title": "Robert Boynes", "work_id": 75821, "role": "co-producer", "role_id": 915, "is_primary": true}, {"id": 2767187, "title": "Martin Sharp", "work_id": 92384, "role": "co-producer", "role_id": 915, "is_primary": true}], "also_known_as": "", "date_of_birth": "", "date_of_death": "", "genders": [], "languages": [], "places_of_operation": [], "biography": "", "biography_author": null, "date_of_biography": "2023-05-09T19:09:52.264755+10:00", "external_links": [], "uuid": "bb0a729e-314e-4bcd-ba73-360818188f9d", "source": {"name": "Vernon", "slug": "vernon"}, "source_identifier": "23209", "external_references": [{"id": 36189, "source": {"name": "Wikidata", "slug": "wikidata"}, "source_identifier": "Q121036298"}], "date_modified": "2025-03-14T18:02:52.003421+11:00"}, {"id": 75654, "name": "Lloyd Carrick", "roles_in_work": [{"id": 2767214, "title": "Robert Boynes", "work_id": 75821, "role": "co-producer", "role_id": 915, "is_primary": true}, {"id": 2393067, "title": "Woman in a house", "work_id": 120100, "role": "sound", "role_id": 952, "is_primary": false}, {"id": 2215537, "title": "Time changes", "work_id": 120099, "role": "sound", "role_id": 952, "is_primary": false}], "also_known_as": "", "date_of_birth": "", "date_of_death": "", "genders": [], "languages": [], "places_of_operation": [], "biography": "", "biography_author": null, "date_of_biography": "2023-08-09T04:24:16.580623+10:00", "external_links": [], "uuid": "64f2d098-9b7d-406a-b7d9-4ac4a7fec2d8", "source": {"name": "Vernon", "slug": "vernon"}, "source_identifier": "23963", "external_references": [{"id": 33534, "source": {"name": "Wikidata", "slug": "wikidata"}, "source_identifier": "Q121036741"}], "date_modified": "2025-03-14T18:02:50.792590+11:00"}, {"id": 75653, "name": "Alan Cole", "roles_in_work": [{"id": 2767213, "title": "Robert Boynes", "work_id": 75821, "role": "co-producer", "role_id": 915, "is_primary": true}], "also_known_as": "", "date_of_birth": "", "date_of_death": "", "genders": [], "languages": [], "places_of_operation": [], "biography": "", "biography_author": null, "date_of_biography": "2023-05-09T19:09:48.270821+10:00", "external_links": [], "uuid": "659cae20-049d-4808-841f-c343b274df38", "source": {"name": "Vernon", "slug": "vernon"}, "source_identifier": "14743", "external_references": [{"id": 41094, "source": {"name": "Wikidata", "slug": "wikidata"}, "source_identifier": "Q121299405"}], "date_modified": "2025-03-14T18:02:50.213900+11:00"}, {"id": 75652, "name": "Selig Alkon", "roles_in_work": [{"id": 2647449, "title": "Tame the wind", "work_id": 76379, "role": "producer/director", "role_id": 31, "is_primary": true}, {"id": 2266055, "title": "Weather does its thing", "work_id": 75818, "role": "producer/director", "role_id": 31, "is_primary": true}], "also_known_as": "", "date_of_birth": "", "date_of_death": "", "genders": [], "languages": [], "places_of_operation": [], "biography": "", "biography_author": null, "date_of_biography": "2023-05-09T19:13:17.459067+10:00", "external_links": [], "uuid": "7d91edf5-9875-42b6-aa40-e5975d223a35", "source": {"name": "Vernon", "slug": "vernon"}, "source_identifier": "28674", "external_references": [{"id": 51415, "source": {"name": "Wikidata", "slug": "wikidata"}, "source_identifier": "Q121360702"}], "date_modified": "2025-03-05T13:26:08.268963+11:00"}, {"id": 75651, "name": "Max von Sydow", "roles_in_work": [{"id": 2238422, "title": "Father", "work_id": 83377, "role": "cast", "role_id": 33, "is_primary": false}, {"id": 861811, "title": "Interlude in the marshland = Uppehall i myrlandet", "work_id": 75801, "role": "cast", "role_id": 33, "is_primary": false}], "also_known_as": "", "date_of_birth": "1929", "date_of_death": "", "genders": [], "languages": [], "places_of_operation": [], "biography": "", "biography_author": null, "date_of_biography": "2023-05-09T16:49:31.796327+10:00", "external_links": [], "uuid": "4e68c0f1-1571-442f-8cf6-9e9ba0fc6956", "source": {"name": "Vernon", "slug": "vernon"}, "source_identifier": "35967", "external_references": [], "date_modified": "2023-06-14T16:33:30.576250+10:00"}, {"id": 75650, "name": "Grant Kennedy", "roles_in_work": [{"id": 2066753, "title": "A Crowded wilderness", "work_id": 75796, "role": "director", "role_id": 938, "is_primary": true}], "also_known_as": "", "date_of_birth": "", "date_of_death": "", "genders": [], "languages": [], "places_of_operation": [], "biography": "", "biography_author": null, "date_of_biography": "2023-05-09T11:24:24.221349+10:00", "external_links": [], "uuid": "72a76867-49e9-4224-b3ba-66bda1d7d9d9", "source": {"name": "Vernon", "slug": "vernon"}, "source_identifier": "20029", "external_references": [{"id": 37652, "source": {"name": "Wikidata", "slug": "wikidata"}, "source_identifier": "Q121314967"}], "date_modified": "2023-09-05T20:19:54.842451+10:00"}, {"id": 75649, "name": "Randy Cartwright", "roles_in_work": [{"id": 2253913, "title": "Room and board", "work_id": 75776, "role": "director", "role_id": 938, "is_primary": true}], "also_known_as": "", "date_of_birth": "1951-10-31", "date_of_death": "", "genders": [{"id": 9, "name": "Male", "slug": "male"}], "languages": [], "places_of_operation": [{"id": 1, "name": "United States of America", "slug": "united-states-of-america"}], "biography": "Randy Cartwright (born October 31, 1951 in Virginia) is an American animator.", "biography_author": "Wikidata", "date_of_biography": "2023-08-01T16:41:35.999163+10:00", "external_links": [{"id": 4947, "uri": "https://en.wikipedia.org/wiki/Randy_Cartwright"}], "uuid": "53d1872b-25cd-439d-bf22-88e28598d2c3", "source": {"name": "Vernon", "slug": "vernon"}, "source_identifier": "27116", "external_references": [{"id": 27046, "source": {"name": "Wikidata", "slug": "wikidata"}, "source_identifier": "Q7292123"}], "date_modified": "2023-09-06T00:20:51.740573+10:00"}]}