{"count": 28687, "next": "https://api.acmi.net.au/creators/?page=750", "previous": "https://api.acmi.net.au/creators/?page=748", "results": [{"id": 78093, "name": "Valerie Morton", "roles_in_work": [{"id": 2615962, "title": "Tripwire", "work_id": 86478, "role": "director", "role_id": 938, "is_primary": true}, {"id": 905077, "title": "Living with the gun", "work_id": 85834, "role": "co-producers/directors", "role_id": 628, "is_primary": true}], "also_known_as": "", "date_of_birth": null, "date_of_death": null, "genders": [], "languages": [], "places_of_operation": [], "biography": "", "biography_author": null, "date_of_biography": null, "external_links": [], "uuid": "0b6dd20f-a6c3-4d19-a154-55b59c41c87a", "source": {"name": "Vernon", "slug": "vernon"}, "source_identifier": "30050", "external_references": [{"id": 38416, "source": {"name": "Wikidata", "slug": "wikidata"}, "source_identifier": "Q121144090"}], "date_modified": "2025-02-26T20:32:10.186386+11:00"}, {"id": 78092, "name": "David Hirst", "roles_in_work": [{"id": 905076, "title": "Living with the gun", "work_id": 85834, "role": "co-producers/directors", "role_id": 628, "is_primary": true}, {"id": 2615961, "title": "Tripwire", "work_id": 86478, "role": "producer", "role_id": 1089, "is_primary": true}], "also_known_as": "", "date_of_birth": null, "date_of_death": null, "genders": [], "languages": [], "places_of_operation": [], "biography": "", "biography_author": null, "date_of_biography": null, "external_links": [], "uuid": "b3e709c9-cae1-420e-8a13-ab3d852e9115", "source": {"name": "Vernon", "slug": "vernon"}, "source_identifier": "17640", "external_references": [{"id": 38901, "source": {"name": "Wikidata", "slug": "wikidata"}, "source_identifier": "Q121315275"}], "date_modified": "2025-02-26T20:32:09.559533+11:00"}, {"id": 78091, "name": "Tomasz Malinowski", "roles_in_work": [{"id": 2615641, "title": "Big lies of the 20th Century", "work_id": 85832, "role": "co-director", "role_id": 959, "is_primary": true}], "also_known_as": "", "date_of_birth": "", "date_of_death": "", "genders": [], "languages": [], "places_of_operation": [], "biography": "", "biography_author": null, "date_of_biography": "2023-05-09T12:52:55.970590+10:00", "external_links": [], "uuid": "75a4923c-c210-4434-a83c-bcf63f508d4b", "source": {"name": "Vernon", "slug": "vernon"}, "source_identifier": "29844", "external_references": [{"id": 40726, "source": {"name": "Wikidata", "slug": "wikidata"}, "source_identifier": "Q121079126"}], "date_modified": "2025-02-26T20:26:19.500723+11:00"}, {"id": 78090, "name": "Rowena Golman", "roles_in_work": [{"id": 2264465, "title": "Scientific cook: stale tales", "work_id": 85831, "role": "producer/director", "role_id": 31, "is_primary": true}], "also_known_as": "", "date_of_birth": "", "date_of_death": "", "genders": [], "languages": [], "places_of_operation": [], "biography": "", "biography_author": null, "date_of_biography": "2023-05-09T17:33:40.101024+10:00", "external_links": [], "uuid": "0528ee24-9a6f-42db-bf57-1c3e38c7b72e", "source": {"name": "Vernon", "slug": "vernon"}, "source_identifier": "28291", "external_references": [{"id": 52158, "source": {"name": "Wikidata", "slug": "wikidata"}, "source_identifier": "Q121360977"}], "date_modified": "2023-09-06T00:57:06.792344+10:00"}, {"id": 78089, "name": "Alexsandar Marks", "roles_in_work": [{"id": 2336053, "title": "The Carp = Saran", "work_id": 85810, "role": "co-director", "role_id": 959, "is_primary": true}], "also_known_as": "", "date_of_birth": "", "date_of_death": "", "genders": [], "languages": [], "places_of_operation": [], "biography": "", "biography_author": null, "date_of_biography": "2023-05-09T19:32:03.891008+10:00", "external_links": [], "uuid": "25e84c52-6971-44fb-b653-31ddacc903fe", "source": {"name": "Vernon", "slug": "vernon"}, "source_identifier": "14943", "external_references": [{"id": 38827, "source": {"name": "Wikidata", "slug": "wikidata"}, "source_identifier": "Q121270861"}], "date_modified": "2023-09-05T17:27:39.605230+10:00"}, {"id": 78088, "name": "Norman Ellis", "roles_in_work": [{"id": 2101762, "title": "Artistry in clay", "work_id": 85806, "role": "narrator", "role_id": 499, "is_primary": false}], "also_known_as": "", "date_of_birth": "", "date_of_death": "", "genders": [], "languages": [], "places_of_operation": [], "biography": "", "biography_author": null, "date_of_biography": "2023-05-09T12:32:08.944059+10:00", "external_links": [], "uuid": "d83769a6-3754-4310-8369-8e4f0a71ee11", "source": {"name": "Vernon", "slug": "vernon"}, "source_identifier": "33174", "external_references": [], "date_modified": "2023-06-14T16:33:30.576250+10:00"}, {"id": 78087, "name": "Westinghouse Broadcasting Company for Intertel", "roles_in_work": [{"id": 2104488, "title": "Australia: room down under", "work_id": 85794, "role": "production company", "role_id": 941, "is_primary": true}], "also_known_as": "", "date_of_birth": "", "date_of_death": "", "genders": [], "languages": [], "places_of_operation": [], "biography": "", "biography_author": null, "date_of_biography": "2023-05-09T12:36:31.074404+10:00", "external_links": [], "uuid": "2aec42ae-d482-472a-94d0-24812233eb33", "source": {"name": "Vernon", "slug": "vernon"}, "source_identifier": "14322", "external_references": [{"id": 32998, "source": {"name": "Wikidata", "slug": "wikidata"}, "source_identifier": "Q121091392"}], "date_modified": "2023-09-06T02:13:06.777583+10:00"}, {"id": 78086, "name": "Greg Martinelli", "roles_in_work": [{"id": 2793655, "title": "Classical Hollywood style today", "work_id": 85793, "role": "director", "role_id": 938, "is_primary": true}, {"id": 2793662, "title": "American cinema", "work_id": 115477, "role": "co-producer", "role_id": 915, "is_primary": true}], "also_known_as": "", "date_of_birth": "", "date_of_death": "", "genders": [], "languages": [], "places_of_operation": [], "biography": "", "biography_author": null, "date_of_biography": "2023-05-09T19:52:33.978968+10:00", "external_links": [], "uuid": "1803ff2e-a9bb-404c-b1ad-8c33868d814d", "source": {"name": "Vernon", "slug": "vernon"}, "source_identifier": "20057", "external_references": [{"id": 40747, "source": {"name": "Wikidata", "slug": "wikidata"}, "source_identifier": "Q121144222"}], "date_modified": "2025-03-14T20:19:47.829321+11:00"}, {"id": 78085, "name": "Lorna Thomas", "roles_in_work": [{"id": 2793654, "title": "Classical Hollywood style today", "work_id": 85793, "role": "producer", "role_id": 1089, "is_primary": true}], "also_known_as": "", "date_of_birth": "", "date_of_death": "", "genders": [], "languages": [], "places_of_operation": [], "biography": "", "biography_author": null, "date_of_biography": "2023-05-09T19:52:33.751330+10:00", "external_links": [], "uuid": "e589ffc8-4ff5-48c4-92fa-257f5183a1db", "source": {"name": "Vernon", "slug": "vernon"}, "source_identifier": "23996", "external_references": [{"id": 51775, "source": {"name": "Wikidata", "slug": "wikidata"}, "source_identifier": "Q121357920"}], "date_modified": "2025-03-14T20:19:43.500581+11:00"}, {"id": 78084, "name": "Richard Smigielski", "roles_in_work": [{"id": 2793649, "title": "Thinking and writing about film", "work_id": 85792, "role": "director", "role_id": 938, "is_primary": true}], "also_known_as": "", "date_of_birth": "", "date_of_death": "", "genders": [], "languages": [], "places_of_operation": [], "biography": "", "biography_author": null, "date_of_biography": "2023-05-09T19:52:40.135077+10:00", "external_links": [], "uuid": "7e8d72bc-790a-4e09-b7e4-5c59264cbbda", "source": {"name": "Vernon", "slug": "vernon"}, "source_identifier": "27513", "external_references": [{"id": 36828, "source": {"name": "Wikidata", "slug": "wikidata"}, "source_identifier": "Q121035375"}], "date_modified": "2025-03-14T20:19:40.881423+11:00"}]}