{"count": 28684, "next": "https://api.acmi.net.au/creators/?page=1784", "previous": "https://api.acmi.net.au/creators/?page=1782", "results": [{"id": 26737, "name": "Lee Dong-Ming", "roles_in_work": [{"id": 2467538, "title": "The Many faces of Taiwan", "work_id": 84850, "role": "director", "role_id": 938, "is_primary": true}], "also_known_as": "", "date_of_birth": "", "date_of_death": "", "genders": [], "languages": [], "places_of_operation": [], "biography": "", "biography_author": null, "date_of_biography": "2023-08-14T11:22:11.832736+10:00", "external_links": [], "uuid": "00ac7396-0b2f-477c-928e-fb2baedd7263", "source": {"name": "Vernon", "slug": "vernon"}, "source_identifier": "23619", "external_references": [], "date_modified": "2023-08-14T11:22:11.832998+10:00"}, {"id": 26736, "name": "Yeng Chung-Fan", "roles_in_work": [{"id": 2467537, "title": "The Many faces of Taiwan", "work_id": 84850, "role": "producer", "role_id": 1089, "is_primary": true}], "also_known_as": "", "date_of_birth": "", "date_of_death": "", "genders": [], "languages": [], "places_of_operation": [], "biography": "", "biography_author": null, "date_of_biography": "2023-08-14T11:22:11.195319+10:00", "external_links": [], "uuid": "75b4ecea-b876-47f5-b273-f3f62518543f", "source": {"name": "Vernon", "slug": "vernon"}, "source_identifier": "30584", "external_references": [], "date_modified": "2023-08-14T11:22:11.195590+10:00"}, {"id": 26735, "name": "Keta Communications", "roles_in_work": [{"id": 868663, "title": "Acupuncture", "work_id": 84851, "role": "production company", "role_id": 941, "is_primary": true}, {"id": 2467536, "title": "The Many faces of Taiwan", "work_id": 84850, "role": "production company", "role_id": 941, "is_primary": true}], "also_known_as": "", "date_of_birth": "", "date_of_death": "", "genders": [], "languages": [], "places_of_operation": [], "biography": "", "biography_author": null, "date_of_biography": "2023-08-14T11:22:10.548576+10:00", "external_links": [], "uuid": "83767977-570a-47e0-89d9-49ee3d048d91", "source": {"name": "Vernon", "slug": "vernon"}, "source_identifier": "9739", "external_references": [], "date_modified": "2023-08-14T11:22:10.548813+10:00"}, {"id": 26734, "name": "F-Reel Pty Ltd", "roles_in_work": [{"id": 3110281, "title": "Stories and songs of the people: the second stage", "work_id": 116514, "role": "production company", "role_id": 941, "is_primary": true}, {"id": 1427880, "title": "Beating the drum", "work_id": 88040, "role": "production company", "role_id": 941, "is_primary": true}, {"id": 2615100, "title": "Speaking up", "work_id": 84849, "role": "production company", "role_id": 941, "is_primary": true}], "also_known_as": "", "date_of_birth": "", "date_of_death": "", "genders": [], "languages": [], "places_of_operation": [], "biography": "", "biography_author": null, "date_of_biography": "2023-05-09T18:57:28.637267+10:00", "external_links": [], "uuid": "5dbabb0c-3b0f-4352-846a-a0eb125ba38b", "source": {"name": "Vernon", "slug": "vernon"}, "source_identifier": "8546", "external_references": [{"id": 41464, "source": {"name": "Wikidata", "slug": "wikidata"}, "source_identifier": "Q121315042"}], "date_modified": "2025-12-17T14:35:22.056305+11:00"}, {"id": 26733, "name": "Larry Franco", "roles_in_work": [{"id": 2150975, "title": "Mars attacks!", "work_id": 87798, "role": "co-producer", "role_id": 915, "is_primary": true}, {"id": 2150996, "title": "Mars attacks! [Widescreen]", "work_id": 88514, "role": "co-producer", "role_id": 915, "is_primary": true}, {"id": 1995809, "title": "Escape from New York", "work_id": 92333, "role": "co-producer", "role_id": 915, "is_primary": true}, {"id": 2296162, "title": "They live", "work_id": 84848, "role": "producer", "role_id": 1089, "is_primary": true}, {"id": 1994786, "title": "October sky", "work_id": 90544, "role": "producer", "role_id": 1089, "is_primary": true}, {"id": 2309749, "title": "Starman", "work_id": 86881, "role": "producer", "role_id": 1089, "is_primary": true}], "also_known_as": "", "date_of_birth": "1949-04-05", "date_of_death": null, "genders": [{"id": 9, "name": "Male", "slug": "male"}], "languages": [{"id": 1, "name": "English", "slug": "english"}], "places_of_operation": [{"id": 1, "name": "United States of America", "slug": "united-states-of-america"}], "biography": "Larry Joseph Franco (born April 5, 1949) is an American film producer. He has also served as an actor, second unit director and assistant director. He is the father of former Atlanta Braves baseball player Matt Franco and Phronsie Franco. He is the ex-brother-in-law of actor Kurt Russell and the ex-son-in-law of actor Bing Russell. Franco attended UCLA film school.", "biography_author": "Wikidata", "date_of_biography": "2022-05-19T12:12:45.590800+10:00", "external_links": [{"id": 2543, "uri": "https://en.wikipedia.org/wiki/Larry_Franco"}], "uuid": "c6a4c08b-52d8-4c28-afaf-3e7bdc96125c", "source": {"name": "Vernon", "slug": "vernon"}, "source_identifier": "23479", "external_references": [{"id": 10872, "source": {"name": "Wikidata", "slug": "wikidata"}, "source_identifier": "Q521038"}, {"id": 10873, "source": {"name": "VIAF", "slug": "viaf"}, "source_identifier": "87076943"}, {"id": 10874, "source": {"name": "LOC Auth", "slug": "loc-auth"}, "source_identifier": "no99044064"}, {"id": 10875, "source": {"name": "WorldCat", "slug": "worldcat"}, "source_identifier": "lccn-no99044064"}], "date_modified": "2023-09-13T12:30:53.829831+10:00"}, {"id": 26732, "name": "Alive Films", "roles_in_work": [{"id": 2296157, "title": "They live", "work_id": 84848, "role": "production company", "role_id": 941, "is_primary": true}], "also_known_as": "", "date_of_birth": "", "date_of_death": "", "genders": [], "languages": [], "places_of_operation": [], "biography": "", "biography_author": null, "date_of_biography": "2023-05-09T18:27:56.457889+10:00", "external_links": [], "uuid": "0bd2015b-7ceb-45b5-a13f-994b1ca309ed", "source": {"name": "Vernon", "slug": "vernon"}, "source_identifier": "5122", "external_references": [{"id": 41482, "source": {"name": "Wikidata", "slug": "wikidata"}, "source_identifier": "Q121222808"}], "date_modified": "2023-09-05T17:29:00.655748+10:00"}, {"id": 26731, "name": "Milton van der Veen", "roles_in_work": [{"id": 2321151, "title": "Take a look", "work_id": 84846, "role": "co-producer", "role_id": 915, "is_primary": true}, {"id": 2321155, "title": "Take a look", "work_id": 84846, "role": "director", "role_id": 938, "is_primary": true}, {"id": 787304, "title": "Take a look 2", "work_id": 84847, "role": "producer/director", "role_id": 31, "is_primary": true}], "also_known_as": "", "date_of_birth": "", "date_of_death": "", "genders": [], "languages": [], "places_of_operation": [], "biography": "", "biography_author": null, "date_of_biography": "2023-05-09T19:12:15.420269+10:00", "external_links": [], "uuid": "66de2c2d-2265-46b8-8e7e-335029eafd9a", "source": {"name": "Vernon", "slug": "vernon"}, "source_identifier": "25442", "external_references": [{"id": 34059, "source": {"name": "Wikidata", "slug": "wikidata"}, "source_identifier": "Q121035882"}], "date_modified": "2023-09-05T23:16:37.905356+10:00"}, {"id": 26729, "name": "Sue Crowther", "roles_in_work": [{"id": 2791592, "title": "The Weapon of choice", "work_id": 84843, "role": "producer", "role_id": 1089, "is_primary": true}], "also_known_as": "", "date_of_birth": "", "date_of_death": "", "genders": [], "languages": [], "places_of_operation": [], "biography": "", "biography_author": null, "date_of_biography": "2023-05-09T14:50:23.198850+10:00", "external_links": [], "uuid": "3d0012cd-1511-4c14-93ba-0d036f8d999f", "source": {"name": "Vernon", "slug": "vernon"}, "source_identifier": "29283", "external_references": [{"id": 39866, "source": {"name": "Wikidata", "slug": "wikidata"}, "source_identifier": "Q121315021"}], "date_modified": "2025-03-14T20:03:39.363120+11:00"}, {"id": 26726, "name": "Charlie Hemming", "roles_in_work": [{"id": 2466655, "title": "The Big green disc", "work_id": 84840, "role": "director", "role_id": 938, "is_primary": true}], "also_known_as": "", "date_of_birth": "", "date_of_death": "", "genders": [], "languages": [], "places_of_operation": [], "biography": "", "biography_author": null, "date_of_biography": "2023-08-14T11:02:26.473367+10:00", "external_links": [], "uuid": "7bb47af3-6507-48f8-8fdf-ea67b943474e", "source": {"name": "Vernon", "slug": "vernon"}, "source_identifier": "16747", "external_references": [], "date_modified": "2023-08-14T11:02:26.473675+10:00"}, {"id": 26725, "name": "Phillip Nash", "roles_in_work": [{"id": 2466654, "title": "The Big green disc", "work_id": 84840, "role": "producer", "role_id": 1089, "is_primary": true}], "also_known_as": "", "date_of_birth": "", "date_of_death": "", "genders": [], "languages": [], "places_of_operation": [], "biography": "", "biography_author": null, "date_of_biography": "2023-08-14T11:02:25.825412+10:00", "external_links": [], "uuid": "37490609-06f2-454a-bed9-75101334a5a0", "source": {"name": "Vernon", "slug": "vernon"}, "source_identifier": "26885", "external_references": [], "date_modified": "2023-08-14T11:02:25.825668+10:00"}]}