{"count": 28687, "next": "https://api.acmi.net.au/creators/?page=1018", "previous": "https://api.acmi.net.au/creators/?page=1016", "results": [{"id": 75412, "name": "Joe Betzer", "roles_in_work": [{"id": 2289735, "title": "Theobald faces the facts", "work_id": 73659, "role": "producer/director", "role_id": 31, "is_primary": true}], "also_known_as": "", "date_of_birth": "", "date_of_death": "", "genders": [], "languages": [], "places_of_operation": [], "biography": "", "biography_author": null, "date_of_biography": "2023-05-09T18:16:39.253466+10:00", "external_links": [], "uuid": "ad5e2d9a-e427-4d5e-9040-3906f66cd946", "source": {"name": "Vernon", "slug": "vernon"}, "source_identifier": "22025", "external_references": [{"id": 50591, "source": {"name": "Wikidata", "slug": "wikidata"}, "source_identifier": "Q121361150"}], "date_modified": "2023-09-05T21:29:36.946604+10:00"}, {"id": 75411, "name": "Farleys", "roles_in_work": [{"id": 2289596, "title": "Their first year", "work_id": 73655, "role": "sponsor", "role_id": 625, "is_primary": false}], "also_known_as": "", "date_of_birth": "", "date_of_death": "", "genders": [], "languages": [], "places_of_operation": [], "biography": "", "biography_author": null, "date_of_biography": "2023-05-09T18:16:24.727903+10:00", "external_links": [], "uuid": "81deef27-2f04-4b14-8374-68502dff0f64", "source": {"name": "Vernon", "slug": "vernon"}, "source_identifier": "8112", "external_references": [], "date_modified": "2023-06-14T16:33:30.576250+10:00"}, {"id": 75410, "name": "Scott Peters", "roles_in_work": [{"id": 2325970, "title": "That they may live", "work_id": 73650, "role": "director", "role_id": 938, "is_primary": true}], "also_known_as": "", "date_of_birth": "", "date_of_death": "", "genders": [], "languages": [], "places_of_operation": [], "biography": "", "biography_author": null, "date_of_biography": "2023-05-09T19:19:07.262636+10:00", "external_links": [], "uuid": "9f9e5833-363b-4fa3-8439-64c09a8d22a6", "source": {"name": "Vernon", "slug": "vernon"}, "source_identifier": "32745", "external_references": [{"id": 39813, "source": {"name": "Wikidata", "slug": "wikidata"}, "source_identifier": "Q121222953"}], "date_modified": "2023-09-06T01:08:53.054580+10:00"}, {"id": 75409, "name": "John S. Gray", "roles_in_work": [{"id": 2646578, "title": "Ten million strong", "work_id": 73611, "role": "producer/director", "role_id": 31, "is_primary": true}], "also_known_as": "", "date_of_birth": "1922", "date_of_death": "", "genders": [], "languages": [], "places_of_operation": [], "biography": "", "biography_author": null, "date_of_biography": "2023-05-09T19:16:45.377258+10:00", "external_links": [], "uuid": "2ffc5239-e5c2-43eb-b656-212ce5df4a19", "source": {"name": "Vernon", "slug": "vernon"}, "source_identifier": "32344", "external_references": [{"id": 52046, "source": {"name": "Wikidata", "slug": "wikidata"}, "source_identifier": "Q121360546"}], "date_modified": "2025-03-05T13:06:48.620092+11:00"}, {"id": 75408, "name": "R.F. Jolly", "roles_in_work": [{"id": 2323296, "title": "Telling a story in pictures", "work_id": 73597, "role": "producer/director", "role_id": 31, "is_primary": true}], "also_known_as": "", "date_of_birth": "", "date_of_death": "", "genders": [], "languages": [], "places_of_operation": [], "biography": "", "biography_author": null, "date_of_biography": "2023-05-09T19:15:29.800155+10:00", "external_links": [], "uuid": "457b972f-fb8a-46bf-9e36-2b63ad60a510", "source": {"name": "Vernon", "slug": "vernon"}, "source_identifier": "32338", "external_references": [{"id": 50839, "source": {"name": "Wikidata", "slug": "wikidata"}, "source_identifier": "Q121360920"}], "date_modified": "2023-09-06T00:17:03.851138+10:00"}, {"id": 75407, "name": "S.G.P. Alexander", "roles_in_work": [{"id": 2323293, "title": "Telling a story in pictures", "work_id": 73597, "role": "producer/director", "role_id": 31, "is_primary": true}], "also_known_as": "", "date_of_birth": "", "date_of_death": "", "genders": [], "languages": [], "places_of_operation": [], "biography": "", "biography_author": null, "date_of_biography": "2023-05-09T19:15:29.568855+10:00", "external_links": [], "uuid": "57b9e7ed-e674-46a7-a1e5-d8a3a3f9eeb0", "source": {"name": "Vernon", "slug": "vernon"}, "source_identifier": "28402", "external_references": [{"id": 52055, "source": {"name": "Wikidata", "slug": "wikidata"}, "source_identifier": "Q121361213"}], "date_modified": "2023-09-06T01:00:41.184057+10:00"}, {"id": 75406, "name": "Dino Rigolo", "roles_in_work": [{"id": 2322931, "title": "Teeth are to keep", "work_id": 73577, "role": "director", "role_id": 938, "is_primary": true}], "also_known_as": "", "date_of_birth": "", "date_of_death": "", "genders": [], "languages": [], "places_of_operation": [], "biography": "", "biography_author": null, "date_of_biography": "2023-05-09T19:14:53.177494+10:00", "external_links": [], "uuid": "ec3e2602-f2e2-42b3-a7a9-49dc7ed2eff2", "source": {"name": "Vernon", "slug": "vernon"}, "source_identifier": "32755", "external_references": [{"id": 39369, "source": {"name": "Wikidata", "slug": "wikidata"}, "source_identifier": "Q121143785"}], "date_modified": "2023-09-05T19:12:47.976425+10:00"}, {"id": 75405, "name": "Bruce Allen", "roles_in_work": [{"id": 755126, "title": "The Team", "work_id": 73561, "role": "director", "role_id": 938, "is_primary": true}], "also_known_as": "", "date_of_birth": null, "date_of_death": null, "genders": [], "languages": [], "places_of_operation": [], "biography": "", "biography_author": null, "date_of_biography": null, "external_links": [], "uuid": "e0df67bc-5d38-45bd-99a7-f370e850e6ca", "source": {"name": "Vernon", "slug": "vernon"}, "source_identifier": null, "external_references": [], "date_modified": "2023-06-14T16:33:30.576250+10:00"}, {"id": 75404, "name": "Lane Wipff", "roles_in_work": [{"id": 2646552, "title": "The Teaching triad (TEFC)", "work_id": 73558, "role": "producer/director", "role_id": 31, "is_primary": true}], "also_known_as": "", "date_of_birth": null, "date_of_death": null, "genders": [], "languages": [], "places_of_operation": [], "biography": "", "biography_author": null, "date_of_biography": null, "external_links": [], "uuid": "2daa86f3-e480-4017-99f5-ad8a5f9d94ba", "source": {"name": "Vernon", "slug": "vernon"}, "source_identifier": "33241", "external_references": [{"id": 50754, "source": {"name": "Wikidata", "slug": "wikidata"}, "source_identifier": "Q121360873"}], "date_modified": "2025-03-05T13:06:28.842861+11:00"}, {"id": 75403, "name": "Susan Rafin", "roles_in_work": [{"id": 2646551, "title": "The Teaching triad (TEFC)", "work_id": 73558, "role": "producer/director", "role_id": 31, "is_primary": true}], "also_known_as": "", "date_of_birth": null, "date_of_death": null, "genders": [], "languages": [], "places_of_operation": [], "biography": "", "biography_author": null, "date_of_biography": null, "external_links": [], "uuid": "27cdfbb6-eb2c-468f-9db0-490d0b930a09", "source": {"name": "Vernon", "slug": "vernon"}, "source_identifier": "33240", "external_references": [{"id": 51815, "source": {"name": "Wikidata", "slug": "wikidata"}, "source_identifier": "Q121361471"}], "date_modified": "2025-03-05T13:06:28.259061+11:00"}]}