{"count": 28682, "next": "https://api.acmi.net.au/creators/?page=314", "previous": "https://api.acmi.net.au/creators/?page=312", "results": [{"id": 82473, "name": "Chang Wenzhi", "roles_in_work": [{"id": 2650875, "title": "Orchids and chrysanthemums = Chun lan qiu ju", "work_id": 115773, "role": "cast", "role_id": 33, "is_primary": false}], "also_known_as": "", "date_of_birth": "", "date_of_death": "", "genders": [], "languages": [], "places_of_operation": [], "biography": "", "biography_author": null, "date_of_biography": "2023-05-09T14:47:57.521447+10:00", "external_links": [], "uuid": "5d5f9d18-fa42-441b-a7bc-171e6aad5842", "source": {"name": "Vernon", "slug": "vernon"}, "source_identifier": "36395", "external_references": [{"id": 43159, "source": {"name": "Wikidata", "slug": "wikidata"}, "source_identifier": "Q121035968"}], "date_modified": "2025-03-05T14:24:22.196836+11:00"}, {"id": 82472, "name": "He Ling", "roles_in_work": [{"id": 2650874, "title": "Orchids and chrysanthemums = Chun lan qiu ju", "work_id": 115773, "role": "cast", "role_id": 33, "is_primary": false}], "also_known_as": "", "date_of_birth": "", "date_of_death": "", "genders": [], "languages": [], "places_of_operation": [], "biography": "", "biography_author": null, "date_of_biography": "2023-05-09T14:47:57.291947+10:00", "external_links": [], "uuid": "cb19e83b-0a66-4895-a15f-3891c7be4db8", "source": {"name": "Vernon", "slug": "vernon"}, "source_identifier": "36394", "external_references": [{"id": 37516, "source": {"name": "Wikidata", "slug": "wikidata"}, "source_identifier": "Q121299478"}], "date_modified": "2025-03-05T14:24:21.613238+11:00"}, {"id": 82471, "name": "Zhang Jie", "roles_in_work": [{"id": 2650873, "title": "Orchids and chrysanthemums = Chun lan qiu ju", "work_id": 115773, "role": "cast", "role_id": 33, "is_primary": false}], "also_known_as": "", "date_of_birth": "", "date_of_death": "", "genders": [{"id": 9, "name": "Male", "slug": "male"}], "languages": [], "places_of_operation": [], "biography": "", "biography_author": null, "date_of_biography": "2023-05-09T14:47:57.044350+10:00", "external_links": [], "uuid": "7b599b94-26ab-4d8e-900a-e9c3ea882001", "source": {"name": "Vernon", "slug": "vernon"}, "source_identifier": "36393", "external_references": [{"id": 40579, "source": {"name": "Wikidata", "slug": "wikidata"}, "source_identifier": "Q121298824"}], "date_modified": "2025-03-05T14:24:21.008388+11:00"}, {"id": 82470, "name": "Yang Baoming", "roles_in_work": [{"id": 2650872, "title": "Orchids and chrysanthemums = Chun lan qiu ju", "work_id": 115773, "role": "cinematographer", "role_id": 32, "is_primary": false}], "also_known_as": "", "date_of_birth": "", "date_of_death": "", "genders": [], "languages": [], "places_of_operation": [], "biography": "", "biography_author": null, "date_of_biography": "2023-05-09T14:47:56.811477+10:00", "external_links": [], "uuid": "73fc9647-6957-4e15-bd72-4ea89458a3f9", "source": {"name": "Vernon", "slug": "vernon"}, "source_identifier": "36390", "external_references": [{"id": 33687, "source": {"name": "Wikidata", "slug": "wikidata"}, "source_identifier": "Q121223350"}], "date_modified": "2025-03-05T14:24:20.422419+11:00"}, {"id": 82469, "name": "Ji Hongxu", "roles_in_work": [{"id": 2650870, "title": "Orchids and chrysanthemums = Chun lan qiu ju", "work_id": 115773, "role": "script", "role_id": 962, "is_primary": false}], "also_known_as": "", "date_of_birth": "", "date_of_death": "", "genders": [], "languages": [], "places_of_operation": [], "biography": "", "biography_author": null, "date_of_biography": "2023-05-09T14:47:56.328730+10:00", "external_links": [], "uuid": "cdffaa8b-c48a-4bfd-b063-00dc7fe69fa4", "source": {"name": "Vernon", "slug": "vernon"}, "source_identifier": "36389", "external_references": [], "date_modified": "2025-03-05T14:24:19.264051+11:00"}, {"id": 82468, "name": "Guo Baochang", "roles_in_work": [{"id": 2650869, "title": "Orchids and chrysanthemums = Chun lan qiu ju", "work_id": 115773, "role": "director", "role_id": 938, "is_primary": true}, {"id": 2650871, "title": "Orchids and chrysanthemums = Chun lan qiu ju", "work_id": 115773, "role": "script", "role_id": 962, "is_primary": false}], "also_known_as": "", "date_of_birth": "", "date_of_death": "", "genders": [], "languages": [], "places_of_operation": [], "biography": "", "biography_author": null, "date_of_biography": "2023-05-09T14:47:56.577414+10:00", "external_links": [], "uuid": "3c33704a-8c74-4457-8a0b-6da2158c578c", "source": {"name": "Vernon", "slug": "vernon"}, "source_identifier": "36388", "external_references": [{"id": 39968, "source": {"name": "Wikidata", "slug": "wikidata"}, "source_identifier": "Q121126037"}], "date_modified": "2025-03-05T14:24:19.848462+11:00"}, {"id": 82467, "name": "Li Zheng", "roles_in_work": [{"id": 2650866, "title": "Quartet on wheels = Che lun si chong zou", "work_id": 115772, "role": "cast", "role_id": 33, "is_primary": false}], "also_known_as": "", "date_of_birth": "", "date_of_death": "", "genders": [], "languages": [], "places_of_operation": [], "biography": "", "biography_author": null, "date_of_biography": "2023-05-09T16:42:27.893745+10:00", "external_links": [], "uuid": "262b9a4f-52a6-4179-8e07-26f4d9cbd82d", "source": {"name": "Vernon", "slug": "vernon"}, "source_identifier": "36780", "external_references": [{"id": 36410, "source": {"name": "Wikidata", "slug": "wikidata"}, "source_identifier": "Q121126584"}], "date_modified": "2025-03-05T14:24:16.617300+11:00"}, {"id": 82466, "name": "Li Wei", "roles_in_work": [{"id": 2650865, "title": "Quartet on wheels = Che lun si chong zou", "work_id": 115772, "role": "cast", "role_id": 33, "is_primary": false}], "also_known_as": "", "date_of_birth": "", "date_of_death": "", "genders": [], "languages": [], "places_of_operation": [], "biography": "", "biography_author": null, "date_of_biography": "2023-05-09T16:42:27.660290+10:00", "external_links": [], "uuid": "623be6c2-25c1-4ff2-a327-552e77d61c9d", "source": {"name": "Vernon", "slug": "vernon"}, "source_identifier": "36779", "external_references": [{"id": 32922, "source": {"name": "Wikidata", "slug": "wikidata"}, "source_identifier": "Q121315302"}], "date_modified": "2025-03-05T14:24:16.041738+11:00"}, {"id": 82465, "name": "Ai Liya", "roles_in_work": [{"id": 2650864, "title": "Quartet on wheels = Che lun si chong zou", "work_id": 115772, "role": "cast", "role_id": 33, "is_primary": false}], "also_known_as": "", "date_of_birth": "", "date_of_death": "", "genders": [], "languages": [], "places_of_operation": [], "biography": "", "biography_author": null, "date_of_biography": "2023-05-09T16:42:27.413363+10:00", "external_links": [], "uuid": "4e5e9b7c-b2f1-4705-a3d1-18a4ee7db3d4", "source": {"name": "Vernon", "slug": "vernon"}, "source_identifier": "36778", "external_references": [{"id": 37108, "source": {"name": "Wikidata", "slug": "wikidata"}, "source_identifier": "Q8916607"}], "date_modified": "2025-03-05T14:24:15.461135+11:00"}, {"id": 82464, "name": "Liu Xinyi", "roles_in_work": [{"id": 2650863, "title": "Quartet on wheels = Che lun si chong zou", "work_id": 115772, "role": "cast", "role_id": 33, "is_primary": false}, {"id": 2650914, "title": "The Happy bachelors = Kuai le de dan shen han", "work_id": 115778, "role": "cast", "role_id": 33, "is_primary": false}], "also_known_as": "", "date_of_birth": "", "date_of_death": "", "genders": [], "languages": [], "places_of_operation": [], "biography": "", "biography_author": null, "date_of_biography": "2023-05-09T19:59:38.774621+10:00", "external_links": [], "uuid": "e605003d-236d-4f4d-a692-e866d6530a96", "source": {"name": "Vernon", "slug": "vernon"}, "source_identifier": "36253", "external_references": [{"id": 40420, "source": {"name": "Wikidata", "slug": "wikidata"}, "source_identifier": "Q121222874"}], "date_modified": "2025-03-05T14:24:46.376047+11:00"}]}