{"count": 28687, "next": "https://api.acmi.net.au/creators/?page=877", "previous": "https://api.acmi.net.au/creators/?page=875", "results": [{"id": 76822, "name": "Gregory Peck", "roles_in_work": [{"id": 1985258, "title": "How the West was won", "work_id": 81186, "role": "cast", "role_id": 33, "is_primary": false}, {"id": 2151562, "title": "On the beach", "work_id": 84979, "role": "cast", "role_id": 33, "is_primary": false}, {"id": 2334191, "title": "The Boys from Brazil", "work_id": 84629, "role": "cast", "role_id": 33, "is_primary": false}, {"id": 2331445, "title": "The Big country (S)", "work_id": 83397, "role": "co-producer", "role_id": 915, "is_primary": true}, {"id": 2344602, "title": "The Dove", "work_id": 86284, "role": "producer", "role_id": 1089, "is_primary": true}], "also_known_as": "Eldred Gregory Peck", "date_of_birth": "1916-04-05", "date_of_death": "2003-06-12", "genders": [{"id": 9, "name": "Male", "slug": "male"}], "languages": [{"id": 1, "name": "English", "slug": "english"}], "places_of_operation": [{"id": 1, "name": "United States of America", "slug": "united-states-of-america"}], "biography": "Eldred Gregory Peck (April 5, 1916 – June 12, 2003) was an American actor and one of the most popular film stars from the 1940s to the 1970s. In 1999, the American Film Institute named Peck the 12th-greatest male star of Classic Hollywood Cinema.\nAfter studying at the Neighborhood Playhouse with Sanford Meisner, Peck began appearing in stage productions, acting in over 50 plays and three Broadway productions. He first gained critical success in The Keys of the Kingdom (1944), a John M. Stahl–directed drama which earned him his first Academy Award nomination. He starred in a series of successful films, including romantic-drama The Valley of Decision (1944), Alfred Hitchcock's Spellbound (1945), and family film The Yearling (1946). He encountered lukewarm commercial reviews at the end of the 1940s, his performances including The Paradine Case (1947) and The Great Sinner (1948). Peck reached global recognition in the 1950s and 1960s, appearing back-to-back in the book-to-film adaptation of Captain Horatio Hornblower (1951) and biblical drama David and Bathsheba (1951). He starred alongside Ava Gardner in The Snows of Kilimanjaro (1952) and Audrey Hepburn in Roman Holiday (1953).\nOther notable films in which he appeared include  Moby Dick (1956, and its 1998 mini-series), The Guns of Navarone (1961), Cape Fear (1962, and its 1991 remake), The Omen (1976), and The Boys from Brazil (1978). Throughout his career, he often portrayed protagonists with \"fiber\" within a moral setting. Gentleman's Agreement (1947) centered on topics of antisemitism, while Peck's character in Twelve O'Clock High (1949) dealt with post-traumatic stress disorder during World War II. He won the Academy Award for Best Actor for his performance as Atticus Finch in To Kill a Mockingbird (1962), an adaptation of the modern classic of the same name which revolved around racial inequality, for which he received universal acclaim. In 1983, he starred opposite Christopher Plummer in The Scarlet and The Black as Hugh O'Flaherty, a Catholic priest who saved thousands of escaped Allied POWs and Jewish people in Rome during the Second World War.\nPeck was also active in politics, challenging the House Un-American Activities Committee in 1947 and was regarded as a political opponent by President Richard Nixon. President Lyndon B. Johnson honored Peck with the Presidential Medal of Freedom in 1969 for his lifetime humanitarian efforts. Peck died in his sleep from bronchopneumonia at the age of 87.\n\n", "biography_author": "Wikidata", "date_of_biography": "2023-08-01T15:05:45.553030+10:00", "external_links": [{"id": 4109, "uri": "https://en.wikipedia.org/wiki/Gregory_Peck"}], "uuid": "70db0abf-4492-489f-b04a-c322c564f709", "source": {"name": "Vernon", "slug": "vernon"}, "source_identifier": "20086", "external_references": [{"id": 25619, "source": {"name": "Wikidata", "slug": "wikidata"}, "source_identifier": "Q108366"}, {"id": 28778, "source": {"name": "VIAF", "slug": "viaf"}, "source_identifier": "114908240"}, {"id": 28779, "source": {"name": "LOC Auth", "slug": "loc-auth"}, "source_identifier": "n80108803"}, {"id": 28780, "source": {"name": "WorldCat", "slug": "worldcat"}, "source_identifier": "lccn-n80108803"}], "date_modified": "2023-09-05T20:23:07.515244+10:00"}, {"id": 76821, "name": "Maina Gielgud", "roles_in_work": [{"id": 900244, "title": "Giselle", "work_id": 81183, "role": "co-producers/directors", "role_id": 628, "is_primary": true}], "also_known_as": "", "date_of_birth": null, "date_of_death": null, "genders": [], "languages": [], "places_of_operation": [], "biography": "", "biography_author": null, "date_of_biography": null, "external_links": [], "uuid": "88e754c0-670b-41e8-a0ce-5e2339f95540", "source": {"name": "Vernon", "slug": "vernon"}, "source_identifier": null, "external_references": [], "date_modified": "2023-06-14T16:33:30.576250+10:00"}, {"id": 76820, "name": "Martyn Friend", "roles_in_work": [{"id": 2773987, "title": "4.50 from Paddington", "work_id": 81163, "role": "director", "role_id": 938, "is_primary": true}], "also_known_as": "", "date_of_birth": "", "date_of_death": "", "genders": [], "languages": [], "places_of_operation": [], "biography": "", "biography_author": null, "date_of_biography": "2023-05-09T19:28:42.595828+10:00", "external_links": [], "uuid": "0f0db8d1-3d59-412e-8360-bddfe5702824", "source": {"name": "Vernon", "slug": "vernon"}, "source_identifier": "24692", "external_references": [{"id": 36441, "source": {"name": "Wikidata", "slug": "wikidata"}, "source_identifier": "Q121299137"}], "date_modified": "2025-03-14T18:31:49.702331+11:00"}, {"id": 76819, "name": "Geoff Thomas", "roles_in_work": [{"id": 2352542, "title": "The Great New Zealand Fishing Safari", "work_id": 81160, "role": "producer/director", "role_id": 31, "is_primary": true}, {"id": 781940, "title": "Gardening secrets: Spring", "work_id": 83307, "role": "producer/director", "role_id": 31, "is_primary": true}, {"id": 781950, "title": "Gardening secrets: Summer", "work_id": 83310, "role": "producer/director", "role_id": 31, "is_primary": true}], "also_known_as": "", "date_of_birth": "", "date_of_death": "", "genders": [], "languages": [], "places_of_operation": [], "biography": "", "biography_author": null, "date_of_biography": "2023-05-09T19:58:37.302288+10:00", "external_links": [], "uuid": "ba1e0210-3ef6-4070-8378-cf85fe8f1b11", "source": {"name": "Vernon", "slug": "vernon"}, "source_identifier": "19517", "external_references": [{"id": 50891, "source": {"name": "Wikidata", "slug": "wikidata"}, "source_identifier": "Q121360587"}], "date_modified": "2023-09-05T20:02:04.983432+10:00"}, {"id": 76818, "name": "Steven Adams", "roles_in_work": [{"id": 2162281, "title": "Massage for Health", "work_id": 81152, "role": "co-producer", "role_id": 915, "is_primary": true}], "also_known_as": "", "date_of_birth": "", "date_of_death": "", "genders": [], "languages": [], "places_of_operation": [], "biography": "", "biography_author": null, "date_of_biography": "2023-05-09T14:18:38.191933+10:00", "external_links": [], "uuid": "bee6be59-17b6-44ae-bbea-a3972ff57bd6", "source": {"name": "Vernon", "slug": "vernon"}, "source_identifier": "29180", "external_references": [{"id": 34536, "source": {"name": "Wikidata", "slug": "wikidata"}, "source_identifier": "Q121040099"}], "date_modified": "2023-09-06T01:31:46.302485+10:00"}, {"id": 76817, "name": "Robin Drake", "roles_in_work": [{"id": 1846066, "title": "The Story of English furniture. Part 2", "work_id": 81137, "role": "co-producer", "role_id": 915, "is_primary": true}, {"id": 900194, "title": "The Story of English furniture. Part 1", "work_id": 81136, "role": "co-producer", "role_id": 915, "is_primary": true}], "also_known_as": "", "date_of_birth": null, "date_of_death": null, "genders": [], "languages": [], "places_of_operation": [], "biography": "", "biography_author": null, "date_of_biography": null, "external_links": [], "uuid": "cfe741a8-cbaa-4e8b-8c1a-16a12312e226", "source": {"name": "Vernon", "slug": "vernon"}, "source_identifier": null, "external_references": [{"id": 40819, "source": {"name": "Wikidata", "slug": "wikidata"}, "source_identifier": "Q121223147"}], "date_modified": "2023-09-06T00:49:16.596553+10:00"}, {"id": 76816, "name": "Paul Smith", "roles_in_work": [{"id": 1846065, "title": "The Story of English furniture. Part 2", "work_id": 81137, "role": "co-producer", "role_id": 915, "is_primary": true}, {"id": 900193, "title": "The Story of English furniture. Part 1", "work_id": 81136, "role": "co-producer", "role_id": 915, "is_primary": true}, {"id": 2750311, "title": "The Last wild river", "work_id": 97246, "role": "producer", "role_id": 1089, "is_primary": true}, {"id": 885526, "title": "It'll be alright on the night. 3", "work_id": 95381, "role": "producer/director", "role_id": 31, "is_primary": true}], "also_known_as": "", "date_of_birth": "", "date_of_death": "", "genders": [], "languages": [], "places_of_operation": [], "biography": "", "biography_author": null, "date_of_biography": "2023-08-14T11:17:54.415119+10:00", "external_links": [], "uuid": "29e5f71f-c167-45cb-b9f6-093bdb721ee2", "source": {"name": "Vernon", "slug": "vernon"}, "source_identifier": "26334", "external_references": [{"id": 42370, "source": {"name": "Wikidata", "slug": "wikidata"}, "source_identifier": "Q121035243"}], "date_modified": "2025-03-13T00:20:04.488980+11:00"}, {"id": 76815, "name": "Matthew Fargher", "roles_in_work": [{"id": 2127751, "title": "Burke and Wills", "work_id": 81113, "role": "cast", "role_id": 33, "is_primary": false}], "also_known_as": "", "date_of_birth": "", "date_of_death": "", "genders": [], "languages": [], "places_of_operation": [], "biography": "", "biography_author": null, "date_of_biography": "2023-05-09T13:14:27.976255+10:00", "external_links": [], "uuid": "544a8c0c-c5bc-47c1-a12b-36f6ebf1f030", "source": {"name": "Vernon", "slug": "vernon"}, "source_identifier": "34931", "external_references": [{"id": 38573, "source": {"name": "Wikidata", "slug": "wikidata"}, "source_identifier": "Q121035841"}], "date_modified": "2023-09-05T22:54:48.863617+10:00"}, {"id": 76814, "name": "Nigel Havers", "roles_in_work": [{"id": 2127743, "title": "Burke and Wills", "work_id": 81113, "role": "cast", "role_id": 33, "is_primary": false}], "also_known_as": "", "date_of_birth": "1951-11-06", "date_of_death": "", "genders": [{"id": 9, "name": "Male", "slug": "male"}], "languages": [{"id": 1, "name": "English", "slug": "english"}], "places_of_operation": [{"id": 10, "name": "United Kingdom", "slug": "united-kingdom"}], "biography": "Nigel Allan Havers (born 6 November 1951) is an English actor and presenter. His film roles include Lord Andrew Lindsay in the 1981 British film Chariots of Fire, which earned him a BAFTA nomination; as Dr. Rawlins in the 1987 Steven Spielberg war drama, Empire of the Sun; and as Ronny in the 1984 David Lean epic A Passage to India. Television roles include Tom Latimer in the British TV comedy series Don't Wait Up and Lewis Archer in Coronation Street, between 2009 and 2019.", "biography_author": "Wikidata", "date_of_biography": "2023-08-01T16:24:12.434646+10:00", "external_links": [{"id": 4783, "uri": "https://en.wikipedia.org/wiki/Nigel_Havers"}], "uuid": "62cdb694-bdd5-4dbd-a9c8-7d29481336f4", "source": {"name": "Vernon", "slug": "vernon"}, "source_identifier": "33957", "external_references": [{"id": 26980, "source": {"name": "Wikidata", "slug": "wikidata"}, "source_identifier": "Q466361"}, {"id": 30533, "source": {"name": "VIAF", "slug": "viaf"}, "source_identifier": "56811607"}, {"id": 30534, "source": {"name": "LOC Auth", "slug": "loc-auth"}, "source_identifier": "no99079418"}, {"id": 30535, "source": {"name": "WorldCat", "slug": "worldcat"}, "source_identifier": "lccn-no99079418"}], "date_modified": "2023-09-05T23:31:39.995705+10:00"}, {"id": 76813, "name": "Clay Borris", "roles_in_work": [{"id": 2187154, "title": "Paper boy", "work_id": 81107, "role": "director", "role_id": 938, "is_primary": true}, {"id": 2254339, "title": "Rose's house", "work_id": 88076, "role": "director", "role_id": 938, "is_primary": true}], "also_known_as": "", "date_of_birth": "1950-03-31", "date_of_death": "", "genders": [{"id": 9, "name": "Male", "slug": "male"}], "languages": [], "places_of_operation": [{"id": 36, "name": "Canada", "slug": "canada"}], "biography": "Clay Borris (born March 31, 1950) is a Canadian film and television director and screenwriter. He is most noted for his 1981 film Alligator Shoes, for which he was a shortlisted Genie Award nominee for Best Original Screenplay at the 3rd Genie Awards in 1982.Born in Campbellton, New Brunswick and raised in the Cabbagetown district of Toronto, Ontario, his first short film Parliament Street was released in 1968. He made a number of further short films, including Paper Boy and Rose's House, before releasing Alligator Shoes, his feature debut, in 1981; Rose's House was a Canadian Film Award nominee for Best TV Drama at the 28th Canadian Film Awards in 1977.He has a few acting credits, including both Rose's House and Alligator Shoes, as well as in Peter Vronsky's 1980 film Bad Company. His continued focus on directing included the action film Quiet Cool in 1986, the television western The Gunfighters in 1987 and the horror film Prom Night IV: Deliver Us from Evil in 1992. In the 1990s he concentrated primarily on television work, including episodes of Katts and Dog, Night Heat, Top Cops, Tropical Heat, Highlander: The Series, Forever Knight, The Adventures of Sinbad, Psi Factor and Relic Hunter.", "biography_author": "Wikidata", "date_of_biography": "2023-08-01T14:29:16.792004+10:00", "external_links": [{"id": 3790, "uri": "https://en.wikipedia.org/wiki/Clay_Borris"}], "uuid": "175da553-7d18-4fb5-9eb3-9f7840b6573d", "source": {"name": "Vernon", "slug": "vernon"}, "source_identifier": "17102", "external_references": [{"id": 26493, "source": {"name": "Wikidata", "slug": "wikidata"}, "source_identifier": "Q2978695"}, {"id": 27907, "source": {"name": "VIAF", "slug": "viaf"}, "source_identifier": "160432526"}, {"id": 27908, "source": {"name": "WorldCat", "slug": "worldcat"}, "source_identifier": "viaf-160432526"}], "date_modified": "2023-09-05T18:42:03.145417+10:00"}]}