{"count": 28682, "next": "https://api.acmi.net.au/creators/?page=2131", "previous": "https://api.acmi.net.au/creators/?page=2129", "results": [{"id": 19959, "name": "Damian Brown", "roles_in_work": [{"id": 2752267, "title": "What's cooking?", "work_id": 98220, "role": "director", "role_id": 938, "is_primary": true}, {"id": 2752951, "title": "Cold comfort", "work_id": 98533, "role": "director", "role_id": 938, "is_primary": true}, {"id": 863726, "title": "The Unseen enemy", "work_id": 77437, "role": "director", "role_id": 938, "is_primary": true}, {"id": 2267578, "title": "You can't shift the blame", "work_id": 76769, "role": "script", "role_id": 962, "is_primary": false}], "also_known_as": "", "date_of_birth": "", "date_of_death": "", "genders": [], "languages": [], "places_of_operation": [], "biography": "", "biography_author": null, "date_of_biography": "2023-05-09T17:40:02.798284+10:00", "external_links": [], "uuid": "bc64e3cb-4c65-4bd8-a7b0-9fd187ecad43", "source": {"name": "Vernon", "slug": "vernon"}, "source_identifier": "17339", "external_references": [{"id": 34065, "source": {"name": "Wikidata", "slug": "wikidata"}, "source_identifier": "Q121337417"}], "date_modified": "2025-03-13T01:15:41.439526+11:00"}, {"id": 19956, "name": "Rusden State College", "roles_in_work": [{"id": 2749869, "title": "Sexism in the primary school", "work_id": 97018, "role": "production company", "role_id": 941, "is_primary": true}, {"id": 2472121, "title": "Yipirinya", "work_id": 76764, "role": "production company", "role_id": 941, "is_primary": true}], "also_known_as": "", "date_of_birth": "", "date_of_death": "", "genders": [], "languages": [], "places_of_operation": [], "biography": "", "biography_author": null, "date_of_biography": "2023-08-14T12:53:46.648985+10:00", "external_links": [], "uuid": "bb631bd0-fded-4fb3-aec0-4697d899d6c2", "source": {"name": "Vernon", "slug": "vernon"}, "source_identifier": "12184", "external_references": [], "date_modified": "2025-03-13T00:10:09.814598+11:00"}, {"id": 19954, "name": "Carmelo Musca", "roles_in_work": [{"id": 2774545, "title": "Didgeridoo in Deutschland", "work_id": 81811, "role": "director", "role_id": 938, "is_primary": true}, {"id": 1812260, "title": "Albany whaling", "work_id": 76762, "role": "producer", "role_id": 1089, "is_primary": true}], "also_known_as": "", "date_of_birth": "", "date_of_death": "", "genders": [], "languages": [], "places_of_operation": [], "biography": "", "biography_author": null, "date_of_biography": "2023-05-09T19:29:57.937359+10:00", "external_links": [], "uuid": "57154d9b-d7b2-4d86-bcbf-6247ad2f2862", "source": {"name": "Vernon", "slug": "vernon"}, "source_identifier": "16511", "external_references": [{"id": 39457, "source": {"name": "Wikidata", "slug": "wikidata"}, "source_identifier": "Q121270821"}], "date_modified": "2025-03-14T18:37:45.462409+11:00"}, {"id": 19950, "name": "Bruce Rigby", "roles_in_work": [{"id": 2647592, "title": "Puppy Love", "work_id": 76756, "role": "director", "role_id": 938, "is_primary": true}], "also_known_as": "", "date_of_birth": null, "date_of_death": null, "genders": [], "languages": [], "places_of_operation": [], "biography": "", "biography_author": null, "date_of_biography": null, "external_links": [], "uuid": "23d2784b-65b7-422c-b798-8cce2c5e4ab9", "source": {"name": "Vernon", "slug": "vernon"}, "source_identifier": "16332", "external_references": [], "date_modified": "2025-03-05T13:27:43.979840+11:00"}, {"id": 19949, "name": "Ann Darrouzet", "roles_in_work": [{"id": 902913, "title": "Life at Little Lon", "work_id": 83794, "role": "co-producer", "role_id": 915, "is_primary": true}, {"id": 2648114, "title": "Insult to Injury", "work_id": 78329, "role": "producer", "role_id": 1089, "is_primary": true}, {"id": 1809059, "title": "True love and chaos", "work_id": 86577, "role": "producer", "role_id": 1089, "is_primary": true}, {"id": 2321420, "title": "Taking chances", "work_id": 85247, "role": "producer", "role_id": 1089, "is_primary": true}, {"id": 863026, "title": "Overlooked", "work_id": 76755, "role": "producer/director", "role_id": 31, "is_primary": true}], "also_known_as": "", "date_of_birth": "", "date_of_death": "", "genders": [], "languages": [], "places_of_operation": [], "biography": "", "biography_author": null, "date_of_biography": "2023-05-09T19:12:36.103152+10:00", "external_links": [], "uuid": "de64a9d7-6551-43fb-ad63-a883112d6c78", "source": {"name": "Vernon", "slug": "vernon"}, "source_identifier": "15285", "external_references": [{"id": 36955, "source": {"name": "Wikidata", "slug": "wikidata"}, "source_identifier": "Q121091066"}], "date_modified": "2025-03-05T13:40:04.284847+11:00"}, {"id": 19947, "name": "Andrew Vial Film Productions", "roles_in_work": [{"id": 2197713, "title": "Does it feel like a long ten minutes? (TEFC)", "work_id": 76749, "role": "production company", "role_id": 941, "is_primary": true}], "also_known_as": "", "date_of_birth": "", "date_of_death": "", "genders": [], "languages": [], "places_of_operation": [], "biography": "", "biography_author": null, "date_of_biography": "2023-05-09T15:20:23.103719+10:00", "external_links": [], "uuid": "25bf18e5-f98d-49b5-b159-26feca6c895a", "source": {"name": "Vernon", "slug": "vernon"}, "source_identifier": "5245", "external_references": [{"id": 41863, "source": {"name": "Wikidata", "slug": "wikidata"}, "source_identifier": "Q121126754"}], "date_modified": "2023-09-05T17:37:31.117745+10:00"}, {"id": 19946, "name": "Henri Lievre", "roles_in_work": [{"id": 2468103, "title": "The Silence and the night", "work_id": 76747, "role": "director", "role_id": 938, "is_primary": true}], "also_known_as": "", "date_of_birth": "", "date_of_death": "", "genders": [], "languages": [], "places_of_operation": [], "biography": "", "biography_author": null, "date_of_biography": "2023-08-14T11:34:02.965051+10:00", "external_links": [], "uuid": "15217c26-bf45-4ec7-8f73-9898570bfbae", "source": {"name": "Vernon", "slug": "vernon"}, "source_identifier": "20468", "external_references": [], "date_modified": "2023-08-14T11:34:02.965369+10:00"}, {"id": 19945, "name": "Production International", "roles_in_work": [{"id": 2468102, "title": "The Silence and the night", "work_id": 76747, "role": "production company", "role_id": 941, "is_primary": true}], "also_known_as": "", "date_of_birth": "", "date_of_death": "", "genders": [], "languages": [], "places_of_operation": [], "biography": "", "biography_author": null, "date_of_biography": "2023-08-14T11:34:02.335054+10:00", "external_links": [], "uuid": "fe570892-dc14-4037-a564-3150aa91a378", "source": {"name": "Vernon", "slug": "vernon"}, "source_identifier": "11671", "external_references": [], "date_modified": "2023-08-14T11:34:02.335355+10:00"}, {"id": 19942, "name": "Claude R Camredon", "roles_in_work": [{"id": 2464361, "title": "No fences for Baronne: Baronne Champs libres", "work_id": 76742, "role": "director", "role_id": 938, "is_primary": true}], "also_known_as": "", "date_of_birth": "", "date_of_death": "", "genders": [], "languages": [], "places_of_operation": [], "biography": "", "biography_author": null, "date_of_biography": "2023-08-14T10:10:25.313527+10:00", "external_links": [], "uuid": "34f8c062-dcce-407a-9aab-d701fc883340", "source": {"name": "Vernon", "slug": "vernon"}, "source_identifier": "17085", "external_references": [], "date_modified": "2023-08-14T10:10:25.313799+10:00"}, {"id": 19941, "name": "Jacscam Enterprises", "roles_in_work": [{"id": 2464360, "title": "No fences for Baronne: Baronne Champs libres", "work_id": 76742, "role": "production company", "role_id": 941, "is_primary": true}], "also_known_as": "", "date_of_birth": "", "date_of_death": "", "genders": [], "languages": [], "places_of_operation": [], "biography": "", "biography_author": null, "date_of_biography": "2023-08-14T10:10:24.673393+10:00", "external_links": [], "uuid": "63b5fce0-62a6-475d-a202-4723cf25e01e", "source": {"name": "Vernon", "slug": "vernon"}, "source_identifier": "9531", "external_references": [], "date_modified": "2023-08-14T10:10:24.673757+10:00"}]}