{"count": 28687, "next": "https://api.acmi.net.au/creators/?page=2717", "previous": "https://api.acmi.net.au/creators/?page=2715", "results": [{"id": 11214, "name": "Eddie Wong", "roles_in_work": [{"id": 2641319, "title": "Home of the behemoth", "work_id": 110347, "role": "creator", "role_id": 968, "is_primary": true}], "also_known_as": "", "date_of_birth": null, "date_of_death": null, "genders": [], "languages": [], "places_of_operation": [], "biography": "", "biography_author": null, "date_of_biography": null, "external_links": [], "uuid": "167cb527-0b92-4b5f-8e6f-52fe3ab3cfeb", "source": {"name": "Vernon", "slug": "vernon"}, "source_identifier": "2980", "external_references": [], "date_modified": "2025-03-05T11:33:43.977635+11:00"}, {"id": 11213, "name": "Tang Yang", "roles_in_work": [{"id": 2641317, "title": "Laughing and crying", "work_id": 110346, "role": "creator", "role_id": 968, "is_primary": true}], "also_known_as": "", "date_of_birth": null, "date_of_death": null, "genders": [], "languages": [], "places_of_operation": [], "biography": "", "biography_author": null, "date_of_biography": null, "external_links": [], "uuid": "497a9203-4ee7-45c2-b057-01cb636a967d", "source": {"name": "Vernon", "slug": "vernon"}, "source_identifier": "2979", "external_references": [], "date_modified": "2025-03-05T11:33:42.527719+11:00"}, {"id": 11212, "name": "Ami Chew", "roles_in_work": [{"id": 2641314, "title": "The Kite", "work_id": 110345, "role": "creator", "role_id": 968, "is_primary": true}], "also_known_as": "", "date_of_birth": null, "date_of_death": null, "genders": [], "languages": [], "places_of_operation": [], "biography": "", "biography_author": null, "date_of_biography": null, "external_links": [], "uuid": "d38b354a-373a-45a1-9c00-25bb02221ac5", "source": {"name": "Vernon", "slug": "vernon"}, "source_identifier": "2978", "external_references": [], "date_modified": "2025-03-05T11:33:41.084688+11:00"}, {"id": 11211, "name": "Patsarun Chuthapisit", "roles_in_work": [{"id": 2641311, "title": "Bonely angel", "work_id": 110344, "role": "creator", "role_id": 968, "is_primary": true}], "also_known_as": "", "date_of_birth": null, "date_of_death": null, "genders": [], "languages": [], "places_of_operation": [], "biography": "", "biography_author": null, "date_of_biography": null, "external_links": [], "uuid": "1496cf58-4de2-4bf5-9e3b-316c63aaf241", "source": {"name": "Vernon", "slug": "vernon"}, "source_identifier": "2977", "external_references": [], "date_modified": "2025-03-05T11:33:39.662418+11:00"}, {"id": 11210, "name": "Adrian Rose", "roles_in_work": [{"id": 2641308, "title": "Jettison", "work_id": 110343, "role": "creator", "role_id": 968, "is_primary": true}, {"id": 2641294, "title": "Ratio of fire", "work_id": 110477, "role": "creator", "role_id": 968, "is_primary": true}], "also_known_as": "", "date_of_birth": null, "date_of_death": null, "genders": [], "languages": [], "places_of_operation": [], "biography": "", "biography_author": null, "date_of_biography": null, "external_links": [], "uuid": "ee5d17cd-23b9-4a3e-b285-4590002dffc1", "source": {"name": "Vernon", "slug": "vernon"}, "source_identifier": "2975", "external_references": [], "date_modified": "2025-03-05T11:33:38.206657+11:00"}, {"id": 11209, "name": "Hafiz Zamri", "roles_in_work": [{"id": 2641305, "title": "Fish", "work_id": 110341, "role": "creator", "role_id": 968, "is_primary": true}], "also_known_as": "", "date_of_birth": null, "date_of_death": null, "genders": [], "languages": [], "places_of_operation": [], "biography": "", "biography_author": null, "date_of_biography": null, "external_links": [], "uuid": "2042cee2-c780-4203-9df1-6a44b5316332", "source": {"name": "Vernon", "slug": "vernon"}, "source_identifier": "2976", "external_references": [], "date_modified": "2025-03-05T11:33:36.773595+11:00"}, {"id": 11202, "name": "Simon White", "roles_in_work": [{"id": 2641245, "title": "Death of television", "work_id": 110334, "role": "producer", "role_id": 1089, "is_primary": true}], "also_known_as": "", "date_of_birth": "", "date_of_death": "", "genders": [], "languages": [], "places_of_operation": [], "biography": "", "biography_author": null, "date_of_biography": "2023-05-09T14:55:54.807287+10:00", "external_links": [], "uuid": "c18b8841-dab2-40a4-839f-16aa52772cad", "source": {"name": "Vernon", "slug": "vernon"}, "source_identifier": "2958", "external_references": [{"id": 42374, "source": {"name": "Wikidata", "slug": "wikidata"}, "source_identifier": "Q121057887"}], "date_modified": "2025-03-05T11:32:58.871404+11:00"}, {"id": 11201, "name": "Fetus Ferguson", "roles_in_work": [{"id": 2641232, "title": "Strange residues", "work_id": 110332, "role": "writer", "role_id": 939, "is_primary": true}], "also_known_as": "", "date_of_birth": "", "date_of_death": "", "genders": [], "languages": [], "places_of_operation": [], "biography": "", "biography_author": null, "date_of_biography": "2023-05-09T14:55:56.675970+10:00", "external_links": [], "uuid": "dbb21131-66ac-43c8-aaf4-7514d9a0b975", "source": {"name": "Vernon", "slug": "vernon"}, "source_identifier": "2956", "external_references": [{"id": 37976, "source": {"name": "Wikidata", "slug": "wikidata"}, "source_identifier": "Q121126067"}], "date_modified": "2025-03-05T11:32:53.527972+11:00"}, {"id": 11200, "name": "Alexander Proyas", "roles_in_work": [{"id": 2641228, "title": "Strange residues", "work_id": 110332, "role": "director", "role_id": 938, "is_primary": true}], "also_known_as": "", "date_of_birth": "", "date_of_death": "", "genders": [], "languages": [], "places_of_operation": [], "biography": "", "biography_author": null, "date_of_biography": "2023-05-09T14:55:56.202210+10:00", "external_links": [], "uuid": "8366be50-33b7-4556-b723-d1fd8031de33", "source": {"name": "Vernon", "slug": "vernon"}, "source_identifier": "2955", "external_references": [{"id": 37588, "source": {"name": "Wikidata", "slug": "wikidata"}, "source_identifier": "Q121337585"}], "date_modified": "2025-03-05T11:32:52.267129+11:00"}, {"id": 11199, "name": "Siobhan Hannan", "roles_in_work": [{"id": 2641212, "title": "Tran the man", "work_id": 110330, "role": "producer", "role_id": 1089, "is_primary": true}], "also_known_as": "", "date_of_birth": null, "date_of_death": null, "genders": [], "languages": [], "places_of_operation": [], "biography": "", "biography_author": null, "date_of_biography": null, "external_links": [], "uuid": "4b66ae7a-aaa8-4e6f-bcad-2a04deb8e77f", "source": {"name": "Vernon", "slug": "vernon"}, "source_identifier": "2945", "external_references": [], "date_modified": "2025-03-05T11:32:46.934163+11:00"}]}