{"count": 28682, "next": "https://api.acmi.net.au/creators/?page=2710", "previous": "https://api.acmi.net.au/creators/?page=2708", "results": [{"id": 11309, "name": "Joel Sharpe", "roles_in_work": [{"id": 2640610, "title": "The Calling", "work_id": 110433, "role": "creator", "role_id": 968, "is_primary": true}], "also_known_as": "", "date_of_birth": "", "date_of_death": "", "genders": [], "languages": [], "places_of_operation": [], "biography": "", "biography_author": null, "date_of_biography": "2023-05-09T19:32:01.148281+10:00", "external_links": [], "uuid": "838092a1-0ca0-4243-9dae-490e5a61bf92", "source": {"name": "Vernon", "slug": "vernon"}, "source_identifier": "3087", "external_references": [], "date_modified": "2025-03-05T11:29:00.805788+11:00"}, {"id": 11308, "name": "Jenifer Hooks", "roles_in_work": [{"id": 1985105, "title": "Smoke 'em if you got 'em", "work_id": 81007, "role": "producer", "role_id": 1089, "is_primary": true}, {"id": 2640989, "title": "The Colonel", "work_id": 110430, "role": "producer", "role_id": 1089, "is_primary": true}], "also_known_as": "", "date_of_birth": null, "date_of_death": null, "genders": [], "languages": [], "places_of_operation": [], "biography": "", "biography_author": null, "date_of_biography": null, "external_links": [], "uuid": "c66923e9-f232-4854-bbd8-e5ffa1c4217e", "source": {"name": "Vernon", "slug": "vernon"}, "source_identifier": "3084", "external_references": [], "date_modified": "2025-03-05T11:31:37.810146+11:00"}, {"id": 11307, "name": "Paul Spence", "roles_in_work": [{"id": 2640551, "title": "Entropy: a measure of the disorganization or degradation of the universe (AIE, Module one)", "work_id": 110429, "role": "creator", "role_id": 968, "is_primary": true}, {"id": 2642319, "title": "Bathophobia", "work_id": 110876, "role": "creator", "role_id": 968, "is_primary": true}], "also_known_as": "", "date_of_birth": "", "date_of_death": "", "genders": [], "languages": [], "places_of_operation": [], "biography": "", "biography_author": null, "date_of_biography": "2023-08-11T12:18:35.383148+10:00", "external_links": [], "uuid": "2d3fcd23-ce8d-4965-a0ac-e283edaa0a48", "source": {"name": "Vernon", "slug": "vernon"}, "source_identifier": "3083", "external_references": [], "date_modified": "2025-03-05T11:45:17.290827+11:00"}, {"id": 11306, "name": "Kai Faigenbaum", "roles_in_work": [{"id": 2640549, "title": "Entropy: a measure of the disorganization or degradation of the universe (AIE, Module one)", "work_id": 110429, "role": "creator", "role_id": 968, "is_primary": true}, {"id": 2642306, "title": "The Lunar cycle", "work_id": 110635, "role": "creator", "role_id": 968, "is_primary": true}], "also_known_as": "", "date_of_birth": "", "date_of_death": "", "genders": [], "languages": [], "places_of_operation": [], "biography": "", "biography_author": null, "date_of_biography": "2023-08-11T12:18:36.931029+10:00", "external_links": [], "uuid": "9e74dc58-9917-42fd-84c7-21e894bcadb9", "source": {"name": "Vernon", "slug": "vernon"}, "source_identifier": "3082", "external_references": [], "date_modified": "2025-03-05T11:45:12.438177+11:00"}, {"id": 11305, "name": "Jason Keen", "roles_in_work": [{"id": 2642315, "title": ".byte", "work_id": 110875, "role": "creator", "role_id": 968, "is_primary": true}, {"id": 2640548, "title": "Entropy: a measure of the disorganization or degradation of the universe (AIE, Module one)", "work_id": 110429, "role": "creator", "role_id": 968, "is_primary": true}], "also_known_as": "", "date_of_birth": "", "date_of_death": "", "genders": [], "languages": [], "places_of_operation": [], "biography": "", "biography_author": null, "date_of_biography": "2023-08-11T12:18:33.879233+10:00", "external_links": [], "uuid": "16911e93-bc40-40b6-89f8-9ce22a89a995", "source": {"name": "Vernon", "slug": "vernon"}, "source_identifier": "3081", "external_references": [], "date_modified": "2025-03-05T11:45:15.900184+11:00"}, {"id": 11304, "name": "Daniel Riddle", "roles_in_work": [{"id": 2642310, "title": "Pandamonium", "work_id": 110633, "role": "creator", "role_id": 968, "is_primary": true}, {"id": 2640546, "title": "Entropy: a measure of the disorganization or degradation of the universe (AIE, Module one)", "work_id": 110429, "role": "creator", "role_id": 968, "is_primary": true}], "also_known_as": "", "date_of_birth": "", "date_of_death": "", "genders": [], "languages": [], "places_of_operation": [], "biography": "", "biography_author": null, "date_of_biography": "2023-08-11T12:18:38.452165+10:00", "external_links": [], "uuid": "c620365e-2307-4247-9f2d-65cf395ca38a", "source": {"name": "Vernon", "slug": "vernon"}, "source_identifier": "3080", "external_references": [], "date_modified": "2025-03-05T11:45:13.795929+11:00"}, {"id": 11303, "name": "Claire Spoelstra", "roles_in_work": [{"id": 2640544, "title": "Entropy: a measure of the disorganization or degradation of the universe (AIE, Module one)", "work_id": 110429, "role": "creator", "role_id": 968, "is_primary": true}], "also_known_as": "", "date_of_birth": null, "date_of_death": null, "genders": [], "languages": [], "places_of_operation": [], "biography": "", "biography_author": null, "date_of_biography": null, "external_links": [], "uuid": "a955ee5a-485f-4b62-802f-a1db7a74f551", "source": {"name": "Vernon", "slug": "vernon"}, "source_identifier": "3079", "external_references": [], "date_modified": "2025-03-05T11:28:38.922080+11:00"}, {"id": 11302, "name": "Academy of Interactive Entertainment (AIE)", "roles_in_work": [{"id": 2642313, "title": "Academy of Interactive Entertainment (Melbourne) Diploma of Screen student works 2006", "work_id": 110634, "role": "production company", "role_id": 941, "is_primary": true}, {"id": 2642312, "title": "Pandamonium", "work_id": 110633, "role": "production company", "role_id": 941, "is_primary": true}, {"id": 2642317, "title": ".byte", "work_id": 110875, "role": "production company", "role_id": 941, "is_primary": true}, {"id": 2642308, "title": "The Lunar cycle", "work_id": 110635, "role": "production company", "role_id": 941, "is_primary": true}, {"id": 2642321, "title": "Bathophobia", "work_id": 110876, "role": "production company", "role_id": 941, "is_primary": true}, {"id": 2640542, "title": "Entropy: a measure of the disorganization or degradation of the universe (AIE, Module one)", "work_id": 110429, "role": "production company", "role_id": 941, "is_primary": true}], "also_known_as": "", "date_of_birth": "", "date_of_death": "", "genders": [], "languages": [], "places_of_operation": [], "biography": "", "biography_author": null, "date_of_biography": "2023-08-11T12:18:39.794073+10:00", "external_links": [], "uuid": "1050d7c7-d1cf-4b97-9486-2e982a997515", "source": {"name": "Vernon", "slug": "vernon"}, "source_identifier": "3078", "external_references": [], "date_modified": "2025-03-05T11:45:17.869611+11:00"}, {"id": 11301, "name": "Liang Yuan Wang", "roles_in_work": [{"id": 2640828, "title": "Darkness", "work_id": 110428, "role": "creator", "role_id": 968, "is_primary": true}], "also_known_as": "", "date_of_birth": "", "date_of_death": "", "genders": [], "languages": [], "places_of_operation": [], "biography": "", "biography_author": null, "date_of_biography": "2023-05-09T14:27:21.295620+10:00", "external_links": [], "uuid": "cdbfc61b-044a-4d09-b40e-d0fb186d8336", "source": {"name": "Vernon", "slug": "vernon"}, "source_identifier": "3077", "external_references": [], "date_modified": "2025-03-05T11:30:41.435748+11:00"}, {"id": 11300, "name": "Warwick Ferguson", "roles_in_work": [{"id": 2642046, "title": "Wing Executive Productions", "work_id": 110615, "role": "creator", "role_id": 968, "is_primary": true}, {"id": 2640824, "title": "90 degrees skywards", "work_id": 110427, "role": "creator", "role_id": 968, "is_primary": true}], "also_known_as": "", "date_of_birth": "", "date_of_death": "", "genders": [], "languages": [], "places_of_operation": [], "biography": "", "biography_author": null, "date_of_biography": "2023-05-09T19:58:10.481981+10:00", "external_links": [], "uuid": "3c6407ae-bc82-48e5-86d1-48c336c4eb27", "source": {"name": "Vernon", "slug": "vernon"}, "source_identifier": "3076", "external_references": [], "date_modified": "2025-03-05T11:42:27.594523+11:00"}]}