{"count": 28687, "next": "https://api.acmi.net.au/creators/?page=195", "previous": "https://api.acmi.net.au/creators/?page=193", "results": [{"id": 83667, "name": "Anna Huynh", "roles_in_work": [{"id": 2654273, "title": "Just smile and shine", "work_id": 116919, "role": "creator", "role_id": 968, "is_primary": true}], "also_known_as": "", "date_of_birth": "", "date_of_death": "", "genders": [{"id": 5, "name": "Female", "slug": "female"}], "languages": [], "places_of_operation": [], "biography": "", "biography_author": null, "date_of_biography": "2023-05-09T20:05:52.969362+10:00", "external_links": [], "uuid": "7f73fa0d-c109-43d3-8954-f2eeed61ac78", "source": {"name": "Vernon", "slug": "vernon"}, "source_identifier": "35083", "external_references": [], "date_modified": "2025-03-05T15:29:26.937736+11:00"}, {"id": 83666, "name": "Sarah Vincent", "roles_in_work": [{"id": 2654313, "title": "The Invisible net", "work_id": 116918, "role": "creator", "role_id": 968, "is_primary": true}], "also_known_as": "", "date_of_birth": "", "date_of_death": "", "genders": [{"id": 5, "name": "Female", "slug": "female"}], "languages": [], "places_of_operation": [], "biography": "", "biography_author": null, "date_of_biography": "2023-05-09T20:05:50.896046+10:00", "external_links": [], "uuid": "f87f2fc0-e9f4-4a51-a970-8642cf25e074", "source": {"name": "Vernon", "slug": "vernon"}, "source_identifier": "35094", "external_references": [], "date_modified": "2025-03-05T15:29:53.845445+11:00"}, {"id": 83665, "name": "Ayesha Lai", "roles_in_work": [{"id": 2654278, "title": "Glory and fame", "work_id": 116917, "role": "creator", "role_id": 968, "is_primary": true}], "also_known_as": "", "date_of_birth": "", "date_of_death": "", "genders": [{"id": 5, "name": "Female", "slug": "female"}], "languages": [], "places_of_operation": [], "biography": "", "biography_author": null, "date_of_biography": "2023-05-09T20:05:49.236607+10:00", "external_links": [], "uuid": "b9de8148-c957-4b0c-b207-7e9de1a5da29", "source": {"name": "Vernon", "slug": "vernon"}, "source_identifier": "35084", "external_references": [], "date_modified": "2025-03-05T15:29:30.255277+11:00"}, {"id": 83664, "name": "Phillip Martinovski", "roles_in_work": [{"id": 2654303, "title": "From fear to success", "work_id": 116916, "role": "creator", "role_id": 968, "is_primary": true}], "also_known_as": "", "date_of_birth": "", "date_of_death": "", "genders": [{"id": 9, "name": "Male", "slug": "male"}], "languages": [], "places_of_operation": [], "biography": "", "biography_author": null, "date_of_biography": "2023-05-09T20:05:47.627353+10:00", "external_links": [], "uuid": "6a9500e5-f720-4301-9306-a20db36d1a5d", "source": {"name": "Vernon", "slug": "vernon"}, "source_identifier": "35089", "external_references": [], "date_modified": "2025-03-05T15:29:47.100618+11:00"}, {"id": 83663, "name": "Brook Tesfaye", "roles_in_work": [{"id": 2654283, "title": "Complications", "work_id": 116915, "role": "creator", "role_id": 968, "is_primary": true}], "also_known_as": "", "date_of_birth": "", "date_of_death": "", "genders": [{"id": 9, "name": "Male", "slug": "male"}], "languages": [], "places_of_operation": [], "biography": "", "biography_author": null, "date_of_biography": "2023-05-09T20:05:45.834827+10:00", "external_links": [], "uuid": "2cbe255a-6eb7-4b06-8842-4f5c7d75a837", "source": {"name": "Vernon", "slug": "vernon"}, "source_identifier": "35085", "external_references": [], "date_modified": "2025-03-05T15:29:33.600095+11:00"}, {"id": 83662, "name": "Michelle Huynh", "roles_in_work": [{"id": 2654298, "title": "Change", "work_id": 116914, "role": "creator", "role_id": 968, "is_primary": true}], "also_known_as": "", "date_of_birth": "", "date_of_death": "", "genders": [{"id": 5, "name": "Female", "slug": "female"}], "languages": [], "places_of_operation": [], "biography": "", "biography_author": null, "date_of_biography": "2023-05-09T20:06:06.643777+10:00", "external_links": [], "uuid": "dc5c33ba-d9d3-4f19-b80a-388d9bb0175f", "source": {"name": "Vernon", "slug": "vernon"}, "source_identifier": "35088", "external_references": [], "date_modified": "2025-03-05T15:29:43.765804+11:00"}, {"id": 83661, "name": "Victorian Police Youth Foundation", "roles_in_work": [{"id": 2654710, "title": "Triptych", "work_id": 116925, "role": "partner", "role_id": 575, "is_primary": false}, {"id": 2654271, "title": "Just smile and shine", "work_id": 116919, "role": "partner", "role_id": 575, "is_primary": false}, {"id": 2654276, "title": "Glory and fame", "work_id": 116917, "role": "partner", "role_id": 575, "is_primary": false}, {"id": 2654281, "title": "Complications", "work_id": 116915, "role": "partner", "role_id": 575, "is_primary": false}, {"id": 2654286, "title": "My special family", "work_id": 116921, "role": "partner", "role_id": 575, "is_primary": false}, {"id": 2654291, "title": "Never give up", "work_id": 116922, "role": "partner", "role_id": 575, "is_primary": false}, {"id": 2654296, "title": "Change", "work_id": 116914, "role": "partner", "role_id": 575, "is_primary": false}, {"id": 2654301, "title": "From fear to success", "work_id": 116916, "role": "partner", "role_id": 575, "is_primary": false}, {"id": 2654306, "title": "Old life, new life", "work_id": 116923, "role": "partner", "role_id": 575, "is_primary": false}, {"id": 2654311, "title": "The Invisible net", "work_id": 116918, "role": "partner", "role_id": 575, "is_primary": false}, {"id": 2654316, "title": "Lucky", "work_id": 116920, "role": "partner", "role_id": 575, "is_primary": false}, {"id": 2654264, "title": "Prayer for fame", "work_id": 116924, "role": "support", "role_id": 492, "is_primary": false}, {"id": 2654260, "title": "Western stories : expressions for the future : Digital Storytelling project", "work_id": 116913, "role": "support", "role_id": 492, "is_primary": false}], "also_known_as": "", "date_of_birth": "SEP 2007", "date_of_death": "", "genders": [], "languages": [], "places_of_operation": [], "biography": "", "biography_author": null, "date_of_biography": "2023-05-09T20:06:06.141540+10:00", "external_links": [], "uuid": "dc09b67a-f0cd-4e98-803a-634d9792b694", "source": {"name": "Vernon", "slug": "vernon"}, "source_identifier": "35079", "external_references": [], "date_modified": "2025-03-05T15:33:54.750968+11:00"}, {"id": 83660, "name": "Michael Connor", "roles_in_work": [{"id": 2654150, "title": "Michael Connor: in conversation with Conrad Bodman", "work_id": 116910, "role": "interviewee", "role_id": 496, "is_primary": false}, {"id": 2659440, "title": "Game Masters: Blizzard Entertainment interview", "work_id": 117292, "role": "interviewer", "role_id": 457, "is_primary": false}, {"id": 2659420, "title": "Game Masters: Alex Rigopulos and Eran Egozy interview", "work_id": 117289, "role": "interviewer", "role_id": 457, "is_primary": false}], "also_known_as": "", "date_of_birth": "", "date_of_death": "", "genders": [{"id": 9, "name": "Male", "slug": "male"}], "languages": [], "places_of_operation": [], "biography": "", "biography_author": null, "date_of_biography": "2023-07-05T03:55:41.581982+10:00", "external_links": [], "uuid": "8be774bf-e3da-4cd6-8a7d-04e6117919d8", "source": {"name": "Vernon", "slug": "vernon"}, "source_identifier": "35072", "external_references": [], "date_modified": "2025-03-05T19:26:02.702866+11:00"}, {"id": 83659, "name": "Conrad Bodman", "roles_in_work": [{"id": 2654149, "title": "Michael Connor: in conversation with Conrad Bodman", "work_id": 116910, "role": "interviewer", "role_id": 457, "is_primary": false}], "also_known_as": "", "date_of_birth": null, "date_of_death": null, "genders": [{"id": 9, "name": "Male", "slug": "male"}], "languages": [], "places_of_operation": [], "biography": "", "biography_author": null, "date_of_biography": null, "external_links": [], "uuid": "86f3f065-fb65-4d0a-91f7-9ccd9aa63658", "source": {"name": "Vernon", "slug": "vernon"}, "source_identifier": "3616", "external_references": [], "date_modified": "2025-03-05T15:28:01.401581+11:00"}, {"id": 83658, "name": "Matthew Mulcahy", "roles_in_work": [{"id": 2654147, "title": "Michael Connor: in conversation with Conrad Bodman", "work_id": 116910, "role": "crew", "role_id": 513, "is_primary": false}, {"id": 2651542, "title": "Our city cares", "work_id": 119227, "role": "sound", "role_id": 952, "is_primary": false}], "also_known_as": "", "date_of_birth": "", "date_of_death": "", "genders": [], "languages": [], "places_of_operation": [], "biography": "", "biography_author": null, "date_of_biography": "2023-05-09T14:50:27.252588+10:00", "external_links": [], "uuid": "bd767bf2-1b1f-4993-bf0a-578a2377eade", "source": {"name": "Vernon", "slug": "vernon"}, "source_identifier": "34772", "external_references": [], "date_modified": "2025-03-05T15:28:00.168700+11:00"}]}