{"count": 28687, "next": "https://api.acmi.net.au/creators/?page=2534", "previous": "https://api.acmi.net.au/creators/?page=2532", "results": [{"id": 13490, "name": "International Temperance Association", "roles_in_work": [{"id": 2679169, "title": "Cancer by the carton", "work_id": 65769, "role": "production company", "role_id": 941, "is_primary": true}], "also_known_as": "", "date_of_birth": "", "date_of_death": "", "genders": [], "languages": [], "places_of_operation": [], "biography": "", "biography_author": null, "date_of_biography": "2023-08-11T15:11:01.874550+10:00", "external_links": [], "uuid": "233a4fe4-a985-4487-a7f0-a4e8cf124f7d", "source": {"name": "Vernon", "slug": "vernon"}, "source_identifier": "9400", "external_references": [], "date_modified": "2025-03-07T00:07:21.147027+11:00"}, {"id": 13489, "name": "Leston Post", "roles_in_work": [{"id": 2679170, "title": "Cancer by the carton", "work_id": 65769, "role": "producer", "role_id": 1089, "is_primary": true}, {"id": 2679168, "title": "Cancer by the carton", "work_id": 65769, "role": "production company", "role_id": 941, "is_primary": true}], "also_known_as": "", "date_of_birth": "", "date_of_death": "", "genders": [], "languages": [], "places_of_operation": [], "biography": "", "biography_author": null, "date_of_biography": "2023-08-11T15:11:02.528731+10:00", "external_links": [], "uuid": "b1fe6e49-f947-417c-9dd2-2d3edb1f26d3", "source": {"name": "Vernon", "slug": "vernon"}, "source_identifier": "23796", "external_references": [], "date_modified": "2025-03-07T00:07:21.733144+11:00"}, {"id": 13488, "name": "Visatone (Australia)", "roles_in_work": [{"id": 2715359, "title": "The Helping hand", "work_id": 68398, "role": "production company", "role_id": 941, "is_primary": true}, {"id": 2679164, "title": "The Canberra Lake: Springtime sixty-four", "work_id": 65766, "role": "production company", "role_id": 941, "is_primary": true}, {"id": 825316, "title": "The Breath of life", "work_id": 95780, "role": "production company", "role_id": 941, "is_primary": true}], "also_known_as": "", "date_of_birth": "", "date_of_death": "", "genders": [], "languages": [], "places_of_operation": [], "biography": "", "biography_author": null, "date_of_biography": "2023-08-09T03:46:09.126534+10:00", "external_links": [], "uuid": "5cb9fda0-167c-4c9a-8591-a7a89dad5999", "source": {"name": "Vernon", "slug": "vernon"}, "source_identifier": "14156", "external_references": [{"id": 41845, "source": {"name": "Wikidata", "slug": "wikidata"}, "source_identifier": "Q121315281"}], "date_modified": "2025-03-12T01:32:28.290248+11:00"}, {"id": 13479, "name": "Coronet Instructional Media", "roles_in_work": [{"id": 860491, "title": "Warty the toad", "work_id": 74474, "role": "production company", "role_id": 941, "is_primary": true}, {"id": 2679151, "title": "Canada's Provinces and people", "work_id": 65760, "role": "production company", "role_id": 941, "is_primary": true}, {"id": 2680174, "title": "Come see the dolphins", "work_id": 66255, "role": "production company", "role_id": 941, "is_primary": true}, {"id": 2714362, "title": "Fruit flies: an inquiry into behaviour", "work_id": 67871, "role": "production company", "role_id": 941, "is_primary": true}, {"id": 2645507, "title": "The Lungs: an inside story", "work_id": 69950, "role": "production company", "role_id": 941, "is_primary": true}, {"id": 2646009, "title": "The Playful pandas", "work_id": 71654, "role": "production company", "role_id": 941, "is_primary": true}, {"id": 2714430, "title": "The Galapagos: Darwin's clues", "work_id": 67924, "role": "production company", "role_id": 941, "is_primary": true}, {"id": 2750743, "title": "Exploring space: the sun and its energy. - 2nd ed.", "work_id": 97477, "role": "production company", "role_id": 941, "is_primary": true}, {"id": 2751315, "title": "Helicopter ride. - 2nd ed.", "work_id": 97750, "role": "production company", "role_id": 941, "is_primary": true}, {"id": 2768010, "title": "Reproductive system. - 2nd. ed.", "work_id": 85035, "role": "production company", "role_id": 941, "is_primary": true}, {"id": 3081592, "title": "Saving and investing", "work_id": 96983, "role": "production company", "role_id": 941, "is_primary": true}, {"id": 2403688, "title": "Cells and what they do", "work_id": 73044, "role": "production company", "role_id": 941, "is_primary": true}, {"id": 859760, "title": "Today's culture: options after high school", "work_id": 73899, "role": "production company", "role_id": 941, "is_primary": true}, {"id": 859447, "title": "Thailand: past and present", "work_id": 73642, "role": "production company", "role_id": 941, "is_primary": true}, {"id": 857004, "title": "Plants and animals depend on each other", "work_id": 71638, "role": "production company", "role_id": 941, "is_primary": true}, {"id": 887335, "title": "Place value: ones, tens, hundreds. - 2nd ed.", "work_id": 97479, "role": "production company", "role_id": 941, "is_primary": true}, {"id": 2413754, "title": "Jumpy, the grasshopper", "work_id": 69317, "role": "production company", "role_id": 941, "is_primary": true}, {"id": 2415522, "title": "Male and female in plants and animals", "work_id": 70066, "role": "production company", "role_id": 941, "is_primary": true}, {"id": 2415887, "title": "Mexico: four views", "work_id": 70341, "role": "production company", "role_id": 941, "is_primary": true}, {"id": 1681436, "title": "Testing hypotheses", "work_id": 70779, "role": "production company", "role_id": 941, "is_primary": true}], "also_known_as": "", "date_of_birth": "", "date_of_death": "", "genders": [], "languages": [], "places_of_operation": [], "biography": "", "biography_author": null, "date_of_biography": "2023-08-11T19:48:46.380000+10:00", "external_links": [], "uuid": "ddb41432-c0ee-4b01-973f-493ae1074537", "source": {"name": "Vernon", "slug": "vernon"}, "source_identifier": "7078", "external_references": [], "date_modified": "2025-03-17T10:24:57.205639+11:00"}, {"id": 13478, "name": "Coronet Instructional Materials", "roles_in_work": [{"id": 2679150, "title": "Canada's prairie Provinces", "work_id": 65759, "role": "production company", "role_id": 941, "is_primary": true}, {"id": 2750753, "title": "Gruesome gray monster (Finding colours)", "work_id": 97485, "role": "production company", "role_id": 941, "is_primary": true}, {"id": 2679149, "title": "Canada's Pacific Province and northland", "work_id": 65758, "role": "production company", "role_id": 941, "is_primary": true}, {"id": 2679147, "title": "Canada's central Provinces", "work_id": 65756, "role": "production company", "role_id": 941, "is_primary": true}, {"id": 2679143, "title": "Canada's Atlantic Provinces", "work_id": 65754, "role": "production company", "role_id": 941, "is_primary": true}], "also_known_as": "", "date_of_birth": "", "date_of_death": "", "genders": [], "languages": [], "places_of_operation": [], "biography": "", "biography_author": null, "date_of_biography": "2023-08-11T17:10:44.113636+10:00", "external_links": [], "uuid": "f07ee250-1975-40cf-aa7d-5e3b2deb1aaa", "source": {"name": "Vernon", "slug": "vernon"}, "source_identifier": "7077", "external_references": [], "date_modified": "2025-03-13T00:30:10.045040+11:00"}, {"id": 13474, "name": "James A. Cole", "roles_in_work": [{"id": 2679135, "title": "The Canada cup: the ultimate series", "work_id": 65749, "role": "director", "role_id": 938, "is_primary": true}], "also_known_as": "", "date_of_birth": "", "date_of_death": "", "genders": [], "languages": [], "places_of_operation": [], "biography": "", "biography_author": null, "date_of_biography": "2023-08-14T11:06:04.230078+10:00", "external_links": [], "uuid": "929e9426-d4a7-4d75-95b5-a18b49523033", "source": {"name": "Vernon", "slug": "vernon"}, "source_identifier": "21177", "external_references": [], "date_modified": "2025-03-07T00:06:55.067692+11:00"}, {"id": 13473, "name": "Bob Schulz Productions", "roles_in_work": [{"id": 2679134, "title": "The Canada cup: the ultimate series", "work_id": 65749, "role": "production company", "role_id": 941, "is_primary": true}], "also_known_as": "", "date_of_birth": "", "date_of_death": "", "genders": [], "languages": [], "places_of_operation": [], "biography": "", "biography_author": null, "date_of_biography": "2023-08-14T11:06:03.567289+10:00", "external_links": [], "uuid": "91fad1e3-0e2f-41ae-9d6b-7f01b5456731", "source": {"name": "Vernon", "slug": "vernon"}, "source_identifier": "5930", "external_references": [], "date_modified": "2025-03-07T00:06:54.494806+11:00"}, {"id": 13472, "name": "James Jackson", "roles_in_work": [{"id": 2769003, "title": "The Sleepwatchers", "work_id": 76371, "role": "director", "role_id": 938, "is_primary": true}, {"id": 2755018, "title": "Tomorrow...today", "work_id": 90202, "role": "director", "role_id": 938, "is_primary": true}, {"id": 2754962, "title": "The Food revolution", "work_id": 67698, "role": "director", "role_id": 938, "is_primary": true}, {"id": 2754968, "title": "Games futurists play", "work_id": 67937, "role": "director", "role_id": 938, "is_primary": true}, {"id": 2755022, "title": "Can we live to be 100?", "work_id": 65747, "role": "co-producer", "role_id": 915, "is_primary": true}, {"id": 2754954, "title": "Computer revolution. Parts 1 and 2", "work_id": 66306, "role": "director", "role_id": 938, "is_primary": true}, {"id": 2754970, "title": "The Human heart", "work_id": 68669, "role": "producer", "role_id": 1089, "is_primary": true}], "also_known_as": "", "date_of_birth": "", "date_of_death": "", "genders": [], "languages": [], "places_of_operation": [], "biography": "", "biography_author": null, "date_of_biography": "2023-08-11T19:01:12.539190+10:00", "external_links": [], "uuid": "e8ae2d53-4a31-465a-b07f-1c67c8ef3f53", "source": {"name": "Vernon", "slug": "vernon"}, "source_identifier": "21255", "external_references": [], "date_modified": "2025-03-13T01:56:25.579832+11:00"}, {"id": 13471, "name": "Cecil Musk", "roles_in_work": [{"id": 2373946, "title": "Queen cotton", "work_id": 71981, "role": "director", "role_id": 938, "is_primary": true}, {"id": 857305, "title": "Progress: the story of the Rootes Group", "work_id": 71899, "role": "director", "role_id": 938, "is_primary": true}, {"id": 874219, "title": "Looking through glass", "work_id": 88626, "role": "director", "role_id": 938, "is_primary": true}, {"id": 1904858, "title": "Pilkington Brothers offer: the best of both worlds", "work_id": 90614, "role": "producer", "role_id": 1089, "is_primary": true}, {"id": 1817043, "title": "The Wind on the Heath", "work_id": 74788, "role": "producer", "role_id": 1089, "is_primary": true}, {"id": 2215399, "title": "Egghead's robot (Captioned)", "work_id": 79089, "role": "producer", "role_id": 1089, "is_primary": true}, {"id": 2215109, "title": "Egghead's robot", "work_id": 79226, "role": "producer", "role_id": 1089, "is_primary": true}, {"id": 2679205, "title": "Capital county", "work_id": 65787, "role": "producer/director", "role_id": 31, "is_primary": true}, {"id": 803625, "title": "Radio service", "work_id": 89744, "role": "producer/director", "role_id": 31, "is_primary": true}, {"id": 2679126, "title": "Can we be rich?", "work_id": 65746, "role": "producer/director", "role_id": 31, "is_primary": true}, {"id": 2714694, "title": "Glass", "work_id": 68070, "role": "production company", "role_id": 941, "is_primary": true}], "also_known_as": "", "date_of_birth": "", "date_of_death": "", "genders": [], "languages": [], "places_of_operation": [], "biography": "", "biography_author": null, "date_of_biography": "2023-07-05T03:47:27.598645+10:00", "external_links": [], "uuid": "72877f57-9966-43bf-b049-35efe2cb7457", "source": {"name": "Vernon", "slug": "vernon"}, "source_identifier": "16624", "external_references": [{"id": 35202, "source": {"name": "Wikidata", "slug": "wikidata"}, "source_identifier": "Q121091473"}], "date_modified": "2025-03-12T01:17:17.397353+11:00"}, {"id": 13469, "name": "National Camps Corporation", "roles_in_work": [{"id": 2679116, "title": "Camp schools", "work_id": 65741, "role": "production company", "role_id": 941, "is_primary": true}], "also_known_as": "", "date_of_birth": "", "date_of_death": "", "genders": [], "languages": [], "places_of_operation": [], "biography": "", "biography_author": null, "date_of_biography": "2023-08-11T15:10:35.392524+10:00", "external_links": [], "uuid": "b1d14196-0aab-4845-9256-d4eb5cc81dbe", "source": {"name": "Vernon", "slug": "vernon"}, "source_identifier": "10781", "external_references": [], "date_modified": "2025-03-07T00:06:41.763682+11:00"}]}