{"count": 28684, "next": "https://api.acmi.net.au/creators/?page=2536", "previous": "https://api.acmi.net.au/creators/?page=2534", "results": [{"id": 13455, "name": "Dennis Shand", "roles_in_work": [{"id": 2715133, "title": "Handling the catch", "work_id": 68293, "role": "director", "role_id": 938, "is_primary": true}, {"id": 939921, "title": "Once upon a time", "work_id": 84947, "role": "director", "role_id": 938, "is_primary": true}, {"id": 2464967, "title": "Precise measurement in engineering", "work_id": 71776, "role": "director", "role_id": 938, "is_primary": true}, {"id": 857910, "title": "Rubber in roads", "work_id": 72381, "role": "director", "role_id": 938, "is_primary": true}, {"id": 2679095, "title": "Calling all motorcyclists", "work_id": 65727, "role": "director", "role_id": 938, "is_primary": true}, {"id": 871366, "title": "The Ways of water", "work_id": 86970, "role": "director", "role_id": 938, "is_primary": true}, {"id": 2680445, "title": "Cooks in clover", "work_id": 66390, "role": "producer/director", "role_id": 31, "is_primary": true}, {"id": 2680439, "title": "Cooking in liquids", "work_id": 66388, "role": "producer/director", "role_id": 31, "is_primary": true}, {"id": 2644888, "title": "Frying methods", "work_id": 67876, "role": "producer/director", "role_id": 31, "is_primary": true}, {"id": 2714988, "title": "Grill and oven cooking", "work_id": 68220, "role": "producer/director", "role_id": 31, "is_primary": true}], "also_known_as": "", "date_of_birth": "", "date_of_death": "", "genders": [], "languages": [], "places_of_operation": [], "biography": "", "biography_author": null, "date_of_biography": "2023-08-14T10:23:51.479060+10:00", "external_links": [], "uuid": "7802deee-e1c6-4e39-b0bf-a24ef9762480", "source": {"name": "Vernon", "slug": "vernon"}, "source_identifier": "18013", "external_references": [], "date_modified": "2025-03-12T01:27:19.777640+11:00"}, {"id": 13454, "name": "Maxwell Munden", "roles_in_work": [{"id": 2415342, "title": "Looking at Britain: Young Farmers Clubs", "work_id": 88711, "role": "director", "role_id": 938, "is_primary": true}, {"id": 2415338, "title": "Looking at Britain: trainers in training", "work_id": 69906, "role": "director", "role_id": 938, "is_primary": true}, {"id": 860152, "title": "University of flying", "work_id": 74213, "role": "director", "role_id": 938, "is_primary": true}, {"id": 1807231, "title": "Once upon a time", "work_id": 84947, "role": "producer", "role_id": 1089, "is_primary": true}, {"id": 1803594, "title": "Rubber in roads", "work_id": 72381, "role": "producer", "role_id": 1089, "is_primary": true}, {"id": 2679094, "title": "Calling all motorcyclists", "work_id": 65727, "role": "producer", "role_id": 1089, "is_primary": true}, {"id": 1813241, "title": "Scientists in the Antarctic", "work_id": 72539, "role": "producer", "role_id": 1089, "is_primary": true}, {"id": 2755323, "title": "The Trout", "work_id": 74042, "role": "producer/director", "role_id": 31, "is_primary": true}, {"id": 2755321, "title": "The Trout", "work_id": 74037, "role": "producer/director", "role_id": 31, "is_primary": true}, {"id": 2755319, "title": "The Tench", "work_id": 73614, "role": "producer/director", "role_id": 31, "is_primary": true}, {"id": 2755317, "title": "The Salmon", "work_id": 72456, "role": "producer/director", "role_id": 31, "is_primary": true}, {"id": 854697, "title": "The Long wait", "work_id": 69885, "role": "producer/director", "role_id": 31, "is_primary": true}, {"id": 2755325, "title": "The Carp", "work_id": 76430, "role": "producer/director", "role_id": 31, "is_primary": true}, {"id": 2755315, "title": "The Pike", "work_id": 71569, "role": "producer/director", "role_id": 31, "is_primary": true}], "also_known_as": "", "date_of_birth": "", "date_of_death": "", "genders": [], "languages": [], "places_of_operation": [], "biography": "", "biography_author": null, "date_of_biography": "2023-08-11T19:35:45.665439+10:00", "external_links": [], "uuid": "fadf5406-5f7f-4102-b89f-e8b267b8baa4", "source": {"name": "Vernon", "slug": "vernon"}, "source_identifier": "24892", "external_references": [], "date_modified": "2025-03-13T14:32:08.688669+11:00"}, {"id": 13453, "name": "Film Workshop", "roles_in_work": [{"id": 2357638, "title": "The Killer", "work_id": 89209, "role": "production company", "role_id": 941, "is_primary": true}, {"id": 2679092, "title": "Calling all motorcyclists", "work_id": 65727, "role": "production company", "role_id": 941, "is_primary": true}, {"id": 2615599, "title": "Once upon a time in China", "work_id": 85698, "role": "production company", "role_id": 941, "is_primary": true}, {"id": 2680437, "title": "Cooking in liquids", "work_id": 66388, "role": "production company", "role_id": 941, "is_primary": true}, {"id": 2680443, "title": "Cooks in clover", "work_id": 66390, "role": "production company", "role_id": 941, "is_primary": true}, {"id": 2644886, "title": "Frying methods", "work_id": 67876, "role": "production company", "role_id": 941, "is_primary": true}, {"id": 2714987, "title": "Grill and oven cooking", "work_id": 68220, "role": "production company", "role_id": 941, "is_primary": true}, {"id": 2715131, "title": "Handling the catch", "work_id": 68293, "role": "production company", "role_id": 941, "is_primary": true}, {"id": 2162636, "title": "Once upon a time in China II", "work_id": 85699, "role": "production company", "role_id": 941, "is_primary": true}, {"id": 752807, "title": "Scientists in the Antarctic", "work_id": 72539, "role": "production company", "role_id": 941, "is_primary": true}, {"id": 875134, "title": "Rubber in building", "work_id": 89323, "role": "production company", "role_id": 941, "is_primary": true}, {"id": 871364, "title": "The Ways of water", "work_id": 86970, "role": "production company", "role_id": 941, "is_primary": true}, {"id": 812548, "title": "Once upon a time in China (Restored version) [Widescreen]", "work_id": 92717, "role": "production company", "role_id": 941, "is_primary": true}, {"id": 2164966, "title": "Once upon a time in China III", "work_id": 85700, "role": "production company", "role_id": 941, "is_primary": true}, {"id": 857908, "title": "Rubber in roads", "work_id": 72381, "role": "production company", "role_id": 941, "is_primary": true}, {"id": 1994912, "title": "New Dragon Gate Inn = Dragon Inn", "work_id": 90683, "role": "production company", "role_id": 941, "is_primary": true}, {"id": 2713357, "title": "The Falkland Islands", "work_id": 67374, "role": "production company", "role_id": 941, "is_primary": true}], "also_known_as": "", "date_of_birth": "", "date_of_death": "", "genders": [], "languages": [], "places_of_operation": [], "biography": "Film Workshop Co. Ltd. (simplified Chinese: 电影工作室; traditional Chinese: 電影工作室), is a Hong Kong production company and film distributor. It was founded in April 1984 by producer/director Tsui Hark and his now ex-wife, Nansun Shi. Already a director with box office hits, Tsui wanted to create a workshop where the foremost filmmakers could work on films with artistic merit, and at the same time, films that could be commercially rewarding for the financiers behind his projects. The company has not produced a film since 2017. Source: Wikidata; 01/08/2023", "biography_author": null, "date_of_biography": "2025-03-12T01:27:18.584999+11:00", "external_links": [{"id": 3973, "uri": "https://en.wikipedia.org/wiki/Film_Workshop"}], "uuid": "41d85579-86a5-4dba-8512-9c0deec5f7b7", "source": {"name": "Vernon", "slug": "vernon"}, "source_identifier": "8259", "external_references": [{"id": 26934, "source": {"name": "Wikidata", "slug": "wikidata"}, "source_identifier": "Q5448985"}, {"id": 28409, "source": {"name": "VIAF", "slug": "viaf"}, "source_identifier": "151982327"}, {"id": 28410, "source": {"name": "LOC Auth", "slug": "loc-auth"}, "source_identifier": "no2003082654"}, {"id": 28411, "source": {"name": "WorldCat", "slug": "worldcat"}, "source_identifier": "lccn-no2003082654"}], "date_modified": "2025-03-12T01:27:18.585249+11:00"}, {"id": 13452, "name": "Brian Benson", "roles_in_work": [{"id": 2471923, "title": "With a little friendly help", "work_id": 91743, "role": "director", "role_id": 938, "is_primary": true}, {"id": 2679090, "title": "The Call of Lourdes", "work_id": 65725, "role": "producer/director", "role_id": 31, "is_primary": true}, {"id": 2679089, "title": "The Call of Lourdes", "work_id": 65725, "role": "production company", "role_id": 941, "is_primary": true}], "also_known_as": "", "date_of_birth": "", "date_of_death": "", "genders": [], "languages": [], "places_of_operation": [], "biography": "", "biography_author": null, "date_of_biography": "2023-08-14T12:49:38.695112+10:00", "external_links": [], "uuid": "4d384817-078e-456a-89a0-918d60e87cc3", "source": {"name": "Vernon", "slug": "vernon"}, "source_identifier": "16192", "external_references": [], "date_modified": "2025-03-07T00:06:20.939992+11:00"}, {"id": 13451, "name": "Film Communicators", "roles_in_work": [{"id": 2679079, "title": "California fire disaster 1970", "work_id": 65721, "role": "production company", "role_id": 941, "is_primary": true}], "also_known_as": "", "date_of_birth": "", "date_of_death": "", "genders": [], "languages": [], "places_of_operation": [], "biography": "", "biography_author": null, "date_of_biography": "2023-08-11T15:10:11.164772+10:00", "external_links": [], "uuid": "b7d3a646-49c8-47a5-b442-6653cb07c4df", "source": {"name": "Vernon", "slug": "vernon"}, "source_identifier": "8199", "external_references": [], "date_modified": "2025-03-07T00:06:13.312221+11:00"}, {"id": 13449, "name": "Julian Sprio", "roles_in_work": [{"id": 2413829, "title": "Key to progress", "work_id": 69378, "role": "director", "role_id": 938, "is_primary": true}, {"id": 2644252, "title": "Calculated risk", "work_id": 65719, "role": "director", "role_id": 938, "is_primary": true}, {"id": 859233, "title": "A Tale of two shamba's", "work_id": 73481, "role": "director", "role_id": 938, "is_primary": true}], "also_known_as": "", "date_of_birth": "", "date_of_death": "", "genders": [], "languages": [], "places_of_operation": [], "biography": "", "biography_author": null, "date_of_biography": "2023-08-11T19:05:16.953128+10:00", "external_links": [], "uuid": "6a8e99ff-4f62-4a36-b442-5eb8d5e4bc60", "source": {"name": "Vernon", "slug": "vernon"}, "source_identifier": "22877", "external_references": [], "date_modified": "2025-03-05T12:15:18.028678+11:00"}, {"id": 13448, "name": "George Dunning", "roles_in_work": [{"id": 2679075, "title": "Cadet Rousselle", "work_id": 65715, "role": "director", "role_id": 938, "is_primary": true}, {"id": 1994515, "title": "Yellow Submarine", "work_id": 90445, "role": "director", "role_id": 938, "is_primary": true}, {"id": 859596, "title": "The Three blind mice", "work_id": 73770, "role": "director", "role_id": 938, "is_primary": true}, {"id": 2713919, "title": "The Flying man", "work_id": 67657, "role": "director", "role_id": 938, "is_primary": true}, {"id": 3081771, "title": "Envoyons d' l'avant nos gens. Aupre de ma blonde.", "work_id": 65963, "role": "co-director", "role_id": 959, "is_primary": true}, {"id": 2713404, "title": "Family tree", "work_id": 67398, "role": "co-director", "role_id": 959, "is_primary": true}, {"id": 3081777, "title": "Filez, filez, o mon navire. J'ai tant danse.", "work_id": 85799, "role": "co-director", "role_id": 959, "is_primary": true}, {"id": 2753454, "title": "Power train", "work_id": 98767, "role": "producer", "role_id": 1089, "is_primary": true}], "also_known_as": "", "date_of_birth": "17 NOV 1920", "date_of_death": "15 FEB 1979", "genders": [{"id": 9, "name": "Male", "slug": "male"}], "languages": [], "places_of_operation": [{"id": 36, "name": "Canada", "slug": "canada"}], "biography": "George Garnett Dunning (1920–1979) was a Canadian filmmaker and animator. He is best known for producing and directing the 1968 film Yellow Submarine. Source: Wikidata; 01/08/2023", "biography_author": null, "date_of_biography": "2025-03-17T10:25:57.830058+11:00", "external_links": [{"id": 4042, "uri": "https://en.wikipedia.org/wiki/George_Dunning"}], "uuid": "d2fc29e8-2a68-47d0-9a27-e7c14d8ef816", "source": {"name": "Vernon", "slug": "vernon"}, "source_identifier": "19585", "external_references": [{"id": 25881, "source": {"name": "Wikidata", "slug": "wikidata"}, "source_identifier": "Q340062"}, {"id": 28598, "source": {"name": "VIAF", "slug": "viaf"}, "source_identifier": "49418089"}, {"id": 28599, "source": {"name": "LOC Auth", "slug": "loc-auth"}, "source_identifier": "no99033963"}, {"id": 28600, "source": {"name": "WorldCat", "slug": "worldcat"}, "source_identifier": "lccn-no99033963"}], "date_modified": "2025-03-17T10:25:57.830343+11:00"}, {"id": 13445, "name": "John Byrd", "roles_in_work": [{"id": 2679068, "title": "Cables in the V.C.10", "work_id": 65712, "role": "producer", "role_id": 1089, "is_primary": true}, {"id": 2403080, "title": "Bridging the highways", "work_id": 90858, "role": "producer/director", "role_id": 31, "is_primary": true}], "also_known_as": "", "date_of_birth": "", "date_of_death": "", "genders": [], "languages": [], "places_of_operation": [], "biography": "", "biography_author": null, "date_of_biography": "2023-08-11T15:10:08.928192+10:00", "external_links": [], "uuid": "b288fd60-7ac2-43f5-83f2-0cad781f464f", "source": {"name": "Vernon", "slug": "vernon"}, "source_identifier": "22156", "external_references": [], "date_modified": "2025-03-07T00:06:05.097125+11:00"}, {"id": 13444, "name": "British Insulated Callender's Cables", "roles_in_work": [{"id": 2679067, "title": "Cables in the V.C.10", "work_id": 65712, "role": "production company", "role_id": 941, "is_primary": true}], "also_known_as": "", "date_of_birth": "", "date_of_death": "", "genders": [], "languages": [], "places_of_operation": [], "biography": "", "biography_author": null, "date_of_biography": "2023-08-11T15:10:08.303815+10:00", "external_links": [], "uuid": "08c9f382-dfe6-4f4f-b850-fa40a19dff25", "source": {"name": "Vernon", "slug": "vernon"}, "source_identifier": "6023", "external_references": [], "date_modified": "2025-03-07T00:06:04.519027+11:00"}, {"id": 13443, "name": "Peter Monger", "roles_in_work": [{"id": 2679059, "title": "By the seat of our pants", "work_id": 65707, "role": "director", "role_id": 938, "is_primary": true}], "also_known_as": "", "date_of_birth": "", "date_of_death": "", "genders": [], "languages": [], "places_of_operation": [], "biography": "", "biography_author": null, "date_of_biography": "2023-05-09T13:15:09.737520+10:00", "external_links": [], "uuid": "f5bb3de9-c75e-44f2-9adb-3cd9eca20a43", "source": {"name": "Vernon", "slug": "vernon"}, "source_identifier": "26650", "external_references": [{"id": 35008, "source": {"name": "Wikidata", "slug": "wikidata"}, "source_identifier": "Q121078996"}], "date_modified": "2025-03-07T00:05:57.091514+11:00"}]}