{"count": 28687, "next": "https://api.acmi.net.au/creators/?page=554", "previous": "https://api.acmi.net.au/creators/?page=552", "results": [{"id": 80053, "name": "Keet Neville", "roles_in_work": [{"id": 912818, "title": "Gifted kids", "work_id": 92924, "role": "director", "role_id": 938, "is_primary": true}], "also_known_as": "", "date_of_birth": null, "date_of_death": null, "genders": [], "languages": [], "places_of_operation": [], "biography": "", "biography_author": null, "date_of_biography": null, "external_links": [], "uuid": "377211f9-0546-4dfe-93a4-40c296494390", "source": {"name": "Vernon", "slug": "vernon"}, "source_identifier": null, "external_references": [{"id": 39227, "source": {"name": "Wikidata", "slug": "wikidata"}, "source_identifier": "Q121315133"}], "date_modified": "2023-09-05T22:03:25.261277+10:00"}, {"id": 80052, "name": "Lulu Keating", "roles_in_work": [{"id": 2219563, "title": "Enterprising women", "work_id": 92922, "role": "co-director", "role_id": 959, "is_primary": true}], "also_known_as": "", "date_of_birth": "", "date_of_death": "", "genders": [], "languages": [], "places_of_operation": [], "biography": "", "biography_author": null, "date_of_biography": "2023-05-09T16:14:24.025427+10:00", "external_links": [], "uuid": "ed7655e0-b34a-4a50-822e-ee45760224dc", "source": {"name": "Vernon", "slug": "vernon"}, "source_identifier": "24111", "external_references": [{"id": 33352, "source": {"name": "Wikidata", "slug": "wikidata"}, "source_identifier": "Q121222704"}], "date_modified": "2023-09-05T22:34:29.859180+10:00"}, {"id": 80051, "name": "John Coney", "roles_in_work": [{"id": 912842, "title": "Japan inc: lessons for North America?", "work_id": 92930, "role": "co-producer", "role_id": 915, "is_primary": true}, {"id": 2136688, "title": "Children of the tribe", "work_id": 92921, "role": "co-producer", "role_id": 915, "is_primary": true}], "also_known_as": "", "date_of_birth": "", "date_of_death": "", "genders": [], "languages": [], "places_of_operation": [], "biography": "", "biography_author": null, "date_of_biography": "2023-05-09T13:30:51.555160+10:00", "external_links": [], "uuid": "a7b9b204-7f3e-43d1-b7b7-410cdd64b96e", "source": {"name": "Vernon", "slug": "vernon"}, "source_identifier": "22182", "external_references": [{"id": 35326, "source": {"name": "Wikidata", "slug": "wikidata"}, "source_identifier": "Q121299055"}], "date_modified": "2023-09-05T21:34:31.920772+10:00"}, {"id": 80050, "name": "Fred Tabachnick", "roles_in_work": [{"id": 2335137, "title": "The Business of aging", "work_id": 92920, "role": "co-producer", "role_id": 915, "is_primary": true}], "also_known_as": "", "date_of_birth": "", "date_of_death": "", "genders": [], "languages": [], "places_of_operation": [], "biography": "", "biography_author": null, "date_of_biography": "2023-05-09T19:30:48.417548+10:00", "external_links": [], "uuid": "74389376-1e66-4262-aa7f-78e599946547", "source": {"name": "Vernon", "slug": "vernon"}, "source_identifier": "19250", "external_references": [{"id": 40963, "source": {"name": "Wikidata", "slug": "wikidata"}, "source_identifier": "Q121270653"}], "date_modified": "2023-09-05T19:52:43.603360+10:00"}, {"id": 80049, "name": "Randy Sykes", "roles_in_work": [{"id": 2335131, "title": "The Business of aging", "work_id": 92920, "role": "co-producer", "role_id": 915, "is_primary": true}], "also_known_as": "", "date_of_birth": "", "date_of_death": "", "genders": [], "languages": [], "places_of_operation": [], "biography": "", "biography_author": null, "date_of_biography": "2023-05-09T19:30:47.953600+10:00", "external_links": [], "uuid": "4563e606-7759-4cb1-9863-88cdcb4fd1a6", "source": {"name": "Vernon", "slug": "vernon"}, "source_identifier": "27122", "external_references": [{"id": 35785, "source": {"name": "Wikidata", "slug": "wikidata"}, "source_identifier": "Q121036889"}], "date_modified": "2023-09-06T00:21:15.289429+10:00"}, {"id": 80048, "name": "Dennis McGann", "roles_in_work": [{"id": 2335127, "title": "The Business of aging", "work_id": 92920, "role": "co-producer", "role_id": 915, "is_primary": true}], "also_known_as": "", "date_of_birth": "", "date_of_death": "", "genders": [], "languages": [], "places_of_operation": [], "biography": "", "biography_author": null, "date_of_biography": "2023-05-09T19:30:47.717335+10:00", "external_links": [], "uuid": "3cf19247-0731-4d49-b559-d4cff5e64c8b", "source": {"name": "Vernon", "slug": "vernon"}, "source_identifier": "18004", "external_references": [{"id": 32911, "source": {"name": "Wikidata", "slug": "wikidata"}, "source_identifier": "Q121036478"}], "date_modified": "2023-09-05T19:08:56.898481+10:00"}, {"id": 80047, "name": "Sky Works Charitable Foundation", "roles_in_work": [{"id": 2085920, "title": "All our lives", "work_id": 92918, "role": "production company", "role_id": 941, "is_primary": true}], "also_known_as": "", "date_of_birth": "", "date_of_death": "", "genders": [], "languages": [], "places_of_operation": [], "biography": "", "biography_author": null, "date_of_biography": "2023-05-09T11:56:48.004520+10:00", "external_links": [], "uuid": "2fe70b54-f34d-4f96-8c9e-299240738a93", "source": {"name": "Vernon", "slug": "vernon"}, "source_identifier": "12637", "external_references": [{"id": 42750, "source": {"name": "Wikidata", "slug": "wikidata"}, "source_identifier": "Q121034799"}], "date_modified": "2023-09-06T01:21:40.126193+10:00"}, {"id": 80046, "name": "Jack H. Skirball", "roles_in_work": [{"id": 2296577, "title": "Shadow of a doubt [DVD]", "work_id": 92917, "role": "producer", "role_id": 1089, "is_primary": true}], "also_known_as": "", "date_of_birth": "1896-06-23", "date_of_death": "1985-12-08", "genders": [{"id": 9, "name": "Male", "slug": "male"}], "languages": [], "places_of_operation": [], "biography": "Jack H. Skirball (June 23, 1896 – December 8, 1985) was an American rabbi, film producer, real estate developer and philanthropist.", "biography_author": "Wikidata", "date_of_biography": "2023-08-01T15:17:18.377493+10:00", "external_links": [{"id": 4216, "uri": "https://en.wikipedia.org/wiki/Jack_H._Skirball"}], "uuid": "0411c806-4a9e-4bab-9bd1-5ef8f7e981c6", "source": {"name": "Vernon", "slug": "vernon"}, "source_identifier": "21050", "external_references": [{"id": 25081, "source": {"name": "Wikidata", "slug": "wikidata"}, "source_identifier": "Q22019398"}, {"id": 29067, "source": {"name": "VIAF", "slug": "viaf"}, "source_identifier": "70964749"}, {"id": 29068, "source": {"name": "LOC Auth", "slug": "loc-auth"}, "source_identifier": "no94002450"}, {"id": 29069, "source": {"name": "WorldCat", "slug": "worldcat"}, "source_identifier": "lccn-no94002450"}], "date_modified": "2023-09-05T20:55:22.866596+10:00"}, {"id": 80045, "name": "Frank Lloyd Productions", "roles_in_work": [{"id": 2259601, "title": "Saboteur [DVD]", "work_id": 92910, "role": "production company", "role_id": 941, "is_primary": true}], "also_known_as": "", "date_of_birth": "", "date_of_death": "", "genders": [], "languages": [], "places_of_operation": [], "biography": "", "biography_author": null, "date_of_biography": "2023-05-09T17:26:06.201734+10:00", "external_links": [], "uuid": "269b71aa-70a8-4883-88d0-707a5616fe74", "source": {"name": "Vernon", "slug": "vernon"}, "source_identifier": "8524", "external_references": [], "date_modified": "2023-06-14T16:33:30.576250+10:00"}, {"id": 80044, "name": "Diane Nabatoff", "roles_in_work": [{"id": 2177262, "title": "Operation dumbo drop", "work_id": 95329, "role": "co-producer", "role_id": 915, "is_primary": true}, {"id": 2267254, "title": "Very bad things", "work_id": 92905, "role": "co-producer", "role_id": 915, "is_primary": true}], "also_known_as": "", "date_of_birth": null, "date_of_death": "", "genders": [{"id": 5, "name": "Female", "slug": "female"}], "languages": [], "places_of_operation": [{"id": 1, "name": "United States of America", "slug": "united-states-of-america"}], "biography": "", "biography_author": null, "date_of_biography": "2023-05-09T17:39:32.267661+10:00", "external_links": [], "uuid": "2a3faf6b-168b-443c-9099-eef414d05408", "source": {"name": "Vernon", "slug": "vernon"}, "source_identifier": "18084", "external_references": [{"id": 34040, "source": {"name": "Wikidata", "slug": "wikidata"}, "source_identifier": "Q25857968"}, {"id": 54313, "source": {"name": "VIAF", "slug": "viaf"}, "source_identifier": "163320594"}, {"id": 54314, "source": {"name": "LOC Auth", "slug": "loc-auth"}, "source_identifier": "no2003019893"}, {"id": 54315, "source": {"name": "WorldCat", "slug": "worldcat"}, "source_identifier": "lccn-no2003019893"}], "date_modified": "2023-09-05T19:11:22.523027+10:00"}]}