{"count": 28681, "next": "https://api.acmi.net.au/creators/?page=539", "previous": "https://api.acmi.net.au/creators/?page=537", "results": [{"id": 80199, "name": "Norman Sedawie", "roles_in_work": [{"id": 2298920, "title": "Showbiz goes to war", "work_id": 93256, "role": "co-producers/directors", "role_id": 628, "is_primary": true}, {"id": 2298500, "title": "Showbiz ballyhoo", "work_id": 93254, "role": "co-producers/directors", "role_id": 628, "is_primary": true}], "also_known_as": "", "date_of_birth": "", "date_of_death": "", "genders": [], "languages": [], "places_of_operation": [], "biography": "", "biography_author": null, "date_of_biography": "2023-05-09T18:33:02.368816+10:00", "external_links": [], "uuid": "206dc21d-396a-4452-b531-a017a9131786", "source": {"name": "Vernon", "slug": "vernon"}, "source_identifier": "25910", "external_references": [], "date_modified": "2023-06-14T16:33:30.576250+10:00"}, {"id": 80198, "name": "Eric Lieber", "roles_in_work": [{"id": 2327789, "title": "The American Film Institute salute to Henry Fonda", "work_id": 93248, "role": "co-producer", "role_id": 915, "is_primary": true}], "also_known_as": "", "date_of_birth": "", "date_of_death": "", "genders": [], "languages": [], "places_of_operation": [], "biography": "", "biography_author": null, "date_of_biography": "2023-05-09T19:21:36.522085+10:00", "external_links": [], "uuid": "f85d1995-84d6-4296-8719-f3b3ea7a377f", "source": {"name": "Vernon", "slug": "vernon"}, "source_identifier": "18820", "external_references": [{"id": 51170, "source": {"name": "Wikidata", "slug": "wikidata"}, "source_identifier": "Q121357845"}], "date_modified": "2023-09-05T19:34:37.111511+10:00"}, {"id": 80197, "name": "John Schofield", "roles_in_work": [{"id": 2218530, "title": "Enemy at the gates [DVD]", "work_id": 93227, "role": "co-producer", "role_id": 915, "is_primary": true}], "also_known_as": "", "date_of_birth": "", "date_of_death": "", "genders": [], "languages": [], "places_of_operation": [], "biography": "", "biography_author": null, "date_of_biography": "2023-05-09T16:08:27.208628+10:00", "external_links": [], "uuid": "95663b32-83c5-4004-9483-efc52ec5b9b6", "source": {"name": "Vernon", "slug": "vernon"}, "source_identifier": "22199", "external_references": [], "date_modified": "2023-06-14T16:33:30.576250+10:00"}, {"id": 80196, "name": "Daniel Minahan", "roles_in_work": [{"id": 2283484, "title": "Series 7", "work_id": 93226, "role": "director", "role_id": 938, "is_primary": true}], "also_known_as": "", "date_of_birth": "1962-11-30", "date_of_death": "", "genders": [{"id": 9, "name": "Male", "slug": "male"}], "languages": [{"id": 1, "name": "English", "slug": "english"}], "places_of_operation": [{"id": 1, "name": "United States of America", "slug": "united-states-of-america"}], "biography": "Daniel Minahan (born 1962) is an American television and film director and writer.", "biography_author": "Wikidata", "date_of_biography": "2023-08-01T14:32:44.707271+10:00", "external_links": [{"id": 3821, "uri": "https://en.wikipedia.org/wiki/Daniel_Minahan"}], "uuid": "97cd28e5-11c1-4368-a692-1877430d4c74", "source": {"name": "Vernon", "slug": "vernon"}, "source_identifier": "692", "external_references": [{"id": 26812, "source": {"name": "Wikidata", "slug": "wikidata"}, "source_identifier": "Q3701680"}, {"id": 27995, "source": {"name": "VIAF", "slug": "viaf"}, "source_identifier": "21402471"}, {"id": 27996, "source": {"name": "LOC Auth", "slug": "loc-auth"}, "source_identifier": "n96038108"}, {"id": 27997, "source": {"name": "WorldCat", "slug": "worldcat"}, "source_identifier": "lccn-n96038108"}], "date_modified": "2023-09-05T18:51:45.653776+10:00"}, {"id": 80195, "name": "Joana Vicente", "roles_in_work": [{"id": 2140371, "title": "Coffee and cigarettes", "work_id": 95037, "role": "co-producer", "role_id": 915, "is_primary": true}, {"id": 2283478, "title": "Series 7", "work_id": 93226, "role": "co-producer", "role_id": 915, "is_primary": true}], "also_known_as": "", "date_of_birth": "1963-01-01", "date_of_death": "", "genders": [{"id": 5, "name": "Female", "slug": "female"}], "languages": [{"id": 1, "name": "English", "slug": "english"}], "places_of_operation": [{"id": 1, "name": "United States of America", "slug": "united-states-of-america"}], "biography": "Joana Vicente is a Portuguese independent movie producer and executive. A prominent figure in the New York film industry, Vicente has produced over forty films with her producing partner and husband Jason Kliot. In 1999 Vicente and Kliot produced Tony Bui's feature debut, Three Seasons, which took the three top awards at the Sundance Film Festival, including the Audience Award and the Grand Jury Prize. Vicente and Kliot have since worked with directors such as Steven Soderbergh, Brian De Palma, Hal Hartley, Nicole Holofcener, Jim Jarmusch, and Alex Gibney.Vicente graduated from the Catholic University of Portugal with a Licenciatura degree in Philosophy. She began her career as the press attaché for the Portuguese delegate (and former Prime Minister of Portugal) at the European Parliament, and then as a radio news producer for the United Nations.\nFrom December 2009 to August 2018, Vicente served as the Executive Director of Independent Filmmaker Project, the nation's oldest and largest organization of independent filmmakers. Under Vicente's leadership, the Independent Filmmaker Project was bestowed with the honor of developing and operating the Made in NY Media Center after an request for proposals was issued by the New York City Mayor's Office of Media and Entertainment and the New York City Economic Development Corporation. Opened in Dumbo, Brooklyn in October 2013, facilities include an incubator and community workspace co-working spaces, a library, offices for anchor tenants, classrooms designed to host a wide array of educational programs such as hands-on workshops, live demonstrations and expert seminars, a media arts gallery showcasing cutting-edge, new-media storytelling installations from artists within the international art and filmmaking community, a 72-seat screening room for exhibiting and sharing the latest work from the center and around the world, and the 1,600-square-foot café Cuper for casual collaboration and discussion in a social-eating setting. The state-of-the-art media center aims to bring together professionals from the film, television, advertising, new media, gaming, marketing and branding industries for collaboration and new opportunities.In 2013, Vicente was named to Variety's Women's Impact List and Marie Claire's New Guard power list. She also served on the World Cinema Jury for the 2013 Sundance Film Festival. In 2014, she was named one of the Brooklyn Magazine's 100 Most Influential People in Brooklyn Culture. In April of that year, Vicente gave a talk at the TedxLIU conference \"The Innovator Within: Redefining Entrepreneurship\" entitled \"Keep Walking: How to achieve your goals or Crossing the Street in Saigon: A Metaphor for the Young Entrepreneur\".In 2018, Vicente succeeded Piers Handling as executive director of the Toronto International Film Festival. Following the 2021 Toronto International Film Festival, she stepped down from that role to take a job as CEO of the Sundance Institute.", "biography_author": "Wikidata", "date_of_biography": "2023-08-01T15:32:55.088199+10:00", "external_links": [{"id": 4346, "uri": "https://en.wikipedia.org/wiki/Joana_Vicente"}], "uuid": "9684516d-493a-4361-b03b-b37bf360360e", "source": {"name": "Vernon", "slug": "vernon"}, "source_identifier": "21991", "external_references": [{"id": 26814, "source": {"name": "Wikidata", "slug": "wikidata"}, "source_identifier": "Q6205680"}, {"id": 29421, "source": {"name": "VIAF", "slug": "viaf"}, "source_identifier": "78466124"}, {"id": 29422, "source": {"name": "LOC Auth", "slug": "loc-auth"}, "source_identifier": "no2003046241"}, {"id": 29423, "source": {"name": "WorldCat", "slug": "worldcat"}, "source_identifier": "lccn-no2003046241"}], "date_modified": "2023-09-05T21:28:33.186753+10:00"}, {"id": 80194, "name": "Jason Kliot", "roles_in_work": [{"id": 2140374, "title": "Coffee and cigarettes", "work_id": 95037, "role": "co-producer", "role_id": 915, "is_primary": true}, {"id": 2283474, "title": "Series 7", "work_id": 93226, "role": "co-producer", "role_id": 915, "is_primary": true}], "also_known_as": "", "date_of_birth": "1963-10-21", "date_of_death": "", "genders": [{"id": 9, "name": "Male", "slug": "male"}], "languages": [], "places_of_operation": [{"id": 1, "name": "United States of America", "slug": "united-states-of-america"}], "biography": "Jason Kliot (born 1963) is an American independent film producer based in New York. Kliot emerged with the American indie wave of the 1990s, producing alongside his wife and business partner Joana Vicente. In 1995 Kliot and Vicente associate produced Todd Solondz's feature debut, Welcome to the Dollhouse, which won the Sundance Grand Jury Prize. Kliot and Vicente have since worked with directors such as Steven Soderbergh, Brian De Palma, Hal Hartley, Nicole Holofcener, Jim Jarmusch, and Alex Gibney.\nKliot was also one of the founders of City Harvest, the first food redistribution organization in the United States. He now serves on the Board of City Harvest.\nIn 2010 Kliot was a jury member at the Sundance Film Festival.", "biography_author": "Wikidata", "date_of_biography": "2023-08-01T15:24:43.413996+10:00", "external_links": [{"id": 4277, "uri": "https://en.wikipedia.org/wiki/Jason_Kliot"}], "uuid": "dd91d360-4f3a-4019-acf5-69ee470f0738", "source": {"name": "Vernon", "slug": "vernon"}, "source_identifier": "21492", "external_references": [{"id": 26804, "source": {"name": "Wikidata", "slug": "wikidata"}, "source_identifier": "Q6162867"}, {"id": 29238, "source": {"name": "VIAF", "slug": "viaf"}, "source_identifier": "2154865"}, {"id": 29239, "source": {"name": "LOC Auth", "slug": "loc-auth"}, "source_identifier": "no2003046264"}, {"id": 29240, "source": {"name": "WorldCat", "slug": "worldcat"}, "source_identifier": "lccn-no2003046264"}], "date_modified": "2023-09-05T21:09:31.351782+10:00"}, {"id": 80193, "name": "Open City Films", "roles_in_work": [{"id": 2283471, "title": "Series 7", "work_id": 93226, "role": "production company", "role_id": 941, "is_primary": true}], "also_known_as": "", "date_of_birth": "", "date_of_death": "", "genders": [], "languages": [], "places_of_operation": [], "biography": "", "biography_author": null, "date_of_biography": "2023-05-09T18:05:33.197320+10:00", "external_links": [], "uuid": "f6132d23-60d1-4802-9a16-0ade18eac509", "source": {"name": "Vernon", "slug": "vernon"}, "source_identifier": "11145", "external_references": [{"id": 33310, "source": {"name": "Wikidata", "slug": "wikidata"}, "source_identifier": "Q121143977"}], "date_modified": "2023-09-05T23:37:15.055925+10:00"}, {"id": 80192, "name": "Bill Gleason", "roles_in_work": [{"id": 913361, "title": "Hollywood on parade", "work_id": 93222, "role": "co-producers/directors", "role_id": 628, "is_primary": true}], "also_known_as": "", "date_of_birth": null, "date_of_death": null, "genders": [], "languages": [], "places_of_operation": [], "biography": "", "biography_author": null, "date_of_biography": null, "external_links": [], "uuid": "40290ed6-7abf-4669-8b39-f4ae02de6c10", "source": {"name": "Vernon", "slug": "vernon"}, "source_identifier": null, "external_references": [], "date_modified": "2023-06-14T16:33:30.576250+10:00"}, {"id": 80191, "name": "Bud Friedgen", "roles_in_work": [{"id": 918381, "title": "Hollywood: the dream factory", "work_id": 96343, "role": "co-producer", "role_id": 915, "is_primary": true}, {"id": 913360, "title": "Hollywood on parade", "work_id": 93222, "role": "co-producers/directors", "role_id": 628, "is_primary": true}], "also_known_as": "", "date_of_birth": "1937-03-10", "date_of_death": "2012-06-24", "genders": [{"id": 9, "name": "Male", "slug": "male"}], "languages": [{"id": 1, "name": "English", "slug": "english"}], "places_of_operation": [], "biography": "", "biography_author": null, "date_of_biography": null, "external_links": [], "uuid": "99688646-884c-4384-8c31-c86651580a8a", "source": {"name": "Vernon", "slug": "vernon"}, "source_identifier": null, "external_references": [{"id": 37547, "source": {"name": "Wikidata", "slug": "wikidata"}, "source_identifier": "Q110225051"}, {"id": 54120, "source": {"name": "VIAF", "slug": "viaf"}, "source_identifier": "300048896"}, {"id": 54121, "source": {"name": "LOC Auth", "slug": "loc-auth"}, "source_identifier": "n94092445"}], "date_modified": "2023-09-05T18:15:36.924136+10:00"}, {"id": 80190, "name": "Mark S Gilman Jr", "roles_in_work": [{"id": 814653, "title": "The Making of the Stooges", "work_id": 93218, "role": "producer/director", "role_id": 31, "is_primary": true}], "also_known_as": "", "date_of_birth": null, "date_of_death": null, "genders": [], "languages": [], "places_of_operation": [], "biography": "", "biography_author": null, "date_of_biography": null, "external_links": [], "uuid": "57d16359-c37f-40f3-8687-fddda2bacb46", "source": {"name": "Vernon", "slug": "vernon"}, "source_identifier": null, "external_references": [{"id": 51284, "source": {"name": "Wikidata", "slug": "wikidata"}, "source_identifier": "Q121360969"}], "date_modified": "2023-09-05T22:47:04.818972+10:00"}]}