{"count": 28687, "next": "https://api.acmi.net.au/creators/?page=1337", "previous": "https://api.acmi.net.au/creators/?page=1335", "results": [{"id": 38342, "name": "Ram Films", "roles_in_work": [{"id": 2750379, "title": "The Small farm in America", "work_id": 97295, "role": "production company", "role_id": 941, "is_primary": true}], "also_known_as": "", "date_of_birth": "", "date_of_death": "", "genders": [], "languages": [], "places_of_operation": [], "biography": "", "biography_author": null, "date_of_biography": "2023-08-14T11:34:37.207948+10:00", "external_links": [], "uuid": "4db537fd-126c-492f-892f-07492ed10e72", "source": {"name": "Vernon", "slug": "vernon"}, "source_identifier": "11846", "external_references": [], "date_modified": "2025-03-13T00:21:17.469520+11:00"}, {"id": 38340, "name": "Rebecca Eaton", "roles_in_work": [{"id": 2750363, "title": "Diana: amputee", "work_id": 97284, "role": "co-producer", "role_id": 915, "is_primary": true}, {"id": 2750368, "title": "People you'd like to know: Mark", "work_id": 97288, "role": "producer", "role_id": 1089, "is_primary": true}], "also_known_as": "", "date_of_birth": null, "date_of_death": null, "genders": [], "languages": [], "places_of_operation": [], "biography": "", "biography_author": null, "date_of_biography": null, "external_links": [], "uuid": "2b6a3959-390e-44d9-bc05-365254ad00d8", "source": {"name": "Vernon", "slug": "vernon"}, "source_identifier": "27211", "external_references": [], "date_modified": "2025-03-13T00:21:05.011481+11:00"}, {"id": 38339, "name": "Janet Weaver", "roles_in_work": [{"id": 2750362, "title": "Diana: amputee", "work_id": 97284, "role": "co-producer", "role_id": 915, "is_primary": true}, {"id": 2750360, "title": "People you'd like to know: Dee: Larsen's Syndrome", "work_id": 97283, "role": "producer", "role_id": 1089, "is_primary": true}, {"id": 2750365, "title": "People you'd like to know: John: cystic fibrosis", "work_id": 97286, "role": "producer", "role_id": 1089, "is_primary": true}, {"id": 2750370, "title": "People you'd like to know: Paige", "work_id": 97289, "role": "producer", "role_id": 1089, "is_primary": true}], "also_known_as": "", "date_of_birth": null, "date_of_death": null, "genders": [], "languages": [], "places_of_operation": [], "biography": "", "biography_author": null, "date_of_biography": null, "external_links": [], "uuid": "47235811-cf97-417c-a02b-aa983395a2dd", "source": {"name": "Vernon", "slug": "vernon"}, "source_identifier": "21450", "external_references": [], "date_modified": "2025-03-13T00:21:08.670439+11:00"}, {"id": 38338, "name": "Derek W. Muirden", "roles_in_work": [{"id": 2750353, "title": "Cheechako's first day", "work_id": 97274, "role": "director", "role_id": 938, "is_primary": true}], "also_known_as": "", "date_of_birth": null, "date_of_death": null, "genders": [], "languages": [], "places_of_operation": [], "biography": "", "biography_author": null, "date_of_biography": null, "external_links": [], "uuid": "82d8c6cd-bf6b-4fe7-9f1e-2a07ae3c997a", "source": {"name": "Vernon", "slug": "vernon"}, "source_identifier": "18046", "external_references": [], "date_modified": "2025-03-13T00:20:53.791557+11:00"}, {"id": 38337, "name": "Michael Switzer", "roles_in_work": [{"id": 2464692, "title": "Partners", "work_id": 97269, "role": "director", "role_id": 938, "is_primary": true}], "also_known_as": "", "date_of_birth": "", "date_of_death": "", "genders": [], "languages": [], "places_of_operation": [], "biography": "", "biography_author": null, "date_of_biography": "2023-08-14T10:17:17.492303+10:00", "external_links": [], "uuid": "c85e858b-0bf2-4351-9459-2dbeb3af1b41", "source": {"name": "Vernon", "slug": "vernon"}, "source_identifier": "25238", "external_references": [], "date_modified": "2023-08-14T10:17:17.492598+10:00"}, {"id": 38336, "name": "WNVT", "roles_in_work": [{"id": 2464691, "title": "Partners", "work_id": 97269, "role": "production company", "role_id": 941, "is_primary": true}], "also_known_as": "", "date_of_birth": "", "date_of_death": "", "genders": [], "languages": [], "places_of_operation": [], "biography": "", "biography_author": null, "date_of_biography": "2023-08-14T10:17:16.869271+10:00", "external_links": [], "uuid": "4dd6f1e9-ab8f-4500-bb33-be66783aa61d", "source": {"name": "Vernon", "slug": "vernon"}, "source_identifier": "14407", "external_references": [], "date_modified": "2023-08-14T10:17:16.869581+10:00"}, {"id": 38335, "name": "Richard Even", "roles_in_work": [{"id": 2402487, "title": "Because it's just me", "work_id": 97268, "role": "director", "role_id": 938, "is_primary": true}], "also_known_as": "", "date_of_birth": "", "date_of_death": "", "genders": [], "languages": [], "places_of_operation": [], "biography": "", "biography_author": null, "date_of_biography": "2023-08-11T14:47:09.881812+10:00", "external_links": [], "uuid": "7ea4c7a1-47ec-4c6d-916d-d015679fbcf9", "source": {"name": "Vernon", "slug": "vernon"}, "source_identifier": "27376", "external_references": [], "date_modified": "2023-08-11T14:47:09.882122+10:00"}, {"id": 38334, "name": "Jan E Skrentry", "roles_in_work": [{"id": 2402486, "title": "Because it's just me", "work_id": 97268, "role": "producer", "role_id": 1089, "is_primary": true}], "also_known_as": "", "date_of_birth": "", "date_of_death": "", "genders": [], "languages": [], "places_of_operation": [], "biography": "", "biography_author": null, "date_of_biography": "2023-08-11T14:47:09.214467+10:00", "external_links": [], "uuid": "4e2a15b4-1394-4571-afcd-f0cef6b5b15a", "source": {"name": "Vernon", "slug": "vernon"}, "source_identifier": "21370", "external_references": [], "date_modified": "2023-08-11T14:47:09.214706+10:00"}, {"id": 38333, "name": "WNVT Northern Virginia", "roles_in_work": [{"id": 2402485, "title": "Because it's just me", "work_id": 97268, "role": "production company", "role_id": 941, "is_primary": true}], "also_known_as": "", "date_of_birth": "", "date_of_death": "", "genders": [], "languages": [], "places_of_operation": [], "biography": "", "biography_author": null, "date_of_biography": "2023-08-11T14:47:08.599668+10:00", "external_links": [], "uuid": "07df5886-7897-40c4-9406-cd91b4898fff", "source": {"name": "Vernon", "slug": "vernon"}, "source_identifier": "14408", "external_references": [], "date_modified": "2023-08-11T14:47:08.599908+10:00"}, {"id": 38329, "name": "Parrot Productions", "roles_in_work": [{"id": 2750335, "title": "The Psychic parrot", "work_id": 97262, "role": "production company", "role_id": 941, "is_primary": true}], "also_known_as": "", "date_of_birth": null, "date_of_death": null, "genders": [], "languages": [], "places_of_operation": [], "biography": "", "biography_author": null, "date_of_biography": null, "external_links": [], "uuid": "c9e21fb4-470a-4d90-a95f-b33c30de749f", "source": {"name": "Vernon", "slug": "vernon"}, "source_identifier": "11307", "external_references": [], "date_modified": "2025-03-13T00:20:37.815720+11:00"}]}