{"count": 28683, "next": "https://api.acmi.net.au/creators/?page=2855", "previous": "https://api.acmi.net.au/creators/?page=2853", "results": [{"id": 6635, "name": "Jasmin De Wolf", "roles_in_work": [{"id": 2709100, "title": "The Pyre of Triune", "work_id": 114017, "role": "creator", "role_id": 968, "is_primary": true}, {"id": 2618890, "title": "Gum", "work_id": 108085, "role": "creator", "role_id": 968, "is_primary": true}, {"id": 2709102, "title": "The Pyre of Triune", "work_id": 114017, "role": "narrator", "role_id": 499, "is_primary": false}], "also_known_as": "", "date_of_birth": "", "date_of_death": "", "genders": [], "languages": [], "places_of_operation": [], "biography": "", "biography_author": null, "date_of_biography": "2023-05-09T20:08:10.798899+10:00", "external_links": [], "uuid": "cfbf1057-cace-4f7d-b0f2-a2a495f0aed5", "source": {"name": "Vernon", "slug": "vernon"}, "source_identifier": "110153", "external_references": [], "date_modified": "2025-03-11T22:52:56.289123+11:00"}, {"id": 6632, "name": "Wendy Tyrer", "roles_in_work": [{"id": 2709091, "title": "The Albatross", "work_id": 108079, "role": "director", "role_id": 938, "is_primary": true}, {"id": 2709293, "title": "The Washing machine", "work_id": 108107, "role": "creator", "role_id": 968, "is_primary": true}, {"id": 2709093, "title": "The Albatross", "work_id": 108079, "role": "creator", "role_id": 968, "is_primary": true}, {"id": 2709090, "title": "The Albatross", "work_id": 108079, "role": "animator", "role_id": 497, "is_primary": false}, {"id": 2709151, "title": "Essence of Terror", "work_id": 114015, "role": "titles", "role_id": 508, "is_primary": false}, {"id": 2709092, "title": "The Albatross", "work_id": 108079, "role": "writer", "role_id": 939, "is_primary": true}], "also_known_as": "", "date_of_birth": "", "date_of_death": "", "genders": [], "languages": [], "places_of_operation": [], "biography": "", "biography_author": null, "date_of_biography": "2023-05-09T20:08:40.640332+10:00", "external_links": [], "uuid": "a156a641-0e03-42db-ae8a-1aa65a50fac2", "source": {"name": "Vernon", "slug": "vernon"}, "source_identifier": "110149", "external_references": [{"id": 33309, "source": {"name": "Wikidata", "slug": "wikidata"}, "source_identifier": "Q121299132"}], "date_modified": "2025-03-11T22:57:38.555848+11:00"}, {"id": 6631, "name": "Dara Birnbaum", "roles_in_work": [{"id": 2618884, "title": "Technology/transformation: Wonder Woman", "work_id": 114023, "role": "creator", "role_id": 968, "is_primary": true}], "also_known_as": "", "date_of_birth": "", "date_of_death": "", "genders": [], "languages": [], "places_of_operation": [], "biography": "", "biography_author": null, "date_of_biography": "2023-08-14T10:58:36.771111+10:00", "external_links": [], "uuid": "3aa25859-a7d6-41c6-ae4f-d8fd395ec028", "source": {"name": "Vernon", "slug": "vernon"}, "source_identifier": "110474", "external_references": [], "date_modified": "2025-02-26T22:59:12.953100+11:00"}, {"id": 6630, "name": "Janice Loeb", "roles_in_work": [{"id": 1814282, "title": "[The Quiet one]", "work_id": 89839, "role": "producer", "role_id": 1089, "is_primary": true}], "also_known_as": "", "date_of_birth": "1902-12-06", "date_of_death": "1996-02-18", "genders": [{"id": 5, "name": "Female", "slug": "female"}], "languages": [], "places_of_operation": [{"id": 1, "name": "United States of America", "slug": "united-states-of-america"}], "biography": "Janice Loeb (December 6, 1913 – February 18, 1996) was an American cinematographer, screenwriter, film director and producer. She was best known for her work in the documentary films In the Street (1948) and The Quiet One (1948). She was nominated for two Academy Awards for the latter, becoming the first woman to be nominated in the category of Best Documentary Feature.\n\n", "biography_author": "Wikidata", "date_of_biography": "2022-05-19T11:53:46.835062+10:00", "external_links": [{"id": 2330, "uri": "https://en.wikipedia.org/wiki/Janice_Loeb"}], "uuid": "fd208846-b2bb-481c-a7bd-6e6933907968", "source": {"name": "Vernon", "slug": "vernon"}, "source_identifier": "110473", "external_references": [{"id": 9994, "source": {"name": "Wikidata", "slug": "wikidata"}, "source_identifier": "Q6513971"}, {"id": 9995, "source": {"name": "VIAF", "slug": "viaf"}, "source_identifier": "3191149198216274940008"}, {"id": 9996, "source": {"name": "WorldCat", "slug": "worldcat"}, "source_identifier": "viaf-3191149198216274940008"}], "date_modified": "2023-09-13T12:30:17.553447+10:00"}, {"id": 6629, "name": "James Agee", "roles_in_work": [{"id": 2749962, "title": "In the street", "work_id": 97066, "role": "co-director", "role_id": 959, "is_primary": true}, {"id": 1997058, "title": "The Night of the hunter [DVD]", "work_id": 93109, "role": "writer", "role_id": 939, "is_primary": true}, {"id": 2327022, "title": "The African Queen (Captioned)", "work_id": 82756, "role": "writer", "role_id": 939, "is_primary": true}, {"id": 876090, "title": "[The Quiet one]", "work_id": 89839, "role": "writer", "role_id": 939, "is_primary": true}], "also_known_as": "James Rufus Agee", "date_of_birth": "27 NOV 1909", "date_of_death": "16 MAY 1955", "genders": [{"id": 9, "name": "Male", "slug": "male"}], "languages": [{"id": 1, "name": "English", "slug": "english"}], "places_of_operation": [{"id": 1, "name": "United States of America", "slug": "united-states-of-america"}], "biography": "James Rufus Agee ( AY-jee; November 27, 1909 – May 16, 1955) was an American novelist, journalist, poet, screenwriter and film critic. In the 1940s, writing for Time Magazine, he was one of the most influential film critics in the United States. His autobiographical novel, A Death in the Family (1957), won the author a posthumous 1958 Pulitzer Prize. Agee is also known as a co-writer of the book Let Us Now Praise Famous Men and as the screenwriter of the film classics The African Queen and The Night of the Hunter. Source: Wikidata; 01/08/2023", "biography_author": null, "date_of_biography": "2025-03-13T00:11:13.164376+11:00", "external_links": [{"id": 4244, "uri": "https://en.wikipedia.org/wiki/James_Agee"}], "uuid": "4fc3a6de-5067-4977-a11c-60a50e2b8786", "source": {"name": "Vernon", "slug": "vernon"}, "source_identifier": "110472", "external_references": [{"id": 25894, "source": {"name": "Wikidata", "slug": "wikidata"}, "source_identifier": "Q352963"}, {"id": 29149, "source": {"name": "VIAF", "slug": "viaf"}, "source_identifier": "46756190"}, {"id": 29150, "source": {"name": "LOC Auth", "slug": "loc-auth"}, "source_identifier": "n79039544"}, {"id": 29151, "source": {"name": "WorldCat", "slug": "worldcat"}, "source_identifier": "lccn-n79039544"}], "date_modified": "2025-03-13T00:11:13.164700+11:00"}, {"id": 6628, "name": "Helen Levitt", "roles_in_work": [{"id": 2749961, "title": "In the street", "work_id": 97066, "role": "co-director", "role_id": 959, "is_primary": true}, {"id": 2406767, "title": "Emotions of everyday living: the steps of age", "work_id": 73194, "role": "producer", "role_id": 1089, "is_primary": true}], "also_known_as": "", "date_of_birth": "", "date_of_death": "", "genders": [], "languages": [], "places_of_operation": [], "biography": "", "biography_author": null, "date_of_biography": "2023-08-11T16:21:15.539896+10:00", "external_links": [], "uuid": "7ed58ad0-4953-441e-9244-59f4580f0ca7", "source": {"name": "Vernon", "slug": "vernon"}, "source_identifier": "110176", "external_references": [], "date_modified": "2025-03-13T00:11:12.572247+11:00"}, {"id": 6623, "name": "Craig Brooks", "roles_in_work": [{"id": 2709183, "title": "Flare", "work_id": 108090, "role": "director", "role_id": 938, "is_primary": true}, {"id": 2709128, "title": "Washing machine circa 1522", "work_id": 108084, "role": "director", "role_id": 938, "is_primary": true}, {"id": 2709182, "title": "Flare", "work_id": 108090, "role": "creator", "role_id": 968, "is_primary": true}, {"id": 2709126, "title": "Washing machine circa 1522", "work_id": 108084, "role": "creator", "role_id": 968, "is_primary": true}, {"id": 2709127, "title": "Washing machine circa 1522", "work_id": 108084, "role": "animator", "role_id": 497, "is_primary": false}, {"id": 2709184, "title": "Flare", "work_id": 108090, "role": "animator", "role_id": 497, "is_primary": false}, {"id": 2709026, "title": "Talent nite", "work_id": 108071, "role": "animator", "role_id": 497, "is_primary": false}, {"id": 2709185, "title": "Flare", "work_id": 108090, "role": "script", "role_id": 962, "is_primary": false}, {"id": 2709129, "title": "Washing machine circa 1522", "work_id": 108084, "role": "script", "role_id": 962, "is_primary": false}], "also_known_as": "", "date_of_birth": "", "date_of_death": "", "genders": [], "languages": [], "places_of_operation": [], "biography": "", "biography_author": null, "date_of_biography": "2023-05-09T20:08:27.200588+10:00", "external_links": [], "uuid": "cb8f9186-dc13-4324-a4d9-242e9ac65ed6", "source": {"name": "Vernon", "slug": "vernon"}, "source_identifier": "110161", "external_references": [{"id": 32561, "source": {"name": "Wikidata", "slug": "wikidata"}, "source_identifier": "Q121035123"}], "date_modified": "2025-03-11T22:55:06.398752+11:00"}, {"id": 6617, "name": "John Rowdon", "roles_in_work": [{"id": 2709036, "title": "Penguins off the page", "work_id": 108072, "role": "director", "role_id": 938, "is_primary": true}, {"id": 2709042, "title": "Penguins off the page", "work_id": 108072, "role": "creator", "role_id": 968, "is_primary": true}, {"id": 2708931, "title": "Private & confidential box", "work_id": 108063, "role": "creator", "role_id": 968, "is_primary": true}, {"id": 2709034, "title": "Penguins off the page", "work_id": 108072, "role": "animator", "role_id": 497, "is_primary": false}, {"id": 2708933, "title": "Private & confidential box", "work_id": 108063, "role": "animator", "role_id": 497, "is_primary": false}, {"id": 2709039, "title": "Penguins off the page", "work_id": 108072, "role": "designer", "role_id": 495, "is_primary": false}, {"id": 2709038, "title": "Penguins off the page", "work_id": 108072, "role": "writer", "role_id": 939, "is_primary": true}], "also_known_as": "", "date_of_birth": "", "date_of_death": "", "genders": [], "languages": [], "places_of_operation": [], "biography": "", "biography_author": null, "date_of_biography": "2023-05-09T19:35:45.251761+10:00", "external_links": [], "uuid": "c0d2d003-a645-4612-b01f-532cf8641440", "source": {"name": "Vernon", "slug": "vernon"}, "source_identifier": "110172", "external_references": [{"id": 42553, "source": {"name": "Wikidata", "slug": "wikidata"}, "source_identifier": "Q121337712"}], "date_modified": "2025-03-11T22:51:25.723126+11:00"}, {"id": 6616, "name": "Nicole McKinnon", "roles_in_work": [{"id": 2708921, "title": "Twinkle twinkle", "work_id": 108062, "role": "creator", "role_id": 968, "is_primary": true}, {"id": 2709023, "title": "Talent nite", "work_id": 108071, "role": "creator", "role_id": 968, "is_primary": true}, {"id": 2711002, "title": "Writers' block", "work_id": 109089, "role": "creator", "role_id": 968, "is_primary": true}, {"id": 2708919, "title": "Twinkle twinkle", "work_id": 108062, "role": "animator", "role_id": 497, "is_primary": false}, {"id": 916099, "title": "It's like that", "work_id": 94565, "role": "co-director", "role_id": 959, "is_primary": true}, {"id": 916091, "title": "It's like that", "work_id": 94565, "role": "co-producer", "role_id": 915, "is_primary": true}, {"id": 2708917, "title": "Twinkle twinkle", "work_id": 108062, "role": "writer", "role_id": 939, "is_primary": true}, {"id": 2709025, "title": "Talent nite", "work_id": 108071, "role": "writer", "role_id": 939, "is_primary": true}], "also_known_as": "", "date_of_birth": "", "date_of_death": "", "genders": [], "languages": [], "places_of_operation": [], "biography": "Nicole has worked as a freelance animator, illustrator and web editor. At the time of writing she teaches Animation and Concept Development at the Department of CReative Media, RMIT.\n\nNicole is also a founding member of the Southern Ladies Animation Group (SLAG).", "biography_author": null, "date_of_biography": "2025-03-11T23:44:28.257098+11:00", "external_links": [], "uuid": "522f0ebb-6cd4-44ae-9907-43f7feae7314", "source": {"name": "Vernon", "slug": "vernon"}, "source_identifier": "112305", "external_references": [{"id": 35138, "source": {"name": "Wikidata", "slug": "wikidata"}, "source_identifier": "Q121126414"}], "date_modified": "2025-03-11T23:44:28.257328+11:00"}, {"id": 6614, "name": "Diana Janicki", "roles_in_work": [{"id": 2708896, "title": "Metamorphosis: DJ", "work_id": 108060, "role": "creator", "role_id": 968, "is_primary": true}, {"id": 2708903, "title": "Nice day", "work_id": 108061, "role": "creator", "role_id": 968, "is_primary": true}, {"id": 2708898, "title": "Metamorphosis: DJ", "work_id": 108060, "role": "animator", "role_id": 497, "is_primary": false}], "also_known_as": "", "date_of_birth": "", "date_of_death": "", "genders": [], "languages": [], "places_of_operation": [], "biography": "", "biography_author": null, "date_of_biography": "2023-05-09T20:08:11.943162+10:00", "external_links": [], "uuid": "8627ee04-7169-430a-bf9f-3ff087a34c3b", "source": {"name": "Vernon", "slug": "vernon"}, "source_identifier": "110138", "external_references": [], "date_modified": "2025-03-11T22:49:28.533800+11:00"}]}