{"count": 28687, "next": "https://api.acmi.net.au/creators/?page=2074", "previous": "https://api.acmi.net.au/creators/?page=2072", "results": [{"id": 21109, "name": "Public Art Films", "roles_in_work": [{"id": 2316555, "title": "Style wars", "work_id": 78194, "role": "production company", "role_id": 941, "is_primary": true}], "also_known_as": "", "date_of_birth": "", "date_of_death": "", "genders": [], "languages": [], "places_of_operation": [], "biography": "", "biography_author": null, "date_of_biography": "2023-05-09T19:05:19.037338+10:00", "external_links": [], "uuid": "ff0e0c3b-b0bb-40ca-aa78-b255fe0d26db", "source": {"name": "Vernon", "slug": "vernon"}, "source_identifier": "11728", "external_references": [{"id": 38926, "source": {"name": "Wikidata", "slug": "wikidata"}, "source_identifier": "Q121091104"}], "date_modified": "2023-09-06T00:14:53.582354+10:00"}, {"id": 21108, "name": "Edwin Morrisby", "roles_in_work": [{"id": 2401701, "title": "Australians at the Olympics", "work_id": 81937, "role": "director", "role_id": 938, "is_primary": true}, {"id": 1904134, "title": "Gold Silver and Bronze", "work_id": 78192, "role": "director", "role_id": 938, "is_primary": true}, {"id": 2749720, "title": "The Vanished vikings. Part 2: Where did they go?", "work_id": 96941, "role": "producer", "role_id": 1089, "is_primary": true}, {"id": 1808374, "title": "The Vanished vikings. Part 1: Erik the Red", "work_id": 96940, "role": "producer", "role_id": 1089, "is_primary": true}, {"id": 2751850, "title": "Australia's first foreign war: the Waikato", "work_id": 98013, "role": "producer", "role_id": 1089, "is_primary": true}], "also_known_as": "", "date_of_birth": "", "date_of_death": "", "genders": [], "languages": [], "places_of_operation": [], "biography": "", "biography_author": null, "date_of_biography": "2023-08-11T14:30:13.562643+10:00", "external_links": [], "uuid": "ab18220d-9d82-4c03-8141-4e0afe414595", "source": {"name": "Vernon", "slug": "vernon"}, "source_identifier": "18642", "external_references": [{"id": 40187, "source": {"name": "Wikidata", "slug": "wikidata"}, "source_identifier": "Q120518188"}], "date_modified": "2025-03-13T00:51:56.207503+11:00"}, {"id": 21107, "name": "Australian Institute of Multicultural Affairs", "roles_in_work": [{"id": 900362, "title": "The Migrant experience. Parts 1 and 2 (Captioned)", "work_id": 81349, "role": "production company", "role_id": 941, "is_primary": true}, {"id": 900341, "title": "The Migrant experience. Parts 3 and 4 (Captioned)", "work_id": 81336, "role": "production company", "role_id": 941, "is_primary": true}, {"id": 2758853, "title": "Growing pains", "work_id": 78185, "role": "production company", "role_id": 941, "is_primary": true}, {"id": 2758858, "title": "From gaol to gentry", "work_id": 78188, "role": "production company", "role_id": 941, "is_primary": true}, {"id": 900412, "title": "The Migrant experience. Parts 5 and 6 (Captioned)", "work_id": 81377, "role": "production company", "role_id": 941, "is_primary": true}, {"id": 2779836, "title": "Working", "work_id": 98418, "role": "production company", "role_id": 941, "is_primary": true}, {"id": 832603, "title": "Destination Australia", "work_id": 99030, "role": "production company", "role_id": 941, "is_primary": true}], "also_known_as": "", "date_of_birth": "", "date_of_death": "", "genders": [], "languages": [], "places_of_operation": [], "biography": "", "biography_author": null, "date_of_biography": "2023-05-09T18:44:38.640507+10:00", "external_links": [], "uuid": "68601655-e350-42ee-a031-788990374dea", "source": {"name": "Vernon", "slug": "vernon"}, "source_identifier": "4658", "external_references": [], "date_modified": "2025-03-14T19:04:34.586026+11:00"}, {"id": 21106, "name": "Dale Bromley", "roles_in_work": [{"id": 2374037, "title": "A Year of Achievement", "work_id": 78178, "role": "director", "role_id": 938, "is_primary": true}, {"id": 1904132, "title": "The Timeless force", "work_id": 78180, "role": "director", "role_id": 938, "is_primary": true}], "also_known_as": "", "date_of_birth": "", "date_of_death": "", "genders": [], "languages": [], "places_of_operation": [], "biography": "", "biography_author": null, "date_of_biography": "2023-07-05T03:50:20.214656+10:00", "external_links": [], "uuid": "4d8b794a-d790-4988-80b8-5e3319402e9b", "source": {"name": "Vernon", "slug": "vernon"}, "source_identifier": "31608", "external_references": [{"id": 41100, "source": {"name": "Wikidata", "slug": "wikidata"}, "source_identifier": "Q121079513"}], "date_modified": "2023-09-05T18:49:04.329604+10:00"}, {"id": 21105, "name": "SEC Productions", "roles_in_work": [{"id": 2374038, "title": "The Earth Core", "work_id": 78179, "role": "producer", "role_id": 1089, "is_primary": true}], "also_known_as": "", "date_of_birth": "", "date_of_death": "", "genders": [], "languages": [], "places_of_operation": [], "biography": "", "biography_author": null, "date_of_biography": "2023-07-05T03:50:21.087839+10:00", "external_links": [], "uuid": "57547cfb-6d7b-4cfa-b8bd-643860e5da9e", "source": {"name": "Vernon", "slug": "vernon"}, "source_identifier": "12403", "external_references": [{"id": 39250, "source": {"name": "Wikidata", "slug": "wikidata"}, "source_identifier": "Q121271045"}], "date_modified": "2023-09-06T01:09:47.392589+10:00"}, {"id": 21104, "name": "SEC Production Co", "roles_in_work": [{"id": 2374036, "title": "A Year of Achievement", "work_id": 78178, "role": "producer", "role_id": 1089, "is_primary": true}], "also_known_as": "", "date_of_birth": "", "date_of_death": "", "genders": [], "languages": [], "places_of_operation": [], "biography": "", "biography_author": null, "date_of_biography": "2023-07-05T03:50:19.981216+10:00", "external_links": [], "uuid": "ffea9b02-4b2d-4ab5-89c6-dbc10f28fce9", "source": {"name": "Vernon", "slug": "vernon"}, "source_identifier": "12402", "external_references": [{"id": 37644, "source": {"name": "Wikidata", "slug": "wikidata"}, "source_identifier": "Q121337633"}], "date_modified": "2023-09-06T01:09:46.363186+10:00"}, {"id": 21103, "name": "Paul Humfress", "roles_in_work": [{"id": 2151517, "title": "On target marketing: retailing and services; manufacturing", "work_id": 84065, "role": "director", "role_id": 938, "is_primary": true}, {"id": 2648459, "title": "The Business plan", "work_id": 79250, "role": "director", "role_id": 938, "is_primary": true}, {"id": 2614299, "title": "Free and enterprising", "work_id": 83450, "role": "director", "role_id": 938, "is_primary": true}, {"id": 2753241, "title": "Artisans of Australia", "work_id": 98670, "role": "director", "role_id": 938, "is_primary": true}, {"id": 2265368, "title": "Sebastiane", "work_id": 93114, "role": "co-director", "role_id": 959, "is_primary": true}, {"id": 898791, "title": "Artisans of Australia (Captioned)", "work_id": 79148, "role": "co-director", "role_id": 959, "is_primary": true}, {"id": 2773335, "title": "The Storymakers", "work_id": 115175, "role": "co-producer", "role_id": 915, "is_primary": true}, {"id": 1932142, "title": "Urban clan", "work_id": 88128, "role": "co-producer", "role_id": 915, "is_primary": true}, {"id": 2171212, "title": "One night the moon [DVD]", "work_id": 93592, "role": "co-producer", "role_id": 915, "is_primary": true}, {"id": 2784429, "title": "The Human face of Indonesia", "work_id": 115281, "role": "producer", "role_id": 1089, "is_primary": true}, {"id": 2768101, "title": "Pacific paradise?", "work_id": 82743, "role": "producer", "role_id": 1089, "is_primary": true}, {"id": 2648608, "title": "Boomalli: five Koorie artists", "work_id": 79631, "role": "producer", "role_id": 1089, "is_primary": true}, {"id": 2773298, "title": "Colin Thiele", "work_id": 79193, "role": "producer", "role_id": 1089, "is_primary": true}, {"id": 2065434, "title": "88 down under", "work_id": 81748, "role": "producer", "role_id": 1089, "is_primary": true}, {"id": 2065078, "title": "7 Colours", "work_id": 81724, "role": "producer", "role_id": 1089, "is_primary": true}, {"id": 1804539, "title": "Affordable Housing: Dream or Reality", "work_id": 78720, "role": "producer", "role_id": 1089, "is_primary": true}, {"id": 2265973, "title": "To Absent Friends", "work_id": 81078, "role": "producer", "role_id": 1089, "is_primary": true}, {"id": 2784430, "title": "The Human face of Indonesia", "work_id": 115281, "role": "producer", "role_id": 1089, "is_primary": true}, {"id": 2784426, "title": "Indonesia: pressure of population", "work_id": 82604, "role": "producer", "role_id": 1089, "is_primary": true}], "also_known_as": "", "date_of_birth": "", "date_of_death": "", "genders": [], "languages": [], "places_of_operation": [], "biography": "", "biography_author": null, "date_of_biography": "2023-08-09T04:10:44.090573+10:00", "external_links": [], "uuid": "7d00ce5a-92aa-4196-93ad-318f12018c4f", "source": {"name": "Vernon", "slug": "vernon"}, "source_identifier": "26251", "external_references": [{"id": 40387, "source": {"name": "Wikidata", "slug": "wikidata"}, "source_identifier": "Q121035505"}], "date_modified": "2025-03-14T19:20:39.881377+11:00"}, {"id": 21100, "name": "Tom Hubbard", "roles_in_work": [{"id": 2752147, "title": "Potter's Song: Art and philosophy of Paul Soldner", "work_id": 98162, "role": "co-director", "role_id": 959, "is_primary": true}, {"id": 2752136, "title": "Creating with ceramics", "work_id": 98157, "role": "co-director", "role_id": 959, "is_primary": true}, {"id": 2148562, "title": "Creating with watercolor", "work_id": 78175, "role": "co-producers/directors", "role_id": 628, "is_primary": true}, {"id": 2752179, "title": "Go for gold", "work_id": 98181, "role": "producer", "role_id": 1089, "is_primary": true}, {"id": 1816164, "title": "Time exposure: William Henry Jackson picture maker of the old West", "work_id": 98165, "role": "producer", "role_id": 1089, "is_primary": true}], "also_known_as": "", "date_of_birth": "", "date_of_death": "", "genders": [], "languages": [], "places_of_operation": [], "biography": "", "biography_author": null, "date_of_biography": "2023-05-09T15:47:18.571927+10:00", "external_links": [], "uuid": "a677d729-43cc-45b4-8b5a-b2e37f188b8b", "source": {"name": "Vernon", "slug": "vernon"}, "source_identifier": "13578", "external_references": [{"id": 41304, "source": {"name": "Wikidata", "slug": "wikidata"}, "source_identifier": "Q121034658"}], "date_modified": "2025-03-13T01:00:25.478997+11:00"}, {"id": 21098, "name": "Kathy Mueller", "roles_in_work": [{"id": 766458, "title": "Finishing touches", "work_id": 78174, "role": "director", "role_id": 938, "is_primary": true}, {"id": 768244, "title": "Everyday everynight", "work_id": 78850, "role": "director", "role_id": 938, "is_primary": true}, {"id": 3108949, "title": "Betty Cuthbert", "work_id": 79639, "role": "director", "role_id": 938, "is_primary": true}, {"id": 773503, "title": "The Girl from Tomorrow. Ep 1-3", "work_id": 80884, "role": "director", "role_id": 938, "is_primary": true}, {"id": 2614596, "title": "Street angels", "work_id": 83947, "role": "director", "role_id": 938, "is_primary": true}, {"id": 773491, "title": "The Girl from Tomorrow. Ep 10-12", "work_id": 80881, "role": "director", "role_id": 938, "is_primary": true}, {"id": 773499, "title": "The Girl from Tomorrow. Ep 4-6", "work_id": 80883, "role": "director", "role_id": 938, "is_primary": true}, {"id": 773495, "title": "The Girl from Tomorrow. Ep 7-9", "work_id": 80882, "role": "director", "role_id": 938, "is_primary": true}], "also_known_as": "", "date_of_birth": "", "date_of_death": "", "genders": [], "languages": [], "places_of_operation": [], "biography": "", "biography_author": null, "date_of_biography": "2023-05-09T18:43:34.606126+10:00", "external_links": [], "uuid": "d2eedf53-d31f-4b5a-9bfc-46f9c8f15948", "source": {"name": "Vernon", "slug": "vernon"}, "source_identifier": "23091", "external_references": [{"id": 37099, "source": {"name": "Wikidata", "slug": "wikidata"}, "source_identifier": "Q121271376"}], "date_modified": "2025-10-01T20:39:45.709872+10:00"}, {"id": 21096, "name": "Eleanor Morris", "roles_in_work": [{"id": 2648073, "title": "Your full attention please (TEFC)", "work_id": 78172, "role": "producer", "role_id": 1089, "is_primary": true}], "also_known_as": "", "date_of_birth": "", "date_of_death": "", "genders": [], "languages": [], "places_of_operation": [], "biography": "", "biography_author": null, "date_of_biography": "2023-08-14T12:54:53.647568+10:00", "external_links": [], "uuid": "3b15637d-af8d-4ed3-b185-468d5097001f", "source": {"name": "Vernon", "slug": "vernon"}, "source_identifier": "18666", "external_references": [], "date_modified": "2025-03-05T13:37:39.587282+11:00"}]}