{"count": 28687, "next": "https://api.acmi.net.au/creators/?page=1861", "previous": "https://api.acmi.net.au/creators/?page=1859", "results": [{"id": 25249, "name": "Clemente Fracassi", "roles_in_work": [{"id": 2614075, "title": "Juliet of the spirits = Giulietta degli spiriti", "work_id": 83111, "role": "producer", "role_id": 1089, "is_primary": true}], "also_known_as": "", "date_of_birth": "", "date_of_death": "", "genders": [], "languages": [], "places_of_operation": [], "biography": "", "biography_author": null, "date_of_biography": "2023-05-09T13:55:39.142804+10:00", "external_links": [], "uuid": "862f73de-0e40-440a-aa7c-7b43588d858d", "source": {"name": "Vernon", "slug": "vernon"}, "source_identifier": "17114", "external_references": [{"id": 32807, "source": {"name": "Wikidata", "slug": "wikidata"}, "source_identifier": "Q121035865"}], "date_modified": "2025-02-26T20:06:15.107191+11:00"}, {"id": 25248, "name": "Francoriz Production", "roles_in_work": [{"id": 2614074, "title": "Juliet of the spirits = Giulietta degli spiriti", "work_id": 83111, "role": "production company", "role_id": 941, "is_primary": true}], "also_known_as": "", "date_of_birth": "", "date_of_death": "", "genders": [], "languages": [], "places_of_operation": [], "biography": "", "biography_author": null, "date_of_biography": "2023-05-09T13:55:38.902852+10:00", "external_links": [], "uuid": "ef6872d7-9d90-44a3-908e-6b9263079252", "source": {"name": "Vernon", "slug": "vernon"}, "source_identifier": "8519", "external_references": [{"id": 43531, "source": {"name": "Wikidata", "slug": "wikidata"}, "source_identifier": "Q121126112"}], "date_modified": "2025-02-26T20:06:14.331097+11:00"}, {"id": 25247, "name": "Phyllis Fajnsztejn", "roles_in_work": [{"id": 2786380, "title": "The Mandala garden", "work_id": 83110, "role": "director", "role_id": 938, "is_primary": true}, {"id": 2786382, "title": "Back yard permaculture", "work_id": 115317, "role": "director", "role_id": 938, "is_primary": true}], "also_known_as": "", "date_of_birth": "", "date_of_death": "", "genders": [], "languages": [], "places_of_operation": [], "biography": "", "biography_author": null, "date_of_biography": "2023-05-09T12:38:58.111094+10:00", "external_links": [], "uuid": "e243e963-e7ab-48c3-923d-5061b0ad75a1", "source": {"name": "Vernon", "slug": "vernon"}, "source_identifier": "26904", "external_references": [{"id": 51251, "source": {"name": "Wikidata", "slug": "wikidata"}, "source_identifier": "Q121357872"}], "date_modified": "2025-03-14T19:31:09.019558+11:00"}, {"id": 25246, "name": "Mandala Productions", "roles_in_work": [{"id": 2786379, "title": "The Mandala garden", "work_id": 83110, "role": "production company", "role_id": 941, "is_primary": true}, {"id": 2786378, "title": "Back yard permaculture", "work_id": 115317, "role": "production company", "role_id": 941, "is_primary": true}], "also_known_as": "", "date_of_birth": "", "date_of_death": "", "genders": [], "languages": [], "places_of_operation": [], "biography": "", "biography_author": null, "date_of_biography": "2023-05-09T12:38:57.889077+10:00", "external_links": [], "uuid": "b8fa4744-2ea4-4fa3-936f-e35139b60513", "source": {"name": "Vernon", "slug": "vernon"}, "source_identifier": "10276", "external_references": [{"id": 41027, "source": {"name": "Wikidata", "slug": "wikidata"}, "source_identifier": "Q121298879"}], "date_modified": "2025-03-14T19:31:08.435123+11:00"}, {"id": 25242, "name": "Personafilm", "roles_in_work": [{"id": 2227224, "title": "Fanny and Alexander", "work_id": 83155, "role": "production company", "role_id": 941, "is_primary": true}, {"id": 2227263, "title": "Fanny and Alexander = Fanny och Alexander", "work_id": 83156, "role": "production company", "role_id": 941, "is_primary": true}, {"id": 2105369, "title": "Autumn sonata", "work_id": 83105, "role": "production company", "role_id": 941, "is_primary": true}], "also_known_as": "", "date_of_birth": "", "date_of_death": "", "genders": [], "languages": [], "places_of_operation": [], "biography": "", "biography_author": null, "date_of_biography": "2023-05-09T16:28:22.735419+10:00", "external_links": [], "uuid": "f557ec8a-cd09-4717-9583-8648de6a8db6", "source": {"name": "Vernon", "slug": "vernon"}, "source_identifier": "11419", "external_references": [{"id": 33382, "source": {"name": "Wikidata", "slug": "wikidata"}, "source_identifier": "Q121298794"}], "date_modified": "2023-09-05T23:53:30.918256+10:00"}, {"id": 25241, "name": "Lewis John Carlino", "roles_in_work": [{"id": 1986903, "title": "The Sailor who fell from grace with the sea", "work_id": 83104, "role": "director", "role_id": 938, "is_primary": true}], "also_known_as": "", "date_of_birth": "1932-01-01", "date_of_death": "2020-06-17", "genders": [{"id": 9, "name": "Male", "slug": "male"}], "languages": [{"id": 1, "name": "English", "slug": "english"}], "places_of_operation": [{"id": 1, "name": "United States of America", "slug": "united-states-of-america"}], "biography": "Lewis John Carlino (January 1, 1932 – June 17, 2020) was an American screenwriter and director. His career spanned five decades and included such works as The Fox, The Brotherhood, The Mechanic, The Sailor Who Fell from Grace with the Sea, I Never Promised You a Rose Garden, Resurrection, and The Great Santini. Carlino was nominated for many awards, including the Academy Award for Best Adapted Screenplay.", "biography_author": "Wikidata", "date_of_biography": "2022-05-19T12:15:54.017314+10:00", "external_links": [{"id": 2577, "uri": "https://en.wikipedia.org/wiki/Lewis_John_Carlino"}], "uuid": "fe2df85e-8a82-4766-9832-15310b8fb1c7", "source": {"name": "Vernon", "slug": "vernon"}, "source_identifier": "23814", "external_references": [{"id": 11008, "source": {"name": "Wikidata", "slug": "wikidata"}, "source_identifier": "Q3237296"}, {"id": 11009, "source": {"name": "VIAF", "slug": "viaf"}, "source_identifier": "86200141"}, {"id": 11010, "source": {"name": "LOC Auth", "slug": "loc-auth"}, "source_identifier": "n87844732"}, {"id": 11011, "source": {"name": "WorldCat", "slug": "worldcat"}, "source_identifier": "lccn-n87844732"}], "date_modified": "2023-09-13T12:30:59.648867+10:00"}, {"id": 25240, "name": "Martin Poll", "roles_in_work": [{"id": 1986902, "title": "The Sailor who fell from grace with the sea", "work_id": 83104, "role": "producer", "role_id": 1089, "is_primary": true}, {"id": 1989708, "title": "The Lion in winter", "work_id": 85358, "role": "producer", "role_id": 1089, "is_primary": true}], "also_known_as": "", "date_of_birth": "1922-11-24", "date_of_death": "2012-04-14", "genders": [{"id": 9, "name": "Male", "slug": "male"}], "languages": [], "places_of_operation": [{"id": 1, "name": "United States of America", "slug": "united-states-of-america"}], "biography": "Martin Poll (November 24, 1922 – April 14, 2012) was an American film and television producer. Poll produced eleven feature films during his career, including The Lion in Winter, for which he received a 1968 Academy Award nomination for Academy Award for Best Picture. The Lion in Winter, which starred Katharine Hepburn and Peter O'Toole, received nine nominations and won three Academy Awards. It also won a Golden Globe Award for Best Motion Picture – Drama.", "biography_author": "Wikidata", "date_of_biography": "2022-05-19T12:24:33.377736+10:00", "external_links": [{"id": 2662, "uri": "https://en.wikipedia.org/wiki/Martin_Poll"}], "uuid": "ccd642b2-205f-43a5-be05-55b1e2d5bbf2", "source": {"name": "Vernon", "slug": "vernon"}, "source_identifier": "24655", "external_references": [{"id": 11365, "source": {"name": "Wikidata", "slug": "wikidata"}, "source_identifier": "Q6776391"}, {"id": 11366, "source": {"name": "VIAF", "slug": "viaf"}, "source_identifier": "87957374"}, {"id": 11367, "source": {"name": "LOC Auth", "slug": "loc-auth"}, "source_identifier": "no98075070"}, {"id": 11368, "source": {"name": "WorldCat", "slug": "worldcat"}, "source_identifier": "lccn-no98075070"}], "date_modified": "2023-09-13T12:31:16.895018+10:00"}, {"id": 25237, "name": "40 Acres and a Mule Filmworks", "roles_in_work": [{"id": 2196402, "title": "Do the right thing", "work_id": 83103, "role": "production company", "role_id": 941, "is_primary": true}, {"id": 1994968, "title": "Summer of Sam", "work_id": 90781, "role": "production company", "role_id": 941, "is_primary": true}, {"id": 2614094, "title": "Mo' better blues", "work_id": 83149, "role": "production company", "role_id": 941, "is_primary": true}, {"id": 1993769, "title": "Girl 6 = Girl six", "work_id": 89514, "role": "production company", "role_id": 941, "is_primary": true}, {"id": 1988245, "title": "Malcolm X", "work_id": 84562, "role": "production company", "role_id": 941, "is_primary": true}, {"id": 2107531, "title": "Bamboozled [DVD]", "work_id": 92621, "role": "production company", "role_id": 941, "is_primary": true}, {"id": 2148095, "title": "Crooklyn", "work_id": 94817, "role": "production company", "role_id": 941, "is_primary": true}, {"id": 909900, "title": "Four little girls", "work_id": 90519, "role": "production company", "role_id": 941, "is_primary": true}, {"id": 1994601, "title": "Clockers", "work_id": 90470, "role": "production company", "role_id": 941, "is_primary": true}], "also_known_as": "", "date_of_birth": "", "date_of_death": "", "genders": [], "languages": [], "places_of_operation": [], "biography": "", "biography_author": null, "date_of_biography": "2023-05-09T15:17:39.613282+10:00", "external_links": [], "uuid": "761fcd59-6e6a-4aa0-b52a-9c3969e94643", "source": {"name": "Vernon", "slug": "vernon"}, "source_identifier": "3691", "external_references": [], "date_modified": "2025-02-26T20:06:36.027721+11:00"}, {"id": 25236, "name": "Steve Krantz", "roles_in_work": [{"id": 1998456, "title": "Heavy traffic", "work_id": 93813, "role": "producer", "role_id": 1089, "is_primary": true}, {"id": 1986890, "title": "Fritz the cat (E)", "work_id": 83101, "role": "producer", "role_id": 1089, "is_primary": true}], "also_known_as": "", "date_of_birth": "1923-05-20", "date_of_death": "2007-01-04", "genders": [{"id": 9, "name": "Male", "slug": "male"}], "languages": [], "places_of_operation": [{"id": 1, "name": "United States of America", "slug": "united-states-of-america"}], "biography": "Stephen Falk Krantz (May 20, 1923 – January 4, 2007) was a film producer and writer, most active from 1966 to 1996.", "biography_author": "Wikidata", "date_of_biography": "2023-08-01T17:11:12.819312+10:00", "external_links": [{"id": 5206, "uri": "https://en.wikipedia.org/wiki/Steve_Krantz"}], "uuid": "ab9a7c2f-cb03-4179-af22-64b820831cdf", "source": {"name": "Vernon", "slug": "vernon"}, "source_identifier": "29145", "external_references": [{"id": 25743, "source": {"name": "Wikidata", "slug": "wikidata"}, "source_identifier": "Q2698678"}, {"id": 31640, "source": {"name": "VIAF", "slug": "viaf"}, "source_identifier": "12490489"}, {"id": 31641, "source": {"name": "LOC Auth", "slug": "loc-auth"}, "source_identifier": "n81124585"}, {"id": 31642, "source": {"name": "WorldCat", "slug": "worldcat"}, "source_identifier": "lccn-n81124585"}], "date_modified": "2023-09-13T12:32:51.980276+10:00"}, {"id": 25233, "name": "MMA Films", "roles_in_work": [{"id": 2307652, "title": "Spirits of the air, gremlins of the clouds", "work_id": 83099, "role": "production company", "role_id": 941, "is_primary": true}], "also_known_as": "", "date_of_birth": "", "date_of_death": "", "genders": [], "languages": [], "places_of_operation": [], "biography": "", "biography_author": null, "date_of_biography": "2023-05-09T18:47:29.285694+10:00", "external_links": [], "uuid": "66b2708d-be7c-4308-a82b-fba631113f4d", "source": {"name": "Vernon", "slug": "vernon"}, "source_identifier": "10587", "external_references": [{"id": 33812, "source": {"name": "Wikidata", "slug": "wikidata"}, "source_identifier": "Q121079181"}], "date_modified": "2023-09-05T23:18:50.062444+10:00"}]}