{"count": 28687, "next": "https://api.acmi.net.au/creators/?page=2060", "previous": "https://api.acmi.net.au/creators/?page=2058", "results": [{"id": 21376, "name": "Malcolm Brinkworth", "roles_in_work": [{"id": 2465883, "title": "Simons Peace (TEFC)", "work_id": 78549, "role": "director", "role_id": 938, "is_primary": true}, {"id": 2465884, "title": "Simons War (TEFC)", "work_id": 78548, "role": "producer", "role_id": 1089, "is_primary": true}], "also_known_as": "", "date_of_birth": "", "date_of_death": "", "genders": [], "languages": [], "places_of_operation": [], "biography": "", "biography_author": null, "date_of_biography": "2023-08-14T10:44:29.303250+10:00", "external_links": [], "uuid": "27f365f4-bde1-426c-9cc1-7f945d97a20f", "source": {"name": "Vernon", "slug": "vernon"}, "source_identifier": "24217", "external_references": [], "date_modified": "2023-08-14T10:44:29.303594+10:00"}, {"id": 21374, "name": "Dept of Marine Services", "roles_in_work": [{"id": 2332913, "title": "The Blue Planet (TEFC)", "work_id": 78538, "role": "production company", "role_id": 941, "is_primary": true}], "also_known_as": "", "date_of_birth": "", "date_of_death": "", "genders": [], "languages": [], "places_of_operation": [], "biography": "", "biography_author": null, "date_of_biography": "2023-05-09T19:28:13.220672+10:00", "external_links": [], "uuid": "952dbfd4-34aa-4ade-8e1d-3bb9ea0160b8", "source": {"name": "Vernon", "slug": "vernon"}, "source_identifier": "7508", "external_references": [{"id": 35512, "source": {"name": "Wikidata", "slug": "wikidata"}, "source_identifier": "Q121079157"}], "date_modified": "2023-09-05T19:09:33.755525+10:00"}, {"id": 21373, "name": "University of Sydney Television Service", "roles_in_work": [{"id": 865113, "title": "I Know they can get me pregnant (TEFC)", "work_id": 78597, "role": "production company", "role_id": 941, "is_primary": true}, {"id": 2788722, "title": "Aboriginal art: conserving, exhibiting, interpreting", "work_id": 83799, "role": "production company", "role_id": 941, "is_primary": true}, {"id": 2332907, "title": "The Blue Planet (TEFC)", "work_id": 78538, "role": "production company", "role_id": 941, "is_primary": true}, {"id": 2788702, "title": "Aboriginal women artists", "work_id": 83797, "role": "production company", "role_id": 941, "is_primary": true}, {"id": 2788690, "title": "Tradition and change: art from the desert", "work_id": 83796, "role": "production company", "role_id": 941, "is_primary": true}, {"id": 2788712, "title": "Urban Aboriginal artists", "work_id": 83798, "role": "production company", "role_id": 941, "is_primary": true}], "also_known_as": "", "date_of_birth": "", "date_of_death": "", "genders": [], "languages": [], "places_of_operation": [], "biography": "", "biography_author": null, "date_of_biography": "2023-05-09T19:28:12.518910+10:00", "external_links": [], "uuid": "a92792ba-b388-41f9-a2be-d6bd401e25ec", "source": {"name": "Vernon", "slug": "vernon"}, "source_identifier": "13937", "external_references": [{"id": 38726, "source": {"name": "Wikidata", "slug": "wikidata"}, "source_identifier": "Q121091079"}], "date_modified": "2025-03-14T19:45:39.805992+11:00"}, {"id": 21370, "name": "SEC Production", "roles_in_work": [{"id": 2406726, "title": "Electric Visions", "work_id": 78533, "role": "producer", "role_id": 1089, "is_primary": true}], "also_known_as": "", "date_of_birth": "", "date_of_death": "", "genders": [], "languages": [], "places_of_operation": [], "biography": "", "biography_author": null, "date_of_biography": "2023-08-11T16:20:20.037513+10:00", "external_links": [], "uuid": "51914064-0212-496c-81aa-4ee0c55aa9f7", "source": {"name": "Vernon", "slug": "vernon"}, "source_identifier": "12401", "external_references": [], "date_modified": "2023-08-11T16:20:20.037803+10:00"}, {"id": 21366, "name": "Thames Production", "roles_in_work": [{"id": 2769083, "title": "Hidden treasures", "work_id": 78521, "role": "production company", "role_id": 941, "is_primary": true}], "also_known_as": "", "date_of_birth": "", "date_of_death": "", "genders": [], "languages": [], "places_of_operation": [], "biography": "", "biography_author": null, "date_of_biography": "2023-05-09T19:58:25.894382+10:00", "external_links": [], "uuid": "34460df6-2337-4fb2-a47c-f8b10a8e1dbf", "source": {"name": "Vernon", "slug": "vernon"}, "source_identifier": "30704", "external_references": [{"id": 36222, "source": {"name": "Wikidata", "slug": "wikidata"}, "source_identifier": "Q121299477"}], "date_modified": "2025-03-14T18:12:34.017517+11:00"}, {"id": 21363, "name": "Ian Host", "roles_in_work": [{"id": 2771425, "title": "The Stress Factor/ a Crime Called Violence", "work_id": 80140, "role": "director", "role_id": 938, "is_primary": true}, {"id": 2773606, "title": "In pursuit of the possible", "work_id": 78516, "role": "director", "role_id": 938, "is_primary": true}, {"id": 775966, "title": "The People of Parliament", "work_id": 81574, "role": "producer/director", "role_id": 31, "is_primary": true}], "also_known_as": "", "date_of_birth": "", "date_of_death": "", "genders": [], "languages": [], "places_of_operation": [], "biography": "", "biography_author": null, "date_of_biography": "2023-05-09T19:30:41.273472+10:00", "external_links": [], "uuid": "25973496-94ab-430a-ab86-9f7e47d53f5a", "source": {"name": "Vernon", "slug": "vernon"}, "source_identifier": "20763", "external_references": [{"id": 40517, "source": {"name": "Wikidata", "slug": "wikidata"}, "source_identifier": "Q121337730"}], "date_modified": "2025-03-14T18:23:06.323233+11:00"}, {"id": 21361, "name": "Central Newsreel and Documentary Film Studio of the People's Republic of China", "roles_in_work": [{"id": 865011, "title": "People of Tenshien County", "work_id": 78513, "role": "production company", "role_id": 941, "is_primary": true}, {"id": 865096, "title": "Sight-seeing in China", "work_id": 78577, "role": "production company", "role_id": 941, "is_primary": true}, {"id": 2757770, "title": "Flower buds", "work_id": 78515, "role": "production company", "role_id": 941, "is_primary": true}, {"id": 2757777, "title": "Water country, south of the Changjiang River", "work_id": 78530, "role": "production company", "role_id": 941, "is_primary": true}, {"id": 2757780, "title": "Sports amateurs", "work_id": 78531, "role": "production company", "role_id": 941, "is_primary": true}, {"id": 879554, "title": "China today. No. 8206", "work_id": 91881, "role": "production company", "role_id": 941, "is_primary": true}, {"id": 879498, "title": "China today. No. 8101", "work_id": 91832, "role": "production company", "role_id": 941, "is_primary": true}], "also_known_as": "", "date_of_birth": "", "date_of_death": "", "genders": [], "languages": [], "places_of_operation": [], "biography": "", "biography_author": null, "date_of_biography": "2023-08-11T14:15:21.010633+10:00", "external_links": [], "uuid": "9f2e72d8-e5c9-4044-bc8b-6524054d34cb", "source": {"name": "Vernon", "slug": "vernon"}, "source_identifier": "6414", "external_references": [], "date_modified": "2025-03-13T14:47:12.615463+11:00"}, {"id": 21360, "name": "Film Studio of the Peoples Republic of China", "roles_in_work": [{"id": 879562, "title": "China today. No. 8205", "work_id": 91890, "role": "production company", "role_id": 941, "is_primary": true}, {"id": 2757763, "title": "China today. No. 802", "work_id": 78509, "role": "production company", "role_id": 941, "is_primary": true}, {"id": 2757767, "title": "China today. No. 805", "work_id": 78510, "role": "production company", "role_id": 941, "is_primary": true}, {"id": 2757773, "title": "At the spare time", "work_id": 78529, "role": "production company", "role_id": 941, "is_primary": true}, {"id": 879564, "title": "China today. No. 8202", "work_id": 91892, "role": "production company", "role_id": 941, "is_primary": true}, {"id": 879570, "title": "China today. No. 8102", "work_id": 91897, "role": "production company", "role_id": 941, "is_primary": true}, {"id": 879563, "title": "China today. No. 8203", "work_id": 91891, "role": "production company", "role_id": 941, "is_primary": true}, {"id": 2757759, "title": "China today. No. 6", "work_id": 78508, "role": "production company", "role_id": 941, "is_primary": true}, {"id": 879569, "title": "China today. No. 8105", "work_id": 91896, "role": "production company", "role_id": 941, "is_primary": true}, {"id": 879497, "title": "China today. No. 804", "work_id": 91831, "role": "production company", "role_id": 941, "is_primary": true}], "also_known_as": "", "date_of_birth": "", "date_of_death": "", "genders": [], "languages": [], "places_of_operation": [], "biography": "", "biography_author": null, "date_of_biography": "2023-08-11T14:15:19.975984+10:00", "external_links": [], "uuid": "f11a8e1e-efae-448f-b7d3-02822d2d0700", "source": {"name": "Vernon", "slug": "vernon"}, "source_identifier": "8249", "external_references": [], "date_modified": "2025-03-13T14:47:10.934728+11:00"}, {"id": 21357, "name": "World Entertainers", "roles_in_work": [{"id": 2748813, "title": "The Great treasure house", "work_id": 96484, "role": "production company", "role_id": 941, "is_primary": true}, {"id": 2406676, "title": "Self reliance", "work_id": 78499, "role": "production company", "role_id": 941, "is_primary": true}], "also_known_as": "", "date_of_birth": "", "date_of_death": "", "genders": [], "languages": [], "places_of_operation": [], "biography": "", "biography_author": null, "date_of_biography": "2023-08-11T16:19:37.226950+10:00", "external_links": [], "uuid": "a799af24-e848-4505-88bc-6aa90d8e73bb", "source": {"name": "Vernon", "slug": "vernon"}, "source_identifier": "14448", "external_references": [], "date_modified": "2025-03-12T23:46:02.654802+11:00"}, {"id": 21356, "name": "Felix Greene Films", "roles_in_work": [{"id": 2404095, "title": "China. Part 2. Life in the country", "work_id": 96235, "role": "production company", "role_id": 941, "is_primary": true}, {"id": 2406690, "title": "The People's communes", "work_id": 78504, "role": "production company", "role_id": 941, "is_primary": true}, {"id": 2406700, "title": "Eight or nine in the morning", "work_id": 78502, "role": "production company", "role_id": 941, "is_primary": true}, {"id": 2649606, "title": "China. Part 1. History and culture", "work_id": 81831, "role": "production company", "role_id": 941, "is_primary": true}, {"id": 2404096, "title": "China. Part 3. Life in the city", "work_id": 96236, "role": "production company", "role_id": 941, "is_primary": true}, {"id": 2406692, "title": "The People's army", "work_id": 78506, "role": "production company", "role_id": 941, "is_primary": true}, {"id": 2406696, "title": "The People's communes (TEFC)", "work_id": 95546, "role": "production company", "role_id": 941, "is_primary": true}, {"id": 2406675, "title": "Self reliance", "work_id": 78499, "role": "production company", "role_id": 941, "is_primary": true}], "also_known_as": "", "date_of_birth": "", "date_of_death": "", "genders": [], "languages": [], "places_of_operation": [], "biography": "", "biography_author": null, "date_of_biography": "2023-08-11T16:19:42.265806+10:00", "external_links": [], "uuid": "ba858339-958b-477c-afea-6e2d33d18fd7", "source": {"name": "Vernon", "slug": "vernon"}, "source_identifier": "8138", "external_references": [], "date_modified": "2025-03-05T14:03:18.853160+11:00"}]}