{"count": 28687, "next": "https://api.acmi.net.au/creators/?page=374", "previous": "https://api.acmi.net.au/creators/?page=372", "results": [{"id": 81877, "name": "Ian Bryson", "roles_in_work": [{"id": 2709464, "title": "Mind of Tibet", "work_id": 114025, "role": "editor", "role_id": 918, "is_primary": true}], "also_known_as": "", "date_of_birth": null, "date_of_death": null, "genders": [], "languages": [], "places_of_operation": [], "biography": "", "biography_author": null, "date_of_biography": null, "external_links": [], "uuid": "6f8dd529-c961-43b2-9e5c-44dae11f5516", "source": {"name": "Vernon", "slug": "vernon"}, "source_identifier": "1712", "external_references": [{"id": 41065, "source": {"name": "Wikidata", "slug": "wikidata"}, "source_identifier": "Q121337677"}], "date_modified": "2025-03-11T23:02:16.556643+11:00"}, {"id": 81876, "name": "Julie Ruin", "roles_in_work": [{"id": 2632980, "title": "Aerobicide", "work_id": 114021, "role": "music", "role_id": 949, "is_primary": false}], "also_known_as": "", "date_of_birth": "", "date_of_death": "", "genders": [], "languages": [], "places_of_operation": [], "biography": "", "biography_author": null, "date_of_biography": "2023-05-09T11:51:35.952413+10:00", "external_links": [], "uuid": "97c13518-cd1a-4171-89f7-3a323848f15d", "source": {"name": "Vernon", "slug": "vernon"}, "source_identifier": "110257", "external_references": [{"id": 51483, "source": {"name": "Wikidata", "slug": "wikidata"}, "source_identifier": "Q121361053"}], "date_modified": "2025-02-28T22:35:30.315667+11:00"}, {"id": 81875, "name": "Taki Moore", "roles_in_work": [{"id": 2709104, "title": "The Pyre of Triune", "work_id": 114017, "role": "voice", "role_id": 471, "is_primary": false}], "also_known_as": "", "date_of_birth": "", "date_of_death": "", "genders": [], "languages": [], "places_of_operation": [], "biography": "", "biography_author": null, "date_of_biography": "2023-05-09T20:07:58.322657+10:00", "external_links": [], "uuid": "6ebc3b6b-8867-400b-9f02-0af948ad3c04", "source": {"name": "Vernon", "slug": "vernon"}, "source_identifier": "110155", "external_references": [], "date_modified": "2025-03-11T22:53:00.848966+11:00"}, {"id": 81874, "name": "Sahara Cafe", "roles_in_work": [], "also_known_as": "", "date_of_birth": "", "date_of_death": "", "genders": [], "languages": [], "places_of_operation": [], "biography": "", "biography_author": null, "date_of_biography": "2023-05-09T20:08:59.568972+10:00", "external_links": [], "uuid": "26190326-3cdd-4d63-a821-437e53f54e9a", "source": {"name": "Vernon", "slug": "vernon"}, "source_identifier": "110606", "external_references": [], "date_modified": "2025-02-26T22:49:47.060031+11:00"}, {"id": 81873, "name": "Kanga Manga Workshop", "roles_in_work": [], "also_known_as": "", "date_of_birth": "", "date_of_death": "", "genders": [], "languages": [], "places_of_operation": [], "biography": "", "biography_author": null, "date_of_biography": "2023-05-09T20:08:59.331698+10:00", "external_links": [], "uuid": "c9097a9d-6466-4425-ba73-e6c2d41a0e33", "source": {"name": "Vernon", "slug": "vernon"}, "source_identifier": "110607", "external_references": [], "date_modified": "2025-02-26T22:49:46.470535+11:00"}, {"id": 81872, "name": "Kass Warner", "roles_in_work": [], "also_known_as": "", "date_of_birth": "", "date_of_death": "", "genders": [], "languages": [], "places_of_operation": [], "biography": "", "biography_author": null, "date_of_biography": "2023-05-09T20:08:58.584360+10:00", "external_links": [], "uuid": "ffd571f8-72fd-4205-a462-a14affd5ef60", "source": {"name": "Vernon", "slug": "vernon"}, "source_identifier": "110602", "external_references": [], "date_modified": "2025-02-26T22:49:44.529993+11:00"}, {"id": 81871, "name": "Joe Bland", "roles_in_work": [], "also_known_as": "", "date_of_birth": "", "date_of_death": "", "genders": [], "languages": [], "places_of_operation": [], "biography": "", "biography_author": null, "date_of_biography": "2023-05-09T20:08:58.352827+10:00", "external_links": [], "uuid": "66c9c259-9d9b-4c3e-902d-6b58462e41b0", "source": {"name": "Vernon", "slug": "vernon"}, "source_identifier": "110603", "external_references": [], "date_modified": "2025-02-26T22:49:43.936757+11:00"}, {"id": 81870, "name": "Stell de Ville", "roles_in_work": [], "also_known_as": "", "date_of_birth": "", "date_of_death": "", "genders": [], "languages": [], "places_of_operation": [], "biography": "", "biography_author": null, "date_of_biography": "2023-05-09T20:08:56.713975+10:00", "external_links": [], "uuid": "d393cd29-f8ae-4ff6-bed7-1961abb027a7", "source": {"name": "Vernon", "slug": "vernon"}, "source_identifier": "110598", "external_references": [], "date_modified": "2025-02-26T22:49:36.641318+11:00"}, {"id": 81869, "name": "Stuart Rowsell", "roles_in_work": [{"id": 2709180, "title": "La Maison des Cochons", "work_id": 114016, "role": "puppets", "role_id": 511, "is_primary": false}], "also_known_as": "", "date_of_birth": "", "date_of_death": "", "genders": [], "languages": [], "places_of_operation": [], "biography": "", "biography_author": null, "date_of_biography": "2023-05-09T20:08:56.148391+10:00", "external_links": [], "uuid": "e0114316-51dd-4e3c-a5c5-9094f81bf9ef", "source": {"name": "Vernon", "slug": "vernon"}, "source_identifier": "110593", "external_references": [], "date_modified": "2025-03-11T22:55:01.649825+11:00"}, {"id": 81868, "name": "Dailan Evans", "roles_in_work": [{"id": 2709179, "title": "La Maison des Cochons", "work_id": 114016, "role": "voice", "role_id": 471, "is_primary": false}], "also_known_as": "", "date_of_birth": "", "date_of_death": "", "genders": [], "languages": [], "places_of_operation": [], "biography": "", "biography_author": null, "date_of_biography": "2023-05-09T20:08:55.909047+10:00", "external_links": [], "uuid": "45d25679-fd7c-4b36-8d6f-ac6f194bb0ed", "source": {"name": "Vernon", "slug": "vernon"}, "source_identifier": "110596", "external_references": [], "date_modified": "2025-03-11T22:55:00.984815+11:00"}]}