{"count": 28687, "next": "https://api.acmi.net.au/creators/?page=1261", "previous": "https://api.acmi.net.au/creators/?page=1259", "results": [{"id": 43065, "name": "Fitzroy House", "roles_in_work": [{"id": 2689536, "title": "Bazooka Bill for ZX Spectrum 48/128", "work_id": 100088, "role": "developer", "role_id": 658, "is_primary": true}], "also_known_as": "", "date_of_birth": "", "date_of_death": "", "genders": [], "languages": [], "places_of_operation": [], "biography": "", "biography_author": null, "date_of_biography": "2023-08-14T13:19:23.274533+10:00", "external_links": [], "uuid": "bad0913d-a1a5-444d-9883-9abc53128dee", "source": {"name": "Vernon", "slug": "vernon"}, "source_identifier": "38324", "external_references": [], "date_modified": "2025-03-11T14:36:27.738472+11:00"}, {"id": 43061, "name": "Gremlin Graphics Software", "roles_in_work": [{"id": 2689691, "title": "The Muncher for ZX Spectrum 128", "work_id": 100086, "role": "publisher", "role_id": 942, "is_primary": true}], "also_known_as": "", "date_of_birth": "", "date_of_death": "", "genders": [], "languages": [], "places_of_operation": [], "biography": "", "biography_author": null, "date_of_biography": "2023-08-14T13:20:24.383910+10:00", "external_links": [], "uuid": "07d92150-47f4-4103-a113-64617ad935f4", "source": {"name": "Vernon", "slug": "vernon"}, "source_identifier": "38328", "external_references": [], "date_modified": "2025-03-11T14:39:08.255246+11:00"}, {"id": 43060, "name": "Zero Wait", "roles_in_work": [{"id": 2689690, "title": "The Muncher for ZX Spectrum 128", "work_id": 100086, "role": "developer", "role_id": 658, "is_primary": true}], "also_known_as": "", "date_of_birth": "", "date_of_death": "", "genders": [], "languages": [], "places_of_operation": [], "biography": "", "biography_author": null, "date_of_biography": "2023-08-14T13:20:23.743530+10:00", "external_links": [], "uuid": "9186dc5d-5be0-4ebd-9396-5869eac71294", "source": {"name": "Vernon", "slug": "vernon"}, "source_identifier": "38323", "external_references": [], "date_modified": "2025-03-11T14:39:07.665751+11:00"}, {"id": 43059, "name": "Armchair Entertainment", "roles_in_work": [{"id": 2689512, "title": "America's Cup Challenge for Amstrad", "work_id": 100085, "role": "publisher", "role_id": 942, "is_primary": true}], "also_known_as": "", "date_of_birth": "", "date_of_death": "", "genders": [], "languages": [], "places_of_operation": [], "biography": "", "biography_author": null, "date_of_biography": "2023-08-14T13:20:43.950154+10:00", "external_links": [], "uuid": "d8bc8b60-e994-4b04-9c8d-8d51b6fc1beb", "source": {"name": "Vernon", "slug": "vernon"}, "source_identifier": "38335", "external_references": [], "date_modified": "2025-03-11T14:35:56.848831+11:00"}, {"id": 43058, "name": "US Gold Pty Ltd", "roles_in_work": [{"id": 2689511, "title": "America's Cup Challenge for Amstrad", "work_id": 100085, "role": "publisher", "role_id": 942, "is_primary": true}], "also_known_as": "", "date_of_birth": "", "date_of_death": "", "genders": [], "languages": [], "places_of_operation": [], "biography": "", "biography_author": null, "date_of_biography": "2023-08-14T13:20:43.320999+10:00", "external_links": [], "uuid": "68e50f26-7c19-465f-9414-fc0f9b1d64e1", "source": {"name": "Vernon", "slug": "vernon"}, "source_identifier": "38331", "external_references": [], "date_modified": "2025-03-11T14:35:56.265545+11:00"}, {"id": 43057, "name": "Telecomsoft", "roles_in_work": [{"id": 2689599, "title": "Exploding Fist +  for ZX Spectrum 48/128/+2", "work_id": 100084, "role": "publisher", "role_id": 942, "is_primary": true}], "also_known_as": "", "date_of_birth": "", "date_of_death": "", "genders": [], "languages": [], "places_of_operation": [], "biography": "", "biography_author": null, "date_of_biography": "2023-05-09T18:21:12.329809+10:00", "external_links": [], "uuid": "aeb1340e-4033-44d3-b661-c845deaa4b64", "source": {"name": "Vernon", "slug": "vernon"}, "source_identifier": "38330", "external_references": [], "date_modified": "2025-03-11T14:37:30.055493+11:00"}, {"id": 43055, "name": "Firebird Software", "roles_in_work": [{"id": 2689731, "title": "Samurai Warrior: The Battles of Usagi Yojimbo for ZX Spectrum", "work_id": 100100, "role": "publisher", "role_id": 942, "is_primary": true}, {"id": 2689600, "title": "Exploding Fist +  for ZX Spectrum 48/128/+2", "work_id": 100084, "role": "publisher", "role_id": 942, "is_primary": true}, {"id": 2689716, "title": "Rock & Wrestle for Commodore 64/128", "work_id": 100079, "role": "publisher", "role_id": 942, "is_primary": true}, {"id": 2689722, "title": "Samurai Warrior: The Battles of Usagi Yojimbo for Commodore 64", "work_id": 100099, "role": "publisher", "role_id": 942, "is_primary": true}], "also_known_as": "", "date_of_birth": "", "date_of_death": "", "genders": [], "languages": [], "places_of_operation": [], "biography": "", "biography_author": null, "date_of_biography": "2023-08-14T13:20:30.816394+10:00", "external_links": [], "uuid": "7f977ff8-9bfe-4e62-a385-25ed6348e91f", "source": {"name": "Vernon", "slug": "vernon"}, "source_identifier": "38337", "external_references": [], "date_modified": "2025-03-11T14:39:56.955084+11:00"}, {"id": 43050, "name": "Stephen Cargill", "roles_in_work": [{"id": 2689606, "title": "Fighting Warrior for Commodore 64", "work_id": 100096, "role": "programmer", "role_id": 483, "is_primary": false}, {"id": 2689612, "title": "Fighting Warrior  for Spectrum 48K", "work_id": 100078, "role": "writer", "role_id": 939, "is_primary": true}], "also_known_as": "", "date_of_birth": "", "date_of_death": "", "genders": [], "languages": [], "places_of_operation": [], "biography": "", "biography_author": null, "date_of_biography": "2023-08-11T16:24:30.379044+10:00", "external_links": [], "uuid": "518d03cd-dd64-4a57-b827-3b789c699f5c", "source": {"name": "Vernon", "slug": "vernon"}, "source_identifier": "38336", "external_references": [{"id": 40621, "source": {"name": "Wikidata", "slug": "wikidata"}, "source_identifier": "Q121271390"}], "date_modified": "2025-03-11T14:37:41.900333+11:00"}, {"id": 43049, "name": "Studio B", "roles_in_work": [{"id": 2689610, "title": "Fighting Warrior  for Spectrum 48K", "work_id": 100078, "role": "developer", "role_id": 658, "is_primary": true}], "also_known_as": "", "date_of_birth": "", "date_of_death": "", "genders": [], "languages": [], "places_of_operation": [], "biography": "", "biography_author": null, "date_of_biography": "2023-08-11T16:24:29.090362+10:00", "external_links": [], "uuid": "52ca364a-ed28-4a0e-921d-3b2a6a48610f", "source": {"name": "Vernon", "slug": "vernon"}, "source_identifier": "38322", "external_references": [], "date_modified": "2025-03-11T14:37:40.481196+11:00"}, {"id": 43043, "name": "Geoff Evans", "roles_in_work": [{"id": 2689579, "title": "Doc the Destroyer for Commodore 64/128", "work_id": 100073, "role": "designer", "role_id": 495, "is_primary": false}, {"id": 2689588, "title": "Doc the Destroyer for ZX Spectrum 48/128", "work_id": 100082, "role": "designer", "role_id": 495, "is_primary": false}, {"id": 2689577, "title": "Doc the Destroyer for Commodore 64/128", "work_id": 100073, "role": "writer", "role_id": 939, "is_primary": true}, {"id": 2689586, "title": "Doc the Destroyer for ZX Spectrum 48/128", "work_id": 100082, "role": "writer", "role_id": 939, "is_primary": true}], "also_known_as": "", "date_of_birth": "", "date_of_death": "", "genders": [], "languages": [], "places_of_operation": [], "biography": "", "biography_author": null, "date_of_biography": "2023-08-14T13:19:54.788797+10:00", "external_links": [], "uuid": "69b6a96d-ccc7-4d45-b00a-cdb321b73abf", "source": {"name": "Vernon", "slug": "vernon"}, "source_identifier": "38347", "external_references": [{"id": 36228, "source": {"name": "Wikidata", "slug": "wikidata"}, "source_identifier": "Q121270816"}], "date_modified": "2025-03-11T14:37:17.835623+11:00"}]}