{"count": 28687, "next": "https://api.acmi.net.au/creators/?page=2139", "previous": "https://api.acmi.net.au/creators/?page=2137", "results": [{"id": 19820, "name": "Salenger Educational Media", "roles_in_work": [{"id": 2399429, "title": "Almost everything you ever wanted to know about motivating people or Maslow's hierarchy of needs", "work_id": 91536, "role": "production company", "role_id": 941, "is_primary": true}, {"id": 2647538, "title": "As others see us: a look at interpersonal relations", "work_id": 76573, "role": "production company", "role_id": 941, "is_primary": true}], "also_known_as": "", "date_of_birth": "", "date_of_death": "", "genders": [], "languages": [], "places_of_operation": [], "biography": "", "biography_author": null, "date_of_biography": "2023-08-11T14:14:30.075900+10:00", "external_links": [], "uuid": "7b4a16ca-3073-4257-8730-bdc362e20396", "source": {"name": "Vernon", "slug": "vernon"}, "source_identifier": "12243", "external_references": [], "date_modified": "2025-03-05T13:27:08.719618+11:00"}, {"id": 19819, "name": "Franek Mulacek", "roles_in_work": [{"id": 2467997, "title": "The Rhythm of work", "work_id": 76572, "role": "director", "role_id": 938, "is_primary": true}], "also_known_as": "", "date_of_birth": "", "date_of_death": "", "genders": [], "languages": [], "places_of_operation": [], "biography": "", "biography_author": null, "date_of_biography": "2023-08-14T11:31:36.629465+10:00", "external_links": [], "uuid": "3e64a162-7fa8-4405-a18f-1620024abf96", "source": {"name": "Vernon", "slug": "vernon"}, "source_identifier": "19151", "external_references": [], "date_modified": "2023-08-14T11:31:36.629951+10:00"}, {"id": 19818, "name": "Jadran Film (Zagreb)", "roles_in_work": [{"id": 2467996, "title": "The Rhythm of work", "work_id": 76572, "role": "production company", "role_id": 941, "is_primary": true}, {"id": 2468091, "title": "The Seventh continent (Anamorphic)", "work_id": 78114, "role": "production company", "role_id": 941, "is_primary": true}], "also_known_as": "", "date_of_birth": "", "date_of_death": "", "genders": [], "languages": [], "places_of_operation": [], "biography": "", "biography_author": null, "date_of_biography": "2023-08-14T11:33:45.401605+10:00", "external_links": [], "uuid": "4deab1d2-f410-473d-9183-8f4974ed9dce", "source": {"name": "Vernon", "slug": "vernon"}, "source_identifier": "9532", "external_references": [], "date_modified": "2023-08-14T11:33:45.402106+10:00"}, {"id": 19817, "name": "Jugoslavia Film", "roles_in_work": [{"id": 2409584, "title": "His Majesty", "work_id": 76571, "role": "production company", "role_id": 941, "is_primary": true}], "also_known_as": "", "date_of_birth": "", "date_of_death": "", "genders": [], "languages": [], "places_of_operation": [], "biography": "", "biography_author": null, "date_of_biography": "2023-08-11T17:25:10.707510+10:00", "external_links": [], "uuid": "72e8aa71-dce5-4fd1-b83e-03b52c9f264a", "source": {"name": "Vernon", "slug": "vernon"}, "source_identifier": "9659", "external_references": [], "date_modified": "2023-08-11T17:25:10.707794+10:00"}, {"id": 19816, "name": "Ford Foundation", "roles_in_work": [{"id": 873181, "title": "Baboon development: the older infant, four months to one year (Nairobi Park)", "work_id": 88055, "role": "production company", "role_id": 941, "is_primary": true}, {"id": 2647536, "title": "That our children will not die", "work_id": 76569, "role": "production company", "role_id": 941, "is_primary": true}, {"id": 2087865, "title": "Amandla! A revolution in four-part harmony", "work_id": 95147, "role": "production company", "role_id": 941, "is_primary": true}], "also_known_as": "", "date_of_birth": "", "date_of_death": "", "genders": [], "languages": [], "places_of_operation": [], "biography": "", "biography_author": null, "date_of_biography": "2023-05-09T11:59:37.815419+10:00", "external_links": [], "uuid": "e64a39a6-575a-4ceb-a045-7147592307bd", "source": {"name": "Vernon", "slug": "vernon"}, "source_identifier": "8433", "external_references": [{"id": 39853, "source": {"name": "Wikidata", "slug": "wikidata"}, "source_identifier": "Q1313036"}], "date_modified": "2025-03-05T13:27:07.278196+11:00"}, {"id": 19810, "name": "John Strysik", "roles_in_work": [{"id": 2467658, "title": "The Music of Erich Zann", "work_id": 76565, "role": "director", "role_id": 938, "is_primary": true}, {"id": 2467656, "title": "The Music of Erich Zann", "work_id": 76565, "role": "co-producer", "role_id": 915, "is_primary": true}], "also_known_as": "", "date_of_birth": "", "date_of_death": "", "genders": [], "languages": [], "places_of_operation": [], "biography": "", "biography_author": null, "date_of_biography": "2023-08-14T11:24:45.249691+10:00", "external_links": [], "uuid": "2818afa4-ee2a-4c85-ad1a-a185716cfde0", "source": {"name": "Vernon", "slug": "vernon"}, "source_identifier": "22545", "external_references": [], "date_modified": "2023-08-14T11:24:45.249904+10:00"}, {"id": 19809, "name": "Essential Saltes Productions", "roles_in_work": [{"id": 2467655, "title": "The Music of Erich Zann", "work_id": 76565, "role": "production company", "role_id": 941, "is_primary": true}], "also_known_as": "", "date_of_birth": "", "date_of_death": "", "genders": [], "languages": [], "places_of_operation": [], "biography": "", "biography_author": null, "date_of_biography": "2023-08-14T11:24:43.329736+10:00", "external_links": [], "uuid": "4c7b00ef-8482-4a60-822a-4a125e332c76", "source": {"name": "Vernon", "slug": "vernon"}, "source_identifier": "7970", "external_references": [], "date_modified": "2023-08-14T11:24:43.330005+10:00"}, {"id": 19808, "name": "Evelyn Barron", "roles_in_work": [{"id": 2793355, "title": "Make believe marriage", "work_id": 76564, "role": "producer", "role_id": 1089, "is_primary": true}, {"id": 2750539, "title": "The Tap dance kid. - Edited version", "work_id": 97382, "role": "producer", "role_id": 1089, "is_primary": true}, {"id": 2647704, "title": "The Tap dance kid", "work_id": 77113, "role": "producer", "role_id": 1089, "is_primary": true}], "also_known_as": "", "date_of_birth": null, "date_of_death": null, "genders": [], "languages": [], "places_of_operation": [], "biography": "", "biography_author": null, "date_of_biography": null, "external_links": [], "uuid": "f9282712-823b-448a-8c28-5c8914d3afb5", "source": {"name": "Vernon", "slug": "vernon"}, "source_identifier": "18930", "external_references": [], "date_modified": "2025-03-13T00:25:28.680601+11:00"}, {"id": 19807, "name": "Toshio Matsumoto", "roles_in_work": [{"id": 2413846, "title": "Ki or breathing", "work_id": 76563, "role": "director", "role_id": 938, "is_primary": true}], "also_known_as": "", "date_of_birth": "", "date_of_death": "", "genders": [], "languages": [], "places_of_operation": [], "biography": "", "biography_author": null, "date_of_biography": "2023-08-11T19:05:35.470570+10:00", "external_links": [], "uuid": "61fdf796-cbfa-4ddd-bbad-42ae7d3f6dcf", "source": {"name": "Vernon", "slug": "vernon"}, "source_identifier": "29940", "external_references": [], "date_modified": "2023-08-11T19:05:35.470800+10:00"}, {"id": 19804, "name": "Committee For The Year 2001", "roles_in_work": [{"id": 2413843, "title": "Ki or breathing", "work_id": 76563, "role": "production company", "role_id": 941, "is_primary": true}], "also_known_as": "", "date_of_birth": "", "date_of_death": "", "genders": [], "languages": [], "places_of_operation": [], "biography": "", "biography_author": null, "date_of_biography": "2023-08-11T19:05:33.549451+10:00", "external_links": [], "uuid": "8f155adc-2886-4035-b04c-9b8baf304778", "source": {"name": "Vernon", "slug": "vernon"}, "source_identifier": "6930", "external_references": [], "date_modified": "2023-08-11T19:05:33.549804+10:00"}]}