{"count": 28683, "next": "https://api.acmi.net.au/creators/?page=954", "previous": "https://api.acmi.net.au/creators/?page=952", "results": [{"id": 76048, "name": "Helen Biggar", "roles_in_work": [{"id": 897591, "title": "Hell unlimited", "work_id": 77705, "role": "co-producers/directors", "role_id": 628, "is_primary": true}], "also_known_as": "", "date_of_birth": null, "date_of_death": null, "genders": [], "languages": [], "places_of_operation": [], "biography": "", "biography_author": null, "date_of_biography": null, "external_links": [], "uuid": "39427294-9097-4577-90f0-efcc522bc8cd", "source": {"name": "Vernon", "slug": "vernon"}, "source_identifier": null, "external_references": [], "date_modified": "2023-06-14T16:33:30.576250+10:00"}, {"id": 76047, "name": "Margaret Bottomley", "roles_in_work": [{"id": 2770571, "title": "21 Up (TEFC)", "work_id": 77700, "role": "co-producer", "role_id": 915, "is_primary": true}, {"id": 2770581, "title": "21 Up", "work_id": 81948, "role": "co-producer", "role_id": 915, "is_primary": true}], "also_known_as": "", "date_of_birth": "", "date_of_death": "", "genders": [], "languages": [], "places_of_operation": [], "biography": "", "biography_author": null, "date_of_biography": "2023-08-14T12:09:00.587981+10:00", "external_links": [], "uuid": "ce193e9a-d78c-47af-ae4f-358b544f88fb", "source": {"name": "Vernon", "slug": "vernon"}, "source_identifier": "24336", "external_references": [{"id": 41648, "source": {"name": "Wikidata", "slug": "wikidata"}, "source_identifier": "Q121223270"}], "date_modified": "2025-03-14T18:19:52.127735+11:00"}, {"id": 76046, "name": "Lottie Lyell", "roles_in_work": [{"id": 2043109, "title": "The Sentimental bloke", "work_id": 77697, "role": "cast", "role_id": 33, "is_primary": false}, {"id": 2043598, "title": "The Woman Suffers", "work_id": 86518, "role": "cast", "role_id": 33, "is_primary": false}], "also_known_as": "Charlotte Edith Cox", "date_of_birth": "1890-02-23", "date_of_death": "1925-12-21", "genders": [{"id": 5, "name": "Female", "slug": "female"}], "languages": [], "places_of_operation": [{"id": 3, "name": "Australia", "slug": "australia"}], "biography": "Lottie Lyell (born Charlotte Edith Cox, 23 February 1890 – 21 December 1925) was an Australian actress, screenwriter, editor and filmmaker. She is regarded as Australia's first film star, and also contributed to the local industry during the silent era through her collaborations with director and writer Raymond Longford.\nShe was born in Balmain, a suburb in Sydney, New South Wales in 1890. By 1912, Lyell had become romantically involved with Longford. The couple lived together in Brisbane and formed one of the most productive and influential partnerships in the history of Australian cinema. Although Longford was separated, his Catholic wife would not divorce him and he was never able to marry Lyell. Lyell fell ill with tuberculosis and died at her home in Roseville, North Sydney on 21 December 1925. Longford died in 1959, and is buried alongside Lyell at Macquarie Park Cemetery and Crematorium.", "biography_author": "Wikidata", "date_of_biography": "2023-08-01T15:58:52.654872+10:00", "external_links": [{"id": 4566, "uri": "https://en.wikipedia.org/wiki/Lottie_Lyell"}], "uuid": "f454f6ed-c6e3-4b7b-bcd1-516d404dd55a", "source": {"name": "Vernon", "slug": "vernon"}, "source_identifier": "34598", "external_references": [{"id": 25284, "source": {"name": "Wikidata", "slug": "wikidata"}, "source_identifier": "Q6685026"}, {"id": 29993, "source": {"name": "VIAF", "slug": "viaf"}, "source_identifier": "44088708"}, {"id": 29994, "source": {"name": "LOC Auth", "slug": "loc-auth"}, "source_identifier": "no2007121845"}, {"id": 29995, "source": {"name": "WorldCat", "slug": "worldcat"}, "source_identifier": "lccn-no2007121845"}], "date_modified": "2023-09-05T22:30:21.802435+10:00"}, {"id": 76045, "name": "John Willis", "roles_in_work": [{"id": 2085522, "title": "Alice: a fight for life", "work_id": 77694, "role": "producer/director", "role_id": 31, "is_primary": true}], "also_known_as": "", "date_of_birth": "", "date_of_death": "", "genders": [], "languages": [], "places_of_operation": [], "biography": "", "biography_author": null, "date_of_biography": "2023-05-09T11:56:19.506468+10:00", "external_links": [], "uuid": "5a320c6a-fe68-4b0e-adaf-2ac178f41086", "source": {"name": "Vernon", "slug": "vernon"}, "source_identifier": "22583", "external_references": [{"id": 52173, "source": {"name": "Wikidata", "slug": "wikidata"}, "source_identifier": "Q121360999"}], "date_modified": "2023-09-05T21:46:21.451645+10:00"}, {"id": 76044, "name": "Jane Kaplan", "roles_in_work": [{"id": 897583, "title": "The Power pinch", "work_id": 77690, "role": "co-producer", "role_id": 915, "is_primary": true}], "also_known_as": "", "date_of_birth": null, "date_of_death": null, "genders": [], "languages": [], "places_of_operation": [], "biography": "", "biography_author": null, "date_of_biography": null, "external_links": [], "uuid": "3f36fde3-4aa0-4d84-9d63-fe7e967d70ca", "source": {"name": "Vernon", "slug": "vernon"}, "source_identifier": null, "external_references": [{"id": 40702, "source": {"name": "Wikidata", "slug": "wikidata"}, "source_identifier": "Q121222749"}], "date_modified": "2023-09-05T21:08:08.757000+10:00"}, {"id": 76043, "name": "Frank Diamond", "roles_in_work": [{"id": 2234125, "title": "Quest for power", "work_id": 77681, "role": "co-director", "role_id": 959, "is_primary": true}, {"id": 908907, "title": "Whoever says the truth shall die : A film about Pier Paolo Pasolini", "work_id": 89349, "role": "co-producer", "role_id": 915, "is_primary": true}], "also_known_as": "", "date_of_birth": "", "date_of_death": "", "genders": [], "languages": [], "places_of_operation": [], "biography": "", "biography_author": null, "date_of_biography": "2023-05-09T16:43:04.445452+10:00", "external_links": [], "uuid": "cca04869-ceee-4a1f-9c80-d793ae8f106d", "source": {"name": "Vernon", "slug": "vernon"}, "source_identifier": "19111", "external_references": [{"id": 37049, "source": {"name": "Wikidata", "slug": "wikidata"}, "source_identifier": "Q121078988"}], "date_modified": "2023-09-05T19:49:31.908281+10:00"}, {"id": 76042, "name": "Bonnie Friedman", "roles_in_work": [{"id": 2467327, "title": "The Last to know", "work_id": 77659, "role": "producer/director", "role_id": 31, "is_primary": true}], "also_known_as": "", "date_of_birth": "", "date_of_death": "", "genders": [], "languages": [], "places_of_operation": [], "biography": "", "biography_author": null, "date_of_biography": "2023-08-14T11:17:52.174637+10:00", "external_links": [], "uuid": "9a00dbcd-a505-40e5-ba96-fc80260e27c1", "source": {"name": "Vernon", "slug": "vernon"}, "source_identifier": "16131", "external_references": [{"id": 51739, "source": {"name": "Wikidata", "slug": "wikidata"}, "source_identifier": "Q121360806"}], "date_modified": "2023-09-05T18:08:28.132604+10:00"}, {"id": 76041, "name": "Sandi Sissel", "roles_in_work": [{"id": 2238480, "title": "Fetishes, Heidi Fleiss, Chicken Ranch - The Nick Broomfield collection volume 1: adventures in the sex trade", "work_id": 95035, "role": "co-director", "role_id": 959, "is_primary": true}, {"id": 2135972, "title": "Chicken ranch: a legal brothel in Nevada", "work_id": 77658, "role": "co-director", "role_id": 959, "is_primary": true}], "also_known_as": "", "date_of_birth": "", "date_of_death": "", "genders": [], "languages": [], "places_of_operation": [], "biography": "", "biography_author": null, "date_of_biography": "2023-05-09T16:49:38.482336+10:00", "external_links": [], "uuid": "c8042481-3200-459f-b0dc-83acc50e2fee", "source": {"name": "Vernon", "slug": "vernon"}, "source_identifier": "28528", "external_references": [{"id": 38493, "source": {"name": "Wikidata", "slug": "wikidata"}, "source_identifier": "Q121036759"}], "date_modified": "2023-09-06T01:04:22.712434+10:00"}, {"id": 76040, "name": "Sirkka Konttinen", "roles_in_work": [{"id": 897563, "title": "Keeping time", "work_id": 77656, "role": "co-director", "role_id": 959, "is_primary": true}], "also_known_as": "", "date_of_birth": null, "date_of_death": null, "genders": [], "languages": [], "places_of_operation": [], "biography": "", "biography_author": null, "date_of_biography": null, "external_links": [], "uuid": "98ae0e61-6ee4-405d-9773-2ba5c08a85dd", "source": {"name": "Vernon", "slug": "vernon"}, "source_identifier": null, "external_references": [{"id": 42532, "source": {"name": "Wikidata", "slug": "wikidata"}, "source_identifier": "Q121271456"}], "date_modified": "2023-09-06T01:21:18.177069+10:00"}, {"id": 76039, "name": "Richard Averson", "roles_in_work": [{"id": 2188922, "title": "Parrish blue (TEFC)", "work_id": 77654, "role": "co-producers/directors", "role_id": 628, "is_primary": true}], "also_known_as": "", "date_of_birth": "", "date_of_death": "", "genders": [], "languages": [], "places_of_operation": [], "biography": "", "biography_author": null, "date_of_biography": "2023-05-09T15:05:41.648798+10:00", "external_links": [], "uuid": "64e4e5f9-b8d2-484d-8d15-08fa12e1b4aa", "source": {"name": "Vernon", "slug": "vernon"}, "source_identifier": "27316", "external_references": [], "date_modified": "2023-06-14T16:33:30.576250+10:00"}]}