{"count": 28682, "next": "https://api.acmi.net.au/creators/?page=1489", "previous": "https://api.acmi.net.au/creators/?page=1487", "results": [{"id": 34385, "name": "Fernando Solanas", "roles_in_work": [{"id": 2357642, "title": "The Journey = The Voyage = El Viaje [Widescreen]", "work_id": 92716, "role": "director", "role_id": 938, "is_primary": true}], "also_known_as": "Fernando Ezequiel Solanas", "date_of_birth": "1936-02-16", "date_of_death": "2020-11-06", "genders": [{"id": 9, "name": "Male", "slug": "male"}], "languages": [{"id": 4, "name": "French", "slug": "french"}, {"id": 10, "name": "Spanish", "slug": "spanish"}], "places_of_operation": [{"id": 23, "name": "Argentina", "slug": "argentina"}], "biography": "Fernando Ezequiel \"Pino\" Solanas (16 February 1936 – 6 November 2020) was an Argentine film director, screenwriter, score composer and politician. His films include; La hora de los hornos (The Hour of the Furnaces) (1968), Tangos: el exilio de Gardel (1985), Sur (1988), El viaje (1992), La nube (1998) and Memoria del saqueo (2004), among many others. He was National Senator representing the Autonomous City of Buenos Aires for six years, from 2013 to 2019.\nSolanas studied theatre, music, and law. In 1962, he directed his first short feature Seguir andando and in 1968 he covertly produced and directed his first long feature film La Hora de los Hornos, a documentary on neo-colonialism and violence in Latin America. The film won several international awards and was screened around the world. Solanas won the Grand Jury Prize and the Critics Award at the Venice Film Festival and the Prix de la mise en scène at the Cannes Film Festival. In 1999 he was the President of the Jury at the 21st Moscow International Film Festival. He was awarded a special Honorary Golden Bear at the 2004 Berlin Film Festival. He collaborated with tango composer and musician Ástor Piazzolla on the soundtracks for various movies.", "biography_author": "Wikidata", "date_of_biography": "2023-08-01T14:49:41.341091+10:00", "external_links": [{"id": 3971, "uri": "https://en.wikipedia.org/wiki/Fernando_Solanas"}], "uuid": "ee4e77dc-0789-4986-95fa-b3fe923f95f1", "source": {"name": "Vernon", "slug": "vernon"}, "source_identifier": "18994", "external_references": [{"id": 26596, "source": {"name": "Wikidata", "slug": "wikidata"}, "source_identifier": "Q508497"}, {"id": 28403, "source": {"name": "VIAF", "slug": "viaf"}, "source_identifier": "46957805"}, {"id": 28404, "source": {"name": "LOC Auth", "slug": "loc-auth"}, "source_identifier": "n87841107"}, {"id": 28405, "source": {"name": "WorldCat", "slug": "worldcat"}, "source_identifier": "lccn-n87841107"}], "date_modified": "2023-09-05T19:42:18.652327+10:00"}, {"id": 34382, "name": "Les Films du Sud", "roles_in_work": [{"id": 2357632, "title": "The Journey = The Voyage = El Viaje [Widescreen]", "work_id": 92716, "role": "production company", "role_id": 941, "is_primary": true}], "also_known_as": "", "date_of_birth": "", "date_of_death": "", "genders": [], "languages": [], "places_of_operation": [], "biography": "", "biography_author": null, "date_of_biography": "2023-05-09T20:06:26.036383+10:00", "external_links": [], "uuid": "e989cebf-ce0a-41a2-a281-1f0eda020f71", "source": {"name": "Vernon", "slug": "vernon"}, "source_identifier": "10011", "external_references": [{"id": 34462, "source": {"name": "Wikidata", "slug": "wikidata"}, "source_identifier": "Q121058114"}], "date_modified": "2023-09-05T22:21:36.136451+10:00"}, {"id": 34381, "name": "Cinesur", "roles_in_work": [{"id": 2357629, "title": "The Journey = The Voyage = El Viaje [Widescreen]", "work_id": 92716, "role": "production company", "role_id": 941, "is_primary": true}], "also_known_as": "", "date_of_birth": "", "date_of_death": "", "genders": [], "languages": [], "places_of_operation": [], "biography": "", "biography_author": null, "date_of_biography": "2023-05-09T20:06:25.690802+10:00", "external_links": [], "uuid": "1b4092b0-5b94-4603-94e8-da79ac5c48c8", "source": {"name": "Vernon", "slug": "vernon"}, "source_identifier": "6767", "external_references": [{"id": 41096, "source": {"name": "Wikidata", "slug": "wikidata"}, "source_identifier": "Q121078932"}], "date_modified": "2023-09-05T18:38:13.534354+10:00"}, {"id": 34379, "name": "Gwyneth Hughes", "roles_in_work": [{"id": 3082415, "title": "Paradise of adventurers", "work_id": 92711, "role": "producer", "role_id": 1089, "is_primary": true}, {"id": 3082435, "title": "China Rising", "work_id": 115564, "role": "producer", "role_id": 1089, "is_primary": true}, {"id": 3082420, "title": "Change in heaven", "work_id": 92712, "role": "producer/director", "role_id": 31, "is_primary": true}], "also_known_as": "", "date_of_birth": null, "date_of_death": null, "genders": [], "languages": [], "places_of_operation": [], "biography": "", "biography_author": null, "date_of_biography": null, "external_links": [], "uuid": "68d32a63-2cf5-4bcc-af66-06fff3346728", "source": {"name": "Vernon", "slug": "vernon"}, "source_identifier": "20157", "external_references": [], "date_modified": "2025-03-17T10:29:04.364192+11:00"}, {"id": 34373, "name": "Agnes Varda", "roles_in_work": [{"id": 812511, "title": "Cleo from 5 to 7 = Cleo de 5 a 7", "work_id": 92708, "role": "director", "role_id": 938, "is_primary": true}, {"id": 3104431, "title": "Les Creatures = the Creatures", "work_id": 115910, "role": "director", "role_id": 938, "is_primary": true}, {"id": 1996463, "title": "Jacquot de Nantes [Widescreen]", "work_id": 92706, "role": "director", "role_id": 938, "is_primary": true}, {"id": 2351147, "title": "The Gleaners and I = Les Glaneurs et la glaneuse", "work_id": 94941, "role": "director", "role_id": 938, "is_primary": true}, {"id": 813165, "title": "Vagabond = Sans toit ni loi", "work_id": 92856, "role": "director", "role_id": 938, "is_primary": true}], "also_known_as": "Arlette Varda", "date_of_birth": "1928-05-30", "date_of_death": "2019-03-29", "genders": [{"id": 5, "name": "Female", "slug": "female"}], "languages": [{"id": 4, "name": "French", "slug": "french"}], "places_of_operation": [{"id": 17, "name": "France", "slug": "france"}], "biography": "Agnès Varda (French: [aɲɛs vaʁda]; born Arlette Varda, 30 May 1928 – 29 March 2019) was a Belgian-born French film director, screenwriter, photographer, and artist. Her pioneering work was central to the development of the widely influential French New Wave film movement of the 1950s and 1960s. Her films focused on achieving documentary realism, addressing women's issues, and other social commentary, with a distinctive experimental style.Varda's work employed location shooting in an era when the limitations of sound technology made it easier and more common to film indoors, with constructed sets and painted backdrops of landscapes, rather than outdoors, on location. Her use of non-professional actors was also unconventional for 1950s French cinema. Varda's feature film debut was La Pointe Courte (1955), followed by Cléo from 5 to 7 (1962), one of her most notable film narrative films, Vagabond (1985), and Kung Fu Master (1988). Varda was also known for her work as a documentarian with such works as Black Panthers (1968), The Gleaners and I (2000), The Beaches of Agnès (2008), Faces Places (2017), and her final film, Varda by Agnès (2019).\nDirector Martin Scorsese described Varda as \"one of the Gods of Cinema\". Among several other accolades, Varda received an Honorary Palme d'Or at the Cannes Film Festival, a Golden Lion at the Venice Film Festival, an Academy Honorary Award, and was nominated for the Academy Award for Best Documentary Feature. She was the first female director to be feted with an honorary Oscar.", "biography_author": "Wikidata", "date_of_biography": "2022-05-19T10:41:05.977981+10:00", "external_links": [{"id": 1559, "uri": "https://en.wikipedia.org/wiki/Agn%C3%A8s_Varda"}], "uuid": "a730460f-2c77-4f9a-96c2-f720bbf58bcb", "source": {"name": "Vernon", "slug": "vernon"}, "source_identifier": "14679", "external_references": [{"id": 6834, "source": {"name": "Wikidata", "slug": "wikidata"}, "source_identifier": "Q229990"}, {"id": 6835, "source": {"name": "VIAF", "slug": "viaf"}, "source_identifier": "84256688"}, {"id": 6836, "source": {"name": "LOC Auth", "slug": "loc-auth"}, "source_identifier": "n90695440"}, {"id": 6837, "source": {"name": "WorldCat", "slug": "worldcat"}, "source_identifier": "lccn-n90695440"}], "date_modified": "2025-05-22T22:40:46.125003+10:00"}, {"id": 34372, "name": "Nick Mangay", "roles_in_work": [{"id": 2135664, "title": "Chess moves", "work_id": 92705, "role": "producer", "role_id": 1089, "is_primary": true}], "also_known_as": "", "date_of_birth": "", "date_of_death": "", "genders": [], "languages": [], "places_of_operation": [], "biography": "", "biography_author": null, "date_of_biography": "2023-05-09T13:29:04.622758+10:00", "external_links": [], "uuid": "9e41a087-e17a-40a7-bc6c-a12ccd6a33ff", "source": {"name": "Vernon", "slug": "vernon"}, "source_identifier": "25752", "external_references": [{"id": 39714, "source": {"name": "Wikidata", "slug": "wikidata"}, "source_identifier": "Q121337468"}], "date_modified": "2023-09-05T23:30:04.141283+10:00"}, {"id": 34371, "name": "David G Productions", "roles_in_work": [{"id": 2135660, "title": "Chess moves", "work_id": 92705, "role": "production company", "role_id": 941, "is_primary": true}], "also_known_as": "", "date_of_birth": "", "date_of_death": "", "genders": [], "languages": [], "places_of_operation": [], "biography": "", "biography_author": null, "date_of_biography": "2023-05-09T13:29:04.386993+10:00", "external_links": [], "uuid": "35083f45-2aea-44f7-a327-11828dc62723", "source": {"name": "Vernon", "slug": "vernon"}, "source_identifier": "7338", "external_references": [{"id": 39977, "source": {"name": "Wikidata", "slug": "wikidata"}, "source_identifier": "Q121271247"}], "date_modified": "2023-09-05T18:57:09.982084+10:00"}, {"id": 34366, "name": "Square Co", "roles_in_work": [{"id": 2240684, "title": "Final fantasy: the spirits within", "work_id": 92701, "role": "production company", "role_id": 941, "is_primary": true}], "also_known_as": "", "date_of_birth": "", "date_of_death": "", "genders": [], "languages": [], "places_of_operation": [], "biography": "", "biography_author": null, "date_of_biography": "2023-05-09T16:53:06.728712+10:00", "external_links": [], "uuid": "3687e502-370d-457c-b738-0984072fbde3", "source": {"name": "Vernon", "slug": "vernon"}, "source_identifier": "12884", "external_references": [], "date_modified": "2023-06-14T16:33:30.576250+10:00"}, {"id": 34365, "name": "Chris Lee", "roles_in_work": [{"id": 2240693, "title": "Final fantasy: the spirits within", "work_id": 92701, "role": "co-producer", "role_id": 915, "is_primary": true}, {"id": 2240680, "title": "Final fantasy: the spirits within", "work_id": 92701, "role": "production company", "role_id": 941, "is_primary": true}], "also_known_as": "", "date_of_birth": "", "date_of_death": "", "genders": [], "languages": [], "places_of_operation": [], "biography": "", "biography_author": null, "date_of_biography": "2023-05-09T16:53:07.329292+10:00", "external_links": [], "uuid": "4fe933f7-2b75-4f81-a8d5-62e8d575ab43", "source": {"name": "Vernon", "slug": "vernon"}, "source_identifier": "16843", "external_references": [{"id": 38140, "source": {"name": "Wikidata", "slug": "wikidata"}, "source_identifier": "Q121078754"}], "date_modified": "2023-09-05T18:32:30.808362+10:00"}, {"id": 34355, "name": "Amvest Video", "roles_in_work": [{"id": 1848517, "title": "Count Basie and friends 1943-1951", "work_id": 94686, "role": "production company", "role_id": 941, "is_primary": true}, {"id": 881053, "title": "Grampa's monster movies", "work_id": 92687, "role": "production company", "role_id": 941, "is_primary": true}, {"id": 881216, "title": "Grampa's sci-fi hits", "work_id": 92749, "role": "production company", "role_id": 941, "is_primary": true}, {"id": 885396, "title": "Lucy, queen of comedy", "work_id": 95351, "role": "production company", "role_id": 941, "is_primary": true}, {"id": 882496, "title": "Hollywood remembers [sex goddesses]", "work_id": 93224, "role": "production company", "role_id": 941, "is_primary": true}, {"id": 2106891, "title": "Bad boys of Hollywood", "work_id": 93216, "role": "production company", "role_id": 941, "is_primary": true}, {"id": 1848520, "title": "Nat \"King\" Cole plus the Mills Brothers and Delta Rhythm Boys, 1943-1951", "work_id": 94687, "role": "production company", "role_id": 941, "is_primary": true}], "also_known_as": "", "date_of_birth": "", "date_of_death": "", "genders": [], "languages": [], "places_of_operation": [], "biography": "", "biography_author": null, "date_of_biography": "2023-05-09T12:40:07.448107+10:00", "external_links": [], "uuid": "58166bef-3d9d-4b83-be9e-ec652c550628", "source": {"name": "Vernon", "slug": "vernon"}, "source_identifier": "5236", "external_references": [{"id": 33656, "source": {"name": "Wikidata", "slug": "wikidata"}, "source_identifier": "Q121126309"}], "date_modified": "2023-09-05T17:32:04.340222+10:00"}]}