{"count": 28684, "next": "https://api.acmi.net.au/creators/?page=1077", "previous": "https://api.acmi.net.au/creators/?page=1075", "results": [{"id": 74819, "name": "Donald Wise", "roles_in_work": [{"id": 2715758, "title": "How does a rainbow feel?", "work_id": 68600, "role": "co-producer", "role_id": 915, "is_primary": true}], "also_known_as": "", "date_of_birth": null, "date_of_death": null, "genders": [], "languages": [], "places_of_operation": [], "biography": "", "biography_author": null, "date_of_biography": null, "external_links": [], "uuid": "fa10f6b8-0e8f-4ae0-8424-15d96d12fe32", "source": {"name": "Vernon", "slug": "vernon"}, "source_identifier": "18322", "external_references": [{"id": 34515, "source": {"name": "Wikidata", "slug": "wikidata"}, "source_identifier": "Q121298744"}], "date_modified": "2025-03-12T01:41:23.258144+11:00"}, {"id": 74818, "name": "Stanley S Madeja", "roles_in_work": [{"id": 2715757, "title": "How does a rainbow feel?", "work_id": 68600, "role": "co-producer", "role_id": 915, "is_primary": true}], "also_known_as": "", "date_of_birth": null, "date_of_death": null, "genders": [], "languages": [], "places_of_operation": [], "biography": "", "biography_author": null, "date_of_biography": null, "external_links": [], "uuid": "a27a9d15-0cb0-49d2-99a1-1d34d4f25100", "source": {"name": "Vernon", "slug": "vernon"}, "source_identifier": "28982", "external_references": [{"id": 41277, "source": {"name": "Wikidata", "slug": "wikidata"}, "source_identifier": "Q121036354"}], "date_modified": "2025-03-12T01:41:22.663235+11:00"}, {"id": 74817, "name": "Ishu Patel", "roles_in_work": [{"id": 2715748, "title": "How death came to earth", "work_id": 68595, "role": "director", "role_id": 938, "is_primary": true}, {"id": 2750552, "title": "Bead Game = Histoire de perles", "work_id": 97388, "role": "director", "role_id": 938, "is_primary": true}, {"id": 2082946, "title": "Afterlife", "work_id": 76495, "role": "director", "role_id": 938, "is_primary": true}, {"id": 2186622, "title": "Paradise", "work_id": 78448, "role": "director", "role_id": 938, "is_primary": true}, {"id": 2201922, "title": "Perspectrum = Perspectre", "work_id": 71497, "role": "director", "role_id": 938, "is_primary": true}, {"id": 2186617, "title": "Paradise", "work_id": 78448, "role": "co-producer", "role_id": 915, "is_primary": true}, {"id": 2752185, "title": "The Sound collector", "work_id": 98183, "role": "co-producer", "role_id": 915, "is_primary": true}, {"id": 2289821, "title": "Top priority", "work_id": 77011, "role": "producer/director", "role_id": 31, "is_primary": true}], "also_known_as": "", "date_of_birth": "20 APR 1942", "date_of_death": "", "genders": [{"id": 9, "name": "Male", "slug": "male"}], "languages": [], "places_of_operation": [{"id": 50, "name": "India", "slug": "india"}], "biography": "Ishu Patel is an animation film director/producer and educator.  During his twenty-five years at the National Film Board of Canada he developed animation techniques and styles to support his themes and vision. Since then he has produced animated spots for television and has been teaching internationally. Source: Wikidata; 01/08/2023", "biography_author": null, "date_of_biography": "2025-03-13T01:00:29.578615+11:00", "external_links": [{"id": 4204, "uri": "https://en.wikipedia.org/wiki/Ishu_Patel"}], "uuid": "3dd3cabf-d099-4241-87e2-27cf389ef4b1", "source": {"name": "Vernon", "slug": "vernon"}, "source_identifier": "20912", "external_references": [{"id": 26050, "source": {"name": "Wikidata", "slug": "wikidata"}, "source_identifier": "Q1673903"}, {"id": 29038, "source": {"name": "VIAF", "slug": "viaf"}, "source_identifier": "2068761"}, {"id": 29039, "source": {"name": "LOC Auth", "slug": "loc-auth"}, "source_identifier": "no97016342"}, {"id": 29040, "source": {"name": "WorldCat", "slug": "worldcat"}, "source_identifier": "lccn-no97016342"}], "date_modified": "2025-03-13T01:00:29.578843+11:00"}, {"id": 74816, "name": "Kaj Pindal", "roles_in_work": [{"id": 895405, "title": "The Peep show", "work_id": 71430, "role": "director", "role_id": 938, "is_primary": true}, {"id": 2715679, "title": "Hors d'oeuvre = Hors-d'oeuvre", "work_id": 68552, "role": "director", "role_id": 938, "is_primary": true}, {"id": 2615618, "title": "Caninabis", "work_id": 85753, "role": "director", "role_id": 938, "is_primary": true}, {"id": 2211517, "title": "Pot purri", "work_id": 71734, "role": "director", "role_id": 938, "is_primary": true}], "also_known_as": "", "date_of_birth": "01 DEC 1927", "date_of_death": "28 JUN 2019", "genders": [{"id": 9, "name": "Male", "slug": "male"}], "languages": [{"id": 34, "name": "Danish", "slug": "danish"}], "places_of_operation": [{"id": 34, "name": "Denmark", "slug": "denmark"}], "biography": "Kaj Gøtzsche Pindal (December 1, 1927 – June 28, 2019) was an animator and animation educator who worked at the National Film Board of Canada (NFB) beginning in 1957, and created such works as the Academy Award-nominated What on Earth! (1967, co-directed with Les Drew) and the 1988 NFB short Peep and the Big Wide World as well as the television series of the same name in 2004. Source: Wikidata; 01/08/2023", "biography_author": null, "date_of_biography": "2025-03-12T01:40:25.514750+11:00", "external_links": [{"id": 4460, "uri": "https://en.wikipedia.org/wiki/Kaj_Pindal"}], "uuid": "67ffe70a-f747-471f-b9c9-9447aa48623b", "source": {"name": "Vernon", "slug": "vernon"}, "source_identifier": "22970", "external_references": [{"id": 26645, "source": {"name": "Wikidata", "slug": "wikidata"}, "source_identifier": "Q6348806"}, {"id": 29715, "source": {"name": "VIAF", "slug": "viaf"}, "source_identifier": "255718462"}, {"id": 29716, "source": {"name": "LOC Auth", "slug": "loc-auth"}, "source_identifier": "no2003033749"}, {"id": 29717, "source": {"name": "WorldCat", "slug": "worldcat"}, "source_identifier": "lccn-no2003033749"}], "date_modified": "2025-03-12T01:40:25.515048+11:00"}, {"id": 74815, "name": "True Boardman", "roles_in_work": [{"id": 2715660, "title": "Horizons of hope", "work_id": 68548, "role": "co-director", "role_id": 959, "is_primary": true}], "also_known_as": "", "date_of_birth": null, "date_of_death": null, "genders": [], "languages": [], "places_of_operation": [], "biography": "", "biography_author": null, "date_of_biography": null, "external_links": [], "uuid": "c821e5fa-b6a6-4f7b-bff5-a75eccd1d92d", "source": {"name": "Vernon", "slug": "vernon"}, "source_identifier": "29998", "external_references": [], "date_modified": "2025-03-12T01:40:13.593087+11:00"}, {"id": 74814, "name": "Chris Warren-Smith", "roles_in_work": [{"id": 2715651, "title": "Hoosh down", "work_id": 68543, "role": "co-director", "role_id": 959, "is_primary": true}], "also_known_as": "", "date_of_birth": "", "date_of_death": "", "genders": [], "languages": [], "places_of_operation": [], "biography": "", "biography_author": null, "date_of_biography": "2023-08-11T17:29:56.528198+10:00", "external_links": [], "uuid": "0a005779-5ed2-40ad-939d-b7ba79cf0092", "source": {"name": "Vernon", "slug": "vernon"}, "source_identifier": "16886", "external_references": [{"id": 37169, "source": {"name": "Wikidata", "slug": "wikidata"}, "source_identifier": "Q121223239"}], "date_modified": "2025-03-12T01:40:05.742138+11:00"}, {"id": 74813, "name": "Phillip Thorpe", "roles_in_work": [{"id": 2715650, "title": "Hoosh down", "work_id": 68543, "role": "co-director", "role_id": 959, "is_primary": true}], "also_known_as": "", "date_of_birth": "", "date_of_death": "", "genders": [], "languages": [], "places_of_operation": [], "biography": "", "biography_author": null, "date_of_biography": "2023-08-11T17:29:55.900410+10:00", "external_links": [], "uuid": "44d8f087-d76a-4656-b1f4-25c9d8df1e4c", "source": {"name": "Vernon", "slug": "vernon"}, "source_identifier": "26893", "external_references": [{"id": 40699, "source": {"name": "Wikidata", "slug": "wikidata"}, "source_identifier": "Q121079191"}], "date_modified": "2025-03-12T01:40:05.164071+11:00"}, {"id": 74812, "name": "Nick Sitzler", "roles_in_work": [{"id": 2715649, "title": "Hoosh down", "work_id": 68543, "role": "co-director", "role_id": 959, "is_primary": true}], "also_known_as": "", "date_of_birth": "", "date_of_death": "", "genders": [], "languages": [], "places_of_operation": [], "biography": "", "biography_author": null, "date_of_biography": "2023-08-11T17:29:55.265911+10:00", "external_links": [], "uuid": "1236ca63-ee7f-40ff-bfc9-21b2df8f7b40", "source": {"name": "Vernon", "slug": "vernon"}, "source_identifier": "25763", "external_references": [{"id": 35101, "source": {"name": "Wikidata", "slug": "wikidata"}, "source_identifier": "Q121091116"}], "date_modified": "2025-03-12T01:40:04.585149+11:00"}, {"id": 74811, "name": "Saren Dobkins", "roles_in_work": [{"id": 2715648, "title": "Hoosh down", "work_id": 68543, "role": "co-director", "role_id": 959, "is_primary": true}], "also_known_as": "", "date_of_birth": "", "date_of_death": "", "genders": [], "languages": [], "places_of_operation": [], "biography": "", "biography_author": null, "date_of_biography": "2023-08-11T17:29:54.579414+10:00", "external_links": [], "uuid": "bd9e7098-e48a-4a21-be41-83d33217ddb5", "source": {"name": "Vernon", "slug": "vernon"}, "source_identifier": "28595", "external_references": [{"id": 42872, "source": {"name": "Wikidata", "slug": "wikidata"}, "source_identifier": "Q121299116"}], "date_modified": "2025-03-12T01:40:04.005633+11:00"}, {"id": 74810, "name": "Keith Dalby", "roles_in_work": [{"id": 2715647, "title": "Hoosh down", "work_id": 68543, "role": "co-director", "role_id": 959, "is_primary": true}], "also_known_as": "", "date_of_birth": "", "date_of_death": "", "genders": [], "languages": [], "places_of_operation": [], "biography": "", "biography_author": null, "date_of_biography": "2023-08-11T17:29:53.571439+10:00", "external_links": [], "uuid": "2b6b60ea-0409-46f9-b81e-40e723506994", "source": {"name": "Vernon", "slug": "vernon"}, "source_identifier": "23135", "external_references": [{"id": 38574, "source": {"name": "Wikidata", "slug": "wikidata"}, "source_identifier": "Q121079085"}], "date_modified": "2025-03-12T01:40:03.426353+11:00"}]}