{"count": 28683, "next": "https://api.acmi.net.au/creators/?page=2769", "previous": "https://api.acmi.net.au/creators/?page=2767", "results": [{"id": 10310, "name": "John Smart", "roles_in_work": [{"id": 748312, "title": "The Mohammedan world: beginnings and growth", "work_id": 70532, "role": "director", "role_id": 938, "is_primary": true}, {"id": 1811923, "title": "Television: how it works!", "work_id": 73590, "role": "producer", "role_id": 1089, "is_primary": true}, {"id": 2678265, "title": "Beginning french: intonation", "work_id": 65309, "role": "producer", "role_id": 1089, "is_primary": true}, {"id": 2677204, "title": "Ancient Mesopotamia", "work_id": 64746, "role": "producer", "role_id": 1089, "is_primary": true}], "also_known_as": "", "date_of_birth": "", "date_of_death": "", "genders": [], "languages": [], "places_of_operation": [], "biography": "", "biography_author": null, "date_of_biography": "2023-08-11T14:48:27.351091+10:00", "external_links": [], "uuid": "e037382c-a9aa-4db5-bd60-f19873752308", "source": {"name": "Vernon", "slug": "vernon"}, "source_identifier": "531", "external_references": [], "date_modified": "2025-03-06T23:45:28.745522+11:00"}, {"id": 10307, "name": "John Wiley", "roles_in_work": [{"id": 2680398, "title": "Contraception", "work_id": 66366, "role": "production company", "role_id": 941, "is_primary": true}], "also_known_as": "", "date_of_birth": null, "date_of_death": null, "genders": [], "languages": [], "places_of_operation": [], "biography": "", "biography_author": null, "date_of_biography": null, "external_links": [], "uuid": "fe116fb7-d415-4e6a-9f2b-5cd4e2dc7d40", "source": {"name": "Vernon", "slug": "vernon"}, "source_identifier": "22581", "external_references": [], "date_modified": "2025-03-07T00:35:17.495459+11:00"}, {"id": 10305, "name": "Eastman Kodak", "roles_in_work": [{"id": 1432485, "title": "Eastman Kodak Cine-Kodak Special II 16mm camera", "work_id": 117865, "role": "manufacturer", "role_id": 627, "is_primary": true}, {"id": 1883720, "title": "US Navy Ciné-Kodak Special", "work_id": 99433, "role": "manufacturer", "role_id": 627, "is_primary": true}, {"id": 878988, "title": "Using the Verifax printer type 1", "work_id": 91506, "role": "production company", "role_id": 941, "is_primary": true}, {"id": 2679106, "title": "The Camera at school", "work_id": 65736, "role": "production company", "role_id": 941, "is_primary": true}, {"id": 2752023, "title": "Basic movie making", "work_id": 98100, "role": "production company", "role_id": 941, "is_primary": true}, {"id": 3081670, "title": "The Fundamentals of film making. No.1: learning the language", "work_id": 67895, "role": "production company", "role_id": 941, "is_primary": true}, {"id": 3081675, "title": "The Fundamentals of film making - No.2: using the camera", "work_id": 67896, "role": "production company", "role_id": 941, "is_primary": true}, {"id": 3081679, "title": "Editing", "work_id": 67894, "role": "production company", "role_id": 941, "is_primary": true}, {"id": 884713, "title": "Motion picture production: basic lighting", "work_id": 94800, "role": "production company", "role_id": 941, "is_primary": true}, {"id": 857324, "title": "Proper print handling", "work_id": 71918, "role": "production company", "role_id": 941, "is_primary": true}, {"id": 830469, "title": "Photography: how it works", "work_id": 98099, "role": "production company", "role_id": 941, "is_primary": true}, {"id": 855699, "title": "Movies move people", "work_id": 70641, "role": "production company", "role_id": 941, "is_primary": true}, {"id": 856891, "title": "Pictures teach at Penfield", "work_id": 71561, "role": "production company", "role_id": 941, "is_primary": true}, {"id": 859341, "title": "Teenage movies in competition", "work_id": 73572, "role": "production company", "role_id": 941, "is_primary": true}, {"id": 2677071, "title": "All the difference", "work_id": 64676, "role": "production company", "role_id": 941, "is_primary": true}, {"id": 874148, "title": "Examination of lever watch escapement by high-speed photography", "work_id": 88596, "role": "production company", "role_id": 941, "is_primary": true}], "also_known_as": "", "date_of_birth": "", "date_of_death": "", "genders": [], "languages": [], "places_of_operation": [], "biography": "", "biography_author": null, "date_of_biography": "2023-08-11T14:37:23.727979+10:00", "external_links": [], "uuid": "3c6bd0cf-15e8-451c-9bc5-e5825117f71a", "source": {"name": "Vernon", "slug": "vernon"}, "source_identifier": "868", "external_references": [], "date_modified": "2025-03-17T10:25:24.550724+11:00"}, {"id": 10299, "name": "Van Nostrand Reinhold", "roles_in_work": [{"id": 2414919, "title": "Let's make a film", "work_id": 69620, "role": "producer", "role_id": 1089, "is_primary": true}], "also_known_as": "", "date_of_birth": "", "date_of_death": "", "genders": [], "languages": [], "places_of_operation": [], "biography": "", "biography_author": null, "date_of_biography": "2023-08-11T19:27:07.865370+10:00", "external_links": [], "uuid": "995409ac-92ef-43a3-bb30-52441a0addd3", "source": {"name": "Vernon", "slug": "vernon"}, "source_identifier": "30054", "external_references": [], "date_modified": "2023-08-11T19:27:07.865634+10:00"}, {"id": 10262, "name": "Harper & Row", "roles_in_work": [{"id": 2758873, "title": "Cross cultural approach to acquisition of sex roles and social standards (TEFC)", "work_id": 111390, "role": "production company", "role_id": 941, "is_primary": true}, {"id": 895264, "title": "Nonverbal communication (TEFC)", "work_id": 70953, "role": "production company", "role_id": 941, "is_primary": true}, {"id": 2647307, "title": "Strategy for survival: behavioural ecology of the monarch butterfly (TEFC)", "work_id": 75898, "role": "production company", "role_id": 941, "is_primary": true}, {"id": 2645261, "title": "Invitation to social psychology (TEFC)", "work_id": 69090, "role": "production company", "role_id": 941, "is_primary": true}, {"id": 2759000, "title": "Infancy", "work_id": 86236, "role": "production company", "role_id": 941, "is_primary": true}, {"id": 2758930, "title": "Infancy (TEFC)", "work_id": 68930, "role": "production company", "role_id": 941, "is_primary": true}, {"id": 2758904, "title": "Language (TEFC)", "work_id": 69496, "role": "production company", "role_id": 941, "is_primary": true}, {"id": 2758886, "title": "Cognition (TEFC)", "work_id": 66216, "role": "production company", "role_id": 941, "is_primary": true}], "also_known_as": "", "date_of_birth": "", "date_of_death": "", "genders": [], "languages": [], "places_of_operation": [], "biography": "", "biography_author": null, "date_of_biography": "2023-08-11T19:17:48.471656+10:00", "external_links": [], "uuid": "2f138204-75c5-4ee0-9906-a10e8a37fe81", "source": {"name": "Vernon", "slug": "vernon"}, "source_identifier": "1116", "external_references": [], "date_modified": "2025-03-13T14:51:12.975101+11:00"}, {"id": 10258, "name": "David Myers", "roles_in_work": [{"id": 2677331, "title": "Ansel Adams: photographer", "work_id": 64810, "role": "director", "role_id": 938, "is_primary": true}], "also_known_as": "", "date_of_birth": "", "date_of_death": "", "genders": [], "languages": [], "places_of_operation": [], "biography": "", "biography_author": null, "date_of_biography": "2023-08-11T14:08:34.627944+10:00", "external_links": [], "uuid": "19f65614-24ee-40fc-a792-fa494f6b0d45", "source": {"name": "Vernon", "slug": "vernon"}, "source_identifier": "459", "external_references": [], "date_modified": "2025-03-06T23:17:09.709639+11:00"}, {"id": 10256, "name": "Graeme Turner", "roles_in_work": [{"id": 2763813, "title": "Power in society: San Francisco bay area rapid transit winning public support", "work_id": 72468, "role": "director", "role_id": 938, "is_primary": true}, {"id": 2464782, "title": "People into Politics (TEFC)", "work_id": 78166, "role": "producer", "role_id": 1089, "is_primary": true}, {"id": 1818554, "title": "Warsaw, a socialist city. - Program 1: planning", "work_id": 74473, "role": "producer", "role_id": 1089, "is_primary": true}, {"id": 1815805, "title": "Fundamentals of human geography: rural land use: dairy farming", "work_id": 97550, "role": "producer", "role_id": 1089, "is_primary": true}, {"id": 2763816, "title": "Unemployment", "work_id": 74179, "role": "producer", "role_id": 1089, "is_primary": true}, {"id": 1803836, "title": "City centre developments (TEFC)", "work_id": 78093, "role": "producer", "role_id": 1089, "is_primary": true}], "also_known_as": "", "date_of_birth": "", "date_of_death": "", "genders": [], "languages": [], "places_of_operation": [], "biography": "", "biography_author": null, "date_of_biography": "2023-08-14T10:19:19.441360+10:00", "external_links": [], "uuid": "9e80857e-8d74-4d6a-8554-be2987bd1400", "source": {"name": "Vernon", "slug": "vernon"}, "source_identifier": "175", "external_references": [], "date_modified": "2023-08-14T10:19:19.441775+10:00"}, {"id": 10255, "name": "University of Melbourne", "roles_in_work": [{"id": 2285314, "title": "Tone, Touch and Technique for the Young Pianist", "work_id": 79967, "role": "co-producer", "role_id": 915, "is_primary": true}, {"id": 2293941, "title": "Without a sound", "work_id": 91958, "role": "co-producer", "role_id": 915, "is_primary": true}, {"id": 2374054, "title": "Buildings and Bushfires-Improving the Chances of Survival", "work_id": 79847, "role": "co-producer", "role_id": 915, "is_primary": true}, {"id": 2589773, "title": "Percy Grainger's MOOG Theremin, signed by Bob Moog", "work_id": 121916, "role": "lender", "role_id": 626, "is_primary": false}, {"id": 771139, "title": "Tone, Touch and Technique for the Advanced Pianist", "work_id": 79968, "role": "production company", "role_id": 941, "is_primary": true}, {"id": 876602, "title": "Fourteenth Biennial Conference - British Empire Service League", "work_id": 90172, "role": "production company", "role_id": 941, "is_primary": true}, {"id": 810575, "title": "The Nightlight", "work_id": 92221, "role": "production company", "role_id": 941, "is_primary": true}, {"id": 765324, "title": "Right... from the start", "work_id": 77804, "role": "production company", "role_id": 941, "is_primary": true}, {"id": 2752561, "title": "Parental behaviour of fish", "work_id": 98353, "role": "production company", "role_id": 941, "is_primary": true}, {"id": 858231, "title": "Semi-micro analysis", "work_id": 72650, "role": "production company", "role_id": 941, "is_primary": true}], "also_known_as": "", "date_of_birth": "", "date_of_death": "", "genders": [], "languages": [], "places_of_operation": [], "biography": "The University of Melbourne is a public research university located in Melbourne, Australia. Founded in 1853, it is Australia's second oldest university and the oldest in Victoria. Its main campus is located in Parkville, an inner suburb north of Melbourne's central business district, with several other campuses located across Victoria.\nIncorporated in the 19th century by the colony of Victoria, the University of Melbourne is one of Australia's six sandstone universities and a member of the Group of Eight, Universitas 21, Washington University's McDonnell International Scholars Academy, and the Association of Pacific Rim Universities. Since 1872, many residential colleges have become affiliated with the university, providing accommodation for students and faculty, and academic, sporting and cultural programs. There are ten colleges located on the main campus and in nearby suburbs.\nThe university comprises ten separate academic units and is associated with numerous institutes and research centres, including the Walter and Eliza Hall Institute of Medical Research, Florey Institute of Neuroscience and Mental Health, the Melbourne Institute of Applied Economic and Social Research and the Grattan Institute. The university has fifteen graduate schools, including the Melbourne Business School, the Melbourne Law School and the Melbourne Medical School.Four Australian prime ministers and five governors-general have graduated from the University of Melbourne. Eight Nobel Laureates have taught, studied and researched at the University of Melbourne, the most of any Australian university.The university's coat of arms is a blue shield on which a depiction of \"Victory\" in white colour holds her laurel wreath over the stars of the Southern Cross. The motto, Postera crescam laude (\"Later I shall grow by praise\" or, more freely, \"We shall grow in the esteem of future generations\"), is written on a scroll beneath the shield. The Latin is from a line in Horace's Odes: ego postera crescam laude recens.", "biography_author": "Wikidata", "date_of_biography": "2023-09-06T02:01:25.601591+10:00", "external_links": [{"id": 6236, "uri": "https://en.wikipedia.org/wiki/University_of_Melbourne"}], "uuid": "1106845b-eea6-4a30-9759-6cb1a7e68665", "source": {"name": "Vernon", "slug": "vernon"}, "source_identifier": "4374", "external_references": [{"id": 33506, "source": {"name": "Wikidata", "slug": "wikidata"}, "source_identifier": "Q319078"}, {"id": 56013, "source": {"name": "VIAF", "slug": "viaf"}, "source_identifier": "146316977"}, {"id": 56014, "source": {"name": "LOC Auth", "slug": "loc-auth"}, "source_identifier": "n79054099"}, {"id": 56015, "source": {"name": "WorldCat", "slug": "worldcat"}, "source_identifier": "lccn-n79054099"}], "date_modified": "2025-03-13T01:07:27.339624+11:00"}, {"id": 10248, "name": "Brian Davies", "roles_in_work": [{"id": 2471264, "title": "Watt's last voyage", "work_id": 74530, "role": "director", "role_id": 938, "is_primary": true}, {"id": 2713629, "title": "Una Filma di", "work_id": 67507, "role": "director", "role_id": 938, "is_primary": true}, {"id": 1806275, "title": "The Caterers: this is a people business", "work_id": 91071, "role": "producer", "role_id": 1089, "is_primary": true}, {"id": 1807103, "title": "The Caterers: eating out at work", "work_id": 91105, "role": "producer", "role_id": 1089, "is_primary": true}], "also_known_as": "", "date_of_birth": "", "date_of_death": "", "genders": [{"id": 9, "name": "Male", "slug": "male"}], "languages": [], "places_of_operation": [], "biography": "", "biography_author": null, "date_of_biography": "2023-08-14T12:36:11.023412+10:00", "external_links": [], "uuid": "3b04bcaa-64b1-4e1f-ac27-4f75777eba88", "source": {"name": "Vernon", "slug": "vernon"}, "source_identifier": "726", "external_references": [{"id": 41392, "source": {"name": "Wikidata", "slug": "wikidata"}, "source_identifier": "Q117860297"}], "date_modified": "2025-03-12T00:47:50.560824+11:00"}, {"id": 10246, "name": "Jonathon Dawson", "roles_in_work": [{"id": 886398, "title": "Mappings", "work_id": 95917, "role": "director", "role_id": 938, "is_primary": true}, {"id": 886414, "title": "Pythagoras in 3D", "work_id": 95925, "role": "director", "role_id": 938, "is_primary": true}, {"id": 886394, "title": "Vision in mathematics: more angles in a circle", "work_id": 95915, "role": "director", "role_id": 938, "is_primary": true}, {"id": 2464687, "title": "Parabola", "work_id": 95918, "role": "director", "role_id": 938, "is_primary": true}, {"id": 1984372, "title": "Ginger Meggs", "work_id": 79964, "role": "director", "role_id": 938, "is_primary": true}, {"id": 2471066, "title": "Vision in mathematics: the unit circle", "work_id": 95921, "role": "director", "role_id": 938, "is_primary": true}, {"id": 886392, "title": "Angles on an arc", "work_id": 95914, "role": "director", "role_id": 938, "is_primary": true}], "also_known_as": "", "date_of_birth": "", "date_of_death": "", "genders": [], "languages": [], "places_of_operation": [], "biography": "", "biography_author": null, "date_of_biography": "2023-08-14T12:32:49.527887+10:00", "external_links": [], "uuid": "15bdb0d4-5fb5-4f7b-973a-1d5ae68fe2ce", "source": {"name": "Vernon", "slug": "vernon"}, "source_identifier": "22640", "external_references": [], "date_modified": "2023-08-14T12:32:49.528230+10:00"}]}