{"count": 28687, "next": "https://api.acmi.net.au/creators/?page=116", "previous": "https://api.acmi.net.au/creators/?page=114", "results": [{"id": 84769, "name": "Pete Brundle (MORE Studio)", "roles_in_work": [{"id": 2686588, "title": "Entities", "work_id": 118034, "role": "creator", "role_id": 968, "is_primary": true}], "also_known_as": "", "date_of_birth": "", "date_of_death": "", "genders": [], "languages": [], "places_of_operation": [], "biography": "", "biography_author": null, "date_of_biography": "2023-05-09T16:14:10.662523+10:00", "external_links": [], "uuid": "2eec21f4-b9f9-4aa5-8c8a-1001241bcfd5", "source": {"name": "Vernon", "slug": "vernon"}, "source_identifier": "39745", "external_references": [], "date_modified": "2025-03-11T12:26:14.726964+11:00"}, {"id": 84768, "name": "Greg Moore (OOM Creative)", "roles_in_work": [], "also_known_as": "", "date_of_birth": null, "date_of_death": null, "genders": [], "languages": [], "places_of_operation": [], "biography": "", "biography_author": null, "date_of_biography": null, "external_links": [], "uuid": "aed871e7-7b2e-403e-a87e-fd849644fac9", "source": {"name": "Vernon", "slug": "vernon"}, "source_identifier": null, "external_references": [], "date_modified": "2023-06-14T16:33:30.576250+10:00"}, {"id": 84726, "name": "Haus of Dizzy", "roles_in_work": [{"id": 2728619, "title": "Kitty (Elaine Crombie) costume from Kiki and Kitty (2017)", "work_id": 108281, "role": "jewellery designer", "role_id": 1004, "is_primary": false}], "also_known_as": "", "date_of_birth": "", "date_of_death": "", "genders": [], "languages": [], "places_of_operation": [], "biography": "", "biography_author": null, "date_of_biography": "2023-07-12T03:46:34.131870+10:00", "external_links": [], "uuid": "d3bb19f9-7446-4b0b-b345-7b8168fbb64b", "source": {"name": "Vernon", "slug": "vernon"}, "source_identifier": "39796", "external_references": [], "date_modified": "2025-03-12T12:35:01.388878+11:00"}, {"id": 84725, "name": "John Broadwood & Sons", "roles_in_work": [{"id": 3093833, "title": "Piano with stool", "work_id": 99431, "role": "creator", "role_id": 968, "is_primary": true}], "also_known_as": "", "date_of_birth": "1728", "date_of_death": "", "genders": [], "languages": [], "places_of_operation": [], "biography": "", "biography_author": null, "date_of_biography": "2023-05-09T16:53:10.011116+10:00", "external_links": [], "uuid": "043259a2-138a-40a3-9f3a-522597a51ea9", "source": {"name": "Vernon", "slug": "vernon"}, "source_identifier": "39797", "external_references": [], "date_modified": "2025-04-24T22:35:00.810646+10:00"}, {"id": 84724, "name": "Gabriella Hirst", "roles_in_work": [{"id": 2681228, "title": "Darling Darling", "work_id": 118152, "role": "artist", "role_id": 505, "is_primary": true}], "also_known_as": "", "date_of_birth": "1990", "date_of_death": "", "genders": [], "languages": [], "places_of_operation": [], "biography": "Gabriella Hirst is a multi-disciplinary artist whose practice incorporates video, performance, painting, sculpture and installation. Hirst has a strong interest in Romanticism and regularly mines the grandiosity and overly poetic narratives of this tradition to reveal the absurd or alarming realities that lurk beneath them. Engaging with wildly different subjects and contexts, her work explores what our representations of, and relationships to, the natural world reveal about specific cultural and political values, stuctures and histories.\n\nHirst completed an MFA in Fine Art Media at the Slade School of Fine Art, London, having previously studied at the National Art School, Sydney, IUAV, Venice, and the College of Fine Arts, Sydney. She has received numerous grants and prizes, including an Arts Council England Project Grant (2019); Prototype Moving Image Commission (2019); A-N Development Grant (2019); John Crampton Postgraduate Award (2016); Martin Bequest Travelling Scholarship (2013); and was shortlisted for the Ivan Juriitz Prize at Kings College (2018). She is currently a fellow at the Bomb Factory Studio Foundation, North London and has undertaken residencies at The Cite Internationale des Arts, Paris; Metal Culture, Southend-on-Sea; Cove Park, Scotland; and the ZKU, Berlin. Hirst has exhibited widely, including at the Goethe Institute, London (2019), South London Botanical Institute (2019); Block 336, London (2018); BALTIC Centre for Contemporary Art, Newcastle (2018); The Courtauld, Somerset House, London (2018); Carriageworks, Sydney (2018); and the Australian Centre for Contemporary Art, Melbourne (2016).", "biography_author": null, "date_of_biography": "2025-03-07T01:04:52.327560+11:00", "external_links": [], "uuid": "9492d35d-fe8c-48c8-ace6-cade73ead211", "source": {"name": "Vernon", "slug": "vernon"}, "source_identifier": "39347", "external_references": [], "date_modified": "2025-03-07T01:04:52.327789+11:00"}, {"id": 84721, "name": "Christian Thompson", "roles_in_work": [{"id": 2517460, "title": "Bayi Gardiya (Singing Desert)", "work_id": 118149, "role": "creator", "role_id": 968, "is_primary": true}], "also_known_as": "", "date_of_birth": "01 JAN 1978", "date_of_death": "", "genders": [{"id": 9, "name": "Male", "slug": "male"}], "languages": [{"id": 1, "name": "English", "slug": "english"}], "places_of_operation": [{"id": 3, "name": "Australia", "slug": "australia"}], "biography": "Christian Andrew William Thompson  (born 1978), also known as Christian Bumbarra Thompson, is a contemporary Australian artist. Of Bidjara heritage on his father's side, his Aboriginal identity has played an important role in his work, which includes photography, video installations and sound recordings. After being awarded the Charlie Perkins Scholarship, to complete his doctorate in Fine Arts at Oxford University, he has spent much time in England. His work has been extensively exhibited in galleries around Australia and internationally. Source: Wikidata; 01/08/2023", "biography_author": null, "date_of_biography": "2024-04-17T04:10:39.884587+10:00", "external_links": [{"id": 3766, "uri": "https://en.wikipedia.org/wiki/Christian_Thompson_(artist)"}], "uuid": "3e6160b8-facd-4c42-a662-4303bf92614d", "source": {"name": "Vernon", "slug": "vernon"}, "source_identifier": "39185", "external_references": [{"id": 26944, "source": {"name": "Wikidata", "slug": "wikidata"}, "source_identifier": "Q5110201"}, {"id": 27837, "source": {"name": "VIAF", "slug": "viaf"}, "source_identifier": "95427803"}, {"id": 27838, "source": {"name": "WorldCat", "slug": "worldcat"}, "source_identifier": "viaf-95427803"}], "date_modified": "2024-04-17T04:10:39.884891+10:00"}, {"id": 84720, "name": "C-Span", "roles_in_work": [{"id": 2686670, "title": "Trump supporters minding the velvet ropes", "work_id": 118147, "role": "creator", "role_id": 968, "is_primary": true}], "also_known_as": "", "date_of_birth": "1979", "date_of_death": "", "genders": [], "languages": [], "places_of_operation": [], "biography": "", "biography_author": null, "date_of_biography": "2023-08-16T03:57:02.893007+10:00", "external_links": [], "uuid": "25c4078d-1229-4974-b617-f962411dc897", "source": {"name": "Vernon", "slug": "vernon"}, "source_identifier": "39789", "external_references": [], "date_modified": "2025-03-11T12:35:58.780149+11:00"}, {"id": 84711, "name": "Graham McGuffie", "roles_in_work": [{"id": 2686669, "title": "TV miniatures", "work_id": 118140, "role": "designer", "role_id": 495, "is_primary": false}, {"id": 2686248, "title": "2000s", "work_id": 113976, "role": "miniature design", "role_id": 993, "is_primary": false}, {"id": 2686242, "title": "1990s", "work_id": 113975, "role": "miniature design", "role_id": 993, "is_primary": false}, {"id": 2686235, "title": "1980s", "work_id": 113974, "role": "miniature design", "role_id": 993, "is_primary": false}, {"id": 2686229, "title": "1970s", "work_id": 113973, "role": "miniature design", "role_id": 993, "is_primary": false}, {"id": 2686223, "title": "1960s", "work_id": 113972, "role": "miniature design", "role_id": 993, "is_primary": false}, {"id": 2686217, "title": "1950s", "work_id": 113971, "role": "miniature design", "role_id": 993, "is_primary": false}], "also_known_as": "", "date_of_birth": "", "date_of_death": "", "genders": [], "languages": [], "places_of_operation": [], "biography": "", "biography_author": null, "date_of_biography": "2023-05-09T17:50:26.096849+10:00", "external_links": [], "uuid": "46bff8c8-8571-4e33-962e-70c0571f8e4e", "source": {"name": "Vernon", "slug": "vernon"}, "source_identifier": "39788", "external_references": [], "date_modified": "2025-03-11T12:35:56.101333+11:00"}, {"id": 84710, "name": "Celeste Barber", "roles_in_work": [{"id": 2686668, "title": "If at first you don’t succeed", "work_id": 118139, "role": "creator", "role_id": 968, "is_primary": true}], "also_known_as": "", "date_of_birth": "1982", "date_of_death": "", "genders": [], "languages": [], "places_of_operation": [], "biography": "", "biography_author": null, "date_of_biography": "2023-08-16T03:57:00.723335+10:00", "external_links": [], "uuid": "ff7c9100-41bc-49ea-95ae-2bbd6d768666", "source": {"name": "Vernon", "slug": "vernon"}, "source_identifier": "39787", "external_references": [], "date_modified": "2025-03-11T12:35:53.653806+11:00"}, {"id": 84709, "name": "Nathan Apodaca", "roles_in_work": [{"id": 2686667, "title": "Fleetwood Mac (this is the one)", "work_id": 118138, "role": "creator", "role_id": 968, "is_primary": true}], "also_known_as": "", "date_of_birth": "", "date_of_death": "", "genders": [], "languages": [], "places_of_operation": [], "biography": "", "biography_author": null, "date_of_biography": "2023-08-16T03:56:59.469020+10:00", "external_links": [], "uuid": "c136cbf6-0d32-4fbe-a6cb-91742739ae01", "source": {"name": "Vernon", "slug": "vernon"}, "source_identifier": "39786", "external_references": [], "date_modified": "2025-03-11T12:35:51.817839+11:00"}]}