{"count": 28687, "next": "https://api.acmi.net.au/creators/?page=2480", "previous": "https://api.acmi.net.au/creators/?page=2478", "results": [{"id": 14160, "name": "Bert Christensen", "roles_in_work": [{"id": 2680702, "title": "Cross your heart and hope to live", "work_id": 66516, "role": "producer", "role_id": 1089, "is_primary": true}], "also_known_as": "", "date_of_birth": "", "date_of_death": "", "genders": [], "languages": [], "places_of_operation": [], "biography": "", "biography_author": null, "date_of_biography": "2023-08-11T15:51:32.190499+10:00", "external_links": [], "uuid": "9aafdec4-6b40-4319-9f1e-bcff02f7c77b", "source": {"name": "Vernon", "slug": "vernon"}, "source_identifier": "32527", "external_references": [], "date_modified": "2025-03-07T00:41:16.710520+11:00"}, {"id": 14159, "name": "Danish Heart Foundation", "roles_in_work": [{"id": 2680701, "title": "Cross your heart and hope to live", "work_id": 66516, "role": "production company", "role_id": 941, "is_primary": true}], "also_known_as": "", "date_of_birth": "", "date_of_death": "", "genders": [], "languages": [], "places_of_operation": [], "biography": "", "biography_author": null, "date_of_biography": "2023-08-11T15:51:31.341452+10:00", "external_links": [], "uuid": "a1eb1069-92c8-4b6f-bf7d-5d922857c4bd", "source": {"name": "Vernon", "slug": "vernon"}, "source_identifier": "7314", "external_references": [], "date_modified": "2025-03-07T00:41:16.135410+11:00"}, {"id": 14158, "name": "Mark McCarty", "roles_in_work": [{"id": 2644458, "title": "Cross country runner", "work_id": 66514, "role": "director", "role_id": 938, "is_primary": true}, {"id": 1806393, "title": "Polar ecology: predators and prey", "work_id": 96101, "role": "producer", "role_id": 1089, "is_primary": true}], "also_known_as": "", "date_of_birth": "", "date_of_death": "", "genders": [], "languages": [], "places_of_operation": [], "biography": "", "biography_author": null, "date_of_biography": "2023-08-11T15:49:59.826801+10:00", "external_links": [], "uuid": "39f420ee-1b83-4838-8d7a-ba04993afae0", "source": {"name": "Vernon", "slug": "vernon"}, "source_identifier": "24521", "external_references": [], "date_modified": "2025-03-05T12:20:02.653775+11:00"}, {"id": 14157, "name": "Department of Theatre Arts, University of California", "roles_in_work": [{"id": 2644457, "title": "Cross country runner", "work_id": 66514, "role": "production company", "role_id": 941, "is_primary": true}], "also_known_as": "", "date_of_birth": "", "date_of_death": "", "genders": [], "languages": [], "places_of_operation": [], "biography": "", "biography_author": null, "date_of_biography": "2023-08-11T15:49:59.170790+10:00", "external_links": [], "uuid": "7212fbaf-cafe-467c-950f-7f9f47103560", "source": {"name": "Vernon", "slug": "vernon"}, "source_identifier": "7468", "external_references": [], "date_modified": "2025-03-05T12:20:02.066270+11:00"}, {"id": 14156, "name": "K. Baron Hartley", "roles_in_work": [{"id": 2756626, "title": "Crossbanding and jointing veneers", "work_id": 66513, "role": "director", "role_id": 938, "is_primary": true}, {"id": 3088539, "title": "Turning, facing and boring", "work_id": 75699, "role": "director", "role_id": 938, "is_primary": true}, {"id": 3088535, "title": "An Introduction to the lathe", "work_id": 76173, "role": "director", "role_id": 938, "is_primary": true}, {"id": 3088533, "title": "Taperturning", "work_id": 69521, "role": "director", "role_id": 938, "is_primary": true}, {"id": 3088530, "title": "Screwcutting", "work_id": 69520, "role": "director", "role_id": 938, "is_primary": true}, {"id": 2756649, "title": "Union is strength: the story of plywood", "work_id": 90387, "role": "director", "role_id": 938, "is_primary": true}], "also_known_as": "", "date_of_birth": "", "date_of_death": "", "genders": [], "languages": [], "places_of_operation": [], "biography": "", "biography_author": null, "date_of_biography": "2023-08-11T13:59:44.263063+10:00", "external_links": [], "uuid": "5f05c3c2-b304-4e76-9d3b-aa6957ebeb6b", "source": {"name": "Vernon", "slug": "vernon"}, "source_identifier": "22952", "external_references": [], "date_modified": "2025-03-17T10:55:27.963497+11:00"}, {"id": 14155, "name": "Stanley Russell", "roles_in_work": [{"id": 853971, "title": "Jumping for Joy", "work_id": 69314, "role": "director", "role_id": 938, "is_primary": true}, {"id": 2397678, "title": "A Jig: The River Cree", "work_id": 72260, "role": "director", "role_id": 938, "is_primary": true}, {"id": 2680692, "title": "Crofter boy", "work_id": 66511, "role": "director", "role_id": 938, "is_primary": true}, {"id": 855725, "title": "Scottish country dancing: Mrs MacLeod", "work_id": 70667, "role": "director", "role_id": 938, "is_primary": true}, {"id": 1820364, "title": "The Rakes of Glasgow: a strathspey", "work_id": 72051, "role": "producer", "role_id": 1089, "is_primary": true}], "also_known_as": "", "date_of_birth": "", "date_of_death": "", "genders": [], "languages": [], "places_of_operation": [], "biography": "", "biography_author": null, "date_of_biography": "2023-08-11T13:03:08.329907+10:00", "external_links": [], "uuid": "8991ab9a-c668-4a23-aba1-aa58fce96de1", "source": {"name": "Vernon", "slug": "vernon"}, "source_identifier": "28979", "external_references": [], "date_modified": "2025-03-07T00:41:09.235567+11:00"}, {"id": 14154, "name": "Thames and Clyde Film Company", "roles_in_work": [{"id": 854541, "title": "The Lion and the lamb", "work_id": 69761, "role": "production company", "role_id": 941, "is_primary": true}, {"id": 2680691, "title": "Crofter boy", "work_id": 66511, "role": "production company", "role_id": 941, "is_primary": true}, {"id": 853969, "title": "Jumping for Joy", "work_id": 69314, "role": "production company", "role_id": 941, "is_primary": true}, {"id": 857470, "title": "The Rakes of Glasgow: a strathspey", "work_id": 72051, "role": "production company", "role_id": 941, "is_primary": true}, {"id": 855723, "title": "Scottish country dancing: Mrs MacLeod", "work_id": 70667, "role": "production company", "role_id": 941, "is_primary": true}, {"id": 2397677, "title": "A Jig: The River Cree", "work_id": 72260, "role": "production company", "role_id": 941, "is_primary": true}], "also_known_as": "", "date_of_birth": "", "date_of_death": "", "genders": [], "languages": [], "places_of_operation": [], "biography": "", "biography_author": null, "date_of_biography": "2023-08-11T13:03:07.631716+10:00", "external_links": [], "uuid": "1ea29573-f14b-4832-a2d5-713eb129861e", "source": {"name": "Vernon", "slug": "vernon"}, "source_identifier": "13328", "external_references": [], "date_modified": "2025-03-07T00:41:08.640730+11:00"}, {"id": 14153, "name": "Don G. Williams", "roles_in_work": [{"id": 874500, "title": "Tense: imperfect", "work_id": 88824, "role": "director", "role_id": 938, "is_primary": true}, {"id": 2680683, "title": "Julia: critical moments in teaching (TEFC)", "work_id": 66505, "role": "co-director", "role_id": 959, "is_primary": true}], "also_known_as": "", "date_of_birth": "", "date_of_death": "", "genders": [], "languages": [], "places_of_operation": [], "biography": "", "biography_author": null, "date_of_biography": "2023-08-11T19:02:42.318966+10:00", "external_links": [], "uuid": "29d95347-f958-4a99-bcff-c49e71189e90", "source": {"name": "Vernon", "slug": "vernon"}, "source_identifier": "18207", "external_references": [], "date_modified": "2025-03-07T00:41:01.242356+11:00"}, {"id": 14152, "name": "David Gliessman", "roles_in_work": [{"id": 874499, "title": "Tense: imperfect", "work_id": 88824, "role": "director", "role_id": 938, "is_primary": true}, {"id": 2680682, "title": "Julia: critical moments in teaching (TEFC)", "work_id": 66505, "role": "co-director", "role_id": 959, "is_primary": true}], "also_known_as": "", "date_of_birth": "", "date_of_death": "", "genders": [], "languages": [], "places_of_operation": [], "biography": "", "biography_author": null, "date_of_biography": "2023-08-11T19:02:41.687444+10:00", "external_links": [], "uuid": "55aa55bf-ffe2-4be5-a52c-eabfd2493de4", "source": {"name": "Vernon", "slug": "vernon"}, "source_identifier": "17599", "external_references": [], "date_modified": "2025-03-07T00:41:00.605251+11:00"}, {"id": 14151, "name": "United States. Dept. of Health, Education and Welfare", "roles_in_work": [{"id": 2645317, "title": "Jenny is a good thing (TEFC)", "work_id": 69235, "role": "production company", "role_id": 941, "is_primary": true}, {"id": 2680681, "title": "Julia: critical moments in teaching (TEFC)", "work_id": 66505, "role": "production company", "role_id": 941, "is_primary": true}, {"id": 2712852, "title": "Medical self-help: emergency childbirth", "work_id": 67126, "role": "production company", "role_id": 941, "is_primary": true}], "also_known_as": "", "date_of_birth": "", "date_of_death": "", "genders": [], "languages": [], "places_of_operation": [], "biography": "", "biography_author": null, "date_of_biography": "2023-08-11T19:46:04.950766+10:00", "external_links": [], "uuid": "2c4d8b08-c43d-49d0-8a0b-72eb1a773817", "source": {"name": "Vernon", "slug": "vernon"}, "source_identifier": "13960", "external_references": [], "date_modified": "2025-03-12T00:32:06.617178+11:00"}]}