{"count": 28687, "next": "https://api.acmi.net.au/creators/?page=1865", "previous": "https://api.acmi.net.au/creators/?page=1863", "results": [{"id": 25175, "name": "Stefan Quinth", "roles_in_work": [{"id": 2650277, "title": "Egypt: the Nile River kingdom", "work_id": 83049, "role": "producer", "role_id": 1089, "is_primary": true}], "also_known_as": "", "date_of_birth": "", "date_of_death": "", "genders": [], "languages": [], "places_of_operation": [], "biography": "", "biography_author": null, "date_of_biography": "2023-05-09T15:53:49.531800+10:00", "external_links": [], "uuid": "daeed187-7bea-4dc9-a5a7-974071794c42", "source": {"name": "Vernon", "slug": "vernon"}, "source_identifier": "28993", "external_references": [], "date_modified": "2025-03-05T14:12:07.822496+11:00"}, {"id": 25174, "name": "Erato FIlms", "roles_in_work": [{"id": 2341050, "title": "The Cook the thief his wife & her lover", "work_id": 83048, "role": "production company", "role_id": 941, "is_primary": true}, {"id": 915824, "title": "Van Gogh [NTSC]", "work_id": 94441, "role": "production company", "role_id": 941, "is_primary": true}, {"id": 804413, "title": "The Stranger = Agantuk", "work_id": 90051, "role": "production company", "role_id": 941, "is_primary": true}, {"id": 1997900, "title": "Madame Butterfly [Widescreen]", "work_id": 93537, "role": "production company", "role_id": 941, "is_primary": true}], "also_known_as": "", "date_of_birth": "", "date_of_death": "", "genders": [], "languages": [], "places_of_operation": [], "biography": "", "biography_author": null, "date_of_biography": "2023-05-09T19:39:40.531423+10:00", "external_links": [], "uuid": "0b995c2b-6c84-44be-8149-6900e88272e1", "source": {"name": "Vernon", "slug": "vernon"}, "source_identifier": "7945", "external_references": [{"id": 33322, "source": {"name": "Wikidata", "slug": "wikidata"}, "source_identifier": "Q121299281"}], "date_modified": "2023-09-05T19:33:50.569952+10:00"}, {"id": 25173, "name": "Allarts Cook", "roles_in_work": [{"id": 2341047, "title": "The Cook the thief his wife & her lover", "work_id": 83048, "role": "production company", "role_id": 941, "is_primary": true}], "also_known_as": "", "date_of_birth": "", "date_of_death": "", "genders": [], "languages": [], "places_of_operation": [], "biography": "", "biography_author": null, "date_of_biography": "2023-05-09T19:39:40.298011+10:00", "external_links": [], "uuid": "4b4f2982-a420-429d-84e7-c244856c8823", "source": {"name": "Vernon", "slug": "vernon"}, "source_identifier": "5130", "external_references": [{"id": 36515, "source": {"name": "Wikidata", "slug": "wikidata"}, "source_identifier": "Q121035963"}], "date_modified": "2023-09-05T17:29:33.394448+10:00"}, {"id": 25172, "name": "Benson and Hedges Overseas", "roles_in_work": [{"id": 2786153, "title": "Bowlers (S)", "work_id": 83046, "role": "production company", "role_id": 941, "is_primary": true}, {"id": 2786156, "title": "Benson and Hedges golden greats of cricket", "work_id": 115313, "role": "production company", "role_id": 941, "is_primary": true}], "also_known_as": "", "date_of_birth": "", "date_of_death": "", "genders": [], "languages": [], "places_of_operation": [], "biography": "", "biography_author": null, "date_of_biography": "2023-05-09T13:07:29.893533+10:00", "external_links": [], "uuid": "ef8b06be-4dc5-487e-b1e2-5a0719815aa5", "source": {"name": "Vernon", "slug": "vernon"}, "source_identifier": "5812", "external_references": [{"id": 42498, "source": {"name": "Wikidata", "slug": "wikidata"}, "source_identifier": "Q121040205"}], "date_modified": "2025-03-14T19:29:07.242409+11:00"}, {"id": 25171, "name": "Tripod Films", "roles_in_work": [{"id": 2786152, "title": "Bowlers (S)", "work_id": 83046, "role": "production company", "role_id": 941, "is_primary": true}, {"id": 2786147, "title": "Benson and Hedges golden greats of cricket", "work_id": 115313, "role": "production company", "role_id": 941, "is_primary": true}], "also_known_as": "", "date_of_birth": "", "date_of_death": "", "genders": [], "languages": [], "places_of_operation": [], "biography": "", "biography_author": null, "date_of_biography": "2023-05-09T13:07:29.557866+10:00", "external_links": [], "uuid": "018b5bc5-6755-4a6b-9b64-1157adf19469", "source": {"name": "Vernon", "slug": "vernon"}, "source_identifier": "13722", "external_references": [{"id": 41596, "source": {"name": "Wikidata", "slug": "wikidata"}, "source_identifier": "Q121126146"}], "date_modified": "2025-03-14T19:29:06.650120+11:00"}, {"id": 25168, "name": "Big Fights Olympic Library", "roles_in_work": [{"id": 2790588, "title": "Olympic glory: the golden years", "work_id": 115411, "role": "production company", "role_id": 941, "is_primary": true}, {"id": 2790592, "title": "Swimming and diving", "work_id": 83043, "role": "production company", "role_id": 941, "is_primary": true}, {"id": 2790601, "title": "Heroes, heartbreaks and hilarities", "work_id": 84336, "role": "production company", "role_id": 941, "is_primary": true}, {"id": 2790590, "title": "Olympic glory: the golden years", "work_id": 115411, "role": "production company", "role_id": 941, "is_primary": true}], "also_known_as": "", "date_of_birth": "", "date_of_death": "", "genders": [], "languages": [], "places_of_operation": [], "biography": "", "biography_author": null, "date_of_biography": "2023-05-09T19:11:07.531880+10:00", "external_links": [], "uuid": "e56c3816-bc46-46a3-a118-c078f890cb9b", "source": {"name": "Vernon", "slug": "vernon"}, "source_identifier": "5846", "external_references": [{"id": 36162, "source": {"name": "Wikidata", "slug": "wikidata"}, "source_identifier": "Q121143986"}], "date_modified": "2025-03-14T19:57:55.694153+11:00"}, {"id": 25167, "name": "UP Sports", "roles_in_work": [{"id": 2790591, "title": "Swimming and diving", "work_id": 83043, "role": "production company", "role_id": 941, "is_primary": true}], "also_known_as": "", "date_of_birth": "", "date_of_death": "", "genders": [], "languages": [], "places_of_operation": [], "biography": "", "biography_author": null, "date_of_biography": "2023-05-09T19:11:07.310043+10:00", "external_links": [], "uuid": "251c4e85-6e77-4ad7-87a0-77704bec3faa", "source": {"name": "Vernon", "slug": "vernon"}, "source_identifier": "13947", "external_references": [{"id": 36791, "source": {"name": "Wikidata", "slug": "wikidata"}, "source_identifier": "Q121270908"}], "date_modified": "2025-03-14T19:57:47.470148+11:00"}, {"id": 25166, "name": "Golden Years", "roles_in_work": [{"id": 2790596, "title": "The Melbourne Games", "work_id": 83324, "role": "production company", "role_id": 941, "is_primary": true}, {"id": 2790600, "title": "Heroes, heartbreaks and hilarities", "work_id": 84336, "role": "production company", "role_id": 941, "is_primary": true}, {"id": 2790604, "title": "Olympic glory: the golden years", "work_id": 115411, "role": "production company", "role_id": 941, "is_primary": true}, {"id": 2614812, "title": "Olympic glory the golden years: Aussies and Kiwis in sport", "work_id": 84367, "role": "production company", "role_id": 941, "is_primary": true}, {"id": 2790589, "title": "Swimming and diving", "work_id": 83043, "role": "production company", "role_id": 941, "is_primary": true}], "also_known_as": "", "date_of_birth": "", "date_of_death": "", "genders": [], "languages": [], "places_of_operation": [], "biography": "", "biography_author": null, "date_of_biography": "2023-05-09T19:11:07.085121+10:00", "external_links": [], "uuid": "eae32834-13c5-485d-9840-625d081259f6", "source": {"name": "Vernon", "slug": "vernon"}, "source_identifier": "3896", "external_references": [{"id": 37211, "source": {"name": "Wikidata", "slug": "wikidata"}, "source_identifier": "Q121298911"}], "date_modified": "2025-03-14T19:57:55.596432+11:00"}, {"id": 25165, "name": "Peter Genee", "roles_in_work": [{"id": 2650272, "title": "The Goalkeeper's fear of the penalty = Die Angst des Tormanns beim Elfmeter", "work_id": 83042, "role": "producer", "role_id": 1089, "is_primary": true}], "also_known_as": "", "date_of_birth": "", "date_of_death": "", "genders": [], "languages": [], "places_of_operation": [], "biography": "", "biography_author": null, "date_of_biography": "2023-05-09T19:57:10.664677+10:00", "external_links": [], "uuid": "0322b79c-1e29-4382-a489-4d702211d018", "source": {"name": "Vernon", "slug": "vernon"}, "source_identifier": "26548", "external_references": [{"id": 33284, "source": {"name": "Wikidata", "slug": "wikidata"}, "source_identifier": "Q128694427"}], "date_modified": "2025-03-05T14:12:05.108589+11:00"}, {"id": 25164, "name": "Osterreichische Telefilm AG", "roles_in_work": [{"id": 2650271, "title": "The Goalkeeper's fear of the penalty = Die Angst des Tormanns beim Elfmeter", "work_id": 83042, "role": "production company", "role_id": 941, "is_primary": true}], "also_known_as": "", "date_of_birth": "", "date_of_death": "", "genders": [], "languages": [], "places_of_operation": [], "biography": "", "biography_author": null, "date_of_biography": "2023-05-09T19:57:10.431281+10:00", "external_links": [], "uuid": "5d0e4956-8608-4449-a2ea-a56bd0942d44", "source": {"name": "Vernon", "slug": "vernon"}, "source_identifier": "11190", "external_references": [{"id": 41803, "source": {"name": "Wikidata", "slug": "wikidata"}, "source_identifier": "Q121159723"}], "date_modified": "2025-03-05T14:12:04.540211+11:00"}]}