{"count": 28687, "next": "https://api.acmi.net.au/creators/?page=446", "previous": "https://api.acmi.net.au/creators/?page=444", "results": [{"id": 81133, "name": "La Compagnie des Taxi-Brousse", "roles_in_work": [{"id": 917097, "title": "This is not Einstein", "work_id": 95033, "role": "production company", "role_id": 941, "is_primary": true}], "also_known_as": "", "date_of_birth": null, "date_of_death": null, "genders": [], "languages": [], "places_of_operation": [], "biography": "", "biography_author": null, "date_of_biography": null, "external_links": [], "uuid": "1e546968-f459-4b49-b7eb-d99b8056c4ff", "source": {"name": "Vernon", "slug": "vernon"}, "source_identifier": null, "external_references": [{"id": 42877, "source": {"name": "Wikidata", "slug": "wikidata"}, "source_identifier": "Q121223043"}], "date_modified": "2023-09-05T22:13:21.499008+10:00"}, {"id": 81132, "name": "Jason Young", "roles_in_work": [{"id": 2096673, "title": "Animals: friends or food? [Widescreen] (D)", "work_id": 95032, "role": "director", "role_id": 938, "is_primary": true}, {"id": 2096667, "title": "Animals: friends or food? [Widescreen] (D)", "work_id": 95032, "role": "co-producer", "role_id": 915, "is_primary": true}], "also_known_as": "", "date_of_birth": "", "date_of_death": "", "genders": [], "languages": [], "places_of_operation": [], "biography": "", "biography_author": null, "date_of_biography": "2023-05-09T12:24:56.023356+10:00", "external_links": [], "uuid": "d523738b-ef52-4b9d-ae66-2758b2eb5272", "source": {"name": "Vernon", "slug": "vernon"}, "source_identifier": "21500", "external_references": [{"id": 50632, "source": {"name": "Wikidata", "slug": "wikidata"}, "source_identifier": "Q121357443"}], "date_modified": "2023-09-05T21:09:46.734824+10:00"}, {"id": 81131, "name": "Randy Barbato", "roles_in_work": [{"id": 2095985, "title": "Andy Warhol: the complete picture", "work_id": 95031, "role": "co-producer", "role_id": 915, "is_primary": true}], "also_known_as": "", "date_of_birth": "", "date_of_death": "", "genders": [], "languages": [], "places_of_operation": [], "biography": "", "biography_author": null, "date_of_biography": "2023-05-09T12:23:54.445219+10:00", "external_links": [], "uuid": "1615bf1f-caa1-48a0-af7f-ef437976d09d", "source": {"name": "Vernon", "slug": "vernon"}, "source_identifier": "27115", "external_references": [{"id": 40691, "source": {"name": "Wikidata", "slug": "wikidata"}, "source_identifier": "Q121144078"}], "date_modified": "2023-09-06T00:20:44.777363+10:00"}, {"id": 81130, "name": "Fenton Bailey", "roles_in_work": [{"id": 2095982, "title": "Andy Warhol: the complete picture", "work_id": 95031, "role": "co-producer", "role_id": 915, "is_primary": true}], "also_known_as": "", "date_of_birth": "", "date_of_death": "", "genders": [], "languages": [], "places_of_operation": [], "biography": "", "biography_author": null, "date_of_biography": "2023-05-09T12:23:54.210616+10:00", "external_links": [], "uuid": "ee855f82-67b1-403c-b4e6-3634a54ececd", "source": {"name": "Vernon", "slug": "vernon"}, "source_identifier": "18982", "external_references": [{"id": 37140, "source": {"name": "Wikidata", "slug": "wikidata"}, "source_identifier": "Q121223533"}], "date_modified": "2023-09-05T19:41:31.535815+10:00"}, {"id": 81129, "name": "James Hayman", "roles_in_work": [{"id": 3086535, "title": "The Sopranos. Season 4", "work_id": 95023, "role": "co-director", "role_id": 959, "is_primary": true}], "also_known_as": "", "date_of_birth": "", "date_of_death": "", "genders": [], "languages": [], "places_of_operation": [], "biography": "", "biography_author": null, "date_of_biography": "2023-08-17T15:09:11.900045+10:00", "external_links": [], "uuid": "3ab98f08-5d4d-4139-be66-a5d8658a8ea9", "source": {"name": "Vernon", "slug": "vernon"}, "source_identifier": "21248", "external_references": [{"id": 36931, "source": {"name": "Wikidata", "slug": "wikidata"}, "source_identifier": "Q3467008"}], "date_modified": "2025-03-17T10:44:38.027857+11:00"}, {"id": 81128, "name": "Nanette Burstein", "roles_in_work": [{"id": 2357588, "title": "The Kid stays in the picture", "work_id": 95021, "role": "co-director", "role_id": 959, "is_primary": true}, {"id": 2357580, "title": "The Kid stays in the picture", "work_id": 95021, "role": "co-producer", "role_id": 915, "is_primary": true}], "also_known_as": "", "date_of_birth": "1970-05-23", "date_of_death": "", "genders": [{"id": 5, "name": "Female", "slug": "female"}], "languages": [{"id": 1, "name": "English", "slug": "english"}], "places_of_operation": [{"id": 1, "name": "United States of America", "slug": "united-states-of-america"}], "biography": "Nanette Burstein (born May 23, 1970) is an American film and television director. Burstein has produced, directed, and co-directed several documentaries including the Academy Award nominated and Sundance Special Jury Prize winning film On the Ropes.", "biography_author": "Wikidata", "date_of_biography": "2023-08-01T16:21:34.816783+10:00", "external_links": [{"id": 2767, "uri": "https://en.wikipedia.org/wiki/Nanette_Burstein"}], "uuid": "4fa3db77-bf5a-4f1b-9c59-369d2fbc8254", "source": {"name": "Vernon", "slug": "vernon"}, "source_identifier": "25622", "external_references": [{"id": 11787, "source": {"name": "Wikidata", "slug": "wikidata"}, "source_identifier": "Q2913350"}, {"id": 11788, "source": {"name": "VIAF", "slug": "viaf"}, "source_identifier": "69219502"}, {"id": 11789, "source": {"name": "LOC Auth", "slug": "loc-auth"}, "source_identifier": "no96038357"}, {"id": 11790, "source": {"name": "WorldCat", "slug": "worldcat"}, "source_identifier": "lccn-no96038357"}], "date_modified": "2023-09-05T23:24:53.521562+10:00"}, {"id": 81127, "name": "Brett Morgan", "roles_in_work": [{"id": 2357585, "title": "The Kid stays in the picture", "work_id": 95021, "role": "co-director", "role_id": 959, "is_primary": true}, {"id": 2357575, "title": "The Kid stays in the picture", "work_id": 95021, "role": "co-producer", "role_id": 915, "is_primary": true}], "also_known_as": "", "date_of_birth": "", "date_of_death": "", "genders": [], "languages": [], "places_of_operation": [], "biography": "", "biography_author": null, "date_of_biography": "2023-05-09T20:06:20.648822+10:00", "external_links": [], "uuid": "4af83fe0-4e75-45a2-933c-6810f4fa0067", "source": {"name": "Vernon", "slug": "vernon"}, "source_identifier": "16186", "external_references": [], "date_modified": "2023-06-14T16:33:30.576250+10:00"}, {"id": 81126, "name": "Graydon Carter", "roles_in_work": [{"id": 2357571, "title": "The Kid stays in the picture", "work_id": 95021, "role": "co-producer", "role_id": 915, "is_primary": true}], "also_known_as": "", "date_of_birth": "1949-07-14", "date_of_death": "", "genders": [{"id": 9, "name": "Male", "slug": "male"}], "languages": [{"id": 1, "name": "English", "slug": "english"}], "places_of_operation": [{"id": 1, "name": "United States of America", "slug": "united-states-of-america"}], "biography": "Edward Graydon Carter, CM (born July 14, 1949) is a Canadian journalist who served as the editor of Vanity Fair from 1992 until 2017. He also co-founded, with Kurt Andersen and Tom Phillips, the satirical monthly magazine Spy in 1986. In 2019, he launched a new weekly newsletter called Air Mail, which is for \"worldly cosmopolitans\".", "biography_author": "Wikidata", "date_of_biography": "2023-09-05T20:20:31.995832+10:00", "external_links": [{"id": 5848, "uri": "https://en.wikipedia.org/wiki/Graydon_Carter"}], "uuid": "0b90cab5-c04c-47af-8120-abe92c760f8b", "source": {"name": "Vernon", "slug": "vernon"}, "source_identifier": "20037", "external_references": [{"id": 40219, "source": {"name": "Wikidata", "slug": "wikidata"}, "source_identifier": "Q5598301"}, {"id": 54583, "source": {"name": "VIAF", "slug": "viaf"}, "source_identifier": "29778443"}, {"id": 54584, "source": {"name": "LOC Auth", "slug": "loc-auth"}, "source_identifier": "n2001024355"}, {"id": 54585, "source": {"name": "WorldCat", "slug": "worldcat"}, "source_identifier": "lccn-n2001024355"}], "date_modified": "2023-09-05T20:20:38.632324+10:00"}, {"id": 81125, "name": "Louis Pepe", "roles_in_work": [{"id": 2000275, "title": "Lost in La Mancha", "work_id": 95019, "role": "co-director", "role_id": 959, "is_primary": true}], "also_known_as": "", "date_of_birth": "1966-01-01", "date_of_death": null, "genders": [{"id": 9, "name": "Male", "slug": "male"}], "languages": [], "places_of_operation": [], "biography": "", "biography_author": null, "date_of_biography": null, "external_links": [], "uuid": "e905450e-d8c4-4269-9001-e4771ae9387c", "source": {"name": "Vernon", "slug": "vernon"}, "source_identifier": null, "external_references": [{"id": 11104, "source": {"name": "Wikidata", "slug": "wikidata"}, "source_identifier": "Q24635089"}, {"id": 11105, "source": {"name": "VIAF", "slug": "viaf"}, "source_identifier": "120766835"}, {"id": 11106, "source": {"name": "LOC Auth", "slug": "loc-auth"}, "source_identifier": "no2003126433"}, {"id": 11107, "source": {"name": "WorldCat", "slug": "worldcat"}, "source_identifier": "lccn-no2003126433"}], "date_modified": "2023-09-05T22:31:51.430081+10:00"}, {"id": 81124, "name": "Keith Fulton", "roles_in_work": [{"id": 2000274, "title": "Lost in La Mancha", "work_id": 95019, "role": "co-director", "role_id": 959, "is_primary": true}], "also_known_as": "", "date_of_birth": "1965-01-01", "date_of_death": null, "genders": [{"id": 9, "name": "Male", "slug": "male"}], "languages": [], "places_of_operation": [], "biography": "", "biography_author": null, "date_of_biography": null, "external_links": [], "uuid": "0d810a17-2242-4382-88c9-4ab624092cab", "source": {"name": "Vernon", "slug": "vernon"}, "source_identifier": null, "external_references": [{"id": 10735, "source": {"name": "Wikidata", "slug": "wikidata"}, "source_identifier": "Q24635079"}, {"id": 10736, "source": {"name": "VIAF", "slug": "viaf"}, "source_identifier": "120766803"}, {"id": 10737, "source": {"name": "LOC Auth", "slug": "loc-auth"}, "source_identifier": "no2003126431"}, {"id": 10738, "source": {"name": "WorldCat", "slug": "worldcat"}, "source_identifier": "lccn-no2003126431"}], "date_modified": "2023-09-05T22:03:39.786589+10:00"}]}