{"count": 28687, "next": "https://api.acmi.net.au/creators/?page=1876", "previous": "https://api.acmi.net.au/creators/?page=1874", "results": [{"id": 24966, "name": "Atlanta Film Production", "roles_in_work": [{"id": 2650118, "title": "Talkin' about Aids", "work_id": 82828, "role": "production company", "role_id": 941, "is_primary": true}], "also_known_as": "", "date_of_birth": "", "date_of_death": "", "genders": [], "languages": [], "places_of_operation": [], "biography": "", "biography_author": null, "date_of_biography": "2023-05-09T19:13:06.006761+10:00", "external_links": [], "uuid": "6e0771e6-774c-498a-9556-eeae83131636", "source": {"name": "Vernon", "slug": "vernon"}, "source_identifier": "5492", "external_references": [{"id": 33321, "source": {"name": "Wikidata", "slug": "wikidata"}, "source_identifier": "Q121091164"}], "date_modified": "2025-03-05T14:10:36.156577+11:00"}, {"id": 24965, "name": "Svend Johansen", "roles_in_work": [{"id": 2650116, "title": "Sex: a guide for the young (E)", "work_id": 82827, "role": "director", "role_id": 938, "is_primary": true}, {"id": 1808939, "title": "Safe for life (E)", "work_id": 82829, "role": "producer", "role_id": 1089, "is_primary": true}], "also_known_as": "", "date_of_birth": null, "date_of_death": null, "genders": [], "languages": [], "places_of_operation": [], "biography": "", "biography_author": null, "date_of_biography": null, "external_links": [], "uuid": "e2bdf166-3ae4-48f5-b4e7-1923dd1d0ebf", "source": {"name": "Vernon", "slug": "vernon"}, "source_identifier": "29402", "external_references": [], "date_modified": "2025-03-05T14:10:34.764140+11:00"}, {"id": 24964, "name": "Multimedia Group of Canada", "roles_in_work": [{"id": 2650115, "title": "Sex: a guide for the young (E)", "work_id": 82827, "role": "production company", "role_id": 941, "is_primary": true}], "also_known_as": "", "date_of_birth": null, "date_of_death": null, "genders": [], "languages": [], "places_of_operation": [], "biography": "", "biography_author": null, "date_of_biography": null, "external_links": [], "uuid": "6b036d90-e7a5-46f7-953a-8e8ae4bdaf88", "source": {"name": "Vernon", "slug": "vernon"}, "source_identifier": "10715", "external_references": [], "date_modified": "2025-03-05T14:10:34.183545+11:00"}, {"id": 24961, "name": "Human Relations Media", "roles_in_work": [{"id": 2322852, "title": "Teenage crises: fateful choices", "work_id": 82826, "role": "production company", "role_id": 941, "is_primary": true}], "also_known_as": "", "date_of_birth": "", "date_of_death": "", "genders": [], "languages": [], "places_of_operation": [], "biography": "", "biography_author": null, "date_of_biography": "2023-05-09T19:14:44.382521+10:00", "external_links": [], "uuid": "7a6c22ab-d3db-4644-9532-5be6c13a03ff", "source": {"name": "Vernon", "slug": "vernon"}, "source_identifier": "9186", "external_references": [{"id": 40832, "source": {"name": "Wikidata", "slug": "wikidata"}, "source_identifier": "Q121314975"}], "date_modified": "2023-09-05T20:44:22.842803+10:00"}, {"id": 24959, "name": "Filmforsyningen", "roles_in_work": [{"id": 2650114, "title": "Sex: a guide for the young (E)", "work_id": 82827, "role": "production company", "role_id": 941, "is_primary": true}, {"id": 780260, "title": "Safe for life (E)", "work_id": 82829, "role": "production company", "role_id": 941, "is_primary": true}, {"id": 780243, "title": "The Tale of the wonderful potato", "work_id": 82825, "role": "production company", "role_id": 941, "is_primary": true}], "also_known_as": "", "date_of_birth": null, "date_of_death": null, "genders": [], "languages": [], "places_of_operation": [], "biography": "", "biography_author": null, "date_of_biography": null, "external_links": [], "uuid": "85e0ae9a-9c0f-440d-81d3-36e9d714f3e6", "source": {"name": "Vernon", "slug": "vernon"}, "source_identifier": "8277", "external_references": [], "date_modified": "2025-03-05T14:10:33.603384+11:00"}, {"id": 24956, "name": "Baobab Productions", "roles_in_work": [{"id": 2237971, "title": "Feed them to the cannibals!", "work_id": 82820, "role": "production company", "role_id": 941, "is_primary": true}], "also_known_as": "", "date_of_birth": "", "date_of_death": "", "genders": [], "languages": [], "places_of_operation": [], "biography": "", "biography_author": null, "date_of_biography": "2023-05-09T16:48:34.056992+10:00", "external_links": [], "uuid": "43ee934f-d973-4a94-b2ee-c4370be44868", "source": {"name": "Vernon", "slug": "vernon"}, "source_identifier": "5714", "external_references": [{"id": 43158, "source": {"name": "Wikidata", "slug": "wikidata"}, "source_identifier": "Q121270772"}], "date_modified": "2023-09-05T17:52:49.248348+10:00"}, {"id": 24955, "name": "Dangerous to Know", "roles_in_work": [{"id": 2237967, "title": "Feed them to the cannibals!", "work_id": 82820, "role": "production company", "role_id": 941, "is_primary": true}, {"id": 815906, "title": "Captivated", "work_id": 93534, "role": "production company", "role_id": 941, "is_primary": true}], "also_known_as": "", "date_of_birth": "", "date_of_death": "", "genders": [], "languages": [], "places_of_operation": [], "biography": "", "biography_author": null, "date_of_biography": "2023-05-09T16:48:33.809343+10:00", "external_links": [], "uuid": "e6d4e9d8-95fe-4002-9339-7f894cebd7e3", "source": {"name": "Vernon", "slug": "vernon"}, "source_identifier": "7309", "external_references": [{"id": 39253, "source": {"name": "Wikidata", "slug": "wikidata"}, "source_identifier": "Q121126698"}], "date_modified": "2023-09-05T18:50:39.097836+10:00"}, {"id": 24947, "name": "Palmer", "roles_in_work": [{"id": 2476228, "title": "Mermaids", "work_id": 90427, "role": "production company", "role_id": 941, "is_primary": true}, {"id": 1986598, "title": "Mermaids (Captioned)", "work_id": 82808, "role": "production company", "role_id": 941, "is_primary": true}], "also_known_as": "", "date_of_birth": "", "date_of_death": "", "genders": [], "languages": [], "places_of_operation": [], "biography": "", "biography_author": null, "date_of_biography": "2023-08-17T15:33:57.972018+10:00", "external_links": [], "uuid": "c646d78f-d8d5-4703-b9b7-2416dd18206e", "source": {"name": "Vernon", "slug": "vernon"}, "source_identifier": "4651", "external_references": [], "date_modified": "2023-08-17T15:33:57.972369+10:00"}, {"id": 24946, "name": "Nicita/Lloyd Productions", "roles_in_work": [{"id": 1986597, "title": "Mermaids (Captioned)", "work_id": 82808, "role": "production company", "role_id": 941, "is_primary": true}, {"id": 2476227, "title": "Mermaids", "work_id": 90427, "role": "production company", "role_id": 941, "is_primary": true}], "also_known_as": "", "date_of_birth": "", "date_of_death": "", "genders": [], "languages": [], "places_of_operation": [], "biography": "", "biography_author": null, "date_of_biography": "2023-08-17T15:33:57.362503+10:00", "external_links": [], "uuid": "1ee4d3fd-7f8f-4f23-8123-39fe242c1aa9", "source": {"name": "Vernon", "slug": "vernon"}, "source_identifier": "4650", "external_references": [], "date_modified": "2023-08-17T15:33:57.362731+10:00"}, {"id": 24945, "name": "Paul Shapiro", "roles_in_work": [{"id": 2251216, "title": "Road to Avonlea", "work_id": 84613, "role": "co-director", "role_id": 959, "is_primary": true}, {"id": 2250825, "title": "Road to Avonlea (Captioned)", "work_id": 82807, "role": "co-director", "role_id": 959, "is_primary": true}, {"id": 817937, "title": "24 = Twenty-four Season one [DVD]", "work_id": 93990, "role": "director", "role_id": 938, "is_primary": true}], "also_known_as": "", "date_of_birth": "", "date_of_death": "", "genders": [], "languages": [], "places_of_operation": [], "biography": "", "biography_author": null, "date_of_biography": "2023-05-09T17:11:26.184578+10:00", "external_links": [], "uuid": "220520a4-b8fb-4edd-8ad8-a823bf5d7141", "source": {"name": "Vernon", "slug": "vernon"}, "source_identifier": "26331", "external_references": [], "date_modified": "2023-06-14T16:33:30.576250+10:00"}]}