{"count": 28687, "next": "https://api.acmi.net.au/creators/?page=1681", "previous": "https://api.acmi.net.au/creators/?page=1679", "results": [{"id": 29071, "name": "Reflective Image", "roles_in_work": [{"id": 2336377, "title": "The Celluloid closet", "work_id": 87123, "role": "production company", "role_id": 941, "is_primary": true}], "also_known_as": "", "date_of_birth": "", "date_of_death": "", "genders": [], "languages": [], "places_of_operation": [], "biography": "", "biography_author": null, "date_of_biography": "2023-05-09T19:32:33.838657+10:00", "external_links": [], "uuid": "1e3250d2-75d7-44cc-995b-09b785ed2ae1", "source": {"name": "Vernon", "slug": "vernon"}, "source_identifier": "11929", "external_references": [{"id": 37421, "source": {"name": "Wikidata", "slug": "wikidata"}, "source_identifier": "Q121159871"}], "date_modified": "2023-09-06T00:24:34.347086+10:00"}, {"id": 29068, "name": "Pioneer Productions", "roles_in_work": [{"id": 3081219, "title": "Wonders of weather", "work_id": 115531, "role": "production company", "role_id": 941, "is_primary": true}, {"id": 3081211, "title": "Wonders of weather. - Volume 1", "work_id": 88685, "role": "production company", "role_id": 941, "is_primary": true}, {"id": 3081205, "title": "Wonders of weather. - volume 4", "work_id": 88658, "role": "production company", "role_id": 941, "is_primary": true}, {"id": 1847801, "title": "Raging planet : avalanche : blizzard", "work_id": 88646, "role": "production company", "role_id": 941, "is_primary": true}, {"id": 1847812, "title": "Wonders of weather. - Volume 3", "work_id": 88725, "role": "production company", "role_id": 941, "is_primary": true}, {"id": 1847804, "title": "Wonders of weather. - Volume 2", "work_id": 88652, "role": "production company", "role_id": 941, "is_primary": true}, {"id": 1427568, "title": "Raging planet: earthquake: volcano", "work_id": 87122, "role": "production company", "role_id": 941, "is_primary": true}], "also_known_as": "", "date_of_birth": null, "date_of_death": null, "genders": [], "languages": [], "places_of_operation": [], "biography": "", "biography_author": null, "date_of_biography": null, "external_links": [], "uuid": "09898e4b-2693-4841-a11d-64c0932ff3b5", "source": {"name": "Vernon", "slug": "vernon"}, "source_identifier": "11503", "external_references": [], "date_modified": "2025-03-17T10:22:53.901760+11:00"}, {"id": 29067, "name": "Carla Cody Weaver", "roles_in_work": [{"id": 2794301, "title": "Graphing linear equations", "work_id": 87119, "role": "director", "role_id": 938, "is_primary": true}, {"id": 2794305, "title": "Writing equations of lines", "work_id": 87120, "role": "director", "role_id": 938, "is_primary": true}], "also_known_as": "", "date_of_birth": "", "date_of_death": "", "genders": [], "languages": [], "places_of_operation": [], "biography": "", "biography_author": null, "date_of_biography": "2023-05-09T18:44:02.898339+10:00", "external_links": [], "uuid": "e9772fe4-c174-4341-a631-1d166e0c52cd", "source": {"name": "Vernon", "slug": "vernon"}, "source_identifier": "16487", "external_references": [{"id": 39356, "source": {"name": "Wikidata", "slug": "wikidata"}, "source_identifier": "Q121126906"}], "date_modified": "2025-03-14T20:24:30.500690+11:00"}, {"id": 29066, "name": "Milan Herzog and Associates", "roles_in_work": [{"id": 2794271, "title": "Mathematics for modern living", "work_id": 115494, "role": "producer", "role_id": 1089, "is_primary": true}, {"id": 2794263, "title": "Probability 1 : counting techniques", "work_id": 87117, "role": "producer", "role_id": 1089, "is_primary": true}, {"id": 2794266, "title": "Probability 2", "work_id": 87118, "role": "producer", "role_id": 1089, "is_primary": true}, {"id": 2794269, "title": "Coordinate graphing 2", "work_id": 87143, "role": "producer", "role_id": 1089, "is_primary": true}], "also_known_as": "", "date_of_birth": "", "date_of_death": "", "genders": [], "languages": [], "places_of_operation": [], "biography": "", "biography_author": null, "date_of_biography": "2023-05-09T16:34:19.135379+10:00", "external_links": [], "uuid": "43b1dcdc-7b08-413b-a7bd-6767a3288b2f", "source": {"name": "Vernon", "slug": "vernon"}, "source_identifier": "10525", "external_references": [{"id": 39540, "source": {"name": "Wikidata", "slug": "wikidata"}, "source_identifier": "Q121086222"}], "date_modified": "2025-03-14T20:24:09.963833+11:00"}, {"id": 29065, "name": "Bertram Verhaag", "roles_in_work": [{"id": 2121190, "title": "Blue eyed", "work_id": 87115, "role": "director", "role_id": 938, "is_primary": true}], "also_known_as": "", "date_of_birth": "1944-03-01", "date_of_death": null, "genders": [{"id": 9, "name": "Male", "slug": "male"}], "languages": [{"id": 5, "name": "German", "slug": "german"}], "places_of_operation": [{"id": 18, "name": "Germany", "slug": "germany"}], "biography": "", "biography_author": null, "date_of_biography": null, "external_links": [], "uuid": "fcbb946e-3a86-4d42-8618-4846f8159287", "source": {"name": "Vernon", "slug": "vernon"}, "source_identifier": "15888", "external_references": [{"id": 7488, "source": {"name": "Wikidata", "slug": "wikidata"}, "source_identifier": "Q828505"}, {"id": 7489, "source": {"name": "VIAF", "slug": "viaf"}, "source_identifier": "62635538"}, {"id": 7490, "source": {"name": "LOC Auth", "slug": "loc-auth"}, "source_identifier": "nr97040336"}, {"id": 7491, "source": {"name": "WorldCat", "slug": "worldcat"}, "source_identifier": "lccn-nr97040336"}], "date_modified": "2023-09-13T12:28:27.539183+10:00"}, {"id": 29064, "name": "Denkmal", "roles_in_work": [{"id": 2121187, "title": "Blue eyed", "work_id": 87115, "role": "production company", "role_id": 941, "is_primary": true}], "also_known_as": "", "date_of_birth": "", "date_of_death": "", "genders": [], "languages": [], "places_of_operation": [], "biography": "", "biography_author": null, "date_of_biography": "2023-05-09T13:04:01.317531+10:00", "external_links": [], "uuid": "02567266-e46c-431a-80a5-981b7013e77d", "source": {"name": "Vernon", "slug": "vernon"}, "source_identifier": "7401", "external_references": [{"id": 34995, "source": {"name": "Wikidata", "slug": "wikidata"}, "source_identifier": "Q121143875"}], "date_modified": "2023-09-05T19:08:21.964656+10:00"}, {"id": 29063, "name": "Mark M Williams", "roles_in_work": [{"id": 2794297, "title": "Word problems 2: variables", "work_id": 87116, "role": "director", "role_id": 938, "is_primary": true}, {"id": 2794293, "title": "Solving linear equations with one variable", "work_id": 87114, "role": "director", "role_id": 938, "is_primary": true}], "also_known_as": "", "date_of_birth": "", "date_of_death": "", "genders": [], "languages": [], "places_of_operation": [], "biography": "", "biography_author": null, "date_of_biography": "2023-05-09T18:44:05.785955+10:00", "external_links": [], "uuid": "ff19a75e-02e0-4c09-bbd2-e80d33e14a91", "source": {"name": "Vernon", "slug": "vernon"}, "source_identifier": "24518", "external_references": [{"id": 39879, "source": {"name": "Wikidata", "slug": "wikidata"}, "source_identifier": "Q121299497"}], "date_modified": "2025-03-14T20:24:25.349375+11:00"}, {"id": 29062, "name": "Bill Hanlon", "roles_in_work": [{"id": 2794300, "title": "Graphing linear equations", "work_id": 87119, "role": "producer", "role_id": 1089, "is_primary": true}, {"id": 2794292, "title": "Solving linear equations with one variable", "work_id": 87114, "role": "producer", "role_id": 1089, "is_primary": true}, {"id": 2794296, "title": "Word problems 2: variables", "work_id": 87116, "role": "producer", "role_id": 1089, "is_primary": true}, {"id": 2794304, "title": "Writing equations of lines", "work_id": 87120, "role": "producer", "role_id": 1089, "is_primary": true}, {"id": 2794307, "title": "Algebra, you can do it", "work_id": 115495, "role": "producer", "role_id": 1089, "is_primary": true}], "also_known_as": "", "date_of_birth": "", "date_of_death": "", "genders": [], "languages": [], "places_of_operation": [], "biography": "", "biography_author": null, "date_of_biography": "2023-05-09T18:44:05.561459+10:00", "external_links": [], "uuid": "a67fe351-039e-4b39-a050-ad5bbaa54059", "source": {"name": "Vernon", "slug": "vernon"}, "source_identifier": "15967", "external_references": [{"id": 39185, "source": {"name": "Wikidata", "slug": "wikidata"}, "source_identifier": "Q121079521"}], "date_modified": "2025-03-14T20:24:32.454303+11:00"}, {"id": 29061, "name": "KLVX (Television station : Las Vegas, Nev.)", "roles_in_work": [{"id": 2794303, "title": "Writing equations of lines", "work_id": 87120, "role": "production company", "role_id": 941, "is_primary": true}, {"id": 2794299, "title": "Graphing linear equations", "work_id": 87119, "role": "production company", "role_id": 941, "is_primary": true}, {"id": 2794295, "title": "Word problems 2: variables", "work_id": 87116, "role": "production company", "role_id": 941, "is_primary": true}, {"id": 2794308, "title": "Algebra, you can do it", "work_id": 115495, "role": "production company", "role_id": 941, "is_primary": true}, {"id": 2794291, "title": "Solving linear equations with one variable", "work_id": 87114, "role": "production company", "role_id": 941, "is_primary": true}], "also_known_as": "", "date_of_birth": "", "date_of_death": "", "genders": [], "languages": [], "places_of_operation": [], "biography": "", "biography_author": null, "date_of_biography": "2023-05-09T18:44:05.327195+10:00", "external_links": [], "uuid": "4c14213e-50b9-4a11-b670-f5a2b57c1409", "source": {"name": "Vernon", "slug": "vernon"}, "source_identifier": "4551", "external_references": [{"id": 33262, "source": {"name": "Wikidata", "slug": "wikidata"}, "source_identifier": "Q121126193"}], "date_modified": "2025-03-14T20:24:31.870213+11:00"}, {"id": 29059, "name": "Australian Wildlife Video & Documentaries", "roles_in_work": [{"id": 1427555, "title": "The Sea eagle (Revised edition)", "work_id": 87110, "role": "production company", "role_id": 941, "is_primary": true}, {"id": 1427557, "title": "Where eagles nest. Rev. ed.", "work_id": 87111, "role": "production company", "role_id": 941, "is_primary": true}, {"id": 2212996, "title": "Eagles on the ranges (Aquila audax)", "work_id": 92138, "role": "production company", "role_id": 941, "is_primary": true}, {"id": 879929, "title": "The Superb Lyrebird", "work_id": 92150, "role": "production company", "role_id": 941, "is_primary": true}], "also_known_as": "", "date_of_birth": "", "date_of_death": "", "genders": [], "languages": [], "places_of_operation": [], "biography": "", "biography_author": null, "date_of_biography": "2023-05-09T15:49:30.035358+10:00", "external_links": [], "uuid": "381f1523-542e-4b22-98fc-da9367894001", "source": {"name": "Vernon", "slug": "vernon"}, "source_identifier": "4857", "external_references": [{"id": 42664, "source": {"name": "Wikidata", "slug": "wikidata"}, "source_identifier": "Q121091223"}], "date_modified": "2023-09-05T17:51:30.235640+10:00"}]}