{"count": 28681, "next": "https://api.acmi.net.au/creators/?page=2224", "previous": "https://api.acmi.net.au/creators/?page=2222", "results": [{"id": 18212, "name": "Ed Weiss", "roles_in_work": [{"id": 2464580, "title": "Of men and ideas", "work_id": 73493, "role": "director", "role_id": 938, "is_primary": true}], "also_known_as": "", "date_of_birth": "", "date_of_death": "", "genders": [], "languages": [], "places_of_operation": [], "biography": "", "biography_author": null, "date_of_biography": "2023-08-14T10:14:33.743218+10:00", "external_links": [], "uuid": "e6eb4b7d-e9b1-4217-8801-19ff844e340c", "source": {"name": "Vernon", "slug": "vernon"}, "source_identifier": "32722", "external_references": [], "date_modified": "2023-08-14T10:14:33.743634+10:00"}, {"id": 18211, "name": "Ed Wegener", "roles_in_work": [{"id": 2464579, "title": "Of men and ideas", "work_id": 73493, "role": "producer", "role_id": 1089, "is_primary": true}], "also_known_as": "", "date_of_birth": "", "date_of_death": "", "genders": [], "languages": [], "places_of_operation": [], "biography": "", "biography_author": null, "date_of_biography": "2023-08-14T10:14:33.119740+10:00", "external_links": [], "uuid": "e85f79b6-d42d-4d41-ab4d-a957363cbc2f", "source": {"name": "Vernon", "slug": "vernon"}, "source_identifier": "32721", "external_references": [], "date_modified": "2023-08-14T10:14:33.120087+10:00"}, {"id": 18210, "name": "WOI Television", "roles_in_work": [{"id": 2464578, "title": "Of men and ideas", "work_id": 73493, "role": "production company", "role_id": 941, "is_primary": true}], "also_known_as": "", "date_of_birth": "", "date_of_death": "", "genders": [], "languages": [], "places_of_operation": [], "biography": "", "biography_author": null, "date_of_biography": "2023-08-14T10:14:32.506360+10:00", "external_links": [], "uuid": "5faffbe3-8436-4bdb-a96e-eefe10c5f10d", "source": {"name": "Vernon", "slug": "vernon"}, "source_identifier": "32720", "external_references": [], "date_modified": "2023-08-14T10:14:32.507037+10:00"}, {"id": 18206, "name": "James Davis", "roles_in_work": [{"id": 2466437, "title": "Taliesin East", "work_id": 73487, "role": "director", "role_id": 938, "is_primary": true}], "also_known_as": "", "date_of_birth": "", "date_of_death": "", "genders": [], "languages": [], "places_of_operation": [], "biography": "", "biography_author": null, "date_of_biography": "2023-08-14T10:57:12.784504+10:00", "external_links": [], "uuid": "4890abfc-fdbb-4643-b800-3684b9d37688", "source": {"name": "Vernon", "slug": "vernon"}, "source_identifier": "21222", "external_references": [], "date_modified": "2023-08-14T10:57:12.784779+10:00"}, {"id": 18205, "name": "Wynant D Vanderpool", "roles_in_work": [{"id": 2466436, "title": "Taliesin East", "work_id": 73487, "role": "producer", "role_id": 1089, "is_primary": true}], "also_known_as": "", "date_of_birth": "", "date_of_death": "", "genders": [], "languages": [], "places_of_operation": [], "biography": "", "biography_author": null, "date_of_biography": "2023-08-14T10:57:12.161034+10:00", "external_links": [], "uuid": "e1892d5a-09e4-4047-b103-172c39f26cd9", "source": {"name": "Vernon", "slug": "vernon"}, "source_identifier": "30548", "external_references": [], "date_modified": "2023-08-14T10:57:12.161258+10:00"}, {"id": 18204, "name": "Ami Amitai", "roles_in_work": [{"id": 2751794, "title": "Yanis and his dream", "work_id": 97985, "role": "director", "role_id": 938, "is_primary": true}, {"id": 1808649, "title": "Butterflies are...", "work_id": 97072, "role": "producer", "role_id": 1089, "is_primary": true}, {"id": 1810664, "title": "Taleb and his lamb: a Bedouin tale about right and wrong - discipline and responsibility.", "work_id": 73482, "role": "producer", "role_id": 1089, "is_primary": true}], "also_known_as": "", "date_of_birth": "", "date_of_death": "", "genders": [], "languages": [], "places_of_operation": [], "biography": "", "biography_author": null, "date_of_biography": "2023-08-14T12:53:25.568822+10:00", "external_links": [], "uuid": "4b964963-d66d-4f25-b125-d59d244c7b47", "source": {"name": "Vernon", "slug": "vernon"}, "source_identifier": "15067", "external_references": [], "date_modified": "2025-03-13T00:51:13.961570+11:00"}, {"id": 18203, "name": "Amitai Film Productions", "roles_in_work": [{"id": 754937, "title": "Taleb and his lamb: a Bedouin tale about right and wrong - discipline and responsibility.", "work_id": 73482, "role": "production company", "role_id": 941, "is_primary": true}, {"id": 2751793, "title": "Yanis and his dream", "work_id": 97985, "role": "production company", "role_id": 941, "is_primary": true}, {"id": 2466353, "title": "Symbiosis", "work_id": 87139, "role": "production company", "role_id": 941, "is_primary": true}], "also_known_as": "", "date_of_birth": "", "date_of_death": "", "genders": [], "languages": [], "places_of_operation": [], "biography": "", "biography_author": null, "date_of_biography": "2023-08-14T12:53:24.931506+10:00", "external_links": [], "uuid": "408f851c-e0cd-42cc-9b09-a4ee94f7d770", "source": {"name": "Vernon", "slug": "vernon"}, "source_identifier": "5227", "external_references": [], "date_modified": "2025-03-13T00:51:13.366726+11:00"}, {"id": 18198, "name": "Vita Films", "roles_in_work": [{"id": 2398400, "title": "A Tale for everybody", "work_id": 73473, "role": "production company", "role_id": 941, "is_primary": true}], "also_known_as": "", "date_of_birth": "", "date_of_death": "", "genders": [], "languages": [], "places_of_operation": [], "biography": "", "biography_author": null, "date_of_biography": "2023-08-11T13:17:45.890168+10:00", "external_links": [], "uuid": "47d45f42-6e7d-4247-9aef-42cd2b6b6dbe", "source": {"name": "Vernon", "slug": "vernon"}, "source_identifier": "33337", "external_references": [], "date_modified": "2023-08-11T13:17:45.890494+10:00"}, {"id": 18197, "name": "Beaux-Arts", "roles_in_work": [{"id": 2398399, "title": "A Tale for everybody", "work_id": 73473, "role": "production company", "role_id": 941, "is_primary": true}], "also_known_as": "", "date_of_birth": "", "date_of_death": "", "genders": [], "languages": [], "places_of_operation": [], "biography": "", "biography_author": null, "date_of_biography": "2023-08-11T13:17:45.265377+10:00", "external_links": [], "uuid": "44a3ced9-5cdd-41d7-904a-7a23bca776db", "source": {"name": "Vernon", "slug": "vernon"}, "source_identifier": "33336", "external_references": [], "date_modified": "2023-08-11T13:17:45.265712+10:00"}, {"id": 18193, "name": "Nippon Koho Center", "roles_in_work": [{"id": 2767859, "title": "Takahide Saita: shipyard foreman", "work_id": 73458, "role": "production company", "role_id": 941, "is_primary": true}], "also_known_as": "", "date_of_birth": "", "date_of_death": "", "genders": [], "languages": [], "places_of_operation": [], "biography": "", "biography_author": null, "date_of_biography": "2023-08-11T14:26:15.462805+10:00", "external_links": [], "uuid": "c107729b-1e06-4e24-ae11-1a8a7599c95f", "source": {"name": "Vernon", "slug": "vernon"}, "source_identifier": "33559", "external_references": [], "date_modified": "2025-03-14T18:07:16.496823+11:00"}]}