{"count": 28687, "next": "https://api.acmi.net.au/creators/?page=719", "previous": "https://api.acmi.net.au/creators/?page=717", "results": [{"id": 78403, "name": "Craig Welch", "roles_in_work": [{"id": 795062, "title": "How wings are attached to the backs of angels = comment les ailes sont attachees au dos des anges", "work_id": 87085, "role": "director", "role_id": 938, "is_primary": true}], "also_known_as": "", "date_of_birth": "1948-09-27", "date_of_death": "2020-05-18", "genders": [{"id": 9, "name": "Male", "slug": "male"}], "languages": [], "places_of_operation": [], "biography": "", "biography_author": null, "date_of_biography": null, "external_links": [], "uuid": "ceaee600-f1d0-4c32-b427-aa1da4ce568f", "source": {"name": "Vernon", "slug": "vernon"}, "source_identifier": null, "external_references": [{"id": 34109, "source": {"name": "Wikidata", "slug": "wikidata"}, "source_identifier": "Q118109323"}], "date_modified": "2023-09-05T18:46:38.236323+10:00"}, {"id": 78402, "name": "Marcy Page", "roles_in_work": [{"id": 2303755, "title": "Snow cat: based on the book by Dayal Kaur Khalsa", "work_id": 87984, "role": "co-producer", "role_id": 915, "is_primary": true}, {"id": 2165928, "title": "My Grandmother ironed the King's shirts", "work_id": 88919, "role": "co-producer", "role_id": 915, "is_primary": true}, {"id": 2316630, "title": "Subconscious Password", "work_id": 114401, "role": "producer", "role_id": 1089, "is_primary": true}, {"id": 1811643, "title": "How wings are attached to the backs of angels = comment les ailes sont attachees au dos des anges", "work_id": 87085, "role": "producer", "role_id": 1089, "is_primary": true}, {"id": 1815527, "title": "Glasses", "work_id": 93172, "role": "producer", "role_id": 1089, "is_primary": true}], "also_known_as": "", "date_of_birth": null, "date_of_death": "", "genders": [{"id": 5, "name": "Female", "slug": "female"}], "languages": [], "places_of_operation": [], "biography": "Marcy Page is an animation filmmaker and educator.\nPage was born and raised in California. She animated her own projects and for several companies, and she taught courses at both San Francisco State University and the California College of Arts before she emigrated to Canada. Her own film Paradisia won awards at many international festivals.In 1990, Page joined the National Film Board of Canada, where she produced a number of animated films. Most notably, she co-produced the Academy Award-winning films Ryan (2004)  and The Danish Poet (2006). She also produced the Academy Award-nominated Madame Tutli-Putli (which won the Le Grand Prix Canal + du meilleur court-métrage at 2007 Cannes Film Festival and co-produced Me and My Moulton (2014) and My Grandmother Ironed the King's Shirts (1999), both nominated for the Academy Award for Best Animated Short Film. During her time at the National Film Board, she has worked on films that have earned over 250 international awards.Through films like Ryan, Page has encouraged the innovative use of computer technology, as well as stereoscopic films like Munro Ferguson's Falling in Love Again and June.Page was invited to join the Academy of Motion Picture Arts and Sciences in 2007.\nAfter working at the National Film Board for 24 years, she retired in March 2014. In November 2015, Page received the inaugural Prix René-Jodoin, recognizing exceptional work in Canadian animation.She is married to film composer Normand Roger, whom she met while working with him on Paradisia.", "biography_author": "Wikidata", "date_of_biography": "2023-08-01T16:03:19.550447+10:00", "external_links": [{"id": 4605, "uri": "https://en.wikipedia.org/wiki/Marcy_Page"}], "uuid": "15f23f9e-c346-4508-bf2e-6ab59e8a4a72", "source": {"name": "Vernon", "slug": "vernon"}, "source_identifier": "24328", "external_references": [{"id": 26803, "source": {"name": "Wikidata", "slug": "wikidata"}, "source_identifier": "Q19748197"}, {"id": 30095, "source": {"name": "VIAF", "slug": "viaf"}, "source_identifier": "105761476"}, {"id": 30096, "source": {"name": "LOC Auth", "slug": "loc-auth"}, "source_identifier": "nr2006006574"}, {"id": 30097, "source": {"name": "WorldCat", "slug": "worldcat"}, "source_identifier": "lccn-nr2006006574"}], "date_modified": "2023-08-01T16:03:19.574403+10:00"}, {"id": 78401, "name": "Therese Descary", "roles_in_work": [{"id": 908983, "title": "Ludovic: a crocodile in my garden", "work_id": 89394, "role": "co-producer", "role_id": 915, "is_primary": true}, {"id": 1815004, "title": "Ludovic: the snow gift", "work_id": 87983, "role": "producer", "role_id": 1089, "is_primary": true}, {"id": 2349872, "title": "The Garden of Ecos = les Jardin d'Ecos", "work_id": 87084, "role": "producer", "role_id": 1089, "is_primary": true}, {"id": 2149431, "title": "Cuckoo, Mr. Edgar!", "work_id": 94128, "role": "producer", "role_id": 1089, "is_primary": true}, {"id": 2250409, "title": "Rights from the heart. Part 2", "work_id": 87906, "role": "producer", "role_id": 1089, "is_primary": true}, {"id": 2250402, "title": "Rights from the heart. Part 1", "work_id": 93827, "role": "producer", "role_id": 1089, "is_primary": true}], "also_known_as": "", "date_of_birth": "", "date_of_death": "", "genders": [], "languages": [], "places_of_operation": [], "biography": "", "biography_author": null, "date_of_biography": "2023-05-09T19:54:18.965867+10:00", "external_links": [], "uuid": "afc63812-0d20-49fb-9ec1-b60218b985bd", "source": {"name": "Vernon", "slug": "vernon"}, "source_identifier": "29653", "external_references": [{"id": 33597, "source": {"name": "Wikidata", "slug": "wikidata"}, "source_identifier": "Q121126179"}], "date_modified": "2023-09-06T01:47:55.792497+10:00"}, {"id": 78400, "name": "Ross Stevenson", "roles_in_work": [{"id": 2349777, "title": "The Games", "work_id": 87077, "role": "production company", "role_id": 941, "is_primary": true}], "also_known_as": "", "date_of_birth": "", "date_of_death": "", "genders": [], "languages": [], "places_of_operation": [], "biography": "", "biography_author": null, "date_of_biography": "2023-05-09T19:54:09.877961+10:00", "external_links": [], "uuid": "dba051ef-ca53-444b-8e8a-3e4319c288b9", "source": {"name": "Vernon", "slug": "vernon"}, "source_identifier": "28282", "external_references": [{"id": 35047, "source": {"name": "Wikidata", "slug": "wikidata"}, "source_identifier": "Q121126684"}], "date_modified": "2023-09-06T00:56:55.053716+10:00"}, {"id": 78399, "name": "Alice Garner", "roles_in_work": [{"id": 2265479, "title": "Seachange = Sea change. Series 3. Ep. 1-7", "work_id": 91195, "role": "cast", "role_id": 33, "is_primary": false}, {"id": 2265450, "title": "Seachange = Sea change. Series 1. Ep. 1-7", "work_id": 87076, "role": "cast", "role_id": 33, "is_primary": false}, {"id": 2265442, "title": "Seachange = Sea change. Series 2. Ep. 8-13", "work_id": 91196, "role": "cast", "role_id": 33, "is_primary": false}, {"id": 2315167, "title": "Strange planet", "work_id": 95153, "role": "cast", "role_id": 33, "is_primary": false}], "also_known_as": "", "date_of_birth": "1969-09-14", "date_of_death": "", "genders": [{"id": 5, "name": "Female", "slug": "female"}], "languages": [{"id": 1, "name": "English", "slug": "english"}, {"id": 4, "name": "French", "slug": "french"}], "places_of_operation": [{"id": 3, "name": "Australia", "slug": "australia"}], "biography": "Alice Miriam Olivia Garner is an Australian actor, author, musician, teacher and historian.\nShe is the daughter of Australian novelist and screenwriter Helen Garner and playwright, historian and actor Bill Garner.", "biography_author": "Wikidata", "date_of_biography": "2023-08-01T13:59:42.220418+10:00", "external_links": [{"id": 3528, "uri": "https://en.wikipedia.org/wiki/Alice_Garner"}], "uuid": "88ef0745-e13c-4e4f-a48c-ef2646e171b8", "source": {"name": "Vernon", "slug": "vernon"}, "source_identifier": "33491", "external_references": [{"id": 25529, "source": {"name": "Wikidata", "slug": "wikidata"}, "source_identifier": "Q2646899"}, {"id": 27196, "source": {"name": "VIAF", "slug": "viaf"}, "source_identifier": "87362268"}, {"id": 27197, "source": {"name": "LOC Auth", "slug": "loc-auth"}, "source_identifier": "n2004028310"}, {"id": 27198, "source": {"name": "WorldCat", "slug": "worldcat"}, "source_identifier": "lccn-n2004028310"}], "date_modified": "2023-09-05T17:28:36.233025+10:00"}, {"id": 78398, "name": "Kate Atkinson", "roles_in_work": [{"id": 2265475, "title": "Seachange = Sea change. Series 3. Ep. 1-7", "work_id": 91195, "role": "cast", "role_id": 33, "is_primary": false}, {"id": 2265438, "title": "Seachange = Sea change. Series 2. Ep. 8-13", "work_id": 91196, "role": "cast", "role_id": 33, "is_primary": false}, {"id": 2265240, "title": "Seachange = Sea change. Series 2. Ep. 1-7", "work_id": 91197, "role": "cast", "role_id": 33, "is_primary": false}, {"id": 2265606, "title": "Seachange = Sea change. Series 3. Ep. 8-13", "work_id": 90758, "role": "cast", "role_id": 33, "is_primary": false}, {"id": 2265443, "title": "Seachange = Sea change. Series 1. Ep. 1-7", "work_id": 87076, "role": "cast", "role_id": 33, "is_primary": false}], "also_known_as": "", "date_of_birth": "1972-01-01", "date_of_death": "", "genders": [{"id": 5, "name": "Female", "slug": "female"}], "languages": [], "places_of_operation": [{"id": 3, "name": "Australia", "slug": "australia"}], "biography": "Kate Atkinson (born 28 June 1972) is an Australian film, television and theatre actress. She is best known for her roles on television series SeaChange as police officer Karen Miller and Offspring as Renee. From 2013 to 2021 she appeared in a regular role in Wentworth as Deputy Governor (later Governor) Vera Bennett.\nAtkinson has also had regular roles in the television series Fat Cow Motel, Blue Heelers, The Cooks and Kath & Kim. Film roles include Japanese Story, The Hard Word and The Jammed.", "biography_author": "Wikidata", "date_of_biography": "2023-09-05T22:01:24.550082+10:00", "external_links": [{"id": 5957, "uri": "https://en.wikipedia.org/wiki/Kate_Atkinson_(actress)"}], "uuid": "0771ff39-3827-48a5-8b15-1102fc505d8d", "source": {"name": "Vernon", "slug": "vernon"}, "source_identifier": "38140", "external_references": [{"id": 33674, "source": {"name": "Wikidata", "slug": "wikidata"}, "source_identifier": "Q6375339"}, {"id": 54987, "source": {"name": "VIAF", "slug": "viaf"}, "source_identifier": "120584857"}, {"id": 54988, "source": {"name": "LOC Auth", "slug": "loc-auth"}, "source_identifier": "no2010067359"}, {"id": 54989, "source": {"name": "WorldCat", "slug": "worldcat"}, "source_identifier": "lccn-no2010067359"}], "date_modified": "2023-09-05T22:01:24.568896+10:00"}, {"id": 78397, "name": "Bruce Alexander", "roles_in_work": [{"id": 2265441, "title": "Seachange = Sea change. Series 1. Ep. 1-7", "work_id": 87076, "role": "cast", "role_id": 33, "is_primary": false}], "also_known_as": "", "date_of_birth": "", "date_of_death": "", "genders": [], "languages": [], "places_of_operation": [], "biography": "", "biography_author": null, "date_of_biography": "2023-05-09T17:37:01.322251+10:00", "external_links": [], "uuid": "3f284f0e-de40-4a3a-aeb0-41d8ad5e5c86", "source": {"name": "Vernon", "slug": "vernon"}, "source_identifier": "38139", "external_references": [{"id": 33681, "source": {"name": "Wikidata", "slug": "wikidata"}, "source_identifier": "Q121270917"}], "date_modified": "2023-09-05T18:12:22.917627+10:00"}, {"id": 78396, "name": "Ralph Thomas", "roles_in_work": [{"id": 1992764, "title": "The Wind cannot read", "work_id": 88397, "role": "director", "role_id": 938, "is_primary": true}, {"id": 2752888, "title": "Tale of two cities", "work_id": 98502, "role": "director", "role_id": 938, "is_primary": true}, {"id": 2129105, "title": "Campbell's Kingdom", "work_id": 87385, "role": "director", "role_id": 938, "is_primary": true}, {"id": 2164829, "title": "No love for Johnnie", "work_id": 87070, "role": "director", "role_id": 938, "is_primary": true}, {"id": 1991487, "title": "Venetian bird = The Assassin", "work_id": 87205, "role": "director", "role_id": 938, "is_primary": true}, {"id": 1992762, "title": "The Wind cannot read", "work_id": 88397, "role": "production company", "role_id": 941, "is_primary": true}], "also_known_as": "", "date_of_birth": "10 AUG 1915", "date_of_death": "17 MAR 2001", "genders": [{"id": 9, "name": "Male", "slug": "male"}], "languages": [{"id": 1, "name": "English", "slug": "english"}], "places_of_operation": [{"id": 10, "name": "United Kingdom", "slug": "united-kingdom"}], "biography": "Ralph Philip Thomas MC (10 August 1915 – 17 March 2001) was an English film director. He is perhaps best remembered for directing the Doctor series of films.\n\nHis brother, Gerald Thomas, was also a film director, probably best remembered for the Carry On... film series, and his son is the Academy Award-winning film producer, Jeremy Thomas.\n\nHe cast the actor James Robertson Justice in many of his films. Thomas often worked with the producer Betty E. Box, who was married to Carry On producer Peter Rogers. Thomas was a nephew of producer Victor Saville. Source: Wikidata; 01/08/2023", "biography_author": null, "date_of_biography": "2025-03-13T01:13:28.271181+11:00", "external_links": [{"id": 2907, "uri": "https://en.wikipedia.org/wiki/Ralph_Thomas"}], "uuid": "88e083de-49f4-4c6a-aa41-1d9ae2e8fab5", "source": {"name": "Vernon", "slug": "vernon"}, "source_identifier": "27094", "external_references": [{"id": 12362, "source": {"name": "Wikidata", "slug": "wikidata"}, "source_identifier": "Q433960"}, {"id": 12363, "source": {"name": "VIAF", "slug": "viaf"}, "source_identifier": "93498532"}, {"id": 12364, "source": {"name": "LOC Auth", "slug": "loc-auth"}, "source_identifier": "no98101227"}, {"id": 12365, "source": {"name": "WorldCat", "slug": "worldcat"}, "source_identifier": "lccn-no98101227"}], "date_modified": "2025-03-13T01:13:28.271414+11:00"}, {"id": 78395, "name": "Peter Malycon", "roles_in_work": [{"id": 2197865, "title": "Doesn't everybody want a golden guitar", "work_id": 87068, "role": "co-producer", "role_id": 915, "is_primary": true}], "also_known_as": "", "date_of_birth": "", "date_of_death": "", "genders": [], "languages": [], "places_of_operation": [], "biography": "", "biography_author": null, "date_of_biography": "2023-05-09T15:20:38.560602+10:00", "external_links": [], "uuid": "3882a47f-ec82-4719-a240-40267a205d36", "source": {"name": "Vernon", "slug": "vernon"}, "source_identifier": "26630", "external_references": [{"id": 41337, "source": {"name": "Wikidata", "slug": "wikidata"}, "source_identifier": "Q121160071"}], "date_modified": "2023-09-05T23:58:57.111187+10:00"}, {"id": 78394, "name": "Samuel Lockhart", "roles_in_work": [{"id": 906358, "title": "Glenn Miller : America's musical hero", "work_id": 87065, "role": "co-producer", "role_id": 915, "is_primary": true}], "also_known_as": "", "date_of_birth": null, "date_of_death": null, "genders": [], "languages": [], "places_of_operation": [], "biography": "", "biography_author": null, "date_of_biography": null, "external_links": [], "uuid": "10e7b98a-6c6a-417e-bcea-dea5cca09835", "source": {"name": "Vernon", "slug": "vernon"}, "source_identifier": null, "external_references": [{"id": 42609, "source": {"name": "Wikidata", "slug": "wikidata"}, "source_identifier": "Q121126761"}], "date_modified": "2023-09-06T01:04:18.270791+10:00"}]}