{"count": 28687, "next": "https://api.acmi.net.au/creators/?page=777", "previous": "https://api.acmi.net.au/creators/?page=775", "results": [{"id": 77823, "name": "Bruce Joel Rubin", "roles_in_work": [{"id": 2473940, "title": "My life", "work_id": 85080, "role": "director", "role_id": 938, "is_primary": true}, {"id": 2473938, "title": "My life", "work_id": 85080, "role": "co-producer", "role_id": 915, "is_primary": true}], "also_known_as": "", "date_of_birth": "1943-03-10", "date_of_death": "", "genders": [{"id": 9, "name": "Male", "slug": "male"}], "languages": [], "places_of_operation": [{"id": 1, "name": "United States of America", "slug": "united-states-of-america"}], "biography": "Bruce Joel Rubin (born March 10, 1943) is an American screenwriter, meditation teacher, and photographer. His films often explore themes of life and death with metaphysical and science fiction elements. Prominent among them are Jacob's Ladder, My Life and Ghost, for which he received the Oscar for Best Original Screenplay. Ghost was also nominated for Best Picture, and was the highest-grossing film of 1990. He is sometimes credited as \"Derek Saunders\" or simply \"Bruce Rubin\".", "biography_author": "Wikidata", "date_of_biography": "2023-09-05T18:12:59.502986+10:00", "external_links": [{"id": 1758, "uri": "https://en.wikipedia.org/wiki/Bruce_Joel_Rubin"}], "uuid": "11a1350e-5059-4195-b6a5-9a318a16d9b6", "source": {"name": "Vernon", "slug": "vernon"}, "source_identifier": "16312", "external_references": [{"id": 7668, "source": {"name": "Wikidata", "slug": "wikidata"}, "source_identifier": "Q991682"}, {"id": 7669, "source": {"name": "VIAF", "slug": "viaf"}, "source_identifier": "4098850"}, {"id": 7670, "source": {"name": "LOC Auth", "slug": "loc-auth"}, "source_identifier": "n90698855"}, {"id": 7671, "source": {"name": "WorldCat", "slug": "worldcat"}, "source_identifier": "lccn-n90698855"}], "date_modified": "2023-09-05T18:12:59.512970+10:00"}, {"id": 77822, "name": "Peter Falk", "roles_in_work": [{"id": 2749785, "title": "Wild science", "work_id": 96975, "role": "anchor/host", "role_id": 629, "is_primary": false}, {"id": 2476161, "title": "It's a mad mad mad mad world", "work_id": 85079, "role": "cast", "role_id": 33, "is_primary": false}], "also_known_as": "Peter Michael Falk", "date_of_birth": "1927", "date_of_death": "2011-06-23", "genders": [{"id": 9, "name": "Male", "slug": "male"}], "languages": [{"id": 1, "name": "English", "slug": "english"}], "places_of_operation": [{"id": 1, "name": "United States of America", "slug": "united-states-of-america"}], "biography": "Peter Michael Falk (September 16, 1927 – June 23, 2011) was an American film and television actor. He is best known for his role as Lieutenant Columbo in the long-running NBC series Columbo (1968–1978, 1989–2003), for which he won four Primetime Emmy Awards (1972, 1975, 1976, 1990) and a Golden Globe Award (1973). In 1996, TV Guide ranked Falk No. 21 on its 50 Greatest TV Stars of All Time list. He received a posthumous star on the Hollywood Walk of Fame in 2013.He first starred as Columbo in two 2-hour \"World Premiere\" TV pilots; the first with Gene Barry in 1968 and the second with Lee Grant in 1971. The show then aired as part of The NBC Mystery Movie series from 1971 to 1978, and again on ABC from 1989 to 2003.Falk was twice nominated for the Academy Award for Best Supporting Actor, for Murder, Inc. (1960) and Pocketful of Miracles (1961), and won his first Emmy Award in 1962 for The Dick Powell Theatre. He was the first actor to be nominated for an Academy Award and an Emmy Award in the same year, achieving the feat twice (1961 and 1962). He went on to appear in such films as It's a Mad, Mad, Mad, Mad World (1963), The Great Race (1965), Anzio (1968), Murder by Death (1976), The Cheap Detective (1978), The Brink's Job (1978), The In-Laws (1979), The Princess Bride (1987), Wings of Desire (1987), The Player (1992), and Next (2007), as well as many television guest roles.\n\nFalk was also known for his collaborations with filmmaker, actor, and personal friend John Cassavetes acting in films such as Husbands (1970), A Woman Under the Influence (1974), Elaine May's Mikey and Nicky (1976) and the Columbo episode \"Étude in Black\" (1972).; 17/08/2023", "biography_author": null, "date_of_biography": "2025-03-13T00:06:48.522234+11:00", "external_links": [{"id": 4874, "uri": "https://en.wikipedia.org/wiki/Peter_Falk"}], "uuid": "9d3c49a8-bdcc-45db-bd2b-2a1941482df1", "source": {"name": "Vernon", "slug": "vernon"}, "source_identifier": "33215", "external_references": [{"id": 26996, "source": {"name": "Wikidata", "slug": "wikidata"}, "source_identifier": "Q484881"}, {"id": 30770, "source": {"name": "VIAF", "slug": "viaf"}, "source_identifier": "84977623"}, {"id": 30771, "source": {"name": "LOC Auth", "slug": "loc-auth"}, "source_identifier": "n85199266"}, {"id": 30772, "source": {"name": "WorldCat", "slug": "worldcat"}, "source_identifier": "lccn-n85199266"}], "date_modified": "2025-03-13T00:06:48.522535+11:00"}, {"id": 77821, "name": "Jimmy Durante", "roles_in_work": [{"id": 2476060, "title": "The Man who came to dinner", "work_id": 95615, "role": "cast", "role_id": 33, "is_primary": false}, {"id": 2476160, "title": "It's a mad mad mad mad world", "work_id": 85079, "role": "cast", "role_id": 33, "is_primary": false}], "also_known_as": "", "date_of_birth": "1893-02-10", "date_of_death": "1980-01-29", "genders": [{"id": 9, "name": "Male", "slug": "male"}], "languages": [], "places_of_operation": [{"id": 1, "name": "United States of America", "slug": "united-states-of-america"}], "biography": "James Francis Durante ( də-RAN-tee, Italian: [duˈrante]; February 10, 1893 – January 29, 1980) was an American comedian, actor, singer, and pianist. His distinctive gravelly speech, Lower East Side accent, comic language-butchery, jazz-influenced songs, and prominent nose helped make him one of the United States' most familiar and popular personalities of the 1920s through the 1970s. He often referred to his nose as the schnozzola (Italianization of the American Yiddish slang word schnoz, meaning \"big nose\"), and the word became his nickname.", "biography_author": "Wikidata", "date_of_biography": "2023-09-05T21:25:55.555127+10:00", "external_links": [{"id": 4338, "uri": "https://en.wikipedia.org/wiki/Jimmy_Durante"}], "uuid": "f38b9cfc-81bb-4f9d-8ebe-8862e294fe7d", "source": {"name": "Vernon", "slug": "vernon"}, "source_identifier": "33100", "external_references": [{"id": 26997, "source": {"name": "Wikidata", "slug": "wikidata"}, "source_identifier": "Q471023"}, {"id": 29397, "source": {"name": "VIAF", "slug": "viaf"}, "source_identifier": "69731589"}, {"id": 29398, "source": {"name": "LOC Auth", "slug": "loc-auth"}, "source_identifier": "n81022178"}, {"id": 29399, "source": {"name": "WorldCat", "slug": "worldcat"}, "source_identifier": "lccn-n81022178"}], "date_modified": "2023-09-05T21:25:57.622875+10:00"}, {"id": 77820, "name": "Buddy Hackett", "roles_in_work": [{"id": 2476159, "title": "It's a mad mad mad mad world", "work_id": 85079, "role": "cast", "role_id": 33, "is_primary": false}], "also_known_as": "", "date_of_birth": "1924-08-31", "date_of_death": "2003-06-30", "genders": [{"id": 9, "name": "Male", "slug": "male"}], "languages": [{"id": 1, "name": "English", "slug": "english"}], "places_of_operation": [{"id": 1, "name": "United States of America", "slug": "united-states-of-america"}], "biography": "Buddy Hackett (born Leonard Hacker; August 31, 1924 – June 30, 2003) was an American actor and comedian. His best remembered roles include Marcellus Washburn in The Music Man (1962), Benjy Benjamin in It's a Mad, Mad, Mad, Mad World (1963), Tennessee Steinmetz in The Love Bug (1968), and the voice of Scuttle in The Little Mermaid (1989).", "biography_author": "Wikidata", "date_of_biography": "2023-09-05T18:15:46.342070+10:00", "external_links": [{"id": 3698, "uri": "https://en.wikipedia.org/wiki/Buddy_Hackett"}], "uuid": "c1930993-5b0f-4c9d-aa2a-65c7f8b82238", "source": {"name": "Vernon", "slug": "vernon"}, "source_identifier": "33848", "external_references": [{"id": 27022, "source": {"name": "Wikidata", "slug": "wikidata"}, "source_identifier": "Q558333"}, {"id": 27647, "source": {"name": "VIAF", "slug": "viaf"}, "source_identifier": "14975008"}, {"id": 27648, "source": {"name": "LOC Auth", "slug": "loc-auth"}, "source_identifier": "n85378410"}, {"id": 27649, "source": {"name": "WorldCat", "slug": "worldcat"}, "source_identifier": "lccn-n85378410"}], "date_modified": "2023-09-05T18:15:48.369611+10:00"}, {"id": 77819, "name": "Milton Berle", "roles_in_work": [{"id": 2476157, "title": "It's a mad mad mad mad world", "work_id": 85079, "role": "cast", "role_id": 33, "is_primary": false}], "also_known_as": "", "date_of_birth": "1908-07-12", "date_of_death": "2002-03-27", "genders": [{"id": 9, "name": "Male", "slug": "male"}], "languages": [], "places_of_operation": [{"id": 1, "name": "United States of America", "slug": "united-states-of-america"}], "biography": "Milton Berle (born Mendel Berlinger; Yiddish: ‏מענדעל בערלינגער; July 12, 1908 – March 27, 2002) was an American actor and comedian. His career as an entertainer spanned over eight decades, first in silent films and on stage as a child actor, then in radio, movies and television. As the host of NBC's Texaco Star Theatre (1948–1953), he was the first major American television star and was known to millions of viewers as \"Uncle Miltie\" and \"Mr. Television\" during the first Golden Age of Television. He was honored with two stars on the Hollywood Walk of Fame for his work in both radio and TV.", "biography_author": "Wikidata", "date_of_biography": "2023-09-05T23:16:23.819258+10:00", "external_links": [{"id": 4742, "uri": "https://en.wikipedia.org/wiki/Milton_Berle"}], "uuid": "f1aa5322-df85-4f98-ab71-2279f7bfd6ec", "source": {"name": "Vernon", "slug": "vernon"}, "source_identifier": "31915", "external_references": [{"id": 27024, "source": {"name": "Wikidata", "slug": "wikidata"}, "source_identifier": "Q558933"}, {"id": 30436, "source": {"name": "VIAF", "slug": "viaf"}, "source_identifier": "19870730"}, {"id": 30437, "source": {"name": "LOC Auth", "slug": "loc-auth"}, "source_identifier": "n82214816"}, {"id": 30438, "source": {"name": "WorldCat", "slug": "worldcat"}, "source_identifier": "lccn-n82214816"}], "date_modified": "2023-09-05T23:16:25.868898+10:00"}, {"id": 77818, "name": "Ethel Merman", "roles_in_work": [{"id": 2476156, "title": "It's a mad mad mad mad world", "work_id": 85079, "role": "cast", "role_id": 33, "is_primary": false}], "also_known_as": "Ethel Agnes Zimmermann", "date_of_birth": "1908-01-16", "date_of_death": "1984-02-15", "genders": [{"id": 5, "name": "Female", "slug": "female"}], "languages": [{"id": 1, "name": "English", "slug": "english"}], "places_of_operation": [{"id": 1, "name": "United States of America", "slug": "united-states-of-america"}], "biography": "Ethel Merman (born Ethel Agnes Zimmermann, January 16, 1908 – February 15, 1984) was an American actress and singer. Known for her distinctive, powerful voice, and her leading roles in musical theater, she has been called \"the undisputed First Lady of the musical comedy stage.\" She performed on Broadway in Anything Goes, Annie Get Your Gun, Gypsy, and Hello, Dolly!\nShe is also known for her film roles in Anything Goes (1936), Call Me Madam (1953), There's No Business Like Show Business (1954), and It's a Mad, Mad, Mad, Mad World (1963). Among many accolades, she received the Tony Award for Best Actress in a Musical for her performance in Call Me Madam, a Grammy Award for Gypsy, and a Drama Desk Award for Hello, Dolly!\nMerman introduced many Broadway standards, including \"I Got Rhythm\" from Girl Crazy, \"Everything's Coming Up Roses\", \"Some People\" and \"Rose's Turn\" from Gypsy, and the Cole Porter songs \"It's De-Lovely\" (from Red, Hot and Blue), \"Friendship\" (from Du Barry Was a Lady), and \"I Get a Kick Out of You\", \"You're the Top\", and \"Anything Goes\" (from Anything Goes). The Irving Berlin song \"There's No Business Like Show Business\", written for Annie Get Your Gun, became Merman's signature song.", "biography_author": "Wikidata", "date_of_biography": "2023-09-05T19:37:14.991492+10:00", "external_links": [{"id": 3953, "uri": "https://en.wikipedia.org/wiki/Ethel_Merman"}], "uuid": "ab393607-d5dd-46da-880e-d79d3449fbab", "source": {"name": "Vernon", "slug": "vernon"}, "source_identifier": "38158", "external_references": [{"id": 26822, "source": {"name": "Wikidata", "slug": "wikidata"}, "source_identifier": "Q129087"}, {"id": 28358, "source": {"name": "VIAF", "slug": "viaf"}, "source_identifier": "22329860"}, {"id": 28359, "source": {"name": "LOC Auth", "slug": "loc-auth"}, "source_identifier": "n81120327"}, {"id": 28360, "source": {"name": "WorldCat", "slug": "worldcat"}, "source_identifier": "lccn-n81120327"}], "date_modified": "2023-09-05T19:37:17.810229+10:00"}, {"id": 77817, "name": "Harold Becker", "roles_in_work": [{"id": 1993089, "title": "Mercury rising", "work_id": 88612, "role": "director", "role_id": 938, "is_primary": true}, {"id": 2615215, "title": "Malice", "work_id": 85077, "role": "director", "role_id": 938, "is_primary": true}, {"id": 2615214, "title": "Malice", "work_id": 85077, "role": "co-producer", "role_id": 915, "is_primary": true}], "also_known_as": "", "date_of_birth": "1928-09-25", "date_of_death": "", "genders": [{"id": 9, "name": "Male", "slug": "male"}], "languages": [], "places_of_operation": [{"id": 1, "name": "United States of America", "slug": "united-states-of-america"}], "biography": "Harold Becker (born September 25, 1928) is an American film and television director, producer, and photographer from New York City, associated with the New Hollywood movement and best known for his work in the thriller genre. His body of work includes films like The Onion Field, Taps, The Boost, Sea of Love, Malice, City Hall and Mercury Rising.", "biography_author": "Wikidata", "date_of_biography": "2023-09-05T20:29:02.948728+10:00", "external_links": [{"id": 2191, "uri": "https://en.wikipedia.org/wiki/Harold_Becker"}], "uuid": "e6cec69f-febb-4717-b0ec-aa0e9c2f42e8", "source": {"name": "Vernon", "slug": "vernon"}, "source_identifier": "20255", "external_references": [{"id": 9427, "source": {"name": "Wikidata", "slug": "wikidata"}, "source_identifier": "Q942796"}, {"id": 9428, "source": {"name": "VIAF", "slug": "viaf"}, "source_identifier": "100229111"}, {"id": 9429, "source": {"name": "LOC Auth", "slug": "loc-auth"}, "source_identifier": "no98078641"}, {"id": 9430, "source": {"name": "WorldCat", "slug": "worldcat"}, "source_identifier": "lccn-no98078641"}], "date_modified": "2025-02-26T20:20:46.953687+11:00"}, {"id": 77816, "name": "Charles Mulvehill", "roles_in_work": [{"id": 2615213, "title": "Malice", "work_id": 85077, "role": "co-producer", "role_id": 915, "is_primary": true}, {"id": 2123497, "title": "Bram Stoker's Dracula", "work_id": 24020, "role": "co-producer", "role_id": 915, "is_primary": true}, {"id": 2123718, "title": "Bram Stoker's Dracula [DVD]", "work_id": 91252, "role": "co-producer", "role_id": 915, "is_primary": true}, {"id": 2176807, "title": "Only you", "work_id": 87809, "role": "co-producer", "role_id": 915, "is_primary": true}, {"id": 1995816, "title": "Harold and Maude", "work_id": 92336, "role": "producer", "role_id": 1089, "is_primary": true}], "also_known_as": "", "date_of_birth": "", "date_of_death": "", "genders": [], "languages": [], "places_of_operation": [], "biography": "", "biography_author": null, "date_of_biography": "2023-08-17T15:14:22.200944+10:00", "external_links": [], "uuid": "ce96c542-11c5-48da-bd40-bf1dc1ff8c93", "source": {"name": "Vernon", "slug": "vernon"}, "source_identifier": "16704", "external_references": [], "date_modified": "2025-02-26T20:20:45.532870+11:00"}, {"id": 77815, "name": "Rachel Pfeffer", "roles_in_work": [{"id": 2615212, "title": "Malice", "work_id": 85077, "role": "co-producer", "role_id": 915, "is_primary": true}], "also_known_as": "", "date_of_birth": "", "date_of_death": "", "genders": [], "languages": [], "places_of_operation": [], "biography": "", "biography_author": null, "date_of_biography": "2023-08-17T15:14:21.587526+10:00", "external_links": [], "uuid": "580cf459-0795-4eea-bdec-9834125e7be5", "source": {"name": "Vernon", "slug": "vernon"}, "source_identifier": "27052", "external_references": [{"id": 35018, "source": {"name": "Wikidata", "slug": "wikidata"}, "source_identifier": "Q121036787"}], "date_modified": "2025-02-26T20:20:44.939109+11:00"}, {"id": 77814, "name": "Philip Anderson", "roles_in_work": [{"id": 1989231, "title": "Gypsy", "work_id": 85076, "role": "editor", "role_id": 918, "is_primary": true}], "also_known_as": "", "date_of_birth": null, "date_of_death": null, "genders": [], "languages": [], "places_of_operation": [], "biography": "", "biography_author": null, "date_of_biography": null, "external_links": [], "uuid": "28808d55-659a-4abc-870b-b79896c01552", "source": {"name": "Vernon", "slug": "vernon"}, "source_identifier": null, "external_references": [], "date_modified": "2023-06-14T16:33:30.576250+10:00"}]}