{"count": 28687, "next": "https://api.acmi.net.au/creators/?page=1683", "previous": "https://api.acmi.net.au/creators/?page=1681", "results": [{"id": 29031, "name": "Botanical Gardens Conservation International", "roles_in_work": [{"id": 2125154, "title": "Brilliant gardens", "work_id": 87083, "role": "production company", "role_id": 941, "is_primary": true}], "also_known_as": "", "date_of_birth": "", "date_of_death": "", "genders": [], "languages": [], "places_of_operation": [], "biography": "", "biography_author": null, "date_of_biography": "2023-05-09T13:09:56.669476+10:00", "external_links": [], "uuid": "1dad9b27-6041-4479-bff6-4d1256b89fce", "source": {"name": "Vernon", "slug": "vernon"}, "source_identifier": "5951", "external_references": [{"id": 37236, "source": {"name": "Wikidata", "slug": "wikidata"}, "source_identifier": "Q121078738"}], "date_modified": "2023-09-05T18:08:40.881904+10:00"}, {"id": 29030, "name": "Julia Runagall", "roles_in_work": [{"id": 2136182, "title": "Chelsea flower show '98", "work_id": 87082, "role": "director", "role_id": 938, "is_primary": true}], "also_known_as": "", "date_of_birth": "", "date_of_death": "", "genders": [], "languages": [], "places_of_operation": [], "biography": "", "biography_author": null, "date_of_biography": "2023-05-09T13:29:59.401428+10:00", "external_links": [], "uuid": "aa75cb6e-0b02-4bed-a1ed-59a00eb79901", "source": {"name": "Vernon", "slug": "vernon"}, "source_identifier": "22845", "external_references": [{"id": 33786, "source": {"name": "Wikidata", "slug": "wikidata"}, "source_identifier": "Q121034910"}], "date_modified": "2023-09-05T21:54:50.442245+10:00"}, {"id": 29029, "name": "Royal Horticultural Society (Great Britain)", "roles_in_work": [{"id": 3084397, "title": "A Practical guide to herbs", "work_id": 92564, "role": "production company", "role_id": 941, "is_primary": true}, {"id": 3084383, "title": "A Practical guide to propagation", "work_id": 92560, "role": "production company", "role_id": 941, "is_primary": true}, {"id": 2136177, "title": "Chelsea flower show '98", "work_id": 87082, "role": "production company", "role_id": 941, "is_primary": true}, {"id": 871543, "title": "Gardens of the Caribbean", "work_id": 87100, "role": "production company", "role_id": 941, "is_primary": true}, {"id": 871539, "title": "Gardens of South Africa", "work_id": 87099, "role": "production company", "role_id": 941, "is_primary": true}], "also_known_as": "", "date_of_birth": "", "date_of_death": "", "genders": [], "languages": [], "places_of_operation": [], "biography": "", "biography_author": null, "date_of_biography": "2023-05-09T13:29:58.907837+10:00", "external_links": [], "uuid": "071f09af-e186-4b5e-afea-94c1a22c0b6f", "source": {"name": "Vernon", "slug": "vernon"}, "source_identifier": "12150", "external_references": [{"id": 32850, "source": {"name": "Wikidata", "slug": "wikidata"}, "source_identifier": "Q121034636"}], "date_modified": "2025-03-17T10:36:22.871286+11:00"}, {"id": 29028, "name": "Two Four Productions", "roles_in_work": [{"id": 3084411, "title": "A Practical guide to top fruit growing", "work_id": 92565, "role": "production company", "role_id": 941, "is_primary": true}, {"id": 3084419, "title": "A Practical guide to soft fruit growing", "work_id": 92566, "role": "production company", "role_id": 941, "is_primary": true}, {"id": 871538, "title": "Gardens of South Africa", "work_id": 87099, "role": "production company", "role_id": 941, "is_primary": true}, {"id": 871542, "title": "Gardens of the Caribbean", "work_id": 87100, "role": "production company", "role_id": 941, "is_primary": true}, {"id": 3084380, "title": "A Practical guide to propagation", "work_id": 92560, "role": "production company", "role_id": 941, "is_primary": true}, {"id": 3084393, "title": "A Practical guide to herbs", "work_id": 92564, "role": "production company", "role_id": 941, "is_primary": true}, {"id": 2168681, "title": "Monet's garden at Giverny", "work_id": 87486, "role": "production company", "role_id": 941, "is_primary": true}, {"id": 2136172, "title": "Chelsea flower show '98", "work_id": 87082, "role": "production company", "role_id": 941, "is_primary": true}], "also_known_as": "", "date_of_birth": "", "date_of_death": "", "genders": [], "languages": [], "places_of_operation": [], "biography": "", "biography_author": null, "date_of_biography": "2023-05-09T14:31:01.776847+10:00", "external_links": [], "uuid": "660b89fd-4508-4504-8834-529577904ce7", "source": {"name": "Vernon", "slug": "vernon"}, "source_identifier": "13789", "external_references": [{"id": 35100, "source": {"name": "Wikidata", "slug": "wikidata"}, "source_identifier": "Q121143654"}], "date_modified": "2025-03-17T10:36:27.973672+11:00"}, {"id": 29026, "name": "Alex Riva", "roles_in_work": [{"id": 2264006, "title": "Scotland: the grand tour", "work_id": 87080, "role": "director", "role_id": 938, "is_primary": true}], "also_known_as": "", "date_of_birth": "", "date_of_death": "", "genders": [], "languages": [], "places_of_operation": [], "biography": "", "biography_author": null, "date_of_biography": "2023-05-09T17:33:08.312841+10:00", "external_links": [], "uuid": "d344c7ba-1014-430d-9433-3c3cadf8458f", "source": {"name": "Vernon", "slug": "vernon"}, "source_identifier": "14903", "external_references": [{"id": 33366, "source": {"name": "Wikidata", "slug": "wikidata"}, "source_identifier": "Q121143825"}], "date_modified": "2023-09-05T17:25:21.462518+10:00"}, {"id": 29025, "name": "Lawrence Riva", "roles_in_work": [{"id": 2264002, "title": "Scotland: the grand tour", "work_id": 87080, "role": "producer", "role_id": 1089, "is_primary": true}], "also_known_as": "", "date_of_birth": "", "date_of_death": "", "genders": [], "languages": [], "places_of_operation": [], "biography": "", "biography_author": null, "date_of_biography": "2023-05-09T17:33:08.081816+10:00", "external_links": [], "uuid": "c49052ce-cdf5-4547-8111-fed189a5608d", "source": {"name": "Vernon", "slug": "vernon"}, "source_identifier": "23596", "external_references": [{"id": 36701, "source": {"name": "Wikidata", "slug": "wikidata"}, "source_identifier": "Q121299450"}], "date_modified": "2023-09-05T22:17:25.591111+10:00"}, {"id": 29024, "name": "Scotia International Television", "roles_in_work": [{"id": 2263997, "title": "Scotland: the grand tour", "work_id": 87080, "role": "production company", "role_id": 941, "is_primary": true}], "also_known_as": "", "date_of_birth": "", "date_of_death": "", "genders": [], "languages": [], "places_of_operation": [], "biography": "", "biography_author": null, "date_of_biography": "2023-05-09T17:33:07.839699+10:00", "external_links": [], "uuid": "af2d9460-9614-403e-97ab-c2c18c45007f", "source": {"name": "Vernon", "slug": "vernon"}, "source_identifier": "12355", "external_references": [{"id": 42170, "source": {"name": "Wikidata", "slug": "wikidata"}, "source_identifier": "Q121144214"}], "date_modified": "2023-09-06T01:08:10.297416+10:00"}, {"id": 29023, "name": "Clyde E. Elliott", "roles_in_work": [{"id": 2411448, "title": "In other lands: Bohemia", "work_id": 91813, "role": "director", "role_id": 938, "is_primary": true}, {"id": 2404056, "title": "Children of other lands: Scandinavia", "work_id": 87078, "role": "director", "role_id": 938, "is_primary": true}], "also_known_as": "", "date_of_birth": "", "date_of_death": "", "genders": [], "languages": [], "places_of_operation": [], "biography": "", "biography_author": null, "date_of_biography": "2023-08-11T18:20:41.186421+10:00", "external_links": [], "uuid": "02dd9e2e-1f6d-4c25-ba15-4917481cbf2a", "source": {"name": "Vernon", "slug": "vernon"}, "source_identifier": "17151", "external_references": [], "date_modified": "2023-08-11T18:20:41.186649+10:00"}, {"id": 29022, "name": "Post Pictures Corporation", "roles_in_work": [{"id": 2411447, "title": "In other lands: Bohemia", "work_id": 91813, "role": "production company", "role_id": 941, "is_primary": true}, {"id": 879659, "title": "A Terribly strange bed", "work_id": 91970, "role": "production company", "role_id": 941, "is_primary": true}, {"id": 2404055, "title": "Children of other lands: Scandinavia", "work_id": 87078, "role": "production company", "role_id": 941, "is_primary": true}], "also_known_as": "", "date_of_birth": "", "date_of_death": "", "genders": [], "languages": [], "places_of_operation": [], "biography": "", "biography_author": null, "date_of_biography": "2023-08-11T18:20:40.553045+10:00", "external_links": [], "uuid": "93af339c-4095-4ab3-b054-e2e46a9843eb", "source": {"name": "Vernon", "slug": "vernon"}, "source_identifier": "11594", "external_references": [], "date_modified": "2023-08-11T18:20:40.555529+10:00"}, {"id": 29021, "name": "Bruce Permezel", "roles_in_work": [{"id": 3082033, "title": "The Problem with men", "work_id": 115552, "role": "director", "role_id": 938, "is_primary": true}, {"id": 3082012, "title": "The Life cycle of the ostrich", "work_id": 91597, "role": "director", "role_id": 938, "is_primary": true}, {"id": 3082017, "title": "The John Thomas show", "work_id": 91598, "role": "director", "role_id": 938, "is_primary": true}, {"id": 3082023, "title": "The Thing from the black lagoon", "work_id": 91596, "role": "director", "role_id": 938, "is_primary": true}, {"id": 3082027, "title": "The Boys' own choice", "work_id": 91599, "role": "director", "role_id": 938, "is_primary": true}, {"id": 2349798, "title": "The Games: sharing the blame", "work_id": 90272, "role": "director", "role_id": 938, "is_primary": true}, {"id": 2349814, "title": "The Games: the millennium bug", "work_id": 89795, "role": "director", "role_id": 938, "is_primary": true}, {"id": 2349779, "title": "The Games", "work_id": 87077, "role": "director", "role_id": 938, "is_primary": true}], "also_known_as": "", "date_of_birth": "", "date_of_death": "", "genders": [], "languages": [], "places_of_operation": [], "biography": "", "biography_author": null, "date_of_biography": "2023-05-09T19:54:13.062302+10:00", "external_links": [], "uuid": "3fe6acfd-50a9-4203-a336-ec349a1d0bee", "source": {"name": "Vernon", "slug": "vernon"}, "source_identifier": "16328", "external_references": [{"id": 42368, "source": {"name": "Wikidata", "slug": "wikidata"}, "source_identifier": "Q121144302"}], "date_modified": "2025-03-17T10:27:10.872750+11:00"}]}