{"count": 28683, "next": "https://api.acmi.net.au/creators/?page=1301", "previous": "https://api.acmi.net.au/creators/?page=1299", "results": [{"id": 38867, "name": "AVCOM Productions", "roles_in_work": [{"id": 2752650, "title": "Getting into jeans", "work_id": 98395, "role": "production company", "role_id": 941, "is_primary": true}], "also_known_as": "", "date_of_birth": "", "date_of_death": "", "genders": [], "languages": [], "places_of_operation": [], "biography": "", "biography_author": null, "date_of_biography": "2023-08-11T17:01:24.671784+10:00", "external_links": [], "uuid": "9a3da729-ef5d-4801-8e4d-d2ce2fc44213", "source": {"name": "Vernon", "slug": "vernon"}, "source_identifier": "5637", "external_references": [], "date_modified": "2025-03-13T01:10:04.443392+11:00"}, {"id": 38866, "name": "Geoff Easton", "roles_in_work": [{"id": 2752649, "title": "Tucker", "work_id": 98394, "role": "director", "role_id": 938, "is_primary": true}, {"id": 2469434, "title": "Tucker", "work_id": 75550, "role": "producer", "role_id": 1089, "is_primary": true}], "also_known_as": "", "date_of_birth": "", "date_of_death": "", "genders": [], "languages": [], "places_of_operation": [], "biography": "", "biography_author": null, "date_of_biography": "2023-08-14T12:01:05.258455+10:00", "external_links": [], "uuid": "2a8b0900-a7f5-487c-84de-400fc47d5bb4", "source": {"name": "Vernon", "slug": "vernon"}, "source_identifier": "19499", "external_references": [], "date_modified": "2025-03-13T01:10:03.613665+11:00"}, {"id": 38865, "name": "Vision Factory", "roles_in_work": [{"id": 2752648, "title": "Tucker", "work_id": 98394, "role": "production company", "role_id": 941, "is_primary": true}, {"id": 2469433, "title": "Tucker", "work_id": 75550, "role": "production company", "role_id": 941, "is_primary": true}], "also_known_as": "", "date_of_birth": "", "date_of_death": "", "genders": [], "languages": [], "places_of_operation": [], "biography": "", "biography_author": null, "date_of_biography": "2023-08-14T12:01:04.628444+10:00", "external_links": [], "uuid": "40ef6a4e-1589-4545-ad5d-8fc8b5af9d1a", "source": {"name": "Vernon", "slug": "vernon"}, "source_identifier": "14163", "external_references": [], "date_modified": "2025-03-13T01:10:03.026565+11:00"}, {"id": 38864, "name": "J Mann", "roles_in_work": [{"id": 2752633, "title": "Strategies for teaching social studies", "work_id": 98388, "role": "director", "role_id": 938, "is_primary": true}], "also_known_as": "", "date_of_birth": null, "date_of_death": null, "genders": [], "languages": [], "places_of_operation": [], "biography": "", "biography_author": null, "date_of_biography": null, "external_links": [], "uuid": "159a90d5-46b3-48f6-bea4-9ace1b0ef0c9", "source": {"name": "Vernon", "slug": "vernon"}, "source_identifier": "20984", "external_references": [], "date_modified": "2025-03-13T01:08:16.855883+11:00"}, {"id": 38863, "name": "Trevor Lunn", "roles_in_work": [{"id": 2754084, "title": "The Teaching Ambassadors: International Teaching Fellowships", "work_id": 99051, "role": "cast", "role_id": 33, "is_primary": false}, {"id": 2754019, "title": "Preparing your child for school", "work_id": 99024, "role": "co-producer", "role_id": 915, "is_primary": true}, {"id": 2753852, "title": "Show me English: the appointment [episode 1]", "work_id": 98956, "role": "co-producer", "role_id": 915, "is_primary": true}, {"id": 2753856, "title": "Show me English: the repairman [episode 2]", "work_id": 98957, "role": "co-producer", "role_id": 915, "is_primary": true}, {"id": 2753860, "title": "Show me English: exchanging goods [episode 3]", "work_id": 98958, "role": "co-producer", "role_id": 915, "is_primary": true}, {"id": 2753864, "title": "Show me English: a visit to hospital [episode 4]", "work_id": 98959, "role": "co-producer", "role_id": 915, "is_primary": true}, {"id": 2753868, "title": "Show me English: a visit to the doctor [episode 5]", "work_id": 98960, "role": "co-producer", "role_id": 915, "is_primary": true}, {"id": 2753872, "title": "Show me English: the local council [episode 6]", "work_id": 98961, "role": "co-producer", "role_id": 915, "is_primary": true}, {"id": 2753876, "title": "Show me English: the job interview [episode 7]", "work_id": 98962, "role": "co-producer", "role_id": 915, "is_primary": true}, {"id": 2753880, "title": "Show me English: enrolling in class [episode 8]", "work_id": 98963, "role": "co-producer", "role_id": 915, "is_primary": true}, {"id": 2754235, "title": "Preparing your child for school. Parts 1 & 2", "work_id": 99114, "role": "co-producer", "role_id": 915, "is_primary": true}, {"id": 2754265, "title": "Health down under", "work_id": 99127, "role": "co-producer", "role_id": 915, "is_primary": true}, {"id": 2752613, "title": "No. 1 On the Charts : A Look at the Australian Pop Music Industry", "work_id": 98378, "role": "co-producer", "role_id": 915, "is_primary": true}, {"id": 2753796, "title": "What's for lunch?", "work_id": 98933, "role": "co-producer", "role_id": 915, "is_primary": true}, {"id": 2753818, "title": "Issues in education: the Victorian Certificate of Education", "work_id": 98941, "role": "co-producer", "role_id": 915, "is_primary": true}, {"id": 2754319, "title": "Issues in education: the Chief Executive - schooling P-12", "work_id": 99149, "role": "producer", "role_id": 1089, "is_primary": true}, {"id": 2753903, "title": "Matter of life and death", "work_id": 98973, "role": "producer", "role_id": 1089, "is_primary": true}, {"id": 2754094, "title": "Past times", "work_id": 99056, "role": "producer", "role_id": 1089, "is_primary": true}, {"id": 2754128, "title": "Bendigo pottery", "work_id": 99066, "role": "producer", "role_id": 1089, "is_primary": true}, {"id": 2753474, "title": "Principal choice", "work_id": 98780, "role": "producer", "role_id": 1089, "is_primary": true}], "also_known_as": "", "date_of_birth": "", "date_of_death": "", "genders": [], "languages": [], "places_of_operation": [], "biography": "", "biography_author": null, "date_of_biography": "2023-05-09T16:38:01.046241+10:00", "external_links": [], "uuid": "2a6584a1-36cb-45d1-b99b-bcfef055fdcc", "source": {"name": "Vernon", "slug": "vernon"}, "source_identifier": "29979", "external_references": [{"id": 36281, "source": {"name": "Wikidata", "slug": "wikidata"}, "source_identifier": "Q121144195"}], "date_modified": "2025-03-13T01:42:05.964724+11:00"}, {"id": 38862, "name": "Victorian Tourism Commission", "roles_in_work": [{"id": 2752609, "title": "Holidays pay", "work_id": 98377, "role": "production company", "role_id": 941, "is_primary": true}], "also_known_as": "", "date_of_birth": null, "date_of_death": null, "genders": [], "languages": [], "places_of_operation": [], "biography": "", "biography_author": null, "date_of_biography": null, "external_links": [], "uuid": "ea2ee83b-d921-4ad8-9936-d878bc4c59c1", "source": {"name": "Vernon", "slug": "vernon"}, "source_identifier": "3948", "external_references": [], "date_modified": "2025-03-13T01:08:01.041729+11:00"}, {"id": 38861, "name": "Jim Berkey", "roles_in_work": [{"id": 2752603, "title": "From the bottom to the top", "work_id": 98372, "role": "director", "role_id": 938, "is_primary": true}], "also_known_as": "", "date_of_birth": "", "date_of_death": "", "genders": [], "languages": [], "places_of_operation": [], "biography": "", "biography_author": null, "date_of_biography": "2023-08-11T16:52:41.944268+10:00", "external_links": [], "uuid": "5af0928c-61b4-4288-826e-427829cb37ff", "source": {"name": "Vernon", "slug": "vernon"}, "source_identifier": "21859", "external_references": [], "date_modified": "2025-03-13T01:07:56.426723+11:00"}, {"id": 38859, "name": "Alan Smith", "roles_in_work": [{"id": 2752598, "title": "Middle distance running; hurdling; the sprint", "work_id": 98371, "role": "producer", "role_id": 1089, "is_primary": true}], "also_known_as": "", "date_of_birth": null, "date_of_death": null, "genders": [], "languages": [], "places_of_operation": [], "biography": "", "biography_author": null, "date_of_biography": null, "external_links": [], "uuid": "bd0794aa-0568-43ab-bfbb-23a753c95e76", "source": {"name": "Vernon", "slug": "vernon"}, "source_identifier": "14806", "external_references": [], "date_modified": "2025-03-13T01:07:53.245315+11:00"}, {"id": 38857, "name": "Brian Clarkson", "roles_in_work": [{"id": 2752666, "title": "Badminton", "work_id": 98404, "role": "director", "role_id": 938, "is_primary": true}, {"id": 2752599, "title": "Middle distance running; hurdling; the sprint", "work_id": 98371, "role": "director", "role_id": 938, "is_primary": true}, {"id": 2752890, "title": "Up front out back travelling video magazine", "work_id": 98503, "role": "producer/director", "role_id": 31, "is_primary": true}, {"id": 2752594, "title": "Javelin. Shotput. Discus", "work_id": 98369, "role": "producer/director", "role_id": 31, "is_primary": true}], "also_known_as": "", "date_of_birth": "", "date_of_death": "", "genders": [], "languages": [], "places_of_operation": [], "biography": "", "biography_author": null, "date_of_biography": "2023-08-11T14:33:01.644462+10:00", "external_links": [], "uuid": "3ec3bb2b-bee6-481c-abfe-abb89176fbb1", "source": {"name": "Vernon", "slug": "vernon"}, "source_identifier": "16203", "external_references": [], "date_modified": "2025-03-13T01:15:01.346718+11:00"}, {"id": 38856, "name": "Department of Education Queensland", "roles_in_work": [{"id": 2752593, "title": "Javelin. Shotput. Discus", "work_id": 98369, "role": "production company", "role_id": 941, "is_primary": true}, {"id": 2752600, "title": "From the bottom to the top", "work_id": 98372, "role": "production company", "role_id": 941, "is_primary": true}, {"id": 2752604, "title": "Olympic wrestling: an introduction", "work_id": 98373, "role": "production company", "role_id": 941, "is_primary": true}], "also_known_as": "", "date_of_birth": "", "date_of_death": "", "genders": [], "languages": [], "places_of_operation": [], "biography": "", "biography_author": null, "date_of_biography": "2023-08-11T16:52:40.040857+10:00", "external_links": [], "uuid": "a95cd0fb-36a9-4a29-94dd-f2e3bccc746b", "source": {"name": "Vernon", "slug": "vernon"}, "source_identifier": "7434", "external_references": [], "date_modified": "2025-03-13T01:07:57.257244+11:00"}]}