{"count": 28687, "next": "https://api.acmi.net.au/creators/?page=1385", "previous": "https://api.acmi.net.au/creators/?page=1383", "results": [{"id": 37444, "name": "Stuart Shapiro", "roles_in_work": [{"id": 2000900, "title": "Mondo New York", "work_id": 95250, "role": "producer", "role_id": 1089, "is_primary": true}], "also_known_as": "", "date_of_birth": "1948-01-01", "date_of_death": null, "genders": [{"id": 9, "name": "Male", "slug": "male"}], "languages": [{"id": 1, "name": "English", "slug": "english"}], "places_of_operation": [], "biography": "Stuart S. Shapiro is a producer, writer, director, and Internet entrepreneur. Shapiro began his career as an independent film distributor in 1974 by starting International Harmony which distributed cult classics TunnelVision, Neil Young's Rust Never Sleeps, Bob Marley's Reggae Sunsplash, The Sex Pistols' DOA, and Tarzoon: Shame of the Jungle.\nAs a producer, Shapiro's credits include Mondo New York and Comedy's Dirtiest Dozen, which helped launch the careers of Tim Allen, Chris Rock, and Otto & George. The New Yorker noted the importance of Chris Rock's appearance in Comedy's Dirtiest Dozen, saying it \"helped earn him a place in the cast of 'Saturday Night Live', two years later, and that attitude helped make him the defining comic of the hip-hop generation.\" Other credits include Only The Strong, from which he produced the famous Mazda song \"Zoom Zoom\", and USA networks TV series Night Flight, a youth–targeted variety show he created which ran from 1981 to 1996. Recently, VH1 named Night Flight one of the 10 greatest Hard Rock and Heavy Metal TV shows of all time, saying it was \"the single greatest rock omnibus program ever aired.\" Shapiro also produced the 72-hour live webcast of Woodstock '99, notable for being one of the largest of its kind at the time.In 2002 and 2003 respectively, Shapiro edited Flash Frames, a book highlighting Flash art from the Internet, with his wife, Laurie Dolphin. He also produced the CD accompaniment to the book This is Today, a history of NBC's Today Show. In December 2018, Shapiro published his book, IDENTIFI YOURSELF, A Journey F*ck You Creative Courage, Waterside Press Publisher, ISBN 978-1-947637-88-7</ref>", "biography_author": "Wikidata", "date_of_biography": "2022-05-19T13:10:46.775054+10:00", "external_links": [{"id": 3164, "uri": "https://en.wikipedia.org/wiki/Stuart_S._Shapiro"}], "uuid": "47b4e330-1589-4467-be63-c973aef43370", "source": {"name": "Vernon", "slug": "vernon"}, "source_identifier": "29270", "external_references": [{"id": 13413, "source": {"name": "Wikidata", "slug": "wikidata"}, "source_identifier": "Q17143823"}, {"id": 13414, "source": {"name": "VIAF", "slug": "viaf"}, "source_identifier": "51028050"}, {"id": 13415, "source": {"name": "LOC Auth", "slug": "loc-auth"}, "source_identifier": "n2001010576"}, {"id": 13416, "source": {"name": "WorldCat", "slug": "worldcat"}, "source_identifier": "lccn-n2001010576"}], "date_modified": "2023-09-13T12:32:54.185430+10:00"}, {"id": 37441, "name": "Dangvu Media", "roles_in_work": [{"id": 2408821, "title": "Green", "work_id": 95249, "role": "production company", "role_id": 941, "is_primary": true}], "also_known_as": "", "date_of_birth": "", "date_of_death": "", "genders": [], "languages": [], "places_of_operation": [], "biography": "", "biography_author": null, "date_of_biography": "2023-08-11T17:09:07.526866+10:00", "external_links": [], "uuid": "8f0d6468-bf86-446e-911a-17aaf10ac5d2", "source": {"name": "Vernon", "slug": "vernon"}, "source_identifier": "7310", "external_references": [], "date_modified": "2023-08-11T17:09:07.527191+10:00"}, {"id": 37440, "name": "Edward Bernds", "roles_in_work": [{"id": 2246989, "title": "Reform school girl", "work_id": 95245, "role": "director", "role_id": 938, "is_primary": true}], "also_known_as": "", "date_of_birth": "1905-07-12", "date_of_death": "2000-05-20", "genders": [{"id": 9, "name": "Male", "slug": "male"}], "languages": [], "places_of_operation": [{"id": 1, "name": "United States of America", "slug": "united-states-of-america"}], "biography": "Edward Bernds (July 12, 1905 – May 20, 2000) was an American screenwriter and director, born in Chicago, Illinois.", "biography_author": "Wikidata", "date_of_biography": "2022-05-19T11:21:21.249433+10:00", "external_links": [{"id": 1972, "uri": "https://en.wikipedia.org/wiki/Edward_Bernds"}], "uuid": "673787a3-167d-42fd-845f-fe71168ea20b", "source": {"name": "Vernon", "slug": "vernon"}, "source_identifier": "18579", "external_references": [{"id": 8532, "source": {"name": "Wikidata", "slug": "wikidata"}, "source_identifier": "Q1291693"}, {"id": 8533, "source": {"name": "VIAF", "slug": "viaf"}, "source_identifier": "10054511"}, {"id": 8534, "source": {"name": "LOC Auth", "slug": "loc-auth"}, "source_identifier": "n93025403"}, {"id": 8535, "source": {"name": "WorldCat", "slug": "worldcat"}, "source_identifier": "lccn-n93025403"}], "date_modified": "2023-09-13T12:29:13.020884+10:00"}, {"id": 37436, "name": "Santa Rosa Productions", "roles_in_work": [{"id": 2468164, "title": "The Spider = Earth vs the spider", "work_id": 95242, "role": "production company", "role_id": 941, "is_primary": true}], "also_known_as": "", "date_of_birth": "", "date_of_death": "", "genders": [], "languages": [], "places_of_operation": [], "biography": "", "biography_author": null, "date_of_biography": "2023-08-14T11:35:25.772883+10:00", "external_links": [], "uuid": "5916eb7e-ba67-495c-a85a-7ac0c2f4cb38", "source": {"name": "Vernon", "slug": "vernon"}, "source_identifier": "12286", "external_references": [], "date_modified": "2023-08-14T11:35:25.773166+10:00"}, {"id": 37435, "name": "Edward Cahn", "roles_in_work": [{"id": 2000882, "title": "Voodoo woman", "work_id": 95241, "role": "director", "role_id": 938, "is_primary": true}, {"id": 2000896, "title": "The She-creature = The She creature", "work_id": 95247, "role": "director", "role_id": 938, "is_primary": true}, {"id": 2684633, "title": "Emergency Call cinema slide", "work_id": 119834, "role": "director", "role_id": 938, "is_primary": true}], "also_known_as": "", "date_of_birth": "1899-02-12", "date_of_death": "1963-08-25", "genders": [{"id": 9, "name": "Male", "slug": "male"}], "languages": [], "places_of_operation": [{"id": 1, "name": "United States of America", "slug": "united-states-of-america"}], "biography": "Edward L. Cahn (February 12, 1899 – August 25, 1963) was an American film director.", "biography_author": "Wikidata", "date_of_biography": "2022-05-19T11:21:41.113968+10:00", "external_links": [{"id": 1976, "uri": "https://en.wikipedia.org/wiki/Edward_L._Cahn"}], "uuid": "251482a7-922b-4e9e-8ff8-f815d6e4b6ee", "source": {"name": "Vernon", "slug": "vernon"}, "source_identifier": "18608", "external_references": [{"id": 8548, "source": {"name": "Wikidata", "slug": "wikidata"}, "source_identifier": "Q529568"}, {"id": 8549, "source": {"name": "VIAF", "slug": "viaf"}, "source_identifier": "311625147"}, {"id": 8550, "source": {"name": "LOC Auth", "slug": "loc-auth"}, "source_identifier": "n92094204"}, {"id": 8551, "source": {"name": "WorldCat", "slug": "worldcat"}, "source_identifier": "lccn-n92094204"}], "date_modified": "2025-03-11T11:40:20.717340+11:00"}, {"id": 37434, "name": "Alex Gordon", "roles_in_work": [{"id": 2000895, "title": "The She-creature = The She creature", "work_id": 95247, "role": "producer", "role_id": 1089, "is_primary": true}, {"id": 2000881, "title": "Voodoo woman", "work_id": 95241, "role": "producer", "role_id": 1089, "is_primary": true}], "also_known_as": "", "date_of_birth": "1922-09-08", "date_of_death": "2003-06-24", "genders": [{"id": 9, "name": "Male", "slug": "male"}], "languages": [], "places_of_operation": [{"id": 1, "name": "United States of America", "slug": "united-states-of-america"}], "biography": "Alex Gordon (8 September 1922 – 24 June 2003) was a British film producer and screenwriter.\nHe produced eighteen films, including the American International Pictures films Day the World Ended (1955) and The She Creature (1956).  He wrote screenplays for three films, two of them with B-movie director Ed Wood,  Jail Bait (1954) and Bride of the Monster (1956).\nGordon's brother Richard Gordon was also a film producer.\n\n", "biography_author": "Wikidata", "date_of_biography": "2022-05-19T10:44:20.567473+10:00", "external_links": [{"id": 1592, "uri": "https://en.wikipedia.org/wiki/Alex_Gordon_(writer-producer)"}], "uuid": "91a3e7c3-24fb-4afa-a449-a97aaaffc534", "source": {"name": "Vernon", "slug": "vernon"}, "source_identifier": "14887", "external_references": [{"id": 6964, "source": {"name": "Wikidata", "slug": "wikidata"}, "source_identifier": "Q4569676"}, {"id": 6965, "source": {"name": "VIAF", "slug": "viaf"}, "source_identifier": "90683323"}, {"id": 6966, "source": {"name": "LOC Auth", "slug": "loc-auth"}, "source_identifier": "no2009105932"}, {"id": 6967, "source": {"name": "WorldCat", "slug": "worldcat"}, "source_identifier": "lccn-no2009105932"}], "date_modified": "2023-09-13T12:28:04.858509+10:00"}, {"id": 37432, "name": "Stan Harris", "roles_in_work": [{"id": 2120518, "title": "Blondie live!", "work_id": 95240, "role": "director", "role_id": 938, "is_primary": true}, {"id": 2120516, "title": "Blondie live!", "work_id": 95240, "role": "co-producer", "role_id": 915, "is_primary": true}], "also_known_as": "", "date_of_birth": "", "date_of_death": "", "genders": [], "languages": [], "places_of_operation": [], "biography": "", "biography_author": null, "date_of_biography": "2023-05-09T13:02:37.488911+10:00", "external_links": [], "uuid": "35cded69-bc9b-437f-bd04-13a32f723528", "source": {"name": "Vernon", "slug": "vernon"}, "source_identifier": "28928", "external_references": [{"id": 36829, "source": {"name": "Wikidata", "slug": "wikidata"}, "source_identifier": "Q121079175"}], "date_modified": "2023-09-06T01:25:47.649411+10:00"}, {"id": 37431, "name": "KMW Productions", "roles_in_work": [{"id": 2120515, "title": "Blondie live!", "work_id": 95240, "role": "production company", "role_id": 941, "is_primary": true}], "also_known_as": "", "date_of_birth": "", "date_of_death": "", "genders": [], "languages": [], "places_of_operation": [], "biography": "", "biography_author": null, "date_of_biography": "2023-05-09T13:02:36.700497+10:00", "external_links": [], "uuid": "eeaba819-9e14-4193-83c1-76d2ab83b959", "source": {"name": "Vernon", "slug": "vernon"}, "source_identifier": "9802", "external_references": [{"id": 34717, "source": {"name": "Wikidata", "slug": "wikidata"}, "source_identifier": "Q121271412"}], "date_modified": "2023-09-05T22:11:16.702278+10:00"}, {"id": 37428, "name": "Gravity", "roles_in_work": [{"id": 930770, "title": "The Lost James Brown tapes", "work_id": 95238, "role": "production company", "role_id": 941, "is_primary": true}, {"id": 2165308, "title": "Mojo working: Jimi Hendrix 1942-1970", "work_id": 95275, "role": "production company", "role_id": 941, "is_primary": true}], "also_known_as": "", "date_of_birth": "", "date_of_death": "", "genders": [], "languages": [], "places_of_operation": [], "biography": "", "biography_author": null, "date_of_biography": "2023-05-09T14:24:16.156811+10:00", "external_links": [], "uuid": "0db2705a-c4b8-412b-8322-6420f602c18d", "source": {"name": "Vernon", "slug": "vernon"}, "source_identifier": "8859", "external_references": [{"id": 40996, "source": {"name": "Wikidata", "slug": "wikidata"}, "source_identifier": "Q121337289"}], "date_modified": "2023-09-05T20:20:15.553543+10:00"}, {"id": 37425, "name": "Chelsea Communications", "roles_in_work": [{"id": 2407742, "title": "Forever James Dean", "work_id": 95236, "role": "production company", "role_id": 941, "is_primary": true}], "also_known_as": "", "date_of_birth": "", "date_of_death": "", "genders": [], "languages": [], "places_of_operation": [], "biography": "", "biography_author": null, "date_of_biography": "2023-08-11T16:44:25.172451+10:00", "external_links": [], "uuid": "6f1fd23b-2c12-41d6-91be-886a1fc80f3d", "source": {"name": "Vernon", "slug": "vernon"}, "source_identifier": "6538", "external_references": [], "date_modified": "2023-08-11T16:44:25.172667+10:00"}]}