{"count": 28687, "next": "https://api.acmi.net.au/creators/?page=2781", "previous": "https://api.acmi.net.au/creators/?page=2779", "results": [{"id": 9346, "name": "James Mackenzie", "roles_in_work": [{"id": 2711681, "title": "The Kingdom of Humour", "work_id": 114194, "role": "creator", "role_id": 968, "is_primary": true}], "also_known_as": "", "date_of_birth": "", "date_of_death": "", "genders": [], "languages": [], "places_of_operation": [], "biography": "", "biography_author": null, "date_of_biography": "2023-05-09T20:08:15.091998+10:00", "external_links": [], "uuid": "7148675f-bb3d-42dc-9e9c-b3c0bbee4896", "source": {"name": "Vernon", "slug": "vernon"}, "source_identifier": "1672", "external_references": [], "date_modified": "2025-03-12T00:00:28.937224+11:00"}, {"id": 9345, "name": "Won Lee", "roles_in_work": [{"id": 2711679, "title": "Mango bear", "work_id": 109338, "role": "creator", "role_id": 968, "is_primary": true}], "also_known_as": "", "date_of_birth": "", "date_of_death": "", "genders": [], "languages": [], "places_of_operation": [], "biography": "", "biography_author": null, "date_of_biography": "2023-05-09T20:08:04.644666+10:00", "external_links": [], "uuid": "7f1ae9fb-2817-4a54-b579-323bcbb1b6b1", "source": {"name": "Vernon", "slug": "vernon"}, "source_identifier": "1540", "external_references": [], "date_modified": "2025-03-12T00:00:25.555538+11:00"}, {"id": 9344, "name": "Ardessa-Nica Jesseau", "roles_in_work": [{"id": 2711678, "title": "Fun machine", "work_id": 109337, "role": "creator", "role_id": 968, "is_primary": true}], "also_known_as": "", "date_of_birth": "", "date_of_death": "", "genders": [], "languages": [], "places_of_operation": [], "biography": "", "biography_author": null, "date_of_biography": "2023-05-09T20:08:11.183529+10:00", "external_links": [], "uuid": "a0af9255-4ae6-4429-b35b-7ac9bafa477e", "source": {"name": "Vernon", "slug": "vernon"}, "source_identifier": "1903", "external_references": [], "date_modified": "2025-03-12T00:00:24.644656+11:00"}, {"id": 9343, "name": "James Hutson", "roles_in_work": [{"id": 2711676, "title": "Caffe Amore", "work_id": 114193, "role": "creator", "role_id": 968, "is_primary": true}], "also_known_as": "", "date_of_birth": "", "date_of_death": "", "genders": [], "languages": [], "places_of_operation": [], "biography": "", "biography_author": null, "date_of_biography": "2023-05-09T20:08:16.535418+10:00", "external_links": [], "uuid": "717575bc-77b5-4b2c-a7d1-cc818a83b32c", "source": {"name": "Vernon", "slug": "vernon"}, "source_identifier": "1271", "external_references": [], "date_modified": "2025-03-12T00:00:21.180865+11:00"}, {"id": 9342, "name": "Andrea Hiller", "roles_in_work": [{"id": 2711674, "title": "Frank", "work_id": 109335, "role": "creator", "role_id": 968, "is_primary": true}], "also_known_as": "", "date_of_birth": "", "date_of_death": "", "genders": [], "languages": [], "places_of_operation": [], "biography": "", "biography_author": null, "date_of_biography": "2023-05-09T20:08:17.687749+10:00", "external_links": [], "uuid": "bc6c5ba3-a51a-4495-a884-0b4129c6b54b", "source": {"name": "Vernon", "slug": "vernon"}, "source_identifier": "1649", "external_references": [], "date_modified": "2025-03-12T00:00:19.632346+11:00"}, {"id": 9341, "name": "Michael Herman", "roles_in_work": [{"id": 2711673, "title": "Skeleton's quest", "work_id": 109334, "role": "creator", "role_id": 968, "is_primary": true}], "also_known_as": "", "date_of_birth": "", "date_of_death": "", "genders": [], "languages": [], "places_of_operation": [], "biography": "", "biography_author": null, "date_of_biography": "2023-05-09T20:08:14.518764+10:00", "external_links": [], "uuid": "6d650d5d-2a2b-42cb-8c7a-747b8ec306da", "source": {"name": "Vernon", "slug": "vernon"}, "source_identifier": "1884", "external_references": [], "date_modified": "2025-03-12T00:00:18.784739+11:00"}, {"id": 9340, "name": "Stewart Haines", "roles_in_work": [{"id": 2711672, "title": "Pecking order", "work_id": 109333, "role": "creator", "role_id": 968, "is_primary": true}], "also_known_as": "", "date_of_birth": "", "date_of_death": "", "genders": [], "languages": [], "places_of_operation": [], "biography": "", "biography_author": null, "date_of_biography": "2023-05-09T20:08:01.224024+10:00", "external_links": [], "uuid": "e0136406-ebc9-4708-856d-a41a709f6ef6", "source": {"name": "Vernon", "slug": "vernon"}, "source_identifier": "1538", "external_references": [], "date_modified": "2025-03-12T00:00:17.980736+11:00"}, {"id": 9339, "name": "Belinda Hadiwidjaja", "roles_in_work": [{"id": 2636112, "title": "The Killer pit", "work_id": 109332, "role": "creator", "role_id": 968, "is_primary": true}], "also_known_as": "", "date_of_birth": "", "date_of_death": "", "genders": [], "languages": [], "places_of_operation": [], "biography": "", "biography_author": null, "date_of_biography": "2023-05-09T20:08:00.710255+10:00", "external_links": [], "uuid": "2b800cb4-5bf3-4c89-8be6-754f4a76641a", "source": {"name": "Vernon", "slug": "vernon"}, "source_identifier": "1276", "external_references": [], "date_modified": "2025-03-05T10:32:49.080030+11:00"}, {"id": 9338, "name": "Kyunghee Gwon", "roles_in_work": [{"id": 2711670, "title": "The Very last thing from Pandora's Box", "work_id": 114192, "role": "creator", "role_id": 968, "is_primary": true}], "also_known_as": "", "date_of_birth": "", "date_of_death": "", "genders": [], "languages": [], "places_of_operation": [], "biography": "", "biography_author": null, "date_of_biography": "2023-05-09T20:08:11.738924+10:00", "external_links": [], "uuid": "c60c7e72-5437-446f-9ce9-fcb973737b39", "source": {"name": "Vernon", "slug": "vernon"}, "source_identifier": "1774", "external_references": [], "date_modified": "2025-03-12T00:00:14.254816+11:00"}, {"id": 9337, "name": "Amritraj Gupta", "roles_in_work": [{"id": 2711669, "title": "Gifted", "work_id": 109330, "role": "creator", "role_id": 968, "is_primary": true}], "also_known_as": "", "date_of_birth": "", "date_of_death": "", "genders": [], "languages": [], "places_of_operation": [], "biography": "", "biography_author": null, "date_of_biography": "2023-05-09T20:08:19.047400+10:00", "external_links": [], "uuid": "542d03ae-8862-45ce-9354-f3eb5104f45d", "source": {"name": "Vernon", "slug": "vernon"}, "source_identifier": "1773", "external_references": [], "date_modified": "2025-03-12T00:00:13.407642+11:00"}]}