{"count": 28687, "next": "https://api.acmi.net.au/creators/?page=2325", "previous": "https://api.acmi.net.au/creators/?page=2323", "results": [{"id": 16312, "name": "Moholy-Nagy Zeist", "roles_in_work": [{"id": 2415092, "title": "Light play: black-white-gray = Ein lightspiel: scwarz-weiss-grau", "work_id": 69728, "role": "production company", "role_id": 941, "is_primary": true}], "also_known_as": "", "date_of_birth": "", "date_of_death": "", "genders": [], "languages": [], "places_of_operation": [], "biography": "", "biography_author": null, "date_of_biography": "2023-08-11T19:30:26.859246+10:00", "external_links": [], "uuid": "2948ca13-4ecc-4252-8d94-9b0cb2ffe762", "source": {"name": "Vernon", "slug": "vernon"}, "source_identifier": "25486", "external_references": [], "date_modified": "2023-08-11T19:30:26.859590+10:00"}, {"id": 16311, "name": "Seventh Day Adventist Public Relations Dept", "roles_in_work": [{"id": 2415088, "title": "Light in the jungle", "work_id": 69727, "role": "production company", "role_id": 941, "is_primary": true}], "also_known_as": "", "date_of_birth": "", "date_of_death": "", "genders": [], "languages": [], "places_of_operation": [], "biography": "", "biography_author": null, "date_of_biography": "2023-08-11T19:30:19.278556+10:00", "external_links": [], "uuid": "00cb07c1-9196-4526-8908-673e5d49f7f1", "source": {"name": "Vernon", "slug": "vernon"}, "source_identifier": "12477", "external_references": [], "date_modified": "2023-08-11T19:30:19.278863+10:00"}, {"id": 16310, "name": "Ramsay Short", "roles_in_work": [{"id": 2645448, "title": "A Light in nature", "work_id": 69725, "role": "director", "role_id": 938, "is_primary": true}, {"id": 857938, "title": "Russia beneath the sputniks", "work_id": 72408, "role": "producer/director", "role_id": 31, "is_primary": true}], "also_known_as": "", "date_of_birth": null, "date_of_death": null, "genders": [], "languages": [], "places_of_operation": [], "biography": "", "biography_author": null, "date_of_biography": null, "external_links": [], "uuid": "1af92287-127e-4962-8d3c-3d2d95aec2c1", "source": {"name": "Vernon", "slug": "vernon"}, "source_identifier": "11849", "external_references": [], "date_modified": "2025-03-05T12:40:45.989362+11:00"}, {"id": 16307, "name": "Kinocraft", "roles_in_work": [{"id": 939874, "title": "Taking a time study", "work_id": 73469, "role": "production company", "role_id": 941, "is_primary": true}, {"id": 2415086, "title": "Lifting patients. Part 2. In the home", "work_id": 69720, "role": "production company", "role_id": 941, "is_primary": true}, {"id": 858924, "title": "The Story of fine china", "work_id": 73238, "role": "production company", "role_id": 941, "is_primary": true}], "also_known_as": "", "date_of_birth": "", "date_of_death": "", "genders": [], "languages": [], "places_of_operation": [], "biography": "", "biography_author": null, "date_of_biography": "2023-08-11T19:30:16.442583+10:00", "external_links": [], "uuid": "b42fe936-e2df-4695-9362-407d6358edf8", "source": {"name": "Vernon", "slug": "vernon"}, "source_identifier": "9784", "external_references": [], "date_modified": "2023-08-11T19:30:16.442823+10:00"}, {"id": 16306, "name": "George Wynn", "roles_in_work": [{"id": 2402902, "title": "Boiler house practice", "work_id": 91104, "role": "director", "role_id": 938, "is_primary": true}, {"id": 2415083, "title": "Lifting", "work_id": 69719, "role": "director", "role_id": 938, "is_primary": true}, {"id": 2408235, "title": "Furnace practice", "work_id": 89819, "role": "director", "role_id": 938, "is_primary": true}, {"id": 858865, "title": "Steam", "work_id": 73184, "role": "director", "role_id": 938, "is_primary": true}], "also_known_as": "", "date_of_birth": "", "date_of_death": "", "genders": [], "languages": [], "places_of_operation": [], "biography": "", "biography_author": null, "date_of_biography": "2023-08-11T19:30:11.327880+10:00", "external_links": [], "uuid": "9dc996b7-73f3-472b-9736-04bb37a058bf", "source": {"name": "Vernon", "slug": "vernon"}, "source_identifier": "19698", "external_references": [], "date_modified": "2023-08-11T19:30:11.328104+10:00"}, {"id": 16305, "name": "CWS Film Unit for Ministry of Labour", "roles_in_work": [{"id": 2415082, "title": "Lifting", "work_id": 69719, "role": "production company", "role_id": 941, "is_primary": true}], "also_known_as": "", "date_of_birth": "", "date_of_death": "", "genders": [], "languages": [], "places_of_operation": [], "biography": "", "biography_author": null, "date_of_biography": "2023-08-11T19:30:10.702497+10:00", "external_links": [], "uuid": "0ede2012-777e-499f-8067-760c4e42fe7d", "source": {"name": "Vernon", "slug": "vernon"}, "source_identifier": "7255", "external_references": [], "date_modified": "2023-08-11T19:30:10.702742+10:00"}, {"id": 16302, "name": "Alan Burks", "roles_in_work": [{"id": 2467374, "title": "The Life you save", "work_id": 69716, "role": "director", "role_id": 938, "is_primary": true}], "also_known_as": "", "date_of_birth": "", "date_of_death": "", "genders": [], "languages": [], "places_of_operation": [], "biography": "", "biography_author": null, "date_of_biography": "2023-08-14T11:18:52.997812+10:00", "external_links": [], "uuid": "7d92dbb2-7e11-4513-b968-fd7ad0d058db", "source": {"name": "Vernon", "slug": "vernon"}, "source_identifier": "14739", "external_references": [], "date_modified": "2023-08-14T11:18:52.998058+10:00"}, {"id": 16296, "name": "Jules Power Productions", "roles_in_work": [{"id": 854431, "title": "The Soviet Union: life in Moscow", "work_id": 69681, "role": "production company", "role_id": 941, "is_primary": true}, {"id": 825716, "title": "How life begins", "work_id": 96004, "role": "production company", "role_id": 941, "is_primary": true}, {"id": 2752080, "title": "The Legend of Mark Twain", "work_id": 98129, "role": "production company", "role_id": 941, "is_primary": true}], "also_known_as": "", "date_of_birth": null, "date_of_death": null, "genders": [], "languages": [], "places_of_operation": [], "biography": "", "biography_author": null, "date_of_biography": null, "external_links": [], "uuid": "09fe1235-b58c-4973-b1c7-93b77fec8921", "source": {"name": "Vernon", "slug": "vernon"}, "source_identifier": "9660", "external_references": [], "date_modified": "2025-03-13T00:57:01.324809+11:00"}, {"id": 16295, "name": "Bruce Russell", "roles_in_work": [{"id": 854428, "title": "Life in Lost Creek: fresh water ecology", "work_id": 69678, "role": "director", "role_id": 938, "is_primary": true}, {"id": 2467586, "title": "The Molluscs: chitons, snails, clams, cephalopods", "work_id": 70538, "role": "producer", "role_id": 1089, "is_primary": true}], "also_known_as": "", "date_of_birth": "", "date_of_death": "", "genders": [], "languages": [], "places_of_operation": [], "biography": "", "biography_author": null, "date_of_biography": "2023-08-14T11:23:23.682596+10:00", "external_links": [], "uuid": "2d92b9f5-1929-4192-891b-167ef65210c7", "source": {"name": "Vernon", "slug": "vernon"}, "source_identifier": "4327", "external_references": [], "date_modified": "2023-08-14T11:23:23.682817+10:00"}, {"id": 16294, "name": "Philip Leacock", "roles_in_work": [{"id": 2660487, "title": "Island people", "work_id": 117397, "role": "director", "role_id": 938, "is_primary": true}, {"id": 750026, "title": "Out of true", "work_id": 71275, "role": "director", "role_id": 938, "is_primary": true}, {"id": 746587, "title": "Life in her hands", "work_id": 69675, "role": "director", "role_id": 938, "is_primary": true}], "also_known_as": "", "date_of_birth": "1917-10-08", "date_of_death": "1990-07-14", "genders": [{"id": 9, "name": "Male", "slug": "male"}], "languages": [{"id": 1, "name": "English", "slug": "english"}], "places_of_operation": [{"id": 10, "name": "United Kingdom", "slug": "united-kingdom"}], "biography": "Philip David Charles Leacock (8 October 1917 – 14 July 1990) was an English television and film director and producer. His brother was documentary filmmaker Richard Leacock.", "biography_author": "Wikidata", "date_of_biography": "2022-05-19T12:43:39.216779+10:00", "external_links": [{"id": 2874, "uri": "https://en.wikipedia.org/wiki/Philip_Leacock"}], "uuid": "a02e405a-1da2-4801-839e-2678821cde29", "source": {"name": "Vernon", "slug": "vernon"}, "source_identifier": "26827", "external_references": [{"id": 12214, "source": {"name": "Wikidata", "slug": "wikidata"}, "source_identifier": "Q2086305"}, {"id": 12215, "source": {"name": "VIAF", "slug": "viaf"}, "source_identifier": "49430385"}, {"id": 12216, "source": {"name": "LOC Auth", "slug": "loc-auth"}, "source_identifier": "nr92033485"}, {"id": 12217, "source": {"name": "WorldCat", "slug": "worldcat"}, "source_identifier": "lccn-nr92033485"}], "date_modified": "2025-03-05T19:56:01.136616+11:00"}]}