{"count": 28687, "next": "https://api.acmi.net.au/creators/?page=1912", "previous": "https://api.acmi.net.au/creators/?page=1910", "results": [{"id": 24275, "name": "Allan Frank Sandler", "roles_in_work": [{"id": 2749375, "title": "Tawny scrawny lion", "work_id": 96770, "role": "producer", "role_id": 1089, "is_primary": true}, {"id": 2749562, "title": "Poky little puppy", "work_id": 96865, "role": "producer", "role_id": 1089, "is_primary": true}, {"id": 1813815, "title": "The Neatos and the Litterbugs in the mystery of ...", "work_id": 82032, "role": "producer", "role_id": 1089, "is_primary": true}, {"id": 2753256, "title": "The Work prejudice film", "work_id": 98677, "role": "producer", "role_id": 1089, "is_primary": true}], "also_known_as": "", "date_of_birth": null, "date_of_death": null, "genders": [], "languages": [], "places_of_operation": [], "biography": "", "biography_author": null, "date_of_biography": null, "external_links": [], "uuid": "077e3da3-82ba-4726-870d-9f0b260cd01e", "source": {"name": "Vernon", "slug": "vernon"}, "source_identifier": "14754", "external_references": [], "date_modified": "2025-03-13T01:21:27.226262+11:00"}, {"id": 24271, "name": "James B. Maas and David H. Gluck Productions", "roles_in_work": [{"id": 2779023, "title": "In touch with the world", "work_id": 82063, "role": "production company", "role_id": 941, "is_primary": true}, {"id": 2779029, "title": "Matter of taste", "work_id": 98471, "role": "production company", "role_id": 941, "is_primary": true}, {"id": 777466, "title": "Learning to see", "work_id": 82027, "role": "production company", "role_id": 941, "is_primary": true}], "also_known_as": "", "date_of_birth": "", "date_of_death": "", "genders": [], "languages": [], "places_of_operation": [], "biography": "", "biography_author": null, "date_of_biography": "2023-05-09T20:03:43.627870+10:00", "external_links": [], "uuid": "8ac74a53-fad8-4f54-a116-740b65c358e9", "source": {"name": "Vernon", "slug": "vernon"}, "source_identifier": "4110", "external_references": [{"id": 38755, "source": {"name": "Wikidata", "slug": "wikidata"}, "source_identifier": "Q121079083"}], "date_modified": "2025-03-14T19:02:07.467210+11:00"}, {"id": 24270, "name": "James Mann", "roles_in_work": [{"id": 2779330, "title": "The Nurse; the vet; the ambulance", "work_id": 82025, "role": "co-producer", "role_id": 915, "is_primary": true}, {"id": 2779362, "title": "The Orchard, timber yard, Oakbank farm", "work_id": 99354, "role": "co-producer", "role_id": 915, "is_primary": true}, {"id": 2779349, "title": "The Firefighter, Police helicopter, Police officer", "work_id": 99353, "role": "co-producer", "role_id": 915, "is_primary": true}, {"id": 2754779, "title": "Hidden costs", "work_id": 99356, "role": "co-producers/directors", "role_id": 628, "is_primary": true}, {"id": 2754272, "title": "Languages at work", "work_id": 99129, "role": "co-producers/directors", "role_id": 628, "is_primary": true}, {"id": 1804785, "title": "A Scaley situation", "work_id": 98781, "role": "producer", "role_id": 1089, "is_primary": true}, {"id": 2754119, "title": "VCE update", "work_id": 99063, "role": "producer", "role_id": 1089, "is_primary": true}, {"id": 2754691, "title": "Taking action", "work_id": 99311, "role": "producer/director", "role_id": 31, "is_primary": true}, {"id": 2752775, "title": "Making it relevant", "work_id": 98451, "role": "producer/director", "role_id": 31, "is_primary": true}, {"id": 2753212, "title": "Bilingual kids", "work_id": 98655, "role": "producer/director", "role_id": 31, "is_primary": true}, {"id": 2753709, "title": "Zoo with class", "work_id": 98894, "role": "producer/director", "role_id": 31, "is_primary": true}, {"id": 2754341, "title": "Frameworks: blueprint for the future [English version]", "work_id": 99159, "role": "producer/director", "role_id": 31, "is_primary": true}, {"id": 2754344, "title": "Frameworks: blueprint for the future [Greek version]", "work_id": 99160, "role": "producer/director", "role_id": 31, "is_primary": true}, {"id": 2754347, "title": "Frameworks: blueprint for the future [italian Version]", "work_id": 99161, "role": "producer/director", "role_id": 31, "is_primary": true}, {"id": 2754350, "title": "Frameworks: blueprint for the future [Vietnamese version]", "work_id": 99162, "role": "producer/director", "role_id": 31, "is_primary": true}, {"id": 2754576, "title": "What should happen?: investigating community decision making", "work_id": 99263, "role": "producer/director", "role_id": 31, "is_primary": true}], "also_known_as": "", "date_of_birth": "", "date_of_death": "", "genders": [], "languages": [], "places_of_operation": [], "biography": "", "biography_author": null, "date_of_biography": "2023-05-09T12:33:42.025943+10:00", "external_links": [], "uuid": "80e97763-adae-4100-a3e1-999c8c691957", "source": {"name": "Vernon", "slug": "vernon"}, "source_identifier": "21280", "external_references": [{"id": 40057, "source": {"name": "Wikidata", "slug": "wikidata"}, "source_identifier": "Q121035400"}], "date_modified": "2025-03-14T19:03:06.749760+11:00"}, {"id": 24269, "name": "Timothy Sullivan", "roles_in_work": [{"id": 2771972, "title": "Jack Absalom's outback Australia series", "work_id": 115165, "role": "director", "role_id": 938, "is_primary": true}, {"id": 1813814, "title": "Family or friends...?", "work_id": 82022, "role": "producer", "role_id": 1089, "is_primary": true}], "also_known_as": "", "date_of_birth": "", "date_of_death": "", "genders": [], "languages": [], "places_of_operation": [], "biography": "", "biography_author": null, "date_of_biography": "2023-05-09T19:14:12.809359+10:00", "external_links": [], "uuid": "53afba96-5d01-4c17-a00c-cc3bc920fc96", "source": {"name": "Vernon", "slug": "vernon"}, "source_identifier": "29775", "external_references": [{"id": 37031, "source": {"name": "Wikidata", "slug": "wikidata"}, "source_identifier": "Q121078785"}], "date_modified": "2025-03-14T18:25:13.220538+11:00"}, {"id": 24268, "name": "Media Four Productions", "roles_in_work": [{"id": 2779376, "title": "The Sun", "work_id": 82021, "role": "production company", "role_id": 941, "is_primary": true}, {"id": 2779413, "title": "The Solar System", "work_id": 115238, "role": "production company", "role_id": 941, "is_primary": true}, {"id": 2779407, "title": "Outer planets", "work_id": 98251, "role": "production company", "role_id": 941, "is_primary": true}, {"id": 2751239, "title": "Comets: time capsules of the solar system", "work_id": 97718, "role": "production company", "role_id": 941, "is_primary": true}, {"id": 2779401, "title": "The Inner planets", "work_id": 98250, "role": "production company", "role_id": 941, "is_primary": true}, {"id": 2779382, "title": "The Earth", "work_id": 98248, "role": "production company", "role_id": 941, "is_primary": true}], "also_known_as": "", "date_of_birth": null, "date_of_death": null, "genders": [], "languages": [], "places_of_operation": [], "biography": "", "biography_author": null, "date_of_biography": null, "external_links": [], "uuid": "4ea6f75a-f7df-4ffa-8213-2e439a932f41", "source": {"name": "Vernon", "slug": "vernon"}, "source_identifier": "10417", "external_references": [], "date_modified": "2025-03-14T19:03:16.584014+11:00"}, {"id": 24267, "name": "Australia Council. Aboriginal Arts Board", "roles_in_work": [{"id": 2049028, "title": "Preparing for the corroboree", "work_id": 82157, "role": "production company", "role_id": 941, "is_primary": true}, {"id": 933185, "title": "Lalai dreamtime", "work_id": 82016, "role": "production company", "role_id": 941, "is_primary": true}, {"id": 2317533, "title": "Sunrise: awakening = Tjintu-pakani (A) (TEFC)", "work_id": 87145, "role": "production company", "role_id": 941, "is_primary": true}, {"id": 2649753, "title": "Sunrise: awakening = Tjintu-pakani", "work_id": 82141, "role": "production company", "role_id": 941, "is_primary": true}, {"id": 2379815, "title": "Dugong! Dugong!", "work_id": 82139, "role": "sponsor", "role_id": 625, "is_primary": false}], "also_known_as": "", "date_of_birth": "", "date_of_death": "", "genders": [], "languages": [], "places_of_operation": [], "biography": "", "biography_author": null, "date_of_biography": "2023-07-19T03:40:46.191172+10:00", "external_links": [], "uuid": "d72edc41-ff74-4be3-9dc8-ba6ff86d0369", "source": {"name": "Vernon", "slug": "vernon"}, "source_identifier": "4599", "external_references": [{"id": 35069, "source": {"name": "Wikidata", "slug": "wikidata"}, "source_identifier": "Q121034579"}], "date_modified": "2025-03-05T14:05:53.353609+11:00"}, {"id": 24266, "name": "Howard Storm", "roles_in_work": [{"id": 2778129, "title": "The Three little pigs", "work_id": 82015, "role": "director", "role_id": 938, "is_primary": true}], "also_known_as": "", "date_of_birth": "", "date_of_death": "", "genders": [], "languages": [], "places_of_operation": [], "biography": "", "biography_author": null, "date_of_biography": "2023-05-09T18:43:30.680284+10:00", "external_links": [], "uuid": "215fd3ae-202f-4560-b31c-78cfcf00c6ce", "source": {"name": "Vernon", "slug": "vernon"}, "source_identifier": "20633", "external_references": [], "date_modified": "2025-03-14T18:58:33.938442+11:00"}, {"id": 24265, "name": "Study Sources Unlimited", "roles_in_work": [{"id": 2779205, "title": "Escape from Lethargia : deriving meaning from context", "work_id": 82004, "role": "production company", "role_id": 941, "is_primary": true}, {"id": 2779258, "title": "Reading planet", "work_id": 115236, "role": "production company", "role_id": 941, "is_primary": true}, {"id": 2779232, "title": "Turn on the TV in your head", "work_id": 82031, "role": "production company", "role_id": 941, "is_primary": true}, {"id": 2779217, "title": "Hope of the future: inferences in reading", "work_id": 82029, "role": "production company", "role_id": 941, "is_primary": true}], "also_known_as": "", "date_of_birth": "", "date_of_death": "", "genders": [], "languages": [], "places_of_operation": [], "biography": "", "biography_author": null, "date_of_biography": "2023-05-09T17:49:02.709239+10:00", "external_links": [], "uuid": "f5e7fd28-b1dd-4460-a83a-e92a26bedef9", "source": {"name": "Vernon", "slug": "vernon"}, "source_identifier": "13026", "external_references": [{"id": 36300, "source": {"name": "Wikidata", "slug": "wikidata"}, "source_identifier": "Q121034696"}], "date_modified": "2025-03-14T19:02:50.772043+11:00"}, {"id": 24264, "name": "H G Simons Productions", "roles_in_work": [{"id": 2779216, "title": "Hope of the future: inferences in reading", "work_id": 82029, "role": "production company", "role_id": 941, "is_primary": true}, {"id": 2779228, "title": "Turn on the TV in your head", "work_id": 82031, "role": "production company", "role_id": 941, "is_primary": true}, {"id": 2779198, "title": "Reading planet", "work_id": 115236, "role": "production company", "role_id": 941, "is_primary": true}, {"id": 2779202, "title": "Escape from Lethargia : deriving meaning from context", "work_id": 82004, "role": "production company", "role_id": 941, "is_primary": true}], "also_known_as": "", "date_of_birth": "", "date_of_death": "", "genders": [], "languages": [], "places_of_operation": [], "biography": "", "biography_author": null, "date_of_biography": "2023-05-09T17:49:02.486754+10:00", "external_links": [], "uuid": "abce6663-c312-4ddd-9d1d-6161252ddc09", "source": {"name": "Vernon", "slug": "vernon"}, "source_identifier": "8948", "external_references": [{"id": 35276, "source": {"name": "Wikidata", "slug": "wikidata"}, "source_identifier": "Q121223022"}], "date_modified": "2025-03-14T19:02:50.192921+11:00"}, {"id": 24263, "name": "Richard E. Jackson", "roles_in_work": [{"id": 2649675, "title": "Donald's fire survival plan. - Rev. ed.", "work_id": 82003, "role": "director", "role_id": 938, "is_primary": true}, {"id": 2753399, "title": "What is fitness exercise?", "work_id": 98742, "role": "co-director", "role_id": 959, "is_primary": true}, {"id": 2753402, "title": "How to exercise", "work_id": 98743, "role": "producer", "role_id": 1089, "is_primary": true}], "also_known_as": "", "date_of_birth": "", "date_of_death": "", "genders": [], "languages": [], "places_of_operation": [], "biography": "", "biography_author": null, "date_of_biography": "2023-05-09T18:23:36.658361+10:00", "external_links": [], "uuid": "eefc7d4d-c4aa-4996-ac03-94804572196a", "source": {"name": "Vernon", "slug": "vernon"}, "source_identifier": "27374", "external_references": [], "date_modified": "2025-03-13T01:25:08.254891+11:00"}]}