{"count": 28687, "next": "https://api.acmi.net.au/creators/?page=1984", "previous": "https://api.acmi.net.au/creators/?page=1982", "results": [{"id": 22894, "name": "Number One", "roles_in_work": [{"id": 2275974, "title": "Vietnam, Australia's war", "work_id": 82840, "role": "production company", "role_id": 941, "is_primary": true}, {"id": 1984798, "title": "Medea", "work_id": 80814, "role": "production company", "role_id": 941, "is_primary": true}], "also_known_as": "", "date_of_birth": "", "date_of_death": "", "genders": [], "languages": [], "places_of_operation": [], "biography": "", "biography_author": null, "date_of_biography": "2023-05-09T17:52:18.483563+10:00", "external_links": [], "uuid": "b66a5cfd-6d36-4806-b37c-17eb6c1c048d", "source": {"name": "Vernon", "slug": "vernon"}, "source_identifier": "11051", "external_references": [{"id": 39351, "source": {"name": "Wikidata", "slug": "wikidata"}, "source_identifier": "Q121315399"}], "date_modified": "2023-09-05T23:35:07.721004+10:00"}, {"id": 22892, "name": "Pier Pasolini", "roles_in_work": [{"id": 2342386, "title": "The Decameron", "work_id": 91466, "role": "director", "role_id": 938, "is_primary": true}, {"id": 811001, "title": "The Canterbury tales = I Racconti di Canterbury (E)", "work_id": 92335, "role": "director", "role_id": 938, "is_primary": true}, {"id": 1993298, "title": "Hawks and sparrows = Uccellacci e uccellini [Widescreen]", "work_id": 88953, "role": "director", "role_id": 938, "is_primary": true}, {"id": 1990571, "title": "Mamma Roma", "work_id": 86221, "role": "director", "role_id": 938, "is_primary": true}, {"id": 2079249, "title": "Accattone", "work_id": 82738, "role": "director", "role_id": 938, "is_primary": true}, {"id": 2289763, "title": "Theorem = Teorema", "work_id": 86220, "role": "director", "role_id": 938, "is_primary": true}, {"id": 811178, "title": "Arabian nights (Pasolini) = Fiore delle millee una notte (E)", "work_id": 92385, "role": "director", "role_id": 938, "is_primary": true}, {"id": 773314, "title": "The Gospel According to St Matthew = Il Vangelo Secondo Matt", "work_id": 80828, "role": "director", "role_id": 938, "is_primary": true}, {"id": 1984802, "title": "Medea", "work_id": 80814, "role": "director", "role_id": 938, "is_primary": true}, {"id": 1984796, "title": "Oedipus Rex = Edipo Re", "work_id": 80813, "role": "director", "role_id": 938, "is_primary": true}, {"id": 2254013, "title": "Rogopag [Widescreen]", "work_id": 90530, "role": "co-director", "role_id": 959, "is_primary": true}, {"id": 800651, "title": "Grim reaper = La Commare Secca", "work_id": 88723, "role": "writer", "role_id": 939, "is_primary": true}], "also_known_as": "", "date_of_birth": "1922-03-05", "date_of_death": "1975-11-02", "genders": [{"id": 9, "name": "Male", "slug": "male"}], "languages": [{"id": 4, "name": "French", "slug": "french"}, {"id": 86, "name": "Friulian", "slug": "friulian"}, {"id": 6, "name": "Italian", "slug": "italian"}], "places_of_operation": [{"id": 300, "name": "Kingdom of Italy", "slug": "kingdom-of-italy"}], "biography": "Pier Paolo Pasolini (Italian: [ˈpjɛr ˈpaːolo pazoˈliːni]; 5 March 1922 – 2 November 1975) was an Italian film director, poet, writer, and intellectual, who also distinguished himself as an actor, journalist, novelist, playwright, and political figure.\nA controversial personality in Italy due to his straightforward style, Pasolini's legacy remains contentious. He voiced strong criticism of petty bourgeois values and the emerging \"totalitarianism of consumerism\" in Italy, juxtaposing socio-political polemics with a critical examination of taboo sexual matters. A prominent protagonist of the Roman cultural scene of the post-war period, he was an established major figure in European literature and cinematic arts.\nPasolini's unsolved murder at Ostia in November 1975 during an altercation with a young male prostitute prompted an outcry in Italy, and its circumstances continue to be a matter of heated debate.", "biography_author": "Wikidata", "date_of_biography": "2022-05-19T12:44:30.087929+10:00", "external_links": [{"id": 2883, "uri": "https://en.wikipedia.org/wiki/Pier_Paolo_Pasolini"}], "uuid": "10d40360-50df-401d-ae8d-c362764ca7b4", "source": {"name": "Vernon", "slug": "vernon"}, "source_identifier": "26907", "external_references": [{"id": 12249, "source": {"name": "Wikidata", "slug": "wikidata"}, "source_identifier": "Q25120"}, {"id": 12250, "source": {"name": "VIAF", "slug": "viaf"}, "source_identifier": "54152375"}, {"id": 12251, "source": {"name": "LOC Auth", "slug": "loc-auth"}, "source_identifier": "n79046419"}, {"id": 12252, "source": {"name": "WorldCat", "slug": "worldcat"}, "source_identifier": "lccn-n79046419"}], "date_modified": "2023-09-13T12:32:02.731961+10:00"}, {"id": 22890, "name": "Memorial", "roles_in_work": [{"id": 2118962, "title": "Bleak Moments", "work_id": 80812, "role": "production company", "role_id": 941, "is_primary": true}, {"id": 908443, "title": "If***", "work_id": 88913, "role": "production company", "role_id": 941, "is_primary": true}, {"id": 1993300, "title": "O' Lucky man", "work_id": 88954, "role": "production company", "role_id": 941, "is_primary": true}], "also_known_as": "", "date_of_birth": "", "date_of_death": "", "genders": [], "languages": [], "places_of_operation": [], "biography": "", "biography_author": null, "date_of_biography": "2023-05-09T12:58:08.036260+10:00", "external_links": [], "uuid": "a9dc2c1f-d3a8-42a9-a3fe-cc2383767c85", "source": {"name": "Vernon", "slug": "vernon"}, "source_identifier": "10463", "external_references": [{"id": 39140, "source": {"name": "Wikidata", "slug": "wikidata"}, "source_identifier": "Q121270643"}], "date_modified": "2023-09-05T23:00:29.747049+10:00"}, {"id": 22889, "name": "Autumn", "roles_in_work": [{"id": 2118960, "title": "Bleak Moments", "work_id": 80812, "role": "production company", "role_id": 941, "is_primary": true}], "also_known_as": "", "date_of_birth": "", "date_of_death": "", "genders": [], "languages": [], "places_of_operation": [], "biography": "", "biography_author": null, "date_of_biography": "2023-05-09T12:58:07.775866+10:00", "external_links": [], "uuid": "dc36a0a9-f1f1-48b7-8bcd-71e424360451", "source": {"name": "Vernon", "slug": "vernon"}, "source_identifier": "5623", "external_references": [{"id": 32562, "source": {"name": "Wikidata", "slug": "wikidata"}, "source_identifier": "Q121057827"}], "date_modified": "2023-09-05T17:51:34.788939+10:00"}, {"id": 22887, "name": "Argos", "roles_in_work": [{"id": 781004, "title": "Wayward girls & wicked women. - Volume 1.", "work_id": 83030, "role": "production company", "role_id": 941, "is_primary": true}, {"id": 2174840, "title": "Jan Svankmajer. Vol. 1.", "work_id": 82469, "role": "production company", "role_id": 941, "is_primary": true}, {"id": 2172024, "title": "Jan Svankmajer. - Volume 2.", "work_id": 82470, "role": "production company", "role_id": 941, "is_primary": true}, {"id": 773236, "title": "Night and fog = Nuit et brouillard", "work_id": 80811, "role": "production company", "role_id": 941, "is_primary": true}], "also_known_as": "", "date_of_birth": "", "date_of_death": "", "genders": [], "languages": [], "places_of_operation": [], "biography": "", "biography_author": null, "date_of_biography": "2023-05-09T14:44:03.906555+10:00", "external_links": [], "uuid": "de5493b7-b150-4a93-af6d-a7eb82b57875", "source": {"name": "Vernon", "slug": "vernon"}, "source_identifier": "5353", "external_references": [], "date_modified": "2023-06-14T16:33:30.576250+10:00"}, {"id": 22886, "name": "Andre Paulve", "roles_in_work": [{"id": 3105262, "title": "Lumiere D'ete = Summer Light", "work_id": 116329, "role": "producer", "role_id": 1089, "is_primary": true}, {"id": 1804515, "title": "Beauty and the Beast = La Belle et la Bete", "work_id": 80810, "role": "producer", "role_id": 1089, "is_primary": true}, {"id": 3104552, "title": "La Chartreuse de Parme = the Charterhouse of Parma", "work_id": 115971, "role": "producer", "role_id": 1089, "is_primary": true}, {"id": 3104762, "title": "Orphee = Orpheus", "work_id": 116070, "role": "producer", "role_id": 1089, "is_primary": true}, {"id": 3104773, "title": "Un Grand Patron", "work_id": 116075, "role": "producer", "role_id": 1089, "is_primary": true}, {"id": 3104944, "title": "Les Visiteurs du Soir = the Devil's Envoys", "work_id": 116160, "role": "producer", "role_id": 1089, "is_primary": true}, {"id": 3105034, "title": "Le Grand Pavois", "work_id": 116212, "role": "producer", "role_id": 1089, "is_primary": true}, {"id": 2615948, "title": "Orphee", "work_id": 86468, "role": "producer", "role_id": 1089, "is_primary": true}], "also_known_as": "", "date_of_birth": "1898-10-30", "date_of_death": "1982-07-08", "genders": [{"id": 9, "name": "Male", "slug": "male"}], "languages": [{"id": 4, "name": "French", "slug": "french"}], "places_of_operation": [{"id": 17, "name": "France", "slug": "france"}], "biography": "André Paulvé (30 October 1898 – 8 July 1982) was a French film producer. He established his own production and distribution company DisCina with Michel Safra in 1938. During the German Occupation of France after 1940 he based himself at Nice in the Unoccupied Zone. He was a pioneer in co-productions with Italy, establishing a link with the Cinecitta Studios in Rome.\n\n", "biography_author": "Wikidata", "date_of_biography": "2022-05-19T10:48:39.822104+10:00", "external_links": [{"id": 1637, "uri": "https://en.wikipedia.org/wiki/Andr%C3%A9_Paulv%C3%A9"}], "uuid": "4c925c51-772b-44f3-b8e8-5a2434fe66d4", "source": {"name": "Vernon", "slug": "vernon"}, "source_identifier": "15113", "external_references": [{"id": 7152, "source": {"name": "Wikidata", "slug": "wikidata"}, "source_identifier": "Q2652721"}, {"id": 7153, "source": {"name": "VIAF", "slug": "viaf"}, "source_identifier": "41418353"}, {"id": 7154, "source": {"name": "LOC Auth", "slug": "loc-auth"}, "source_identifier": "no94037450"}, {"id": 7155, "source": {"name": "WorldCat", "slug": "worldcat"}, "source_identifier": "lccn-no94037450"}], "date_modified": "2025-05-22T23:01:06.093847+10:00"}, {"id": 22882, "name": "Volker Schlondorff", "roles_in_work": [{"id": 802541, "title": "Voyager = Homo Faber", "work_id": 89391, "role": "director", "role_id": 938, "is_primary": true}, {"id": 2614051, "title": "The Tin drum", "work_id": 83090, "role": "director", "role_id": 938, "is_primary": true}, {"id": 2319717, "title": "Swann in Love = Un Amour de Swann", "work_id": 81391, "role": "director", "role_id": 938, "is_primary": true}, {"id": 2353012, "title": "The Handmaid's tale", "work_id": 83088, "role": "director", "role_id": 938, "is_primary": true}, {"id": 2182605, "title": "Death of a salesman [DVD]", "work_id": 92512, "role": "director", "role_id": 938, "is_primary": true}, {"id": 1991816, "title": "Lost honour of Katharina Blum = Die verlorene Ehre der Katharina Blum", "work_id": 87495, "role": "co-director", "role_id": 959, "is_primary": true}, {"id": 2614050, "title": "The Tin drum", "work_id": 83090, "role": "co-producer", "role_id": 915, "is_primary": true}, {"id": 1991038, "title": "A French woman = Une femme Francaise", "work_id": 86741, "role": "co-producer", "role_id": 915, "is_primary": true}, {"id": 782944, "title": "The Michael Nyman songbook", "work_id": 83649, "role": "director", "role_id": 938, "is_primary": true}], "also_known_as": "", "date_of_birth": "1939-03-31", "date_of_death": "", "genders": [{"id": 9, "name": "Male", "slug": "male"}], "languages": [{"id": 1, "name": "English", "slug": "english"}, {"id": 4, "name": "French", "slug": "french"}, {"id": 5, "name": "German", "slug": "german"}], "places_of_operation": [{"id": 18, "name": "Germany", "slug": "germany"}], "biography": "Volker Schlöndorff (German pronunciation: [ˈfɔlkɐ  ˈʃløːndɔʁf] ; born 31 March 1939) is a German film director, screenwriter and producer who has worked in Germany, France and the United States. He was a prominent member of the New German Cinema of the late 1960s and early 1970s, which also included Werner Herzog, Wim Wenders, Margarethe von Trotta and Rainer Werner Fassbinder.\nHe has won an Oscar as well as the Palme d'Or at the 1979 Cannes Film Festival for The Tin Drum (1979), the film version of the novel by Nobel Prize-winning author Günter Grass.", "biography_author": "Wikidata", "date_of_biography": "2023-09-06T02:08:52.581711+10:00", "external_links": [{"id": 6244, "uri": "https://en.wikipedia.org/wiki/Volker_Schl%C3%B6ndorff"}], "uuid": "08d4c070-3beb-4b23-9742-038c44e5d8ed", "source": {"name": "Vernon", "slug": "vernon"}, "source_identifier": "3968", "external_references": [{"id": 35463, "source": {"name": "Wikidata", "slug": "wikidata"}, "source_identifier": "Q57316"}, {"id": 56042, "source": {"name": "VIAF", "slug": "viaf"}, "source_identifier": "84161106"}, {"id": 56043, "source": {"name": "LOC Auth", "slug": "loc-auth"}, "source_identifier": "n81116971"}, {"id": 56044, "source": {"name": "WorldCat", "slug": "worldcat"}, "source_identifier": "lccn-n81116971"}], "date_modified": "2025-02-26T20:05:50.549611+11:00"}, {"id": 22881, "name": "Robert F. Colesberry", "roles_in_work": [{"id": 2082867, "title": "After hours", "work_id": 88684, "role": "co-producer", "role_id": 915, "is_primary": true}, {"id": 1986302, "title": "Housekeeping", "work_id": 82367, "role": "producer", "role_id": 1089, "is_primary": true}, {"id": 2182604, "title": "Death of a salesman [DVD]", "work_id": 92512, "role": "producer", "role_id": 1089, "is_primary": true}, {"id": 2159038, "title": "Mississippi burning", "work_id": 84657, "role": "producer", "role_id": 1089, "is_primary": true}], "also_known_as": "", "date_of_birth": "1946-03-07", "date_of_death": "2004-02-09", "genders": [{"id": 9, "name": "Male", "slug": "male"}], "languages": [{"id": 1, "name": "English", "slug": "english"}], "places_of_operation": [{"id": 1, "name": "United States of America", "slug": "united-states-of-america"}], "biography": "Robert F. \"Bob\" Colesberry Jr. (March 7, 1946 – February 9, 2004) was an American film and television producer, best known as a co-creator of the television series The Wire (2002–2008) for HBO, executive producer of the miniseries The Corner (2000), and a producer for Martin Scorsese's After Hours (1985), Alan Parker's Mississippi Burning (1988), and Billy Crystal's 61* (2001). Colesberry was also an occasional actor.", "biography_author": "Wikidata", "date_of_biography": "2022-05-19T12:53:20.980580+10:00", "external_links": [{"id": 2975, "uri": "https://en.wikipedia.org/wiki/Robert_F._Colesberry"}], "uuid": "e82e2113-417c-4a8b-a61c-98dd99c55ed1", "source": {"name": "Vernon", "slug": "vernon"}, "source_identifier": "27717", "external_references": [{"id": 12637, "source": {"name": "Wikidata", "slug": "wikidata"}, "source_identifier": "Q1365858"}, {"id": 12638, "source": {"name": "VIAF", "slug": "viaf"}, "source_identifier": "26928076"}, {"id": 12639, "source": {"name": "LOC Auth", "slug": "loc-auth"}, "source_identifier": "nr92024516"}, {"id": 12640, "source": {"name": "WorldCat", "slug": "worldcat"}, "source_identifier": "lccn-nr92024516"}], "date_modified": "2023-09-13T12:32:18.627083+10:00"}, {"id": 22880, "name": "Roxbury and Punch", "roles_in_work": [{"id": 2182599, "title": "Death of a salesman [DVD]", "work_id": 92512, "role": "production company", "role_id": 941, "is_primary": true}], "also_known_as": "", "date_of_birth": "", "date_of_death": "", "genders": [], "languages": [], "places_of_operation": [], "biography": "", "biography_author": null, "date_of_biography": "2023-05-09T14:55:28.173708+10:00", "external_links": [], "uuid": "20f60225-10bc-4d41-891f-207e2fc10a96", "source": {"name": "Vernon", "slug": "vernon"}, "source_identifier": "12138", "external_references": [{"id": 34200, "source": {"name": "Wikidata", "slug": "wikidata"}, "source_identifier": "Q121035388"}], "date_modified": "2023-09-06T00:57:17.639510+10:00"}, {"id": 22878, "name": "Jethro Films", "roles_in_work": [{"id": 1984787, "title": "Georgia", "work_id": 80806, "role": "production company", "role_id": 941, "is_primary": true}, {"id": 2346834, "title": "The Empty Beach", "work_id": 80839, "role": "production company", "role_id": 941, "is_primary": true}], "also_known_as": "", "date_of_birth": "", "date_of_death": "", "genders": [], "languages": [], "places_of_operation": [], "biography": "", "biography_author": null, "date_of_biography": "2023-05-09T19:48:17.794660+10:00", "external_links": [], "uuid": "a56baf8a-6433-4b2c-a850-72c1dfd69384", "source": {"name": "Vernon", "slug": "vernon"}, "source_identifier": "9593", "external_references": [], "date_modified": "2023-06-14T16:33:30.576250+10:00"}]}