{"count": 28687, "next": "https://api.acmi.net.au/creators/?page=2180", "previous": "https://api.acmi.net.au/creators/?page=2178", "results": [{"id": 19044, "name": "Susan Jones", "roles_in_work": [{"id": 2398329, "title": "A Secret place", "work_id": 75217, "role": "director", "role_id": 938, "is_primary": true}], "also_known_as": "", "date_of_birth": "", "date_of_death": "", "genders": [], "languages": [], "places_of_operation": [], "biography": "", "biography_author": null, "date_of_biography": "2023-08-11T13:16:18.243913+10:00", "external_links": [], "uuid": "6fcf1439-7c65-4f4e-aacf-c4f35574dbd7", "source": {"name": "Vernon", "slug": "vernon"}, "source_identifier": "30813", "external_references": [], "date_modified": "2023-08-11T13:16:18.244262+10:00"}, {"id": 19043, "name": "Kim Cardow", "roles_in_work": [{"id": 2398328, "title": "A Secret place", "work_id": 75217, "role": "director", "role_id": 938, "is_primary": true}], "also_known_as": "", "date_of_birth": "", "date_of_death": "", "genders": [], "languages": [], "places_of_operation": [], "biography": "", "biography_author": null, "date_of_biography": "2023-08-11T13:16:17.625938+10:00", "external_links": [], "uuid": "8bdbb9f3-7be1-4c18-ac8c-8d9115b699d8", "source": {"name": "Vernon", "slug": "vernon"}, "source_identifier": "30812", "external_references": [], "date_modified": "2023-08-11T13:16:17.626237+10:00"}, {"id": 19042, "name": "Nicholas Oughton", "roles_in_work": [{"id": 2398327, "title": "A Secret place", "work_id": 75217, "role": "producer", "role_id": 1089, "is_primary": true}], "also_known_as": "", "date_of_birth": "", "date_of_death": "", "genders": [], "languages": [], "places_of_operation": [], "biography": "", "biography_author": null, "date_of_biography": "2023-08-11T13:16:16.998684+10:00", "external_links": [], "uuid": "9a76135e-7ac9-417d-afb1-9c6c950d225b", "source": {"name": "Vernon", "slug": "vernon"}, "source_identifier": "30811", "external_references": [], "date_modified": "2023-08-11T13:16:16.998977+10:00"}, {"id": 19041, "name": "College of Art", "roles_in_work": [{"id": 2398326, "title": "A Secret place", "work_id": 75217, "role": "production company", "role_id": 941, "is_primary": true}], "also_known_as": "", "date_of_birth": "", "date_of_death": "", "genders": [], "languages": [], "places_of_operation": [], "biography": "", "biography_author": null, "date_of_biography": "2023-08-11T13:16:16.368861+10:00", "external_links": [], "uuid": "1bdd93b0-5dd7-414f-814c-bd570e21ece7", "source": {"name": "Vernon", "slug": "vernon"}, "source_identifier": "30810", "external_references": [], "date_modified": "2023-08-11T13:16:16.369231+10:00"}, {"id": 19040, "name": "Mikel Way", "roles_in_work": [{"id": 2400906, "title": "At the threshold of eternity", "work_id": 75214, "role": "producer", "role_id": 1089, "is_primary": true}], "also_known_as": "", "date_of_birth": "", "date_of_death": "", "genders": [], "languages": [], "places_of_operation": [], "biography": "", "biography_author": null, "date_of_biography": "2023-08-11T14:15:26.459047+10:00", "external_links": [], "uuid": "629678d7-ac3a-41cd-b1a7-d3e40fe7424c", "source": {"name": "Vernon", "slug": "vernon"}, "source_identifier": "25414", "external_references": [], "date_modified": "2023-08-11T14:15:26.459286+10:00"}, {"id": 19039, "name": "Colorado State University Production Company", "roles_in_work": [{"id": 2400905, "title": "At the threshold of eternity", "work_id": 75214, "role": "production company", "role_id": 941, "is_primary": true}], "also_known_as": "", "date_of_birth": "", "date_of_death": "", "genders": [], "languages": [], "places_of_operation": [], "biography": "", "biography_author": null, "date_of_biography": "2023-08-11T14:15:25.826729+10:00", "external_links": [], "uuid": "649bc82d-0708-4ff0-bf57-08f280d512f6", "source": {"name": "Vernon", "slug": "vernon"}, "source_identifier": "6892", "external_references": [], "date_modified": "2023-08-11T14:15:25.827048+10:00"}, {"id": 19038, "name": "KRO-TV Hilversum", "roles_in_work": [{"id": 2761656, "title": "The Lost waters of the Nile", "work_id": 75213, "role": "production company", "role_id": 941, "is_primary": true}], "also_known_as": "", "date_of_birth": "", "date_of_death": "", "genders": [], "languages": [], "places_of_operation": [], "biography": "", "biography_author": null, "date_of_biography": "2023-05-09T19:53:37.304203+10:00", "external_links": [], "uuid": "6b88fcb3-9fcd-4627-8cdf-fd6bd8d4ade5", "source": {"name": "Vernon", "slug": "vernon"}, "source_identifier": "9844", "external_references": [{"id": 37782, "source": {"name": "Wikidata", "slug": "wikidata"}, "source_identifier": "Q121126381"}], "date_modified": "2025-03-14T17:34:33.988557+11:00"}, {"id": 19036, "name": "Australia. Dept. of Health, Housing and Community Services", "roles_in_work": [{"id": 2335729, "title": "The Care behind the smile", "work_id": 75198, "role": "production company", "role_id": 941, "is_primary": true}, {"id": 791088, "title": "Holding on to what is real", "work_id": 85830, "role": "production company", "role_id": 941, "is_primary": true}, {"id": 1931935, "title": "When dreaming paths meet", "work_id": 84810, "role": "production company", "role_id": 941, "is_primary": true}, {"id": 787617, "title": "For peace of mind", "work_id": 84937, "role": "production company", "role_id": 941, "is_primary": true}], "also_known_as": "", "date_of_birth": "", "date_of_death": "", "genders": [], "languages": [], "places_of_operation": [], "biography": "", "biography_author": null, "date_of_biography": "2023-05-09T19:31:42.432492+10:00", "external_links": [], "uuid": "e6b2ff35-f1b1-460d-b846-847149586755", "source": {"name": "Vernon", "slug": "vernon"}, "source_identifier": "3891", "external_references": [{"id": 42358, "source": {"name": "Wikidata", "slug": "wikidata"}, "source_identifier": "Q121299365"}], "date_modified": "2023-09-05T17:50:06.655956+10:00"}, {"id": 19035, "name": "Richard Reisz", "roles_in_work": [{"id": 898984, "title": "The Meldrum Tapes: Best Of", "work_id": 79466, "role": "co-producer", "role_id": 915, "is_primary": true}, {"id": 2118680, "title": "Blackout: best kept secret: a profile of Archie Roach singer/songwriter", "work_id": 88120, "role": "co-producers/directors", "role_id": 628, "is_primary": true}, {"id": 2753369, "title": "Magnet earth", "work_id": 98730, "role": "producer", "role_id": 1089, "is_primary": true}, {"id": 2761542, "title": "Hello Universe", "work_id": 77619, "role": "producer", "role_id": 1089, "is_primary": true}, {"id": 2761609, "title": "Invasion of the virions", "work_id": 76881, "role": "producer", "role_id": 1089, "is_primary": true}, {"id": 2761756, "title": "Uranium goes critical", "work_id": 75192, "role": "producer", "role_id": 1089, "is_primary": true}, {"id": 1819431, "title": "The Inside view", "work_id": 76841, "role": "producer", "role_id": 1089, "is_primary": true}, {"id": 1812856, "title": "The Amazing laser", "work_id": 76840, "role": "producer", "role_id": 1089, "is_primary": true}], "also_known_as": "", "date_of_birth": "", "date_of_death": "", "genders": [], "languages": [], "places_of_operation": [], "biography": "", "biography_author": null, "date_of_biography": "2023-05-09T19:54:45.987272+10:00", "external_links": [], "uuid": "0020c756-cd38-43be-ad0b-5715f8221a77", "source": {"name": "Vernon", "slug": "vernon"}, "source_identifier": "27490", "external_references": [{"id": 33223, "source": {"name": "Wikidata", "slug": "wikidata"}, "source_identifier": "Q121057968"}], "date_modified": "2025-03-14T17:35:20.082916+11:00"}, {"id": 19033, "name": "Fisher Dilke", "roles_in_work": [{"id": 2753630, "title": "Pozzuoli: death of a city", "work_id": 98856, "role": "director", "role_id": 938, "is_primary": true}, {"id": 2761461, "title": "Encounter with Jupiter", "work_id": 75187, "role": "producer", "role_id": 1089, "is_primary": true}], "also_known_as": "", "date_of_birth": "", "date_of_death": "", "genders": [], "languages": [], "places_of_operation": [], "biography": "", "biography_author": null, "date_of_biography": "2023-05-09T19:54:44.155724+10:00", "external_links": [], "uuid": "ce788d91-860f-4b4b-ae67-84c102d121e2", "source": {"name": "Vernon", "slug": "vernon"}, "source_identifier": "19014", "external_references": [{"id": 42176, "source": {"name": "Wikidata", "slug": "wikidata"}, "source_identifier": "Q121091194"}], "date_modified": "2025-03-14T17:33:42.087675+11:00"}]}