{"count": 28687, "next": "https://api.acmi.net.au/creators/?page=2385", "previous": "https://api.acmi.net.au/creators/?page=2383", "results": [{"id": 15373, "name": "William Hale", "roles_in_work": [{"id": 2714876, "title": "Grand Central Market", "work_id": 68156, "role": "director", "role_id": 938, "is_primary": true}], "also_known_as": "", "date_of_birth": null, "date_of_death": null, "genders": [], "languages": [], "places_of_operation": [], "biography": "", "biography_author": null, "date_of_biography": null, "external_links": [], "uuid": "dec0dc31-bb7c-4731-ab84-6ff6866cf4b4", "source": {"name": "Vernon", "slug": "vernon"}, "source_identifier": "30440", "external_references": [], "date_modified": "2025-03-12T01:22:08.342782+11:00"}, {"id": 15372, "name": "Summit Film Productions", "roles_in_work": [{"id": 2644993, "title": "The Grand", "work_id": 68155, "role": "production company", "role_id": 941, "is_primary": true}, {"id": 2469679, "title": "Valleys and people", "work_id": 74280, "role": "production company", "role_id": 941, "is_primary": true}, {"id": 2464365, "title": "Nobody told me", "work_id": 70939, "role": "production company", "role_id": 941, "is_primary": true}], "also_known_as": "", "date_of_birth": "", "date_of_death": "", "genders": [], "languages": [], "places_of_operation": [], "biography": "", "biography_author": null, "date_of_biography": "2023-08-14T12:06:27.163674+10:00", "external_links": [], "uuid": "a38f95ee-4e39-4e33-b60d-700807e49a9c", "source": {"name": "Vernon", "slug": "vernon"}, "source_identifier": "13044", "external_references": [], "date_modified": "2025-03-05T12:30:55.847955+11:00"}, {"id": 15371, "name": "David Keith Hardy", "roles_in_work": [{"id": 2714869, "title": "A Grain of sand", "work_id": 68152, "role": "director", "role_id": 938, "is_primary": true}, {"id": 2714868, "title": "A Grain of sand", "work_id": 68152, "role": "co-producer", "role_id": 915, "is_primary": true}], "also_known_as": "", "date_of_birth": "", "date_of_death": "", "genders": [], "languages": [], "places_of_operation": [], "biography": "", "biography_author": null, "date_of_biography": "2023-05-09T11:28:09.724096+10:00", "external_links": [], "uuid": "0e961c8a-d5f4-4f97-89c7-9fe46fd134e2", "source": {"name": "Vernon", "slug": "vernon"}, "source_identifier": "17663", "external_references": [{"id": 43038, "source": {"name": "Wikidata", "slug": "wikidata"}, "source_identifier": "Q121315113"}], "date_modified": "2025-03-12T01:21:46.813563+11:00"}, {"id": 15369, "name": "Rank Aldis Industrial Services", "roles_in_work": [{"id": 2714858, "title": "The Goya effect", "work_id": 68149, "role": "production company", "role_id": 941, "is_primary": true}], "also_known_as": "", "date_of_birth": null, "date_of_death": null, "genders": [], "languages": [], "places_of_operation": [], "biography": "", "biography_author": null, "date_of_biography": null, "external_links": [], "uuid": "e8d76f4a-85a7-4625-8212-1a8006c91b96", "source": {"name": "Vernon", "slug": "vernon"}, "source_identifier": "11855", "external_references": [], "date_modified": "2025-03-12T01:21:40.050148+11:00"}, {"id": 15368, "name": "Playback Associates", "roles_in_work": [{"id": 2755289, "title": "Introduction film for the American Enterprise series", "work_id": 69043, "role": "production company", "role_id": 941, "is_primary": true}, {"id": 2755285, "title": "Government", "work_id": 68148, "role": "production company", "role_id": 941, "is_primary": true}, {"id": 2755287, "title": "Innovation", "work_id": 68951, "role": "production company", "role_id": 941, "is_primary": true}, {"id": 2755292, "title": "Land", "work_id": 69478, "role": "production company", "role_id": 941, "is_primary": true}], "also_known_as": "", "date_of_birth": null, "date_of_death": null, "genders": [], "languages": [], "places_of_operation": [], "biography": "", "biography_author": null, "date_of_biography": null, "external_links": [], "uuid": "38d37173-eff9-4839-99b3-546d7ee61493", "source": {"name": "Vernon", "slug": "vernon"}, "source_identifier": "11521", "external_references": [], "date_modified": "2025-03-13T14:31:52.832682+11:00"}, {"id": 15367, "name": "Centre for Study of Educational Communication and Media", "roles_in_work": [{"id": 2714854, "title": "Got at (TEFC)", "work_id": 68147, "role": "production company", "role_id": 941, "is_primary": true}], "also_known_as": "", "date_of_birth": null, "date_of_death": null, "genders": [], "languages": [], "places_of_operation": [], "biography": "", "biography_author": null, "date_of_biography": null, "external_links": [], "uuid": "821be98c-b002-42cf-82a6-94ee63f7d7e6", "source": {"name": "Vernon", "slug": "vernon"}, "source_identifier": "6446", "external_references": [], "date_modified": "2025-03-12T01:21:36.325531+11:00"}, {"id": 15365, "name": "Igor Scherb", "roles_in_work": [{"id": 857209, "title": "Preventing, helping, healing", "work_id": 71812, "role": "director", "role_id": 938, "is_primary": true}, {"id": 860941, "title": "Women today", "work_id": 74842, "role": "director", "role_id": 938, "is_primary": true}, {"id": 855643, "title": "The Moselle: a victory for Europe", "work_id": 70594, "role": "director", "role_id": 938, "is_primary": true}, {"id": 2408833, "title": "Green light for the traffic of tomorrow", "work_id": 89271, "role": "director", "role_id": 938, "is_primary": true}, {"id": 2644992, "title": "Goods traffic for Europe", "work_id": 68144, "role": "director", "role_id": 938, "is_primary": true}, {"id": 857332, "title": "Property for all", "work_id": 71921, "role": "director", "role_id": 938, "is_primary": true}, {"id": 856060, "title": "No frontiers for kilowatts", "work_id": 70922, "role": "producer/director", "role_id": 31, "is_primary": true}], "also_known_as": "", "date_of_birth": "", "date_of_death": "", "genders": [], "languages": [], "places_of_operation": [], "biography": "", "biography_author": null, "date_of_biography": "2023-08-11T17:09:26.262138+10:00", "external_links": [], "uuid": "1a6ef7c9-2080-4e5e-985f-d452236822ad", "source": {"name": "Vernon", "slug": "vernon"}, "source_identifier": "4508", "external_references": [], "date_modified": "2025-03-05T12:30:54.990050+11:00"}, {"id": 15364, "name": "Victoria. Dept. of Agriculture. Film Unit", "roles_in_work": [{"id": 3110680, "title": "Goodness - it's milk!", "work_id": 68143, "role": "production company", "role_id": 941, "is_primary": true}, {"id": 3110781, "title": "Tomatoes for Troops", "work_id": 119309, "role": "production company", "role_id": 941, "is_primary": true}], "also_known_as": "", "date_of_birth": "", "date_of_death": "", "genders": [], "languages": [], "places_of_operation": [], "biography": "", "biography_author": null, "date_of_biography": "2023-05-09T19:04:45.940651+10:00", "external_links": [], "uuid": "80df5f95-df75-4227-b975-306eb0ccb0a0", "source": {"name": "Vernon", "slug": "vernon"}, "source_identifier": "3934", "external_references": [{"id": 35220, "source": {"name": "Wikidata", "slug": "wikidata"}, "source_identifier": "Q121085998"}], "date_modified": "2026-04-16T15:44:23.297973+10:00"}, {"id": 15363, "name": "Michael G. Ryan", "roles_in_work": [{"id": 2714848, "title": "Good times two", "work_id": 68141, "role": "director", "role_id": 938, "is_primary": true}], "also_known_as": "", "date_of_birth": null, "date_of_death": null, "genders": [], "languages": [], "places_of_operation": [], "biography": "", "biography_author": null, "date_of_biography": null, "external_links": [], "uuid": "a00fecd6-8cd8-4695-beab-32ce420b7675", "source": {"name": "Vernon", "slug": "vernon"}, "source_identifier": "25064", "external_references": [], "date_modified": "2025-03-12T01:21:30.430798+11:00"}, {"id": 15362, "name": "Bud Hollzer", "roles_in_work": [{"id": 2714844, "title": "Good speech for Gary", "work_id": 68140, "role": "director", "role_id": 938, "is_primary": true}], "also_known_as": "", "date_of_birth": null, "date_of_death": null, "genders": [], "languages": [], "places_of_operation": [], "biography": "", "biography_author": null, "date_of_biography": null, "external_links": [], "uuid": "68eb56e8-b668-433a-b69f-c212900df1d0", "source": {"name": "Vernon", "slug": "vernon"}, "source_identifier": "16371", "external_references": [], "date_modified": "2025-03-12T01:21:27.776183+11:00"}]}