{"count": 28687, "next": "https://api.acmi.net.au/creators/?page=245", "previous": "https://api.acmi.net.au/creators/?page=243", "results": [{"id": 83167, "name": "Patricia Moraz", "roles_in_work": [{"id": 3104867, "title": "L'argent = Money", "work_id": 116121, "role": "producer", "role_id": 1089, "is_primary": true}], "also_known_as": "", "date_of_birth": null, "date_of_death": null, "genders": [], "languages": [], "places_of_operation": [], "biography": "", "biography_author": null, "date_of_biography": null, "external_links": [], "uuid": "1347ae16-8135-40ad-99e1-c35eecf5fd53", "source": {"name": "Vernon", "slug": "vernon"}, "source_identifier": "31195", "external_references": [{"id": 32694, "source": {"name": "Wikidata", "slug": "wikidata"}, "source_identifier": "Q121040125"}], "date_modified": "2025-05-22T22:50:55.252024+10:00"}, {"id": 83166, "name": "Jean-Pierre Baste", "roles_in_work": [{"id": 3104866, "title": "L'argent = Money", "work_id": 116121, "role": "producer", "role_id": 1089, "is_primary": true}], "also_known_as": "", "date_of_birth": null, "date_of_death": null, "genders": [], "languages": [], "places_of_operation": [], "biography": "", "biography_author": null, "date_of_biography": null, "external_links": [], "uuid": "8b625353-ae4a-4e80-80a5-3e0abe8cfcb8", "source": {"name": "Vernon", "slug": "vernon"}, "source_identifier": "31194", "external_references": [{"id": 37170, "source": {"name": "Wikidata", "slug": "wikidata"}, "source_identifier": "Q121126258"}], "date_modified": "2025-05-22T22:50:54.644478+10:00"}, {"id": 83165, "name": "Juan Bunuel", "roles_in_work": [{"id": 3105167, "title": "Leonor = Expulsion of the Devil", "work_id": 116279, "role": "director", "role_id": 938, "is_primary": true}, {"id": 3104863, "title": "La Femme Aux Bottes Rouges = the Woman with Red Boots", "work_id": 116119, "role": "director", "role_id": 938, "is_primary": true}], "also_known_as": "Juan Luis Leonarde Buñuel", "date_of_birth": "1934-11-09", "date_of_death": "2017-12-07", "genders": [{"id": 9, "name": "Male", "slug": "male"}], "languages": [{"id": 4, "name": "French", "slug": "french"}], "places_of_operation": [{"id": 17, "name": "France", "slug": "france"}], "biography": "Juan Luis Buñuel (9 November 1934, Paris – 6 December 2017, Paris) was a film and television director, screenwriter, and actor.  His films include Expulsion of the Devil (Au rendez-vous de la mort joyeuse, 1973) and La Femme aux bottes rouges (1974).", "biography_author": "Wikidata", "date_of_biography": "2023-09-05T21:52:42.071208+10:00", "external_links": [{"id": 2483, "uri": "https://en.wikipedia.org/wiki/Juan_Luis_Bu%C3%B1uel"}], "uuid": "537a3a77-8dbd-4358-a668-687e0928dc06", "source": {"name": "Vernon", "slug": "vernon"}, "source_identifier": "30961", "external_references": [{"id": 10618, "source": {"name": "Wikidata", "slug": "wikidata"}, "source_identifier": "Q1710546"}, {"id": 10619, "source": {"name": "VIAF", "slug": "viaf"}, "source_identifier": "37176789"}, {"id": 10620, "source": {"name": "LOC Auth", "slug": "loc-auth"}, "source_identifier": "no2001101354"}, {"id": 10621, "source": {"name": "WorldCat", "slug": "worldcat"}, "source_identifier": "lccn-no2001101354"}], "date_modified": "2025-05-22T22:57:18.359071+10:00"}, {"id": 83164, "name": "Raymond Vogel", "roles_in_work": [{"id": 3104862, "title": "La Femme Aux Bottes Rouges = the Woman with Red Boots", "work_id": 116119, "role": "producer", "role_id": 1089, "is_primary": true}], "also_known_as": "", "date_of_birth": "", "date_of_death": "", "genders": [], "languages": [], "places_of_operation": [], "biography": "", "biography_author": null, "date_of_biography": "2023-08-11T19:10:45.813407+10:00", "external_links": [], "uuid": "1b6c5ed1-c569-48f8-b3a5-8a13da91fa06", "source": {"name": "Vernon", "slug": "vernon"}, "source_identifier": "31192", "external_references": [{"id": 39147, "source": {"name": "Wikidata", "slug": "wikidata"}, "source_identifier": "Q121035868"}], "date_modified": "2025-05-22T22:50:51.643473+10:00"}, {"id": 83163, "name": "Jordan Bojillon", "roles_in_work": [{"id": 3104861, "title": "La Femme Aux Bottes Rouges = the Woman with Red Boots", "work_id": 116119, "role": "producer", "role_id": 1089, "is_primary": true}], "also_known_as": "", "date_of_birth": "", "date_of_death": "", "genders": [], "languages": [], "places_of_operation": [], "biography": "", "biography_author": null, "date_of_biography": "2023-08-11T19:10:45.151505+10:00", "external_links": [], "uuid": "5ed25d05-3678-4eaf-9149-93bdc1d13a0b", "source": {"name": "Vernon", "slug": "vernon"}, "source_identifier": "31191", "external_references": [{"id": 39021, "source": {"name": "Wikidata", "slug": "wikidata"}, "source_identifier": "Q121126610"}], "date_modified": "2025-05-22T22:50:51.039435+10:00"}, {"id": 83162, "name": "Robert Hossein", "roles_in_work": [{"id": 3104858, "title": "Au Coeur de la Vie = in the Heart of Life", "work_id": 116118, "role": "producer", "role_id": 1089, "is_primary": true}], "also_known_as": "Abraham Hosseinoff", "date_of_birth": "30 DEC 1927", "date_of_death": "31 DEC 2020", "genders": [{"id": 9, "name": "Male", "slug": "male"}], "languages": [{"id": 4, "name": "French", "slug": "french"}, {"id": 3, "name": "Russian", "slug": "russian"}], "places_of_operation": [{"id": 17, "name": "France", "slug": "france"}], "biography": "Robert Hossein (30 December 1927 – 31 December 2020) was a French film actor, director, and writer. He directed the 1982 adaptation of Les Misérables and appeared in Vice and Virtue, Le Casse, Les Uns et les Autres and Venus Beauty Institute. His other roles include Michèle Mercier's husband in the Angélique series, a gunfighter in the Spaghetti Western Cemetery Without Crosses (which he also directed and co-wrote), and a Catholic priest who falls in love with Claude Jade and becomes a communist in Forbidden Priests. Source: Wikidata; 01/08/2023", "biography_author": null, "date_of_biography": "2025-05-22T22:50:48.991303+10:00", "external_links": [{"id": 5021, "uri": "https://en.wikipedia.org/wiki/Robert_Hossein"}], "uuid": "4313dc91-cd43-404b-b116-c45e06592050", "source": {"name": "Vernon", "slug": "vernon"}, "source_identifier": "31190", "external_references": [{"id": 25379, "source": {"name": "Wikidata", "slug": "wikidata"}, "source_identifier": "Q375290"}, {"id": 31171, "source": {"name": "VIAF", "slug": "viaf"}, "source_identifier": "68731836"}, {"id": 31172, "source": {"name": "LOC Auth", "slug": "loc-auth"}, "source_identifier": "no2008026965"}, {"id": 31173, "source": {"name": "WorldCat", "slug": "worldcat"}, "source_identifier": "lccn-n79109996"}], "date_modified": "2025-05-22T22:50:48.991563+10:00"}, {"id": 83161, "name": "Henry Deutschmeister", "roles_in_work": [{"id": 3104857, "title": "Au Coeur de la Vie = in the Heart of Life", "work_id": 116118, "role": "producer", "role_id": 1089, "is_primary": true}], "also_known_as": "", "date_of_birth": "", "date_of_death": "", "genders": [], "languages": [], "places_of_operation": [], "biography": "", "biography_author": null, "date_of_biography": "2023-05-09T12:35:25.112446+10:00", "external_links": [], "uuid": "32b32d3b-ad0d-4527-8060-dcafde21b901", "source": {"name": "Vernon", "slug": "vernon"}, "source_identifier": "31189", "external_references": [{"id": 35724, "source": {"name": "Wikidata", "slug": "wikidata"}, "source_identifier": "Q121079223"}], "date_modified": "2025-05-22T22:50:48.382726+10:00"}, {"id": 83160, "name": "Michele Arnaud", "roles_in_work": [{"id": 3104853, "title": "Les Nouveaux Realistes", "work_id": 116116, "role": "producer", "role_id": 1089, "is_primary": true}], "also_known_as": "", "date_of_birth": null, "date_of_death": null, "genders": [], "languages": [], "places_of_operation": [], "biography": "", "biography_author": null, "date_of_biography": null, "external_links": [], "uuid": "75c43fd6-8ece-481b-ac24-be8a0e895fdf", "source": {"name": "Vernon", "slug": "vernon"}, "source_identifier": "31188", "external_references": [{"id": 42960, "source": {"name": "Wikidata", "slug": "wikidata"}, "source_identifier": "Q121315216"}], "date_modified": "2025-05-22T22:50:45.468490+10:00"}, {"id": 83159, "name": "Jean Herman", "roles_in_work": [{"id": 3104850, "title": "Adieu L'ami = So Long, Friend", "work_id": 116114, "role": "director", "role_id": 938, "is_primary": true}], "also_known_as": "", "date_of_birth": "", "date_of_death": "", "genders": [], "languages": [], "places_of_operation": [], "biography": "", "biography_author": null, "date_of_biography": "2023-05-09T11:49:17.238785+10:00", "external_links": [], "uuid": "70e522ce-910f-4843-8408-4361eed9f3b9", "source": {"name": "Vernon", "slug": "vernon"}, "source_identifier": "31187", "external_references": [{"id": 37980, "source": {"name": "Wikidata", "slug": "wikidata"}, "source_identifier": "Q121091262"}], "date_modified": "2025-05-22T22:50:44.418311+10:00"}, {"id": 83158, "name": "Jean-Claude Brialy", "roles_in_work": [{"id": 3104848, "title": "Un Bon Petit Diable = a Sweet Little Devil", "work_id": 116113, "role": "director", "role_id": 938, "is_primary": true}], "also_known_as": "Jean-Claude Marcel Brialy", "date_of_birth": "1933", "date_of_death": "2007-05-30", "genders": [{"id": 9, "name": "Male", "slug": "male"}], "languages": [{"id": 4, "name": "French", "slug": "french"}], "places_of_operation": [{"id": 17, "name": "France", "slug": "france"}], "biography": "Jean-Claude Brialy (30 March 1933 – 30 May 2007) was a French actor and film director.", "biography_author": "Wikidata", "date_of_biography": "2023-08-15T11:19:15.591616+10:00", "external_links": [{"id": 2333, "uri": "https://en.wikipedia.org/wiki/Jean-Claude_Brialy"}], "uuid": "bb2a5122-8989-45bf-a3a8-51ac8a724d8d", "source": {"name": "Vernon", "slug": "vernon"}, "source_identifier": "31186", "external_references": [{"id": 10005, "source": {"name": "Wikidata", "slug": "wikidata"}, "source_identifier": "Q106326"}, {"id": 10006, "source": {"name": "VIAF", "slug": "viaf"}, "source_identifier": "100246484"}, {"id": 10007, "source": {"name": "LOC Auth", "slug": "loc-auth"}, "source_identifier": "n93069000"}, {"id": 10008, "source": {"name": "WorldCat", "slug": "worldcat"}, "source_identifier": "lccn-n93069000"}], "date_modified": "2025-05-22T22:50:42.867628+10:00"}]}