{"count": 28684, "next": "https://api.acmi.net.au/creators/?page=2022", "previous": "https://api.acmi.net.au/creators/?page=2020", "results": [{"id": 22140, "name": "Walter Lang", "roles_in_work": [{"id": 1986509, "title": "The Little princess (Captioned)", "work_id": 82753, "role": "director", "role_id": 938, "is_primary": true}, {"id": 1987354, "title": "Moon over Miami", "work_id": 83492, "role": "director", "role_id": 938, "is_primary": true}, {"id": 2289731, "title": "There's no business like show business", "work_id": 84670, "role": "director", "role_id": 938, "is_primary": true}, {"id": 2358072, "title": "The King and I", "work_id": 81199, "role": "director", "role_id": 938, "is_primary": true}, {"id": 2310295, "title": "State fair", "work_id": 81476, "role": "director", "role_id": 938, "is_primary": true}, {"id": 1984292, "title": "The Little princess", "work_id": 79686, "role": "director", "role_id": 938, "is_primary": true}, {"id": 2129084, "title": "Can-can", "work_id": 84608, "role": "director", "role_id": 938, "is_primary": true}, {"id": 902040, "title": "The Red balloon. The Little princess", "work_id": 82787, "role": "co-director", "role_id": 959, "is_primary": true}], "also_known_as": "", "date_of_birth": "1896-08-10", "date_of_death": "1972-02-07", "genders": [{"id": 9, "name": "Male", "slug": "male"}], "languages": [{"id": 1, "name": "English", "slug": "english"}], "places_of_operation": [{"id": 1, "name": "United States of America", "slug": "united-states-of-america"}], "biography": "Walter Lang (August 10, 1896 – February 7, 1972) was an American film director.", "biography_author": "Wikidata", "date_of_biography": "2022-05-19T13:20:28.746566+10:00", "external_links": [{"id": 3269, "uri": "https://en.wikipedia.org/wiki/Walter_Lang"}], "uuid": "1b64c41a-1ab9-4a94-970f-9f23e123b82f", "source": {"name": "Vernon", "slug": "vernon"}, "source_identifier": "3731", "external_references": [{"id": 13832, "source": {"name": "Wikidata", "slug": "wikidata"}, "source_identifier": "Q269796"}, {"id": 13833, "source": {"name": "VIAF", "slug": "viaf"}, "source_identifier": "12495289"}, {"id": 13834, "source": {"name": "LOC Auth", "slug": "loc-auth"}, "source_identifier": "n87911812"}, {"id": 13835, "source": {"name": "WorldCat", "slug": "worldcat"}, "source_identifier": "lccn-n87911812"}], "date_modified": "2023-09-13T12:33:13.138848+10:00"}, {"id": 22138, "name": "Filmgroup", "roles_in_work": [{"id": 1999043, "title": "The Little shop of horrors [DVD]", "work_id": 94268, "role": "production company", "role_id": 941, "is_primary": true}, {"id": 2267403, "title": "The Terror. Ghosts on the loose", "work_id": 92745, "role": "production company", "role_id": 941, "is_primary": true}, {"id": 2267382, "title": "The Terror", "work_id": 94273, "role": "production company", "role_id": 941, "is_primary": true}, {"id": 1984913, "title": "I hate your guts = The Intruder = The Informer", "work_id": 80896, "role": "production company", "role_id": 941, "is_primary": true}], "also_known_as": "", "date_of_birth": "", "date_of_death": "", "genders": [], "languages": [], "places_of_operation": [], "biography": "", "biography_author": null, "date_of_biography": "2023-05-09T17:39:47.273728+10:00", "external_links": [], "uuid": "45d48e39-fa1f-4fbb-9d46-0c1bedefdbc9", "source": {"name": "Vernon", "slug": "vernon"}, "source_identifier": "8280", "external_references": [], "date_modified": "2023-06-14T16:33:30.576250+10:00"}, {"id": 22137, "name": "William Wellman", "roles_in_work": [{"id": 2074755, "title": "A Star is born [DVD]", "work_id": 94275, "role": "director", "role_id": 938, "is_primary": true}, {"id": 913789, "title": "Beggars of life [NTSC]", "work_id": 93501, "role": "director", "role_id": 938, "is_primary": true}, {"id": 2175140, "title": "Darby's rangers = The Young invaders", "work_id": 88503, "role": "director", "role_id": 938, "is_primary": true}, {"id": 2109018, "title": "Battleground", "work_id": 88463, "role": "director", "role_id": 938, "is_primary": true}, {"id": 1988139, "title": "The Public enemy", "work_id": 84524, "role": "director", "role_id": 938, "is_primary": true}, {"id": 1991321, "title": "Nothing sacred", "work_id": 86949, "role": "director", "role_id": 938, "is_primary": true}, {"id": 2120514, "title": "Blood alley", "work_id": 88467, "role": "director", "role_id": 938, "is_primary": true}, {"id": 1999679, "title": "Nothing sacred", "work_id": 94652, "role": "director", "role_id": 938, "is_primary": true}, {"id": 1997597, "title": "Lady of burlesque", "work_id": 93380, "role": "director", "role_id": 938, "is_primary": true}], "also_known_as": "William Augustus Wellman", "date_of_birth": "1896-02-29", "date_of_death": "1975-12-09", "genders": [{"id": 9, "name": "Male", "slug": "male"}], "languages": [{"id": 1, "name": "English", "slug": "english"}], "places_of_operation": [{"id": 1, "name": "United States of America", "slug": "united-states-of-america"}], "biography": "William Augustus Wellman  (February 29, 1896 – December 9, 1975) was an American film director known for his work in crime, adventure, and action genre films, often focusing on aviation themes, a particular passion. He also directed several well-regarded satirical comedies. Beginning his film career as an actor, he went on to direct over 80 films, at times co-credited as producer and consultant. In 1927, Wellman directed Wings, which became the first film to win an Academy Award for Best Picture at the 1st Academy Awards ceremony.", "biography_author": "Wikidata", "date_of_biography": "2022-05-19T13:23:06+10:00", "external_links": [{"id": 3295, "uri": "https://en.wikipedia.org/wiki/William_A._Wellman"}], "uuid": "a236cc29-c5dc-46a5-81f8-c753d3ea4af1", "source": {"name": "Vernon", "slug": "vernon"}, "source_identifier": "30367", "external_references": [{"id": 13940, "source": {"name": "Wikidata", "slug": "wikidata"}, "source_identifier": "Q290962"}, {"id": 13941, "source": {"name": "VIAF", "slug": "viaf"}, "source_identifier": "44500560"}, {"id": 13942, "source": {"name": "LOC Auth", "slug": "loc-auth"}, "source_identifier": "n82129116"}, {"id": 13943, "source": {"name": "WorldCat", "slug": "worldcat"}, "source_identifier": "lccn-n82129116"}], "date_modified": "2023-09-13T15:16:10.803435+10:00"}, {"id": 22136, "name": "Archie Mayo", "roles_in_work": [{"id": 2072401, "title": "A Night in Casablanca", "work_id": 86475, "role": "director", "role_id": 938, "is_primary": true}, {"id": 1984289, "title": "Angel on my shoulder", "work_id": 79685, "role": "director", "role_id": 938, "is_primary": true}, {"id": 2326403, "title": "The Adventures of Marco Polo", "work_id": 85190, "role": "director", "role_id": 938, "is_primary": true}], "also_known_as": "Archibald Louis Mayo", "date_of_birth": "1891-01-29", "date_of_death": "1968-12-04", "genders": [{"id": 9, "name": "Male", "slug": "male"}], "languages": [{"id": 1, "name": "English", "slug": "english"}], "places_of_operation": [{"id": 1, "name": "United States of America", "slug": "united-states-of-america"}], "biography": "Archibald L. Mayo (January 29, 1891 – December 4, 1968) was a film director, screenwriter and actor.", "biography_author": "Wikidata", "date_of_biography": "2022-05-19T10:51:48.639128+10:00", "external_links": [{"id": 1674, "uri": "https://en.wikipedia.org/wiki/Archie_Mayo"}], "uuid": "69d3636a-a5af-46c2-b21a-63460b6b68fe", "source": {"name": "Vernon", "slug": "vernon"}, "source_identifier": "15448", "external_references": [{"id": 7299, "source": {"name": "Wikidata", "slug": "wikidata"}, "source_identifier": "Q633939"}, {"id": 7300, "source": {"name": "VIAF", "slug": "viaf"}, "source_identifier": "7595404"}, {"id": 7301, "source": {"name": "LOC Auth", "slug": "loc-auth"}, "source_identifier": "n88132416"}, {"id": 7302, "source": {"name": "WorldCat", "slug": "worldcat"}, "source_identifier": "lccn-n88132416"}], "date_modified": "2023-09-13T12:28:17.481946+10:00"}, {"id": 22135, "name": "Charles R. Rogers", "roles_in_work": [{"id": 1984288, "title": "Angel on my shoulder", "work_id": 79685, "role": "producer", "role_id": 1089, "is_primary": true}], "also_known_as": "", "date_of_birth": "1892-07-15", "date_of_death": "1957-03-29", "genders": [{"id": 9, "name": "Male", "slug": "male"}], "languages": [], "places_of_operation": [{"id": 1, "name": "United States of America", "slug": "united-states-of-america"}], "biography": "Charles R. Rogers (July 15, 1892 – March 29, 1957), was an American film producer whose career spanned both the silent and sound film eras. Rogers began his career on the 1924 silent film, A Cafe in Cairo, produced by the short-lived Hunt Stromberg Productions. After Stromberg ceased productions in 1925, Rogers would found his own independent company, Charles R. Rogers Productions.  He would also produce for major studios such as RKO Radio Pictures, Universal, and United Artists.  The pinnacle of his career would be from 1936 to 1938 when he was chosen as the vice-president in charge of production for Universal Pictures. He died as the result of injuries sustained in a car accident in 1957.", "biography_author": "Wikidata", "date_of_biography": "2022-05-19T11:03:26.922432+10:00", "external_links": [{"id": 1798, "uri": "https://en.wikipedia.org/wiki/Charles_R._Rogers"}], "uuid": "9a762476-87ef-4417-84a5-b13dbfe09d67", "source": {"name": "Vernon", "slug": "vernon"}, "source_identifier": "16717", "external_references": [{"id": 7829, "source": {"name": "Wikidata", "slug": "wikidata"}, "source_identifier": "Q18346370"}, {"id": 7830, "source": {"name": "VIAF", "slug": "viaf"}, "source_identifier": "65538821"}, {"id": 7831, "source": {"name": "LOC Auth", "slug": "loc-auth"}, "source_identifier": "n87916653"}, {"id": 7832, "source": {"name": "WorldCat", "slug": "worldcat"}, "source_identifier": "lccn-n87916653"}], "date_modified": "2023-09-13T12:28:41.223664+10:00"}, {"id": 22134, "name": "Bill Hughes", "roles_in_work": [{"id": 3084112, "title": "Janus. Eps 13 and 14: Burden of proof. A Lawful apprehension", "work_id": 91624, "role": "co-director", "role_id": 959, "is_primary": true}, {"id": 3084230, "title": "Phoenix. Eps. 21-22", "work_id": 91592, "role": "producer", "role_id": 1089, "is_primary": true}, {"id": 3084239, "title": "Phoenix. Eps. 23-24", "work_id": 91591, "role": "producer", "role_id": 1089, "is_primary": true}, {"id": 3084249, "title": "Phoenix. Eps. 25-26", "work_id": 91590, "role": "producer", "role_id": 1089, "is_primary": true}, {"id": 3084258, "title": "Phoenix", "work_id": 115586, "role": "producer", "role_id": 1089, "is_primary": true}, {"id": 2069210, "title": "A Fortunate life", "work_id": 79681, "role": "producer", "role_id": 1089, "is_primary": true}, {"id": 2135001, "title": "Changi. Eps. 1-3", "work_id": 92730, "role": "producer", "role_id": 1089, "is_primary": true}, {"id": 2135013, "title": "Changi. Eps. 4-6", "work_id": 92729, "role": "producer", "role_id": 1089, "is_primary": true}, {"id": 1810441, "title": "The Farm", "work_id": 90976, "role": "producer", "role_id": 1089, "is_primary": true}, {"id": 2356476, "title": "The Interview [DVD]", "work_id": 92666, "role": "producer", "role_id": 1089, "is_primary": true}, {"id": 3084166, "title": "Phoenix. Eps. 05-06", "work_id": 91583, "role": "producer", "role_id": 1089, "is_primary": true}, {"id": 3084069, "title": "Janus. Eps 19 and 20: Confess and avoid. A Prima facie case", "work_id": 91617, "role": "producer", "role_id": 1089, "is_primary": true}, {"id": 3084073, "title": "Janus. Eps 17 and 18: Right to remain silent. My learned friend, Mr Hennessey", "work_id": 91618, "role": "producer", "role_id": 1089, "is_primary": true}, {"id": 3084079, "title": "Janus. Eps 11 and 12: Without prejudice. Improper influences", "work_id": 91619, "role": "producer", "role_id": 1089, "is_primary": true}, {"id": 3084086, "title": "Janus. Eps 23 and 24: Breach of bond. An Unnatural act", "work_id": 91620, "role": "producer", "role_id": 1089, "is_primary": true}, {"id": 3084091, "title": "Janus. Eps 21 and 22: Demands with menaces. Fit to plead", "work_id": 91621, "role": "producer", "role_id": 1089, "is_primary": true}, {"id": 3084098, "title": "Janus. Eps 09 and 10: A Mischievous offence. A Familiar utterance", "work_id": 91622, "role": "producer", "role_id": 1089, "is_primary": true}, {"id": 3084104, "title": "Janus. Eps 15 and 16: Suicide by cop. Intent to permanently deprive", "work_id": 91623, "role": "producer", "role_id": 1089, "is_primary": true}, {"id": 3084110, "title": "Janus. Eps 13 and 14: Burden of proof. A Lawful apprehension", "work_id": 91624, "role": "producer", "role_id": 1089, "is_primary": true}, {"id": 3084116, "title": "Janus. Eps 05 and 06: Judgement amongst short men. Reckless indifference", "work_id": 91632, "role": "producer", "role_id": 1089, "is_primary": true}, {"id": 3084122, "title": "Janus. Eps 03 and 04: Not on the merits. A Rare crushing reversal", "work_id": 91634, "role": "producer", "role_id": 1089, "is_primary": true}, {"id": 3084128, "title": "Janus. Eps 07 and 08: Without consent. Fail to appear", "work_id": 91699, "role": "producer", "role_id": 1089, "is_primary": true}, {"id": 3084134, "title": "Janus. Eps 01 and 02: Malice aforethought", "work_id": 91635, "role": "producer", "role_id": 1089, "is_primary": true}, {"id": 3084139, "title": "Janus", "work_id": 115584, "role": "producer", "role_id": 1089, "is_primary": true}, {"id": 3084159, "title": "Phoenix. Eps. 03-04", "work_id": 91581, "role": "producer", "role_id": 1089, "is_primary": true}, {"id": 3084063, "title": "Janus. Eps 25 and 26: Mute by visitation. Elements of murder", "work_id": 91616, "role": "producer", "role_id": 1089, "is_primary": true}, {"id": 3084175, "title": "Phoenix. Eps. 07-08", "work_id": 91584, "role": "producer", "role_id": 1089, "is_primary": true}, {"id": 3084182, "title": "Phoenix. Eps. 09-10", "work_id": 91585, "role": "producer", "role_id": 1089, "is_primary": true}, {"id": 3084191, "title": "Phoenix. Eps. 11-12", "work_id": 91582, "role": "producer", "role_id": 1089, "is_primary": true}, {"id": 3084198, "title": "Phoenix. Eps. 13-14", "work_id": 91586, "role": "producer", "role_id": 1089, "is_primary": true}, {"id": 3084204, "title": "Phoenix. Eps. 15-16", "work_id": 91587, "role": "producer", "role_id": 1089, "is_primary": true}, {"id": 3084210, "title": "Phoenix. Eps. 17-18", "work_id": 91588, "role": "producer", "role_id": 1089, "is_primary": true}, {"id": 3084220, "title": "Phoenix. Eps. 19-20", "work_id": 91589, "role": "producer", "role_id": 1089, "is_primary": true}], "also_known_as": "", "date_of_birth": "1944-06-03", "date_of_death": "", "genders": [], "languages": [], "places_of_operation": [], "biography": "", "biography_author": null, "date_of_biography": "2023-05-09T20:04:43.615444+10:00", "external_links": [], "uuid": "653ef526-9ba6-4b3f-85a7-c57c40af8de2", "source": {"name": "Vernon", "slug": "vernon"}, "source_identifier": "15968", "external_references": [{"id": 51931, "source": {"name": "Wikidata", "slug": "wikidata"}, "source_identifier": "Q118054417"}], "date_modified": "2025-03-17T10:35:53.636877+11:00"}, {"id": 22131, "name": "Alliance Pictures", "roles_in_work": [{"id": 2076255, "title": "A Tribute to the Wild West: Proud Rebel / Kansas Pacific", "work_id": 79680, "role": "production company", "role_id": 941, "is_primary": true}], "also_known_as": "", "date_of_birth": "", "date_of_death": "", "genders": [], "languages": [], "places_of_operation": [], "biography": "", "biography_author": null, "date_of_biography": "2023-05-09T11:41:08.651753+10:00", "external_links": [], "uuid": "629c975e-dd71-413d-bb3b-fcebeee08687", "source": {"name": "Vernon", "slug": "vernon"}, "source_identifier": "5143", "external_references": [{"id": 40532, "source": {"name": "Wikidata", "slug": "wikidata"}, "source_identifier": "Q121222574"}], "date_modified": "2023-09-05T17:30:01.185629+10:00"}, {"id": 22130, "name": "John Woolf", "roles_in_work": [{"id": 1998845, "title": "The Day of the jackal [DVD]", "work_id": 94108, "role": "director", "role_id": 938, "is_primary": true}, {"id": 2253945, "title": "Room at the top", "work_id": 84259, "role": "producer", "role_id": 1089, "is_primary": true}], "also_known_as": "", "date_of_birth": "", "date_of_death": "", "genders": [], "languages": [], "places_of_operation": [], "biography": "", "biography_author": null, "date_of_biography": "2023-05-09T17:14:56.880588+10:00", "external_links": [], "uuid": "568d69d4-3f70-4ca8-b71a-97b1d5984f7f", "source": {"name": "Vernon", "slug": "vernon"}, "source_identifier": "22589", "external_references": [{"id": 43376, "source": {"name": "Wikidata", "slug": "wikidata"}, "source_identifier": "Q121143829"}], "date_modified": "2023-09-05T21:46:23.708911+10:00"}, {"id": 22127, "name": "Paul Radin", "roles_in_work": [{"id": 2122422, "title": "Born Free", "work_id": 79679, "role": "co-producer", "role_id": 915, "is_primary": true}, {"id": 1989257, "title": "Living free", "work_id": 85081, "role": "producer", "role_id": 1089, "is_primary": true}], "also_known_as": "", "date_of_birth": "1883-04-02", "date_of_death": "1959-02-21", "genders": [{"id": 9, "name": "Male", "slug": "male"}], "languages": [{"id": 1, "name": "English", "slug": "english"}], "places_of_operation": [{"id": 1, "name": "United States of America", "slug": "united-states-of-america"}], "biography": "Paul Radin (April 2, 1883 – February 21, 1959) was an American cultural anthropologist and folklorist of the early twentieth century specializing in Native American languages and cultures. The noted legal scholar Max Radin was his older brother.", "biography_author": "Wikidata", "date_of_biography": "2023-08-01T16:31:14.838878+10:00", "external_links": [{"id": 4853, "uri": "https://en.wikipedia.org/wiki/Paul_Radin"}], "uuid": "a3498412-29aa-4e7d-aeb3-562610c4be46", "source": {"name": "Vernon", "slug": "vernon"}, "source_identifier": "26316", "external_references": [{"id": 25316, "source": {"name": "Wikidata", "slug": "wikidata"}, "source_identifier": "Q557443"}, {"id": 30721, "source": {"name": "VIAF", "slug": "viaf"}, "source_identifier": "9852369"}, {"id": 30722, "source": {"name": "LOC Auth", "slug": "loc-auth"}, "source_identifier": "n50052440"}, {"id": 30723, "source": {"name": "WorldCat", "slug": "worldcat"}, "source_identifier": "lccn-n50052440"}], "date_modified": "2023-09-05T23:49:10.490152+10:00"}, {"id": 22122, "name": "Louise Clark", "roles_in_work": [{"id": 1803681, "title": "All that Bach", "work_id": 80483, "role": "producer", "role_id": 1089, "is_primary": true}, {"id": 2077567, "title": "A Winter Tan", "work_id": 79671, "role": "producer", "role_id": 1089, "is_primary": true}], "also_known_as": "", "date_of_birth": "", "date_of_death": "", "genders": [], "languages": [], "places_of_operation": [], "biography": "", "biography_author": null, "date_of_biography": "2023-05-09T11:43:01.885754+10:00", "external_links": [], "uuid": "a21d4a48-3f0c-40a5-9189-73c7b5fc718c", "source": {"name": "Vernon", "slug": "vernon"}, "source_identifier": "24038", "external_references": [{"id": 51010, "source": {"name": "Wikidata", "slug": "wikidata"}, "source_identifier": "Q121357432"}], "date_modified": "2023-09-05T22:32:07.595444+10:00"}]}