{"count": 28687, "next": "https://api.acmi.net.au/creators/?page=262", "previous": "https://api.acmi.net.au/creators/?page=260", "results": [{"id": 82997, "name": "Pierre Caro", "roles_in_work": [{"id": 3104388, "title": "Le Vieux Fusil = the Old Gun", "work_id": 115890, "role": "producer", "role_id": 1089, "is_primary": true}], "also_known_as": "", "date_of_birth": null, "date_of_death": null, "genders": [], "languages": [], "places_of_operation": [], "biography": "", "biography_author": null, "date_of_biography": null, "external_links": [], "uuid": "87e2278d-e7a5-4fd9-b122-2cefbf4e260e", "source": {"name": "Vernon", "slug": "vernon"}, "source_identifier": "31031", "external_references": [{"id": 33912, "source": {"name": "Wikidata", "slug": "wikidata"}, "source_identifier": "Q121086020"}], "date_modified": "2025-05-22T22:40:15.295631+10:00"}, {"id": 82996, "name": "Jacques Plante", "roles_in_work": [{"id": 3104574, "title": "Tout L'or du Monde = All the Gold in the World", "work_id": 115981, "role": "producer", "role_id": 1089, "is_primary": true}, {"id": 3104386, "title": "Classe Tous Risques = the Big Risk", "work_id": 115889, "role": "producer", "role_id": 1089, "is_primary": true}], "also_known_as": "", "date_of_birth": "", "date_of_death": "", "genders": [], "languages": [], "places_of_operation": [], "biography": "", "biography_author": null, "date_of_biography": "2023-05-09T13:33:43.586818+10:00", "external_links": [], "uuid": "611c13ef-cfd1-4c04-8874-dca499a0146f", "source": {"name": "Vernon", "slug": "vernon"}, "source_identifier": "31030", "external_references": [{"id": 40749, "source": {"name": "Wikidata", "slug": "wikidata"}, "source_identifier": "Q121034179"}], "date_modified": "2025-05-22T22:42:26.481591+10:00"}, {"id": 82995, "name": "Robert Amon", "roles_in_work": [{"id": 3104385, "title": "Classe Tous Risques = the Big Risk", "work_id": 115889, "role": "producer", "role_id": 1089, "is_primary": true}], "also_known_as": "", "date_of_birth": "", "date_of_death": "", "genders": [], "languages": [], "places_of_operation": [], "biography": "", "biography_author": null, "date_of_biography": "2023-05-09T13:33:43.357440+10:00", "external_links": [], "uuid": "1c2795e7-52c7-4e69-99ac-da044d16ed5d", "source": {"name": "Vernon", "slug": "vernon"}, "source_identifier": "31029", "external_references": [{"id": 43380, "source": {"name": "Wikidata", "slug": "wikidata"}, "source_identifier": "Q121222846"}], "date_modified": "2025-05-22T22:40:13.231275+10:00"}, {"id": 82994, "name": "Jean Darvey", "roles_in_work": [{"id": 3104384, "title": "Classe Tous Risques = the Big Risk", "work_id": 115889, "role": "producer", "role_id": 1089, "is_primary": true}], "also_known_as": "", "date_of_birth": "", "date_of_death": "", "genders": [], "languages": [], "places_of_operation": [], "biography": "", "biography_author": null, "date_of_biography": "2023-05-09T13:33:43.117885+10:00", "external_links": [], "uuid": "20f15d8a-db8e-4892-adf3-6ab27feaa5b9", "source": {"name": "Vernon", "slug": "vernon"}, "source_identifier": "31028", "external_references": [{"id": 38340, "source": {"name": "Wikidata", "slug": "wikidata"}, "source_identifier": "Q121126366"}], "date_modified": "2025-05-22T22:40:12.605563+10:00"}, {"id": 82993, "name": "Alain Robbe-Grillet", "roles_in_work": [{"id": 3104633, "title": "L'homme Qui Ment = the Man Who Lies", "work_id": 116008, "role": "director", "role_id": 938, "is_primary": true}, {"id": 3104383, "title": "Glissements Progressifs du Plaisir = Successive Slidings Of Pleasure", "work_id": 115888, "role": "director", "role_id": 938, "is_primary": true}, {"id": 3104983, "title": "Trans Europ Express", "work_id": 116187, "role": "director", "role_id": 938, "is_primary": true}, {"id": 3104879, "title": "L'immortelle = the Immortal Woman", "work_id": 116127, "role": "director", "role_id": 938, "is_primary": true}, {"id": 3104720, "title": "Eden et Apres = Eden and After", "work_id": 116053, "role": "director", "role_id": 938, "is_primary": true}], "also_known_as": "Alain Paul Robbe-Grillet", "date_of_birth": "18 AUG 1922", "date_of_death": "18 FEB 2008", "genders": [{"id": 9, "name": "Male", "slug": "male"}], "languages": [{"id": 4, "name": "French", "slug": "french"}], "places_of_operation": [{"id": 17, "name": "France", "slug": "france"}], "biography": "Alain Robbe-Grillet (French: [a.lɛ̃ ʁɔb ɡʁi.jɛ]; 18 August 1922 – 18 February 2008) was a French writer and filmmaker. He was one of the figures most associated with the Nouveau Roman (lit. 'new novel') trend of the 1960s, along with Nathalie Sarraute, Michel Butor and Claude Simon. Alain Robbe-Grillet was elected a member of the Académie française on 25 March 2004, succeeding Maurice Rheims at seat No. 32. He was married to Catherine Robbe-Grillet (née Rstakian). Source: Wikidata; 01/08/2023", "biography_author": null, "date_of_biography": "2025-05-22T22:55:05.609098+10:00", "external_links": [{"id": 3495, "uri": "https://en.wikipedia.org/wiki/Alain_Robbe-Grillet"}], "uuid": "06d77a1c-839b-46d5-a7b5-994b179ad4b3", "source": {"name": "Vernon", "slug": "vernon"}, "source_identifier": "31027", "external_references": [{"id": 25259, "source": {"name": "Wikidata", "slug": "wikidata"}, "source_identifier": "Q216266"}, {"id": 27116, "source": {"name": "VIAF", "slug": "viaf"}, "source_identifier": "98153286"}, {"id": 27117, "source": {"name": "LOC Auth", "slug": "loc-auth"}, "source_identifier": "n80037046"}, {"id": 27118, "source": {"name": "WorldCat", "slug": "worldcat"}, "source_identifier": "lccn-n80037046"}], "date_modified": "2025-05-22T22:55:05.609324+10:00"}, {"id": 82992, "name": "Marcel Sebaoun", "roles_in_work": [{"id": 3104555, "title": "Trois Milliards Sans Ascenseur", "work_id": 115972, "role": "producer", "role_id": 1089, "is_primary": true}, {"id": 3104382, "title": "Glissements Progressifs du Plaisir = Successive Slidings Of Pleasure", "work_id": 115888, "role": "producer", "role_id": 1089, "is_primary": true}], "also_known_as": "", "date_of_birth": null, "date_of_death": null, "genders": [], "languages": [], "places_of_operation": [], "biography": "", "biography_author": null, "date_of_biography": null, "external_links": [], "uuid": "fb66da06-5971-4fab-a65a-a2bb607be3a9", "source": {"name": "Vernon", "slug": "vernon"}, "source_identifier": "30939", "external_references": [{"id": 40230, "source": {"name": "Wikidata", "slug": "wikidata"}, "source_identifier": "Q121079119"}], "date_modified": "2025-05-22T22:42:14.049712+10:00"}, {"id": 82991, "name": "Andre Cohen", "roles_in_work": [{"id": 3104554, "title": "Trois Milliards Sans Ascenseur", "work_id": 115972, "role": "producer", "role_id": 1089, "is_primary": true}, {"id": 3104381, "title": "Glissements Progressifs du Plaisir = Successive Slidings Of Pleasure", "work_id": 115888, "role": "producer", "role_id": 1089, "is_primary": true}], "also_known_as": "", "date_of_birth": null, "date_of_death": null, "genders": [], "languages": [], "places_of_operation": [], "biography": "", "biography_author": null, "date_of_biography": null, "external_links": [], "uuid": "938d55a6-a257-4a3c-8a79-db28dff5a27d", "source": {"name": "Vernon", "slug": "vernon"}, "source_identifier": "30938", "external_references": [{"id": 39823, "source": {"name": "Wikidata", "slug": "wikidata"}, "source_identifier": "Q121034755"}], "date_modified": "2025-05-22T22:42:13.454093+10:00"}, {"id": 82990, "name": "Henri Boublil", "roles_in_work": [{"id": 3104380, "title": "Glissements Progressifs du Plaisir = Successive Slidings Of Pleasure", "work_id": 115888, "role": "producer", "role_id": 1089, "is_primary": true}], "also_known_as": "", "date_of_birth": null, "date_of_death": null, "genders": [], "languages": [], "places_of_operation": [], "biography": "", "biography_author": null, "date_of_biography": null, "external_links": [], "uuid": "6d4c45f5-cf7f-4c72-acc5-2ef26d7fe1b6", "source": {"name": "Vernon", "slug": "vernon"}, "source_identifier": "31026", "external_references": [{"id": 32409, "source": {"name": "Wikidata", "slug": "wikidata"}, "source_identifier": "Q121159938"}], "date_modified": "2025-05-22T22:40:09.910774+10:00"}, {"id": 82989, "name": "Georges-Alain Vuille", "roles_in_work": [{"id": 3104378, "title": "Clair de Femme = Woman Light", "work_id": 115887, "role": "producer", "role_id": 1089, "is_primary": true}], "also_known_as": "", "date_of_birth": "01 JAN 1948", "date_of_death": "01 JAN 1999", "genders": [{"id": 9, "name": "Male", "slug": "male"}], "languages": [], "places_of_operation": [{"id": 26, "name": "Switzerland", "slug": "switzerland"}], "biography": "Georges-Alain Vuille (1948–99) was a Swiss film producer.In the late 1970s he tried to finance a film version of the James Clavell novel Tai-Pan. Source: Wikidata; 01/08/2023", "biography_author": null, "date_of_biography": "2025-05-22T22:40:08.320649+10:00", "external_links": [{"id": 4057, "uri": "https://en.wikipedia.org/wiki/Georges-Alain_Vuille"}], "uuid": "38da3f65-a9f3-4628-bc51-ffb3ac89a343", "source": {"name": "Vernon", "slug": "vernon"}, "source_identifier": "31025", "external_references": [{"id": 26916, "source": {"name": "Wikidata", "slug": "wikidata"}, "source_identifier": "Q28408389"}, {"id": 28641, "source": {"name": "VIAF", "slug": "viaf"}, "source_identifier": "122060879"}, {"id": 28642, "source": {"name": "LOC Auth", "slug": "loc-auth"}, "source_identifier": "ns2014001430"}, {"id": 28643, "source": {"name": "WorldCat", "slug": "worldcat"}, "source_identifier": "lccn-ns2014001430"}], "date_modified": "2025-05-22T22:40:08.320895+10:00"}, {"id": 82988, "name": "Roland Tual", "roles_in_work": [{"id": 3104376, "title": "Remorques = Stormy Waters", "work_id": 115886, "role": "producer", "role_id": 1089, "is_primary": true}, {"id": 3104965, "title": "Les Anges du Peche = Angels of the Streets", "work_id": 116173, "role": "producer", "role_id": 1089, "is_primary": true}], "also_known_as": "", "date_of_birth": "1902-11-10", "date_of_death": "1956-08-29", "genders": [{"id": 9, "name": "Male", "slug": "male"}], "languages": [{"id": 4, "name": "French", "slug": "french"}], "places_of_operation": [{"id": 17, "name": "France", "slug": "france"}], "biography": "Roland Tual (10 November 1902 – 29 August 1956) was a French director and producer.\nFirst married to Colette Jéramec, the daughter of a rich Parisian industrialist, Tual then married the producer and director Denise Piazza, also known under the name Denise Tual.\nVery close to  surrealists, he was a friend of the painter André Masson in the 1920s.\nHe had financial interests in the daily Le Monde.", "biography_author": "Wikidata", "date_of_biography": "2023-09-06T00:52:44.231349+10:00", "external_links": [{"id": 6152, "uri": "https://en.wikipedia.org/wiki/Roland_Tual"}], "uuid": "ddf6568a-a6f9-4447-a3a2-1eecebed41e9", "source": {"name": "Vernon", "slug": "vernon"}, "source_identifier": "31024", "external_references": [{"id": 38366, "source": {"name": "Wikidata", "slug": "wikidata"}, "source_identifier": "Q3440277"}, {"id": 55702, "source": {"name": "VIAF", "slug": "viaf"}, "source_identifier": "87075198"}, {"id": 55703, "source": {"name": "WorldCat", "slug": "worldcat"}, "source_identifier": "viaf-87075198"}], "date_modified": "2025-05-22T22:52:05.445651+10:00"}]}