{"count": 28687, "next": "https://api.acmi.net.au/creators/?page=2222", "previous": "https://api.acmi.net.au/creators/?page=2220", "results": [{"id": 18263, "name": "Jack Duncan", "roles_in_work": [{"id": 2466516, "title": "Tell my wife I won't be home for dinner", "work_id": 73596, "role": "director", "role_id": 938, "is_primary": true}], "also_known_as": "", "date_of_birth": "", "date_of_death": "", "genders": [], "languages": [], "places_of_operation": [], "biography": "", "biography_author": null, "date_of_biography": "2023-08-14T10:59:01.188983+10:00", "external_links": [], "uuid": "d2eca745-35cd-43f7-a693-6649a8222851", "source": {"name": "Vernon", "slug": "vernon"}, "source_identifier": "32337", "external_references": [], "date_modified": "2023-08-14T10:59:01.189276+10:00"}, {"id": 18262, "name": "Management Training Ltd", "roles_in_work": [{"id": 2648076, "title": "The Floor is yours (TEFC)", "work_id": 78202, "role": "production company", "role_id": 941, "is_primary": true}, {"id": 2749089, "title": "Successful staff selection: the employment interview", "work_id": 96628, "role": "production company", "role_id": 941, "is_primary": true}, {"id": 2466514, "title": "Tell my wife I won't be home for dinner", "work_id": 73596, "role": "sponsor", "role_id": 625, "is_primary": false}], "also_known_as": "", "date_of_birth": "", "date_of_death": "", "genders": [], "languages": [], "places_of_operation": [], "biography": "", "biography_author": null, "date_of_biography": "2023-08-14T10:58:59.955911+10:00", "external_links": [], "uuid": "0a6c438b-43d5-47af-9015-ce4c91ef3c15", "source": {"name": "Vernon", "slug": "vernon"}, "source_identifier": "10274", "external_references": [], "date_modified": "2025-03-12T23:52:24.876634+11:00"}, {"id": 18258, "name": "Technique Film Productions", "roles_in_work": [{"id": 2646563, "title": "Teeth of steel", "work_id": 73578, "role": "production company", "role_id": 941, "is_primary": true}], "also_known_as": "", "date_of_birth": null, "date_of_death": null, "genders": [], "languages": [], "places_of_operation": [], "biography": "", "biography_author": null, "date_of_biography": null, "external_links": [], "uuid": "082c7f67-972c-4253-b84f-13a23e0ca907", "source": {"name": "Vernon", "slug": "vernon"}, "source_identifier": "13222", "external_references": [], "date_modified": "2025-03-05T13:06:36.734406+11:00"}, {"id": 18255, "name": "Taylor Hackford", "roles_in_work": [{"id": 2001048, "title": "White nights", "work_id": 95358, "role": "director", "role_id": 938, "is_primary": true}, {"id": 2094385, "title": "An Officer and a gentleman", "work_id": 92810, "role": "director", "role_id": 938, "is_primary": true}, {"id": 1998527, "title": "When we were kings [DVD]", "work_id": 93851, "role": "co-director", "role_id": 959, "is_primary": true}, {"id": 1998523, "title": "When we were kings [DVD]", "work_id": 93851, "role": "co-producer", "role_id": 915, "is_primary": true}, {"id": 2001047, "title": "White nights", "work_id": 95358, "role": "co-producer", "role_id": 915, "is_primary": true}, {"id": 2649357, "title": "La Bamba (Captioned)", "work_id": 81389, "role": "producer", "role_id": 1089, "is_primary": true}, {"id": 1994992, "title": "La Bamba", "work_id": 90964, "role": "producer", "role_id": 1089, "is_primary": true}], "also_known_as": "", "date_of_birth": "1944-12-31", "date_of_death": null, "genders": [{"id": 9, "name": "Male", "slug": "male"}], "languages": [{"id": 1, "name": "English", "slug": "english"}], "places_of_operation": [{"id": 1, "name": "United States of America", "slug": "united-states-of-america"}], "biography": "Taylor Edwin Hackford (born December 31, 1944) is an American film director and former president of the Directors Guild of America. He won the Academy Award for Best Live Action Short Film for Teenage Father (1979). Hackford went on to direct a number of highly regarded feature films, most notably An Officer and a Gentleman (1982) and Ray (2004), the latter of which saw him nominated for the Academy Award for Best Director and the Academy Award for Best Picture.", "biography_author": "Wikidata", "date_of_biography": "2022-05-19T13:12:17.511046+10:00", "external_links": [{"id": 3178, "uri": "https://en.wikipedia.org/wiki/Taylor_Hackford"}], "uuid": "855e2e88-2306-4366-8c9e-6149382476b6", "source": {"name": "Vernon", "slug": "vernon"}, "source_identifier": "29507", "external_references": [{"id": 13473, "source": {"name": "Wikidata", "slug": "wikidata"}, "source_identifier": "Q545573"}, {"id": 13474, "source": {"name": "VIAF", "slug": "viaf"}, "source_identifier": "51875407"}, {"id": 13475, "source": {"name": "LOC Auth", "slug": "loc-auth"}, "source_identifier": "n88034924"}, {"id": 13476, "source": {"name": "WorldCat", "slug": "worldcat"}, "source_identifier": "lccn-n88034924"}], "date_modified": "2025-03-05T14:00:46.024202+11:00"}, {"id": 18254, "name": "New Visions Pictures", "roles_in_work": [{"id": 2001045, "title": "White nights", "work_id": 95358, "role": "production company", "role_id": 941, "is_primary": true}, {"id": 2172826, "title": "My own private Idaho [DVD]", "work_id": 92794, "role": "production company", "role_id": 941, "is_primary": true}, {"id": 2107978, "title": "Barcelona [Widescreen]", "work_id": 87833, "role": "production company", "role_id": 941, "is_primary": true}, {"id": 1994991, "title": "La Bamba", "work_id": 90964, "role": "production company", "role_id": 941, "is_primary": true}, {"id": 1998885, "title": "Mortal thoughts", "work_id": 94121, "role": "production company", "role_id": 941, "is_primary": true}, {"id": 2649356, "title": "La Bamba (Captioned)", "work_id": 81389, "role": "production company", "role_id": 941, "is_primary": true}], "also_known_as": "", "date_of_birth": "", "date_of_death": "", "genders": [], "languages": [], "places_of_operation": [], "biography": "", "biography_author": null, "date_of_biography": "2023-05-09T14:39:02.157120+10:00", "external_links": [], "uuid": "45fb32f8-2ff5-4fd8-9672-ff30cde32192", "source": {"name": "Vernon", "slug": "vernon"}, "source_identifier": "10917", "external_references": [{"id": 34149, "source": {"name": "Wikidata", "slug": "wikidata"}, "source_identifier": "Q121271015"}], "date_modified": "2025-03-05T14:00:43.843145+11:00"}, {"id": 18253, "name": "Winifred Lade", "roles_in_work": [{"id": 886267, "title": "Teddy bears at play [1959]", "work_id": 95655, "role": "director", "role_id": 938, "is_primary": true}, {"id": 2646562, "title": "Teddy bears at play [1939]", "work_id": 73570, "role": "director", "role_id": 938, "is_primary": true}, {"id": 3110665, "title": "Fashions for Men", "work_id": 119307, "role": "editor", "role_id": 918, "is_primary": true}], "also_known_as": "", "date_of_birth": "", "date_of_death": "", "genders": [], "languages": [], "places_of_operation": [], "biography": "", "biography_author": null, "date_of_biography": "2023-05-09T19:04:18.642701+10:00", "external_links": [], "uuid": "a30ad384-bdd3-4951-a6fa-a77d109f36f5", "source": {"name": "Vernon", "slug": "vernon"}, "source_identifier": "32754", "external_references": [{"id": 36448, "source": {"name": "Wikidata", "slug": "wikidata"}, "source_identifier": "Q121337442"}], "date_modified": "2026-04-16T15:40:20.156063+10:00"}, {"id": 18252, "name": "Mel F. Nichols", "roles_in_work": [{"id": 3110668, "title": "Fashions for Men", "work_id": 119307, "role": "director", "role_id": 938, "is_primary": true}, {"id": 2646561, "title": "Teddy bears at play [1939]", "work_id": 73570, "role": "producer", "role_id": 1089, "is_primary": true}, {"id": 1810036, "title": "Teddy bears at play [1959]", "work_id": 95655, "role": "producer", "role_id": 1089, "is_primary": true}], "also_known_as": "", "date_of_birth": "", "date_of_death": "", "genders": [], "languages": [], "places_of_operation": [], "biography": "", "biography_author": null, "date_of_biography": "2023-05-09T19:04:19.347438+10:00", "external_links": [], "uuid": "e41fcd5c-be70-43dc-aa72-040a25199870", "source": {"name": "Vernon", "slug": "vernon"}, "source_identifier": "24911", "external_references": [{"id": 51058, "source": {"name": "Wikidata", "slug": "wikidata"}, "source_identifier": "Q121357858"}], "date_modified": "2026-04-16T15:40:22.291334+10:00"}, {"id": 18251, "name": "Australian National Travel Association", "roles_in_work": [{"id": 2646560, "title": "Teddy bears at play [1939]", "work_id": 73570, "role": "production company", "role_id": 941, "is_primary": true}, {"id": 886265, "title": "Teddy bears at play [1959]", "work_id": 95655, "role": "production company", "role_id": 941, "is_primary": true}], "also_known_as": "", "date_of_birth": null, "date_of_death": null, "genders": [], "languages": [], "places_of_operation": [], "biography": "", "biography_author": null, "date_of_biography": null, "external_links": [], "uuid": "d8181e27-3a1b-46ae-b6cd-70b2e249d3e2", "source": {"name": "Vernon", "slug": "vernon"}, "source_identifier": "5601", "external_references": [], "date_modified": "2025-03-05T13:06:34.667291+11:00"}, {"id": 18250, "name": "Sue Johnston", "roles_in_work": [{"id": 2753244, "title": "But you're a girl", "work_id": 98673, "role": "director", "role_id": 938, "is_primary": true}, {"id": 2753807, "title": "Getting your act together!", "work_id": 98937, "role": "director", "role_id": 938, "is_primary": true}, {"id": 2646559, "title": "The Technology machine", "work_id": 73569, "role": "producer/director", "role_id": 31, "is_primary": true}], "also_known_as": "", "date_of_birth": "", "date_of_death": "", "genders": [], "languages": [], "places_of_operation": [], "biography": "", "biography_author": null, "date_of_biography": "2023-08-11T17:01:45.861393+10:00", "external_links": [], "uuid": "747d3c27-7d31-43b4-a68e-b29a84d6f3dd", "source": {"name": "Vernon", "slug": "vernon"}, "source_identifier": "29291", "external_references": [], "date_modified": "2025-03-13T01:32:32.564778+11:00"}, {"id": 18249, "name": "Educational Media Centre, RMIT", "roles_in_work": [{"id": 2297073, "title": "Sharking", "work_id": 76944, "role": "production company", "role_id": 941, "is_primary": true}, {"id": 2646558, "title": "The Technology machine", "work_id": 73569, "role": "production company", "role_id": 941, "is_primary": true}], "also_known_as": "", "date_of_birth": "", "date_of_death": "", "genders": [], "languages": [], "places_of_operation": [], "biography": "", "biography_author": null, "date_of_biography": "2023-05-09T18:29:31.534228+10:00", "external_links": [], "uuid": "1ff9e3d1-3294-4e7d-bfc6-a1a211b496e1", "source": {"name": "Vernon", "slug": "vernon"}, "source_identifier": "7805", "external_references": [{"id": 36930, "source": {"name": "Wikidata", "slug": "wikidata"}, "source_identifier": "Q121034809"}], "date_modified": "2025-03-05T13:06:33.236147+11:00"}]}