{"count": 28687, "next": "https://api.acmi.net.au/creators/?page=2182", "previous": "https://api.acmi.net.au/creators/?page=2180", "results": [{"id": 19009, "name": "Education Development Center", "roles_in_work": [{"id": 918328, "title": "At the autumn river camp. Pt. 2", "work_id": 96248, "role": "production company", "role_id": 941, "is_primary": true}, {"id": 918338, "title": "At the caribou crossing place. Pt. 2", "work_id": 96250, "role": "production company", "role_id": 941, "is_primary": true}, {"id": 918343, "title": "At the winter sea ice camp. Pt. 1", "work_id": 96252, "role": "production company", "role_id": 941, "is_primary": true}, {"id": 2231692, "title": "Space filling curves (TEFC)", "work_id": 75148, "role": "production company", "role_id": 941, "is_primary": true}, {"id": 2748850, "title": "At the winter sea ice camp. Pt. 3", "work_id": 96503, "role": "production company", "role_id": 941, "is_primary": true}, {"id": 2749068, "title": "Medbourne Primary School", "work_id": 96621, "role": "production company", "role_id": 941, "is_primary": true}, {"id": 2750515, "title": "From my point of view", "work_id": 97372, "role": "production company", "role_id": 941, "is_primary": true}, {"id": 2752190, "title": "Herring gull behaviour", "work_id": 98187, "role": "production company", "role_id": 941, "is_primary": true}, {"id": 2752852, "title": "Half a year apart", "work_id": 98490, "role": "production company", "role_id": 941, "is_primary": true}, {"id": 2748845, "title": "At the winter sea ice camp. Pt. 2", "work_id": 96502, "role": "production company", "role_id": 941, "is_primary": true}, {"id": 918323, "title": "At the autumn river camp. Pt. 1", "work_id": 96247, "role": "production company", "role_id": 941, "is_primary": true}, {"id": 918333, "title": "At the caribou crossing place. Pt. 1", "work_id": 96249, "role": "production company", "role_id": 941, "is_primary": true}], "also_known_as": "", "date_of_birth": "", "date_of_death": "", "genders": [], "languages": [], "places_of_operation": [], "biography": "", "biography_author": null, "date_of_biography": "2023-05-09T16:37:57.345580+10:00", "external_links": [], "uuid": "81773714-c7ed-40e0-aaf4-12ee254b44ff", "source": {"name": "Vernon", "slug": "vernon"}, "source_identifier": "7763", "external_references": [{"id": 50897, "source": {"name": "Wikidata", "slug": "wikidata"}, "source_identifier": "Q121357519"}], "date_modified": "2025-03-13T01:13:06.306270+11:00"}, {"id": 19007, "name": "Outlook", "roles_in_work": [{"id": 2392342, "title": "Icarus", "work_id": 75147, "role": "production company", "role_id": 941, "is_primary": true}], "also_known_as": "", "date_of_birth": "", "date_of_death": "", "genders": [], "languages": [], "places_of_operation": [], "biography": "", "biography_author": null, "date_of_biography": "2023-08-09T03:55:28.232814+10:00", "external_links": [], "uuid": "e2a303d0-3ac5-476d-872b-ce127a402868", "source": {"name": "Vernon", "slug": "vernon"}, "source_identifier": "11202", "external_references": [], "date_modified": "2023-08-09T03:55:28.233177+10:00"}, {"id": 19004, "name": "Department of Defence Public Relations", "roles_in_work": [{"id": 2766630, "title": "Malaria: the recurring enemy", "work_id": 75141, "role": "production company", "role_id": 941, "is_primary": true}], "also_known_as": "", "date_of_birth": "", "date_of_death": "", "genders": [], "languages": [], "places_of_operation": [], "biography": "", "biography_author": null, "date_of_biography": "2023-08-11T13:00:59.445540+10:00", "external_links": [], "uuid": "0edf76a4-9d36-49ec-8582-fad04b1e5987", "source": {"name": "Vernon", "slug": "vernon"}, "source_identifier": "7424", "external_references": [], "date_modified": "2025-03-14T17:59:12.728461+11:00"}, {"id": 19003, "name": "Gene Bjerke", "roles_in_work": [{"id": 2469304, "title": "Triangle and anchor: Chelsea porcelain from the Williamsburg Collection", "work_id": 75136, "role": "director", "role_id": 938, "is_primary": true}], "also_known_as": "", "date_of_birth": "", "date_of_death": "", "genders": [], "languages": [], "places_of_operation": [], "biography": "", "biography_author": null, "date_of_biography": "2023-08-14T11:57:45.033849+10:00", "external_links": [], "uuid": "0ed61b7c-b34e-42eb-a8ea-be0bc07c76cf", "source": {"name": "Vernon", "slug": "vernon"}, "source_identifier": "19461", "external_references": [], "date_modified": "2023-08-14T11:57:45.034087+10:00"}, {"id": 19002, "name": "Arthur L. Smith", "roles_in_work": [{"id": 2469303, "title": "Triangle and anchor: Chelsea porcelain from the Williamsburg Collection", "work_id": 75136, "role": "producer", "role_id": 1089, "is_primary": true}], "also_known_as": "", "date_of_birth": "", "date_of_death": "", "genders": [], "languages": [], "places_of_operation": [], "biography": "", "biography_author": null, "date_of_biography": "2023-08-14T11:57:44.417546+10:00", "external_links": [], "uuid": "2c6202e0-833e-43d7-9d01-4acbc65117de", "source": {"name": "Vernon", "slug": "vernon"}, "source_identifier": "15543", "external_references": [], "date_modified": "2023-08-14T11:57:44.417746+10:00"}, {"id": 19000, "name": "Colin Willock", "roles_in_work": [{"id": 2770777, "title": "The Gentle giants humpbacks", "work_id": 80345, "role": "director", "role_id": 938, "is_primary": true}, {"id": 2770788, "title": "Lions of Etosha - the Ombika Pride", "work_id": 80347, "role": "producer", "role_id": 1089, "is_primary": true}, {"id": 2770852, "title": "The Wonderful kangaroo", "work_id": 83415, "role": "producer", "role_id": 1089, "is_primary": true}, {"id": 1815660, "title": "The Seas must live", "work_id": 75135, "role": "producer", "role_id": 1089, "is_primary": true}, {"id": 2770863, "title": "The Waterhole", "work_id": 83417, "role": "producer", "role_id": 1089, "is_primary": true}, {"id": 2770925, "title": "Cameraman", "work_id": 83822, "role": "producer", "role_id": 1089, "is_primary": true}, {"id": 2770826, "title": "The Leopard that changed its spots", "work_id": 83330, "role": "producer", "role_id": 1089, "is_primary": true}, {"id": 2770839, "title": "Last kingdom of the elephant", "work_id": 83331, "role": "producer", "role_id": 1089, "is_primary": true}, {"id": 2770814, "title": "Subtle as a Serpent", "work_id": 80353, "role": "producer", "role_id": 1089, "is_primary": true}], "also_known_as": "", "date_of_birth": "", "date_of_death": "", "genders": [], "languages": [], "places_of_operation": [], "biography": "", "biography_author": null, "date_of_biography": "2023-05-09T19:56:02.647708+10:00", "external_links": [], "uuid": "78a42efc-4196-494e-9324-0105e27844bf", "source": {"name": "Vernon", "slug": "vernon"}, "source_identifier": "17203", "external_references": [{"id": 37005, "source": {"name": "Wikidata", "slug": "wikidata"}, "source_identifier": "Q121079501"}], "date_modified": "2025-03-14T18:20:49.319714+11:00"}, {"id": 18999, "name": "Survival Anglia", "roles_in_work": [{"id": 861276, "title": "The Seas must live", "work_id": 75135, "role": "production company", "role_id": 941, "is_primary": true}, {"id": 2770849, "title": "The Wonderful kangaroo", "work_id": 83415, "role": "production company", "role_id": 941, "is_primary": true}, {"id": 2770860, "title": "The Waterhole", "work_id": 83417, "role": "production company", "role_id": 941, "is_primary": true}, {"id": 2770913, "title": "The Winged messenger", "work_id": 83780, "role": "production company", "role_id": 941, "is_primary": true}, {"id": 2770923, "title": "Cameraman", "work_id": 83822, "role": "production company", "role_id": 941, "is_primary": true}, {"id": 2770934, "title": "Wolf: the spanish outlaw", "work_id": 83830, "role": "production company", "role_id": 941, "is_primary": true}, {"id": 2133741, "title": "Castles of clay", "work_id": 76006, "role": "production company", "role_id": 941, "is_primary": true}], "also_known_as": "", "date_of_birth": "", "date_of_death": "", "genders": [], "languages": [], "places_of_operation": [], "biography": "", "biography_author": null, "date_of_biography": "2023-05-09T19:56:02.414292+10:00", "external_links": [], "uuid": "8e772980-a9a5-445f-ad3b-e34a7beebee6", "source": {"name": "Vernon", "slug": "vernon"}, "source_identifier": "13074", "external_references": [{"id": 39003, "source": {"name": "Wikidata", "slug": "wikidata"}, "source_identifier": "Q121126459"}], "date_modified": "2025-03-14T18:20:51.330439+11:00"}, {"id": 18997, "name": "Stan Gomm", "roles_in_work": [{"id": 2397935, "title": "A Natural question", "work_id": 75132, "role": "director", "role_id": 938, "is_primary": true}], "also_known_as": "", "date_of_birth": "", "date_of_death": "", "genders": [], "languages": [], "places_of_operation": [], "biography": "", "biography_author": null, "date_of_biography": "2023-08-11T13:08:52.663962+10:00", "external_links": [], "uuid": "e4aa70da-053b-4b16-bfa4-c6813f76f06f", "source": {"name": "Vernon", "slug": "vernon"}, "source_identifier": "28927", "external_references": [], "date_modified": "2023-08-11T13:08:52.664228+10:00"}, {"id": 18996, "name": "Central Electricity Generating Board Film Unit", "roles_in_work": [{"id": 2397934, "title": "A Natural question", "work_id": 75132, "role": "production company", "role_id": 941, "is_primary": true}], "also_known_as": "", "date_of_birth": "", "date_of_death": "", "genders": [], "languages": [], "places_of_operation": [], "biography": "", "biography_author": null, "date_of_biography": "2023-08-11T13:08:52.048895+10:00", "external_links": [], "uuid": "cec4188f-71a7-46f6-8376-c150d9f25d1a", "source": {"name": "Vernon", "slug": "vernon"}, "source_identifier": "6409", "external_references": [], "date_modified": "2023-08-11T13:08:52.049226+10:00"}, {"id": 18994, "name": "Jerry Elder Productions", "roles_in_work": [{"id": 2647036, "title": "Cigarettes and matches", "work_id": 75130, "role": "production company", "role_id": 941, "is_primary": true}], "also_known_as": "", "date_of_birth": "", "date_of_death": "", "genders": [], "languages": [], "places_of_operation": [], "biography": "", "biography_author": null, "date_of_biography": "2023-05-09T13:32:40.324521+10:00", "external_links": [], "uuid": "3dffe17f-24d3-4ef1-b317-3f0f89dde3b7", "source": {"name": "Vernon", "slug": "vernon"}, "source_identifier": "9587", "external_references": [{"id": 41443, "source": {"name": "Wikidata", "slug": "wikidata"}, "source_identifier": "Q121223111"}], "date_modified": "2025-03-05T13:16:58.906311+11:00"}]}