{"count": 28687, "next": "https://api.acmi.net.au/creators/?page=2168", "previous": "https://api.acmi.net.au/creators/?page=2166", "results": [{"id": 19266, "name": "Palette Films", "roles_in_work": [{"id": 2235555, "title": "Rangi and papa: the Maori creation myth", "work_id": 75719, "role": "production company", "role_id": 941, "is_primary": true}], "also_known_as": "", "date_of_birth": "", "date_of_death": "", "genders": [], "languages": [], "places_of_operation": [], "biography": "", "biography_author": null, "date_of_biography": "2023-05-09T16:45:14.208287+10:00", "external_links": [], "uuid": "6061da63-6bca-4558-9452-4e34d7fe21cb", "source": {"name": "Vernon", "slug": "vernon"}, "source_identifier": "11243", "external_references": [{"id": 35998, "source": {"name": "Wikidata", "slug": "wikidata"}, "source_identifier": "Q121315430"}], "date_modified": "2023-09-05T23:39:04.822383+10:00"}, {"id": 19265, "name": "Ed Atwood", "roles_in_work": [{"id": 861691, "title": "Principles of the optical maser", "work_id": 75715, "role": "director", "role_id": 938, "is_primary": true}], "also_known_as": "", "date_of_birth": null, "date_of_death": null, "genders": [], "languages": [], "places_of_operation": [], "biography": "", "biography_author": null, "date_of_biography": null, "external_links": [], "uuid": "0f81ca4b-6ac6-48cc-beb0-85a6571489fe", "source": {"name": "Vernon", "slug": "vernon"}, "source_identifier": "18520", "external_references": [{"id": 41635, "source": {"name": "Wikidata", "slug": "wikidata"}, "source_identifier": "Q120358729"}], "date_modified": "2023-09-13T12:29:11.748772+10:00"}, {"id": 19264, "name": "Paul Galan", "roles_in_work": [{"id": 2464939, "title": "Pooling around", "work_id": 75713, "role": "director", "role_id": 938, "is_primary": true}, {"id": 887824, "title": "Global energy game", "work_id": 97829, "role": "director", "role_id": 938, "is_primary": true}], "also_known_as": "", "date_of_birth": "", "date_of_death": "", "genders": [], "languages": [], "places_of_operation": [], "biography": "", "biography_author": null, "date_of_biography": "2023-08-14T10:23:07.924653+10:00", "external_links": [], "uuid": "df6abd9f-3384-46dd-a596-6537738a7b5c", "source": {"name": "Vernon", "slug": "vernon"}, "source_identifier": "26225", "external_references": [], "date_modified": "2023-08-14T10:23:07.924973+10:00"}, {"id": 19263, "name": "Continental Oil Company", "roles_in_work": [{"id": 2464938, "title": "Pooling around", "work_id": 75713, "role": "production company", "role_id": 941, "is_primary": true}], "also_known_as": "", "date_of_birth": "", "date_of_death": "", "genders": [], "languages": [], "places_of_operation": [], "biography": "", "biography_author": null, "date_of_biography": "2023-08-14T10:23:07.309539+10:00", "external_links": [], "uuid": "75b3b776-8df1-4eb6-85e1-1c087e2de9f8", "source": {"name": "Vernon", "slug": "vernon"}, "source_identifier": "7034", "external_references": [], "date_modified": "2023-08-14T10:23:07.309876+10:00"}, {"id": 19262, "name": "Julie Dahlitz", "roles_in_work": [{"id": 2471959, "title": "Women's decade (Magnetic Soundtrack)", "work_id": 75712, "role": "producer", "role_id": 1089, "is_primary": true}], "also_known_as": "", "date_of_birth": "", "date_of_death": "", "genders": [], "languages": [], "places_of_operation": [], "biography": "", "biography_author": null, "date_of_biography": "2023-08-14T12:50:23.350862+10:00", "external_links": [], "uuid": "268248cb-9b1d-473b-a51a-e41a28bba23d", "source": {"name": "Vernon", "slug": "vernon"}, "source_identifier": "22896", "external_references": [], "date_modified": "2023-08-14T12:50:23.351104+10:00"}, {"id": 19261, "name": "Littleton Park Productions", "roles_in_work": [{"id": 2469015, "title": "Three weeks in Britain", "work_id": 75708, "role": "production company", "role_id": 941, "is_primary": true}], "also_known_as": "", "date_of_birth": "", "date_of_death": "", "genders": [], "languages": [], "places_of_operation": [], "biography": "", "biography_author": null, "date_of_biography": "2023-08-14T11:51:40.757068+10:00", "external_links": [], "uuid": "9f2a285e-83df-4a06-9471-a8657249f0e1", "source": {"name": "Vernon", "slug": "vernon"}, "source_identifier": "33843", "external_references": [], "date_modified": "2023-08-14T11:51:40.757281+10:00"}, {"id": 19260, "name": "Frank Cantor", "roles_in_work": [{"id": 2464909, "title": "Playing with fire", "work_id": 75707, "role": "director", "role_id": 938, "is_primary": true}], "also_known_as": "", "date_of_birth": "", "date_of_death": "", "genders": [], "languages": [], "places_of_operation": [], "biography": "", "biography_author": null, "date_of_biography": "2023-08-14T10:22:24.701758+10:00", "external_links": [], "uuid": "2d8b6be2-64fb-4956-95e6-36319ed27ace", "source": {"name": "Vernon", "slug": "vernon"}, "source_identifier": "19099", "external_references": [], "date_modified": "2023-08-14T10:22:24.702101+10:00"}, {"id": 19259, "name": "Christopher Knight", "roles_in_work": [{"id": 2464908, "title": "Playing with fire", "work_id": 75707, "role": "producer", "role_id": 1089, "is_primary": true}], "also_known_as": "", "date_of_birth": "", "date_of_death": "", "genders": [], "languages": [], "places_of_operation": [], "biography": "", "biography_author": null, "date_of_biography": "2023-08-14T10:22:24.049148+10:00", "external_links": [], "uuid": "2d934e00-bb45-4218-9f7d-702505b529ec", "source": {"name": "Vernon", "slug": "vernon"}, "source_identifier": "16965", "external_references": [], "date_modified": "2023-08-14T10:22:24.049460+10:00"}, {"id": 19258, "name": "National Fire Protection Association. Public Affairs Division", "roles_in_work": [{"id": 2464907, "title": "Playing with fire", "work_id": 75707, "role": "production company", "role_id": 941, "is_primary": true}], "also_known_as": "", "date_of_birth": "", "date_of_death": "", "genders": [], "languages": [], "places_of_operation": [], "biography": "", "biography_author": null, "date_of_biography": "2023-08-14T10:22:23.428829+10:00", "external_links": [], "uuid": "bb68bc4e-ac77-4c32-af23-09452a58ac51", "source": {"name": "Vernon", "slug": "vernon"}, "source_identifier": "11726", "external_references": [], "date_modified": "2023-08-14T10:22:23.429095+10:00"}, {"id": 19257, "name": "Tom Spain", "roles_in_work": [{"id": 2763401, "title": "A Look at sound", "work_id": 75705, "role": "director", "role_id": 938, "is_primary": true}, {"id": 2400601, "title": "Anyplace but here", "work_id": 76491, "role": "producer", "role_id": 1089, "is_primary": true}], "also_known_as": "", "date_of_birth": "", "date_of_death": "", "genders": [], "languages": [], "places_of_operation": [], "biography": "", "biography_author": null, "date_of_biography": "2023-08-11T14:09:08.055775+10:00", "external_links": [], "uuid": "2d519547-1e9f-4d09-bada-b9a0b7a7a6cf", "source": {"name": "Vernon", "slug": "vernon"}, "source_identifier": "13619", "external_references": [], "date_modified": "2023-08-11T14:09:08.056027+10:00"}]}