{"count": 28687, "next": "https://api.acmi.net.au/creators/?page=795", "previous": "https://api.acmi.net.au/creators/?page=793", "results": [{"id": 77643, "name": "Ronald Kinnoch", "roles_in_work": [{"id": 2283531, "title": "Village of the damned", "work_id": 84550, "role": "producer", "role_id": 1089, "is_primary": true}], "also_known_as": "", "date_of_birth": "1910-06-11", "date_of_death": "1995-11-22", "genders": [{"id": 9, "name": "Male", "slug": "male"}], "languages": [{"id": 1, "name": "English", "slug": "english"}], "places_of_operation": [{"id": 10, "name": "United Kingdom", "slug": "united-kingdom"}], "biography": "Ronald Kinnoch (1910–1994) was a British screenwriter and film producer. Among other films, he produced Escape Route (1952) with George Raft in the lead. Kinnoch also directed the 1958 film The Secret Man (1958).", "biography_author": "Wikidata", "date_of_biography": "2023-08-01T16:55:28.348268+10:00", "external_links": [{"id": 3027, "uri": "https://en.wikipedia.org/wiki/Ronald_Kinnoch"}], "uuid": "e94dce60-0306-48df-8139-6038fe0ceceb", "source": {"name": "Vernon", "slug": "vernon"}, "source_identifier": "28205", "external_references": [{"id": 12850, "source": {"name": "Wikidata", "slug": "wikidata"}, "source_identifier": "Q16989145"}, {"id": 12851, "source": {"name": "VIAF", "slug": "viaf"}, "source_identifier": "31145542365796641449"}, {"id": 12852, "source": {"name": "LOC Auth", "slug": "loc-auth"}, "source_identifier": "no2009139219"}, {"id": 12853, "source": {"name": "WorldCat", "slug": "worldcat"}, "source_identifier": "lccn-no2009139219"}], "date_modified": "2023-09-06T00:55:26.649399+10:00"}, {"id": 77642, "name": "Mark Tarlov", "roles_in_work": [{"id": 2283443, "title": "Serial Mom", "work_id": 86830, "role": "co-producer", "role_id": 915, "is_primary": true}, {"id": 2614924, "title": "Aunt Julia and the scriptwriter", "work_id": 84548, "role": "co-producer", "role_id": 915, "is_primary": true}, {"id": 1998890, "title": "Mortal thoughts", "work_id": 94121, "role": "co-producer", "role_id": 915, "is_primary": true}, {"id": 2134065, "title": "Cecil B. Demented", "work_id": 93450, "role": "co-producer", "role_id": 915, "is_primary": true}, {"id": 2193212, "title": "Pecker", "work_id": 93482, "role": "co-producer", "role_id": 915, "is_primary": true}, {"id": 2144811, "title": "Copycat", "work_id": 90477, "role": "co-producer", "role_id": 915, "is_primary": true}], "also_known_as": "", "date_of_birth": "1952-01-01", "date_of_death": "2021-07-31", "genders": [{"id": 9, "name": "Male", "slug": "male"}], "languages": [{"id": 1, "name": "English", "slug": "english"}], "places_of_operation": [{"id": 1, "name": "United States of America", "slug": "united-states-of-america"}], "biography": "Mark Tarlov (1952 – July 31, 2021) was an American film producer and director, attorney, speechwriter, and winemaker. His daughter is political commentator Jessica Tarlov.", "biography_author": "Wikidata", "date_of_biography": "2023-09-05T22:47:27.240933+10:00", "external_links": [{"id": 6004, "uri": "https://en.wikipedia.org/wiki/Mark_Tarlov"}], "uuid": "52fcb3a0-f19e-4afd-8a22-0338fb64af93", "source": {"name": "Vernon", "slug": "vernon"}, "source_identifier": "24565", "external_references": [{"id": 41630, "source": {"name": "Wikidata", "slug": "wikidata"}, "source_identifier": "Q108028824"}, {"id": 55174, "source": {"name": "VIAF", "slug": "viaf"}, "source_identifier": "11846636"}, {"id": 55175, "source": {"name": "LOC Auth", "slug": "loc-auth"}, "source_identifier": "no00023328"}, {"id": 55176, "source": {"name": "WorldCat", "slug": "worldcat"}, "source_identifier": "lccn-no00023328"}], "date_modified": "2025-02-26T20:16:41.864502+11:00"}, {"id": 77641, "name": "John Fiedler", "roles_in_work": [{"id": 2193208, "title": "Pecker", "work_id": 93482, "role": "co-producer", "role_id": 915, "is_primary": true}, {"id": 2614923, "title": "Aunt Julia and the scriptwriter", "work_id": 84548, "role": "co-producer", "role_id": 915, "is_primary": true}, {"id": 1998889, "title": "Mortal thoughts", "work_id": 94121, "role": "co-producer", "role_id": 915, "is_primary": true}, {"id": 2134058, "title": "Cecil B. Demented", "work_id": 93450, "role": "co-producer", "role_id": 915, "is_primary": true}, {"id": 2144801, "title": "Copycat", "work_id": 90477, "role": "co-producer", "role_id": 915, "is_primary": true}, {"id": 2283440, "title": "Serial Mom", "work_id": 86830, "role": "co-producer", "role_id": 915, "is_primary": true}], "also_known_as": "", "date_of_birth": "03 FEB 1925", "date_of_death": "25 JUN 2005", "genders": [{"id": 9, "name": "Male", "slug": "male"}], "languages": [{"id": 1, "name": "English", "slug": "english"}], "places_of_operation": [{"id": 1, "name": "United States of America", "slug": "united-states-of-america"}], "biography": "John Donald Fiedler (February 3, 1925 – June 25, 2005) was an American actor. His career lasted more than 55 years in stage, film, television and radio. Fiedler's roles included the meek Juror #2 in 12 Angry Men (1957); the benign-seeming gentleman who tries to prevent the Younger family from moving into a whites-only neighbourhood in A Raisin in the Sun (1961); the voice of Piglet in Disney's Winnie the Pooh productions; Vinnie, one of Oscar's poker cronies in the film The Odd Couple (1968); and Emil Peterson, the hen-pecked milquetoast husband on The Bob Newhart Show. Source: Wikidata; 01/08/2023", "biography_author": null, "date_of_biography": "2025-02-26T20:16:41.268211+11:00", "external_links": [{"id": 4373, "uri": "https://en.wikipedia.org/wiki/John_Fiedler"}], "uuid": "3a0b8dbc-186a-4909-88f8-061d9594cb3a", "source": {"name": "Vernon", "slug": "vernon"}, "source_identifier": "22250", "external_references": [{"id": 25008, "source": {"name": "Wikidata", "slug": "wikidata"}, "source_identifier": "Q944638"}, {"id": 29487, "source": {"name": "VIAF", "slug": "viaf"}, "source_identifier": "66675316"}, {"id": 29488, "source": {"name": "LOC Auth", "slug": "loc-auth"}, "source_identifier": "n92051462"}, {"id": 29489, "source": {"name": "WorldCat", "slug": "worldcat"}, "source_identifier": "lccn-n92051462"}], "date_modified": "2025-02-26T20:16:41.268522+11:00"}, {"id": 77640, "name": "Richard Sheffield-MacClure", "roles_in_work": [{"id": 1988183, "title": "Gross misconduct", "work_id": 84546, "role": "co-producer", "role_id": 915, "is_primary": true}], "also_known_as": "", "date_of_birth": null, "date_of_death": null, "genders": [], "languages": [], "places_of_operation": [], "biography": "", "biography_author": null, "date_of_biography": null, "external_links": [], "uuid": "affdc8ad-ef43-4048-9734-189390300ee3", "source": {"name": "Vernon", "slug": "vernon"}, "source_identifier": null, "external_references": [{"id": 38152, "source": {"name": "Wikidata", "slug": "wikidata"}, "source_identifier": "Q121086043"}], "date_modified": "2023-09-06T00:33:12.842145+10:00"}, {"id": 77639, "name": "Sigurjon Sighvatsson", "roles_in_work": [{"id": 2108615, "title": "Basquiat", "work_id": 87817, "role": "co-producer", "role_id": 915, "is_primary": true}, {"id": 2247203, "title": "Red rock west", "work_id": 84538, "role": "co-producer", "role_id": 915, "is_primary": true}, {"id": 1999016, "title": "Going all the way", "work_id": 94238, "role": "co-producer", "role_id": 915, "is_primary": true}], "also_known_as": "", "date_of_birth": "1952-06-15", "date_of_death": "", "genders": [{"id": 9, "name": "Male", "slug": "male"}], "languages": [{"id": 47, "name": "Icelandic", "slug": "icelandic"}], "places_of_operation": [{"id": 42, "name": "Iceland", "slug": "iceland"}], "biography": "Sigurjón \"Joni\" Sighvatsson (born 15 June 1952) is an Icelandic Hollywood film producer and businessman.\nSighvatsson, a veteran producer with over 50 feature films, television series, and documentaries to his credit, is the principal of Palomar Pictures, an independent production company, as well as chairman of Scandinavian film distributor/producer Scanbox Emntertainment.\nSigurjón has worked with some of the most successful filmmakers in the industry, including David Lynch, Kathryn Bigelow, Jim Sheridan, Julian Schnabel and multiple Academy Award nominees and winners. Among his films are The Hundred-Year-Old Man Who Climbed Out of the Window and Disappeared, Brothers, Z for Zachariah and Killer Elite, as well as classics such as Wild at Heart, Arlington Road and Basquiat.\nSigurjón also continues to be a significant force in the world of art films. After having paved the way for visual artists moving into feature films with Schnabel's highly acclaimed Basquiat, Sigurjón has also produced the groundbreaking Zidane: A 21st Century Portrait, as well as the controversial Destricted, a collection of short films by some of the world's leading artists focusing on the concept of pornography.", "biography_author": "Wikidata", "date_of_biography": "2023-08-01T17:06:17.053895+10:00", "external_links": [{"id": 3110, "uri": "https://en.wikipedia.org/wiki/Sigurj%C3%B3n_Sighvatsson"}], "uuid": "b104cca7-d3eb-42a6-86fe-e23b5f5f3bae", "source": {"name": "Vernon", "slug": "vernon"}, "source_identifier": "28824", "external_references": [{"id": 13196, "source": {"name": "Wikidata", "slug": "wikidata"}, "source_identifier": "Q3482118"}, {"id": 13197, "source": {"name": "VIAF", "slug": "viaf"}, "source_identifier": "92269934"}, {"id": 13198, "source": {"name": "LOC Auth", "slug": "loc-auth"}, "source_identifier": "no98114732"}, {"id": 13199, "source": {"name": "WorldCat", "slug": "worldcat"}, "source_identifier": "lccn-no98114732"}], "date_modified": "2023-09-06T01:19:29.922763+10:00"}, {"id": 77638, "name": "Russell Thacher", "roles_in_work": [{"id": 2306587, "title": "Soylent green", "work_id": 84537, "role": "co-producer", "role_id": 915, "is_primary": true}], "also_known_as": "", "date_of_birth": "1919-05-29", "date_of_death": "1990-10-01", "genders": [{"id": 9, "name": "Male", "slug": "male"}], "languages": [], "places_of_operation": [], "biography": "Russell Thacher (c. 1919 – October 1, 1990) was an American author and film producer who co-produced the films Soylent Green and The Last Hard Men together with Walter Seltzer.\nBorn in Hackensack, New Jersey, Thatcher attended New York University and Bucknell University, before serving in the United States Navy during World War II.In addition to working as an editor at Omnibook Magazine and the Book-of-the-Month Club, Thacher authored the novels The Captain, The Tender Age and A Break in the Clouds. The Captain, Thacher's first novel, is set on board a Landing Ship, Tank in the Pacific Theater during World War II. The novel is notable for its early positive portrayal of homosexuality, exemplified in the characters of two crew members, though male eroticism is an undercurrent throughout the book. It was published by Macmillan in New York in 1951 and Allan Wingate in London in 1952, with subsequent paperback editions. In The Tender Age, Thacher writes about the experiences of a 17-year-old boy growing up in a town in New Jersey.In 1963, he was hired by Metro-Goldwyn-Mayer, originally working for the firm in New York City before heading out west, where he was the studio's vice president for production. By the early 1970s was working on his own as a film producer. Together with Walter Seltzer, Thacher co-produced Soylent Green, the 1973 science fiction thriller, and The Last Hard Men, a 1976 Western prison break film; both films starred Charlton Heston. Other films he produced include Travels with My Aunt and The Cay, for which he wrote the teleplay.A resident of Woodland Hills, Los Angeles, Thacher died in Los Angeles at the age of 71 due to complications resulting from abdominal surgery, on October 1, 1990.\n\n", "biography_author": "Wikidata", "date_of_biography": "2023-09-06T00:59:49.397985+10:00", "external_links": [{"id": 6160, "uri": "https://en.wikipedia.org/wiki/Russell_Thacher"}], "uuid": "ae086cfe-3278-4871-834c-10489823a25b", "source": {"name": "Vernon", "slug": "vernon"}, "source_identifier": "28371", "external_references": [{"id": 51499, "source": {"name": "Wikidata", "slug": "wikidata"}, "source_identifier": "Q43716602"}, {"id": 55730, "source": {"name": "VIAF", "slug": "viaf"}, "source_identifier": "8548149198236374940007"}, {"id": 55731, "source": {"name": "LOC Auth", "slug": "loc-auth"}, "source_identifier": "no00025697"}, {"id": 55732, "source": {"name": "WorldCat", "slug": "worldcat"}, "source_identifier": "lccn-no00025697"}], "date_modified": "2023-09-06T00:59:49.418060+10:00"}, {"id": 77637, "name": "Rosemary Plum", "roles_in_work": [{"id": 2159081, "title": "Italianissimo 1: beginners: a BBC course for beginners in italian.", "work_id": 84533, "role": "producer", "role_id": 1089, "is_primary": true}], "also_known_as": "", "date_of_birth": "", "date_of_death": "", "genders": [], "languages": [], "places_of_operation": [], "biography": "", "biography_author": null, "date_of_biography": "2023-05-09T14:12:49.896270+10:00", "external_links": [], "uuid": "9c27a846-8950-4628-b1c4-a47e189139e2", "source": {"name": "Vernon", "slug": "vernon"}, "source_identifier": "28254", "external_references": [{"id": 37286, "source": {"name": "Wikidata", "slug": "wikidata"}, "source_identifier": "Q121126484"}], "date_modified": "2023-09-06T00:56:11.064645+10:00"}, {"id": 77636, "name": "Mirsch", "roles_in_work": [{"id": 2175438, "title": "One, two, three", "work_id": 84528, "role": "production company", "role_id": 941, "is_primary": true}], "also_known_as": "", "date_of_birth": "", "date_of_death": "", "genders": [], "languages": [], "places_of_operation": [], "biography": "", "biography_author": null, "date_of_biography": "2023-05-09T14:45:10.111752+10:00", "external_links": [], "uuid": "3c9a1e4a-e43d-40d2-b674-721280366dec", "source": {"name": "Vernon", "slug": "vernon"}, "source_identifier": "10577", "external_references": [{"id": 50549, "source": {"name": "Wikidata", "slug": "wikidata"}, "source_identifier": "Q121358015"}], "date_modified": "2023-09-05T23:18:30.764950+10:00"}, {"id": 77635, "name": "Alex Winitsky", "roles_in_work": [{"id": 2149019, "title": "Cuba", "work_id": 84526, "role": "co-producer", "role_id": 915, "is_primary": true}, {"id": 2148213, "title": "Cross of iron", "work_id": 86655, "role": "co-producer", "role_id": 915, "is_primary": true}, {"id": 2308993, "title": "Stanley & Iris = Stanley and Iris", "work_id": 94658, "role": "co-producer", "role_id": 915, "is_primary": true}], "also_known_as": "", "date_of_birth": "", "date_of_death": "", "genders": [], "languages": [], "places_of_operation": [], "biography": "", "biography_author": null, "date_of_biography": "2023-05-09T18:49:23.548472+10:00", "external_links": [], "uuid": "7034026f-0861-4a21-a012-a5e4bbb0c9cf", "source": {"name": "Vernon", "slug": "vernon"}, "source_identifier": "14911", "external_references": [{"id": 36116, "source": {"name": "Wikidata", "slug": "wikidata"}, "source_identifier": "Q121222528"}], "date_modified": "2023-09-05T17:25:34.579848+10:00"}, {"id": 77634, "name": "Arlene Sellers", "roles_in_work": [{"id": 2308987, "title": "Stanley & Iris = Stanley and Iris", "work_id": 94658, "role": "co-producer", "role_id": 915, "is_primary": true}, {"id": 2148218, "title": "Cross of iron", "work_id": 86655, "role": "co-producer", "role_id": 915, "is_primary": true}, {"id": 2149015, "title": "Cuba", "work_id": 84526, "role": "co-producer", "role_id": 915, "is_primary": true}], "also_known_as": "", "date_of_birth": "1921-01-01", "date_of_death": "2004-03-05", "genders": [{"id": 5, "name": "Female", "slug": "female"}], "languages": [], "places_of_operation": [], "biography": "Arlene Sellers (September 7, 1921 – March 5, 2004) was an American real estate developer and film producer. She frequently worked with fellow producer Alex Winitsky.\nSellers died of cancer at age 82.", "biography_author": "Wikidata", "date_of_biography": "2023-08-01T14:05:44.096069+10:00", "external_links": [{"id": 3580, "uri": "https://en.wikipedia.org/wiki/Arlene_Sellers"}], "uuid": "408ba725-a712-4601-bc90-54936d254a57", "source": {"name": "Vernon", "slug": "vernon"}, "source_identifier": "15457", "external_references": [{"id": 26256, "source": {"name": "Wikidata", "slug": "wikidata"}, "source_identifier": "Q76422434"}, {"id": 27341, "source": {"name": "VIAF", "slug": "viaf"}, "source_identifier": "78434690"}, {"id": 27342, "source": {"name": "LOC Auth", "slug": "loc-auth"}, "source_identifier": "no2001075106"}], "date_modified": "2023-09-06T10:15:17.319485+10:00"}]}