{"count": 28687, "next": "https://api.acmi.net.au/creators/?page=2148", "previous": "https://api.acmi.net.au/creators/?page=2146", "results": [{"id": 19657, "name": "Belfern Productions", "roles_in_work": [{"id": 2647436, "title": "A Different approach", "work_id": 76336, "role": "production company", "role_id": 941, "is_primary": true}], "also_known_as": "", "date_of_birth": "", "date_of_death": "", "genders": [], "languages": [], "places_of_operation": [], "biography": "", "biography_author": null, "date_of_biography": "2023-05-09T11:27:17.844241+10:00", "external_links": [], "uuid": "ab99eb2a-2603-4881-9e11-538640fd6aac", "source": {"name": "Vernon", "slug": "vernon"}, "source_identifier": "5796", "external_references": [{"id": 34407, "source": {"name": "Wikidata", "slug": "wikidata"}, "source_identifier": "Q121222888"}], "date_modified": "2025-03-05T13:25:59.446202+11:00"}, {"id": 19656, "name": "Association of Media Producers", "roles_in_work": [{"id": 2469199, "title": "To help them learn (TEFC)", "work_id": 76334, "role": "production company", "role_id": 941, "is_primary": true}], "also_known_as": "", "date_of_birth": "", "date_of_death": "", "genders": [], "languages": [], "places_of_operation": [], "biography": "", "biography_author": null, "date_of_biography": "2023-08-14T11:55:16.360570+10:00", "external_links": [], "uuid": "9d013133-e821-42d4-9e78-d68a4ec1de06", "source": {"name": "Vernon", "slug": "vernon"}, "source_identifier": "31717", "external_references": [], "date_modified": "2023-08-14T11:55:16.360775+10:00"}, {"id": 19647, "name": "David M. Thompson", "roles_in_work": [{"id": 1683610, "title": "Vienna: stripping the facade", "work_id": 76324, "role": "co-producer", "role_id": 915, "is_primary": true}, {"id": 2000391, "title": "Go now", "work_id": 95059, "role": "co-producer", "role_id": 915, "is_primary": true}, {"id": 2781385, "title": "The Broken covenant", "work_id": 82188, "role": "producer", "role_id": 1089, "is_primary": true}, {"id": 1816369, "title": "The Firm (D)", "work_id": 92341, "role": "producer", "role_id": 1089, "is_primary": true}, {"id": 2781377, "title": "A Plain and sacred right", "work_id": 82179, "role": "producer", "role_id": 1089, "is_primary": true}, {"id": 1818644, "title": "Are my ears on wrong?", "work_id": 76325, "role": "producer", "role_id": 1089, "is_primary": true}], "also_known_as": "", "date_of_birth": "", "date_of_death": "", "genders": [], "languages": [], "places_of_operation": [], "biography": "", "biography_author": null, "date_of_biography": "2023-07-26T03:35:15.829821+10:00", "external_links": [], "uuid": "fd89f477-0a5e-4904-aee3-8501a40de496", "source": {"name": "Vernon", "slug": "vernon"}, "source_identifier": "17691", "external_references": [{"id": 38648, "source": {"name": "Wikidata", "slug": "wikidata"}, "source_identifier": "Q121223073"}], "date_modified": "2025-03-14T19:09:05.525122+11:00"}, {"id": 19641, "name": "Frank Halls", "roles_in_work": [{"id": 2401638, "title": "Australia's inland sea", "work_id": 76320, "role": "producer", "role_id": 1089, "is_primary": true}], "also_known_as": "", "date_of_birth": "", "date_of_death": "", "genders": [], "languages": [], "places_of_operation": [], "biography": "", "biography_author": null, "date_of_biography": "2023-08-11T14:28:43.038010+10:00", "external_links": [], "uuid": "38bc50a2-b58f-494b-aed1-5b9b4f00384c", "source": {"name": "Vernon", "slug": "vernon"}, "source_identifier": "19123", "external_references": [], "date_modified": "2023-08-11T14:28:43.038235+10:00"}, {"id": 19632, "name": "Jane Bampton", "roles_in_work": [{"id": 2647435, "title": "Tasmania is...", "work_id": 76310, "role": "director", "role_id": 938, "is_primary": true}], "also_known_as": "", "date_of_birth": null, "date_of_death": null, "genders": [], "languages": [], "places_of_operation": [], "biography": "", "biography_author": null, "date_of_biography": null, "external_links": [], "uuid": "c2d56521-4e37-4eb5-bc03-1761d28e1ce5", "source": {"name": "Vernon", "slug": "vernon"}, "source_identifier": "33086", "external_references": [], "date_modified": "2025-03-05T13:25:58.594537+11:00"}, {"id": 19631, "name": "Paul Preuss", "roles_in_work": [{"id": 862458, "title": "Above ground iron mine", "work_id": 76308, "role": "director", "role_id": 938, "is_primary": true}], "also_known_as": "", "date_of_birth": null, "date_of_death": null, "genders": [], "languages": [], "places_of_operation": [], "biography": "", "biography_author": null, "date_of_biography": null, "external_links": [], "uuid": "3a61a939-b12d-42f3-9583-1755905054e4", "source": {"name": "Vernon", "slug": "vernon"}, "source_identifier": "26309", "external_references": [{"id": 37935, "source": {"name": "Wikidata", "slug": "wikidata"}, "source_identifier": "Q120401873"}], "date_modified": "2023-09-13T12:31:49.555535+10:00"}, {"id": 19630, "name": "Graeme Jackson", "roles_in_work": [{"id": 2471634, "title": "What to do with a dollar", "work_id": 76306, "role": "director", "role_id": 938, "is_primary": true}], "also_known_as": "", "date_of_birth": "", "date_of_death": "", "genders": [], "languages": [], "places_of_operation": [], "biography": "", "biography_author": null, "date_of_biography": "2023-08-14T12:43:38.086700+10:00", "external_links": [], "uuid": "19abb59f-97a1-4a53-922e-0c29fcd1863f", "source": {"name": "Vernon", "slug": "vernon"}, "source_identifier": "19976", "external_references": [], "date_modified": "2023-08-14T12:43:38.086959+10:00"}, {"id": 19629, "name": "Richard Wade", "roles_in_work": [{"id": 2647432, "title": "Time out: time to kill", "work_id": 76303, "role": "producer", "role_id": 1089, "is_primary": true}], "also_known_as": "", "date_of_birth": null, "date_of_death": null, "genders": [], "languages": [], "places_of_operation": [], "biography": "", "biography_author": null, "date_of_biography": null, "external_links": [], "uuid": "b9905f82-5e93-498a-8b62-00ec5a2b5947", "source": {"name": "Vernon", "slug": "vernon"}, "source_identifier": "31606", "external_references": [], "date_modified": "2025-03-05T13:25:56.234335+11:00"}, {"id": 19628, "name": "Lew Davidson", "roles_in_work": [{"id": 2647430, "title": "Rivers at work", "work_id": 76298, "role": "producer", "role_id": 1089, "is_primary": true}], "also_known_as": "", "date_of_birth": null, "date_of_death": null, "genders": [], "languages": [], "places_of_operation": [], "biography": "", "biography_author": null, "date_of_biography": null, "external_links": [], "uuid": "44e01491-4fa3-4a97-af1e-4926a9a5d93a", "source": {"name": "Vernon", "slug": "vernon"}, "source_identifier": "23799", "external_references": [], "date_modified": "2025-03-05T13:25:54.758877+11:00"}, {"id": 19627, "name": "Zbigniew Raplewski", "roles_in_work": [{"id": 761580, "title": "Araby", "work_id": 76296, "role": "director", "role_id": 938, "is_primary": true}], "also_known_as": "", "date_of_birth": "1922-06-18", "date_of_death": "1997-02-13", "genders": [{"id": 9, "name": "Male", "slug": "male"}], "languages": [], "places_of_operation": [], "biography": "", "biography_author": null, "date_of_biography": null, "external_links": [], "uuid": "0ccce688-4e26-40b6-8504-23b8f87bdf8d", "source": {"name": "Vernon", "slug": "vernon"}, "source_identifier": "30663", "external_references": [{"id": 14061, "source": {"name": "Wikidata", "slug": "wikidata"}, "source_identifier": "Q40331340"}, {"id": 14062, "source": {"name": "VIAF", "slug": "viaf"}, "source_identifier": "23136669"}, {"id": 14063, "source": {"name": "WorldCat", "slug": "worldcat"}, "source_identifier": "viaf-23136669"}], "date_modified": "2023-09-13T12:33:23.078123+10:00"}]}