{"count": 28682, "next": "https://api.acmi.net.au/creators/?page=1005", "previous": "https://api.acmi.net.au/creators/?page=1003", "results": [{"id": 75538, "name": "Charles West", "roles_in_work": [{"id": 2472017, "title": "Working steel", "work_id": 74910, "role": "co-director", "role_id": 959, "is_primary": true}], "also_known_as": "", "date_of_birth": "", "date_of_death": "", "genders": [], "languages": [], "places_of_operation": [], "biography": "", "biography_author": null, "date_of_biography": "2023-08-14T12:51:43.818082+10:00", "external_links": [], "uuid": "4ee58ee2-e091-467e-bc99-df8f80e4d9b1", "source": {"name": "Vernon", "slug": "vernon"}, "source_identifier": "16745", "external_references": [{"id": 40973, "source": {"name": "Wikidata", "slug": "wikidata"}, "source_identifier": "Q121036227"}], "date_modified": "2023-09-05T18:28:51.024025+10:00"}, {"id": 75537, "name": "Robert Brooks", "roles_in_work": [{"id": 2646974, "title": "Work is child's play (TEFC)", "work_id": 74882, "role": "co-director", "role_id": 959, "is_primary": true}], "also_known_as": "", "date_of_birth": null, "date_of_death": null, "genders": [], "languages": [], "places_of_operation": [], "biography": "", "biography_author": null, "date_of_biography": null, "external_links": [], "uuid": "535a7514-78d9-4816-a987-56d01e55dc7a", "source": {"name": "Vernon", "slug": "vernon"}, "source_identifier": "27663", "external_references": [{"id": 34423, "source": {"name": "Wikidata", "slug": "wikidata"}, "source_identifier": "Q121159877"}], "date_modified": "2025-03-05T13:16:13.768893+11:00"}, {"id": 75536, "name": "Michael Pate", "roles_in_work": [{"id": 1864563, "title": "Woodcraftsman: Stephen Hogbin", "work_id": 74858, "role": "narrator", "role_id": 499, "is_primary": false}, {"id": 2475985, "title": "The Mango tree", "work_id": 81042, "role": "producer", "role_id": 1089, "is_primary": true}, {"id": 1985062, "title": "Tim", "work_id": 80987, "role": "producer/director", "role_id": 31, "is_primary": true}], "also_known_as": "Edward John Pate", "date_of_birth": "1920-02-26", "date_of_death": "2008-09-01", "genders": [{"id": 9, "name": "Male", "slug": "male"}], "languages": [{"id": 1, "name": "English", "slug": "english"}], "places_of_operation": [{"id": 3, "name": "Australia", "slug": "australia"}], "biography": "Michael Pate OAM (born Edward John Pate; 26 February 1920 – 1 September 2008) was an Australian actor, writer, director, and producer, who also worked prolifically as a supporting actor in Hollywood films and American Television during the 1950s and 1960s.", "biography_author": "Wikidata", "date_of_biography": "2023-09-05T23:07:45.799292+10:00", "external_links": [{"id": 2720, "uri": "https://en.wikipedia.org/wiki/Michael_Pate"}], "uuid": "ffd3bd8a-844b-4801-8bcc-cac4526cfdee", "source": {"name": "Vernon", "slug": "vernon"}, "source_identifier": "25183", "external_references": [{"id": 11594, "source": {"name": "Wikidata", "slug": "wikidata"}, "source_identifier": "Q928353"}, {"id": 11595, "source": {"name": "VIAF", "slug": "viaf"}, "source_identifier": "45792219"}, {"id": 11596, "source": {"name": "LOC Auth", "slug": "loc-auth"}, "source_identifier": "n86141818"}, {"id": 11597, "source": {"name": "WorldCat", "slug": "worldcat"}, "source_identifier": "lccn-n86141818"}], "date_modified": "2023-09-05T23:07:48.022255+10:00"}, {"id": 75535, "name": "Mickey Lemle", "roles_in_work": [{"id": 2077662, "title": "A Woman's place is in the house", "work_id": 74831, "role": "co-director", "role_id": 959, "is_primary": true}, {"id": 2764315, "title": "Design", "work_id": 77751, "role": "co-producer", "role_id": 915, "is_primary": true}, {"id": 2764283, "title": "Political spots", "work_id": 77508, "role": "co-producers/directors", "role_id": 628, "is_primary": true}], "also_known_as": "", "date_of_birth": "", "date_of_death": "", "genders": [], "languages": [], "places_of_operation": [], "biography": "", "biography_author": null, "date_of_biography": "2023-05-09T17:49:55.289788+10:00", "external_links": [], "uuid": "2b2890f7-45fa-420c-9f1f-fab6f7ebabb5", "source": {"name": "Vernon", "slug": "vernon"}, "source_identifier": "25330", "external_references": [], "date_modified": "2025-03-14T17:45:54.992573+11:00"}, {"id": 75534, "name": "Mark Robbins", "roles_in_work": [{"id": 2770036, "title": "Equality and development", "work_id": 74828, "role": "co-director", "role_id": 959, "is_primary": true}], "also_known_as": "", "date_of_birth": "", "date_of_death": "", "genders": [], "languages": [], "places_of_operation": [], "biography": "", "biography_author": null, "date_of_biography": "2023-05-09T16:16:58.714823+10:00", "external_links": [], "uuid": "b74f9d1e-0c37-4a94-b702-588fbde9a00c", "source": {"name": "Vernon", "slug": "vernon"}, "source_identifier": "24542", "external_references": [{"id": 40029, "source": {"name": "Wikidata", "slug": "wikidata"}, "source_identifier": "Q121270807"}], "date_modified": "2025-03-14T18:17:10.363808+11:00"}, {"id": 75533, "name": "Arthur Zitrin", "roles_in_work": [{"id": 2646952, "title": "Women in sports an informal history", "work_id": 74826, "role": "co-producer", "role_id": 915, "is_primary": true}, {"id": 898192, "title": "Women and sexuality: a century of change (TEFC)", "work_id": 78259, "role": "co-producer", "role_id": 915, "is_primary": true}], "also_known_as": "", "date_of_birth": null, "date_of_death": null, "genders": [], "languages": [], "places_of_operation": [], "biography": "", "biography_author": null, "date_of_biography": null, "external_links": [], "uuid": "be9f5cd8-b273-428d-875f-36d8827ec3ba", "source": {"name": "Vernon", "slug": "vernon"}, "source_identifier": "15566", "external_references": [{"id": 39360, "source": {"name": "Wikidata", "slug": "wikidata"}, "source_identifier": "Q121079504"}], "date_modified": "2025-03-05T13:15:57.397840+11:00"}, {"id": 75532, "name": "John Minchinton", "roles_in_work": [{"id": 1813874, "title": "Woman as a flower = La Femme fleur", "work_id": 74824, "role": "producer", "role_id": 1089, "is_primary": true}], "also_known_as": "", "date_of_birth": null, "date_of_death": null, "genders": [], "languages": [], "places_of_operation": [], "biography": "", "biography_author": null, "date_of_biography": null, "external_links": [], "uuid": "0da8bbe0-3117-4b38-90cf-5142e3cd34e9", "source": {"name": "Vernon", "slug": "vernon"}, "source_identifier": null, "external_references": [{"id": 42834, "source": {"name": "Wikidata", "slug": "wikidata"}, "source_identifier": "Q121337566"}], "date_modified": "2023-09-05T21:42:19.417991+10:00"}, {"id": 75531, "name": "Stanley Toogood", "roles_in_work": [{"id": 2280063, "title": "Wings to Guatemala", "work_id": 74804, "role": "co-producers/directors", "role_id": 628, "is_primary": true}, {"id": 2280026, "title": "Wings to Central America and Mexico", "work_id": 74803, "role": "co-producers/directors", "role_id": 628, "is_primary": true}], "also_known_as": "", "date_of_birth": "", "date_of_death": "", "genders": [], "languages": [], "places_of_operation": [], "biography": "", "biography_author": null, "date_of_biography": "2023-05-09T17:58:55.230188+10:00", "external_links": [], "uuid": "8727606d-b8cb-46f3-9985-8b0cf5a7ad7c", "source": {"name": "Vernon", "slug": "vernon"}, "source_identifier": "28985", "external_references": [], "date_modified": "2023-06-14T16:33:30.576250+10:00"}, {"id": 75530, "name": "Peter Jessop", "roles_in_work": [{"id": 896229, "title": "The Wind on the Heath", "work_id": 74788, "role": "co-director", "role_id": 959, "is_primary": true}], "also_known_as": "", "date_of_birth": null, "date_of_death": null, "genders": [], "languages": [], "places_of_operation": [], "biography": "", "biography_author": null, "date_of_biography": null, "external_links": [], "uuid": "4faee664-7382-4e34-9b81-a9f3462df826", "source": {"name": "Vernon", "slug": "vernon"}, "source_identifier": null, "external_references": [{"id": 43047, "source": {"name": "Wikidata", "slug": "wikidata"}, "source_identifier": "Q121222875"}], "date_modified": "2023-09-05T23:58:16.598502+10:00"}, {"id": 75529, "name": "Leon Bijon", "roles_in_work": [{"id": 896228, "title": "The Wind on the Heath", "work_id": 74788, "role": "co-director", "role_id": 959, "is_primary": true}], "also_known_as": "", "date_of_birth": null, "date_of_death": null, "genders": [], "languages": [], "places_of_operation": [], "biography": "", "biography_author": null, "date_of_biography": null, "external_links": [], "uuid": "d4c66111-1446-4558-9f06-e7f7fbd87e6c", "source": {"name": "Vernon", "slug": "vernon"}, "source_identifier": null, "external_references": [{"id": 34373, "source": {"name": "Wikidata", "slug": "wikidata"}, "source_identifier": "Q121036433"}], "date_modified": "2023-09-05T22:19:48.592881+10:00"}]}