{"count": 28687, "next": "https://api.acmi.net.au/creators/?page=1434", "previous": "https://api.acmi.net.au/creators/?page=1432", "results": [{"id": 36012, "name": "Global Entertainment Productions", "roles_in_work": [{"id": 2475193, "title": "I Still know what you did last summer", "work_id": 94102, "role": "production company", "role_id": 941, "is_primary": true}], "also_known_as": "", "date_of_birth": "", "date_of_death": "", "genders": [], "languages": [], "places_of_operation": [], "biography": "", "biography_author": null, "date_of_biography": "2023-08-17T15:05:24.049650+10:00", "external_links": [], "uuid": "f57e8963-c577-49e9-a1b4-67b578151f7c", "source": {"name": "Vernon", "slug": "vernon"}, "source_identifier": "8750", "external_references": [], "date_modified": "2023-08-17T15:05:24.049860+10:00"}, {"id": 36010, "name": "Columbia Pictures Industries", "roles_in_work": [{"id": 2754004, "title": "Hamlet (Richardson)", "work_id": 99019, "role": "production company", "role_id": 941, "is_primary": true}, {"id": 2476579, "title": "Loser [DVD]", "work_id": 94114, "role": "production company", "role_id": 941, "is_primary": true}], "also_known_as": "", "date_of_birth": "", "date_of_death": "", "genders": [], "languages": [], "places_of_operation": [], "biography": "", "biography_author": null, "date_of_biography": "2023-08-17T15:38:27.953765+10:00", "external_links": [], "uuid": "8b3b4834-c857-442f-b1fb-0be68f81823b", "source": {"name": "Vernon", "slug": "vernon"}, "source_identifier": "6911", "external_references": [], "date_modified": "2025-03-13T01:36:17.058529+11:00"}, {"id": 36004, "name": "Lives and Legacies Films", "roles_in_work": [{"id": 2215876, "title": "Elie Wiesel: first person singular [Widescreen]", "work_id": 94100, "role": "production company", "role_id": 941, "is_primary": true}], "also_known_as": "", "date_of_birth": "", "date_of_death": "", "genders": [], "languages": [], "places_of_operation": [], "biography": "", "biography_author": null, "date_of_biography": "2023-05-09T15:54:31.026911+10:00", "external_links": [], "uuid": "6402bc7c-2ef5-49d0-8a58-6ab010e0f5dc", "source": {"name": "Vernon", "slug": "vernon"}, "source_identifier": "10112", "external_references": [{"id": 34666, "source": {"name": "Wikidata", "slug": "wikidata"}, "source_identifier": "Q121035842"}], "date_modified": "2023-09-05T22:28:38.171232+10:00"}, {"id": 36003, "name": "Dieter Hens", "roles_in_work": [{"id": 2415143, "title": "Lionel Hampton and the golden men of jazz", "work_id": 94099, "role": "director", "role_id": 938, "is_primary": true}], "also_known_as": "", "date_of_birth": "", "date_of_death": "", "genders": [], "languages": [], "places_of_operation": [], "biography": "", "biography_author": null, "date_of_biography": "2023-08-11T19:31:29.196402+10:00", "external_links": [], "uuid": "0b203939-2e3c-4c93-a671-2cba1e926555", "source": {"name": "Vernon", "slug": "vernon"}, "source_identifier": "18139", "external_references": [], "date_modified": "2023-08-11T19:31:29.196701+10:00"}, {"id": 36002, "name": "Loft", "roles_in_work": [{"id": 2415142, "title": "Lionel Hampton and the golden men of jazz", "work_id": 94099, "role": "production company", "role_id": 941, "is_primary": true}], "also_known_as": "", "date_of_birth": "", "date_of_death": "", "genders": [], "languages": [], "places_of_operation": [], "biography": "", "biography_author": null, "date_of_biography": "2023-08-11T19:31:28.575228+10:00", "external_links": [], "uuid": "68accb8d-6565-411f-8b30-4123c1229430", "source": {"name": "Vernon", "slug": "vernon"}, "source_identifier": "10125", "external_references": [], "date_modified": "2023-08-11T19:31:28.575524+10:00"}, {"id": 35999, "name": "Geller Goldfire Productions", "roles_in_work": [{"id": 2412593, "title": "Isadora Duncan: movement from the soul", "work_id": 94098, "role": "production company", "role_id": 941, "is_primary": true}], "also_known_as": "", "date_of_birth": "", "date_of_death": "", "genders": [], "languages": [], "places_of_operation": [], "biography": "", "biography_author": null, "date_of_biography": "2023-08-11T18:41:45.671868+10:00", "external_links": [], "uuid": "633ebea5-14f8-4bbc-a4a4-2dcd498ad1fb", "source": {"name": "Vernon", "slug": "vernon"}, "source_identifier": "8676", "external_references": [], "date_modified": "2023-08-11T18:41:45.672164+10:00"}, {"id": 35998, "name": "Ganka Petlechkova", "roles_in_work": [{"id": 2467352, "title": "The Life and art of Isadora Duncan", "work_id": 94097, "role": "director", "role_id": 938, "is_primary": true}], "also_known_as": "", "date_of_birth": "", "date_of_death": "", "genders": [], "languages": [], "places_of_operation": [], "biography": "", "biography_author": null, "date_of_biography": "2023-08-14T11:18:25.165208+10:00", "external_links": [], "uuid": "45b9b0b5-6955-47c0-9566-3bededbb931c", "source": {"name": "Vernon", "slug": "vernon"}, "source_identifier": "19352", "external_references": [], "date_modified": "2023-08-14T11:18:25.165519+10:00"}, {"id": 35997, "name": "Chicago Public Library", "roles_in_work": [{"id": 2467351, "title": "The Life and art of Isadora Duncan", "work_id": 94097, "role": "production company", "role_id": 941, "is_primary": true}], "also_known_as": "", "date_of_birth": "", "date_of_death": "", "genders": [], "languages": [], "places_of_operation": [], "biography": "", "biography_author": null, "date_of_biography": "2023-08-14T11:18:24.549960+10:00", "external_links": [], "uuid": "e52a5042-bc7e-41c0-a7c1-407428465768", "source": {"name": "Vernon", "slug": "vernon"}, "source_identifier": "6563", "external_references": [], "date_modified": "2023-08-14T11:18:24.550220+10:00"}, {"id": 35996, "name": "Office of Municipal Television Chicago Arts 49", "roles_in_work": [{"id": 2467350, "title": "The Life and art of Isadora Duncan", "work_id": 94097, "role": "production company", "role_id": 941, "is_primary": true}], "also_known_as": "", "date_of_birth": "", "date_of_death": "", "genders": [], "languages": [], "places_of_operation": [], "biography": "", "biography_author": null, "date_of_biography": "2023-08-14T11:18:23.930035+10:00", "external_links": [], "uuid": "15d75bfc-11f1-4d61-87af-c0362bd10aa3", "source": {"name": "Vernon", "slug": "vernon"}, "source_identifier": "11093", "external_references": [], "date_modified": "2023-08-14T11:18:23.930300+10:00"}, {"id": 35994, "name": "Montclair State College", "roles_in_work": [{"id": 2176598, "title": "Oneiro: in the shadow of Isadora [NTSC]", "work_id": 94096, "role": "production company", "role_id": 941, "is_primary": true}], "also_known_as": "", "date_of_birth": "", "date_of_death": "", "genders": [], "languages": [], "places_of_operation": [], "biography": "", "biography_author": null, "date_of_biography": "2023-05-09T14:46:19.564539+10:00", "external_links": [], "uuid": "c868ced3-56f5-4d5c-964e-f11431458aeb", "source": {"name": "Vernon", "slug": "vernon"}, "source_identifier": "10626", "external_references": [{"id": 34175, "source": {"name": "Wikidata", "slug": "wikidata"}, "source_identifier": "Q121034328"}], "date_modified": "2023-09-05T23:20:38.205882+10:00"}]}