{"count": 28682, "next": "https://api.acmi.net.au/creators/?page=1102", "previous": "https://api.acmi.net.au/creators/?page=1100", "results": [{"id": 74568, "name": "Jacques Giraldeau", "roles_in_work": [{"id": 858326, "title": "The Shape of things", "work_id": 72729, "role": "director", "role_id": 938, "is_primary": true}, {"id": 2712355, "title": "Down through the years: a random view of Montreal", "work_id": 66904, "role": "director", "role_id": 938, "is_primary": true}, {"id": 2712807, "title": "Element 3", "work_id": 67101, "role": "director", "role_id": 938, "is_primary": true}, {"id": 2646100, "title": "The Puppeteers", "work_id": 71959, "role": "director", "role_id": 938, "is_primary": true}, {"id": 2763340, "title": "The Heart of the city", "work_id": 69642, "role": "director", "role_id": 938, "is_primary": true}], "also_known_as": "", "date_of_birth": "16 JUL 1927", "date_of_death": "28 FEB 2015", "genders": [{"id": 9, "name": "Male", "slug": "male"}], "languages": [], "places_of_operation": [{"id": 36, "name": "Canada", "slug": "canada"}], "biography": "Jacques Giraldeau (1927-2015) was a Canadian documentary filmmaker from Quebec. He spent most of his career at the National Film Board of Canada and became known primarily for his films about the history of Quebec as seen through the eyes of its artists. He had a fondness for the avant-garde and many of his films are considered to be experimental. Source: Wikidata; 01/08/2023", "biography_author": null, "date_of_biography": "2025-03-14T17:41:18.390999+11:00", "external_links": [{"id": 4238, "uri": "https://en.wikipedia.org/wiki/Jacques_Giraldeau"}], "uuid": "6c1a52f1-2681-4d03-b9a2-402d87c88327", "source": {"name": "Vernon", "slug": "vernon"}, "source_identifier": "21151", "external_references": [{"id": 27018, "source": {"name": "Wikidata", "slug": "wikidata"}, "source_identifier": "Q3158994"}, {"id": 29132, "source": {"name": "VIAF", "slug": "viaf"}, "source_identifier": "106093594"}, {"id": 29133, "source": {"name": "WorldCat", "slug": "worldcat"}, "source_identifier": "viaf-106093594"}], "date_modified": "2025-03-14T17:41:18.391234+11:00"}, {"id": 74567, "name": "Marcel Martin", "roles_in_work": [{"id": 2615716, "title": "Crafts of my province = Artisans de nouveau Brunswick [French language]", "work_id": 86009, "role": "co-director", "role_id": 959, "is_primary": true}, {"id": 2715226, "title": "Harvesting", "work_id": 68337, "role": "co-producer", "role_id": 915, "is_primary": true}, {"id": 2712353, "title": "Down through the years: a random view of Montreal", "work_id": 66904, "role": "co-producer", "role_id": 915, "is_primary": true}, {"id": 1807168, "title": "The Shape of things", "work_id": 72729, "role": "producer", "role_id": 1089, "is_primary": true}, {"id": 1819657, "title": "Knowing to learn", "work_id": 69437, "role": "producer", "role_id": 1089, "is_primary": true}, {"id": 1810802, "title": "Knowing to learn [edited version]", "work_id": 69436, "role": "producer", "role_id": 1089, "is_primary": true}, {"id": 2374031, "title": "The Devil's toy", "work_id": 78058, "role": "producer", "role_id": 1089, "is_primary": true}, {"id": 2316418, "title": "Sudden departure", "work_id": 73345, "role": "producer", "role_id": 1089, "is_primary": true}, {"id": 2122388, "title": "Bonjour Toronto!", "work_id": 90815, "role": "producer", "role_id": 1089, "is_primary": true}], "also_known_as": "", "date_of_birth": "", "date_of_death": "", "genders": [], "languages": [], "places_of_operation": [], "biography": "", "biography_author": null, "date_of_biography": "2023-08-17T15:01:42.396913+10:00", "external_links": [], "uuid": "605e2d0a-44a2-4769-a8e5-394692d0cbcd", "source": {"name": "Vernon", "slug": "vernon"}, "source_identifier": "522", "external_references": [{"id": 38673, "source": {"name": "Wikidata", "slug": "wikidata"}, "source_identifier": "Q121143586"}], "date_modified": "2025-03-12T01:30:40.605259+11:00"}, {"id": 74566, "name": "Axel Poignant", "roles_in_work": [{"id": 2712345, "title": "Down in the forest", "work_id": 66902, "role": "cinematographer", "role_id": 32, "is_primary": false}], "also_known_as": "", "date_of_birth": "", "date_of_death": "", "genders": [], "languages": [], "places_of_operation": [], "biography": "", "biography_author": null, "date_of_biography": "2023-05-09T15:24:14.881773+10:00", "external_links": [], "uuid": "db2b3c3f-13a7-4131-9b38-c6376df27de1", "source": {"name": "Vernon", "slug": "vernon"}, "source_identifier": "37536", "external_references": [{"id": 38515, "source": {"name": "Wikidata", "slug": "wikidata"}, "source_identifier": "Q121086044"}], "date_modified": "2025-03-12T00:20:34.396739+11:00"}, {"id": 74565, "name": "Richard Moore", "roles_in_work": [{"id": 2712321, "title": "Dorothea Lange. Pt. 2: the closer for me", "work_id": 66890, "role": "director", "role_id": 938, "is_primary": true}, {"id": 2645987, "title": "Photography: the incisive art", "work_id": 71529, "role": "director", "role_id": 938, "is_primary": true}, {"id": 2749110, "title": "Dorothea Lange. Pt. 1: under the trees", "work_id": 96635, "role": "director", "role_id": 938, "is_primary": true}, {"id": 2135953, "title": "Charles Blackman: dreams and shadows", "work_id": 85004, "role": "producer/director", "role_id": 31, "is_primary": true}, {"id": 2340460, "title": "The Control revolution", "work_id": 93078, "role": "producer/director", "role_id": 31, "is_primary": true}], "also_known_as": "", "date_of_birth": "", "date_of_death": "", "genders": [], "languages": [], "places_of_operation": [], "biography": "", "biography_author": null, "date_of_biography": "2023-05-09T19:38:47.366608+10:00", "external_links": [], "uuid": "9e18bf55-bef0-4e1f-bead-d4d1823fa4d8", "source": {"name": "Vernon", "slug": "vernon"}, "source_identifier": "2849", "external_references": [{"id": 33655, "source": {"name": "Wikidata", "slug": "wikidata"}, "source_identifier": "Q120358578"}], "date_modified": "2025-03-12T23:52:41.113977+11:00"}, {"id": 74564, "name": "Philip Greene", "roles_in_work": [{"id": 2749108, "title": "Dorothea Lange. Pt. 1: under the trees", "work_id": 96635, "role": "producer/director", "role_id": 31, "is_primary": true}, {"id": 2712319, "title": "Dorothea Lange. Pt. 2: the closer for me", "work_id": 66890, "role": "producer/director", "role_id": 31, "is_primary": true}], "also_known_as": "", "date_of_birth": "", "date_of_death": "", "genders": [], "languages": [], "places_of_operation": [], "biography": "", "biography_author": null, "date_of_biography": "2023-05-09T15:23:13.461471+10:00", "external_links": [], "uuid": "4ffc462a-259a-4cca-a645-4a53775233f3", "source": {"name": "Vernon", "slug": "vernon"}, "source_identifier": "26818", "external_references": [{"id": 51566, "source": {"name": "Wikidata", "slug": "wikidata"}, "source_identifier": "Q121361044"}], "date_modified": "2025-03-12T23:52:40.495670+11:00"}, {"id": 74563, "name": "John Sherwood", "roles_in_work": [{"id": 2644585, "title": "Don't lose your grip", "work_id": 66884, "role": "narrator", "role_id": 499, "is_primary": false}, {"id": 3093050, "title": "Don't Be Scalped", "work_id": 66877, "role": "narrator", "role_id": 499, "is_primary": false}, {"id": 3093043, "title": "Don't be sawed", "work_id": 66876, "role": "narrator", "role_id": 499, "is_primary": false}, {"id": 3093057, "title": "Don't be shocked", "work_id": 66878, "role": "narrator", "role_id": 499, "is_primary": false}, {"id": 3093025, "title": "Don't be cut up", "work_id": 66873, "role": "narrator", "role_id": 499, "is_primary": false}, {"id": 3093036, "title": "Don't be let down", "work_id": 66875, "role": "narrator", "role_id": 499, "is_primary": false}], "also_known_as": "", "date_of_birth": "", "date_of_death": "", "genders": [], "languages": [], "places_of_operation": [], "biography": "", "biography_author": null, "date_of_biography": "2023-07-05T03:46:36.718737+10:00", "external_links": [], "uuid": "e3484c63-9109-4ce4-9538-8101f649da2d", "source": {"name": "Vernon", "slug": "vernon"}, "source_identifier": "39076", "external_references": [], "date_modified": "2025-03-31T22:35:56.428413+11:00"}, {"id": 74562, "name": "Joan Hansen", "roles_in_work": [{"id": 3093023, "title": "Don't be cut up", "work_id": 66873, "role": "editor", "role_id": 918, "is_primary": true}, {"id": 3093034, "title": "Don't be let down", "work_id": 66875, "role": "editor", "role_id": 918, "is_primary": true}, {"id": 3093041, "title": "Don't be sawed", "work_id": 66876, "role": "editor", "role_id": 918, "is_primary": true}, {"id": 3093048, "title": "Don't Be Scalped", "work_id": 66877, "role": "editor", "role_id": 918, "is_primary": true}, {"id": 3093055, "title": "Don't be shocked", "work_id": 66878, "role": "editor", "role_id": 918, "is_primary": true}, {"id": 2644583, "title": "Don't lose your grip", "work_id": 66884, "role": "editor", "role_id": 918, "is_primary": true}, {"id": 1903550, "title": "The unsafe act", "work_id": 74226, "role": "editor", "role_id": 918, "is_primary": true}], "also_known_as": "", "date_of_birth": "", "date_of_death": "", "genders": [], "languages": [], "places_of_operation": [], "biography": "", "biography_author": null, "date_of_biography": "2023-07-05T03:46:36.096466+10:00", "external_links": [], "uuid": "f3fa632e-da6b-4f88-a0fe-563856ad6275", "source": {"name": "Vernon", "slug": "vernon"}, "source_identifier": "39075", "external_references": [{"id": 35819, "source": {"name": "Wikidata", "slug": "wikidata"}, "source_identifier": "Q121222788"}], "date_modified": "2025-03-31T22:35:55.215055+11:00"}, {"id": 74561, "name": "Bryce Higgins", "roles_in_work": [{"id": 3093054, "title": "Don't be shocked", "work_id": 66878, "role": "photographer", "role_id": 440, "is_primary": false}, {"id": 2644582, "title": "Don't lose your grip", "work_id": 66884, "role": "photographer", "role_id": 440, "is_primary": false}, {"id": 3093022, "title": "Don't be cut up", "work_id": 66873, "role": "photographer", "role_id": 440, "is_primary": false}, {"id": 3093033, "title": "Don't be let down", "work_id": 66875, "role": "photographer", "role_id": 440, "is_primary": false}, {"id": 3093040, "title": "Don't be sawed", "work_id": 66876, "role": "photographer", "role_id": 440, "is_primary": false}, {"id": 3093047, "title": "Don't Be Scalped", "work_id": 66877, "role": "photographer", "role_id": 440, "is_primary": false}, {"id": 1903549, "title": "The unsafe act", "work_id": 74226, "role": "photographer", "role_id": 440, "is_primary": false}], "also_known_as": "", "date_of_birth": "", "date_of_death": "", "genders": [], "languages": [], "places_of_operation": [], "biography": "", "biography_author": null, "date_of_biography": "2023-07-05T03:46:35.220118+10:00", "external_links": [], "uuid": "8f2f30d4-b555-4acb-9018-093468308254", "source": {"name": "Vernon", "slug": "vernon"}, "source_identifier": "39074", "external_references": [], "date_modified": "2025-03-31T22:35:54.623713+11:00"}, {"id": 74560, "name": "Ron Collins", "roles_in_work": [{"id": 3093029, "title": "Don't be incorrectly dressed", "work_id": 66874, "role": "editor", "role_id": 918, "is_primary": true}, {"id": 3093018, "title": "Don't be a fall guy", "work_id": 66872, "role": "editor", "role_id": 918, "is_primary": true}], "also_known_as": "", "date_of_birth": "", "date_of_death": "", "genders": [], "languages": [], "places_of_operation": [], "biography": "", "biography_author": null, "date_of_biography": "2023-05-09T15:21:15.323909+10:00", "external_links": [], "uuid": "2c09dbfa-9040-4bfc-bc85-66cf8fe8d6b6", "source": {"name": "Vernon", "slug": "vernon"}, "source_identifier": "39073", "external_references": [{"id": 37625, "source": {"name": "Wikidata", "slug": "wikidata"}, "source_identifier": "Q121036315"}], "date_modified": "2025-03-31T22:35:33.832367+11:00"}, {"id": 74559, "name": "Les Clark", "roles_in_work": [{"id": 2349759, "title": "The Game", "work_id": 74643, "role": "director", "role_id": 938, "is_primary": true}, {"id": 2749489, "title": "Man, monsters and mysteries", "work_id": 96831, "role": "director", "role_id": 938, "is_primary": true}, {"id": 2749878, "title": "What should I do: the lunch money", "work_id": 97022, "role": "director", "role_id": 938, "is_primary": true}, {"id": 2712258, "title": "Donald's fire survival plan", "work_id": 66869, "role": "director", "role_id": 938, "is_primary": true}, {"id": 2749881, "title": "What should I do?: new girl", "work_id": 97023, "role": "director", "role_id": 938, "is_primary": true}, {"id": 867093, "title": "Goofy's freeway troubles (K)", "work_id": 82796, "role": "director", "role_id": 938, "is_primary": true}, {"id": 2204969, "title": "Physical fitness and good health", "work_id": 71537, "role": "director", "role_id": 938, "is_primary": true}, {"id": 760979, "title": "VD attack plan", "work_id": 76030, "role": "director", "role_id": 938, "is_primary": true}, {"id": 825888, "title": "What should I do: the fight", "work_id": 96090, "role": "director", "role_id": 938, "is_primary": true}, {"id": 2198576, "title": "Donald's fire survival plan", "work_id": 80873, "role": "director", "role_id": 938, "is_primary": true}], "also_known_as": "Lester Clark", "date_of_birth": "17 NOV 1907", "date_of_death": "12 SEP 1979", "genders": [{"id": 9, "name": "Male", "slug": "male"}], "languages": [{"id": 1, "name": "English", "slug": "english"}], "places_of_operation": [{"id": 1, "name": "United States of America", "slug": "united-states-of-america"}], "biography": "Leslie James \"Les\" Clark (November 17, 1907 - September 12, 1979) was an American animator and the first of Disney's Nine Old Men. Joining Disney in 1927, he was the only one to work on the origins of Mickey Mouse with Ub Iwerks. Source: Wikidata; 01/08/2023", "biography_author": null, "date_of_biography": "2025-03-13T00:10:15.571747+11:00", "external_links": [{"id": 4537, "uri": "https://en.wikipedia.org/wiki/Les_Clark"}], "uuid": "6efe0386-f6e1-4fdc-b443-fd38d1ab843e", "source": {"name": "Vernon", "slug": "vernon"}, "source_identifier": "23740", "external_references": [{"id": 26143, "source": {"name": "Wikidata", "slug": "wikidata"}, "source_identifier": "Q1368756"}, {"id": 29913, "source": {"name": "VIAF", "slug": "viaf"}, "source_identifier": "42043749"}, {"id": 29914, "source": {"name": "LOC Auth", "slug": "loc-auth"}, "source_identifier": "no2010096145"}, {"id": 29915, "source": {"name": "WorldCat", "slug": "worldcat"}, "source_identifier": "lccn-no2010096145"}], "date_modified": "2025-03-13T00:10:15.572015+11:00"}]}