{"count": 28687, "next": "https://api.acmi.net.au/creators/?page=2154", "previous": "https://api.acmi.net.au/creators/?page=2152", "results": [{"id": 19524, "name": "International Cinemedia Center", "roles_in_work": [{"id": 2750553, "title": "Evolution of the Appalachians", "work_id": 97389, "role": "production company", "role_id": 941, "is_primary": true}, {"id": 2751047, "title": "Newton: the mind that found the future", "work_id": 97635, "role": "production company", "role_id": 941, "is_primary": true}, {"id": 869713, "title": "Volcanism: eruption of Kilauea, Hawaii", "work_id": 85752, "role": "production company", "role_id": 941, "is_primary": true}, {"id": 826281, "title": "Two grasslands: Texas and Iran", "work_id": 96273, "role": "production company", "role_id": 941, "is_primary": true}, {"id": 872502, "title": "Women want...", "work_id": 87675, "role": "production company", "role_id": 941, "is_primary": true}, {"id": 827310, "title": "Brown wolf", "work_id": 96731, "role": "production company", "role_id": 941, "is_primary": true}, {"id": 886918, "title": "Medieval myths and medicine", "work_id": 97095, "role": "production company", "role_id": 941, "is_primary": true}, {"id": 2469216, "title": "Top of the world: taiga, tundra, ice-cap", "work_id": 96292, "role": "production company", "role_id": 941, "is_primary": true}, {"id": 862203, "title": "Food: the story of a peanut butter sandwich", "work_id": 76100, "role": "production company", "role_id": 941, "is_primary": true}], "also_known_as": "", "date_of_birth": "", "date_of_death": "", "genders": [], "languages": [], "places_of_operation": [], "biography": "", "biography_author": null, "date_of_biography": "2023-08-14T11:55:47.103456+10:00", "external_links": [], "uuid": "f80ab3a5-4630-40e6-95bb-04861d53b4a0", "source": {"name": "Vernon", "slug": "vernon"}, "source_identifier": "9367", "external_references": [], "date_modified": "2025-03-13T00:35:55.223793+11:00"}, {"id": 19523, "name": "International Motion Picture Company", "roles_in_work": [{"id": 2647364, "title": "The Japanese press in action", "work_id": 76098, "role": "production company", "role_id": 941, "is_primary": true}], "also_known_as": "", "date_of_birth": "", "date_of_death": "", "genders": [], "languages": [], "places_of_operation": [], "biography": "", "biography_author": null, "date_of_biography": "2023-08-14T11:16:26.344562+10:00", "external_links": [], "uuid": "934f2392-413d-4da9-a3ed-f76011264f5a", "source": {"name": "Vernon", "slug": "vernon"}, "source_identifier": "9393", "external_references": [], "date_modified": "2025-03-05T13:25:04.308479+11:00"}, {"id": 19522, "name": "Dick Young", "roles_in_work": [{"id": 832212, "title": "Journey for survival", "work_id": 98884, "role": "director", "role_id": 938, "is_primary": true}, {"id": 761130, "title": "And so ends", "work_id": 76093, "role": "producer/director", "role_id": 31, "is_primary": true}, {"id": 2647908, "title": "Herbal Medicine -Fact or Fiction", "work_id": 77766, "role": "producer/director", "role_id": 31, "is_primary": true}, {"id": 871045, "title": "Water", "work_id": 86784, "role": "producer/director", "role_id": 31, "is_primary": true}], "also_known_as": "", "date_of_birth": null, "date_of_death": "", "genders": [{"id": 9, "name": "Male", "slug": "male"}], "languages": [], "places_of_operation": [], "biography": "", "biography_author": null, "date_of_biography": "2023-08-11T17:18:54.168871+10:00", "external_links": [], "uuid": "eba40003-3e8a-42c2-abab-616aeb08547e", "source": {"name": "Vernon", "slug": "vernon"}, "source_identifier": "18130", "external_references": [{"id": 36696, "source": {"name": "Wikidata", "slug": "wikidata"}, "source_identifier": "Q22945602"}], "date_modified": "2025-03-05T13:35:52.659009+11:00"}, {"id": 19521, "name": "Dick Young Productions", "roles_in_work": [{"id": 761129, "title": "And so ends", "work_id": 76093, "role": "production company", "role_id": 941, "is_primary": true}, {"id": 871044, "title": "Water", "work_id": 86784, "role": "production company", "role_id": 941, "is_primary": true}, {"id": 2753744, "title": "The Challenge of survival: chemicals", "work_id": 98911, "role": "production company", "role_id": 941, "is_primary": true}], "also_known_as": "", "date_of_birth": "", "date_of_death": "", "genders": [], "languages": [], "places_of_operation": [], "biography": "", "biography_author": null, "date_of_biography": "2023-05-09T19:33:19.110546+10:00", "external_links": [], "uuid": "dfdc1748-13f1-4517-8021-530f054ebc39", "source": {"name": "Vernon", "slug": "vernon"}, "source_identifier": "7567", "external_references": [], "date_modified": "2025-03-13T01:31:34.472661+11:00"}, {"id": 19520, "name": "Pierce Productions", "roles_in_work": [{"id": 2405782, "title": "Deep water rescue breathing", "work_id": 76091, "role": "production company", "role_id": 941, "is_primary": true}], "also_known_as": "", "date_of_birth": "", "date_of_death": "", "genders": [], "languages": [], "places_of_operation": [], "biography": "", "biography_author": null, "date_of_biography": "2023-08-11T15:59:51.881621+10:00", "external_links": [], "uuid": "b7d39fda-5fc7-46a3-bf54-16d3ed38f79f", "source": {"name": "Vernon", "slug": "vernon"}, "source_identifier": "11481", "external_references": [], "date_modified": "2023-08-11T15:59:51.881937+10:00"}, {"id": 19518, "name": "Bayley Silleck", "roles_in_work": [{"id": 886518, "title": "Foto: Sven Nykvist", "work_id": 96368, "role": "director", "role_id": 938, "is_primary": true}, {"id": 2790906, "title": "The Legacy of Greece", "work_id": 84611, "role": "producer", "role_id": 1089, "is_primary": true}, {"id": 862192, "title": "A Dylan Thomas memoir", "work_id": 76089, "role": "producer/director", "role_id": 31, "is_primary": true}, {"id": 2790892, "title": "The Classical idea", "work_id": 91215, "role": "producer/director", "role_id": 31, "is_primary": true}, {"id": 2790912, "title": "Imperial stone: the art of Rome", "work_id": 84612, "role": "producer/director", "role_id": 31, "is_primary": true}], "also_known_as": "", "date_of_birth": null, "date_of_death": "", "genders": [{"id": 9, "name": "Male", "slug": "male"}], "languages": [], "places_of_operation": [], "biography": "", "biography_author": null, "date_of_biography": "2023-05-09T19:37:24.267890+10:00", "external_links": [], "uuid": "167187b3-f4ed-4bf2-82c2-411767b659de", "source": {"name": "Vernon", "slug": "vernon"}, "source_identifier": "15761", "external_references": [{"id": 51206, "source": {"name": "Wikidata", "slug": "wikidata"}, "source_identifier": "Q22114550"}, {"id": 56121, "source": {"name": "VIAF", "slug": "viaf"}, "source_identifier": "269107158"}], "date_modified": "2025-03-14T20:01:18.533741+11:00"}, {"id": 19516, "name": "Peter Thurling", "roles_in_work": [{"id": 896788, "title": "Energy: towards the age of abundance", "work_id": 76087, "role": "director", "role_id": 938, "is_primary": true}, {"id": 2749549, "title": "The World of the future", "work_id": 96861, "role": "director", "role_id": 938, "is_primary": true}], "also_known_as": "", "date_of_birth": null, "date_of_death": null, "genders": [], "languages": [], "places_of_operation": [], "biography": "", "biography_author": null, "date_of_biography": null, "external_links": [], "uuid": "158ec2d1-2b00-482d-8bb6-8687074140c9", "source": {"name": "Vernon", "slug": "vernon"}, "source_identifier": "26732", "external_references": [], "date_modified": "2025-03-13T00:01:45.556508+11:00"}, {"id": 19514, "name": "Manpower Education Institute", "roles_in_work": [{"id": 2411358, "title": "If you don't come in Sunday don't come in Monday", "work_id": 76084, "role": "production company", "role_id": 941, "is_primary": true}], "also_known_as": "", "date_of_birth": "", "date_of_death": "", "genders": [], "languages": [], "places_of_operation": [], "biography": "", "biography_author": null, "date_of_biography": "2023-08-11T18:18:37.871579+10:00", "external_links": [], "uuid": "241549f3-8864-4986-8200-f9111e3188e4", "source": {"name": "Vernon", "slug": "vernon"}, "source_identifier": "10283", "external_references": [], "date_modified": "2023-08-11T18:18:37.871829+10:00"}, {"id": 19513, "name": "Daryl Binning", "roles_in_work": [{"id": 2464381, "title": "North of Nutcracker", "work_id": 76080, "role": "director", "role_id": 938, "is_primary": true}], "also_known_as": "", "date_of_birth": "", "date_of_death": "", "genders": [], "languages": [], "places_of_operation": [], "biography": "", "biography_author": null, "date_of_biography": "2023-08-14T10:10:57.834038+10:00", "external_links": [], "uuid": "0bea4772-0151-4891-a26f-6a1ca62aaa67", "source": {"name": "Vernon", "slug": "vernon"}, "source_identifier": "17450", "external_references": [], "date_modified": "2023-08-14T10:10:57.834353+10:00"}, {"id": 19512, "name": "Department of the Navy", "roles_in_work": [{"id": 2647452, "title": "The New ship", "work_id": 76381, "role": "production company", "role_id": 941, "is_primary": true}, {"id": 1236879, "title": "On the gunline", "work_id": 76074, "role": "production company", "role_id": 941, "is_primary": true}], "also_known_as": "", "date_of_birth": "", "date_of_death": "", "genders": [], "languages": [], "places_of_operation": [], "biography": "", "biography_author": null, "date_of_biography": "2023-08-14T11:25:16.493648+10:00", "external_links": [], "uuid": "b10be0bf-b585-4a21-a033-b5445dbb5772", "source": {"name": "Vernon", "slug": "vernon"}, "source_identifier": "7464", "external_references": [], "date_modified": "2025-03-05T13:26:10.692972+11:00"}]}