{"count": 28687, "next": "https://api.acmi.net.au/creators/?page=863", "previous": "https://api.acmi.net.au/creators/?page=861", "results": [{"id": 76962, "name": "Bonnie Bruckheimer", "roles_in_work": [{"id": 2109152, "title": "Beaches (Captioned)", "work_id": 81701, "role": "producer", "role_id": 1089, "is_primary": true}, {"id": 2109127, "title": "Beaches", "work_id": 90589, "role": "producer", "role_id": 1089, "is_primary": true}], "also_known_as": "", "date_of_birth": "", "date_of_death": "", "genders": [], "languages": [], "places_of_operation": [], "biography": "", "biography_author": null, "date_of_biography": "2023-05-09T12:43:17.076390+10:00", "external_links": [], "uuid": "0f9efe24-ebe7-469f-9c87-0214f8d166d1", "source": {"name": "Vernon", "slug": "vernon"}, "source_identifier": "16129", "external_references": [{"id": 33100, "source": {"name": "Wikidata", "slug": "wikidata"}, "source_identifier": "Q121337642"}], "date_modified": "2023-09-05T18:08:26.417993+10:00"}, {"id": 76961, "name": "South", "roles_in_work": [{"id": 2109148, "title": "Beaches (Captioned)", "work_id": 81701, "role": "production company", "role_id": 941, "is_primary": true}, {"id": 2109123, "title": "Beaches", "work_id": 90589, "role": "production company", "role_id": 941, "is_primary": true}], "also_known_as": "", "date_of_birth": "", "date_of_death": "", "genders": [{"id": 5, "name": "Female", "slug": "female"}], "languages": [], "places_of_operation": [], "biography": "", "biography_author": null, "date_of_biography": "2023-05-09T12:43:16.837170+10:00", "external_links": [], "uuid": "e4f16fd8-e424-45e7-bfc7-1913924063b2", "source": {"name": "Vernon", "slug": "vernon"}, "source_identifier": "12767", "external_references": [{"id": 37136, "source": {"name": "Wikidata", "slug": "wikidata"}, "source_identifier": "Q25858005"}], "date_modified": "2023-09-06T01:24:18.678440+10:00"}, {"id": 76960, "name": "Bruckheimer", "roles_in_work": [{"id": 2109121, "title": "Beaches", "work_id": 90589, "role": "production company", "role_id": 941, "is_primary": true}, {"id": 2109146, "title": "Beaches (Captioned)", "work_id": 81701, "role": "production company", "role_id": 941, "is_primary": true}], "also_known_as": "", "date_of_birth": "1944-07-26", "date_of_death": "", "genders": [{"id": 5, "name": "Female", "slug": "female"}], "languages": [], "places_of_operation": [{"id": 1, "name": "United States of America", "slug": "united-states-of-america"}], "biography": "Bonnie Sue Fishman (born July 26, 1944), known professionally as Bonnie Bruckheimer, is an American film and television producer.  She has also been known professionally as Bonnie Fishman, Bonnie Martell, and Bonnie Bruckheimer-Martell. She has been nominated for 2 Emmy Awards.  In 1985, she and Bette Midler formed their own production company, All Girl Productions, and were producing partners until 2002.\nSome of her best-known films include Hocus Pocus, Beaches and Divine Secrets of the Ya-Ya Sisterhood.  Her films have been produced by Disney and Universal, while her TV specials and sitcom were produced by HBO and CBS Television Studios.", "biography_author": "Wikidata", "date_of_biography": "2023-09-05T18:14:17.503904+10:00", "external_links": [{"id": 5718, "uri": "https://en.wikipedia.org/wiki/Bonnie_Bruckheimer"}], "uuid": "e5f2ff2e-146d-4f56-b818-82902e3d2d1b", "source": {"name": "Vernon", "slug": "vernon"}, "source_identifier": "6085", "external_references": [{"id": 38157, "source": {"name": "Wikidata", "slug": "wikidata"}, "source_identifier": "Q25858009"}, {"id": 54114, "source": {"name": "VIAF", "slug": "viaf"}, "source_identifier": "39073597"}, {"id": 54115, "source": {"name": "LOC Auth", "slug": "loc-auth"}, "source_identifier": "no2003103069"}, {"id": 54116, "source": {"name": "WorldCat", "slug": "worldcat"}, "source_identifier": "lccn-no2003103069"}], "date_modified": "2023-09-05T18:14:22.183572+10:00"}, {"id": 76959, "name": "Art Stevens", "roles_in_work": [{"id": 900854, "title": "The Rescuers (Captioned)", "work_id": 81696, "role": "co-director", "role_id": 959, "is_primary": true}, {"id": 1990414, "title": "The Rescuers", "work_id": 86073, "role": "co-director", "role_id": 959, "is_primary": true}, {"id": 2349211, "title": "The Fox and the hound", "work_id": 91947, "role": "producer/director", "role_id": 31, "is_primary": true}], "also_known_as": "", "date_of_birth": "1915-05-01", "date_of_death": "2007-05-22", "genders": [{"id": 9, "name": "Male", "slug": "male"}], "languages": [{"id": 1, "name": "English", "slug": "english"}], "places_of_operation": [{"id": 1, "name": "United States of America", "slug": "united-states-of-america"}], "biography": "Arthur Stevens (May 1, 1915 – May 22, 2007) was an animator, director and producer for Walt Disney Productions.", "biography_author": "Wikidata", "date_of_biography": "2023-08-01T14:06:30.135676+10:00", "external_links": [{"id": 3587, "uri": "https://en.wikipedia.org/wiki/Art_Stevens"}], "uuid": "2eb29114-c137-4f54-ad5c-7e6f9b1d364c", "source": {"name": "Vernon", "slug": "vernon"}, "source_identifier": "15507", "external_references": [{"id": 26760, "source": {"name": "Wikidata", "slug": "wikidata"}, "source_identifier": "Q2864567"}, {"id": 27359, "source": {"name": "VIAF", "slug": "viaf"}, "source_identifier": "44068642"}, {"id": 27360, "source": {"name": "LOC Auth", "slug": "loc-auth"}, "source_identifier": "no2007009853"}, {"id": 27361, "source": {"name": "WorldCat", "slug": "worldcat"}, "source_identifier": "lccn-no2007009853"}], "date_modified": "2023-09-05T17:46:20.010519+10:00"}, {"id": 76958, "name": "Katherine Carpenter", "roles_in_work": [{"id": 2775956, "title": "In the name of progress", "work_id": 81692, "role": "producer/director", "role_id": 31, "is_primary": true}], "also_known_as": "", "date_of_birth": "", "date_of_death": "", "genders": [], "languages": [], "places_of_operation": [], "biography": "", "biography_author": null, "date_of_biography": "2023-05-09T19:48:54.788918+10:00", "external_links": [], "uuid": "a58ff663-d729-40dc-a691-aa936b03c96c", "source": {"name": "Vernon", "slug": "vernon"}, "source_identifier": "23069", "external_references": [{"id": 52129, "source": {"name": "Wikidata", "slug": "wikidata"}, "source_identifier": "Q121361192"}], "date_modified": "2025-03-14T18:45:14.900562+11:00"}, {"id": 76957, "name": "Marty Ostrow", "roles_in_work": [{"id": 2775978, "title": "More for less", "work_id": 81707, "role": "producer/director", "role_id": 31, "is_primary": true}, {"id": 2775943, "title": "Do we really want to live this way?", "work_id": 81691, "role": "producer/director", "role_id": 31, "is_primary": true}], "also_known_as": "", "date_of_birth": "", "date_of_death": "", "genders": [], "languages": [], "places_of_operation": [], "biography": "", "biography_author": null, "date_of_biography": "2023-05-09T19:49:07.283157+10:00", "external_links": [], "uuid": "110316aa-e25c-41ec-acea-b1e0aa781c64", "source": {"name": "Vernon", "slug": "vernon"}, "source_identifier": "24687", "external_references": [{"id": 51543, "source": {"name": "Wikidata", "slug": "wikidata"}, "source_identifier": "Q121360704"}], "date_modified": "2025-03-14T18:45:19.111824+11:00"}, {"id": 76956, "name": "Donald P. Borchers", "roles_in_work": [{"id": 2147827, "title": "Crimes of passion", "work_id": 81690, "role": "co-producer", "role_id": 915, "is_primary": true}], "also_known_as": "", "date_of_birth": "2000-01-01", "date_of_death": "", "genders": [{"id": 9, "name": "Male", "slug": "male"}], "languages": [], "places_of_operation": [{"id": 1, "name": "United States of America", "slug": "united-states-of-america"}], "biography": "Donald P. Borchers is a film producer, director, and screenwriter.", "biography_author": "Wikidata", "date_of_biography": "2023-09-05T19:18:10.322369+10:00", "external_links": [{"id": 5784, "uri": "https://en.wikipedia.org/wiki/Donald_P._Borchers"}], "uuid": "8b84c8aa-dc7f-4e32-9509-e76135848d1c", "source": {"name": "Vernon", "slug": "vernon"}, "source_identifier": "18306", "external_references": [{"id": 51965, "source": {"name": "Wikidata", "slug": "wikidata"}, "source_identifier": "Q17581496"}], "date_modified": "2023-09-05T19:18:10.345870+10:00"}, {"id": 76955, "name": "Barry Sandler", "roles_in_work": [{"id": 2147824, "title": "Crimes of passion", "work_id": 81690, "role": "co-producer", "role_id": 915, "is_primary": true}], "also_known_as": "", "date_of_birth": "1947-02-23", "date_of_death": "", "genders": [{"id": 9, "name": "Male", "slug": "male"}], "languages": [{"id": 1, "name": "English", "slug": "english"}], "places_of_operation": [{"id": 1, "name": "United States of America", "slug": "united-states-of-america"}], "biography": "Barry Sandler (born February 23, 1947 in Buffalo, New York) is an American screenwriter and film producer. His career has spanned several decades, with the 1980s being his most prolific. The openly gay Sandler is perhaps best known for writing the 1982 film Making Love, the first mainstream Hollywood film to deal seriously with issues of homosexuality and coming out. Sandler discussed Making Love in the 1995 documentary film The Celluloid Closet.\nIn addition to his successful writing career, Sandler also teaches screenwriting at the University of Central Florida and serves as one Artistic Director to Outfest, a gay and lesbian film festival in Los Angeles.\nHe is the recipient of the GLAAD Media Award and the Outfest 2002 Gay Pioneer Award for Courage and Artistry, and was named by The Advocate as one of the most influential gay artists in America.", "biography_author": "Wikidata", "date_of_biography": "2023-08-01T14:09:50.113943+10:00", "external_links": [{"id": 1698, "uri": "https://en.wikipedia.org/wiki/Barry_Sandler"}], "uuid": "e2d078d4-66a1-486d-9fb1-650e8e3f3755", "source": {"name": "Vernon", "slug": "vernon"}, "source_identifier": "15736", "external_references": [{"id": 7408, "source": {"name": "Wikidata", "slug": "wikidata"}, "source_identifier": "Q4864715"}, {"id": 7409, "source": {"name": "VIAF", "slug": "viaf"}, "source_identifier": "76523030"}, {"id": 7410, "source": {"name": "LOC Auth", "slug": "loc-auth"}, "source_identifier": "no2003040953"}, {"id": 7411, "source": {"name": "WorldCat", "slug": "worldcat"}, "source_identifier": "lccn-no2003040953"}], "date_modified": "2023-09-05T17:55:39.303219+10:00"}, {"id": 76954, "name": "Cecil Kellaway", "roles_in_work": [{"id": 1985980, "title": "Hush hush, sweet Charlotte", "work_id": 81679, "role": "cast", "role_id": 33, "is_primary": false}], "also_known_as": "", "date_of_birth": null, "date_of_death": null, "genders": [], "languages": [], "places_of_operation": [], "biography": "", "biography_author": null, "date_of_biography": null, "external_links": [], "uuid": "086684cf-1b75-4f5f-a680-9979b4732c73", "source": {"name": "Vernon", "slug": "vernon"}, "source_identifier": null, "external_references": [{"id": 41867, "source": {"name": "Wikidata", "slug": "wikidata"}, "source_identifier": "Q891104"}], "date_modified": "2023-09-05T18:23:31.302416+10:00"}, {"id": 76953, "name": "Mary Astor", "roles_in_work": [{"id": 1985979, "title": "Hush hush, sweet Charlotte", "work_id": 81679, "role": "cast", "role_id": 33, "is_primary": false}], "also_known_as": "", "date_of_birth": null, "date_of_death": null, "genders": [], "languages": [], "places_of_operation": [], "biography": "", "biography_author": null, "date_of_biography": null, "external_links": [], "uuid": "6dfc58f0-8c7a-4f11-9f3b-586e42df3b24", "source": {"name": "Vernon", "slug": "vernon"}, "source_identifier": null, "external_references": [{"id": 36438, "source": {"name": "Wikidata", "slug": "wikidata"}, "source_identifier": "Q121057785"}], "date_modified": "2023-09-05T22:51:43.444091+10:00"}]}