{"count": 28687, "next": "https://api.acmi.net.au/creators/?page=1599", "previous": "https://api.acmi.net.au/creators/?page=1597", "results": [{"id": 31094, "name": "Hunting Group", "roles_in_work": [{"id": 2398364, "title": "A Share in their tomorrow", "work_id": 89161, "role": "production company", "role_id": 941, "is_primary": true}], "also_known_as": "", "date_of_birth": "", "date_of_death": "", "genders": [], "languages": [], "places_of_operation": [], "biography": "", "biography_author": null, "date_of_biography": "2023-08-11T13:16:57.969745+10:00", "external_links": [], "uuid": "ede69a0c-0819-466f-afda-618fed4a84e6", "source": {"name": "Vernon", "slug": "vernon"}, "source_identifier": "9196", "external_references": [], "date_modified": "2023-08-11T13:16:57.970046+10:00"}, {"id": 31093, "name": "Hugh Wyn Griffith", "roles_in_work": [{"id": 2465675, "title": "Sestrieres 1949", "work_id": 89159, "role": "director", "role_id": 938, "is_primary": true}], "also_known_as": "", "date_of_birth": "", "date_of_death": "", "genders": [], "languages": [], "places_of_operation": [], "biography": "", "biography_author": null, "date_of_biography": "2023-08-14T10:39:55.828999+10:00", "external_links": [], "uuid": "c74edd94-9330-44a3-a4e0-30f18c767bc3", "source": {"name": "Vernon", "slug": "vernon"}, "source_identifier": "20190", "external_references": [], "date_modified": "2023-08-14T10:39:55.829284+10:00"}, {"id": 31092, "name": "Oxford University Film Society", "roles_in_work": [{"id": 2465674, "title": "Sestrieres 1949", "work_id": 89159, "role": "production company", "role_id": 941, "is_primary": true}], "also_known_as": "", "date_of_birth": "", "date_of_death": "", "genders": [], "languages": [], "places_of_operation": [], "biography": "", "biography_author": null, "date_of_biography": "2023-08-14T10:39:55.200459+10:00", "external_links": [], "uuid": "001a7ffa-7c4b-49fe-9c68-7ef300ae75cb", "source": {"name": "Vernon", "slug": "vernon"}, "source_identifier": "11213", "external_references": [], "date_modified": "2023-08-14T10:39:55.200746+10:00"}, {"id": 31091, "name": "Stefan Arndt", "roles_in_work": [{"id": 2000264, "title": "Goodbye Lenin", "work_id": 95017, "role": "producer", "role_id": 1089, "is_primary": true}, {"id": 2287804, "title": "Winter sleepers = Winterschlafer", "work_id": 89157, "role": "producer", "role_id": 1089, "is_primary": true}, {"id": 1993733, "title": "Run Lola run = Lola Rennt [DVD]", "work_id": 89495, "role": "producer", "role_id": 1089, "is_primary": true}], "also_known_as": "", "date_of_birth": "1961-08-28", "date_of_death": null, "genders": [{"id": 9, "name": "Male", "slug": "male"}], "languages": [{"id": 5, "name": "German", "slug": "german"}], "places_of_operation": [{"id": 18, "name": "Germany", "slug": "germany"}], "biography": "Stefan Arndt (born 1961) is a German film producer and managing partner of X-Filme Creative Pool, which he started with fellow friends Tom Tykwer, Wolfgang Becker and Dani Levy. X-Filme is one of Germany's most prosperous and famous production companies. Arndt produces many X Filme productions and acts as head manager of the company. He produced the films Cloud Atlas, Alone in Berlin and Frantz.\n\n", "biography_author": "Wikidata", "date_of_biography": "2022-05-19T13:08:29.776930+10:00", "external_links": [{"id": 3135, "uri": "https://en.wikipedia.org/wiki/Stefan_Arndt"}], "uuid": "2a2e33cf-5127-42a9-a51c-5a221935967c", "source": {"name": "Vernon", "slug": "vernon"}, "source_identifier": "28991", "external_references": [{"id": 13300, "source": {"name": "Wikidata", "slug": "wikidata"}, "source_identifier": "Q98319"}, {"id": 13301, "source": {"name": "VIAF", "slug": "viaf"}, "source_identifier": "34137073"}, {"id": 13302, "source": {"name": "LOC Auth", "slug": "loc-auth"}, "source_identifier": "no2003003734"}, {"id": 13303, "source": {"name": "WorldCat", "slug": "worldcat"}, "source_identifier": "lccn-no2003003734"}], "date_modified": "2023-09-13T12:32:49.218113+10:00"}, {"id": 31090, "name": "German Independents", "roles_in_work": [{"id": 1993729, "title": "Run Lola run = Lola Rennt [DVD]", "work_id": 89495, "role": "production company", "role_id": 941, "is_primary": true}, {"id": 2287802, "title": "Winter sleepers = Winterschlafer", "work_id": 89157, "role": "production company", "role_id": 941, "is_primary": true}], "also_known_as": "", "date_of_birth": "", "date_of_death": "", "genders": [], "languages": [], "places_of_operation": [], "biography": "", "biography_author": null, "date_of_biography": "2023-05-09T18:12:43.695762+10:00", "external_links": [], "uuid": "58d3386d-4a32-451c-b163-234a6f962ac7", "source": {"name": "Vernon", "slug": "vernon"}, "source_identifier": "8715", "external_references": [{"id": 40280, "source": {"name": "Wikidata", "slug": "wikidata"}, "source_identifier": "Q121034318"}], "date_modified": "2023-09-05T20:10:09.079529+10:00"}, {"id": 31089, "name": "FFA - Filmforderungsanstalt", "roles_in_work": [{"id": 1993727, "title": "Run Lola run = Lola Rennt [DVD]", "work_id": 89495, "role": "production company", "role_id": 941, "is_primary": true}, {"id": 2287799, "title": "Winter sleepers = Winterschlafer", "work_id": 89157, "role": "production company", "role_id": 941, "is_primary": true}], "also_known_as": "", "date_of_birth": "", "date_of_death": "", "genders": [], "languages": [], "places_of_operation": [], "biography": "", "biography_author": null, "date_of_biography": "2023-05-09T18:12:43.450735+10:00", "external_links": [], "uuid": "3ae9ccfa-8103-43c8-b4cf-706c98855eaa", "source": {"name": "Vernon", "slug": "vernon"}, "source_identifier": "4789", "external_references": [{"id": 51929, "source": {"name": "Wikidata", "slug": "wikidata"}, "source_identifier": "Q121357701"}], "date_modified": "2023-09-05T19:42:33.154981+10:00"}, {"id": 31088, "name": "BMI", "roles_in_work": [{"id": 2287793, "title": "Winter sleepers = Winterschlafer", "work_id": 89157, "role": "production company", "role_id": 941, "is_primary": true}, {"id": 1993725, "title": "Run Lola run = Lola Rennt [DVD]", "work_id": 89495, "role": "production company", "role_id": 941, "is_primary": true}], "also_known_as": "", "date_of_birth": "", "date_of_death": "", "genders": [], "languages": [], "places_of_operation": [], "biography": "", "biography_author": null, "date_of_biography": "2023-05-09T18:12:43.171254+10:00", "external_links": [], "uuid": "b0484b00-9c94-42df-bfc7-9752a604a6a0", "source": {"name": "Vernon", "slug": "vernon"}, "source_identifier": "5919", "external_references": [{"id": 51772, "source": {"name": "Wikidata", "slug": "wikidata"}, "source_identifier": "Q121358004"}], "date_modified": "2023-09-05T18:06:57.262276+10:00"}, {"id": 31087, "name": "Mitteldeutscher Rundfunk", "roles_in_work": [{"id": 2287785, "title": "Winter sleepers = Winterschlafer", "work_id": 89157, "role": "production company", "role_id": 941, "is_primary": true}], "also_known_as": "", "date_of_birth": "", "date_of_death": "", "genders": [], "languages": [], "places_of_operation": [], "biography": "Mitteldeutscher Rundfunk (pronounced [ˈmɪtl̩ˌdɔʏtʃɐ ˈʁʊntfʊŋk]; \"Central German Broadcasting\"), shortened to MDR (pronounced [ˌɛmdeːˈʔɛʁ] ; stylized as mdr), is the public broadcaster for the federal states of Thuringia, Saxony and Saxony-Anhalt in Germany.  Established in January 1991, its headquarters are in Leipzig, with regional studios in Dresden, Erfurt and Magdeburg. MDR is a member of the ARD consortium of public broadcasters in Germany.\nMDR broadcasts its own television channel to the three states it serves and also contributes programming to the first German TV channel (Das Erste), and broadcasts a number of radio channels.", "biography_author": "Wikidata", "date_of_biography": "2023-09-05T23:18:47.109753+10:00", "external_links": [{"id": 6043, "uri": "https://en.wikipedia.org/wiki/Mitteldeutscher_Rundfunk"}], "uuid": "349d860c-3f86-42ea-a52c-7ff499219455", "source": {"name": "Vernon", "slug": "vernon"}, "source_identifier": "4737", "external_references": [{"id": 38033, "source": {"name": "Wikidata", "slug": "wikidata"}, "source_identifier": "Q158948"}, {"id": 55300, "source": {"name": "VIAF", "slug": "viaf"}, "source_identifier": "130667660"}, {"id": 55301, "source": {"name": "LOC Auth", "slug": "loc-auth"}, "source_identifier": "n82027767"}, {"id": 55302, "source": {"name": "WorldCat", "slug": "worldcat"}, "source_identifier": "lccn-n82027767"}], "date_modified": "2023-09-05T23:18:47.130643+10:00"}, {"id": 31086, "name": "Palladio Film", "roles_in_work": [{"id": 2287780, "title": "Winter sleepers = Winterschlafer", "work_id": 89157, "role": "production company", "role_id": 941, "is_primary": true}], "also_known_as": "", "date_of_birth": "", "date_of_death": "", "genders": [], "languages": [], "places_of_operation": [], "biography": "", "biography_author": null, "date_of_biography": "2023-05-09T18:12:42.001024+10:00", "external_links": [], "uuid": "1725c25d-bc4b-4a9e-9b3c-29f3a5f8c48b", "source": {"name": "Vernon", "slug": "vernon"}, "source_identifier": "11247", "external_references": [{"id": 34497, "source": {"name": "Wikidata", "slug": "wikidata"}, "source_identifier": "Q121035589"}], "date_modified": "2023-09-05T23:39:06.550759+10:00"}, {"id": 31085, "name": "FilmFernsehFonds Bayern", "roles_in_work": [{"id": 1993728, "title": "Run Lola run = Lola Rennt [DVD]", "work_id": 89495, "role": "production company", "role_id": 941, "is_primary": true}, {"id": 2287778, "title": "Winter sleepers = Winterschlafer", "work_id": 89157, "role": "production company", "role_id": 941, "is_primary": true}], "also_known_as": "", "date_of_birth": "", "date_of_death": "", "genders": [], "languages": [], "places_of_operation": [], "biography": "", "biography_author": null, "date_of_biography": "2023-05-09T18:12:41.737235+10:00", "external_links": [], "uuid": "b2e2b65a-b89a-4034-8068-dabb727e5489", "source": {"name": "Vernon", "slug": "vernon"}, "source_identifier": "4744", "external_references": [{"id": 37121, "source": {"name": "Wikidata", "slug": "wikidata"}, "source_identifier": "Q121298720"}], "date_modified": "2023-09-05T19:43:17.788857+10:00"}]}