{"count": 28687, "next": "https://api.acmi.net.au/creators/?page=1249", "previous": "https://api.acmi.net.au/creators/?page=1247", "results": [{"id": 72032, "name": "John Leech", "roles_in_work": [{"id": 2684722, "title": " \"I say, Sir…\" cartoon for Punch", "work_id": 99867, "role": "artist", "role_id": 505, "is_primary": true}], "also_known_as": "", "date_of_birth": "", "date_of_death": "", "genders": [], "languages": [], "places_of_operation": [], "biography": "", "biography_author": null, "date_of_biography": "2023-05-09T18:26:01.357929+10:00", "external_links": [], "uuid": "b77b8ab7-372a-4445-94f0-c7983ac21798", "source": {"name": "Vernon", "slug": "vernon"}, "source_identifier": "39481", "external_references": [], "date_modified": "2025-03-11T11:41:59.500731+11:00"}, {"id": 72031, "name": "Unknown", "roles_in_work": [{"id": 2689527, "title": "Emulation of Aussie Games for Commodore 64", "work_id": 122274, "role": "developer", "role_id": 658, "is_primary": true}, {"id": 2717164, "title": "[Unidentified 16mm Film]", "work_id": 122210, "role": "creator", "role_id": 968, "is_primary": true}, {"id": 2688735, "title": "[The funeral of Field Marshal Sir Thomas Blamey]", "work_id": 119665, "role": "creator", "role_id": 968, "is_primary": true}, {"id": 2660932, "title": "[Luna Park by Night] [excerpt from Melbourne no 1]", "work_id": 117427, "role": "creator", "role_id": 968, "is_primary": true}, {"id": 2689562, "title": "Emulation of Decisive Battles of the American Civil War Vol 1 for Commodore 64", "work_id": 122283, "role": "creator", "role_id": 968, "is_primary": true}, {"id": 2689513, "title": "Emulation of America's Cup Challenge for Commodore 64", "work_id": 122276, "role": "creator", "role_id": 968, "is_primary": true}, {"id": 2689514, "title": "Emulation of Ardok the Barbarian for Commodore 64", "work_id": 122277, "role": "creator", "role_id": 968, "is_primary": true}, {"id": 2689529, "title": "Emulation of Bad Street Brawler for Commodore 64", "work_id": 122278, "role": "creator", "role_id": 968, "is_primary": true}, {"id": 2689534, "title": "Emulation of Battles in Normandy 1944 for Commodore 64", "work_id": 122280, "role": "creator", "role_id": 968, "is_primary": true}, {"id": 2689556, "title": "Emulation of Carriers at War 1941-1945: Fleet Carrier Operations in the Pacific for Commodore 64 emulation", "work_id": 122281, "role": "creator", "role_id": 968, "is_primary": true}, {"id": 2689558, "title": "Emulation of Castle of Terror for Commodore 64", "work_id": 122282, "role": "creator", "role_id": 968, "is_primary": true}, {"id": 2689564, "title": "Emulation of Decisive Battles of the American Civil War, Vol. 2 for Commodore 64", "work_id": 122284, "role": "creator", "role_id": 968, "is_primary": true}, {"id": 2689566, "title": "Emulation of Decisive Battles of the American Civil War, Vol. 3 for Commodore 64", "work_id": 122285, "role": "creator", "role_id": 968, "is_primary": true}, {"id": 2689596, "title": "Emulation of Europe Ablaze for Commodore 64", "work_id": 122275, "role": "creator", "role_id": 968, "is_primary": true}, {"id": 2689615, "title": "Emulation of Fire King for Commodore 64", "work_id": 122286, "role": "creator", "role_id": 968, "is_primary": true}, {"id": 2689629, "title": "Emulation of Gold Dust Island for Commodore 64", "work_id": 122287, "role": "creator", "role_id": 968, "is_primary": true}, {"id": 2689631, "title": "Emulation of Goldfields for Commodore 64", "work_id": 122288, "role": "creator", "role_id": 968, "is_primary": true}, {"id": 2689638, "title": "Emulation of Halls of Montezuma for Commodore 64", "work_id": 122289, "role": "creator", "role_id": 968, "is_primary": true}, {"id": 2689659, "title": "Emulation of Inspector Gadget and the Circus of Fear for Commodore 64", "work_id": 122290, "role": "creator", "role_id": 968, "is_primary": true}, {"id": 2689710, "title": "Emulation of Raft-Away River for Commodore 64", "work_id": 119143, "role": "creator", "role_id": 968, "is_primary": true}, {"id": 2689712, "title": "Emulation of Reach for the Stars: The Conquest of the Galaxy Version 1 for Commodore 64", "work_id": 122291, "role": "creator", "role_id": 968, "is_primary": true}, {"id": 2689717, "title": "Emulation of Rommel: Battles for North America  for Commodore 64", "work_id": 122292, "role": "creator", "role_id": 968, "is_primary": true}, {"id": 2689719, "title": "Emulation of Russia The Great War in the East 1941-1945 or Commodore 64", "work_id": 122293, "role": "creator", "role_id": 968, "is_primary": true}, {"id": 2689749, "title": "Emulation of Sgt Slaughter's Mat Wars for Commodore 64", "work_id": 122295, "role": "creator", "role_id": 968, "is_primary": true}, {"id": 2689756, "title": "Emulation of Sheep-Dog Trial  for Commodore 64", "work_id": 122296, "role": "creator", "role_id": 968, "is_primary": true}], "also_known_as": "", "date_of_birth": "", "date_of_death": "", "genders": [], "languages": [], "places_of_operation": [], "biography": "", "biography_author": null, "date_of_biography": "2023-08-16T03:56:09.372349+10:00", "external_links": [], "uuid": "c4131800-666d-48cd-bab3-350699308f7d", "source": {"name": "Vernon", "slug": "vernon"}, "source_identifier": "1980", "external_references": [], "date_modified": "2025-03-12T05:43:26.552292+11:00"}, {"id": 72030, "name": "Barbara Flueckiger", "roles_in_work": [{"id": 2684520, "title": "Salomé", "work_id": 99836, "role": "photographer", "role_id": 440, "is_primary": false}, {"id": 2684517, "title": "Das Cabinet des Dr. Caligari (The Cabinet of Dr. Caligari)", "work_id": 99835, "role": "photographer", "role_id": 440, "is_primary": false}, {"id": 2684515, "title": "Das Cabinet des Dr. Caligari (The Cabinet of Dr. Caligari)", "work_id": 99834, "role": "photographer", "role_id": 440, "is_primary": false}, {"id": 2684513, "title": "Das Cabinet des Dr. Caligari (The Cabinet of Dr. Caligari)", "work_id": 99833, "role": "photographer", "role_id": 440, "is_primary": false}, {"id": 2684511, "title": "Das Cabinet des Dr. Caligari (The Cabinet of Dr. Caligari)", "work_id": 99832, "role": "photographer", "role_id": 440, "is_primary": false}, {"id": 2684509, "title": "Das Cabinet des Dr. Caligari (The Cabinet of Dr. Caligari)", "work_id": 99831, "role": "photographer", "role_id": 440, "is_primary": false}, {"id": 2684506, "title": "Métamorphoses du papillon (Metamorphoses of the Butterfly)", "work_id": 99825, "role": "photographer", "role_id": 440, "is_primary": false}, {"id": 2684504, "title": "Métamorphoses du papillon (Metamorphoses of the Butterfly)", "work_id": 99824, "role": "photographer", "role_id": 440, "is_primary": false}, {"id": 2684502, "title": "Métamorphoses du papillon (Metamorphoses of the Butterfly)", "work_id": 99823, "role": "photographer", "role_id": 440, "is_primary": false}, {"id": 2684537, "title": "The Woman God Forgot ", "work_id": 99844, "role": "photographer", "role_id": 440, "is_primary": false}, {"id": 2684539, "title": "The Woman God Forgot ", "work_id": 99845, "role": "photographer", "role_id": 440, "is_primary": false}, {"id": 2684542, "title": "Casanova ", "work_id": 99846, "role": "photographer", "role_id": 440, "is_primary": false}, {"id": 2684544, "title": "Casanova ", "work_id": 99847, "role": "photographer", "role_id": 440, "is_primary": false}, {"id": 2684546, "title": "Casanova ", "work_id": 99848, "role": "photographer", "role_id": 440, "is_primary": false}, {"id": 2684548, "title": "Casanova ", "work_id": 99849, "role": "photographer", "role_id": 440, "is_primary": false}, {"id": 2684550, "title": "Casanova ", "work_id": 99850, "role": "photographer", "role_id": 440, "is_primary": false}, {"id": 2684535, "title": "The Woman God Forgot ", "work_id": 99843, "role": "photographer", "role_id": 440, "is_primary": false}, {"id": 2684533, "title": "The Woman God Forgot ", "work_id": 99842, "role": "photographer", "role_id": 440, "is_primary": false}, {"id": 2684531, "title": "The Woman God Forgot ", "work_id": 99841, "role": "photographer", "role_id": 440, "is_primary": false}, {"id": 2684528, "title": "Salomé", "work_id": 99840, "role": "photographer", "role_id": 440, "is_primary": false}, {"id": 2684526, "title": "Salomé", "work_id": 99839, "role": "photographer", "role_id": 440, "is_primary": false}, {"id": 2684524, "title": "Salomé", "work_id": 99838, "role": "photographer", "role_id": 440, "is_primary": false}, {"id": 2684500, "title": "Métamorphoses du papillon (Metamorphoses of the Butterfly)", "work_id": 99822, "role": "photographer", "role_id": 440, "is_primary": false}, {"id": 2684497, "title": "Annabelle Butterfly Dance", "work_id": 99830, "role": "photographer", "role_id": 440, "is_primary": false}, {"id": 2684522, "title": "Salomé", "work_id": 99837, "role": "photographer", "role_id": 440, "is_primary": false}, {"id": 2684493, "title": "Annabelle Butterfly Dance", "work_id": 99828, "role": "photographer", "role_id": 440, "is_primary": false}, {"id": 2684495, "title": "Annabelle Butterfly Dance", "work_id": 99829, "role": "photographer", "role_id": 440, "is_primary": false}, {"id": 2684491, "title": "Annabelle Butterfly Dance", "work_id": 99827, "role": "photographer", "role_id": 440, "is_primary": false}, {"id": 2684489, "title": "Annabelle Butterfly Dance", "work_id": 99826, "role": "photographer", "role_id": 440, "is_primary": false}], "also_known_as": "", "date_of_birth": "", "date_of_death": "", "genders": [], "languages": [], "places_of_operation": [], "biography": "", "biography_author": null, "date_of_biography": "2023-05-09T17:30:42.662992+10:00", "external_links": [], "uuid": "91346fc2-63a5-4a22-9e71-7fb0c2e5cd3a", "source": {"name": "Vernon", "slug": "vernon"}, "source_identifier": "39397", "external_references": [], "date_modified": "2025-03-11T11:38:17.301906+11:00"}, {"id": 72029, "name": "Etienne-Jules Marey", "roles_in_work": [{"id": 3092537, "title": "Chronophotographic prints", "work_id": 112095, "role": "creator", "role_id": 968, "is_primary": true}, {"id": 3092535, "title": "Chronophotographic prints\nBird in Flight", "work_id": 99816, "role": "creator", "role_id": 968, "is_primary": true}, {"id": 3092534, "title": "Chronophotographic prints\nArab Horse Gallop", "work_id": 99818, "role": "creator", "role_id": 968, "is_primary": true}, {"id": 3092536, "title": "Chronophotographic prints\nMovements in Pole Vaulting", "work_id": 99817, "role": "creator", "role_id": 968, "is_primary": true}], "also_known_as": "", "date_of_birth": "", "date_of_death": "", "genders": [], "languages": [], "places_of_operation": [], "biography": "", "biography_author": null, "date_of_biography": "2023-05-09T18:00:24.836297+10:00", "external_links": [], "uuid": "434bb54c-9e0f-492b-8d78-bb4b2b2df987", "source": {"name": "Vernon", "slug": "vernon"}, "source_identifier": "112135", "external_references": [], "date_modified": "2025-03-24T22:35:19.838489+11:00"}, {"id": 72028, "name": "Eadweard Muybridge", "roles_in_work": [{"id": 3092545, "title": "Sequential photographs\nMotion Studies: Straight High Jump", "work_id": 99815, "role": "creator", "role_id": 968, "is_primary": true}, {"id": 2685014, "title": "Dog Dread Galloping", "work_id": 100679, "role": "creator", "role_id": 968, "is_primary": true}, {"id": 3092546, "title": "Sequential photographs", "work_id": 112094, "role": "creator", "role_id": 968, "is_primary": true}, {"id": 3092542, "title": "Sequential photographs\nMotion Studies: A man standing on his hands from a lying down position", "work_id": 99812, "role": "creator", "role_id": 968, "is_primary": true}, {"id": 3092543, "title": "Sequential photographs\nMotion Studies: Horse", "work_id": 99810, "role": "creator", "role_id": 968, "is_primary": true}, {"id": 3092544, "title": "Sequential photographs\nMotion Studies: Man with Hat", "work_id": 99814, "role": "creator", "role_id": 968, "is_primary": true}], "also_known_as": "", "date_of_birth": "", "date_of_death": "", "genders": [], "languages": [], "places_of_operation": [], "biography": "", "biography_author": null, "date_of_biography": "2023-05-09T18:01:04.030569+10:00", "external_links": [], "uuid": "89b56982-168f-41ee-8163-b0f171322f02", "source": {"name": "Vernon", "slug": "vernon"}, "source_identifier": "39454", "external_references": [], "date_modified": "2025-03-24T22:35:28.300032+11:00"}, {"id": 72027, "name": "James C. Bradford", "roles_in_work": [{"id": 2684575, "title": "The Ten Commandments cue sheet", "work_id": 99697, "role": "composer", "role_id": 538, "is_primary": false}, {"id": 2684576, "title": "What Price Glory cue sheet", "work_id": 99696, "role": "composer", "role_id": 538, "is_primary": false}], "also_known_as": "", "date_of_birth": "", "date_of_death": "", "genders": [], "languages": [], "places_of_operation": [], "biography": "", "biography_author": null, "date_of_biography": "2023-08-14T12:43:23.818010+10:00", "external_links": [], "uuid": "0241a14f-ab5f-458b-9216-60bb750e39fa", "source": {"name": "Vernon", "slug": "vernon"}, "source_identifier": "39453", "external_references": [], "date_modified": "2025-03-11T11:38:50.042822+11:00"}, {"id": 72026, "name": "Louis Povet", "roles_in_work": [{"id": 2684466, "title": "Charles-Émile Reynaud’s Théâtre Optique", "work_id": 99657, "role": "artist", "role_id": 505, "is_primary": true}], "also_known_as": "", "date_of_birth": "", "date_of_death": "", "genders": [], "languages": [], "places_of_operation": [], "biography": "", "biography_author": null, "date_of_biography": "2023-05-09T13:29:27.420242+10:00", "external_links": [], "uuid": "3679378f-61c0-4dc6-81ea-3ff3b3af7797", "source": {"name": "Vernon", "slug": "vernon"}, "source_identifier": "39451", "external_references": [], "date_modified": "2025-03-11T11:36:55.102261+11:00"}, {"id": 72025, "name": "David Howard", "roles_in_work": [{"id": 2684664, "title": "Thunder Mountain cinema slide", "work_id": 119843, "role": "director", "role_id": 938, "is_primary": true}], "also_known_as": "", "date_of_birth": "", "date_of_death": "", "genders": [], "languages": [], "places_of_operation": [], "biography": "", "biography_author": null, "date_of_biography": "2023-07-19T03:50:38.773760+10:00", "external_links": [], "uuid": "9f3f91f7-6482-4542-930b-d96e9813a185", "source": {"name": "Vernon", "slug": "vernon"}, "source_identifier": "39463", "external_references": [{"id": 36143, "source": {"name": "Wikidata", "slug": "wikidata"}, "source_identifier": "Q121315603"}], "date_modified": "2025-03-11T11:40:46.447178+11:00"}, {"id": 72024, "name": "D. Lederman", "roles_in_work": [{"id": 2684645, "title": "Murder in the Clouds cinema slide", "work_id": 119839, "role": "director", "role_id": 938, "is_primary": true}], "also_known_as": "", "date_of_birth": "", "date_of_death": "", "genders": [], "languages": [], "places_of_operation": [], "biography": "", "biography_author": null, "date_of_biography": "2023-07-19T03:50:22.082166+10:00", "external_links": [], "uuid": "4796a1a9-6983-4158-9af9-cfa5012ecaed", "source": {"name": "Vernon", "slug": "vernon"}, "source_identifier": "39455", "external_references": [{"id": 38114, "source": {"name": "Wikidata", "slug": "wikidata"}, "source_identifier": "Q121223502"}], "date_modified": "2025-03-11T11:40:33.526355+11:00"}, {"id": 72023, "name": "Mark Sandrich", "roles_in_work": [{"id": 2350403, "title": "The Gay divorcee", "work_id": 80471, "role": "director", "role_id": 938, "is_primary": true}, {"id": 2130150, "title": "Carefree", "work_id": 95427, "role": "director", "role_id": 938, "is_primary": true}, {"id": 2245507, "title": "Follow the fleet", "work_id": 95436, "role": "director", "role_id": 938, "is_primary": true}, {"id": 2289858, "title": "Top Hat", "work_id": 81299, "role": "director", "role_id": 938, "is_primary": true}, {"id": 2296717, "title": "Shall we dance?", "work_id": 81178, "role": "director", "role_id": 938, "is_primary": true}, {"id": 2684616, "title": "The Gay Divorcee cinema slide", "work_id": 119836, "role": "director", "role_id": 938, "is_primary": true}], "also_known_as": "", "date_of_birth": "26 AUG 1900", "date_of_death": "04 MAR 1945", "genders": [{"id": 9, "name": "Male", "slug": "male"}], "languages": [{"id": 1, "name": "English", "slug": "english"}], "places_of_operation": [{"id": 1, "name": "United States of America", "slug": "united-states-of-america"}], "biography": "Mark Sandrich (born Mark Rex Goldstein; October 26, 1900 – March 4, 1945) was an American film director, writer, and producer. Source: Wikidata; 01/08/2023", "biography_author": null, "date_of_biography": "2025-03-11T11:40:00.960574+11:00", "external_links": [{"id": 2650, "uri": "https://en.wikipedia.org/wiki/Mark_Sandrich"}], "uuid": "c56fbb37-3b6b-4c3c-b0f6-ecdaf445dec5", "source": {"name": "Vernon", "slug": "vernon"}, "source_identifier": "24555", "external_references": [{"id": 11316, "source": {"name": "Wikidata", "slug": "wikidata"}, "source_identifier": "Q382529"}, {"id": 11317, "source": {"name": "VIAF", "slug": "viaf"}, "source_identifier": "29733350"}, {"id": 11318, "source": {"name": "LOC Auth", "slug": "loc-auth"}, "source_identifier": "n86138681"}, {"id": 11319, "source": {"name": "WorldCat", "slug": "worldcat"}, "source_identifier": "lccn-n86138681"}], "date_modified": "2025-03-11T11:40:00.960886+11:00"}]}