{"count": 28687, "next": "https://api.acmi.net.au/creators/?page=286", "previous": "https://api.acmi.net.au/creators/?page=284", "results": [{"id": 82757, "name": "Zuo Ling", "roles_in_work": [{"id": 2651249, "title": "Death and the maiden = Si shen yu shao nu", "work_id": 115816, "role": "cast", "role_id": 33, "is_primary": false}], "also_known_as": "", "date_of_birth": "", "date_of_death": "", "genders": [], "languages": [], "places_of_operation": [], "biography": "", "biography_author": null, "date_of_biography": "2023-05-09T14:54:06.418462+10:00", "external_links": [], "uuid": "a41b8a41-15ff-472e-b67d-182476deae3b", "source": {"name": "Vernon", "slug": "vernon"}, "source_identifier": "36130", "external_references": [{"id": 34588, "source": {"name": "Wikidata", "slug": "wikidata"}, "source_identifier": "Q60993739"}], "date_modified": "2025-03-05T14:28:01.052570+11:00"}, {"id": 82756, "name": "Jiang Yunhui", "roles_in_work": [{"id": 2651248, "title": "Death and the maiden = Si shen yu shao nu", "work_id": 115816, "role": "cast", "role_id": 33, "is_primary": false}], "also_known_as": "", "date_of_birth": "", "date_of_death": "", "genders": [], "languages": [], "places_of_operation": [], "biography": "", "biography_author": null, "date_of_biography": "2023-05-09T14:54:06.172258+10:00", "external_links": [], "uuid": "c787b85f-451f-4344-b361-aed57d8a02e4", "source": {"name": "Vernon", "slug": "vernon"}, "source_identifier": "36129", "external_references": [{"id": 34526, "source": {"name": "Wikidata", "slug": "wikidata"}, "source_identifier": "Q121057971"}], "date_modified": "2025-03-05T14:28:00.468318+11:00"}, {"id": 82755, "name": "Liu Qiong", "roles_in_work": [{"id": 2651247, "title": "Death and the maiden = Si shen yu shao nu", "work_id": 115816, "role": "cast", "role_id": 33, "is_primary": false}], "also_known_as": "", "date_of_birth": "1913-10-16", "date_of_death": "2002-04-28", "genders": [{"id": 9, "name": "Male", "slug": "male"}], "languages": [], "places_of_operation": [], "biography": "Liu Qiong (16 October 1913 – 28 April 2002) was a Chinese film director and actor.", "biography_author": "Wikidata", "date_of_biography": "2023-09-05T22:28:14.537200+10:00", "external_links": [{"id": 5980, "uri": "https://en.wikipedia.org/wiki/Liu_Qiong"}], "uuid": "16786acc-fdfd-4bb2-814f-581d56aa5a58", "source": {"name": "Vernon", "slug": "vernon"}, "source_identifier": "36128", "external_references": [{"id": 50921, "source": {"name": "Wikidata", "slug": "wikidata"}, "source_identifier": "Q15077981"}, {"id": 55079, "source": {"name": "VIAF", "slug": "viaf"}, "source_identifier": "43985238"}, {"id": 55080, "source": {"name": "LOC Auth", "slug": "loc-auth"}, "source_identifier": "no2003047024"}, {"id": 55081, "source": {"name": "WorldCat", "slug": "worldcat"}, "source_identifier": "lccn-no2003047024"}], "date_modified": "2025-03-05T14:27:59.876965+11:00"}, {"id": 82754, "name": "Zhao Qihua", "roles_in_work": [{"id": 2651246, "title": "Death and the maiden = Si shen yu shao nu", "work_id": 115816, "role": "editor", "role_id": 918, "is_primary": true}], "also_known_as": "", "date_of_birth": "", "date_of_death": "", "genders": [], "languages": [], "places_of_operation": [], "biography": "", "biography_author": null, "date_of_biography": "2023-05-09T14:54:05.687739+10:00", "external_links": [], "uuid": "5a6178cb-5003-4d11-ac0c-cbbb5733dc0f", "source": {"name": "Vernon", "slug": "vernon"}, "source_identifier": "36127", "external_references": [{"id": 43031, "source": {"name": "Wikidata", "slug": "wikidata"}, "source_identifier": "Q121159995"}], "date_modified": "2025-03-05T14:27:59.289054+11:00"}, {"id": 82753, "name": "Cao Zuobin", "roles_in_work": [{"id": 2651245, "title": "Death and the maiden = Si shen yu shao nu", "work_id": 115816, "role": "cinematographer", "role_id": 32, "is_primary": false}], "also_known_as": "", "date_of_birth": "", "date_of_death": "", "genders": [], "languages": [], "places_of_operation": [], "biography": "", "biography_author": null, "date_of_biography": "2023-05-09T14:54:05.440851+10:00", "external_links": [], "uuid": "677c5c99-808e-4db0-b434-eac4c6786cb3", "source": {"name": "Vernon", "slug": "vernon"}, "source_identifier": "36126", "external_references": [{"id": 32872, "source": {"name": "Wikidata", "slug": "wikidata"}, "source_identifier": "Q121126555"}], "date_modified": "2025-03-05T14:27:58.700791+11:00"}, {"id": 82752, "name": "Shi Tiesheng", "roles_in_work": [{"id": 2651244, "title": "Death and the maiden = Si shen yu shao nu", "work_id": 115816, "role": "script", "role_id": 962, "is_primary": false}], "also_known_as": "", "date_of_birth": "04 JAN 1951", "date_of_death": "31 DEC 2010", "genders": [{"id": 9, "name": "Male", "slug": "male"}], "languages": [], "places_of_operation": [], "biography": "", "biography_author": null, "date_of_biography": "2023-05-09T14:54:05.198064+10:00", "external_links": [], "uuid": "ad05043a-5b9f-4aac-8f41-9233a9d5515a", "source": {"name": "Vernon", "slug": "vernon"}, "source_identifier": "36125", "external_references": [], "date_modified": "2025-03-05T14:27:58.056898+11:00"}, {"id": 82751, "name": "Tongrong Huang", "roles_in_work": [{"id": 2651239, "title": "The Artillery of Qing Dynasty = Da Qing Pao Dui", "work_id": 115815, "role": "cinematographer", "role_id": 32, "is_primary": false}], "also_known_as": "", "date_of_birth": "", "date_of_death": "", "genders": [], "languages": [], "places_of_operation": [], "biography": "", "biography_author": null, "date_of_biography": "2023-05-09T19:21:54.479022+10:00", "external_links": [], "uuid": "9bc1c6f5-be8e-42a6-9e32-fe8c1711b438", "source": {"name": "Vernon", "slug": "vernon"}, "source_identifier": "36464", "external_references": [{"id": 43160, "source": {"name": "Wikidata", "slug": "wikidata"}, "source_identifier": "Q121144135"}], "date_modified": "2025-03-05T14:27:54.855154+11:00"}, {"id": 82750, "name": "Tang Guoqiang", "roles_in_work": [{"id": 2651236, "title": "The Republic will never forget = Gong he guo bu hui wang ji", "work_id": 115814, "role": "cast", "role_id": 33, "is_primary": false}], "also_known_as": "", "date_of_birth": "04 MAY 1952", "date_of_death": null, "genders": [{"id": 9, "name": "Male", "slug": "male"}], "languages": [], "places_of_operation": [], "biography": "", "biography_author": null, "date_of_biography": null, "external_links": [], "uuid": "46231e39-bf78-45af-b4ad-765ab2b6a2c3", "source": {"name": "Vernon", "slug": "vernon"}, "source_identifier": "36328", "external_references": [{"id": 32539, "source": {"name": "Wikidata", "slug": "wikidata"}, "source_identifier": "Q1152156"}], "date_modified": "2025-03-05T14:27:52.808445+11:00"}, {"id": 82749, "name": "Wu Guangcan", "roles_in_work": [{"id": 2651235, "title": "The Republic will never forget = Gong he guo bu hui wang ji", "work_id": 115814, "role": "editor", "role_id": 918, "is_primary": true}], "also_known_as": "", "date_of_birth": null, "date_of_death": null, "genders": [], "languages": [], "places_of_operation": [], "biography": "", "biography_author": null, "date_of_biography": null, "external_links": [], "uuid": "7d50c4b2-8837-476a-aebd-792eff6d5640", "source": {"name": "Vernon", "slug": "vernon"}, "source_identifier": "36327", "external_references": [{"id": 39276, "source": {"name": "Wikidata", "slug": "wikidata"}, "source_identifier": "Q121036814"}], "date_modified": "2025-03-05T14:27:52.201010+11:00"}, {"id": 82748, "name": "Shen Jie", "roles_in_work": [{"id": 2651234, "title": "The Republic will never forget = Gong he guo bu hui wang ji", "work_id": 115814, "role": "cinematographer", "role_id": 32, "is_primary": false}], "also_known_as": "", "date_of_birth": null, "date_of_death": null, "genders": [], "languages": [], "places_of_operation": [], "biography": "", "biography_author": null, "date_of_biography": null, "external_links": [], "uuid": "5c2f3617-03cd-44eb-b4e8-55c2c355d123", "source": {"name": "Vernon", "slug": "vernon"}, "source_identifier": "36326", "external_references": [{"id": 41581, "source": {"name": "Wikidata", "slug": "wikidata"}, "source_identifier": "Q121299331"}], "date_modified": "2025-03-05T14:27:51.601471+11:00"}]}