{"count": 28687, "next": "https://api.acmi.net.au/creators/?page=1754", "previous": "https://api.acmi.net.au/creators/?page=1752", "results": [{"id": 27424, "name": "Seventh Art Productions", "roles_in_work": [{"id": 2793272, "title": "The Great commanders", "work_id": 115458, "role": "production company", "role_id": 941, "is_primary": true}, {"id": 2793254, "title": "Alexander the Great and the Battle of Issus", "work_id": 85441, "role": "production company", "role_id": 941, "is_primary": true}, {"id": 2793257, "title": "Julius Caesar and the Battle of Alesia", "work_id": 85442, "role": "production company", "role_id": 941, "is_primary": true}, {"id": 2793260, "title": "Horatio Nelson and the Battle of Trafalgar", "work_id": 85443, "role": "production company", "role_id": 941, "is_primary": true}, {"id": 2793263, "title": "Napoleon Bonaparte and the Battle of Austerlitz", "work_id": 85444, "role": "production company", "role_id": 941, "is_primary": true}, {"id": 2793266, "title": "Ulysses S. Grant and the Battle of the Wilderness", "work_id": 85445, "role": "production company", "role_id": 941, "is_primary": true}, {"id": 2793269, "title": "Georgi Zhukov and the Battle for Berlin", "work_id": 85446, "role": "production company", "role_id": 941, "is_primary": true}], "also_known_as": "", "date_of_birth": "", "date_of_death": "", "genders": [], "languages": [], "places_of_operation": [], "biography": "", "biography_author": null, "date_of_biography": "2023-05-09T19:58:13.278033+10:00", "external_links": [], "uuid": "adf2c2a0-7edb-413d-84e3-7ef94c7a2f34", "source": {"name": "Vernon", "slug": "vernon"}, "source_identifier": "12476", "external_references": [{"id": 32789, "source": {"name": "Wikidata", "slug": "wikidata"}, "source_identifier": "Q121035232"}], "date_modified": "2025-03-14T20:16:50.835702+11:00"}, {"id": 27419, "name": "Monarchy Enterprises B. V.", "roles_in_work": [{"id": 2124228, "title": "Breaking up", "work_id": 87844, "role": "production company", "role_id": 941, "is_primary": true}, {"id": 2338860, "title": "The Client", "work_id": 88496, "role": "production company", "role_id": 941, "is_primary": true}, {"id": 2123171, "title": "Boys on the side", "work_id": 85439, "role": "production company", "role_id": 941, "is_primary": true}, {"id": 1991072, "title": "Free Willy 3: the rescue", "work_id": 86791, "role": "production company", "role_id": 941, "is_primary": true}, {"id": 1991590, "title": "Heat", "work_id": 87339, "role": "production company", "role_id": 941, "is_primary": true}], "also_known_as": "", "date_of_birth": "", "date_of_death": "", "genders": [], "languages": [], "places_of_operation": [], "biography": "", "biography_author": null, "date_of_biography": "2023-05-09T19:36:32.467217+10:00", "external_links": [], "uuid": "d7230f8d-986a-46d6-9744-f3e037565ae0", "source": {"name": "Vernon", "slug": "vernon"}, "source_identifier": "10608", "external_references": [], "date_modified": "2023-06-14T16:33:30.576250+10:00"}, {"id": 27416, "name": "Smile Productions", "roles_in_work": [{"id": 2168987, "title": "Dance me to my song", "work_id": 90468, "role": "production company", "role_id": 941, "is_primary": true}, {"id": 789652, "title": "Discovering aromatherapy", "work_id": 85437, "role": "production company", "role_id": 941, "is_primary": true}, {"id": 909754, "title": "The Quiet room", "work_id": 90466, "role": "production company", "role_id": 941, "is_primary": true}], "also_known_as": "", "date_of_birth": "", "date_of_death": "", "genders": [], "languages": [], "places_of_operation": [], "biography": "", "biography_author": null, "date_of_biography": "2023-05-09T14:31:25.277110+10:00", "external_links": [], "uuid": "1e2828c0-d884-4ff8-9e9b-44ad081587f2", "source": {"name": "Vernon", "slug": "vernon"}, "source_identifier": "12665", "external_references": [{"id": 43461, "source": {"name": "Wikidata", "slug": "wikidata"}, "source_identifier": "Q121223054"}], "date_modified": "2023-09-06T01:22:12.837005+10:00"}, {"id": 27415, "name": "Smile Production", "roles_in_work": [{"id": 789651, "title": "Discovering aromatherapy", "work_id": 85437, "role": "distributor", "role_id": 437, "is_primary": false}, {"id": 2197946, "title": "Dogwatch", "work_id": 95074, "role": "production company", "role_id": 941, "is_primary": true}], "also_known_as": "", "date_of_birth": "", "date_of_death": "", "genders": [], "languages": [], "places_of_operation": [], "biography": "", "biography_author": null, "date_of_biography": "2023-05-09T15:20:47.580643+10:00", "external_links": [], "uuid": "f9b1d05a-b26e-4aec-824e-cb58799f8219", "source": {"name": "Vernon", "slug": "vernon"}, "source_identifier": "12664", "external_references": [{"id": 43311, "source": {"name": "Wikidata", "slug": "wikidata"}, "source_identifier": "Q121034272"}], "date_modified": "2023-09-06T01:22:12.037277+10:00"}, {"id": 27414, "name": "Roy Chin", "roles_in_work": [{"id": 2296919, "title": "Sharing the fruits of progress", "work_id": 85433, "role": "director", "role_id": 938, "is_primary": true}], "also_known_as": "", "date_of_birth": "", "date_of_death": "", "genders": [], "languages": [], "places_of_operation": [], "biography": "", "biography_author": null, "date_of_biography": "2023-05-09T18:29:16.949022+10:00", "external_links": [], "uuid": "88a7e76f-dfb6-4439-99d9-9638422da476", "source": {"name": "Vernon", "slug": "vernon"}, "source_identifier": "28301", "external_references": [{"id": 43258, "source": {"name": "Wikidata", "slug": "wikidata"}, "source_identifier": "Q121159712"}], "date_modified": "2023-09-06T00:57:19.360454+10:00"}, {"id": 27411, "name": "Yu Ping Chung", "roles_in_work": [{"id": 2615441, "title": "Festivals in Taiwan", "work_id": 85431, "role": "director", "role_id": 938, "is_primary": true}, {"id": 2651161, "title": "Devoted to the blue sky = Hun xi lan tian", "work_id": 115807, "role": "cast", "role_id": 33, "is_primary": false}], "also_known_as": "", "date_of_birth": "", "date_of_death": "", "genders": [], "languages": [], "places_of_operation": [], "biography": "", "biography_author": null, "date_of_biography": "2023-05-09T16:49:35.780712+10:00", "external_links": [], "uuid": "2ef0c47f-0e3f-4a46-8264-69a8b14b71eb", "source": {"name": "Vernon", "slug": "vernon"}, "source_identifier": "30609", "external_references": [{"id": 40457, "source": {"name": "Wikidata", "slug": "wikidata"}, "source_identifier": "Q121078898"}], "date_modified": "2025-03-05T14:27:06.923088+11:00"}, {"id": 27409, "name": "Goang Jiann Enterprises Corporation", "roles_in_work": [{"id": 2615438, "title": "Festivals in Taiwan", "work_id": 85431, "role": "production company", "role_id": 941, "is_primary": true}], "also_known_as": "", "date_of_birth": "", "date_of_death": "", "genders": [], "languages": [], "places_of_operation": [], "biography": "", "biography_author": null, "date_of_biography": "2023-05-09T16:49:34.829634+10:00", "external_links": [], "uuid": "59c4c2e9-d555-4405-9542-cbf2531dfcad", "source": {"name": "Vernon", "slug": "vernon"}, "source_identifier": "8767", "external_references": [{"id": 42777, "source": {"name": "Wikidata", "slug": "wikidata"}, "source_identifier": "Q121126441"}], "date_modified": "2025-02-26T20:23:49.376145+11:00"}, {"id": 27408, "name": "Thin Man Productions", "roles_in_work": [{"id": 2615427, "title": "Naked", "work_id": 85428, "role": "production company", "role_id": 941, "is_primary": true}], "also_known_as": "", "date_of_birth": null, "date_of_death": null, "genders": [], "languages": [], "places_of_operation": [], "biography": "", "biography_author": null, "date_of_biography": null, "external_links": [], "uuid": "59133371-ab08-40f0-ab4f-f8736a7f41ba", "source": {"name": "Vernon", "slug": "vernon"}, "source_identifier": "13483", "external_references": [], "date_modified": "2025-02-26T20:23:43.086350+11:00"}, {"id": 27406, "name": "Richard Hall", "roles_in_work": [{"id": 2793054, "title": "Deng's legacy: China as an economic force", "work_id": 85423, "role": "co-producer", "role_id": 915, "is_primary": true}, {"id": 2793049, "title": "China: unleashing the dragon", "work_id": 115454, "role": "producer", "role_id": 1089, "is_primary": true}, {"id": 2793047, "title": "China: unleashing the dragon", "work_id": 115454, "role": "producer", "role_id": 1089, "is_primary": true}, {"id": 2793058, "title": "The Heart of the matter: the decline of traditional cultural values", "work_id": 85424, "role": "producer", "role_id": 1089, "is_primary": true}], "also_known_as": "", "date_of_birth": "", "date_of_death": "", "genders": [], "languages": [], "places_of_operation": [], "biography": "", "biography_author": null, "date_of_biography": "2023-05-09T19:53:24.869973+10:00", "external_links": [], "uuid": "62cdd812-f262-4cf7-b121-0ddf3ba3a4ad", "source": {"name": "Vernon", "slug": "vernon"}, "source_identifier": "27401", "external_references": [{"id": 37934, "source": {"name": "Wikidata", "slug": "wikidata"}, "source_identifier": "Q121314929"}], "date_modified": "2025-03-14T20:15:22.671617+11:00"}, {"id": 27403, "name": "New Eagle International", "roles_in_work": [{"id": 2793053, "title": "Deng's legacy: China as an economic force", "work_id": 85423, "role": "production company", "role_id": 941, "is_primary": true}, {"id": 2793048, "title": "The Fragile rice bowl: workers in New China", "work_id": 85422, "role": "production company", "role_id": 941, "is_primary": true}, {"id": 2793060, "title": "The Future of Hong Kong: China's gateway to the international community", "work_id": 85425, "role": "production company", "role_id": 941, "is_primary": true}, {"id": 2793063, "title": "China: unleashing the dragon", "work_id": 115454, "role": "production company", "role_id": 941, "is_primary": true}, {"id": 2793057, "title": "The Heart of the matter: the decline of traditional cultural values", "work_id": 85424, "role": "production company", "role_id": 941, "is_primary": true}], "also_known_as": "", "date_of_birth": "", "date_of_death": "", "genders": [], "languages": [], "places_of_operation": [], "biography": "", "biography_author": null, "date_of_biography": "2023-05-09T19:53:27.670757+10:00", "external_links": [], "uuid": "3811c088-f2c9-4c91-b656-8e6d18a32102", "source": {"name": "Vernon", "slug": "vernon"}, "source_identifier": "10896", "external_references": [{"id": 38581, "source": {"name": "Wikidata", "slug": "wikidata"}, "source_identifier": "Q121223164"}], "date_modified": "2025-03-14T20:15:23.393483+11:00"}]}