{"count": 28687, "next": "https://api.acmi.net.au/creators/?page=1425", "previous": "https://api.acmi.net.au/creators/?page=1423", "results": [{"id": 36284, "name": "Bieber + Lewis", "roles_in_work": [{"id": 2336579, "title": "The Cat's meow [DVD]", "work_id": 94347, "role": "production company", "role_id": 941, "is_primary": true}], "also_known_as": "", "date_of_birth": "", "date_of_death": "", "genders": [], "languages": [], "places_of_operation": [], "biography": "", "biography_author": null, "date_of_biography": "2023-05-09T19:32:48.934031+10:00", "external_links": [], "uuid": "640f20b1-73bb-498e-919d-e1434f15121d", "source": {"name": "Vernon", "slug": "vernon"}, "source_identifier": "5841", "external_references": [{"id": 41691, "source": {"name": "Wikidata", "slug": "wikidata"}, "source_identifier": "Q121159901"}], "date_modified": "2023-09-05T18:01:44.281814+10:00"}, {"id": 36277, "name": "Bill Morrison", "roles_in_work": [{"id": 2115095, "title": "Bill Morrison: 8 films", "work_id": 94629, "role": "director", "role_id": 938, "is_primary": true}, {"id": 819430, "title": "Decasia", "work_id": 94340, "role": "producer/director", "role_id": 31, "is_primary": true}, {"id": 2115091, "title": "Bill Morrison: 8 films", "work_id": 94629, "role": "production company", "role_id": 941, "is_primary": true}], "also_known_as": "", "date_of_birth": "1965-11-17", "date_of_death": "", "genders": [{"id": 9, "name": "Male", "slug": "male"}], "languages": [], "places_of_operation": [{"id": 1, "name": "United States of America", "slug": "united-states-of-america"}], "biography": "Bill Morrison (born November 17, 1965) is an American, New York–based filmmaker and artist. His films often combine rare archival material set to contemporary music, and have been screened in theaters, cinemas, museums, galleries, and concert halls around the world.", "biography_author": "Wikidata", "date_of_biography": "2023-08-01T14:13:37.702444+10:00", "external_links": [{"id": 3656, "uri": "https://en.wikipedia.org/wiki/Bill_Morrison_(director)"}], "uuid": "ce811afb-230c-4f18-989e-894653c89ec1", "source": {"name": "Vernon", "slug": "vernon"}, "source_identifier": "15987", "external_references": [{"id": 25712, "source": {"name": "Wikidata", "slug": "wikidata"}, "source_identifier": "Q2903310"}, {"id": 27537, "source": {"name": "VIAF", "slug": "viaf"}, "source_identifier": "51896558"}, {"id": 27538, "source": {"name": "LOC Auth", "slug": "loc-auth"}, "source_identifier": "no2009128046"}, {"id": 27539, "source": {"name": "WorldCat", "slug": "worldcat"}, "source_identifier": "lccn-no2009128046"}], "date_modified": "2023-09-05T18:03:59.581206+10:00"}, {"id": 36258, "name": "Brad Grey Television", "roles_in_work": [{"id": 3086380, "title": "The Sopranos. Season 3. Vol. 2. Eps 30-32", "work_id": 94325, "role": "production company", "role_id": 941, "is_primary": true}, {"id": 3086361, "title": "The Sopranos. Season 3. Vol. 1. Eps 27-29", "work_id": 94324, "role": "production company", "role_id": 941, "is_primary": true}, {"id": 3086397, "title": "The Sopranos. Season 3. Vol. 3. Eps 33-35", "work_id": 94326, "role": "production company", "role_id": 941, "is_primary": true}, {"id": 3086415, "title": "The Sopranos. Season 3. Vol. 4. Eps 36-39", "work_id": 94327, "role": "production company", "role_id": 941, "is_primary": true}, {"id": 3086487, "title": "The Sopranos. Season 3 [DVD]", "work_id": 94337, "role": "production company", "role_id": 941, "is_primary": true}, {"id": 3086512, "title": "The Sopranos. Season 4", "work_id": 95023, "role": "production company", "role_id": 941, "is_primary": true}], "also_known_as": "", "date_of_birth": "", "date_of_death": "", "genders": [], "languages": [], "places_of_operation": [], "biography": "", "biography_author": null, "date_of_biography": "2023-08-17T15:09:04.327252+10:00", "external_links": [], "uuid": "4a8e04f7-ce24-430e-b955-55ab0729e4fa", "source": {"name": "Vernon", "slug": "vernon"}, "source_identifier": "5960", "external_references": [], "date_modified": "2025-03-17T10:44:30.893964+11:00"}, {"id": 36246, "name": "Ilene Landress", "roles_in_work": [{"id": 3086383, "title": "The Sopranos. Season 3. Vol. 2. Eps 30-32", "work_id": 94325, "role": "co-producer", "role_id": 915, "is_primary": true}, {"id": 3086231, "title": "The Sopranos. Season 1. Vol. 1. Eps 01-04", "work_id": 94320, "role": "co-producer", "role_id": 915, "is_primary": true}, {"id": 3086365, "title": "The Sopranos. Season 3. Vol. 1. Eps 27-29", "work_id": 94324, "role": "co-producer", "role_id": 915, "is_primary": true}, {"id": 3086295, "title": "The Sopranos. Season 1. Vol. 3. Eps 08-10", "work_id": 94322, "role": "co-producer", "role_id": 915, "is_primary": true}, {"id": 3086438, "title": "The Sopranos. Season 1 [DVD]", "work_id": 94335, "role": "co-producer", "role_id": 915, "is_primary": true}, {"id": 3086327, "title": "The Sopranos. Season 1. Vol. 4. Eps 11-13", "work_id": 94323, "role": "co-producer", "role_id": 915, "is_primary": true}, {"id": 3086419, "title": "The Sopranos. Season 3. Vol. 4. Eps 36-39", "work_id": 94327, "role": "co-producer", "role_id": 915, "is_primary": true}, {"id": 3086401, "title": "The Sopranos. Season 3. Vol. 3. Eps 33-35", "work_id": 94326, "role": "co-producer", "role_id": 915, "is_primary": true}, {"id": 3086268, "title": "The Sopranos. Season 1. Vol. 2. Eps 05-07", "work_id": 94321, "role": "co-producer", "role_id": 915, "is_primary": true}, {"id": 3086543, "title": "The Sopranos", "work_id": 115622, "role": "co-producer", "role_id": 915, "is_primary": true}, {"id": 3086516, "title": "The Sopranos. Season 4", "work_id": 95023, "role": "co-producer", "role_id": 915, "is_primary": true}, {"id": 3086491, "title": "The Sopranos. Season 3 [DVD]", "work_id": 94337, "role": "co-producer", "role_id": 915, "is_primary": true}, {"id": 3086469, "title": "The Sopranos. Season 2 [DVD]", "work_id": 94336, "role": "producer", "role_id": 1089, "is_primary": true}], "also_known_as": "", "date_of_birth": "", "date_of_death": "", "genders": [], "languages": [], "places_of_operation": [], "biography": "", "biography_author": null, "date_of_biography": "2023-08-17T15:09:15.354317+10:00", "external_links": [], "uuid": "8bc51936-9758-48f4-95ec-05e4363374c2", "source": {"name": "Vernon", "slug": "vernon"}, "source_identifier": "20825", "external_references": [], "date_modified": "2025-03-17T10:44:41.230667+11:00"}, {"id": 36245, "name": "Chase Films", "roles_in_work": [{"id": 3086292, "title": "The Sopranos. Season 1. Vol. 3. Eps 08-10", "work_id": 94322, "role": "production company", "role_id": 941, "is_primary": true}, {"id": 3086514, "title": "The Sopranos. Season 4", "work_id": 95023, "role": "production company", "role_id": 941, "is_primary": true}, {"id": 3086541, "title": "The Sopranos", "work_id": 115622, "role": "production company", "role_id": 941, "is_primary": true}, {"id": 3086267, "title": "The Sopranos. Season 1. Vol. 2. Eps 05-07", "work_id": 94321, "role": "production company", "role_id": 941, "is_primary": true}, {"id": 3086229, "title": "The Sopranos. Season 1. Vol. 1. Eps 01-04", "work_id": 94320, "role": "production company", "role_id": 941, "is_primary": true}, {"id": 3086381, "title": "The Sopranos. Season 3. Vol. 2. Eps 30-32", "work_id": 94325, "role": "production company", "role_id": 941, "is_primary": true}, {"id": 3086399, "title": "The Sopranos. Season 3. Vol. 3. Eps 33-35", "work_id": 94326, "role": "production company", "role_id": 941, "is_primary": true}, {"id": 3086363, "title": "The Sopranos. Season 3. Vol. 1. Eps 27-29", "work_id": 94324, "role": "production company", "role_id": 941, "is_primary": true}, {"id": 3086436, "title": "The Sopranos. Season 1 [DVD]", "work_id": 94335, "role": "production company", "role_id": 941, "is_primary": true}, {"id": 3086325, "title": "The Sopranos. Season 1. Vol. 4. Eps 11-13", "work_id": 94323, "role": "production company", "role_id": 941, "is_primary": true}, {"id": 3086466, "title": "The Sopranos. Season 2 [DVD]", "work_id": 94336, "role": "production company", "role_id": 941, "is_primary": true}, {"id": 3086417, "title": "The Sopranos. Season 3. Vol. 4. Eps 36-39", "work_id": 94327, "role": "production company", "role_id": 941, "is_primary": true}, {"id": 3086489, "title": "The Sopranos. Season 3 [DVD]", "work_id": 94337, "role": "production company", "role_id": 941, "is_primary": true}], "also_known_as": "", "date_of_birth": "", "date_of_death": "", "genders": [], "languages": [], "places_of_operation": [], "biography": "", "biography_author": null, "date_of_biography": "2023-08-17T15:09:14.746651+10:00", "external_links": [], "uuid": "236274a2-75e9-4f9e-bcda-9bcc6a1f5884", "source": {"name": "Vernon", "slug": "vernon"}, "source_identifier": "6528", "external_references": [], "date_modified": "2025-03-17T10:44:40.638241+11:00"}, {"id": 36244, "name": "Brillstein-Grey Entertainment", "roles_in_work": [{"id": 3086464, "title": "The Sopranos. Season 2 [DVD]", "work_id": 94336, "role": "production company", "role_id": 941, "is_primary": true}, {"id": 3086291, "title": "The Sopranos. Season 1. Vol. 3. Eps 08-10", "work_id": 94322, "role": "production company", "role_id": 941, "is_primary": true}, {"id": 3086435, "title": "The Sopranos. Season 1 [DVD]", "work_id": 94335, "role": "production company", "role_id": 941, "is_primary": true}, {"id": 3086539, "title": "The Sopranos", "work_id": 115622, "role": "production company", "role_id": 941, "is_primary": true}, {"id": 3086321, "title": "The Sopranos. Season 1. Vol. 4. Eps 11-13", "work_id": 94323, "role": "production company", "role_id": 941, "is_primary": true}, {"id": 3086265, "title": "The Sopranos. Season 1. Vol. 2. Eps 05-07", "work_id": 94321, "role": "production company", "role_id": 941, "is_primary": true}, {"id": 3086227, "title": "The Sopranos. Season 1. Vol. 1. Eps 01-04", "work_id": 94320, "role": "production company", "role_id": 941, "is_primary": true}], "also_known_as": "", "date_of_birth": "", "date_of_death": "", "genders": [], "languages": [], "places_of_operation": [], "biography": "", "biography_author": null, "date_of_biography": "2023-08-17T15:09:14.140440+10:00", "external_links": [], "uuid": "bedd2c8a-02e7-4d29-8648-12578fa83770", "source": {"name": "Vernon", "slug": "vernon"}, "source_identifier": "5994", "external_references": [], "date_modified": "2025-03-17T10:44:40.050892+11:00"}, {"id": 36243, "name": "George Barrie", "roles_in_work": [{"id": 2240862, "title": "Fingers", "work_id": 94317, "role": "producer", "role_id": 1089, "is_primary": true}], "also_known_as": "", "date_of_birth": "", "date_of_death": "", "genders": [], "languages": [], "places_of_operation": [], "biography": "", "biography_author": null, "date_of_biography": "2023-05-09T16:53:23.578752+10:00", "external_links": [], "uuid": "ace8eae7-ddc2-4a7e-ba2a-17a017eb0325", "source": {"name": "Vernon", "slug": "vernon"}, "source_identifier": "19566", "external_references": [{"id": 35384, "source": {"name": "Wikidata", "slug": "wikidata"}, "source_identifier": "Q121315339"}], "date_modified": "2023-09-05T20:04:00.374397+10:00"}, {"id": 36242, "name": "Brut Films", "roles_in_work": [{"id": 2240859, "title": "Fingers", "work_id": 94317, "role": "production company", "role_id": 941, "is_primary": true}], "also_known_as": "", "date_of_birth": "", "date_of_death": "", "genders": [], "languages": [], "places_of_operation": [], "biography": "", "biography_author": null, "date_of_biography": "2023-05-09T16:53:23.336074+10:00", "external_links": [], "uuid": "abf1ddd5-111e-458c-9895-274cb78edc46", "source": {"name": "Vernon", "slug": "vernon"}, "source_identifier": "6086", "external_references": [{"id": 36876, "source": {"name": "Wikidata", "slug": "wikidata"}, "source_identifier": "Q121222805"}], "date_modified": "2023-09-05T18:14:50.575703+10:00"}, {"id": 36240, "name": "Quinta Communications", "roles_in_work": [{"id": 2238243, "title": "Femme fatale [DVD]", "work_id": 94319, "role": "production company", "role_id": 941, "is_primary": true}], "also_known_as": "", "date_of_birth": "", "date_of_death": "", "genders": [], "languages": [], "places_of_operation": [], "biography": "", "biography_author": null, "date_of_biography": "2023-05-09T16:49:10.504964+10:00", "external_links": [], "uuid": "6bd866be-3181-482f-a75b-fcaef985815a", "source": {"name": "Vernon", "slug": "vernon"}, "source_identifier": "11786", "external_references": [{"id": 33680, "source": {"name": "Wikidata", "slug": "wikidata"}, "source_identifier": "Q121034921"}], "date_modified": "2023-09-06T00:16:28.577149+10:00"}, {"id": 36235, "name": "Lumen Films", "roles_in_work": [{"id": 2151147, "title": "Mirror image = Ming dai zhui zhu", "work_id": 94313, "role": "production company", "role_id": 941, "is_primary": true}, {"id": 916249, "title": "Unknown pleasures = Ren Xiao yao [DVD]", "work_id": 94638, "role": "production company", "role_id": 941, "is_primary": true}], "also_known_as": "", "date_of_birth": "", "date_of_death": "", "genders": [], "languages": [], "places_of_operation": [], "biography": "", "biography_author": null, "date_of_biography": "2023-05-09T13:52:44.677630+10:00", "external_links": [], "uuid": "b9ff59e3-ec19-4437-9700-d9d7dded010a", "source": {"name": "Vernon", "slug": "vernon"}, "source_identifier": "10188", "external_references": [{"id": 35189, "source": {"name": "Wikidata", "slug": "wikidata"}, "source_identifier": "Q121091232"}], "date_modified": "2023-09-05T22:34:31.607217+10:00"}]}