{"count": 28687, "next": "https://api.acmi.net.au/creators/?page=1677", "previous": "https://api.acmi.net.au/creators/?page=1675", "results": [{"id": 29154, "name": "John Greyson", "roles_in_work": [{"id": 2289240, "title": "Zero patience", "work_id": 87166, "role": "director", "role_id": 938, "is_primary": true}, {"id": 1997895, "title": "Uncut", "work_id": 93525, "role": "producer/director", "role_id": 31, "is_primary": true}], "also_known_as": "", "date_of_birth": "1960-03-13", "date_of_death": null, "genders": [{"id": 9, "name": "Male", "slug": "male"}], "languages": [], "places_of_operation": [{"id": 36, "name": "Canada", "slug": "canada"}], "biography": "John Greyson (born March 13, 1960) is a Canadian director, writer, video artist, producer, and political activist, whose work frequently deals with queer themes. Greyson is also a professor at York University's film school, where he teaches film and video theory, film production, and editing. He was part of a loosely-affiliated group of filmmakers to emerge in the 1980s from Toronto known as the Toronto New Wave.Greyson has won accolades and achieved critical success with his films—most notably Zero Patience (1993) and Lilies (1996). His outspoken persona, activism, and public image have also attracted international press and controversy.", "biography_author": "Wikidata", "date_of_biography": "2022-05-19T12:01:55.920498+10:00", "external_links": [{"id": 2423, "uri": "https://en.wikipedia.org/wiki/John_Greyson"}], "uuid": "f99a87c2-7998-4bd8-9210-7a7faf5b08fc", "source": {"name": "Vernon", "slug": "vernon"}, "source_identifier": "22290", "external_references": [{"id": 10365, "source": {"name": "Wikidata", "slug": "wikidata"}, "source_identifier": "Q1275818"}, {"id": 10366, "source": {"name": "VIAF", "slug": "viaf"}, "source_identifier": "36121889"}, {"id": 10367, "source": {"name": "LOC Auth", "slug": "loc-auth"}, "source_identifier": "n93013711"}, {"id": 10368, "source": {"name": "WorldCat", "slug": "worldcat"}, "source_identifier": "lccn-n93013711"}], "date_modified": "2023-09-13T12:30:33.344166+10:00"}, {"id": 29151, "name": "Zero Patience Productions", "roles_in_work": [{"id": 2289227, "title": "Zero patience", "work_id": 87166, "role": "production company", "role_id": 941, "is_primary": true}], "also_known_as": "", "date_of_birth": "", "date_of_death": "", "genders": [], "languages": [], "places_of_operation": [], "biography": "", "biography_author": null, "date_of_biography": "2023-05-09T18:15:37.923422+10:00", "external_links": [], "uuid": "3d165a63-e494-4004-8492-55562dd24c71", "source": {"name": "Vernon", "slug": "vernon"}, "source_identifier": "14546", "external_references": [{"id": 32752, "source": {"name": "Wikidata", "slug": "wikidata"}, "source_identifier": "Q121222582"}], "date_modified": "2023-09-06T02:25:53.675453+10:00"}, {"id": 29150, "name": "Richard Glatzer", "roles_in_work": [{"id": 906442, "title": "Grief", "work_id": 87165, "role": "director", "role_id": 938, "is_primary": true}], "also_known_as": "", "date_of_birth": "1952-01-28", "date_of_death": "2015-03-10", "genders": [{"id": 9, "name": "Male", "slug": "male"}], "languages": [{"id": 1, "name": "English", "slug": "english"}], "places_of_operation": [{"id": 1, "name": "United States of America", "slug": "united-states-of-america"}], "biography": "Richard Glatzer (January 28, 1952 – March 10, 2015) was an American writer and director.", "biography_author": "Wikidata", "date_of_biography": "2022-05-19T12:49:47.398935+10:00", "external_links": [{"id": 2936, "uri": "https://en.wikipedia.org/wiki/Richard_Glatzer"}], "uuid": "a39726be-981d-4285-aeb5-96e8e861d582", "source": {"name": "Vernon", "slug": "vernon"}, "source_identifier": "27389", "external_references": [{"id": 12483, "source": {"name": "Wikidata", "slug": "wikidata"}, "source_identifier": "Q6047738"}, {"id": 12484, "source": {"name": "VIAF", "slug": "viaf"}, "source_identifier": "71043495"}, {"id": 12485, "source": {"name": "LOC Auth", "slug": "loc-auth"}, "source_identifier": "no2001056920"}, {"id": 12486, "source": {"name": "WorldCat", "slug": "worldcat"}, "source_identifier": "lccn-no2001056920"}], "date_modified": "2023-09-13T12:32:12.632111+10:00"}, {"id": 29145, "name": "Fine Cut Presentations", "roles_in_work": [{"id": 2228851, "title": "Pretty as a picture: the art of David Lynch", "work_id": 87163, "role": "production company", "role_id": 941, "is_primary": true}], "also_known_as": "", "date_of_birth": "", "date_of_death": "", "genders": [], "languages": [], "places_of_operation": [], "biography": "", "biography_author": null, "date_of_biography": "2023-05-09T16:31:06.224009+10:00", "external_links": [], "uuid": "4f93fe51-5fa3-499f-8058-24bf1b40c2ab", "source": {"name": "Vernon", "slug": "vernon"}, "source_identifier": "8346", "external_references": [{"id": 38938, "source": {"name": "Wikidata", "slug": "wikidata"}, "source_identifier": "Q121034882"}], "date_modified": "2023-09-05T19:43:50.748603+10:00"}, {"id": 29144, "name": "Li Shaohong", "roles_in_work": [{"id": 2121662, "title": "Blush = Hong fen", "work_id": 87162, "role": "director", "role_id": 938, "is_primary": true}, {"id": 814126, "title": "Bloody morning [NTSC]", "work_id": 93085, "role": "producer/director", "role_id": 31, "is_primary": true}], "also_known_as": "", "date_of_birth": "1955-07-07", "date_of_death": "", "genders": [{"id": 5, "name": "Female", "slug": "female"}], "languages": [], "places_of_operation": [{"id": 290, "name": "People's Republic of China", "slug": "peoples-republic-of-china"}], "biography": "Li Shaohong (born 7 July 1955) is a Chinese film and television director and producer. She is considered a member of the Fifth Generation movement, and China's top woman director. Her films have won multiple awards in China and abroad, including the Golden Montgolfiere at the 1992 Three Continents Festival (for Bloody Morning), and the Silver Bear at the 1995 Berlin International Film Festival (for Blush).", "biography_author": "Wikidata", "date_of_biography": "2023-08-01T15:56:47.671258+10:00", "external_links": [{"id": 4549, "uri": "https://en.wikipedia.org/wiki/Li_Shaohong"}], "uuid": "03ab4340-7e08-4830-8440-3038b33922b0", "source": {"name": "Vernon", "slug": "vernon"}, "source_identifier": "23829", "external_references": [{"id": 25641, "source": {"name": "Wikidata", "slug": "wikidata"}, "source_identifier": "Q3369445"}, {"id": 29946, "source": {"name": "VIAF", "slug": "viaf"}, "source_identifier": "44091102"}, {"id": 29947, "source": {"name": "LOC Auth", "slug": "loc-auth"}, "source_identifier": "no2007135620"}, {"id": 29948, "source": {"name": "WorldCat", "slug": "worldcat"}, "source_identifier": "lccn-no2007135620"}], "date_modified": "2023-09-05T22:23:58.966061+10:00"}, {"id": 29140, "name": "Ocean Films", "roles_in_work": [{"id": 2121641, "title": "Blush = Hong fen", "work_id": 87162, "role": "production company", "role_id": 941, "is_primary": true}, {"id": 2262159, "title": "Samsara", "work_id": 95071, "role": "production company", "role_id": 941, "is_primary": true}], "also_known_as": "", "date_of_birth": "", "date_of_death": "", "genders": [], "languages": [], "places_of_operation": [], "biography": "", "biography_author": null, "date_of_biography": "2023-05-09T17:30:41.042527+10:00", "external_links": [], "uuid": "d1b5062d-11c2-4079-b884-9abfa551eaa7", "source": {"name": "Vernon", "slug": "vernon"}, "source_identifier": "11073", "external_references": [{"id": 34754, "source": {"name": "Wikidata", "slug": "wikidata"}, "source_identifier": "Q121337664"}], "date_modified": "2023-09-05T23:35:18.087426+10:00"}, {"id": 29139, "name": "Beijing Salon Films", "roles_in_work": [{"id": 2243525, "title": "Flames of love on the ice", "work_id": 115845, "role": "production company", "role_id": 941, "is_primary": true}, {"id": 2121638, "title": "Blush = Hong fen", "work_id": 87162, "role": "production company", "role_id": 941, "is_primary": true}], "also_known_as": "", "date_of_birth": "", "date_of_death": "", "genders": [], "languages": [], "places_of_operation": [], "biography": "", "biography_author": null, "date_of_biography": "2023-05-09T16:58:18.870440+10:00", "external_links": [], "uuid": "86645d4b-1857-4fb4-88a2-b0c8ef972f79", "source": {"name": "Vernon", "slug": "vernon"}, "source_identifier": "5794", "external_references": [{"id": 37549, "source": {"name": "Wikidata", "slug": "wikidata"}, "source_identifier": "Q121271383"}], "date_modified": "2023-09-05T17:57:05.466448+10:00"}, {"id": 29138, "name": "Pierre Bouton", "roles_in_work": [{"id": 2239202, "title": "Fiesta", "work_id": 87161, "role": "director", "role_id": 938, "is_primary": true}], "also_known_as": "", "date_of_birth": "1947-01-21", "date_of_death": null, "genders": [{"id": 9, "name": "Male", "slug": "male"}], "languages": [{"id": 4, "name": "French", "slug": "french"}], "places_of_operation": [{"id": 17, "name": "France", "slug": "france"}], "biography": "Pierre Boutron (born 11 November 1947 in Portugal) is a French actor and director. He is married to actress Magali Renoir.", "biography_author": "Wikidata", "date_of_biography": "2022-05-19T12:44:48.247552+10:00", "external_links": [{"id": 2886, "uri": "https://en.wikipedia.org/wiki/Pierre_Boutron"}], "uuid": "1f6c5801-2338-4872-b94a-2ceb24a2f3bb", "source": {"name": "Vernon", "slug": "vernon"}, "source_identifier": "26917", "external_references": [{"id": 12261, "source": {"name": "Wikidata", "slug": "wikidata"}, "source_identifier": "Q3384166"}, {"id": 12262, "source": {"name": "VIAF", "slug": "viaf"}, "source_identifier": "34198550"}, {"id": 12263, "source": {"name": "LOC Auth", "slug": "loc-auth"}, "source_identifier": "no2005112333"}, {"id": 12264, "source": {"name": "WorldCat", "slug": "worldcat"}, "source_identifier": "lccn-no2005112333"}], "date_modified": "2023-09-13T12:32:02.984081+10:00"}, {"id": 29137, "name": "Jean-Marie Richard", "roles_in_work": [{"id": 2239198, "title": "Fiesta", "work_id": 87161, "role": "producer", "role_id": 1089, "is_primary": true}], "also_known_as": "", "date_of_birth": "1927-05-17", "date_of_death": "2012-06-03", "genders": [{"id": 9, "name": "Male", "slug": "male"}], "languages": [{"id": 4, "name": "French", "slug": "french"}], "places_of_operation": [{"id": 17, "name": "France", "slug": "france"}], "biography": "Jean-Louis Richard (17 May 1927 – 3 June 2012) was a French actor, film director and scriptwriter.\n\n", "biography_author": "Wikidata", "date_of_biography": "2022-05-19T11:54:54.517430+10:00", "external_links": [{"id": 2342, "uri": "https://en.wikipedia.org/wiki/Jean-Louis_Richard"}], "uuid": "d475c309-c053-4c88-a7e4-a9845412fde6", "source": {"name": "Vernon", "slug": "vernon"}, "source_identifier": "21593", "external_references": [{"id": 10043, "source": {"name": "Wikidata", "slug": "wikidata"}, "source_identifier": "Q2729701"}, {"id": 10044, "source": {"name": "VIAF", "slug": "viaf"}, "source_identifier": "17277810"}, {"id": 10045, "source": {"name": "LOC Auth", "slug": "loc-auth"}, "source_identifier": "no00017358"}, {"id": 10046, "source": {"name": "WorldCat", "slug": "worldcat"}, "source_identifier": "lccn-no00017358"}], "date_modified": "2023-09-13T12:30:19.898204+10:00"}, {"id": 29136, "name": "HECK Productions", "roles_in_work": [{"id": 2239196, "title": "Fiesta", "work_id": 87161, "role": "production company", "role_id": 941, "is_primary": true}], "also_known_as": "", "date_of_birth": "", "date_of_death": "", "genders": [], "languages": [], "places_of_operation": [], "biography": "", "biography_author": null, "date_of_biography": "2023-05-09T16:50:39.682132+10:00", "external_links": [], "uuid": "8762a9ec-2650-48df-8b0e-24370bd47f2e", "source": {"name": "Vernon", "slug": "vernon"}, "source_identifier": "9052", "external_references": [{"id": 42837, "source": {"name": "Wikidata", "slug": "wikidata"}, "source_identifier": "Q121034783"}], "date_modified": "2023-09-05T20:33:36.706597+10:00"}]}