{"count": 28687, "next": "https://api.acmi.net.au/creators/?page=344", "previous": "https://api.acmi.net.au/creators/?page=342", "results": [{"id": 82177, "name": "Blaze Film Enterprises", "roles_in_work": [{"id": 2650337, "title": "Ankur = The Seedling", "work_id": 115653, "role": "production company", "role_id": 941, "is_primary": true}], "also_known_as": "", "date_of_birth": "", "date_of_death": "", "genders": [], "languages": [], "places_of_operation": [], "biography": "", "biography_author": null, "date_of_biography": "2023-05-09T12:26:23.095314+10:00", "external_links": [], "uuid": "e5eece8a-3545-4569-9f8f-6555cb15e2c7", "source": {"name": "Vernon", "slug": "vernon"}, "source_identifier": "30849", "external_references": [{"id": 38629, "source": {"name": "Wikidata", "slug": "wikidata"}, "source_identifier": "Q121270691"}], "date_modified": "2025-03-05T14:15:17.082926+11:00"}, {"id": 82176, "name": "Zeki Okten", "roles_in_work": [{"id": 2650336, "title": "Suru = The Herd", "work_id": 115652, "role": "director", "role_id": 938, "is_primary": true}], "also_known_as": "", "date_of_birth": "04 AUG 1941", "date_of_death": "19 DEC 2009", "genders": [{"id": 9, "name": "Male", "slug": "male"}], "languages": [{"id": 33, "name": "Turkish", "slug": "turkish"}], "places_of_operation": [{"id": 22, "name": "Turkey", "slug": "turkey"}], "biography": "Zeki Ökten (4 August 1941 – 19 December 2009) was a Turkish film director. Source: Wikidata; 01/08/2023", "biography_author": null, "date_of_biography": "2025-03-05T14:15:16.215787+11:00", "external_links": [{"id": 3325, "uri": "https://en.wikipedia.org/wiki/Zeki_%C3%96kten"}], "uuid": "aa5b938b-5576-4d51-ab80-0169e81122b0", "source": {"name": "Vernon", "slug": "vernon"}, "source_identifier": "30905", "external_references": [{"id": 14064, "source": {"name": "Wikidata", "slug": "wikidata"}, "source_identifier": "Q2739722"}, {"id": 14065, "source": {"name": "VIAF", "slug": "viaf"}, "source_identifier": "78478390"}, {"id": 14066, "source": {"name": "LOC Auth", "slug": "loc-auth"}, "source_identifier": "no2003115444"}, {"id": 14067, "source": {"name": "WorldCat", "slug": "worldcat"}, "source_identifier": "lccn-no2003115444"}], "date_modified": "2025-03-05T14:15:16.216019+11:00"}, {"id": 82175, "name": "Rolf Lyssy", "roles_in_work": [{"id": 2650333, "title": "Die Schweizermacher = The Swissmaker", "work_id": 115651, "role": "director", "role_id": 938, "is_primary": true}], "also_known_as": "", "date_of_birth": "25 FEB 1936", "date_of_death": "", "genders": [{"id": 9, "name": "Male", "slug": "male"}], "languages": [{"id": 5, "name": "German", "slug": "german"}], "places_of_operation": [{"id": 26, "name": "Switzerland", "slug": "switzerland"}], "biography": "Rolf Lyssy (born 25 February 1936) is a Swiss screenwriter and film director. Source: Wikidata; 01/08/2023", "biography_author": null, "date_of_biography": "2025-03-05T14:15:14.172834+11:00", "external_links": [{"id": 3022, "uri": "https://en.wikipedia.org/wiki/Rolf_Lyssy"}], "uuid": "debeaa26-523c-40bc-a6d3-b050ff4a76f3", "source": {"name": "Vernon", "slug": "vernon"}, "source_identifier": "30904", "external_references": [{"id": 12830, "source": {"name": "Wikidata", "slug": "wikidata"}, "source_identifier": "Q117087"}, {"id": 12831, "source": {"name": "VIAF", "slug": "viaf"}, "source_identifier": "66734466"}, {"id": 12832, "source": {"name": "LOC Auth", "slug": "loc-auth"}, "source_identifier": "n80054572"}, {"id": 12833, "source": {"name": "WorldCat", "slug": "worldcat"}, "source_identifier": "lccn-n80054572"}], "date_modified": "2025-03-05T14:15:14.173151+11:00"}, {"id": 82174, "name": "Ecco", "roles_in_work": [{"id": 2650331, "title": "Die Schweizermacher = The Swissmaker", "work_id": 115651, "role": "production company", "role_id": 941, "is_primary": true}], "also_known_as": "", "date_of_birth": "", "date_of_death": "", "genders": [], "languages": [], "places_of_operation": [], "biography": "", "biography_author": null, "date_of_biography": "2023-05-09T15:08:40.357392+10:00", "external_links": [], "uuid": "fa009986-a120-40e8-ac9c-d8ec33d6b9ec", "source": {"name": "Vernon", "slug": "vernon"}, "source_identifier": "30847", "external_references": [{"id": 39818, "source": {"name": "Wikidata", "slug": "wikidata"}, "source_identifier": "Q121271193"}], "date_modified": "2025-03-05T14:15:12.994387+11:00"}, {"id": 82173, "name": "Willora", "roles_in_work": [{"id": 2650330, "title": "Die Schweizermacher = The Swissmaker", "work_id": 115651, "role": "production company", "role_id": 941, "is_primary": true}], "also_known_as": "", "date_of_birth": "", "date_of_death": "", "genders": [], "languages": [], "places_of_operation": [], "biography": "", "biography_author": null, "date_of_biography": "2023-05-09T15:08:40.120138+10:00", "external_links": [], "uuid": "962c3e02-8df1-4cb3-b66d-972eaf90ec79", "source": {"name": "Vernon", "slug": "vernon"}, "source_identifier": "30846", "external_references": [{"id": 38814, "source": {"name": "Wikidata", "slug": "wikidata"}, "source_identifier": "Q121091224"}], "date_modified": "2025-03-05T14:15:12.409984+11:00"}, {"id": 82172, "name": "Rex Films", "roles_in_work": [{"id": 2650329, "title": "Die Schweizermacher = The Swissmaker", "work_id": 115651, "role": "production company", "role_id": 941, "is_primary": true}], "also_known_as": "", "date_of_birth": "", "date_of_death": "", "genders": [], "languages": [], "places_of_operation": [], "biography": "", "biography_author": null, "date_of_biography": "2023-05-09T15:08:39.871100+10:00", "external_links": [], "uuid": "de1ed18a-3fec-49e8-9600-27b30fe28b20", "source": {"name": "Vernon", "slug": "vernon"}, "source_identifier": "30845", "external_references": [{"id": 35000, "source": {"name": "Wikidata", "slug": "wikidata"}, "source_identifier": "Q121034546"}], "date_modified": "2025-03-05T14:15:11.827142+11:00"}, {"id": 82171, "name": "Intercontinental", "roles_in_work": [{"id": 2650327, "title": "Voltati eugenio = They all loved him", "work_id": 115650, "role": "production company", "role_id": 941, "is_primary": true}], "also_known_as": "", "date_of_birth": null, "date_of_death": null, "genders": [], "languages": [], "places_of_operation": [], "biography": "", "biography_author": null, "date_of_biography": null, "external_links": [], "uuid": "4911fe3a-66b6-46dd-883b-cd1ab6ee5450", "source": {"name": "Vernon", "slug": "vernon"}, "source_identifier": "30840", "external_references": [{"id": 39869, "source": {"name": "Wikidata", "slug": "wikidata"}, "source_identifier": "Q121337242"}], "date_modified": "2025-03-05T14:15:10.402976+11:00"}, {"id": 82170, "name": "Moonfleet", "roles_in_work": [{"id": 2650326, "title": "Voltati eugenio = They all loved him", "work_id": 115650, "role": "production company", "role_id": 941, "is_primary": true}], "also_known_as": "", "date_of_birth": null, "date_of_death": null, "genders": [], "languages": [], "places_of_operation": [], "biography": "", "biography_author": null, "date_of_biography": null, "external_links": [], "uuid": "c41c7472-bd95-4d3b-b1ed-3571b0c3e2ef", "source": {"name": "Vernon", "slug": "vernon"}, "source_identifier": "30839", "external_references": [{"id": 34291, "source": {"name": "Wikidata", "slug": "wikidata"}, "source_identifier": "Q121315712"}], "date_modified": "2025-03-05T14:15:09.802393+11:00"}, {"id": 82169, "name": "Robert van Ackeren", "roles_in_work": [{"id": 2650322, "title": "Die Flambierte frau = A Woman in flames", "work_id": 115648, "role": "director", "role_id": 938, "is_primary": true}], "also_known_as": "", "date_of_birth": "22 DEC 1946", "date_of_death": "", "genders": [{"id": 9, "name": "Male", "slug": "male"}], "languages": [{"id": 5, "name": "German", "slug": "german"}], "places_of_operation": [{"id": 18, "name": "Germany", "slug": "germany"}], "biography": "Robert van Ackeren (born 22 December 1946) is a German movie director, actor, producer, writer and cinematographer. Source: Wikidata; 01/08/2023", "biography_author": null, "date_of_biography": "2025-03-05T14:15:06.940929+11:00", "external_links": [{"id": 3001, "uri": "https://en.wikipedia.org/wiki/Robert_van_Ackeren"}], "uuid": "a5c37bf5-9ca2-4a4c-8927-40f157536982", "source": {"name": "Vernon", "slug": "vernon"}, "source_identifier": "30902", "external_references": [{"id": 12745, "source": {"name": "Wikidata", "slug": "wikidata"}, "source_identifier": "Q88104"}, {"id": 12746, "source": {"name": "VIAF", "slug": "viaf"}, "source_identifier": "61737375"}, {"id": 12747, "source": {"name": "LOC Auth", "slug": "loc-auth"}, "source_identifier": "nr2005028777"}, {"id": 12748, "source": {"name": "WorldCat", "slug": "worldcat"}, "source_identifier": "lccn-nr2005028777"}], "date_modified": "2025-03-05T14:15:06.941304+11:00"}, {"id": 82168, "name": "Konrad Pictures", "roles_in_work": [{"id": 2650316, "title": "Scream 3", "work_id": 115647, "role": "production company", "role_id": 941, "is_primary": true}], "also_known_as": "", "date_of_birth": "", "date_of_death": "", "genders": [], "languages": [], "places_of_operation": [], "biography": "", "biography_author": null, "date_of_biography": "2023-05-09T17:33:19.098278+10:00", "external_links": [], "uuid": "76936382-bbd4-476c-b69c-b030bfe18a45", "source": {"name": "Vernon", "slug": "vernon"}, "source_identifier": "31400", "external_references": [{"id": 42066, "source": {"name": "Wikidata", "slug": "wikidata"}, "source_identifier": "Q121091450"}], "date_modified": "2025-03-05T14:15:04.814158+11:00"}]}