{"count": 28684, "next": "https://api.acmi.net.au/creators/?page=2212", "previous": "https://api.acmi.net.au/creators/?page=2210", "results": [{"id": 18449, "name": "KRMA-TV (Television station : Denver, Colo.)", "roles_in_work": [{"id": 2284984, "title": "Tomorrow is maybe", "work_id": 73910, "role": "production company", "role_id": 941, "is_primary": true}], "also_known_as": "", "date_of_birth": "", "date_of_death": "", "genders": [], "languages": [], "places_of_operation": [], "biography": "", "biography_author": null, "date_of_biography": "2023-05-09T18:08:02.045950+10:00", "external_links": [], "uuid": "515a0515-e8b6-4a1a-bd82-a0dd288b9aed", "source": {"name": "Vernon", "slug": "vernon"}, "source_identifier": "4557", "external_references": [{"id": 32578, "source": {"name": "Wikidata", "slug": "wikidata"}, "source_identifier": "Q121299496"}], "date_modified": "2023-09-05T22:12:11.355785+10:00"}, {"id": 18448, "name": "Audio-Visuel France", "roles_in_work": [{"id": 2469213, "title": "Tomorrow is another day", "work_id": 73909, "role": "production company", "role_id": 941, "is_primary": true}], "also_known_as": "", "date_of_birth": "", "date_of_death": "", "genders": [], "languages": [], "places_of_operation": [], "biography": "", "biography_author": null, "date_of_biography": "2023-08-14T11:55:40.493921+10:00", "external_links": [], "uuid": "f619c174-4ee7-4321-bc81-daf22e07ed1b", "source": {"name": "Vernon", "slug": "vernon"}, "source_identifier": "31739", "external_references": [], "date_modified": "2023-08-14T11:55:40.494145+10:00"}, {"id": 18446, "name": "United Nations Relief and Works Agency for Palestine Refugees in the Near East", "roles_in_work": [{"id": 755957, "title": "Tomorrow begins today", "work_id": 73907, "role": "production company", "role_id": 941, "is_primary": true}, {"id": 2374014, "title": "Headstart for Omar", "work_id": 76378, "role": "production company", "role_id": 941, "is_primary": true}], "also_known_as": "", "date_of_birth": "", "date_of_death": "", "genders": [], "languages": [], "places_of_operation": [], "biography": "", "biography_author": null, "date_of_biography": "2023-07-05T03:50:04.197626+10:00", "external_links": [], "uuid": "a3d82ca2-3af3-4219-b676-ef7097ec1a1d", "source": {"name": "Vernon", "slug": "vernon"}, "source_identifier": "13867", "external_references": [{"id": 43564, "source": {"name": "Wikidata", "slug": "wikidata"}, "source_identifier": "Q846656"}], "date_modified": "2023-09-06T02:01:11.343332+10:00"}, {"id": 18445, "name": "John Watson", "roles_in_work": [{"id": 896027, "title": "Toller", "work_id": 73906, "role": "co-director", "role_id": 959, "is_primary": true}, {"id": 2749298, "title": "Life times nine", "work_id": 96732, "role": "co-producer", "role_id": 915, "is_primary": true}, {"id": 2322070, "title": "Tank girl", "work_id": 88176, "role": "co-producer", "role_id": 915, "is_primary": true}, {"id": 1815135, "title": "If wishes were horses", "work_id": 97107, "role": "producer", "role_id": 1089, "is_primary": true}, {"id": 2749284, "title": "Thoroughbred", "work_id": 96725, "role": "producer", "role_id": 1089, "is_primary": true}], "also_known_as": "", "date_of_birth": null, "date_of_death": "", "genders": [{"id": 9, "name": "Male", "slug": "male"}], "languages": [{"id": 1, "name": "English", "slug": "english"}], "places_of_operation": [{"id": 10, "name": "United Kingdom", "slug": "united-kingdom"}], "biography": "John Watson is a British film producer. Source: Wikidata; 01/08/2023", "biography_author": null, "date_of_biography": "2025-03-12T23:56:59.586627+11:00", "external_links": [{"id": 4416, "uri": "https://en.wikipedia.org/wiki/John_Watson_(film_producer)"}], "uuid": "77b99135-ca03-49fa-9649-6601bbcccb58", "source": {"name": "Vernon", "slug": "vernon"}, "source_identifier": "22576", "external_references": [{"id": 26557, "source": {"name": "Wikidata", "slug": "wikidata"}, "source_identifier": "Q6263229"}, {"id": 29594, "source": {"name": "VIAF", "slug": "viaf"}, "source_identifier": "305217751"}, {"id": 29595, "source": {"name": "LOC Auth", "slug": "loc-auth"}, "source_identifier": "no2018032195"}], "date_modified": "2025-03-12T23:56:59.586870+11:00"}, {"id": 18444, "name": "Pen Densham", "roles_in_work": [{"id": 886940, "title": "If wishes were horses", "work_id": 97107, "role": "director", "role_id": 938, "is_primary": true}, {"id": 878227, "title": "Houdini", "work_id": 91156, "role": "director", "role_id": 938, "is_primary": true}, {"id": 896026, "title": "Toller", "work_id": 73906, "role": "co-director", "role_id": 959, "is_primary": true}, {"id": 2749297, "title": "Life times nine", "work_id": 96732, "role": "co-producer", "role_id": 915, "is_primary": true}, {"id": 2322064, "title": "Tank girl", "work_id": 88176, "role": "co-producer", "role_id": 915, "is_primary": true}, {"id": 2749285, "title": "Thoroughbred", "work_id": 96725, "role": "producer", "role_id": 1089, "is_primary": true}], "also_known_as": "", "date_of_birth": "14 OCT 1947", "date_of_death": "", "genders": [{"id": 9, "name": "Male", "slug": "male"}], "languages": [{"id": 1, "name": "English", "slug": "english"}], "places_of_operation": [{"id": 36, "name": "Canada", "slug": "canada"}], "biography": "Pen Densham (born 14 October 1947) is a British-Canadian film and television producer, writer, and director, known for writing and producing films such as Robin Hood: Prince of Thieves and television revivals of The Outer Limits and The Twilight Zone, as well as writing, producing and directing MGM's Moll Flanders. Source: Wikidata; 01/08/2023", "biography_author": null, "date_of_biography": "2025-03-12T23:56:58.991222+11:00", "external_links": [{"id": 4864, "uri": "https://en.wikipedia.org/wiki/Pen_Densham"}], "uuid": "6244ffea-0ca1-4177-829d-13a21d051a59", "source": {"name": "Vernon", "slug": "vernon"}, "source_identifier": "26403", "external_references": [{"id": 26653, "source": {"name": "Wikidata", "slug": "wikidata"}, "source_identifier": "Q7162089"}, {"id": 30746, "source": {"name": "VIAF", "slug": "viaf"}, "source_identifier": "24732318"}, {"id": 30747, "source": {"name": "LOC Auth", "slug": "loc-auth"}, "source_identifier": "n91070553"}, {"id": 30748, "source": {"name": "WorldCat", "slug": "worldcat"}, "source_identifier": "lccn-n91070553"}], "date_modified": "2025-03-12T23:56:58.991459+11:00"}, {"id": 18443, "name": "Tokyo Movie Association", "roles_in_work": [{"id": 2469212, "title": "Tokyo in spring", "work_id": 73905, "role": "production company", "role_id": 941, "is_primary": true}], "also_known_as": "", "date_of_birth": "", "date_of_death": "", "genders": [], "languages": [], "places_of_operation": [], "biography": "", "biography_author": null, "date_of_biography": "2023-08-14T11:55:38.374770+10:00", "external_links": [], "uuid": "1153e9c9-8c92-4718-884d-9051d5654b3a", "source": {"name": "Vernon", "slug": "vernon"}, "source_identifier": "31738", "external_references": [], "date_modified": "2023-08-14T11:55:38.374993+10:00"}, {"id": 18439, "name": "Mitsui", "roles_in_work": [{"id": 2469210, "title": "Today's Japan: a modern industrial nation", "work_id": 73900, "role": "production company", "role_id": 941, "is_primary": true}], "also_known_as": "", "date_of_birth": "", "date_of_death": "", "genders": [], "languages": [], "places_of_operation": [], "biography": "", "biography_author": null, "date_of_biography": "2023-08-14T11:55:34.094855+10:00", "external_links": [], "uuid": "bb01f7f8-d52d-4637-b389-f872f00f63b6", "source": {"name": "Vernon", "slug": "vernon"}, "source_identifier": "31737", "external_references": [], "date_modified": "2023-08-14T11:55:34.095076+10:00"}, {"id": 18438, "name": "Henry Blinder", "roles_in_work": [{"id": 859761, "title": "Today's culture: options after high school", "work_id": 73899, "role": "director", "role_id": 938, "is_primary": true}, {"id": 2751316, "title": "Helicopter ride. - 2nd ed.", "work_id": 97750, "role": "producer/director", "role_id": 31, "is_primary": true}], "also_known_as": "", "date_of_birth": "", "date_of_death": "", "genders": [], "languages": [], "places_of_operation": [], "biography": "", "biography_author": null, "date_of_biography": "2023-08-11T17:17:45.808764+10:00", "external_links": [], "uuid": "5e090f5f-f5c9-4e66-8b12-8ad57dc262f1", "source": {"name": "Vernon", "slug": "vernon"}, "source_identifier": "20476", "external_references": [], "date_modified": "2025-03-13T00:41:00.117768+11:00"}, {"id": 18437, "name": "Clive Cross", "roles_in_work": [{"id": 755941, "title": "Today it's news", "work_id": 73898, "role": "director", "role_id": 938, "is_primary": true}, {"id": 2646675, "title": "Tomorrow's headlines", "work_id": 73917, "role": "director", "role_id": 938, "is_primary": true}], "also_known_as": "", "date_of_birth": null, "date_of_death": null, "genders": [], "languages": [], "places_of_operation": [], "biography": "", "biography_author": null, "date_of_biography": null, "external_links": [], "uuid": "81f98c86-b5f4-4c78-ae90-6ddf879f3fca", "source": {"name": "Vernon", "slug": "vernon"}, "source_identifier": "31736", "external_references": [], "date_modified": "2025-03-05T13:10:15.629639+11:00"}, {"id": 18436, "name": "Laycock, Son and Co", "roles_in_work": [{"id": 2469208, "title": "To warm the world", "work_id": 73890, "role": "production company", "role_id": 941, "is_primary": true}], "also_known_as": "", "date_of_birth": "", "date_of_death": "", "genders": [], "languages": [], "places_of_operation": [], "biography": "", "biography_author": null, "date_of_biography": "2023-08-14T11:55:29.907812+10:00", "external_links": [], "uuid": "2a5b24e6-80d4-4124-a8b2-26f167da069b", "source": {"name": "Vernon", "slug": "vernon"}, "source_identifier": "9932", "external_references": [], "date_modified": "2023-08-14T11:55:29.908203+10:00"}]}