{"count": 28687, "next": "https://api.acmi.net.au/creators/?page=932", "previous": "https://api.acmi.net.au/creators/?page=930", "results": [{"id": 76272, "name": "Sue Ross", "roles_in_work": [{"id": 2177151, "title": "Open Tantrum", "work_id": 78412, "role": "director", "role_id": 938, "is_primary": true}, {"id": 2177146, "title": "Open Tantrum", "work_id": 78412, "role": "co-producer", "role_id": 915, "is_primary": true}, {"id": 1931714, "title": "Whitewashed", "work_id": 82164, "role": "producer/director", "role_id": 31, "is_primary": true}], "also_known_as": "", "date_of_birth": "", "date_of_death": "", "genders": [], "languages": [], "places_of_operation": [], "biography": "", "biography_author": null, "date_of_biography": "2023-05-09T14:47:06.332091+10:00", "external_links": [], "uuid": "b4027f67-ffbe-46ff-9c2a-1e4ff19863c8", "source": {"name": "Vernon", "slug": "vernon"}, "source_identifier": "29306", "external_references": [{"id": 35913, "source": {"name": "Wikidata", "slug": "wikidata"}, "source_identifier": "Q121315672"}], "date_modified": "2023-09-06T01:35:33.366270+10:00"}, {"id": 76271, "name": "Egenolf Jeske", "roles_in_work": [{"id": 2185928, "title": "Panama", "work_id": 82706, "role": "co-producer", "role_id": 915, "is_primary": true}, {"id": 2185947, "title": "Panama", "work_id": 78402, "role": "co-producer", "role_id": 915, "is_primary": true}], "also_known_as": "", "date_of_birth": "", "date_of_death": "", "genders": [], "languages": [], "places_of_operation": [], "biography": "", "biography_author": null, "date_of_biography": "2023-05-09T15:01:00.082255+10:00", "external_links": [], "uuid": "3bc644b7-056d-4611-8995-58f2b2ad0c1c", "source": {"name": "Vernon", "slug": "vernon"}, "source_identifier": "18649", "external_references": [{"id": 39567, "source": {"name": "Wikidata", "slug": "wikidata"}, "source_identifier": "Q121222868"}], "date_modified": "2023-09-05T19:27:28.319294+10:00"}, {"id": 76270, "name": "Klemens Jeske", "roles_in_work": [{"id": 2185924, "title": "Panama", "work_id": 82706, "role": "co-producer", "role_id": 915, "is_primary": true}, {"id": 2185944, "title": "Panama", "work_id": 78402, "role": "co-producer", "role_id": 915, "is_primary": true}], "also_known_as": "", "date_of_birth": "", "date_of_death": "", "genders": [], "languages": [], "places_of_operation": [], "biography": "", "biography_author": null, "date_of_biography": "2023-05-09T15:00:59.841825+10:00", "external_links": [], "uuid": "6237a050-37da-40ac-b293-280b4e1e5530", "source": {"name": "Vernon", "slug": "vernon"}, "source_identifier": "23385", "external_references": [{"id": 37947, "source": {"name": "Wikidata", "slug": "wikidata"}, "source_identifier": "Q121086121"}], "date_modified": "2023-09-05T22:11:14.261412+10:00"}, {"id": 76269, "name": "Egon Schmidt", "roles_in_work": [{"id": 898359, "title": "The Ugly duckling", "work_id": 78392, "role": "co-producer", "role_id": 915, "is_primary": true}], "also_known_as": "", "date_of_birth": null, "date_of_death": null, "genders": [], "languages": [], "places_of_operation": [], "biography": "", "biography_author": null, "date_of_biography": null, "external_links": [], "uuid": "f2c2ff0f-481f-4fa5-8eee-94963b0b764f", "source": {"name": "Vernon", "slug": "vernon"}, "source_identifier": null, "external_references": [{"id": 35470, "source": {"name": "Wikidata", "slug": "wikidata"}, "source_identifier": "Q121315477"}], "date_modified": "2023-09-05T19:27:30.511407+10:00"}, {"id": 76268, "name": "David Dugan", "roles_in_work": [{"id": 2761693, "title": "Outbreak: the microbe masters the mould", "work_id": 78373, "role": "co-producer", "role_id": 915, "is_primary": true}, {"id": 2761392, "title": "Brave new babies?", "work_id": 98734, "role": "co-producer", "role_id": 915, "is_primary": true}, {"id": 1847237, "title": "The Real Jurassic Park", "work_id": 85124, "role": "producer/director", "role_id": 31, "is_primary": true}], "also_known_as": "", "date_of_birth": "", "date_of_death": "", "genders": [], "languages": [], "places_of_operation": [], "biography": "", "biography_author": null, "date_of_biography": "2023-05-09T19:54:35.515415+10:00", "external_links": [], "uuid": "8afccf8c-61e8-409d-b4bc-3696882b8d99", "source": {"name": "Vernon", "slug": "vernon"}, "source_identifier": "17556", "external_references": [{"id": 43460, "source": {"name": "Wikidata", "slug": "wikidata"}, "source_identifier": "Q121337311"}], "date_modified": "2025-03-14T17:34:47.228789+11:00"}, {"id": 76267, "name": "Oliver Morse", "roles_in_work": [{"id": 2761395, "title": "Brave new babies?", "work_id": 98734, "role": "co-producer", "role_id": 915, "is_primary": true}, {"id": 2761692, "title": "Outbreak: the microbe masters the mould", "work_id": 78373, "role": "co-producer", "role_id": 915, "is_primary": true}], "also_known_as": "", "date_of_birth": "", "date_of_death": "", "genders": [], "languages": [], "places_of_operation": [], "biography": "", "biography_author": null, "date_of_biography": "2023-05-09T19:54:35.757159+10:00", "external_links": [], "uuid": "6dd53c8c-416f-45ff-b213-e3b9b4edbd05", "source": {"name": "Vernon", "slug": "vernon"}, "source_identifier": "25948", "external_references": [{"id": 41029, "source": {"name": "Wikidata", "slug": "wikidata"}, "source_identifier": "Q121079459"}], "date_modified": "2025-03-14T17:34:46.639469+11:00"}, {"id": 76266, "name": "Lance Bird", "roles_in_work": [{"id": 2166666, "title": "No place to hide", "work_id": 78370, "role": "co-producers/directors", "role_id": 628, "is_primary": true}], "also_known_as": "", "date_of_birth": "", "date_of_death": "", "genders": [{"id": 9, "name": "Male", "slug": "male"}], "languages": [], "places_of_operation": [], "biography": "", "biography_author": null, "date_of_biography": "2023-05-09T14:26:12.744548+10:00", "external_links": [], "uuid": "2ea36a58-b29d-4180-9f01-d99deecb3f65", "source": {"name": "Vernon", "slug": "vernon"}, "source_identifier": "23463", "external_references": [{"id": 41101, "source": {"name": "Wikidata", "slug": "wikidata"}, "source_identifier": "Q117862133"}], "date_modified": "2023-09-05T22:13:47.934253+10:00"}, {"id": 76265, "name": "Tom Johnson", "roles_in_work": [{"id": 2166664, "title": "No place to hide", "work_id": 78370, "role": "co-producers/directors", "role_id": 628, "is_primary": true}], "also_known_as": "", "date_of_birth": "", "date_of_death": "", "genders": [], "languages": [], "places_of_operation": [], "biography": "", "biography_author": null, "date_of_biography": "2023-05-09T14:26:12.492852+10:00", "external_links": [], "uuid": "f2ab2474-7a7a-4805-9d6e-4d937bedec13", "source": {"name": "Vernon", "slug": "vernon"}, "source_identifier": "13584", "external_references": [], "date_modified": "2023-06-14T16:33:30.576250+10:00"}, {"id": 76264, "name": "Gavan Daws", "roles_in_work": [{"id": 2096318, "title": "Angels of war", "work_id": 78368, "role": "co-director", "role_id": 959, "is_primary": true}], "also_known_as": "", "date_of_birth": "", "date_of_death": "", "genders": [], "languages": [], "places_of_operation": [], "biography": "", "biography_author": null, "date_of_biography": "2023-05-09T12:24:29.023649+10:00", "external_links": [], "uuid": "0ccf3a4c-fbb1-4165-8f2a-c475eaa936a0", "source": {"name": "Vernon", "slug": "vernon"}, "source_identifier": "1347", "external_references": [{"id": 38457, "source": {"name": "Wikidata", "slug": "wikidata"}, "source_identifier": "Q121315568"}], "date_modified": "2023-09-05T19:59:25.248589+10:00"}, {"id": 76263, "name": "Hank Nelson", "roles_in_work": [{"id": 2096315, "title": "Angels of war", "work_id": 78368, "role": "co-director", "role_id": 959, "is_primary": true}], "also_known_as": "", "date_of_birth": "", "date_of_death": "", "genders": [], "languages": [], "places_of_operation": [], "biography": "", "biography_author": null, "date_of_biography": "2023-05-09T12:24:28.756553+10:00", "external_links": [], "uuid": "0e08f96d-5f2d-4903-9fcc-ba595461037a", "source": {"name": "Vernon", "slug": "vernon"}, "source_identifier": "1346", "external_references": [{"id": 37460, "source": {"name": "Wikidata", "slug": "wikidata"}, "source_identifier": "Q121058061"}], "date_modified": "2023-09-05T20:28:21.257428+10:00"}]}