{"count": 28683, "next": "https://api.acmi.net.au/creators/?page=1184", "previous": "https://api.acmi.net.au/creators/?page=1182", "results": [{"id": 73520, "name": "Don Calder", "roles_in_work": [{"id": 2710356, "title": "And now for some quotations", "work_id": 108930, "role": "camera operator", "role_id": 931, "is_primary": false}, {"id": 2679402, "title": "Caulfield: a Living City", "work_id": 65885, "role": "sound", "role_id": 952, "is_primary": false}, {"id": 3108626, "title": "Police horses: who cares?", "work_id": 108953, "role": "sound", "role_id": 952, "is_primary": false}, {"id": 3108642, "title": "Hello, Mr. Webb!", "work_id": 94920, "role": "sound", "role_id": 952, "is_primary": false}, {"id": 2711048, "title": "Dirty Harry", "work_id": 108999, "role": "sound", "role_id": 952, "is_primary": false}], "also_known_as": "", "date_of_birth": "", "date_of_death": "", "genders": [], "languages": [], "places_of_operation": [], "biography": "", "biography_author": null, "date_of_biography": "2023-05-09T19:04:37.659506+10:00", "external_links": [], "uuid": "628adb68-ae8e-411e-b198-cbb9b441b583", "source": {"name": "Vernon", "slug": "vernon"}, "source_identifier": "1359", "external_references": [{"id": 51336, "source": {"name": "Wikidata", "slug": "wikidata"}, "source_identifier": "Q121360798"}], "date_modified": "2025-10-01T16:43:20.434224+10:00"}, {"id": 73519, "name": "Ed Domeyer", "roles_in_work": [{"id": 3108617, "title": "Tomatoes for processing", "work_id": 109006, "role": "camera operator", "role_id": 931, "is_primary": false}, {"id": 3108685, "title": "The Voice of Agriculture", "work_id": 119301, "role": "cinematographer", "role_id": 32, "is_primary": false}, {"id": 3108557, "title": "Picking grapes", "work_id": 108928, "role": "director of photography", "role_id": 925, "is_primary": false}, {"id": 3108485, "title": "Stop fruitfly (picture only)", "work_id": 108927, "role": "director of photography", "role_id": 925, "is_primary": false}, {"id": 3108608, "title": "The Mallee Research Station", "work_id": 119556, "role": "photographer", "role_id": 440, "is_primary": false}], "also_known_as": "", "date_of_birth": "", "date_of_death": "", "genders": [], "languages": [], "places_of_operation": [], "biography": "", "biography_author": null, "date_of_biography": "2023-07-05T04:00:47.346793+10:00", "external_links": [], "uuid": "fbe6151a-d56d-4df4-b99c-8f3be43ada89", "source": {"name": "Vernon", "slug": "vernon"}, "source_identifier": "1684", "external_references": [{"id": 40182, "source": {"name": "Wikidata", "slug": "wikidata"}, "source_identifier": "Q121270818"}], "date_modified": "2025-10-01T16:44:21.031379+10:00"}, {"id": 73518, "name": "Karen Marcelo", "roles_in_work": [{"id": 2676925, "title": "Prosthetic Head", "work_id": 108910, "role": "programmer", "role_id": 483, "is_primary": false}, {"id": 2676924, "title": "Prosthetic Head", "work_id": 108910, "role": "special effects", "role_id": 929, "is_primary": false}], "also_known_as": "", "date_of_birth": "", "date_of_death": "", "genders": [], "languages": [], "places_of_operation": [], "biography": "", "biography_author": null, "date_of_biography": "2023-05-09T16:38:04.920971+10:00", "external_links": [], "uuid": "0853c155-bf46-4478-ba5d-1908b79d5c27", "source": {"name": "Vernon", "slug": "vernon"}, "source_identifier": "1298", "external_references": [], "date_modified": "2025-03-06T23:08:56.667449+11:00"}, {"id": 73517, "name": "Johnny Waters", "roles_in_work": [{"id": 2676923, "title": "Prosthetic Head", "work_id": 108910, "role": "assistant", "role_id": 450, "is_primary": false}], "also_known_as": "", "date_of_birth": "", "date_of_death": "", "genders": [], "languages": [], "places_of_operation": [], "biography": "", "biography_author": null, "date_of_biography": "2023-05-09T16:38:04.398098+10:00", "external_links": [], "uuid": "8f353395-1f26-482d-9858-a37fd1f15594", "source": {"name": "Vernon", "slug": "vernon"}, "source_identifier": "1297", "external_references": [], "date_modified": "2025-03-06T23:08:55.490126+11:00"}, {"id": 73516, "name": "Sam Trychin", "roles_in_work": [{"id": 2676922, "title": "Prosthetic Head", "work_id": 108910, "role": "animator", "role_id": 497, "is_primary": false}, {"id": 2676920, "title": "Prosthetic Head", "work_id": 108910, "role": "assistant", "role_id": 450, "is_primary": false}, {"id": 2676921, "title": "Prosthetic Head", "work_id": 108910, "role": "sound designer", "role_id": 927, "is_primary": false}], "also_known_as": "", "date_of_birth": "", "date_of_death": "", "genders": [], "languages": [], "places_of_operation": [], "biography": "", "biography_author": null, "date_of_biography": "2023-05-09T16:38:04.138336+10:00", "external_links": [], "uuid": "345fa5cf-17d8-44c2-a243-877dc71b17ca", "source": {"name": "Vernon", "slug": "vernon"}, "source_identifier": "1296", "external_references": [], "date_modified": "2025-03-06T23:08:54.914149+11:00"}, {"id": 73515, "name": "Barry Fox", "roles_in_work": [{"id": 2676919, "title": "Prosthetic Head", "work_id": 108910, "role": "animator", "role_id": 497, "is_primary": false}, {"id": 2676918, "title": "Prosthetic Head", "work_id": 108910, "role": "programmer", "role_id": 483, "is_primary": false}], "also_known_as": "", "date_of_birth": "", "date_of_death": "", "genders": [], "languages": [], "places_of_operation": [], "biography": "", "biography_author": null, "date_of_biography": "2023-05-09T16:38:03.410068+10:00", "external_links": [], "uuid": "fa72d94c-1570-43a4-9e6c-577a522237f6", "source": {"name": "Vernon", "slug": "vernon"}, "source_identifier": "1295", "external_references": [], "date_modified": "2025-03-06T23:08:53.143676+11:00"}, {"id": 73513, "name": "Michael Currie", "roles_in_work": [{"id": 2676909, "title": "Loup", "work_id": 108903, "role": "music", "role_id": 949, "is_primary": false}], "also_known_as": "", "date_of_birth": null, "date_of_death": null, "genders": [], "languages": [], "places_of_operation": [], "biography": "", "biography_author": null, "date_of_biography": null, "external_links": [], "uuid": "7e2d3a98-bb2e-4f48-a94c-80b2e95191d2", "source": {"name": "Vernon", "slug": "vernon"}, "source_identifier": "1187", "external_references": [{"id": 51620, "source": {"name": "Wikidata", "slug": "wikidata"}, "source_identifier": "Q121360970"}], "date_modified": "2025-03-06T23:08:45.584460+11:00"}, {"id": 73512, "name": "Christopher Bence", "roles_in_work": [{"id": 2676908, "title": "Loup", "work_id": 108903, "role": "choreographer", "role_id": 951, "is_primary": false}], "also_known_as": "", "date_of_birth": null, "date_of_death": null, "genders": [], "languages": [], "places_of_operation": [], "biography": "", "biography_author": null, "date_of_biography": null, "external_links": [], "uuid": "1fb7f61e-95bc-4cb6-840c-628e41592a59", "source": {"name": "Vernon", "slug": "vernon"}, "source_identifier": "1186", "external_references": [], "date_modified": "2025-03-06T23:08:44.998310+11:00"}, {"id": 73511, "name": "Tom Puller", "roles_in_work": [{"id": 2676904, "title": "A Banquet of dreams - a wish for the future = [Past present]", "work_id": 108902, "role": "film maker", "role_id": 459, "is_primary": false}], "also_known_as": "", "date_of_birth": "", "date_of_death": "", "genders": [], "languages": [], "places_of_operation": [], "biography": "", "biography_author": null, "date_of_biography": "2023-05-09T11:21:55.802442+10:00", "external_links": [], "uuid": "5fec1c8f-0b3d-4e13-89a1-b257708ad7ed", "source": {"name": "Vernon", "slug": "vernon"}, "source_identifier": "1702", "external_references": [], "date_modified": "2025-03-06T23:08:42.213268+11:00"}, {"id": 73510, "name": "First Impressions Youth Theatre", "roles_in_work": [{"id": 2676903, "title": "A Banquet of dreams - a wish for the future = [Past present]", "work_id": 108902, "role": "collaborator", "role_id": 536, "is_primary": false}, {"id": 2676902, "title": "A Banquet of dreams - a wish for the future = [Past present]", "work_id": 108902, "role": "interviewee", "role_id": 496, "is_primary": false}], "also_known_as": "", "date_of_birth": "", "date_of_death": "", "genders": [], "languages": [], "places_of_operation": [], "biography": "", "biography_author": null, "date_of_biography": "2023-05-09T11:21:55.469096+10:00", "external_links": [], "uuid": "da475cfb-bbbe-4a3f-9fa5-cb2938272f11", "source": {"name": "Vernon", "slug": "vernon"}, "source_identifier": "1701", "external_references": [], "date_modified": "2025-03-06T23:08:41.631920+11:00"}]}