{"count": 28687, "next": "https://api.acmi.net.au/creators/?page=2316", "previous": "https://api.acmi.net.au/creators/?page=2314", "results": [{"id": 16487, "name": "R.G. Downes", "roles_in_work": [{"id": 2415526, "title": "Mallee - land of challenge", "work_id": 70067, "role": "director", "role_id": 938, "is_primary": true}, {"id": 2648338, "title": "Grassed chutes", "work_id": 78863, "role": "director", "role_id": 938, "is_primary": true}], "also_known_as": "", "date_of_birth": "", "date_of_death": "", "genders": [], "languages": [], "places_of_operation": [], "biography": "", "biography_author": null, "date_of_biography": "2023-08-11T19:40:23.300238+10:00", "external_links": [], "uuid": "3193c51c-65ee-454e-a3c7-9bfb833e4390", "source": {"name": "Vernon", "slug": "vernon"}, "source_identifier": "27014", "external_references": [], "date_modified": "2025-03-05T13:42:31.162201+11:00"}, {"id": 16486, "name": "Tom Hodge", "roles_in_work": [{"id": 854952, "title": "Malayan seashore", "work_id": 70064, "role": "director", "role_id": 938, "is_primary": true}, {"id": 1812762, "title": "Tin from Malaya", "work_id": 73854, "role": "producer", "role_id": 1089, "is_primary": true}, {"id": 1805899, "title": "Wayang Kulit", "work_id": 87320, "role": "producer", "role_id": 1089, "is_primary": true}, {"id": 1803616, "title": "Sarawak", "work_id": 72479, "role": "producer", "role_id": 1089, "is_primary": true}, {"id": 2465045, "title": "Produce of Malaya", "work_id": 71874, "role": "producer", "role_id": 1089, "is_primary": true}, {"id": 1808594, "title": "Singapore: the lion city", "work_id": 72847, "role": "producer", "role_id": 1089, "is_primary": true}], "also_known_as": "", "date_of_birth": "", "date_of_death": "", "genders": [], "languages": [], "places_of_operation": [], "biography": "", "biography_author": null, "date_of_biography": "2023-08-14T10:25:45.465794+10:00", "external_links": [], "uuid": "bb179d77-0a3a-49e8-a630-1a2c5fda6e04", "source": {"name": "Vernon", "slug": "vernon"}, "source_identifier": "13575", "external_references": [], "date_modified": "2023-08-14T10:25:45.466090+10:00"}, {"id": 16484, "name": "Elsie McKibbin", "roles_in_work": [{"id": 2415520, "title": "Making their senses make sense", "work_id": 70055, "role": "director", "role_id": 938, "is_primary": true}], "also_known_as": "", "date_of_birth": "", "date_of_death": "", "genders": [], "languages": [], "places_of_operation": [], "biography": "", "biography_author": null, "date_of_biography": "2023-08-11T19:40:13.209047+10:00", "external_links": [], "uuid": "6d9fb58e-f9ba-4a96-8c4c-ddb2a0452934", "source": {"name": "Vernon", "slug": "vernon"}, "source_identifier": "18745", "external_references": [], "date_modified": "2023-08-11T19:40:13.209334+10:00"}, {"id": 16483, "name": "Center for Developmental and Learning Disorders", "roles_in_work": [{"id": 2415519, "title": "Making their senses make sense", "work_id": 70055, "role": "production company", "role_id": 941, "is_primary": true}], "also_known_as": "", "date_of_birth": "", "date_of_death": "", "genders": [], "languages": [], "places_of_operation": [], "biography": "", "biography_author": null, "date_of_biography": "2023-08-11T19:40:12.587777+10:00", "external_links": [], "uuid": "f2b912e4-676a-4fb2-86f6-2c4abd4d4ae8", "source": {"name": "Vernon", "slug": "vernon"}, "source_identifier": "6398", "external_references": [], "date_modified": "2023-08-11T19:40:12.588034+10:00"}, {"id": 16481, "name": "Annette Klingman", "roles_in_work": [{"id": 2645541, "title": "Making haiku", "work_id": 70041, "role": "producer", "role_id": 1089, "is_primary": true}], "also_known_as": "", "date_of_birth": null, "date_of_death": null, "genders": [], "languages": [], "places_of_operation": [], "biography": "", "biography_author": null, "date_of_biography": null, "external_links": [], "uuid": "ffe5637e-faa3-43a5-a419-6f27024422fc", "source": {"name": "Vernon", "slug": "vernon"}, "source_identifier": "15359", "external_references": [], "date_modified": "2025-03-05T12:41:50.283364+11:00"}, {"id": 16480, "name": "Patrick McGuire", "roles_in_work": [{"id": 2415509, "title": "Making a balsa wood glider", "work_id": 70025, "role": "producer", "role_id": 1089, "is_primary": true}], "also_known_as": "", "date_of_birth": "", "date_of_death": "", "genders": [], "languages": [], "places_of_operation": [], "biography": "", "biography_author": null, "date_of_biography": "2023-08-11T19:39:59.700922+10:00", "external_links": [], "uuid": "e61d614d-5898-405d-8927-fe1185fd1d88", "source": {"name": "Vernon", "slug": "vernon"}, "source_identifier": "26142", "external_references": [], "date_modified": "2023-08-11T19:39:59.701162+10:00"}, {"id": 16474, "name": "Paris Cite Productions", "roles_in_work": [{"id": 2645524, "title": "Maitre", "work_id": 70015, "role": "production company", "role_id": 941, "is_primary": true}], "also_known_as": "", "date_of_birth": null, "date_of_death": null, "genders": [], "languages": [], "places_of_operation": [], "biography": "", "biography_author": null, "date_of_biography": null, "external_links": [], "uuid": "739b5e2e-8c01-4291-9711-7c8b2bd35067", "source": {"name": "Vernon", "slug": "vernon"}, "source_identifier": "11296", "external_references": [], "date_modified": "2025-03-05T12:41:38.338230+11:00"}, {"id": 16473, "name": "Mode-Art Pictures", "roles_in_work": [{"id": 761290, "title": "Planning and laying out work", "work_id": 76160, "role": "production company", "role_id": 941, "is_primary": true}, {"id": 2766002, "title": "Maintaining quality standards", "work_id": 70011, "role": "production company", "role_id": 941, "is_primary": true}, {"id": 2765995, "title": "Maintaining good working conditions", "work_id": 90211, "role": "production company", "role_id": 941, "is_primary": true}], "also_known_as": "", "date_of_birth": "", "date_of_death": "", "genders": [], "languages": [], "places_of_operation": [], "biography": "", "biography_author": null, "date_of_biography": "2023-08-11T13:10:02.821193+10:00", "external_links": [], "uuid": "8a70294c-7b7d-49a1-b472-5b86e1898def", "source": {"name": "Vernon", "slug": "vernon"}, "source_identifier": "10594", "external_references": [], "date_modified": "2025-03-14T17:55:56.571973+11:00"}, {"id": 16472, "name": "British Railways", "roles_in_work": [{"id": 874906, "title": "Women at war", "work_id": 89175, "role": "production company", "role_id": 941, "is_primary": true}, {"id": 2415730, "title": "Mechanical handling of traffic", "work_id": 70241, "role": "production company", "role_id": 941, "is_primary": true}, {"id": 2415505, "title": "Main line diesel", "work_id": 70009, "role": "production company", "role_id": 941, "is_primary": true}, {"id": 2415837, "title": "Men of the footplate", "work_id": 89634, "role": "production company", "role_id": 941, "is_primary": true}, {"id": 753653, "title": "Snow", "work_id": 72930, "role": "production company", "role_id": 941, "is_primary": true}], "also_known_as": "", "date_of_birth": "", "date_of_death": "", "genders": [], "languages": [], "places_of_operation": [], "biography": "", "biography_author": null, "date_of_biography": "2023-08-11T19:47:41.337284+10:00", "external_links": [], "uuid": "6ec07190-d98f-4310-a0b0-cb393267beb6", "source": {"name": "Vernon", "slug": "vernon"}, "source_identifier": "4123", "external_references": [], "date_modified": "2023-08-11T19:47:41.337610+10:00"}, {"id": 16470, "name": "Film Group of India", "roles_in_work": [{"id": 861313, "title": "Land of the dancing shiva", "work_id": 75171, "role": "production company", "role_id": 941, "is_primary": true}, {"id": 2645522, "title": "Magnificent memory", "work_id": 70007, "role": "production company", "role_id": 941, "is_primary": true}, {"id": 2235394, "title": "Rajput glory", "work_id": 72050, "role": "production company", "role_id": 941, "is_primary": true}], "also_known_as": "", "date_of_birth": "", "date_of_death": "", "genders": [], "languages": [], "places_of_operation": [], "biography": "", "biography_author": null, "date_of_biography": "2023-05-09T16:44:56.804574+10:00", "external_links": [], "uuid": "6979c9d1-3462-4bbb-a7b4-2b64c4c1f8fd", "source": {"name": "Vernon", "slug": "vernon"}, "source_identifier": "8219", "external_references": [{"id": 33511, "source": {"name": "Wikidata", "slug": "wikidata"}, "source_identifier": "Q121035444"}], "date_modified": "2025-03-05T12:41:36.898383+11:00"}]}