{"count": 28683, "next": "https://api.acmi.net.au/creators/?page=1219", "previous": "https://api.acmi.net.au/creators/?page=1217", "results": [{"id": 73163, "name": "Jud Yalkut", "roles_in_work": [{"id": 2618076, "title": "Global groove", "work_id": 107954, "role": "archival material", "role_id": 472, "is_primary": false}], "also_known_as": "", "date_of_birth": null, "date_of_death": null, "genders": [], "languages": [], "places_of_operation": [], "biography": "", "biography_author": null, "date_of_biography": null, "external_links": [], "uuid": "f6f39632-c4a3-4b8d-8bb8-ada179f6ac6a", "source": {"name": "Vernon", "slug": "vernon"}, "source_identifier": "110330", "external_references": [], "date_modified": "2025-02-26T22:42:22.108947+11:00"}, {"id": 73162, "name": "Russell Connor", "roles_in_work": [{"id": 2618075, "title": "Global groove", "work_id": 107954, "role": "voice", "role_id": 471, "is_primary": false}], "also_known_as": "", "date_of_birth": null, "date_of_death": null, "genders": [], "languages": [], "places_of_operation": [], "biography": "", "biography_author": null, "date_of_biography": null, "external_links": [], "uuid": "628df555-965e-4730-8191-8843489ac5ca", "source": {"name": "Vernon", "slug": "vernon"}, "source_identifier": "110329", "external_references": [], "date_modified": "2025-02-26T22:42:21.509933+11:00"}, {"id": 73161, "name": "Marion Harper", "roles_in_work": [{"id": 2618065, "title": "Turbulence 2 (Revised version commissioned by ACMI)", "work_id": 107951, "role": "voice", "role_id": 471, "is_primary": false}], "also_known_as": "", "date_of_birth": "", "date_of_death": "", "genders": [], "languages": [], "places_of_operation": [], "biography": "", "biography_author": null, "date_of_biography": "2023-05-09T17:42:55.782568+10:00", "external_links": [], "uuid": "2580b1ba-f4de-49cf-bd4e-1d2dc1644b1d", "source": {"name": "Vernon", "slug": "vernon"}, "source_identifier": "110324", "external_references": [], "date_modified": "2025-02-26T22:41:16.413222+11:00"}, {"id": 73160, "name": "Jason Murphy", "roles_in_work": [{"id": 2618064, "title": "Turbulence 2 (Revised version commissioned by ACMI)", "work_id": 107951, "role": "sound editor", "role_id": 948, "is_primary": false}], "also_known_as": "", "date_of_birth": "", "date_of_death": "", "genders": [], "languages": [], "places_of_operation": [], "biography": "", "biography_author": null, "date_of_biography": "2023-05-09T17:42:55.524382+10:00", "external_links": [], "uuid": "bc446f38-5e27-44af-89ec-d46b076e6308", "source": {"name": "Vernon", "slug": "vernon"}, "source_identifier": "110323", "external_references": [], "date_modified": "2025-02-26T22:41:15.701649+11:00"}, {"id": 73159, "name": "Mark Dickson", "roles_in_work": [{"id": 2618063, "title": "Turbulence 2 (Revised version commissioned by ACMI)", "work_id": 107951, "role": "harry editor", "role_id": 469, "is_primary": false}], "also_known_as": "", "date_of_birth": "", "date_of_death": "", "genders": [], "languages": [], "places_of_operation": [], "biography": "", "biography_author": null, "date_of_biography": "2023-05-09T17:42:55.266668+10:00", "external_links": [], "uuid": "ac9016fb-160e-496a-9f19-a26dbb35db90", "source": {"name": "Vernon", "slug": "vernon"}, "source_identifier": "110322", "external_references": [], "date_modified": "2025-02-26T22:41:15.090553+11:00"}, {"id": 73158, "name": "Allen Grossman", "roles_in_work": [{"id": 2618055, "title": "Summer, or grief", "work_id": 107949, "role": "text", "role_id": 468, "is_primary": false}], "also_known_as": "", "date_of_birth": "", "date_of_death": "", "genders": [], "languages": [], "places_of_operation": [], "biography": "", "biography_author": null, "date_of_biography": "2023-05-09T19:05:58.630436+10:00", "external_links": [], "uuid": "fba2e202-8a8f-4412-a33c-8a4a34c60a34", "source": {"name": "Vernon", "slug": "vernon"}, "source_identifier": "110356", "external_references": [], "date_modified": "2025-02-26T22:40:57.732295+11:00"}, {"id": 73157, "name": "Joe McKay", "roles_in_work": [{"id": 2618053, "title": "Host", "work_id": 107948, "role": "assistant", "role_id": 450, "is_primary": false}], "also_known_as": "", "date_of_birth": "", "date_of_death": "", "genders": [], "languages": [], "places_of_operation": [], "biography": "", "biography_author": null, "date_of_biography": "2023-08-11T17:31:09.255749+10:00", "external_links": [], "uuid": "584c2ed7-7bd3-49cd-983b-c3bffb5292cf", "source": {"name": "Vernon", "slug": "vernon"}, "source_identifier": "110355", "external_references": [], "date_modified": "2025-02-26T22:40:49.864553+11:00"}, {"id": 73156, "name": "Warren Furlow", "roles_in_work": [{"id": 2618047, "title": "Portraits: New England Fishermen", "work_id": 107946, "role": "assistant", "role_id": 450, "is_primary": false}], "also_known_as": "", "date_of_birth": "", "date_of_death": "", "genders": [], "languages": [], "places_of_operation": [], "biography": "", "biography_author": null, "date_of_biography": "2023-05-09T15:45:06.567540+10:00", "external_links": [], "uuid": "ea555179-0e8d-4525-ac7a-54e11093e818", "source": {"name": "Vernon", "slug": "vernon"}, "source_identifier": "110354", "external_references": [], "date_modified": "2025-02-26T22:40:04.219190+11:00"}, {"id": 73155, "name": "Doug Bears", "roles_in_work": [{"id": 2618046, "title": "Portraits: New England Fishermen", "work_id": 107946, "role": "editor", "role_id": 918, "is_primary": true}], "also_known_as": "", "date_of_birth": "", "date_of_death": "", "genders": [], "languages": [], "places_of_operation": [], "biography": "", "biography_author": null, "date_of_biography": "2023-05-09T15:45:06.324726+10:00", "external_links": [], "uuid": "34bbfe8d-7f3d-4f9b-99a4-04b0ca4f12dc", "source": {"name": "Vernon", "slug": "vernon"}, "source_identifier": "110353", "external_references": [{"id": 33899, "source": {"name": "Wikidata", "slug": "wikidata"}, "source_identifier": "Q121036820"}], "date_modified": "2025-02-26T22:40:03.626486+11:00"}, {"id": 73154, "name": "Judith Brown", "roles_in_work": [{"id": 2618045, "title": "Portraits: New England Fishermen", "work_id": 107946, "role": "assistant", "role_id": 450, "is_primary": false}, {"id": 2618044, "title": "Portraits: New England Fishermen", "work_id": 107946, "role": "sound", "role_id": 952, "is_primary": false}], "also_known_as": "", "date_of_birth": "", "date_of_death": "", "genders": [], "languages": [], "places_of_operation": [], "biography": "", "biography_author": null, "date_of_biography": "2023-05-09T15:45:06.014579+10:00", "external_links": [], "uuid": "b3fe18e5-36cf-40fb-bfe3-f38f19abc038", "source": {"name": "Vernon", "slug": "vernon"}, "source_identifier": "110352", "external_references": [], "date_modified": "2025-02-26T22:40:03.034053+11:00"}]}