{"count": 28687, "next": "https://api.acmi.net.au/creators/?page=2573", "previous": "https://api.acmi.net.au/creators/?page=2571", "results": [{"id": 13016, "name": "Educational Services Incorporated", "roles_in_work": [{"id": 2793166, "title": "The Rutherford atom", "work_id": 72411, "role": "production company", "role_id": 941, "is_primary": true}, {"id": 2793155, "title": "The Interference of photons", "work_id": 85435, "role": "production company", "role_id": 941, "is_primary": true}, {"id": 2793148, "title": "Inertial mass", "work_id": 68929, "role": "production company", "role_id": 941, "is_primary": true}, {"id": 2793123, "title": "Energy and work", "work_id": 95821, "role": "production company", "role_id": 941, "is_primary": true}, {"id": 2793115, "title": "Coulomb's law", "work_id": 95822, "role": "production company", "role_id": 941, "is_primary": true}, {"id": 2793188, "title": "Vector kinematics", "work_id": 74304, "role": "production company", "role_id": 941, "is_primary": true}, {"id": 2793109, "title": "Behavior of gases", "work_id": 65325, "role": "production company", "role_id": 941, "is_primary": true}, {"id": 747768, "title": "Measuring short distances", "work_id": 70234, "role": "production company", "role_id": 941, "is_primary": true}, {"id": 2645590, "title": "Mechanical energy and thermal energy", "work_id": 70238, "role": "production company", "role_id": 941, "is_primary": true}, {"id": 825425, "title": "Photoelectric effect", "work_id": 95840, "role": "production company", "role_id": 941, "is_primary": true}, {"id": 754448, "title": "Straight line kinematics", "work_id": 73277, "role": "production company", "role_id": 941, "is_primary": true}], "also_known_as": "", "date_of_birth": "", "date_of_death": "", "genders": [], "languages": [], "places_of_operation": [], "biography": "", "biography_author": null, "date_of_biography": "2023-05-09T16:39:28.206738+10:00", "external_links": [], "uuid": "6abcad26-b221-4b0f-a6ba-d334d9a371a5", "source": {"name": "Vernon", "slug": "vernon"}, "source_identifier": "7813", "external_references": [{"id": 51636, "source": {"name": "Wikidata", "slug": "wikidata"}, "source_identifier": "Q121357504"}], "date_modified": "2025-03-14T20:16:17.251515+11:00"}, {"id": 13015, "name": "Christopher Tillam", "roles_in_work": [{"id": 2678295, "title": "Behaviour modification in the classroom (TEFC)", "work_id": 65324, "role": "director", "role_id": 938, "is_primary": true}], "also_known_as": "", "date_of_birth": "", "date_of_death": "", "genders": [], "languages": [], "places_of_operation": [], "biography": "", "biography_author": null, "date_of_biography": "2023-08-11T14:48:40.806982+10:00", "external_links": [], "uuid": "eaadbdea-5831-48c6-909f-6147b92ee211", "source": {"name": "Vernon", "slug": "vernon"}, "source_identifier": "17008", "external_references": [], "date_modified": "2025-03-06T23:45:53.291300+11:00"}, {"id": 13014, "name": "Stanford University Division of Communication Broadcasting and Film", "roles_in_work": [{"id": 2678294, "title": "Behaviour modification in the classroom (TEFC)", "work_id": 65324, "role": "production company", "role_id": 941, "is_primary": true}], "also_known_as": "", "date_of_birth": "", "date_of_death": "", "genders": [], "languages": [], "places_of_operation": [], "biography": "", "biography_author": null, "date_of_biography": "2023-08-11T14:48:40.180238+10:00", "external_links": [], "uuid": "3e511440-fa86-4f3a-9cae-63cc8870fe7e", "source": {"name": "Vernon", "slug": "vernon"}, "source_identifier": "12912", "external_references": [], "date_modified": "2025-03-06T23:45:52.699133+11:00"}, {"id": 13013, "name": "O-Ivor Lovaas", "roles_in_work": [{"id": 2678293, "title": "Behaviour modification: teaching language to psychotic children (TEFC)", "work_id": 65323, "role": "director", "role_id": 938, "is_primary": true}], "also_known_as": "", "date_of_birth": "", "date_of_death": "", "genders": [], "languages": [], "places_of_operation": [], "biography": "", "biography_author": null, "date_of_biography": "2023-08-11T14:48:51.251774+10:00", "external_links": [], "uuid": "543452a9-b151-4659-9d89-7855c81603df", "source": {"name": "Vernon", "slug": "vernon"}, "source_identifier": "25934", "external_references": [], "date_modified": "2025-03-06T23:45:51.877739+11:00"}, {"id": 13012, "name": "Robert Aller", "roles_in_work": [{"id": 2678292, "title": "Behaviour modification: teaching language to psychotic children (TEFC)", "work_id": 65323, "role": "producer", "role_id": 1089, "is_primary": true}, {"id": 2777776, "title": "Emotion", "work_id": 82019, "role": "producer", "role_id": 1089, "is_primary": true}, {"id": 859407, "title": "The Tender power", "work_id": 73616, "role": "producer/director", "role_id": 31, "is_primary": true}, {"id": 2777753, "title": "Research methods", "work_id": 81979, "role": "producer/director", "role_id": 31, "is_primary": true}], "also_known_as": "", "date_of_birth": "", "date_of_death": "", "genders": [], "languages": [], "places_of_operation": [], "biography": "", "biography_author": null, "date_of_biography": "2023-08-11T14:48:50.596547+10:00", "external_links": [], "uuid": "2c9ec8bb-eec9-4af7-aec3-1a803b5c5125", "source": {"name": "Vernon", "slug": "vernon"}, "source_identifier": "27633", "external_references": [], "date_modified": "2025-03-14T18:57:00.422672+11:00"}, {"id": 13011, "name": "Appleton-Century-Crofts", "roles_in_work": [{"id": 2465766, "title": "Respondent and operant behaviour (TEFC)", "work_id": 72179, "role": "production company", "role_id": 941, "is_primary": true}, {"id": 2678291, "title": "Behaviour modification: teaching language to psychotic children (TEFC)", "work_id": 65323, "role": "production company", "role_id": 941, "is_primary": true}, {"id": 2465760, "title": "Sequences of behavior (TEFC)", "work_id": 72673, "role": "production company", "role_id": 941, "is_primary": true}, {"id": 2465765, "title": "Generalisation, discrimination and motivation (TEFC)", "work_id": 75122, "role": "production company", "role_id": 941, "is_primary": true}], "also_known_as": "", "date_of_birth": "", "date_of_death": "", "genders": [], "languages": [], "places_of_operation": [], "biography": "", "biography_author": null, "date_of_biography": "2023-08-14T10:41:47.799902+10:00", "external_links": [], "uuid": "2ee7a204-d33c-4c62-90bc-bd27c2b5fde3", "source": {"name": "Vernon", "slug": "vernon"}, "source_identifier": "5321", "external_references": [], "date_modified": "2025-03-06T23:45:50.693243+11:00"}, {"id": 13009, "name": "Barclays Bank", "roles_in_work": [{"id": 752163, "title": "The Rise of Parnassus Needy", "work_id": 72250, "role": "production company", "role_id": 941, "is_primary": true}, {"id": 856904, "title": "The Pilgrim", "work_id": 71571, "role": "production company", "role_id": 941, "is_primary": true}, {"id": 2644131, "title": "The Behaviour game", "work_id": 65322, "role": "production company", "role_id": 941, "is_primary": true}, {"id": 2716124, "title": "Importance of being frivolous", "work_id": 68791, "role": "production company", "role_id": 941, "is_primary": true}, {"id": 2680768, "title": "The Curious history of money", "work_id": 66547, "role": "production company", "role_id": 941, "is_primary": true}], "also_known_as": "", "date_of_birth": "", "date_of_death": "", "genders": [], "languages": [], "places_of_operation": [], "biography": "", "biography_author": null, "date_of_biography": "2023-05-09T19:40:47.668760+10:00", "external_links": [], "uuid": "bb7a4abc-9eb1-411e-b450-c05b4a839ccb", "source": {"name": "Vernon", "slug": "vernon"}, "source_identifier": "5718", "external_references": [{"id": 41007, "source": {"name": "Wikidata", "slug": "wikidata"}, "source_identifier": "Q121126213"}], "date_modified": "2025-03-12T01:50:25.758798+11:00"}, {"id": 13007, "name": "William Kay", "roles_in_work": [{"id": 2750232, "title": "Atmosphere in motion", "work_id": 97202, "role": "director", "role_id": 938, "is_primary": true}, {"id": 2749946, "title": "Power & wheels: The Automobile in modern life", "work_id": 97058, "role": "director", "role_id": 938, "is_primary": true}, {"id": 2749944, "title": "Power & wheels: The Automobile in modern life", "work_id": 97058, "role": "co-producer", "role_id": 915, "is_primary": true}, {"id": 2779570, "title": "The World of animals: insects in a garden", "work_id": 68967, "role": "producer", "role_id": 1089, "is_primary": true}, {"id": 1806035, "title": "Eclipses of the sun and moon", "work_id": 95980, "role": "producer", "role_id": 1089, "is_primary": true}, {"id": 2678284, "title": "Beginnings of vertebrate life", "work_id": 65319, "role": "producer", "role_id": 1089, "is_primary": true}, {"id": 2712102, "title": "The Digestive system", "work_id": 66781, "role": "producer", "role_id": 1089, "is_primary": true}, {"id": 2680049, "title": "Cloth: fiber to fabric", "work_id": 66192, "role": "producer", "role_id": 1089, "is_primary": true}, {"id": 861424, "title": "Body defenses against disease. - 2nd ed.", "work_id": 75301, "role": "producer/director", "role_id": 31, "is_primary": true}, {"id": 2750345, "title": "Women at work: change, choice, challenge", "work_id": 97270, "role": "producer/director", "role_id": 31, "is_primary": true}, {"id": 749947, "title": "Our changing cities - can they be saved?", "work_id": 71238, "role": "producer/director", "role_id": 31, "is_primary": true}, {"id": 2646435, "title": "Storms: the restless atmosphere", "work_id": 73222, "role": "producer/director", "role_id": 31, "is_primary": true}, {"id": 757621, "title": "What makes rain", "work_id": 74637, "role": "producer/director", "role_id": 31, "is_primary": true}], "also_known_as": "", "date_of_birth": "", "date_of_death": "", "genders": [], "languages": [], "places_of_operation": [], "biography": "", "biography_author": null, "date_of_biography": "2023-05-09T18:02:10.507901+10:00", "external_links": [], "uuid": "2b9ee422-c8a0-435f-adf1-21391b73441b", "source": {"name": "Vernon", "slug": "vernon"}, "source_identifier": "30458", "external_references": [{"id": 34858, "source": {"name": "Wikidata", "slug": "wikidata"}, "source_identifier": "Q121223048"}], "date_modified": "2025-03-14T19:03:46.228854+11:00"}, {"id": 13006, "name": "National Film Archive (Great Britain)", "roles_in_work": [{"id": 2678282, "title": "The Beginnings of the cinema", "work_id": 65318, "role": "production company", "role_id": 941, "is_primary": true}, {"id": 2712392, "title": "Drawings that walk and talk", "work_id": 66920, "role": "production company", "role_id": 941, "is_primary": true}], "also_known_as": "", "date_of_birth": "", "date_of_death": "", "genders": [], "languages": [], "places_of_operation": [], "biography": "", "biography_author": null, "date_of_biography": "2023-05-09T15:26:24.461638+10:00", "external_links": [], "uuid": "d6c893b4-547f-4859-85f8-6dbfde1427ae", "source": {"name": "Vernon", "slug": "vernon"}, "source_identifier": "4399", "external_references": [{"id": 38659, "source": {"name": "Wikidata", "slug": "wikidata"}, "source_identifier": "Q121057955"}], "date_modified": "2025-03-12T00:21:28.854739+11:00"}, {"id": 13005, "name": "Knickerbocker Productions", "roles_in_work": [{"id": 2713729, "title": "Emotions of every day living. No. 6. First lessons", "work_id": 67557, "role": "production company", "role_id": 941, "is_primary": true}, {"id": 2766110, "title": "Successful scholarship", "work_id": 73342, "role": "production company", "role_id": 941, "is_primary": true}, {"id": 2680457, "title": "Co-operation, competition, conflict", "work_id": 66396, "role": "production company", "role_id": 941, "is_primary": true}, {"id": 2766108, "title": "Heredity and family environment", "work_id": 68423, "role": "production company", "role_id": 941, "is_primary": true}, {"id": 2766104, "title": "Habit Patterns", "work_id": 68261, "role": "production company", "role_id": 941, "is_primary": true}, {"id": 2715917, "title": "Hurricane circuit", "work_id": 68688, "role": "production company", "role_id": 941, "is_primary": true}, {"id": 2678280, "title": "Beginnings of conscience", "work_id": 65317, "role": "production company", "role_id": 941, "is_primary": true}, {"id": 825754, "title": "The Pond and the city", "work_id": 96019, "role": "production company", "role_id": 941, "is_primary": true}, {"id": 2766113, "title": "Toward emotional security", "work_id": 89751, "role": "production company", "role_id": 941, "is_primary": true}], "also_known_as": "", "date_of_birth": "", "date_of_death": "", "genders": [], "languages": [], "places_of_operation": [], "biography": "", "biography_author": null, "date_of_biography": "2023-08-11T14:48:35.337846+10:00", "external_links": [], "uuid": "5e2a5d74-e65a-4bf1-8b97-5940d64c9d09", "source": {"name": "Vernon", "slug": "vernon"}, "source_identifier": "4450", "external_references": [], "date_modified": "2025-03-14T17:56:37.411792+11:00"}]}