{"count": 28687, "next": "https://api.acmi.net.au/creators/?page=134", "previous": "https://api.acmi.net.au/creators/?page=132", "results": [{"id": 84277, "name": "Kirstie Clements", "roles_in_work": [{"id": 2080727, "title": "ACMI Presents: A Life Exposed: Robyn Beeche", "work_id": 117690, "role": "anchor/host", "role_id": 629, "is_primary": false}], "also_known_as": "", "date_of_birth": "", "date_of_death": "", "genders": [], "languages": [], "places_of_operation": [], "biography": "", "biography_author": null, "date_of_biography": "2023-05-09T11:47:46.437235+10:00", "external_links": [], "uuid": "425cedec-1095-4196-8849-ee290f08c578", "source": {"name": "Vernon", "slug": "vernon"}, "source_identifier": "38749", "external_references": [], "date_modified": "2023-06-14T16:33:30.576250+10:00"}, {"id": 84276, "name": "Robyn Beeche", "roles_in_work": [{"id": 2080718, "title": "ACMI Presents: A Life Exposed: Robyn Beeche", "work_id": 117690, "role": "interviewee", "role_id": 496, "is_primary": false}], "also_known_as": "", "date_of_birth": "", "date_of_death": "", "genders": [], "languages": [], "places_of_operation": [], "biography": "", "biography_author": null, "date_of_biography": "2023-05-09T11:47:46.175713+10:00", "external_links": [], "uuid": "d426c4bf-cd18-459a-ab50-c6aac03b4832", "source": {"name": "Vernon", "slug": "vernon"}, "source_identifier": "38748", "external_references": [], "date_modified": "2023-06-14T16:33:30.576250+10:00"}, {"id": 84275, "name": "Lesley Branagan", "roles_in_work": [{"id": 2080708, "title": "ACMI Presents: A Life Exposed: Robyn Beeche", "work_id": 117690, "role": "interviewee", "role_id": 496, "is_primary": false}], "also_known_as": "", "date_of_birth": "", "date_of_death": "", "genders": [], "languages": [], "places_of_operation": [], "biography": "", "biography_author": null, "date_of_biography": "2023-05-09T11:47:45.803304+10:00", "external_links": [], "uuid": "35d9d873-edbf-4c2c-a425-40f4ab2793b1", "source": {"name": "Vernon", "slug": "vernon"}, "source_identifier": "38747", "external_references": [], "date_modified": "2023-06-14T16:33:30.576250+10:00"}, {"id": 84274, "name": "CERES", "roles_in_work": [{"id": 2249387, "title": "Return of the Sacred Kingfisher Festival 2000", "work_id": 117689, "role": "production company", "role_id": 941, "is_primary": true}], "also_known_as": "", "date_of_birth": "", "date_of_death": "", "genders": [], "languages": [], "places_of_operation": [], "biography": "", "biography_author": null, "date_of_biography": "2023-05-09T17:08:30.792007+10:00", "external_links": [], "uuid": "2feb4507-e7ef-4d8d-b462-d9631ccf269a", "source": {"name": "Vernon", "slug": "vernon"}, "source_identifier": "38744", "external_references": [{"id": 37778, "source": {"name": "Wikidata", "slug": "wikidata"}, "source_identifier": "Q121315377"}], "date_modified": "2023-09-05T18:24:17.764501+10:00"}, {"id": 84273, "name": "Neil Mitchell", "roles_in_work": [{"id": 2094161, "title": "An Interview with Peter Clemence", "work_id": 117687, "role": "interviewer", "role_id": 457, "is_primary": false}], "also_known_as": "", "date_of_birth": "", "date_of_death": "", "genders": [], "languages": [], "places_of_operation": [], "biography": "", "biography_author": null, "date_of_biography": "2023-05-09T12:19:09.000586+10:00", "external_links": [], "uuid": "ffb52826-9c39-4fe8-8f45-8298945a8ed3", "source": {"name": "Vernon", "slug": "vernon"}, "source_identifier": "38529", "external_references": [], "date_modified": "2023-06-14T16:33:30.576250+10:00"}, {"id": 84272, "name": "Katrina Salvadore", "roles_in_work": [{"id": 2719516, "title": "Zembla", "work_id": 117686, "role": "creator", "role_id": 968, "is_primary": true}], "also_known_as": "", "date_of_birth": "", "date_of_death": "", "genders": [], "languages": [], "places_of_operation": [], "biography": "", "biography_author": null, "date_of_biography": "2023-05-09T19:58:10.932652+10:00", "external_links": [], "uuid": "8cd16f8b-ba42-4b2a-b4bd-c7716a3a68bf", "source": {"name": "Vernon", "slug": "vernon"}, "source_identifier": "38517", "external_references": [], "date_modified": "2025-03-12T07:05:37.538579+11:00"}, {"id": 84271, "name": "St Columba's College", "roles_in_work": [{"id": 2719510, "title": "Zembla", "work_id": 117686, "role": "creator", "role_id": 968, "is_primary": true}], "also_known_as": "", "date_of_birth": "", "date_of_death": "", "genders": [], "languages": [], "places_of_operation": [], "biography": "", "biography_author": null, "date_of_biography": "2023-05-09T19:58:10.699668+10:00", "external_links": [], "uuid": "0e6c1b25-7903-4eea-8342-68492c401cda", "source": {"name": "Vernon", "slug": "vernon"}, "source_identifier": "38516", "external_references": [], "date_modified": "2025-03-12T07:05:36.947049+11:00"}, {"id": 84270, "name": "Daniel Phillips", "roles_in_work": [{"id": 2719493, "title": "Thief", "work_id": 117685, "role": "creator", "role_id": 968, "is_primary": true}], "also_known_as": "", "date_of_birth": "", "date_of_death": "", "genders": [], "languages": [], "places_of_operation": [], "biography": "", "biography_author": null, "date_of_biography": "2023-05-09T19:58:12.633338+10:00", "external_links": [], "uuid": "65212504-9cd9-4698-a05b-58369c12cfb0", "source": {"name": "Vernon", "slug": "vernon"}, "source_identifier": "38515", "external_references": [], "date_modified": "2025-03-12T07:05:32.911682+11:00"}, {"id": 84269, "name": "Mackensie Young", "roles_in_work": [{"id": 2719506, "title": "When I Grow Up", "work_id": 117684, "role": "creator", "role_id": 968, "is_primary": true}], "also_known_as": "", "date_of_birth": "", "date_of_death": "", "genders": [], "languages": [], "places_of_operation": [], "biography": "", "biography_author": null, "date_of_biography": "2023-05-09T19:58:04.858738+10:00", "external_links": [], "uuid": "2efe014e-1437-4a16-8797-39a5ef6ed6ea", "source": {"name": "Vernon", "slug": "vernon"}, "source_identifier": "38514", "external_references": [], "date_modified": "2025-03-12T07:05:35.408634+11:00"}, {"id": 84268, "name": "Cabramatta Public School", "roles_in_work": [{"id": 2719399, "title": "The Genie", "work_id": 117692, "role": "creator", "role_id": 968, "is_primary": true}, {"id": 2719464, "title": "Loose Change", "work_id": 117683, "role": "creator", "role_id": 968, "is_primary": true}], "also_known_as": "", "date_of_birth": "", "date_of_death": "", "genders": [], "languages": [], "places_of_operation": [], "biography": "", "biography_author": null, "date_of_biography": "2023-05-09T19:58:11.785697+10:00", "external_links": [], "uuid": "d1807188-7ff0-47f6-8634-c893d586a00a", "source": {"name": "Vernon", "slug": "vernon"}, "source_identifier": "38513", "external_references": [], "date_modified": "2025-03-12T07:05:25.358588+11:00"}]}