{"count": 28687, "next": "https://api.acmi.net.au/creators/?page=921", "previous": "https://api.acmi.net.au/creators/?page=919", "results": [{"id": 76382, "name": "Serena Everill", "roles_in_work": [{"id": 2261054, "title": "Running out of patience", "work_id": 79011, "role": "co-director", "role_id": 959, "is_primary": true}], "also_known_as": "", "date_of_birth": "", "date_of_death": "", "genders": [], "languages": [], "places_of_operation": [], "biography": "", "biography_author": null, "date_of_biography": "2023-05-09T17:29:05.101674+10:00", "external_links": [], "uuid": "bdc2c4a0-fafb-44a9-9d14-bdccf9df2e6f", "source": {"name": "Vernon", "slug": "vernon"}, "source_identifier": "28679", "external_references": [{"id": 39956, "source": {"name": "Wikidata", "slug": "wikidata"}, "source_identifier": "Q121270600"}], "date_modified": "2023-09-06T01:10:37.530408+10:00"}, {"id": 76381, "name": "Jasmine Hirst", "roles_in_work": [{"id": 2291071, "title": "With inertia", "work_id": 79009, "role": "co-director", "role_id": 959, "is_primary": true}], "also_known_as": "", "date_of_birth": "", "date_of_death": "", "genders": [], "languages": [], "places_of_operation": [], "biography": "", "biography_author": null, "date_of_biography": "2023-05-09T18:19:23.815572+10:00", "external_links": [], "uuid": "1e121432-9293-41ea-88e2-00584d0c9a2a", "source": {"name": "Vernon", "slug": "vernon"}, "source_identifier": "21488", "external_references": [{"id": 34626, "source": {"name": "Wikidata", "slug": "wikidata"}, "source_identifier": "Q121143730"}], "date_modified": "2023-09-05T21:09:24.032445+10:00"}, {"id": 76380, "name": "Skills Education Australia", "roles_in_work": [{"id": 2766703, "title": "Oxy Acetylene Welding", "work_id": 78997, "role": "producer/director", "role_id": 31, "is_primary": true}], "also_known_as": "", "date_of_birth": "", "date_of_death": "", "genders": [], "languages": [], "places_of_operation": [], "biography": "", "biography_author": null, "date_of_biography": "2023-05-09T14:58:38.384674+10:00", "external_links": [], "uuid": "be2db16c-24e4-4c00-aa86-8cf24d21b993", "source": {"name": "Vernon", "slug": "vernon"}, "source_identifier": "12627", "external_references": [{"id": 52187, "source": {"name": "Wikidata", "slug": "wikidata"}, "source_identifier": "Q121361041"}], "date_modified": "2025-03-14T17:59:51.575556+11:00"}, {"id": 76379, "name": "Skills Education Production", "roles_in_work": [{"id": 2766701, "title": "Oxy Acetylene Cutting", "work_id": 78996, "role": "producer/director", "role_id": 31, "is_primary": true}], "also_known_as": "", "date_of_birth": "", "date_of_death": "", "genders": [], "languages": [], "places_of_operation": [], "biography": "", "biography_author": null, "date_of_biography": "2023-05-09T14:58:38.887835+10:00", "external_links": [], "uuid": "7eb0d07e-5940-47a9-a089-9f080d405cf3", "source": {"name": "Vernon", "slug": "vernon"}, "source_identifier": "12628", "external_references": [{"id": 50769, "source": {"name": "Wikidata", "slug": "wikidata"}, "source_identifier": "Q121361239"}], "date_modified": "2025-03-14T17:59:50.784392+11:00"}, {"id": 76378, "name": "Carol Kostanich", "roles_in_work": [{"id": 2392601, "title": "Mum's the word", "work_id": 78994, "role": "producer/director", "role_id": 31, "is_primary": true}], "also_known_as": "", "date_of_birth": "", "date_of_death": "", "genders": [], "languages": [], "places_of_operation": [], "biography": "", "biography_author": null, "date_of_biography": "2023-08-09T03:58:13.995401+10:00", "external_links": [], "uuid": "5c41f54a-e9b4-41c5-830d-f60875b624f2", "source": {"name": "Vernon", "slug": "vernon"}, "source_identifier": "16521", "external_references": [{"id": 51578, "source": {"name": "Wikidata", "slug": "wikidata"}, "source_identifier": "Q121360782"}], "date_modified": "2023-09-05T18:20:15.197481+10:00"}, {"id": 76377, "name": "Hugh Davison", "roles_in_work": [{"id": 2261162, "title": "Play", "work_id": 78936, "role": "director", "role_id": 938, "is_primary": true}, {"id": 2767520, "title": "Die Fledermaus", "work_id": 83082, "role": "co-director", "role_id": 959, "is_primary": true}], "also_known_as": "", "date_of_birth": "", "date_of_death": "", "genders": [], "languages": [], "places_of_operation": [], "biography": "", "biography_author": null, "date_of_biography": "2023-05-09T17:29:13.633317+10:00", "external_links": [], "uuid": "9c38ab5b-ecaf-4615-bfbf-2888ede2ad48", "source": {"name": "Vernon", "slug": "vernon"}, "source_identifier": "20673", "external_references": [], "date_modified": "2025-03-14T18:04:44.898118+11:00"}, {"id": 76376, "name": "Tim Parsons", "roles_in_work": [{"id": 2648342, "title": "On the Right Track", "work_id": 78883, "role": "co-director", "role_id": 959, "is_primary": true}], "also_known_as": "", "date_of_birth": "", "date_of_death": "", "genders": [], "languages": [], "places_of_operation": [], "biography": "", "biography_author": null, "date_of_biography": "2023-05-09T14:00:32.480300+10:00", "external_links": [], "uuid": "8a00a62b-9939-4c57-bb6c-cee2f0dd10cf", "source": {"name": "Vernon", "slug": "vernon"}, "source_identifier": "29750", "external_references": [{"id": 40949, "source": {"name": "Wikidata", "slug": "wikidata"}, "source_identifier": "Q121144241"}], "date_modified": "2025-03-05T13:42:34.107263+11:00"}, {"id": 76375, "name": "John Bowring", "roles_in_work": [{"id": 2648341, "title": "On the Right Track", "work_id": 78883, "role": "co-director", "role_id": 959, "is_primary": true}], "also_known_as": "", "date_of_birth": "", "date_of_death": "", "genders": [], "languages": [], "places_of_operation": [], "biography": "", "biography_author": null, "date_of_biography": "2023-05-09T14:00:32.252285+10:00", "external_links": [], "uuid": "dc5c5cad-ec05-4d3b-bbde-e47444a791be", "source": {"name": "Vernon", "slug": "vernon"}, "source_identifier": "22144", "external_references": [{"id": 36105, "source": {"name": "Wikidata", "slug": "wikidata"}, "source_identifier": "Q121036629"}], "date_modified": "2025-03-05T13:42:33.533604+11:00"}, {"id": 76374, "name": "Kris Paterson", "roles_in_work": [{"id": 2208667, "title": "Pleasure faire", "work_id": 78874, "role": "director", "role_id": 938, "is_primary": true}], "also_known_as": "", "date_of_birth": "", "date_of_death": "", "genders": [], "languages": [], "places_of_operation": [], "biography": "", "biography_author": null, "date_of_biography": "2023-05-09T15:40:35.597198+10:00", "external_links": [], "uuid": "3afb8cab-c111-47d1-bda5-b261ef4db0a4", "source": {"name": "Vernon", "slug": "vernon"}, "source_identifier": "23401", "external_references": [{"id": 35600, "source": {"name": "Wikidata", "slug": "wikidata"}, "source_identifier": "Q121223512"}], "date_modified": "2023-09-05T22:12:05.146176+10:00"}, {"id": 76373, "name": "Mark Dolgoy", "roles_in_work": [{"id": 2232055, "title": "Priory, the only home I've got", "work_id": 78872, "role": "director", "role_id": 938, "is_primary": true}], "also_known_as": "", "date_of_birth": "", "date_of_death": "", "genders": [], "languages": [], "places_of_operation": [], "biography": "", "biography_author": null, "date_of_biography": "2023-05-09T16:38:58.407932+10:00", "external_links": [], "uuid": "58d92b1a-57db-4f03-8ba7-a869a1cb29dc", "source": {"name": "Vernon", "slug": "vernon"}, "source_identifier": "24482", "external_references": [{"id": 33370, "source": {"name": "Wikidata", "slug": "wikidata"}, "source_identifier": "Q121079225"}], "date_modified": "2023-09-05T22:45:29.759528+10:00"}]}