{"count": 28687, "next": "https://api.acmi.net.au/creators/?page=949", "previous": "https://api.acmi.net.au/creators/?page=947", "results": [{"id": 76102, "name": "Bill Schmalz", "roles_in_work": [{"id": 2109117, "title": "Bears and man", "work_id": 77850, "role": "director", "role_id": 938, "is_primary": true}, {"id": 2749476, "title": "Bighorn: Rocky Mountain bighorn sheep, Banff and Jasper National Parks", "work_id": 96823, "role": "director", "role_id": 938, "is_primary": true}], "also_known_as": "", "date_of_birth": "", "date_of_death": "", "genders": [], "languages": [], "places_of_operation": [], "biography": "", "biography_author": null, "date_of_biography": "2023-05-09T12:52:59.942755+10:00", "external_links": [], "uuid": "206d179f-500f-4098-8ac0-ce152f30bbc7", "source": {"name": "Vernon", "slug": "vernon"}, "source_identifier": "16002", "external_references": [{"id": 40241, "source": {"name": "Wikidata", "slug": "wikidata"}, "source_identifier": "Q121223586"}], "date_modified": "2025-03-13T00:00:55.759697+11:00"}, {"id": 76101, "name": "Wild Cine Productions", "roles_in_work": [{"id": 2109115, "title": "Bears and man", "work_id": 77850, "role": "production company", "role_id": 941, "is_primary": true}], "also_known_as": "", "date_of_birth": "", "date_of_death": "", "genders": [], "languages": [], "places_of_operation": [], "biography": "", "biography_author": null, "date_of_biography": "2023-05-09T12:43:11.972199+10:00", "external_links": [], "uuid": "edf959f5-1e38-4f54-99c0-59e65f215d0a", "source": {"name": "Vernon", "slug": "vernon"}, "source_identifier": "14358", "external_references": [{"id": 37779, "source": {"name": "Wikidata", "slug": "wikidata"}, "source_identifier": "Q121271238"}], "date_modified": "2023-09-06T02:13:41.867706+10:00"}, {"id": 76100, "name": "Willie Dunn", "roles_in_work": [{"id": 2107261, "title": "Ballad to Crowfoot", "work_id": 77849, "role": "director", "role_id": 938, "is_primary": true}], "also_known_as": "", "date_of_birth": "", "date_of_death": "", "genders": [], "languages": [], "places_of_operation": [], "biography": "", "biography_author": null, "date_of_biography": "2023-05-09T12:40:28.329447+10:00", "external_links": [], "uuid": "7d99f489-2cb0-47d5-b3c4-45607bcf8329", "source": {"name": "Vernon", "slug": "vernon"}, "source_identifier": "30513", "external_references": [{"id": 35106, "source": {"name": "Wikidata", "slug": "wikidata"}, "source_identifier": "Q121034845"}], "date_modified": "2023-09-06T02:18:36.034057+10:00"}, {"id": 76099, "name": "Peter Vincent Douglas", "roles_in_work": [{"id": 2305812, "title": "Something wicked this way comes", "work_id": 77846, "role": "producer", "role_id": 1089, "is_primary": true}], "also_known_as": "", "date_of_birth": "", "date_of_death": "", "genders": [], "languages": [], "places_of_operation": [], "biography": "", "biography_author": null, "date_of_biography": "2023-05-09T18:44:44.687894+10:00", "external_links": [], "uuid": "2186acbe-5053-487e-b608-5640598c2098", "source": {"name": "Vernon", "slug": "vernon"}, "source_identifier": "26736", "external_references": [{"id": 38153, "source": {"name": "Wikidata", "slug": "wikidata"}, "source_identifier": "Q121271372"}], "date_modified": "2023-09-06T00:02:04.737252+10:00"}, {"id": 76098, "name": "Joansie Salamonie", "roles_in_work": [{"id": 2097182, "title": "Animation from Cape Dorset", "work_id": 77843, "role": "co-producer", "role_id": 915, "is_primary": true}], "also_known_as": "", "date_of_birth": "", "date_of_death": "", "genders": [], "languages": [], "places_of_operation": [], "biography": "", "biography_author": null, "date_of_biography": "2023-05-09T12:25:43.261968+10:00", "external_links": [], "uuid": "f4d1c84f-b07a-45bb-ad50-e47f1656aa78", "source": {"name": "Vernon", "slug": "vernon"}, "source_identifier": "22010", "external_references": [{"id": 38005, "source": {"name": "Wikidata", "slug": "wikidata"}, "source_identifier": "Q121299093"}], "date_modified": "2023-09-05T21:28:57.913207+10:00"}, {"id": 76097, "name": "Sikusilarmiut", "roles_in_work": [{"id": 2097179, "title": "Animation from Cape Dorset", "work_id": 77843, "role": "production company", "role_id": 941, "is_primary": true}], "also_known_as": "", "date_of_birth": "", "date_of_death": "", "genders": [], "languages": [], "places_of_operation": [], "biography": "", "biography_author": null, "date_of_biography": "2023-05-09T12:25:43.030882+10:00", "external_links": [], "uuid": "3e3c79a1-a128-4a95-8162-10e12d3cc11d", "source": {"name": "Vernon", "slug": "vernon"}, "source_identifier": "12586", "external_references": [{"id": 39580, "source": {"name": "Wikidata", "slug": "wikidata"}, "source_identifier": "Q121126697"}], "date_modified": "2023-09-06T01:19:30.978426+10:00"}, {"id": 76096, "name": "Steve Lucas", "roles_in_work": [{"id": 2082903, "title": "After the axe", "work_id": 77842, "role": "co-producer", "role_id": 915, "is_primary": true}], "also_known_as": "", "date_of_birth": "1952-02-24", "date_of_death": "", "genders": [{"id": 9, "name": "Male", "slug": "male"}], "languages": [], "places_of_operation": [], "biography": "Lieutenant-General James Steven Lucas, CMM, CD (born 24 February 1952) is a retired Canadian air force general who was Chief of the Air Staff in Canada from 2005 to 2007.", "biography_author": "Wikidata", "date_of_biography": "2023-08-01T17:11:14.472624+10:00", "external_links": [{"id": 3152, "uri": "https://en.wikipedia.org/wiki/Steve_Lucas"}], "uuid": "8fdef329-6368-46e8-99aa-9610f5465d5f", "source": {"name": "Vernon", "slug": "vernon"}, "source_identifier": "29147", "external_references": [{"id": 13365, "source": {"name": "Wikidata", "slug": "wikidata"}, "source_identifier": "Q7613194"}, {"id": 13366, "source": {"name": "VIAF", "slug": "viaf"}, "source_identifier": "121997021"}, {"id": 13367, "source": {"name": "WorldCat", "slug": "worldcat"}, "source_identifier": "viaf-121997021"}], "date_modified": "2023-09-06T01:31:22.138419+10:00"}, {"id": 76095, "name": "Ontario Regional Productions", "roles_in_work": [{"id": 2082901, "title": "After the axe", "work_id": 77842, "role": "production company", "role_id": 941, "is_primary": true}], "also_known_as": "", "date_of_birth": "", "date_of_death": "", "genders": [], "languages": [], "places_of_operation": [], "biography": "", "biography_author": null, "date_of_biography": "2023-05-09T11:52:22.148090+10:00", "external_links": [], "uuid": "bc6938a8-03fd-4715-afd9-25c3978b2bec", "source": {"name": "Vernon", "slug": "vernon"}, "source_identifier": "11141", "external_references": [{"id": 43579, "source": {"name": "Wikidata", "slug": "wikidata"}, "source_identifier": "Q121271447"}], "date_modified": "2023-09-05T23:37:13.278985+10:00"}, {"id": 76094, "name": "Janet Evans", "roles_in_work": [{"id": 2098993, "title": "Architecture in Canada", "work_id": 77826, "role": "producer/director", "role_id": 31, "is_primary": true}], "also_known_as": "", "date_of_birth": "", "date_of_death": "", "genders": [], "languages": [], "places_of_operation": [], "biography": "", "biography_author": null, "date_of_biography": "2023-05-09T12:28:11.602693+10:00", "external_links": [], "uuid": "77eecb60-ea43-4d9b-9330-fb388616785f", "source": {"name": "Vernon", "slug": "vernon"}, "source_identifier": "21438", "external_references": [{"id": 51991, "source": {"name": "Wikidata", "slug": "wikidata"}, "source_identifier": "Q121361131"}], "date_modified": "2023-09-05T21:08:24.915992+10:00"}, {"id": 76093, "name": "William Hoke", "roles_in_work": [{"id": 2412375, "title": "Interruptions", "work_id": 77815, "role": "co-producer", "role_id": 915, "is_primary": true}], "also_known_as": "", "date_of_birth": "", "date_of_death": "", "genders": [], "languages": [], "places_of_operation": [], "biography": "", "biography_author": null, "date_of_biography": "2023-08-11T18:37:40.278454+10:00", "external_links": [], "uuid": "079d60e5-d2b7-4d53-aa97-890a41cbcd5d", "source": {"name": "Vernon", "slug": "vernon"}, "source_identifier": "30449", "external_references": [{"id": 37789, "source": {"name": "Wikidata", "slug": "wikidata"}, "source_identifier": "Q121223443"}], "date_modified": "2023-09-06T02:16:27.045407+10:00"}]}