{"count": 28687, "next": "https://api.acmi.net.au/creators/?page=436", "previous": "https://api.acmi.net.au/creators/?page=434", "results": [{"id": 81233, "name": "Peter Herrmann", "roles_in_work": [{"id": 2475023, "title": "Nowhere in Africa = Nirgendwo in Afrika", "work_id": 95159, "role": "producer", "role_id": 1089, "is_primary": true}], "also_known_as": "", "date_of_birth": "1954-12-27", "date_of_death": "", "genders": [{"id": 9, "name": "Male", "slug": "male"}], "languages": [{"id": 5, "name": "German", "slug": "german"}], "places_of_operation": [{"id": 18, "name": "Germany", "slug": "germany"}], "biography": "", "biography_author": null, "date_of_biography": "2023-08-17T15:03:06.142373+10:00", "external_links": [], "uuid": "b7fd78e0-4b9f-4e32-9260-36f0868f9735", "source": {"name": "Vernon", "slug": "vernon"}, "source_identifier": "26575", "external_references": [{"id": 12141, "source": {"name": "Wikidata", "slug": "wikidata"}, "source_identifier": "Q1712414"}, {"id": 12142, "source": {"name": "VIAF", "slug": "viaf"}, "source_identifier": "63820011"}, {"id": 12143, "source": {"name": "LOC Auth", "slug": "loc-auth"}, "source_identifier": "no2008081524"}, {"id": 12144, "source": {"name": "WorldCat", "slug": "worldcat"}, "source_identifier": "lccn-no2008081524"}], "date_modified": "2023-09-05T23:57:45.135099+10:00"}, {"id": 81232, "name": "MC One Productions", "roles_in_work": [{"id": 2475022, "title": "Nowhere in Africa = Nirgendwo in Afrika", "work_id": 95159, "role": "production company", "role_id": 941, "is_primary": true}], "also_known_as": "", "date_of_birth": "", "date_of_death": "", "genders": [], "languages": [], "places_of_operation": [], "biography": "", "biography_author": null, "date_of_biography": "2023-08-17T15:03:05.525732+10:00", "external_links": [], "uuid": "0fef1a5f-e722-4d10-9754-f9e76acf476f", "source": {"name": "Vernon", "slug": "vernon"}, "source_identifier": "10391", "external_references": [{"id": 36721, "source": {"name": "Wikidata", "slug": "wikidata"}, "source_identifier": "Q121270843"}], "date_modified": "2023-09-05T22:58:20.702076+10:00"}, {"id": 81231, "name": "John Dower", "roles_in_work": [{"id": 930490, "title": "Live forever", "work_id": 95154, "role": "director", "role_id": 938, "is_primary": true}], "also_known_as": "", "date_of_birth": null, "date_of_death": null, "genders": [{"id": 9, "name": "Male", "slug": "male"}], "languages": [{"id": 1, "name": "English", "slug": "english"}], "places_of_operation": [{"id": 10, "name": "United Kingdom", "slug": "united-kingdom"}], "biography": "", "biography_author": null, "date_of_biography": null, "external_links": [], "uuid": "299de3c0-63fe-45f4-9c0f-ae80701b5e5c", "source": {"name": "Vernon", "slug": "vernon"}, "source_identifier": null, "external_references": [{"id": 32379, "source": {"name": "Wikidata", "slug": "wikidata"}, "source_identifier": "Q76195716"}], "date_modified": "2023-09-05T21:35:06.662534+10:00"}, {"id": 81230, "name": "John Battsek", "roles_in_work": [{"id": 1808362, "title": "Live forever", "work_id": 95154, "role": "producer", "role_id": 1089, "is_primary": true}], "also_known_as": "", "date_of_birth": null, "date_of_death": null, "genders": [{"id": 9, "name": "Male", "slug": "male"}], "languages": [], "places_of_operation": [], "biography": "John Saul Adrian Battsek (born September 1963) is a British film producer of documentary films. In 2020, Battsek co-founded production company Ventureland with producers Kerstin Emhoff, Ali Brown, and director Paul Hunter.He has produced a number of feature documentaries, including One Day in September and Searching for Sugar Man, both winners of the Academy Award for Best Documentary Feature Film.", "biography_author": "Wikidata", "date_of_biography": "2023-09-05T21:32:24.509839+10:00", "external_links": [{"id": 5918, "uri": "https://en.wikipedia.org/wiki/John_Battsek"}], "uuid": "22f9d128-820b-4d5a-b9a4-dfa136172ef5", "source": {"name": "Vernon", "slug": "vernon"}, "source_identifier": null, "external_references": [{"id": 34031, "source": {"name": "Wikidata", "slug": "wikidata"}, "source_identifier": "Q6221119"}, {"id": 54859, "source": {"name": "VIAF", "slug": "viaf"}, "source_identifier": "11971057"}], "date_modified": "2023-09-05T21:32:31.952618+10:00"}, {"id": 81229, "name": "Horsebridge Productions", "roles_in_work": [{"id": 930487, "title": "Live forever", "work_id": 95154, "role": "production company", "role_id": 941, "is_primary": true}], "also_known_as": "", "date_of_birth": null, "date_of_death": null, "genders": [], "languages": [], "places_of_operation": [], "biography": "", "biography_author": null, "date_of_biography": null, "external_links": [], "uuid": "65959f28-a014-4b46-9a13-c418a1c2402d", "source": {"name": "Vernon", "slug": "vernon"}, "source_identifier": null, "external_references": [{"id": 35139, "source": {"name": "Wikidata", "slug": "wikidata"}, "source_identifier": "Q121337288"}], "date_modified": "2023-09-05T20:41:04.494362+10:00"}, {"id": 81228, "name": "Felix Williamson", "roles_in_work": [{"id": 2315171, "title": "Strange planet", "work_id": 95153, "role": "cast", "role_id": 33, "is_primary": false}], "also_known_as": "", "date_of_birth": "1901-01-01", "date_of_death": "", "genders": [{"id": 9, "name": "Male", "slug": "male"}], "languages": [], "places_of_operation": [{"id": 3, "name": "Australia", "slug": "australia"}], "biography": "Felix Williamson (born 29 May 1969) is an Australian actor.", "biography_author": "Wikidata", "date_of_biography": "2023-08-01T14:49:18.726811+10:00", "external_links": [{"id": 3967, "uri": "https://en.wikipedia.org/wiki/Felix_Williamson"}], "uuid": "8b763835-aa80-4fe2-ad0e-6efb8bab18d5", "source": {"name": "Vernon", "slug": "vernon"}, "source_identifier": "35103", "external_references": [{"id": 25535, "source": {"name": "Wikidata", "slug": "wikidata"}, "source_identifier": "Q5442364"}], "date_modified": "2023-09-05T19:41:27.289949+10:00"}, {"id": 81227, "name": "Naomi Watts", "roles_in_work": [{"id": 2315163, "title": "Strange planet", "work_id": 95153, "role": "cast", "role_id": 33, "is_primary": false}], "also_known_as": "Naomi Ellen Watts", "date_of_birth": "1968-09-28", "date_of_death": "", "genders": [{"id": 5, "name": "Female", "slug": "female"}], "languages": [{"id": 1, "name": "English", "slug": "english"}], "places_of_operation": [{"id": 10, "name": "United Kingdom", "slug": "united-kingdom"}], "biography": "Naomi Ellen Watts (born 28 September 1968) is a British actress. After her family moved to Australia, she made her film debut there in the drama For Love Alone (1986) and then appeared in three television series, Hey Dad..! (1990), Brides of Christ (1991), and Home and Away (1991), and the film Flirting (1991). After moving to the United States, Watts initially struggled as an actress, taking roles in small-scale films until she starred in David Lynch's psychological thriller Mulholland Drive in 2001 as an aspiring actress. The role began her rise to international prominence.\nWatts then played a tormented journalist in the horror remake The Ring (2002). She was nominated for the Academy Award for Best Actress for her performance as a grief-stricken mother in Alejandro González Iñárritu's film 21 Grams (2003). Her popularity continued to rise with starring roles in I Heart Huckabees (2004), King Kong (2005), Eastern Promises (2007), and The International (2009).\nFor her role as Maria Bennett in the disaster film The Impossible (2012), Watts received another Academy Award nomination for Best Actress. In the 2010s, she starred in films including Birdman (2014), St. Vincent (2014), While We're Young (2015), The Glass Castle (2017), and Luce (2019). Watts also continued to act in blockbusters, with appearances in the Divergent franchise (2015–2016), and she ventured into television with the Showtime mystery drama series Twin Peaks (2017) and the biographical limited series The Loudest Voice (2019).\nWatts is particularly known for her work in remakes and independent productions with dark or tragic themes, as well as portrayals of characters that endure loss or suffering. Magazines such as People and Maxim have included her on their lists of the world's most beautiful women. She has been an ambassador for the Joint United Nations Programme on HIV/AIDS and Pantene's Beautiful Lengths. Despite receiving significant media attention, Watts is reticent about discussing her personal life. From 2005 to 2016, she was in a relationship with American actor Liev Schreiber, with whom she has two sons. In June 2023, she married American actor Billy Crudup.", "biography_author": "Wikidata", "date_of_biography": "2023-08-01T16:21:40.272719+10:00", "external_links": [{"id": 4761, "uri": "https://en.wikipedia.org/wiki/Naomi_Watts"}], "uuid": "e7358e36-7ca1-4a9f-8cbe-d725b77582e2", "source": {"name": "Vernon", "slug": "vernon"}, "source_identifier": "35101", "external_references": [{"id": 25170, "source": {"name": "Wikidata", "slug": "wikidata"}, "source_identifier": "Q132616"}, {"id": 30485, "source": {"name": "VIAF", "slug": "viaf"}, "source_identifier": "45491348"}, {"id": 30486, "source": {"name": "LOC Auth", "slug": "loc-auth"}, "source_identifier": "no2003036183"}, {"id": 30487, "source": {"name": "WorldCat", "slug": "worldcat"}, "source_identifier": "lccn-no2003036183"}], "date_modified": "2023-09-05T23:25:11.575106+10:00"}, {"id": 81226, "name": "Anastasia Sideris", "roles_in_work": [{"id": 2315146, "title": "Strange planet", "work_id": 95153, "role": "co-producer", "role_id": 915, "is_primary": true}], "also_known_as": "", "date_of_birth": "", "date_of_death": "", "genders": [], "languages": [], "places_of_operation": [], "biography": "", "biography_author": null, "date_of_biography": "2023-05-09T19:03:03.726322+10:00", "external_links": [], "uuid": "8dd2e276-5123-40ef-876a-9eed3f476a19", "source": {"name": "Vernon", "slug": "vernon"}, "source_identifier": "15085", "external_references": [{"id": 41831, "source": {"name": "Wikidata", "slug": "wikidata"}, "source_identifier": "Q121091263"}], "date_modified": "2023-09-05T17:32:56.590567+10:00"}, {"id": 81225, "name": "Donovan", "roles_in_work": [{"id": 2000682, "title": "The Party's over = The Last party 2000", "work_id": 95151, "role": "co-director", "role_id": 959, "is_primary": true}], "also_known_as": "", "date_of_birth": null, "date_of_death": null, "genders": [], "languages": [], "places_of_operation": [], "biography": "", "biography_author": null, "date_of_biography": null, "external_links": [], "uuid": "c38822ac-4caa-4dc3-8216-60a14b517c54", "source": {"name": "Vernon", "slug": "vernon"}, "source_identifier": null, "external_references": [], "date_modified": "2023-06-14T16:33:30.576250+10:00"}, {"id": 81224, "name": "Stanley F Buchthal", "roles_in_work": [{"id": 2000680, "title": "The Party's over = The Last party 2000", "work_id": 95151, "role": "co-producer", "role_id": 915, "is_primary": true}], "also_known_as": "", "date_of_birth": null, "date_of_death": null, "genders": [], "languages": [], "places_of_operation": [], "biography": "", "biography_author": null, "date_of_biography": null, "external_links": [], "uuid": "5d0e054a-8346-4547-bd1f-6175de4a54be", "source": {"name": "Vernon", "slug": "vernon"}, "source_identifier": null, "external_references": [{"id": 35014, "source": {"name": "Wikidata", "slug": "wikidata"}, "source_identifier": "Q121315556"}], "date_modified": "2023-09-06T01:26:43.286207+10:00"}]}