{"count": 28687, "next": "https://api.acmi.net.au/creators/?page=2090", "previous": "https://api.acmi.net.au/creators/?page=2088", "results": [{"id": 20751, "name": "Harold Lloyd", "roles_in_work": [{"id": 2764627, "title": "Never weaken; Why worry?", "work_id": 77992, "role": "cast", "role_id": 33, "is_primary": false}, {"id": 2764618, "title": "The Freshman", "work_id": 77776, "role": "cast", "role_id": 33, "is_primary": false}, {"id": 1815775, "title": "Harold Lloyd's world of comedy", "work_id": 97505, "role": "producer", "role_id": 1089, "is_primary": true}, {"id": 1998913, "title": "Movie crazy", "work_id": 94157, "role": "producer", "role_id": 1089, "is_primary": true}], "also_known_as": "Harold Clayton Lloyd", "date_of_birth": "1893-04-20", "date_of_death": "1971-03-08", "genders": [{"id": 9, "name": "Male", "slug": "male"}], "languages": [{"id": 1, "name": "English", "slug": "english"}], "places_of_operation": [{"id": 1, "name": "United States of America", "slug": "united-states-of-america"}], "biography": "Harold Clayton Lloyd Sr. (April 20, 1893 – March 8, 1971) was an American actor, comedian, and stunt performer who appeared in many silent comedy films.Considered one of the most influential film comedians of the silent film era, Lloyd made nearly 200 comedy films, both silent and \"talkies\", between 1914 and 1947. His bespectacled\r\n\"Glasses\" character was a resourceful, ambitious go-getter who matched the zeitgeist of the 1920s-era United States.\r\nHis films frequently contained \"thrill sequences\" of extended chase scenes and daredevil physical feats. Lloyd hanging from the hands of a clock high above the street (in reality a trick shot) in Safety Last! (1923) is considered one of the most enduring images in all of cinema. Lloyd performed the lesser stunts himself, despite having injured himself in August 1919 while doing publicity pictures for the Roach studio. An accident with a bomb mistaken as a prop resulted in the loss of the thumb and index finger of his right hand (the injury was disguised on future films with the use of a special prosthetic glove, and was almost undetectable on the screen).", "biography_author": "Wikidata", "date_of_biography": "2022-05-19T11:42:07+10:00", "external_links": [{"id": 2194, "uri": "https://en.wikipedia.org/wiki/Harold_Lloyd"}], "uuid": "ff1e225f-ae10-4835-adc6-43273f43b187", "source": {"name": "Vernon", "slug": "vernon"}, "source_identifier": "20274", "external_references": [{"id": 9439, "source": {"name": "Wikidata", "slug": "wikidata"}, "source_identifier": "Q104340"}, {"id": 9440, "source": {"name": "VIAF", "slug": "viaf"}, "source_identifier": "17347452"}, {"id": 9441, "source": {"name": "LOC Auth", "slug": "loc-auth"}, "source_identifier": "n50050609"}, {"id": 9442, "source": {"name": "WorldCat", "slug": "worldcat"}, "source_identifier": "lccn-n50050609"}], "date_modified": "2023-09-13T13:15:10.469430+10:00"}, {"id": 20749, "name": "Business Council for International Understanding", "roles_in_work": [{"id": 2406411, "title": "Doing business in Japan", "work_id": 77775, "role": "production company", "role_id": 941, "is_primary": true}], "also_known_as": "", "date_of_birth": "", "date_of_death": "", "genders": [], "languages": [], "places_of_operation": [], "biography": "", "biography_author": null, "date_of_biography": "2023-08-11T16:13:03.360038+10:00", "external_links": [], "uuid": "958c1d48-6f80-4a4e-abad-dd9a0b91a28a", "source": {"name": "Vernon", "slug": "vernon"}, "source_identifier": "6143", "external_references": [], "date_modified": "2023-08-11T16:13:03.360332+10:00"}, {"id": 20745, "name": "John Huckert", "roles_in_work": [{"id": 2219562, "title": "Ernie and Rose", "work_id": 77773, "role": "director", "role_id": 938, "is_primary": true}, {"id": 2219554, "title": "Ernie and Rose", "work_id": 77773, "role": "co-producer", "role_id": 915, "is_primary": true}], "also_known_as": "", "date_of_birth": "", "date_of_death": "", "genders": [], "languages": [], "places_of_operation": [], "biography": "", "biography_author": null, "date_of_biography": "2023-05-09T16:14:24.127156+10:00", "external_links": [], "uuid": "72f280ec-fbe3-4b8c-923d-5c7c64820525", "source": {"name": "Vernon", "slug": "vernon"}, "source_identifier": "22326", "external_references": [{"id": 34722, "source": {"name": "Wikidata", "slug": "wikidata"}, "source_identifier": "Q121222533"}], "date_modified": "2023-09-05T21:39:19.926250+10:00"}, {"id": 20744, "name": "Huckert-Maruca Productions", "roles_in_work": [{"id": 2219552, "title": "Ernie and Rose", "work_id": 77773, "role": "production company", "role_id": 941, "is_primary": true}], "also_known_as": "", "date_of_birth": "", "date_of_death": "", "genders": [], "languages": [], "places_of_operation": [], "biography": "", "biography_author": null, "date_of_biography": "2023-05-09T16:14:23.069936+10:00", "external_links": [], "uuid": "689e0bc8-fa84-4078-97d9-254f319638a6", "source": {"name": "Vernon", "slug": "vernon"}, "source_identifier": "9178", "external_references": [{"id": 33943, "source": {"name": "Wikidata", "slug": "wikidata"}, "source_identifier": "Q121337464"}], "date_modified": "2023-09-05T20:43:16.523771+10:00"}, {"id": 20741, "name": "Edward King", "roles_in_work": [{"id": 801109, "title": "Interregnum", "work_id": 88882, "role": "director", "role_id": 938, "is_primary": true}, {"id": 2469610, "title": "Urban Challenge", "work_id": 77767, "role": "co-producer", "role_id": 915, "is_primary": true}, {"id": 2753685, "title": "Deciding a future", "work_id": 98881, "role": "co-producer", "role_id": 915, "is_primary": true}, {"id": 2753694, "title": "The Urban challenge: learning a living", "work_id": 98888, "role": "co-producer", "role_id": 915, "is_primary": true}], "also_known_as": "", "date_of_birth": "", "date_of_death": "", "genders": [], "languages": [], "places_of_operation": [], "biography": "", "biography_author": null, "date_of_biography": "2023-08-14T12:05:02.859028+10:00", "external_links": [], "uuid": "a3bfef7c-e841-457e-a0b5-128d06bd6d47", "source": {"name": "Vernon", "slug": "vernon"}, "source_identifier": "18604", "external_references": [], "date_modified": "2025-03-13T01:30:55.638729+11:00"}, {"id": 20740, "name": "William Hetzer", "roles_in_work": [{"id": 2753693, "title": "The Urban challenge: learning a living", "work_id": 98888, "role": "co-producer", "role_id": 915, "is_primary": true}, {"id": 2753684, "title": "Deciding a future", "work_id": 98881, "role": "co-producer", "role_id": 915, "is_primary": true}, {"id": 2469609, "title": "Urban Challenge", "work_id": 77767, "role": "co-producer", "role_id": 915, "is_primary": true}, {"id": 2753689, "title": "Strategy for growth", "work_id": 98886, "role": "producer", "role_id": 1089, "is_primary": true}, {"id": 2753682, "title": "Child's horizon", "work_id": 98880, "role": "producer", "role_id": 1089, "is_primary": true}], "also_known_as": "", "date_of_birth": "", "date_of_death": "", "genders": [], "languages": [], "places_of_operation": [], "biography": "", "biography_author": null, "date_of_biography": "2023-08-14T12:05:02.168313+10:00", "external_links": [], "uuid": "c0ee6d7b-761b-4d98-afc8-770f79024a3d", "source": {"name": "Vernon", "slug": "vernon"}, "source_identifier": "30448", "external_references": [], "date_modified": "2025-03-13T01:30:55.052389+11:00"}, {"id": 20738, "name": "Jeremy Hogarth", "roles_in_work": [{"id": 2757017, "title": "The Billings method", "work_id": 77764, "role": "co-director", "role_id": 959, "is_primary": true}, {"id": 2615155, "title": "Spirits of the forest; Year of the Gagadju", "work_id": 84908, "role": "co-producer", "role_id": 915, "is_primary": true}, {"id": 1812075, "title": "Kimberley: land of the Wandjina", "work_id": 89275, "role": "producer", "role_id": 1089, "is_primary": true}, {"id": 1932456, "title": "The Kimberley: land of the Wandjina [DVD]", "work_id": 94921, "role": "producer", "role_id": 1089, "is_primary": true}, {"id": 2614427, "title": "The Big wet", "work_id": 83652, "role": "producer/director", "role_id": 31, "is_primary": true}], "also_known_as": "", "date_of_birth": "", "date_of_death": "", "genders": [], "languages": [], "places_of_operation": [], "biography": "", "biography_author": null, "date_of_biography": "2023-05-09T19:27:02.512818+10:00", "external_links": [], "uuid": "d0586caf-a243-4b17-a017-a89739793fcf", "source": {"name": "Vernon", "slug": "vernon"}, "source_identifier": "21743", "external_references": [{"id": 34889, "source": {"name": "Wikidata", "slug": "wikidata"}, "source_identifier": "Q121299531"}], "date_modified": "2025-03-13T14:42:45.985949+11:00"}, {"id": 20736, "name": "Dirk de Bruyn", "roles_in_work": [{"id": 2415089, "title": "Light play", "work_id": 77962, "role": "producer", "role_id": 1089, "is_primary": true}, {"id": 2406296, "title": "Discs", "work_id": 77762, "role": "producer/director", "role_id": 31, "is_primary": true}, {"id": 864144, "title": "Zoomfilm", "work_id": 77761, "role": "producer/director", "role_id": 31, "is_primary": true}], "also_known_as": "", "date_of_birth": "", "date_of_death": "", "genders": [], "languages": [], "places_of_operation": [], "biography": "", "biography_author": null, "date_of_biography": "2023-08-11T19:30:21.424361+10:00", "external_links": [], "uuid": "b12c0071-8252-4d55-baa8-b5f164714259", "source": {"name": "Vernon", "slug": "vernon"}, "source_identifier": "18156", "external_references": [], "date_modified": "2023-08-11T19:30:21.424595+10:00"}, {"id": 20733, "name": "Andrew Quinn", "roles_in_work": [{"id": 2647906, "title": "Waltz mambo", "work_id": 77758, "role": "director", "role_id": 938, "is_primary": true}], "also_known_as": "", "date_of_birth": null, "date_of_death": null, "genders": [], "languages": [], "places_of_operation": [], "biography": "", "biography_author": null, "date_of_biography": null, "external_links": [], "uuid": "f4d08c9b-199c-43ae-90f0-cadee0fddfcf", "source": {"name": "Vernon", "slug": "vernon"}, "source_identifier": "15208", "external_references": [], "date_modified": "2025-03-05T13:35:51.025123+11:00"}, {"id": 20732, "name": "Stewart Prebble", "roles_in_work": [{"id": 2770553, "title": "The Peace War", "work_id": 77757, "role": "producer", "role_id": 1089, "is_primary": true}], "also_known_as": "", "date_of_birth": "", "date_of_death": "", "genders": [], "languages": [], "places_of_operation": [], "biography": "", "biography_author": null, "date_of_biography": "2023-08-14T12:09:34.225114+10:00", "external_links": [], "uuid": "3ab9c7c9-78b6-4b96-8c66-b58ca4a7dd12", "source": {"name": "Vernon", "slug": "vernon"}, "source_identifier": "29228", "external_references": [], "date_modified": "2025-03-14T18:19:45.923565+11:00"}]}