{"count": 28687, "next": "https://api.acmi.net.au/creators/?page=1983", "previous": "https://api.acmi.net.au/creators/?page=1981", "results": [{"id": 22916, "name": "Health Media and Education Centre", "roles_in_work": [{"id": 2788678, "title": "Buzz", "work_id": 115366, "role": "production company", "role_id": 941, "is_primary": true}, {"id": 2788667, "title": "Rivals. Abseiling. Wave jumping", "work_id": 98336, "role": "production company", "role_id": 941, "is_primary": true}, {"id": 2649103, "title": "The Australian AIDS tape", "work_id": 80820, "role": "production company", "role_id": 941, "is_primary": true}], "also_known_as": "", "date_of_birth": "", "date_of_death": "", "genders": [], "languages": [], "places_of_operation": [], "biography": "", "biography_author": null, "date_of_biography": "2023-05-09T19:22:30.226900+10:00", "external_links": [], "uuid": "b867625b-8f46-46d3-be3d-4f0c69aca4dc", "source": {"name": "Vernon", "slug": "vernon"}, "source_identifier": "4346", "external_references": [{"id": 33107, "source": {"name": "Wikidata", "slug": "wikidata"}, "source_identifier": "Q121314990"}], "date_modified": "2025-03-14T19:45:25.768458+11:00"}, {"id": 22913, "name": "Rainer Werner Fassbinder", "roles_in_work": [{"id": 2327169, "title": "The American soldier = Der Americkanische soldat", "work_id": 86463, "role": "director", "role_id": 938, "is_primary": true}, {"id": 2615952, "title": "Martha", "work_id": 86469, "role": "director", "role_id": 938, "is_primary": true}, {"id": 2615958, "title": "Lola BRD 3", "work_id": 86477, "role": "director", "role_id": 938, "is_primary": true}, {"id": 2233975, "title": "Querelle [DVD]", "work_id": 93202, "role": "director", "role_id": 938, "is_primary": true}, {"id": 2237960, "title": "Fear eats the soul = Angst essen seele auf", "work_id": 86345, "role": "director", "role_id": 938, "is_primary": true}, {"id": 1984813, "title": "Veronika Voss", "work_id": 80818, "role": "director", "role_id": 938, "is_primary": true}, {"id": 1991736, "title": "The Marriage of Maria Braun = die ehe der Maria Braun", "work_id": 87452, "role": "director", "role_id": 938, "is_primary": true}, {"id": 1815119, "title": "The Tenderness of wolves = Die Zartlichkeit der Wolfe", "work_id": 87470, "role": "producer", "role_id": 1089, "is_primary": true}, {"id": 2332253, "title": "The Bitter tears of Petra von Kant = Die Bitteren tranen der Petra von Kant", "work_id": 86464, "role": "producer/director", "role_id": 31, "is_primary": true}, {"id": 2245989, "title": "Fontane Effi Briest = Effi Briest", "work_id": 86470, "role": "producer/director", "role_id": 31, "is_primary": true}, {"id": 1990963, "title": "The Merchant of four seasons", "work_id": 86636, "role": "producer/director", "role_id": 31, "is_primary": true}, {"id": 2136790, "title": "Chinese roulette = Chinesisches roulette", "work_id": 87499, "role": "producer/director", "role_id": 31, "is_primary": true}, {"id": 1990851, "title": "Fox and his friends = Faustrecht der freiheit", "work_id": 86467, "role": "producer/director", "role_id": 31, "is_primary": true}, {"id": 793654, "title": "In a year of 13 moons = In Einem jahr mit", "work_id": 86639, "role": "producer/director", "role_id": 31, "is_primary": true}], "also_known_as": "", "date_of_birth": "1945", "date_of_death": "1982", "genders": [{"id": 9, "name": "Male", "slug": "male"}], "languages": [{"id": 1, "name": "English", "slug": "english"}, {"id": 5, "name": "German", "slug": "german"}], "places_of_operation": [{"id": 306, "name": "American occupation zone in Germany", "slug": "american-occupation-zone-in-germany"}], "biography": "Rainer Werner Fassbinder (German: [ˈʁaɪ̯nɐ ˈvɛʁnɐ ˈfasbɪndɐ] (listen); 31 May 1945 – 10 June 1982), sometimes credited as R. W. Fassbinder, was a German filmmaker, actor, playwright, theatre director, composer, editor, and essayist. He is widely regarded as a prominent figure and catalyst of the New German Cinema movement.\nHis first feature-length film was a gangster movie called Love Is Colder Than Death (1969); he scored his first domestic commercial success with The Merchant of Four Seasons (1972) and his first international success with Ali: Fear Eats the Soul (1974), both of which are considered masterpieces by contemporary critics. Big-budget projects such as Despair (1978), Lili Marleen and Lola (both 1981) followed.\nHis greatest success came with The Marriage of Maria Braun (1979), chronicling the rise and fall of a German woman in the wake of World War II. Other notable films include The Bitter Tears of Petra von Kant (1972), Fox and His Friends (1975), Satan's Brew (1976), In a Year with 13 Moons (1978), and Querelle (1982), all of which focused on gay and lesbian themes.\nFassbinder died on 10 June 1982, at age 37, from a lethal cocktail of cocaine and barbiturates. His career lasted less than two decades, but he was extremely prolific; he completed over 40 feature films, two television series, three short films, four video productions, and 24 plays.", "biography_author": "Wikidata", "date_of_biography": "2022-05-19T12:46:34.125290+10:00", "external_links": [{"id": 2902, "uri": "https://en.wikipedia.org/wiki/Rainer_Werner_Fassbinder"}], "uuid": "c176b048-2753-448e-90c3-62fb03dc0249", "source": {"name": "Vernon", "slug": "vernon"}, "source_identifier": "27065", "external_references": [{"id": 12344, "source": {"name": "Wikidata", "slug": "wikidata"}, "source_identifier": "Q44426"}, {"id": 12345, "source": {"name": "VIAF", "slug": "viaf"}, "source_identifier": "66467014"}, {"id": 12346, "source": {"name": "LOC Auth", "slug": "loc-auth"}, "source_identifier": "n50011988"}, {"id": 12347, "source": {"name": "WorldCat", "slug": "worldcat"}, "source_identifier": "lccn-n50011988"}], "date_modified": "2025-02-26T20:32:08.010239+11:00"}, {"id": 22912, "name": "Maran Film", "roles_in_work": [{"id": 2476398, "title": "Yol", "work_id": 93371, "role": "production company", "role_id": 941, "is_primary": true}, {"id": 1984811, "title": "Veronika Voss", "work_id": 80818, "role": "production company", "role_id": 941, "is_primary": true}], "also_known_as": "", "date_of_birth": "", "date_of_death": "", "genders": [], "languages": [], "places_of_operation": [], "biography": "", "biography_author": null, "date_of_biography": "2023-08-17T15:36:10.851072+10:00", "external_links": [], "uuid": "867e526a-806b-471a-b9c4-9d5ca9e3d33d", "source": {"name": "Vernon", "slug": "vernon"}, "source_identifier": "10291", "external_references": [], "date_modified": "2023-08-17T15:36:10.851363+10:00"}, {"id": 22910, "name": "Rialto Film", "roles_in_work": [{"id": 1985188, "title": "The Serpent's Egg", "work_id": 81068, "role": "production company", "role_id": 941, "is_primary": true}, {"id": 1984809, "title": "Veronika Voss", "work_id": 80818, "role": "production company", "role_id": 941, "is_primary": true}, {"id": 2615954, "title": "Lola BRD 3", "work_id": 86477, "role": "production company", "role_id": 941, "is_primary": true}], "also_known_as": "", "date_of_birth": null, "date_of_death": null, "genders": [], "languages": [], "places_of_operation": [], "biography": "", "biography_author": null, "date_of_biography": null, "external_links": [], "uuid": "41233355-d5cc-44fb-89c5-b2e85d7492f3", "source": {"name": "Vernon", "slug": "vernon"}, "source_identifier": "12009", "external_references": [], "date_modified": "2025-02-26T20:32:05.534107+11:00"}, {"id": 22907, "name": "William Leeson", "roles_in_work": [{"id": 3083582, "title": "Quiet man with welding torch: a portrait of sculptor Julio Gonzalez 1876-1942", "work_id": 92576, "role": "co-producer", "role_id": 915, "is_primary": true}, {"id": 1804520, "title": "Sidney Nolan: Such Is Life", "work_id": 80817, "role": "producer", "role_id": 1089, "is_primary": true}, {"id": 3083844, "title": "Chillida", "work_id": 92595, "role": "producer", "role_id": 1089, "is_primary": true}], "also_known_as": "", "date_of_birth": "", "date_of_death": "", "genders": [], "languages": [], "places_of_operation": [], "biography": "", "biography_author": null, "date_of_biography": "2023-05-09T17:15:35.046143+10:00", "external_links": [], "uuid": "985cbf01-8b84-4cbd-ad53-f91be1750271", "source": {"name": "Vernon", "slug": "vernon"}, "source_identifier": "30465", "external_references": [{"id": 41448, "source": {"name": "Wikidata", "slug": "wikidata"}, "source_identifier": "Q121159860"}], "date_modified": "2025-03-17T10:34:41.527782+11:00"}, {"id": 22906, "name": "Radio-Telefis Eirann (RTE)", "roles_in_work": [{"id": 773263, "title": "Sidney Nolan: Such Is Life", "work_id": 80817, "role": "production company", "role_id": 941, "is_primary": true}, {"id": 2262194, "title": "Samuel Beckett: silence to silence", "work_id": 94575, "role": "production company", "role_id": 941, "is_primary": true}], "also_known_as": "", "date_of_birth": "", "date_of_death": "", "genders": [], "languages": [], "places_of_operation": [], "biography": "", "biography_author": null, "date_of_biography": "2023-05-09T17:30:43.363427+10:00", "external_links": [], "uuid": "7be57092-1173-4b19-a01f-c8c73c7b2e8f", "source": {"name": "Vernon", "slug": "vernon"}, "source_identifier": "12168", "external_references": [{"id": 38797, "source": {"name": "Wikidata", "slug": "wikidata"}, "source_identifier": "Q121270755"}], "date_modified": "2023-09-06T00:18:15.193168+10:00"}, {"id": 22905, "name": "RM Arts", "roles_in_work": [{"id": 3083779, "title": "Chanel, Chanel", "work_id": 92590, "role": "producer", "role_id": 1089, "is_primary": true}, {"id": 3083644, "title": "Max Ernst", "work_id": 92580, "role": "production company", "role_id": 941, "is_primary": true}, {"id": 3083628, "title": "Marc Chagall", "work_id": 92579, "role": "production company", "role_id": 941, "is_primary": true}, {"id": 3083612, "title": "Donatello 1386-1466: the first modern sculptor", "work_id": 92578, "role": "production company", "role_id": 941, "is_primary": true}, {"id": 3083552, "title": "Quiet man with welding torch: a portrait of sculptor Julio Gonzalez 1876-1942", "work_id": 92576, "role": "production company", "role_id": 941, "is_primary": true}, {"id": 3083517, "title": "Three colours Cezanne", "work_id": 92575, "role": "production company", "role_id": 941, "is_primary": true}, {"id": 3083763, "title": "The Story of fashion. Vol. 1: Remembrance of things past", "work_id": 92589, "role": "production company", "role_id": 941, "is_primary": true}, {"id": 3083753, "title": "Vermeer: light, love and silence", "work_id": 92588, "role": "production company", "role_id": 941, "is_primary": true}, {"id": 3083789, "title": "In search of pure colour: Pierre Bonnard 1867-1947", "work_id": 92591, "role": "production company", "role_id": 941, "is_primary": true}, {"id": 3083840, "title": "Chillida", "work_id": 92595, "role": "production company", "role_id": 941, "is_primary": true}, {"id": 3083864, "title": "Vermeer: the spell of a woman", "work_id": 92597, "role": "production company", "role_id": 941, "is_primary": true}, {"id": 3083874, "title": "The story of fashion. Vol. 3: The Age of dissent", "work_id": 92598, "role": "production company", "role_id": 941, "is_primary": true}, {"id": 3083887, "title": "Raphael: the apprentice years. [Vol. 1]", "work_id": 92599, "role": "production company", "role_id": 941, "is_primary": true}, {"id": 3083897, "title": "Raphael: the prince of painters. [Vol. 2]", "work_id": 92600, "role": "production company", "role_id": 941, "is_primary": true}, {"id": 3083909, "title": "Francis Bacon", "work_id": 92601, "role": "production company", "role_id": 941, "is_primary": true}, {"id": 3083936, "title": "Jackson Pollock", "work_id": 92603, "role": "production company", "role_id": 941, "is_primary": true}, {"id": 3083959, "title": "Miro: theatre of dreams", "work_id": 92605, "role": "production company", "role_id": 941, "is_primary": true}, {"id": 3083982, "title": "Robert Rauschenberg: man at work", "work_id": 92607, "role": "production company", "role_id": 941, "is_primary": true}, {"id": 3083743, "title": "Lucio Fontana: reaching out into space", "work_id": 92587, "role": "production company", "role_id": 941, "is_primary": true}, {"id": 3083733, "title": "The Unquiet spirit: the life and art of Edgar Degas (1834-1917)", "work_id": 92586, "role": "production company", "role_id": 941, "is_primary": true}, {"id": 3083714, "title": "The Story of fashion. Vol 02: the art and sport of fashion", "work_id": 92585, "role": "production company", "role_id": 941, "is_primary": true}, {"id": 3083656, "title": "Hockney at the Tate", "work_id": 92581, "role": "production company", "role_id": 941, "is_primary": true}, {"id": 2109042, "title": "Bauhaus: face of the twentieth century", "work_id": 91207, "role": "production company", "role_id": 941, "is_primary": true}, {"id": 3083776, "title": "Chanel, Chanel", "work_id": 92590, "role": "production company", "role_id": 941, "is_primary": true}, {"id": 2152819, "title": "Julius Caesar", "work_id": 95304, "role": "production company", "role_id": 941, "is_primary": true}, {"id": 2251396, "title": "Road to the stamping ground", "work_id": 93259, "role": "production company", "role_id": 941, "is_primary": true}, {"id": 2319643, "title": "Svadebka", "work_id": 93167, "role": "production company", "role_id": 941, "is_primary": true}, {"id": 773261, "title": "Sidney Nolan: Such Is Life", "work_id": 80817, "role": "production company", "role_id": 941, "is_primary": true}, {"id": 884143, "title": "Gloriana", "work_id": 94470, "role": "production company", "role_id": 941, "is_primary": true}, {"id": 2168966, "title": "Dance crazy in Hollywood", "work_id": 93165, "role": "production company", "role_id": 941, "is_primary": true}, {"id": 2205177, "title": "Picasso", "work_id": 91204, "role": "production company", "role_id": 941, "is_primary": true}, {"id": 1846121, "title": "Verdi Requiem", "work_id": 81228, "role": "production company", "role_id": 941, "is_primary": true}, {"id": 2097822, "title": "Annie Leibovitz", "work_id": 92592, "role": "production company", "role_id": 941, "is_primary": true}, {"id": 2259098, "title": "Rusalka", "work_id": 95294, "role": "production company", "role_id": 941, "is_primary": true}, {"id": 2138023, "title": "Cinderella = La Cenerentola", "work_id": 81204, "role": "production company", "role_id": 941, "is_primary": true}, {"id": 917799, "title": "Idomeneo", "work_id": 95295, "role": "production company", "role_id": 941, "is_primary": true}, {"id": 866325, "title": "L'africaine", "work_id": 81304, "role": "production company", "role_id": 941, "is_primary": true}], "also_known_as": "", "date_of_birth": "", "date_of_death": "", "genders": [], "languages": [], "places_of_operation": [], "biography": "", "biography_author": null, "date_of_biography": "2023-08-02T10:12:20.223872+10:00", "external_links": [], "uuid": "66556474-aa8f-4217-ab70-0ae77c6315f9", "source": {"name": "Vernon", "slug": "vernon"}, "source_identifier": "3905", "external_references": [{"id": 41737, "source": {"name": "Wikidata", "slug": "wikidata"}, "source_identifier": "Q121126833"}], "date_modified": "2025-03-17T10:35:13.158409+11:00"}, {"id": 22904, "name": "Waveband Film Productions", "roles_in_work": [{"id": 3083563, "title": "Quiet man with welding torch: a portrait of sculptor Julio Gonzalez 1876-1942", "work_id": 92576, "role": "production company", "role_id": 941, "is_primary": true}, {"id": 773260, "title": "Sidney Nolan: Such Is Life", "work_id": 80817, "role": "production company", "role_id": 941, "is_primary": true}], "also_known_as": "", "date_of_birth": "", "date_of_death": "", "genders": [], "languages": [], "places_of_operation": [], "biography": "", "biography_author": null, "date_of_biography": "2023-05-09T17:15:34.567083+10:00", "external_links": [], "uuid": "a04e6172-382c-432e-a1fc-41f66dbf0a75", "source": {"name": "Vernon", "slug": "vernon"}, "source_identifier": "4008", "external_references": [{"id": 51598, "source": {"name": "Wikidata", "slug": "wikidata"}, "source_identifier": "Q121357767"}], "date_modified": "2025-03-17T10:33:48.876014+11:00"}, {"id": 22902, "name": "Trevor Nunn", "roles_in_work": [{"id": 2279835, "title": "Twelfth night: or what you will [Nunn]", "work_id": 87254, "role": "director", "role_id": 938, "is_primary": true}, {"id": 899957, "title": "Les Miserables: Stage By Stage", "work_id": 80816, "role": "co-director", "role_id": 959, "is_primary": true}, {"id": 917800, "title": "Idomeneo", "work_id": 95295, "role": "co-producer", "role_id": 915, "is_primary": true}, {"id": 2210347, "title": "Porgy and Bess", "work_id": 83725, "role": "director", "role_id": 938, "is_primary": true}, {"id": 1814351, "title": "Macbeth: a performance of Macbeth by William Shakespeare", "work_id": 85392, "role": "producer", "role_id": 1089, "is_primary": true}], "also_known_as": "", "date_of_birth": "1940-01-14", "date_of_death": "", "genders": [{"id": 9, "name": "Male", "slug": "male"}], "languages": [{"id": 1, "name": "English", "slug": "english"}], "places_of_operation": [{"id": 10, "name": "United Kingdom", "slug": "united-kingdom"}], "biography": "Sir Trevor Robert Nunn  (born 14 January 1940) is a British theatre director. He has been the Artistic Director for the Royal Shakespeare Company, the Royal National Theatre, and, currently, the Theatre Royal, Haymarket. He has directed dramas for the stage, like Macbeth, as well as opera and musicals, such as Cats (1981) and Les Misérables (1985).\nNunn has been nominated for the Tony Award for Best Direction of a Musical, the Tony Award for Best Direction of a Play, the Laurence Olivier Award for Best Director, and the Drama Desk Award for Outstanding Director of a Musical, winning Tonys for Cats, Les Misérables, and Nicholas Nickleby and the Olivier Awards for productions of Summerfolk, The Merchant of Venice, Troilus and Cressida, and Nicholas Nickleby. In 2008 The Telegraph named him among the most influential people in British culture. He has also directed works for film and television.\n\n", "biography_author": "Wikidata", "date_of_biography": "2023-08-01T17:21:57.718322+10:00", "external_links": [{"id": 5299, "uri": "https://en.wikipedia.org/wiki/Trevor_Nunn"}], "uuid": "697dced9-78a1-4e2b-b1c5-028bf447b956", "source": {"name": "Vernon", "slug": "vernon"}, "source_identifier": "29980", "external_references": [{"id": 25011, "source": {"name": "Wikidata", "slug": "wikidata"}, "source_identifier": "Q1334509"}, {"id": 31871, "source": {"name": "VIAF", "slug": "viaf"}, "source_identifier": "85079307"}, {"id": 31872, "source": {"name": "LOC Auth", "slug": "loc-auth"}, "source_identifier": "n83187906"}, {"id": 31873, "source": {"name": "WorldCat", "slug": "worldcat"}, "source_identifier": "lccn-n83187906"}], "date_modified": "2023-09-06T01:58:43.941413+10:00"}, {"id": 22899, "name": "Louis Dolivet", "roles_in_work": [{"id": 1984804, "title": "Confidential Report = Mr Arkadin", "work_id": 80815, "role": "co-producer", "role_id": 915, "is_primary": true}, {"id": 1816938, "title": "My uncle = Mon oncle [DVD]", "work_id": 95142, "role": "producer", "role_id": 1089, "is_primary": true}], "also_known_as": "Ludovici Udeanu", "date_of_birth": "1908-01-01", "date_of_death": "1989-08-12", "genders": [{"id": 9, "name": "Male", "slug": "male"}], "languages": [{"id": 1, "name": "English", "slug": "english"}, {"id": 4, "name": "French", "slug": "french"}, {"id": 5, "name": "German", "slug": "german"}], "places_of_operation": [{"id": 17, "name": "France", "slug": "france"}], "biography": "Louis Dolivet born as Ludovici Udeanu (March 26, 1908 – August 1989) was an émigré writer, editor of Free World, film producer, and alleged Soviet spy born in Austria-Hungary, who later obtained French citizenship. From 1942 to 1949, he was married to Academy Award and Tony Award winning actress Beatrice Whitney Straight, of the prominent American Whitney family.", "biography_author": "Wikidata", "date_of_biography": "2023-08-01T15:59:22.271568+10:00", "external_links": [{"id": 4570, "uri": "https://en.wikipedia.org/wiki/Louis_Dolivet"}], "uuid": "20a8841a-33d5-48c7-9341-88fc1b548371", "source": {"name": "Vernon", "slug": "vernon"}, "source_identifier": "24018", "external_references": [{"id": 26497, "source": {"name": "Wikidata", "slug": "wikidata"}, "source_identifier": "Q1871621"}, {"id": 30005, "source": {"name": "VIAF", "slug": "viaf"}, "source_identifier": "79386142"}, {"id": 30006, "source": {"name": "LOC Auth", "slug": "loc-auth"}, "source_identifier": "no2006128893"}, {"id": 30007, "source": {"name": "WorldCat", "slug": "worldcat"}, "source_identifier": "lccn-no2006128893"}], "date_modified": "2023-09-13T12:31:03.560453+10:00"}]}