{"count": 28687, "next": "https://api.acmi.net.au/creators/?page=356", "previous": "https://api.acmi.net.au/creators/?page=354", "results": [{"id": 82057, "name": "Arkhi Media", "roles_in_work": [{"id": 2156763, "title": "Cyborg Chicken", "work_id": 114396, "role": "production company", "role_id": 941, "is_primary": true}], "also_known_as": "", "date_of_birth": "", "date_of_death": "", "genders": [], "languages": [], "places_of_operation": [], "biography": "", "biography_author": null, "date_of_biography": "2023-05-09T14:06:42.009194+10:00", "external_links": [], "uuid": "94820294-49b7-4e88-953b-8b4072442314", "source": {"name": "Vernon", "slug": "vernon"}, "source_identifier": "37920", "external_references": [{"id": 42623, "source": {"name": "Wikidata", "slug": "wikidata"}, "source_identifier": "Q121091415"}], "date_modified": "2023-09-05T17:44:28.166999+10:00"}, {"id": 82056, "name": "Jarrod Hasenjager", "roles_in_work": [{"id": 2115077, "title": "Big Game", "work_id": 114395, "role": "director", "role_id": 938, "is_primary": true}], "also_known_as": "", "date_of_birth": "", "date_of_death": "", "genders": [], "languages": [], "places_of_operation": [], "biography": "", "biography_author": null, "date_of_biography": "2023-05-09T12:53:03.706775+10:00", "external_links": [], "uuid": "95df545a-9c88-46c0-91a5-176e56f22313", "source": {"name": "Vernon", "slug": "vernon"}, "source_identifier": "37900", "external_references": [{"id": 35983, "source": {"name": "Wikidata", "slug": "wikidata"}, "source_identifier": "Q121086151"}], "date_modified": "2023-09-05T21:09:21.675967+10:00"}, {"id": 82055, "name": "South Africa. Dept of Arts and Culture. National Film and Video Foundation", "roles_in_work": [{"id": 2115074, "title": "Big Game", "work_id": 114395, "role": "partner", "role_id": 575, "is_primary": false}], "also_known_as": "", "date_of_birth": "", "date_of_death": "", "genders": [], "languages": [], "places_of_operation": [], "biography": "", "biography_author": null, "date_of_biography": "2023-05-09T12:53:03.452671+10:00", "external_links": [], "uuid": "26f49d3e-6d8e-48e6-94ba-e87c827ec579", "source": {"name": "Vernon", "slug": "vernon"}, "source_identifier": "37906", "external_references": [], "date_modified": "2023-06-14T16:33:30.576250+10:00"}, {"id": 82054, "name": "The Animation School (Cape Town)", "roles_in_work": [{"id": 2115072, "title": "Big Game", "work_id": 114395, "role": "production company", "role_id": 941, "is_primary": true}], "also_known_as": "", "date_of_birth": "", "date_of_death": "", "genders": [], "languages": [], "places_of_operation": [], "biography": "", "biography_author": null, "date_of_biography": "2023-05-09T12:53:03.204503+10:00", "external_links": [], "uuid": "7427c79f-7426-41dd-af24-ac0e027a89b9", "source": {"name": "Vernon", "slug": "vernon"}, "source_identifier": "37907", "external_references": [{"id": 39205, "source": {"name": "Wikidata", "slug": "wikidata"}, "source_identifier": "Q121144046"}], "date_modified": "2023-09-06T01:47:19.919321+10:00"}, {"id": 82053, "name": "Baker Terry", "roles_in_work": [{"id": 2660903, "title": "Outside the Box", "work_id": 114394, "role": "cast", "role_id": 33, "is_primary": false}], "also_known_as": "", "date_of_birth": "", "date_of_death": "", "genders": [], "languages": [], "places_of_operation": [], "biography": "", "biography_author": null, "date_of_biography": "2023-05-09T14:55:48.236914+10:00", "external_links": [], "uuid": "2ebf1bc0-8b8f-492a-8bf3-96f67f25c871", "source": {"name": "Vernon", "slug": "vernon"}, "source_identifier": "37331", "external_references": [{"id": 42111, "source": {"name": "Wikidata", "slug": "wikidata"}, "source_identifier": "Q121035579"}], "date_modified": "2025-03-05T20:00:30.747116+11:00"}, {"id": 82052, "name": "Joseph Pelling", "roles_in_work": [{"id": 2660900, "title": "Outside the Box", "work_id": 114394, "role": "director", "role_id": 938, "is_primary": true}, {"id": 2660902, "title": "Outside the Box", "work_id": 114394, "role": "cast", "role_id": 33, "is_primary": false}, {"id": 2660901, "title": "Outside the Box", "work_id": 114394, "role": "writer", "role_id": 939, "is_primary": true}], "also_known_as": "", "date_of_birth": "", "date_of_death": "", "genders": [], "languages": [], "places_of_operation": [], "biography": "", "biography_author": null, "date_of_biography": "2023-05-09T14:55:47.987183+10:00", "external_links": [], "uuid": "6a3a9c15-ca93-4eec-9172-601ff75a9ace", "source": {"name": "Vernon", "slug": "vernon"}, "source_identifier": "37330", "external_references": [{"id": 40704, "source": {"name": "Wikidata", "slug": "wikidata"}, "source_identifier": "Q120837799"}], "date_modified": "2025-03-05T20:00:30.169317+11:00"}, {"id": 82051, "name": "Max Richter", "roles_in_work": [{"id": 2660896, "title": "Z", "work_id": 114393, "role": "music", "role_id": 949, "is_primary": false}], "also_known_as": "", "date_of_birth": "", "date_of_death": "", "genders": [], "languages": [], "places_of_operation": [], "biography": "", "biography_author": null, "date_of_biography": "2023-05-09T18:06:45.442502+10:00", "external_links": [], "uuid": "97e058c6-91dc-4e37-8513-f2f9702a6b9a", "source": {"name": "Vernon", "slug": "vernon"}, "source_identifier": "37329", "external_references": [], "date_modified": "2025-03-05T20:00:27.014889+11:00"}, {"id": 82050, "name": "Alan Warburton", "roles_in_work": [{"id": 2660895, "title": "Z", "work_id": 114393, "role": "director", "role_id": 938, "is_primary": true}], "also_known_as": "", "date_of_birth": "", "date_of_death": "", "genders": [], "languages": [], "places_of_operation": [], "biography": "", "biography_author": null, "date_of_biography": "2023-05-09T18:06:45.196118+10:00", "external_links": [], "uuid": "800b5294-0f73-40da-8bd2-3fa6d07713ca", "source": {"name": "Vernon", "slug": "vernon"}, "source_identifier": "37328", "external_references": [{"id": 39131, "source": {"name": "Wikidata", "slug": "wikidata"}, "source_identifier": "Q120304938"}], "date_modified": "2025-03-05T20:00:26.434649+11:00"}, {"id": 82049, "name": "Animate Projects", "roles_in_work": [{"id": 2660893, "title": "Z", "work_id": 114393, "role": "production company", "role_id": 941, "is_primary": true}], "also_known_as": "", "date_of_birth": "", "date_of_death": "", "genders": [], "languages": [], "places_of_operation": [], "biography": "", "biography_author": null, "date_of_biography": "2023-05-09T18:06:44.710139+10:00", "external_links": [], "uuid": "5b20c535-addb-40a1-8a25-f1b4a2cbc760", "source": {"name": "Vernon", "slug": "vernon"}, "source_identifier": "37327", "external_references": [], "date_modified": "2025-03-05T20:00:25.280254+11:00"}, {"id": 82048, "name": "Peter Curtis", "roles_in_work": [{"id": 2660890, "title": "Peter", "work_id": 114392, "role": "performer", "role_id": 576, "is_primary": false}], "also_known_as": "", "date_of_birth": "", "date_of_death": "", "genders": [], "languages": [], "places_of_operation": [], "biography": "", "biography_author": null, "date_of_biography": "2023-05-09T15:27:51.626951+10:00", "external_links": [], "uuid": "e5412535-71a2-425d-9ad2-378d91d5266f", "source": {"name": "Vernon", "slug": "vernon"}, "source_identifier": "37326", "external_references": [], "date_modified": "2025-03-05T20:00:23.546690+11:00"}]}