{"count": 28687, "next": "https://api.acmi.net.au/creators/?page=25", "previous": "https://api.acmi.net.au/creators/?page=23", "results": [{"id": 87315, "name": "Michael Ochs", "roles_in_work": [{"id": 2513040, "title": "Josephine Baker", "work_id": 122152, "role": "", "role_id": 604, "is_primary": false}], "also_known_as": "", "date_of_birth": "", "date_of_death": "", "genders": [], "languages": [], "places_of_operation": [], "biography": "", "biography_author": null, "date_of_biography": "2023-07-12T04:06:17.978740+10:00", "external_links": [], "uuid": "191e5806-d6d5-47f0-aba5-2ae682482aea", "source": {"name": "Vernon", "slug": "vernon"}, "source_identifier": "40443", "external_references": [], "date_modified": "2024-03-06T03:45:17.715647+11:00"}, {"id": 87314, "name": "Phil Stern", "roles_in_work": [{"id": 2721499, "title": "Joan Crawford and Bette Davis during production of What Ever Happened to Baby Jane? (1962)", "work_id": 122146, "role": "photographer", "role_id": 440, "is_primary": false}], "also_known_as": "", "date_of_birth": "", "date_of_death": "", "genders": [], "languages": [], "places_of_operation": [], "biography": "", "biography_author": null, "date_of_biography": "2023-08-30T04:32:26.873767+10:00", "external_links": [], "uuid": "1a192dc8-eb6e-4ffc-8149-531037d77606", "source": {"name": "Vernon", "slug": "vernon"}, "source_identifier": "40448", "external_references": [], "date_modified": "2025-03-12T07:23:05.660553+11:00"}, {"id": 87313, "name": "Jasmatzi Cigarettes", "roles_in_work": [{"id": 2721495, "title": "Anna May Wong & Marlene Dietrich Ramses Film-Fotos Collectable Cigarette Card #110", "work_id": 122142, "role": "manufacturer", "role_id": 627, "is_primary": true}], "also_known_as": "", "date_of_birth": "", "date_of_death": "", "genders": [], "languages": [], "places_of_operation": [], "biography": "", "biography_author": null, "date_of_biography": "2023-07-12T04:06:13.082283+10:00", "external_links": [], "uuid": "dd125fe6-330b-4b78-a0ec-8d6569d20fed", "source": {"name": "Vernon", "slug": "vernon"}, "source_identifier": "40518", "external_references": [], "date_modified": "2025-03-12T07:23:03.199273+11:00"}, {"id": 87312, "name": "John Kobal", "roles_in_work": [{"id": 2503823, "title": "Publicity shot for Limehouse Blues (1934)", "work_id": 122138, "role": "", "role_id": 604, "is_primary": false}], "also_known_as": "", "date_of_birth": "", "date_of_death": "", "genders": [], "languages": [], "places_of_operation": [], "biography": "", "biography_author": null, "date_of_biography": "2023-08-30T04:32:24.751583+10:00", "external_links": [], "uuid": "00051297-1806-426d-92c3-583bb0948db9", "source": {"name": "Vernon", "slug": "vernon"}, "source_identifier": "40440", "external_references": [], "date_modified": "2023-11-01T03:42:36.234928+11:00"}, {"id": 87311, "name": "Anselmo Ballester", "roles_in_work": [{"id": 2513036, "title": "Poster for The Lady from Shanghai (1948)", "work_id": 122136, "role": "designer", "role_id": 495, "is_primary": false}], "also_known_as": "", "date_of_birth": "", "date_of_death": "", "genders": [], "languages": [], "places_of_operation": [], "biography": "", "biography_author": null, "date_of_biography": "2023-08-30T04:32:23.639250+10:00", "external_links": [], "uuid": "2be405ad-96f4-4b31-b23e-036890b7d5c7", "source": {"name": "Vernon", "slug": "vernon"}, "source_identifier": "40435", "external_references": [], "date_modified": "2024-03-06T03:45:08.818572+11:00"}, {"id": 87310, "name": "Herbert Cruikshank", "roles_in_work": [{"id": 2721490, "title": "Dietrich Delares Herself', Screenland Magazine, October 1933", "work_id": 122133, "role": "writer", "role_id": 939, "is_primary": true}], "also_known_as": "", "date_of_birth": "", "date_of_death": "1939", "genders": [{"id": 9, "name": "Male", "slug": "male"}], "languages": [], "places_of_operation": [], "biography": "", "biography_author": null, "date_of_biography": "2023-07-12T04:06:08.495655+10:00", "external_links": [], "uuid": "c92a6428-ae43-4ba6-a714-0d563e388af3", "source": {"name": "Vernon", "slug": "vernon"}, "source_identifier": "40501", "external_references": [], "date_modified": "2025-03-12T07:23:00.392629+11:00"}, {"id": 87309, "name": "Van Cleef & Arpels", "roles_in_work": [{"id": 2721487, "title": "Cufflinks from Marlene Dietrich personal wardrobe", "work_id": 122132, "role": "creator", "role_id": 968, "is_primary": true}], "also_known_as": "", "date_of_birth": "", "date_of_death": "", "genders": [], "languages": [], "places_of_operation": [], "biography": "", "biography_author": null, "date_of_biography": "2023-07-12T04:06:07.691099+10:00", "external_links": [], "uuid": "0518fd6a-7c19-439a-a9b0-5f564e2e1092", "source": {"name": "Vernon", "slug": "vernon"}, "source_identifier": "40655", "external_references": [], "date_modified": "2025-03-12T07:22:58.981507+11:00"}, {"id": 87308, "name": "Horace Lannes", "roles_in_work": [{"id": 2721482, "title": "Costume sketch for Marlene Dietrich", "work_id": 122131, "role": "costume designer", "role_id": 961, "is_primary": true}], "also_known_as": "", "date_of_birth": "", "date_of_death": "", "genders": [], "languages": [], "places_of_operation": [], "biography": "", "biography_author": null, "date_of_biography": "2023-08-30T22:36:12.287396+10:00", "external_links": [], "uuid": "dce723cc-7a53-4be7-8b5c-7b719516b2f8", "source": {"name": "Vernon", "slug": "vernon"}, "source_identifier": "40439", "external_references": [], "date_modified": "2025-03-12T07:22:56.661512+11:00"}, {"id": 87307, "name": "Fashion Institute of Design and Merchandising (FIDM)", "roles_in_work": [{"id": 2721480, "title": "Tuxedo pumps worn by Marlene Dietrich", "work_id": 122130, "role": "lender", "role_id": 626, "is_primary": false}, {"id": 2503858, "title": "Footprints taken for Mae West shoes", "work_id": 122197, "role": "lender", "role_id": 626, "is_primary": false}, {"id": 2721510, "title": "Sandal-style platform pumps of red cotton printed with black leaves and gold highlights worn by Mae West", "work_id": 122158, "role": "lender", "role_id": 626, "is_primary": false}, {"id": 2503860, "title": "Shoes worn by Mae West", "work_id": 122200, "role": "lender", "role_id": 626, "is_primary": false}, {"id": 2721507, "title": "Shoes worn by Mae West", "work_id": 122156, "role": "lender", "role_id": 626, "is_primary": false}], "also_known_as": "", "date_of_birth": "", "date_of_death": "", "genders": [], "languages": [], "places_of_operation": [], "biography": "", "biography_author": null, "date_of_biography": "2023-08-30T04:32:39.302964+10:00", "external_links": [], "uuid": "fc3b7a90-8d5e-4fa5-8535-bf1d6f654092", "source": {"name": "Vernon", "slug": "vernon"}, "source_identifier": "39984", "external_references": [], "date_modified": "2025-03-12T07:23:11.490988+11:00"}, {"id": 87306, "name": "John Reinitz", "roles_in_work": [{"id": 2721475, "title": "White tuxedo worn by Marlene Dietrich", "work_id": 122128, "role": "", "role_id": 604, "is_primary": false}], "also_known_as": "", "date_of_birth": "", "date_of_death": "", "genders": [], "languages": [], "places_of_operation": [], "biography": "", "biography_author": null, "date_of_biography": "2023-07-12T04:06:03.377379+10:00", "external_links": [], "uuid": "c521416d-0eb1-4c23-bfd0-a5b389506155", "source": {"name": "Vernon", "slug": "vernon"}, "source_identifier": "40510", "external_references": [], "date_modified": "2025-03-12T07:22:52.574457+11:00"}]}