{"count": 28687, "next": "https://api.acmi.net.au/creators/?page=1717", "previous": "https://api.acmi.net.au/creators/?page=1715", "results": [{"id": 28288, "name": "Harold Hecht Corporation", "roles_in_work": [{"id": 2615834, "title": "Cat Ballou", "work_id": 86250, "role": "production company", "role_id": 941, "is_primary": true}], "also_known_as": "", "date_of_birth": null, "date_of_death": null, "genders": [], "languages": [], "places_of_operation": [], "biography": "", "biography_author": null, "date_of_biography": null, "external_links": [], "uuid": "11366c7a-6dca-4a3f-bd27-6632327b685e", "source": {"name": "Vernon", "slug": "vernon"}, "source_identifier": "13394", "external_references": [], "date_modified": "2025-02-26T20:30:24.026558+11:00"}, {"id": 28287, "name": "Primitiva Religiosa", "roles_in_work": [{"id": 2615830, "title": "Something wild", "work_id": 86249, "role": "production company", "role_id": 941, "is_primary": true}], "also_known_as": "", "date_of_birth": "", "date_of_death": "", "genders": [], "languages": [], "places_of_operation": [], "biography": "", "biography_author": null, "date_of_biography": "2023-05-09T18:44:02.564976+10:00", "external_links": [], "uuid": "1f63a7aa-e15f-468c-b1f4-f6c8bd7f73b4", "source": {"name": "Vernon", "slug": "vernon"}, "source_identifier": "11643", "external_references": [{"id": 32592, "source": {"name": "Wikidata", "slug": "wikidata"}, "source_identifier": "Q121299394"}], "date_modified": "2025-02-26T20:30:20.911113+11:00"}, {"id": 28284, "name": "Sergei Bondarchuk", "roles_in_work": [{"id": 3087032, "title": "Destiny of a man = Sudba cheloveka", "work_id": 95337, "role": "director", "role_id": 938, "is_primary": true}, {"id": 870352, "title": "Waterloo", "work_id": 86245, "role": "director", "role_id": 938, "is_primary": true}, {"id": 3087058, "title": "They fought for their motherland = Oni srazhalis za rodinu", "work_id": 95340, "role": "director", "role_id": 938, "is_primary": true}], "also_known_as": "", "date_of_birth": "1920-09-25", "date_of_death": "1994-10-20", "genders": [{"id": 9, "name": "Male", "slug": "male"}], "languages": [{"id": 3, "name": "Russian", "slug": "russian"}], "places_of_operation": [{"id": 180, "name": "Soviet Union", "slug": "soviet-union"}], "biography": "Sergei Fyodorovich Bondarchuk ГСТ HaCCP (Russian: Серге́й Фёдорович Бондарчу́к, IPA: [sʲɪrˈɡʲej ˈfʲɵdərəvʲɪdʑ bəndɐrˈtɕuk]; Ukrainian: Сергі́й Фе́дорович Бондарчу́к, romanized: Serhíj Fédorovych Bondarchúk; 25 September 1920 – 20 October 1994) was a Soviet and Russian actor, film director, and screenwriter of Ukrainian origin who was one of the leading figures of Russian cinema of the 1950s, 1960s and 1970s. He is known for his sweeping period dramas, including the internationally acclaimed four-part adaptation of Leo Tolstoy's War and Peace and the Napoleonic War epic Waterloo.\nBondarchuk's work won him numerous international accolades. His epic production of Tolstoy's War and Peace won Bondarchuk, who both directed and acted in the leading role of Pierre Bezukhov, the Golden Globe Award for Best Foreign Language Film (1968), and the Academy Award for Best Foreign Language Film in 1968. He was made both a Hero of Socialist Labour and a People's Artist of the USSR.", "biography_author": "Wikidata", "date_of_biography": "2022-05-19T13:03:53.543770+10:00", "external_links": [{"id": 3088, "uri": "https://en.wikipedia.org/wiki/Sergei_Bondarchuk"}], "uuid": "a4b4b8db-da9c-45c9-a021-f528e38c0d7b", "source": {"name": "Vernon", "slug": "vernon"}, "source_identifier": "28684", "external_references": [{"id": 13102, "source": {"name": "Wikidata", "slug": "wikidata"}, "source_identifier": "Q55190"}, {"id": 13103, "source": {"name": "VIAF", "slug": "viaf"}, "source_identifier": "116483432"}, {"id": 13104, "source": {"name": "LOC Auth", "slug": "loc-auth"}, "source_identifier": "n82106804"}, {"id": 13105, "source": {"name": "WorldCat", "slug": "worldcat"}, "source_identifier": "lccn-n82106804"}], "date_modified": "2025-03-17T10:46:37.232937+11:00"}, {"id": 28276, "name": "Department of Visual Communication, RMIT", "roles_in_work": [{"id": 2615819, "title": "Three Mile Creek (MAC)", "work_id": 86231, "role": "production company", "role_id": 941, "is_primary": true}, {"id": 2253927, "title": "A Collection of interactive work created by students (MAC)", "work_id": 86232, "role": "production company", "role_id": 941, "is_primary": true}], "also_known_as": "", "date_of_birth": "", "date_of_death": "", "genders": [], "languages": [], "places_of_operation": [], "biography": "", "biography_author": null, "date_of_biography": "2023-05-09T17:14:55.273605+10:00", "external_links": [], "uuid": "72312388-e3b1-4d6a-be7e-38d0941b9872", "source": {"name": "Vernon", "slug": "vernon"}, "source_identifier": "110541", "external_references": [{"id": 43553, "source": {"name": "Wikidata", "slug": "wikidata"}, "source_identifier": "Q121035023"}], "date_modified": "2025-02-26T20:30:11.876708+11:00"}, {"id": 28275, "name": "Vera Belmont", "roles_in_work": [{"id": 3105110, "title": "La Guerre des Polices = the Police War", "work_id": 116252, "role": "producer", "role_id": 1089, "is_primary": true}, {"id": 1990575, "title": "Farinelli: il castrato", "work_id": 86228, "role": "producer", "role_id": 1089, "is_primary": true}, {"id": 3104637, "title": "Souvenirs D'en France = Insider Memories of France", "work_id": 116011, "role": "producer", "role_id": 1089, "is_primary": true}], "also_known_as": "", "date_of_birth": null, "date_of_death": null, "genders": [], "languages": [], "places_of_operation": [], "biography": "", "biography_author": null, "date_of_biography": null, "external_links": [], "uuid": "ab28a008-91ff-4d53-a5b1-11190e1e110e", "source": {"name": "Vernon", "slug": "vernon"}, "source_identifier": "30067", "external_references": [], "date_modified": "2025-05-22T22:56:38.024477+10:00"}, {"id": 28269, "name": "Christa van Santen", "roles_in_work": [{"id": 2615818, "title": "Colour", "work_id": 86225, "role": "director", "role_id": 938, "is_primary": true}], "also_known_as": "", "date_of_birth": null, "date_of_death": null, "genders": [], "languages": [], "places_of_operation": [], "biography": "", "biography_author": null, "date_of_biography": null, "external_links": [], "uuid": "49a28401-6a39-47ab-9080-3349b2851ae3", "source": {"name": "Vernon", "slug": "vernon"}, "source_identifier": "16892", "external_references": [], "date_modified": "2025-02-26T20:30:11.058043+11:00"}, {"id": 28268, "name": "Color Film Center", "roles_in_work": [{"id": 2615816, "title": "Colour", "work_id": 86225, "role": "production company", "role_id": 941, "is_primary": true}], "also_known_as": "", "date_of_birth": null, "date_of_death": null, "genders": [], "languages": [], "places_of_operation": [], "biography": "", "biography_author": null, "date_of_biography": null, "external_links": [], "uuid": "6dae642d-3fc6-4fac-b51a-b2c5e3eeedbb", "source": {"name": "Vernon", "slug": "vernon"}, "source_identifier": "6891", "external_references": [], "date_modified": "2025-02-26T20:30:09.816117+11:00"}, {"id": 28267, "name": "Ethnic Youth Issues Network", "roles_in_work": [{"id": 2615814, "title": "Given a chance", "work_id": 86223, "role": "production company", "role_id": 941, "is_primary": true}], "also_known_as": "", "date_of_birth": "", "date_of_death": "", "genders": [], "languages": [], "places_of_operation": [], "biography": "", "biography_author": null, "date_of_biography": "2023-08-11T17:02:39.955954+10:00", "external_links": [], "uuid": "07c42912-4d70-4355-9b9e-e568d87db1bd", "source": {"name": "Vernon", "slug": "vernon"}, "source_identifier": "7987", "external_references": [], "date_modified": "2025-02-26T20:30:08.148852+11:00"}, {"id": 28266, "name": "Arco Film (Italy)", "roles_in_work": [{"id": 2253998, "title": "Rogopag [Widescreen]", "work_id": 90530, "role": "production company", "role_id": 941, "is_primary": true}, {"id": 1990568, "title": "Mamma Roma", "work_id": 86221, "role": "production company", "role_id": 941, "is_primary": true}], "also_known_as": "", "date_of_birth": "", "date_of_death": "", "genders": [], "languages": [], "places_of_operation": [], "biography": "", "biography_author": null, "date_of_biography": "2023-05-09T17:15:01.091573+10:00", "external_links": [], "uuid": "68bbe248-2a82-4791-aca2-3e3d61a2b56b", "source": {"name": "Vernon", "slug": "vernon"}, "source_identifier": "3784", "external_references": [], "date_modified": "2023-06-14T16:33:30.576250+10:00"}, {"id": 28259, "name": "Frederick King Keller", "roles_in_work": [{"id": 1990561, "title": "Tuck everlasting", "work_id": 86213, "role": "director", "role_id": 938, "is_primary": true}, {"id": 817935, "title": "24 = Twenty-four Season one [DVD]", "work_id": 93990, "role": "director", "role_id": 938, "is_primary": true}], "also_known_as": "", "date_of_birth": "1954-01-01", "date_of_death": null, "genders": [{"id": 9, "name": "Male", "slug": "male"}], "languages": [], "places_of_operation": [{"id": 1, "name": "United States of America", "slug": "united-states-of-america"}], "biography": "Frederick King Keller (born 1954 in Buffalo, New York) is an American director, producer, and screenwriter for film and television. He is also credited under the names Frederick K. Keller, Fred K. Keller and Fred Keller. He is the son of actor/screenwriter Frederick A. Keller. His father was a television pioneer who produced and directed the first weekly dramatic series seen on television. Besides acting and directing in theater his father also ran several art-house movie theaters in Buffalo which the young Fred became intimately involved with and which formed the root of his cinematic education.\nWhile earning his Bachelor of Arts in English from Hamilton College he was able to meet, study, and work with Nat Boxer, one of Francis Ford Coppola's favorite technicians, then at Hamilton's sister school Kirkland College. While still in school, Fred produced and directed several short films, one of which, A Winter's Tale, was screened at the Cannes Film Festival.\nAfter producing and directing several short drama films for the Communications Office of the Catholic Diocese of Buffalo (one of which, A Midnight Clear, won a Gabriel Award), they asked him to develop and direct a feature-length film for local television entitled Skeleton Key. Following the success of that endeavor and due to a connection made at college with the author Natalie Babbitt, Fred produced and directed the original film based on her book Tuck Everlasting. He followed that up with another Babbitt adaptation, The Eyes of the Amaryllis. His third independently produced and directed film was Vamping, starring Patrick Duffy.\nPartly due to the success of these films, especially the Babbitt films for young audiences, Fred was engaged to direct half of the episodes for Nickelodeon's first sitcom, Hey Dude, shot entirely on location in Tucson, AZ. The directing of over 200 hours of television followed, including multiple episodes of New York Undercover, The Pretender, House, 24,  CSI: Miami,  Boomtown,  Numb3rs, Life and Blue Bloods. He has also been either the Producer or Supervising Producer on a number of shows including The Pretender, Boomtown and Blue Bloods. Most recently he returned to short form with the pilot for the series Weight which won the 2016 WGA Award for Short Form New Media-Original.\nIn addition to his film and television career Keller has also directed numerous plays and two operas.", "biography_author": "Wikidata", "date_of_biography": "2022-05-19T11:31:54.152090+10:00", "external_links": [{"id": 2080, "uri": "https://en.wikipedia.org/wiki/Frederick_King_Keller"}], "uuid": "888ae840-7057-46f0-be67-024930264921", "source": {"name": "Vernon", "slug": "vernon"}, "source_identifier": "19280", "external_references": [{"id": 8975, "source": {"name": "Wikidata", "slug": "wikidata"}, "source_identifier": "Q5498207"}, {"id": 8976, "source": {"name": "VIAF", "slug": "viaf"}, "source_identifier": "19470925"}, {"id": 8977, "source": {"name": "LOC Auth", "slug": "loc-auth"}, "source_identifier": "no2007132379"}, {"id": 8978, "source": {"name": "WorldCat", "slug": "worldcat"}, "source_identifier": "lccn-no2007132379"}], "date_modified": "2023-09-13T12:29:30.118506+10:00"}]}