{"count": 28687, "next": "https://api.acmi.net.au/creators/?page=1534", "previous": "https://api.acmi.net.au/creators/?page=1532", "results": [{"id": 32830, "name": "Perlow Productions", "roles_in_work": [{"id": 2465223, "title": "Range of motion therapy", "work_id": 91306, "role": "production company", "role_id": 941, "is_primary": true}], "also_known_as": "", "date_of_birth": "", "date_of_death": "", "genders": [], "languages": [], "places_of_operation": [], "biography": "", "biography_author": null, "date_of_biography": "2023-08-14T10:29:59.325822+10:00", "external_links": [], "uuid": "8d616222-0b98-4fdd-895e-8bc8a7b884c3", "source": {"name": "Vernon", "slug": "vernon"}, "source_identifier": "11414", "external_references": [], "date_modified": "2023-08-14T10:29:59.326178+10:00"}, {"id": 32829, "name": "Hildegard Schulze", "roles_in_work": [{"id": 2415885, "title": "Metal of the centuries", "work_id": 91305, "role": "producer", "role_id": 1089, "is_primary": true}], "also_known_as": "", "date_of_birth": "", "date_of_death": "", "genders": [], "languages": [], "places_of_operation": [], "biography": "", "biography_author": null, "date_of_biography": "2023-08-11T19:48:42.122602+10:00", "external_links": [], "uuid": "1076a9e5-00df-4e11-ac32-d14fa0e96978", "source": {"name": "Vernon", "slug": "vernon"}, "source_identifier": "20560", "external_references": [], "date_modified": "2023-08-11T19:48:42.122878+10:00"}, {"id": 32828, "name": "Infafilm", "roles_in_work": [{"id": 809786, "title": "The Wannsee Conference", "work_id": 91955, "role": "production company", "role_id": 941, "is_primary": true}, {"id": 2415884, "title": "Metal of the centuries", "work_id": 91305, "role": "production company", "role_id": 941, "is_primary": true}], "also_known_as": "", "date_of_birth": "", "date_of_death": "", "genders": [], "languages": [], "places_of_operation": [], "biography": "", "biography_author": null, "date_of_biography": "2023-08-11T19:48:41.491173+10:00", "external_links": [], "uuid": "9f6e52c2-dae4-4ecd-bc2b-20ada086618a", "source": {"name": "Vernon", "slug": "vernon"}, "source_identifier": "4729", "external_references": [], "date_modified": "2023-08-11T19:48:41.491490+10:00"}, {"id": 32825, "name": "Bo Ho Films", "roles_in_work": [{"id": 2218448, "title": "Encounters of the spooky kind", "work_id": 91300, "role": "production company", "role_id": 941, "is_primary": true}], "also_known_as": "", "date_of_birth": "", "date_of_death": "", "genders": [], "languages": [], "places_of_operation": [], "biography": "", "biography_author": null, "date_of_biography": "2023-05-09T16:08:02.483774+10:00", "external_links": [], "uuid": "9662dad0-ba45-4bfa-86af-531c5b138a65", "source": {"name": "Vernon", "slug": "vernon"}, "source_identifier": "16041", "external_references": [{"id": 36995, "source": {"name": "Wikidata", "slug": "wikidata"}, "source_identifier": "Q121143960"}], "date_modified": "2023-09-05T18:07:05.811248+10:00"}, {"id": 32823, "name": "New York Historical Society", "roles_in_work": [{"id": 3082000, "title": "New York: a documentary film", "work_id": 115550, "role": "production company", "role_id": 941, "is_primary": true}, {"id": 3081985, "title": "Cosmopolis", "work_id": 91321, "role": "production company", "role_id": 941, "is_primary": true}, {"id": 3081926, "title": "Sunshine and shadow", "work_id": 91319, "role": "production company", "role_id": 941, "is_primary": true}, {"id": 3081896, "title": "Order and disorder", "work_id": 91318, "role": "production company", "role_id": 941, "is_primary": true}, {"id": 3081941, "title": "The Power and the people [NTSC]", "work_id": 91298, "role": "production company", "role_id": 941, "is_primary": true}, {"id": 3081880, "title": "Order and disorder [NTSC]", "work_id": 91296, "role": "production company", "role_id": 941, "is_primary": true}, {"id": 3081956, "title": "Cosmopolis [NTSC]", "work_id": 91299, "role": "production company", "role_id": 941, "is_primary": true}, {"id": 3081911, "title": "Sunshine and shadow [NTSC]", "work_id": 91297, "role": "production company", "role_id": 941, "is_primary": true}, {"id": 3081969, "title": "The Power and the people", "work_id": 91320, "role": "production company", "role_id": 941, "is_primary": true}, {"id": 3081864, "title": "The Country and the city [NTSC]", "work_id": 91295, "role": "production company", "role_id": 941, "is_primary": true}], "also_known_as": "", "date_of_birth": "", "date_of_death": "", "genders": [], "languages": [], "places_of_operation": [], "biography": "", "biography_author": null, "date_of_biography": "2023-05-09T19:40:23.852009+10:00", "external_links": [], "uuid": "bc94839a-3549-4d5c-8aa1-916a1c5fe78c", "source": {"name": "Vernon", "slug": "vernon"}, "source_identifier": "10949", "external_references": [{"id": 51330, "source": {"name": "Wikidata", "slug": "wikidata"}, "source_identifier": "Q121357543"}], "date_modified": "2025-03-17T10:27:05.383735+11:00"}, {"id": 32822, "name": "Steeplechase Films", "roles_in_work": [{"id": 3081962, "title": "The Power and the people", "work_id": 91320, "role": "production company", "role_id": 941, "is_primary": true}, {"id": 3081873, "title": "Order and disorder [NTSC]", "work_id": 91296, "role": "production company", "role_id": 941, "is_primary": true}, {"id": 3081888, "title": "Order and disorder", "work_id": 91318, "role": "production company", "role_id": 941, "is_primary": true}, {"id": 3081904, "title": "Sunshine and shadow [NTSC]", "work_id": 91297, "role": "production company", "role_id": 941, "is_primary": true}, {"id": 3081919, "title": "Sunshine and shadow", "work_id": 91319, "role": "production company", "role_id": 941, "is_primary": true}, {"id": 3081934, "title": "The Power and the people [NTSC]", "work_id": 91298, "role": "production company", "role_id": 941, "is_primary": true}, {"id": 3081948, "title": "Cosmopolis [NTSC]", "work_id": 91299, "role": "production company", "role_id": 941, "is_primary": true}, {"id": 3081856, "title": "The Country and the city [NTSC]", "work_id": 91295, "role": "production company", "role_id": 941, "is_primary": true}, {"id": 3081978, "title": "Cosmopolis", "work_id": 91321, "role": "production company", "role_id": 941, "is_primary": true}, {"id": 3081993, "title": "New York: a documentary film", "work_id": 115550, "role": "production company", "role_id": 941, "is_primary": true}], "also_known_as": "", "date_of_birth": "", "date_of_death": "", "genders": [], "languages": [], "places_of_operation": [], "biography": "", "biography_author": null, "date_of_biography": "2023-05-09T19:40:22.939560+10:00", "external_links": [], "uuid": "a3074936-2e7e-4cd5-8b16-3335b4ec08cd", "source": {"name": "Vernon", "slug": "vernon"}, "source_identifier": "12941", "external_references": [{"id": 42499, "source": {"name": "Wikidata", "slug": "wikidata"}, "source_identifier": "Q121034289"}], "date_modified": "2025-03-17T10:27:03.002482+11:00"}, {"id": 32819, "name": "Burlingham Adventures", "roles_in_work": [{"id": 2464724, "title": "Pelican Island", "work_id": 91288, "role": "production company", "role_id": 941, "is_primary": true}], "also_known_as": "", "date_of_birth": "", "date_of_death": "", "genders": [], "languages": [], "places_of_operation": [], "biography": "", "biography_author": null, "date_of_biography": "2023-08-14T10:18:01.519398+10:00", "external_links": [], "uuid": "494f09e6-f808-4e53-879c-1a3c4db9c53e", "source": {"name": "Vernon", "slug": "vernon"}, "source_identifier": "6131", "external_references": [], "date_modified": "2023-08-14T10:18:01.519711+10:00"}, {"id": 32818, "name": "Seton", "roles_in_work": [{"id": 2415559, "title": "Management of the ulcerated leg", "work_id": 91282, "role": "production company", "role_id": 941, "is_primary": true}], "also_known_as": "", "date_of_birth": "", "date_of_death": "", "genders": [], "languages": [], "places_of_operation": [], "biography": "", "biography_author": null, "date_of_biography": "2023-08-11T19:41:29.634712+10:00", "external_links": [], "uuid": "a4bf210f-3e7c-4723-9190-f14ca2de7a41", "source": {"name": "Vernon", "slug": "vernon"}, "source_identifier": "12459", "external_references": [], "date_modified": "2023-08-11T19:41:29.634984+10:00"}, {"id": 32817, "name": "Jack V. Wood", "roles_in_work": [{"id": 2464571, "title": "Oddities of the law. No. 1. Laws of the road", "work_id": 91273, "role": "producer", "role_id": 1089, "is_primary": true}], "also_known_as": "", "date_of_birth": "", "date_of_death": "", "genders": [], "languages": [], "places_of_operation": [], "biography": "", "biography_author": null, "date_of_biography": "2023-08-14T10:14:23.380351+10:00", "external_links": [], "uuid": "4987270f-b0e6-43aa-bf32-58430420d03e", "source": {"name": "Vernon", "slug": "vernon"}, "source_identifier": "21102", "external_references": [], "date_modified": "2023-08-14T10:14:23.380635+10:00"}, {"id": 32812, "name": "Sasha Kamanev", "roles_in_work": [{"id": 2464657, "title": "Our Lady of Kursk", "work_id": 91258, "role": "producer", "role_id": 1089, "is_primary": true}], "also_known_as": "", "date_of_birth": "", "date_of_death": "", "genders": [], "languages": [], "places_of_operation": [], "biography": "", "biography_author": null, "date_of_biography": "2023-08-14T10:16:22.999917+10:00", "external_links": [], "uuid": "a75c80fb-b6b1-47be-82fb-61935fba8890", "source": {"name": "Vernon", "slug": "vernon"}, "source_identifier": "33550", "external_references": [], "date_modified": "2023-08-14T10:16:23.000183+10:00"}]}