{"count": 28687, "next": "https://api.acmi.net.au/creators/?page=1488", "previous": "https://api.acmi.net.au/creators/?page=1486", "results": [{"id": 34416, "name": "David Marks", "roles_in_work": [{"id": 2311136, "title": "Stomp out loud", "work_id": 92737, "role": "producer", "role_id": 1089, "is_primary": true}], "also_known_as": "", "date_of_birth": "", "date_of_death": "", "genders": [], "languages": [], "places_of_operation": [], "biography": "", "biography_author": null, "date_of_biography": "2023-05-09T18:56:57.588108+10:00", "external_links": [], "uuid": "485c7728-6b90-4618-8afc-2ab8c87a1d5d", "source": {"name": "Vernon", "slug": "vernon"}, "source_identifier": "17698", "external_references": [], "date_modified": "2023-06-14T16:33:30.576250+10:00"}, {"id": 34415, "name": "Yes/No Productions", "roles_in_work": [{"id": 2311132, "title": "Stomp out loud", "work_id": 92737, "role": "production company", "role_id": 941, "is_primary": true}], "also_known_as": "", "date_of_birth": "", "date_of_death": "", "genders": [], "languages": [], "places_of_operation": [], "biography": "", "biography_author": null, "date_of_biography": "2023-05-09T18:56:57.345341+10:00", "external_links": [], "uuid": "b38420d6-4a25-4bab-8395-f8fcd498d09b", "source": {"name": "Vernon", "slug": "vernon"}, "source_identifier": "3897", "external_references": [], "date_modified": "2023-06-14T16:33:30.576250+10:00"}, {"id": 34405, "name": "Steve York", "roles_in_work": [{"id": 2069188, "title": "A Force more powerful: a century of non-violent conflict", "work_id": 92733, "role": "producer", "role_id": 1089, "is_primary": true}], "also_known_as": "", "date_of_birth": "", "date_of_death": "", "genders": [], "languages": [], "places_of_operation": [], "biography": "", "biography_author": null, "date_of_biography": "2023-05-09T11:29:23.282007+10:00", "external_links": [], "uuid": "501ef7b6-6367-4288-865a-232028d34639", "source": {"name": "Vernon", "slug": "vernon"}, "source_identifier": "29178", "external_references": [{"id": 37694, "source": {"name": "Wikidata", "slug": "wikidata"}, "source_identifier": "Q121337419"}], "date_modified": "2023-09-06T01:31:43.993470+10:00"}, {"id": 34404, "name": "York Zimmerman", "roles_in_work": [{"id": 2069183, "title": "A Force more powerful: a century of non-violent conflict", "work_id": 92733, "role": "production company", "role_id": 941, "is_primary": true}], "also_known_as": "", "date_of_birth": "", "date_of_death": "", "genders": [], "languages": [], "places_of_operation": [], "biography": "", "biography_author": null, "date_of_biography": "2023-05-09T11:29:22.786422+10:00", "external_links": [], "uuid": "9ad094e8-283f-49d0-84c6-e729ce0ca187", "source": {"name": "Vernon", "slug": "vernon"}, "source_identifier": "14507", "external_references": [{"id": 32487, "source": {"name": "Wikidata", "slug": "wikidata"}, "source_identifier": "Q121222957"}], "date_modified": "2023-09-06T02:23:09.095461+10:00"}, {"id": 34402, "name": "Norma Farnes Management", "roles_in_work": [{"id": 2106724, "title": "BadJelly the witch", "work_id": 92731, "role": "production company", "role_id": 941, "is_primary": true}], "also_known_as": "", "date_of_birth": "", "date_of_death": "", "genders": [], "languages": [], "places_of_operation": [], "biography": "", "biography_author": null, "date_of_biography": "2023-05-09T12:39:56.075962+10:00", "external_links": [], "uuid": "177b94c4-d378-4306-b686-8c464943ac3c", "source": {"name": "Vernon", "slug": "vernon"}, "source_identifier": "10989", "external_references": [{"id": 35811, "source": {"name": "Wikidata", "slug": "wikidata"}, "source_identifier": "Q121223267"}], "date_modified": "2023-09-05T23:33:53.360863+10:00"}, {"id": 34401, "name": "Mad Chance", "roles_in_work": [{"id": 2306633, "title": "Space cowboys", "work_id": 92728, "role": "production company", "role_id": 941, "is_primary": true}], "also_known_as": "", "date_of_birth": "", "date_of_death": "", "genders": [], "languages": [], "places_of_operation": [], "biography": "", "biography_author": null, "date_of_biography": "2023-05-09T18:46:02.482935+10:00", "external_links": [], "uuid": "ef28e59d-857c-437b-bb83-d8c5e0b075a6", "source": {"name": "Vernon", "slug": "vernon"}, "source_identifier": "4697", "external_references": [{"id": 40510, "source": {"name": "Wikidata", "slug": "wikidata"}, "source_identifier": "Q3275123"}], "date_modified": "2023-09-05T22:36:05.899422+10:00"}, {"id": 34400, "name": "Clipsal Films", "roles_in_work": [{"id": 2306629, "title": "Space cowboys", "work_id": 92728, "role": "production company", "role_id": 941, "is_primary": true}], "also_known_as": "", "date_of_birth": "", "date_of_death": "", "genders": [], "languages": [], "places_of_operation": [], "biography": "", "biography_author": null, "date_of_biography": "2023-05-09T18:46:01.952345+10:00", "external_links": [], "uuid": "2c3e4b30-18c3-4736-a26b-041b07be2c5d", "source": {"name": "Vernon", "slug": "vernon"}, "source_identifier": "6829", "external_references": [{"id": 36700, "source": {"name": "Wikidata", "slug": "wikidata"}, "source_identifier": "Q121315440"}], "date_modified": "2023-09-05T18:42:38.653072+10:00"}, {"id": 34399, "name": "Alan Levi", "roles_in_work": [{"id": 2109004, "title": "Battlestar Galactica. Vol. 03", "work_id": 92723, "role": "director", "role_id": 938, "is_primary": true}], "also_known_as": "", "date_of_birth": "", "date_of_death": "", "genders": [], "languages": [], "places_of_operation": [], "biography": "", "biography_author": null, "date_of_biography": "2023-05-09T12:42:59.721305+10:00", "external_links": [], "uuid": "eddedada-cf62-4adb-a93d-bc78ba1a7755", "source": {"name": "Vernon", "slug": "vernon"}, "source_identifier": "14764", "external_references": [], "date_modified": "2023-06-14T16:33:30.576250+10:00"}, {"id": 34396, "name": "Glen A Larson Productions", "roles_in_work": [{"id": 2108955, "title": "Battlestar Galactica. Vol. 02", "work_id": 92722, "role": "production company", "role_id": 941, "is_primary": true}], "also_known_as": "", "date_of_birth": "", "date_of_death": "", "genders": [], "languages": [], "places_of_operation": [], "biography": "", "biography_author": null, "date_of_biography": "2023-05-09T12:42:55.910738+10:00", "external_links": [], "uuid": "067b9a7c-59bf-4bf1-8cd7-7d93090eeebf", "source": {"name": "Vernon", "slug": "vernon"}, "source_identifier": "8744", "external_references": [], "date_modified": "2023-06-14T16:33:30.576250+10:00"}, {"id": 34395, "name": "Daniel Haller", "roles_in_work": [{"id": 2126668, "title": "Awakening", "work_id": 92721, "role": "director", "role_id": 938, "is_primary": true}], "also_known_as": "", "date_of_birth": "", "date_of_death": "", "genders": [], "languages": [], "places_of_operation": [], "biography": "", "biography_author": null, "date_of_biography": "2023-05-09T13:12:03.262006+10:00", "external_links": [], "uuid": "46cf1b14-2d12-4717-b665-c0ee16984322", "source": {"name": "Vernon", "slug": "vernon"}, "source_identifier": "17393", "external_references": [], "date_modified": "2023-06-14T16:33:30.576250+10:00"}]}