{"count": 28687, "next": "https://api.acmi.net.au/creators/?page=127", "previous": "https://api.acmi.net.au/creators/?page=125", "results": [{"id": 84347, "name": "Jetty Distribution Pty Limited", "roles_in_work": [{"id": 2681175, "title": "Ned Kelly armour from True History of the Kelly Gang", "work_id": 100819, "role": "lender", "role_id": 626, "is_primary": false}, {"id": 2681171, "title": "Joe Byrne armour from True History of the Kelly Gang", "work_id": 100816, "role": "lender", "role_id": 626, "is_primary": false}, {"id": 2681182, "title": "Steve Hart front armour - Costume from True History of the Kelly Gang, 2019", "work_id": 100824, "role": "lender", "role_id": 626, "is_primary": false}, {"id": 2681167, "title": "Dan Kelly armour from True History of the Kelly Gang", "work_id": 100814, "role": "lender", "role_id": 626, "is_primary": false}, {"id": 2681179, "title": "Steve Hart helmet - Costume from True History of the Kelly Gang, 2019", "work_id": 100823, "role": "lender", "role_id": 626, "is_primary": false}, {"id": 2310980, "title": "Steve Hart dress from True History of the Kelly Gang", "work_id": 100522, "role": "lender", "role_id": 626, "is_primary": false}, {"id": 2310960, "title": "Dan Kelly dress from True History of the Kelly Gang", "work_id": 100521, "role": "lender", "role_id": 626, "is_primary": false}, {"id": 2310941, "title": "Joe Byrne dress from True History of the Kelly Gang", "work_id": 100523, "role": "lender", "role_id": 626, "is_primary": false}, {"id": 2310913, "title": "Ned Kelly dress from True History of the Kelly Gang", "work_id": 100524, "role": "lender", "role_id": 626, "is_primary": false}, {"id": 2681185, "title": "Steve Hart rear armour - Costume from True History of the Kelly Gang, 2019", "work_id": 100825, "role": "lender", "role_id": 626, "is_primary": false}, {"id": 2681166, "title": "Dan Kelly armour from True History of the Kelly Gang", "work_id": 100814, "role": "production company", "role_id": 941, "is_primary": true}, {"id": 2681181, "title": "Steve Hart front armour - Costume from True History of the Kelly Gang, 2019", "work_id": 100824, "role": "production company", "role_id": 941, "is_primary": true}, {"id": 2310912, "title": "Ned Kelly dress from True History of the Kelly Gang", "work_id": 100524, "role": "production company", "role_id": 941, "is_primary": true}, {"id": 2310957, "title": "Dan Kelly dress from True History of the Kelly Gang", "work_id": 100521, "role": "production company", "role_id": 941, "is_primary": true}, {"id": 2310939, "title": "Joe Byrne dress from True History of the Kelly Gang", "work_id": 100523, "role": "production company", "role_id": 941, "is_primary": true}, {"id": 2310978, "title": "Steve Hart dress from True History of the Kelly Gang", "work_id": 100522, "role": "production company", "role_id": 941, "is_primary": true}, {"id": 2681178, "title": "Steve Hart helmet - Costume from True History of the Kelly Gang, 2019", "work_id": 100823, "role": "production company", "role_id": 941, "is_primary": true}, {"id": 2681174, "title": "Ned Kelly armour from True History of the Kelly Gang", "work_id": 100819, "role": "production company", "role_id": 941, "is_primary": true}, {"id": 2681170, "title": "Joe Byrne armour from True History of the Kelly Gang", "work_id": 100816, "role": "production company", "role_id": 941, "is_primary": true}, {"id": 2681184, "title": "Steve Hart rear armour - Costume from True History of the Kelly Gang, 2019", "work_id": 100825, "role": "production company", "role_id": 941, "is_primary": true}], "also_known_as": "", "date_of_birth": "", "date_of_death": "", "genders": [], "languages": [], "places_of_operation": [], "biography": "", "biography_author": null, "date_of_biography": "2023-05-09T18:57:09.635673+10:00", "external_links": [], "uuid": "47173442-bdb8-4a79-86d8-dd4a5c32c319", "source": {"name": "Vernon", "slug": "vernon"}, "source_identifier": "39140", "external_references": [], "date_modified": "2025-03-07T01:01:13.227377+11:00"}, {"id": 84346, "name": "Conor Bateman", "roles_in_work": [{"id": 2270805, "title": "You will see me", "work_id": 117940, "role": "creator", "role_id": 968, "is_primary": true}, {"id": 3107906, "title": "Endings", "work_id": 125360, "role": "creator", "role_id": 968, "is_primary": true}, {"id": 2689182, "title": "Analects of Kung Phu: Book 1, The 69 Dialogues between the Lamp and the Shadow", "work_id": 119739, "role": "editor", "role_id": 918, "is_primary": true}], "also_known_as": "", "date_of_birth": null, "date_of_death": null, "genders": [], "languages": [], "places_of_operation": [], "biography": "", "biography_author": null, "date_of_biography": "2023-05-09T17:44:56+10:00", "external_links": [], "uuid": "87d3a55b-419e-4877-8d56-8b72e2d96cfa", "source": {"name": "Vernon", "slug": "vernon"}, "source_identifier": "39651", "external_references": [{"id": 38315, "source": {"name": "Wikidata", "slug": "wikidata"}, "source_identifier": "Q121270913"}], "date_modified": "2025-03-11T14:23:42.722730+11:00"}, {"id": 84345, "name": "James Brown", "roles_in_work": [{"id": 2590832, "title": "Alt-Right Arabesque", "work_id": 117939, "role": "composer", "role_id": 538, "is_primary": false}], "also_known_as": "", "date_of_birth": "", "date_of_death": "", "genders": [], "languages": [], "places_of_operation": [], "biography": "", "biography_author": null, "date_of_biography": "2023-07-12T03:46:12.485817+10:00", "external_links": [], "uuid": "2edf5724-a2e7-4ac5-ad1a-59f242edd878", "source": {"name": "Vernon", "slug": "vernon"}, "source_identifier": "39133", "external_references": [], "date_modified": "2025-01-01T03:35:06.790767+11:00"}, {"id": 84344, "name": "Baden Pailthorpe", "roles_in_work": [{"id": 2590831, "title": "Alt-Right Arabesque", "work_id": 117939, "role": "creator", "role_id": 968, "is_primary": true}], "also_known_as": "", "date_of_birth": "1984", "date_of_death": "", "genders": [], "languages": [], "places_of_operation": [], "biography": "", "biography_author": null, "date_of_biography": "2023-07-12T03:46:12.267226+10:00", "external_links": [], "uuid": "63954b7d-94fb-4ef7-9b10-9f9f3ea7357a", "source": {"name": "Vernon", "slug": "vernon"}, "source_identifier": "39132", "external_references": [], "date_modified": "2025-01-01T03:35:06.177062+11:00"}, {"id": 84343, "name": "Atari", "roles_in_work": [{"id": 3112405, "title": "MTV's Beavis and Butt-head for Game Boy", "work_id": 119705, "role": "publisher", "role_id": 942, "is_primary": true}, {"id": 3112512, "title": "Duke Nukem for Game Boy Color", "work_id": 119684, "role": "publisher", "role_id": 942, "is_primary": true}, {"id": 3112373, "title": "Dirt Track Racing for PC", "work_id": 119682, "role": "publisher", "role_id": 942, "is_primary": true}, {"id": 3112351, "title": "Balls of Steel for PC", "work_id": 119671, "role": "publisher", "role_id": 942, "is_primary": true}, {"id": 3112541, "title": "Powerslide for PC", "work_id": 119640, "role": "publisher", "role_id": 942, "is_primary": true}, {"id": 2681324, "title": "Basketball arcade cabinet", "work_id": 117936, "role": "creator", "role_id": 968, "is_primary": true}], "also_known_as": "", "date_of_birth": "", "date_of_death": "", "genders": [], "languages": [], "places_of_operation": [], "biography": "", "biography_author": null, "date_of_biography": "2023-08-31T22:35:01.759044+10:00", "external_links": [], "uuid": "07e5d47c-2c12-4d70-90df-8c803e0a2ada", "source": {"name": "Vernon", "slug": "vernon"}, "source_identifier": "39303", "external_references": [], "date_modified": "2026-06-12T10:40:34.778921+10:00"}, {"id": 84342, "name": "Namco", "roles_in_work": [{"id": 2686357, "title": "Ms Pac Man Mame cabinet", "work_id": 117938, "role": "creator", "role_id": 968, "is_primary": true}], "also_known_as": "", "date_of_birth": "1955", "date_of_death": "", "genders": [], "languages": [], "places_of_operation": [], "biography": "", "biography_author": null, "date_of_biography": "2023-05-09T12:42:26.041347+10:00", "external_links": [], "uuid": "0e9858d0-6bd3-4920-81df-07c77482bf2b", "source": {"name": "Vernon", "slug": "vernon"}, "source_identifier": "39650", "external_references": [], "date_modified": "2025-03-11T12:18:53.430906+11:00"}, {"id": 84341, "name": "Midway", "roles_in_work": [{"id": 3112411, "title": "NBA Showtime: NBA on NBC for Game Boy Color", "work_id": 119725, "role": "publisher", "role_id": 942, "is_primary": true}, {"id": 2686356, "title": "Ms Pac Man Mame cabinet", "work_id": 117938, "role": "creator", "role_id": 968, "is_primary": true}], "also_known_as": "", "date_of_birth": "1958", "date_of_death": "", "genders": [], "languages": [], "places_of_operation": [], "biography": "", "biography_author": null, "date_of_biography": "2023-05-09T20:04:20.139182+10:00", "external_links": [], "uuid": "1a3664fc-e460-4364-8054-ca539b3eb1d1", "source": {"name": "Vernon", "slug": "vernon"}, "source_identifier": "39649", "external_references": [], "date_modified": "2026-06-12T10:34:22.094027+10:00"}, {"id": 84340, "name": "General Computer Corporation", "roles_in_work": [{"id": 2686355, "title": "Ms Pac Man Mame cabinet", "work_id": 117938, "role": "creator", "role_id": 968, "is_primary": true}], "also_known_as": "", "date_of_birth": "1981", "date_of_death": "", "genders": [], "languages": [], "places_of_operation": [], "biography": "", "biography_author": null, "date_of_biography": "2023-05-09T12:42:25.597716+10:00", "external_links": [], "uuid": "0e86d78b-20b5-42ae-abd0-b29327d722a6", "source": {"name": "Vernon", "slug": "vernon"}, "source_identifier": "39647", "external_references": [], "date_modified": "2025-03-11T12:18:52.268184+11:00"}, {"id": 84339, "name": "Arcade Classics", "roles_in_work": [{"id": 2686354, "title": "Custom MAME arcade machine ", "work_id": 100549, "role": "creator", "role_id": 968, "is_primary": true}], "also_known_as": "", "date_of_birth": "", "date_of_death": "", "genders": [], "languages": [], "places_of_operation": [], "biography": "", "biography_author": null, "date_of_biography": "2023-08-31T22:35:00.657594+10:00", "external_links": [], "uuid": "fb1f1df4-8ff9-4ae3-8de5-0f27357c7c9a", "source": {"name": "Vernon", "slug": "vernon"}, "source_identifier": "39646", "external_references": [], "date_modified": "2025-03-11T12:18:51.294206+11:00"}, {"id": 84338, "name": "Cinematronics", "roles_in_work": [{"id": 2681323, "title": "Dragon's Lair arcade cabinet", "work_id": 100854, "role": "creator", "role_id": 968, "is_primary": true}], "also_known_as": "", "date_of_birth": "1975", "date_of_death": "", "genders": [], "languages": [], "places_of_operation": [], "biography": "", "biography_author": null, "date_of_biography": "2023-05-17T03:36:03.415124+10:00", "external_links": [], "uuid": "f82f07b4-29f9-4eb3-b68d-c2a79e18e13f", "source": {"name": "Vernon", "slug": "vernon"}, "source_identifier": "39645", "external_references": [], "date_modified": "2025-03-07T01:19:41.448731+11:00"}]}