{"count": 28681, "next": "https://api.acmi.net.au/creators/?page=2528", "previous": "https://api.acmi.net.au/creators/?page=2526", "results": [{"id": 13557, "name": "Bureau of National Affairs", "roles_in_work": [{"id": 878856, "title": "The Marvelous mousetrap", "work_id": 91425, "role": "production company", "role_id": 941, "is_primary": true}, {"id": 2679317, "title": "The Case of the missing magnets", "work_id": 65845, "role": "production company", "role_id": 941, "is_primary": true}], "also_known_as": "", "date_of_birth": "", "date_of_death": "", "genders": [], "languages": [], "places_of_operation": [], "biography": "", "biography_author": null, "date_of_biography": "2023-08-14T11:06:15.308229+10:00", "external_links": [], "uuid": "d8625328-f27d-4cf3-bcb2-095bdc57ca9d", "source": {"name": "Vernon", "slug": "vernon"}, "source_identifier": "6128", "external_references": [], "date_modified": "2025-03-07T00:11:13.160855+11:00"}, {"id": 13556, "name": "John Percival", "roles_in_work": [{"id": 2763879, "title": "That certain age", "work_id": 73648, "role": "director", "role_id": 938, "is_primary": true}, {"id": 2763854, "title": "Marriage under stress: children make the difference", "work_id": 70169, "role": "director", "role_id": 938, "is_primary": true}, {"id": 2648742, "title": "Married life (TEFC)", "work_id": 79903, "role": "producer", "role_id": 1089, "is_primary": true}, {"id": 2763829, "title": "A Case of suicide", "work_id": 65844, "role": "producer", "role_id": 1089, "is_primary": true}, {"id": 1815149, "title": "Birth (TEFC)", "work_id": 80429, "role": "producer", "role_id": 1089, "is_primary": true}, {"id": 1819760, "title": "The Family of man. Part 3. Weddings (TEFC)", "work_id": 80428, "role": "producer", "role_id": 1089, "is_primary": true}, {"id": 1819747, "title": "Children (TEFC)", "work_id": 80427, "role": "producer", "role_id": 1089, "is_primary": true}], "also_known_as": "", "date_of_birth": "", "date_of_death": "", "genders": [], "languages": [], "places_of_operation": [], "biography": "", "biography_author": null, "date_of_biography": "2023-05-09T14:50:22.543523+10:00", "external_links": [], "uuid": "f38b890d-14a4-451d-967d-c69cbc621166", "source": {"name": "Vernon", "slug": "vernon"}, "source_identifier": "22463", "external_references": [{"id": 39220, "source": {"name": "Wikidata", "slug": "wikidata"}, "source_identifier": "Q121222737"}], "date_modified": "2025-03-14T17:44:05.559192+11:00"}, {"id": 13555, "name": "Brian Gibson", "roles_in_work": [{"id": 917741, "title": "Tina: what's love got to do with it", "work_id": 95265, "role": "director", "role_id": 938, "is_primary": true}, {"id": 752233, "title": "The Roadholders", "work_id": 72280, "role": "director", "role_id": 938, "is_primary": true}, {"id": 772093, "title": "Billion dollar bubble: the true story of the biggest fraud of all time (TEFC)", "work_id": 80432, "role": "director", "role_id": 938, "is_primary": true}, {"id": 1426550, "title": "Joey: the autobiography of Joey Deacon (TEFC)", "work_id": 80435, "role": "director", "role_id": 938, "is_primary": true}, {"id": 2761642, "title": "Let the therapy fit the crime", "work_id": 69601, "role": "co-producer", "role_id": 915, "is_primary": true}, {"id": 2761418, "title": "A Case of depression", "work_id": 65843, "role": "producer", "role_id": 1089, "is_primary": true}], "also_known_as": "", "date_of_birth": "22 SEP 1944", "date_of_death": "04 JAN 2004", "genders": [{"id": 9, "name": "Male", "slug": "male"}], "languages": [{"id": 1, "name": "English", "slug": "english"}], "places_of_operation": [{"id": 10, "name": "United Kingdom", "slug": "united-kingdom"}], "biography": "Brian Gibson (22 September 1944 – 4 January 2004) was an English film and television director. Source: Wikidata; 01/08/2023", "biography_author": null, "date_of_biography": "2025-03-14T17:34:28.942772+11:00", "external_links": [{"id": 3674, "uri": "https://en.wikipedia.org/wiki/Brian_Gibson_(director)"}], "uuid": "02907ef5-011d-4fe7-8721-8256debec010", "source": {"name": "Vernon", "slug": "vernon"}, "source_identifier": "16217", "external_references": [{"id": 25327, "source": {"name": "Wikidata", "slug": "wikidata"}, "source_identifier": "Q912217"}, {"id": 27582, "source": {"name": "VIAF", "slug": "viaf"}, "source_identifier": "42039795"}, {"id": 27583, "source": {"name": "LOC Auth", "slug": "loc-auth"}, "source_identifier": "n99835561"}, {"id": 27584, "source": {"name": "WorldCat", "slug": "worldcat"}, "source_identifier": "lccn-n99835561"}], "date_modified": "2025-03-14T17:34:28.943080+11:00"}, {"id": 13554, "name": "Rob Iveson", "roles_in_work": [{"id": 2679311, "title": "The Case of Barbara Parsons", "work_id": 65842, "role": "producer", "role_id": 1089, "is_primary": true}], "also_known_as": "", "date_of_birth": null, "date_of_death": null, "genders": [], "languages": [], "places_of_operation": [], "biography": "", "biography_author": null, "date_of_biography": null, "external_links": [], "uuid": "2a896c46-4bb1-4128-b3c2-85913a848449", "source": {"name": "Vernon", "slug": "vernon"}, "source_identifier": "27597", "external_references": [], "date_modified": "2025-03-07T00:11:08.697265+11:00"}, {"id": 13553, "name": "Labor Canada", "roles_in_work": [{"id": 2679310, "title": "The Case of Barbara Parsons", "work_id": 65842, "role": "production company", "role_id": 941, "is_primary": true}], "also_known_as": "", "date_of_birth": null, "date_of_death": null, "genders": [], "languages": [], "places_of_operation": [], "biography": "", "biography_author": null, "date_of_biography": null, "external_links": [], "uuid": "9eb64f14-68d8-465a-813e-6b901df6a400", "source": {"name": "Vernon", "slug": "vernon"}, "source_identifier": "9882", "external_references": [], "date_modified": "2025-03-07T00:11:08.101044+11:00"}, {"id": 13552, "name": "Parker Film Associates", "roles_in_work": [{"id": 860408, "title": "A Voice in the city", "work_id": 74416, "role": "production company", "role_id": 941, "is_primary": true}, {"id": 2679309, "title": "The Case of Barbara Parsons", "work_id": 65842, "role": "production company", "role_id": 941, "is_primary": true}], "also_known_as": "", "date_of_birth": null, "date_of_death": null, "genders": [], "languages": [], "places_of_operation": [], "biography": "", "biography_author": null, "date_of_biography": null, "external_links": [], "uuid": "834cdc21-2ef9-4734-9042-0e3d38306100", "source": {"name": "Vernon", "slug": "vernon"}, "source_identifier": "11304", "external_references": [], "date_modified": "2025-03-07T00:11:07.512138+11:00"}, {"id": 13551, "name": "Peter M Plaskitt", "roles_in_work": [{"id": 856969, "title": "Planned for the purpose", "work_id": 71619, "role": "director", "role_id": 938, "is_primary": true}, {"id": 2679306, "title": "A Case for handling", "work_id": 65840, "role": "director", "role_id": 938, "is_primary": true}], "also_known_as": "", "date_of_birth": null, "date_of_death": null, "genders": [], "languages": [], "places_of_operation": [], "biography": "", "biography_author": null, "date_of_biography": null, "external_links": [], "uuid": "738b339d-ff28-4986-b7c4-d933810906d8", "source": {"name": "Vernon", "slug": "vernon"}, "source_identifier": "26623", "external_references": [], "date_modified": "2025-03-07T00:11:05.124735+11:00"}, {"id": 13550, "name": "Henry Lewes", "roles_in_work": [{"id": 876727, "title": "Tomorrow's today", "work_id": 90232, "role": "director", "role_id": 938, "is_primary": true}, {"id": 2645160, "title": "I'm ready to learn", "work_id": 68770, "role": "director", "role_id": 938, "is_primary": true}, {"id": 2763494, "title": "Perth", "work_id": 71498, "role": "director", "role_id": 938, "is_primary": true}, {"id": 2679302, "title": "The Case for books", "work_id": 65839, "role": "co-director", "role_id": 959, "is_primary": true}, {"id": 2043874, "title": "Look after your bicycle! [Junior Road Safety Series Episode 3]", "work_id": 96122, "role": "writer", "role_id": 939, "is_primary": true}], "also_known_as": "", "date_of_birth": "", "date_of_death": "", "genders": [], "languages": [], "places_of_operation": [], "biography": "", "biography_author": null, "date_of_biography": "2023-08-09T03:49:01.742367+10:00", "external_links": [], "uuid": "102be086-6095-4264-8d5a-936dd582fb03", "source": {"name": "Vernon", "slug": "vernon"}, "source_identifier": "20498", "external_references": [], "date_modified": "2025-03-14T17:42:00.290129+11:00"}, {"id": 13549, "name": "Aegis Productions", "roles_in_work": [{"id": 2679299, "title": "The Case against rubella", "work_id": 65838, "role": "production company", "role_id": 941, "is_primary": true}, {"id": 2468005, "title": "The Right Track", "work_id": 72238, "role": "production company", "role_id": 941, "is_primary": true}], "also_known_as": "", "date_of_birth": "", "date_of_death": "", "genders": [], "languages": [], "places_of_operation": [], "biography": "", "biography_author": null, "date_of_biography": "2023-08-14T11:31:49.377133+10:00", "external_links": [], "uuid": "bc9a0491-e55c-4ef4-abad-736c623771af", "source": {"name": "Vernon", "slug": "vernon"}, "source_identifier": "5041", "external_references": [], "date_modified": "2025-03-07T00:10:58.745038+11:00"}, {"id": 13548, "name": "Lewis Gilbert", "roles_in_work": [{"id": 2237034, "title": "Reach for the sky (Captioned)", "work_id": 82810, "role": "director", "role_id": 938, "is_primary": true}, {"id": 2795054, "title": "You only live twice", "work_id": 88103, "role": "director", "role_id": 938, "is_primary": true}, {"id": 817382, "title": "The Spy who loved me (Special edition)", "work_id": 93878, "role": "director", "role_id": 938, "is_primary": true}, {"id": 2237003, "title": "Reach for the sky", "work_id": 83057, "role": "director", "role_id": 938, "is_primary": true}, {"id": 857512, "title": "Reach for the sky [study extract]", "work_id": 72068, "role": "director", "role_id": 938, "is_primary": true}, {"id": 2679298, "title": "Carve her name with pride [study extract]", "work_id": 65837, "role": "director", "role_id": 938, "is_primary": true}, {"id": 2084365, "title": "Alfie", "work_id": 83879, "role": "director", "role_id": 938, "is_primary": true}, {"id": 817412, "title": "Moonraker (Special edition)", "work_id": 93884, "role": "director", "role_id": 938, "is_primary": true}, {"id": 2679297, "title": "Carve her name with pride [study extract]", "work_id": 65837, "role": "co-producer", "role_id": 915, "is_primary": true}, {"id": 1810049, "title": "It's a small world", "work_id": 88741, "role": "producer", "role_id": 1089, "is_primary": true}, {"id": 1995386, "title": "Shirley Valentine", "work_id": 91465, "role": "producer/director", "role_id": 31, "is_primary": true}, {"id": 2754663, "title": "Educating Rita", "work_id": 99301, "role": "producer/director", "role_id": 31, "is_primary": true}, {"id": 870540, "title": "Not quite Jerusalem", "work_id": 86381, "role": "producer/director", "role_id": 31, "is_primary": true}], "also_known_as": "", "date_of_birth": "06 MAR 1920", "date_of_death": "23 FEB 2018", "genders": [{"id": 9, "name": "Male", "slug": "male"}], "languages": [{"id": 1, "name": "English", "slug": "english"}], "places_of_operation": [{"id": 10, "name": "United Kingdom", "slug": "united-kingdom"}], "biography": "Lewis Gilbert  (6 March 1920 – 23 February 2018) was an English film director, producer and screenwriter who directed more than 40 films during six decades; among them such varied titles as Reach for the Sky (1956), Sink the Bismarck! (1960), Alfie (1966), Educating Rita (1983) and Shirley Valentine (1989), as well as three James Bond films: You Only Live Twice (1967), The Spy Who Loved Me (1977) and Moonraker (1979). Source: Wikidata; 01/08/2023", "biography_author": null, "date_of_biography": "2025-03-14T20:29:54.505195+11:00", "external_links": [{"id": 4545, "uri": "https://en.wikipedia.org/wiki/Lewis_Gilbert"}], "uuid": "ec09efe6-cc40-4998-bb25-4f13bf68b39a", "source": {"name": "Vernon", "slug": "vernon"}, "source_identifier": "23810", "external_references": [{"id": 26166, "source": {"name": "Wikidata", "slug": "wikidata"}, "source_identifier": "Q303891"}, {"id": 29934, "source": {"name": "VIAF", "slug": "viaf"}, "source_identifier": "71578041"}, {"id": 29935, "source": {"name": "LOC Auth", "slug": "loc-auth"}, "source_identifier": "n88034568"}, {"id": 29936, "source": {"name": "WorldCat", "slug": "worldcat"}, "source_identifier": "lccn-n88034568"}], "date_modified": "2025-03-14T20:29:54.505518+11:00"}]}