{"count": 28687, "next": "https://api.acmi.net.au/creators/?page=1883", "previous": "https://api.acmi.net.au/creators/?page=1881", "results": [{"id": 24806, "name": "Joyce Fox", "roles_in_work": [{"id": 2785403, "title": "Pre-modern, 1845-1900", "work_id": 82590, "role": "director", "role_id": 938, "is_primary": true}, {"id": 2785455, "title": "The Baroque, 1545-1715", "work_id": 82597, "role": "director", "role_id": 938, "is_primary": true}, {"id": 2785428, "title": "The Twentieth Century: 1900-present", "work_id": 82592, "role": "director", "role_id": 938, "is_primary": true}, {"id": 2785521, "title": "History through art", "work_id": 115300, "role": "director", "role_id": 938, "is_primary": true}, {"id": 2785509, "title": "Ancient Greece: 800 BC - 146 BC", "work_id": 82601, "role": "director", "role_id": 938, "is_primary": true}, {"id": 2785496, "title": "Middle ages, AD 1 - AD 1450", "work_id": 82600, "role": "director", "role_id": 938, "is_primary": true}, {"id": 2785483, "title": "Ancient Rome: 509B.C. - A.D.476", "work_id": 82599, "role": "director", "role_id": 938, "is_primary": true}, {"id": 2785442, "title": "The Renaissance: 1400-1550", "work_id": 82596, "role": "director", "role_id": 938, "is_primary": true}], "also_known_as": "", "date_of_birth": "", "date_of_death": "", "genders": [], "languages": [], "places_of_operation": [], "biography": "", "biography_author": null, "date_of_biography": "2023-05-09T19:24:48.956435+10:00", "external_links": [], "uuid": "ff84df25-f1bf-45ef-9724-32d0be29d9b4", "source": {"name": "Vernon", "slug": "vernon"}, "source_identifier": "22780", "external_references": [{"id": 36652, "source": {"name": "Wikidata", "slug": "wikidata"}, "source_identifier": "Q121057926"}], "date_modified": "2025-03-14T19:24:47.183833+11:00"}, {"id": 24802, "name": "Clearvue", "roles_in_work": [{"id": 2785446, "title": "The Baroque, 1545-1715", "work_id": 82597, "role": "production company", "role_id": 941, "is_primary": true}, {"id": 2785419, "title": "The Twentieth Century: 1900-present", "work_id": 82592, "role": "production company", "role_id": 941, "is_primary": true}, {"id": 2785407, "title": "Romanticism, 1789-1860", "work_id": 82591, "role": "production company", "role_id": 941, "is_primary": true}, {"id": 2785394, "title": "Pre-modern, 1845-1900", "work_id": 82590, "role": "production company", "role_id": 941, "is_primary": true}, {"id": 1846676, "title": "20th century artistic movements", "work_id": 83237, "role": "production company", "role_id": 941, "is_primary": true}, {"id": 2785387, "title": "Pop & op art", "work_id": 82589, "role": "production company", "role_id": 941, "is_primary": true}, {"id": 2785432, "title": "The Renaissance: 1400-1550", "work_id": 82596, "role": "production company", "role_id": 941, "is_primary": true}, {"id": 2785500, "title": "Ancient Greece: 800 BC - 146 BC", "work_id": 82601, "role": "production company", "role_id": 941, "is_primary": true}, {"id": 2785459, "title": "Enlightenment, 1715-1789", "work_id": 82598, "role": "production company", "role_id": 941, "is_primary": true}, {"id": 2785472, "title": "Ancient Rome: 509B.C. - A.D.476", "work_id": 82599, "role": "production company", "role_id": 941, "is_primary": true}], "also_known_as": "", "date_of_birth": "", "date_of_death": "", "genders": [], "languages": [], "places_of_operation": [], "biography": "", "biography_author": null, "date_of_biography": "2023-05-09T19:24:49.744136+10:00", "external_links": [], "uuid": "be45c55c-86d0-41ac-8ed4-a953d0589b97", "source": {"name": "Vernon", "slug": "vernon"}, "source_identifier": "6816", "external_references": [{"id": 43544, "source": {"name": "Wikidata", "slug": "wikidata"}, "source_identifier": "Q121222972"}], "date_modified": "2025-03-14T19:24:40.492120+11:00"}, {"id": 24801, "name": "Julia Spark", "roles_in_work": [{"id": 2752445, "title": "Coastal dunes", "work_id": 98302, "role": "producer", "role_id": 1089, "is_primary": true}, {"id": 2749250, "title": "Snowdonia", "work_id": 96710, "role": "producer", "role_id": 1089, "is_primary": true}, {"id": 2749253, "title": "The Land: South Lancashire coast", "work_id": 96711, "role": "producer", "role_id": 1089, "is_primary": true}, {"id": 1812003, "title": "The Land: Cumbrian Lake District", "work_id": 96709, "role": "producer", "role_id": 1089, "is_primary": true}, {"id": 2784977, "title": "Aspects of Central Place", "work_id": 98301, "role": "producer", "role_id": 1089, "is_primary": true}, {"id": 2784989, "title": "Waves and beaches", "work_id": 98190, "role": "producer", "role_id": 1089, "is_primary": true}, {"id": 2749472, "title": "The River Dee in Scotland", "work_id": 96822, "role": "producer", "role_id": 1089, "is_primary": true}, {"id": 2749256, "title": "The Land: the South Pembrokeshire coast", "work_id": 96712, "role": "producer", "role_id": 1089, "is_primary": true}, {"id": 2791279, "title": "We don't want to live on our knees", "work_id": 84732, "role": "producer/director", "role_id": 31, "is_primary": true}, {"id": 2791282, "title": "Back from the Brink", "work_id": 84731, "role": "producer/director", "role_id": 31, "is_primary": true}, {"id": 2791276, "title": "The Master race", "work_id": 82587, "role": "producer/director", "role_id": 31, "is_primary": true}, {"id": 2791273, "title": "Tiger at the gate", "work_id": 82586, "role": "producer/director", "role_id": 31, "is_primary": true}, {"id": 2791270, "title": "The Red tsar", "work_id": 82585, "role": "producer/director", "role_id": 31, "is_primary": true}, {"id": 2791267, "title": "Il Duce", "work_id": 84730, "role": "producer/director", "role_id": 31, "is_primary": true}, {"id": 2791264, "title": "The Red dawn", "work_id": 82584, "role": "producer/director", "role_id": 31, "is_primary": true}, {"id": 2791263, "title": "History in action", "work_id": 115416, "role": "producer/director", "role_id": 31, "is_primary": true}, {"id": 2791261, "title": "History in action", "work_id": 115416, "role": "producer/director", "role_id": 31, "is_primary": true}, {"id": 2650009, "title": "The Smell of war", "work_id": 82583, "role": "producer/director", "role_id": 31, "is_primary": true}, {"id": 779385, "title": "One false step", "work_id": 82588, "role": "producer/director", "role_id": 31, "is_primary": true}, {"id": 2791262, "title": "The Red dawn", "work_id": 82584, "role": "production company", "role_id": 941, "is_primary": true}], "also_known_as": "", "date_of_birth": null, "date_of_death": null, "genders": [], "languages": [], "places_of_operation": [], "biography": "", "biography_author": null, "date_of_biography": null, "external_links": [], "uuid": "eefbe4c0-80f1-4558-b880-073786d47b50", "source": {"name": "Vernon", "slug": "vernon"}, "source_identifier": "22847", "external_references": [], "date_modified": "2025-03-14T20:02:48.624718+11:00"}, {"id": 24799, "name": "Dibb Directions", "roles_in_work": [{"id": 2786513, "title": "The Training of painters", "work_id": 82582, "role": "production company", "role_id": 941, "is_primary": true}], "also_known_as": "", "date_of_birth": "", "date_of_death": "", "genders": [], "languages": [], "places_of_operation": [], "biography": "", "biography_author": null, "date_of_biography": "2023-05-09T18:23:54.860666+10:00", "external_links": [], "uuid": "37c47def-fe2a-4555-af65-a700fe9d9b36", "source": {"name": "Vernon", "slug": "vernon"}, "source_identifier": "7558", "external_references": [], "date_modified": "2025-03-14T19:32:29.397262+11:00"}, {"id": 24796, "name": "Judith Wechsler", "roles_in_work": [{"id": 2786517, "title": "The Training of painters", "work_id": 82582, "role": "director", "role_id": 938, "is_primary": true}, {"id": 2786506, "title": "Painting and the public: patronage, museums and the art market", "work_id": 82580, "role": "director", "role_id": 938, "is_primary": true}, {"id": 2786509, "title": "Portraits", "work_id": 82581, "role": "producer/director", "role_id": 31, "is_primary": true}, {"id": 2786491, "title": "Abstraction", "work_id": 82577, "role": "producer/director", "role_id": 31, "is_primary": true}, {"id": 2786495, "title": "The Arrested moment", "work_id": 82578, "role": "producer/director", "role_id": 31, "is_primary": true}, {"id": 2786499, "title": "The Artist and the nude", "work_id": 82579, "role": "producer/director", "role_id": 31, "is_primary": true}, {"id": 2786520, "title": "The Painter's world: changing constants of art from the Renaissance to the present", "work_id": 115320, "role": "producer/director", "role_id": 31, "is_primary": true}, {"id": 2786504, "title": "Painting and the public: patronage, museums and the art market", "work_id": 82580, "role": "production company", "role_id": 941, "is_primary": true}, {"id": 2786490, "title": "Abstraction", "work_id": 82577, "role": "production company", "role_id": 941, "is_primary": true}, {"id": 2786519, "title": "The Painter's world: changing constants of art from the Renaissance to the present", "work_id": 115320, "role": "production company", "role_id": 941, "is_primary": true}, {"id": 2786514, "title": "The Training of painters", "work_id": 82582, "role": "production company", "role_id": 941, "is_primary": true}, {"id": 2786494, "title": "The Arrested moment", "work_id": 82578, "role": "production company", "role_id": 941, "is_primary": true}, {"id": 2786498, "title": "The Artist and the nude", "work_id": 82579, "role": "production company", "role_id": 941, "is_primary": true}], "also_known_as": "", "date_of_birth": "", "date_of_death": "", "genders": [], "languages": [], "places_of_operation": [], "biography": "", "biography_author": null, "date_of_biography": "2023-05-09T18:24:01.270301+10:00", "external_links": [], "uuid": "e484e70c-ad10-459a-bec3-ea2c3a15d107", "source": {"name": "Vernon", "slug": "vernon"}, "source_identifier": "22804", "external_references": [{"id": 36218, "source": {"name": "Wikidata", "slug": "wikidata"}, "source_identifier": "Q121091448"}], "date_modified": "2025-03-14T19:32:34.250315+11:00"}, {"id": 24795, "name": "Brian Little", "roles_in_work": [{"id": 1847437, "title": "Oakie Doke and the orchestra", "work_id": 86316, "role": "director", "role_id": 938, "is_primary": true}, {"id": 2615355, "title": "Noddy and the naughty tail", "work_id": 85346, "role": "director", "role_id": 938, "is_primary": true}, {"id": 2170345, "title": "Noddy's Toyland adventures", "work_id": 82574, "role": "director", "role_id": 938, "is_primary": true}], "also_known_as": "", "date_of_birth": "", "date_of_death": "", "genders": [], "languages": [], "places_of_operation": [], "biography": "", "biography_author": null, "date_of_biography": "2023-05-09T14:33:42.230848+10:00", "external_links": [], "uuid": "15f92e97-2864-47d7-a981-8690baac3d06", "source": {"name": "Vernon", "slug": "vernon"}, "source_identifier": "16237", "external_references": [], "date_modified": "2025-02-26T20:22:39.716682+11:00"}, {"id": 24794, "name": "Ellipse", "roles_in_work": [{"id": 2341162, "title": "Cigars of the Pharaoh", "work_id": 84267, "role": "production company", "role_id": 941, "is_primary": true}, {"id": 2341205, "title": "The Crab with the golden claws", "work_id": 84265, "role": "production company", "role_id": 941, "is_primary": true}, {"id": 2341134, "title": "The Adventures of Tintin", "work_id": 115396, "role": "production company", "role_id": 941, "is_primary": true}, {"id": 2340848, "title": "The Secret of the unicorn", "work_id": 84266, "role": "production company", "role_id": 941, "is_primary": true}, {"id": 2649994, "title": "Babar. School days; King Tuttle's vote", "work_id": 82571, "role": "production company", "role_id": 941, "is_primary": true}, {"id": 2615164, "title": "The Blue lotus", "work_id": 84919, "role": "production company", "role_id": 941, "is_primary": true}, {"id": 2105879, "title": "Babar. Elephant's best friend; The Show must go on", "work_id": 82721, "role": "production company", "role_id": 941, "is_primary": true}, {"id": 2341184, "title": "Tintin in Tibet", "work_id": 85198, "role": "production company", "role_id": 941, "is_primary": true}], "also_known_as": "", "date_of_birth": "", "date_of_death": "", "genders": [], "languages": [], "places_of_operation": [], "biography": "Ellipse Animation (formerly known as Le Studio Ellipse, Ellipse Programme and Ellipsanime) is a French animation studio that produces television programs. It was founded in 1987.\nIn February 2000 it merged with Expand SA; Expand sold the company to Dargaud in 2003, and it became Ellipsanime in 2004. In 2014, Ellipsanime bought the assets of Moonscoop SA.Ellipse has worked with many other animation companies, with one good example being the Canadian animation firm Nelvana Limited. Their early collaboration goes back to the television animated adaptation of the My Pet Monster franchise in 1987. The first official collaboration was in 1989 following the release of Nelvana and Ellipse's co-production, the Babar Movie in 1989. They then worked on the Babar animated series in 2000. Nelvana has since co-produced on Ellipse's series from 1991 to 1996. Such examples during the era from the company would be Babar, The Adventures of Tintin and Blazing Dragons.\nOn the occasion of the Annecy International Animation Film Festival in June 2022, the Media-Participations group announces the creation of an umbrella brand Ellipse Animation which brings together its production labels in France Ellipsanime Productions, Dargaud Media and Dupuis Edition & Audiovisual.", "biography_author": "Wikidata", "date_of_biography": "2023-09-05T19:30:25.453167+10:00", "external_links": [{"id": 5795, "uri": "https://en.wikipedia.org/wiki/Ellipsanime"}], "uuid": "172c8709-1bc2-4d70-a8ad-7b2f5e586297", "source": {"name": "Vernon", "slug": "vernon"}, "source_identifier": "4621", "external_references": [{"id": 33521, "source": {"name": "Wikidata", "slug": "wikidata"}, "source_identifier": "Q44224"}, {"id": 54374, "source": {"name": "VIAF", "slug": "viaf"}, "source_identifier": "142147037"}, {"id": 54375, "source": {"name": "WorldCat", "slug": "worldcat"}, "source_identifier": "viaf-142147037"}], "date_modified": "2025-03-05T14:08:18.933097+11:00"}, {"id": 24789, "name": "Dennis Abey", "roles_in_work": [{"id": 1846975, "title": "Nursery rhymes and songs", "work_id": 83889, "role": "director", "role_id": 938, "is_primary": true}, {"id": 2282306, "title": "The Tale of Peter Rabbit and Benjamin Bunny", "work_id": 82568, "role": "co-director", "role_id": 959, "is_primary": true}, {"id": 2282360, "title": "The Tale of the Flopsy bunnies and Mrs. Tittlemouse", "work_id": 85115, "role": "co-director", "role_id": 959, "is_primary": true}, {"id": 2282300, "title": "The Tale of Peter Rabbit and Benjamin Bunny", "work_id": 82568, "role": "co-producer", "role_id": 915, "is_primary": true}], "also_known_as": "", "date_of_birth": "", "date_of_death": "", "genders": [], "languages": [], "places_of_operation": [], "biography": "", "biography_author": null, "date_of_biography": "2023-05-09T18:02:34.575545+10:00", "external_links": [], "uuid": "fcf531c9-5bf9-44de-8947-763b23969c05", "source": {"name": "Vernon", "slug": "vernon"}, "source_identifier": "17986", "external_references": [{"id": 39410, "source": {"name": "Wikidata", "slug": "wikidata"}, "source_identifier": "Q113427520"}], "date_modified": "2023-09-05T19:08:31.139171+10:00"}, {"id": 24788, "name": "Ginger Gibbons", "roles_in_work": [{"id": 2282296, "title": "The Tale of Peter Rabbit and Benjamin Bunny", "work_id": 82568, "role": "co-producer", "role_id": 915, "is_primary": true}, {"id": 2614323, "title": "The Tale of Mrs. Tiggy-winkle and Mr. Jeremy Fisher", "work_id": 83503, "role": "producer", "role_id": 1089, "is_primary": true}], "also_known_as": "", "date_of_birth": "", "date_of_death": "", "genders": [], "languages": [], "places_of_operation": [], "biography": "", "biography_author": null, "date_of_biography": "2023-05-09T18:02:31.929031+10:00", "external_links": [], "uuid": "1b7811b8-01db-4cd9-ad82-29209f67c09a", "source": {"name": "Vernon", "slug": "vernon"}, "source_identifier": "19853", "external_references": [{"id": 42125, "source": {"name": "Wikidata", "slug": "wikidata"}, "source_identifier": "Q121337555"}], "date_modified": "2025-02-26T20:09:29.462925+11:00"}, {"id": 24787, "name": "Grand Slamm Partnership", "roles_in_work": [{"id": 2282294, "title": "The Tale of Peter Rabbit and Benjamin Bunny", "work_id": 82568, "role": "production company", "role_id": 941, "is_primary": true}], "also_known_as": "", "date_of_birth": "", "date_of_death": "", "genders": [], "languages": [], "places_of_operation": [], "biography": "", "biography_author": null, "date_of_biography": "2023-05-09T18:02:26.559096+10:00", "external_links": [], "uuid": "c88b7790-67ac-4750-8e8b-273120ffc12f", "source": {"name": "Vernon", "slug": "vernon"}, "source_identifier": "8844", "external_references": [{"id": 39307, "source": {"name": "Wikidata", "slug": "wikidata"}, "source_identifier": "Q121337244"}], "date_modified": "2023-09-05T20:19:39.371079+10:00"}]}