{"count": 28687, "next": "https://api.acmi.net.au/creators/?page=12", "previous": "https://api.acmi.net.au/creators/?page=10", "results": [{"id": 87681, "name": "Alamy", "roles_in_work": [{"id": 3097601, "title": "Metropolis\nFilm Poster\n\nGiorgio Moroder Soundtrack", "work_id": 122868, "role": "", "role_id": 604, "is_primary": false}, {"id": 3097597, "title": "Blade, Wesley Snipes, 1998", "work_id": 122867, "role": "", "role_id": 604, "is_primary": false}, {"id": 3097587, "title": "Maasai women near their village in Amboseli National Park, Kenya, East Africa.", "work_id": 122881, "role": "", "role_id": 604, "is_primary": false}, {"id": 3097607, "title": "Pumzi", "work_id": 122870, "role": "", "role_id": 604, "is_primary": false}, {"id": 3097603, "title": "Nichelle Nichols as Uhura in Star Trek (1966)", "work_id": 122866, "role": "", "role_id": 604, "is_primary": false}, {"id": 3097593, "title": "Zulu woman in traditional head dress", "work_id": 122880, "role": "", "role_id": 604, "is_primary": false}, {"id": 3097596, "title": "Beyonce Renaissance tour", "work_id": 122869, "role": "", "role_id": 604, "is_primary": false}], "also_known_as": "", "date_of_birth": null, "date_of_death": null, "genders": [], "languages": [], "places_of_operation": [], "biography": "", "biography_author": null, "date_of_biography": null, "external_links": [], "uuid": "9d90c340-5c8e-4089-a9fc-b392fae2ffaf", "source": {"name": "Vernon", "slug": "vernon"}, "source_identifier": "40461", "external_references": [], "date_modified": "2025-05-08T22:38:52.549671+10:00"}, {"id": 87680, "name": "David Corio/Redferns", "roles_in_work": [{"id": 3097600, "title": "George Clinton entering the Mothership at Central Park, New York, United States on 4 July 1996. (Photo by David Corio/Redferns)", "work_id": 122865, "role": "photographer", "role_id": 440, "is_primary": false}], "also_known_as": "", "date_of_birth": null, "date_of_death": null, "genders": [], "languages": [], "places_of_operation": [], "biography": "", "biography_author": null, "date_of_biography": null, "external_links": [], "uuid": "4290be82-4163-4691-9807-c08a245a5b25", "source": {"name": "Vernon", "slug": "vernon"}, "source_identifier": "40856", "external_references": [], "date_modified": "2025-05-08T22:38:47.048551+10:00"}, {"id": 87679, "name": "Allan Tannenbaum", "roles_in_work": [{"id": 3097606, "title": "Portrait of American Jazz musician and bandleader Sun Ra and members of his Arkestra", "work_id": 122864, "role": "photographer", "role_id": 440, "is_primary": false}], "also_known_as": "", "date_of_birth": null, "date_of_death": null, "genders": [], "languages": [], "places_of_operation": [], "biography": "", "biography_author": null, "date_of_biography": null, "external_links": [], "uuid": "dd690b32-1c58-44db-9bdd-c9624132cc62", "source": {"name": "Vernon", "slug": "vernon"}, "source_identifier": "40855", "external_references": [], "date_modified": "2025-05-08T22:38:51.656983+10:00"}, {"id": 87678, "name": "Getty Images", "roles_in_work": [{"id": 3097599, "title": "George Clinton entering the Mothership at Central Park, New York, United States on 4 July 1996. (Photo by David Corio/Redferns)", "work_id": 122865, "role": "", "role_id": 604, "is_primary": false}, {"id": 3097586, "title": "Four Young Women from Turkana Tribe", "work_id": 122882, "role": "", "role_id": 604, "is_primary": false}, {"id": 3097605, "title": "Portrait of American Jazz musician and bandleader Sun Ra and members of his Arkestra", "work_id": 122864, "role": "", "role_id": 604, "is_primary": false}], "also_known_as": "", "date_of_birth": null, "date_of_death": null, "genders": [], "languages": [], "places_of_operation": [], "biography": "", "biography_author": null, "date_of_biography": null, "external_links": [], "uuid": "c6a16b63-e208-45f3-84de-38773bb6940a", "source": {"name": "Vernon", "slug": "vernon"}, "source_identifier": "40458", "external_references": [], "date_modified": "2025-05-08T22:38:51.075764+10:00"}, {"id": 87677, "name": "Jack Kirby", "roles_in_work": [{"id": 3097590, "title": "Original concept drawing for the Black Panther (original name: Coal Tiger)", "work_id": 122863, "role": "artist", "role_id": 505, "is_primary": true}, {"id": 3097580, "title": "Black Panther\nPencil drawing 1982", "work_id": 122873, "role": "artist", "role_id": 505, "is_primary": true}, {"id": 3097582, "title": "Black Panther\nSketch", "work_id": 122872, "role": "artist", "role_id": 505, "is_primary": true}, {"id": 3097585, "title": "Fantastic Four #52\nAlt Cover Art\n1966", "work_id": 122874, "role": "artist", "role_id": 505, "is_primary": true}], "also_known_as": "", "date_of_birth": null, "date_of_death": null, "genders": [], "languages": [], "places_of_operation": [], "biography": "", "biography_author": null, "date_of_biography": null, "external_links": [], "uuid": "583fdd65-6713-46f9-84eb-5c4f3198b9ee", "source": {"name": "Vernon", "slug": "vernon"}, "source_identifier": "40857", "external_references": [], "date_modified": "2025-05-08T22:38:34.771705+10:00"}, {"id": 87676, "name": "Xan Black", "roles_in_work": [{"id": 3097602, "title": "Neptune Frost Poster", "work_id": 122862, "role": "designer", "role_id": 495, "is_primary": false}], "also_known_as": "", "date_of_birth": null, "date_of_death": null, "genders": [], "languages": [], "places_of_operation": [], "biography": "", "biography_author": null, "date_of_biography": null, "external_links": [], "uuid": "23177fa3-4f0b-4376-a328-d5a379328380", "source": {"name": "Vernon", "slug": "vernon"}, "source_identifier": "40821", "external_references": [], "date_modified": "2025-05-08T22:38:48.960561+10:00"}, {"id": 87675, "name": "Bob Peak", "roles_in_work": [{"id": 3097609, "title": "The Wiz (1978) poster", "work_id": 122860, "role": "artist", "role_id": 505, "is_primary": true}], "also_known_as": "", "date_of_birth": null, "date_of_death": null, "genders": [], "languages": [], "places_of_operation": [], "biography": "", "biography_author": null, "date_of_biography": null, "external_links": [], "uuid": "7f698d1f-293a-4781-8587-b68072532567", "source": {"name": "Vernon", "slug": "vernon"}, "source_identifier": "40818", "external_references": [], "date_modified": "2025-05-08T22:38:54.462707+10:00"}, {"id": 87674, "name": "Ryan Meinerding", "roles_in_work": [{"id": 3097574, "title": "Black Panther Costume (Civil War)", "work_id": 122858, "role": "costume designer", "role_id": 961, "is_primary": true}], "also_known_as": "", "date_of_birth": null, "date_of_death": null, "genders": [], "languages": [], "places_of_operation": [], "biography": "", "biography_author": null, "date_of_biography": null, "external_links": [], "uuid": "7516a35b-87a6-4222-87fa-02e54ff51c25", "source": {"name": "Vernon", "slug": "vernon"}, "source_identifier": "40807", "external_references": [], "date_modified": "2025-05-08T22:38:25.339335+10:00"}, {"id": 87673, "name": "Ruth Carter", "roles_in_work": [{"id": 3097591, "title": "Ramonda with Headpiece (Wakanda Forever)", "work_id": 122855, "role": "costume designer", "role_id": 961, "is_primary": true}, {"id": 3097592, "title": "Shuri Warrior Costume (Black Panther)", "work_id": 122856, "role": "costume designer", "role_id": 961, "is_primary": true}, {"id": 3097588, "title": "Okoye Dora Milaje (Black Panther)", "work_id": 122857, "role": "costume designer", "role_id": 961, "is_primary": true}], "also_known_as": "", "date_of_birth": null, "date_of_death": null, "genders": [], "languages": [], "places_of_operation": [], "biography": "", "biography_author": null, "date_of_biography": null, "external_links": [], "uuid": "2ae6b496-b810-429a-b03a-1097db925a07", "source": {"name": "Vernon", "slug": "vernon"}, "source_identifier": "40806", "external_references": [], "date_modified": "2025-05-08T22:38:38.275684+10:00"}, {"id": 87672, "name": "Osheen Siva", "roles_in_work": [{"id": 3097562, "title": "Tamil Futures", "work_id": 122884, "role": "artist", "role_id": 505, "is_primary": true}, {"id": 3097559, "title": "Tamil Futures 2", "work_id": 122852, "role": "artist", "role_id": 505, "is_primary": true}, {"id": 3097560, "title": "Tamil Futures 3", "work_id": 122853, "role": "artist", "role_id": 505, "is_primary": true}, {"id": 3097561, "title": "Tamil Futures", "work_id": 122851, "role": "artist", "role_id": 505, "is_primary": true}], "also_known_as": "", "date_of_birth": "1993", "date_of_death": null, "genders": [{"id": 5, "name": "Female", "slug": "female"}], "languages": [], "places_of_operation": [], "biography": "", "biography_author": null, "date_of_biography": null, "external_links": [], "uuid": "8c48fc12-2684-458b-bb61-a9b5f9a4d571", "source": {"name": "Vernon", "slug": "vernon"}, "source_identifier": "40754", "external_references": [], "date_modified": "2025-05-08T22:38:07.580707+10:00"}]}