{"count": 28687, "next": "https://api.acmi.net.au/creators/?page=240", "previous": "https://api.acmi.net.au/creators/?page=238", "results": [{"id": 83217, "name": "Jean-Claude Bonnardot", "roles_in_work": [{"id": 3105003, "title": "Ballade Pour Un Voyou = Ballad for a Scoundrel", "work_id": 116197, "role": "director", "role_id": 938, "is_primary": true}], "also_known_as": "", "date_of_birth": "", "date_of_death": "", "genders": [], "languages": [], "places_of_operation": [], "biography": "", "biography_author": null, "date_of_biography": "2023-05-09T12:40:28.461731+10:00", "external_links": [], "uuid": "d8388224-3d9e-4eb8-9365-0383709023ba", "source": {"name": "Vernon", "slug": "vernon"}, "source_identifier": "31242", "external_references": [{"id": 39269, "source": {"name": "Wikidata", "slug": "wikidata"}, "source_identifier": "Q121144231"}], "date_modified": "2025-05-22T22:55:18.649601+10:00"}, {"id": 83216, "name": "Michel Piccoli", "roles_in_work": [{"id": 3105000, "title": "Des Enfants Gates = Spoiled Children", "work_id": 116196, "role": "producer", "role_id": 1089, "is_primary": true}], "also_known_as": "Jacques Daniel Michel Piccoli", "date_of_birth": "27 DEC 1925", "date_of_death": "12 MAY 2020", "genders": [{"id": 9, "name": "Male", "slug": "male"}], "languages": [{"id": 4, "name": "French", "slug": "french"}], "places_of_operation": [{"id": 17, "name": "France", "slug": "france"}], "biography": "Jacques Daniel Michel Piccoli (27 December 1925 – 12 May 2020) was a French actor, producer and film director with a career spanning 70 years. He was lauded as one of the greatest French character actors of his generation who played a wide variety of roles and worked with many acclaimed directors, being awarded with a Best Actor Award at the Cannes Film Festival and a Silver Bear for Best Actor at the Berlin Film Festival. Source: Wikidata; 01/08/2023", "biography_author": null, "date_of_biography": "2025-05-22T22:55:17.158991+10:00", "external_links": [{"id": 2734, "uri": "https://en.wikipedia.org/wiki/Michel_Piccoli"}], "uuid": "6fef661f-9885-44f2-8845-5cc8b8eecd3d", "source": {"name": "Vernon", "slug": "vernon"}, "source_identifier": "31241", "external_references": [{"id": 11656, "source": {"name": "Wikidata", "slug": "wikidata"}, "source_identifier": "Q295257"}, {"id": 11657, "source": {"name": "VIAF", "slug": "viaf"}, "source_identifier": "115031380"}, {"id": 11658, "source": {"name": "LOC Auth", "slug": "loc-auth"}, "source_identifier": "n91127248"}, {"id": 11659, "source": {"name": "WorldCat", "slug": "worldcat"}, "source_identifier": "lccn-n91127248"}], "date_modified": "2025-05-22T22:55:17.159403+10:00"}, {"id": 83215, "name": "Edouard Luntz", "roles_in_work": [{"id": 3105104, "title": "Le Dernier Saut = the Last Leap", "work_id": 116248, "role": "director", "role_id": 938, "is_primary": true}, {"id": 3104991, "title": "Les Coeurs Verts = the Green Hearts", "work_id": 116192, "role": "director", "role_id": 938, "is_primary": true}], "also_known_as": "", "date_of_birth": "1931-08-08", "date_of_death": "2009-02-26", "genders": [{"id": 9, "name": "Male", "slug": "male"}], "languages": [{"id": 4, "name": "French", "slug": "french"}], "places_of_operation": [{"id": 17, "name": "France", "slug": "france"}], "biography": "Édouard Luntz (8 August 1931 – 26 February 2009) was a French film director. He directed nine films between 1959 and 1973. His 1966 film Les coeurs verts was entered into the 16th Berlin International Film Festival and his 1970 film Le dernier saut was entered into the 1970 Cannes Film Festival.", "biography_author": "Wikidata", "date_of_biography": "2023-09-05T19:24:39.383368+10:00", "external_links": [{"id": 1967, "uri": "https://en.wikipedia.org/wiki/%C3%89douard_Luntz"}], "uuid": "1fed4ab5-7cf7-4d5f-b4c4-38af380575d7", "source": {"name": "Vernon", "slug": "vernon"}, "source_identifier": "31240", "external_references": [{"id": 8512, "source": {"name": "Wikidata", "slug": "wikidata"}, "source_identifier": "Q3579943"}, {"id": 8513, "source": {"name": "VIAF", "slug": "viaf"}, "source_identifier": "59346392"}, {"id": 8514, "source": {"name": "LOC Auth", "slug": "loc-auth"}, "source_identifier": "no2014164208"}, {"id": 8515, "source": {"name": "WorldCat", "slug": "worldcat"}, "source_identifier": "lccn-no2014164208"}], "date_modified": "2025-05-22T22:56:33.333718+10:00"}, {"id": 83214, "name": "Jean-Pierre Denis", "roles_in_work": [{"id": 3104988, "title": "Histoire D'adrien = Story of Adrien", "work_id": 116190, "role": "director", "role_id": 938, "is_primary": true}], "also_known_as": "", "date_of_birth": "29 MAR 1946", "date_of_death": "", "genders": [{"id": 9, "name": "Male", "slug": "male"}], "languages": [{"id": 4, "name": "French", "slug": "french"}], "places_of_operation": [{"id": 17, "name": "France", "slug": "france"}], "biography": "Jean-Pierre Denis (born 29 March 1946) is a French film director and screenwriter. He has directed seven films since 1980. His directorial debut Adrien's Story won the Caméra d'Or at the 1980 Cannes Film Festival. His film Field of Honor was entered into the 1987 Cannes Film Festival. Source: Wikidata; 15/08/2023", "biography_author": null, "date_of_biography": "2025-05-22T22:55:09.370750+10:00", "external_links": [{"id": 4287, "uri": "https://en.wikipedia.org/wiki/Jean-Pierre_Denis"}], "uuid": "17e5bd86-79be-4d18-83f8-1e9bd4e523c7", "source": {"name": "Vernon", "slug": "vernon"}, "source_identifier": "31239", "external_references": [{"id": 26498, "source": {"name": "Wikidata", "slug": "wikidata"}, "source_identifier": "Q1748183"}, {"id": 29264, "source": {"name": "VIAF", "slug": "viaf"}, "source_identifier": "51636544"}, {"id": 29265, "source": {"name": "LOC Auth", "slug": "loc-auth"}, "source_identifier": "nr2003032613"}, {"id": 29266, "source": {"name": "WorldCat", "slug": "worldcat"}, "source_identifier": "lccn-nr2003032613"}], "date_modified": "2025-05-22T22:55:09.371077+10:00"}, {"id": 83213, "name": "Aline Isserman", "roles_in_work": [{"id": 3104987, "title": "Le Destin de Juliette = the Destiny of Juliette", "work_id": 116189, "role": "director", "role_id": 938, "is_primary": true}], "also_known_as": "", "date_of_birth": "1948-11-16", "date_of_death": "", "genders": [{"id": 5, "name": "Female", "slug": "female"}], "languages": [{"id": 4, "name": "French", "slug": "french"}], "places_of_operation": [{"id": 17, "name": "France", "slug": "france"}], "biography": "Aline Issermann (born 16 November 1948 in Paris) is a French filmmaker. She began her career as an author and illustrator of comics, then became director of feature films and television films. Among her films are Le Destin de Juliette (1983), L'Amant magnifique (1986), La Vallée des anges (1988), L'Ombre du doute (1993),  Dieu, l'amant de ma mère et le fils du charcutier (1995) and Cherche fiancé tous frais payés (2007).", "biography_author": "Wikidata", "date_of_biography": "2023-09-05T17:28:48.033202+10:00", "external_links": [{"id": 5666, "uri": "https://en.wikipedia.org/wiki/Aline_Issermann"}], "uuid": "ca60b481-bf18-4094-9fdf-b5683ffafd9a", "source": {"name": "Vernon", "slug": "vernon"}, "source_identifier": "31238", "external_references": [{"id": 51190, "source": {"name": "Wikidata", "slug": "wikidata"}, "source_identifier": "Q2837029"}, {"id": 53922, "source": {"name": "VIAF", "slug": "viaf"}, "source_identifier": "24808434"}, {"id": 53923, "source": {"name": "WorldCat", "slug": "worldcat"}, "source_identifier": "viaf-24808434"}], "date_modified": "2025-05-22T22:55:08.527002+10:00"}, {"id": 83212, "name": "Eric Lambert", "roles_in_work": [{"id": 3104986, "title": "Le Destin de Juliette = the Destiny of Juliette", "work_id": 116189, "role": "producer", "role_id": 1089, "is_primary": true}], "also_known_as": "", "date_of_birth": "", "date_of_death": "", "genders": [], "languages": [], "places_of_operation": [], "biography": "", "biography_author": null, "date_of_biography": "2023-08-11T19:20:18.526674+10:00", "external_links": [], "uuid": "5f3e2883-c1d2-4d33-bb1a-dafa9c36ea31", "source": {"name": "Vernon", "slug": "vernon"}, "source_identifier": "31237", "external_references": [{"id": 42119, "source": {"name": "Wikidata", "slug": "wikidata"}, "source_identifier": "Q121035965"}], "date_modified": "2025-05-22T22:55:07.928167+10:00"}, {"id": 83211, "name": "Leopold Schlosberg", "roles_in_work": [{"id": 3104984, "title": "La Proie Pour L'ombre = Shadow of Adultery (Cinemascope Print)", "work_id": 116188, "role": "producer", "role_id": 1089, "is_primary": true}], "also_known_as": "", "date_of_birth": "1899-06-27", "date_of_death": "1976-04-12", "genders": [{"id": 9, "name": "Male", "slug": "male"}], "languages": [{"id": 4, "name": "French", "slug": "french"}], "places_of_operation": [{"id": 17, "name": "France", "slug": "france"}], "biography": "", "biography_author": null, "date_of_biography": null, "external_links": [], "uuid": "ed48d75e-324a-456c-8a64-6602bc9a0ed9", "source": {"name": "Vernon", "slug": "vernon"}, "source_identifier": "31236", "external_references": [{"id": 38204, "source": {"name": "Wikidata", "slug": "wikidata"}, "source_identifier": "Q121034202"}], "date_modified": "2025-05-22T22:55:06.466753+10:00"}, {"id": 83210, "name": "Philippe Joulia", "roles_in_work": [{"id": 3104978, "title": "Six Chevaux Bleus = Six Blue Horses", "work_id": 116184, "role": "director", "role_id": 938, "is_primary": true}], "also_known_as": "", "date_of_birth": "", "date_of_death": "", "genders": [], "languages": [], "places_of_operation": [], "biography": "", "biography_author": null, "date_of_biography": "2023-05-09T18:37:42.949155+10:00", "external_links": [], "uuid": "798073cc-2f9f-422e-8ef6-5b4426a5bd96", "source": {"name": "Vernon", "slug": "vernon"}, "source_identifier": "31235", "external_references": [{"id": 34823, "source": {"name": "Wikidata", "slug": "wikidata"}, "source_identifier": "Q121298997"}], "date_modified": "2025-05-22T22:55:02.366453+10:00"}, {"id": 83209, "name": "Michel Peynet", "roles_in_work": [{"id": 3104977, "title": "Six Chevaux Bleus = Six Blue Horses", "work_id": 116184, "role": "producer", "role_id": 1089, "is_primary": true}], "also_known_as": "", "date_of_birth": "", "date_of_death": "", "genders": [], "languages": [], "places_of_operation": [], "biography": "", "biography_author": null, "date_of_biography": "2023-05-09T18:37:42.719551+10:00", "external_links": [], "uuid": "1f84723a-de17-417d-889b-9a5369601957", "source": {"name": "Vernon", "slug": "vernon"}, "source_identifier": "31234", "external_references": [{"id": 38322, "source": {"name": "Wikidata", "slug": "wikidata"}, "source_identifier": "Q121034406"}], "date_modified": "2025-05-22T22:55:01.767896+10:00"}, {"id": 83208, "name": "Pierre Jallaud", "roles_in_work": [{"id": 3104976, "title": "La Chaise Vide = the Empty Chair", "work_id": 116183, "role": "director", "role_id": 938, "is_primary": true}], "also_known_as": "Pierre Ernest Jallaud", "date_of_birth": "1922-10-10", "date_of_death": "2006-02-17", "genders": [{"id": 9, "name": "Male", "slug": "male"}], "languages": [{"id": 4, "name": "French", "slug": "french"}], "places_of_operation": [{"id": 17, "name": "France", "slug": "france"}], "biography": "", "biography_author": null, "date_of_biography": "2023-08-11T19:10:31.735184+10:00", "external_links": [], "uuid": "155d4f27-a74c-4490-9b93-2aff340e11fc", "source": {"name": "Vernon", "slug": "vernon"}, "source_identifier": "31233", "external_references": [{"id": 37362, "source": {"name": "Wikidata", "slug": "wikidata"}, "source_identifier": "Q3385564"}, {"id": 55539, "source": {"name": "VIAF", "slug": "viaf"}, "source_identifier": "44506387"}, {"id": 55540, "source": {"name": "WorldCat", "slug": "worldcat"}, "source_identifier": "viaf-44506387"}], "date_modified": "2025-05-22T22:55:00.899424+10:00"}]}