{"count": 28683, "next": "https://api.acmi.net.au/creators/?page=1104", "previous": "https://api.acmi.net.au/creators/?page=1102", "results": [{"id": 74548, "name": "David Low", "roles_in_work": [{"id": 2712117, "title": "Dipping sheep", "work_id": 66789, "role": "cast", "role_id": 33, "is_primary": false}, {"id": 3112143, "title": "[Cinesound Review 1950-1965]", "work_id": 117853, "role": "narrator", "role_id": 499, "is_primary": false}, {"id": 2109103, "title": "Be clean and healthy", "work_id": 95707, "role": "narrator", "role_id": 499, "is_primary": false}], "also_known_as": "", "date_of_birth": "", "date_of_death": "", "genders": [{"id": 9, "name": "Male", "slug": "male"}], "languages": [], "places_of_operation": [], "biography": "", "biography_author": null, "date_of_biography": "2023-08-02T10:16:50.278448+10:00", "external_links": [], "uuid": "5674a5e8-3023-45ad-b5c0-40371d26895e", "source": {"name": "Vernon", "slug": "vernon"}, "source_identifier": "37534", "external_references": [{"id": 35515, "source": {"name": "Wikidata", "slug": "wikidata"}, "source_identifier": "Q121299528"}], "date_modified": "2026-04-16T17:41:00.405144+10:00"}, {"id": 74547, "name": "S.M. Dolan", "roles_in_work": [{"id": 2712116, "title": "Dipping sheep", "work_id": 66789, "role": "cinematographer", "role_id": 32, "is_primary": false}], "also_known_as": "", "date_of_birth": "", "date_of_death": "", "genders": [], "languages": [], "places_of_operation": [], "biography": "", "biography_author": null, "date_of_biography": "2023-05-09T15:12:03.814938+10:00", "external_links": [], "uuid": "823e2084-21e4-4911-96ae-57c33c1111f4", "source": {"name": "Vernon", "slug": "vernon"}, "source_identifier": "33000", "external_references": [{"id": 35839, "source": {"name": "Wikidata", "slug": "wikidata"}, "source_identifier": "Q121315523"}], "date_modified": "2025-03-12T00:10:56.325001+11:00"}, {"id": 74546, "name": "Bernard Longpre", "roles_in_work": [{"id": 2712110, "title": "Dimensions", "work_id": 66784, "role": "director", "role_id": 938, "is_primary": true}, {"id": 2130709, "title": "Carrousel", "work_id": 77876, "role": "director", "role_id": 938, "is_primary": true}, {"id": 2645769, "title": "Nebule", "work_id": 70796, "role": "director", "role_id": 938, "is_primary": true}, {"id": 2175217, "title": "One way street = Les Naufrages du quartier", "work_id": 76855, "role": "director", "role_id": 938, "is_primary": true}, {"id": 2174647, "title": "Monsieur Pointu", "work_id": 70554, "role": "co-director", "role_id": 959, "is_primary": true}], "also_known_as": "", "date_of_birth": "", "date_of_death": "", "genders": [], "languages": [], "places_of_operation": [], "biography": "", "biography_author": null, "date_of_biography": "2023-05-09T15:11:42.499798+10:00", "external_links": [], "uuid": "7762095d-6300-4c81-95df-6950be274fd6", "source": {"name": "Vernon", "slug": "vernon"}, "source_identifier": "15838", "external_references": [], "date_modified": "2025-03-12T00:10:49.789899+11:00"}, {"id": 74545, "name": "Jacques Bobet", "roles_in_work": [{"id": 2714454, "title": "Game in 21 points", "work_id": 67934, "role": "director", "role_id": 938, "is_primary": true}, {"id": 2289866, "title": "What are you running for? = Qusque tu vas de meme?", "work_id": 87684, "role": "director", "role_id": 938, "is_primary": true}, {"id": 2072694, "title": "A Piece of cake = Cest pas chinois", "work_id": 77110, "role": "director", "role_id": 938, "is_primary": true}, {"id": 2064098, "title": "26 times in a row", "work_id": 90335, "role": "director", "role_id": 938, "is_primary": true}, {"id": 2103267, "title": "Atlantic parks = Parcs Atlantique", "work_id": 76257, "role": "co-director", "role_id": 959, "is_primary": true}, {"id": 2147780, "title": "Cries from the deep", "work_id": 85770, "role": "co-producer", "role_id": 915, "is_primary": true}, {"id": 2712968, "title": "A Child in his country = Un Enfant un pays", "work_id": 67177, "role": "co-producer", "role_id": 915, "is_primary": true}, {"id": 895109, "title": "The Moontrap", "work_id": 70567, "role": "co-producer", "role_id": 915, "is_primary": true}, {"id": 897526, "title": "John Raftery amateur boxer", "work_id": 77618, "role": "co-producer", "role_id": 915, "is_primary": true}, {"id": 897523, "title": "John Raftery amateur boxer", "work_id": 77617, "role": "co-producer", "role_id": 915, "is_primary": true}, {"id": 2159381, "title": "Cycling: still the greatest", "work_id": 77620, "role": "co-producer", "role_id": 915, "is_primary": true}, {"id": 2349026, "title": "The Followers", "work_id": 78065, "role": "co-producer", "role_id": 915, "is_primary": true}, {"id": 2714771, "title": "Going the distance", "work_id": 68107, "role": "producer", "role_id": 1089, "is_primary": true}, {"id": 2712109, "title": "Dimensions", "work_id": 66784, "role": "producer", "role_id": 1089, "is_primary": true}, {"id": 2615666, "title": "Feux follets", "work_id": 85897, "role": "producer", "role_id": 1089, "is_primary": true}, {"id": 2230848, "title": "Precision", "work_id": 89835, "role": "producer", "role_id": 1089, "is_primary": true}, {"id": 1819259, "title": "Olympic swimmers", "work_id": 71082, "role": "producer", "role_id": 1089, "is_primary": true}, {"id": 2308386, "title": "Stampede", "work_id": 73157, "role": "producer", "role_id": 1089, "is_primary": true}, {"id": 2195842, "title": "Diving: no place for cowards", "work_id": 77606, "role": "producer", "role_id": 1089, "is_primary": true}, {"id": 2064474, "title": "30 minutes, Mister Plummer", "work_id": 88660, "role": "producer", "role_id": 1089, "is_primary": true}, {"id": 1809572, "title": "The Story of a violin", "work_id": 73228, "role": "producer", "role_id": 1089, "is_primary": true}, {"id": 2065153, "title": "60 cycles", "work_id": 72871, "role": "producer", "role_id": 1089, "is_primary": true}, {"id": 2171696, "title": "Monica Goermann: gymnast", "work_id": 85726, "role": "producer", "role_id": 1089, "is_primary": true}, {"id": 1803831, "title": "Nelli Kim", "work_id": 78084, "role": "producer", "role_id": 1089, "is_primary": true}, {"id": 2223656, "title": "Explorations: wrestling", "work_id": 74960, "role": "producer", "role_id": 1089, "is_primary": true}], "also_known_as": "", "date_of_birth": "29 JUN 1919", "date_of_death": "07 MAR 1996", "genders": [{"id": 9, "name": "Male", "slug": "male"}], "languages": [{"id": 4, "name": "French", "slug": "french"}], "places_of_operation": [{"id": 17, "name": "France", "slug": "france"}], "biography": "Jacques Bobet  (born Saumur, France, June 29, 1919–died Montréal, March 7, 1996) was a French filmmaker who played a key role in the National Film Board of Canada's move into French language filmmaking.\n\nFollowing a brief stint teaching literature and philosophy in France, Jacques Bobet immigrated to Canada and joined the NFB in 1947 as a writer at a time when 90 percent of the staff was English-speaking and its French Unit found it hard to retain French Canadian filmmakers. Bobet worked to strengthen the French Unit and retain French talent, and was appointed producer of French versions in 1951. By 1956, when he was named executive producer of the newly created Versions Unit, he had been involved in versioning approximately 500 films. That same year, the NFB's headquarters was relocated from Ottawa to Montreal, improving the NFB's reputation in French Canada and making the NFB more attractive to French-speaking filmmakers. In 1959, Bobet assumed responsibility for producing more original French-language films. In 1964, a separate French production branch was finally established, with Bobet as one of the four executive producers.He oversaw the production of some of the most important films made in Quebec during the 1960s: La lutte', The Cat in the Bag (Le Chat dans le sac), Pour la suite du monde, The Times That Are (Le Règne du jour) and The River Schooners (Les Voitures d'eau). His personal favourite was the mammoth project (more than 100 kilometres of film was shot,) Games of the XXI Olympiad, the official film of the 1976 Montreal Olympics.\n\nIn 1982 Bobet was appointed head of NFB/private-industry co-productions, and in 1983 became executive producer of Studio C (French-language feature production). He retired from the board in 1984 but continued to teach and he co-wrote the script for The Tadpole and the Whale. Bobet once said the job of a producer was 'to do all those little things that you don't see in bringing a movie to the screen.' Source: Wikidata; 01/08/2023", "biography_author": null, "date_of_biography": "2025-03-12T01:20:33.779796+11:00", "external_links": [{"id": 4234, "uri": "https://en.wikipedia.org/wiki/Jacques_Bobet"}], "uuid": "c0c50879-90c5-4344-b296-2e098bd0510d", "source": {"name": "Vernon", "slug": "vernon"}, "source_identifier": "21139", "external_references": [{"id": 25494, "source": {"name": "Wikidata", "slug": "wikidata"}, "source_identifier": "Q3158301"}, {"id": 29120, "source": {"name": "VIAF", "slug": "viaf"}, "source_identifier": "41647266"}, {"id": 29121, "source": {"name": "LOC Auth", "slug": "loc-auth"}, "source_identifier": "no2008053845"}, {"id": 29122, "source": {"name": "WorldCat", "slug": "worldcat"}, "source_identifier": "lccn-no2008053845"}], "date_modified": "2025-03-12T01:20:33.780075+11:00"}, {"id": 74544, "name": "Diederik d'Ailly", "roles_in_work": [{"id": 2775651, "title": "The Last of life", "work_id": 75862, "role": "producer/director", "role_id": 31, "is_primary": true}, {"id": 2775611, "title": "The Differences are inherited", "work_id": 66776, "role": "producer/director", "role_id": 31, "is_primary": true}], "also_known_as": "", "date_of_birth": "", "date_of_death": "", "genders": [], "languages": [], "places_of_operation": [], "biography": "", "biography_author": null, "date_of_biography": "2023-05-09T20:05:32.302256+10:00", "external_links": [], "uuid": "758c60bf-3d3a-46e1-8efc-2659e2b2575a", "source": {"name": "Vernon", "slug": "vernon"}, "source_identifier": "18136", "external_references": [{"id": 51811, "source": {"name": "Wikidata", "slug": "wikidata"}, "source_identifier": "Q121360792"}], "date_modified": "2025-03-14T18:44:29.219754+11:00"}, {"id": 74543, "name": "James Mason", "roles_in_work": [{"id": 2334202, "title": "The Boys from Brazil", "work_id": 84629, "role": "cast", "role_id": 33, "is_primary": false}, {"id": 2712086, "title": "The Die hard: the legend of Lasseter's lost gold reef", "work_id": 66770, "role": "cast", "role_id": 33, "is_primary": false}], "also_known_as": "James Neville Mason", "date_of_birth": "15 MAY 1909", "date_of_death": "27 JUL 1984", "genders": [{"id": 9, "name": "Male", "slug": "male"}], "languages": [], "places_of_operation": [{"id": 10, "name": "United Kingdom", "slug": "united-kingdom"}], "biography": "James Neville Mason (; 15 May 1909 – 27 July 1984) was an English actor. He achieved considerable success in British cinema before becoming a star in Hollywood. He was the top box-office attraction in the UK in 1944 and 1945; his British films included The Seventh Veil (1945) and The Wicked Lady (1945). He starred in Odd Man Out (1947), the first recipient of the BAFTA Award for Best British Film.\n\nMason starred in such films as George Cukor's A Star Is Born (1954), Alfred Hitchcock's North by Northwest (1959), Stanley Kubrick's Lolita (1962), Warren Beatty's Heaven Can Wait (1978), and Sidney Lumet's The Verdict (1982). He also starred in a number of successful British and American films from the 1950s to the early 1980s, including: The Desert Fox (1951), Julius Caesar (1953), Bigger Than Life (1956), 20,000 Leagues Under the Sea (1954),\n\nJourney to the Center of the Earth (1959),\n\nGeorgy Girl (1966), and The Boys from Brazil (1978).\n\nMason was nominated for three Academy Awards, three Golden Globes (winning the Golden Globe in 1955 for A Star is Born) and two BAFTA Awards throughout his career. Following his death in 1984, his ashes were interred near the tomb of his close friend, fellow English actor Sir Charlie Chaplin. Source: Wikidata; 01/08/2023", "biography_author": null, "date_of_biography": "2025-03-12T00:10:25.643728+11:00", "external_links": [{"id": 4256, "uri": "https://en.wikipedia.org/wiki/James_Mason"}], "uuid": "19f509ac-a5d6-484b-8e6f-2de79fdeae5c", "source": {"name": "Vernon", "slug": "vernon"}, "source_identifier": "37620", "external_references": [{"id": 26849, "source": {"name": "Wikidata", "slug": "wikidata"}, "source_identifier": "Q209186"}, {"id": 29178, "source": {"name": "VIAF", "slug": "viaf"}, "source_identifier": "51852845"}, {"id": 29179, "source": {"name": "LOC Auth", "slug": "loc-auth"}, "source_identifier": "n50044100"}, {"id": 29180, "source": {"name": "WorldCat", "slug": "worldcat"}, "source_identifier": "lccn-n50044100"}], "date_modified": "2025-03-12T00:10:25.644078+11:00"}, {"id": 74542, "name": "Lorne Batchelor", "roles_in_work": [{"id": 2644530, "title": "Dick Hickey: blacksmith", "work_id": 66766, "role": "co-producer", "role_id": 915, "is_primary": true}], "also_known_as": "", "date_of_birth": "", "date_of_death": "", "genders": [], "languages": [], "places_of_operation": [], "biography": "", "biography_author": null, "date_of_biography": "2023-05-09T15:06:48.519583+10:00", "external_links": [], "uuid": "7ade3421-662e-4504-881c-d0eb5a1c1c6e", "source": {"name": "Vernon", "slug": "vernon"}, "source_identifier": "23997", "external_references": [{"id": 41751, "source": {"name": "Wikidata", "slug": "wikidata"}, "source_identifier": "Q121091138"}], "date_modified": "2025-03-05T12:20:50.985489+11:00"}, {"id": 74541, "name": "Dave Bennett", "roles_in_work": [{"id": 2644529, "title": "Dick Hickey: blacksmith", "work_id": 66766, "role": "co-producer", "role_id": 915, "is_primary": true}], "also_known_as": "", "date_of_birth": "", "date_of_death": "", "genders": [], "languages": [], "places_of_operation": [], "biography": "", "biography_author": null, "date_of_biography": "2023-05-09T15:06:48.286162+10:00", "external_links": [], "uuid": "2b22bc81-9e63-4d15-b7d9-46640856a9f3", "source": {"name": "Vernon", "slug": "vernon"}, "source_identifier": "17460", "external_references": [{"id": 41503, "source": {"name": "Wikidata", "slug": "wikidata"}, "source_identifier": "Q121299135"}], "date_modified": "2025-03-05T12:20:50.402840+11:00"}, {"id": 74540, "name": "Milan Chvostek", "roles_in_work": [{"id": 2775603, "title": "Diabetes", "work_id": 66758, "role": "producer/director", "role_id": 31, "is_primary": true}, {"id": 2775669, "title": "The Invisible reef", "work_id": 76130, "role": "producer/director", "role_id": 31, "is_primary": true}], "also_known_as": "", "date_of_birth": "", "date_of_death": "", "genders": [], "languages": [], "places_of_operation": [], "biography": "", "biography_author": null, "date_of_biography": "2023-05-09T20:05:08.899683+10:00", "external_links": [], "uuid": "98a18580-22bd-434f-ab03-e1a1d9ac4390", "source": {"name": "Vernon", "slug": "vernon"}, "source_identifier": "25423", "external_references": [{"id": 50972, "source": {"name": "Wikidata", "slug": "wikidata"}, "source_identifier": "Q121360890"}], "date_modified": "2025-03-14T18:44:32.090378+11:00"}, {"id": 74539, "name": "George Manno", "roles_in_work": [{"id": 2712037, "title": "Detect and protect", "work_id": 66740, "role": "producer/director", "role_id": 31, "is_primary": true}], "also_known_as": "", "date_of_birth": "", "date_of_death": "", "genders": [], "languages": [], "places_of_operation": [], "biography": "", "biography_author": null, "date_of_biography": "2023-05-09T15:04:22.317650+10:00", "external_links": [], "uuid": "29fcc2b0-0ad1-4232-9223-c967366a2f9e", "source": {"name": "Vernon", "slug": "vernon"}, "source_identifier": "19637", "external_references": [{"id": 51501, "source": {"name": "Wikidata", "slug": "wikidata"}, "source_identifier": "Q121361002"}], "date_modified": "2025-03-12T00:09:21.887758+11:00"}]}