{"count": 28687, "next": "https://api.acmi.net.au/creators/?page=1638", "previous": "https://api.acmi.net.au/creators/?page=1636", "results": [{"id": 30110, "name": "Hill & Anderson Productions", "roles_in_work": [{"id": 2465679, "title": "Seward's folly", "work_id": 88075, "role": "production company", "role_id": 941, "is_primary": true}], "also_known_as": "", "date_of_birth": "", "date_of_death": "", "genders": [], "languages": [], "places_of_operation": [], "biography": "", "biography_author": null, "date_of_biography": "2023-08-14T10:40:02.835515+10:00", "external_links": [], "uuid": "3255484c-9c6e-4449-9320-a269f452176a", "source": {"name": "Vernon", "slug": "vernon"}, "source_identifier": "20561", "external_references": [], "date_modified": "2023-08-14T10:40:02.835787+10:00"}, {"id": 30109, "name": "BETV", "roles_in_work": [{"id": 1815130, "title": "Getting a handle on stress with Heidi Di Santo", "work_id": 88071, "role": "producer", "role_id": 1089, "is_primary": true}, {"id": 2409193, "title": "Heidi Di Santo's guide to relaxation", "work_id": 88072, "role": "producer", "role_id": 1089, "is_primary": true}, {"id": 2409192, "title": "Heidi Di Santo's guide to relaxation", "work_id": 88072, "role": "production company", "role_id": 941, "is_primary": true}, {"id": 798535, "title": "Getting a handle on stress with Heidi Di Santo", "work_id": 88071, "role": "production company", "role_id": 941, "is_primary": true}], "also_known_as": "", "date_of_birth": "", "date_of_death": "", "genders": [], "languages": [], "places_of_operation": [], "biography": "", "biography_author": null, "date_of_biography": "2023-08-11T17:17:31.309840+10:00", "external_links": [], "uuid": "da4a5e98-c473-481c-8e38-cb009d49ab19", "source": {"name": "Vernon", "slug": "vernon"}, "source_identifier": "5828", "external_references": [], "date_modified": "2023-08-11T17:17:31.310058+10:00"}, {"id": 30102, "name": "Earth Design, Inc", "roles_in_work": [{"id": 2238289, "title": "Feng shui today: enrich your life by design: with Jami Lin", "work_id": 88064, "role": "production company", "role_id": 941, "is_primary": true}], "also_known_as": "", "date_of_birth": "", "date_of_death": "", "genders": [], "languages": [], "places_of_operation": [], "biography": "", "biography_author": null, "date_of_biography": "2023-05-09T16:49:15.303005+10:00", "external_links": [], "uuid": "aeca4011-daef-4dd5-9bac-fa154521b096", "source": {"name": "Vernon", "slug": "vernon"}, "source_identifier": "7707", "external_references": [], "date_modified": "2023-06-14T16:33:30.576250+10:00"}, {"id": 30098, "name": "Light Source Films", "roles_in_work": [{"id": 2125641, "title": "Bronzed Aussie gods", "work_id": 88062, "role": "production company", "role_id": 941, "is_primary": true}], "also_known_as": "", "date_of_birth": "", "date_of_death": "", "genders": [], "languages": [], "places_of_operation": [], "biography": "", "biography_author": null, "date_of_biography": "2023-05-09T13:10:32.250039+10:00", "external_links": [], "uuid": "16d37462-86c9-47d5-8276-8e4219ed7ccb", "source": {"name": "Vernon", "slug": "vernon"}, "source_identifier": "10054", "external_references": [{"id": 34534, "source": {"name": "Wikidata", "slug": "wikidata"}, "source_identifier": "Q121034471"}], "date_modified": "2023-09-05T22:24:39.982111+10:00"}, {"id": 30093, "name": "Susan Stamp", "roles_in_work": [{"id": 2468784, "title": "The Windwheel", "work_id": 88053, "role": "director", "role_id": 938, "is_primary": true}], "also_known_as": "", "date_of_birth": "", "date_of_death": "", "genders": [], "languages": [], "places_of_operation": [], "biography": "", "biography_author": null, "date_of_biography": "2023-08-14T11:46:08.144781+10:00", "external_links": [], "uuid": "8eb73fb2-20f5-4b5f-8aaa-29ae732411cd", "source": {"name": "Vernon", "slug": "vernon"}, "source_identifier": "29362", "external_references": [], "date_modified": "2023-08-14T11:46:08.145045+10:00"}, {"id": 30089, "name": "Special Broadcasting Service Corporation", "roles_in_work": [{"id": 2116131, "title": "Bill Henson: dreams of darkness", "work_id": 91155, "role": "production company", "role_id": 941, "is_primary": true}, {"id": 1932126, "title": "Dust [Widescreen]", "work_id": 88050, "role": "production company", "role_id": 941, "is_primary": true}, {"id": 2297058, "title": "Shimmer in the city", "work_id": 91203, "role": "production company", "role_id": 941, "is_primary": true}], "also_known_as": "", "date_of_birth": "", "date_of_death": "", "genders": [], "languages": [], "places_of_operation": [], "biography": "", "biography_author": null, "date_of_biography": "2023-05-09T18:29:29.306749+10:00", "external_links": [], "uuid": "3d5b6fc6-a015-40a5-9c61-4a6e65ebb119", "source": {"name": "Vernon", "slug": "vernon"}, "source_identifier": "12312", "external_references": [], "date_modified": "2023-06-14T16:33:30.576250+10:00"}, {"id": 30088, "name": "Samia Mikhail", "roles_in_work": [{"id": 2246587, "title": "Red light in full flight", "work_id": 88048, "role": "director", "role_id": 938, "is_primary": true}], "also_known_as": "", "date_of_birth": "", "date_of_death": "", "genders": [], "languages": [], "places_of_operation": [], "biography": "", "biography_author": null, "date_of_biography": "2023-05-09T17:03:49.503137+10:00", "external_links": [], "uuid": "076c451e-d19a-4327-8b69-1e903cd7fdbd", "source": {"name": "Vernon", "slug": "vernon"}, "source_identifier": "28510", "external_references": [{"id": 40539, "source": {"name": "Wikidata", "slug": "wikidata"}, "source_identifier": "Q121143832"}], "date_modified": "2023-09-06T01:03:48.708456+10:00"}, {"id": 30087, "name": "Sokol Films", "roles_in_work": [{"id": 2252938, "title": "Romanov", "work_id": 88047, "role": "production company", "role_id": 941, "is_primary": true}], "also_known_as": "", "date_of_birth": "", "date_of_death": "", "genders": [], "languages": [], "places_of_operation": [], "biography": "", "biography_author": null, "date_of_biography": "2023-05-09T17:13:54.540649+10:00", "external_links": [], "uuid": "6c4d7bc4-4d29-4c42-a554-2756f892c570", "source": {"name": "Vernon", "slug": "vernon"}, "source_identifier": "12723", "external_references": [{"id": 36576, "source": {"name": "Wikidata", "slug": "wikidata"}, "source_identifier": "Q121036050"}], "date_modified": "2023-09-06T01:22:39.231410+10:00"}, {"id": 30080, "name": "Ian Stevenson", "roles_in_work": [{"id": 2233624, "title": "Purple haze", "work_id": 88038, "role": "co-director", "role_id": 959, "is_primary": true}, {"id": 2233623, "title": "Purple haze", "work_id": 88038, "role": "producer", "role_id": 1089, "is_primary": true}], "also_known_as": "", "date_of_birth": "", "date_of_death": "", "genders": [], "languages": [], "places_of_operation": [], "biography": "", "biography_author": null, "date_of_biography": "2023-05-09T16:42:20.663085+10:00", "external_links": [], "uuid": "824aa841-346d-468a-9c43-19565732d4e9", "source": {"name": "Vernon", "slug": "vernon"}, "source_identifier": "20796", "external_references": [{"id": 33994, "source": {"name": "Wikidata", "slug": "wikidata"}, "source_identifier": "Q121159882"}], "date_modified": "2023-09-05T20:46:56.522715+10:00"}, {"id": 30079, "name": "Bondi Beech", "roles_in_work": [{"id": 2233621, "title": "Purple haze", "work_id": 88038, "role": "production company", "role_id": 941, "is_primary": true}], "also_known_as": "", "date_of_birth": "", "date_of_death": "", "genders": [], "languages": [], "places_of_operation": [], "biography": "", "biography_author": null, "date_of_biography": "2023-05-09T16:42:20.178298+10:00", "external_links": [], "uuid": "f39d216d-7930-4187-9014-613af7531db0", "source": {"name": "Vernon", "slug": "vernon"}, "source_identifier": "5939", "external_references": [{"id": 42192, "source": {"name": "Wikidata", "slug": "wikidata"}, "source_identifier": "Q121085987"}], "date_modified": "2023-09-05T18:08:24.151475+10:00"}]}