{"count": 28687, "next": "https://api.acmi.net.au/creators/?page=2817", "previous": "https://api.acmi.net.au/creators/?page=2815", "results": [{"id": 8678, "name": "Predrag Golubvic", "roles_in_work": [{"id": 2629970, "title": "Joseph Schultz", "work_id": 108636, "role": "director", "role_id": 938, "is_primary": true}], "also_known_as": "", "date_of_birth": "", "date_of_death": "", "genders": [], "languages": [], "places_of_operation": [], "biography": "", "biography_author": null, "date_of_biography": "2023-08-11T19:01:20.911346+10:00", "external_links": [], "uuid": "f2181e31-e665-4d18-a394-4e88bd8f90d8", "source": {"name": "Vernon", "slug": "vernon"}, "source_identifier": "1400", "external_references": [], "date_modified": "2025-02-27T22:58:06.675939+11:00"}, {"id": 8677, "name": "Grant Hilliard", "roles_in_work": [{"id": 2711500, "title": "Breathless", "work_id": 109216, "role": "creator", "role_id": 968, "is_primary": true}, {"id": 2629969, "title": "Booth at ACMI", "work_id": 108634, "role": "creator", "role_id": 968, "is_primary": true}, {"id": 2637701, "title": "The MutleyMedia Booth", "work_id": 109901, "role": "creator", "role_id": 968, "is_primary": true}], "also_known_as": "", "date_of_birth": "", "date_of_death": "", "genders": [{"id": 9, "name": "Male", "slug": "male"}], "languages": [], "places_of_operation": [], "biography": "", "biography_author": null, "date_of_biography": "2023-08-11T15:05:00.790986+10:00", "external_links": [], "uuid": "ccc5e5d4-49d6-4a04-874e-fd28df6dadc9", "source": {"name": "Vernon", "slug": "vernon"}, "source_identifier": "111528", "external_references": [], "date_modified": "2025-03-11T23:53:02.356955+11:00"}, {"id": 8676, "name": "Samantha Fermo", "roles_in_work": [{"id": 2635946, "title": "City of spare parts", "work_id": 108633, "role": "creator", "role_id": 968, "is_primary": true}], "also_known_as": "", "date_of_birth": "", "date_of_death": "", "genders": [], "languages": [], "places_of_operation": [], "biography": "", "biography_author": null, "date_of_biography": "2023-05-09T20:03:06.435690+10:00", "external_links": [], "uuid": "0ef419cc-4e82-44fe-bc93-07c68daa18bc", "source": {"name": "Vernon", "slug": "vernon"}, "source_identifier": "112174", "external_references": [], "date_modified": "2025-03-05T10:30:38.051576+11:00"}, {"id": 8675, "name": "Lawrence Johnston", "roles_in_work": [{"id": 2629965, "title": "Night out", "work_id": 108632, "role": "director", "role_id": 938, "is_primary": true}, {"id": 1771553, "title": "Life", "work_id": 94488, "role": "director", "role_id": 938, "is_primary": true}, {"id": 792364, "title": "Eternity", "work_id": 86203, "role": "director", "role_id": 938, "is_primary": true}, {"id": 810330, "title": "True faith", "work_id": 92141, "role": "director", "role_id": 938, "is_primary": true}, {"id": 2153143, "title": "Night Out", "work_id": 81613, "role": "director", "role_id": 938, "is_primary": true}, {"id": 2629964, "title": "Night out", "work_id": 108632, "role": "creator", "role_id": 968, "is_primary": true}, {"id": 2153141, "title": "Night Out", "work_id": 81613, "role": "co-producer", "role_id": 915, "is_primary": true}], "also_known_as": "", "date_of_birth": "", "date_of_death": "", "genders": [], "languages": [], "places_of_operation": [], "biography": "", "biography_author": null, "date_of_biography": "2023-05-09T13:56:24.287408+10:00", "external_links": [], "uuid": "33057603-288c-4054-b371-4202faf7dade", "source": {"name": "Vernon", "slug": "vernon"}, "source_identifier": "111522", "external_references": [{"id": 39982, "source": {"name": "Wikidata", "slug": "wikidata"}, "source_identifier": "Q117851606"}], "date_modified": "2025-02-27T22:57:54.292139+11:00"}, {"id": 8673, "name": "Peter Long", "roles_in_work": [{"id": 880054, "title": "Santa class test", "work_id": 92223, "role": "director", "role_id": 938, "is_primary": true}, {"id": 2629961, "title": "A Telephone call for Genevieve Snow", "work_id": 108631, "role": "director", "role_id": 938, "is_primary": true}, {"id": 2076431, "title": "A Telephone call for Genevieve Snow", "work_id": 92938, "role": "director", "role_id": 938, "is_primary": true}, {"id": 2629960, "title": "A Telephone call for Genevieve Snow", "work_id": 108631, "role": "creator", "role_id": 968, "is_primary": true}], "also_known_as": "", "date_of_birth": "", "date_of_death": "", "genders": [], "languages": [], "places_of_operation": [], "biography": "", "biography_author": null, "date_of_biography": "2023-05-09T11:41:30.307832+10:00", "external_links": [], "uuid": "3de5b864-862b-47c9-8311-800a4bee348d", "source": {"name": "Vernon", "slug": "vernon"}, "source_identifier": "1864", "external_references": [{"id": 40845, "source": {"name": "Wikidata", "slug": "wikidata"}, "source_identifier": "Q121336988"}], "date_modified": "2025-02-27T22:57:51.656500+11:00"}, {"id": 8672, "name": "Jane Karslake", "roles_in_work": [{"id": 767873, "title": "First mate", "work_id": 78714, "role": "director", "role_id": 938, "is_primary": true}, {"id": 1810628, "title": "The Man in the blue and white Holden", "work_id": 86969, "role": "producer", "role_id": 1089, "is_primary": true}, {"id": 3110482, "title": "A Song of air", "work_id": 108630, "role": "producer", "role_id": 1089, "is_primary": true}, {"id": 3110486, "title": "A Song of air", "work_id": 78816, "role": "producer", "role_id": 1089, "is_primary": true}], "also_known_as": "", "date_of_birth": "", "date_of_death": "", "genders": [], "languages": [], "places_of_operation": [], "biography": "", "biography_author": null, "date_of_biography": "2023-08-11T13:17:13.958022+10:00", "external_links": [], "uuid": "0df2b794-d52c-433e-a470-6ee33c68d93c", "source": {"name": "Vernon", "slug": "vernon"}, "source_identifier": "111519", "external_references": [], "date_modified": "2026-03-11T11:10:11.990538+11:00"}, {"id": 8671, "name": "Merilee Bennett", "roles_in_work": [{"id": 3110487, "title": "A Song of air", "work_id": 78816, "role": "director", "role_id": 938, "is_primary": true}, {"id": 3110481, "title": "A Song of air", "work_id": 108630, "role": "director", "role_id": 938, "is_primary": true}, {"id": 3110480, "title": "A Song of air", "work_id": 108630, "role": "creator", "role_id": 968, "is_primary": true}], "also_known_as": "", "date_of_birth": "", "date_of_death": "", "genders": [], "languages": [], "places_of_operation": [], "biography": "", "biography_author": null, "date_of_biography": "2023-08-11T13:17:13.303335+10:00", "external_links": [], "uuid": "66c31eec-e351-4247-af67-ebab33c4cb78", "source": {"name": "Vernon", "slug": "vernon"}, "source_identifier": "111518", "external_references": [], "date_modified": "2026-03-11T11:10:12.747708+11:00"}, {"id": 8670, "name": "Tim Reid", "roles_in_work": [{"id": 772348, "title": "The Little Mermaid", "work_id": 80525, "role": "director", "role_id": 938, "is_primary": true}, {"id": 2713207, "title": "Exploration 1770, reviewed 1970", "work_id": 67295, "role": "editor", "role_id": 918, "is_primary": true}, {"id": 2629956, "title": "Satdee night", "work_id": 108628, "role": "producer", "role_id": 1089, "is_primary": true}], "also_known_as": "", "date_of_birth": "1966-04-01", "date_of_death": null, "genders": [{"id": 9, "name": "Male", "slug": "male"}], "languages": [], "places_of_operation": [{"id": 1, "name": "United States of America", "slug": "united-states-of-america"}], "biography": "", "biography_author": null, "date_of_biography": null, "external_links": [], "uuid": "9f47c3f2-bfb2-47e4-bb9d-cbaf4fba0b91", "source": {"name": "Vernon", "slug": "vernon"}, "source_identifier": "111517", "external_references": [{"id": 40492, "source": {"name": "Wikidata", "slug": "wikidata"}, "source_identifier": "Q63814206"}], "date_modified": "2025-03-12T00:38:52.380408+11:00"}, {"id": 8669, "name": "Cordelia Beresford", "roles_in_work": [{"id": 2629952, "title": "Restoration", "work_id": 108627, "role": "director", "role_id": 938, "is_primary": true}, {"id": 2640453, "title": "Restoration", "work_id": 110392, "role": "director", "role_id": 938, "is_primary": true}, {"id": 800817, "title": "Restoration [Widescreen]", "work_id": 88785, "role": "director", "role_id": 938, "is_primary": true}, {"id": 2629951, "title": "Restoration", "work_id": 108627, "role": "creator", "role_id": 968, "is_primary": true}, {"id": 2711601, "title": "The Eye inside", "work_id": 109261, "role": "creator", "role_id": 968, "is_primary": true}, {"id": 2640455, "title": "Restoration", "work_id": 110392, "role": "cinematographer", "role_id": 32, "is_primary": false}], "also_known_as": "", "date_of_birth": "", "date_of_death": "", "genders": [], "languages": [], "places_of_operation": [], "biography": "Cordelia is a cinematographer whose drama work has featured on SBS, the ABC & Channel 10. She has shot over 25 short films, including the AFC funded \"Green Eyes\" (ACS Gold); \"Lamb\" (Tropfest winner 2002);\n\"Blood and Ash\" (Cinematography prize St Kilda Festival 2001); and \"Restoration\" (ACS Silver). Over the last year she has been DoP on three short features produced for the AFC & SBSi:\n\n\"Martha's New Coat\", directed by Rachel Ward, produced by Liz Watts and starring Matilda Brown, Dan Wylie and Lisa Hensley. This won Best Short Feature at the 2003 Australian Film Critics Circle awards.\n\n\"Preservation\", directed by Sofya Gollan, produced by Della Churchill and starring Jacqueline McKenzie and Jack Finsterer, was nominated for 3 AFI awards;\n\nand \"So Close to Home\", directed by Jessica Hobbs, produced by Sam Jennings and Martin Williams and starring Kerry Fox and Gillian Jones. This film recently won the Golden Gate Award for Best TV Narrative (long form) at the San Francisco International Film Festival, as well as an ACS Silver.\n\nBased in the UK since high school, she gained a BA Hons from Cambridge University in Philosophy and History of Art. While studying she extensively researched the renowned Swedish cinematographer Sven Nykvist and wrote her thesis about the relationship between his work and Scandanavian painting. She then gained experience in the TV industry on visual arts documentaries, working as a researcher and producer/director at both the South Bank Show and BBC 2. One of these was a highly popular documentary on Herge's artwork for his Tintin comic books; and another was a portrait of a woman artist with Down's Syndrome.\n\nHaving become increasingly interested in cinematography, she assisted on projects before returning to Australia and gaining an MA Hons in Cinematography at the AFTRS film school, graduating with 4 awards including the overall cinematography prize. For her Honours project she conceived and directed an experimental dance film, \"Restoration\", which won numerous awards both in Australia and overseas, including: Best Work on Film or Video at the National Dance Awards; a Dendy Award in 2000; and Best Short Film at Long Beach Festival, USA. Following AFTRS she directed a ten minute thriller, \"Look\", for Film Four in the UK, which screened at numerous festivals internationally, including being a finalist at the Manhattan International Short Film Competition.\n\nIn addition to drama, Cordelia continues to photograph music videos, commercials & observational documentaries and was also director of an SBS documentary on choreographer Gideon Obarazanek of Chunky Move. Collaborations with artists have included filming pieces for Susan Norrie, John Conomos, Chris Caines and photographing the interactive dance installation \"Closer\" by Gideon Obarzanek for ACMI. In additional to her camerawork she has also exhibited 'narrative' still photographs and is developing her work further in both this area and experimental filmmaking.\n(Provided by Cordelia Beresford)", "biography_author": null, "date_of_biography": "2025-03-11T23:56:09.908180+11:00", "external_links": [], "uuid": "9d0b6178-c26f-486b-b0d1-e1c7e66db337", "source": {"name": "Vernon", "slug": "vernon"}, "source_identifier": "111516", "external_references": [{"id": 41343, "source": {"name": "Wikidata", "slug": "wikidata"}, "source_identifier": "Q121298776"}], "date_modified": "2025-03-11T23:56:09.908515+11:00"}, {"id": 8668, "name": "Tom Hearn", "roles_in_work": [{"id": 2629949, "title": "My little brother", "work_id": 108626, "role": "director", "role_id": 938, "is_primary": true}, {"id": 2629948, "title": "My little brother", "work_id": 108626, "role": "creator", "role_id": 968, "is_primary": true}, {"id": 2629950, "title": "My little brother", "work_id": 108626, "role": "producer", "role_id": 1089, "is_primary": true}], "also_known_as": "", "date_of_birth": "", "date_of_death": "", "genders": [], "languages": [], "places_of_operation": [], "biography": "", "biography_author": null, "date_of_biography": "2023-08-14T09:58:15.581005+10:00", "external_links": [], "uuid": "5f1706aa-e641-49b1-9193-f1ce24230e1f", "source": {"name": "Vernon", "slug": "vernon"}, "source_identifier": "111515", "external_references": [], "date_modified": "2025-02-27T22:57:46.653371+11:00"}]}