{"count": 28687, "next": "https://api.acmi.net.au/creators/?page=113", "previous": "https://api.acmi.net.au/creators/?page=111", "results": [{"id": 84868, "name": "Roadshow Films", "roles_in_work": [{"id": 2686044, "title": "Breath film poster", "work_id": 107584, "role": "production company", "role_id": 941, "is_primary": true}], "also_known_as": "", "date_of_birth": "", "date_of_death": "", "genders": [], "languages": [], "places_of_operation": [], "biography": "", "biography_author": null, "date_of_biography": "2023-08-30T22:36:06.484309+10:00", "external_links": [], "uuid": "81afd65f-1637-4961-869a-f50bf885b23e", "source": {"name": "Vernon", "slug": "vernon"}, "source_identifier": "39822", "external_references": [{"id": 33252, "source": {"name": "Wikidata", "slug": "wikidata"}, "source_identifier": "Q121035227"}], "date_modified": "2025-03-11T12:02:50.313361+11:00"}, {"id": 84867, "name": "Albert Falzone", "roles_in_work": [{"id": 2686047, "title": "Morning of the Earth poster", "work_id": 107581, "role": "director", "role_id": 938, "is_primary": true}], "also_known_as": "", "date_of_birth": "", "date_of_death": "", "genders": [], "languages": [], "places_of_operation": [], "biography": "", "biography_author": null, "date_of_biography": "2023-05-09T16:16:08.479377+10:00", "external_links": [], "uuid": "104cd5ba-4e26-4c11-94b3-411878da4774", "source": {"name": "Vernon", "slug": "vernon"}, "source_identifier": "39825", "external_references": [{"id": 38391, "source": {"name": "Wikidata", "slug": "wikidata"}, "source_identifier": "Q121271307"}], "date_modified": "2025-03-11T12:02:52.434130+11:00"}, {"id": 84866, "name": "Endemol Shine", "roles_in_work": [{"id": 2686043, "title": "Blue Water High image", "work_id": 107579, "role": "production company", "role_id": 941, "is_primary": true}], "also_known_as": "", "date_of_birth": "", "date_of_death": "", "genders": [], "languages": [], "places_of_operation": [], "biography": "", "biography_author": null, "date_of_biography": "2023-05-09T16:16:27.128933+10:00", "external_links": [], "uuid": "4c55d208-f7f6-4e8d-a742-e319a0d9ef3b", "source": {"name": "Vernon", "slug": "vernon"}, "source_identifier": "39821", "external_references": [{"id": 40565, "source": {"name": "Wikidata", "slug": "wikidata"}, "source_identifier": "Q121159894"}], "date_modified": "2025-03-11T12:02:49.340870+11:00"}, {"id": 84865, "name": "Adventure Bound Productions", "roles_in_work": [{"id": 2686045, "title": "Escape World Safari III poster", "work_id": 107577, "role": "production company", "role_id": 941, "is_primary": true}], "also_known_as": "", "date_of_birth": "", "date_of_death": "", "genders": [], "languages": [], "places_of_operation": [], "biography": "", "biography_author": null, "date_of_biography": "2023-05-09T16:16:28.529521+10:00", "external_links": [], "uuid": "dc9bb8c9-f72b-43a2-a481-bf0f2e1ad698", "source": {"name": "Vernon", "slug": "vernon"}, "source_identifier": "39823", "external_references": [{"id": 50567, "source": {"name": "Wikidata", "slug": "wikidata"}, "source_identifier": "Q121357748"}], "date_modified": "2025-03-11T12:02:51.249340+11:00"}, {"id": 84864, "name": "Alexander Sinclair", "roles_in_work": [{"id": 2524131, "title": "[Alexander Sinclair Home Movies: Reel 7]", "work_id": 118292, "role": "creator", "role_id": 968, "is_primary": true}, {"id": 2517400, "title": "[Alexander Sinclair Home Movies: Reel 1]", "work_id": 118286, "role": "creator", "role_id": 968, "is_primary": true}, {"id": 2517402, "title": "[Alexander Sinclair Home Movies: Reel 3]", "work_id": 118289, "role": "creator", "role_id": 968, "is_primary": true}, {"id": 2517403, "title": "[Alexander Sinclair Home Movies: Reel 4]", "work_id": 118290, "role": "creator", "role_id": 968, "is_primary": true}, {"id": 2517404, "title": "[Alexander Sinclair Home Movies: Reel 5]", "work_id": 118291, "role": "creator", "role_id": 968, "is_primary": true}, {"id": 2517405, "title": "[Alexander Sinclair Home Movies: Reel 6]", "work_id": 118287, "role": "creator", "role_id": 968, "is_primary": true}, {"id": 2517407, "title": "[Alexander Sinclair Home Movies: Reel 8]", "work_id": 118293, "role": "creator", "role_id": 968, "is_primary": true}, {"id": 2517408, "title": "[Alexander Sinclair Home Movies: Reel 9]", "work_id": 118294, "role": "creator", "role_id": 968, "is_primary": true}, {"id": 2517409, "title": "[Alexander Sinclair Home Movies: Reel 10]", "work_id": 118295, "role": "creator", "role_id": 968, "is_primary": true}, {"id": 2517410, "title": "[Alexander Sinclair Home Movies: Reel 11]", "work_id": 118296, "role": "creator", "role_id": 968, "is_primary": true}, {"id": 2517411, "title": "[Alexander Sinclair Home Movies: Reel 12]", "work_id": 118297, "role": "creator", "role_id": 968, "is_primary": true}, {"id": 2517412, "title": "[Alexander Sinclair Home Movies: Reel 13]", "work_id": 118298, "role": "creator", "role_id": 968, "is_primary": true}, {"id": 2517413, "title": "[Alexander Sinclair Home Movies: Reel 14]", "work_id": 118299, "role": "creator", "role_id": 968, "is_primary": true}, {"id": 2517414, "title": "[Alexander Sinclair Home Movie Collection]", "work_id": 119153, "role": "creator", "role_id": 968, "is_primary": true}, {"id": 2567330, "title": "[Alexander Sinclair Home Movies: Reel 2]", "work_id": 118288, "role": "creator", "role_id": 968, "is_primary": true}], "also_known_as": "", "date_of_birth": "", "date_of_death": "", "genders": [], "languages": [], "places_of_operation": [], "biography": "", "biography_author": null, "date_of_biography": "2023-07-19T03:45:30.495896+10:00", "external_links": [], "uuid": "2c2d1f54-759b-4031-86c6-096e97774b83", "source": {"name": "Vernon", "slug": "vernon"}, "source_identifier": "38901", "external_references": [], "date_modified": "2024-11-06T03:35:46.914361+11:00"}, {"id": 84863, "name": "Sybil Malins", "roles_in_work": [{"id": 2374549, "title": "[George Malins Home Movies: Reel 1]", "work_id": 118276, "role": "creator", "role_id": 968, "is_primary": true}], "also_known_as": "", "date_of_birth": "", "date_of_death": "", "genders": [{"id": 5, "name": "Female", "slug": "female"}], "languages": [], "places_of_operation": [], "biography": "", "biography_author": null, "date_of_biography": "2023-07-05T03:57:11.234845+10:00", "external_links": [], "uuid": "fc8aa1cd-d639-4356-b14f-ff8aa1193508", "source": {"name": "Vernon", "slug": "vernon"}, "source_identifier": "39493", "external_references": [], "date_modified": "2023-07-05T03:57:11.235147+10:00"}, {"id": 84862, "name": "Milena Romanin", "roles_in_work": [{"id": 3107661, "title": "Cyberdelia", "work_id": 114116, "role": "production manager", "role_id": 934, "is_primary": false}], "also_known_as": "", "date_of_birth": "", "date_of_death": "", "genders": [], "languages": [], "places_of_operation": [], "biography": "", "biography_author": null, "date_of_biography": "2023-08-28T15:35:22.899041+10:00", "external_links": [], "uuid": "58fa17f8-534f-4ccd-8a31-165e393901ac", "source": {"name": "Vernon", "slug": "vernon"}, "source_identifier": "39819", "external_references": [], "date_modified": "2025-09-08T09:23:27.926137+10:00"}, {"id": 84861, "name": "Susan King", "roles_in_work": [{"id": 3107657, "title": "Cyberdelia", "work_id": 114116, "role": "researcher", "role_id": 950, "is_primary": false}], "also_known_as": "", "date_of_birth": "", "date_of_death": "", "genders": [], "languages": [], "places_of_operation": [], "biography": "", "biography_author": null, "date_of_biography": "2023-08-28T15:35:20.339358+10:00", "external_links": [], "uuid": "e696f56d-d6c5-4232-9953-ce92f83db340", "source": {"name": "Vernon", "slug": "vernon"}, "source_identifier": "1946", "external_references": [], "date_modified": "2025-09-08T09:23:25.314397+10:00"}, {"id": 84860, "name": "Eiki Industrial Co., Ltd.", "roles_in_work": [{"id": 2686156, "title": "16MM Sound Projector, RST Series", "work_id": 118263, "role": "creator", "role_id": 968, "is_primary": true}], "also_known_as": "", "date_of_birth": "1953", "date_of_death": "", "genders": [], "languages": [], "places_of_operation": [], "biography": "EIKI was founded in 1953 in Osaka by M. Matsuura, S. Yagi, K. Sekino and Y. Minagawa. The focus of the company was manufacturing equipment for classroom AV needs and later on, the company focused more on manufacturing 16mm projectors.\n\nEIKI had manufactured 8mm projectors for a short time in the past, but never attempted to offer 35mm projectors, instead of this, it had tried to market Tokiwa 35mm portables.\n\nEIKI had a vast variety of model availability in 16mm projectors among the other Japanese manufacturers.\n\nMost models are re-branded as elf in the UK, INTERNATIONAL and BELL+HOWELL in the U.S., as well as HANIMEX EIKI in Australia.", "biography_author": null, "date_of_biography": "2025-03-11T12:14:35.900288+11:00", "external_links": [], "uuid": "d2a5af0e-6f82-4cfe-a42f-0a255bbbc401", "source": {"name": "Vernon", "slug": "vernon"}, "source_identifier": "39399", "external_references": [], "date_modified": "2025-03-11T12:14:35.900645+11:00"}, {"id": 84859, "name": "Rank Arena", "roles_in_work": [{"id": 2686172, "title": "Portable Black and White TV", "work_id": 118262, "role": "distributor", "role_id": 437, "is_primary": false}], "also_known_as": "", "date_of_birth": "", "date_of_death": "", "genders": [], "languages": [], "places_of_operation": [], "biography": "", "biography_author": null, "date_of_biography": "2023-05-09T15:44:38.220612+10:00", "external_links": [], "uuid": "70ac9909-4067-4c49-973b-546343335465", "source": {"name": "Vernon", "slug": "vernon"}, "source_identifier": "39433", "external_references": [], "date_modified": "2025-03-11T12:15:25.989660+11:00"}]}