{"count": 28682, "next": "https://api.acmi.net.au/creators/?page=892", "previous": "https://api.acmi.net.au/creators/?page=890", "results": [{"id": 76668, "name": "Cliff Green", "roles_in_work": [{"id": 2771334, "title": "More Winners: Boy Soldiers", "work_id": 80533, "role": "writer", "role_id": 939, "is_primary": true}], "also_known_as": "", "date_of_birth": "1934", "date_of_death": "2020-12-04", "genders": [{"id": 9, "name": "Male", "slug": "male"}], "languages": [{"id": 1, "name": "English", "slug": "english"}], "places_of_operation": [{"id": 3, "name": "Australia", "slug": "australia"}], "biography": "Clifford Green OAM (6 December 1934 – 4 December 2020), born in Melbourne, Australia, was an Australian screen writer, whose best-known work is the script for the film Picnic at Hanging Rock (1975).; 17/08/2023", "biography_author": null, "date_of_biography": "2025-03-14T18:22:37.734213+11:00", "external_links": [{"id": 3792, "uri": "https://en.wikipedia.org/wiki/Cliff_Green"}], "uuid": "338ca8e5-f782-4dd9-811a-1e0b5c71c1cc", "source": {"name": "Vernon", "slug": "vernon"}, "source_identifier": "33743", "external_references": [{"id": 26208, "source": {"name": "Wikidata", "slug": "wikidata"}, "source_identifier": "Q2979051"}, {"id": 27909, "source": {"name": "VIAF", "slug": "viaf"}, "source_identifier": "32152293"}, {"id": 27910, "source": {"name": "LOC Auth", "slug": "loc-auth"}, "source_identifier": "n82222398"}, {"id": 27911, "source": {"name": "WorldCat", "slug": "worldcat"}, "source_identifier": "lccn-no2019120807"}], "date_modified": "2025-03-14T18:22:37.734489+11:00"}, {"id": 76667, "name": "Lucinda Clutterbuck", "roles_in_work": [{"id": 904114, "title": "The Web", "work_id": 85123, "role": "co-director", "role_id": 959, "is_primary": true}, {"id": 2754818, "title": "Greenhouse effect: we can all make a difference", "work_id": 99383, "role": "producer/director", "role_id": 31, "is_primary": true}, {"id": 2648991, "title": "Tiga", "work_id": 80528, "role": "producer/director", "role_id": 31, "is_primary": true}], "also_known_as": "", "date_of_birth": "", "date_of_death": "", "genders": [], "languages": [], "places_of_operation": [], "biography": "", "biography_author": null, "date_of_biography": "2023-08-14T11:53:23.134295+10:00", "external_links": [], "uuid": "52f77b66-2fdb-44f1-b6b6-ff88c575b077", "source": {"name": "Vernon", "slug": "vernon"}, "source_identifier": "24078", "external_references": [{"id": 37155, "source": {"name": "Wikidata", "slug": "wikidata"}, "source_identifier": "Q121036748"}], "date_modified": "2025-03-13T01:51:48.460761+11:00"}, {"id": 76666, "name": "John Ryan", "roles_in_work": [{"id": 2130070, "title": "Captain Pugwash Seafaring Tales", "work_id": 80519, "role": "producer/director", "role_id": 31, "is_primary": true}], "also_known_as": "", "date_of_birth": "", "date_of_death": "", "genders": [], "languages": [], "places_of_operation": [], "biography": "", "biography_author": null, "date_of_biography": "2023-05-09T13:18:17.922485+10:00", "external_links": [], "uuid": "5bbd6c47-04cf-45d8-8400-982e421fbc5e", "source": {"name": "Vernon", "slug": "vernon"}, "source_identifier": "22507", "external_references": [{"id": 51247, "source": {"name": "Wikidata", "slug": "wikidata"}, "source_identifier": "Q121361326"}], "date_modified": "2023-09-05T21:44:06.194446+10:00"}, {"id": 76665, "name": "Joseph Oriolio", "roles_in_work": [{"id": 2238173, "title": "Felix the Cat", "work_id": 80518, "role": "co-producer", "role_id": 915, "is_primary": true}], "also_known_as": "", "date_of_birth": "", "date_of_death": "", "genders": [], "languages": [], "places_of_operation": [], "biography": "", "biography_author": null, "date_of_biography": "2023-05-09T16:49:01.936009+10:00", "external_links": [], "uuid": "88afca45-18a1-489f-b158-1d5fbbf4a00e", "source": {"name": "Vernon", "slug": "vernon"}, "source_identifier": "22741", "external_references": [{"id": 37838, "source": {"name": "Wikidata", "slug": "wikidata"}, "source_identifier": "Q121126403"}], "date_modified": "2023-09-05T21:51:21.477337+10:00"}, {"id": 76664, "name": "Pat Sullivan", "roles_in_work": [{"id": 2238172, "title": "Felix the Cat", "work_id": 80518, "role": "co-producer", "role_id": 915, "is_primary": true}], "also_known_as": "", "date_of_birth": "1887-02-02", "date_of_death": "1933-02-15", "genders": [{"id": 9, "name": "Male", "slug": "male"}], "languages": [{"id": 1, "name": "English", "slug": "english"}], "places_of_operation": [{"id": 3, "name": "Australia", "slug": "australia"}], "biography": "Patrick Peter Sullivan (22 February 1885 – 15 February 1933) was an Australian-American cartoonist, pioneer animator, and film producer best known for producing the first Felix the Cat silent cartoons.", "biography_author": "Wikidata", "date_of_biography": "2023-09-05T23:41:59.731285+10:00", "external_links": [{"id": 6080, "uri": "https://en.wikipedia.org/wiki/Pat_Sullivan_(film_producer)"}], "uuid": "19e98251-86d7-4a98-9a08-4eb92bafc629", "source": {"name": "Vernon", "slug": "vernon"}, "source_identifier": "26087", "external_references": [{"id": 40655, "source": {"name": "Wikidata", "slug": "wikidata"}, "source_identifier": "Q2407511"}, {"id": 55416, "source": {"name": "VIAF", "slug": "viaf"}, "source_identifier": "24608325"}, {"id": 55417, "source": {"name": "LOC Auth", "slug": "loc-auth"}, "source_identifier": "n85031301"}, {"id": 55418, "source": {"name": "WorldCat", "slug": "worldcat"}, "source_identifier": "lccn-n85031301"}], "date_modified": "2023-09-05T23:42:04.210318+10:00"}, {"id": 76663, "name": "Valerie Taylor", "roles_in_work": [{"id": 2296764, "title": "Shadow on the reef. Turning turtle.", "work_id": 85386, "role": "anchor/host", "role_id": 629, "is_primary": false}, {"id": 2296866, "title": "Shark shocker; Turning turtle", "work_id": 82400, "role": "anchor/host", "role_id": 629, "is_primary": false}, {"id": 2296741, "title": "Give sharks a chance", "work_id": 82399, "role": "anchor/host", "role_id": 629, "is_primary": false}, {"id": 2648977, "title": "The Silent one", "work_id": 80511, "role": "photographer", "role_id": 440, "is_primary": false}], "also_known_as": "", "date_of_birth": "1935", "date_of_death": "", "genders": [], "languages": [], "places_of_operation": [], "biography": "", "biography_author": null, "date_of_biography": "2023-05-09T18:29:09.965698+10:00", "external_links": [], "uuid": "1b9eab9a-c550-4325-9c82-f0e0cc1fa61b", "source": {"name": "Vernon", "slug": "vernon"}, "source_identifier": "37961", "external_references": [], "date_modified": "2025-03-05T13:53:00.702094+11:00"}, {"id": 76662, "name": "Martin Rosen", "roles_in_work": [{"id": 2648971, "title": "Watership down", "work_id": 80510, "role": "producer/director", "role_id": 31, "is_primary": true}], "also_known_as": "", "date_of_birth": "1936-08-31", "date_of_death": "", "genders": [{"id": 9, "name": "Male", "slug": "male"}], "languages": [], "places_of_operation": [{"id": 1, "name": "United States of America", "slug": "united-states-of-america"}], "biography": "Martin Gerald Rosen (born August 31, 1936) is an American-British filmmaker and theater producer. He directed the animated film adaptations of Watership Down (1978) and The Plague Dogs (1982), both from the Richard Adams novels.", "biography_author": "Wikidata", "date_of_biography": "2023-09-05T22:50:15.237247+10:00", "external_links": [{"id": 6010, "uri": "https://en.wikipedia.org/wiki/Martin_Rosen_(director)"}], "uuid": "aab6e19c-c195-4281-bb37-742f5b000eb1", "source": {"name": "Vernon", "slug": "vernon"}, "source_identifier": "24664", "external_references": [{"id": 51743, "source": {"name": "Wikidata", "slug": "wikidata"}, "source_identifier": "Q976133"}, {"id": 55194, "source": {"name": "VIAF", "slug": "viaf"}, "source_identifier": "2011343"}, {"id": 55195, "source": {"name": "LOC Auth", "slug": "loc-auth"}, "source_identifier": "no00044532"}, {"id": 55196, "source": {"name": "WorldCat", "slug": "worldcat"}, "source_identifier": "viaf-2011343"}], "date_modified": "2025-03-05T13:52:57.310339+11:00"}, {"id": 76661, "name": "Diane Asselin", "roles_in_work": [{"id": 2162552, "title": "Once upon a midnight scary", "work_id": 80504, "role": "co-producer", "role_id": 915, "is_primary": true}, {"id": 2340404, "title": "The Clue according to Sherlock Holmes", "work_id": 92139, "role": "co-producer", "role_id": 915, "is_primary": true}, {"id": 2751095, "title": "Dinky Hocker", "work_id": 97654, "role": "co-producer", "role_id": 915, "is_primary": true}, {"id": 2648960, "title": "The Haunting of Harrington House", "work_id": 80501, "role": "co-producer", "role_id": 915, "is_primary": true}], "also_known_as": "", "date_of_birth": "", "date_of_death": "", "genders": [], "languages": [], "places_of_operation": [], "biography": "", "biography_author": null, "date_of_biography": "2023-05-09T20:01:16.788247+10:00", "external_links": [], "uuid": "bb86a507-b767-4fca-89e1-f693b2cd489d", "source": {"name": "Vernon", "slug": "vernon"}, "source_identifier": "4752", "external_references": [{"id": 35500, "source": {"name": "Wikidata", "slug": "wikidata"}, "source_identifier": "Q121270612"}], "date_modified": "2025-03-13T00:36:30.291351+11:00"}, {"id": 76660, "name": "Patricia Loubert", "roles_in_work": [{"id": 2648953, "title": "Babar's First Step", "work_id": 80499, "role": "co-producer", "role_id": 915, "is_primary": true}, {"id": 2106195, "title": "Babar: The City of Elephants", "work_id": 80532, "role": "co-producer", "role_id": 915, "is_primary": true}], "also_known_as": "", "date_of_birth": "", "date_of_death": "", "genders": [], "languages": [], "places_of_operation": [], "biography": "", "biography_author": null, "date_of_biography": "2023-05-09T12:39:03.622927+10:00", "external_links": [], "uuid": "2f1fdc3d-af30-4119-b5eb-39849342b20a", "source": {"name": "Vernon", "slug": "vernon"}, "source_identifier": "26109", "external_references": [], "date_modified": "2025-03-05T13:52:46.870635+11:00"}, {"id": 76659, "name": "Jeff Gale", "roles_in_work": [{"id": 2754866, "title": "Climate in crisis", "work_id": 99403, "role": "co-director", "role_id": 959, "is_primary": true}, {"id": 2159531, "title": "On your marks it's bright sparks. - Volume 1.", "work_id": 80514, "role": "co-director", "role_id": 959, "is_primary": true}, {"id": 2649004, "title": "On your marks it's bright sparks. - Volume 2.", "work_id": 80541, "role": "co-director", "role_id": 959, "is_primary": true}, {"id": 2318009, "title": "Super Cars", "work_id": 80491, "role": "producer/director", "role_id": 31, "is_primary": true}], "also_known_as": "", "date_of_birth": "", "date_of_death": "", "genders": [], "languages": [], "places_of_operation": [], "biography": "", "biography_author": null, "date_of_biography": "2023-05-09T19:07:58.621786+10:00", "external_links": [], "uuid": "76db5c03-b694-4748-b3a0-43f0d5fa0b6a", "source": {"name": "Vernon", "slug": "vernon"}, "source_identifier": "21635", "external_references": [{"id": 36849, "source": {"name": "Wikidata", "slug": "wikidata"}, "source_identifier": "Q121223282"}], "date_modified": "2025-03-13T01:52:38.615652+11:00"}]}