{"count": 28687, "next": "https://api.acmi.net.au/creators/?page=2558", "previous": "https://api.acmi.net.au/creators/?page=2556", "results": [{"id": 13199, "name": "Howard Cotton", "roles_in_work": [{"id": 2678624, "title": "Blacksmith workshop", "work_id": 65481, "role": "director", "role_id": 938, "is_primary": true}], "also_known_as": "", "date_of_birth": null, "date_of_death": null, "genders": [], "languages": [], "places_of_operation": [], "biography": "", "biography_author": null, "date_of_biography": null, "external_links": [], "uuid": "8bc254b8-e06e-4805-bb07-2c79a58a0daa", "source": {"name": "Vernon", "slug": "vernon"}, "source_identifier": "20613", "external_references": [], "date_modified": "2025-03-06T23:55:44.895828+11:00"}, {"id": 13198, "name": "Southern Illinois University", "roles_in_work": [{"id": 2678623, "title": "Blacksmith workshop", "work_id": 65481, "role": "production company", "role_id": 941, "is_primary": true}], "also_known_as": "", "date_of_birth": null, "date_of_death": null, "genders": [], "languages": [], "places_of_operation": [], "biography": "", "biography_author": null, "date_of_biography": null, "external_links": [], "uuid": "9553595f-c436-4ba4-a36e-0b1acbd4a44f", "source": {"name": "Vernon", "slug": "vernon"}, "source_identifier": "12797", "external_references": [], "date_modified": "2025-03-06T23:55:44.297623+11:00"}, {"id": 13197, "name": "W. Batty", "roles_in_work": [{"id": 2678620, "title": "Black Tuesday", "work_id": 65480, "role": "director", "role_id": 938, "is_primary": true}], "also_known_as": "", "date_of_birth": "", "date_of_death": "", "genders": [{"id": 9, "name": "Male", "slug": "male"}], "languages": [], "places_of_operation": [], "biography": "", "biography_author": null, "date_of_biography": "2023-05-09T12:56:56.505222+10:00", "external_links": [], "uuid": "e18d32a4-b864-46a5-9203-99d808ba6f41", "source": {"name": "Vernon", "slug": "vernon"}, "source_identifier": "30190", "external_references": [{"id": 37725, "source": {"name": "Wikidata", "slug": "wikidata"}, "source_identifier": "Q121091314"}], "date_modified": "2025-03-06T23:55:42.264597+11:00"}, {"id": 13196, "name": "Tom Price", "roles_in_work": [{"id": 1813272, "title": "Mules and tail operation", "work_id": 70674, "role": "producer", "role_id": 1089, "is_primary": true}, {"id": 2678616, "title": "Black scour worm", "work_id": 65478, "role": "producer", "role_id": 1089, "is_primary": true}, {"id": 2465453, "title": "Scabby mouth in sheep", "work_id": 87098, "role": "producer", "role_id": 1089, "is_primary": true}], "also_known_as": "", "date_of_birth": "", "date_of_death": "", "genders": [], "languages": [], "places_of_operation": [], "biography": "", "biography_author": null, "date_of_biography": "2023-08-14T10:35:15.202949+10:00", "external_links": [], "uuid": "62e5aa9d-6e06-44f6-92e9-4bb599b16875", "source": {"name": "Vernon", "slug": "vernon"}, "source_identifier": "13605", "external_references": [], "date_modified": "2025-03-06T23:55:39.380345+11:00"}, {"id": 13195, "name": "Thomas J. Brandon", "roles_in_work": [{"id": 2678614, "title": "Black patch", "work_id": 65477, "role": "producer", "role_id": 1089, "is_primary": true}], "also_known_as": "", "date_of_birth": "", "date_of_death": "", "genders": [], "languages": [], "places_of_operation": [], "biography": "", "biography_author": null, "date_of_biography": "2023-08-11T14:52:05.748052+10:00", "external_links": [], "uuid": "891d2561-61eb-4d77-bbe9-fb13f4b43730", "source": {"name": "Vernon", "slug": "vernon"}, "source_identifier": "29690", "external_references": [], "date_modified": "2025-03-06T23:55:37.938248+11:00"}, {"id": 13194, "name": "Central Documentary Films", "roles_in_work": [{"id": 2678613, "title": "Black patch", "work_id": 65477, "role": "production company", "role_id": 941, "is_primary": true}], "also_known_as": "", "date_of_birth": "", "date_of_death": "", "genders": [], "languages": [], "places_of_operation": [], "biography": "", "biography_author": null, "date_of_biography": "2023-08-11T14:52:05.113604+10:00", "external_links": [], "uuid": "0fc36428-4c59-4c02-9bdc-427f47e3f8df", "source": {"name": "Vernon", "slug": "vernon"}, "source_identifier": "6407", "external_references": [], "date_modified": "2025-03-06T23:55:37.340778+11:00"}, {"id": 13193, "name": "Ronald Haines", "roles_in_work": [{"id": 2402467, "title": "Beat of the drums. Parts 1 and 2", "work_id": 91784, "role": "director", "role_id": 938, "is_primary": true}, {"id": 879579, "title": "China clay. Parts 1 & 2", "work_id": 91904, "role": "director", "role_id": 938, "is_primary": true}, {"id": 807015, "title": "In the west", "work_id": 91005, "role": "director", "role_id": 938, "is_primary": true}, {"id": 871123, "title": "Plastics", "work_id": 86842, "role": "director", "role_id": 938, "is_primary": true}, {"id": 2678606, "title": "The Black lake", "work_id": 65474, "role": "director", "role_id": 938, "is_primary": true}, {"id": 801676, "title": "It takes the biscuit", "work_id": 89102, "role": "director", "role_id": 938, "is_primary": true}, {"id": 880034, "title": "This fowl business", "work_id": 92212, "role": "director", "role_id": 938, "is_primary": true}, {"id": 804361, "title": "Tin", "work_id": 90031, "role": "director", "role_id": 938, "is_primary": true}, {"id": 750557, "title": "Pewter", "work_id": 71510, "role": "director", "role_id": 938, "is_primary": true}, {"id": 753417, "title": "Silversmith", "work_id": 72828, "role": "director", "role_id": 938, "is_primary": true}, {"id": 808269, "title": "Spinning along", "work_id": 91375, "role": "producer/director", "role_id": 31, "is_primary": true}, {"id": 877743, "title": "Dead level", "work_id": 90856, "role": "producer/director", "role_id": 31, "is_primary": true}, {"id": 800747, "title": "The Weakest link", "work_id": 88764, "role": "producer/director", "role_id": 31, "is_primary": true}], "also_known_as": "", "date_of_birth": null, "date_of_death": "", "genders": [], "languages": [], "places_of_operation": [], "biography": "", "biography_author": null, "date_of_biography": "2023-08-11T14:46:43.396491+10:00", "external_links": [], "uuid": "6a6224dc-d2b8-4220-8eb4-1a74e2139f10", "source": {"name": "Vernon", "slug": "vernon"}, "source_identifier": "28204", "external_references": [{"id": 42518, "source": {"name": "Wikidata", "slug": "wikidata"}, "source_identifier": "Q117883748"}], "date_modified": "2025-03-06T23:55:32.919620+11:00"}, {"id": 13192, "name": "British Foundation Pictures", "roles_in_work": [{"id": 750556, "title": "Pewter", "work_id": 71510, "role": "production company", "role_id": 941, "is_primary": true}, {"id": 2678605, "title": "The Black lake", "work_id": 65474, "role": "production company", "role_id": 941, "is_primary": true}, {"id": 877742, "title": "Dead level", "work_id": 90856, "role": "production company", "role_id": 941, "is_primary": true}, {"id": 871122, "title": "Plastics", "work_id": 86842, "role": "production company", "role_id": 941, "is_primary": true}, {"id": 808268, "title": "Spinning along", "work_id": 91375, "role": "production company", "role_id": 941, "is_primary": true}, {"id": 879578, "title": "China clay. Parts 1 & 2", "work_id": 91904, "role": "production company", "role_id": 941, "is_primary": true}, {"id": 800746, "title": "The Weakest link", "work_id": 88764, "role": "production company", "role_id": 941, "is_primary": true}, {"id": 2402466, "title": "Beat of the drums. Parts 1 and 2", "work_id": 91784, "role": "production company", "role_id": 941, "is_primary": true}, {"id": 880033, "title": "This fowl business", "work_id": 92212, "role": "production company", "role_id": 941, "is_primary": true}], "also_known_as": "", "date_of_birth": "", "date_of_death": "", "genders": [], "languages": [], "places_of_operation": [], "biography": "", "biography_author": null, "date_of_biography": "2023-08-11T14:46:42.749927+10:00", "external_links": [], "uuid": "a801977b-e529-4e58-b108-4b50d2a8261f", "source": {"name": "Vernon", "slug": "vernon"}, "source_identifier": "6015", "external_references": [], "date_modified": "2025-03-06T23:55:32.318275+11:00"}, {"id": 13190, "name": "Michael Sklar", "roles_in_work": [{"id": 1819286, "title": "Open heart surgery", "work_id": 71161, "role": "producer", "role_id": 1089, "is_primary": true}, {"id": 2715905, "title": "Hunt for a cancer killer", "work_id": 68680, "role": "producer", "role_id": 1089, "is_primary": true}, {"id": 2678601, "title": "The Black chain", "work_id": 65472, "role": "producer", "role_id": 1089, "is_primary": true}, {"id": 2713369, "title": "The Fallout atom", "work_id": 67377, "role": "producer", "role_id": 1089, "is_primary": true}], "also_known_as": "", "date_of_birth": null, "date_of_death": null, "genders": [], "languages": [], "places_of_operation": [], "biography": "", "biography_author": null, "date_of_biography": null, "external_links": [], "uuid": "a1f4b706-a87b-440f-9e20-bdf3f9ddfc78", "source": {"name": "Vernon", "slug": "vernon"}, "source_identifier": "25229", "external_references": [], "date_modified": "2025-03-12T01:45:47.091331+11:00"}, {"id": 13189, "name": "CBS Television Network", "roles_in_work": [{"id": 2349262, "title": "The Frank Sinatra show", "work_id": 94699, "role": "production company", "role_id": 941, "is_primary": true}, {"id": 2678600, "title": "The Black chain", "work_id": 65472, "role": "production company", "role_id": 941, "is_primary": true}], "also_known_as": "", "date_of_birth": "", "date_of_death": "", "genders": [], "languages": [], "places_of_operation": [], "biography": "", "biography_author": null, "date_of_biography": "2023-05-09T19:53:11.554126+10:00", "external_links": [], "uuid": "f7f301db-17c9-40e3-a041-f15b83522027", "source": {"name": "Vernon", "slug": "vernon"}, "source_identifier": "6377", "external_references": [{"id": 41247, "source": {"name": "Wikidata", "slug": "wikidata"}, "source_identifier": "Q121079251"}], "date_modified": "2025-03-06T23:55:28.716047+11:00"}]}