{"count": 28682, "next": "https://api.acmi.net.au/creators/?page=1515", "previous": "https://api.acmi.net.au/creators/?page=1513", "results": [{"id": 33328, "name": "Mark Gould Productions", "roles_in_work": [{"id": 2321167, "title": "Tabaran", "work_id": 92099, "role": "production company", "role_id": 941, "is_primary": true}], "also_known_as": "", "date_of_birth": "", "date_of_death": "", "genders": [], "languages": [], "places_of_operation": [], "biography": "", "biography_author": null, "date_of_biography": "2023-05-09T19:12:16.570857+10:00", "external_links": [], "uuid": "51687326-5e8d-4292-a969-f79a8fcdecde", "source": {"name": "Vernon", "slug": "vernon"}, "source_identifier": "10307", "external_references": [{"id": 43362, "source": {"name": "Wikidata", "slug": "wikidata"}, "source_identifier": "Q121035176"}], "date_modified": "2023-09-05T22:45:58.682338+10:00"}, {"id": 33323, "name": "Jamie Blanks", "roles_in_work": [{"id": 2300286, "title": "Silent Number", "work_id": 92095, "role": "director", "role_id": 938, "is_primary": true}, {"id": 2300294, "title": "Silent Number", "work_id": 92095, "role": "writer", "role_id": 939, "is_primary": true}], "also_known_as": "", "date_of_birth": "1961-01-01", "date_of_death": "", "genders": [{"id": 9, "name": "Male", "slug": "male"}], "languages": [{"id": 1, "name": "English", "slug": "english"}], "places_of_operation": [{"id": 3, "name": "Australia", "slug": "australia"}], "biography": "Jamie Blanks (born 29 November 1971) is an Australian film director and composer. He directed the cult slasher films Urban Legend (1998) and Valentine (2001). He later directed the horror films Storm Warning (2007) and Long Weekend (2008).", "biography_author": "Wikidata", "date_of_biography": "2023-08-01T15:23:08.643430+10:00", "external_links": [{"id": 4263, "uri": "https://en.wikipedia.org/wiki/Jamie_Blanks"}], "uuid": "4f753ba0-3e06-4f64-9855-7084c89daafb", "source": {"name": "Vernon", "slug": "vernon"}, "source_identifier": "21349", "external_references": [{"id": 26591, "source": {"name": "Wikidata", "slug": "wikidata"}, "source_identifier": "Q1061316"}, {"id": 29198, "source": {"name": "VIAF", "slug": "viaf"}, "source_identifier": "29181089"}, {"id": 29199, "source": {"name": "LOC Auth", "slug": "loc-auth"}, "source_identifier": "no2001048515"}, {"id": 29200, "source": {"name": "WorldCat", "slug": "worldcat"}, "source_identifier": "lccn-no2001048515"}], "date_modified": "2023-09-05T21:05:45.973925+10:00"}, {"id": 33291, "name": "Open Window Productions", "roles_in_work": [{"id": 2083930, "title": "Addio tradizione", "work_id": 92044, "role": "production company", "role_id": 941, "is_primary": true}], "also_known_as": "", "date_of_birth": "", "date_of_death": "", "genders": [], "languages": [], "places_of_operation": [], "biography": "", "biography_author": null, "date_of_biography": "2023-05-09T11:54:07.344759+10:00", "external_links": [], "uuid": "5e0527a8-4f34-4f57-9c05-6e215f741f46", "source": {"name": "Vernon", "slug": "vernon"}, "source_identifier": "11154", "external_references": [{"id": 37571, "source": {"name": "Wikidata", "slug": "wikidata"}, "source_identifier": "Q121079132"}], "date_modified": "2023-09-05T23:37:20.301597+10:00"}, {"id": 33285, "name": "Blurred", "roles_in_work": [{"id": 2106950, "title": "Bad by design: designers break the rules", "work_id": 92039, "role": "production company", "role_id": 941, "is_primary": true}], "also_known_as": "", "date_of_birth": "", "date_of_death": "", "genders": [], "languages": [], "places_of_operation": [], "biography": "", "biography_author": null, "date_of_biography": "2023-05-09T12:40:10.125544+10:00", "external_links": [], "uuid": "078cac87-2c2e-48bd-9582-cb6d8ee462bc", "source": {"name": "Vernon", "slug": "vernon"}, "source_identifier": "5912", "external_references": [{"id": 34732, "source": {"name": "Wikidata", "slug": "wikidata"}, "source_identifier": "Q121299342"}], "date_modified": "2023-09-05T18:06:53.253859+10:00"}, {"id": 33267, "name": "Leo White", "roles_in_work": [{"id": 1995668, "title": "Triple trouble", "work_id": 92018, "role": "director", "role_id": 938, "is_primary": true}], "also_known_as": "", "date_of_birth": "1873-11-10", "date_of_death": "1948-09-20", "genders": [{"id": 9, "name": "Male", "slug": "male"}], "languages": [{"id": 1, "name": "English", "slug": "english"}], "places_of_operation": [{"id": 1, "name": "United States of America", "slug": "united-states-of-america"}], "biography": "Leo White (November 10, 1873 – September 20, 1948), was a German-born British-American film and stage actor who appeared as a character actor in many Charlie Chaplin films.", "biography_author": "Wikidata", "date_of_biography": "2023-08-01T15:54:40.235448+10:00", "external_links": [{"id": 4531, "uri": "https://en.wikipedia.org/wiki/Leo_White"}], "uuid": "886cf3da-009d-42eb-8262-a7721cb6a686", "source": {"name": "Vernon", "slug": "vernon"}, "source_identifier": "23696", "external_references": [{"id": 25031, "source": {"name": "Wikidata", "slug": "wikidata"}, "source_identifier": "Q1383202"}, {"id": 29895, "source": {"name": "VIAF", "slug": "viaf"}, "source_identifier": "64206061"}, {"id": 29896, "source": {"name": "LOC Auth", "slug": "loc-auth"}, "source_identifier": "n87914420"}, {"id": 29897, "source": {"name": "WorldCat", "slug": "worldcat"}, "source_identifier": "lccn-n87914420"}], "date_modified": "2023-09-13T12:30:57.613689+10:00"}, {"id": 33263, "name": "Keisal Films", "roles_in_work": [{"id": 2775703, "title": "Robert Klippel", "work_id": 92014, "role": "production company", "role_id": 941, "is_primary": true}], "also_known_as": "", "date_of_birth": "", "date_of_death": "", "genders": [], "languages": [], "places_of_operation": [], "biography": "", "biography_author": null, "date_of_biography": "2023-07-05T03:51:29.324595+10:00", "external_links": [], "uuid": "3d55f1ea-c55a-4236-a34d-f3a356c292fd", "source": {"name": "Vernon", "slug": "vernon"}, "source_identifier": "9720", "external_references": [{"id": 52016, "source": {"name": "Wikidata", "slug": "wikidata"}, "source_identifier": "Q121357860"}], "date_modified": "2025-03-14T18:44:35.768850+11:00"}, {"id": 33258, "name": "Deborah Szapiro", "roles_in_work": [{"id": 3082234, "title": "Arrow up yours", "work_id": 92528, "role": "producer", "role_id": 1089, "is_primary": true}, {"id": 3082219, "title": "Falling cats", "work_id": 92531, "role": "producer", "role_id": 1089, "is_primary": true}, {"id": 1816141, "title": "Darwin's evolutionary stakes", "work_id": 92008, "role": "producer", "role_id": 1089, "is_primary": true}, {"id": 3082227, "title": "Manhole cover: first in space", "work_id": 92529, "role": "producer", "role_id": 1089, "is_primary": true}, {"id": 3082249, "title": "Great moments in science: presented by Dr Karl Kruszelnicki", "work_id": 115559, "role": "producer", "role_id": 1089, "is_primary": true}, {"id": 3082241, "title": "Murphy's law", "work_id": 92530, "role": "producer", "role_id": 1089, "is_primary": true}], "also_known_as": "", "date_of_birth": "", "date_of_death": "", "genders": [], "languages": [], "places_of_operation": [], "biography": "", "biography_author": null, "date_of_biography": "2023-08-11T14:13:26.990488+10:00", "external_links": [], "uuid": "d40a6c9b-329c-4f78-874f-5f3221b45f08", "source": {"name": "Vernon", "slug": "vernon"}, "source_identifier": "17917", "external_references": [], "date_modified": "2025-03-17T10:28:09.418382+11:00"}, {"id": 33257, "name": "Freerange Animation", "roles_in_work": [{"id": 809896, "title": "Darwin's evolutionary stakes", "work_id": 92008, "role": "production company", "role_id": 941, "is_primary": true}, {"id": 3082223, "title": "Manhole cover: first in space", "work_id": 92529, "role": "production company", "role_id": 941, "is_primary": true}, {"id": 3082237, "title": "Murphy's law", "work_id": 92530, "role": "production company", "role_id": 941, "is_primary": true}, {"id": 3082245, "title": "Great moments in science: presented by Dr Karl Kruszelnicki", "work_id": 115559, "role": "production company", "role_id": 941, "is_primary": true}], "also_known_as": "", "date_of_birth": "", "date_of_death": "", "genders": [], "languages": [], "places_of_operation": [], "biography": "", "biography_author": null, "date_of_biography": "2023-08-11T14:13:20.671486+10:00", "external_links": [], "uuid": "2d7cc4e0-b139-4286-8e99-b86c78db3b0d", "source": {"name": "Vernon", "slug": "vernon"}, "source_identifier": "8551", "external_references": [], "date_modified": "2025-03-17T10:28:08.238340+11:00"}, {"id": 33255, "name": "Innerspace Productions", "roles_in_work": [{"id": 2113663, "title": "Between us", "work_id": 92007, "role": "production company", "role_id": 941, "is_primary": true}], "also_known_as": "", "date_of_birth": "", "date_of_death": "", "genders": [], "languages": [], "places_of_operation": [], "biography": "", "biography_author": null, "date_of_biography": "2023-05-09T12:51:10.293923+10:00", "external_links": [], "uuid": "64789499-900d-4c98-a50d-69cdceb17feb", "source": {"name": "Vernon", "slug": "vernon"}, "source_identifier": "9304", "external_references": [{"id": 51119, "source": {"name": "Wikidata", "slug": "wikidata"}, "source_identifier": "Q121357610"}], "date_modified": "2023-09-05T20:49:00.982383+10:00"}, {"id": 33252, "name": "Rey Carlson", "roles_in_work": [{"id": 2065351, "title": "A Blow, a kiss", "work_id": 92004, "role": "director", "role_id": 938, "is_primary": true}], "also_known_as": "", "date_of_birth": "", "date_of_death": "", "genders": [], "languages": [], "places_of_operation": [], "biography": "", "biography_author": null, "date_of_biography": "2023-05-09T11:22:11.109349+10:00", "external_links": [], "uuid": "7d9ee775-4526-4c9d-942a-57e1afbb0cf0", "source": {"name": "Vernon", "slug": "vernon"}, "source_identifier": "27286", "external_references": [{"id": 33724, "source": {"name": "Wikidata", "slug": "wikidata"}, "source_identifier": "Q121223238"}], "date_modified": "2023-09-06T00:26:43.354445+10:00"}]}