{"count": 28687, "next": "https://api.acmi.net.au/creators/?page=2787", "previous": "https://api.acmi.net.au/creators/?page=2785", "results": [{"id": 9249, "name": "Jonathon Hill", "roles_in_work": [{"id": 2711476, "title": "Stencil art", "work_id": 109200, "role": "creator", "role_id": 968, "is_primary": true}], "also_known_as": "", "date_of_birth": "", "date_of_death": "", "genders": [], "languages": [], "places_of_operation": [], "biography": "", "biography_author": null, "date_of_biography": "2023-08-14T10:52:01.029430+10:00", "external_links": [], "uuid": "2baf3d35-1fbd-4af0-83e7-cc7b2067e080", "source": {"name": "Vernon", "slug": "vernon"}, "source_identifier": "112198", "external_references": [], "date_modified": "2025-03-11T23:52:37.641485+11:00"}, {"id": 9248, "name": "David Rosetzky", "roles_in_work": [{"id": 3097920, "title": "Gaps", "work_id": 119578, "role": "creator", "role_id": 968, "is_primary": true}, {"id": 2619616, "title": "Maniac de Luxe", "work_id": 114183, "role": "creator", "role_id": 968, "is_primary": true}, {"id": 2619617, "title": "Maniac de Luxe", "work_id": 114183, "role": "visual artist", "role_id": 493, "is_primary": false}, {"id": 3097921, "title": "Gaps", "work_id": 119578, "role": "writer", "role_id": 939, "is_primary": true}], "also_known_as": "", "date_of_birth": "", "date_of_death": "", "genders": [], "languages": [], "places_of_operation": [], "biography": "", "biography_author": null, "date_of_biography": "2023-08-11T19:42:00.076062+10:00", "external_links": [], "uuid": "b01e9fdf-199c-45bd-aeb2-ae914238d0f4", "source": {"name": "Vernon", "slug": "vernon"}, "source_identifier": "112196", "external_references": [], "date_modified": "2025-05-20T22:35:43.357221+10:00"}, {"id": 9245, "name": "Mic Looby", "roles_in_work": [{"id": 2711473, "title": "Shopper", "work_id": 114188, "role": "creator", "role_id": 968, "is_primary": true}], "also_known_as": "", "date_of_birth": "", "date_of_death": "", "genders": [], "languages": [], "places_of_operation": [], "biography": "", "biography_author": null, "date_of_biography": "2023-05-09T20:03:16.440114+10:00", "external_links": [], "uuid": "3ac8b90e-7087-4ae6-b535-6760108ae3af", "source": {"name": "Vernon", "slug": "vernon"}, "source_identifier": "112194", "external_references": [], "date_modified": "2025-03-11T23:52:33.336812+11:00"}, {"id": 9244, "name": "Hae Jung", "roles_in_work": [{"id": 2711470, "title": "Wrong decision", "work_id": 109197, "role": "creator", "role_id": 968, "is_primary": true}], "also_known_as": "", "date_of_birth": "", "date_of_death": "", "genders": [], "languages": [], "places_of_operation": [], "biography": "", "biography_author": null, "date_of_biography": "2023-05-09T20:03:19.482530+10:00", "external_links": [], "uuid": "39b9e6af-0fe5-4c79-a5c4-df29b248486e", "source": {"name": "Vernon", "slug": "vernon"}, "source_identifier": "112192", "external_references": [], "date_modified": "2025-03-11T23:52:29.501322+11:00"}, {"id": 9243, "name": "Young-Cil Park", "roles_in_work": [{"id": 2711469, "title": "Sac sac", "work_id": 109196, "role": "creator", "role_id": 968, "is_primary": true}], "also_known_as": "", "date_of_birth": "", "date_of_death": "", "genders": [], "languages": [], "places_of_operation": [], "biography": "", "biography_author": null, "date_of_biography": "2023-05-09T20:03:15.313245+10:00", "external_links": [], "uuid": "6a81dc69-5acf-4621-8f29-c9f86b4265ff", "source": {"name": "Vernon", "slug": "vernon"}, "source_identifier": "112191", "external_references": [], "date_modified": "2025-03-11T23:52:28.654038+11:00"}, {"id": 9242, "name": "Louise Wheelahan", "roles_in_work": [{"id": 2711467, "title": "Panorama", "work_id": 109194, "role": "creator", "role_id": 968, "is_primary": true}], "also_known_as": "", "date_of_birth": "", "date_of_death": "", "genders": [], "languages": [], "places_of_operation": [], "biography": "", "biography_author": null, "date_of_biography": "2023-05-09T20:03:14.302469+10:00", "external_links": [], "uuid": "267333e2-5c76-480b-8cce-a72b04cbe8e5", "source": {"name": "Vernon", "slug": "vernon"}, "source_identifier": "112176", "external_references": [], "date_modified": "2025-03-11T23:52:26.987309+11:00"}, {"id": 9241, "name": "Timothy Uebergang", "roles_in_work": [{"id": 2711468, "title": "T>IU", "work_id": 109195, "role": "creator", "role_id": 968, "is_primary": true}, {"id": 2711460, "title": "The Host Monogama", "work_id": 109192, "role": "creator", "role_id": 968, "is_primary": true}], "also_known_as": "", "date_of_birth": "", "date_of_death": "", "genders": [], "languages": [], "places_of_operation": [], "biography": "", "biography_author": null, "date_of_biography": "2023-05-09T20:03:17.496485+10:00", "external_links": [], "uuid": "29c894aa-15b7-4fad-88a7-5ebaa1e92f1b", "source": {"name": "Vernon", "slug": "vernon"}, "source_identifier": "112187", "external_references": [], "date_modified": "2025-03-11T23:52:27.818415+11:00"}, {"id": 9240, "name": "Antony Nevin", "roles_in_work": [{"id": 2711458, "title": "Out of time", "work_id": 109191, "role": "creator", "role_id": 968, "is_primary": true}], "also_known_as": "", "date_of_birth": "", "date_of_death": "", "genders": [], "languages": [], "places_of_operation": [], "biography": "", "biography_author": null, "date_of_biography": "2023-05-09T20:03:13.796234+10:00", "external_links": [], "uuid": "3518179c-55c4-4347-b520-f5aa59fce0eb", "source": {"name": "Vernon", "slug": "vernon"}, "source_identifier": "112171", "external_references": [], "date_modified": "2025-03-11T23:52:15.979794+11:00"}, {"id": 9239, "name": "Patrick Crawley", "roles_in_work": [{"id": 2635981, "title": "Take me to your Lager", "work_id": 114186, "role": "creator", "role_id": 968, "is_primary": true}], "also_known_as": "", "date_of_birth": "", "date_of_death": "", "genders": [], "languages": [], "places_of_operation": [], "biography": "", "biography_author": null, "date_of_biography": "2023-05-09T20:03:18.092518+10:00", "external_links": [], "uuid": "d3825c91-125f-4800-9fae-9d167270d2a4", "source": {"name": "Vernon", "slug": "vernon"}, "source_identifier": "112170", "external_references": [], "date_modified": "2025-03-05T10:30:58.619027+11:00"}, {"id": 9238, "name": "Ajima Artong", "roles_in_work": [{"id": 2711456, "title": "Journey's end", "work_id": 109189, "role": "creator", "role_id": 968, "is_primary": true}], "also_known_as": "", "date_of_birth": "", "date_of_death": "", "genders": [], "languages": [], "places_of_operation": [], "biography": "", "biography_author": null, "date_of_biography": "2023-05-09T20:03:11.343058+10:00", "external_links": [], "uuid": "9d8bb61c-b1d9-4533-a0cc-a4c70a2ee40d", "source": {"name": "Vernon", "slug": "vernon"}, "source_identifier": "112169", "external_references": [], "date_modified": "2025-03-11T23:52:15.166121+11:00"}]}