{"count": 28687, "next": "https://api.acmi.net.au/creators/?page=687", "previous": "https://api.acmi.net.au/creators/?page=685", "results": [{"id": 78723, "name": "David Fister", "roles_in_work": [{"id": 2475532, "title": "The Mask of Zorro", "work_id": 87982, "role": "co-producer", "role_id": 915, "is_primary": true}], "also_known_as": "", "date_of_birth": null, "date_of_death": "2019-12-23", "genders": [{"id": 9, "name": "Male", "slug": "male"}], "languages": [], "places_of_operation": [{"id": 1, "name": "United States of America", "slug": "united-states-of-america"}], "biography": "David Foster (1929 – December 23, 2019) was an American film producer, with credits in films such as The Thing (1982), The Mask of Zorro (1998) and The Core (2003).", "biography_author": "Wikidata", "date_of_biography": "2023-09-05T18:56:50.703446+10:00", "external_links": [{"id": 1885, "uri": "https://en.wikipedia.org/wiki/David_Foster_(film_producer)"}], "uuid": "70f2d1ca-a8b4-4cd6-b90c-34efdc51e8c6", "source": {"name": "Vernon", "slug": "vernon"}, "source_identifier": "17577", "external_references": [{"id": 8188, "source": {"name": "Wikidata", "slug": "wikidata"}, "source_identifier": "Q3017903"}, {"id": 8189, "source": {"name": "VIAF", "slug": "viaf"}, "source_identifier": "116713733"}, {"id": 8190, "source": {"name": "LOC Auth", "slug": "loc-auth"}, "source_identifier": "n77006100"}, {"id": 8191, "source": {"name": "WorldCat", "slug": "worldcat"}, "source_identifier": "lccn-n77006100"}], "date_modified": "2023-09-05T18:56:50.715537+10:00"}, {"id": 78722, "name": "Jean-Claude Van Damme", "roles_in_work": [{"id": 1992378, "title": "Legionnaire", "work_id": 87981, "role": "co-producer", "role_id": 915, "is_primary": true}], "also_known_as": "Jean-Claude Camille François Van Varenberg", "date_of_birth": "1960-10-18", "date_of_death": null, "genders": [{"id": 9, "name": "Male", "slug": "male"}], "languages": [{"id": 38, "name": "Dutch", "slug": "dutch"}, {"id": 1, "name": "English", "slug": "english"}, {"id": 4, "name": "French", "slug": "french"}], "places_of_operation": [{"id": 37, "name": "Belgium", "slug": "belgium"}], "biography": "Jean-Claude Camille François Van Varenberg (French: [ʒɑ̃ klod kamij fʁɑ̃swa vɑ̃ vaʁɑ̃bɛʁɡ], Dutch: [vɑɱ ˈvaːrə(m)ˌbɛr(ə)x]; born 18 October 1960), known professionally as Jean-Claude Van Damme (French: [vɑ̃ dam], Dutch: [vɑn ˈdɑmə]), is a Belgian actor, martial artist, filmmaker, and fight choreographer. Born and raised in Brussels, Belgium, at the age of ten his father enrolled him in martial arts classes, which led to Van Damme entering several competitions. With the desire of becoming an actor, he moved to the United States in 1982, where he did odd jobs and worked on several films, until he got his break as the lead in the martial arts film Bloodsport (1988).\nVan Damme became a popular action film star and followed up with Cyborg (1989), Kickboxer (1989), Lionheart (1990), Death Warrant (1990), Double Impact (1991), Universal Soldier (1992), Nowhere to Run (1993), Hard Target (1993), Timecop (1994), Street Fighter (1994), Sudden Death (1995), The Quest (1996), Maximum Risk (1996), etc. After a decline, Van Damme returned to prominence with the critically acclaimed crime drama JCVD (2008).\nFrom thereon Van Damme continued starring in more action films and playing supporting roles in The Expendables 2 (2012), the Kung Fu Panda franchise (2011–2016), and the Kickboxer reboot (2016–2018).\n\n", "biography_author": "Wikidata", "date_of_biography": "2022-05-19T11:54:06.598746+10:00", "external_links": [{"id": 2334, "uri": "https://en.wikipedia.org/wiki/Jean-Claude_Van_Damme"}], "uuid": "16fb410c-985e-4907-8e01-6b4895df3764", "source": {"name": "Vernon", "slug": "vernon"}, "source_identifier": "21574", "external_references": [{"id": 10009, "source": {"name": "Wikidata", "slug": "wikidata"}, "source_identifier": "Q308840"}, {"id": 10010, "source": {"name": "VIAF", "slug": "viaf"}, "source_identifier": "84033028"}, {"id": 10011, "source": {"name": "LOC Auth", "slug": "loc-auth"}, "source_identifier": "n92105375"}, {"id": 10012, "source": {"name": "WorldCat", "slug": "worldcat"}, "source_identifier": "lccn-n92105375"}], "date_modified": "2023-09-05T21:11:05.072530+10:00"}, {"id": 78721, "name": "Anthony Cardoza", "roles_in_work": [{"id": 2303656, "title": "Smokey and the hot wire gang", "work_id": 87978, "role": "producer/director", "role_id": 31, "is_primary": true}], "also_known_as": "", "date_of_birth": "", "date_of_death": "", "genders": [], "languages": [], "places_of_operation": [], "biography": "", "biography_author": null, "date_of_biography": "2023-05-09T18:41:28.951126+10:00", "external_links": [], "uuid": "32dcfbff-007f-4c8c-a826-b12cbb1fdcc7", "source": {"name": "Vernon", "slug": "vernon"}, "source_identifier": "15378", "external_references": [{"id": 51278, "source": {"name": "Wikidata", "slug": "wikidata"}, "source_identifier": "Q121361307"}], "date_modified": "2023-09-05T17:41:18.492162+10:00"}, {"id": 78720, "name": "Michael H. Shanberg", "roles_in_work": [{"id": 2261494, "title": "Salvation", "work_id": 87970, "role": "co-producer", "role_id": 915, "is_primary": true}], "also_known_as": "", "date_of_birth": "", "date_of_death": "", "genders": [], "languages": [], "places_of_operation": [], "biography": "", "biography_author": null, "date_of_biography": "2023-05-09T17:29:39.123762+10:00", "external_links": [], "uuid": "cd5dfd3c-eef3-41c1-82a2-43fe81a82d0a", "source": {"name": "Vernon", "slug": "vernon"}, "source_identifier": "25082", "external_references": [{"id": 43188, "source": {"name": "Wikidata", "slug": "wikidata"}, "source_identifier": "Q121036556"}], "date_modified": "2023-09-05T23:05:24.092692+10:00"}, {"id": 78719, "name": "Huang Guang", "roles_in_work": [{"id": 2136372, "title": "Children of two countries. Parts I and II", "work_id": 87967, "role": "co-producer", "role_id": 915, "is_primary": true}], "also_known_as": "", "date_of_birth": "", "date_of_death": "", "genders": [], "languages": [], "places_of_operation": [], "biography": "", "biography_author": null, "date_of_biography": "2023-05-09T13:30:17.043473+10:00", "external_links": [], "uuid": "7955e3ae-c4ab-4609-887c-f8b43fc4ac8e", "source": {"name": "Vernon", "slug": "vernon"}, "source_identifier": "20654", "external_references": [{"id": 41227, "source": {"name": "Wikidata", "slug": "wikidata"}, "source_identifier": "Q121058058"}], "date_modified": "2023-09-05T20:42:57.324327+10:00"}, {"id": 78718, "name": "Richard Vane", "roles_in_work": [{"id": 2115012, "title": "Bigfoot in Harry and the Hendersons", "work_id": 87963, "role": "co-producer", "role_id": 915, "is_primary": true}, {"id": 2098651, "title": "Arachnophobia", "work_id": 95252, "role": "co-producer", "role_id": 915, "is_primary": true}, {"id": 2186028, "title": "Dennis the menace", "work_id": 95565, "role": "co-producer", "role_id": 915, "is_primary": true}], "also_known_as": "", "date_of_birth": "", "date_of_death": "", "genders": [], "languages": [], "places_of_operation": [], "biography": "", "biography_author": null, "date_of_biography": "2023-05-09T15:01:09.009903+10:00", "external_links": [], "uuid": "ae3e9b22-7b70-4f6c-bb2a-17f5b89f8f28", "source": {"name": "Vernon", "slug": "vernon"}, "source_identifier": "27528", "external_references": [{"id": 36498, "source": {"name": "Wikidata", "slug": "wikidata"}, "source_identifier": "Q121036707"}], "date_modified": "2023-09-06T00:33:42.946325+10:00"}, {"id": 78717, "name": "Mario Marzac", "roles_in_work": [{"id": 2251820, "title": "Robinson Crusoe", "work_id": 87961, "role": "co-producer", "role_id": 915, "is_primary": true}], "also_known_as": "", "date_of_birth": "", "date_of_death": "", "genders": [], "languages": [], "places_of_operation": [], "biography": "", "biography_author": null, "date_of_biography": "2023-05-09T17:12:22.608987+10:00", "external_links": [], "uuid": "e39b4f1c-e168-4bcc-a2ee-140fdfeca88a", "source": {"name": "Vernon", "slug": "vernon"}, "source_identifier": "24439", "external_references": [{"id": 32899, "source": {"name": "Wikidata", "slug": "wikidata"}, "source_identifier": "Q121078942"}], "date_modified": "2023-09-05T22:44:12.723365+10:00"}, {"id": 78716, "name": "Ron Bashford", "roles_in_work": [{"id": 2069332, "title": "A House on the prairie", "work_id": 87959, "role": "co-director", "role_id": 959, "is_primary": true}], "also_known_as": "", "date_of_birth": "", "date_of_death": "", "genders": [], "languages": [], "places_of_operation": [], "biography": "", "biography_author": null, "date_of_biography": "2023-05-09T11:29:37.697609+10:00", "external_links": [], "uuid": "f9b92bea-f59c-4697-a014-513bd7c7e71a", "source": {"name": "Vernon", "slug": "vernon"}, "source_identifier": "28123", "external_references": [{"id": 33698, "source": {"name": "Wikidata", "slug": "wikidata"}, "source_identifier": "Q121036920"}], "date_modified": "2023-09-06T00:53:55.159541+10:00"}, {"id": 78715, "name": "Chris Colombus", "roles_in_work": [{"id": 798193, "title": "Home alone. Home alone 2 = Lost in New York", "work_id": 87957, "role": "director", "role_id": 938, "is_primary": true}], "also_known_as": "", "date_of_birth": null, "date_of_death": null, "genders": [], "languages": [], "places_of_operation": [], "biography": "", "biography_author": null, "date_of_biography": null, "external_links": [], "uuid": "bac00976-7460-486a-9211-5fc162915718", "source": {"name": "Vernon", "slug": "vernon"}, "source_identifier": null, "external_references": [], "date_modified": "2023-06-14T16:33:30.576250+10:00"}, {"id": 78714, "name": "Mickey Lion", "roles_in_work": [{"id": 2355549, "title": "The House of exorcism = Lisa and the devil", "work_id": 87956, "role": "co-director", "role_id": 959, "is_primary": true}], "also_known_as": "", "date_of_birth": "", "date_of_death": "", "genders": [], "languages": [], "places_of_operation": [], "biography": "", "biography_author": null, "date_of_biography": "2023-05-09T20:03:21.611185+10:00", "external_links": [], "uuid": "69f86318-79a6-4a6b-a3aa-afa84c04e269", "source": {"name": "Vernon", "slug": "vernon"}, "source_identifier": "25331", "external_references": [{"id": 36761, "source": {"name": "Wikidata", "slug": "wikidata"}, "source_identifier": "Q121315694"}], "date_modified": "2023-09-05T23:13:58.606151+10:00"}]}