{"count": 28687, "next": "https://api.acmi.net.au/creators/?page=1510", "previous": "https://api.acmi.net.au/creators/?page=1508", "results": [{"id": 33490, "name": "Rhapsody Pictures", "roles_in_work": [{"id": 2465665, "title": "Sense of home: getting older in a new country", "work_id": 92301, "role": "production company", "role_id": 941, "is_primary": true}], "also_known_as": "", "date_of_birth": "", "date_of_death": "", "genders": [], "languages": [], "places_of_operation": [], "biography": "", "biography_author": null, "date_of_biography": "2023-08-14T10:39:40.129780+10:00", "external_links": [], "uuid": "b12d69df-bb1f-481a-bc0e-b28d83b5e829", "source": {"name": "Vernon", "slug": "vernon"}, "source_identifier": "12002", "external_references": [], "date_modified": "2023-08-14T10:39:40.130058+10:00"}, {"id": 33487, "name": "Essential Productions", "roles_in_work": [{"id": 2162897, "title": "Jack be nimble", "work_id": 92299, "role": "production company", "role_id": 941, "is_primary": true}], "also_known_as": "", "date_of_birth": "", "date_of_death": "", "genders": [], "languages": [], "places_of_operation": [], "biography": "", "biography_author": null, "date_of_biography": "2023-05-09T14:20:20.805961+10:00", "external_links": [], "uuid": "dc21e7fb-8cff-4bbc-a838-aaab94ce808c", "source": {"name": "Vernon", "slug": "vernon"}, "source_identifier": "7969", "external_references": [{"id": 39936, "source": {"name": "Wikidata", "slug": "wikidata"}, "source_identifier": "Q121035746"}], "date_modified": "2023-09-05T19:36:54.744405+10:00"}, {"id": 33470, "name": "Rubbery Figures Productions", "roles_in_work": [{"id": 2257281, "title": "Rubbery figures: the world's greatest treasurer", "work_id": 92285, "role": "production company", "role_id": 941, "is_primary": true}], "also_known_as": "", "date_of_birth": "", "date_of_death": "", "genders": [], "languages": [], "places_of_operation": [], "biography": "", "biography_author": null, "date_of_biography": "2023-05-09T17:19:56.759181+10:00", "external_links": [], "uuid": "3a3dca7d-fb46-4583-8319-8e3c7f1a65d3", "source": {"name": "Vernon", "slug": "vernon"}, "source_identifier": "12172", "external_references": [{"id": 32653, "source": {"name": "Wikidata", "slug": "wikidata"}, "source_identifier": "Q121315329"}], "date_modified": "2023-09-06T00:58:01.121662+10:00"}, {"id": 33469, "name": "Jonothan Cullinane", "roles_in_work": [{"id": 2205150, "title": "Piano lessons", "work_id": 92282, "role": "director", "role_id": 938, "is_primary": true}, {"id": 2205148, "title": "Piano lessons", "work_id": 92282, "role": "co-producer", "role_id": 915, "is_primary": true}], "also_known_as": "", "date_of_birth": "", "date_of_death": "", "genders": [], "languages": [], "places_of_operation": [], "biography": "", "biography_author": null, "date_of_biography": "2023-05-09T15:33:07.660834+10:00", "external_links": [], "uuid": "a72778ab-da7c-4bf1-a5f5-58e33b3928fc", "source": {"name": "Vernon", "slug": "vernon"}, "source_identifier": "22686", "external_references": [{"id": 41362, "source": {"name": "Wikidata", "slug": "wikidata"}, "source_identifier": "Q117859392"}], "date_modified": "2023-09-05T21:49:30.591376+10:00"}, {"id": 33467, "name": "Toucan Films", "roles_in_work": [{"id": 2205141, "title": "Piano lessons", "work_id": 92282, "role": "production company", "role_id": 941, "is_primary": true}], "also_known_as": "", "date_of_birth": "", "date_of_death": "", "genders": [], "languages": [], "places_of_operation": [], "biography": "", "biography_author": null, "date_of_biography": "2023-05-09T15:33:06.845437+10:00", "external_links": [], "uuid": "682cb786-8594-4e98-a396-f39693a691fc", "source": {"name": "Vernon", "slug": "vernon"}, "source_identifier": "13667", "external_references": [{"id": 34385, "source": {"name": "Wikidata", "slug": "wikidata"}, "source_identifier": "Q121034948"}], "date_modified": "2023-09-06T01:57:50.519735+10:00"}, {"id": 33466, "name": "Realart Pictures", "roles_in_work": [{"id": 2348117, "title": "The Fighting Sullivans = The Sullivans", "work_id": 92281, "role": "production company", "role_id": 941, "is_primary": true}], "also_known_as": "", "date_of_birth": "", "date_of_death": "", "genders": [], "languages": [], "places_of_operation": [], "biography": "", "biography_author": null, "date_of_biography": "2023-05-09T19:51:23.307323+10:00", "external_links": [], "uuid": "2dc50f85-3563-4754-ad6c-23a89dffdf42", "source": {"name": "Vernon", "slug": "vernon"}, "source_identifier": "11896", "external_references": [{"id": 41188, "source": {"name": "Wikidata", "slug": "wikidata"}, "source_identifier": "Q121223196"}], "date_modified": "2023-09-06T00:23:51.141014+10:00"}, {"id": 33458, "name": "Hirokazu Kore-eda", "roles_in_work": [{"id": 2082877, "title": "After life", "work_id": 92269, "role": "director", "role_id": 938, "is_primary": true}], "also_known_as": "", "date_of_birth": "1962-06-06", "date_of_death": null, "genders": [{"id": 9, "name": "Male", "slug": "male"}], "languages": [{"id": 2, "name": "Japanese", "slug": "japanese"}], "places_of_operation": [{"id": 8, "name": "Japan", "slug": "japan"}], "biography": "Hirokazu Kore-eda (是枝 裕和, Koreeda Hirokazu, born 6 June 1962) is a Japanese film director, producer, screenwriter, and editor. He began his career in television and has since directed more than a dozen feature films, including Nobody Knows (2004), Still Walking (2008), and After the Storm (2016). He won the Jury Prize at the 2013 Cannes Film Festival for Like Father, Like Son and won the Palme d'Or at the 2018 Cannes Film Festival for Shoplifters.\n\n", "biography_author": "Wikidata", "date_of_biography": "2022-05-19T11:45:52.751253+10:00", "external_links": [{"id": 2238, "uri": "https://en.wikipedia.org/wiki/Hirokazu_Kore-eda"}], "uuid": "afffef1f-13e9-4d37-a458-c63f957817bc", "source": {"name": "Vernon", "slug": "vernon"}, "source_identifier": "20575", "external_references": [{"id": 9612, "source": {"name": "Wikidata", "slug": "wikidata"}, "source_identifier": "Q740758"}, {"id": 9613, "source": {"name": "VIAF", "slug": "viaf"}, "source_identifier": "44174038"}, {"id": 9614, "source": {"name": "LOC Auth", "slug": "loc-auth"}, "source_identifier": "nr93036009"}, {"id": 9615, "source": {"name": "WorldCat", "slug": "worldcat"}, "source_identifier": "lccn-nr93036009"}], "date_modified": "2023-09-13T12:29:59.998399+10:00"}, {"id": 33455, "name": "Engine Film", "roles_in_work": [{"id": 2082872, "title": "After life", "work_id": 92269, "role": "production company", "role_id": 941, "is_primary": true}], "also_known_as": "", "date_of_birth": "", "date_of_death": "", "genders": [], "languages": [], "places_of_operation": [], "biography": "", "biography_author": null, "date_of_biography": "2023-05-09T11:52:17.259140+10:00", "external_links": [], "uuid": "a2cdcde9-0a74-4854-a1de-4be056518be0", "source": {"name": "Vernon", "slug": "vernon"}, "source_identifier": "7894", "external_references": [{"id": 39652, "source": {"name": "Wikidata", "slug": "wikidata"}, "source_identifier": "Q121079139"}], "date_modified": "2023-09-05T19:32:36.132928+10:00"}, {"id": 33454, "name": "TV Man Union", "roles_in_work": [{"id": 1995768, "title": "Maborosi = Maborosi no hikari", "work_id": 92292, "role": "production company", "role_id": 941, "is_primary": true}, {"id": 2082869, "title": "After life", "work_id": 92269, "role": "production company", "role_id": 941, "is_primary": true}], "also_known_as": "", "date_of_birth": "", "date_of_death": "", "genders": [], "languages": [], "places_of_operation": [], "biography": "", "biography_author": null, "date_of_biography": "2023-05-09T11:52:17.008056+10:00", "external_links": [], "uuid": "fe12e301-5ee0-43c0-8079-7f9ed40727c0", "source": {"name": "Vernon", "slug": "vernon"}, "source_identifier": "13764", "external_references": [{"id": 41126, "source": {"name": "Wikidata", "slug": "wikidata"}, "source_identifier": "Q121299109"}], "date_modified": "2023-09-06T02:00:02.056075+10:00"}, {"id": 33453, "name": "Mikhail Kalatozov", "roles_in_work": [{"id": 1995750, "title": "I am Cuba = Soy Cuba = Ya Kuba [DVD]", "work_id": 92266, "role": "director", "role_id": 938, "is_primary": true}, {"id": 1999509, "title": "I am Cuba = Soy Cuba = Ya Kuba [NTSC]", "work_id": 100508, "role": "director", "role_id": 938, "is_primary": true}, {"id": 3087053, "title": "The Cranes are flying = Letyat Zhuravli", "work_id": 95339, "role": "producer/director", "role_id": 31, "is_primary": true}, {"id": 2650423, "title": "Letyat zhuravli = The Cranes are flying", "work_id": 115683, "role": "producer/director", "role_id": 31, "is_primary": true}], "also_known_as": "", "date_of_birth": "1903-12-15", "date_of_death": "1973-03-27", "genders": [{"id": 9, "name": "Male", "slug": "male"}], "languages": [{"id": 3, "name": "Russian", "slug": "russian"}], "places_of_operation": [{"id": 291, "name": "Russian Empire", "slug": "russian-empire"}], "biography": "Mikhail Konstantinovich Kalatozov (Georgian: მიხეილ კალატოზიშვილი, Russian: Михаил Константинович Калатозов) (28 December 1903 – 27 March 1973), born Mikheil Kalatozishvili, was a Soviet film director of Georgian origin who contributed to both Georgian and Russian cinema. He is most well known for his films The Cranes Are Flying and Soy Cuba.  In 1969, he was named a People's Artist of the USSR. His film The Cranes Are Flying won the Palme d'Or at the 1958 Cannes Film Festival.", "biography_author": "Wikidata", "date_of_biography": "2022-05-19T12:32:19.264333+10:00", "external_links": [{"id": 2748, "uri": "https://en.wikipedia.org/wiki/Mikhail_Kalatozov"}], "uuid": "444fc5a7-81e3-4f40-a056-a3fa451596a6", "source": {"name": "Vernon", "slug": "vernon"}, "source_identifier": "25416", "external_references": [{"id": 11712, "source": {"name": "Wikidata", "slug": "wikidata"}, "source_identifier": "Q324937"}, {"id": 11713, "source": {"name": "VIAF", "slug": "viaf"}, "source_identifier": "7546853"}, {"id": 11714, "source": {"name": "LOC Auth", "slug": "loc-auth"}, "source_identifier": "no98076769"}, {"id": 11715, "source": {"name": "WorldCat", "slug": "worldcat"}, "source_identifier": "lccn-no98076769"}], "date_modified": "2025-03-17T10:46:36.094868+11:00"}]}