{"count": 28687, "next": "https://api.acmi.net.au/creators/?page=2648", "previous": "https://api.acmi.net.au/creators/?page=2646", "results": [{"id": 12086, "name": "United States. Office of Education", "roles_in_work": [{"id": 2765992, "title": "Introducing the new worker to his job", "work_id": 69037, "role": "production company", "role_id": 941, "is_primary": true}, {"id": 2765987, "title": "Employing blind workers in industry", "work_id": 89196, "role": "production company", "role_id": 941, "is_primary": true}, {"id": 876914, "title": "Farm work: equipment maintenance. Ep. 1. Reconditioning a mower (cutter bar)", "work_id": 90350, "role": "production company", "role_id": 941, "is_primary": true}, {"id": 876276, "title": "Farm work: equipment maintenance. Ep. 2. Reconditionog a mower (drive system)", "work_id": 89984, "role": "production company", "role_id": 941, "is_primary": true}, {"id": 875892, "title": "Reconditioning a cultivator", "work_id": 89719, "role": "production company", "role_id": 941, "is_primary": true}, {"id": 875980, "title": "Farm work: equipment maintenance. Ep. 4. Reconditioning a grain drill", "work_id": 89775, "role": "production company", "role_id": 941, "is_primary": true}, {"id": 876390, "title": "Sharpening and tempering farm tools", "work_id": 90064, "role": "production company", "role_id": 941, "is_primary": true}, {"id": 855314, "title": "Measurement in the metal working industry. No. 2. Micrometer", "work_id": 70353, "role": "production company", "role_id": 941, "is_primary": true}, {"id": 752564, "title": "Safety in the shop", "work_id": 72433, "role": "production company", "role_id": 941, "is_primary": true}, {"id": 751831, "title": "Nursing: recreational and cccupational therapy", "work_id": 72095, "role": "production company", "role_id": 941, "is_primary": true}, {"id": 856689, "title": "Care of the patient with Diabetes Mellitus (Uncomplicated)", "work_id": 71396, "role": "production company", "role_id": 941, "is_primary": true}, {"id": 856688, "title": "Care of the patient with diabetes mellitus (complicated)", "work_id": 71395, "role": "production company", "role_id": 941, "is_primary": true}, {"id": 854230, "title": "Basic machines: the lathe", "work_id": 69518, "role": "production company", "role_id": 941, "is_primary": true}, {"id": 2466118, "title": "Repulsion motor principles", "work_id": 72166, "role": "production company", "role_id": 941, "is_primary": true}, {"id": 2466110, "title": "Rotating magnetic field", "work_id": 72352, "role": "production company", "role_id": 941, "is_primary": true}, {"id": 2466112, "title": "Split-phase motor principles", "work_id": 73108, "role": "production company", "role_id": 941, "is_primary": true}, {"id": 2466114, "title": "Single-phase and polyphase circuits", "work_id": 72850, "role": "production company", "role_id": 941, "is_primary": true}, {"id": 853617, "title": "An Introduction to vectors: coplanar concurrent forces", "work_id": 69070, "role": "production company", "role_id": 941, "is_primary": true}, {"id": 2465011, "title": "Moulding with a three-part flask", "work_id": 70621, "role": "production company", "role_id": 941, "is_primary": true}, {"id": 877958, "title": "The Battery, ignition and electrical system", "work_id": 90997, "role": "production company", "role_id": 941, "is_primary": true}, {"id": 2465009, "title": "Moulding on a jolt roll-over pattern drawn machine", "work_id": 70620, "role": "production company", "role_id": 941, "is_primary": true}, {"id": 855168, "title": "Measurement with light waves", "work_id": 70232, "role": "production company", "role_id": 941, "is_primary": true}, {"id": 2647885, "title": "A Child went forth (TEFC)", "work_id": 77719, "role": "production company", "role_id": 941, "is_primary": true}, {"id": 761291, "title": "Planning and laying out work", "work_id": 76160, "role": "production company", "role_id": 941, "is_primary": true}, {"id": 876392, "title": "Farm work: equipment maintenance. Ep. 3. Reconditioning a two-bottom tractor plow", "work_id": 90065, "role": "production company", "role_id": 941, "is_primary": true}, {"id": 2756321, "title": "Engine assembly", "work_id": 67181, "role": "production company", "role_id": 941, "is_primary": true}, {"id": 2756327, "title": "The Hydraulic brake system", "work_id": 68691, "role": "production company", "role_id": 941, "is_primary": true}, {"id": 2756331, "title": "Engine tests and tune-up", "work_id": 67183, "role": "production company", "role_id": 941, "is_primary": true}, {"id": 2756342, "title": "Know your car", "work_id": 86460, "role": "production company", "role_id": 941, "is_primary": true}, {"id": 2714079, "title": "Farm work forging. No. 1. Forging with a hand forge", "work_id": 67733, "role": "production company", "role_id": 941, "is_primary": true}, {"id": 2756351, "title": "Introduction to preventive maintenance", "work_id": 69062, "role": "production company", "role_id": 941, "is_primary": true}, {"id": 2756353, "title": "Clutch and handbrake", "work_id": 66199, "role": "production company", "role_id": 941, "is_primary": true}, {"id": 2756489, "title": "The Milling machine", "work_id": 70387, "role": "production company", "role_id": 941, "is_primary": true}, {"id": 2761189, "title": "Elements of hardening", "work_id": 68384, "role": "production company", "role_id": 941, "is_primary": true}, {"id": 2714077, "title": "Farm work forging. No. 2. Forge welding", "work_id": 67732, "role": "production company", "role_id": 941, "is_primary": true}, {"id": 2761198, "title": "Elements of tempering, normalizing and annealing", "work_id": 68386, "role": "production company", "role_id": 941, "is_primary": true}, {"id": 2713890, "title": "Engineering: flue gas analysis (Orsat apparatus)", "work_id": 67641, "role": "production company", "role_id": 941, "is_primary": true}, {"id": 2761204, "title": "Elements of surface hardening", "work_id": 68385, "role": "production company", "role_id": 941, "is_primary": true}, {"id": 2766254, "title": "Adjusting and checking expansion valve", "work_id": 111415, "role": "production company", "role_id": 941, "is_primary": true}, {"id": 2766246, "title": "Removing or installing a compressor or condenser", "work_id": 72138, "role": "production company", "role_id": 941, "is_primary": true}, {"id": 2766242, "title": "Removing and installing a cooling unit", "work_id": 72137, "role": "production company", "role_id": 941, "is_primary": true}, {"id": 2766238, "title": "Checking the system. Pt. II: trouble shooting", "work_id": 65988, "role": "production company", "role_id": 941, "is_primary": true}, {"id": 2766235, "title": "Checking the system. Pt. I: general procedure", "work_id": 65987, "role": "production company", "role_id": 941, "is_primary": true}, {"id": 2766229, "title": "Checking and replacing a float valve", "work_id": 65986, "role": "production company", "role_id": 941, "is_primary": true}, {"id": 2679245, "title": "Care of the cardiac patient", "work_id": 65812, "role": "production company", "role_id": 941, "is_primary": true}, {"id": 2766018, "title": "Supervising women workers", "work_id": 89064, "role": "production company", "role_id": 941, "is_primary": true}, {"id": 2766010, "title": "Maintaining workers interest", "work_id": 70012, "role": "production company", "role_id": 941, "is_primary": true}, {"id": 2766004, "title": "Maintaining quality standards", "work_id": 70011, "role": "production company", "role_id": 941, "is_primary": true}, {"id": 2765997, "title": "Maintaining good working conditions", "work_id": 90211, "role": "production company", "role_id": 941, "is_primary": true}], "also_known_as": "", "date_of_birth": "", "date_of_death": "", "genders": [], "languages": [], "places_of_operation": [], "biography": "", "biography_author": null, "date_of_biography": "2023-08-14T10:51:55.729874+10:00", "external_links": [], "uuid": "4b0a97f8-9c61-4227-a690-e1ffed7be5ba", "source": {"name": "Vernon", "slug": "vernon"}, "source_identifier": "4416", "external_references": [{"id": 37329, "source": {"name": "Wikidata", "slug": "wikidata"}, "source_identifier": "Q121034870"}], "date_modified": "2025-03-14T17:57:26.099682+11:00"}, {"id": 12085, "name": "J.A. Correll", "roles_in_work": [{"id": 873243, "title": "Kangaroo Island", "work_id": 88087, "role": "director", "role_id": 938, "is_primary": true}, {"id": 858783, "title": "Springtime in the ranges", "work_id": 73132, "role": "director", "role_id": 938, "is_primary": true}, {"id": 2676541, "title": "Adelaide: flowers and festival", "work_id": 111413, "role": "co-director", "role_id": 959, "is_primary": true}], "also_known_as": "", "date_of_birth": null, "date_of_death": null, "genders": [], "languages": [], "places_of_operation": [], "biography": "", "biography_author": null, "date_of_biography": null, "external_links": [], "uuid": "f022db36-4934-4a8b-b305-58c6a389fe4b", "source": {"name": "Vernon", "slug": "vernon"}, "source_identifier": "20942", "external_references": [], "date_modified": "2025-03-06T23:05:55.372855+11:00"}, {"id": 12084, "name": "G Shepherd", "roles_in_work": [{"id": 857622, "title": "Renmark on the river", "work_id": 72143, "role": "director", "role_id": 938, "is_primary": true}, {"id": 2713866, "title": "The Flinders: ranges of legend", "work_id": 67627, "role": "director", "role_id": 938, "is_primary": true}, {"id": 2643927, "title": "Adelaide's Christmas pageant", "work_id": 111414, "role": "director", "role_id": 938, "is_primary": true}, {"id": 2676538, "title": "Adelaide: flowers and festival", "work_id": 111413, "role": "co-director", "role_id": 959, "is_primary": true}], "also_known_as": "", "date_of_birth": null, "date_of_death": null, "genders": [], "languages": [], "places_of_operation": [], "biography": "", "biography_author": null, "date_of_biography": null, "external_links": [], "uuid": "19f1fb9a-e09c-4671-8594-687d917307ee", "source": {"name": "Vernon", "slug": "vernon"}, "source_identifier": "19324", "external_references": [], "date_modified": "2025-03-12T00:56:00.286450+11:00"}, {"id": 12083, "name": "South Australian Government Tourist Bureau", "roles_in_work": [{"id": 860222, "title": "Valley of Barossa", "work_id": 74272, "role": "production company", "role_id": 941, "is_primary": true}, {"id": 873242, "title": "Kangaroo Island", "work_id": 88087, "role": "production company", "role_id": 941, "is_primary": true}, {"id": 2643926, "title": "Adelaide's Christmas pageant", "work_id": 111414, "role": "production company", "role_id": 941, "is_primary": true}, {"id": 2678930, "title": "Brown men and red sand", "work_id": 65646, "role": "production company", "role_id": 941, "is_primary": true}, {"id": 857621, "title": "Renmark on the river", "work_id": 72143, "role": "production company", "role_id": 941, "is_primary": true}, {"id": 858782, "title": "Springtime in the ranges", "work_id": 73132, "role": "production company", "role_id": 941, "is_primary": true}, {"id": 2676534, "title": "Adelaide: Vintage City", "work_id": 111412, "role": "production company", "role_id": 941, "is_primary": true}, {"id": 2676539, "title": "Adelaide: flowers and festival", "work_id": 111413, "role": "production company", "role_id": 941, "is_primary": true}, {"id": 857190, "title": "Presenting South Australia. No. 3", "work_id": 71800, "role": "production company", "role_id": 941, "is_primary": true}, {"id": 2646053, "title": "Presenting South Australia. No. 4", "work_id": 71801, "role": "production company", "role_id": 941, "is_primary": true}, {"id": 859984, "title": "Tunarama", "work_id": 74079, "role": "production company", "role_id": 941, "is_primary": true}], "also_known_as": "", "date_of_birth": "", "date_of_death": "", "genders": [], "languages": [], "places_of_operation": [], "biography": "", "biography_author": null, "date_of_biography": "2023-07-12T03:35:10.033862+10:00", "external_links": [], "uuid": "d5eed0ad-55f0-4200-a73a-28d2e40f7286", "source": {"name": "Vernon", "slug": "vernon"}, "source_identifier": "12776", "external_references": [{"id": 35378, "source": {"name": "Wikidata", "slug": "wikidata"}, "source_identifier": "Q121337108"}], "date_modified": "2025-03-07T00:01:44.339573+11:00"}, {"id": 12081, "name": "Terry Jennings", "roles_in_work": [{"id": 2647140, "title": "Leisure lines", "work_id": 75412, "role": "director", "role_id": 938, "is_primary": true}, {"id": 759117, "title": "Jewellery making: acrylics", "work_id": 75297, "role": "director", "role_id": 938, "is_primary": true}, {"id": 745595, "title": "Jewellery making. Part 1: metal working", "work_id": 69242, "role": "director", "role_id": 938, "is_primary": true}, {"id": 2676527, "title": "Adelaide celebrations", "work_id": 111411, "role": "co-director", "role_id": 959, "is_primary": true}, {"id": 2751310, "title": "Canker at the core", "work_id": 97748, "role": "producer", "role_id": 1089, "is_primary": true}, {"id": 2614740, "title": "The Nostradamus kid", "work_id": 84170, "role": "producer", "role_id": 1089, "is_primary": true}, {"id": 1812730, "title": "Ian Chappell on cricket", "work_id": 75408, "role": "producer", "role_id": 1089, "is_primary": true}, {"id": 1813059, "title": "Pride and prejudice", "work_id": 76964, "role": "producer", "role_id": 1089, "is_primary": true}, {"id": 1813170, "title": "You can't always tell", "work_id": 77200, "role": "producer", "role_id": 1089, "is_primary": true}, {"id": 1819423, "title": "No going back", "work_id": 76806, "role": "producer", "role_id": 1089, "is_primary": true}, {"id": 1818835, "title": "One Last Chance", "work_id": 77860, "role": "producer", "role_id": 1089, "is_primary": true}, {"id": 2177186, "title": "Only two wheels", "work_id": 75419, "role": "producer", "role_id": 1089, "is_primary": true}, {"id": 2317049, "title": "Sun on the stubble", "work_id": 85213, "role": "producer", "role_id": 1089, "is_primary": true}, {"id": 2220088, "title": "Escape from Jupiter", "work_id": 84261, "role": "producer", "role_id": 1089, "is_primary": true}, {"id": 2751313, "title": "The Pursuit of excellence", "work_id": 97749, "role": "producer", "role_id": 1089, "is_primary": true}, {"id": 2751307, "title": "Women artists of Australia. Part 1. Sense and sensibility", "work_id": 97747, "role": "producer", "role_id": 1089, "is_primary": true}], "also_known_as": "", "date_of_birth": "", "date_of_death": "", "genders": [], "languages": [], "places_of_operation": [], "biography": "", "biography_author": null, "date_of_biography": "2023-05-09T19:06:20.186808+10:00", "external_links": [], "uuid": "ad6c9068-044f-403c-80be-7a22577e9955", "source": {"name": "Vernon", "slug": "vernon"}, "source_identifier": "29598", "external_references": [{"id": 50744, "source": {"name": "Wikidata", "slug": "wikidata"}, "source_identifier": "Q121358031"}], "date_modified": "2025-03-13T00:40:58.134207+11:00"}, {"id": 12080, "name": "Lesley Hammond", "roles_in_work": [{"id": 2752386, "title": "Forests and wood", "work_id": 98270, "role": "co-producer", "role_id": 915, "is_primary": true}, {"id": 2751064, "title": "Drugs: it's up to you really", "work_id": 97644, "role": "co-producer", "role_id": 915, "is_primary": true}, {"id": 2677062, "title": "The all purpose any place any time parent-teacher interview: a nine point guide (TEFC)", "work_id": 64672, "role": "producer", "role_id": 1089, "is_primary": true}, {"id": 2713987, "title": "Food from the reluctant earth", "work_id": 67694, "role": "producer", "role_id": 1089, "is_primary": true}, {"id": 2715430, "title": "Heysen on Heysen", "work_id": 68437, "role": "producer", "role_id": 1089, "is_primary": true}, {"id": 2676526, "title": "Adelaide celebrations", "work_id": 111411, "role": "producer", "role_id": 1089, "is_primary": true}, {"id": 2749928, "title": "All-purpose parent teacher interview", "work_id": 97048, "role": "producer", "role_id": 1089, "is_primary": true}, {"id": 2241438, "title": "First days (TEFC)", "work_id": 76602, "role": "producer", "role_id": 1089, "is_primary": true}, {"id": 1813169, "title": "An Opera prepares: 'Eugene Onegin'", "work_id": 77199, "role": "producer", "role_id": 1089, "is_primary": true}, {"id": 1812245, "title": "Take the cue train", "work_id": 73465, "role": "producer", "role_id": 1089, "is_primary": true}, {"id": 1819851, "title": "Vandalism", "work_id": 77300, "role": "producer", "role_id": 1089, "is_primary": true}, {"id": 2154717, "title": "Misconceptions", "work_id": 75416, "role": "producer", "role_id": 1089, "is_primary": true}, {"id": 1811349, "title": "Two little ears", "work_id": 76710, "role": "producer", "role_id": 1089, "is_primary": true}, {"id": 1819187, "title": "Bert Flugelman: public sculptor (TEFC)", "work_id": 76599, "role": "producer", "role_id": 1089, "is_primary": true}], "also_known_as": "", "date_of_birth": "", "date_of_death": "", "genders": [], "languages": [], "places_of_operation": [], "biography": "", "biography_author": null, "date_of_biography": "2023-05-09T19:21:03.252439+10:00", "external_links": [], "uuid": "800bdc55-d15b-4ff3-825b-79dcd62c77fd", "source": {"name": "Vernon", "slug": "vernon"}, "source_identifier": "23755", "external_references": [{"id": 35126, "source": {"name": "Wikidata", "slug": "wikidata"}, "source_identifier": "Q121035861"}], "date_modified": "2025-03-13T01:03:06.426461+11:00"}, {"id": 12079, "name": "Auster Films", "roles_in_work": [{"id": 2676513, "title": "Adelaide advances", "work_id": 111410, "role": "production company", "role_id": 941, "is_primary": true}, {"id": 2392754, "title": "Pony Club", "work_id": 95645, "role": "production company", "role_id": 941, "is_primary": true}, {"id": 2647460, "title": "School's out", "work_id": 76405, "role": "production company", "role_id": 941, "is_primary": true}], "also_known_as": "", "date_of_birth": "", "date_of_death": "", "genders": [], "languages": [], "places_of_operation": [], "biography": "", "biography_author": null, "date_of_biography": "2023-08-09T04:08:10.988369+10:00", "external_links": [], "uuid": "caf2104f-80a4-4e68-85c4-67cf7162e3f4", "source": {"name": "Vernon", "slug": "vernon"}, "source_identifier": "5551", "external_references": [{"id": 37241, "source": {"name": "Wikidata", "slug": "wikidata"}, "source_identifier": "Q121126545"}], "date_modified": "2025-03-06T23:05:45.939154+11:00"}, {"id": 12078, "name": "James Jeffrey", "roles_in_work": [{"id": 3105606, "title": "Adelaide", "work_id": 111409, "role": "director", "role_id": 938, "is_primary": true}], "also_known_as": "", "date_of_birth": "", "date_of_death": "", "genders": [], "languages": [], "places_of_operation": [], "biography": "", "biography_author": null, "date_of_biography": "2023-08-09T03:41:05.549324+10:00", "external_links": [], "uuid": "c8defdd2-88c9-413c-a490-76492b409271", "source": {"name": "Vernon", "slug": "vernon"}, "source_identifier": "21256", "external_references": [], "date_modified": "2025-05-23T22:35:02.274911+10:00"}, {"id": 12077, "name": "F.E. Brooker", "roles_in_work": [{"id": 2761205, "title": "Elements of surface hardening", "work_id": 68385, "role": "director", "role_id": 938, "is_primary": true}, {"id": 857131, "title": "Powder metallurgy, principles and uses", "work_id": 71746, "role": "director", "role_id": 938, "is_primary": true}, {"id": 2715582, "title": "Hobbing a spur gear. Part I. Setting of the change gears", "work_id": 68507, "role": "director", "role_id": 938, "is_primary": true}, {"id": 2645223, "title": "Instructing the worker on the job", "work_id": 68977, "role": "director", "role_id": 938, "is_primary": true}, {"id": 857223, "title": "Principle of moments", "work_id": 71829, "role": "director", "role_id": 938, "is_primary": true}, {"id": 2766000, "title": "Maintaining good working conditions", "work_id": 90211, "role": "director", "role_id": 938, "is_primary": true}, {"id": 2644645, "title": "The Electron. No. 1", "work_id": 67090, "role": "director", "role_id": 938, "is_primary": true}, {"id": 2766006, "title": "Maintaining quality standards", "work_id": 70011, "role": "director", "role_id": 938, "is_primary": true}, {"id": 2714081, "title": "Farm work forging. No. 1. Forging with a hand forge", "work_id": 67733, "role": "director", "role_id": 938, "is_primary": true}, {"id": 2766012, "title": "Maintaining workers interest", "work_id": 70012, "role": "director", "role_id": 938, "is_primary": true}, {"id": 2756347, "title": "Know your car", "work_id": 86460, "role": "director", "role_id": 938, "is_primary": true}, {"id": 2766024, "title": "Supervising workers on the job", "work_id": 73383, "role": "director", "role_id": 938, "is_primary": true}, {"id": 2766029, "title": "The Supervisor as a leader. Part 1", "work_id": 73385, "role": "director", "role_id": 938, "is_primary": true}, {"id": 2766032, "title": "The Supervisor as a leader. Part 2", "work_id": 73386, "role": "director", "role_id": 938, "is_primary": true}, {"id": 858509, "title": "The Slide rule: multiplication and division", "work_id": 72900, "role": "director", "role_id": 938, "is_primary": true}, {"id": 2761194, "title": "Elements of hardening", "work_id": 68384, "role": "director", "role_id": 938, "is_primary": true}, {"id": 2766216, "title": "Adding or removing refrigerent", "work_id": 111408, "role": "director", "role_id": 938, "is_primary": true}, {"id": 2715584, "title": "Hobbing a spur gear. Part II. Setting up and hobbing the wor", "work_id": 68508, "role": "director", "role_id": 938, "is_primary": true}, {"id": 858511, "title": "Slide rule: percentage, proportion, squares and square roots", "work_id": 72901, "role": "director", "role_id": 938, "is_primary": true}, {"id": 2761200, "title": "Elements of tempering, normalizing and annealing", "work_id": 68386, "role": "director", "role_id": 938, "is_primary": true}, {"id": 2766233, "title": "Checking and replacing a float valve", "work_id": 65986, "role": "director", "role_id": 938, "is_primary": true}, {"id": 2466111, "title": "Rotating magnetic field", "work_id": 72352, "role": "director", "role_id": 938, "is_primary": true}, {"id": 2715327, "title": "Heat treatment of aluminum. Part 2", "work_id": 68383, "role": "director", "role_id": 938, "is_primary": true}, {"id": 856690, "title": "Care of the patient with Diabetes Mellitus (Uncomplicated)", "work_id": 71396, "role": "director", "role_id": 938, "is_primary": true}, {"id": 2715325, "title": "Heat treatment of aluminum. Part 1", "work_id": 68382, "role": "director", "role_id": 938, "is_primary": true}, {"id": 857234, "title": "Principles of gas filled tubes", "work_id": 71837, "role": "director", "role_id": 938, "is_primary": true}, {"id": 1806656, "title": "Bathing the patient (home care)", "work_id": 87557, "role": "producer", "role_id": 1089, "is_primary": true}], "also_known_as": "", "date_of_birth": "", "date_of_death": "", "genders": [], "languages": [], "places_of_operation": [], "biography": "", "biography_author": null, "date_of_biography": "2023-08-14T10:51:56.359329+10:00", "external_links": [], "uuid": "86eb6f63-01bc-46cb-a656-43c5da6dc8c6", "source": {"name": "Vernon", "slug": "vernon"}, "source_identifier": "18944", "external_references": [{"id": 35337, "source": {"name": "Wikidata", "slug": "wikidata"}, "source_identifier": "Q120837797"}], "date_modified": "2025-03-14T17:57:18.232588+11:00"}, {"id": 12076, "name": "Frederick K Rockett", "roles_in_work": [{"id": 2766256, "title": "Adjusting and checking expansion valve", "work_id": 111415, "role": "director", "role_id": 938, "is_primary": true}, {"id": 2766222, "title": "Adjusting pressure actuated temperature control devices", "work_id": 111417, "role": "director", "role_id": 938, "is_primary": true}, {"id": 2766237, "title": "Checking the system. Pt. I: general procedure", "work_id": 65987, "role": "director", "role_id": 938, "is_primary": true}, {"id": 2766240, "title": "Checking the system. Pt. II: trouble shooting", "work_id": 65988, "role": "director", "role_id": 938, "is_primary": true}, {"id": 2766252, "title": "Adjusting and repairing the thermo expansion valve", "work_id": 111416, "role": "director", "role_id": 938, "is_primary": true}, {"id": 2766215, "title": "Adding or removing refrigerent", "work_id": 111408, "role": "producer", "role_id": 1089, "is_primary": true}, {"id": 2766231, "title": "Checking and replacing a float valve", "work_id": 65986, "role": "producer", "role_id": 1089, "is_primary": true}, {"id": 2766244, "title": "Removing and installing a cooling unit", "work_id": 72137, "role": "producer", "role_id": 1089, "is_primary": true}, {"id": 2766248, "title": "Removing or installing a compressor or condenser", "work_id": 72138, "role": "producer", "role_id": 1089, "is_primary": true}], "also_known_as": "", "date_of_birth": "", "date_of_death": "", "genders": [], "languages": [], "places_of_operation": [], "biography": "", "biography_author": null, "date_of_biography": "2023-08-11T13:30:50.092150+10:00", "external_links": [], "uuid": "d1e0b7dd-8b70-40ee-948f-d42122493941", "source": {"name": "Vernon", "slug": "vernon"}, "source_identifier": "19279", "external_references": [], "date_modified": "2025-03-14T17:57:26.682061+11:00"}]}