{"count": 28687, "next": "https://api.acmi.net.au/creators/?page=456", "previous": "https://api.acmi.net.au/creators/?page=454", "results": [{"id": 81033, "name": "Rae Sanchini", "roles_in_work": [{"id": 2304385, "title": "Solaris (2003)", "work_id": 94887, "role": "co-producer", "role_id": 915, "is_primary": true}], "also_known_as": "", "date_of_birth": "", "date_of_death": "", "genders": [], "languages": [], "places_of_operation": [], "biography": "", "biography_author": null, "date_of_biography": "2023-05-09T18:42:41.212494+10:00", "external_links": [], "uuid": "801ee9db-c5cc-45ed-9980-8d89c0cc2f58", "source": {"name": "Vernon", "slug": "vernon"}, "source_identifier": "27059", "external_references": [{"id": 41410, "source": {"name": "Wikidata", "slug": "wikidata"}, "source_identifier": "Q121298771"}], "date_modified": "2023-09-06T00:18:25.697901+10:00"}, {"id": 81032, "name": "Jun Falkenstein", "roles_in_work": [{"id": 2281202, "title": "The Tigger movie [DVD]", "work_id": 94886, "role": "director", "role_id": 938, "is_primary": true}], "also_known_as": "", "date_of_birth": "1969-05-07", "date_of_death": "", "genders": [{"id": 5, "name": "Female", "slug": "female"}], "languages": [{"id": 1, "name": "English", "slug": "english"}], "places_of_operation": [{"id": 1, "name": "United States of America", "slug": "united-states-of-america"}], "biography": "Jun Falkenstein is an American animation director, writer, and storyboard artist. She directed the film The Tigger Movie in 2000. Falkenstein graduated from the USC School of Cinematic Arts with a bachelors in live-action production in 1991.", "biography_author": "Wikidata", "date_of_biography": "2023-08-01T15:45:30.220786+10:00", "external_links": [{"id": 4457, "uri": "https://en.wikipedia.org/wiki/Jun_Falkenstein"}], "uuid": "c97f9e8c-c7a3-42c0-b311-6653db7baf0a", "source": {"name": "Vernon", "slug": "vernon"}, "source_identifier": "22932", "external_references": [{"id": 26809, "source": {"name": "Wikidata", "slug": "wikidata"}, "source_identifier": "Q15500033"}, {"id": 29710, "source": {"name": "VIAF", "slug": "viaf"}, "source_identifier": "12512238"}, {"id": 29711, "source": {"name": "LOC Auth", "slug": "loc-auth"}, "source_identifier": "no00091612"}, {"id": 29712, "source": {"name": "WorldCat", "slug": "worldcat"}, "source_identifier": "lccn-no00091612"}], "date_modified": "2023-09-05T21:57:13.637956+10:00"}, {"id": 81031, "name": "Cheryl Abood", "roles_in_work": [{"id": 2281198, "title": "The Tigger movie [DVD]", "work_id": 94886, "role": "producer", "role_id": 1089, "is_primary": true}], "also_known_as": "", "date_of_birth": "", "date_of_death": "", "genders": [], "languages": [], "places_of_operation": [], "biography": "", "biography_author": null, "date_of_biography": "2023-05-09T18:00:45.703513+10:00", "external_links": [], "uuid": "a75227f9-befb-4a9d-b992-3ebd62879833", "source": {"name": "Vernon", "slug": "vernon"}, "source_identifier": "16773", "external_references": [{"id": 42489, "source": {"name": "Wikidata", "slug": "wikidata"}, "source_identifier": "Q121143847"}], "date_modified": "2023-09-05T18:30:26.244303+10:00"}, {"id": 81030, "name": "Andrew Fierberg", "roles_in_work": [{"id": 2265869, "title": "Secretary", "work_id": 94877, "role": "co-producer", "role_id": 915, "is_primary": true}], "also_known_as": "", "date_of_birth": "", "date_of_death": "", "genders": [], "languages": [], "places_of_operation": [], "biography": "", "biography_author": null, "date_of_biography": "2023-05-09T17:37:34.292304+10:00", "external_links": [], "uuid": "3be5d414-77b2-4cc8-a9b6-90c07b80c579", "source": {"name": "Vernon", "slug": "vernon"}, "source_identifier": "15162", "external_references": [{"id": 33385, "source": {"name": "Wikidata", "slug": "wikidata"}, "source_identifier": "Q121036297"}], "date_modified": "2023-09-05T17:35:22.680087+10:00"}, {"id": 81029, "name": "Cohen Company", "roles_in_work": [{"id": 2392748, "title": "Big fish", "work_id": 94875, "role": "production company", "role_id": 941, "is_primary": true}], "also_known_as": "", "date_of_birth": "", "date_of_death": "", "genders": [], "languages": [], "places_of_operation": [], "biography": "", "biography_author": null, "date_of_biography": "2023-08-09T04:08:07.912991+10:00", "external_links": [], "uuid": "78903eda-ecb1-41c3-92ac-a14e3d2fbcc4", "source": {"name": "Vernon", "slug": "vernon"}, "source_identifier": "6869", "external_references": [{"id": 33375, "source": {"name": "Wikidata", "slug": "wikidata"}, "source_identifier": "Q121223527"}], "date_modified": "2023-09-05T18:43:20.695923+10:00"}, {"id": 81028, "name": "Producciones Anhelo", "roles_in_work": [{"id": 2095668, "title": "And your mother too! = Y tu mama tambien", "work_id": 94874, "role": "production company", "role_id": 941, "is_primary": true}], "also_known_as": "", "date_of_birth": "", "date_of_death": "", "genders": [], "languages": [], "places_of_operation": [], "biography": "", "biography_author": null, "date_of_biography": "2023-05-09T12:23:22.884105+10:00", "external_links": [], "uuid": "e32e1f3a-a27e-43f7-87ae-0e7fdea4d499", "source": {"name": "Vernon", "slug": "vernon"}, "source_identifier": "11660", "external_references": [{"id": 39328, "source": {"name": "Wikidata", "slug": "wikidata"}, "source_identifier": "Q121034492"}], "date_modified": "2023-09-06T00:14:25.596932+10:00"}, {"id": 81027, "name": "Mel Lawrence", "roles_in_work": [{"id": 2228560, "title": "Powaqqatsi: Life in transformation [DVD]", "work_id": 94872, "role": "co-producer", "role_id": 915, "is_primary": true}], "also_known_as": "", "date_of_birth": "", "date_of_death": "", "genders": [], "languages": [], "places_of_operation": [], "biography": "", "biography_author": null, "date_of_biography": "2023-05-09T16:30:23.039010+10:00", "external_links": [], "uuid": "bdd33b22-0f67-4df9-9a69-f1eed32b7a8d", "source": {"name": "Vernon", "slug": "vernon"}, "source_identifier": "24915", "external_references": [{"id": 37969, "source": {"name": "Wikidata", "slug": "wikidata"}, "source_identifier": "Q121315074"}], "date_modified": "2023-09-05T22:59:34.515533+10:00"}, {"id": 81026, "name": "Alex Kirby", "roles_in_work": [{"id": 2772672, "title": "The Chronicles of Narnia [DVD]", "work_id": 94871, "role": "co-director", "role_id": 959, "is_primary": true}, {"id": 2772688, "title": "The Chronicles of Narnia", "work_id": 115170, "role": "director", "role_id": 938, "is_primary": true}], "also_known_as": "", "date_of_birth": "", "date_of_death": "", "genders": [], "languages": [], "places_of_operation": [], "biography": "", "biography_author": null, "date_of_biography": "2023-05-09T19:34:31.193435+10:00", "external_links": [], "uuid": "6c8392a7-39e0-417a-906d-55f9819f751e", "source": {"name": "Vernon", "slug": "vernon"}, "source_identifier": "14894", "external_references": [{"id": 50543, "source": {"name": "Wikidata", "slug": "wikidata"}, "source_identifier": "Q121357758"}], "date_modified": "2025-03-14T18:26:22.669297+11:00"}, {"id": 81025, "name": "Aaron Blaise", "roles_in_work": [{"id": 2125721, "title": "Brother bear", "work_id": 94867, "role": "co-director", "role_id": 959, "is_primary": true}], "also_known_as": "", "date_of_birth": "1968-02-17", "date_of_death": "", "genders": [{"id": 9, "name": "Male", "slug": "male"}], "languages": [], "places_of_operation": [{"id": 1, "name": "United States of America", "slug": "united-states-of-america"}], "biography": "Aaron Blaise (born February 17, 1968) is an American painter, animator, film director and art instructor. He is known for his work on Beauty and the Beast (1991), Aladdin (1992) and Brother Bear (2003). He was nominated for Academy Award for Best Animated Feature Film for the Brother Bear with Robert Walker.", "biography_author": "Wikidata", "date_of_biography": "2023-09-05T17:14:08.032107+10:00", "external_links": [{"id": 5648, "uri": "https://en.wikipedia.org/wiki/Aaron_Blaise"}], "uuid": "4da490d6-949d-4053-98ed-10b9e268c1bc", "source": {"name": "Vernon", "slug": "vernon"}, "source_identifier": "14624", "external_references": [{"id": 51295, "source": {"name": "Wikidata", "slug": "wikidata"}, "source_identifier": "Q22115062"}, {"id": 53870, "source": {"name": "VIAF", "slug": "viaf"}, "source_identifier": "13395853"}, {"id": 53871, "source": {"name": "LOC Auth", "slug": "loc-auth"}, "source_identifier": "no2004065579"}, {"id": 53872, "source": {"name": "WorldCat", "slug": "worldcat"}, "source_identifier": "viaf-13395853"}], "date_modified": "2023-09-05T17:14:08.054142+10:00"}, {"id": 81024, "name": "Michael Bourchier", "roles_in_work": [{"id": 1999993, "title": "Napoleon (1994) [DVD]", "work_id": 94866, "role": "co-producer", "role_id": 915, "is_primary": true}], "also_known_as": "", "date_of_birth": null, "date_of_death": null, "genders": [], "languages": [], "places_of_operation": [], "biography": "", "biography_author": null, "date_of_biography": null, "external_links": [], "uuid": "d6dfd12b-f7ca-48b3-818c-06fc57515a87", "source": {"name": "Vernon", "slug": "vernon"}, "source_identifier": null, "external_references": [{"id": 33761, "source": {"name": "Wikidata", "slug": "wikidata"}, "source_identifier": "Q121270911"}], "date_modified": "2023-09-05T23:02:33.610285+10:00"}]}