{"count": 28687, "next": "https://api.acmi.net.au/creators/?page=2745", "previous": "https://api.acmi.net.au/creators/?page=2743", "results": [{"id": 10817, "name": "Pat Ramsey", "roles_in_work": [{"id": 2633052, "title": "Attack of the urbanites", "work_id": 114098, "role": "creator", "role_id": 968, "is_primary": true}], "also_known_as": "", "date_of_birth": "", "date_of_death": "", "genders": [], "languages": [], "places_of_operation": [], "biography": "", "biography_author": null, "date_of_biography": "2023-08-11T12:51:45.955736+10:00", "external_links": [], "uuid": "fb1e5f48-a7b1-4721-ab85-ad5991c31e10", "source": {"name": "Vernon", "slug": "vernon"}, "source_identifier": "2548", "external_references": [], "date_modified": "2025-02-28T22:40:41.492374+11:00"}, {"id": 10816, "name": "James Saan", "roles_in_work": [{"id": 2633053, "title": "A Bad day", "work_id": 114099, "role": "creator", "role_id": 968, "is_primary": true}], "also_known_as": "", "date_of_birth": "", "date_of_death": "", "genders": [], "languages": [], "places_of_operation": [], "biography": "", "biography_author": null, "date_of_biography": "2023-08-11T12:51:47.564332+10:00", "external_links": [], "uuid": "87bf9dfe-2a29-4cb0-8a91-5c4ab8719b4a", "source": {"name": "Vernon", "slug": "vernon"}, "source_identifier": "2547", "external_references": [], "date_modified": "2025-02-28T22:40:42.225715+11:00"}, {"id": 10814, "name": "Paul Curnwood", "roles_in_work": [{"id": 2633064, "title": "The New colonizers", "work_id": 114109, "role": "creator", "role_id": 968, "is_primary": true}], "also_known_as": "", "date_of_birth": "", "date_of_death": "", "genders": [], "languages": [], "places_of_operation": [], "biography": "", "biography_author": null, "date_of_biography": "2023-08-11T12:51:53.988092+10:00", "external_links": [], "uuid": "7f2add2e-67a7-4cc1-b646-d8f4bb40c70f", "source": {"name": "Vernon", "slug": "vernon"}, "source_identifier": "2545", "external_references": [], "date_modified": "2025-02-28T22:40:52.405806+11:00"}, {"id": 10813, "name": "Michelle Leong", "roles_in_work": [{"id": 2633063, "title": "Morning glory", "work_id": 114108, "role": "creator", "role_id": 968, "is_primary": true}], "also_known_as": "", "date_of_birth": "", "date_of_death": "", "genders": [], "languages": [], "places_of_operation": [], "biography": "", "biography_author": null, "date_of_biography": "2023-08-11T12:51:44.342845+10:00", "external_links": [], "uuid": "f35b3526-ce29-4a38-9b94-dbaa9599a8ef", "source": {"name": "Vernon", "slug": "vernon"}, "source_identifier": "2544", "external_references": [], "date_modified": "2025-02-28T22:40:51.681122+11:00"}, {"id": 10807, "name": "Amanda Sykes", "roles_in_work": [{"id": 2637690, "title": "Home", "work_id": 109892, "role": "director", "role_id": 938, "is_primary": true}, {"id": 2637691, "title": "Home", "work_id": 109892, "role": "producer", "role_id": 1089, "is_primary": true}, {"id": 2637692, "title": "Home", "work_id": 109892, "role": "screenwriter", "role_id": 601, "is_primary": false}], "also_known_as": "", "date_of_birth": "", "date_of_death": "", "genders": [{"id": 5, "name": "Female", "slug": "female"}], "languages": [], "places_of_operation": [], "biography": "", "biography_author": null, "date_of_biography": "2023-08-11T17:28:22.734769+10:00", "external_links": [], "uuid": "dfd8f992-1670-404b-b834-66cdd9b2e545", "source": {"name": "Vernon", "slug": "vernon"}, "source_identifier": "2515", "external_references": [], "date_modified": "2025-03-05T10:55:10.657272+11:00"}, {"id": 10805, "name": "Field Carr", "roles_in_work": [{"id": 2637688, "title": "Trans", "work_id": 109891, "role": "creator", "role_id": 968, "is_primary": true}, {"id": 2270802, "title": "You will see me", "work_id": 117940, "role": "creator", "role_id": 968, "is_primary": true}, {"id": 2374544, "title": "[Remix: ACMI Collection 2]", "work_id": 119294, "role": "editor", "role_id": 918, "is_primary": true}, {"id": 1898822, "title": "[Remix: ACMI Collection]", "work_id": 117830, "role": "editor", "role_id": 918, "is_primary": true}, {"id": 3097751, "title": "Beneath Roads", "work_id": 122615, "role": "producer", "role_id": 1089, "is_primary": true}], "also_known_as": "", "date_of_birth": "", "date_of_death": "", "genders": [{"id": 9, "name": "Male", "slug": "male"}], "languages": [], "places_of_operation": [], "biography": "", "biography_author": null, "date_of_biography": "2023-07-05T03:57:07.791372+10:00", "external_links": [], "uuid": "4136d7aa-d4f1-4090-b58d-424bd929770e", "source": {"name": "Vernon", "slug": "vernon"}, "source_identifier": "2514", "external_references": [], "date_modified": "2025-05-13T22:35:01.248365+10:00"}, {"id": 10803, "name": "Kelly McGillivray-Brown", "roles_in_work": [{"id": 2637686, "title": "Backstage", "work_id": 109890, "role": "creator", "role_id": 968, "is_primary": true}, {"id": 2637684, "title": "Hoarse", "work_id": 109889, "role": "creator", "role_id": 968, "is_primary": true}], "also_known_as": "", "date_of_birth": "", "date_of_death": "", "genders": [{"id": 5, "name": "Female", "slug": "female"}], "languages": [], "places_of_operation": [], "biography": "", "biography_author": null, "date_of_biography": "2023-05-09T12:39:08.549581+10:00", "external_links": [], "uuid": "674596ec-ad54-4057-a477-f1a3d1134ed1", "source": {"name": "Vernon", "slug": "vernon"}, "source_identifier": "2512", "external_references": [], "date_modified": "2025-03-05T10:55:06.555370+11:00"}, {"id": 10802, "name": "Elisabeth Subrin", "roles_in_work": [{"id": 2632997, "title": "The Judy spots", "work_id": 109884, "role": "producer", "role_id": 1089, "is_primary": true}], "also_known_as": "", "date_of_birth": "1964-01-01", "date_of_death": "", "genders": [{"id": 5, "name": "Female", "slug": "female"}], "languages": [], "places_of_operation": [{"id": 1, "name": "United States of America", "slug": "united-states-of-america"}], "biography": "Elisabeth Subrin is a Brooklyn-based filmmaker, screenwriter, and visual artist. She is known for her interdisciplinary practice in the contemporary art and independent film worlds. She is a professor in Temple University's Department of Film and Media Arts. Her feature length narrative film A Woman, a Part; starring Maggie Siff, Cara Seymour, John Ortiz, and Khandi Alexander; premiered at The Rotterdam Film Festival in 2016. She is also the creator of the blog, Who Cares About Actresses, dedicated to actress Maria Schneider.", "biography_author": "Wikidata", "date_of_biography": "2023-09-05T19:29:10.226301+10:00", "external_links": [{"id": 5792, "uri": "https://en.wikipedia.org/wiki/Elisabeth_Subrin"}], "uuid": "0b002b80-e08f-466c-ad91-499db5058788", "source": {"name": "Vernon", "slug": "vernon"}, "source_identifier": "34572", "external_references": [{"id": 50991, "source": {"name": "Wikidata", "slug": "wikidata"}, "source_identifier": "Q5361552"}, {"id": 54367, "source": {"name": "VIAF", "slug": "viaf"}, "source_identifier": "2076229"}, {"id": 54368, "source": {"name": "LOC Auth", "slug": "loc-auth"}, "source_identifier": "no97065450"}, {"id": 54369, "source": {"name": "WorldCat", "slug": "worldcat"}, "source_identifier": "lccn-no97065450"}], "date_modified": "2025-02-28T22:35:50.519514+11:00"}, {"id": 10799, "name": "Peter Callas", "roles_in_work": [{"id": 2044254, "title": "How to make the famous pisco sour", "work_id": 116706, "role": "creator", "role_id": 968, "is_primary": true}, {"id": 2044261, "title": "Neo Geo: an American purchase", "work_id": 116713, "role": "creator", "role_id": 968, "is_primary": true}, {"id": 2044258, "title": "The Esthetics of Disappearance", "work_id": 116710, "role": "creator", "role_id": 968, "is_primary": true}, {"id": 2044253, "title": "Our potential allies", "work_id": 116705, "role": "creator", "role_id": 968, "is_primary": true}, {"id": 2676444, "title": "Lost in translation: work in progress. Part 1. Plus ultra", "work_id": 109876, "role": "creator", "role_id": 968, "is_primary": true}, {"id": 2044252, "title": "Singing Stone", "work_id": 116704, "role": "creator", "role_id": 968, "is_primary": true}, {"id": 2044257, "title": "Kinema no yoru / Film Night", "work_id": 116709, "role": "creator", "role_id": 968, "is_primary": true}, {"id": 2044256, "title": "Double Trouble", "work_id": 116708, "role": "creator", "role_id": 968, "is_primary": true}, {"id": 2044260, "title": "Night's High Noon: an anti-terrain", "work_id": 116712, "role": "creator", "role_id": 968, "is_primary": true}, {"id": 2044255, "title": "Kiru umi no yoni / Cutting like the ocean", "work_id": 116707, "role": "creator", "role_id": 968, "is_primary": true}, {"id": 2044259, "title": "If pigs could fly (the media machine)", "work_id": 116711, "role": "creator", "role_id": 968, "is_primary": true}, {"id": 2044263, "title": "Lost in Translation", "work_id": 116715, "role": "creator", "role_id": 968, "is_primary": true}, {"id": 2044262, "title": "Bilderbuch fur Ernst Will", "work_id": 116714, "role": "creator", "role_id": 968, "is_primary": true}], "also_known_as": "", "date_of_birth": "", "date_of_death": "", "genders": [], "languages": [], "places_of_operation": [], "biography": "", "biography_author": null, "date_of_biography": "2023-05-09T18:24:53.403466+10:00", "external_links": [], "uuid": "5d11b416-2974-4e85-9dff-e126774731ea", "source": {"name": "Vernon", "slug": "vernon"}, "source_identifier": "2508", "external_references": [], "date_modified": "2025-03-06T23:05:27.766734+11:00"}, {"id": 10796, "name": "Tina Gonsalves", "roles_in_work": [{"id": 2676464, "title": "You and me", "work_id": 109877, "role": "creator", "role_id": 968, "is_primary": true}, {"id": 2676384, "title": "Three studies for a portrait. No. 1. Yesterday", "work_id": 109867, "role": "creator", "role_id": 968, "is_primary": true}, {"id": 2676335, "title": "Boxing fragments", "work_id": 109872, "role": "creator", "role_id": 968, "is_primary": true}, {"id": 2676340, "title": "Convergence", "work_id": 109871, "role": "creator", "role_id": 968, "is_primary": true}, {"id": 2676344, "title": "Deeper", "work_id": 109865, "role": "creator", "role_id": 968, "is_primary": true}, {"id": 2676348, "title": "Dissect", "work_id": 109866, "role": "creator", "role_id": 968, "is_primary": true}, {"id": 2676352, "title": "Emerge", "work_id": 109863, "role": "creator", "role_id": 968, "is_primary": true}, {"id": 2676357, "title": "Erosion", "work_id": 109873, "role": "creator", "role_id": 968, "is_primary": true}, {"id": 2676361, "title": "Hollow", "work_id": 109864, "role": "creator", "role_id": 968, "is_primary": true}, {"id": 2676366, "title": "I don't know you", "work_id": 109859, "role": "creator", "role_id": 968, "is_primary": true}, {"id": 2676371, "title": "Kissing Mark", "work_id": 109862, "role": "creator", "role_id": 968, "is_primary": true}, {"id": 2676375, "title": "Passing through", "work_id": 109874, "role": "creator", "role_id": 968, "is_primary": true}, {"id": 2676380, "title": "Resonate", "work_id": 109870, "role": "creator", "role_id": 968, "is_primary": true}, {"id": 2676390, "title": "Three studies for a portrait. No. 2. Today", "work_id": 109868, "role": "creator", "role_id": 968, "is_primary": true}, {"id": 2676393, "title": "Three studies for a portrait. No. 3. Tomorrow", "work_id": 109869, "role": "creator", "role_id": 968, "is_primary": true}, {"id": 2676398, "title": "Wounded", "work_id": 109861, "role": "creator", "role_id": 968, "is_primary": true}, {"id": 2676402, "title": "Tina Gonsalves. Animation video 1999-2001", "work_id": 109860, "role": "creator", "role_id": 968, "is_primary": true}], "also_known_as": "", "date_of_birth": "", "date_of_death": "", "genders": [], "languages": [], "places_of_operation": [], "biography": "", "biography_author": null, "date_of_biography": "2023-05-09T18:24:52.853476+10:00", "external_links": [], "uuid": "0ba92b89-ea3c-4cb2-a9d0-3eb48d6370d9", "source": {"name": "Vernon", "slug": "vernon"}, "source_identifier": "111930", "external_references": [], "date_modified": "2025-03-06T23:05:33.185944+11:00"}]}