{"count": 28687, "next": "https://api.acmi.net.au/creators/?page=444", "previous": "https://api.acmi.net.au/creators/?page=442", "results": [{"id": 81153, "name": "Lemore Syvan", "roles_in_work": [{"id": 2132784, "title": "Casa de los babys", "work_id": 95060, "role": "co-producer", "role_id": 915, "is_primary": true}], "also_known_as": "", "date_of_birth": "", "date_of_death": "", "genders": [], "languages": [], "places_of_operation": [], "biography": "", "biography_author": null, "date_of_biography": "2023-05-09T13:22:57.800172+10:00", "external_links": [], "uuid": "81dc53df-9007-40dd-aba2-d3122e18deb5", "source": {"name": "Vernon", "slug": "vernon"}, "source_identifier": "23660", "external_references": [{"id": 35082, "source": {"name": "Wikidata", "slug": "wikidata"}, "source_identifier": "Q121036774"}], "date_modified": "2023-09-05T22:19:09.916754+10:00"}, {"id": 81152, "name": "Alejandro Springall", "roles_in_work": [{"id": 2132779, "title": "Casa de los babys", "work_id": 95060, "role": "co-producer", "role_id": 915, "is_primary": true}], "also_known_as": "", "date_of_birth": "1966-01-12", "date_of_death": "", "genders": [{"id": 9, "name": "Male", "slug": "male"}], "languages": [{"id": 10, "name": "Spanish", "slug": "spanish"}], "places_of_operation": [{"id": 185, "name": "Mexico", "slug": "mexico"}], "biography": "Alejandro Springall  is a Mexican film director and producer.\nSpringall studied filmmaking at the London Film School. He returned to Mexico City in 1991 and started working with Mexican film producer Bertha Navarro, from whom he learned most of his producing skills. Springall started his career as a producer, but in 1996 he directed his first feature film, Santitos. Since 1996 Springall has been collaborating with John Sayles, Maggie Renzi and Lemore Syvan. Results of that collaboration have been: Men with Guns, directed by Sayles, produced by Renzi, where Springall translated the script into Spanish and played a small role next to Federico Luppi; Santitos was executive produced by Sayles, Renzi and Syvan; Casa de los Babys, directed by Sayles was produced by Syvan and Springall; Morirse está en hebreo (My Mexican Shivah) was executive produced by Sayles, Renzi and Syvan; and Springall's new project, Air & Fire, was re-written by Sayles.\nIn 2003, Springall produced and directed the grand concert of Chavela Vargas at Carnegie Hall, New York; and in 2004, he directed the grand concert of Chavela Vargas at Luna Park Stadium, Buenos Aires, Argentina.\n\n", "biography_author": "Wikidata", "date_of_biography": "2023-08-01T13:57:45.233817+10:00", "external_links": [{"id": 1589, "uri": "https://en.wikipedia.org/wiki/Alejandro_Springall"}], "uuid": "3c2559d9-2ba2-4e03-8ff1-07848a5f3c30", "source": {"name": "Vernon", "slug": "vernon"}, "source_identifier": "14873", "external_references": [{"id": 6954, "source": {"name": "Wikidata", "slug": "wikidata"}, "source_identifier": "Q4714680"}, {"id": 6955, "source": {"name": "VIAF", "slug": "viaf"}, "source_identifier": "221915345"}], "date_modified": "2023-09-05T17:24:19.944491+10:00"}, {"id": 81151, "name": "John Trapman", "roles_in_work": [{"id": 2239005, "title": "Festival express", "work_id": 95058, "role": "co-producer", "role_id": 915, "is_primary": true}], "also_known_as": "", "date_of_birth": "", "date_of_death": "", "genders": [], "languages": [], "places_of_operation": [], "biography": "", "biography_author": null, "date_of_biography": "2023-05-09T16:50:23.791245+10:00", "external_links": [], "uuid": "bcc5563b-2750-4698-978f-6957fc344a71", "source": {"name": "Vernon", "slug": "vernon"}, "source_identifier": "22558", "external_references": [{"id": 36839, "source": {"name": "Wikidata", "slug": "wikidata"}, "source_identifier": "Q121144208"}], "date_modified": "2023-09-05T21:45:23.904989+10:00"}, {"id": 81150, "name": "Gavin Poolman", "roles_in_work": [{"id": 2239001, "title": "Festival express", "work_id": 95058, "role": "co-producer", "role_id": 915, "is_primary": true}], "also_known_as": "", "date_of_birth": "", "date_of_death": "", "genders": [], "languages": [], "places_of_operation": [], "biography": "", "biography_author": null, "date_of_biography": "2023-05-09T16:50:23.561449+10:00", "external_links": [], "uuid": "c1e85bc0-e793-49cb-8937-bf34693efc71", "source": {"name": "Vernon", "slug": "vernon"}, "source_identifier": "19454", "external_references": [{"id": 37066, "source": {"name": "Wikidata", "slug": "wikidata"}, "source_identifier": "Q121299072"}], "date_modified": "2023-09-05T19:59:30.402261+10:00"}, {"id": 81149, "name": "Laurent Dusothoit", "roles_in_work": [{"id": 2320874, "title": "Swing (Gatlif)", "work_id": 95057, "role": "co-producer", "role_id": 915, "is_primary": true}], "also_known_as": "", "date_of_birth": "", "date_of_death": "", "genders": [], "languages": [], "places_of_operation": [], "biography": "", "biography_author": null, "date_of_biography": "2023-05-09T19:11:50.903125+10:00", "external_links": [], "uuid": "8f0c8269-9a9a-4baf-8db3-a2d86afccef1", "source": {"name": "Vernon", "slug": "vernon"}, "source_identifier": "23554", "external_references": [{"id": 37572, "source": {"name": "Wikidata", "slug": "wikidata"}, "source_identifier": "Q121079034"}], "date_modified": "2023-09-05T22:16:25.120387+10:00"}, {"id": 81148, "name": "Nathalie Duran", "roles_in_work": [{"id": 2320869, "title": "Swing (Gatlif)", "work_id": 95057, "role": "co-producer", "role_id": 915, "is_primary": true}], "also_known_as": "", "date_of_birth": "", "date_of_death": "", "genders": [], "languages": [], "places_of_operation": [], "biography": "", "biography_author": null, "date_of_biography": "2023-05-09T19:11:50.548755+10:00", "external_links": [], "uuid": "0eb57ad5-3ddb-4e3f-a4b3-1ac5897c60e3", "source": {"name": "Vernon", "slug": "vernon"}, "source_identifier": "25642", "external_references": [{"id": 34320, "source": {"name": "Wikidata", "slug": "wikidata"}, "source_identifier": "Q121036238"}], "date_modified": "2023-09-05T23:25:24.909599+10:00"}, {"id": 81147, "name": "Wagner Productions", "roles_in_work": [{"id": 2259227, "title": "Ruthless people", "work_id": 95055, "role": "production company", "role_id": 941, "is_primary": true}], "also_known_as": "", "date_of_birth": "", "date_of_death": "", "genders": [], "languages": [], "places_of_operation": [], "biography": "", "biography_author": null, "date_of_biography": "2023-05-09T17:25:13.906053+10:00", "external_links": [], "uuid": "6772dd76-2878-42a6-99c0-67d70af00739", "source": {"name": "Vernon", "slug": "vernon"}, "source_identifier": "14223", "external_references": [{"id": 32574, "source": {"name": "Wikidata", "slug": "wikidata"}, "source_identifier": "Q121035592"}], "date_modified": "2023-09-06T02:09:51.049008+10:00"}, {"id": 81146, "name": "Silver Screen Partners II", "roles_in_work": [{"id": 2259223, "title": "Ruthless people", "work_id": 95055, "role": "production company", "role_id": 941, "is_primary": true}], "also_known_as": "", "date_of_birth": "", "date_of_death": "", "genders": [], "languages": [], "places_of_operation": [], "biography": "", "biography_author": null, "date_of_biography": "2023-05-09T17:25:13.663829+10:00", "external_links": [], "uuid": "7ac244ca-bffa-4d9c-8525-a1b290802722", "source": {"name": "Vernon", "slug": "vernon"}, "source_identifier": "12596", "external_references": [], "date_modified": "2023-06-14T16:33:30.576250+10:00"}, {"id": 81145, "name": "Barry Jossen", "roles_in_work": [{"id": 2000369, "title": "Miami rhapsody", "work_id": 95054, "role": "co-producer", "role_id": 915, "is_primary": true}], "also_known_as": "", "date_of_birth": null, "date_of_death": null, "genders": [], "languages": [], "places_of_operation": [], "biography": "", "biography_author": null, "date_of_biography": null, "external_links": [], "uuid": "2a1faf39-3931-41f6-9c39-a70186045da4", "source": {"name": "Vernon", "slug": "vernon"}, "source_identifier": null, "external_references": [{"id": 40130, "source": {"name": "Wikidata", "slug": "wikidata"}, "source_identifier": "Q121086063"}], "date_modified": "2023-09-05T17:55:05.865983+10:00"}, {"id": 81144, "name": "David Kellogg", "roles_in_work": [{"id": 2000361, "title": "Inspector Gadget", "work_id": 95052, "role": "director", "role_id": 938, "is_primary": true}], "also_known_as": "", "date_of_birth": null, "date_of_death": null, "genders": [{"id": 9, "name": "Male", "slug": "male"}], "languages": [], "places_of_operation": [{"id": 1, "name": "United States of America", "slug": "united-states-of-america"}], "biography": "", "biography_author": null, "date_of_biography": null, "external_links": [], "uuid": "57450d46-a51d-499d-9733-f9b86ef8b1e1", "source": {"name": "Vernon", "slug": "vernon"}, "source_identifier": null, "external_references": [{"id": 41386, "source": {"name": "Wikidata", "slug": "wikidata"}, "source_identifier": "Q3018189"}, {"id": 54280, "source": {"name": "VIAF", "slug": "viaf"}, "source_identifier": "265851518"}, {"id": 54281, "source": {"name": "LOC Auth", "slug": "loc-auth"}, "source_identifier": "n91018769"}, {"id": 54282, "source": {"name": "WorldCat", "slug": "worldcat"}, "source_identifier": "lccn-n91018769"}], "date_modified": "2023-09-05T18:59:05.677616+10:00"}]}