{"count": 28687, "next": "https://api.acmi.net.au/creators/?page=1751", "previous": "https://api.acmi.net.au/creators/?page=1749", "results": [{"id": 27468, "name": "Linda Brandt", "roles_in_work": [{"id": 2788310, "title": "Healthful entertaining", "work_id": 85475, "role": "producer", "role_id": 1089, "is_primary": true}, {"id": 2788318, "title": "Festive salads", "work_id": 85476, "role": "producer", "role_id": 1089, "is_primary": true}], "also_known_as": "", "date_of_birth": "", "date_of_death": "", "genders": [], "languages": [], "places_of_operation": [], "biography": "", "biography_author": null, "date_of_biography": "2023-05-09T18:57:37.756023+10:00", "external_links": [], "uuid": "d6f2b2b6-855b-420a-931b-4f66594a7a53", "source": {"name": "Vernon", "slug": "vernon"}, "source_identifier": "23862", "external_references": [], "date_modified": "2025-03-14T19:44:00.729242+11:00"}, {"id": 27466, "name": "Cambridge Educational", "roles_in_work": [{"id": 2615456, "title": "Paper plates to silver spoons: the complete guide to table manners", "work_id": 85474, "role": "production company", "role_id": 941, "is_primary": true}], "also_known_as": "", "date_of_birth": "", "date_of_death": "", "genders": [], "languages": [], "places_of_operation": [], "biography": "", "biography_author": null, "date_of_biography": "2023-05-09T15:02:00.672518+10:00", "external_links": [], "uuid": "e66e670b-ca0f-4efb-aee4-50403e2783a4", "source": {"name": "Vernon", "slug": "vernon"}, "source_identifier": "6214", "external_references": [{"id": 41843, "source": {"name": "Wikidata", "slug": "wikidata"}, "source_identifier": "Q121035601"}], "date_modified": "2025-02-26T20:24:00.252047+11:00"}, {"id": 27465, "name": "Alan Deakins", "roles_in_work": [{"id": 2187805, "title": "Desmond Morris' babywatching", "work_id": 85473, "role": "director", "role_id": 938, "is_primary": true}], "also_known_as": "", "date_of_birth": "", "date_of_death": "", "genders": [], "languages": [], "places_of_operation": [], "biography": "", "biography_author": null, "date_of_biography": "2023-05-09T15:03:54.058986+10:00", "external_links": [], "uuid": "89323266-128a-487f-9cf4-d64aa10035ff", "source": {"name": "Vernon", "slug": "vernon"}, "source_identifier": "14746", "external_references": [{"id": 42296, "source": {"name": "Wikidata", "slug": "wikidata"}, "source_identifier": "Q121299228"}], "date_modified": "2023-09-05T17:20:14.623046+10:00"}, {"id": 27460, "name": "J and M Entertainment", "roles_in_work": [{"id": 2283111, "title": "What's eating Gilbert Grape?", "work_id": 85472, "role": "production company", "role_id": 941, "is_primary": true}, {"id": 1993980, "title": "The Leading man", "work_id": 89659, "role": "production company", "role_id": 941, "is_primary": true}], "also_known_as": "", "date_of_birth": "", "date_of_death": "", "genders": [], "languages": [], "places_of_operation": [], "biography": "", "biography_author": null, "date_of_biography": "2023-05-09T18:04:43.223301+10:00", "external_links": [], "uuid": "61ac748c-b1ff-4c2f-9d1b-9e1590053935", "source": {"name": "Vernon", "slug": "vernon"}, "source_identifier": "9510", "external_references": [{"id": 39069, "source": {"name": "Wikidata", "slug": "wikidata"}, "source_identifier": "Q121034969"}], "date_modified": "2023-09-05T20:53:25.123409+10:00"}, {"id": 27459, "name": "Matalon Teper Ohlsson Production", "roles_in_work": [{"id": 2283109, "title": "What's eating Gilbert Grape?", "work_id": 85472, "role": "production company", "role_id": 941, "is_primary": true}], "also_known_as": "", "date_of_birth": "", "date_of_death": "", "genders": [], "languages": [], "places_of_operation": [], "biography": "", "biography_author": null, "date_of_biography": "2023-05-09T18:04:42.978673+10:00", "external_links": [], "uuid": "0989aae9-a0ff-4cc2-8357-34779b9169ee", "source": {"name": "Vernon", "slug": "vernon"}, "source_identifier": "10350", "external_references": [{"id": 41279, "source": {"name": "Wikidata", "slug": "wikidata"}, "source_identifier": "Q121086049"}], "date_modified": "2023-09-05T22:53:40.026537+10:00"}, {"id": 27457, "name": "John McColgan", "roles_in_work": [{"id": 2250676, "title": "Riverdance: the new show", "work_id": 85471, "role": "director", "role_id": 938, "is_primary": true}, {"id": 2250669, "title": "Riverdance: the new show", "work_id": 85471, "role": "co-producer", "role_id": 915, "is_primary": true}], "also_known_as": "", "date_of_birth": "", "date_of_death": "", "genders": [], "languages": [], "places_of_operation": [], "biography": "", "biography_author": null, "date_of_biography": "2023-05-09T17:10:27.664329+10:00", "external_links": [], "uuid": "f4929beb-4e09-47ce-9a1c-50f3430daf44", "source": {"name": "Vernon", "slug": "vernon"}, "source_identifier": "22405", "external_references": [{"id": 40548, "source": {"name": "Wikidata", "slug": "wikidata"}, "source_identifier": "Q121298832"}], "date_modified": "2023-09-05T21:41:40.521171+10:00"}, {"id": 27456, "name": "Abhann Productions", "roles_in_work": [{"id": 2250666, "title": "Riverdance: the new show", "work_id": 85471, "role": "production company", "role_id": 941, "is_primary": true}], "also_known_as": "", "date_of_birth": "", "date_of_death": "", "genders": [], "languages": [], "places_of_operation": [], "biography": "", "biography_author": null, "date_of_biography": "2023-05-09T17:10:26.901766+10:00", "external_links": [], "uuid": "4452dbfc-c004-4554-a4cd-1e53f894e710", "source": {"name": "Vernon", "slug": "vernon"}, "source_identifier": "14633", "external_references": [{"id": 38853, "source": {"name": "Wikidata", "slug": "wikidata"}, "source_identifier": "Q121315500"}], "date_modified": "2023-09-05T17:15:04.202999+10:00"}, {"id": 27455, "name": "Tyrone Productions", "roles_in_work": [{"id": 2250665, "title": "Riverdance: the new show", "work_id": 85471, "role": "production company", "role_id": 941, "is_primary": true}], "also_known_as": "", "date_of_birth": "", "date_of_death": "", "genders": [], "languages": [], "places_of_operation": [], "biography": "", "biography_author": null, "date_of_biography": "2023-05-09T17:10:26.668476+10:00", "external_links": [], "uuid": "e0780a34-543e-48fc-913c-949ec2231809", "source": {"name": "Vernon", "slug": "vernon"}, "source_identifier": "13793", "external_references": [{"id": 37144, "source": {"name": "Wikidata", "slug": "wikidata"}, "source_identifier": "Q121270898"}], "date_modified": "2023-09-06T02:00:24.113044+10:00"}, {"id": 27452, "name": "McKinnin Films", "roles_in_work": [{"id": 2158514, "title": "Nile: river of the gods", "work_id": 85470, "role": "production company", "role_id": 941, "is_primary": true}], "also_known_as": "", "date_of_birth": "", "date_of_death": "", "genders": [], "languages": [], "places_of_operation": [], "biography": "", "biography_author": null, "date_of_biography": "2023-05-09T14:10:40.652922+10:00", "external_links": [], "uuid": "e2b2517b-3972-4bed-8933-0352c97f8750", "source": {"name": "Vernon", "slug": "vernon"}, "source_identifier": "10399", "external_references": [], "date_modified": "2023-06-14T16:33:30.576250+10:00"}, {"id": 27451, "name": "Discovery", "roles_in_work": [{"id": 2158512, "title": "Nile: river of the gods", "work_id": 85470, "role": "production company", "role_id": 941, "is_primary": true}], "also_known_as": "", "date_of_birth": "", "date_of_death": "", "genders": [], "languages": [], "places_of_operation": [], "biography": "", "biography_author": null, "date_of_biography": "2023-05-09T14:10:40.421004+10:00", "external_links": [], "uuid": "83a6cca7-703e-4d83-8315-22d7664de1d9", "source": {"name": "Vernon", "slug": "vernon"}, "source_identifier": "7587", "external_references": [], "date_modified": "2023-06-14T16:33:30.576250+10:00"}]}