{"count": 28687, "next": "https://api.acmi.net.au/creators/?page=737", "previous": "https://api.acmi.net.au/creators/?page=735", "results": [{"id": 78223, "name": "Julie Jenkins", "roles_in_work": [{"id": 1819948, "title": "Jiminy Cricket's fabulous fables, fairy tales & other wonderful stories", "work_id": 86266, "role": "producer", "role_id": 1089, "is_primary": true}], "also_known_as": "", "date_of_birth": null, "date_of_death": null, "genders": [], "languages": [], "places_of_operation": [], "biography": "", "biography_author": null, "date_of_biography": null, "external_links": [], "uuid": "e68887e3-a714-4962-b8db-2f90d2a5dc43", "source": {"name": "Vernon", "slug": "vernon"}, "source_identifier": null, "external_references": [{"id": 36729, "source": {"name": "Wikidata", "slug": "wikidata"}, "source_identifier": "Q121315570"}], "date_modified": "2023-09-05T21:56:29.946908+10:00"}, {"id": 78222, "name": "Kevin Riem", "roles_in_work": [{"id": 1819947, "title": "Jiminy Cricket's fabulous fables, fairy tales & other wonderful stories", "work_id": 86266, "role": "producer", "role_id": 1089, "is_primary": true}], "also_known_as": "", "date_of_birth": null, "date_of_death": null, "genders": [], "languages": [], "places_of_operation": [], "biography": "", "biography_author": null, "date_of_biography": null, "external_links": [], "uuid": "7bee0b41-bce1-43ce-b64f-0789a90eb0d1", "source": {"name": "Vernon", "slug": "vernon"}, "source_identifier": null, "external_references": [{"id": 33057, "source": {"name": "Wikidata", "slug": "wikidata"}, "source_identifier": "Q121035272"}], "date_modified": "2023-09-05T22:07:49.700790+10:00"}, {"id": 78221, "name": "Ronald F Maxwell", "roles_in_work": [{"id": 2615850, "title": "Gettysburg", "work_id": 86262, "role": "director", "role_id": 938, "is_primary": true}], "also_known_as": "", "date_of_birth": "1949-01-05", "date_of_death": "", "genders": [{"id": 9, "name": "Male", "slug": "male"}], "languages": [{"id": 1, "name": "English", "slug": "english"}], "places_of_operation": [{"id": 1, "name": "United States of America", "slug": "united-states-of-america"}], "biography": "Ronald \"Ron\" F. Maxwell (born January 5, 1949) is an American film director and screenwriter from Clifton, New Jersey. He is most famous for writing and directing the American Civil War historical fiction films Gettysburg (1993), Gods and Generals (2003), and Copperhead (2013).", "biography_author": "Wikidata", "date_of_biography": "2023-09-06T00:55:13.812138+10:00", "external_links": [{"id": 3026, "uri": "https://en.wikipedia.org/wiki/Ronald_F._Maxwell"}], "uuid": "9baa3369-e620-4251-9a06-aa2cfc3f6442", "source": {"name": "Vernon", "slug": "vernon"}, "source_identifier": "28197", "external_references": [{"id": 12846, "source": {"name": "Wikidata", "slug": "wikidata"}, "source_identifier": "Q759186"}, {"id": 12847, "source": {"name": "VIAF", "slug": "viaf"}, "source_identifier": "100321225"}, {"id": 12848, "source": {"name": "LOC Auth", "slug": "loc-auth"}, "source_identifier": "no00085720"}, {"id": 12849, "source": {"name": "WorldCat", "slug": "worldcat"}, "source_identifier": "lccn-no00085720"}], "date_modified": "2025-02-26T20:30:37.907909+11:00"}, {"id": 78220, "name": "Oliver Parker", "roles_in_work": [{"id": 2088943, "title": "An Ideal husband", "work_id": 92715, "role": "director", "role_id": 938, "is_primary": true}, {"id": 2615845, "title": "Othello", "work_id": 86261, "role": "director", "role_id": 938, "is_primary": true}], "also_known_as": "", "date_of_birth": "06 SEP 1960", "date_of_death": "", "genders": [{"id": 9, "name": "Male", "slug": "male"}], "languages": [{"id": 1, "name": "English", "slug": "english"}], "places_of_operation": [{"id": 10, "name": "United Kingdom", "slug": "united-kingdom"}], "biography": "Oliver Parker (born 6 September 1960) is a British film director, screenwriter and former actor. He is known for writing and directing the film adaptations of Shakespeare's Othello (1995) and Wilde's The Importance of Being Earnest (2002), and for his role as Peloquin in the cult film Nightbreed (1990). Source: Wikidata; 01/08/2023", "biography_author": null, "date_of_biography": "2025-02-26T20:30:32.861861+11:00", "external_links": [{"id": 2799, "uri": "https://en.wikipedia.org/wiki/Oliver_Parker"}], "uuid": "a53e24d2-7cad-4504-9426-5234c06c12a0", "source": {"name": "Vernon", "slug": "vernon"}, "source_identifier": "25949", "external_references": [{"id": 11929, "source": {"name": "Wikidata", "slug": "wikidata"}, "source_identifier": "Q475703"}, {"id": 11930, "source": {"name": "VIAF", "slug": "viaf"}, "source_identifier": "51896641"}, {"id": 11931, "source": {"name": "LOC Auth", "slug": "loc-auth"}, "source_identifier": "no97079934"}, {"id": 11932, "source": {"name": "WorldCat", "slug": "worldcat"}, "source_identifier": "lccn-no97079934"}], "date_modified": "2025-02-26T20:30:32.862096+11:00"}, {"id": 78219, "name": "Luc Roeg", "roles_in_work": [{"id": 2615843, "title": "Othello", "work_id": 86261, "role": "co-producer", "role_id": 915, "is_primary": true}], "also_known_as": "", "date_of_birth": "", "date_of_death": "", "genders": [{"id": 9, "name": "Male", "slug": "male"}], "languages": [], "places_of_operation": [], "biography": "Co-Founder of Dakota Films, Artists Independent Network, and Independent Film Sales. Son of Nicolas Roeg.", "biography_author": null, "date_of_biography": "2025-02-26T20:30:32.230863+11:00", "external_links": [], "uuid": "7b115cb1-7322-4d31-b8f4-b5b667d3a5f4", "source": {"name": "Vernon", "slug": "vernon"}, "source_identifier": "24063", "external_references": [{"id": 34768, "source": {"name": "Wikidata", "slug": "wikidata"}, "source_identifier": "Q121036308"}], "date_modified": "2025-02-26T20:30:32.231105+11:00"}, {"id": 78218, "name": "Vic Morrow", "roles_in_work": [{"id": 2070965, "title": "A Man called Sledge", "work_id": 86256, "role": "director", "role_id": 938, "is_primary": true}], "also_known_as": "Victor Morozoff", "date_of_birth": "1929-02-14", "date_of_death": "1982-07-23", "genders": [{"id": 9, "name": "Male", "slug": "male"}], "languages": [{"id": 1, "name": "English", "slug": "english"}], "places_of_operation": [{"id": 1, "name": "United States of America", "slug": "united-states-of-america"}], "biography": "Victor Morrow (born Victor Morozoff; February 14, 1929 – July 23, 1982) was an American actor. He came to prominence as one of the leads of the ABC drama series Combat! (1962–1967), which earned him an Emmy nomination for Outstanding Continued Performance by an Actor in a Series. Active on screen for over three decades, his film roles include Blackboard Jungle (1955), King Creole (1958), God's Little Acre (1958), Dirty Mary, Crazy Larry (1974), and The Bad News Bears (1976). Morrow continued acting up to his death during filming of Twilight Zone: The Movie (1983) when he and two child actors were killed in a helicopter crash during filming.", "biography_author": "Wikidata", "date_of_biography": "2023-08-01T17:22:54.565205+10:00", "external_links": [{"id": 3250, "uri": "https://en.wikipedia.org/wiki/Vic_Morrow"}], "uuid": "1ceb2ac6-73fe-47f3-834f-594a50794f4d", "source": {"name": "Vernon", "slug": "vernon"}, "source_identifier": "30089", "external_references": [{"id": 13755, "source": {"name": "Wikidata", "slug": "wikidata"}, "source_identifier": "Q453204"}, {"id": 13756, "source": {"name": "VIAF", "slug": "viaf"}, "source_identifier": "37102873"}, {"id": 13757, "source": {"name": "LOC Auth", "slug": "loc-auth"}, "source_identifier": "n88102362"}, {"id": 13758, "source": {"name": "WorldCat", "slug": "worldcat"}, "source_identifier": "lccn-n88102362"}], "date_modified": "2023-09-06T02:04:21.577922+10:00"}, {"id": 78217, "name": "R. Miller", "roles_in_work": [{"id": 1990622, "title": "Lone star", "work_id": 86255, "role": "co-producer", "role_id": 915, "is_primary": true}], "also_known_as": "", "date_of_birth": null, "date_of_death": null, "genders": [], "languages": [], "places_of_operation": [], "biography": "", "biography_author": null, "date_of_biography": null, "external_links": [], "uuid": "5ea8094c-397a-41c1-bace-1847ac9b6bdb", "source": {"name": "Vernon", "slug": "vernon"}, "source_identifier": null, "external_references": [], "date_modified": "2023-06-14T16:33:30.576250+10:00"}, {"id": 78216, "name": "Basil Rathbone", "roles_in_work": [{"id": 1990616, "title": "The Last hurrah", "work_id": 86253, "role": "cast", "role_id": 33, "is_primary": false}], "also_known_as": "Philip St. John Basil Rathbone", "date_of_birth": "1892-06-13", "date_of_death": "1967-07-21", "genders": [{"id": 9, "name": "Male", "slug": "male"}], "languages": [{"id": 1, "name": "English", "slug": "english"}], "places_of_operation": [{"id": 10, "name": "United Kingdom", "slug": "united-kingdom"}], "biography": "Philip St. John Basil Rathbone MC (13 June 1892 – 21 July 1967) was a South African-born English actor. He rose to prominence in the United Kingdom as a Shakespearean stage actor and went on to appear in more than 70 films, primarily costume dramas, swashbucklers, and, occasionally, horror films.\nRathbone frequently portrayed suave villains or morally ambiguous characters, such as Mr. Murdstone in David Copperfield (1935), Tybalt in Romeo and Juliet (1936) and Sir Guy of Gisbourne in The Adventures of Robin Hood (1938). His most famous role was that of Sherlock Holmes in fourteen Hollywood films made between 1939 and 1946 and in a radio series. His later career included roles on Broadway, as well as self-ironic film and television work. In 1948, he shared the Tony Award for Best Actor in a Play with two others. He was also nominated for two Academy Awards and was honoured with three stars on the Hollywood Walk of Fame.", "biography_author": "Wikidata", "date_of_biography": "2023-09-05T17:56:29.762021+10:00", "external_links": [{"id": 5702, "uri": "https://en.wikipedia.org/wiki/Basil_Rathbone"}], "uuid": "13eec363-fa5b-452a-9240-4a115e88ad39", "source": {"name": "Vernon", "slug": "vernon"}, "source_identifier": null, "external_references": [{"id": 39904, "source": {"name": "Wikidata", "slug": "wikidata"}, "source_identifier": "Q336865"}, {"id": 54055, "source": {"name": "VIAF", "slug": "viaf"}, "source_identifier": "24788251"}, {"id": 54056, "source": {"name": "LOC Auth", "slug": "loc-auth"}, "source_identifier": "n85220633"}, {"id": 54057, "source": {"name": "WorldCat", "slug": "worldcat"}, "source_identifier": "lccn-n85220633"}], "date_modified": "2023-09-05T17:56:32.572484+10:00"}, {"id": 78215, "name": "John McGrath", "roles_in_work": [{"id": 2614266, "title": "Z cars. Episode 01.", "work_id": 83414, "role": "co-director", "role_id": 959, "is_primary": true}, {"id": 2131444, "title": "Carrington", "work_id": 86252, "role": "co-producer", "role_id": 915, "is_primary": true}], "also_known_as": "", "date_of_birth": "01 JUN 1935", "date_of_death": "22 JAN 2002", "genders": [{"id": 9, "name": "Male", "slug": "male"}], "languages": [{"id": 1, "name": "English", "slug": "english"}], "places_of_operation": [{"id": 10, "name": "United Kingdom", "slug": "united-kingdom"}], "biography": "John Peter McGrath (1 June 1935 – 22 January 2002) was a British playwright and theatre theorist who took up the cause of Socialism in his plays. Source: Wikidata; 01/08/2023", "biography_author": null, "date_of_biography": "2025-02-26T20:08:38.657311+11:00", "external_links": [{"id": 2435, "uri": "https://en.wikipedia.org/wiki/John_McGrath_(playwright)"}], "uuid": "d414f90e-32ad-4ab7-9933-064d4330f866", "source": {"name": "Vernon", "slug": "vernon"}, "source_identifier": "22408", "external_references": [{"id": 10419, "source": {"name": "Wikidata", "slug": "wikidata"}, "source_identifier": "Q6247836"}, {"id": 10420, "source": {"name": "VIAF", "slug": "viaf"}, "source_identifier": "74053360"}, {"id": 10421, "source": {"name": "LOC Auth", "slug": "loc-auth"}, "source_identifier": "n50007818"}, {"id": 10422, "source": {"name": "WorldCat", "slug": "worldcat"}, "source_identifier": "lccn-n50007818"}], "date_modified": "2025-02-26T20:08:38.657706+11:00"}, {"id": 78214, "name": "William Fadiman", "roles_in_work": [{"id": 2615827, "title": "Jubal", "work_id": 86248, "role": "producer", "role_id": 1089, "is_primary": true}], "also_known_as": "", "date_of_birth": null, "date_of_death": null, "genders": [], "languages": [], "places_of_operation": [], "biography": "", "biography_author": null, "date_of_biography": null, "external_links": [], "uuid": "fe752ed0-d27b-4832-bbe8-847cd753d589", "source": {"name": "Vernon", "slug": "vernon"}, "source_identifier": "30416", "external_references": [{"id": 42800, "source": {"name": "Wikidata", "slug": "wikidata"}, "source_identifier": "Q121126593"}], "date_modified": "2025-02-26T20:30:15.988626+11:00"}]}