{"count": 28687, "next": "https://api.acmi.net.au/creators/?page=32", "previous": "https://api.acmi.net.au/creators/?page=30", "results": [{"id": 87027, "name": "Jazz Money", "roles_in_work": [{"id": 2719687, "title": "Rodeo Baby!", "work_id": 121856, "role": "artist", "role_id": 505, "is_primary": true}], "also_known_as": "", "date_of_birth": "", "date_of_death": "", "genders": [], "languages": [], "places_of_operation": [], "biography": "Jazz Money is a Wiradjuri poet and artist whose practice encompasses installation, digital, film, performance and print. Their best-selling debut collection 'how to make a basket' (UQP, 2021) was the winner of the 2020 David Unaipon Award.", "biography_author": null, "date_of_biography": "2025-03-12T07:06:19.028998+11:00", "external_links": [], "uuid": "9370c2c5-d7c3-464c-8c84-29d0f0c4c763", "source": {"name": "Vernon", "slug": "vernon"}, "source_identifier": "40391", "external_references": [], "date_modified": "2025-03-12T07:06:19.029339+11:00"}, {"id": 87026, "name": "Charlotte Allingham", "roles_in_work": [{"id": 2719672, "title": "More Than Just a Game", "work_id": 121855, "role": "collaborator", "role_id": 536, "is_primary": false}], "also_known_as": "", "date_of_birth": "", "date_of_death": "", "genders": [], "languages": [], "places_of_operation": [], "biography": "", "biography_author": null, "date_of_biography": "2023-09-05T16:40:09.837291+10:00", "external_links": [], "uuid": "c34da48e-8b8f-4a41-997b-84963c50b6a8", "source": {"name": "Vernon", "slug": "vernon"}, "source_identifier": "40583", "external_references": [], "date_modified": "2025-03-12T07:06:15.222131+11:00"}, {"id": 87025, "name": "Jarra Karalinar Steel", "roles_in_work": [{"id": 3107892, "title": "love.exe", "work_id": 125380, "role": "artist", "role_id": 505, "is_primary": true}, {"id": 2719666, "title": "More Than Just a Game", "work_id": 121855, "role": "artist", "role_id": 505, "is_primary": true}], "also_known_as": "", "date_of_birth": "", "date_of_death": "", "genders": [], "languages": [], "places_of_operation": [], "biography": "", "biography_author": null, "date_of_biography": "2023-09-05T16:40:09.203900+10:00", "external_links": [], "uuid": "4b9dbd8b-8da1-422c-aee2-2fad2cefbfd5", "source": {"name": "Vernon", "slug": "vernon"}, "source_identifier": "40390", "external_references": [], "date_modified": "2025-09-17T15:36:06.133929+10:00"}, {"id": 87024, "name": "Bridget Chappelle", "roles_in_work": [{"id": 2719591, "title": "DIGGERMODE", "work_id": 121854, "role": "sound design/post-production", "role_id": 533, "is_primary": false}], "also_known_as": "", "date_of_birth": "", "date_of_death": "", "genders": [], "languages": [], "places_of_operation": [], "biography": "", "biography_author": null, "date_of_biography": "2023-05-09T15:08:46.465742+10:00", "external_links": [], "uuid": "e12a63c6-fcdc-4920-bbf3-cf6c916c8204", "source": {"name": "Vernon", "slug": "vernon"}, "source_identifier": "40587", "external_references": [], "date_modified": "2025-03-12T07:05:58.103088+11:00"}, {"id": 87023, "name": "Enoch Mailangi", "roles_in_work": [{"id": 2719588, "title": "DIGGERMODE", "work_id": 121854, "role": "collaborator", "role_id": 536, "is_primary": false}], "also_known_as": "", "date_of_birth": "", "date_of_death": "", "genders": [], "languages": [], "places_of_operation": [], "biography": "", "biography_author": null, "date_of_biography": "2023-05-09T15:08:46.185149+10:00", "external_links": [], "uuid": "695e64da-2fc2-4a0e-b082-1690d0fa8b2f", "source": {"name": "Vernon", "slug": "vernon"}, "source_identifier": "40586", "external_references": [], "date_modified": "2025-03-12T07:05:57.477584+11:00"}, {"id": 87022, "name": "Akil Ahamat", "roles_in_work": [{"id": 2719585, "title": "DIGGERMODE", "work_id": 121854, "role": "video", "role_id": 445, "is_primary": false}], "also_known_as": "", "date_of_birth": "", "date_of_death": "", "genders": [], "languages": [], "places_of_operation": [], "biography": "", "biography_author": null, "date_of_biography": "2023-05-09T15:08:45.930240+10:00", "external_links": [], "uuid": "938321ef-c21d-43a3-b884-fb75f6a65924", "source": {"name": "Vernon", "slug": "vernon"}, "source_identifier": "40585", "external_references": [], "date_modified": "2025-03-12T07:05:56.890758+11:00"}, {"id": 87021, "name": "Joel Sherwood Spring", "roles_in_work": [{"id": 2719579, "title": "DIGGERMODE", "work_id": 121854, "role": "artist", "role_id": 505, "is_primary": true}], "also_known_as": "", "date_of_birth": "", "date_of_death": "", "genders": [], "languages": [], "places_of_operation": [], "biography": "Joel Sherwood Spring is a Wiradjuri anti-disciplinary artist, who works collaboratively on projects that sit outside established notions of contemporary art and architecture attempting to transfigure spatial dynamics of power through discourse, pedagogies, art, design and architectural practice. Joel is focused on examining the contested narratives of Australia’s urban cultural and Indigenous history in the face of ongoing colonisation.", "biography_author": null, "date_of_biography": "2025-03-12T07:05:56.081827+11:00", "external_links": [], "uuid": "05ecf985-e68e-4f64-9ee9-d7cb82888f48", "source": {"name": "Vernon", "slug": "vernon"}, "source_identifier": "40386", "external_references": [], "date_modified": "2025-03-12T07:05:56.082194+11:00"}, {"id": 87020, "name": "Harry Covill", "roles_in_work": [{"id": 2719611, "title": "Ngaya (I Am)", "work_id": 121853, "role": "composer", "role_id": 538, "is_primary": false}], "also_known_as": "", "date_of_birth": "", "date_of_death": "", "genders": [], "languages": [], "places_of_operation": [], "biography": "", "biography_author": null, "date_of_biography": "2023-08-30T03:43:11.148804+10:00", "external_links": [], "uuid": "bdcbe757-410d-4af1-b23f-5dd687f38d65", "source": {"name": "Vernon", "slug": "vernon"}, "source_identifier": "40582", "external_references": [], "date_modified": "2025-03-12T07:06:01.829867+11:00"}, {"id": 87019, "name": "Daniel Jenatsch", "roles_in_work": [{"id": 2524325, "title": "The Building", "work_id": 121867, "role": "artist", "role_id": 505, "is_primary": true}, {"id": 2719555, "title": "Scripture for a smoke screen: Episode 1 – dolphin house", "work_id": 121852, "role": "composer", "role_id": 538, "is_primary": false}], "also_known_as": "", "date_of_birth": "", "date_of_death": "", "genders": [], "languages": [], "places_of_operation": [], "biography": "Daniel Jenatsch is an Australian composer and artist who combines atmospheric soundscapes, music and video to create multimedia documentaries, installations, radio pieces and performances. Jenatsch’s highly detailed sonic and moving image works examine how knowledge systems and power influence our social and mental ecologies", "biography_author": null, "date_of_biography": "2025-03-12T07:05:47.466038+11:00", "external_links": [], "uuid": "fcee6ecd-a2a7-4759-9be0-9b8d088ea3b7", "source": {"name": "Vernon", "slug": "vernon"}, "source_identifier": "40591", "external_references": [], "date_modified": "2025-03-12T07:05:47.466263+11:00"}, {"id": 87018, "name": "Anna Pogossova", "roles_in_work": [{"id": 2719552, "title": "Scripture for a smoke screen: Episode 1 – dolphin house", "work_id": 121852, "role": "art direction", "role_id": 920, "is_primary": false}], "also_known_as": "", "date_of_birth": "", "date_of_death": "", "genders": [], "languages": [], "places_of_operation": [], "biography": "", "biography_author": null, "date_of_biography": "2023-09-01T22:35:02.983676+10:00", "external_links": [], "uuid": "7c0e8257-1eaf-480d-8454-80053f9f8a6e", "source": {"name": "Vernon", "slug": "vernon"}, "source_identifier": "40590", "external_references": [], "date_modified": "2025-03-12T07:05:46.580685+11:00"}]}