{"count": 28687, "next": "https://api.acmi.net.au/creators/?page=751", "previous": "https://api.acmi.net.au/creators/?page=749", "results": [{"id": 78083, "name": "Brian Street", "roles_in_work": [{"id": 2793648, "title": "Thinking and writing about film", "work_id": 85792, "role": "producer", "role_id": 1089, "is_primary": true}], "also_known_as": "", "date_of_birth": "", "date_of_death": "", "genders": [], "languages": [], "places_of_operation": [], "biography": "", "biography_author": null, "date_of_biography": "2023-05-09T19:52:39.902178+10:00", "external_links": [], "uuid": "65dd9499-b705-486a-901c-0aca1205d3f9", "source": {"name": "Vernon", "slug": "vernon"}, "source_identifier": "16262", "external_references": [{"id": 39497, "source": {"name": "Wikidata", "slug": "wikidata"}, "source_identifier": "Q121035534"}], "date_modified": "2025-03-14T20:19:40.304436+11:00"}, {"id": 78082, "name": "Corey Shaff", "roles_in_work": [{"id": 2793643, "title": "Film language: the director's choice", "work_id": 85791, "role": "producer/director", "role_id": 31, "is_primary": true}], "also_known_as": "", "date_of_birth": "", "date_of_death": "", "genders": [], "languages": [], "places_of_operation": [], "biography": "", "biography_author": null, "date_of_biography": "2023-05-09T19:52:23.373604+10:00", "external_links": [], "uuid": "4459789d-a133-4836-b10e-e4b8cf27f3b3", "source": {"name": "Vernon", "slug": "vernon"}, "source_identifier": "17220", "external_references": [{"id": 51668, "source": {"name": "Wikidata", "slug": "wikidata"}, "source_identifier": "Q121360862"}], "date_modified": "2025-03-14T20:19:37.696033+11:00"}, {"id": 78081, "name": "Saskia Baron", "roles_in_work": [{"id": 2793638, "title": "The Edge of Hollywood", "work_id": 85790, "role": "director", "role_id": 938, "is_primary": true}], "also_known_as": "", "date_of_birth": "", "date_of_death": "", "genders": [], "languages": [], "places_of_operation": [], "biography": "", "biography_author": null, "date_of_biography": "2023-05-09T19:52:36.453210+10:00", "external_links": [], "uuid": "a71375e2-c94e-42bc-aee3-91acbee0e31f", "source": {"name": "Vernon", "slug": "vernon"}, "source_identifier": "28599", "external_references": [{"id": 38644, "source": {"name": "Wikidata", "slug": "wikidata"}, "source_identifier": "Q121091035"}], "date_modified": "2025-03-14T20:19:35.088750+11:00"}, {"id": 78080, "name": "Shana Swanson", "roles_in_work": [{"id": 2793637, "title": "The Edge of Hollywood", "work_id": 85790, "role": "producer", "role_id": 1089, "is_primary": true}], "also_known_as": "", "date_of_birth": "", "date_of_death": "", "genders": [], "languages": [], "places_of_operation": [], "biography": "", "biography_author": null, "date_of_biography": "2023-05-09T19:52:36.224580+10:00", "external_links": [], "uuid": "85c0c29d-f756-420a-9440-f78d92f0577d", "source": {"name": "Vernon", "slug": "vernon"}, "source_identifier": "28706", "external_references": [{"id": 37081, "source": {"name": "Wikidata", "slug": "wikidata"}, "source_identifier": "Q121035222"}], "date_modified": "2025-03-14T20:19:34.437502+11:00"}, {"id": 78079, "name": "Steve Jenkins", "roles_in_work": [{"id": 2793632, "title": "The Film school generation", "work_id": 85789, "role": "producer/director", "role_id": 31, "is_primary": true}], "also_known_as": "", "date_of_birth": "", "date_of_death": "", "genders": [], "languages": [], "places_of_operation": [], "biography": "", "biography_author": null, "date_of_biography": "2023-05-09T19:52:22.098559+10:00", "external_links": [], "uuid": "101e183e-a171-49fa-a8b7-466020196d57", "source": {"name": "Vernon", "slug": "vernon"}, "source_identifier": "29139", "external_references": [{"id": 52080, "source": {"name": "Wikidata", "slug": "wikidata"}, "source_identifier": "Q121360669"}], "date_modified": "2025-03-14T20:19:31.853280+11:00"}, {"id": 78078, "name": "Elizabeth Foster", "roles_in_work": [{"id": 2793627, "title": "Film in the television age", "work_id": 85788, "role": "director", "role_id": 938, "is_primary": true}], "also_known_as": "", "date_of_birth": "", "date_of_death": "", "genders": [], "languages": [], "places_of_operation": [], "biography": "", "biography_author": null, "date_of_biography": "2023-05-09T19:52:17.259347+10:00", "external_links": [], "uuid": "2ddbb5c5-1c35-4f83-a9a3-22e8c7369f1a", "source": {"name": "Vernon", "slug": "vernon"}, "source_identifier": "18702", "external_references": [{"id": 39829, "source": {"name": "Wikidata", "slug": "wikidata"}, "source_identifier": "Q121078864"}], "date_modified": "2025-03-14T20:19:29.256956+11:00"}, {"id": 78077, "name": "Alain Klarer", "roles_in_work": [{"id": 2793626, "title": "Film in the television age", "work_id": 85788, "role": "producer", "role_id": 1089, "is_primary": true}], "also_known_as": "", "date_of_birth": "", "date_of_death": "", "genders": [], "languages": [], "places_of_operation": [], "biography": "", "biography_author": null, "date_of_biography": "2023-05-09T19:52:17.032218+10:00", "external_links": [], "uuid": "6716b845-5965-4163-a63e-12ce642f9d74", "source": {"name": "Vernon", "slug": "vernon"}, "source_identifier": "14719", "external_references": [{"id": 32642, "source": {"name": "Wikidata", "slug": "wikidata"}, "source_identifier": "Q121143784"}], "date_modified": "2025-03-14T20:19:28.671139+11:00"}, {"id": 78076, "name": "Lesley Karsten", "roles_in_work": [{"id": 2793603, "title": "The Western", "work_id": 85784, "role": "co-producer", "role_id": 915, "is_primary": true}], "also_known_as": "", "date_of_birth": "", "date_of_death": "", "genders": [], "languages": [], "places_of_operation": [], "biography": "", "biography_author": null, "date_of_biography": "2023-05-09T19:52:28.075032+10:00", "external_links": [], "uuid": "f9366af2-ec39-45f5-b2bb-43ee69cf3f36", "source": {"name": "Vernon", "slug": "vernon"}, "source_identifier": "23756", "external_references": [{"id": 32368, "source": {"name": "Wikidata", "slug": "wikidata"}, "source_identifier": "Q121143656"}], "date_modified": "2025-03-14T20:19:16.461197+11:00"}, {"id": 78075, "name": "Sasha Alpert", "roles_in_work": [{"id": 2793602, "title": "The Western", "work_id": 85784, "role": "co-producer", "role_id": 915, "is_primary": true}, {"id": 2793604, "title": "The Western", "work_id": 85784, "role": "director", "role_id": 938, "is_primary": true}, {"id": 2793620, "title": "Film noir", "work_id": 85787, "role": "producer", "role_id": 1089, "is_primary": true}], "also_known_as": "", "date_of_birth": "", "date_of_death": "", "genders": [], "languages": [], "places_of_operation": [], "biography": "", "biography_author": null, "date_of_biography": "2023-05-09T19:52:28.307817+10:00", "external_links": [], "uuid": "9976bd34-0c58-470b-b8e7-c29b23716934", "source": {"name": "Vernon", "slug": "vernon"}, "source_identifier": "28596", "external_references": [{"id": 40226, "source": {"name": "Wikidata", "slug": "wikidata"}, "source_identifier": "Q121223472"}], "date_modified": "2025-03-14T20:19:25.470823+11:00"}, {"id": 78074, "name": "Danielle Gardner", "roles_in_work": [{"id": 2793614, "title": "The Combat film", "work_id": 85786, "role": "producer", "role_id": 1089, "is_primary": true}, {"id": 2793596, "title": "The Star", "work_id": 85783, "role": "producer", "role_id": 1089, "is_primary": true}], "also_known_as": "", "date_of_birth": "", "date_of_death": "", "genders": [], "languages": [], "places_of_operation": [], "biography": "", "biography_author": null, "date_of_biography": "2023-05-09T19:52:30.676827+10:00", "external_links": [], "uuid": "e6e2ed1f-0937-4039-a5ed-f58fe6f9535d", "source": {"name": "Vernon", "slug": "vernon"}, "source_identifier": "17417", "external_references": [], "date_modified": "2025-03-14T20:19:22.250664+11:00"}]}