{"count": 28687, "next": "https://api.acmi.net.au/creators/?page=1056", "previous": "https://api.acmi.net.au/creators/?page=1054", "results": [{"id": 75032, "name": "Keith Hounslow", "roles_in_work": [{"id": 2071280, "title": "A Matter of choice", "work_id": 70207, "role": "director", "role_id": 938, "is_primary": true}, {"id": 2323002, "title": "Telecommunications 2000: who cares?", "work_id": 73582, "role": "producer/director", "role_id": 31, "is_primary": true}], "also_known_as": "", "date_of_birth": "", "date_of_death": "", "genders": [], "languages": [], "places_of_operation": [], "biography": "", "biography_author": null, "date_of_biography": "2023-05-09T19:15:01.650933+10:00", "external_links": [], "uuid": "260e3cb7-1d8f-461a-875d-eb9db7d9a140", "source": {"name": "Vernon", "slug": "vernon"}, "source_identifier": "23143", "external_references": [{"id": 39929, "source": {"name": "Wikidata", "slug": "wikidata"}, "source_identifier": "Q121337433"}], "date_modified": "2023-09-05T22:03:53.375506+10:00"}, {"id": 75031, "name": "Valentine Stewart", "roles_in_work": [{"id": 2071277, "title": "A Matter of choice", "work_id": 70207, "role": "producer", "role_id": 1089, "is_primary": true}], "also_known_as": "", "date_of_birth": "", "date_of_death": "", "genders": [], "languages": [], "places_of_operation": [], "biography": "", "biography_author": null, "date_of_biography": "2023-05-09T11:33:26.278935+10:00", "external_links": [], "uuid": "9bc4b322-5375-4e36-a82d-a79689f1af53", "source": {"name": "Vernon", "slug": "vernon"}, "source_identifier": "30043", "external_references": [], "date_modified": "2023-06-14T16:33:30.576250+10:00"}, {"id": 75030, "name": "Sydney Sharples", "roles_in_work": [{"id": 2165153, "title": "Material matters", "work_id": 70194, "role": "co-director", "role_id": 959, "is_primary": true}], "also_known_as": "", "date_of_birth": "", "date_of_death": "", "genders": [], "languages": [], "places_of_operation": [], "biography": "", "biography_author": null, "date_of_biography": "2023-05-09T14:24:01.839557+10:00", "external_links": [], "uuid": "bc4ab930-ee7f-4d8e-ba3b-1eaf527ebf99", "source": {"name": "Vernon", "slug": "vernon"}, "source_identifier": "29426", "external_references": [{"id": 32975, "source": {"name": "Wikidata", "slug": "wikidata"}, "source_identifier": "Q121159932"}], "date_modified": "2023-09-06T01:39:20.740868+10:00"}, {"id": 75029, "name": "R I C H Warren", "roles_in_work": [{"id": 2165151, "title": "Material matters", "work_id": 70194, "role": "co-director", "role_id": 959, "is_primary": true}], "also_known_as": "", "date_of_birth": "", "date_of_death": "", "genders": [], "languages": [], "places_of_operation": [], "biography": "", "biography_author": null, "date_of_biography": "2023-05-09T14:24:01.569870+10:00", "external_links": [], "uuid": "a994e059-b8e1-4fe2-951b-8c27d5593bc7", "source": {"name": "Vernon", "slug": "vernon"}, "source_identifier": "11798", "external_references": [{"id": 42112, "source": {"name": "Wikidata", "slug": "wikidata"}, "source_identifier": "Q121223491"}], "date_modified": "2023-09-06T00:16:33.268332+10:00"}, {"id": 75028, "name": "Evelyn Cherry", "roles_in_work": [{"id": 908135, "title": "Hog family 'supreme'", "work_id": 88528, "role": "co-producer", "role_id": 915, "is_primary": true}, {"id": 2165075, "title": "Mastitus: disease of the udder", "work_id": 70190, "role": "co-producer", "role_id": 915, "is_primary": true}, {"id": 2313469, "title": "Story of standards", "work_id": 73252, "role": "producer", "role_id": 1089, "is_primary": true}, {"id": 2243511, "title": "Five steps to better farm living", "work_id": 89852, "role": "producer", "role_id": 1089, "is_primary": true}, {"id": 2212207, "title": "Dryland salinity", "work_id": 87703, "role": "producer", "role_id": 1089, "is_primary": true}, {"id": 860714, "title": "When all the people play", "work_id": 74664, "role": "producer/director", "role_id": 31, "is_primary": true}, {"id": 2294489, "title": "Vitamin wise", "work_id": 74412, "role": "producer/director", "role_id": 31, "is_primary": true}], "also_known_as": "", "date_of_birth": "", "date_of_death": "", "genders": [], "languages": [], "places_of_operation": [], "biography": "", "biography_author": null, "date_of_biography": "2023-05-09T19:00:56.860451+10:00", "external_links": [], "uuid": "db7926e7-59e8-402c-b75d-780900af5760", "source": {"name": "Vernon", "slug": "vernon"}, "source_identifier": "4903", "external_references": [], "date_modified": "2023-06-14T16:33:30.576250+10:00"}, {"id": 75027, "name": "James L. Sudmeier", "roles_in_work": [{"id": 2162221, "title": "Mass spectrometry", "work_id": 70183, "role": "co-producer", "role_id": 915, "is_primary": true}], "also_known_as": "", "date_of_birth": "", "date_of_death": "", "genders": [], "languages": [], "places_of_operation": [], "biography": "", "biography_author": null, "date_of_biography": "2023-05-09T14:18:25.357356+10:00", "external_links": [], "uuid": "d52b7dbc-562b-4a84-b409-179405fcd0e2", "source": {"name": "Vernon", "slug": "vernon"}, "source_identifier": "21265", "external_references": [{"id": 40509, "source": {"name": "Wikidata", "slug": "wikidata"}, "source_identifier": "Q121036353"}], "date_modified": "2023-09-05T21:03:59.876147+10:00"}, {"id": 75026, "name": "Robert L Pescok", "roles_in_work": [{"id": 2162219, "title": "Mass spectrometry", "work_id": 70183, "role": "co-producer", "role_id": 915, "is_primary": true}], "also_known_as": "", "date_of_birth": "", "date_of_death": "", "genders": [], "languages": [], "places_of_operation": [], "biography": "", "biography_author": null, "date_of_biography": "2023-05-09T14:18:25.109916+10:00", "external_links": [], "uuid": "b45a3f26-9205-4c26-a1a7-62b36b64e3c0", "source": {"name": "Vernon", "slug": "vernon"}, "source_identifier": "27799", "external_references": [{"id": 40909, "source": {"name": "Wikidata", "slug": "wikidata"}, "source_identifier": "Q121337341"}], "date_modified": "2023-09-06T00:43:35.078821+10:00"}, {"id": 75025, "name": "Branko Ranitovic", "roles_in_work": [{"id": 2158925, "title": "Masque of the red death", "work_id": 70179, "role": "co-director", "role_id": 959, "is_primary": true}], "also_known_as": "", "date_of_birth": "", "date_of_death": "", "genders": [], "languages": [], "places_of_operation": [], "biography": "", "biography_author": null, "date_of_biography": "2023-05-09T14:12:31.448290+10:00", "external_links": [], "uuid": "b67f7ca9-3607-4a21-8742-11b32f03661a", "source": {"name": "Vernon", "slug": "vernon"}, "source_identifier": "16168", "external_references": [{"id": 35676, "source": {"name": "Wikidata", "slug": "wikidata"}, "source_identifier": "Q121036225"}], "date_modified": "2023-09-05T18:09:09.597407+10:00"}, {"id": 75024, "name": "Pavao Stalter", "roles_in_work": [{"id": 2158920, "title": "Masque of the red death", "work_id": 70179, "role": "co-director", "role_id": 959, "is_primary": true}], "also_known_as": "", "date_of_birth": "", "date_of_death": "", "genders": [], "languages": [], "places_of_operation": [], "biography": "", "biography_author": null, "date_of_biography": "2023-05-09T14:12:31.194814+10:00", "external_links": [], "uuid": "6da816bd-0510-4839-8709-f165ff785feb", "source": {"name": "Vernon", "slug": "vernon"}, "source_identifier": "26385", "external_references": [{"id": 38084, "source": {"name": "Wikidata", "slug": "wikidata"}, "source_identifier": "Q121337002"}], "date_modified": "2023-09-05T23:50:49.717242+10:00"}, {"id": 75023, "name": "Donald B. Hyatt", "roles_in_work": [{"id": 855074, "title": "Mark Twain's America", "work_id": 70157, "role": "producer/director", "role_id": 31, "is_primary": true}], "also_known_as": "", "date_of_birth": null, "date_of_death": null, "genders": [], "languages": [], "places_of_operation": [], "biography": "", "biography_author": null, "date_of_biography": null, "external_links": [], "uuid": "b5b18a71-b578-4f53-ae58-d6027aac86a4", "source": {"name": "Vernon", "slug": "vernon"}, "source_identifier": null, "external_references": [{"id": 50988, "source": {"name": "Wikidata", "slug": "wikidata"}, "source_identifier": "Q121361054"}], "date_modified": "2023-09-05T19:17:15.541078+10:00"}]}