{"count": 28687, "next": "https://api.acmi.net.au/creators/?page=691", "previous": "https://api.acmi.net.au/creators/?page=689", "results": [{"id": 78683, "name": "Jon Povill", "roles_in_work": [{"id": 2309288, "title": "Star trek: the motion picture", "work_id": 87857, "role": "co-producer", "role_id": 915, "is_primary": true}], "also_known_as": "", "date_of_birth": "1946-08-29", "date_of_death": "", "genders": [{"id": 9, "name": "Male", "slug": "male"}], "languages": [{"id": 1, "name": "English", "slug": "english"}], "places_of_operation": [{"id": 1, "name": "United States of America", "slug": "united-states-of-america"}], "biography": "Jon Povill (born August 29, 1946) is an American scriptwriter and television producer.  He wrote the first two drafts of the screenplay for Total Recall in the 1970s, and then took up a position on the attempted Star Trek: Phase II, becoming story editor, and penning the episode \"The Child\", which would later be remade as a Star Trek: The Next Generation episode.  He was ultimately credited as associate producer on Star Trek: The Motion Picture.\nHe worked as a script consultant and producer on Sliders (writing the episodes \"Luck of the Draw\", \"El Sid\" and \"Obsession\") and penned an episode of The Outer Limits in 1998.", "biography_author": "Wikidata", "date_of_biography": "2023-09-05T21:47:45.467791+10:00", "external_links": [{"id": 5937, "uri": "https://en.wikipedia.org/wiki/Jon_Povill"}], "uuid": "6b07aff9-7e22-470f-a0cd-9a05c945ed3f", "source": {"name": "Vernon", "slug": "vernon"}, "source_identifier": "22621", "external_references": [{"id": 50872, "source": {"name": "Wikidata", "slug": "wikidata"}, "source_identifier": "Q6271402"}, {"id": 54924, "source": {"name": "VIAF", "slug": "viaf"}, "source_identifier": "108068916"}, {"id": 54925, "source": {"name": "LOC Auth", "slug": "loc-auth"}, "source_identifier": "no2010043761"}, {"id": 54926, "source": {"name": "WorldCat", "slug": "worldcat"}, "source_identifier": "lccn-no2010043761"}], "date_modified": "2023-09-05T21:47:45.488939+10:00"}, {"id": 78682, "name": "Gene Roddenberry", "roles_in_work": [{"id": 2309286, "title": "Star trek: the motion picture", "work_id": 87857, "role": "co-producer", "role_id": 915, "is_primary": true}], "also_known_as": "", "date_of_birth": "1921-08-19", "date_of_death": "1991-10-24", "genders": [{"id": 9, "name": "Male", "slug": "male"}], "languages": [{"id": 1, "name": "English", "slug": "english"}], "places_of_operation": [{"id": 1, "name": "United States of America", "slug": "united-states-of-america"}], "biography": "Eugene Wesley Roddenberry Sr. (August 19, 1921 – October 24, 1991) was an American television screenwriter, producer, and creator of Star Trek: The Original Series, its sequel spin-off series Star Trek: The Animated Series, and Star Trek: The Next Generation. Born in El Paso, Texas, Roddenberry grew up in Los Angeles, where his father was a police officer. Roddenberry flew 89 combat missions in the Army Air Forces during World War II and worked as a commercial pilot after the war. Later, he followed in his father's footsteps and joined the Los Angeles Police Department, where he also began to write scripts for television.\nAs a freelance writer, Roddenberry wrote scripts for Highway Patrol, Have Gun – Will Travel, and other series, before creating and producing his own television series, The Lieutenant. In 1964, Roddenberry created Star Trek, which premiered in 1966 and ran for three seasons before being canceled. He then worked on other projects, including a string of failed television pilots. The syndication of Star Trek led to its growing popularity; this, in turn, resulted in the Star Trek feature films, on which Roddenberry continued to produce and consult. In 1987, the sequel series Star Trek: The Next Generation began airing on television in first-run syndication; Roddenberry was intimately involved in the initial development of the series but took a less active role after the first season due to ill health. He continued to consult on the series until his death in 1991.\nIn 1985, he became the first TV writer with a star on the Hollywood Walk of Fame, and he was later inducted into both the Science Fiction Hall of Fame and the Academy of Television Arts & Sciences Hall of Fame. Years after his death, Roddenberry was one of the first humans to have their ashes carried into earth orbit. The popularity of the Star Trek universe and films has inspired films, books, comic books, video games and fan films set in the Star Trek universe.", "biography_author": "Wikidata", "date_of_biography": "2023-08-01T14:56:19.095691+10:00", "external_links": [{"id": 2100, "uri": "https://en.wikipedia.org/wiki/Gene_Roddenberry"}], "uuid": "a1faf6c4-4a52-4f2f-a186-c2d2b51d819a", "source": {"name": "Vernon", "slug": "vernon"}, "source_identifier": "19477", "external_references": [{"id": 9060, "source": {"name": "Wikidata", "slug": "wikidata"}, "source_identifier": "Q191716"}, {"id": 9061, "source": {"name": "VIAF", "slug": "viaf"}, "source_identifier": "106249744"}, {"id": 9062, "source": {"name": "LOC Auth", "slug": "loc-auth"}, "source_identifier": "n79121342"}, {"id": 9063, "source": {"name": "WorldCat", "slug": "worldcat"}, "source_identifier": "lccn-n79121342"}], "date_modified": "2023-09-05T20:01:04.932350+10:00"}, {"id": 78681, "name": "Linda Kuk", "roles_in_work": [{"id": 907330, "title": "Hard boiled", "work_id": 87855, "role": "co-producer", "role_id": 915, "is_primary": true}], "also_known_as": "", "date_of_birth": null, "date_of_death": null, "genders": [], "languages": [], "places_of_operation": [], "biography": "", "biography_author": null, "date_of_biography": null, "external_links": [], "uuid": "12c94c9d-5591-4e4f-853d-05150bc04dd3", "source": {"name": "Vernon", "slug": "vernon"}, "source_identifier": null, "external_references": [{"id": 34045, "source": {"name": "Wikidata", "slug": "wikidata"}, "source_identifier": "Q121091317"}], "date_modified": "2023-09-05T22:26:14.247277+10:00"}, {"id": 78680, "name": "Morris Bousel", "roles_in_work": [{"id": 1992245, "title": "Killer's kiss", "work_id": 87851, "role": "co-producer", "role_id": 915, "is_primary": true}], "also_known_as": "", "date_of_birth": null, "date_of_death": null, "genders": [], "languages": [], "places_of_operation": [], "biography": "", "biography_author": null, "date_of_biography": null, "external_links": [], "uuid": "ddb112ec-8819-49eb-a44f-3e7a613b767c", "source": {"name": "Vernon", "slug": "vernon"}, "source_identifier": null, "external_references": [{"id": 36052, "source": {"name": "Wikidata", "slug": "wikidata"}, "source_identifier": "Q121315501"}], "date_modified": "2023-09-05T23:21:25.447346+10:00"}, {"id": 78679, "name": "Stephen Deutsch", "roles_in_work": [{"id": 2305305, "title": "Somewhere in time", "work_id": 87848, "role": "producer", "role_id": 1089, "is_primary": true}], "also_known_as": "", "date_of_birth": "1946-06-30", "date_of_death": "", "genders": [], "languages": [], "places_of_operation": [], "biography": "", "biography_author": null, "date_of_biography": "2023-05-09T18:44:02.438385+10:00", "external_links": [], "uuid": "769c8a24-24e4-4748-b857-a7ba260b2aff", "source": {"name": "Vernon", "slug": "vernon"}, "source_identifier": "29028", "external_references": [{"id": 50888, "source": {"name": "Wikidata", "slug": "wikidata"}, "source_identifier": "Q114680226"}], "date_modified": "2023-09-06T01:28:12.675290+10:00"}, {"id": 78678, "name": "George Moffly", "roles_in_work": [{"id": 2124233, "title": "Breaking up", "work_id": 87844, "role": "co-producer", "role_id": 915, "is_primary": true}], "also_known_as": "", "date_of_birth": "", "date_of_death": "", "genders": [], "languages": [], "places_of_operation": [], "biography": "", "biography_author": null, "date_of_biography": "2023-05-09T13:08:28.924099+10:00", "external_links": [], "uuid": "c4e8e965-95d6-49db-8bf0-18a7e29679fa", "source": {"name": "Vernon", "slug": "vernon"}, "source_identifier": "19644", "external_references": [{"id": 42178, "source": {"name": "Wikidata", "slug": "wikidata"}, "source_identifier": "Q121337350"}], "date_modified": "2023-09-05T20:06:03.188969+10:00"}, {"id": 78677, "name": "James Ramiessenger", "roles_in_work": [{"id": 2321743, "title": "Taj Mahal", "work_id": 87843, "role": "producer/director", "role_id": 31, "is_primary": true}], "also_known_as": "", "date_of_birth": "", "date_of_death": "", "genders": [], "languages": [], "places_of_operation": [], "biography": "", "biography_author": null, "date_of_biography": "2023-05-09T19:13:05.057403+10:00", "external_links": [], "uuid": "1d178922-96b6-4781-b052-4af29f8764d7", "source": {"name": "Vernon", "slug": "vernon"}, "source_identifier": "21313", "external_references": [], "date_modified": "2023-06-14T16:33:30.576250+10:00"}, {"id": 78676, "name": "Markus Strazds", "roles_in_work": [{"id": 2248914, "title": "Resistance and the 'High School Walkouts Against Racism'", "work_id": 87841, "role": "co-producers/directors", "role_id": 628, "is_primary": true}], "also_known_as": "", "date_of_birth": "", "date_of_death": "", "genders": [], "languages": [], "places_of_operation": [], "biography": "", "biography_author": null, "date_of_biography": "2023-05-09T17:07:48.976654+10:00", "external_links": [], "uuid": "0de9d9b2-2523-4028-b4da-8a4cacd4943b", "source": {"name": "Vernon", "slug": "vernon"}, "source_identifier": "24575", "external_references": [], "date_modified": "2023-06-14T16:33:30.576250+10:00"}, {"id": 78675, "name": "Misha Lamb", "roles_in_work": [{"id": 2248912, "title": "Resistance and the 'High School Walkouts Against Racism'", "work_id": 87841, "role": "co-producers/directors", "role_id": 628, "is_primary": true}], "also_known_as": "", "date_of_birth": "", "date_of_death": "", "genders": [], "languages": [], "places_of_operation": [], "biography": "", "biography_author": null, "date_of_biography": "2023-05-09T17:07:48.723206+10:00", "external_links": [], "uuid": "cff26f49-a049-4de3-914b-d6825ceda9db", "source": {"name": "Vernon", "slug": "vernon"}, "source_identifier": "25464", "external_references": [], "date_modified": "2023-06-14T16:33:30.576250+10:00"}, {"id": 78674, "name": "Davina Rimmer", "roles_in_work": [{"id": 2248910, "title": "Resistance and the 'High School Walkouts Against Racism'", "work_id": 87841, "role": "co-producers/directors", "role_id": 628, "is_primary": true}], "also_known_as": "", "date_of_birth": "", "date_of_death": "", "genders": [], "languages": [], "places_of_operation": [], "biography": "", "biography_author": null, "date_of_biography": "2023-05-09T17:07:48.436388+10:00", "external_links": [], "uuid": "6c1f1af8-5d74-47fe-8159-69082392cf82", "source": {"name": "Vernon", "slug": "vernon"}, "source_identifier": "17865", "external_references": [], "date_modified": "2023-06-14T16:33:30.576250+10:00"}]}