{"count": 28687, "next": "https://api.acmi.net.au/creators/?page=1838", "previous": "https://api.acmi.net.au/creators/?page=1836", "results": [{"id": 25658, "name": "Josef Somlo", "roles_in_work": [{"id": 2327958, "title": "The Arsenal stadium mystery", "work_id": 83569, "role": "producer", "role_id": 1089, "is_primary": true}], "also_known_as": "", "date_of_birth": "1884-10-05", "date_of_death": "1973-11-29", "genders": [{"id": 9, "name": "Male", "slug": "male"}], "languages": [], "places_of_operation": [{"id": 25, "name": "Hungary", "slug": "hungary"}], "biography": "Josef Somlo (1884–1973) was a Hungarian film producer. Following the Nazi takeover in Germany, where he had worked for a number of years, Somlo went into exile in Britain. During his German period he was associated with Hermann Fellner with whom he co-produced a number of films for their Felsom Film company.", "biography_author": "Wikidata", "date_of_biography": "2022-05-19T12:05:31.143016+10:00", "external_links": [{"id": 2466, "uri": "https://en.wikipedia.org/wiki/Josef_Somlo"}], "uuid": "00f13445-c8a1-4933-8e3a-e1a1e5388a66", "source": {"name": "Vernon", "slug": "vernon"}, "source_identifier": "22709", "external_references": [{"id": 10541, "source": {"name": "Wikidata", "slug": "wikidata"}, "source_identifier": "Q214694"}, {"id": 10542, "source": {"name": "VIAF", "slug": "viaf"}, "source_identifier": "21707239"}, {"id": 10543, "source": {"name": "LOC Auth", "slug": "loc-auth"}, "source_identifier": "no91017523"}, {"id": 10544, "source": {"name": "WorldCat", "slug": "worldcat"}, "source_identifier": "lccn-no91017523"}], "date_modified": "2023-09-13T12:30:40.679443+10:00"}, {"id": 25657, "name": "G&S Films", "roles_in_work": [{"id": 2327953, "title": "The Arsenal stadium mystery", "work_id": 83569, "role": "production company", "role_id": 941, "is_primary": true}], "also_known_as": "", "date_of_birth": "", "date_of_death": "", "genders": [], "languages": [], "places_of_operation": [], "biography": "", "biography_author": null, "date_of_biography": "2023-05-09T19:21:48.455312+10:00", "external_links": [], "uuid": "d79d3051-997d-4696-be6c-93ee471caec7", "source": {"name": "Vernon", "slug": "vernon"}, "source_identifier": "8609", "external_references": [{"id": 33482, "source": {"name": "Wikidata", "slug": "wikidata"}, "source_identifier": "Q121222643"}], "date_modified": "2023-09-05T19:55:08.228686+10:00"}, {"id": 25656, "name": "Wolfgang Buld", "roles_in_work": [{"id": 2233203, "title": "Punk in London", "work_id": 95116, "role": "director", "role_id": 938, "is_primary": true}, {"id": 2233593, "title": "Punk and its after shocks", "work_id": 83568, "role": "director", "role_id": 938, "is_primary": true}], "also_known_as": "", "date_of_birth": "", "date_of_death": "", "genders": [], "languages": [], "places_of_operation": [], "biography": "", "biography_author": null, "date_of_biography": "2023-05-09T16:42:17.992153+10:00", "external_links": [], "uuid": "76f57ef2-dab8-4b56-88f2-00455d57ddaa", "source": {"name": "Vernon", "slug": "vernon"}, "source_identifier": "30536", "external_references": [], "date_modified": "2023-06-14T16:33:30.576250+10:00"}, {"id": 25655, "name": "Gerd Stein", "roles_in_work": [{"id": 2233590, "title": "Punk and its after shocks", "work_id": 83568, "role": "producer", "role_id": 1089, "is_primary": true}], "also_known_as": "", "date_of_birth": "", "date_of_death": "", "genders": [], "languages": [], "places_of_operation": [], "biography": "", "biography_author": null, "date_of_biography": "2023-05-09T16:42:17.763446+10:00", "external_links": [], "uuid": "674b1853-8193-471f-bb10-3303f39f5e04", "source": {"name": "Vernon", "slug": "vernon"}, "source_identifier": "19768", "external_references": [{"id": 42709, "source": {"name": "Wikidata", "slug": "wikidata"}, "source_identifier": "Q121337380"}], "date_modified": "2023-09-05T20:10:05.586869+10:00"}, {"id": 25654, "name": "GRF Productions", "roles_in_work": [{"id": 2233588, "title": "Punk and its after shocks", "work_id": 83568, "role": "production company", "role_id": 941, "is_primary": true}], "also_known_as": "", "date_of_birth": "", "date_of_death": "", "genders": [], "languages": [], "places_of_operation": [], "biography": "", "biography_author": null, "date_of_biography": "2023-05-09T16:42:17.513718+10:00", "external_links": [], "uuid": "1d51ffb5-f41f-4962-b1c5-c9acc2279361", "source": {"name": "Vernon", "slug": "vernon"}, "source_identifier": "8910", "external_references": [{"id": 40686, "source": {"name": "Wikidata", "slug": "wikidata"}, "source_identifier": "Q121315496"}], "date_modified": "2023-09-05T20:23:34.086033+10:00"}, {"id": 25653, "name": "Marc Allegret", "roles_in_work": [{"id": 3104902, "title": "Entree des Artistes = the Curtain Rises", "work_id": 116139, "role": "director", "role_id": 938, "is_primary": true}, {"id": 3104409, "title": "Gribouille = Heart of Paris", "work_id": 115901, "role": "director", "role_id": 938, "is_primary": true}, {"id": 3105065, "title": "Fanny", "work_id": 116227, "role": "director", "role_id": 938, "is_primary": true}, {"id": 2118955, "title": "Blanche fury", "work_id": 83567, "role": "director", "role_id": 938, "is_primary": true}, {"id": 796971, "title": "Mademoiselle Striptease", "work_id": 87617, "role": "director", "role_id": 938, "is_primary": true}, {"id": 3104612, "title": "Lumiere", "work_id": 115998, "role": "director", "role_id": 938, "is_primary": true}], "also_known_as": "", "date_of_birth": "", "date_of_death": "", "genders": [], "languages": [], "places_of_operation": [], "biography": "", "biography_author": null, "date_of_biography": "2023-08-17T15:01:02.701203+10:00", "external_links": [], "uuid": "3e0965a6-3378-4827-8275-78235431f6bc", "source": {"name": "Vernon", "slug": "vernon"}, "source_identifier": "24271", "external_references": [], "date_modified": "2025-05-22T22:56:05.068552+10:00"}, {"id": 25649, "name": "UGC Images", "roles_in_work": [{"id": 2088427, "title": "Amelie [DVD]", "work_id": 93967, "role": "production company", "role_id": 941, "is_primary": true}, {"id": 2185660, "title": "Delicatessen [Widescreen]", "work_id": 93120, "role": "production company", "role_id": 941, "is_primary": true}, {"id": 2087908, "title": "Amateur", "work_id": 91079, "role": "production company", "role_id": 941, "is_primary": true}, {"id": 2309792, "title": "Stealing beauty", "work_id": 87342, "role": "production company", "role_id": 941, "is_primary": true}, {"id": 1994106, "title": "Children of the marshland = Les Enfants du marais [Widescreen]", "work_id": 89848, "role": "production company", "role_id": 941, "is_primary": true}, {"id": 2329191, "title": "The Baby of Macon", "work_id": 85890, "role": "production company", "role_id": 941, "is_primary": true}, {"id": 2327779, "title": "The Apartment = L'Appartement", "work_id": 89428, "role": "production company", "role_id": 941, "is_primary": true}, {"id": 1987407, "title": "Germany year zero = Allemagne, annee zero", "work_id": 83565, "role": "production company", "role_id": 941, "is_primary": true}, {"id": 2160386, "title": "Cyrano de Bergerac", "work_id": 88123, "role": "production company", "role_id": 941, "is_primary": true}, {"id": 1998372, "title": "The Girl on the bridge = La Fille sur le port [Widescreen]", "work_id": 93752, "role": "production company", "role_id": 941, "is_primary": true}, {"id": 2159163, "title": "Ivan and Abraham = Moi Ivan, toi Abraham [Widescreen] [NTSC]", "work_id": 92379, "role": "production company", "role_id": 941, "is_primary": true}, {"id": 1991036, "title": "A French woman = Une femme Francaise", "work_id": 86741, "role": "production company", "role_id": 941, "is_primary": true}], "also_known_as": "", "date_of_birth": "", "date_of_death": "", "genders": [], "languages": [], "places_of_operation": [], "biography": "", "biography_author": null, "date_of_biography": "2023-05-09T19:23:19.036538+10:00", "external_links": [], "uuid": "7f8a3742-0dbf-47bc-aeef-d5d7664044f6", "source": {"name": "Vernon", "slug": "vernon"}, "source_identifier": "4540", "external_references": [{"id": 35497, "source": {"name": "Wikidata", "slug": "wikidata"}, "source_identifier": "Q78623145"}], "date_modified": "2023-09-06T02:00:27.942241+10:00"}, {"id": 25647, "name": "Argosy Films for Network 0\\28", "roles_in_work": [{"id": 2774803, "title": "Catch them as they go: religious change in Australia", "work_id": 83562, "role": "production company", "role_id": 941, "is_primary": true}], "also_known_as": "", "date_of_birth": "", "date_of_death": "", "genders": [], "languages": [], "places_of_operation": [], "biography": "", "biography_author": null, "date_of_biography": "2023-05-09T19:23:25.745046+10:00", "external_links": [], "uuid": "95c27d74-4707-4e0f-b0e7-de1f6bdf4324", "source": {"name": "Vernon", "slug": "vernon"}, "source_identifier": "5362", "external_references": [{"id": 39258, "source": {"name": "Wikidata", "slug": "wikidata"}, "source_identifier": "Q121126147"}], "date_modified": "2025-03-14T18:40:30.274778+11:00"}, {"id": 25646, "name": "William Jacobs", "roles_in_work": [{"id": 2174767, "title": "Montana", "work_id": 88464, "role": "producer", "role_id": 1089, "is_primary": true}, {"id": 2128860, "title": "Calamity Jane (Captioned)", "work_id": 84989, "role": "producer", "role_id": 1089, "is_primary": true}, {"id": 2128861, "title": "Calamity Jane", "work_id": 83555, "role": "producer", "role_id": 1089, "is_primary": true}, {"id": 1999054, "title": "The Story of Seabiscuit = Pride of Kentucky", "work_id": 94272, "role": "producer", "role_id": 1089, "is_primary": true}], "also_known_as": "", "date_of_birth": "1887-10-31", "date_of_death": "1953-09-30", "genders": [{"id": 9, "name": "Male", "slug": "male"}], "languages": [{"id": 1, "name": "English", "slug": "english"}], "places_of_operation": [{"id": 1, "name": "United States of America", "slug": "united-states-of-america"}], "biography": "William Jacobs (October 31, 1887 – September 30, 1953) was an American screenwriter and producer for Warner Bros. He wrote 13 Hollywood films and produced 59 more, including musicals.", "biography_author": "Wikidata", "date_of_biography": "2023-08-01T17:27:57.899747+10:00", "external_links": [{"id": 5355, "uri": "https://en.wikipedia.org/wiki/William_Jacobs_(producer)"}], "uuid": "4a692c7b-02c0-4e21-b3c5-d2a9d7b45adb", "source": {"name": "Vernon", "slug": "vernon"}, "source_identifier": "30453", "external_references": [{"id": 25398, "source": {"name": "Wikidata", "slug": "wikidata"}, "source_identifier": "Q17479220"}, {"id": 32021, "source": {"name": "VIAF", "slug": "viaf"}, "source_identifier": "63071385"}, {"id": 32022, "source": {"name": "LOC Auth", "slug": "loc-auth"}, "source_identifier": "n87860289"}, {"id": 32023, "source": {"name": "WorldCat", "slug": "worldcat"}, "source_identifier": "lccn-n87860289"}], "date_modified": "2023-09-06T02:16:45.789371+10:00"}, {"id": 25645, "name": "Ziyin Wang", "roles_in_work": [{"id": 2774645, "title": "Try your fortune", "work_id": 83548, "role": "director", "role_id": 938, "is_primary": true}, {"id": 2774644, "title": "Try your fortune", "work_id": 83548, "role": "co-producer", "role_id": 915, "is_primary": true}, {"id": 2174540, "title": "One step on a journey", "work_id": 93258, "role": "co-producer", "role_id": 915, "is_primary": true}], "also_known_as": "", "date_of_birth": "", "date_of_death": "", "genders": [], "languages": [], "places_of_operation": [], "biography": "", "biography_author": null, "date_of_biography": "2023-05-09T19:29:34.637811+10:00", "external_links": [], "uuid": "1abffde8-e43a-4125-a1e3-9e786e27c7d0", "source": {"name": "Vernon", "slug": "vernon"}, "source_identifier": "30689", "external_references": [{"id": 42354, "source": {"name": "Wikidata", "slug": "wikidata"}, "source_identifier": "Q121091118"}], "date_modified": "2025-03-14T18:38:51.862815+11:00"}]}