{"count": 28684, "next": "https://api.acmi.net.au/creators/?page=2426", "previous": "https://api.acmi.net.au/creators/?page=2424", "results": [{"id": 14839, "name": "Barrie Smith", "roles_in_work": [{"id": 2713331, "title": "Facing facts", "work_id": 67360, "role": "director", "role_id": 938, "is_primary": true}], "also_known_as": "", "date_of_birth": "", "date_of_death": "", "genders": [], "languages": [], "places_of_operation": [], "biography": "", "biography_author": null, "date_of_biography": "2023-05-09T16:24:39.004305+10:00", "external_links": [], "uuid": "6d2352cf-f733-4b4c-afc5-978d21569a0e", "source": {"name": "Vernon", "slug": "vernon"}, "source_identifier": "15698", "external_references": [{"id": 37632, "source": {"name": "Wikidata", "slug": "wikidata"}, "source_identifier": "Q121126171"}], "date_modified": "2025-03-12T00:42:19.345666+11:00"}, {"id": 14838, "name": "Methodist Overseas Mission", "roles_in_work": [{"id": 2644720, "title": "Faces in the sun", "work_id": 67356, "role": "production company", "role_id": 941, "is_primary": true}], "also_known_as": "", "date_of_birth": null, "date_of_death": null, "genders": [], "languages": [], "places_of_operation": [], "biography": "", "biography_author": null, "date_of_biography": null, "external_links": [], "uuid": "2223cf76-e583-496b-8609-876e687ea846", "source": {"name": "Vernon", "slug": "vernon"}, "source_identifier": "10484", "external_references": [], "date_modified": "2025-03-05T12:25:28.665484+11:00"}, {"id": 14836, "name": "Raymond Hancock", "roles_in_work": [{"id": 2713313, "title": "Face of South Africa", "work_id": 67352, "role": "director", "role_id": 938, "is_primary": true}, {"id": 860159, "title": "The University years", "work_id": 74217, "role": "director", "role_id": 938, "is_primary": true}, {"id": 1814448, "title": "The Living laboratory", "work_id": 69807, "role": "producer", "role_id": 1089, "is_primary": true}], "also_known_as": "", "date_of_birth": "", "date_of_death": "", "genders": [], "languages": [], "places_of_operation": [], "biography": "", "biography_author": null, "date_of_biography": "2023-08-11T16:34:57.748861+10:00", "external_links": [], "uuid": "fe5b06a0-d79e-42d7-ae35-6c3fdad135b0", "source": {"name": "Vernon", "slug": "vernon"}, "source_identifier": "27194", "external_references": [], "date_modified": "2025-03-12T00:41:48.213175+11:00"}, {"id": 14835, "name": "Errol Hinds", "roles_in_work": [{"id": 802359, "title": "Saturday parade", "work_id": 89325, "role": "director", "role_id": 938, "is_primary": true}, {"id": 2713312, "title": "Face of South Africa", "work_id": 67352, "role": "co-producer", "role_id": 915, "is_primary": true}], "also_known_as": "", "date_of_birth": "", "date_of_death": "", "genders": [], "languages": [], "places_of_operation": [], "biography": "", "biography_author": null, "date_of_biography": "2023-08-11T16:34:57.098897+10:00", "external_links": [], "uuid": "6dec018f-c6b2-4bff-9ddd-10cf5d56961b", "source": {"name": "Vernon", "slug": "vernon"}, "source_identifier": "18880", "external_references": [], "date_modified": "2025-03-12T00:41:46.416332+11:00"}, {"id": 14834, "name": "Malcolm Lomberg", "roles_in_work": [{"id": 2713311, "title": "Face of South Africa", "work_id": 67352, "role": "co-producer", "role_id": 915, "is_primary": true}, {"id": 1815490, "title": "Saturday parade", "work_id": 89325, "role": "producer", "role_id": 1089, "is_primary": true}], "also_known_as": "", "date_of_birth": "", "date_of_death": "", "genders": [], "languages": [], "places_of_operation": [], "biography": "", "biography_author": null, "date_of_biography": "2023-08-11T16:34:56.425783+10:00", "external_links": [], "uuid": "092d5986-0098-4a0e-a5ae-ca493ac9f673", "source": {"name": "Vernon", "slug": "vernon"}, "source_identifier": "24225", "external_references": [], "date_modified": "2025-03-12T00:41:45.834280+11:00"}, {"id": 14833, "name": "South African Screen Productions", "roles_in_work": [{"id": 2713310, "title": "Face of South Africa", "work_id": 67352, "role": "production company", "role_id": 941, "is_primary": true}], "also_known_as": "", "date_of_birth": "", "date_of_death": "", "genders": [], "languages": [], "places_of_operation": [], "biography": "", "biography_author": null, "date_of_biography": "2023-08-11T16:34:55.768756+10:00", "external_links": [], "uuid": "e325bd47-c006-4087-bf34-3113f5338ab1", "source": {"name": "Vernon", "slug": "vernon"}, "source_identifier": "12772", "external_references": [], "date_modified": "2025-03-12T00:41:45.252753+11:00"}, {"id": 14832, "name": "Av Westin", "roles_in_work": [{"id": 2713309, "title": "The Face of Red China", "work_id": 67351, "role": "director", "role_id": 938, "is_primary": true}, {"id": 1819569, "title": "The Population explosion", "work_id": 71706, "role": "producer", "role_id": 1089, "is_primary": true}], "also_known_as": "", "date_of_birth": null, "date_of_death": null, "genders": [], "languages": [], "places_of_operation": [], "biography": "", "biography_author": null, "date_of_biography": null, "external_links": [], "uuid": "b5c2e116-cc8f-47b8-a512-f71d0b416f75", "source": {"name": "Vernon", "slug": "vernon"}, "source_identifier": "15603", "external_references": [], "date_modified": "2025-03-12T00:41:44.364805+11:00"}, {"id": 14831, "name": "Leslie Midgley", "roles_in_work": [{"id": 2713308, "title": "The Face of Red China", "work_id": 67351, "role": "producer", "role_id": 1089, "is_primary": true}], "also_known_as": "", "date_of_birth": null, "date_of_death": null, "genders": [], "languages": [], "places_of_operation": [], "biography": "", "biography_author": null, "date_of_biography": null, "external_links": [], "uuid": "d16024f5-d465-4490-aec3-a311849513d8", "source": {"name": "Vernon", "slug": "vernon"}, "source_identifier": "23779", "external_references": [], "date_modified": "2025-03-12T00:41:42.701166+11:00"}, {"id": 14830, "name": "Edward Freed", "roles_in_work": [{"id": 2644719, "title": "The Face of Lincoln", "work_id": 67349, "role": "director", "role_id": 938, "is_primary": true}], "also_known_as": "", "date_of_birth": null, "date_of_death": null, "genders": [], "languages": [], "places_of_operation": [], "biography": "", "biography_author": null, "date_of_biography": null, "external_links": [], "uuid": "5ddd9e1d-d183-414b-90f8-af08ecbe4ab2", "source": {"name": "Vernon", "slug": "vernon"}, "source_identifier": "18593", "external_references": [], "date_modified": "2025-03-05T12:25:27.805481+11:00"}, {"id": 14829, "name": "Wilbur T. Blume", "roles_in_work": [{"id": 2714843, "title": "Good speech for Gary", "work_id": 68140, "role": "producer", "role_id": 1089, "is_primary": true}, {"id": 2644718, "title": "The Face of Lincoln", "work_id": 67349, "role": "producer", "role_id": 1089, "is_primary": true}], "also_known_as": "", "date_of_birth": "1920-05-04", "date_of_death": "1989-12-25", "genders": [{"id": 9, "name": "Male", "slug": "male"}], "languages": [], "places_of_operation": [{"id": 1, "name": "United States of America", "slug": "united-states-of-america"}], "biography": "", "biography_author": null, "date_of_biography": null, "external_links": [], "uuid": "bbbe83fd-de52-4f60-a15f-c403589fe2c7", "source": {"name": "Vernon", "slug": "vernon"}, "source_identifier": "30341", "external_references": [{"id": 34136, "source": {"name": "Wikidata", "slug": "wikidata"}, "source_identifier": "Q15854394"}, {"id": 56055, "source": {"name": "VIAF", "slug": "viaf"}, "source_identifier": "109858650"}, {"id": 56056, "source": {"name": "LOC Auth", "slug": "loc-auth"}, "source_identifier": "n82237907"}], "date_modified": "2025-03-12T01:21:27.176402+11:00"}]}