{"count": 28681, "next": "https://api.acmi.net.au/creators/?page=2801", "previous": "https://api.acmi.net.au/creators/?page=2799", "results": [{"id": 9033, "name": "The Physical TV Company", "roles_in_work": [{"id": 2619517, "title": "No surrender", "work_id": 114162, "role": "creator", "role_id": 968, "is_primary": true}], "also_known_as": "", "date_of_birth": "", "date_of_death": "", "genders": [], "languages": [], "places_of_operation": [], "biography": "", "biography_author": null, "date_of_biography": "2023-05-09T14:26:48.945260+10:00", "external_links": [], "uuid": "73d2f309-8adf-448a-8f32-cc41ff6fb4b1", "source": {"name": "Vernon", "slug": "vernon"}, "source_identifier": "111976", "external_references": [], "date_modified": "2025-02-26T23:14:23.790794+11:00"}, {"id": 9027, "name": "Tony Doogood", "roles_in_work": [{"id": 761282, "title": "Operation grasshopper", "work_id": 76156, "role": "director", "role_id": 938, "is_primary": true}, {"id": 880411, "title": "Report on molybdenum", "work_id": 92400, "role": "director", "role_id": 938, "is_primary": true}, {"id": 3108683, "title": "The Voice of Agriculture", "work_id": 119301, "role": "director", "role_id": 938, "is_primary": true}, {"id": 3108666, "title": "Fat pigs are out", "work_id": 108938, "role": "director", "role_id": 938, "is_primary": true}, {"id": 3108674, "title": "Dressing a Chicken", "work_id": 119297, "role": "photographer", "role_id": 440, "is_primary": false}, {"id": 3108525, "title": "Where the River Kiewa Flows", "work_id": 119558, "role": "photographer", "role_id": 440, "is_primary": false}, {"id": 1814815, "title": "Potash deficiency", "work_id": 90199, "role": "producer", "role_id": 1089, "is_primary": true}, {"id": 1818673, "title": "The Challenge", "work_id": 85605, "role": "producer", "role_id": 1089, "is_primary": true}], "also_known_as": "", "date_of_birth": "", "date_of_death": "", "genders": [], "languages": [], "places_of_operation": [], "biography": "", "biography_author": null, "date_of_biography": "2023-07-05T04:00:46.875212+10:00", "external_links": [], "uuid": "844f3aec-2587-4495-8717-89cdfc51077f", "source": {"name": "Vernon", "slug": "vernon"}, "source_identifier": "1645", "external_references": [{"id": 35542, "source": {"name": "Wikidata", "slug": "wikidata"}, "source_identifier": "Q121337060"}], "date_modified": "2025-10-01T16:44:19.627463+10:00"}, {"id": 9025, "name": "Gordon C. Lloyd", "roles_in_work": [{"id": 2619535, "title": "Melbourne: festival city", "work_id": 95778, "role": "director", "role_id": 938, "is_primary": true}, {"id": 3108662, "title": "Fat pigs are out", "work_id": 108938, "role": "camera operator", "role_id": 931, "is_primary": false}], "also_known_as": "", "date_of_birth": "", "date_of_death": "", "genders": [], "languages": [], "places_of_operation": [], "biography": "", "biography_author": null, "date_of_biography": "2023-05-09T19:04:41.260810+10:00", "external_links": [], "uuid": "e945cf54-8288-4d6c-838b-1abc346c8703", "source": {"name": "Vernon", "slug": "vernon"}, "source_identifier": "19929", "external_references": [{"id": 37353, "source": {"name": "Wikidata", "slug": "wikidata"}, "source_identifier": "Q121270938"}], "date_modified": "2025-10-01T16:43:47.018690+10:00"}, {"id": 9024, "name": "Owen Brothers Animated Films", "roles_in_work": [{"id": 1905305, "title": "The Secondary Teacher", "work_id": 96414, "role": "animator", "role_id": 497, "is_primary": false}, {"id": 3108637, "title": "A Dairyland Romance", "work_id": 108936, "role": "animator", "role_id": 497, "is_primary": false}, {"id": 745500, "title": "Jamboree", "work_id": 69196, "role": "production company", "role_id": 941, "is_primary": true}, {"id": 874090, "title": "What do you know?: screen quiz No. 1", "work_id": 88559, "role": "production company", "role_id": 941, "is_primary": true}, {"id": 2677480, "title": "Around a gum tree", "work_id": 64891, "role": "production company", "role_id": 941, "is_primary": true}, {"id": 2101746, "title": "Artistry in clay", "work_id": 85806, "role": "production company", "role_id": 941, "is_primary": true}, {"id": 878863, "title": "Physical education at Crows Nest, Queenscliff", "work_id": 91431, "role": "production company", "role_id": 941, "is_primary": true}], "also_known_as": "", "date_of_birth": "", "date_of_death": "", "genders": [], "languages": [], "places_of_operation": [], "biography": "", "biography_author": null, "date_of_biography": "2023-08-09T03:40:27.261205+10:00", "external_links": [], "uuid": "4ac15edd-e0ea-46f2-814d-fac705130e14", "source": {"name": "Vernon", "slug": "vernon"}, "source_identifier": "1174", "external_references": [{"id": 41906, "source": {"name": "Wikidata", "slug": "wikidata"}, "source_identifier": "Q121091113"}], "date_modified": "2025-10-01T16:43:14.068689+10:00"}, {"id": 9022, "name": "Keith Harrison", "roles_in_work": [{"id": 3108635, "title": "A Dairyland Romance", "work_id": 108936, "role": "writer", "role_id": 939, "is_primary": true}], "also_known_as": "", "date_of_birth": "", "date_of_death": "", "genders": [], "languages": [], "places_of_operation": [], "biography": "", "biography_author": null, "date_of_biography": "2023-08-09T03:40:25.854994+10:00", "external_links": [], "uuid": "7a84eb25-79f0-46ee-8ee5-71751fae0f7c", "source": {"name": "Vernon", "slug": "vernon"}, "source_identifier": "1172", "external_references": [{"id": 40676, "source": {"name": "Wikidata", "slug": "wikidata"}, "source_identifier": "Q121271504"}], "date_modified": "2025-10-01T16:43:12.651107+10:00"}, {"id": 9021, "name": "Robert Rothols", "roles_in_work": [{"id": 3093069, "title": "Report on Eppalock", "work_id": 72152, "role": "director", "role_id": 938, "is_primary": true}, {"id": 3108630, "title": "Police horses: who cares?", "work_id": 108953, "role": "executive producer", "role_id": 916, "is_primary": false}, {"id": 3108546, "title": "30 Seconds to go", "work_id": 108952, "role": "executive producer", "role_id": 916, "is_primary": false}, {"id": 3108577, "title": "Live sheep export to Iran", "work_id": 109012, "role": "executive producer", "role_id": 916, "is_primary": false}, {"id": 2710361, "title": "And now for some quotations", "work_id": 108930, "role": "executive producer", "role_id": 916, "is_primary": false}, {"id": 2711052, "title": "Dirty Harry", "work_id": 108999, "role": "executive producer", "role_id": 916, "is_primary": false}, {"id": 2753347, "title": "Horse breaking", "work_id": 98719, "role": "executive producer", "role_id": 916, "is_primary": false}, {"id": 3108640, "title": "Hello, Mr. Webb!", "work_id": 94920, "role": "producer", "role_id": 1089, "is_primary": true}, {"id": 2678843, "title": "Bridging the G.A.P.", "work_id": 65601, "role": "producer", "role_id": 1089, "is_primary": true}, {"id": 1820485, "title": "The Moving Record", "work_id": 78451, "role": "producer", "role_id": 1089, "is_primary": true}, {"id": 1816430, "title": "Hydatids: a cycle to break", "work_id": 98854, "role": "producer", "role_id": 1089, "is_primary": true}, {"id": 1804562, "title": "Come September", "work_id": 75846, "role": "producer", "role_id": 1089, "is_primary": true}], "also_known_as": "", "date_of_birth": "", "date_of_death": "", "genders": [], "languages": [], "places_of_operation": [], "biography": "", "biography_author": null, "date_of_biography": "2023-05-09T19:04:38.677181+10:00", "external_links": [], "uuid": "ec2110c3-cda7-418d-b148-c2fe03142a8a", "source": {"name": "Vernon", "slug": "vernon"}, "source_identifier": "1354", "external_references": [{"id": 38161, "source": {"name": "Wikidata", "slug": "wikidata"}, "source_identifier": "Q121337518"}], "date_modified": "2025-10-01T16:43:19.033516+10:00"}, {"id": 9019, "name": "Donald Ewart", "roles_in_work": [{"id": 3108643, "title": "Hello, Mr. Webb!", "work_id": 94920, "role": "cast", "role_id": 33, "is_primary": false}, {"id": 2710358, "title": "And now for some quotations", "work_id": 108930, "role": "narrator", "role_id": 499, "is_primary": false}, {"id": 3108689, "title": "Tractor driving", "work_id": 73957, "role": "producer", "role_id": 1089, "is_primary": true}, {"id": 3108625, "title": "Police horses: who cares?", "work_id": 108953, "role": "sound", "role_id": 952, "is_primary": false}, {"id": 3108543, "title": "30 Seconds to go", "work_id": 108952, "role": "sound", "role_id": 952, "is_primary": false}, {"id": 2711049, "title": "Dirty Harry", "work_id": 108999, "role": "sound", "role_id": 952, "is_primary": false}], "also_known_as": "", "date_of_birth": "", "date_of_death": "", "genders": [], "languages": [], "places_of_operation": [], "biography": "", "biography_author": null, "date_of_biography": "2023-05-09T19:04:37.431610+10:00", "external_links": [], "uuid": "845fe9c4-9b5e-4c33-9d60-bcf76bb22c4b", "source": {"name": "Vernon", "slug": "vernon"}, "source_identifier": "31990", "external_references": [{"id": 39130, "source": {"name": "Wikidata", "slug": "wikidata"}, "source_identifier": "Q121126526"}], "date_modified": "2025-10-01T16:44:26.994924+10:00"}, {"id": 9017, "name": "Graham Evans", "roles_in_work": [{"id": 923964, "title": "The Hound of the Baskervilles", "work_id": 93053, "role": "director", "role_id": 938, "is_primary": true}, {"id": 3108486, "title": "Stop fruitfly (picture only)", "work_id": 108927, "role": "narrator", "role_id": 499, "is_primary": false}], "also_known_as": "", "date_of_birth": "", "date_of_death": "", "genders": [], "languages": [], "places_of_operation": [], "biography": "", "biography_author": null, "date_of_biography": "2023-05-09T19:02:31.934193+10:00", "external_links": [], "uuid": "b365b1d4-4cb8-4fed-a4bf-201e17bb72e6", "source": {"name": "Vernon", "slug": "vernon"}, "source_identifier": "1883", "external_references": [{"id": 34253, "source": {"name": "Wikidata", "slug": "wikidata"}, "source_identifier": "Q121035835"}], "date_modified": "2025-10-01T10:42:06.112962+10:00"}, {"id": 9015, "name": "Colin Webb", "roles_in_work": [{"id": 1427790, "title": "25 years of International Air Tattoo", "work_id": 87560, "role": "director", "role_id": 938, "is_primary": true}, {"id": 3108613, "title": "The Mallee Research Station", "work_id": 119556, "role": "producer", "role_id": 1089, "is_primary": true}, {"id": 3108612, "title": "The Mallee Research Station", "work_id": 119556, "role": "script", "role_id": 962, "is_primary": false}, {"id": 3108484, "title": "Stop fruitfly (picture only)", "work_id": 108927, "role": "writer", "role_id": 939, "is_primary": true}], "also_known_as": "", "date_of_birth": "", "date_of_death": "", "genders": [], "languages": [], "places_of_operation": [], "biography": "", "biography_author": null, "date_of_biography": "2023-05-09T19:04:12.362722+10:00", "external_links": [], "uuid": "55452afb-c914-4386-a9c3-1c2eae824600", "source": {"name": "Vernon", "slug": "vernon"}, "source_identifier": "1882", "external_references": [{"id": 38267, "source": {"name": "Wikidata", "slug": "wikidata"}, "source_identifier": "Q121298789"}], "date_modified": "2025-10-01T16:42:49.998159+10:00"}, {"id": 9005, "name": "Anastasia Malishev", "roles_in_work": [{"id": 2710409, "title": "Sleep milanke", "work_id": 108921, "role": "creator", "role_id": 968, "is_primary": true}, {"id": 2710411, "title": "Industry vs nature", "work_id": 108922, "role": "creator", "role_id": 968, "is_primary": true}, {"id": 2710413, "title": "[Untitled]", "work_id": 108923, "role": "creator", "role_id": 968, "is_primary": true}, {"id": 2710415, "title": "Science fiction our reality", "work_id": 108924, "role": "creator", "role_id": 968, "is_primary": true}, {"id": 2710395, "title": "Good vs evil", "work_id": 108918, "role": "creator", "role_id": 968, "is_primary": true}, {"id": 2710407, "title": "Journey", "work_id": 108920, "role": "creator", "role_id": 968, "is_primary": true}, {"id": 2710404, "title": "Anastasia Malishev showreel", "work_id": 108919, "role": "creator", "role_id": 968, "is_primary": true}], "also_known_as": "", "date_of_birth": "", "date_of_death": "", "genders": [], "languages": [], "places_of_operation": [], "biography": "", "biography_author": null, "date_of_biography": "2023-08-11T12:40:47.510679+10:00", "external_links": [], "uuid": "0186093c-b4c6-4162-93b9-7303113da13b", "source": {"name": "Vernon", "slug": "vernon"}, "source_identifier": "111969", "external_references": [], "date_modified": "2025-03-11T23:35:19.080475+11:00"}]}