{"count": 28687, "next": "https://api.acmi.net.au/creators/?page=634", "previous": "https://api.acmi.net.au/creators/?page=632", "results": [{"id": 79253, "name": "Miroslav Steinbach", "roles_in_work": [{"id": 1994191, "title": "Mandragora [Widescreen] (E)", "work_id": 89947, "role": "co-producer", "role_id": 915, "is_primary": true}], "also_known_as": "", "date_of_birth": null, "date_of_death": null, "genders": [], "languages": [], "places_of_operation": [], "biography": "", "biography_author": null, "date_of_biography": null, "external_links": [], "uuid": "e8c66beb-74cb-43bc-b285-80d1722fe638", "source": {"name": "Vernon", "slug": "vernon"}, "source_identifier": null, "external_references": [{"id": 32798, "source": {"name": "Wikidata", "slug": "wikidata"}, "source_identifier": "Q121271200"}], "date_modified": "2023-09-05T23:18:26.645976+10:00"}, {"id": 79252, "name": "Petr Heinvosky", "roles_in_work": [{"id": 1994190, "title": "Mandragora [Widescreen] (E)", "work_id": 89947, "role": "co-producer", "role_id": 915, "is_primary": true}], "also_known_as": "", "date_of_birth": null, "date_of_death": null, "genders": [], "languages": [], "places_of_operation": [], "biography": "", "biography_author": null, "date_of_biography": null, "external_links": [], "uuid": "63a6a27c-303d-4d54-8d43-5741037a2ad3", "source": {"name": "Vernon", "slug": "vernon"}, "source_identifier": null, "external_references": [{"id": 42817, "source": {"name": "Wikidata", "slug": "wikidata"}, "source_identifier": "Q121298964"}], "date_modified": "2023-09-06T00:02:36.214284+10:00"}, {"id": 79251, "name": "Jaraslav Stanek", "roles_in_work": [{"id": 1994189, "title": "Mandragora [Widescreen] (E)", "work_id": 89947, "role": "co-producer", "role_id": 915, "is_primary": true}], "also_known_as": "", "date_of_birth": null, "date_of_death": null, "genders": [], "languages": [], "places_of_operation": [], "biography": "", "biography_author": null, "date_of_biography": null, "external_links": [], "uuid": "231ab397-ef85-4204-b2ae-e527f9553c25", "source": {"name": "Vernon", "slug": "vernon"}, "source_identifier": null, "external_references": [{"id": 38964, "source": {"name": "Wikidata", "slug": "wikidata"}, "source_identifier": "Q121126501"}], "date_modified": "2023-09-05T21:09:17.761881+10:00"}, {"id": 79250, "name": "Claude Nedjar", "roles_in_work": [{"id": 1994186, "title": "Le Souffle au coeur = Dearest love = Murmur of the Heart", "work_id": 89921, "role": "co-producer", "role_id": 915, "is_primary": true}, {"id": 3104329, "title": "Ben et Benedict = Ben and Benedict", "work_id": 115865, "role": "producer", "role_id": 1089, "is_primary": true}, {"id": 3104452, "title": "La Trace = the Trail", "work_id": 115920, "role": "producer", "role_id": 1089, "is_primary": true}], "also_known_as": "", "date_of_birth": "1938-08-16", "date_of_death": "2003-02-13", "genders": [{"id": 9, "name": "Male", "slug": "male"}], "languages": [{"id": 4, "name": "French", "slug": "french"}], "places_of_operation": [{"id": 17, "name": "France", "slug": "france"}], "biography": "", "biography_author": null, "date_of_biography": "2023-05-09T12:50:11.100864+10:00", "external_links": [], "uuid": "7576d680-789a-4e9c-82f0-75c3ebdbdaa8", "source": {"name": "Vernon", "slug": "vernon"}, "source_identifier": "17082", "external_references": [{"id": 33651, "source": {"name": "Wikidata", "slug": "wikidata"}, "source_identifier": "Q2977888"}, {"id": 54226, "source": {"name": "VIAF", "slug": "viaf"}, "source_identifier": "14977403"}, {"id": 54227, "source": {"name": "LOC Auth", "slug": "loc-auth"}, "source_identifier": "no2001013385"}, {"id": 54228, "source": {"name": "WorldCat", "slug": "worldcat"}, "source_identifier": "lccn-no2001013385"}], "date_modified": "2025-05-22T22:41:01.208281+10:00"}, {"id": 79249, "name": "Julien Aunter", "roles_in_work": [{"id": 2224948, "title": "Factory inspector", "work_id": 89916, "role": "co-producers/directors", "role_id": 628, "is_primary": true}], "also_known_as": "", "date_of_birth": "", "date_of_death": "", "genders": [], "languages": [], "places_of_operation": [], "biography": "", "biography_author": null, "date_of_biography": "2023-05-09T16:24:56.130430+10:00", "external_links": [], "uuid": "e5bba5e6-3950-45a4-ade0-20bce61e70df", "source": {"name": "Vernon", "slug": "vernon"}, "source_identifier": "22916", "external_references": [], "date_modified": "2023-06-14T16:33:30.576250+10:00"}, {"id": 79248, "name": "Dick Andrews", "roles_in_work": [{"id": 2224943, "title": "Factory inspector", "work_id": 89916, "role": "co-producers/directors", "role_id": 628, "is_primary": true}], "also_known_as": "", "date_of_birth": "", "date_of_death": "", "genders": [], "languages": [], "places_of_operation": [], "biography": "", "biography_author": null, "date_of_biography": "2023-05-09T16:24:55.889244+10:00", "external_links": [], "uuid": "a097ebc7-8de8-4ecf-a87e-fcf6e7ce663a", "source": {"name": "Vernon", "slug": "vernon"}, "source_identifier": "18096", "external_references": [], "date_modified": "2023-06-14T16:33:30.576250+10:00"}, {"id": 79247, "name": "Alan Probert", "roles_in_work": [{"id": 876179, "title": "Volcano", "work_id": 89909, "role": "producer/director", "role_id": 31, "is_primary": true}], "also_known_as": "", "date_of_birth": null, "date_of_death": null, "genders": [], "languages": [], "places_of_operation": [], "biography": "", "biography_author": null, "date_of_biography": null, "external_links": [], "uuid": "5edb5f6d-f310-434f-8e4c-3e42d98c6746", "source": {"name": "Vernon", "slug": "vernon"}, "source_identifier": null, "external_references": [{"id": 50911, "source": {"name": "Wikidata", "slug": "wikidata"}, "source_identifier": "Q121360611"}], "date_modified": "2023-09-05T17:20:51.523530+10:00"}, {"id": 79246, "name": "Bryan Niland", "roles_in_work": [{"id": 2158529, "title": "Nimmo St", "work_id": 89888, "role": "cast", "role_id": 33, "is_primary": false}], "also_known_as": "", "date_of_birth": "", "date_of_death": "", "genders": [], "languages": [], "places_of_operation": [], "biography": "", "biography_author": null, "date_of_biography": "2023-05-09T14:10:42.337895+10:00", "external_links": [], "uuid": "8bfdca77-2487-4bd3-a3bc-decc90f3d23e", "source": {"name": "Vernon", "slug": "vernon"}, "source_identifier": "38632", "external_references": [{"id": 42655, "source": {"name": "Wikidata", "slug": "wikidata"}, "source_identifier": "Q121126818"}], "date_modified": "2023-09-05T18:15:03.484261+10:00"}, {"id": 79245, "name": "Anthony Richmond", "roles_in_work": [{"id": 2158526, "title": "Nimmo St", "work_id": 89888, "role": "cast", "role_id": 33, "is_primary": false}], "also_known_as": "", "date_of_birth": "", "date_of_death": "", "genders": [], "languages": [], "places_of_operation": [], "biography": "", "biography_author": null, "date_of_biography": "2023-05-09T14:10:42.093508+10:00", "external_links": [], "uuid": "b37d0b94-7e04-4966-8406-a61b26571450", "source": {"name": "Vernon", "slug": "vernon"}, "source_identifier": "38631", "external_references": [{"id": 50659, "source": {"name": "Wikidata", "slug": "wikidata"}, "source_identifier": "Q121357779"}], "date_modified": "2023-09-05T17:42:00.556812+10:00"}, {"id": 79244, "name": "Natalie Osoba", "roles_in_work": [{"id": 2158523, "title": "Nimmo St", "work_id": 89888, "role": "cast", "role_id": 33, "is_primary": false}], "also_known_as": "", "date_of_birth": "", "date_of_death": "", "genders": [], "languages": [], "places_of_operation": [], "biography": "", "biography_author": null, "date_of_biography": "2023-05-09T14:10:41.846581+10:00", "external_links": [], "uuid": "9da6248f-87b1-4cf6-b241-902ad78d2c14", "source": {"name": "Vernon", "slug": "vernon"}, "source_identifier": "38630", "external_references": [{"id": 43503, "source": {"name": "Wikidata", "slug": "wikidata"}, "source_identifier": "Q121034542"}], "date_modified": "2023-09-05T23:25:22.924176+10:00"}]}