{"count": 28684, "next": "https://api.acmi.net.au/creators/?page=13", "previous": "https://api.acmi.net.au/creators/?page=11", "results": [{"id": 87668, "name": "North American Star System Production", "roles_in_work": [{"id": 3097608, "title": "Space is the Place\nLP", "work_id": 122843, "role": "publisher", "role_id": 942, "is_primary": true}], "also_known_as": "", "date_of_birth": null, "date_of_death": null, "genders": [], "languages": [], "places_of_operation": [], "biography": "", "biography_author": null, "date_of_biography": null, "external_links": [], "uuid": "d92e5b21-2192-4b26-9b39-93a5f453cc45", "source": {"name": "Vernon", "slug": "vernon"}, "source_identifier": "40696", "external_references": [], "date_modified": "2025-05-08T22:38:53.506497+10:00"}, {"id": 87667, "name": "Pacific Sisters", "roles_in_work": [{"id": 3097570, "title": "SUP'IA SUGA", "work_id": 122841, "role": "", "role_id": 604, "is_primary": false}, {"id": 3097569, "title": "Positioning exploding\nblood eyes – MuruMoa\nmask", "work_id": 122840, "role": "", "role_id": 604, "is_primary": false}, {"id": 3097567, "title": "MuruMoa design sketch", "work_id": 122838, "role": "", "role_id": 604, "is_primary": false}, {"id": 3097566, "title": "MURA-MOA", "work_id": 122837, "role": "", "role_id": 604, "is_primary": false}, {"id": 3097565, "title": "Kaitiaki with a K", "work_id": 122836, "role": "", "role_id": 604, "is_primary": false}, {"id": 3097564, "title": "Existing and work in\nprogress Aitu compilation\nsketches and photos", "work_id": 122835, "role": "", "role_id": 604, "is_primary": false}, {"id": 3097563, "title": "Draft installation\nsketch of 4 x Niu Aitu", "work_id": 122834, "role": "", "role_id": 604, "is_primary": false}, {"id": 3097571, "title": "Whakapapa\nBloodlines – Lines Of\nTupuna Bones Sketch", "work_id": 122842, "role": "", "role_id": 604, "is_primary": false}, {"id": 3097568, "title": "MuruMoa early colour\nblocking sketch", "work_id": 122839, "role": "", "role_id": 604, "is_primary": false}, {"id": 3097572, "title": "The Pacific Sisters", "work_id": 122833, "role": "artist", "role_id": 505, "is_primary": true}], "also_known_as": "", "date_of_birth": "1991", "date_of_death": null, "genders": [], "languages": [], "places_of_operation": [], "biography": "The Pacific Sisters is a Tāgata Moana art collective that emerged from the fringes of mainstream arts and culture in Aotearoa New Zealand in 1991. They are now celebrated for their multi-disciplinary practice that blends Moana heritage art and contemporary forms to create fashion activism. Through ceremony, art, adornment and performance, they embrace and assert their urban Māori, Pacific, and Queer identities, unique to Aotearoa New Zealand. Pacific Sisters advocate for the environment, Indigenous, POC and Queer rights and body sovereignty. The collective is an active and influential part of the wider Moana arts community, nurturing and mentoring younger artists, as well as inspiring and supporting each other’s individual art practices.", "biography_author": null, "date_of_biography": "2025-05-08T22:38:22.642708+10:00", "external_links": [], "uuid": "a19bab23-ce3c-40ca-bd93-bfb51c6bd3bb", "source": {"name": "Vernon", "slug": "vernon"}, "source_identifier": "40749", "external_references": [], "date_modified": "2025-05-08T22:38:22.642941+10:00"}, {"id": 87662, "name": "Gottfried Lindauer", "roles_in_work": [{"id": 3097536, "title": "Mrs Mihiterina Takamoana, Gottfried Lindauer. Reference material, Huia feathers in character design", "work_id": 122802, "role": "artist", "role_id": 505, "is_primary": true}, {"id": 3097537, "title": "Rangi Topeora, Gottfried Lindauer. Reference material, Huia feathers in character design", "work_id": 122803, "role": "artist", "role_id": 505, "is_primary": true}], "also_known_as": "", "date_of_birth": null, "date_of_death": null, "genders": [], "languages": [], "places_of_operation": [], "biography": "", "biography_author": null, "date_of_biography": null, "external_links": [], "uuid": "1cc12c67-3481-47a4-a99d-fae6042b605f", "source": {"name": "Vernon", "slug": "vernon"}, "source_identifier": "40854", "external_references": [], "date_modified": "2025-05-08T22:37:40.908422+10:00"}, {"id": 87661, "name": "Paul Chadeisson", "roles_in_work": [{"id": 3097499, "title": "Concept Art, Night City Cyberpunk 2077 1", "work_id": 122781, "role": "concept artist/concept", "role_id": 1091, "is_primary": false}, {"id": 3097504, "title": "A Mercenary On The Rise, CGI still, Cyberpunk 2077", "work_id": 122784, "role": "concept artist/concept", "role_id": 1091, "is_primary": false}, {"id": 3097501, "title": "Concept Art, Night City, Cyberpunk 2077 2", "work_id": 122782, "role": "concept artist/concept", "role_id": 1091, "is_primary": false}], "also_known_as": "", "date_of_birth": null, "date_of_death": null, "genders": [], "languages": [], "places_of_operation": [], "biography": "", "biography_author": null, "date_of_biography": null, "external_links": [], "uuid": "d8fcb46e-c940-43cc-ba5e-a426073586c2", "source": {"name": "Vernon", "slug": "vernon"}, "source_identifier": "40852", "external_references": [], "date_modified": "2025-05-08T22:37:23.267410+10:00"}, {"id": 87660, "name": "CD Projekt Red", "roles_in_work": [{"id": 3097502, "title": "Cyberpunk 2077: Clip Package", "work_id": 122783, "role": "creator", "role_id": 968, "is_primary": true}, {"id": 3097500, "title": "Concept Art, Night City, Cyberpunk 2077 2", "work_id": 122782, "role": "creator", "role_id": 968, "is_primary": true}, {"id": 3097505, "title": "The Stadium View, Concept Art, Cyberpunk 2077: Phantom Liberty", "work_id": 122785, "role": "creator", "role_id": 968, "is_primary": true}, {"id": 3097503, "title": "A Mercenary On The Rise, CGI still, Cyberpunk 2077", "work_id": 122784, "role": "creator", "role_id": 968, "is_primary": true}, {"id": 3097498, "title": "Concept Art, Night City Cyberpunk 2077 1", "work_id": 122781, "role": "creator", "role_id": 968, "is_primary": true}, {"id": 3097497, "title": "Boulevard Avenue Buildings, Concept Art, Cyberpunk 2077: Phantom Liberty", "work_id": 122780, "role": "creator", "role_id": 968, "is_primary": true}, {"id": 3097506, "title": "Cyberpunk 2077", "work_id": 122779, "role": "games developer/developer", "role_id": 1092, "is_primary": false}], "also_known_as": "", "date_of_birth": null, "date_of_death": null, "genders": [], "languages": [], "places_of_operation": [], "biography": "", "biography_author": null, "date_of_biography": null, "external_links": [], "uuid": "d08550b8-80e7-444a-896f-702c5883bb29", "source": {"name": "Vernon", "slug": "vernon"}, "source_identifier": "40851", "external_references": [], "date_modified": "2025-05-08T22:37:24.959572+10:00"}, {"id": 87659, "name": "Olalekan Jeyifous", "roles_in_work": [{"id": 3097496, "title": "Olalekan Jeyifous' The Anarchonauts and Shanty Megastructures", "work_id": 122767, "role": "artist", "role_id": 505, "is_primary": true}, {"id": 3097489, "title": "Anarchonauts: Medicine Woman", "work_id": 122772, "role": "", "role_id": 604, "is_primary": false}, {"id": 3097487, "title": "Anarchonauts: Courier Woman", "work_id": 122770, "role": "", "role_id": 604, "is_primary": false}, {"id": 3097488, "title": "Anarchonauts: Herbalist", "work_id": 122771, "role": "artist", "role_id": 505, "is_primary": true}, {"id": 3097485, "title": "Anarchonauts: Caravan", "work_id": 122768, "role": "artist", "role_id": 505, "is_primary": true}, {"id": 3097486, "title": "Anarchonauts: Circuit Weaver", "work_id": 122769, "role": "artist", "role_id": 505, "is_primary": true}, {"id": 3097490, "title": "Anarchonauts: Mother", "work_id": 122773, "role": "artist", "role_id": 505, "is_primary": true}, {"id": 3097491, "title": "Anarchonauts: Muslima", "work_id": 122774, "role": "artist", "role_id": 505, "is_primary": true}, {"id": 3097492, "title": "Anarchonauts: Patrolers", "work_id": 122775, "role": "artist", "role_id": 505, "is_primary": true}, {"id": 3097493, "title": "Anarchonauts: Studiy Partner", "work_id": 122776, "role": "artist", "role_id": 505, "is_primary": true}, {"id": 3097494, "title": "Anarchonauts: Water", "work_id": 122777, "role": "artist", "role_id": 505, "is_primary": true}, {"id": 3097495, "title": "Shanty Mega-Structures Film", "work_id": 122778, "role": "artist", "role_id": 505, "is_primary": true}], "also_known_as": "", "date_of_birth": "1977", "date_of_death": null, "genders": [{"id": 9, "name": "Male", "slug": "male"}], "languages": [], "places_of_operation": [], "biography": "", "biography_author": null, "date_of_biography": null, "external_links": [], "uuid": "831b827c-4ed6-4988-8c51-25121a8529fa", "source": {"name": "Vernon", "slug": "vernon"}, "source_identifier": "40752", "external_references": [], "date_modified": "2025-05-08T22:37:15.935491+10:00"}, {"id": 87658, "name": "Bjork", "roles_in_work": [{"id": 2578978, "title": "", "work_id": 124053, "role": "co-director", "role_id": 959, "is_primary": true}, {"id": 2575461, "title": "", "work_id": 123184, "role": "musician", "role_id": 169, "is_primary": false}, {"id": 2578979, "title": "", "work_id": 124053, "role": "musician", "role_id": 169, "is_primary": false}, {"id": 3097483, "title": "Bjork: The Gate", "work_id": 122746, "role": "artist", "role_id": 505, "is_primary": true}], "also_known_as": "", "date_of_birth": null, "date_of_death": null, "genders": [], "languages": [], "places_of_operation": [], "biography": "", "biography_author": null, "date_of_biography": null, "external_links": [], "uuid": "318d9dcf-5c42-4b78-a098-6f3cbcffbb74", "source": {"name": "Vernon", "slug": "vernon"}, "source_identifier": "31964", "external_references": [], "date_modified": "2025-05-08T22:37:00.837059+10:00"}, {"id": 87657, "name": "Tom Marosz", "roles_in_work": [{"id": 3097482, "title": "Wings", "work_id": 122765, "role": "artist", "role_id": 505, "is_primary": true}], "also_known_as": "", "date_of_birth": null, "date_of_death": null, "genders": [], "languages": [], "places_of_operation": [], "biography": "", "biography_author": null, "date_of_biography": null, "external_links": [], "uuid": "eedf9724-e00b-4487-82ed-d24c34708ca2", "source": {"name": "Vernon", "slug": "vernon"}, "source_identifier": "40848", "external_references": [], "date_modified": "2025-05-08T22:36:59.984180+10:00"}, {"id": 87656, "name": "Alessandro Michele", "roles_in_work": [{"id": 3097479, "title": "White Orchid dress from The Gate music video", "work_id": 122763, "role": "designer", "role_id": 495, "is_primary": false}], "also_known_as": "", "date_of_birth": null, "date_of_death": null, "genders": [], "languages": [], "places_of_operation": [], "biography": "", "biography_author": null, "date_of_biography": null, "external_links": [], "uuid": "5457c58f-7091-4f77-8ef9-9002c640b357", "source": {"name": "Vernon", "slug": "vernon"}, "source_identifier": "40800", "external_references": [], "date_modified": "2025-05-08T22:36:57.298528+10:00"}, {"id": 87655, "name": "Niles Johnson", "roles_in_work": [{"id": 3097477, "title": "Reference Material\n\nHopf Fibrations\n\nHopf Map", "work_id": 122761, "role": "artist", "role_id": 505, "is_primary": true}], "also_known_as": "", "date_of_birth": null, "date_of_death": null, "genders": [], "languages": [], "places_of_operation": [], "biography": "", "biography_author": null, "date_of_biography": null, "external_links": [], "uuid": "a273d174-af57-4d0c-8fe1-645e6ad5edd5", "source": {"name": "Vernon", "slug": "vernon"}, "source_identifier": "40850", "external_references": [], "date_modified": "2025-05-08T22:36:55.185710+10:00"}]}