{"count": 28682, "next": "https://api.acmi.net.au/creators/?page=63", "previous": "https://api.acmi.net.au/creators/?page=61", "results": [{"id": 86646, "name": "David Saxon", "roles_in_work": [{"id": 2265504, "title": "Search for the great apes", "work_id": 81287, "role": "co-producer", "role_id": 915, "is_primary": true}], "also_known_as": "", "date_of_birth": "", "date_of_death": "", "genders": [], "languages": [], "places_of_operation": [], "biography": "", "biography_author": null, "date_of_biography": "2023-05-09T17:37:08.710992+10:00", "external_links": [], "uuid": "bb490c27-d7c1-46c3-b510-7d2c21a4cf5d", "source": {"name": "Vernon", "slug": "vernon"}, "source_identifier": "17783", "external_references": [], "date_modified": "2023-06-14T16:33:30.576250+10:00"}, {"id": 86645, "name": "Ian Maclay", "roles_in_work": [{"id": 2215803, "title": "Elgar Cello Concerto", "work_id": 81269, "role": "co-director", "role_id": 959, "is_primary": true}], "also_known_as": "", "date_of_birth": "", "date_of_death": "", "genders": [], "languages": [], "places_of_operation": [], "biography": "", "biography_author": null, "date_of_biography": "2023-05-09T15:54:24.238305+10:00", "external_links": [], "uuid": "2ea3db10-e1e2-4eb8-8d25-a58943cd308d", "source": {"name": "Vernon", "slug": "vernon"}, "source_identifier": "20769", "external_references": [], "date_modified": "2023-06-14T16:33:30.576250+10:00"}, {"id": 86644, "name": "RPO Video", "roles_in_work": [{"id": 2215796, "title": "Elgar Cello Concerto", "work_id": 81269, "role": "production company", "role_id": 941, "is_primary": true}], "also_known_as": "", "date_of_birth": "", "date_of_death": "", "genders": [], "languages": [], "places_of_operation": [], "biography": "", "biography_author": null, "date_of_biography": "2023-05-09T15:54:23.750673+10:00", "external_links": [], "uuid": "cc2f5526-09a7-4b4f-b214-6803b89581d4", "source": {"name": "Vernon", "slug": "vernon"}, "source_identifier": "12163", "external_references": [], "date_modified": "2023-06-14T16:33:30.576250+10:00"}, {"id": 86643, "name": "Clay Cole", "roles_in_work": [{"id": 2207712, "title": "Play Bridge with Omar Sharif", "work_id": 81233, "role": "producer/director", "role_id": 31, "is_primary": true}], "also_known_as": "", "date_of_birth": "", "date_of_death": "", "genders": [], "languages": [], "places_of_operation": [], "biography": "", "biography_author": null, "date_of_biography": "2023-05-09T15:38:11.287823+10:00", "external_links": [], "uuid": "af4b3b5f-b7dc-4380-9d64-19edf0c0033d", "source": {"name": "Vernon", "slug": "vernon"}, "source_identifier": "17103", "external_references": [], "date_modified": "2023-06-14T16:33:30.576250+10:00"}, {"id": 86642, "name": "Norman McCandlish", "roles_in_work": [{"id": 1846122, "title": "Verdi Requiem", "work_id": 81228, "role": "producer", "role_id": 1089, "is_primary": true}], "also_known_as": "", "date_of_birth": null, "date_of_death": null, "genders": [], "languages": [], "places_of_operation": [], "biography": "", "biography_author": null, "date_of_biography": null, "external_links": [], "uuid": "17297d5d-bde1-43fb-8a8d-88cce6f8669c", "source": {"name": "Vernon", "slug": "vernon"}, "source_identifier": null, "external_references": [], "date_modified": "2023-06-14T16:33:30.576250+10:00"}, {"id": 86641, "name": "Steve Cleary", "roles_in_work": [{"id": 2100209, "title": "Art Blakey: The Jazz Messengers", "work_id": 81192, "role": "co-producers/directors", "role_id": 628, "is_primary": true}], "also_known_as": "", "date_of_birth": "", "date_of_death": "", "genders": [], "languages": [], "places_of_operation": [], "biography": "", "biography_author": null, "date_of_biography": "2023-05-09T12:29:46.740099+10:00", "external_links": [], "uuid": "d38ab9e7-bd7d-417e-b358-35a35987a0a2", "source": {"name": "Vernon", "slug": "vernon"}, "source_identifier": "29122", "external_references": [], "date_modified": "2023-06-14T16:33:30.576250+10:00"}, {"id": 86640, "name": "Rob Lemkin", "roles_in_work": [{"id": 2100203, "title": "Art Blakey: The Jazz Messengers", "work_id": 81192, "role": "co-producers/directors", "role_id": 628, "is_primary": true}], "also_known_as": "", "date_of_birth": "", "date_of_death": "", "genders": [], "languages": [], "places_of_operation": [], "biography": "", "biography_author": null, "date_of_biography": "2023-05-09T12:29:46.504659+10:00", "external_links": [], "uuid": "674a3bf4-dca5-4570-9f1f-5c170a7f73d4", "source": {"name": "Vernon", "slug": "vernon"}, "source_identifier": "27600", "external_references": [], "date_modified": "2023-06-14T16:33:30.576250+10:00"}, {"id": 86639, "name": "David Blair", "roles_in_work": [{"id": 1846081, "title": "Giselle", "work_id": 81184, "role": "co-director", "role_id": 959, "is_primary": true}], "also_known_as": "", "date_of_birth": null, "date_of_death": null, "genders": [], "languages": [], "places_of_operation": [], "biography": "", "biography_author": null, "date_of_biography": null, "external_links": [], "uuid": "39cca019-74da-46a0-84b7-fad98a302b57", "source": {"name": "Vernon", "slug": "vernon"}, "source_identifier": null, "external_references": [], "date_modified": "2023-06-14T16:33:30.576250+10:00"}, {"id": 86638, "name": "Hugo Hiebeling", "roles_in_work": [{"id": 1846080, "title": "Giselle", "work_id": 81184, "role": "co-director", "role_id": 959, "is_primary": true}], "also_known_as": "", "date_of_birth": null, "date_of_death": null, "genders": [], "languages": [], "places_of_operation": [], "biography": "", "biography_author": null, "date_of_biography": null, "external_links": [], "uuid": "5a2c3dce-334b-4357-9db8-f000de6f5526", "source": {"name": "Vernon", "slug": "vernon"}, "source_identifier": null, "external_references": [], "date_modified": "2023-06-14T16:33:30.576250+10:00"}, {"id": 86637, "name": "James Cellan Jones", "roles_in_work": [{"id": 2349139, "title": "The Forsyte saga. - Vol. 06: Episodes 18-20", "work_id": 84105, "role": "co-director", "role_id": 959, "is_primary": true}, {"id": 2349108, "title": "The Forsyte saga. - Vol. 05: Episodes 15-17", "work_id": 84104, "role": "co-director", "role_id": 959, "is_primary": true}, {"id": 2349157, "title": "The Forsyte saga. - Vol. 07: Episodes 13-14", "work_id": 81056, "role": "director", "role_id": 938, "is_primary": true}, {"id": 2349766, "title": "The Forsyte saga. - Vol. 08: Episodes 15-16", "work_id": 81057, "role": "director", "role_id": 938, "is_primary": true}, {"id": 2349765, "title": "The Forsyte saga. - Vol. 09: Episodes 17-18", "work_id": 81058, "role": "director", "role_id": 938, "is_primary": true}, {"id": 2349123, "title": "The Forsyte saga. - Vol. 10: Episodes 19-20", "work_id": 81059, "role": "director", "role_id": 938, "is_primary": true}], "also_known_as": "", "date_of_birth": "", "date_of_death": "", "genders": [], "languages": [], "places_of_operation": [], "biography": "", "biography_author": null, "date_of_biography": "2023-05-09T19:54:08.882572+10:00", "external_links": [], "uuid": "08771db4-71a1-4f16-bc9a-2b4641b40fab", "source": {"name": "Vernon", "slug": "vernon"}, "source_identifier": "21210", "external_references": [], "date_modified": "2023-06-14T16:33:30.576250+10:00"}]}