{"count": 28687, "next": "https://api.acmi.net.au/creators/?page=706", "previous": "https://api.acmi.net.au/creators/?page=704", "results": [{"id": 78533, "name": "Graydon McCrea", "roles_in_work": [{"id": 1427724, "title": "In God's command", "work_id": 87432, "role": "co-producer", "role_id": 915, "is_primary": true}], "also_known_as": "", "date_of_birth": null, "date_of_death": null, "genders": [], "languages": [], "places_of_operation": [], "biography": "", "biography_author": null, "date_of_biography": null, "external_links": [], "uuid": "79aab8c5-01d6-4f9c-b2b3-34348051045e", "source": {"name": "Vernon", "slug": "vernon"}, "source_identifier": null, "external_references": [{"id": 35371, "source": {"name": "Wikidata", "slug": "wikidata"}, "source_identifier": "Q121315157"}], "date_modified": "2023-09-05T20:20:39.264570+10:00"}, {"id": 78532, "name": "Meilan Lam", "roles_in_work": [{"id": 2298758, "title": "Show girls", "work_id": 87431, "role": "director", "role_id": 938, "is_primary": true}], "also_known_as": "", "date_of_birth": "", "date_of_death": "", "genders": [], "languages": [], "places_of_operation": [], "biography": "", "biography_author": null, "date_of_biography": "2023-05-09T18:32:36.946631+10:00", "external_links": [], "uuid": "e0e6496b-45ad-4417-9704-a9d2e025ab86", "source": {"name": "Vernon", "slug": "vernon"}, "source_identifier": "24907", "external_references": [{"id": 37813, "source": {"name": "Wikidata", "slug": "wikidata"}, "source_identifier": "Q121337188"}], "date_modified": "2023-09-05T22:59:21.334350+10:00"}, {"id": 78531, "name": "Tamara Lynch", "roles_in_work": [{"id": 2298753, "title": "Show girls", "work_id": 87431, "role": "co-producer", "role_id": 915, "is_primary": true}], "also_known_as": "", "date_of_birth": "", "date_of_death": "", "genders": [], "languages": [], "places_of_operation": [], "biography": "", "biography_author": null, "date_of_biography": "2023-05-09T18:32:36.131547+10:00", "external_links": [], "uuid": "c6eb832f-5da8-45ff-bcbb-bc9ce9ddb670", "source": {"name": "Vernon", "slug": "vernon"}, "source_identifier": "29480", "external_references": [], "date_modified": "2023-06-14T16:33:30.576250+10:00"}, {"id": 78530, "name": "Gianni Nunnari", "roles_in_work": [{"id": 1991720, "title": "From dusk till dawn", "work_id": 87429, "role": "co-producer", "role_id": 915, "is_primary": true}], "also_known_as": "", "date_of_birth": null, "date_of_death": null, "genders": [], "languages": [], "places_of_operation": [], "biography": "", "biography_author": null, "date_of_biography": null, "external_links": [], "uuid": "9debd426-7517-4527-b62a-c23631c7531d", "source": {"name": "Vernon", "slug": "vernon"}, "source_identifier": null, "external_references": [{"id": 34179, "source": {"name": "Wikidata", "slug": "wikidata"}, "source_identifier": "Q121299467"}], "date_modified": "2023-09-05T20:11:26.186074+10:00"}, {"id": 78529, "name": "Barney Ashton", "roles_in_work": [{"id": 2309808, "title": "Steam at war: the home front", "work_id": 87426, "role": "producer/director", "role_id": 31, "is_primary": true}], "also_known_as": "", "date_of_birth": "", "date_of_death": "", "genders": [], "languages": [], "places_of_operation": [], "biography": "", "biography_author": null, "date_of_biography": "2023-05-09T18:50:59.583447+10:00", "external_links": [], "uuid": "b5589438-5ce9-4341-9682-6cf2bb212562", "source": {"name": "Vernon", "slug": "vernon"}, "source_identifier": "15686", "external_references": [{"id": 51274, "source": {"name": "Wikidata", "slug": "wikidata"}, "source_identifier": "Q121360940"}], "date_modified": "2023-09-05T17:53:48.073060+10:00"}, {"id": 78528, "name": "Maria Chilcott", "roles_in_work": [{"id": 2301514, "title": "Sisters in arms", "work_id": 87411, "role": "producer/director", "role_id": 31, "is_primary": true}], "also_known_as": "", "date_of_birth": "", "date_of_death": "", "genders": [], "languages": [], "places_of_operation": [], "biography": "", "biography_author": null, "date_of_biography": "2023-05-09T18:37:38.661551+10:00", "external_links": [], "uuid": "56fbce55-9daf-46d8-8c9b-77a47198677d", "source": {"name": "Vernon", "slug": "vernon"}, "source_identifier": "24388", "external_references": [{"id": 50738, "source": {"name": "Wikidata", "slug": "wikidata"}, "source_identifier": "Q121360979"}], "date_modified": "2023-09-05T22:41:57.111848+10:00"}, {"id": 78527, "name": "Nick Dodson", "roles_in_work": [{"id": 2099902, "title": "Around the world in search of steam: the life & travels of Colin Garrett", "work_id": 87409, "role": "producer/director", "role_id": 31, "is_primary": true}], "also_known_as": "", "date_of_birth": "", "date_of_death": "", "genders": [], "languages": [], "places_of_operation": [], "biography": "", "biography_author": null, "date_of_biography": "2023-05-09T12:29:25.732295+10:00", "external_links": [], "uuid": "8dac1e0c-b9ff-4600-8f61-71bc3f001e0d", "source": {"name": "Vernon", "slug": "vernon"}, "source_identifier": "25741", "external_references": [{"id": 51393, "source": {"name": "Wikidata", "slug": "wikidata"}, "source_identifier": "Q121360827"}], "date_modified": "2023-09-05T23:29:41.404015+10:00"}, {"id": 78526, "name": "Robert Helpmann", "roles_in_work": [{"id": 2198529, "title": "Don Quixote [Nureyev]", "work_id": 87405, "role": "co-director", "role_id": 959, "is_primary": true}], "also_known_as": "", "date_of_birth": "1909-04-09", "date_of_death": "1986-09-28", "genders": [{"id": 9, "name": "Male", "slug": "male"}], "languages": [], "places_of_operation": [{"id": 3, "name": "Australia", "slug": "australia"}], "biography": "Sir Robert Murray Helpmann CBE (né Helpman, 9 April 1909 – 28 September 1986) was an Australian ballet dancer, actor, director, and choreographer. After early work in Australia he moved to Britain in 1932, where he joined the Vic-Wells Ballet (now The Royal Ballet) under its creator, Ninette de Valois. He became one of the company's leading men, partnering Alicia Markova and later Margot Fonteyn. When Frederick Ashton, the company's chief choreographer, was called up for military service in the Second World War, Helpmann took over from him while continuing as a principal dancer.\nHelpmann, from the outset of his career was an actor as well as a dancer, and in the 1940s he turned increasingly to acting in plays, at the Old Vic and in the West End. Most of his roles were in Shakespeare plays but he also appeared in works by Shaw, Coward, Sartre and others. As a director his range was wide, from Shakespeare to opera, musicals and pantomime.\nHelpmann became co-director of the Australian Ballet, in 1965, for whom he created several new ballets. He became sole director in 1975 but disagreements with the company's board led to his dismissal a year later. He directed for Australian Opera and acted in stage plays into the 1980s. Although primarily a stage artist, he appeared in fifteen films between 1942 (One of Our Aircraft is Missing) and 1984 (Second Time Lucky), including The Red Shoes, The Tales of Hoffmann, a film version of Igor Stravinsky's ballet-drama The Soldier's Tale (\"L'Histoire du soldat\") in which Helpmann played the Devil, and the Child Catcher in Chitty Chitty Bang Bang.\nHelpmann died in Sydney and was given a state funeral in St Andrew's Cathedral. The Prime Minister, Bob Hawke, gave a tribute in the Parliament of Australia, and a motion of condolence was passed – a rare tribute for a non-politician. Helpmann is commemorated in the Helpmann Awards for Australian performing arts, established in his honour in 2001.", "biography_author": "Wikidata", "date_of_biography": "2023-08-01T16:49:37.674416+10:00", "external_links": [{"id": 5020, "uri": "https://en.wikipedia.org/wiki/Robert_Helpmann"}], "uuid": "285c1bfa-f8d5-4a4b-90b4-433fda36bf54", "source": {"name": "Vernon", "slug": "vernon"}, "source_identifier": "27756", "external_references": [{"id": 26390, "source": {"name": "Wikidata", "slug": "wikidata"}, "source_identifier": "Q931528"}, {"id": 31168, "source": {"name": "VIAF", "slug": "viaf"}, "source_identifier": "5117752"}, {"id": 31169, "source": {"name": "LOC Auth", "slug": "loc-auth"}, "source_identifier": "n50027178"}, {"id": 31170, "source": {"name": "WorldCat", "slug": "worldcat"}, "source_identifier": "lccn-n50027178"}], "date_modified": "2023-08-15T12:16:02.727600+10:00"}, {"id": 78525, "name": "Tosca Looby", "roles_in_work": [{"id": 2291848, "title": "Zoo tails", "work_id": 87403, "role": "co-producer", "role_id": 915, "is_primary": true}, {"id": 2224138, "title": "Eye of the tiger [Widescreen]", "work_id": 94027, "role": "director", "role_id": 938, "is_primary": true}], "also_known_as": "", "date_of_birth": "", "date_of_death": "", "genders": [], "languages": [], "places_of_operation": [], "biography": "", "biography_author": null, "date_of_biography": "2023-05-09T18:20:46.429220+10:00", "external_links": [], "uuid": "589c4fdd-b76d-4d7d-a51f-d8f48aa2441c", "source": {"name": "Vernon", "slug": "vernon"}, "source_identifier": "29933", "external_references": [{"id": 38694, "source": {"name": "Wikidata", "slug": "wikidata"}, "source_identifier": "Q121159837"}], "date_modified": "2023-09-06T01:57:36.920925+10:00"}, {"id": 78524, "name": "Gill Lomas", "roles_in_work": [{"id": 2291846, "title": "Zoo tails", "work_id": 87403, "role": "co-producer", "role_id": 915, "is_primary": true}], "also_known_as": "", "date_of_birth": "", "date_of_death": "", "genders": [], "languages": [], "places_of_operation": [], "biography": "", "biography_author": null, "date_of_biography": "2023-05-09T18:20:46.186598+10:00", "external_links": [], "uuid": "22d4c628-cb37-4e45-9931-58ce05e4dc32", "source": {"name": "Vernon", "slug": "vernon"}, "source_identifier": "19823", "external_references": [{"id": 38356, "source": {"name": "Wikidata", "slug": "wikidata"}, "source_identifier": "Q121036939"}], "date_modified": "2023-09-05T20:12:23.496690+10:00"}]}