{"count": 28687, "next": "https://api.acmi.net.au/creators/?page=2372", "previous": "https://api.acmi.net.au/creators/?page=2370", "results": [{"id": 15545, "name": "Nestor Lovera", "roles_in_work": [{"id": 2645050, "title": "Helping learners to learn", "work_id": 68399, "role": "director", "role_id": 938, "is_primary": true}], "also_known_as": "", "date_of_birth": "", "date_of_death": "", "genders": [], "languages": [], "places_of_operation": [], "biography": "", "biography_author": null, "date_of_biography": "2023-08-11T17:18:12.550184+10:00", "external_links": [], "uuid": "c04bb27b-3712-4c4a-8977-4555f1527c36", "source": {"name": "Vernon", "slug": "vernon"}, "source_identifier": "25693", "external_references": [], "date_modified": "2025-03-05T12:31:38.063961+11:00"}, {"id": 15544, "name": "Australian Agency for International Development", "roles_in_work": [{"id": 2766889, "title": "Nambo", "work_id": 77372, "role": "production company", "role_id": 941, "is_primary": true}, {"id": 2715356, "title": "Helpem Mifala: aid for Solomon Islands", "work_id": 68397, "role": "production company", "role_id": 941, "is_primary": true}, {"id": 856687, "title": "Paths to progress", "work_id": 71393, "role": "production company", "role_id": 941, "is_primary": true}], "also_known_as": "", "date_of_birth": "", "date_of_death": "", "genders": [], "languages": [], "places_of_operation": [], "biography": "", "biography_author": null, "date_of_biography": "2023-05-09T12:28:06.725846+10:00", "external_links": [], "uuid": "229e671b-670d-4825-a90c-860622606506", "source": {"name": "Vernon", "slug": "vernon"}, "source_identifier": "4609", "external_references": [{"id": 43475, "source": {"name": "Wikidata", "slug": "wikidata"}, "source_identifier": "Q121086139"}], "date_modified": "2025-03-14T18:00:47.059087+11:00"}, {"id": 15543, "name": "David Espar", "roles_in_work": [{"id": 2715355, "title": "Helpers: personalising the instruction of reading (TEFC)", "work_id": 68396, "role": "director", "role_id": 938, "is_primary": true}, {"id": 2750138, "title": "Oral language development: views of five teachers", "work_id": 97162, "role": "director", "role_id": 938, "is_primary": true}, {"id": 856439, "title": "Oral language development: views of five teachers (TEFC)", "work_id": 71200, "role": "director", "role_id": 938, "is_primary": true}, {"id": 2777444, "title": "Psychotherapy", "work_id": 82155, "role": "co-producer", "role_id": 915, "is_primary": true}, {"id": 2777462, "title": "In space, toward peace", "work_id": 81953, "role": "co-producer", "role_id": 915, "is_primary": true}, {"id": 2777399, "title": "Testing and intelligence", "work_id": 82086, "role": "co-producer", "role_id": 915, "is_primary": true}, {"id": 2777407, "title": "Sex and gender", "work_id": 81862, "role": "co-producer", "role_id": 915, "is_primary": true}, {"id": 2777415, "title": "Maturing and aging", "work_id": 82107, "role": "co-producer", "role_id": 915, "is_primary": true}, {"id": 2777419, "title": "The Power of the situation", "work_id": 81972, "role": "co-producer", "role_id": 915, "is_primary": true}, {"id": 2777429, "title": "Constructing social reality", "work_id": 82156, "role": "co-producer", "role_id": 915, "is_primary": true}, {"id": 2777436, "title": "Psychopathology", "work_id": 81851, "role": "co-producer", "role_id": 915, "is_primary": true}, {"id": 2777453, "title": "Health, mind and behavior", "work_id": 81864, "role": "co-producer", "role_id": 915, "is_primary": true}, {"id": 2791586, "title": "Dawn", "work_id": 84842, "role": "co-producer", "role_id": 915, "is_primary": true}, {"id": 2777486, "title": "Discovering psychology", "work_id": 115211, "role": "co-producer", "role_id": 915, "is_primary": true}, {"id": 2777479, "title": "New directions", "work_id": 82108, "role": "co-producer", "role_id": 915, "is_primary": true}, {"id": 2777470, "title": "A Union of opposites", "work_id": 82132, "role": "co-producer", "role_id": 915, "is_primary": true}, {"id": 2777268, "title": "Past, present and promise", "work_id": 81973, "role": "co-producer", "role_id": 915, "is_primary": true}, {"id": 2777277, "title": "Understanding research", "work_id": 81939, "role": "co-producer", "role_id": 915, "is_primary": true}, {"id": 2777286, "title": "The Behaving brain", "work_id": 81941, "role": "co-producer", "role_id": 915, "is_primary": true}, {"id": 2777294, "title": "The responsive brain", "work_id": 82133, "role": "co-producer", "role_id": 915, "is_primary": true}, {"id": 2777302, "title": "The Developing child", "work_id": 81860, "role": "co-producer", "role_id": 915, "is_primary": true}, {"id": 2777310, "title": "Language development", "work_id": 82102, "role": "co-producer", "role_id": 915, "is_primary": true}, {"id": 2777319, "title": "Sensation and Perception", "work_id": 81866, "role": "co-producer", "role_id": 915, "is_primary": true}, {"id": 2777327, "title": "Learning", "work_id": 82131, "role": "co-producer", "role_id": 915, "is_primary": true}, {"id": 2777335, "title": "Remembering and forgetting", "work_id": 81857, "role": "co-producer", "role_id": 915, "is_primary": true}, {"id": 2777345, "title": "Cognitive processes", "work_id": 81905, "role": "co-producer", "role_id": 915, "is_primary": true}, {"id": 2777355, "title": "Judgement and decision making", "work_id": 82182, "role": "co-producer", "role_id": 915, "is_primary": true}, {"id": 2777362, "title": "Motivation and emotion", "work_id": 81849, "role": "co-producer", "role_id": 915, "is_primary": true}, {"id": 2777373, "title": "The Mind awake and asleep", "work_id": 81865, "role": "co-producer", "role_id": 915, "is_primary": true}, {"id": 2777383, "title": "The Mind hidden and divided", "work_id": 81863, "role": "co-producer", "role_id": 915, "is_primary": true}, {"id": 2777391, "title": "The Self", "work_id": 82111, "role": "co-producer", "role_id": 915, "is_primary": true}, {"id": 2792554, "title": "Dancing in the street: a rock and roll history", "work_id": 115443, "role": "director", "role_id": 938, "is_primary": true}, {"id": 2792535, "title": "Whole lotta shaking: R.E.S.P.E.C.T.", "work_id": 85271, "role": "director", "role_id": 938, "is_primary": true}], "also_known_as": "", "date_of_birth": "", "date_of_death": "", "genders": [], "languages": [], "places_of_operation": [], "biography": "", "biography_author": null, "date_of_biography": "2023-05-09T19:46:04.907744+10:00", "external_links": [], "uuid": "966f21b2-3710-4f77-b4f7-7b198b37a1af", "source": {"name": "Vernon", "slug": "vernon"}, "source_identifier": "17567", "external_references": [], "date_modified": "2025-03-14T20:10:25.755777+11:00"}, {"id": 15542, "name": "Louise Henry", "roles_in_work": [{"id": 1819226, "title": "Oral language development: views of five teachers (TEFC)", "work_id": 71200, "role": "producer", "role_id": 1089, "is_primary": true}, {"id": 2750137, "title": "Oral language development: views of five teachers", "work_id": 97162, "role": "producer", "role_id": 1089, "is_primary": true}, {"id": 2751886, "title": "Not by jeans alone", "work_id": 98031, "role": "producer", "role_id": 1089, "is_primary": true}, {"id": 2715354, "title": "Helpers: personalising the instruction of reading (TEFC)", "work_id": 68396, "role": "producer", "role_id": 1089, "is_primary": true}], "also_known_as": "", "date_of_birth": null, "date_of_death": null, "genders": [], "languages": [], "places_of_operation": [], "biography": "", "biography_author": null, "date_of_biography": null, "external_links": [], "uuid": "de3678a5-4e72-4f58-9be4-f792681f57b8", "source": {"name": "Vernon", "slug": "vernon"}, "source_identifier": "24041", "external_references": [], "date_modified": "2025-03-13T00:52:26.126191+11:00"}, {"id": 15541, "name": "KTEH-TV (Television station : San Jose, Calif.)", "roles_in_work": [{"id": 2751885, "title": "Not by jeans alone", "work_id": 98031, "role": "production company", "role_id": 941, "is_primary": true}, {"id": 2715353, "title": "Helpers: personalising the instruction of reading (TEFC)", "work_id": 68396, "role": "production company", "role_id": 941, "is_primary": true}, {"id": 2750135, "title": "Oral language development: views of five teachers", "work_id": 97162, "role": "production company", "role_id": 941, "is_primary": true}, {"id": 856436, "title": "Oral language development: views of five teachers (TEFC)", "work_id": 71200, "role": "production company", "role_id": 941, "is_primary": true}, {"id": 2342100, "title": "The Day after trinity", "work_id": 77122, "role": "production company", "role_id": 941, "is_primary": true}], "also_known_as": "", "date_of_birth": "", "date_of_death": "", "genders": [], "languages": [], "places_of_operation": [], "biography": "", "biography_author": null, "date_of_biography": "2023-05-09T19:41:04.833373+10:00", "external_links": [], "uuid": "04371f88-8f04-4a1b-a560-85ac75939839", "source": {"name": "Vernon", "slug": "vernon"}, "source_identifier": "4561", "external_references": [{"id": 39871, "source": {"name": "Wikidata", "slug": "wikidata"}, "source_identifier": "Q121126755"}], "date_modified": "2025-03-13T00:52:25.533560+11:00"}, {"id": 15540, "name": "Veriation Films", "roles_in_work": [{"id": 856435, "title": "Oral language development: views of five teachers (TEFC)", "work_id": 71200, "role": "production company", "role_id": 941, "is_primary": true}, {"id": 2715352, "title": "Helpers: personalising the instruction of reading (TEFC)", "work_id": 68396, "role": "production company", "role_id": 941, "is_primary": true}, {"id": 2157869, "title": "Nine months in motion", "work_id": 77639, "role": "production company", "role_id": 941, "is_primary": true}, {"id": 763337, "title": "You're not communicating", "work_id": 76988, "role": "production company", "role_id": 941, "is_primary": true}, {"id": 2750134, "title": "Oral language development: views of five teachers", "work_id": 97162, "role": "production company", "role_id": 941, "is_primary": true}], "also_known_as": "", "date_of_birth": "", "date_of_death": "", "genders": [], "languages": [], "places_of_operation": [], "biography": "", "biography_author": null, "date_of_biography": "2023-05-09T14:09:24.351264+10:00", "external_links": [], "uuid": "436c193f-b1d6-447b-98c6-f45ddbd2c4c9", "source": {"name": "Vernon", "slug": "vernon"}, "source_identifier": "14026", "external_references": [{"id": 37403, "source": {"name": "Wikidata", "slug": "wikidata"}, "source_identifier": "Q121126060"}], "date_modified": "2025-03-13T00:15:33.815060+11:00"}, {"id": 15537, "name": "Richard Carver Wood", "roles_in_work": [{"id": 2715345, "title": "Helen Keller in her story", "work_id": 68390, "role": "director", "role_id": 938, "is_primary": true}, {"id": 2715343, "title": "Helen Keller in her story", "work_id": 68390, "role": "co-producer", "role_id": 915, "is_primary": true}], "also_known_as": "", "date_of_birth": null, "date_of_death": null, "genders": [], "languages": [], "places_of_operation": [], "biography": "", "biography_author": null, "date_of_biography": null, "external_links": [], "uuid": "58470053-66ae-4f32-91e8-323f338d2274", "source": {"name": "Vernon", "slug": "vernon"}, "source_identifier": "27349", "external_references": [], "date_modified": "2025-03-12T01:32:17.363610+11:00"}, {"id": 15536, "name": "Butterfield and Wolf Inc", "roles_in_work": [{"id": 2715342, "title": "Helen Keller in her story", "work_id": 68390, "role": "production company", "role_id": 941, "is_primary": true}], "also_known_as": "", "date_of_birth": null, "date_of_death": null, "genders": [], "languages": [], "places_of_operation": [], "biography": "", "biography_author": null, "date_of_biography": null, "external_links": [], "uuid": "b187f03a-b26e-41e4-b055-26125b09a8b1", "source": {"name": "Vernon", "slug": "vernon"}, "source_identifier": "6152", "external_references": [], "date_modified": "2025-03-12T01:32:15.567133+11:00"}, {"id": 15535, "name": "Wynne S Eastman", "roles_in_work": [{"id": 2415255, "title": "Living human cells in culture: microglia", "work_id": 70352, "role": "producer", "role_id": 1089, "is_primary": true}, {"id": 2715341, "title": "The Hela cell strain: cervical carcinoma", "work_id": 68389, "role": "producer", "role_id": 1089, "is_primary": true}, {"id": 1819158, "title": "Neoplastic Astrocytes", "work_id": 70806, "role": "producer", "role_id": 1089, "is_primary": true}], "also_known_as": "", "date_of_birth": "", "date_of_death": "", "genders": [], "languages": [], "places_of_operation": [], "biography": "", "biography_author": null, "date_of_biography": "2023-08-11T19:33:47.357138+10:00", "external_links": [], "uuid": "e9e14635-b3c7-449d-8c93-524cb9669c87", "source": {"name": "Vernon", "slug": "vernon"}, "source_identifier": "30549", "external_references": [], "date_modified": "2025-03-12T01:32:14.562098+11:00"}, {"id": 15534, "name": "Asahi Television News", "roles_in_work": [{"id": 2715340, "title": "Heki-un-so and Kyoto", "work_id": 68388, "role": "production company", "role_id": 941, "is_primary": true}], "also_known_as": "", "date_of_birth": "", "date_of_death": "", "genders": [], "languages": [], "places_of_operation": [], "biography": "", "biography_author": null, "date_of_biography": "2023-08-11T17:17:37.970033+10:00", "external_links": [], "uuid": "7da4c00d-f846-48d8-9b55-6bf7d013b0b2", "source": {"name": "Vernon", "slug": "vernon"}, "source_identifier": "5435", "external_references": [], "date_modified": "2025-03-12T01:32:13.678209+11:00"}]}