{"count": 28682, "next": "https://api.acmi.net.au/creators/?page=1763", "previous": "https://api.acmi.net.au/creators/?page=1761", "results": [{"id": 27228, "name": "Nga Kara Whetu", "roles_in_work": [{"id": 2792708, "title": "Making waves = Te upoko o te ika", "work_id": 85290, "role": "production company", "role_id": 941, "is_primary": true}, {"id": 2792691, "title": "Generation 2000 = Whakatupuranga rua mano", "work_id": 85283, "role": "production company", "role_id": 941, "is_primary": true}, {"id": 2792727, "title": "From spirit to spirit", "work_id": 115445, "role": "production company", "role_id": 941, "is_primary": true}, {"id": 2792673, "title": "Gathering threads = Tui Tuia", "work_id": 85287, "role": "production company", "role_id": 941, "is_primary": true}], "also_known_as": "", "date_of_birth": "", "date_of_death": "", "genders": [], "languages": [], "places_of_operation": [], "biography": "", "biography_author": null, "date_of_biography": "2023-05-09T18:21:01.606609+10:00", "external_links": [], "uuid": "5d04fcdc-f1d6-4450-adbd-4ccda18684ed", "source": {"name": "Vernon", "slug": "vernon"}, "source_identifier": "25699", "external_references": [{"id": 43020, "source": {"name": "Wikidata", "slug": "wikidata"}, "source_identifier": "Q121035920"}], "date_modified": "2025-03-14T20:12:05.714605+11:00"}, {"id": 27215, "name": "Steve Westh", "roles_in_work": [{"id": 3082179, "title": "Flying Dutchmen", "work_id": 92449, "role": "director", "role_id": 938, "is_primary": true}, {"id": 3082199, "title": "Grey voyagers", "work_id": 115557, "role": "director", "role_id": 938, "is_primary": true}, {"id": 1904626, "title": "Here's your bike, Ed!", "work_id": 85270, "role": "director", "role_id": 938, "is_primary": true}, {"id": 3082160, "title": "Mavis goes to Timor", "work_id": 92446, "role": "co-director", "role_id": 959, "is_primary": true}, {"id": 3082168, "title": "Born to ride", "work_id": 92447, "role": "co-director", "role_id": 959, "is_primary": true}, {"id": 1816115, "title": "What's so funny?", "work_id": 91954, "role": "producer", "role_id": 1089, "is_primary": true}], "also_known_as": "", "date_of_birth": null, "date_of_death": null, "genders": [], "languages": [], "places_of_operation": [], "biography": "", "biography_author": null, "date_of_biography": null, "external_links": [], "uuid": "6af16115-d32c-40bb-a671-70b54b0ab0ad", "source": {"name": "Vernon", "slug": "vernon"}, "source_identifier": "29175", "external_references": [], "date_modified": "2025-03-17T10:27:53.723617+11:00"}, {"id": 27214, "name": "Taylormade Films", "roles_in_work": [{"id": 1904624, "title": "Here's your bike, Ed!", "work_id": 85270, "role": "production company", "role_id": 941, "is_primary": true}, {"id": 2754904, "title": "You're Fired", "work_id": 99418, "role": "production company", "role_id": 941, "is_primary": true}], "also_known_as": "", "date_of_birth": null, "date_of_death": null, "genders": [], "languages": [], "places_of_operation": [], "biography": "", "biography_author": null, "date_of_biography": null, "external_links": [], "uuid": "9accfe66-acec-414b-9712-798158db8b55", "source": {"name": "Vernon", "slug": "vernon"}, "source_identifier": "13202", "external_references": [], "date_modified": "2025-03-13T01:53:02.737649+11:00"}, {"id": 27212, "name": "Guy Richards", "roles_in_work": [{"id": 873269, "title": "Accidents will happen", "work_id": 88097, "role": "director", "role_id": 938, "is_primary": true}, {"id": 2293846, "title": "Ultra shorts: 1994 V.C.A. compilation", "work_id": 85268, "role": "co-director", "role_id": 959, "is_primary": true}], "also_known_as": "", "date_of_birth": "", "date_of_death": "", "genders": [], "languages": [], "places_of_operation": [], "biography": "", "biography_author": null, "date_of_biography": "2023-05-09T18:24:07.147858+10:00", "external_links": [], "uuid": "78d4ad2c-99e0-4743-981b-55d091ce2c34", "source": {"name": "Vernon", "slug": "vernon"}, "source_identifier": "20148", "external_references": [{"id": 43436, "source": {"name": "Wikidata", "slug": "wikidata"}, "source_identifier": "Q121034993"}], "date_modified": "2023-09-05T20:26:03.475847+10:00"}, {"id": 27210, "name": "Emma Kelly", "roles_in_work": [{"id": 879650, "title": "Ultra vires", "work_id": 91965, "role": "director", "role_id": 938, "is_primary": true}, {"id": 3110253, "title": "Magic Beach", "work_id": 125517, "role": "animator", "role_id": 497, "is_primary": false}, {"id": 916097, "title": "It's like that", "work_id": 94565, "role": "co-director", "role_id": 959, "is_primary": true}, {"id": 2293841, "title": "Ultra shorts: 1994 V.C.A. compilation", "work_id": 85268, "role": "co-director", "role_id": 959, "is_primary": true}], "also_known_as": "", "date_of_birth": "", "date_of_death": "", "genders": [], "languages": [], "places_of_operation": [], "biography": "", "biography_author": null, "date_of_biography": "2023-05-09T18:24:06.626018+10:00", "external_links": [], "uuid": "a310e4d8-47e3-4d45-b269-85ece20d7ab9", "source": {"name": "Vernon", "slug": "vernon"}, "source_identifier": "18774", "external_references": [{"id": 36762, "source": {"name": "Wikidata", "slug": "wikidata"}, "source_identifier": "Q121299058"}], "date_modified": "2025-12-15T10:21:20.441979+11:00"}, {"id": 27207, "name": "Victorian College of the Arts", "roles_in_work": [{"id": 2293936, "title": "Without a sound", "work_id": 91958, "role": "co-producer", "role_id": 915, "is_primary": true}, {"id": 911253, "title": "Under my skin", "work_id": 91964, "role": "co-producer", "role_id": 915, "is_primary": true}, {"id": 1815348, "title": "The Joint effort", "work_id": 92824, "role": "producer", "role_id": 1089, "is_primary": true}, {"id": 803807, "title": "F.I.D.O. = Fido", "work_id": 89809, "role": "production company", "role_id": 941, "is_primary": true}, {"id": 810682, "title": "Loop", "work_id": 92250, "role": "production company", "role_id": 941, "is_primary": true}, {"id": 2261452, "title": "Salty", "work_id": 92834, "role": "production company", "role_id": 941, "is_primary": true}, {"id": 810160, "title": "Driving home", "work_id": 92075, "role": "production company", "role_id": 941, "is_primary": true}, {"id": 810319, "title": "That 'Boy meets girl' thing compilation", "work_id": 92137, "role": "production company", "role_id": 941, "is_primary": true}, {"id": 810107, "title": "Here's looking at you kids", "work_id": 92062, "role": "production company", "role_id": 941, "is_primary": true}, {"id": 810812, "title": "Quill", "work_id": 92283, "role": "production company", "role_id": 941, "is_primary": true}, {"id": 810196, "title": "Food (for) thought", "work_id": 92086, "role": "production company", "role_id": 941, "is_primary": true}, {"id": 905489, "title": "Uncle", "work_id": 86138, "role": "production company", "role_id": 941, "is_primary": true}, {"id": 872273, "title": "Proboscis", "work_id": 87530, "role": "production company", "role_id": 941, "is_primary": true}, {"id": 872284, "title": "Hot curry cowboy", "work_id": 87533, "role": "production company", "role_id": 941, "is_primary": true}, {"id": 884202, "title": "Kicking on", "work_id": 94511, "role": "production company", "role_id": 941, "is_primary": true}, {"id": 872250, "title": "Hawks & doves", "work_id": 87523, "role": "production company", "role_id": 941, "is_primary": true}, {"id": 799180, "title": "The Performing bear", "work_id": 88238, "role": "production company", "role_id": 941, "is_primary": true}, {"id": 872214, "title": "Bigger than Texas", "work_id": 87510, "role": "production company", "role_id": 941, "is_primary": true}, {"id": 799157, "title": "Seabound", "work_id": 88232, "role": "production company", "role_id": 941, "is_primary": true}, {"id": 3110492, "title": "America", "work_id": 87519, "role": "production company", "role_id": 941, "is_primary": true}, {"id": 879648, "title": "Ultra vires", "work_id": 91965, "role": "production company", "role_id": 941, "is_primary": true}, {"id": 906902, "title": "Black sun", "work_id": 87522, "role": "production company", "role_id": 941, "is_primary": true}, {"id": 911499, "title": "Ms Kieran Katt", "work_id": 92279, "role": "production company", "role_id": 941, "is_primary": true}, {"id": 801004, "title": "Hush [Widescreen]", "work_id": 88841, "role": "production company", "role_id": 941, "is_primary": true}, {"id": 800826, "title": "The Calling", "work_id": 88788, "role": "production company", "role_id": 941, "is_primary": true}, {"id": 2096389, "title": "Angel food", "work_id": 92823, "role": "production company", "role_id": 941, "is_primary": true}, {"id": 873490, "title": "Hot date", "work_id": 88236, "role": "production company", "role_id": 941, "is_primary": true}, {"id": 2120520, "title": "Blood and ash", "work_id": 92831, "role": "production company", "role_id": 941, "is_primary": true}, {"id": 2345475, "title": "The Director [Widescreen]", "work_id": 88051, "role": "production company", "role_id": 941, "is_primary": true}, {"id": 881485, "title": "Martin four", "work_id": 92830, "role": "production company", "role_id": 941, "is_primary": true}, {"id": 880085, "title": "Laugh slap howl", "work_id": 92236, "role": "production company", "role_id": 941, "is_primary": true}, {"id": 880164, "title": "The Passion killers", "work_id": 92260, "role": "production company", "role_id": 941, "is_primary": true}, {"id": 792231, "title": "Skud", "work_id": 86156, "role": "production company", "role_id": 941, "is_primary": true}, {"id": 2293834, "title": "Ultra shorts: 1994 V.C.A. compilation", "work_id": 85268, "role": "production company", "role_id": 941, "is_primary": true}, {"id": 795571, "title": "Denial", "work_id": 87237, "role": "production company", "role_id": 941, "is_primary": true}, {"id": 2111293, "title": "Belch", "work_id": 92025, "role": "production company", "role_id": 941, "is_primary": true}, {"id": 796665, "title": "Cry", "work_id": 87513, "role": "production company", "role_id": 941, "is_primary": true}, {"id": 913079, "title": "The Voice of Ivan Frost", "work_id": 93039, "role": "production company", "role_id": 941, "is_primary": true}, {"id": 879890, "title": "Taxithi", "work_id": 92134, "role": "production company", "role_id": 941, "is_primary": true}, {"id": 881443, "title": "The Burglar cometh", "work_id": 92820, "role": "production company", "role_id": 941, "is_primary": true}, {"id": 881475, "title": "Taste", "work_id": 92827, "role": "production company", "role_id": 941, "is_primary": true}, {"id": 881482, "title": "Nameday", "work_id": 92829, "role": "production company", "role_id": 941, "is_primary": true}, {"id": 2162544, "title": "Iwerre Atherrame: two paths", "work_id": 88787, "role": "production company", "role_id": 941, "is_primary": true}, {"id": 2176332, "title": "One week at a time", "work_id": 94512, "role": "production company", "role_id": 941, "is_primary": true}], "also_known_as": "", "date_of_birth": "", "date_of_death": "", "genders": [], "languages": [], "places_of_operation": [], "biography": "", "biography_author": null, "date_of_biography": "2023-05-09T19:46:07.012785+10:00", "external_links": [], "uuid": "9c33d8e5-5467-4e6e-aba5-33277fb0f3b8", "source": {"name": "Vernon", "slug": "vernon"}, "source_identifier": "14067", "external_references": [], "date_modified": "2026-03-11T11:10:19.188673+11:00"}, {"id": 27205, "name": "Nagasaki Broadcasting Company", "roles_in_work": [{"id": 2235495, "title": "Rain of ruin: the bombing of Nagasaki", "work_id": 85267, "role": "production company", "role_id": 941, "is_primary": true}], "also_known_as": "", "date_of_birth": "", "date_of_death": "", "genders": [], "languages": [], "places_of_operation": [], "biography": "", "biography_author": null, "date_of_biography": "2023-05-09T16:45:07.652357+10:00", "external_links": [], "uuid": "15b9c58e-8681-4812-96d4-9439c5cb730a", "source": {"name": "Vernon", "slug": "vernon"}, "source_identifier": "10751", "external_references": [{"id": 51949, "source": {"name": "Wikidata", "slug": "wikidata"}, "source_identifier": "Q121357576"}], "date_modified": "2023-09-05T23:23:52.187125+10:00"}, {"id": 27204, "name": "Les Greenhill", "roles_in_work": [{"id": 2466175, "title": "State plan for the development of intellectual disability services 1989-1992: a consumer's guide", "work_id": 85266, "role": "producer", "role_id": 1089, "is_primary": true}], "also_known_as": "", "date_of_birth": "", "date_of_death": "", "genders": [], "languages": [], "places_of_operation": [], "biography": "", "biography_author": null, "date_of_biography": "2023-08-14T10:51:26.371841+10:00", "external_links": [], "uuid": "ef268598-3666-4f90-b57d-3ff9a9a585a2", "source": {"name": "Vernon", "slug": "vernon"}, "source_identifier": "23744", "external_references": [], "date_modified": "2023-08-14T10:51:26.372137+10:00"}, {"id": 27203, "name": "CSV Community Services Victoria, IDS Public Education Unit", "roles_in_work": [{"id": 2466174, "title": "State plan for the development of intellectual disability services 1989-1992: a consumer's guide", "work_id": 85266, "role": "production company", "role_id": 941, "is_primary": true}], "also_known_as": "", "date_of_birth": "", "date_of_death": "", "genders": [], "languages": [], "places_of_operation": [], "biography": "", "biography_author": null, "date_of_biography": "2023-08-14T10:51:25.737509+10:00", "external_links": [], "uuid": "80745d93-dbf8-4773-9605-dd62f9a5290c", "source": {"name": "Vernon", "slug": "vernon"}, "source_identifier": "7219", "external_references": [], "date_modified": "2023-08-14T10:51:25.737859+10:00"}, {"id": 27201, "name": "Commonwealth Department of Community Services and Health in association with National Recording Studios Canberra", "roles_in_work": [{"id": 2407642, "title": "For today, for tomorrow: new choices for older Australians", "work_id": 85265, "role": "production company", "role_id": 941, "is_primary": true}], "also_known_as": "", "date_of_birth": "", "date_of_death": "", "genders": [], "languages": [], "places_of_operation": [], "biography": "", "biography_author": null, "date_of_biography": "2023-08-11T16:41:55.976479+10:00", "external_links": [], "uuid": "7476fe92-a595-4505-b00f-5e31fabb346a", "source": {"name": "Vernon", "slug": "vernon"}, "source_identifier": "6933", "external_references": [], "date_modified": "2023-08-11T16:41:55.976719+10:00"}]}