{"count": 28687, "next": "https://api.acmi.net.au/creators/?page=484", "previous": "https://api.acmi.net.au/creators/?page=482", "results": [{"id": 80753, "name": "Takeshi Koike", "roles_in_work": [{"id": 2327922, "title": "The Animatrix", "work_id": 94346, "role": "co-director", "role_id": 959, "is_primary": true}], "also_known_as": "", "date_of_birth": "1968-01-26", "date_of_death": "", "genders": [{"id": 9, "name": "Male", "slug": "male"}], "languages": [], "places_of_operation": [{"id": 8, "name": "Japan", "slug": "japan"}], "biography": "Takeshi Koike (小池健, Koike Takeshi) (born January 26, 1968) is a Japanese animator, illustrator and film director.\nSomething of a protégée of Yoshiaki Kawajiri, he was also influenced by Yoshinori Kanada, Frank Miller, Mike Mignola, and Katsuhito Ishii. He went straight from a high school education to beginning his career at Madhouse as an in-betweener on works directed by Kawajiri after being interviewed by him. His first professional work as director is the title sequence of the 2000 film Party 7; while his first feature film is Redline, which premiered in 2009 and was released in 2010. He served as character designer and animation director for 2012's Lupin the Third: The Woman Called Fujiko Mine, and directs film continuations of it starting with Lupin the IIIrd: Daisuke Jigen's Gravestone in 2014. Work outside of animation includes the artwork for the 2004 Dreams Come True single \"Yasashii Kiss o Shite\".", "biography_author": "Wikidata", "date_of_biography": "2023-08-01T17:14:48.505646+10:00", "external_links": [{"id": 5238, "uri": "https://en.wikipedia.org/wiki/Takeshi_Koike"}], "uuid": "c5fd3633-610a-4e90-b807-3d2862493977", "source": {"name": "Vernon", "slug": "vernon"}, "source_identifier": "29475", "external_references": [{"id": 26213, "source": {"name": "Wikidata", "slug": "wikidata"}, "source_identifier": "Q3514320"}, {"id": 31721, "source": {"name": "VIAF", "slug": "viaf"}, "source_identifier": "220893503"}, {"id": 31722, "source": {"name": "WorldCat", "slug": "worldcat"}, "source_identifier": "viaf-220893503"}], "date_modified": "2023-09-06T01:40:35.519190+10:00"}, {"id": 80752, "name": "Andy Jones", "roles_in_work": [{"id": 2327911, "title": "The Animatrix", "work_id": 94346, "role": "co-director", "role_id": 959, "is_primary": true}], "also_known_as": "", "date_of_birth": "", "date_of_death": "", "genders": [], "languages": [], "places_of_operation": [], "biography": "", "biography_author": null, "date_of_biography": "2023-05-09T19:21:45.736795+10:00", "external_links": [], "uuid": "ad0208e8-6aa4-4548-bb37-3297f8eb3fac", "source": {"name": "Vernon", "slug": "vernon"}, "source_identifier": "15242", "external_references": [{"id": 36334, "source": {"name": "Wikidata", "slug": "wikidata"}, "source_identifier": "Q121078810"}], "date_modified": "2023-09-05T17:37:33.655053+10:00"}, {"id": 80751, "name": "Peter Chung", "roles_in_work": [{"id": 2327907, "title": "The Animatrix", "work_id": 94346, "role": "co-director", "role_id": 959, "is_primary": true}], "also_known_as": "", "date_of_birth": "1961-04-19", "date_of_death": "", "genders": [{"id": 9, "name": "Male", "slug": "male"}], "languages": [{"id": 1, "name": "English", "slug": "english"}, {"id": 31, "name": "Korean", "slug": "korean"}], "places_of_operation": [{"id": 1, "name": "United States of America", "slug": "united-states-of-america"}], "biography": "Peter Chung (born April 19, 1961) is a Korean American animator. He is best known for his unique style of animation, as the creator and director of Æon Flux and Reign: The Conqueror (Alexander Senki).", "biography_author": "Wikidata", "date_of_biography": "2023-08-01T16:32:57.181075+10:00", "external_links": [{"id": 4870, "uri": "https://en.wikipedia.org/wiki/Peter_Chung"}], "uuid": "9b035648-fe9a-49b5-b8a9-af9c8e3264f7", "source": {"name": "Vernon", "slug": "vernon"}, "source_identifier": "26495", "external_references": [{"id": 26151, "source": {"name": "Wikidata", "slug": "wikidata"}, "source_identifier": "Q489286"}, {"id": 30758, "source": {"name": "VIAF", "slug": "viaf"}, "source_identifier": "120262862"}, {"id": 30759, "source": {"name": "LOC Auth", "slug": "loc-auth"}, "source_identifier": "n96045142"}, {"id": 30760, "source": {"name": "WorldCat", "slug": "worldcat"}, "source_identifier": "lccn-n96045142"}], "date_modified": "2023-09-05T23:54:59.797365+10:00"}, {"id": 80750, "name": "ACMI Encoding", "roles_in_work": [{"id": 1932435, "title": "The Nature of paradise", "work_id": 94339, "role": "distributor", "role_id": 437, "is_primary": false}], "also_known_as": "", "date_of_birth": null, "date_of_death": null, "genders": [], "languages": [], "places_of_operation": [], "biography": "", "biography_author": null, "date_of_biography": null, "external_links": [], "uuid": "aa9e9fe4-ad49-42fa-9a0d-410c73bb064c", "source": {"name": "Vernon", "slug": "vernon"}, "source_identifier": null, "external_references": [], "date_modified": "2023-06-14T16:33:30.576250+10:00"}, {"id": 80749, "name": "Steve Buscemi", "roles_in_work": [{"id": 3086427, "title": "The Sopranos. Season 3. Vol. 4. Eps 36-39", "work_id": 94327, "role": "co-director", "role_id": 959, "is_primary": true}, {"id": 3086507, "title": "The Sopranos. Season 3 [DVD]", "work_id": 94337, "role": "co-director", "role_id": 959, "is_primary": true}, {"id": 3086529, "title": "The Sopranos. Season 4", "work_id": 95023, "role": "co-director", "role_id": 959, "is_primary": true}], "also_known_as": "", "date_of_birth": "1957-12-13", "date_of_death": "", "genders": [{"id": 9, "name": "Male", "slug": "male"}], "languages": [{"id": 1, "name": "English", "slug": "english"}], "places_of_operation": [{"id": 1, "name": "United States of America", "slug": "united-states-of-america"}], "biography": "Steven Vincent Buscemi ( boo-SEM-ee, Italian: [buʃˈʃɛːmi]; born December 13, 1957) is an American actor. Buscemi is known for his work as an acclaimed character actor often collaborating with directors such as Quentin Tarantino, the Coen Brothers, and Adam Sandler. Multiple film critics and media outlets have cited Buscemi as one of the best actors never to have received an Academy Award nomination.He had roles in Reservoir Dogs (1992), Twenty Bucks (1993), Desperado (1995), Con Air (1997), Armageddon (1998), Ghost World (2001), Big Fish (2003), Lean on Pete (2017), and The Death of Stalin (2017). Buscemi has often starred in Coen brothers films such as Miller's Crossing (1990), Barton Fink (1991), The Hudsucker Proxy (1994), Fargo (1996), The Big Lebowski (1998), and Paris, je t'aime (2006).\nBuscemi has also had a prolific career in television. From 2010 to 2014, Buscemi starred in the lead role as Enoch \"Nucky\" Thompson in the critically acclaimed HBO television series Boardwalk Empire created by Terence Winter. His performance earned him two Screen Actors Guild Awards, a Golden Globe and two nominations for an Primetime Emmy Award. His other television roles include Lonesome Dove (1989), The Sopranos (2004, 2006), 30 Rock (2007–2013), Portlandia (2014–2017), Horace and Pete (2016), and Miracle Workers (2019–present). \nHe has directed films such as Trees Lounge (1996), Animal Factory (2000), Lonesome Jim (2004), and Interview (2007). A prolific voice actor, Buscemi voiced Randall Boggs in the Monsters, Inc. film franchise (2001–2013). He also voiced roles in Home on the Range (2004), Monster House (2006), Charlotte's Web (2006), Igor (2008), G-Force (2009), Hotel Transylvania film franchise (2012–2022) and The Boss Baby (2017).", "biography_author": "Wikidata", "date_of_biography": "2023-09-06T01:30:26.864310+10:00", "external_links": [{"id": 6196, "uri": "https://en.wikipedia.org/wiki/Steve_Buscemi"}], "uuid": "5d89506d-5836-448e-8d44-b048df99d66d", "source": {"name": "Vernon", "slug": "vernon"}, "source_identifier": "29115", "external_references": [{"id": 36166, "source": {"name": "Wikidata", "slug": "wikidata"}, "source_identifier": "Q104061"}, {"id": 55872, "source": {"name": "VIAF", "slug": "viaf"}, "source_identifier": "85555650"}, {"id": 55873, "source": {"name": "LOC Auth", "slug": "loc-auth"}, "source_identifier": "no96025941"}, {"id": 55874, "source": {"name": "WorldCat", "slug": "worldcat"}, "source_identifier": "lccn-no96025941"}], "date_modified": "2025-03-17T10:44:36.274993+11:00"}, {"id": 80748, "name": "Jack Bender", "roles_in_work": [{"id": 3086389, "title": "The Sopranos. Season 3. Vol. 2. Eps 30-32", "work_id": 94325, "role": "co-director", "role_id": 959, "is_primary": true}, {"id": 3086407, "title": "The Sopranos. Season 3. Vol. 3. Eps 33-35", "work_id": 94326, "role": "co-director", "role_id": 959, "is_primary": true}, {"id": 3086423, "title": "The Sopranos. Season 3. Vol. 4. Eps 36-39", "work_id": 94327, "role": "co-director", "role_id": 959, "is_primary": true}, {"id": 3086503, "title": "The Sopranos. Season 3 [DVD]", "work_id": 94337, "role": "co-director", "role_id": 959, "is_primary": true}, {"id": 3086526, "title": "The Sopranos. Season 4", "work_id": 95023, "role": "co-director", "role_id": 959, "is_primary": true}], "also_known_as": "", "date_of_birth": "", "date_of_death": "", "genders": [], "languages": [], "places_of_operation": [], "biography": "", "biography_author": null, "date_of_biography": "2023-08-17T15:09:08.817085+10:00", "external_links": [], "uuid": "4cf9c714-1145-4d6a-9430-53db27211cc1", "source": {"name": "Vernon", "slug": "vernon"}, "source_identifier": "21021", "external_references": [{"id": 42638, "source": {"name": "Wikidata", "slug": "wikidata"}, "source_identifier": "Q121337573"}], "date_modified": "2025-03-17T10:44:35.091990+11:00"}, {"id": 80747, "name": "Henry J. Bronchtein", "roles_in_work": [{"id": 3086528, "title": "The Sopranos. Season 4", "work_id": 95023, "role": "co-director", "role_id": 959, "is_primary": true}, {"id": 3086373, "title": "The Sopranos. Season 3. Vol. 1. Eps 27-29", "work_id": 94324, "role": "co-director", "role_id": 959, "is_primary": true}, {"id": 3086481, "title": "The Sopranos. Season 2 [DVD]", "work_id": 94336, "role": "co-director", "role_id": 959, "is_primary": true}, {"id": 3086499, "title": "The Sopranos. Season 3 [DVD]", "work_id": 94337, "role": "co-director", "role_id": 959, "is_primary": true}], "also_known_as": "", "date_of_birth": "", "date_of_death": "", "genders": [], "languages": [], "places_of_operation": [], "biography": "", "biography_author": null, "date_of_biography": "2023-08-17T15:09:09.440318+10:00", "external_links": [], "uuid": "400475bd-9596-4743-9c63-6afa51a713a1", "source": {"name": "Vernon", "slug": "vernon"}, "source_identifier": "20491", "external_references": [{"id": 39937, "source": {"name": "Wikidata", "slug": "wikidata"}, "source_identifier": "Q121036636"}], "date_modified": "2025-03-17T10:44:35.681173+11:00"}, {"id": 80746, "name": "Martin Bruestle", "roles_in_work": [{"id": 3086473, "title": "The Sopranos. Season 2 [DVD]", "work_id": 94336, "role": "co-director", "role_id": 959, "is_primary": true}], "also_known_as": "", "date_of_birth": "", "date_of_death": "", "genders": [], "languages": [], "places_of_operation": [], "biography": "", "biography_author": null, "date_of_biography": "2023-08-17T15:08:32.829342+10:00", "external_links": [], "uuid": "e077d4a5-2f93-4f6b-afac-6f78703c48fe", "source": {"name": "Vernon", "slug": "vernon"}, "source_identifier": "24615", "external_references": [{"id": 42602, "source": {"name": "Wikidata", "slug": "wikidata"}, "source_identifier": "Q121337199"}], "date_modified": "2025-03-17T10:44:18.423644+11:00"}, {"id": 80745, "name": "Matthew Penn", "roles_in_work": [{"id": 3086285, "title": "The Sopranos. Season 1. Vol. 2. Eps 05-07", "work_id": 94321, "role": "co-director", "role_id": 959, "is_primary": true}, {"id": 3086563, "title": "The Sopranos", "work_id": 115622, "role": "co-director", "role_id": 959, "is_primary": true}, {"id": 3086260, "title": "The Sopranos. Season 1. Vol. 1. Eps 01-04", "work_id": 94320, "role": "co-director", "role_id": 959, "is_primary": true}, {"id": 3086459, "title": "The Sopranos. Season 1 [DVD]", "work_id": 94335, "role": "co-director", "role_id": 959, "is_primary": true}, {"id": 3086315, "title": "The Sopranos. Season 1. Vol. 3. Eps 08-10", "work_id": 94322, "role": "co-director", "role_id": 959, "is_primary": true}, {"id": 3086348, "title": "The Sopranos. Season 1. Vol. 4. Eps 11-13", "work_id": 94323, "role": "co-director", "role_id": 959, "is_primary": true}], "also_known_as": "", "date_of_birth": null, "date_of_death": "", "genders": [{"id": 9, "name": "Male", "slug": "male"}], "languages": [{"id": 1, "name": "English", "slug": "english"}], "places_of_operation": [{"id": 1, "name": "United States of America", "slug": "united-states-of-america"}], "biography": "Matthew Penn (born 1959) is an American director and producer of television and theatre. His father was a film and theatre director named  Arthur Penn, his mother was an actress named Peggy Maurer.  He grew up in Stockbridge, Massachusetts, and New York City.  He has a double major in English and Theater, Matt graduated from Wesleyan University in 1980.Prior to beginning work in television, Penn spent many years working as an actor and director in theatre and is currently co-artistic director of the Berkshire Playwrights Lab located in Great Barrington, Massachusetts.Penn has directed and/or produced over 150 prime-time TV dramas. Some of his credits as a director include NYPD Blue, Law & Order, New York Undercover, Brooklyn South, The Sopranos, House, Damages, The Closer, and Royal Pains. He was nominated for an Emmy Award in 1999 for directing the 200th episode of Law & Order, guest-starring Julia Roberts. (Penn was also an executive producer of Law & Order from 2003 to 2007.)", "biography_author": "Wikidata", "date_of_biography": "2023-09-05T22:55:04.475485+10:00", "external_links": [{"id": 6015, "uri": "https://en.wikipedia.org/wiki/Matthew_Penn"}], "uuid": "fe9d05da-3c70-4ed3-bb59-c3ff1cf04da9", "source": {"name": "Vernon", "slug": "vernon"}, "source_identifier": "24810", "external_references": [{"id": 50750, "source": {"name": "Wikidata", "slug": "wikidata"}, "source_identifier": "Q6791068"}], "date_modified": "2025-03-17T10:44:47.673491+11:00"}, {"id": 80744, "name": "Andy Wolk", "roles_in_work": [{"id": 3086561, "title": "The Sopranos", "work_id": 115622, "role": "co-director", "role_id": 959, "is_primary": true}, {"id": 3086346, "title": "The Sopranos. Season 1. Vol. 4. Eps 11-13", "work_id": 94323, "role": "co-director", "role_id": 959, "is_primary": true}, {"id": 3086283, "title": "The Sopranos. Season 1. Vol. 2. Eps 05-07", "work_id": 94321, "role": "co-director", "role_id": 959, "is_primary": true}, {"id": 3086258, "title": "The Sopranos. Season 1. Vol. 1. Eps 01-04", "work_id": 94320, "role": "co-director", "role_id": 959, "is_primary": true}, {"id": 3086313, "title": "The Sopranos. Season 1. Vol. 3. Eps 08-10", "work_id": 94322, "role": "co-director", "role_id": 959, "is_primary": true}, {"id": 3086458, "title": "The Sopranos. Season 1 [DVD]", "work_id": 94335, "role": "co-director", "role_id": 959, "is_primary": true}], "also_known_as": "", "date_of_birth": null, "date_of_death": "", "genders": [{"id": 9, "name": "Male", "slug": "male"}], "languages": [], "places_of_operation": [{"id": 1, "name": "United States of America", "slug": "united-states-of-america"}], "biography": "Andy Wolk is an American television and theatre director.\nHis television credits include Tales of the Crypt, The Sopranos, Arli$$, The Practice, The Division, Medium, Ugly Betty, and Criminal Minds, as well as a number of television films.Wolk wrote two plays with Camera Obscura, a theatre company based in Jamestown, New York, that were performed during the 1970s at La MaMa Experimental Theatre Club in the East Village of Manhattan. The first, Oracles, is based in Greek mythology and was produced in 1973. The second, Maldoror, is based on Comte de Lautreaumont's Les Chants de Maldoror and was produced in 1974. Camera Obscura also took Oracles on tour in Europe in 1973 and Maldoror on tour in Europe in 1974. He has also directed theatre, including plays at the Manhattan Theatre Club, Ensemble Studio Theatre, and Actors Theatre of Louisville.In 1989, Wolk won a Writers Guild of America Award for writing the Great Performances episode \"Tales from the Hollywood Hills: Natica Jackson\".", "biography_author": "Wikidata", "date_of_biography": "2023-09-05T17:38:01.030455+10:00", "external_links": [{"id": 5677, "uri": "https://en.wikipedia.org/wiki/Andy_Wolk"}], "uuid": "29d358f9-6e14-4a6a-96f3-b20349788e6a", "source": {"name": "Vernon", "slug": "vernon"}, "source_identifier": "15252", "external_references": [{"id": 50608, "source": {"name": "Wikidata", "slug": "wikidata"}, "source_identifier": "Q4761509"}], "date_modified": "2025-03-17T10:44:47.093931+11:00"}]}