{"count": 28687, "next": "https://api.acmi.net.au/creators/?page=1875", "previous": "https://api.acmi.net.au/creators/?page=1873", "results": [{"id": 24992, "name": "IBT", "roles_in_work": [{"id": 2788762, "title": "A Safety net", "work_id": 82850, "role": "production company", "role_id": 941, "is_primary": true}, {"id": 2788768, "title": "Battle for the planet", "work_id": 115368, "role": "production company", "role_id": 941, "is_primary": true}, {"id": 2788748, "title": "Shifting sands", "work_id": 82848, "role": "production company", "role_id": 941, "is_primary": true}, {"id": 2788754, "title": "Greening the land", "work_id": 82849, "role": "production company", "role_id": 941, "is_primary": true}, {"id": 2788741, "title": "Eight litres a minute", "work_id": 82847, "role": "production company", "role_id": 941, "is_primary": true}, {"id": 1427340, "title": "The Global environment", "work_id": 84018, "role": "production company", "role_id": 941, "is_primary": true}], "also_known_as": "", "date_of_birth": null, "date_of_death": null, "genders": [], "languages": [], "places_of_operation": [], "biography": "", "biography_author": null, "date_of_biography": null, "external_links": [], "uuid": "5ee2369f-4715-415a-8a4b-8f9e4904b0a8", "source": {"name": "Vernon", "slug": "vernon"}, "source_identifier": "9218", "external_references": [], "date_modified": "2025-03-14T19:45:54.359351+11:00"}, {"id": 24991, "name": "Raye Farr", "roles_in_work": [{"id": 2786977, "title": "Hitler's Germany", "work_id": 115332, "role": "producer", "role_id": 1089, "is_primary": true}, {"id": 2786972, "title": "The People's community: 1937-1941", "work_id": 82845, "role": "producer", "role_id": 1089, "is_primary": true}, {"id": 2786975, "title": "Total war: 1941-1945", "work_id": 82846, "role": "producer", "role_id": 1089, "is_primary": true}, {"id": 2786968, "title": "The Only hope: 1933-1936", "work_id": 82844, "role": "producer", "role_id": 1089, "is_primary": true}], "also_known_as": "", "date_of_birth": null, "date_of_death": null, "genders": [], "languages": [], "places_of_operation": [], "biography": "", "biography_author": null, "date_of_biography": null, "external_links": [], "uuid": "3bd7a2fc-9b13-4c86-a84a-b5a30040a8f3", "source": {"name": "Vernon", "slug": "vernon"}, "source_identifier": "27181", "external_references": [], "date_modified": "2025-03-14T19:36:22.426046+11:00"}, {"id": 24986, "name": "Powerhouse", "roles_in_work": [{"id": 2276011, "title": "Vietnam: the long road home", "work_id": 82839, "role": "production company", "role_id": 941, "is_primary": true}], "also_known_as": "", "date_of_birth": "", "date_of_death": "", "genders": [], "languages": [], "places_of_operation": [], "biography": "", "biography_author": null, "date_of_biography": "2023-05-09T17:52:20.890335+10:00", "external_links": [], "uuid": "c28b25a0-121f-462d-a28c-f13ba67b9254", "source": {"name": "Vernon", "slug": "vernon"}, "source_identifier": "11598", "external_references": [{"id": 37658, "source": {"name": "Wikidata", "slug": "wikidata"}, "source_identifier": "Q121035733"}], "date_modified": "2023-09-06T00:13:50.787199+10:00"}, {"id": 24980, "name": "Cinema Guild", "roles_in_work": [{"id": 2650128, "title": "Future wave: Japan design", "work_id": 82836, "role": "production company", "role_id": 941, "is_primary": true}], "also_known_as": "", "date_of_birth": null, "date_of_death": null, "genders": [], "languages": [], "places_of_operation": [], "biography": "", "biography_author": null, "date_of_biography": null, "external_links": [], "uuid": "f283bef4-8b91-4704-824f-ed2966843b18", "source": {"name": "Vernon", "slug": "vernon"}, "source_identifier": "6700", "external_references": [], "date_modified": "2025-03-05T14:10:42.536133+11:00"}, {"id": 24979, "name": "Geoff Russell", "roles_in_work": [{"id": 904728, "title": "Rip Curl: designing and marketing wetsuits", "work_id": 85551, "role": "co-producer", "role_id": 915, "is_primary": true}, {"id": 905990, "title": "Types of criminal sanctions", "work_id": 86695, "role": "co-producers/directors", "role_id": 628, "is_primary": true}, {"id": 905986, "title": "Sentencing: the attainment of justice", "work_id": 86694, "role": "co-producers/directors", "role_id": 628, "is_primary": true}, {"id": 905994, "title": "The Objectives of criminal punishment", "work_id": 86696, "role": "co-producers/directors", "role_id": 628, "is_primary": true}, {"id": 905998, "title": "Alternative dispute resolution", "work_id": 86697, "role": "co-producers/directors", "role_id": 628, "is_primary": true}, {"id": 2614914, "title": "Family history: getting started", "work_id": 84519, "role": "producer", "role_id": 1089, "is_primary": true}, {"id": 1804617, "title": "Our puppets", "work_id": 84502, "role": "producer", "role_id": 1089, "is_primary": true}, {"id": 1808949, "title": "Sewage solutions (advanced version)", "work_id": 82835, "role": "producer", "role_id": 1089, "is_primary": true}], "also_known_as": "", "date_of_birth": null, "date_of_death": null, "genders": [], "languages": [], "places_of_operation": [], "biography": "", "biography_author": null, "date_of_biography": null, "external_links": [], "uuid": "1fa96227-e1f7-46cd-86f2-01963b9db0b6", "source": {"name": "Vernon", "slug": "vernon"}, "source_identifier": "19511", "external_references": [], "date_modified": "2025-02-26T20:16:36.557984+11:00"}, {"id": 24978, "name": "Video Education Australia", "roles_in_work": [{"id": 2650146, "title": "Introducing the Eucalypts", "work_id": 82861, "role": "production company", "role_id": 941, "is_primary": true}, {"id": 2288157, "title": "Violence on the screen", "work_id": 87640, "role": "production company", "role_id": 941, "is_primary": true}, {"id": 780284, "title": "Sewage solutions (advanced version)", "work_id": 82835, "role": "production company", "role_id": 941, "is_primary": true}, {"id": 806067, "title": "Hit the ground running: making the leap from primary to secondary school", "work_id": 90607, "role": "production company", "role_id": 941, "is_primary": true}], "also_known_as": "", "date_of_birth": "", "date_of_death": "", "genders": [], "languages": [], "places_of_operation": [], "biography": "", "biography_author": null, "date_of_biography": "2023-05-09T18:13:26.320022+10:00", "external_links": [], "uuid": "625a88dd-1ead-4924-8f1a-24642fbf85e2", "source": {"name": "Vernon", "slug": "vernon"}, "source_identifier": "14099", "external_references": [{"id": 40674, "source": {"name": "Wikidata", "slug": "wikidata"}, "source_identifier": "Q121035377"}], "date_modified": "2025-03-05T14:10:54.440061+11:00"}, {"id": 24974, "name": "Neil Barrett", "roles_in_work": [{"id": 2248612, "title": "Reproductive technology: facts and issues", "work_id": 82862, "role": "co-producer", "role_id": 915, "is_primary": true}, {"id": 1815774, "title": "Australia's refugee dilemma", "work_id": 93812, "role": "producer", "role_id": 1089, "is_primary": true}, {"id": 2754825, "title": "Planning the presentation", "work_id": 99386, "role": "producer", "role_id": 1089, "is_primary": true}, {"id": 1808948, "title": "People, people and place: the impact of a new industrial complex", "work_id": 82833, "role": "producer", "role_id": 1089, "is_primary": true}, {"id": 1808943, "title": "A Failure to communicate", "work_id": 82830, "role": "producer", "role_id": 1089, "is_primary": true}], "also_known_as": "", "date_of_birth": "", "date_of_death": "", "genders": [], "languages": [], "places_of_operation": [], "biography": "", "biography_author": null, "date_of_biography": "2023-05-09T17:07:17.980323+10:00", "external_links": [], "uuid": "10e2cdc3-b4de-4caa-b2eb-db74d1eb07e3", "source": {"name": "Vernon", "slug": "vernon"}, "source_identifier": "25662", "external_references": [{"id": 34402, "source": {"name": "Wikidata", "slug": "wikidata"}, "source_identifier": "Q121336985"}], "date_modified": "2025-03-13T01:51:53.358609+11:00"}, {"id": 24973, "name": "Video Education Australasia", "roles_in_work": [{"id": 2754819, "title": "Preparing and conducting an interview", "work_id": 99384, "role": "production company", "role_id": 941, "is_primary": true}, {"id": 2614913, "title": "Family history: getting started", "work_id": 84519, "role": "production company", "role_id": 941, "is_primary": true}, {"id": 873765, "title": "Reality bites : sex, STDs and contraception", "work_id": 88387, "role": "production company", "role_id": 941, "is_primary": true}, {"id": 2754911, "title": "Reading between the lines: live at six o'clock", "work_id": 99421, "role": "production company", "role_id": 941, "is_primary": true}, {"id": 2754909, "title": "Reading between the lines: inside the stories", "work_id": 99420, "role": "production company", "role_id": 941, "is_primary": true}, {"id": 2754907, "title": "Reading between the lines: the inside story of a daily newspaper", "work_id": 99419, "role": "production company", "role_id": 941, "is_primary": true}, {"id": 2754836, "title": "Behind the seams: designing and manufacturing clothing in Australia", "work_id": 99394, "role": "production company", "role_id": 941, "is_primary": true}, {"id": 2754834, "title": "Oral presentation", "work_id": 99393, "role": "production company", "role_id": 941, "is_primary": true}, {"id": 2754824, "title": "Planning the presentation", "work_id": 99386, "role": "production company", "role_id": 941, "is_primary": true}, {"id": 877265, "title": "Tough at the top: business management styles", "work_id": 90549, "role": "production company", "role_id": 941, "is_primary": true}, {"id": 2128150, "title": "Buy now, die later: the impact of television advertising on children's diets: a media debate", "work_id": 87444, "role": "production company", "role_id": 941, "is_primary": true}, {"id": 883542, "title": "Tampa and beyond", "work_id": 93811, "role": "production company", "role_id": 941, "is_primary": true}, {"id": 883544, "title": "Australia's refugee dilemma", "work_id": 93812, "role": "production company", "role_id": 941, "is_primary": true}, {"id": 780277, "title": "People, people and place: the impact of a new industrial complex", "work_id": 82833, "role": "production company", "role_id": 941, "is_primary": true}, {"id": 780265, "title": "A Failure to communicate", "work_id": 82830, "role": "production company", "role_id": 941, "is_primary": true}, {"id": 2251737, "title": "Roar: Melbourne expressionism in the 1980s", "work_id": 93413, "role": "production company", "role_id": 941, "is_primary": true}, {"id": 785902, "title": "Our puppets", "work_id": 84502, "role": "production company", "role_id": 941, "is_primary": true}, {"id": 792879, "title": "Images and meaning", "work_id": 86365, "role": "production company", "role_id": 941, "is_primary": true}, {"id": 2307802, "title": "Sport and nutrition", "work_id": 90292, "role": "production company", "role_id": 941, "is_primary": true}, {"id": 2307776, "title": "Sport and coaching", "work_id": 90297, "role": "production company", "role_id": 941, "is_primary": true}, {"id": 2280528, "title": "Sentences and paragraphs", "work_id": 86363, "role": "production company", "role_id": 941, "is_primary": true}], "also_known_as": "", "date_of_birth": "", "date_of_death": "", "genders": [], "languages": [], "places_of_operation": [], "biography": "", "biography_author": null, "date_of_biography": "2023-05-09T18:47:46.514927+10:00", "external_links": [], "uuid": "6779afdf-28d9-42b8-8ff2-94c46e6a591d", "source": {"name": "Vernon", "slug": "vernon"}, "source_identifier": "14098", "external_references": [{"id": 34974, "source": {"name": "Wikidata", "slug": "wikidata"}, "source_identifier": "Q121035790"}], "date_modified": "2025-03-13T01:53:09.669736+11:00"}, {"id": 24970, "name": "Eleanore Lindo", "roles_in_work": [{"id": 2650122, "title": "Talkin' about Aids", "work_id": 82828, "role": "director", "role_id": 938, "is_primary": true}], "also_known_as": "", "date_of_birth": "", "date_of_death": "", "genders": [], "languages": [], "places_of_operation": [], "biography": "", "biography_author": null, "date_of_biography": "2023-05-09T19:13:07.053309+10:00", "external_links": [], "uuid": "692b7749-846c-472d-8dd9-5a9e35c88863", "source": {"name": "Vernon", "slug": "vernon"}, "source_identifier": "18668", "external_references": [{"id": 43513, "source": {"name": "Wikidata", "slug": "wikidata"}, "source_identifier": "Q121223321"}], "date_modified": "2025-03-05T14:10:38.488417+11:00"}, {"id": 24967, "name": "Great Northern Release Company", "roles_in_work": [{"id": 2650119, "title": "Talkin' about Aids", "work_id": 82828, "role": "production company", "role_id": 941, "is_primary": true}], "also_known_as": "", "date_of_birth": "", "date_of_death": "", "genders": [], "languages": [], "places_of_operation": [], "biography": "", "biography_author": null, "date_of_biography": "2023-05-09T19:13:06.246465+10:00", "external_links": [], "uuid": "613929e1-f464-43b0-b771-cfb6c016a78b", "source": {"name": "Vernon", "slug": "vernon"}, "source_identifier": "8871", "external_references": [{"id": 43413, "source": {"name": "Wikidata", "slug": "wikidata"}, "source_identifier": "Q121314987"}], "date_modified": "2025-03-05T14:10:36.736969+11:00"}]}