{"count": 28687, "next": "https://api.acmi.net.au/creators/?page=2584", "previous": "https://api.acmi.net.au/creators/?page=2582", "results": [{"id": 12874, "name": "Gordon Bradley", "roles_in_work": [{"id": 2678091, "title": "The Baltic story", "work_id": 65215, "role": "director", "role_id": 938, "is_primary": true}, {"id": 2644951, "title": "Ghana today", "work_id": 68044, "role": "producer", "role_id": 1089, "is_primary": true}, {"id": 1810343, "title": "Kenya today", "work_id": 69372, "role": "producer", "role_id": 1089, "is_primary": true}, {"id": 2714108, "title": "Formosa today", "work_id": 67747, "role": "producer", "role_id": 1089, "is_primary": true}, {"id": 2715642, "title": "Hong Kong today", "work_id": 68541, "role": "producer", "role_id": 1089, "is_primary": true}, {"id": 2714780, "title": "The Gold line", "work_id": 68111, "role": "producer", "role_id": 1089, "is_primary": true}, {"id": 2646161, "title": "Rhodesia and Nyasaland today", "work_id": 72204, "role": "producer", "role_id": 1089, "is_primary": true}, {"id": 2714779, "title": "The Gold line", "work_id": 68111, "role": "production company", "role_id": 941, "is_primary": true}], "also_known_as": "", "date_of_birth": "", "date_of_death": "", "genders": [], "languages": [], "places_of_operation": [], "biography": "", "biography_author": null, "date_of_biography": "2023-08-11T17:28:42.996389+10:00", "external_links": [], "uuid": "2e31e068-4e3b-4a7f-8bca-52d5ab3eae04", "source": {"name": "Vernon", "slug": "vernon"}, "source_identifier": "19926", "external_references": [], "date_modified": "2025-03-12T01:38:17.459505+11:00"}, {"id": 12873, "name": "Gordon Bradley Ltd", "roles_in_work": [{"id": 2678090, "title": "The Baltic story", "work_id": 65215, "role": "production company", "role_id": 941, "is_primary": true}], "also_known_as": "", "date_of_birth": null, "date_of_death": null, "genders": [], "languages": [], "places_of_operation": [], "biography": "", "biography_author": null, "date_of_biography": null, "external_links": [], "uuid": "4f949ee6-c24c-4e60-b0bf-c62c6458bf53", "source": {"name": "Vernon", "slug": "vernon"}, "source_identifier": "8807", "external_references": [], "date_modified": "2025-03-06T23:40:49.066085+11:00"}, {"id": 12872, "name": "Sydney Filmmakers Co-operative", "roles_in_work": [{"id": 2751029, "title": "Franklin: wild river", "work_id": 97625, "role": "distributor", "role_id": 437, "is_primary": false}, {"id": 2392600, "title": "Mum's the word", "work_id": 78994, "role": "production company", "role_id": 941, "is_primary": true}, {"id": 2648387, "title": "Age before beauty", "work_id": 79034, "role": "production company", "role_id": 941, "is_primary": true}, {"id": 2678088, "title": "Balmain", "work_id": 65214, "role": "production company", "role_id": 941, "is_primary": true}, {"id": 760657, "title": "Give trees a chance: the story of Terania Creek", "work_id": 75911, "role": "production company", "role_id": 941, "is_primary": true}, {"id": 2355426, "title": "The Iced hopes of Dr Calastein", "work_id": 77173, "role": "production company", "role_id": 941, "is_primary": true}, {"id": 2130048, "title": "Captives of care", "work_id": 76551, "role": "production company", "role_id": 941, "is_primary": true}, {"id": 758690, "title": "Australian history", "work_id": 75114, "role": "production company", "role_id": 941, "is_primary": true}, {"id": 1904050, "title": "Gordon splits", "work_id": 77284, "role": "production company", "role_id": 941, "is_primary": true}], "also_known_as": "", "date_of_birth": "", "date_of_death": "", "genders": [], "languages": [], "places_of_operation": [], "biography": "", "biography_author": null, "date_of_biography": "2023-08-09T03:58:18.076421+10:00", "external_links": [], "uuid": "505ac929-1371-4ef6-9ddb-94752ef0f126", "source": {"name": "Vernon", "slug": "vernon"}, "source_identifier": "13104", "external_references": [{"id": 34261, "source": {"name": "Wikidata", "slug": "wikidata"}, "source_identifier": "Q121057796"}], "date_modified": "2025-03-13T00:35:42.721423+11:00"}, {"id": 12871, "name": "Jean Dasque", "roles_in_work": [{"id": 2678087, "title": "Ball on vole", "work_id": 65213, "role": "director", "role_id": 938, "is_primary": true}], "also_known_as": "", "date_of_birth": "1919-06-08", "date_of_death": "2013-06-28", "genders": [{"id": 9, "name": "Male", "slug": "male"}], "languages": [{"id": 4, "name": "French", "slug": "french"}], "places_of_operation": [{"id": 17, "name": "France", "slug": "france"}], "biography": "Jean Dasque (9 June 1919 – 28 June 2013) was a French film director, active between 1960 and 1984.", "biography_author": "Wikidata", "date_of_biography": "2023-08-01T15:26:33.846908+10:00", "external_links": [{"id": 4293, "uri": "https://en.wikipedia.org/wiki/Jean_Dasque"}], "uuid": "af7c1184-7bb6-4ccd-8767-87300f3db8ec", "source": {"name": "Vernon", "slug": "vernon"}, "source_identifier": "21524", "external_references": [{"id": 24972, "source": {"name": "Wikidata", "slug": "wikidata"}, "source_identifier": "Q3171562"}], "date_modified": "2025-03-06T23:40:46.792942+11:00"}, {"id": 12870, "name": "Cine-Documents", "roles_in_work": [{"id": 2678086, "title": "Ball on vole", "work_id": 65213, "role": "production company", "role_id": 941, "is_primary": true}], "also_known_as": "", "date_of_birth": null, "date_of_death": null, "genders": [], "languages": [], "places_of_operation": [], "biography": "", "biography_author": null, "date_of_biography": null, "external_links": [], "uuid": "6d7e7b0a-d66f-482a-9c28-7289ed7eee86", "source": {"name": "Vernon", "slug": "vernon"}, "source_identifier": "6680", "external_references": [], "date_modified": "2025-03-06T23:40:46.205813+11:00"}, {"id": 12869, "name": "William Francisco", "roles_in_work": [{"id": 859170, "title": "The Symphony sound with Henry Lewis: introduction to the performing arts", "work_id": 73434, "role": "director", "role_id": 938, "is_primary": true}, {"id": 2678084, "title": "Ballet with Edward Villella", "work_id": 65211, "role": "director", "role_id": 938, "is_primary": true}, {"id": 2792317, "title": "The Cause of liberty", "work_id": 84859, "role": "director", "role_id": 938, "is_primary": true}], "also_known_as": "", "date_of_birth": null, "date_of_death": null, "genders": [], "languages": [], "places_of_operation": [], "biography": "", "biography_author": null, "date_of_biography": null, "external_links": [], "uuid": "213d778d-05b8-42e6-b25b-bc95f34c8660", "source": {"name": "Vernon", "slug": "vernon"}, "source_identifier": "30422", "external_references": [], "date_modified": "2025-03-06T23:40:44.487919+11:00"}, {"id": 12868, "name": "Robert Saudek", "roles_in_work": [{"id": 2678083, "title": "Ballet with Edward Villella", "work_id": 65211, "role": "producer", "role_id": 1089, "is_primary": true}, {"id": 2749342, "title": "Film: the art of the impossible", "work_id": 96753, "role": "producer", "role_id": 1089, "is_primary": true}, {"id": 2792321, "title": "American revolution", "work_id": 115435, "role": "producer", "role_id": 1089, "is_primary": true}, {"id": 2792316, "title": "The Cause of liberty", "work_id": 84859, "role": "producer", "role_id": 1089, "is_primary": true}, {"id": 1813500, "title": "Walter Kerr, on theater", "work_id": 74460, "role": "producer", "role_id": 1089, "is_primary": true}, {"id": 1819295, "title": "Introduction to the performing arts: opera with Henry Butler", "work_id": 71179, "role": "producer", "role_id": 1089, "is_primary": true}, {"id": 1812096, "title": "The Symphony sound with Henry Lewis: introduction to the performing arts", "work_id": 73434, "role": "producer", "role_id": 1089, "is_primary": true}], "also_known_as": "", "date_of_birth": null, "date_of_death": null, "genders": [], "languages": [], "places_of_operation": [], "biography": "", "biography_author": null, "date_of_biography": null, "external_links": [], "uuid": "2b85a565-a863-43f3-bb78-fa4d408da1d0", "source": {"name": "Vernon", "slug": "vernon"}, "source_identifier": "27876", "external_references": [], "date_modified": "2025-03-14T20:08:43.144624+11:00"}, {"id": 12867, "name": "Robert Lapresle", "roles_in_work": [{"id": 2678081, "title": "Ballet in New Zealand", "work_id": 65210, "role": "director", "role_id": 938, "is_primary": true}], "also_known_as": "", "date_of_birth": "", "date_of_death": "", "genders": [], "languages": [], "places_of_operation": [], "biography": "", "biography_author": null, "date_of_biography": "2023-05-09T12:40:30.898290+10:00", "external_links": [], "uuid": "71c14280-a649-4efa-ad2a-e6b92c500d11", "source": {"name": "Vernon", "slug": "vernon"}, "source_identifier": "27804", "external_references": [{"id": 42418, "source": {"name": "Wikidata", "slug": "wikidata"}, "source_identifier": "Q121315123"}], "date_modified": "2025-03-06T23:40:42.450974+11:00"}, {"id": 12865, "name": "Geoffrey Scott", "roles_in_work": [{"id": 2714846, "title": "Good times two", "work_id": 68141, "role": "co-producer", "role_id": 915, "is_primary": true}, {"id": 2678079, "title": "Ballet in New Zealand", "work_id": 65210, "role": "co-producer", "role_id": 915, "is_primary": true}, {"id": 2765381, "title": "Bronze boy", "work_id": 65641, "role": "co-producer", "role_id": 915, "is_primary": true}, {"id": 2678575, "title": "Birth of a rainbow", "work_id": 65459, "role": "co-producer", "role_id": 915, "is_primary": true}, {"id": 2646341, "title": "Snofari", "work_id": 72929, "role": "co-producer", "role_id": 915, "is_primary": true}, {"id": 895671, "title": "Rotorua lookabout", "work_id": 72353, "role": "co-producer", "role_id": 915, "is_primary": true}, {"id": 895663, "title": "Roseworld '71", "work_id": 72349, "role": "co-producer", "role_id": 915, "is_primary": true}, {"id": 895535, "title": "Queen of flowers", "work_id": 71986, "role": "co-producer", "role_id": 915, "is_primary": true}, {"id": 895573, "title": "Recovering from a coronary", "work_id": 72093, "role": "co-producer", "role_id": 915, "is_primary": true}, {"id": 896212, "title": "Wild September snow", "work_id": 74759, "role": "co-producer", "role_id": 915, "is_primary": true}, {"id": 897292, "title": "Green garden country", "work_id": 77303, "role": "co-producer", "role_id": 915, "is_primary": true}, {"id": 918294, "title": "Maori arts and culture. No. 1. Carving and decoration", "work_id": 95900, "role": "co-producer", "role_id": 915, "is_primary": true}, {"id": 1818597, "title": "Wayleggo", "work_id": 74546, "role": "producer", "role_id": 1089, "is_primary": true}, {"id": 1812750, "title": "Tilt to the sun", "work_id": 73821, "role": "producer", "role_id": 1089, "is_primary": true}, {"id": 1812724, "title": "Through scrummage, three-quarters and all", "work_id": 73802, "role": "producer", "role_id": 1089, "is_primary": true}], "also_known_as": "", "date_of_birth": "", "date_of_death": "", "genders": [], "languages": [], "places_of_operation": [], "biography": "", "biography_author": null, "date_of_biography": "2023-05-09T12:40:30.439309+10:00", "external_links": [], "uuid": "ae33efba-84e9-473e-bbd0-69f09c486b23", "source": {"name": "Vernon", "slug": "vernon"}, "source_identifier": "19545", "external_references": [{"id": 40202, "source": {"name": "Wikidata", "slug": "wikidata"}, "source_identifier": "Q121034306"}], "date_modified": "2025-03-14T17:52:32.493999+11:00"}, {"id": 12864, "name": "Astrid Henning-Jensen", "roles_in_work": [{"id": 2678077, "title": "Ballet girl", "work_id": 65209, "role": "director", "role_id": 938, "is_primary": true}, {"id": 2715688, "title": "Horse on holiday", "work_id": 68554, "role": "director", "role_id": 938, "is_primary": true}], "also_known_as": "", "date_of_birth": "", "date_of_death": "", "genders": [], "languages": [], "places_of_operation": [], "biography": "", "biography_author": null, "date_of_biography": "2023-08-11T14:34:32.669483+10:00", "external_links": [], "uuid": "18bdf0af-a28b-453f-973c-53313cbf589b", "source": {"name": "Vernon", "slug": "vernon"}, "source_identifier": "15580", "external_references": [], "date_modified": "2025-03-12T01:40:31.259458+11:00"}]}