{"count": 28684, "next": "https://api.acmi.net.au/creators/?page=410", "previous": "https://api.acmi.net.au/creators/?page=408", "results": [{"id": 81490, "name": "David Deverell", "roles_in_work": [{"id": 2793387, "title": "Hunt", "work_id": 96927, "role": "producer/director", "role_id": 31, "is_primary": true}], "also_known_as": "", "date_of_birth": null, "date_of_death": null, "genders": [], "languages": [], "places_of_operation": [], "biography": "", "biography_author": null, "date_of_biography": null, "external_links": [], "uuid": "424150ec-8a48-4974-9e5b-fda3c0c96d4f", "source": {"name": "Vernon", "slug": "vernon"}, "source_identifier": "17551", "external_references": [], "date_modified": "2025-03-14T20:17:25.927673+11:00"}, {"id": 81489, "name": "Rhonda Raulston", "roles_in_work": [{"id": 2749690, "title": "Horse flickers", "work_id": 96926, "role": "co-producer", "role_id": 915, "is_primary": true}], "also_known_as": "", "date_of_birth": "", "date_of_death": "", "genders": [], "languages": [], "places_of_operation": [], "biography": "", "biography_author": null, "date_of_biography": "2023-08-11T17:30:13.308392+10:00", "external_links": [], "uuid": "c2d8f347-68d7-41c7-ac14-55a0fe14f931", "source": {"name": "Vernon", "slug": "vernon"}, "source_identifier": "27293", "external_references": [{"id": 50922, "source": {"name": "Wikidata", "slug": "wikidata"}, "source_identifier": "Q121357747"}], "date_modified": "2025-03-13T00:05:39.961646+11:00"}, {"id": 81488, "name": "Jim Gruebel", "roles_in_work": [{"id": 2749689, "title": "Horse flickers", "work_id": 96926, "role": "co-producer", "role_id": 915, "is_primary": true}], "also_known_as": "", "date_of_birth": "", "date_of_death": "", "genders": [], "languages": [], "places_of_operation": [], "biography": "", "biography_author": null, "date_of_biography": "2023-08-11T17:30:12.678181+10:00", "external_links": [], "uuid": "9cb22d30-1bf9-468c-8e92-a142d6f9294a", "source": {"name": "Vernon", "slug": "vernon"}, "source_identifier": "21884", "external_references": [{"id": 33645, "source": {"name": "Wikidata", "slug": "wikidata"}, "source_identifier": "Q121298982"}], "date_modified": "2025-03-13T00:05:39.367542+11:00"}, {"id": 81487, "name": "Tony Blane", "roles_in_work": [{"id": 2749654, "title": "Little athletics: sprinting", "work_id": 96909, "role": "producer/director", "role_id": 31, "is_primary": true}, {"id": 2749648, "title": "Little athletics: high jump", "work_id": 96906, "role": "producer/director", "role_id": 31, "is_primary": true}, {"id": 2415194, "title": "Little athletics: hurdling", "work_id": 96907, "role": "producer/director", "role_id": 31, "is_primary": true}, {"id": 2749645, "title": "Little athletics: discus throwing", "work_id": 96905, "role": "producer/director", "role_id": 31, "is_primary": true}, {"id": 2749651, "title": "Little athletics: long jump", "work_id": 96908, "role": "producer/director", "role_id": 31, "is_primary": true}], "also_known_as": "", "date_of_birth": "", "date_of_death": "", "genders": [], "languages": [], "places_of_operation": [], "biography": "", "biography_author": null, "date_of_biography": "2023-08-11T19:33:00.381329+10:00", "external_links": [], "uuid": "4845715b-6ae4-4c6a-9cd1-baf996ce177b", "source": {"name": "Vernon", "slug": "vernon"}, "source_identifier": "13643", "external_references": [{"id": 50588, "source": {"name": "Wikidata", "slug": "wikidata"}, "source_identifier": "Q121361016"}], "date_modified": "2025-03-13T00:05:10.387660+11:00"}, {"id": 81486, "name": "David Ravenswood", "roles_in_work": [{"id": 2749638, "title": "The Place Across the River", "work_id": 96900, "role": "narrator", "role_id": 499, "is_primary": false}], "also_known_as": "", "date_of_birth": null, "date_of_death": null, "genders": [], "languages": [], "places_of_operation": [], "biography": "", "biography_author": null, "date_of_biography": null, "external_links": [], "uuid": "c35d9b39-4aa7-4101-8482-5475a446b829", "source": {"name": "Vernon", "slug": "vernon"}, "source_identifier": "38393", "external_references": [], "date_modified": "2025-03-13T00:02:44.081600+11:00"}, {"id": 81485, "name": "Grace Petitclerc", "roles_in_work": [{"id": 2749622, "title": "Young fingers on a typewriter: a new concept in learning", "work_id": 96894, "role": "producer/director", "role_id": 31, "is_primary": true}], "also_known_as": "", "date_of_birth": "", "date_of_death": "", "genders": [], "languages": [], "places_of_operation": [], "biography": "", "biography_author": null, "date_of_biography": "2023-05-09T17:53:41.534838+10:00", "external_links": [], "uuid": "4cb73a57-ecde-4ec9-ad0b-1ff24f03f4e8", "source": {"name": "Vernon", "slug": "vernon"}, "source_identifier": "19967", "external_references": [{"id": 51173, "source": {"name": "Wikidata", "slug": "wikidata"}, "source_identifier": "Q121360691"}], "date_modified": "2025-03-13T00:02:33.834169+11:00"}, {"id": 81484, "name": "Paul Steindl", "roles_in_work": [{"id": 2311300, "title": "Stopover", "work_id": 96873, "role": "producer/director", "role_id": 31, "is_primary": true}], "also_known_as": "", "date_of_birth": "", "date_of_death": "", "genders": [], "languages": [], "places_of_operation": [], "biography": "", "biography_author": null, "date_of_biography": "2023-05-09T18:57:24.515726+10:00", "external_links": [], "uuid": "d184e19f-d825-4b6a-b82a-b8de2be306cb", "source": {"name": "Vernon", "slug": "vernon"}, "source_identifier": "26338", "external_references": [{"id": 51502, "source": {"name": "Wikidata", "slug": "wikidata"}, "source_identifier": "Q121360695"}], "date_modified": "2023-09-05T23:49:48.783819+10:00"}, {"id": 81483, "name": "Alan Hart", "roles_in_work": [{"id": 2749444, "title": "Rich & Poor: What Can We Do?", "work_id": 96810, "role": "co-producer", "role_id": 915, "is_primary": true}, {"id": 2750572, "title": "One planet - two worlds: five minutes to midnight", "work_id": 97400, "role": "co-producer", "role_id": 915, "is_primary": true}, {"id": 2749441, "title": "Keeping people alive: malnutrition - the hidden killer", "work_id": 96809, "role": "co-producers/directors", "role_id": 628, "is_primary": true}], "also_known_as": "", "date_of_birth": "", "date_of_death": "", "genders": [], "languages": [], "places_of_operation": [], "biography": "", "biography_author": null, "date_of_biography": "2023-05-09T17:09:44.074369+10:00", "external_links": [], "uuid": "e7c59121-ce26-4370-bcc6-402049d23cbd", "source": {"name": "Vernon", "slug": "vernon"}, "source_identifier": "14763", "external_references": [{"id": 34287, "source": {"name": "Wikidata", "slug": "wikidata"}, "source_identifier": "Q121299161"}], "date_modified": "2025-03-13T00:25:53.406699+11:00"}, {"id": 81482, "name": "Ridley Williams", "roles_in_work": [{"id": 2749435, "title": "Indonesian boomerang", "work_id": 96805, "role": "co-producer", "role_id": 915, "is_primary": true}], "also_known_as": "", "date_of_birth": null, "date_of_death": null, "genders": [], "languages": [], "places_of_operation": [], "biography": "", "biography_author": null, "date_of_biography": null, "external_links": [], "uuid": "2b2e9eb1-5ded-4e14-a37c-782b83e6b9c3", "source": {"name": "Vernon", "slug": "vernon"}, "source_identifier": "27567", "external_references": [{"id": 37548, "source": {"name": "Wikidata", "slug": "wikidata"}, "source_identifier": "Q121159749"}], "date_modified": "2025-03-13T00:00:27.421428+11:00"}, {"id": 81481, "name": "Anthony Lover", "roles_in_work": [{"id": 2749424, "title": "De Duva = The Dove", "work_id": 96800, "role": "co-director", "role_id": 959, "is_primary": true}, {"id": 2749423, "title": "De Duva = The Dove", "work_id": 96800, "role": "co-producer", "role_id": 915, "is_primary": true}], "also_known_as": "", "date_of_birth": null, "date_of_death": "", "genders": [{"id": 9, "name": "Male", "slug": "male"}], "languages": [], "places_of_operation": [], "biography": "", "biography_author": null, "date_of_biography": "2023-05-09T14:52:16.269162+10:00", "external_links": [], "uuid": "593eab38-b6ea-48bc-ac21-c9aebbf26c90", "source": {"name": "Vernon", "slug": "vernon"}, "source_identifier": "15400", "external_references": [{"id": 35256, "source": {"name": "Wikidata", "slug": "wikidata"}, "source_identifier": "Q22101699"}], "date_modified": "2025-03-13T00:00:19.385695+11:00"}]}