{"count": 28687, "next": "https://api.acmi.net.au/creators/?page=1755", "previous": "https://api.acmi.net.au/creators/?page=1753", "results": [{"id": 27402, "name": "Straight from the Heart", "roles_in_work": [{"id": 2314842, "title": "Straight from the heart", "work_id": 85420, "role": "production company", "role_id": 941, "is_primary": true}], "also_known_as": "", "date_of_birth": "", "date_of_death": "", "genders": [], "languages": [], "places_of_operation": [], "biography": "", "biography_author": null, "date_of_biography": "2023-05-09T19:02:43.987419+10:00", "external_links": [], "uuid": "23c09a57-6ca0-4f66-9bc2-e1cc3a0327ae", "source": {"name": "Vernon", "slug": "vernon"}, "source_identifier": "12983", "external_references": [{"id": 36871, "source": {"name": "Wikidata", "slug": "wikidata"}, "source_identifier": "Q121034614"}], "date_modified": "2023-09-06T01:33:11.707673+10:00"}, {"id": 27401, "name": "Woman Vision (USA)", "roles_in_work": [{"id": 2314838, "title": "Straight from the heart", "work_id": 85420, "role": "production company", "role_id": 941, "is_primary": true}], "also_known_as": "", "date_of_birth": "", "date_of_death": "", "genders": [], "languages": [], "places_of_operation": [], "biography": "", "biography_author": null, "date_of_biography": "2023-05-09T19:02:43.746020+10:00", "external_links": [], "uuid": "e928f139-eba7-4c26-bb10-91c03e5c5ebd", "source": {"name": "Vernon", "slug": "vernon"}, "source_identifier": "14417", "external_references": [{"id": 36665, "source": {"name": "Wikidata", "slug": "wikidata"}, "source_identifier": "Q121034344"}], "date_modified": "2023-09-06T02:19:54.625883+10:00"}, {"id": 27396, "name": "Sue Thomson", "roles_in_work": [{"id": 2615421, "title": "Boys and Balls", "work_id": 85418, "role": "director", "role_id": 938, "is_primary": true}], "also_known_as": "", "date_of_birth": null, "date_of_death": null, "genders": [], "languages": [], "places_of_operation": [], "biography": "", "biography_author": null, "date_of_biography": null, "external_links": [], "uuid": "d97b8c49-65b2-488f-88a7-92221d055de3", "source": {"name": "Vernon", "slug": "vernon"}, "source_identifier": "29309", "external_references": [], "date_modified": "2025-02-26T20:23:38.972931+11:00"}, {"id": 27395, "name": "Thermal Falls", "roles_in_work": [{"id": 2615419, "title": "Boys and Balls", "work_id": 85418, "role": "production company", "role_id": 941, "is_primary": true}], "also_known_as": "", "date_of_birth": null, "date_of_death": null, "genders": [], "languages": [], "places_of_operation": [], "biography": "", "biography_author": null, "date_of_biography": null, "external_links": [], "uuid": "9693e281-bc78-4acc-9c0b-aadeeb81dd9c", "source": {"name": "Vernon", "slug": "vernon"}, "source_identifier": "29655", "external_references": [], "date_modified": "2025-02-26T20:23:37.749830+11:00"}, {"id": 27393, "name": "Woman Vision", "roles_in_work": [{"id": 2180667, "title": "Out for a change: addressing homophobia in women's sports", "work_id": 85417, "role": "production company", "role_id": 941, "is_primary": true}], "also_known_as": "", "date_of_birth": "", "date_of_death": "", "genders": [], "languages": [], "places_of_operation": [], "biography": "", "biography_author": null, "date_of_biography": "2023-05-09T14:52:22.379608+10:00", "external_links": [], "uuid": "c0f54b97-bf35-440d-a004-44e5757d508a", "source": {"name": "Vernon", "slug": "vernon"}, "source_identifier": "14416", "external_references": [{"id": 36968, "source": {"name": "Wikidata", "slug": "wikidata"}, "source_identifier": "Q121143837"}], "date_modified": "2023-09-06T02:19:53.571831+10:00"}, {"id": 27388, "name": "Andrew Davis", "roles_in_work": [{"id": 2350041, "title": "The Fugitive", "work_id": 85414, "role": "director", "role_id": 938, "is_primary": true}], "also_known_as": "", "date_of_birth": "1946-11-21", "date_of_death": null, "genders": [{"id": 9, "name": "Male", "slug": "male"}], "languages": [{"id": 1, "name": "English", "slug": "english"}], "places_of_operation": [{"id": 1, "name": "United States of America", "slug": "united-states-of-america"}], "biography": "Andrew Davis (born November 21, 1946) is an American film director, producer, writer, and cinematographer who is known for directing a number of successful action thrillers including Code of Silence, Above the Law, Under Siege, and The Fugitive.", "biography_author": "Wikidata", "date_of_biography": "2022-05-19T10:49:09.184445+10:00", "external_links": [{"id": 1643, "uri": "https://en.wikipedia.org/wiki/Andrew_Davis_(director)"}], "uuid": "567a4ab5-64ae-47d2-b745-190321252039", "source": {"name": "Vernon", "slug": "vernon"}, "source_identifier": "15152", "external_references": [{"id": 7173, "source": {"name": "Wikidata", "slug": "wikidata"}, "source_identifier": "Q504461"}, {"id": 7174, "source": {"name": "VIAF", "slug": "viaf"}, "source_identifier": "24801042"}, {"id": 7175, "source": {"name": "LOC Auth", "slug": "loc-auth"}, "source_identifier": "n94006898"}, {"id": 7176, "source": {"name": "WorldCat", "slug": "worldcat"}, "source_identifier": "lccn-n94006898"}], "date_modified": "2023-09-13T12:28:11.612311+10:00"}, {"id": 27387, "name": "Patrick Markey", "roles_in_work": [{"id": 2615969, "title": "The Joy Luck Club", "work_id": 86496, "role": "co-producer", "role_id": 915, "is_primary": true}, {"id": 2474854, "title": "The Quick and the dead", "work_id": 91443, "role": "co-producer", "role_id": 915, "is_primary": true}], "also_known_as": "", "date_of_birth": null, "date_of_death": null, "genders": [{"id": 9, "name": "Male", "slug": "male"}], "languages": [], "places_of_operation": [{"id": 1, "name": "United States of America", "slug": "united-states-of-america"}], "biography": "Patrick Markey is an American film and television producer. He has also done production management and second unit directing work. He has worked with filmmakers such as Robert Redford and Sam Raimi. He is currently on the board of directors of the Dactyl Foundation.\n\n", "biography_author": "Wikidata", "date_of_biography": "2022-05-19T12:38:52.108961+10:00", "external_links": [{"id": 2820, "uri": "https://en.wikipedia.org/wiki/Patrick_Markey"}], "uuid": "ee236a8f-a34e-4f6b-beff-34785e40a1cc", "source": {"name": "Vernon", "slug": "vernon"}, "source_identifier": "26139", "external_references": [{"id": 12015, "source": {"name": "Wikidata", "slug": "wikidata"}, "source_identifier": "Q7147107"}], "date_modified": "2025-02-26T20:32:13.193566+11:00"}, {"id": 27386, "name": "Leonardo De La Fuerite", "roles_in_work": [{"id": 2344575, "title": "The Double life of Veronique = La Double vie de Veronique", "work_id": 85412, "role": "producer", "role_id": 1089, "is_primary": true}], "also_known_as": "", "date_of_birth": "", "date_of_death": "", "genders": [], "languages": [], "places_of_operation": [], "biography": "", "biography_author": null, "date_of_biography": "2023-05-09T19:44:54.429088+10:00", "external_links": [], "uuid": "545a46fe-65ff-421d-a053-9637ff3e743e", "source": {"name": "Vernon", "slug": "vernon"}, "source_identifier": "23727", "external_references": [{"id": 41506, "source": {"name": "Wikidata", "slug": "wikidata"}, "source_identifier": "Q121034902"}], "date_modified": "2023-09-05T22:20:45.013990+10:00"}, {"id": 27385, "name": "Sideral Productions", "roles_in_work": [{"id": 2344568, "title": "The Double life of Veronique = La Double vie de Veronique", "work_id": 85412, "role": "production company", "role_id": 941, "is_primary": true}], "also_known_as": "", "date_of_birth": "", "date_of_death": "", "genders": [], "languages": [], "places_of_operation": [], "biography": "", "biography_author": null, "date_of_biography": "2023-05-09T19:44:53.959535+10:00", "external_links": [], "uuid": "ff465eb8-e821-4e8d-a11f-4f625749e6f7", "source": {"name": "Vernon", "slug": "vernon"}, "source_identifier": "12567", "external_references": [{"id": 42030, "source": {"name": "Wikidata", "slug": "wikidata"}, "source_identifier": "Q121223572"}], "date_modified": "2023-09-06T01:18:10.402901+10:00"}, {"id": 27384, "name": "Gloria Swanson Pictures", "roles_in_work": [{"id": 2615412, "title": "Queen Kelly", "work_id": 85410, "role": "production company", "role_id": 941, "is_primary": true}], "also_known_as": "", "date_of_birth": "", "date_of_death": "", "genders": [], "languages": [], "places_of_operation": [], "biography": "", "biography_author": null, "date_of_biography": "2023-05-09T16:42:50.292070+10:00", "external_links": [], "uuid": "1d2c31bf-bc64-48e5-b07c-f2ad8e15a976", "source": {"name": "Vernon", "slug": "vernon"}, "source_identifier": "8757", "external_references": [], "date_modified": "2025-02-26T20:23:30.525411+11:00"}]}