{"count": 28682, "next": "https://api.acmi.net.au/creators/?page=382", "previous": "https://api.acmi.net.au/creators/?page=380", "results": [{"id": 81769, "name": "Barbara Wethey", "roles_in_work": [{"id": 2754538, "title": "Listen to us - the way we speak. Part 1", "work_id": 99249, "role": "producer/director", "role_id": 31, "is_primary": true}, {"id": 889277, "title": "Working together in the classroom; Supporting understanding", "work_id": 99265, "role": "producer/director", "role_id": 31, "is_primary": true}], "also_known_as": "", "date_of_birth": "", "date_of_death": "", "genders": [], "languages": [], "places_of_operation": [], "biography": "", "biography_author": null, "date_of_biography": "2023-08-11T19:32:03.702001+10:00", "external_links": [], "uuid": "c50d2cea-bef0-4683-9306-2efcce95d02e", "source": {"name": "Vernon", "slug": "vernon"}, "source_identifier": "15672", "external_references": [{"id": 50847, "source": {"name": "Wikidata", "slug": "wikidata"}, "source_identifier": "Q121361004"}], "date_modified": "2025-03-13T01:46:31.902356+11:00"}, {"id": 81768, "name": "Julie Shepherd", "roles_in_work": [{"id": 2754508, "title": "But what about spelling?", "work_id": 99236, "role": "co-producer", "role_id": 915, "is_primary": true}], "also_known_as": "", "date_of_birth": "", "date_of_death": "", "genders": [], "languages": [], "places_of_operation": [], "biography": "", "biography_author": null, "date_of_biography": "2023-05-09T13:14:55.799356+10:00", "external_links": [], "uuid": "7c316281-c166-4e2d-8c10-b258e1150a69", "source": {"name": "Vernon", "slug": "vernon"}, "source_identifier": "22912", "external_references": [{"id": 34822, "source": {"name": "Wikidata", "slug": "wikidata"}, "source_identifier": "Q121036267"}], "date_modified": "2025-03-13T01:45:56.589710+11:00"}, {"id": 81767, "name": "Chris Tibballs", "roles_in_work": [{"id": 2754507, "title": "But what about spelling?", "work_id": 99236, "role": "co-producer", "role_id": 915, "is_primary": true}], "also_known_as": "", "date_of_birth": "", "date_of_death": "", "genders": [], "languages": [], "places_of_operation": [], "biography": "", "biography_author": null, "date_of_biography": "2023-05-09T13:14:55.456857+10:00", "external_links": [], "uuid": "96750f2a-19da-4720-84cc-3420fb0f772a", "source": {"name": "Vernon", "slug": "vernon"}, "source_identifier": "16883", "external_references": [{"id": 36312, "source": {"name": "Wikidata", "slug": "wikidata"}, "source_identifier": "Q121079262"}], "date_modified": "2025-03-13T01:45:55.980147+11:00"}, {"id": 81766, "name": "Gary Gray", "roles_in_work": [{"id": 2754494, "title": "Look & book: arts & entertainment video directory", "work_id": 99229, "role": "co-producer", "role_id": 915, "is_primary": true}], "also_known_as": "", "date_of_birth": null, "date_of_death": null, "genders": [], "languages": [], "places_of_operation": [], "biography": "", "biography_author": null, "date_of_biography": null, "external_links": [], "uuid": "dbc31571-91f2-4329-a1e0-03098d643fe6", "source": {"name": "Vernon", "slug": "vernon"}, "source_identifier": "19405", "external_references": [{"id": 36367, "source": {"name": "Wikidata", "slug": "wikidata"}, "source_identifier": "Q121036675"}], "date_modified": "2025-03-13T01:45:47.181083+11:00"}, {"id": 81765, "name": "Irene Krumins", "roles_in_work": [{"id": 2754493, "title": "Look & book: arts & entertainment video directory", "work_id": 99229, "role": "co-producer", "role_id": 915, "is_primary": true}], "also_known_as": "", "date_of_birth": null, "date_of_death": null, "genders": [], "languages": [], "places_of_operation": [], "biography": "", "biography_author": null, "date_of_biography": null, "external_links": [], "uuid": "3842b072-f8e8-444d-b402-42360ca2cfab", "source": {"name": "Vernon", "slug": "vernon"}, "source_identifier": "20857", "external_references": [{"id": 34425, "source": {"name": "Wikidata", "slug": "wikidata"}, "source_identifier": "Q121299237"}], "date_modified": "2025-03-13T01:45:46.579796+11:00"}, {"id": 81764, "name": "Suzanne Cecil-Fizdale", "roles_in_work": [{"id": 2754435, "title": "Project out of school: planning a quality service", "work_id": 99202, "role": "co-producer", "role_id": 915, "is_primary": true}], "also_known_as": "", "date_of_birth": "", "date_of_death": "", "genders": [], "languages": [], "places_of_operation": [], "biography": "", "biography_author": null, "date_of_biography": "2023-05-09T16:36:42.724542+10:00", "external_links": [], "uuid": "346bef70-bb46-40e7-a34b-39830e39e95c", "source": {"name": "Vernon", "slug": "vernon"}, "source_identifier": "29386", "external_references": [{"id": 40201, "source": {"name": "Wikidata", "slug": "wikidata"}, "source_identifier": "Q121036937"}], "date_modified": "2025-03-13T01:45:07.087199+11:00"}, {"id": 81763, "name": "Maryla Juchnowski", "roles_in_work": [{"id": 2754434, "title": "Project out of school: planning a quality service", "work_id": 99202, "role": "co-producer", "role_id": 915, "is_primary": true}], "also_known_as": "", "date_of_birth": "", "date_of_death": "", "genders": [], "languages": [], "places_of_operation": [], "biography": "", "biography_author": null, "date_of_biography": "2023-05-09T16:36:42.484099+10:00", "external_links": [], "uuid": "7ed72b71-12f7-4a53-ae66-4e491de7cee3", "source": {"name": "Vernon", "slug": "vernon"}, "source_identifier": "24745", "external_references": [{"id": 41971, "source": {"name": "Wikidata", "slug": "wikidata"}, "source_identifier": "Q121036241"}], "date_modified": "2025-03-13T01:45:06.492017+11:00"}, {"id": 81762, "name": "Joanne Parrent", "roles_in_work": [{"id": 2754420, "title": "AIDS", "work_id": 99193, "role": "producer/director", "role_id": 31, "is_primary": true}], "also_known_as": "", "date_of_birth": "", "date_of_death": "", "genders": [], "languages": [], "places_of_operation": [], "biography": "", "biography_author": null, "date_of_biography": "2023-05-09T11:54:09.581593+10:00", "external_links": [], "uuid": "c8b1a043-c018-43b9-80f3-efd153e8610f", "source": {"name": "Vernon", "slug": "vernon"}, "source_identifier": "22007", "external_references": [{"id": 52151, "source": {"name": "Wikidata", "slug": "wikidata"}, "source_identifier": "Q121360622"}], "date_modified": "2025-03-13T01:43:36.672542+11:00"}, {"id": 81761, "name": "Dom Clausen", "roles_in_work": [{"id": 2754417, "title": "Ready or not", "work_id": 99192, "role": "co-producers/directors", "role_id": 628, "is_primary": true}], "also_known_as": "", "date_of_birth": "", "date_of_death": "", "genders": [], "languages": [], "places_of_operation": [], "biography": "", "biography_author": null, "date_of_biography": "2023-05-09T16:47:30.188053+10:00", "external_links": [], "uuid": "0c0aa1db-96b4-44f8-9b23-76e15c4983bf", "source": {"name": "Vernon", "slug": "vernon"}, "source_identifier": "18170", "external_references": [], "date_modified": "2025-03-13T01:43:32.458173+11:00"}, {"id": 81760, "name": "Marilyn Woolley", "roles_in_work": [{"id": 2754404, "title": "Celebrating whole language", "work_id": 99188, "role": "co-producer", "role_id": 915, "is_primary": true}], "also_known_as": "", "date_of_birth": "", "date_of_death": "", "genders": [], "languages": [], "places_of_operation": [], "biography": "", "biography_author": null, "date_of_biography": "2023-05-09T13:23:33.546960+10:00", "external_links": [], "uuid": "0f6f07a7-da00-42e2-b4b9-cdc99e43fc69", "source": {"name": "Vernon", "slug": "vernon"}, "source_identifier": "24423", "external_references": [{"id": 39780, "source": {"name": "Wikidata", "slug": "wikidata"}, "source_identifier": "Q121036328"}], "date_modified": "2025-03-13T01:43:16.093835+11:00"}]}