{"count": 28687, "next": "https://api.acmi.net.au/creators/?page=1827", "previous": "https://api.acmi.net.au/creators/?page=1825", "results": [{"id": 25837, "name": "Miklos Szinetar", "roles_in_work": [{"id": 2121399, "title": "Bluebeard's castle", "work_id": 83719, "role": "director", "role_id": 938, "is_primary": true}], "also_known_as": "", "date_of_birth": "", "date_of_death": "", "genders": [], "languages": [], "places_of_operation": [], "biography": "", "biography_author": null, "date_of_biography": "2023-05-09T13:04:27.547007+10:00", "external_links": [], "uuid": "a9d0e8db-b727-439c-844f-8b6edc52c03f", "source": {"name": "Vernon", "slug": "vernon"}, "source_identifier": "25418", "external_references": [], "date_modified": "2023-06-14T16:33:30.576250+10:00"}, {"id": 25834, "name": "Horant H. Hohlfeld", "roles_in_work": [{"id": 2260868, "title": "Salome", "work_id": 83718, "role": "producer", "role_id": 1089, "is_primary": true}], "also_known_as": "", "date_of_birth": "1938-01-01", "date_of_death": "", "genders": [{"id": 9, "name": "Male", "slug": "male"}], "languages": [], "places_of_operation": [], "biography": "", "biography_author": null, "date_of_biography": "2023-05-09T17:28:49.567763+10:00", "external_links": [], "uuid": "985a1ea2-b7c6-4e57-b0ea-55dee4fc81f6", "source": {"name": "Vernon", "slug": "vernon"}, "source_identifier": "20595", "external_references": [{"id": 32775, "source": {"name": "Wikidata", "slug": "wikidata"}, "source_identifier": "Q106712854"}, {"id": 54678, "source": {"name": "VIAF", "slug": "viaf"}, "source_identifier": "64213205"}, {"id": 54679, "source": {"name": "LOC Auth", "slug": "loc-auth"}, "source_identifier": "no96065496"}], "date_modified": "2023-09-05T20:41:00.125916+10:00"}, {"id": 25833, "name": "Petr Weigl", "roles_in_work": [{"id": 2295078, "title": "The Turn of the screw", "work_id": 83717, "role": "director", "role_id": 938, "is_primary": true}], "also_known_as": "", "date_of_birth": "1939-03-16", "date_of_death": "2018-07-14", "genders": [{"id": 9, "name": "Male", "slug": "male"}], "languages": [{"id": 20, "name": "Czech", "slug": "czech"}], "places_of_operation": [{"id": 55, "name": "Czechoslovakia", "slug": "czechoslovakia"}], "biography": "Petr Weigl (16 March 1939 – 14 July 2018) was a Czech director and playwright.", "biography_author": "Wikidata", "date_of_biography": "2023-08-01T16:36:41.143537+10:00", "external_links": [{"id": 4904, "uri": "https://en.wikipedia.org/wiki/Petr_Weigl"}], "uuid": "4c945f68-00c8-4734-8741-00e17a96bf75", "source": {"name": "Vernon", "slug": "vernon"}, "source_identifier": "26767", "external_references": [{"id": 25977, "source": {"name": "Wikidata", "slug": "wikidata"}, "source_identifier": "Q1281563"}, {"id": 30855, "source": {"name": "VIAF", "slug": "viaf"}, "source_identifier": "84020204"}, {"id": 30856, "source": {"name": "LOC Auth", "slug": "loc-auth"}, "source_identifier": "n94026037"}, {"id": 30857, "source": {"name": "WorldCat", "slug": "worldcat"}, "source_identifier": "lccn-n94026037"}], "date_modified": "2023-09-06T00:02:47.089717+10:00"}, {"id": 25831, "name": "Zdenek Oves", "roles_in_work": [{"id": 2295067, "title": "The Turn of the screw", "work_id": 83717, "role": "co-producer", "role_id": 915, "is_primary": true}, {"id": 1997432, "title": "Closely observed trains = Ostre sledovane vlaky [NTSC]", "work_id": 93318, "role": "producer", "role_id": 1089, "is_primary": true}, {"id": 2140074, "title": "Closely observed trains = Ostre sledovane vlaky", "work_id": 87469, "role": "producer", "role_id": 1089, "is_primary": true}], "also_known_as": "", "date_of_birth": "", "date_of_death": "", "genders": [], "languages": [], "places_of_operation": [], "biography": "", "biography_author": null, "date_of_biography": "2023-05-09T18:25:50.434452+10:00", "external_links": [], "uuid": "30153e80-1e42-4ee5-a0e8-c0dd7a53a9cf", "source": {"name": "Vernon", "slug": "vernon"}, "source_identifier": "30666", "external_references": [{"id": 42367, "source": {"name": "Wikidata", "slug": "wikidata"}, "source_identifier": "Q95862447"}], "date_modified": "2023-09-06T02:25:33.584232+10:00"}, {"id": 25830, "name": "Fernseh produktiongesellschaft", "roles_in_work": [{"id": 2295065, "title": "The Turn of the screw", "work_id": 83717, "role": "production company", "role_id": 941, "is_primary": true}], "also_known_as": "", "date_of_birth": "", "date_of_death": "", "genders": [], "languages": [], "places_of_operation": [], "biography": "", "biography_author": null, "date_of_biography": "2023-05-09T18:25:50.187574+10:00", "external_links": [], "uuid": "d3201934-7396-4673-9a55-dd83592203f1", "source": {"name": "Vernon", "slug": "vernon"}, "source_identifier": "8147", "external_references": [{"id": 37389, "source": {"name": "Wikidata", "slug": "wikidata"}, "source_identifier": "Q121086219"}], "date_modified": "2023-09-05T19:42:29.971334+10:00"}, {"id": 25829, "name": "Jim Goddard", "roles_in_work": [{"id": 2247196, "title": "Reilly: ace of spies: an affair with a married woman", "work_id": 83716, "role": "director", "role_id": 938, "is_primary": true}], "also_known_as": "", "date_of_birth": "", "date_of_death": "", "genders": [], "languages": [], "places_of_operation": [], "biography": "", "biography_author": null, "date_of_biography": "2023-05-09T17:05:07.528566+10:00", "external_links": [], "uuid": "d3431ad5-8305-46de-8594-24c3a537c2c7", "source": {"name": "Vernon", "slug": "vernon"}, "source_identifier": "21882", "external_references": [{"id": 42162, "source": {"name": "Wikidata", "slug": "wikidata"}, "source_identifier": "Q121126405"}], "date_modified": "2023-09-05T21:24:46.303224+10:00"}, {"id": 25828, "name": "Chris Burt", "roles_in_work": [{"id": 2247193, "title": "Reilly: ace of spies: an affair with a married woman", "work_id": 83716, "role": "producer", "role_id": 1089, "is_primary": true}, {"id": 1847960, "title": "Goodnight Mister Tom", "work_id": 89820, "role": "producer", "role_id": 1089, "is_primary": true}], "also_known_as": "", "date_of_birth": "", "date_of_death": "", "genders": [], "languages": [], "places_of_operation": [], "biography": "", "biography_author": null, "date_of_biography": "2023-05-09T17:05:07.295920+10:00", "external_links": [], "uuid": "4957f023-1503-4c1d-b060-2d7c10de3bb0", "source": {"name": "Vernon", "slug": "vernon"}, "source_identifier": "16811", "external_references": [{"id": 51776, "source": {"name": "Wikidata", "slug": "wikidata"}, "source_identifier": "Q121357438"}], "date_modified": "2023-09-05T18:31:30.934148+10:00"}, {"id": 25827, "name": "Simon Langton", "roles_in_work": [{"id": 2229005, "title": "Pride and prejudice. Parts 1 & 2", "work_id": 85021, "role": "director", "role_id": 938, "is_primary": true}, {"id": 2496405, "title": "The Whistle blower", "work_id": 91794, "role": "director", "role_id": 938, "is_primary": true}, {"id": 2303530, "title": "Smiley's people", "work_id": 83714, "role": "director", "role_id": 938, "is_primary": true}], "also_known_as": "", "date_of_birth": "05 NOV 1941", "date_of_death": "", "genders": [{"id": 9, "name": "Male", "slug": "male"}], "languages": [{"id": 1, "name": "English", "slug": "english"}], "places_of_operation": [{"id": 10, "name": "United Kingdom", "slug": "united-kingdom"}], "biography": "Simon Langton (born 5 November 1941 in Amersham, Buckinghamshire) is an English television director and producer. He is the son of David Langton, the actor who played Richard Bellamy in Upstairs, Downstairs.After he had directed many TV drama series and serials during the 1970s, his version of the John le Carré novel Smiley's People (1982, adapted by John Hopkins) was nominated for both a BAFTA Award in the UK, and an Emmy Award in the US. He also received a BAFTA nomination for the series Mother Love (1989), starring Diana Rigg.He is perhaps best known for directing the adaptation of Pride and Prejudice (1995) starring Colin Firth and Jennifer Ehle, for which he was again nominated for a BAFTA. He directed episodes of Rosemary and Thyme and Midsomer Murders. Source: Wikidata; 01/08/2023", "biography_author": null, "date_of_biography": "2023-09-06T08:46:14.219667+10:00", "external_links": [{"id": 5172, "uri": "https://en.wikipedia.org/wiki/Simon_Langton_(television_director)"}], "uuid": "4a3268d3-8f8b-49e8-b321-170dc79f109c", "source": {"name": "Vernon", "slug": "vernon"}, "source_identifier": "28851", "external_references": [{"id": 26174, "source": {"name": "Wikidata", "slug": "wikidata"}, "source_identifier": "Q460080"}, {"id": 31556, "source": {"name": "VIAF", "slug": "viaf"}, "source_identifier": "81900013"}, {"id": 31557, "source": {"name": "LOC Auth", "slug": "loc-auth"}, "source_identifier": "no96029980"}, {"id": 31558, "source": {"name": "WorldCat", "slug": "worldcat"}, "source_identifier": "lccn-no96029980"}], "date_modified": "2023-09-06T08:46:14.219900+10:00"}, {"id": 25826, "name": "Jonathon Powell", "roles_in_work": [{"id": 2303527, "title": "Smiley's people", "work_id": 83714, "role": "producer", "role_id": 1089, "is_primary": true}], "also_known_as": "", "date_of_birth": "", "date_of_death": "", "genders": [], "languages": [], "places_of_operation": [], "biography": "", "biography_author": null, "date_of_biography": "2023-05-09T18:41:14.385891+10:00", "external_links": [], "uuid": "d649b6b8-f471-4caf-9356-baa3c0ca190d", "source": {"name": "Vernon", "slug": "vernon"}, "source_identifier": "22680", "external_references": [{"id": 38151, "source": {"name": "Wikidata", "slug": "wikidata"}, "source_identifier": "Q121223609"}], "date_modified": "2023-09-05T21:49:28.811074+10:00"}, {"id": 25825, "name": "Bruce Leonard", "roles_in_work": [{"id": 793374, "title": "Great Australian disasters of the 20th century", "work_id": 86514, "role": "director", "role_id": 938, "is_primary": true}, {"id": 2351762, "title": "The Golden days of Australian radio", "work_id": 83713, "role": "producer/director", "role_id": 31, "is_primary": true}], "also_known_as": "", "date_of_birth": "", "date_of_death": "", "genders": [], "languages": [], "places_of_operation": [], "biography": "", "biography_author": null, "date_of_biography": "2023-05-09T19:57:22.526169+10:00", "external_links": [], "uuid": "ade7f5a9-007a-4cb5-97dc-5a5fe37e435c", "source": {"name": "Vernon", "slug": "vernon"}, "source_identifier": "16318", "external_references": [{"id": 35055, "source": {"name": "Wikidata", "slug": "wikidata"}, "source_identifier": "Q121223334"}], "date_modified": "2023-09-05T18:13:11.041006+10:00"}]}