{"count": 28687, "next": "https://api.acmi.net.au/creators/?page=2465", "previous": "https://api.acmi.net.au/creators/?page=2463", "results": [{"id": 14347, "name": "John Burder", "roles_in_work": [{"id": 764440, "title": "Table tennis technique", "work_id": 77453, "role": "director", "role_id": 938, "is_primary": true}, {"id": 2716416, "title": "Injection errors", "work_id": 68945, "role": "director", "role_id": 938, "is_primary": true}, {"id": 861816, "title": "Battle of the bats", "work_id": 75807, "role": "director", "role_id": 938, "is_primary": true}, {"id": 2766490, "title": "Hearing", "work_id": 79651, "role": "director", "role_id": 938, "is_primary": true}, {"id": 2766476, "title": "Dermatitis", "work_id": 66705, "role": "director", "role_id": 938, "is_primary": true}, {"id": 2766485, "title": "Seeing", "work_id": 78928, "role": "director", "role_id": 938, "is_primary": true}], "also_known_as": "", "date_of_birth": null, "date_of_death": null, "genders": [], "languages": [], "places_of_operation": [], "biography": "", "biography_author": null, "date_of_biography": null, "external_links": [], "uuid": "9bb92154-0a75-42a5-92b3-38cdd2aba2ea", "source": {"name": "Vernon", "slug": "vernon"}, "source_identifier": "22151", "external_references": [], "date_modified": "2025-03-14T17:58:24.804167+11:00"}, {"id": 14346, "name": "Sorel Films", "roles_in_work": [{"id": 2766484, "title": "Seeing", "work_id": 78928, "role": "production company", "role_id": 941, "is_primary": true}, {"id": 2766475, "title": "Dermatitis", "work_id": 66705, "role": "production company", "role_id": 941, "is_primary": true}, {"id": 861815, "title": "Battle of the bats", "work_id": 75807, "role": "production company", "role_id": 941, "is_primary": true}, {"id": 764439, "title": "Table tennis technique", "work_id": 77453, "role": "production company", "role_id": 941, "is_primary": true}, {"id": 2760691, "title": "Film technique: editing. Parts 1 and 2", "work_id": 67506, "role": "production company", "role_id": 941, "is_primary": true}, {"id": 2716415, "title": "Injection errors", "work_id": 68945, "role": "production company", "role_id": 941, "is_primary": true}, {"id": 2766488, "title": "Hearing", "work_id": 79651, "role": "production company", "role_id": 941, "is_primary": true}], "also_known_as": "", "date_of_birth": "", "date_of_death": "", "genders": [], "languages": [], "places_of_operation": [], "biography": "", "biography_author": null, "date_of_biography": "2023-05-09T15:53:13.945019+10:00", "external_links": [], "uuid": "85e2d40d-538f-44e5-95f8-b6dc94ffa051", "source": {"name": "Vernon", "slug": "vernon"}, "source_identifier": "12755", "external_references": [], "date_modified": "2025-03-14T17:58:24.232877+11:00"}, {"id": 14345, "name": "Ruroy Sibley", "roles_in_work": [{"id": 2769063, "title": "The Milky way", "work_id": 84924, "role": "director", "role_id": 938, "is_primary": true}, {"id": 2769059, "title": "The Depths of space: exterior galaxies", "work_id": 66703, "role": "producer", "role_id": 1089, "is_primary": true}], "also_known_as": "", "date_of_birth": "", "date_of_death": "", "genders": [], "languages": [], "places_of_operation": [], "biography": "", "biography_author": null, "date_of_biography": "2023-08-14T11:23:07.464138+10:00", "external_links": [], "uuid": "b61e9541-86ab-4137-93a2-9b32d53f26b8", "source": {"name": "Vernon", "slug": "vernon"}, "source_identifier": "18442", "external_references": [], "date_modified": "2025-03-14T18:12:26.914984+11:00"}, {"id": 14344, "name": "Directions Unlimited Films", "roles_in_work": [{"id": 2711948, "title": "Blahs, blues and better days", "work_id": 66702, "role": "production company", "role_id": 941, "is_primary": true}, {"id": 860353, "title": "Violence and vandalism", "work_id": 74382, "role": "production company", "role_id": 941, "is_primary": true}], "also_known_as": "", "date_of_birth": null, "date_of_death": null, "genders": [], "languages": [], "places_of_operation": [], "biography": "", "biography_author": null, "date_of_biography": null, "external_links": [], "uuid": "732c83ca-55e8-451f-8771-326c7c782b10", "source": {"name": "Vernon", "slug": "vernon"}, "source_identifier": "7579", "external_references": [], "date_modified": "2025-03-12T00:07:15.498551+11:00"}, {"id": 14342, "name": "Douglas Rankin", "roles_in_work": [{"id": 2711940, "title": "Sportshort. No. 2. Denis Compton", "work_id": 66698, "role": "director", "role_id": 938, "is_primary": true}, {"id": 2711938, "title": "Sportshort. No. 2. Denis Compton", "work_id": 66698, "role": "co-producer", "role_id": 915, "is_primary": true}], "also_known_as": "", "date_of_birth": "", "date_of_death": "", "genders": [], "languages": [], "places_of_operation": [], "biography": "", "biography_author": null, "date_of_biography": "2023-05-09T18:47:52.031097+10:00", "external_links": [], "uuid": "ba9b6f71-6e5d-4648-965f-85b902437de4", "source": {"name": "Vernon", "slug": "vernon"}, "source_identifier": "18409", "external_references": [{"id": 38858, "source": {"name": "Wikidata", "slug": "wikidata"}, "source_identifier": "Q120304944"}], "date_modified": "2025-03-12T00:06:51.677280+11:00"}, {"id": 14341, "name": "Exclusive Films", "roles_in_work": [{"id": 802304, "title": "Fitness wins the game", "work_id": 89306, "role": "production company", "role_id": 941, "is_primary": true}, {"id": 904692, "title": "Beginners please", "work_id": 85524, "role": "production company", "role_id": 941, "is_primary": true}, {"id": 2711937, "title": "Sportshort. No. 2. Denis Compton", "work_id": 66698, "role": "production company", "role_id": 941, "is_primary": true}, {"id": 2712701, "title": "Eighteen girls and a horse", "work_id": 67052, "role": "production company", "role_id": 941, "is_primary": true}], "also_known_as": "", "date_of_birth": "", "date_of_death": "", "genders": [], "languages": [], "places_of_operation": [], "biography": "", "biography_author": null, "date_of_biography": "2023-05-09T18:47:51.083849+10:00", "external_links": [], "uuid": "8bb70684-f307-4e9f-93b4-e470297aa0c1", "source": {"name": "Vernon", "slug": "vernon"}, "source_identifier": "8025", "external_references": [{"id": 38467, "source": {"name": "Wikidata", "slug": "wikidata"}, "source_identifier": "Q121271144"}], "date_modified": "2025-03-12T00:29:12.613517+11:00"}, {"id": 14340, "name": "Preben Frank", "roles_in_work": [{"id": 2646613, "title": "Thorvaldsen: Denmark's great sculptor", "work_id": 73760, "role": "director", "role_id": 938, "is_primary": true}, {"id": 2711936, "title": "Denmark", "work_id": 66697, "role": "producer", "role_id": 1089, "is_primary": true}], "also_known_as": "", "date_of_birth": "", "date_of_death": "", "genders": [], "languages": [], "places_of_operation": [], "biography": "", "biography_author": null, "date_of_biography": "2023-08-11T16:03:57.842533+10:00", "external_links": [], "uuid": "ead4bd34-56b3-421c-bc0f-b7ca801655e5", "source": {"name": "Vernon", "slug": "vernon"}, "source_identifier": "26981", "external_references": [], "date_modified": "2025-03-12T00:06:42.655221+11:00"}, {"id": 14339, "name": "Government Film Committee of Denmark", "roles_in_work": [{"id": 2715685, "title": "Horse on holiday", "work_id": 68554, "role": "production company", "role_id": 941, "is_primary": true}, {"id": 2711935, "title": "Denmark: [Paul Henningsen]", "work_id": 66696, "role": "production company", "role_id": 941, "is_primary": true}, {"id": 877566, "title": "Where mountains float: A Greenland story", "work_id": 90762, "role": "production company", "role_id": 941, "is_primary": true}, {"id": 753215, "title": "Shaped By Danish hands", "work_id": 72730, "role": "production company", "role_id": 941, "is_primary": true}, {"id": 862461, "title": "Somethin' about Scandanavia: as told by a Danish boy", "work_id": 76312, "role": "production company", "role_id": 941, "is_primary": true}], "also_known_as": "", "date_of_birth": "", "date_of_death": "", "genders": [], "languages": [], "places_of_operation": [], "biography": "", "biography_author": null, "date_of_biography": "2023-08-11T16:04:02.150551+10:00", "external_links": [], "uuid": "88f2e523-a388-4acf-98c2-232c1bcef22e", "source": {"name": "Vernon", "slug": "vernon"}, "source_identifier": "4427", "external_references": [], "date_modified": "2025-03-12T01:40:29.513860+11:00"}, {"id": 14338, "name": "Coburg Teachers' College Film-making Elective", "roles_in_work": [{"id": 2711934, "title": "A Demonstration of basic film techniques", "work_id": 66695, "role": "production company", "role_id": 941, "is_primary": true}], "also_known_as": "", "date_of_birth": "", "date_of_death": "", "genders": [], "languages": [], "places_of_operation": [], "biography": "", "biography_author": null, "date_of_biography": "2023-07-05T03:46:31.258347+10:00", "external_links": [], "uuid": "51bf2eba-76cd-40e7-ae78-fa962ee55923", "source": {"name": "Vernon", "slug": "vernon"}, "source_identifier": "6858", "external_references": [{"id": 40499, "source": {"name": "Wikidata", "slug": "wikidata"}, "source_identifier": "Q121034645"}], "date_modified": "2025-03-12T00:06:29.427187+11:00"}, {"id": 14336, "name": "Tim Kiley", "roles_in_work": [{"id": 2711925, "title": "The Delinquent, the hipster and the square", "work_id": 66689, "role": "director", "role_id": 938, "is_primary": true}], "also_known_as": "", "date_of_birth": null, "date_of_death": null, "genders": [], "languages": [], "places_of_operation": [], "biography": "", "biography_author": null, "date_of_biography": null, "external_links": [], "uuid": "a4e0ba4d-02f4-414c-9b47-804e76dac10f", "source": {"name": "Vernon", "slug": "vernon"}, "source_identifier": "29742", "external_references": [], "date_modified": "2025-03-12T00:06:18.868199+11:00"}]}