{"count": 28687, "next": "https://api.acmi.net.au/creators/?page=876", "previous": "https://api.acmi.net.au/creators/?page=874", "results": [{"id": 76832, "name": "Robert Surtees", "roles_in_work": [{"id": 2476424, "title": "Oklahoma!", "work_id": 81198, "role": "director of photography", "role_id": 925, "is_primary": false}], "also_known_as": "", "date_of_birth": "", "date_of_death": "", "genders": [], "languages": [], "places_of_operation": [], "biography": "", "biography_author": null, "date_of_biography": "2023-08-17T15:36:29.271780+10:00", "external_links": [], "uuid": "c7ed2828-8433-4857-a1c9-5a561a402ab4", "source": {"name": "Vernon", "slug": "vernon"}, "source_identifier": "38198", "external_references": [], "date_modified": "2023-08-17T15:36:29.271986+10:00"}, {"id": 76831, "name": "Diana Manson", "roles_in_work": [{"id": 1807818, "title": "The Pack of women", "work_id": 81197, "role": "producer", "role_id": 1089, "is_primary": true}], "also_known_as": "", "date_of_birth": null, "date_of_death": null, "genders": [], "languages": [], "places_of_operation": [], "biography": "", "biography_author": null, "date_of_biography": null, "external_links": [], "uuid": "c687d6d1-0a9f-4bab-995b-d36eda8bbfa1", "source": {"name": "Vernon", "slug": "vernon"}, "source_identifier": null, "external_references": [{"id": 32974, "source": {"name": "Wikidata", "slug": "wikidata"}, "source_identifier": "Q121035067"}], "date_modified": "2023-09-05T19:10:51.739007+10:00"}, {"id": 76830, "name": "Judy Garland", "roles_in_work": [{"id": 2213460, "title": "Easter parade", "work_id": 81196, "role": "cast", "role_id": 33, "is_primary": false}, {"id": 1986918, "title": "Judgment at Nuremberg", "work_id": 83107, "role": "cast", "role_id": 33, "is_primary": false}], "also_known_as": "Frances Ethel Gumm", "date_of_birth": "1922-06-10", "date_of_death": "1969-06-22", "genders": [{"id": 5, "name": "Female", "slug": "female"}], "languages": [{"id": 1, "name": "English", "slug": "english"}], "places_of_operation": [{"id": 1, "name": "United States of America", "slug": "united-states-of-america"}], "biography": "Judy Garland (born Frances Ethel Gumm; June 10, 1922 – June 22, 1969) was an American actress, singer, dancer, and vaudevillian. While critically acclaimed for many different roles throughout her career, she is widely known for playing the part of Dorothy Gale in The Wizard of Oz (1939). She attained international stardom as an actress in both musical and dramatic roles, as a recording artist, and on the concert stage. Renowned for her versatility, she received an Academy Juvenile Award, a Golden Globe Award, and a Special Tony Award. Garland was the first woman to win the Grammy Award for Album of the Year, which she won for her 1961 live recording titled Judy at Carnegie Hall.Garland began performing as a child with her two older sisters, in a vaudeville group \"The Gumm Sisters\" and was later signed to Metro-Goldwyn-Mayer as a teenager. She appeared in more than two dozen films for MGM. Garland was a frequent on-screen partner of both Mickey Rooney and Gene Kelly and regularly collaborated with director and second husband Vincente Minnelli. Other starring roles during this period included Meet Me in St. Louis (1944), The Harvey Girls (1946), Easter Parade (1948), and Summer Stock (1950). In 1950, after 15 years with MGM, the studio released her amid a series of personal struggles that prevented her from fulfilling the terms of her contract.\nAlthough her film career became intermittent thereafter, two of Garland's most critically acclaimed roles came later in her career: she received a nomination for the Academy Award for Best Actress for her performance in A Star Is Born (1954) and a nomination for Best Supporting Actress for her performance in Judgment at Nuremberg (1961). She also made record-breaking concert appearances, released eight studio albums and hosted her own Emmy-nominated television series, The Judy Garland Show (1963–1964). At age 39, Garland became the youngest and first female recipient of the Cecil B. DeMille Award for lifetime achievement in the film industry. In 1997, Garland was posthumously awarded the Grammy Lifetime Achievement Award. Several of her recordings have been inducted into the Grammy Hall of Fame and in 1999, the American Film Institute ranked her as the eighth-greatest female screen legend of classic Hollywood cinema.Garland struggled in her personal life from an early age. The pressures of early stardom affected her physical and mental health from the time she was a teenager; her self-image was influenced by constant criticism from film executives who believed that she was physically unattractive and who manipulated her onscreen physical appearance. Throughout her adulthood she abused drugs and alcohol. She had financial troubles, often owing hundreds of thousands of dollars in back taxes. Her lifelong substance use disorder ultimately led to her death from an accidental barbiturate overdose in 1969, at age 47.\n\n", "biography_author": "Wikidata", "date_of_biography": "2023-08-01T15:44:29.236121+10:00", "external_links": [{"id": 4448, "uri": "https://en.wikipedia.org/wiki/Judy_Garland"}], "uuid": "39d40b08-9658-4910-a873-ce891b93487b", "source": {"name": "Vernon", "slug": "vernon"}, "source_identifier": "33490", "external_references": [{"id": 26633, "source": {"name": "Wikidata", "slug": "wikidata"}, "source_identifier": "Q11637"}, {"id": 29685, "source": {"name": "VIAF", "slug": "viaf"}, "source_identifier": "49233610"}, {"id": 29686, "source": {"name": "LOC Auth", "slug": "loc-auth"}, "source_identifier": "n50015080"}, {"id": 29687, "source": {"name": "WorldCat", "slug": "worldcat"}, "source_identifier": "lccn-n50015080"}], "date_modified": "2023-09-05T21:53:51.582964+10:00"}, {"id": 76829, "name": "Charles Walters", "roles_in_work": [{"id": 774926, "title": "High society", "work_id": 81295, "role": "director", "role_id": 938, "is_primary": true}, {"id": 2213455, "title": "Easter parade", "work_id": 81196, "role": "director", "role_id": 938, "is_primary": true}, {"id": 2330136, "title": "The Belle of New York", "work_id": 95599, "role": "director", "role_id": 938, "is_primary": true}, {"id": 781072, "title": "High society (Captioned)", "work_id": 83047, "role": "director", "role_id": 938, "is_primary": true}], "also_known_as": "", "date_of_birth": "1911-11-17", "date_of_death": "1982-08-13", "genders": [{"id": 9, "name": "Male", "slug": "male"}], "languages": [{"id": 1, "name": "English", "slug": "english"}], "places_of_operation": [{"id": 1, "name": "United States of America", "slug": "united-states-of-america"}], "biography": "Charles Powell Walters (November 17, 1911 – August 13, 1982) was an American Hollywood director and choreographer most noted for his work in MGM musicals and comedies from the 1940s to the 1960s.", "biography_author": "Wikidata", "date_of_biography": "2023-08-01T14:24:08.884934+10:00", "external_links": [{"id": 1804, "uri": "https://en.wikipedia.org/wiki/Charles_Walters"}], "uuid": "840bddef-4364-4524-87f9-f927d16ffa0a", "source": {"name": "Vernon", "slug": "vernon"}, "source_identifier": "16742", "external_references": [{"id": 7857, "source": {"name": "Wikidata", "slug": "wikidata"}, "source_identifier": "Q953753"}, {"id": 7858, "source": {"name": "VIAF", "slug": "viaf"}, "source_identifier": "114910681"}, {"id": 7859, "source": {"name": "LOC Auth", "slug": "loc-auth"}, "source_identifier": "n85376576"}, {"id": 7860, "source": {"name": "WorldCat", "slug": "worldcat"}, "source_identifier": "lccn-n85376576"}], "date_modified": "2023-09-05T18:28:49.753838+10:00"}, {"id": 76828, "name": "Kendrick Simmons", "roles_in_work": [{"id": 2262369, "title": "Satchmo", "work_id": 81191, "role": "co-director", "role_id": 959, "is_primary": true}], "also_known_as": "", "date_of_birth": "", "date_of_death": "", "genders": [], "languages": [], "places_of_operation": [], "biography": "", "biography_author": null, "date_of_biography": "2023-05-09T17:30:55.580846+10:00", "external_links": [], "uuid": "9bee25b2-3d6c-431b-836b-a83e4d200c67", "source": {"name": "Vernon", "slug": "vernon"}, "source_identifier": "23228", "external_references": [{"id": 40786, "source": {"name": "Wikidata", "slug": "wikidata"}, "source_identifier": "Q121091023"}], "date_modified": "2023-09-05T22:05:13.231140+10:00"}, {"id": 76827, "name": "Gary Giddins", "roles_in_work": [{"id": 2262364, "title": "Satchmo", "work_id": 81191, "role": "co-director", "role_id": 959, "is_primary": true}], "also_known_as": "", "date_of_birth": "", "date_of_death": "", "genders": [], "languages": [], "places_of_operation": [], "biography": "", "biography_author": null, "date_of_biography": "2023-05-09T17:30:55.347777+10:00", "external_links": [], "uuid": "044dd016-f35e-490c-ae26-3a284c714c5a", "source": {"name": "Vernon", "slug": "vernon"}, "source_identifier": "19401", "external_references": [{"id": 36460, "source": {"name": "Wikidata", "slug": "wikidata"}, "source_identifier": "Q121036933"}], "date_modified": "2023-09-05T19:57:44.014573+10:00"}, {"id": 76826, "name": "Malcolm Leo", "roles_in_work": [{"id": 2781248, "title": "The Post-war era", "work_id": 97327, "role": "co-producer", "role_id": 915, "is_primary": true}, {"id": 2252464, "title": "Rolling Stone: 20 Years of Rock N' Roll", "work_id": 81188, "role": "producer/director", "role_id": 31, "is_primary": true}], "also_known_as": "", "date_of_birth": "", "date_of_death": "", "genders": [], "languages": [], "places_of_operation": [], "biography": "", "biography_author": null, "date_of_biography": "2023-05-09T17:13:12.418437+10:00", "external_links": [], "uuid": "bed81561-6e22-42a0-99e2-ea454eb65647", "source": {"name": "Vernon", "slug": "vernon"}, "source_identifier": "24224", "external_references": [{"id": 35290, "source": {"name": "Wikidata", "slug": "wikidata"}, "source_identifier": "Q121222619"}], "date_modified": "2025-03-14T19:08:42.068472+11:00"}, {"id": 76825, "name": "Kinetic Films", "roles_in_work": [{"id": 2311029, "title": "Still killing us softly", "work_id": 81187, "role": "distributor", "role_id": 437, "is_primary": false}], "also_known_as": "", "date_of_birth": "", "date_of_death": "", "genders": [], "languages": [], "places_of_operation": [], "biography": "", "biography_author": null, "date_of_biography": "2023-05-09T18:56:33.978173+10:00", "external_links": [], "uuid": "f9bfb44d-11bf-4d6c-a565-f718a900d200", "source": {"name": "Vernon", "slug": "vernon"}, "source_identifier": "30731", "external_references": [], "date_modified": "2023-06-14T16:33:30.576250+10:00"}, {"id": 76824, "name": "Debbie Reynolds", "roles_in_work": [{"id": 1985263, "title": "How the West was won", "work_id": 81186, "role": "cast", "role_id": 33, "is_primary": false}], "also_known_as": "Mary Frances Reynolds", "date_of_birth": "1932-04-01", "date_of_death": "2016-12-28", "genders": [{"id": 5, "name": "Female", "slug": "female"}], "languages": [{"id": 1, "name": "English", "slug": "english"}], "places_of_operation": [{"id": 1, "name": "United States of America", "slug": "united-states-of-america"}], "biography": "Mary Frances \"Debbie\" Reynolds (April 1, 1932 – December 28, 2016) was an American actress, singer, and businesswoman. Her career spanned almost 70 years. She was nominated for a Golden Globe Award for Most Promising Newcomer with her portrayal of Helen Kane in the 1950 film Three Little Words. Her breakout role was her first leading role, as Kathy Selden in Singin' in the Rain (1952). Her other successes include The Affairs of Dobie Gillis (1953), Susan Slept Here (1954), Bundle of Joy (1956 Golden Globe nomination), The Catered Affair (1956 National Board of Review Best Supporting Actress Winner), and Tammy and the Bachelor (1957), in which her performance of the song \"Tammy\" topped the Billboard music charts. In 1959, she starred in The Mating Game (with Tony Randall) and released her first pop music album, titled Debbie.She starred with Gene Kelly in Singin' in the Rain (1952), How the West Was Won (1962), and The Unsinkable Molly Brown (1964), a biographical film about the famously boisterous Titanic passenger Margaret \"Molly\" Brown. Her performance as Brown earned her a nomination for the Academy Award for Best Actress. Some of Reynolds' other films include The Singing Nun (1966), Divorce American Style (1967), What's the Matter with Helen? (1971), Charlotte's Web (1973), Mother (1996; Golden Globe nomination) and In & Out (1997). Reynolds was also known as a cabaret performer; in 1979, she opened the Debbie Reynolds Dance Studio in North Hollywood, which was eventually demolished in 2019. The building would go on to be sold at auction, despite efforts to turn it into a museum.In 1969, Reynolds starred in a self-titled television program, The Debbie Reynolds Show, earning her a Golden Globe nomination. In 1973, she starred in the Broadway revival of the musical Irene, which earned her a Tony Award nomination for \"Best Leading Actress in a Musical\". She was also nominated for a Daytime Emmy Award for her performance in A Gift of Love (1999). After appearing in the popular early-2000s sitcom Will & Grace, Reynolds was nominated for a Primetime Emmy Award for \"Outstanding Guest Actress in a Comedy Series\" for her role of Bobbi (the lead character Grace Adler's mother).\nAlso around the turn of the millennium, Reynolds reached a new, younger audience with her role as Aggie Cromwell in Disney's Halloweentown series. In 1988, she published her autobiography titled Debbie: My Life; in 2013, she released a second autobiography, titled Unsinkable: A Memoir.Reynolds also had several business ventures (besides the ownership of her dance studio), including a Las Vegas hotel and casino; she was also an avid collector of film memorabilia, beginning with items purchased at the landmark 1970 MGM Auction. She served as president of The Thalians, an organization dedicated to mental health causes. Reynolds continued to successfully perform on stage, television, and in films into her 80s. In January 2015, she received the Screen Actors Guild Life Achievement Award. In 2016, she received the Jean Hersholt Humanitarian Award. In the same year, a documentary about her life was released, titled Bright Lights: Starring Carrie Fisher and Debbie Reynolds—which would be her final film appearance; the film premiered on HBO on January 7, 2017.Reynolds died following a hemorrhagic stroke on December 28, 2016, one day after the death of her daughter, actress Carrie Fisher.", "biography_author": "Wikidata", "date_of_biography": "2023-09-05T19:05:17.373483+10:00", "external_links": [{"id": 5772, "uri": "https://en.wikipedia.org/wiki/Debbie_Reynolds"}], "uuid": "2f22e5d2-5eb6-4c89-b22d-a6ca88e87b2a", "source": {"name": "Vernon", "slug": "vernon"}, "source_identifier": null, "external_references": [{"id": 33179, "source": {"name": "Wikidata", "slug": "wikidata"}, "source_identifier": "Q263696"}, {"id": 54294, "source": {"name": "VIAF", "slug": "viaf"}, "source_identifier": "85113006"}, {"id": 54295, "source": {"name": "LOC Auth", "slug": "loc-auth"}, "source_identifier": "n84167001"}, {"id": 54296, "source": {"name": "WorldCat", "slug": "worldcat"}, "source_identifier": "lccn-n84167001"}], "date_modified": "2023-09-05T19:05:22.432499+10:00"}, {"id": 76823, "name": "John Wayne", "roles_in_work": [{"id": 1985259, "title": "How the West was won", "work_id": 81186, "role": "cast", "role_id": 33, "is_primary": false}, {"id": 2352558, "title": "The Green berets", "work_id": 90472, "role": "co-director", "role_id": 959, "is_primary": true}, {"id": 2352592, "title": "The Green berets (Captioned)", "work_id": 85032, "role": "co-director", "role_id": 959, "is_primary": true}, {"id": 2120513, "title": "Blood alley", "work_id": 88467, "role": "producer", "role_id": 1089, "is_primary": true}, {"id": 2327055, "title": "The Alamo (Captioned)", "work_id": 85031, "role": "producer/director", "role_id": 31, "is_primary": true}], "also_known_as": "Marion Robert Morrison", "date_of_birth": "1907-05-26", "date_of_death": "1979-06-11", "genders": [{"id": 9, "name": "Male", "slug": "male"}], "languages": [{"id": 1, "name": "English", "slug": "english"}], "places_of_operation": [{"id": 1, "name": "United States of America", "slug": "united-states-of-america"}], "biography": "Marion Robert Morrison (May 26, 1907 – June 11, 1979), professionally known as John Wayne and nicknamed The Duke or Duke Wayne, was an American actor who became a popular icon through his starring roles in films which were produced during Hollywood's Golden Age, especially through his starring roles in Western and war movies. His career flourished from the silent era of the 1920s through the American New Wave, as he appeared in a total of 179 film and television productions. He was among the top box-office draws for three decades, and he appeared with many other important Hollywood stars of his era. In 1999, the American Film Institute selected Wayne as one of the greatest male stars of classic American cinema.Wayne was born in Winterset, Iowa, but he grew up in Southern California. After losing his football scholarship to the University of Southern California from a bodysurfing accident, he began working for the Fox Film Corporation. He appeared mostly in small parts, but his first leading role came in Raoul Walsh's Western The Big Trail (1930), an early widescreen film epic that was a box-office failure. He played leading roles in numerous B movies during the 1930s, most of them also Westerns, without becoming a major name. John Ford's Stagecoach (1939) made Wayne a mainstream star, and he starred in 142 motion pictures altogether. According to one biographer, \"John Wayne personified for millions the nation's frontier heritage.\"Wayne's other roles in Westerns include a cattleman driving his herd on the Chisholm Trail in Red River (1948), a Civil War veteran whose niece is abducted by a tribe of Comanches in The Searchers (1956), a troubled rancher competing with a lawyer (James Stewart) for a woman's hand in The Man Who Shot Liberty Valance (1962), and a cantankerous one-eyed marshal in True Grit (1969), for which he received the Academy Award for Best Actor. He is also remembered for his roles in The Quiet Man (1952) with Maureen O'Hara, Rio Bravo (1959) with Dean Martin, and The Longest Day (1962). In his final screen performance, he starred as an aging gunfighter battling cancer in The Shootist (1976). He made his last public appearance at the Academy Awards ceremony on April 9, 1979, and died of stomach cancer two months later. In 1980, he was posthumously awarded the Presidential Medal of Freedom, the highest civilian honor of the United States.\n\n", "biography_author": "Wikidata", "date_of_biography": "2023-08-01T15:40:10.918803+10:00", "external_links": [{"id": 4417, "uri": "https://en.wikipedia.org/wiki/John_Wayne"}], "uuid": "ba4cfd7f-d620-42c0-b201-dc5de76da49f", "source": {"name": "Vernon", "slug": "vernon"}, "source_identifier": "22577", "external_references": [{"id": 25587, "source": {"name": "Wikidata", "slug": "wikidata"}, "source_identifier": "Q40531"}, {"id": 29596, "source": {"name": "VIAF", "slug": "viaf"}, "source_identifier": "37103799"}, {"id": 29597, "source": {"name": "LOC Auth", "slug": "loc-auth"}, "source_identifier": "n79046229"}, {"id": 29598, "source": {"name": "WorldCat", "slug": "worldcat"}, "source_identifier": "lccn-n79046229"}], "date_modified": "2023-09-05T21:46:03.742126+10:00"}]}