{"count": 28687, "next": "https://api.acmi.net.au/creators/?page=2627", "previous": "https://api.acmi.net.au/creators/?page=2625", "results": [{"id": 12340, "name": "Frank A. Hoare", "roles_in_work": [{"id": 2712735, "title": "Electricity and heat", "work_id": 67074, "role": "producer", "role_id": 1089, "is_primary": true}, {"id": 1819449, "title": "Photo-emission", "work_id": 71526, "role": "producer", "role_id": 1089, "is_primary": true}, {"id": 1819241, "title": "Out of the dark", "work_id": 71271, "role": "producer", "role_id": 1089, "is_primary": true}, {"id": 1820994, "title": "Heat treatment", "work_id": 73312, "role": "producer", "role_id": 1089, "is_primary": true}, {"id": 1819905, "title": "Putting free electrons to work", "work_id": 71969, "role": "producer", "role_id": 1089, "is_primary": true}, {"id": 1820996, "title": "Carbon content", "work_id": 73313, "role": "producer", "role_id": 1089, "is_primary": true}, {"id": 2715474, "title": "High frequency heating", "work_id": 68454, "role": "producer", "role_id": 1089, "is_primary": true}, {"id": 2760498, "title": "Capacitors", "work_id": 65782, "role": "producer", "role_id": 1089, "is_primary": true}, {"id": 2768331, "title": "How it works", "work_id": 71163, "role": "producer", "role_id": 1089, "is_primary": true}, {"id": 2768335, "title": "Making open hearth steel", "work_id": 71164, "role": "producer", "role_id": 1089, "is_primary": true}, {"id": 2768338, "title": "Furnace control", "work_id": 71162, "role": "producer", "role_id": 1089, "is_primary": true}, {"id": 2646894, "title": "What goes into the blast furnace?", "work_id": 74620, "role": "producer", "role_id": 1089, "is_primary": true}, {"id": 2646473, "title": "Grain structure", "work_id": 73311, "role": "producer", "role_id": 1089, "is_primary": true}, {"id": 2645694, "title": "The Modern electric refrigerator. Part 1. The How and why of refrigeration", "work_id": 70517, "role": "producer", "role_id": 1089, "is_primary": true}, {"id": 2645212, "title": "The Ingot", "work_id": 68940, "role": "producer", "role_id": 1089, "is_primary": true}, {"id": 2760501, "title": "Effects on alternating current and power factor", "work_id": 67040, "role": "producer", "role_id": 1089, "is_primary": true}, {"id": 2644640, "title": "Electrochemistry", "work_id": 67080, "role": "producer", "role_id": 1089, "is_primary": true}, {"id": 2644634, "title": "Electric furnaces", "work_id": 67068, "role": "producer", "role_id": 1089, "is_primary": true}, {"id": 2760504, "title": "Inductors", "work_id": 68908, "role": "producer", "role_id": 1089, "is_primary": true}, {"id": 2713790, "title": "Fitting the job to the worker: an introduction to ergonomics", "work_id": 67589, "role": "producer", "role_id": 1089, "is_primary": true}, {"id": 2712741, "title": "Electricity and movement", "work_id": 67076, "role": "producer", "role_id": 1089, "is_primary": true}, {"id": 2712738, "title": "Electricity and light", "work_id": 67075, "role": "producer", "role_id": 1089, "is_primary": true}, {"id": 1819448, "title": "The Photo conductive effect", "work_id": 71525, "role": "producer", "role_id": 1089, "is_primary": true}, {"id": 2678370, "title": "The Bessemer converter", "work_id": 65357, "role": "producer", "role_id": 1089, "is_primary": true}, {"id": 2677111, "title": "Alternating current and direct current", "work_id": 64699, "role": "producer", "role_id": 1089, "is_primary": true}, {"id": 1814574, "title": "Magnetism", "work_id": 70004, "role": "producer", "role_id": 1089, "is_primary": true}, {"id": 1813518, "title": "News story", "work_id": 70890, "role": "producer", "role_id": 1089, "is_primary": true}, {"id": 1813571, "title": "What comes out of the blast furnace?", "work_id": 74616, "role": "producer", "role_id": 1089, "is_primary": true}, {"id": 1813575, "title": "What is electricty", "work_id": 74630, "role": "producer", "role_id": 1089, "is_primary": true}], "also_known_as": "", "date_of_birth": "", "date_of_death": "", "genders": [], "languages": [], "places_of_operation": [], "biography": "", "biography_author": null, "date_of_biography": "2023-08-11T13:47:05.606226+10:00", "external_links": [], "uuid": "dedb89a6-709e-4692-8c9a-ac914b2bf888", "source": {"name": "Vernon", "slug": "vernon"}, "source_identifier": "19085", "external_references": [], "date_modified": "2025-03-14T17:25:36.498067+11:00"}, {"id": 12339, "name": "S. Modzenski", "roles_in_work": [{"id": 2643974, "title": "Altar masterpiece", "work_id": 64698, "role": "director", "role_id": 938, "is_primary": true}], "also_known_as": "", "date_of_birth": null, "date_of_death": null, "genders": [], "languages": [], "places_of_operation": [], "biography": "", "biography_author": null, "date_of_biography": null, "external_links": [], "uuid": "3e41438e-530f-470e-8290-b598249460dc", "source": {"name": "Vernon", "slug": "vernon"}, "source_identifier": "28408", "external_references": [], "date_modified": "2025-03-05T12:08:44.430840+11:00"}, {"id": 12338, "name": "Film Polski", "roles_in_work": [{"id": 859777, "title": "Tomorrow it will be fine", "work_id": 73913, "role": "production company", "role_id": 941, "is_primary": true}, {"id": 2714960, "title": "Green buds of hope", "work_id": 68202, "role": "production company", "role_id": 941, "is_primary": true}, {"id": 2644865, "title": "Free as the birds", "work_id": 67807, "role": "production company", "role_id": 941, "is_primary": true}, {"id": 2643973, "title": "Altar masterpiece", "work_id": 64698, "role": "production company", "role_id": 941, "is_primary": true}, {"id": 2750354, "title": "Dinosaurs: the age of the terrible lizard", "work_id": 97276, "role": "production company", "role_id": 941, "is_primary": true}, {"id": 2750348, "title": "Fire", "work_id": 97272, "role": "production company", "role_id": 941, "is_primary": true}, {"id": 2712199, "title": "The Divided man: commitment or compromise", "work_id": 66838, "role": "production company", "role_id": 941, "is_primary": true}, {"id": 2677578, "title": "Ashes and diamonds", "work_id": 64949, "role": "production company", "role_id": 941, "is_primary": true}, {"id": 1997095, "title": "Interrogation = Przesluchanie [NTSC] (D)", "work_id": 93124, "role": "production company", "role_id": 941, "is_primary": true}, {"id": 1997380, "title": "Top dog = Wodzirej [NTSC]", "work_id": 93292, "role": "production company", "role_id": 941, "is_primary": true}, {"id": 860137, "title": "United Nations at work", "work_id": 74201, "role": "production company", "role_id": 941, "is_primary": true}, {"id": 858821, "title": "Stani the tortoise", "work_id": 73163, "role": "production company", "role_id": 941, "is_primary": true}, {"id": 853525, "title": "Interpretations", "work_id": 69000, "role": "production company", "role_id": 941, "is_primary": true}, {"id": 1996188, "title": "Man of marble = Czlowiek z marmuru [NTSC]", "work_id": 92509, "role": "production company", "role_id": 941, "is_primary": true}, {"id": 856618, "title": "Paintings need care", "work_id": 71332, "role": "production company", "role_id": 941, "is_primary": true}, {"id": 1995586, "title": "The Deluge = Potop. Parts 1 and 2 [NTSC]", "work_id": 91864, "role": "production company", "role_id": 941, "is_primary": true}, {"id": 753290, "title": "A Ship is born", "work_id": 72768, "role": "production company", "role_id": 941, "is_primary": true}, {"id": 1995905, "title": "Without anesthesia = Bez znieczulenia [NTSC]", "work_id": 92376, "role": "production company", "role_id": 941, "is_primary": true}, {"id": 1995908, "title": "The Last stage = Ostatni etap [NTSC]", "work_id": 92377, "role": "production company", "role_id": 941, "is_primary": true}, {"id": 1995416, "title": "Man of marble = Czlowiek z marmuru", "work_id": 91580, "role": "production company", "role_id": 941, "is_primary": true}, {"id": 1983800, "title": "The Young Chopin", "work_id": 75016, "role": "production company", "role_id": 941, "is_primary": true}, {"id": 1995593, "title": "Pharaoh = Faraon [NTSC]", "work_id": 91866, "role": "production company", "role_id": 941, "is_primary": true}, {"id": 2345359, "title": "The Eagle's track", "work_id": 76316, "role": "production company", "role_id": 941, "is_primary": true}, {"id": 809580, "title": "Mother Joan of the Angels [NTSC]", "work_id": 91868, "role": "production company", "role_id": 941, "is_primary": true}, {"id": 875004, "title": "This is Poland. No. 9: spring in October", "work_id": 89240, "role": "production company", "role_id": 941, "is_primary": true}, {"id": 882253, "title": "Mother of kings = Sons and comrades = Matka krolow", "work_id": 93122, "role": "production company", "role_id": 941, "is_primary": true}, {"id": 860145, "title": "University: 900 years of inter-university co-operation in Europe", "work_id": 74210, "role": "production company", "role_id": 941, "is_primary": true}, {"id": 860391, "title": "A Visit to puppets", "work_id": 74404, "role": "production company", "role_id": 941, "is_primary": true}], "also_known_as": "", "date_of_birth": "", "date_of_death": "", "genders": [], "languages": [], "places_of_operation": [], "biography": "Film Polski (also Przedsiębiorstwo Państwowe Film Polski) was the state-run film production and distribution organization of Poland, founded in 1945. Source: Wikidata; 01/08/2023", "biography_author": null, "date_of_biography": "2025-03-13T00:20:54.636682+11:00", "external_links": [{"id": 3972, "uri": "https://en.wikipedia.org/wiki/Film_Polski"}], "uuid": "61fc3b40-8b78-42b1-b095-ea7d67ae3846", "source": {"name": "Vernon", "slug": "vernon"}, "source_identifier": "8236", "external_references": [{"id": 25236, "source": {"name": "Wikidata", "slug": "wikidata"}, "source_identifier": "Q19309961"}, {"id": 28406, "source": {"name": "VIAF", "slug": "viaf"}, "source_identifier": "136158315"}, {"id": 28407, "source": {"name": "LOC Auth", "slug": "loc-auth"}, "source_identifier": "n50029317"}, {"id": 28408, "source": {"name": "WorldCat", "slug": "worldcat"}, "source_identifier": "lccn-n50029317"}], "date_modified": "2025-03-13T00:20:54.636939+11:00"}, {"id": 12337, "name": "Brian Chirlian", "roles_in_work": [{"id": 896082, "title": "Valley deep, mountain high", "work_id": 74270, "role": "co-director", "role_id": 959, "is_primary": true}, {"id": 896080, "title": "Valley deep, mountain high", "work_id": 74270, "role": "co-producer", "role_id": 915, "is_primary": true}, {"id": 2643972, "title": "Alpine way", "work_id": 64697, "role": "producer", "role_id": 1089, "is_primary": true}, {"id": 2715302, "title": "Heart of a city", "work_id": 68371, "role": "producer", "role_id": 1089, "is_primary": true}], "also_known_as": "", "date_of_birth": "", "date_of_death": "", "genders": [], "languages": [], "places_of_operation": [], "biography": "", "biography_author": null, "date_of_biography": "2023-08-09T03:46:03.921518+10:00", "external_links": [], "uuid": "9f46c984-a45f-4df6-b619-baa47ecb908c", "source": {"name": "Vernon", "slug": "vernon"}, "source_identifier": "16202", "external_references": [], "date_modified": "2025-03-12T01:31:40.620837+11:00"}, {"id": 12336, "name": "Ajax Films", "roles_in_work": [{"id": 2643971, "title": "Alpine way", "work_id": 64697, "role": "production company", "role_id": 941, "is_primary": true}, {"id": 2715300, "title": "Heart of a city", "work_id": 68371, "role": "production company", "role_id": 941, "is_primary": true}, {"id": 2677918, "title": "Australian football", "work_id": 65129, "role": "production company", "role_id": 941, "is_primary": true}, {"id": 896079, "title": "Valley deep, mountain high", "work_id": 74270, "role": "production company", "role_id": 941, "is_primary": true}], "also_known_as": "", "date_of_birth": "", "date_of_death": "", "genders": [], "languages": [], "places_of_operation": [], "biography": "", "biography_author": null, "date_of_biography": "2023-08-09T03:46:02.454146+10:00", "external_links": [], "uuid": "bad83778-bcd6-43c2-9a8e-c6d5d556efab", "source": {"name": "Vernon", "slug": "vernon"}, "source_identifier": "3726", "external_references": [{"id": 43003, "source": {"name": "Wikidata", "slug": "wikidata"}, "source_identifier": "Q4699601"}], "date_modified": "2025-03-12T01:31:39.419647+11:00"}, {"id": 12331, "name": "Tourist Development Authority of Victoria", "roles_in_work": [{"id": 3093008, "title": "Alpine Playground", "work_id": 64694, "role": "production company", "role_id": 941, "is_primary": true}, {"id": 2619534, "title": "Melbourne: festival city", "work_id": 95778, "role": "production company", "role_id": 941, "is_primary": true}, {"id": 1782858, "title": "Wild life paradise", "work_id": 74772, "role": "production company", "role_id": 941, "is_primary": true}, {"id": 1782909, "title": "Fashions, flowers and favourites", "work_id": 88638, "role": "production company", "role_id": 941, "is_primary": true}, {"id": 2468895, "title": "This is Victoria: Australia", "work_id": 88366, "role": "production company", "role_id": 941, "is_primary": true}], "also_known_as": "", "date_of_birth": "", "date_of_death": "", "genders": [], "languages": [], "places_of_operation": [], "biography": "", "biography_author": null, "date_of_biography": "2023-08-14T11:48:45.359360+10:00", "external_links": [], "uuid": "b0a6dc5e-f59b-44fd-8c87-d9d5bee49433", "source": {"name": "Vernon", "slug": "vernon"}, "source_identifier": "13671", "external_references": [], "date_modified": "2025-03-31T22:35:16.875463+11:00"}, {"id": 12330, "name": "Eliot Noyes", "roles_in_work": [{"id": 876489, "title": "This is the home of Mrs Levant Graham", "work_id": 90109, "role": "director", "role_id": 938, "is_primary": true}, {"id": 762334, "title": "The Witch who was afraid of witches", "work_id": 76587, "role": "director", "role_id": 938, "is_primary": true}, {"id": 2677106, "title": "Alphabet", "work_id": 64693, "role": "director", "role_id": 938, "is_primary": true}, {"id": 2749609, "title": "Fable of he and she", "work_id": 96889, "role": "director", "role_id": 938, "is_primary": true}, {"id": 2716151, "title": "In a Box", "work_id": 68807, "role": "director", "role_id": 938, "is_primary": true}, {"id": 897555, "title": "Big town (TEFC)", "work_id": 77652, "role": "co-director", "role_id": 959, "is_primary": true}, {"id": 2749520, "title": "Clay: or the origin of the species", "work_id": 96849, "role": "producer", "role_id": 1089, "is_primary": true}], "also_known_as": "", "date_of_birth": "", "date_of_death": "", "genders": [], "languages": [], "places_of_operation": [], "biography": "", "biography_author": null, "date_of_biography": "2023-05-09T11:58:36.409358+10:00", "external_links": [], "uuid": "6f9658ed-c7c2-4097-85f8-29661534b564", "source": {"name": "Vernon", "slug": "vernon"}, "source_identifier": "4846", "external_references": [], "date_modified": "2025-03-13T00:02:24.886499+11:00"}, {"id": 12329, "name": "Bruno Bozzetto", "roles_in_work": [{"id": 861563, "title": "The Apple worm = Il Bruco", "work_id": 75633, "role": "director", "role_id": 938, "is_primary": true}, {"id": 2751364, "title": "Let it bee: Concerto in C Minor by Vivaldi", "work_id": 97775, "role": "director", "role_id": 938, "is_primary": true}, {"id": 2751366, "title": "A Merry Chase: Prelude a L'apres midi d'un faune by Claude Debussy", "work_id": 97776, "role": "director", "role_id": 938, "is_primary": true}, {"id": 2644097, "title": "Baby story", "work_id": 65188, "role": "director", "role_id": 938, "is_primary": true}, {"id": 763407, "title": "Compilation: il bruco the apple worm", "work_id": 77018, "role": "director", "role_id": 938, "is_primary": true}, {"id": 2087002, "title": "Allegro non troppo", "work_id": 84981, "role": "director", "role_id": 938, "is_primary": true}, {"id": 905388, "title": "The History of inventions", "work_id": 86058, "role": "director", "role_id": 938, "is_primary": true}, {"id": 2715547, "title": "The History of inventions", "work_id": 68490, "role": "director", "role_id": 938, "is_primary": true}, {"id": 864437, "title": "[Pickles]", "work_id": 77963, "role": "director", "role_id": 938, "is_primary": true}, {"id": 895340, "title": "Opera", "work_id": 71177, "role": "co-director", "role_id": 959, "is_primary": true}, {"id": 2715546, "title": "The History of inventions", "work_id": 68490, "role": "co-producer", "role_id": 915, "is_primary": true}, {"id": 905387, "title": "The History of inventions", "work_id": 86058, "role": "co-producer", "role_id": 915, "is_primary": true}, {"id": 1804176, "title": "Mr. Rossi in Venice", "work_id": 75552, "role": "producer", "role_id": 1089, "is_primary": true}, {"id": 1819601, "title": "Fantabiblical", "work_id": 77093, "role": "producer", "role_id": 1089, "is_primary": true}, {"id": 2750568, "title": "Life in a tin = Vita in scatola", "work_id": 97396, "role": "producer", "role_id": 1089, "is_primary": true}, {"id": 2645742, "title": "Mr. Rossi goes camping", "work_id": 70659, "role": "producer", "role_id": 1089, "is_primary": true}, {"id": 2644092, "title": "An Award for Mr. Rossi", "work_id": 65176, "role": "producer", "role_id": 1089, "is_primary": true}, {"id": 2677103, "title": "Alpha Omega = Alfa Omega", "work_id": 64692, "role": "producer", "role_id": 1089, "is_primary": true}, {"id": 2645744, "title": "Mr. Rossi on the beach", "work_id": 70660, "role": "producer", "role_id": 1089, "is_primary": true}, {"id": 2751368, "title": "Paradise lost: The Firebird by Stravinsky from Allegro non Troppo", "work_id": 97777, "role": "producer", "role_id": 1089, "is_primary": true}, {"id": 759830, "title": "Self service", "work_id": 75553, "role": "producer/director", "role_id": 31, "is_primary": true}, {"id": 750735, "title": "The Swimming pool", "work_id": 71588, "role": "producer/director", "role_id": 31, "is_primary": true}, {"id": 2751359, "title": "Evolutionary fantasy: Bolero by Maurice Ravel from Allegro n", "work_id": 97772, "role": "producer/director", "role_id": 31, "is_primary": true}, {"id": 864132, "title": "Tennis club", "work_id": 77749, "role": "producer/director", "role_id": 31, "is_primary": true}, {"id": 2751362, "title": "The Last meow: 'Valse Triste', Jean Sibelius", "work_id": 97774, "role": "producer/director", "role_id": 31, "is_primary": true}], "also_known_as": "", "date_of_birth": "03 MAR 1938", "date_of_death": "", "genders": [{"id": 9, "name": "Male", "slug": "male"}], "languages": [{"id": 6, "name": "Italian", "slug": "italian"}], "places_of_operation": [{"id": 19, "name": "Italy", "slug": "italy"}], "biography": "Bruno Bozzetto (born 3 March 1938) is an Italian cartoon animator and film director, creator of many short pieces, mainly of a political or satirical nature. He created his first animated short \"Tapum! the weapons' story\" in 1958 at the age of 20. His most famous character, a hapless little man named \"Signor Rossi\" (Mr. Rossi), has been featured in many animated shorts as well as starring in three feature films: Mr. Rossi Looks for Happiness (1976), Mr. Rossi's Dreams (1977), and Mr. Rossi's Vacation (1977). Source: Wikidata; 01/08/2023", "biography_author": null, "date_of_biography": "2025-03-13T00:41:36.807763+11:00", "external_links": [{"id": 3692, "uri": "https://en.wikipedia.org/wiki/Bruno_Bozzetto"}], "uuid": "31ee959a-79c1-4502-8a29-e2da79d0239c", "source": {"name": "Vernon", "slug": "vernon"}, "source_identifier": "4329", "external_references": [{"id": 26781, "source": {"name": "Wikidata", "slug": "wikidata"}, "source_identifier": "Q673304"}, {"id": 27632, "source": {"name": "VIAF", "slug": "viaf"}, "source_identifier": "947307"}, {"id": 27633, "source": {"name": "LOC Auth", "slug": "loc-auth"}, "source_identifier": "n50043168"}, {"id": 27634, "source": {"name": "WorldCat", "slug": "worldcat"}, "source_identifier": "lccn-n50043168"}], "date_modified": "2025-03-13T00:41:36.808129+11:00"}, {"id": 12328, "name": "Lucy Crosbie Morrison", "roles_in_work": [{"id": 2677102, "title": "Along the track in Central Australia", "work_id": 64691, "role": "producer", "role_id": 1089, "is_primary": true}], "also_known_as": "", "date_of_birth": "", "date_of_death": "", "genders": [], "languages": [], "places_of_operation": [], "biography": "", "biography_author": null, "date_of_biography": "2023-08-11T13:45:04.940202+10:00", "external_links": [], "uuid": "36f5d1ab-7c1e-4650-84df-49cb22939def", "source": {"name": "Vernon", "slug": "vernon"}, "source_identifier": "24081", "external_references": [], "date_modified": "2025-03-06T23:12:08.680507+11:00"}, {"id": 12324, "name": "Keith Gow", "roles_in_work": [{"id": 2351801, "title": "Buying blues", "work_id": 75901, "role": "director", "role_id": 938, "is_primary": true}, {"id": 2392903, "title": "Australian report", "work_id": 96329, "role": "director", "role_id": 938, "is_primary": true}, {"id": 1903467, "title": "Think twice", "work_id": 73698, "role": "director", "role_id": 938, "is_primary": true}, {"id": 2392170, "title": "Tempo: Australia in the 70's", "work_id": 73604, "role": "director", "role_id": 938, "is_primary": true}, {"id": 758822, "title": "Where dead men lie", "work_id": 75163, "role": "director", "role_id": 938, "is_primary": true}, {"id": 2764713, "title": "Taram: a Minangkabau Village", "work_id": 73510, "role": "director", "role_id": 938, "is_primary": true}, {"id": 2351742, "title": "Lesley", "work_id": 75319, "role": "director", "role_id": 938, "is_primary": true}, {"id": 2246701, "title": "Reedy river", "work_id": 72110, "role": "director", "role_id": 938, "is_primary": true}, {"id": 859394, "title": "Tempo: Australia in the 70's [Italan version]", "work_id": 73606, "role": "director", "role_id": 938, "is_primary": true}, {"id": 748749, "title": "Wattle ballad. No. 1. My old black billy", "work_id": 70723, "role": "director", "role_id": 938, "is_primary": true}, {"id": 859391, "title": "Tempo: Australia in the 70's [Greek version]", "work_id": 73605, "role": "director", "role_id": 938, "is_primary": true}, {"id": 762843, "title": "Three meetings", "work_id": 76795, "role": "director", "role_id": 938, "is_primary": true}, {"id": 2379597, "title": "Man in the desert", "work_id": 70085, "role": "director", "role_id": 938, "is_primary": true}, {"id": 2208162, "title": "Play safe", "work_id": 75421, "role": "director", "role_id": 938, "is_primary": true}, {"id": 923330, "title": "Mining employment opportunities", "work_id": 70409, "role": "director", "role_id": 938, "is_primary": true}, {"id": 760805, "title": "And their ghosts may be heard", "work_id": 75966, "role": "director", "role_id": 938, "is_primary": true}, {"id": 1694004, "title": "Report", "work_id": 74190, "role": "director", "role_id": 938, "is_primary": true}, {"id": 1693995, "title": "Interview", "work_id": 74189, "role": "director", "role_id": 938, "is_primary": true}, {"id": 762026, "title": "The Gold diggers", "work_id": 76466, "role": "director", "role_id": 938, "is_primary": true}, {"id": 2645841, "title": "Old bullock dray", "work_id": 71067, "role": "director", "role_id": 938, "is_primary": true}, {"id": 2784891, "title": "We did it!: Rockhampton and Mackay", "work_id": 78052, "role": "director", "role_id": 938, "is_primary": true}, {"id": 2648041, "title": "This is working", "work_id": 78047, "role": "director", "role_id": 938, "is_primary": true}, {"id": 2784881, "title": "We did it!: Western Australia", "work_id": 78051, "role": "director", "role_id": 938, "is_primary": true}, {"id": 2784871, "title": "We did it!: Victoria", "work_id": 78050, "role": "director", "role_id": 938, "is_primary": true}, {"id": 2784860, "title": "We did it!: South Australia", "work_id": 78049, "role": "director", "role_id": 938, "is_primary": true}, {"id": 2784849, "title": "Women of Utopia", "work_id": 78048, "role": "director", "role_id": 938, "is_primary": true}, {"id": 2784842, "title": "A Ticket to ride", "work_id": 78046, "role": "director", "role_id": 938, "is_primary": true}, {"id": 2755509, "title": "Now you're talking", "work_id": 75133, "role": "director", "role_id": 938, "is_primary": true}, {"id": 2716215, "title": "In the bush", "work_id": 68835, "role": "director", "role_id": 938, "is_primary": true}, {"id": 2769056, "title": "Will you join?", "work_id": 74197, "role": "director", "role_id": 938, "is_primary": true}, {"id": 2769043, "title": "A Personal matter", "work_id": 74195, "role": "director", "role_id": 938, "is_primary": true}, {"id": 933103, "title": "Never too late", "work_id": 81600, "role": "director", "role_id": 938, "is_primary": true}, {"id": 1782850, "title": "South west symphony", "work_id": 73034, "role": "director", "role_id": 938, "is_primary": true}, {"id": 2351789, "title": "Accident", "work_id": 75894, "role": "director", "role_id": 938, "is_primary": true}, {"id": 2392233, "title": "Facts", "work_id": 74191, "role": "director", "role_id": 938, "is_primary": true}, {"id": 2351828, "title": "Weedy plot", "work_id": 76032, "role": "director", "role_id": 938, "is_primary": true}, {"id": 2764927, "title": "Mastri: a Balinese woman", "work_id": 75378, "role": "director", "role_id": 938, "is_primary": true}, {"id": 2351809, "title": "The Good oil", "work_id": 75913, "role": "director", "role_id": 938, "is_primary": true}, {"id": 2764941, "title": "Sinagas family: a Batak village", "work_id": 75380, "role": "director", "role_id": 938, "is_primary": true}, {"id": 2764951, "title": "Marvel, a Jakarta Boy", "work_id": 75536, "role": "director", "role_id": 938, "is_primary": true}, {"id": 2351843, "title": "Working agreement", "work_id": 75338, "role": "director", "role_id": 938, "is_primary": true}, {"id": 2711980, "title": "Desert landforms", "work_id": 66713, "role": "director", "role_id": 938, "is_primary": true}, {"id": 2764731, "title": "Balinese gong orchestra", "work_id": 75144, "role": "director", "role_id": 938, "is_primary": true}, {"id": 2749105, "title": "Farming the forest for woodchip", "work_id": 96634, "role": "director", "role_id": 938, "is_primary": true}, {"id": 2769049, "title": "Changes in the office", "work_id": 74196, "role": "director", "role_id": 938, "is_primary": true}, {"id": 3081273, "title": "Along the Sepik", "work_id": 64690, "role": "camera operator", "role_id": 931, "is_primary": false}, {"id": 2240130, "title": "Film work", "work_id": 82726, "role": "cast", "role_id": 33, "is_primary": false}, {"id": 2678480, "title": "The Big island [Cinemascope print]", "work_id": 65408, "role": "cinematographer", "role_id": 32, "is_primary": false}, {"id": 2711981, "title": "Desert landforms", "work_id": 66713, "role": "cinematographer", "role_id": 32, "is_primary": false}, {"id": 2379600, "title": "Man in the desert", "work_id": 70085, "role": "cinematographer", "role_id": 32, "is_primary": false}, {"id": 2246704, "title": "Reedy river", "work_id": 72110, "role": "cinematographer", "role_id": 32, "is_primary": false}, {"id": 2392506, "title": "The Big island", "work_id": 76305, "role": "cinematographer", "role_id": 32, "is_primary": false}, {"id": 2078919, "title": "Aboriginal culture", "work_id": 76317, "role": "co-director", "role_id": 959, "is_primary": true}, {"id": 2750704, "title": "The Hungry miles", "work_id": 97459, "role": "co-director", "role_id": 959, "is_primary": true}, {"id": 2644409, "title": "Click go the shears", "work_id": 66181, "role": "co-director", "role_id": 959, "is_primary": true}, {"id": 2764755, "title": "Azhari Ali: an Acehnese university student", "work_id": 75377, "role": "co-director", "role_id": 959, "is_primary": true}, {"id": 2764933, "title": "Pak Menggung: a Javanese aristocrat", "work_id": 75379, "role": "co-director", "role_id": 959, "is_primary": true}, {"id": 898792, "title": "Artisans of Australia (Captioned)", "work_id": 79148, "role": "co-director", "role_id": 959, "is_primary": true}, {"id": 2784899, "title": "On the job", "work_id": 115290, "role": "director", "role_id": 938, "is_primary": true}, {"id": 2644332, "title": "The Change at Groote", "work_id": 65945, "role": "director of photography", "role_id": 925, "is_primary": false}, {"id": 2240111, "title": "Film work", "work_id": 82726, "role": "executive producer", "role_id": 916, "is_primary": false}, {"id": 2713535, "title": "The Fifth facade", "work_id": 67459, "role": "script", "role_id": 962, "is_primary": false}, {"id": 758826, "title": "Where dead men lie", "work_id": 75163, "role": "script", "role_id": 962, "is_primary": false}], "also_known_as": "", "date_of_birth": "", "date_of_death": "", "genders": [], "languages": [], "places_of_operation": [], "biography": "", "biography_author": null, "date_of_biography": "2023-08-09T04:10:26.040356+10:00", "external_links": [], "uuid": "b238f723-416d-4c87-82a1-16d570cac75c", "source": {"name": "Vernon", "slug": "vernon"}, "source_identifier": "22955", "external_references": [], "date_modified": "2025-03-17T10:23:04.472085+11:00"}]}