{"count": 28687, "next": "https://api.acmi.net.au/creators/?page=1130", "previous": "https://api.acmi.net.au/creators/?page=1128", "results": [{"id": 74292, "name": "Tony Westman", "roles_in_work": [{"id": 2226227, "title": "Family down the Fraser", "work_id": 87762, "role": "director", "role_id": 938, "is_primary": true}, {"id": 2260790, "title": "Salmon people", "work_id": 72459, "role": "director", "role_id": 938, "is_primary": true}, {"id": 2678352, "title": "Beluga baby", "work_id": 65346, "role": "director", "role_id": 938, "is_primary": true}, {"id": 2262535, "title": "Sauk-Ai", "work_id": 85760, "role": "director", "role_id": 938, "is_primary": true}], "also_known_as": "", "date_of_birth": null, "date_of_death": "", "genders": [{"id": 9, "name": "Male", "slug": "male"}], "languages": [], "places_of_operation": [], "biography": "", "biography_author": null, "date_of_biography": "2023-05-09T17:31:06.512657+10:00", "external_links": [], "uuid": "4f051be7-ec91-437b-a11b-16695efbf940", "source": {"name": "Vernon", "slug": "vernon"}, "source_identifier": "29914", "external_references": [{"id": 37921, "source": {"name": "Wikidata", "slug": "wikidata"}, "source_identifier": "Q52375879"}, {"id": 55992, "source": {"name": "VIAF", "slug": "viaf"}, "source_identifier": "87077223"}, {"id": 55993, "source": {"name": "LOC Auth", "slug": "loc-auth"}, "source_identifier": "n97870137"}, {"id": 55994, "source": {"name": "WorldCat", "slug": "worldcat"}, "source_identifier": "lccn-n97870137"}], "date_modified": "2025-03-06T23:50:11.897282+11:00"}, {"id": 74291, "name": "Christopher Pinney", "roles_in_work": [{"id": 2678350, "title": "Beluga baby", "work_id": 65346, "role": "co-producer", "role_id": 915, "is_primary": true}, {"id": 2305460, "title": "Some people have to suffer", "work_id": 88037, "role": "producer/director", "role_id": 31, "is_primary": true}], "also_known_as": "", "date_of_birth": "", "date_of_death": "", "genders": [], "languages": [], "places_of_operation": [], "biography": "", "biography_author": null, "date_of_biography": "2023-05-09T18:44:13.050701+10:00", "external_links": [], "uuid": "2774fdfd-87a2-4081-9c8f-2c480f195334", "source": {"name": "Vernon", "slug": "vernon"}, "source_identifier": "16995", "external_references": [{"id": 42085, "source": {"name": "Wikidata", "slug": "wikidata"}, "source_identifier": "Q121298896"}], "date_modified": "2025-03-06T23:50:10.706339+11:00"}, {"id": 74290, "name": "Philip Robertson", "roles_in_work": [{"id": 2644390, "title": "A Chord for voices", "work_id": 66092, "role": "director", "role_id": 938, "is_primary": true}, {"id": 2678344, "title": "Belonging: rituals of friendship and association in an Australian country town", "work_id": 65344, "role": "director", "role_id": 938, "is_primary": true}, {"id": 2392557, "title": "Renewable energy in Australia", "work_id": 77445, "role": "director", "role_id": 938, "is_primary": true}, {"id": 2224838, "title": "Landscape: a pattern of change", "work_id": 69494, "role": "director", "role_id": 938, "is_primary": true}, {"id": 2248587, "title": "Report: Endeavour anchor", "work_id": 72157, "role": "director", "role_id": 938, "is_primary": true}, {"id": 2680588, "title": "Country teacher", "work_id": 66456, "role": "director", "role_id": 938, "is_primary": true}, {"id": 2102332, "title": "At the canoe camp", "work_id": 77080, "role": "director", "role_id": 938, "is_primary": true}, {"id": 2230873, "title": "Project seat belt", "work_id": 83524, "role": "director", "role_id": 938, "is_primary": true}, {"id": 2766818, "title": "The Cruickshank family", "work_id": 66522, "role": "director", "role_id": 938, "is_primary": true}, {"id": 2321785, "title": "Talking about Belonging", "work_id": 73490, "role": "director", "role_id": 938, "is_primary": true}, {"id": 784146, "title": "Three builders talk business: making it", "work_id": 83994, "role": "director", "role_id": 938, "is_primary": true}, {"id": 746911, "title": "Living way out", "work_id": 69843, "role": "director", "role_id": 938, "is_primary": true}, {"id": 2750670, "title": "Changing...perceptions of development and power in the Australian inner city", "work_id": 97447, "role": "director", "role_id": 938, "is_primary": true}, {"id": 2715624, "title": "Home sweet home", "work_id": 68529, "role": "director", "role_id": 938, "is_primary": true}, {"id": 2768089, "title": "Fiji - legacies of empire", "work_id": 77946, "role": "co-director", "role_id": 959, "is_primary": true}, {"id": 2102360, "title": "Narritjin Maymuru", "work_id": 115274, "role": "director", "role_id": 938, "is_primary": true}], "also_known_as": "", "date_of_birth": "", "date_of_death": "", "genders": [], "languages": [], "places_of_operation": [], "biography": "", "biography_author": null, "date_of_biography": "2023-08-09T03:57:46.643511+10:00", "external_links": [], "uuid": "6f5bd8db-311d-40e5-a454-ece6cdbbea13", "source": {"name": "Vernon", "slug": "vernon"}, "source_identifier": "26834", "external_references": [{"id": 41939, "source": {"name": "Wikidata", "slug": "wikidata"}, "source_identifier": "Q120401930"}], "date_modified": "2025-03-14T18:08:24.106466+11:00"}, {"id": 74289, "name": "Julia Murphy", "roles_in_work": [{"id": 2678334, "title": "Being different", "work_id": 65337, "role": "director", "role_id": 938, "is_primary": true}, {"id": 2645535, "title": "Making a decision in the family", "work_id": 70028, "role": "director", "role_id": 938, "is_primary": true}, {"id": 2679819, "title": "Choosing a leader", "work_id": 66088, "role": "director", "role_id": 938, "is_primary": true}, {"id": 2210190, "title": "Popular psychology", "work_id": 71702, "role": "director", "role_id": 938, "is_primary": true}], "also_known_as": "", "date_of_birth": "", "date_of_death": "", "genders": [], "languages": [], "places_of_operation": [], "biography": "", "biography_author": null, "date_of_biography": "2023-05-09T20:02:22.552078+10:00", "external_links": [], "uuid": "a03295c6-7cf0-471a-883d-92d49efd6866", "source": {"name": "Vernon", "slug": "vernon"}, "source_identifier": "22841", "external_references": [{"id": 41431, "source": {"name": "Wikidata", "slug": "wikidata"}, "source_identifier": "Q121271005"}], "date_modified": "2025-03-07T00:21:23.313694+11:00"}, {"id": 74288, "name": "Nicholas Balla", "roles_in_work": [{"id": 2757242, "title": "Science in bloom", "work_id": 90937, "role": "director", "role_id": 938, "is_primary": true}, {"id": 2316718, "title": "Summer pageantry", "work_id": 76416, "role": "director", "role_id": 938, "is_primary": true}, {"id": 2757172, "title": "Canada dances", "work_id": 65750, "role": "director", "role_id": 938, "is_primary": true}, {"id": 2678783, "title": "Boy meets band", "work_id": 65568, "role": "co-director", "role_id": 959, "is_primary": true}, {"id": 2711945, "title": "The Department manager", "work_id": 66700, "role": "co-producer", "role_id": 915, "is_primary": true}, {"id": 2678597, "title": "Black and white in South Africa", "work_id": 65471, "role": "co-producer", "role_id": 915, "is_primary": true}, {"id": 2759221, "title": "Challenge to mankind", "work_id": 65928, "role": "co-producer", "role_id": 915, "is_primary": true}, {"id": 2679123, "title": "Can it hold together?", "work_id": 65744, "role": "co-producer", "role_id": 915, "is_primary": true}, {"id": 2714133, "title": "Four centuries of growing pains", "work_id": 67759, "role": "co-producer", "role_id": 915, "is_primary": true}, {"id": 2646180, "title": "Road to independence", "work_id": 72287, "role": "co-producer", "role_id": 915, "is_primary": true}, {"id": 2757190, "title": "The Chairmaker and the boys", "work_id": 65916, "role": "co-producer", "role_id": 915, "is_primary": true}, {"id": 2357064, "title": "The Invisible keystone", "work_id": 69084, "role": "co-producer", "role_id": 915, "is_primary": true}, {"id": 2129574, "title": "Canada: fibres, yarns and fabrics", "work_id": 76497, "role": "co-producer", "role_id": 915, "is_primary": true}, {"id": 2195175, "title": "People of the rock", "work_id": 87660, "role": "co-producer", "role_id": 915, "is_primary": true}, {"id": 2646464, "title": "Stress", "work_id": 73297, "role": "producer", "role_id": 1089, "is_primary": true}, {"id": 2646412, "title": "Station master", "work_id": 73175, "role": "producer", "role_id": 1089, "is_primary": true}, {"id": 2645534, "title": "Making a decision in the family", "work_id": 70028, "role": "producer", "role_id": 1089, "is_primary": true}, {"id": 2680910, "title": "David and Hazel: a story in communication", "work_id": 66619, "role": "producer", "role_id": 1089, "is_primary": true}, {"id": 2679818, "title": "Choosing a leader", "work_id": 66088, "role": "producer", "role_id": 1089, "is_primary": true}, {"id": 2759218, "title": "Can the earth provide?", "work_id": 65745, "role": "producer", "role_id": 1089, "is_primary": true}, {"id": 2759211, "title": "To each a rightful share", "work_id": 73875, "role": "producer", "role_id": 1089, "is_primary": true}, {"id": 2678333, "title": "Being different", "work_id": 65337, "role": "producer", "role_id": 1089, "is_primary": true}, {"id": 1808725, "title": "The Quest", "work_id": 84926, "role": "producer", "role_id": 1089, "is_primary": true}, {"id": 1807617, "title": "More milk for more people", "work_id": 91115, "role": "producer", "role_id": 1089, "is_primary": true}, {"id": 2159011, "title": "Mission ship", "work_id": 70503, "role": "producer", "role_id": 1089, "is_primary": true}, {"id": 1810556, "title": "The Pony", "work_id": 76453, "role": "producer", "role_id": 1089, "is_primary": true}, {"id": 1809766, "title": "Man is a universe", "work_id": 70090, "role": "producer", "role_id": 1089, "is_primary": true}, {"id": 2172112, "title": "Jamie: the story of a sibling", "work_id": 69200, "role": "producer", "role_id": 1089, "is_primary": true}, {"id": 1814977, "title": "Treasure of the forest", "work_id": 90384, "role": "producer", "role_id": 1089, "is_primary": true}, {"id": 1813398, "title": "Nahanni", "work_id": 70735, "role": "producer", "role_id": 1089, "is_primary": true}, {"id": 2267442, "title": "The Test", "work_id": 90978, "role": "producer", "role_id": 1089, "is_primary": true}, {"id": 1814302, "title": "The Queen in Canada, 1964", "work_id": 89898, "role": "producer", "role_id": 1089, "is_primary": true}, {"id": 2229767, "title": "Problem clinic", "work_id": 71860, "role": "producer", "role_id": 1089, "is_primary": true}, {"id": 2267440, "title": "The Test [b&w]", "work_id": 90979, "role": "producer", "role_id": 1089, "is_primary": true}, {"id": 1813502, "title": "The War on want", "work_id": 74469, "role": "producer", "role_id": 1089, "is_primary": true}, {"id": 2210188, "title": "Popular psychology", "work_id": 71702, "role": "producer", "role_id": 1089, "is_primary": true}, {"id": 1817627, "title": "Magic molecule", "work_id": 69993, "role": "producer", "role_id": 1089, "is_primary": true}, {"id": 2113616, "title": "Between two wars: twilight of an era (1934-1939)", "work_id": 89282, "role": "producer", "role_id": 1089, "is_primary": true}, {"id": 2757214, "title": "In search of home", "work_id": 68827, "role": "producer", "role_id": 1089, "is_primary": true}, {"id": 2757180, "title": "Canada's atom goes to work", "work_id": 65755, "role": "producer", "role_id": 1089, "is_primary": true}, {"id": 2715407, "title": "Here's hockey", "work_id": 68427, "role": "producer", "role_id": 1089, "is_primary": true}, {"id": 2714636, "title": "Getting on the bandwagon", "work_id": 68036, "role": "producer", "role_id": 1089, "is_primary": true}, {"id": 2714616, "title": "Germany: Key to Europe", "work_id": 68026, "role": "producer", "role_id": 1089, "is_primary": true}, {"id": 2191940, "title": "Diggers of the deeps", "work_id": 87702, "role": "producer", "role_id": 1089, "is_primary": true}, {"id": 2325419, "title": "That mouse", "work_id": 73649, "role": "producer", "role_id": 1089, "is_primary": true}, {"id": 1819176, "title": "New nation in the West Indies. Part 1. Background to federation", "work_id": 70858, "role": "producer", "role_id": 1089, "is_primary": true}, {"id": 2282183, "title": "The World of three", "work_id": 74943, "role": "producer", "role_id": 1089, "is_primary": true}, {"id": 1819373, "title": "Women on the march: the struggle for equal rights", "work_id": 74841, "role": "producer", "role_id": 1089, "is_primary": true}, {"id": 2350605, "title": "The Man on the assembly line", "work_id": 70095, "role": "producer", "role_id": 1089, "is_primary": true}, {"id": 2114246, "title": "Between two wars: sunshine and eclipse (1927-1934)", "work_id": 89669, "role": "producer", "role_id": 1089, "is_primary": true}, {"id": 2350618, "title": "The Skilled worker", "work_id": 72885, "role": "producer", "role_id": 1089, "is_primary": true}, {"id": 2315776, "title": "Strike in town", "work_id": 73302, "role": "producer", "role_id": 1089, "is_primary": true}, {"id": 2343642, "title": "The Discovery of insulin", "work_id": 87700, "role": "producer", "role_id": 1089, "is_primary": true}, {"id": 2082288, "title": "Adventures", "work_id": 76307, "role": "producer", "role_id": 1089, "is_primary": true}], "also_known_as": "", "date_of_birth": "", "date_of_death": "", "genders": [{"id": 9, "name": "Male", "slug": "male"}], "languages": [], "places_of_operation": [], "biography": "", "biography_author": null, "date_of_biography": "2023-05-09T20:05:34.395718+10:00", "external_links": [], "uuid": "42b97424-fd49-46d4-96c3-48509830ecc5", "source": {"name": "Vernon", "slug": "vernon"}, "source_identifier": "25704", "external_references": [{"id": 37714, "source": {"name": "Wikidata", "slug": "wikidata"}, "source_identifier": "Q95785390"}, {"id": 55358, "source": {"name": "VIAF", "slug": "viaf"}, "source_identifier": "311649177"}], "date_modified": "2025-03-13T14:52:21.006699+11:00"}, {"id": 74287, "name": "Herbie Marks", "roles_in_work": [{"id": 2712410, "title": "The Dreaming", "work_id": 66925, "role": "composer", "role_id": 538, "is_primary": false}, {"id": 2678331, "title": "Behind the switch", "work_id": 65336, "role": "music", "role_id": 949, "is_primary": false}], "also_known_as": "", "date_of_birth": "", "date_of_death": "", "genders": [{"id": 9, "name": "Male", "slug": "male"}], "languages": [], "places_of_operation": [], "biography": "", "biography_author": null, "date_of_biography": "2023-05-09T19:45:16.903093+10:00", "external_links": [], "uuid": "d3f80972-8b6f-4154-b9c5-160881fad7a1", "source": {"name": "Vernon", "slug": "vernon"}, "source_identifier": "37554", "external_references": [{"id": 51027, "source": {"name": "Wikidata", "slug": "wikidata"}, "source_identifier": "Q121360936"}], "date_modified": "2025-03-12T00:21:45.384269+11:00"}, {"id": 74286, "name": "Ronald Spender", "roles_in_work": [{"id": 2644132, "title": "The Behaviour game", "work_id": 65322, "role": "producer/director", "role_id": 31, "is_primary": true}], "also_known_as": "", "date_of_birth": "", "date_of_death": "", "genders": [], "languages": [], "places_of_operation": [], "biography": "", "biography_author": null, "date_of_biography": "2023-05-09T19:25:28.934429+10:00", "external_links": [], "uuid": "a5b0415f-4469-4512-8830-a86e84cb6b24", "source": {"name": "Vernon", "slug": "vernon"}, "source_identifier": "28218", "external_references": [{"id": 51459, "source": {"name": "Wikidata", "slug": "wikidata"}, "source_identifier": "Q121360724"}], "date_modified": "2025-03-05T12:11:28.525093+11:00"}, {"id": 74285, "name": "Evelyn Lambart", "roles_in_work": [{"id": 764801, "title": "Mr Frog went a-courting", "work_id": 77581, "role": "director", "role_id": 938, "is_primary": true}, {"id": 759673, "title": "The Lion and the mouse", "work_id": 75480, "role": "director", "role_id": 938, "is_primary": true}, {"id": 2647991, "title": "The Story of Christmas", "work_id": 77976, "role": "director", "role_id": 938, "is_primary": true}, {"id": 2713656, "title": "Fine feathers", "work_id": 67519, "role": "director", "role_id": 938, "is_primary": true}, {"id": 2186660, "title": "Paradise lost", "work_id": 75185, "role": "director", "role_id": 938, "is_primary": true}, {"id": 2715565, "title": "The Hoarder", "work_id": 68503, "role": "director", "role_id": 938, "is_primary": true}, {"id": 2288266, "title": "The Town mouse and the country mouse", "work_id": 76328, "role": "director", "role_id": 938, "is_primary": true}, {"id": 2298231, "title": "Short and suite", "work_id": 72785, "role": "co-director", "role_id": 959, "is_primary": true}, {"id": 894913, "title": "Lines vertical", "work_id": 69755, "role": "co-director", "role_id": 959, "is_primary": true}, {"id": 2713405, "title": "Family tree", "work_id": 67398, "role": "co-director", "role_id": 959, "is_primary": true}, {"id": 2259259, "title": "Rythmetic", "work_id": 72413, "role": "co-director", "role_id": 959, "is_primary": true}, {"id": 905000, "title": "Now is the time to put on your glasses", "work_id": 85739, "role": "co-producer", "role_id": 915, "is_primary": true}, {"id": 2645716, "title": "Mosaic", "work_id": 70592, "role": "co-producers/directors", "role_id": 628, "is_primary": true}, {"id": 918098, "title": "Lines - horizontal (TEFC)", "work_id": 95543, "role": "co-producers/directors", "role_id": 628, "is_primary": true}, {"id": 894909, "title": "Lines - horizontal", "work_id": 69753, "role": "co-producers/directors", "role_id": 628, "is_primary": true}, {"id": 2678286, "title": "Begone dull care", "work_id": 65320, "role": "producer", "role_id": 1089, "is_primary": true}], "also_known_as": "", "date_of_birth": "23 JUL 1914", "date_of_death": "03 APR 1999", "genders": [{"id": 5, "name": "Female", "slug": "female"}], "languages": [], "places_of_operation": [{"id": 36, "name": "Canada", "slug": "canada"}], "biography": "Evelyn Lambart (July 23, 1914 – April 3, 1999) was a Canadian animator and film director with the National Film Board of Canada, known for her independent work, and for her collaborations with Norman McLaren. Source: Wikidata; 01/08/2023", "biography_author": null, "date_of_biography": "2025-03-12T01:37:09.370268+11:00", "external_links": [{"id": 3958, "uri": "https://en.wikipedia.org/wiki/Evelyn_Lambart"}], "uuid": "f77999df-31e1-4c75-9887-622f8c563c88", "source": {"name": "Vernon", "slug": "vernon"}, "source_identifier": "18931", "external_references": [{"id": 26293, "source": {"name": "Wikidata", "slug": "wikidata"}, "source_identifier": "Q3061388"}, {"id": 28370, "source": {"name": "VIAF", "slug": "viaf"}, "source_identifier": "48812043"}, {"id": 28371, "source": {"name": "LOC Auth", "slug": "loc-auth"}, "source_identifier": "no95033526"}, {"id": 28372, "source": {"name": "WorldCat", "slug": "worldcat"}, "source_identifier": "lccn-no95033526"}], "date_modified": "2025-03-12T01:37:09.370574+11:00"}, {"id": 74284, "name": "Lambert Williamson", "roles_in_work": [{"id": 2678252, "title": "A Beethoven sonata", "work_id": 65300, "role": "co-producer", "role_id": 915, "is_primary": true}], "also_known_as": "", "date_of_birth": "", "date_of_death": "", "genders": [], "languages": [], "places_of_operation": [], "biography": "", "biography_author": null, "date_of_biography": "2023-05-09T11:22:46.426066+10:00", "external_links": [], "uuid": "3dd9a0c7-4388-43cb-b621-702cde69a9c6", "source": {"name": "Vernon", "slug": "vernon"}, "source_identifier": "23458", "external_references": [{"id": 43221, "source": {"name": "Wikidata", "slug": "wikidata"}, "source_identifier": "Q121036727"}], "date_modified": "2025-03-06T23:45:17.394217+11:00"}, {"id": 74283, "name": "Kim Deacon", "roles_in_work": [{"id": 2678241, "title": "The Bedspread", "work_id": 65292, "role": "cast", "role_id": 33, "is_primary": false}], "also_known_as": "", "date_of_birth": "", "date_of_death": "", "genders": [], "languages": [], "places_of_operation": [], "biography": "", "biography_author": null, "date_of_biography": "2023-05-09T19:24:54.020087+10:00", "external_links": [], "uuid": "3da99ecc-502b-4643-94d9-a0156090ec39", "source": {"name": "Vernon", "slug": "vernon"}, "source_identifier": "32909", "external_references": [{"id": 41395, "source": {"name": "Wikidata", "slug": "wikidata"}, "source_identifier": "Q121299106"}], "date_modified": "2025-03-06T23:45:04.155408+11:00"}]}