{"count": 28687, "next": "https://api.acmi.net.au/creators/?page=2574", "previous": "https://api.acmi.net.au/creators/?page=2572", "results": [{"id": 13004, "name": "T.E. Sanders", "roles_in_work": [{"id": 2678278, "title": "Beginning to swim", "work_id": 65315, "role": "director", "role_id": 938, "is_primary": true}], "also_known_as": "", "date_of_birth": "", "date_of_death": "", "genders": [], "languages": [], "places_of_operation": [], "biography": "", "biography_author": null, "date_of_biography": "2023-08-11T14:48:33.074278+10:00", "external_links": [], "uuid": "53d12d9e-6cc1-4d44-b474-43d82707fdb9", "source": {"name": "Vernon", "slug": "vernon"}, "source_identifier": "29438", "external_references": [], "date_modified": "2025-03-06T23:45:38.221506+11:00"}, {"id": 13003, "name": "Venture Film Services", "roles_in_work": [{"id": 745389, "title": "It's a new world!", "work_id": 69151, "role": "production company", "role_id": 941, "is_primary": true}, {"id": 2678277, "title": "Beginning to swim", "work_id": 65315, "role": "production company", "role_id": 941, "is_primary": true}], "also_known_as": "", "date_of_birth": "", "date_of_death": "", "genders": [], "languages": [], "places_of_operation": [], "biography": "", "biography_author": null, "date_of_biography": "2023-08-11T14:48:32.423149+10:00", "external_links": [], "uuid": "5b909a76-f638-4c57-8aa4-e86007273e89", "source": {"name": "Vernon", "slug": "vernon"}, "source_identifier": "3926", "external_references": [], "date_modified": "2025-03-06T23:45:37.629223+11:00"}, {"id": 13002, "name": "Jorhal Pictures", "roles_in_work": [{"id": 2712315, "title": "The Dolphin kick", "work_id": 66888, "role": "production company", "role_id": 941, "is_primary": true}, {"id": 2678275, "title": "Beginning swimming", "work_id": 65314, "role": "production company", "role_id": 941, "is_primary": true}], "also_known_as": "", "date_of_birth": null, "date_of_death": null, "genders": [], "languages": [], "places_of_operation": [], "biography": "", "biography_author": null, "date_of_biography": null, "external_links": [], "uuid": "d086be95-937d-4287-9904-73f8cf9e0ae4", "source": {"name": "Vernon", "slug": "vernon"}, "source_identifier": "9644", "external_references": [], "date_modified": "2025-03-12T00:20:02.467120+11:00"}, {"id": 13001, "name": "Lars Wallen", "roles_in_work": [{"id": 2678274, "title": "The Beginning of life (TEFC)", "work_id": 65313, "role": "director", "role_id": 938, "is_primary": true}], "also_known_as": "", "date_of_birth": "", "date_of_death": "", "genders": [], "languages": [], "places_of_operation": [], "biography": "", "biography_author": null, "date_of_biography": "2023-08-14T11:01:57.359993+10:00", "external_links": [], "uuid": "bce5f5e3-5dc8-4a75-a942-79d616945a27", "source": {"name": "Vernon", "slug": "vernon"}, "source_identifier": "23519", "external_references": [], "date_modified": "2025-03-06T23:45:35.383537+11:00"}, {"id": 13000, "name": "Sveriges radio aktiebolag", "roles_in_work": [{"id": 2678273, "title": "The Beginning of life (TEFC)", "work_id": 65313, "role": "production company", "role_id": 941, "is_primary": true}, {"id": 2646385, "title": "South Africa: the white laager", "work_id": 73026, "role": "production company", "role_id": 941, "is_primary": true}], "also_known_as": "", "date_of_birth": "", "date_of_death": "", "genders": [], "languages": [], "places_of_operation": [], "biography": "", "biography_author": null, "date_of_biography": "2023-08-14T11:01:56.733044+10:00", "external_links": [], "uuid": "10bbc67a-3d5d-4635-b2de-5a22c364c989", "source": {"name": "Vernon", "slug": "vernon"}, "source_identifier": "4473", "external_references": [], "date_modified": "2025-03-06T23:45:34.785190+11:00"}, {"id": 12999, "name": "Jun-Ichiro Takeda", "roles_in_work": [{"id": 2678272, "title": "The Mammalian story: the beginning of life (Japan)", "work_id": 65312, "role": "director", "role_id": 938, "is_primary": true}, {"id": 918966, "title": "Miracle of life", "work_id": 97787, "role": "director", "role_id": 938, "is_primary": true}], "also_known_as": "", "date_of_birth": "", "date_of_death": "", "genders": [], "languages": [], "places_of_operation": [], "biography": "", "biography_author": null, "date_of_biography": "2023-08-14T11:21:26.907030+10:00", "external_links": [], "uuid": "0483492c-a1c8-4a0a-832a-488806f90b34", "source": {"name": "Vernon", "slug": "vernon"}, "source_identifier": "22935", "external_references": [], "date_modified": "2025-03-06T23:45:33.886421+11:00"}, {"id": 12998, "name": "Cine-science", "roles_in_work": [{"id": 2678271, "title": "The Mammalian story: the beginning of life (Japan)", "work_id": 65312, "role": "producer", "role_id": 1089, "is_primary": true}], "also_known_as": "", "date_of_birth": "", "date_of_death": "", "genders": [], "languages": [], "places_of_operation": [], "biography": "", "biography_author": null, "date_of_biography": "2023-08-14T11:21:26.275443+10:00", "external_links": [], "uuid": "cf807ce0-1235-436a-87d8-3c7248ac6a32", "source": {"name": "Vernon", "slug": "vernon"}, "source_identifier": "6744", "external_references": [], "date_modified": "2025-03-06T23:45:33.291708+11:00"}, {"id": 12997, "name": "Rokuro Hayashi", "roles_in_work": [{"id": 918964, "title": "Miracle of life", "work_id": 97787, "role": "co-producer", "role_id": 915, "is_primary": true}, {"id": 2678270, "title": "The Mammalian story: the beginning of life (Japan)", "work_id": 65312, "role": "production company", "role_id": 941, "is_primary": true}], "also_known_as": "", "date_of_birth": "", "date_of_death": "", "genders": [], "languages": [], "places_of_operation": [], "biography": "", "biography_author": null, "date_of_biography": "2023-08-14T11:21:25.628227+10:00", "external_links": [], "uuid": "2fd91f5b-2696-4367-b102-d4ec66b35426", "source": {"name": "Vernon", "slug": "vernon"}, "source_identifier": "28092", "external_references": [], "date_modified": "2025-03-06T23:45:32.701932+11:00"}, {"id": 12996, "name": "Great Britain. Ministry of Information", "roles_in_work": [{"id": 2644402, "title": "Clean milk", "work_id": 66172, "role": "production company", "role_id": 941, "is_primary": true}, {"id": 874495, "title": "Our country", "work_id": 88823, "role": "production company", "role_id": 941, "is_primary": true}, {"id": 858864, "title": "Steam", "work_id": 73184, "role": "production company", "role_id": 941, "is_primary": true}, {"id": 2646811, "title": "A Village school", "work_id": 74372, "role": "production company", "role_id": 941, "is_primary": true}, {"id": 2714473, "title": "Garden friends and foes", "work_id": 67942, "role": "production company", "role_id": 941, "is_primary": true}, {"id": 2749218, "title": "Who is Vasco Mutwa?", "work_id": 96694, "role": "production company", "role_id": 941, "is_primary": true}, {"id": 2680498, "title": "Cornish Valley", "work_id": 66417, "role": "production company", "role_id": 941, "is_primary": true}, {"id": 874221, "title": "Housing in Scotland", "work_id": 88627, "role": "production company", "role_id": 941, "is_primary": true}, {"id": 875074, "title": "Britain can make it. No. 2", "work_id": 89285, "role": "production company", "role_id": 941, "is_primary": true}, {"id": 877699, "title": "Atlantic trawler", "work_id": 90834, "role": "production company", "role_id": 941, "is_primary": true}, {"id": 2291730, "title": "The True glory", "work_id": 74045, "role": "production company", "role_id": 941, "is_primary": true}, {"id": 876470, "title": "Welfare of the workers", "work_id": 90102, "role": "production company", "role_id": 941, "is_primary": true}, {"id": 877807, "title": "Coal mining today", "work_id": 90902, "role": "production company", "role_id": 941, "is_primary": true}, {"id": 874565, "title": "Britain can make it. No. 1", "work_id": 88862, "role": "production company", "role_id": 941, "is_primary": true}, {"id": 2678269, "title": "Beginning of history", "work_id": 65310, "role": "sponsor", "role_id": 625, "is_primary": false}], "also_known_as": "", "date_of_birth": "", "date_of_death": "", "genders": [], "languages": [], "places_of_operation": [], "biography": "", "biography_author": null, "date_of_biography": "2023-05-09T18:20:34.215375+10:00", "external_links": [], "uuid": "62adcd5b-9494-41b7-905d-90f6a69d4088", "source": {"name": "Vernon", "slug": "vernon"}, "source_identifier": "4461", "external_references": [], "date_modified": "2025-03-12T23:56:05.155068+11:00"}, {"id": 12995, "name": "Great Britain. Ministry of Education", "roles_in_work": [{"id": 859594, "title": "The Three A's", "work_id": 73769, "role": "production company", "role_id": 941, "is_primary": true}, {"id": 2409150, "title": "He went to the cupboard", "work_id": 87920, "role": "production company", "role_id": 941, "is_primary": true}, {"id": 2678268, "title": "Beginning of history", "work_id": 65310, "role": "sponsor", "role_id": 625, "is_primary": false}, {"id": 2646554, "title": "Teaching young children", "work_id": 73559, "role": "sponsor", "role_id": 625, "is_primary": false}], "also_known_as": "", "date_of_birth": "", "date_of_death": "", "genders": [], "languages": [], "places_of_operation": [], "biography": "", "biography_author": null, "date_of_biography": "2023-08-11T17:16:18.406777+10:00", "external_links": [], "uuid": "8e2d5c8b-0210-4b36-ab04-2ed1370dd63a", "source": {"name": "Vernon", "slug": "vernon"}, "source_identifier": "10557", "external_references": [], "date_modified": "2025-03-06T23:45:30.948669+11:00"}]}