{"count": 28687, "next": "https://api.acmi.net.au/creators/?page=2317", "previous": "https://api.acmi.net.au/creators/?page=2315", "results": [{"id": 16469, "name": "R R D Productions", "roles_in_work": [{"id": 2645521, "title": "Magnificent memory", "work_id": 70007, "role": "production company", "role_id": 941, "is_primary": true}], "also_known_as": "", "date_of_birth": null, "date_of_death": null, "genders": [], "languages": [], "places_of_operation": [], "biography": "", "biography_author": null, "date_of_biography": null, "external_links": [], "uuid": "520b0225-d952-413d-ae4a-b7a7db950e47", "source": {"name": "Vernon", "slug": "vernon"}, "source_identifier": "11803", "external_references": [], "date_modified": "2025-03-05T12:41:36.306138+11:00"}, {"id": 16465, "name": "V. Shantaram", "roles_in_work": [{"id": 2647745, "title": "The Dancing feet", "work_id": 77207, "role": "producer", "role_id": 1089, "is_primary": true}, {"id": 1807221, "title": "The Magic touch", "work_id": 69997, "role": "producer", "role_id": 1089, "is_primary": true}], "also_known_as": "", "date_of_birth": null, "date_of_death": null, "genders": [], "languages": [], "places_of_operation": [], "biography": "", "biography_author": null, "date_of_biography": null, "external_links": [], "uuid": "14aaa293-58bd-4ce3-819c-10593ce77fa7", "source": {"name": "Vernon", "slug": "vernon"}, "source_identifier": "30035", "external_references": [], "date_modified": "2025-03-05T13:31:40.553943+11:00"}, {"id": 16462, "name": "Christopher Chapman", "roles_in_work": [{"id": 856797, "title": "The Persistent seed", "work_id": 71488, "role": "director", "role_id": 938, "is_primary": true}, {"id": 2074363, "title": "A Sense of humus", "work_id": 72658, "role": "director", "role_id": 938, "is_primary": true}, {"id": 894985, "title": "Magic molecule", "work_id": 69993, "role": "co-director", "role_id": 959, "is_primary": true}, {"id": 1803503, "title": "The Seasons", "work_id": 72594, "role": "producer", "role_id": 1089, "is_primary": true}, {"id": 886481, "title": "A Place to stand", "work_id": 96239, "role": "producer/director", "role_id": 31, "is_primary": true}, {"id": 857417, "title": "Quetico", "work_id": 72003, "role": "producer/director", "role_id": 31, "is_primary": true}], "also_known_as": "", "date_of_birth": "1927-01-24", "date_of_death": "2015-10-24", "genders": [{"id": 9, "name": "Male", "slug": "male"}], "languages": [], "places_of_operation": [{"id": 36, "name": "Canada", "slug": "canada"}], "biography": "Christopher Chapman  (January 24, 1927 – October 24, 2015) was a Canadian film writer, director, editor and cinematographer. Best known for his award-winning 1967 short film A Place to Stand, he also pioneered the multi-dynamic image technique used in films and television shows.", "biography_author": "Wikidata", "date_of_biography": "2023-08-01T14:26:37.527710+10:00", "external_links": [{"id": 3769, "uri": "https://en.wikipedia.org/wiki/Christopher_Chapman"}], "uuid": "2d96db54-6489-4f73-8499-7acbd9285f45", "source": {"name": "Vernon", "slug": "vernon"}, "source_identifier": "16952", "external_references": [{"id": 26489, "source": {"name": "Wikidata", "slug": "wikidata"}, "source_identifier": "Q2966560"}], "date_modified": "2023-09-05T18:35:29.589874+10:00"}, {"id": 16461, "name": "Bob Curtis", "roles_in_work": [{"id": 2467458, "title": "The Magic machines & other tricks", "work_id": 69990, "role": "director", "role_id": 938, "is_primary": true}], "also_known_as": "", "date_of_birth": "", "date_of_death": "", "genders": [], "languages": [], "places_of_operation": [], "biography": "", "biography_author": null, "date_of_biography": "2023-08-14T11:20:37.472555+10:00", "external_links": [], "uuid": "8f27688c-0934-45dd-9431-9a154c4fa9c7", "source": {"name": "Vernon", "slug": "vernon"}, "source_identifier": "16059", "external_references": [], "date_modified": "2023-08-14T11:20:37.472764+10:00"}, {"id": 16460, "name": "Joan Keller Stern", "roles_in_work": [{"id": 2467457, "title": "The Magic machines & other tricks", "work_id": 69990, "role": "producer", "role_id": 1089, "is_primary": true}], "also_known_as": "", "date_of_birth": "", "date_of_death": "", "genders": [], "languages": [], "places_of_operation": [], "biography": "", "biography_author": null, "date_of_biography": "2023-08-14T11:20:36.833062+10:00", "external_links": [], "uuid": "85fa2965-a037-40cd-b28f-62955c169e0a", "source": {"name": "Vernon", "slug": "vernon"}, "source_identifier": "21978", "external_references": [], "date_modified": "2023-08-14T11:20:36.833277+10:00"}, {"id": 16459, "name": "Fly-By-Night Productions", "roles_in_work": [{"id": 2467456, "title": "The Magic machines & other tricks", "work_id": 69990, "role": "production company", "role_id": 941, "is_primary": true}], "also_known_as": "", "date_of_birth": "", "date_of_death": "", "genders": [], "languages": [], "places_of_operation": [], "biography": "", "biography_author": null, "date_of_biography": "2023-08-14T11:20:36.183679+10:00", "external_links": [], "uuid": "0802573f-7db7-4579-80e5-bc7ad199b610", "source": {"name": "Vernon", "slug": "vernon"}, "source_identifier": "8406", "external_references": [], "date_modified": "2023-08-14T11:20:36.183904+10:00"}, {"id": 16457, "name": "Michael Forlong", "roles_in_work": [{"id": 857710, "title": "Rhythm and movement", "work_id": 72206, "role": "director", "role_id": 938, "is_primary": true}, {"id": 2467444, "title": "The Magic fiddle", "work_id": 69987, "role": "director", "role_id": 938, "is_primary": true}], "also_known_as": "", "date_of_birth": "", "date_of_death": "", "genders": [], "languages": [], "places_of_operation": [], "biography": "", "biography_author": null, "date_of_biography": "2023-08-14T11:20:19.444295+10:00", "external_links": [], "uuid": "88b6a380-85a4-4de3-b89f-5c1fbe977d6e", "source": {"name": "Vernon", "slug": "vernon"}, "source_identifier": "25062", "external_references": [], "date_modified": "2023-08-14T11:20:19.444518+10:00"}, {"id": 16456, "name": "Jon Mathisen", "roles_in_work": [{"id": 2467443, "title": "The Magic fiddle", "work_id": 69987, "role": "producer", "role_id": 1089, "is_primary": true}], "also_known_as": "", "date_of_birth": "", "date_of_death": "", "genders": [], "languages": [], "places_of_operation": [], "biography": "", "biography_author": null, "date_of_biography": "2023-08-14T11:20:18.831017+10:00", "external_links": [], "uuid": "3ae37dda-2b98-41c7-a97a-900965c15b33", "source": {"name": "Vernon", "slug": "vernon"}, "source_identifier": "22613", "external_references": [], "date_modified": "2023-08-14T11:20:18.831322+10:00"}, {"id": 16455, "name": "Norway. Ministry of Education", "roles_in_work": [{"id": 2467442, "title": "The Magic fiddle", "work_id": 69987, "role": "production company", "role_id": 941, "is_primary": true}], "also_known_as": "", "date_of_birth": "", "date_of_death": "", "genders": [], "languages": [], "places_of_operation": [], "biography": "", "biography_author": null, "date_of_biography": "2023-08-14T11:20:18.225362+10:00", "external_links": [], "uuid": "52f3e1d7-e1a3-4972-a1d7-774a6d8f8b1a", "source": {"name": "Vernon", "slug": "vernon"}, "source_identifier": "11014", "external_references": [], "date_modified": "2023-08-14T11:20:18.225683+10:00"}, {"id": 16454, "name": "David Baker", "roles_in_work": [{"id": 2647455, "title": "The Third super state", "work_id": 76392, "role": "director", "role_id": 938, "is_primary": true}, {"id": 2084088, "title": "Airhawk: star of the north", "work_id": 81009, "role": "director", "role_id": 938, "is_primary": true}, {"id": 876805, "title": "The Jolly swagman. [Parts 1 and 2]", "work_id": 90282, "role": "director", "role_id": 938, "is_primary": true}, {"id": 1985146, "title": "Libido", "work_id": 81035, "role": "co-director", "role_id": 959, "is_primary": true}, {"id": 875002, "title": "The Ten town rocket car", "work_id": 89238, "role": "director", "role_id": 938, "is_primary": true}, {"id": 874618, "title": "Emergency at Wallaby Creek", "work_id": 88890, "role": "director", "role_id": 938, "is_primary": true}, {"id": 2784655, "title": "The Magic boomerang: Double trouble", "work_id": 69985, "role": "director", "role_id": 938, "is_primary": true}, {"id": 2352199, "title": "The Great Macarthy [DVD]", "work_id": 95133, "role": "producer/director", "role_id": 31, "is_primary": true}], "also_known_as": "", "date_of_birth": null, "date_of_death": "", "genders": [], "languages": [], "places_of_operation": [], "biography": "", "biography_author": null, "date_of_biography": "2023-05-09T19:58:04.759366+10:00", "external_links": [], "uuid": "d4116dbe-4316-41e0-adc6-28aed4671785", "source": {"name": "Vernon", "slug": "vernon"}, "source_identifier": "17494", "external_references": [{"id": 36082, "source": {"name": "Wikidata", "slug": "wikidata"}, "source_identifier": "Q106375199"}], "date_modified": "2025-03-05T13:26:12.729565+11:00"}]}