{"count": 28687, "next": "https://api.acmi.net.au/creators/?page=1233", "previous": "https://api.acmi.net.au/creators/?page=1231", "results": [{"id": 72996, "name": "George Silk", "roles_in_work": [{"id": 2686389, "title": "100 metre sprint at the Olympic Games in Melbourne", "work_id": 107523, "role": "creator", "role_id": 968, "is_primary": true}], "also_known_as": "", "date_of_birth": "", "date_of_death": "", "genders": [], "languages": [], "places_of_operation": [], "biography": "", "biography_author": null, "date_of_biography": "2023-05-09T17:20:15.112112+10:00", "external_links": [], "uuid": "5489496d-8818-4cae-84c7-535859f01b30", "source": {"name": "Vernon", "slug": "vernon"}, "source_identifier": "39545", "external_references": [], "date_modified": "2025-03-11T12:19:41.559773+11:00"}, {"id": 72995, "name": "Laurie Richards Studio", "roles_in_work": [{"id": 2686391, "title": "GTV9 camera crew at the Olympic Games in Melbourne", "work_id": 107522, "role": "creator", "role_id": 968, "is_primary": true}], "also_known_as": "", "date_of_birth": "", "date_of_death": "", "genders": [], "languages": [], "places_of_operation": [], "biography": "", "biography_author": null, "date_of_biography": "2023-05-09T17:20:16.663472+10:00", "external_links": [], "uuid": "bd418abf-6970-4440-bcbf-8576272a9300", "source": {"name": "Vernon", "slug": "vernon"}, "source_identifier": "39544", "external_references": [], "date_modified": "2025-03-11T12:19:43.789801+11:00"}, {"id": 72994, "name": "Thomas Fisher", "roles_in_work": [{"id": 2686375, "title": "The Kokoda Trail, Papua New Guinea, 1942", "work_id": 107519, "role": "creator", "role_id": 968, "is_primary": true}], "also_known_as": "", "date_of_birth": "", "date_of_death": "", "genders": [], "languages": [], "places_of_operation": [], "biography": "", "biography_author": null, "date_of_biography": "2023-05-09T18:09:25.113353+10:00", "external_links": [], "uuid": "389d197d-b9b0-4b2d-a15a-cfbf20047fe5", "source": {"name": "Vernon", "slug": "vernon"}, "source_identifier": "39543", "external_references": [], "date_modified": "2025-03-11T12:19:22.387043+11:00"}, {"id": 72993, "name": "Jima Nishijima", "roles_in_work": [{"id": 2685369, "title": "Filming The Favourite at Hampton Court Palace", "work_id": 100800, "role": "photographer", "role_id": 440, "is_primary": false}], "also_known_as": "", "date_of_birth": "", "date_of_death": "", "genders": [], "languages": [], "places_of_operation": [], "biography": "", "biography_author": null, "date_of_biography": "2023-08-09T04:26:40.449409+10:00", "external_links": [], "uuid": "84fef4f7-d29d-4148-9196-ebd608203c1d", "source": {"name": "Vernon", "slug": "vernon"}, "source_identifier": "39510", "external_references": [], "date_modified": "2025-03-11T11:48:25.921241+11:00"}, {"id": 72992, "name": "Syd Mead", "roles_in_work": [{"id": 2686079, "title": "Concept artworks of spinners", "work_id": 114484, "role": "creator", "role_id": 968, "is_primary": true}, {"id": 2686075, "title": "Blade Runner spinner concept artworks", "work_id": 100786, "role": "visual artist", "role_id": 493, "is_primary": false}, {"id": 2686073, "title": "Blade Runner spinner concept artworks", "work_id": 100785, "role": "visual artist", "role_id": 493, "is_primary": false}, {"id": 2686077, "title": "Blade Runner spinner concept artworks", "work_id": 100787, "role": "visual artist", "role_id": 493, "is_primary": false}], "also_known_as": "", "date_of_birth": "", "date_of_death": "", "genders": [], "languages": [], "places_of_operation": [], "biography": "", "biography_author": null, "date_of_biography": "2023-05-09T18:48:03.577360+10:00", "external_links": [], "uuid": "d9eebf48-7cd1-4f81-8401-439c6f64a17e", "source": {"name": "Vernon", "slug": "vernon"}, "source_identifier": "39513", "external_references": [], "date_modified": "2025-03-11T12:13:08.022541+11:00"}, {"id": 72991, "name": "Sherman Labby", "roles_in_work": [{"id": 2686102, "title": "Storyboards", "work_id": 113838, "role": "creator", "role_id": 968, "is_primary": true}, {"id": 2686098, "title": "Blade Runner spinner storyboards", "work_id": 100781, "role": "visual artist", "role_id": 493, "is_primary": false}, {"id": 2686100, "title": "Blade Runner spinner storyboards", "work_id": 100782, "role": "visual artist", "role_id": 493, "is_primary": false}, {"id": 2686080, "title": "Early concept drawing of Blade Runner spinner", "work_id": 100783, "role": "visual artist", "role_id": 493, "is_primary": false}], "also_known_as": "", "date_of_birth": "", "date_of_death": "", "genders": [], "languages": [], "places_of_operation": [], "biography": "", "biography_author": null, "date_of_biography": "2023-05-09T18:47:56.845830+10:00", "external_links": [], "uuid": "fc31f9a1-16f7-41a2-a896-49ddc190468b", "source": {"name": "Vernon", "slug": "vernon"}, "source_identifier": "39512", "external_references": [], "date_modified": "2025-03-11T12:13:24.090501+11:00"}, {"id": 72990, "name": "Virgil Mirano", "roles_in_work": [{"id": 2685621, "title": "Photographs of El Segundo used in creation of Hades landscape", "work_id": 114481, "role": "creator", "role_id": 968, "is_primary": true}, {"id": 2685619, "title": "Photographs of El Segundo used in creation of Hades landscape", "work_id": 100773, "role": "photographer", "role_id": 440, "is_primary": false}, {"id": 2685617, "title": "Photographs of El Segundo used in creation of Hades landscape", "work_id": 100772, "role": "photographer", "role_id": 440, "is_primary": false}], "also_known_as": "", "date_of_birth": "", "date_of_death": "", "genders": [], "languages": [], "places_of_operation": [], "biography": "", "biography_author": null, "date_of_biography": "2023-05-09T18:47:59.816626+10:00", "external_links": [], "uuid": "6482f405-4758-468c-845c-282bfb10e940", "source": {"name": "Vernon", "slug": "vernon"}, "source_identifier": "39508", "external_references": [], "date_modified": "2025-03-11T11:55:43.157957+11:00"}, {"id": 72989, "name": "Tom Cranham", "roles_in_work": [{"id": 2685570, "title": "Technical drawing of process for filming matte paintings", "work_id": 100770, "role": "artist", "role_id": 505, "is_primary": true}, {"id": 2685568, "title": "Storyboards of Blade Runner Hades landscape", "work_id": 100769, "role": "visual artist", "role_id": 493, "is_primary": false}], "also_known_as": "", "date_of_birth": "", "date_of_death": "", "genders": [], "languages": [], "places_of_operation": [], "biography": "", "biography_author": null, "date_of_biography": "2023-05-09T18:47:29.181558+10:00", "external_links": [], "uuid": "2ae4efff-a09f-4849-804f-a24a57f69879", "source": {"name": "Vernon", "slug": "vernon"}, "source_identifier": "39504", "external_references": [], "date_modified": "2025-03-11T11:55:05.693364+11:00"}, {"id": 72988, "name": "Mentor Huebner", "roles_in_work": [{"id": 2685566, "title": "Concept art of Blade Runner Hades landscape", "work_id": 100768, "role": "visual artist", "role_id": 493, "is_primary": false}], "also_known_as": "", "date_of_birth": "", "date_of_death": "", "genders": [], "languages": [], "places_of_operation": [], "biography": "", "biography_author": null, "date_of_biography": "2023-05-09T18:47:55.864655+10:00", "external_links": [], "uuid": "9f78fd63-87fc-40a8-a3c8-498331b4c2f2", "source": {"name": "Vernon", "slug": "vernon"}, "source_identifier": "39507", "external_references": [], "date_modified": "2025-03-11T11:55:02.713245+11:00"}, {"id": 72987, "name": "David Peoples", "roles_in_work": [{"id": 1439999, "title": "Blade Runner script page of Hades sequence", "work_id": 100767, "role": "screenwriter", "role_id": 601, "is_primary": false}], "also_known_as": "", "date_of_birth": null, "date_of_death": null, "genders": [], "languages": [], "places_of_operation": [], "biography": "", "biography_author": null, "date_of_biography": null, "external_links": [], "uuid": "f5e53392-6493-4030-98e1-4337581a1b8d", "source": {"name": "Vernon", "slug": "vernon"}, "source_identifier": null, "external_references": [], "date_modified": "2023-06-14T16:33:30.576250+10:00"}]}