{"count": 28687, "next": "https://api.acmi.net.au/creators/?page=2184", "previous": "https://api.acmi.net.au/creators/?page=2182", "results": [{"id": 18977, "name": "Joachim Schult", "roles_in_work": [{"id": 2768866, "title": "The First essential skills", "work_id": 75106, "role": "director", "role_id": 938, "is_primary": true}], "also_known_as": "", "date_of_birth": "", "date_of_death": "", "genders": [], "languages": [], "places_of_operation": [], "biography": "", "biography_author": null, "date_of_biography": "2023-08-14T11:11:53.442848+10:00", "external_links": [], "uuid": "c357f5ae-d59e-4674-85af-d8af210a0cf4", "source": {"name": "Vernon", "slug": "vernon"}, "source_identifier": "21959", "external_references": [], "date_modified": "2025-03-14T18:11:24.134587+11:00"}, {"id": 18976, "name": "Richard Creagh-Osborne", "roles_in_work": [{"id": 2768864, "title": "The First essential skills", "work_id": 75106, "role": "producer", "role_id": 1089, "is_primary": true}], "also_known_as": "", "date_of_birth": "", "date_of_death": "", "genders": [], "languages": [], "places_of_operation": [], "biography": "", "biography_author": null, "date_of_biography": "2023-08-14T11:11:52.819817+10:00", "external_links": [], "uuid": "46c16928-f01e-43a8-9e38-e29937b83b18", "source": {"name": "Vernon", "slug": "vernon"}, "source_identifier": "27358", "external_references": [], "date_modified": "2025-03-14T18:11:23.565331+11:00"}, {"id": 18975, "name": "United Nautical Publishers", "roles_in_work": [{"id": 2768862, "title": "The First essential skills", "work_id": 75106, "role": "production company", "role_id": 941, "is_primary": true}], "also_known_as": "", "date_of_birth": "", "date_of_death": "", "genders": [], "languages": [], "places_of_operation": [], "biography": "", "biography_author": null, "date_of_biography": "2023-08-14T11:11:52.202744+10:00", "external_links": [], "uuid": "e431ad48-3874-4fae-acf2-308c4c30f0a2", "source": {"name": "Vernon", "slug": "vernon"}, "source_identifier": "13869", "external_references": [], "date_modified": "2025-03-14T18:11:22.988365+11:00"}, {"id": 18973, "name": "CTC TV", "roles_in_work": [{"id": 2322968, "title": "Telecom tower", "work_id": 75105, "role": "production company", "role_id": 941, "is_primary": true}], "also_known_as": "", "date_of_birth": "", "date_of_death": "", "genders": [], "languages": [], "places_of_operation": [], "biography": "", "biography_author": null, "date_of_biography": "2023-05-09T19:14:57.189334+10:00", "external_links": [], "uuid": "a9e17014-a43b-4d9a-8fb9-b4d58109f3ca", "source": {"name": "Vernon", "slug": "vernon"}, "source_identifier": "7220", "external_references": [{"id": 40462, "source": {"name": "Wikidata", "slug": "wikidata"}, "source_identifier": "Q121034913"}], "date_modified": "2023-09-05T18:47:22.214292+10:00"}, {"id": 18968, "name": "Greg Parry", "roles_in_work": [{"id": 2750789, "title": "They can be saved", "work_id": 97508, "role": "director", "role_id": 938, "is_primary": true}, {"id": 2766621, "title": "F-111 the first flight", "work_id": 75098, "role": "director", "role_id": 938, "is_primary": true}, {"id": 2766625, "title": "The Charge at Beersheba", "work_id": 75117, "role": "director", "role_id": 938, "is_primary": true}, {"id": 2766633, "title": "Rescue 036", "work_id": 75325, "role": "director", "role_id": 938, "is_primary": true}, {"id": 764103, "title": "Australian defence feature", "work_id": 77316, "role": "director", "role_id": 938, "is_primary": true}, {"id": 2766618, "title": "Sentinel", "work_id": 114975, "role": "director", "role_id": 938, "is_primary": true}], "also_known_as": "", "date_of_birth": "", "date_of_death": "", "genders": [], "languages": [], "places_of_operation": [], "biography": "", "biography_author": null, "date_of_biography": "2023-08-11T13:01:19.344636+10:00", "external_links": [], "uuid": "11d8b412-eecc-4b9a-97b3-8f8c939034e7", "source": {"name": "Vernon", "slug": "vernon"}, "source_identifier": "20060", "external_references": [], "date_modified": "2025-03-14T17:59:30.964566+11:00"}, {"id": 18967, "name": "Edutec International", "roles_in_work": [{"id": 2647027, "title": "The Double-spandrel bridge", "work_id": 75097, "role": "production company", "role_id": 941, "is_primary": true}, {"id": 2647079, "title": "Study of a 2,100 year old corpse", "work_id": 75322, "role": "production company", "role_id": 941, "is_primary": true}], "also_known_as": "", "date_of_birth": "", "date_of_death": "", "genders": [], "languages": [], "places_of_operation": [], "biography": "", "biography_author": null, "date_of_biography": "2023-08-14T11:10:06.347160+10:00", "external_links": [], "uuid": "6e4ca376-89cb-4851-b1fe-232c91fb5eab", "source": {"name": "Vernon", "slug": "vernon"}, "source_identifier": "7824", "external_references": [], "date_modified": "2025-03-05T13:17:31.012355+11:00"}, {"id": 18966, "name": "Reed Executive Selection", "roles_in_work": [{"id": 2647025, "title": "Man hunt", "work_id": 75096, "role": "production company", "role_id": 941, "is_primary": true}], "also_known_as": "", "date_of_birth": null, "date_of_death": null, "genders": [], "languages": [], "places_of_operation": [], "biography": "", "biography_author": null, "date_of_biography": null, "external_links": [], "uuid": "9e7f280b-b18d-4661-b956-9582e2604ddc", "source": {"name": "Vernon", "slug": "vernon"}, "source_identifier": "11921", "external_references": [], "date_modified": "2025-03-05T13:16:50.996174+11:00"}, {"id": 18965, "name": "Philip McPhedran", "roles_in_work": [{"id": 2173222, "title": "Karen Kain: ballerina", "work_id": 75095, "role": "director", "role_id": 938, "is_primary": true}], "also_known_as": "", "date_of_birth": "", "date_of_death": "", "genders": [], "languages": [], "places_of_operation": [], "biography": "", "biography_author": null, "date_of_biography": "2023-05-09T14:40:00.806063+10:00", "external_links": [], "uuid": "45008e6a-4b70-42c9-a998-cf028e097585", "source": {"name": "Vernon", "slug": "vernon"}, "source_identifier": "26830", "external_references": [{"id": 41194, "source": {"name": "Wikidata", "slug": "wikidata"}, "source_identifier": "Q121035559"}], "date_modified": "2023-09-06T00:04:59.848801+10:00"}, {"id": 18963, "name": "Roger Lupton", "roles_in_work": [{"id": 2750943, "title": "Energy, food and exercise", "work_id": 97587, "role": "director", "role_id": 938, "is_primary": true}, {"id": 2750970, "title": "Fatness, foods and fads", "work_id": 97599, "role": "director", "role_id": 938, "is_primary": true}, {"id": 758618, "title": "The Automated mariner", "work_id": 75088, "role": "director", "role_id": 938, "is_primary": true}], "also_known_as": "", "date_of_birth": null, "date_of_death": null, "genders": [], "languages": [], "places_of_operation": [], "biography": "", "biography_author": null, "date_of_biography": null, "external_links": [], "uuid": "9b4a718c-1211-4bd8-8662-70a11a37d517", "source": {"name": "Vernon", "slug": "vernon"}, "source_identifier": "28059", "external_references": [], "date_modified": "2025-03-13T00:32:53.174551+11:00"}, {"id": 18962, "name": "John Ruth", "roles_in_work": [{"id": 1812417, "title": "The Amish: a people of preservation (Edited version)", "work_id": 81875, "role": "producer", "role_id": 1089, "is_primary": true}, {"id": 2647022, "title": "The Amish: a people of preservation", "work_id": 75086, "role": "producer", "role_id": 1089, "is_primary": true}], "also_known_as": "", "date_of_birth": null, "date_of_death": null, "genders": [], "languages": [], "places_of_operation": [], "biography": "", "biography_author": null, "date_of_biography": null, "external_links": [], "uuid": "9453a5f5-a6d6-4b66-935d-ada50a5dd304", "source": {"name": "Vernon", "slug": "vernon"}, "source_identifier": "22362", "external_references": [], "date_modified": "2025-03-05T13:16:48.975495+11:00"}]}