{"count": 28687, "next": "https://api.acmi.net.au/creators/?page=306", "previous": "https://api.acmi.net.au/creators/?page=304", "results": [{"id": 82557, "name": "The Beijing Opera Troupe of Fujian Province", "roles_in_work": [{"id": 2043966, "title": "True and fake Monkey Kings = Zhen Jia Mei Hou Wang", "work_id": 115786, "role": "cast", "role_id": 33, "is_primary": false}], "also_known_as": "", "date_of_birth": null, "date_of_death": null, "genders": [], "languages": [], "places_of_operation": [], "biography": "", "biography_author": null, "date_of_biography": null, "external_links": [], "uuid": "53873479-40f3-4a20-b295-75b0009a7fc2", "source": {"name": "Vernon", "slug": "vernon"}, "source_identifier": null, "external_references": [{"id": 43420, "source": {"name": "Wikidata", "slug": "wikidata"}, "source_identifier": "Q121091436"}], "date_modified": "2023-09-06T01:47:22.229434+10:00"}, {"id": 82556, "name": "Chen Jianjun", "roles_in_work": [{"id": 2043965, "title": "True and fake Monkey Kings = Zhen Jia Mei Hou Wang", "work_id": 115786, "role": "cast", "role_id": 33, "is_primary": false}], "also_known_as": "", "date_of_birth": null, "date_of_death": null, "genders": [], "languages": [], "places_of_operation": [], "biography": "", "biography_author": null, "date_of_biography": null, "external_links": [], "uuid": "96a60655-c586-4301-a3c8-046645d6b0fa", "source": {"name": "Vernon", "slug": "vernon"}, "source_identifier": null, "external_references": [{"id": 34912, "source": {"name": "Wikidata", "slug": "wikidata"}, "source_identifier": "Q121040123"}], "date_modified": "2023-09-05T18:29:47.351693+10:00"}, {"id": 82555, "name": "Zhao Yuliang", "roles_in_work": [{"id": 2043964, "title": "True and fake Monkey Kings = Zhen Jia Mei Hou Wang", "work_id": 115786, "role": "cast", "role_id": 33, "is_primary": false}], "also_known_as": "", "date_of_birth": null, "date_of_death": null, "genders": [], "languages": [], "places_of_operation": [], "biography": "", "biography_author": null, "date_of_biography": null, "external_links": [], "uuid": "cfd7abf1-1866-4914-83f5-b25cf2c03f02", "source": {"name": "Vernon", "slug": "vernon"}, "source_identifier": null, "external_references": [{"id": 52075, "source": {"name": "Wikidata", "slug": "wikidata"}, "source_identifier": "Q121357940"}], "date_modified": "2023-09-06T02:26:37.738986+10:00"}, {"id": 82554, "name": "Wang Jinzhu", "roles_in_work": [{"id": 2043963, "title": "True and fake Monkey Kings = Zhen Jia Mei Hou Wang", "work_id": 115786, "role": "cast", "role_id": 33, "is_primary": false}], "also_known_as": "", "date_of_birth": null, "date_of_death": null, "genders": [], "languages": [], "places_of_operation": [], "biography": "", "biography_author": null, "date_of_biography": null, "external_links": [], "uuid": "68211507-ce9d-4324-a545-6317e6199f12", "source": {"name": "Vernon", "slug": "vernon"}, "source_identifier": null, "external_references": [{"id": 38333, "source": {"name": "Wikidata", "slug": "wikidata"}, "source_identifier": "Q121126262"}], "date_modified": "2023-09-06T02:10:59.255519+10:00"}, {"id": 82553, "name": "Xu Dasong", "roles_in_work": [{"id": 2043962, "title": "True and fake Monkey Kings = Zhen Jia Mei Hou Wang", "work_id": 115786, "role": "cast", "role_id": 33, "is_primary": false}], "also_known_as": "", "date_of_birth": null, "date_of_death": null, "genders": [], "languages": [], "places_of_operation": [], "biography": "", "biography_author": null, "date_of_biography": null, "external_links": [], "uuid": "086b6b1a-6099-46bb-ba0d-0b1eb3128f0c", "source": {"name": "Vernon", "slug": "vernon"}, "source_identifier": null, "external_references": [{"id": 32697, "source": {"name": "Wikidata", "slug": "wikidata"}, "source_identifier": "Q121270715"}], "date_modified": "2023-09-06T02:21:29.760831+10:00"}, {"id": 82552, "name": "Shi Jie", "roles_in_work": [{"id": 2043961, "title": "True and fake Monkey Kings = Zhen Jia Mei Hou Wang", "work_id": 115786, "role": "editor", "role_id": 918, "is_primary": true}], "also_known_as": "", "date_of_birth": null, "date_of_death": null, "genders": [], "languages": [], "places_of_operation": [], "biography": "", "biography_author": null, "date_of_biography": null, "external_links": [], "uuid": "948de9fe-b7bd-4262-a940-c2e1528e6738", "source": {"name": "Vernon", "slug": "vernon"}, "source_identifier": null, "external_references": [{"id": 38741, "source": {"name": "Wikidata", "slug": "wikidata"}, "source_identifier": "Q121036186"}], "date_modified": "2023-09-06T01:15:41.169580+10:00"}, {"id": 82551, "name": "Yan Xuzhong", "roles_in_work": [{"id": 2043959, "title": "True and fake Monkey Kings = Zhen Jia Mei Hou Wang", "work_id": 115786, "role": "cinematographer", "role_id": 32, "is_primary": false}], "also_known_as": "", "date_of_birth": null, "date_of_death": null, "genders": [], "languages": [], "places_of_operation": [], "biography": "", "biography_author": null, "date_of_biography": null, "external_links": [], "uuid": "6f85345f-b7b3-4b0c-b33a-184ec9b06ebb", "source": {"name": "Vernon", "slug": "vernon"}, "source_identifier": null, "external_references": [{"id": 40592, "source": {"name": "Wikidata", "slug": "wikidata"}, "source_identifier": "Q121337314"}], "date_modified": "2023-09-06T02:22:03.775546+10:00"}, {"id": 82550, "name": "Li Youbin", "roles_in_work": [{"id": 2043958, "title": "True and fake Monkey Kings = Zhen Jia Mei Hou Wang", "work_id": 115786, "role": "script", "role_id": 962, "is_primary": false}], "also_known_as": "", "date_of_birth": null, "date_of_death": null, "genders": [], "languages": [], "places_of_operation": [], "biography": "", "biography_author": null, "date_of_biography": null, "external_links": [], "uuid": "59f18433-4cfc-4032-b21c-6f8672c1e752", "source": {"name": "Vernon", "slug": "vernon"}, "source_identifier": null, "external_references": [], "date_modified": "2023-06-14T16:33:30.576250+10:00"}, {"id": 82549, "name": "Yao Yinghua", "roles_in_work": [{"id": 2043957, "title": "True and fake Monkey Kings = Zhen Jia Mei Hou Wang", "work_id": 115786, "role": "script", "role_id": 962, "is_primary": false}], "also_known_as": "", "date_of_birth": null, "date_of_death": null, "genders": [], "languages": [], "places_of_operation": [], "biography": "", "biography_author": null, "date_of_biography": null, "external_links": [], "uuid": "7708405c-d12e-4fd4-9261-fbf6d8ca96c5", "source": {"name": "Vernon", "slug": "vernon"}, "source_identifier": null, "external_references": [], "date_modified": "2023-06-14T16:33:30.576250+10:00"}, {"id": 82548, "name": "Fang Ying", "roles_in_work": [{"id": 2043956, "title": "True and fake Monkey Kings = Zhen Jia Mei Hou Wang", "work_id": 115786, "role": "director", "role_id": 938, "is_primary": true}], "also_known_as": "", "date_of_birth": null, "date_of_death": null, "genders": [], "languages": [], "places_of_operation": [], "biography": "", "biography_author": null, "date_of_biography": null, "external_links": [], "uuid": "bce6a78b-74d5-40ca-ad6b-761b0e65f0c7", "source": {"name": "Vernon", "slug": "vernon"}, "source_identifier": null, "external_references": [{"id": 33331, "source": {"name": "Wikidata", "slug": "wikidata"}, "source_identifier": "Q121299551"}], "date_modified": "2023-09-05T19:40:15.009634+10:00"}]}