{"count": 28687, "next": "https://api.acmi.net.au/creators/?page=1724", "previous": "https://api.acmi.net.au/creators/?page=1722", "results": [{"id": 28118, "name": "Vic Hughes", "roles_in_work": [{"id": 2136819, "title": "Chocky", "work_id": 86075, "role": "co-director", "role_id": 959, "is_primary": true}, {"id": 2136812, "title": "Chocky", "work_id": 86075, "role": "producer", "role_id": 1089, "is_primary": true}], "also_known_as": "", "date_of_birth": "", "date_of_death": "", "genders": [], "languages": [], "places_of_operation": [], "biography": "", "biography_author": null, "date_of_biography": "2023-05-09T13:31:02.931092+10:00", "external_links": [], "uuid": "c7804b83-93aa-4203-a44e-1ffa2b54b612", "source": {"name": "Vernon", "slug": "vernon"}, "source_identifier": "30085", "external_references": [{"id": 38507, "source": {"name": "Wikidata", "slug": "wikidata"}, "source_identifier": "Q121034245"}], "date_modified": "2023-09-06T02:04:09.576589+10:00"}, {"id": 28117, "name": "Thorn EMI", "roles_in_work": [{"id": 2136808, "title": "Chocky", "work_id": 86075, "role": "production company", "role_id": 941, "is_primary": true}], "also_known_as": "", "date_of_birth": "", "date_of_death": "", "genders": [], "languages": [], "places_of_operation": [], "biography": "", "biography_author": null, "date_of_biography": "2023-05-09T13:31:02.091770+10:00", "external_links": [], "uuid": "13e33dca-1227-44f4-9a3a-c1cd18959f0c", "source": {"name": "Vernon", "slug": "vernon"}, "source_identifier": "13499", "external_references": [{"id": 32802, "source": {"name": "Wikidata", "slug": "wikidata"}, "source_identifier": "Q121337142"}], "date_modified": "2023-09-06T01:49:18.433056+10:00"}, {"id": 28116, "name": "Alexander Schure", "roles_in_work": [{"id": 870069, "title": "Tubby the tuba", "work_id": 86074, "role": "producer/director", "role_id": 31, "is_primary": true}, {"id": 870068, "title": "Tubby the tuba", "work_id": 86074, "role": "production company", "role_id": 941, "is_primary": true}], "also_known_as": "", "date_of_birth": "1920-08-03", "date_of_death": "2009-10-29", "genders": [{"id": 9, "name": "Male", "slug": "male"}], "languages": [{"id": 4, "name": "French", "slug": "french"}], "places_of_operation": [{"id": 1, "name": "United States of America", "slug": "united-states-of-america"}], "biography": "Alexander Schure (August 3, 1920 – October 29, 2009) was an American academic and entrepreneur. Schure founded the New York Institute of Technology (NYIT) in 1955.  He also served as the Chancellor of Nova Southeastern University (NSU) from 1970 until 1985.\n\n", "biography_author": "Wikidata", "date_of_biography": "2022-05-19T10:44:59.004256+10:00", "external_links": [{"id": 1599, "uri": "https://en.wikipedia.org/wiki/Alexander_Schure"}], "uuid": "c445aabf-1d5f-49ca-ba09-4bbc56e70806", "source": {"name": "Vernon", "slug": "vernon"}, "source_identifier": "14930", "external_references": [{"id": 6997, "source": {"name": "Wikidata", "slug": "wikidata"}, "source_identifier": "Q4720037"}, {"id": 6998, "source": {"name": "VIAF", "slug": "viaf"}, "source_identifier": "113174541"}, {"id": 6999, "source": {"name": "LOC Auth", "slug": "loc-auth"}, "source_identifier": "n50003175"}, {"id": 7000, "source": {"name": "WorldCat", "slug": "worldcat"}, "source_identifier": "lccn-n50003175"}], "date_modified": "2023-09-13T12:28:06.390967+10:00"}, {"id": 28115, "name": "Geoffrey Gardiner", "roles_in_work": [{"id": 2207532, "title": "Platypus cove", "work_id": 86068, "role": "producer", "role_id": 1089, "is_primary": true}], "also_known_as": "", "date_of_birth": "", "date_of_death": "", "genders": [], "languages": [], "places_of_operation": [], "biography": "", "biography_author": null, "date_of_biography": "2023-05-09T15:37:54.513894+10:00", "external_links": [], "uuid": "dd70a1fd-771d-4626-b8e4-0f9f664e3e85", "source": {"name": "Vernon", "slug": "vernon"}, "source_identifier": "19487", "external_references": [{"id": 37262, "source": {"name": "Wikidata", "slug": "wikidata"}, "source_identifier": "Q121337204"}], "date_modified": "2023-09-05T20:02:20.547765+10:00"}, {"id": 28114, "name": "Joe McCormick", "roles_in_work": [{"id": 870044, "title": "Funny things happen down under", "work_id": 86067, "role": "director", "role_id": 938, "is_primary": true}], "also_known_as": "", "date_of_birth": null, "date_of_death": null, "genders": [{"id": 9, "name": "Male", "slug": "male"}], "languages": [], "places_of_operation": [], "biography": "Joe McCormick was an actor, director, and presenter. He was accidentally shot while filming Whiplash.", "biography_author": "Wikidata", "date_of_biography": "2023-08-01T15:33:43.214615+10:00", "external_links": [{"id": 4353, "uri": "https://en.wikipedia.org/wiki/Joe_McCormick_(actor)"}], "uuid": "949cdb58-ddb2-4edb-98c8-9267079c9c4e", "source": {"name": "Vernon", "slug": "vernon"}, "source_identifier": "22044", "external_references": [{"id": 25697, "source": {"name": "Wikidata", "slug": "wikidata"}, "source_identifier": "Q97959720"}], "date_modified": "2023-09-13T12:30:29.519254+10:00"}, {"id": 28111, "name": "Greg Johnson", "roles_in_work": [{"id": 2753122, "title": "Soil and water: a living world", "work_id": 98618, "role": "director", "role_id": 938, "is_primary": true}, {"id": 1992756, "title": "Lulu on the bridge", "work_id": 88386, "role": "co-producer", "role_id": 915, "is_primary": true}, {"id": 2121200, "title": "Blue in the face", "work_id": 88770, "role": "co-producer", "role_id": 915, "is_primary": true}, {"id": 2303574, "title": "Smoke", "work_id": 86065, "role": "co-producer", "role_id": 915, "is_primary": true}], "also_known_as": "Gregory C. Johnson", "date_of_birth": "16 MAR 1971", "date_of_death": "08 JUL 2019", "genders": [{"id": 9, "name": "Male", "slug": "male"}], "languages": [{"id": 1, "name": "English", "slug": "english"}], "places_of_operation": [{"id": 36, "name": "Canada", "slug": "canada"}], "biography": "Gregory C. Johnson (March 16, 1971 – July 7, 2019) was a professional ice hockey player in the National Hockey League with the Detroit Red Wings, Pittsburgh Penguins, Chicago Blackhawks, and Nashville Predators.\n\nIn over 700 career NHL games, Johnson earned 350 points from 134 goals and 216 assists.  His best season was in 1998–99 where he achieved 16 goals and 34 assists. Source: Wikidata; 01/08/2023", "biography_author": null, "date_of_biography": "2025-03-13T01:17:43.600077+11:00", "external_links": [{"id": 4102, "uri": "https://en.wikipedia.org/wiki/Greg_Johnson_(ice_hockey)"}], "uuid": "00f6e22c-982a-4cb5-a3a2-c3032501c880", "source": {"name": "Vernon", "slug": "vernon"}, "source_identifier": "20053", "external_references": [{"id": 26023, "source": {"name": "Wikidata", "slug": "wikidata"}, "source_identifier": "Q1544932"}], "date_modified": "2025-03-13T01:17:43.600290+11:00"}, {"id": 28110, "name": "Euro Space", "roles_in_work": [{"id": 2303570, "title": "Smoke", "work_id": 86065, "role": "production company", "role_id": 941, "is_primary": true}, {"id": 1999150, "title": "Under the sand = Sous le sable [DVD]", "work_id": 94306, "role": "production company", "role_id": 941, "is_primary": true}], "also_known_as": "", "date_of_birth": "", "date_of_death": "", "genders": [], "languages": [], "places_of_operation": [], "biography": "", "biography_author": null, "date_of_biography": "2023-05-09T18:41:19.066082+10:00", "external_links": [], "uuid": "9ce416f6-0598-49f1-a7ed-f738a213f5c2", "source": {"name": "Vernon", "slug": "vernon"}, "source_identifier": "7997", "external_references": [], "date_modified": "2023-06-14T16:33:30.576250+10:00"}, {"id": 28109, "name": "Neue Deutsche Filmgesellschaft", "roles_in_work": [{"id": 2303567, "title": "Smoke", "work_id": 86065, "role": "production company", "role_id": 941, "is_primary": true}, {"id": 1997156, "title": "The Tango lesson [DVD]", "work_id": 93144, "role": "production company", "role_id": 941, "is_primary": true}], "also_known_as": "", "date_of_birth": "", "date_of_death": "", "genders": [], "languages": [], "places_of_operation": [], "biography": "", "biography_author": null, "date_of_biography": "2023-05-09T18:41:18.824399+10:00", "external_links": [], "uuid": "2fbee401-66ad-483c-83bc-04206f11c10e", "source": {"name": "Vernon", "slug": "vernon"}, "source_identifier": "4614", "external_references": [], "date_modified": "2023-06-14T16:33:30.576250+10:00"}, {"id": 28106, "name": "Occupational School Therapy of Victoria", "roles_in_work": [{"id": 2399190, "title": "Aids to independence", "work_id": 86056, "role": "production company", "role_id": 941, "is_primary": true}], "also_known_as": "", "date_of_birth": "", "date_of_death": "", "genders": [], "languages": [], "places_of_operation": [], "biography": "", "biography_author": null, "date_of_biography": "2023-08-11T13:39:46.793330+10:00", "external_links": [], "uuid": "e85a053d-51ca-4831-9e87-23b000bab318", "source": {"name": "Vernon", "slug": "vernon"}, "source_identifier": "11072", "external_references": [], "date_modified": "2023-08-11T13:39:46.793710+10:00"}, {"id": 28102, "name": "Joe Murray", "roles_in_work": [{"id": 2184274, "title": "Degenocide: the second best of the original DGeneration", "work_id": 86832, "role": "co-director", "role_id": 959, "is_primary": true}, {"id": 2330285, "title": "The Best bits of the Late Show", "work_id": 86031, "role": "director", "role_id": 938, "is_primary": true}, {"id": 2044378, "title": "World Series Debating: That Football is Stupid", "work_id": 116755, "role": "director", "role_id": 938, "is_primary": true}, {"id": 2330302, "title": "The Best bits of the Late Show : Vol. 2", "work_id": 86032, "role": "director", "role_id": 938, "is_primary": true}, {"id": 2330979, "title": "The Best bits of the Late Show Vol. 3", "work_id": 86033, "role": "director", "role_id": 938, "is_primary": true}], "also_known_as": "", "date_of_birth": "", "date_of_death": "", "genders": [], "languages": [], "places_of_operation": [], "biography": "", "biography_author": null, "date_of_biography": "2023-05-09T19:25:30.269038+10:00", "external_links": [], "uuid": "54ce8721-cc8e-4622-8a1a-7fd763c1ffb1", "source": {"name": "Vernon", "slug": "vernon"}, "source_identifier": "22049", "external_references": [{"id": 38438, "source": {"name": "Wikidata", "slug": "wikidata"}, "source_identifier": "Q121337749"}], "date_modified": "2023-09-05T21:30:02.460808+10:00"}]}