{"count": 28684, "next": "https://api.acmi.net.au/creators/?page=2334", "previous": "https://api.acmi.net.au/creators/?page=2332", "results": [{"id": 16141, "name": "Rainbow Productions", "roles_in_work": [{"id": 2467286, "title": "The Kinetic sculpture of Gordon Barlow", "work_id": 69400, "role": "production company", "role_id": 941, "is_primary": true}], "also_known_as": "", "date_of_birth": "", "date_of_death": "", "genders": [], "languages": [], "places_of_operation": [], "biography": "", "biography_author": null, "date_of_biography": "2023-08-14T11:16:57.158353+10:00", "external_links": [], "uuid": "53d6bee1-99b2-4647-ae82-4234f20cfe30", "source": {"name": "Vernon", "slug": "vernon"}, "source_identifier": "11842", "external_references": [], "date_modified": "2023-08-14T11:16:57.158748+10:00"}, {"id": 16140, "name": "Edward McConnell", "roles_in_work": [{"id": 759082, "title": "Weave me a rainbow", "work_id": 75284, "role": "director", "role_id": 938, "is_primary": true}, {"id": 854079, "title": "A Kind of seeing: the colour of Scotland", "work_id": 69395, "role": "director", "role_id": 938, "is_primary": true}, {"id": 2471122, "title": "Walkabout Edinburgh", "work_id": 91493, "role": "director", "role_id": 938, "is_primary": true}, {"id": 858643, "title": "Songs of Scotland", "work_id": 73011, "role": "producer/director", "role_id": 31, "is_primary": true}], "also_known_as": "", "date_of_birth": "", "date_of_death": "", "genders": [], "languages": [], "places_of_operation": [], "biography": "", "biography_author": null, "date_of_biography": "2023-08-14T12:34:11.357422+10:00", "external_links": [], "uuid": "065f1ab4-46d0-43ee-b783-bfc1288e98d7", "source": {"name": "Vernon", "slug": "vernon"}, "source_identifier": "18616", "external_references": [], "date_modified": "2023-08-14T12:34:11.357732+10:00"}, {"id": 16133, "name": "Offshore Productions", "roles_in_work": [{"id": 2645367, "title": "Kiel Olympiad: Olympic yachting 1972", "work_id": 69387, "role": "production company", "role_id": 941, "is_primary": true}], "also_known_as": "", "date_of_birth": "", "date_of_death": "", "genders": [], "languages": [], "places_of_operation": [], "biography": "", "biography_author": null, "date_of_biography": "2023-08-11T19:06:29.372044+10:00", "external_links": [], "uuid": "d045a030-2617-45bf-8cac-5aea187a5bbd", "source": {"name": "Vernon", "slug": "vernon"}, "source_identifier": "11098", "external_references": [], "date_modified": "2025-03-05T12:37:35.634166+11:00"}, {"id": 16132, "name": "Tal Ordell", "roles_in_work": [{"id": 2645366, "title": "The Kid Stakes", "work_id": 69386, "role": "director", "role_id": 938, "is_primary": true}], "also_known_as": "", "date_of_birth": "1880-01-01", "date_of_death": "1948-06-08", "genders": [{"id": 9, "name": "Male", "slug": "male"}], "languages": [], "places_of_operation": [{"id": 3, "name": "Australia", "slug": "australia"}], "biography": "Talone Ordell (1880–1948), better known as Tal Ordel, was an Australian actor, writer and director. Ordell was probably born in Calcutta, India, seventh child of Victorian-born parents William Odell Raymond Buntine, drover, and his wife Susanna, née Mawley. He worked extensively on stage and screen as an actor in the 1910s and 1920s, playing Dad Rudd twice for Raymond Longford and Dad Hayseed – a similar role – three times for Beaumont Smith. He was the original \"Ginger Mick\" in the stage version of The Sentimental Bloke. He toured Australia with Marie Tempest.He turned director with The Kid Stakes (1927), based on the cartoon character Fatty Finn. In the 1930s he worked more in radio as a writer and actor.", "biography_author": "Wikidata", "date_of_biography": "2022-05-19T13:11:54.702262+10:00", "external_links": [{"id": 3175, "uri": "https://en.wikipedia.org/wiki/Tal_Ordell"}], "uuid": "3ed070e4-73e3-4613-893c-9a17f8bbbbef", "source": {"name": "Vernon", "slug": "vernon"}, "source_identifier": "29478", "external_references": [{"id": 13458, "source": {"name": "Wikidata", "slug": "wikidata"}, "source_identifier": "Q7678712"}], "date_modified": "2025-03-05T12:37:33.657335+11:00"}, {"id": 16131, "name": "Coyle-Ordell Productions", "roles_in_work": [{"id": 2645365, "title": "The Kid Stakes", "work_id": 69386, "role": "production company", "role_id": 941, "is_primary": true}], "also_known_as": "", "date_of_birth": null, "date_of_death": null, "genders": [], "languages": [], "places_of_operation": [], "biography": "", "biography_author": null, "date_of_biography": null, "external_links": [], "uuid": "980baa8d-4654-4de1-b745-785108eb49df", "source": {"name": "Vernon", "slug": "vernon"}, "source_identifier": "7130", "external_references": [], "date_modified": "2025-03-05T12:37:33.058867+11:00"}, {"id": 16130, "name": "ScreenSound Australia", "roles_in_work": [{"id": 2648713, "title": "The Hero of the Dardanelles", "work_id": 79861, "role": "distributor", "role_id": 437, "is_primary": false}, {"id": 2648772, "title": "Efftee's Australia", "work_id": 79949, "role": "distributor", "role_id": 437, "is_primary": false}, {"id": 2754885, "title": "Federation films: Australian films from early 20th century", "work_id": 99411, "role": "distributor", "role_id": 437, "is_primary": false}, {"id": 2496400, "title": "A Son is born", "work_id": 87697, "role": "distributor", "role_id": 437, "is_primary": false}, {"id": 2615980, "title": "Heritage", "work_id": 86508, "role": "distributor", "role_id": 437, "is_primary": false}, {"id": 2615983, "title": "Sons of Matthew", "work_id": 86519, "role": "distributor", "role_id": 437, "is_primary": false}, {"id": 2615987, "title": "Border images: Albury-Wodonga 1920s-1970s", "work_id": 86520, "role": "distributor", "role_id": 437, "is_primary": false}, {"id": 2615989, "title": "Queensland's first films 1895-1910", "work_id": 86521, "role": "distributor", "role_id": 437, "is_primary": false}, {"id": 2645364, "title": "The Kid Stakes", "work_id": 69386, "role": "distributor", "role_id": 437, "is_primary": false}, {"id": 2648708, "title": "His Royal Highness", "work_id": 79848, "role": "distributor", "role_id": 437, "is_primary": false}, {"id": 2648711, "title": "A Nation is built", "work_id": 79860, "role": "distributor", "role_id": 437, "is_primary": false}, {"id": 790207, "title": "VFL on film 1909-1945: Marking time. - Vol. 1.", "work_id": 85595, "role": "distributor", "role_id": 437, "is_primary": false}, {"id": 2043290, "title": "Living Melbourne 1896-1910", "work_id": 79951, "role": "distributor", "role_id": 437, "is_primary": false}, {"id": 1993240, "title": "The Castle (Captioned)", "work_id": 88850, "role": "distributor", "role_id": 437, "is_primary": false}, {"id": 1993249, "title": "Once were warriors (Captioned)", "work_id": 88852, "role": "distributor", "role_id": 437, "is_primary": false}, {"id": 2476076, "title": "The Story of the Kelly gang (1906)", "work_id": 79859, "role": "distributor", "role_id": 437, "is_primary": false}, {"id": 2043594, "title": "The Woman Suffers", "work_id": 86518, "role": "distributor", "role_id": 437, "is_primary": false}, {"id": 1786252, "title": "Olinda festival, 1952: festival presentations (CD)", "work_id": 93159, "role": "distributor", "role_id": 437, "is_primary": false}, {"id": 811655, "title": "Cops, spies and private eyes", "work_id": 92499, "role": "distributor", "role_id": 437, "is_primary": false}, {"id": 1994165, "title": "Good Will Hunting (Captioned)", "work_id": 89906, "role": "distributor", "role_id": 437, "is_primary": false}, {"id": 810764, "title": "Redex round Australia car trials: 1953, 1954, 1955", "work_id": 92271, "role": "distributor", "role_id": 437, "is_primary": false}, {"id": 1994169, "title": "Mrs Brown = Her Majesty Mrs Brown (Captioned)", "work_id": 89907, "role": "distributor", "role_id": 437, "is_primary": false}, {"id": 818537, "title": "Mike and Stefani (50th anniversary reissue)", "work_id": 94122, "role": "distributor", "role_id": 437, "is_primary": false}, {"id": 1427442, "title": "Fashion daze : Australian style on the catwalk 1910s-1970s", "work_id": 86513, "role": "distributor", "role_id": 437, "is_primary": false}, {"id": 2476487, "title": "Into the straight", "work_id": 87693, "role": "distributor", "role_id": 437, "is_primary": false}, {"id": 818089, "title": "Keepin' silent", "work_id": 94024, "role": "distributor", "role_id": 437, "is_primary": false}, {"id": 2303760, "title": "Snow, sand and savages: the life of Frank Hurley", "work_id": 87692, "role": "distributor", "role_id": 437, "is_primary": false}, {"id": 2351435, "title": "The Glenrowan affair", "work_id": 94068, "role": "distributor", "role_id": 437, "is_primary": false}, {"id": 2303546, "title": "Smithy", "work_id": 87695, "role": "distributor", "role_id": 437, "is_primary": false}, {"id": 2198983, "title": "Donnie Brasco (Captioned)", "work_id": 88849, "role": "distributor", "role_id": 437, "is_primary": false}, {"id": 2318266, "title": "Sun, surf and sand", "work_id": 90563, "role": "distributor", "role_id": 437, "is_primary": false}, {"id": 2615717, "title": "A Ticket in tatts", "work_id": 86020, "role": "distributor", "role_id": 437, "is_primary": false}, {"id": 753370, "title": "The Sick Stockrider", "work_id": 72804, "role": "distributor", "role_id": 437, "is_primary": false}, {"id": 2215021, "title": "Efftee Entertainers", "work_id": 79950, "role": "distributor", "role_id": 437, "is_primary": false}, {"id": 1984307, "title": "The Man from kangaroo (1920)", "work_id": 79863, "role": "distributor", "role_id": 437, "is_primary": false}, {"id": 864620, "title": "Efftee entertainers", "work_id": 78135, "role": "distributor", "role_id": 437, "is_primary": false}, {"id": 818201, "title": "Clarence River district: moving memories 1920s-1970s", "work_id": 94053, "role": "distributor", "role_id": 437, "is_primary": false}, {"id": 2100552, "title": "Around the boree log (1925)", "work_id": 87689, "role": "distributor", "role_id": 437, "is_primary": false}, {"id": 818171, "title": "Australian wine uncorked! A History of wine on film", "work_id": 94043, "role": "distributor", "role_id": 437, "is_primary": false}, {"id": 818167, "title": "Beyond the 38th parallel: Australians in the Korean War 1950-1953", "work_id": 94042, "role": "distributor", "role_id": 437, "is_primary": false}, {"id": 2785111, "title": "The Enemy within", "work_id": 79852, "role": "distributor", "role_id": 437, "is_primary": false}, {"id": 2785125, "title": "The Cheaters", "work_id": 79857, "role": "distributor", "role_id": 437, "is_primary": false}, {"id": 2785152, "title": "The Breaking of the drought", "work_id": 79862, "role": "distributor", "role_id": 437, "is_primary": false}, {"id": 2785167, "title": "The Devil's playground (1928)", "work_id": 79924, "role": "distributor", "role_id": 437, "is_primary": false}, {"id": 2785175, "title": "Reel Australia", "work_id": 115294, "role": "distributor", "role_id": 437, "is_primary": false}, {"id": 3084609, "title": "The Southern portion", "work_id": 92502, "role": "distributor", "role_id": 437, "is_primary": false}, {"id": 3084613, "title": "The Top end", "work_id": 93152, "role": "distributor", "role_id": 437, "is_primary": false}, {"id": 793366, "title": "Women of the silent era : Virgins, vamps and heroines", "work_id": 86511, "role": "distributor", "role_id": 437, "is_primary": false}, {"id": 793377, "title": "The Talkies : Australians at the movies 1930s style", "work_id": 86516, "role": "distributor", "role_id": 437, "is_primary": false}, {"id": 793372, "title": "Great Australian disasters of the 20th century", "work_id": 86514, "role": "distributor", "role_id": 437, "is_primary": false}, {"id": 906488, "title": "Titanic (Captioned)", "work_id": 87188, "role": "distributor", "role_id": 437, "is_primary": false}, {"id": 2328612, "title": "The Australian ballet: opening act 1962-1972", "work_id": 94069, "role": "distributor", "role_id": 437, "is_primary": false}, {"id": 906493, "title": "The Vanishing (Captioned)", "work_id": 87189, "role": "distributor", "role_id": 437, "is_primary": false}, {"id": 793394, "title": "Western Australia's moving memories...", "work_id": 86522, "role": "distributor", "role_id": 437, "is_primary": false}, {"id": 793379, "title": "Bail up! The Bushranger on Australia's silent screen (1906-1928)", "work_id": 86517, "role": "distributor", "role_id": 437, "is_primary": false}, {"id": 793361, "title": "Skeletons in our closet", "work_id": 86509, "role": "distributor", "role_id": 437, "is_primary": false}, {"id": 793368, "title": "Geelong and district : Moving memories 1911 - 1950s", "work_id": 86512, "role": "distributor", "role_id": 437, "is_primary": false}, {"id": 2043106, "title": "The Sentimental bloke", "work_id": 77697, "role": "distributor", "role_id": 437, "is_primary": false}, {"id": 1991466, "title": "One fine day (Captioned)", "work_id": 87190, "role": "distributor", "role_id": 437, "is_primary": false}, {"id": 793375, "title": "Melbourne : films of the fifties", "work_id": 86515, "role": "distributor", "role_id": 437, "is_primary": false}, {"id": 1932080, "title": "Uncivilised", "work_id": 86510, "role": "distributor", "role_id": 437, "is_primary": false}, {"id": 770811, "title": "A Girl of the bush", "work_id": 79853, "role": "distributor", "role_id": 437, "is_primary": false}, {"id": 2473982, "title": "The Romance of Runnibede", "work_id": 87696, "role": "distributor", "role_id": 437, "is_primary": false}, {"id": 1932416, "title": "The Dreaming reels. Vol. 1", "work_id": 94044, "role": "distributor", "role_id": 437, "is_primary": false}, {"id": 771034, "title": "Robbery under arms", "work_id": 79923, "role": "distributor", "role_id": 437, "is_primary": false}, {"id": 770855, "title": "Painted daughters (1925)", "work_id": 79867, "role": "distributor", "role_id": 437, "is_primary": false}, {"id": 1932406, "title": "Australia's journey: our first century as a nation", "work_id": 94040, "role": "distributor", "role_id": 437, "is_primary": false}, {"id": 1932418, "title": "The Dreaming reels. Vol. 2", "work_id": 94045, "role": "distributor", "role_id": 437, "is_primary": false}, {"id": 2329334, "title": "The Ballets Russes in Australia: an avalanche of dancing", "work_id": 87691, "role": "distributor", "role_id": 437, "is_primary": false}, {"id": 2043281, "title": "For the term of his natural life", "work_id": 79851, "role": "distributor", "role_id": 437, "is_primary": false}, {"id": 1993244, "title": "The Fifth element (Captioned)", "work_id": 88851, "role": "distributor", "role_id": 437, "is_primary": false}, {"id": 770834, "title": "Home of the blizzard (1913)", "work_id": 79858, "role": "distributor", "role_id": 437, "is_primary": false}, {"id": 749587, "title": "On our selection", "work_id": 71091, "role": "distributor", "role_id": 437, "is_primary": false}, {"id": 790210, "title": "VFL on film 1946-1982: Marking time. - Vol. 2", "work_id": 85596, "role": "distributor", "role_id": 437, "is_primary": false}, {"id": 1991964, "title": "In the wake of the Bounty", "work_id": 87694, "role": "distributor", "role_id": 437, "is_primary": false}, {"id": 908851, "title": "Austin Powers (Captioned)", "work_id": 89304, "role": "distributor", "role_id": 437, "is_primary": false}, {"id": 771040, "title": "Pearls and savages (1921)", "work_id": 79925, "role": "distributor", "role_id": 437, "is_primary": false}, {"id": 2300382, "title": "Silks and Saddles (1921)", "work_id": 79864, "role": "distributor", "role_id": 437, "is_primary": false}, {"id": 2202048, "title": "Peter Weir: short film collection", "work_id": 95127, "role": "production company", "role_id": 941, "is_primary": true}, {"id": 811656, "title": "Cops, spies and private eyes", "work_id": 92499, "role": "production company", "role_id": 941, "is_primary": true}, {"id": 3084611, "title": "The Southern portion", "work_id": 92502, "role": "production company", "role_id": 941, "is_primary": true}, {"id": 818168, "title": "Beyond the 38th parallel: Australians in the Korean War 1950-1953", "work_id": 94042, "role": "production company", "role_id": 941, "is_primary": true}, {"id": 3084614, "title": "The Top end", "work_id": 93152, "role": "production company", "role_id": 941, "is_primary": true}, {"id": 3084616, "title": "Bayside reflections: Port Phillip Bay on film", "work_id": 115594, "role": "production company", "role_id": 941, "is_primary": true}, {"id": 2336463, "title": "The Cars that ate Paris. The Plumber [DVD]", "work_id": 95122, "role": "production company", "role_id": 941, "is_primary": true}, {"id": 1932407, "title": "Australia's journey: our first century as a nation", "work_id": 94040, "role": "production company", "role_id": 941, "is_primary": true}, {"id": 818172, "title": "Australian wine uncorked! A History of wine on film", "work_id": 94043, "role": "production company", "role_id": 941, "is_primary": true}, {"id": 2328615, "title": "The Australian ballet: opening act 1962-1972", "work_id": 94069, "role": "production company", "role_id": 941, "is_primary": true}, {"id": 811661, "title": "Destination Australia: the migrant story", "work_id": 92501, "role": "production company", "role_id": 941, "is_primary": true}], "also_known_as": "", "date_of_birth": "", "date_of_death": "", "genders": [], "languages": [], "places_of_operation": [], "biography": "The National Film and Sound Archive of Australia (NFSA), known as ScreenSound Australia from 1999 to 2004, is Australia's audiovisual archive, responsible for developing, preserving, maintaining, promoting and providing access to a national collection of film, television, sound, radio, video games, new media, and related documents and artefacts. The collection ranges from works created in the late nineteenth century when the recorded sound and film industries were in their infancy, to those made in the present day.\nThe NFSA collection first started as the National Historical Film and Speaking Record Library (within the then Commonwealth National Library) in 1935, becoming an independent cultural organisation in 1984. On 3 October, Prime Minister Bob Hawke officially opened the NFSA's headquarters in Canberra.", "biography_author": "Wikidata", "date_of_biography": "2023-09-06T01:09:07.227491+10:00", "external_links": [{"id": 6171, "uri": "https://en.wikipedia.org/wiki/National_Film_and_Sound_Archive"}], "uuid": "cb4046c4-6850-4188-8b8b-2a352527f38b", "source": {"name": "Vernon", "slug": "vernon"}, "source_identifier": "1938", "external_references": [{"id": 39195, "source": {"name": "Wikidata", "slug": "wikidata"}, "source_identifier": "Q2565882"}, {"id": 55785, "source": {"name": "VIAF", "slug": "viaf"}, "source_identifier": "158258618"}, {"id": 55786, "source": {"name": "LOC Auth", "slug": "loc-auth"}, "source_identifier": "n90713051"}, {"id": 55787, "source": {"name": "WorldCat", "slug": "worldcat"}, "source_identifier": "lccn-n90713051"}], "date_modified": "2025-03-17T10:37:13.465927+11:00"}, {"id": 16129, "name": "Stanley Marks", "roles_in_work": [{"id": 2762897, "title": "Phasing in metric designs", "work_id": 69382, "role": "co-director", "role_id": 959, "is_primary": true}, {"id": 2762881, "title": "Metric production and inspection", "work_id": 69381, "role": "co-director", "role_id": 959, "is_primary": true}, {"id": 2762908, "title": "Planning metrication", "work_id": 69383, "role": "co-director", "role_id": 959, "is_primary": true}, {"id": 2762903, "title": "Planning metrication", "work_id": 69383, "role": "producer", "role_id": 1089, "is_primary": true}, {"id": 2762891, "title": "Phasing in metric designs", "work_id": 69382, "role": "producer", "role_id": 1089, "is_primary": true}], "also_known_as": "", "date_of_birth": "", "date_of_death": "", "genders": [], "languages": [], "places_of_operation": [], "biography": "", "biography_author": null, "date_of_biography": "2023-08-11T16:08:29.295106+10:00", "external_links": [], "uuid": "52d1a5d5-3679-4265-9e1a-5a25d500d30b", "source": {"name": "Vernon", "slug": "vernon"}, "source_identifier": "28971", "external_references": [], "date_modified": "2025-03-14T17:39:51.293846+11:00"}, {"id": 16128, "name": "New Decade Productions", "roles_in_work": [{"id": 2762899, "title": "Planning metrication", "work_id": 69383, "role": "production company", "role_id": 941, "is_primary": true}, {"id": 2762887, "title": "Phasing in metric designs", "work_id": 69382, "role": "production company", "role_id": 941, "is_primary": true}, {"id": 2762874, "title": "Metric production and inspection", "work_id": 69381, "role": "production company", "role_id": 941, "is_primary": true}], "also_known_as": "", "date_of_birth": "", "date_of_death": "", "genders": [], "languages": [], "places_of_operation": [], "biography": "", "biography_author": null, "date_of_biography": "2023-08-11T16:08:27.395015+10:00", "external_links": [], "uuid": "afb9bbcd-2696-4b77-ab63-ba4985dd1fa4", "source": {"name": "Vernon", "slug": "vernon"}, "source_identifier": "10894", "external_references": [], "date_modified": "2025-03-14T17:39:49.519555+11:00"}, {"id": 16127, "name": "Rural Bank of New South Wales", "roles_in_work": [{"id": 886286, "title": "Mother earth", "work_id": 95678, "role": "production company", "role_id": 941, "is_primary": true}, {"id": 2405032, "title": "Conquest", "work_id": 95677, "role": "production company", "role_id": 941, "is_primary": true}, {"id": 854048, "title": "Keyline", "work_id": 69379, "role": "production company", "role_id": 941, "is_primary": true}], "also_known_as": "", "date_of_birth": "", "date_of_death": "", "genders": [], "languages": [], "places_of_operation": [], "biography": "", "biography_author": null, "date_of_biography": "2023-08-11T15:44:13.150010+10:00", "external_links": [], "uuid": "bdcf9118-da96-4803-bccd-a9a32f4960f2", "source": {"name": "Vernon", "slug": "vernon"}, "source_identifier": "12182", "external_references": [], "date_modified": "2023-08-11T15:44:13.150237+10:00"}, {"id": 16126, "name": "Perier Films", "roles_in_work": [{"id": 3093486, "title": "[Taronga Park; Sydney Harbour Bridge; The Great Barrier Reef; Peeping at Perth]", "work_id": 107445, "role": "creator", "role_id": 968, "is_primary": true}, {"id": 858908, "title": "The Storage battery: maintenance", "work_id": 73216, "role": "production company", "role_id": 941, "is_primary": true}, {"id": 858906, "title": "The Storage battery: battery recharging", "work_id": 73215, "role": "production company", "role_id": 941, "is_primary": true}, {"id": 858910, "title": "The Storage battery: making", "work_id": 73217, "role": "production company", "role_id": 941, "is_primary": true}, {"id": 876754, "title": "Don't start off with an accident", "work_id": 90244, "role": "production company", "role_id": 941, "is_primary": true}, {"id": 854047, "title": "Keyline", "work_id": 69379, "role": "production company", "role_id": 941, "is_primary": true}, {"id": 857447, "title": "Radioisotope analytical techniques in mineral processing", "work_id": 72031, "role": "production company", "role_id": 941, "is_primary": true}], "also_known_as": "", "date_of_birth": "", "date_of_death": "", "genders": [], "languages": [], "places_of_operation": [], "biography": "", "biography_author": null, "date_of_biography": "2023-07-05T03:56:57.379941+10:00", "external_links": [], "uuid": "02f1d952-2af4-4320-ba93-97b8c84915ab", "source": {"name": "Vernon", "slug": "vernon"}, "source_identifier": "11408", "external_references": [{"id": 43071, "source": {"name": "Wikidata", "slug": "wikidata"}, "source_identifier": "Q121085993"}], "date_modified": "2025-04-07T22:35:01.242348+10:00"}]}