{"count": 28681, "next": "https://api.acmi.net.au/creators/?page=1617", "previous": "https://api.acmi.net.au/creators/?page=1615", "results": [{"id": 30572, "name": "Jules Dassin", "roles_in_work": [{"id": 2250385, "title": "Rififi = Du Rififi chez les hommes", "work_id": 93314, "role": "director", "role_id": 938, "is_primary": true}, {"id": 2249862, "title": "Reunion in France", "work_id": 88495, "role": "director", "role_id": 938, "is_primary": true}], "also_known_as": "Julius Dassin", "date_of_birth": "1911-12-18", "date_of_death": "2008-03-31", "genders": [{"id": 9, "name": "Male", "slug": "male"}], "languages": [{"id": 1, "name": "English", "slug": "english"}, {"id": 5, "name": "German", "slug": "german"}, {"id": 81, "name": "Modern Greek", "slug": "modern-greek"}], "places_of_operation": [{"id": 1, "name": "United States of America", "slug": "united-states-of-america"}], "biography": "Julius \"Jules\" Dassin (December 18, 1911 – March 31, 2008) was an American film and theatre director, producer, writer and actor. A subject of the Hollywood blacklist in the McCarthy era, he subsequently moved to France, and later Greece, where he continued his career. He was a member of the Academy of Motion Picture Arts and Sciences and the Screen Directors' Guild.Dassin received a Best Director Award at the Cannes Film Festival for his film Du rififi chez les hommes. He was later nominated for an Academy Award for Best Director and Best Writing, Story and Screenplay – Written Directly for the Screen for his film Never on Sunday, and was nominated for a Tony Award for Best Direction of a Musical for his Broadway production of Illya Darling.", "biography_author": "Wikidata", "date_of_biography": "2022-05-19T12:07:41.887921+10:00", "external_links": [{"id": 2488, "uri": "https://en.wikipedia.org/wiki/Jules_Dassin"}], "uuid": "ec363522-e69b-47fc-829d-dc9723d3b1bd", "source": {"name": "Vernon", "slug": "vernon"}, "source_identifier": "22832", "external_references": [{"id": 10640, "source": {"name": "Wikidata", "slug": "wikidata"}, "source_identifier": "Q260969"}, {"id": 10641, "source": {"name": "VIAF", "slug": "viaf"}, "source_identifier": "114983119"}, {"id": 10642, "source": {"name": "LOC Auth", "slug": "loc-auth"}, "source_identifier": "n88660679"}, {"id": 10643, "source": {"name": "WorldCat", "slug": "worldcat"}, "source_identifier": "lccn-n88660679"}], "date_modified": "2023-09-13T12:30:44.753628+10:00"}, {"id": 30571, "name": "Charles Haid", "roles_in_work": [{"id": 2126546, "title": "Buffalo soldiers", "work_id": 88492, "role": "director", "role_id": 938, "is_primary": true}], "also_known_as": "Charles Maurice Haid III", "date_of_birth": "1943-06-02", "date_of_death": "", "genders": [{"id": 9, "name": "Male", "slug": "male"}], "languages": [{"id": 1, "name": "English", "slug": "english"}], "places_of_operation": [{"id": 1, "name": "United States of America", "slug": "united-states-of-america"}], "biography": "Charles Maurice Haid III (born June 2, 1943) is an American actor and television director, with notable work in both movies and television. He is best known for his portrayal of Officer Andy Renko in Hill Street Blues.\nHaid was born in San Francisco, the son of Grace Marian (née Folger) and Charles Maurice Haid Jr. He is of Dutch (original last name Van Heidt) and Irish descent He attended Carnegie Institute of Technology (now Carnegie Mellon University), where he met Steven Bochco. He was associate producer of the original stage production of Godspell in 1971, which was developed at CMU.Haid's acting credits include the 1976/1977 series Delvecchio as Sgt. Paul Schonski, the 1980s series Hill Street Blues as Officer Andy Renko, and the 1980 movie Altered States as Dr. Mason Parrish. In 1984, Haid was cast as \"The Fatman\" (or just \"Fats\") in the never released movie The House of God.In 2004–05, he played C.T. Finney, a corrupt New York police captain on the sixth season of the NBC show Third Watch. Haid provided the voice of the one-legged rabbit \"Lucky Jack\" in the 2004 Disney animated film Home on the Range. Twenty years earlier, Haid had voiced main character \"Montgomery Moose\" in the pilot episode of The Get Along Gang, produced by Nelvana. He was replaced by Sparky Marcus for the subsequent series.His directing credits include an episode of ER that earned him a Directors Guild Award and nominations for the TV movie Buffalo Soldiers and an episode of NYPD Blue. He was a regular director on the FX series Nip/Tuck. He also directed for the FX series Sons of Anarchy and AMC's Breaking Bad. He was a regular director for the CBS series Criminal Minds, for which he also portrayed serial killer Randall Garner (a.k.a. \"The Fisher King\").", "biography_author": "Wikidata", "date_of_biography": "2023-08-01T14:23:03.459916+10:00", "external_links": [{"id": 3738, "uri": "https://en.wikipedia.org/wiki/Charles_Haid"}], "uuid": "537c6340-2fa5-42ca-bef5-40690fa1ae66", "source": {"name": "Vernon", "slug": "vernon"}, "source_identifier": "16682", "external_references": [{"id": 25908, "source": {"name": "Wikidata", "slug": "wikidata"}, "source_identifier": "Q1279422"}, {"id": 27758, "source": {"name": "VIAF", "slug": "viaf"}, "source_identifier": "31637400"}, {"id": 27759, "source": {"name": "LOC Auth", "slug": "loc-auth"}, "source_identifier": "no99087135"}, {"id": 27760, "source": {"name": "WorldCat", "slug": "worldcat"}, "source_identifier": "lccn-no99087135"}], "date_modified": "2023-09-05T18:26:37.634690+10:00"}, {"id": 30570, "name": "Gordon Wolf", "roles_in_work": [{"id": 2126541, "title": "Buffalo soldiers", "work_id": 88492, "role": "producer", "role_id": 1089, "is_primary": true}], "also_known_as": "", "date_of_birth": "", "date_of_death": "", "genders": [], "languages": [], "places_of_operation": [], "biography": "", "biography_author": null, "date_of_biography": "2023-05-09T13:11:47.242425+10:00", "external_links": [], "uuid": "0cf67555-cf16-4fa8-b74e-afb3ab7fa02e", "source": {"name": "Vernon", "slug": "vernon"}, "source_identifier": "19962", "external_references": [{"id": 34983, "source": {"name": "Wikidata", "slug": "wikidata"}, "source_identifier": "Q121035864"}], "date_modified": "2023-09-05T20:17:37.894068+10:00"}, {"id": 30569, "name": "Turner Pictures Worldwide", "roles_in_work": [{"id": 2126539, "title": "Buffalo soldiers", "work_id": 88492, "role": "production company", "role_id": 941, "is_primary": true}], "also_known_as": "", "date_of_birth": "", "date_of_death": "", "genders": [], "languages": [], "places_of_operation": [], "biography": "", "biography_author": null, "date_of_biography": "2023-05-09T13:11:47.006232+10:00", "external_links": [], "uuid": "c335413e-ecee-4fb5-8822-241b09d92390", "source": {"name": "Vernon", "slug": "vernon"}, "source_identifier": "13757", "external_references": [{"id": 39843, "source": {"name": "Wikidata", "slug": "wikidata"}, "source_identifier": "Q121126212"}], "date_modified": "2023-09-06T01:59:56.960745+10:00"}, {"id": 30567, "name": "Artanis", "roles_in_work": [{"id": 2174183, "title": "None but the brave", "work_id": 88489, "role": "production company", "role_id": 941, "is_primary": true}], "also_known_as": "", "date_of_birth": "", "date_of_death": "", "genders": [], "languages": [], "places_of_operation": [], "biography": "", "biography_author": null, "date_of_biography": "2023-05-09T14:42:22.451916+10:00", "external_links": [], "uuid": "e1546594-655a-4ca8-ab69-349af2d1f600", "source": {"name": "Vernon", "slug": "vernon"}, "source_identifier": "5397", "external_references": [{"id": 41402, "source": {"name": "Wikidata", "slug": "wikidata"}, "source_identifier": "Q121337125"}], "date_modified": "2023-09-05T17:46:22.478783+10:00"}, {"id": 30566, "name": "Sinatra Enterprises", "roles_in_work": [{"id": 2174181, "title": "None but the brave", "work_id": 88489, "role": "production company", "role_id": 941, "is_primary": true}], "also_known_as": "", "date_of_birth": "", "date_of_death": "", "genders": [], "languages": [], "places_of_operation": [], "biography": "", "biography_author": null, "date_of_biography": "2023-05-09T14:42:22.112615+10:00", "external_links": [], "uuid": "090dec05-b9f3-417e-b782-9286f95b14b9", "source": {"name": "Vernon", "slug": "vernon"}, "source_identifier": "12606", "external_references": [{"id": 33832, "source": {"name": "Wikidata", "slug": "wikidata"}, "source_identifier": "Q121159879"}], "date_modified": "2023-09-06T01:21:03.716859+10:00"}, {"id": 30565, "name": "Albert Magnoli", "roles_in_work": [{"id": 2233245, "title": "Purple rain", "work_id": 88487, "role": "director", "role_id": 938, "is_primary": true}], "also_known_as": "", "date_of_birth": null, "date_of_death": null, "genders": [{"id": 9, "name": "Male", "slug": "male"}], "languages": [], "places_of_operation": [{"id": 1, "name": "United States of America", "slug": "united-states-of-america"}], "biography": "Albert Magnoli (born c. 1954) is an American film director, screenwriter and editor best known for helming the films Purple Rain, Tango & Cash (replacement director), Street Knight, and American Anthem. Magnoli also served as editor of the 1984 film Reckless.", "biography_author": "Wikidata", "date_of_biography": "2022-05-19T10:43:33.336804+10:00", "external_links": [{"id": 1583, "uri": "https://en.wikipedia.org/wiki/Albert_Magnoli"}], "uuid": "efa98f9b-64e7-4c79-91b3-1963c692493e", "source": {"name": "Vernon", "slug": "vernon"}, "source_identifier": "14840", "external_references": [{"id": 6936, "source": {"name": "Wikidata", "slug": "wikidata"}, "source_identifier": "Q16731822"}], "date_modified": "2023-09-13T12:28:03.113053+10:00"}, {"id": 30562, "name": "Arthur C. Stevens", "roles_in_work": [{"id": 879250, "title": "Kings of sport", "work_id": 91662, "role": "director", "role_id": 938, "is_primary": true}, {"id": 2408310, "title": "Gallery of the great. No. 1. Monty of Alamein", "work_id": 88483, "role": "producer", "role_id": 1089, "is_primary": true}], "also_known_as": "", "date_of_birth": "", "date_of_death": "", "genders": [], "languages": [], "places_of_operation": [], "biography": "", "biography_author": null, "date_of_biography": "2023-08-11T16:57:39.038313+10:00", "external_links": [], "uuid": "262775f6-237b-4953-a4ed-26a695064c80", "source": {"name": "Vernon", "slug": "vernon"}, "source_identifier": "15518", "external_references": [], "date_modified": "2023-08-11T16:57:39.038541+10:00"}, {"id": 30561, "name": "Movie Paks", "roles_in_work": [{"id": 2408309, "title": "Gallery of the great. No. 1. Monty of Alamein", "work_id": 88483, "role": "production company", "role_id": 941, "is_primary": true}], "also_known_as": "", "date_of_birth": "", "date_of_death": "", "genders": [], "languages": [], "places_of_operation": [], "biography": "", "biography_author": null, "date_of_biography": "2023-08-11T16:57:38.405672+10:00", "external_links": [], "uuid": "42d56a70-362c-4695-bcc2-3b71c3cdb307", "source": {"name": "Vernon", "slug": "vernon"}, "source_identifier": "10672", "external_references": [], "date_modified": "2023-08-11T16:57:38.405899+10:00"}, {"id": 30555, "name": "Government of NSW", "roles_in_work": [{"id": 2392714, "title": "Pacific terminal", "work_id": 88470, "role": "production company", "role_id": 941, "is_primary": true}], "also_known_as": "", "date_of_birth": "", "date_of_death": "", "genders": [], "languages": [], "places_of_operation": [], "biography": "", "biography_author": null, "date_of_biography": "2023-08-09T03:59:48.013941+10:00", "external_links": [], "uuid": "0a6ff1e6-dea2-4ffb-ba74-decdca60f209", "source": {"name": "Vernon", "slug": "vernon"}, "source_identifier": "8823", "external_references": [], "date_modified": "2023-08-09T03:59:48.014223+10:00"}]}