{"count": 28687, "next": "https://api.acmi.net.au/creators/?page=290", "previous": "https://api.acmi.net.au/creators/?page=288", "results": [{"id": 82717, "name": "Yu Shizhi", "roles_in_work": [{"id": 2651190, "title": "Qiu Jin", "work_id": 115809, "role": "cast", "role_id": 33, "is_primary": false}], "also_known_as": "", "date_of_birth": "", "date_of_death": "", "genders": [], "languages": [], "places_of_operation": [], "biography": "", "biography_author": null, "date_of_biography": "2023-05-09T16:42:16.525332+10:00", "external_links": [], "uuid": "5c3396c2-1e67-433f-8402-1f535517a695", "source": {"name": "Vernon", "slug": "vernon"}, "source_identifier": "36891", "external_references": [{"id": 34513, "source": {"name": "Wikidata", "slug": "wikidata"}, "source_identifier": "Q121091480"}], "date_modified": "2025-03-05T14:27:24.496710+11:00"}, {"id": 82716, "name": "Chen Xinguang", "roles_in_work": [{"id": 2651189, "title": "Qiu Jin", "work_id": 115809, "role": "cast", "role_id": 33, "is_primary": false}], "also_known_as": "", "date_of_birth": "", "date_of_death": "", "genders": [], "languages": [], "places_of_operation": [], "biography": "", "biography_author": null, "date_of_biography": "2023-05-09T16:42:16.286661+10:00", "external_links": [], "uuid": "228c3adc-d491-479f-92fb-f98115d7b05f", "source": {"name": "Vernon", "slug": "vernon"}, "source_identifier": "36890", "external_references": [{"id": 38003, "source": {"name": "Wikidata", "slug": "wikidata"}, "source_identifier": "Q121034852"}], "date_modified": "2025-03-05T14:27:23.910005+11:00"}, {"id": 82715, "name": "Li Zhiyu", "roles_in_work": [{"id": 2651188, "title": "Qiu Jin", "work_id": 115809, "role": "cast", "role_id": 33, "is_primary": false}], "also_known_as": "", "date_of_birth": "", "date_of_death": "", "genders": [], "languages": [], "places_of_operation": [], "biography": "", "biography_author": null, "date_of_biography": "2023-05-09T16:42:16.059472+10:00", "external_links": [], "uuid": "6392f6c3-9cae-484f-bfe3-11a053b5acaf", "source": {"name": "Vernon", "slug": "vernon"}, "source_identifier": "36889", "external_references": [{"id": 33863, "source": {"name": "Wikidata", "slug": "wikidata"}, "source_identifier": "Q121271147"}], "date_modified": "2025-03-05T14:27:23.322550+11:00"}, {"id": 82714, "name": "Ge Yan", "roles_in_work": [{"id": 2651185, "title": "Qiu Jin", "work_id": 115809, "role": "music", "role_id": 949, "is_primary": false}], "also_known_as": "", "date_of_birth": "", "date_of_death": "", "genders": [], "languages": [], "places_of_operation": [], "biography": "", "biography_author": null, "date_of_biography": "2023-05-09T16:42:15.110401+10:00", "external_links": [], "uuid": "b33a22a6-5526-4240-ac6f-34ddb1bb2612", "source": {"name": "Vernon", "slug": "vernon"}, "source_identifier": "36888", "external_references": [{"id": 51534, "source": {"name": "Wikidata", "slug": "wikidata"}, "source_identifier": "Q121361336"}], "date_modified": "2025-03-05T14:27:21.552612+11:00"}, {"id": 82713, "name": "Zhang Yongzheng", "roles_in_work": [{"id": 2290114, "title": "Two spirits from the jade green sea = Bi shui shuang hun", "work_id": 115832, "role": "cinematographer", "role_id": 32, "is_primary": false}, {"id": 2651184, "title": "Qiu Jin", "work_id": 115809, "role": "cinematographer", "role_id": 32, "is_primary": false}], "also_known_as": "", "date_of_birth": "", "date_of_death": "", "genders": [], "languages": [], "places_of_operation": [], "biography": "", "biography_author": null, "date_of_biography": "2023-05-09T18:17:29.598858+10:00", "external_links": [], "uuid": "4639a205-d27d-48d7-8e1e-09c9d6fa1ecf", "source": {"name": "Vernon", "slug": "vernon"}, "source_identifier": "36534", "external_references": [{"id": 42898, "source": {"name": "Wikidata", "slug": "wikidata"}, "source_identifier": "Q121086172"}], "date_modified": "2025-03-05T14:27:20.960704+11:00"}, {"id": 82712, "name": "Xu Qi", "roles_in_work": [{"id": 2651183, "title": "Qiu Jin", "work_id": 115809, "role": "cinematographer", "role_id": 32, "is_primary": false}], "also_known_as": "", "date_of_birth": "", "date_of_death": "", "genders": [], "languages": [], "places_of_operation": [], "biography": "", "biography_author": null, "date_of_biography": "2023-05-09T16:42:14.628404+10:00", "external_links": [], "uuid": "abd09d93-f095-496d-b9f2-a4ba229dc224", "source": {"name": "Vernon", "slug": "vernon"}, "source_identifier": "36887", "external_references": [], "date_modified": "2025-03-05T14:27:20.376953+11:00"}, {"id": 82711, "name": "Huang Zongjiang", "roles_in_work": [{"id": 2651181, "title": "Qiu Jin", "work_id": 115809, "role": "script", "role_id": 962, "is_primary": false}], "also_known_as": "", "date_of_birth": "", "date_of_death": "", "genders": [], "languages": [], "places_of_operation": [], "biography": "", "biography_author": null, "date_of_biography": "2023-05-09T16:42:14.340301+10:00", "external_links": [], "uuid": "4d444237-b59f-4548-a539-dc7ca7a087af", "source": {"name": "Vernon", "slug": "vernon"}, "source_identifier": "36886", "external_references": [], "date_modified": "2025-03-05T14:27:19.185099+11:00"}, {"id": 82710, "name": "Bi Likui", "roles_in_work": [{"id": 2651180, "title": "Qiu Jin", "work_id": 115809, "role": "producer", "role_id": 1089, "is_primary": true}], "also_known_as": "", "date_of_birth": "", "date_of_death": "", "genders": [], "languages": [], "places_of_operation": [], "biography": "", "biography_author": null, "date_of_biography": "2023-05-09T16:42:14.077611+10:00", "external_links": [], "uuid": "485f130e-158f-4a7d-8efb-35090ff9ee8c", "source": {"name": "Vernon", "slug": "vernon"}, "source_identifier": "36885", "external_references": [{"id": 39653, "source": {"name": "Wikidata", "slug": "wikidata"}, "source_identifier": "Q121035857"}], "date_modified": "2025-03-05T14:27:18.582852+11:00"}, {"id": 82709, "name": "Yan Bide", "roles_in_work": [{"id": 2651177, "title": "The Adventures of the opera singers = Li yuan chuan qi", "work_id": 115808, "role": "cast", "role_id": 33, "is_primary": false}], "also_known_as": "", "date_of_birth": "", "date_of_death": "", "genders": [], "languages": [], "places_of_operation": [], "biography": "", "biography_author": null, "date_of_biography": "2023-05-09T19:20:12.955731+10:00", "external_links": [], "uuid": "9bbad826-68e1-45d6-8bf8-243bda3a598f", "source": {"name": "Vernon", "slug": "vernon"}, "source_identifier": "38433", "external_references": [{"id": 36476, "source": {"name": "Wikidata", "slug": "wikidata"}, "source_identifier": "Q121223026"}], "date_modified": "2025-03-05T14:27:16.511151+11:00"}, {"id": 82708, "name": "Guan Zongzia", "roles_in_work": [{"id": 2651176, "title": "The Adventures of the opera singers = Li yuan chuan qi", "work_id": 115808, "role": "cast", "role_id": 33, "is_primary": false}], "also_known_as": "", "date_of_birth": "", "date_of_death": "", "genders": [], "languages": [], "places_of_operation": [], "biography": "", "biography_author": null, "date_of_biography": "2023-05-09T19:20:12.612086+10:00", "external_links": [], "uuid": "60d7b16e-68e8-4fcb-92ac-e9acf64c0b9a", "source": {"name": "Vernon", "slug": "vernon"}, "source_identifier": "38432", "external_references": [{"id": 33480, "source": {"name": "Wikidata", "slug": "wikidata"}, "source_identifier": "Q121299334"}], "date_modified": "2025-03-05T14:27:15.928260+11:00"}]}