{"count": 28687, "next": "https://api.acmi.net.au/creators/?page=1381", "previous": "https://api.acmi.net.au/creators/?page=1379", "results": [{"id": 37527, "name": "Herbert Danska", "roles_in_work": [{"id": 2320570, "title": "Sweet love, bitter", "work_id": 95301, "role": "director", "role_id": 938, "is_primary": true}, {"id": 2750563, "title": "Nobody ever died of old age", "work_id": 97394, "role": "producer/director", "role_id": 31, "is_primary": true}], "also_known_as": "", "date_of_birth": "", "date_of_death": "", "genders": [], "languages": [], "places_of_operation": [], "biography": "", "biography_author": null, "date_of_biography": "2023-05-09T19:11:18.545780+10:00", "external_links": [], "uuid": "115cc6bd-758e-4fec-ae5f-6876c40dd0b4", "source": {"name": "Vernon", "slug": "vernon"}, "source_identifier": "20515", "external_references": [{"id": 42319, "source": {"name": "Wikidata", "slug": "wikidata"}, "source_identifier": "Q121034353"}], "date_modified": "2025-03-13T00:25:47.553327+11:00"}, {"id": 37525, "name": "Film Three Productions", "roles_in_work": [{"id": 2320555, "title": "Sweet love, bitter", "work_id": 95301, "role": "production company", "role_id": 941, "is_primary": true}], "also_known_as": "", "date_of_birth": "", "date_of_death": "", "genders": [], "languages": [], "places_of_operation": [], "biography": "", "biography_author": null, "date_of_biography": "2023-05-09T19:11:17.811234+10:00", "external_links": [], "uuid": "60df6c77-02c3-4915-a36f-f7842e001cbc", "source": {"name": "Vernon", "slug": "vernon"}, "source_identifier": "8256", "external_references": [{"id": 35433, "source": {"name": "Wikidata", "slug": "wikidata"}, "source_identifier": "Q121160004"}], "date_modified": "2023-09-05T19:43:10.525954+10:00"}, {"id": 37524, "name": "Minerva Pictures", "roles_in_work": [{"id": 2105712, "title": "BaadAsssss cinema", "work_id": 95300, "role": "production company", "role_id": 941, "is_primary": true}], "also_known_as": "", "date_of_birth": "", "date_of_death": "", "genders": [], "languages": [], "places_of_operation": [], "biography": "", "biography_author": null, "date_of_biography": "2023-05-09T12:38:25.425182+10:00", "external_links": [], "uuid": "002f0e3f-c17e-462a-aa22-6c0958562b9c", "source": {"name": "Vernon", "slug": "vernon"}, "source_identifier": "10544", "external_references": [{"id": 41174, "source": {"name": "Wikidata", "slug": "wikidata"}, "source_identifier": "Q121299466"}], "date_modified": "2023-09-05T23:16:54.487982+10:00"}, {"id": 37519, "name": "Command Performance B V", "roles_in_work": [{"id": 2050946, "title": "[Arthur Rubinstein]", "work_id": 95297, "role": "production company", "role_id": 941, "is_primary": true}, {"id": 1848876, "title": "Heifetz and Piatigorsky", "work_id": 95308, "role": "production company", "role_id": 941, "is_primary": true}, {"id": 2179135, "title": "David Oistrakh: remembering a musician", "work_id": 95307, "role": "production company", "role_id": 941, "is_primary": true}], "also_known_as": "", "date_of_birth": "", "date_of_death": "", "genders": [], "languages": [], "places_of_operation": [], "biography": "", "biography_author": null, "date_of_biography": "2023-05-09T14:49:59.716941+10:00", "external_links": [], "uuid": "bfd1aac5-eb16-44b4-9281-64e179d9769b", "source": {"name": "Vernon", "slug": "vernon"}, "source_identifier": "6927", "external_references": [], "date_modified": "2023-06-14T16:33:30.576250+10:00"}, {"id": 37513, "name": "Vision One", "roles_in_work": [{"id": 2356928, "title": "The Jerusalem passion", "work_id": 95292, "role": "production company", "role_id": 941, "is_primary": true}], "also_known_as": "", "date_of_birth": "", "date_of_death": "", "genders": [], "languages": [], "places_of_operation": [], "biography": "", "biography_author": null, "date_of_biography": "2023-05-09T20:05:23.249119+10:00", "external_links": [], "uuid": "1b649c9b-da56-46b1-a6ff-2c4fccf57e06", "source": {"name": "Vernon", "slug": "vernon"}, "source_identifier": "14165", "external_references": [{"id": 37259, "source": {"name": "Wikidata", "slug": "wikidata"}, "source_identifier": "Q121126066"}], "date_modified": "2023-09-06T02:07:29.384936+10:00"}, {"id": 37511, "name": "Keef", "roles_in_work": [{"id": 2149488, "title": "Culture Club: a kiss across the ocean", "work_id": 95290, "role": "director", "role_id": 938, "is_primary": true}], "also_known_as": "Keith Lionel McMillan", "date_of_birth": "1934-04-16", "date_of_death": "2012-03-22", "genders": [{"id": 9, "name": "Male", "slug": "male"}], "languages": [{"id": 1, "name": "English", "slug": "english"}], "places_of_operation": [{"id": 10, "name": "United Kingdom", "slug": "united-kingdom"}], "biography": "Keith Lionel McMillan (16 April 1934 – 22 March 2012) was an English photographer and artist. He came from a family with many artistic talents: his mother was a dancer, his father a pianist and photographer, and his brother an artist. As a child, McMillan demonstrated a love for music and athletics, so his mother enrolled him in ballet at the age of eight.", "biography_author": "Wikidata", "date_of_biography": "2023-08-01T15:47:39.146162+10:00", "external_links": [{"id": 4473, "uri": "https://en.wikipedia.org/wiki/Keith_McMillan"}], "uuid": "d04fd67f-ce16-4903-82a4-8d814ef9fbc2", "source": {"name": "Vernon", "slug": "vernon"}, "source_identifier": "9715", "external_references": [{"id": 26508, "source": {"name": "Wikidata", "slug": "wikidata"}, "source_identifier": "Q6384747"}], "date_modified": "2023-09-05T22:03:21.567220+10:00"}, {"id": 37510, "name": "Hugh Symonds", "roles_in_work": [{"id": 2149484, "title": "Culture Club: a kiss across the ocean", "work_id": 95290, "role": "producer", "role_id": 1089, "is_primary": true}], "also_known_as": "", "date_of_birth": "", "date_of_death": "", "genders": [], "languages": [], "places_of_operation": [], "biography": "", "biography_author": null, "date_of_biography": "2023-05-09T13:50:35.481278+10:00", "external_links": [], "uuid": "f12b5813-bbea-4270-a1e4-c412072922d7", "source": {"name": "Vernon", "slug": "vernon"}, "source_identifier": "20695", "external_references": [{"id": 33448, "source": {"name": "Wikidata", "slug": "wikidata"}, "source_identifier": "Q121035685"}], "date_modified": "2023-09-05T20:44:01.296538+10:00"}, {"id": 37509, "name": "Keefco Productions", "roles_in_work": [{"id": 2149482, "title": "Culture Club: a kiss across the ocean", "work_id": 95290, "role": "production company", "role_id": 941, "is_primary": true}], "also_known_as": "", "date_of_birth": "", "date_of_death": "", "genders": [], "languages": [], "places_of_operation": [], "biography": "", "biography_author": null, "date_of_biography": "2023-05-09T13:50:35.243877+10:00", "external_links": [], "uuid": "d30538b7-a857-4e61-921f-290e059d8c62", "source": {"name": "Vernon", "slug": "vernon"}, "source_identifier": "9716", "external_references": [{"id": 39194, "source": {"name": "Wikidata", "slug": "wikidata"}, "source_identifier": "Q121078771"}], "date_modified": "2023-09-05T22:03:22.247904+10:00"}, {"id": 37508, "name": "Virgin Vision", "roles_in_work": [{"id": 2149479, "title": "Culture Club: a kiss across the ocean", "work_id": 95290, "role": "production company", "role_id": 941, "is_primary": true}], "also_known_as": "", "date_of_birth": "", "date_of_death": "", "genders": [], "languages": [], "places_of_operation": [], "biography": "", "biography_author": null, "date_of_biography": "2023-05-09T13:50:35.014051+10:00", "external_links": [], "uuid": "395acb35-484e-4e34-b635-98ce0ca826ca", "source": {"name": "Vernon", "slug": "vernon"}, "source_identifier": "14152", "external_references": [{"id": 32566, "source": {"name": "Wikidata", "slug": "wikidata"}, "source_identifier": "Q121159725"}], "date_modified": "2023-09-06T02:07:20.555874+10:00"}, {"id": 37507, "name": "Spatial Information and Research", "roles_in_work": [{"id": 2471034, "title": "Victoria changing faces changing places", "work_id": 95289, "role": "production company", "role_id": 941, "is_primary": true}], "also_known_as": "", "date_of_birth": "", "date_of_death": "", "genders": [], "languages": [], "places_of_operation": [], "biography": "", "biography_author": null, "date_of_biography": "2023-08-14T12:32:04.241616+10:00", "external_links": [], "uuid": "b179188f-5c7b-4fe8-9378-0ca1d3e30aec", "source": {"name": "Vernon", "slug": "vernon"}, "source_identifier": "12827", "external_references": [], "date_modified": "2023-08-14T12:32:04.241841+10:00"}]}