{"count": 28684, "next": "https://api.acmi.net.au/creators/?page=1524", "previous": "https://api.acmi.net.au/creators/?page=1522", "results": [{"id": 33061, "name": "Wind Dancer Productions", "roles_in_work": [{"id": 1995523, "title": "What women want [DVD]", "work_id": 91704, "role": "production company", "role_id": 941, "is_primary": true}, {"id": 2499756, "title": "What women want", "work_id": 92517, "role": "production company", "role_id": 941, "is_primary": true}], "also_known_as": "", "date_of_birth": null, "date_of_death": null, "genders": [], "languages": [], "places_of_operation": [], "biography": "", "biography_author": null, "date_of_biography": null, "external_links": [], "uuid": "2d8a4db5-548a-4b6b-bbb8-c3075edf98a2", "source": {"name": "Vernon", "slug": "vernon"}, "source_identifier": "14386", "external_references": [], "date_modified": "2023-09-20T03:40:33.117705+10:00"}, {"id": 33049, "name": "Corsair Pictures", "roles_in_work": [{"id": 2298128, "title": "Shock to the system", "work_id": 91692, "role": "production company", "role_id": 941, "is_primary": true}], "also_known_as": "", "date_of_birth": "", "date_of_death": "", "genders": [], "languages": [], "places_of_operation": [], "biography": "", "biography_author": null, "date_of_biography": "2023-05-09T18:31:30.742850+10:00", "external_links": [], "uuid": "95a4d9d8-3b1d-4e8c-9010-0b3f7873559c", "source": {"name": "Vernon", "slug": "vernon"}, "source_identifier": "7094", "external_references": [{"id": 40794, "source": {"name": "Wikidata", "slug": "wikidata"}, "source_identifier": "Q121223184"}], "date_modified": "2023-09-05T18:45:47.469063+10:00"}, {"id": 33048, "name": "Thom Eberhardt", "roles_in_work": [{"id": 1995490, "title": "Without a clue", "work_id": 91691, "role": "director", "role_id": 938, "is_primary": true}, {"id": 2752302, "title": "Prisoners of chance", "work_id": 98235, "role": "director", "role_id": 938, "is_primary": true}, {"id": 2752300, "title": "Prisoners of chance", "work_id": 98235, "role": "co-producer", "role_id": 915, "is_primary": true}, {"id": 2753523, "title": "That's stealing", "work_id": 98809, "role": "producer", "role_id": 1089, "is_primary": true}], "also_known_as": "", "date_of_birth": "07 MAR 1947", "date_of_death": "", "genders": [{"id": 9, "name": "Male", "slug": "male"}], "languages": [{"id": 1, "name": "English", "slug": "english"}], "places_of_operation": [{"id": 1, "name": "United States of America", "slug": "united-states-of-america"}], "biography": "Thomas Everett \"Thom\" Eberhardt (born March 7, 1947) is an American film director, producer and screenwriter. Eberhardt has won two awards and two nominations. He is most noted for his work on Without a Clue, Honey, I Blew Up the Kid, and the cult classic Night of the Comet. Source: Wikidata; 01/08/2023", "biography_author": null, "date_of_biography": "2025-03-13T01:26:38.209733+11:00", "external_links": [{"id": 5257, "uri": "https://en.wikipedia.org/wiki/Thom_Eberhardt"}], "uuid": "92e32e0b-1783-4ea9-b7fa-2b505362150f", "source": {"name": "Vernon", "slug": "vernon"}, "source_identifier": "29662", "external_references": [{"id": 26861, "source": {"name": "Wikidata", "slug": "wikidata"}, "source_identifier": "Q3524807"}, {"id": 31765, "source": {"name": "VIAF", "slug": "viaf"}, "source_identifier": "67826749"}, {"id": 31766, "source": {"name": "LOC Auth", "slug": "loc-auth"}, "source_identifier": "n82221074"}, {"id": 31767, "source": {"name": "WorldCat", "slug": "worldcat"}, "source_identifier": "lccn-n82221074"}], "date_modified": "2025-03-13T01:26:38.209965+11:00"}, {"id": 33045, "name": "Bill Kong", "roles_in_work": [{"id": 2308231, "title": "Springtime in a small town = Xiao cheng zhi chun", "work_id": 95149, "role": "co-producer", "role_id": 915, "is_primary": true}, {"id": 2148745, "title": "Crouching tiger hidden dragon [DVD]", "work_id": 91689, "role": "co-producer", "role_id": 915, "is_primary": true}, {"id": 1804850, "title": "Hero", "work_id": 95051, "role": "producer", "role_id": 1089, "is_primary": true}], "also_known_as": "", "date_of_birth": "", "date_of_death": "", "genders": [], "languages": [], "places_of_operation": [], "biography": "", "biography_author": null, "date_of_biography": "2023-05-09T18:48:19.620504+10:00", "external_links": [], "uuid": "e1277840-87ac-4efc-83de-4eec1a4c4941", "source": {"name": "Vernon", "slug": "vernon"}, "source_identifier": "15973", "external_references": [], "date_modified": "2023-06-14T16:33:30.576250+10:00"}, {"id": 33041, "name": "EDKO Film", "roles_in_work": [{"id": 2148725, "title": "Crouching tiger hidden dragon [DVD]", "work_id": 91689, "role": "production company", "role_id": 941, "is_primary": true}, {"id": 930015, "title": "Hero", "work_id": 95051, "role": "production company", "role_id": 941, "is_primary": true}], "also_known_as": "", "date_of_birth": "", "date_of_death": "", "genders": [], "languages": [], "places_of_operation": [], "biography": "", "biography_author": null, "date_of_biography": "2023-05-09T13:49:23.334264+10:00", "external_links": [], "uuid": "c18ee6a5-d0be-47f0-8af0-77949605b090", "source": {"name": "Vernon", "slug": "vernon"}, "source_identifier": "4824", "external_references": [], "date_modified": "2023-06-14T16:33:30.576250+10:00"}, {"id": 33039, "name": "Eclair-Journal", "roles_in_work": [{"id": 2407868, "title": "France panorama. [No. 71/47]", "work_id": 91988, "role": "production company", "role_id": 941, "is_primary": true}, {"id": 2407835, "title": "France panorama. [No. 68/01]", "work_id": 91676, "role": "production company", "role_id": 941, "is_primary": true}, {"id": 2407842, "title": "France panorama. [No. 68/21]", "work_id": 91764, "role": "production company", "role_id": 941, "is_primary": true}, {"id": 2407834, "title": "France panorama. [No. 67/49]", "work_id": 91682, "role": "production company", "role_id": 941, "is_primary": true}, {"id": 2407867, "title": "France panorama. [No. 71/39]", "work_id": 91994, "role": "production company", "role_id": 941, "is_primary": true}], "also_known_as": "", "date_of_birth": "", "date_of_death": "", "genders": [], "languages": [], "places_of_operation": [], "biography": "", "biography_author": null, "date_of_biography": "2023-08-11T16:47:57.317220+10:00", "external_links": [], "uuid": "d2c581ba-f42d-4ab1-875b-618cdb0e85a9", "source": {"name": "Vernon", "slug": "vernon"}, "source_identifier": "7728", "external_references": [], "date_modified": "2023-08-11T16:47:57.317482+10:00"}, {"id": 33037, "name": "Reg McLean", "roles_in_work": [{"id": 911051, "title": "Rupert Bunny: colour, mood & the senses", "work_id": 91658, "role": "co-producer", "role_id": 915, "is_primary": true}, {"id": 2409020, "title": "Hans Heysen recollections", "work_id": 91659, "role": "producer", "role_id": 1089, "is_primary": true}], "also_known_as": "", "date_of_birth": "", "date_of_death": "", "genders": [], "languages": [], "places_of_operation": [], "biography": "", "biography_author": null, "date_of_biography": "2023-08-11T17:13:36.998323+10:00", "external_links": [], "uuid": "d8481ccf-a66a-4ea1-b1c1-3dd5d6593618", "source": {"name": "Vernon", "slug": "vernon"}, "source_identifier": "27228", "external_references": [], "date_modified": "2023-08-11T17:13:36.998570+10:00"}, {"id": 33036, "name": "Lion's Den Productions", "roles_in_work": [{"id": 911050, "title": "Rupert Bunny: colour, mood & the senses", "work_id": 91658, "role": "production company", "role_id": 941, "is_primary": true}, {"id": 2409019, "title": "Hans Heysen recollections", "work_id": 91659, "role": "production company", "role_id": 941, "is_primary": true}], "also_known_as": "", "date_of_birth": "", "date_of_death": "", "genders": [], "languages": [], "places_of_operation": [], "biography": "", "biography_author": null, "date_of_biography": "2023-08-11T17:13:36.346895+10:00", "external_links": [], "uuid": "89484250-c07e-48af-aa00-b9986504af75", "source": {"name": "Vernon", "slug": "vernon"}, "source_identifier": "10088", "external_references": [], "date_modified": "2023-08-11T17:13:36.347169+10:00"}, {"id": 33029, "name": "TWI", "roles_in_work": [{"id": 2315430, "title": "Stride to glory: a history of African Americans in the Olympic Games", "work_id": 91648, "role": "production company", "role_id": 941, "is_primary": true}, {"id": 924530, "title": "Muhammad Ali: through the eyes of the world", "work_id": 93852, "role": "production company", "role_id": 941, "is_primary": true}], "also_known_as": "", "date_of_birth": "", "date_of_death": "", "genders": [], "languages": [], "places_of_operation": [], "biography": "", "biography_author": null, "date_of_biography": "2023-05-09T19:03:27.449200+10:00", "external_links": [], "uuid": "b5669754-e055-43ca-b648-7c07ef13263e", "source": {"name": "Vernon", "slug": "vernon"}, "source_identifier": "13782", "external_references": [{"id": 35244, "source": {"name": "Wikidata", "slug": "wikidata"}, "source_identifier": "Q121079008"}], "date_modified": "2023-09-06T02:00:11.498572+10:00"}, {"id": 33028, "name": "IOC", "roles_in_work": [{"id": 2315425, "title": "Stride to glory: a history of African Americans in the Olympic Games", "work_id": 91648, "role": "production company", "role_id": 941, "is_primary": true}], "also_known_as": "", "date_of_birth": "", "date_of_death": "", "genders": [], "languages": [], "places_of_operation": [], "biography": "", "biography_author": null, "date_of_biography": "2023-05-09T19:03:27.205249+10:00", "external_links": [], "uuid": "f1196454-d952-4e46-842d-f260544988c7", "source": {"name": "Vernon", "slug": "vernon"}, "source_identifier": "9428", "external_references": [], "date_modified": "2023-06-14T16:33:30.576250+10:00"}]}