{"count": 28687, "next": "https://api.acmi.net.au/creators/?page=2740", "previous": "https://api.acmi.net.au/creators/?page=2738", "results": [{"id": 10893, "name": "Jenny Grigg", "roles_in_work": [{"id": 2637968, "title": "Always a farmer", "work_id": 110011, "role": "creator", "role_id": 968, "is_primary": true}], "also_known_as": "", "date_of_birth": "", "date_of_death": "", "genders": [], "languages": [], "places_of_operation": [], "biography": "", "biography_author": null, "date_of_biography": "2023-05-09T19:10:47.946136+10:00", "external_links": [], "uuid": "78bc12f1-3554-4695-b42f-c2b50b9aa4c6", "source": {"name": "Vernon", "slug": "vernon"}, "source_identifier": "2644", "external_references": [], "date_modified": "2025-03-05T10:59:10.472927+11:00"}, {"id": 10892, "name": "Diana Anderson", "roles_in_work": [{"id": 2637964, "title": "All change please", "work_id": 110010, "role": "creator", "role_id": 968, "is_primary": true}], "also_known_as": "", "date_of_birth": "", "date_of_death": "", "genders": [], "languages": [], "places_of_operation": [], "biography": "", "biography_author": null, "date_of_biography": "2023-07-05T03:42:26.947392+10:00", "external_links": [], "uuid": "1082740a-8679-42b0-8697-a1e0b17200eb", "source": {"name": "Vernon", "slug": "vernon"}, "source_identifier": "2643", "external_references": [], "date_modified": "2025-03-05T10:59:07.402338+11:00"}, {"id": 10891, "name": "Althea Hunt", "roles_in_work": [{"id": 2637992, "title": "Sustainability", "work_id": 110009, "role": "creator", "role_id": 968, "is_primary": true}], "also_known_as": "", "date_of_birth": "", "date_of_death": "", "genders": [], "languages": [], "places_of_operation": [], "biography": "", "biography_author": null, "date_of_biography": "2023-07-05T03:42:24.949522+10:00", "external_links": [], "uuid": "006bfb00-0e37-446a-bc8c-4b65499fb77d", "source": {"name": "Vernon", "slug": "vernon"}, "source_identifier": "2641", "external_references": [], "date_modified": "2025-03-05T10:59:28.897359+11:00"}, {"id": 10889, "name": "Merna Curnow", "roles_in_work": [{"id": 2637976, "title": "Extending boundaries", "work_id": 110007, "role": "creator", "role_id": 968, "is_primary": true}], "also_known_as": "", "date_of_birth": "", "date_of_death": "", "genders": [], "languages": [], "places_of_operation": [], "biography": "", "biography_author": null, "date_of_biography": "2023-07-05T03:42:22.691947+10:00", "external_links": [], "uuid": "d4d82e90-b777-4871-bc58-e294abe2318b", "source": {"name": "Vernon", "slug": "vernon"}, "source_identifier": "2646", "external_references": [], "date_modified": "2025-03-05T10:59:16.600747+11:00"}, {"id": 10888, "name": "Linton Briggs", "roles_in_work": [{"id": 2640422, "title": "A Magic place", "work_id": 110006, "role": "producer", "role_id": 1089, "is_primary": true}], "also_known_as": "", "date_of_birth": "", "date_of_death": "", "genders": [], "languages": [], "places_of_operation": [], "biography": "", "biography_author": null, "date_of_biography": "2023-05-09T17:44:32.131443+10:00", "external_links": [], "uuid": "d1d3300e-01c7-4d13-8004-658a7f1ed75d", "source": {"name": "Vernon", "slug": "vernon"}, "source_identifier": "2678", "external_references": [{"id": 39180, "source": {"name": "Wikidata", "slug": "wikidata"}, "source_identifier": "Q121091241"}], "date_modified": "2025-03-05T11:27:56.481984+11:00"}, {"id": 10887, "name": "Kathy Whelan", "roles_in_work": [{"id": 2640420, "title": "A Magic place", "work_id": 110006, "role": "producer", "role_id": 1089, "is_primary": true}], "also_known_as": "", "date_of_birth": "", "date_of_death": "", "genders": [], "languages": [], "places_of_operation": [], "biography": "", "biography_author": null, "date_of_biography": "2023-05-09T17:44:31.903541+10:00", "external_links": [], "uuid": "e204745e-98ec-480b-ab45-082ada1599aa", "source": {"name": "Vernon", "slug": "vernon"}, "source_identifier": "2639", "external_references": [{"id": 32463, "source": {"name": "Wikidata", "slug": "wikidata"}, "source_identifier": "Q121091159"}], "date_modified": "2025-03-05T11:27:55.911168+11:00"}, {"id": 10886, "name": "David Briggs", "roles_in_work": [{"id": 2640418, "title": "A Magic place", "work_id": 110006, "role": "producer", "role_id": 1089, "is_primary": true}], "also_known_as": "", "date_of_birth": "", "date_of_death": "", "genders": [{"id": 9, "name": "Male", "slug": "male"}], "languages": [], "places_of_operation": [], "biography": "", "biography_author": null, "date_of_biography": "2023-05-09T17:44:31.669592+10:00", "external_links": [], "uuid": "21cf024d-91d6-4305-bd1b-6d39ca5b64a4", "source": {"name": "Vernon", "slug": "vernon"}, "source_identifier": "2638", "external_references": [{"id": 39528, "source": {"name": "Wikidata", "slug": "wikidata"}, "source_identifier": "Q121299123"}], "date_modified": "2025-03-05T11:27:55.331175+11:00"}, {"id": 10885, "name": "Goulburn Ovens Institute of TAFE", "roles_in_work": [{"id": 2640457, "title": "We used to call them Blackboys", "work_id": 110004, "role": "production company", "role_id": 941, "is_primary": true}, {"id": 2640424, "title": "A Magic place", "work_id": 110006, "role": "production company", "role_id": 941, "is_primary": true}], "also_known_as": "", "date_of_birth": "", "date_of_death": "", "genders": [], "languages": [], "places_of_operation": [], "biography": "", "biography_author": null, "date_of_biography": "2023-05-09T17:44:32.360562+10:00", "external_links": [], "uuid": "a657dfb0-37e7-4238-bd84-1a3953e2ca3a", "source": {"name": "Vernon", "slug": "vernon"}, "source_identifier": "2637", "external_references": [{"id": 42419, "source": {"name": "Wikidata", "slug": "wikidata"}, "source_identifier": "Q121034312"}], "date_modified": "2025-03-05T11:28:09.074611+11:00"}, {"id": 10883, "name": "Maz McGann", "roles_in_work": [{"id": 2640454, "title": "We used to call them Blackboys", "work_id": 110004, "role": "producer", "role_id": 1089, "is_primary": true}], "also_known_as": "", "date_of_birth": "", "date_of_death": "", "genders": [{"id": 5, "name": "Female", "slug": "female"}], "languages": [], "places_of_operation": [], "biography": "", "biography_author": null, "date_of_biography": "2023-05-09T17:44:28.562465+10:00", "external_links": [], "uuid": "1b50cec2-e212-4f56-978a-2939e7604d4b", "source": {"name": "Vernon", "slug": "vernon"}, "source_identifier": "2635", "external_references": [{"id": 51303, "source": {"name": "Wikidata", "slug": "wikidata"}, "source_identifier": "Q121358042"}], "date_modified": "2025-03-05T11:28:07.911455+11:00"}, {"id": 10882, "name": "Robert Hutter", "roles_in_work": [{"id": 2637908, "title": "Headskin", "work_id": 110003, "role": "creator", "role_id": 968, "is_primary": true}], "also_known_as": "", "date_of_birth": "1964", "date_of_death": "", "genders": [{"id": 9, "name": "Male", "slug": "male"}], "languages": [], "places_of_operation": [], "biography": "", "biography_author": null, "date_of_biography": "2023-08-11T17:16:43.467659+10:00", "external_links": [], "uuid": "f2803881-5cc1-4b7c-8458-c65d5ae13eb6", "source": {"name": "Vernon", "slug": "vernon"}, "source_identifier": "2624", "external_references": [], "date_modified": "2025-03-05T10:58:22.218431+11:00"}]}