{"count": 28687, "next": "https://api.acmi.net.au/creators/?page=336", "previous": "https://api.acmi.net.au/creators/?page=334", "results": [{"id": 82257, "name": "Xu Geng", "roles_in_work": [{"id": 2650612, "title": "Blossoming years = Dou kou nian hua", "work_id": 115747, "role": "director", "role_id": 938, "is_primary": true}, {"id": 2650613, "title": "Blossoming years = Dou kou nian hua", "work_id": 115747, "role": "script", "role_id": 962, "is_primary": false}], "also_known_as": "", "date_of_birth": "", "date_of_death": "", "genders": [], "languages": [], "places_of_operation": [], "biography": "", "biography_author": null, "date_of_biography": "2023-05-09T13:03:50.852140+10:00", "external_links": [], "uuid": "bdccbbef-26f5-47ba-b656-9de9746d8860", "source": {"name": "Vernon", "slug": "vernon"}, "source_identifier": "36334", "external_references": [{"id": 40463, "source": {"name": "Wikidata", "slug": "wikidata"}, "source_identifier": "Q121126207"}], "date_modified": "2025-03-05T14:21:39.175140+11:00"}, {"id": 82256, "name": "Qiu Zhongyi", "roles_in_work": [{"id": 2650611, "title": "Blossoming years = Dou kou nian hua", "work_id": 115747, "role": "director", "role_id": 938, "is_primary": true}], "also_known_as": "", "date_of_birth": "", "date_of_death": "", "genders": [], "languages": [], "places_of_operation": [], "biography": "", "biography_author": null, "date_of_biography": "2023-05-09T13:03:50.351326+10:00", "external_links": [], "uuid": "421c2705-f87e-4c24-8333-5daa59031c47", "source": {"name": "Vernon", "slug": "vernon"}, "source_identifier": "36333", "external_references": [{"id": 34549, "source": {"name": "Wikidata", "slug": "wikidata"}, "source_identifier": "Q121035826"}], "date_modified": "2025-03-05T14:21:38.005459+11:00"}, {"id": 82255, "name": "Run Youliang", "roles_in_work": [{"id": 2650610, "title": "Blossoming years = Dou kou nian hua", "work_id": 115747, "role": "producer", "role_id": 1089, "is_primary": true}], "also_known_as": "", "date_of_birth": "", "date_of_death": "", "genders": [], "languages": [], "places_of_operation": [], "biography": "", "biography_author": null, "date_of_biography": "2023-05-09T13:03:50.115090+10:00", "external_links": [], "uuid": "68fd615c-4325-4128-855f-cd49401ab296", "source": {"name": "Vernon", "slug": "vernon"}, "source_identifier": "36342", "external_references": [{"id": 34180, "source": {"name": "Wikidata", "slug": "wikidata"}, "source_identifier": "Q121126075"}], "date_modified": "2025-03-05T14:21:37.423923+11:00"}, {"id": 82254, "name": "Dan Xingliang", "roles_in_work": [{"id": 2650616, "title": "Blossoming years = Dou kou nian hua", "work_id": 115747, "role": "cinematographer", "role_id": 32, "is_primary": false}, {"id": 2650609, "title": "Blossoming years = Dou kou nian hua", "work_id": 115747, "role": "producer", "role_id": 1089, "is_primary": true}], "also_known_as": "", "date_of_birth": "", "date_of_death": "", "genders": [], "languages": [], "places_of_operation": [], "biography": "", "biography_author": null, "date_of_biography": "2023-05-09T13:03:51.844725+10:00", "external_links": [], "uuid": "e478009a-30de-42a2-99af-91cffc4f2486", "source": {"name": "Vernon", "slug": "vernon"}, "source_identifier": "36336", "external_references": [{"id": 36360, "source": {"name": "Wikidata", "slug": "wikidata"}, "source_identifier": "Q121040113"}], "date_modified": "2025-03-05T14:21:40.913871+11:00"}, {"id": 82253, "name": "Children's Film Studio (China)", "roles_in_work": [{"id": 2651093, "title": "Bei Bei the Lighting = Pili Bei Bei", "work_id": 115800, "role": "production company", "role_id": 941, "is_primary": true}, {"id": 2650976, "title": "Five little warriors = Wu hu jiang", "work_id": 115785, "role": "production company", "role_id": 941, "is_primary": true}, {"id": 2650755, "title": "A Fatherless village = Mei you ba ba de cun zhuang", "work_id": 115762, "role": "production company", "role_id": 941, "is_primary": true}, {"id": 2651401, "title": "The Dreaming age = Meng huan shi jie", "work_id": 115837, "role": "production company", "role_id": 941, "is_primary": true}, {"id": 2650608, "title": "Blossoming years = Dou kou nian hua", "work_id": 115747, "role": "production company", "role_id": 941, "is_primary": true}], "also_known_as": "", "date_of_birth": "", "date_of_death": "", "genders": [], "languages": [], "places_of_operation": [], "biography": "", "biography_author": null, "date_of_biography": "2023-05-09T19:45:22.065107+10:00", "external_links": [], "uuid": "dbabd4cb-eb6d-43fc-a497-c1481b60f4be", "source": {"name": "Vernon", "slug": "vernon"}, "source_identifier": "30899", "external_references": [{"id": 42330, "source": {"name": "Wikidata", "slug": "wikidata"}, "source_identifier": "Q121126798"}], "date_modified": "2025-03-05T14:29:36.651828+11:00"}, {"id": 82252, "name": "Gang Yi", "roles_in_work": [{"id": 2243519, "title": "Flames of love on the ice", "work_id": 115845, "role": "cinematographer", "role_id": 32, "is_primary": false}, {"id": 2650607, "title": "The Carefree sword = Xian e jiang hu xiao yao jian", "work_id": 115746, "role": "director of photography", "role_id": 925, "is_primary": false}], "also_known_as": "", "date_of_birth": "", "date_of_death": "", "genders": [], "languages": [], "places_of_operation": [], "biography": "", "biography_author": null, "date_of_biography": "2023-05-09T19:32:27.507894+10:00", "external_links": [], "uuid": "ac07930c-73c7-4e28-be71-feb00e4e6d2b", "source": {"name": "Vernon", "slug": "vernon"}, "source_identifier": "36586", "external_references": [{"id": 35131, "source": {"name": "Wikidata", "slug": "wikidata"}, "source_identifier": "Q121036882"}], "date_modified": "2025-03-05T14:21:35.373523+11:00"}, {"id": 82251, "name": "Deng Yuan", "roles_in_work": [{"id": 2243516, "title": "Flames of love on the ice", "work_id": 115845, "role": "director", "role_id": 938, "is_primary": true}, {"id": 2650604, "title": "The Carefree sword = Xian e jiang hu xiao yao jian", "work_id": 115746, "role": "director", "role_id": 938, "is_primary": true}, {"id": 2243518, "title": "Flames of love on the ice", "work_id": 115845, "role": "writer", "role_id": 939, "is_primary": true}, {"id": 2650605, "title": "The Carefree sword = Xian e jiang hu xiao yao jian", "work_id": 115746, "role": "writer", "role_id": 939, "is_primary": true}], "also_known_as": "", "date_of_birth": "", "date_of_death": "", "genders": [], "languages": [], "places_of_operation": [], "biography": "", "biography_author": null, "date_of_biography": "2023-05-09T19:32:27.028854+10:00", "external_links": [], "uuid": "f45d9a95-fc22-4ac2-8bc5-fe09228e5793", "source": {"name": "Vernon", "slug": "vernon"}, "source_identifier": "36585", "external_references": [{"id": 35146, "source": {"name": "Wikidata", "slug": "wikidata"}, "source_identifier": "Q121079167"}], "date_modified": "2025-03-05T14:21:34.199254+11:00"}, {"id": 82250, "name": "Liu Yanxi", "roles_in_work": [{"id": 2651393, "title": "Bubbling spring = Quan shi ding dong", "work_id": 115835, "role": "composer", "role_id": 538, "is_primary": false}, {"id": 2650923, "title": "Massacre in Nanjing = Tu Cheng Xue Ji", "work_id": 115779, "role": "composer", "role_id": 538, "is_primary": false}, {"id": 2651088, "title": "Me and my classmates = Wo he wo de tong xue men", "work_id": 115799, "role": "composer", "role_id": 538, "is_primary": false}, {"id": 2650602, "title": "Purplish red crown = Zi se de huang guan", "work_id": 115745, "role": "composer", "role_id": 538, "is_primary": false}], "also_known_as": "", "date_of_birth": "", "date_of_death": "", "genders": [], "languages": [], "places_of_operation": [], "biography": "", "biography_author": null, "date_of_biography": "2023-05-09T16:41:42.310324+10:00", "external_links": [], "uuid": "7c74d2d0-bf8c-4646-99b0-bcc7b6f8b2fb", "source": {"name": "Vernon", "slug": "vernon"}, "source_identifier": "36387", "external_references": [], "date_modified": "2025-03-05T14:29:31.460285+11:00"}, {"id": 82249, "name": "Chen Renjin", "roles_in_work": [{"id": 2650601, "title": "Purplish red crown = Zi se de huang guan", "work_id": 115745, "role": "editor", "role_id": 918, "is_primary": true}], "also_known_as": "", "date_of_birth": "", "date_of_death": "", "genders": [], "languages": [], "places_of_operation": [], "biography": "", "biography_author": null, "date_of_biography": "2023-05-09T16:41:42.080582+10:00", "external_links": [], "uuid": "a18b5136-6260-4334-8353-6f14eae07ed6", "source": {"name": "Vernon", "slug": "vernon"}, "source_identifier": "36589", "external_references": [{"id": 39916, "source": {"name": "Wikidata", "slug": "wikidata"}, "source_identifier": "Q121126700"}], "date_modified": "2025-03-05T14:21:31.389252+11:00"}, {"id": 82248, "name": "Zhu Yongde", "roles_in_work": [{"id": 2650600, "title": "Purplish red crown = Zi se de huang guan", "work_id": 115745, "role": "cinematographer", "role_id": 32, "is_primary": false}, {"id": 2317446, "title": "Sunrise = 日出", "work_id": 115841, "role": "cinematographer", "role_id": 32, "is_primary": false}], "also_known_as": "", "date_of_birth": "", "date_of_death": "", "genders": [], "languages": [], "places_of_operation": [], "biography": "", "biography_author": null, "date_of_biography": "2023-05-09T19:07:02.485302+10:00", "external_links": [], "uuid": "ff1558da-6e21-4ce0-8250-266418d3d9bb", "source": {"name": "Vernon", "slug": "vernon"}, "source_identifier": "36588", "external_references": [{"id": 40768, "source": {"name": "Wikidata", "slug": "wikidata"}, "source_identifier": "Q76781455"}], "date_modified": "2025-03-05T14:21:30.808671+11:00"}]}