{"count": 28687, "next": "https://api.acmi.net.au/creators/?page=1623", "previous": "https://api.acmi.net.au/creators/?page=1621", "results": [{"id": 30452, "name": "Videofashion", "roles_in_work": [{"id": 2795452, "title": "Betsey Johnson: Halston", "work_id": 88356, "role": "production company", "role_id": 941, "is_primary": true}, {"id": 2795425, "title": "Christian Dior", "work_id": 88353, "role": "production company", "role_id": 941, "is_primary": true}, {"id": 2795416, "title": "Giorgio Armani: Calvin Klein", "work_id": 88352, "role": "production company", "role_id": 941, "is_primary": true}, {"id": 2795408, "title": "Yves Saint Laurent: Valentino", "work_id": 88351, "role": "production company", "role_id": 941, "is_primary": true}, {"id": 2795399, "title": "The Greatest designers: Paris: Karl Lagerfeld", "work_id": 88350, "role": "production company", "role_id": 941, "is_primary": true}, {"id": 2795457, "title": "The Designers", "work_id": 115514, "role": "production company", "role_id": 941, "is_primary": true}], "also_known_as": "", "date_of_birth": "", "date_of_death": "", "genders": [], "languages": [], "places_of_operation": [], "biography": "", "biography_author": null, "date_of_biography": "2023-05-09T15:22:59.087025+10:00", "external_links": [], "uuid": "9b935fc4-03a1-4444-aef0-5628bcdc95ca", "source": {"name": "Vernon", "slug": "vernon"}, "source_identifier": "3950", "external_references": [{"id": 43101, "source": {"name": "Wikidata", "slug": "wikidata"}, "source_identifier": "Q121160023"}], "date_modified": "2025-03-14T20:32:05.078021+11:00"}, {"id": 30448, "name": "Czechoslovak Film Corporation", "roles_in_work": [{"id": 2337077, "title": "The Christmas dream", "work_id": 88347, "role": "production company", "role_id": 941, "is_primary": true}], "also_known_as": "", "date_of_birth": "", "date_of_death": "", "genders": [], "languages": [], "places_of_operation": [], "biography": "", "biography_author": null, "date_of_biography": "2023-05-09T19:33:37.475711+10:00", "external_links": [], "uuid": "508dbb36-421b-4c14-8217-87550724a420", "source": {"name": "Vernon", "slug": "vernon"}, "source_identifier": "7271", "external_references": [{"id": 38799, "source": {"name": "Wikidata", "slug": "wikidata"}, "source_identifier": "Q121315079"}], "date_modified": "2023-09-05T18:48:19.729778+10:00"}, {"id": 30446, "name": "Anroste Films", "roles_in_work": [{"id": 2344364, "title": "Secret of the pyramid", "work_id": 89362, "role": "production company", "role_id": 941, "is_primary": true}, {"id": 2344066, "title": "The day the earth was sold", "work_id": 89359, "role": "production company", "role_id": 941, "is_primary": true}, {"id": 2344180, "title": "DoDo and the Touchies", "work_id": 89360, "role": "production company", "role_id": 941, "is_primary": true}, {"id": 2344335, "title": "Dodo's arrival story", "work_id": 88333, "role": "production company", "role_id": 941, "is_primary": true}, {"id": 2344310, "title": "DoDo the circus star", "work_id": 90214, "role": "production company", "role_id": 941, "is_primary": true}, {"id": 2344412, "title": "A Very sheepish affair", "work_id": 90946, "role": "production company", "role_id": 941, "is_primary": true}, {"id": 2344222, "title": "DoDo at the rodeo", "work_id": 90639, "role": "production company", "role_id": 941, "is_primary": true}, {"id": 2344122, "title": "DoDo and the smellometer", "work_id": 91344, "role": "production company", "role_id": 941, "is_primary": true}, {"id": 2344290, "title": "Dodo in Pukcab Land", "work_id": 90176, "role": "production company", "role_id": 941, "is_primary": true}, {"id": 2344096, "title": "The Discovery of Fingercillin", "work_id": 89361, "role": "production company", "role_id": 941, "is_primary": true}, {"id": 2344243, "title": "DoDo buys a space pig", "work_id": 90308, "role": "production company", "role_id": 941, "is_primary": true}, {"id": 2344352, "title": "Professor Finger builds a bridge", "work_id": 88331, "role": "production company", "role_id": 941, "is_primary": true}, {"id": 2344203, "title": "DoDo at the opera", "work_id": 90645, "role": "production company", "role_id": 941, "is_primary": true}, {"id": 2344154, "title": "DoDo and the space pirates", "work_id": 90822, "role": "production company", "role_id": 941, "is_primary": true}, {"id": 2344393, "title": "DoDo helps Interpol", "work_id": 88335, "role": "production company", "role_id": 941, "is_primary": true}], "also_known_as": "", "date_of_birth": "", "date_of_death": "", "genders": [], "languages": [], "places_of_operation": [], "biography": "", "biography_author": null, "date_of_biography": "2023-05-09T19:44:36.631627+10:00", "external_links": [], "uuid": "cede504d-54d0-4a59-bd6a-6802dd8a9d97", "source": {"name": "Vernon", "slug": "vernon"}, "source_identifier": "5281", "external_references": [{"id": 35907, "source": {"name": "Wikidata", "slug": "wikidata"}, "source_identifier": "Q121035945"}], "date_modified": "2023-09-05T17:41:06.014446+10:00"}, {"id": 30444, "name": "Annie Goldson", "roles_in_work": [{"id": 1427992, "title": "Punitive damage", "work_id": 88327, "role": "director", "role_id": 938, "is_primary": true}, {"id": 1427990, "title": "Punitive damage", "work_id": 88327, "role": "co-producer", "role_id": 915, "is_primary": true}], "also_known_as": "", "date_of_birth": null, "date_of_death": null, "genders": [{"id": 5, "name": "Female", "slug": "female"}], "languages": [], "places_of_operation": [{"id": 9, "name": "New Zealand", "slug": "new-zealand"}], "biography": "Anne 'Annie' Veronica Goldson  is a New Zealand journalism and film academic specialising in documentaries. Her films include Punitive Damage, Georgie Girl, Brother Number One and Kim Dotcom: Caught in the Web.", "biography_author": "Wikidata", "date_of_biography": "2023-08-01T14:04:18.309928+10:00", "external_links": [{"id": 3568, "uri": "https://en.wikipedia.org/wiki/Annie_Goldson"}], "uuid": "957c8e1f-8417-4aee-a7c4-2581fb3444d6", "source": {"name": "Vernon", "slug": "vernon"}, "source_identifier": "15362", "external_references": [{"id": 27053, "source": {"name": "Wikidata", "slug": "wikidata"}, "source_identifier": "Q44259015"}, {"id": 27309, "source": {"name": "VIAF", "slug": "viaf"}, "source_identifier": "187149106010768490713"}, {"id": 27310, "source": {"name": "LOC Auth", "slug": "loc-auth"}, "source_identifier": "no98071745"}], "date_modified": "2023-09-13T12:28:14.397750+10:00"}, {"id": 30442, "name": "Jane Cole", "roles_in_work": [{"id": 2318519, "title": "Superglue and angel wings", "work_id": 92819, "role": "director", "role_id": 938, "is_primary": true}, {"id": 2318513, "title": "Superglue and angel wings", "work_id": 92819, "role": "co-producer", "role_id": 915, "is_primary": true}, {"id": 1932156, "title": "Up in the sky: Tracey Moffatt in New York", "work_id": 88326, "role": "producer/director", "role_id": 31, "is_primary": true}], "also_known_as": "", "date_of_birth": "", "date_of_death": "", "genders": [], "languages": [], "places_of_operation": [], "biography": "", "biography_author": null, "date_of_biography": "2023-05-09T19:08:38.555105+10:00", "external_links": [], "uuid": "a3eb5be1-e3e4-463a-aadb-a07464c42045", "source": {"name": "Vernon", "slug": "vernon"}, "source_identifier": "21407", "external_references": [{"id": 41849, "source": {"name": "Wikidata", "slug": "wikidata"}, "source_identifier": "Q121034462"}], "date_modified": "2023-09-05T21:07:34.452866+10:00"}, {"id": 30441, "name": "Jane Cole Productions", "roles_in_work": [{"id": 1932155, "title": "Up in the sky: Tracey Moffatt in New York", "work_id": 88326, "role": "production company", "role_id": 941, "is_primary": true}, {"id": 2318511, "title": "Superglue and angel wings", "work_id": 92819, "role": "production company", "role_id": 941, "is_primary": true}], "also_known_as": "", "date_of_birth": "", "date_of_death": "", "genders": [], "languages": [], "places_of_operation": [], "biography": "", "biography_author": null, "date_of_biography": "2023-05-09T19:08:37.798992+10:00", "external_links": [], "uuid": "3586257f-5538-449a-b3cd-16d32d38d1f4", "source": {"name": "Vernon", "slug": "vernon"}, "source_identifier": "9549", "external_references": [{"id": 34482, "source": {"name": "Wikidata", "slug": "wikidata"}, "source_identifier": "Q121159987"}], "date_modified": "2023-09-05T21:07:35.070149+10:00"}, {"id": 30434, "name": "Saga Productions", "roles_in_work": [{"id": 2157999, "title": "My dinner with Andre", "work_id": 92342, "role": "production company", "role_id": 941, "is_primary": true}, {"id": 873617, "title": "On schedule", "work_id": 88319, "role": "production company", "role_id": 941, "is_primary": true}], "also_known_as": "", "date_of_birth": "", "date_of_death": "", "genders": [], "languages": [], "places_of_operation": [], "biography": "", "biography_author": null, "date_of_biography": "2023-05-09T14:09:38.386533+10:00", "external_links": [], "uuid": "7ff2ad77-4e65-4f56-921d-859d21e85ba2", "source": {"name": "Vernon", "slug": "vernon"}, "source_identifier": "12236", "external_references": [{"id": 51545, "source": {"name": "Wikidata", "slug": "wikidata"}, "source_identifier": "Q121357986"}], "date_modified": "2023-09-06T01:01:32.915870+10:00"}, {"id": 30433, "name": "Minnesota Theatre Co Foundation", "roles_in_work": [{"id": 2415976, "title": "Miracle in Minnesota", "work_id": 88317, "role": "production company", "role_id": 941, "is_primary": true}], "also_known_as": "", "date_of_birth": "", "date_of_death": "", "genders": [], "languages": [], "places_of_operation": [], "biography": "", "biography_author": null, "date_of_biography": "2023-08-11T19:50:42.491470+10:00", "external_links": [], "uuid": "2e50c9ba-6b8c-4ffe-b9e3-3329b2abfeb1", "source": {"name": "Vernon", "slug": "vernon"}, "source_identifier": "10568", "external_references": [], "date_modified": "2023-08-11T19:50:42.491704+10:00"}, {"id": 30432, "name": "Empire Photosound Inc", "roles_in_work": [{"id": 2415975, "title": "Miracle in Minnesota", "work_id": 88317, "role": "production company", "role_id": 941, "is_primary": true}], "also_known_as": "", "date_of_birth": "", "date_of_death": "", "genders": [], "languages": [], "places_of_operation": [], "biography": "", "biography_author": null, "date_of_biography": "2023-08-11T19:50:41.828712+10:00", "external_links": [], "uuid": "06a95c54-a01a-49e9-b0de-3424e6692adf", "source": {"name": "Vernon", "slug": "vernon"}, "source_identifier": "7885", "external_references": [], "date_modified": "2023-08-11T19:50:41.828964+10:00"}, {"id": 30427, "name": "H. Bruce Woolfe", "roles_in_work": [{"id": 2323028, "title": "Tell England", "work_id": 94491, "role": "producer", "role_id": 1089, "is_primary": true}, {"id": 2043628, "title": "Morning paper", "work_id": 88310, "role": "producer", "role_id": 1089, "is_primary": true}], "also_known_as": "", "date_of_birth": "1880-06-04", "date_of_death": "1965-01-01", "genders": [{"id": 9, "name": "Male", "slug": "male"}], "languages": [{"id": 1, "name": "English", "slug": "english"}], "places_of_operation": [{"id": 10, "name": "United Kingdom", "slug": "united-kingdom"}], "biography": "Harry Bruce Woolfe CBE, (1880, Marylebone, London – 1965, Brighton) was an English film producer and occasional director who founded British Instructional Films. The company focused on documentaries, nature films, and works concerning World War I. He was himself a veteran so had an interest in using film to re-enact the war. This links to his being referred to as an \"ardent imperialist\" who intended to tell heroic stories of said war. In addition to work on war films he initiated the Secrets of Nature series.", "biography_author": "Wikidata", "date_of_biography": "2023-08-01T15:07:06.806708+10:00", "external_links": [{"id": 4122, "uri": "https://en.wikipedia.org/wiki/Harry_Bruce_Woolfe"}], "uuid": "4fcd2e12-9830-4a13-aadf-a6bef224d7cb", "source": {"name": "Vernon", "slug": "vernon"}, "source_identifier": "20167", "external_references": [{"id": 26147, "source": {"name": "Wikidata", "slug": "wikidata"}, "source_identifier": "Q501881"}, {"id": 28814, "source": {"name": "VIAF", "slug": "viaf"}, "source_identifier": "311037364"}, {"id": 28815, "source": {"name": "WorldCat", "slug": "worldcat"}, "source_identifier": "viaf-311037364"}], "date_modified": "2023-09-05T20:26:35.156767+10:00"}]}