{"count": 28687, "next": "https://api.acmi.net.au/creators/?page=1299", "previous": "https://api.acmi.net.au/creators/?page=1297", "results": [{"id": 38897, "name": "Carravatt", "roles_in_work": [{"id": 2410005, "title": "How to play your best golf. - Volume 2.", "work_id": 98445, "role": "production company", "role_id": 941, "is_primary": true}], "also_known_as": "", "date_of_birth": "", "date_of_death": "", "genders": [], "languages": [], "places_of_operation": [], "biography": "", "biography_author": null, "date_of_biography": "2023-08-11T17:33:59.079580+10:00", "external_links": [], "uuid": "816af439-bd34-4241-9841-51dd1f0f1718", "source": {"name": "Vernon", "slug": "vernon"}, "source_identifier": "6318", "external_references": [], "date_modified": "2023-08-11T17:33:59.079802+10:00"}, {"id": 38896, "name": "Craig Mikhitarian", "roles_in_work": [{"id": 2410008, "title": "How to play your best golf. - Volume 2.", "work_id": 98445, "role": "director", "role_id": 938, "is_primary": true}, {"id": 2752766, "title": "How to play your best golf. - Volume 1.", "work_id": 98444, "role": "director", "role_id": 938, "is_primary": true}], "also_known_as": "", "date_of_birth": "", "date_of_death": "", "genders": [], "languages": [], "places_of_operation": [], "biography": "", "biography_author": null, "date_of_biography": "2023-08-11T17:34:00.967436+10:00", "external_links": [], "uuid": "bf02e8d2-9ed8-4eb0-b8c7-6d215b4fe5ab", "source": {"name": "Vernon", "slug": "vernon"}, "source_identifier": "17244", "external_references": [], "date_modified": "2025-03-13T01:11:26.839880+11:00"}, {"id": 38895, "name": "Alexandra Gordon", "roles_in_work": [{"id": 2753166, "title": "Play your best tennis. - Volume 1.", "work_id": 98633, "role": "producer", "role_id": 1089, "is_primary": true}, {"id": 2410007, "title": "How to play your best golf. - Volume 2.", "work_id": 98445, "role": "producer", "role_id": 1089, "is_primary": true}, {"id": 2752765, "title": "How to play your best golf. - Volume 1.", "work_id": 98444, "role": "producer", "role_id": 1089, "is_primary": true}, {"id": 2753169, "title": "Play your best tennis. - Volume 2.", "work_id": 98634, "role": "producer", "role_id": 1089, "is_primary": true}], "also_known_as": "", "date_of_birth": "", "date_of_death": "", "genders": [], "languages": [], "places_of_operation": [], "biography": "", "biography_author": null, "date_of_biography": "2023-08-11T17:34:00.333378+10:00", "external_links": [], "uuid": "e767d8aa-6ca5-4834-a15a-66c979259cd3", "source": {"name": "Vernon", "slug": "vernon"}, "source_identifier": "14934", "external_references": [], "date_modified": "2025-03-13T01:20:22.979317+11:00"}, {"id": 38894, "name": "Caravatt", "roles_in_work": [{"id": 2752763, "title": "How to play your best golf. - Volume 1.", "work_id": 98444, "role": "production company", "role_id": 941, "is_primary": true}], "also_known_as": "", "date_of_birth": "", "date_of_death": "", "genders": [], "languages": [], "places_of_operation": [], "biography": "", "biography_author": null, "date_of_biography": "2023-08-11T17:33:43.030487+10:00", "external_links": [], "uuid": "7158bef9-ddc1-4bc5-8ddd-11316884498e", "source": {"name": "Vernon", "slug": "vernon"}, "source_identifier": "6289", "external_references": [], "date_modified": "2025-03-13T01:11:25.083005+11:00"}, {"id": 38891, "name": "Daniel Bertolino", "roles_in_work": [{"id": 2752753, "title": "Children of the unfaithful: the friends of my friends", "work_id": 98440, "role": "director", "role_id": 938, "is_primary": true}, {"id": 2404070, "title": "Children of the Peloponnese", "work_id": 98803, "role": "director", "role_id": 938, "is_primary": true}], "also_known_as": "", "date_of_birth": "", "date_of_death": "", "genders": [], "languages": [], "places_of_operation": [], "biography": "", "biography_author": null, "date_of_biography": "2023-08-11T15:25:24.833534+10:00", "external_links": [], "uuid": "29155adb-5446-4658-9362-07f78cbd4f36", "source": {"name": "Vernon", "slug": "vernon"}, "source_identifier": "17382", "external_references": [], "date_modified": "2025-03-13T01:11:18.219581+11:00"}, {"id": 38890, "name": "Via le Monde", "roles_in_work": [{"id": 2752752, "title": "Children of the unfaithful: the friends of my friends", "work_id": 98440, "role": "production company", "role_id": 941, "is_primary": true}, {"id": 2404073, "title": "Children of the street", "work_id": 98715, "role": "production company", "role_id": 941, "is_primary": true}, {"id": 2404069, "title": "Children of the Peloponnese", "work_id": 98803, "role": "production company", "role_id": 941, "is_primary": true}], "also_known_as": "", "date_of_birth": "", "date_of_death": "", "genders": [], "languages": [], "places_of_operation": [], "biography": "", "biography_author": null, "date_of_biography": "2023-08-11T15:25:24.188989+10:00", "external_links": [], "uuid": "03e1fd79-dd6b-4b9f-b27b-db589c20607b", "source": {"name": "Vernon", "slug": "vernon"}, "source_identifier": "14042", "external_references": [], "date_modified": "2025-03-13T01:11:17.631571+11:00"}, {"id": 38888, "name": "Roger Ley", "roles_in_work": [{"id": 2752738, "title": "Social security benefits: right or privilege?", "work_id": 98435, "role": "director", "role_id": 938, "is_primary": true}], "also_known_as": "", "date_of_birth": "", "date_of_death": "", "genders": [], "languages": [], "places_of_operation": [], "biography": "", "biography_author": null, "date_of_biography": "2023-08-14T10:45:46.221530+10:00", "external_links": [], "uuid": "9f42bd6a-bf08-4d7a-938b-dbe34b1290f4", "source": {"name": "Vernon", "slug": "vernon"}, "source_identifier": "28058", "external_references": [], "date_modified": "2025-03-13T01:11:10.144424+11:00"}, {"id": 38887, "name": "David Gardner", "roles_in_work": [{"id": 2752737, "title": "Social security benefits: right or privilege?", "work_id": 98435, "role": "producer", "role_id": 1089, "is_primary": true}], "also_known_as": "", "date_of_birth": "", "date_of_death": "", "genders": [], "languages": [], "places_of_operation": [], "biography": "", "biography_author": null, "date_of_biography": "2023-08-14T10:45:45.609184+10:00", "external_links": [], "uuid": "aa1432de-cc89-49bd-a220-11765d8a9553", "source": {"name": "Vernon", "slug": "vernon"}, "source_identifier": "17587", "external_references": [], "date_modified": "2025-03-13T01:11:09.553803+11:00"}, {"id": 38886, "name": "Centre for Study of Higher Education, University of Melbourne", "roles_in_work": [{"id": 2752736, "title": "Social security benefits: right or privilege?", "work_id": 98435, "role": "production company", "role_id": 941, "is_primary": true}], "also_known_as": "", "date_of_birth": "", "date_of_death": "", "genders": [], "languages": [], "places_of_operation": [], "biography": "", "biography_author": null, "date_of_biography": "2023-08-14T10:45:44.959655+10:00", "external_links": [], "uuid": "357c16c4-8e56-416a-92ee-0b5ece8991ca", "source": {"name": "Vernon", "slug": "vernon"}, "source_identifier": "6448", "external_references": [], "date_modified": "2025-03-13T01:11:08.967913+11:00"}, {"id": 38885, "name": "Audiovisual Centre, University of Auckland", "roles_in_work": [{"id": 2752726, "title": "Remedial reading; Helping you to help your child", "work_id": 98429, "role": "production company", "role_id": 941, "is_primary": true}], "also_known_as": "", "date_of_birth": null, "date_of_death": null, "genders": [], "languages": [], "places_of_operation": [], "biography": "", "biography_author": null, "date_of_biography": null, "external_links": [], "uuid": "521973e4-cc2d-466a-8c56-d57e96eabae1", "source": {"name": "Vernon", "slug": "vernon"}, "source_identifier": "5536", "external_references": [], "date_modified": "2025-03-13T01:10:58.017572+11:00"}]}