{"count": 28687, "next": "https://api.acmi.net.au/creators/?page=2186", "previous": "https://api.acmi.net.au/creators/?page=2184", "results": [{"id": 18949, "name": "Rudi Hornecker", "roles_in_work": [{"id": 2647010, "title": "Youth on the road", "work_id": 75065, "role": "director", "role_id": 938, "is_primary": true}], "also_known_as": "", "date_of_birth": null, "date_of_death": null, "genders": [], "languages": [], "places_of_operation": [], "biography": "", "biography_author": null, "date_of_biography": null, "external_links": [], "uuid": "896d2780-80cd-4d9d-ac8f-ed486106a38b", "source": {"name": "Vernon", "slug": "vernon"}, "source_identifier": "28325", "external_references": [], "date_modified": "2025-03-05T13:16:40.449805+11:00"}, {"id": 18948, "name": "Fox", "roles_in_work": [{"id": 2095828, "title": "An Unmarried woman", "work_id": 84510, "role": "production company", "role_id": 941, "is_primary": true}, {"id": 758569, "title": "Youth of the world = Die Jungend der welt", "work_id": 75064, "role": "production company", "role_id": 941, "is_primary": true}, {"id": 2334169, "title": "The Boys from Brazil", "work_id": 84629, "role": "production company", "role_id": 941, "is_primary": true}], "also_known_as": "", "date_of_birth": "", "date_of_death": "", "genders": [], "languages": [], "places_of_operation": [], "biography": "", "biography_author": null, "date_of_biography": "2023-05-09T19:29:43.280392+10:00", "external_links": [], "uuid": "691d4cd4-bb5c-47c8-98ae-f9531fea9e50", "source": {"name": "Vernon", "slug": "vernon"}, "source_identifier": "8468", "external_references": [{"id": 41224, "source": {"name": "Wikidata", "slug": "wikidata"}, "source_identifier": "Q121270699"}], "date_modified": "2023-09-05T19:45:23.947190+10:00"}, {"id": 18945, "name": "Australia. Dept. of Aboriginal Affairs", "roles_in_work": [{"id": 2647006, "title": "Your voice", "work_id": 75055, "role": "production company", "role_id": 941, "is_primary": true}], "also_known_as": "", "date_of_birth": "", "date_of_death": "", "genders": [], "languages": [], "places_of_operation": [], "biography": "", "biography_author": null, "date_of_biography": "2023-08-14T12:55:11.628026+10:00", "external_links": [], "uuid": "a8bd9937-84dc-41da-9dac-20a66628693e", "source": {"name": "Vernon", "slug": "vernon"}, "source_identifier": "4798", "external_references": [], "date_modified": "2025-03-05T13:16:37.547467+11:00"}, {"id": 18943, "name": "Lord and King Associates", "roles_in_work": [{"id": 2281977, "title": "Your turn in the box", "work_id": 75053, "role": "production company", "role_id": 941, "is_primary": true}], "also_known_as": "", "date_of_birth": "", "date_of_death": "", "genders": [], "languages": [], "places_of_operation": [], "biography": "", "biography_author": null, "date_of_biography": "2023-05-09T18:02:02.552000+10:00", "external_links": [], "uuid": "3de7767c-bcd6-46f4-9651-9ec0550d7145", "source": {"name": "Vernon", "slug": "vernon"}, "source_identifier": "10157", "external_references": [{"id": 41407, "source": {"name": "Wikidata", "slug": "wikidata"}, "source_identifier": "Q121299488"}], "date_modified": "2023-09-05T22:29:39.645762+10:00"}, {"id": 18941, "name": "O.J. Wrightson", "roles_in_work": [{"id": 2472179, "title": "Your silent partner", "work_id": 75050, "role": "director", "role_id": 938, "is_primary": true}], "also_known_as": "", "date_of_birth": "", "date_of_death": "", "genders": [], "languages": [], "places_of_operation": [], "biography": "", "biography_author": null, "date_of_biography": "2023-08-14T12:55:09.511246+10:00", "external_links": [], "uuid": "59f0dbbe-5328-4369-9ad6-cbf5e6bd7db6", "source": {"name": "Vernon", "slug": "vernon"}, "source_identifier": "25929", "external_references": [], "date_modified": "2023-08-14T12:55:09.511451+10:00"}, {"id": 18940, "name": "Tasmania. Dept. of Agriculture", "roles_in_work": [{"id": 2472178, "title": "Your silent partner", "work_id": 75050, "role": "production company", "role_id": 941, "is_primary": true}], "also_known_as": "", "date_of_birth": "", "date_of_death": "", "genders": [], "languages": [], "places_of_operation": [], "biography": "", "biography_author": null, "date_of_biography": "2023-08-14T12:55:08.841138+10:00", "external_links": [], "uuid": "cda8e484-158d-4f96-8cae-d2688efcc974", "source": {"name": "Vernon", "slug": "vernon"}, "source_identifier": "13178", "external_references": [], "date_modified": "2023-08-14T12:55:08.841443+10:00"}, {"id": 18939, "name": "Owens-Illinois", "roles_in_work": [{"id": 2472175, "title": "Your richest gift", "work_id": 75049, "role": "production company", "role_id": 941, "is_primary": true}], "also_known_as": "", "date_of_birth": "", "date_of_death": "", "genders": [], "languages": [], "places_of_operation": [], "biography": "", "biography_author": null, "date_of_biography": "2023-08-14T12:55:03.916765+10:00", "external_links": [], "uuid": "87786c33-6aa7-4814-b5c9-c1ca7a39c05d", "source": {"name": "Vernon", "slug": "vernon"}, "source_identifier": "11208", "external_references": [], "date_modified": "2023-08-14T12:55:03.916992+10:00"}, {"id": 18938, "name": "Innes Lloyd", "roles_in_work": [{"id": 896332, "title": "Your mysterious brain", "work_id": 75046, "role": "co-director", "role_id": 959, "is_primary": true}, {"id": 2327823, "title": "The Amy Johnson story", "work_id": 82223, "role": "producer", "role_id": 1089, "is_primary": true}, {"id": 2321792, "title": "Talking heads by Alan Bennett", "work_id": 90706, "role": "producer", "role_id": 1089, "is_primary": true}], "also_known_as": "", "date_of_birth": "24 DEC 1925", "date_of_death": "23 AUG 1991", "genders": [{"id": 9, "name": "Male", "slug": "male"}], "languages": [], "places_of_operation": [], "biography": "", "biography_author": null, "date_of_biography": "2023-05-09T19:21:39.343440+10:00", "external_links": [], "uuid": "b1ecfd76-9e36-444b-9c15-e6012326bf32", "source": {"name": "Vernon", "slug": "vernon"}, "source_identifier": "4776", "external_references": [{"id": 38655, "source": {"name": "Wikidata", "slug": "wikidata"}, "source_identifier": "Q121336966"}], "date_modified": "2023-06-14T16:33:30.576250+10:00"}, {"id": 18937, "name": "Charles Smith", "roles_in_work": [{"id": 758526, "title": "Your mouth", "work_id": 75045, "role": "director", "role_id": 938, "is_primary": true}], "also_known_as": "", "date_of_birth": null, "date_of_death": null, "genders": [], "languages": [], "places_of_operation": [], "biography": "", "biography_author": null, "date_of_biography": null, "external_links": [], "uuid": "f3347e56-bcee-4366-b00f-b8fdb7fd58d8", "source": {"name": "Vernon", "slug": "vernon"}, "source_identifier": "16729", "external_references": [{"id": 41580, "source": {"name": "Wikidata", "slug": "wikidata"}, "source_identifier": "Q120518097"}], "date_modified": "2023-09-13T12:28:41.467652+10:00"}, {"id": 18935, "name": "Peter McIntyre", "roles_in_work": [{"id": 3110509, "title": "Your house and mine", "work_id": 75041, "role": "director", "role_id": 938, "is_primary": true}], "also_known_as": "", "date_of_birth": "", "date_of_death": "", "genders": [], "languages": [], "places_of_operation": [], "biography": "", "biography_author": null, "date_of_biography": "2023-08-14T12:54:59.667399+10:00", "external_links": [], "uuid": "060a6553-9520-452e-b7c8-4105d044f965", "source": {"name": "Vernon", "slug": "vernon"}, "source_identifier": "26640", "external_references": [], "date_modified": "2026-03-13T13:37:27.472175+11:00"}]}