{"count": 28687, "next": "https://api.acmi.net.au/creators/?page=2133", "previous": "https://api.acmi.net.au/creators/?page=2131", "results": [{"id": 19930, "name": "Boyana Film", "roles_in_work": [{"id": 762643, "title": "The Three fools - athletes", "work_id": 76723, "role": "production company", "role_id": 941, "is_primary": true}, {"id": 2468261, "title": "The Three fools and the automobile", "work_id": 76721, "role": "production company", "role_id": 941, "is_primary": true}, {"id": 762649, "title": "The Three fools", "work_id": 76725, "role": "production company", "role_id": 941, "is_primary": true}, {"id": 762647, "title": "The Three fools and the cow", "work_id": 76724, "role": "production company", "role_id": 941, "is_primary": true}, {"id": 2647582, "title": "The Three fools and the tree", "work_id": 76722, "role": "production company", "role_id": 941, "is_primary": true}, {"id": 762652, "title": "The Three fools - hunters", "work_id": 76726, "role": "production company", "role_id": 941, "is_primary": true}, {"id": 762632, "title": "The Three fools and the foolish woman", "work_id": 76719, "role": "production company", "role_id": 941, "is_primary": true}, {"id": 762634, "title": "The Three fools - pedagogues", "work_id": 76720, "role": "production company", "role_id": 941, "is_primary": true}], "also_known_as": "", "date_of_birth": "", "date_of_death": "", "genders": [], "languages": [], "places_of_operation": [], "biography": "", "biography_author": null, "date_of_biography": "2023-08-14T11:37:39.486341+10:00", "external_links": [], "uuid": "4c1f3128-71b1-45ec-b455-30a3a829cfc4", "source": {"name": "Vernon", "slug": "vernon"}, "source_identifier": "32185", "external_references": [], "date_modified": "2025-03-05T13:27:38.010656+11:00"}, {"id": 19929, "name": "Stoian Dukov", "roles_in_work": [{"id": 2752986, "title": "Egg-ceptional", "work_id": 98549, "role": "director", "role_id": 938, "is_primary": true}, {"id": 2466352, "title": "Symbiosis", "work_id": 76718, "role": "director", "role_id": 938, "is_primary": true}], "also_known_as": "", "date_of_birth": "", "date_of_death": "", "genders": [], "languages": [], "places_of_operation": [], "biography": "", "biography_author": null, "date_of_biography": "2023-08-14T10:55:17.041692+10:00", "external_links": [], "uuid": "0591fcd8-b697-4d67-aa77-42115d7c166a", "source": {"name": "Vernon", "slug": "vernon"}, "source_identifier": "29237", "external_references": [], "date_modified": "2025-03-13T01:16:04.858836+11:00"}, {"id": 19928, "name": "Animated Cartoon Studio", "roles_in_work": [{"id": 2466351, "title": "Symbiosis", "work_id": 76718, "role": "production company", "role_id": 941, "is_primary": true}, {"id": 2647581, "title": "The Three fools and the tree", "work_id": 76722, "role": "production company", "role_id": 941, "is_primary": true}, {"id": 2468262, "title": "The Three fools and the automobile", "work_id": 76721, "role": "production company", "role_id": 941, "is_primary": true}, {"id": 762631, "title": "The Three fools and the foolish woman", "work_id": 76719, "role": "production company", "role_id": 941, "is_primary": true}, {"id": 762653, "title": "The Three fools - hunters", "work_id": 76726, "role": "production company", "role_id": 941, "is_primary": true}, {"id": 762650, "title": "The Three fools", "work_id": 76725, "role": "production company", "role_id": 941, "is_primary": true}, {"id": 762646, "title": "The Three fools and the cow", "work_id": 76724, "role": "production company", "role_id": 941, "is_primary": true}, {"id": 762644, "title": "The Three fools - athletes", "work_id": 76723, "role": "production company", "role_id": 941, "is_primary": true}, {"id": 762635, "title": "The Three fools - pedagogues", "work_id": 76720, "role": "production company", "role_id": 941, "is_primary": true}], "also_known_as": "", "date_of_birth": "", "date_of_death": "", "genders": [], "languages": [], "places_of_operation": [], "biography": "", "biography_author": null, "date_of_biography": "2023-08-14T11:37:40.104361+10:00", "external_links": [], "uuid": "d1ca1f97-4368-40ce-ac75-8fb0f385ea4c", "source": {"name": "Vernon", "slug": "vernon"}, "source_identifier": "5264", "external_references": [], "date_modified": "2025-03-05T13:27:37.415808+11:00"}, {"id": 19927, "name": "Slav Bakalov", "roles_in_work": [{"id": 2464708, "title": "Pastoral", "work_id": 76717, "role": "director", "role_id": 938, "is_primary": true}], "also_known_as": "", "date_of_birth": "1945-07-06", "date_of_death": "2019-10-17", "genders": [{"id": 9, "name": "Male", "slug": "male"}], "languages": [{"id": 36, "name": "Bulgarian", "slug": "bulgarian"}, {"id": 3, "name": "Russian", "slug": "russian"}], "places_of_operation": [{"id": 184, "name": "Bulgaria", "slug": "bulgaria"}], "biography": "", "biography_author": null, "date_of_biography": "2023-08-14T10:17:39.293916+10:00", "external_links": [], "uuid": "3cc95ba0-03f7-4166-9491-8572433a5530", "source": {"name": "Vernon", "slug": "vernon"}, "source_identifier": "28880", "external_references": [{"id": 41053, "source": {"name": "Wikidata", "slug": "wikidata"}, "source_identifier": "Q26396393"}, {"id": 55830, "source": {"name": "VIAF", "slug": "viaf"}, "source_identifier": "232941462"}, {"id": 55831, "source": {"name": "LOC Auth", "slug": "loc-auth"}, "source_identifier": "n2007063953"}, {"id": 55832, "source": {"name": "WorldCat", "slug": "worldcat"}, "source_identifier": "lccn-n2007063953"}], "date_modified": "2023-09-06T01:21:59.198149+10:00"}, {"id": 19926, "name": "Pentcho Bogdanov", "roles_in_work": [{"id": 2471910, "title": "Winter", "work_id": 76716, "role": "director", "role_id": 938, "is_primary": true}], "also_known_as": "", "date_of_birth": "", "date_of_death": "", "genders": [], "languages": [], "places_of_operation": [], "biography": "", "biography_author": null, "date_of_biography": "2023-08-14T12:49:19.706002+10:00", "external_links": [], "uuid": "f0ff1002-037b-4c0d-94c9-77a9e52c86c5", "source": {"name": "Vernon", "slug": "vernon"}, "source_identifier": "26428", "external_references": [], "date_modified": "2023-08-14T12:49:19.706216+10:00"}, {"id": 19925, "name": "Animated", "roles_in_work": [{"id": 2471909, "title": "Winter", "work_id": 76716, "role": "production company", "role_id": 941, "is_primary": true}], "also_known_as": "", "date_of_birth": "", "date_of_death": "", "genders": [], "languages": [], "places_of_operation": [], "biography": "", "biography_author": null, "date_of_biography": "2023-08-14T12:49:19.068261+10:00", "external_links": [], "uuid": "e8c0ea16-8211-4bfc-a25d-9fa2727b53d6", "source": {"name": "Vernon", "slug": "vernon"}, "source_identifier": "5261", "external_references": [], "date_modified": "2023-08-14T12:49:19.068608+10:00"}, {"id": 19924, "name": "Eric Mival", "roles_in_work": [{"id": 2647580, "title": "Byo, Scare, Split, Sprung, Spiked", "work_id": 76715, "role": "director", "role_id": 938, "is_primary": true}, {"id": 2403317, "title": "BYO: split", "work_id": 76734, "role": "producer/director", "role_id": 31, "is_primary": true}, {"id": 2403304, "title": "BYO", "work_id": 76739, "role": "producer/director", "role_id": 31, "is_primary": true}, {"id": 2403313, "title": "BYO: spiked", "work_id": 76733, "role": "producer/director", "role_id": 31, "is_primary": true}, {"id": 2647585, "title": "BYO: scare", "work_id": 76732, "role": "producer/director", "role_id": 31, "is_primary": true}, {"id": 2403321, "title": "BYO: sprung", "work_id": 76735, "role": "producer/director", "role_id": 31, "is_primary": true}], "also_known_as": "", "date_of_birth": "", "date_of_death": "", "genders": [], "languages": [], "places_of_operation": [], "biography": "", "biography_author": null, "date_of_biography": "2023-08-11T15:09:53.248304+10:00", "external_links": [], "uuid": "d12fbfbd-f439-440c-aa5b-fdc258c30e29", "source": {"name": "Vernon", "slug": "vernon"}, "source_identifier": "18827", "external_references": [], "date_modified": "2025-03-05T13:27:40.097678+11:00"}, {"id": 19923, "name": "Eric Harrison", "roles_in_work": [{"id": 2784980, "title": "Aspects of Central Place", "work_id": 98301, "role": "director", "role_id": 938, "is_primary": true}, {"id": 2767002, "title": "The Treatment of rape in a TV drama", "work_id": 76799, "role": "director", "role_id": 938, "is_primary": true}, {"id": 2768582, "title": "Fairness", "work_id": 76801, "role": "director", "role_id": 938, "is_primary": true}, {"id": 2752446, "title": "Coastal dunes", "work_id": 98302, "role": "director", "role_id": 938, "is_primary": true}, {"id": 2784992, "title": "Waves and beaches", "work_id": 98190, "role": "director", "role_id": 938, "is_primary": true}, {"id": 2767005, "title": "Terrorism", "work_id": 76800, "role": "director", "role_id": 938, "is_primary": true}, {"id": 2768569, "title": "When Journalists Break the Law", "work_id": 76713, "role": "director", "role_id": 938, "is_primary": true}, {"id": 2768566, "title": "Privacy", "work_id": 76712, "role": "director", "role_id": 938, "is_primary": true}, {"id": 2768573, "title": "Official information", "work_id": 76714, "role": "director", "role_id": 938, "is_primary": true}, {"id": 2063139, "title": "147 break", "work_id": 83411, "role": "director", "role_id": 938, "is_primary": true}], "also_known_as": "", "date_of_birth": "", "date_of_death": "", "genders": [], "languages": [], "places_of_operation": [], "biography": "", "biography_author": null, "date_of_biography": "2023-05-09T11:18:27.162591+10:00", "external_links": [], "uuid": "086347ec-a0cc-4d16-8251-e8ee77461054", "source": {"name": "Vernon", "slug": "vernon"}, "source_identifier": "18807", "external_references": [], "date_modified": "2025-03-14T19:22:42.830752+11:00"}, {"id": 19922, "name": "Brian Lapping", "roles_in_work": [{"id": 2767001, "title": "The Treatment of rape in a TV drama", "work_id": 76799, "role": "producer", "role_id": 1089, "is_primary": true}, {"id": 2767003, "title": "Terrorism", "work_id": 76800, "role": "producer", "role_id": 1089, "is_primary": true}, {"id": 2768565, "title": "Privacy", "work_id": 76712, "role": "producer", "role_id": 1089, "is_primary": true}, {"id": 2768568, "title": "When Journalists Break the Law", "work_id": 76713, "role": "producer", "role_id": 1089, "is_primary": true}, {"id": 2768571, "title": "Official information", "work_id": 76714, "role": "producer", "role_id": 1089, "is_primary": true}, {"id": 2768581, "title": "Fairness", "work_id": 76801, "role": "producer", "role_id": 1089, "is_primary": true}], "also_known_as": "", "date_of_birth": null, "date_of_death": null, "genders": [], "languages": [], "places_of_operation": [], "biography": "", "biography_author": null, "date_of_biography": null, "external_links": [], "uuid": "01769b86-44c4-4939-8d36-afd829c5165b", "source": {"name": "Vernon", "slug": "vernon"}, "source_identifier": "16232", "external_references": [], "date_modified": "2025-03-14T18:10:24.319015+11:00"}, {"id": 19920, "name": "A C T Films", "roles_in_work": [{"id": 2464747, "title": "People's march for jobs", "work_id": 76709, "role": "production company", "role_id": 941, "is_primary": true}], "also_known_as": "", "date_of_birth": "", "date_of_death": "", "genders": [], "languages": [], "places_of_operation": [], "biography": "", "biography_author": null, "date_of_biography": "2023-08-14T10:18:32.420574+10:00", "external_links": [], "uuid": "ded4b70c-81d5-4a5e-9b79-6482702918ae", "source": {"name": "Vernon", "slug": "vernon"}, "source_identifier": "4928", "external_references": [], "date_modified": "2023-08-14T10:18:32.420834+10:00"}]}