{"count": 28683, "next": "https://api.acmi.net.au/creators/?page=827", "previous": "https://api.acmi.net.au/creators/?page=825", "results": [{"id": 77319, "name": "Andrew Gillman", "roles_in_work": [{"id": 2786150, "title": "Batsmen (S)", "work_id": 83045, "role": "director", "role_id": 938, "is_primary": true}], "also_known_as": "", "date_of_birth": "", "date_of_death": "", "genders": [], "languages": [], "places_of_operation": [], "biography": "", "biography_author": null, "date_of_biography": "2023-05-09T13:07:27.326615+10:00", "external_links": [], "uuid": "810fdf1d-dcdf-4f70-abb2-5c0f3f475d63", "source": {"name": "Vernon", "slug": "vernon"}, "source_identifier": "15168", "external_references": [{"id": 34530, "source": {"name": "Wikidata", "slug": "wikidata"}, "source_identifier": "Q121079464"}], "date_modified": "2025-03-14T19:29:02.767825+11:00"}, {"id": 77318, "name": "Denis Phelan", "roles_in_work": [{"id": 2790594, "title": "Swimming and diving", "work_id": 83043, "role": "director", "role_id": 938, "is_primary": true}, {"id": 2790603, "title": "Heroes, heartbreaks and hilarities", "work_id": 84336, "role": "director", "role_id": 938, "is_primary": true}, {"id": 2614814, "title": "Olympic glory the golden years: Aussies and Kiwis in sport", "work_id": 84367, "role": "director", "role_id": 938, "is_primary": true}, {"id": 2790607, "title": "Olympic glory: the golden years", "work_id": 115411, "role": "director", "role_id": 938, "is_primary": true}, {"id": 2790599, "title": "The Melbourne Games", "work_id": 83324, "role": "director", "role_id": 938, "is_primary": true}], "also_known_as": "", "date_of_birth": "", "date_of_death": "", "genders": [], "languages": [], "places_of_operation": [], "biography": "", "biography_author": null, "date_of_biography": "2023-05-09T19:11:08.106662+10:00", "external_links": [], "uuid": "bb9b8da3-c2e4-4b00-badb-0d4aaf481c4c", "source": {"name": "Vernon", "slug": "vernon"}, "source_identifier": "17966", "external_references": [{"id": 42452, "source": {"name": "Wikidata", "slug": "wikidata"}, "source_identifier": "Q121223348"}], "date_modified": "2025-03-14T19:57:56.968572+11:00"}, {"id": 77317, "name": "Eddie Joffe", "roles_in_work": [{"id": 2075938, "title": "A taste of China: cooking with Kenneth Lo", "work_id": 83041, "role": "producer/director", "role_id": 31, "is_primary": true}], "also_known_as": "", "date_of_birth": "", "date_of_death": "", "genders": [], "languages": [], "places_of_operation": [], "biography": "", "biography_author": null, "date_of_biography": "2023-05-09T11:40:41.134223+10:00", "external_links": [], "uuid": "2a4c5c83-3eba-4d3b-9d1c-29af464c7f9e", "source": {"name": "Vernon", "slug": "vernon"}, "source_identifier": "18546", "external_references": [{"id": 52117, "source": {"name": "Wikidata", "slug": "wikidata"}, "source_identifier": "Q121360994"}], "date_modified": "2023-09-05T19:23:40.920934+10:00"}, {"id": 77316, "name": "George Linder", "roles_in_work": [{"id": 1986773, "title": "The Running man (Captioned)", "work_id": 83036, "role": "co-producer", "role_id": 915, "is_primary": true}], "also_known_as": "", "date_of_birth": null, "date_of_death": null, "genders": [], "languages": [], "places_of_operation": [], "biography": "", "biography_author": null, "date_of_biography": null, "external_links": [], "uuid": "52191aaa-fb21-4f8a-b68d-21384443515d", "source": {"name": "Vernon", "slug": "vernon"}, "source_identifier": null, "external_references": [{"id": 35058, "source": {"name": "Wikidata", "slug": "wikidata"}, "source_identifier": "Q121036805"}], "date_modified": "2023-09-05T20:05:49.380953+10:00"}, {"id": 77315, "name": "Quincy Jones", "roles_in_work": [{"id": 2300283, "title": "Sinatra: portrait of an album", "work_id": 94685, "role": "co-producer", "role_id": 915, "is_primary": true}, {"id": 2339481, "title": "The Color purple", "work_id": 83034, "role": "co-producer", "role_id": 915, "is_primary": true}], "also_known_as": "Quincy Delight Jones", "date_of_birth": "1933-03-14", "date_of_death": "", "genders": [{"id": 9, "name": "Male", "slug": "male"}], "languages": [{"id": 1, "name": "English", "slug": "english"}], "places_of_operation": [{"id": 1, "name": "United States of America", "slug": "united-states-of-america"}], "biography": "Quincy Delight Jones Jr. (born March 14, 1933) is an American record producer, songwriter, composer, arranger, and film and television producer. His career spans 70 years, with 80 Grammy Award nominations, 28 Grammys, and a Grammy Legend Award in 1992.\nJones came to prominence in the 1950s as a jazz arranger and conductor before working on pop music and film scores. He moved easily between genres, producing pop hit records for Lesley Gore in the early 1960s (including \"It's My Party\") and serving as an arranger and conductor for several collaborations between the jazz artists Frank Sinatra and Count Basie. In 1968, Jones became the first African American to be nominated for an Academy Award for Best Original Song for \"The Eyes of Love\" from the film Banning. Jones was also nominated for an Academy Award for Best Original Score for his work on the 1967 film In Cold Blood, making him the first African American to be nominated twice in the same year. Jones produced three of the most successful albums by pop star Michael Jackson: Off the Wall (1979), Thriller (1982), and Bad (1987). In 1985, Jones produced and conducted the charity song \"We Are the World\", which raised funds for victims of famine in Ethiopia.In 1971, Jones became the first African American to be the musical director and conductor of the Academy Awards. In 1995, he was the first African American to receive the academy's Jean Hersholt Humanitarian Award. He is tied with sound designer Willie D. Burton as the second most Oscar-nominated African American, with seven nominations each. In 2013, Jones was inducted into the Rock & Roll Hall of Fame as the winner, alongside Lou Adler, of the Ahmet Ertegun Award. He was named one of the most influential jazz musicians of the 20th century by Time.", "biography_author": "Wikidata", "date_of_biography": "2023-08-01T16:40:20.216837+10:00", "external_links": [{"id": 2893, "uri": "https://en.wikipedia.org/wiki/Quincy_Jones"}], "uuid": "328ec5fc-9d9f-454f-a7cd-3d610a15d7cc", "source": {"name": "Vernon", "slug": "vernon"}, "source_identifier": "26997", "external_references": [{"id": 12306, "source": {"name": "Wikidata", "slug": "wikidata"}, "source_identifier": "Q193645"}, {"id": 12307, "source": {"name": "VIAF", "slug": "viaf"}, "source_identifier": "34643563"}, {"id": 12308, "source": {"name": "LOC Auth", "slug": "loc-auth"}, "source_identifier": "n86137211"}, {"id": 12309, "source": {"name": "WorldCat", "slug": "worldcat"}, "source_identifier": "lccn-n86137211"}], "date_modified": "2023-09-06T00:16:27.929559+10:00"}, {"id": 77314, "name": "Jean-Daniel Pollet", "roles_in_work": [{"id": 3104889, "title": "L'acrobate = the Acrobat", "work_id": 116132, "role": "director", "role_id": 938, "is_primary": true}, {"id": 2650265, "title": "Six in Paris = Paris vu par ...", "work_id": 83029, "role": "director", "role_id": 938, "is_primary": true}], "also_known_as": "", "date_of_birth": "20 JUN 1936", "date_of_death": "09 SEP 2004", "genders": [{"id": 9, "name": "Male", "slug": "male"}], "languages": [{"id": 4, "name": "French", "slug": "french"}], "places_of_operation": [{"id": 17, "name": "France", "slug": "france"}], "biography": "Jean-Daniel Pollet (French: [pɔlɛ]; 1936–2004) was a French film director and screenwriter who was most active in the 1960s and 1970s. He was associated with two approaches to filmmaking: comedies which blended burlesque and melancholic elements, and poetic films based on texts by writers such as the French poet Francis Ponge. Source: Wikidata; 01/08/2023", "biography_author": null, "date_of_biography": "2025-05-22T22:51:10.958020+10:00", "external_links": [{"id": 4283, "uri": "https://en.wikipedia.org/wiki/Jean-Daniel_Pollet"}], "uuid": "7780fadb-a4f0-4f49-b9aa-4dcdb945124f", "source": {"name": "Vernon", "slug": "vernon"}, "source_identifier": "31201", "external_references": [{"id": 25653, "source": {"name": "Wikidata", "slug": "wikidata"}, "source_identifier": "Q1532445"}, {"id": 29255, "source": {"name": "VIAF", "slug": "viaf"}, "source_identifier": "118101715"}, {"id": 29256, "source": {"name": "LOC Auth", "slug": "loc-auth"}, "source_identifier": "nr99035676"}, {"id": 29257, "source": {"name": "WorldCat", "slug": "worldcat"}, "source_identifier": "lccn-nr99035676"}], "date_modified": "2025-05-22T22:51:10.958257+10:00"}, {"id": 77313, "name": "Jennifer Howarth", "roles_in_work": [{"id": 2151813, "title": "On the Black Hill", "work_id": 83028, "role": "producer", "role_id": 1089, "is_primary": true}, {"id": 2195188, "title": "Distant voices, still lives", "work_id": 84194, "role": "producer", "role_id": 1089, "is_primary": true}], "also_known_as": "", "date_of_birth": "", "date_of_death": "", "genders": [{"id": 5, "name": "Female", "slug": "female"}], "languages": [], "places_of_operation": [], "biography": "", "biography_author": null, "date_of_biography": "2023-05-09T15:15:39.775623+10:00", "external_links": [], "uuid": "9d0f4d7b-6cb3-45fb-bfeb-8746e28a8cf9", "source": {"name": "Vernon", "slug": "vernon"}, "source_identifier": "21704", "external_references": [{"id": 33663, "source": {"name": "Wikidata", "slug": "wikidata"}, "source_identifier": "Q88299632"}], "date_modified": "2023-09-05T21:20:28.982313+10:00"}, {"id": 77312, "name": "Wayne Wong", "roles_in_work": [{"id": 2214290, "title": "Eat a bowl of tea", "work_id": 83025, "role": "director", "role_id": 938, "is_primary": true}, {"id": 2214287, "title": "Eat a bowl of tea", "work_id": 83025, "role": "co-producer", "role_id": 915, "is_primary": true}], "also_known_as": "", "date_of_birth": "", "date_of_death": "", "genders": [], "languages": [], "places_of_operation": [], "biography": "", "biography_author": null, "date_of_biography": "2023-05-09T15:51:53.420780+10:00", "external_links": [], "uuid": "472339e5-afee-40aa-b1a8-2f85adfbc748", "source": {"name": "Vernon", "slug": "vernon"}, "source_identifier": "30309", "external_references": [], "date_modified": "2023-06-14T16:33:30.576250+10:00"}, {"id": 77311, "name": "R.J. Minney", "roles_in_work": [{"id": 1986700, "title": "Madonna of the seven moons", "work_id": 83014, "role": "producer", "role_id": 1089, "is_primary": true}], "also_known_as": "", "date_of_birth": null, "date_of_death": null, "genders": [], "languages": [], "places_of_operation": [], "biography": "", "biography_author": null, "date_of_biography": null, "external_links": [], "uuid": "4e0fc2bd-041a-4d91-a13d-27337ab81e60", "source": {"name": "Vernon", "slug": "vernon"}, "source_identifier": null, "external_references": [{"id": 41278, "source": {"name": "Wikidata", "slug": "wikidata"}, "source_identifier": "Q121126841"}], "date_modified": "2023-09-06T00:17:18.064867+10:00"}, {"id": 77310, "name": "Michael J. Rivette", "roles_in_work": [{"id": 2069342, "title": "A Kid called Troy", "work_id": 83004, "role": "co-producer", "role_id": 915, "is_primary": true}], "also_known_as": "", "date_of_birth": "", "date_of_death": "", "genders": [], "languages": [], "places_of_operation": [], "biography": "", "biography_author": null, "date_of_biography": "2023-05-09T11:29:38.402667+10:00", "external_links": [], "uuid": "82b975ef-59e7-4594-a034-a9f96393084d", "source": {"name": "Vernon", "slug": "vernon"}, "source_identifier": "25110", "external_references": [{"id": 34372, "source": {"name": "Wikidata", "slug": "wikidata"}, "source_identifier": "Q121126476"}], "date_modified": "2023-09-05T23:06:09.185396+10:00"}]}