{"count": 28684, "next": "https://api.acmi.net.au/creators/?page=332", "previous": "https://api.acmi.net.au/creators/?page=330", "results": [{"id": 82294, "name": "Chen Huifang", "roles_in_work": [{"id": 2650656, "title": "Midnight song = Ye ban ge sheng", "work_id": 115751, "role": "editor", "role_id": 918, "is_primary": true}], "also_known_as": "", "date_of_birth": null, "date_of_death": null, "genders": [], "languages": [], "places_of_operation": [], "biography": "", "biography_author": null, "date_of_biography": null, "external_links": [], "uuid": "5c1def16-b3ce-4d88-9d63-ff3be55f3ce2", "source": {"name": "Vernon", "slug": "vernon"}, "source_identifier": "36198", "external_references": [{"id": 42102, "source": {"name": "Wikidata", "slug": "wikidata"}, "source_identifier": "Q121270872"}], "date_modified": "2025-03-05T14:22:06.592994+11:00"}, {"id": 82293, "name": "Sun Guoliang", "roles_in_work": [{"id": 2650655, "title": "Midnight song = Ye ban ge sheng", "work_id": 115751, "role": "cinematographer", "role_id": 32, "is_primary": false}], "also_known_as": "", "date_of_birth": null, "date_of_death": null, "genders": [], "languages": [], "places_of_operation": [], "biography": "", "biography_author": null, "date_of_biography": null, "external_links": [], "uuid": "92531e9e-295f-40cb-b202-605e7a30c50f", "source": {"name": "Vernon", "slug": "vernon"}, "source_identifier": "36197", "external_references": [{"id": 41636, "source": {"name": "Wikidata", "slug": "wikidata"}, "source_identifier": "Q121057987"}], "date_modified": "2025-03-05T14:22:05.994158+11:00"}, {"id": 82292, "name": "Xu Yinhua", "roles_in_work": [{"id": 2650654, "title": "Midnight song = Ye ban ge sheng", "work_id": 115751, "role": "script", "role_id": 962, "is_primary": false}], "also_known_as": "", "date_of_birth": null, "date_of_death": null, "genders": [], "languages": [], "places_of_operation": [], "biography": "", "biography_author": null, "date_of_biography": null, "external_links": [], "uuid": "7c035f88-9d70-421e-9d8d-c6a662a144eb", "source": {"name": "Vernon", "slug": "vernon"}, "source_identifier": "36196", "external_references": [], "date_modified": "2025-03-05T14:22:05.414742+11:00"}, {"id": 82291, "name": "Yang Yanjin", "roles_in_work": [{"id": 2650653, "title": "Midnight song = Ye ban ge sheng", "work_id": 115751, "role": "director", "role_id": 938, "is_primary": true}], "also_known_as": "", "date_of_birth": null, "date_of_death": null, "genders": [], "languages": [], "places_of_operation": [], "biography": "", "biography_author": null, "date_of_biography": null, "external_links": [], "uuid": "2c152da8-3601-4b3c-b3a1-5c5ee49521e4", "source": {"name": "Vernon", "slug": "vernon"}, "source_identifier": "36195", "external_references": [], "date_modified": "2025-03-05T14:22:04.824375+11:00"}, {"id": 82290, "name": "Yang Yaqin", "roles_in_work": [{"id": 2650651, "title": "In the depths of her heart = Xin ling shen chu", "work_id": 115750, "role": "cast", "role_id": 33, "is_primary": false}], "also_known_as": "", "date_of_birth": null, "date_of_death": null, "genders": [], "languages": [], "places_of_operation": [], "biography": "", "biography_author": null, "date_of_biography": null, "external_links": [], "uuid": "945686fa-1c72-48e1-aa08-769d8227afb0", "source": {"name": "Vernon", "slug": "vernon"}, "source_identifier": "36623", "external_references": [{"id": 40498, "source": {"name": "Wikidata", "slug": "wikidata"}, "source_identifier": "Q121035151"}], "date_modified": "2025-03-05T14:22:03.296435+11:00"}, {"id": 82289, "name": "Guojun Chen", "roles_in_work": [{"id": 2651238, "title": "The Artillery of Qing Dynasty = Da Qing Pao Dui", "work_id": 115815, "role": "director", "role_id": 938, "is_primary": true}, {"id": 2650650, "title": "In the depths of her heart = Xin ling shen chu", "work_id": 115750, "role": "cast", "role_id": 33, "is_primary": false}], "also_known_as": "", "date_of_birth": "", "date_of_death": "", "genders": [], "languages": [], "places_of_operation": [], "biography": "", "biography_author": null, "date_of_biography": "2023-05-09T19:21:54.234609+10:00", "external_links": [], "uuid": "0bd86ec1-9146-4ce7-b8f3-b2da630e1528", "source": {"name": "Vernon", "slug": "vernon"}, "source_identifier": "36463", "external_references": [{"id": 35661, "source": {"name": "Wikidata", "slug": "wikidata"}, "source_identifier": "Q121126767"}], "date_modified": "2025-03-05T14:27:54.258559+11:00"}, {"id": 82288, "name": "Wang Zhihua", "roles_in_work": [{"id": 2650649, "title": "In the depths of her heart = Xin ling shen chu", "work_id": 115750, "role": "cast", "role_id": 33, "is_primary": false}, {"id": 2650817, "title": "Tan Sitong = Tan Si Tong", "work_id": 115767, "role": "cast", "role_id": 33, "is_primary": false}, {"id": 2650718, "title": "The Season for love = Lien ai chi chie", "work_id": 115758, "role": "editor", "role_id": 918, "is_primary": true}], "also_known_as": "", "date_of_birth": "", "date_of_death": "", "genders": [], "languages": [], "places_of_operation": [], "biography": "", "biography_author": null, "date_of_biography": "2023-05-09T19:13:25.718624+10:00", "external_links": [], "uuid": "574e242b-7aff-4da7-bfd2-960c2a29eae8", "source": {"name": "Vernon", "slug": "vernon"}, "source_identifier": "36622", "external_references": [{"id": 36799, "source": {"name": "Wikidata", "slug": "wikidata"}, "source_identifier": "Q121035812"}], "date_modified": "2025-03-05T14:23:46.196194+11:00"}, {"id": 82287, "name": "Xiaoqing Liu", "roles_in_work": [{"id": 2650648, "title": "In the depths of her heart = Xin ling shen chu", "work_id": 115750, "role": "cast", "role_id": 33, "is_primary": false}, {"id": 2651240, "title": "The Artillery of Qing Dynasty = Da Qing Pao Dui", "work_id": 115815, "role": "cast", "role_id": 33, "is_primary": false}], "also_known_as": "", "date_of_birth": "", "date_of_death": "", "genders": [], "languages": [], "places_of_operation": [], "biography": "", "biography_author": null, "date_of_biography": "2023-05-09T19:21:54.732651+10:00", "external_links": [], "uuid": "07735698-49ca-4b31-871a-4bbbdb31987d", "source": {"name": "Vernon", "slug": "vernon"}, "source_identifier": "36465", "external_references": [], "date_modified": "2025-03-05T14:27:55.446649+11:00"}, {"id": 82286, "name": "Li Zhonglin", "roles_in_work": [{"id": 2650647, "title": "In the depths of her heart = Xin ling shen chu", "work_id": 115750, "role": "editor", "role_id": 918, "is_primary": true}], "also_known_as": "", "date_of_birth": null, "date_of_death": null, "genders": [], "languages": [], "places_of_operation": [], "biography": "", "biography_author": null, "date_of_biography": null, "external_links": [], "uuid": "74775164-24f6-4572-8d30-061435078994", "source": {"name": "Vernon", "slug": "vernon"}, "source_identifier": "36621", "external_references": [{"id": 35506, "source": {"name": "Wikidata", "slug": "wikidata"}, "source_identifier": "Q121299440"}], "date_modified": "2025-03-05T14:22:00.903033+11:00"}, {"id": 82285, "name": "Gao Hongbao", "roles_in_work": [{"id": 2650646, "title": "In the depths of her heart = Xin ling shen chu", "work_id": 115750, "role": "cinematographer", "role_id": 32, "is_primary": false}, {"id": 2651320, "title": "A 1990 big city = Da Cheng shi", "work_id": 115825, "role": "cinematographer", "role_id": 32, "is_primary": false}], "also_known_as": "", "date_of_birth": "", "date_of_death": "", "genders": [], "languages": [], "places_of_operation": [], "biography": "", "biography_author": null, "date_of_biography": "2023-05-09T11:22:23.244667+10:00", "external_links": [], "uuid": "7485c94b-2e21-49f5-9a73-585479dd6754", "source": {"name": "Vernon", "slug": "vernon"}, "source_identifier": "36549", "external_references": [{"id": 51947, "source": {"name": "Wikidata", "slug": "wikidata"}, "source_identifier": "Q121357572"}], "date_modified": "2025-03-05T14:28:45.707055+11:00"}]}