{"count": 28687, "next": "https://api.acmi.net.au/creators/?page=1061", "previous": "https://api.acmi.net.au/creators/?page=1059", "results": [{"id": 74982, "name": "Gyorgy Varnia", "roles_in_work": [{"id": 894922, "title": "Little man - big city", "work_id": 69785, "role": "co-director", "role_id": 959, "is_primary": true}], "also_known_as": "", "date_of_birth": null, "date_of_death": null, "genders": [], "languages": [], "places_of_operation": [], "biography": "", "biography_author": null, "date_of_biography": null, "external_links": [], "uuid": "4903fc0a-acbc-44c8-afac-c418d098593e", "source": {"name": "Vernon", "slug": "vernon"}, "source_identifier": null, "external_references": [{"id": 38450, "source": {"name": "Wikidata", "slug": "wikidata"}, "source_identifier": "Q121223009"}], "date_modified": "2023-09-05T20:26:20.363215+10:00"}, {"id": 74981, "name": "Gyula Macskassy", "roles_in_work": [{"id": 894921, "title": "Little man - big city", "work_id": 69785, "role": "co-director", "role_id": 959, "is_primary": true}, {"id": 895202, "title": "The Naughty owlet", "work_id": 70786, "role": "co-director", "role_id": 959, "is_primary": true}, {"id": 2176530, "title": "One, two, three", "work_id": 71154, "role": "co-director", "role_id": 959, "is_primary": true}], "also_known_as": "", "date_of_birth": "", "date_of_death": "", "genders": [], "languages": [], "places_of_operation": [], "biography": "", "biography_author": null, "date_of_biography": "2023-05-09T14:46:14.051708+10:00", "external_links": [], "uuid": "ae740655-7208-4413-b473-0d90527f8433", "source": {"name": "Vernon", "slug": "vernon"}, "source_identifier": "20164", "external_references": [{"id": 40884, "source": {"name": "Wikidata", "slug": "wikidata"}, "source_identifier": "Q121270688"}], "date_modified": "2023-09-05T20:26:22.467084+10:00"}, {"id": 74980, "name": "Richard Ahearn", "roles_in_work": [{"id": 894915, "title": "Linguistics and education (TEFC)", "work_id": 69758, "role": "co-producer", "role_id": 915, "is_primary": true}], "also_known_as": "", "date_of_birth": null, "date_of_death": null, "genders": [], "languages": [], "places_of_operation": [], "biography": "", "biography_author": null, "date_of_biography": null, "external_links": [], "uuid": "9e375753-ddb7-47f9-a041-09407253d06e", "source": {"name": "Vernon", "slug": "vernon"}, "source_identifier": null, "external_references": [{"id": 32351, "source": {"name": "Wikidata", "slug": "wikidata"}, "source_identifier": "Q121078907"}], "date_modified": "2023-09-06T00:27:28.089819+10:00"}, {"id": 74979, "name": "Douglas Eadie", "roles_in_work": [{"id": 894904, "title": "The Lindsay Kemp Circus", "work_id": 69745, "role": "co-producer", "role_id": 915, "is_primary": true}], "also_known_as": "", "date_of_birth": null, "date_of_death": null, "genders": [], "languages": [], "places_of_operation": [], "biography": "", "biography_author": null, "date_of_biography": null, "external_links": [], "uuid": "678700e1-2718-454f-8202-dd75c6b008de", "source": {"name": "Vernon", "slug": "vernon"}, "source_identifier": null, "external_references": [{"id": 35306, "source": {"name": "Wikidata", "slug": "wikidata"}, "source_identifier": "Q121143807"}], "date_modified": "2023-09-05T19:20:12.015434+10:00"}, {"id": 74978, "name": "James R. Bjorge", "roles_in_work": [{"id": 894902, "title": "The Lincoln Center International Choral Festival", "work_id": 69743, "role": "co-director", "role_id": 959, "is_primary": true}], "also_known_as": "", "date_of_birth": null, "date_of_death": null, "genders": [], "languages": [], "places_of_operation": [], "biography": "", "biography_author": null, "date_of_biography": null, "external_links": [], "uuid": "e80aa7fd-f072-404d-a82d-f08b2e82bc3c", "source": {"name": "Vernon", "slug": "vernon"}, "source_identifier": null, "external_references": [{"id": 38863, "source": {"name": "Wikidata", "slug": "wikidata"}, "source_identifier": "Q121315285"}], "date_modified": "2023-09-05T21:04:49.992682+10:00"}, {"id": 74977, "name": "Michel Patenaude", "roles_in_work": [{"id": 894897, "title": "The Light fantastick", "work_id": 69723, "role": "co-director", "role_id": 959, "is_primary": true}], "also_known_as": "", "date_of_birth": null, "date_of_death": null, "genders": [], "languages": [], "places_of_operation": [], "biography": "", "biography_author": null, "date_of_biography": null, "external_links": [], "uuid": "e06cc2f9-1a02-4253-b182-63ba72a611e6", "source": {"name": "Vernon", "slug": "vernon"}, "source_identifier": null, "external_references": [{"id": 37678, "source": {"name": "Wikidata", "slug": "wikidata"}, "source_identifier": "Q121222952"}], "date_modified": "2023-09-05T23:12:06.039068+10:00"}, {"id": 74976, "name": "Stephen M. Gould", "roles_in_work": [{"id": 894893, "title": "The Licorice train", "work_id": 69652, "role": "co-director", "role_id": 959, "is_primary": true}], "also_known_as": "", "date_of_birth": null, "date_of_death": null, "genders": [], "languages": [], "places_of_operation": [], "biography": "", "biography_author": null, "date_of_biography": null, "external_links": [], "uuid": "f91a0b2f-5f7a-40f5-ab09-c9088cd35f72", "source": {"name": "Vernon", "slug": "vernon"}, "source_identifier": null, "external_references": [{"id": 40418, "source": {"name": "Wikidata", "slug": "wikidata"}, "source_identifier": "Q121085977"}], "date_modified": "2023-09-06T01:28:42.724407+10:00"}, {"id": 74975, "name": "Stanley Woodward", "roles_in_work": [{"id": 894892, "title": "The Licorice train", "work_id": 69652, "role": "co-director", "role_id": 959, "is_primary": true}, {"id": 2305859, "title": "Sooty's Christmas party and other stories", "work_id": 83179, "role": "producer/director", "role_id": 31, "is_primary": true}], "also_known_as": "", "date_of_birth": "", "date_of_death": "", "genders": [], "languages": [], "places_of_operation": [], "biography": "", "biography_author": null, "date_of_biography": "2023-05-09T18:44:50.006245+10:00", "external_links": [], "uuid": "c9264519-b11f-41c9-87d8-93faa1fde33c", "source": {"name": "Vernon", "slug": "vernon"}, "source_identifier": "28939", "external_references": [{"id": 41198, "source": {"name": "Wikidata", "slug": "wikidata"}, "source_identifier": "Q121159935"}], "date_modified": "2023-09-06T01:27:21.266482+10:00"}, {"id": 74974, "name": "Leonard Peck", "roles_in_work": [{"id": 2467343, "title": "The Library is...", "work_id": 69646, "role": "producer/director", "role_id": 31, "is_primary": true}], "also_known_as": "", "date_of_birth": "", "date_of_death": "", "genders": [], "languages": [], "places_of_operation": [], "biography": "", "biography_author": null, "date_of_biography": "2023-08-14T11:18:15.056226+10:00", "external_links": [], "uuid": "717e08c5-dc97-460c-ba38-89a37357bd70", "source": {"name": "Vernon", "slug": "vernon"}, "source_identifier": "23723", "external_references": [{"id": 51372, "source": {"name": "Wikidata", "slug": "wikidata"}, "source_identifier": "Q121361204"}], "date_modified": "2023-09-05T22:20:43.016641+10:00"}, {"id": 74973, "name": "Derek Knight", "roles_in_work": [{"id": 2763362, "title": "The Heart of the city", "work_id": 69642, "role": "director", "role_id": 938, "is_primary": true}], "also_known_as": "", "date_of_birth": "", "date_of_death": "", "genders": [], "languages": [], "places_of_operation": [], "biography": "", "biography_author": null, "date_of_biography": "2023-05-09T20:01:47.173348+10:00", "external_links": [], "uuid": "d23f1dfe-89b4-4c9e-ba9b-f7347b41e2cb", "source": {"name": "Vernon", "slug": "vernon"}, "source_identifier": "18033", "external_references": [{"id": 42385, "source": {"name": "Wikidata", "slug": "wikidata"}, "source_identifier": "Q121298726"}], "date_modified": "2025-03-14T17:41:23.989392+11:00"}]}