{"count": 28687, "next": "https://api.acmi.net.au/creators/?page=705", "previous": "https://api.acmi.net.au/creators/?page=703", "results": [{"id": 78543, "name": "Annie Stiven", "roles_in_work": [{"id": 2147664, "title": "Cowboy and Maria in town", "work_id": 87467, "role": "co-director", "role_id": 959, "is_primary": true}], "also_known_as": "", "date_of_birth": "", "date_of_death": "", "genders": [], "languages": [], "places_of_operation": [], "biography": "", "biography_author": null, "date_of_biography": "2023-05-09T13:48:07.155368+10:00", "external_links": [], "uuid": "72221072-4279-4224-9dc9-e2f539f40204", "source": {"name": "Vernon", "slug": "vernon"}, "source_identifier": "15367", "external_references": [{"id": 38115, "source": {"name": "Wikidata", "slug": "wikidata"}, "source_identifier": "Q121222608"}], "date_modified": "2023-09-05T17:41:02.444795+10:00"}, {"id": 78542, "name": "Creation Workshop", "roles_in_work": [{"id": 2794739, "title": "Yang and yin: gender in Chinese cinema: a film to celebrate 100 years of cinema: by Stanley Kwan", "work_id": 87466, "role": "production company", "role_id": 941, "is_primary": true}], "also_known_as": "", "date_of_birth": "", "date_of_death": "", "genders": [], "languages": [], "places_of_operation": [], "biography": "", "biography_author": null, "date_of_biography": "2023-05-09T19:33:44.422902+10:00", "external_links": [], "uuid": "175285a0-7ab2-490e-b7e1-0af41ede754a", "source": {"name": "Vernon", "slug": "vernon"}, "source_identifier": "7165", "external_references": [{"id": 37513, "source": {"name": "Wikidata", "slug": "wikidata"}, "source_identifier": "Q121086109"}], "date_modified": "2025-03-14T20:27:45.208481+11:00"}, {"id": 78541, "name": "Andrew Mollo", "roles_in_work": [{"id": 2287413, "title": "Winstanley. It happened here again", "work_id": 89345, "role": "co-producers/directors", "role_id": 628, "is_primary": true}, {"id": 2155232, "title": "It happened here", "work_id": 87455, "role": "co-producers/directors", "role_id": 628, "is_primary": true}, {"id": 2650467, "title": "Winstanley", "work_id": 115701, "role": "producer/director", "role_id": 31, "is_primary": true}], "also_known_as": "", "date_of_birth": "15 MAY 1940", "date_of_death": "", "genders": [{"id": 9, "name": "Male", "slug": "male"}], "languages": [{"id": 1, "name": "English", "slug": "english"}, {"id": 5, "name": "German", "slug": "german"}], "places_of_operation": [{"id": 10, "name": "United Kingdom", "slug": "united-kingdom"}], "biography": "Andrew Mollo (born 15 May 1940 in Epsom, Surrey, England) is a British expert on military uniforms, which has led him into a career in motion pictures and as an author of various books on military uniforms. Source: Wikidata; 01/08/2023", "biography_author": null, "date_of_biography": "2025-03-05T14:20:20.440950+11:00", "external_links": [{"id": 1651, "uri": "https://en.wikipedia.org/wiki/Andrew_Mollo"}], "uuid": "854edcea-3745-4166-b313-0aff04ee715c", "source": {"name": "Vernon", "slug": "vernon"}, "source_identifier": "15199", "external_references": [{"id": 7205, "source": {"name": "Wikidata", "slug": "wikidata"}, "source_identifier": "Q1033212"}, {"id": 7206, "source": {"name": "VIAF", "slug": "viaf"}, "source_identifier": "74386592"}, {"id": 7207, "source": {"name": "LOC Auth", "slug": "loc-auth"}, "source_identifier": "n79006734"}, {"id": 7208, "source": {"name": "WorldCat", "slug": "worldcat"}, "source_identifier": "lccn-n79006734"}], "date_modified": "2025-03-05T14:20:20.441186+11:00"}, {"id": 78540, "name": "Eric Darnell", "roles_in_work": [{"id": 2098263, "title": "Antz", "work_id": 87453, "role": "co-director", "role_id": 959, "is_primary": true}, {"id": 2098290, "title": "Antz [DVD]", "work_id": 94078, "role": "co-director", "role_id": 959, "is_primary": true}], "also_known_as": "", "date_of_birth": "1960-03-28", "date_of_death": "", "genders": [{"id": 9, "name": "Male", "slug": "male"}], "languages": [{"id": 1, "name": "English", "slug": "english"}], "places_of_operation": [{"id": 1, "name": "United States of America", "slug": "united-states-of-america"}], "biography": "Eric Darnell (born August 21, 1961) is an American animator, storyboard artist, director, screenwriter, songwriter and occasional voice actor best known for co-directing Antz with Tim Johnson, as well as co-directing and co-writing Madagascar, Madagascar: Escape 2 Africa and Madagascar 3: Europe's Most Wanted with Tom McGrath, as well as the spin off Penguins of Madagascar (2014) with Simon J. Smith.", "biography_author": "Wikidata", "date_of_biography": "2023-08-01T14:46:37.857015+10:00", "external_links": [{"id": 3945, "uri": "https://en.wikipedia.org/wiki/Eric_Darnell"}], "uuid": "4b9b078c-e67b-4952-8065-d37972727f56", "source": {"name": "Vernon", "slug": "vernon"}, "source_identifier": "18796", "external_references": [{"id": 26215, "source": {"name": "Wikidata", "slug": "wikidata"}, "source_identifier": "Q2630467"}, {"id": 28337, "source": {"name": "VIAF", "slug": "viaf"}, "source_identifier": "60524054"}, {"id": 28338, "source": {"name": "LOC Auth", "slug": "loc-auth"}, "source_identifier": "n2006008665"}, {"id": 28339, "source": {"name": "WorldCat", "slug": "worldcat"}, "source_identifier": "lccn-n2006008665"}], "date_modified": "2023-09-05T19:34:11.758470+10:00"}, {"id": 78539, "name": "Patty Wooton", "roles_in_work": [{"id": 2098259, "title": "Antz", "work_id": 87453, "role": "co-producer", "role_id": 915, "is_primary": true}, {"id": 2098288, "title": "Antz [DVD]", "work_id": 94078, "role": "co-producer", "role_id": 915, "is_primary": true}], "also_known_as": "", "date_of_birth": "", "date_of_death": "", "genders": [], "languages": [], "places_of_operation": [], "biography": "", "biography_author": null, "date_of_biography": "2023-05-09T12:27:18.384175+10:00", "external_links": [], "uuid": "af04db60-2127-468a-b11a-e220d7edeea8", "source": {"name": "Vernon", "slug": "vernon"}, "source_identifier": "26159", "external_references": [{"id": 37890, "source": {"name": "Wikidata", "slug": "wikidata"}, "source_identifier": "Q121337239"}], "date_modified": "2023-09-05T23:43:56.577667+10:00"}, {"id": 78538, "name": "Brad Lewis", "roles_in_work": [{"id": 2098286, "title": "Antz [DVD]", "work_id": 94078, "role": "co-producer", "role_id": 915, "is_primary": true}, {"id": 2098256, "title": "Antz", "work_id": 87453, "role": "co-producer", "role_id": 915, "is_primary": true}, {"id": 2236320, "title": "Ratatouille", "work_id": 95632, "role": "producer", "role_id": 1089, "is_primary": true}], "also_known_as": "", "date_of_birth": "1958-04-29", "date_of_death": "", "genders": [{"id": 9, "name": "Male", "slug": "male"}], "languages": [{"id": 1, "name": "English", "slug": "english"}], "places_of_operation": [{"id": 1, "name": "United States of America", "slug": "united-states-of-america"}], "biography": "Bradford Clark Lewis (born April 29, 1958) is an American film producer, animation director, and politician. He produced Antz, the Oscar-winning Ratatouille, Storks, and How to Train Your Dragon: The Hidden World.  He also co-directed Cars 2. He is a former mayor of the city of San Carlos, California.", "biography_author": "Wikidata", "date_of_biography": "2023-08-01T14:15:15.591829+10:00", "external_links": [{"id": 3668, "uri": "https://en.wikipedia.org/wiki/Brad_Lewis"}], "uuid": "b9e465b7-c307-4284-908f-4c3f32ca902f", "source": {"name": "Vernon", "slug": "vernon"}, "source_identifier": "16155", "external_references": [{"id": 26880, "source": {"name": "Wikidata", "slug": "wikidata"}, "source_identifier": "Q681740"}, {"id": 27571, "source": {"name": "VIAF", "slug": "viaf"}, "source_identifier": "53500415"}, {"id": 27572, "source": {"name": "LOC Auth", "slug": "loc-auth"}, "source_identifier": "n2001101385"}, {"id": 27573, "source": {"name": "WorldCat", "slug": "worldcat"}, "source_identifier": "lccn-n2001101385"}], "date_modified": "2023-09-06T10:26:14.710352+10:00"}, {"id": 78537, "name": "Kevin Lucas", "roles_in_work": [{"id": 2171214, "title": "One night the moon [DVD]", "work_id": 93592, "role": "co-producer", "role_id": 915, "is_primary": true}, {"id": 2114068, "title": "Beyond El Rocco", "work_id": 87449, "role": "producer/director", "role_id": 31, "is_primary": true}], "also_known_as": "", "date_of_birth": "", "date_of_death": "", "genders": [], "languages": [], "places_of_operation": [], "biography": "", "biography_author": null, "date_of_biography": "2023-05-09T14:36:16.595552+10:00", "external_links": [], "uuid": "98244bc5-9ba3-4cd5-9830-48ecc483fc0c", "source": {"name": "Vernon", "slug": "vernon"}, "source_identifier": "23297", "external_references": [{"id": 37937, "source": {"name": "Wikidata", "slug": "wikidata"}, "source_identifier": "Q121126491"}], "date_modified": "2023-09-05T22:07:22.318877+10:00"}, {"id": 78536, "name": "Kryn Taconis", "roles_in_work": [{"id": 872111, "title": "Labrador Hospital", "work_id": 87436, "role": "director", "role_id": 938, "is_primary": true}], "also_known_as": "", "date_of_birth": null, "date_of_death": null, "genders": [], "languages": [], "places_of_operation": [], "biography": "", "biography_author": null, "date_of_biography": null, "external_links": [], "uuid": "134a6769-be3a-4d20-9f38-126a7dc68234", "source": {"name": "Vernon", "slug": "vernon"}, "source_identifier": null, "external_references": [{"id": 35539, "source": {"name": "Wikidata", "slug": "wikidata"}, "source_identifier": "Q13745821"}], "date_modified": "2023-09-05T22:12:14.466171+10:00"}, {"id": 78535, "name": "Patrick Lau", "roles_in_work": [{"id": 2308860, "title": "Empire", "work_id": 82960, "role": "co-director", "role_id": 959, "is_primary": true}, {"id": 906818, "title": "The Scarlet pimpernel [Grant]", "work_id": 87433, "role": "co-director", "role_id": 959, "is_primary": true}], "also_known_as": "", "date_of_birth": "", "date_of_death": "", "genders": [], "languages": [], "places_of_operation": [], "biography": "", "biography_author": null, "date_of_biography": "2023-05-09T18:49:08.276535+10:00", "external_links": [], "uuid": "20f209f0-aad6-4572-b346-eb5dbe02d400", "source": {"name": "Vernon", "slug": "vernon"}, "source_identifier": "26133", "external_references": [{"id": 35049, "source": {"name": "Wikidata", "slug": "wikidata"}, "source_identifier": "Q121143789"}], "date_modified": "2023-09-05T23:43:23.697009+10:00"}, {"id": 78534, "name": "Garth Pritchard", "roles_in_work": [{"id": 1427725, "title": "In God's command", "work_id": 87432, "role": "director", "role_id": 938, "is_primary": true}], "also_known_as": "", "date_of_birth": null, "date_of_death": null, "genders": [], "languages": [], "places_of_operation": [], "biography": "", "biography_author": null, "date_of_biography": null, "external_links": [], "uuid": "37e1ddca-9fe6-4cd1-88f3-d00703926f06", "source": {"name": "Vernon", "slug": "vernon"}, "source_identifier": null, "external_references": [{"id": 37812, "source": {"name": "Wikidata", "slug": "wikidata"}, "source_identifier": "Q121126965"}], "date_modified": "2023-09-05T19:56:57.820900+10:00"}]}