{"count": 28687, "next": "https://api.acmi.net.au/creators/?page=833", "previous": "https://api.acmi.net.au/creators/?page=831", "results": [{"id": 77263, "name": "Rachel Low", "roles_in_work": [{"id": 2650121, "title": "Talkin' about Aids", "work_id": 82828, "role": "co-producer", "role_id": 915, "is_primary": true}, {"id": 2189538, "title": "Diary of a teenage smoker", "work_id": 82865, "role": "co-producer", "role_id": 915, "is_primary": true}], "also_known_as": "", "date_of_birth": "", "date_of_death": "", "genders": [], "languages": [], "places_of_operation": [], "biography": "", "biography_author": null, "date_of_biography": "2023-05-09T19:13:06.705429+10:00", "external_links": [], "uuid": "9d7aae95-20d7-44c1-81b8-d2969bacffd1", "source": {"name": "Vernon", "slug": "vernon"}, "source_identifier": "27050", "external_references": [{"id": 38757, "source": {"name": "Wikidata", "slug": "wikidata"}, "source_identifier": "Q121091463"}], "date_modified": "2025-03-05T14:10:37.903235+11:00"}, {"id": 77262, "name": "Daphne Ballon", "roles_in_work": [{"id": 2650120, "title": "Talkin' about Aids", "work_id": 82828, "role": "co-producer", "role_id": 915, "is_primary": true}, {"id": 2189534, "title": "Diary of a teenage smoker", "work_id": 82865, "role": "co-producer", "role_id": 915, "is_primary": true}], "also_known_as": "", "date_of_birth": "", "date_of_death": "", "genders": [], "languages": [], "places_of_operation": [], "biography": "", "biography_author": null, "date_of_biography": "2023-05-09T19:13:06.475573+10:00", "external_links": [], "uuid": "dd45217b-0f4d-42cc-9c3f-f93ad05f37e4", "source": {"name": "Vernon", "slug": "vernon"}, "source_identifier": "17429", "external_references": [{"id": 40957, "source": {"name": "Wikidata", "slug": "wikidata"}, "source_identifier": "Q121036563"}], "date_modified": "2025-03-05T14:10:37.314685+11:00"}, {"id": 77261, "name": "Nick Doob", "roles_in_work": [{"id": 2199521, "title": "Down from the mountain", "work_id": 93191, "role": "co-director", "role_id": 959, "is_primary": true}, {"id": 2322861, "title": "Teenage crises: fateful choices", "work_id": 82826, "role": "co-producers/directors", "role_id": 628, "is_primary": true}], "also_known_as": "", "date_of_birth": "", "date_of_death": "", "genders": [], "languages": [], "places_of_operation": [], "biography": "", "biography_author": null, "date_of_biography": "2023-05-09T19:14:45.092314+10:00", "external_links": [], "uuid": "52de0054-a698-49f9-afd7-b14a6374f722", "source": {"name": "Vernon", "slug": "vernon"}, "source_identifier": "25742", "external_references": [], "date_modified": "2023-06-14T16:33:30.576250+10:00"}, {"id": 77260, "name": "Linda Atkinson", "roles_in_work": [{"id": 2322856, "title": "Teenage crises: fateful choices", "work_id": 82826, "role": "co-producers/directors", "role_id": 628, "is_primary": true}], "also_known_as": "", "date_of_birth": "", "date_of_death": "", "genders": [], "languages": [], "places_of_operation": [], "biography": "", "biography_author": null, "date_of_biography": "2023-05-09T19:14:44.635830+10:00", "external_links": [], "uuid": "ea995453-8576-4a7b-b57a-3a8fef88e445", "source": {"name": "Vernon", "slug": "vernon"}, "source_identifier": "23859", "external_references": [], "date_modified": "2023-06-14T16:33:30.576250+10:00"}, {"id": 77259, "name": "Pat Sharpe", "roles_in_work": [{"id": 2261523, "title": "Same difference: all about twins", "work_id": 82824, "role": "producer/director", "role_id": 31, "is_primary": true}], "also_known_as": "", "date_of_birth": "", "date_of_death": "", "genders": [], "languages": [], "places_of_operation": [], "biography": "", "biography_author": null, "date_of_biography": "2023-05-09T17:29:41.027271+10:00", "external_links": [], "uuid": "0a2ee2ca-7e30-42a1-9fef-06bdb138d3dc", "source": {"name": "Vernon", "slug": "vernon"}, "source_identifier": "26085", "external_references": [{"id": 51326, "source": {"name": "Wikidata", "slug": "wikidata"}, "source_identifier": "Q121361279"}], "date_modified": "2023-09-05T23:41:51.221136+10:00"}, {"id": 77258, "name": "Fiona Cunningham Reid", "roles_in_work": [{"id": 2237976, "title": "Feed them to the cannibals!", "work_id": 82820, "role": "producer/director", "role_id": 31, "is_primary": true}], "also_known_as": "", "date_of_birth": "", "date_of_death": "", "genders": [], "languages": [], "places_of_operation": [], "biography": "", "biography_author": null, "date_of_biography": "2023-05-09T16:48:34.310327+10:00", "external_links": [], "uuid": "6c598a84-1525-4b2a-9282-8ba3c251f675", "source": {"name": "Vernon", "slug": "vernon"}, "source_identifier": "19007", "external_references": [{"id": 51693, "source": {"name": "Wikidata", "slug": "wikidata"}, "source_identifier": "Q121361406"}], "date_modified": "2023-09-05T19:44:01.320723+10:00"}, {"id": 77257, "name": "C. Moore-Hardy", "roles_in_work": [{"id": 2237963, "title": "Feed them to the cannibals!", "work_id": 82820, "role": "distributor", "role_id": 437, "is_primary": false}], "also_known_as": "", "date_of_birth": "", "date_of_death": "", "genders": [], "languages": [], "places_of_operation": [], "biography": "", "biography_author": null, "date_of_biography": "2023-05-09T16:48:33.560577+10:00", "external_links": [], "uuid": "a59265b2-a2c1-447d-967f-b7dbba6974f8", "source": {"name": "Vernon", "slug": "vernon"}, "source_identifier": "30713", "external_references": [], "date_modified": "2023-06-14T16:33:30.576250+10:00"}, {"id": 77256, "name": "Nick Nascht", "roles_in_work": [{"id": 2156992, "title": "My childhood. My ain folk", "work_id": 82819, "role": "producer", "role_id": 1089, "is_primary": true}], "also_known_as": "", "date_of_birth": "", "date_of_death": "", "genders": [], "languages": [], "places_of_operation": [], "biography": "", "biography_author": null, "date_of_biography": "2023-05-09T14:07:32.267414+10:00", "external_links": [], "uuid": "905b8c22-bbd5-41b1-ab5c-3d06c3dd8a00", "source": {"name": "Vernon", "slug": "vernon"}, "source_identifier": "33196", "external_references": [{"id": 41953, "source": {"name": "Wikidata", "slug": "wikidata"}, "source_identifier": "Q121271300"}], "date_modified": "2023-09-05T23:30:08.274973+10:00"}, {"id": 77255, "name": "Geoffrey Evans", "roles_in_work": [{"id": 2156990, "title": "My childhood. My ain folk", "work_id": 82819, "role": "producer", "role_id": 1089, "is_primary": true}], "also_known_as": "", "date_of_birth": "", "date_of_death": "", "genders": [], "languages": [], "places_of_operation": [], "biography": "", "biography_author": null, "date_of_biography": "2023-05-09T14:07:32.026318+10:00", "external_links": [], "uuid": "21a18fc1-b12a-4bca-bcfc-36b64f6c5b27", "source": {"name": "Vernon", "slug": "vernon"}, "source_identifier": "19530", "external_references": [{"id": 42480, "source": {"name": "Wikidata", "slug": "wikidata"}, "source_identifier": "Q121337422"}], "date_modified": "2023-09-05T20:02:19.862051+10:00"}, {"id": 77254, "name": "Walter Huston", "roles_in_work": [{"id": 902073, "title": "Of human bondage. Rain", "work_id": 82812, "role": "cast", "role_id": 33, "is_primary": false}], "also_known_as": "", "date_of_birth": null, "date_of_death": null, "genders": [], "languages": [], "places_of_operation": [], "biography": "", "biography_author": null, "date_of_biography": null, "external_links": [], "uuid": "77d53acf-a372-42cc-9a53-890a7a6eb11e", "source": {"name": "Vernon", "slug": "vernon"}, "source_identifier": null, "external_references": [{"id": 33386, "source": {"name": "Wikidata", "slug": "wikidata"}, "source_identifier": "Q121143667"}], "date_modified": "2023-09-06T02:10:25.146218+10:00"}]}