{"count": 28681, "next": "https://api.acmi.net.au/creators/?page=547", "previous": "https://api.acmi.net.au/creators/?page=545", "results": [{"id": 80119, "name": "Andrew Farrell", "roles_in_work": [{"id": 2330426, "title": "The Best of Big Brother", "work_id": 93062, "role": "co-producer", "role_id": 915, "is_primary": true}], "also_known_as": "", "date_of_birth": "", "date_of_death": "", "genders": [], "languages": [], "places_of_operation": [], "biography": "", "biography_author": null, "date_of_biography": "2023-05-09T19:24:47.505649+10:00", "external_links": [], "uuid": "9dd57b19-508b-4f7e-8745-52ff063ab73d", "source": {"name": "Vernon", "slug": "vernon"}, "source_identifier": "15160", "external_references": [{"id": 34294, "source": {"name": "Wikidata", "slug": "wikidata"}, "source_identifier": "Q121144294"}], "date_modified": "2023-09-05T17:35:21.982909+10:00"}, {"id": 80118, "name": "Lara Hopkins", "roles_in_work": [{"id": 2330422, "title": "The Best of Big Brother", "work_id": 93062, "role": "co-producer", "role_id": 915, "is_primary": true}], "also_known_as": "", "date_of_birth": "", "date_of_death": "", "genders": [], "languages": [], "places_of_operation": [], "biography": "", "biography_author": null, "date_of_biography": "2023-05-09T19:24:47.278375+10:00", "external_links": [], "uuid": "8b7d392b-b237-4781-90d2-df6361cceb49", "source": {"name": "Vernon", "slug": "vernon"}, "source_identifier": "23469", "external_references": [{"id": 32412, "source": {"name": "Wikidata", "slug": "wikidata"}, "source_identifier": "Q121143930"}], "date_modified": "2023-09-05T22:14:01.852705+10:00"}, {"id": 80117, "name": "Hang Phim Truyen", "roles_in_work": [{"id": 2102447, "title": "At the height of summer = Vertical ray of the sun = Mua he chieu thang dung", "work_id": 93060, "role": "production company", "role_id": 941, "is_primary": true}], "also_known_as": "", "date_of_birth": "", "date_of_death": "", "genders": [], "languages": [], "places_of_operation": [], "biography": "", "biography_author": null, "date_of_biography": "2023-05-09T12:33:18.606686+10:00", "external_links": [], "uuid": "d4df8dad-6fda-4914-94c0-f78a505ada3d", "source": {"name": "Vernon", "slug": "vernon"}, "source_identifier": "20218", "external_references": [{"id": 39814, "source": {"name": "Wikidata", "slug": "wikidata"}, "source_identifier": "Q121035172"}], "date_modified": "2023-09-05T20:28:10.126135+10:00"}, {"id": 80116, "name": "ZDF Arte", "roles_in_work": [{"id": 2102443, "title": "At the height of summer = Vertical ray of the sun = Mua he chieu thang dung", "work_id": 93060, "role": "production company", "role_id": 941, "is_primary": true}], "also_known_as": "", "date_of_birth": "", "date_of_death": "", "genders": [], "languages": [], "places_of_operation": [], "biography": "", "biography_author": null, "date_of_biography": "2023-05-09T12:33:18.374415+10:00", "external_links": [], "uuid": "68568104-e843-48d8-9cb3-c34e64f64578", "source": {"name": "Vernon", "slug": "vernon"}, "source_identifier": "14526", "external_references": [{"id": 35551, "source": {"name": "Wikidata", "slug": "wikidata"}, "source_identifier": "Q121035942"}], "date_modified": "2023-09-06T02:25:35.437686+10:00"}, {"id": 80115, "name": "Roger Daltrey", "roles_in_work": [{"id": 2171412, "title": "McVicar", "work_id": 93055, "role": "co-producer", "role_id": 915, "is_primary": true}], "also_known_as": "Roger Harry Daltrey", "date_of_birth": "1944-03-01", "date_of_death": "", "genders": [{"id": 9, "name": "Male", "slug": "male"}], "languages": [{"id": 1, "name": "English", "slug": "english"}], "places_of_operation": [{"id": 10, "name": "United Kingdom", "slug": "united-kingdom"}], "biography": "Roger Harry Daltrey  (born 1 March 1944) is an English singer, musician and actor. He is a co-founder and the lead singer of the rock band the Who.Daltrey's hit songs with the Who include \"My Generation\", \"Pinball Wizard\", \"Won't Get Fooled Again\", \"Baba O'Riley\" and \"You Better You Bet\". He began his solo career in 1973, while still a member of the Who. Since then he has released ten solo studio albums, five compilation albums, and one live album. His solo hits include \"Giving It All Away\", \"Walking the Dog\", \"Written on the Wind\", \"Free Me\", \"Without Your Love\" and \"Under a Raging Moon\".\nThe Who are considered one of the most influential rock bands of the 20th century and have sold over 100 million records worldwide. As a member of the band, Daltrey received a Lifetime achievement award from the British Phonographic Industry in 1988, and from the Grammy Foundation in 2001. He was inducted into the Rock and Roll Hall of Fame in 1990, and the UK Music Hall of Fame in 2005. He and Pete Townshend received Kennedy Center Honors in 2008 and The George and Ira Gershwin Award for Lifetime Musical Achievement at UCLA on 21 May 2016. Daltrey has also been an actor and film producer, with roles in films, theatre, and television. Planet Rock listeners voted him rock's fifth-greatest voice in 2009, and he was ranked number 61 on Rolling Stone's list of the 100 greatest singers of all time in 2010.", "biography_author": "Wikidata", "date_of_biography": "2023-08-01T16:53:59.385358+10:00", "external_links": [{"id": 3013, "uri": "https://en.wikipedia.org/wiki/Roger_Daltrey"}], "uuid": "01b404e9-6641-4c29-b471-b5615e0755b3", "source": {"name": "Vernon", "slug": "vernon"}, "source_identifier": "28036", "external_references": [{"id": 12794, "source": {"name": "Wikidata", "slug": "wikidata"}, "source_identifier": "Q311672"}, {"id": 12795, "source": {"name": "VIAF", "slug": "viaf"}, "source_identifier": "55251960"}, {"id": 12796, "source": {"name": "LOC Auth", "slug": "loc-auth"}, "source_identifier": "n84221838"}, {"id": 12797, "source": {"name": "WorldCat", "slug": "worldcat"}, "source_identifier": "lccn-n84221838"}], "date_modified": "2023-09-06T00:51:28.555832+10:00"}, {"id": 80114, "name": "David Belling", "roles_in_work": [{"id": 2264967, "title": "Scum (D)", "work_id": 93054, "role": "producer", "role_id": 1089, "is_primary": true}], "also_known_as": "", "date_of_birth": "", "date_of_death": "", "genders": [], "languages": [], "places_of_operation": [], "biography": "", "biography_author": null, "date_of_biography": "2023-05-09T17:35:05.236006+10:00", "external_links": [], "uuid": "fd0a63a9-2d1b-49b6-a9c7-119993bacb2d", "source": {"name": "Vernon", "slug": "vernon"}, "source_identifier": "17502", "external_references": [{"id": 40717, "source": {"name": "Wikidata", "slug": "wikidata"}, "source_identifier": "Q121034275"}], "date_modified": "2023-09-05T18:54:42.403549+10:00"}, {"id": 80113, "name": "Strong Arm Films", "roles_in_work": [{"id": 2135587, "title": "Cheek to cheek", "work_id": 93041, "role": "production company", "role_id": 941, "is_primary": true}], "also_known_as": "", "date_of_birth": "", "date_of_death": "", "genders": [], "languages": [], "places_of_operation": [], "biography": "", "biography_author": null, "date_of_biography": "2023-05-09T13:28:57.149330+10:00", "external_links": [], "uuid": "4d2d387b-9ed6-44e9-a061-3b106bf1315f", "source": {"name": "Vernon", "slug": "vernon"}, "source_identifier": "12995", "external_references": [{"id": 42805, "source": {"name": "Wikidata", "slug": "wikidata"}, "source_identifier": "Q121299327"}], "date_modified": "2023-09-06T01:33:18.010925+10:00"}, {"id": 80112, "name": "Mathew Perry", "roles_in_work": [{"id": 913089, "title": "Hurt", "work_id": 93040, "role": "co-director", "role_id": 959, "is_primary": true}], "also_known_as": "", "date_of_birth": null, "date_of_death": null, "genders": [], "languages": [], "places_of_operation": [], "biography": "", "biography_author": null, "date_of_biography": null, "external_links": [], "uuid": "c8ba9d05-9186-4960-b91a-1cd736aed7ee", "source": {"name": "Vernon", "slug": "vernon"}, "source_identifier": null, "external_references": [{"id": 39837, "source": {"name": "Wikidata", "slug": "wikidata"}, "source_identifier": "Q121270712"}], "date_modified": "2023-09-05T22:53:54.071756+10:00"}, {"id": 80111, "name": "The Omni Group", "roles_in_work": [{"id": 913087, "title": "Hurt", "work_id": 93040, "role": "co-producer", "role_id": 915, "is_primary": true}], "also_known_as": "", "date_of_birth": null, "date_of_death": null, "genders": [], "languages": [], "places_of_operation": [], "biography": "", "biography_author": null, "date_of_biography": null, "external_links": [], "uuid": "42862db0-5cec-480f-ad25-541053dd12fb", "source": {"name": "Vernon", "slug": "vernon"}, "source_identifier": null, "external_references": [], "date_modified": "2023-06-14T16:33:30.576250+10:00"}, {"id": 80110, "name": "Rod Quantock", "roles_in_work": [{"id": 2099071, "title": "Arctic adventure", "work_id": 93037, "role": "voice", "role_id": 471, "is_primary": false}], "also_known_as": "", "date_of_birth": "", "date_of_death": "", "genders": [], "languages": [], "places_of_operation": [], "biography": "", "biography_author": null, "date_of_biography": "2023-05-09T12:28:16.160343+10:00", "external_links": [], "uuid": "eb46d403-234a-4487-8a6d-17f14894db2e", "source": {"name": "Vernon", "slug": "vernon"}, "source_identifier": "38142", "external_references": [], "date_modified": "2023-06-14T16:33:30.576250+10:00"}]}