{"count": 28681, "next": "https://api.acmi.net.au/creators/?page=2715", "previous": "https://api.acmi.net.au/creators/?page=2713", "results": [{"id": 11228, "name": "Kate McCartney", "roles_in_work": [{"id": 2641347, "title": "The Astronomer", "work_id": 114270, "role": "creator", "role_id": 968, "is_primary": true}], "also_known_as": "", "date_of_birth": null, "date_of_death": null, "genders": [], "languages": [], "places_of_operation": [], "biography": "", "biography_author": null, "date_of_biography": null, "external_links": [], "uuid": "d4e65b85-bbc8-47f4-ba4e-a469145be98d", "source": {"name": "Vernon", "slug": "vernon"}, "source_identifier": "2994", "external_references": [], "date_modified": "2025-03-05T11:34:04.590458+11:00"}, {"id": 11227, "name": "Andrew Buchanan", "roles_in_work": [{"id": 2409151, "title": "He went to the cupboard", "work_id": 87920, "role": "director", "role_id": 938, "is_primary": true}, {"id": 2414119, "title": "Land of invention", "work_id": 69485, "role": "director", "role_id": 938, "is_primary": true}, {"id": 2403796, "title": "Cereal seed disinfection", "work_id": 91098, "role": "director", "role_id": 938, "is_primary": true}, {"id": 2641345, "title": "Looking for Joe", "work_id": 110359, "role": "creator", "role_id": 968, "is_primary": true}], "also_known_as": "", "date_of_birth": "", "date_of_death": "", "genders": [], "languages": [], "places_of_operation": [], "biography": "", "biography_author": null, "date_of_biography": "2023-08-11T19:11:50.609736+10:00", "external_links": [], "uuid": "ea374cc0-07c0-4a33-ae0b-58f12545b912", "source": {"name": "Vernon", "slug": "vernon"}, "source_identifier": "2993", "external_references": [], "date_modified": "2025-03-05T11:34:03.134901+11:00"}, {"id": 11226, "name": "Yeap Heng-Shen", "roles_in_work": [{"id": 2641343, "title": "Revege", "work_id": 110358, "role": "creator", "role_id": 968, "is_primary": true}], "also_known_as": "", "date_of_birth": null, "date_of_death": null, "genders": [], "languages": [], "places_of_operation": [], "biography": "", "biography_author": null, "date_of_biography": null, "external_links": [], "uuid": "df296e35-d0e3-48bb-972d-f1de3553e673", "source": {"name": "Vernon", "slug": "vernon"}, "source_identifier": "2992", "external_references": [], "date_modified": "2025-03-05T11:34:01.673602+11:00"}, {"id": 11225, "name": "Bryn Desmond-Jones", "roles_in_work": [{"id": 2641341, "title": "Hollow tales", "work_id": 110357, "role": "creator", "role_id": 968, "is_primary": true}], "also_known_as": "", "date_of_birth": null, "date_of_death": null, "genders": [], "languages": [], "places_of_operation": [], "biography": "", "biography_author": null, "date_of_biography": null, "external_links": [], "uuid": "e6426308-4b9b-48a1-9e98-35bb5fe01bc3", "source": {"name": "Vernon", "slug": "vernon"}, "source_identifier": "2991", "external_references": [], "date_modified": "2025-03-05T11:34:00.176285+11:00"}, {"id": 11224, "name": "Nicola Wong Oi-Pyn", "roles_in_work": [{"id": 2641339, "title": "Sandra", "work_id": 110356, "role": "creator", "role_id": 968, "is_primary": true}], "also_known_as": "", "date_of_birth": null, "date_of_death": null, "genders": [], "languages": [], "places_of_operation": [], "biography": "", "biography_author": null, "date_of_biography": null, "external_links": [], "uuid": "575c209e-b134-4088-bb91-e82031c5c262", "source": {"name": "Vernon", "slug": "vernon"}, "source_identifier": "2990", "external_references": [], "date_modified": "2025-03-05T11:33:58.717702+11:00"}, {"id": 11223, "name": "Darren Ballingall", "roles_in_work": [{"id": 2641337, "title": "Animote", "work_id": 110355, "role": "creator", "role_id": 968, "is_primary": true}], "also_known_as": "", "date_of_birth": null, "date_of_death": null, "genders": [], "languages": [], "places_of_operation": [], "biography": "", "biography_author": null, "date_of_biography": null, "external_links": [], "uuid": "351b9893-5f69-4059-95ae-41e3f6174aa2", "source": {"name": "Vernon", "slug": "vernon"}, "source_identifier": "2989", "external_references": [], "date_modified": "2025-03-05T11:33:57.235863+11:00"}, {"id": 11222, "name": "Mike Nowson", "roles_in_work": [{"id": 2641335, "title": "Trans-form", "work_id": 110354, "role": "creator", "role_id": 968, "is_primary": true}], "also_known_as": "", "date_of_birth": null, "date_of_death": null, "genders": [], "languages": [], "places_of_operation": [], "biography": "", "biography_author": null, "date_of_biography": null, "external_links": [], "uuid": "737104d6-9e3e-4f8d-ba0f-133bbaba6c3e", "source": {"name": "Vernon", "slug": "vernon"}, "source_identifier": "2988", "external_references": [], "date_modified": "2025-03-05T11:33:55.798676+11:00"}, {"id": 11221, "name": "Angela Barnett", "roles_in_work": [{"id": 2640801, "title": "Cinco anos [interactive]", "work_id": 110498, "role": "creator", "role_id": 968, "is_primary": true}, {"id": 2641333, "title": "Cinco anos", "work_id": 110353, "role": "creator", "role_id": 968, "is_primary": true}], "also_known_as": "", "date_of_birth": null, "date_of_death": null, "genders": [], "languages": [], "places_of_operation": [], "biography": "", "biography_author": null, "date_of_biography": null, "external_links": [], "uuid": "222e9b02-3646-4658-a7ec-3247717d223b", "source": {"name": "Vernon", "slug": "vernon"}, "source_identifier": "2987", "external_references": [], "date_modified": "2025-03-05T11:33:54.366558+11:00"}, {"id": 11220, "name": "Gerard Mason", "roles_in_work": [{"id": 2641331, "title": "Residency", "work_id": 110352, "role": "creator", "role_id": 968, "is_primary": true}], "also_known_as": "", "date_of_birth": null, "date_of_death": null, "genders": [], "languages": [], "places_of_operation": [], "biography": "", "biography_author": null, "date_of_biography": null, "external_links": [], "uuid": "99ab3871-dde0-4ec1-98fd-3630f43b58c9", "source": {"name": "Vernon", "slug": "vernon"}, "source_identifier": "2986", "external_references": [], "date_modified": "2025-03-05T11:33:52.908680+11:00"}, {"id": 11219, "name": "Christian Rubino", "roles_in_work": [{"id": 2641329, "title": "Chit Chat National Park. Come play", "work_id": 110351, "role": "creator", "role_id": 968, "is_primary": true}], "also_known_as": "", "date_of_birth": null, "date_of_death": null, "genders": [], "languages": [], "places_of_operation": [], "biography": "", "biography_author": null, "date_of_biography": null, "external_links": [], "uuid": "fa5bd4ec-d9ba-4c35-87e9-688d818e1e4a", "source": {"name": "Vernon", "slug": "vernon"}, "source_identifier": "2985", "external_references": [], "date_modified": "2025-03-05T11:33:51.434095+11:00"}]}