{"count": 28681, "next": "https://api.acmi.net.au/creators/?page=1932", "previous": "https://api.acmi.net.au/creators/?page=1930", "results": [{"id": 23888, "name": "TVS Films", "roles_in_work": [{"id": 901127, "title": "Jim Henson's the storyteller. Vol. 1", "work_id": 81918, "role": "production company", "role_id": 941, "is_primary": true}, {"id": 901145, "title": "Jim Henson's the storyteller. vol. 2", "work_id": 81922, "role": "production company", "role_id": 941, "is_primary": true}, {"id": 901151, "title": "Jim Henson's the storyteller. Vol. 3", "work_id": 81923, "role": "production company", "role_id": 941, "is_primary": true}, {"id": 2336535, "title": "The Castle of Adventure", "work_id": 81644, "role": "production company", "role_id": 941, "is_primary": true}], "also_known_as": "", "date_of_birth": "", "date_of_death": "", "genders": [], "languages": [], "places_of_operation": [], "biography": "", "biography_author": null, "date_of_biography": "2023-05-09T19:32:46.361525+10:00", "external_links": [], "uuid": "7970f2c2-1167-4762-b0a4-62c328371ca0", "source": {"name": "Vernon", "slug": "vernon"}, "source_identifier": "13774", "external_references": [{"id": 36153, "source": {"name": "Wikidata", "slug": "wikidata"}, "source_identifier": "Q121223169"}], "date_modified": "2023-09-06T02:00:08.550971+10:00"}, {"id": 23886, "name": "Moira Armstrong", "roles_in_work": [{"id": 2065877, "title": "A Christmas Carol: Being a Ghost Story of Christmas", "work_id": 81639, "role": "director", "role_id": 938, "is_primary": true}, {"id": 1847605, "title": "The Onedin Line. Part 3", "work_id": 87052, "role": "co-director", "role_id": 959, "is_primary": true}, {"id": 1847591, "title": "The Onedin Line. Part 1", "work_id": 87050, "role": "co-director", "role_id": 959, "is_primary": true}, {"id": 1847612, "title": "The Onedin Line. Part 4", "work_id": 87053, "role": "co-director", "role_id": 959, "is_primary": true}, {"id": 1847598, "title": "The Onedin Line. Part 2", "work_id": 87051, "role": "co-director", "role_id": 959, "is_primary": true}], "also_known_as": "", "date_of_birth": "", "date_of_death": "", "genders": [], "languages": [], "places_of_operation": [], "biography": "", "biography_author": null, "date_of_biography": "2023-05-09T11:23:04.769892+10:00", "external_links": [], "uuid": "3d38e0de-d9e7-484e-91c6-7be52a453378", "source": {"name": "Vernon", "slug": "vernon"}, "source_identifier": "25488", "external_references": [], "date_modified": "2023-06-14T16:33:30.576250+10:00"}, {"id": 23884, "name": "Oxford Vision", "roles_in_work": [{"id": 2782277, "title": "Children's video Bible", "work_id": 115269, "role": "production company", "role_id": 941, "is_primary": true}, {"id": 2782263, "title": "Jesus and His kingdom", "work_id": 82080, "role": "production company", "role_id": 941, "is_primary": true}, {"id": 2782249, "title": "The First Christmas", "work_id": 81637, "role": "production company", "role_id": 941, "is_primary": true}, {"id": 2782232, "title": "Kings and prophets", "work_id": 83332, "role": "production company", "role_id": 941, "is_primary": true}, {"id": 2782217, "title": "The Promised land", "work_id": 83442, "role": "production company", "role_id": 941, "is_primary": true}, {"id": 2782190, "title": "The Beginning", "work_id": 81782, "role": "production company", "role_id": 941, "is_primary": true}], "also_known_as": "", "date_of_birth": "", "date_of_death": "", "genders": [], "languages": [], "places_of_operation": [], "biography": "", "biography_author": null, "date_of_biography": "2023-05-09T19:52:40.179203+10:00", "external_links": [], "uuid": "749a893a-aa57-4ac4-98a8-555a21b107b8", "source": {"name": "Vernon", "slug": "vernon"}, "source_identifier": "11214", "external_references": [{"id": 34192, "source": {"name": "Wikidata", "slug": "wikidata"}, "source_identifier": "Q121223278"}], "date_modified": "2025-03-14T19:11:44.349767+11:00"}, {"id": 23883, "name": "Teck Tan", "roles_in_work": [{"id": 2774481, "title": "Chinese Diggers", "work_id": 81635, "role": "director", "role_id": 938, "is_primary": true}, {"id": 2774480, "title": "Chinese Diggers", "work_id": 81635, "role": "co-producer", "role_id": 915, "is_primary": true}, {"id": 776567, "title": "Silk dreams", "work_id": 81737, "role": "producer/director", "role_id": 31, "is_primary": true}, {"id": 810777, "title": "My tiger's eyes", "work_id": 92274, "role": "producer/director", "role_id": 31, "is_primary": true}, {"id": 810775, "title": "My tiger's eyes", "work_id": 92274, "role": "production company", "role_id": 941, "is_primary": true}], "also_known_as": "", "date_of_birth": "", "date_of_death": "", "genders": [], "languages": [], "places_of_operation": [], "biography": "", "biography_author": null, "date_of_biography": "2023-05-09T19:28:40.245359+10:00", "external_links": [], "uuid": "689f54e6-0b91-4f91-a618-561f068338b2", "source": {"name": "Vernon", "slug": "vernon"}, "source_identifier": "29508", "external_references": [{"id": 43590, "source": {"name": "Wikidata", "slug": "wikidata"}, "source_identifier": "Q121299544"}], "date_modified": "2025-03-14T18:37:03.852495+11:00"}, {"id": 23882, "name": "Ron Low", "roles_in_work": [{"id": 2776155, "title": "Chinese Territory", "work_id": 81633, "role": "director", "role_id": 938, "is_primary": true}], "also_known_as": "", "date_of_birth": "", "date_of_death": "", "genders": [], "languages": [], "places_of_operation": [], "biography": "", "biography_author": null, "date_of_biography": "2023-05-09T18:56:10.466894+10:00", "external_links": [], "uuid": "e1a2b191-2f59-4992-b779-55a0fc56bd4b", "source": {"name": "Vernon", "slug": "vernon"}, "source_identifier": "28154", "external_references": [{"id": 51101, "source": {"name": "Wikidata", "slug": "wikidata"}, "source_identifier": "Q121357768"}], "date_modified": "2025-03-14T18:46:04.395639+11:00"}, {"id": 23880, "name": "Moira Ferguson", "roles_in_work": [{"id": 2776143, "title": "Steve", "work_id": 81628, "role": "co-producer", "role_id": 915, "is_primary": true}, {"id": 2776153, "title": "Chinese Territory", "work_id": 81633, "role": "co-producer", "role_id": 915, "is_primary": true}, {"id": 2776129, "title": "George", "work_id": 81808, "role": "co-producer", "role_id": 915, "is_primary": true}, {"id": 2776111, "title": "Guido", "work_id": 83479, "role": "producer", "role_id": 1089, "is_primary": true}], "also_known_as": "", "date_of_birth": "", "date_of_death": "", "genders": [], "languages": [], "places_of_operation": [], "biography": "", "biography_author": null, "date_of_biography": "2023-05-09T18:56:14.288432+10:00", "external_links": [], "uuid": "4c860027-a9b4-42e3-820d-785504167f8b", "source": {"name": "Vernon", "slug": "vernon"}, "source_identifier": "25490", "external_references": [], "date_modified": "2025-03-14T18:46:03.821510+11:00"}, {"id": 23879, "name": "Zi Zhong Wang", "roles_in_work": [{"id": 2774471, "title": "Hungry Ghosts", "work_id": 81627, "role": "director", "role_id": 938, "is_primary": true}, {"id": 2774469, "title": "Hungry Ghosts", "work_id": 81627, "role": "co-producer", "role_id": 915, "is_primary": true}], "also_known_as": "", "date_of_birth": "", "date_of_death": "", "genders": [], "languages": [], "places_of_operation": [], "biography": "", "biography_author": null, "date_of_biography": "2023-05-09T19:28:37.180624+10:00", "external_links": [], "uuid": "3e7c87c5-4d71-499d-b772-48f13761e25b", "source": {"name": "Vernon", "slug": "vernon"}, "source_identifier": "30685", "external_references": [{"id": 43599, "source": {"name": "Wikidata", "slug": "wikidata"}, "source_identifier": "Q121086026"}], "date_modified": "2025-03-14T18:36:57.372953+11:00"}, {"id": 23877, "name": "Barbara Mariotti", "roles_in_work": [{"id": 2776141, "title": "Steve", "work_id": 81628, "role": "co-producer", "role_id": 915, "is_primary": true}, {"id": 2776151, "title": "Chinese Territory", "work_id": 81633, "role": "co-producer", "role_id": 915, "is_primary": true}, {"id": 2774470, "title": "Hungry Ghosts", "work_id": 81627, "role": "co-producer", "role_id": 915, "is_primary": true}, {"id": 2774474, "title": "Old Songs in a New Land: A Piece of Jewish Australian ...", "work_id": 81634, "role": "co-producer", "role_id": 915, "is_primary": true}, {"id": 2774643, "title": "Try your fortune", "work_id": 83548, "role": "co-producer", "role_id": 915, "is_primary": true}, {"id": 2776131, "title": "George", "work_id": 81808, "role": "co-producer", "role_id": 915, "is_primary": true}, {"id": 2774465, "title": "The Tempest in Bali", "work_id": 81623, "role": "co-producer", "role_id": 915, "is_primary": true}, {"id": 2774489, "title": "Al fresco", "work_id": 81720, "role": "producer", "role_id": 1089, "is_primary": true}, {"id": 2776170, "title": "The Top end", "work_id": 115202, "role": "producer", "role_id": 1089, "is_primary": true}, {"id": 2774629, "title": "In our own image", "work_id": 83484, "role": "producer", "role_id": 1089, "is_primary": true}, {"id": 2774596, "title": "A Local stranger: Claude Beach in Julia Creek", "work_id": 82786, "role": "producer", "role_id": 1089, "is_primary": true}], "also_known_as": "", "date_of_birth": "", "date_of_death": "", "genders": [], "languages": [], "places_of_operation": [], "biography": "", "biography_author": null, "date_of_biography": "2023-05-09T19:29:54.968678+10:00", "external_links": [], "uuid": "8ed3c7aa-a501-4f29-b4f8-4f72e4ca612b", "source": {"name": "Vernon", "slug": "vernon"}, "source_identifier": "15657", "external_references": [], "date_modified": "2025-03-14T18:46:08.942825+11:00"}, {"id": 23873, "name": "John Angier", "roles_in_work": [{"id": 2776054, "title": "Race to save the planet", "work_id": 115200, "role": "co-producer", "role_id": 915, "is_primary": true}, {"id": 2775908, "title": "The Environmental revolution", "work_id": 81618, "role": "co-producer", "role_id": 915, "is_primary": true}, {"id": 2775926, "title": "Only One Atmosphere", "work_id": 81663, "role": "co-producer", "role_id": 915, "is_primary": true}, {"id": 2776057, "title": "Race to save the planet", "work_id": 115200, "role": "director", "role_id": 938, "is_primary": true}, {"id": 2775912, "title": "The Environmental revolution", "work_id": 81618, "role": "director", "role_id": 938, "is_primary": true}, {"id": 2751301, "title": "Nova: the search for life", "work_id": 97745, "role": "producer", "role_id": 1089, "is_primary": true}], "also_known_as": "", "date_of_birth": "", "date_of_death": "", "genders": [], "languages": [], "places_of_operation": [], "biography": "", "biography_author": null, "date_of_biography": "2023-05-09T19:49:03.907173+10:00", "external_links": [], "uuid": "8682a8f6-8fe0-4a3f-a9f0-7d9a240c8c89", "source": {"name": "Vernon", "slug": "vernon"}, "source_identifier": "22100", "external_references": [{"id": 38680, "source": {"name": "Wikidata", "slug": "wikidata"}, "source_identifier": "Q121299485"}], "date_modified": "2025-03-14T18:45:33.596763+11:00"}, {"id": 23871, "name": "Chedd-Angier Productions", "roles_in_work": [{"id": 2783802, "title": "Inference for one mean", "work_id": 84156, "role": "production company", "role_id": 941, "is_primary": true}, {"id": 2783824, "title": "Comparing two means", "work_id": 83456, "role": "production company", "role_id": 941, "is_primary": true}, {"id": 2783840, "title": "Inference for proportions", "work_id": 83487, "role": "production company", "role_id": 941, "is_primary": true}, {"id": 2783854, "title": "Inference for two-way tables", "work_id": 83506, "role": "production company", "role_id": 941, "is_primary": true}, {"id": 2783864, "title": "Inference for relationships", "work_id": 83383, "role": "production company", "role_id": 941, "is_primary": true}, {"id": 2783870, "title": "Case study", "work_id": 83474, "role": "production company", "role_id": 941, "is_primary": true}, {"id": 2246468, "title": "For all practical purposes. On size and shape. 2", "work_id": 84108, "role": "production company", "role_id": 941, "is_primary": true}, {"id": 2614250, "title": "For all practical purposes. Computer science. 3", "work_id": 83391, "role": "production company", "role_id": 941, "is_primary": true}, {"id": 2775900, "title": "The Environmental revolution", "work_id": 81618, "role": "production company", "role_id": 941, "is_primary": true}, {"id": 2775921, "title": "Only One Atmosphere", "work_id": 81663, "role": "production company", "role_id": 941, "is_primary": true}, {"id": 2775939, "title": "Do we really want to live this way?", "work_id": 81691, "role": "production company", "role_id": 941, "is_primary": true}, {"id": 2775952, "title": "In the name of progress", "work_id": 81692, "role": "production company", "role_id": 941, "is_primary": true}, {"id": 2775963, "title": "Remnants of Eden", "work_id": 81693, "role": "production company", "role_id": 941, "is_primary": true}, {"id": 2775975, "title": "More for less", "work_id": 81707, "role": "production company", "role_id": 941, "is_primary": true}, {"id": 2775987, "title": "Save the Earth, feed the world", "work_id": 81723, "role": "production company", "role_id": 941, "is_primary": true}, {"id": 2776012, "title": "Waste not want not", "work_id": 81775, "role": "production company", "role_id": 941, "is_primary": true}, {"id": 2776025, "title": "It needs political decisions", "work_id": 81797, "role": "production company", "role_id": 941, "is_primary": true}, {"id": 2776037, "title": "Now or never", "work_id": 81804, "role": "production company", "role_id": 941, "is_primary": true}, {"id": 2776047, "title": "Race to save the planet", "work_id": 115200, "role": "production company", "role_id": 941, "is_primary": true}, {"id": 2783410, "title": "What is statistics?", "work_id": 82249, "role": "production company", "role_id": 941, "is_primary": true}, {"id": 2783427, "title": "Picturing distributions", "work_id": 82702, "role": "production company", "role_id": 941, "is_primary": true}, {"id": 2783451, "title": "Describing distributions", "work_id": 83084, "role": "production company", "role_id": 941, "is_primary": true}, {"id": 2783468, "title": "Normal distributions", "work_id": 83241, "role": "production company", "role_id": 941, "is_primary": true}, {"id": 2783405, "title": "Against all odds: inside statistics", "work_id": 115276, "role": "production company", "role_id": 941, "is_primary": true}, {"id": 2783483, "title": "Normal calculations", "work_id": 83293, "role": "production company", "role_id": 941, "is_primary": true}, {"id": 2783504, "title": "Time series", "work_id": 83460, "role": "production company", "role_id": 941, "is_primary": true}, {"id": 2783517, "title": "Models for growth", "work_id": 83498, "role": "production company", "role_id": 941, "is_primary": true}, {"id": 2783533, "title": "Describing relationships", "work_id": 83573, "role": "production company", "role_id": 941, "is_primary": true}, {"id": 2783560, "title": "Correlation", "work_id": 83459, "role": "production company", "role_id": 941, "is_primary": true}, {"id": 2783583, "title": "Multidimensional data analysis", "work_id": 83486, "role": "production company", "role_id": 941, "is_primary": true}, {"id": 2783618, "title": "Experimental design", "work_id": 83458, "role": "production company", "role_id": 941, "is_primary": true}, {"id": 2783635, "title": "Blocking and sampling", "work_id": 83477, "role": "production company", "role_id": 941, "is_primary": true}, {"id": 2783656, "title": "Samples and surveys", "work_id": 83557, "role": "production company", "role_id": 941, "is_primary": true}, {"id": 2783666, "title": "What is probability?", "work_id": 83552, "role": "production company", "role_id": 941, "is_primary": true}, {"id": 2783685, "title": "Random variables", "work_id": 83510, "role": "production company", "role_id": 941, "is_primary": true}, {"id": 2783702, "title": "Binomial distributions", "work_id": 83478, "role": "production company", "role_id": 941, "is_primary": true}, {"id": 2783724, "title": "The Sample mean and control charts", "work_id": 83520, "role": "production company", "role_id": 941, "is_primary": true}, {"id": 2783749, "title": "Confidence intervals", "work_id": 83455, "role": "production company", "role_id": 941, "is_primary": true}, {"id": 2783774, "title": "Significance tests", "work_id": 83556, "role": "production company", "role_id": 941, "is_primary": true}, {"id": 1846767, "title": "For all practical purposes. Statistics. 5", "work_id": 83393, "role": "production company", "role_id": 941, "is_primary": true}, {"id": 1846771, "title": "For all practical purposes. Statistics. 2", "work_id": 83398, "role": "production company", "role_id": 941, "is_primary": true}, {"id": 1846778, "title": "For all practical purposes. Social choice. 4", "work_id": 83413, "role": "production company", "role_id": 941, "is_primary": true}, {"id": 1846787, "title": "For all practical purposes. Summing up", "work_id": 83420, "role": "production company", "role_id": 941, "is_primary": true}, {"id": 1846793, "title": "For all practical purposes. Computer science. 2", "work_id": 83430, "role": "production company", "role_id": 941, "is_primary": true}, {"id": 1846798, "title": "For all practical purposes. Computer science. 1", "work_id": 83434, "role": "production company", "role_id": 941, "is_primary": true}, {"id": 1846805, "title": "For all practical purposes. Social choice. 5", "work_id": 83441, "role": "production company", "role_id": 941, "is_primary": true}, {"id": 1846708, "title": "For all practical purposes. Social choice. 3", "work_id": 83318, "role": "production company", "role_id": 941, "is_primary": true}, {"id": 1846814, "title": "For all practical purposes. Statistics. 4", "work_id": 83445, "role": "production company", "role_id": 941, "is_primary": true}, {"id": 1846830, "title": "For all practical purposes. Statistics. 1", "work_id": 83497, "role": "production company", "role_id": 941, "is_primary": true}, {"id": 781982, "title": "For all practical purposes. Computer science. 5", "work_id": 83319, "role": "production company", "role_id": 941, "is_primary": true}, {"id": 2246511, "title": "For all practical purposes. On size and shape. 5", "work_id": 83341, "role": "production company", "role_id": 941, "is_primary": true}, {"id": 2246444, "title": "For all practical purposes. Management science. 4", "work_id": 83291, "role": "production company", "role_id": 941, "is_primary": true}, {"id": 2246460, "title": "For all practical purposes. Management science. 5", "work_id": 83390, "role": "production company", "role_id": 941, "is_primary": true}, {"id": 2614215, "title": "For all practical purposes. Social choice. 2", "work_id": 83347, "role": "production company", "role_id": 941, "is_primary": true}, {"id": 881434, "title": "An Astronaut's view of earth", "work_id": 92814, "role": "production company", "role_id": 941, "is_primary": true}, {"id": 2246432, "title": "For all practical purposes. Management science. 3", "work_id": 83229, "role": "production company", "role_id": 941, "is_primary": true}, {"id": 2246405, "title": "For all practical purposes. Management science. 2", "work_id": 83170, "role": "production company", "role_id": 941, "is_primary": true}, {"id": 2246464, "title": "For all practical purposes. On size and shape. 1", "work_id": 83435, "role": "production company", "role_id": 941, "is_primary": true}, {"id": 2246489, "title": "For all practical purposes. On size and shape. 3", "work_id": 83342, "role": "production company", "role_id": 941, "is_primary": true}, {"id": 2246376, "title": "For all practical purposes. Computer science. 4", "work_id": 83388, "role": "production company", "role_id": 941, "is_primary": true}, {"id": 2246507, "title": "For all practical purposes. Management science. 1", "work_id": 82248, "role": "production company", "role_id": 941, "is_primary": true}, {"id": 2246495, "title": "For all practical purposes. On size and shape. 4", "work_id": 83426, "role": "production company", "role_id": 941, "is_primary": true}, {"id": 1846810, "title": "For all practical purposes. Statistics. 3", "work_id": 83444, "role": "production company", "role_id": 941, "is_primary": true}, {"id": 1846755, "title": "For all practical purposes. Social choice. 1", "work_id": 83359, "role": "production company", "role_id": 941, "is_primary": true}], "also_known_as": "", "date_of_birth": "", "date_of_death": "", "genders": [], "languages": [], "places_of_operation": [], "biography": "", "biography_author": null, "date_of_biography": "2023-05-09T19:49:07.024471+10:00", "external_links": [], "uuid": "5729a57b-265e-4d8f-95b8-564b69df97db", "source": {"name": "Vernon", "slug": "vernon"}, "source_identifier": "6536", "external_references": [{"id": 32396, "source": {"name": "Wikidata", "slug": "wikidata"}, "source_identifier": "Q121035012"}], "date_modified": "2025-03-14T19:17:56.904933+11:00"}]}