{"count": 28687, "next": "https://api.acmi.net.au/creators/?page=1237", "previous": "https://api.acmi.net.au/creators/?page=1235", "results": [{"id": 72956, "name": "Aimé Jalon", "roles_in_work": [{"id": 2685044, "title": "Dishonored 2 façade close-up", "work_id": 100671, "role": "creator", "role_id": 968, "is_primary": true}, {"id": 2685046, "title": "Dishonored 2 façade study (two)", "work_id": 100674, "role": "creator", "role_id": 968, "is_primary": true}, {"id": 2685048, "title": "Dishonored 2 hall study", "work_id": 100670, "role": "creator", "role_id": 968, "is_primary": true}, {"id": 2685064, "title": "Dishonored 2 street study", "work_id": 100678, "role": "creator", "role_id": 968, "is_primary": true}, {"id": 2685068, "title": "Concept art, mood drawings and studies of locations in Karnaca", "work_id": 114478, "role": "creator", "role_id": 968, "is_primary": true}, {"id": 2685072, "title": "Dishonored 2 map of Karnaca", "work_id": 100667, "role": "creator", "role_id": 968, "is_primary": true}, {"id": 2685041, "title": "Dishonored 2 apartment study", "work_id": 100669, "role": "creator", "role_id": 968, "is_primary": true}], "also_known_as": "", "date_of_birth": "", "date_of_death": "", "genders": [], "languages": [], "places_of_operation": [], "biography": "", "biography_author": null, "date_of_biography": "2023-06-07T03:46:03.931257+10:00", "external_links": [], "uuid": "be52ca61-290d-4ab4-b56a-72b21420edd0", "source": {"name": "Vernon", "slug": "vernon"}, "source_identifier": "39486", "external_references": [], "date_modified": "2025-03-11T11:45:40.739227+11:00"}, {"id": 72955, "name": "James Geurts", "roles_in_work": [{"id": 2686065, "title": "Production stills matching Thomson photographs ", "work_id": 112025, "role": "", "role_id": 604, "is_primary": false}, {"id": 2686064, "title": "Production photos of Peter Minygululu (Minygululu) and Jamie Gulpilil (Dayindi/Yeeralparil) collecting eggs", "work_id": 100591, "role": "photographer", "role_id": 440, "is_primary": false}, {"id": 2686063, "title": "Ten Canoes production photo of men sitting above water", "work_id": 100590, "role": "photographer", "role_id": 440, "is_primary": false}, {"id": 2686062, "title": "Ten Canoes production photo of Frances Djulibing", "work_id": 100589, "role": "photographer", "role_id": 440, "is_primary": false}, {"id": 2686061, "title": "Ten Canoes production photos taken to match Thomson photographs (canoe group and birds)", "work_id": 100588, "role": "photographer", "role_id": 440, "is_primary": false}, {"id": 2686060, "title": "Ten Canoes production photographs taken to match Thomson photographs", "work_id": 100587, "role": "photographer", "role_id": 440, "is_primary": false}], "also_known_as": "", "date_of_birth": "", "date_of_death": "", "genders": [{"id": 9, "name": "Male", "slug": "male"}], "languages": [], "places_of_operation": [], "biography": "website - jamesgeurts.com", "biography_author": null, "date_of_biography": "2025-03-11T12:05:00.041957+11:00", "external_links": [], "uuid": "96ad04ed-22f5-4e9f-866d-bab5d66d9c07", "source": {"name": "Vernon", "slug": "vernon"}, "source_identifier": "112086", "external_references": [], "date_modified": "2025-03-11T12:05:00.042411+11:00"}, {"id": 72954, "name": "Donald Thomson", "roles_in_work": [{"id": 2514202, "title": "The Goose Hunters of the Arafura Swamp", "work_id": 100586, "role": "photographer", "role_id": 440, "is_primary": false}], "also_known_as": "", "date_of_birth": "", "date_of_death": "", "genders": [], "languages": [], "places_of_operation": [], "biography": "", "biography_author": null, "date_of_biography": "2023-05-09T19:02:55.830610+10:00", "external_links": [], "uuid": "5fc1e079-8695-4d78-9436-4370a911f5d3", "source": {"name": "Vernon", "slug": "vernon"}, "source_identifier": "39490", "external_references": [], "date_modified": "2024-03-27T05:20:35.557451+11:00"}, {"id": 72953, "name": "Lawrence Paull", "roles_in_work": [], "also_known_as": "", "date_of_birth": null, "date_of_death": null, "genders": [], "languages": [], "places_of_operation": [], "biography": "", "biography_author": null, "date_of_biography": null, "external_links": [], "uuid": "3bd9421f-7a94-4e6f-8670-46927d2c3383", "source": {"name": "Vernon", "slug": "vernon"}, "source_identifier": null, "external_references": [], "date_modified": "2023-06-14T16:33:30.576250+10:00"}, {"id": 72952, "name": "Bill George", "roles_in_work": [{"id": 2685582, "title": "Making Hades landscape in model shop", "work_id": 114472, "role": "creator", "role_id": 968, "is_primary": true}, {"id": 2685607, "title": "Making Tyrell building in model shop", "work_id": 113724, "role": "creator", "role_id": 968, "is_primary": true}, {"id": 2307849, "title": "Special effects in Blade Runner (Spinners)", "work_id": 100872, "role": "miniature design", "role_id": 993, "is_primary": false}, {"id": 2685624, "title": "Special effects in Blade Runner (Hades landscape)", "work_id": 100871, "role": "miniature design", "role_id": 993, "is_primary": false}, {"id": 2685599, "title": "Production photo of John Vidor working on Tyrell building model", "work_id": 99774, "role": "photographer", "role_id": 440, "is_primary": false}, {"id": 2685601, "title": "Production photo of Tyrell bulding under construction", "work_id": 99776, "role": "photographer", "role_id": 440, "is_primary": false}, {"id": 2685603, "title": "Production photo of Tyrell bulding under construction", "work_id": 99775, "role": "photographer", "role_id": 440, "is_primary": false}, {"id": 2685605, "title": "Production photo of Tyrell building in model shop", "work_id": 99772, "role": "photographer", "role_id": 440, "is_primary": false}, {"id": 2685574, "title": "John Vidor working on Hades landscape", "work_id": 99778, "role": "photographer", "role_id": 440, "is_primary": false}, {"id": 2685576, "title": "Les Ekker, Illyana Lowry, and George Trimmer (L-R) working on Hades landscape", "work_id": 99780, "role": "photographer", "role_id": 440, "is_primary": false}, {"id": 2685578, "title": "Suzy Schneider Dalrymple working on Hades landscape", "work_id": 99781, "role": "photographer", "role_id": 440, "is_primary": false}, {"id": 2685580, "title": "Tom Field working on Hades landscape", "work_id": 99779, "role": "photographer", "role_id": 440, "is_primary": false}, {"id": 2685572, "title": "Production photo of Hades landscape", "work_id": 99777, "role": "photographer", "role_id": 440, "is_primary": false}, {"id": 2685597, "title": "Production photo of Chriss Ross working on Tyrell building model", "work_id": 99773, "role": "photographer", "role_id": 440, "is_primary": false}, {"id": 2686090, "title": "Robert Johnston working on a Blade Runner spinner", "work_id": 99786, "role": "photographer", "role_id": 440, "is_primary": false}, {"id": 2686092, "title": "Blade Runner spinner production photo", "work_id": 99785, "role": "photographer", "role_id": 440, "is_primary": false}, {"id": 2686094, "title": "Tom Pahk working on a quarter size spinner", "work_id": 99783, "role": "photographer", "role_id": 440, "is_primary": false}, {"id": 2686096, "title": "Tom Pahk working on a quarter size spinner", "work_id": 99784, "role": "photographer", "role_id": 440, "is_primary": false}, {"id": 2681086, "title": "Blade Runner spinner being delivered", "work_id": 100793, "role": "photographer", "role_id": 440, "is_primary": false}], "also_known_as": "", "date_of_birth": "", "date_of_death": "", "genders": [], "languages": [], "places_of_operation": [], "biography": "", "biography_author": null, "date_of_biography": "2023-05-09T19:10:20.392871+10:00", "external_links": [], "uuid": "26c00085-3efc-4d5b-8547-e93720014843", "source": {"name": "Vernon", "slug": "vernon"}, "source_identifier": "39502", "external_references": [], "date_modified": "2025-03-11T12:13:19.468792+11:00"}, {"id": 72951, "name": "Justine Coultham", "roles_in_work": [{"id": 2686126, "title": "Judy & Punch costume sketches", "work_id": 113725, "role": "creator", "role_id": 968, "is_primary": true}], "also_known_as": "", "date_of_birth": "", "date_of_death": "", "genders": [], "languages": [], "places_of_operation": [], "biography": "", "biography_author": null, "date_of_biography": "2023-08-11T19:02:25.839448+10:00", "external_links": [], "uuid": "62eec705-112e-49f0-a3b4-e9b55c113bf6", "source": {"name": "Vernon", "slug": "vernon"}, "source_identifier": "39521", "external_references": [], "date_modified": "2025-03-11T12:13:53.270592+11:00"}, {"id": 72950, "name": "Laurent Gapaillard", "roles_in_work": [{"id": 2685034, "title": "Concept art and studies of locations in Karnaca", "work_id": 99758, "role": "creator", "role_id": 968, "is_primary": true}, {"id": 2685026, "title": "Dishonored 2 city park pencil sketch", "work_id": 99764, "role": "creator", "role_id": 968, "is_primary": true}, {"id": 2685028, "title": "Dishonored 2 vegetation pencil sketch", "work_id": 99762, "role": "creator", "role_id": 968, "is_primary": true}, {"id": 2685032, "title": "Dishonored 2 interior 6b pencil sketch", "work_id": 99761, "role": "creator", "role_id": 968, "is_primary": true}, {"id": 2685033, "title": "Dishonored 2 nature studies pencil sketch", "work_id": 99763, "role": "creator", "role_id": 968, "is_primary": true}, {"id": 2685035, "title": "Dishonored 2 interior 2b pencil sketch", "work_id": 99759, "role": "creator", "role_id": 968, "is_primary": true}, {"id": 2685038, "title": "Dishonored 2 interior 4 pencil sketch", "work_id": 99760, "role": "creator", "role_id": 968, "is_primary": true}, {"id": 2685040, "title": "Concept sketches of locations in Karnaca", "work_id": 112214, "role": "creator", "role_id": 968, "is_primary": true}], "also_known_as": "", "date_of_birth": "", "date_of_death": "", "genders": [], "languages": [], "places_of_operation": [], "biography": "", "biography_author": null, "date_of_biography": "2023-06-07T03:45:54.701562+10:00", "external_links": [], "uuid": "1513d982-96a7-46e5-8d6f-5b15ee9efea8", "source": {"name": "Vernon", "slug": "vernon"}, "source_identifier": "39496", "external_references": [], "date_modified": "2025-03-11T11:45:23.892074+11:00"}, {"id": 72949, "name": "Ramingining community", "roles_in_work": [{"id": 2326350, "title": "Story cards", "work_id": 113835, "role": "creator", "role_id": 968, "is_primary": true}, {"id": 2686148, "title": "Annotated script pages", "work_id": 113836, "role": "creator", "role_id": 968, "is_primary": true}, {"id": 2326226, "title": "Ten Canoes story cards", "work_id": 99747, "role": "writer", "role_id": 939, "is_primary": true}, {"id": 2326376, "title": "Ten Canoes story cards", "work_id": 99754, "role": "writer", "role_id": 939, "is_primary": true}, {"id": 2326388, "title": "Ten Canoes story cards", "work_id": 99751, "role": "writer", "role_id": 939, "is_primary": true}, {"id": 2326257, "title": "Ten Canoes story cards", "work_id": 99749, "role": "writer", "role_id": 939, "is_primary": true}, {"id": 2326359, "title": "Ten Canoes story cards", "work_id": 99748, "role": "writer", "role_id": 939, "is_primary": true}, {"id": 2326321, "title": "Ten Canoes story cards", "work_id": 99753, "role": "writer", "role_id": 939, "is_primary": true}, {"id": 2326217, "title": "Ten Canoes story cards", "work_id": 99746, "role": "writer", "role_id": 939, "is_primary": true}, {"id": 2326300, "title": "Ten Canoes story cards", "work_id": 99752, "role": "writer", "role_id": 939, "is_primary": true}, {"id": 2686139, "title": "Ten Canoes annotated script pages", "work_id": 99755, "role": "writer", "role_id": 939, "is_primary": true}, {"id": 2686142, "title": "Ten Canoes annotated script pages", "work_id": 99756, "role": "writer", "role_id": 939, "is_primary": true}, {"id": 2686145, "title": "Ten Canoes annotated script pages", "work_id": 99757, "role": "writer", "role_id": 939, "is_primary": true}, {"id": 2326271, "title": "Ten Canoes story cards", "work_id": 99750, "role": "writer", "role_id": 939, "is_primary": true}], "also_known_as": "", "date_of_birth": "", "date_of_death": "", "genders": [], "languages": [], "places_of_operation": [], "biography": "", "biography_author": null, "date_of_biography": "2023-05-09T19:19:38.726498+10:00", "external_links": [], "uuid": "f7ddcb04-525c-428b-8c50-1ee581cceb23", "source": {"name": "Vernon", "slug": "vernon"}, "source_identifier": "39492", "external_references": [{"id": 41760, "source": {"name": "Wikidata", "slug": "wikidata"}, "source_identifier": "Q121036387"}], "date_modified": "2025-03-11T12:14:11.024552+11:00"}, {"id": 72948, "name": "Greig Chambers", "roles_in_work": [{"id": 3089705, "title": "Prisoner cast figurines", "work_id": 107474, "role": "designer", "role_id": 495, "is_primary": false}], "also_known_as": "", "date_of_birth": "", "date_of_death": "", "genders": [], "languages": [], "places_of_operation": [], "biography": "", "biography_author": null, "date_of_biography": "2023-05-09T17:56:59.143472+10:00", "external_links": [], "uuid": "294c398d-bedf-4ab0-81a8-37d0a74ea612", "source": {"name": "Vernon", "slug": "vernon"}, "source_identifier": "39312", "external_references": [], "date_modified": "2025-03-17T11:06:09.171016+11:00"}, {"id": 72947, "name": "Newton & Co", "roles_in_work": [{"id": 2681415, "title": "Magic lantern set effects slide (Tying shoelaces)", "work_id": 100260, "role": "maker", "role_id": 657, "is_primary": false}], "also_known_as": "", "date_of_birth": "", "date_of_death": "", "genders": [], "languages": [], "places_of_operation": [], "biography": "", "biography_author": null, "date_of_biography": "2023-07-19T03:47:02.694047+10:00", "external_links": [], "uuid": "0c0081c2-435d-4b37-9270-0b9ff5a8ab83", "source": {"name": "Vernon", "slug": "vernon"}, "source_identifier": "39299", "external_references": [], "date_modified": "2025-03-07T01:27:00.890976+11:00"}]}