{"count": 28682, "next": "https://api.acmi.net.au/creators/?page=1365", "previous": "https://api.acmi.net.au/creators/?page=1363", "results": [{"id": 37926, "name": "Eric White", "roles_in_work": [{"id": 2408423, "title": "Gel", "work_id": 96268, "role": "producer", "role_id": 1089, "is_primary": true}], "also_known_as": "", "date_of_birth": "", "date_of_death": "", "genders": [], "languages": [], "places_of_operation": [], "biography": "", "biography_author": null, "date_of_biography": "2023-08-11T16:59:33.108868+10:00", "external_links": [], "uuid": "6717096f-60fa-495b-91b5-27e1b8930f3f", "source": {"name": "Vernon", "slug": "vernon"}, "source_identifier": "18843", "external_references": [], "date_modified": "2023-08-11T16:59:33.109158+10:00"}, {"id": 37925, "name": "Films Sagittaire", "roles_in_work": [{"id": 2408422, "title": "Gel", "work_id": 96268, "role": "production company", "role_id": 941, "is_primary": true}], "also_known_as": "", "date_of_birth": "", "date_of_death": "", "genders": [], "languages": [], "places_of_operation": [], "biography": "", "biography_author": null, "date_of_biography": "2023-08-11T16:59:32.482875+10:00", "external_links": [], "uuid": "b5e155a5-6e6a-4252-a4e0-bbd0488cf38b", "source": {"name": "Vernon", "slug": "vernon"}, "source_identifier": "8323", "external_references": [], "date_modified": "2023-08-11T16:59:32.483119+10:00"}, {"id": 37924, "name": "Ross Wood Productions", "roles_in_work": [{"id": 2230826, "title": "Project expansion", "work_id": 96266, "role": "production company", "role_id": 941, "is_primary": true}], "also_known_as": "", "date_of_birth": "", "date_of_death": "", "genders": [], "languages": [], "places_of_operation": [], "biography": "", "biography_author": null, "date_of_biography": "2023-05-09T16:36:39.904119+10:00", "external_links": [], "uuid": "c7f75e88-db83-4409-8fe1-04c3851a39b4", "source": {"name": "Vernon", "slug": "vernon"}, "source_identifier": "12127", "external_references": [{"id": 33055, "source": {"name": "Wikidata", "slug": "wikidata"}, "source_identifier": "Q121035538"}], "date_modified": "2023-09-06T00:56:56.926429+10:00"}, {"id": 37922, "name": "Australia. Navy Office", "roles_in_work": [{"id": 2463865, "title": "Navy for a new nation", "work_id": 96262, "role": "production company", "role_id": 941, "is_primary": true}], "also_known_as": "", "date_of_birth": "", "date_of_death": "", "genders": [], "languages": [], "places_of_operation": [], "biography": "", "biography_author": null, "date_of_biography": "2023-08-14T09:59:48.542566+10:00", "external_links": [], "uuid": "7988a444-350a-4fea-953a-41bb1a4a88cc", "source": {"name": "Vernon", "slug": "vernon"}, "source_identifier": "10854", "external_references": [], "date_modified": "2023-08-14T09:59:48.542933+10:00"}, {"id": 37921, "name": "John Maybe", "roles_in_work": [{"id": 2756930, "title": "Right Through the Shearing Time", "work_id": 96260, "role": "director", "role_id": 938, "is_primary": true}], "also_known_as": "", "date_of_birth": "", "date_of_death": "", "genders": [], "languages": [], "places_of_operation": [], "biography": "", "biography_author": null, "date_of_biography": "2023-05-09T18:42:30.936845+10:00", "external_links": [], "uuid": "38d2f20b-7565-4e4a-a924-e9145d9be4a9", "source": {"name": "Vernon", "slug": "vernon"}, "source_identifier": "22400", "external_references": [{"id": 39529, "source": {"name": "Wikidata", "slug": "wikidata"}, "source_identifier": "Q121079304"}], "date_modified": "2025-03-13T14:42:23.152099+11:00"}, {"id": 37920, "name": "Trevor Stockley", "roles_in_work": [{"id": 2756924, "title": "Right Through the Shearing Time", "work_id": 96260, "role": "producer", "role_id": 1089, "is_primary": true}], "also_known_as": "", "date_of_birth": "", "date_of_death": "", "genders": [], "languages": [], "places_of_operation": [], "biography": "", "biography_author": null, "date_of_biography": "2023-05-09T18:42:30.703009+10:00", "external_links": [], "uuid": "4277ddb0-6b22-4a01-ab88-08a3580c0eaa", "source": {"name": "Vernon", "slug": "vernon"}, "source_identifier": "29982", "external_references": [{"id": 35381, "source": {"name": "Wikidata", "slug": "wikidata"}, "source_identifier": "Q121271311"}], "date_modified": "2025-03-13T14:42:22.576148+11:00"}, {"id": 37909, "name": "Grant Rohloff", "roles_in_work": [{"id": 2471805, "title": "Which is my world?", "work_id": 96139, "role": "producer", "role_id": 1089, "is_primary": true}], "also_known_as": "", "date_of_birth": "", "date_of_death": "", "genders": [], "languages": [], "places_of_operation": [], "biography": "", "biography_author": null, "date_of_biography": "2023-08-14T12:46:58.667868+10:00", "external_links": [], "uuid": "5e5cd624-908d-47ec-926c-db4ae8c6d89e", "source": {"name": "Vernon", "slug": "vernon"}, "source_identifier": "20032", "external_references": [], "date_modified": "2023-08-14T12:46:58.668212+10:00"}, {"id": 37908, "name": "Art Evans Productions", "roles_in_work": [{"id": 2751501, "title": "Economics for elementary: trade", "work_id": 97837, "role": "production company", "role_id": 941, "is_primary": true}, {"id": 825994, "title": "South America: Indians of the Andes", "work_id": 96138, "role": "production company", "role_id": 941, "is_primary": true}], "also_known_as": "", "date_of_birth": "", "date_of_death": "", "genders": [], "languages": [], "places_of_operation": [], "biography": "", "biography_author": null, "date_of_biography": "2023-08-11T16:17:51.006013+10:00", "external_links": [], "uuid": "a409918b-5384-456c-a8ca-79ddb1c25c16", "source": {"name": "Vernon", "slug": "vernon"}, "source_identifier": "5394", "external_references": [], "date_modified": "2025-03-13T00:45:26.957433+11:00"}, {"id": 37903, "name": "Ansvar Insurance", "roles_in_work": [{"id": 2405492, "title": "Danger level", "work_id": 96121, "role": "production company", "role_id": 941, "is_primary": true}, {"id": 2406480, "title": "Drinking-driving. Edited version", "work_id": 96903, "role": "production company", "role_id": 941, "is_primary": true}], "also_known_as": "", "date_of_birth": "", "date_of_death": "", "genders": [], "languages": [], "places_of_operation": [], "biography": "", "biography_author": null, "date_of_biography": "2023-08-11T16:14:35.908164+10:00", "external_links": [], "uuid": "a36efb71-1d52-4212-9551-0cc841ec4db6", "source": {"name": "Vernon", "slug": "vernon"}, "source_identifier": "5285", "external_references": [], "date_modified": "2023-08-11T16:14:35.908381+10:00"}, {"id": 37902, "name": "CETO", "roles_in_work": [{"id": 2469469, "title": "TV training: sound in television", "work_id": 96119, "role": "production company", "role_id": 941, "is_primary": true}], "also_known_as": "", "date_of_birth": "", "date_of_death": "", "genders": [], "languages": [], "places_of_operation": [], "biography": "", "biography_author": null, "date_of_biography": "2023-08-14T12:01:49.758338+10:00", "external_links": [], "uuid": "8c554e35-00be-4820-a1e3-11d238f1dde8", "source": {"name": "Vernon", "slug": "vernon"}, "source_identifier": "6477", "external_references": [], "date_modified": "2023-08-14T12:01:49.758643+10:00"}]}