{"count": 28684, "next": "https://api.acmi.net.au/creators/?page=1138", "previous": "https://api.acmi.net.au/creators/?page=1136", "results": [{"id": 74209, "name": "Alex McPhee", "roles_in_work": [{"id": 2677485, "title": "Around the clock", "work_id": 64892, "role": "cinematographer", "role_id": 32, "is_primary": false}], "also_known_as": "", "date_of_birth": "", "date_of_death": "", "genders": [], "languages": [], "places_of_operation": [], "biography": "", "biography_author": null, "date_of_biography": "2023-05-09T12:29:20.760475+10:00", "external_links": [], "uuid": "c2d18f06-86df-4b04-8cdf-60fb24e5155b", "source": {"name": "Vernon", "slug": "vernon"}, "source_identifier": "37470", "external_references": [{"id": 39445, "source": {"name": "Wikidata", "slug": "wikidata"}, "source_identifier": "Q121036303"}], "date_modified": "2025-03-06T23:21:23.365323+11:00"}, {"id": 74208, "name": "Len Heitman", "roles_in_work": [{"id": 2678100, "title": "The Banana story", "work_id": 65220, "role": "cinematographer", "role_id": 32, "is_primary": false}, {"id": 2679258, "title": "A Career in bricklaying", "work_id": 65818, "role": "cinematographer", "role_id": 32, "is_primary": false}, {"id": 2677479, "title": "Around a gum tree", "work_id": 64891, "role": "cinematographer", "role_id": 32, "is_primary": false}, {"id": 2678072, "title": "Ballads of Bullant Ridge. No. 2", "work_id": 65206, "role": "cinematographer", "role_id": 32, "is_primary": false}], "also_known_as": "", "date_of_birth": "", "date_of_death": "", "genders": [], "languages": [], "places_of_operation": [], "biography": "", "biography_author": null, "date_of_biography": "2023-05-09T19:23:34.692042+10:00", "external_links": [], "uuid": "f875870d-7473-42f4-ab94-fdbe2c323886", "source": {"name": "Vernon", "slug": "vernon"}, "source_identifier": "37527", "external_references": [{"id": 32939, "source": {"name": "Wikidata", "slug": "wikidata"}, "source_identifier": "Q121126356"}], "date_modified": "2025-03-07T00:10:30.602156+11:00"}, {"id": 74207, "name": "Grant McLean", "roles_in_work": [{"id": 2191942, "title": "Diggers of the deeps", "work_id": 87702, "role": "director", "role_id": 938, "is_primary": true}, {"id": 2164152, "title": "No longer vanishing", "work_id": 90846, "role": "director", "role_id": 938, "is_primary": true}, {"id": 2644743, "title": "Farewell Oak Street", "work_id": 67402, "role": "director", "role_id": 938, "is_primary": true}, {"id": 2712718, "title": "Elder citizen", "work_id": 67062, "role": "producer", "role_id": 1089, "is_primary": true}, {"id": 2644204, "title": "Borderline", "work_id": 65543, "role": "producer", "role_id": 1089, "is_primary": true}, {"id": 2677459, "title": "Are people sheep?", "work_id": 64875, "role": "producer", "role_id": 1089, "is_primary": true}, {"id": 2171843, "title": "Monkey on the back", "work_id": 70552, "role": "producer", "role_id": 1089, "is_primary": true}, {"id": 2236398, "title": "Raw material", "work_id": 72064, "role": "producer", "role_id": 1089, "is_primary": true}, {"id": 1819161, "title": "New hearts for old", "work_id": 70844, "role": "producer", "role_id": 1089, "is_primary": true}, {"id": 2257191, "title": "Royal river [Abridged version]", "work_id": 89317, "role": "producer", "role_id": 1089, "is_primary": true}], "also_known_as": "", "date_of_birth": "07 APR 1921", "date_of_death": "19 DEC 2002", "genders": [{"id": 9, "name": "Male", "slug": "male"}], "languages": [], "places_of_operation": [], "biography": "Grant McLean, CM (April 7, 1921 – December 19, 2002) was a Canadian filmmaker, working as a cinematographer, film director and producer for the National Film Board of Canada (NFB), and serving as its Acting Commissioner through 1966 and 1967. Source: Wikidata; 01/08/2023", "biography_author": null, "date_of_biography": "2025-03-12T00:29:32.628100+11:00", "external_links": [{"id": 4096, "uri": "https://en.wikipedia.org/wiki/Grant_McLean_(filmmaker)"}], "uuid": "b2231ce9-5c7d-4c53-a732-24ee7484cd00", "source": {"name": "Vernon", "slug": "vernon"}, "source_identifier": "20030", "external_references": [{"id": 25601, "source": {"name": "Wikidata", "slug": "wikidata"}, "source_identifier": "Q5596335"}], "date_modified": "2025-03-12T00:29:32.628326+11:00"}, {"id": 74206, "name": "John Feeney", "roles_in_work": [{"id": 2677457, "title": "Arctic outpost", "work_id": 64873, "role": "director", "role_id": 938, "is_primary": true}, {"id": 2220829, "title": "Eskimo artist: Kenojouac", "work_id": 69369, "role": "director", "role_id": 938, "is_primary": true}, {"id": 2302527, "title": "Sky", "work_id": 72890, "role": "director", "role_id": 938, "is_primary": true}, {"id": 2645477, "title": "Living stone", "work_id": 69813, "role": "director", "role_id": 938, "is_primary": true}, {"id": 2679848, "title": "A Christmas fantasy", "work_id": 66099, "role": "director", "role_id": 938, "is_primary": true}], "also_known_as": "", "date_of_birth": "10 AUG 1922", "date_of_death": "06 DEC 2006", "genders": [{"id": 9, "name": "Male", "slug": "male"}], "languages": [], "places_of_operation": [{"id": 9, "name": "New Zealand", "slug": "new-zealand"}], "biography": "John Feeney (10 August 1922 – 6 December 2006) was a New Zealand-born director, photographer and writer. Source: Wikidata; 01/08/2023", "biography_author": null, "date_of_biography": "2025-03-07T00:21:45.582982+11:00", "external_links": [{"id": 4372, "uri": "https://en.wikipedia.org/wiki/John_Feeney_(filmmaker)"}], "uuid": "7214ed29-0ba6-47d7-a7ca-3b3be00a4fca", "source": {"name": "Vernon", "slug": "vernon"}, "source_identifier": "22248", "external_references": [{"id": 26058, "source": {"name": "Wikidata", "slug": "wikidata"}, "source_identifier": "Q6232862"}, {"id": 29485, "source": {"name": "VIAF", "slug": "viaf"}, "source_identifier": "4660444"}, {"id": 29486, "source": {"name": "WorldCat", "slug": "worldcat"}, "source_identifier": "viaf-4660444"}], "date_modified": "2025-03-07T00:21:45.583197+11:00"}, {"id": 74205, "name": "Roger Climpson", "roles_in_work": [{"id": 2760511, "title": "New cords for old, and the golden rule", "work_id": 70828, "role": "cast", "role_id": 33, "is_primary": false}, {"id": 2680824, "title": "Dairying in Australia", "work_id": 66570, "role": "narrator", "role_id": 499, "is_primary": false}, {"id": 2762054, "title": "Bali: island of magic", "work_id": 75784, "role": "narrator", "role_id": 499, "is_primary": false}, {"id": 2713233, "title": "Exports flow through Fremantle", "work_id": 67307, "role": "narrator", "role_id": 499, "is_primary": false}, {"id": 2762692, "title": "Law", "work_id": 75700, "role": "narrator", "role_id": 499, "is_primary": false}, {"id": 2762467, "title": "Architecture", "work_id": 64865, "role": "narrator", "role_id": 499, "is_primary": false}], "also_known_as": "", "date_of_birth": "", "date_of_death": "", "genders": [], "languages": [], "places_of_operation": [], "biography": "", "biography_author": null, "date_of_biography": "2023-05-09T19:05:30.476166+10:00", "external_links": [], "uuid": "963c0508-4129-4dba-a42d-5bed257416ae", "source": {"name": "Vernon", "slug": "vernon"}, "source_identifier": "32569", "external_references": [], "date_modified": "2025-03-14T17:39:05.978669+11:00"}, {"id": 74204, "name": "Sam Neill", "roles_in_work": [{"id": 2646505, "title": "Surf sail", "work_id": 73397, "role": "director", "role_id": 938, "is_primary": true}, {"id": 855926, "title": "New country - new people", "work_id": 70830, "role": "director", "role_id": 938, "is_primary": true}, {"id": 2677434, "title": "Architect Athfield", "work_id": 64863, "role": "director", "role_id": 938, "is_primary": true}, {"id": 2713834, "title": "Flare: a ski trip", "work_id": 67612, "role": "director", "role_id": 938, "is_primary": true}, {"id": 2103635, "title": "Attack Force Z", "work_id": 86327, "role": "cast", "role_id": 33, "is_primary": false}, {"id": 2357417, "title": "The Journalist", "work_id": 80778, "role": "cast", "role_id": 33, "is_primary": false}, {"id": 896001, "title": "Three shorts on architecture", "work_id": 73787, "role": "co-producers/directors", "role_id": 628, "is_primary": true}, {"id": 1880191, "title": "The Magic pudding", "work_id": 91159, "role": "voice", "role_id": 471, "is_primary": false}], "also_known_as": "Nigel John Dermot Neill", "date_of_birth": "14 SEP 1947", "date_of_death": "", "genders": [{"id": 9, "name": "Male", "slug": "male"}], "languages": [{"id": 1, "name": "English", "slug": "english"}], "places_of_operation": [{"id": 9, "name": "New Zealand", "slug": "new-zealand"}], "biography": "Sir Nigel John Dermot \"Sam\" Neill  (born 14 September 1947) is a New Zealand actor. Neill's 53-year career has included leading roles in both dramas and blockbusters. Considered an \"international leading man\", he has been regarded as one of the most versatile actors of his generation.Born in Omagh in County Tyrone, Northern Ireland, Neill moved to Christchurch with his family in 1954. He first achieved recognition with his appearance in the 1977 film Sleeping Dogs, which he followed with leading roles in My Brilliant Career (1979), Omen III: The Final Conflict, Possession (both 1981), Evil Angels - also known as A Cry in the Dark (1988), Dead Calm (1989), The Hunt For Red October (1990),  The Piano (1993) and In the Mouth of Madness (1994). He came to international prominence as Dr. Alan Grant in Jurassic Park (1993), a role that he reprises in Jurassic Park III (2001) and Jurassic World Dominion (2022).\n\nOutside of film, Neill has appeared in numerous television series, including Reilly, Ace of Spies (1983), The Simpsons (1994), Merlin (1998), The Tudors (2007), Crusoe (2008–2010), Happy Town (2010), Alcatraz (2012), Peaky Blinders (2013–2014), and Rick and Morty (2019). He has presented and narrated several documentaries. In 2021, he had a one-episode role on the Apple TV+ sci-fi series Invasion.\n\nNeill is the recipient of the AACTA Award for Best Actor in a Leading Role, the Longford Lyell Award, the New Zealand Film Award and the Logie Award for Most Outstanding Actor. He also has three Golden Globe and two Primetime Emmy Award nominations. He won the Silver Logie for Most Popular Actor at the 2023 Logies. Source: Wikidata; 01/08/2023", "biography_author": null, "date_of_biography": "2025-03-12T00:55:37.315373+11:00", "external_links": [{"id": 5109, "uri": "https://en.wikipedia.org/wiki/Sam_Neill"}], "uuid": "c6a89366-556a-42b0-9e6a-7efdfe8c1fb2", "source": {"name": "Vernon", "slug": "vernon"}, "source_identifier": "28484", "external_references": [{"id": 26959, "source": {"name": "Wikidata", "slug": "wikidata"}, "source_identifier": "Q214309"}, {"id": 31387, "source": {"name": "VIAF", "slug": "viaf"}, "source_identifier": "85595917"}, {"id": 31388, "source": {"name": "LOC Auth", "slug": "loc-auth"}, "source_identifier": "no92019784"}, {"id": 31389, "source": {"name": "WorldCat", "slug": "worldcat"}, "source_identifier": "lccn-no92019784"}], "date_modified": "2025-03-12T00:55:37.315632+11:00"}, {"id": 74203, "name": "Garry Wapshott", "roles_in_work": [{"id": 2677421, "title": "Approximately panther", "work_id": 64856, "role": "cinematographer", "role_id": 32, "is_primary": false}, {"id": 2645673, "title": "Minus 107", "work_id": 70414, "role": "co-director", "role_id": 959, "is_primary": true}], "also_known_as": "", "date_of_birth": "", "date_of_death": "", "genders": [], "languages": [], "places_of_operation": [], "biography": "", "biography_author": null, "date_of_biography": "2023-05-09T12:28:56.953257+10:00", "external_links": [], "uuid": "910d257b-2323-458f-a384-478882d4cf0f", "source": {"name": "Vernon", "slug": "vernon"}, "source_identifier": "19376", "external_references": [{"id": 42488, "source": {"name": "Wikidata", "slug": "wikidata"}, "source_identifier": "Q121036388"}], "date_modified": "2025-03-06T23:20:40.062187+11:00"}, {"id": 74202, "name": "Peter Lamb", "roles_in_work": [{"id": 2677420, "title": "Approximately panther", "work_id": 64856, "role": "producer/director", "role_id": 31, "is_primary": true}], "also_known_as": "", "date_of_birth": "", "date_of_death": "", "genders": [], "languages": [], "places_of_operation": [], "biography": "", "biography_author": null, "date_of_biography": "2023-05-09T12:28:56.698120+10:00", "external_links": [], "uuid": "477e2a65-5e94-4c0f-aef6-38be642fd847", "source": {"name": "Vernon", "slug": "vernon"}, "source_identifier": "26607", "external_references": [{"id": 51485, "source": {"name": "Wikidata", "slug": "wikidata"}, "source_identifier": "Q121360740"}], "date_modified": "2025-03-06T23:20:39.471350+11:00"}, {"id": 74201, "name": "James McCarthy", "roles_in_work": [{"id": 2677412, "title": "Approach to art teaching", "work_id": 64852, "role": "co-director", "role_id": 959, "is_primary": true}, {"id": 2792044, "title": "Koalas", "work_id": 75290, "role": "composer", "role_id": 538, "is_primary": false}], "also_known_as": "", "date_of_birth": "", "date_of_death": "", "genders": [], "languages": [], "places_of_operation": [], "biography": "", "biography_author": null, "date_of_biography": "2023-05-09T15:38:08.848823+10:00", "external_links": [], "uuid": "da9997ab-cf6e-4d92-bd9c-243d682d420a", "source": {"name": "Vernon", "slug": "vernon"}, "source_identifier": "21281", "external_references": [{"id": 41874, "source": {"name": "Wikidata", "slug": "wikidata"}, "source_identifier": "Q121222938"}], "date_modified": "2025-03-14T20:06:21.690378+11:00"}, {"id": 74200, "name": "Bruce Hilliard", "roles_in_work": [{"id": 2677411, "title": "Approach to art teaching", "work_id": 64852, "role": "co-director", "role_id": 959, "is_primary": true}], "also_known_as": "", "date_of_birth": "", "date_of_death": "", "genders": [], "languages": [], "places_of_operation": [], "biography": "", "biography_author": null, "date_of_biography": "2023-05-09T12:27:43.415227+10:00", "external_links": [], "uuid": "f3332f2b-033c-48c0-bed0-ea1528fdfb12", "source": {"name": "Vernon", "slug": "vernon"}, "source_identifier": "16306", "external_references": [{"id": 38499, "source": {"name": "Wikidata", "slug": "wikidata"}, "source_identifier": "Q121298937"}], "date_modified": "2025-03-06T23:20:33.172694+11:00"}]}