{"count": 28687, "next": "https://api.acmi.net.au/creators/?page=2291", "previous": "https://api.acmi.net.au/creators/?page=2289", "results": [{"id": 16948, "name": "Australia. Repatriation Dept.", "roles_in_work": [{"id": 2373932, "title": "Think back: an introduction to safe and efficient patient transfer and object handling", "work_id": 70925, "role": "production company", "role_id": 941, "is_primary": true}, {"id": 755932, "title": "Tobruk to Tarakan", "work_id": 73895, "role": "production company", "role_id": 941, "is_primary": true}], "also_known_as": "", "date_of_birth": "", "date_of_death": "", "genders": [], "languages": [], "places_of_operation": [], "biography": "", "biography_author": null, "date_of_biography": "2023-07-05T03:47:19.272795+10:00", "external_links": [], "uuid": "e50d2858-aba2-4647-be16-191b78872462", "source": {"name": "Vernon", "slug": "vernon"}, "source_identifier": "11965", "external_references": [{"id": 34186, "source": {"name": "Wikidata", "slug": "wikidata"}, "source_identifier": "Q121270819"}], "date_modified": "2023-09-05T17:50:14.180512+10:00"}, {"id": 16945, "name": "Alberta. Dept. of Agriculture. Information Branch", "roles_in_work": [{"id": 2164123, "title": "No hoof, no horse", "work_id": 70923, "role": "production company", "role_id": 941, "is_primary": true}], "also_known_as": "", "date_of_birth": "", "date_of_death": "", "genders": [], "languages": [], "places_of_operation": [], "biography": "", "biography_author": null, "date_of_biography": "2023-05-09T14:21:52.400424+10:00", "external_links": [], "uuid": "e5435b2a-9448-40f5-8937-ad067cc7df74", "source": {"name": "Vernon", "slug": "vernon"}, "source_identifier": "4739", "external_references": [{"id": 39246, "source": {"name": "Wikidata", "slug": "wikidata"}, "source_identifier": "Q121270820"}], "date_modified": "2023-09-05T17:23:19.041055+10:00"}, {"id": 16944, "name": "GTV News", "roles_in_work": [{"id": 2464362, "title": "No fixed address", "work_id": 70921, "role": "production company", "role_id": 941, "is_primary": true}], "also_known_as": "", "date_of_birth": "", "date_of_death": "", "genders": [], "languages": [], "places_of_operation": [], "biography": "", "biography_author": null, "date_of_biography": "2023-08-14T10:10:27.514865+10:00", "external_links": [], "uuid": "3119c80a-15f9-41de-b507-f8dfcd579a07", "source": {"name": "Vernon", "slug": "vernon"}, "source_identifier": "8926", "external_references": [], "date_modified": "2023-08-14T10:10:27.515155+10:00"}, {"id": 16941, "name": "Ron May", "roles_in_work": [{"id": 2464353, "title": "No chalk talk (TEFC)", "work_id": 70918, "role": "producer", "role_id": 1089, "is_primary": true}], "also_known_as": "", "date_of_birth": "", "date_of_death": "", "genders": [], "languages": [], "places_of_operation": [], "biography": "", "biography_author": null, "date_of_biography": "2023-08-14T10:10:14.125040+10:00", "external_links": [], "uuid": "0c534a2f-c511-4a5a-844b-55087d899a3d", "source": {"name": "Vernon", "slug": "vernon"}, "source_identifier": "28158", "external_references": [], "date_modified": "2023-08-14T10:10:14.125353+10:00"}, {"id": 16940, "name": "Scottish Films", "roles_in_work": [{"id": 2464348, "title": "No accidents", "work_id": 70917, "role": "production company", "role_id": 941, "is_primary": true}], "also_known_as": "", "date_of_birth": "", "date_of_death": "", "genders": [], "languages": [], "places_of_operation": [], "biography": "", "biography_author": null, "date_of_biography": "2023-08-14T10:10:07.837145+10:00", "external_links": [], "uuid": "29b67d46-6ba6-4573-9565-9defebb3f5c9", "source": {"name": "Vernon", "slug": "vernon"}, "source_identifier": "12366", "external_references": [], "date_modified": "2023-08-14T10:10:07.837522+10:00"}, {"id": 16939, "name": "Frank Stevens", "roles_in_work": [{"id": 2763680, "title": "Duke of Wellington", "work_id": 70916, "role": "director", "role_id": 938, "is_primary": true}], "also_known_as": "", "date_of_birth": "", "date_of_death": "", "genders": [], "languages": [], "places_of_operation": [], "biography": "", "biography_author": null, "date_of_biography": "2023-08-11T16:15:43.549358+10:00", "external_links": [], "uuid": "3916c102-59d9-4a67-a636-a69d1c969bd8", "source": {"name": "Vernon", "slug": "vernon"}, "source_identifier": "19176", "external_references": [], "date_modified": "2025-03-14T17:43:09.609300+11:00"}, {"id": 16938, "name": "Film House Productions", "roles_in_work": [{"id": 2763676, "title": "Duke of Wellington", "work_id": 70916, "role": "production company", "role_id": 941, "is_primary": true}], "also_known_as": "", "date_of_birth": "", "date_of_death": "", "genders": [], "languages": [], "places_of_operation": [], "biography": "", "biography_author": null, "date_of_biography": "2023-08-11T16:15:42.195499+10:00", "external_links": [], "uuid": "dc4ef0a2-53d0-4a32-b51f-848973ba4c30", "source": {"name": "Vernon", "slug": "vernon"}, "source_identifier": "8222", "external_references": [], "date_modified": "2025-03-14T17:43:08.379726+11:00"}, {"id": 16934, "name": "Don Horter", "roles_in_work": [{"id": 2399304, "title": "Alaska: our pioneer heritage...", "work_id": 88276, "role": "producer", "role_id": 1089, "is_primary": true}, {"id": 1819198, "title": "Ninety nine bottles of beer", "work_id": 70911, "role": "producer", "role_id": 1089, "is_primary": true}], "also_known_as": "", "date_of_birth": "", "date_of_death": "", "genders": [], "languages": [], "places_of_operation": [], "biography": "", "biography_author": null, "date_of_biography": "2023-08-11T13:42:05.575583+10:00", "external_links": [], "uuid": "b4ef74a4-718d-40af-a64c-9fe72faac079", "source": {"name": "Vernon", "slug": "vernon"}, "source_identifier": "18218", "external_references": [], "date_modified": "2023-08-11T13:42:05.575814+10:00"}, {"id": 16931, "name": "Herbert Ponting", "roles_in_work": [{"id": 749165, "title": "Ninety degrees south", "work_id": 70910, "role": "director", "role_id": 938, "is_primary": true}], "also_known_as": "", "date_of_birth": "1870-03-21", "date_of_death": "1935-02-07", "genders": [{"id": 9, "name": "Male", "slug": "male"}], "languages": [{"id": 1, "name": "English", "slug": "english"}], "places_of_operation": [{"id": 10, "name": "United Kingdom", "slug": "united-kingdom"}], "biography": "Herbert George Ponting, FRGS (21 March 1870 – 7 February 1935) was a professional photographer.  He is best known as the expedition photographer and cinematographer for Robert Falcon Scott's Terra Nova Expedition to the Ross Sea and South Pole (1910–1913). In this role, he captured some of the most enduring images of the Heroic Age of Antarctic Exploration.", "biography_author": "Wikidata", "date_of_biography": "2022-05-19T11:45:17.414132+10:00", "external_links": [{"id": 2231, "uri": "https://en.wikipedia.org/wiki/Herbert_Ponting"}], "uuid": "22965b26-4086-4ede-9054-93ff6299771e", "source": {"name": "Vernon", "slug": "vernon"}, "source_identifier": "20522", "external_references": [{"id": 9585, "source": {"name": "Wikidata", "slug": "wikidata"}, "source_identifier": "Q127805"}, {"id": 9586, "source": {"name": "VIAF", "slug": "viaf"}, "source_identifier": "19805684"}, {"id": 9587, "source": {"name": "LOC Auth", "slug": "loc-auth"}, "source_identifier": "n79138917"}, {"id": 9588, "source": {"name": "WorldCat", "slug": "worldcat"}, "source_identifier": "lccn-n79138917"}], "date_modified": "2023-09-13T12:29:58.308054+10:00"}, {"id": 16928, "name": "Cineflics", "roles_in_work": [{"id": 2645808, "title": "Nikkolina", "work_id": 70904, "role": "production company", "role_id": 941, "is_primary": true}], "also_known_as": "", "date_of_birth": "", "date_of_death": "", "genders": [], "languages": [], "places_of_operation": [], "biography": "", "biography_author": null, "date_of_biography": "2023-05-09T14:10:38.303335+10:00", "external_links": [], "uuid": "d815b04f-9d35-464e-b57c-b8a06cc82c6c", "source": {"name": "Vernon", "slug": "vernon"}, "source_identifier": "6682", "external_references": [{"id": 32560, "source": {"name": "Wikidata", "slug": "wikidata"}, "source_identifier": "Q121144144"}], "date_modified": "2025-03-05T12:50:10.955895+11:00"}]}