{"count": 28681, "next": "https://api.acmi.net.au/creators/?page=2399", "previous": "https://api.acmi.net.au/creators/?page=2397", "results": [{"id": 15179, "name": "Cinema Verite", "roles_in_work": [{"id": 2714339, "title": "From runaway to hippie", "work_id": 67859, "role": "production company", "role_id": 941, "is_primary": true}], "also_known_as": "", "date_of_birth": null, "date_of_death": null, "genders": [], "languages": [], "places_of_operation": [], "biography": "", "biography_author": null, "date_of_biography": null, "external_links": [], "uuid": "0dff7ee0-c3a7-4044-bad5-879e2503a1a1", "source": {"name": "Vernon", "slug": "vernon"}, "source_identifier": "6706", "external_references": [], "date_modified": "2025-03-12T01:10:12.579003+11:00"}, {"id": 15178, "name": "Warren Grant", "roles_in_work": [{"id": 2714338, "title": "From one cell", "work_id": 67858, "role": "director", "role_id": 938, "is_primary": true}], "also_known_as": "", "date_of_birth": null, "date_of_death": null, "genders": [], "languages": [], "places_of_operation": [], "biography": "", "biography_author": null, "date_of_biography": null, "external_links": [], "uuid": "4dfd3ee2-8bb6-41ad-bbe7-0b903337568d", "source": {"name": "Vernon", "slug": "vernon"}, "source_identifier": "30285", "external_references": [], "date_modified": "2025-03-12T01:10:11.699260+11:00"}, {"id": 15176, "name": "United States Productions", "roles_in_work": [{"id": 2792911, "title": "From kaiser to fuehrer", "work_id": 67856, "role": "production company", "role_id": 941, "is_primary": true}], "also_known_as": "", "date_of_birth": "", "date_of_death": "", "genders": [], "languages": [], "places_of_operation": [], "biography": "", "biography_author": null, "date_of_biography": "2023-08-11T16:51:48.251013+10:00", "external_links": [], "uuid": "c3ec933a-771f-4205-afff-c1397a892b92", "source": {"name": "Vernon", "slug": "vernon"}, "source_identifier": "13885", "external_references": [], "date_modified": "2025-03-14T20:13:51.223770+11:00"}, {"id": 15175, "name": "Keith Adam", "roles_in_work": [{"id": 1813951, "title": "City of the angels", "work_id": 82310, "role": "producer", "role_id": 1089, "is_primary": true}, {"id": 2788070, "title": "Fuji, thirty seven views", "work_id": 82322, "role": "producer", "role_id": 1089, "is_primary": true}, {"id": 2788117, "title": "Journey into Japan", "work_id": 115353, "role": "producer", "role_id": 1089, "is_primary": true}, {"id": 2760875, "title": "A Distant sound of bugles", "work_id": 67855, "role": "producer", "role_id": 1089, "is_primary": true}], "also_known_as": "", "date_of_birth": "", "date_of_death": "", "genders": [], "languages": [], "places_of_operation": [], "biography": "", "biography_author": null, "date_of_biography": "2023-05-09T11:43:25.076586+10:00", "external_links": [], "uuid": "8569c595-b1b7-43d2-8778-fee5b24d2ae6", "source": {"name": "Vernon", "slug": "vernon"}, "source_identifier": "23128", "external_references": [{"id": 52216, "source": {"name": "Wikidata", "slug": "wikidata"}, "source_identifier": "Q121357983"}], "date_modified": "2025-03-14T19:42:54.236248+11:00"}, {"id": 15174, "name": "Royal Nepal Film Corporation", "roles_in_work": [{"id": 2760874, "title": "A Distant sound of bugles", "work_id": 67855, "role": "production company", "role_id": 941, "is_primary": true}], "also_known_as": "", "date_of_birth": "", "date_of_death": "", "genders": [], "languages": [], "places_of_operation": [], "biography": "", "biography_author": null, "date_of_biography": "2023-05-09T11:29:06.983915+10:00", "external_links": [], "uuid": "167d94e4-00a6-49b5-b887-f76ead1cd913", "source": {"name": "Vernon", "slug": "vernon"}, "source_identifier": "12154", "external_references": [{"id": 34148, "source": {"name": "Wikidata", "slug": "wikidata"}, "source_identifier": "Q121159782"}], "date_modified": "2025-03-14T17:29:01.715898+11:00"}, {"id": 15173, "name": "Robert Irvine", "roles_in_work": [{"id": 2714327, "title": "From Glasgow Green to Bendigo", "work_id": 67854, "role": "director", "role_id": 938, "is_primary": true}], "also_known_as": "", "date_of_birth": null, "date_of_death": null, "genders": [], "languages": [], "places_of_operation": [], "biography": "", "biography_author": null, "date_of_biography": null, "external_links": [], "uuid": "7790b8ab-8a2f-4085-816d-6faeeeb1f584", "source": {"name": "Vernon", "slug": "vernon"}, "source_identifier": "27768", "external_references": [], "date_modified": "2025-03-12T01:10:04.231673+11:00"}, {"id": 15170, "name": "Nicholas Read", "roles_in_work": [{"id": 2714314, "title": "From 5 to 7.30", "work_id": 67847, "role": "director", "role_id": 938, "is_primary": true}, {"id": 755647, "title": "Three of our children", "work_id": 73781, "role": "director", "role_id": 938, "is_primary": true}, {"id": 2715175, "title": "Hard brought up: child welfare story", "work_id": 68312, "role": "producer/director", "role_id": 31, "is_primary": true}], "also_known_as": "", "date_of_birth": "", "date_of_death": "", "genders": [], "languages": [], "places_of_operation": [], "biography": "", "biography_author": null, "date_of_biography": "2023-08-11T17:14:34.294302+10:00", "external_links": [], "uuid": "446daebf-8677-4091-b758-a62908903ed1", "source": {"name": "Vernon", "slug": "vernon"}, "source_identifier": "25709", "external_references": [], "date_modified": "2025-03-12T01:30:03.119606+11:00"}, {"id": 15169, "name": "American Temperance Society", "roles_in_work": [{"id": 2714313, "title": "From 5 to 7.30", "work_id": 67847, "role": "production company", "role_id": 941, "is_primary": true}], "also_known_as": "", "date_of_birth": "", "date_of_death": "", "genders": [], "languages": [], "places_of_operation": [], "biography": "", "biography_author": null, "date_of_biography": "2023-08-11T16:49:46.838593+10:00", "external_links": [], "uuid": "618a90f4-0f5e-440a-ae8b-23c511f4fc56", "source": {"name": "Vernon", "slug": "vernon"}, "source_identifier": "5222", "external_references": [], "date_modified": "2025-03-12T01:06:03.923332+11:00"}, {"id": 15168, "name": "Plymouth Productions", "roles_in_work": [{"id": 853571, "title": "Introducing Shakespeare", "work_id": 69031, "role": "production company", "role_id": 941, "is_primary": true}, {"id": 2714311, "title": "A Frog's life", "work_id": 67845, "role": "production company", "role_id": 941, "is_primary": true}, {"id": 752510, "title": "Russia in Europe", "work_id": 72409, "role": "production company", "role_id": 941, "is_primary": true}, {"id": 857561, "title": "The Red planet, Mars", "work_id": 72103, "role": "production company", "role_id": 941, "is_primary": true}, {"id": 860043, "title": "A Typical garden spider", "work_id": 74133, "role": "production company", "role_id": 941, "is_primary": true}, {"id": 854905, "title": "Making a balanced aquarium", "work_id": 70024, "role": "production company", "role_id": 941, "is_primary": true}], "also_known_as": "", "date_of_birth": "", "date_of_death": "", "genders": [], "languages": [], "places_of_operation": [], "biography": "", "biography_author": null, "date_of_biography": "2023-08-11T13:01:52.873343+10:00", "external_links": [], "uuid": "f4b92401-a7b5-4a42-9eba-b77f5af57ebc", "source": {"name": "Vernon", "slug": "vernon"}, "source_identifier": "11532", "external_references": [], "date_modified": "2025-03-12T01:06:02.189123+11:00"}, {"id": 15167, "name": "Braddon Films", "roles_in_work": [{"id": 2714310, "title": "A Frog's life", "work_id": 67845, "role": "production company", "role_id": 941, "is_primary": true}], "also_known_as": "", "date_of_birth": "", "date_of_death": "", "genders": [], "languages": [], "places_of_operation": [], "biography": "", "biography_author": null, "date_of_biography": "2023-08-11T13:01:52.237443+10:00", "external_links": [], "uuid": "0e69dada-63e9-44e7-9b7a-a7ce91077281", "source": {"name": "Vernon", "slug": "vernon"}, "source_identifier": "5961", "external_references": [], "date_modified": "2025-03-12T01:06:01.601869+11:00"}]}