{"count": 28687, "next": "https://api.acmi.net.au/creators/?page=2637", "previous": "https://api.acmi.net.au/creators/?page=2635", "results": [{"id": 12215, "name": "Primrose Productions", "roles_in_work": [{"id": 2645460, "title": "The little chimney sweep", "work_id": 69781, "role": "production company", "role_id": 941, "is_primary": true}, {"id": 859641, "title": "Three wishes", "work_id": 73796, "role": "production company", "role_id": 941, "is_primary": true}, {"id": 2377697, "title": "Jack and the beanstalk", "work_id": 69177, "role": "production company", "role_id": 941, "is_primary": true}, {"id": 751512, "title": "Puss in boots", "work_id": 71967, "role": "production company", "role_id": 941, "is_primary": true}, {"id": 858502, "title": "The Sleeping beauty (Lotte Reininger)", "work_id": 72897, "role": "production company", "role_id": 941, "is_primary": true}, {"id": 858558, "title": "Snow White and Rose Red", "work_id": 72934, "role": "production company", "role_id": 941, "is_primary": true}, {"id": 2676965, "title": "Aladdin and the magic lamp", "work_id": 64628, "role": "production company", "role_id": 941, "is_primary": true}, {"id": 871689, "title": "Thumbelina", "work_id": 87207, "role": "production company", "role_id": 941, "is_primary": true}, {"id": 2714444, "title": "The Gallant little tailor", "work_id": 67929, "role": "production company", "role_id": 941, "is_primary": true}, {"id": 2679273, "title": "Carmen", "work_id": 65829, "role": "production company", "role_id": 941, "is_primary": true}, {"id": 2714894, "title": "The Grasshopper and the ant", "work_id": 68169, "role": "production company", "role_id": 941, "is_primary": true}, {"id": 2749112, "title": "The Frog prince", "work_id": 96637, "role": "production company", "role_id": 941, "is_primary": true}], "also_known_as": "", "date_of_birth": "", "date_of_death": "", "genders": [], "languages": [], "places_of_operation": [], "biography": "", "biography_author": null, "date_of_biography": "2023-07-12T03:35:27.175709+10:00", "external_links": [], "uuid": "db0711fe-bc83-4258-8269-f0bf2db6ac82", "source": {"name": "Vernon", "slug": "vernon"}, "source_identifier": "11645", "external_references": [{"id": 32608, "source": {"name": "Wikidata", "slug": "wikidata"}, "source_identifier": "Q64760336"}], "date_modified": "2025-03-12T23:52:42.825573+11:00"}, {"id": 12214, "name": "lottie Reiniger Silhouette Films", "roles_in_work": [{"id": 2676964, "title": "Aladdin and the magic lamp", "work_id": 64628, "role": "production company", "role_id": 941, "is_primary": true}], "also_known_as": "", "date_of_birth": null, "date_of_death": null, "genders": [], "languages": [], "places_of_operation": [], "biography": "", "biography_author": null, "date_of_biography": null, "external_links": [], "uuid": "5a583db7-b09c-4679-aebf-f282b2e57acd", "source": {"name": "Vernon", "slug": "vernon"}, "source_identifier": "10170", "external_references": [], "date_modified": "2025-03-06T23:10:29.004277+11:00"}, {"id": 12213, "name": "Jeffrey Pill", "roles_in_work": [{"id": 2643945, "title": "Al Maguire", "work_id": 64627, "role": "director", "role_id": 938, "is_primary": true}, {"id": 2766962, "title": "Bo Schembechler: head coach, University of Michigan", "work_id": 65513, "role": "director", "role_id": 938, "is_primary": true}], "also_known_as": "", "date_of_birth": "", "date_of_death": "", "genders": [], "languages": [], "places_of_operation": [], "biography": "", "biography_author": null, "date_of_biography": "2023-05-09T13:04:18.294974+10:00", "external_links": [], "uuid": "0677edb6-4505-4cdd-9349-fad842aee337", "source": {"name": "Vernon", "slug": "vernon"}, "source_identifier": "21676", "external_references": [{"id": 36583, "source": {"name": "Wikidata", "slug": "wikidata"}, "source_identifier": "Q121143653"}], "date_modified": "2025-03-14T18:01:09.584667+11:00"}, {"id": 12212, "name": "Oxford Films (U.S.)", "roles_in_work": [{"id": 2749958, "title": "Energy", "work_id": 97064, "role": "production company", "role_id": 941, "is_primary": true}, {"id": 2647464, "title": "Reading poetry: haiku", "work_id": 76412, "role": "production company", "role_id": 941, "is_primary": true}, {"id": 2764403, "title": "Cheating", "work_id": 65985, "role": "production company", "role_id": 941, "is_primary": true}, {"id": 2749855, "title": "Tin miners of Malaysia", "work_id": 97011, "role": "production company", "role_id": 941, "is_primary": true}, {"id": 2766955, "title": "Bo Schembechler: head coach, University of Michigan", "work_id": 65513, "role": "production company", "role_id": 941, "is_primary": true}, {"id": 2766947, "title": "Big Mal (Malcolm Allison) - Soccer", "work_id": 65410, "role": "production company", "role_id": 941, "is_primary": true}, {"id": 2643944, "title": "Al Maguire", "work_id": 64627, "role": "production company", "role_id": 941, "is_primary": true}, {"id": 2713601, "title": "Film making", "work_id": 67493, "role": "production company", "role_id": 941, "is_primary": true}, {"id": 2713374, "title": "Families get angry", "work_id": 67379, "role": "production company", "role_id": 941, "is_primary": true}, {"id": 2711850, "title": "The Dead bird", "work_id": 66654, "role": "production company", "role_id": 941, "is_primary": true}, {"id": 882686, "title": "Newspaper layout", "work_id": 93301, "role": "production company", "role_id": 941, "is_primary": true}, {"id": 2751293, "title": "Alone and the sea", "work_id": 97741, "role": "production company", "role_id": 941, "is_primary": true}, {"id": 861593, "title": "Cry for help", "work_id": 75646, "role": "production company", "role_id": 941, "is_primary": true}, {"id": 2751225, "title": "Volleyball: a sport come of age", "work_id": 97708, "role": "production company", "role_id": 941, "is_primary": true}, {"id": 2748937, "title": "Recycling our resources", "work_id": 96554, "role": "production company", "role_id": 941, "is_primary": true}, {"id": 2749221, "title": "Carcassonne: a French fortress = Carcassonne, fortifications francaises", "work_id": 96695, "role": "production company", "role_id": 941, "is_primary": true}, {"id": 894951, "title": "Love is a planned family", "work_id": 69935, "role": "production company", "role_id": 941, "is_primary": true}, {"id": 2749847, "title": "Buns", "work_id": 97005, "role": "production company", "role_id": 941, "is_primary": true}, {"id": 2766987, "title": "Vic Stasiuk: NHL coach", "work_id": 74330, "role": "production company", "role_id": 941, "is_primary": true}, {"id": 2766969, "title": "John Newcombe: tennis pro", "work_id": 69266, "role": "production company", "role_id": 941, "is_primary": true}], "also_known_as": "", "date_of_birth": "", "date_of_death": "", "genders": [], "languages": [], "places_of_operation": [], "biography": "", "biography_author": null, "date_of_biography": "2023-05-09T16:27:23.846885+10:00", "external_links": [], "uuid": "1adfdab3-bf66-4c87-9e2d-fb9cf517b673", "source": {"name": "Vernon", "slug": "vernon"}, "source_identifier": "11212", "external_references": [{"id": 40468, "source": {"name": "Wikidata", "slug": "wikidata"}, "source_identifier": "Q121035502"}], "date_modified": "2025-03-14T18:01:12.411641+11:00"}, {"id": 12211, "name": "Iwanami Productions", "roles_in_work": [{"id": 2716417, "title": "The Inland Sea of Japan", "work_id": 68946, "role": "production company", "role_id": 941, "is_primary": true}, {"id": 2676963, "title": "Akiko: the life of a Japanese girl", "work_id": 64626, "role": "production company", "role_id": 941, "is_primary": true}, {"id": 2713355, "title": "The Falcon hunter", "work_id": 67373, "role": "production company", "role_id": 941, "is_primary": true}, {"id": 2644414, "title": "Colloids", "work_id": 66226, "role": "production company", "role_id": 941, "is_primary": true}, {"id": 2646607, "title": "This is Tokyo", "work_id": 73740, "role": "production company", "role_id": 941, "is_primary": true}, {"id": 2716369, "title": "Industrial Japan", "work_id": 68915, "role": "production company", "role_id": 941, "is_primary": true}, {"id": 2749757, "title": "Friction: a first film", "work_id": 96963, "role": "production company", "role_id": 941, "is_primary": true}, {"id": 746110, "title": "Kyushu: Japan's island of wonders", "work_id": 69460, "role": "production company", "role_id": 941, "is_primary": true}, {"id": 758469, "title": "Young women of Japan", "work_id": 75023, "role": "production company", "role_id": 941, "is_primary": true}, {"id": 826003, "title": "The Story of molecules", "work_id": 96142, "role": "production company", "role_id": 941, "is_primary": true}, {"id": 854006, "title": "Kansai: cradle of Japanese culture", "work_id": 69345, "role": "production company", "role_id": 941, "is_primary": true}, {"id": 854159, "title": "Kyoto: ancient capital of Japan", "work_id": 69459, "role": "production company", "role_id": 941, "is_primary": true}, {"id": 873784, "title": "Hiroshima & Nagasaki: the harvest of nuclear war", "work_id": 88405, "role": "production company", "role_id": 941, "is_primary": true}, {"id": 853800, "title": "Japan: today and tomorrow", "work_id": 69213, "role": "production company", "role_id": 941, "is_primary": true}], "also_known_as": "", "date_of_birth": "", "date_of_death": "", "genders": [], "languages": [], "places_of_operation": [], "biography": "", "biography_author": null, "date_of_biography": "2023-08-11T13:41:57.518943+10:00", "external_links": [], "uuid": "7332ca3e-8597-4a80-85fe-beb5a78f5004", "source": {"name": "Vernon", "slug": "vernon"}, "source_identifier": "9499", "external_references": [], "date_modified": "2025-03-13T00:06:28.798286+11:00"}, {"id": 12210, "name": "Hal Kopel", "roles_in_work": [{"id": 1814982, "title": "Work of the blood [B&W]", "work_id": 85942, "role": "producer", "role_id": 1089, "is_primary": true}, {"id": 1818738, "title": "Eat for health", "work_id": 85855, "role": "producer", "role_id": 1089, "is_primary": true}, {"id": 1818269, "title": "Microscopic life: the world of the invisible", "work_id": 70360, "role": "producer", "role_id": 1089, "is_primary": true}, {"id": 1819509, "title": "Work of the blood [Colour]", "work_id": 74888, "role": "producer", "role_id": 1089, "is_primary": true}, {"id": 1818746, "title": "Why vandalism?", "work_id": 74745, "role": "producer", "role_id": 1089, "is_primary": true}, {"id": 1810965, "title": "Marco Polo's travels", "work_id": 88884, "role": "producer", "role_id": 1089, "is_primary": true}, {"id": 1814600, "title": "Making films that teach", "work_id": 70038, "role": "producer", "role_id": 1089, "is_primary": true}, {"id": 2676961, "title": "Airplanes: how they fly", "work_id": 64624, "role": "producer", "role_id": 1089, "is_primary": true}], "also_known_as": "", "date_of_birth": null, "date_of_death": null, "genders": [], "languages": [], "places_of_operation": [], "biography": "", "biography_author": null, "date_of_biography": null, "external_links": [], "uuid": "849f4bb9-8d94-4ffa-ba56-74a12907f190", "source": {"name": "Vernon", "slug": "vernon"}, "source_identifier": "20199", "external_references": [], "date_modified": "2025-03-06T23:10:26.515827+11:00"}, {"id": 12209, "name": "Cecil Holmes", "roles_in_work": [{"id": 2714567, "title": "Gentle strangers", "work_id": 67989, "role": "director", "role_id": 938, "is_primary": true}, {"id": 2714796, "title": "Golden Bay", "work_id": 68117, "role": "director", "role_id": 938, "is_primary": true}, {"id": 761842, "title": "A Matter of care: a review of the work of the Repatriation Department", "work_id": 76400, "role": "director", "role_id": 938, "is_primary": true}, {"id": 2644722, "title": "Faces in the sun", "work_id": 67356, "role": "director", "role_id": 938, "is_primary": true}, {"id": 2676959, "title": "An Airman remembers: recollections by Sir Gordon Taylor", "work_id": 64623, "role": "director", "role_id": 938, "is_primary": true}, {"id": 2648423, "title": "Return to the dreaming (Captioned)", "work_id": 79120, "role": "director", "role_id": 938, "is_primary": true}, {"id": 2714783, "title": "Gold on blue", "work_id": 68112, "role": "director", "role_id": 938, "is_primary": true}, {"id": 2680092, "title": "The Coasters", "work_id": 66208, "role": "director", "role_id": 938, "is_primary": true}, {"id": 2680798, "title": "Cyclone approaching", "work_id": 66561, "role": "director", "role_id": 938, "is_primary": true}, {"id": 2749116, "title": "A Selection interview. - 2nd ed.", "work_id": 96638, "role": "director", "role_id": 938, "is_primary": true}, {"id": 2339985, "title": "Return to the dreaming", "work_id": 82135, "role": "director", "role_id": 938, "is_primary": true}, {"id": 854771, "title": "Lotu", "work_id": 69931, "role": "director", "role_id": 938, "is_primary": true}, {"id": 754582, "title": "Style of champions: the Australian crawl", "work_id": 73332, "role": "director", "role_id": 938, "is_primary": true}, {"id": 896710, "title": "The Goddess and the moon man", "work_id": 75912, "role": "co-director", "role_id": 959, "is_primary": true}, {"id": 2716000, "title": "I, the Aboriginal", "work_id": 68726, "role": "director", "role_id": 938, "is_primary": true}, {"id": 1815014, "title": "Bitter Rice", "work_id": 79676, "role": "producer", "role_id": 1089, "is_primary": true}, {"id": 745332, "title": "The Islanders", "work_id": 69125, "role": "producer/director", "role_id": 31, "is_primary": true}, {"id": 2648310, "title": "Three in one", "work_id": 78806, "role": "producer/director", "role_id": 31, "is_primary": true}, {"id": 2680808, "title": "Cyclone Tracy", "work_id": 66562, "role": "script", "role_id": 962, "is_primary": false}, {"id": 2680799, "title": "Cyclone approaching", "work_id": 66561, "role": "script", "role_id": 962, "is_primary": false}], "also_known_as": "", "date_of_birth": "1921", "date_of_death": "1994-08-24", "genders": [{"id": 9, "name": "Male", "slug": "male"}], "languages": [{"id": 1, "name": "English", "slug": "english"}], "places_of_operation": [{"id": 9, "name": "New Zealand", "slug": "new-zealand"}], "biography": "Cecil William Holmes (23 June 1921 – 24 August 1994) was a New Zealand-born film director and writer.", "biography_author": "Wikidata", "date_of_biography": "2023-09-05T18:23:30.116253+10:00", "external_links": [{"id": 3727, "uri": "https://en.wikipedia.org/wiki/Cecil_Holmes_(director)"}], "uuid": "16f72849-4bc9-4698-85b7-3055f25f03ef", "source": {"name": "Vernon", "slug": "vernon"}, "source_identifier": "4290", "external_references": [{"id": 26234, "source": {"name": "Wikidata", "slug": "wikidata"}, "source_identifier": "Q5056131"}, {"id": 27730, "source": {"name": "VIAF", "slug": "viaf"}, "source_identifier": "94608278"}, {"id": 27731, "source": {"name": "LOC Auth", "slug": "loc-auth"}, "source_identifier": "no90005716"}, {"id": 27732, "source": {"name": "WorldCat", "slug": "worldcat"}, "source_identifier": "lccn-no90005716"}], "date_modified": "2025-03-12T23:52:44.898690+11:00"}, {"id": 12208, "name": "K Porteous", "roles_in_work": [{"id": 2756264, "title": "Appointment at Seal Rocks", "work_id": 64848, "role": "producer", "role_id": 1089, "is_primary": true}, {"id": 2713320, "title": "Faces in the Street", "work_id": 67355, "role": "producer", "role_id": 1089, "is_primary": true}, {"id": 2676958, "title": "An Airman remembers: recollections by Sir Gordon Taylor", "work_id": 64623, "role": "producer", "role_id": 1089, "is_primary": true}, {"id": 2644482, "title": "Dancing orpheus", "work_id": 66586, "role": "producer", "role_id": 1089, "is_primary": true}], "also_known_as": "", "date_of_birth": "", "date_of_death": "", "genders": [], "languages": [], "places_of_operation": [], "biography": "", "biography_author": null, "date_of_biography": "2023-05-09T19:52:56.700858+10:00", "external_links": [], "uuid": "6b190060-d860-4177-92af-e5ded3297d7b", "source": {"name": "Vernon", "slug": "vernon"}, "source_identifier": "22962", "external_references": [{"id": 41107, "source": {"name": "Wikidata", "slug": "wikidata"}, "source_identifier": "Q121034321"}], "date_modified": "2025-03-13T14:39:15.037294+11:00"}, {"id": 12207, "name": "Donald Crosbie", "roles_in_work": [{"id": 3105624, "title": "Aircraft at work", "work_id": 64621, "role": "director", "role_id": 938, "is_primary": true}], "also_known_as": "", "date_of_birth": "", "date_of_death": "", "genders": [], "languages": [], "places_of_operation": [], "biography": "", "biography_author": null, "date_of_biography": "2023-08-09T03:41:17.033644+10:00", "external_links": [], "uuid": "93281d8b-17cb-44c0-a5c8-74ea7a3ef4af", "source": {"name": "Vernon", "slug": "vernon"}, "source_identifier": "18288", "external_references": [], "date_modified": "2025-05-26T22:35:02.064076+10:00"}, {"id": 12206, "name": "Eastern Air Lines", "roles_in_work": [{"id": 2676953, "title": "Air power is peace power", "work_id": 64619, "role": "production company", "role_id": 941, "is_primary": true}], "also_known_as": "", "date_of_birth": "", "date_of_death": "", "genders": [], "languages": [], "places_of_operation": [], "biography": "", "biography_author": null, "date_of_biography": "2023-08-11T13:39:59.076151+10:00", "external_links": [], "uuid": "f244d3e2-fcc1-45c1-bce7-a2c067118736", "source": {"name": "Vernon", "slug": "vernon"}, "source_identifier": "34647", "external_references": [], "date_modified": "2025-03-06T23:10:19.417665+11:00"}]}