{"count": 28687, "next": "https://api.acmi.net.au/creators/?page=2593", "previous": "https://api.acmi.net.au/creators/?page=2591", "results": [{"id": 12751, "name": "Film Partnership and Associates", "roles_in_work": [{"id": 2677810, "title": "Australia: big country big welcome", "work_id": 65063, "role": "production company", "role_id": 941, "is_primary": true}], "also_known_as": "", "date_of_birth": "", "date_of_death": "", "genders": [], "languages": [], "places_of_operation": [], "biography": "", "biography_author": null, "date_of_biography": "2023-08-11T14:29:29.527528+10:00", "external_links": [], "uuid": "510b6ef8-258d-4aea-94d1-1de15da8437f", "source": {"name": "Vernon", "slug": "vernon"}, "source_identifier": "34523", "external_references": [], "date_modified": "2025-03-06T23:27:52.040437+11:00"}, {"id": 12750, "name": "Barrie Pattison", "roles_in_work": [{"id": 762740, "title": "Albany whaling", "work_id": 76762, "role": "director", "role_id": 938, "is_primary": true}, {"id": 2677809, "title": "Australia at War 1914-1918: an Account of the Australian Force in the Great War", "work_id": 65062, "role": "director", "role_id": 938, "is_primary": true}], "also_known_as": "", "date_of_birth": "", "date_of_death": "", "genders": [], "languages": [], "places_of_operation": [], "biography": "", "biography_author": null, "date_of_biography": "2023-08-09T03:41:38.583140+10:00", "external_links": [], "uuid": "4aa4b743-258d-4d3c-b0d0-713fede06171", "source": {"name": "Vernon", "slug": "vernon"}, "source_identifier": "15697", "external_references": [], "date_modified": "2025-03-06T23:27:49.848051+11:00"}, {"id": 12749, "name": "Australian War Memorial", "roles_in_work": [{"id": 2677962, "title": "Australians remember", "work_id": 65148, "role": "production company", "role_id": 941, "is_primary": true}, {"id": 795256, "title": "Voices from a war (MAC & PC)", "work_id": 87146, "role": "production company", "role_id": 941, "is_primary": true}, {"id": 2072996, "title": "A Real man's job: Images of Australian women in wartime [kit]", "work_id": 81667, "role": "production company", "role_id": 941, "is_primary": true}, {"id": 818169, "title": "Beyond the 38th parallel: Australians in the Korean War 1950-1953", "work_id": 94042, "role": "production company", "role_id": 941, "is_primary": true}, {"id": 2368975, "title": "Frontline", "work_id": 76070, "role": "production company", "role_id": 941, "is_primary": true}, {"id": 858645, "title": "Sons of the Anzacs 1939-1945", "work_id": 73012, "role": "production company", "role_id": 941, "is_primary": true}, {"id": 2677807, "title": "Australia at War 1914-1918: an Account of the Australian Force in the Great War", "work_id": 65062, "role": "production company", "role_id": 941, "is_primary": true}, {"id": 770581, "title": "Frontline (Captioned)", "work_id": 79750, "role": "production company", "role_id": 941, "is_primary": true}], "also_known_as": "", "date_of_birth": "1941", "date_of_death": "", "genders": [], "languages": [], "places_of_operation": [], "biography": "The Australian War Memorial is Australia's national memorial to the members of its armed forces and supporting organisations who have died or participated in wars involving the Commonwealth of Australia and some conflicts involving personnel from the Australian colonies prior to Federation. Opened in 1941, the memorial includes an extensive national military museum.\nThe memorial is located in the suburb of Campbell in Australia's capital, Canberra. It is located at the northern terminus of Anzac Parade, Australia’s national ceremonial route, which itself is located along part of the land axis of the design of central Canberra. This axis runs from the peak of Mount Ainslie in the northeast to Capital Hill, where Parliament House is located, in the southwest, a distance of 5.2 km.  The pivotal point in the layout of Canberra of where the War Memorial is located was deliberately selected as the location for the memorial, in order to reflect its national importance. There is a very clear and obvious line of sight along the land axis from the memorial to Parliament House and vice versa.\nThe Australian War Memorial consists of three parts: the Commemorative Area (shrine) including the Hall of Memory with the Tomb of the Unknown Australian Soldier, the memorial's galleries (museum) and Research Centre (records). The memorial also has an outdoor Sculpture Garden. The memorial is currently open daily from 10am until 5pm, excluding Christmas Day.\nOther monuments and memorials located on the adjacent Anzac Parade are maintained separately by the National Capital Authority (NCA) and do not form part of the Australian War Memorial.", "biography_author": "Wikidata", "date_of_biography": "2023-09-05T17:51:21.162839+10:00", "external_links": [{"id": 5697, "uri": "https://en.wikipedia.org/wiki/Australian_War_Memorial"}], "uuid": "f957c4c8-0fe0-4719-aeea-49a7a77f0ba9", "source": {"name": "Vernon", "slug": "vernon"}, "source_identifier": "4294", "external_references": [{"id": 41706, "source": {"name": "Wikidata", "slug": "wikidata"}, "source_identifier": "Q782783"}, {"id": 54026, "source": {"name": "VIAF", "slug": "viaf"}, "source_identifier": "158909256"}, {"id": 54027, "source": {"name": "LOC Auth", "slug": "loc-auth"}, "source_identifier": "n50069264"}, {"id": 54028, "source": {"name": "WorldCat", "slug": "worldcat"}, "source_identifier": "lccn-n50069264"}], "date_modified": "2025-03-06T23:32:17.255864+11:00"}, {"id": 12748, "name": "Richard Mason", "roles_in_work": [{"id": 2644772, "title": "Festival in Adelaide", "work_id": 67448, "role": "director", "role_id": 938, "is_primary": true}, {"id": 2645472, "title": "Living dangerously", "work_id": 69801, "role": "director", "role_id": 938, "is_primary": true}, {"id": 2645863, "title": "On tour with the Arts Council", "work_id": 71112, "role": "director", "role_id": 938, "is_primary": true}, {"id": 2755462, "title": "Australian landscape painters", "work_id": 75138, "role": "director", "role_id": 938, "is_primary": true}, {"id": 745458, "title": "The Jackeroo", "work_id": 69183, "role": "director", "role_id": 938, "is_primary": true}, {"id": 2043017, "title": "Way to a New World", "work_id": 74541, "role": "director", "role_id": 938, "is_primary": true}, {"id": 2391926, "title": "Industrial city: the story of Newcastle", "work_id": 70823, "role": "director", "role_id": 938, "is_primary": true}, {"id": 856226, "title": "Oil: our hidden wealth", "work_id": 71060, "role": "director", "role_id": 938, "is_primary": true}, {"id": 2392221, "title": "Training champions", "work_id": 73971, "role": "director", "role_id": 938, "is_primary": true}, {"id": 2392224, "title": "Two boys and a boat", "work_id": 74115, "role": "director", "role_id": 938, "is_primary": true}, {"id": 748548, "title": "Moving on", "work_id": 70644, "role": "director", "role_id": 938, "is_primary": true}, {"id": 3105922, "title": "Australia presents: Christmas in Australia", "work_id": 87942, "role": "director", "role_id": 938, "is_primary": true}, {"id": 2771413, "title": "More Winners : The Journey", "work_id": 80537, "role": "co-producer", "role_id": 915, "is_primary": true}, {"id": 895009, "title": "The Man who can't stop", "work_id": 70106, "role": "co-producer", "role_id": 915, "is_primary": true}, {"id": 2281113, "title": "Winners : Quest beyond time", "work_id": 78642, "role": "co-producer", "role_id": 915, "is_primary": true}, {"id": 2043019, "title": "Way to a New World", "work_id": 74541, "role": "editor", "role_id": 918, "is_primary": true}, {"id": 1815110, "title": "Broken highway [Widescreen]", "work_id": 87456, "role": "producer", "role_id": 1089, "is_primary": true}, {"id": 2677803, "title": "Australia", "work_id": 65061, "role": "producer", "role_id": 1089, "is_primary": true}, {"id": 2712384, "title": "Drama lesson", "work_id": 66915, "role": "producer", "role_id": 1089, "is_primary": true}, {"id": 2712696, "title": "Eighteen Footers [Greek version]", "work_id": 67050, "role": "producer", "role_id": 1089, "is_primary": true}, {"id": 2712699, "title": "Eighteen Footers [Italian version]", "work_id": 67051, "role": "producer", "role_id": 1089, "is_primary": true}, {"id": 2713085, "title": "The Esperance story", "work_id": 67235, "role": "producer", "role_id": 1089, "is_primary": true}, {"id": 2644330, "title": "The Change at Groote", "work_id": 65945, "role": "producer", "role_id": 1089, "is_primary": true}, {"id": 2644721, "title": "Faces in the sun", "work_id": 67356, "role": "producer", "role_id": 1089, "is_primary": true}, {"id": 2644967, "title": "God knows why, but it works", "work_id": 68098, "role": "producer", "role_id": 1089, "is_primary": true}, {"id": 2647153, "title": "Great Barrier Reef (Italian)", "work_id": 75443, "role": "producer", "role_id": 1089, "is_primary": true}, {"id": 2771410, "title": "More Winners : The Journey (Captioned)", "work_id": 81372, "role": "producer", "role_id": 1089, "is_primary": true}, {"id": 1984976, "title": "One night stand", "work_id": 80953, "role": "producer", "role_id": 1089, "is_primary": true}, {"id": 2215554, "title": "Eighteen Footers", "work_id": 75438, "role": "producer", "role_id": 1089, "is_primary": true}, {"id": 1806025, "title": "Let the balloon go (K)", "work_id": 78772, "role": "producer", "role_id": 1089, "is_primary": true}, {"id": 1818707, "title": "Where to live", "work_id": 74691, "role": "producer", "role_id": 1089, "is_primary": true}, {"id": 1819224, "title": "Operation picul stick", "work_id": 71191, "role": "producer", "role_id": 1089, "is_primary": true}, {"id": 1816564, "title": "Great Barrier Reef (Greek)", "work_id": 75442, "role": "producer", "role_id": 1089, "is_primary": true}, {"id": 2287697, "title": "Winter of our dreams", "work_id": 77914, "role": "producer", "role_id": 1089, "is_primary": true}, {"id": 2392374, "title": "Travellin' round", "work_id": 75161, "role": "producer", "role_id": 1089, "is_primary": true}, {"id": 2391861, "title": "Is anybody doing anything about it?", "work_id": 69102, "role": "producer", "role_id": 1089, "is_primary": true}, {"id": 1864508, "title": "'Where dead men lie': spotlight the director", "work_id": 73325, "role": "producer", "role_id": 1089, "is_primary": true}, {"id": 2392294, "title": "Will the Great Barrier Reef cure Claude Clough", "work_id": 74775, "role": "producer", "role_id": 1089, "is_primary": true}, {"id": 2392796, "title": "Great Barrier Reef", "work_id": 96070, "role": "producer", "role_id": 1089, "is_primary": true}, {"id": 2124205, "title": "Breaking through...", "work_id": 82404, "role": "producer", "role_id": 1089, "is_primary": true}, {"id": 1813597, "title": "When it comes to people...", "work_id": 74667, "role": "producer", "role_id": 1089, "is_primary": true}, {"id": 2281205, "title": "Winners: Room to Move", "work_id": 78646, "role": "producer", "role_id": 1089, "is_primary": true}, {"id": 1813752, "title": "Far East", "work_id": 80011, "role": "producer", "role_id": 1089, "is_primary": true}, {"id": 1814529, "title": "Lotu", "work_id": 69931, "role": "producer", "role_id": 1089, "is_primary": true}, {"id": 1809793, "title": "The Journey (K)", "work_id": 81523, "role": "producer", "role_id": 1089, "is_primary": true}], "also_known_as": "", "date_of_birth": null, "date_of_death": null, "genders": [{"id": 9, "name": "Male", "slug": "male"}], "languages": [], "places_of_operation": [{"id": 3, "name": "Australia", "slug": "australia"}], "biography": "Richard Mason (1926–2002) was an Australian film producer and director.\nHe was born on the South Coast of New South Wales, the son of a parson. During the Second World War he guarded Italian Prisoners of War.After the war he joined Sydney's Mercury Theatre as an actor, co-starring in Molière's  play, The Imaginary Invalid. However, he soon moved to film, starting as a wardrobe assistant for Eureka Stockade (1949), then as an assistant at the Colorfilm lab, before joining the Commonwealth Film Unit (now Screen Australia).He remained with the Commonwealth Film Unit, which then became Film Australia, for many years before resigning in 1978 over the Australian government's political censorship of The Unknown Industrial Prisoner.Once independent, he produced Winter of Our Dreams (1981),  Far East (1982), and  One Night Stand (1984).Mason died in Sydney on 22 November 2002.", "biography_author": "Wikidata", "date_of_biography": "2023-09-06T00:31:16.156880+10:00", "external_links": [{"id": 4984, "uri": "https://en.wikipedia.org/wiki/Richard_Mason_(film_producer)"}], "uuid": "f0d65347-b530-46e7-9c29-fe9639d268e5", "source": {"name": "Vernon", "slug": "vernon"}, "source_identifier": "27459", "external_references": [{"id": 25866, "source": {"name": "Wikidata", "slug": "wikidata"}, "source_identifier": "Q20984502"}, {"id": 31073, "source": {"name": "VIAF", "slug": "viaf"}, "source_identifier": "94606515"}, {"id": 31074, "source": {"name": "WorldCat", "slug": "worldcat"}, "source_identifier": "viaf-94606515"}], "date_modified": "2025-06-02T22:35:15.943296+10:00"}, {"id": 12747, "name": "Tourism Australia", "roles_in_work": [{"id": 2104741, "title": "Australian tourism [advertisement]", "work_id": 116721, "role": "commissioning agent", "role_id": 485, "is_primary": false}, {"id": 2677802, "title": "Australia", "work_id": 65061, "role": "production company", "role_id": 941, "is_primary": true}, {"id": 2392373, "title": "Travellin' round", "work_id": 75161, "role": "production company", "role_id": 941, "is_primary": true}, {"id": 2753740, "title": "Waltzing Matilda: touring Australia", "work_id": 98909, "role": "production company", "role_id": 941, "is_primary": true}], "also_known_as": "", "date_of_birth": "", "date_of_death": "", "genders": [], "languages": [], "places_of_operation": [], "biography": "", "biography_author": null, "date_of_biography": "2023-08-09T03:55:46.897550+10:00", "external_links": [], "uuid": "20210e86-406c-4754-9a9a-3ef3a5979f98", "source": {"name": "Vernon", "slug": "vernon"}, "source_identifier": "4855", "external_references": [{"id": 34636, "source": {"name": "Wikidata", "slug": "wikidata"}, "source_identifier": "Q121299256"}], "date_modified": "2025-03-13T01:31:31.541951+11:00"}, {"id": 12746, "name": "Edwin Moses", "roles_in_work": [{"id": 2645845, "title": "Olives don't float", "work_id": 71078, "role": "director", "role_id": 938, "is_primary": true}, {"id": 749970, "title": "Our land Australia", "work_id": 71250, "role": "director", "role_id": 938, "is_primary": true}, {"id": 2302191, "title": "Skiing's different", "work_id": 72883, "role": "director", "role_id": 938, "is_primary": true}, {"id": 856702, "title": "Patterns of time and distance", "work_id": 71409, "role": "director", "role_id": 938, "is_primary": true}, {"id": 2379598, "title": "Man in the desert", "work_id": 70085, "role": "director", "role_id": 938, "is_primary": true}, {"id": 2677800, "title": "Austinmere wheat and sheep farm", "work_id": 65060, "role": "director", "role_id": 938, "is_primary": true}, {"id": 2750300, "title": "Don't be a bloody idiot!", "work_id": 97240, "role": "director", "role_id": 938, "is_primary": true}], "also_known_as": "", "date_of_birth": "", "date_of_death": "", "genders": [], "languages": [], "places_of_operation": [], "biography": "", "biography_author": null, "date_of_biography": "2023-07-19T03:35:12.448433+10:00", "external_links": [], "uuid": "52d253d3-5f5b-4442-af8a-a1d65c611709", "source": {"name": "Vernon", "slug": "vernon"}, "source_identifier": "18643", "external_references": [{"id": 38840, "source": {"name": "Wikidata", "slug": "wikidata"}, "source_identifier": "Q121298858"}], "date_modified": "2025-03-13T00:17:52.639818+11:00"}, {"id": 12744, "name": "Sotheby's", "roles_in_work": [{"id": 2766325, "title": "Francisco Goya (TEFC)", "work_id": 67796, "role": "production company", "role_id": 941, "is_primary": true}, {"id": 2766310, "title": "Auguste Rodin", "work_id": 65058, "role": "production company", "role_id": 941, "is_primary": true}], "also_known_as": "", "date_of_birth": "", "date_of_death": "", "genders": [], "languages": [], "places_of_operation": [], "biography": "", "biography_author": null, "date_of_biography": "2023-05-09T15:52:42.301472+10:00", "external_links": [], "uuid": "c179248e-4940-4a68-ae0c-66dba29fb5ca", "source": {"name": "Vernon", "slug": "vernon"}, "source_identifier": "12763", "external_references": [{"id": 39926, "source": {"name": "Wikidata", "slug": "wikidata"}, "source_identifier": "Q121057985"}], "date_modified": "2025-03-14T17:57:48.761756+11:00"}, {"id": 12743, "name": "W. H. Smith", "roles_in_work": [{"id": 2766306, "title": "Auguste Rodin", "work_id": 65058, "role": "production company", "role_id": 941, "is_primary": true}, {"id": 2766328, "title": "Francisco Goya (TEFC)", "work_id": 67796, "role": "production company", "role_id": 941, "is_primary": true}], "also_known_as": "", "date_of_birth": "", "date_of_death": "", "genders": [], "languages": [], "places_of_operation": [], "biography": "", "biography_author": null, "date_of_biography": "2023-05-09T15:52:42.534429+10:00", "external_links": [], "uuid": "927fcc69-65f1-4644-89b2-6d7dde1ed563", "source": {"name": "Vernon", "slug": "vernon"}, "source_identifier": "30196", "external_references": [{"id": 43079, "source": {"name": "Wikidata", "slug": "wikidata"}, "source_identifier": "Q121078929"}], "date_modified": "2025-03-14T17:57:49.331831+11:00"}, {"id": 12742, "name": "John Brabourne Productions", "roles_in_work": [{"id": 2766343, "title": "Jacques-Louis David (TEFC)", "work_id": 69185, "role": "production company", "role_id": 941, "is_primary": true}, {"id": 2766382, "title": "John Constable", "work_id": 69261, "role": "production company", "role_id": 941, "is_primary": true}, {"id": 2766372, "title": "Jean-Auguste Dominique Ingres. No. 2 (TEFC)", "work_id": 69229, "role": "production company", "role_id": 941, "is_primary": true}, {"id": 2766356, "title": "Jean-Auguste Dominique Ingres. No. 1 (TEFC)", "work_id": 69230, "role": "production company", "role_id": 941, "is_primary": true}, {"id": 2766349, "title": "Jean Francois Millet", "work_id": 69231, "role": "production company", "role_id": 941, "is_primary": true}, {"id": 2766336, "title": "J.M. Turner. Part 2", "work_id": 75692, "role": "production company", "role_id": 941, "is_primary": true}, {"id": 2766331, "title": "J.M. Turner. Part 1", "work_id": 69249, "role": "production company", "role_id": 941, "is_primary": true}, {"id": 2766323, "title": "Francisco Goya (TEFC)", "work_id": 67796, "role": "production company", "role_id": 941, "is_primary": true}, {"id": 2766314, "title": "Edgar Degas", "work_id": 67020, "role": "production company", "role_id": 941, "is_primary": true}, {"id": 2766299, "title": "Auguste Rodin", "work_id": 65058, "role": "production company", "role_id": 941, "is_primary": true}], "also_known_as": "", "date_of_birth": "", "date_of_death": "", "genders": [], "languages": [], "places_of_operation": [], "biography": "", "biography_author": null, "date_of_biography": "2023-05-09T15:52:46.564569+10:00", "external_links": [], "uuid": "133911a8-dd4d-4224-b60b-0adc35dc16e5", "source": {"name": "Vernon", "slug": "vernon"}, "source_identifier": "9618", "external_references": [], "date_modified": "2025-03-14T17:58:02.584353+11:00"}, {"id": 12741, "name": "C B Wismar", "roles_in_work": [{"id": 2646939, "title": "Wingate, I love you", "work_id": 74795, "role": "director", "role_id": 938, "is_primary": true}, {"id": 2644115, "title": "Barefoot", "work_id": 65229, "role": "director", "role_id": 938, "is_primary": true}, {"id": 1905414, "title": "The Youth who wanted to shiver", "work_id": 97721, "role": "co-producer", "role_id": 915, "is_primary": true}, {"id": 2751245, "title": "Fisherman & his wife: a Grimm's fairy tale", "work_id": 97719, "role": "co-producer", "role_id": 915, "is_primary": true}, {"id": 2679407, "title": "The Cave: a parable told by Orson Welles", "work_id": 65888, "role": "co-producer", "role_id": 915, "is_primary": true}, {"id": 2677791, "title": "The Audition", "work_id": 65057, "role": "producer", "role_id": 1089, "is_primary": true}], "also_known_as": "", "date_of_birth": "", "date_of_death": "", "genders": [], "languages": [], "places_of_operation": [], "biography": "", "biography_author": null, "date_of_biography": "2023-05-09T12:41:26.533931+10:00", "external_links": [], "uuid": "ce8528ee-0694-4d49-8326-225a5c3f9206", "source": {"name": "Vernon", "slug": "vernon"}, "source_identifier": "16403", "external_references": [{"id": 34565, "source": {"name": "Wikidata", "slug": "wikidata"}, "source_identifier": "Q121143794"}], "date_modified": "2025-03-13T00:40:14.385732+11:00"}]}