{"count": 28687, "next": "https://api.acmi.net.au/creators/?page=743", "previous": "https://api.acmi.net.au/creators/?page=741", "results": [{"id": 78163, "name": "Mary Selway", "roles_in_work": [{"id": 2615744, "title": "Emily Bronte's Wuthering Heights", "work_id": 86059, "role": "producer", "role_id": 1089, "is_primary": true}], "also_known_as": "", "date_of_birth": "14 MAR 1936", "date_of_death": "21 APR 2004", "genders": [{"id": 5, "name": "Female", "slug": "female"}], "languages": [{"id": 1, "name": "English", "slug": "english"}], "places_of_operation": [{"id": 10, "name": "United Kingdom", "slug": "united-kingdom"}], "biography": "Mary Selway (14 March 1936 – 21 April 2004) was an English casting director. Source: Wikidata; 01/08/2023", "biography_author": null, "date_of_biography": "2025-02-26T20:27:42.184582+11:00", "external_links": [{"id": 2669, "uri": "https://en.wikipedia.org/wiki/Mary_Selway"}], "uuid": "c5d1a779-31af-411f-902b-92d1b8d0df3e", "source": {"name": "Vernon", "slug": "vernon"}, "source_identifier": "24737", "external_references": [{"id": 11401, "source": {"name": "Wikidata", "slug": "wikidata"}, "source_identifier": "Q1906396"}, {"id": 11402, "source": {"name": "VIAF", "slug": "viaf"}, "source_identifier": "100868939"}, {"id": 11403, "source": {"name": "LOC Auth", "slug": "loc-auth"}, "source_identifier": "no95013304"}, {"id": 11404, "source": {"name": "WorldCat", "slug": "worldcat"}, "source_identifier": "lccn-no95013304"}], "date_modified": "2025-02-26T20:27:42.184825+11:00"}, {"id": 78162, "name": "Francis Maikiewiez", "roles_in_work": [{"id": 870001, "title": "Les Beaux souvenirs", "work_id": 86049, "role": "director", "role_id": 938, "is_primary": true}], "also_known_as": "", "date_of_birth": null, "date_of_death": null, "genders": [], "languages": [], "places_of_operation": [], "biography": "", "biography_author": null, "date_of_biography": null, "external_links": [], "uuid": "1081cc48-92a7-44a7-ba16-a3ff1ad5a557", "source": {"name": "Vernon", "slug": "vernon"}, "source_identifier": null, "external_references": [], "date_modified": "2023-06-14T16:33:30.576250+10:00"}, {"id": 78161, "name": "Satoshi Yamamoto", "roles_in_work": [{"id": 2102098, "title": "Astroboy 09", "work_id": 86047, "role": "co-producer", "role_id": 915, "is_primary": true}, {"id": 2615733, "title": "Astroboy 01", "work_id": 86039, "role": "co-producer", "role_id": 915, "is_primary": true}, {"id": 2615737, "title": "Astroboy 02", "work_id": 86040, "role": "co-producer", "role_id": 915, "is_primary": true}, {"id": 2101971, "title": "Astroboy 06", "work_id": 86044, "role": "co-producer", "role_id": 915, "is_primary": true}, {"id": 2101921, "title": "Astroboy 04", "work_id": 86042, "role": "co-producer", "role_id": 915, "is_primary": true}, {"id": 2101942, "title": "Astroboy 05", "work_id": 86043, "role": "co-producer", "role_id": 915, "is_primary": true}, {"id": 2102021, "title": "Astroboy 07", "work_id": 86045, "role": "co-producer", "role_id": 915, "is_primary": true}, {"id": 2102124, "title": "Astroboy 10", "work_id": 86048, "role": "co-producer", "role_id": 915, "is_primary": true}, {"id": 2102058, "title": "Astroboy 08", "work_id": 86046, "role": "co-producer", "role_id": 915, "is_primary": true}, {"id": 2101904, "title": "Astroboy 03", "work_id": 86041, "role": "co-producer", "role_id": 915, "is_primary": true}], "also_known_as": "", "date_of_birth": "", "date_of_death": "", "genders": [], "languages": [], "places_of_operation": [], "biography": "", "biography_author": null, "date_of_biography": "2023-05-09T12:34:07.579181+10:00", "external_links": [], "uuid": "d10f6ebd-b4bf-4cae-a4c9-4737933e863f", "source": {"name": "Vernon", "slug": "vernon"}, "source_identifier": "28606", "external_references": [{"id": 37115, "source": {"name": "Wikidata", "slug": "wikidata"}, "source_identifier": "Q121222781"}], "date_modified": "2025-02-26T20:27:37.332381+11:00"}, {"id": 78160, "name": "Hidehiko Takei", "roles_in_work": [{"id": 2102120, "title": "Astroboy 10", "work_id": 86048, "role": "co-producer", "role_id": 915, "is_primary": true}, {"id": 2615736, "title": "Astroboy 02", "work_id": 86040, "role": "co-producer", "role_id": 915, "is_primary": true}, {"id": 2615732, "title": "Astroboy 01", "work_id": 86039, "role": "co-producer", "role_id": 915, "is_primary": true}, {"id": 2102016, "title": "Astroboy 07", "work_id": 86045, "role": "co-producer", "role_id": 915, "is_primary": true}, {"id": 2102053, "title": "Astroboy 08", "work_id": 86046, "role": "co-producer", "role_id": 915, "is_primary": true}, {"id": 2102092, "title": "Astroboy 09", "work_id": 86047, "role": "co-producer", "role_id": 915, "is_primary": true}, {"id": 2101966, "title": "Astroboy 06", "work_id": 86044, "role": "co-producer", "role_id": 915, "is_primary": true}, {"id": 2101901, "title": "Astroboy 03", "work_id": 86041, "role": "co-producer", "role_id": 915, "is_primary": true}, {"id": 2101920, "title": "Astroboy 04", "work_id": 86042, "role": "co-producer", "role_id": 915, "is_primary": true}, {"id": 2101941, "title": "Astroboy 05", "work_id": 86043, "role": "co-producer", "role_id": 915, "is_primary": true}], "also_known_as": "", "date_of_birth": "", "date_of_death": "", "genders": [], "languages": [], "places_of_operation": [], "biography": "", "biography_author": null, "date_of_biography": "2023-05-09T12:34:07.343886+10:00", "external_links": [], "uuid": "aeb6337f-e1bc-4949-bc1e-3228a35b9354", "source": {"name": "Vernon", "slug": "vernon"}, "source_identifier": "20544", "external_references": [{"id": 43149, "source": {"name": "Wikidata", "slug": "wikidata"}, "source_identifier": "Q121036499"}], "date_modified": "2025-02-26T20:27:36.723401+11:00"}, {"id": 78159, "name": "Disney Channel", "roles_in_work": [{"id": 3085086, "title": "Crash Zone: Heroes", "work_id": 116767, "role": "production company", "role_id": 941, "is_primary": true}, {"id": 3085062, "title": "Crash Zone: Birthday", "work_id": 116770, "role": "production company", "role_id": 941, "is_primary": true}, {"id": 3085046, "title": "Crash Zone: Big Business", "work_id": 116764, "role": "production company", "role_id": 941, "is_primary": true}, {"id": 2097308, "title": "Anne Frank remembered", "work_id": 86030, "role": "production company", "role_id": 941, "is_primary": true}, {"id": 3085287, "title": "Crash Zone: Undercover", "work_id": 116765, "role": "production company", "role_id": 941, "is_primary": true}, {"id": 3085267, "title": "Crash Zone: Truth Hurts", "work_id": 116768, "role": "production company", "role_id": 941, "is_primary": true}, {"id": 3085248, "title": "Crash Zone: The Shadow", "work_id": 116772, "role": "production company", "role_id": 941, "is_primary": true}, {"id": 3085227, "title": "Crash Zone: The Outsider", "work_id": 116773, "role": "production company", "role_id": 941, "is_primary": true}, {"id": 3085208, "title": "Crash Zone: The Dream Team", "work_id": 116762, "role": "production company", "role_id": 941, "is_primary": true}, {"id": 3085187, "title": "Crash Zone: Secrets and Lies", "work_id": 116766, "role": "production company", "role_id": 941, "is_primary": true}, {"id": 3085143, "title": "Crash Zone: Leap of Faith", "work_id": 116771, "role": "production company", "role_id": 941, "is_primary": true}, {"id": 3085166, "title": "Crash Zone: No News is Good News", "work_id": 116769, "role": "production company", "role_id": 941, "is_primary": true}, {"id": 3085123, "title": "Crash Zone: It's Only Words", "work_id": 116774, "role": "production company", "role_id": 941, "is_primary": true}, {"id": 3085103, "title": "Crash Zone: Identity Crisis", "work_id": 116763, "role": "production company", "role_id": 941, "is_primary": true}], "also_known_as": "", "date_of_birth": "", "date_of_death": "", "genders": [], "languages": [], "places_of_operation": [], "biography": "", "biography_author": null, "date_of_biography": "2023-05-09T18:22:39.410743+10:00", "external_links": [], "uuid": "2e403e3a-9aed-437a-8f0c-417b400a8ae7", "source": {"name": "Vernon", "slug": "vernon"}, "source_identifier": "7595", "external_references": [{"id": 34012, "source": {"name": "Wikidata", "slug": "wikidata"}, "source_identifier": "Q121034690"}], "date_modified": "2025-03-17T10:39:43.233859+11:00"}, {"id": 78158, "name": "Gary Ablett", "roles_in_work": [{"id": 2077781, "title": "Ablett: one special season", "work_id": 86028, "role": "cast", "role_id": 33, "is_primary": false}], "also_known_as": "", "date_of_birth": "1961-10-01", "date_of_death": "", "genders": [{"id": 9, "name": "Male", "slug": "male"}], "languages": [{"id": 1, "name": "English", "slug": "english"}], "places_of_operation": [{"id": 3, "name": "Australia", "slug": "australia"}], "biography": "Gary Ablett Sr. (born 1 October 1961), is a former professional Australian rules footballer who represented Hawthorn and Geelong in the Australian Football League (AFL). Nicknamed \"God\", Ablett is widely regarded as one of Australian football's greatest players, and was especially renowned for his high-flying spectacular marks and his prolific goalkicking.After playing for several country teams in and around his hometown of Drouin, Victoria, Ablett was recruited by Hawthorn and made his Victorian Football League (VFL) debut in 1982. However, he struggled to adjust to city life and retreated to Myrtleford the following year. The Geelong Football Club managed to lure him back to professional football in 1984, and by the late '80s, he had become one of the VFL's biggest stars. His 1989 VFL Grand Final appearance, during which he kicked a grand final record nine goals for a losing side (and tying the outright grand final record with Gordon Coventry), is regarded as one of football's greatest individual performances, earning him the Norm Smith Medal. At the beginning of the 1991 season, Ablett shocked the football world by abruptly announcing his retirement from the game, but he made a comeback midway through the year. He went on to appear in the 1992, 1994, and 1995 grand finals, before officially retiring after on September 25, 1997.Ablett's individual accolades and achievements include an induction into the Australian Football Hall of Fame, an AFL Team of the Century selection, the 1993 AFL Players Association MVP award (now known as the Leigh Matthews Trophy), and three Coleman Medals. He remains Geelong's all-time leading goalkicker, with 1021 goals; and, in 2006, was voted by past and present Geelong Football Club players as the greatest Geelong footballer of all time.", "biography_author": "Wikidata", "date_of_biography": "2023-09-05T19:57:04.610878+10:00", "external_links": [{"id": 5830, "uri": "https://en.wikipedia.org/wiki/Gary_Ablett_Sr."}], "uuid": "e717ba53-0563-40a9-9d16-21b2167e3af2", "source": {"name": "Vernon", "slug": "vernon"}, "source_identifier": "31408", "external_references": [{"id": 34571, "source": {"name": "Wikidata", "slug": "wikidata"}, "source_identifier": "Q5524578"}], "date_modified": "2023-09-05T19:57:10.363468+10:00"}, {"id": 78157, "name": "Dean Shiel", "roles_in_work": [{"id": 2077771, "title": "Ablett: one special season", "work_id": 86028, "role": "co-producer", "role_id": 915, "is_primary": true}], "also_known_as": "", "date_of_birth": "", "date_of_death": "", "genders": [], "languages": [], "places_of_operation": [], "biography": "", "biography_author": null, "date_of_biography": "2023-05-09T11:43:16.972512+10:00", "external_links": [], "uuid": "132af2af-fea4-44a8-b552-8b27a89dc9f2", "source": {"name": "Vernon", "slug": "vernon"}, "source_identifier": "17886", "external_references": [{"id": 39918, "source": {"name": "Wikidata", "slug": "wikidata"}, "source_identifier": "Q121223411"}], "date_modified": "2023-09-05T19:04:50.899685+10:00"}, {"id": 78156, "name": "Mike Young", "roles_in_work": [{"id": 905327, "title": "The Secret garden [Animated]", "work_id": 86026, "role": "co-producer", "role_id": 915, "is_primary": true}, {"id": 1848412, "title": "The Little engine that could", "work_id": 94012, "role": "co-producer", "role_id": 915, "is_primary": true}], "also_known_as": "", "date_of_birth": null, "date_of_death": null, "genders": [], "languages": [], "places_of_operation": [], "biography": "", "biography_author": null, "date_of_biography": null, "external_links": [], "uuid": "547e5d03-4c8b-4444-a268-80198ab09b77", "source": {"name": "Vernon", "slug": "vernon"}, "source_identifier": null, "external_references": [{"id": 42317, "source": {"name": "Wikidata", "slug": "wikidata"}, "source_identifier": "Q121315268"}], "date_modified": "2023-09-05T23:15:44.757115+10:00"}, {"id": 78155, "name": "George Wallace", "roles_in_work": [{"id": 2615720, "title": "A Ticket in tatts", "work_id": 86020, "role": "cast", "role_id": 33, "is_primary": false}], "also_known_as": "", "date_of_birth": "1895", "date_of_death": "1960", "genders": [{"id": 9, "name": "Male", "slug": "male"}], "languages": [], "places_of_operation": [{"id": 3, "name": "Australia", "slug": "australia"}], "biography": "George Stephenson \"Onkus\" Wallace (4 June 1895 – 19 October 1960), was an Australian comedian, actor, vaudevillian and radio personality. During the early to mid-20th century, he was one of the most famous and successful Australian comedians on both stage and screen, with screen, song and revue sketch writing amongst his repertoire. Wallace was a small tubby man with goggle eyes, a mobile face and croaky voice who appeared in trademark baggy trousers, checkered shirt and felt hat. His career as one of Australia's most popular comedians spanned four decades from the 1920s to 1960 and encompassed stage, radio and film entertainment. Ken G. Hall, who directed him in two films, wrote in his autobiography that George Wallace was the finest Australian comedian he had known.", "biography_author": "Wikidata", "date_of_biography": "2023-09-05T20:07:09.959765+10:00", "external_links": [{"id": 5837, "uri": "https://en.wikipedia.org/wiki/George_Wallace_(Australian_comedian)"}], "uuid": "36dc28bf-e67c-4a43-81f0-5c88f20b9281", "source": {"name": "Vernon", "slug": "vernon"}, "source_identifier": "38155", "external_references": [{"id": 43515, "source": {"name": "Wikidata", "slug": "wikidata"}, "source_identifier": "Q1508292"}, {"id": 54516, "source": {"name": "VIAF", "slug": "viaf"}, "source_identifier": "6611739"}, {"id": 54517, "source": {"name": "LOC Auth", "slug": "loc-auth"}, "source_identifier": "n93095784"}, {"id": 54518, "source": {"name": "WorldCat", "slug": "worldcat"}, "source_identifier": "lccn-n93095784"}], "date_modified": "2025-02-26T20:27:22.889819+11:00"}, {"id": 78154, "name": "William Copland", "roles_in_work": [{"id": 909231, "title": "Nature walkabout", "work_id": 89694, "role": "co-producer", "role_id": 915, "is_primary": true}, {"id": 905312, "title": "Nature walkabout: the amazing Abrolhos Islands", "work_id": 86013, "role": "co-producer", "role_id": 915, "is_primary": true}], "also_known_as": "", "date_of_birth": null, "date_of_death": null, "genders": [], "languages": [], "places_of_operation": [], "biography": "", "biography_author": null, "date_of_biography": null, "external_links": [], "uuid": "d8fe957b-eef7-4011-875c-babd3a4cbb51", "source": {"name": "Vernon", "slug": "vernon"}, "source_identifier": null, "external_references": [{"id": 38320, "source": {"name": "Wikidata", "slug": "wikidata"}, "source_identifier": "Q121036888"}], "date_modified": "2023-09-06T02:15:01.974801+10:00"}]}