{"count": 28687, "next": "https://api.acmi.net.au/creators/?page=423", "previous": "https://api.acmi.net.au/creators/?page=421", "results": [{"id": 81363, "name": "Randy Quaid", "roles_in_work": [{"id": 2476417, "title": "Last dance", "work_id": 95562, "role": "cast", "role_id": 33, "is_primary": false}], "also_known_as": "Randy Randall Rudy Quaid", "date_of_birth": "1950-10-01", "date_of_death": "", "genders": [{"id": 9, "name": "Male", "slug": "male"}], "languages": [{"id": 1, "name": "English", "slug": "english"}], "places_of_operation": [{"id": 1, "name": "United States of America", "slug": "united-states-of-america"}], "biography": "Randy Randall Rudy Quaid (born October 1, 1950) is an American actor known for his roles in both serious drama and light comedy.\nHe was nominated for an Academy Award, BAFTA Award and a Golden Globe Award for his role in The Last Detail in 1973. In 1978 he co-starred as a prisoner in Midnight Express. Quaid also won a Golden Globe and was nominated for an Emmy Award for his portrayal of U.S. President Lyndon Johnson in LBJ: The Early Years (1987).\nHe also received Emmy nominations for his roles in A Streetcar Named Desire (1984) and Elvis (2005). Quaid is also known for his roles of Cousin Eddie in the National Lampoon's Vacation movies and Russell Casse in Independence Day (1996). He voiced Alameda Slim in the animated feature Home on the Range (2004).", "biography_author": "Wikidata", "date_of_biography": "2023-09-06T00:21:12.432866+10:00", "external_links": [{"id": 4949, "uri": "https://en.wikipedia.org/wiki/Randy_Quaid"}], "uuid": "8a82441d-7cb2-44fd-beba-d9576f30cccc", "source": {"name": "Vernon", "slug": "vernon"}, "source_identifier": "38130", "external_references": [{"id": 25342, "source": {"name": "Wikidata", "slug": "wikidata"}, "source_identifier": "Q316647"}, {"id": 30976, "source": {"name": "VIAF", "slug": "viaf"}, "source_identifier": "85435596"}, {"id": 30977, "source": {"name": "LOC Auth", "slug": "loc-auth"}, "source_identifier": "n85199123"}, {"id": 30978, "source": {"name": "WorldCat", "slug": "worldcat"}, "source_identifier": "lccn-n85199123"}], "date_modified": "2023-09-06T00:21:14.585229+10:00"}, {"id": 81362, "name": "Rob Morrow", "roles_in_work": [{"id": 2476416, "title": "Last dance", "work_id": 95562, "role": "cast", "role_id": 33, "is_primary": false}], "also_known_as": "", "date_of_birth": "1962-09-21", "date_of_death": "", "genders": [{"id": 9, "name": "Male", "slug": "male"}], "languages": [{"id": 1, "name": "English", "slug": "english"}], "places_of_operation": [{"id": 1, "name": "United States of America", "slug": "united-states-of-america"}], "biography": "Robert Alan Morrow (born September 21, 1962) is an American actor and director. He is known for his portrayal of Dr. Joel Fleischman on Northern Exposure, a role that garnered him three Golden Globe and two Emmy nominations for Best Actor in a Dramatic Series, and later for his role as FBI agent Don Eppes on Numb3rs.", "biography_author": "Wikidata", "date_of_biography": "2023-09-06T00:37:55.835863+10:00", "external_links": [{"id": 5002, "uri": "https://en.wikipedia.org/wiki/Rob_Morrow"}], "uuid": "8b049fcd-1922-49b3-853d-e0da21667ba8", "source": {"name": "Vernon", "slug": "vernon"}, "source_identifier": "38129", "external_references": [{"id": 25353, "source": {"name": "Wikidata", "slug": "wikidata"}, "source_identifier": "Q344567"}, {"id": 31114, "source": {"name": "VIAF", "slug": "viaf"}, "source_identifier": "119105370"}, {"id": 31115, "source": {"name": "LOC Auth", "slug": "loc-auth"}, "source_identifier": "n94016020"}, {"id": 31116, "source": {"name": "WorldCat", "slug": "worldcat"}, "source_identifier": "lccn-n94016020"}], "date_modified": "2023-09-06T00:37:57.808588+10:00"}, {"id": 81361, "name": "Sharon Stone", "roles_in_work": [{"id": 2476414, "title": "Last dance", "work_id": 95562, "role": "cast", "role_id": 33, "is_primary": false}], "also_known_as": "Sharon Vonne Stone", "date_of_birth": "1958-03-10", "date_of_death": "", "genders": [{"id": 5, "name": "Female", "slug": "female"}], "languages": [{"id": 1, "name": "English", "slug": "english"}], "places_of_operation": [{"id": 1, "name": "United States of America", "slug": "united-states-of-america"}], "biography": "Sharon Vonne Stone (born March 10, 1958) is an American actress. Known for primarily playing femme fatales and women of mystery on film and television, she became one of the most popular sex symbols of the 1990s. She is the recipient of various accolades, including a Primetime Emmy Award, a Golden Globe Award, and a nomination for an Academy Award. She received a star on the Hollywood Walk of Fame in 1995 and was named Officer of the Order of Arts and Letters in France in 2005 (Commander in 2021).After modeling in television commercials and print advertisements, Stone made her film debut as an extra in Woody Allen's dramedy Stardust Memories (1980) and played her first speaking part in Wes Craven's horror film Deadly Blessing (1981). In the 1980s, she appeared in such pictures as Irreconcilable Differences (1984), King Solomon's Mines (1985), Cold Steel (1987), and Above the Law (1988). She had a breakthrough with her part in Paul Verhoeven's science fiction action film Total Recall (1990), before rising to international recognition when she portrayed Catherine Tramell in another Verhoeven film, the erotic thriller Basic Instinct (1992), for which she earned her first Golden Globe Award nomination for Best Actress in a Motion Picture – Drama.\nStone's performance as a trophy wife in Martin Scorsese's epic crime drama Casino (1995) earned her the best reviews of her career, which garnered her a Golden Globe Award along with an Academy Award nomination for Best Actress. Her other notable films include Sliver (1993), The Specialist (1994), The Quick and the Dead (1995), Sphere (1998), The Mighty (1998), The Muse (1999), Catwoman (2004), Broken Flowers (2005), Alpha Dog (2006), Bobby (2006), Lovelace (2013), Fading Gigolo (2013), The Disaster Artist (2017), Rolling Thunder Revue: A Bob Dylan Story by Martin Scorsese (2019), and The Laundromat (2019).\nOn television, Stone has had leading and supporting roles in productions such as the ABC miniseries War and Remembrance (1987), the HBO television film If These Walls Could Talk 2 (2000), Steven Soderbergh's Mosaic (2017) and Ryan Murphy's Ratched (2020). She made guest appearances in The Practice (2004) and Law & Order: Special Victims Unit (2010), winning the Primetime Emmy Award for Outstanding Guest Actress in a Drama Series for the former.", "biography_author": "Wikidata", "date_of_biography": "2023-09-06T01:13:46.184817+10:00", "external_links": [{"id": 5151, "uri": "https://en.wikipedia.org/wiki/Sharon_Stone"}], "uuid": "f2ac046a-c553-490f-8955-d84c0702aefa", "source": {"name": "Vernon", "slug": "vernon"}, "source_identifier": "38128", "external_references": [{"id": 25150, "source": {"name": "Wikidata", "slug": "wikidata"}, "source_identifier": "Q62975"}, {"id": 31492, "source": {"name": "VIAF", "slug": "viaf"}, "source_identifier": "61688646"}, {"id": 31493, "source": {"name": "LOC Auth", "slug": "loc-auth"}, "source_identifier": "n95111574"}, {"id": 31494, "source": {"name": "WorldCat", "slug": "worldcat"}, "source_identifier": "lccn-n95111574"}], "date_modified": "2023-09-06T01:13:48.329550+10:00"}, {"id": 81360, "name": "Reinhold Schunzel", "roles_in_work": [{"id": 2107149, "title": "Balalaika", "work_id": 95560, "role": "director", "role_id": 938, "is_primary": true}], "also_known_as": "", "date_of_birth": "1886-11-07", "date_of_death": "1954-11-11", "genders": [{"id": 9, "name": "Male", "slug": "male"}], "languages": [{"id": 5, "name": "German", "slug": "german"}], "places_of_operation": [{"id": 18, "name": "Germany", "slug": "germany"}], "biography": "Reinhold Schünzel (7 November 1888 – 11 November 1954) was a German actor and director, active in both Germany and the United States. The son of a German father and a Jewish mother, he was born in St. Pauli, the poorest part of Hamburg. Despite being of Jewish ancestry, Schünzel was allowed by the Nazis to continue making films for several years until he left in 1937 to live abroad.", "biography_author": "Wikidata", "date_of_biography": "2023-08-01T16:43:18.870040+10:00", "external_links": [{"id": 2923, "uri": "https://en.wikipedia.org/wiki/Reinhold_Sch%C3%BCnzel"}], "uuid": "86dc0bfa-05f5-4f70-9d63-230794162834", "source": {"name": "Vernon", "slug": "vernon"}, "source_identifier": "27246", "external_references": [{"id": 12431, "source": {"name": "Wikidata", "slug": "wikidata"}, "source_identifier": "Q28998"}, {"id": 12432, "source": {"name": "VIAF", "slug": "viaf"}, "source_identifier": "69127222"}, {"id": 12433, "source": {"name": "LOC Auth", "slug": "loc-auth"}, "source_identifier": "n90669371"}, {"id": 12434, "source": {"name": "WorldCat", "slug": "worldcat"}, "source_identifier": "lccn-n90669371"}], "date_modified": "2023-09-06T00:25:08.938978+10:00"}, {"id": 81359, "name": "Harold Lowenstein", "roles_in_work": [{"id": 918102, "title": "London's country", "work_id": 95556, "role": "co-director", "role_id": 959, "is_primary": true}], "also_known_as": "", "date_of_birth": null, "date_of_death": null, "genders": [], "languages": [], "places_of_operation": [], "biography": "", "biography_author": null, "date_of_biography": null, "external_links": [], "uuid": "db4e6407-da3c-403e-be4c-e54c9b7583a0", "source": {"name": "Vernon", "slug": "vernon"}, "source_identifier": null, "external_references": [{"id": 41539, "source": {"name": "Wikidata", "slug": "wikidata"}, "source_identifier": "Q121315215"}], "date_modified": "2023-09-05T20:29:39.114180+10:00"}, {"id": 81358, "name": "Frederich Haldane", "roles_in_work": [{"id": 2467372, "title": "The Life story of John Lee, or, The Man they could not hang", "work_id": 95528, "role": "co-producer", "role_id": 915, "is_primary": true}], "also_known_as": "", "date_of_birth": "", "date_of_death": "", "genders": [], "languages": [], "places_of_operation": [], "biography": "", "biography_author": null, "date_of_biography": "2023-08-14T11:18:49.987098+10:00", "external_links": [], "uuid": "40d367c0-75f2-4269-a372-21a3d5db17d4", "source": {"name": "Vernon", "slug": "vernon"}, "source_identifier": "19270", "external_references": [{"id": 41741, "source": {"name": "Wikidata", "slug": "wikidata"}, "source_identifier": "Q121079163"}], "date_modified": "2023-09-05T19:53:16.710131+10:00"}, {"id": 81357, "name": "George Melies", "roles_in_work": [], "also_known_as": "", "date_of_birth": null, "date_of_death": null, "genders": [], "languages": [], "places_of_operation": [], "biography": "", "biography_author": null, "date_of_biography": null, "external_links": [], "uuid": "48fa1506-2003-4dfd-9c4c-fd127f3db31c", "source": {"name": "Vernon", "slug": "vernon"}, "source_identifier": null, "external_references": [], "date_modified": "2023-06-14T16:33:30.576250+10:00"}, {"id": 81356, "name": "Tom Keegan", "roles_in_work": [{"id": 918083, "title": "Yes, Virginia, there is a Santa Claus", "work_id": 95502, "role": "co-director", "role_id": 959, "is_primary": true}], "also_known_as": "", "date_of_birth": null, "date_of_death": null, "genders": [], "languages": [], "places_of_operation": [], "biography": "", "biography_author": null, "date_of_biography": null, "external_links": [], "uuid": "0d70e4eb-38fc-47bb-9cc7-0c16fdd27273", "source": {"name": "Vernon", "slug": "vernon"}, "source_identifier": null, "external_references": [{"id": 36776, "source": {"name": "Wikidata", "slug": "wikidata"}, "source_identifier": "Q121126005"}], "date_modified": "2023-09-06T01:53:50.053136+10:00"}, {"id": 81355, "name": "Mort Green", "roles_in_work": [{"id": 918081, "title": "Yes, Virginia, there is a Santa Claus", "work_id": 95502, "role": "co-producer", "role_id": 915, "is_primary": true}], "also_known_as": "", "date_of_birth": null, "date_of_death": null, "genders": [], "languages": [], "places_of_operation": [], "biography": "", "biography_author": null, "date_of_biography": null, "external_links": [], "uuid": "dcf65a3a-cd50-4710-a02c-6271983fc060", "source": {"name": "Vernon", "slug": "vernon"}, "source_identifier": null, "external_references": [{"id": 35265, "source": {"name": "Wikidata", "slug": "wikidata"}, "source_identifier": "Q121036918"}], "date_modified": "2023-09-05T23:21:29.374580+10:00"}, {"id": 81354, "name": "Simon Scanlon", "roles_in_work": [{"id": 2239846, "title": "Film appreciation: film as an art", "work_id": 95500, "role": "co-producer", "role_id": 915, "is_primary": true}, {"id": 2239899, "title": "Film appreciation: nature of the film medium", "work_id": 95498, "role": "co-producer", "role_id": 915, "is_primary": true}, {"id": 2239713, "title": "Film appreciation: language of the film", "work_id": 95499, "role": "co-producer", "role_id": 915, "is_primary": true}], "also_known_as": "", "date_of_birth": "", "date_of_death": "", "genders": [], "languages": [], "places_of_operation": [], "biography": "", "biography_author": null, "date_of_biography": "2023-05-09T16:51:59.073616+10:00", "external_links": [], "uuid": "166f9973-212b-4946-8ea5-45802bbbca91", "source": {"name": "Vernon", "slug": "vernon"}, "source_identifier": "28856", "external_references": [{"id": 42032, "source": {"name": "Wikidata", "slug": "wikidata"}, "source_identifier": "Q121223364"}], "date_modified": "2023-09-06T01:20:34.303827+10:00"}]}