{"count": 28681, "next": "https://api.acmi.net.au/creators/?page=2037", "previous": "https://api.acmi.net.au/creators/?page=2035", "results": [{"id": 21785, "name": "Christine Sammers", "roles_in_work": [{"id": 2774600, "title": "English at work", "work_id": 83061, "role": "co-producer", "role_id": 915, "is_primary": true}, {"id": 769185, "title": "Arguing the Toss of a Cat", "work_id": 79247, "role": "director", "role_id": 938, "is_primary": true}, {"id": 2774602, "title": "English at work", "work_id": 83061, "role": "director", "role_id": 938, "is_primary": true}, {"id": 2774657, "title": "The Big gamble", "work_id": 83891, "role": "producer/director", "role_id": 31, "is_primary": true}, {"id": 2776101, "title": "Pieces in the Puzzle", "work_id": 81621, "role": "producer/director", "role_id": 31, "is_primary": true}], "also_known_as": "", "date_of_birth": "", "date_of_death": "", "genders": [], "languages": [], "places_of_operation": [], "biography": "", "biography_author": null, "date_of_biography": "2023-05-09T19:29:38.877047+10:00", "external_links": [], "uuid": "3f263ac4-a526-400e-b6b5-538ab830067d", "source": {"name": "Vernon", "slug": "vernon"}, "source_identifier": "16932", "external_references": [{"id": 36831, "source": {"name": "Wikidata", "slug": "wikidata"}, "source_identifier": "Q121034908"}], "date_modified": "2025-03-14T18:45:47.822469+11:00"}, {"id": 21784, "name": "Goldcrest Films", "roles_in_work": [{"id": 2083608, "title": "Ageing", "work_id": 79237, "role": "producer", "role_id": 1089, "is_primary": true}, {"id": 1996561, "title": "Gandhi [DVD]", "work_id": 92761, "role": "production company", "role_id": 941, "is_primary": true}, {"id": 1995154, "title": "Absolute beginners", "work_id": 91202, "role": "production company", "role_id": 941, "is_primary": true}, {"id": 875713, "title": "Forever young", "work_id": 89602, "role": "production company", "role_id": 941, "is_primary": true}], "also_known_as": "", "date_of_birth": "", "date_of_death": "", "genders": [], "languages": [], "places_of_operation": [], "biography": "", "biography_author": null, "date_of_biography": "2023-05-09T11:53:45.528645+10:00", "external_links": [], "uuid": "8fe21810-71b5-4839-a274-0f1d3632085e", "source": {"name": "Vernon", "slug": "vernon"}, "source_identifier": "8777", "external_references": [], "date_modified": "2023-06-14T16:33:30.576250+10:00"}, {"id": 21778, "name": "Ansus Films", "roles_in_work": [{"id": 2302702, "title": "Sky pirates", "work_id": 79220, "role": "production company", "role_id": 941, "is_primary": true}, {"id": 874711, "title": "Headline hunters", "work_id": 89056, "role": "production company", "role_id": 941, "is_primary": true}], "also_known_as": "", "date_of_birth": "", "date_of_death": "", "genders": [], "languages": [], "places_of_operation": [], "biography": "", "biography_author": null, "date_of_biography": "2023-05-09T18:39:49.973164+10:00", "external_links": [], "uuid": "0d57ae11-aedf-4bbd-bfe2-caa843bdf7b1", "source": {"name": "Vernon", "slug": "vernon"}, "source_identifier": "5284", "external_references": [{"id": 40053, "source": {"name": "Wikidata", "slug": "wikidata"}, "source_identifier": "Q121126502"}], "date_modified": "2023-09-05T17:41:07.898597+10:00"}, {"id": 21777, "name": "Brocket Productions", "roles_in_work": [{"id": 2251730, "title": "Robin Hood junior", "work_id": 79219, "role": "production company", "role_id": 941, "is_primary": true}], "also_known_as": "", "date_of_birth": "", "date_of_death": "", "genders": [], "languages": [], "places_of_operation": [], "biography": "", "biography_author": null, "date_of_biography": "2023-05-09T17:12:14.526616+10:00", "external_links": [], "uuid": "171e76a7-ea6e-4fcd-9cc3-6848932635dd", "source": {"name": "Vernon", "slug": "vernon"}, "source_identifier": "6068", "external_references": [{"id": 34022, "source": {"name": "Wikidata", "slug": "wikidata"}, "source_identifier": "Q121035993"}], "date_modified": "2023-09-05T18:12:01.560729+10:00"}, {"id": 21776, "name": "Jan Darnley-Smith", "roles_in_work": [{"id": 876359, "title": "Hoverbug", "work_id": 90043, "role": "director", "role_id": 938, "is_primary": true}, {"id": 2238330, "title": "Fern the red deer", "work_id": 79216, "role": "director", "role_id": 938, "is_primary": true}], "also_known_as": "", "date_of_birth": "", "date_of_death": "", "genders": [], "languages": [], "places_of_operation": [], "biography": "", "biography_author": null, "date_of_biography": "2023-05-09T16:49:20.566731+10:00", "external_links": [], "uuid": "44ace0f9-7e1f-407e-9419-e7097edbaf50", "source": {"name": "Vernon", "slug": "vernon"}, "source_identifier": "21367", "external_references": [{"id": 37273, "source": {"name": "Wikidata", "slug": "wikidata"}, "source_identifier": "Q113329372"}], "date_modified": "2023-09-05T21:06:17.999172+10:00"}, {"id": 21775, "name": "Adrian Worker", "roles_in_work": [{"id": 2238328, "title": "Fern the red deer", "work_id": 79216, "role": "producer", "role_id": 1089, "is_primary": true}], "also_known_as": "", "date_of_birth": "", "date_of_death": "", "genders": [], "languages": [], "places_of_operation": [], "biography": "", "biography_author": null, "date_of_biography": "2023-05-09T16:49:20.219869+10:00", "external_links": [], "uuid": "62528856-5928-4ef6-b837-761c8ff8a979", "source": {"name": "Vernon", "slug": "vernon"}, "source_identifier": "14656", "external_references": [{"id": 43228, "source": {"name": "Wikidata", "slug": "wikidata"}, "source_identifier": "Q121271047"}], "date_modified": "2023-09-05T17:17:03.907232+10:00"}, {"id": 21774, "name": "De Lane Lea", "roles_in_work": [{"id": 2238323, "title": "Fern the red deer", "work_id": 79216, "role": "production company", "role_id": 941, "is_primary": true}], "also_known_as": "", "date_of_birth": "", "date_of_death": "", "genders": [], "languages": [], "places_of_operation": [], "biography": "", "biography_author": null, "date_of_biography": "2023-05-09T16:49:19.741095+10:00", "external_links": [], "uuid": "adc034aa-15fa-48c3-88ee-20e46c13f93c", "source": {"name": "Vernon", "slug": "vernon"}, "source_identifier": "7362", "external_references": [{"id": 38994, "source": {"name": "Wikidata", "slug": "wikidata"}, "source_identifier": "Q121040151"}], "date_modified": "2023-09-05T19:04:23.691886+10:00"}, {"id": 21771, "name": "Robert Totten", "roles_in_work": [{"id": 865353, "title": "Huckleberry Finn", "work_id": 79211, "role": "director", "role_id": 938, "is_primary": true}], "also_known_as": "", "date_of_birth": "1937-02-05", "date_of_death": "1995-01-27", "genders": [{"id": 9, "name": "Male", "slug": "male"}], "languages": [{"id": 1, "name": "English", "slug": "english"}], "places_of_operation": [{"id": 1, "name": "United States of America", "slug": "united-states-of-america"}], "biography": "Robert Charles Totten (February 5, 1937 – January 27, 1995) was an American television director, writer, and actor, best known for directing many Gunsmoke episodes between 1966 and 1971.", "biography_author": "Wikidata", "date_of_biography": "2023-08-01T16:52:04.660215+10:00", "external_links": [{"id": 5041, "uri": "https://en.wikipedia.org/wiki/Robert_Totten"}], "uuid": "b6dd0a23-6e36-4648-b6d9-3fed3a643500", "source": {"name": "Vernon", "slug": "vernon"}, "source_identifier": "27898", "external_references": [{"id": 12741, "source": {"name": "Wikidata", "slug": "wikidata"}, "source_identifier": "Q3436417"}, {"id": 12742, "source": {"name": "VIAF", "slug": "viaf"}, "source_identifier": "87237324"}, {"id": 12743, "source": {"name": "LOC Auth", "slug": "loc-auth"}, "source_identifier": "no2010189784"}, {"id": 12744, "source": {"name": "WorldCat", "slug": "worldcat"}, "source_identifier": "lccn-no2010189784"}], "date_modified": "2023-09-13T12:32:22.110781+10:00"}, {"id": 21769, "name": "Tony Tenser", "roles_in_work": [{"id": 1983970, "title": "Black Beauty", "work_id": 79210, "role": "producer", "role_id": 1089, "is_primary": true}, {"id": 2354038, "title": "The Haunted house of horror", "work_id": 87977, "role": "producer", "role_id": 1089, "is_primary": true}], "also_known_as": "", "date_of_birth": "1920-08-10", "date_of_death": "2007-12-05", "genders": [{"id": 9, "name": "Male", "slug": "male"}], "languages": [{"id": 1, "name": "English", "slug": "english"}], "places_of_operation": [{"id": 10, "name": "United Kingdom", "slug": "united-kingdom"}], "biography": "Samuel Anthony Tenser (10 August 1920 – 5 December 2007) was an English-born film producer of Lithuanian-Jewish descent. He began as the producer of low budget exploitation films before moving into mainstream productions.", "biography_author": "Wikidata", "date_of_biography": "2023-08-01T17:21:29.322636+10:00", "external_links": [{"id": 5295, "uri": "https://en.wikipedia.org/wiki/Tony_Tenser"}], "uuid": "ed6b9b1f-67b1-4d13-bcc3-4e8de43e2ef4", "source": {"name": "Vernon", "slug": "vernon"}, "source_identifier": "29907", "external_references": [{"id": 25078, "source": {"name": "Wikidata", "slug": "wikidata"}, "source_identifier": "Q7823541"}, {"id": 31861, "source": {"name": "VIAF", "slug": "viaf"}, "source_identifier": "52798201"}, {"id": 31862, "source": {"name": "LOC Auth", "slug": "loc-auth"}, "source_identifier": "nr92004632"}, {"id": 31863, "source": {"name": "WorldCat", "slug": "worldcat"}, "source_identifier": "lccn-nr92004632"}], "date_modified": "2023-09-06T01:56:52.293035+10:00"}, {"id": 21764, "name": "Karel Kachyna", "roles_in_work": [{"id": 2648438, "title": "I Can jump puddles = I'm jumping over puddles again", "work_id": 79208, "role": "director", "role_id": 938, "is_primary": true}], "also_known_as": "", "date_of_birth": null, "date_of_death": null, "genders": [], "languages": [], "places_of_operation": [], "biography": "", "biography_author": null, "date_of_biography": null, "external_links": [], "uuid": "89c95ef7-18e8-4ba7-a860-62b6de2ad712", "source": {"name": "Vernon", "slug": "vernon"}, "source_identifier": "22982", "external_references": [], "date_modified": "2025-03-05T13:45:46.263883+11:00"}]}