{"count": 28687, "next": "https://api.acmi.net.au/creators/?page=2815", "previous": "https://api.acmi.net.au/creators/?page=2813", "results": [{"id": 8746, "name": "Davide Grassi", "roles_in_work": [{"id": 2633080, "title": "Ron's story", "work_id": 108666, "role": "creator", "role_id": 968, "is_primary": true}, {"id": 2633071, "title": "Nuclear body", "work_id": 108665, "role": "creator", "role_id": 968, "is_primary": true}, {"id": 2633072, "title": "Nuclear body", "work_id": 108665, "role": "director", "role_id": 938, "is_primary": true}, {"id": 2633081, "title": "Ron's story", "work_id": 108666, "role": "executive producer", "role_id": 916, "is_primary": false}], "also_known_as": "", "date_of_birth": "", "date_of_death": "", "genders": [], "languages": [], "places_of_operation": [], "biography": "Davide Grassi\nBorn 1970", "biography_author": null, "date_of_biography": "2025-02-28T22:41:04.273976+11:00", "external_links": [], "uuid": "bf14d215-cdb1-4f8c-86be-3650a0cae86f", "source": {"name": "Vernon", "slug": "vernon"}, "source_identifier": "111799", "external_references": [{"id": 41403, "source": {"name": "Wikidata", "slug": "wikidata"}, "source_identifier": "Q121079078"}], "date_modified": "2025-02-28T22:41:04.274315+11:00"}, {"id": 8745, "name": "Nigel Buesst", "roles_in_work": [{"id": 2043153, "title": "Jazz scrapbook", "work_id": 78443, "role": "director", "role_id": 938, "is_primary": true}, {"id": 2165459, "title": "Jacka V.C.: a film by Nigel Buesst and Ross Cooper", "work_id": 69182, "role": "director", "role_id": 938, "is_primary": true}, {"id": 2122374, "title": "Bonjour Balwyn", "work_id": 86023, "role": "director", "role_id": 938, "is_primary": true}, {"id": 2712028, "title": "The Destruction of St. Patrick's College 1971", "work_id": 66737, "role": "director", "role_id": 938, "is_primary": true}, {"id": 2619477, "title": "Come out fighting", "work_id": 108664, "role": "director", "role_id": 938, "is_primary": true}, {"id": 864625, "title": "The Rise and fall of Squizzy Taylor", "work_id": 78149, "role": "director", "role_id": 938, "is_primary": true}, {"id": 2619478, "title": "Come out fighting", "work_id": 108664, "role": "creator", "role_id": 968, "is_primary": true}, {"id": 2158532, "title": "Nimmo St", "work_id": 89888, "role": "camera operator", "role_id": 931, "is_primary": false}, {"id": 753866, "title": "Soundscape", "work_id": 73023, "role": "cinematographer", "role_id": 32, "is_primary": false}, {"id": 2393068, "title": "Woman in a house", "work_id": 120100, "role": "editor", "role_id": 918, "is_primary": true}, {"id": 2130182, "title": "Carlton New Wave: Question and Answer Session", "work_id": 117429, "role": "interviewee", "role_id": 496, "is_primary": false}, {"id": 2646720, "title": "The Twentieth", "work_id": 74108, "role": "producer", "role_id": 1089, "is_primary": true}, {"id": 2644896, "title": "Fun radio!", "work_id": 67887, "role": "producer/director", "role_id": 31, "is_primary": true}, {"id": 2680985, "title": "Daydreams (TEFC)", "work_id": 66648, "role": "producer/director", "role_id": 31, "is_primary": true}, {"id": 932873, "title": "Come out fighting", "work_id": 78152, "role": "producer/director", "role_id": 31, "is_primary": true}, {"id": 2130183, "title": "Carlton + Godard = cinema [DVD]", "work_id": 116563, "role": "producer/director", "role_id": 31, "is_primary": true}], "also_known_as": "", "date_of_birth": "1938-04-30", "date_of_death": "", "genders": [{"id": 9, "name": "Male", "slug": "male"}], "languages": [], "places_of_operation": [{"id": 3, "name": "Australia", "slug": "australia"}], "biography": "Nigel Buesst (born 30 April 1938) is an Australian filmmaker from Melbourne.  After graduating B.Com in 1960 from Melbourne University he headed overseas to London and worked as an assistant editor at Shepperton Studios.On returning to Melbourne in 1962 he worked for some months at the ABC's Ripponlea newsroom, and freelanced as a cameraman on various productions. He also started directing his own films, beginning with “Fun Radio” in 1963.\nAfter the success of his film \"Rise and Fall of Squizzy Taylor\"  he began teaching at the Swinburne University of Technology (1970-1984)  while continuing to make films on a diverse range of subjects. \nHe was also a co-founder and the artistic director of the St Kilda Film Festival from 1986 to 1990.Buesst has been described as \"a living legend of Melbourne's film scene\"  and was a figure in the \"Carlton wave\" of Australian filmmaking.", "biography_author": "Wikidata", "date_of_biography": "2023-09-05T23:31:21.933270+10:00", "external_links": [{"id": 4781, "uri": "https://en.wikipedia.org/wiki/Nigel_Buesst"}], "uuid": "4eb9912d-f265-4139-9a1a-8efb84203304", "source": {"name": "Vernon", "slug": "vernon"}, "source_identifier": "111523", "external_references": [{"id": 25402, "source": {"name": "Wikidata", "slug": "wikidata"}, "source_identifier": "Q16104830"}, {"id": 30528, "source": {"name": "VIAF", "slug": "viaf"}, "source_identifier": "27147094990625080104"}, {"id": 30529, "source": {"name": "WorldCat", "slug": "worldcat"}, "source_identifier": "viaf-27147094990625080104"}], "date_modified": "2025-03-12T00:09:14.705239+11:00"}, {"id": 8740, "name": "Karly Fontaine", "roles_in_work": [{"id": 2633067, "title": "Self construct", "work_id": 114095, "role": "creator", "role_id": 968, "is_primary": true}], "also_known_as": "", "date_of_birth": "", "date_of_death": "", "genders": [], "languages": [], "places_of_operation": [], "biography": "", "biography_author": null, "date_of_biography": "2023-08-11T12:51:58.018962+10:00", "external_links": [], "uuid": "b340468e-bc8a-4223-b7f0-e7f2afda6ae4", "source": {"name": "Vernon", "slug": "vernon"}, "source_identifier": "111707", "external_references": [], "date_modified": "2025-02-28T22:40:54.604624+11:00"}, {"id": 8738, "name": "Hans Breder", "roles_in_work": [{"id": 2633050, "title": "The Nazi loop", "work_id": 108660, "role": "creator", "role_id": 968, "is_primary": true}], "also_known_as": "", "date_of_birth": "", "date_of_death": "", "genders": [], "languages": [], "places_of_operation": [], "biography": "", "biography_author": null, "date_of_biography": "2023-08-14T11:25:09.530666+10:00", "external_links": [], "uuid": "f1a67511-64d6-4173-a826-e03a482558b4", "source": {"name": "Vernon", "slug": "vernon"}, "source_identifier": "111596", "external_references": [], "date_modified": "2025-02-28T22:40:39.561207+11:00"}, {"id": 8736, "name": "ACMI curatorial team", "roles_in_work": [{"id": 2633047, "title": "Remembrance: Persistence of vision [exhibition documentation]", "work_id": 108654, "role": "creator", "role_id": 968, "is_primary": true}, {"id": 2633048, "title": "Remembrance: Reverberation [exhibition documentation]", "work_id": 108655, "role": "creator", "role_id": 968, "is_primary": true}, {"id": 2676467, "title": "Swerve", "work_id": 108238, "role": "curator", "role_id": 501, "is_primary": false}, {"id": 2685634, "title": "Pepper's ghost effect, triangles, cyan and red", "work_id": 107655, "role": "curator", "role_id": 501, "is_primary": false}], "also_known_as": "", "date_of_birth": "", "date_of_death": "", "genders": [], "languages": [], "places_of_operation": [], "biography": "", "biography_author": null, "date_of_biography": "2023-08-30T03:40:01.797805+10:00", "external_links": [], "uuid": "987142f9-df9d-4b23-9a39-f1950738a5f1", "source": {"name": "Vernon", "slug": "vernon"}, "source_identifier": "111388", "external_references": [], "date_modified": "2025-03-11T11:56:25.879782+11:00"}, {"id": 8733, "name": "Angelo Gigliotti", "roles_in_work": [{"id": 2287511, "title": "Winter's harvest = Raccolta d'inverno", "work_id": 76220, "role": "co-producer", "role_id": 915, "is_primary": true}, {"id": 2633040, "title": "Winter's harvest", "work_id": 108653, "role": "writer", "role_id": 939, "is_primary": true}], "also_known_as": "", "date_of_birth": "", "date_of_death": "", "genders": [], "languages": [], "places_of_operation": [], "biography": "", "biography_author": null, "date_of_biography": "2023-05-09T18:12:19.814023+10:00", "external_links": [], "uuid": "f4e77333-ceca-4d9b-9bb8-45d30e98c7b7", "source": {"name": "Vernon", "slug": "vernon"}, "source_identifier": "1667", "external_references": [{"id": 34333, "source": {"name": "Wikidata", "slug": "wikidata"}, "source_identifier": "Q121337169"}], "date_modified": "2025-02-28T22:40:27.947877+11:00"}, {"id": 8732, "name": "Wolfgang Kress", "roles_in_work": [{"id": 828437, "title": "Ride against uranium", "work_id": 97222, "role": "director", "role_id": 938, "is_primary": true}, {"id": 859360, "title": "Telecommunications and industrial electronics", "work_id": 73583, "role": "director", "role_id": 938, "is_primary": true}, {"id": 2287537, "title": "Winter's harvest = Raccolta d'inverno", "work_id": 76220, "role": "cinematographer", "role_id": 32, "is_primary": false}, {"id": 2381601, "title": "Ceremony", "work_id": 117278, "role": "cinematographer", "role_id": 32, "is_primary": false}, {"id": 2750723, "title": "Circus", "work_id": 97465, "role": "director of photography", "role_id": 925, "is_primary": false}, {"id": 2633039, "title": "Winter's harvest", "work_id": 108653, "role": "director of photography", "role_id": 925, "is_primary": false}], "also_known_as": "", "date_of_birth": "", "date_of_death": "", "genders": [], "languages": [], "places_of_operation": [], "biography": "", "biography_author": null, "date_of_biography": "2023-07-26T03:37:36.034800+10:00", "external_links": [], "uuid": "fe6af6f8-2fec-49be-b3f4-75ae80a2ee12", "source": {"name": "Vernon", "slug": "vernon"}, "source_identifier": "1666", "external_references": [{"id": 40471, "source": {"name": "Wikidata", "slug": "wikidata"}, "source_identifier": "Q121299146"}], "date_modified": "2025-03-13T00:27:32.576592+11:00"}, {"id": 8726, "name": "Bruce McDonald", "roles_in_work": [{"id": 1998221, "title": "Hard core logo = Hardcore logo", "work_id": 93685, "role": "director", "role_id": 938, "is_primary": true}, {"id": 3106929, "title": "Blue", "work_id": 108652, "role": "producer", "role_id": 1089, "is_primary": true}], "also_known_as": "", "date_of_birth": "28 MAY 1959", "date_of_death": "", "genders": [{"id": 9, "name": "Male", "slug": "male"}], "languages": [{"id": 1, "name": "English", "slug": "english"}], "places_of_operation": [{"id": 36, "name": "Canada", "slug": "canada"}], "biography": "Bruce McDonald (born May 28, 1959) is a Canadian film and television director, writer, and producer. Born in Kingston, Ontario, he rose to prominence in the 1980s as part of the loosely-affiliated Toronto New Wave.McDonald has directed more than a dozen features films over the course of his three-decade-long filmmaking career. The Hollywood Reporter has called him an \"iconoclastic filmmaker\". Several of his films, ranging from mockumentaries to horror films, have attracted cult followings. His most notable films include Roadkill (1989), Highway 61 (1991), Hard Core Logo (1996), Pontypool (2008), Trigger (2010), and Hellions (2015). Hard Core Logo has been frequently ranked amongst the greatest movies ever to come out of Canada. Source: Wikidata; 01/08/2023", "biography_author": null, "date_of_biography": "2025-08-20T15:08:32.474398+10:00", "external_links": [{"id": 3688, "uri": "https://en.wikipedia.org/wiki/Bruce_McDonald_(director)"}], "uuid": "2e8d72a6-58b7-42e2-89c4-08c9c6f40e06", "source": {"name": "Vernon", "slug": "vernon"}, "source_identifier": "1731", "external_references": [{"id": 25362, "source": {"name": "Wikidata", "slug": "wikidata"}, "source_identifier": "Q1249881"}, {"id": 27620, "source": {"name": "VIAF", "slug": "viaf"}, "source_identifier": "53743703"}, {"id": 27621, "source": {"name": "LOC Auth", "slug": "loc-auth"}, "source_identifier": "no96028659"}, {"id": 27622, "source": {"name": "WorldCat", "slug": "worldcat"}, "source_identifier": "lccn-no96028659"}], "date_modified": "2025-08-20T15:08:32.474639+10:00"}, {"id": 8722, "name": "David Cronenberg", "roles_in_work": [{"id": 2335353, "title": "The Brood", "work_id": 87835, "role": "director", "role_id": 938, "is_primary": true}, {"id": 2348922, "title": "The Fly", "work_id": 85015, "role": "director", "role_id": 938, "is_primary": true}, {"id": 1999422, "title": "Shivers", "work_id": 94446, "role": "director", "role_id": 938, "is_primary": true}, {"id": 1999441, "title": "Scanners", "work_id": 94454, "role": "director", "role_id": 938, "is_primary": true}, {"id": 884079, "title": "M. Butterfly [NTSC]", "work_id": 94439, "role": "director", "role_id": 938, "is_primary": true}, {"id": 819913, "title": "Rabid [DVD] (D)", "work_id": 94450, "role": "director", "role_id": 938, "is_primary": true}, {"id": 2614152, "title": "The Naked lunch", "work_id": 83192, "role": "director", "role_id": 938, "is_primary": true}, {"id": 2343237, "title": "The Dead zone", "work_id": 87012, "role": "director", "role_id": 938, "is_primary": true}, {"id": 2181266, "title": "Dead ringers", "work_id": 84666, "role": "director", "role_id": 938, "is_primary": true}, {"id": 2223063, "title": "eXistenZ = Existenz [DVD]", "work_id": 91241, "role": "director", "role_id": 938, "is_primary": true}, {"id": 1993699, "title": "Videodrome", "work_id": 89425, "role": "director", "role_id": 938, "is_primary": true}, {"id": 3106925, "title": "Blue", "work_id": 108652, "role": "cast", "role_id": 33, "is_primary": false}, {"id": 2223062, "title": "eXistenZ = Existenz [DVD]", "work_id": 91241, "role": "co-producer", "role_id": 915, "is_primary": true}, {"id": 2181260, "title": "Dead ringers", "work_id": 84666, "role": "co-producer", "role_id": 915, "is_primary": true}, {"id": 805681, "title": "Crash (E)", "work_id": 90498, "role": "producer/director", "role_id": 31, "is_primary": true}], "also_known_as": "", "date_of_birth": "1943", "date_of_death": null, "genders": [{"id": 9, "name": "Male", "slug": "male"}], "languages": [{"id": 1, "name": "English", "slug": "english"}], "places_of_operation": [{"id": 36, "name": "Canada", "slug": "canada"}], "biography": "David Paul Cronenberg  (born March 15, 1943) is a Canadian film director, screenwriter, and actor. He is one of the principal originators of what is commonly known as the body horror genre, with his films exploring visceral bodily transformation, infection, technology, and the intertwining of the psychological with the physical. Cronenberg is best known for exploring these themes through sci-fi horror films such as Shivers (1975), Scanners (1981),  Videodrome (1983), and The Fly (1986), though he has also worked in multiple genres throughout his career.Cronenberg's films have polarized critics and audiences alike; he has earned critical acclaim and has sparked controversy for his depictions of gore and violence. The Village Voice called him \"the most audacious and challenging narrative director in the English-speaking world\". His films have won numerous awards, including, for Crash, the Special Jury Prize at the 1996 Cannes Film Festival, a unique award that is distinct from the Jury Prize as it is not given annually, but only at the request of the official jury, who in this case gave the award \"for originality, for daring, and for audacity\".In the 2000s and 2010s, Cronenberg collaborated on several films with Viggo Mortensen, including A History of Violence (2005), Eastern Promises (2007), and A Dangerous Method (2011). He competed for the Palme d'Or at the 2012 Cannes Film Festival with Cosmopolis.", "biography_author": "Wikidata", "date_of_biography": "2022-05-19T11:12:26.145970+10:00", "external_links": [{"id": 1881, "uri": "https://en.wikipedia.org/wiki/David_Cronenberg"}], "uuid": "f07e0f3e-0cd2-422e-b6ff-31b10a92891d", "source": {"name": "Vernon", "slug": "vernon"}, "source_identifier": "414", "external_references": [{"id": 8173, "source": {"name": "Wikidata", "slug": "wikidata"}, "source_identifier": "Q55422"}, {"id": 8174, "source": {"name": "VIAF", "slug": "viaf"}, "source_identifier": "97752099"}, {"id": 8175, "source": {"name": "LOC Auth", "slug": "loc-auth"}, "source_identifier": "n83327625"}, {"id": 8176, "source": {"name": "WorldCat", "slug": "worldcat"}, "source_identifier": "lccn-n83327625"}], "date_modified": "2025-08-20T15:08:29.907959+10:00"}, {"id": 8720, "name": "Lyndal Jones", "roles_in_work": [{"id": 3097907, "title": "Spitfire 123", "work_id": 108650, "role": "creator", "role_id": 968, "is_primary": true}], "also_known_as": "", "date_of_birth": "", "date_of_death": "", "genders": [], "languages": [], "places_of_operation": [], "biography": "", "biography_author": null, "date_of_biography": "2023-08-14T10:48:38.744986+10:00", "external_links": [], "uuid": "31e5dbdd-f1e9-4dbf-a772-3036d5395105", "source": {"name": "Vernon", "slug": "vernon"}, "source_identifier": "1642", "external_references": [], "date_modified": "2025-05-20T22:35:15.896072+10:00"}]}