{"count": 28687, "next": "https://api.acmi.net.au/creators/?page=2640", "previous": "https://api.acmi.net.au/creators/?page=2638", "results": [{"id": 12178, "name": "Ian MacNeill", "roles_in_work": [{"id": 2646465, "title": "Stress", "work_id": 73297, "role": "director", "role_id": 938, "is_primary": true}, {"id": 855966, "title": "New nation in the West Indies. Part 1. Background to federation", "work_id": 70858, "role": "director", "role_id": 938, "is_primary": true}, {"id": 2676866, "title": "Age of dissent", "work_id": 64595, "role": "co-producer", "role_id": 915, "is_primary": true}, {"id": 1813207, "title": "A Trumpet for the combo", "work_id": 74052, "role": "producer", "role_id": 1089, "is_primary": true}, {"id": 2763290, "title": "The City: heaven and hell", "work_id": 69641, "role": "producer", "role_id": 1089, "is_primary": true}, {"id": 2763300, "title": "The City: cars or people?", "work_id": 69640, "role": "producer", "role_id": 1089, "is_primary": true}, {"id": 2763307, "title": "The City and it's regions", "work_id": 69638, "role": "producer", "role_id": 1089, "is_primary": true}, {"id": 2763373, "title": "The City as man's home", "work_id": 69637, "role": "producer", "role_id": 1089, "is_primary": true}, {"id": 2763378, "title": "The City and the future", "work_id": 69639, "role": "producer", "role_id": 1089, "is_primary": true}, {"id": 2763383, "title": "Lewis Mumford on the city", "work_id": 114816, "role": "producer", "role_id": 1089, "is_primary": true}, {"id": 1811971, "title": "Suburban living: six solutions", "work_id": 73340, "role": "producer", "role_id": 1089, "is_primary": true}, {"id": 2758255, "title": "Four families", "work_id": 66297, "role": "producer", "role_id": 1089, "is_primary": true}, {"id": 2763318, "title": "The Heart of the city", "work_id": 69642, "role": "producer/director", "role_id": 31, "is_primary": true}, {"id": 798552, "title": "A Rosewood daydream", "work_id": 88078, "role": "producer/director", "role_id": 31, "is_primary": true}], "also_known_as": "", "date_of_birth": "", "date_of_death": "", "genders": [], "languages": [], "places_of_operation": [], "biography": "", "biography_author": null, "date_of_biography": "2023-05-09T20:01:50.390785+10:00", "external_links": [], "uuid": "2acf19c4-8694-4cfd-a4ab-16feefa67fd3", "source": {"name": "Vernon", "slug": "vernon"}, "source_identifier": "20772", "external_references": [{"id": 38764, "source": {"name": "Wikidata", "slug": "wikidata"}, "source_identifier": "Q120837835"}], "date_modified": "2025-03-14T17:41:28.770774+11:00"}, {"id": 12174, "name": "Robert Tronson", "roles_in_work": [{"id": 2676855, "title": "Against the tide", "work_id": 64592, "role": "director", "role_id": 938, "is_primary": true}], "also_known_as": "", "date_of_birth": "1924-05-18", "date_of_death": "2008-11-27", "genders": [{"id": 9, "name": "Male", "slug": "male"}], "languages": [{"id": 1, "name": "English", "slug": "english"}], "places_of_operation": [{"id": 10, "name": "United Kingdom", "slug": "united-kingdom"}], "biography": "Robert Tronson (18 May 1924 – 27 November 2008) was an English film and television director, born in Chilmark, Wiltshire. Educated at Churcher's College in Hampshire, followed by the Royal Naval College, Dartmouth, he served with the Royal Navy from 1941. After leaving the service at the end of the Second World War he determined to become a writer, but soon joined the BBC, where he produced children's television programmes. In 1955 he joined Associated-Rediffusion, and by the end of the decade he was working on television drama serials. From the 1960s onwards he worked as a freelance director in a career spanning almost 50 years. His final television credits were for directing five episodes of Hetty Wainthropp Investigates for the BBC, between 1996 and 1998.In 1965 Tronson married Nona Richards (died 1987). He died on 27 November 2008 and was survived by their son.", "biography_author": "Wikidata", "date_of_biography": "2023-08-01T16:52:07.410398+10:00", "external_links": [{"id": 5042, "uri": "https://en.wikipedia.org/wiki/Robert_Tronson"}], "uuid": "7e63d9b6-3d28-4c3f-8e85-579538dbd88e", "source": {"name": "Vernon", "slug": "vernon"}, "source_identifier": "34313", "external_references": [{"id": 26000, "source": {"name": "Wikidata", "slug": "wikidata"}, "source_identifier": "Q2159018"}, {"id": 31221, "source": {"name": "VIAF", "slug": "viaf"}, "source_identifier": "55903244"}, {"id": 31222, "source": {"name": "LOC Auth", "slug": "loc-auth"}, "source_identifier": "n97093751"}, {"id": 31223, "source": {"name": "WorldCat", "slug": "worldcat"}, "source_identifier": "lccn-n97093751"}], "date_modified": "2025-03-06T23:08:00.049812+11:00"}, {"id": 12173, "name": "Geoffrey Sumner", "roles_in_work": [{"id": 2676852, "title": "Against the tide", "work_id": 64592, "role": "producer", "role_id": 1089, "is_primary": true}, {"id": 1806269, "title": "Adventure on", "work_id": 91050, "role": "producer", "role_id": 1089, "is_primary": true}, {"id": 2712570, "title": "Earth is a battlefield", "work_id": 66993, "role": "producer", "role_id": 1089, "is_primary": true}, {"id": 2715259, "title": "Hazard", "work_id": 68351, "role": "producer", "role_id": 1089, "is_primary": true}], "also_known_as": "", "date_of_birth": "", "date_of_death": "", "genders": [], "languages": [], "places_of_operation": [], "biography": "", "biography_author": null, "date_of_biography": "2023-08-11T16:16:37.047590+10:00", "external_links": [], "uuid": "d6aae140-528c-43f0-a7d7-5acf159975d1", "source": {"name": "Vernon", "slug": "vernon"}, "source_identifier": "19548", "external_references": [], "date_modified": "2025-03-12T01:31:06.958019+11:00"}, {"id": 12172, "name": "Interfilm", "roles_in_work": [{"id": 2676850, "title": "Against the tide", "work_id": 64592, "role": "production company", "role_id": 941, "is_primary": true}, {"id": 854548, "title": "Listen to steel", "work_id": 69765, "role": "production company", "role_id": 941, "is_primary": true}], "also_known_as": "", "date_of_birth": null, "date_of_death": null, "genders": [], "languages": [], "places_of_operation": [], "biography": "", "biography_author": null, "date_of_biography": null, "external_links": [], "uuid": "628b4cd5-c33e-49e3-939b-d233ea3cdab5", "source": {"name": "Vernon", "slug": "vernon"}, "source_identifier": "9350", "external_references": [], "date_modified": "2025-03-06T23:07:58.338811+11:00"}, {"id": 12171, "name": "Beatrice Faust", "roles_in_work": [{"id": 2676847, "title": "The Afternoon house", "work_id": 64590, "role": "director", "role_id": 938, "is_primary": true}], "also_known_as": "", "date_of_birth": "1939", "date_of_death": "", "genders": [], "languages": [], "places_of_operation": [], "biography": "", "biography_author": null, "date_of_biography": "2023-08-14T11:00:40.482595+10:00", "external_links": [], "uuid": "5c73b658-9f6f-4e7e-b137-5eb5a6ecefde", "source": {"name": "Vernon", "slug": "vernon"}, "source_identifier": "15764", "external_references": [], "date_modified": "2025-03-06T23:07:57.142809+11:00"}, {"id": 12170, "name": "Suzanne Baker", "roles_in_work": [{"id": 2648552, "title": "The Bruce Petty collection", "work_id": 79441, "role": "co-producer", "role_id": 915, "is_primary": true}, {"id": 2755209, "title": "Ageing in the new age compilation", "work_id": 79433, "role": "co-producer", "role_id": 915, "is_primary": true}, {"id": 2379607, "title": "On the move", "work_id": 71106, "role": "co-producer", "role_id": 915, "is_primary": true}, {"id": 2645138, "title": "I can hear but I can't understand", "work_id": 68709, "role": "producer", "role_id": 1089, "is_primary": true}, {"id": 2676844, "title": "After the Flood", "work_id": 64587, "role": "producer", "role_id": 1089, "is_primary": true}, {"id": 2766832, "title": "Jane (TEFC)", "work_id": 86278, "role": "producer", "role_id": 1089, "is_primary": true}, {"id": 2766838, "title": "Jane", "work_id": 69202, "role": "producer", "role_id": 1089, "is_primary": true}, {"id": 2766845, "title": "Jose: deserted father (TEFC)", "work_id": 75696, "role": "producer", "role_id": 1089, "is_primary": true}, {"id": 2766865, "title": "Margaret: Mildly mentally retarded", "work_id": 96523, "role": "producer", "role_id": 1089, "is_primary": true}, {"id": 2766872, "title": "Senka", "work_id": 72655, "role": "producer", "role_id": 1089, "is_primary": true}, {"id": 2644431, "title": "Community health: the Australian concept", "work_id": 66293, "role": "producer", "role_id": 1089, "is_primary": true}, {"id": 2715623, "title": "Home sweet home", "work_id": 68529, "role": "producer", "role_id": 1089, "is_primary": true}, {"id": 2715731, "title": "How about a break; You can do it", "work_id": 68584, "role": "producer", "role_id": 1089, "is_primary": true}, {"id": 2768018, "title": "One hundred entertainments", "work_id": 71126, "role": "producer", "role_id": 1089, "is_primary": true}, {"id": 2768027, "title": "Something for everyone", "work_id": 78498, "role": "producer", "role_id": 1089, "is_primary": true}, {"id": 2768034, "title": "Mind, body and spirit", "work_id": 78501, "role": "producer", "role_id": 1089, "is_primary": true}, {"id": 2768041, "title": "It is always so in the world", "work_id": 78503, "role": "producer", "role_id": 1089, "is_primary": true}, {"id": 2748899, "title": "Vicki", "work_id": 96526, "role": "producer", "role_id": 1089, "is_primary": true}, {"id": 2755190, "title": "The Other side of the coin", "work_id": 77386, "role": "producer", "role_id": 1089, "is_primary": true}, {"id": 2755194, "title": "The Nest egg", "work_id": 77387, "role": "producer", "role_id": 1089, "is_primary": true}, {"id": 2755197, "title": "With minimal help", "work_id": 77388, "role": "producer", "role_id": 1089, "is_primary": true}, {"id": 2755200, "title": "Under the one roof", "work_id": 77389, "role": "producer", "role_id": 1089, "is_primary": true}, {"id": 2755202, "title": "Reaching out", "work_id": 77390, "role": "producer", "role_id": 1089, "is_primary": true}, {"id": 2785014, "title": "Lake", "work_id": 99196, "role": "producer", "role_id": 1089, "is_primary": true}, {"id": 1818567, "title": "Health centres: the Canberra concept", "work_id": 76260, "role": "producer", "role_id": 1089, "is_primary": true}, {"id": 1813074, "title": "Compilation: one hundred entertainments", "work_id": 77034, "role": "producer", "role_id": 1089, "is_primary": true}, {"id": 2335732, "title": "The Care behind the smile", "work_id": 75198, "role": "producer", "role_id": 1089, "is_primary": true}, {"id": 1813647, "title": "Appearances can deceive: offenders with intellectual disabilities", "work_id": 85250, "role": "producer", "role_id": 1089, "is_primary": true}, {"id": 2392396, "title": "Five bells: sights and sounds of Sydney Harbour", "work_id": 75320, "role": "producer", "role_id": 1089, "is_primary": true}, {"id": 2392096, "title": "Sister, if you only knew", "work_id": 72858, "role": "producer", "role_id": 1089, "is_primary": true}, {"id": 2392067, "title": "Saturday", "work_id": 72485, "role": "producer", "role_id": 1089, "is_primary": true}, {"id": 2392391, "title": "Leisure", "work_id": 75294, "role": "producer", "role_id": 1089, "is_primary": true}, {"id": 1819677, "title": "Productivity is people", "work_id": 71885, "role": "producer", "role_id": 1089, "is_primary": true}, {"id": 2392397, "title": "Five bells: sights and sounds of Sydney Harbour", "work_id": 75320, "role": "producer", "role_id": 1089, "is_primary": true}, {"id": 2392079, "title": "Seeing red and feeling blue", "work_id": 72631, "role": "producer", "role_id": 1089, "is_primary": true}, {"id": 1807670, "title": "So you're getting a divorce", "work_id": 79431, "role": "producer", "role_id": 1089, "is_primary": true}, {"id": 1810881, "title": "The Weekly's War", "work_id": 79548, "role": "producer", "role_id": 1089, "is_primary": true}, {"id": 1807182, "title": "The Magic arts", "work_id": 69982, "role": "producer", "role_id": 1089, "is_primary": true}, {"id": 3108957, "title": "Get with I.T. The information technology challenge", "work_id": 77277, "role": "producer", "role_id": 1089, "is_primary": true}, {"id": 827112, "title": "They smell different", "work_id": 96649, "role": "producer/director", "role_id": 31, "is_primary": true}], "also_known_as": "", "date_of_birth": "1939-01-01", "date_of_death": "", "genders": [{"id": 5, "name": "Female", "slug": "female"}], "languages": [{"id": 1, "name": "English", "slug": "english"}], "places_of_operation": [{"id": 3, "name": "Australia", "slug": "australia"}], "biography": "Suzanne Dale Baker  (born 1939) is an Australian film producer, print and television journalist, writer, historian and feminist. In 1977, she became the first Australian woman to win an Academy Award, winning for the animated short film Leisure in the category Academy Award for Best Animated Short Film.", "biography_author": "Wikidata", "date_of_biography": "2023-09-06T01:37:31.161137+10:00", "external_links": [{"id": 5232, "uri": "https://en.wikipedia.org/wiki/Suzanne_Baker"}], "uuid": "735106b6-6981-4d2f-b2f5-dfe5413015df", "source": {"name": "Vernon", "slug": "vernon"}, "source_identifier": "29382", "external_references": [{"id": 26049, "source": {"name": "Wikidata", "slug": "wikidata"}, "source_identifier": "Q2370120"}], "date_modified": "2025-10-03T12:35:07.985229+10:00"}, {"id": 12169, "name": "Nicholas Frangakis", "roles_in_work": [{"id": 860005, "title": "Turned round to see", "work_id": 74093, "role": "director", "role_id": 938, "is_primary": true}, {"id": 2676839, "title": "After the First", "work_id": 64586, "role": "director", "role_id": 938, "is_primary": true}], "also_known_as": "", "date_of_birth": null, "date_of_death": null, "genders": [], "languages": [], "places_of_operation": [], "biography": "", "biography_author": null, "date_of_biography": null, "external_links": [], "uuid": "a088ca4a-eb97-4cc4-886f-40b3b400e701", "source": {"name": "Vernon", "slug": "vernon"}, "source_identifier": "25715", "external_references": [], "date_modified": "2025-03-06T23:07:53.721751+11:00"}, {"id": 12168, "name": "Karl Holtsnider", "roles_in_work": [{"id": 2239844, "title": "Film appreciation: film as an art", "work_id": 95500, "role": "co-producer", "role_id": 915, "is_primary": true}, {"id": 2239710, "title": "Film appreciation: language of the film", "work_id": 95499, "role": "co-producer", "role_id": 915, "is_primary": true}, {"id": 2239896, "title": "Film appreciation: nature of the film medium", "work_id": 95498, "role": "co-producer", "role_id": 915, "is_primary": true}, {"id": 2679627, "title": "Check-in time", "work_id": 65989, "role": "co-producer", "role_id": 915, "is_primary": true}, {"id": 1818755, "title": "William", "work_id": 74776, "role": "producer", "role_id": 1089, "is_primary": true}, {"id": 1813684, "title": "With just a little trust", "work_id": 74818, "role": "producer", "role_id": 1089, "is_primary": true}, {"id": 2676838, "title": "After the First", "work_id": 64586, "role": "producer", "role_id": 1089, "is_primary": true}, {"id": 1809879, "title": "Right Here Right Now", "work_id": 72232, "role": "producer", "role_id": 1089, "is_primary": true}, {"id": 1813216, "title": "Turned round to see", "work_id": 74093, "role": "producer", "role_id": 1089, "is_primary": true}, {"id": 2713458, "title": "Father and daughter", "work_id": 67424, "role": "producer", "role_id": 1089, "is_primary": true}, {"id": 2713753, "title": "First year A.D.", "work_id": 67568, "role": "producer", "role_id": 1089, "is_primary": true}, {"id": 1819712, "title": "You haven't changed a bit", "work_id": 75010, "role": "producer", "role_id": 1089, "is_primary": true}, {"id": 2749162, "title": "The Good, good, good, good life", "work_id": 96664, "role": "producer", "role_id": 1089, "is_primary": true}, {"id": 1812300, "title": "A Talent for Tony", "work_id": 73483, "role": "producer", "role_id": 1089, "is_primary": true}, {"id": 1819140, "title": "Names of sin", "work_id": 70742, "role": "producer", "role_id": 1089, "is_primary": true}], "also_known_as": "", "date_of_birth": "", "date_of_death": "", "genders": [], "languages": [], "places_of_operation": [], "biography": "", "biography_author": null, "date_of_biography": "2023-05-09T16:51:58.729675+10:00", "external_links": [], "uuid": "97bf79cb-b6e3-4830-9b1c-e2d51ad36c50", "source": {"name": "Vernon", "slug": "vernon"}, "source_identifier": "23027", "external_references": [], "date_modified": "2025-03-12T23:53:17.202006+11:00"}, {"id": 12167, "name": "Teleketics", "roles_in_work": [{"id": 758435, "title": "You haven't changed a bit", "work_id": 75010, "role": "production company", "role_id": 941, "is_primary": true}, {"id": 859586, "title": "Those who mourn", "work_id": 73762, "role": "production company", "role_id": 941, "is_primary": true}, {"id": 859234, "title": "A Talent for Tony", "work_id": 73483, "role": "production company", "role_id": 941, "is_primary": true}, {"id": 875138, "title": "Glass house = glashuset", "work_id": 89330, "role": "production company", "role_id": 941, "is_primary": true}, {"id": 855828, "title": "Names of sin", "work_id": 70742, "role": "production company", "role_id": 941, "is_primary": true}, {"id": 2749161, "title": "The Good, good, good, good life", "work_id": 96664, "role": "production company", "role_id": 941, "is_primary": true}, {"id": 2646591, "title": "Theirs is the kingdom", "work_id": 73657, "role": "production company", "role_id": 941, "is_primary": true}, {"id": 2713456, "title": "Father and daughter", "work_id": 67424, "role": "production company", "role_id": 941, "is_primary": true}, {"id": 2676837, "title": "After the First", "work_id": 64586, "role": "production company", "role_id": 941, "is_primary": true}, {"id": 858039, "title": "Saturday afternoon", "work_id": 72486, "role": "production company", "role_id": 941, "is_primary": true}], "also_known_as": "", "date_of_birth": "", "date_of_death": "", "genders": [], "languages": [], "places_of_operation": [], "biography": "", "biography_author": null, "date_of_biography": "2023-05-09T16:48:08.521804+10:00", "external_links": [], "uuid": "f06cee9c-76b1-41b1-a55a-8ab92736b3ec", "source": {"name": "Vernon", "slug": "vernon"}, "source_identifier": "13242", "external_references": [{"id": 35719, "source": {"name": "Wikidata", "slug": "wikidata"}, "source_identifier": "Q121126487"}], "date_modified": "2025-03-12T23:53:16.608292+11:00"}, {"id": 12166, "name": "Galadriel Films", "roles_in_work": [{"id": 2676831, "title": "After Proust", "work_id": 64585, "role": "production company", "role_id": 941, "is_primary": true}], "also_known_as": "", "date_of_birth": "", "date_of_death": "", "genders": [], "languages": [], "places_of_operation": [], "biography": "", "biography_author": null, "date_of_biography": "2023-05-09T11:52:20.722119+10:00", "external_links": [], "uuid": "91d4b5f1-7bc7-481b-a3d1-07f218ea7b11", "source": {"name": "Vernon", "slug": "vernon"}, "source_identifier": "8625", "external_references": [{"id": 33728, "source": {"name": "Wikidata", "slug": "wikidata"}, "source_identifier": "Q121091266"}], "date_modified": "2025-03-06T23:07:48.846397+11:00"}]}