{"count": 28687, "next": "https://api.acmi.net.au/creators/?page=2006", "previous": "https://api.acmi.net.au/creators/?page=2004", "results": [{"id": 22473, "name": "Barbara Kopple", "roles_in_work": [{"id": 1984517, "title": "Harlan County USA", "work_id": 80235, "role": "director", "role_id": 938, "is_primary": true}], "also_known_as": "", "date_of_birth": "1946-07-30", "date_of_death": null, "genders": [{"id": 5, "name": "Female", "slug": "female"}], "languages": [], "places_of_operation": [{"id": 1, "name": "United States of America", "slug": "united-states-of-america"}], "biography": "Barbara Kopple (born July 30, 1946) is an American film director known primarily for her documentary work.\nShe has won two Academy Awards, the first in 1977 for Harlan County, USA, about a Kentucky miners' strike,[1] and the second in 1991 for American Dream, the story of the 1985–86 Hormel strike in Austin, Minnesota.[2]Kopple also directed Bearing Witness, a 2005 documentary about five women journalists stationed in combat zones during the Iraq War. She is known for her work with artists, including A Conversation With Gregory Peck as well as documentaries on Mike Tyson, Woody Allen, and Mariel Hemingway. She was on tour with the Dixie Chicks when lead singer Natalie Maines criticized the Iraq War. The film, Shut Up and Sing, debuted at the Toronto International Film Festival. It went on to win a Special Jury Prize at the Chicago International Film Festival, and two Audience awards (Sydney Film Festival and Aspen Film Fest).She has directed episodes of the television drama series Homicide: Life on the Street and Oz, winning a Directors Guild of America award for the former.\n\n", "biography_author": "Wikidata", "date_of_biography": "2022-05-19T10:53:47.539162+10:00", "external_links": [{"id": 1693, "uri": "https://en.wikipedia.org/wiki/Barbara_Kopple"}], "uuid": "2312c629-5462-4c53-b73b-b7e5d6f866e7", "source": {"name": "Vernon", "slug": "vernon"}, "source_identifier": "15652", "external_references": [{"id": 7385, "source": {"name": "Wikidata", "slug": "wikidata"}, "source_identifier": "Q449349"}, {"id": 7386, "source": {"name": "VIAF", "slug": "viaf"}, "source_identifier": "10050931"}, {"id": 7387, "source": {"name": "LOC Auth", "slug": "loc-auth"}, "source_identifier": "nr93023798"}, {"id": 7388, "source": {"name": "WorldCat", "slug": "worldcat"}, "source_identifier": "lccn-nr93023798"}], "date_modified": "2023-09-13T12:28:21.489840+10:00"}, {"id": 22471, "name": "Molly Dineen", "roles_in_work": [{"id": 1426474, "title": "Home from the Hill", "work_id": 80234, "role": "director", "role_id": 938, "is_primary": true}], "also_known_as": "", "date_of_birth": "1959-03-07", "date_of_death": null, "genders": [{"id": 5, "name": "Female", "slug": "female"}], "languages": [], "places_of_operation": [{"id": 36, "name": "Canada", "slug": "canada"}], "biography": "Molly Dineen (born 7 March 1959) is a television documentary director, cinematographer and producer. One of Britain's most acclaimed documentary filmmakers, Molly is known for her intimate and probing portraits of British individuals and institutions. Her work includes The Lie of the Land (2007), examining the decline of the countryside and British farming, The Ark (1993) about London Zoo during Thatcherism and the Lords' Tale (2002), which examined the removal of the hereditary peers.\n\n", "biography_author": "Wikidata", "date_of_biography": "2023-08-01T16:20:15.712458+10:00", "external_links": [{"id": 4749, "uri": "https://en.wikipedia.org/wiki/Molly_Dineen"}], "uuid": "b739cf2d-db78-4356-844b-ec287c32c2e0", "source": {"name": "Vernon", "slug": "vernon"}, "source_identifier": "25494", "external_references": [{"id": 27017, "source": {"name": "Wikidata", "slug": "wikidata"}, "source_identifier": "Q6896557"}, {"id": 30451, "source": {"name": "VIAF", "slug": "viaf"}, "source_identifier": "221076014"}, {"id": 30452, "source": {"name": "LOC Auth", "slug": "loc-auth"}, "source_identifier": "no2011194752"}, {"id": 30453, "source": {"name": "WorldCat", "slug": "worldcat"}, "source_identifier": "lccn-no2011194752"}], "date_modified": "2023-09-13T12:31:33.396209+10:00"}, {"id": 22470, "name": "National Film and Television School (Great Britain)", "roles_in_work": [{"id": 2660544, "title": "Abuelas", "work_id": 117404, "role": "production company", "role_id": 941, "is_primary": true}, {"id": 2615974, "title": "The Terence Davies trilogy: children: Madonna and child: death and transfiguration", "work_id": 86500, "role": "production company", "role_id": 941, "is_primary": true}, {"id": 1426473, "title": "Home from the Hill", "work_id": 80234, "role": "production company", "role_id": 941, "is_primary": true}], "also_known_as": "", "date_of_birth": "", "date_of_death": "", "genders": [], "languages": [], "places_of_operation": [], "biography": "", "biography_author": null, "date_of_biography": "2023-05-09T11:45:03.266425+10:00", "external_links": [], "uuid": "d3f2e891-8a23-4830-b3c8-26b72369bae7", "source": {"name": "Vernon", "slug": "vernon"}, "source_identifier": "110860", "external_references": [], "date_modified": "2025-03-05T19:56:36.133447+11:00"}, {"id": 22469, "name": "Tibor Markus", "roles_in_work": [{"id": 2517356, "title": "Illuminations", "work_id": 80233, "role": "producer", "role_id": 1089, "is_primary": true}], "also_known_as": "", "date_of_birth": null, "date_of_death": null, "genders": [], "languages": [], "places_of_operation": [], "biography": "", "biography_author": null, "date_of_biography": null, "external_links": [], "uuid": "fabcbc45-60fa-4004-95b3-fc1ae738ca0f", "source": {"name": "Vernon", "slug": "vernon"}, "source_identifier": "29721", "external_references": [], "date_modified": "2024-04-17T03:42:12.326180+10:00"}, {"id": 22468, "name": "Francis Megahy", "roles_in_work": [{"id": 2648877, "title": "Niki Lauda Explains Formula One", "work_id": 80231, "role": "director", "role_id": 938, "is_primary": true}], "also_known_as": "", "date_of_birth": "1935-03-18", "date_of_death": "2020-05-01", "genders": [{"id": 9, "name": "Male", "slug": "male"}], "languages": [{"id": 1, "name": "English", "slug": "english"}], "places_of_operation": [{"id": 10, "name": "United Kingdom", "slug": "united-kingdom"}], "biography": "Francis Megahy (18 March 1935 – 1 May 2020) was a British film director.", "biography_author": "Wikidata", "date_of_biography": "2023-09-05T19:46:58.081901+10:00", "external_links": [{"id": 5814, "uri": "https://en.wikipedia.org/wiki/Francis_Megahy"}], "uuid": "663d2efa-d4dd-4efb-a589-2dcc80b864cc", "source": {"name": "Vernon", "slug": "vernon"}, "source_identifier": "19056", "external_references": [{"id": 34221, "source": {"name": "Wikidata", "slug": "wikidata"}, "source_identifier": "Q20991643"}, {"id": 54441, "source": {"name": "VIAF", "slug": "viaf"}, "source_identifier": "64206930"}, {"id": 54442, "source": {"name": "LOC Auth", "slug": "loc-auth"}, "source_identifier": "no2010194516"}, {"id": 54443, "source": {"name": "WorldCat", "slug": "worldcat"}, "source_identifier": "lccn-no2010194516"}], "date_modified": "2025-03-05T13:51:59.378303+11:00"}, {"id": 22467, "name": "Mike Dineen", "roles_in_work": [{"id": 2648876, "title": "Niki Lauda Explains Formula One", "work_id": 80231, "role": "producer", "role_id": 1089, "is_primary": true}], "also_known_as": "", "date_of_birth": "", "date_of_death": "", "genders": [], "languages": [], "places_of_operation": [], "biography": "", "biography_author": null, "date_of_biography": "2023-05-09T14:10:36.712513+10:00", "external_links": [], "uuid": "0a7109b5-12df-4640-a1c1-c6f2db8c8228", "source": {"name": "Vernon", "slug": "vernon"}, "source_identifier": "25351", "external_references": [{"id": 37373, "source": {"name": "Wikidata", "slug": "wikidata"}, "source_identifier": "Q121035100"}], "date_modified": "2025-03-05T13:51:58.803884+11:00"}, {"id": 22466, "name": "Charles Cochrane", "roles_in_work": [{"id": 899563, "title": "Three in One Aerobics Programme", "work_id": 80402, "role": "co-producer", "role_id": 915, "is_primary": true}, {"id": 1813812, "title": "The Superkids Fitness Video", "work_id": 80229, "role": "producer", "role_id": 1089, "is_primary": true}, {"id": 2648874, "title": "Swing Fitness for Older Adults", "work_id": 80230, "role": "producer", "role_id": 1089, "is_primary": true}], "also_known_as": "", "date_of_birth": "", "date_of_death": "", "genders": [], "languages": [], "places_of_operation": [], "biography": "", "biography_author": null, "date_of_biography": "2023-05-09T19:11:53.142698+10:00", "external_links": [], "uuid": "550489fd-9311-464f-9386-9881f9f46b89", "source": {"name": "Vernon", "slug": "vernon"}, "source_identifier": "16661", "external_references": [{"id": 35209, "source": {"name": "Wikidata", "slug": "wikidata"}, "source_identifier": "Q121271029"}], "date_modified": "2025-03-05T13:51:57.422498+11:00"}, {"id": 22463, "name": "Video Media Production", "roles_in_work": [{"id": 2754437, "title": "Into everything: providing for toddlers in child care", "work_id": 99203, "role": "production company", "role_id": 941, "is_primary": true}, {"id": 771677, "title": "How to Be Your Dog's Best Friend", "work_id": 80228, "role": "production company", "role_id": 941, "is_primary": true}, {"id": 2754433, "title": "Project out of school: planning a quality service", "work_id": 99202, "role": "production company", "role_id": 941, "is_primary": true}, {"id": 2754431, "title": "To learn day by day", "work_id": 99201, "role": "production company", "role_id": 941, "is_primary": true}], "also_known_as": "", "date_of_birth": "", "date_of_death": "", "genders": [], "languages": [], "places_of_operation": [], "biography": "", "biography_author": null, "date_of_biography": "2023-05-09T16:36:42.241678+10:00", "external_links": [], "uuid": "21d57c65-db6b-480c-ae1e-18e53cba369e", "source": {"name": "Vernon", "slug": "vernon"}, "source_identifier": "3789", "external_references": [{"id": 32984, "source": {"name": "Wikidata", "slug": "wikidata"}, "source_identifier": "Q121035979"}], "date_modified": "2025-03-13T01:45:08.504765+11:00"}, {"id": 22457, "name": "Henry Jaglom", "roles_in_work": [{"id": 1984514, "title": "Someone to Love", "work_id": 80224, "role": "director", "role_id": 938, "is_primary": true}, {"id": 1984510, "title": "Tracks", "work_id": 80221, "role": "director", "role_id": 938, "is_primary": true}], "also_known_as": "", "date_of_birth": "1938-01-26", "date_of_death": null, "genders": [{"id": 9, "name": "Male", "slug": "male"}], "languages": [{"id": 1, "name": "English", "slug": "english"}], "places_of_operation": [{"id": 10, "name": "United Kingdom", "slug": "united-kingdom"}], "biography": "Henry David Jaglom (born January 26, 1938) is an English-born American actor, film director and playwright.\n\n", "biography_author": "Wikidata", "date_of_biography": "2022-05-19T11:44:27.770928+10:00", "external_links": [{"id": 2224, "uri": "https://en.wikipedia.org/wiki/Henry_Jaglom"}], "uuid": "1bbc1062-a3ef-426f-8c14-e5b1d88a7f70", "source": {"name": "Vernon", "slug": "vernon"}, "source_identifier": "20493", "external_references": [{"id": 9553, "source": {"name": "Wikidata", "slug": "wikidata"}, "source_identifier": "Q1606917"}, {"id": 9554, "source": {"name": "VIAF", "slug": "viaf"}, "source_identifier": "42109132"}, {"id": 9555, "source": {"name": "LOC Auth", "slug": "loc-auth"}, "source_identifier": "no95006373"}, {"id": 9556, "source": {"name": "WorldCat", "slug": "worldcat"}, "source_identifier": "lccn-no95006373"}], "date_modified": "2023-09-13T12:29:56.254162+10:00"}, {"id": 22453, "name": "Pat Whalan", "roles_in_work": [{"id": 2189664, "title": "Pat Whalan's World of Floral Art. - Volume 1.", "work_id": 80220, "role": "producer", "role_id": 1089, "is_primary": true}, {"id": 2189696, "title": "Pat Whalan's world of floral art. - Volume 2.", "work_id": 80222, "role": "producer", "role_id": 1089, "is_primary": true}], "also_known_as": "", "date_of_birth": "", "date_of_death": "", "genders": [], "languages": [], "places_of_operation": [], "biography": "", "biography_author": null, "date_of_biography": "2023-05-09T15:06:55.304868+10:00", "external_links": [], "uuid": "b638f480-1212-480e-99f5-0b9315644d85", "source": {"name": "Vernon", "slug": "vernon"}, "source_identifier": "26089", "external_references": [{"id": 51198, "source": {"name": "Wikidata", "slug": "wikidata"}, "source_identifier": "Q121358055"}], "date_modified": "2023-09-05T23:42:05.286573+10:00"}]}