{"count": 28684, "next": "https://api.acmi.net.au/creators/?page=2327", "previous": "https://api.acmi.net.au/creators/?page=2325", "results": [{"id": 16262, "name": "Australian Federation of Commercial Broadcasting Stations", "roles_in_work": [{"id": 2414917, "title": "Let's look at radio: glimpses of programmes and personalities in the radio world", "work_id": 69618, "role": "production company", "role_id": 941, "is_primary": true}], "also_known_as": "", "date_of_birth": "", "date_of_death": "", "genders": [], "languages": [], "places_of_operation": [], "biography": "", "biography_author": null, "date_of_biography": "2023-08-11T19:27:05.102212+10:00", "external_links": [], "uuid": "6075fd04-7b01-45dd-ab38-21d00475b2dd", "source": {"name": "Vernon", "slug": "vernon"}, "source_identifier": "5582", "external_references": [], "date_modified": "2023-08-11T19:27:05.102443+10:00"}, {"id": 16261, "name": "Josef Bohmer", "roles_in_work": [{"id": 858423, "title": "Silk screen printing", "work_id": 72823, "role": "director", "role_id": 938, "is_primary": true}, {"id": 2414924, "title": "Let your child help you", "work_id": 69602, "role": "director", "role_id": 938, "is_primary": true}, {"id": 2645607, "title": "Meeting in session", "work_id": 70274, "role": "director", "role_id": 938, "is_primary": true}], "also_known_as": "", "date_of_birth": "", "date_of_death": "", "genders": [], "languages": [], "places_of_operation": [], "biography": "", "biography_author": null, "date_of_biography": "2023-08-11T19:47:05.933852+10:00", "external_links": [], "uuid": "7ea085c7-17d2-4c73-aba4-df307f9107b2", "source": {"name": "Vernon", "slug": "vernon"}, "source_identifier": "22701", "external_references": [], "date_modified": "2025-03-05T12:45:21.154596+11:00"}, {"id": 16260, "name": "Michael Andrews", "roles_in_work": [{"id": 2761644, "title": "Let the therapy fit the crime", "work_id": 69601, "role": "co-producer", "role_id": 915, "is_primary": true}, {"id": 2348554, "title": "The Flight of the Condor", "work_id": 80359, "role": "producer", "role_id": 1089, "is_primary": true}, {"id": 2761427, "title": "Children of Peru", "work_id": 97196, "role": "producer", "role_id": 1089, "is_primary": true}, {"id": 2761613, "title": "It's never too late to learn", "work_id": 77355, "role": "producer", "role_id": 1089, "is_primary": true}, {"id": 2761648, "title": "The Life that lives on man", "work_id": 69712, "role": "producer", "role_id": 1089, "is_primary": true}], "also_known_as": "", "date_of_birth": "", "date_of_death": "", "genders": [], "languages": [], "places_of_operation": [], "biography": "", "biography_author": null, "date_of_biography": "2023-05-09T19:54:42.037144+10:00", "external_links": [], "uuid": "6c26a198-3746-4cee-9a67-d6dc39bea033", "source": {"name": "Vernon", "slug": "vernon"}, "source_identifier": "24963", "external_references": [{"id": 37877, "source": {"name": "Wikidata", "slug": "wikidata"}, "source_identifier": "Q121079311"}], "date_modified": "2025-03-14T17:34:31.101822+11:00"}, {"id": 16259, "name": "Canadian Government Motion Picture Bureau", "roles_in_work": [{"id": 806145, "title": "Heritage", "work_id": 90640, "role": "production company", "role_id": 941, "is_primary": true}, {"id": 2645428, "title": "Lest we forget", "work_id": 69599, "role": "production company", "role_id": 941, "is_primary": true}], "also_known_as": "", "date_of_birth": "", "date_of_death": "", "genders": [], "languages": [], "places_of_operation": [], "biography": "", "biography_author": null, "date_of_biography": "2023-08-11T19:26:36.365730+10:00", "external_links": [], "uuid": "ad3cb942-0828-417c-b871-e7ef138851c3", "source": {"name": "Vernon", "slug": "vernon"}, "source_identifier": "6248", "external_references": [], "date_modified": "2025-03-05T12:40:30.921653+11:00"}, {"id": 16258, "name": "Photo-Sound Corporation", "roles_in_work": [{"id": 2645427, "title": "Lest we forget", "work_id": 69599, "role": "production company", "role_id": 941, "is_primary": true}], "also_known_as": "", "date_of_birth": "", "date_of_death": "", "genders": [], "languages": [], "places_of_operation": [], "biography": "", "biography_author": null, "date_of_biography": "2023-08-11T19:26:35.755432+10:00", "external_links": [], "uuid": "d6fe4d21-a2f1-4bb9-97d8-5f00d49f92fb", "source": {"name": "Vernon", "slug": "vernon"}, "source_identifier": "11463", "external_references": [], "date_modified": "2025-03-05T12:40:30.276517+11:00"}, {"id": 16256, "name": "R P Birch and Associates", "roles_in_work": [{"id": 3108224, "title": "Leong, Angela: a cultural transition", "work_id": 69595, "role": "production company", "role_id": 941, "is_primary": true}], "also_known_as": "", "date_of_birth": "", "date_of_death": "", "genders": [], "languages": [], "places_of_operation": [], "biography": "", "biography_author": null, "date_of_biography": "2023-05-09T19:16:06.908138+10:00", "external_links": [], "uuid": "8304fc23-c998-4310-b8d4-850c7036b27a", "source": {"name": "Vernon", "slug": "vernon"}, "source_identifier": "11801", "external_references": [{"id": 36947, "source": {"name": "Wikidata", "slug": "wikidata"}, "source_identifier": "Q121126563"}], "date_modified": "2025-09-25T16:25:18.167115+10:00"}, {"id": 16255, "name": "Educational Media International", "roles_in_work": [{"id": 2752256, "title": "Living cells", "work_id": 98214, "role": "production company", "role_id": 941, "is_primary": true}, {"id": 2752512, "title": "Duran Duran", "work_id": 98327, "role": "production company", "role_id": 941, "is_primary": true}, {"id": 2752751, "title": "Reproduction in organisms", "work_id": 98439, "role": "production company", "role_id": 941, "is_primary": true}, {"id": 2769584, "title": "The Desert hopping mouse", "work_id": 77296, "role": "production company", "role_id": 941, "is_primary": true}, {"id": 2769591, "title": "Lifetimes of change: development and growth", "work_id": 98218, "role": "production company", "role_id": 941, "is_primary": true}, {"id": 2769621, "title": "The Mammalian heart", "work_id": 98215, "role": "production company", "role_id": 941, "is_primary": true}, {"id": 777368, "title": "Nature's builders", "work_id": 81982, "role": "production company", "role_id": 941, "is_primary": true}, {"id": 791388, "title": "The Solar system (MAC & PC)", "work_id": 85910, "role": "production company", "role_id": 941, "is_primary": true}, {"id": 791395, "title": "Stars and galaxies (MAC & PC)", "work_id": 85912, "role": "production company", "role_id": 941, "is_primary": true}, {"id": 2414750, "title": "Lenin's Russia", "work_id": 69590, "role": "production company", "role_id": 941, "is_primary": true}, {"id": 864922, "title": "Cat journey", "work_id": 78428, "role": "production company", "role_id": 941, "is_primary": true}, {"id": 2415412, "title": "Lungs", "work_id": 98219, "role": "production company", "role_id": 941, "is_primary": true}, {"id": 870919, "title": "The Burke and Wills Expedition 1860-1861 (MAC & PC)", "work_id": 86692, "role": "production company", "role_id": 941, "is_primary": true}], "also_known_as": "", "date_of_birth": "", "date_of_death": "", "genders": [], "languages": [], "places_of_operation": [], "biography": "", "biography_author": null, "date_of_biography": "2023-08-11T19:37:17.507371+10:00", "external_links": [], "uuid": "5364ce71-9c9a-4769-9b4a-f58bffa368cf", "source": {"name": "Vernon", "slug": "vernon"}, "source_identifier": "110544", "external_references": [], "date_modified": "2025-03-14T18:15:25.754714+11:00"}, {"id": 16254, "name": "Peter Cock", "roles_in_work": [{"id": 2645423, "title": "Legend of the raven", "work_id": 69586, "role": "co-director", "role_id": 959, "is_primary": true}, {"id": 1809823, "title": "Are you safe at home?", "work_id": 90806, "role": "producer", "role_id": 1089, "is_primary": true}, {"id": 857976, "title": "Safety oriented first aid. Unit 2", "work_id": 72440, "role": "producer/director", "role_id": 31, "is_primary": true}, {"id": 2646208, "title": "Safety oriented first aid. Unit 1", "work_id": 72439, "role": "producer/director", "role_id": 31, "is_primary": true}, {"id": 857978, "title": "Safety oriented first aid. Unit 3", "work_id": 72441, "role": "producer/director", "role_id": 31, "is_primary": true}, {"id": 857980, "title": "Safety oriented first aid. Unit 4", "work_id": 72442, "role": "producer/director", "role_id": 31, "is_primary": true}], "also_known_as": "", "date_of_birth": null, "date_of_death": null, "genders": [], "languages": [], "places_of_operation": [], "biography": "", "biography_author": null, "date_of_biography": null, "external_links": [], "uuid": "d66583ac-352e-4e7b-ab13-f55e2abba38a", "source": {"name": "Vernon", "slug": "vernon"}, "source_identifier": "26499", "external_references": [], "date_modified": "2025-03-05T12:57:33.138326+11:00"}, {"id": 16252, "name": "Henning Bendtsen", "roles_in_work": [{"id": 856909, "title": "Ping Pong", "work_id": 71573, "role": "director", "role_id": 938, "is_primary": true}, {"id": 854318, "title": "Legato", "work_id": 69580, "role": "producer/director", "role_id": 31, "is_primary": true}], "also_known_as": "", "date_of_birth": "1925-03-09", "date_of_death": "2011-02-08", "genders": [{"id": 9, "name": "Male", "slug": "male"}], "languages": [], "places_of_operation": [{"id": 34, "name": "Denmark", "slug": "denmark"}], "biography": "", "biography_author": null, "date_of_biography": null, "external_links": [], "uuid": "d1836271-e8e2-4444-b37d-0ccfe50eac0c", "source": {"name": "Vernon", "slug": "vernon"}, "source_identifier": "20457", "external_references": [{"id": 40706, "source": {"name": "Wikidata", "slug": "wikidata"}, "source_identifier": "Q3130303"}, {"id": 54649, "source": {"name": "VIAF", "slug": "viaf"}, "source_identifier": "87226298"}, {"id": 54650, "source": {"name": "LOC Auth", "slug": "loc-auth"}, "source_identifier": "no2014156585"}, {"id": 54651, "source": {"name": "WorldCat", "slug": "worldcat"}, "source_identifier": "lccn-no2014156585"}], "date_modified": "2023-09-13T12:29:54.979879+10:00"}, {"id": 16251, "name": "United States. National Park Service", "roles_in_work": [{"id": 2754000, "title": "'Rivers of fire': an eruption of Hawaii's Mauna Loa Volcano", "work_id": 99016, "role": "production company", "role_id": 941, "is_primary": true}, {"id": 854315, "title": "Legacy: Olympic National Park", "work_id": 69579, "role": "production company", "role_id": 941, "is_primary": true}], "also_known_as": "", "date_of_birth": "", "date_of_death": "", "genders": [], "languages": [], "places_of_operation": [], "biography": "", "biography_author": null, "date_of_biography": "2023-05-09T09:54:19.576996+10:00", "external_links": [], "uuid": "80aecc96-e50c-4aeb-9c08-b68a67a7e8d9", "source": {"name": "Vernon", "slug": "vernon"}, "source_identifier": "10826", "external_references": [{"id": 42352, "source": {"name": "Wikidata", "slug": "wikidata"}, "source_identifier": "Q121299373"}], "date_modified": "2025-03-13T01:36:14.466224+11:00"}]}