{"count": 28681, "next": "https://api.acmi.net.au/creators/?page=2373", "previous": "https://api.acmi.net.au/creators/?page=2371", "results": [{"id": 15526, "name": "Peter Morely", "roles_in_work": [{"id": 2715317, "title": "Heartbeat of France", "work_id": 68378, "role": "director", "role_id": 938, "is_primary": true}], "also_known_as": "", "date_of_birth": null, "date_of_death": null, "genders": [], "languages": [], "places_of_operation": [], "biography": "", "biography_author": null, "date_of_biography": null, "external_links": [], "uuid": "6aa80297-7fbd-40ed-b723-7b9cfbaf7974", "source": {"name": "Vernon", "slug": "vernon"}, "source_identifier": "26652", "external_references": [], "date_modified": "2025-03-12T01:31:55.826608+11:00"}, {"id": 15525, "name": "Artransa Films", "roles_in_work": [{"id": 2065196, "title": "A Banking career", "work_id": 75868, "role": "production company", "role_id": 941, "is_primary": true}, {"id": 2716137, "title": "Impressions of Australia", "work_id": 68800, "role": "production company", "role_id": 941, "is_primary": true}, {"id": 825166, "title": "Analytical filtration", "work_id": 95712, "role": "production company", "role_id": 941, "is_primary": true}, {"id": 2065481, "title": "A Badge, a tradition, a future", "work_id": 90621, "role": "production company", "role_id": 941, "is_primary": true}, {"id": 2646091, "title": "Proud remembrance", "work_id": 71934, "role": "production company", "role_id": 941, "is_primary": true}, {"id": 2715311, "title": "Heartbeat", "work_id": 68376, "role": "production company", "role_id": 941, "is_primary": true}], "also_known_as": "", "date_of_birth": "", "date_of_death": "", "genders": [], "languages": [], "places_of_operation": [], "biography": "", "biography_author": null, "date_of_biography": "2023-08-09T03:46:06.178047+10:00", "external_links": [], "uuid": "78c25103-b3c4-44a5-9d5a-77f5d3bcce34", "source": {"name": "Vernon", "slug": "vernon"}, "source_identifier": "3791", "external_references": [{"id": 32525, "source": {"name": "Wikidata", "slug": "wikidata"}, "source_identifier": "Q121126575"}], "date_modified": "2025-03-12T01:50:35.623802+11:00"}, {"id": 15524, "name": "B Stepantsev", "roles_in_work": [{"id": 2715309, "title": "Heart sweet heart", "work_id": 68374, "role": "director", "role_id": 938, "is_primary": true}], "also_known_as": "", "date_of_birth": null, "date_of_death": null, "genders": [], "languages": [], "places_of_operation": [], "biography": "", "biography_author": null, "date_of_biography": null, "external_links": [], "uuid": "627342cb-42f3-4e37-9310-5446ee3b2ce2", "source": {"name": "Vernon", "slug": "vernon"}, "source_identifier": "15618", "external_references": [], "date_modified": "2025-03-12T01:31:47.728147+11:00"}, {"id": 15523, "name": "Soiuzmultfilm", "roles_in_work": [{"id": 2715307, "title": "Heart sweet heart", "work_id": 68374, "role": "production company", "role_id": 941, "is_primary": true}], "also_known_as": "", "date_of_birth": null, "date_of_death": null, "genders": [], "languages": [], "places_of_operation": [], "biography": "", "biography_author": null, "date_of_biography": null, "external_links": [], "uuid": "00e49d2b-0d6f-4d36-8113-1ba443f7ed74", "source": {"name": "Vernon", "slug": "vernon"}, "source_identifier": "12721", "external_references": [], "date_modified": "2025-03-12T01:31:46.516017+11:00"}, {"id": 15522, "name": "Ralph W Peterson", "roles_in_work": [{"id": 2715303, "title": "Heart of a city", "work_id": 68371, "role": "director", "role_id": 938, "is_primary": true}], "also_known_as": "", "date_of_birth": "", "date_of_death": "", "genders": [], "languages": [], "places_of_operation": [], "biography": "", "biography_author": null, "date_of_biography": "2023-08-09T03:46:04.701168+10:00", "external_links": [], "uuid": "44b96f1b-4c11-45f8-899e-dcc1610a09e7", "source": {"name": "Vernon", "slug": "vernon"}, "source_identifier": "27095", "external_references": [], "date_modified": "2025-03-12T01:31:41.238540+11:00"}, {"id": 15521, "name": "Media-Four Productions", "roles_in_work": [{"id": 2715289, "title": "The Heart and circulatory system", "work_id": 68366, "role": "production company", "role_id": 941, "is_primary": true}], "also_known_as": "", "date_of_birth": null, "date_of_death": null, "genders": [], "languages": [], "places_of_operation": [], "biography": "", "biography_author": null, "date_of_biography": null, "external_links": [], "uuid": "18af3d43-1956-43b8-bc20-c0ba14d75a8b", "source": {"name": "Vernon", "slug": "vernon"}, "source_identifier": "10435", "external_references": [], "date_modified": "2025-03-12T01:31:31.896920+11:00"}, {"id": 15520, "name": "A. Henley", "roles_in_work": [{"id": 2715288, "title": "Heard and not seen", "work_id": 68365, "role": "director", "role_id": 938, "is_primary": true}], "also_known_as": "", "date_of_birth": "", "date_of_death": "", "genders": [], "languages": [], "places_of_operation": [], "biography": "", "biography_author": null, "date_of_biography": "2023-08-11T17:17:09.134556+10:00", "external_links": [], "uuid": "e98d5144-6264-40a4-a35b-49d31f0ee040", "source": {"name": "Vernon", "slug": "vernon"}, "source_identifier": "14595", "external_references": [], "date_modified": "2025-03-12T01:31:31.011290+11:00"}, {"id": 15519, "name": "Masters and Boys of Holloway School", "roles_in_work": [{"id": 2715287, "title": "Heard and not seen", "work_id": 68365, "role": "production company", "role_id": 941, "is_primary": true}], "also_known_as": "", "date_of_birth": "", "date_of_death": "", "genders": [], "languages": [], "places_of_operation": [], "biography": "", "biography_author": null, "date_of_biography": "2023-08-11T17:17:08.485235+10:00", "external_links": [], "uuid": "91300333-35fb-4afa-9fe0-0e53794dadef", "source": {"name": "Vernon", "slug": "vernon"}, "source_identifier": "10346", "external_references": [], "date_modified": "2025-03-12T01:31:30.406029+11:00"}, {"id": 15518, "name": "Templar Film Studio", "roles_in_work": [{"id": 2715282, "title": "Health of a city", "work_id": 68363, "role": "production company", "role_id": 941, "is_primary": true}], "also_known_as": "", "date_of_birth": null, "date_of_death": null, "genders": [], "languages": [], "places_of_operation": [], "biography": "", "biography_author": null, "date_of_biography": null, "external_links": [], "uuid": "abf758fc-cd3e-42aa-8652-470c7b9132ab", "source": {"name": "Vernon", "slug": "vernon"}, "source_identifier": "13283", "external_references": [], "date_modified": "2025-03-12T01:31:26.865517+11:00"}, {"id": 15517, "name": "Norman Siegel", "roles_in_work": [{"id": 2715280, "title": "The Health food movement", "work_id": 68361, "role": "director", "role_id": 938, "is_primary": true}, {"id": 2715293, "title": "Life and health: the heart - counter attack", "work_id": 68367, "role": "producer/director", "role_id": 31, "is_primary": true}, {"id": 2647229, "title": "Life and health: the heart attack", "work_id": 75683, "role": "producer/director", "role_id": 31, "is_primary": true}], "also_known_as": "", "date_of_birth": null, "date_of_death": null, "genders": [], "languages": [], "places_of_operation": [], "biography": "", "biography_author": null, "date_of_biography": null, "external_links": [], "uuid": "d01cf3a1-b956-430f-84e5-542fc8f6af67", "source": {"name": "Vernon", "slug": "vernon"}, "source_identifier": "25911", "external_references": [], "date_modified": "2025-03-12T01:31:34.644851+11:00"}]}