{"count": 28681, "next": "https://api.acmi.net.au/creators/?page=1705", "previous": "https://api.acmi.net.au/creators/?page=1703", "results": [{"id": 28527, "name": "Raoul Ploquin", "roles_in_work": [{"id": 3104864, "title": "Les Dames du Bois de Boulogne", "work_id": 116120, "role": "producer", "role_id": 1089, "is_primary": true}, {"id": 1990861, "title": "Les Dames du Bois de Boulogne", "work_id": 86471, "role": "producer", "role_id": 1089, "is_primary": true}, {"id": 3104794, "title": "L'etrange Monsieur Victor = the Strange Mr. Victor", "work_id": 116085, "role": "producer", "role_id": 1089, "is_primary": true}, {"id": 3105013, "title": "Gueule D'amour = Lady Killer", "work_id": 116203, "role": "producer", "role_id": 1089, "is_primary": true}, {"id": 3104990, "title": "Les Coeurs Verts = the Green Hearts", "work_id": 116192, "role": "producer", "role_id": 1089, "is_primary": true}], "also_known_as": "", "date_of_birth": "1900-05-30", "date_of_death": "1992-11-29", "genders": [{"id": 9, "name": "Male", "slug": "male"}], "languages": [{"id": 4, "name": "French", "slug": "french"}], "places_of_operation": [{"id": 17, "name": "France", "slug": "france"}], "biography": "Raoul Edouard Ploquin (20 May 1900 – 29 November 1992) was a French film producer, production manager and screenwriter. He was co-nominated for the Academy Award for Best Story for the film The Sheep Has Five Legs (1954).", "biography_author": "Wikidata", "date_of_biography": "2023-09-06T00:21:25.704084+10:00", "external_links": [{"id": 2037, "uri": "https://en.wikipedia.org/wiki/Raoul_Ploquin"}], "uuid": "c9f0155a-2b60-48f2-b4fb-3c5e58932b0a", "source": {"name": "Vernon", "slug": "vernon"}, "source_identifier": "27125", "external_references": [{"id": 12379, "source": {"name": "Wikidata", "slug": "wikidata"}, "source_identifier": "Q241242"}, {"id": 30979, "source": {"name": "VIAF", "slug": "viaf"}, "source_identifier": "312620545"}, {"id": 30980, "source": {"name": "WorldCat", "slug": "worldcat"}, "source_identifier": "viaf-312620545"}], "date_modified": "2025-05-22T22:55:26.642374+10:00"}, {"id": 28526, "name": "Films Raoul Ploquin", "roles_in_work": [{"id": 1990860, "title": "Les Dames du Bois de Boulogne", "work_id": 86471, "role": "production company", "role_id": 941, "is_primary": true}], "also_known_as": "", "date_of_birth": "1900-05-30", "date_of_death": "1992-11-29", "genders": [{"id": 9, "name": "Male", "slug": "male"}], "languages": [{"id": 4, "name": "French", "slug": "french"}], "places_of_operation": [{"id": 17, "name": "France", "slug": "france"}], "biography": "Raoul Edouard Ploquin (20 May 1900 – 29 November 1992) was a French film producer, production manager and screenwriter. He was co-nominated for the Academy Award for Best Story for the film The Sheep Has Five Legs (1954).", "biography_author": "Wikidata", "date_of_biography": "2022-05-19T11:27:31.577880+10:00", "external_links": [{"id": 2037, "uri": "https://en.wikipedia.org/wiki/Raoul_Ploquin"}], "uuid": "914bb434-e58e-41b6-9745-3fbe0ca06c3d", "source": {"name": "Vernon", "slug": "vernon"}, "source_identifier": "8322", "external_references": [{"id": 8792, "source": {"name": "Wikidata", "slug": "wikidata"}, "source_identifier": "Q241242"}, {"id": 8793, "source": {"name": "VIAF", "slug": "viaf"}, "source_identifier": "312620545"}, {"id": 8794, "source": {"name": "WorldCat", "slug": "worldcat"}, "source_identifier": "viaf-312620545"}], "date_modified": "2023-09-13T12:29:22.351928+10:00"}, {"id": 28525, "name": "Filverlag der Authoren", "roles_in_work": [{"id": 2245986, "title": "Fontane Effi Briest = Effi Briest", "work_id": 86470, "role": "production company", "role_id": 941, "is_primary": true}], "also_known_as": "", "date_of_birth": "", "date_of_death": "", "genders": [], "languages": [], "places_of_operation": [], "biography": "", "biography_author": null, "date_of_biography": "2023-05-09T17:02:55.547758+10:00", "external_links": [], "uuid": "f9410485-d61c-40ae-b65b-6a982dd84ae6", "source": {"name": "Vernon", "slug": "vernon"}, "source_identifier": "8342", "external_references": [{"id": 37492, "source": {"name": "Wikidata", "slug": "wikidata"}, "source_identifier": "Q121144289"}], "date_modified": "2023-09-05T19:43:48.544090+10:00"}, {"id": 28524, "name": "Peter Marthesheimer", "roles_in_work": [{"id": 2615951, "title": "Martha", "work_id": 86469, "role": "producer", "role_id": 1089, "is_primary": true}], "also_known_as": "", "date_of_birth": "1937-07-09", "date_of_death": "2004-06-18", "genders": [{"id": 9, "name": "Male", "slug": "male"}], "languages": [{"id": 5, "name": "German", "slug": "german"}], "places_of_operation": [{"id": 18, "name": "Germany", "slug": "germany"}], "biography": "Peter Märthesheimer (Kiel, 9 July 1937 – Berlin, 18 June 2004) was a German screenwriter, producer and author.", "biography_author": "Wikidata", "date_of_biography": "2022-05-19T12:42:36.164616+10:00", "external_links": [{"id": 2863, "uri": "https://en.wikipedia.org/wiki/Peter_M%C3%A4rthesheimer"}], "uuid": "ca0fae63-4aee-4f21-9c7e-a010f0f379fe", "source": {"name": "Vernon", "slug": "vernon"}, "source_identifier": "26632", "external_references": [{"id": 12171, "source": {"name": "Wikidata", "slug": "wikidata"}, "source_identifier": "Q109206"}, {"id": 12172, "source": {"name": "VIAF", "slug": "viaf"}, "source_identifier": "115234441"}, {"id": 12173, "source": {"name": "LOC Auth", "slug": "loc-auth"}, "source_identifier": "n79146839"}, {"id": 12174, "source": {"name": "WorldCat", "slug": "worldcat"}, "source_identifier": "lccn-n79146839"}], "date_modified": "2025-02-26T20:32:00.463561+11:00"}, {"id": 28523, "name": "Les Films du Palais Royal", "roles_in_work": [{"id": 2615947, "title": "Orphee", "work_id": 86468, "role": "production company", "role_id": 941, "is_primary": true}], "also_known_as": "", "date_of_birth": "", "date_of_death": "", "genders": [], "languages": [], "places_of_operation": [], "biography": "", "biography_author": null, "date_of_biography": "2023-05-09T14:48:52.401923+10:00", "external_links": [], "uuid": "99350d15-dedc-4ccc-b1dd-a8dd111e573f", "source": {"name": "Vernon", "slug": "vernon"}, "source_identifier": "10009", "external_references": [{"id": 37226, "source": {"name": "Wikidata", "slug": "wikidata"}, "source_identifier": "Q121126253"}], "date_modified": "2025-02-26T20:31:57.809297+11:00"}, {"id": 28519, "name": "Dovzhenko Studios", "roles_in_work": [{"id": 2296777, "title": "Shadows of our forgotten ancestors = Wild Horses of Fire", "work_id": 86466, "role": "production company", "role_id": 941, "is_primary": true}], "also_known_as": "", "date_of_birth": "", "date_of_death": "", "genders": [], "languages": [], "places_of_operation": [], "biography": "", "biography_author": null, "date_of_biography": "2023-05-09T18:28:56.465314+10:00", "external_links": [], "uuid": "81d9cde5-cf0a-4d78-84fc-0a9952a43399", "source": {"name": "Vernon", "slug": "vernon"}, "source_identifier": "7656", "external_references": [{"id": 51466, "source": {"name": "Wikidata", "slug": "wikidata"}, "source_identifier": "Q121357621"}], "date_modified": "2023-09-05T19:21:23.601097+10:00"}, {"id": 28518, "name": "Family Planning Association of Victoria", "roles_in_work": [{"id": 2465928, "title": "So you won't get aids (Captioned)", "work_id": 86465, "role": "producer", "role_id": 1089, "is_primary": true}], "also_known_as": "", "date_of_birth": "", "date_of_death": "", "genders": [], "languages": [], "places_of_operation": [], "biography": "", "biography_author": null, "date_of_biography": "2023-08-14T10:45:33.219681+10:00", "external_links": [], "uuid": "2cfe012f-7982-4a4d-a7e0-cc5825acdee5", "source": {"name": "Vernon", "slug": "vernon"}, "source_identifier": "8093", "external_references": [], "date_modified": "2023-08-14T10:45:33.219948+10:00"}, {"id": 28517, "name": "Antiteater", "roles_in_work": [{"id": 2327164, "title": "The American soldier = Der Americkanische soldat", "work_id": 86463, "role": "production company", "role_id": 941, "is_primary": true}], "also_known_as": "", "date_of_birth": "", "date_of_death": "", "genders": [], "languages": [], "places_of_operation": [], "biography": "", "biography_author": null, "date_of_biography": "2023-05-09T19:20:47.686943+10:00", "external_links": [], "uuid": "75d0aaee-4a60-45ca-8e0a-cf485d74afd0", "source": {"name": "Vernon", "slug": "vernon"}, "source_identifier": "5300", "external_references": [{"id": 33200, "source": {"name": "Wikidata", "slug": "wikidata"}, "source_identifier": "Q121091465"}], "date_modified": "2023-09-05T17:42:06.245694+10:00"}, {"id": 28516, "name": "Jinkichi Minoura", "roles_in_work": [{"id": 2236572, "title": "Rashomon = In the woods", "work_id": 86462, "role": "producer", "role_id": 1089, "is_primary": true}], "also_known_as": "", "date_of_birth": "", "date_of_death": "", "genders": [], "languages": [], "places_of_operation": [], "biography": "", "biography_author": null, "date_of_biography": "2023-05-09T16:46:45.282715+10:00", "external_links": [], "uuid": "0a171f39-561c-4874-a4ed-504dba84ed36", "source": {"name": "Vernon", "slug": "vernon"}, "source_identifier": "21940", "external_references": [{"id": 32384, "source": {"name": "Wikidata", "slug": "wikidata"}, "source_identifier": "Q121160074"}], "date_modified": "2023-09-05T21:26:24.348842+10:00"}, {"id": 28515, "name": "Hal Walker", "roles_in_work": [{"id": 2102845, "title": "At war with the army", "work_id": 86461, "role": "director", "role_id": 938, "is_primary": true}], "also_known_as": "", "date_of_birth": "1896-03-20", "date_of_death": "1972-07-03", "genders": [{"id": 9, "name": "Male", "slug": "male"}], "languages": [{"id": 1, "name": "English", "slug": "english"}], "places_of_operation": [{"id": 1, "name": "United States of America", "slug": "united-states-of-america"}], "biography": "Hal Walker (March 20, 1896 – July 3, 1972) was an American film director. He was known for doing some of the earliest Dean Martin and Jerry Lewis films such as At War with the Army and Sailor Beware and some with the team of Bing Crosby and Bob Hope, directing Road to Utopia and Road to Bali.\nHe was nominated at the 10th Academy Awards for the now defunct category of Best Assistant Director. He was nominated for the film Souls at Sea.\n\n", "biography_author": "Wikidata", "date_of_biography": "2022-05-19T11:41:13.665336+10:00", "external_links": [{"id": 2184, "uri": "https://en.wikipedia.org/wiki/Hal_Walker"}], "uuid": "41e20bfe-fce3-44dc-917f-cca2afbdd11f", "source": {"name": "Vernon", "slug": "vernon"}, "source_identifier": "20206", "external_references": [{"id": 9395, "source": {"name": "Wikidata", "slug": "wikidata"}, "source_identifier": "Q1570158"}, {"id": 9396, "source": {"name": "VIAF", "slug": "viaf"}, "source_identifier": "59282768"}, {"id": 9397, "source": {"name": "LOC Auth", "slug": "loc-auth"}, "source_identifier": "nr2001021140"}, {"id": 9398, "source": {"name": "WorldCat", "slug": "worldcat"}, "source_identifier": "lccn-nr2001021140"}], "date_modified": "2023-09-13T12:29:48.085171+10:00"}]}