{"count": 28687, "next": "https://api.acmi.net.au/creators/?page=637", "previous": "https://api.acmi.net.au/creators/?page=635", "results": [{"id": 79223, "name": "Andrea Lang", "roles_in_work": [{"id": 2043652, "title": "Thomson of Arnhem Land", "work_id": 89802, "role": "editor", "role_id": 918, "is_primary": true}], "also_known_as": "", "date_of_birth": null, "date_of_death": null, "genders": [], "languages": [], "places_of_operation": [], "biography": "", "biography_author": null, "date_of_biography": null, "external_links": [], "uuid": "a82d3035-91d6-4b72-8ec9-a67292ae935b", "source": {"name": "Vernon", "slug": "vernon"}, "source_identifier": null, "external_references": [{"id": 42706, "source": {"name": "Wikidata", "slug": "wikidata"}, "source_identifier": "Q121036877"}], "date_modified": "2023-09-05T17:34:29.001980+10:00"}, {"id": 79222, "name": "Anni Finsterer", "roles_in_work": [{"id": 2043650, "title": "Thomson of Arnhem Land", "work_id": 89802, "role": "narrator", "role_id": 499, "is_primary": false}], "also_known_as": "", "date_of_birth": null, "date_of_death": null, "genders": [{"id": 5, "name": "Female", "slug": "female"}], "languages": [], "places_of_operation": [], "biography": "Anni Finsterer is an Australian actress. For her performance in 3 Acts of Murder she won the 2009 Australian Film Institute Award for Best Guest or Supporting Actress in Television Drama.", "biography_author": "Wikidata", "date_of_biography": "2023-09-05T17:40:43.589967+10:00", "external_links": [{"id": 5682, "uri": "https://en.wikipedia.org/wiki/Anni_Finsterer"}], "uuid": "05c940e6-43c6-45bb-826f-deb62b110daf", "source": {"name": "Vernon", "slug": "vernon"}, "source_identifier": null, "external_references": [{"id": 51586, "source": {"name": "Wikidata", "slug": "wikidata"}, "source_identifier": "Q66210745"}], "date_modified": "2023-09-05T17:40:43.609916+10:00"}, {"id": 79221, "name": "Nicola Woolmington", "roles_in_work": [{"id": 2192111, "title": "Paying for the past [Widescreen]", "work_id": 94176, "role": "director", "role_id": 938, "is_primary": true}, {"id": 803764, "title": "Where angels fear to tread", "work_id": 89801, "role": "director", "role_id": 938, "is_primary": true}], "also_known_as": "", "date_of_birth": "", "date_of_death": "", "genders": [], "languages": [], "places_of_operation": [], "biography": "", "biography_author": null, "date_of_biography": "2023-05-09T15:10:36.329919+10:00", "external_links": [], "uuid": "911c28c9-d184-4334-bd65-804eb9cee5bb", "source": {"name": "Vernon", "slug": "vernon"}, "source_identifier": "25783", "external_references": [{"id": 34918, "source": {"name": "Wikidata", "slug": "wikidata"}, "source_identifier": "Q121143935"}], "date_modified": "2023-09-05T23:30:36.144518+10:00"}, {"id": 79220, "name": "Paul Woolveridge", "roles_in_work": [{"id": 818214, "title": "Nursery rhyme favourites. Vol. 1", "work_id": 94057, "role": "producer/director", "role_id": 31, "is_primary": true}, {"id": 818217, "title": "Nursery rhyme favourites. Vol. 2", "work_id": 94058, "role": "producer/director", "role_id": 31, "is_primary": true}, {"id": 876012, "title": "Hans Christian Andersen. Vol. 2", "work_id": 89798, "role": "producer/director", "role_id": 31, "is_primary": true}, {"id": 876015, "title": "Hans Christian Andersen. Vol. 3", "work_id": 89799, "role": "producer/director", "role_id": 31, "is_primary": true}, {"id": 876009, "title": "Hans Christian Andersen. Vol. 1", "work_id": 89797, "role": "producer/director", "role_id": 31, "is_primary": true}], "also_known_as": "", "date_of_birth": null, "date_of_death": null, "genders": [], "languages": [], "places_of_operation": [], "biography": "", "biography_author": null, "date_of_biography": null, "external_links": [], "uuid": "ab1512b5-cea8-4d39-9d11-23f84b56e0da", "source": {"name": "Vernon", "slug": "vernon"}, "source_identifier": null, "external_references": [{"id": 50782, "source": {"name": "Wikidata", "slug": "wikidata"}, "source_identifier": "Q121360618"}], "date_modified": "2023-09-05T23:50:13.695402+10:00"}, {"id": 79219, "name": "John Roberdeau", "roles_in_work": [{"id": 2270970, "title": "The Thin red line (Malick)", "work_id": 89792, "role": "co-producer", "role_id": 915, "is_primary": true}], "also_known_as": "", "date_of_birth": "1953-08-17", "date_of_death": "2002-05-06", "genders": [{"id": 9, "name": "Male", "slug": "male"}], "languages": [], "places_of_operation": [], "biography": "", "biography_author": null, "date_of_biography": "2023-05-09T17:45:13.247198+10:00", "external_links": [], "uuid": "f877219e-74bb-42bf-816f-d6869f395f15", "source": {"name": "Vernon", "slug": "vernon"}, "source_identifier": "22499", "external_references": [{"id": 42375, "source": {"name": "Wikidata", "slug": "wikidata"}, "source_identifier": "Q11866760"}, {"id": 54909, "source": {"name": "VIAF", "slug": "viaf"}, "source_identifier": "156142849"}, {"id": 54910, "source": {"name": "LOC Auth", "slug": "loc-auth"}, "source_identifier": "no97018210"}, {"id": 54911, "source": {"name": "WorldCat", "slug": "worldcat"}, "source_identifier": "viaf-156142849"}], "date_modified": "2023-09-05T21:43:59.863757+10:00"}, {"id": 79218, "name": "Robert Michael Geisler", "roles_in_work": [{"id": 2270964, "title": "The Thin red line (Malick)", "work_id": 89792, "role": "co-producer", "role_id": 915, "is_primary": true}], "also_known_as": "", "date_of_birth": null, "date_of_death": "", "genders": [{"id": 9, "name": "Male", "slug": "male"}], "languages": [], "places_of_operation": [{"id": 1, "name": "United States of America", "slug": "united-states-of-america"}], "biography": "", "biography_author": null, "date_of_biography": "2023-05-09T17:45:13.009720+10:00", "external_links": [], "uuid": "9971e715-7a31-428e-9670-3d495859ee59", "source": {"name": "Vernon", "slug": "vernon"}, "source_identifier": "27834", "external_references": [{"id": 38705, "source": {"name": "Wikidata", "slug": "wikidata"}, "source_identifier": "Q11891031"}, {"id": 55686, "source": {"name": "VIAF", "slug": "viaf"}, "source_identifier": "56213438"}], "date_modified": "2023-09-06T00:44:31.990956+10:00"}, {"id": 79217, "name": "Gaetano Daniele", "roles_in_work": [{"id": 2475721, "title": "The Postman = Il Postino", "work_id": 89776, "role": "co-producer", "role_id": 915, "is_primary": true}], "also_known_as": "", "date_of_birth": "1956-07-13", "date_of_death": "", "genders": [{"id": 9, "name": "Male", "slug": "male"}], "languages": [{"id": 6, "name": "Italian", "slug": "italian"}], "places_of_operation": [{"id": 19, "name": "Italy", "slug": "italy"}], "biography": "Gaetano Daniele (born 13 July 1956) is an Italian film producer. He was a producer for Il Postino: The Postman (1994) which won the BAFTA Award for Best Film Not in the English Language in 1996. The film also earned him an Academy Award nomination for Best Picture.", "biography_author": "Wikidata", "date_of_biography": "2023-09-05T19:55:44.410832+10:00", "external_links": [{"id": 4006, "uri": "https://en.wikipedia.org/wiki/Gaetano_Daniele"}], "uuid": "cc0220be-db87-4fd4-950f-c5f55ae4a793", "source": {"name": "Vernon", "slug": "vernon"}, "source_identifier": "19343", "external_references": [{"id": 25596, "source": {"name": "Wikidata", "slug": "wikidata"}, "source_identifier": "Q5516681"}], "date_modified": "2023-09-05T19:55:44.421514+10:00"}, {"id": 79216, "name": "Ulrich Felsburg", "roles_in_work": [{"id": 2126406, "title": "Buena vista social club", "work_id": 89772, "role": "co-producer", "role_id": 915, "is_primary": true}], "also_known_as": "", "date_of_birth": null, "date_of_death": "", "genders": [{"id": 9, "name": "Male", "slug": "male"}], "languages": [], "places_of_operation": [], "biography": "", "biography_author": null, "date_of_biography": "2023-05-09T13:11:35.941953+10:00", "external_links": [], "uuid": "210a81dc-aa34-4009-8f29-0c63b2bcff81", "source": {"name": "Vernon", "slug": "vernon"}, "source_identifier": "30021", "external_references": [{"id": 13722, "source": {"name": "Wikidata", "slug": "wikidata"}, "source_identifier": "Q21468473"}, {"id": 13723, "source": {"name": "VIAF", "slug": "viaf"}, "source_identifier": "302435807"}, {"id": 13724, "source": {"name": "LOC Auth", "slug": "loc-auth"}, "source_identifier": "nr98015672"}, {"id": 13725, "source": {"name": "WorldCat", "slug": "worldcat"}, "source_identifier": "lccn-nr98015672"}], "date_modified": "2023-09-06T02:00:45.368782+10:00"}, {"id": 79215, "name": "Ned Tanen", "roles_in_work": [{"id": 1997168, "title": "Guarding Tess", "work_id": 93148, "role": "co-producer", "role_id": 915, "is_primary": true}, {"id": 2334316, "title": "The Breakfast club", "work_id": 89768, "role": "co-producer", "role_id": 915, "is_primary": true}], "also_known_as": "", "date_of_birth": "1931-09-30", "date_of_death": "2009-01-05", "genders": [{"id": 9, "name": "Male", "slug": "male"}], "languages": [], "places_of_operation": [{"id": 1, "name": "United States of America", "slug": "united-states-of-america"}], "biography": "Ned Stone Tanen (c. September 20, 1931 – January 5, 2009) was an American film studio executive. The films he produced were some of the most popular films of the 1970s and 1980s, including the 2 key Brat Pack films The Breakfast Club and St. Elmo's Fire, as well as Smokey and the Bandit, American Graffiti, Coal Miner's Daughter, The Deer Hunter, Crocodile Dundee, Top Gun, Animal House, and many others.", "biography_author": "Wikidata", "date_of_biography": "2023-08-01T16:22:17.729187+10:00", "external_links": [{"id": 2771, "uri": "https://en.wikipedia.org/wiki/Ned_Tanen"}], "uuid": "cf4cc4cb-3b94-4b80-83ee-87c3c3d5f024", "source": {"name": "Vernon", "slug": "vernon"}, "source_identifier": "25660", "external_references": [{"id": 11802, "source": {"name": "Wikidata", "slug": "wikidata"}, "source_identifier": "Q1674695"}, {"id": 11803, "source": {"name": "VIAF", "slug": "viaf"}, "source_identifier": "87042138"}, {"id": 11804, "source": {"name": "LOC Auth", "slug": "loc-auth"}, "source_identifier": "no96054490"}, {"id": 11805, "source": {"name": "WorldCat", "slug": "worldcat"}, "source_identifier": "lccn-no96054490"}], "date_modified": "2023-09-05T23:26:48.677232+10:00"}, {"id": 79214, "name": "Jonathan Kaplan", "roles_in_work": [{"id": 2231228, "title": "Project X", "work_id": 89767, "role": "director", "role_id": 938, "is_primary": true}], "also_known_as": "", "date_of_birth": "1947-11-25", "date_of_death": "", "genders": [{"id": 9, "name": "Male", "slug": "male"}], "languages": [{"id": 4, "name": "French", "slug": "french"}], "places_of_operation": [{"id": 17, "name": "France", "slug": "france"}], "biography": "Jonathan Kaplan (born November 25, 1947) is an American film producer and director. His film The Accused (1988) earned actress Jodie Foster an Oscar for Best Actress and was nominated for the Golden Bear at the 39th Berlin International Film Festival. His film Love Field (1992) earned actress Michelle Pfeiffer an Oscar nomination for Best Actress and was nominated for the Golden Bear at the 43rd Berlin International Film Festival. Kaplan received five Emmy nominations for his roles directing and producing the television series ER.\n\n", "biography_author": "Wikidata", "date_of_biography": "2023-08-01T15:41:44.969604+10:00", "external_links": [{"id": 2457, "uri": "https://en.wikipedia.org/wiki/Jonathan_Kaplan"}], "uuid": "5bd9a06e-190b-4464-891c-d0a1f863317f", "source": {"name": "Vernon", "slug": "vernon"}, "source_identifier": "22657", "external_references": [{"id": 10505, "source": {"name": "Wikidata", "slug": "wikidata"}, "source_identifier": "Q1703212"}, {"id": 10506, "source": {"name": "VIAF", "slug": "viaf"}, "source_identifier": "41082731"}, {"id": 10507, "source": {"name": "LOC Auth", "slug": "loc-auth"}, "source_identifier": "no95008504"}, {"id": 10508, "source": {"name": "WorldCat", "slug": "worldcat"}, "source_identifier": "lccn-no95008504"}], "date_modified": "2023-09-05T21:48:40.527048+10:00"}]}