{"count": 28687, "next": "https://api.acmi.net.au/creators/?page=152", "previous": "https://api.acmi.net.au/creators/?page=150", "results": [{"id": 84097, "name": "Interplay Theatre", "roles_in_work": [{"id": 2718765, "title": "One Man's Walk", "work_id": 117395, "role": "production company", "role_id": 941, "is_primary": true}], "also_known_as": "", "date_of_birth": "", "date_of_death": "", "genders": [], "languages": [], "places_of_operation": [], "biography": "", "biography_author": null, "date_of_biography": "2023-05-09T19:29:56.068389+10:00", "external_links": [], "uuid": "14dca388-9621-46b4-8935-1cde059b5559", "source": {"name": "Vernon", "slug": "vernon"}, "source_identifier": "37219", "external_references": [{"id": 33451, "source": {"name": "Wikidata", "slug": "wikidata"}, "source_identifier": "Q121314964"}], "date_modified": "2025-03-12T06:40:12.786846+11:00"}, {"id": 84096, "name": "Chloe Petite", "roles_in_work": [{"id": 2718730, "title": "A Mile in our Shoes", "work_id": 117394, "role": "photographer", "role_id": 440, "is_primary": false}], "also_known_as": "", "date_of_birth": "", "date_of_death": "", "genders": [], "languages": [], "places_of_operation": [], "biography": "", "biography_author": null, "date_of_biography": "2023-05-09T19:29:50.259172+10:00", "external_links": [], "uuid": "1b437912-b184-4abd-bcf2-c1c85ac7c9ad", "source": {"name": "Vernon", "slug": "vernon"}, "source_identifier": "37209", "external_references": [], "date_modified": "2025-03-12T06:39:08.988958+11:00"}, {"id": 84095, "name": "Sarah Mortimer", "roles_in_work": [{"id": 2718728, "title": "A Mile in our Shoes", "work_id": 117394, "role": "editor", "role_id": 918, "is_primary": true}], "also_known_as": "", "date_of_birth": "", "date_of_death": "", "genders": [], "languages": [], "places_of_operation": [], "biography": "", "biography_author": null, "date_of_biography": "2023-05-09T19:29:50.024587+10:00", "external_links": [], "uuid": "bd38456d-4d98-4569-98b1-dd55a28a28fd", "source": {"name": "Vernon", "slug": "vernon"}, "source_identifier": "37208", "external_references": [{"id": 35888, "source": {"name": "Wikidata", "slug": "wikidata"}, "source_identifier": "Q121299126"}], "date_modified": "2025-03-12T06:39:04.317657+11:00"}, {"id": 84094, "name": "Daniel Walker", "roles_in_work": [{"id": 2718727, "title": "A Mile in our Shoes", "work_id": 117394, "role": "director", "role_id": 938, "is_primary": true}], "also_known_as": "", "date_of_birth": "", "date_of_death": "", "genders": [], "languages": [], "places_of_operation": [], "biography": "", "biography_author": null, "date_of_biography": "2023-05-09T19:29:49.800498+10:00", "external_links": [], "uuid": "5a6291aa-f0be-498b-849a-bbcd7ffe3599", "source": {"name": "Vernon", "slug": "vernon"}, "source_identifier": "37207", "external_references": [{"id": 41138, "source": {"name": "Wikidata", "slug": "wikidata"}, "source_identifier": "Q121337641"}], "date_modified": "2025-03-12T06:39:00.763507+11:00"}, {"id": 84093, "name": "Karl Armstrong", "roles_in_work": [{"id": 2718733, "title": "A Mile in our Shoes", "work_id": 117394, "role": "photographer", "role_id": 440, "is_primary": false}, {"id": 2718724, "title": "A Mile in our Shoes", "work_id": 117394, "role": "producer", "role_id": 1089, "is_primary": true}], "also_known_as": "", "date_of_birth": "", "date_of_death": "", "genders": [], "languages": [], "places_of_operation": [], "biography": "", "biography_author": null, "date_of_biography": "2023-05-09T19:29:50.472058+10:00", "external_links": [], "uuid": "1737d427-9f28-4a76-b623-7a72af77397f", "source": {"name": "Vernon", "slug": "vernon"}, "source_identifier": "37206", "external_references": [{"id": 32516, "source": {"name": "Wikidata", "slug": "wikidata"}, "source_identifier": "Q121034971"}], "date_modified": "2025-03-12T06:39:10.828534+11:00"}, {"id": 84092, "name": "Steph Winward", "roles_in_work": [{"id": 2718722, "title": "A Mile in our Shoes", "work_id": 117394, "role": "producer", "role_id": 1089, "is_primary": true}], "also_known_as": "", "date_of_birth": "", "date_of_death": "", "genders": [], "languages": [], "places_of_operation": [], "biography": "", "biography_author": null, "date_of_biography": "2023-05-09T19:29:49.264787+10:00", "external_links": [], "uuid": "aa50336e-8e82-4a22-b231-b546dd517bfd", "source": {"name": "Vernon", "slug": "vernon"}, "source_identifier": "37205", "external_references": [{"id": 51915, "source": {"name": "Wikidata", "slug": "wikidata"}, "source_identifier": "Q121357466"}], "date_modified": "2025-03-12T06:38:57.256466+11:00"}, {"id": 84091, "name": "The Junction", "roles_in_work": [{"id": 2718721, "title": "A Mile in our Shoes", "work_id": 117394, "role": "production company", "role_id": 941, "is_primary": true}], "also_known_as": "", "date_of_birth": "", "date_of_death": "", "genders": [], "languages": [], "places_of_operation": [], "biography": "", "biography_author": null, "date_of_biography": "2023-05-09T19:29:49.041063+10:00", "external_links": [], "uuid": "99b24a1e-dac7-4c61-a8c8-9991d4c37d14", "source": {"name": "Vernon", "slug": "vernon"}, "source_identifier": "37204", "external_references": [{"id": 32765, "source": {"name": "Wikidata", "slug": "wikidata"}, "source_identifier": "Q121035115"}], "date_modified": "2025-03-12T06:38:54.269921+11:00"}, {"id": 84090, "name": "Middlesbrough Football Club Study Support", "roles_in_work": [{"id": 2718720, "title": "A Mile in our Shoes", "work_id": 117394, "role": "production company", "role_id": 941, "is_primary": true}], "also_known_as": "", "date_of_birth": "", "date_of_death": "", "genders": [], "languages": [], "places_of_operation": [], "biography": "", "biography_author": null, "date_of_biography": "2023-05-09T19:29:48.809475+10:00", "external_links": [], "uuid": "ac2aa2a5-7d2a-451c-96a4-cfeb53244d16", "source": {"name": "Vernon", "slug": "vernon"}, "source_identifier": "37203", "external_references": [{"id": 36719, "source": {"name": "Wikidata", "slug": "wikidata"}, "source_identifier": "Q121159852"}], "date_modified": "2025-03-12T06:38:52.536052+11:00"}, {"id": 84089, "name": "Riverside Studios", "roles_in_work": [{"id": 2718719, "title": "A Mile in our Shoes", "work_id": 117394, "role": "production company", "role_id": 941, "is_primary": true}], "also_known_as": "", "date_of_birth": "", "date_of_death": "", "genders": [], "languages": [], "places_of_operation": [], "biography": "", "biography_author": null, "date_of_biography": "2023-05-09T19:29:48.582854+10:00", "external_links": [], "uuid": "97cd1889-ffdf-49d2-9d85-13c4e17f0f8e", "source": {"name": "Vernon", "slug": "vernon"}, "source_identifier": "37202", "external_references": [{"id": 40255, "source": {"name": "Wikidata", "slug": "wikidata"}, "source_identifier": "Q121222524"}], "date_modified": "2025-03-12T06:38:50.799828+11:00"}, {"id": 84088, "name": "Bloom Productions", "roles_in_work": [{"id": 2718710, "title": "Destination Point", "work_id": 117393, "role": "production company", "role_id": 941, "is_primary": true}], "also_known_as": "", "date_of_birth": "", "date_of_death": "", "genders": [], "languages": [], "places_of_operation": [], "biography": "", "biography_author": null, "date_of_biography": "2023-05-09T19:29:47.511054+10:00", "external_links": [], "uuid": "5e084a1a-445c-4445-8bd7-3b34683cc29f", "source": {"name": "Vernon", "slug": "vernon"}, "source_identifier": "37201", "external_references": [{"id": 43613, "source": {"name": "Wikidata", "slug": "wikidata"}, "source_identifier": "Q121035743"}], "date_modified": "2025-03-12T06:38:37.693608+11:00"}]}