{"count": 28687, "next": "https://api.acmi.net.au/creators/?page=2512", "previous": "https://api.acmi.net.au/creators/?page=2510", "results": [{"id": 13771, "name": "Heinrich Fueter", "roles_in_work": [{"id": 2680477, "title": "Copper kaleidoscope", "work_id": 66405, "role": "producer", "role_id": 1089, "is_primary": true}, {"id": 1814789, "title": "The Magic hankies", "work_id": 90148, "role": "producer", "role_id": 1089, "is_primary": true}, {"id": 2679726, "title": "Children of the mountains", "work_id": 66041, "role": "producer", "role_id": 1089, "is_primary": true}], "also_known_as": "", "date_of_birth": "", "date_of_death": "", "genders": [], "languages": [], "places_of_operation": [], "biography": "", "biography_author": null, "date_of_biography": "2023-08-11T15:25:07.012749+10:00", "external_links": [], "uuid": "da929b45-c092-4ab8-896a-907539644afd", "source": {"name": "Vernon", "slug": "vernon"}, "source_identifier": "18431", "external_references": [], "date_modified": "2025-03-07T00:36:13.458820+11:00"}, {"id": 13770, "name": "Condor Films", "roles_in_work": [{"id": 876569, "title": "The Magic hankies", "work_id": 90148, "role": "production company", "role_id": 941, "is_primary": true}, {"id": 2749735, "title": "Picasso: war, peace & love", "work_id": 96951, "role": "production company", "role_id": 941, "is_primary": true}, {"id": 2679725, "title": "Children of the mountains", "work_id": 66041, "role": "production company", "role_id": 941, "is_primary": true}, {"id": 2715154, "title": "The Happy pace of Switzerland", "work_id": 68304, "role": "production company", "role_id": 941, "is_primary": true}, {"id": 2680476, "title": "Copper kaleidoscope", "work_id": 66405, "role": "production company", "role_id": 941, "is_primary": true}], "also_known_as": "", "date_of_birth": "", "date_of_death": "", "genders": [], "languages": [], "places_of_operation": [], "biography": "", "biography_author": null, "date_of_biography": "2023-08-11T15:25:06.225342+10:00", "external_links": [], "uuid": "1f924d3d-8cf0-4abb-9d16-b3c9bb323ff0", "source": {"name": "Vernon", "slug": "vernon"}, "source_identifier": "6999", "external_references": [], "date_modified": "2025-03-13T00:06:13.038895+11:00"}, {"id": 13769, "name": "Conon Fraser", "roles_in_work": [{"id": 2679724, "title": "The Children of the mist", "work_id": 66040, "role": "director", "role_id": 938, "is_primary": true}, {"id": 2680078, "title": "Coal valley", "work_id": 66204, "role": "director", "role_id": 938, "is_primary": true}, {"id": 759218, "title": "Walking country", "work_id": 75335, "role": "director", "role_id": 938, "is_primary": true}, {"id": 864178, "title": "Crayfish coast", "work_id": 77787, "role": "director", "role_id": 938, "is_primary": true}, {"id": 897294, "title": "Green garden country", "work_id": 77303, "role": "director", "role_id": 938, "is_primary": true}, {"id": 1427459, "title": "Beyond the roaring forties", "work_id": 86723, "role": "director", "role_id": 938, "is_primary": true}, {"id": 862186, "title": "The Kauri", "work_id": 76082, "role": "director", "role_id": 938, "is_primary": true}, {"id": 2749937, "title": "Erosion of our land", "work_id": 97051, "role": "director", "role_id": 938, "is_primary": true}, {"id": 901217, "title": "Maori legends of New Zealand", "work_id": 81962, "role": "co-producer", "role_id": 915, "is_primary": true}], "also_known_as": "", "date_of_birth": "1930", "date_of_death": null, "genders": [], "languages": [], "places_of_operation": [], "biography": "", "biography_author": null, "date_of_biography": null, "external_links": [], "uuid": "3d0b7ee7-3222-44a0-a0bb-15a1ad3bce39", "source": {"name": "Vernon", "slug": "vernon"}, "source_identifier": "17212", "external_references": [], "date_modified": "2025-03-13T00:10:55.308705+11:00"}, {"id": 13768, "name": "Budge Cooper", "roles_in_work": [{"id": 2679721, "title": "The Children of the city", "work_id": 66039, "role": "director", "role_id": 938, "is_primary": true}, {"id": 2465237, "title": "Rat destruction", "work_id": 89513, "role": "director", "role_id": 938, "is_primary": true}], "also_known_as": "", "date_of_birth": "", "date_of_death": "", "genders": [], "languages": [], "places_of_operation": [], "biography": "", "biography_author": null, "date_of_biography": "2023-08-14T10:30:16.361266+10:00", "external_links": [], "uuid": "b82e2b82-3f85-459d-9f15-07f5c565bcf0", "source": {"name": "Vernon", "slug": "vernon"}, "source_identifier": "16377", "external_references": [], "date_modified": "2025-03-07T00:20:13.037500+11:00"}, {"id": 13767, "name": "Paul Rotha Productions", "roles_in_work": [{"id": 2465236, "title": "Rat destruction", "work_id": 89513, "role": "production company", "role_id": 941, "is_primary": true}, {"id": 2679719, "title": "The Children of the city", "work_id": 66039, "role": "production company", "role_id": 941, "is_primary": true}, {"id": 871969, "title": "Defeat diphtheria. - Rev. ed.", "work_id": 87337, "role": "production company", "role_id": 941, "is_primary": true}, {"id": 877977, "title": "Blood transfusion", "work_id": 91011, "role": "production company", "role_id": 941, "is_primary": true}, {"id": 2711901, "title": "Defeat diphtheria", "work_id": 66679, "role": "production company", "role_id": 941, "is_primary": true}], "also_known_as": "", "date_of_birth": "", "date_of_death": "", "genders": [], "languages": [], "places_of_operation": [], "biography": "", "biography_author": null, "date_of_biography": "2023-08-14T10:30:15.720336+10:00", "external_links": [], "uuid": "2083586e-a1f4-4f3d-8e7d-529e7ed7cb7a", "source": {"name": "Vernon", "slug": "vernon"}, "source_identifier": "11351", "external_references": [], "date_modified": "2025-03-12T00:06:00.084526+11:00"}, {"id": 13766, "name": "Randal Beattie", "roles_in_work": [{"id": 2679715, "title": "Children of revolution", "work_id": 66036, "role": "director", "role_id": 938, "is_primary": true}, {"id": 876631, "title": "Farewell Arabia", "work_id": 90180, "role": "director", "role_id": 938, "is_primary": true}, {"id": 2786790, "title": "Potential energy", "work_id": 82854, "role": "producer/director", "role_id": 31, "is_primary": true}, {"id": 2752708, "title": "Botanic man. - Volume 2: Episodes 5-7.", "work_id": 98423, "role": "producer/director", "role_id": 31, "is_primary": true}, {"id": 2786780, "title": "Greenprint for life", "work_id": 82851, "role": "producer/director", "role_id": 31, "is_primary": true}, {"id": 2786811, "title": "Botanic man", "work_id": 115324, "role": "producer/director", "role_id": 31, "is_primary": true}, {"id": 2786796, "title": "Latitude zero: Plant adaptations with altitude", "work_id": 82856, "role": "producer/director", "role_id": 31, "is_primary": true}, {"id": 2786793, "title": "Land of opportunity", "work_id": 82855, "role": "producer/director", "role_id": 31, "is_primary": true}, {"id": 2752704, "title": "Botanic man. - Volume 1: Episodes 1-4.", "work_id": 98422, "role": "producer/director", "role_id": 31, "is_primary": true}, {"id": 2752712, "title": "Botanic man. - Volume 3: Episodes 8-10.", "work_id": 98424, "role": "producer/director", "role_id": 31, "is_primary": true}], "also_known_as": "", "date_of_birth": "", "date_of_death": "", "genders": [], "languages": [], "places_of_operation": [], "biography": "", "biography_author": null, "date_of_biography": "2023-08-11T15:03:12.654984+10:00", "external_links": [], "uuid": "2cd33811-8b45-464c-bce5-0fc246a58653", "source": {"name": "Vernon", "slug": "vernon"}, "source_identifier": "27105", "external_references": [], "date_modified": "2025-03-14T19:34:52.609424+11:00"}, {"id": 13765, "name": "Michael Tuchner", "roles_in_work": [{"id": 2767614, "title": "Who killed the sale?", "work_id": 66034, "role": "director", "role_id": 938, "is_primary": true}, {"id": 1994747, "title": "The Sinking of the Rainbow Warrior", "work_id": 90532, "role": "director", "role_id": 938, "is_primary": true}, {"id": 2714860, "title": "The Goya effect", "work_id": 68149, "role": "director", "role_id": 938, "is_primary": true}, {"id": 858387, "title": "Shows promise - should go far (TEFC)", "work_id": 72794, "role": "director", "role_id": 938, "is_primary": true}], "also_known_as": "", "date_of_birth": "1932-06-24", "date_of_death": "2017-02-17", "genders": [{"id": 9, "name": "Male", "slug": "male"}], "languages": [{"id": 1, "name": "English", "slug": "english"}], "places_of_operation": [{"id": 10, "name": "United Kingdom", "slug": "united-kingdom"}], "biography": "Michael John Tuchner (24 June 1932 – 17 February 2017) was a British film and theatre director.\nBorn in Berlin, to German-Jewish parents, he was seven years old when his family moved to Britain with the rise of the Nazis. He eventually read classics at University College London, where he was president of the film society, and subsequently joined the BBC as a trainee editor on the Tonight programme. After work on documentaries and commercials, he made his debut as a TV director with The Wednesday Play in 1969.Feature films followed, and Tuchner's credits included Villain (1971), Fear is the Key (1972), Mister Quilp (1975), the film version of The Likely Lads (1976), The Hunchback of Notre Dame (1982), the Disney film Trenchcoat (1983), Wilt (1989) and Back to the Secret Garden (2001). Nominated for a BAFTA TV Award four times, he won for the 1975 television play Bar Mitzvah Boy.He died on 17 February 2017 at the age of 84.\n\n", "biography_author": "Wikidata", "date_of_biography": "2023-08-01T16:16:39.672927+10:00", "external_links": [{"id": 4717, "uri": "https://en.wikipedia.org/wiki/Michael_Tuchner"}], "uuid": "89a0f74a-a2db-4ef5-babb-754bd56ed0e1", "source": {"name": "Vernon", "slug": "vernon"}, "source_identifier": "25245", "external_references": [{"id": 25200, "source": {"name": "Wikidata", "slug": "wikidata"}, "source_identifier": "Q6834973"}, {"id": 30374, "source": {"name": "VIAF", "slug": "viaf"}, "source_identifier": "120953978"}, {"id": 30375, "source": {"name": "LOC Auth", "slug": "loc-auth"}, "source_identifier": "no89019143"}, {"id": 30376, "source": {"name": "WorldCat", "slug": "worldcat"}, "source_identifier": "lccn-no89019143"}], "date_modified": "2025-03-14T18:05:27.396026+11:00"}, {"id": 13764, "name": "Anthony Pelissier", "roles_in_work": [{"id": 875287, "title": "Portrait of a people: impressions of Britain", "work_id": 89432, "role": "director", "role_id": 938, "is_primary": true}, {"id": 2748935, "title": "Talkback: a study in communication", "work_id": 96553, "role": "director", "role_id": 938, "is_primary": true}, {"id": 754774, "title": "Suspects all", "work_id": 73409, "role": "director", "role_id": 938, "is_primary": true}, {"id": 906759, "title": "W. Somerset Maugham's Encore", "work_id": 87387, "role": "co-director", "role_id": 959, "is_primary": true}, {"id": 2767613, "title": "Who killed the sale?", "work_id": 66034, "role": "co-producer", "role_id": 915, "is_primary": true}, {"id": 1805758, "title": "Time to think", "work_id": 73848, "role": "producer", "role_id": 1089, "is_primary": true}], "also_known_as": "", "date_of_birth": "1912-07-27", "date_of_death": "1988-04-02", "genders": [{"id": 9, "name": "Male", "slug": "male"}], "languages": [{"id": 1, "name": "English", "slug": "english"}], "places_of_operation": [{"id": 10, "name": "United Kingdom", "slug": "united-kingdom"}], "biography": "Harry Anthony Compton Pelissier (27 July 1912 – 2 April 1988) was an English actor, screenwriter, producer and director.", "biography_author": "Wikidata", "date_of_biography": "2023-08-01T14:04:43.285346+10:00", "external_links": [{"id": 3573, "uri": "https://en.wikipedia.org/wiki/Anthony_Pelissier"}], "uuid": "02144718-0169-4038-a5ec-9908cf600696", "source": {"name": "Vernon", "slug": "vernon"}, "source_identifier": "15407", "external_references": [{"id": 27020, "source": {"name": "Wikidata", "slug": "wikidata"}, "source_identifier": "Q4773264"}, {"id": 27323, "source": {"name": "VIAF", "slug": "viaf"}, "source_identifier": "61747734"}, {"id": 27324, "source": {"name": "LOC Auth", "slug": "loc-auth"}, "source_identifier": "no2004118910"}, {"id": 27325, "source": {"name": "WorldCat", "slug": "worldcat"}, "source_identifier": "lccn-no2004118910"}], "date_modified": "2025-03-14T18:05:26.813738+11:00"}, {"id": 13763, "name": "Ian Latimer", "roles_in_work": [{"id": 2767611, "title": "Who killed the sale?", "work_id": 66034, "role": "co-producer", "role_id": 915, "is_primary": true}, {"id": 1810079, "title": "Cranwell: the Royal Air Force College", "work_id": 88757, "role": "producer", "role_id": 1089, "is_primary": true}, {"id": 2647236, "title": "Oh what a lovely report", "work_id": 75743, "role": "producer", "role_id": 1089, "is_primary": true}, {"id": 2714859, "title": "The Goya effect", "work_id": 68149, "role": "producer", "role_id": 1089, "is_primary": true}, {"id": 2748934, "title": "Talkback: a study in communication", "work_id": 96553, "role": "producer", "role_id": 1089, "is_primary": true}, {"id": 1807471, "title": "The Art of negotiating", "work_id": 87731, "role": "producer", "role_id": 1089, "is_primary": true}, {"id": 1813698, "title": "Portrait of a people: impressions of Britain", "work_id": 89432, "role": "producer", "role_id": 1089, "is_primary": true}, {"id": 1815418, "title": "Ships for the world: built in Britain", "work_id": 89165, "role": "producer", "role_id": 1089, "is_primary": true}, {"id": 1813600, "title": "Where do you go from here", "work_id": 74677, "role": "producer", "role_id": 1089, "is_primary": true}, {"id": 1819863, "title": "The Art of negotiating (TEFC)", "work_id": 77341, "role": "producer", "role_id": 1089, "is_primary": true}], "also_known_as": "", "date_of_birth": null, "date_of_death": null, "genders": [], "languages": [], "places_of_operation": [], "biography": "", "biography_author": null, "date_of_biography": null, "external_links": [], "uuid": "cf722699-f0ae-4fbb-bfd7-a8ee552d0a46", "source": {"name": "Vernon", "slug": "vernon"}, "source_identifier": "20766", "external_references": [], "date_modified": "2025-03-14T18:05:26.219140+11:00"}, {"id": 13762, "name": "Rank Organisation Short Films Group", "roles_in_work": [{"id": 874393, "title": "Cranwell: the Royal Air Force College", "work_id": 88757, "role": "production company", "role_id": 941, "is_primary": true}, {"id": 1551756, "title": "Time to think", "work_id": 73848, "role": "production company", "role_id": 941, "is_primary": true}, {"id": 2767609, "title": "Who killed the sale?", "work_id": 66034, "role": "production company", "role_id": 941, "is_primary": true}], "also_known_as": "", "date_of_birth": null, "date_of_death": null, "genders": [], "languages": [], "places_of_operation": [], "biography": "", "biography_author": null, "date_of_biography": null, "external_links": [], "uuid": "3828f918-d1a7-4da1-9b5d-70527c1b054c", "source": {"name": "Vernon", "slug": "vernon"}, "source_identifier": "11859", "external_references": [], "date_modified": "2025-03-14T18:05:25.530149+11:00"}]}