{"count": 28684, "next": "https://api.acmi.net.au/creators/?page=758", "previous": "https://api.acmi.net.au/creators/?page=756", "results": [{"id": 78010, "name": "Charlotte Angel", "roles_in_work": [{"id": 2322699, "title": "Teen suicide", "work_id": 85639, "role": "co-producer", "role_id": 915, "is_primary": true}], "also_known_as": "", "date_of_birth": "", "date_of_death": "", "genders": [], "languages": [], "places_of_operation": [], "biography": "", "biography_author": null, "date_of_biography": "2023-05-09T19:14:29.221143+10:00", "external_links": [], "uuid": "37c52f85-b0a0-422e-89c2-f47ace0ce96d", "source": {"name": "Vernon", "slug": "vernon"}, "source_identifier": "16751", "external_references": [{"id": 40787, "source": {"name": "Wikidata", "slug": "wikidata"}, "source_identifier": "Q121079374"}], "date_modified": "2023-09-05T18:28:58.640087+10:00"}, {"id": 78009, "name": "Oliver Henry", "roles_in_work": [{"id": 2793536, "title": "Judaism: the religion of a people", "work_id": 85633, "role": "producer/director", "role_id": 31, "is_primary": true}, {"id": 2793524, "title": "Buddhism: the middle way of compassion", "work_id": 85632, "role": "producer/director", "role_id": 31, "is_primary": true}, {"id": 2793527, "title": "Christianity: the way of goodness and mercy", "work_id": 85634, "role": "producer/director", "role_id": 31, "is_primary": true}, {"id": 2793530, "title": "Hinduism: an ancient path in the modern world", "work_id": 85635, "role": "producer/director", "role_id": 31, "is_primary": true}, {"id": 2793533, "title": "Islam: the faith and the people", "work_id": 85631, "role": "producer/director", "role_id": 31, "is_primary": true}, {"id": 2793545, "title": "Religions of the world", "work_id": 115473, "role": "producer/director", "role_id": 31, "is_primary": true}], "also_known_as": "", "date_of_birth": "", "date_of_death": "", "genders": [], "languages": [], "places_of_operation": [], "biography": "", "biography_author": null, "date_of_biography": "2023-05-09T18:30:33.989759+10:00", "external_links": [], "uuid": "766fd4cd-06eb-44a9-87ff-bfa5b98f8874", "source": {"name": "Vernon", "slug": "vernon"}, "source_identifier": "25943", "external_references": [{"id": 50564, "source": {"name": "Wikidata", "slug": "wikidata"}, "source_identifier": "Q121360707"}], "date_modified": "2025-03-14T20:18:44.964560+11:00"}, {"id": 78008, "name": "Gregory Ratoff", "roles_in_work": [{"id": 2475882, "title": "Intermezzo", "work_id": 85624, "role": "director", "role_id": 938, "is_primary": true}], "also_known_as": "", "date_of_birth": "1897-04-20", "date_of_death": "1960-12-14", "genders": [{"id": 9, "name": "Male", "slug": "male"}], "languages": [], "places_of_operation": [{"id": 1, "name": "United States of America", "slug": "united-states-of-america"}], "biography": "Gregory Ratoff (born Grigory Vasilyevich Ratner; Russian: Григорий Васильевич Ратнер, tr. Grigoriy Vasil’evich Ratner; April 20, c. 1893 – December 14, 1960) was a Russian-born American film director, actor and producer. As an actor, he was best known for his role as producer \"Max Fabian\" in All About Eve (1950).", "biography_author": "Wikidata", "date_of_biography": "2023-09-05T20:23:12.461626+10:00", "external_links": [{"id": 2165, "uri": "https://en.wikipedia.org/wiki/Gregory_Ratoff"}], "uuid": "10a39d27-9586-4dd4-8de0-e5240cc7bf6a", "source": {"name": "Vernon", "slug": "vernon"}, "source_identifier": "20087", "external_references": [{"id": 9318, "source": {"name": "Wikidata", "slug": "wikidata"}, "source_identifier": "Q1361039"}, {"id": 9319, "source": {"name": "VIAF", "slug": "viaf"}, "source_identifier": "44500797"}, {"id": 9320, "source": {"name": "LOC Auth", "slug": "loc-auth"}, "source_identifier": "n87847045"}, {"id": 9321, "source": {"name": "WorldCat", "slug": "worldcat"}, "source_identifier": "lccn-n87847045"}], "date_modified": "2023-09-05T20:23:14.470400+10:00"}, {"id": 78007, "name": "Owen Newman", "roles_in_work": [{"id": 2793411, "title": "The Haunted huntress. Night of the leopard", "work_id": 85623, "role": "co-producer", "role_id": 915, "is_primary": true}], "also_known_as": "", "date_of_birth": "", "date_of_death": "", "genders": [], "languages": [], "places_of_operation": [], "biography": "", "biography_author": null, "date_of_biography": "2023-05-09T20:01:19.941553+10:00", "external_links": [], "uuid": "fcd7f3a3-a03c-4ffe-8c2a-19ee31ec2374", "source": {"name": "Vernon", "slug": "vernon"}, "source_identifier": "26002", "external_references": [{"id": 34637, "source": {"name": "Wikidata", "slug": "wikidata"}, "source_identifier": "Q121036261"}], "date_modified": "2025-03-14T20:17:39.384167+11:00"}, {"id": 78006, "name": "Amanda Barrett", "roles_in_work": [{"id": 2793410, "title": "The Haunted huntress. Night of the leopard", "work_id": 85623, "role": "co-producer", "role_id": 915, "is_primary": true}], "also_known_as": "", "date_of_birth": "", "date_of_death": "", "genders": [], "languages": [], "places_of_operation": [], "biography": "", "biography_author": null, "date_of_biography": "2023-05-09T20:01:19.712033+10:00", "external_links": [], "uuid": "8f3fbb46-1fe7-4dbb-bbb8-09550eb056e0", "source": {"name": "Vernon", "slug": "vernon"}, "source_identifier": "15045", "external_references": [{"id": 32951, "source": {"name": "Wikidata", "slug": "wikidata"}, "source_identifier": "Q121036421"}], "date_modified": "2025-03-14T20:17:38.798605+11:00"}, {"id": 78005, "name": "Keith Scholey", "roles_in_work": [{"id": 2793409, "title": "The Haunted huntress. Night of the leopard", "work_id": 85623, "role": "co-producer", "role_id": 915, "is_primary": true}, {"id": 2793414, "title": "World of wildlife", "work_id": 115466, "role": "co-producer", "role_id": 915, "is_primary": true}], "also_known_as": "", "date_of_birth": "", "date_of_death": "", "genders": [], "languages": [], "places_of_operation": [], "biography": "", "biography_author": null, "date_of_biography": "2023-05-09T20:01:20.783355+10:00", "external_links": [], "uuid": "3fd893dd-e08c-4961-add8-d4e27322f9ea", "source": {"name": "Vernon", "slug": "vernon"}, "source_identifier": "23158", "external_references": [{"id": 36117, "source": {"name": "Wikidata", "slug": "wikidata"}, "source_identifier": "Q121337393"}], "date_modified": "2025-03-14T20:17:41.232763+11:00"}, {"id": 78004, "name": "Nick Litwinko", "roles_in_work": [{"id": 2331072, "title": "The Best of liquid television", "work_id": 85620, "role": "co-producer", "role_id": 915, "is_primary": true}], "also_known_as": "", "date_of_birth": "", "date_of_death": "", "genders": [], "languages": [], "places_of_operation": [], "biography": "", "biography_author": null, "date_of_biography": "2023-05-09T19:25:39.499660+10:00", "external_links": [], "uuid": "72a68c53-63e5-4b70-87bb-6165c3331523", "source": {"name": "Vernon", "slug": "vernon"}, "source_identifier": "25751", "external_references": [{"id": 33483, "source": {"name": "Wikidata", "slug": "wikidata"}, "source_identifier": "Q121337143"}], "date_modified": "2023-09-05T23:30:02.940529+10:00"}, {"id": 78003, "name": "Prudence Fenton", "roles_in_work": [{"id": 2331068, "title": "The Best of liquid television", "work_id": 85620, "role": "co-producer", "role_id": 915, "is_primary": true}], "also_known_as": "", "date_of_birth": "", "date_of_death": "", "genders": [], "languages": [], "places_of_operation": [], "biography": "", "biography_author": null, "date_of_biography": "2023-05-09T19:25:39.268304+10:00", "external_links": [], "uuid": "5cb886a1-f912-48b2-a613-ebda08cca947", "source": {"name": "Vernon", "slug": "vernon"}, "source_identifier": "26990", "external_references": [{"id": 42467, "source": {"name": "Wikidata", "slug": "wikidata"}, "source_identifier": "Q121036562"}], "date_modified": "2023-09-06T00:14:48.659130+10:00"}, {"id": 78002, "name": "MTV Music Television", "roles_in_work": [{"id": 2331066, "title": "The Best of liquid television", "work_id": 85620, "role": "production company", "role_id": 941, "is_primary": true}], "also_known_as": "", "date_of_birth": "", "date_of_death": "", "genders": [], "languages": [], "places_of_operation": [], "biography": "", "biography_author": null, "date_of_biography": "2023-05-09T19:25:38.977106+10:00", "external_links": [], "uuid": "907f058a-1ca7-4114-b333-f201ec85d722", "source": {"name": "Vernon", "slug": "vernon"}, "source_identifier": "10703", "external_references": [{"id": 42932, "source": {"name": "Wikidata", "slug": "wikidata"}, "source_identifier": "Q121337161"}], "date_modified": "2023-09-05T23:22:30.102152+10:00"}, {"id": 78001, "name": "Steve Hickner", "roles_in_work": [{"id": 1992605, "title": "The Prince of Egypt", "work_id": 88192, "role": "co-director", "role_id": 959, "is_primary": true}, {"id": 2107397, "title": "Balto", "work_id": 85619, "role": "producer", "role_id": 1089, "is_primary": true}], "also_known_as": "", "date_of_birth": "1961-01-10", "date_of_death": "", "genders": [{"id": 9, "name": "Male", "slug": "male"}], "languages": [{"id": 1, "name": "English", "slug": "english"}], "places_of_operation": [{"id": 1, "name": "United States of America", "slug": "united-states-of-america"}], "biography": "Steve Hickner is an American animator and director at DreamWorks Animation. He is best known for directing DreamWorks animated films such as The Prince of Egypt and Bee Movie. He won the Critics' Choice Movie Award for Best Animated Feature and was also nominated for the Satellite Award for Best Animated or Mixed Media Feature for his work on The Prince of Egypt.", "biography_author": "Wikidata", "date_of_biography": "2023-08-01T17:11:03.442791+10:00", "external_links": [{"id": 5204, "uri": "https://en.wikipedia.org/wiki/Steve_Hickner"}], "uuid": "2fd63ce9-47a3-4039-bca4-e6316e3c73e4", "source": {"name": "Vernon", "slug": "vernon"}, "source_identifier": "29134", "external_references": [{"id": 25768, "source": {"name": "Wikidata", "slug": "wikidata"}, "source_identifier": "Q3498952"}], "date_modified": "2023-09-06T01:30:57.858129+10:00"}]}