{"count": 28687, "next": "https://api.acmi.net.au/creators/?page=1349", "previous": "https://api.acmi.net.au/creators/?page=1347", "results": [{"id": 38172, "name": "Jean-Charles Meumier", "roles_in_work": [{"id": 2749656, "title": "The Glob family", "work_id": 96910, "role": "producer", "role_id": 1089, "is_primary": true}], "also_known_as": "", "date_of_birth": "", "date_of_death": "", "genders": [], "languages": [], "places_of_operation": [], "biography": "", "biography_author": null, "date_of_biography": "2023-08-14T11:13:41.596183+10:00", "external_links": [], "uuid": "5e6fea09-1b3a-4ebe-a3eb-8844941d1bcd", "source": {"name": "Vernon", "slug": "vernon"}, "source_identifier": "21568", "external_references": [], "date_modified": "2025-03-13T00:05:11.779776+11:00"}, {"id": 38171, "name": "F F C M", "roles_in_work": [{"id": 2749655, "title": "The Glob family", "work_id": 96910, "role": "production company", "role_id": 941, "is_primary": true}], "also_known_as": "", "date_of_birth": "", "date_of_death": "", "genders": [], "languages": [], "places_of_operation": [], "biography": "", "biography_author": null, "date_of_biography": "2023-08-14T11:13:40.965206+10:00", "external_links": [], "uuid": "92ebbfad-fe3e-467f-b415-39c1e70a2ce5", "source": {"name": "Vernon", "slug": "vernon"}, "source_identifier": "8057", "external_references": [], "date_modified": "2025-03-13T00:05:11.183875+11:00"}, {"id": 38169, "name": "Australian Little Athletics Union", "roles_in_work": [{"id": 2415193, "title": "Little athletics: hurdling", "work_id": 96907, "role": "production company", "role_id": 941, "is_primary": true}, {"id": 2749644, "title": "Little athletics: discus throwing", "work_id": 96905, "role": "production company", "role_id": 941, "is_primary": true}, {"id": 2749647, "title": "Little athletics: high jump", "work_id": 96906, "role": "production company", "role_id": 941, "is_primary": true}, {"id": 2749650, "title": "Little athletics: long jump", "work_id": 96908, "role": "production company", "role_id": 941, "is_primary": true}, {"id": 2749653, "title": "Little athletics: sprinting", "work_id": 96909, "role": "production company", "role_id": 941, "is_primary": true}], "also_known_as": "", "date_of_birth": "", "date_of_death": "", "genders": [], "languages": [], "places_of_operation": [], "biography": "", "biography_author": null, "date_of_biography": "2023-08-11T19:32:59.752791+10:00", "external_links": [], "uuid": "049d5d23-bd19-47fc-96dc-6aa7205d13a2", "source": {"name": "Vernon", "slug": "vernon"}, "source_identifier": "5595", "external_references": [], "date_modified": "2025-03-13T00:05:09.790678+11:00"}, {"id": 38168, "name": "Don Frick", "roles_in_work": [{"id": 2749639, "title": "Art by Bruce Petty", "work_id": 96901, "role": "producer", "role_id": 1089, "is_primary": true}], "also_known_as": "", "date_of_birth": "", "date_of_death": "", "genders": [], "languages": [], "places_of_operation": [], "biography": "", "biography_author": null, "date_of_biography": "2023-08-11T14:13:42.979322+10:00", "external_links": [], "uuid": "1031b0e0-2332-425d-ad0b-f21dddad671d", "source": {"name": "Vernon", "slug": "vernon"}, "source_identifier": "18206", "external_references": [], "date_modified": "2025-03-13T00:02:48.499320+11:00"}, {"id": 38167, "name": "Crystal Gandrud", "roles_in_work": [{"id": 2749628, "title": "Caroms", "work_id": 96897, "role": "director", "role_id": 938, "is_primary": true}], "also_known_as": "", "date_of_birth": null, "date_of_death": null, "genders": [], "languages": [], "places_of_operation": [], "biography": "", "biography_author": null, "date_of_biography": null, "external_links": [], "uuid": "d5c6c3f5-443f-47a7-8b5a-c3a9cf2fc230", "source": {"name": "Vernon", "slug": "vernon"}, "source_identifier": "7216", "external_references": [], "date_modified": "2025-03-13T00:02:37.575770+11:00"}, {"id": 38165, "name": "Les Thomsen Productions", "roles_in_work": [{"id": 2749621, "title": "Young fingers on a typewriter: a new concept in learning", "work_id": 96894, "role": "production company", "role_id": 941, "is_primary": true}], "also_known_as": "", "date_of_birth": "", "date_of_death": "", "genders": [], "languages": [], "places_of_operation": [], "biography": "", "biography_author": null, "date_of_biography": "2023-05-09T17:53:41.302342+10:00", "external_links": [], "uuid": "76d0c2a5-0f54-4277-a484-e289f840a60e", "source": {"name": "Vernon", "slug": "vernon"}, "source_identifier": "10028", "external_references": [{"id": 33407, "source": {"name": "Wikidata", "slug": "wikidata"}, "source_identifier": "Q121337296"}], "date_modified": "2025-03-13T00:02:33.249372+11:00"}, {"id": 38164, "name": "Highgate Associates", "roles_in_work": [{"id": 2758119, "title": "The Rocking horse winner", "work_id": 96891, "role": "production company", "role_id": 941, "is_primary": true}], "also_known_as": "", "date_of_birth": null, "date_of_death": null, "genders": [], "languages": [], "places_of_operation": [], "biography": "", "biography_author": null, "date_of_biography": null, "external_links": [], "uuid": "8830b930-bbc4-4478-b6f0-5b9949420516", "source": {"name": "Vernon", "slug": "vernon"}, "source_identifier": "9097", "external_references": [], "date_modified": "2025-03-13T14:48:23.188723+11:00"}, {"id": 38163, "name": "Richard Sarafian", "roles_in_work": [{"id": 2749612, "title": "Phillip and the white colt", "work_id": 96890, "role": "director", "role_id": 938, "is_primary": true}], "also_known_as": "", "date_of_birth": null, "date_of_death": null, "genders": [], "languages": [], "places_of_operation": [], "biography": "", "biography_author": null, "date_of_biography": null, "external_links": [], "uuid": "193b0376-2c62-4b6e-b430-3d338d49a26e", "source": {"name": "Vernon", "slug": "vernon"}, "source_identifier": "27343", "external_references": [], "date_modified": "2025-03-13T00:02:26.921686+11:00"}, {"id": 38162, "name": "Paul Shaper", "roles_in_work": [{"id": 2749603, "title": "Art of the Persian carpet", "work_id": 96886, "role": "producer", "role_id": 1089, "is_primary": true}], "also_known_as": "", "date_of_birth": null, "date_of_death": null, "genders": [], "languages": [], "places_of_operation": [], "biography": "", "biography_author": null, "date_of_biography": null, "external_links": [], "uuid": "271100df-24fd-4f9f-bfa1-24e56718e98b", "source": {"name": "Vernon", "slug": "vernon"}, "source_identifier": "26330", "external_references": [], "date_modified": "2025-03-13T00:02:21.042678+11:00"}, {"id": 38161, "name": "Fred Orjain", "roles_in_work": [{"id": 2749600, "title": "Albert Camus: a self-portrait", "work_id": 96885, "role": "producer", "role_id": 1089, "is_primary": true}], "also_known_as": "", "date_of_birth": null, "date_of_death": null, "genders": [], "languages": [], "places_of_operation": [], "biography": "", "biography_author": null, "date_of_biography": null, "external_links": [], "uuid": "4bca826c-dfdd-44fa-a9b5-43526d1e235c", "source": {"name": "Vernon", "slug": "vernon"}, "source_identifier": "19240", "external_references": [], "date_modified": "2025-03-13T00:02:18.950529+11:00"}]}