{"count": 28687, "next": "https://api.acmi.net.au/creators/?page=2428", "previous": "https://api.acmi.net.au/creators/?page=2426", "results": [{"id": 14816, "name": "Manfred Purzer", "roles_in_work": [{"id": 2713266, "title": "The Eyes have it...or do they?", "work_id": 67329, "role": "director", "role_id": 938, "is_primary": true}, {"id": 895532, "title": "The Queen in Germany", "work_id": 71984, "role": "co-director", "role_id": 959, "is_primary": true}], "also_known_as": "", "date_of_birth": "", "date_of_death": "", "genders": [], "languages": [], "places_of_operation": [], "biography": "", "biography_author": null, "date_of_biography": "2023-08-14T11:11:03.346568+10:00", "external_links": [], "uuid": "1d1d7c93-eed5-4c0e-90b7-f0cbc7ba5fc8", "source": {"name": "Vernon", "slug": "vernon"}, "source_identifier": "24252", "external_references": [], "date_modified": "2025-03-12T00:40:53.804581+11:00"}, {"id": 14814, "name": "Dave Gilbert", "roles_in_work": [{"id": 2464697, "title": "Pass the word", "work_id": 71378, "role": "director", "role_id": 938, "is_primary": true}, {"id": 2713264, "title": "The Eyes have it", "work_id": 67328, "role": "producer/director", "role_id": 31, "is_primary": true}], "also_known_as": "", "date_of_birth": "", "date_of_death": "", "genders": [], "languages": [], "places_of_operation": [], "biography": "", "biography_author": null, "date_of_biography": "2023-08-14T11:10:58.855253+10:00", "external_links": [], "uuid": "3c1e3d4d-9c42-4e4f-86a5-723be138aa8e", "source": {"name": "Vernon", "slug": "vernon"}, "source_identifier": "17467", "external_references": [], "date_modified": "2025-03-12T00:40:50.474312+11:00"}, {"id": 14813, "name": "National Society for the Prevention of Blindness", "roles_in_work": [{"id": 2713263, "title": "The Eyes have it", "work_id": 67328, "role": "production company", "role_id": 941, "is_primary": true}, {"id": 858346, "title": "The Shield", "work_id": 72764, "role": "production company", "role_id": 941, "is_primary": true}], "also_known_as": "", "date_of_birth": "", "date_of_death": "", "genders": [], "languages": [], "places_of_operation": [], "biography": "", "biography_author": null, "date_of_biography": "2023-08-14T11:10:58.212715+10:00", "external_links": [], "uuid": "52f40696-cd08-43ec-b0e1-a2e7a2d308d0", "source": {"name": "Vernon", "slug": "vernon"}, "source_identifier": "10835", "external_references": [], "date_modified": "2025-03-12T00:40:49.873284+11:00"}, {"id": 14812, "name": "Interkal Productions", "roles_in_work": [{"id": 2713262, "title": "The Eyes have it", "work_id": 67328, "role": "production company", "role_id": 941, "is_primary": true}], "also_known_as": "", "date_of_birth": "", "date_of_death": "", "genders": [], "languages": [], "places_of_operation": [], "biography": "", "biography_author": null, "date_of_biography": "2023-08-14T11:10:57.580274+10:00", "external_links": [], "uuid": "a89d1785-41b5-435d-b444-484b1b3187fd", "source": {"name": "Vernon", "slug": "vernon"}, "source_identifier": "9354", "external_references": [], "date_modified": "2025-03-12T00:40:49.285289+11:00"}, {"id": 14809, "name": "Stuart-Reynolds Productions", "roles_in_work": [{"id": 2713251, "title": "The Eye of the beholder", "work_id": 67320, "role": "production company", "role_id": 941, "is_primary": true}], "also_known_as": "", "date_of_birth": "", "date_of_death": "", "genders": [], "languages": [], "places_of_operation": [], "biography": "", "biography_author": null, "date_of_biography": "2023-08-14T11:10:48.431988+10:00", "external_links": [], "uuid": "b813dd89-9e9d-491b-8e66-68fbff6c7405", "source": {"name": "Vernon", "slug": "vernon"}, "source_identifier": "13000", "external_references": [], "date_modified": "2025-03-12T00:40:35.256989+11:00"}, {"id": 14807, "name": "Allan Dickes", "roles_in_work": [{"id": 2397466, "title": "A Day of healing", "work_id": 87736, "role": "director", "role_id": 938, "is_primary": true}, {"id": 2644702, "title": "The Extraordinary experience of Nicholas Nodwell", "work_id": 67317, "role": "director", "role_id": 938, "is_primary": true}], "also_known_as": "", "date_of_birth": "", "date_of_death": "", "genders": [], "languages": [], "places_of_operation": [], "biography": "", "biography_author": null, "date_of_biography": "2023-08-11T12:58:21.643439+10:00", "external_links": [], "uuid": "72ded312-506f-4e51-9fa3-cc18ad5cf4d2", "source": {"name": "Vernon", "slug": "vernon"}, "source_identifier": "15000", "external_references": [], "date_modified": "2025-03-05T12:25:15.706218+11:00"}, {"id": 14806, "name": "Filmcentre (Melbourne)", "roles_in_work": [{"id": 2397464, "title": "A Day of healing", "work_id": 87736, "role": "production company", "role_id": 941, "is_primary": true}, {"id": 2644701, "title": "The Extraordinary experience of Nicholas Nodwell", "work_id": 67317, "role": "production company", "role_id": 941, "is_primary": true}], "also_known_as": "", "date_of_birth": "", "date_of_death": "", "genders": [], "languages": [], "places_of_operation": [], "biography": "", "biography_author": null, "date_of_biography": "2023-08-11T12:58:20.403577+10:00", "external_links": [], "uuid": "c860ca82-1feb-4fe4-95ac-5f843fd24f61", "source": {"name": "Vernon", "slug": "vernon"}, "source_identifier": "8268", "external_references": [], "date_modified": "2025-03-05T12:25:15.112731+11:00"}, {"id": 14805, "name": "Roger Mills", "roles_in_work": [{"id": 2776357, "title": "Outward bound", "work_id": 81718, "role": "director", "role_id": 938, "is_primary": true}, {"id": 2776367, "title": "Homeward bound", "work_id": 81732, "role": "co-director", "role_id": 959, "is_primary": true}, {"id": 2211113, "title": "Pole to pole with Michael Palin", "work_id": 82361, "role": "co-director", "role_id": 959, "is_primary": true}, {"id": 914778, "title": "Michael Palin: Sahara [DVD]", "work_id": 93933, "role": "co-director", "role_id": 959, "is_primary": true}, {"id": 2776377, "title": "Around the world in 80 days", "work_id": 115206, "role": "co-producer", "role_id": 915, "is_primary": true}, {"id": 2776355, "title": "Outward bound", "work_id": 81718, "role": "co-producer", "role_id": 915, "is_primary": true}, {"id": 929576, "title": "Michael Palin: Himalaya", "work_id": 94923, "role": "co-producers/directors", "role_id": 628, "is_primary": true}, {"id": 2776379, "title": "Around the world in 80 days", "work_id": 115206, "role": "director", "role_id": 938, "is_primary": true}, {"id": 2644697, "title": "Expulsion", "work_id": 67312, "role": "producer", "role_id": 1089, "is_primary": true}, {"id": 1815157, "title": "Michael Palin: Sahara [DVD]", "work_id": 93933, "role": "producer", "role_id": 1089, "is_primary": true}], "also_known_as": "", "date_of_birth": "", "date_of_death": "", "genders": [], "languages": [], "places_of_operation": [], "biography": "", "biography_author": null, "date_of_biography": "2023-05-09T15:45:38.174678+10:00", "external_links": [], "uuid": "005b3e32-9750-4cef-8026-a3a4ca2ada20", "source": {"name": "Vernon", "slug": "vernon"}, "source_identifier": "28064", "external_references": [{"id": 33313, "source": {"name": "Wikidata", "slug": "wikidata"}, "source_identifier": "Q121270958"}], "date_modified": "2025-03-14T18:47:22.461401+11:00"}, {"id": 14803, "name": "Les Bambury", "roles_in_work": [{"id": 2714264, "title": "Fremantle, first port in Australia", "work_id": 67822, "role": "director", "role_id": 938, "is_primary": true}, {"id": 2713232, "title": "Exports flow through Fremantle", "work_id": 67307, "role": "cinematographer", "role_id": 32, "is_primary": false}, {"id": 857086, "title": "Port of Fremantle", "work_id": 71708, "role": "producer/director", "role_id": 31, "is_primary": true}, {"id": 2713230, "title": "Exports flow through Fremantle", "work_id": 67307, "role": "producer/director", "role_id": 31, "is_primary": true}], "also_known_as": "", "date_of_birth": "", "date_of_death": "", "genders": [], "languages": [], "places_of_operation": [], "biography": "", "biography_author": null, "date_of_biography": "2023-05-09T16:23:30.194341+10:00", "external_links": [], "uuid": "c478f9bf-b7a6-4299-97c2-c3976b5670f1", "source": {"name": "Vernon", "slug": "vernon"}, "source_identifier": "9984", "external_references": [{"id": 42410, "source": {"name": "Wikidata", "slug": "wikidata"}, "source_identifier": "Q121086077"}], "date_modified": "2025-03-12T01:05:29.878233+11:00"}, {"id": 14802, "name": "Fremantle Port Authority", "roles_in_work": [{"id": 2713229, "title": "Exports flow through Fremantle", "work_id": 67307, "role": "production company", "role_id": 941, "is_primary": true}, {"id": 2714263, "title": "Fremantle, first port in Australia", "work_id": 67822, "role": "production company", "role_id": 941, "is_primary": true}], "also_known_as": "", "date_of_birth": "", "date_of_death": "", "genders": [], "languages": [], "places_of_operation": [], "biography": "", "biography_author": null, "date_of_biography": "2023-05-09T16:23:29.450671+10:00", "external_links": [], "uuid": "a637a734-b6cb-4813-ba63-d269153e0529", "source": {"name": "Vernon", "slug": "vernon"}, "source_identifier": "8557", "external_references": [{"id": 34976, "source": {"name": "Wikidata", "slug": "wikidata"}, "source_identifier": "Q121337234"}], "date_modified": "2025-03-12T01:05:29.288156+11:00"}]}