{"count": 28687, "next": "https://api.acmi.net.au/creators/?page=999", "previous": "https://api.acmi.net.au/creators/?page=997", "results": [{"id": 75602, "name": "G Turney-Smith", "roles_in_work": [{"id": 2647136, "title": "The Last coastline", "work_id": 75411, "role": "director", "role_id": 938, "is_primary": true}, {"id": 2347760, "title": "The Fallen idol. The Winslow boy", "work_id": 87885, "role": "editor", "role_id": 918, "is_primary": true}], "also_known_as": "", "date_of_birth": "", "date_of_death": "", "genders": [], "languages": [], "places_of_operation": [], "biography": "", "biography_author": null, "date_of_biography": "2023-05-09T19:50:26.733524+10:00", "external_links": [], "uuid": "b703833e-965b-43ec-9e30-928ba6300c16", "source": {"name": "Vernon", "slug": "vernon"}, "source_identifier": "19326", "external_references": [{"id": 39148, "source": {"name": "Wikidata", "slug": "wikidata"}, "source_identifier": "Q121314927"}], "date_modified": "2025-03-05T13:20:17.126378+11:00"}, {"id": 75601, "name": "John Ellson", "roles_in_work": [{"id": 759466, "title": "Ian Chappell on cricket", "work_id": 75408, "role": "cinematographer", "role_id": 32, "is_primary": false}], "also_known_as": "", "date_of_birth": null, "date_of_death": null, "genders": [], "languages": [], "places_of_operation": [], "biography": "", "biography_author": null, "date_of_biography": null, "external_links": [], "uuid": "4bd23ca2-de0d-4f8d-a6f0-0038f3cffff5", "source": {"name": "Vernon", "slug": "vernon"}, "source_identifier": null, "external_references": [{"id": 37125, "source": {"name": "Wikidata", "slug": "wikidata"}, "source_identifier": "Q121036768"}], "date_modified": "2023-09-05T21:35:36.071050+10:00"}, {"id": 75600, "name": "David McCullough", "roles_in_work": [{"id": 1903788, "title": "Good buy", "work_id": 75406, "role": "cinematographer", "role_id": 32, "is_primary": false}], "also_known_as": "", "date_of_birth": null, "date_of_death": null, "genders": [], "languages": [], "places_of_operation": [], "biography": "", "biography_author": null, "date_of_biography": null, "external_links": [], "uuid": "bb0719aa-395f-4895-8f99-664dca3082b3", "source": {"name": "Vernon", "slug": "vernon"}, "source_identifier": null, "external_references": [{"id": 43560, "source": {"name": "Wikidata", "slug": "wikidata"}, "source_identifier": "Q121144073"}], "date_modified": "2023-09-05T19:00:16.441241+10:00"}, {"id": 75599, "name": "Joan Dick", "roles_in_work": [{"id": 2243297, "title": "Five finger discount", "work_id": 75405, "role": "director", "role_id": 938, "is_primary": true}], "also_known_as": "", "date_of_birth": "", "date_of_death": "", "genders": [], "languages": [], "places_of_operation": [], "biography": "", "biography_author": null, "date_of_biography": "2023-05-09T16:57:40.082241+10:00", "external_links": [], "uuid": "d39566af-d785-467e-9aa8-2b5f579986ed", "source": {"name": "Vernon", "slug": "vernon"}, "source_identifier": "21969", "external_references": [{"id": 35927, "source": {"name": "Wikidata", "slug": "wikidata"}, "source_identifier": "Q121270928"}], "date_modified": "2023-09-05T21:27:38.132041+10:00"}, {"id": 75598, "name": "Bill Constable", "roles_in_work": [{"id": 2122577, "title": "Border country", "work_id": 75401, "role": "cinematographer", "role_id": 32, "is_primary": false}], "also_known_as": "", "date_of_birth": "", "date_of_death": "", "genders": [], "languages": [], "places_of_operation": [], "biography": "", "biography_author": null, "date_of_biography": "2023-05-09T13:05:58.625179+10:00", "external_links": [], "uuid": "2f85da3d-537b-4de5-a992-a9114030de87", "source": {"name": "Vernon", "slug": "vernon"}, "source_identifier": "37578", "external_references": [{"id": 52089, "source": {"name": "Wikidata", "slug": "wikidata"}, "source_identifier": "Q121357850"}], "date_modified": "2023-09-06T10:23:10.053016+10:00"}, {"id": 75597, "name": "David Lourie", "roles_in_work": [{"id": 2647128, "title": "The Barossa", "work_id": 75399, "role": "director", "role_id": 938, "is_primary": true}], "also_known_as": "", "date_of_birth": "", "date_of_death": "", "genders": [], "languages": [], "places_of_operation": [], "biography": "", "biography_author": null, "date_of_biography": "2023-05-09T19:24:03.769815+10:00", "external_links": [], "uuid": "702a2f4f-bef5-4a70-b2f0-7b0c45e299a0", "source": {"name": "Vernon", "slug": "vernon"}, "source_identifier": "17690", "external_references": [{"id": 35157, "source": {"name": "Wikidata", "slug": "wikidata"}, "source_identifier": "Q121337532"}], "date_modified": "2025-03-05T13:20:12.915592+11:00"}, {"id": 75596, "name": "Stuart Barry", "roles_in_work": [{"id": 2392433, "title": "The Road to Charlie", "work_id": 75393, "role": "director", "role_id": 938, "is_primary": true}], "also_known_as": "", "date_of_birth": "", "date_of_death": "", "genders": [], "languages": [], "places_of_operation": [], "biography": "", "biography_author": null, "date_of_biography": "2023-08-09T03:56:18.242125+10:00", "external_links": [], "uuid": "5d73a6cc-d697-4865-be42-2f14b9745b20", "source": {"name": "Vernon", "slug": "vernon"}, "source_identifier": "1430", "external_references": [{"id": 40722, "source": {"name": "Wikidata", "slug": "wikidata"}, "source_identifier": "Q121034659"}], "date_modified": "2023-09-06T01:33:25.442539+10:00"}, {"id": 75595, "name": "Ross King", "roles_in_work": [{"id": 2392425, "title": "Drinking driving surviving", "work_id": 75391, "role": "cinematographer", "role_id": 32, "is_primary": false}], "also_known_as": "", "date_of_birth": "", "date_of_death": "", "genders": [], "languages": [], "places_of_operation": [], "biography": "", "biography_author": null, "date_of_biography": "2023-08-09T03:56:14.062756+10:00", "external_links": [], "uuid": "f7962c1e-a778-4f07-9391-5e26b809d104", "source": {"name": "Vernon", "slug": "vernon"}, "source_identifier": "37580", "external_references": [{"id": 36170, "source": {"name": "Wikidata", "slug": "wikidata"}, "source_identifier": "Q121223410"}], "date_modified": "2023-09-06T00:56:43.925051+10:00"}, {"id": 75594, "name": "George Nikolau", "roles_in_work": [{"id": 3108261, "title": "George and Toula", "work_id": 75384, "role": "interviewee", "role_id": 496, "is_primary": false}], "also_known_as": "", "date_of_birth": "", "date_of_death": "", "genders": [], "languages": [], "places_of_operation": [], "biography": "", "biography_author": null, "date_of_biography": "2023-05-09T19:15:59.790252+10:00", "external_links": [], "uuid": "31d99c4c-5612-4183-b8cf-7b20b3dad027", "source": {"name": "Vernon", "slug": "vernon"}, "source_identifier": "37958", "external_references": [], "date_modified": "2025-09-25T16:25:39.207034+10:00"}, {"id": 75593, "name": "Toula Nikolau", "roles_in_work": [{"id": 3108260, "title": "George and Toula", "work_id": 75384, "role": "interviewee", "role_id": 496, "is_primary": false}], "also_known_as": "", "date_of_birth": "", "date_of_death": "", "genders": [], "languages": [], "places_of_operation": [], "biography": "", "biography_author": null, "date_of_biography": "2023-05-09T19:15:59.560363+10:00", "external_links": [], "uuid": "046f2009-0cab-4a10-aee6-472f9fd03a74", "source": {"name": "Vernon", "slug": "vernon"}, "source_identifier": "37959", "external_references": [], "date_modified": "2025-09-25T16:25:38.551595+10:00"}]}