{"count": 28687, "next": "https://api.acmi.net.au/creators/?page=145", "previous": "https://api.acmi.net.au/creators/?page=143", "results": [{"id": 84167, "name": "Rosie Day", "roles_in_work": [{"id": 2047009, "title": "Good Night", "work_id": 117411, "role": "cast", "role_id": 33, "is_primary": false}], "also_known_as": "", "date_of_birth": "1994-03-06", "date_of_death": null, "genders": [{"id": 5, "name": "Female", "slug": "female"}], "languages": [{"id": 1, "name": "English", "slug": "english"}], "places_of_operation": [{"id": 10, "name": "United Kingdom", "slug": "united-kingdom"}], "biography": "Rosie Jane Day is an English actress. She is known for her roles as Mary Hawkins in the Starz series Outlander and Sarah Jessica Parker's daughter in the comedy film All Roads Lead to Rome. She starred as Tina Pemberton in Sky One's Living the Dream and Sierra in the 2018 Summit Entertainment feature Down a Dark Hall.Day is an ambassador for the teenage mental health charity stem4. Her novel Instructions for a Teenage Armageddon, based on her one-woman play, was published in 2021.", "biography_author": "Wikidata", "date_of_biography": "2023-09-06T00:56:19.716702+10:00", "external_links": [{"id": 6157, "uri": "https://en.wikipedia.org/wiki/Rosie_Day"}], "uuid": "4413f588-a53b-4068-8ddf-017b8fc91f8e", "source": {"name": "Vernon", "slug": "vernon"}, "source_identifier": null, "external_references": [{"id": 32383, "source": {"name": "Wikidata", "slug": "wikidata"}, "source_identifier": "Q7368886"}], "date_modified": "2023-09-06T00:56:23.984233+10:00"}, {"id": 84166, "name": "Anna Hogarth", "roles_in_work": [{"id": 2047008, "title": "Good Night", "work_id": 117411, "role": "cast", "role_id": 33, "is_primary": false}], "also_known_as": "", "date_of_birth": null, "date_of_death": null, "genders": [], "languages": [], "places_of_operation": [], "biography": "", "biography_author": null, "date_of_biography": null, "external_links": [], "uuid": "82d0e598-a317-4ace-b487-01737a000ccb", "source": {"name": "Vernon", "slug": "vernon"}, "source_identifier": null, "external_references": [{"id": 37777, "source": {"name": "Wikidata", "slug": "wikidata"}, "source_identifier": "Q121034237"}], "date_modified": "2023-09-05T17:39:21.200984+10:00"}, {"id": 84165, "name": "Arturo Vasquez", "roles_in_work": [{"id": 2047007, "title": "Good Night", "work_id": 117411, "role": "cinematographer", "role_id": 32, "is_primary": false}], "also_known_as": "", "date_of_birth": null, "date_of_death": null, "genders": [], "languages": [], "places_of_operation": [], "biography": "", "biography_author": null, "date_of_biography": null, "external_links": [], "uuid": "2bae72f4-c1f5-4188-af7a-95e2576edc22", "source": {"name": "Vernon", "slug": "vernon"}, "source_identifier": null, "external_references": [{"id": 40338, "source": {"name": "Wikidata", "slug": "wikidata"}, "source_identifier": "Q121222839"}], "date_modified": "2023-09-05T17:48:04.165450+10:00"}, {"id": 84164, "name": "Una Gunjak", "roles_in_work": [{"id": 2047006, "title": "Good Night", "work_id": 117411, "role": "editor", "role_id": 918, "is_primary": true}], "also_known_as": "", "date_of_birth": "1986-07-15", "date_of_death": null, "genders": [{"id": 5, "name": "Female", "slug": "female"}], "languages": [], "places_of_operation": [{"id": 58, "name": "Yugoslavia", "slug": "yugoslavia"}], "biography": "", "biography_author": null, "date_of_biography": null, "external_links": [], "uuid": "7e8cde9f-c0f4-4e4e-a7ea-bcf8a1fd8db7", "source": {"name": "Vernon", "slug": "vernon"}, "source_identifier": null, "external_references": [{"id": 35915, "source": {"name": "Wikidata", "slug": "wikidata"}, "source_identifier": "Q83636530"}, {"id": 56009, "source": {"name": "VIAF", "slug": "viaf"}, "source_identifier": "311634006"}], "date_modified": "2023-09-06T02:00:53.693701+10:00"}, {"id": 84163, "name": "Muriel D'Ansembourg", "roles_in_work": [{"id": 2047004, "title": "Good Night", "work_id": 117411, "role": "director", "role_id": 938, "is_primary": true}, {"id": 2047005, "title": "Good Night", "work_id": 117411, "role": "screenwriter", "role_id": 601, "is_primary": false}], "also_known_as": "", "date_of_birth": null, "date_of_death": null, "genders": [{"id": 5, "name": "Female", "slug": "female"}], "languages": [], "places_of_operation": [], "biography": "", "biography_author": null, "date_of_biography": null, "external_links": [], "uuid": "d72f8550-c5f5-45a1-ad43-fcf4efb0bc60", "source": {"name": "Vernon", "slug": "vernon"}, "source_identifier": null, "external_references": [{"id": 41111, "source": {"name": "Wikidata", "slug": "wikidata"}, "source_identifier": "Q105387443"}], "date_modified": "2023-09-05T23:22:48.216809+10:00"}, {"id": 84162, "name": "Eva Sigurdardottir", "roles_in_work": [{"id": 2047003, "title": "Good Night", "work_id": 117411, "role": "producer", "role_id": 1089, "is_primary": true}], "also_known_as": "", "date_of_birth": null, "date_of_death": null, "genders": [{"id": 5, "name": "Female", "slug": "female"}], "languages": [], "places_of_operation": [], "biography": "", "biography_author": null, "date_of_biography": null, "external_links": [], "uuid": "a56532f0-d185-4819-a099-1b44be9c6b34", "source": {"name": "Vernon", "slug": "vernon"}, "source_identifier": null, "external_references": [{"id": 42247, "source": {"name": "Wikidata", "slug": "wikidata"}, "source_identifier": "Q60844781"}], "date_modified": "2023-09-05T19:38:18.517173+10:00"}, {"id": 84161, "name": "Blindeye Films", "roles_in_work": [{"id": 2047002, "title": "Good Night", "work_id": 117411, "role": "production company", "role_id": 941, "is_primary": true}], "also_known_as": "", "date_of_birth": null, "date_of_death": null, "genders": [], "languages": [], "places_of_operation": [], "biography": "", "biography_author": null, "date_of_biography": null, "external_links": [], "uuid": "01d14e06-64f3-4776-8d7f-d4bd55f89422", "source": {"name": "Vernon", "slug": "vernon"}, "source_identifier": null, "external_references": [{"id": 34971, "source": {"name": "Wikidata", "slug": "wikidata"}, "source_identifier": "Q121337028"}], "date_modified": "2023-09-05T18:06:41.853598+10:00"}, {"id": 84160, "name": "Will Anderson", "roles_in_work": [{"id": 2660585, "title": "The Making of Longbird", "work_id": 117410, "role": "director", "role_id": 938, "is_primary": true}, {"id": 2660586, "title": "The Making of Longbird", "work_id": 117410, "role": "animator", "role_id": 497, "is_primary": false}, {"id": 2660587, "title": "The Making of Longbird", "work_id": 117410, "role": "screenwriter", "role_id": 601, "is_primary": false}], "also_known_as": "", "date_of_birth": null, "date_of_death": null, "genders": [], "languages": [], "places_of_operation": [], "biography": "", "biography_author": null, "date_of_biography": null, "external_links": [], "uuid": "a045c5c6-a384-4191-a330-acc57807d2c6", "source": {"name": "Vernon", "slug": "vernon"}, "source_identifier": "37145", "external_references": [{"id": 34325, "source": {"name": "Wikidata", "slug": "wikidata"}, "source_identifier": "Q60771336"}], "date_modified": "2025-03-05T19:57:03.924438+11:00"}, {"id": 84159, "name": "Donald Holwill", "roles_in_work": [{"id": 2660584, "title": "The Making of Longbird", "work_id": 117410, "role": "producer", "role_id": 1089, "is_primary": true}], "also_known_as": "", "date_of_birth": null, "date_of_death": null, "genders": [], "languages": [], "places_of_operation": [], "biography": "", "biography_author": null, "date_of_biography": null, "external_links": [], "uuid": "14228ab2-80a0-4bef-8931-04a7aed717e5", "source": {"name": "Vernon", "slug": "vernon"}, "source_identifier": "37148", "external_references": [{"id": 32866, "source": {"name": "Wikidata", "slug": "wikidata"}, "source_identifier": "Q121035949"}], "date_modified": "2025-03-05T19:57:01.910256+11:00"}, {"id": 84158, "name": "Whiterobot", "roles_in_work": [{"id": 2660583, "title": "The Making of Longbird", "work_id": 117410, "role": "production company", "role_id": 941, "is_primary": true}], "also_known_as": "", "date_of_birth": null, "date_of_death": null, "genders": [], "languages": [], "places_of_operation": [], "biography": "", "biography_author": null, "date_of_biography": null, "external_links": [], "uuid": "c3500119-7292-4213-b21c-64ff35a8af76", "source": {"name": "Vernon", "slug": "vernon"}, "source_identifier": "37146", "external_references": [{"id": 35367, "source": {"name": "Wikidata", "slug": "wikidata"}, "source_identifier": "Q121271237"}], "date_modified": "2025-03-05T19:57:01.315990+11:00"}]}