{"count": 28687, "next": "https://api.acmi.net.au/creators/?page=2761", "previous": "https://api.acmi.net.au/creators/?page=2759", "results": [{"id": 10575, "name": "Joanna Callaghan", "roles_in_work": [{"id": 2637055, "title": "Thrownness", "work_id": 109581, "role": "creator", "role_id": 968, "is_primary": true}], "also_known_as": "", "date_of_birth": "", "date_of_death": "", "genders": [], "languages": [], "places_of_operation": [], "biography": "Joanna Callaghan is an Australian video artist and filmmaker based in London. After completing photography and film studies in Australia in 1997, she moved to Europe where she worked as an assistant director, a television producer and a radio journalist.\n\nIn 2003, she graduated with distinction from the University of Westminster¿s MA in Art and Media practice producing a 35mm short film, Thrownness which was exhibited at a solo show in Watermans Gallery, London. Her films and videos have shown in galleries, cinemas, festivals and events both nationally and internationally including Clermont Ferrand Film Festival, Brest Short Film festival, Zebra Poetry Award, 291 Gallery, Prenelle Gallery, Firstdraft Gallery (Australia), Oh!Art, OMSK, Emerge & See and Death in Deptford.\n\nJoanna Callaghan¿s work focuses on the relationship between perception, cognition and representation. She is influenced primarily by cinematic traditions and narrative construction. She is particularly interested in how narrative coherence can be manipulated through isolating structures and processes that contribute to its formation. In this way her work attempts to create narratives which have an integral, essential and evolving relationship with its representative language and thereby generate the possibility of alternative narratives.\n\nShe has lived in Australia, France and Brazil and has travelled widely throughout South America and the Middle East. She speaks French and Spanish.", "biography_author": null, "date_of_biography": "2025-03-05T10:42:52.415923+11:00", "external_links": [], "uuid": "30f8aec6-a11e-4965-8821-85f14da49c4a", "source": {"name": "Vernon", "slug": "vernon"}, "source_identifier": "2201", "external_references": [], "date_modified": "2025-03-05T10:42:52.416241+11:00"}, {"id": 10574, "name": "George Lazarides", "roles_in_work": [{"id": 2637051, "title": "The Tonight Show", "work_id": 109580, "role": "creator", "role_id": 968, "is_primary": true}], "also_known_as": "", "date_of_birth": "", "date_of_death": "", "genders": [], "languages": [], "places_of_operation": [], "biography": "", "biography_author": null, "date_of_biography": "2023-08-14T11:37:52.832533+10:00", "external_links": [], "uuid": "a7b397c2-6b31-441b-9a69-2e6f2f72b678", "source": {"name": "Vernon", "slug": "vernon"}, "source_identifier": "2200", "external_references": [], "date_modified": "2025-03-05T10:42:50.623735+11:00"}, {"id": 10573, "name": "Zina Kaye", "roles_in_work": [{"id": 2637050, "title": "The Line ahead", "work_id": 109579, "role": "creator", "role_id": 968, "is_primary": true}], "also_known_as": "", "date_of_birth": "", "date_of_death": "", "genders": [], "languages": [], "places_of_operation": [], "biography": "", "biography_author": null, "date_of_biography": "2023-08-14T11:18:57.149816+10:00", "external_links": [], "uuid": "a7a6564f-da4b-466d-93c4-1afc0cfc552a", "source": {"name": "Vernon", "slug": "vernon"}, "source_identifier": "2328", "external_references": [], "date_modified": "2025-03-05T10:42:49.814511+11:00"}, {"id": 10571, "name": "Simon Bejer", "roles_in_work": [{"id": 2637005, "title": "Perhaps, perhaps, perhaps", "work_id": 109575, "role": "creator", "role_id": 968, "is_primary": true}], "also_known_as": "", "date_of_birth": "", "date_of_death": "", "genders": [], "languages": [], "places_of_operation": [], "biography": "", "biography_author": null, "date_of_biography": "2023-05-09T19:33:50.380931+10:00", "external_links": [], "uuid": "b65809fa-cb76-4b7f-b097-36dc266f0ca5", "source": {"name": "Vernon", "slug": "vernon"}, "source_identifier": "2237", "external_references": [], "date_modified": "2025-03-05T10:42:31.856638+11:00"}, {"id": 10570, "name": "Granville Primary School", "roles_in_work": [{"id": 2636792, "title": "Progress", "work_id": 109566, "role": "creator", "role_id": 968, "is_primary": true}], "also_known_as": "", "date_of_birth": "", "date_of_death": "", "genders": [], "languages": [], "places_of_operation": [], "biography": "", "biography_author": null, "date_of_biography": "2023-08-14T10:27:24.267125+10:00", "external_links": [], "uuid": "3cd36c10-e0fd-4e7c-90a3-ab2a591d298d", "source": {"name": "Vernon", "slug": "vernon"}, "source_identifier": "2230", "external_references": [], "date_modified": "2025-03-05T10:40:20.433502+11:00"}, {"id": 10569, "name": "Loreto Kirribilli", "roles_in_work": [{"id": 2636789, "title": "Jirrupin Bunggul 'Happy Dance'", "work_id": 109565, "role": "creator", "role_id": 968, "is_primary": true}], "also_known_as": "", "date_of_birth": "", "date_of_death": "", "genders": [], "languages": [], "places_of_operation": [], "biography": "", "biography_author": null, "date_of_biography": "2023-08-11T18:47:57.983958+10:00", "external_links": [], "uuid": "ec66aa7f-ee74-4641-b82c-80c142307ca0", "source": {"name": "Vernon", "slug": "vernon"}, "source_identifier": "2229", "external_references": [], "date_modified": "2025-03-05T10:40:19.271405+11:00"}, {"id": 10568, "name": "The King David School", "roles_in_work": [{"id": 2636780, "title": "Freedom of the Boomerang", "work_id": 109562, "role": "creator", "role_id": 968, "is_primary": true}], "also_known_as": "", "date_of_birth": "", "date_of_death": "", "genders": [], "languages": [], "places_of_operation": [], "biography": "", "biography_author": null, "date_of_biography": "2023-08-11T16:49:17.243387+10:00", "external_links": [], "uuid": "54e46ef5-0b00-41cd-94bc-ada1541b110c", "source": {"name": "Vernon", "slug": "vernon"}, "source_identifier": "2228", "external_references": [], "date_modified": "2025-03-05T10:40:16.120592+11:00"}, {"id": 10567, "name": "Ballarat Grammar Junior", "roles_in_work": [{"id": 2637380, "title": "Sobraon (exploring the Pacific in the Sobraon).", "work_id": 109550, "role": "creator", "role_id": 968, "is_primary": true}, {"id": 2637378, "title": "Cutty Sark", "work_id": 109548, "role": "creator", "role_id": 968, "is_primary": true}, {"id": 2637376, "title": "Airmail Service", "work_id": 109551, "role": "creator", "role_id": 968, "is_primary": true}], "also_known_as": "", "date_of_birth": "", "date_of_death": "", "genders": [], "languages": [], "places_of_operation": [], "biography": "", "biography_author": null, "date_of_biography": "2023-08-09T03:40:39.953821+10:00", "external_links": [], "uuid": "864f9edc-964e-4836-965b-7a296b86f08a", "source": {"name": "Vernon", "slug": "vernon"}, "source_identifier": "2199", "external_references": [], "date_modified": "2025-03-05T10:46:06.901540+11:00"}, {"id": 10566, "name": "Nannup District School", "roles_in_work": [{"id": 2636741, "title": "The Expedition of T. Mitchell", "work_id": 109547, "role": "creator", "role_id": 968, "is_primary": true}], "also_known_as": "", "date_of_birth": "", "date_of_death": "", "genders": [], "languages": [], "places_of_operation": [], "biography": "", "biography_author": null, "date_of_biography": "2023-08-14T11:10:46.237647+10:00", "external_links": [], "uuid": "6e829dd3-e01f-42b9-a24d-dd183b57ea56", "source": {"name": "Vernon", "slug": "vernon"}, "source_identifier": "2198", "external_references": [], "date_modified": "2025-03-05T10:40:03.644336+11:00"}, {"id": 10565, "name": "Mundingburra", "roles_in_work": [{"id": 2636738, "title": "Then and Now", "work_id": 109546, "role": "creator", "role_id": 968, "is_primary": true}], "also_known_as": "", "date_of_birth": "", "date_of_death": "", "genders": [], "languages": [], "places_of_operation": [], "biography": "", "biography_author": null, "date_of_biography": "2023-08-14T11:47:28.178878+10:00", "external_links": [], "uuid": "f18c5539-37ac-4a1e-8a64-2ef843848a7c", "source": {"name": "Vernon", "slug": "vernon"}, "source_identifier": "2197", "external_references": [], "date_modified": "2025-03-05T10:40:02.541729+11:00"}]}