{"count": 28687, "next": "https://api.acmi.net.au/creators/?page=635", "previous": "https://api.acmi.net.au/creators/?page=633", "results": [{"id": 79243, "name": "William Forbes", "roles_in_work": [{"id": 2158521, "title": "Nimmo St", "work_id": 89888, "role": "cast", "role_id": 33, "is_primary": false}], "also_known_as": "", "date_of_birth": "", "date_of_death": "", "genders": [], "languages": [], "places_of_operation": [], "biography": "", "biography_author": null, "date_of_biography": "2023-05-09T14:10:41.618145+10:00", "external_links": [], "uuid": "b0dd4788-e338-4496-9d7a-6d377c87cd4f", "source": {"name": "Vernon", "slug": "vernon"}, "source_identifier": "38629", "external_references": [{"id": 40944, "source": {"name": "Wikidata", "slug": "wikidata"}, "source_identifier": "Q121040131"}], "date_modified": "2023-09-06T02:15:32.038093+10:00"}, {"id": 79242, "name": "Howard Rosenman", "roles_in_work": [{"id": 2126542, "title": "Buffy the vampire slayer", "work_id": 89887, "role": "co-producer", "role_id": 915, "is_primary": true}, {"id": 2238495, "title": "Father of the bride", "work_id": 95078, "role": "producer", "role_id": 1089, "is_primary": true}], "also_known_as": "", "date_of_birth": "1945-02-01", "date_of_death": "", "genders": [{"id": 9, "name": "Male", "slug": "male"}], "languages": [{"id": 1, "name": "English", "slug": "english"}], "places_of_operation": [{"id": 1, "name": "United States of America", "slug": "united-states-of-america"}], "biography": "Howard Rosenman (born February 1, 1945), also known as Zvi Howard Rosenman, is an American producer and motion picture executive. He specializes in producing romantic comedy films and documentary films. Some of his most popular productions include Father of the Bride (1991) starring Steve Martin and Diane Keaton, Joss Whedon's Buffy the Vampire Slayer (1992) and The Family Man (2000) starring Nicolas Cage.  Rosenman's documentary film Common Threads: Stories from the Quilt won the Peabody Award and the 1990 Academy Award for Best Documentary Feature; his film The Celluloid Closet also won the Peabody Award.", "biography_author": "Wikidata", "date_of_biography": "2023-09-05T20:41:55.080733+10:00", "external_links": [{"id": 5873, "uri": "https://en.wikipedia.org/wiki/Howard_Rosenman"}], "uuid": "0d5e1e31-8344-465a-978e-e88fde19ff06", "source": {"name": "Vernon", "slug": "vernon"}, "source_identifier": "20630", "external_references": [{"id": 37378, "source": {"name": "Wikidata", "slug": "wikidata"}, "source_identifier": "Q15622666"}, {"id": 54683, "source": {"name": "VIAF", "slug": "viaf"}, "source_identifier": "308288850"}, {"id": 54684, "source": {"name": "LOC Auth", "slug": "loc-auth"}, "source_identifier": "no2001083374"}, {"id": 54685, "source": {"name": "WorldCat", "slug": "worldcat"}, "source_identifier": "lccn-no2001083374"}], "date_modified": "2023-09-05T20:41:55.100780+10:00"}, {"id": 79241, "name": "Kaz Kuzui", "roles_in_work": [{"id": 2126540, "title": "Buffy the vampire slayer", "work_id": 89887, "role": "co-producer", "role_id": 915, "is_primary": true}], "also_known_as": "", "date_of_birth": "", "date_of_death": "", "genders": [{"id": 9, "name": "Male", "slug": "male"}], "languages": [], "places_of_operation": [{"id": 8, "name": "Japan", "slug": "japan"}], "biography": "Katsusuke Kuzui (葛井勝介, Kuzui Katsusuke) is a Japanese film producer. His wife, Fran Rubel Kuzui, has also directed movies.\nAlong with his wife, Kaz founded Kuzui Enterprises, which distributes US films in Japan and imports Japanese films for the US market.  In addition to holding a portion of rights to the character of Buffy the Vampire Slayer, Kuzui was also given an executive producer credit for the TV series and its spin-off Angel, despite having no practical role in either production.  In 2018, Kuzui and his wife are reported to be involved in the development of a reboot of Buffy.", "biography_author": "Wikidata", "date_of_biography": "2023-08-01T15:47:31.323539+10:00", "external_links": [{"id": 2511, "uri": "https://en.wikipedia.org/wiki/Kaz_Kuzui"}], "uuid": "a373266e-9442-4fca-987e-da9709bc4348", "source": {"name": "Vernon", "slug": "vernon"}, "source_identifier": "23112", "external_references": [{"id": 10734, "source": {"name": "Wikidata", "slug": "wikidata"}, "source_identifier": "Q3814093"}], "date_modified": "2023-09-05T22:02:56.111833+10:00"}, {"id": 79240, "name": "Alexande Minouchkine", "roles_in_work": [{"id": 2474837, "title": "Get out your handkerchiefs = Preparez vos mouchoirs", "work_id": 89883, "role": "co-producer", "role_id": 915, "is_primary": true}], "also_known_as": "", "date_of_birth": "1908-02-10", "date_of_death": "1993-04-03", "genders": [{"id": 9, "name": "Male", "slug": "male"}], "languages": [{"id": 4, "name": "French", "slug": "french"}], "places_of_operation": [{"id": 17, "name": "France", "slug": "france"}], "biography": "Alexandre Alexandrovich Mnouchkine (Russian: Алекса́ндр Алекса́ндрович Мну́шкин; 10 February 1908, St. Petersburg, Russian Empire – 3 April 1993, Neuilly-sur-Seine, France) was a French film producer.He moved to Paris in 1925. After his entry into cinema in 1932, he created Ariane Films in 1945. Alexandre Mnouchkine married twice, the second time to the comedian Simone Renant. He is the father of Ariane Mnouchkine. In 1987 he was a member of the jury at the 15th Moscow International Film Festival.", "biography_author": "Wikidata", "date_of_biography": "2023-09-05T17:25:41.529826+10:00", "external_links": [{"id": 1594, "uri": "https://en.wikipedia.org/wiki/Alexandre_Mnouchkine"}], "uuid": "1b20085c-4239-4326-a383-5fa6c9cc6225", "source": {"name": "Vernon", "slug": "vernon"}, "source_identifier": "14912", "external_references": [{"id": 6976, "source": {"name": "Wikidata", "slug": "wikidata"}, "source_identifier": "Q718098"}, {"id": 6977, "source": {"name": "VIAF", "slug": "viaf"}, "source_identifier": "87027664"}, {"id": 6978, "source": {"name": "LOC Auth", "slug": "loc-auth"}, "source_identifier": "no97046928"}, {"id": 6979, "source": {"name": "WorldCat", "slug": "worldcat"}, "source_identifier": "lccn-no97046928"}], "date_modified": "2023-09-05T17:25:41.540706+10:00"}, {"id": 79239, "name": "George Dancigers", "roles_in_work": [{"id": 2474836, "title": "Get out your handkerchiefs = Preparez vos mouchoirs", "work_id": 89883, "role": "co-producer", "role_id": 915, "is_primary": true}, {"id": 3104309, "title": "Garde a Vue = the Grilling", "work_id": 115856, "role": "producer", "role_id": 1089, "is_primary": true}], "also_known_as": "", "date_of_birth": "1908-02-17", "date_of_death": "1993-11-01", "genders": [{"id": 9, "name": "Male", "slug": "male"}], "languages": [{"id": 4, "name": "French", "slug": "french"}], "places_of_operation": [{"id": 291, "name": "Russian Empire", "slug": "russian-empire"}], "biography": "Georges Dancigers (17 February 1908 Tukums, Russian Empire(now Latvia) – 1 November 1993 Neuilly-sur-Seine, France) was a Russian Empire-born, French film producer. His most notable film was Bertrand Blier's Get out your Handkerchief (1978), which won the Academy Award for Best Foreign Language Film. He was awarded an Honorary César award in 1982.", "biography_author": "Wikidata", "date_of_biography": "2023-09-05T20:04:35.734834+10:00", "external_links": [{"id": 2111, "uri": "https://en.wikipedia.org/wiki/Georges_Dancigers"}], "uuid": "ce8432da-cdae-403e-b499-54753ce49296", "source": {"name": "Vernon", "slug": "vernon"}, "source_identifier": "19581", "external_references": [{"id": 9104, "source": {"name": "Wikidata", "slug": "wikidata"}, "source_identifier": "Q1508856"}, {"id": 9105, "source": {"name": "VIAF", "slug": "viaf"}, "source_identifier": "14420844"}, {"id": 9106, "source": {"name": "LOC Auth", "slug": "loc-auth"}, "source_identifier": "no2001049271"}, {"id": 9107, "source": {"name": "WorldCat", "slug": "worldcat"}, "source_identifier": "lccn-no2001049271"}], "date_modified": "2025-05-22T22:35:25.055260+10:00"}, {"id": 79238, "name": "Louise Vandelac", "roles_in_work": [{"id": 2140018, "title": "Clone Inc.", "work_id": 93776, "role": "co-director", "role_id": 959, "is_primary": true}, {"id": 2350370, "title": "The Genetic takeover", "work_id": 89877, "role": "co-director", "role_id": 959, "is_primary": true}], "also_known_as": "", "date_of_birth": "", "date_of_death": "", "genders": [], "languages": [], "places_of_operation": [], "biography": "", "biography_author": null, "date_of_biography": "2023-05-09T19:55:01.801993+10:00", "external_links": [], "uuid": "beec5e03-09fb-4ffa-bfae-0d70c3b8240e", "source": {"name": "Vernon", "slug": "vernon"}, "source_identifier": "24055", "external_references": [{"id": 37386, "source": {"name": "Wikidata", "slug": "wikidata"}, "source_identifier": "Q121315226"}], "date_modified": "2023-09-05T22:32:29.946991+10:00"}, {"id": 79237, "name": "Karl Parent", "roles_in_work": [{"id": 2350367, "title": "The Genetic takeover", "work_id": 89877, "role": "co-director", "role_id": 959, "is_primary": true}, {"id": 2140014, "title": "Clone Inc.", "work_id": 93776, "role": "co-director", "role_id": 959, "is_primary": true}], "also_known_as": "", "date_of_birth": "", "date_of_death": "", "genders": [], "languages": [], "places_of_operation": [], "biography": "", "biography_author": null, "date_of_biography": "2023-05-09T19:55:01.577122+10:00", "external_links": [], "uuid": "9fd95443-82a0-4358-8adf-5f68cb0b3050", "source": {"name": "Vernon", "slug": "vernon"}, "source_identifier": "23033", "external_references": [{"id": 39174, "source": {"name": "Wikidata", "slug": "wikidata"}, "source_identifier": "Q121079038"}], "date_modified": "2023-09-05T22:01:08.417575+10:00"}, {"id": 79236, "name": "Richard Leiterman", "roles_in_work": [{"id": 909327, "title": "Four portraits", "work_id": 89860, "role": "co-director", "role_id": 959, "is_primary": true}], "also_known_as": "", "date_of_birth": "1935-03-07", "date_of_death": "2005-07-14", "genders": [{"id": 9, "name": "Male", "slug": "male"}], "languages": [], "places_of_operation": [{"id": 36, "name": "Canada", "slug": "canada"}], "biography": "Richard Leiterman (March 7, 1935 – July 14, 2005) was a Canadian cinematographer, best known for documentary and feature film work in the 1960s and 1970s. His cinéma vérité, or direct camera, style helped define Canadian cinema at the time.", "biography_author": "Wikidata", "date_of_biography": "2023-09-06T00:30:35.571516+10:00", "external_links": [{"id": 6130, "uri": "https://en.wikipedia.org/wiki/Richard_Leiterman"}], "uuid": "be07772d-788e-41bd-9a91-c450b10361f7", "source": {"name": "Vernon", "slug": "vernon"}, "source_identifier": null, "external_references": [{"id": 34713, "source": {"name": "Wikidata", "slug": "wikidata"}, "source_identifier": "Q7327331"}, {"id": 55630, "source": {"name": "VIAF", "slug": "viaf"}, "source_identifier": "86793054"}, {"id": 55631, "source": {"name": "LOC Auth", "slug": "loc-auth"}, "source_identifier": "n79044198"}, {"id": 55632, "source": {"name": "WorldCat", "slug": "worldcat"}, "source_identifier": "lccn-n79044198"}], "date_modified": "2023-09-06T00:30:35.592631+10:00"}, {"id": 79235, "name": "Jim McCammon", "roles_in_work": [{"id": 909326, "title": "Four portraits", "work_id": 89860, "role": "co-director", "role_id": 959, "is_primary": true}], "also_known_as": "", "date_of_birth": null, "date_of_death": null, "genders": [], "languages": [], "places_of_operation": [], "biography": "", "biography_author": null, "date_of_biography": null, "external_links": [], "uuid": "9dcf7705-df4d-4901-bd8e-200c65ad152d", "source": {"name": "Vernon", "slug": "vernon"}, "source_identifier": null, "external_references": [{"id": 42973, "source": {"name": "Wikidata", "slug": "wikidata"}, "source_identifier": "Q121223375"}], "date_modified": "2023-09-05T21:25:10.171036+10:00"}, {"id": 79234, "name": "Gundrun Parker", "roles_in_work": [{"id": 2354945, "title": "What do you think about getting what you're after", "work_id": 89859, "role": "director", "role_id": 938, "is_primary": true}], "also_known_as": "", "date_of_birth": "", "date_of_death": "", "genders": [], "languages": [], "places_of_operation": [], "biography": "", "biography_author": null, "date_of_biography": "2023-05-09T20:02:25.524979+10:00", "external_links": [], "uuid": "2fb47a08-b407-404e-a6ea-cebf3ead1366", "source": {"name": "Vernon", "slug": "vernon"}, "source_identifier": "20112", "external_references": [{"id": 36856, "source": {"name": "Wikidata", "slug": "wikidata"}, "source_identifier": "Q121337461"}], "date_modified": "2023-09-05T20:24:34.517843+10:00"}]}