{"count": 28687, "next": "https://api.acmi.net.au/creators/?page=1812", "previous": "https://api.acmi.net.au/creators/?page=1810", "results": [{"id": 26139, "name": "Goscinny", "roles_in_work": [{"id": 2102804, "title": "Asterix vs Caesar", "work_id": 84003, "role": "director", "role_id": 938, "is_primary": true}, {"id": 2295117, "title": "The Twelve tasks of Asterix", "work_id": 94067, "role": "co-director", "role_id": 959, "is_primary": true}, {"id": 2295109, "title": "The Twelve tasks of Asterix", "work_id": 94067, "role": "co-producer", "role_id": 915, "is_primary": true}, {"id": 2295097, "title": "The Twelve tasks of Asterix", "work_id": 94067, "role": "production company", "role_id": 941, "is_primary": true}], "also_known_as": "", "date_of_birth": "1926", "date_of_death": "1977", "genders": [], "languages": [], "places_of_operation": [], "biography": "", "biography_author": null, "date_of_biography": "2023-05-09T18:25:53.697973+10:00", "external_links": [], "uuid": "153a0417-19a1-4b8c-9d7a-2e1ab8e2c8d8", "source": {"name": "Vernon", "slug": "vernon"}, "source_identifier": "3963", "external_references": [], "date_modified": "2023-06-14T16:33:30.576250+10:00"}, {"id": 26136, "name": "Morgan Creek", "roles_in_work": [{"id": 2079279, "title": "Ace Ventura: pet detective", "work_id": 87344, "role": "production company", "role_id": 941, "is_primary": true}, {"id": 2079318, "title": "Ace Ventura: when nature calls (Captioned)", "work_id": 86593, "role": "production company", "role_id": 941, "is_primary": true}, {"id": 2079269, "title": "Ace Ventura: when nature calls", "work_id": 87343, "role": "production company", "role_id": 941, "is_primary": true}, {"id": 1990535, "title": "The Last of the Mohicans", "work_id": 86147, "role": "production company", "role_id": 941, "is_primary": true}, {"id": 1989359, "title": "The Last of the Mohicans (Captioned)", "work_id": 85148, "role": "production company", "role_id": 941, "is_primary": true}, {"id": 2277222, "title": "Young guns II (Captioned)", "work_id": 84227, "role": "production company", "role_id": 941, "is_primary": true}, {"id": 2218508, "title": "Enemies: a love story", "work_id": 83999, "role": "production company", "role_id": 941, "is_primary": true}, {"id": 1987969, "title": "Major league (Captioned)", "work_id": 84222, "role": "production company", "role_id": 941, "is_primary": true}, {"id": 1991183, "title": "Diabolique", "work_id": 86858, "role": "production company", "role_id": 941, "is_primary": true}], "also_known_as": "", "date_of_birth": "", "date_of_death": "", "genders": [], "languages": [], "places_of_operation": [], "biography": "Morgan Creek Entertainment is an American film production company, former sales agent and investor, that has released box-office hits including Young Guns, Dead Ringers, Major League, True Romance, Ace Ventura: Pet Detective, The Crush, Robin Hood: Prince of Thieves and The Last of the Mohicans. The studio was co-founded in 1987 by James G. Robinson and Joe Roth. Robinson leads the company as chairman and CEO. His two sons, Brian Robinson and David C. Robinson, run the day-to-day operations. The company name comes from Roth's favorite film, The Miracle of Morgan's Creek.Morgan Creek generally releases their films through larger studios while retaining the copyrights, and making autonomous decisions on home video and television rights. Their initial slate of films from 1988 to 1990 were released by 20th Century Fox, except for Renegades and Coupe de Ville which were released by Universal and Major League which was released by Paramount, and some home video releases of its early titles going to Media Home Entertainment. In 1991, beginning with Robin Hood: Prince of Thieves, they shifted their distribution of new films, as well as their previous catalog titles, to Warner Bros., where they remained until early 2005. Later that year, beginning with Two for the Money, they released their newer films through Universal, though previous films were still handled in the U.S. by Warner.\nOn July 11, 1997, Gary Barber announced that he would leave the studio, and he subsequently went on to start out Spyglass Entertainment. In 1998, Morgan Creek had a distribution deal with Warner Home Video to release its product through the Morgan Creek Video and the Morgan Creek DVD labels.On October 8, 1998, Morgan Creek and Franchise Pictures entered into an agreement where Morgan Creek would distribute Franchise's upcoming pictures domestically. On July 2, 2001, Morgan Creek Productions sued Franchise Pictures for allegedly breaching an agreement giving the company the right of first refusal on some films.In October 2014, Morgan Creek sold the international distribution rights and copyrights to their films to Revolution Studios for $36.75 million. In September 2015, Morgan Creek began negotiating the sale of rights for the remaining territories, though they intend to retain remake and television rights to the Ace Ventura, Major League, Young Guns, and Exorcist franchises.", "biography_author": "Wikidata", "date_of_biography": "2023-09-05T23:21:13.239626+10:00", "external_links": [{"id": 6049, "uri": "https://en.wikipedia.org/wiki/Morgan_Creek_Entertainment"}], "uuid": "f84a94dc-7bdd-4c30-bdbd-b8ec57d1772f", "source": {"name": "Vernon", "slug": "vernon"}, "source_identifier": "4892", "external_references": [{"id": 42133, "source": {"name": "Wikidata", "slug": "wikidata"}, "source_identifier": "Q3323969"}, {"id": 55312, "source": {"name": "VIAF", "slug": "viaf"}, "source_identifier": "156860461"}, {"id": 55313, "source": {"name": "LOC Auth", "slug": "loc-auth"}, "source_identifier": "no96017231"}, {"id": 55314, "source": {"name": "WorldCat", "slug": "worldcat"}, "source_identifier": "lccn-no96017231"}], "date_modified": "2023-09-05T23:21:13.258254+10:00"}, {"id": 26134, "name": "Randa Haines", "roles_in_work": [{"id": 2136455, "title": "Children of a lesser god", "work_id": 83997, "role": "director", "role_id": 938, "is_primary": true}, {"id": 2345563, "title": "The Doctor", "work_id": 95200, "role": "director", "role_id": 938, "is_primary": true}], "also_known_as": "", "date_of_birth": "1945-02-20", "date_of_death": null, "genders": [{"id": 5, "name": "Female", "slug": "female"}], "languages": [{"id": 1, "name": "English", "slug": "english"}], "places_of_operation": [{"id": 1, "name": "United States of America", "slug": "united-states-of-america"}], "biography": "Randa Jo Haines (born February 20, 1945, in Los Angeles) is a film and television director and producer. Haines started her career as a script supervisor on several low-budget features in the 1970s, including Let's Scare Jessica to Death and The Groove Tube. She is most famous for directing the critically acclaimed feature film Children of a Lesser God (1986), which starred William Hurt and Marlee Matlin, for which Matlin won the 1987 Academy Award as Best Actress. Haines also won the Silver Bear at the 37th Berlin International Film Festival. In 1989 she was a member of the jury at the 39th Berlin International Film Festival. In 2002 she was a member of the jury at the 24th Moscow International Film Festival.Haines received a Directors Guild of America Award nomination for the film Children of a Lesser God (1986) and was nominated both for the DGA Award and an Emmy Award in 1984 for the television movie Something About Amelia.", "biography_author": "Wikidata", "date_of_biography": "2022-05-19T12:47:08.630592+10:00", "external_links": [{"id": 2909, "uri": "https://en.wikipedia.org/wiki/Randa_Haines"}], "uuid": "901dcf34-2883-4187-bfdc-d579171964e4", "source": {"name": "Vernon", "slug": "vernon"}, "source_identifier": "27104", "external_references": [{"id": 12370, "source": {"name": "Wikidata", "slug": "wikidata"}, "source_identifier": "Q2536001"}, {"id": 12371, "source": {"name": "VIAF", "slug": "viaf"}, "source_identifier": "37108133"}, {"id": 12372, "source": {"name": "LOC Auth", "slug": "loc-auth"}, "source_identifier": "n88034819"}, {"id": 12373, "source": {"name": "WorldCat", "slug": "worldcat"}, "source_identifier": "lccn-n88034819"}], "date_modified": "2023-09-13T12:32:06.870592+10:00"}, {"id": 26130, "name": "Panorama Films", "roles_in_work": [{"id": 2229313, "title": "Prisoner of St Petersburg", "work_id": 83992, "role": "production company", "role_id": 941, "is_primary": true}], "also_known_as": "", "date_of_birth": "", "date_of_death": "", "genders": [], "languages": [], "places_of_operation": [], "biography": "", "biography_author": null, "date_of_biography": "2023-05-09T16:32:27.819424+10:00", "external_links": [], "uuid": "51b8e195-6bea-44d4-9d39-17c11da3501a", "source": {"name": "Vernon", "slug": "vernon"}, "source_identifier": "11269", "external_references": [{"id": 40116, "source": {"name": "Wikidata", "slug": "wikidata"}, "source_identifier": "Q121143836"}], "date_modified": "2023-09-05T23:39:50.103991+10:00"}, {"id": 26129, "name": "Seon Films", "roles_in_work": [{"id": 2229310, "title": "Prisoner of St Petersburg", "work_id": 83992, "role": "production company", "role_id": 941, "is_primary": true}, {"id": 2253730, "title": "Romper stomper", "work_id": 85176, "role": "production company", "role_id": 941, "is_primary": true}], "also_known_as": "", "date_of_birth": "", "date_of_death": "", "genders": [], "languages": [], "places_of_operation": [], "biography": "", "biography_author": null, "date_of_biography": "2023-05-09T17:14:45.228646+10:00", "external_links": [], "uuid": "d88cc110-eefd-4ad1-9a8c-911b4b83eaf5", "source": {"name": "Vernon", "slug": "vernon"}, "source_identifier": "12442", "external_references": [{"id": 34751, "source": {"name": "Wikidata", "slug": "wikidata"}, "source_identifier": "Q121270803"}], "date_modified": "2023-09-06T01:10:35.423598+10:00"}, {"id": 26128, "name": "Bahram Beizai", "roles_in_work": [{"id": 784125, "title": "Bashu: the little stranger", "work_id": 83990, "role": "director", "role_id": 938, "is_primary": true}], "also_known_as": "", "date_of_birth": "1938-12-26", "date_of_death": null, "genders": [{"id": 9, "name": "Male", "slug": "male"}], "languages": [{"id": 26, "name": "Persian", "slug": "persian"}], "places_of_operation": [{"id": 258, "name": "Iran", "slug": "iran"}], "biography": "Bahrām Beyzāêi (also spelt Beizāi, Beyzāêi, Persian: بهرام بیضائی born 26 December 1938) is an Iranian playwright, theatre director, screenwriter, film editor, and ostād (\"master\") of Persian letters, arts and Iranian studies.\nBeyzaie is the son of the poet Ne'matallah Beyzai (best known by his literary pseudonym \"Zokā'i\"). The celebrated poet Adib Beyzai, known as one of the most profound poets of 20th-century Iran, is Bahram's paternal uncle. Bahram Beyzaie's paternal grandfather, Mirzā Mohammad-Rezā Ārāni (\"Ebn Ruh\"), and paternal great-grandfather, the mulla Mohammad-Faqih Ārāni (\"Ruh'ol-Amin\"), were also notable poets.In spite of his somewhat belated start in cinema, Beyzai is often considered a pioneer of a generation of filmmakers whose works are sometimes described as the Iranian New Wave. His Bashu, the Little Stranger (1986) was voted \"Best Iranian Film of all time\" in November 1999 by a Persian movie magazine Picture World poll of 150 Iranian critics and professionals. Still, even before the outset of his cinematic career in 1970, he was a leading playwright (as well as theatre historian), so much so that he is often considered the greatest playwright of the Persian language, and holds a reputation as \"The Shakespeare of Persia\".Since 2010, Beyzai has lived and taught at Stanford University, United States.", "biography_author": "Wikidata", "date_of_biography": "2022-05-19T10:53:41.844352+10:00", "external_links": [{"id": 1692, "uri": "https://en.wikipedia.org/wiki/Bahram_Beyzai"}], "uuid": "9a73b385-431a-42c1-9bf2-9e121b7a6dc9", "source": {"name": "Vernon", "slug": "vernon"}, "source_identifier": "15625", "external_references": [{"id": 7381, "source": {"name": "Wikidata", "slug": "wikidata"}, "source_identifier": "Q803646"}, {"id": 7382, "source": {"name": "VIAF", "slug": "viaf"}, "source_identifier": "72820592"}, {"id": 7383, "source": {"name": "LOC Auth", "slug": "loc-auth"}, "source_identifier": "n85091733"}, {"id": 7384, "source": {"name": "WorldCat", "slug": "worldcat"}, "source_identifier": "lccn-n85091733"}], "date_modified": "2023-09-13T12:28:21.243361+10:00"}, {"id": 26125, "name": "Lea Films", "roles_in_work": [{"id": 2308425, "title": "Stan and George's new life", "work_id": 83988, "role": "production company", "role_id": 941, "is_primary": true}], "also_known_as": "", "date_of_birth": "", "date_of_death": "", "genders": [], "languages": [], "places_of_operation": [], "biography": "", "biography_author": null, "date_of_biography": "2023-05-09T18:48:39.839865+10:00", "external_links": [], "uuid": "2f6bbeed-6d7f-4bd8-9135-92139b9579ae", "source": {"name": "Vernon", "slug": "vernon"}, "source_identifier": "9946", "external_references": [{"id": 33324, "source": {"name": "Wikidata", "slug": "wikidata"}, "source_identifier": "Q121143995"}], "date_modified": "2023-09-05T22:17:39.899442+10:00"}, {"id": 26120, "name": "Lawrence Taub", "roles_in_work": [{"id": 2228565, "title": "Powaqqatsi: Life in transformation [DVD]", "work_id": 94872, "role": "co-producer", "role_id": 915, "is_primary": true}, {"id": 929206, "title": "Naqoyqatsi: life as war", "work_id": 94835, "role": "co-producer", "role_id": 915, "is_primary": true}, {"id": 1813820, "title": "Anima mundi", "work_id": 83983, "role": "producer", "role_id": 1089, "is_primary": true}], "also_known_as": "", "date_of_birth": "", "date_of_death": "", "genders": [], "languages": [], "places_of_operation": [], "biography": "", "biography_author": null, "date_of_biography": "2023-05-09T16:30:23.351398+10:00", "external_links": [], "uuid": "dc0fba2d-53da-423f-b4dc-ae520659e1a5", "source": {"name": "Vernon", "slug": "vernon"}, "source_identifier": "23602", "external_references": [{"id": 32885, "source": {"name": "Wikidata", "slug": "wikidata"}, "source_identifier": "Q121299282"}], "date_modified": "2023-09-05T22:17:34.855358+10:00"}, {"id": 26116, "name": "International Broadcasting Trust", "roles_in_work": [{"id": 2185327, "title": "Pain, passion and profit", "work_id": 83982, "role": "production company", "role_id": 941, "is_primary": true}, {"id": 819649, "title": "War generation: Beirut (D)", "work_id": 94390, "role": "production company", "role_id": 941, "is_primary": true}], "also_known_as": "", "date_of_birth": "", "date_of_death": "", "genders": [], "languages": [], "places_of_operation": [], "biography": "", "biography_author": null, "date_of_biography": "2023-05-09T15:00:08.737884+10:00", "external_links": [], "uuid": "d9f96a6f-5d54-4af9-aa49-e6256436307e", "source": {"name": "Vernon", "slug": "vernon"}, "source_identifier": "9364", "external_references": [{"id": 41388, "source": {"name": "Wikidata", "slug": "wikidata"}, "source_identifier": "Q121271480"}], "date_modified": "2023-09-05T20:49:19.517589+10:00"}, {"id": 26114, "name": "Slamet Rahardjo", "roles_in_work": [{"id": 784083, "title": "My sky, my home = Langitku rumahku", "work_id": 83980, "role": "director", "role_id": 938, "is_primary": true}], "also_known_as": "", "date_of_birth": "1949-01-21", "date_of_death": null, "genders": [{"id": 9, "name": "Male", "slug": "male"}], "languages": [{"id": 12, "name": "Indonesian", "slug": "indonesian"}], "places_of_operation": [{"id": 6, "name": "Indonesia", "slug": "indonesia"}], "biography": "Slamet Rahardjo Djarot or better known as Slamet Rahardjo (born 21 January 1949) is an Indonesian actor, director, and screenwriter of Javanese descent. He is the elder brother of director, songwriter, and politician, Eros Djarot. Since his directorial debut in 1979 with Rembulan dan Matahari, he has directed and/or written twelve films; one of which, Langitku, Rumahku, was Indonesia's submission to the 63rd Academy Awards in 1991.", "biography_author": "Wikidata", "date_of_biography": "2022-05-19T13:06:48.803776+10:00", "external_links": [{"id": 3119, "uri": "https://en.wikipedia.org/wiki/Slamet_Rahardjo"}], "uuid": "abf0759c-3ec7-429c-bb67-8218e4912595", "source": {"name": "Vernon", "slug": "vernon"}, "source_identifier": "28878", "external_references": [{"id": 13232, "source": {"name": "Wikidata", "slug": "wikidata"}, "source_identifier": "Q7538599"}, {"id": 13233, "source": {"name": "VIAF", "slug": "viaf"}, "source_identifier": "92716690"}, {"id": 13234, "source": {"name": "LOC Auth", "slug": "loc-auth"}, "source_identifier": "nr96031114"}, {"id": 13235, "source": {"name": "WorldCat", "slug": "worldcat"}, "source_identifier": "lccn-nr96031114"}], "date_modified": "2023-09-13T12:32:47.279732+10:00"}]}