{"count": 28687, "next": "https://api.acmi.net.au/creators/?page=2054", "previous": "https://api.acmi.net.au/creators/?page=2052", "results": [{"id": 21488, "name": "Sir David Brand Centre", "roles_in_work": [{"id": 2464951, "title": "Positioning for Function Workshop", "work_id": 78695, "role": "producer", "role_id": 1089, "is_primary": true}], "also_known_as": "", "date_of_birth": "", "date_of_death": "", "genders": [], "languages": [], "places_of_operation": [], "biography": "", "biography_author": null, "date_of_biography": "2023-08-14T10:23:25.036818+10:00", "external_links": [], "uuid": "8f053dfb-70c0-437c-b8da-d354c6768021", "source": {"name": "Vernon", "slug": "vernon"}, "source_identifier": "12615", "external_references": [], "date_modified": "2023-08-14T10:23:25.037096+10:00"}, {"id": 21487, "name": "Kirby Dick", "roles_in_work": [{"id": 2299004, "title": "Sick: the life and death of Bob Flanagan, supermasochist (D)", "work_id": 93684, "role": "director", "role_id": 938, "is_primary": true}, {"id": 2299001, "title": "Sick: the life and death of Bob Flanagan, supermasochist (D)", "work_id": 93684, "role": "co-producer", "role_id": 915, "is_primary": true}, {"id": 1426158, "title": "Private practices: the story of a sex surrogate", "work_id": 78694, "role": "producer/director", "role_id": 31, "is_primary": true}], "also_known_as": "", "date_of_birth": "1952-08-23", "date_of_death": "", "genders": [{"id": 9, "name": "Male", "slug": "male"}], "languages": [], "places_of_operation": [{"id": 1, "name": "United States of America", "slug": "united-states-of-america"}], "biography": "Kirby Bryan Dick (born August 23, 1952) is an American film director, producer, screenwriter, and editor best known for directing documentary films. He received Academy Award nominations for Best Documentary Feature for directing Twist of Faith (2005) and The Invisible War (2012). He has also received numerous awards from film festivals, including the Sundance Film Festival and Los Angeles Film Festival.", "biography_author": "Wikidata", "date_of_biography": "2023-08-01T15:50:59.282222+10:00", "external_links": [{"id": 4503, "uri": "https://en.wikipedia.org/wiki/Kirby_Dick"}], "uuid": "6d5c5bdb-9a37-43e0-b0a9-4daf63b4c88b", "source": {"name": "Vernon", "slug": "vernon"}, "source_identifier": "23356", "external_references": [{"id": 25044, "source": {"name": "Wikidata", "slug": "wikidata"}, "source_identifier": "Q1742430"}, {"id": 29818, "source": {"name": "VIAF", "slug": "viaf"}, "source_identifier": "56248177"}, {"id": 29819, "source": {"name": "LOC Auth", "slug": "loc-auth"}, "source_identifier": "no99051488"}, {"id": 29820, "source": {"name": "WorldCat", "slug": "worldcat"}, "source_identifier": "lccn-no99051488"}], "date_modified": "2023-09-05T22:10:07.439832+10:00"}, {"id": 21484, "name": "Trikon Film Corporation", "roles_in_work": [{"id": 2207187, "title": "Pitjiri: the snake that will not sink", "work_id": 78691, "role": "production company", "role_id": 941, "is_primary": true}], "also_known_as": "", "date_of_birth": "", "date_of_death": "", "genders": [], "languages": [], "places_of_operation": [], "biography": "", "biography_author": null, "date_of_biography": "2023-05-09T15:37:21.080115+10:00", "external_links": [], "uuid": "c3ae8217-f84f-4239-a72d-dfc174418d78", "source": {"name": "Vernon", "slug": "vernon"}, "source_identifier": "13709", "external_references": [{"id": 51857, "source": {"name": "Wikidata", "slug": "wikidata"}, "source_identifier": "Q121357819"}], "date_modified": "2023-09-06T01:58:50.145210+10:00"}, {"id": 21481, "name": "Victorian Women's Film Unit", "roles_in_work": [{"id": 2474078, "title": "Egami", "work_id": 118037, "role": "producer", "role_id": 1089, "is_primary": true}, {"id": 767818, "title": "High heels", "work_id": 78686, "role": "production company", "role_id": 941, "is_primary": true}, {"id": 768147, "title": "Pre-occupied", "work_id": 78813, "role": "production company", "role_id": 941, "is_primary": true}], "also_known_as": "", "date_of_birth": "", "date_of_death": "", "genders": [], "languages": [], "places_of_operation": [], "biography": "", "biography_author": null, "date_of_biography": "2023-08-16T03:55:06.045131+10:00", "external_links": [], "uuid": "ac9f2be3-2863-4457-990b-09b65a1232a4", "source": {"name": "Vernon", "slug": "vernon"}, "source_identifier": "14087", "external_references": [{"id": 41962, "source": {"name": "Wikidata", "slug": "wikidata"}, "source_identifier": "Q121315327"}], "date_modified": "2023-09-06T02:05:54.419296+10:00"}, {"id": 21480, "name": "Face Value Productions", "roles_in_work": [{"id": 2508646, "title": "Fifty fifty", "work_id": 78685, "role": "production company", "role_id": 941, "is_primary": true}], "also_known_as": "", "date_of_birth": null, "date_of_death": null, "genders": [], "languages": [], "places_of_operation": [], "biography": "", "biography_author": null, "date_of_biography": null, "external_links": [], "uuid": "bf2d97a0-0d05-4c1c-b514-fa4550fd845b", "source": {"name": "Vernon", "slug": "vernon"}, "source_identifier": "8070", "external_references": [], "date_modified": "2024-01-10T03:45:22.231076+11:00"}, {"id": 21479, "name": "Gold Medal Productions", "roles_in_work": [{"id": 2401811, "title": "Swimming", "work_id": 78682, "role": "producer", "role_id": 1089, "is_primary": true}, {"id": 1804507, "title": "Water Babies", "work_id": 78683, "role": "producer", "role_id": 1089, "is_primary": true}, {"id": 2752538, "title": "Backstroke, breaststroke, butterfly, freestyle", "work_id": 98340, "role": "production company", "role_id": 941, "is_primary": true}, {"id": 2401813, "title": "Swimming with Mark Tonelli", "work_id": 115348, "role": "production company", "role_id": 941, "is_primary": true}], "also_known_as": "", "date_of_birth": "", "date_of_death": "", "genders": [], "languages": [], "places_of_operation": [], "biography": "", "biography_author": null, "date_of_biography": "2023-08-11T14:32:40.761156+10:00", "external_links": [], "uuid": "5b94d995-a81d-4d2a-9413-13ae2c80e89e", "source": {"name": "Vernon", "slug": "vernon"}, "source_identifier": "8775", "external_references": [], "date_modified": "2025-03-13T01:07:08.014305+11:00"}, {"id": 21478, "name": "Peter Hicks", "roles_in_work": [{"id": 2648661, "title": "A Sense of Direction (Captioned)", "work_id": 79702, "role": "director", "role_id": 938, "is_primary": true}, {"id": 2774795, "title": "Mountains of change", "work_id": 81798, "role": "director", "role_id": 938, "is_primary": true}, {"id": 898570, "title": "A Sense of Direction", "work_id": 78681, "role": "co-producer", "role_id": 915, "is_primary": true}, {"id": 2648660, "title": "A Sense of Direction (Captioned)", "work_id": 79702, "role": "co-producer", "role_id": 915, "is_primary": true}, {"id": 898571, "title": "A Sense of Direction", "work_id": 78681, "role": "director", "role_id": 938, "is_primary": true}], "also_known_as": "", "date_of_birth": "", "date_of_death": "", "genders": [], "languages": [], "places_of_operation": [], "biography": "", "biography_author": null, "date_of_biography": "2023-05-09T19:23:39.121758+10:00", "external_links": [], "uuid": "3ea935ee-5799-4e1c-a40a-eb4f7e00a572", "source": {"name": "Vernon", "slug": "vernon"}, "source_identifier": "26576", "external_references": [{"id": 41932, "source": {"name": "Wikidata", "slug": "wikidata"}, "source_identifier": "Q121035094"}], "date_modified": "2025-03-14T18:40:24.684387+11:00"}, {"id": 21473, "name": "Rodale Press", "roles_in_work": [{"id": 1845519, "title": "Culinary Herbs", "work_id": 78678, "role": "producer", "role_id": 1089, "is_primary": true}, {"id": 2149887, "title": "Cut your home heating costs", "work_id": 83888, "role": "production company", "role_id": 941, "is_primary": true}], "also_known_as": "", "date_of_birth": "", "date_of_death": "", "genders": [], "languages": [], "places_of_operation": [], "biography": "", "biography_author": null, "date_of_biography": "2023-05-09T13:51:06.919901+10:00", "external_links": [], "uuid": "10649659-ad48-485e-aeae-7d4d530ee3b0", "source": {"name": "Vernon", "slug": "vernon"}, "source_identifier": "12092", "external_references": [{"id": 43189, "source": {"name": "Wikidata", "slug": "wikidata"}, "source_identifier": "Q121126150"}], "date_modified": "2023-09-06T00:50:31.696715+10:00"}, {"id": 21469, "name": "Australian College of Entertainers", "roles_in_work": [{"id": 2464613, "title": "One Day Soon", "work_id": 78675, "role": "production company", "role_id": 941, "is_primary": true}], "also_known_as": "", "date_of_birth": "", "date_of_death": "", "genders": [], "languages": [], "places_of_operation": [], "biography": "", "biography_author": null, "date_of_biography": "2023-08-14T10:15:18.026256+10:00", "external_links": [], "uuid": "b2b543d9-5947-4c15-b6e1-6c0421c27bba", "source": {"name": "Vernon", "slug": "vernon"}, "source_identifier": "5571", "external_references": [], "date_modified": "2023-08-14T10:15:18.026638+10:00"}, {"id": 21467, "name": "Deborah Shaffer", "roles_in_work": [{"id": 2471954, "title": "Witness to war", "work_id": 78670, "role": "director", "role_id": 938, "is_primary": true}], "also_known_as": "", "date_of_birth": "", "date_of_death": "", "genders": [], "languages": [], "places_of_operation": [], "biography": "", "biography_author": null, "date_of_biography": "2023-08-14T12:50:15.577311+10:00", "external_links": [], "uuid": "11ac372f-2e16-47fc-a66d-6b85bfeb006f", "source": {"name": "Vernon", "slug": "vernon"}, "source_identifier": "17916", "external_references": [], "date_modified": "2023-08-14T12:50:15.577526+10:00"}]}