{"count": 28683, "next": "https://api.acmi.net.au/creators/?page=2286", "previous": "https://api.acmi.net.au/creators/?page=2284", "results": [{"id": 17038, "name": "Ronald Neame", "roles_in_work": [{"id": 2265363, "title": "Scrooge", "work_id": 83158, "role": "director", "role_id": 938, "is_primary": true}, {"id": 2616207, "title": "The Card", "work_id": 86856, "role": "director", "role_id": 938, "is_primary": true}, {"id": 1991389, "title": "Windom's way", "work_id": 87069, "role": "director", "role_id": 938, "is_primary": true}, {"id": 1996287, "title": "The Poseidon adventure", "work_id": 92618, "role": "director", "role_id": 938, "is_primary": true}, {"id": 895312, "title": "Oliver Twist by Charles Dickens [study extract]", "work_id": 71077, "role": "co-producer", "role_id": 915, "is_primary": true}, {"id": 2476235, "title": "The Magic box", "work_id": 90484, "role": "producer", "role_id": 1089, "is_primary": true}], "also_known_as": "", "date_of_birth": "1911-04-23", "date_of_death": "2010-06-16", "genders": [{"id": 9, "name": "Male", "slug": "male"}], "languages": [{"id": 1, "name": "English", "slug": "english"}], "places_of_operation": [{"id": 10, "name": "United Kingdom", "slug": "united-kingdom"}], "biography": "Ronald Neame CBE, BSC (23 April 1911 – 16 June 2010) was an English film producer, director, cinematographer, and screenwriter. Beginning his career as a cinematographer, for his work on the British war film One of Our Aircraft Is Missing (1943) he received an Academy Award nomination for Best Special Effects. During a partnership with director David Lean, he produced Brief Encounter (1945), Great Expectations (1946), and Oliver Twist (1948), receiving two Academy Award nominations for writing.\nNeame then moved into directing, and some notable films included, The Man Who Never Was (1956), which chronicled Operation Mincemeat, a British WWII deception operation, The Prime of Miss Jean Brodie (1969), which won Maggie Smith her first Oscar, and the action-adventure disaster film The Poseidon Adventure (1972). He also directed I Could Go On Singing (1963), Judy Garland's last film, and Scrooge (1970), starring Albert Finney.\nFor his contributions to the film industry, in 1996 Neame was appointed a Commander of the Order of the British Empire (CBE) and received the BAFTA Academy Fellowship Award, the highest award the British Film Academy can give a filmmaker.", "biography_author": "Wikidata", "date_of_biography": "2022-05-19T12:58:18.714188+10:00", "external_links": [{"id": 3028, "uri": "https://en.wikipedia.org/wiki/Ronald_Neame"}], "uuid": "bf238aa2-4e50-4e1a-98e3-7f7421cc0845", "source": {"name": "Vernon", "slug": "vernon"}, "source_identifier": "28210", "external_references": [{"id": 12854, "source": {"name": "Wikidata", "slug": "wikidata"}, "source_identifier": "Q460090"}, {"id": 12855, "source": {"name": "VIAF", "slug": "viaf"}, "source_identifier": "71578849"}, {"id": 12856, "source": {"name": "LOC Auth", "slug": "loc-auth"}, "source_identifier": "n77005919"}, {"id": 12857, "source": {"name": "WorldCat", "slug": "worldcat"}, "source_identifier": "lccn-n77005919"}], "date_modified": "2025-02-26T20:40:14.332412+11:00"}, {"id": 17037, "name": "Anthony Havelock-Allan", "roles_in_work": [{"id": 2270016, "title": "William Shakespeare's Romeo and Juliet (Zeffirelli)", "work_id": 83317, "role": "co-producer", "role_id": 915, "is_primary": true}, {"id": 2750114, "title": "Romeo and Juliet (Zeffirelli abridged version)", "work_id": 97152, "role": "co-producer", "role_id": 915, "is_primary": true}, {"id": 895311, "title": "Oliver Twist by Charles Dickens [study extract]", "work_id": 71077, "role": "co-producer", "role_id": 915, "is_primary": true}, {"id": 1817890, "title": "Othello", "work_id": 71226, "role": "producer", "role_id": 1089, "is_primary": true}, {"id": 2118954, "title": "Blanche fury", "work_id": 83567, "role": "producer", "role_id": 1089, "is_primary": true}, {"id": 1984685, "title": "Great expectations", "work_id": 80677, "role": "producer", "role_id": 1089, "is_primary": true}, {"id": 1985535, "title": "Blithe spirit", "work_id": 81308, "role": "producer", "role_id": 1089, "is_primary": true}, {"id": 1984928, "title": "The Quare fellow", "work_id": 80906, "role": "producer", "role_id": 1089, "is_primary": true}, {"id": 1985566, "title": "Ryan's daughter", "work_id": 81319, "role": "producer", "role_id": 1089, "is_primary": true}], "also_known_as": "", "date_of_birth": "1904-02-28", "date_of_death": "2003-01-11", "genders": [{"id": 9, "name": "Male", "slug": "male"}], "languages": [{"id": 1, "name": "English", "slug": "english"}], "places_of_operation": [{"id": 10, "name": "United Kingdom", "slug": "united-kingdom"}], "biography": "Sir Anthony James Allan Havelock-Allan, 4th Baronet (28 February 1904 – 11 January 2003) was a British film producer and screenwriter whose credits included This Happy Breed, Blithe Spirit, Great Expectations, Oliver Twist, the 1968 version of Romeo and Juliet and Ryan's Daughter.", "biography_author": "Wikidata", "date_of_biography": "2022-05-19T10:50:56.212684+10:00", "external_links": [{"id": 1665, "uri": "https://en.wikipedia.org/wiki/Anthony_Havelock-Allan"}], "uuid": "3603c740-2cfa-49cb-984d-2fec41f4142e", "source": {"name": "Vernon", "slug": "vernon"}, "source_identifier": "15393", "external_references": [{"id": 7262, "source": {"name": "Wikidata", "slug": "wikidata"}, "source_identifier": "Q573327"}, {"id": 7263, "source": {"name": "VIAF", "slug": "viaf"}, "source_identifier": "117898013"}, {"id": 7264, "source": {"name": "LOC Auth", "slug": "loc-auth"}, "source_identifier": "no90007319"}, {"id": 7265, "source": {"name": "WorldCat", "slug": "worldcat"}, "source_identifier": "lccn-no90007319"}], "date_modified": "2025-03-13T00:15:19.853907+11:00"}, {"id": 17035, "name": "Yvonne MacKay", "roles_in_work": [{"id": 2752233, "title": "Visit to an airport", "work_id": 98202, "role": "director", "role_id": 938, "is_primary": true}, {"id": 2648975, "title": "The Silent one", "work_id": 80511, "role": "director", "role_id": 938, "is_primary": true}, {"id": 2752236, "title": "Visit to a container port", "work_id": 98203, "role": "director", "role_id": 938, "is_primary": true}, {"id": 2752239, "title": "Visit to a dairy farm", "work_id": 98204, "role": "director", "role_id": 938, "is_primary": true}, {"id": 1426427, "title": "The Haunting of Barney Palmer", "work_id": 79820, "role": "director", "role_id": 938, "is_primary": true}, {"id": 763855, "title": "Children of Hong Kong", "work_id": 77202, "role": "director", "role_id": 938, "is_primary": true}, {"id": 763817, "title": "Children of Brunei", "work_id": 77189, "role": "director", "role_id": 938, "is_primary": true}, {"id": 856241, "title": "The Old man's story", "work_id": 71072, "role": "director", "role_id": 938, "is_primary": true}, {"id": 764933, "title": "Nearly no Christmas (K)", "work_id": 77634, "role": "director", "role_id": 938, "is_primary": true}, {"id": 861932, "title": "Black hearted Barney Blackfoot", "work_id": 75899, "role": "director", "role_id": 938, "is_primary": true}, {"id": 2752895, "title": "A Visit to a ....: a sheep farm, a dairy, an airport, a container port", "work_id": 98504, "role": "co-director", "role_id": 959, "is_primary": true}, {"id": 2750296, "title": "High country children of New Zealand", "work_id": 97239, "role": "co-director", "role_id": 959, "is_primary": true}, {"id": 770481, "title": "Haunting of Barney Palmer (Captioned)", "work_id": 79716, "role": "director", "role_id": 938, "is_primary": true}], "also_known_as": "", "date_of_birth": "", "date_of_death": "", "genders": [{"id": 5, "name": "Female", "slug": "female"}], "languages": [], "places_of_operation": [{"id": 9, "name": "New Zealand", "slug": "new-zealand"}], "biography": "", "biography_author": null, "date_of_biography": "2023-05-09T11:42:51.915934+10:00", "external_links": [], "uuid": "9ab4d219-26a6-4003-9352-1957b5a6965e", "source": {"name": "Vernon", "slug": "vernon"}, "source_identifier": "30648", "external_references": [{"id": 41019, "source": {"name": "Wikidata", "slug": "wikidata"}, "source_identifier": "Q106814574"}, {"id": 56100, "source": {"name": "VIAF", "slug": "viaf"}, "source_identifier": "2216161274847847650007"}, {"id": 56101, "source": {"name": "WorldCat", "slug": "worldcat"}, "source_identifier": "viaf-2216161274847847650007"}], "date_modified": "2025-03-13T01:15:04.195578+11:00"}, {"id": 17033, "name": "Art Coburn", "roles_in_work": [{"id": 2750487, "title": "The Magic house", "work_id": 97352, "role": "director", "role_id": 938, "is_primary": true}, {"id": 895308, "title": "Old enough to know", "work_id": 71070, "role": "co-director", "role_id": 959, "is_primary": true}], "also_known_as": "", "date_of_birth": "", "date_of_death": "", "genders": [], "languages": [], "places_of_operation": [], "biography": "", "biography_author": null, "date_of_biography": "2023-08-14T11:20:25.145288+10:00", "external_links": [], "uuid": "64018608-f36a-4859-8931-bb9729a88cd0", "source": {"name": "Vernon", "slug": "vernon"}, "source_identifier": "15498", "external_references": [], "date_modified": "2025-03-13T00:22:30.516012+11:00"}, {"id": 17029, "name": "Ian Harris and Associates", "roles_in_work": [{"id": 2464581, "title": "Of rice and roads. Project series. No. 2. Philippines", "work_id": 71050, "role": "production company", "role_id": 941, "is_primary": true}], "also_known_as": "", "date_of_birth": "", "date_of_death": "", "genders": [], "languages": [], "places_of_operation": [], "biography": "", "biography_author": null, "date_of_biography": "2023-08-14T10:14:35.876022+10:00", "external_links": [], "uuid": "1feb772e-a54a-4e84-9595-ece023a6da49", "source": {"name": "Vernon", "slug": "vernon"}, "source_identifier": "9214", "external_references": [], "date_modified": "2023-08-14T10:14:35.876353+10:00"}, {"id": 17028, "name": "Hubley Studios", "roles_in_work": [{"id": 860937, "title": "WOW: women of the world", "work_id": 74840, "role": "production company", "role_id": 941, "is_primary": true}, {"id": 2222953, "title": "Everybody rides the carousel. Parts 1-3", "work_id": 75990, "role": "production company", "role_id": 941, "is_primary": true}, {"id": 2309850, "title": "Step by step", "work_id": 77383, "role": "production company", "role_id": 941, "is_primary": true}, {"id": 895304, "title": "Of men and demons", "work_id": 71049, "role": "production company", "role_id": 941, "is_primary": true}], "also_known_as": "", "date_of_birth": "", "date_of_death": "", "genders": [], "languages": [], "places_of_operation": [], "biography": "", "biography_author": null, "date_of_biography": "2023-05-09T18:51:07.521216+10:00", "external_links": [], "uuid": "5e69bb94-6693-4d52-9f62-94b551fe6218", "source": {"name": "Vernon", "slug": "vernon"}, "source_identifier": "13398", "external_references": [], "date_modified": "2023-06-14T16:33:30.576250+10:00"}, {"id": 17027, "name": "Helen Kirstt Radin", "roles_in_work": [{"id": 2790698, "title": "The Scientist", "work_id": 84650, "role": "producer", "role_id": 1089, "is_primary": true}, {"id": 2790691, "title": "The Artist", "work_id": 84648, "role": "producer", "role_id": 1089, "is_primary": true}, {"id": 2790702, "title": "The Warrior", "work_id": 84651, "role": "producer", "role_id": 1089, "is_primary": true}, {"id": 1819250, "title": "The Odds against", "work_id": 71046, "role": "producer", "role_id": 1089, "is_primary": true}], "also_known_as": "", "date_of_birth": "", "date_of_death": "", "genders": [], "languages": [], "places_of_operation": [], "biography": "", "biography_author": null, "date_of_biography": "2023-05-09T19:44:20.980847+10:00", "external_links": [], "uuid": "73e749ef-56eb-47cb-b75f-1ae7c13fa6d0", "source": {"name": "Vernon", "slug": "vernon"}, "source_identifier": "20430", "external_references": [{"id": 39241, "source": {"name": "Wikidata", "slug": "wikidata"}, "source_identifier": "Q121159732"}], "date_modified": "2025-03-14T19:58:59.549224+11:00"}, {"id": 17026, "name": "Bairnsdale Technical School", "roles_in_work": [{"id": 2469417, "title": "Trouble in town", "work_id": 95995, "role": "production company", "role_id": 941, "is_primary": true}, {"id": 2464569, "title": "Odd man in", "work_id": 71044, "role": "production company", "role_id": 941, "is_primary": true}], "also_known_as": "", "date_of_birth": "", "date_of_death": "", "genders": [], "languages": [], "places_of_operation": [], "biography": "", "biography_author": null, "date_of_biography": "2023-08-14T12:00:42.271931+10:00", "external_links": [], "uuid": "75621231-3b95-4ccf-b219-697ba3d9f323", "source": {"name": "Vernon", "slug": "vernon"}, "source_identifier": "5684", "external_references": [], "date_modified": "2023-08-14T12:00:42.272160+10:00"}, {"id": 17025, "name": "Les Requins Associes", "roles_in_work": [{"id": 2768606, "title": "Octopus octopus", "work_id": 71043, "role": "production company", "role_id": 941, "is_primary": true}], "also_known_as": "", "date_of_birth": "", "date_of_death": "", "genders": [], "languages": [], "places_of_operation": [], "biography": "", "biography_author": null, "date_of_biography": "2023-08-14T12:41:41.029471+10:00", "external_links": [], "uuid": "3bfa8fc8-70e8-4d3e-a03f-f2ee338515c9", "source": {"name": "Vernon", "slug": "vernon"}, "source_identifier": "10027", "external_references": [], "date_modified": "2025-03-14T18:10:30.532130+11:00"}, {"id": 17024, "name": "Metromedia Producers Corporation", "roles_in_work": [{"id": 2778282, "title": "Agonies of nationalism: 1800 - 1927", "work_id": 81900, "role": "production company", "role_id": 941, "is_primary": true}, {"id": 2778305, "title": "China: A Century of Revolution", "work_id": 115217, "role": "production company", "role_id": 941, "is_primary": true}, {"id": 2646644, "title": "The Time of man", "work_id": 73840, "role": "production company", "role_id": 941, "is_primary": true}, {"id": 2768604, "title": "Octopus octopus", "work_id": 71043, "role": "production company", "role_id": 941, "is_primary": true}, {"id": 2768611, "title": "The Unsinkable sea otter", "work_id": 74230, "role": "production company", "role_id": 941, "is_primary": true}, {"id": 2768652, "title": "Beneath the frozen world", "work_id": 97945, "role": "production company", "role_id": 941, "is_primary": true}, {"id": 2778295, "title": "Communist triumph and consolidation, 1945-1971", "work_id": 81833, "role": "production company", "role_id": 941, "is_primary": true}], "also_known_as": "", "date_of_birth": "", "date_of_death": "", "genders": [], "languages": [], "places_of_operation": [], "biography": "", "biography_author": null, "date_of_biography": "2023-08-14T12:41:40.383602+10:00", "external_links": [], "uuid": "cffcce03-4855-492a-8bf1-c2d545bc1328", "source": {"name": "Vernon", "slug": "vernon"}, "source_identifier": "10486", "external_references": [{"id": 39634, "source": {"name": "Wikidata", "slug": "wikidata"}, "source_identifier": "Q121078928"}], "date_modified": "2025-03-14T18:59:16.107735+11:00"}]}