{"count": 28687, "next": "https://api.acmi.net.au/creators/?page=1481", "previous": "https://api.acmi.net.au/creators/?page=1479", "results": [{"id": 34678, "name": "University of Wollongong", "roles_in_work": [{"id": 3083106, "title": "Millenium Dilemma: Constitutional Change in Australia", "work_id": 115574, "role": "production company", "role_id": 941, "is_primary": true}, {"id": 3083100, "title": "Constitutional futures", "work_id": 93016, "role": "production company", "role_id": 941, "is_primary": true}, {"id": 3083096, "title": "Rights and wrongs", "work_id": 93015, "role": "production company", "role_id": 941, "is_primary": true}, {"id": 3083092, "title": "The Power game", "work_id": 93014, "role": "production company", "role_id": 941, "is_primary": true}, {"id": 3083088, "title": "An Australian Republic?", "work_id": 93013, "role": "production company", "role_id": 941, "is_primary": true}, {"id": 3083083, "title": "The Australian Constitution", "work_id": 93012, "role": "production company", "role_id": 941, "is_primary": true}], "also_known_as": "", "date_of_birth": null, "date_of_death": null, "genders": [], "languages": [], "places_of_operation": [], "biography": "", "biography_author": null, "date_of_biography": null, "external_links": [], "uuid": "dfa33994-e14e-4b9d-9a04-154accfa32eb", "source": {"name": "Vernon", "slug": "vernon"}, "source_identifier": "13943", "external_references": [], "date_modified": "2025-03-17T10:32:00.576444+11:00"}, {"id": 34673, "name": "Columbia Picture Industries Inc", "roles_in_work": [{"id": 2069608, "title": "A Knight's Tale", "work_id": 93005, "role": "production company", "role_id": 941, "is_primary": true}], "also_known_as": "", "date_of_birth": "", "date_of_death": "", "genders": [], "languages": [], "places_of_operation": [], "biography": "", "biography_author": null, "date_of_biography": "2023-05-09T11:30:03.606544+10:00", "external_links": [], "uuid": "865121f9-7207-41d7-bbfe-17be931b01c1", "source": {"name": "Vernon", "slug": "vernon"}, "source_identifier": "6907", "external_references": [], "date_modified": "2023-06-14T16:33:30.576250+10:00"}, {"id": 34653, "name": "Scott McGinnis", "roles_in_work": [{"id": 1996925, "title": "Last gasp", "work_id": 92989, "role": "director", "role_id": 938, "is_primary": true}], "also_known_as": "", "date_of_birth": "1958-11-19", "date_of_death": null, "genders": [{"id": 9, "name": "Male", "slug": "male"}], "languages": [{"id": 1, "name": "English", "slug": "english"}], "places_of_operation": [{"id": 1, "name": "United States of America", "slug": "united-states-of-america"}], "biography": "", "biography_author": null, "date_of_biography": null, "external_links": [], "uuid": "2314ab58-bfae-4e2a-96d0-de8382a5750a", "source": {"name": "Vernon", "slug": "vernon"}, "source_identifier": "28635", "external_references": [{"id": 33574, "source": {"name": "Wikidata", "slug": "wikidata"}, "source_identifier": "Q2260984"}, {"id": 55782, "source": {"name": "VIAF", "slug": "viaf"}, "source_identifier": "34654835"}, {"id": 55783, "source": {"name": "LOC Auth", "slug": "loc-auth"}, "source_identifier": "no2013066785"}, {"id": 55784, "source": {"name": "WorldCat", "slug": "worldcat"}, "source_identifier": "lccn-no2013066785"}], "date_modified": "2023-09-13T12:32:39.873654+10:00"}, {"id": 34649, "name": "Sam Grossman", "roles_in_work": [{"id": 881982, "title": "The Van", "work_id": 92988, "role": "director", "role_id": 938, "is_primary": true}], "also_known_as": "", "date_of_birth": "1945-05-27", "date_of_death": "1999-02-22", "genders": [{"id": 9, "name": "Male", "slug": "male"}], "languages": [], "places_of_operation": [], "biography": "Sam Grossman was an American film director and writer, mainly known for The Van, and for directing various music documentaries in the 1980s. Additionally, he wrote several stage plays and worked \"extensively\" in television. He died of cancer at his home in West Los Angeles on February 22, 1999.", "biography_author": "Wikidata", "date_of_biography": "2022-05-19T13:00:24.434113+10:00", "external_links": [{"id": 3052, "uri": "https://en.wikipedia.org/wiki/Sam_Grossman"}], "uuid": "07e77010-6a2c-4be6-b33e-0e20302b7a80", "source": {"name": "Vernon", "slug": "vernon"}, "source_identifier": "28472", "external_references": [{"id": 12952, "source": {"name": "Wikidata", "slug": "wikidata"}, "source_identifier": "Q24897478"}, {"id": 12953, "source": {"name": "VIAF", "slug": "viaf"}, "source_identifier": "87337366"}, {"id": 12954, "source": {"name": "WorldCat", "slug": "worldcat"}, "source_identifier": "viaf-87337366"}], "date_modified": "2023-09-13T12:32:32.685217+10:00"}, {"id": 34646, "name": "Topps Chewing Gum Production", "roles_in_work": [{"id": 2349817, "title": "The Garbage pail kids", "work_id": 92987, "role": "production company", "role_id": 941, "is_primary": true}], "also_known_as": "", "date_of_birth": "", "date_of_death": "", "genders": [], "languages": [], "places_of_operation": [], "biography": "", "biography_author": null, "date_of_biography": "2023-05-09T19:54:13.341874+10:00", "external_links": [], "uuid": "8edac102-47ad-4eeb-99ed-471eaaea34ab", "source": {"name": "Vernon", "slug": "vernon"}, "source_identifier": "13660", "external_references": [{"id": 35350, "source": {"name": "Wikidata", "slug": "wikidata"}, "source_identifier": "Q121315506"}], "date_modified": "2023-09-06T01:57:23.327726+10:00"}, {"id": 34645, "name": "Adder Productions", "roles_in_work": [{"id": 2245794, "title": "Carry on camping = Let sleeping bags lie", "work_id": 92984, "role": "production company", "role_id": 941, "is_primary": true}, {"id": 2245859, "title": "Carry on", "work_id": 115530, "role": "production company", "role_id": 941, "is_primary": true}, {"id": 2245874, "title": "Don't lose your head", "work_id": 92985, "role": "production company", "role_id": 941, "is_primary": true}, {"id": 2245886, "title": "Carry on Henry = Mind my chopper", "work_id": 92983, "role": "production company", "role_id": 941, "is_primary": true}], "also_known_as": "", "date_of_birth": "", "date_of_death": "", "genders": [], "languages": [], "places_of_operation": [], "biography": "", "biography_author": null, "date_of_biography": "2023-05-09T17:02:43.988770+10:00", "external_links": [], "uuid": "0d530d42-66f0-49c4-aabd-470b6d9ea226", "source": {"name": "Vernon", "slug": "vernon"}, "source_identifier": "5025", "external_references": [{"id": 33550, "source": {"name": "Wikidata", "slug": "wikidata"}, "source_identifier": "Q121034711"}], "date_modified": "2023-09-05T17:16:21.263077+10:00"}, {"id": 34643, "name": "Imagicians", "roles_in_work": [{"id": 2309518, "title": "Starting from scratch", "work_id": 92981, "role": "production company", "role_id": 941, "is_primary": true}], "also_known_as": "", "date_of_birth": "", "date_of_death": "", "genders": [], "languages": [], "places_of_operation": [], "biography": "", "biography_author": null, "date_of_biography": "2023-05-09T18:50:23.764629+10:00", "external_links": [], "uuid": "2716719e-dfda-446b-9661-15654e18e9f1", "source": {"name": "Vernon", "slug": "vernon"}, "source_identifier": "9245", "external_references": [{"id": 35995, "source": {"name": "Wikidata", "slug": "wikidata"}, "source_identifier": "Q121034935"}], "date_modified": "2023-09-05T20:47:45.318194+10:00"}, {"id": 34636, "name": "John Hart", "roles_in_work": [{"id": 2123681, "title": "Boys don't cry", "work_id": 92978, "role": "co-producer", "role_id": 915, "is_primary": true}, {"id": 2750804, "title": "Animals can bite", "work_id": 97514, "role": "producer", "role_id": 1089, "is_primary": true}], "also_known_as": "", "date_of_birth": "", "date_of_death": "", "genders": [{"id": 9, "name": "Male", "slug": "male"}], "languages": [], "places_of_operation": [{"id": 1, "name": "United States of America", "slug": "united-states-of-america"}], "biography": "John N. Hart Jr. is an American film and theater producer best known for his work on Once (2012 winner of eight Tony Awards, including Best Musical), The Band's Visit (2018 winner of ten Tony Awards, including Best Musical), Boys Don't Cry), You Can Count on Me and Revolutionary Road. His productions have garnered him five personal Tony Awards for Best Production.Hart is founder and President of Evamere Entertainment, LLC, a New York City-based independent film and theatrical production company founded in 2007. Current and recent projects include The Band's Visit (2017), A Bronx Tale (2016), The Glass Menagerie (2013), and Once (2012).Before founding Evamere, Hart was a founding partner and President of Hart Sharp Entertainment, Inc., a New York City-based independent film and theatre production company. Additionally, Hart co-founded Smuggler Films in 2009.During his tenure at Hart Sharp, Hart produced 11 films and managed two private equity funds with an aggregate capital commitment of $20 million. He has produced 16 feature films including the critically acclaimed Boys Don't Cry, You Can Count on Me and Revolutionary Road.Other Broadway credits include Guys & Dolls, The Who's Tommy, Hamlet with Ralph Fiennes, How to Succeed in Business Without Really Trying starring Matthew Broderick, Annie Get Your Gun starring Bernadette Peters and the revival of Chicago.Hart is a graduate of Dartmouth College. Source: Wikidata; 01/08/2023", "biography_author": null, "date_of_biography": "2025-03-13T00:30:56.398663+11:00", "external_links": [{"id": 4384, "uri": "https://en.wikipedia.org/wiki/John_Hart_(producer)"}], "uuid": "f3d541e8-fb0e-4925-98cd-e964380c4e32", "source": {"name": "Vernon", "slug": "vernon"}, "source_identifier": "22308", "external_references": [{"id": 26185, "source": {"name": "Wikidata", "slug": "wikidata"}, "source_identifier": "Q16729686"}], "date_modified": "2025-03-13T00:30:56.398881+11:00"}, {"id": 34627, "name": "Po Chih Leong", "roles_in_work": [{"id": 1996886, "title": "The Wisdom of crocodiles = Immortality", "work_id": 92973, "role": "director", "role_id": 938, "is_primary": true}], "also_known_as": "", "date_of_birth": "1939-12-31", "date_of_death": null, "genders": [{"id": 9, "name": "Male", "slug": "male"}], "languages": [{"id": 1, "name": "English", "slug": "english"}], "places_of_operation": [{"id": 10, "name": "United Kingdom", "slug": "united-kingdom"}], "biography": "Leong Po-Chih (born 31 December 1939) is a British-born Chinese film director from Hong Kong and United States.", "biography_author": "Wikidata", "date_of_biography": "2022-05-19T12:45:29.297960+10:00", "external_links": [{"id": 2891, "uri": "https://en.wikipedia.org/wiki/Po-Chih_Leong"}], "uuid": "6eb2b7a6-8a33-4fe8-852e-c3fc6f907719", "source": {"name": "Vernon", "slug": "vernon"}, "source_identifier": "26969", "external_references": [{"id": 12294, "source": {"name": "Wikidata", "slug": "wikidata"}, "source_identifier": "Q3392879"}, {"id": 12295, "source": {"name": "VIAF", "slug": "viaf"}, "source_identifier": "37123714"}, {"id": 12296, "source": {"name": "LOC Auth", "slug": "loc-auth"}, "source_identifier": "no2010052199"}, {"id": 12297, "source": {"name": "WorldCat", "slug": "worldcat"}, "source_identifier": "lccn-no2010052199"}], "date_modified": "2023-09-13T12:32:03.976016+10:00"}, {"id": 34623, "name": "Josh Whedon", "roles_in_work": [{"id": 3081473, "title": "Buffy. Season 2. Part 2. Eps 13-22 [DVD]", "work_id": 92962, "role": "producer", "role_id": 1089, "is_primary": true}, {"id": 3081484, "title": "Buffy. Season 1. Eps 01-12 [DVD]", "work_id": 92964, "role": "producer", "role_id": 1089, "is_primary": true}, {"id": 3081491, "title": "Buffy. Season 3. Part 2. Eps 34-44 [DVD]", "work_id": 92965, "role": "producer", "role_id": 1089, "is_primary": true}, {"id": 3081497, "title": "Buffy. Season 2. Part 1. Eps 01-12 [DVD]", "work_id": 92966, "role": "producer", "role_id": 1089, "is_primary": true}, {"id": 3081479, "title": "Buffy. Season 3. Part 1. Eps 23-33 [DVD]", "work_id": 92963, "role": "producer", "role_id": 1089, "is_primary": true}], "also_known_as": "Joseph Hill Whedon", "date_of_birth": "1964-06-23", "date_of_death": "", "genders": [{"id": 9, "name": "Male", "slug": "male"}], "languages": [{"id": 1, "name": "English", "slug": "english"}], "places_of_operation": [{"id": 1, "name": "United States of America", "slug": "united-states-of-america"}], "biography": "Joseph Hill Whedon (; born June 23, 1964) is an American screenwriter, director, producer and comic book writer. He is the founder of Mutant Enemy Productions, co-founder of Bellwether Pictures, and is best known as the creator of several television series: the supernatural drama Buffy the Vampire Slayer (1997–2003) and its spinoff Angel (1999–2004), the short-lived space Western Firefly (2002), the Internet musical miniseries Dr. Horrible's Sing-Along Blog (2008), the science fiction drama Dollhouse (2009–2010), the Marvel Cinematic Universe series Agents of S.H.I.E.L.D. (2013–2020), and the science fiction drama The Nevers (2021).\nAfter beginning his career in sitcoms, Whedon wrote the poorly received horror comedy film Buffy the Vampire Slayer (1992) – which he later adapted into the acclaimed television series of the same name – co-wrote the Pixar animated film Toy Story (1995), and wrote the science fiction horror film Alien Resurrection (1997). After achieving success as a television showrunner, Whedon returned to film to write and direct the Firefly film continuation Serenity (2005), co-write and produce the horror comedy film The Cabin in the Woods (2012), and write and direct the Shakespeare adaptation Much Ado About Nothing (2012). For the Marvel Cinematic Universe, Whedon wrote and directed the ensemble superhero film The Avengers (2012) and its sequel Avengers: Age of Ultron (2015). He also co-wrote the DC Extended Universe superhero film Justice League (2017), for which he also served as director for re-shoots, replacing Zack Snyder (who retained directorial credit).\nWhedon has also worked as a composer (notably for the Buffy the Vampire Slayer musical episode \"Once More, with Feeling\" and Dr. Horrible's Sing-Along Blog) and comic book writer, both for comic book continuations of television series he created and for established franchises, such as Astonishing X-Men.\nSince 2020, multiple actors have accused Whedon of abusive behavior on film and television sets, which he has denied. WarnerMedia investigated Justice League actor Ray Fisher's allegations and announced that it had taken \"remedial action\" in December 2020.", "biography_author": "Wikidata", "date_of_biography": "2023-09-05T21:51:50.067018+10:00", "external_links": [{"id": 5943, "uri": "https://en.wikipedia.org/wiki/Joss_Whedon"}], "uuid": "bc5e9417-5db9-4a0a-825c-77eb4734bdc0", "source": {"name": "Vernon", "slug": "vernon"}, "source_identifier": "22762", "external_references": [{"id": 36064, "source": {"name": "Wikidata", "slug": "wikidata"}, "source_identifier": "Q298025"}, {"id": 54938, "source": {"name": "VIAF", "slug": "viaf"}, "source_identifier": "69129615"}, {"id": 54939, "source": {"name": "LOC Auth", "slug": "loc-auth"}, "source_identifier": "n94098094"}, {"id": 54940, "source": {"name": "WorldCat", "slug": "worldcat"}, "source_identifier": "lccn-n94098094"}], "date_modified": "2025-03-17T10:24:20.098519+11:00"}]}