{"count": 28682, "next": "https://api.acmi.net.au/creators/?page=2310", "previous": "https://api.acmi.net.au/creators/?page=2308", "results": [{"id": 16583, "name": "Peter Schamoni", "roles_in_work": [{"id": 2645586, "title": "Max Ernst: journey into the subconscious", "work_id": 70218, "role": "producer", "role_id": 1089, "is_primary": true}, {"id": 3083646, "title": "Max Ernst", "work_id": 92580, "role": "producer/director", "role_id": 31, "is_primary": true}], "also_known_as": "", "date_of_birth": "27 MAR 1934", "date_of_death": "14 JUN 2011", "genders": [{"id": 9, "name": "Male", "slug": "male"}], "languages": [{"id": 5, "name": "German", "slug": "german"}], "places_of_operation": [{"id": 18, "name": "Germany", "slug": "germany"}], "biography": "Peter Schamoni (27 March 1934 – 14 June 2011) was a German film director, producer, and screenwriter. He directed 35 films between 1957 and 2011. His 1966 film No Shooting Time for Foxes was entered into the 16th Berlin International Film Festival, where it won the Jury Grand Prix. Two years later he was a member of the jury at the 18th Berlin International Film Festival. In 1972, his film Hundertwasser's Rainy Day was nominated for the Academy Award for Best Documentary Short. Source: Wikidata; 01/08/2023", "biography_author": null, "date_of_biography": "2025-03-17T10:34:00.607392+11:00", "external_links": [{"id": 4894, "uri": "https://en.wikipedia.org/wiki/Peter_Schamoni"}], "uuid": "4dc06e78-50bc-4100-a3fd-b1cf79eb79ae", "source": {"name": "Vernon", "slug": "vernon"}, "source_identifier": "26702", "external_references": [{"id": 25982, "source": {"name": "Wikidata", "slug": "wikidata"}, "source_identifier": "Q66035"}, {"id": 30830, "source": {"name": "VIAF", "slug": "viaf"}, "source_identifier": "264144305"}, {"id": 30831, "source": {"name": "LOC Auth", "slug": "loc-auth"}, "source_identifier": "nr97029297"}, {"id": 30832, "source": {"name": "WorldCat", "slug": "worldcat"}, "source_identifier": "lccn-nr97029297"}], "date_modified": "2025-03-17T10:34:00.607627+11:00"}, {"id": 16579, "name": "J Sherman", "roles_in_work": [{"id": 2373929, "title": "A matter of survival: toxic solvents", "work_id": 70214, "role": "director", "role_id": 938, "is_primary": true}], "also_known_as": "", "date_of_birth": "", "date_of_death": "", "genders": [], "languages": [], "places_of_operation": [], "biography": "", "biography_author": null, "date_of_biography": "2023-07-05T03:47:16.373432+10:00", "external_links": [], "uuid": "b880091e-b482-4c33-8c09-222cc6391408", "source": {"name": "Vernon", "slug": "vernon"}, "source_identifier": "21003", "external_references": [{"id": 33301, "source": {"name": "Wikidata", "slug": "wikidata"}, "source_identifier": "Q121035326"}], "date_modified": "2023-09-05T20:53:34.643986+10:00"}, {"id": 16576, "name": "Fred Zimmerman", "roles_in_work": [{"id": 2070988, "title": "A Man for all seasons", "work_id": 80676, "role": "director", "role_id": 938, "is_primary": true}, {"id": 2476423, "title": "Oklahoma!", "work_id": 81198, "role": "director", "role_id": 938, "is_primary": true}, {"id": 1989341, "title": "High noon (Captioned)", "work_id": 85144, "role": "director", "role_id": 938, "is_primary": true}, {"id": 781996, "title": "The Men", "work_id": 83323, "role": "director", "role_id": 938, "is_primary": true}, {"id": 1987121, "title": "The Nun's story", "work_id": 83166, "role": "director", "role_id": 938, "is_primary": true}, {"id": 2615331, "title": "The Sundowners", "work_id": 85224, "role": "director", "role_id": 938, "is_primary": true}, {"id": 1985595, "title": "From here to eternity", "work_id": 81330, "role": "director", "role_id": 938, "is_primary": true}, {"id": 1985476, "title": "High noon", "work_id": 81292, "role": "director", "role_id": 938, "is_primary": true}, {"id": 1998844, "title": "The Day of the jackal [DVD]", "work_id": 94108, "role": "producer", "role_id": 1089, "is_primary": true}, {"id": 2778666, "title": "A Matter of conscience: Henry VIII and Sir Thomas More", "work_id": 70209, "role": "producer/director", "role_id": 31, "is_primary": true}], "also_known_as": "", "date_of_birth": "1907-04-29", "date_of_death": "1997-03-14", "genders": [{"id": 9, "name": "Male", "slug": "male"}], "languages": [{"id": 1, "name": "English", "slug": "english"}, {"id": 5, "name": "German", "slug": "german"}], "places_of_operation": [{"id": 1, "name": "United States of America", "slug": "united-states-of-america"}], "biography": "Alfred Zinnemann (April 29, 1907 – March 14, 1997) was an Austrian-born American film director. He won four Academy Awards for directing and producing films in various genres, including thrillers, westerns, film noir and play adaptations. He made 25 feature films during his 50-year career.\nHe was among the first directors to insist on using authentic locations and for mixing stars with civilians to give his films more realism. Within the film industry, he was considered a maverick for taking risks and thereby creating unique films, with many of his stories being dramas about lone and principled individuals tested by tragic events. According to one historian, Zinnemann's style demonstrated his sense of \"psychological realism and his apparent determination to make worthwhile pictures that are nevertheless highly entertaining.\"\nAmong his films were The Search (1947), The Men (1950), High Noon (1952), From Here to Eternity (1953), Oklahoma! (1955),  The Nun's Story (1959), A Man For All Seasons (1966), The Day of the Jackal (1973), and Julia (1977). His films have received 65 Oscar nominations, winning 24; Zinnemann himself was nominated for ten, and won Best Director for From Here to Eternity, Best Picture and Best Director for A Man for All Seasons, and Best Documentary, Short Subjects for Benjy (1951).\nZinnemann directed and introduced a number of stars in their U.S. film debuts, including Marlon Brando, Rod Steiger, Pier Angeli, Julie Harris, Brandon deWilde, Montgomery Clift, Shirley Jones and Meryl Streep. He directed 19 actors to Oscar nominations, including Frank Sinatra, Montgomery Clift, Audrey Hepburn, Glynis Johns, Paul Scofield, Robert Shaw, Wendy Hiller, Jason Robards, Vanessa Redgrave, Jane Fonda, Gary Cooper and Maximilian Schell.", "biography_author": "Wikidata", "date_of_biography": "2022-05-19T11:31:43.478558+10:00", "external_links": [{"id": 2078, "uri": "https://en.wikipedia.org/wiki/Fred_Zinnemann"}], "uuid": "10f1e74b-644c-4f64-a1c5-ac30c1cb4b32", "source": {"name": "Vernon", "slug": "vernon"}, "source_identifier": "733", "external_references": [{"id": 8967, "source": {"name": "Wikidata", "slug": "wikidata"}, "source_identifier": "Q55420"}, {"id": 8968, "source": {"name": "VIAF", "slug": "viaf"}, "source_identifier": "10038177"}, {"id": 8969, "source": {"name": "LOC Auth", "slug": "loc-auth"}, "source_identifier": "n88244899"}, {"id": 8970, "source": {"name": "WorldCat", "slug": "worldcat"}, "source_identifier": "lccn-n88244899"}], "date_modified": "2025-02-26T20:22:19.748436+11:00"}, {"id": 16571, "name": "A Graphic Film", "roles_in_work": [{"id": 2748856, "title": "Maths with everything", "work_id": 96505, "role": "production company", "role_id": 941, "is_primary": true}, {"id": 747699, "title": "Maths with everything (TEFC)", "work_id": 70202, "role": "production company", "role_id": 941, "is_primary": true}], "also_known_as": "", "date_of_birth": null, "date_of_death": null, "genders": [], "languages": [], "places_of_operation": [], "biography": "", "biography_author": null, "date_of_biography": null, "external_links": [], "uuid": "db1315c1-6ca0-4122-a760-df5ec9441683", "source": {"name": "Vernon", "slug": "vernon"}, "source_identifier": "4937", "external_references": [], "date_modified": "2025-03-12T23:46:34.368094+11:00"}, {"id": 16570, "name": "Educationa Foundation for Visual Aids", "roles_in_work": [{"id": 2165343, "title": "Maths alive (TEFC)", "work_id": 70200, "role": "production company", "role_id": 941, "is_primary": true}], "also_known_as": "", "date_of_birth": "", "date_of_death": "", "genders": [], "languages": [], "places_of_operation": [], "biography": "", "biography_author": null, "date_of_biography": "2023-05-09T14:24:20.306494+10:00", "external_links": [], "uuid": "24da68c6-595c-45c9-87a6-710268944c70", "source": {"name": "Vernon", "slug": "vernon"}, "source_identifier": "7779", "external_references": [{"id": 34167, "source": {"name": "Wikidata", "slug": "wikidata"}, "source_identifier": "Q121126900"}], "date_modified": "2023-09-05T19:25:07.244709+10:00"}, {"id": 16569, "name": "Paul Wendkos", "roles_in_work": [{"id": 1992576, "title": "Gidget goes Hawaiian", "work_id": 88184, "role": "director", "role_id": 938, "is_primary": true}, {"id": 1989713, "title": "Gidget", "work_id": 85364, "role": "director", "role_id": 938, "is_primary": true}, {"id": 1996118, "title": "Gidget goes to Rome", "work_id": 92486, "role": "director", "role_id": 938, "is_primary": true}, {"id": 895037, "title": "Mathew Brady: photographer of an era", "work_id": 70199, "role": "co-producer", "role_id": 915, "is_primary": true}], "also_known_as": "", "date_of_birth": "1925-09-20", "date_of_death": "2009-11-12", "genders": [{"id": 9, "name": "Male", "slug": "male"}], "languages": [{"id": 1, "name": "English", "slug": "english"}], "places_of_operation": [{"id": 1, "name": "United States of America", "slug": "united-states-of-america"}], "biography": "Abraham Paul Wendkos (September 20, 1925 – November 12, 2009) was an American television and film director.", "biography_author": "Wikidata", "date_of_biography": "2023-08-01T16:31:46.908119+10:00", "external_links": [{"id": 4859, "uri": "https://en.wikipedia.org/wiki/Paul_Wendkos"}], "uuid": "783bbb4c-e9bc-406f-a3f2-74ca610ff819", "source": {"name": "Vernon", "slug": "vernon"}, "source_identifier": "26357", "external_references": [{"id": 25459, "source": {"name": "Wikidata", "slug": "wikidata"}, "source_identifier": "Q450601"}, {"id": 30733, "source": {"name": "VIAF", "slug": "viaf"}, "source_identifier": "17409312"}, {"id": 30734, "source": {"name": "LOC Auth", "slug": "loc-auth"}, "source_identifier": "n91026406"}, {"id": 30735, "source": {"name": "WorldCat", "slug": "worldcat"}, "source_identifier": "lccn-n91026406"}], "date_modified": "2023-09-13T12:31:50.641926+10:00"}, {"id": 16568, "name": "Genevieve Appell", "roles_in_work": [{"id": 2415710, "title": "Maternal deprivation in young children", "work_id": 70197, "role": "director", "role_id": 938, "is_primary": true}], "also_known_as": "", "date_of_birth": "", "date_of_death": "", "genders": [], "languages": [], "places_of_operation": [], "biography": "", "biography_author": null, "date_of_biography": "2023-08-11T19:44:53.238586+10:00", "external_links": [], "uuid": "830497d8-84b1-4117-a418-12b06d097ac5", "source": {"name": "Vernon", "slug": "vernon"}, "source_identifier": "19482", "external_references": [], "date_modified": "2023-08-11T19:44:53.238811+10:00"}, {"id": 16567, "name": "Institut National d'Hygiene", "roles_in_work": [{"id": 2415709, "title": "Maternal deprivation in young children", "work_id": 70197, "role": "production company", "role_id": 941, "is_primary": true}], "also_known_as": "", "date_of_birth": "", "date_of_death": "", "genders": [], "languages": [], "places_of_operation": [], "biography": "", "biography_author": null, "date_of_biography": "2023-08-11T19:44:52.547700+10:00", "external_links": [], "uuid": "a9a7e810-0214-4a54-877b-51aaec4e8680", "source": {"name": "Vernon", "slug": "vernon"}, "source_identifier": "9315", "external_references": [], "date_modified": "2023-08-11T19:44:52.547940+10:00"}, {"id": 16566, "name": "New York University. Film Library", "roles_in_work": [{"id": 2415708, "title": "Maternal deprivation in young children", "work_id": 70197, "role": "production company", "role_id": 941, "is_primary": true}], "also_known_as": "", "date_of_birth": "", "date_of_death": "", "genders": [], "languages": [], "places_of_operation": [], "biography": "", "biography_author": null, "date_of_biography": "2023-08-11T19:44:51.929622+10:00", "external_links": [], "uuid": "bb539aaa-6b48-4256-851c-594225af376f", "source": {"name": "Vernon", "slug": "vernon"}, "source_identifier": "11055", "external_references": [], "date_modified": "2023-08-11T19:44:51.929895+10:00"}, {"id": 16565, "name": "Thames Television", "roles_in_work": [{"id": 897444, "title": "The Pied Piper of Hamelin", "work_id": 77525, "role": "distributor", "role_id": 437, "is_primary": false}, {"id": 2769081, "title": "Hidden treasures", "work_id": 78521, "role": "distributor", "role_id": 437, "is_primary": false}, {"id": 2767262, "title": "Elaine Dale: on mine own", "work_id": 97894, "role": "distributor", "role_id": 437, "is_primary": false}, {"id": 2769073, "title": "The Great director", "work_id": 78520, "role": "distributor", "role_id": 437, "is_primary": false}, {"id": 2769065, "title": "My happiest years", "work_id": 78519, "role": "distributor", "role_id": 437, "is_primary": false}, {"id": 1814504, "title": "Cockleshell Bay", "work_id": 79073, "role": "producer", "role_id": 1089, "is_primary": true}, {"id": 2752718, "title": "Torvill and Dean: path to perfection", "work_id": 98426, "role": "production company", "role_id": 941, "is_primary": true}, {"id": 2768950, "title": "Material unaccounted for", "work_id": 70195, "role": "production company", "role_id": 941, "is_primary": true}, {"id": 2768953, "title": "[Return to Michigan]", "work_id": 73752, "role": "production company", "role_id": 941, "is_primary": true}, {"id": 2768955, "title": "Poisoned minds", "work_id": 75950, "role": "production company", "role_id": 941, "is_primary": true}, {"id": 2769067, "title": "My happiest years", "work_id": 78519, "role": "production company", "role_id": 941, "is_primary": true}, {"id": 2769075, "title": "The Great director", "work_id": 78520, "role": "production company", "role_id": 941, "is_primary": true}, {"id": 2790539, "title": "The World at war. Part 1 [DVD]", "work_id": 94950, "role": "production company", "role_id": 941, "is_primary": true}, {"id": 2790545, "title": "The World at war. Part 2 [DVD]", "work_id": 94951, "role": "production company", "role_id": 941, "is_primary": true}, {"id": 2790552, "title": "The World at war. Part 3 [DVD]", "work_id": 94952, "role": "production company", "role_id": 941, "is_primary": true}, {"id": 2790560, "title": "The World at war. Part 4 [DVD]", "work_id": 94953, "role": "production company", "role_id": 941, "is_primary": true}, {"id": 2790564, "title": "The World at war. Part 5 [DVD]", "work_id": 94954, "role": "production company", "role_id": 941, "is_primary": true}, {"id": 2790567, "title": "The World at war. - Volume 6.", "work_id": 80629, "role": "production company", "role_id": 941, "is_primary": true}, {"id": 2790571, "title": "The World at war", "work_id": 115410, "role": "production company", "role_id": 941, "is_primary": true}, {"id": 857641, "title": "Report on pollution", "work_id": 72155, "role": "production company", "role_id": 941, "is_primary": true}, {"id": 812257, "title": "The Bill. When opportunity knocks", "work_id": 92648, "role": "production company", "role_id": 941, "is_primary": true}, {"id": 878179, "title": "Like ordinary children", "work_id": 91144, "role": "production company", "role_id": 941, "is_primary": true}, {"id": 812255, "title": "The Bill. Gentleman Jim", "work_id": 92647, "role": "production company", "role_id": 941, "is_primary": true}, {"id": 812253, "title": "The Bill. Waiting for Frank", "work_id": 92646, "role": "production company", "role_id": 941, "is_primary": true}, {"id": 812251, "title": "The Bill. In on the game", "work_id": 92645, "role": "production company", "role_id": 941, "is_primary": true}, {"id": 812259, "title": "The Bill. A bunch of fives", "work_id": 92649, "role": "production company", "role_id": 941, "is_primary": true}, {"id": 874100, "title": "Knowledge about language: genre", "work_id": 88567, "role": "production company", "role_id": 941, "is_primary": true}, {"id": 885957, "title": "Viewpoint: Love story", "work_id": 95493, "role": "production company", "role_id": 941, "is_primary": true}, {"id": 2298948, "title": "Shred of evidence", "work_id": 99017, "role": "production company", "role_id": 941, "is_primary": true}, {"id": 917932, "title": "The Norman conquests. Part 2. Living together", "work_id": 95402, "role": "production company", "role_id": 941, "is_primary": true}, {"id": 917927, "title": "The Norman conquests. Part 3. Round and round the garden", "work_id": 95401, "role": "production company", "role_id": 941, "is_primary": true}, {"id": 2165384, "title": "Jack the Ripper", "work_id": 90235, "role": "production company", "role_id": 941, "is_primary": true}, {"id": 2305855, "title": "Sooty's Christmas party and other stories", "work_id": 83179, "role": "production company", "role_id": 941, "is_primary": true}, {"id": 874116, "title": "Models of writing: reviewing television", "work_id": 88571, "role": "production company", "role_id": 941, "is_primary": true}, {"id": 874109, "title": "Making television", "work_id": 88569, "role": "production company", "role_id": 941, "is_primary": true}, {"id": 1489028, "title": "Stourhead", "work_id": 71598, "role": "production company", "role_id": 941, "is_primary": true}, {"id": 2140822, "title": "Cold comfort farm", "work_id": 86337, "role": "production company", "role_id": 941, "is_primary": true}, {"id": 916323, "title": "Unknown Chaplin", "work_id": 94709, "role": "production company", "role_id": 941, "is_primary": true}, {"id": 2147797, "title": "Crime Inc. - Volume 1.", "work_id": 83538, "role": "production company", "role_id": 941, "is_primary": true}, {"id": 2309417, "title": "Have fun with numbers", "work_id": 80889, "role": "production company", "role_id": 941, "is_primary": true}, {"id": 2309466, "title": "Start to Read", "work_id": 81205, "role": "production company", "role_id": 941, "is_primary": true}, {"id": 2309435, "title": "Be Safe", "work_id": 80935, "role": "production company", "role_id": 941, "is_primary": true}, {"id": 1847212, "title": "Unseen Bean", "work_id": 84961, "role": "production company", "role_id": 941, "is_primary": true}, {"id": 2261517, "title": "Same difference: all about twins", "work_id": 82824, "role": "production company", "role_id": 941, "is_primary": true}, {"id": 2162947, "title": "D.W. Griffith: father of film", "work_id": 94155, "role": "production company", "role_id": 941, "is_primary": true}, {"id": 2147811, "title": "Crime Inc. - Volume 2.", "work_id": 83539, "role": "production company", "role_id": 941, "is_primary": true}, {"id": 2309488, "title": "Learn with Sooty", "work_id": 115183, "role": "production company", "role_id": 941, "is_primary": true}, {"id": 1489030, "title": "Knole", "work_id": 71596, "role": "production company", "role_id": 941, "is_primary": true}, {"id": 1994755, "title": "The Chess player = Le Joueur D'echecs", "work_id": 90535, "role": "production company", "role_id": 941, "is_primary": true}, {"id": 789475, "title": "Macbeth: a performance of Macbeth by William Shakespeare", "work_id": 85392, "role": "production company", "role_id": 941, "is_primary": true}, {"id": 1846333, "title": "Jessye Norman's Christmastide", "work_id": 81772, "role": "production company", "role_id": 941, "is_primary": true}, {"id": 2175118, "title": "Danny the champion of the world", "work_id": 82076, "role": "production company", "role_id": 941, "is_primary": true}, {"id": 860742, "title": "Where the houses used to be", "work_id": 74685, "role": "production company", "role_id": 941, "is_primary": true}, {"id": 2237973, "title": "Love Me Do (TEFC)", "work_id": 78857, "role": "production company", "role_id": 941, "is_primary": true}, {"id": 856937, "title": "A Place in history: Whitehall", "work_id": 71595, "role": "production company", "role_id": 941, "is_primary": true}, {"id": 2077616, "title": "A Voyage round my father", "work_id": 82507, "role": "production company", "role_id": 941, "is_primary": true}, {"id": 2237984, "title": "Gisser job (TEFC)", "work_id": 78858, "role": "production company", "role_id": 941, "is_primary": true}, {"id": 2237996, "title": "Fear and Fantasy (TEFC)", "work_id": 78859, "role": "production company", "role_id": 941, "is_primary": true}, {"id": 2207447, "title": "Plas Newydd, Angelsey, Wales", "work_id": 71594, "role": "production company", "role_id": 941, "is_primary": true}, {"id": 2614561, "title": "The Naked civil servant", "work_id": 83903, "role": "production company", "role_id": 941, "is_primary": true}, {"id": 902539, "title": "The Plank. Rhubarb rhubarb", "work_id": 83312, "role": "production company", "role_id": 941, "is_primary": true}, {"id": 2615581, "title": "Martin Luther King: The Legacy", "work_id": 85686, "role": "production company", "role_id": 941, "is_primary": true}, {"id": 2786779, "title": "Greenprint for life", "work_id": 82851, "role": "production company", "role_id": 941, "is_primary": true}, {"id": 2786783, "title": "The Crucible of life", "work_id": 82852, "role": "production company", "role_id": 941, "is_primary": true}, {"id": 2786786, "title": "Living water", "work_id": 82853, "role": "production company", "role_id": 941, "is_primary": true}, {"id": 2786789, "title": "Potential energy", "work_id": 82854, "role": "production company", "role_id": 941, "is_primary": true}, {"id": 2786792, "title": "Land of opportunity", "work_id": 82855, "role": "production company", "role_id": 941, "is_primary": true}, {"id": 2786795, "title": "Latitude zero: Plant adaptations with altitude", "work_id": 82856, "role": "production company", "role_id": 941, "is_primary": true}, {"id": 2786798, "title": "White death: new life, the impact of the ice age", "work_id": 82857, "role": "production company", "role_id": 941, "is_primary": true}, {"id": 2786801, "title": "Life on the limit: cultivation and the environment", "work_id": 82858, "role": "production company", "role_id": 941, "is_primary": true}, {"id": 2786804, "title": "Extinction is forever: The tortoise and the dodo", "work_id": 82859, "role": "production company", "role_id": 941, "is_primary": true}, {"id": 2786807, "title": "Crackpot, jackpot: Human contrasts and survival", "work_id": 82860, "role": "production company", "role_id": 941, "is_primary": true}, {"id": 2786810, "title": "Botanic man", "work_id": 115324, "role": "production company", "role_id": 941, "is_primary": true}, {"id": 2786969, "title": "Hitler's Germany", "work_id": 115332, "role": "production company", "role_id": 941, "is_primary": true}, {"id": 2646002, "title": "Lacock", "work_id": 71597, "role": "production company", "role_id": 941, "is_primary": true}, {"id": 2786930, "title": "Understandably depressed", "work_id": 82841, "role": "production company", "role_id": 941, "is_primary": true}, {"id": 2786934, "title": "What depresses me ...", "work_id": 82842, "role": "production company", "role_id": 941, "is_primary": true}, {"id": 2786937, "title": "Fighting depression", "work_id": 82843, "role": "production company", "role_id": 941, "is_primary": true}, {"id": 2786940, "title": "Hidden depths", "work_id": 115327, "role": "production company", "role_id": 941, "is_primary": true}, {"id": 2767260, "title": "World beaters", "work_id": 77244, "role": "production company", "role_id": 941, "is_primary": true}, {"id": 2750718, "title": "Superman and the bride", "work_id": 97463, "role": "production company", "role_id": 941, "is_primary": true}, {"id": 2767297, "title": "Cold chips", "work_id": 77359, "role": "production company", "role_id": 941, "is_primary": true}, {"id": 2767300, "title": "Act of God: some lightning experiences 1966-1980", "work_id": 83292, "role": "production company", "role_id": 941, "is_primary": true}, {"id": 2647874, "title": "A Small world", "work_id": 77646, "role": "production company", "role_id": 941, "is_primary": true}, {"id": 2647900, "title": "Prostitute I am, common I'm not", "work_id": 77745, "role": "production company", "role_id": 941, "is_primary": true}, {"id": 2751265, "title": "Bolivia: the tin mountain", "work_id": 97727, "role": "production company", "role_id": 941, "is_primary": true}, {"id": 2751268, "title": "Peru: the revolution that never was", "work_id": 97728, "role": "production company", "role_id": 941, "is_primary": true}, {"id": 2752040, "title": "Brazil: the children of the miracle", "work_id": 98108, "role": "production company", "role_id": 941, "is_primary": true}, {"id": 2752521, "title": "Pacific: the island to island war & the bomb", "work_id": 98331, "role": "production company", "role_id": 941, "is_primary": true}], "also_known_as": "", "date_of_birth": "", "date_of_death": "", "genders": [], "languages": [], "places_of_operation": [], "biography": "Thames Television, commonly simplified to just Thames, was a franchise holder for a region of the British ITV television network serving London and surrounding areas from 30 July 1968 until the night of 31 December 1992.\n\nThames Television broadcast from 9:25 Monday morning to 5:15 Friday afternoon (7:00 Friday night until 1982) at which time it would hand over to London Weekend Television (LWT).\n\nFormed as a joint company, it merged the television interests of British Electric Traction (trading as Associated-Rediffusion) owning 49%, and Associated British Picture Corporation—soon taken over by EMI—owning 51%. Like all ITV franchisees, it was a broadcaster, a producer and a commissioner of television programmes, making shows both for the local region it covered and, as one of the \"Big Five\" ITV companies, for networking nationally across the ITV regions. After its loss of franchise in 1992, it continued as an independent production company until 2003.\n\nThe British Film Institute describes Thames as having \"served the capital and the network with a long-running, broad-based and extensive series of programmes, several of which either continue or are well-remembered today.\" Thames covered a broad spectrum of commercial public-service television, with a strong mix of drama, current affairs and comedy.\n\nAfter Thames was acquired by FremantleMedia it was merged with another Fremantle company, Talkback, to form a new independent production company, Talkback Thames; consequently, Thames ceased to exist as a separate entity. However, on 1 January 2012, the Thames brand was revived and Talkback Thames has now been split into four different labels: Boundless, Retort, Talkback and Thames, within the newly created FremantleMedia UK production arm. Source: Wikidata; 15/08/2023", "biography_author": null, "date_of_biography": "2025-03-14T19:57:37.010857+11:00", "external_links": [{"id": 5254, "uri": "https://en.wikipedia.org/wiki/Thames_Television"}], "uuid": "fc261777-d6ca-41b5-af0c-a0c6046a268e", "source": {"name": "Vernon", "slug": "vernon"}, "source_identifier": "13327", "external_references": [{"id": 26877, "source": {"name": "Wikidata", "slug": "wikidata"}, "source_identifier": "Q541667"}, {"id": 31756, "source": {"name": "VIAF", "slug": "viaf"}, "source_identifier": "124309858"}, {"id": 31757, "source": {"name": "LOC Auth", "slug": "loc-auth"}, "source_identifier": "n50081583"}, {"id": 31758, "source": {"name": "WorldCat", "slug": "worldcat"}, "source_identifier": "lccn-n50081583"}], "date_modified": "2025-03-14T19:57:37.011205+11:00"}]}