{"count": 28684, "next": "https://api.acmi.net.au/creators/?page=1459", "previous": "https://api.acmi.net.au/creators/?page=1457", "results": [{"id": 35267, "name": "Wisit Sasanatieng", "roles_in_work": [{"id": 1997852, "title": "Tears of the black tiger = Fah talai jone", "work_id": 93505, "role": "director", "role_id": 938, "is_primary": true}], "also_known_as": "", "date_of_birth": "1964-04-25", "date_of_death": null, "genders": [{"id": 9, "name": "Male", "slug": "male"}], "languages": [{"id": 30, "name": "Thai", "slug": "thai"}], "places_of_operation": [{"id": 212, "name": "Thailand", "slug": "thailand"}], "biography": "Wisit Sasanatieng (Thai: วิศิษฏ์ ศาสนเที่ยง; RTGS: Wisit Satsanathiang; born June 28, 1963) is a Thai film director and screenwriter of Chinese descent. Best known for his colourful debut feature film, Tears of the Black Tiger, he is among a \"New Wave\" of Thai directors that include Nonzee Nimibutr and Pen-Ek Ratanaruang.", "biography_author": "Wikidata", "date_of_biography": "2022-05-19T13:23:35.286043+10:00", "external_links": [{"id": 3299, "uri": "https://en.wikipedia.org/wiki/Wisit_Sasanatieng"}], "uuid": "91657ab3-2cd2-45f0-90aa-b2939e993b96", "source": {"name": "Vernon", "slug": "vernon"}, "source_identifier": "30528", "external_references": [{"id": 13960, "source": {"name": "Wikidata", "slug": "wikidata"}, "source_identifier": "Q772238"}, {"id": 13961, "source": {"name": "VIAF", "slug": "viaf"}, "source_identifier": "42084018"}, {"id": 13962, "source": {"name": "LOC Auth", "slug": "loc-auth"}, "source_identifier": "no2003117395"}, {"id": 13963, "source": {"name": "WorldCat", "slug": "worldcat"}, "source_identifier": "lccn-no2003117395"}], "date_modified": "2023-09-13T12:33:19.131527+10:00"}, {"id": 35266, "name": "Nonzee Nimibutr", "roles_in_work": [{"id": 1997851, "title": "Tears of the black tiger = Fah talai jone", "work_id": 93505, "role": "producer", "role_id": 1089, "is_primary": true}], "also_known_as": "", "date_of_birth": "1962-12-18", "date_of_death": null, "genders": [{"id": 9, "name": "Male", "slug": "male"}], "languages": [{"id": 30, "name": "Thai", "slug": "thai"}], "places_of_operation": [{"id": 212, "name": "Thailand", "slug": "thailand"}], "biography": "Nonzee Nimibutr (Thai: นนทรีย์ นิมิบุตร, RTGS: Nonsi Nimibut; born in 1962 in Nonthaburi Province, Thailand) is a Thai film director, film producer and screenwriter. Best known for his ghost thriller, Nang Nak, he is generally credited as the leader among a \"New Wave\" of Thai filmmakers that also includes Pen-Ek Ratanaruang, Wisit Sasanatieng and Apichatpong Weerasethakul.", "biography_author": "Wikidata", "date_of_biography": "2022-05-19T12:36:06.173677+10:00", "external_links": [{"id": 2789, "uri": "https://en.wikipedia.org/wiki/Nonzee_Nimibutr"}], "uuid": "e3f40077-3a9b-4f25-9a96-2686dce80eb1", "source": {"name": "Vernon", "slug": "vernon"}, "source_identifier": "25859", "external_references": [{"id": 11881, "source": {"name": "Wikidata", "slug": "wikidata"}, "source_identifier": "Q360509"}, {"id": 11882, "source": {"name": "VIAF", "slug": "viaf"}, "source_identifier": "87400081"}, {"id": 11883, "source": {"name": "LOC Auth", "slug": "loc-auth"}, "source_identifier": "nr2001012186"}, {"id": 11884, "source": {"name": "WorldCat", "slug": "worldcat"}, "source_identifier": "lccn-nr2001012186"}], "date_modified": "2023-09-13T12:31:38.760051+10:00"}, {"id": 35259, "name": "Miguel Arteta", "roles_in_work": [{"id": 1997842, "title": "Chuck & Buck", "work_id": 93502, "role": "director", "role_id": 938, "is_primary": true}], "also_known_as": "", "date_of_birth": "1965-08-29", "date_of_death": null, "genders": [{"id": 9, "name": "Male", "slug": "male"}], "languages": [{"id": 1, "name": "English", "slug": "english"}], "places_of_operation": [{"id": 1, "name": "United States of America", "slug": "united-states-of-america"}], "biography": "Miguel Arteta (born 1965) is a Puerto Rican director of film and television, known for his independent film Chuck & Buck (2000), for which he received the Independent Spirit John Cassavetes Award, and for the films The Good Girl (2002) and Cedar Rapids (2011).", "biography_author": "Wikidata", "date_of_biography": "2022-05-19T12:31:35.661594+10:00", "external_links": [{"id": 2740, "uri": "https://en.wikipedia.org/wiki/Miguel_Arteta"}], "uuid": "881188b4-4188-48c3-addc-a223ab3ccdc9", "source": {"name": "Vernon", "slug": "vernon"}, "source_identifier": "25337", "external_references": [{"id": 11680, "source": {"name": "Wikidata", "slug": "wikidata"}, "source_identifier": "Q3312946"}, {"id": 11681, "source": {"name": "VIAF", "slug": "viaf"}, "source_identifier": "19886505"}, {"id": 11682, "source": {"name": "LOC Auth", "slug": "loc-auth"}, "source_identifier": "no00097774"}, {"id": 11683, "source": {"name": "WorldCat", "slug": "worldcat"}, "source_identifier": "lccn-no00097774"}], "date_modified": "2023-09-13T12:31:30.384985+10:00"}, {"id": 35256, "name": "JNP Films", "roles_in_work": [{"id": 2066724, "title": "A Country practice: the wedding", "work_id": 93498, "role": "production company", "role_id": 941, "is_primary": true}], "also_known_as": "", "date_of_birth": "", "date_of_death": "", "genders": [], "languages": [], "places_of_operation": [], "biography": "", "biography_author": null, "date_of_biography": "2023-05-09T11:24:19.140199+10:00", "external_links": [], "uuid": "13b29c5d-7a44-492f-95a3-38d0e62e6a8f", "source": {"name": "Vernon", "slug": "vernon"}, "source_identifier": "9607", "external_references": [{"id": 36521, "source": {"name": "Wikidata", "slug": "wikidata"}, "source_identifier": "Q121222545"}], "date_modified": "2023-09-05T21:26:26.704613+10:00"}, {"id": 35253, "name": "Shari Lewis Enterprises", "roles_in_work": [{"id": 2270691, "title": "You can do it", "work_id": 93496, "role": "production company", "role_id": 941, "is_primary": true}], "also_known_as": "", "date_of_birth": "", "date_of_death": "", "genders": [], "languages": [], "places_of_operation": [], "biography": "", "biography_author": null, "date_of_biography": "2023-05-09T17:44:44.255212+10:00", "external_links": [], "uuid": "e87fa8a5-2f05-4324-ba0a-32b6d3c4da87", "source": {"name": "Vernon", "slug": "vernon"}, "source_identifier": "12509", "external_references": [], "date_modified": "2023-06-14T16:33:30.576250+10:00"}, {"id": 35252, "name": "Don Roy", "roles_in_work": [{"id": 2356388, "title": "The Incredible magic of magic", "work_id": 93495, "role": "director", "role_id": 938, "is_primary": true}], "also_known_as": "", "date_of_birth": "", "date_of_death": "", "genders": [], "languages": [], "places_of_operation": [], "biography": "", "biography_author": null, "date_of_biography": "2023-05-09T20:04:33.376009+10:00", "external_links": [], "uuid": "03a7fcbc-84c1-4e44-a519-e7e27a2a9549", "source": {"name": "Vernon", "slug": "vernon"}, "source_identifier": "18221", "external_references": [], "date_modified": "2023-06-14T16:33:30.576250+10:00"}, {"id": 35249, "name": "Brandwen Laub Production", "roles_in_work": [{"id": 2356382, "title": "The Incredible magic of magic", "work_id": 93495, "role": "production company", "role_id": 941, "is_primary": true}], "also_known_as": "", "date_of_birth": "", "date_of_death": "", "genders": [], "languages": [], "places_of_operation": [], "biography": "", "biography_author": null, "date_of_biography": "2023-05-09T20:04:32.607446+10:00", "external_links": [], "uuid": "66e9c7f9-6ef5-40f9-822e-6d4673f5f6d7", "source": {"name": "Vernon", "slug": "vernon"}, "source_identifier": "5969", "external_references": [], "date_modified": "2023-06-14T16:33:30.576250+10:00"}, {"id": 35248, "name": "Al Adamson", "roles_in_work": [{"id": 2084332, "title": "Alex the talking chimp", "work_id": 93494, "role": "director", "role_id": 938, "is_primary": true}], "also_known_as": "", "date_of_birth": "", "date_of_death": "", "genders": [], "languages": [], "places_of_operation": [], "biography": "", "biography_author": null, "date_of_biography": "2023-05-09T11:54:40.076560+10:00", "external_links": [], "uuid": "30f517bc-d2d6-4ab0-b309-adf15d007eae", "source": {"name": "Vernon", "slug": "vernon"}, "source_identifier": "14699", "external_references": [{"id": 33248, "source": {"name": "Wikidata", "slug": "wikidata"}, "source_identifier": "Q121270736"}], "date_modified": "2023-09-05T17:17:57.495218+10:00"}, {"id": 35247, "name": "Elvin Feltner", "roles_in_work": [{"id": 2084329, "title": "Alex the talking chimp", "work_id": 93494, "role": "producer", "role_id": 1089, "is_primary": true}], "also_known_as": "", "date_of_birth": "", "date_of_death": "", "genders": [], "languages": [], "places_of_operation": [], "biography": "", "biography_author": null, "date_of_biography": "2023-05-09T11:54:39.823561+10:00", "external_links": [], "uuid": "42f24b87-2fcd-4f94-b71f-c0933dd2aa6c", "source": {"name": "Vernon", "slug": "vernon"}, "source_identifier": "18748", "external_references": [{"id": 34160, "source": {"name": "Wikidata", "slug": "wikidata"}, "source_identifier": "Q121298967"}], "date_modified": "2023-09-05T19:30:58.982152+10:00"}, {"id": 35246, "name": "Lee Philips", "roles_in_work": [{"id": 2108123, "title": "Barnum", "work_id": 93493, "role": "director", "role_id": 938, "is_primary": true}], "also_known_as": "", "date_of_birth": "1927-01-10", "date_of_death": "1999-03-03", "genders": [{"id": 9, "name": "Male", "slug": "male"}], "languages": [], "places_of_operation": [{"id": 1, "name": "United States of America", "slug": "united-states-of-america"}], "biography": "Lee Philips (born Leon Friedman; January 10, 1927 – March 3, 1999) was an American actor, film director, and television director.", "biography_author": "Wikidata", "date_of_biography": "2023-08-01T15:54:07.011477+10:00", "external_links": [{"id": 4526, "uri": "https://en.wikipedia.org/wiki/Lee_Philips"}], "uuid": "306b66be-5cc5-4a3f-9af1-8affdb046d18", "source": {"name": "Vernon", "slug": "vernon"}, "source_identifier": "23634", "external_references": [{"id": 26205, "source": {"name": "Wikidata", "slug": "wikidata"}, "source_identifier": "Q2676755"}, {"id": 29880, "source": {"name": "VIAF", "slug": "viaf"}, "source_identifier": "46972868"}, {"id": 29881, "source": {"name": "LOC Auth", "slug": "loc-auth"}, "source_identifier": "no92027989"}, {"id": 29882, "source": {"name": "WorldCat", "slug": "worldcat"}, "source_identifier": "lccn-no92027989"}], "date_modified": "2023-09-05T22:18:24.177057+10:00"}]}