{"count": 28687, "next": "https://api.acmi.net.au/creators/?page=281", "previous": "https://api.acmi.net.au/creators/?page=279", "results": [{"id": 82807, "name": "Sun Sha", "roles_in_work": [{"id": 2651318, "title": "A 1990 big city = Da Cheng shi", "work_id": 115825, "role": "director", "role_id": 938, "is_primary": true}], "also_known_as": "", "date_of_birth": "", "date_of_death": "", "genders": [], "languages": [], "places_of_operation": [], "biography": "", "biography_author": null, "date_of_biography": "2023-05-09T11:22:22.779999+10:00", "external_links": [], "uuid": "4ff07d65-ea7d-4177-bdfd-4ffc530fccc3", "source": {"name": "Vernon", "slug": "vernon"}, "source_identifier": "36547", "external_references": [{"id": 40750, "source": {"name": "Wikidata", "slug": "wikidata"}, "source_identifier": "Q121271109"}], "date_modified": "2025-03-05T14:28:44.517488+11:00"}, {"id": 82806, "name": "Chen Baoguo", "roles_in_work": [{"id": 2651315, "title": "The Angel and the devil = Tian shi yu mo gui", "work_id": 115823, "role": "cast", "role_id": 33, "is_primary": false}], "also_known_as": "", "date_of_birth": "", "date_of_death": "", "genders": [], "languages": [], "places_of_operation": [], "biography": "", "biography_author": null, "date_of_biography": "2023-05-09T19:20:55.044558+10:00", "external_links": [], "uuid": "36ab9a29-9c3e-4ed5-ae1d-215be43044e2", "source": {"name": "Vernon", "slug": "vernon"}, "source_identifier": "36257", "external_references": [{"id": 38518, "source": {"name": "Wikidata", "slug": "wikidata"}, "source_identifier": "Q8424542"}], "date_modified": "2025-03-05T14:28:42.180569+11:00"}, {"id": 82805, "name": "Xiao Rong", "roles_in_work": [{"id": 2651314, "title": "The Angel and the devil = Tian shi yu mo gui", "work_id": 115823, "role": "editor", "role_id": 918, "is_primary": true}], "also_known_as": "", "date_of_birth": "", "date_of_death": "", "genders": [], "languages": [], "places_of_operation": [], "biography": "", "biography_author": null, "date_of_biography": "2023-05-09T19:20:54.809634+10:00", "external_links": [], "uuid": "6428c4c7-ddc2-4ecf-bca7-535a7cf5044e", "source": {"name": "Vernon", "slug": "vernon"}, "source_identifier": "36256", "external_references": [{"id": 52074, "source": {"name": "Wikidata", "slug": "wikidata"}, "source_identifier": "Q121357520"}], "date_modified": "2025-03-05T14:28:41.582415+11:00"}, {"id": 82804, "name": "Ling Qiwei", "roles_in_work": [{"id": 2651311, "title": "The Angel and the devil = Tian shi yu mo gui", "work_id": 115823, "role": "director", "role_id": 938, "is_primary": true}, {"id": 2651312, "title": "The Angel and the devil = Tian shi yu mo gui", "work_id": 115823, "role": "script", "role_id": 962, "is_primary": false}], "also_known_as": "", "date_of_birth": "", "date_of_death": "", "genders": [], "languages": [], "places_of_operation": [], "biography": "", "biography_author": null, "date_of_biography": "2023-05-09T19:20:54.101570+10:00", "external_links": [], "uuid": "42cdceba-95da-425b-a199-0797541aa38f", "source": {"name": "Vernon", "slug": "vernon"}, "source_identifier": "36255", "external_references": [{"id": 43100, "source": {"name": "Wikidata", "slug": "wikidata"}, "source_identifier": "Q121035872"}], "date_modified": "2025-03-05T14:28:40.399227+11:00"}, {"id": 82803, "name": "Wu Yujuan", "roles_in_work": [{"id": 2651309, "title": "Those unforgettable school days = 难忘中学时光", "work_id": 115822, "role": "cast", "role_id": 33, "is_primary": false}], "also_known_as": "", "date_of_birth": null, "date_of_death": null, "genders": [], "languages": [], "places_of_operation": [], "biography": "", "biography_author": null, "date_of_biography": null, "external_links": [], "uuid": "19ef9431-aed2-49c9-affb-a555eb5f2a07", "source": {"name": "Vernon", "slug": "vernon"}, "source_identifier": "37693", "external_references": [{"id": 37054, "source": {"name": "Wikidata", "slug": "wikidata"}, "source_identifier": "Q57321221"}], "date_modified": "2025-03-05T14:28:38.401688+11:00"}, {"id": 82802, "name": "Huang Yuchun", "roles_in_work": [{"id": 2651308, "title": "Those unforgettable school days = 难忘中学时光", "work_id": 115822, "role": "cast", "role_id": 33, "is_primary": false}], "also_known_as": "", "date_of_birth": null, "date_of_death": null, "genders": [], "languages": [], "places_of_operation": [], "biography": "", "biography_author": null, "date_of_biography": null, "external_links": [], "uuid": "795221c5-aa37-4a57-8428-cf8ef947a7c3", "source": {"name": "Vernon", "slug": "vernon"}, "source_identifier": "37692", "external_references": [{"id": 41122, "source": {"name": "Wikidata", "slug": "wikidata"}, "source_identifier": "Q121144098"}], "date_modified": "2025-03-05T14:28:37.803461+11:00"}, {"id": 82801, "name": "Luo Gang", "roles_in_work": [{"id": 2651305, "title": "Those unforgettable school days = 难忘中学时光", "work_id": 115822, "role": "cast", "role_id": 33, "is_primary": false}], "also_known_as": "", "date_of_birth": null, "date_of_death": null, "genders": [], "languages": [], "places_of_operation": [], "biography": "", "biography_author": null, "date_of_biography": null, "external_links": [], "uuid": "6ec518e5-8327-4e82-8bf6-8e1a627601a1", "source": {"name": "Vernon", "slug": "vernon"}, "source_identifier": "37691", "external_references": [{"id": 41201, "source": {"name": "Wikidata", "slug": "wikidata"}, "source_identifier": "Q121035901"}], "date_modified": "2025-03-05T14:28:35.982646+11:00"}, {"id": 82800, "name": "Gao Weiren", "roles_in_work": [{"id": 2651304, "title": "Those unforgettable school days = 难忘中学时光", "work_id": 115822, "role": "editor", "role_id": 918, "is_primary": true}], "also_known_as": "", "date_of_birth": null, "date_of_death": null, "genders": [], "languages": [], "places_of_operation": [], "biography": "", "biography_author": null, "date_of_biography": null, "external_links": [], "uuid": "455a5595-660f-4e79-9cb1-b8fd372edd8e", "source": {"name": "Vernon", "slug": "vernon"}, "source_identifier": "37690", "external_references": [{"id": 33794, "source": {"name": "Wikidata", "slug": "wikidata"}, "source_identifier": "Q121036425"}], "date_modified": "2025-03-05T14:28:35.381210+11:00"}, {"id": 82799, "name": "Feng Bingpu", "roles_in_work": [{"id": 2651303, "title": "Those unforgettable school days = 难忘中学时光", "work_id": 115822, "role": "cinematographer", "role_id": 32, "is_primary": false}], "also_known_as": "", "date_of_birth": null, "date_of_death": null, "genders": [], "languages": [], "places_of_operation": [], "biography": "", "biography_author": null, "date_of_biography": null, "external_links": [], "uuid": "86898d0c-1fae-4430-9ad5-0fd2c4ea4160", "source": {"name": "Vernon", "slug": "vernon"}, "source_identifier": "37689", "external_references": [{"id": 33797, "source": {"name": "Wikidata", "slug": "wikidata"}, "source_identifier": "Q121160052"}], "date_modified": "2025-03-05T14:28:34.737431+11:00"}, {"id": 82798, "name": "Dai Lu", "roles_in_work": [{"id": 2651301, "title": "Those unforgettable school days = 难忘中学时光", "work_id": 115822, "role": "writer", "role_id": 939, "is_primary": true}], "also_known_as": "", "date_of_birth": null, "date_of_death": null, "genders": [], "languages": [], "places_of_operation": [], "biography": "", "biography_author": null, "date_of_biography": null, "external_links": [], "uuid": "260cff4c-0e47-4c81-9b4c-9ba6f134be1c", "source": {"name": "Vernon", "slug": "vernon"}, "source_identifier": "37688", "external_references": [{"id": 36214, "source": {"name": "Wikidata", "slug": "wikidata"}, "source_identifier": "Q121091484"}], "date_modified": "2025-03-05T14:28:33.535057+11:00"}]}