{"count": 28687, "next": "https://api.acmi.net.au/creators/?page=1073", "previous": "https://api.acmi.net.au/creators/?page=1071", "results": [{"id": 74862, "name": "Craig Johnson", "roles_in_work": [{"id": 2716257, "title": "Incendio (D)", "work_id": 68853, "role": "co-producers/directors", "role_id": 628, "is_primary": true}, {"id": 2239026, "title": "Reasons for caring", "work_id": 72088, "role": "producer", "role_id": 1089, "is_primary": true}], "also_known_as": "", "date_of_birth": "", "date_of_death": "", "genders": [], "languages": [], "places_of_operation": [], "biography": "", "biography_author": null, "date_of_biography": "2023-05-09T16:50:25.918825+10:00", "external_links": [], "uuid": "b3b71c78-93df-4769-8501-f28f406cc618", "source": {"name": "Vernon", "slug": "vernon"}, "source_identifier": "17237", "external_references": [{"id": 35212, "source": {"name": "Wikidata", "slug": "wikidata"}, "source_identifier": "Q121058097"}], "date_modified": "2025-03-12T01:52:17.349301+11:00"}, {"id": 74861, "name": "Michael Charlton", "roles_in_work": [{"id": 2374018, "title": "Phil Noyce interview (TEFC)", "work_id": 76616, "role": "interviewer", "role_id": 457, "is_primary": false}, {"id": 2716251, "title": "In the Wake of the Stars", "work_id": 68850, "role": "narrator", "role_id": 499, "is_primary": false}], "also_known_as": "", "date_of_birth": "", "date_of_death": "", "genders": [], "languages": [], "places_of_operation": [], "biography": "", "biography_author": null, "date_of_biography": "2023-07-05T03:50:06.231936+10:00", "external_links": [], "uuid": "7f010db4-c6f2-4ac9-9409-07db18666bcf", "source": {"name": "Vernon", "slug": "vernon"}, "source_identifier": "32495", "external_references": [], "date_modified": "2025-03-12T01:52:08.702965+11:00"}, {"id": 74860, "name": "Walter Batty", "roles_in_work": [{"id": 2716250, "title": "In the Wake of the Stars", "work_id": 68850, "role": "editor", "role_id": 918, "is_primary": true}], "also_known_as": "", "date_of_birth": null, "date_of_death": null, "genders": [], "languages": [], "places_of_operation": [], "biography": "", "biography_author": null, "date_of_biography": null, "external_links": [], "uuid": "b12a1f4e-40e4-4236-b01e-49f016259a60", "source": {"name": "Vernon", "slug": "vernon"}, "source_identifier": "31788", "external_references": [{"id": 33526, "source": {"name": "Wikidata", "slug": "wikidata"}, "source_identifier": "Q121086028"}], "date_modified": "2025-03-12T01:52:06.562225+11:00"}, {"id": 74859, "name": "Norman K Wallis", "roles_in_work": [{"id": 2716246, "title": "In the wake of Mendana", "work_id": 68849, "role": "producer/director", "role_id": 31, "is_primary": true}], "also_known_as": "", "date_of_birth": "", "date_of_death": "", "genders": [], "languages": [], "places_of_operation": [], "biography": "", "biography_author": null, "date_of_biography": "2023-08-11T18:22:52.147374+10:00", "external_links": [], "uuid": "6458e5d9-0246-47b4-85e1-d4ac2da6f8ff", "source": {"name": "Vernon", "slug": "vernon"}, "source_identifier": "25892", "external_references": [{"id": 51273, "source": {"name": "Wikidata", "slug": "wikidata"}, "source_identifier": "Q121361278"}], "date_modified": "2025-03-12T01:52:03.792191+11:00"}, {"id": 74858, "name": "Gordon Babineau", "roles_in_work": [{"id": 2716241, "title": "In the South seas: palm and steeple", "work_id": 68846, "role": "producer/director", "role_id": 31, "is_primary": true}], "also_known_as": "", "date_of_birth": null, "date_of_death": null, "genders": [], "languages": [], "places_of_operation": [], "biography": "", "biography_author": null, "date_of_biography": null, "external_links": [], "uuid": "004b7c7f-016f-44ce-9f14-76343d5e47aa", "source": {"name": "Vernon", "slug": "vernon"}, "source_identifier": "19921", "external_references": [{"id": 51277, "source": {"name": "Wikidata", "slug": "wikidata"}, "source_identifier": "Q121361039"}], "date_modified": "2025-03-12T01:51:59.984334+11:00"}, {"id": 74857, "name": "James J. Cullen", "roles_in_work": [{"id": 2716233, "title": "In the name of religion", "work_id": 68841, "role": "co-director", "role_id": 959, "is_primary": true}, {"id": 2190655, "title": "Patterns of change", "work_id": 70412, "role": "co-director", "role_id": 959, "is_primary": true}], "also_known_as": "", "date_of_birth": "", "date_of_death": "", "genders": [], "languages": [], "places_of_operation": [], "biography": "", "biography_author": null, "date_of_biography": "2023-05-09T15:08:31.126501+10:00", "external_links": [], "uuid": "7042f3a3-83f8-487b-b14d-4a71f4330d88", "source": {"name": "Vernon", "slug": "vernon"}, "source_identifier": "21253", "external_references": [{"id": 33066, "source": {"name": "Wikidata", "slug": "wikidata"}, "source_identifier": "Q121336956"}], "date_modified": "2025-03-12T01:51:53.556878+11:00"}, {"id": 74856, "name": "Stig Lasseby", "roles_in_work": [{"id": 2202043, "title": "Peter no tail", "work_id": 86922, "role": "co-director", "role_id": 959, "is_primary": true}, {"id": 2716225, "title": "In the form of clay", "work_id": 68838, "role": "co-producer", "role_id": 915, "is_primary": true}], "also_known_as": "", "date_of_birth": "", "date_of_death": "", "genders": [], "languages": [], "places_of_operation": [], "biography": "", "biography_author": null, "date_of_biography": "2023-05-09T15:27:59.517068+10:00", "external_links": [], "uuid": "7ccff4af-76c6-40f1-b646-5b2edd5ec746", "source": {"name": "Vernon", "slug": "vernon"}, "source_identifier": "29234", "external_references": [{"id": 51763, "source": {"name": "Wikidata", "slug": "wikidata"}, "source_identifier": "Q121357867"}], "date_modified": "2025-03-12T01:51:48.016830+11:00"}, {"id": 74855, "name": "Olle Hallberg", "roles_in_work": [{"id": 2716224, "title": "In the form of clay", "work_id": 68838, "role": "co-producer", "role_id": 915, "is_primary": true}], "also_known_as": "", "date_of_birth": null, "date_of_death": null, "genders": [], "languages": [], "places_of_operation": [], "biography": "", "biography_author": null, "date_of_biography": null, "external_links": [], "uuid": "3c42e4d5-cade-43ad-90b1-8bce5552a6b5", "source": {"name": "Vernon", "slug": "vernon"}, "source_identifier": "25959", "external_references": [{"id": 33308, "source": {"name": "Wikidata", "slug": "wikidata"}, "source_identifier": "Q121126949"}], "date_modified": "2025-03-12T01:51:47.430737+11:00"}, {"id": 74854, "name": "Tor Flyckt", "roles_in_work": [{"id": 2716223, "title": "In the form of clay", "work_id": 68838, "role": "co-producer", "role_id": 915, "is_primary": true}], "also_known_as": "", "date_of_birth": null, "date_of_death": null, "genders": [], "languages": [], "places_of_operation": [], "biography": "", "biography_author": null, "date_of_biography": null, "external_links": [], "uuid": "a1e17a53-20a0-41c3-81b4-aa34d10198df", "source": {"name": "Vernon", "slug": "vernon"}, "source_identifier": "29923", "external_references": [{"id": 32360, "source": {"name": "Wikidata", "slug": "wikidata"}, "source_identifier": "Q121143658"}], "date_modified": "2025-03-12T01:51:46.842628+11:00"}, {"id": 74853, "name": "Julian Ellingworth", "roles_in_work": [{"id": 2716217, "title": "In the bush", "work_id": 68835, "role": "sound", "role_id": 952, "is_primary": false}, {"id": 2760993, "title": "Kerry", "work_id": 75332, "role": "sound", "role_id": 952, "is_primary": false}, {"id": 2792031, "title": "Platypus: Ornithorhynchus Anatinus", "work_id": 71646, "role": "sound", "role_id": 952, "is_primary": false}, {"id": 2242602, "title": "First contact", "work_id": 77454, "role": "sound", "role_id": 952, "is_primary": false}, {"id": 2379666, "title": "Aborigines of the Northern Territory: scouting outpost", "work_id": 75958, "role": "sound", "role_id": 952, "is_primary": false}, {"id": 2193166, "title": "Pearls in the North", "work_id": 71422, "role": "sound", "role_id": 952, "is_primary": false}, {"id": 2184058, "title": "Pace", "work_id": 71306, "role": "sound", "role_id": 952, "is_primary": false}, {"id": 2072693, "title": "A Place to land", "work_id": 71601, "role": "sound", "role_id": 952, "is_primary": false}, {"id": 2072629, "title": "A Place of compromise", "work_id": 75278, "role": "sound editor", "role_id": 948, "is_primary": false}, {"id": 2391972, "title": "Out they go", "work_id": 71277, "role": "sound editor", "role_id": 948, "is_primary": false}], "also_known_as": "", "date_of_birth": "", "date_of_death": "", "genders": [], "languages": [], "places_of_operation": [], "biography": "", "biography_author": null, "date_of_biography": "2023-08-09T03:48:36.442319+10:00", "external_links": [], "uuid": "7693a1cb-e90b-4c28-95dd-24c532ddc25a", "source": {"name": "Vernon", "slug": "vernon"}, "source_identifier": "33164", "external_references": [], "date_modified": "2025-03-14T20:06:17.748527+11:00"}]}