{"count": 28687, "next": "https://api.acmi.net.au/creators/?page=2287", "previous": "https://api.acmi.net.au/creators/?page=2285", "results": [{"id": 17027, "name": "Helen Kirstt Radin", "roles_in_work": [{"id": 1819250, "title": "The Odds against", "work_id": 71046, "role": "producer", "role_id": 1089, "is_primary": true}, {"id": 2790691, "title": "The Artist", "work_id": 84648, "role": "producer", "role_id": 1089, "is_primary": true}, {"id": 2790698, "title": "The Scientist", "work_id": 84650, "role": "producer", "role_id": 1089, "is_primary": true}, {"id": 2790702, "title": "The Warrior", "work_id": 84651, "role": "producer", "role_id": 1089, "is_primary": true}], "also_known_as": "", "date_of_birth": "", "date_of_death": "", "genders": [], "languages": [], "places_of_operation": [], "biography": "", "biography_author": null, "date_of_biography": "2023-05-09T19:44:20.980847+10:00", "external_links": [], "uuid": "73e749ef-56eb-47cb-b75f-1ae7c13fa6d0", "source": {"name": "Vernon", "slug": "vernon"}, "source_identifier": "20430", "external_references": [{"id": 39241, "source": {"name": "Wikidata", "slug": "wikidata"}, "source_identifier": "Q121159732"}], "date_modified": "2025-03-14T19:58:59.549224+11:00"}, {"id": 17026, "name": "Bairnsdale Technical School", "roles_in_work": [{"id": 2469417, "title": "Trouble in town", "work_id": 95995, "role": "production company", "role_id": 941, "is_primary": true}, {"id": 2464569, "title": "Odd man in", "work_id": 71044, "role": "production company", "role_id": 941, "is_primary": true}], "also_known_as": "", "date_of_birth": "", "date_of_death": "", "genders": [], "languages": [], "places_of_operation": [], "biography": "", "biography_author": null, "date_of_biography": "2023-08-14T12:00:42.271931+10:00", "external_links": [], "uuid": "75621231-3b95-4ccf-b219-697ba3d9f323", "source": {"name": "Vernon", "slug": "vernon"}, "source_identifier": "5684", "external_references": [], "date_modified": "2023-08-14T12:00:42.272160+10:00"}, {"id": 17025, "name": "Les Requins Associes", "roles_in_work": [{"id": 2768606, "title": "Octopus octopus", "work_id": 71043, "role": "production company", "role_id": 941, "is_primary": true}], "also_known_as": "", "date_of_birth": "", "date_of_death": "", "genders": [], "languages": [], "places_of_operation": [], "biography": "", "biography_author": null, "date_of_biography": "2023-08-14T12:41:41.029471+10:00", "external_links": [], "uuid": "3bfa8fc8-70e8-4d3e-a03f-f2ee338515c9", "source": {"name": "Vernon", "slug": "vernon"}, "source_identifier": "10027", "external_references": [], "date_modified": "2025-03-14T18:10:30.532130+11:00"}, {"id": 17024, "name": "Metromedia Producers Corporation", "roles_in_work": [{"id": 2778295, "title": "Communist triumph and consolidation, 1945-1971", "work_id": 81833, "role": "production company", "role_id": 941, "is_primary": true}, {"id": 2778305, "title": "China: A Century of Revolution", "work_id": 115217, "role": "production company", "role_id": 941, "is_primary": true}, {"id": 2768611, "title": "The Unsinkable sea otter", "work_id": 74230, "role": "production company", "role_id": 941, "is_primary": true}, {"id": 2778282, "title": "Agonies of nationalism: 1800 - 1927", "work_id": 81900, "role": "production company", "role_id": 941, "is_primary": true}, {"id": 2768652, "title": "Beneath the frozen world", "work_id": 97945, "role": "production company", "role_id": 941, "is_primary": true}, {"id": 2646644, "title": "The Time of man", "work_id": 73840, "role": "production company", "role_id": 941, "is_primary": true}, {"id": 2768604, "title": "Octopus octopus", "work_id": 71043, "role": "production company", "role_id": 941, "is_primary": true}], "also_known_as": "", "date_of_birth": "", "date_of_death": "", "genders": [], "languages": [], "places_of_operation": [], "biography": "", "biography_author": null, "date_of_biography": "2023-08-14T12:41:40.383602+10:00", "external_links": [], "uuid": "cffcce03-4855-492a-8bf1-c2d545bc1328", "source": {"name": "Vernon", "slug": "vernon"}, "source_identifier": "10486", "external_references": [{"id": 39634, "source": {"name": "Wikidata", "slug": "wikidata"}, "source_identifier": "Q121078928"}], "date_modified": "2025-03-14T18:59:16.107735+11:00"}, {"id": 17021, "name": "Paul de Roubaix", "roles_in_work": [{"id": 2094373, "title": "An Occurrence at Owl Creek Bridge", "work_id": 71039, "role": "co-director", "role_id": 959, "is_primary": true}, {"id": 1806674, "title": "SOS Galapagos Islands", "work_id": 96256, "role": "producer", "role_id": 1089, "is_primary": true}, {"id": 3104859, "title": "Au Coeur de la Vie = in the Heart of Life", "work_id": 116118, "role": "producer", "role_id": 1089, "is_primary": true}], "also_known_as": "Paul Eugène Jules de Roubaix", "date_of_birth": "1914-08-04", "date_of_death": "2004-09-22", "genders": [{"id": 9, "name": "Male", "slug": "male"}], "languages": [{"id": 4, "name": "French", "slug": "french"}], "places_of_operation": [{"id": 37, "name": "Belgium", "slug": "belgium"}], "biography": "", "biography_author": null, "date_of_biography": "2023-05-09T12:35:25.583879+10:00", "external_links": [], "uuid": "8e6d2cf4-37fd-429e-b6d2-c0e669e28500", "source": {"name": "Vernon", "slug": "vernon"}, "source_identifier": "26205", "external_references": [{"id": 36224, "source": {"name": "Wikidata", "slug": "wikidata"}, "source_identifier": "Q2063321"}, {"id": 55433, "source": {"name": "VIAF", "slug": "viaf"}, "source_identifier": "51892998"}, {"id": 55434, "source": {"name": "LOC Auth", "slug": "loc-auth"}, "source_identifier": "no2005045951"}, {"id": 55435, "source": {"name": "WorldCat", "slug": "worldcat"}, "source_identifier": "viaf-51892998"}], "date_modified": "2025-05-22T22:50:49.595536+10:00"}, {"id": 17019, "name": "Robert Enrico", "roles_in_work": [{"id": 3105472, "title": "Montagnes Magiques = Magic Mountains", "work_id": 116477, "role": "director", "role_id": 938, "is_primary": true}, {"id": 3104389, "title": "Le Vieux Fusil = the Old Gun", "work_id": 115890, "role": "director", "role_id": 938, "is_primary": true}, {"id": 3104696, "title": "Les Grandes Gueules = the Big Shots", "work_id": 116039, "role": "director", "role_id": 938, "is_primary": true}, {"id": 3104860, "title": "Au Coeur de la Vie = in the Heart of Life", "work_id": 116118, "role": "director", "role_id": 938, "is_primary": true}, {"id": 3104934, "title": "Pile Ou Face = Heads or Tails", "work_id": 116155, "role": "director", "role_id": 938, "is_primary": true}, {"id": 2094368, "title": "An Occurrence at Owl Creek Bridge", "work_id": 71039, "role": "producer", "role_id": 1089, "is_primary": true}], "also_known_as": "Gino Robert Enrico", "date_of_birth": "13 APR 1931", "date_of_death": "23 FEB 2001", "genders": [{"id": 9, "name": "Male", "slug": "male"}], "languages": [{"id": 4, "name": "French", "slug": "french"}], "places_of_operation": [{"id": 17, "name": "France", "slug": "france"}], "biography": "Robert Georgio Enrico (13 April 1931 – 23 February 2001) was a French film director and scriptwriter best known for making the Oscar-winning short An Occurrence at Owl Creek Bridge (1961).He was born in Liévin, Pas-de-Calais, in the north of France, to Italian immigrant parents, and died in Paris. Source: Wikidata; 01/08/2023", "biography_author": null, "date_of_biography": "2025-05-22T23:06:36.110882+10:00", "external_links": [{"id": 5014, "uri": "https://en.wikipedia.org/wiki/Robert_Enrico"}], "uuid": "a2d78db3-d5f5-4a31-9c12-1e83d5d5da44", "source": {"name": "Vernon", "slug": "vernon"}, "source_identifier": "27715", "external_references": [{"id": 26298, "source": {"name": "Wikidata", "slug": "wikidata"}, "source_identifier": "Q1387339"}, {"id": 31150, "source": {"name": "VIAF", "slug": "viaf"}, "source_identifier": "79065405"}, {"id": 31151, "source": {"name": "LOC Auth", "slug": "loc-auth"}, "source_identifier": "n83198705"}, {"id": 31152, "source": {"name": "WorldCat", "slug": "worldcat"}, "source_identifier": "lccn-n83198705"}], "date_modified": "2025-05-22T23:06:36.111133+10:00"}, {"id": 17018, "name": "Films du Centaure", "roles_in_work": [{"id": 2094367, "title": "An Occurrence at Owl Creek Bridge", "work_id": 71039, "role": "production company", "role_id": 941, "is_primary": true}], "also_known_as": "", "date_of_birth": "", "date_of_death": "", "genders": [], "languages": [], "places_of_operation": [], "biography": "", "biography_author": null, "date_of_biography": "2023-05-09T12:19:50.607063+10:00", "external_links": [], "uuid": "10f7e6e5-0457-4711-a151-ddbfccb59fad", "source": {"name": "Vernon", "slug": "vernon"}, "source_identifier": "8303", "external_references": [{"id": 41672, "source": {"name": "Wikidata", "slug": "wikidata"}, "source_identifier": "Q121079514"}], "date_modified": "2023-09-05T19:43:29.578812+10:00"}, {"id": 17017, "name": "Filmartic", "roles_in_work": [{"id": 2094366, "title": "An Occurrence at Owl Creek Bridge", "work_id": 71039, "role": "production company", "role_id": 941, "is_primary": true}], "also_known_as": "", "date_of_birth": "", "date_of_death": "", "genders": [], "languages": [], "places_of_operation": [], "biography": "", "biography_author": null, "date_of_biography": "2023-05-09T12:19:50.372454+10:00", "external_links": [], "uuid": "857e594c-525b-4bc4-9a2e-37e7155a2585", "source": {"name": "Vernon", "slug": "vernon"}, "source_identifier": "8265", "external_references": [{"id": 34753, "source": {"name": "Wikidata", "slug": "wikidata"}, "source_identifier": "Q121034491"}], "date_modified": "2023-09-05T19:43:15.365213+10:00"}, {"id": 17011, "name": "William C. Crain", "roles_in_work": [{"id": 749441, "title": "Nutrition: the all-American meal", "work_id": 71023, "role": "director", "role_id": 938, "is_primary": true}, {"id": 2748760, "title": "Consumer education: who needs it?", "work_id": 96450, "role": "producer", "role_id": 1089, "is_primary": true}, {"id": 1813612, "title": "Nutrition: the consumer and the supermarket", "work_id": 71024, "role": "producer", "role_id": 1089, "is_primary": true}, {"id": 2764632, "title": "You are what you eat", "work_id": 71025, "role": "producer", "role_id": 1089, "is_primary": true}, {"id": 2749499, "title": "What is nothing?", "work_id": 96836, "role": "producer", "role_id": 1089, "is_primary": true}, {"id": 861902, "title": "Greenhouse", "work_id": 75870, "role": "producer/director", "role_id": 31, "is_primary": true}], "also_known_as": "", "date_of_birth": "", "date_of_death": "", "genders": [], "languages": [], "places_of_operation": [], "biography": "", "biography_author": null, "date_of_biography": "2023-08-11T15:45:00.592766+10:00", "external_links": [], "uuid": "22a9c423-620a-4f57-aece-df801d5bbb2c", "source": {"name": "Vernon", "slug": "vernon"}, "source_identifier": "30383", "external_references": [], "date_modified": "2025-03-13T00:01:10.792562+11:00"}, {"id": 17010, "name": "Bertram Tyrer", "roles_in_work": [{"id": 856183, "title": "Nutrition and the pig", "work_id": 71022, "role": "director", "role_id": 938, "is_primary": true}, {"id": 2465241, "title": "Readicut rugs", "work_id": 72073, "role": "director", "role_id": 938, "is_primary": true}], "also_known_as": "", "date_of_birth": "", "date_of_death": "", "genders": [], "languages": [], "places_of_operation": [], "biography": "", "biography_author": null, "date_of_biography": "2023-08-14T10:30:21.969466+10:00", "external_links": [], "uuid": "5aecdcad-111b-4cee-9beb-8218f005b07f", "source": {"name": "Vernon", "slug": "vernon"}, "source_identifier": "15887", "external_references": [], "date_modified": "2023-08-14T10:30:21.969733+10:00"}]}