{"count": 28681, "next": "https://api.acmi.net.au/creators/?page=856", "previous": "https://api.acmi.net.au/creators/?page=854", "results": [{"id": 77028, "name": "Hugh Johnston", "roles_in_work": [{"id": 901214, "title": "Keeping your teeth healthy", "work_id": 81960, "role": "co-producer", "role_id": 915, "is_primary": true}, {"id": 2752028, "title": "Eat for health. - 2nd ed.", "work_id": 98102, "role": "co-producer", "role_id": 915, "is_primary": true}, {"id": 2749522, "title": "Kittens are born", "work_id": 96850, "role": "co-producer", "role_id": 915, "is_primary": true}, {"id": 2749525, "title": "Kittens grow up", "work_id": 96851, "role": "co-producer", "role_id": 915, "is_primary": true}, {"id": 2267484, "title": "You are growing day by day", "work_id": 81986, "role": "co-producer", "role_id": 915, "is_primary": true}], "also_known_as": "", "date_of_birth": "", "date_of_death": "", "genders": [], "languages": [], "places_of_operation": [], "biography": "", "biography_author": null, "date_of_biography": "2023-05-09T17:39:53.534922+10:00", "external_links": [], "uuid": "e62f30d4-e3c8-484f-ae4b-c7765122c51e", "source": {"name": "Vernon", "slug": "vernon"}, "source_identifier": "4425", "external_references": [{"id": 36535, "source": {"name": "Wikidata", "slug": "wikidata"}, "source_identifier": "Q121144088"}], "date_modified": "2025-03-13T00:56:24.311262+11:00"}, {"id": 77027, "name": "Paul Reynall", "roles_in_work": [{"id": 2649649, "title": "Jedda", "work_id": 81958, "role": "cast", "role_id": 33, "is_primary": false}], "also_known_as": "", "date_of_birth": null, "date_of_death": null, "genders": [{"id": 9, "name": "Male", "slug": "male"}], "languages": [], "places_of_operation": [], "biography": "", "biography_author": null, "date_of_biography": null, "external_links": [], "uuid": "9274b89c-d795-4f2a-8e65-651993ffa7c3", "source": {"name": "Vernon", "slug": "vernon"}, "source_identifier": "35654", "external_references": [{"id": 38789, "source": {"name": "Wikidata", "slug": "wikidata"}, "source_identifier": "Q121337144"}], "date_modified": "2025-03-05T14:03:44.156340+11:00"}, {"id": 77026, "name": "Betty Suttor", "roles_in_work": [{"id": 2649648, "title": "Jedda", "work_id": 81958, "role": "cast", "role_id": 33, "is_primary": false}], "also_known_as": "", "date_of_birth": null, "date_of_death": null, "genders": [{"id": 5, "name": "Female", "slug": "female"}], "languages": [], "places_of_operation": [], "biography": "", "biography_author": null, "date_of_biography": null, "external_links": [], "uuid": "1bd9ca5b-cd3f-4f64-8be2-1519e936d3e7", "source": {"name": "Vernon", "slug": "vernon"}, "source_identifier": "35653", "external_references": [{"id": 34649, "source": {"name": "Wikidata", "slug": "wikidata"}, "source_identifier": "Q121035274"}], "date_modified": "2025-03-05T14:03:43.556848+11:00"}, {"id": 77025, "name": "Ngarla Kunoth", "roles_in_work": [{"id": 2649647, "title": "Jedda", "work_id": 81958, "role": "cast", "role_id": 33, "is_primary": false}, {"id": 2254252, "title": "Rosalie Kunoth-Monks", "work_id": 94167, "role": "interviewee", "role_id": 496, "is_primary": false}, {"id": 2254064, "title": "Rosalie's journey", "work_id": 116562, "role": "interviewee", "role_id": 496, "is_primary": false}], "also_known_as": "", "date_of_birth": "1936", "date_of_death": "", "genders": [{"id": 5, "name": "Female", "slug": "female"}], "languages": [], "places_of_operation": [], "biography": "", "biography_author": null, "date_of_biography": "2023-05-09T17:15:17.750379+10:00", "external_links": [], "uuid": "64d479ed-0429-432c-a754-8f66b900fe34", "source": {"name": "Vernon", "slug": "vernon"}, "source_identifier": "35652", "external_references": [{"id": 35492, "source": {"name": "Wikidata", "slug": "wikidata"}, "source_identifier": "Q121079218"}], "date_modified": "2025-03-05T14:03:42.953958+11:00"}, {"id": 77024, "name": "Robert Tudawali", "roles_in_work": [{"id": 2649646, "title": "Jedda", "work_id": 81958, "role": "cast", "role_id": 33, "is_primary": false}], "also_known_as": "", "date_of_birth": "1929-01-01", "date_of_death": "1967-07-26", "genders": [{"id": 9, "name": "Male", "slug": "male"}], "languages": [{"id": 1, "name": "English", "slug": "english"}], "places_of_operation": [{"id": 3, "name": "Australia", "slug": "australia"}], "biography": "Robert Tudawali (1929 – 26 July 1967), also known as Bobby Wilson and Bob Wilson, was an Australian actor and Indigenous activist. He is known for his leading role in the 1955 Australian film Jedda, which made him the first Indigenous Australian film star, and also his position as Vice-President of the Northern Territory Council for Aboriginal Rights.\nThe Tudawali Indigenous Film and Television Awards (Tudawali Awards) continue to recognise outstanding achievements of Indigenous people in the Australian film industry.", "biography_author": "Wikidata", "date_of_biography": "2023-09-06T00:47:17.822810+10:00", "external_links": [{"id": 6146, "uri": "https://en.wikipedia.org/wiki/Robert_Tudawali"}], "uuid": "3e8d205b-91b4-410f-ace4-5fae41a97325", "source": {"name": "Vernon", "slug": "vernon"}, "source_identifier": "35642", "external_references": [{"id": 33268, "source": {"name": "Wikidata", "slug": "wikidata"}, "source_identifier": "Q7350494"}, {"id": 55690, "source": {"name": "VIAF", "slug": "viaf"}, "source_identifier": "315537354"}, {"id": 55691, "source": {"name": "WorldCat", "slug": "worldcat"}, "source_identifier": "viaf-315537354"}], "date_modified": "2025-03-05T14:03:42.345326+11:00"}, {"id": 77023, "name": "Rob Sheerlock", "roles_in_work": [{"id": 2778810, "title": "Deane and Rob's Curiosity Show collection", "work_id": 115229, "role": "co-director", "role_id": 959, "is_primary": true}, {"id": 2778798, "title": "20 Things to make and do = 20 fun things to make and do", "work_id": 81950, "role": "co-director", "role_id": 959, "is_primary": true}], "also_known_as": "", "date_of_birth": "", "date_of_death": "", "genders": [], "languages": [], "places_of_operation": [], "biography": "", "biography_author": null, "date_of_biography": "2023-05-09T14:53:28.565665+10:00", "external_links": [], "uuid": "de6ea5e3-3cd8-42fd-88a8-197178ba8d58", "source": {"name": "Vernon", "slug": "vernon"}, "source_identifier": "27612", "external_references": [{"id": 37541, "source": {"name": "Wikidata", "slug": "wikidata"}, "source_identifier": "Q121271066"}], "date_modified": "2025-03-14T19:01:24.206965+11:00"}, {"id": 77022, "name": "Ian Richardson", "roles_in_work": [{"id": 2778796, "title": "20 Things to make and do = 20 fun things to make and do", "work_id": 81950, "role": "co-director", "role_id": 959, "is_primary": true}, {"id": 2778808, "title": "Deane and Rob's Curiosity Show collection", "work_id": 115229, "role": "co-director", "role_id": 959, "is_primary": true}], "also_known_as": "", "date_of_birth": "", "date_of_death": "", "genders": [], "languages": [], "places_of_operation": [], "biography": "", "biography_author": null, "date_of_biography": "2023-05-09T14:53:28.302898+10:00", "external_links": [], "uuid": "950a3ad0-c17b-4abe-9f63-bf77623e8543", "source": {"name": "Vernon", "slug": "vernon"}, "source_identifier": "20790", "external_references": [{"id": 41380, "source": {"name": "Wikidata", "slug": "wikidata"}, "source_identifier": "Q121040171"}], "date_modified": "2025-03-14T19:01:23.627883+11:00"}, {"id": 77021, "name": "Graham Peach", "roles_in_work": [{"id": 2778806, "title": "Deane and Rob's Curiosity Show collection", "work_id": 115229, "role": "co-director", "role_id": 959, "is_primary": true}, {"id": 2778795, "title": "20 Things to make and do = 20 fun things to make and do", "work_id": 81950, "role": "co-director", "role_id": 959, "is_primary": true}], "also_known_as": "", "date_of_birth": "", "date_of_death": "", "genders": [], "languages": [], "places_of_operation": [], "biography": "", "biography_author": null, "date_of_biography": "2023-05-09T14:53:28.081314+10:00", "external_links": [], "uuid": "176a4384-131b-4543-8b36-f8f5bcfb07cd", "source": {"name": "Vernon", "slug": "vernon"}, "source_identifier": "20001", "external_references": [{"id": 34416, "source": {"name": "Wikidata", "slug": "wikidata"}, "source_identifier": "Q121085981"}], "date_modified": "2025-03-14T19:01:23.050687+11:00"}, {"id": 77020, "name": "John Harry", "roles_in_work": [{"id": 2778805, "title": "Deane and Rob's Curiosity Show collection", "work_id": 115229, "role": "co-director", "role_id": 959, "is_primary": true}, {"id": 2778793, "title": "20 Things to make and do = 20 fun things to make and do", "work_id": 81950, "role": "co-director", "role_id": 959, "is_primary": true}], "also_known_as": "", "date_of_birth": "", "date_of_death": "", "genders": [], "languages": [], "places_of_operation": [], "biography": "", "biography_author": null, "date_of_biography": "2023-05-09T14:53:27.858171+10:00", "external_links": [], "uuid": "11f2ab39-02b6-40cb-8d63-61a39606c9cb", "source": {"name": "Vernon", "slug": "vernon"}, "source_identifier": "22307", "external_references": [{"id": 39599, "source": {"name": "Wikidata", "slug": "wikidata"}, "source_identifier": "Q121315338"}], "date_modified": "2025-03-14T19:01:22.479936+11:00"}, {"id": 77019, "name": "Allan Hanton Agencies", "roles_in_work": [{"id": 2649630, "title": "Working from home", "work_id": 81943, "role": "distributor", "role_id": 437, "is_primary": false}, {"id": 2409975, "title": "How to negotiate a great salary package", "work_id": 82185, "role": "distributor", "role_id": 437, "is_primary": false}], "also_known_as": "", "date_of_birth": "", "date_of_death": "", "genders": [], "languages": [], "places_of_operation": [], "biography": "", "biography_author": null, "date_of_biography": "2023-08-11T17:33:28.011986+10:00", "external_links": [], "uuid": "9f328106-a616-4695-a91b-917e72a595e2", "source": {"name": "Vernon", "slug": "vernon"}, "source_identifier": "30708", "external_references": [], "date_modified": "2025-03-05T14:03:33.940372+11:00"}]}