{"count": 28687, "next": "https://api.acmi.net.au/creators/?page=2777", "previous": "https://api.acmi.net.au/creators/?page=2775", "results": [{"id": 9388, "name": "Clare Harwood", "roles_in_work": [{"id": 2711801, "title": "You've changed", "work_id": 109391, "role": "creator", "role_id": 968, "is_primary": true}], "also_known_as": "", "date_of_birth": "", "date_of_death": "", "genders": [], "languages": [], "places_of_operation": [], "biography": "", "biography_author": null, "date_of_biography": "2023-07-05T03:40:33.980495+10:00", "external_links": [], "uuid": "fdc1f856-6a4d-4c84-bf00-222bee8695a7", "source": {"name": "Vernon", "slug": "vernon"}, "source_identifier": "2134", "external_references": [], "date_modified": "2025-03-12T00:04:30.318231+11:00"}, {"id": 9387, "name": "Yolanta Simmonds", "roles_in_work": [{"id": 2711746, "title": "Simmo, the man I love", "work_id": 109390, "role": "creator", "role_id": 968, "is_primary": true}], "also_known_as": "", "date_of_birth": "", "date_of_death": "", "genders": [], "languages": [], "places_of_operation": [], "biography": "", "biography_author": null, "date_of_biography": "2023-07-05T03:40:32.218832+10:00", "external_links": [], "uuid": "4ffcc41d-5fbb-403f-90c1-b08cacc0bc05", "source": {"name": "Vernon", "slug": "vernon"}, "source_identifier": "2133", "external_references": [], "date_modified": "2025-03-12T00:02:41.866171+11:00"}, {"id": 9386, "name": "Patrick Bonello", "roles_in_work": [{"id": 2711798, "title": "Memories for mum", "work_id": 109389, "role": "creator", "role_id": 968, "is_primary": true}], "also_known_as": "", "date_of_birth": "", "date_of_death": "", "genders": [], "languages": [], "places_of_operation": [], "biography": "", "biography_author": null, "date_of_biography": "2023-07-05T03:40:30.405063+10:00", "external_links": [], "uuid": "01f3656d-c88a-4bd9-b2f8-b98d3376b560", "source": {"name": "Vernon", "slug": "vernon"}, "source_identifier": "2132", "external_references": [], "date_modified": "2025-03-12T00:04:24.196247+11:00"}, {"id": 9385, "name": "David Crawford", "roles_in_work": [{"id": 2711795, "title": "Heart research", "work_id": 109388, "role": "creator", "role_id": 968, "is_primary": true}], "also_known_as": "", "date_of_birth": "", "date_of_death": "", "genders": [], "languages": [], "places_of_operation": [], "biography": "", "biography_author": null, "date_of_biography": "2023-07-05T03:40:28.575592+10:00", "external_links": [], "uuid": "de6e969b-fb42-4fd7-bab8-df6c477c58db", "source": {"name": "Vernon", "slug": "vernon"}, "source_identifier": "2146", "external_references": [], "date_modified": "2025-03-12T00:04:18.041927+11:00"}, {"id": 9384, "name": "David Hunt", "roles_in_work": [{"id": 2711792, "title": "3 good reasons", "work_id": 109387, "role": "creator", "role_id": 968, "is_primary": true}], "also_known_as": "", "date_of_birth": "", "date_of_death": "", "genders": [], "languages": [], "places_of_operation": [], "biography": "", "biography_author": null, "date_of_biography": "2023-07-05T03:40:26.689988+10:00", "external_links": [], "uuid": "22c5f4ff-1ad0-47cc-928a-4271d021a1c9", "source": {"name": "Vernon", "slug": "vernon"}, "source_identifier": "2145", "external_references": [], "date_modified": "2025-03-12T00:04:11.898625+11:00"}, {"id": 9383, "name": "Graeme Sloman", "roles_in_work": [{"id": 2711789, "title": "50 years of cardiology", "work_id": 109386, "role": "creator", "role_id": 968, "is_primary": true}], "also_known_as": "", "date_of_birth": "", "date_of_death": "", "genders": [], "languages": [], "places_of_operation": [], "biography": "", "biography_author": null, "date_of_biography": "2023-07-05T03:40:25.037694+10:00", "external_links": [], "uuid": "43153605-f3b9-4d83-a49a-2e283c8f85e2", "source": {"name": "Vernon", "slug": "vernon"}, "source_identifier": "2144", "external_references": [{"id": 24641, "source": {"name": "Wikidata", "slug": "wikidata"}, "source_identifier": "Q120020078"}], "date_modified": "2025-03-12T00:04:05.505243+11:00"}, {"id": 9382, "name": "Lesley Gotzmann", "roles_in_work": [{"id": 2711786, "title": "This is for you Richard and Cath", "work_id": 109385, "role": "creator", "role_id": 968, "is_primary": true}], "also_known_as": "", "date_of_birth": "", "date_of_death": "", "genders": [], "languages": [], "places_of_operation": [], "biography": "", "biography_author": null, "date_of_biography": "2023-07-05T03:40:23.338394+10:00", "external_links": [], "uuid": "bf22bbbc-09c8-4038-8547-bf4f535319a4", "source": {"name": "Vernon", "slug": "vernon"}, "source_identifier": "2143", "external_references": [], "date_modified": "2025-03-12T00:03:59.283869+11:00"}, {"id": 9381, "name": "Andrew Tonkin", "roles_in_work": [{"id": 2711783, "title": "The Heart Foundation", "work_id": 109384, "role": "creator", "role_id": 968, "is_primary": true}], "also_known_as": "", "date_of_birth": "", "date_of_death": "", "genders": [], "languages": [], "places_of_operation": [], "biography": "", "biography_author": null, "date_of_biography": "2023-07-05T03:40:21.624615+10:00", "external_links": [], "uuid": "a2a58aa4-4e2c-42a7-82ca-1ad6cb61cf9d", "source": {"name": "Vernon", "slug": "vernon"}, "source_identifier": "2142", "external_references": [], "date_modified": "2025-03-12T00:03:53.048229+11:00"}, {"id": 9380, "name": "Shirley Videon", "roles_in_work": [{"id": 2711780, "title": "How to kill your husband", "work_id": 109383, "role": "creator", "role_id": 968, "is_primary": true}], "also_known_as": "", "date_of_birth": "", "date_of_death": "", "genders": [], "languages": [], "places_of_operation": [], "biography": "", "biography_author": null, "date_of_biography": "2023-07-05T03:40:19.962370+10:00", "external_links": [], "uuid": "e93d881b-5741-49dd-bc2b-23ec17db477a", "source": {"name": "Vernon", "slug": "vernon"}, "source_identifier": "2141", "external_references": [], "date_modified": "2025-03-12T00:03:45.913457+11:00"}, {"id": 9379, "name": "Gerri Sterel", "roles_in_work": [{"id": 2711777, "title": "Rain check on Christmas", "work_id": 109382, "role": "creator", "role_id": 968, "is_primary": true}], "also_known_as": "", "date_of_birth": "", "date_of_death": "", "genders": [], "languages": [], "places_of_operation": [], "biography": "", "biography_author": null, "date_of_biography": "2023-07-05T03:40:18.299434+10:00", "external_links": [], "uuid": "50da4866-3e7b-4bb9-80bd-39749569df60", "source": {"name": "Vernon", "slug": "vernon"}, "source_identifier": "2140", "external_references": [], "date_modified": "2025-03-12T00:03:38.677644+11:00"}]}