{"count": 28687, "next": "https://api.acmi.net.au/creators/?page=696", "previous": "https://api.acmi.net.au/creators/?page=694", "results": [{"id": 78633, "name": "Claude Nuridsany", "roles_in_work": [{"id": 907134, "title": "Microcosmos", "work_id": 87756, "role": "co-director", "role_id": 959, "is_primary": true}], "also_known_as": "", "date_of_birth": null, "date_of_death": null, "genders": [{"id": 9, "name": "Male", "slug": "male"}], "languages": [{"id": 4, "name": "French", "slug": "french"}], "places_of_operation": [{"id": 17, "name": "France", "slug": "france"}], "biography": "", "biography_author": null, "date_of_biography": null, "external_links": [], "uuid": "90973958-d12f-4d12-b15a-bf645ee82901", "source": {"name": "Vernon", "slug": "vernon"}, "source_identifier": null, "external_references": [{"id": 7982, "source": {"name": "Wikidata", "slug": "wikidata"}, "source_identifier": "Q2977901"}, {"id": 7983, "source": {"name": "VIAF", "slug": "viaf"}, "source_identifier": "4934518"}, {"id": 7984, "source": {"name": "LOC Auth", "slug": "loc-auth"}, "source_identifier": "n84091838"}, {"id": 7985, "source": {"name": "WorldCat", "slug": "worldcat"}, "source_identifier": "lccn-n84091838"}], "date_modified": "2023-09-05T18:41:11.075146+10:00"}, {"id": 78632, "name": "Andrew Lloyd Webber", "roles_in_work": [{"id": 1994092, "title": "Joseph and the amazing technicolor dreamcoat", "work_id": 89821, "role": "producer", "role_id": 1089, "is_primary": true}, {"id": 2132863, "title": "Cats", "work_id": 87755, "role": "producer", "role_id": 1089, "is_primary": true}], "also_known_as": "", "date_of_birth": "1948-03-22", "date_of_death": "", "genders": [{"id": 9, "name": "Male", "slug": "male"}], "languages": [{"id": 1, "name": "English", "slug": "english"}], "places_of_operation": [{"id": 10, "name": "United Kingdom", "slug": "united-kingdom"}], "biography": "Andrew Lloyd Webber, Baron Lloyd-Webber  (born 22 March 1948), is an English composer and impresario of musical theatre. Several of his musicals have run for more than a decade both in the West End and on Broadway. He has composed 21 musicals, a song cycle, a set of variations, two film scores, and a Latin Requiem Mass.\nSeveral of his songs have been widely recorded and were successful outside of their parent musicals, such as \"Memory\" from Cats, \"The Music of the Night\" and \"All I Ask of You\" from The Phantom of the Opera, \"I Don't Know How to Love Him\" from Jesus Christ Superstar, \"Don't Cry for Me Argentina\" from Evita, and \"Any Dream Will Do\" from Joseph and the Amazing Technicolor Dreamcoat. In 2001, The New York Times referred to him as \"the most commercially successful composer in history\". The Daily Telegraph ranked him the \"fifth most powerful person in British culture\" in 2008, lyricist Don Black writing \"Andrew more or less single-handedly reinvented the musical.\"He has received a number of awards, including a knighthood in 1992, followed by a peerage for services to the arts, six Tonys, three Grammys (as well as the Grammy Legend Award), an Academy Award, 14 Ivor Novello Awards, seven Olivier Awards, a Golden Globe, a Brit Award, the 2006 Kennedy Center Honors, the 2008 Classic Brit Award for Outstanding Contribution to Music, and an Emmy Award. He is one of 18 people to have won an Oscar, an Emmy, a Grammy, and a Tony. He has a star on the Hollywood Walk of Fame, is an inductee into the Songwriters Hall of Fame, and is a fellow of the British Academy of Songwriters, Composers, and Authors.His company, the Really Useful Group, is one of the largest theatre operators in London. Producers in several parts of the UK have staged productions, including national tours, of the Lloyd Webber musicals under licence from the Really Useful Group. Lloyd Webber is also the president of the Arts Educational Schools, London, a performing arts school located in Chiswick, West London. He is involved in a number of charitable activities, including the Elton John AIDS Foundation, Nordoff Robbins, Prostate Cancer UK and War Child. In 1992, he started the Andrew Lloyd Webber Foundation which supports the arts, culture, and heritage of the UK. In 2014 he designed a Cats-themed Paddington Bear statue, which was auctioned to raise funds for the National Society for the Prevention of Cruelty to Children (NSPCC).", "biography_author": "Wikidata", "date_of_biography": "2023-08-01T14:02:28.638678+10:00", "external_links": [{"id": 1648, "uri": "https://en.wikipedia.org/wiki/Andrew_Lloyd_Webber"}], "uuid": "ffb81fbe-e8e6-4a62-a7c9-1df54a83e537", "source": {"name": "Vernon", "slug": "vernon"}, "source_identifier": "15186", "external_references": [{"id": 7193, "source": {"name": "Wikidata", "slug": "wikidata"}, "source_identifier": "Q180975"}, {"id": 7194, "source": {"name": "VIAF", "slug": "viaf"}, "source_identifier": "59279678"}, {"id": 7195, "source": {"name": "LOC Auth", "slug": "loc-auth"}, "source_identifier": "n81126807"}, {"id": 7196, "source": {"name": "WorldCat", "slug": "worldcat"}, "source_identifier": "lccn-n81126807"}], "date_modified": "2023-09-05T17:36:03.941538+10:00"}, {"id": 78631, "name": "David Snodin", "roles_in_work": [{"id": 1815266, "title": "Great expectations [BBC]", "work_id": 87753, "role": "producer", "role_id": 1089, "is_primary": true}], "also_known_as": "", "date_of_birth": null, "date_of_death": null, "genders": [], "languages": [], "places_of_operation": [], "biography": "", "biography_author": null, "date_of_biography": null, "external_links": [], "uuid": "3e9a2b5a-835a-427b-85ff-49a3a6624611", "source": {"name": "Vernon", "slug": "vernon"}, "source_identifier": null, "external_references": [{"id": 40954, "source": {"name": "Wikidata", "slug": "wikidata"}, "source_identifier": "Q121298733"}], "date_modified": "2023-09-05T19:02:48.393523+10:00"}, {"id": 78630, "name": "Peter Howitt", "roles_in_work": [{"id": 2302868, "title": "Sliding doors", "work_id": 87752, "role": "director", "role_id": 938, "is_primary": true}], "also_known_as": "", "date_of_birth": "1957-05-05", "date_of_death": "", "genders": [{"id": 9, "name": "Male", "slug": "male"}], "languages": [{"id": 1, "name": "English", "slug": "english"}], "places_of_operation": [{"id": 10, "name": "United Kingdom", "slug": "united-kingdom"}], "biography": "Peter Howitt (; born 5 May 1957) is a British actor and film director.", "biography_author": "Wikidata", "date_of_biography": "2023-08-01T16:34:20.656873+10:00", "external_links": [{"id": 2856, "uri": "https://en.wikipedia.org/wiki/Peter_Howitt"}], "uuid": "de0b6087-17f3-419d-b31c-67ead1d1e013", "source": {"name": "Vernon", "slug": "vernon"}, "source_identifier": "26584", "external_references": [{"id": 12149, "source": {"name": "Wikidata", "slug": "wikidata"}, "source_identifier": "Q1373590"}, {"id": 12150, "source": {"name": "VIAF", "slug": "viaf"}, "source_identifier": "17443568"}, {"id": 12151, "source": {"name": "LOC Auth", "slug": "loc-auth"}, "source_identifier": "no2002011558"}, {"id": 12152, "source": {"name": "WorldCat", "slug": "worldcat"}, "source_identifier": "lccn-no2002011558"}], "date_modified": "2023-09-05T23:57:57.495461+10:00"}, {"id": 78629, "name": "Louise Leroux", "roles_in_work": [{"id": 2311450, "title": "Stiletto", "work_id": 87749, "role": "director", "role_id": 938, "is_primary": true}, {"id": 2311454, "title": "Stiletto [NTSC]", "work_id": 87750, "role": "director", "role_id": 938, "is_primary": true}], "also_known_as": "", "date_of_birth": "", "date_of_death": "", "genders": [], "languages": [], "places_of_operation": [], "biography": "", "biography_author": null, "date_of_biography": "2023-05-09T18:57:44.476273+10:00", "external_links": [], "uuid": "9143c26f-6a58-423c-a341-aa5dae6fa7c4", "source": {"name": "Vernon", "slug": "vernon"}, "source_identifier": "24049", "external_references": [{"id": 39192, "source": {"name": "Wikidata", "slug": "wikidata"}, "source_identifier": "Q121035139"}], "date_modified": "2023-09-05T22:32:24.633736+10:00"}, {"id": 78628, "name": "Michael Melnyk", "roles_in_work": [{"id": 2218818, "title": "Energy management for the future", "work_id": 87740, "role": "director", "role_id": 938, "is_primary": true}], "also_known_as": "", "date_of_birth": "", "date_of_death": "", "genders": [], "languages": [], "places_of_operation": [], "biography": "", "biography_author": null, "date_of_biography": "2023-05-09T16:12:35.353113+10:00", "external_links": [], "uuid": "7f536f28-b03a-481a-9664-2f6dcca59e9f", "source": {"name": "Vernon", "slug": "vernon"}, "source_identifier": "25161", "external_references": [{"id": 43588, "source": {"name": "Wikidata", "slug": "wikidata"}, "source_identifier": "Q121086196"}], "date_modified": "2023-09-05T23:07:01.150053+10:00"}, {"id": 78627, "name": "Melvana Communications Group", "roles_in_work": [{"id": 2218812, "title": "Energy management for the future", "work_id": 87740, "role": "production company", "role_id": 941, "is_primary": true}], "also_known_as": "", "date_of_birth": "", "date_of_death": "", "genders": [], "languages": [], "places_of_operation": [], "biography": "", "biography_author": null, "date_of_biography": "2023-05-09T16:12:34.576095+10:00", "external_links": [], "uuid": "7fd48900-e765-45f2-b248-518e6a286fc2", "source": {"name": "Vernon", "slug": "vernon"}, "source_identifier": "10459", "external_references": [{"id": 41529, "source": {"name": "Wikidata", "slug": "wikidata"}, "source_identifier": "Q121126024"}], "date_modified": "2023-09-05T22:59:57.164218+10:00"}, {"id": 78626, "name": "Jeanette Lerman", "roles_in_work": [{"id": 2218522, "title": "Enemy alien", "work_id": 87739, "role": "director", "role_id": 938, "is_primary": true}], "also_known_as": "", "date_of_birth": "", "date_of_death": "", "genders": [], "languages": [], "places_of_operation": [], "biography": "", "biography_author": null, "date_of_biography": "2023-05-09T16:08:25.013867+10:00", "external_links": [], "uuid": "d487e33a-8efa-4327-99fa-ceccfa1cb567", "source": {"name": "Vernon", "slug": "vernon"}, "source_identifier": "21575", "external_references": [{"id": 34647, "source": {"name": "Wikidata", "slug": "wikidata"}, "source_identifier": "Q121144221"}], "date_modified": "2023-09-05T21:17:36.427979+10:00"}, {"id": 78625, "name": "Otmar Gutman", "roles_in_work": [{"id": 2205968, "title": "Pingu the magician", "work_id": 87722, "role": "co-director", "role_id": 959, "is_primary": true}], "also_known_as": "", "date_of_birth": "", "date_of_death": "", "genders": [], "languages": [], "places_of_operation": [], "biography": "", "biography_author": null, "date_of_biography": "2023-05-09T15:35:30.816799+10:00", "external_links": [], "uuid": "66d0d67f-1ba1-487c-8092-2570532aeaec", "source": {"name": "Vernon", "slug": "vernon"}, "source_identifier": "25985", "external_references": [{"id": 40924, "source": {"name": "Wikidata", "slug": "wikidata"}, "source_identifier": "Q121036318"}], "date_modified": "2023-09-05T23:37:54.979008+10:00"}, {"id": 78624, "name": "Steven A Jones", "roles_in_work": [{"id": 1991970, "title": "Wild things", "work_id": 87720, "role": "co-producer", "role_id": 915, "is_primary": true}], "also_known_as": "", "date_of_birth": null, "date_of_death": null, "genders": [], "languages": [], "places_of_operation": [], "biography": "", "biography_author": null, "date_of_biography": null, "external_links": [], "uuid": "61145993-b205-404c-bc96-86de9e072e37", "source": {"name": "Vernon", "slug": "vernon"}, "source_identifier": null, "external_references": [{"id": 33974, "source": {"name": "Wikidata", "slug": "wikidata"}, "source_identifier": "Q121036808"}], "date_modified": "2023-09-06T01:31:45.223522+10:00"}]}