{"count": 28687, "next": "https://api.acmi.net.au/creators/?page=2033", "previous": "https://api.acmi.net.au/creators/?page=2031", "results": [{"id": 21900, "name": "Nicholas Meyer", "roles_in_work": [{"id": 1984082, "title": "The Day After", "work_id": 79369, "role": "director", "role_id": 938, "is_primary": true}, {"id": 1997010, "title": "Time after time", "work_id": 93068, "role": "director", "role_id": 938, "is_primary": true}, {"id": 2309046, "title": "Star trek II: the wrath of Khan", "work_id": 87859, "role": "director", "role_id": 938, "is_primary": true}, {"id": 2778112, "title": "The Pied piper of Hamelin", "work_id": 81935, "role": "director", "role_id": 938, "is_primary": true}], "also_known_as": "", "date_of_birth": "1945-12-24", "date_of_death": null, "genders": [{"id": 9, "name": "Male", "slug": "male"}], "languages": [{"id": 1, "name": "English", "slug": "english"}], "places_of_operation": [{"id": 1, "name": "United States of America", "slug": "united-states-of-america"}], "biography": "Nicholas Meyer (born December 24, 1945) is an American writer and director, known for his best-selling novel The Seven-Per-Cent Solution, and for directing the films Time After Time, two of the Star Trek feature films, the 1983 television film The Day After, and the 1999 HBO original film Vendetta.\nMeyer was nominated for an Academy Award for Best Adapted Screenplay for the film The Seven-Per-Cent Solution (1976), where he adapted his own novel into a screenplay. He has also been nominated for a Satellite Award, three Emmy Awards, and has won four Saturn Awards. He appeared as himself during the 2017 On Cinema spinoff series The Trial, during which he testified about Star Trek and San Francisco.", "biography_author": "Wikidata", "date_of_biography": "2022-05-19T12:34:52.406943+10:00", "external_links": [{"id": 2776, "uri": "https://en.wikipedia.org/wiki/Nicholas_Meyer"}], "uuid": "cfd26cbe-6968-4864-855a-aaa1e428d50d", "source": {"name": "Vernon", "slug": "vernon"}, "source_identifier": "25722", "external_references": [{"id": 11826, "source": {"name": "Wikidata", "slug": "wikidata"}, "source_identifier": "Q8312"}, {"id": 11827, "source": {"name": "VIAF", "slug": "viaf"}, "source_identifier": "19681516"}, {"id": 11828, "source": {"name": "LOC Auth", "slug": "loc-auth"}, "source_identifier": "n50031316"}, {"id": 11829, "source": {"name": "WorldCat", "slug": "worldcat"}, "source_identifier": "lccn-n50031316"}], "date_modified": "2025-03-14T18:58:31.368589+11:00"}, {"id": 21898, "name": "Robert Youngson", "roles_in_work": [{"id": 2351705, "title": "The Golden age of comedy", "work_id": 80404, "role": "director", "role_id": 938, "is_primary": true}, {"id": 1984080, "title": "Laurel and Hardy's laughing 20's", "work_id": 79368, "role": "producer", "role_id": 1089, "is_primary": true}], "also_known_as": "", "date_of_birth": "1917-11-27", "date_of_death": "1974-04-08", "genders": [{"id": 9, "name": "Male", "slug": "male"}], "languages": [{"id": 1, "name": "English", "slug": "english"}], "places_of_operation": [{"id": 1, "name": "United States of America", "slug": "united-states-of-america"}], "biography": "Robert Youngson (November 27, 1917 – April 8, 1974) was a film producer, director, and screenwriter, specializing in reviving antique silent films.", "biography_author": "Wikidata", "date_of_biography": "2023-08-01T16:52:51.167694+10:00", "external_links": [{"id": 5050, "uri": "https://en.wikipedia.org/wiki/Robert_Youngson"}], "uuid": "02363923-bbfe-4680-903c-5ad16ef8a39a", "source": {"name": "Vernon", "slug": "vernon"}, "source_identifier": "27922", "external_references": [{"id": 25464, "source": {"name": "Wikidata", "slug": "wikidata"}, "source_identifier": "Q390731"}, {"id": 31244, "source": {"name": "VIAF", "slug": "viaf"}, "source_identifier": "66027415"}, {"id": 31245, "source": {"name": "LOC Auth", "slug": "loc-auth"}, "source_identifier": "no89018127"}, {"id": 31246, "source": {"name": "WorldCat", "slug": "worldcat"}, "source_identifier": "lccn-no89018127"}], "date_modified": "2023-09-06T00:48:19.482158+10:00"}, {"id": 21896, "name": "Michael Hausman", "roles_in_work": [{"id": 1984077, "title": "Silkwood", "work_id": 79367, "role": "co-producer", "role_id": 915, "is_primary": true}, {"id": 2174589, "title": "One trick pony", "work_id": 89596, "role": "co-producer", "role_id": 915, "is_primary": true}, {"id": 1990908, "title": "The People vs. Larry Flynt", "work_id": 86523, "role": "co-producer", "role_id": 915, "is_primary": true}, {"id": 2186409, "title": "Desert bloom", "work_id": 83825, "role": "producer", "role_id": 1089, "is_primary": true}, {"id": 2649799, "title": "Things change", "work_id": 82257, "role": "producer", "role_id": 1089, "is_primary": true}, {"id": 1986349, "title": "House of games", "work_id": 82482, "role": "producer", "role_id": 1089, "is_primary": true}], "also_known_as": "", "date_of_birth": "", "date_of_death": "", "genders": [{"id": 9, "name": "Male", "slug": "male"}], "languages": [], "places_of_operation": [{"id": 1, "name": "United States of America", "slug": "united-states-of-america"}], "biography": "Michael Hausman is an American musician and talent manager, known for his collaboration with former-girlfriend and bandmate Aimee Mann.Hausman attended Berklee College of Music and played with a Boston band called The Dark before becoming the drummer for the new wave band 'Til Tuesday in the mid-'80s; the group's best-known hit, \"Voices Carry\" is said to have been inspired by an argument between Hausman and bandmate (and one-time girlfriend) Aimee Mann. The producer of the song, Mike Thorne, disputed this and stated that the lyrics originally had Mann singing to another woman, though the sex was changed owing to pressure from the record label.Hausman later became a talent manager, representing Mann and other artists, including Michael Penn, Skeleton Key and Pete Droge. In addition to Mann, his current roster includes Suzanne Vega, Marc Cohn, Amanda Palmer, Kristina Train, The Both, and Christina Courtin. Hausman, along with Mann and Penn, founded the independent music collective United Musicians, which is based on the principle that every artist should be able to retain copyright ownership of the work he or she has created. Source: Wikidata; 01/08/2023", "biography_author": null, "date_of_biography": "2025-03-05T14:06:21.417256+11:00", "external_links": [{"id": 4691, "uri": "https://en.wikipedia.org/wiki/Michael_Hausman"}], "uuid": "f17e17db-5e0a-464c-b718-6350eb8dbb86", "source": {"name": "Vernon", "slug": "vernon"}, "source_identifier": "25091", "external_references": [{"id": 25922, "source": {"name": "Wikidata", "slug": "wikidata"}, "source_identifier": "Q6831005"}], "date_modified": "2025-03-05T14:06:21.417571+11:00"}, {"id": 21880, "name": "Handmade Films Partnership", "roles_in_work": [{"id": 2648486, "title": "Time bandits", "work_id": 79353, "role": "production company", "role_id": 941, "is_primary": true}], "also_known_as": "", "date_of_birth": null, "date_of_death": null, "genders": [], "languages": [], "places_of_operation": [], "biography": "", "biography_author": null, "date_of_biography": null, "external_links": [], "uuid": "cf197acf-d594-44a7-8b88-d5f7b246ab77", "source": {"name": "Vernon", "slug": "vernon"}, "source_identifier": "8981", "external_references": [], "date_modified": "2025-03-05T13:46:17.739604+11:00"}, {"id": 21879, "name": "Samuel Z Arkoff", "roles_in_work": [{"id": 2246988, "title": "Reform school girl", "work_id": 95245, "role": "co-producer", "role_id": 915, "is_primary": true}, {"id": 1984025, "title": "Wuthering Heights", "work_id": 79352, "role": "producer", "role_id": 1089, "is_primary": true}, {"id": 2345488, "title": "The Earthling", "work_id": 80985, "role": "production company", "role_id": 941, "is_primary": true}], "also_known_as": "", "date_of_birth": "1918-06-12", "date_of_death": "2001-09-16", "genders": [{"id": 9, "name": "Male", "slug": "male"}], "languages": [{"id": 1, "name": "English", "slug": "english"}], "places_of_operation": [{"id": 1, "name": "United States of America", "slug": "united-states-of-america"}], "biography": "Samuel Zachary Arkoff (12 June 1918 – 16 September 2001) was an American producer of B movies.", "biography_author": "Wikidata", "date_of_biography": "2022-05-19T13:01:42.302313+10:00", "external_links": [{"id": 3064, "uri": "https://en.wikipedia.org/wiki/Samuel_Z._Arkoff"}], "uuid": "c8cbd2ae-d86f-49bb-9293-1c6c7f8b1a38", "source": {"name": "Vernon", "slug": "vernon"}, "source_identifier": "28525", "external_references": [{"id": 13008, "source": {"name": "Wikidata", "slug": "wikidata"}, "source_identifier": "Q358702"}, {"id": 13009, "source": {"name": "VIAF", "slug": "viaf"}, "source_identifier": "814838"}, {"id": 13010, "source": {"name": "LOC Auth", "slug": "loc-auth"}, "source_identifier": "n92014096"}, {"id": 13011, "source": {"name": "WorldCat", "slug": "worldcat"}, "source_identifier": "lccn-n92014096"}], "date_modified": "2023-09-13T12:32:37.381886+10:00"}, {"id": 21878, "name": "Jean-Jacques Annaud", "roles_in_work": [{"id": 2294205, "title": "Seven years in Tibet", "work_id": 87393, "role": "director", "role_id": 938, "is_primary": true}, {"id": 2294235, "title": "Seven years in Tibet (Captioned)", "work_id": 87324, "role": "director", "role_id": 938, "is_primary": true}, {"id": 2234078, "title": "Quest for fire", "work_id": 87286, "role": "director", "role_id": 938, "is_primary": true}, {"id": 2218531, "title": "Enemy at the gates [DVD]", "work_id": 93227, "role": "director", "role_id": 938, "is_primary": true}, {"id": 2330021, "title": "The Bear", "work_id": 81650, "role": "director", "role_id": 938, "is_primary": true}, {"id": 1984640, "title": "The Name of the Rose (Captioned)", "work_id": 80630, "role": "director", "role_id": 938, "is_primary": true}, {"id": 1984024, "title": "The Name of the Rose", "work_id": 79351, "role": "director", "role_id": 938, "is_primary": true}, {"id": 2218528, "title": "Enemy at the gates [DVD]", "work_id": 93227, "role": "co-producer", "role_id": 915, "is_primary": true}, {"id": 2294227, "title": "Seven years in Tibet (Captioned)", "work_id": 87324, "role": "co-producer", "role_id": 915, "is_primary": true}, {"id": 2294198, "title": "Seven years in Tibet", "work_id": 87393, "role": "co-producer", "role_id": 915, "is_primary": true}], "also_known_as": "", "date_of_birth": "1943-10-01", "date_of_death": null, "genders": [{"id": 9, "name": "Male", "slug": "male"}], "languages": [{"id": 4, "name": "French", "slug": "french"}], "places_of_operation": [{"id": 17, "name": "France", "slug": "france"}], "biography": "Jean-Jacques Annaud (French pronunciation: ​[ʒɑ̃ ʒak ano]; born 1 October 1943) is a French film director, screenwriter and producer, best known for directing Quest for Fire (1981), The Name of the Rose (1986), The Bear (1988), The Lover (1992), Seven Years in Tibet (1997), Enemy at the Gates (2001), Black Gold (2011), and Wolf Totem (2015).\nAnnaud has received numerous awards for his work, including five César Awards, one David di Donatello Award, and one National Academy of Cinema Award. Annaud's first film, Black and White in Color (1976), received an Academy Award for Best Foreign Language Film.", "biography_author": "Wikidata", "date_of_biography": "2022-05-19T11:54:17.983366+10:00", "external_links": [{"id": 2336, "uri": "https://en.wikipedia.org/wiki/Jean-Jacques_Annaud"}], "uuid": "f28187d2-ab80-4e88-9761-e8efd1f3f23c", "source": {"name": "Vernon", "slug": "vernon"}, "source_identifier": "21577", "external_references": [{"id": 10017, "source": {"name": "Wikidata", "slug": "wikidata"}, "source_identifier": "Q154490"}, {"id": 10018, "source": {"name": "VIAF", "slug": "viaf"}, "source_identifier": "17251887"}, {"id": 10019, "source": {"name": "LOC Auth", "slug": "loc-auth"}, "source_identifier": "n88219901"}, {"id": 10020, "source": {"name": "WorldCat", "slug": "worldcat"}, "source_identifier": "lccn-n88219901"}], "date_modified": "2023-09-13T12:30:18.859906+10:00"}, {"id": 21875, "name": "Films Ariane", "roles_in_work": [{"id": 3104306, "title": "Garde a Vue = the Grilling", "work_id": 115856, "role": "production company", "role_id": 941, "is_primary": true}, {"id": 1984636, "title": "The Name of the Rose (Captioned)", "work_id": 80630, "role": "production company", "role_id": 941, "is_primary": true}, {"id": 1984020, "title": "The Name of the Rose", "work_id": 79351, "role": "production company", "role_id": 941, "is_primary": true}], "also_known_as": "", "date_of_birth": "", "date_of_death": "", "genders": [], "languages": [], "places_of_operation": [], "biography": "", "biography_author": null, "date_of_biography": "2023-08-17T15:12:42.652792+10:00", "external_links": [], "uuid": "f910789a-2e1d-409d-be2d-ab4557c9486a", "source": {"name": "Vernon", "slug": "vernon"}, "source_identifier": "8294", "external_references": [], "date_modified": "2025-05-22T22:35:23.217075+10:00"}, {"id": 21874, "name": "Cristaldifilm", "roles_in_work": [{"id": 1984635, "title": "The Name of the Rose (Captioned)", "work_id": 80630, "role": "production company", "role_id": 941, "is_primary": true}, {"id": 2244374, "title": "Flight of the innocent = La Corsa dell' innocente", "work_id": 85016, "role": "production company", "role_id": 941, "is_primary": true}, {"id": 1984019, "title": "The Name of the Rose", "work_id": 79351, "role": "production company", "role_id": 941, "is_primary": true}, {"id": 1987545, "title": "Nuovo Cinema Paradiso", "work_id": 83783, "role": "production company", "role_id": 941, "is_primary": true}], "also_known_as": "", "date_of_birth": "", "date_of_death": "", "genders": [], "languages": [], "places_of_operation": [], "biography": "", "biography_author": null, "date_of_biography": "2023-05-09T17:00:05.262778+10:00", "external_links": [], "uuid": "999ee9ed-e092-441c-9e64-3fa00743f61d", "source": {"name": "Vernon", "slug": "vernon"}, "source_identifier": "7178", "external_references": [{"id": 37062, "source": {"name": "Wikidata", "slug": "wikidata"}, "source_identifier": "Q121315380"}], "date_modified": "2023-09-05T18:46:52.167451+10:00"}, {"id": 21868, "name": "Jenny Wilkes", "roles_in_work": [{"id": 2648476, "title": "Pottery ladies. Part 1", "work_id": 79343, "role": "director", "role_id": 938, "is_primary": true}, {"id": 2648480, "title": "Pottery ladies. Part 2", "work_id": 79344, "role": "director", "role_id": 938, "is_primary": true}, {"id": 2648484, "title": "Pottery ladies. Part 3", "work_id": 79345, "role": "director", "role_id": 938, "is_primary": true}, {"id": 769443, "title": "Pottery ladies. Part 4", "work_id": 79346, "role": "director", "role_id": 938, "is_primary": true}], "also_known_as": "", "date_of_birth": null, "date_of_death": null, "genders": [], "languages": [], "places_of_operation": [], "biography": "", "biography_author": null, "date_of_biography": null, "external_links": [], "uuid": "18ecb8dd-fbe0-4cb8-b9d7-fbd43fc5f617", "source": {"name": "Vernon", "slug": "vernon"}, "source_identifier": "21730", "external_references": [], "date_modified": "2025-03-05T13:46:16.274487+11:00"}, {"id": 21867, "name": "Peter Ceresole", "roles_in_work": [{"id": 2194777, "title": "1956: endangered planet: 1963: picture power: 1954: living longer", "work_id": 88692, "role": "co-producer", "role_id": 915, "is_primary": true}, {"id": 2761532, "title": "The Greenhouse effect (BBC)", "work_id": 79342, "role": "producer", "role_id": 1089, "is_primary": true}], "also_known_as": "", "date_of_birth": "", "date_of_death": "", "genders": [], "languages": [], "places_of_operation": [], "biography": "", "biography_author": null, "date_of_biography": "2023-05-09T19:53:18.246990+10:00", "external_links": [], "uuid": "d839b05e-83d7-4c01-a538-4495bd7493a3", "source": {"name": "Vernon", "slug": "vernon"}, "source_identifier": "26491", "external_references": [{"id": 37649, "source": {"name": "Wikidata", "slug": "wikidata"}, "source_identifier": "Q121159986"}], "date_modified": "2025-03-14T17:33:58.142516+11:00"}]}