{"count": 28687, "next": "https://api.acmi.net.au/creators/?page=392", "previous": "https://api.acmi.net.au/creators/?page=390", "results": [{"id": 81673, "name": "Garry Holt", "roles_in_work": [{"id": 2752793, "title": "Aussie assault", "work_id": 98461, "role": "co-producer", "role_id": 915, "is_primary": true}], "also_known_as": "", "date_of_birth": "", "date_of_death": "", "genders": [], "languages": [], "places_of_operation": [], "biography": "", "biography_author": null, "date_of_biography": "2023-05-09T12:35:07.957529+10:00", "external_links": [], "uuid": "59342e81-45fd-4561-a5c1-668583745842", "source": {"name": "Vernon", "slug": "vernon"}, "source_identifier": "19370", "external_references": [{"id": 40430, "source": {"name": "Wikidata", "slug": "wikidata"}, "source_identifier": "Q121036309"}], "date_modified": "2025-03-13T01:11:49.335528+11:00"}, {"id": 81672, "name": "Ron Rowe", "roles_in_work": [{"id": 2752782, "title": "Education: where do we go from here?", "work_id": 98454, "role": "producer/director", "role_id": 31, "is_primary": true}], "also_known_as": "", "date_of_birth": "", "date_of_death": "", "genders": [], "languages": [], "places_of_operation": [], "biography": "", "biography_author": null, "date_of_biography": "2023-05-09T15:52:51.491766+10:00", "external_links": [], "uuid": "cba9fb9c-92a3-44ac-8952-e723f27ac139", "source": {"name": "Vernon", "slug": "vernon"}, "source_identifier": "28170", "external_references": [{"id": 52022, "source": {"name": "Wikidata", "slug": "wikidata"}, "source_identifier": "Q121361342"}], "date_modified": "2025-03-13T01:11:41.063441+11:00"}, {"id": 81671, "name": "Louise Janas", "roles_in_work": [{"id": 2752773, "title": "Dysphasic school children", "work_id": 98450, "role": "producer/director", "role_id": 31, "is_primary": true}], "also_known_as": "", "date_of_birth": "", "date_of_death": "", "genders": [], "languages": [], "places_of_operation": [], "biography": "", "biography_author": null, "date_of_biography": "2023-05-09T15:48:06.554435+10:00", "external_links": [], "uuid": "93724cdd-16fb-426a-889f-7fab133b73b3", "source": {"name": "Vernon", "slug": "vernon"}, "source_identifier": "24044", "external_references": [{"id": 51316, "source": {"name": "Wikidata", "slug": "wikidata"}, "source_identifier": "Q121360935"}], "date_modified": "2025-03-13T01:11:32.192648+11:00"}, {"id": 81670, "name": "Tom Chen", "roles_in_work": [{"id": 2752760, "title": "Drink-driving education", "work_id": 98442, "role": "co-director", "role_id": 959, "is_primary": true}], "also_known_as": "", "date_of_birth": "", "date_of_death": "", "genders": [], "languages": [], "places_of_operation": [], "biography": "", "biography_author": null, "date_of_biography": "2023-05-09T15:46:27.997771+10:00", "external_links": [], "uuid": "5b0a2003-bb14-40b1-8ec8-9b4ff0e4e747", "source": {"name": "Vernon", "slug": "vernon"}, "source_identifier": "29817", "external_references": [{"id": 42514, "source": {"name": "Wikidata", "slug": "wikidata"}, "source_identifier": "Q121036334"}], "date_modified": "2025-03-13T01:11:22.835678+11:00"}, {"id": 81669, "name": "Peter Skolinick", "roles_in_work": [{"id": 2752757, "title": "Drink-driving education", "work_id": 98442, "role": "co-producer", "role_id": 915, "is_primary": true}], "also_known_as": "", "date_of_birth": "", "date_of_death": "", "genders": [], "languages": [], "places_of_operation": [], "biography": "", "biography_author": null, "date_of_biography": "2023-05-09T15:46:27.242318+10:00", "external_links": [], "uuid": "40552178-d707-4bf6-89a8-dea19bb9a1a5", "source": {"name": "Vernon", "slug": "vernon"}, "source_identifier": "26719", "external_references": [{"id": 32723, "source": {"name": "Wikidata", "slug": "wikidata"}, "source_identifier": "Q121036802"}], "date_modified": "2025-03-13T01:11:21.063762+11:00"}, {"id": 81668, "name": "Murray Travers", "roles_in_work": [{"id": 2752741, "title": "The Leith Ratten case", "work_id": 98436, "role": "producer", "role_id": 1089, "is_primary": true}], "also_known_as": "", "date_of_birth": null, "date_of_death": null, "genders": [], "languages": [], "places_of_operation": [], "biography": "", "biography_author": null, "date_of_biography": null, "external_links": [], "uuid": "31e3450e-3737-4e9d-9fa7-31aa4ceaa42f", "source": {"name": "Vernon", "slug": "vernon"}, "source_identifier": "25566", "external_references": [{"id": 41795, "source": {"name": "Wikidata", "slug": "wikidata"}, "source_identifier": "Q121143749"}], "date_modified": "2025-03-13T01:11:11.621861+11:00"}, {"id": 81667, "name": "Chris Strange", "roles_in_work": [{"id": 2752652, "title": "Getting into jeans", "work_id": 98395, "role": "co-producer", "role_id": 915, "is_primary": true}], "also_known_as": "", "date_of_birth": "", "date_of_death": "", "genders": [], "languages": [], "places_of_operation": [], "biography": "", "biography_author": null, "date_of_biography": "2023-08-11T17:01:25.920963+10:00", "external_links": [], "uuid": "3701711b-7ca6-42c9-a8e7-fc899fe3bb21", "source": {"name": "Vernon", "slug": "vernon"}, "source_identifier": "16878", "external_references": [{"id": 38829, "source": {"name": "Wikidata", "slug": "wikidata"}, "source_identifier": "Q121337456"}], "date_modified": "2025-03-13T01:10:05.614686+11:00"}, {"id": 81666, "name": "Ross D Wylie", "roles_in_work": [{"id": 2752651, "title": "Getting into jeans", "work_id": 98395, "role": "co-producer", "role_id": 915, "is_primary": true}], "also_known_as": "", "date_of_birth": "", "date_of_death": "", "genders": [], "languages": [], "places_of_operation": [], "biography": "", "biography_author": null, "date_of_biography": "2023-08-11T17:01:25.286933+10:00", "external_links": [], "uuid": "871ae084-dd56-4ac7-a415-c7c600f74e41", "source": {"name": "Vernon", "slug": "vernon"}, "source_identifier": "28285", "external_references": [{"id": 50773, "source": {"name": "Wikidata", "slug": "wikidata"}, "source_identifier": "Q121357535"}], "date_modified": "2025-03-13T01:10:05.037699+11:00"}, {"id": 81665, "name": "Claire Stapleton", "roles_in_work": [{"id": 2752601, "title": "From the bottom to the top", "work_id": 98372, "role": "co-producer", "role_id": 915, "is_primary": true}], "also_known_as": "", "date_of_birth": "", "date_of_death": "", "genders": [], "languages": [], "places_of_operation": [], "biography": "", "biography_author": null, "date_of_biography": "2023-08-11T16:52:40.670914+10:00", "external_links": [], "uuid": "30fdec15-5f2e-4355-ae12-53673792ad23", "source": {"name": "Vernon", "slug": "vernon"}, "source_identifier": "17048", "external_references": [{"id": 36463, "source": {"name": "Wikidata", "slug": "wikidata"}, "source_identifier": "Q121143882"}], "date_modified": "2025-03-13T01:07:55.230541+11:00"}, {"id": 81664, "name": "Don Smith", "roles_in_work": [{"id": 2752596, "title": "Lawn bowls", "work_id": 98370, "role": "producer/director", "role_id": 31, "is_primary": true}], "also_known_as": "", "date_of_birth": "", "date_of_death": "", "genders": [], "languages": [], "places_of_operation": [], "biography": "", "biography_author": null, "date_of_biography": "2023-08-11T19:19:17.917531+10:00", "external_links": [], "uuid": "9fc20382-1224-4857-bd8a-4115c5a69b57", "source": {"name": "Vernon", "slug": "vernon"}, "source_identifier": "18260", "external_references": [{"id": 51149, "source": {"name": "Wikidata", "slug": "wikidata"}, "source_identifier": "Q121360692"}], "date_modified": "2025-03-13T01:07:51.796028+11:00"}]}