{"count": 28687, "next": "https://api.acmi.net.au/creators/?page=1100", "previous": "https://api.acmi.net.au/creators/?page=1098", "results": [{"id": 74592, "name": "Andre Belleau", "roles_in_work": [{"id": 2103272, "title": "Atlantic parks = Parcs Atlantique", "work_id": 76257, "role": "co-director", "role_id": 959, "is_primary": true}, {"id": 2713284, "title": "Fabienne", "work_id": 67341, "role": "producer", "role_id": 1089, "is_primary": true}, {"id": 2712806, "title": "Element 3", "work_id": 67101, "role": "producer", "role_id": 1089, "is_primary": true}, {"id": 1813457, "title": "Vivre sa ville", "work_id": 74415, "role": "producer", "role_id": 1089, "is_primary": true}], "also_known_as": "", "date_of_birth": "", "date_of_death": "", "genders": [], "languages": [], "places_of_operation": [], "biography": "", "biography_author": null, "date_of_biography": "2023-05-09T16:25:06.911989+10:00", "external_links": [], "uuid": "c3a8c8d9-c097-4f97-9d47-a86f9e0d23b5", "source": {"name": "Vernon", "slug": "vernon"}, "source_identifier": "15096", "external_references": [{"id": 37420, "source": {"name": "Wikidata", "slug": "wikidata"}, "source_identifier": "Q121144097"}], "date_modified": "2025-03-12T00:41:16.093383+11:00"}, {"id": 74591, "name": "Albert Soboul", "roles_in_work": [{"id": 2712707, "title": "1848", "work_id": 67053, "role": "co-director", "role_id": 959, "is_primary": true}], "also_known_as": "", "date_of_birth": "27 APR 1914", "date_of_death": "11 SEP 1982", "genders": [{"id": 9, "name": "Male", "slug": "male"}], "languages": [{"id": 4, "name": "French", "slug": "french"}], "places_of_operation": [{"id": 17, "name": "France", "slug": "france"}], "biography": "Albert Marius Soboul (27 April 1914 – 11 September 1982) was a historian of the French Revolutionary and Napoleonic periods. A professor at the Sorbonne, he was chair of the History of the French Revolution and author of numerous influential works of history and historical interpretation. In his lifetime, he was internationally recognized as the foremost French authority on the Revolutionary era. Source: Wikidata; 01/08/2023", "biography_author": null, "date_of_biography": "2025-03-12T00:29:19.109162+11:00", "external_links": [{"id": 3511, "uri": "https://en.wikipedia.org/wiki/Albert_Soboul"}], "uuid": "a4617c8f-436f-488e-b99b-60224ed88384", "source": {"name": "Vernon", "slug": "vernon"}, "source_identifier": "14846", "external_references": [{"id": 25309, "source": {"name": "Wikidata", "slug": "wikidata"}, "source_identifier": "Q223588"}, {"id": 27149, "source": {"name": "VIAF", "slug": "viaf"}, "source_identifier": "32003007"}, {"id": 27150, "source": {"name": "LOC Auth", "slug": "loc-auth"}, "source_identifier": "n78086405"}, {"id": 27151, "source": {"name": "WorldCat", "slug": "worldcat"}, "source_identifier": "lccn-n78086405"}], "date_modified": "2025-03-12T00:29:19.109442+11:00"}, {"id": 74590, "name": "Marguerite de la Mure", "roles_in_work": [{"id": 2712706, "title": "1848", "work_id": 67053, "role": "co-director", "role_id": 959, "is_primary": true}], "also_known_as": "", "date_of_birth": "", "date_of_death": "", "genders": [{"id": 5, "name": "Female", "slug": "female"}], "languages": [], "places_of_operation": [], "biography": "", "biography_author": null, "date_of_biography": "2023-05-09T11:18:50.043995+10:00", "external_links": [], "uuid": "7417c5b8-6422-45e0-a681-298526af77e4", "source": {"name": "Vernon", "slug": "vernon"}, "source_identifier": "24382", "external_references": [{"id": 50536, "source": {"name": "Wikidata", "slug": "wikidata"}, "source_identifier": "Q121357833"}], "date_modified": "2025-03-12T00:29:18.516705+11:00"}, {"id": 74589, "name": "Victoria Mercanton", "roles_in_work": [{"id": 2051443, "title": "[Chinese theatre]", "work_id": 89672, "role": "co-director", "role_id": 959, "is_primary": true}, {"id": 2712705, "title": "1848", "work_id": 67053, "role": "co-director", "role_id": 959, "is_primary": true}], "also_known_as": "", "date_of_birth": "25 JAN 1911", "date_of_death": "23 MAY 2007", "genders": [{"id": 5, "name": "Female", "slug": "female"}], "languages": [{"id": 4, "name": "French", "slug": "french"}], "places_of_operation": [{"id": 17, "name": "France", "slug": "france"}], "biography": "Victoria Mercanton, or Victoria Spiri-Mercanton (1911–2007), was a French film editor and director, born Victoria Aleksandr Pozner (Russian: Виктория Александровна Познер) on January 25, 1911, in Saint Petersburg, Russia, active from the 1930s to 1970s.Known as Toto, she was a frequent collaborator on the films of Roger Vadim, since his directorial debut in 1956 with And God Created Woman.\n\nAfter surviving a couple of disastrous fires of  nitrate film in the editing suite - including one which claimed the life of a director sitting next to her - Mercanton successfully lobbied the government to legislate that the French film industry switch to safety film by the mid-1950s. She flippantly explained to Vadim, \"You understand, I wanted to be able to smoke my Gauloises while working.\" Source: Wikidata; 01/08/2023", "biography_author": null, "date_of_biography": "2025-03-12T00:29:17.820094+11:00", "external_links": [{"id": 5316, "uri": "https://en.wikipedia.org/wiki/Victoria_Mercanton"}], "uuid": "a8c9d1ee-829b-4756-81e9-44a210fc4784", "source": {"name": "Vernon", "slug": "vernon"}, "source_identifier": "30125", "external_references": [{"id": 25405, "source": {"name": "Wikidata", "slug": "wikidata"}, "source_identifier": "Q19979226"}, {"id": 31910, "source": {"name": "VIAF", "slug": "viaf"}, "source_identifier": "18984983"}, {"id": 31911, "source": {"name": "LOC Auth", "slug": "loc-auth"}, "source_identifier": "n97870726"}, {"id": 31912, "source": {"name": "WorldCat", "slug": "worldcat"}, "source_identifier": "lccn-n97870726"}], "date_modified": "2025-03-12T00:29:17.820314+11:00"}, {"id": 74588, "name": "John Dease", "roles_in_work": [{"id": 2712683, "title": "Egretta", "work_id": 67043, "role": "narrator", "role_id": 499, "is_primary": false}], "also_known_as": "", "date_of_birth": "", "date_of_death": "", "genders": [{"id": 9, "name": "Male", "slug": "male"}], "languages": [], "places_of_operation": [], "biography": "", "biography_author": null, "date_of_biography": "2023-05-09T15:53:46.033848+10:00", "external_links": [], "uuid": "82ac0ef8-18c9-4653-a2ee-1f20d9bddb4d", "source": {"name": "Vernon", "slug": "vernon"}, "source_identifier": "37556", "external_references": [], "date_modified": "2025-03-12T00:28:54.582829+11:00"}, {"id": 74587, "name": "Dalton Muir", "roles_in_work": [{"id": 2715465, "title": "High Arctic: life on the land", "work_id": 68450, "role": "director", "role_id": 938, "is_primary": true}, {"id": 2712653, "title": "The Edge of the barrens", "work_id": 67022, "role": "director", "role_id": 938, "is_primary": true}, {"id": 746617, "title": "Life in the woodlot", "work_id": 69691, "role": "director", "role_id": 938, "is_primary": true}, {"id": 2347470, "title": "The Face of the high Arctic", "work_id": 87802, "role": "director", "role_id": 938, "is_primary": true}, {"id": 895896, "title": "The Spruce bog: an essay in ecology", "work_id": 73134, "role": "director", "role_id": 938, "is_primary": true}], "also_known_as": "", "date_of_birth": "", "date_of_death": "", "genders": [{"id": 9, "name": "Male", "slug": "male"}], "languages": [], "places_of_operation": [{"id": 36, "name": "Canada", "slug": "canada"}], "biography": "", "biography_author": null, "date_of_biography": "2023-05-09T19:49:51.452696+10:00", "external_links": [], "uuid": "f2658436-fcf4-4188-ba94-6da354d1314e", "source": {"name": "Vernon", "slug": "vernon"}, "source_identifier": "17337", "external_references": [{"id": 34245, "source": {"name": "Wikidata", "slug": "wikidata"}, "source_identifier": "Q3012562"}], "date_modified": "2025-03-12T01:35:51.152583+11:00"}, {"id": 74586, "name": "Rod Muir", "roles_in_work": [{"id": 2712620, "title": "Easy does it", "work_id": 67009, "role": "narrator", "role_id": 499, "is_primary": false}], "also_known_as": "", "date_of_birth": "", "date_of_death": "", "genders": [], "languages": [], "places_of_operation": [], "biography": "", "biography_author": null, "date_of_biography": "2023-07-05T03:46:40.514835+10:00", "external_links": [], "uuid": "512c750b-5918-4f69-a85b-dfa6e3853de3", "source": {"name": "Vernon", "slug": "vernon"}, "source_identifier": "39079", "external_references": [], "date_modified": "2025-03-12T00:26:45.531439+11:00"}, {"id": 74585, "name": "Harry Lloyd", "roles_in_work": [{"id": 2229652, "title": "Private eye", "work_id": 86904, "role": "sound", "role_id": 952, "is_primary": false}, {"id": 2712619, "title": "Easy does it", "work_id": 67009, "role": "sound", "role_id": 952, "is_primary": false}], "also_known_as": "", "date_of_birth": "", "date_of_death": "", "genders": [], "languages": [], "places_of_operation": [], "biography": "", "biography_author": null, "date_of_biography": "2023-07-05T03:46:40.204732+10:00", "external_links": [], "uuid": "1a36ec29-ff0c-423b-b29e-c41834414e47", "source": {"name": "Vernon", "slug": "vernon"}, "source_identifier": "39078", "external_references": [], "date_modified": "2025-03-12T00:26:43.779902+11:00"}, {"id": 74584, "name": "Anthony Gibb", "roles_in_work": [{"id": 2712617, "title": "Easy does it", "work_id": 67009, "role": "editor", "role_id": 918, "is_primary": true}], "also_known_as": "", "date_of_birth": "", "date_of_death": "", "genders": [], "languages": [], "places_of_operation": [], "biography": "", "biography_author": null, "date_of_biography": "2023-07-05T03:46:39.707588+10:00", "external_links": [], "uuid": "b4390824-c1cc-4aee-bc29-ce33bb64b239", "source": {"name": "Vernon", "slug": "vernon"}, "source_identifier": "33542", "external_references": [{"id": 40614, "source": {"name": "Wikidata", "slug": "wikidata"}, "source_identifier": "Q121144103"}], "date_modified": "2025-03-12T00:26:39.048505+11:00"}, {"id": 74583, "name": "Donald Winkler", "roles_in_work": [{"id": 760189, "title": "Travel log", "work_id": 75724, "role": "director", "role_id": 938, "is_primary": true}, {"id": 2647048, "title": "In praise of hands", "work_id": 75178, "role": "director", "role_id": 938, "is_primary": true}, {"id": 2647702, "title": "Doodle film", "work_id": 77107, "role": "director", "role_id": 938, "is_primary": true}, {"id": 2107903, "title": "Bannerfilm", "work_id": 76408, "role": "director", "role_id": 938, "is_primary": true}, {"id": 2171113, "title": "One man's garden", "work_id": 75780, "role": "director", "role_id": 938, "is_primary": true}, {"id": 2647962, "title": "Bookmaker's progress", "work_id": 77867, "role": "director", "role_id": 938, "is_primary": true}, {"id": 755605, "title": "Threads", "work_id": 73765, "role": "director", "role_id": 938, "is_primary": true}, {"id": 2712597, "title": "Earthware", "work_id": 67000, "role": "co-director", "role_id": 959, "is_primary": true}], "also_known_as": "", "date_of_birth": "25 JUL 1930", "date_of_death": "16 JUN 2010", "genders": [{"id": 5, "name": "Female", "slug": "female"}], "languages": [], "places_of_operation": [{"id": 36, "name": "Canada", "slug": "canada"}], "biography": "Maureen Kathleen Stewart Forrester,  (July 25, 1930 – June 16, 2010) was a Canadian operatic contralto. Source: Wikidata; 01/08/2023", "biography_author": null, "date_of_biography": "2025-03-12T00:25:59.539503+11:00", "external_links": [{"id": 3910, "uri": "https://en.wikipedia.org/wiki/Maureen_Forrester"}], "uuid": "e5f662c1-cb28-40d2-a977-d5db2cd7dbfc", "source": {"name": "Vernon", "slug": "vernon"}, "source_identifier": "18321", "external_references": [{"id": 26428, "source": {"name": "Wikidata", "slug": "wikidata"}, "source_identifier": "Q263172"}, {"id": 28241, "source": {"name": "VIAF", "slug": "viaf"}, "source_identifier": "2656093"}, {"id": 28242, "source": {"name": "LOC Auth", "slug": "loc-auth"}, "source_identifier": "n82101459"}, {"id": 28243, "source": {"name": "WorldCat", "slug": "worldcat"}, "source_identifier": "lccn-n82101459"}], "date_modified": "2025-03-12T00:25:59.539732+11:00"}]}