{"count": 28687, "next": "https://api.acmi.net.au/creators/?page=1113", "previous": "https://api.acmi.net.au/creators/?page=1111", "results": [{"id": 74462, "name": "R.E. Johannes", "roles_in_work": [{"id": 2680058, "title": "Cloud over the coral reef", "work_id": 66195, "role": "co-director", "role_id": 959, "is_primary": true}], "also_known_as": "", "date_of_birth": "", "date_of_death": "", "genders": [], "languages": [], "places_of_operation": [], "biography": "", "biography_author": null, "date_of_biography": "2023-05-09T13:36:44.024372+10:00", "external_links": [], "uuid": "c26df579-d09a-4967-980a-482d9e817732", "source": {"name": "Vernon", "slug": "vernon"}, "source_identifier": "27011", "external_references": [{"id": 35232, "source": {"name": "Wikidata", "slug": "wikidata"}, "source_identifier": "Q121271105"}], "date_modified": "2025-03-07T00:26:27.225851+11:00"}, {"id": 74461, "name": "Edward Plumb", "roles_in_work": [{"id": 2680055, "title": "Cloud over Ohio", "work_id": 66194, "role": "director", "role_id": 938, "is_primary": true}], "also_known_as": "", "date_of_birth": "", "date_of_death": "", "genders": [], "languages": [], "places_of_operation": [], "biography": "", "biography_author": null, "date_of_biography": "2023-05-09T13:36:42.083143+10:00", "external_links": [], "uuid": "1ee537a2-6f78-43e4-9c70-937cb40d284a", "source": {"name": "Vernon", "slug": "vernon"}, "source_identifier": "18634", "external_references": [{"id": 38131, "source": {"name": "Wikidata", "slug": "wikidata"}, "source_identifier": "Q121223362"}], "date_modified": "2025-03-07T00:26:25.157496+11:00"}, {"id": 74460, "name": "Michael Rubetzki", "roles_in_work": [{"id": 2680038, "title": "Clockwork lemon", "work_id": 66187, "role": "director", "role_id": 938, "is_primary": true}, {"id": 3108282, "title": "Teja: a Sikh priest", "work_id": 75390, "role": "director", "role_id": 938, "is_primary": true}, {"id": 2293494, "title": "What is a Jew to you?", "work_id": 80239, "role": "producer", "role_id": 1089, "is_primary": true}, {"id": 2051539, "title": "[Democracy]", "work_id": 81139, "role": "producer", "role_id": 1089, "is_primary": true}, {"id": 2309762, "title": "Staying upfront", "work_id": 76794, "role": "producer", "role_id": 1089, "is_primary": true}, {"id": 2392556, "title": "Renewable energy in Australia", "work_id": 77445, "role": "producer", "role_id": 1089, "is_primary": true}], "also_known_as": "", "date_of_birth": "", "date_of_death": "", "genders": [], "languages": [], "places_of_operation": [], "biography": "", "biography_author": null, "date_of_biography": "2023-08-09T03:57:36.112198+10:00", "external_links": [], "uuid": "4e2f6055-79d6-43ae-a0fc-6f95aa8492c7", "source": {"name": "Vernon", "slug": "vernon"}, "source_identifier": "24177", "external_references": [{"id": 33142, "source": {"name": "Wikidata", "slug": "wikidata"}, "source_identifier": "Q121035824"}], "date_modified": "2025-09-25T16:25:51.773418+10:00"}, {"id": 74459, "name": "Donald Mulholland", "roles_in_work": [{"id": 3086030, "title": "Handling", "work_id": 90629, "role": "director", "role_id": 938, "is_primary": true}, {"id": 3086020, "title": "Machines", "work_id": 90636, "role": "director", "role_id": 938, "is_primary": true}, {"id": 3086011, "title": "Organization", "work_id": 90620, "role": "director", "role_id": 938, "is_primary": true}, {"id": 2079227, "title": "Accidents don't happen. Ch. 4: falls", "work_id": 91002, "role": "director", "role_id": 938, "is_primary": true}, {"id": 3086044, "title": "Accidents don't happen", "work_id": 115617, "role": "director", "role_id": 938, "is_primary": true}, {"id": 2285441, "title": "What's under the label", "work_id": 74657, "role": "producer", "role_id": 1089, "is_primary": true}, {"id": 2680026, "title": "Cliff hangers [B&W]", "work_id": 66182, "role": "producer", "role_id": 1089, "is_primary": true}, {"id": 2715909, "title": "Hunters of the North Pole", "work_id": 68682, "role": "producer", "role_id": 1089, "is_primary": true}, {"id": 2079232, "title": "Accidents don't happen. Ch. 5: safe clothing", "work_id": 90985, "role": "producer", "role_id": 1089, "is_primary": true}, {"id": 1815767, "title": "From the files of the R.C.M.P.: file 1365 - the Connors case", "work_id": 89942, "role": "producer", "role_id": 1089, "is_primary": true}, {"id": 2139924, "title": "Cliff hangers", "work_id": 85300, "role": "producer", "role_id": 1089, "is_primary": true}, {"id": 1817023, "title": "White fortress", "work_id": 74700, "role": "producer", "role_id": 1089, "is_primary": true}], "also_known_as": "", "date_of_birth": "", "date_of_death": "", "genders": [], "languages": [], "places_of_operation": [], "biography": "", "biography_author": null, "date_of_biography": "2023-05-09T18:08:53.055860+10:00", "external_links": [], "uuid": "fb6ba0c6-ce25-44be-8bfb-15b4741a531b", "source": {"name": "Vernon", "slug": "vernon"}, "source_identifier": "18304", "external_references": [], "date_modified": "2025-03-17T10:42:18.776372+11:00"}, {"id": 74458, "name": "Jerome Levy", "roles_in_work": [{"id": 2750705, "title": "The Hungry miles", "work_id": 97459, "role": "co-director", "role_id": 959, "is_primary": true}, {"id": 2644410, "title": "Click go the shears", "work_id": 66181, "role": "co-director", "role_id": 959, "is_primary": true}, {"id": 2078914, "title": "Aboriginal culture", "work_id": 76317, "role": "co-director", "role_id": 959, "is_primary": true}], "also_known_as": "", "date_of_birth": "", "date_of_death": "", "genders": [], "languages": [], "places_of_operation": [], "biography": "", "biography_author": null, "date_of_biography": "2023-08-09T03:43:20.601075+10:00", "external_links": [], "uuid": "5642871e-daa0-4937-b353-de46fbd87ceb", "source": {"name": "Vernon", "slug": "vernon"}, "source_identifier": "21776", "external_references": [{"id": 40690, "source": {"name": "Wikidata", "slug": "wikidata"}, "source_identifier": "Q121091158"}], "date_modified": "2025-03-13T00:27:19.705846+11:00"}, {"id": 74457, "name": "Tibor Hirsch", "roles_in_work": [{"id": 2679973, "title": "The City: time of decision", "work_id": 66152, "role": "producer/director", "role_id": 31, "is_primary": true}], "also_known_as": "", "date_of_birth": "", "date_of_death": "", "genders": [], "languages": [], "places_of_operation": [], "biography": "", "biography_author": null, "date_of_biography": "2023-05-09T19:34:27.473738+10:00", "external_links": [], "uuid": "5546f415-798c-49b2-bc3f-a8e20dae6f56", "source": {"name": "Vernon", "slug": "vernon"}, "source_identifier": "29720", "external_references": [{"id": 52175, "source": {"name": "Wikidata", "slug": "wikidata"}, "source_identifier": "Q121360655"}], "date_modified": "2025-03-07T00:25:27.368029+11:00"}, {"id": 74456, "name": "Ryan Larkin", "roles_in_work": [{"id": 2315236, "title": "Street musique", "work_id": 73293, "role": "producer", "role_id": 1089, "is_primary": true}, {"id": 2679971, "title": "Cityscape: impressions of a city", "work_id": 66151, "role": "producer/director", "role_id": 31, "is_primary": true}, {"id": 758851, "title": "Walking", "work_id": 75170, "role": "producer/director", "role_id": 31, "is_primary": true}], "also_known_as": "", "date_of_birth": "31 JUL 1943", "date_of_death": "14 FEB 2007", "genders": [{"id": 9, "name": "Male", "slug": "male"}], "languages": [], "places_of_operation": [{"id": 36, "name": "Canada", "slug": "canada"}], "biography": "Ryan Larkin (July 31, 1943 – February 14, 2007) was a Canadian animator, artist, and sculptor who rose to fame with the psychedelic Oscar-nominated short Walking (1968) and the acclaimed Street Musique (1972). He was the subject of the Oscar-winning film Ryan. Source: Wikidata; 01/08/2023", "biography_author": null, "date_of_biography": "2025-03-07T00:25:25.893262+11:00", "external_links": [{"id": 5096, "uri": "https://en.wikipedia.org/wiki/Ryan_Larkin"}], "uuid": "b08791ae-b86b-4c39-b66e-6968952b8573", "source": {"name": "Vernon", "slug": "vernon"}, "source_identifier": "12191", "external_references": [{"id": 25451, "source": {"name": "Wikidata", "slug": "wikidata"}, "source_identifier": "Q362718"}, {"id": 31357, "source": {"name": "VIAF", "slug": "viaf"}, "source_identifier": "61297932"}, {"id": 31358, "source": {"name": "LOC Auth", "slug": "loc-auth"}, "source_identifier": "no2006053599"}, {"id": 31359, "source": {"name": "WorldCat", "slug": "worldcat"}, "source_identifier": "lccn-no2006053599"}], "date_modified": "2025-03-07T00:25:25.893535+11:00"}, {"id": 74455, "name": "Gordon Burwash", "roles_in_work": [{"id": 860485, "title": "The War on want", "work_id": 74469, "role": "director", "role_id": 938, "is_primary": true}, {"id": 2679958, "title": "City scene", "work_id": 66145, "role": "co-director", "role_id": 959, "is_primary": true}, {"id": 2679956, "title": "City scene", "work_id": 66145, "role": "co-producer", "role_id": 915, "is_primary": true}, {"id": 2346943, "title": "The Ernie game", "work_id": 87765, "role": "co-producer", "role_id": 915, "is_primary": true}, {"id": 2644742, "title": "Farewell Oak Street", "work_id": 67402, "role": "producer", "role_id": 1089, "is_primary": true}], "also_known_as": "", "date_of_birth": "", "date_of_death": "", "genders": [], "languages": [], "places_of_operation": [], "biography": "", "biography_author": null, "date_of_biography": "2023-05-09T19:48:37.504804+10:00", "external_links": [], "uuid": "8e33be63-b7dd-4230-8e59-3a228d60ccec", "source": {"name": "Vernon", "slug": "vernon"}, "source_identifier": "19928", "external_references": [{"id": 35947, "source": {"name": "Wikidata", "slug": "wikidata"}, "source_identifier": "Q121078836"}], "date_modified": "2025-03-07T00:25:15.916618+11:00"}, {"id": 74454, "name": "Peter Reinshagen", "roles_in_work": [{"id": 2679954, "title": "A City reborn", "work_id": 66144, "role": "producer/director", "role_id": 31, "is_primary": true}], "also_known_as": "", "date_of_birth": "", "date_of_death": "", "genders": [], "languages": [], "places_of_operation": [], "biography": "", "biography_author": null, "date_of_biography": "2023-05-09T11:23:11.303872+10:00", "external_links": [], "uuid": "f9b137aa-db68-4d1a-8bfb-9763732615c8", "source": {"name": "Vernon", "slug": "vernon"}, "source_identifier": "26682", "external_references": [{"id": 51898, "source": {"name": "Wikidata", "slug": "wikidata"}, "source_identifier": "Q121360738"}], "date_modified": "2025-03-07T00:25:13.210153+11:00"}, {"id": 74453, "name": "Laurence Hyde", "roles_in_work": [{"id": 854595, "title": "The Living gallery", "work_id": 69803, "role": "director", "role_id": 938, "is_primary": true}, {"id": 2267558, "title": "Tuktu and the indoor games", "work_id": 74071, "role": "director", "role_id": 938, "is_primary": true}, {"id": 2267583, "title": "Tuktu and the clever hands", "work_id": 74070, "role": "director", "role_id": 938, "is_primary": true}, {"id": 2267490, "title": "Tuktu and the ten thousand fishes", "work_id": 74075, "role": "director", "role_id": 938, "is_primary": true}, {"id": 2644396, "title": "City limits", "work_id": 66140, "role": "director", "role_id": 938, "is_primary": true}, {"id": 2267548, "title": "Tuktu and the caribou hunt", "work_id": 74069, "role": "director", "role_id": 938, "is_primary": true}, {"id": 2267467, "title": "Tuktu and the big seal", "work_id": 74068, "role": "director", "role_id": 938, "is_primary": true}, {"id": 2646702, "title": "Tuktu and the big kayak", "work_id": 74067, "role": "director", "role_id": 938, "is_primary": true}, {"id": 2646705, "title": "Tuktu and the snow palace", "work_id": 74074, "role": "director", "role_id": 938, "is_primary": true}, {"id": 871792, "title": "Third dimension", "work_id": 87294, "role": "director", "role_id": 938, "is_primary": true}, {"id": 2351993, "title": "The Great Canadian shield", "work_id": 89856, "role": "director", "role_id": 938, "is_primary": true}, {"id": 2267455, "title": "Tuktu and his nice new clothes", "work_id": 74066, "role": "director", "role_id": 938, "is_primary": true}, {"id": 2267516, "title": "Tuktu and the magic spear", "work_id": 74073, "role": "director", "role_id": 938, "is_primary": true}, {"id": 2267525, "title": "Tuktu and his animal friends", "work_id": 74064, "role": "director", "role_id": 938, "is_primary": true}, {"id": 2267594, "title": "Tuktu and the trials of strength", "work_id": 74076, "role": "director", "role_id": 938, "is_primary": true}, {"id": 2267501, "title": "Tuktu and the magic bow", "work_id": 74072, "role": "director", "role_id": 938, "is_primary": true}, {"id": 3081763, "title": "En roulant ma boule. A la claire fontaine.", "work_id": 76200, "role": "co-director", "role_id": 959, "is_primary": true}, {"id": 2644394, "title": "City limits", "work_id": 66140, "role": "co-producer", "role_id": 915, "is_primary": true}, {"id": 2125834, "title": "Bronco busters", "work_id": 85811, "role": "producer", "role_id": 1089, "is_primary": true}, {"id": 2644735, "title": "Family house", "work_id": 67390, "role": "producer/director", "role_id": 31, "is_primary": true}], "also_known_as": "", "date_of_birth": "", "date_of_death": "", "genders": [], "languages": [], "places_of_operation": [], "biography": "", "biography_author": null, "date_of_biography": "2023-05-09T19:57:46.635635+10:00", "external_links": [], "uuid": "a3b28d1d-21f3-40d7-8767-2e8941c89463", "source": {"name": "Vernon", "slug": "vernon"}, "source_identifier": "23545", "external_references": [{"id": 34106, "source": {"name": "Wikidata", "slug": "wikidata"}, "source_identifier": "Q121270941"}], "date_modified": "2025-03-17T10:25:53.710332+11:00"}]}