{"count": 28682, "next": "https://api.acmi.net.au/creators/?page=2088", "previous": "https://api.acmi.net.au/creators/?page=2086", "results": [{"id": 20787, "name": "Robert Ketton", "roles_in_work": [{"id": 2647921, "title": "Stepfamily Dynamics", "work_id": 77810, "role": "producer", "role_id": 1089, "is_primary": true}], "also_known_as": "", "date_of_birth": "", "date_of_death": "", "genders": [], "languages": [], "places_of_operation": [], "biography": "", "biography_author": null, "date_of_biography": "2023-05-09T18:51:07.904868+10:00", "external_links": [], "uuid": "13281428-6074-4c32-8ec2-ec8a3f8f62a2", "source": {"name": "Vernon", "slug": "vernon"}, "source_identifier": "27782", "external_references": [{"id": 40525, "source": {"name": "Wikidata", "slug": "wikidata"}, "source_identifier": "Q121159954"}], "date_modified": "2025-03-05T13:36:01.835022+11:00"}, {"id": 20785, "name": "Ross Christopher", "roles_in_work": [{"id": 2752762, "title": "Acoustic behaviour of the grey kangaroo", "work_id": 98443, "role": "director", "role_id": 938, "is_primary": true}, {"id": 1818781, "title": "The Consequences of nuclear war", "work_id": 77808, "role": "producer", "role_id": 1089, "is_primary": true}], "also_known_as": "", "date_of_birth": null, "date_of_death": null, "genders": [], "languages": [], "places_of_operation": [], "biography": "", "biography_author": null, "date_of_biography": null, "external_links": [], "uuid": "72a4f738-eb7d-472c-aca2-efb7c7bd7f49", "source": {"name": "Vernon", "slug": "vernon"}, "source_identifier": "28261", "external_references": [], "date_modified": "2025-03-13T01:11:24.266042+11:00"}, {"id": 20784, "name": "Australian National University", "roles_in_work": [{"id": 2781474, "title": "The Bat and the rainbow", "work_id": 82151, "role": "production company", "role_id": 941, "is_primary": true}, {"id": 2781455, "title": "Why the emu cannot fly", "work_id": 82150, "role": "production company", "role_id": 941, "is_primary": true}, {"id": 2781433, "title": "Inganarr the giant serpent", "work_id": 82149, "role": "production company", "role_id": 941, "is_primary": true}, {"id": 2752761, "title": "Acoustic behaviour of the grey kangaroo", "work_id": 98443, "role": "production company", "role_id": 941, "is_primary": true}, {"id": 765336, "title": "The Consequences of nuclear war", "work_id": 77808, "role": "production company", "role_id": 941, "is_primary": true}, {"id": 2781495, "title": "Aboriginal legends", "work_id": 115259, "role": "production company", "role_id": 941, "is_primary": true}], "also_known_as": "", "date_of_birth": "", "date_of_death": "", "genders": [], "languages": [], "places_of_operation": [], "biography": "The Australian National University (ANU) is a public research university and member of the Group of Eight, located in Canberra, the capital of Australia. Its main campus in Acton encompasses seven teaching and research colleges, in addition to several national academies and institutes.Established in 1946, ANU is the only university to have been created by the Parliament of Australia. It traces its origins to Canberra University College, which was established in 1929 and was integrated into ANU in 1960. ANU enrols 13,329 undergraduate and 11,021 postgraduate students and employs 4,517 staff. The university's endowment stood at A$1.8 billion as of 2018.ANU counts six Nobel laureates and 49 Rhodes scholars among its faculty and alumni. The university has educated two prime ministers and more than a dozen current heads of government departments of Australia. The latest releases of ANU's scholarly publications are held through ANU Press online.", "biography_author": "Wikidata", "date_of_biography": "2023-09-05T17:51:07.396402+10:00", "external_links": [{"id": 5696, "uri": "https://en.wikipedia.org/wiki/Australian_National_University"}], "uuid": "f9f67b6a-0bef-42ee-9f58-b7aaaf4549a3", "source": {"name": "Vernon", "slug": "vernon"}, "source_identifier": "5602", "external_references": [{"id": 39736, "source": {"name": "Wikidata", "slug": "wikidata"}, "source_identifier": "Q127990"}, {"id": 54023, "source": {"name": "VIAF", "slug": "viaf"}, "source_identifier": "148378767"}, {"id": 54024, "source": {"name": "LOC Auth", "slug": "loc-auth"}, "source_identifier": "n80126190"}, {"id": 54025, "source": {"name": "WorldCat", "slug": "worldcat"}, "source_identifier": "lccn-n80126190"}], "date_modified": "2025-03-14T19:09:29.656291+11:00"}, {"id": 20782, "name": "People for Nuclear Disarmament", "roles_in_work": [{"id": 2466221, "title": "Stop the drop: a concert for nuclear disarmament", "work_id": 77805, "role": "production company", "role_id": 941, "is_primary": true}], "also_known_as": "", "date_of_birth": "", "date_of_death": "", "genders": [], "languages": [], "places_of_operation": [], "biography": "", "biography_author": null, "date_of_biography": "2023-08-14T10:52:29.375620+10:00", "external_links": [], "uuid": "34185b16-6c08-49c2-a90d-5351035a6940", "source": {"name": "Vernon", "slug": "vernon"}, "source_identifier": "11398", "external_references": [], "date_modified": "2023-08-14T10:52:29.375940+10:00"}, {"id": 20773, "name": "Harrison Films", "roles_in_work": [{"id": 2409011, "title": "Hannah and the dog ghost", "work_id": 77798, "role": "production company", "role_id": 941, "is_primary": true}], "also_known_as": "", "date_of_birth": "", "date_of_death": "", "genders": [], "languages": [], "places_of_operation": [], "biography": "", "biography_author": null, "date_of_biography": "2023-08-11T17:13:25.721777+10:00", "external_links": [], "uuid": "8024250f-10ca-464a-a26c-e3c20419760a", "source": {"name": "Vernon", "slug": "vernon"}, "source_identifier": "9004", "external_references": [], "date_modified": "2023-08-11T17:13:25.722026+10:00"}, {"id": 20772, "name": "Ann Paul", "roles_in_work": [{"id": 2760791, "title": "A Gentle way with cancer no.1", "work_id": 77797, "role": "producer", "role_id": 1089, "is_primary": true}], "also_known_as": "", "date_of_birth": "", "date_of_death": "", "genders": [], "languages": [], "places_of_operation": [], "biography": "", "biography_author": null, "date_of_biography": "2023-08-11T13:02:26.576408+10:00", "external_links": [], "uuid": "aa5ebbf1-a44e-4076-b8c4-416616ba8bfb", "source": {"name": "Vernon", "slug": "vernon"}, "source_identifier": "15294", "external_references": [], "date_modified": "2025-03-14T17:28:19.393368+11:00"}, {"id": 20770, "name": "Victoria. TAFE Transition Unit", "roles_in_work": [{"id": 2466558, "title": "That's one of my talents", "work_id": 77794, "role": "production company", "role_id": 941, "is_primary": true}, {"id": 2466559, "title": "That's one of my talents (Captioned)", "work_id": 79782, "role": "production company", "role_id": 941, "is_primary": true}], "also_known_as": "", "date_of_birth": "", "date_of_death": "", "genders": [], "languages": [], "places_of_operation": [], "biography": "", "biography_author": null, "date_of_biography": "2023-08-14T11:00:07.435908+10:00", "external_links": [], "uuid": "6b5a3f20-996a-46b2-a61c-5eebd655493a", "source": {"name": "Vernon", "slug": "vernon"}, "source_identifier": "13139", "external_references": [], "date_modified": "2023-08-14T11:00:07.436205+10:00"}, {"id": 20768, "name": "Fiz Oliver", "roles_in_work": [{"id": 1804268, "title": "The Impersonation", "work_id": 78344, "role": "producer", "role_id": 1089, "is_primary": true}, {"id": 2406741, "title": "Elizabeth Maconchy", "work_id": 78346, "role": "producer", "role_id": 1089, "is_primary": true}, {"id": 1818776, "title": "Clothespeak", "work_id": 77792, "role": "producer", "role_id": 1089, "is_primary": true}], "also_known_as": "", "date_of_birth": "", "date_of_death": "", "genders": [], "languages": [], "places_of_operation": [], "biography": "", "biography_author": null, "date_of_biography": "2023-08-11T16:20:42.287431+10:00", "external_links": [], "uuid": "7e69798a-ea93-430e-8ed0-e82ef3487014", "source": {"name": "Vernon", "slug": "vernon"}, "source_identifier": "19015", "external_references": [], "date_modified": "2023-08-11T16:20:42.287674+10:00"}, {"id": 20765, "name": "Peggy Okeya", "roles_in_work": [{"id": 2469606, "title": "Urashima Taro: a Japanese folk tale", "work_id": 77788, "role": "producer", "role_id": 1089, "is_primary": true}], "also_known_as": "", "date_of_birth": "", "date_of_death": "", "genders": [], "languages": [], "places_of_operation": [], "biography": "", "biography_author": null, "date_of_biography": "2023-08-14T12:04:57.193549+10:00", "external_links": [], "uuid": "090e8acb-e3bb-4d6e-8c5c-6fbb85135041", "source": {"name": "Vernon", "slug": "vernon"}, "source_identifier": "26399", "external_references": [], "date_modified": "2023-08-14T12:04:57.193784+10:00"}, {"id": 20758, "name": "Robert Elfstrom", "roles_in_work": [{"id": 2463605, "title": "Moses Pendleton presents Moses Pendleton", "work_id": 77780, "role": "director", "role_id": 938, "is_primary": true}], "also_known_as": "", "date_of_birth": "1953-01-01", "date_of_death": "", "genders": [{"id": 9, "name": "Male", "slug": "male"}], "languages": [], "places_of_operation": [{"id": 1, "name": "United States of America", "slug": "united-states-of-america"}], "biography": "", "biography_author": null, "date_of_biography": "2023-08-14T09:54:14.063706+10:00", "external_links": [], "uuid": "d55e227f-4997-44cb-99dc-ca6cdf08e987", "source": {"name": "Vernon", "slug": "vernon"}, "source_identifier": "27709", "external_references": [{"id": 40933, "source": {"name": "Wikidata", "slug": "wikidata"}, "source_identifier": "Q3435041"}], "date_modified": "2023-09-06T00:40:58.983503+10:00"}]}