{"count": 28687, "next": "https://api.acmi.net.au/creators/?page=720", "previous": "https://api.acmi.net.au/creators/?page=718", "results": [{"id": 78393, "name": "Tracy Riddiford", "roles_in_work": [{"id": 2102604, "title": "Assertive team communication", "work_id": 87049, "role": "co-producer", "role_id": 915, "is_primary": true}], "also_known_as": "", "date_of_birth": "", "date_of_death": "", "genders": [], "languages": [], "places_of_operation": [], "biography": "", "biography_author": null, "date_of_biography": "2023-05-09T12:33:33.775639+10:00", "external_links": [], "uuid": "13af6bb3-b9a3-4725-b421-02d255c96eef", "source": {"name": "Vernon", "slug": "vernon"}, "source_identifier": "29959", "external_references": [{"id": 37594, "source": {"name": "Wikidata", "slug": "wikidata"}, "source_identifier": "Q121036894"}], "date_modified": "2023-09-06T01:58:04.007531+10:00"}, {"id": 78392, "name": "Francis Gerard", "roles_in_work": [{"id": 2794344, "title": "Another balls-aching week", "work_id": 87034, "role": "producer/director", "role_id": 31, "is_primary": true}, {"id": 2794338, "title": "Lewis Carroll country", "work_id": 87036, "role": "producer/director", "role_id": 31, "is_primary": true}, {"id": 2794332, "title": "A Democratic time-bomb", "work_id": 87038, "role": "producer/director", "role_id": 31, "is_primary": true}, {"id": 2794335, "title": "Restraint in difficult situations", "work_id": 87037, "role": "producer/director", "role_id": 31, "is_primary": true}, {"id": 2794341, "title": "Loosening the screws", "work_id": 87035, "role": "producer/director", "role_id": 31, "is_primary": true}], "also_known_as": "", "date_of_birth": "", "date_of_death": "", "genders": [], "languages": [], "places_of_operation": [], "biography": "", "biography_author": null, "date_of_biography": "2023-05-09T17:08:54.280127+10:00", "external_links": [], "uuid": "e59c9a96-c21a-4bc8-a052-a5806c78415b", "source": {"name": "Vernon", "slug": "vernon"}, "source_identifier": "19045", "external_references": [{"id": 51272, "source": {"name": "Wikidata", "slug": "wikidata"}, "source_identifier": "Q121361436"}], "date_modified": "2025-03-14T20:24:49.115174+11:00"}, {"id": 78391, "name": "Harry Nilsson", "roles_in_work": [{"id": 2475939, "title": "The Point", "work_id": 87026, "role": "co-producer", "role_id": 915, "is_primary": true}], "also_known_as": "Harry Edward Nilsson III", "date_of_birth": "1941-06-15", "date_of_death": "1994-01-15", "genders": [{"id": 9, "name": "Male", "slug": "male"}], "languages": [{"id": 1, "name": "English", "slug": "english"}], "places_of_operation": [{"id": 1, "name": "United States of America", "slug": "united-states-of-america"}], "biography": "Harry Edward Nilsson III (June 15, 1941 –January 15, 1994), sometimes credited as Nilsson, was an American singer-songwriter who reached the peak of his success in the early 1970s. His work is characterized by pioneering vocal overdub experiments, returns to the Great American Songbook, and fusions of Caribbean sounds. Nilsson was one of the few major pop-rock recording artists to achieve significant commercial success without ever performing major public concerts or undertaking regular tours.Born in Brooklyn, Nilsson moved to Los Angeles as a teenager to escape his family's poor financial situation. While working as a computer programmer at a bank, he grew interested in musical composition and close-harmony singing and was successful in having some of his songs recorded by various artists, such as the Monkees. In 1967, he debuted on RCA Victor with the LP Pandemonium Shadow Show, followed by a variety of releases that included a collaboration with Randy Newman (Nilsson Sings Newman, 1970) and the original children's story The Point! (1971). He created the first remix album (Aerial Pandemonium Ballet, 1971) and recorded the first mashup song ( \"You Can't Do That\", 1967). His most commercially successful album, Nilsson Schmilsson (1971), produced the international top 10 singles \"Without You\" and \"Coconut\". His other top 10 hit, \"Everybody's Talkin'\" (1968), was featured prominently in the 1969 film Midnight Cowboy. A version of Nilsson's \"One\", released by Three Dog Night in 1969, also reached the U.S. top 10.During a 1968 press conference, the Beatles were asked what their favorite American group was and answered \"Nilsson\". Sometimes called \"the American Beatle\", he soon formed close friendships with John Lennon and Ringo Starr, joining them in the Hollywood Vampires drinking club. He and Lennon produced one collaborative album, Pussy Cats (1974). After 1977, Nilsson left RCA, and his record output diminished. In response to Lennon's 1980 murder, he took a hiatus from the music industry to campaign for gun control. For the rest of his life, he recorded only sporadically. In 1994, Nilsson died of a heart attack while in the midst of recording what became his last album, Losst and Founnd (2019).\nThe craft of Nilsson's songs and the defiant attitude he projected remain touchstones for later generations of indie rock musicians. Nilsson was voted No. 62 in Rolling Stone's 2015 list of the \"100 Greatest Songwriters of All Time\", where he was described as \"a pioneer of the Los Angeles studio sound\" and \"a crucial bridge\" between 1960s psychedelia and the 1970s singer-songwriter era. The RIAA certified Nilsson Schmilsson and Son of Schmilsson (1972) as gold records, indicating over 500,000 units sold each. He earned two Grammy Awards (for \"Everybody's Talkin'\" and \"Without You\").\n\n", "biography_author": "Wikidata", "date_of_biography": "2023-09-05T20:31:23.638067+10:00", "external_links": [{"id": 2203, "uri": "https://en.wikipedia.org/wiki/Harry_Nilsson"}], "uuid": "a5494100-c3aa-4af8-a4af-5060761476dc", "source": {"name": "Vernon", "slug": "vernon"}, "source_identifier": "20337", "external_references": [{"id": 9475, "source": {"name": "Wikidata", "slug": "wikidata"}, "source_identifier": "Q281034"}, {"id": 9476, "source": {"name": "VIAF", "slug": "viaf"}, "source_identifier": "115794039"}, {"id": 9477, "source": {"name": "LOC Auth", "slug": "loc-auth"}, "source_identifier": "n91127356"}, {"id": 9478, "source": {"name": "WorldCat", "slug": "worldcat"}, "source_identifier": "lccn-n91127356"}], "date_modified": "2023-09-05T20:31:24.251680+10:00"}, {"id": 78390, "name": "Larry Gordon", "roles_in_work": [{"id": 2475938, "title": "The Point", "work_id": 87026, "role": "co-producer", "role_id": 915, "is_primary": true}], "also_known_as": "", "date_of_birth": "1945", "date_of_death": "", "genders": [], "languages": [], "places_of_operation": [], "biography": "", "biography_author": null, "date_of_biography": "2023-08-17T15:14:36.226272+10:00", "external_links": [], "uuid": "8f8a8c90-8dfc-4d6b-a058-51497f4ae2eb", "source": {"name": "Vernon", "slug": "vernon"}, "source_identifier": "23481", "external_references": [{"id": 33103, "source": {"name": "Wikidata", "slug": "wikidata"}, "source_identifier": "Q121126192"}], "date_modified": "2023-09-05T22:14:07.693494+10:00"}, {"id": 78389, "name": "Jerry Good", "roles_in_work": [{"id": 2475937, "title": "The Point", "work_id": 87026, "role": "co-producer", "role_id": 915, "is_primary": true}], "also_known_as": "", "date_of_birth": "", "date_of_death": "", "genders": [], "languages": [], "places_of_operation": [], "biography": "", "biography_author": null, "date_of_biography": "2023-08-17T15:14:35.608777+10:00", "external_links": [], "uuid": "5f8f14e9-e967-4ee2-886a-82292b4f6463", "source": {"name": "Vernon", "slug": "vernon"}, "source_identifier": "21794", "external_references": [{"id": 33005, "source": {"name": "Wikidata", "slug": "wikidata"}, "source_identifier": "Q121079360"}], "date_modified": "2023-09-05T21:22:42.408895+10:00"}, {"id": 78388, "name": "Jack Sher", "roles_in_work": [{"id": 2326118, "title": "The 3 worlds of Gulliver", "work_id": 87022, "role": "director", "role_id": 938, "is_primary": true}], "also_known_as": "John Jacob Sher", "date_of_birth": "1913-03-16", "date_of_death": "1988-08-23", "genders": [{"id": 9, "name": "Male", "slug": "male"}], "languages": [{"id": 1, "name": "English", "slug": "english"}], "places_of_operation": [{"id": 1, "name": "United States of America", "slug": "united-states-of-america"}], "biography": "John Jacob Sher (16 March 1913 – 23 August 1988) was an American newspaper columnist, songwriter, film director, film writer, and producer.", "biography_author": "Wikidata", "date_of_biography": "2023-08-01T15:18:17.516894+10:00", "external_links": [{"id": 4226, "uri": "https://en.wikipedia.org/wiki/Jack_Sher"}], "uuid": "c78bfb7a-5b6f-4cd8-9f50-81d4a29b2927", "source": {"name": "Vernon", "slug": "vernon"}, "source_identifier": "21092", "external_references": [{"id": 26316, "source": {"name": "Wikidata", "slug": "wikidata"}, "source_identifier": "Q1677204"}, {"id": 29095, "source": {"name": "VIAF", "slug": "viaf"}, "source_identifier": "46947615"}, {"id": 29096, "source": {"name": "LOC Auth", "slug": "loc-auth"}, "source_identifier": "no2002101034"}, {"id": 29097, "source": {"name": "WorldCat", "slug": "worldcat"}, "source_identifier": "lccn-no2002101034"}], "date_modified": "2023-09-05T20:56:59.295671+10:00"}, {"id": 78387, "name": "Ringo Starr", "roles_in_work": [{"id": 1991346, "title": "Magical mystery tour", "work_id": 86997, "role": "co-director", "role_id": 959, "is_primary": true}, {"id": 907121, "title": "Magical mystery tour", "work_id": 87751, "role": "co-director", "role_id": 959, "is_primary": true}], "also_known_as": "Richard Henry Parkin Starkey-Graves, Jr.", "date_of_birth": "1940-07-07", "date_of_death": null, "genders": [{"id": 9, "name": "Male", "slug": "male"}], "languages": [{"id": 1, "name": "English", "slug": "english"}], "places_of_operation": [{"id": 10, "name": "United Kingdom", "slug": "united-kingdom"}], "biography": "Sir Richard Starkey  (born 7 July 1940), known professionally as Ringo Starr, is an English musician, songwriter and actor who achieved international fame as the drummer for the Beatles. Starr occasionally sang lead vocals with the group, usually for one song on each album, including \"Yellow Submarine\" and \"With a Little Help from My Friends\". He also wrote and sang the Beatles songs \"Don't Pass Me By\" and \"Octopus's Garden\", and is credited as a co-writer of four others. \nStarr was afflicted by life-threatening illnesses during childhood, with periods of prolonged hospitalisation. He briefly held a position with British Rail before securing an apprenticeship as a machinist at a Liverpool school equipment manufacturer. Soon afterwards, Starr became interested in the UK skiffle craze and developed a fervent admiration for the genre. In 1957, he co-founded his first band, the Eddie Clayton Skiffle Group, which earned several prestigious local bookings before the fad succumbed to American rock and roll around early 1958. When the Beatles formed in 1960, Starr was a member of another Liverpool group, Rory Storm and the Hurricanes. After achieving moderate success in the UK and Hamburg, he quit the Hurricanes when he was asked to join the Beatles in August 1962, replacing Pete Best. \nIn addition to the Beatles' films, Starr has acted in numerous others. After the band's break-up in 1970, he released several successful singles including the US top-ten hit \"It Don't Come Easy\", and number ones \"Photograph\" and \"You're Sixteen\". His most successful UK single was \"Back Off Boogaloo\", which peaked at number two. He achieved commercial and critical success with his 1973 album Ringo, which was a top-ten release in both the UK and the US. Starr has featured in numerous documentaries, hosted television shows, narrated the first two series of the children's television program Thomas & Friends and portrayed \"Mr. Conductor\" during the first season of the PBS children's television series Shining Time Station. Since 1989, he has toured with thirteen variations of Ringo Starr & His All-Starr Band.\nStarr's playing style, which emphasised feel over technical virtuosity, influenced many drummers to reconsider their playing from a compositional perspective. He also influenced various modern drumming techniques, such as the matched grip, tuning the drums lower, and using muffling devices on tonal rings. In his opinion, his finest recorded performance was on the Beatles' \"Rain\". In 1999, he was inducted into the Modern Drummer Hall of Fame. In 2011, Rolling Stone readers named him the fifth-greatest drummer of all time. He was inducted twice into the Rock and Roll Hall of Fame, as a Beatle in 1988 and as a solo artist in 2015, and appointed a Knight Bachelor in the 2018 New Year Honours for services to music. In 2020, he was cited as the wealthiest drummer in the world, with a net worth of $350 million.", "biography_author": "Wikidata", "date_of_biography": "2023-09-06T00:35:48.640469+10:00", "external_links": [{"id": 6136, "uri": "https://en.wikipedia.org/wiki/Ringo_Starr"}], "uuid": "432dd0fc-2d06-4892-aa0a-5b810c616a10", "source": {"name": "Vernon", "slug": "vernon"}, "source_identifier": null, "external_references": [{"id": 37253, "source": {"name": "Wikidata", "slug": "wikidata"}, "source_identifier": "Q2632"}, {"id": 55653, "source": {"name": "VIAF", "slug": "viaf"}, "source_identifier": "117667596"}, {"id": 55654, "source": {"name": "LOC Auth", "slug": "loc-auth"}, "source_identifier": "n81041846"}, {"id": 55655, "source": {"name": "WorldCat", "slug": "worldcat"}, "source_identifier": "lccn-n81041846"}], "date_modified": "2023-09-06T00:35:51.457656+10:00"}, {"id": 78386, "name": "Paul McCartney", "roles_in_work": [{"id": 907120, "title": "Magical mystery tour", "work_id": 87751, "role": "co-director", "role_id": 959, "is_primary": true}, {"id": 1991345, "title": "Magical mystery tour", "work_id": 86997, "role": "co-director", "role_id": 959, "is_primary": true}], "also_known_as": "James Paul McCartney", "date_of_birth": "1942-06-18", "date_of_death": null, "genders": [{"id": 9, "name": "Male", "slug": "male"}], "languages": [{"id": 1, "name": "English", "slug": "english"}], "places_of_operation": [{"id": 10, "name": "United Kingdom", "slug": "united-kingdom"}], "biography": "Sir James Paul McCartney  (born 18 June 1942) is an English singer, songwriter and musician who gained worldwide fame with the Beatles, for whom he played bass guitar and shared primary songwriting and lead vocal duties with John Lennon. One of the most successful composers and performers of all time, McCartney is known for his melodic approach to bass-playing, versatile and wide tenor vocal range, and musical eclecticism, exploring genres ranging from pre–rock and roll pop to classical, ballads, and electronica. His songwriting partnership with Lennon remains the most successful in history.Born in Liverpool, McCartney taught himself piano, guitar, and songwriting as a teenager, having been influenced by his father, a jazz player, and rock and roll performers such as Little Richard and Buddy Holly. He began his career when he joined Lennon's skiffle group, the Quarrymen, in 1957, which eventually evolved into the Beatles in 1960. Sometimes called \"the cute Beatle\", McCartney later immersed himself in the London avant-garde scene and played a key role in incorporating experimental aesthetics into the Beatles' studio productions. Starting with the 1967 album Sgt. Pepper's Lonely Hearts Club Band, he gradually became the band's de facto leader, providing creative impetus for most of their music and film projects. Many of his Beatles songs, including \"And I Love Her\", \"Yesterday\", \"Eleanor Rigby\", and \"Blackbird\", rank among the most covered songs in history. Although primarily a bassist with the Beatles, he played a number of other instruments, including keyboards, guitars, and drums, on various songs.\nAfter the Beatles disbanded, he debuted as a solo artist with the 1970 album McCartney and went on to form the band Wings with his first wife, Linda, and Denny Laine. Under McCartney's leadership, Wings became one of the most successful bands of the 1970s. He wrote or co-wrote their US or UK number-one hits, such as \"My Love\", \"Band on the Run\", \"Listen to What the Man Said\", \"Silly Love Songs\", and \"Mull of Kintyre\". He resumed his solo career in 1980 and has been touring as a solo artist since 1989. Apart from Wings, his UK or US number-one hits include \"Uncle Albert/Admiral Halsey\" (with Linda), \"Coming Up\", \"Pipes of Peace\", \"Ebony and Ivory\" (with Stevie Wonder), and \"Say Say Say\" (with Michael Jackson). Beyond music, he has been involved in projects to promote international charities related to animal rights, seal hunting, land mines, vegetarianism, poverty, and music education.\nMcCartney has written or co-written a record 32 songs that have topped the Billboard Hot 100 and, as of 2009, he had sales of 25.5 million RIAA-certified units in the US. His honours include two inductions into the Rock and Roll Hall of Fame (as a member of the Beatles in 1988 and as a solo artist in 1999), an Academy Award, a Primetime Emmy Award, 18 Grammy Awards, an appointment as a Member of the Order of the British Empire in 1965, and a knighthood in 1997 for services to music. As of 2020, he is one of the wealthiest musicians in the world, with an estimated fortune of £800 million.", "biography_author": "Wikidata", "date_of_biography": "2023-09-05T23:48:04.498445+10:00", "external_links": [{"id": 6088, "uri": "https://en.wikipedia.org/wiki/Paul_McCartney"}], "uuid": "4b1ac04f-5ba4-4706-84ea-5c492fb3e3a5", "source": {"name": "Vernon", "slug": "vernon"}, "source_identifier": null, "external_references": [{"id": 52039, "source": {"name": "Wikidata", "slug": "wikidata"}, "source_identifier": "Q2599"}, {"id": 55448, "source": {"name": "VIAF", "slug": "viaf"}, "source_identifier": "100252012"}, {"id": 55449, "source": {"name": "LOC Auth", "slug": "loc-auth"}, "source_identifier": "n50012135"}, {"id": 55450, "source": {"name": "WorldCat", "slug": "worldcat"}, "source_identifier": "lccn-n50012135"}], "date_modified": "2023-09-05T23:48:09.416509+10:00"}, {"id": 78385, "name": "John Lennon", "roles_in_work": [{"id": 907119, "title": "Magical mystery tour", "work_id": 87751, "role": "co-director", "role_id": 959, "is_primary": true}, {"id": 1991344, "title": "Magical mystery tour", "work_id": 86997, "role": "co-director", "role_id": 959, "is_primary": true}], "also_known_as": "John Winston Lennon", "date_of_birth": "1940-10-09", "date_of_death": "1980-12-08", "genders": [{"id": 9, "name": "Male", "slug": "male"}], "languages": [{"id": 1, "name": "English", "slug": "english"}], "places_of_operation": [{"id": 10, "name": "United Kingdom", "slug": "united-kingdom"}], "biography": "John Winston Ono Lennon (born John Winston Lennon; 9 October 1940 – 8 December 1980) was an English singer, songwriter, musician and peace activist who gained worldwide fame as the founder, co-songwriter, co-lead vocalist and rhythm guitarist of the Beatles. Lennon's work included music, writing, drawings, and film. His songwriting partnership with Paul McCartney remains the most successful in history.Born in Liverpool, Lennon became involved in the skiffle craze as a teenager. In 1956, he formed The Quarrymen, which evolved into the Beatles in 1960. Sometimes called \"the smart Beatle\", Lennon initially was the group's de facto leader, a role he gradually ceded to McCartney. Through his songwriting in the Beatles, Lennon embraced a myriad of musical influences, initially writing and co-writing rock and pop-oriented hit songs in the band's early years, then later incorporating experimental elements into his compositions in the latter half of the Beatles' career as his songs became known for their increasing innovation. Lennon soon expanded his work into other media by participating in numerous films, including How I Won the War, and authoring In His Own Write and A Spaniard in the Works, both collections of nonsense writings and line drawings. Starting with \"All You Need Is Love\", his songs were adopted as anthems by the anti-war movement and the larger counterculture of the 1960s. In 1969, he started the Plastic Ono Band with his second wife, the multimedia artist Yoko Ono, held the two-week-long anti-war demonstration Bed-ins for Peace, and left the Beatles to embark on a solo career.\nBetween 1968 and 1972, Lennon and Ono collaborated on many works, including a trilogy of avant-garde albums, several more films, his solo debut John Lennon/Plastic Ono Band, and the international top-10 singles  \"Give Peace a Chance\", \"Instant Karma!\", \"Imagine\", and \"Happy Xmas (War Is Over)\". Moving to New York City in 1971, his criticism of the Vietnam War resulted in a three-year deportation attempt by the Nixon administration. Lennon and Ono separated from 1973 to 1975, during which time he produced Harry Nilsson's album Pussy Cats. He also had chart-topping collaborations with Elton John (\"Whatever Gets You thru the Night\") and David Bowie (\"Fame\"). Following a five-year hiatus, Lennon returned to music in 1980 with the Ono collaboration Double Fantasy. He was murdered by a Beatles fan, Mark David Chapman, three weeks after the album's release.\nAs a performer, writer or co-writer, Lennon had 25 number-one singles in the Billboard Hot 100 chart. Double Fantasy, his best-selling album, won the 1981 Grammy Award for Album of the Year. In 1982, Lennon won the Brit Award for Outstanding Contribution to Music. In 2002, Lennon was voted eighth in a BBC history poll of the 100 Greatest Britons. Rolling Stone ranked him the fifth-greatest singer and 38th greatest artist of all time. He was inducted into the Songwriters Hall of Fame (in 1997) and the Rock and Roll Hall of Fame (twice, as a member of the Beatles in 1988 and as a solo artist in 1994).\n\n", "biography_author": "Wikidata", "date_of_biography": "2023-09-05T21:40:48.727939+10:00", "external_links": [{"id": 5929, "uri": "https://en.wikipedia.org/wiki/John_Lennon"}], "uuid": "d8432272-5eb5-4227-8da2-43afe380369c", "source": {"name": "Vernon", "slug": "vernon"}, "source_identifier": null, "external_references": [{"id": 41396, "source": {"name": "Wikidata", "slug": "wikidata"}, "source_identifier": "Q1203"}, {"id": 54896, "source": {"name": "VIAF", "slug": "viaf"}, "source_identifier": "196844"}, {"id": 54897, "source": {"name": "LOC Auth", "slug": "loc-auth"}, "source_identifier": "n80017868"}, {"id": 54898, "source": {"name": "WorldCat", "slug": "worldcat"}, "source_identifier": "lccn-n80017868"}], "date_modified": "2023-09-05T21:40:51.304111+10:00"}, {"id": 78384, "name": "Bernard Knowles", "roles_in_work": [{"id": 907118, "title": "Magical mystery tour", "work_id": 87751, "role": "co-director", "role_id": 959, "is_primary": true}, {"id": 1991343, "title": "Magical mystery tour", "work_id": 86997, "role": "co-director", "role_id": 959, "is_primary": true}], "also_known_as": "", "date_of_birth": "1900-02-20", "date_of_death": "1975-02-12", "genders": [{"id": 9, "name": "Male", "slug": "male"}], "languages": [{"id": 1, "name": "English", "slug": "english"}], "places_of_operation": [{"id": 10, "name": "United Kingdom", "slug": "united-kingdom"}], "biography": "Bernard Knowles (20 February 1900 – 12 February 1975) was an English film director, producer, cinematographer and screenwriter. Born in Manchester, Knowles worked with Alfred Hitchcock on numerous occasions before the director emigrated to Hollywood.\nKnowles later graduated as a director and screenwriter, directing a number of high-profile films, including the 1946 Gainsborough Melodrama The Magic Bow. He worked a great deal on television shows, including Fabian of the Yard, Dial 999, Ivanhoe and The Adventures of Robin Hood.", "biography_author": "Wikidata", "date_of_biography": "2023-09-05T17:59:19.888191+10:00", "external_links": [{"id": 5706, "uri": "https://en.wikipedia.org/wiki/Bernard_Knowles"}], "uuid": "8bf23e38-85cd-42a3-adb7-5c67bfe158b9", "source": {"name": "Vernon", "slug": "vernon"}, "source_identifier": null, "external_references": [{"id": 50555, "source": {"name": "Wikidata", "slug": "wikidata"}, "source_identifier": "Q822523"}, {"id": 54067, "source": {"name": "VIAF", "slug": "viaf"}, "source_identifier": "73411598"}, {"id": 54068, "source": {"name": "LOC Auth", "slug": "loc-auth"}, "source_identifier": "no90008376"}, {"id": 54069, "source": {"name": "WorldCat", "slug": "worldcat"}, "source_identifier": "lccn-no90008376"}], "date_modified": "2023-09-05T17:59:19.909023+10:00"}]}