{"count": 28687, "next": "https://api.acmi.net.au/creators/?page=111", "previous": "https://api.acmi.net.au/creators/?page=109", "results": [{"id": 84889, "name": "John Garwood", "roles_in_work": [{"id": 2393033, "title": "The Gourmet's Dilemma", "work_id": 118316, "role": "sound", "role_id": 952, "is_primary": false}], "also_known_as": "", "date_of_birth": "", "date_of_death": "", "genders": [], "languages": [], "places_of_operation": [], "biography": "", "biography_author": null, "date_of_biography": "2023-08-09T04:23:36.854635+10:00", "external_links": [], "uuid": "f37cbb24-624c-4cbc-934e-8b0adef99489", "source": {"name": "Vernon", "slug": "vernon"}, "source_identifier": "37973", "external_references": [], "date_modified": "2023-08-09T04:23:36.854855+10:00"}, {"id": 84888, "name": "Paul McAdam", "roles_in_work": [{"id": 2393032, "title": "The Gourmet's Dilemma", "work_id": 118316, "role": "animator", "role_id": 497, "is_primary": false}], "also_known_as": "", "date_of_birth": "", "date_of_death": "", "genders": [], "languages": [], "places_of_operation": [], "biography": "", "biography_author": null, "date_of_biography": "2023-08-09T04:23:36.229557+10:00", "external_links": [], "uuid": "0367a5a3-0127-44b4-b204-8f41ec9fff89", "source": {"name": "Vernon", "slug": "vernon"}, "source_identifier": "37972", "external_references": [], "date_modified": "2023-08-09T04:23:36.229771+10:00"}, {"id": 84887, "name": "Stan Walker", "roles_in_work": [{"id": 2393031, "title": "The Gourmet's Dilemma", "work_id": 118316, "role": "animator", "role_id": 497, "is_primary": false}], "also_known_as": "", "date_of_birth": "", "date_of_death": "", "genders": [], "languages": [], "places_of_operation": [], "biography": "", "biography_author": null, "date_of_biography": "2023-08-09T04:23:35.600994+10:00", "external_links": [], "uuid": "01daeb4e-2011-4d29-978b-4164e3395fec", "source": {"name": "Vernon", "slug": "vernon"}, "source_identifier": "37971", "external_references": [], "date_modified": "2023-08-09T04:23:35.601215+10:00"}, {"id": 84886, "name": "Jerry Grabner", "roles_in_work": [{"id": 2393030, "title": "The Gourmet's Dilemma", "work_id": 118316, "role": "animator", "role_id": 497, "is_primary": false}], "also_known_as": "", "date_of_birth": "", "date_of_death": "", "genders": [], "languages": [], "places_of_operation": [], "biography": "", "biography_author": null, "date_of_biography": "2023-08-09T04:23:34.991525+10:00", "external_links": [], "uuid": "76629c22-0f6c-4f14-aaef-989fa56691f5", "source": {"name": "Vernon", "slug": "vernon"}, "source_identifier": "37970", "external_references": [], "date_modified": "2023-08-09T04:23:34.992320+10:00"}, {"id": 84885, "name": "Robert V Jenkins", "roles_in_work": [{"id": 2393029, "title": "The Gourmet's Dilemma", "work_id": 118316, "role": "director", "role_id": 938, "is_primary": true}], "also_known_as": "", "date_of_birth": "", "date_of_death": "", "genders": [], "languages": [], "places_of_operation": [], "biography": "", "biography_author": null, "date_of_biography": "2023-08-09T04:23:34.383701+10:00", "external_links": [], "uuid": "aad2c0e6-2d5d-4fe4-b289-e693cba14129", "source": {"name": "Vernon", "slug": "vernon"}, "source_identifier": "37969", "external_references": [{"id": 39935, "source": {"name": "Wikidata", "slug": "wikidata"}, "source_identifier": "Q121086138"}], "date_modified": "2023-09-06T00:47:22.347445+10:00"}, {"id": 84884, "name": "Graham Gay", "roles_in_work": [{"id": 2393026, "title": "Riding your bicycle [Junior Road Safety Series Episode 6]", "work_id": 118315, "role": "director of photography", "role_id": 925, "is_primary": false}], "also_known_as": "", "date_of_birth": "", "date_of_death": "", "genders": [], "languages": [], "places_of_operation": [], "biography": "", "biography_author": null, "date_of_biography": "2023-08-09T04:23:31.820488+10:00", "external_links": [], "uuid": "bd6c3c57-354d-4300-97a5-54f1a4d299c8", "source": {"name": "Vernon", "slug": "vernon"}, "source_identifier": "37746", "external_references": [], "date_modified": "2023-08-09T04:23:31.820707+10:00"}, {"id": 84883, "name": "G Gamon", "roles_in_work": [{"id": 2393020, "title": "Picturesque Tasmania", "work_id": 118314, "role": "producer", "role_id": 1089, "is_primary": true}], "also_known_as": "", "date_of_birth": "", "date_of_death": "", "genders": [], "languages": [], "places_of_operation": [], "biography": "", "biography_author": null, "date_of_biography": "2023-08-09T04:23:26.797903+10:00", "external_links": [], "uuid": "2dbb024c-89bb-426a-9415-8cb7590fd3f2", "source": {"name": "Vernon", "slug": "vernon"}, "source_identifier": "37512", "external_references": [{"id": 38129, "source": {"name": "Wikidata", "slug": "wikidata"}, "source_identifier": "Q121144225"}], "date_modified": "2023-09-05T19:55:02.651686+10:00"}, {"id": 84882, "name": "Australia. Dept of Commerce. Cinema Branch", "roles_in_work": [{"id": 2393019, "title": "Picturesque Tasmania", "work_id": 118314, "role": "production company", "role_id": 941, "is_primary": true}], "also_known_as": "", "date_of_birth": "", "date_of_death": "", "genders": [], "languages": [], "places_of_operation": [], "biography": "", "biography_author": null, "date_of_biography": "2023-08-09T04:23:26.099359+10:00", "external_links": [], "uuid": "733e952c-a43e-4c42-b18d-e7ad6c9b2784", "source": {"name": "Vernon", "slug": "vernon"}, "source_identifier": "37513", "external_references": [{"id": 42339, "source": {"name": "Wikidata", "slug": "wikidata"}, "source_identifier": "Q121079130"}], "date_modified": "2023-09-05T17:50:02.602198+10:00"}, {"id": 84881, "name": "Burt Ive", "roles_in_work": [{"id": 3105691, "title": "Among the Hardwoods", "work_id": 118312, "role": "cinematographer", "role_id": 32, "is_primary": false}, {"id": 2393006, "title": "Telling the World", "work_id": 118311, "role": "cinematographer", "role_id": 32, "is_primary": false}], "also_known_as": "", "date_of_birth": "", "date_of_death": "", "genders": [], "languages": [], "places_of_operation": [], "biography": "", "biography_author": null, "date_of_biography": "2023-08-09T04:12:06.371665+10:00", "external_links": [], "uuid": "201d0606-33a5-4bd7-a90c-3b13041f0321", "source": {"name": "Vernon", "slug": "vernon"}, "source_identifier": "36819", "external_references": [{"id": 34298, "source": {"name": "Wikidata", "slug": "wikidata"}, "source_identifier": "Q121270713"}], "date_modified": "2025-05-28T22:35:06.434910+10:00"}, {"id": 84880, "name": "Lyn Maplestone", "roles_in_work": [{"id": 2393005, "title": "Telling the World", "work_id": 118311, "role": "director", "role_id": 938, "is_primary": true}, {"id": 3105690, "title": "Among the Hardwoods", "work_id": 118312, "role": "director", "role_id": 938, "is_primary": true}, {"id": 3105692, "title": "Among the Hardwoods", "work_id": 118312, "role": "editor", "role_id": 918, "is_primary": true}, {"id": 3105693, "title": "Among the Hardwoods", "work_id": 118312, "role": "script", "role_id": 962, "is_primary": false}], "also_known_as": "", "date_of_birth": "", "date_of_death": "", "genders": [], "languages": [], "places_of_operation": [], "biography": "", "biography_author": null, "date_of_biography": "2023-08-09T04:12:07.807374+10:00", "external_links": [], "uuid": "c82fce39-33ae-4f7c-aed5-c35f62b5a2cd", "source": {"name": "Vernon", "slug": "vernon"}, "source_identifier": "37383", "external_references": [{"id": 50976, "source": {"name": "Wikidata", "slug": "wikidata"}, "source_identifier": "Q121357802"}], "date_modified": "2025-05-28T22:35:07.650745+10:00"}]}