{"count": 28681, "next": "https://api.acmi.net.au/creators/?page=2677", "previous": "https://api.acmi.net.au/creators/?page=2675", "results": [{"id": 11728, "name": "Memet Gunes", "roles_in_work": [{"id": 3109942, "title": "My second home", "work_id": 114336, "role": "creator", "role_id": 968, "is_primary": true}, {"id": 3109912, "title": "Stories from the Turkish community : Digital Storytelling project", "work_id": 114328, "role": "creator", "role_id": 968, "is_primary": true}], "also_known_as": "", "date_of_birth": "", "date_of_death": "", "genders": [{"id": 9, "name": "Male", "slug": "male"}], "languages": [], "places_of_operation": [], "biography": "", "biography_author": null, "date_of_biography": "2023-05-09T19:00:01.715382+10:00", "external_links": [], "uuid": "18853fa5-7179-48b0-b9ca-69a3228ffd34", "source": {"name": "Vernon", "slug": "vernon"}, "source_identifier": "3526", "external_references": [], "date_modified": "2025-12-02T14:27:51.491613+11:00"}, {"id": 11727, "name": "Huseyin Duman", "roles_in_work": [{"id": 3109908, "title": "Stories from the Turkish community : Digital Storytelling project", "work_id": 114328, "role": "creator", "role_id": 968, "is_primary": true}, {"id": 3109990, "title": "Ithal Damat = Imported groom", "work_id": 114334, "role": "creator", "role_id": 968, "is_primary": true}], "also_known_as": "", "date_of_birth": "", "date_of_death": "", "genders": [{"id": 9, "name": "Male", "slug": "male"}], "languages": [], "places_of_operation": [], "biography": "", "biography_author": null, "date_of_biography": "2023-05-09T19:00:01.131129+10:00", "external_links": [], "uuid": "27914685-245f-4f6e-bc9f-cf6d1862735d", "source": {"name": "Vernon", "slug": "vernon"}, "source_identifier": "3525", "external_references": [], "date_modified": "2025-12-02T14:28:05.977214+11:00"}, {"id": 11726, "name": "Kenan Besiroglu", "roles_in_work": [{"id": 3109902, "title": "Stories from the Turkish community : Digital Storytelling project", "work_id": 114328, "role": "creator", "role_id": 968, "is_primary": true}, {"id": 3109954, "title": "Yeni hayat = New life", "work_id": 114338, "role": "creator", "role_id": 968, "is_primary": true}], "also_known_as": "", "date_of_birth": "", "date_of_death": "", "genders": [{"id": 9, "name": "Male", "slug": "male"}], "languages": [], "places_of_operation": [], "biography": "", "biography_author": null, "date_of_biography": "2023-05-09T19:00:00.597900+10:00", "external_links": [], "uuid": "7244543d-d4f4-47f0-92d8-dcf7c3548da4", "source": {"name": "Vernon", "slug": "vernon"}, "source_identifier": "3523", "external_references": [], "date_modified": "2025-12-02T14:27:55.052868+11:00"}, {"id": 11725, "name": "Figen Hasimoglu", "roles_in_work": [{"id": 3110018, "title": "Dad, I made it!", "work_id": 114331, "role": "creator", "role_id": 968, "is_primary": true}, {"id": 3109915, "title": "Stories from the Turkish community : Digital Storytelling project", "work_id": 114328, "role": "creator", "role_id": 968, "is_primary": true}], "also_known_as": "", "date_of_birth": "", "date_of_death": "", "genders": [{"id": 5, "name": "Female", "slug": "female"}], "languages": [], "places_of_operation": [], "biography": "", "biography_author": null, "date_of_biography": "2023-05-09T19:00:07.707277+10:00", "external_links": [], "uuid": "4f9660bf-57aa-4441-b481-745377841fe9", "source": {"name": "Vernon", "slug": "vernon"}, "source_identifier": "3522", "external_references": [], "date_modified": "2025-12-02T14:28:26.175735+11:00"}, {"id": 11724, "name": "Fatma Coskun", "roles_in_work": [{"id": 3109905, "title": "Stories from the Turkish community : Digital Storytelling project", "work_id": 114328, "role": "creator", "role_id": 968, "is_primary": true}, {"id": 3109978, "title": "New life new country", "work_id": 114327, "role": "creator", "role_id": 968, "is_primary": true}], "also_known_as": "", "date_of_birth": "", "date_of_death": "", "genders": [{"id": 5, "name": "Female", "slug": "female"}], "languages": [], "places_of_operation": [], "biography": "", "biography_author": null, "date_of_biography": "2023-05-09T19:00:11.098036+10:00", "external_links": [], "uuid": "c3a78f5c-c776-4327-929c-8bcee6376091", "source": {"name": "Vernon", "slug": "vernon"}, "source_identifier": "3524", "external_references": [], "date_modified": "2025-12-02T14:28:02.361283+11:00"}, {"id": 11723, "name": "Rita el-Khoury", "roles_in_work": [{"id": 2642960, "title": "Where Do I Belong?", "work_id": 114326, "role": "creator", "role_id": 968, "is_primary": true}], "also_known_as": "", "date_of_birth": "", "date_of_death": "", "genders": [{"id": 5, "name": "Female", "slug": "female"}], "languages": [], "places_of_operation": [], "biography": "", "biography_author": null, "date_of_biography": "2023-09-05T14:34:11.872437+10:00", "external_links": [], "uuid": "8fe4153d-b915-4ffa-bd45-f65c3d282a92", "source": {"name": "Vernon", "slug": "vernon"}, "source_identifier": "3521", "external_references": [], "date_modified": "2025-03-05T11:52:16.828811+11:00"}, {"id": 11722, "name": "Carla Pascoe", "roles_in_work": [{"id": 2642956, "title": "The Spaces in Between", "work_id": 114324, "role": "creator", "role_id": 968, "is_primary": true}], "also_known_as": "", "date_of_birth": "", "date_of_death": "", "genders": [{"id": 5, "name": "Female", "slug": "female"}], "languages": [], "places_of_operation": [], "biography": "", "biography_author": null, "date_of_biography": "2023-09-05T14:34:04.982133+10:00", "external_links": [], "uuid": "57657c84-9b38-4920-a03c-cb73d34b127b", "source": {"name": "Vernon", "slug": "vernon"}, "source_identifier": "3520", "external_references": [], "date_modified": "2025-03-05T11:52:13.642594+11:00"}, {"id": 11721, "name": "Zeina Zogheib", "roles_in_work": [{"id": 2642952, "title": "The Affliction of Memory", "work_id": 114316, "role": "creator", "role_id": 968, "is_primary": true}], "also_known_as": "", "date_of_birth": "", "date_of_death": "", "genders": [{"id": 5, "name": "Female", "slug": "female"}], "languages": [], "places_of_operation": [], "biography": "", "biography_author": null, "date_of_biography": "2023-09-05T14:33:34.628291+10:00", "external_links": [], "uuid": "960cf4cd-067b-4f39-8064-0f8142341645", "source": {"name": "Vernon", "slug": "vernon"}, "source_identifier": "3519", "external_references": [], "date_modified": "2025-03-05T11:52:10.463513+11:00"}, {"id": 11720, "name": "Sam Haddad", "roles_in_work": [{"id": 2642948, "title": "Loving Lebanon and Australia", "work_id": 114322, "role": "creator", "role_id": 968, "is_primary": true}], "also_known_as": "", "date_of_birth": "", "date_of_death": "", "genders": [{"id": 9, "name": "Male", "slug": "male"}], "languages": [], "places_of_operation": [], "biography": "", "biography_author": null, "date_of_biography": "2023-09-05T14:33:58.043625+10:00", "external_links": [], "uuid": "8df7ac0c-cb24-46ca-b7d3-6dd48cbc060b", "source": {"name": "Vernon", "slug": "vernon"}, "source_identifier": "3518", "external_references": [], "date_modified": "2025-03-05T11:52:07.289188+11:00"}, {"id": 11719, "name": "Raymond Nashar", "roles_in_work": [{"id": 2642901, "title": "El Ajnabi", "work_id": 114314, "role": "creator", "role_id": 968, "is_primary": true}], "also_known_as": "", "date_of_birth": "", "date_of_death": "", "genders": [{"id": 9, "name": "Male", "slug": "male"}], "languages": [], "places_of_operation": [], "biography": "", "biography_author": null, "date_of_biography": "2023-09-05T14:33:38.020157+10:00", "external_links": [], "uuid": "55f128b0-b427-4eb9-a4c3-f3527de90871", "source": {"name": "Vernon", "slug": "vernon"}, "source_identifier": "3517", "external_references": [], "date_modified": "2025-03-05T11:51:30.457883+11:00"}]}