{"count": 28683, "next": "https://api.acmi.net.au/creators/?page=1728", "previous": "https://api.acmi.net.au/creators/?page=1726", "results": [{"id": 27985, "name": "Andres Gomes", "roles_in_work": [{"id": 1994582, "title": "Matador [Widescreen]", "work_id": 90461, "role": "producer", "role_id": 1089, "is_primary": true}, {"id": 2172019, "title": "Jamon jamon [DVD]", "work_id": 93449, "role": "producer", "role_id": 1089, "is_primary": true}, {"id": 1806638, "title": "Gaudi afternoon", "work_id": 93587, "role": "producer", "role_id": 1089, "is_primary": true}, {"id": 1994002, "title": "Belle epoque = Age of beauty", "work_id": 89681, "role": "producer", "role_id": 1089, "is_primary": true}, {"id": 2195978, "title": "Perdita Durango", "work_id": 93665, "role": "producer", "role_id": 1089, "is_primary": true}, {"id": 1996539, "title": "Ay Carmela", "work_id": 92751, "role": "producer", "role_id": 1089, "is_primary": true}], "also_known_as": "", "date_of_birth": "", "date_of_death": "", "genders": [], "languages": [], "places_of_operation": [], "biography": "", "biography_author": null, "date_of_biography": "2023-05-09T15:16:50.412525+10:00", "external_links": [], "uuid": "c14fc664-9bd6-4c7b-b9cc-3b70c3f4fb24", "source": {"name": "Vernon", "slug": "vernon"}, "source_identifier": "3746", "external_references": [], "date_modified": "2023-06-14T16:33:30.576250+10:00"}, {"id": 27984, "name": "Ovideo TV", "roles_in_work": [{"id": 2172016, "title": "Jamon jamon [DVD]", "work_id": 93449, "role": "production company", "role_id": 941, "is_primary": true}], "also_known_as": "", "date_of_birth": "", "date_of_death": "", "genders": [], "languages": [], "places_of_operation": [], "biography": "", "biography_author": null, "date_of_biography": "2023-05-09T14:37:31.765093+10:00", "external_links": [], "uuid": "f663b4a8-ff35-4564-aabc-f6fb18863137", "source": {"name": "Vernon", "slug": "vernon"}, "source_identifier": "11207", "external_references": [{"id": 37014, "source": {"name": "Wikidata", "slug": "wikidata"}, "source_identifier": "Q104822140"}], "date_modified": "2023-09-05T23:38:20.734377+10:00"}, {"id": 27983, "name": "Lola Films", "roles_in_work": [{"id": 1994000, "title": "Belle epoque = Age of beauty", "work_id": 89681, "role": "production company", "role_id": 941, "is_primary": true}, {"id": 2172013, "title": "Jamon jamon [DVD]", "work_id": 93449, "role": "production company", "role_id": 941, "is_primary": true}, {"id": 924217, "title": "Gaudi afternoon", "work_id": 93587, "role": "production company", "role_id": 941, "is_primary": true}], "also_known_as": "", "date_of_birth": "", "date_of_death": "", "genders": [], "languages": [], "places_of_operation": [], "biography": "", "biography_author": null, "date_of_biography": "2023-05-09T14:37:31.503801+10:00", "external_links": [], "uuid": "48bf3be8-b91a-4b9a-8967-202074384fd6", "source": {"name": "Vernon", "slug": "vernon"}, "source_identifier": "10129", "external_references": [{"id": 40527, "source": {"name": "Wikidata", "slug": "wikidata"}, "source_identifier": "Q121035265"}], "date_modified": "2023-09-05T22:29:16.526462+10:00"}, {"id": 27982, "name": "Geoff Cawthorn", "roles_in_work": [{"id": 905209, "title": "Women in mainstream cinema", "work_id": 85961, "role": "director", "role_id": 938, "is_primary": true}, {"id": 2234311, "title": "Racial stereotyping", "work_id": 85962, "role": "director", "role_id": 938, "is_primary": true}], "also_known_as": "", "date_of_birth": "", "date_of_death": "", "genders": [], "languages": [], "places_of_operation": [], "biography": "", "biography_author": null, "date_of_biography": "2023-05-09T16:43:21.420882+10:00", "external_links": [], "uuid": "f65bd1f5-5fe9-4d9f-b2c6-ca5f069e70ac", "source": {"name": "Vernon", "slug": "vernon"}, "source_identifier": "19496", "external_references": [{"id": 40783, "source": {"name": "Wikidata", "slug": "wikidata"}, "source_identifier": "Q121078966"}], "date_modified": "2023-09-05T20:01:31.888996+10:00"}, {"id": 27978, "name": "Metropolitan Opera", "roles_in_work": [{"id": 2299013, "title": "Siegfried", "work_id": 85959, "role": "production company", "role_id": 941, "is_primary": true}, {"id": 905200, "title": "The Valkyrie = Die Walkure", "work_id": 85958, "role": "production company", "role_id": 941, "is_primary": true}], "also_known_as": "", "date_of_birth": "", "date_of_death": "", "genders": [], "languages": [], "places_of_operation": [], "biography": "The Metropolitan Opera (commonly known as the Met) is an American opera company based in New York City, currently resident at the Metropolitan Opera House at Lincoln Center, situated on the Upper West Side of Manhattan. The company is operated by the non-profit Metropolitan Opera Association, with Peter Gelb as general manager. As of 2018, the company's current music director is Yannick Nézet-Séguin.\nThe Met was founded in 1883 as an alternative to the previously established Academy of Music opera house and debuted the same year in a new building on 39th and Broadway (now known as the \"Old Met\"). It moved to the new Lincoln Center location in 1966.\nThe Metropolitan Opera is the largest classical music organization in North America. Until 2019, it presented about 27 different operas each year from late September through May. The operas are presented in a rotating repertory schedule, with up to seven performances of four different works staged each week. Performances are given in the evening Monday through Saturday with a matinée on Saturday. Several operas are presented in new productions each season. Sometimes these are borrowed from or shared with other opera companies. The rest of the year's operas are given in revivals of productions from previous seasons. The 2015–16 season comprised 227 performances of 25 operas.The operas in the Met's repertoire consist of a wide range of works, from 18th-century Baroque and 19th-century Bel canto to the Minimalism of the late 20th and 21st centuries. These operas are presented in staged productions that range in style from those with elaborate traditional decors to others that feature modern conceptual designs.\nThe Met's performing company consists of a large symphony orchestra, a chorus, children's choir, and many supporting and leading solo singers. The company also employs numerous free-lance dancers, actors, musicians and other performers throughout the season. The Met's roster of singers includes both international and American artists, some of whose careers have been developed through the Met's young artists programs. While many singers appear periodically as guests with the company, others maintain a close long-standing association with the Met, appearing many times each season until they retire.\n\n", "biography_author": "Wikidata", "date_of_biography": "2023-09-05T23:01:45.348636+10:00", "external_links": [{"id": 6026, "uri": "https://en.wikipedia.org/wiki/Metropolitan_Opera"}], "uuid": "e078863c-10ee-4ce7-841b-dc3fe386d314", "source": {"name": "Vernon", "slug": "vernon"}, "source_identifier": "13420", "external_references": [{"id": 42993, "source": {"name": "Wikidata", "slug": "wikidata"}, "source_identifier": "Q10583424"}, {"id": 55245, "source": {"name": "VIAF", "slug": "viaf"}, "source_identifier": "126398520"}, {"id": 55246, "source": {"name": "LOC Auth", "slug": "loc-auth"}, "source_identifier": "n50074748"}, {"id": 55247, "source": {"name": "WorldCat", "slug": "worldcat"}, "source_identifier": "lccn-n50074748"}], "date_modified": "2023-09-05T23:01:48.141463+10:00"}, {"id": 27974, "name": "Nino Misiano", "roles_in_work": [{"id": 2615688, "title": "Miracle in Milan = miracolo a Milano", "work_id": 85954, "role": "producer", "role_id": 1089, "is_primary": true}, {"id": 1993339, "title": "Umberto D", "work_id": 88967, "role": "producer", "role_id": 1089, "is_primary": true}], "also_known_as": "", "date_of_birth": null, "date_of_death": null, "genders": [], "languages": [], "places_of_operation": [], "biography": "", "biography_author": null, "date_of_biography": null, "external_links": [], "uuid": "3724f8db-2a1d-44d8-a0ee-3ecd1c8f724a", "source": {"name": "Vernon", "slug": "vernon"}, "source_identifier": "25838", "external_references": [], "date_modified": "2025-02-26T20:26:59.594318+11:00"}, {"id": 27973, "name": "l'E N I C", "roles_in_work": [{"id": 2615687, "title": "Miracle in Milan = miracolo a Milano", "work_id": 85954, "role": "production company", "role_id": 941, "is_primary": true}], "also_known_as": "", "date_of_birth": null, "date_of_death": null, "genders": [], "languages": [], "places_of_operation": [], "biography": "", "biography_author": null, "date_of_biography": null, "external_links": [], "uuid": "d5586f75-c732-409d-b2c7-3f93bdc55941", "source": {"name": "Vernon", "slug": "vernon"}, "source_identifier": "9939", "external_references": [], "date_modified": "2025-02-26T20:26:58.981055+11:00"}, {"id": 27972, "name": "De Sica Productions", "roles_in_work": [{"id": 2650495, "title": "Ladri di biciclette = Bicycle thieves", "work_id": 115714, "role": "production company", "role_id": 941, "is_primary": true}, {"id": 2615686, "title": "Miracle in Milan = miracolo a Milano", "work_id": 85954, "role": "production company", "role_id": 941, "is_primary": true}], "also_known_as": "", "date_of_birth": null, "date_of_death": null, "genders": [], "languages": [], "places_of_operation": [], "biography": "", "biography_author": null, "date_of_biography": null, "external_links": [], "uuid": "02b0b000-1fc2-4cff-a68a-2b03f6f239af", "source": {"name": "Vernon", "slug": "vernon"}, "source_identifier": "7368", "external_references": [], "date_modified": "2025-03-05T14:20:36.862720+11:00"}, {"id": 27971, "name": "RA11", "roles_in_work": [{"id": 2615681, "title": "Good morning Babylon", "work_id": 85953, "role": "production company", "role_id": 941, "is_primary": true}], "also_known_as": "", "date_of_birth": null, "date_of_death": null, "genders": [], "languages": [], "places_of_operation": [], "biography": "", "biography_author": null, "date_of_biography": null, "external_links": [], "uuid": "85580628-4fef-46ac-9d5e-359cec42b6c0", "source": {"name": "Vernon", "slug": "vernon"}, "source_identifier": "11807", "external_references": [], "date_modified": "2025-02-26T20:26:52.083310+11:00"}, {"id": 27970, "name": "Pressman Film Corporation", "roles_in_work": [{"id": 2615680, "title": "Good morning Babylon", "work_id": 85953, "role": "production company", "role_id": 941, "is_primary": true}], "also_known_as": "", "date_of_birth": null, "date_of_death": null, "genders": [], "languages": [], "places_of_operation": [], "biography": "", "biography_author": null, "date_of_biography": null, "external_links": [], "uuid": "5cf0734a-42fd-4d9b-b294-fffcd1607a6e", "source": {"name": "Vernon", "slug": "vernon"}, "source_identifier": "11631", "external_references": [], "date_modified": "2025-02-26T20:26:51.473895+11:00"}]}