{"count": 28687, "next": "https://api.acmi.net.au/creators/?page=1256", "previous": "https://api.acmi.net.au/creators/?page=1254", "results": [{"id": 71950, "name": "Ermeline Le Mezo", "roles_in_work": [{"id": 2747946, "title": "L'île Mystérieruse", "work_id": 107913, "role": "music", "role_id": 949, "is_primary": false}, {"id": 2747947, "title": "L'île Mystérieruse", "work_id": 107913, "role": "production facilities", "role_id": 442, "is_primary": false}], "also_known_as": "", "date_of_birth": null, "date_of_death": null, "genders": [], "languages": [], "places_of_operation": [], "biography": "", "biography_author": null, "date_of_biography": null, "external_links": [], "uuid": "71c0ced0-0035-4e65-9218-a336513b26b9", "source": {"name": "Vernon", "slug": "vernon"}, "source_identifier": "110392", "external_references": [], "date_modified": "2025-03-12T22:42:33.373836+11:00"}, {"id": 71949, "name": "Cecile Le Prado", "roles_in_work": [{"id": 2747945, "title": "L'île Mystérieruse", "work_id": 107913, "role": "music", "role_id": 949, "is_primary": false}], "also_known_as": "", "date_of_birth": null, "date_of_death": null, "genders": [], "languages": [], "places_of_operation": [], "biography": "", "biography_author": null, "date_of_biography": null, "external_links": [], "uuid": "ca796a8f-26d5-4bc3-a038-cc08d8094d43", "source": {"name": "Vernon", "slug": "vernon"}, "source_identifier": "110391", "external_references": [], "date_modified": "2025-03-12T22:42:30.143066+11:00"}, {"id": 71948, "name": "Francois Donato", "roles_in_work": [{"id": 2747944, "title": "L'île Mystérieruse", "work_id": 107913, "role": "mix", "role_id": 451, "is_primary": false}], "also_known_as": "", "date_of_birth": null, "date_of_death": null, "genders": [], "languages": [], "places_of_operation": [], "biography": "", "biography_author": null, "date_of_biography": null, "external_links": [], "uuid": "9b1f9bc9-4d93-42c4-803c-e53f13fb8162", "source": {"name": "Vernon", "slug": "vernon"}, "source_identifier": "110390", "external_references": [], "date_modified": "2025-03-12T22:42:27.553153+11:00"}, {"id": 71947, "name": "Magali Meneses", "roles_in_work": [{"id": 2747943, "title": "L'île Mystérieruse", "work_id": 107913, "role": "assistant", "role_id": 450, "is_primary": false}], "also_known_as": "", "date_of_birth": null, "date_of_death": null, "genders": [], "languages": [], "places_of_operation": [], "biography": "", "biography_author": null, "date_of_biography": null, "external_links": [], "uuid": "ccc0f9f3-5f79-42d5-8950-ab6fcc55e581", "source": {"name": "Vernon", "slug": "vernon"}, "source_identifier": "110389", "external_references": [], "date_modified": "2025-03-12T22:42:26.950741+11:00"}, {"id": 71463, "name": "Sawyer's Inc.", "roles_in_work": [{"id": 2311116, "title": "Lighted stereo viewer model F", "work_id": 99988, "role": "creator", "role_id": 968, "is_primary": true}, {"id": 2684769, "title": "View Master\nviewing reels", "work_id": 99505, "role": "creator", "role_id": 968, "is_primary": true}, {"id": 2684789, "title": "Early Bakelite model", "work_id": 99450, "role": "creator", "role_id": 968, "is_primary": true}, {"id": 2684793, "title": "European model", "work_id": 99448, "role": "creator", "role_id": 968, "is_primary": true}, {"id": 2684794, "title": "European model", "work_id": 99449, "role": "creator", "role_id": 968, "is_primary": true}, {"id": 2684795, "title": "GAF USA model", "work_id": 99451, "role": "creator", "role_id": 968, "is_primary": true}, {"id": 2684798, "title": "Tyco Toys model classic red", "work_id": 99453, "role": "creator", "role_id": 968, "is_primary": true}, {"id": 2684802, "title": "Tyco Toys model", "work_id": 99452, "role": "creator", "role_id": 968, "is_primary": true}, {"id": 2684806, "title": "View Masters", "work_id": 112101, "role": "creator", "role_id": 968, "is_primary": true}, {"id": 2684780, "title": "View Master Stereo Reel: Alice Springs, Northern Territory, Australia", "work_id": 119573, "role": "maker", "role_id": 657, "is_primary": false}, {"id": 2684786, "title": "View Master Stereo Reel: Tulip Time, Holland", "work_id": 119574, "role": "maker", "role_id": 657, "is_primary": false}, {"id": 2684785, "title": "View Master Stereo Reel: The Taj Mahal, Agra, India", "work_id": 119575, "role": "maker", "role_id": 657, "is_primary": false}, {"id": 2684783, "title": "View Master Stereo Reel: Sydney, New South Wales, Australia", "work_id": 119576, "role": "maker", "role_id": 657, "is_primary": false}], "also_known_as": "", "date_of_birth": "1914", "date_of_death": "1966", "genders": [], "languages": [], "places_of_operation": [], "biography": "", "biography_author": null, "date_of_biography": "2023-07-19T03:52:14.845383+10:00", "external_links": [], "uuid": "95f7da35-dfcf-4c8a-9a7a-e1915caff5a8", "source": {"name": "Vernon", "slug": "vernon"}, "source_identifier": "39403", "external_references": [], "date_modified": "2025-03-11T11:43:12.218762+11:00"}, {"id": 71461, "name": "Google", "roles_in_work": [{"id": 2684820, "title": "Google Cardboard", "work_id": 99497, "role": "creator", "role_id": 968, "is_primary": true}, {"id": 2681163, "title": "Google HD Cardboard 2.0", "work_id": 99985, "role": "creator", "role_id": 968, "is_primary": true}], "also_known_as": "", "date_of_birth": "", "date_of_death": "", "genders": [], "languages": [], "places_of_operation": [], "biography": "", "biography_author": null, "date_of_biography": "2023-05-09T18:56:56.214107+10:00", "external_links": [], "uuid": "35fe1f17-aab6-4f7b-8c90-bac09473ffde", "source": {"name": "Vernon", "slug": "vernon"}, "source_identifier": "39452", "external_references": [], "date_modified": "2025-03-11T11:43:22.071300+11:00"}, {"id": 71459, "name": "Jules Chéret", "roles_in_work": [{"id": 2684465, "title": "Inaugural poster for Musée Grévin, Luminous Pantomimes", "work_id": 99656, "role": "creator", "role_id": 968, "is_primary": true}], "also_known_as": "", "date_of_birth": "1836", "date_of_death": "1932", "genders": [], "languages": [], "places_of_operation": [], "biography": "", "biography_author": null, "date_of_biography": "2023-05-09T13:29:26.677963+10:00", "external_links": [], "uuid": "09e79f30-91d1-44cc-a052-32c603c829a0", "source": {"name": "Vernon", "slug": "vernon"}, "source_identifier": "39450", "external_references": [], "date_modified": "2025-03-11T11:36:53.554935+11:00"}, {"id": 71458, "name": "Watilliaux", "roles_in_work": [{"id": 2686104, "title": "La Cage (The Cage) thaumatrope", "work_id": 1306, "role": "creator", "role_id": 968, "is_primary": true}, {"id": 3092223, "title": "La Cage (The Cage) thaumatrope verso", "work_id": 99807, "role": "creator", "role_id": 968, "is_primary": true}, {"id": 2686106, "title": "La Cage (The Cage) thaumatrope", "work_id": 112189, "role": "creator", "role_id": 968, "is_primary": true}, {"id": 2686103, "title": "La Cage (The Cage) thaumatrope", "work_id": 119615, "role": "creator", "role_id": 968, "is_primary": true}, {"id": 2686361, "title": "Les Ombres Japonaises\n(Japanese shadow cards)", "work_id": 99981, "role": "manufacturer", "role_id": 627, "is_primary": true}], "also_known_as": "", "date_of_birth": "", "date_of_death": "", "genders": [], "languages": [], "places_of_operation": [], "biography": "", "biography_author": null, "date_of_biography": "2023-08-14T12:39:28.191484+10:00", "external_links": [], "uuid": "1f107281-30e4-46a7-8454-ff982c086e3b", "source": {"name": "Vernon", "slug": "vernon"}, "source_identifier": "39139", "external_references": [], "date_modified": "2025-03-19T22:40:15.802143+11:00"}, {"id": 71457, "name": "Mauclair-Dacier", "roles_in_work": [{"id": 2520772, "title": "La Lanterne Magique (The Magic Lantern) thaumatrope", "work_id": 112188, "role": "creator", "role_id": 968, "is_primary": true}, {"id": 2595895, "title": "La lanterne magique (The Magic Lantern) Thaumatrope", "work_id": 99440, "role": "creator", "role_id": 968, "is_primary": true}, {"id": 3092222, "title": "La lanterne magique (The Magic Lantern) Thaumatrope verso", "work_id": 99805, "role": "creator", "role_id": 968, "is_primary": true}, {"id": 2689183, "title": "La lanterne magique (The Magic Lantern) Thaumatrope", "work_id": 119614, "role": "creator", "role_id": 968, "is_primary": true}], "also_known_as": "", "date_of_birth": "1893", "date_of_death": "1904", "genders": [], "languages": [], "places_of_operation": [], "biography": "", "biography_author": null, "date_of_biography": "2023-07-19T03:52:35.140282+10:00", "external_links": [], "uuid": "15adaa2b-eead-4a27-bb0a-808ad81bb238", "source": {"name": "Vernon", "slug": "vernon"}, "source_identifier": "39449", "external_references": [], "date_modified": "2025-03-19T22:40:14.579513+11:00"}, {"id": 71452, "name": "CJ Fraser", "roles_in_work": [{"id": 2684571, "title": "Harry Jacobs & His Palais Pictures Orchestra", "work_id": 99854, "role": "creator", "role_id": 968, "is_primary": true}], "also_known_as": "", "date_of_birth": "", "date_of_death": "", "genders": [], "languages": [], "places_of_operation": [], "biography": "", "biography_author": null, "date_of_biography": "2023-05-09T18:49:44.700006+10:00", "external_links": [], "uuid": "098bdb41-fedc-4c4f-8348-33a8e822609d", "source": {"name": "Vernon", "slug": "vernon"}, "source_identifier": "39446", "external_references": [], "date_modified": "2025-03-11T11:38:41.118423+11:00"}]}