{"count": 28687, "next": "https://api.acmi.net.au/creators/?page=92", "previous": "https://api.acmi.net.au/creators/?page=90", "results": [{"id": 86066, "name": "Dominic Pettman", "roles_in_work": [{"id": 2629642, "title": "Y2K a post mortem", "work_id": 119717, "role": "speaker", "role_id": 486, "is_primary": false}], "also_known_as": "", "date_of_birth": null, "date_of_death": null, "genders": [], "languages": [], "places_of_operation": [], "biography": "", "biography_author": null, "date_of_biography": null, "external_links": [], "uuid": "53d3019b-85e7-448c-9a0a-01471706e42e", "source": {"name": "Vernon", "slug": "vernon"}, "source_identifier": "110287", "external_references": [], "date_modified": "2025-02-27T22:52:28.033608+11:00"}, {"id": 86065, "name": "Peter Petherbridge", "roles_in_work": [{"id": 2629643, "title": "Y2K a post mortem", "work_id": 119717, "role": "speaker", "role_id": 486, "is_primary": false}], "also_known_as": "", "date_of_birth": null, "date_of_death": null, "genders": [], "languages": [], "places_of_operation": [], "biography": "", "biography_author": null, "date_of_biography": null, "external_links": [], "uuid": "1f57fc8b-f12d-4483-8ff5-6b37dce9e5a9", "source": {"name": "Vernon", "slug": "vernon"}, "source_identifier": "110286", "external_references": [], "date_modified": "2025-02-27T22:52:27.452325+11:00"}, {"id": 86064, "name": "Virtual Sports Interactive", "roles_in_work": [{"id": 3112557, "title": "Touring Car Champions for DOS", "work_id": 119715, "role": "publisher", "role_id": 942, "is_primary": true}, {"id": 3112555, "title": "Emulation of Touring Car Champions for DOS", "work_id": 120026, "role": "publisher", "role_id": 942, "is_primary": true}], "also_known_as": "", "date_of_birth": "", "date_of_death": "", "genders": [], "languages": [], "places_of_operation": [], "biography": "", "biography_author": null, "date_of_biography": "2023-05-09T20:05:21.857161+10:00", "external_links": [], "uuid": "28f23958-c021-4eee-8fb0-f96bc9c87735", "source": {"name": "Vernon", "slug": "vernon"}, "source_identifier": "40107", "external_references": [], "date_modified": "2026-06-12T10:41:11.644115+10:00"}, {"id": 86063, "name": "LJN Entertainment, Inc.", "roles_in_work": [{"id": 3112417, "title": "The Punisher for NES", "work_id": 119714, "role": "publisher", "role_id": 942, "is_primary": true}], "also_known_as": "", "date_of_birth": "1970", "date_of_death": "1995", "genders": [], "languages": [], "places_of_operation": [], "biography": "", "biography_author": null, "date_of_biography": "2023-05-09T20:06:03.457321+10:00", "external_links": [], "uuid": "5daeeddc-49b8-47cf-8287-d10a3ce02406", "source": {"name": "Vernon", "slug": "vernon"}, "source_identifier": "40110", "external_references": [], "date_modified": "2026-06-12T10:34:38.327218+10:00"}, {"id": 86062, "name": "THQ", "roles_in_work": [{"id": 3112428, "title": "Star Wars Yoda Stories for Game Boy Color", "work_id": 119713, "role": "publisher", "role_id": 942, "is_primary": true}, {"id": 3112401, "title": "The Lost World Jurassic Park for Game Boy", "work_id": 119691, "role": "publisher", "role_id": 942, "is_primary": true}], "also_known_as": "", "date_of_birth": "APR 1990", "date_of_death": "SEP 2013", "genders": [], "languages": [], "places_of_operation": [], "biography": "", "biography_author": null, "date_of_biography": "2023-05-09T20:05:35.414986+10:00", "external_links": [], "uuid": "9bb0ce0b-7ef0-42ed-bb11-1a9ad624a597", "source": {"name": "Vernon", "slug": "vernon"}, "source_identifier": "40108", "external_references": [], "date_modified": "2026-06-12T10:35:10.533437+10:00"}, {"id": 86061, "name": "Probe Software", "roles_in_work": [{"id": 3112519, "title": "Stargate for SNES", "work_id": 119712, "role": "developer", "role_id": 658, "is_primary": true}], "also_known_as": "", "date_of_birth": "1984", "date_of_death": "", "genders": [], "languages": [], "places_of_operation": [], "biography": "", "biography_author": null, "date_of_biography": "2023-05-09T18:59:05.933942+10:00", "external_links": [], "uuid": "3038f493-a10f-4d33-b8b3-83ba74dbcd03", "source": {"name": "Vernon", "slug": "vernon"}, "source_identifier": "39946", "external_references": [], "date_modified": "2026-06-12T10:39:34.985769+10:00"}, {"id": 86060, "name": "Tantalus Media", "roles_in_work": [{"id": 3112386, "title": "The House of the Dead for Sega Saturn", "work_id": 119726, "role": "developer", "role_id": 658, "is_primary": true}, {"id": 3112490, "title": "Emulation of Manx TT SuperBike for Sega Saturn", "work_id": 120023, "role": "developer", "role_id": 658, "is_primary": true}, {"id": 3112515, "title": "South Park Rally for PlayStation", "work_id": 119710, "role": "developer", "role_id": 658, "is_primary": true}, {"id": 3112520, "title": "Stargate for SNES", "work_id": 119712, "role": "developer", "role_id": 658, "is_primary": true}, {"id": 3112402, "title": "Manx TT SuperBike for Sega Saturn", "work_id": 119724, "role": "developer", "role_id": 658, "is_primary": true}], "also_known_as": "", "date_of_birth": "", "date_of_death": "", "genders": [], "languages": [], "places_of_operation": [], "biography": "", "biography_author": null, "date_of_biography": "2023-08-02T10:21:22.688461+10:00", "external_links": [], "uuid": "4d118035-ba74-4b46-bd51-1168a8b4f2a0", "source": {"name": "Vernon", "slug": "vernon"}, "source_identifier": "39945", "external_references": [], "date_modified": "2026-06-12T10:39:35.712836+10:00"}, {"id": 86059, "name": "Strategic Simulations, Inc.", "roles_in_work": [{"id": 3112451, "title": "Warlords: Battlecry for PC", "work_id": 119696, "role": "publisher", "role_id": 942, "is_primary": true}, {"id": 3112529, "title": "Emulation of Warlords: Battlecry for PC", "work_id": 120018, "role": "publisher", "role_id": 942, "is_primary": true}, {"id": 3112493, "title": "Emulation of Reach for the Stars for PC", "work_id": 120024, "role": "publisher", "role_id": 942, "is_primary": true}, {"id": 3112419, "title": "Reach for the Stars for PC", "work_id": 119709, "role": "publisher", "role_id": 942, "is_primary": true}, {"id": 3112523, "title": "Decisive Battles of World War II: Ardennes Offensive for PC", "work_id": 119681, "role": "publisher", "role_id": 942, "is_primary": true}, {"id": 3112539, "title": "Emulation of Decisive Battles of World War II: Ardennes Offensive for PC", "work_id": 120012, "role": "publisher", "role_id": 942, "is_primary": true}], "also_known_as": "", "date_of_birth": "1979", "date_of_death": "1994", "genders": [], "languages": [], "places_of_operation": [], "biography": "", "biography_author": null, "date_of_biography": "2023-05-09T20:05:57.620188+10:00", "external_links": [], "uuid": "eb7d5de1-b933-43f0-88b3-12ced7b38c05", "source": {"name": "Vernon", "slug": "vernon"}, "source_identifier": "40109", "external_references": [], "date_modified": "2026-06-12T10:40:27.181809+10:00"}, {"id": 86058, "name": "Acclaim Entertainment Ltd", "roles_in_work": [{"id": 3112545, "title": "Stargate for Game Boy", "work_id": 119711, "role": "publisher", "role_id": 942, "is_primary": true}, {"id": 3112407, "title": "NBA Jam 99 for Game Boy Color", "work_id": 119706, "role": "publisher", "role_id": 942, "is_primary": true}, {"id": 3112361, "title": "College Slam for Game Boy", "work_id": 119679, "role": "publisher", "role_id": 942, "is_primary": true}, {"id": 3112375, "title": "DragonHeart for Game Boy", "work_id": 119683, "role": "publisher", "role_id": 942, "is_primary": true}, {"id": 3112525, "title": "NBA Jam Tournament Edition for Game Boy", "work_id": 119707, "role": "publisher", "role_id": 942, "is_primary": true}, {"id": 3112516, "title": "South Park Rally for PlayStation", "work_id": 119710, "role": "publisher", "role_id": 942, "is_primary": true}, {"id": 3112521, "title": "Stargate for SNES", "work_id": 119712, "role": "publisher", "role_id": 942, "is_primary": true}], "also_known_as": "", "date_of_birth": "1987", "date_of_death": "", "genders": [], "languages": [], "places_of_operation": [], "biography": "", "biography_author": null, "date_of_biography": "2023-05-09T20:05:55.008582+10:00", "external_links": [], "uuid": "7f2ff34b-f6db-42f0-9644-4c41b63038d7", "source": {"name": "Vernon", "slug": "vernon"}, "source_identifier": "39947", "external_references": [], "date_modified": "2026-06-12T10:40:44.424698+10:00"}, {"id": 86057, "name": "Red Orb Entertainment", "roles_in_work": [{"id": 3112537, "title": "Warlords III: Reign of Heroes for PC", "work_id": 119702, "role": "publisher", "role_id": 942, "is_primary": true}, {"id": 3112447, "title": "Warlords III: Darklords Rising for PC", "work_id": 119701, "role": "publisher", "role_id": 942, "is_primary": true}, {"id": 3112505, "title": "Emulation of Warlords III: Reign of Heroes for PC", "work_id": 120020, "role": "publisher", "role_id": 942, "is_primary": true}, {"id": 3112527, "title": "Emulation of Warlords III: Darklords Rising for PC", "work_id": 120019, "role": "publisher", "role_id": 942, "is_primary": true}], "also_known_as": "", "date_of_birth": "21 MAY 1997", "date_of_death": "MAR 2001", "genders": [], "languages": [], "places_of_operation": [], "biography": "", "biography_author": null, "date_of_biography": "2023-05-09T20:06:26.205029+10:00", "external_links": [], "uuid": "bd5d0f7b-0f7c-42fc-be7c-d7da8a161ddd", "source": {"name": "Vernon", "slug": "vernon"}, "source_identifier": "40106", "external_references": [], "date_modified": "2026-06-12T10:40:21.089854+10:00"}]}