{"count": 28687, "next": "https://api.acmi.net.au/creators/?page=2694", "previous": "https://api.acmi.net.au/creators/?page=2692", "results": [{"id": 11520, "name": "Lai Pei Tsei", "roles_in_work": [{"id": 2641626, "title": "The Red dancer", "work_id": 110780, "role": "creator", "role_id": 968, "is_primary": true}], "also_known_as": "", "date_of_birth": "", "date_of_death": "", "genders": [], "languages": [], "places_of_operation": [], "biography": "", "biography_author": null, "date_of_biography": "2023-05-09T20:01:36.865497+10:00", "external_links": [], "uuid": "b5fa1f1f-3234-4d15-b96f-b0fd006a8a2e", "source": {"name": "Vernon", "slug": "vernon"}, "source_identifier": "3269", "external_references": [], "date_modified": "2025-03-05T11:37:32.012739+11:00"}, {"id": 11519, "name": "Chaiya Takviriyanun", "roles_in_work": [{"id": 2641624, "title": "A Boy and his plant", "work_id": 110779, "role": "creator", "role_id": 968, "is_primary": true}], "also_known_as": "", "date_of_birth": "", "date_of_death": "", "genders": [], "languages": [], "places_of_operation": [], "biography": "", "biography_author": null, "date_of_biography": "2023-05-09T20:01:22.460673+10:00", "external_links": [], "uuid": "a401b635-07ac-4884-9d89-d2a8dbe5cd36", "source": {"name": "Vernon", "slug": "vernon"}, "source_identifier": "3268", "external_references": [], "date_modified": "2025-03-05T11:37:30.605919+11:00"}, {"id": 11518, "name": "Ahmad Azlan", "roles_in_work": [{"id": 2641622, "title": "Flimflam man", "work_id": 110778, "role": "creator", "role_id": 968, "is_primary": true}], "also_known_as": "", "date_of_birth": "", "date_of_death": "", "genders": [], "languages": [], "places_of_operation": [], "biography": "", "biography_author": null, "date_of_biography": "2023-05-09T20:01:25.735301+10:00", "external_links": [], "uuid": "bbaa7e2d-dd1b-41ca-b5e5-cc5a977ce139", "source": {"name": "Vernon", "slug": "vernon"}, "source_identifier": "3267", "external_references": [], "date_modified": "2025-03-05T11:37:29.158741+11:00"}, {"id": 11517, "name": "Simone Downey", "roles_in_work": [{"id": 2641620, "title": "Falling feather", "work_id": 110777, "role": "creator", "role_id": 968, "is_primary": true}], "also_known_as": "", "date_of_birth": "", "date_of_death": "", "genders": [], "languages": [], "places_of_operation": [], "biography": "", "biography_author": null, "date_of_biography": "2023-05-09T20:01:24.984266+10:00", "external_links": [], "uuid": "e528f5b7-14d5-431b-ba87-ad55f693317c", "source": {"name": "Vernon", "slug": "vernon"}, "source_identifier": "3266", "external_references": [], "date_modified": "2025-03-05T11:37:27.771082+11:00"}, {"id": 11516, "name": "Christine Leong Li-Yin", "roles_in_work": [{"id": 2641618, "title": "To save oneself", "work_id": 110776, "role": "creator", "role_id": 968, "is_primary": true}], "also_known_as": "", "date_of_birth": "", "date_of_death": "", "genders": [], "languages": [], "places_of_operation": [], "biography": "", "biography_author": null, "date_of_biography": "2023-05-09T20:01:33.178611+10:00", "external_links": [], "uuid": "32b7e906-2a1a-492e-b336-349ac075dcf3", "source": {"name": "Vernon", "slug": "vernon"}, "source_identifier": "3258", "external_references": [], "date_modified": "2025-03-05T11:37:26.373552+11:00"}, {"id": 11515, "name": "Tulachart Akkaraviboon", "roles_in_work": [{"id": 2641616, "title": "Island", "work_id": 110775, "role": "creator", "role_id": 968, "is_primary": true}], "also_known_as": "", "date_of_birth": "", "date_of_death": "", "genders": [], "languages": [], "places_of_operation": [], "biography": "", "biography_author": null, "date_of_biography": "2023-05-09T20:01:41.041926+10:00", "external_links": [], "uuid": "906a0e6f-384e-4207-a26b-c8ed00287e17", "source": {"name": "Vernon", "slug": "vernon"}, "source_identifier": "3257", "external_references": [], "date_modified": "2025-03-05T11:37:24.902753+11:00"}, {"id": 11514, "name": "James Ly", "roles_in_work": [{"id": 2641614, "title": "Il Fantasista", "work_id": 110774, "role": "creator", "role_id": 968, "is_primary": true}], "also_known_as": "", "date_of_birth": "", "date_of_death": "", "genders": [], "languages": [], "places_of_operation": [], "biography": "", "biography_author": null, "date_of_biography": "2023-05-09T20:01:28.447798+10:00", "external_links": [], "uuid": "c9b0fa08-54f4-42a8-baf6-6e9235d5813e", "source": {"name": "Vernon", "slug": "vernon"}, "source_identifier": "3256", "external_references": [], "date_modified": "2025-03-05T11:37:23.518966+11:00"}, {"id": 11513, "name": "Ebony-Jo Gamble", "roles_in_work": [{"id": 2641612, "title": "Demented", "work_id": 110773, "role": "creator", "role_id": 968, "is_primary": true}], "also_known_as": "", "date_of_birth": "", "date_of_death": "", "genders": [], "languages": [], "places_of_operation": [], "biography": "", "biography_author": null, "date_of_biography": "2023-05-09T20:01:38.462417+10:00", "external_links": [], "uuid": "1da72d7b-1b75-491e-9e7b-b406c0d220a1", "source": {"name": "Vernon", "slug": "vernon"}, "source_identifier": "3255", "external_references": [], "date_modified": "2025-03-05T11:37:22.103063+11:00"}, {"id": 11512, "name": "Ooi Soon Yen", "roles_in_work": [{"id": 2641608, "title": "The Escapade", "work_id": 110771, "role": "creator", "role_id": 968, "is_primary": true}], "also_known_as": "", "date_of_birth": "", "date_of_death": "", "genders": [], "languages": [], "places_of_operation": [], "biography": "", "biography_author": null, "date_of_biography": "2023-05-09T20:01:24.268328+10:00", "external_links": [], "uuid": "85781d6b-c8c8-4a91-951e-e9b7bce63379", "source": {"name": "Vernon", "slug": "vernon"}, "source_identifier": "3252", "external_references": [], "date_modified": "2025-03-05T11:37:19.302550+11:00"}, {"id": 11511, "name": "Gary Bui", "roles_in_work": [{"id": 2641606, "title": "Hikikomori: alienation through technology", "work_id": 110770, "role": "creator", "role_id": 968, "is_primary": true}], "also_known_as": "", "date_of_birth": "", "date_of_death": "", "genders": [], "languages": [], "places_of_operation": [], "biography": "", "biography_author": null, "date_of_biography": "2023-05-09T20:01:37.652588+10:00", "external_links": [], "uuid": "412ac677-862b-46bf-9002-a1888484b7a2", "source": {"name": "Vernon", "slug": "vernon"}, "source_identifier": "3251", "external_references": [], "date_modified": "2025-03-05T11:37:17.926731+11:00"}]}