{"count": 28684, "next": "https://api.acmi.net.au/creators/?page=2407", "previous": "https://api.acmi.net.au/creators/?page=2405", "results": [{"id": 15084, "name": "Esso Oil Company", "roles_in_work": [{"id": 2714045, "title": "Forest heritage", "work_id": 67722, "role": "production company", "role_id": 941, "is_primary": true}], "also_known_as": "", "date_of_birth": "", "date_of_death": "", "genders": [], "languages": [], "places_of_operation": [], "biography": "", "biography_author": null, "date_of_biography": "2023-08-11T16:43:59.780948+10:00", "external_links": [], "uuid": "d579f0a8-7c11-4bf7-8807-6081b4d6d6a3", "source": {"name": "Vernon", "slug": "vernon"}, "source_identifier": "7977", "external_references": [], "date_modified": "2025-03-12T01:00:28.918675+11:00"}, {"id": 15083, "name": "Charles R. Herschell", "roles_in_work": [{"id": 1815542, "title": "Spirit of Progress: Australia's wonder train", "work_id": 89480, "role": "producer", "role_id": 1089, "is_primary": true}, {"id": 2399438, "title": "Alpine vistas: Mt. Hotham", "work_id": 76501, "role": "producer/director", "role_id": 31, "is_primary": true}, {"id": 2714040, "title": "Forest fantasia", "work_id": 67719, "role": "producer/director", "role_id": 31, "is_primary": true}], "also_known_as": "", "date_of_birth": "", "date_of_death": "", "genders": [], "languages": [], "places_of_operation": [], "biography": "", "biography_author": null, "date_of_biography": "2023-08-11T13:45:10.677064+10:00", "external_links": [], "uuid": "089d3d8e-44a6-4995-96c1-31843ff26bef", "source": {"name": "Vernon", "slug": "vernon"}, "source_identifier": "16716", "external_references": [], "date_modified": "2025-03-12T01:00:25.141781+11:00"}, {"id": 15082, "name": "Stephen White", "roles_in_work": [{"id": 750501, "title": "Periodic motions", "work_id": 71484, "role": "director", "role_id": 938, "is_primary": true}, {"id": 2793181, "title": "Speed of light", "work_id": 95824, "role": "director", "role_id": 938, "is_primary": true}, {"id": 2793138, "title": "Frames of reference", "work_id": 67780, "role": "co-producer", "role_id": 915, "is_primary": true}, {"id": 2793150, "title": "Inertial mass", "work_id": 68929, "role": "producer", "role_id": 1089, "is_primary": true}, {"id": 2793131, "title": "Forces", "work_id": 67716, "role": "producer", "role_id": 1089, "is_primary": true}, {"id": 2645989, "title": "Photons", "work_id": 71530, "role": "producer", "role_id": 1089, "is_primary": true}, {"id": 1814759, "title": "Mass of the electron", "work_id": 70181, "role": "producer", "role_id": 1089, "is_primary": true}], "also_known_as": "", "date_of_birth": "", "date_of_death": "", "genders": [], "languages": [], "places_of_operation": [], "biography": "", "biography_author": null, "date_of_biography": "2023-05-09T16:39:28.440979+10:00", "external_links": [], "uuid": "c17445c0-4b36-4a52-80c6-90f5fd9ced94", "source": {"name": "Vernon", "slug": "vernon"}, "source_identifier": "29098", "external_references": [{"id": 40329, "source": {"name": "Wikidata", "slug": "wikidata"}, "source_identifier": "Q121337245"}], "date_modified": "2025-03-14T20:16:14.976276+11:00"}, {"id": 15081, "name": "Physical Sciences Study Committee", "roles_in_work": [{"id": 857479, "title": "Random events", "work_id": 72054, "role": "production company", "role_id": 941, "is_primary": true}, {"id": 2793144, "title": "Inertia", "work_id": 68928, "role": "production company", "role_id": 941, "is_primary": true}, {"id": 2793157, "title": "The Interference of photons", "work_id": 85435, "role": "production company", "role_id": 941, "is_primary": true}, {"id": 2793168, "title": "The Rutherford atom", "work_id": 72411, "role": "production company", "role_id": 941, "is_primary": true}, {"id": 2714220, "title": "The Franck-Hertz experiment", "work_id": 67801, "role": "production company", "role_id": 941, "is_primary": true}, {"id": 2793129, "title": "Forces", "work_id": 67716, "role": "production company", "role_id": 941, "is_primary": true}], "also_known_as": "", "date_of_birth": "", "date_of_death": "", "genders": [], "languages": [], "places_of_operation": [], "biography": "", "biography_author": null, "date_of_biography": "2023-05-09T16:39:23.915358+10:00", "external_links": [], "uuid": "18e962c6-c4f4-4a37-8160-e30f53c55921", "source": {"name": "Vernon", "slug": "vernon"}, "source_identifier": "11467", "external_references": [], "date_modified": "2025-03-14T20:16:11.487460+11:00"}, {"id": 15079, "name": "Gerhard Reiche", "roles_in_work": [{"id": 2644838, "title": "Football: the sport of millions", "work_id": 67703, "role": "director", "role_id": 938, "is_primary": true}], "also_known_as": "", "date_of_birth": null, "date_of_death": null, "genders": [], "languages": [], "places_of_operation": [], "biography": "", "biography_author": null, "date_of_biography": null, "external_links": [], "uuid": "14349152-950a-4b65-a169-44aa46e4ec3b", "source": {"name": "Vernon", "slug": "vernon"}, "source_identifier": "19770", "external_references": [], "date_modified": "2025-03-05T12:26:51.139809+11:00"}, {"id": 15077, "name": "Travelling Circus Films", "roles_in_work": [{"id": 2714004, "title": "Fool on a hill", "work_id": 67701, "role": "production company", "role_id": 941, "is_primary": true}], "also_known_as": "", "date_of_birth": "", "date_of_death": "", "genders": [], "languages": [], "places_of_operation": [], "biography": "", "biography_author": null, "date_of_biography": "2023-05-09T17:03:04.640159+10:00", "external_links": [], "uuid": "0790fdff-37e6-486c-a249-361ebfa417c5", "source": {"name": "Vernon", "slug": "vernon"}, "source_identifier": "13693", "external_references": [{"id": 33236, "source": {"name": "Wikidata", "slug": "wikidata"}, "source_identifier": "Q121035614"}], "date_modified": "2025-03-12T00:57:33.592957+11:00"}, {"id": 15076, "name": "Hugh Hudson", "roles_in_work": [{"id": 2249703, "title": "Revolution", "work_id": 81597, "role": "director", "role_id": 938, "is_primary": true}, {"id": 2713997, "title": "Food preservation", "work_id": 67697, "role": "director", "role_id": 938, "is_primary": true}, {"id": 2649042, "title": "Chariots of fire", "work_id": 80673, "role": "director", "role_id": 938, "is_primary": true}, {"id": 1985847, "title": "Greystoke: The Legend of Tarzan, lord of the apes", "work_id": 81469, "role": "director", "role_id": 938, "is_primary": true}, {"id": 907953, "title": "Design for today", "work_id": 88330, "role": "director", "role_id": 938, "is_primary": true}, {"id": 1985845, "title": "Greystoke: The Legend of Tarzan, lord of the apes", "work_id": 81469, "role": "co-producer", "role_id": 915, "is_primary": true}], "also_known_as": "", "date_of_birth": "1936-08-25", "date_of_death": "2023-02-10", "genders": [{"id": 9, "name": "Male", "slug": "male"}], "languages": [{"id": 1, "name": "English", "slug": "english"}], "places_of_operation": [{"id": 10, "name": "United Kingdom", "slug": "united-kingdom"}], "biography": "Hugh Hudson (born 25 August 1936) is an English film director. He was among a generation of British directors who would begin their career making documentaries and television commercials before going on to have success in films. Hudson directed the 1981 Academy Award and BAFTA Award Best Picture Chariots of Fire, a film ranked 19th in the British Film Institute's list of Top 100 British films.", "biography_author": "Wikidata", "date_of_biography": "2022-05-19T11:46:40.044618+10:00", "external_links": [{"id": 2247, "uri": "https://en.wikipedia.org/wiki/Hugh_Hudson"}], "uuid": "9cbf21cf-3aff-4cc3-9f29-86b68d6e48f9", "source": {"name": "Vernon", "slug": "vernon"}, "source_identifier": "20678", "external_references": [{"id": 9652, "source": {"name": "Wikidata", "slug": "wikidata"}, "source_identifier": "Q538578"}, {"id": 9653, "source": {"name": "VIAF", "slug": "viaf"}, "source_identifier": "115355419"}, {"id": 9654, "source": {"name": "LOC Auth", "slug": "loc-auth"}, "source_identifier": "no97003969"}, {"id": 9655, "source": {"name": "WorldCat", "slug": "worldcat"}, "source_identifier": "lccn-no97003969"}], "date_modified": "2025-03-12T00:57:28.401437+11:00"}, {"id": 15075, "name": "Cammell Hudson", "roles_in_work": [{"id": 907950, "title": "Design for today", "work_id": 88330, "role": "production company", "role_id": 941, "is_primary": true}, {"id": 2713995, "title": "Food preservation", "work_id": 67697, "role": "production company", "role_id": 941, "is_primary": true}], "also_known_as": "", "date_of_birth": null, "date_of_death": null, "genders": [], "languages": [], "places_of_operation": [], "biography": "", "biography_author": null, "date_of_biography": null, "external_links": [], "uuid": "b0459c89-7aad-4be9-ae67-29cb8d7c97de", "source": {"name": "Vernon", "slug": "vernon"}, "source_identifier": "16448", "external_references": [], "date_modified": "2025-03-12T00:57:27.241211+11:00"}, {"id": 15072, "name": "Kathleen O'Brien", "roles_in_work": [{"id": 2713990, "title": "Food handling", "work_id": 67695, "role": "director", "role_id": 938, "is_primary": true}], "also_known_as": "", "date_of_birth": null, "date_of_death": null, "genders": [], "languages": [], "places_of_operation": [], "biography": "", "biography_author": null, "date_of_biography": null, "external_links": [], "uuid": "c3c8f155-28f7-424c-84ce-0c4ab9ef0e20", "source": {"name": "Vernon", "slug": "vernon"}, "source_identifier": "23082", "external_references": [], "date_modified": "2025-03-12T00:57:23.697206+11:00"}, {"id": 15071, "name": "R. Ronald Brown", "roles_in_work": [{"id": 2644836, "title": "Food for thought", "work_id": 67693, "role": "director", "role_id": 938, "is_primary": true}], "also_known_as": "", "date_of_birth": "", "date_of_death": "", "genders": [], "languages": [], "places_of_operation": [], "biography": "", "biography_author": null, "date_of_biography": "2023-05-09T17:03:00.065490+10:00", "external_links": [], "uuid": "fc8691f1-4cf4-473b-87ad-fbe23cc7200b", "source": {"name": "Vernon", "slug": "vernon"}, "source_identifier": "27037", "external_references": [{"id": 42355, "source": {"name": "Wikidata", "slug": "wikidata"}, "source_identifier": "Q121337387"}], "date_modified": "2025-03-05T12:26:49.679839+11:00"}]}