{"count": 28683, "next": "https://api.acmi.net.au/creators/?page=1097", "previous": "https://api.acmi.net.au/creators/?page=1095", "results": [{"id": 74618, "name": "D. David Bash", "roles_in_work": [{"id": 2760568, "title": "Heart-lung endurance", "work_id": 67267, "role": "producer/director", "role_id": 31, "is_primary": true}, {"id": 2760570, "title": "Muscular strength and endurance", "work_id": 96985, "role": "producer/director", "role_id": 31, "is_primary": true}], "also_known_as": "", "date_of_birth": null, "date_of_death": null, "genders": [], "languages": [], "places_of_operation": [], "biography": "", "biography_author": null, "date_of_biography": null, "external_links": [], "uuid": "f8053d3d-c18d-4b4f-985c-c6ecac8de486", "source": {"name": "Vernon", "slug": "vernon"}, "source_identifier": "17294", "external_references": [{"id": 50776, "source": {"name": "Wikidata", "slug": "wikidata"}, "source_identifier": "Q121361378"}], "date_modified": "2025-03-14T17:26:15.676588+11:00"}, {"id": 74617, "name": "Graphic Associates", "roles_in_work": [{"id": 2713146, "title": "Everybody's handicapped", "work_id": 67265, "role": "production company", "role_id": 941, "is_primary": true}], "also_known_as": "", "date_of_birth": "", "date_of_death": "", "genders": [], "languages": [], "places_of_operation": [], "biography": "", "biography_author": null, "date_of_biography": "2023-05-09T16:21:48.726500+10:00", "external_links": [], "uuid": "31d0e89b-ad43-4177-80a5-8be4684b0724", "source": {"name": "Vernon", "slug": "vernon"}, "source_identifier": "8851", "external_references": [{"id": 41679, "source": {"name": "Wikidata", "slug": "wikidata"}, "source_identifier": "Q121223514"}], "date_modified": "2025-03-12T00:37:40.366841+11:00"}, {"id": 74616, "name": "Edward Le Lorrain", "roles_in_work": [{"id": 2318325, "title": "Sun, wind and wood", "work_id": 77806, "role": "co-producer", "role_id": 915, "is_primary": true}, {"id": 2713117, "title": "Eve Lambart", "work_id": 67250, "role": "co-producer", "role_id": 915, "is_primary": true}, {"id": 897330, "title": "If you love this planet", "work_id": 77394, "role": "co-producer", "role_id": 915, "is_primary": true}, {"id": 2123312, "title": "Boys will be men", "work_id": 77870, "role": "co-producer", "role_id": 915, "is_primary": true}, {"id": 2176824, "title": "Dark lullabies", "work_id": 78478, "role": "producer", "role_id": 1089, "is_primary": true}], "also_known_as": "", "date_of_birth": "", "date_of_death": "", "genders": [{"id": 9, "name": "Male", "slug": "male"}], "languages": [], "places_of_operation": [], "biography": "", "biography_author": null, "date_of_biography": "2023-05-09T19:08:23.618383+10:00", "external_links": [], "uuid": "8957a2b2-117b-4817-b5bd-5427eea17b0a", "source": {"name": "Vernon", "slug": "vernon"}, "source_identifier": "18611", "external_references": [{"id": 50764, "source": {"name": "Wikidata", "slug": "wikidata"}, "source_identifier": "Q22102616"}], "date_modified": "2025-03-12T00:37:02.221379+11:00"}, {"id": 74615, "name": "Margaret Wescott", "roles_in_work": [{"id": 2713118, "title": "Eve Lambart", "work_id": 67250, "role": "director", "role_id": 938, "is_primary": true}, {"id": 2615979, "title": "Stolen moments", "work_id": 86501, "role": "director", "role_id": 938, "is_primary": true}, {"id": 2752490, "title": "Louise Drouin: veterinarian", "work_id": 98317, "role": "director", "role_id": 938, "is_primary": true}, {"id": 2648175, "title": "Behind the veil: nuns. Pt. 1.", "work_id": 78447, "role": "director", "role_id": 938, "is_primary": true}, {"id": 2111583, "title": "Behind the veil: nuns. Pt. 2.", "work_id": 78446, "role": "director", "role_id": 938, "is_primary": true}, {"id": 2305411, "title": "Some American feminists", "work_id": 88046, "role": "co-director", "role_id": 959, "is_primary": true}, {"id": 2713116, "title": "Eve Lambart", "work_id": 67250, "role": "co-producer", "role_id": 915, "is_primary": true}, {"id": 2358195, "title": "The Lady from Grey County", "work_id": 88669, "role": "producer", "role_id": 1089, "is_primary": true}], "also_known_as": "", "date_of_birth": "", "date_of_death": "", "genders": [], "languages": [], "places_of_operation": [], "biography": "", "biography_author": null, "date_of_biography": "2023-05-09T20:07:15.677373+10:00", "external_links": [], "uuid": "14c573d8-e3b3-44c9-90c8-6d7692379c1e", "source": {"name": "Vernon", "slug": "vernon"}, "source_identifier": "24364", "external_references": [{"id": 36707, "source": {"name": "Wikidata", "slug": "wikidata"}, "source_identifier": "Q121091132"}], "date_modified": "2025-03-13T01:06:22.469198+11:00"}, {"id": 74614, "name": "John Sangster", "roles_in_work": [{"id": 2792046, "title": "Koalas", "work_id": 75290, "role": "composer", "role_id": 538, "is_primary": false}, {"id": 2713077, "title": "Escape to the sun", "work_id": 67231, "role": "music", "role_id": 949, "is_primary": false}, {"id": 2765517, "title": "Peach's Australia: Arnhem Land", "work_id": 116760, "role": "music", "role_id": 949, "is_primary": false}, {"id": 2792037, "title": "Platypus: Ornithorhynchus Anatinus", "work_id": 71646, "role": "music", "role_id": 949, "is_primary": false}, {"id": 2379645, "title": "The Land my mother = Walya ngamardiki", "work_id": 74463, "role": "music", "role_id": 949, "is_primary": false}], "also_known_as": "", "date_of_birth": "17 NOV 1928", "date_of_death": "26 OCT 1995", "genders": [{"id": 9, "name": "Male", "slug": "male"}], "languages": [], "places_of_operation": [], "biography": "", "biography_author": null, "date_of_biography": "2023-07-19T03:35:47.736136+10:00", "external_links": [], "uuid": "1aa7f0e5-e50e-4234-a757-e8fa04e613f7", "source": {"name": "Vernon", "slug": "vernon"}, "source_identifier": "35224", "external_references": [{"id": 51953, "source": {"name": "Wikidata", "slug": "wikidata"}, "source_identifier": "Q121361205"}], "date_modified": "2025-03-14T20:06:22.298561+11:00"}, {"id": 74613, "name": "Peter Reid", "roles_in_work": [{"id": 2760820, "title": "Escape to nowhere", "work_id": 67230, "role": "producer", "role_id": 1089, "is_primary": true}, {"id": 2243100, "title": "Five of a Kind", "work_id": 80660, "role": "producer/director", "role_id": 31, "is_primary": true}], "also_known_as": "", "date_of_birth": "", "date_of_death": "", "genders": [], "languages": [], "places_of_operation": [], "biography": "", "biography_author": null, "date_of_biography": "2023-05-09T19:32:10.090359+10:00", "external_links": [], "uuid": "fb769af6-a139-4316-90fe-f02cec1c2c88", "source": {"name": "Vernon", "slug": "vernon"}, "source_identifier": "26681", "external_references": [{"id": 36659, "source": {"name": "Wikidata", "slug": "wikidata"}, "source_identifier": "Q121223189"}], "date_modified": "2025-03-14T17:28:35.534611+11:00"}, {"id": 74612, "name": "Vivien Carey", "roles_in_work": [{"id": 2713064, "title": "Errigal", "work_id": 67227, "role": "co-producer", "role_id": 915, "is_primary": true}, {"id": 918389, "title": "Oisin: son of fionn maccumhail", "work_id": 96358, "role": "co-producer", "role_id": 915, "is_primary": true}], "also_known_as": "", "date_of_birth": "2000-01-01", "date_of_death": "", "genders": [{"id": 5, "name": "Female", "slug": "female"}], "languages": [{"id": 1, "name": "English", "slug": "english"}], "places_of_operation": [{"id": 10, "name": "United Kingdom", "slug": "united-kingdom"}], "biography": "", "biography_author": null, "date_of_biography": "2023-05-09T16:14:26.668139+10:00", "external_links": [], "uuid": "0b702d08-4ea5-47d5-8a2a-a1ee4c423870", "source": {"name": "Vernon", "slug": "vernon"}, "source_identifier": "3967", "external_references": [{"id": 40860, "source": {"name": "Wikidata", "slug": "wikidata"}, "source_identifier": "Q1787775"}], "date_modified": "2025-03-12T00:36:10.544458+11:00"}, {"id": 74611, "name": "Paul Buck", "roles_in_work": [{"id": 2647510, "title": "Equality. Part 2", "work_id": 76469, "role": "co-director", "role_id": 959, "is_primary": true}, {"id": 2713054, "title": "Equality. Part 1", "work_id": 67222, "role": "co-director", "role_id": 959, "is_primary": true}], "also_known_as": "", "date_of_birth": "", "date_of_death": "", "genders": [], "languages": [], "places_of_operation": [], "biography": "", "biography_author": null, "date_of_biography": "2023-05-09T16:16:48.221273+10:00", "external_links": [], "uuid": "efa8daf0-8395-43d8-acf3-a0b13617a306", "source": {"name": "Vernon", "slug": "vernon"}, "source_identifier": "26184", "external_references": [{"id": 39216, "source": {"name": "Wikidata", "slug": "wikidata"}, "source_identifier": "Q121036188"}], "date_modified": "2025-03-12T00:36:03.350626+11:00"}, {"id": 74610, "name": "Ray Twitchin", "roles_in_work": [{"id": 2713043, "title": "Episode 2 [Magnetic soundtrack]", "work_id": 67218, "role": "producer/director", "role_id": 31, "is_primary": true}], "also_known_as": "", "date_of_birth": "", "date_of_death": "", "genders": [], "languages": [], "places_of_operation": [], "biography": "", "biography_author": null, "date_of_biography": "2023-05-09T16:16:42.863333+10:00", "external_links": [], "uuid": "18691028-cd4c-471e-8a95-39551cb2ba6e", "source": {"name": "Vernon", "slug": "vernon"}, "source_identifier": "27179", "external_references": [{"id": 50838, "source": {"name": "Wikidata", "slug": "wikidata"}, "source_identifier": "Q121360874"}], "date_modified": "2025-03-12T00:35:55.733807+11:00"}, {"id": 74609, "name": "Unit Five Seven", "roles_in_work": [{"id": 2712987, "title": "Enginemen", "work_id": 67186, "role": "production company", "role_id": 941, "is_primary": true}], "also_known_as": "", "date_of_birth": "", "date_of_death": "", "genders": [], "languages": [], "places_of_operation": [], "biography": "", "biography_author": null, "date_of_biography": "2023-05-09T16:12:37.596683+10:00", "external_links": [], "uuid": "fd3fffb6-547a-4d87-bd5e-45676df3fea2", "source": {"name": "Vernon", "slug": "vernon"}, "source_identifier": "13850", "external_references": [{"id": 41146, "source": {"name": "Wikidata", "slug": "wikidata"}, "source_identifier": "Q121271418"}], "date_modified": "2025-03-12T00:34:48.094114+11:00"}]}