{"count": 28681, "next": "https://api.acmi.net.au/creators/?page=977", "previous": "https://api.acmi.net.au/creators/?page=975", "results": [{"id": 75818, "name": "Iain Lang", "roles_in_work": [{"id": 2267588, "title": "You can't shift the blame", "work_id": 76769, "role": "narrator", "role_id": 499, "is_primary": false}, {"id": 2113502, "title": "Bet your life", "work_id": 76770, "role": "narrator", "role_id": 499, "is_primary": false}], "also_known_as": "", "date_of_birth": "", "date_of_death": "", "genders": [], "languages": [], "places_of_operation": [], "biography": "", "biography_author": null, "date_of_biography": "2023-05-09T17:40:03.529487+10:00", "external_links": [], "uuid": "aae63f8e-b92e-434a-af31-53ff8b03b19a", "source": {"name": "Vernon", "slug": "vernon"}, "source_identifier": "39098", "external_references": [], "date_modified": "2023-06-14T16:33:30.576250+10:00"}, {"id": 75817, "name": "Tom Giblin", "roles_in_work": [{"id": 2267586, "title": "You can't shift the blame", "work_id": 76769, "role": "sound", "role_id": 952, "is_primary": false}], "also_known_as": "", "date_of_birth": "", "date_of_death": "", "genders": [], "languages": [], "places_of_operation": [], "biography": "", "biography_author": null, "date_of_biography": "2023-05-09T17:40:03.309288+10:00", "external_links": [], "uuid": "d86d2ae9-5665-4136-ba1b-d140f23b6ff5", "source": {"name": "Vernon", "slug": "vernon"}, "source_identifier": "39097", "external_references": [], "date_modified": "2023-06-14T16:33:30.576250+10:00"}, {"id": 75816, "name": "Joanne Bradford", "roles_in_work": [{"id": 2472123, "title": "Yipirinya", "work_id": 76764, "role": "co-director", "role_id": 959, "is_primary": true}], "also_known_as": "", "date_of_birth": "", "date_of_death": "", "genders": [], "languages": [], "places_of_operation": [], "biography": "", "biography_author": null, "date_of_biography": "2023-08-14T12:53:47.869905+10:00", "external_links": [], "uuid": "439f60f4-878e-403e-a3ba-ba80ef9ba8f9", "source": {"name": "Vernon", "slug": "vernon"}, "source_identifier": "22001", "external_references": [{"id": 37733, "source": {"name": "Wikidata", "slug": "wikidata"}, "source_identifier": "Q121271156"}], "date_modified": "2023-09-05T21:28:42.254570+10:00"}, {"id": 75815, "name": "Eli Rubintia", "roles_in_work": [{"id": 2472122, "title": "Yipirinya", "work_id": 76764, "role": "co-director", "role_id": 959, "is_primary": true}], "also_known_as": "", "date_of_birth": "", "date_of_death": "", "genders": [], "languages": [], "places_of_operation": [], "biography": "", "biography_author": null, "date_of_biography": "2023-08-14T12:53:47.256645+10:00", "external_links": [], "uuid": "3cd30a92-abef-483f-8122-8ac8aef50430", "source": {"name": "Vernon", "slug": "vernon"}, "source_identifier": "18678", "external_references": [{"id": 41445, "source": {"name": "Wikidata", "slug": "wikidata"}, "source_identifier": "Q121078867"}], "date_modified": "2023-09-05T19:28:33.385106+10:00"}, {"id": 75814, "name": "Art Gallery of South Australia", "roles_in_work": [{"id": 2751306, "title": "Women artists of Australia. Part 1. Sense and sensibility", "work_id": 97747, "role": "production company", "role_id": 941, "is_primary": true}, {"id": 1903992, "title": "Wool: an exhibition of the Art Gallery of South Australia, Adelaide Festival of Arts, 1972", "work_id": 76763, "role": "production company", "role_id": 941, "is_primary": true}], "also_known_as": "", "date_of_birth": "1881", "date_of_death": null, "genders": [], "languages": [], "places_of_operation": [], "biography": "The Art Gallery of South Australia (AGSA), established as the National Gallery of South Australia in 1881, is located in Adelaide. It is the most significant visual arts museum in the Australian state of South Australia. It has a collection of almost 45,000 works of art, making it the second largest state art collection in Australia (after the National Gallery of Victoria). As part of North Terrace cultural precinct, the gallery is flanked by the South Australian Museum to the west and the University of Adelaide to the east.\nAs well as its permanent collection, which is especially renowned for its collection of Australian art, AGSA hosts the annual Festival of Contemporary Aboriginal and Torres Strait Islander Art known as Tarnanthi, displays a number of visiting exhibitions each year and also contributes travelling exhibitions to regional galleries. European (including British), Asian and North American art are also well represented in its collections.\nAs of February 2022 the Director of AGSA is Rhana Devenport .\n\n", "biography_author": "Wikidata", "date_of_biography": "2023-09-05T17:46:05.743559+10:00", "external_links": [{"id": 5689, "uri": "https://en.wikipedia.org/wiki/Art_Gallery_of_South_Australia"}], "uuid": "51df4deb-0104-43ce-8565-d37b7709550f", "source": {"name": "Vernon", "slug": "vernon"}, "source_identifier": "3794", "external_references": [{"id": 33864, "source": {"name": "Wikidata", "slug": "wikidata"}, "source_identifier": "Q705557"}, {"id": 54005, "source": {"name": "VIAF", "slug": "viaf"}, "source_identifier": "153106661"}, {"id": 54006, "source": {"name": "LOC Auth", "slug": "loc-auth"}, "source_identifier": "n79007201"}, {"id": 54007, "source": {"name": "WorldCat", "slug": "worldcat"}, "source_identifier": "lccn-n79007201"}], "date_modified": "2025-03-13T00:40:54.596087+11:00"}, {"id": 75813, "name": "Andrew Silver", "roles_in_work": [{"id": 762732, "title": "The Murderer", "work_id": 76758, "role": "producer/director", "role_id": 31, "is_primary": true}, {"id": 2751821, "title": "Next door", "work_id": 98000, "role": "producer/director", "role_id": 31, "is_primary": true}], "also_known_as": "", "date_of_birth": "1942-07-12", "date_of_death": "", "genders": [{"id": 9, "name": "Male", "slug": "male"}], "languages": [{"id": 1, "name": "English", "slug": "english"}], "places_of_operation": [{"id": 1, "name": "United States of America", "slug": "united-states-of-america"}], "biography": "Andrew Silver is an American film director, writer and producer.; 17/08/2023", "biography_author": null, "date_of_biography": "2025-03-13T00:51:36.264115+11:00", "external_links": [{"id": 3554, "uri": "https://en.wikipedia.org/wiki/Andrew_Silver_(producer)"}], "uuid": "69a31410-075c-4668-acc4-e8bad6a2a5f2", "source": {"name": "Vernon", "slug": "vernon"}, "source_identifier": "15214", "external_references": [{"id": 26218, "source": {"name": "Wikidata", "slug": "wikidata"}, "source_identifier": "Q4758581"}, {"id": 27266, "source": {"name": "VIAF", "slug": "viaf"}, "source_identifier": "24349144"}, {"id": 27267, "source": {"name": "LOC Auth", "slug": "loc-auth"}, "source_identifier": "no2006027140"}, {"id": 27268, "source": {"name": "WorldCat", "slug": "worldcat"}, "source_identifier": "lccn-no2006027140"}], "date_modified": "2025-03-13T00:51:36.264392+11:00"}, {"id": 75812, "name": "Elizabeth Stevens", "roles_in_work": [{"id": 863029, "title": "We all have our reasons", "work_id": 76757, "role": "producer/director", "role_id": 31, "is_primary": true}], "also_known_as": "", "date_of_birth": null, "date_of_death": null, "genders": [], "languages": [], "places_of_operation": [], "biography": "", "biography_author": null, "date_of_biography": null, "external_links": [], "uuid": "0485e844-d42b-44cc-b4f2-06053cdd8458", "source": {"name": "Vernon", "slug": "vernon"}, "source_identifier": null, "external_references": [{"id": 51513, "source": {"name": "Wikidata", "slug": "wikidata"}, "source_identifier": "Q121360579"}], "date_modified": "2023-09-05T19:29:39.206056+10:00"}, {"id": 75811, "name": "Liz Rust", "roles_in_work": [{"id": 2197717, "title": "Does it feel like a long ten minutes? (TEFC)", "work_id": 76749, "role": "co-producers/directors", "role_id": 628, "is_primary": true}], "also_known_as": "", "date_of_birth": "", "date_of_death": "", "genders": [], "languages": [], "places_of_operation": [], "biography": "", "biography_author": null, "date_of_biography": "2023-05-09T15:20:23.340660+10:00", "external_links": [], "uuid": "ed29bd2c-f62f-4a18-b41a-1a973ddcb164", "source": {"name": "Vernon", "slug": "vernon"}, "source_identifier": "23949", "external_references": [], "date_modified": "2023-06-14T16:33:30.576250+10:00"}, {"id": 75810, "name": "Leon Narbey", "roles_in_work": [{"id": 2250226, "title": "Richard St Barbe Baker: man of the trees", "work_id": 76740, "role": "director", "role_id": 938, "is_primary": true}], "also_known_as": "", "date_of_birth": "", "date_of_death": "", "genders": [], "languages": [], "places_of_operation": [], "biography": "", "biography_author": null, "date_of_biography": "2023-05-09T17:09:50.109968+10:00", "external_links": [], "uuid": "589238b2-f2df-4312-b1cb-8ad98710bb17", "source": {"name": "Vernon", "slug": "vernon"}, "source_identifier": "23706", "external_references": [{"id": 36368, "source": {"name": "Wikidata", "slug": "wikidata"}, "source_identifier": "Q121337542"}], "date_modified": "2023-09-05T22:20:04.120603+10:00"}, {"id": 75809, "name": "Graham Kennedy", "roles_in_work": [{"id": 2051549, "title": "[District Nursing Appeal]", "work_id": 117859, "role": "anchor/host", "role_id": 629, "is_primary": false}, {"id": 2340438, "title": "The Club", "work_id": 80808, "role": "cast", "role_id": 33, "is_primary": false}, {"id": 2043248, "title": "Travelling North", "work_id": 79362, "role": "cast", "role_id": 33, "is_primary": false}, {"id": 2194003, "title": "People count", "work_id": 76738, "role": "speaker", "role_id": 486, "is_primary": false}], "also_known_as": "", "date_of_birth": "1934-02-15", "date_of_death": "2005-05-25", "genders": [{"id": 9, "name": "Male", "slug": "male"}], "languages": [{"id": 1, "name": "English", "slug": "english"}], "places_of_operation": [{"id": 3, "name": "Australia", "slug": "australia"}], "biography": "Graham Cyril Kennedy AO (15 February 1934 – 25 May 2005) was an Australian entertainer, comedian and variety performer, as well as a personality and star of radio, theatre, television and film. He often performed in the style of vaudevillian and radio comedy star Roy Rene and was often called \"Gra Gra\" (pronounced \"gray-gray\").\nHonoured as an officer of the Order of Australia, he was a six-time recipient of the Gold Logie, including the Logie Hall of Fame award, and won the Star of the Year Award in 1959. He is the most awarded star of Australian television. He was often referred to as \"The King\" or the \"King of Australian television\".\nHe was also known for his television collaborations with Bert Newton and Don Lane.", "biography_author": "Wikidata", "date_of_biography": "2023-08-01T15:03:49.801941+10:00", "external_links": [{"id": 4092, "uri": "https://en.wikipedia.org/wiki/Graham_Kennedy"}], "uuid": "327d5315-95e1-4389-b252-90ccd5e44859", "source": {"name": "Vernon", "slug": "vernon"}, "source_identifier": "34620", "external_references": [{"id": 25264, "source": {"name": "Wikidata", "slug": "wikidata"}, "source_identifier": "Q2111930"}, {"id": 28737, "source": {"name": "VIAF", "slug": "viaf"}, "source_identifier": "166539832"}, {"id": 28738, "source": {"name": "LOC Auth", "slug": "loc-auth"}, "source_identifier": "nr2003033923"}, {"id": 28739, "source": {"name": "WorldCat", "slug": "worldcat"}, "source_identifier": "lccn-nr2003033923"}], "date_modified": "2023-09-05T20:19:00.299973+10:00"}]}