{"count": 28687, "next": "https://api.acmi.net.au/creators/?page=498", "previous": "https://api.acmi.net.au/creators/?page=496", "results": [{"id": 80613, "name": "Jennifer Crone", "roles_in_work": [{"id": 2201116, "title": "Dreamlives [Widescreen]", "work_id": 94036, "role": "producer/director", "role_id": 31, "is_primary": true}], "also_known_as": "", "date_of_birth": "", "date_of_death": "", "genders": [], "languages": [], "places_of_operation": [], "biography": "", "biography_author": null, "date_of_biography": "2023-05-09T15:26:30.992642+10:00", "external_links": [], "uuid": "dfffb132-8e77-4687-9654-280bc8f545b8", "source": {"name": "Vernon", "slug": "vernon"}, "source_identifier": "21702", "external_references": [{"id": 50703, "source": {"name": "Wikidata", "slug": "wikidata"}, "source_identifier": "Q121361105"}], "date_modified": "2023-09-05T21:20:27.759557+10:00"}, {"id": 80612, "name": "Penelope McDonald", "roles_in_work": [{"id": 915047, "title": "Much ado about something", "work_id": 94035, "role": "co-producer", "role_id": 915, "is_primary": true}, {"id": 2239939, "title": "Film Australia: immigration", "work_id": 94938, "role": "co-producers/directors", "role_id": 628, "is_primary": true}], "also_known_as": "", "date_of_birth": "", "date_of_death": "", "genders": [], "languages": [], "places_of_operation": [], "biography": "", "biography_author": null, "date_of_biography": "2023-05-09T16:52:01.907109+10:00", "external_links": [], "uuid": "e8cd6276-f2ec-4636-9eae-cec64d11f4c6", "source": {"name": "Vernon", "slug": "vernon"}, "source_identifier": "26407", "external_references": [{"id": 43277, "source": {"name": "Wikidata", "slug": "wikidata"}, "source_identifier": "Q121315392"}], "date_modified": "2023-09-05T23:51:37.995286+10:00"}, {"id": 80611, "name": "Helpful Eye", "roles_in_work": [{"id": 915045, "title": "Much ado about something", "work_id": 94035, "role": "production company", "role_id": 941, "is_primary": true}], "also_known_as": "", "date_of_birth": null, "date_of_death": null, "genders": [], "languages": [], "places_of_operation": [], "biography": "", "biography_author": null, "date_of_biography": null, "external_links": [], "uuid": "4b432081-1bee-4a35-9549-9abe8ba052af", "source": {"name": "Vernon", "slug": "vernon"}, "source_identifier": null, "external_references": [{"id": 39201, "source": {"name": "Wikidata", "slug": "wikidata"}, "source_identifier": "Q121057991"}], "date_modified": "2023-09-05T20:34:55.054734+10:00"}, {"id": 80610, "name": "Michael Sexton", "roles_in_work": [{"id": 2260709, "title": "Salinity: Australia's silent flood. Parts 1-4", "work_id": 94034, "role": "producer", "role_id": 1089, "is_primary": true}], "also_known_as": "", "date_of_birth": "", "date_of_death": "", "genders": [], "languages": [], "places_of_operation": [], "biography": "", "biography_author": null, "date_of_biography": "2023-05-09T17:28:34.868945+10:00", "external_links": [], "uuid": "e56c09d6-8d0d-42e8-b610-a63755e8c862", "source": {"name": "Vernon", "slug": "vernon"}, "source_identifier": "25226", "external_references": [{"id": 41384, "source": {"name": "Wikidata", "slug": "wikidata"}, "source_identifier": "Q121034956"}], "date_modified": "2023-09-05T23:09:16.897427+10:00"}, {"id": 80609, "name": "Richard Flax", "roles_in_work": [{"id": 2107135, "title": "Balinese surfer 2: wave of change [Widescreen]", "work_id": 94032, "role": "co-producer", "role_id": 915, "is_primary": true}], "also_known_as": "", "date_of_birth": "", "date_of_death": "", "genders": [], "languages": [], "places_of_operation": [], "biography": "", "biography_author": null, "date_of_biography": "2023-05-09T12:40:19.472679+10:00", "external_links": [], "uuid": "86b1bb0b-4c39-41eb-86af-13ff246e39b7", "source": {"name": "Vernon", "slug": "vernon"}, "source_identifier": "27380", "external_references": [{"id": 37346, "source": {"name": "Wikidata", "slug": "wikidata"}, "source_identifier": "Q121222727"}], "date_modified": "2023-09-06T00:29:05.485369+10:00"}, {"id": 80608, "name": "Greg Simson", "roles_in_work": [{"id": 2075015, "title": "A State funeral for Alec Campbell: the last Anzac", "work_id": 94031, "role": "director", "role_id": 938, "is_primary": true}], "also_known_as": "", "date_of_birth": "", "date_of_death": "", "genders": [], "languages": [], "places_of_operation": [], "biography": "", "biography_author": null, "date_of_biography": "2023-05-09T11:39:32.572589+10:00", "external_links": [], "uuid": "b2309abd-1555-4805-ac07-fb508f3a60bf", "source": {"name": "Vernon", "slug": "vernon"}, "source_identifier": "20065", "external_references": [{"id": 36545, "source": {"name": "Wikidata", "slug": "wikidata"}, "source_identifier": "Q121034949"}], "date_modified": "2023-09-05T20:22:07.319952+10:00"}, {"id": 80607, "name": "Alan Lindsay", "roles_in_work": [{"id": 2793569, "title": "Child soldiers [Widescreen] (D)", "work_id": 94030, "role": "director", "role_id": 938, "is_primary": true}], "also_known_as": "", "date_of_birth": "", "date_of_death": "", "genders": [], "languages": [], "places_of_operation": [], "biography": "", "biography_author": null, "date_of_biography": "2023-05-09T13:30:07.382800+10:00", "external_links": [], "uuid": "ec9b4a8e-250d-4632-aa58-309e6c61fdd9", "source": {"name": "Vernon", "slug": "vernon"}, "source_identifier": "14776", "external_references": [{"id": 35817, "source": {"name": "Wikidata", "slug": "wikidata"}, "source_identifier": "Q121159848"}], "date_modified": "2025-03-14T20:18:56.863093+11:00"}, {"id": 80606, "name": "Andrew Ogilvie", "roles_in_work": [{"id": 2793568, "title": "Child soldiers [Widescreen] (D)", "work_id": 94030, "role": "producer", "role_id": 1089, "is_primary": true}], "also_known_as": "", "date_of_birth": "", "date_of_death": "", "genders": [{"id": 9, "name": "Male", "slug": "male"}], "languages": [], "places_of_operation": [], "biography": "", "biography_author": null, "date_of_biography": "2023-05-09T13:30:07.150984+10:00", "external_links": [], "uuid": "4b15e104-221a-4662-b54f-21dcba6ec4a9", "source": {"name": "Vernon", "slug": "vernon"}, "source_identifier": "15205", "external_references": [{"id": 33140, "source": {"name": "Wikidata", "slug": "wikidata"}, "source_identifier": "Q62635733"}], "date_modified": "2025-03-14T20:18:56.273344+11:00"}, {"id": 80605, "name": "OPB", "roles_in_work": [{"id": 2793567, "title": "Child soldiers [Widescreen] (D)", "work_id": 94030, "role": "production company", "role_id": 941, "is_primary": true}], "also_known_as": "", "date_of_birth": "", "date_of_death": "", "genders": [], "languages": [], "places_of_operation": [], "biography": "", "biography_author": null, "date_of_biography": "2023-05-09T13:30:06.896659+10:00", "external_links": [], "uuid": "5266e46d-216b-4c74-bff3-2f6f9b6b0955", "source": {"name": "Vernon", "slug": "vernon"}, "source_identifier": "11144", "external_references": [{"id": 32947, "source": {"name": "Wikidata", "slug": "wikidata"}, "source_identifier": "Q121314972"}], "date_modified": "2025-03-14T20:18:55.694201+11:00"}, {"id": 80604, "name": "Claire Forster", "roles_in_work": [{"id": 3084764, "title": "Wives' tales", "work_id": 94029, "role": "producer", "role_id": 1089, "is_primary": true}], "also_known_as": "", "date_of_birth": "1965", "date_of_death": "", "genders": [], "languages": [], "places_of_operation": [], "biography": "", "biography_author": null, "date_of_biography": "2023-05-09T19:32:35.811900+10:00", "external_links": [], "uuid": "6364e5ce-e3e5-4eb2-8d07-bc899dfe5520", "source": {"name": "Vernon", "slug": "vernon"}, "source_identifier": "17039", "external_references": [{"id": 35454, "source": {"name": "Wikidata", "slug": "wikidata"}, "source_identifier": "Q121036052"}], "date_modified": "2025-03-17T10:37:51.887407+11:00"}]}