{"count": 28687, "next": "https://api.acmi.net.au/creators/?page=1088", "previous": "https://api.acmi.net.au/creators/?page=1086", "results": [{"id": 74712, "name": "Ashley Murray", "roles_in_work": [{"id": 2714465, "title": "Games of the XXI Olympiad: Montreal 1976", "work_id": 67939, "role": "producer", "role_id": 1089, "is_primary": true}], "also_known_as": "", "date_of_birth": null, "date_of_death": null, "genders": [], "languages": [], "places_of_operation": [], "biography": "", "biography_author": null, "date_of_biography": null, "external_links": [], "uuid": "d5c3d817-5ff9-46e9-b753-2580b546e7e6", "source": {"name": "Vernon", "slug": "vernon"}, "source_identifier": "15571", "external_references": [{"id": 37707, "source": {"name": "Wikidata", "slug": "wikidata"}, "source_identifier": "Q121270616"}], "date_modified": "2025-03-12T01:11:45.684291+11:00"}, {"id": 74711, "name": "Vivian Milroy", "roles_in_work": [{"id": 2714447, "title": "The Gallant little tailor", "work_id": 67929, "role": "co-producer", "role_id": 915, "is_primary": true}], "also_known_as": "", "date_of_birth": "03 JUN 1917", "date_of_death": "02 SEP 2009", "genders": [{"id": 5, "name": "Female", "slug": "female"}], "languages": [], "places_of_operation": [], "biography": "Vivian Milroy (1917-2009) was an English director and producer working in both film and television, and was also a screenwriter in both mediums. He first trained as an actor at RADA, graduating in 1939, and for a short time at the very start of his career, he performed as an actor in television films. He is best known for the films Don't Say Die (1950), which he both directed and wrote, and Crow Hollow (1952); and also for directing Armchair Theatre and Coronation Street. Source: Wikidata; 01/08/2023", "biography_author": null, "date_of_biography": "2025-03-12T01:11:33.246466+11:00", "external_links": [{"id": 5326, "uri": "https://en.wikipedia.org/wiki/Vivian_Milroy"}], "uuid": "cda3a2e6-7be2-44d2-ac7a-0790e135a1e7", "source": {"name": "Vernon", "slug": "vernon"}, "source_identifier": "30163", "external_references": [{"id": 25963, "source": {"name": "Wikidata", "slug": "wikidata"}, "source_identifier": "Q58920598"}], "date_modified": "2025-03-12T01:11:33.246706+11:00"}, {"id": 74710, "name": "Louis Hagan", "roles_in_work": [{"id": 2714446, "title": "The Gallant little tailor", "work_id": 67929, "role": "co-producer", "role_id": 915, "is_primary": true}], "also_known_as": "", "date_of_birth": "", "date_of_death": "", "genders": [], "languages": [], "places_of_operation": [], "biography": "", "biography_author": null, "date_of_biography": "2023-05-09T19:54:52.974657+10:00", "external_links": [], "uuid": "1c54b31f-e24f-4941-8cd0-03e1e944d498", "source": {"name": "Vernon", "slug": "vernon"}, "source_identifier": "24023", "external_references": [{"id": 39689, "source": {"name": "Wikidata", "slug": "wikidata"}, "source_identifier": "Q121058018"}], "date_modified": "2025-03-12T01:11:32.647793+11:00"}, {"id": 74709, "name": "Don Owen", "roles_in_work": [{"id": 2715487, "title": "High steel", "work_id": 68461, "role": "director", "role_id": 938, "is_primary": true}, {"id": 2293336, "title": "Toronto jazz", "work_id": 73931, "role": "director", "role_id": 938, "is_primary": true}, {"id": 2258888, "title": "Runner", "work_id": 76417, "role": "director", "role_id": 938, "is_primary": true}, {"id": 2170333, "title": "Nobody waved good-bye", "work_id": 86610, "role": "director", "role_id": 938, "is_primary": true}, {"id": 2714421, "title": "Further glimpses of Joey", "work_id": 67916, "role": "director", "role_id": 938, "is_primary": true}, {"id": 2346945, "title": "The Ernie game", "work_id": 87765, "role": "director", "role_id": 938, "is_primary": true}, {"id": 749372, "title": "Notes for a film about Donna and Gail", "work_id": 70996, "role": "director", "role_id": 938, "is_primary": true}, {"id": 894837, "title": "Ladies and gentlemen...Mr Leonard Cohen", "work_id": 69465, "role": "co-director", "role_id": 959, "is_primary": true}, {"id": 2170330, "title": "Nobody waved good-bye", "work_id": 86610, "role": "co-producer", "role_id": 915, "is_primary": true}], "also_known_as": "", "date_of_birth": "19 SEP 1931", "date_of_death": "21 FEB 2016", "genders": [{"id": 9, "name": "Male", "slug": "male"}], "languages": [{"id": 1, "name": "English", "slug": "english"}], "places_of_operation": [{"id": 36, "name": "Canada", "slug": "canada"}], "biography": "Don Owen (September 19, 1931 – February 21, 2016) was a Canadian film director, writer and producer who spent most of his career with the National Film Board of Canada (NFB). His films Nobody Waved Good-bye and The Ernie Game are regarded as two of the most significant English Canadian films of the 1960s. Source: Wikidata; 01/08/2023", "biography_author": null, "date_of_biography": "2025-03-12T01:36:08.862111+11:00", "external_links": [{"id": 1940, "uri": "https://en.wikipedia.org/wiki/Don_Owen_(filmmaker)"}], "uuid": "6057eef8-c854-4bc8-91e9-6a17050a325c", "source": {"name": "Vernon", "slug": "vernon"}, "source_identifier": "1147", "external_references": [{"id": 8413, "source": {"name": "Wikidata", "slug": "wikidata"}, "source_identifier": "Q3035874"}, {"id": 8414, "source": {"name": "VIAF", "slug": "viaf"}, "source_identifier": "514149106072368491083"}, {"id": 8415, "source": {"name": "LOC Auth", "slug": "loc-auth"}, "source_identifier": "no2002002626"}, {"id": 8416, "source": {"name": "WorldCat", "slug": "worldcat"}, "source_identifier": "lccn-no2002002626"}], "date_modified": "2025-03-12T01:36:08.862389+11:00"}, {"id": 74708, "name": "Ross McLean", "roles_in_work": [{"id": 2714420, "title": "Further glimpses of Joey", "work_id": 67916, "role": "producer", "role_id": 1089, "is_primary": true}], "also_known_as": "", "date_of_birth": null, "date_of_death": null, "genders": [], "languages": [], "places_of_operation": [], "biography": "", "biography_author": null, "date_of_biography": null, "external_links": [], "uuid": "15858f1f-b1aa-4b86-bc11-c37ce2badce6", "source": {"name": "Vernon", "slug": "vernon"}, "source_identifier": "28279", "external_references": [{"id": 34807, "source": {"name": "Wikidata", "slug": "wikidata"}, "source_identifier": "Q121035382"}], "date_modified": "2025-03-12T01:11:15.890918+11:00"}, {"id": 74707, "name": "Arthur Wolf", "roles_in_work": [{"id": 2766923, "title": "Function of Gestures", "work_id": 67889, "role": "producer/director", "role_id": 31, "is_primary": true}], "also_known_as": "", "date_of_birth": "", "date_of_death": "", "genders": [{"id": 9, "name": "Male", "slug": "male"}], "languages": [], "places_of_operation": [], "biography": "", "biography_author": null, "date_of_biography": "2023-08-11T16:55:17.870207+10:00", "external_links": [], "uuid": "e55ac041-78da-44e6-8b9d-36871c108292", "source": {"name": "Vernon", "slug": "vernon"}, "source_identifier": "35917", "external_references": [{"id": 52136, "source": {"name": "Wikidata", "slug": "wikidata"}, "source_identifier": "Q121361428"}], "date_modified": "2025-03-14T18:00:55.969429+11:00"}, {"id": 74706, "name": "Paul Ellen", "roles_in_work": [{"id": 2644885, "title": "Frustration and fixation", "work_id": 67875, "role": "co-producers/directors", "role_id": 628, "is_primary": true}], "also_known_as": "", "date_of_birth": "", "date_of_death": "", "genders": [], "languages": [], "places_of_operation": [], "biography": "", "biography_author": null, "date_of_biography": "2023-08-11T16:52:56.582729+10:00", "external_links": [], "uuid": "9b05d007-10b5-41c2-abd7-bb7d6d5eb182", "source": {"name": "Vernon", "slug": "vernon"}, "source_identifier": "26215", "external_references": [], "date_modified": "2025-03-05T12:27:24.810265+11:00"}, {"id": 74705, "name": "Robert S. Feldman", "roles_in_work": [{"id": 2644884, "title": "Frustration and fixation", "work_id": 67875, "role": "co-producers/directors", "role_id": 628, "is_primary": true}], "also_known_as": "", "date_of_birth": "", "date_of_death": "", "genders": [], "languages": [], "places_of_operation": [], "biography": "", "biography_author": null, "date_of_biography": "2023-08-11T16:52:55.959816+10:00", "external_links": [], "uuid": "bf903dea-7cc2-4099-94e2-faea0198853a", "source": {"name": "Vernon", "slug": "vernon"}, "source_identifier": "27869", "external_references": [], "date_modified": "2025-03-05T12:27:24.212068+11:00"}, {"id": 74704, "name": "J Lee", "roles_in_work": [{"id": 2714359, "title": "From the tropics to the snow", "work_id": 67869, "role": "co-director", "role_id": 959, "is_primary": true}], "also_known_as": "", "date_of_birth": "", "date_of_death": "", "genders": [], "languages": [], "places_of_operation": [], "biography": "", "biography_author": null, "date_of_biography": "2023-08-09T03:45:28.754926+10:00", "external_links": [], "uuid": "9768dc87-952d-49ca-84a9-9d2dca99bca6", "source": {"name": "Vernon", "slug": "vernon"}, "source_identifier": "20978", "external_references": [{"id": 33784, "source": {"name": "Wikidata", "slug": "wikidata"}, "source_identifier": "Q121222698"}], "date_modified": "2025-03-12T01:10:27.808811+11:00"}, {"id": 74703, "name": "R. Mason", "roles_in_work": [{"id": 2714358, "title": "From the tropics to the snow", "work_id": 67869, "role": "co-director", "role_id": 959, "is_primary": true}], "also_known_as": "", "date_of_birth": "", "date_of_death": "", "genders": [], "languages": [], "places_of_operation": [], "biography": "", "biography_author": null, "date_of_biography": "2023-08-09T03:45:28.099239+10:00", "external_links": [], "uuid": "58f2ae98-d9c1-4bb3-9057-37e9cce079e1", "source": {"name": "Vernon", "slug": "vernon"}, "source_identifier": "27030", "external_references": [{"id": 34627, "source": {"name": "Wikidata", "slug": "wikidata"}, "source_identifier": "Q121036935"}], "date_modified": "2025-03-12T01:10:27.222362+11:00"}]}