{"count": 28687, "next": "https://api.acmi.net.au/creators/?page=2705", "previous": "https://api.acmi.net.au/creators/?page=2703", "results": [{"id": 11398, "name": "Dougal McMurchy", "roles_in_work": [{"id": 2640897, "title": "No Sweat ID", "work_id": 110541, "role": "creator", "role_id": 968, "is_primary": true}], "also_known_as": "", "date_of_birth": "", "date_of_death": "", "genders": [], "languages": [], "places_of_operation": [], "biography": "", "biography_author": null, "date_of_biography": "2023-05-09T14:27:15.177379+10:00", "external_links": [], "uuid": "e27108c5-f1c1-4462-be6c-218645f77d42", "source": {"name": "Vernon", "slug": "vernon"}, "source_identifier": "3176", "external_references": [], "date_modified": "2025-03-05T11:31:05.558245+11:00"}, {"id": 11397, "name": "Jayne Uthmeyer", "roles_in_work": [{"id": 2640895, "title": "No Sweat ID", "work_id": 110541, "role": "creator", "role_id": 968, "is_primary": true}], "also_known_as": "", "date_of_birth": "", "date_of_death": "", "genders": [], "languages": [], "places_of_operation": [], "biography": "", "biography_author": null, "date_of_biography": "2023-05-09T14:27:14.953061+10:00", "external_links": [], "uuid": "478c70bf-fb47-46f4-88d8-8d827e88f03f", "source": {"name": "Vernon", "slug": "vernon"}, "source_identifier": "3175", "external_references": [], "date_modified": "2025-03-05T11:31:04.966418+11:00"}, {"id": 11396, "name": "Mario Andrianto", "roles_in_work": [{"id": 2640890, "title": "Inane Creatures Animation Studio ID", "work_id": 110539, "role": "creator", "role_id": 968, "is_primary": true}], "also_known_as": "", "date_of_birth": "", "date_of_death": "", "genders": [], "languages": [], "places_of_operation": [], "biography": "", "biography_author": null, "date_of_biography": "2023-05-09T14:27:11.458168+10:00", "external_links": [], "uuid": "aa7a7d34-b916-4100-a512-e663240a7ca7", "source": {"name": "Vernon", "slug": "vernon"}, "source_identifier": "3174", "external_references": [], "date_modified": "2025-03-05T11:31:02.849036+11:00"}, {"id": 11395, "name": "Simon Langford", "roles_in_work": [{"id": 2640887, "title": "Refresh Studio ID", "work_id": 110538, "role": "creator", "role_id": 968, "is_primary": true}], "also_known_as": "", "date_of_birth": "", "date_of_death": "", "genders": [], "languages": [], "places_of_operation": [], "biography": "", "biography_author": null, "date_of_biography": "2023-05-09T14:27:22.486919+10:00", "external_links": [], "uuid": "e6aa7070-1536-4390-a64d-ab73b23efdd0", "source": {"name": "Vernon", "slug": "vernon"}, "source_identifier": "3173", "external_references": [], "date_modified": "2025-03-05T11:31:01.494888+11:00"}, {"id": 11394, "name": "Steven Murdoch", "roles_in_work": [{"id": 2640883, "title": "Keys", "work_id": 110537, "role": "creator", "role_id": 968, "is_primary": true}], "also_known_as": "", "date_of_birth": "", "date_of_death": "", "genders": [], "languages": [], "places_of_operation": [], "biography": "", "biography_author": null, "date_of_biography": "2023-05-09T14:27:12.259533+10:00", "external_links": [], "uuid": "e74ba2b4-13e1-4d74-9753-e9c716fd816e", "source": {"name": "Vernon", "slug": "vernon"}, "source_identifier": "3172", "external_references": [], "date_modified": "2025-03-05T11:31:00.123360+11:00"}, {"id": 11393, "name": "Stephen Joss", "roles_in_work": [{"id": 2640880, "title": "Focus Films Studio ID", "work_id": 110536, "role": "creator", "role_id": 968, "is_primary": true}], "also_known_as": "", "date_of_birth": "", "date_of_death": "", "genders": [], "languages": [], "places_of_operation": [], "biography": "", "biography_author": null, "date_of_biography": "2023-05-09T14:27:10.758608+10:00", "external_links": [], "uuid": "b7139b47-0004-429b-9d71-dbc4eee6671a", "source": {"name": "Vernon", "slug": "vernon"}, "source_identifier": "3171", "external_references": [], "date_modified": "2025-03-05T11:30:58.807612+11:00"}, {"id": 11392, "name": "Charles Mitchell", "roles_in_work": [{"id": 2083811, "title": "Agnes, Maude & Pearly too", "work_id": 92352, "role": "co-producer", "role_id": 915, "is_primary": true}, {"id": 2639941, "title": "Agnes, Maude and Pearly too", "work_id": 110533, "role": "producer", "role_id": 1089, "is_primary": true}], "also_known_as": "", "date_of_birth": "", "date_of_death": "", "genders": [], "languages": [], "places_of_operation": [], "biography": "", "biography_author": null, "date_of_biography": "2023-05-09T20:09:16.142359+10:00", "external_links": [], "uuid": "7cbcd80f-4305-4700-826e-eb678fcc581d", "source": {"name": "Vernon", "slug": "vernon"}, "source_identifier": "3164", "external_references": [{"id": 42757, "source": {"name": "Wikidata", "slug": "wikidata"}, "source_identifier": "Q121315185"}], "date_modified": "2025-03-05T11:25:04.382483+11:00"}, {"id": 11391, "name": "Aline Jacques", "roles_in_work": [{"id": 2639940, "title": "Agnes, Maude and Pearly too", "work_id": 110533, "role": "producer", "role_id": 1089, "is_primary": true}], "also_known_as": "", "date_of_birth": "", "date_of_death": "", "genders": [], "languages": [], "places_of_operation": [], "biography": "", "biography_author": null, "date_of_biography": "2023-05-09T20:09:15.910588+10:00", "external_links": [], "uuid": "26103ee1-4a02-4811-aadc-77957c346a3b", "source": {"name": "Vernon", "slug": "vernon"}, "source_identifier": "3163", "external_references": [{"id": 43372, "source": {"name": "Wikidata", "slug": "wikidata"}, "source_identifier": "Q121299288"}], "date_modified": "2025-03-05T11:25:03.790690+11:00"}, {"id": 11390, "name": "Jacqui North", "roles_in_work": [{"id": 2640079, "title": "Glass", "work_id": 110531, "role": "producer", "role_id": 1089, "is_primary": true}, {"id": 2640083, "title": "Glass", "work_id": 110531, "role": "writer", "role_id": 939, "is_primary": true}], "also_known_as": "", "date_of_birth": "", "date_of_death": "", "genders": [], "languages": [], "places_of_operation": [], "biography": "", "biography_author": null, "date_of_biography": "2023-05-09T20:09:40.959365+10:00", "external_links": [], "uuid": "d7731068-0491-4bec-b837-3ce983644725", "source": {"name": "Vernon", "slug": "vernon"}, "source_identifier": "3162", "external_references": [{"id": 40373, "source": {"name": "Wikidata", "slug": "wikidata"}, "source_identifier": "Q121271161"}], "date_modified": "2025-03-05T11:25:51.927832+11:00"}, {"id": 11388, "name": "Belinda Hall", "roles_in_work": [{"id": 2640088, "title": "Goblin market", "work_id": 110530, "role": "director", "role_id": 938, "is_primary": true}, {"id": 2640093, "title": "Goblin market", "work_id": 110530, "role": "writer", "role_id": 939, "is_primary": true}], "also_known_as": "", "date_of_birth": "", "date_of_death": "", "genders": [], "languages": [], "places_of_operation": [], "biography": "", "biography_author": null, "date_of_biography": "2023-05-09T20:09:42.284248+10:00", "external_links": [], "uuid": "daf0c204-103d-405e-8edd-94e4ad31afd9", "source": {"name": "Vernon", "slug": "vernon"}, "source_identifier": "3161", "external_references": [{"id": 38132, "source": {"name": "Wikidata", "slug": "wikidata"}, "source_identifier": "Q121337558"}], "date_modified": "2025-03-05T11:25:54.602031+11:00"}]}