{"count": 28687, "next": "https://api.acmi.net.au/creators/?page=925", "previous": "https://api.acmi.net.au/creators/?page=923", "results": [{"id": 76342, "name": "Dorothy Hall", "roles_in_work": [{"id": 2469550, "title": "Understanding Herbal Medicine", "work_id": 78752, "role": "producer", "role_id": 1089, "is_primary": true}], "also_known_as": "", "date_of_birth": "", "date_of_death": "", "genders": [], "languages": [], "places_of_operation": [], "biography": "", "biography_author": null, "date_of_biography": "2023-08-14T12:03:36.634442+10:00", "external_links": [], "uuid": "6b4e57d3-6dc0-4e1c-826b-de3d91d8a462", "source": {"name": "Vernon", "slug": "vernon"}, "source_identifier": "18354", "external_references": [{"id": 51065, "source": {"name": "Wikidata", "slug": "wikidata"}, "source_identifier": "Q121357570"}], "date_modified": "2023-09-05T19:19:32.840017+10:00"}, {"id": 76341, "name": "Judith Adamson", "roles_in_work": [{"id": 2760637, "title": "Using the land", "work_id": 78748, "role": "director", "role_id": 938, "is_primary": true}], "also_known_as": "", "date_of_birth": "", "date_of_death": "", "genders": [], "languages": [], "places_of_operation": [], "biography": "", "biography_author": null, "date_of_biography": "2023-05-09T17:10:29.190613+10:00", "external_links": [], "uuid": "62cb6765-5c10-4502-a72a-bdecd0bb12cf", "source": {"name": "Vernon", "slug": "vernon"}, "source_identifier": "22793", "external_references": [{"id": 41102, "source": {"name": "Wikidata", "slug": "wikidata"}, "source_identifier": "Q121085955"}], "date_modified": "2025-03-14T17:26:50.163674+11:00"}, {"id": 76340, "name": "Tanya Uren", "roles_in_work": [{"id": 2222672, "title": "Even cowboys", "work_id": 78747, "role": "co-producer", "role_id": 915, "is_primary": true}], "also_known_as": "", "date_of_birth": "", "date_of_death": "", "genders": [], "languages": [], "places_of_operation": [], "biography": "", "biography_author": null, "date_of_biography": "2023-05-09T16:20:58.167353+10:00", "external_links": [], "uuid": "c3963a71-e885-4fac-a746-b3327e48f472", "source": {"name": "Vernon", "slug": "vernon"}, "source_identifier": "29489", "external_references": [{"id": 40649, "source": {"name": "Wikidata", "slug": "wikidata"}, "source_identifier": "Q121143677"}], "date_modified": "2023-09-06T01:41:27.118489+10:00"}, {"id": 76339, "name": "Joanne Hamilton", "roles_in_work": [{"id": 2222669, "title": "Even cowboys", "work_id": 78747, "role": "co-producer", "role_id": 915, "is_primary": true}], "also_known_as": "", "date_of_birth": "", "date_of_death": "", "genders": [], "languages": [], "places_of_operation": [], "biography": "", "biography_author": null, "date_of_biography": "2023-05-09T16:20:57.941260+10:00", "external_links": [], "uuid": "6783b3bc-0064-4520-b4da-bc5cb99fe01c", "source": {"name": "Vernon", "slug": "vernon"}, "source_identifier": "22003", "external_references": [{"id": 42656, "source": {"name": "Wikidata", "slug": "wikidata"}, "source_identifier": "Q121222899"}], "date_modified": "2023-09-05T21:28:45.385866+10:00"}, {"id": 76338, "name": "Sue Byrne", "roles_in_work": [{"id": 2222668, "title": "Even cowboys", "work_id": 78747, "role": "co-producer", "role_id": 915, "is_primary": true}], "also_known_as": "", "date_of_birth": "", "date_of_death": "", "genders": [], "languages": [], "places_of_operation": [], "biography": "", "biography_author": null, "date_of_biography": "2023-05-09T16:20:57.713177+10:00", "external_links": [], "uuid": "34f22b31-1a1b-41b1-8304-ad9911365d66", "source": {"name": "Vernon", "slug": "vernon"}, "source_identifier": "29278", "external_references": [{"id": 39336, "source": {"name": "Wikidata", "slug": "wikidata"}, "source_identifier": "Q121091267"}], "date_modified": "2023-09-06T01:35:00.188809+10:00"}, {"id": 76337, "name": "Chris Hubbard", "roles_in_work": [{"id": 865182, "title": "Jazz mania", "work_id": 78741, "role": "producer/director", "role_id": 31, "is_primary": true}], "also_known_as": "", "date_of_birth": null, "date_of_death": null, "genders": [], "languages": [], "places_of_operation": [], "biography": "", "biography_author": null, "date_of_biography": null, "external_links": [], "uuid": "0aa2df91-3b61-407e-af3e-afb7e234606b", "source": {"name": "Vernon", "slug": "vernon"}, "source_identifier": null, "external_references": [{"id": 50846, "source": {"name": "Wikidata", "slug": "wikidata"}, "source_identifier": "Q121361443"}], "date_modified": "2023-09-05T18:32:21.001210+10:00"}, {"id": 76336, "name": "Tsurukame", "roles_in_work": [{"id": 898579, "title": "Messengers of the Gods", "work_id": 78737, "role": "co-producer", "role_id": 915, "is_primary": true}], "also_known_as": "", "date_of_birth": null, "date_of_death": null, "genders": [], "languages": [], "places_of_operation": [], "biography": "", "biography_author": null, "date_of_biography": null, "external_links": [], "uuid": "3e4af441-7257-47f3-ba70-22c4e9974158", "source": {"name": "Vernon", "slug": "vernon"}, "source_identifier": null, "external_references": [{"id": 34787, "source": {"name": "Wikidata", "slug": "wikidata"}, "source_identifier": "Q121091240"}], "date_modified": "2023-09-06T01:59:29.384340+10:00"}, {"id": 76335, "name": "Joanne Bell", "roles_in_work": [{"id": 2198768, "title": "Domestic angels: the pros and cons", "work_id": 78732, "role": "producer/director", "role_id": 31, "is_primary": true}], "also_known_as": "", "date_of_birth": "", "date_of_death": "", "genders": [], "languages": [], "places_of_operation": [], "biography": "", "biography_author": null, "date_of_biography": "2023-05-09T15:22:30.684201+10:00", "external_links": [], "uuid": "8bfa8c7a-dc05-4a37-a95c-a784786a94d9", "source": {"name": "Vernon", "slug": "vernon"}, "source_identifier": "22000", "external_references": [{"id": 50582, "source": {"name": "Wikidata", "slug": "wikidata"}, "source_identifier": "Q121360878"}], "date_modified": "2023-09-05T21:28:41.645591+10:00"}, {"id": 76334, "name": "Tony McDonald", "roles_in_work": [{"id": 2354662, "title": "The Homecoming", "work_id": 78722, "role": "co-producer", "role_id": 915, "is_primary": true}], "also_known_as": "", "date_of_birth": "", "date_of_death": "", "genders": [], "languages": [], "places_of_operation": [], "biography": "", "biography_author": null, "date_of_biography": "2023-05-09T20:01:54.987407+10:00", "external_links": [], "uuid": "23eea99d-edd0-4daa-a114-31acbbfcd438", "source": {"name": "Vernon", "slug": "vernon"}, "source_identifier": "29891", "external_references": [{"id": 32969, "source": {"name": "Wikidata", "slug": "wikidata"}, "source_identifier": "Q121337286"}], "date_modified": "2023-09-06T01:56:39.267096+10:00"}, {"id": 76333, "name": "Geoff Main", "roles_in_work": [{"id": 2235651, "title": "Rapeseed Your Alternative Crop", "work_id": 78717, "role": "producer/director", "role_id": 31, "is_primary": true}], "also_known_as": "", "date_of_birth": "", "date_of_death": "", "genders": [], "languages": [], "places_of_operation": [], "biography": "", "biography_author": null, "date_of_biography": "2023-05-09T16:45:24.936561+10:00", "external_links": [], "uuid": "7bd797b4-e2e5-4f83-84b1-9a12244bea4b", "source": {"name": "Vernon", "slug": "vernon"}, "source_identifier": "19501", "external_references": [{"id": 51362, "source": {"name": "Wikidata", "slug": "wikidata"}, "source_identifier": "Q121360906"}], "date_modified": "2023-09-05T20:01:38.884681+10:00"}]}