{"count": 28683, "next": "https://api.acmi.net.au/creators/?page=1610", "previous": "https://api.acmi.net.au/creators/?page=1608", "results": [{"id": 30772, "name": "Enigma Films", "roles_in_work": [{"id": 2340327, "title": "The Confessional = Le Confessionnal", "work_id": 88790, "role": "production company", "role_id": 941, "is_primary": true}], "also_known_as": "", "date_of_birth": "", "date_of_death": "", "genders": [], "languages": [], "places_of_operation": [], "biography": "", "biography_author": null, "date_of_biography": "2023-05-09T19:38:37.921511+10:00", "external_links": [], "uuid": "806df20d-4f50-47f0-8d88-536d99f65880", "source": {"name": "Vernon", "slug": "vernon"}, "source_identifier": "7899", "external_references": [{"id": 39562, "source": {"name": "Wikidata", "slug": "wikidata"}, "source_identifier": "Q121144297"}], "date_modified": "2023-09-05T19:32:44.600240+10:00"}, {"id": 30769, "name": "Achilles Heel", "roles_in_work": [{"id": 2162543, "title": "Iwerre Atherrame: two paths", "work_id": 88787, "role": "production company", "role_id": 941, "is_primary": true}], "also_known_as": "", "date_of_birth": "", "date_of_death": "", "genders": [], "languages": [], "places_of_operation": [], "biography": "", "biography_author": null, "date_of_biography": "2023-05-09T14:19:39.696683+10:00", "external_links": [], "uuid": "aa55967f-2728-4b25-8d70-9cbb78c239a7", "source": {"name": "Vernon", "slug": "vernon"}, "source_identifier": "5004", "external_references": [{"id": 35348, "source": {"name": "Wikidata", "slug": "wikidata"}, "source_identifier": "Q121222819"}], "date_modified": "2023-09-05T17:15:32.421086+10:00"}, {"id": 30765, "name": "Tim Slessor", "roles_in_work": [{"id": 874442, "title": "For the record - George Best: a profile", "work_id": 88783, "role": "director", "role_id": 938, "is_primary": true}, {"id": 2750224, "title": "Yellow trail from Texas", "work_id": 97199, "role": "director", "role_id": 938, "is_primary": true}], "also_known_as": "", "date_of_birth": null, "date_of_death": null, "genders": [], "languages": [], "places_of_operation": [], "biography": "", "biography_author": null, "date_of_biography": null, "external_links": [], "uuid": "07017ec0-ca3d-449f-903a-94f960856cf2", "source": {"name": "Vernon", "slug": "vernon"}, "source_identifier": "29756", "external_references": [], "date_modified": "2025-03-13T00:16:46.041396+11:00"}, {"id": 30762, "name": "Louis Cony", "roles_in_work": [{"id": 2409719, "title": "Homage a George Bizet", "work_id": 88779, "role": "director", "role_id": 938, "is_primary": true}], "also_known_as": "", "date_of_birth": "", "date_of_death": "", "genders": [], "languages": [], "places_of_operation": [], "biography": "", "biography_author": null, "date_of_biography": "2023-08-11T17:27:53.714320+10:00", "external_links": [], "uuid": "c1e28d92-c0ce-4971-ad55-4b3c72aa3823", "source": {"name": "Vernon", "slug": "vernon"}, "source_identifier": "24013", "external_references": [{"id": 32258, "source": {"name": "Wikidata", "slug": "wikidata"}, "source_identifier": "Q120302913"}], "date_modified": "2023-09-05T22:30:59.387894+10:00"}, {"id": 30761, "name": "Charles Nobel", "roles_in_work": [{"id": 2409718, "title": "Homage a George Bizet", "work_id": 88779, "role": "producer", "role_id": 1089, "is_primary": true}], "also_known_as": "", "date_of_birth": "", "date_of_death": "", "genders": [], "languages": [], "places_of_operation": [], "biography": "", "biography_author": null, "date_of_biography": "2023-08-11T17:27:53.091836+10:00", "external_links": [], "uuid": "354e0f0d-ee96-460c-8cf7-791b0c1cb7bc", "source": {"name": "Vernon", "slug": "vernon"}, "source_identifier": "16710", "external_references": [], "date_modified": "2023-08-11T17:27:53.092168+10:00"}, {"id": 30760, "name": "Easy Street Productions", "roles_in_work": [{"id": 2750502, "title": "Making baskets: an art adventure", "work_id": 97364, "role": "production company", "role_id": 941, "is_primary": true}, {"id": 874432, "title": "Sand casting: an art adventure", "work_id": 88778, "role": "production company", "role_id": 941, "is_primary": true}], "also_known_as": "", "date_of_birth": null, "date_of_death": null, "genders": [], "languages": [], "places_of_operation": [], "biography": "", "biography_author": null, "date_of_biography": null, "external_links": [], "uuid": "e1c6a2d6-0512-48ab-b07c-d796c452df7a", "source": {"name": "Vernon", "slug": "vernon"}, "source_identifier": "7721", "external_references": [], "date_modified": "2025-03-13T00:22:40.385767+11:00"}, {"id": 30756, "name": "Hero Productions", "roles_in_work": [{"id": 2128185, "title": "Buying and caring for your puppy", "work_id": 88772, "role": "production company", "role_id": 941, "is_primary": true}, {"id": 2128167, "title": "Buying and caring for your kitten", "work_id": 88773, "role": "production company", "role_id": 941, "is_primary": true}], "also_known_as": "", "date_of_birth": "", "date_of_death": "", "genders": [], "languages": [], "places_of_operation": [], "biography": "", "biography_author": null, "date_of_biography": "2023-05-09T13:15:00.965636+10:00", "external_links": [], "uuid": "90ec62d5-2133-4bc3-a830-1583170a5767", "source": {"name": "Vernon", "slug": "vernon"}, "source_identifier": "9082", "external_references": [{"id": 35609, "source": {"name": "Wikidata", "slug": "wikidata"}, "source_identifier": "Q121034798"}], "date_modified": "2023-09-05T20:38:27.364133+10:00"}, {"id": 30751, "name": "Sofilmka", "roles_in_work": [{"id": 2322107, "title": "A Summer's tale = Conte d'ete", "work_id": 88767, "role": "production company", "role_id": 941, "is_primary": true}, {"id": 2322085, "title": "Autumn tale = Conte d'Automne", "work_id": 89725, "role": "production company", "role_id": 941, "is_primary": true}], "also_known_as": "", "date_of_birth": "", "date_of_death": "", "genders": [], "languages": [], "places_of_operation": [], "biography": "", "biography_author": null, "date_of_biography": "2023-05-09T19:13:38.323847+10:00", "external_links": [], "uuid": "754bcfec-7545-4d21-9164-56842dab3741", "source": {"name": "Vernon", "slug": "vernon"}, "source_identifier": "12711", "external_references": [{"id": 42991, "source": {"name": "Wikidata", "slug": "wikidata"}, "source_identifier": "Q121035874"}], "date_modified": "2023-09-06T01:22:34.058590+10:00"}, {"id": 30750, "name": "Dark City Productions", "roles_in_work": [{"id": 2176676, "title": "Dark city [DVD]", "work_id": 91705, "role": "production company", "role_id": 941, "is_primary": true}], "also_known_as": "", "date_of_birth": "", "date_of_death": "", "genders": [], "languages": [], "places_of_operation": [], "biography": "", "biography_author": null, "date_of_biography": "2023-05-09T14:46:24.224061+10:00", "external_links": [], "uuid": "bec5c6bd-aae5-4021-97b2-8b53ab3bbe75", "source": {"name": "Vernon", "slug": "vernon"}, "source_identifier": "7323", "external_references": [{"id": 39110, "source": {"name": "Wikidata", "slug": "wikidata"}, "source_identifier": "Q121337152"}], "date_modified": "2023-09-05T18:53:21.765546+10:00"}, {"id": 30749, "name": "Buena Vista", "roles_in_work": [{"id": 2475525, "title": "Mystery, Alaska", "work_id": 92735, "role": "production company", "role_id": 941, "is_primary": true}, {"id": 2285858, "title": "Tombstone", "work_id": 88766, "role": "production company", "role_id": 941, "is_primary": true}, {"id": 884973, "title": "Splash", "work_id": 95204, "role": "production company", "role_id": 941, "is_primary": true}, {"id": 2476037, "title": "Grosse Pointe blank", "work_id": 94819, "role": "production company", "role_id": 941, "is_primary": true}, {"id": 2324387, "title": "Terminal velocity", "work_id": 95166, "role": "production company", "role_id": 941, "is_primary": true}, {"id": 2076447, "title": "A Thousand acres", "work_id": 92438, "role": "production company", "role_id": 941, "is_primary": true}], "also_known_as": "", "date_of_birth": "", "date_of_death": "", "genders": [], "languages": [], "places_of_operation": [], "biography": "", "biography_author": null, "date_of_biography": "2023-08-17T15:31:24.035425+10:00", "external_links": [], "uuid": "69f5d0b5-371b-467b-90da-b6cc0192b56c", "source": {"name": "Vernon", "slug": "vernon"}, "source_identifier": "6104", "external_references": [{"id": 33058, "source": {"name": "Wikidata", "slug": "wikidata"}, "source_identifier": "Q121270822"}], "date_modified": "2023-09-05T18:15:49.121920+10:00"}]}