{"count": 28687, "next": "https://api.acmi.net.au/creators/?page=117", "previous": "https://api.acmi.net.au/creators/?page=115", "results": [{"id": 84536, "name": "Richard Sale", "roles_in_work": [{"id": 2476265, "title": "Lets make it legal", "work_id": 90425, "role": "director", "role_id": 938, "is_primary": true}], "also_known_as": "", "date_of_birth": "1911-12-17", "date_of_death": "1993-03-04", "genders": [{"id": 9, "name": "Male", "slug": "male"}], "languages": [{"id": 1, "name": "English", "slug": "english"}], "places_of_operation": [{"id": 1, "name": "United States of America", "slug": "united-states-of-america"}], "biography": "Richard Sale, (December 17, 1911 in New York – March 4, 1993 in Los Angeles) was an American screenwriter, pulp writer, and film director.", "biography_author": "Wikidata", "date_of_biography": "2023-09-06T00:32:56.745125+10:00", "external_links": [{"id": 4990, "uri": "https://en.wikipedia.org/wiki/Richard_Sale_(director)"}], "uuid": "ac2bfd7a-bd16-4aa2-b9df-da563bbe5e57", "source": {"name": "Vernon", "slug": "vernon"}, "source_identifier": "39785", "external_references": [{"id": 25806, "source": {"name": "Wikidata", "slug": "wikidata"}, "source_identifier": "Q3431189"}, {"id": 31088, "source": {"name": "VIAF", "slug": "viaf"}, "source_identifier": "76513429"}, {"id": 31089, "source": {"name": "LOC Auth", "slug": "loc-auth"}, "source_identifier": "n94092972"}, {"id": 31090, "source": {"name": "WorldCat", "slug": "worldcat"}, "source_identifier": "lccn-n94092972"}], "date_modified": "2023-09-06T00:32:56.755325+10:00"}, {"id": 84535, "name": "Géza von Radványi", "roles_in_work": [{"id": 2149299, "title": "Cry sweet revenge = Uncle Tom's cabin", "work_id": 85033, "role": "director", "role_id": 938, "is_primary": true}], "also_known_as": "Grosschmid Géza", "date_of_birth": "1907-09-26", "date_of_death": "1986-11-27", "genders": [{"id": 9, "name": "Male", "slug": "male"}], "languages": [{"id": 5, "name": "German", "slug": "german"}], "places_of_operation": [{"id": 25, "name": "Hungary", "slug": "hungary"}], "biography": "Géza von Radványi (born Géza Grosschmid; 26 September 1907 – 27 November 1986) was a Hungarian film director, cinematographer, producer and writer.", "biography_author": "Wikidata", "date_of_biography": "2023-09-05T20:10:35.302401+10:00", "external_links": [{"id": 5840, "uri": "https://en.wikipedia.org/wiki/G%C3%A9za_von_Radv%C3%A1nyi"}], "uuid": "fe8df5c3-8378-4e9c-b4c4-1dcf047173a1", "source": {"name": "Vernon", "slug": "vernon"}, "source_identifier": "39784", "external_references": [{"id": 51294, "source": {"name": "Wikidata", "slug": "wikidata"}, "source_identifier": "Q386394"}, {"id": 54530, "source": {"name": "VIAF", "slug": "viaf"}, "source_identifier": "10034394"}, {"id": 54531, "source": {"name": "LOC Auth", "slug": "loc-auth"}, "source_identifier": "no2009093056"}, {"id": 54532, "source": {"name": "WorldCat", "slug": "worldcat"}, "source_identifier": "lccn-no2009093056"}], "date_modified": "2023-09-05T20:10:39.207202+10:00"}, {"id": 84534, "name": "Jean Mathieson", "roles_in_work": [{"id": 2203618, "title": "Phantom of the Opera", "work_id": 79540, "role": "director", "role_id": 938, "is_primary": true}], "also_known_as": "", "date_of_birth": "", "date_of_death": "", "genders": [], "languages": [], "places_of_operation": [], "biography": "", "biography_author": null, "date_of_biography": "2023-05-09T15:30:35.098726+10:00", "external_links": [], "uuid": "bfe87f51-f479-4209-ac29-4765188c16b0", "source": {"name": "Vernon", "slug": "vernon"}, "source_identifier": "39783", "external_references": [], "date_modified": "2023-06-14T16:33:30.576250+10:00"}, {"id": 84533, "name": "Al Guest", "roles_in_work": [{"id": 2203616, "title": "Phantom of the Opera", "work_id": 79540, "role": "director", "role_id": 938, "is_primary": true}], "also_known_as": "", "date_of_birth": "", "date_of_death": "", "genders": [], "languages": [], "places_of_operation": [], "biography": "", "biography_author": null, "date_of_biography": "2023-05-09T15:30:34.869550+10:00", "external_links": [], "uuid": "2191a35c-8b4c-4017-b328-6dd188fa7a07", "source": {"name": "Vernon", "slug": "vernon"}, "source_identifier": "39782", "external_references": [{"id": 36478, "source": {"name": "Wikidata", "slug": "wikidata"}, "source_identifier": "Q121079235"}], "date_modified": "2023-09-05T17:18:01.027206+10:00"}, {"id": 84451, "name": "Ideal Toys", "roles_in_work": [{"id": 2686025, "title": "Kookie Kamera", "work_id": 100193, "role": "manufacturer", "role_id": 627, "is_primary": true}], "also_known_as": "", "date_of_birth": "", "date_of_death": "", "genders": [], "languages": [], "places_of_operation": [], "biography": "", "biography_author": null, "date_of_biography": "2023-08-11T19:09:02.212508+10:00", "external_links": [], "uuid": "980e40ad-981f-46c9-9ace-5305d6ed82d1", "source": {"name": "Vernon", "slug": "vernon"}, "source_identifier": "39774", "external_references": [], "date_modified": "2025-03-11T12:02:09.848199+11:00"}, {"id": 84450, "name": "Tina Matthews", "roles_in_work": [{"id": 2686033, "title": "Modigliana A.K.A Modi puppet", "work_id": 100190, "role": "puppet maker/maker", "role_id": 996, "is_primary": false}, {"id": 2686031, "title": "Mixy puppet", "work_id": 100189, "role": "puppet maker/maker", "role_id": 996, "is_primary": false}], "also_known_as": "", "date_of_birth": "", "date_of_death": "", "genders": [], "languages": [], "places_of_operation": [], "biography": "", "biography_author": null, "date_of_biography": "2023-05-09T14:23:58.963044+10:00", "external_links": [], "uuid": "6b21a6b2-104a-4603-9b2b-bf6557533580", "source": {"name": "Vernon", "slug": "vernon"}, "source_identifier": "39776", "external_references": [], "date_modified": "2025-03-11T12:02:16.938682+11:00"}, {"id": 84449, "name": "Garth Frost", "roles_in_work": [{"id": 2686032, "title": "Modigliana A.K.A Modi puppet", "work_id": 100190, "role": "designer", "role_id": 495, "is_primary": false}, {"id": 2686030, "title": "Mixy puppet", "work_id": 100189, "role": "designer", "role_id": 495, "is_primary": false}], "also_known_as": "", "date_of_birth": "", "date_of_death": "", "genders": [], "languages": [], "places_of_operation": [], "biography": "", "biography_author": null, "date_of_biography": "2023-05-09T14:23:58.741097+10:00", "external_links": [], "uuid": "8e12f659-1a6b-470e-815d-ee5eb409dfbb", "source": {"name": "Vernon", "slug": "vernon"}, "source_identifier": "39775", "external_references": [], "date_modified": "2025-03-11T12:02:16.357090+11:00"}, {"id": 84448, "name": "Gameface", "roles_in_work": [{"id": 2185981, "title": "Delusional World", "work_id": 118044, "role": "soundtrack", "role_id": 454, "is_primary": false}], "also_known_as": "", "date_of_birth": "", "date_of_death": "", "genders": [], "languages": [], "places_of_operation": [], "biography": "", "biography_author": null, "date_of_biography": "2023-05-09T15:01:03.541619+10:00", "external_links": [], "uuid": "ef32064d-2053-4c57-ad71-73ba78f027a3", "source": {"name": "Vernon", "slug": "vernon"}, "source_identifier": "39769", "external_references": [], "date_modified": "2023-06-14T16:33:30.576250+10:00"}, {"id": 84447, "name": "Extreme John", "roles_in_work": [{"id": 2185979, "title": "Delusional World", "work_id": 118044, "role": "background artist", "role_id": 527, "is_primary": false}], "also_known_as": "", "date_of_birth": "", "date_of_death": "", "genders": [], "languages": [], "places_of_operation": [], "biography": "", "biography_author": null, "date_of_biography": "2023-05-09T15:01:03.316142+10:00", "external_links": [], "uuid": "a978c0ab-0094-4bf4-a996-4416fc38183a", "source": {"name": "Vernon", "slug": "vernon"}, "source_identifier": "39768", "external_references": [], "date_modified": "2023-06-14T16:33:30.576250+10:00"}, {"id": 84446, "name": "Qin Ran", "roles_in_work": [{"id": 2185976, "title": "Delusional World", "work_id": 118044, "role": "dancer", "role_id": 444, "is_primary": false}], "also_known_as": "", "date_of_birth": "", "date_of_death": "", "genders": [], "languages": [], "places_of_operation": [], "biography": "", "biography_author": null, "date_of_biography": "2023-05-09T15:01:02.963667+10:00", "external_links": [], "uuid": "1d5b7274-3ff6-426e-8035-5629e5928b49", "source": {"name": "Vernon", "slug": "vernon"}, "source_identifier": "39740", "external_references": [], "date_modified": "2023-06-14T16:33:30.576250+10:00"}]}