{"count": 28687, "next": "https://api.acmi.net.au/creators/?page=2806", "previous": "https://api.acmi.net.au/creators/?page=2804", "results": [{"id": 8914, "name": "MetroScreen", "roles_in_work": [{"id": 2675589, "title": "20 years @ Metro", "work_id": 114118, "role": "production company", "role_id": 941, "is_primary": true}], "also_known_as": "", "date_of_birth": "", "date_of_death": "", "genders": [], "languages": [], "places_of_operation": [], "biography": "", "biography_author": null, "date_of_biography": "2023-05-09T11:20:01.713026+10:00", "external_links": [], "uuid": "0a4ea11f-0401-4d2f-922e-c8df6ce7d9bc", "source": {"name": "Vernon", "slug": "vernon"}, "source_identifier": "111915", "external_references": [{"id": 43524, "source": {"name": "Wikidata", "slug": "wikidata"}, "source_identifier": "Q121270660"}], "date_modified": "2025-03-06T22:46:27.326719+11:00"}, {"id": 8912, "name": "Jane Cruikshank", "roles_in_work": [{"id": 2675587, "title": "20 years @ Metro", "work_id": 114118, "role": "creator", "role_id": 968, "is_primary": true}, {"id": 2675586, "title": "20 years @ Metro", "work_id": 114118, "role": "producer", "role_id": 1089, "is_primary": true}], "also_known_as": "", "date_of_birth": "", "date_of_death": "", "genders": [], "languages": [], "places_of_operation": [], "biography": "", "biography_author": null, "date_of_biography": "2023-05-09T11:20:01.235641+10:00", "external_links": [], "uuid": "94970136-bf89-49f9-9c62-1aef09156de7", "source": {"name": "Vernon", "slug": "vernon"}, "source_identifier": "111914", "external_references": [{"id": 33765, "source": {"name": "Wikidata", "slug": "wikidata"}, "source_identifier": "Q121222673"}], "date_modified": "2025-03-06T22:46:26.142389+11:00"}, {"id": 8909, "name": "Northern Access TV", "roles_in_work": [{"id": 2675575, "title": "Et cetera. Episode 3 [1999 Melbourne Fringe Festival]", "work_id": 114122, "role": "production company", "role_id": 941, "is_primary": true}, {"id": 2619543, "title": "Transit: SteamRail workshops", "work_id": 108961, "role": "production company", "role_id": 941, "is_primary": true}, {"id": 2675578, "title": "Et cetera. Episode 6 [Joe Felber Multimedia Installation]", "work_id": 108815, "role": "production company", "role_id": 941, "is_primary": true}, {"id": 2675585, "title": "Et cetera. Episode 7 [The Big issue. International Women's day]", "work_id": 108816, "role": "production company", "role_id": 941, "is_primary": true}], "also_known_as": "", "date_of_birth": "", "date_of_death": "", "genders": [], "languages": [], "places_of_operation": [], "biography": "", "biography_author": null, "date_of_biography": "2023-05-09T16:18:02.757060+10:00", "external_links": [], "uuid": "1eaab31d-d09f-44e9-b934-6a4e75a42ecf", "source": {"name": "Vernon", "slug": "vernon"}, "source_identifier": "112298", "external_references": [{"id": 33542, "source": {"name": "Wikidata", "slug": "wikidata"}, "source_identifier": "Q121036002"}], "date_modified": "2025-03-06T22:46:24.645815+11:00"}, {"id": 8908, "name": "David McLauchlan", "roles_in_work": [{"id": 2710966, "title": "Et cetera. Season 2. Episode 7 [The State Library. Melbourne Cup handover. Tumbarumba]", "work_id": 108962, "role": "director", "role_id": 938, "is_primary": true}, {"id": 2619541, "title": "Transit: SteamRail workshops", "work_id": 108961, "role": "director", "role_id": 938, "is_primary": true}, {"id": 2675570, "title": "Et cetera. Episode 3 [1999 Melbourne Fringe Festival]", "work_id": 114122, "role": "director", "role_id": 938, "is_primary": true}, {"id": 2675580, "title": "Et cetera. Episode 7 [The Big issue. International Women's day]", "work_id": 108816, "role": "director", "role_id": 938, "is_primary": true}, {"id": 2675572, "title": "Et cetera. Episode 3 [1999 Melbourne Fringe Festival]", "work_id": 114122, "role": "creator", "role_id": 968, "is_primary": true}, {"id": 2675581, "title": "Et cetera. Episode 7 [The Big issue. International Women's day]", "work_id": 108816, "role": "creator", "role_id": 968, "is_primary": true}, {"id": 2619542, "title": "Transit: SteamRail workshops", "work_id": 108961, "role": "creator", "role_id": 968, "is_primary": true}, {"id": 2675571, "title": "Et cetera. Episode 3 [1999 Melbourne Fringe Festival]", "work_id": 114122, "role": "co-producer", "role_id": 915, "is_primary": true}, {"id": 2675579, "title": "Et cetera. Episode 7 [The Big issue. International Women's day]", "work_id": 108816, "role": "co-producer", "role_id": 915, "is_primary": true}, {"id": 2619540, "title": "Transit: SteamRail workshops", "work_id": 108961, "role": "editor", "role_id": 918, "is_primary": true}, {"id": 2675573, "title": "Et cetera. Episode 3 [1999 Melbourne Fringe Festival]", "work_id": 114122, "role": "producer", "role_id": 1089, "is_primary": true}, {"id": 2675576, "title": "Et cetera. Episode 6 [Joe Felber Multimedia Installation]", "work_id": 108815, "role": "producer", "role_id": 1089, "is_primary": true}, {"id": 2710964, "title": "Et cetera. Season 2. Episode 7 [The State Library. Melbourne Cup handover. Tumbarumba]", "work_id": 108962, "role": "producer", "role_id": 1089, "is_primary": true}], "also_known_as": "", "date_of_birth": "", "date_of_death": "", "genders": [], "languages": [], "places_of_operation": [], "biography": "", "biography_author": null, "date_of_biography": "2023-05-09T16:18:01.789107+10:00", "external_links": [], "uuid": "45efe030-8401-4a8e-aec8-d0c0b4394070", "source": {"name": "Vernon", "slug": "vernon"}, "source_identifier": "111912", "external_references": [{"id": 38363, "source": {"name": "Wikidata", "slug": "wikidata"}, "source_identifier": "Q121337225"}], "date_modified": "2025-03-11T23:44:04.736241+11:00"}, {"id": 8907, "name": "Michael Costello", "roles_in_work": [{"id": 2675569, "title": "Et cetera. Episode 3 [1999 Melbourne Fringe Festival]", "work_id": 114122, "role": "co-producer", "role_id": 915, "is_primary": true}, {"id": 2675582, "title": "Et cetera. Episode 7 [The Big issue. International Women's day]", "work_id": 108816, "role": "co-producer", "role_id": 915, "is_primary": true}, {"id": 2675574, "title": "Et cetera. Episode 3 [1999 Melbourne Fringe Festival]", "work_id": 114122, "role": "producer", "role_id": 1089, "is_primary": true}, {"id": 2675577, "title": "Et cetera. Episode 6 [Joe Felber Multimedia Installation]", "work_id": 108815, "role": "producer", "role_id": 1089, "is_primary": true}, {"id": 2710968, "title": "Et cetera. Season 2. Episode 7 [The State Library. Melbourne Cup handover. Tumbarumba]", "work_id": 108962, "role": "producer", "role_id": 1089, "is_primary": true}, {"id": 2619539, "title": "Transit: SteamRail workshops", "work_id": 108961, "role": "producer", "role_id": 1089, "is_primary": true}], "also_known_as": "", "date_of_birth": "", "date_of_death": "", "genders": [], "languages": [], "places_of_operation": [], "biography": "", "biography_author": null, "date_of_biography": "2023-05-09T16:18:02.053569+10:00", "external_links": [], "uuid": "595e6092-6e7e-481b-b3c6-0c0bc2234954", "source": {"name": "Vernon", "slug": "vernon"}, "source_identifier": "111913", "external_references": [{"id": 38464, "source": {"name": "Wikidata", "slug": "wikidata"}, "source_identifier": "Q121035297"}], "date_modified": "2025-03-11T23:44:05.332449+11:00"}, {"id": 8905, "name": "Ntennis Davi", "roles_in_work": [{"id": 2675513, "title": "Global insights 4", "work_id": 114123, "role": "creator", "role_id": 968, "is_primary": true}, {"id": 2675512, "title": "Global insights 4", "work_id": 114123, "role": "curator", "role_id": 501, "is_primary": false}, {"id": 2675511, "title": "Global insights 4", "work_id": 114123, "role": "producer", "role_id": 1089, "is_primary": true}], "also_known_as": "", "date_of_birth": null, "date_of_death": null, "genders": [], "languages": [], "places_of_operation": [], "biography": "", "biography_author": null, "date_of_biography": null, "external_links": [], "uuid": "0a44f917-ffec-422a-97b8-ff0c49a282dd", "source": {"name": "Vernon", "slug": "vernon"}, "source_identifier": "110882", "external_references": [], "date_modified": "2025-03-06T22:45:29.650842+11:00"}, {"id": 8904, "name": "Shumin Liu", "roles_in_work": [{"id": 2675510, "title": "Yu Opera performers", "work_id": 108808, "role": "director", "role_id": 938, "is_primary": true}, {"id": 2675509, "title": "Yu Opera performers", "work_id": 108808, "role": "creator", "role_id": 968, "is_primary": true}], "also_known_as": "", "date_of_birth": "", "date_of_death": "", "genders": [], "languages": [], "places_of_operation": [], "biography": "", "biography_author": null, "date_of_biography": "2023-08-14T12:55:56.045342+10:00", "external_links": [], "uuid": "bc0af403-0379-4c1b-9361-807756126f0c", "source": {"name": "Vernon", "slug": "vernon"}, "source_identifier": "1205", "external_references": [], "date_modified": "2025-03-06T22:45:27.579682+11:00"}, {"id": 8903, "name": "Lydia Hohl", "roles_in_work": [{"id": 2675508, "title": "Cultural dislocation", "work_id": 108807, "role": "creator", "role_id": 968, "is_primary": true}], "also_known_as": "", "date_of_birth": "", "date_of_death": "", "genders": [], "languages": [], "places_of_operation": [], "biography": "", "biography_author": null, "date_of_biography": "2023-08-11T15:51:44.682750+10:00", "external_links": [], "uuid": "c31255c2-7e53-402d-9e08-073b021b3d1c", "source": {"name": "Vernon", "slug": "vernon"}, "source_identifier": "111903", "external_references": [], "date_modified": "2025-03-06T22:45:26.244112+11:00"}, {"id": 8902, "name": "Francesca Zuccara", "roles_in_work": [{"id": 2619495, "title": "Spaghetti", "work_id": 108804, "role": "creator", "role_id": 968, "is_primary": true}], "also_known_as": "", "date_of_birth": "", "date_of_death": "", "genders": [], "languages": [], "places_of_operation": [], "biography": "", "biography_author": null, "date_of_biography": "2023-08-14T10:47:57.277747+10:00", "external_links": [], "uuid": "263925c3-390d-46b1-9d46-200d012540cc", "source": {"name": "Vernon", "slug": "vernon"}, "source_identifier": "111902", "external_references": [], "date_modified": "2025-02-26T23:13:08.997650+11:00"}, {"id": 8901, "name": "Eric Farmer", "roles_in_work": [{"id": 2675507, "title": "Ungry ug", "work_id": 108802, "role": "creator", "role_id": 968, "is_primary": true}], "also_known_as": "", "date_of_birth": "", "date_of_death": "", "genders": [], "languages": [], "places_of_operation": [], "biography": "", "biography_author": null, "date_of_biography": "2023-05-09T15:09:53.268878+10:00", "external_links": [], "uuid": "c0fad385-90c5-430a-ae57-5f7b29c9898b", "source": {"name": "Vernon", "slug": "vernon"}, "source_identifier": "2335", "external_references": [], "date_modified": "2025-03-06T22:45:24.058659+11:00"}]}