{"count": 28687, "next": "https://api.acmi.net.au/creators/?page=231", "previous": "https://api.acmi.net.au/creators/?page=229", "results": [{"id": 83307, "name": "Francois Villiers", "roles_in_work": [{"id": 3105326, "title": "Les Sesterain Ou le Miroir 2000: Episode 6", "work_id": 116367, "role": "director", "role_id": 938, "is_primary": true}, {"id": 3105324, "title": "Les Sesterain Ou le Miroir 2000: Episode 5", "work_id": 116366, "role": "director", "role_id": 938, "is_primary": true}, {"id": 3105322, "title": "Les Sesterain Ou le Miroir 2000: Episode 4", "work_id": 116365, "role": "director", "role_id": 938, "is_primary": true}, {"id": 3105316, "title": "Les Sesterain Ou le Miroir 2000: Episode 1", "work_id": 116362, "role": "director", "role_id": 938, "is_primary": true}, {"id": 3105320, "title": "Les Sesterain Ou le Miroir 2000: Episode 3", "work_id": 116364, "role": "director", "role_id": 938, "is_primary": true}, {"id": 3105318, "title": "Les Sesterain Ou le Miroir 2000: Episode 2", "work_id": 116363, "role": "director", "role_id": 938, "is_primary": true}, {"id": 3105340, "title": "Les Sesterain Ou le Miroir 2000: Episode 13", "work_id": 116374, "role": "director", "role_id": 938, "is_primary": true}, {"id": 3105338, "title": "Les Sesterain Ou le Miroir 2000: Episode 12", "work_id": 116373, "role": "director", "role_id": 938, "is_primary": true}, {"id": 3105336, "title": "Les Sesterain Ou le Miroir 2000: Episode 11", "work_id": 116372, "role": "director", "role_id": 938, "is_primary": true}, {"id": 3105334, "title": "Les Sesterain Ou le Miroir 2000: Episode 10", "work_id": 116371, "role": "director", "role_id": 938, "is_primary": true}, {"id": 3105332, "title": "Les Sesterain Ou le Miroir 2000: Episode 9", "work_id": 116370, "role": "director", "role_id": 938, "is_primary": true}, {"id": 3105330, "title": "Les Sesterain Ou le Miroir 2000: Episode 8", "work_id": 116369, "role": "director", "role_id": 938, "is_primary": true}, {"id": 3105328, "title": "Les Sesterain Ou le Miroir 2000: Episode 7", "work_id": 116368, "role": "director", "role_id": 938, "is_primary": true}], "also_known_as": "", "date_of_birth": "1920-03-02", "date_of_death": "2009-01-29", "genders": [{"id": 9, "name": "Male", "slug": "male"}], "languages": [{"id": 4, "name": "French", "slug": "french"}], "places_of_operation": [{"id": 17, "name": "France", "slug": "france"}], "biography": "François Villiers (2 March 1920 – 29 January 2009) Chevalier of the Legion of Honor was a French film director. He was responsible for several films, from Hans le marin in 1949, to Manika, une vie plus tard, in 1989, which won the Prix du Public at Cannes.; 11/08/2023", "biography_author": null, "date_of_biography": "2025-05-22T23:02:05.811578+10:00", "external_links": [{"id": 3984, "uri": "https://en.wikipedia.org/wiki/Fran%C3%A7ois_Villiers"}], "uuid": "1d9ac695-a7e0-468a-b907-10ae94c07158", "source": {"name": "Vernon", "slug": "vernon"}, "source_identifier": "31322", "external_references": [{"id": 26375, "source": {"name": "Wikidata", "slug": "wikidata"}, "source_identifier": "Q584886"}, {"id": 28441, "source": {"name": "VIAF", "slug": "viaf"}, "source_identifier": "66587423"}, {"id": 28442, "source": {"name": "WorldCat", "slug": "worldcat"}, "source_identifier": "lccn-no97055637"}], "date_modified": "2025-05-22T23:02:05.811919+10:00"}, {"id": 83306, "name": "Jean-Pierre Decourt", "roles_in_work": [{"id": 3105521, "title": "Le Defile de Poncarbo = the Gorges of Poncarbo", "work_id": 116360, "role": "director", "role_id": 938, "is_primary": true}, {"id": 3105519, "title": "Le Bal du Regent = the Regent's Ball", "work_id": 116358, "role": "director", "role_id": 938, "is_primary": true}, {"id": 3105525, "title": "Les Noces du Bossu = the Wedding of the Hunchback", "work_id": 116359, "role": "director", "role_id": 938, "is_primary": true}, {"id": 3105517, "title": "Aurore", "work_id": 116357, "role": "director", "role_id": 938, "is_primary": true}, {"id": 3105527, "title": "The Vengeance of Lagardere", "work_id": 116361, "role": "director", "role_id": 938, "is_primary": true}, {"id": 3105523, "title": "Le Petit Parisien = the Little Parisian", "work_id": 116356, "role": "director", "role_id": 938, "is_primary": true}], "also_known_as": "", "date_of_birth": "1927-02-04", "date_of_death": "2002-11-27", "genders": [{"id": 9, "name": "Male", "slug": "male"}], "languages": [{"id": 4, "name": "French", "slug": "french"}], "places_of_operation": [{"id": 17, "name": "France", "slug": "france"}], "biography": "", "biography_author": null, "date_of_biography": "2023-05-09T12:35:13.277377+10:00", "external_links": [{"id": 4286, "uri": "https://en.wikipedia.org/wiki/Jean-Pierre_Decourt"}], "uuid": "28246632-c4fc-4fdb-9405-73fbf1c492f0", "source": {"name": "Vernon", "slug": "vernon"}, "source_identifier": "31321", "external_references": [{"id": 26485, "source": {"name": "Wikidata", "slug": "wikidata"}, "source_identifier": "Q3169175"}, {"id": 29261, "source": {"name": "VIAF", "slug": "viaf"}, "source_identifier": "9642149068600765730005"}, {"id": 29262, "source": {"name": "LOC Auth", "slug": "loc-auth"}, "source_identifier": "no2008087696"}, {"id": 29263, "source": {"name": "WorldCat", "slug": "worldcat"}, "source_identifier": "lccn-no2008087696"}], "date_modified": "2025-05-22T23:10:37.715044+10:00"}, {"id": 83305, "name": "Robert Velin", "roles_in_work": [{"id": 3105522, "title": "Le Petit Parisien = the Little Parisian", "work_id": 116356, "role": "producer", "role_id": 1089, "is_primary": true}, {"id": 3105520, "title": "Le Defile de Poncarbo = the Gorges of Poncarbo", "work_id": 116360, "role": "producer", "role_id": 1089, "is_primary": true}, {"id": 3105524, "title": "Les Noces du Bossu = the Wedding of the Hunchback", "work_id": 116359, "role": "producer", "role_id": 1089, "is_primary": true}, {"id": 3105518, "title": "Le Bal du Regent = the Regent's Ball", "work_id": 116358, "role": "producer", "role_id": 1089, "is_primary": true}, {"id": 3105526, "title": "The Vengeance of Lagardere", "work_id": 116361, "role": "producer", "role_id": 1089, "is_primary": true}, {"id": 3105516, "title": "Aurore", "work_id": 116357, "role": "producer", "role_id": 1089, "is_primary": true}], "also_known_as": "", "date_of_birth": "", "date_of_death": "", "genders": [], "languages": [], "places_of_operation": [], "biography": "", "biography_author": null, "date_of_biography": "2023-05-09T12:35:13.041865+10:00", "external_links": [], "uuid": "9d8da631-3d6a-47ea-9d1c-d1b082f292ce", "source": {"name": "Vernon", "slug": "vernon"}, "source_identifier": "31320", "external_references": [{"id": 33388, "source": {"name": "Wikidata", "slug": "wikidata"}, "source_identifier": "Q121091340"}], "date_modified": "2025-05-22T23:10:37.108775+10:00"}, {"id": 83304, "name": "Pierre Long", "roles_in_work": [{"id": 3105327, "title": "Les Sesterain Ou le Miroir 2000: Episode 7", "work_id": 116368, "role": "producer", "role_id": 1089, "is_primary": true}, {"id": 3105297, "title": "La Maison des Bois: Episode 5", "work_id": 116353, "role": "producer", "role_id": 1089, "is_primary": true}, {"id": 3105329, "title": "Les Sesterain Ou le Miroir 2000: Episode 8", "work_id": 116369, "role": "producer", "role_id": 1089, "is_primary": true}, {"id": 3105295, "title": "La Maison des Bois: Episode 4", "work_id": 116352, "role": "producer", "role_id": 1089, "is_primary": true}, {"id": 3105331, "title": "Les Sesterain Ou le Miroir 2000: Episode 9", "work_id": 116370, "role": "producer", "role_id": 1089, "is_primary": true}, {"id": 3105293, "title": "La Maison des Bois: Episode 3", "work_id": 116351, "role": "producer", "role_id": 1089, "is_primary": true}, {"id": 3105333, "title": "Les Sesterain Ou le Miroir 2000: Episode 10", "work_id": 116371, "role": "producer", "role_id": 1089, "is_primary": true}, {"id": 3105291, "title": "La Maison des Bois: Episode 2", "work_id": 116350, "role": "producer", "role_id": 1089, "is_primary": true}, {"id": 3105335, "title": "Les Sesterain Ou le Miroir 2000: Episode 11", "work_id": 116372, "role": "producer", "role_id": 1089, "is_primary": true}, {"id": 3105319, "title": "Les Sesterain Ou le Miroir 2000: Episode 3", "work_id": 116364, "role": "producer", "role_id": 1089, "is_primary": true}, {"id": 3105337, "title": "Les Sesterain Ou le Miroir 2000: Episode 12", "work_id": 116373, "role": "producer", "role_id": 1089, "is_primary": true}, {"id": 3105339, "title": "Les Sesterain Ou le Miroir 2000: Episode 13", "work_id": 116374, "role": "producer", "role_id": 1089, "is_primary": true}, {"id": 3105289, "title": "La Maison des Bois: Episode 1", "work_id": 116349, "role": "producer", "role_id": 1089, "is_primary": true}, {"id": 3105317, "title": "Les Sesterain Ou le Miroir 2000: Episode 2", "work_id": 116363, "role": "producer", "role_id": 1089, "is_primary": true}, {"id": 3105321, "title": "Les Sesterain Ou le Miroir 2000: Episode 4", "work_id": 116365, "role": "producer", "role_id": 1089, "is_primary": true}, {"id": 3105315, "title": "Les Sesterain Ou le Miroir 2000: Episode 1", "work_id": 116362, "role": "producer", "role_id": 1089, "is_primary": true}, {"id": 3105323, "title": "Les Sesterain Ou le Miroir 2000: Episode 5", "work_id": 116366, "role": "producer", "role_id": 1089, "is_primary": true}, {"id": 3105301, "title": "La Maison des Bois: Episode 7", "work_id": 116355, "role": "producer", "role_id": 1089, "is_primary": true}, {"id": 3105325, "title": "Les Sesterain Ou le Miroir 2000: Episode 6", "work_id": 116367, "role": "producer", "role_id": 1089, "is_primary": true}, {"id": 3105299, "title": "La Maison des Bois: Episode 6", "work_id": 116354, "role": "producer", "role_id": 1089, "is_primary": true}], "also_known_as": "", "date_of_birth": "", "date_of_death": "", "genders": [], "languages": [], "places_of_operation": [], "biography": "", "biography_author": null, "date_of_biography": "2023-08-11T19:26:26.220370+10:00", "external_links": [], "uuid": "b01ca559-9377-445f-bf72-a212837564f5", "source": {"name": "Vernon", "slug": "vernon"}, "source_identifier": "31319", "external_references": [{"id": 42725, "source": {"name": "Wikidata", "slug": "wikidata"}, "source_identifier": "Q121091178"}], "date_modified": "2025-05-22T23:02:05.208495+10:00"}, {"id": 83303, "name": "Robert Mazoyer", "roles_in_work": [{"id": 3105280, "title": "Les Cousins de 'la Constance': Episode 2", "work_id": 116344, "role": "director", "role_id": 938, "is_primary": true}, {"id": 3105278, "title": "Les Cousins de 'la Constance': Episode 1", "work_id": 116343, "role": "director", "role_id": 938, "is_primary": true}, {"id": 3105282, "title": "Les Cousins de 'la Constance': Episode 3", "work_id": 116345, "role": "director", "role_id": 938, "is_primary": true}, {"id": 3105284, "title": "Les Cousins de 'la Constance': Episode 4", "work_id": 116346, "role": "director", "role_id": 938, "is_primary": true}, {"id": 3105286, "title": "Les Cousins de 'la Constance': Episode 5", "work_id": 116347, "role": "director", "role_id": 938, "is_primary": true}, {"id": 3105288, "title": "Les Cousins de 'la Constance': Episode 6", "work_id": 116348, "role": "director", "role_id": 938, "is_primary": true}], "also_known_as": "", "date_of_birth": "", "date_of_death": "", "genders": [], "languages": [], "places_of_operation": [], "biography": "", "biography_author": null, "date_of_biography": "2023-08-11T19:24:21.284602+10:00", "external_links": [], "uuid": "3dc8740e-4cc0-47bd-b01d-b8913288756c", "source": {"name": "Vernon", "slug": "vernon"}, "source_identifier": "31318", "external_references": [{"id": 39150, "source": {"name": "Wikidata", "slug": "wikidata"}, "source_identifier": "Q121222798"}], "date_modified": "2025-05-22T23:01:26.995528+10:00"}, {"id": 83302, "name": "Marcel Degliame Fouche", "roles_in_work": [{"id": 3105283, "title": "Les Cousins de 'la Constance': Episode 4", "work_id": 116346, "role": "producer", "role_id": 1089, "is_primary": true}, {"id": 3105281, "title": "Les Cousins de 'la Constance': Episode 3", "work_id": 116345, "role": "producer", "role_id": 1089, "is_primary": true}, {"id": 3105277, "title": "Les Cousins de 'la Constance': Episode 1", "work_id": 116343, "role": "producer", "role_id": 1089, "is_primary": true}, {"id": 3105287, "title": "Les Cousins de 'la Constance': Episode 6", "work_id": 116348, "role": "producer", "role_id": 1089, "is_primary": true}, {"id": 3105279, "title": "Les Cousins de 'la Constance': Episode 2", "work_id": 116344, "role": "producer", "role_id": 1089, "is_primary": true}, {"id": 3105285, "title": "Les Cousins de 'la Constance': Episode 5", "work_id": 116347, "role": "producer", "role_id": 1089, "is_primary": true}], "also_known_as": "", "date_of_birth": "", "date_of_death": "", "genders": [], "languages": [], "places_of_operation": [], "biography": "", "biography_author": null, "date_of_biography": "2023-08-11T19:24:20.669276+10:00", "external_links": [], "uuid": "bc7a905b-39c4-4c7e-b8f5-ab28649c8929", "source": {"name": "Vernon", "slug": "vernon"}, "source_identifier": "31317", "external_references": [{"id": 32763, "source": {"name": "Wikidata", "slug": "wikidata"}, "source_identifier": "Q121078923"}], "date_modified": "2025-05-22T23:01:26.386036+10:00"}, {"id": 83301, "name": "Jacques Bourdon", "roles_in_work": [{"id": 3105260, "title": "Soleil Dans L'oeil = Sun in the Eyes (Cinemascope Print)", "work_id": 116327, "role": "director", "role_id": 938, "is_primary": true}], "also_known_as": "", "date_of_birth": "1925-03-31", "date_of_death": "1991-12-01", "genders": [{"id": 9, "name": "Male", "slug": "male"}], "languages": [{"id": 4, "name": "French", "slug": "french"}], "places_of_operation": [{"id": 17, "name": "France", "slug": "france"}], "biography": "", "biography_author": null, "date_of_biography": "2023-05-09T18:43:30.060927+10:00", "external_links": [], "uuid": "9dc804c5-329c-4b4d-b341-284a27f1bd07", "source": {"name": "Vernon", "slug": "vernon"}, "source_identifier": "31316", "external_references": [{"id": 35462, "source": {"name": "Wikidata", "slug": "wikidata"}, "source_identifier": "Q15972022"}, {"id": 54742, "source": {"name": "VIAF", "slug": "viaf"}, "source_identifier": "54407886"}, {"id": 54743, "source": {"name": "WorldCat", "slug": "worldcat"}, "source_identifier": "viaf-54407886"}], "date_modified": "2025-05-22T23:01:04.356396+10:00"}, {"id": 83300, "name": "Andre Deroual", "roles_in_work": [{"id": 3105259, "title": "Soleil Dans L'oeil = Sun in the Eyes (Cinemascope Print)", "work_id": 116327, "role": "producer", "role_id": 1089, "is_primary": true}], "also_known_as": "", "date_of_birth": "", "date_of_death": "", "genders": [], "languages": [], "places_of_operation": [], "biography": "", "biography_author": null, "date_of_biography": "2023-05-09T18:43:29.812505+10:00", "external_links": [], "uuid": "30e8ad43-e0b5-4386-b64b-c4807f7d5852", "source": {"name": "Vernon", "slug": "vernon"}, "source_identifier": "31315", "external_references": [{"id": 33894, "source": {"name": "Wikidata", "slug": "wikidata"}, "source_identifier": "Q121034884"}], "date_modified": "2025-05-22T23:01:03.729986+10:00"}, {"id": 83299, "name": "Eric Schlumberger", "roles_in_work": [{"id": 3105258, "title": "Soleil Dans L'oeil = Sun in the Eyes (Cinemascope Print)", "work_id": 116327, "role": "producer", "role_id": 1089, "is_primary": true}], "also_known_as": "Éric Jean Hugo Schlumberger", "date_of_birth": "1932-11-05", "date_of_death": "2018-11-16", "genders": [{"id": 9, "name": "Male", "slug": "male"}], "languages": [{"id": 4, "name": "French", "slug": "french"}], "places_of_operation": [{"id": 26, "name": "Switzerland", "slug": "switzerland"}], "biography": "", "biography_author": null, "date_of_biography": "2023-05-09T18:43:29+10:00", "external_links": [], "uuid": "1d0188e0-b3d4-4d5e-96a3-0017cadc96ce", "source": {"name": "Vernon", "slug": "vernon"}, "source_identifier": "31314", "external_references": [{"id": 51269, "source": {"name": "Wikidata", "slug": "wikidata"}, "source_identifier": "Q3591353"}], "date_modified": "2025-05-22T23:01:03.133094+10:00"}, {"id": 83298, "name": "Pascal Aubie", "roles_in_work": [{"id": 3105247, "title": "Le Chant du Depart", "work_id": 116322, "role": "director", "role_id": 938, "is_primary": true}], "also_known_as": "", "date_of_birth": "", "date_of_death": "", "genders": [], "languages": [], "places_of_operation": [], "biography": "", "biography_author": null, "date_of_biography": "2023-08-11T19:19:52.922664+10:00", "external_links": [], "uuid": "74953d67-452f-46c5-b555-ec13210bde4b", "source": {"name": "Vernon", "slug": "vernon"}, "source_identifier": "31313", "external_references": [{"id": 36328, "source": {"name": "Wikidata", "slug": "wikidata"}, "source_identifier": "Q121271072"}], "date_modified": "2025-05-22T23:00:55.965066+10:00"}]}