{"count": 28687, "next": "https://api.acmi.net.au/creators/?page=359", "previous": "https://api.acmi.net.au/creators/?page=357", "results": [{"id": 82027, "name": "Clean Film", "roles_in_work": [{"id": 2660854, "title": "Mozart's House", "work_id": 114387, "role": "production company", "role_id": 941, "is_primary": true}], "also_known_as": "", "date_of_birth": null, "date_of_death": null, "genders": [], "languages": [], "places_of_operation": [], "biography": "", "biography_author": null, "date_of_biography": null, "external_links": [], "uuid": "95c92a56-0980-4efe-a2f6-8765e537a44d", "source": {"name": "Vernon", "slug": "vernon"}, "source_identifier": "37293", "external_references": [{"id": 36428, "source": {"name": "Wikidata", "slug": "wikidata"}, "source_identifier": "Q121223593"}], "date_modified": "2025-03-05T20:00:02.001218+11:00"}, {"id": 82026, "name": "George the Poet", "roles_in_work": [{"id": 2157010, "title": "My City", "work_id": 114386, "role": "performer", "role_id": 576, "is_primary": false}], "also_known_as": "", "date_of_birth": "", "date_of_death": "", "genders": [], "languages": [], "places_of_operation": [], "biography": "", "biography_author": null, "date_of_biography": "2023-05-09T14:07:35.646308+10:00", "external_links": [], "uuid": "37e9de7c-9a4c-44ad-aac4-7d69f6882591", "source": {"name": "Vernon", "slug": "vernon"}, "source_identifier": "37298", "external_references": [], "date_modified": "2023-06-14T16:33:30.576250+10:00"}, {"id": 82025, "name": "Paul Kirsop", "roles_in_work": [{"id": 2157009, "title": "My City", "work_id": 114386, "role": "director of photography", "role_id": 925, "is_primary": false}], "also_known_as": "", "date_of_birth": "", "date_of_death": "", "genders": [], "languages": [], "places_of_operation": [], "biography": "", "biography_author": null, "date_of_biography": "2023-05-09T14:07:35.373093+10:00", "external_links": [], "uuid": "ecad418c-2a9d-463e-91f7-aa32496b7b74", "source": {"name": "Vernon", "slug": "vernon"}, "source_identifier": "37297", "external_references": [], "date_modified": "2023-06-14T16:33:30.576250+10:00"}, {"id": 82024, "name": "Robert Ryan", "roles_in_work": [{"id": 2157007, "title": "My City", "work_id": 114386, "role": "director", "role_id": 938, "is_primary": true}], "also_known_as": "", "date_of_birth": "", "date_of_death": "", "genders": [], "languages": [], "places_of_operation": [], "biography": "", "biography_author": null, "date_of_biography": "2023-05-09T14:07:35.063337+10:00", "external_links": [], "uuid": "ec9eb1f5-536e-45a2-b110-34e6262d48bc", "source": {"name": "Vernon", "slug": "vernon"}, "source_identifier": "37296", "external_references": [{"id": 41897, "source": {"name": "Wikidata", "slug": "wikidata"}, "source_identifier": "Q121079502"}], "date_modified": "2023-09-06T00:46:20.141201+10:00"}, {"id": 82023, "name": "Deuce Films", "roles_in_work": [{"id": 2157005, "title": "My City", "work_id": 114386, "role": "production company", "role_id": 941, "is_primary": true}], "also_known_as": "", "date_of_birth": "", "date_of_death": "", "genders": [], "languages": [], "places_of_operation": [], "biography": "", "biography_author": null, "date_of_biography": "2023-05-09T14:07:34.810438+10:00", "external_links": [], "uuid": "4c2133cc-b50f-46fe-b0d2-5bdf4d5eb260", "source": {"name": "Vernon", "slug": "vernon"}, "source_identifier": "37299", "external_references": [{"id": 34048, "source": {"name": "Wikidata", "slug": "wikidata"}, "source_identifier": "Q121337465"}], "date_modified": "2023-09-05T19:10:42.440935+10:00"}, {"id": 82022, "name": "Malik", "roles_in_work": [{"id": 2063546, "title": "16 Bars", "work_id": 114385, "role": "creator", "role_id": 968, "is_primary": true}], "also_known_as": "", "date_of_birth": "", "date_of_death": "", "genders": [], "languages": [], "places_of_operation": [], "biography": "", "biography_author": null, "date_of_biography": "2023-05-09T11:19:24.090753+10:00", "external_links": [], "uuid": "ee31d587-0fec-4923-bd55-d70663d6f573", "source": {"name": "Vernon", "slug": "vernon"}, "source_identifier": "37286", "external_references": [], "date_modified": "2023-06-14T16:33:30.576250+10:00"}, {"id": 82021, "name": "Acme Films", "roles_in_work": [{"id": 2063537, "title": "16 Bars", "work_id": 114385, "role": "production company", "role_id": 941, "is_primary": true}], "also_known_as": "", "date_of_birth": "", "date_of_death": "", "genders": [], "languages": [], "places_of_operation": [], "biography": "", "biography_author": null, "date_of_biography": "2023-05-09T11:19:23.602467+10:00", "external_links": [], "uuid": "a13e7eb8-549c-4bfe-b9b8-5550027ec46f", "source": {"name": "Vernon", "slug": "vernon"}, "source_identifier": "37284", "external_references": [{"id": 36754, "source": {"name": "Wikidata", "slug": "wikidata"}, "source_identifier": "Q121079441"}], "date_modified": "2023-09-05T17:15:36.250391+10:00"}, {"id": 82020, "name": "Matthew Day", "roles_in_work": [{"id": 2660851, "title": "Light Percussion", "work_id": 114384, "role": "director of photography", "role_id": 925, "is_primary": false}], "also_known_as": "", "date_of_birth": null, "date_of_death": null, "genders": [], "languages": [], "places_of_operation": [], "biography": "", "biography_author": null, "date_of_biography": null, "external_links": [], "uuid": "001d2334-ffb8-466e-ab32-91d167349c7c", "source": {"name": "Vernon", "slug": "vernon"}, "source_identifier": "37290", "external_references": [], "date_modified": "2025-03-05T19:59:59.865201+11:00"}, {"id": 82019, "name": "Robin Rigoulet", "roles_in_work": [{"id": 2660850, "title": "Light Percussion", "work_id": 114384, "role": "performer", "role_id": 576, "is_primary": false}], "also_known_as": "", "date_of_birth": null, "date_of_death": null, "genders": [], "languages": [], "places_of_operation": [], "biography": "", "biography_author": null, "date_of_biography": null, "external_links": [], "uuid": "7345131f-508d-49c6-a06f-8fba0be6e6e9", "source": {"name": "Vernon", "slug": "vernon"}, "source_identifier": "37289", "external_references": [], "date_modified": "2025-03-05T19:59:59.282459+11:00"}, {"id": 82018, "name": "Joe Dixon", "roles_in_work": [{"id": 2660849, "title": "Light Percussion", "work_id": 114384, "role": "co-director", "role_id": 959, "is_primary": true}], "also_known_as": "", "date_of_birth": null, "date_of_death": null, "genders": [], "languages": [], "places_of_operation": [], "biography": "", "biography_author": null, "date_of_biography": null, "external_links": [], "uuid": "6209c7af-6628-408b-b423-ad264a8e7bce", "source": {"name": "Vernon", "slug": "vernon"}, "source_identifier": "37288", "external_references": [{"id": 32768, "source": {"name": "Wikidata", "slug": "wikidata"}, "source_identifier": "Q121126627"}], "date_modified": "2025-03-05T19:59:58.692525+11:00"}]}