{"count": 28687, "next": "https://api.acmi.net.au/creators/?page=1270", "previous": "https://api.acmi.net.au/creators/?page=1268", "results": [{"id": 39298, "name": "Sondler Films", "roles_in_work": [{"id": 2406491, "title": "Dropping out: broken dreams", "work_id": 99244, "role": "production company", "role_id": 941, "is_primary": true}], "also_known_as": "", "date_of_birth": "", "date_of_death": "", "genders": [], "languages": [], "places_of_operation": [], "biography": "", "biography_author": null, "date_of_biography": "2023-08-11T16:14:52.083335+10:00", "external_links": [], "uuid": "b1acd624-64b4-47d8-9827-3b17a83fdb16", "source": {"name": "Vernon", "slug": "vernon"}, "source_identifier": "12740", "external_references": [], "date_modified": "2023-08-11T16:14:52.083567+10:00"}, {"id": 39296, "name": "Corporate Development, Western Region and TV ED Productions", "roles_in_work": [{"id": 2754521, "title": "Clickers club: photo adventures in curriculum", "work_id": 99241, "role": "production company", "role_id": 941, "is_primary": true}], "also_known_as": "", "date_of_birth": null, "date_of_death": null, "genders": [], "languages": [], "places_of_operation": [], "biography": "", "biography_author": null, "date_of_biography": null, "external_links": [], "uuid": "88a9b5e0-e9bc-412c-a38f-be0024c25c50", "source": {"name": "Vernon", "slug": "vernon"}, "source_identifier": "7084", "external_references": [], "date_modified": "2025-03-13T01:46:05.588782+11:00"}, {"id": 39295, "name": "Health Education Video Unit, Leicestershire Health Authority", "roles_in_work": [{"id": 2754510, "title": "Cervical cancer", "work_id": 99237, "role": "production company", "role_id": 941, "is_primary": true}], "also_known_as": "", "date_of_birth": "", "date_of_death": "", "genders": [], "languages": [], "places_of_operation": [], "biography": "", "biography_author": null, "date_of_biography": "2023-08-11T15:19:40.362136+10:00", "external_links": [], "uuid": "e34190a5-52f9-4ef6-bb8e-71b11273bfd5", "source": {"name": "Vernon", "slug": "vernon"}, "source_identifier": "9042", "external_references": [], "date_modified": "2025-03-13T01:45:57.997596+11:00"}, {"id": 39292, "name": "Materials Production Dandenong School Support Centre", "roles_in_work": [{"id": 2754506, "title": "But what about spelling?", "work_id": 99236, "role": "production company", "role_id": 941, "is_primary": true}], "also_known_as": "", "date_of_birth": "", "date_of_death": "", "genders": [], "languages": [], "places_of_operation": [], "biography": "", "biography_author": null, "date_of_biography": "2023-05-09T13:14:55.226050+10:00", "external_links": [], "uuid": "e41c72f7-0f47-4f0d-953d-8af3b0c763c1", "source": {"name": "Vernon", "slug": "vernon"}, "source_identifier": "10363", "external_references": [{"id": 36396, "source": {"name": "Wikidata", "slug": "wikidata"}, "source_identifier": "Q121091231"}], "date_modified": "2025-03-13T01:45:55.374190+11:00"}, {"id": 39291, "name": "Michael Berry", "roles_in_work": [{"id": 2773625, "title": "Blood on the wattle", "work_id": 99235, "role": "producer", "role_id": 1089, "is_primary": true}], "also_known_as": "", "date_of_birth": null, "date_of_death": null, "genders": [], "languages": [], "places_of_operation": [], "biography": "", "biography_author": null, "date_of_biography": null, "external_links": [], "uuid": "4e8d7a77-87bd-4b16-8a08-0f1febad6d1f", "source": {"name": "Vernon", "slug": "vernon"}, "source_identifier": "24975", "external_references": [], "date_modified": "2025-03-14T18:28:23.765149+11:00"}, {"id": 39290, "name": "Statewide School Support and Production Centre", "roles_in_work": [{"id": 1905583, "title": "Another Piece of Equipment", "work_id": 99231, "role": "production company", "role_id": 941, "is_primary": true}, {"id": 2779698, "title": "Roald Dahl", "work_id": 99258, "role": "production company", "role_id": 941, "is_primary": true}], "also_known_as": "", "date_of_birth": null, "date_of_death": null, "genders": [], "languages": [], "places_of_operation": [], "biography": "", "biography_author": null, "date_of_biography": null, "external_links": [], "uuid": "73b3a00c-b2f7-421d-a929-253d51f5e368", "source": {"name": "Vernon", "slug": "vernon"}, "source_identifier": "12938", "external_references": [], "date_modified": "2025-03-14T19:04:08.675816+11:00"}, {"id": 39289, "name": "Lisa Milner", "roles_in_work": [{"id": 2754497, "title": "Language development in multicultural classroom: science", "work_id": 99230, "role": "producer", "role_id": 1089, "is_primary": true}], "also_known_as": "", "date_of_birth": "", "date_of_death": "", "genders": [], "languages": [], "places_of_operation": [], "biography": "", "biography_author": null, "date_of_biography": "2023-08-11T19:17:55.483909+10:00", "external_links": [], "uuid": "03909d01-4682-4705-8290-697f8bb660ff", "source": {"name": "Vernon", "slug": "vernon"}, "source_identifier": "23925", "external_references": [], "date_modified": "2025-03-13T01:45:49.325849+11:00"}, {"id": 39288, "name": "Sydney College of Advanced Education", "roles_in_work": [{"id": 2754496, "title": "Language development in multicultural classroom: science", "work_id": 99230, "role": "production company", "role_id": 941, "is_primary": true}], "also_known_as": "", "date_of_birth": "", "date_of_death": "", "genders": [], "languages": [], "places_of_operation": [], "biography": "", "biography_author": null, "date_of_biography": "2023-08-11T19:17:54.840863+10:00", "external_links": [], "uuid": "a693eeab-3ade-43c0-817b-3175365a45e1", "source": {"name": "Vernon", "slug": "vernon"}, "source_identifier": "13100", "external_references": [], "date_modified": "2025-03-13T01:45:48.606294+11:00"}, {"id": 39287, "name": "Ron Cummings", "roles_in_work": [{"id": 2754495, "title": "Look & book: arts & entertainment video directory", "work_id": 99229, "role": "director", "role_id": 938, "is_primary": true}], "also_known_as": "", "date_of_birth": null, "date_of_death": null, "genders": [], "languages": [], "places_of_operation": [], "biography": "", "biography_author": null, "date_of_biography": null, "external_links": [], "uuid": "300ed6b5-22fa-483b-959a-dda9a3ca17ea", "source": {"name": "Vernon", "slug": "vernon"}, "source_identifier": "28135", "external_references": [], "date_modified": "2025-03-13T01:45:47.793862+11:00"}, {"id": 39284, "name": "Marjorie Fisher", "roles_in_work": [{"id": 2754489, "title": "We don't make him special", "work_id": 99228, "role": "co-producer", "role_id": 915, "is_primary": true}, {"id": 2754483, "title": "Handicap is something you put on a horse", "work_id": 99226, "role": "producer", "role_id": 1089, "is_primary": true}], "also_known_as": "", "date_of_birth": "", "date_of_death": "", "genders": [], "languages": [], "places_of_operation": [], "biography": "", "biography_author": null, "date_of_biography": "2023-08-11T17:12:36.864499+10:00", "external_links": [], "uuid": "9d6e069c-65b8-4445-9b76-d6728198de53", "source": {"name": "Vernon", "slug": "vernon"}, "source_identifier": "24206", "external_references": [], "date_modified": "2025-03-13T01:45:43.950491+11:00"}]}