{"count": 28687, "next": "https://api.acmi.net.au/creators/?page=2215", "previous": "https://api.acmi.net.au/creators/?page=2213", "results": [{"id": 18401, "name": "Freighter Trailers", "roles_in_work": [{"id": 2468269, "title": "The Timber jinker", "work_id": 73825, "role": "production company", "role_id": 941, "is_primary": true}], "also_known_as": "", "date_of_birth": "", "date_of_death": "", "genders": [], "languages": [], "places_of_operation": [], "biography": "", "biography_author": null, "date_of_biography": "2023-08-14T11:37:50.470919+10:00", "external_links": [], "uuid": "a2e23f08-40cb-4500-aeb1-972fd6709e92", "source": {"name": "Vernon", "slug": "vernon"}, "source_identifier": "8554", "external_references": [], "date_modified": "2023-08-14T11:37:50.471147+10:00"}, {"id": 18400, "name": "Cine-Servie", "roles_in_work": [{"id": 2468268, "title": "The Timber jinker", "work_id": 73825, "role": "production company", "role_id": 941, "is_primary": true}], "also_known_as": "", "date_of_birth": "", "date_of_death": "", "genders": [], "languages": [], "places_of_operation": [], "biography": "", "biography_author": null, "date_of_biography": "2023-08-14T11:37:49.851398+10:00", "external_links": [], "uuid": "a16da348-91ca-44c9-9b9e-5a5f7605a26e", "source": {"name": "Vernon", "slug": "vernon"}, "source_identifier": "6749", "external_references": [], "date_modified": "2023-08-14T11:37:49.851640+10:00"}, {"id": 18399, "name": "Gary Payne", "roles_in_work": [{"id": 2469128, "title": "Timber", "work_id": 73822, "role": "director", "role_id": 938, "is_primary": true}], "also_known_as": "", "date_of_birth": "", "date_of_death": "", "genders": [], "languages": [], "places_of_operation": [], "biography": "", "biography_author": null, "date_of_biography": "2023-08-14T11:53:47.522463+10:00", "external_links": [], "uuid": "91254f57-7446-447c-bf9b-76567735a1b0", "source": {"name": "Vernon", "slug": "vernon"}, "source_identifier": "31396", "external_references": [], "date_modified": "2023-08-14T11:53:47.522775+10:00"}, {"id": 18398, "name": "Robert Landucci", "roles_in_work": [{"id": 2469127, "title": "Timber", "work_id": 73822, "role": "producer", "role_id": 1089, "is_primary": true}], "also_known_as": "", "date_of_birth": "", "date_of_death": "", "genders": [], "languages": [], "places_of_operation": [], "biography": "", "biography_author": null, "date_of_biography": "2023-08-14T11:53:46.895399+10:00", "external_links": [], "uuid": "443603f3-f35e-4fcd-a46e-438fef21daa5", "source": {"name": "Vernon", "slug": "vernon"}, "source_identifier": "31395", "external_references": [], "date_modified": "2023-08-14T11:53:46.895636+10:00"}, {"id": 18397, "name": "Earle Noble", "roles_in_work": [{"id": 2469126, "title": "Timber", "work_id": 73822, "role": "producer", "role_id": 1089, "is_primary": true}], "also_known_as": "", "date_of_birth": "", "date_of_death": "", "genders": [], "languages": [], "places_of_operation": [], "biography": "", "biography_author": null, "date_of_biography": "2023-08-14T11:53:46.270178+10:00", "external_links": [], "uuid": "785cbe64-85f9-4ed7-bd24-ac5ec9788477", "source": {"name": "Vernon", "slug": "vernon"}, "source_identifier": "31394", "external_references": [], "date_modified": "2023-08-14T11:53:46.270399+10:00"}, {"id": 18396, "name": "Crest Films", "roles_in_work": [{"id": 2469125, "title": "Timber", "work_id": 73822, "role": "production company", "role_id": 941, "is_primary": true}], "also_known_as": "", "date_of_birth": "", "date_of_death": "", "genders": [], "languages": [], "places_of_operation": [], "biography": "", "biography_author": null, "date_of_biography": "2023-08-14T11:53:45.637805+10:00", "external_links": [], "uuid": "172ea5af-888f-4c8c-8bb5-5bb03373b883", "source": {"name": "Vernon", "slug": "vernon"}, "source_identifier": "31393", "external_references": [], "date_modified": "2023-08-14T11:53:45.638040+10:00"}, {"id": 18395, "name": "V. Goulin", "roles_in_work": [{"id": 2469111, "title": "Tiger hunters", "work_id": 73817, "role": "director", "role_id": 938, "is_primary": true}], "also_known_as": "", "date_of_birth": "", "date_of_death": "", "genders": [], "languages": [], "places_of_operation": [], "biography": "", "biography_author": null, "date_of_biography": "2023-08-14T11:53:28.791889+10:00", "external_links": [], "uuid": "dfb18208-defe-4900-899d-fc28fc428099", "source": {"name": "Vernon", "slug": "vernon"}, "source_identifier": "31389", "external_references": [], "date_modified": "2023-08-14T11:53:28.792148+10:00"}, {"id": 18394, "name": "Far Eastern Newsreel Studios", "roles_in_work": [{"id": 2469110, "title": "Tiger hunters", "work_id": 73817, "role": "production company", "role_id": 941, "is_primary": true}], "also_known_as": "", "date_of_birth": "", "date_of_death": "", "genders": [], "languages": [], "places_of_operation": [], "biography": "", "biography_author": null, "date_of_biography": "2023-08-14T11:53:28.145690+10:00", "external_links": [], "uuid": "7752fa70-812c-4ac4-962a-8a6dcd2359c1", "source": {"name": "Vernon", "slug": "vernon"}, "source_identifier": "31388", "external_references": [], "date_modified": "2023-08-14T11:53:28.145925+10:00"}, {"id": 18393, "name": "Margaret Perry", "roles_in_work": [{"id": 908312, "title": "Northwest by air", "work_id": 88740, "role": "co-producer", "role_id": 915, "is_primary": true}, {"id": 1804787, "title": "The Highland heart of Nova Scotia", "work_id": 90874, "role": "producer", "role_id": 1089, "is_primary": true}, {"id": 2646632, "title": "Tides of Fundy", "work_id": 73816, "role": "producer/director", "role_id": 31, "is_primary": true}, {"id": 2408590, "title": "Glooscap country", "work_id": 76097, "role": "producer/director", "role_id": 31, "is_primary": true}], "also_known_as": "", "date_of_birth": "", "date_of_death": "", "genders": [], "languages": [], "places_of_operation": [], "biography": "", "biography_author": null, "date_of_biography": "2023-08-11T17:03:19.453836+10:00", "external_links": [], "uuid": "8e832b1b-fa85-43a9-89e6-c5954e653966", "source": {"name": "Vernon", "slug": "vernon"}, "source_identifier": "24356", "external_references": [], "date_modified": "2025-03-05T13:07:29.966700+11:00"}, {"id": 18392, "name": "T. Taylor", "roles_in_work": [{"id": 2469106, "title": "Tide pool life", "work_id": 73815, "role": "producer", "role_id": 1089, "is_primary": true}], "also_known_as": "", "date_of_birth": "", "date_of_death": "", "genders": [], "languages": [], "places_of_operation": [], "biography": "", "biography_author": null, "date_of_biography": "2023-08-14T11:53:20.934478+10:00", "external_links": [], "uuid": "2526776f-37de-4d1f-9237-fb8bd1486e65", "source": {"name": "Vernon", "slug": "vernon"}, "source_identifier": "31387", "external_references": [], "date_modified": "2023-08-14T11:53:20.934747+10:00"}]}