{"count": 28687, "next": "https://api.acmi.net.au/creators/?page=236", "previous": "https://api.acmi.net.au/creators/?page=234", "results": [{"id": 83257, "name": "Jacques Dercourt", "roles_in_work": [{"id": 3105125, "title": "Les Maitres du Temps = the Time Masters", "work_id": 116259, "role": "producer", "role_id": 1089, "is_primary": true}], "also_known_as": "", "date_of_birth": "", "date_of_death": "", "genders": [], "languages": [], "places_of_operation": [], "biography": "", "biography_author": null, "date_of_biography": "2023-08-11T19:25:08.557809+10:00", "external_links": [], "uuid": "bcfd1938-9b7e-4665-abdf-eb74b038fa10", "source": {"name": "Vernon", "slug": "vernon"}, "source_identifier": "31274", "external_references": [{"id": 51689, "source": {"name": "Wikidata", "slug": "wikidata"}, "source_identifier": "Q121357676"}], "date_modified": "2025-05-22T22:56:48.939705+10:00"}, {"id": 83256, "name": "Roland Gritti", "roles_in_work": [{"id": 3105124, "title": "Les Maitres du Temps = the Time Masters", "work_id": 116259, "role": "producer", "role_id": 1089, "is_primary": true}], "also_known_as": "", "date_of_birth": "", "date_of_death": "", "genders": [], "languages": [], "places_of_operation": [], "biography": "", "biography_author": null, "date_of_biography": "2023-08-11T19:25:07.927808+10:00", "external_links": [], "uuid": "cbc44c01-69ad-4053-bb32-766c40b8ce1d", "source": {"name": "Vernon", "slug": "vernon"}, "source_identifier": "31273", "external_references": [{"id": 39649, "source": {"name": "Wikidata", "slug": "wikidata"}, "source_identifier": "Q121144027"}], "date_modified": "2025-05-22T22:56:48.336526+10:00"}, {"id": 83255, "name": "Louis Daquin", "roles_in_work": [{"id": 3105118, "title": "Nous les Gosses = Us Kids", "work_id": 116256, "role": "director", "role_id": 938, "is_primary": true}], "also_known_as": "Louis Léon Auguste Daquin", "date_of_birth": "1908-05-30", "date_of_death": "1980-10-02", "genders": [{"id": 9, "name": "Male", "slug": "male"}], "languages": [{"id": 4, "name": "French", "slug": "french"}], "places_of_operation": [{"id": 17, "name": "France", "slug": "france"}], "biography": "Louis Daquin (20 May 1908 – 2 October 1980) was a French film director, screenwriter and actor. He directed 14 films between 1938 and 1963. He also appeared in 11 films between 1937 and 1979.; 14/08/2023", "biography_author": null, "date_of_biography": "2025-05-22T22:56:43.925965+10:00", "external_links": [{"id": 4569, "uri": "https://en.wikipedia.org/wiki/Louis_Daquin"}], "uuid": "1bb3af56-c569-427e-8c47-3c2bbb49dc62", "source": {"name": "Vernon", "slug": "vernon"}, "source_identifier": "31062", "external_references": [{"id": 26479, "source": {"name": "Wikidata", "slug": "wikidata"}, "source_identifier": "Q200525"}, {"id": 30002, "source": {"name": "VIAF", "slug": "viaf"}, "source_identifier": "91580706"}, {"id": 30003, "source": {"name": "LOC Auth", "slug": "loc-auth"}, "source_identifier": "n80104928"}, {"id": 30004, "source": {"name": "WorldCat", "slug": "worldcat"}, "source_identifier": "lccn-n80104928"}], "date_modified": "2025-05-22T22:56:43.926240+10:00"}, {"id": 83254, "name": "Jean Faurez", "roles_in_work": [{"id": 3105117, "title": "Nous les Gosses = Us Kids", "work_id": 116256, "role": "producer", "role_id": 1089, "is_primary": true}], "also_known_as": "", "date_of_birth": "", "date_of_death": "", "genders": [], "languages": [], "places_of_operation": [], "biography": "", "biography_author": null, "date_of_biography": "2023-08-14T10:12:00.067421+10:00", "external_links": [], "uuid": "3db4a440-8ea7-4cf3-a81a-cc70e169231a", "source": {"name": "Vernon", "slug": "vernon"}, "source_identifier": "31272", "external_references": [{"id": 32846, "source": {"name": "Wikidata", "slug": "wikidata"}, "source_identifier": "Q121086018"}], "date_modified": "2025-05-22T22:56:43.323193+10:00"}, {"id": 83253, "name": "Lucien Viard", "roles_in_work": [{"id": 3105112, "title": "Le Septieme Jure = the Seventh Juror", "work_id": 116253, "role": "producer", "role_id": 1089, "is_primary": true}], "also_known_as": "", "date_of_birth": null, "date_of_death": null, "genders": [], "languages": [], "places_of_operation": [], "biography": "", "biography_author": null, "date_of_biography": null, "external_links": [], "uuid": "a58a91a0-8e9b-4d4a-bdeb-1ebdaeb3202f", "source": {"name": "Vernon", "slug": "vernon"}, "source_identifier": "31271", "external_references": [{"id": 35476, "source": {"name": "Wikidata", "slug": "wikidata"}, "source_identifier": "Q121337437"}], "date_modified": "2025-05-22T22:56:39.500997+10:00"}, {"id": 83252, "name": "Jose Giovanni", "roles_in_work": [{"id": 3105107, "title": "Le Rapace = Birds of Prey", "work_id": 116250, "role": "director", "role_id": 938, "is_primary": true}, {"id": 3105190, "title": "La Loi du Survivant = Law of the Survivor (Cinemascope Print", "work_id": 116292, "role": "director", "role_id": 938, "is_primary": true}], "also_known_as": "", "date_of_birth": null, "date_of_death": null, "genders": [], "languages": [], "places_of_operation": [], "biography": "", "biography_author": null, "date_of_biography": null, "external_links": [], "uuid": "97e8fdd9-95f8-4e0e-a6ce-0a8d7e3095c5", "source": {"name": "Vernon", "slug": "vernon"}, "source_identifier": "31064", "external_references": [], "date_modified": "2025-05-22T23:00:15.625887+10:00"}, {"id": 83251, "name": "Charles Pons", "roles_in_work": [{"id": 3105101, "title": "La Femme du Boulanger = the Baker's Wife", "work_id": 116247, "role": "producer", "role_id": 1089, "is_primary": true}], "also_known_as": "", "date_of_birth": null, "date_of_death": null, "genders": [], "languages": [], "places_of_operation": [], "biography": "", "biography_author": null, "date_of_biography": null, "external_links": [], "uuid": "89d15896-4446-4803-9da8-d1cdd8c74221", "source": {"name": "Vernon", "slug": "vernon"}, "source_identifier": "31270", "external_references": [{"id": 43110, "source": {"name": "Wikidata", "slug": "wikidata"}, "source_identifier": "Q121086169"}], "date_modified": "2025-05-22T22:56:31.229254+10:00"}, {"id": 83250, "name": "Marc Monnet", "roles_in_work": [{"id": 3105099, "title": "Lea L'hiver = Lea, in Winter", "work_id": 116245, "role": "director", "role_id": 938, "is_primary": true}], "also_known_as": "", "date_of_birth": null, "date_of_death": "", "genders": [{"id": 9, "name": "Male", "slug": "male"}], "languages": [{"id": 4, "name": "French", "slug": "french"}], "places_of_operation": [{"id": 17, "name": "France", "slug": "france"}], "biography": "", "biography_author": null, "date_of_biography": "2023-08-11T19:22:01.002101+10:00", "external_links": [], "uuid": "1f0eacc9-c569-4a39-b108-3500a92a180e", "source": {"name": "Vernon", "slug": "vernon"}, "source_identifier": "31269", "external_references": [{"id": 32503, "source": {"name": "Wikidata", "slug": "wikidata"}, "source_identifier": "Q16028713"}], "date_modified": "2025-05-22T22:56:29.537020+10:00"}, {"id": 83249, "name": "Francis Girod", "roles_in_work": [{"id": 3105098, "title": "Lea L'hiver = Lea, in Winter", "work_id": 116245, "role": "producer", "role_id": 1089, "is_primary": true}], "also_known_as": "", "date_of_birth": "", "date_of_death": "", "genders": [], "languages": [], "places_of_operation": [], "biography": "", "biography_author": null, "date_of_biography": "2023-08-11T19:22:00.300308+10:00", "external_links": [], "uuid": "5e03d5d3-f1d0-42d2-9df7-b36cbd0d26e3", "source": {"name": "Vernon", "slug": "vernon"}, "source_identifier": "31268", "external_references": [{"id": 32529, "source": {"name": "Wikidata", "slug": "wikidata"}, "source_identifier": "Q711984"}], "date_modified": "2025-05-22T22:56:28.933007+10:00"}, {"id": 83248, "name": "Maurice Cloche", "roles_in_work": [{"id": 3105636, "title": "Monsieur Vincent", "work_id": 116244, "role": "director", "role_id": 938, "is_primary": true}], "also_known_as": "", "date_of_birth": "17 JUN 1907", "date_of_death": "20 MAR 1990", "genders": [{"id": 9, "name": "Male", "slug": "male"}], "languages": [{"id": 4, "name": "French", "slug": "french"}], "places_of_operation": [{"id": 17, "name": "France", "slug": "france"}], "biography": "Maurice Cloche (17 June 1907, in Commercy, Meuse – 20 March 1990, in Bordeaux, France) was a French film director, screenwriter, photographer and film producer. Best known for his Oscar-winning film Monsieur Vincent (1947) he won a 1948 Special Academy Award for Best Foreign Language Film.''Monsieur Vincent,'' a dramatization of the life of St. Vincent de Paul that starred Pierre Fresnay, won the Academy Award in 1947 for best foreign film. It also was honored as the best film in France that year.\n\nMr. Cloche, whose career spanned more than a half-century, also made spy thrillers and films with religious and social themes.\n\nHis best-known films include ''La Cage aux Oiseaux'' (''The Bird Cage''); ''Le Docteur Laennec,'' the story of the inventor of the stethoscope; ''Ne de Pere Inconnu'' (''Father Unknown'') and ''La Cage aux Filles (''The Girl Cage'').\n\nIn 1940, Mr. Cloche founded a film society for young talent. It later became France's leading film school, the Institute of Advanced Film Studies.\n\nHe studied at the École des Beaux-Arts, then at the École nationale supérieure des arts décoratifs, before going to the cinema as an actor in 1933. He became artistic director and became director by shooting several short films. He created a production company and made his first feature film in 1937. After the Second World War, he is best known as a writer of films about great figures of Christian charity, hence his reputation in the profession of official Catholic filmmaker.He does not neglect the social subjects, nor even the series B. Maurice Cloche also realizes several documentaries on art: Terre d'amour, Symphonie graphique, Alsace, Franche-Comté, Gothic images. In 1940, in the southern zone, he participated with Paul Legros (general director) and Pierre Gérin (deputy director), at the founding of the artistic and technical center of the young people of the cinema of which he ensures the artistic direction. 2009, Hôtel de Sully, National Gallery of the Jeu de Paume (collective exhibition).\n\nHe died on 20 March 1990, at his home in Bordeaux after a long illness. He was 82 years old and had Parkinson's disease. Source: Wikidata; 01/08/2023", "biography_author": null, "date_of_biography": "2025-05-28T10:40:36.818669+10:00", "external_links": [{"id": 2674, "uri": "https://en.wikipedia.org/wiki/Maurice_Cloche"}], "uuid": "7baafa4e-c27d-46b9-a867-7f769a0e05d5", "source": {"name": "Vernon", "slug": "vernon"}, "source_identifier": "24828", "external_references": [{"id": 11419, "source": {"name": "Wikidata", "slug": "wikidata"}, "source_identifier": "Q957144"}, {"id": 11420, "source": {"name": "VIAF", "slug": "viaf"}, "source_identifier": "69012615"}, {"id": 11421, "source": {"name": "LOC Auth", "slug": "loc-auth"}, "source_identifier": "nr99037954"}, {"id": 11422, "source": {"name": "WorldCat", "slug": "worldcat"}, "source_identifier": "lccn-nr99037954"}], "date_modified": "2025-05-28T10:40:36.818891+10:00"}]}