{"count": 28687, "next": "https://api.acmi.net.au/creators/?page=327", "previous": "https://api.acmi.net.au/creators/?page=325", "results": [{"id": 82347, "name": "Yihewula", "roles_in_work": [{"id": 2650716, "title": "The Season for love = Lien ai chi chie", "work_id": 115758, "role": "cinematographer", "role_id": 32, "is_primary": false}], "also_known_as": "", "date_of_birth": null, "date_of_death": null, "genders": [], "languages": [], "places_of_operation": [], "biography": "", "biography_author": null, "date_of_biography": null, "external_links": [], "uuid": "84a428e6-2c08-4ed1-83ba-27ecd3d90dc8", "source": {"name": "Vernon", "slug": "vernon"}, "source_identifier": "36633", "external_references": [{"id": 43506, "source": {"name": "Wikidata", "slug": "wikidata"}, "source_identifier": "Q121299296"}], "date_modified": "2025-03-05T14:22:43.585402+11:00"}, {"id": 82346, "name": "Wen Xiaoyu", "roles_in_work": [{"id": 2650715, "title": "The Season for love = Lien ai chi chie", "work_id": 115758, "role": "script", "role_id": 962, "is_primary": false}], "also_known_as": "", "date_of_birth": null, "date_of_death": null, "genders": [], "languages": [], "places_of_operation": [], "biography": "", "biography_author": null, "date_of_biography": null, "external_links": [], "uuid": "69ce066e-9b44-4061-a7cc-6225cee8378f", "source": {"name": "Vernon", "slug": "vernon"}, "source_identifier": "36632", "external_references": [], "date_modified": "2025-03-05T14:22:42.996376+11:00"}, {"id": 82345, "name": "Urshana", "roles_in_work": [{"id": 2650714, "title": "The Season for love = Lien ai chi chie", "work_id": 115758, "role": "director", "role_id": 938, "is_primary": true}], "also_known_as": "", "date_of_birth": null, "date_of_death": null, "genders": [], "languages": [], "places_of_operation": [], "biography": "", "biography_author": null, "date_of_biography": null, "external_links": [], "uuid": "a9262b45-0503-47f2-a97f-4a87153e8fe9", "source": {"name": "Vernon", "slug": "vernon"}, "source_identifier": "31357", "external_references": [{"id": 42914, "source": {"name": "Wikidata", "slug": "wikidata"}, "source_identifier": "Q121035615"}], "date_modified": "2025-03-05T14:22:42.402807+11:00"}, {"id": 82344, "name": "Inner Mongolia Film Studio", "roles_in_work": [{"id": 2651019, "title": "Genghis Khan = Cheng Ji Si Khan", "work_id": 115792, "role": "production company", "role_id": 941, "is_primary": true}, {"id": 2650713, "title": "The Season for love = Lien ai chi chie", "work_id": 115758, "role": "production company", "role_id": 941, "is_primary": true}], "also_known_as": "", "date_of_birth": null, "date_of_death": null, "genders": [], "languages": [], "places_of_operation": [], "biography": "", "biography_author": null, "date_of_biography": null, "external_links": [], "uuid": "91cc9c8d-1d22-4fe1-88dd-614eea92bd91", "source": {"name": "Vernon", "slug": "vernon"}, "source_identifier": "30898", "external_references": [{"id": 38884, "source": {"name": "Wikidata", "slug": "wikidata"}, "source_identifier": "Q121078745"}], "date_modified": "2025-03-05T14:25:37.977423+11:00"}, {"id": 82343, "name": "Wang Ye", "roles_in_work": [{"id": 2650712, "title": "The Green mountain of bamboo = Zhu shan qing qing", "work_id": 115757, "role": "cast", "role_id": 33, "is_primary": false}], "also_known_as": "", "date_of_birth": "", "date_of_death": "", "genders": [], "languages": [], "places_of_operation": [], "biography": "", "biography_author": null, "date_of_biography": "2023-05-09T19:58:50.194006+10:00", "external_links": [], "uuid": "fa0abec7-c5fe-4cc0-9ec9-00b56f5636c9", "source": {"name": "Vernon", "slug": "vernon"}, "source_identifier": "36207", "external_references": [{"id": 40734, "source": {"name": "Wikidata", "slug": "wikidata"}, "source_identifier": "Q121299347"}], "date_modified": "2025-03-05T14:22:40.919039+11:00"}, {"id": 82342, "name": "Li Tan", "roles_in_work": [{"id": 2650711, "title": "The Green mountain of bamboo = Zhu shan qing qing", "work_id": 115757, "role": "cast", "role_id": 33, "is_primary": false}], "also_known_as": "", "date_of_birth": "", "date_of_death": "", "genders": [], "languages": [], "places_of_operation": [], "biography": "", "biography_author": null, "date_of_biography": "2023-05-09T19:58:49.954883+10:00", "external_links": [], "uuid": "3227c309-4061-485c-a4ec-3d1306e97aca", "source": {"name": "Vernon", "slug": "vernon"}, "source_identifier": "36206", "external_references": [{"id": 37515, "source": {"name": "Wikidata", "slug": "wikidata"}, "source_identifier": "Q121270965"}], "date_modified": "2025-03-05T14:22:40.343191+11:00"}, {"id": 82341, "name": "Huang Ailing", "roles_in_work": [{"id": 2650710, "title": "The Green mountain of bamboo = Zhu shan qing qing", "work_id": 115757, "role": "cast", "role_id": 33, "is_primary": false}], "also_known_as": "", "date_of_birth": "", "date_of_death": "", "genders": [], "languages": [], "places_of_operation": [], "biography": "", "biography_author": null, "date_of_biography": "2023-05-09T19:58:49.668625+10:00", "external_links": [], "uuid": "a1454be9-aadc-4b4e-9da2-b84a356d12e8", "source": {"name": "Vernon", "slug": "vernon"}, "source_identifier": "36205", "external_references": [{"id": 32289, "source": {"name": "Wikidata", "slug": "wikidata"}, "source_identifier": "Q121143578"}], "date_modified": "2025-03-05T14:22:39.766121+11:00"}, {"id": 82340, "name": "Zhu Er", "roles_in_work": [{"id": 2650709, "title": "The Green mountain of bamboo = Zhu shan qing qing", "work_id": 115757, "role": "editor", "role_id": 918, "is_primary": true}], "also_known_as": "", "date_of_birth": "", "date_of_death": "", "genders": [], "languages": [], "places_of_operation": [], "biography": "", "biography_author": null, "date_of_biography": "2023-05-09T19:58:49.406607+10:00", "external_links": [], "uuid": "16a4872d-e24f-4b9e-a7f4-efcfbc8d641c", "source": {"name": "Vernon", "slug": "vernon"}, "source_identifier": "36204", "external_references": [{"id": 39308, "source": {"name": "Wikidata", "slug": "wikidata"}, "source_identifier": "Q121299208"}], "date_modified": "2025-03-05T14:22:39.185718+11:00"}, {"id": 82339, "name": "Wang Kekuan", "roles_in_work": [{"id": 2650708, "title": "The Green mountain of bamboo = Zhu shan qing qing", "work_id": 115757, "role": "cinematographer", "role_id": 32, "is_primary": false}], "also_known_as": "", "date_of_birth": "", "date_of_death": "", "genders": [], "languages": [], "places_of_operation": [], "biography": "", "biography_author": null, "date_of_biography": "2023-05-09T19:58:49.164296+10:00", "external_links": [], "uuid": "998a48a5-6d2f-4ab0-9ffd-f815d601f734", "source": {"name": "Vernon", "slug": "vernon"}, "source_identifier": "36203", "external_references": [{"id": 36233, "source": {"name": "Wikidata", "slug": "wikidata"}, "source_identifier": "Q121337692"}], "date_modified": "2025-03-05T14:22:38.602939+11:00"}, {"id": 82338, "name": "Pan Xianghe", "roles_in_work": [{"id": 2650707, "title": "The Green mountain of bamboo = Zhu shan qing qing", "work_id": 115757, "role": "script", "role_id": 962, "is_primary": false}], "also_known_as": "", "date_of_birth": "", "date_of_death": "", "genders": [], "languages": [], "places_of_operation": [], "biography": "", "biography_author": null, "date_of_biography": "2023-05-09T19:58:48.918628+10:00", "external_links": [], "uuid": "0d519dde-b245-4323-ac4d-98f2a72a9675", "source": {"name": "Vernon", "slug": "vernon"}, "source_identifier": "36202", "external_references": [], "date_modified": "2025-03-05T14:22:38.028490+11:00"}]}