{"count": 28687, "next": "https://api.acmi.net.au/creators/?page=1284", "previous": "https://api.acmi.net.au/creators/?page=1282", "results": [{"id": 39110, "name": "Compass Films (UK)", "roles_in_work": [{"id": 2753597, "title": "Kites: a collage of kites and kite flyers", "work_id": 98843, "role": "production company", "role_id": 941, "is_primary": true}], "also_known_as": "", "date_of_birth": null, "date_of_death": null, "genders": [], "languages": [], "places_of_operation": [], "biography": "", "biography_author": null, "date_of_biography": null, "external_links": [], "uuid": "0e86b074-7e86-4787-b98c-97270ce96d5a", "source": {"name": "Vernon", "slug": "vernon"}, "source_identifier": "6970", "external_references": [], "date_modified": "2025-03-13T01:27:26.001255+11:00"}, {"id": 39109, "name": "Nancy Creedman", "roles_in_work": [{"id": 2753596, "title": "Indian crafts: Hopi, Navajo and Iroquois", "work_id": 98842, "role": "director", "role_id": 938, "is_primary": true}], "also_known_as": "", "date_of_birth": null, "date_of_death": null, "genders": [], "languages": [], "places_of_operation": [], "biography": "", "biography_author": null, "date_of_biography": null, "external_links": [], "uuid": "d5bc9d35-8feb-44b3-8148-14fb6dba34ae", "source": {"name": "Vernon", "slug": "vernon"}, "source_identifier": "25601", "external_references": [], "date_modified": "2025-03-13T01:27:25.176707+11:00"}, {"id": 39107, "name": "John Vandenbelt", "roles_in_work": [{"id": 2753581, "title": "Cockatoos at Three Springs", "work_id": 98835, "role": "producer", "role_id": 1089, "is_primary": true}], "also_known_as": "", "date_of_birth": null, "date_of_death": null, "genders": [], "languages": [], "places_of_operation": [], "biography": "", "biography_author": null, "date_of_biography": null, "external_links": [], "uuid": "2c7cc9f3-0763-4c19-83be-142ab993c2b8", "source": {"name": "Vernon", "slug": "vernon"}, "source_identifier": "22564", "external_references": [], "date_modified": "2025-03-13T01:27:16.575601+11:00"}, {"id": 39104, "name": "Estzer Nordin", "roles_in_work": [{"id": 2753569, "title": "Jonathan Miller directs", "work_id": 98828, "role": "producer", "role_id": 1089, "is_primary": true}], "also_known_as": "", "date_of_birth": null, "date_of_death": null, "genders": [], "languages": [], "places_of_operation": [], "biography": "", "biography_author": null, "date_of_biography": null, "external_links": [], "uuid": "c82b2846-cf1d-43e1-b300-2629cb949a04", "source": {"name": "Vernon", "slug": "vernon"}, "source_identifier": "18893", "external_references": [], "date_modified": "2025-03-13T01:27:09.536788+11:00"}, {"id": 39103, "name": "Mike Harding", "roles_in_work": [{"id": 2753562, "title": "Light flight", "work_id": 98825, "role": "producer", "role_id": 1089, "is_primary": true}], "also_known_as": "", "date_of_birth": null, "date_of_death": null, "genders": [], "languages": [], "places_of_operation": [], "biography": "", "biography_author": null, "date_of_biography": null, "external_links": [], "uuid": "bffebbb3-67ae-4683-9fd5-6c6e0dba6e7f", "source": {"name": "Vernon", "slug": "vernon"}, "source_identifier": "25361", "external_references": [], "date_modified": "2025-03-13T01:27:04.559884+11:00"}, {"id": 39102, "name": "Renee Ross", "roles_in_work": [{"id": 2753551, "title": "Peer pressure: learning to be yourself", "work_id": 98821, "role": "director", "role_id": 938, "is_primary": true}], "also_known_as": "", "date_of_birth": null, "date_of_death": null, "genders": [], "languages": [], "places_of_operation": [], "biography": "", "biography_author": null, "date_of_biography": null, "external_links": [], "uuid": "c249098c-68d4-441b-a0d9-daba759e9f73", "source": {"name": "Vernon", "slug": "vernon"}, "source_identifier": "27269", "external_references": [], "date_modified": "2025-03-13T01:26:56.800654+11:00"}, {"id": 39101, "name": "Soundsense Film Productions", "roles_in_work": [{"id": 2753546, "title": "Ocean challengers", "work_id": 98820, "role": "production company", "role_id": 941, "is_primary": true}], "also_known_as": "", "date_of_birth": null, "date_of_death": null, "genders": [], "languages": [], "places_of_operation": [], "biography": "", "biography_author": null, "date_of_biography": null, "external_links": [], "uuid": "7590d0b9-23b0-49d0-b653-0a63c9859bd3", "source": {"name": "Vernon", "slug": "vernon"}, "source_identifier": "12765", "external_references": [], "date_modified": "2025-03-13T01:26:54.593529+11:00"}, {"id": 39100, "name": "Tony Schmitz", "roles_in_work": [{"id": 2753525, "title": "That's stealing", "work_id": 98809, "role": "director", "role_id": 938, "is_primary": true}], "also_known_as": "", "date_of_birth": null, "date_of_death": null, "genders": [], "languages": [], "places_of_operation": [], "biography": "", "biography_author": null, "date_of_biography": null, "external_links": [], "uuid": "c17fa49e-9857-48cc-ae62-b0f7e7b7ac30", "source": {"name": "Vernon", "slug": "vernon"}, "source_identifier": "29900", "external_references": [], "date_modified": "2025-03-13T01:26:39.410026+11:00"}, {"id": 39099, "name": "Sandra Schieck", "roles_in_work": [{"id": 2753524, "title": "That's stealing", "work_id": 98809, "role": "producer", "role_id": 1089, "is_primary": true}], "also_known_as": "", "date_of_birth": null, "date_of_death": null, "genders": [], "languages": [], "places_of_operation": [], "biography": "", "biography_author": null, "date_of_biography": null, "external_links": [], "uuid": "da3c0ad8-5efa-4235-947d-5f8bd52fa7eb", "source": {"name": "Vernon", "slug": "vernon"}, "source_identifier": "28539", "external_references": [], "date_modified": "2025-03-13T01:26:38.804582+11:00"}, {"id": 39097, "name": "Janice Kay", "roles_in_work": [{"id": 2753514, "title": "Seeing by numbers", "work_id": 98805, "role": "director", "role_id": 938, "is_primary": true}], "also_known_as": "", "date_of_birth": null, "date_of_death": null, "genders": [], "languages": [], "places_of_operation": [], "biography": "", "biography_author": null, "date_of_biography": null, "external_links": [], "uuid": "fc5d92b1-8e2f-457e-a0a4-6b41f2bdf39f", "source": {"name": "Vernon", "slug": "vernon"}, "source_identifier": "21457", "external_references": [], "date_modified": "2025-03-13T01:26:31.758501+11:00"}]}