{"count": 28687, "next": "https://api.acmi.net.au/creators/?page=2", "previous": null, "results": [{"id": 89207, "name": "Tom Bowker", "roles_in_work": [{"id": 3112587, "title": "Frog Detective: The Entire Mystery", "work_id": 125575, "role": "developer", "role_id": 658, "is_primary": true}], "also_known_as": "", "date_of_birth": null, "date_of_death": null, "genders": [], "languages": [], "places_of_operation": [], "biography": "", "biography_author": null, "date_of_biography": null, "external_links": [], "uuid": "fe2a974f-5586-45c2-ac39-7f07caca7171", "source": {"name": "Vernon", "slug": "vernon"}, "source_identifier": "42050", "external_references": [], "date_modified": "2026-06-17T09:32:49.225719+10:00"}, {"id": 89206, "name": "Grace Lindsay Bruxner", "roles_in_work": [{"id": 3112586, "title": "Frog Detective: The Entire Mystery", "work_id": 125575, "role": "developer", "role_id": 658, "is_primary": true}], "also_known_as": "", "date_of_birth": null, "date_of_death": null, "genders": [], "languages": [], "places_of_operation": [], "biography": "", "biography_author": null, "date_of_biography": null, "external_links": [], "uuid": "f49f425e-c7db-481d-a048-0f0d884292e8", "source": {"name": "Vernon", "slug": "vernon"}, "source_identifier": "41020", "external_references": [], "date_modified": "2026-06-17T09:32:48.523484+10:00"}, {"id": 89205, "name": "Worm Club", "roles_in_work": [{"id": 3112625, "title": "Frog Detective 2: The Case of the Invisible Wizard", "work_id": 125579, "role": "developer", "role_id": 658, "is_primary": true}, {"id": 3112585, "title": "Frog Detective: The Entire Mystery", "work_id": 125575, "role": "developer", "role_id": 658, "is_primary": true}, {"id": 3112589, "title": "Frog Detective 1: The Haunted Island", "work_id": 125576, "role": "developer", "role_id": 658, "is_primary": true}, {"id": 3112595, "title": "Frog Detective 3: Corruption at Cowboy County", "work_id": 125569, "role": "developer", "role_id": 658, "is_primary": true}], "also_known_as": "", "date_of_birth": null, "date_of_death": null, "genders": [], "languages": [], "places_of_operation": [], "biography": "Australian videogame developing studio.", "biography_author": null, "date_of_biography": "2026-06-19T15:04:21.071634+10:00", "external_links": [], "uuid": "061d7343-e092-4e84-8b4e-8cdf86b16a07", "source": {"name": "Vernon", "slug": "vernon"}, "source_identifier": "42116", "external_references": [], "date_modified": "2026-06-19T15:04:21.071938+10:00"}, {"id": 89204, "name": "Faith", "roles_in_work": [{"id": 3112151, "title": "Bieberchella", "work_id": 125522, "role": "creator", "role_id": 968, "is_primary": true}], "also_known_as": "", "date_of_birth": null, "date_of_death": null, "genders": [], "languages": [], "places_of_operation": [], "biography": "", "biography_author": null, "date_of_biography": null, "external_links": [], "uuid": "9dcfa8a6-d3ee-4053-bb25-ffc68e01e90a", "source": {"name": "Vernon", "slug": "vernon"}, "source_identifier": "42077", "external_references": [], "date_modified": "2026-04-24T09:57:15.800748+10:00"}, {"id": 89201, "name": "Doug Lucas", "roles_in_work": [{"id": 3110505, "title": "XOS: A Cry For Help", "work_id": 78738, "role": "cast", "role_id": 33, "is_primary": false}], "also_known_as": "", "date_of_birth": null, "date_of_death": null, "genders": [], "languages": [], "places_of_operation": [], "biography": "", "biography_author": null, "date_of_biography": null, "external_links": [], "uuid": "530168cd-8968-4c90-9a78-74f57ffde370", "source": {"name": "Vernon", "slug": "vernon"}, "source_identifier": "42030", "external_references": [], "date_modified": "2026-03-12T17:18:01.697726+11:00"}, {"id": 89200, "name": "Lyrics_dropzobne", "roles_in_work": [], "also_known_as": "", "date_of_birth": null, "date_of_death": null, "genders": [], "languages": [], "places_of_operation": [], "biography": "", "biography_author": null, "date_of_biography": null, "external_links": [], "uuid": "dfa9087b-9b01-4616-b496-1a5fbee751ba", "source": {"name": "Vernon", "slug": "vernon"}, "source_identifier": "41864", "external_references": [], "date_modified": "2025-12-17T14:37:21.183182+11:00"}, {"id": 89199, "name": "Alison Lester", "roles_in_work": [{"id": 3110256, "title": "Magic Beach", "work_id": 125517, "role": "author", "role_id": 943, "is_primary": true}], "also_known_as": "", "date_of_birth": null, "date_of_death": null, "genders": [], "languages": [], "places_of_operation": [], "biography": "", "biography_author": null, "date_of_biography": null, "external_links": [], "uuid": "7fd2bb37-b293-46b1-9e5a-847e92c47838", "source": {"name": "Vernon", "slug": "vernon"}, "source_identifier": "41863", "external_references": [], "date_modified": "2025-12-15T10:21:22.583821+11:00"}, {"id": 89198, "name": "Kathy Sarpi", "roles_in_work": [{"id": 3110255, "title": "Magic Beach", "work_id": 125517, "role": "animator", "role_id": 497, "is_primary": false}], "also_known_as": "", "date_of_birth": null, "date_of_death": null, "genders": [], "languages": [], "places_of_operation": [], "biography": "", "biography_author": null, "date_of_biography": null, "external_links": [], "uuid": "2aba0987-cdec-4cd8-b323-365745d2a03d", "source": {"name": "Vernon", "slug": "vernon"}, "source_identifier": "41862", "external_references": [], "date_modified": "2025-12-15T10:21:21.876781+11:00"}, {"id": 89197, "name": "Corleve", "roles_in_work": [{"id": 3110037, "title": "GRAPHIC: Ash Barty during womens singles fourth round match, Australian Open 2022", "work_id": 125481, "role": "photographer", "role_id": 440, "is_primary": false}], "also_known_as": "", "date_of_birth": "2007", "date_of_death": null, "genders": [], "languages": [], "places_of_operation": [], "biography": "", "biography_author": null, "date_of_biography": null, "external_links": [], "uuid": "4196c831-b33b-490d-a615-10fb7dfa28af", "source": {"name": "Vernon", "slug": "vernon"}, "source_identifier": "41706", "external_references": [], "date_modified": "2025-12-02T14:35:39.417635+11:00"}, {"id": 89196, "name": "Andy Astfalck", "roles_in_work": [{"id": 3110036, "title": "GRAPHIC: Rafael Nadal during mens singles semi final match, Australian Open 2022", "work_id": 125480, "role": "photographer", "role_id": 440, "is_primary": false}], "also_known_as": "", "date_of_birth": null, "date_of_death": null, "genders": [], "languages": [], "places_of_operation": [], "biography": "", "biography_author": null, "date_of_biography": null, "external_links": [], "uuid": "dea56b2e-abaa-495e-b0e4-1754e58a3367", "source": {"name": "Vernon", "slug": "vernon"}, "source_identifier": "41705", "external_references": [], "date_modified": "2025-12-02T14:35:38.320954+11:00"}]}