{"count": 28687, "next": "https://api.acmi.net.au/creators/?page=2404", "previous": "https://api.acmi.net.au/creators/?page=2402", "results": [{"id": 15124, "name": "University of California. Dept. of Theatre Arts. Motion Picture Division", "roles_in_work": [{"id": 2714159, "title": "Four ways to drama (TEFC)", "work_id": 67772, "role": "production company", "role_id": 941, "is_primary": true}, {"id": 2469008, "title": "Three views from an ivory tower", "work_id": 88701, "role": "production company", "role_id": 941, "is_primary": true}, {"id": 2468982, "title": "Three American ballads", "work_id": 73766, "role": "production company", "role_id": 941, "is_primary": true}, {"id": 857310, "title": "Projecting motion pictures", "work_id": 71908, "role": "production company", "role_id": 941, "is_primary": true}], "also_known_as": "", "date_of_birth": "", "date_of_death": "", "genders": [], "languages": [], "places_of_operation": [], "biography": "", "biography_author": null, "date_of_biography": "2023-08-14T11:51:31.585941+10:00", "external_links": [], "uuid": "e3d5d440-a5da-4817-bb98-0eb63311d718", "source": {"name": "Vernon", "slug": "vernon"}, "source_identifier": "10661", "external_references": [], "date_modified": "2025-03-12T01:01:54.469379+11:00"}, {"id": 15123, "name": "John Nicholas", "roles_in_work": [{"id": 2714154, "title": "4 rooms: earth view", "work_id": 67769, "role": "director", "role_id": 938, "is_primary": true}, {"id": 853732, "title": "It's your heart", "work_id": 69171, "role": "director", "role_id": 938, "is_primary": true}, {"id": 924427, "title": "NASA 3: the American space odyssey", "work_id": 93669, "role": "director", "role_id": 938, "is_primary": true}], "also_known_as": "", "date_of_birth": "", "date_of_death": "", "genders": [], "languages": [], "places_of_operation": [], "biography": "", "biography_author": null, "date_of_biography": "2023-08-11T12:46:37.534939+10:00", "external_links": [], "uuid": "98dd14fd-40d0-4ae0-94de-dd52b442af69", "source": {"name": "Vernon", "slug": "vernon"}, "source_identifier": "22439", "external_references": [], "date_modified": "2025-03-12T01:01:50.336966+11:00"}, {"id": 15122, "name": "Hans Christensen", "roles_in_work": [{"id": 2714146, "title": "Four in the crowd", "work_id": 67765, "role": "director", "role_id": 938, "is_primary": true}], "also_known_as": "", "date_of_birth": null, "date_of_death": null, "genders": [], "languages": [], "places_of_operation": [], "biography": "", "biography_author": null, "date_of_biography": null, "external_links": [], "uuid": "a5793fb9-5641-4d7d-9e0d-c6b0697e592a", "source": {"name": "Vernon", "slug": "vernon"}, "source_identifier": "20227", "external_references": [], "date_modified": "2025-03-12T01:01:44.301809+11:00"}, {"id": 15121, "name": "Fairey Aviation", "roles_in_work": [{"id": 2714139, "title": "Four figure flight", "work_id": 67762, "role": "production company", "role_id": 941, "is_primary": true}], "also_known_as": "", "date_of_birth": "", "date_of_death": "", "genders": [], "languages": [], "places_of_operation": [], "biography": "", "biography_author": null, "date_of_biography": "2023-08-11T16:45:57.800147+10:00", "external_links": [], "uuid": "09030322-3f8c-4852-ad2b-88143e1c6196", "source": {"name": "Vernon", "slug": "vernon"}, "source_identifier": "8085", "external_references": [], "date_modified": "2025-03-12T01:01:39.444850+11:00"}, {"id": 15118, "name": "Centre for Mass Communication, Columbia University", "roles_in_work": [{"id": 2714123, "title": "The Fountains of Bernini", "work_id": 67756, "role": "production company", "role_id": 941, "is_primary": true}, {"id": 774349, "title": "Antonio Gaudi", "work_id": 81135, "role": "production company", "role_id": 941, "is_primary": true}], "also_known_as": "", "date_of_birth": "", "date_of_death": "", "genders": [], "languages": [], "places_of_operation": [], "biography": "", "biography_author": null, "date_of_biography": "2023-05-09T19:52:58.447088+10:00", "external_links": [], "uuid": "a89f4baa-2b1f-478c-8bab-b5a4581e959f", "source": {"name": "Vernon", "slug": "vernon"}, "source_identifier": "6444", "external_references": [{"id": 51375, "source": {"name": "Wikidata", "slug": "wikidata"}, "source_identifier": "Q121358022"}], "date_modified": "2025-03-12T01:01:27.742929+11:00"}, {"id": 15117, "name": "Jose Quisand", "roles_in_work": [{"id": 2714122, "title": "The Fountain of Jabalia", "work_id": 67755, "role": "producer", "role_id": 1089, "is_primary": true}], "also_known_as": "", "date_of_birth": null, "date_of_death": null, "genders": [], "languages": [], "places_of_operation": [], "biography": "", "biography_author": null, "date_of_biography": null, "external_links": [], "uuid": "dee9438a-932a-413c-9ccf-51b2a0609300", "source": {"name": "Vernon", "slug": "vernon"}, "source_identifier": "22699", "external_references": [], "date_modified": "2025-03-12T01:01:26.763253+11:00"}, {"id": 15116, "name": "Gary Cunningham", "roles_in_work": [{"id": 2768947, "title": "Forum of protest", "work_id": 67752, "role": "director", "role_id": 938, "is_primary": true}], "also_known_as": "", "date_of_birth": "", "date_of_death": "", "genders": [], "languages": [], "places_of_operation": [], "biography": "", "biography_author": null, "date_of_biography": "2023-08-11T16:45:36.727811+10:00", "external_links": [], "uuid": "295f587a-4bb4-4667-b605-3934be94e0e4", "source": {"name": "Vernon", "slug": "vernon"}, "source_identifier": "19392", "external_references": [], "date_modified": "2025-03-14T18:11:54.398275+11:00"}, {"id": 15115, "name": "Richard Linning", "roles_in_work": [{"id": 2768946, "title": "Forum of protest", "work_id": 67752, "role": "producer", "role_id": 1089, "is_primary": true}], "also_known_as": "", "date_of_birth": "", "date_of_death": "", "genders": [], "languages": [], "places_of_operation": [], "biography": "", "biography_author": null, "date_of_biography": "2023-08-11T16:45:36.091230+10:00", "external_links": [], "uuid": "db219d34-a126-4415-a33b-9d0a53bde0c9", "source": {"name": "Vernon", "slug": "vernon"}, "source_identifier": "27449", "external_references": [], "date_modified": "2025-03-14T18:11:53.830197+11:00"}, {"id": 15114, "name": "HSV7 Melbourne", "roles_in_work": [{"id": 2768944, "title": "Forum of protest", "work_id": 67752, "role": "production company", "role_id": 941, "is_primary": true}], "also_known_as": "", "date_of_birth": "", "date_of_death": "", "genders": [], "languages": [], "places_of_operation": [], "biography": "", "biography_author": null, "date_of_biography": "2023-08-11T16:45:35.468553+10:00", "external_links": [], "uuid": "ca22f8af-df95-4f64-a6b6-3ac59ccf1293", "source": {"name": "Vernon", "slug": "vernon"}, "source_identifier": "9170", "external_references": [], "date_modified": "2025-03-14T18:11:53.258211+11:00"}, {"id": 15113, "name": "Stig Hammar", "roles_in_work": [{"id": 2714113, "title": "The Fortune in the forests", "work_id": 67751, "role": "director", "role_id": 938, "is_primary": true}], "also_known_as": "", "date_of_birth": "", "date_of_death": "", "genders": [], "languages": [], "places_of_operation": [], "biography": "", "biography_author": null, "date_of_biography": "2023-08-14T11:12:10.885387+10:00", "external_links": [], "uuid": "9eba4e31-d2dd-4da4-a820-43dd027e88a6", "source": {"name": "Vernon", "slug": "vernon"}, "source_identifier": "29233", "external_references": [], "date_modified": "2025-03-12T01:01:20.192609+11:00"}]}