{"count": 28687, "next": "https://api.acmi.net.au/creators/?page=2615", "previous": "https://api.acmi.net.au/creators/?page=2613", "results": [{"id": 12487, "name": "Associated World", "roles_in_work": [{"id": 2677315, "title": "Another day of healing", "work_id": 64805, "role": "production company", "role_id": 941, "is_primary": true}], "also_known_as": "", "date_of_birth": "", "date_of_death": "", "genders": [], "languages": [], "places_of_operation": [], "biography": "", "biography_author": null, "date_of_biography": "2023-08-11T14:07:42.072903+10:00", "external_links": [], "uuid": "995d69eb-b99d-4699-a5cc-3d6ff97b9ec5", "source": {"name": "Vernon", "slug": "vernon"}, "source_identifier": "5473", "external_references": [], "date_modified": "2025-03-06T23:16:58.974512+11:00"}, {"id": 12486, "name": "Jennie Blackwood", "roles_in_work": [{"id": 2677313, "title": "Another day", "work_id": 64804, "role": "director", "role_id": 938, "is_primary": true}, {"id": 2677373, "title": "Anzac", "work_id": 64832, "role": "director", "role_id": 938, "is_primary": true}, {"id": 2392724, "title": "Telephones: using and abusing", "work_id": 89065, "role": "director", "role_id": 938, "is_primary": true}, {"id": 2392731, "title": "Kwinana enterprise", "work_id": 90112, "role": "director", "role_id": 938, "is_primary": true}, {"id": 2392161, "title": "Sweet are the fruits", "work_id": 73416, "role": "director", "role_id": 938, "is_primary": true}, {"id": 2392077, "title": "Sea road", "work_id": 72571, "role": "director", "role_id": 938, "is_primary": true}, {"id": 1903650, "title": "You are not alone", "work_id": 75002, "role": "director", "role_id": 938, "is_primary": true}, {"id": 1903509, "title": "To nurse is to care", "work_id": 73881, "role": "director", "role_id": 938, "is_primary": true}, {"id": 3081332, "title": "Sir John Monash", "work_id": 72853, "role": "director", "role_id": 938, "is_primary": true}, {"id": 3093066, "title": "Port of Melbourne", "work_id": 71710, "role": "director", "role_id": 938, "is_primary": true}, {"id": 895740, "title": "Search for security", "work_id": 72589, "role": "co-producer", "role_id": 915, "is_primary": true}], "also_known_as": "", "date_of_birth": "", "date_of_death": "", "genders": [], "languages": [], "places_of_operation": [], "biography": "Jennie Boddington (née Blackwood) began her career with the Commonwealth Film Unit as a cutting room assistant in the early 1950s, where she met Joan Long. After a stint creating training films for the Victorian Post Office film unit and at the ABC – where she worked on the Olympic Games coverage in 1956 – she established an independent film production company with her husband, cinematographer Adrian Boddington. With an interest in socially conscious themes, Zanthus Films created documentaries commissioned by government departments and the Anti-Cancer Council, including Three in a Million (1959), Port of Melbourne (1961) and You Are Not Alone (1961). After the death of her husband in 1970, Boddington retired from film production and in 1972 was appointed the first full-time curator of photography at the National Gallery of Victoria, where she gave exhibitions to leading women artists Micky Allan, Ruth Maddison and Carol Jerrems.", "biography_author": null, "date_of_biography": "2025-03-31T22:36:05.551177+11:00", "external_links": [], "uuid": "364f4aca-fcd1-4aa0-8612-054534a6d576", "source": {"name": "Vernon", "slug": "vernon"}, "source_identifier": "21695", "external_references": [{"id": 36430, "source": {"name": "Wikidata", "slug": "wikidata"}, "source_identifier": "Q121057961"}], "date_modified": "2025-03-31T22:36:05.551491+11:00"}, {"id": 12485, "name": "Zanthus Films", "roles_in_work": [{"id": 895738, "title": "Search for security", "work_id": 72589, "role": "production company", "role_id": 941, "is_primary": true}, {"id": 1903649, "title": "You are not alone", "work_id": 75002, "role": "production company", "role_id": 941, "is_primary": true}, {"id": 3081324, "title": "Sir John Monash", "work_id": 72853, "role": "production company", "role_id": 941, "is_primary": true}, {"id": 3093064, "title": "Port of Melbourne", "work_id": 71710, "role": "production company", "role_id": 941, "is_primary": true}, {"id": 2644933, "title": "Geelong's m'name", "work_id": 67975, "role": "production company", "role_id": 941, "is_primary": true}, {"id": 2644161, "title": "Birth of a monster", "work_id": 65456, "role": "production company", "role_id": 941, "is_primary": true}, {"id": 2677371, "title": "Anzac", "work_id": 64832, "role": "production company", "role_id": 941, "is_primary": true}, {"id": 2677312, "title": "Another day", "work_id": 64804, "role": "production company", "role_id": 941, "is_primary": true}, {"id": 862278, "title": "The Little theme", "work_id": 76165, "role": "production company", "role_id": 941, "is_primary": true}, {"id": 2392160, "title": "Sweet are the fruits", "work_id": 73416, "role": "production company", "role_id": 941, "is_primary": true}, {"id": 1903508, "title": "To nurse is to care", "work_id": 73881, "role": "production company", "role_id": 941, "is_primary": true}, {"id": 2392076, "title": "Sea road", "work_id": 72571, "role": "production company", "role_id": 941, "is_primary": true}, {"id": 2072717, "title": "A Place Called Mooroopna", "work_id": 89508, "role": "production company", "role_id": 941, "is_primary": true}, {"id": 2392729, "title": "Kwinana enterprise", "work_id": 90112, "role": "production company", "role_id": 941, "is_primary": true}, {"id": 876483, "title": "David Kennedy [ALP Member for Bendigo]", "work_id": 90107, "role": "production company", "role_id": 941, "is_primary": true}], "also_known_as": "", "date_of_birth": "", "date_of_death": "", "genders": [], "languages": [], "places_of_operation": [], "biography": "", "biography_author": null, "date_of_biography": "2023-08-09T04:00:03.727994+10:00", "external_links": [], "uuid": "a685cd2e-d9dc-4d77-a9f1-98ec84cb4ee0", "source": {"name": "Vernon", "slug": "vernon"}, "source_identifier": "3902", "external_references": [{"id": 33456, "source": {"name": "Wikidata", "slug": "wikidata"}, "source_identifier": "Q121035774"}], "date_modified": "2025-03-31T22:36:04.338542+11:00"}, {"id": 12484, "name": "John Waterhouse", "roles_in_work": [{"id": 2677311, "title": "Another case of poisoning", "work_id": 64803, "role": "director", "role_id": 938, "is_primary": true}], "also_known_as": "", "date_of_birth": null, "date_of_death": null, "genders": [], "languages": [], "places_of_operation": [], "biography": "", "biography_author": null, "date_of_biography": null, "external_links": [], "uuid": "1f78ddba-813c-4af8-8888-ff5ff6db055f", "source": {"name": "Vernon", "slug": "vernon"}, "source_identifier": "22575", "external_references": [], "date_modified": "2025-03-06T23:16:49.082993+11:00"}, {"id": 12483, "name": "Richard Massingham", "roles_in_work": [{"id": 857075, "title": "Pool of contentment", "work_id": 71701, "role": "director", "role_id": 938, "is_primary": true}, {"id": 753790, "title": "Some like it rough", "work_id": 72991, "role": "director", "role_id": 938, "is_primary": true}, {"id": 2644257, "title": "Cambridge", "work_id": 65731, "role": "director", "role_id": 938, "is_primary": true}, {"id": 745133, "title": "Introducing the new worker", "work_id": 69036, "role": "director", "role_id": 938, "is_primary": true}, {"id": 2124860, "title": "Brief city: the story of London's festival buildings", "work_id": 88388, "role": "producer", "role_id": 1089, "is_primary": true}, {"id": 2677310, "title": "Another case of poisoning", "work_id": 64803, "role": "producer", "role_id": 1089, "is_primary": true}], "also_known_as": "", "date_of_birth": "31 JAN 1898", "date_of_death": "01 APR 1953", "genders": [{"id": 9, "name": "Male", "slug": "male"}], "languages": [{"id": 1, "name": "English", "slug": "english"}], "places_of_operation": [{"id": 10, "name": "United Kingdom", "slug": "united-kingdom"}], "biography": "Richard Massingham (31 January 1898 in Sleaford, Lincolnshire – 1 April 1953 in Biddenden, Kent) was a British medical doctor who is principally known for starring in public information films made in the 1940s and early 1950s. Source: Wikidata; 01/08/2023", "biography_author": null, "date_of_biography": "2025-03-06T23:16:48.498124+11:00", "external_links": [{"id": 4985, "uri": "https://en.wikipedia.org/wiki/Richard_Massingham"}], "uuid": "db788c2e-3d1c-4c48-8b4f-e115de7f7c67", "source": {"name": "Vernon", "slug": "vernon"}, "source_identifier": "27460", "external_references": [{"id": 26691, "source": {"name": "Wikidata", "slug": "wikidata"}, "source_identifier": "Q7327685"}, {"id": 31075, "source": {"name": "VIAF", "slug": "viaf"}, "source_identifier": "30978606"}, {"id": 31076, "source": {"name": "LOC Auth", "slug": "loc-auth"}, "source_identifier": "n85201991"}, {"id": 31077, "source": {"name": "WorldCat", "slug": "worldcat"}, "source_identifier": "lccn-n85201991"}], "date_modified": "2025-03-06T23:16:48.498357+11:00"}, {"id": 12482, "name": "Great Britain. Ministry of Health", "roles_in_work": [{"id": 2644173, "title": "Blood is life", "work_id": 65499, "role": "production company", "role_id": 941, "is_primary": true}, {"id": 2415087, "title": "Lifting patients. Part 2. In the home", "work_id": 69720, "role": "production company", "role_id": 941, "is_primary": true}, {"id": 858539, "title": "Smoking and you", "work_id": 72923, "role": "production company", "role_id": 941, "is_primary": true}, {"id": 2677309, "title": "Another case of poisoning", "work_id": 64803, "role": "production company", "role_id": 941, "is_primary": true}, {"id": 859482, "title": "There's a way", "work_id": 73667, "role": "sponsor", "role_id": 625, "is_primary": false}], "also_known_as": "", "date_of_birth": "", "date_of_death": "", "genders": [], "languages": [], "places_of_operation": [], "biography": "", "biography_author": null, "date_of_biography": "2023-08-11T19:30:17.087512+10:00", "external_links": [], "uuid": "40136aaa-0fa3-471a-bc02-82bdfdf60896", "source": {"name": "Vernon", "slug": "vernon"}, "source_identifier": "10559", "external_references": [], "date_modified": "2025-03-06T23:16:47.909645+11:00"}, {"id": 12481, "name": "Vladimir Schneidehow", "roles_in_work": [{"id": 2677305, "title": "Annals of life", "work_id": 64800, "role": "director", "role_id": 938, "is_primary": true}], "also_known_as": "", "date_of_birth": "", "date_of_death": "", "genders": [], "languages": [], "places_of_operation": [], "biography": "", "biography_author": null, "date_of_biography": "2023-08-11T14:07:20.982215+10:00", "external_links": [], "uuid": "8cda75bb-f3f0-418a-8f70-411e4efc6141", "source": {"name": "Vernon", "slug": "vernon"}, "source_identifier": "30174", "external_references": [], "date_modified": "2025-03-06T23:16:44.645192+11:00"}, {"id": 12480, "name": "Sovexportfilm", "roles_in_work": [{"id": 1984918, "title": "Asya's Happiness", "work_id": 80902, "role": "production company", "role_id": 941, "is_primary": true}, {"id": 2677304, "title": "Annals of life", "work_id": 64800, "role": "production company", "role_id": 941, "is_primary": true}], "also_known_as": "", "date_of_birth": "", "date_of_death": "", "genders": [], "languages": [], "places_of_operation": [], "biography": "", "biography_author": null, "date_of_biography": "2023-08-11T14:07:20.354878+10:00", "external_links": [], "uuid": "4bfae828-7e4e-42fc-9cff-417b9680d060", "source": {"name": "Vernon", "slug": "vernon"}, "source_identifier": "12810", "external_references": [], "date_modified": "2025-03-06T23:16:44.053238+11:00"}, {"id": 12479, "name": "Lawrie Lawler", "roles_in_work": [{"id": 1819593, "title": "Presentation techniques. No. 2: presenter and studio", "work_id": 71798, "role": "producer", "role_id": 1089, "is_primary": true}, {"id": 1813384, "title": "The Use of television in the classroom", "work_id": 74248, "role": "producer", "role_id": 1089, "is_primary": true}, {"id": 1807127, "title": "Sets: construction and display", "work_id": 72686, "role": "producer", "role_id": 1089, "is_primary": true}, {"id": 747323, "title": "Make-up", "work_id": 70020, "role": "producer/director", "role_id": 31, "is_primary": true}, {"id": 858886, "title": "Still pictures on television", "work_id": 73199, "role": "producer/director", "role_id": 31, "is_primary": true}, {"id": 860968, "title": "Words and labels", "work_id": 74877, "role": "producer/director", "role_id": 31, "is_primary": true}, {"id": 2677303, "title": "Animations in the studio", "work_id": 64799, "role": "producer/director", "role_id": 31, "is_primary": true}], "also_known_as": "", "date_of_birth": "", "date_of_death": "", "genders": [], "languages": [], "places_of_operation": [], "biography": "", "biography_author": null, "date_of_biography": "2023-08-11T14:07:15.425164+10:00", "external_links": [], "uuid": "dd9aceb4-dc22-4097-8b11-d336b30f5c5d", "source": {"name": "Vernon", "slug": "vernon"}, "source_identifier": "23607", "external_references": [], "date_modified": "2025-03-06T23:16:43.233184+11:00"}, {"id": 12478, "name": "Centre for Educational Television Overseas", "roles_in_work": [{"id": 2677302, "title": "Animations in the studio", "work_id": 64799, "role": "production company", "role_id": 941, "is_primary": true}, {"id": 2678136, "title": "Basic shots", "work_id": 65244, "role": "production company", "role_id": 941, "is_primary": true}, {"id": 2713868, "title": "Floor management", "work_id": 67632, "role": "production company", "role_id": 941, "is_primary": true}, {"id": 2680780, "title": "Cut or mix", "work_id": 66552, "role": "production company", "role_id": 941, "is_primary": true}, {"id": 2645952, "title": "People talking", "work_id": 71466, "role": "production company", "role_id": 941, "is_primary": true}, {"id": 2646758, "title": "Using lenses. Part 1. The lens turret", "work_id": 74251, "role": "production company", "role_id": 941, "is_primary": true}, {"id": 2714832, "title": "Good lighting. Part 1", "work_id": 68136, "role": "production company", "role_id": 941, "is_primary": true}, {"id": 2714834, "title": "Good lighting. Part 2", "work_id": 68137, "role": "production company", "role_id": 941, "is_primary": true}, {"id": 2714836, "title": "Good lighting. Part 3", "work_id": 68138, "role": "production company", "role_id": 941, "is_primary": true}, {"id": 854489, "title": "Lighting for television", "work_id": 69735, "role": "production company", "role_id": 941, "is_primary": true}, {"id": 859095, "title": "Superimposition", "work_id": 73378, "role": "production company", "role_id": 941, "is_primary": true}, {"id": 860009, "title": "TV graphics: a training programme (TEFC)", "work_id": 74100, "role": "production company", "role_id": 941, "is_primary": true}, {"id": 854904, "title": "Character make-up: youth & age", "work_id": 70021, "role": "production company", "role_id": 941, "is_primary": true}, {"id": 825947, "title": "TV graphics: a training programme", "work_id": 96118, "role": "production company", "role_id": 941, "is_primary": true}, {"id": 858277, "title": "Sets: construction and display", "work_id": 72686, "role": "production company", "role_id": 941, "is_primary": true}, {"id": 856863, "title": "Physics on television", "work_id": 71540, "role": "production company", "role_id": 941, "is_primary": true}, {"id": 857188, "title": "Presentation techniques. No. 2: presenter and studio", "work_id": 71798, "role": "production company", "role_id": 941, "is_primary": true}, {"id": 857187, "title": "Presentation techniques. Part 1", "work_id": 71797, "role": "production company", "role_id": 941, "is_primary": true}, {"id": 858660, "title": "Sounds good", "work_id": 73021, "role": "production company", "role_id": 941, "is_primary": true}, {"id": 858885, "title": "Still pictures on television", "work_id": 73199, "role": "production company", "role_id": 941, "is_primary": true}], "also_known_as": "", "date_of_birth": "", "date_of_death": "", "genders": [], "languages": [], "places_of_operation": [], "biography": "", "biography_author": null, "date_of_biography": "2023-08-11T14:37:50.218580+10:00", "external_links": [], "uuid": "3e387092-8f0b-4c0b-85ec-562da7bf4e7b", "source": {"name": "Vernon", "slug": "vernon"}, "source_identifier": "6438", "external_references": [], "date_modified": "2025-03-12T01:21:22.071876+11:00"}]}