{"count": 28687, "next": "https://api.acmi.net.au/creators/?page=219", "previous": "https://api.acmi.net.au/creators/?page=217", "results": [{"id": 83427, "name": "Tori Towney", "roles_in_work": [{"id": 2654183, "title": "Change!", "work_id": 116617, "role": "creator", "role_id": 968, "is_primary": true}, {"id": 2654196, "title": "One past eight futures \"The making of\"", "work_id": 116622, "role": "interviewee", "role_id": 496, "is_primary": false}], "also_known_as": "", "date_of_birth": "", "date_of_death": "", "genders": [{"id": 5, "name": "Female", "slug": "female"}], "languages": [], "places_of_operation": [], "biography": "", "biography_author": null, "date_of_biography": "2023-05-09T18:11:29.310530+10:00", "external_links": [], "uuid": "a0224590-c96d-42a4-898b-62a5d8248ad1", "source": {"name": "Vernon", "slug": "vernon"}, "source_identifier": "35078", "external_references": [], "date_modified": "2025-03-05T15:28:34.376088+11:00"}, {"id": 83426, "name": "Angel Towney", "roles_in_work": [{"id": 2654069, "title": "Both cultures", "work_id": 116616, "role": "creator", "role_id": 968, "is_primary": true}, {"id": 2654189, "title": "One past eight futures \"The making of\"", "work_id": 116622, "role": "interviewee", "role_id": 496, "is_primary": false}], "also_known_as": "", "date_of_birth": "", "date_of_death": "", "genders": [{"id": 5, "name": "Female", "slug": "female"}], "languages": [], "places_of_operation": [], "biography": "", "biography_author": null, "date_of_biography": "2023-05-09T18:11:51.565430+10:00", "external_links": [], "uuid": "963f8459-a85f-4cc7-a2d8-9701dcc711f9", "source": {"name": "Vernon", "slug": "vernon"}, "source_identifier": "35068", "external_references": [], "date_modified": "2025-03-05T15:28:30.161945+11:00"}, {"id": 83425, "name": "Australia. Dept. of Education, Employment and Workplace Relations", "roles_in_work": [{"id": 2654047, "title": "My family", "work_id": 116901, "role": "partner", "role_id": 575, "is_primary": false}, {"id": 2654077, "title": "A Christmas story", "work_id": 116614, "role": "partner", "role_id": 575, "is_primary": false}, {"id": 2654090, "title": "My family and home town", "work_id": 116619, "role": "partner", "role_id": 575, "is_primary": false}, {"id": 2654121, "title": "What's important to me?", "work_id": 116623, "role": "partner", "role_id": 575, "is_primary": false}, {"id": 2654127, "title": "One past eight futures : Foundation for Young Australians : Digital Storytelling project", "work_id": 116615, "role": "partner", "role_id": 575, "is_primary": false}, {"id": 2654152, "title": "Ngay Wandabaa (My Spirit)", "work_id": 116621, "role": "partner", "role_id": 575, "is_primary": false}, {"id": 2654166, "title": "Dreaming in motion picture", "work_id": 116618, "role": "partner", "role_id": 575, "is_primary": false}, {"id": 2654173, "title": "My tree", "work_id": 116620, "role": "partner", "role_id": 575, "is_primary": false}, {"id": 2654179, "title": "Change!", "work_id": 116617, "role": "partner", "role_id": 575, "is_primary": false}, {"id": 2654041, "title": "What makes me, me", "work_id": 116906, "role": "partner", "role_id": 575, "is_primary": false}, {"id": 2654185, "title": "One past eight futures \"The making of\"", "work_id": 116622, "role": "partner", "role_id": 575, "is_primary": false}, {"id": 2654035, "title": "So far, so good", "work_id": 116903, "role": "partner", "role_id": 575, "is_primary": false}, {"id": 2654029, "title": "My \"perfect\" family", "work_id": 116900, "role": "partner", "role_id": 575, "is_primary": false}, {"id": 2654023, "title": "Three sisters and three ukuleles", "work_id": 116905, "role": "partner", "role_id": 575, "is_primary": false}, {"id": 2654013, "title": "Our trip to Sydney", "work_id": 116902, "role": "partner", "role_id": 575, "is_primary": false}, {"id": 2654008, "title": "This is me : foundation for young Australians (July 2009) : Digital Storytelling project", "work_id": 116898, "role": "partner", "role_id": 575, "is_primary": false}, {"id": 2654053, "title": "DST July 09 presents...", "work_id": 116899, "role": "partner", "role_id": 575, "is_primary": false}, {"id": 2653990, "title": "Spirit, dance and connection = Spirit, dance & connection", "work_id": 116904, "role": "partner", "role_id": 575, "is_primary": false}, {"id": 2654065, "title": "Both cultures", "work_id": 116616, "role": "partner", "role_id": 575, "is_primary": false}, {"id": 2651911, "title": "Grandma Jessie", "work_id": 116634, "role": "sponsor", "role_id": 625, "is_primary": false}], "also_known_as": "", "date_of_birth": "", "date_of_death": "", "genders": [], "languages": [], "places_of_operation": [], "biography": "", "biography_author": null, "date_of_biography": "2023-07-19T03:42:55.347661+10:00", "external_links": [], "uuid": "da363e18-ee2e-49a8-88ff-bf16a1cd0213", "source": {"name": "Vernon", "slug": "vernon"}, "source_identifier": "34534", "external_references": [], "date_modified": "2025-03-05T15:28:27.799197+11:00"}, {"id": 83424, "name": "Maria Diele", "roles_in_work": [{"id": 2044024, "title": "Marco Solo", "work_id": 116613, "role": "cast", "role_id": 33, "is_primary": false}], "also_known_as": "", "date_of_birth": null, "date_of_death": null, "genders": [], "languages": [], "places_of_operation": [], "biography": "", "biography_author": null, "date_of_biography": null, "external_links": [], "uuid": "b8458e56-466f-419b-beb2-678f9eea8344", "source": {"name": "Vernon", "slug": "vernon"}, "source_identifier": null, "external_references": [{"id": 41895, "source": {"name": "Wikidata", "slug": "wikidata"}, "source_identifier": "Q121223414"}], "date_modified": "2023-09-05T22:41:57.783147+10:00"}, {"id": 83423, "name": "Irini Pappas", "roles_in_work": [{"id": 2044023, "title": "Marco Solo", "work_id": 116613, "role": "cast", "role_id": 33, "is_primary": false}], "also_known_as": "", "date_of_birth": null, "date_of_death": null, "genders": [], "languages": [], "places_of_operation": [], "biography": "", "biography_author": null, "date_of_biography": null, "external_links": [], "uuid": "55049db6-3e5b-4f77-97ad-a6698e9a6c5e", "source": {"name": "Vernon", "slug": "vernon"}, "source_identifier": null, "external_references": [{"id": 42013, "source": {"name": "Wikidata", "slug": "wikidata"}, "source_identifier": "Q121035230"}], "date_modified": "2023-09-05T20:50:13.079184+10:00"}, {"id": 83422, "name": "Helen Nicholas", "roles_in_work": [{"id": 2044022, "title": "Marco Solo", "work_id": 116613, "role": "cast", "role_id": 33, "is_primary": false}], "also_known_as": "", "date_of_birth": null, "date_of_death": null, "genders": [], "languages": [], "places_of_operation": [], "biography": "", "biography_author": null, "date_of_biography": null, "external_links": [], "uuid": "18e343b0-9c24-4116-8f38-5a51472fac94", "source": {"name": "Vernon", "slug": "vernon"}, "source_identifier": null, "external_references": [{"id": 37440, "source": {"name": "Wikidata", "slug": "wikidata"}, "source_identifier": "Q121034180"}], "date_modified": "2023-09-05T20:34:38.378415+10:00"}, {"id": 83421, "name": "Robert Urban", "roles_in_work": [{"id": 2044021, "title": "Marco Solo", "work_id": 116613, "role": "cast", "role_id": 33, "is_primary": false}], "also_known_as": "", "date_of_birth": null, "date_of_death": null, "genders": [], "languages": [], "places_of_operation": [], "biography": "", "biography_author": null, "date_of_biography": null, "external_links": [], "uuid": "a5f9c5b8-9b34-4c2e-8446-139e663abe9a", "source": {"name": "Vernon", "slug": "vernon"}, "source_identifier": null, "external_references": [{"id": 39228, "source": {"name": "Wikidata", "slug": "wikidata"}, "source_identifier": "Q121271341"}], "date_modified": "2023-09-06T00:47:21.710765+10:00"}, {"id": 83420, "name": "Joseph Sollena", "roles_in_work": [{"id": 2044020, "title": "Marco Solo", "work_id": 116613, "role": "cast", "role_id": 33, "is_primary": false}], "also_known_as": "", "date_of_birth": null, "date_of_death": null, "genders": [], "languages": [], "places_of_operation": [], "biography": "", "biography_author": null, "date_of_biography": null, "external_links": [], "uuid": "72181d59-b66c-4464-97a5-85a42f6df6f1", "source": {"name": "Vernon", "slug": "vernon"}, "source_identifier": null, "external_references": [{"id": 35671, "source": {"name": "Wikidata", "slug": "wikidata"}, "source_identifier": "Q121222530"}], "date_modified": "2023-09-05T21:51:35.763547+10:00"}, {"id": 83419, "name": "Adrian Bosich", "roles_in_work": [{"id": 2044018, "title": "Marco Solo", "work_id": 116613, "role": "director", "role_id": 938, "is_primary": true}, {"id": 2044019, "title": "Marco Solo", "work_id": 116613, "role": "writer", "role_id": 939, "is_primary": true}], "also_known_as": "", "date_of_birth": null, "date_of_death": null, "genders": [], "languages": [], "places_of_operation": [], "biography": "", "biography_author": null, "date_of_biography": null, "external_links": [], "uuid": "c1d33865-96dd-4f84-9788-736fcd7e114d", "source": {"name": "Vernon", "slug": "vernon"}, "source_identifier": null, "external_references": [{"id": 37932, "source": {"name": "Wikidata", "slug": "wikidata"}, "source_identifier": "Q121034221"}], "date_modified": "2023-09-05T17:16:40.656586+10:00"}, {"id": 83418, "name": "Siana Smit", "roles_in_work": [{"id": 2121084, "title": "Blue Tongue", "work_id": 116612, "role": "cast", "role_id": 33, "is_primary": false}], "also_known_as": "", "date_of_birth": "", "date_of_death": "", "genders": [], "languages": [], "places_of_operation": [], "biography": "", "biography_author": null, "date_of_biography": "2023-05-09T13:03:49.553651+10:00", "external_links": [], "uuid": "ebd62f98-b913-434c-b5a1-0dab3bf8e648", "source": {"name": "Vernon", "slug": "vernon"}, "source_identifier": "34471", "external_references": [], "date_modified": "2023-06-14T16:33:30.576250+10:00"}]}