{"count": 28687, "next": "https://api.acmi.net.au/creators/?page=1166", "previous": "https://api.acmi.net.au/creators/?page=1164", "results": [{"id": 73723, "name": "Shane Neal", "roles_in_work": [{"id": 2638646, "title": "Ecology and dreams", "work_id": 110177, "role": "interviewee", "role_id": 496, "is_primary": false}], "also_known_as": "", "date_of_birth": "", "date_of_death": "", "genders": [], "languages": [], "places_of_operation": [], "biography": "", "biography_author": null, "date_of_biography": "2023-05-09T15:52:24.622441+10:00", "external_links": [], "uuid": "c879baab-6e5e-4210-a002-0f536331816f", "source": {"name": "Vernon", "slug": "vernon"}, "source_identifier": "2797", "external_references": [], "date_modified": "2025-03-05T11:09:16.101267+11:00"}, {"id": 73722, "name": "Peter Day", "roles_in_work": [{"id": 2353506, "title": "The Hacktivists [Widescreen]", "work_id": 93925, "role": "co-producer", "role_id": 915, "is_primary": true}, {"id": 2638641, "title": "Walking through trees", "work_id": 110176, "role": "interviewee", "role_id": 496, "is_primary": false}], "also_known_as": "", "date_of_birth": "", "date_of_death": "", "genders": [{"id": 9, "name": "Male", "slug": "male"}], "languages": [], "places_of_operation": [], "biography": "", "biography_author": null, "date_of_biography": "2023-05-09T20:00:25.932455+10:00", "external_links": [], "uuid": "8d268479-6945-43ab-8c95-029bfbf37788", "source": {"name": "Vernon", "slug": "vernon"}, "source_identifier": "2796", "external_references": [{"id": 40248, "source": {"name": "Wikidata", "slug": "wikidata"}, "source_identifier": "Q121223276"}], "date_modified": "2025-03-05T11:09:12.765366+11:00"}, {"id": 73721, "name": "Positive Women", "roles_in_work": [{"id": 2657927, "title": "For my true love", "work_id": 117103, "role": "partner", "role_id": 575, "is_primary": false}, {"id": 2657957, "title": "Journeys into the unknown : Digital Storytelling project", "work_id": 117100, "role": "partner", "role_id": 575, "is_primary": false}, {"id": 2657961, "title": "The Journey's rewards", "work_id": 117106, "role": "partner", "role_id": 575, "is_primary": false}, {"id": 2638485, "title": "Positive stories: remarkable women", "work_id": 110173, "role": "partner", "role_id": 575, "is_primary": false}, {"id": 2657971, "title": "Boy from the block", "work_id": 117102, "role": "partner", "role_id": 575, "is_primary": false}, {"id": 2657976, "title": "Here's to extremes and my journey beyond", "work_id": 117104, "role": "partner", "role_id": 575, "is_primary": false}, {"id": 2657981, "title": "The Bird catcher", "work_id": 117101, "role": "partner", "role_id": 575, "is_primary": false}, {"id": 2657986, "title": "This is my offering", "work_id": 117107, "role": "partner", "role_id": 575, "is_primary": false}, {"id": 2657991, "title": "Here, there & back again", "work_id": 117105, "role": "partner", "role_id": 575, "is_primary": false}, {"id": 2638451, "title": "Being positive", "work_id": 110285, "role": "partner", "role_id": 575, "is_primary": false}, {"id": 2657966, "title": "An Unguarded moment", "work_id": 117108, "role": "partner", "role_id": 575, "is_primary": false}, {"id": 2638595, "title": "The Gift", "work_id": 110172, "role": "partner", "role_id": 575, "is_primary": false}, {"id": 2638599, "title": "A Short story about love", "work_id": 110174, "role": "partner", "role_id": 575, "is_primary": false}, {"id": 2638650, "title": "Healing", "work_id": 110178, "role": "partner", "role_id": 575, "is_primary": false}, {"id": 2638654, "title": "No more funerals", "work_id": 110179, "role": "partner", "role_id": 575, "is_primary": false}, {"id": 2638658, "title": "A Global family", "work_id": 110180, "role": "partner", "role_id": 575, "is_primary": false}, {"id": 2638665, "title": "Tell you a secret", "work_id": 110182, "role": "partner", "role_id": 575, "is_primary": false}, {"id": 2638673, "title": "Where I came from and where I am going!", "work_id": 110184, "role": "partner", "role_id": 575, "is_primary": false}, {"id": 2638677, "title": "Director's cut", "work_id": 110185, "role": "partner", "role_id": 575, "is_primary": false}], "also_known_as": "", "date_of_birth": "", "date_of_death": "", "genders": [], "languages": [], "places_of_operation": [], "biography": "", "biography_author": null, "date_of_biography": "2023-05-09T20:06:46.910615+10:00", "external_links": [], "uuid": "298f25cf-acd1-4476-9854-c2f35c8c9eea", "source": {"name": "Vernon", "slug": "vernon"}, "source_identifier": "2793", "external_references": [], "date_modified": "2025-03-05T17:33:16.269050+11:00"}, {"id": 73720, "name": "Lily Fraser", "roles_in_work": [{"id": 2640333, "title": "Press any button", "work_id": 110157, "role": "cast", "role_id": 33, "is_primary": false}], "also_known_as": "", "date_of_birth": "", "date_of_death": "", "genders": [], "languages": [], "places_of_operation": [], "biography": "", "biography_author": null, "date_of_biography": "2023-05-09T16:38:22.795629+10:00", "external_links": [], "uuid": "b2e15241-1b93-40f0-9117-3ed05268c520", "source": {"name": "Vernon", "slug": "vernon"}, "source_identifier": "34459", "external_references": [{"id": 36985, "source": {"name": "Wikidata", "slug": "wikidata"}, "source_identifier": "Q121035799"}], "date_modified": "2025-03-05T11:27:22.575598+11:00"}, {"id": 73719, "name": "Lucy Bell", "roles_in_work": [{"id": 2640331, "title": "Press any button", "work_id": 110157, "role": "cast", "role_id": 33, "is_primary": false}], "also_known_as": "", "date_of_birth": "", "date_of_death": "", "genders": [], "languages": [], "places_of_operation": [], "biography": "", "biography_author": null, "date_of_biography": "2023-05-09T16:38:22.566115+10:00", "external_links": [], "uuid": "fe3e0711-fd28-4606-b7d9-c4c5b92f7fd3", "source": {"name": "Vernon", "slug": "vernon"}, "source_identifier": "31831", "external_references": [{"id": 41418, "source": {"name": "Wikidata", "slug": "wikidata"}, "source_identifier": "Q121034704"}], "date_modified": "2025-03-05T11:27:21.979367+11:00"}, {"id": 73718, "name": "Justine Clarke", "roles_in_work": [{"id": 2640243, "title": "Car park", "work_id": 110156, "role": "cast", "role_id": 33, "is_primary": false}], "also_known_as": "", "date_of_birth": "1971-11-01", "date_of_death": "", "genders": [{"id": 5, "name": "Female", "slug": "female"}], "languages": [{"id": 1, "name": "English", "slug": "english"}], "places_of_operation": [{"id": 3, "name": "Australia", "slug": "australia"}], "biography": "Justine Clarke (born 16 November 1971) is an Australian actress, singer, author and television host. \nJustine has been acting since the age of seven and has appeared in some of Australia's best-known TV shows. She is best known as a presenter on the Australian children's show Play School, a role with she has held since 1999. She is also a film and stage actor, and won the Best Actress Award at the Mar del Plata International Film Festival in Argentina in 2006 for her role in independent film Look Both Ways. She has won two ARIA Awards.", "biography_author": "Wikidata", "date_of_biography": "2023-09-05T21:58:02.645506+10:00", "external_links": [{"id": 5954, "uri": "https://en.wikipedia.org/wiki/Justine_Clarke"}], "uuid": "d7e1220d-a357-4294-9ff5-fb65f128657d", "source": {"name": "Vernon", "slug": "vernon"}, "source_identifier": "2904", "external_references": [{"id": 50572, "source": {"name": "Wikidata", "slug": "wikidata"}, "source_identifier": "Q6318349"}, {"id": 54971, "source": {"name": "VIAF", "slug": "viaf"}, "source_identifier": "19448451"}, {"id": 54972, "source": {"name": "LOC Auth", "slug": "loc-auth"}, "source_identifier": "no2007011160"}, {"id": 54973, "source": {"name": "WorldCat", "slug": "worldcat"}, "source_identifier": "lccn-no2007011160"}], "date_modified": "2025-03-05T11:26:49.737332+11:00"}, {"id": 73717, "name": "Nathaniel Dean", "roles_in_work": [{"id": 2640294, "title": "The Watchers", "work_id": 110151, "role": "cast", "role_id": 33, "is_primary": false}], "also_known_as": "", "date_of_birth": "", "date_of_death": "", "genders": [], "languages": [], "places_of_operation": [], "biography": "", "biography_author": null, "date_of_biography": "2023-05-09T20:10:14.168598+10:00", "external_links": [], "uuid": "2fdc6747-ff74-45f8-8e8d-67faaf1a23a6", "source": {"name": "Vernon", "slug": "vernon"}, "source_identifier": "34465", "external_references": [{"id": 41341, "source": {"name": "Wikidata", "slug": "wikidata"}, "source_identifier": "Q121143647"}], "date_modified": "2025-03-05T11:27:08.398059+11:00"}, {"id": 73716, "name": "Dane Sheddon", "roles_in_work": [{"id": 2640292, "title": "The Watchers", "work_id": 110151, "role": "cast", "role_id": 33, "is_primary": false}], "also_known_as": "", "date_of_birth": "", "date_of_death": "", "genders": [], "languages": [], "places_of_operation": [], "biography": "", "biography_author": null, "date_of_biography": "2023-05-09T20:10:13.936826+10:00", "external_links": [], "uuid": "59ffeb40-f6fb-41af-8c75-8bdd6dadaba5", "source": {"name": "Vernon", "slug": "vernon"}, "source_identifier": "34464", "external_references": [{"id": 33210, "source": {"name": "Wikidata", "slug": "wikidata"}, "source_identifier": "Q121091365"}], "date_modified": "2025-03-05T11:27:07.814971+11:00"}, {"id": 73715, "name": "Wayne Pygram", "roles_in_work": [{"id": 2640290, "title": "The Watchers", "work_id": 110151, "role": "cast", "role_id": 33, "is_primary": false}], "also_known_as": "", "date_of_birth": "", "date_of_death": "", "genders": [], "languages": [], "places_of_operation": [], "biography": "", "biography_author": null, "date_of_biography": "2023-05-09T20:10:13.693590+10:00", "external_links": [], "uuid": "2a0ca0c0-9a97-4f4c-a99c-0be1b14490ee", "source": {"name": "Vernon", "slug": "vernon"}, "source_identifier": "34463", "external_references": [{"id": 33080, "source": {"name": "Wikidata", "slug": "wikidata"}, "source_identifier": "Q121160036"}], "date_modified": "2025-03-05T11:27:07.239800+11:00"}, {"id": 73714, "name": "Cath Moore", "roles_in_work": [{"id": 2640288, "title": "The Watchers", "work_id": 110151, "role": "writer", "role_id": 939, "is_primary": true}], "also_known_as": "", "date_of_birth": "", "date_of_death": "", "genders": [], "languages": [], "places_of_operation": [], "biography": "", "biography_author": null, "date_of_biography": "2023-05-09T20:10:13.451489+10:00", "external_links": [], "uuid": "27b118c3-50d3-494b-bed2-81baabb157a7", "source": {"name": "Vernon", "slug": "vernon"}, "source_identifier": "3138", "external_references": [{"id": 37221, "source": {"name": "Wikidata", "slug": "wikidata"}, "source_identifier": "Q121299050"}], "date_modified": "2025-03-05T11:27:06.662798+11:00"}]}