{"count": 28687, "next": "https://api.acmi.net.au/creators/?page=1473", "previous": "https://api.acmi.net.au/creators/?page=1471", "results": [{"id": 34862, "name": "Bangarra Dance Theatre", "roles_in_work": [{"id": 2107737, "title": "Bangarra Dance Theatre: ochres", "work_id": 93166, "role": "production company", "role_id": 941, "is_primary": true}], "also_known_as": "", "date_of_birth": "", "date_of_death": "", "genders": [], "languages": [], "places_of_operation": [], "biography": "", "biography_author": null, "date_of_biography": "2023-05-09T12:41:01.882064+10:00", "external_links": [], "uuid": "0e390a1b-9efc-4bb4-b8e8-ca1b6e8f3d9d", "source": {"name": "Vernon", "slug": "vernon"}, "source_identifier": "5710", "external_references": [{"id": 42931, "source": {"name": "Wikidata", "slug": "wikidata"}, "source_identifier": "Q121337073"}], "date_modified": "2023-09-05T17:52:45.897976+10:00"}, {"id": 34861, "name": "Robert Kuperberg", "roles_in_work": [{"id": 2168984, "title": "Dance crazy in Hollywood", "work_id": 93165, "role": "director", "role_id": 938, "is_primary": true}], "also_known_as": "", "date_of_birth": "", "date_of_death": "", "genders": [], "languages": [], "places_of_operation": [], "biography": "", "biography_author": null, "date_of_biography": "2023-05-09T14:31:25.067932+10:00", "external_links": [], "uuid": "cfc99ef3-3b44-452f-826c-642445f1f594", "source": {"name": "Vernon", "slug": "vernon"}, "source_identifier": "27792", "external_references": [{"id": 36416, "source": {"name": "Wikidata", "slug": "wikidata"}, "source_identifier": "Q121126026"}], "date_modified": "2023-09-06T00:43:31.613911+10:00"}, {"id": 34860, "name": "Gerard Paquet", "roles_in_work": [{"id": 2168980, "title": "Dance crazy in Hollywood", "work_id": 93165, "role": "producer", "role_id": 1089, "is_primary": true}], "also_known_as": "", "date_of_birth": "", "date_of_death": "", "genders": [], "languages": [], "places_of_operation": [], "biography": "", "biography_author": null, "date_of_biography": "2023-05-09T14:31:24.777734+10:00", "external_links": [], "uuid": "95d5d4e8-6406-493f-a904-5bf4bccd906c", "source": {"name": "Vernon", "slug": "vernon"}, "source_identifier": "19759", "external_references": [{"id": 37861, "source": {"name": "Wikidata", "slug": "wikidata"}, "source_identifier": "Q121035030"}], "date_modified": "2023-09-05T20:09:40.738498+10:00"}, {"id": 34859, "name": "Clara Films", "roles_in_work": [{"id": 2168974, "title": "Dance crazy in Hollywood", "work_id": 93165, "role": "production company", "role_id": 941, "is_primary": true}], "also_known_as": "", "date_of_birth": "", "date_of_death": "", "genders": [], "languages": [], "places_of_operation": [], "biography": "", "biography_author": null, "date_of_biography": "2023-05-09T14:31:24.264527+10:00", "external_links": [], "uuid": "aca5020e-c739-475b-827a-1dbfdf837402", "source": {"name": "Vernon", "slug": "vernon"}, "source_identifier": "17051", "external_references": [{"id": 41413, "source": {"name": "Wikidata", "slug": "wikidata"}, "source_identifier": "Q121299298"}], "date_modified": "2023-09-05T18:39:00.840071+10:00"}, {"id": 34857, "name": "Eden Productions", "roles_in_work": [{"id": 2249456, "title": "Return to Eden [DVD]", "work_id": 93164, "role": "production company", "role_id": 941, "is_primary": true}], "also_known_as": "", "date_of_birth": "", "date_of_death": "", "genders": [], "languages": [], "places_of_operation": [], "biography": "", "biography_author": null, "date_of_biography": "2023-05-09T17:08:36.670122+10:00", "external_links": [], "uuid": "08860830-cdeb-4680-abf8-1e6fd79aa673", "source": {"name": "Vernon", "slug": "vernon"}, "source_identifier": "7736", "external_references": [{"id": 40564, "source": {"name": "Wikidata", "slug": "wikidata"}, "source_identifier": "Q121315375"}], "date_modified": "2023-09-05T19:23:44.485604+10:00"}, {"id": 34856, "name": "Constantine Giannaris", "roles_in_work": [{"id": 883059, "title": "North of Vortex", "work_id": 93519, "role": "director", "role_id": 938, "is_primary": true}, {"id": 1997195, "title": "From the edge of the city = Apo tin akri tis polis", "work_id": 93162, "role": "director", "role_id": 938, "is_primary": true}], "also_known_as": "", "date_of_birth": "1959-01-01", "date_of_death": null, "genders": [{"id": 9, "name": "Male", "slug": "male"}], "languages": [{"id": 32, "name": "Greek", "slug": "greek"}], "places_of_operation": [{"id": 21, "name": "Greece", "slug": "greece"}], "biography": "Constantine Giannaris, also Constantinos Giannaris (Greek: Κωνσταντίνος Γιάνναρης; born 1959), is a Greek film director, photographer, actor and author. He is best known for his award-winning feature films “From the Edge of the City,” “Hostage,” and his early queer work in Britain.", "biography_author": "Wikidata", "date_of_biography": "2023-08-01T14:30:37.855768+10:00", "external_links": [{"id": 3803, "uri": "https://en.wikipedia.org/wiki/Constantine_Giannaris"}], "uuid": "3e23b5da-4bc5-4119-b994-f0a95cc8048d", "source": {"name": "Vernon", "slug": "vernon"}, "source_identifier": "17217", "external_references": [{"id": 25005, "source": {"name": "Wikidata", "slug": "wikidata"}, "source_identifier": "Q670399"}, {"id": 27940, "source": {"name": "VIAF", "slug": "viaf"}, "source_identifier": "63739112"}, {"id": 27941, "source": {"name": "LOC Auth", "slug": "loc-auth"}, "source_identifier": "no2005033872"}, {"id": 27942, "source": {"name": "WorldCat", "slug": "worldcat"}, "source_identifier": "lccn-no2005033872"}], "date_modified": "2023-09-13T12:28:51.159756+10:00"}, {"id": 34849, "name": "Yoga Frog", "roles_in_work": [{"id": 2471292, "title": "Wave twisters", "work_id": 93160, "role": "producer", "role_id": 1089, "is_primary": true}], "also_known_as": "", "date_of_birth": "", "date_of_death": "", "genders": [], "languages": [], "places_of_operation": [], "biography": "", "biography_author": null, "date_of_biography": "2023-08-14T12:36:26.985347+10:00", "external_links": [], "uuid": "2e8862cf-5603-4065-97d6-5930ff8bd6ca", "source": {"name": "Vernon", "slug": "vernon"}, "source_identifier": "14502", "external_references": [], "date_modified": "2023-08-14T12:36:26.985564+10:00"}, {"id": 34848, "name": "Thud Rumble Ltd", "roles_in_work": [{"id": 2471290, "title": "Wave twisters", "work_id": 93160, "role": "production company", "role_id": 941, "is_primary": true}], "also_known_as": "", "date_of_birth": "", "date_of_death": "", "genders": [], "languages": [], "places_of_operation": [], "biography": "", "biography_author": null, "date_of_biography": "2023-08-14T12:36:26.346687+10:00", "external_links": [], "uuid": "f2ce6c89-6bef-4fc4-9e86-b2701e72a299", "source": {"name": "Vernon", "slug": "vernon"}, "source_identifier": "13506", "external_references": [], "date_modified": "2023-08-14T12:36:26.346998+10:00"}, {"id": 34847, "name": "Banna Productions", "roles_in_work": [{"id": 2408311, "title": "Gallipoli: a virtual tour (MAC & PC)", "work_id": 93158, "role": "production company", "role_id": 941, "is_primary": true}], "also_known_as": "", "date_of_birth": "", "date_of_death": "", "genders": [], "languages": [], "places_of_operation": [], "biography": "", "biography_author": null, "date_of_biography": "2023-08-11T16:57:41.208319+10:00", "external_links": [], "uuid": "311fa544-c713-4775-b8ca-de56db68a0a1", "source": {"name": "Vernon", "slug": "vernon"}, "source_identifier": "11666", "external_references": [], "date_modified": "2023-08-11T16:57:41.208632+10:00"}, {"id": 34846, "name": "Tropfest", "roles_in_work": [{"id": 2469413, "title": "Tropfest #9 2001: 16 finalists", "work_id": 93155, "role": "production company", "role_id": 941, "is_primary": true}, {"id": 2469414, "title": "Tropfest 2002 [DVD]", "work_id": 93161, "role": "production company", "role_id": 941, "is_primary": true}], "also_known_as": "", "date_of_birth": "", "date_of_death": "", "genders": [], "languages": [], "places_of_operation": [], "biography": "", "biography_author": null, "date_of_biography": "2023-08-14T12:00:37.179773+10:00", "external_links": [], "uuid": "c1839f09-0044-4719-917d-9ddd8e8398a6", "source": {"name": "Vernon", "slug": "vernon"}, "source_identifier": "13729", "external_references": [], "date_modified": "2023-08-14T12:00:37.179991+10:00"}]}