{"count": 28687, "next": "https://api.acmi.net.au/creators/?page=2736", "previous": "https://api.acmi.net.au/creators/?page=2734", "results": [{"id": 10946, "name": "Holy Spirit Primary School", "roles_in_work": [{"id": 2638150, "title": "Commonwealth Games 2005?", "work_id": 110071, "role": "creator", "role_id": 968, "is_primary": true}], "also_known_as": "", "date_of_birth": "", "date_of_death": "", "genders": [], "languages": [], "places_of_operation": [], "biography": "", "biography_author": null, "date_of_biography": "2023-05-09T17:34:51.637313+10:00", "external_links": [], "uuid": "320b8ffe-d1e8-428d-bf9f-abb6c22d869c", "source": {"name": "Vernon", "slug": "vernon"}, "source_identifier": "2721", "external_references": [], "date_modified": "2025-03-05T11:01:34.313497+11:00"}, {"id": 10945, "name": "Tony Laba", "roles_in_work": [{"id": 2638148, "title": "A Lesson learned", "work_id": 110069, "role": "creator", "role_id": 968, "is_primary": true}], "also_known_as": "", "date_of_birth": "", "date_of_death": "", "genders": [{"id": 9, "name": "Male", "slug": "male"}], "languages": [], "places_of_operation": [], "biography": "", "biography_author": null, "date_of_biography": "2023-05-09T17:34:40.956519+10:00", "external_links": [], "uuid": "d9a64ed7-49e3-4de2-89d4-8d294a1d8433", "source": {"name": "Vernon", "slug": "vernon"}, "source_identifier": "2720", "external_references": [], "date_modified": "2025-03-05T11:01:32.556628+11:00"}, {"id": 10944, "name": "Shauna Byrne", "roles_in_work": [{"id": 2638146, "title": "The Playground", "work_id": 110068, "role": "creator", "role_id": 968, "is_primary": true}], "also_known_as": "", "date_of_birth": "", "date_of_death": "", "genders": [{"id": 5, "name": "Female", "slug": "female"}], "languages": [], "places_of_operation": [], "biography": "", "biography_author": null, "date_of_biography": "2023-05-09T17:34:45.975696+10:00", "external_links": [], "uuid": "c73fd833-ff4f-400e-81a5-3f0129b9c00a", "source": {"name": "Vernon", "slug": "vernon"}, "source_identifier": "2719", "external_references": [], "date_modified": "2025-03-05T11:01:31.103292+11:00"}, {"id": 10943, "name": "Jella Sebastian", "roles_in_work": [{"id": 2638144, "title": "Board games are cool", "work_id": 110067, "role": "creator", "role_id": 968, "is_primary": true}], "also_known_as": "", "date_of_birth": "", "date_of_death": "", "genders": [{"id": 5, "name": "Female", "slug": "female"}], "languages": [], "places_of_operation": [], "biography": "", "biography_author": null, "date_of_biography": "2023-05-09T17:34:46.743293+10:00", "external_links": [], "uuid": "78fce19b-b39e-4672-8eab-a56883ed45d9", "source": {"name": "Vernon", "slug": "vernon"}, "source_identifier": "2718", "external_references": [], "date_modified": "2025-03-05T11:01:29.660108+11:00"}, {"id": 10942, "name": "St Michael's Primary School", "roles_in_work": [{"id": 2638147, "title": "A Lesson learned", "work_id": 110069, "role": "creator", "role_id": 968, "is_primary": true}, {"id": 2638145, "title": "The Playground", "work_id": 110068, "role": "creator", "role_id": 968, "is_primary": true}, {"id": 2638161, "title": "The Jail cell", "work_id": 110080, "role": "creator", "role_id": 968, "is_primary": true}, {"id": 2638143, "title": "Board games are cool", "work_id": 110067, "role": "creator", "role_id": 968, "is_primary": true}], "also_known_as": "", "date_of_birth": "", "date_of_death": "", "genders": [], "languages": [], "places_of_operation": [], "biography": "", "biography_author": null, "date_of_biography": "2023-05-09T17:34:46.523054+10:00", "external_links": [], "uuid": "994eda64-8e64-4330-aa32-c35ea69db8bf", "source": {"name": "Vernon", "slug": "vernon"}, "source_identifier": "2717", "external_references": [], "date_modified": "2025-03-05T11:01:42.985483+11:00"}, {"id": 10941, "name": "Mount Eliza North Primary School", "roles_in_work": [{"id": 2638142, "title": "Include others in your game", "work_id": 110066, "role": "creator", "role_id": 968, "is_primary": true}], "also_known_as": "", "date_of_birth": "", "date_of_death": "", "genders": [], "languages": [], "places_of_operation": [], "biography": "", "biography_author": null, "date_of_biography": "2023-05-09T17:34:38.866154+10:00", "external_links": [], "uuid": "98310a4f-5f65-400a-9c01-97f647a4fd45", "source": {"name": "Vernon", "slug": "vernon"}, "source_identifier": "2716", "external_references": [], "date_modified": "2025-03-05T11:01:28.261990+11:00"}, {"id": 10940, "name": "Niddrie Primary School", "roles_in_work": [{"id": 2638149, "title": "Don't throw the bat", "work_id": 110070, "role": "creator", "role_id": 968, "is_primary": true}, {"id": 2638141, "title": "Don't be a bad sport", "work_id": 110065, "role": "creator", "role_id": 968, "is_primary": true}], "also_known_as": "", "date_of_birth": "", "date_of_death": "", "genders": [], "languages": [], "places_of_operation": [], "biography": "", "biography_author": null, "date_of_biography": "2023-05-09T17:34:44.601861+10:00", "external_links": [], "uuid": "69748bbf-8902-4177-89bf-3d6ff47b6e67", "source": {"name": "Vernon", "slug": "vernon"}, "source_identifier": "2715", "external_references": [], "date_modified": "2025-03-05T11:01:33.430165+11:00"}, {"id": 10939, "name": "Lansdowne Cresent Primary School", "roles_in_work": [{"id": 2638166, "title": "Princess Pop - don't u look @ me", "work_id": 110083, "role": "creator", "role_id": 968, "is_primary": true}, {"id": 2638119, "title": "Cinderella Carrot", "work_id": 110063, "role": "creator", "role_id": 968, "is_primary": true}], "also_known_as": "", "date_of_birth": "", "date_of_death": "", "genders": [], "languages": [], "places_of_operation": [], "biography": "", "biography_author": null, "date_of_biography": "2023-05-09T17:34:48.816974+10:00", "external_links": [], "uuid": "b6bdaa08-76ca-4f5c-947e-3878a41a13e1", "source": {"name": "Vernon", "slug": "vernon"}, "source_identifier": "2714", "external_references": [], "date_modified": "2025-03-05T11:01:46.769697+11:00"}, {"id": 10938, "name": "Jemima Wyman", "roles_in_work": [{"id": 2638101, "title": "Dazey girl", "work_id": 110058, "role": "creator", "role_id": 968, "is_primary": true}, {"id": 2638102, "title": "Earthquake girl woodlands", "work_id": 110059, "role": "creator", "role_id": 968, "is_primary": true}, {"id": 2638098, "title": "Dazey girl", "work_id": 110055, "role": "creator", "role_id": 968, "is_primary": true}, {"id": 2638104, "title": "Earthquake girl & Hula boy", "work_id": 110061, "role": "creator", "role_id": 968, "is_primary": true}, {"id": 2638105, "title": "Earthquake girl & Hula boy & Dazey girl remix", "work_id": 110062, "role": "creator", "role_id": 968, "is_primary": true}, {"id": 2638103, "title": "Earthquake girl & Dazey girl remix", "work_id": 110060, "role": "creator", "role_id": 968, "is_primary": true}], "also_known_as": "", "date_of_birth": "", "date_of_death": "", "genders": [{"id": 5, "name": "Female", "slug": "female"}], "languages": [], "places_of_operation": [], "biography": "", "biography_author": null, "date_of_biography": "2023-08-11T16:16:51.755018+10:00", "external_links": [], "uuid": "7e91f43b-347b-40bd-9336-6a6afe92a23a", "source": {"name": "Vernon", "slug": "vernon"}, "source_identifier": "2650", "external_references": [], "date_modified": "2025-03-05T11:01:00.143210+11:00"}, {"id": 10937, "name": "Brian Gothong Tan", "roles_in_work": [{"id": 2637821, "title": "The Ephemeral body", "work_id": 110054, "role": "creator", "role_id": 968, "is_primary": true}, {"id": 2637822, "title": "Instant noodles", "work_id": 110078, "role": "creator", "role_id": 968, "is_primary": true}, {"id": 2637823, "title": "A Psychoanalytical neo-feminist film", "work_id": 110051, "role": "creator", "role_id": 968, "is_primary": true}, {"id": 2637824, "title": "Sublime monsters and virtual children", "work_id": 110053, "role": "creator", "role_id": 968, "is_primary": true}, {"id": 2637825, "title": "Instant Asia!", "work_id": 110052, "role": "creator", "role_id": 968, "is_primary": true}], "also_known_as": "", "date_of_birth": "", "date_of_death": "", "genders": [], "languages": [], "places_of_operation": [], "biography": "", "biography_author": null, "date_of_biography": "2023-08-11T13:12:15.222457+10:00", "external_links": [], "uuid": "86446dd3-d729-48d8-bf76-a87b0fd015a5", "source": {"name": "Vernon", "slug": "vernon"}, "source_identifier": "2583", "external_references": [], "date_modified": "2025-03-05T10:57:20.462775+11:00"}]}