{"count": 28687, "next": "https://api.acmi.net.au/creators/?page=1624", "previous": "https://api.acmi.net.au/creators/?page=1622", "results": [{"id": 30424, "name": "Simon Barnett", "roles_in_work": [{"id": 2405306, "title": "Critical incidents and trauma: response and recovery (for staff)", "work_id": 88305, "role": "producer", "role_id": 1089, "is_primary": true}, {"id": 1809080, "title": "Critical incidents and trauma: promoting recovery through effective management (for managers)", "work_id": 88307, "role": "producer", "role_id": 1089, "is_primary": true}], "also_known_as": "", "date_of_birth": "", "date_of_death": "", "genders": [], "languages": [], "places_of_operation": [], "biography": "", "biography_author": null, "date_of_biography": "2023-08-11T15:49:54.094619+10:00", "external_links": [], "uuid": "796b4f1c-9d16-47e5-b4a3-d089d73525dc", "source": {"name": "Vernon", "slug": "vernon"}, "source_identifier": "28835", "external_references": [], "date_modified": "2023-08-11T15:49:54.094867+10:00"}, {"id": 30423, "name": "Harcroft Consulting Group", "roles_in_work": [{"id": 873601, "title": "Critical incidents and trauma: promoting recovery through effective management (for managers)", "work_id": 88307, "role": "production company", "role_id": 941, "is_primary": true}, {"id": 2405305, "title": "Critical incidents and trauma: response and recovery (for staff)", "work_id": 88305, "role": "production company", "role_id": 941, "is_primary": true}], "also_known_as": "", "date_of_birth": "", "date_of_death": "", "genders": [], "languages": [], "places_of_operation": [], "biography": "", "biography_author": null, "date_of_biography": "2023-08-11T15:49:53.400543+10:00", "external_links": [], "uuid": "b7941b5b-4944-4bad-9a8b-788437658991", "source": {"name": "Vernon", "slug": "vernon"}, "source_identifier": "8991", "external_references": [], "date_modified": "2023-08-11T15:49:53.400770+10:00"}, {"id": 30420, "name": "Planet Ocean", "roles_in_work": [{"id": 2464891, "title": "Planet ocean", "work_id": 88303, "role": "production company", "role_id": 941, "is_primary": true}], "also_known_as": "", "date_of_birth": "", "date_of_death": "", "genders": [], "languages": [], "places_of_operation": [], "biography": "", "biography_author": null, "date_of_biography": "2023-08-14T10:21:56.011306+10:00", "external_links": [], "uuid": "4aaa7de2-dd83-4159-b395-37b40bdb705e", "source": {"name": "Vernon", "slug": "vernon"}, "source_identifier": "11513", "external_references": [], "date_modified": "2023-08-14T10:21:56.011690+10:00"}, {"id": 30418, "name": "Big Time Media", "roles_in_work": [{"id": 2465908, "title": "Small pond : funky frogs collect stamps", "work_id": 88301, "role": "production company", "role_id": 941, "is_primary": true}], "also_known_as": "", "date_of_birth": "", "date_of_death": "", "genders": [], "languages": [], "places_of_operation": [], "biography": "", "biography_author": null, "date_of_biography": "2023-08-14T10:45:06.515053+10:00", "external_links": [], "uuid": "bb900445-a3a5-4206-9667-e64bae8f9fb6", "source": {"name": "Vernon", "slug": "vernon"}, "source_identifier": "5851", "external_references": [], "date_modified": "2023-08-14T10:45:06.515393+10:00"}, {"id": 30414, "name": "Mary S. Fisher", "roles_in_work": [{"id": 3086863, "title": "This is Robert", "work_id": 88285, "role": "director", "role_id": 938, "is_primary": true}], "also_known_as": "", "date_of_birth": "", "date_of_death": "", "genders": [], "languages": [], "places_of_operation": [], "biography": "", "biography_author": null, "date_of_biography": "2023-08-11T13:07:41.388212+10:00", "external_links": [], "uuid": "e6f694f2-9c62-45c3-9ced-a4a2f8f3ea4f", "source": {"name": "Vernon", "slug": "vernon"}, "source_identifier": "32624", "external_references": [], "date_modified": "2025-03-17T10:46:08.844405+11:00"}, {"id": 30409, "name": "Duncan Ross", "roles_in_work": [{"id": 1804767, "title": "China clay", "work_id": 90857, "role": "producer", "role_id": 1089, "is_primary": true}, {"id": 2405127, "title": "Country homes", "work_id": 88277, "role": "producer", "role_id": 1089, "is_primary": true}], "also_known_as": "", "date_of_birth": "", "date_of_death": "", "genders": [], "languages": [], "places_of_operation": [], "biography": "", "biography_author": null, "date_of_biography": "2023-08-11T15:46:34.519888+10:00", "external_links": [], "uuid": "13f44d45-36e6-4239-b52e-d2554c99b2f5", "source": {"name": "Vernon", "slug": "vernon"}, "source_identifier": "18465", "external_references": [], "date_modified": "2023-08-11T15:46:34.520119+10:00"}, {"id": 30408, "name": "Central Office of Information for the Idustry of Health", "roles_in_work": [{"id": 2405126, "title": "Country homes", "work_id": 88277, "role": "production company", "role_id": 941, "is_primary": true}], "also_known_as": "", "date_of_birth": "", "date_of_death": "", "genders": [], "languages": [], "places_of_operation": [], "biography": "", "biography_author": null, "date_of_biography": "2023-08-11T15:46:33.892069+10:00", "external_links": [], "uuid": "01923723-198b-4d9d-9ad3-b3f2c92600f5", "source": {"name": "Vernon", "slug": "vernon"}, "source_identifier": "6422", "external_references": [], "date_modified": "2023-08-11T15:46:33.892380+10:00"}, {"id": 30406, "name": "Maurice Groen", "roles_in_work": [{"id": 2402657, "title": "Birth of a Florida key", "work_id": 88272, "role": "producer", "role_id": 1089, "is_primary": true}], "also_known_as": "", "date_of_birth": "", "date_of_death": "", "genders": [], "languages": [], "places_of_operation": [], "biography": "", "biography_author": null, "date_of_biography": "2023-08-11T14:51:33.945707+10:00", "external_links": [], "uuid": "d1cfe236-58a2-4e9d-ae6d-923f555fb767", "source": {"name": "Vernon", "slug": "vernon"}, "source_identifier": "24848", "external_references": [], "date_modified": "2023-08-11T14:51:33.945941+10:00"}, {"id": 30405, "name": "DPM Productions", "roles_in_work": [{"id": 2402656, "title": "Birth of a Florida key", "work_id": 88272, "role": "production company", "role_id": 941, "is_primary": true}], "also_known_as": "", "date_of_birth": "", "date_of_death": "", "genders": [], "languages": [], "places_of_operation": [], "biography": "", "biography_author": null, "date_of_biography": "2023-08-11T14:51:33.323026+10:00", "external_links": [], "uuid": "4c262288-b583-4e0c-a7dd-477d96792eb8", "source": {"name": "Vernon", "slug": "vernon"}, "source_identifier": "7659", "external_references": [], "date_modified": "2023-08-11T14:51:33.323348+10:00"}, {"id": 30403, "name": "Radio Televisione Svizzera Italiana (RTSI)", "roles_in_work": [{"id": 2248502, "title": "Renzo piano: piece by piece", "work_id": 88270, "role": "production company", "role_id": 941, "is_primary": true}, {"id": 2269248, "title": "Turandot", "work_id": 95380, "role": "production company", "role_id": 941, "is_primary": true}, {"id": 818661, "title": "The Secret life of Sergei Eisenstien", "work_id": 94156, "role": "production company", "role_id": 941, "is_primary": true}], "also_known_as": "", "date_of_birth": "", "date_of_death": "", "genders": [], "languages": [], "places_of_operation": [], "biography": "", "biography_author": null, "date_of_biography": "2023-05-09T17:42:52.539112+10:00", "external_links": [], "uuid": "ad9b3164-52a0-46d0-8a22-1633aaae80d2", "source": {"name": "Vernon", "slug": "vernon"}, "source_identifier": "11829", "external_references": [{"id": 32722, "source": {"name": "Wikidata", "slug": "wikidata"}, "source_identifier": "Q121270949"}], "date_modified": "2023-09-06T00:18:23.417954+10:00"}]}