{"count": 28687, "next": "https://api.acmi.net.au/creators/?page=2416", "previous": "https://api.acmi.net.au/creators/?page=2414", "results": [{"id": 14966, "name": "Don Charlton", "roles_in_work": [{"id": 2645103, "title": "Hospital accident prevention: how to survive the working day", "work_id": 68559, "role": "producer", "role_id": 1089, "is_primary": true}, {"id": 2645106, "title": "Hospital evacuation and you", "work_id": 68560, "role": "producer", "role_id": 1089, "is_primary": true}, {"id": 2713674, "title": "Fire danger in hospital", "work_id": 67530, "role": "producer/director", "role_id": 31, "is_primary": true}], "also_known_as": "", "date_of_birth": "", "date_of_death": "", "genders": [], "languages": [], "places_of_operation": [], "biography": "", "biography_author": null, "date_of_biography": "2023-08-11T17:30:33.762698+10:00", "external_links": [], "uuid": "e57017a6-3b47-4d6b-a5d4-460326520e19", "source": {"name": "Vernon", "slug": "vernon"}, "source_identifier": "18195", "external_references": [], "date_modified": "2025-03-12T00:50:08.230543+11:00"}, {"id": 14965, "name": "Consort Films", "roles_in_work": [{"id": 2645102, "title": "Hospital accident prevention: how to survive the working day", "work_id": 68559, "role": "production company", "role_id": 941, "is_primary": true}, {"id": 2713673, "title": "Fire danger in hospital", "work_id": 67530, "role": "production company", "role_id": 941, "is_primary": true}, {"id": 2645105, "title": "Hospital evacuation and you", "work_id": 68560, "role": "production company", "role_id": 941, "is_primary": true}], "also_known_as": "", "date_of_birth": "", "date_of_death": "", "genders": [], "languages": [], "places_of_operation": [], "biography": "", "biography_author": null, "date_of_biography": "2023-08-11T17:30:33.128191+10:00", "external_links": [], "uuid": "b6602cf4-c35e-4182-beef-3ecfde22f5b2", "source": {"name": "Vernon", "slug": "vernon"}, "source_identifier": "7022", "external_references": [], "date_modified": "2025-03-12T00:50:07.624713+11:00"}, {"id": 14964, "name": "A.E.C. Hopkins", "roles_in_work": [{"id": 860984, "title": "The Work of Kew gardens", "work_id": 74884, "role": "director", "role_id": 938, "is_primary": true}, {"id": 2713672, "title": "Fire chemistry", "work_id": 67528, "role": "director", "role_id": 938, "is_primary": true}, {"id": 2762871, "title": "Dimensional co-ordination", "work_id": 69380, "role": "director", "role_id": 938, "is_primary": true}], "also_known_as": "", "date_of_birth": "", "date_of_death": "", "genders": [], "languages": [], "places_of_operation": [], "biography": "", "biography_author": null, "date_of_biography": "2023-08-11T16:38:15.511495+10:00", "external_links": [], "uuid": "a2ab1d84-fc38-49c8-afbe-99c1aa443d4a", "source": {"name": "Vernon", "slug": "vernon"}, "source_identifier": "14586", "external_references": [], "date_modified": "2025-03-14T17:39:42.600278+11:00"}, {"id": 14963, "name": "Helen Wiggins Films", "roles_in_work": [{"id": 860983, "title": "The Work of Kew gardens", "work_id": 74884, "role": "production company", "role_id": 941, "is_primary": true}, {"id": 2713671, "title": "Fire chemistry", "work_id": 67528, "role": "production company", "role_id": 941, "is_primary": true}, {"id": 2762868, "title": "Dimensional co-ordination", "work_id": 69380, "role": "production company", "role_id": 941, "is_primary": true}], "also_known_as": "", "date_of_birth": "", "date_of_death": "", "genders": [], "languages": [], "places_of_operation": [], "biography": "", "biography_author": null, "date_of_biography": "2023-08-11T16:38:14.885065+10:00", "external_links": [], "uuid": "f5dd5e22-1554-4b04-b5fe-6c09cecb4725", "source": {"name": "Vernon", "slug": "vernon"}, "source_identifier": "9059", "external_references": [], "date_modified": "2025-03-14T17:39:42.023459+11:00"}, {"id": 14961, "name": "Joan Boundy", "roles_in_work": [{"id": 2392045, "title": "Richard Takes a Train Ride", "work_id": 72220, "role": "director", "role_id": 938, "is_primary": true}, {"id": 2391964, "title": "Our Policemen", "work_id": 71256, "role": "director", "role_id": 938, "is_primary": true}, {"id": 2645434, "title": "Let's look at railways", "work_id": 69619, "role": "director", "role_id": 938, "is_primary": true}, {"id": 2391962, "title": "Junior social studies. No. 4. Our firemen", "work_id": 71243, "role": "director", "role_id": 938, "is_primary": true}, {"id": 2713668, "title": "The Fire brigade", "work_id": 67526, "role": "director", "role_id": 938, "is_primary": true}, {"id": 2716179, "title": "In harbour", "work_id": 68818, "role": "director", "role_id": 938, "is_primary": true}], "also_known_as": "", "date_of_birth": "", "date_of_death": "", "genders": [], "languages": [], "places_of_operation": [], "biography": "", "biography_author": null, "date_of_biography": "2023-08-09T03:49:53.300430+10:00", "external_links": [], "uuid": "803a45df-0ae1-479d-ac51-4008f0b02842", "source": {"name": "Vernon", "slug": "vernon"}, "source_identifier": "21963", "external_references": [{"id": 35547, "source": {"name": "Wikidata", "slug": "wikidata"}, "source_identifier": "Q121079056"}], "date_modified": "2025-03-12T01:51:09.426591+11:00"}, {"id": 14960, "name": "Bruce Norman", "roles_in_work": [{"id": 2761488, "title": "Fire", "work_id": 67525, "role": "producer", "role_id": 1089, "is_primary": true}], "also_known_as": "", "date_of_birth": "", "date_of_death": "", "genders": [], "languages": [], "places_of_operation": [], "biography": "", "biography_author": null, "date_of_biography": "2023-05-09T19:54:10.148865+10:00", "external_links": [], "uuid": "138b01ba-8365-45e2-ab24-9c522055e34b", "source": {"name": "Vernon", "slug": "vernon"}, "source_identifier": "16326", "external_references": [], "date_modified": "2025-03-14T17:33:50.072339+11:00"}, {"id": 14959, "name": "Johannes Hempel", "roles_in_work": [{"id": 2713664, "title": "Fips the trouble maker", "work_id": 67524, "role": "director", "role_id": 938, "is_primary": true}], "also_known_as": "", "date_of_birth": "", "date_of_death": "", "genders": [], "languages": [], "places_of_operation": [], "biography": "", "biography_author": null, "date_of_biography": "2023-08-11T16:38:10.037942+10:00", "external_links": [], "uuid": "74433fbe-d382-4b7a-8f59-3be7dc32e296", "source": {"name": "Vernon", "slug": "vernon"}, "source_identifier": "22083", "external_references": [], "date_modified": "2025-03-12T00:50:02.149314+11:00"}, {"id": 14958, "name": "DEFA Studio", "roles_in_work": [{"id": 2713663, "title": "Fips the trouble maker", "work_id": 67524, "role": "production company", "role_id": 941, "is_primary": true}, {"id": 821192, "title": "The Satiric eye", "work_id": 94808, "role": "production company", "role_id": 941, "is_primary": true}], "also_known_as": "", "date_of_birth": "", "date_of_death": "", "genders": [], "languages": [], "places_of_operation": [], "biography": "", "biography_author": null, "date_of_biography": "2023-08-11T16:38:09.305547+10:00", "external_links": [], "uuid": "ca183164-a967-4585-ac13-56690f265f53", "source": {"name": "Vernon", "slug": "vernon"}, "source_identifier": "7381", "external_references": [], "date_modified": "2025-03-12T00:50:01.540057+11:00"}, {"id": 14957, "name": "Ulf Backstrom", "roles_in_work": [{"id": 2713661, "title": "Finland designs for living", "work_id": 67522, "role": "director", "role_id": 938, "is_primary": true}, {"id": 2752846, "title": "Simple machines: inclined planes and levers (3rd edition)", "work_id": 98486, "role": "producer", "role_id": 1089, "is_primary": true}], "also_known_as": "", "date_of_birth": "", "date_of_death": "", "genders": [], "languages": [], "places_of_operation": [], "biography": "", "biography_author": null, "date_of_biography": "2023-08-11T16:38:03.407306+10:00", "external_links": [], "uuid": "6f910fa2-8d23-4c28-a155-58cf5f1cfea5", "source": {"name": "Vernon", "slug": "vernon"}, "source_identifier": "30018", "external_references": [], "date_modified": "2025-03-13T01:13:01.823995+11:00"}, {"id": 14956, "name": "Allotria films", "roles_in_work": [{"id": 2713660, "title": "Finland designs for living", "work_id": 67522, "role": "production company", "role_id": 941, "is_primary": true}], "also_known_as": "", "date_of_birth": "", "date_of_death": "", "genders": [], "languages": [], "places_of_operation": [], "biography": "", "biography_author": null, "date_of_biography": "2023-08-11T16:38:02.772035+10:00", "external_links": [], "uuid": "a1a4d6d0-1486-4014-90f8-9fc5fcd3702e", "source": {"name": "Vernon", "slug": "vernon"}, "source_identifier": "5151", "external_references": [], "date_modified": "2025-03-12T00:48:12.637643+11:00"}]}