{"count": 28687, "next": "https://api.acmi.net.au/creators/?page=175", "previous": "https://api.acmi.net.au/creators/?page=173", "results": [{"id": 83867, "name": "Jean Cussen", "roles_in_work": [{"id": 2658436, "title": "1946 : my first year nursing", "work_id": 117180, "role": "creator", "role_id": 968, "is_primary": true}], "also_known_as": "", "date_of_birth": "", "date_of_death": "", "genders": [{"id": 5, "name": "Female", "slug": "female"}], "languages": [], "places_of_operation": [], "biography": "", "biography_author": null, "date_of_biography": "2023-05-09T16:48:10.361822+10:00", "external_links": [], "uuid": "4efc0d75-726e-420b-aa5f-c0e2276627ee", "source": {"name": "Vernon", "slug": "vernon"}, "source_identifier": "35600", "external_references": [], "date_modified": "2025-03-05T17:39:09.768369+11:00"}, {"id": 83866, "name": "Amanda Jurisic", "roles_in_work": [{"id": 2658345, "title": "Life will never be the same", "work_id": 117170, "role": "creator", "role_id": 968, "is_primary": true}], "also_known_as": "", "date_of_birth": "", "date_of_death": "", "genders": [{"id": 5, "name": "Female", "slug": "female"}], "languages": [], "places_of_operation": [], "biography": "", "biography_author": null, "date_of_biography": "2023-05-09T19:03:46.205262+10:00", "external_links": [], "uuid": "87ceb6b0-1644-4f8b-b0e6-aea29dbd0551", "source": {"name": "Vernon", "slug": "vernon"}, "source_identifier": "35591", "external_references": [], "date_modified": "2025-03-05T17:38:08.052960+11:00"}, {"id": 83865, "name": "Dmitry Schukin", "roles_in_work": [{"id": 2658372, "title": "Street kids", "work_id": 117178, "role": "creator", "role_id": 968, "is_primary": true}], "also_known_as": "", "date_of_birth": "", "date_of_death": "", "genders": [{"id": 9, "name": "Male", "slug": "male"}], "languages": [], "places_of_operation": [], "biography": "", "biography_author": null, "date_of_biography": "2023-05-09T19:03:41.747371+10:00", "external_links": [], "uuid": "9b93765d-c66c-4c04-8553-c90102d950f2", "source": {"name": "Vernon", "slug": "vernon"}, "source_identifier": "35593", "external_references": [], "date_modified": "2025-03-05T17:38:26.492907+11:00"}, {"id": 83864, "name": "Matthew Hunt", "roles_in_work": [{"id": 2658380, "title": "Ride", "work_id": 117177, "role": "creator", "role_id": 968, "is_primary": true}], "also_known_as": "", "date_of_birth": "", "date_of_death": "", "genders": [{"id": 9, "name": "Male", "slug": "male"}], "languages": [], "places_of_operation": [], "biography": "", "biography_author": null, "date_of_biography": "2023-05-09T19:03:36.044058+10:00", "external_links": [], "uuid": "9b6b8d8d-f4cc-46d6-820e-bce39ac216f0", "source": {"name": "Vernon", "slug": "vernon"}, "source_identifier": "35595", "external_references": [], "date_modified": "2025-03-05T17:38:32.030795+11:00"}, {"id": 83863, "name": "Yasmin Blyth", "roles_in_work": [{"id": 2658392, "title": "One day at the park", "work_id": 117176, "role": "creator", "role_id": 968, "is_primary": true}], "also_known_as": "", "date_of_birth": "", "date_of_death": "", "genders": [{"id": 5, "name": "Female", "slug": "female"}], "languages": [], "places_of_operation": [], "biography": "", "biography_author": null, "date_of_biography": "2023-05-10T03:35:24.193468+10:00", "external_links": [], "uuid": "79a095ec-a8aa-48eb-9101-209cecd45c89", "source": {"name": "Vernon", "slug": "vernon"}, "source_identifier": "35598", "external_references": [], "date_modified": "2025-03-05T17:38:40.377954+11:00"}, {"id": 83862, "name": "Sarah Mifsud", "roles_in_work": [{"id": 2658384, "title": "On a Sunday he went fishing", "work_id": 117175, "role": "creator", "role_id": 968, "is_primary": true}], "also_known_as": "", "date_of_birth": "", "date_of_death": "", "genders": [{"id": 5, "name": "Female", "slug": "female"}], "languages": [], "places_of_operation": [], "biography": "", "biography_author": null, "date_of_biography": "2023-05-09T19:03:44.839642+10:00", "external_links": [], "uuid": "d95587fe-9c27-470a-b57b-2e051e0f07b0", "source": {"name": "Vernon", "slug": "vernon"}, "source_identifier": "35596", "external_references": [], "date_modified": "2025-03-05T17:38:34.841656+11:00"}, {"id": 83861, "name": "Christiana Dumitru", "roles_in_work": [{"id": 2658368, "title": "Just say no", "work_id": 117174, "role": "creator", "role_id": 968, "is_primary": true}], "also_known_as": "", "date_of_birth": "", "date_of_death": "", "genders": [{"id": 5, "name": "Female", "slug": "female"}], "languages": [], "places_of_operation": [], "biography": "", "biography_author": null, "date_of_biography": "2023-05-09T19:03:30.022136+10:00", "external_links": [], "uuid": "49579407-724c-4068-aeee-6b21499883d2", "source": {"name": "Vernon", "slug": "vernon"}, "source_identifier": "35592", "external_references": [], "date_modified": "2025-03-05T17:38:23.732551+11:00"}, {"id": 83860, "name": "Harley Van Belkolm", "roles_in_work": [{"id": 2658376, "title": "BMX is life", "work_id": 117173, "role": "creator", "role_id": 968, "is_primary": true}], "also_known_as": "", "date_of_birth": "", "date_of_death": "", "genders": [{"id": 9, "name": "Male", "slug": "male"}], "languages": [], "places_of_operation": [], "biography": "", "biography_author": null, "date_of_biography": "2023-05-09T19:03:40.270443+10:00", "external_links": [], "uuid": "4aaf962f-56c0-4b3b-8967-cd75bf3692be", "source": {"name": "Vernon", "slug": "vernon"}, "source_identifier": "35594", "external_references": [], "date_modified": "2025-03-05T17:38:29.258159+11:00"}, {"id": 83859, "name": "Tyson Cunningham", "roles_in_work": [{"id": 2658388, "title": "Becoming me", "work_id": 117172, "role": "creator", "role_id": 968, "is_primary": true}], "also_known_as": "", "date_of_birth": "", "date_of_death": "", "genders": [{"id": 9, "name": "Male", "slug": "male"}], "languages": [], "places_of_operation": [], "biography": "", "biography_author": null, "date_of_biography": "2023-05-09T19:03:43.285441+10:00", "external_links": [], "uuid": "16e3568e-a627-43af-bbb5-fb25ad67fa87", "source": {"name": "Vernon", "slug": "vernon"}, "source_identifier": "35597", "external_references": [], "date_modified": "2025-03-05T17:38:37.602720+11:00"}, {"id": 83858, "name": "Sue Freeth", "roles_in_work": [{"id": 2658307, "title": "May's story", "work_id": 117169, "role": "creator", "role_id": 968, "is_primary": true}], "also_known_as": "", "date_of_birth": "", "date_of_death": "", "genders": [{"id": 5, "name": "Female", "slug": "female"}], "languages": [], "places_of_operation": [], "biography": "", "biography_author": null, "date_of_biography": "2023-05-09T16:23:31.552475+10:00", "external_links": [], "uuid": "8d1c73fc-06c9-4e9e-85e6-67f35d34a377", "source": {"name": "Vernon", "slug": "vernon"}, "source_identifier": "35565", "external_references": [], "date_modified": "2025-03-05T17:37:37.138677+11:00"}]}