{"count": 28687, "next": "https://api.acmi.net.au/creators/?page=2753", "previous": "https://api.acmi.net.au/creators/?page=2751", "results": [{"id": 10704, "name": "Andrew Lowenthal", "roles_in_work": [{"id": 2637469, "title": "Telestreet: the Italian Media Jacking Movement", "work_id": 109742, "role": "creator", "role_id": 968, "is_primary": true}], "also_known_as": "", "date_of_birth": "", "date_of_death": "", "genders": [], "languages": [], "places_of_operation": [], "biography": "", "biography_author": null, "date_of_biography": "2023-05-09T14:12:06.219717+10:00", "external_links": [], "uuid": "563f014f-b4de-4da3-ba6c-cc880db38c1b", "source": {"name": "Vernon", "slug": "vernon"}, "source_identifier": "2359", "external_references": [], "date_modified": "2025-03-05T10:47:13.824935+11:00"}, {"id": 10703, "name": "Suzy Bates", "roles_in_work": [{"id": 2637468, "title": "Deadly Treadlies: out bush", "work_id": 109741, "role": "editor", "role_id": 918, "is_primary": true}, {"id": 2637467, "title": "Deadly Treadlies: out bush", "work_id": 109741, "role": "producer", "role_id": 1089, "is_primary": true}], "also_known_as": "", "date_of_birth": "", "date_of_death": "", "genders": [], "languages": [], "places_of_operation": [], "biography": "", "biography_author": null, "date_of_biography": "2023-05-09T14:12:07.827473+10:00", "external_links": [], "uuid": "af03a646-e919-4f1f-90a5-363dfb4606b4", "source": {"name": "Vernon", "slug": "vernon"}, "source_identifier": "2358", "external_references": [{"id": 37957, "source": {"name": "Wikidata", "slug": "wikidata"}, "source_identifier": "Q121222757"}], "date_modified": "2025-03-05T10:47:12.342731+11:00"}, {"id": 10701, "name": "Brian Doyle", "roles_in_work": [{"id": 2637454, "title": "The Light", "work_id": 109739, "role": "creator", "role_id": 968, "is_primary": true}], "also_known_as": "", "date_of_birth": "1973", "date_of_death": "", "genders": [{"id": 9, "name": "Male", "slug": "male"}], "languages": [], "places_of_operation": [], "biography": "Brian Doyle works in video, installation and photography, producing semi-fictionalised documentaries.  Since graduating with a Master of Fine Arts (MFA) from the School of the Art Institute of Chicago, Doyle has exhibited his work in galleries, museums, film festivals and on television throughout America and Europe.  He garnered the Special Jury Prize at the New York Underground Film Festival, 2002; Best Experimental Film from the Chicago Underground Film Festival, 2003; and a nomination for the Werkleitz Project Grant from the Kasseler Dokumentarfilm & Videofest, Kassel, 2003.  Doyle lives and works in New York.\n\n(SW 30.03.05)", "biography_author": null, "date_of_biography": "2025-03-05T10:46:55.058807+11:00", "external_links": [], "uuid": "fee89d8a-975a-4eab-bb4d-9acc34a16d01", "source": {"name": "Vernon", "slug": "vernon"}, "source_identifier": "2355", "external_references": [], "date_modified": "2025-03-05T10:46:55.059083+11:00"}, {"id": 10693, "name": "Advanced Diploma of Multimedia (ADoM), RMIT", "roles_in_work": [{"id": 2641010, "title": "Dreaming", "work_id": 110417, "role": "production company", "role_id": 941, "is_primary": true}, {"id": 2641024, "title": "RMIT ADoM compilation 2005-2006", "work_id": 110418, "role": "production company", "role_id": 941, "is_primary": true}, {"id": 2641004, "title": "The City", "work_id": 110421, "role": "production company", "role_id": 941, "is_primary": true}, {"id": 2641016, "title": "Willow", "work_id": 110423, "role": "production company", "role_id": 941, "is_primary": true}, {"id": 2641022, "title": "Yue", "work_id": 110422, "role": "production company", "role_id": 941, "is_primary": true}, {"id": 2643281, "title": "3000", "work_id": 111122, "role": "production facilities", "role_id": 442, "is_primary": false}, {"id": 2637452, "title": "Albe's Alphabet", "work_id": 109737, "role": "production location", "role_id": 514, "is_primary": false}], "also_known_as": "", "date_of_birth": "", "date_of_death": "", "genders": [], "languages": [], "places_of_operation": [], "biography": "", "biography_author": null, "date_of_biography": "2023-08-11T12:46:31.908065+10:00", "external_links": [], "uuid": "64498a1f-48cb-4dc6-b038-26f52d6e1398", "source": {"name": "Vernon", "slug": "vernon"}, "source_identifier": "2347", "external_references": [], "date_modified": "2025-03-05T11:55:36.433113+11:00"}, {"id": 10692, "name": "Lauren Barker", "roles_in_work": [{"id": 2637451, "title": "Albe's Alphabet", "work_id": 109737, "role": "creator", "role_id": 968, "is_primary": true}], "also_known_as": "", "date_of_birth": null, "date_of_death": null, "genders": [{"id": 5, "name": "Female", "slug": "female"}], "languages": [], "places_of_operation": [], "biography": "", "biography_author": null, "date_of_biography": null, "external_links": [], "uuid": "f8c199ff-9546-49a3-8bb6-d0f8587dd89f", "source": {"name": "Vernon", "slug": "vernon"}, "source_identifier": "2346", "external_references": [], "date_modified": "2025-03-05T10:46:52.082386+11:00"}, {"id": 10691, "name": "Des Wittingslow", "roles_in_work": [{"id": 2637450, "title": "Moomba belonged to my grandfather", "work_id": 109736, "role": "creator", "role_id": 968, "is_primary": true}], "also_known_as": "", "date_of_birth": "", "date_of_death": "", "genders": [{"id": 9, "name": "Male", "slug": "male"}], "languages": [], "places_of_operation": [], "biography": "", "biography_author": null, "date_of_biography": "2023-08-14T09:53:25.873743+10:00", "external_links": [], "uuid": "64ba13d9-b093-4f6a-8a48-32b46656169a", "source": {"name": "Vernon", "slug": "vernon"}, "source_identifier": "2345", "external_references": [], "date_modified": "2025-03-05T10:46:50.881833+11:00"}, {"id": 10690, "name": "Ivan Pope", "roles_in_work": [{"id": 2637449, "title": "Memories", "work_id": 109735, "role": "creator", "role_id": 968, "is_primary": true}], "also_known_as": "", "date_of_birth": "", "date_of_death": "", "genders": [{"id": 9, "name": "Male", "slug": "male"}], "languages": [], "places_of_operation": [], "biography": "", "biography_author": null, "date_of_biography": "2023-08-14T09:53:35.877055+10:00", "external_links": [], "uuid": "313df61e-ec26-45db-b1f6-43642a40f508", "source": {"name": "Vernon", "slug": "vernon"}, "source_identifier": "2344", "external_references": [], "date_modified": "2025-03-05T10:46:49.383713+11:00"}, {"id": 10689, "name": "Fay Chapman", "roles_in_work": [{"id": 2637448, "title": "Fay's story", "work_id": 109734, "role": "creator", "role_id": 968, "is_primary": true}], "also_known_as": "", "date_of_birth": "", "date_of_death": "", "genders": [{"id": 5, "name": "Female", "slug": "female"}], "languages": [], "places_of_operation": [], "biography": "", "biography_author": null, "date_of_biography": "2023-08-14T09:53:32.715821+10:00", "external_links": [], "uuid": "339f2bdc-ec94-4e1c-bac9-2550ad4908a3", "source": {"name": "Vernon", "slug": "vernon"}, "source_identifier": "2343", "external_references": [], "date_modified": "2025-03-05T10:46:47.887396+11:00"}, {"id": 10688, "name": "Sarah Bond", "roles_in_work": [{"id": 2637446, "title": "Moom", "work_id": 109732, "role": "creator", "role_id": 968, "is_primary": true}], "also_known_as": "", "date_of_birth": "", "date_of_death": "", "genders": [{"id": 5, "name": "Female", "slug": "female"}], "languages": [], "places_of_operation": [], "biography": "", "biography_author": null, "date_of_biography": "2023-08-14T09:53:31.127663+10:00", "external_links": [], "uuid": "bb664baf-a128-4209-b328-9d3704cd0297", "source": {"name": "Vernon", "slug": "vernon"}, "source_identifier": "2341", "external_references": [], "date_modified": "2025-03-05T10:46:44.859617+11:00"}, {"id": 10687, "name": "George Abel", "roles_in_work": [{"id": 2637445, "title": "Memories of a Birdman", "work_id": 109731, "role": "creator", "role_id": 968, "is_primary": true}], "also_known_as": "", "date_of_birth": "", "date_of_death": "", "genders": [{"id": 9, "name": "Male", "slug": "male"}], "languages": [], "places_of_operation": [], "biography": "", "biography_author": null, "date_of_biography": "2023-08-14T09:53:34.321306+10:00", "external_links": [], "uuid": "3258a5f0-e7c6-4f78-ab2c-485ec35600a1", "source": {"name": "Vernon", "slug": "vernon"}, "source_identifier": "2337", "external_references": [], "date_modified": "2025-03-05T10:46:43.345580+11:00"}]}