{"count": 28687, "next": "https://api.acmi.net.au/creators/?page=2073", "previous": "https://api.acmi.net.au/creators/?page=2071", "results": [{"id": 21124, "name": "Esso Australia", "roles_in_work": [{"id": 2401691, "title": "Australian Energy Outlook", "work_id": 78203, "role": "production company", "role_id": 941, "is_primary": true}], "also_known_as": "", "date_of_birth": "", "date_of_death": "", "genders": [], "languages": [], "places_of_operation": [], "biography": "", "biography_author": null, "date_of_biography": "2023-08-11T14:29:57.113443+10:00", "external_links": [], "uuid": "758dcac3-b5d1-4e14-9a28-fc2301a2ca99", "source": {"name": "Vernon", "slug": "vernon"}, "source_identifier": "7975", "external_references": [], "date_modified": "2023-08-11T14:29:57.113836+10:00"}, {"id": 21123, "name": "Richard Need Productions", "roles_in_work": [{"id": 2648077, "title": "The Floor is yours (TEFC)", "work_id": 78202, "role": "production company", "role_id": 941, "is_primary": true}], "also_known_as": "", "date_of_birth": null, "date_of_death": null, "genders": [], "languages": [], "places_of_operation": [], "biography": "", "biography_author": null, "date_of_biography": null, "external_links": [], "uuid": "70cad531-d5f6-4e2e-ba3f-919108374392", "source": {"name": "Vernon", "slug": "vernon"}, "source_identifier": "12017", "external_references": [], "date_modified": "2025-03-05T13:37:41.658410+11:00"}, {"id": 21122, "name": "Leeds Animation Workshop", "roles_in_work": [{"id": 766512, "title": "Give us a smile", "work_id": 78200, "role": "production company", "role_id": 941, "is_primary": true}, {"id": 2754719, "title": "Risky business", "work_id": 99324, "role": "production company", "role_id": 941, "is_primary": true}], "also_known_as": "", "date_of_birth": null, "date_of_death": null, "genders": [], "languages": [], "places_of_operation": [], "biography": "", "biography_author": null, "date_of_biography": null, "external_links": [], "uuid": "f0b43750-ec45-4397-b033-554783833537", "source": {"name": "Vernon", "slug": "vernon"}, "source_identifier": "9962", "external_references": [], "date_modified": "2025-03-13T01:50:18.752404+11:00"}, {"id": 21117, "name": "Michael Barnes", "roles_in_work": [{"id": 898137, "title": "In the mind of a murderer Pt .2", "work_id": 78204, "role": "co-producer", "role_id": 915, "is_primary": true}, {"id": 898129, "title": "In the mind of a murderer Pt.1", "work_id": 78198, "role": "co-producer", "role_id": 915, "is_primary": true}, {"id": 2750990, "title": "Jane Fonda", "work_id": 97608, "role": "producer", "role_id": 1089, "is_primary": true}, {"id": 1806895, "title": "Willingly to school (TEFC)", "work_id": 80436, "role": "producer", "role_id": 1089, "is_primary": true}], "also_known_as": "", "date_of_birth": null, "date_of_death": null, "genders": [], "languages": [], "places_of_operation": [], "biography": "", "biography_author": null, "date_of_biography": null, "external_links": [], "uuid": "e3a2201f-1ffa-4776-89bc-751328c69df8", "source": {"name": "Vernon", "slug": "vernon"}, "source_identifier": "24969", "external_references": [], "date_modified": "2025-03-13T00:35:11.694857+11:00"}, {"id": 21116, "name": "Shalagh McCarthy", "roles_in_work": [{"id": 2464414, "title": "Not just a number", "work_id": 78196, "role": "director", "role_id": 938, "is_primary": true}], "also_known_as": "", "date_of_birth": "", "date_of_death": "", "genders": [], "languages": [], "places_of_operation": [], "biography": "", "biography_author": null, "date_of_biography": "2023-08-14T10:11:44.820549+10:00", "external_links": [], "uuid": "05ce788f-f7f7-4f9e-b556-55d5378c310a", "source": {"name": "Vernon", "slug": "vernon"}, "source_identifier": "28702", "external_references": [], "date_modified": "2023-08-14T10:11:44.820907+10:00"}, {"id": 21115, "name": "Rob Richardson", "roles_in_work": [{"id": 2464413, "title": "Not just a number", "work_id": 78196, "role": "producer", "role_id": 1089, "is_primary": true}], "also_known_as": "", "date_of_birth": "", "date_of_death": "", "genders": [], "languages": [], "places_of_operation": [], "biography": "", "biography_author": null, "date_of_biography": "2023-08-14T10:11:44.148705+10:00", "external_links": [], "uuid": "310718e7-5f2a-40de-bc04-0c5c93c9553e", "source": {"name": "Vernon", "slug": "vernon"}, "source_identifier": "27610", "external_references": [], "date_modified": "2023-08-14T10:11:44.149060+10:00"}, {"id": 21114, "name": "Amalgamated Metal Workers and Shipwrights Union", "roles_in_work": [{"id": 2464412, "title": "Not just a number", "work_id": 78196, "role": "production company", "role_id": 941, "is_primary": true}], "also_known_as": "", "date_of_birth": "", "date_of_death": "", "genders": [], "languages": [], "places_of_operation": [], "biography": "", "biography_author": null, "date_of_biography": "2023-08-14T10:11:43.516299+10:00", "external_links": [], "uuid": "4bcb9f73-5e6f-4a19-b181-d862891d4b96", "source": {"name": "Vernon", "slug": "vernon"}, "source_identifier": "5173", "external_references": [], "date_modified": "2023-08-14T10:11:43.516611+10:00"}, {"id": 21113, "name": "John Hetherington", "roles_in_work": [{"id": 2756951, "title": "Beyond the edge: professionals at play", "work_id": 78195, "role": "director", "role_id": 938, "is_primary": true}], "also_known_as": "", "date_of_birth": "", "date_of_death": "", "genders": [], "languages": [], "places_of_operation": [], "biography": "", "biography_author": null, "date_of_biography": "2023-08-11T14:50:20.159330+10:00", "external_links": [], "uuid": "8042f9be-49d9-4ffb-b48a-4f01e2c00bab", "source": {"name": "Vernon", "slug": "vernon"}, "source_identifier": "22311", "external_references": [], "date_modified": "2025-03-13T14:42:29.071364+11:00"}, {"id": 21112, "name": "Alan Metcalfe", "roles_in_work": [{"id": 2756949, "title": "Beyond the edge: professionals at play", "work_id": 78195, "role": "producer", "role_id": 1089, "is_primary": true}], "also_known_as": "", "date_of_birth": "", "date_of_death": "", "genders": [], "languages": [], "places_of_operation": [], "biography": "", "biography_author": null, "date_of_biography": "2023-08-11T14:50:19.519019+10:00", "external_links": [], "uuid": "704469ba-a92b-43e5-bbc1-88bdad1189ec", "source": {"name": "Vernon", "slug": "vernon"}, "source_identifier": "14783", "external_references": [], "date_modified": "2025-03-13T14:42:28.494473+11:00"}, {"id": 21110, "name": "Tony Silver", "roles_in_work": [{"id": 2316563, "title": "Style wars", "work_id": 78194, "role": "director", "role_id": 938, "is_primary": true}, {"id": 2316558, "title": "Style wars", "work_id": 78194, "role": "co-producer", "role_id": 915, "is_primary": true}], "also_known_as": "", "date_of_birth": "1935-04-15", "date_of_death": "2018-02-01", "genders": [{"id": 9, "name": "Male", "slug": "male"}], "languages": [], "places_of_operation": [], "biography": "David Anthony \"Tony\" Silver (April 15, 1935 – February 1, 2008) was an American documentary filmmaker known for directing the film Style Wars.", "biography_author": "Wikidata", "date_of_biography": "2023-08-01T17:21:25.553579+10:00", "external_links": [{"id": 5294, "uri": "https://en.wikipedia.org/wiki/Tony_Silver"}], "uuid": "42044779-a368-441a-b572-e7e41c56fd2d", "source": {"name": "Vernon", "slug": "vernon"}, "source_identifier": "1618", "external_references": [{"id": 25206, "source": {"name": "Wikidata", "slug": "wikidata"}, "source_identifier": "Q112261973"}], "date_modified": "2023-09-06T01:56:43.621972+10:00"}]}