{"count": 28687, "next": "https://api.acmi.net.au/creators/?page=1918", "previous": "https://api.acmi.net.au/creators/?page=1916", "results": [{"id": 24175, "name": "Phillip Ashton Video", "roles_in_work": [{"id": 2465447, "title": "Salting the earth", "work_id": 81914, "role": "production company", "role_id": 941, "is_primary": true}], "also_known_as": "", "date_of_birth": "", "date_of_death": "", "genders": [], "languages": [], "places_of_operation": [], "biography": "", "biography_author": null, "date_of_biography": "2023-08-14T10:35:04.769859+10:00", "external_links": [], "uuid": "a27d38b7-c215-414e-82c9-f8678e4780cd", "source": {"name": "Vernon", "slug": "vernon"}, "source_identifier": "11452", "external_references": [], "date_modified": "2023-08-14T10:35:04.770289+10:00"}, {"id": 24174, "name": "Jeannot Szwarc", "roles_in_work": [{"id": 2305313, "title": "Somewhere in time", "work_id": 87848, "role": "director", "role_id": 938, "is_primary": true}, {"id": 2262746, "title": "Santa Claus: the movie", "work_id": 81912, "role": "director", "role_id": 938, "is_primary": true}], "also_known_as": "", "date_of_birth": "1939-11-21", "date_of_death": null, "genders": [{"id": 9, "name": "Male", "slug": "male"}], "languages": [{"id": 4, "name": "French", "slug": "french"}], "places_of_operation": [{"id": 17, "name": "France", "slug": "france"}], "biography": "Jeannot Szwarc (born November 21, 1939) is a director of film and television, known for such films as Jaws 2, Somewhere in Time, Supergirl and Santa Claus: The Movie. He has also produced and written for TV.", "biography_author": "Wikidata", "date_of_biography": "2022-05-19T11:56:15.921484+10:00", "external_links": [{"id": 2355, "uri": "https://en.wikipedia.org/wiki/Jeannot_Szwarc"}], "uuid": "86f0ce10-7cd3-46eb-b979-8500dc924089", "source": {"name": "Vernon", "slug": "vernon"}, "source_identifier": "21606", "external_references": [{"id": 10101, "source": {"name": "Wikidata", "slug": "wikidata"}, "source_identifier": "Q336024"}, {"id": 10102, "source": {"name": "VIAF", "slug": "viaf"}, "source_identifier": "2662859"}, {"id": 10103, "source": {"name": "LOC Auth", "slug": "loc-auth"}, "source_identifier": "n87860118"}, {"id": 10104, "source": {"name": "WorldCat", "slug": "worldcat"}, "source_identifier": "lccn-n87860118"}], "date_modified": "2023-09-13T12:30:22.683764+10:00"}, {"id": 24172, "name": "Alexander Salkind Productions", "roles_in_work": [{"id": 2262732, "title": "Santa Claus: the movie", "work_id": 81912, "role": "production company", "role_id": 941, "is_primary": true}], "also_known_as": "", "date_of_birth": "", "date_of_death": "", "genders": [], "languages": [], "places_of_operation": [], "biography": "", "biography_author": null, "date_of_biography": "2023-05-09T17:31:30.521248+10:00", "external_links": [], "uuid": "50e4922d-8f36-4106-8390-2d3ce10c315a", "source": {"name": "Vernon", "slug": "vernon"}, "source_identifier": "5112", "external_references": [{"id": 38793, "source": {"name": "Wikidata", "slug": "wikidata"}, "source_identifier": "Q121337646"}], "date_modified": "2023-09-05T17:26:26.567772+10:00"}, {"id": 24171, "name": "Tim Fox", "roles_in_work": [{"id": 2778783, "title": "Tales from around the world", "work_id": 115228, "role": "director", "role_id": 938, "is_primary": true}, {"id": 2778773, "title": "Three little pigs", "work_id": 81911, "role": "director", "role_id": 938, "is_primary": true}], "also_known_as": "", "date_of_birth": null, "date_of_death": null, "genders": [], "languages": [], "places_of_operation": [], "biography": "", "biography_author": null, "date_of_biography": null, "external_links": [], "uuid": "5484cc90-c2eb-4cb1-b0c7-98ff2d70e1b2", "source": {"name": "Vernon", "slug": "vernon"}, "source_identifier": "29736", "external_references": [], "date_modified": "2025-03-14T19:01:15.510324+11:00"}, {"id": 24170, "name": "Classroom Video", "roles_in_work": [{"id": 2778771, "title": "Three little pigs", "work_id": 81911, "role": "production company", "role_id": 941, "is_primary": true}, {"id": 2778777, "title": "Tales from around the world", "work_id": 115228, "role": "production company", "role_id": 941, "is_primary": true}, {"id": 2355625, "title": "The Human body: how it works", "work_id": 84890, "role": "production company", "role_id": 941, "is_primary": true}, {"id": 777515, "title": "Easter around the world. Yrs. 5-7", "work_id": 82044, "role": "production company", "role_id": 941, "is_primary": true}, {"id": 1931711, "title": "Tiddalik the frog", "work_id": 82163, "role": "production company", "role_id": 941, "is_primary": true}, {"id": 777551, "title": "Multicultural Australia", "work_id": 82055, "role": "production company", "role_id": 941, "is_primary": true}, {"id": 777512, "title": "Easter around the world. Yrs. 7-10", "work_id": 82043, "role": "production company", "role_id": 941, "is_primary": true}, {"id": 2754450, "title": "Anzac Day: World War 1", "work_id": 99207, "role": "production company", "role_id": 941, "is_primary": true}, {"id": 2754458, "title": "Study techniques", "work_id": 99213, "role": "production company", "role_id": 941, "is_primary": true}, {"id": 2754463, "title": "Australian identity. Yrs 7-10", "work_id": 99215, "role": "production company", "role_id": 941, "is_primary": true}, {"id": 2754465, "title": "Japan: traditions & trends in the 80's - Yrs 9-12", "work_id": 99216, "role": "production company", "role_id": 941, "is_primary": true}, {"id": 2754467, "title": "Australian bushrangers: Years 4-6", "work_id": 99217, "role": "production company", "role_id": 941, "is_primary": true}, {"id": 2754469, "title": "Australian gold rushes. - Years 4-6.", "work_id": 99218, "role": "production company", "role_id": 941, "is_primary": true}, {"id": 2754471, "title": "Australian bushrangers: Yrs 7-10. Parts 1 & 2", "work_id": 99220, "role": "production company", "role_id": 941, "is_primary": true}, {"id": 2754473, "title": "Australian bushrangers: Years 7-10. Pt. 3", "work_id": 99221, "role": "production company", "role_id": 941, "is_primary": true}, {"id": 2754498, "title": "Anzac Day: World War 1 (Yrs 9-11)", "work_id": 99232, "role": "production company", "role_id": 941, "is_primary": true}, {"id": 2754500, "title": "Arms race: where do we stand?", "work_id": 99233, "role": "production company", "role_id": 941, "is_primary": true}, {"id": 2754516, "title": "Christmas around the world. Yrs 1-4", "work_id": 99239, "role": "production company", "role_id": 941, "is_primary": true}, {"id": 2754518, "title": "Christmas around the world. Yrs 5-7", "work_id": 99240, "role": "production company", "role_id": 941, "is_primary": true}, {"id": 2754539, "title": "Media: propaganda and advertising", "work_id": 99251, "role": "production company", "role_id": 941, "is_primary": true}, {"id": 2754591, "title": "Waves in the ocean: Yrs 8-12", "work_id": 99272, "role": "production company", "role_id": 941, "is_primary": true}, {"id": 833183, "title": "Propaganda: resource material from WW1 and WW2.", "work_id": 99256, "role": "production company", "role_id": 941, "is_primary": true}, {"id": 833085, "title": "Australian gold rushes. - Years 7-10.", "work_id": 99219, "role": "production company", "role_id": 941, "is_primary": true}, {"id": 782610, "title": "World War One: the Australian home front", "work_id": 83544, "role": "production company", "role_id": 941, "is_primary": true}, {"id": 782842, "title": "How to use a library", "work_id": 83619, "role": "production company", "role_id": 941, "is_primary": true}, {"id": 2072682, "title": "A personal retrospective of World War II", "work_id": 83545, "role": "production company", "role_id": 941, "is_primary": true}, {"id": 777314, "title": "Easter.Yrs. 1-4 = Easter Around the World.Yrs. 1-4", "work_id": 81961, "role": "production company", "role_id": 941, "is_primary": true}], "also_known_as": "", "date_of_birth": "", "date_of_death": "", "genders": [], "languages": [], "places_of_operation": [], "biography": "", "biography_author": null, "date_of_biography": "2023-05-09T20:03:30.270369+10:00", "external_links": [], "uuid": "92c4f15e-cdbb-4a67-8d83-05c3f6409597", "source": {"name": "Vernon", "slug": "vernon"}, "source_identifier": "6810", "external_references": [{"id": 32894, "source": {"name": "Wikidata", "slug": "wikidata"}, "source_identifier": "Q121091429"}], "date_modified": "2025-03-14T19:01:14.324535+11:00"}, {"id": 24168, "name": "Fred Kohlmar", "roles_in_work": [{"id": 2350570, "title": "The Ghost and Mrs. Muir", "work_id": 84544, "role": "producer", "role_id": 1089, "is_primary": true}, {"id": 2205491, "title": "Picnic", "work_id": 83499, "role": "producer", "role_id": 1089, "is_primary": true}, {"id": 1997505, "title": "How to steal a million", "work_id": 93335, "role": "producer", "role_id": 1089, "is_primary": true}, {"id": 2186352, "title": "Pal Joey", "work_id": 81907, "role": "producer", "role_id": 1089, "is_primary": true}, {"id": 2128318, "title": "Bye bye Birdie", "work_id": 95370, "role": "producer", "role_id": 1089, "is_primary": true}], "also_known_as": "", "date_of_birth": "1905-08-10", "date_of_death": "1969-10-13", "genders": [{"id": 9, "name": "Male", "slug": "male"}], "languages": [], "places_of_operation": [{"id": 1, "name": "United States of America", "slug": "united-states-of-america"}], "biography": "Fred Kohlmar (August 10, 1905 - October 13, 1969) was a New York City-born film producer.  The former agent worked as an executive assistant to Samuel Goldwyn before becoming a producer in the 1930s.  He worked for 20th Century Fox, Paramount Pictures, and Columbia Pictures. Lee Kohlmar was his father.\n\n", "biography_author": "Wikidata", "date_of_biography": "2022-05-19T11:31:04.633077+10:00", "external_links": [{"id": 2072, "uri": "https://en.wikipedia.org/wiki/Fred_Kohlmar"}], "uuid": "ad958a2e-ce3e-4688-a771-a5a3262b0579", "source": {"name": "Vernon", "slug": "vernon"}, "source_identifier": "19231", "external_references": [{"id": 8940, "source": {"name": "Wikidata", "slug": "wikidata"}, "source_identifier": "Q1452407"}, {"id": 8941, "source": {"name": "VIAF", "slug": "viaf"}, "source_identifier": "60613982"}, {"id": 8942, "source": {"name": "LOC Auth", "slug": "loc-auth"}, "source_identifier": "n87911889"}, {"id": 8943, "source": {"name": "WorldCat", "slug": "worldcat"}, "source_identifier": "lccn-n87911889"}], "date_modified": "2023-09-13T12:29:28.543913+10:00"}, {"id": 24167, "name": "George Sidney Productions", "roles_in_work": [{"id": 2186349, "title": "Pal Joey", "work_id": 81907, "role": "production company", "role_id": 941, "is_primary": true}], "also_known_as": "", "date_of_birth": "", "date_of_death": "", "genders": [], "languages": [], "places_of_operation": [], "biography": "", "biography_author": null, "date_of_biography": "2023-05-09T15:01:45.040972+10:00", "external_links": [], "uuid": "851096c2-5455-4128-9e8b-76610b833f36", "source": {"name": "Vernon", "slug": "vernon"}, "source_identifier": "8706", "external_references": [], "date_modified": "2023-06-14T16:33:30.576250+10:00"}, {"id": 24166, "name": "Essex", "roles_in_work": [{"id": 2186346, "title": "Pal Joey", "work_id": 81907, "role": "production company", "role_id": 941, "is_primary": true}], "also_known_as": "", "date_of_birth": "", "date_of_death": "", "genders": [], "languages": [], "places_of_operation": [], "biography": "", "biography_author": null, "date_of_biography": "2023-05-09T15:01:44.807262+10:00", "external_links": [], "uuid": "07571c91-db73-4dac-8eea-18b82083ca01", "source": {"name": "Vernon", "slug": "vernon"}, "source_identifier": "7972", "external_references": [{"id": 37120, "source": {"name": "Wikidata", "slug": "wikidata"}, "source_identifier": "Q121223103"}], "date_modified": "2023-09-05T19:36:57.193433+10:00"}, {"id": 24164, "name": "Acorn Films", "roles_in_work": [{"id": 866749, "title": "Heredity. - 2nd ed.", "work_id": 82008, "role": "production company", "role_id": 941, "is_primary": true}, {"id": 2754662, "title": "Educating Rita", "work_id": 99301, "role": "production company", "role_id": 941, "is_primary": true}, {"id": 2751295, "title": "Typing: getting to know the typewriter", "work_id": 97742, "role": "production company", "role_id": 941, "is_primary": true}, {"id": 866733, "title": "Meiosis. - 2nd ed.", "work_id": 81906, "role": "production company", "role_id": 941, "is_primary": true}, {"id": 2752373, "title": "Learning to read maps. - 2nd ed.", "work_id": 98265, "role": "production company", "role_id": 941, "is_primary": true}], "also_known_as": "", "date_of_birth": "", "date_of_death": "", "genders": [], "languages": [], "places_of_operation": [], "biography": "", "biography_author": null, "date_of_biography": "2023-08-14T12:02:33.672079+10:00", "external_links": [], "uuid": "e9ce2e94-bbc1-49e3-8487-2a38c3d50019", "source": {"name": "Vernon", "slug": "vernon"}, "source_identifier": "3721", "external_references": [], "date_modified": "2025-03-13T01:48:13.217705+11:00"}, {"id": 24161, "name": "Honsley Film Services", "roles_in_work": [{"id": 2751604, "title": "The Unemployed", "work_id": 97892, "role": "production company", "role_id": 941, "is_primary": true}, {"id": 2463866, "title": "Nazi Germany", "work_id": 81898, "role": "production company", "role_id": 941, "is_primary": true}], "also_known_as": "", "date_of_birth": "", "date_of_death": "", "genders": [], "languages": [], "places_of_operation": [], "biography": "", "biography_author": null, "date_of_biography": "2023-08-14T11:38:16.594736+10:00", "external_links": [], "uuid": "c36d05ab-7d65-436d-bd17-3ea19278c123", "source": {"name": "Vernon", "slug": "vernon"}, "source_identifier": "9146", "external_references": [], "date_modified": "2025-03-13T00:46:39.851798+11:00"}]}