{"count": 28687, "next": "https://api.acmi.net.au/creators/?page=902", "previous": "https://api.acmi.net.au/creators/?page=900", "results": [{"id": 76572, "name": "U-V Film and Video", "roles_in_work": [{"id": 2772323, "title": "Tuvalu", "work_id": 79939, "role": "co-producer", "role_id": 915, "is_primary": true}, {"id": 2772260, "title": "Vanuatu", "work_id": 79937, "role": "co-producer", "role_id": 915, "is_primary": true}, {"id": 2772388, "title": "Solomon Islands", "work_id": 79941, "role": "co-producer", "role_id": 915, "is_primary": true}], "also_known_as": "", "date_of_birth": "", "date_of_death": "", "genders": [], "languages": [], "places_of_operation": [], "biography": "", "biography_author": null, "date_of_biography": "2023-05-09T18:44:05.442232+10:00", "external_links": [], "uuid": "02488d29-918f-43a2-bbca-fce95a791fac", "source": {"name": "Vernon", "slug": "vernon"}, "source_identifier": "4200", "external_references": [{"id": 40536, "source": {"name": "Wikidata", "slug": "wikidata"}, "source_identifier": "Q121036307"}], "date_modified": "2025-03-14T18:26:02.110590+11:00"}, {"id": 76571, "name": "John Heywood", "roles_in_work": [{"id": 1984330, "title": "The Lighthorsemen", "work_id": 79921, "role": "cast", "role_id": 33, "is_primary": false}], "also_known_as": "", "date_of_birth": null, "date_of_death": null, "genders": [], "languages": [], "places_of_operation": [], "biography": "", "biography_author": null, "date_of_biography": null, "external_links": [], "uuid": "f07bc50c-5aed-4b33-b187-5a433454df08", "source": {"name": "Vernon", "slug": "vernon"}, "source_identifier": null, "external_references": [{"id": 40961, "source": {"name": "Wikidata", "slug": "wikidata"}, "source_identifier": "Q121126858"}], "date_modified": "2023-09-05T21:38:53.595680+10:00"}, {"id": 76570, "name": "John Larking", "roles_in_work": [{"id": 1984329, "title": "The Lighthorsemen", "work_id": 79921, "role": "cast", "role_id": 33, "is_primary": false}], "also_known_as": "", "date_of_birth": null, "date_of_death": null, "genders": [], "languages": [], "places_of_operation": [], "biography": "", "biography_author": null, "date_of_biography": null, "external_links": [], "uuid": "a21d3f5e-c296-46fa-ad2b-7fb3094e0f73", "source": {"name": "Vernon", "slug": "vernon"}, "source_identifier": null, "external_references": [{"id": 51805, "source": {"name": "Wikidata", "slug": "wikidata"}, "source_identifier": "Q121357718"}], "date_modified": "2023-09-05T21:40:39.963161+10:00"}, {"id": 76569, "name": "Nick Waters", "roles_in_work": [{"id": 1984328, "title": "The Lighthorsemen", "work_id": 79921, "role": "cast", "role_id": 33, "is_primary": false}], "also_known_as": "", "date_of_birth": null, "date_of_death": null, "genders": [], "languages": [], "places_of_operation": [], "biography": "", "biography_author": null, "date_of_biography": null, "external_links": [], "uuid": "0b3e361f-d7eb-4fb8-97bc-dbf94c2f49bf", "source": {"name": "Vernon", "slug": "vernon"}, "source_identifier": null, "external_references": [{"id": 34220, "source": {"name": "Wikidata", "slug": "wikidata"}, "source_identifier": "Q121223457"}], "date_modified": "2023-09-05T23:30:16.114199+10:00"}, {"id": 76568, "name": "Peter Phelps", "roles_in_work": [{"id": 2121028, "title": "Blue Murder: Part 1", "work_id": 116748, "role": "cast", "role_id": 33, "is_primary": false}, {"id": 2121053, "title": "Blue Murder: Part 2", "work_id": 116749, "role": "cast", "role_id": 33, "is_primary": false}, {"id": 1984327, "title": "The Lighthorsemen", "work_id": 79921, "role": "cast", "role_id": 33, "is_primary": false}], "also_known_as": "", "date_of_birth": "1960-09-20", "date_of_death": "", "genders": [{"id": 9, "name": "Male", "slug": "male"}], "languages": [], "places_of_operation": [{"id": 3, "name": "Australia", "slug": "australia"}], "biography": "Peter Phelps (born 20 September 1960 in Sydney) is an Australian actor, singer and writer. He is notable for his role as Trevor Cole in Baywatch. Phelps is also known for his roles in the internationally successful Australian series Sons and Daughters and Stingers and has appeared in feature films including Blackwater Trail with Judd Nelson. He is the brother of Professor Kerryn Phelps.", "biography_author": "Wikidata", "date_of_biography": "2023-08-01T16:35:01.918092+10:00", "external_links": [{"id": 4888, "uri": "https://en.wikipedia.org/wiki/Peter_Phelps"}], "uuid": "2d81c8f7-4644-4ae2-8cf4-0414b56a0a9d", "source": {"name": "Vernon", "slug": "vernon"}, "source_identifier": "34709", "external_references": [{"id": 27061, "source": {"name": "Wikidata", "slug": "wikidata"}, "source_identifier": "Q1967973"}, {"id": 30812, "source": {"name": "VIAF", "slug": "viaf"}, "source_identifier": "5132862"}, {"id": 30813, "source": {"name": "LOC Auth", "slug": "loc-auth"}, "source_identifier": "no2004119285"}, {"id": 30814, "source": {"name": "WorldCat", "slug": "worldcat"}, "source_identifier": "lccn-no2004119285"}], "date_modified": "2023-09-05T23:59:46.795537+10:00"}, {"id": 76567, "name": "Margaret Kelly", "roles_in_work": [{"id": 2232070, "title": "Puberty blues [DVD]", "work_id": 94351, "role": "co-producer", "role_id": 915, "is_primary": true}, {"id": 2648754, "title": "Puberty blues", "work_id": 79916, "role": "co-producer", "role_id": 915, "is_primary": true}], "also_known_as": "", "date_of_birth": "", "date_of_death": "", "genders": [], "languages": [], "places_of_operation": [], "biography": "", "biography_author": null, "date_of_biography": "2023-05-09T16:39:01.142658+10:00", "external_links": [], "uuid": "1ea505ac-ee99-42d5-8d53-42b4645499c1", "source": {"name": "Vernon", "slug": "vernon"}, "source_identifier": "24345", "external_references": [{"id": 43611, "source": {"name": "Wikidata", "slug": "wikidata"}, "source_identifier": "Q121143955"}], "date_modified": "2025-03-05T13:50:45.922769+11:00"}, {"id": 76566, "name": "Ron Hardy", "roles_in_work": [{"id": 3108918, "title": "Vivian Bullwinkel", "work_id": 79878, "role": "director", "role_id": 938, "is_primary": true}], "also_known_as": "", "date_of_birth": "", "date_of_death": "", "genders": [], "languages": [], "places_of_operation": [], "biography": "", "biography_author": null, "date_of_biography": "2023-05-09T18:43:29.516816+10:00", "external_links": [], "uuid": "cd847c13-b6c0-48f3-8627-31cbcf43cd92", "source": {"name": "Vernon", "slug": "vernon"}, "source_identifier": "28144", "external_references": [], "date_modified": "2025-10-01T20:39:24.419349+10:00"}, {"id": 76565, "name": "Ian Gilmour", "roles_in_work": [{"id": 3108909, "title": "Lola Montez", "work_id": 79876, "role": "director", "role_id": 938, "is_primary": true}, {"id": 3084177, "title": "Phoenix. Eps. 07-08", "work_id": 91584, "role": "co-director", "role_id": 959, "is_primary": true}, {"id": 3084161, "title": "Phoenix. Eps. 03-04", "work_id": 91581, "role": "co-director", "role_id": 959, "is_primary": true}, {"id": 3084193, "title": "Phoenix. Eps. 11-12", "work_id": 91582, "role": "co-director", "role_id": 959, "is_primary": true}, {"id": 2043907, "title": "Getting the message", "work_id": 97344, "role": "performer", "role_id": 576, "is_primary": false}], "also_known_as": "", "date_of_birth": "01 JAN 1955", "date_of_death": "", "genders": [{"id": 9, "name": "Male", "slug": "male"}], "languages": [], "places_of_operation": [{"id": 3, "name": "Australia", "slug": "australia"}], "biography": "Ian Gilmour is a New Zealand-born actor and director who has worked mostly in Australia. Source: Wikidata; 01/08/2023", "biography_author": null, "date_of_biography": "2025-10-01T20:39:19.659426+10:00", "external_links": [{"id": 4188, "uri": "https://en.wikipedia.org/wiki/Ian_Gilmour_(actor)"}], "uuid": "f5f2db77-bb3b-423f-8fb0-86881844cd0a", "source": {"name": "Vernon", "slug": "vernon"}, "source_identifier": "20756", "external_references": [{"id": 26092, "source": {"name": "Wikidata", "slug": "wikidata"}, "source_identifier": "Q15491962"}, {"id": 29001, "source": {"name": "VIAF", "slug": "viaf"}, "source_identifier": "232542401"}, {"id": 29002, "source": {"name": "LOC Auth", "slug": "loc-auth"}, "source_identifier": "no2012035624"}, {"id": 29003, "source": {"name": "WorldCat", "slug": "worldcat"}, "source_identifier": "lccn-no2012035624"}], "date_modified": "2025-10-01T20:39:19.659725+10:00"}, {"id": 76564, "name": "Mark Callan", "roles_in_work": [{"id": 3108938, "title": "Mary Mackillop", "work_id": 79874, "role": "director", "role_id": 938, "is_primary": true}, {"id": 2174561, "title": "One summer again. Ep. 1", "work_id": 94175, "role": "director", "role_id": 938, "is_primary": true}, {"id": 2174572, "title": "One summer again. Ep. 2", "work_id": 94174, "role": "director", "role_id": 938, "is_primary": true}, {"id": 2174576, "title": "One summer again. Ep. 3", "work_id": 94173, "role": "director", "role_id": 938, "is_primary": true}, {"id": 3084212, "title": "Phoenix. Eps. 17-18", "work_id": 91588, "role": "co-director", "role_id": 959, "is_primary": true}, {"id": 3084232, "title": "Phoenix. Eps. 21-22", "work_id": 91592, "role": "co-director", "role_id": 959, "is_primary": true}, {"id": 3084251, "title": "Phoenix. Eps. 25-26", "work_id": 91590, "role": "co-director", "role_id": 959, "is_primary": true}], "also_known_as": "", "date_of_birth": "", "date_of_death": "", "genders": [], "languages": [], "places_of_operation": [], "biography": "", "biography_author": null, "date_of_biography": "2023-05-09T18:43:25.084939+10:00", "external_links": [], "uuid": "27737c62-5073-4e14-97fb-42e6bef20996", "source": {"name": "Vernon", "slug": "vernon"}, "source_identifier": "24472", "external_references": [], "date_modified": "2025-10-01T20:39:34.363140+10:00"}, {"id": 76563, "name": "Dan Sape", "roles_in_work": [{"id": 2763764, "title": "To taste 100 herbs: gods, ancestors and medicine", "work_id": 78786, "role": "co-producer", "role_id": 915, "is_primary": true}, {"id": 2763725, "title": "All under heaven: life in a chinese village (TEFC)", "work_id": 79868, "role": "co-producer", "role_id": 915, "is_primary": true}], "also_known_as": "", "date_of_birth": "", "date_of_death": "", "genders": [], "languages": [], "places_of_operation": [], "biography": "", "biography_author": null, "date_of_biography": "2023-05-09T18:40:52.416115+10:00", "external_links": [], "uuid": "7e160c36-48ae-411c-81a1-ba991138d60e", "source": {"name": "Vernon", "slug": "vernon"}, "source_identifier": "17371", "external_references": [{"id": 38116, "source": {"name": "Wikidata", "slug": "wikidata"}, "source_identifier": "Q121086068"}], "date_modified": "2025-03-14T17:43:28.839822+11:00"}]}