{"count": 28687, "next": "https://api.acmi.net.au/creators/?page=2679", "previous": "https://api.acmi.net.au/creators/?page=2677", "results": [{"id": 11714, "name": "Corey Kelly", "roles_in_work": [{"id": 2642857, "title": "A story about nan & pop", "work_id": 100173, "role": "creator", "role_id": 968, "is_primary": true}], "also_known_as": "", "date_of_birth": null, "date_of_death": null, "genders": [{"id": 9, "name": "Male", "slug": "male"}], "languages": [], "places_of_operation": [], "biography": "", "biography_author": null, "date_of_biography": null, "external_links": [], "uuid": "a4b4e138-f9ca-465d-9843-ffaf93fdeed8", "source": {"name": "Vernon", "slug": "vernon"}, "source_identifier": "3508", "external_references": [], "date_modified": "2025-03-05T11:51:02.048412+11:00"}, {"id": 11712, "name": "Alexander Stitt", "roles_in_work": [{"id": 2168059, "title": "One designer, two designer", "work_id": 119718, "role": "director", "role_id": 938, "is_primary": true}, {"id": 2681367, "title": "Abra Cadabra\n(1983)\nClips from film", "work_id": 99915, "role": "creator", "role_id": 968, "is_primary": true}, {"id": 2642854, "title": "Film film: Lending", "work_id": 111040, "role": "animator", "role_id": 497, "is_primary": false}, {"id": 2642863, "title": "Film film: Lending / Showing", "work_id": 111041, "role": "animator", "role_id": 497, "is_primary": false}, {"id": 903085, "title": "Grendel, grendel, grendel", "work_id": 83987, "role": "co-producer", "role_id": 915, "is_primary": true}, {"id": 2681368, "title": "Promotional character sketches", "work_id": 112051, "role": "creator", "role_id": 968, "is_primary": true}, {"id": 2681369, "title": "Abra Cadabra", "work_id": 100534, "role": "creator", "role_id": 968, "is_primary": true}, {"id": 2684419, "title": "Zoetrope to Cinemascope", "work_id": 100592, "role": "creator", "role_id": 968, "is_primary": true}, {"id": 903086, "title": "Grendel, grendel, grendel", "work_id": 83987, "role": "director", "role_id": 938, "is_primary": true}, {"id": 2681364, "title": "Abra Cadabra (1983) promotional character sketch: Abra and Mr Pig disguised as Mayor Buttercup", "work_id": 99488, "role": "director", "role_id": 938, "is_primary": true}, {"id": 2681365, "title": "Abra Cadabra (1983) Promotional Character Sketch: Abra and Stella find the entrance to the tunnel", "work_id": 99485, "role": "director", "role_id": 938, "is_primary": true}, {"id": 2681366, "title": "Abra Cadabra (1983) promotional character sketch: Abra is attacked by Deaf Geoffrey", "work_id": 99487, "role": "director", "role_id": 938, "is_primary": true}, {"id": 2681363, "title": "Abra Cadabra (1983) Character Sketch: Abra, Mr Pig and the Mayor", "work_id": 99486, "role": "director", "role_id": 938, "is_primary": true}, {"id": 2642853, "title": "Film film: Lending", "work_id": 111040, "role": "writer", "role_id": 939, "is_primary": true}, {"id": 2642862, "title": "Film film: Lending / Showing", "work_id": 111041, "role": "writer", "role_id": 939, "is_primary": true}], "also_known_as": "", "date_of_birth": "1937", "date_of_death": "", "genders": [{"id": 9, "name": "Male", "slug": "male"}], "languages": [], "places_of_operation": [], "biography": "", "biography_author": null, "date_of_biography": "2023-08-16T03:55:26.218273+10:00", "external_links": [], "uuid": "19467968-9df4-4286-b7c4-e41176bea5a8", "source": {"name": "Vernon", "slug": "vernon"}, "source_identifier": "3509", "external_references": [{"id": 34368, "source": {"name": "Wikidata", "slug": "wikidata"}, "source_identifier": "Q121270723"}], "date_modified": "2025-03-11T11:35:09.909294+11:00"}, {"id": 11711, "name": "Ben Edwards", "roles_in_work": [{"id": 2642848, "title": "Memories of Mookie", "work_id": 100172, "role": "creator", "role_id": 968, "is_primary": true}], "also_known_as": "", "date_of_birth": null, "date_of_death": null, "genders": [{"id": 9, "name": "Male", "slug": "male"}], "languages": [], "places_of_operation": [], "biography": "", "biography_author": null, "date_of_biography": null, "external_links": [], "uuid": "3758a026-fd82-45e9-bef6-aef77dccd177", "source": {"name": "Vernon", "slug": "vernon"}, "source_identifier": "3507", "external_references": [], "date_modified": "2025-03-05T11:50:57.330335+11:00"}, {"id": 11709, "name": "Bridget Nicholson", "roles_in_work": [{"id": 2642842, "title": "My car : my place", "work_id": 111039, "role": "creator", "role_id": 968, "is_primary": true}, {"id": 2642802, "title": "Stories from Gippsland : Digital Storytelling project", "work_id": 111026, "role": "creator", "role_id": 968, "is_primary": true}], "also_known_as": "", "date_of_birth": null, "date_of_death": null, "genders": [{"id": 5, "name": "Female", "slug": "female"}], "languages": [], "places_of_operation": [], "biography": "", "biography_author": null, "date_of_biography": null, "external_links": [], "uuid": "b5e175b4-18ea-4edd-bfae-cb9ff6c7f173", "source": {"name": "Vernon", "slug": "vernon"}, "source_identifier": "3505", "external_references": [], "date_modified": "2025-03-05T11:50:54.469216+11:00"}, {"id": 11708, "name": "Zephlyn Neilsen", "roles_in_work": [{"id": 2642801, "title": "Stories from Gippsland : Digital Storytelling project", "work_id": 111026, "role": "creator", "role_id": 968, "is_primary": true}, {"id": 2642837, "title": "Home", "work_id": 114313, "role": "creator", "role_id": 968, "is_primary": true}], "also_known_as": "", "date_of_birth": null, "date_of_death": null, "genders": [{"id": 5, "name": "Female", "slug": "female"}], "languages": [], "places_of_operation": [], "biography": "", "biography_author": null, "date_of_biography": null, "external_links": [], "uuid": "f61eab08-494c-484b-a5f0-19774eea64c5", "source": {"name": "Vernon", "slug": "vernon"}, "source_identifier": "3504", "external_references": [], "date_modified": "2025-03-05T11:50:51.198208+11:00"}, {"id": 11707, "name": "Lyn Johnson", "roles_in_work": [{"id": 2642832, "title": "Yellow gloves", "work_id": 111037, "role": "creator", "role_id": 968, "is_primary": true}, {"id": 2642799, "title": "Stories from Gippsland : Digital Storytelling project", "work_id": 111026, "role": "creator", "role_id": 968, "is_primary": true}], "also_known_as": "", "date_of_birth": null, "date_of_death": null, "genders": [{"id": 5, "name": "Female", "slug": "female"}], "languages": [], "places_of_operation": [], "biography": "", "biography_author": null, "date_of_biography": null, "external_links": [], "uuid": "155ced6c-9750-44e8-a936-fa0730df42a7", "source": {"name": "Vernon", "slug": "vernon"}, "source_identifier": "3503", "external_references": [], "date_modified": "2025-03-05T11:50:48.340778+11:00"}, {"id": 11706, "name": "Vivianne Everett", "roles_in_work": [{"id": 2642827, "title": "Friendship in a biscuit tin", "work_id": 111036, "role": "creator", "role_id": 968, "is_primary": true}, {"id": 2642797, "title": "Stories from Gippsland : Digital Storytelling project", "work_id": 111026, "role": "creator", "role_id": 968, "is_primary": true}], "also_known_as": "", "date_of_birth": null, "date_of_death": null, "genders": [{"id": 5, "name": "Female", "slug": "female"}], "languages": [], "places_of_operation": [], "biography": "", "biography_author": null, "date_of_biography": null, "external_links": [], "uuid": "5fbcdfab-8b8c-4df9-b746-0b2a2cd7c09e", "source": {"name": "Vernon", "slug": "vernon"}, "source_identifier": "3501", "external_references": [], "date_modified": "2025-03-05T11:50:45.577764+11:00"}, {"id": 11705, "name": "Yen-Jung Chang", "roles_in_work": [{"id": 2642822, "title": "Outside in", "work_id": 111035, "role": "creator", "role_id": 968, "is_primary": true}], "also_known_as": "", "date_of_birth": "", "date_of_death": "", "genders": [], "languages": [], "places_of_operation": [], "biography": "", "biography_author": null, "date_of_biography": "2023-08-14T10:16:43.034572+10:00", "external_links": [], "uuid": "e8715dc4-7da4-4a97-beaf-e2d2514cd54b", "source": {"name": "Vernon", "slug": "vernon"}, "source_identifier": "3502", "external_references": [], "date_modified": "2025-03-05T11:50:42.815498+11:00"}, {"id": 11704, "name": "Dane Hitchins", "roles_in_work": [{"id": 2643009, "title": "Snake bite", "work_id": 111034, "role": "creator", "role_id": 968, "is_primary": true}], "also_known_as": "", "date_of_birth": "", "date_of_death": "", "genders": [], "languages": [], "places_of_operation": [], "biography": "", "biography_author": null, "date_of_biography": "2023-08-11T14:40:13.546640+10:00", "external_links": [], "uuid": "32f6e631-643b-417c-a8ce-8284d2faa577", "source": {"name": "Vernon", "slug": "vernon"}, "source_identifier": "3500", "external_references": [], "date_modified": "2025-03-05T11:52:53.023298+11:00"}, {"id": 11703, "name": "Nathan Alexander", "roles_in_work": [{"id": 2643006, "title": "Basil's adventure", "work_id": 111033, "role": "creator", "role_id": 968, "is_primary": true}], "also_known_as": "", "date_of_birth": "", "date_of_death": "", "genders": [], "languages": [], "places_of_operation": [], "biography": "", "biography_author": null, "date_of_biography": "2023-08-11T14:40:17.374473+10:00", "external_links": [], "uuid": "c182d197-ba51-4262-87e7-a84c437fa0fe", "source": {"name": "Vernon", "slug": "vernon"}, "source_identifier": "3498", "external_references": [], "date_modified": "2025-03-05T11:52:50.604300+11:00"}]}