{"count": 28687, "next": "https://api.acmi.net.au/creators/?page=2639", "previous": "https://api.acmi.net.au/creators/?page=2637", "results": [{"id": 12192, "name": "Iwanami", "roles_in_work": [{"id": 2643941, "title": "Agriculture in Japan", "work_id": 64609, "role": "production company", "role_id": 941, "is_primary": true}, {"id": 825409, "title": "Fisheries in Japan", "work_id": 95830, "role": "production company", "role_id": 941, "is_primary": true}], "also_known_as": "", "date_of_birth": "", "date_of_death": "", "genders": [], "languages": [], "places_of_operation": [], "biography": "", "biography_author": null, "date_of_biography": "2023-08-11T13:39:34.776668+10:00", "external_links": [], "uuid": "6a828ff0-a41d-44a4-80d8-427f5170b7ec", "source": {"name": "Vernon", "slug": "vernon"}, "source_identifier": "9494", "external_references": [], "date_modified": "2025-03-05T12:08:21.056438+11:00"}, {"id": 12189, "name": "David Muir", "roles_in_work": [{"id": 2677418, "title": "Approach to sculpture", "work_id": 64855, "role": "director", "role_id": 938, "is_primary": true}, {"id": 2794003, "title": "'Stringybark Creek' by Sidney Nolan", "work_id": 76663, "role": "director", "role_id": 938, "is_primary": true}, {"id": 2793993, "title": "The Expressionist eye", "work_id": 76642, "role": "director", "role_id": 938, "is_primary": true}, {"id": 2793987, "title": "Flying over the Shoalhaven River", "work_id": 76643, "role": "director", "role_id": 938, "is_primary": true}, {"id": 2645490, "title": "Living with the city", "work_id": 69847, "role": "director", "role_id": 938, "is_primary": true}, {"id": 2756226, "title": "The Rough and the smooth", "work_id": 77907, "role": "director", "role_id": 938, "is_primary": true}, {"id": 2794028, "title": "'Mount William from Mount Dryden'...by Eugene Guerard, 1857", "work_id": 75944, "role": "director", "role_id": 938, "is_primary": true}, {"id": 2794024, "title": "Epiphany", "work_id": 75906, "role": "director", "role_id": 938, "is_primary": true}, {"id": 2767486, "title": "Rhythmic composition in yellow green minor", "work_id": 72214, "role": "director", "role_id": 938, "is_primary": true}, {"id": 2767490, "title": "Fire's on - Lapstone tunnel by Arthur Streeton, 1891", "work_id": 75671, "role": "director", "role_id": 938, "is_primary": true}, {"id": 2767496, "title": "'On the wallaby track' by Frederick McCubbin, 1896", "work_id": 71109, "role": "director", "role_id": 938, "is_primary": true}, {"id": 2767501, "title": "The Ferry by E. Phillips Fox", "work_id": 67443, "role": "director", "role_id": 938, "is_primary": true}, {"id": 2794019, "title": "Man feeding his dogs: oil by Russell Drysdale", "work_id": 76016, "role": "director", "role_id": 938, "is_primary": true}, {"id": 2794015, "title": "The Mother", "work_id": 76018, "role": "director", "role_id": 938, "is_primary": true}, {"id": 2794010, "title": "'Lake St Clair' by William Charles Piguenit, 1887", "work_id": 76196, "role": "director", "role_id": 938, "is_primary": true}, {"id": 2793998, "title": "The Mining town: (Casting the money-lenders from the Temple)", "work_id": 76657, "role": "director", "role_id": 938, "is_primary": true}, {"id": 1674918, "title": "'The Lacquer room' by Grace Cossington Smith", "work_id": 69463, "role": "director", "role_id": 938, "is_primary": true}, {"id": 1674927, "title": "Madame Sosostris: by James Gleeson and Robert Klippel", "work_id": 75610, "role": "director", "role_id": 938, "is_primary": true}, {"id": 1674935, "title": "'Study for 'Dog gymkahna'' by Frank Hinder, 1938", "work_id": 75595, "role": "director", "role_id": 938, "is_primary": true}, {"id": 1674939, "title": "Launceston and the River Tamar by John Glover, 1767-1849", "work_id": 69525, "role": "director", "role_id": 938, "is_primary": true}, {"id": 1674789, "title": "Sydney: The School of the forties 1941-1981", "work_id": 77969, "role": "director", "role_id": 938, "is_primary": true}, {"id": 1674781, "title": "'Victory girls', Albert Tucker, 1943", "work_id": 76666, "role": "director", "role_id": 938, "is_primary": true}, {"id": 1674773, "title": "Sydney, 1942", "work_id": 77085, "role": "director", "role_id": 938, "is_primary": true}, {"id": 1674765, "title": "Symbolism and luxury: the new century 1897-1911", "work_id": 77971, "role": "director", "role_id": 938, "is_primary": true}, {"id": 1674737, "title": "Four colonial painters 1832-1896", "work_id": 77966, "role": "director", "role_id": 938, "is_primary": true}, {"id": 1674705, "title": "\"Self portrait in the studio\" by Brett Whiteley, 1976", "work_id": 75625, "role": "director", "role_id": 938, "is_primary": true}, {"id": 2251398, "title": "Road to the stamping ground", "work_id": 93259, "role": "director", "role_id": 938, "is_primary": true}, {"id": 2379661, "title": "The Conciliation by Benjamin Duterrau, 1840", "work_id": 75644, "role": "director", "role_id": 938, "is_primary": true}, {"id": 747388, "title": "Making tracks", "work_id": 70056, "role": "director", "role_id": 938, "is_primary": true}, {"id": 2756246, "title": "Waterfall polyptych", "work_id": 77086, "role": "director", "role_id": 938, "is_primary": true}, {"id": 2756241, "title": "The Harbour from McMahons Point", "work_id": 77083, "role": "director", "role_id": 938, "is_primary": true}, {"id": 2756236, "title": "'Down the hills to Berry's Bay' by Roland Wakelin", "work_id": 77082, "role": "director", "role_id": 938, "is_primary": true}, {"id": 2756231, "title": "The Creative eye: thoughts on painting by some contemporary artists", "work_id": 77081, "role": "director", "role_id": 938, "is_primary": true}, {"id": 3110917, "title": "David and Jennifer Learn Their Kerb Drill", "work_id": 66621, "role": "camera operator", "role_id": 931, "is_primary": false}, {"id": 2676933, "title": "An Agricultural Officer in Papua and New Guinea", "work_id": 64607, "role": "camera operator", "role_id": 931, "is_primary": false}, {"id": 2373937, "title": "Not by choice", "work_id": 70989, "role": "cinematographer", "role_id": 32, "is_primary": false}, {"id": 2326263, "title": "The Acid house (D)", "work_id": 91471, "role": "co-producer", "role_id": 915, "is_primary": true}, {"id": 2686414, "title": "Betty Coldicutt filming the May Day March in Melbourne", "work_id": 107539, "role": "creator", "role_id": 968, "is_primary": true}, {"id": 2767505, "title": "The Australian eye I", "work_id": 115019, "role": "director", "role_id": 938, "is_primary": true}, {"id": 1674785, "title": "Australian modernists 1916-1942", "work_id": 77970, "role": "director", "role_id": 938, "is_primary": true}, {"id": 1674731, "title": "Contemporary painting 1950-1979", "work_id": 77972, "role": "director", "role_id": 938, "is_primary": true}, {"id": 1674777, "title": "The Australian impressionists 1888-1896", "work_id": 77967, "role": "director", "role_id": 938, "is_primary": true}, {"id": 1674741, "title": "Melbourne: the school of the forties 1943-1947", "work_id": 77968, "role": "director", "role_id": 938, "is_primary": true}, {"id": 1674757, "title": "The Australian eye", "work_id": 115486, "role": "director", "role_id": 938, "is_primary": true}, {"id": 1674911, "title": "The Australian eye II", "work_id": 115487, "role": "director", "role_id": 938, "is_primary": true}], "also_known_as": "", "date_of_birth": "", "date_of_death": "", "genders": [], "languages": [], "places_of_operation": [], "biography": "", "biography_author": null, "date_of_biography": "2023-08-16T03:56:14.165300+10:00", "external_links": [], "uuid": "88fc0f30-8f41-4741-b891-df5b25d55065", "source": {"name": "Vernon", "slug": "vernon"}, "source_identifier": "17729", "external_references": [{"id": 43576, "source": {"name": "Wikidata", "slug": "wikidata"}, "source_identifier": "Q121034482"}], "date_modified": "2026-04-16T17:08:10.324632+10:00"}, {"id": 12186, "name": "Maslyn Williams", "roles_in_work": [{"id": 894723, "title": "Journey to Antarctica", "work_id": 69294, "role": "co-producer", "role_id": 915, "is_primary": true}, {"id": 2392516, "title": "The Happy Island", "work_id": 76511, "role": "co-producer", "role_id": 915, "is_primary": true}, {"id": 895182, "title": "Music in the making", "work_id": 70700, "role": "co-producer", "role_id": 915, "is_primary": true}, {"id": 3081349, "title": "Australia today", "work_id": 115533, "role": "co-producer", "role_id": 915, "is_primary": true}, {"id": 3081336, "title": "Water: our problem", "work_id": 74512, "role": "co-producer", "role_id": 915, "is_primary": true}, {"id": 2644769, "title": "Festival in Adelaide", "work_id": 67448, "role": "producer", "role_id": 1089, "is_primary": true}, {"id": 1807936, "title": "Economic development", "work_id": 88592, "role": "producer", "role_id": 1089, "is_primary": true}, {"id": 1811168, "title": "Tasmanian tapestry", "work_id": 73521, "role": "producer", "role_id": 1089, "is_primary": true}, {"id": 1818636, "title": "The Jackeroo", "work_id": 69183, "role": "producer", "role_id": 1089, "is_primary": true}, {"id": 3081293, "title": "District Commissioner", "work_id": 66834, "role": "producer", "role_id": 1089, "is_primary": true}, {"id": 2712630, "title": "Economic development in Papua and New Guinea. No. 2", "work_id": 67014, "role": "producer", "role_id": 1089, "is_primary": true}, {"id": 2042895, "title": "New Guinea Patrol", "work_id": 70843, "role": "producer", "role_id": 1089, "is_primary": true}, {"id": 1809458, "title": "Steelworker", "work_id": 73189, "role": "producer", "role_id": 1089, "is_primary": true}, {"id": 1809807, "title": "Social development", "work_id": 88597, "role": "producer", "role_id": 1089, "is_primary": true}, {"id": 2648600, "title": "Antarctic Pioneers", "work_id": 79627, "role": "producer", "role_id": 1089, "is_primary": true}, {"id": 1810144, "title": "The Mailu story (told by Sister Clark)", "work_id": 90920, "role": "producer", "role_id": 1089, "is_primary": true}, {"id": 2043016, "title": "Way to a New World", "work_id": 74541, "role": "producer", "role_id": 1089, "is_primary": true}, {"id": 2755461, "title": "Australian landscape painters", "work_id": 75138, "role": "producer", "role_id": 1089, "is_primary": true}, {"id": 1813513, "title": "New worlds for old", "work_id": 70876, "role": "producer", "role_id": 1089, "is_primary": true}, {"id": 1806687, "title": "The Lonely island", "work_id": 69870, "role": "producer", "role_id": 1089, "is_primary": true}, {"id": 1804279, "title": "Political, economic and social developments in the Territory of Papua New Guinea. Part 3", "work_id": 72956, "role": "producer", "role_id": 1089, "is_primary": true}, {"id": 2186595, "title": "Papua and New Guinea", "work_id": 86762, "role": "producer", "role_id": 1089, "is_primary": true}, {"id": 2392717, "title": "The Melbourne Wedding Belle", "work_id": 88709, "role": "producer", "role_id": 1089, "is_primary": true}, {"id": 2392701, "title": "Ray of hope", "work_id": 86935, "role": "producer", "role_id": 1089, "is_primary": true}, {"id": 2676930, "title": "An Agricultural Officer in Papua and New Guinea", "work_id": 64607, "role": "producer", "role_id": 1089, "is_primary": true}, {"id": 2392243, "title": "Valley of the Yarra", "work_id": 74276, "role": "producer", "role_id": 1089, "is_primary": true}, {"id": 2715575, "title": "Hobart town", "work_id": 68506, "role": "producer", "role_id": 1089, "is_primary": true}, {"id": 2712342, "title": "Down in the forest", "work_id": 66902, "role": "producer", "role_id": 1089, "is_primary": true}, {"id": 2645754, "title": "The Music makers", "work_id": 70703, "role": "producer/director", "role_id": 31, "is_primary": true}, {"id": 3081301, "title": "Kondom Agaundo", "work_id": 69446, "role": "producer/director", "role_id": 31, "is_primary": true}, {"id": 2043018, "title": "Way to a New World", "work_id": 74541, "role": "writer", "role_id": 939, "is_primary": true}, {"id": 2042897, "title": "New Guinea Patrol", "work_id": 70843, "role": "writer", "role_id": 939, "is_primary": true}], "also_known_as": "", "date_of_birth": "", "date_of_death": "", "genders": [], "languages": [], "places_of_operation": [], "biography": "", "biography_author": null, "date_of_biography": "2023-08-09T03:59:51.298138+10:00", "external_links": [], "uuid": "fd6d9d18-a1b2-45a0-9102-8fc7ded14b7c", "source": {"name": "Vernon", "slug": "vernon"}, "source_identifier": "24769", "external_references": [], "date_modified": "2025-03-17T10:23:29.473985+11:00"}, {"id": 12185, "name": "New Zealand. Dept. of Education", "roles_in_work": [{"id": 2676891, "title": "Agility and tumbling", "work_id": 64605, "role": "production company", "role_id": 941, "is_primary": true}, {"id": 2615925, "title": "Learn to swim. - Rev. ed.", "work_id": 86435, "role": "production company", "role_id": 941, "is_primary": true}, {"id": 856378, "title": "Open plan (TEFC)", "work_id": 71166, "role": "production company", "role_id": 941, "is_primary": true}], "also_known_as": "", "date_of_birth": "", "date_of_death": "", "genders": [], "languages": [], "places_of_operation": [], "biography": "", "biography_author": null, "date_of_biography": "2023-08-11T13:39:26.958113+10:00", "external_links": [], "uuid": "a299f83e-017d-41f1-b4a1-68859432dcb9", "source": {"name": "Vernon", "slug": "vernon"}, "source_identifier": "10932", "external_references": [], "date_modified": "2025-03-06T23:08:31.454291+11:00"}, {"id": 12184, "name": "Phil Content", "roles_in_work": [{"id": 2762350, "title": "Co-operative behaviour (TEFC)", "work_id": 66200, "role": "director", "role_id": 938, "is_primary": true}, {"id": 829611, "title": "Wind: the power and the promise", "work_id": 97729, "role": "director", "role_id": 938, "is_primary": true}, {"id": 2762376, "title": "Teacher behavior: an overview (TEFC)", "work_id": 73542, "role": "director", "role_id": 938, "is_primary": true}, {"id": 2762367, "title": "Supporting behavior (TEFC)", "work_id": 73390, "role": "director", "role_id": 938, "is_primary": true}, {"id": 2762334, "title": "Aggressive behaviour (TEFC)", "work_id": 64603, "role": "director", "role_id": 938, "is_primary": true}, {"id": 2762342, "title": "Closing behaviour (TEFC)", "work_id": 66191, "role": "director", "role_id": 938, "is_primary": true}, {"id": 2762356, "title": "Reciprocating behavior (TEFC)", "work_id": 72091, "role": "producer", "role_id": 1089, "is_primary": true}], "also_known_as": "", "date_of_birth": "", "date_of_death": "", "genders": [], "languages": [], "places_of_operation": [], "biography": "", "biography_author": null, "date_of_biography": "2023-08-11T15:32:44.852989+10:00", "external_links": [], "uuid": "9776d29b-32f7-4e7a-8559-f712792b087e", "source": {"name": "Vernon", "slug": "vernon"}, "source_identifier": "26776", "external_references": [], "date_modified": "2025-03-14T17:37:54.472334+11:00"}, {"id": 12183, "name": "Patricia Heffernan-Cabrera", "roles_in_work": [{"id": 2762358, "title": "Reciprocating behavior (TEFC)", "work_id": 72091, "role": "director", "role_id": 938, "is_primary": true}, {"id": 2762364, "title": "Supporting behavior (TEFC)", "work_id": 73390, "role": "producer", "role_id": 1089, "is_primary": true}, {"id": 2762331, "title": "Aggressive behaviour (TEFC)", "work_id": 64603, "role": "producer", "role_id": 1089, "is_primary": true}, {"id": 2762339, "title": "Closing behaviour (TEFC)", "work_id": 66191, "role": "producer", "role_id": 1089, "is_primary": true}, {"id": 2762348, "title": "Co-operative behaviour (TEFC)", "work_id": 66200, "role": "producer", "role_id": 1089, "is_primary": true}, {"id": 2762373, "title": "Teacher behavior: an overview (TEFC)", "work_id": 73542, "role": "producer", "role_id": 1089, "is_primary": true}], "also_known_as": "", "date_of_birth": "", "date_of_death": "", "genders": [], "languages": [], "places_of_operation": [], "biography": "", "biography_author": null, "date_of_biography": "2023-08-11T15:32:44.235534+10:00", "external_links": [], "uuid": "4a5e0966-e87d-4a0a-b021-0dd624ff2876", "source": {"name": "Vernon", "slug": "vernon"}, "source_identifier": "26105", "external_references": [], "date_modified": "2025-03-14T17:37:53.882683+11:00"}, {"id": 12182, "name": "Graham Parker", "roles_in_work": [{"id": 2711852, "title": "The Dead bird", "work_id": 66654, "role": "director", "role_id": 938, "is_primary": true}, {"id": 757720, "title": "Where Mrs. Whalley lives", "work_id": 74682, "role": "director", "role_id": 938, "is_primary": true}, {"id": 895624, "title": "River with a problem", "work_id": 72271, "role": "director", "role_id": 938, "is_primary": true}, {"id": 2645076, "title": "His responsibility?", "work_id": 68482, "role": "director", "role_id": 938, "is_primary": true}, {"id": 757784, "title": "Family living: who cares?", "work_id": 74710, "role": "director", "role_id": 938, "is_primary": true}, {"id": 853874, "title": "Joey", "work_id": 69259, "role": "director", "role_id": 938, "is_primary": true}, {"id": 1538005, "title": "Using them safely", "work_id": 76029, "role": "director", "role_id": 938, "is_primary": true}, {"id": 2645355, "title": "Keep off the grass", "work_id": 69362, "role": "director", "role_id": 938, "is_primary": true}, {"id": 878123, "title": "Trans-Canada journey", "work_id": 91106, "role": "director", "role_id": 938, "is_primary": true}, {"id": 2712521, "title": "Each day that comes", "work_id": 66976, "role": "director", "role_id": 938, "is_primary": true}, {"id": 2764407, "title": "Cheating", "work_id": 65985, "role": "director", "role_id": 938, "is_primary": true}, {"id": 2764401, "title": "Aggression - assertion", "work_id": 64602, "role": "director", "role_id": 938, "is_primary": true}, {"id": 2714028, "title": "For Your Tomorrow", "work_id": 67713, "role": "producer", "role_id": 1089, "is_primary": true}, {"id": 2308244, "title": "Squarejohns", "work_id": 73136, "role": "producer", "role_id": 1089, "is_primary": true}], "also_known_as": "", "date_of_birth": "", "date_of_death": "", "genders": [], "languages": [], "places_of_operation": [], "biography": "", "biography_author": null, "date_of_biography": "2023-05-09T18:48:20.260465+10:00", "external_links": [], "uuid": "0a19ddbb-2872-4593-af15-56ba78c2e7e6", "source": {"name": "Vernon", "slug": "vernon"}, "source_identifier": "20000", "external_references": [], "date_modified": "2025-03-14T17:46:13.224802+11:00"}, {"id": 12181, "name": "Moreland-Latchford Productions", "roles_in_work": [{"id": 2750756, "title": "Body talk", "work_id": 97486, "role": "producer", "role_id": 1089, "is_primary": true}, {"id": 2712184, "title": "Distress signals. Part 2", "work_id": 66832, "role": "production company", "role_id": 941, "is_primary": true}, {"id": 2712182, "title": "Distress signals. Part 1", "work_id": 66831, "role": "production company", "role_id": 941, "is_primary": true}, {"id": 2758348, "title": "Food for health", "work_id": 96294, "role": "production company", "role_id": 941, "is_primary": true}, {"id": 2678043, "title": "Badminton", "work_id": 65195, "role": "production company", "role_id": 941, "is_primary": true}, {"id": 2711851, "title": "The Dead bird", "work_id": 66654, "role": "production company", "role_id": 941, "is_primary": true}, {"id": 2758351, "title": "Kitchen management principles", "work_id": 97013, "role": "production company", "role_id": 941, "is_primary": true}, {"id": 2750245, "title": "Growth", "work_id": 97210, "role": "production company", "role_id": 941, "is_primary": true}, {"id": 2750246, "title": "Who are we? Episode 1. Hands and feet", "work_id": 97211, "role": "production company", "role_id": 941, "is_primary": true}, {"id": 2750247, "title": "Shoes (Episode 2)", "work_id": 97212, "role": "production company", "role_id": 941, "is_primary": true}, {"id": 2764405, "title": "Cheating", "work_id": 65985, "role": "production company", "role_id": 941, "is_primary": true}, {"id": 2714074, "title": "Forge and ornamental iron", "work_id": 67731, "role": "production company", "role_id": 941, "is_primary": true}, {"id": 2764399, "title": "Aggression - assertion", "work_id": 64602, "role": "production company", "role_id": 941, "is_primary": true}, {"id": 2763783, "title": "Lathe: work between centres", "work_id": 69519, "role": "production company", "role_id": 941, "is_primary": true}, {"id": 2767241, "title": "Proper winter clothing", "work_id": 71920, "role": "production company", "role_id": 941, "is_primary": true}, {"id": 2645075, "title": "His responsibility?", "work_id": 68482, "role": "production company", "role_id": 941, "is_primary": true}, {"id": 2645353, "title": "Keep off the grass", "work_id": 69362, "role": "production company", "role_id": 941, "is_primary": true}, {"id": 2767245, "title": "Proper summer bush clothing", "work_id": 71919, "role": "production company", "role_id": 941, "is_primary": true}, {"id": 2758343, "title": "Preparing meals", "work_id": 71794, "role": "production company", "role_id": 941, "is_primary": true}, {"id": 2765087, "title": "Fundamental canoeing", "work_id": 67891, "role": "production company", "role_id": 941, "is_primary": true}, {"id": 2765083, "title": "Firemaking and shelters", "work_id": 67540, "role": "production company", "role_id": 941, "is_primary": true}, {"id": 2765077, "title": "Drown-proofing", "work_id": 66940, "role": "production company", "role_id": 941, "is_primary": true}, {"id": 2749364, "title": "Donkeys", "work_id": 96766, "role": "production company", "role_id": 941, "is_primary": true}, {"id": 2750755, "title": "Body talk", "work_id": 97486, "role": "production company", "role_id": 941, "is_primary": true}, {"id": 2749363, "title": "Goats", "work_id": 96765, "role": "production company", "role_id": 941, "is_primary": true}, {"id": 2748962, "title": "Safety in the shop: hand tools", "work_id": 96568, "role": "production company", "role_id": 941, "is_primary": true}, {"id": 2765093, "title": "Shelter construction in winter (Outdoor recreation)", "work_id": 72757, "role": "production company", "role_id": 941, "is_primary": true}, {"id": 2749825, "title": "What happens inside?", "work_id": 96996, "role": "production company", "role_id": 941, "is_primary": true}, {"id": 857370, "title": "Purposes of family planning", "work_id": 71963, "role": "production company", "role_id": 941, "is_primary": true}, {"id": 2646965, "title": "Wood joints", "work_id": 74859, "role": "production company", "role_id": 941, "is_primary": true}, {"id": 856545, "title": "Outdoor cooking in winter", "work_id": 71279, "role": "production company", "role_id": 941, "is_primary": true}, {"id": 855280, "title": "Methods of family planning", "work_id": 70333, "role": "production company", "role_id": 941, "is_primary": true}, {"id": 757783, "title": "Family living: who cares?", "work_id": 74710, "role": "production company", "role_id": 941, "is_primary": true}, {"id": 749687, "title": "One kitten for Kim", "work_id": 71131, "role": "production company", "role_id": 941, "is_primary": true}, {"id": 755383, "title": "Plastics and fibreglass: thermoplastics", "work_id": 73673, "role": "production company", "role_id": 941, "is_primary": true}, {"id": 860272, "title": "VD, name your contacts", "work_id": 74301, "role": "production company", "role_id": 941, "is_primary": true}, {"id": 859866, "title": "Understanding electronics: the transistor", "work_id": 73985, "role": "production company", "role_id": 941, "is_primary": true}, {"id": 859695, "title": "A Time together", "work_id": 73849, "role": "production company", "role_id": 941, "is_primary": true}, {"id": 859343, "title": "Teenage pregnancy", "work_id": 73573, "role": "production company", "role_id": 941, "is_primary": true}, {"id": 897295, "title": "The Big red barn", "work_id": 77315, "role": "production company", "role_id": 941, "is_primary": true}, {"id": 857966, "title": "Safety in the shop: basic practices", "work_id": 72434, "role": "production company", "role_id": 941, "is_primary": true}, {"id": 1538004, "title": "Using them safely", "work_id": 76029, "role": "production company", "role_id": 941, "is_primary": true}, {"id": 825683, "title": "Fiberglass = Fibreglass", "work_id": 95984, "role": "production company", "role_id": 941, "is_primary": true}, {"id": 857968, "title": "Safety in the shop: power tools", "work_id": 72435, "role": "production company", "role_id": 941, "is_primary": true}, {"id": 761458, "title": "Ponies", "work_id": 76230, "role": "production company", "role_id": 941, "is_primary": true}, {"id": 761699, "title": "Lickety-split licorice", "work_id": 76341, "role": "production company", "role_id": 941, "is_primary": true}, {"id": 2715467, "title": "The High: drugs and you", "work_id": 68451, "role": "production company", "role_id": 941, "is_primary": true}], "also_known_as": "", "date_of_birth": "", "date_of_death": "", "genders": [], "languages": [], "places_of_operation": [], "biography": "", "biography_author": null, "date_of_biography": "2023-05-09T17:27:10.437878+10:00", "external_links": [], "uuid": "0bf6c1cb-89e6-4a6e-bbf0-9a4ca8c7467c", "source": {"name": "Vernon", "slug": "vernon"}, "source_identifier": "4292", "external_references": [], "date_modified": "2025-03-14T17:49:13.988534+11:00"}, {"id": 12180, "name": "John Dooley", "roles_in_work": [{"id": 2755303, "title": "Towards a modern Europe: the Renaissance", "work_id": 73944, "role": "director", "role_id": 938, "is_primary": true}, {"id": 2713373, "title": "Falmouth for orders", "work_id": 67378, "role": "director", "role_id": 938, "is_primary": true}, {"id": 2714138, "title": "Four degrees west", "work_id": 67761, "role": "director", "role_id": 938, "is_primary": true}, {"id": 2755299, "title": "An Age of Revolutions. Great Britain", "work_id": 64598, "role": "director", "role_id": 938, "is_primary": true}, {"id": 2755301, "title": "The Romans", "work_id": 72335, "role": "director", "role_id": 938, "is_primary": true}, {"id": 2755305, "title": "The Greeks", "work_id": 76905, "role": "director", "role_id": 938, "is_primary": true}, {"id": 2755307, "title": "The Middle Ages", "work_id": 70366, "role": "director", "role_id": 938, "is_primary": true}, {"id": 2755309, "title": "An Age of revolutions", "work_id": 81882, "role": "director", "role_id": 938, "is_primary": true}, {"id": 2755311, "title": "Myths of nationalism", "work_id": 70732, "role": "director", "role_id": 938, "is_primary": true}, {"id": 1846426, "title": "The Loire valley = La Vallee de la Loire", "work_id": 82210, "role": "director", "role_id": 938, "is_primary": true}, {"id": 2755313, "title": "An Outline History of Europe", "work_id": 114574, "role": "director", "role_id": 938, "is_primary": true}, {"id": 1820349, "title": "Russia in Europe", "work_id": 72409, "role": "producer", "role_id": 1089, "is_primary": true}, {"id": 1820387, "title": "The Red planet, Mars", "work_id": 72103, "role": "producer", "role_id": 1089, "is_primary": true}], "also_known_as": "", "date_of_birth": "", "date_of_death": "", "genders": [], "languages": [], "places_of_operation": [], "biography": "", "biography_author": null, "date_of_biography": "2023-08-11T14:04:47.410587+10:00", "external_links": [], "uuid": "960f8eb8-dfb8-412a-b281-bedc83d4612c", "source": {"name": "Vernon", "slug": "vernon"}, "source_identifier": "22218", "external_references": [], "date_modified": "2025-03-13T14:32:05.872020+11:00"}, {"id": 12179, "name": "David Lochner", "roles_in_work": [{"id": 2676868, "title": "Age of invention", "work_id": 64596, "role": "director", "role_id": 938, "is_primary": true}, {"id": 862110, "title": "The Beacons and beyond", "work_id": 76003, "role": "director", "role_id": 938, "is_primary": true}, {"id": 2678876, "title": "Britannia: a bridge", "work_id": 65616, "role": "director", "role_id": 938, "is_primary": true}], "also_known_as": "", "date_of_birth": null, "date_of_death": null, "genders": [], "languages": [], "places_of_operation": [], "biography": "", "biography_author": null, "date_of_biography": null, "external_links": [], "uuid": "b8391f8c-2acf-40e4-9551-377e975d4ed5", "source": {"name": "Vernon", "slug": "vernon"}, "source_identifier": "17689", "external_references": [], "date_modified": "2025-03-07T00:01:04.581276+11:00"}]}