{"count": 28687, "next": "https://api.acmi.net.au/creators/?page=299", "previous": "https://api.acmi.net.au/creators/?page=297", "results": [{"id": 82627, "name": "Jia Kuan", "roles_in_work": [{"id": 2651067, "title": "When will the day break? = Wen tian he shi ming = 問天何時明", "work_id": 115797, "role": "cinematographer", "role_id": 32, "is_primary": false}], "also_known_as": "", "date_of_birth": null, "date_of_death": null, "genders": [], "languages": [], "places_of_operation": [], "biography": "", "biography_author": null, "date_of_biography": null, "external_links": [], "uuid": "98d99791-8195-4a52-84d8-103d37f5d8b9", "source": {"name": "Vernon", "slug": "vernon"}, "source_identifier": "37704", "external_references": [{"id": 32332, "source": {"name": "Wikidata", "slug": "wikidata"}, "source_identifier": "Q121057883"}], "date_modified": "2025-03-05T14:26:07.840732+11:00"}, {"id": 82626, "name": "Yue Yu", "roles_in_work": [{"id": 2651066, "title": "When will the day break? = Wen tian he shi ming = 問天何時明", "work_id": 115797, "role": "writer", "role_id": 939, "is_primary": true}], "also_known_as": "", "date_of_birth": null, "date_of_death": null, "genders": [], "languages": [], "places_of_operation": [], "biography": "", "biography_author": null, "date_of_biography": null, "external_links": [], "uuid": "676fec18-54cb-46ae-920b-6326e9b89206", "source": {"name": "Vernon", "slug": "vernon"}, "source_identifier": "37703", "external_references": [{"id": 40412, "source": {"name": "Wikidata", "slug": "wikidata"}, "source_identifier": "Q121144070"}], "date_modified": "2025-03-05T14:26:07.246030+11:00"}, {"id": 82625, "name": "Ma Erlu", "roles_in_work": [{"id": 2651065, "title": "When will the day break? = Wen tian he shi ming = 問天何時明", "work_id": 115797, "role": "director", "role_id": 938, "is_primary": true}], "also_known_as": "", "date_of_birth": null, "date_of_death": null, "genders": [], "languages": [], "places_of_operation": [], "biography": "", "biography_author": null, "date_of_biography": null, "external_links": [], "uuid": "a9ed6cb8-8388-49cd-bf1c-3dbccb1f7eb2", "source": {"name": "Vernon", "slug": "vernon"}, "source_identifier": "37702", "external_references": [{"id": 35347, "source": {"name": "Wikidata", "slug": "wikidata"}, "source_identifier": "Q121143917"}], "date_modified": "2025-03-05T14:26:06.653484+11:00"}, {"id": 82624, "name": "Li Zhonghua", "roles_in_work": [{"id": 2651061, "title": "Why was I born = Wei shen me sheng wo", "work_id": 115796, "role": "cast", "role_id": 33, "is_primary": false}], "also_known_as": "", "date_of_birth": null, "date_of_death": null, "genders": [], "languages": [], "places_of_operation": [], "biography": "", "biography_author": null, "date_of_biography": null, "external_links": [], "uuid": "f92e18f0-bcad-4d4b-9347-a78087226d98", "source": {"name": "Vernon", "slug": "vernon"}, "source_identifier": "36854", "external_references": [{"id": 38421, "source": {"name": "Wikidata", "slug": "wikidata"}, "source_identifier": "Q121271494"}], "date_modified": "2025-03-05T14:26:03.940934+11:00"}, {"id": 82623, "name": "Fang Qingzuo", "roles_in_work": [{"id": 2651060, "title": "Why was I born = Wei shen me sheng wo", "work_id": 115796, "role": "cast", "role_id": 33, "is_primary": false}], "also_known_as": "", "date_of_birth": null, "date_of_death": null, "genders": [], "languages": [], "places_of_operation": [], "biography": "", "biography_author": null, "date_of_biography": null, "external_links": [], "uuid": "345ec8c7-9464-49d2-9b78-b1c6d2cbc4a4", "source": {"name": "Vernon", "slug": "vernon"}, "source_identifier": "36853", "external_references": [{"id": 37731, "source": {"name": "Wikidata", "slug": "wikidata"}, "source_identifier": "Q121337595"}], "date_modified": "2025-03-05T14:26:03.323892+11:00"}, {"id": 82622, "name": "Lai Ming", "roles_in_work": [{"id": 2651059, "title": "Why was I born = Wei shen me sheng wo", "work_id": 115796, "role": "cast", "role_id": 33, "is_primary": false}], "also_known_as": "", "date_of_birth": null, "date_of_death": null, "genders": [], "languages": [], "places_of_operation": [], "biography": "", "biography_author": null, "date_of_biography": null, "external_links": [], "uuid": "8d31872f-af8a-48ab-a589-33e1c13b874e", "source": {"name": "Vernon", "slug": "vernon"}, "source_identifier": "36852", "external_references": [{"id": 41744, "source": {"name": "Wikidata", "slug": "wikidata"}, "source_identifier": "Q121223247"}], "date_modified": "2025-03-05T14:26:02.677144+11:00"}, {"id": 82621, "name": "Ji Chenmu", "roles_in_work": [{"id": 2651058, "title": "Why was I born = Wei shen me sheng wo", "work_id": 115796, "role": "cast", "role_id": 33, "is_primary": false}], "also_known_as": "", "date_of_birth": null, "date_of_death": null, "genders": [{"id": 9, "name": "Male", "slug": "male"}], "languages": [], "places_of_operation": [], "biography": "", "biography_author": null, "date_of_biography": null, "external_links": [], "uuid": "08dda296-d502-4e95-b9cf-be1735ccefe6", "source": {"name": "Vernon", "slug": "vernon"}, "source_identifier": "36851", "external_references": [{"id": 40099, "source": {"name": "Wikidata", "slug": "wikidata"}, "source_identifier": "Q121270684"}], "date_modified": "2025-03-05T14:26:02.072557+11:00"}, {"id": 82620, "name": "Tao Jiazhou", "roles_in_work": [{"id": 2651057, "title": "Why was I born = Wei shen me sheng wo", "work_id": 115796, "role": "music", "role_id": 949, "is_primary": false}], "also_known_as": "", "date_of_birth": null, "date_of_death": null, "genders": [], "languages": [], "places_of_operation": [], "biography": "", "biography_author": null, "date_of_biography": null, "external_links": [], "uuid": "7f03a98d-7768-43d6-98d1-9ddb35356960", "source": {"name": "Vernon", "slug": "vernon"}, "source_identifier": "36850", "external_references": [{"id": 52135, "source": {"name": "Wikidata", "slug": "wikidata"}, "source_identifier": "Q121360937"}], "date_modified": "2025-03-05T14:26:01.473098+11:00"}, {"id": 82619, "name": "Li Baoqi", "roles_in_work": [{"id": 2651056, "title": "Why was I born = Wei shen me sheng wo", "work_id": 115796, "role": "cinematographer", "role_id": 32, "is_primary": false}], "also_known_as": "", "date_of_birth": null, "date_of_death": null, "genders": [], "languages": [], "places_of_operation": [], "biography": "", "biography_author": null, "date_of_biography": null, "external_links": [], "uuid": "a255a420-b6fd-4c34-a05a-5e5fc49f07b1", "source": {"name": "Vernon", "slug": "vernon"}, "source_identifier": "36849", "external_references": [{"id": 37411, "source": {"name": "Wikidata", "slug": "wikidata"}, "source_identifier": "Q121036420"}], "date_modified": "2025-03-05T14:26:00.866213+11:00"}, {"id": 82618, "name": "Yao Yun", "roles_in_work": [{"id": 2651055, "title": "Why was I born = Wei shen me sheng wo", "work_id": 115796, "role": "script", "role_id": 962, "is_primary": false}], "also_known_as": "", "date_of_birth": null, "date_of_death": null, "genders": [], "languages": [], "places_of_operation": [], "biography": "", "biography_author": null, "date_of_biography": null, "external_links": [], "uuid": "0d5f43b2-a3cc-487f-b036-57bbd2421376", "source": {"name": "Vernon", "slug": "vernon"}, "source_identifier": "36848", "external_references": [], "date_modified": "2025-03-05T14:26:00.269385+11:00"}]}