{"count": 28687, "next": "https://api.acmi.net.au/creators/?page=1149", "previous": "https://api.acmi.net.au/creators/?page=1147", "results": [{"id": 73935, "name": "N. Kaplan", "roles_in_work": [{"id": 2676141, "title": "Abel Gance: yesterday and tomorrow = Abel Gance: hier et demain", "work_id": 111346, "role": "co-director", "role_id": 959, "is_primary": true}], "also_known_as": "", "date_of_birth": "", "date_of_death": "", "genders": [], "languages": [], "places_of_operation": [], "biography": "", "biography_author": null, "date_of_biography": "2023-05-09T11:43:17.354721+10:00", "external_links": [], "uuid": "902beb1b-4d77-4875-ba67-b961f3a32de5", "source": {"name": "Vernon", "slug": "vernon"}, "source_identifier": "25583", "external_references": [{"id": 39279, "source": {"name": "Wikidata", "slug": "wikidata"}, "source_identifier": "Q121085996"}], "date_modified": "2025-03-06T23:00:51.495198+11:00"}, {"id": 73934, "name": "D Harispe", "roles_in_work": [{"id": 2676139, "title": "Abel Gance: yesterday and tomorrow = Abel Gance: hier et demain", "work_id": 111346, "role": "co-director", "role_id": 959, "is_primary": true}], "also_known_as": "", "date_of_birth": "", "date_of_death": "", "genders": [], "languages": [], "places_of_operation": [], "biography": "", "biography_author": null, "date_of_biography": "2023-05-09T11:43:17.073998+10:00", "external_links": [], "uuid": "0a2f0d33-a7f5-4a3c-a795-2041e899dfc6", "source": {"name": "Vernon", "slug": "vernon"}, "source_identifier": "17301", "external_references": [{"id": 42871, "source": {"name": "Wikidata", "slug": "wikidata"}, "source_identifier": "Q121337490"}], "date_modified": "2025-03-06T23:00:50.908209+11:00"}, {"id": 73933, "name": "Q. Ciarlo", "roles_in_work": [{"id": 2676137, "title": "Abel Gance: yesterday and tomorrow = Abel Gance: hier et demain", "work_id": 111346, "role": "co-director", "role_id": 959, "is_primary": true}], "also_known_as": "", "date_of_birth": "", "date_of_death": "", "genders": [], "languages": [], "places_of_operation": [], "biography": "", "biography_author": null, "date_of_biography": "2023-05-09T11:43:16.834919+10:00", "external_links": [], "uuid": "6a0edfc6-9a07-4ad2-acca-967cd4e7ccb1", "source": {"name": "Vernon", "slug": "vernon"}, "source_identifier": "26993", "external_references": [{"id": 38332, "source": {"name": "Wikidata", "slug": "wikidata"}, "source_identifier": "Q121036856"}], "date_modified": "2025-03-06T23:00:50.296072+11:00"}, {"id": 73932, "name": "Harold Fletcher", "roles_in_work": [{"id": 2064063, "title": "250 million years ago: permian life in Australia", "work_id": 85036, "role": "co-director", "role_id": 959, "is_primary": true}, {"id": 2676100, "title": "250 million years ago: permian life in Australia", "work_id": 111334, "role": "co-director", "role_id": 959, "is_primary": true}], "also_known_as": "", "date_of_birth": "", "date_of_death": "", "genders": [], "languages": [], "places_of_operation": [], "biography": "", "biography_author": null, "date_of_biography": "2023-05-09T11:20:16.300334+10:00", "external_links": [], "uuid": "6bec8f7b-f564-4194-8e61-86f9d4a0a625", "source": {"name": "Vernon", "slug": "vernon"}, "source_identifier": "20264", "external_references": [{"id": 40110, "source": {"name": "Wikidata", "slug": "wikidata"}, "source_identifier": "Q121126226"}], "date_modified": "2025-03-06T23:00:28.384535+11:00"}, {"id": 73931, "name": "Max Lemon", "roles_in_work": [{"id": 2643880, "title": "80 channels under the sea", "work_id": 111328, "role": "director", "role_id": 938, "is_primary": true}, {"id": 2373939, "title": "Not by choice", "work_id": 70989, "role": "editor", "role_id": 918, "is_primary": true}], "also_known_as": "", "date_of_birth": "", "date_of_death": "", "genders": [], "languages": [], "places_of_operation": [], "biography": "", "biography_author": null, "date_of_biography": "2023-07-05T03:47:22.540497+10:00", "external_links": [], "uuid": "aa2004f7-f2d1-4c62-b7f3-887b64ac6bc8", "source": {"name": "Vernon", "slug": "vernon"}, "source_identifier": "24870", "external_references": [{"id": 42380, "source": {"name": "Wikidata", "slug": "wikidata"}, "source_identifier": "Q121271151"}], "date_modified": "2025-03-05T12:07:49.381708+11:00"}, {"id": 73930, "name": "Fali Bilimoria", "roles_in_work": [{"id": 2676080, "title": "Fifty miles from Poona", "work_id": 111325, "role": "director", "role_id": 938, "is_primary": true}, {"id": 2758264, "title": "Four families", "work_id": 66297, "role": "co-director", "role_id": 959, "is_primary": true}], "also_known_as": "", "date_of_birth": "1923-03-18", "date_of_death": "2001-01-14", "genders": [{"id": 9, "name": "Male", "slug": "male"}], "languages": [], "places_of_operation": [{"id": 50, "name": "India", "slug": "india"}], "biography": "", "biography_author": null, "date_of_biography": "2023-05-09T16:50:40.605732+10:00", "external_links": [], "uuid": "37de3dc7-a257-4133-a026-f01667eca267", "source": {"name": "Vernon", "slug": "vernon"}, "source_identifier": "18965", "external_references": [{"id": 52038, "source": {"name": "Wikidata", "slug": "wikidata"}, "source_identifier": "Q1394034"}, {"id": 54409, "source": {"name": "VIAF", "slug": "viaf"}, "source_identifier": "311621559"}, {"id": 54410, "source": {"name": "WorldCat", "slug": "worldcat"}, "source_identifier": "viaf-311621559"}], "date_modified": "2025-03-13T14:48:55.034385+11:00"}, {"id": 73929, "name": "Arthur Lipsett", "roles_in_work": [{"id": 2676073, "title": "21-87 (D)", "work_id": 111323, "role": "director", "role_id": 938, "is_primary": true}, {"id": 2076251, "title": "A Trip down memory lane", "work_id": 74017, "role": "director", "role_id": 938, "is_primary": true}, {"id": 873915, "title": "N-Zone", "work_id": 88475, "role": "director", "role_id": 938, "is_primary": true}, {"id": 2267361, "title": "Very nice very nice", "work_id": 74325, "role": "director", "role_id": 938, "is_primary": true}, {"id": 2715676, "title": "Hors d'oeuvre = Hors-d'oeuvre", "work_id": 68552, "role": "director", "role_id": 938, "is_primary": true}, {"id": 2714235, "title": "Free fall", "work_id": 67808, "role": "director", "role_id": 938, "is_primary": true}, {"id": 2076241, "title": "A Trip down memory lane", "work_id": 74017, "role": "co-producer", "role_id": 915, "is_primary": true}], "also_known_as": "", "date_of_birth": "13 MAY 1936", "date_of_death": "01 MAY 1986", "genders": [{"id": 9, "name": "Male", "slug": "male"}], "languages": [], "places_of_operation": [{"id": 36, "name": "Canada", "slug": "canada"}], "biography": "Arthur Lipsett (May 13, 1936 – May 1, 1986) was a Canadian filmmaker with the National Film Board of Canada. His short, avant-garde collage films, which he described as \"neither underground nor conventional”, contain elements of narrative, documentary, experimental collage, and visual essay. His first film, Very Nice, Very Nice, was nominated for an Academy Award. Source: Wikidata; 01/08/2023", "biography_author": null, "date_of_biography": "2025-03-12T01:40:23.657661+11:00", "external_links": [{"id": 3593, "uri": "https://en.wikipedia.org/wiki/Arthur_Lipsett"}], "uuid": "0c1c2835-1a1f-4079-81a5-2c9a0bcd8a53", "source": {"name": "Vernon", "slug": "vernon"}, "source_identifier": "111760", "external_references": [{"id": 25152, "source": {"name": "Wikidata", "slug": "wikidata"}, "source_identifier": "Q2865207"}, {"id": 27370, "source": {"name": "VIAF", "slug": "viaf"}, "source_identifier": "295479390"}, {"id": 27371, "source": {"name": "WorldCat", "slug": "worldcat"}, "source_identifier": "viaf-295479390"}], "date_modified": "2025-03-12T01:40:23.657891+11:00"}, {"id": 73928, "name": "Ronald Dick", "roles_in_work": [{"id": 2646040, "title": "Portrait of the family", "work_id": 71719, "role": "director", "role_id": 938, "is_primary": true}, {"id": 2315936, "title": "Struggle for oil", "work_id": 73320, "role": "director", "role_id": 938, "is_primary": true}, {"id": 2150947, "title": "On stage", "work_id": 71096, "role": "director", "role_id": 938, "is_primary": true}, {"id": 2679124, "title": "Can it hold together?", "work_id": 65744, "role": "co-producer", "role_id": 915, "is_primary": true}, {"id": 2678598, "title": "Black and white in South Africa", "work_id": 65471, "role": "co-producer", "role_id": 915, "is_primary": true}, {"id": 2646179, "title": "Road to independence", "work_id": 72287, "role": "co-producer", "role_id": 915, "is_primary": true}, {"id": 2714132, "title": "Four centuries of growing pains", "work_id": 67759, "role": "co-producer", "role_id": 915, "is_primary": true}, {"id": 2357059, "title": "The Invisible keystone", "work_id": 69084, "role": "co-producer", "role_id": 915, "is_primary": true}, {"id": 2357011, "title": "Poverty and plenty", "work_id": 71743, "role": "producer", "role_id": 1089, "is_primary": true}, {"id": 2644419, "title": "Colonialism: ogre or angel?", "work_id": 66235, "role": "producer", "role_id": 1089, "is_primary": true}, {"id": 2680676, "title": "Crisis in Asia", "work_id": 66503, "role": "producer", "role_id": 1089, "is_primary": true}, {"id": 2680142, "title": "The Colonies look ahead", "work_id": 66236, "role": "producer", "role_id": 1089, "is_primary": true}, {"id": 2357040, "title": "Ten days that shook the Commonwealth", "work_id": 73609, "role": "producer", "role_id": 1089, "is_primary": true}, {"id": 2356966, "title": "They called it white man's burden", "work_id": 73679, "role": "producer", "role_id": 1089, "is_primary": true}, {"id": 2356979, "title": "Storm clouds over the colonies", "work_id": 73219, "role": "producer", "role_id": 1089, "is_primary": true}, {"id": 2150727, "title": "Nigeria: giant in Africa", "work_id": 90850, "role": "producer/director", "role_id": 31, "is_primary": true}, {"id": 2676040, "title": "11 Steps to Survival", "work_id": 111319, "role": "script", "role_id": 962, "is_primary": false}], "also_known_as": "", "date_of_birth": "", "date_of_death": "", "genders": [], "languages": [], "places_of_operation": [], "biography": "", "biography_author": null, "date_of_biography": "2023-05-09T20:05:34.636273+10:00", "external_links": [], "uuid": "388e6efb-2008-464f-a596-b69463c27a00", "source": {"name": "Vernon", "slug": "vernon"}, "source_identifier": "28194", "external_references": [{"id": 43562, "source": {"name": "Wikidata", "slug": "wikidata"}, "source_identifier": "Q120306189"}], "date_modified": "2025-03-12T01:01:34.430778+11:00"}, {"id": 73927, "name": "Robert Verrall", "roles_in_work": [{"id": 2100553, "title": "Around perception", "work_id": 77844, "role": "director", "role_id": 938, "is_primary": true}, {"id": 2069352, "title": "A is for architecture", "work_id": 69104, "role": "director", "role_id": 938, "is_primary": true}, {"id": 2715675, "title": "Hors d'oeuvre = Hors-d'oeuvre", "work_id": 68552, "role": "director", "role_id": 938, "is_primary": true}, {"id": 2145105, "title": "Cosmic zoom", "work_id": 75173, "role": "director", "role_id": 938, "is_primary": true}, {"id": 2712926, "title": "Energy and matter", "work_id": 67161, "role": "director", "role_id": 938, "is_primary": true}, {"id": 2352964, "title": "The Half-masted schooner", "work_id": 85719, "role": "co-producer", "role_id": 915, "is_primary": true}, {"id": 2347940, "title": "The Family that dwelt apart", "work_id": 75184, "role": "co-producer", "role_id": 915, "is_primary": true}, {"id": 2171261, "title": "One out of three is a fsihboat", "work_id": 92944, "role": "co-producer", "role_id": 915, "is_primary": true}, {"id": 2101461, "title": "Arthritis: a dialogue with pain", "work_id": 92919, "role": "co-producer", "role_id": 915, "is_primary": true}, {"id": 2644684, "title": "Exeter", "work_id": 67282, "role": "co-producer", "role_id": 915, "is_primary": true}, {"id": 2646898, "title": "What is life?", "work_id": 74632, "role": "co-producer", "role_id": 915, "is_primary": true}, {"id": 2678377, "title": "Best friends", "work_id": 65359, "role": "co-producer", "role_id": 915, "is_primary": true}, {"id": 2714939, "title": "The Great toy robbery", "work_id": 68193, "role": "co-producer", "role_id": 915, "is_primary": true}, {"id": 2679835, "title": "Christmas at Moose Factory", "work_id": 66096, "role": "co-producer", "role_id": 915, "is_primary": true}, {"id": 2676038, "title": "11 Steps to Survival", "work_id": 111319, "role": "co-producer", "role_id": 915, "is_primary": true}, {"id": 2344619, "title": "The Drag", "work_id": 77319, "role": "co-producer", "role_id": 915, "is_primary": true}, {"id": 894946, "title": "Loops to learn by", "work_id": 69921, "role": "co-producer", "role_id": 915, "is_primary": true}, {"id": 896370, "title": "Hot stuff", "work_id": 75176, "role": "co-producer", "role_id": 915, "is_primary": true}, {"id": 2210304, "title": "Population explosion", "work_id": 71705, "role": "co-producer", "role_id": 915, "is_primary": true}, {"id": 2161374, "title": "No apple for Johnny", "work_id": 85748, "role": "co-producer", "role_id": 915, "is_primary": true}, {"id": 2326340, "title": "Ten million books: an introduction to Farley Mowat", "work_id": 87949, "role": "co-producer", "role_id": 915, "is_primary": true}, {"id": 2765627, "title": "An Equal opportunity", "work_id": 77741, "role": "co-producer", "role_id": 915, "is_primary": true}, {"id": 2205872, "title": "Pikangikum", "work_id": 87932, "role": "co-producer", "role_id": 915, "is_primary": true}, {"id": 2178730, "title": "Origami", "work_id": 71219, "role": "producer", "role_id": 1089, "is_primary": true}, {"id": 2678733, "title": "Boomsville", "work_id": 65541, "role": "producer", "role_id": 1089, "is_primary": true}, {"id": 2713292, "title": "A Fable by Aesop: The North wind and the sun", "work_id": 67343, "role": "producer", "role_id": 1089, "is_primary": true}, {"id": 2679909, "title": "Citizen Harold", "work_id": 66128, "role": "producer", "role_id": 1089, "is_primary": true}, {"id": 2646664, "title": "To see or not to see", "work_id": 73883, "role": "producer", "role_id": 1089, "is_primary": true}, {"id": 2647250, "title": "Paul Kane goes west", "work_id": 75798, "role": "producer", "role_id": 1089, "is_primary": true}, {"id": 2714770, "title": "Going the distance", "work_id": 68107, "role": "producer", "role_id": 1089, "is_primary": true}, {"id": 2714811, "title": "Goldwood", "work_id": 68126, "role": "producer", "role_id": 1089, "is_primary": true}, {"id": 2714852, "title": "Gore Road", "work_id": 68146, "role": "producer", "role_id": 1089, "is_primary": true}, {"id": 2647701, "title": "Doodle film", "work_id": 77107, "role": "producer", "role_id": 1089, "is_primary": true}, {"id": 2716150, "title": "In a Box", "work_id": 68807, "role": "producer", "role_id": 1089, "is_primary": true}, {"id": 2322521, "title": "Tax is not a four letter word", "work_id": 73527, "role": "producer", "role_id": 1089, "is_primary": true}, {"id": 1818706, "title": "Where there's smoke", "work_id": 74690, "role": "producer", "role_id": 1089, "is_primary": true}, {"id": 1804081, "title": "The Sky is blue", "work_id": 72892, "role": "producer", "role_id": 1089, "is_primary": true}, {"id": 2677105, "title": "Alphabet", "work_id": 64693, "role": "producer", "role_id": 1089, "is_primary": true}, {"id": 1805935, "title": "The Specialist", "work_id": 73077, "role": "producer", "role_id": 1089, "is_primary": true}, {"id": 1803542, "title": "Valley of the moon", "work_id": 90672, "role": "producer", "role_id": 1089, "is_primary": true}, {"id": 2063282, "title": "180 is max", "work_id": 90652, "role": "producer", "role_id": 1089, "is_primary": true}, {"id": 2069368, "title": "A is for architecture [edited version]", "work_id": 69105, "role": "producer", "role_id": 1089, "is_primary": true}, {"id": 2068176, "title": "A Fable by Aesop: The North wind and the sun", "work_id": 86306, "role": "producer", "role_id": 1089, "is_primary": true}, {"id": 1812082, "title": "The Men in the park", "work_id": 70299, "role": "producer", "role_id": 1089, "is_primary": true}, {"id": 2218457, "title": "End game in Paris", "work_id": 85727, "role": "producer", "role_id": 1089, "is_primary": true}], "also_known_as": "", "date_of_birth": "13 JAN 1928", "date_of_death": "", "genders": [{"id": 9, "name": "Male", "slug": "male"}], "languages": [], "places_of_operation": [{"id": 36, "name": "Canada", "slug": "canada"}], "biography": "Robert Verrall (born January 13, 1928 in Toronto, Ontario) is a Canadian animator, director and film producer who worked for the National Film Board of Canada (NFB) from 1945 to 1987. Over the course of his career, his films garnered a BAFTA Award, prizes at the Cannes Film Festival and Venice Film Festival, and six Academy Award nominations. Source: Wikidata; 01/08/2023", "biography_author": null, "date_of_biography": "2025-03-14T17:53:32.336552+11:00", "external_links": [{"id": 5044, "uri": "https://en.wikipedia.org/wiki/Robert_Verrall"}], "uuid": "373a93d8-4ee9-46d2-a816-d342570a51ea", "source": {"name": "Vernon", "slug": "vernon"}, "source_identifier": "27904", "external_references": [{"id": 25665, "source": {"name": "Wikidata", "slug": "wikidata"}, "source_identifier": "Q2159065"}, {"id": 31227, "source": {"name": "VIAF", "slug": "viaf"}, "source_identifier": "36804781"}, {"id": 31228, "source": {"name": "LOC Auth", "slug": "loc-auth"}, "source_identifier": "nr95003093"}], "date_modified": "2025-03-14T17:53:32.336784+11:00"}, {"id": 73926, "name": "Pierre L'Amare", "roles_in_work": [{"id": 2676039, "title": "11 Steps to Survival", "work_id": 111319, "role": "director", "role_id": 938, "is_primary": true}, {"id": 2676037, "title": "11 Steps to Survival", "work_id": 111319, "role": "co-producer", "role_id": 915, "is_primary": true}], "also_known_as": "", "date_of_birth": "", "date_of_death": "", "genders": [], "languages": [], "places_of_operation": [], "biography": "", "biography_author": null, "date_of_biography": "2023-05-09T11:19:13.314437+10:00", "external_links": [], "uuid": "1bf48eaa-726f-4770-9317-437b827124c7", "source": {"name": "Vernon", "slug": "vernon"}, "source_identifier": "26935", "external_references": [{"id": 39906, "source": {"name": "Wikidata", "slug": "wikidata"}, "source_identifier": "Q121035619"}], "date_modified": "2025-03-06T22:58:59.624897+11:00"}]}