{"count": 28681, "next": "https://api.acmi.net.au/creators/?page=1647", "previous": "https://api.acmi.net.au/creators/?page=1645", "results": [{"id": 29873, "name": "Claude Heroux", "roles_in_work": [{"id": 1999440, "title": "Scanners", "work_id": 94454, "role": "producer", "role_id": 1089, "is_primary": true}, {"id": 2335349, "title": "The Brood", "work_id": 87835, "role": "producer", "role_id": 1089, "is_primary": true}, {"id": 1993698, "title": "Videodrome", "work_id": 89425, "role": "producer", "role_id": 1089, "is_primary": true}], "also_known_as": "", "date_of_birth": "", "date_of_death": "", "genders": [], "languages": [], "places_of_operation": [], "biography": "", "biography_author": null, "date_of_biography": "2023-05-09T19:31:02.069594+10:00", "external_links": [], "uuid": "70692e9d-3694-45dc-aa06-bf20695ebf56", "source": {"name": "Vernon", "slug": "vernon"}, "source_identifier": "17073", "external_references": [{"id": 36501, "source": {"name": "Wikidata", "slug": "wikidata"}, "source_identifier": "Q121337721"}], "date_modified": "2023-09-05T18:40:18.900767+10:00"}, {"id": 29872, "name": "Mutual Productions", "roles_in_work": [{"id": 2335344, "title": "The Brood", "work_id": 87835, "role": "production company", "role_id": 941, "is_primary": true}], "also_known_as": "", "date_of_birth": "", "date_of_death": "", "genders": [], "languages": [], "places_of_operation": [], "biography": "", "biography_author": null, "date_of_biography": "2023-05-09T19:31:01.819318+10:00", "external_links": [], "uuid": "035c92e4-4027-41bb-acac-d48be1048560", "source": {"name": "Vernon", "slug": "vernon"}, "source_identifier": "10743", "external_references": [{"id": 34589, "source": {"name": "Wikidata", "slug": "wikidata"}, "source_identifier": "Q121035587"}], "date_modified": "2023-09-05T23:23:33.055000+10:00"}, {"id": 29871, "name": "Elgin International Films", "roles_in_work": [{"id": 2335340, "title": "The Brood", "work_id": 87835, "role": "production company", "role_id": 941, "is_primary": true}], "also_known_as": "", "date_of_birth": "", "date_of_death": "", "genders": [], "languages": [], "places_of_operation": [], "biography": "", "biography_author": null, "date_of_biography": "2023-05-09T19:31:01.580787+10:00", "external_links": [], "uuid": "66de0c7e-636b-47f1-b31c-8ac577b2146f", "source": {"name": "Vernon", "slug": "vernon"}, "source_identifier": "7851", "external_references": [{"id": 37297, "source": {"name": "Wikidata", "slug": "wikidata"}, "source_identifier": "Q121337553"}], "date_modified": "2023-09-05T19:28:19.265321+10:00"}, {"id": 29870, "name": "First Artists", "roles_in_work": [{"id": 2072704, "title": "A Piece of the action", "work_id": 88436, "role": "production company", "role_id": 941, "is_primary": true}, {"id": 2350971, "title": "The Getaway", "work_id": 87834, "role": "production company", "role_id": 941, "is_primary": true}, {"id": 2074798, "title": "A Star is born [Streisand]", "work_id": 89445, "role": "production company", "role_id": 941, "is_primary": true}, {"id": 2314891, "title": "Straight time", "work_id": 93370, "role": "production company", "role_id": 941, "is_primary": true}], "also_known_as": "", "date_of_birth": "", "date_of_death": "", "genders": [], "languages": [], "places_of_operation": [], "biography": "", "biography_author": null, "date_of_biography": "2023-05-09T19:56:01.400898+10:00", "external_links": [], "uuid": "d3acfa14-1133-4080-b631-14507ab77187", "source": {"name": "Vernon", "slug": "vernon"}, "source_identifier": "8363", "external_references": [{"id": 39895, "source": {"name": "Wikidata", "slug": "wikidata"}, "source_identifier": "Q121034567"}], "date_modified": "2023-09-05T19:44:10.380315+10:00"}, {"id": 29866, "name": "NV Polygrams S A", "roles_in_work": [{"id": 2109092, "title": "Bean", "work_id": 87831, "role": "production company", "role_id": 941, "is_primary": true}], "also_known_as": "", "date_of_birth": "", "date_of_death": "", "genders": [], "languages": [], "places_of_operation": [], "biography": "", "biography_author": null, "date_of_biography": "2023-05-09T12:43:08.843981+10:00", "external_links": [], "uuid": "3523e0ca-14dc-48e7-a5ae-ee3da45c628f", "source": {"name": "Vernon", "slug": "vernon"}, "source_identifier": "11053", "external_references": [], "date_modified": "2023-06-14T16:33:30.576250+10:00"}, {"id": 29863, "name": "Associated Television (Overseas) Ltd", "roles_in_work": [{"id": 2476484, "title": "Thunderbirds are go", "work_id": 87829, "role": "production company", "role_id": 941, "is_primary": true}], "also_known_as": "", "date_of_birth": "", "date_of_death": "", "genders": [], "languages": [], "places_of_operation": [], "biography": "", "biography_author": null, "date_of_biography": "2023-08-17T15:37:14.368607+10:00", "external_links": [], "uuid": "f252c4d6-cf5e-4324-9643-4d7d7337049d", "source": {"name": "Vernon", "slug": "vernon"}, "source_identifier": "5471", "external_references": [], "date_modified": "2023-08-17T15:37:14.368896+10:00"}, {"id": 29854, "name": "Eleventh Street Productions", "roles_in_work": [{"id": 2108611, "title": "Basquiat", "work_id": 87817, "role": "production company", "role_id": 941, "is_primary": true}], "also_known_as": "", "date_of_birth": "", "date_of_death": "", "genders": [], "languages": [], "places_of_operation": [], "biography": "", "biography_author": null, "date_of_biography": "2023-05-09T12:42:17.506073+10:00", "external_links": [], "uuid": "1f43f1cb-3734-4bbb-9fbf-447b66a932fa", "source": {"name": "Vernon", "slug": "vernon"}, "source_identifier": "7850", "external_references": [{"id": 37258, "source": {"name": "Wikidata", "slug": "wikidata"}, "source_identifier": "Q121034201"}], "date_modified": "2023-09-05T19:28:11.997399+10:00"}, {"id": 29852, "name": "A-Team Productions", "roles_in_work": [{"id": 2114996, "title": "Big Wednesday", "work_id": 87816, "role": "production company", "role_id": 941, "is_primary": true}], "also_known_as": "", "date_of_birth": "", "date_of_death": "", "genders": [], "languages": [], "places_of_operation": [], "biography": "", "biography_author": null, "date_of_biography": "2023-05-09T12:52:57.259581+10:00", "external_links": [], "uuid": "e89a3fc1-8e50-4c6f-8769-a7704320ca1a", "source": {"name": "Vernon", "slug": "vernon"}, "source_identifier": "5485", "external_references": [{"id": 34457, "source": {"name": "Wikidata", "slug": "wikidata"}, "source_identifier": "Q121034735"}], "date_modified": "2023-09-05T17:13:24.196030+10:00"}, {"id": 29847, "name": "WCG Entertainment", "roles_in_work": [{"id": 2225495, "title": "Face/off", "work_id": 87815, "role": "production company", "role_id": 941, "is_primary": true}], "also_known_as": "", "date_of_birth": "", "date_of_death": "", "genders": [], "languages": [], "places_of_operation": [], "biography": "", "biography_author": null, "date_of_biography": "2023-05-09T16:25:43.475839+10:00", "external_links": [], "uuid": "2732c7d5-c6e6-4749-8e70-4ec458e2e97d", "source": {"name": "Vernon", "slug": "vernon"}, "source_identifier": "14271", "external_references": [{"id": 32265, "source": {"name": "Wikidata", "slug": "wikidata"}, "source_identifier": "Q121271501"}], "date_modified": "2023-09-06T02:12:27.858987+10:00"}, {"id": 29846, "name": "Douglas Reuter Productions", "roles_in_work": [{"id": 2225493, "title": "Face/off", "work_id": 87815, "role": "production company", "role_id": 941, "is_primary": true}], "also_known_as": "", "date_of_birth": "", "date_of_death": "", "genders": [], "languages": [], "places_of_operation": [], "biography": "", "biography_author": null, "date_of_biography": "2023-05-09T16:25:43.227798+10:00", "external_links": [], "uuid": "18cf7edc-a0d4-4164-9b88-212301762575", "source": {"name": "Vernon", "slug": "vernon"}, "source_identifier": "7652", "external_references": [{"id": 33455, "source": {"name": "Wikidata", "slug": "wikidata"}, "source_identifier": "Q121315356"}], "date_modified": "2023-09-05T19:20:46.218504+10:00"}]}