{"count": 28683, "next": "https://api.acmi.net.au/creators/?page=2468", "previous": "https://api.acmi.net.au/creators/?page=2466", "results": [{"id": 14302, "name": "Jean Van Raemdonck", "roles_in_work": [{"id": 860390, "title": "Visit to Picasso = Visite a Picasso", "work_id": 74403, "role": "director", "role_id": 938, "is_primary": true}, {"id": 2711848, "title": "De Renoir a Picasso", "work_id": 66653, "role": "producer", "role_id": 1089, "is_primary": true}, {"id": 2714790, "title": "The Golden age of Flemish art", "work_id": 68115, "role": "producer", "role_id": 1089, "is_primary": true}], "also_known_as": "", "date_of_birth": null, "date_of_death": null, "genders": [], "languages": [], "places_of_operation": [], "biography": "", "biography_author": null, "date_of_biography": null, "external_links": [], "uuid": "f8f9d266-0132-4e41-988f-6734d7dc8f29", "source": {"name": "Vernon", "slug": "vernon"}, "source_identifier": "21560", "external_references": [], "date_modified": "2025-03-12T01:20:48.157191+11:00"}, {"id": 14301, "name": "Donyo Donev", "roles_in_work": [{"id": 762651, "title": "The Three fools", "work_id": 76725, "role": "director", "role_id": 938, "is_primary": true}, {"id": 762648, "title": "The Three fools and the cow", "work_id": 76724, "role": "director", "role_id": 938, "is_primary": true}, {"id": 2647583, "title": "The Three fools and the tree", "work_id": 76722, "role": "director", "role_id": 938, "is_primary": true}, {"id": 762633, "title": "The Three fools and the foolish woman", "work_id": 76719, "role": "director", "role_id": 938, "is_primary": true}, {"id": 2680995, "title": "De Facto", "work_id": 66652, "role": "director", "role_id": 938, "is_primary": true}, {"id": 762654, "title": "The Three fools - hunters", "work_id": 76726, "role": "director", "role_id": 938, "is_primary": true}, {"id": 762636, "title": "The Three fools - pedagogues", "work_id": 76720, "role": "director", "role_id": 938, "is_primary": true}, {"id": 762645, "title": "The Three fools - athletes", "work_id": 76723, "role": "director", "role_id": 938, "is_primary": true}], "also_known_as": "", "date_of_birth": "1929-06-27", "date_of_death": "2007-11-28", "genders": [{"id": 9, "name": "Male", "slug": "male"}], "languages": [{"id": 36, "name": "Bulgarian", "slug": "bulgarian"}], "places_of_operation": [{"id": 184, "name": "Bulgaria", "slug": "bulgaria"}], "biography": "Donyo Petrov Donev (Bulgarian: Доньо Петров Донев; 27 June 1929 – 28 November 2007) was a Bulgarian animator, director, art director, comics artist and cartoonist. He is best known as the \"father of The Three Fools\" – an animated humorous sequence whose short episodes were continuously released during the 1970s and 1980s. His biting satirical caricatures were published in most of the Bulgarian newspapers.\nDonev's works are characterized with simplified lines, the plasticity of the motion, and vivid expressiveness. He was the first to use a deformed manner of speaking and interjections as a sound image of a second plan, accompanied with the sounds of drums and bagpipes.", "biography_author": "Wikidata", "date_of_biography": "2023-08-01T14:42:30.030382+10:00", "external_links": [{"id": 3912, "uri": "https://en.wikipedia.org/wiki/Donyo_Donev"}], "uuid": "39342b89-5d35-4166-9150-73c9a98a5fd2", "source": {"name": "Vernon", "slug": "vernon"}, "source_identifier": "18339", "external_references": [{"id": 25918, "source": {"name": "Wikidata", "slug": "wikidata"}, "source_identifier": "Q5296942"}, {"id": 28247, "source": {"name": "VIAF", "slug": "viaf"}, "source_identifier": "71599210"}, {"id": 28248, "source": {"name": "LOC Auth", "slug": "loc-auth"}, "source_identifier": "n81047272"}, {"id": 28249, "source": {"name": "WorldCat", "slug": "worldcat"}, "source_identifier": "lccn-n81047272"}], "date_modified": "2025-03-07T00:46:56.637356+11:00"}, {"id": 14300, "name": "Film Bulgaria", "roles_in_work": [{"id": 2751505, "title": "Grandfather's mitten", "work_id": 97839, "role": "production company", "role_id": 941, "is_primary": true}, {"id": 2680994, "title": "De Facto", "work_id": 66652, "role": "production company", "role_id": 941, "is_primary": true}], "also_known_as": "", "date_of_birth": "", "date_of_death": "", "genders": [], "languages": [], "places_of_operation": [], "biography": "", "biography_author": null, "date_of_biography": "2023-08-11T17:08:41.406340+10:00", "external_links": [], "uuid": "68ad1212-8691-4050-abeb-d723364ab811", "source": {"name": "Vernon", "slug": "vernon"}, "source_identifier": "8189", "external_references": [], "date_modified": "2025-03-13T00:45:29.899884+11:00"}, {"id": 14299, "name": "KVIK S/F", "roles_in_work": [{"id": 2680987, "title": "Days of destruction", "work_id": 66649, "role": "production company", "role_id": 941, "is_primary": true}], "also_known_as": "", "date_of_birth": "", "date_of_death": "", "genders": [], "languages": [], "places_of_operation": [], "biography": "", "biography_author": null, "date_of_biography": "2023-08-11T15:54:48.599647+10:00", "external_links": [], "uuid": "5d0ebddd-a77b-4724-b486-e00152dcfba1", "source": {"name": "Vernon", "slug": "vernon"}, "source_identifier": "35912", "external_references": [], "date_modified": "2025-03-07T00:46:52.301591+11:00"}, {"id": 14298, "name": "Asgeir Long", "roles_in_work": [{"id": 2680986, "title": "Days of destruction", "work_id": 66649, "role": "director", "role_id": 938, "is_primary": true}], "also_known_as": "", "date_of_birth": "", "date_of_death": "", "genders": [], "languages": [], "places_of_operation": [], "biography": "", "biography_author": null, "date_of_biography": "2023-08-11T15:54:47.984104+10:00", "external_links": [], "uuid": "3629a1d4-1c8a-4039-b3f0-4ebd27b90b56", "source": {"name": "Vernon", "slug": "vernon"}, "source_identifier": "35911", "external_references": [], "date_modified": "2025-03-07T00:46:51.716616+11:00"}, {"id": 14297, "name": "Michael Martin", "roles_in_work": [{"id": 2680984, "title": "The Daydreamer", "work_id": 66647, "role": "director", "role_id": 938, "is_primary": true}], "also_known_as": "", "date_of_birth": "", "date_of_death": "", "genders": [], "languages": [], "places_of_operation": [], "biography": "", "biography_author": null, "date_of_biography": "2023-08-14T11:09:12.780010+10:00", "external_links": [], "uuid": "1a0ddcaa-e3eb-4f4f-8ddb-1879192676ee", "source": {"name": "Vernon", "slug": "vernon"}, "source_identifier": "25153", "external_references": [], "date_modified": "2025-03-07T00:46:50.044685+11:00"}, {"id": 14296, "name": "David Hoffman", "roles_in_work": [{"id": 2680981, "title": "A Day with Timmy Page", "work_id": 66645, "role": "producer", "role_id": 1089, "is_primary": true}], "also_known_as": "", "date_of_birth": "1941-01-01", "date_of_death": null, "genders": [{"id": 9, "name": "Male", "slug": "male"}], "languages": [], "places_of_operation": [{"id": 1, "name": "United States of America", "slug": "united-states-of-america"}], "biography": "", "biography_author": null, "date_of_biography": null, "external_links": [], "uuid": "2830f67a-c3f3-4789-aac7-854b5a2a312f", "source": {"name": "Vernon", "slug": "vernon"}, "source_identifier": "34092", "external_references": [{"id": 32594, "source": {"name": "Wikidata", "slug": "wikidata"}, "source_identifier": "Q5235077"}, {"id": 54277, "source": {"name": "VIAF", "slug": "viaf"}, "source_identifier": "58324014"}, {"id": 54278, "source": {"name": "LOC Auth", "slug": "loc-auth"}, "source_identifier": "n95037817"}, {"id": 54279, "source": {"name": "WorldCat", "slug": "worldcat"}, "source_identifier": "lccn-n95037817"}], "date_modified": "2025-03-07T00:46:47.825989+11:00"}, {"id": 14295, "name": "Iris Hoffman", "roles_in_work": [{"id": 2680980, "title": "A Day with Timmy Page", "work_id": 66645, "role": "producer", "role_id": 1089, "is_primary": true}], "also_known_as": "", "date_of_birth": null, "date_of_death": null, "genders": [], "languages": [], "places_of_operation": [], "biography": "", "biography_author": null, "date_of_biography": null, "external_links": [], "uuid": "0644cbbe-0c7d-4af2-accf-0202626bb601", "source": {"name": "Vernon", "slug": "vernon"}, "source_identifier": "20863", "external_references": [], "date_modified": "2025-03-07T00:46:47.248162+11:00"}, {"id": 14294, "name": "Amram Nowak Associates", "roles_in_work": [{"id": 876760, "title": "The Man in the mirror", "work_id": 90246, "role": "producer/director", "role_id": 31, "is_primary": true}, {"id": 2680979, "title": "A Day with Timmy Page", "work_id": 66645, "role": "production company", "role_id": 941, "is_primary": true}, {"id": 2644659, "title": "Emphysema: the facts", "work_id": 67133, "role": "production company", "role_id": 941, "is_primary": true}], "also_known_as": "", "date_of_birth": "", "date_of_death": "", "genders": [], "languages": [], "places_of_operation": [], "biography": "", "biography_author": null, "date_of_biography": "2023-05-09T15:55:32.258116+10:00", "external_links": [], "uuid": "49405883-6e5c-4125-9ab1-7998f850840b", "source": {"name": "Vernon", "slug": "vernon"}, "source_identifier": "5234", "external_references": [{"id": 34883, "source": {"name": "Wikidata", "slug": "wikidata"}, "source_identifier": "Q121034247"}], "date_modified": "2025-03-07T00:46:46.656332+11:00"}, {"id": 14293, "name": "Toei", "roles_in_work": [{"id": 2680977, "title": "A Day with a Japanese family", "work_id": 66644, "role": "production company", "role_id": 941, "is_primary": true}, {"id": 858087, "title": "Science and technology in Japan", "work_id": 72525, "role": "production company", "role_id": 941, "is_primary": true}, {"id": 860042, "title": "Two weeks in Japan", "work_id": 74128, "role": "production company", "role_id": 941, "is_primary": true}], "also_known_as": "", "date_of_birth": "", "date_of_death": "", "genders": [], "languages": [], "places_of_operation": [], "biography": "", "biography_author": null, "date_of_biography": "2023-08-11T12:58:26.518228+10:00", "external_links": [], "uuid": "65b047dd-e861-435a-b576-cb831fb49125", "source": {"name": "Vernon", "slug": "vernon"}, "source_identifier": "13561", "external_references": [], "date_modified": "2025-03-07T00:46:45.266280+11:00"}]}