{"count": 28687, "next": "https://api.acmi.net.au/creators/?page=1096", "previous": "https://api.acmi.net.au/creators/?page=1094", "results": [{"id": 74632, "name": "William Clarkson", "roles_in_work": [{"id": 2713288, "title": "A Fable", "work_id": 67342, "role": "co-producer", "role_id": 915, "is_primary": true}], "also_known_as": "", "date_of_birth": "", "date_of_death": "", "genders": [], "languages": [], "places_of_operation": [], "biography": "", "biography_author": null, "date_of_biography": "2023-05-09T11:27:24.807651+10:00", "external_links": [], "uuid": "8583056a-c3d8-46d9-921e-43d7ad78f8f9", "source": {"name": "Vernon", "slug": "vernon"}, "source_identifier": "30393", "external_references": [{"id": 33044, "source": {"name": "Wikidata", "slug": "wikidata"}, "source_identifier": "Q121091487"}], "date_modified": "2025-03-12T00:41:21.159546+11:00"}, {"id": 74631, "name": "Fred A Niles", "roles_in_work": [{"id": 2713287, "title": "A Fable", "work_id": 67342, "role": "co-producer", "role_id": 915, "is_primary": true}], "also_known_as": "", "date_of_birth": "", "date_of_death": "", "genders": [], "languages": [], "places_of_operation": [], "biography": "", "biography_author": null, "date_of_biography": "2023-05-09T11:27:24.568064+10:00", "external_links": [], "uuid": "4b20f719-7f39-47be-ada2-b67868905aa8", "source": {"name": "Vernon", "slug": "vernon"}, "source_identifier": "19210", "external_references": [{"id": 40520, "source": {"name": "Wikidata", "slug": "wikidata"}, "source_identifier": "Q121270746"}], "date_modified": "2025-03-12T00:41:20.579477+11:00"}, {"id": 74630, "name": "Jacques Godbout", "roles_in_work": [{"id": 2713285, "title": "Fabienne", "work_id": 67341, "role": "director", "role_id": 938, "is_primary": true}, {"id": 860407, "title": "Vivre sa ville", "work_id": 74415, "role": "director", "role_id": 938, "is_primary": true}, {"id": 2190725, "title": "Paul-Emile Borduas, (1905-1960)", "work_id": 71410, "role": "director", "role_id": 938, "is_primary": true}], "also_known_as": "", "date_of_birth": "27 NOV 1933", "date_of_death": "", "genders": [{"id": 9, "name": "Male", "slug": "male"}], "languages": [{"id": 4, "name": "French", "slug": "french"}], "places_of_operation": [{"id": 36, "name": "Canada", "slug": "canada"}], "biography": "Jacques Godbout, OC, CQ (born November 27, 1933) is a Canadian novelist, essayist, children's writer, journalist, filmmaker and poet. By his own admission a bit of a dabbler (touche-à-tout), Godbout has become one of the most important writers of his generation, with a major influence on post-1960 Quebec intellectual life. Source: Wikidata; 01/08/2023", "biography_author": null, "date_of_biography": "2025-03-12T00:41:16.791240+11:00", "external_links": [{"id": 4239, "uri": "https://en.wikipedia.org/wiki/Jacques_Godbout"}], "uuid": "a9adf964-1230-444b-b97c-60395e9cd11e", "source": {"name": "Vernon", "slug": "vernon"}, "source_identifier": "21152", "external_references": [{"id": 26002, "source": {"name": "Wikidata", "slug": "wikidata"}, "source_identifier": "Q3159008"}, {"id": 29134, "source": {"name": "VIAF", "slug": "viaf"}, "source_identifier": "76316318"}, {"id": 29135, "source": {"name": "LOC Auth", "slug": "loc-auth"}, "source_identifier": "n50033612"}, {"id": 29136, "source": {"name": "WorldCat", "slug": "worldcat"}, "source_identifier": "lccn-n50033612"}], "date_modified": "2025-03-12T00:41:16.791477+11:00"}, {"id": 74629, "name": "Viviane Elnecave", "roles_in_work": [{"id": 2713274, "title": "Eye = L'oeil", "work_id": 67332, "role": "director", "role_id": 938, "is_primary": true}, {"id": 863138, "title": "Luna, luna, luna", "work_id": 76854, "role": "director", "role_id": 938, "is_primary": true}, {"id": 2158057, "title": "Just a little love song", "work_id": 69323, "role": "director", "role_id": 938, "is_primary": true}, {"id": 2144183, "title": "Contemporary songs of French Canada: Notre jeunesse en auto-sport", "work_id": 87680, "role": "producer", "role_id": 1089, "is_primary": true}], "also_known_as": "", "date_of_birth": "", "date_of_death": "", "genders": [], "languages": [], "places_of_operation": [], "biography": "", "biography_author": null, "date_of_biography": "2023-05-09T16:23:56.438493+10:00", "external_links": [], "uuid": "3e2a6f06-1edd-4c32-8687-0d5a8f99c7a4", "source": {"name": "Vernon", "slug": "vernon"}, "source_identifier": "30165", "external_references": [], "date_modified": "2025-03-12T00:41:03.705287+11:00"}, {"id": 74628, "name": "Alvin Goldman", "roles_in_work": [{"id": 2224421, "title": "Eye witness. No. 86. Bar mitzvah", "work_id": 90078, "role": "director", "role_id": 938, "is_primary": true}, {"id": 2644710, "title": "Eye Witness. No. 81", "work_id": 67324, "role": "co-director", "role_id": 959, "is_primary": true}], "also_known_as": "", "date_of_birth": "", "date_of_death": "", "genders": [], "languages": [], "places_of_operation": [], "biography": "", "biography_author": null, "date_of_biography": "2023-05-09T16:24:24.633532+10:00", "external_links": [], "uuid": "99f0ed73-e299-4d5d-a36e-6061932027cb", "source": {"name": "Vernon", "slug": "vernon"}, "source_identifier": "15041", "external_references": [{"id": 32741, "source": {"name": "Wikidata", "slug": "wikidata"}, "source_identifier": "Q121271275"}], "date_modified": "2025-03-05T12:25:21.068087+11:00"}, {"id": 74627, "name": "Felix Lazarus", "roles_in_work": [{"id": 2644706, "title": "Eye Witness. No. 56", "work_id": 67323, "role": "co-director", "role_id": 959, "is_primary": true}], "also_known_as": "", "date_of_birth": "", "date_of_death": "", "genders": [{"id": 9, "name": "Male", "slug": "male"}], "languages": [], "places_of_operation": [], "biography": "", "biography_author": null, "date_of_biography": "2023-05-09T16:24:02.648092+10:00", "external_links": [], "uuid": "3830c70e-026b-47b9-ac5c-6e659fde1051", "source": {"name": "Vernon", "slug": "vernon"}, "source_identifier": "18979", "external_references": [{"id": 36564, "source": {"name": "Wikidata", "slug": "wikidata"}, "source_identifier": "Q61984778"}], "date_modified": "2025-03-05T12:25:18.388907+11:00"}, {"id": 74626, "name": "Margaret Dale", "roles_in_work": [{"id": 2713249, "title": "The Eye hears the ear sees", "work_id": 67319, "role": "producer", "role_id": 1089, "is_primary": true}], "also_known_as": "", "date_of_birth": "", "date_of_death": "", "genders": [], "languages": [], "places_of_operation": [], "biography": "", "biography_author": null, "date_of_biography": "2023-05-09T19:49:36.609383+10:00", "external_links": [], "uuid": "68385f64-6ead-4e28-8a42-46730d81e4c7", "source": {"name": "Vernon", "slug": "vernon"}, "source_identifier": "24337", "external_references": [{"id": 41771, "source": {"name": "Wikidata", "slug": "wikidata"}, "source_identifier": "Q121079053"}], "date_modified": "2025-03-12T00:40:32.720401+11:00"}, {"id": 74625, "name": "Kit Denton", "roles_in_work": [{"id": 2392026, "title": "A Race of horses", "work_id": 72019, "role": "director", "role_id": 938, "is_primary": true}, {"id": 899492, "title": "The Races", "work_id": 80223, "role": "co-director", "role_id": 959, "is_primary": true}, {"id": 2792035, "title": "Platypus: Ornithorhynchus Anatinus", "work_id": 71646, "role": "narrator", "role_id": 499, "is_primary": false}, {"id": 2713231, "title": "Exports flow through Fremantle", "work_id": 67307, "role": "script", "role_id": 962, "is_primary": false}], "also_known_as": "", "date_of_birth": "", "date_of_death": "", "genders": [], "languages": [], "places_of_operation": [], "biography": "", "biography_author": null, "date_of_biography": "2023-08-09T03:49:35.727539+10:00", "external_links": [], "uuid": "f5ba95d9-b7c8-48da-a6e2-843cf3760d8c", "source": {"name": "Vernon", "slug": "vernon"}, "source_identifier": "23371", "external_references": [{"id": 35005, "source": {"name": "Wikidata", "slug": "wikidata"}, "source_identifier": "Q121091259"}], "date_modified": "2025-03-14T20:06:18.979118+11:00"}, {"id": 74624, "name": "David Plummer", "roles_in_work": [{"id": 2713228, "title": "Explosives: the two metre lifeline", "work_id": 67306, "role": "editor", "role_id": 918, "is_primary": true}], "also_known_as": "", "date_of_birth": "", "date_of_death": "", "genders": [], "languages": [], "places_of_operation": [], "biography": "", "biography_author": null, "date_of_biography": "2023-05-09T16:23:27.614941+10:00", "external_links": [], "uuid": "00aa1a69-8baa-4a4b-a850-525e84516795", "source": {"name": "Vernon", "slug": "vernon"}, "source_identifier": "39080", "external_references": [{"id": 32477, "source": {"name": "Wikidata", "slug": "wikidata"}, "source_identifier": "Q121126837"}], "date_modified": "2025-03-12T00:40:09.677526+11:00"}, {"id": 74623, "name": "Tina Viljoen", "roles_in_work": [{"id": 2713203, "title": "Exploding cities", "work_id": 67294, "role": "director", "role_id": 938, "is_primary": true}, {"id": 2647785, "title": "Little By little: upgrading Barrio Escopa", "work_id": 77295, "role": "director", "role_id": 938, "is_primary": true}, {"id": 2751408, "title": "Development without tears?", "work_id": 97795, "role": "director", "role_id": 938, "is_primary": true}, {"id": 2751411, "title": "Some call it progress", "work_id": 97797, "role": "director", "role_id": 938, "is_primary": true}, {"id": 2751414, "title": "Water: the hazardous necessity", "work_id": 97798, "role": "director", "role_id": 938, "is_primary": true}, {"id": 2784498, "title": "Notes on nuclear war", "work_id": 77990, "role": "director", "role_id": 938, "is_primary": true}, {"id": 2305446, "title": "Some call it progress (TEFC)", "work_id": 76615, "role": "director", "role_id": 938, "is_primary": true}, {"id": 764773, "title": "Growing dollars", "work_id": 77570, "role": "director", "role_id": 938, "is_primary": true}, {"id": 881867, "title": "New look for Naledi: upgrading a squatter settlement", "work_id": 92937, "role": "director", "role_id": 938, "is_primary": true}, {"id": 2784493, "title": "Notes on nuclear war", "work_id": 77990, "role": "co-producer", "role_id": 915, "is_primary": true}, {"id": 2784545, "title": "Profession of arms", "work_id": 99277, "role": "co-producers/directors", "role_id": 628, "is_primary": true}, {"id": 872741, "title": "Under new management", "work_id": 87803, "role": "director", "role_id": 938, "is_primary": true}, {"id": 1809402, "title": "Yes or no, Jean-Guy Moreau", "work_id": 88394, "role": "producer", "role_id": 1089, "is_primary": true}], "also_known_as": "", "date_of_birth": "", "date_of_death": "", "genders": [{"id": 5, "name": "Female", "slug": "female"}], "languages": [], "places_of_operation": [], "biography": "", "biography_author": null, "date_of_biography": "2023-05-09T18:44:11.836621+10:00", "external_links": [], "uuid": "1f427a8b-9c86-4643-a011-98a4cc1efb22", "source": {"name": "Vernon", "slug": "vernon"}, "source_identifier": "29784", "external_references": [{"id": 40087, "source": {"name": "Wikidata", "slug": "wikidata"}, "source_identifier": "Q22104233"}, {"id": 55983, "source": {"name": "VIAF", "slug": "viaf"}, "source_identifier": "14625031"}, {"id": 55984, "source": {"name": "LOC Auth", "slug": "loc-auth"}, "source_identifier": "nr91016117"}], "date_modified": "2025-03-14T19:21:11.314561+11:00"}]}