{"count": 28687, "next": "https://api.acmi.net.au/creators/?page=2035", "previous": "https://api.acmi.net.au/creators/?page=2033", "results": [{"id": 21840, "name": "Don Featherstone Productions", "roles_in_work": [{"id": 2770723, "title": "The Wizard from Oz - James Morrison", "work_id": 80315, "role": "production company", "role_id": 941, "is_primary": true}, {"id": 2649440, "title": "Tales of Helpmann : A Portrait of Sir Robert Helpmann", "work_id": 81541, "role": "production company", "role_id": 941, "is_primary": true}, {"id": 2793577, "title": "Big picture", "work_id": 115475, "role": "production company", "role_id": 941, "is_primary": true}, {"id": 2176748, "title": "Oondamooroo: a profile of Ernie Dingo", "work_id": 82942, "role": "production company", "role_id": 941, "is_primary": true}, {"id": 2379708, "title": "Dream time machine time", "work_id": 79315, "role": "production company", "role_id": 941, "is_primary": true}, {"id": 2250359, "title": "Right...said Fred: Fred Schepisi - director", "work_id": 85232, "role": "production company", "role_id": 941, "is_primary": true}, {"id": 776330, "title": "The Daylight moon: a film about the poet Les Murray", "work_id": 81674, "role": "production company", "role_id": 941, "is_primary": true}], "also_known_as": "", "date_of_birth": "", "date_of_death": "", "genders": [], "languages": [], "places_of_operation": [], "biography": "", "biography_author": null, "date_of_biography": "2023-07-19T03:36:33.842032+10:00", "external_links": [], "uuid": "f5d1a6a2-257c-4e9d-90e1-ed5019d72bc0", "source": {"name": "Vernon", "slug": "vernon"}, "source_identifier": "7633", "external_references": [], "date_modified": "2025-03-14T20:19:02.034977+11:00"}, {"id": 21839, "name": "Filmscan", "roles_in_work": [{"id": 2471058, "title": "Virginia Woolf", "work_id": 79313, "role": "production company", "role_id": 941, "is_primary": true}], "also_known_as": "", "date_of_birth": "", "date_of_death": "", "genders": [], "languages": [], "places_of_operation": [], "biography": "", "biography_author": null, "date_of_biography": "2023-08-14T12:32:37.889123+10:00", "external_links": [], "uuid": "2a6f836e-558f-4b21-9f91-bb01981833d0", "source": {"name": "Vernon", "slug": "vernon"}, "source_identifier": "8325", "external_references": [], "date_modified": "2023-08-14T12:32:37.889416+10:00"}, {"id": 21838, "name": "Dawn Weiking", "roles_in_work": [{"id": 2471401, "title": "We're here now : prostitution", "work_id": 79312, "role": "producer", "role_id": 1089, "is_primary": true}], "also_known_as": "", "date_of_birth": "", "date_of_death": "", "genders": [], "languages": [], "places_of_operation": [], "biography": "", "biography_author": null, "date_of_biography": "2023-08-14T12:39:42.938940+10:00", "external_links": [], "uuid": "6c27de7d-d7d1-4c37-9377-990ab0f41283", "source": {"name": "Vernon", "slug": "vernon"}, "source_identifier": "17876", "external_references": [], "date_modified": "2023-08-14T12:39:42.939183+10:00"}, {"id": 21836, "name": "Newground Productions", "roles_in_work": [{"id": 2325158, "title": "Thanks girls and goodbye", "work_id": 79311, "role": "production company", "role_id": 941, "is_primary": true}], "also_known_as": "", "date_of_birth": "", "date_of_death": "", "genders": [], "languages": [], "places_of_operation": [], "biography": "", "biography_author": null, "date_of_biography": "2023-05-09T19:17:54.524140+10:00", "external_links": [], "uuid": "306744e4-a921-4b46-aa04-1f0df00df660", "source": {"name": "Vernon", "slug": "vernon"}, "source_identifier": "10939", "external_references": [{"id": 39082, "source": {"name": "Wikidata", "slug": "wikidata"}, "source_identifier": "Q121079105"}], "date_modified": "2023-09-05T23:28:45.322129+10:00"}, {"id": 21829, "name": "Judy Menczel", "roles_in_work": [{"id": 809957, "title": "Angst", "work_id": 92023, "role": "director", "role_id": 938, "is_primary": true}, {"id": 769318, "title": "The Tightrope", "work_id": 79300, "role": "director", "role_id": 938, "is_primary": true}, {"id": 2774476, "title": "Old Songs in a New Land: A Piece of Jewish Australian ...", "work_id": 81634, "role": "director", "role_id": 938, "is_primary": true}, {"id": 2209037, "title": "Planning for Sydney", "work_id": 88747, "role": "co-director", "role_id": 959, "is_primary": true}, {"id": 2771436, "title": "Dad's Girl/Common Ground", "work_id": 80141, "role": "co-director", "role_id": 959, "is_primary": true}, {"id": 905316, "title": "You might as well live", "work_id": 86014, "role": "co-producer", "role_id": 915, "is_primary": true}, {"id": 2774475, "title": "Old Songs in a New Land: A Piece of Jewish Australian ...", "work_id": 81634, "role": "co-producer", "role_id": 915, "is_primary": true}, {"id": 818135, "title": "Shakespeare out loud: Cicely Berry workshop [Widescreen]", "work_id": 94033, "role": "producer/director", "role_id": 31, "is_primary": true}, {"id": 776015, "title": "When Friends Were Enemies: The Story of the Dunera Boys", "work_id": 81588, "role": "producer/director", "role_id": 31, "is_primary": true}], "also_known_as": "", "date_of_birth": "", "date_of_death": "", "genders": [], "languages": [], "places_of_operation": [], "biography": "", "biography_author": null, "date_of_biography": "2023-05-09T19:30:37.491106+10:00", "external_links": [], "uuid": "504c0e14-d0c7-4773-9448-2547dabd0542", "source": {"name": "Vernon", "slug": "vernon"}, "source_identifier": "22819", "external_references": [{"id": 32376, "source": {"name": "Wikidata", "slug": "wikidata"}, "source_identifier": "Q121126777"}], "date_modified": "2025-03-14T18:37:00.595733+11:00"}, {"id": 21826, "name": "Hugh Piper", "roles_in_work": [{"id": 884533, "title": "The Post", "work_id": 94728, "role": "director", "role_id": 938, "is_primary": true}, {"id": 2250347, "title": "Riding the Gale", "work_id": 79296, "role": "director", "role_id": 938, "is_primary": true}, {"id": 770742, "title": "Double concerto: a film about the pianist Roger Woodward", "work_id": 79836, "role": "director", "role_id": 938, "is_primary": true}], "also_known_as": "", "date_of_birth": "", "date_of_death": "", "genders": [], "languages": [], "places_of_operation": [], "biography": "", "biography_author": null, "date_of_biography": "2023-05-09T17:09:59.643249+10:00", "external_links": [], "uuid": "d9b1fcbc-2be9-4f92-9bd0-cf002298c815", "source": {"name": "Vernon", "slug": "vernon"}, "source_identifier": "20690", "external_references": [{"id": 40146, "source": {"name": "Wikidata", "slug": "wikidata"}, "source_identifier": "Q121315508"}], "date_modified": "2023-09-05T20:43:51.376525+10:00"}, {"id": 21825, "name": "Stormbringer Films", "roles_in_work": [{"id": 2250340, "title": "Riding the Gale", "work_id": 79296, "role": "production company", "role_id": 941, "is_primary": true}], "also_known_as": "", "date_of_birth": "", "date_of_death": "", "genders": [], "languages": [], "places_of_operation": [], "biography": "", "biography_author": null, "date_of_biography": "2023-05-09T17:09:58.873640+10:00", "external_links": [], "uuid": "5f82d7e7-5787-494f-8305-9c6b8a9b9425", "source": {"name": "Vernon", "slug": "vernon"}, "source_identifier": "4716", "external_references": [{"id": 37361, "source": {"name": "Wikidata", "slug": "wikidata"}, "source_identifier": "Q121126472"}], "date_modified": "2023-09-06T01:33:07.768467+10:00"}, {"id": 21822, "name": "Roger Parsons", "roles_in_work": [{"id": 1426309, "title": "Eventing", "work_id": 79292, "role": "director", "role_id": 938, "is_primary": true}, {"id": 3085771, "title": "The Law of gravity", "work_id": 93918, "role": "producer/director", "role_id": 31, "is_primary": true}, {"id": 3085717, "title": "Shakespeare", "work_id": 93913, "role": "producer/director", "role_id": 31, "is_primary": true}], "also_known_as": "", "date_of_birth": "", "date_of_death": "", "genders": [], "languages": [], "places_of_operation": [], "biography": "", "biography_author": null, "date_of_biography": "2023-05-09T12:51:45.080070+10:00", "external_links": [], "uuid": "8f2a79d9-dc89-4729-a0a5-184c6ee47da5", "source": {"name": "Vernon", "slug": "vernon"}, "source_identifier": "28071", "external_references": [{"id": 42251, "source": {"name": "Wikidata", "slug": "wikidata"}, "source_identifier": "Q121126246"}], "date_modified": "2025-03-17T10:41:18.470713+11:00"}, {"id": 21819, "name": "Childbirth Association of Australia (NSW) Ltd", "roles_in_work": [{"id": 2466047, "title": "Special delivery", "work_id": 79283, "role": "producer", "role_id": 1089, "is_primary": true}], "also_known_as": "", "date_of_birth": "", "date_of_death": "", "genders": [], "languages": [], "places_of_operation": [], "biography": "", "biography_author": null, "date_of_biography": "2023-08-14T10:48:14.794679+10:00", "external_links": [], "uuid": "67c42084-50f3-435b-92a6-193c8618f865", "source": {"name": "Vernon", "slug": "vernon"}, "source_identifier": "6567", "external_references": [], "date_modified": "2023-08-14T10:48:14.795066+10:00"}, {"id": 21818, "name": "Bruce Belsham", "roles_in_work": [{"id": 769275, "title": "Never Too Old", "work_id": 79282, "role": "director", "role_id": 938, "is_primary": true}, {"id": 903304, "title": "The Liberals", "work_id": 84196, "role": "co-producer", "role_id": 915, "is_primary": true}, {"id": 2793562, "title": "Every little drop: the story of the Snowy Scheme", "work_id": 91611, "role": "producer", "role_id": 1089, "is_primary": true}, {"id": 2760829, "title": "Just managing", "work_id": 82745, "role": "producer", "role_id": 1089, "is_primary": true}, {"id": 2473972, "title": "Frontier: stories from white Australia's forgotten war: part three: the government should shut its eyes 1860-1938", "work_id": 87275, "role": "producer/director", "role_id": 31, "is_primary": true}, {"id": 2473978, "title": "Frontier: stories from white Australia's forgotten war: part one: they must always consider us as enemies 1788-1830", "work_id": 87277, "role": "producer/director", "role_id": 31, "is_primary": true}, {"id": 1932147, "title": "Frontier: stories from white Australia's forgotten war: part one: they must always consider us as enemies 1788-1830", "work_id": 88142, "role": "producer/director", "role_id": 31, "is_primary": true}, {"id": 2473975, "title": "Frontier: stories from white Australia's forgotten war: Part two: worse than slavery itself 1830-1860", "work_id": 87276, "role": "producer/director", "role_id": 31, "is_primary": true}], "also_known_as": "", "date_of_birth": "", "date_of_death": "", "genders": [], "languages": [], "places_of_operation": [], "biography": "", "biography_author": null, "date_of_biography": "2023-08-16T03:40:58.801252+10:00", "external_links": [], "uuid": "877f2fd7-9fc0-478d-b4d8-c5831e326815", "source": {"name": "Vernon", "slug": "vernon"}, "source_identifier": "16291", "external_references": [{"id": 38650, "source": {"name": "Wikidata", "slug": "wikidata"}, "source_identifier": "Q121143606"}], "date_modified": "2025-03-14T20:18:52.910265+11:00"}]}