{"count": 28687, "next": "https://api.acmi.net.au/creators/?page=1194", "previous": "https://api.acmi.net.au/creators/?page=1192", "results": [{"id": 73417, "name": "Agnes Hegedus", "roles_in_work": [{"id": 2748655, "title": "(dis)LOCATIONs symposium", "work_id": 108390, "role": "speaker", "role_id": 486, "is_primary": false}], "also_known_as": "", "date_of_birth": "", "date_of_death": "", "genders": [], "languages": [], "places_of_operation": [], "biography": "", "biography_author": null, "date_of_biography": "2023-05-09T09:55:18.874522+10:00", "external_links": [], "uuid": "96411725-f66d-43d5-9e20-6978fc18d436", "source": {"name": "Vernon", "slug": "vernon"}, "source_identifier": "110999", "external_references": [], "date_modified": "2025-03-12T23:05:04.170515+11:00"}, {"id": 73416, "name": "Steve Le Marquand", "roles_in_work": [{"id": 2748630, "title": "The Hitch", "work_id": 108384, "role": "cast", "role_id": 33, "is_primary": false}], "also_known_as": "", "date_of_birth": "1967-12-26", "date_of_death": "", "genders": [{"id": 9, "name": "Male", "slug": "male"}], "languages": [], "places_of_operation": [{"id": 3, "name": "Australia", "slug": "australia"}], "biography": "Steve Le Marquand (born 26 December 1967) is an Australian-born actor, known both locally and internationally for his film and stage work.", "biography_author": "Wikidata", "date_of_biography": "2023-09-06T01:31:19.872532+10:00", "external_links": [{"id": 6199, "uri": "https://en.wikipedia.org/wiki/Steve_Le_Marquand"}], "uuid": "7d3f4950-4b54-4643-94f1-4ca9619ded3b", "source": {"name": "Vernon", "slug": "vernon"}, "source_identifier": "1821", "external_references": [{"id": 39213, "source": {"name": "Wikidata", "slug": "wikidata"}, "source_identifier": "Q7613125"}], "date_modified": "2025-03-12T23:02:53.976272+11:00"}, {"id": 73415, "name": "Tony Chesher", "roles_in_work": [{"id": 2748629, "title": "The Hitch", "work_id": 108384, "role": "sound designer", "role_id": 927, "is_primary": false}], "also_known_as": "", "date_of_birth": "", "date_of_death": "", "genders": [], "languages": [], "places_of_operation": [], "biography": "", "biography_author": null, "date_of_biography": "2023-05-09T20:01:51.031469+10:00", "external_links": [], "uuid": "144a0e22-865f-4dfa-997e-8b53d7656167", "source": {"name": "Vernon", "slug": "vernon"}, "source_identifier": "1820", "external_references": [], "date_modified": "2025-03-12T23:02:53.406170+11:00"}, {"id": 73414, "name": "Jack Robin", "roles_in_work": [{"id": 2748628, "title": "The Hitch", "work_id": 108384, "role": "music", "role_id": 949, "is_primary": false}], "also_known_as": "", "date_of_birth": "", "date_of_death": "", "genders": [], "languages": [], "places_of_operation": [], "biography": "", "biography_author": null, "date_of_biography": "2023-05-09T20:01:50.789463+10:00", "external_links": [], "uuid": "af6cdc40-38f5-49c5-b2e5-58e08ecb4898", "source": {"name": "Vernon", "slug": "vernon"}, "source_identifier": "1819", "external_references": [{"id": 51909, "source": {"name": "Wikidata", "slug": "wikidata"}, "source_identifier": "Q121361303"}], "date_modified": "2025-03-12T23:02:52.828842+11:00"}, {"id": 73413, "name": "Luke Doolan", "roles_in_work": [{"id": 2748627, "title": "The Hitch", "work_id": 108384, "role": "editor", "role_id": 918, "is_primary": true}], "also_known_as": "", "date_of_birth": "04 FEB 1979", "date_of_death": "", "genders": [{"id": 9, "name": "Male", "slug": "male"}], "languages": [], "places_of_operation": [], "biography": "Luke Doolan is an Australian film editor and director. He was nominated for an Academy Award for Best Live Action Short Film and he is the winner of three Australian Film Institute Awards. Source: Wikidata; 01/08/2023", "biography_author": null, "date_of_biography": "2025-03-12T23:02:52.243966+11:00", "external_links": [{"id": 4578, "uri": "https://en.wikipedia.org/wiki/Luke_Doolan"}], "uuid": "616bc519-b52c-4a8c-9fa0-a14d1e6c0c3e", "source": {"name": "Vernon", "slug": "vernon"}, "source_identifier": "1818", "external_references": [{"id": 25417, "source": {"name": "Wikidata", "slug": "wikidata"}, "source_identifier": "Q21063067"}, {"id": 30027, "source": {"name": "VIAF", "slug": "viaf"}, "source_identifier": "167128824"}, {"id": 30028, "source": {"name": "LOC Auth", "slug": "loc-auth"}, "source_identifier": "no2011000564"}, {"id": 30029, "source": {"name": "WorldCat", "slug": "worldcat"}, "source_identifier": "lccn-no2011000564"}], "date_modified": "2025-03-12T23:02:52.244220+11:00"}, {"id": 73412, "name": "David Knight", "roles_in_work": [{"id": 2748626, "title": "The Hitch", "work_id": 108384, "role": "director of photography", "role_id": 925, "is_primary": false}], "also_known_as": "", "date_of_birth": "", "date_of_death": "", "genders": [], "languages": [], "places_of_operation": [], "biography": "", "biography_author": null, "date_of_biography": "2023-05-09T20:01:50.331612+10:00", "external_links": [], "uuid": "39b429da-d3e5-4b82-a900-3f422a855ffb", "source": {"name": "Vernon", "slug": "vernon"}, "source_identifier": "111583", "external_references": [], "date_modified": "2025-03-12T23:02:51.656183+11:00"}, {"id": 73411, "name": "Barnaby Curnow", "roles_in_work": [{"id": 2748618, "title": "The French doors", "work_id": 108383, "role": "special effects", "role_id": 929, "is_primary": false}], "also_known_as": "", "date_of_birth": "", "date_of_death": "", "genders": [], "languages": [], "places_of_operation": [], "biography": "", "biography_author": null, "date_of_biography": "2023-05-09T19:53:23.312391+10:00", "external_links": [], "uuid": "0fd914a6-8402-4dc4-8f96-773f468cba86", "source": {"name": "Vernon", "slug": "vernon"}, "source_identifier": "1855", "external_references": [], "date_modified": "2025-03-12T23:02:46.806837+11:00"}, {"id": 73410, "name": "Jon Cooper", "roles_in_work": [{"id": 2748616, "title": "The French doors", "work_id": 108383, "role": "music", "role_id": 949, "is_primary": false}, {"id": 2748617, "title": "The French doors", "work_id": 108383, "role": "sound designer", "role_id": 927, "is_primary": false}], "also_known_as": "", "date_of_birth": "", "date_of_death": "", "genders": [], "languages": [], "places_of_operation": [], "biography": "", "biography_author": null, "date_of_biography": "2023-05-09T19:53:22.954952+10:00", "external_links": [], "uuid": "871bd5b0-3c9a-4962-8900-e1a855165995", "source": {"name": "Vernon", "slug": "vernon"}, "source_identifier": "1854", "external_references": [{"id": 51079, "source": {"name": "Wikidata", "slug": "wikidata"}, "source_identifier": "Q121361479"}], "date_modified": "2025-03-12T23:02:46.211026+11:00"}, {"id": 73409, "name": "Sam Brunette", "roles_in_work": [{"id": 2748615, "title": "The French doors", "work_id": 108383, "role": "editor", "role_id": 918, "is_primary": true}], "also_known_as": "", "date_of_birth": "", "date_of_death": "", "genders": [], "languages": [], "places_of_operation": [], "biography": "", "biography_author": null, "date_of_biography": "2023-05-09T19:53:22.488240+10:00", "external_links": [], "uuid": "44f16a83-7f22-4c69-9b7f-a881eaf00ff9", "source": {"name": "Vernon", "slug": "vernon"}, "source_identifier": "1853", "external_references": [{"id": 39289, "source": {"name": "Wikidata", "slug": "wikidata"}, "source_identifier": "Q121271183"}], "date_modified": "2025-03-12T23:02:44.984925+11:00"}, {"id": 73408, "name": "Nigel Bluck", "roles_in_work": [{"id": 2748614, "title": "The French doors", "work_id": 108383, "role": "director of photography", "role_id": 925, "is_primary": false}], "also_known_as": "", "date_of_birth": "", "date_of_death": "", "genders": [{"id": 9, "name": "Male", "slug": "male"}], "languages": [], "places_of_operation": [], "biography": "", "biography_author": null, "date_of_biography": "2023-05-09T19:53:22.251084+10:00", "external_links": [], "uuid": "7c80c4b9-ed26-45ad-9bfa-ac769f08c0a0", "source": {"name": "Vernon", "slug": "vernon"}, "source_identifier": "1852", "external_references": [{"id": 51227, "source": {"name": "Wikidata", "slug": "wikidata"}, "source_identifier": "Q64369924"}, {"id": 55373, "source": {"name": "VIAF", "slug": "viaf"}, "source_identifier": "169899495"}, {"id": 55374, "source": {"name": "LOC Auth", "slug": "loc-auth"}, "source_identifier": "no2013104492"}], "date_modified": "2025-03-12T23:02:44.404311+11:00"}]}