{"count": 28681, "next": "https://api.acmi.net.au/creators/?page=2425", "previous": "https://api.acmi.net.au/creators/?page=2423", "results": [{"id": 14848, "name": "Kenneth Baldwin", "roles_in_work": [{"id": 2713349, "title": "The Fair persuaders", "work_id": 67371, "role": "producer", "role_id": 1089, "is_primary": true}, {"id": 2714350, "title": "From the heart of America", "work_id": 67867, "role": "producer", "role_id": 1089, "is_primary": true}], "also_known_as": "", "date_of_birth": "", "date_of_death": "", "genders": [], "languages": [], "places_of_operation": [], "biography": "", "biography_author": null, "date_of_biography": "2023-08-14T11:11:13.301697+10:00", "external_links": [], "uuid": "5703d57c-05c1-4008-b574-0789c4b28f56", "source": {"name": "Vernon", "slug": "vernon"}, "source_identifier": "23233", "external_references": [], "date_modified": "2025-03-12T01:10:21.771223+11:00"}, {"id": 14847, "name": "RMP Associates", "roles_in_work": [{"id": 2713348, "title": "The Fair persuaders", "work_id": 67371, "role": "production company", "role_id": 941, "is_primary": true}], "also_known_as": "", "date_of_birth": "", "date_of_death": "", "genders": [], "languages": [], "places_of_operation": [], "biography": "", "biography_author": null, "date_of_biography": "2023-08-14T11:11:12.632120+10:00", "external_links": [], "uuid": "91a1a040-5209-4cd1-8f4d-32008e480f20", "source": {"name": "Vernon", "slug": "vernon"}, "source_identifier": "12055", "external_references": [], "date_modified": "2025-03-12T00:42:57.903990+11:00"}, {"id": 14846, "name": "Charles Heath", "roles_in_work": [{"id": 2713347, "title": "The Fair County of Ayr", "work_id": 67370, "role": "director", "role_id": 938, "is_primary": true}], "also_known_as": "", "date_of_birth": null, "date_of_death": null, "genders": [], "languages": [], "places_of_operation": [], "biography": "", "biography_author": null, "date_of_biography": null, "external_links": [], "uuid": "e8bd52a3-fc75-4771-8855-17cb4cc0873d", "source": {"name": "Vernon", "slug": "vernon"}, "source_identifier": "16685", "external_references": [], "date_modified": "2025-03-12T00:42:56.077077+11:00"}, {"id": 14844, "name": "John Ott Pictures", "roles_in_work": [{"id": 2714514, "title": "Dr Fred D. Miller and the gateway to health", "work_id": 67967, "role": "production company", "role_id": 941, "is_primary": true}, {"id": 2644723, "title": "Facts about projection", "work_id": 67368, "role": "production company", "role_id": 941, "is_primary": true}, {"id": 2715821, "title": "How to grow roses", "work_id": 68638, "role": "production company", "role_id": 941, "is_primary": true}], "also_known_as": "", "date_of_birth": null, "date_of_death": null, "genders": [], "languages": [], "places_of_operation": [], "biography": "", "biography_author": null, "date_of_biography": null, "external_links": [], "uuid": "7e2592ab-32f3-4450-89d6-716e97c3191a", "source": {"name": "Vernon", "slug": "vernon"}, "source_identifier": "9628", "external_references": [], "date_modified": "2025-03-12T01:42:12.609150+11:00"}, {"id": 14843, "name": "Visual Education Films", "roles_in_work": [{"id": 2713344, "title": "Facts about film (1959)", "work_id": 67367, "role": "production company", "role_id": 941, "is_primary": true}, {"id": 855640, "title": "Mosaic experiments", "work_id": 70593, "role": "production company", "role_id": 941, "is_primary": true}, {"id": 856786, "title": "Pepita's surprise: birthday at Patzcuaro", "work_id": 71473, "role": "production company", "role_id": 941, "is_primary": true}], "also_known_as": "", "date_of_birth": "", "date_of_death": "", "genders": [], "languages": [], "places_of_operation": [], "biography": "", "biography_author": null, "date_of_biography": "2023-08-11T16:35:24.612311+10:00", "external_links": [], "uuid": "9f057931-4e7f-47bf-97c7-7d569aae6169", "source": {"name": "Vernon", "slug": "vernon"}, "source_identifier": "14181", "external_references": [], "date_modified": "2025-03-12T00:42:49.414555+11:00"}, {"id": 14842, "name": "Phototronics", "roles_in_work": [{"id": 2713343, "title": "Facts about film (1948)", "work_id": 67366, "role": "production company", "role_id": 941, "is_primary": true}], "also_known_as": "", "date_of_birth": "", "date_of_death": "", "genders": [], "languages": [], "places_of_operation": [], "biography": "", "biography_author": null, "date_of_biography": "2023-08-11T16:35:19.635374+10:00", "external_links": [], "uuid": "5f4b713c-7a07-45ed-a930-b5a64e857f08", "source": {"name": "Vernon", "slug": "vernon"}, "source_identifier": "11465", "external_references": [], "date_modified": "2025-03-12T00:42:47.644901+11:00"}, {"id": 14841, "name": "Jam Handy", "roles_in_work": [{"id": 2396581, "title": "[Lucky you]", "work_id": 90044, "role": "production company", "role_id": 941, "is_primary": true}, {"id": 2756335, "title": "Periodic check-up", "work_id": 71482, "role": "production company", "role_id": 941, "is_primary": true}, {"id": 2756339, "title": "Know your car", "work_id": 86460, "role": "production company", "role_id": 941, "is_primary": true}, {"id": 2713341, "title": "Factory safety", "work_id": 67364, "role": "production company", "role_id": 941, "is_primary": true}, {"id": 2615672, "title": "The Face in the mirror ['I wonder']", "work_id": 85914, "role": "production company", "role_id": 941, "is_primary": true}, {"id": 2714687, "title": "Give yourself the green light", "work_id": 68065, "role": "production company", "role_id": 941, "is_primary": true}, {"id": 2647378, "title": "Far from alone", "work_id": 76125, "role": "production company", "role_id": 941, "is_primary": true}, {"id": 856530, "title": "Out of orbit", "work_id": 71270, "role": "production company", "role_id": 941, "is_primary": true}, {"id": 854852, "title": "Magic in the air", "work_id": 69988, "role": "production company", "role_id": 941, "is_primary": true}], "also_known_as": "", "date_of_birth": "", "date_of_death": "", "genders": [], "languages": [], "places_of_operation": [], "biography": "", "biography_author": null, "date_of_biography": "2023-08-14T10:51:55.110879+10:00", "external_links": [], "uuid": "28babf1a-93c3-465b-ad81-7a19ae4aa998", "source": {"name": "Vernon", "slug": "vernon"}, "source_identifier": "4130", "external_references": [], "date_modified": "2025-03-13T14:39:38.860281+11:00"}, {"id": 14839, "name": "Barrie Smith", "roles_in_work": [{"id": 2713331, "title": "Facing facts", "work_id": 67360, "role": "director", "role_id": 938, "is_primary": true}], "also_known_as": "", "date_of_birth": "", "date_of_death": "", "genders": [], "languages": [], "places_of_operation": [], "biography": "", "biography_author": null, "date_of_biography": "2023-05-09T16:24:39.004305+10:00", "external_links": [], "uuid": "6d2352cf-f733-4b4c-afc5-978d21569a0e", "source": {"name": "Vernon", "slug": "vernon"}, "source_identifier": "15698", "external_references": [{"id": 37632, "source": {"name": "Wikidata", "slug": "wikidata"}, "source_identifier": "Q121126171"}], "date_modified": "2025-03-12T00:42:19.345666+11:00"}, {"id": 14838, "name": "Methodist Overseas Mission", "roles_in_work": [{"id": 2644720, "title": "Faces in the sun", "work_id": 67356, "role": "production company", "role_id": 941, "is_primary": true}], "also_known_as": "", "date_of_birth": null, "date_of_death": null, "genders": [], "languages": [], "places_of_operation": [], "biography": "", "biography_author": null, "date_of_biography": null, "external_links": [], "uuid": "2223cf76-e583-496b-8609-876e687ea846", "source": {"name": "Vernon", "slug": "vernon"}, "source_identifier": "10484", "external_references": [], "date_modified": "2025-03-05T12:25:28.665484+11:00"}, {"id": 14836, "name": "Raymond Hancock", "roles_in_work": [{"id": 860159, "title": "The University years", "work_id": 74217, "role": "director", "role_id": 938, "is_primary": true}, {"id": 2713313, "title": "Face of South Africa", "work_id": 67352, "role": "director", "role_id": 938, "is_primary": true}, {"id": 1814448, "title": "The Living laboratory", "work_id": 69807, "role": "producer", "role_id": 1089, "is_primary": true}], "also_known_as": "", "date_of_birth": "", "date_of_death": "", "genders": [], "languages": [], "places_of_operation": [], "biography": "", "biography_author": null, "date_of_biography": "2023-08-11T16:34:57.748861+10:00", "external_links": [], "uuid": "fe5b06a0-d79e-42d7-ae35-6c3fdad135b0", "source": {"name": "Vernon", "slug": "vernon"}, "source_identifier": "27194", "external_references": [], "date_modified": "2025-03-12T00:41:48.213175+11:00"}]}