{"count": 28687, "next": "https://api.acmi.net.au/creators/?page=1126", "previous": "https://api.acmi.net.au/creators/?page=1124", "results": [{"id": 74332, "name": "Yvon Mallette", "roles_in_work": [{"id": 2347945, "title": "The Family that dwelt apart", "work_id": 75184, "role": "director", "role_id": 938, "is_primary": true}, {"id": 2678734, "title": "Boomsville", "work_id": 65541, "role": "director", "role_id": 938, "is_primary": true}], "also_known_as": "", "date_of_birth": "1935-04-01", "date_of_death": "", "genders": [{"id": 9, "name": "Male", "slug": "male"}], "languages": [], "places_of_operation": [{"id": 36, "name": "Canada", "slug": "canada"}], "biography": "", "biography_author": null, "date_of_biography": "2023-05-09T19:51:03.277012+10:00", "external_links": [], "uuid": "b0ba5165-bf69-4d2b-98a5-8d12cbe32799", "source": {"name": "Vernon", "slug": "vernon"}, "source_identifier": "30640", "external_references": [{"id": 38436, "source": {"name": "Wikidata", "slug": "wikidata"}, "source_identifier": "Q15502109"}], "date_modified": "2025-03-06T23:57:07.161810+11:00"}, {"id": 74331, "name": "Donald Ginsberg", "roles_in_work": [{"id": 2678726, "title": "Books for Beaver River", "work_id": 65537, "role": "director", "role_id": 938, "is_primary": true}, {"id": 2201904, "title": "Perspective: student nurse", "work_id": 73323, "role": "director", "role_id": 938, "is_primary": true}, {"id": 874517, "title": "The Long way back", "work_id": 88832, "role": "director", "role_id": 938, "is_primary": true}], "also_known_as": "", "date_of_birth": "", "date_of_death": "", "genders": [], "languages": [], "places_of_operation": [], "biography": "", "biography_author": null, "date_of_biography": "2023-05-09T15:27:45.552404+10:00", "external_links": [], "uuid": "b61ae903-545d-4dd8-9ede-dc28e8950f2b", "source": {"name": "Vernon", "slug": "vernon"}, "source_identifier": "18297", "external_references": [{"id": 34915, "source": {"name": "Wikidata", "slug": "wikidata"}, "source_identifier": "Q121144131"}], "date_modified": "2025-03-06T23:57:01.486284+11:00"}, {"id": 74330, "name": "Ian Clark", "roles_in_work": [{"id": 2712481, "title": "Dry Hands", "work_id": 66959, "role": "director", "role_id": 938, "is_primary": true}, {"id": 2712479, "title": "Dry Hands", "work_id": 66959, "role": "co-producer", "role_id": 915, "is_primary": true}, {"id": 2678714, "title": "Bonsai: the art of training dwarfed potted trees", "work_id": 65529, "role": "producer/director", "role_id": 31, "is_primary": true}], "also_known_as": "", "date_of_birth": "", "date_of_death": "", "genders": [], "languages": [], "places_of_operation": [], "biography": "", "biography_author": null, "date_of_biography": "2023-05-09T15:47:44.268179+10:00", "external_links": [], "uuid": "98496122-711e-4a9d-ac26-d699d11de02b", "source": {"name": "Vernon", "slug": "vernon"}, "source_identifier": "4451", "external_references": [{"id": 35936, "source": {"name": "Wikidata", "slug": "wikidata"}, "source_identifier": "Q121315186"}], "date_modified": "2025-03-12T00:23:11.058737+11:00"}, {"id": 74329, "name": "William Fertik", "roles_in_work": [{"id": 2644192, "title": "The Bolero", "work_id": 65522, "role": "co-director", "role_id": 959, "is_primary": true}], "also_known_as": "", "date_of_birth": null, "date_of_death": "", "genders": [{"id": 9, "name": "Male", "slug": "male"}], "languages": [], "places_of_operation": [], "biography": "", "biography_author": null, "date_of_biography": "2023-05-09T19:28:49.288263+10:00", "external_links": [], "uuid": "ba05dad9-7639-40c7-9d04-1d1626c5912c", "source": {"name": "Vernon", "slug": "vernon"}, "source_identifier": "30418", "external_references": [{"id": 38937, "source": {"name": "Wikidata", "slug": "wikidata"}, "source_identifier": "Q22101843"}], "date_modified": "2025-03-05T12:12:10.183727+11:00"}, {"id": 74328, "name": "Robert Yamin", "roles_in_work": [{"id": 2766959, "title": "Bo Schembechler: head coach, University of Michigan", "work_id": 65513, "role": "co-producer", "role_id": 915, "is_primary": true}], "also_known_as": "", "date_of_birth": "", "date_of_death": "", "genders": [], "languages": [], "places_of_operation": [], "biography": "", "biography_author": null, "date_of_biography": "2023-05-09T13:04:18.076097+10:00", "external_links": [], "uuid": "b22665f2-edbf-4921-a9e9-63bd71de6d07", "source": {"name": "Vernon", "slug": "vernon"}, "source_identifier": "27920", "external_references": [{"id": 39055, "source": {"name": "Wikidata", "slug": "wikidata"}, "source_identifier": "Q121079423"}], "date_modified": "2025-03-14T18:01:09.005753+11:00"}, {"id": 74327, "name": "Henri Bollinger", "roles_in_work": [{"id": 2766957, "title": "Bo Schembechler: head coach, University of Michigan", "work_id": 65513, "role": "co-producer", "role_id": 915, "is_primary": true}], "also_known_as": "", "date_of_birth": "", "date_of_death": "", "genders": [], "languages": [], "places_of_operation": [], "biography": "", "biography_author": null, "date_of_biography": "2023-05-09T13:04:17.852300+10:00", "external_links": [], "uuid": "0f1b453a-f947-496c-928e-232c624bc6fd", "source": {"name": "Vernon", "slug": "vernon"}, "source_identifier": "20461", "external_references": [{"id": 43401, "source": {"name": "Wikidata", "slug": "wikidata"}, "source_identifier": "Q121126774"}], "date_modified": "2025-03-14T18:01:08.423047+11:00"}, {"id": 74326, "name": "Reginald Pearse", "roles_in_work": [{"id": 2186600, "title": "Papua and New Guinea", "work_id": 86762, "role": "camera operator", "role_id": 931, "is_primary": false}, {"id": 2763473, "title": "Launceston", "work_id": 69524, "role": "camera operator", "role_id": 931, "is_primary": false}, {"id": 2712035, "title": "Destruction on the wing", "work_id": 66739, "role": "cinematographer", "role_id": 32, "is_primary": false}, {"id": 2678681, "title": "Blue mould of tobacco", "work_id": 65508, "role": "cinematographer", "role_id": 32, "is_primary": false}, {"id": 2646118, "title": "Rail town", "work_id": 72035, "role": "cinematographer", "role_id": 32, "is_primary": false}, {"id": 2715577, "title": "Hobart town", "work_id": 68506, "role": "cinematographer", "role_id": 32, "is_primary": false}, {"id": 2392012, "title": "Public enemies", "work_id": 71944, "role": "cinematographer", "role_id": 32, "is_primary": false}, {"id": 2392047, "title": "Richard Takes a Train Ride", "work_id": 72220, "role": "cinematographer", "role_id": 32, "is_primary": false}, {"id": 2392206, "title": "The Timbergetters", "work_id": 73823, "role": "cinematographer", "role_id": 32, "is_primary": false}, {"id": 825787, "title": "Leonard French's stained glass screens", "work_id": 96029, "role": "cinematographer", "role_id": 32, "is_primary": false}, {"id": 2392362, "title": "Shades of Puffing Billy", "work_id": 75156, "role": "cinematographer", "role_id": 32, "is_primary": false}, {"id": 2392719, "title": "The Melbourne Wedding Belle", "work_id": 88709, "role": "director of photography", "role_id": 925, "is_primary": false}], "also_known_as": "", "date_of_birth": "", "date_of_death": "", "genders": [], "languages": [], "places_of_operation": [], "biography": "", "biography_author": null, "date_of_biography": "2023-08-09T03:59:52.273868+10:00", "external_links": [], "uuid": "137989c1-58a5-43db-a805-33997637beed", "source": {"name": "Vernon", "slug": "vernon"}, "source_identifier": "37382", "external_references": [], "date_modified": "2025-03-14T17:41:53.126484+11:00"}, {"id": 74325, "name": "James Dibble", "roles_in_work": [{"id": 2680227, "title": "Cinesound review. No. 1989. Communications unlimited", "work_id": 66289, "role": "cast", "role_id": 33, "is_primary": false}, {"id": 2651578, "title": "[ABC TV News: Bulletin for 11th March, 1958]", "work_id": 116787, "role": "cast", "role_id": 33, "is_primary": false}, {"id": 2651581, "title": "[ABC TV News: First Bulletin in Colour for 1st March, 1975]", "work_id": 116788, "role": "cast", "role_id": 33, "is_primary": false}, {"id": 2678675, "title": "Blue Ice", "work_id": 65505, "role": "narrator", "role_id": 499, "is_primary": false}, {"id": 2138941, "title": "City sailors", "work_id": 95763, "role": "narrator", "role_id": 499, "is_primary": false}, {"id": 2042901, "title": "New Guinea Patrol", "work_id": 70843, "role": "narrator", "role_id": 499, "is_primary": false}, {"id": 749462, "title": "The Oberon submarine", "work_id": 71033, "role": "narrator", "role_id": 499, "is_primary": false}], "also_known_as": "", "date_of_birth": "", "date_of_death": "", "genders": [], "languages": [], "places_of_operation": [], "biography": "", "biography_author": null, "date_of_biography": "2023-08-09T03:42:39.170821+10:00", "external_links": [], "uuid": "a2308789-4918-4015-8b46-0d55475d31f7", "source": {"name": "Vernon", "slug": "vernon"}, "source_identifier": "32969", "external_references": [{"id": 40916, "source": {"name": "Wikidata", "slug": "wikidata"}, "source_identifier": "Q121035025"}], "date_modified": "2025-03-07T00:30:48.078472+11:00"}, {"id": 74324, "name": "Henry Felt", "roles_in_work": [{"id": 2678647, "title": "A Blind teacher in a public school (TEFC)", "work_id": 65490, "role": "co-producer", "role_id": 915, "is_primary": true}, {"id": 2305143, "title": "Some secrets should be told", "work_id": 77753, "role": "co-producer", "role_id": 915, "is_primary": true}, {"id": 2749069, "title": "Medbourne Primary School", "work_id": 96621, "role": "producer/director", "role_id": 31, "is_primary": true}], "also_known_as": "", "date_of_birth": "", "date_of_death": "", "genders": [], "languages": [], "places_of_operation": [], "biography": "", "biography_author": null, "date_of_biography": "2023-05-09T18:43:52.220227+10:00", "external_links": [], "uuid": "928a6864-e50d-44bb-bb5f-7a6aa88c8db4", "source": {"name": "Vernon", "slug": "vernon"}, "source_identifier": "20484", "external_references": [{"id": 36013, "source": {"name": "Wikidata", "slug": "wikidata"}, "source_identifier": "Q121091426"}], "date_modified": "2025-03-12T23:52:08.022372+11:00"}, {"id": 74323, "name": "David Ticchi", "roles_in_work": [{"id": 2678646, "title": "A Blind teacher in a public school (TEFC)", "work_id": 65490, "role": "co-producer", "role_id": 915, "is_primary": true}], "also_known_as": "", "date_of_birth": "", "date_of_death": "", "genders": [], "languages": [], "places_of_operation": [], "biography": "", "biography_author": null, "date_of_biography": "2023-05-09T11:22:07.893468+10:00", "external_links": [], "uuid": "c71fcaeb-8fe3-4121-937f-08f0ac0e2dd1", "source": {"name": "Vernon", "slug": "vernon"}, "source_identifier": "17820", "external_references": [{"id": 40807, "source": {"name": "Wikidata", "slug": "wikidata"}, "source_identifier": "Q121223149"}], "date_modified": "2025-03-06T23:56:00.060194+11:00"}]}