{"count": 28687, "next": "https://api.acmi.net.au/creators/?page=27", "previous": "https://api.acmi.net.au/creators/?page=25", "results": [{"id": 87295, "name": "RRR Creative", "roles_in_work": [{"id": 2717235, "title": "Billy Porter Oscars After Party outfit", "work_id": 122083, "role": "lender", "role_id": 626, "is_primary": false}], "also_known_as": "", "date_of_birth": "", "date_of_death": "", "genders": [], "languages": [], "places_of_operation": [], "biography": "", "biography_author": null, "date_of_biography": "2023-05-09T12:54:30.445889+10:00", "external_links": [], "uuid": "4c67ad79-5637-4328-a046-9ae2e49506b0", "source": {"name": "Vernon", "slug": "vernon"}, "source_identifier": "39975", "external_references": [], "date_modified": "2025-03-12T05:46:35.108694+11:00"}, {"id": 87294, "name": "Zense Creative Company Limited", "roles_in_work": [{"id": 2503746, "title": "Costume worn by Zhang Ziyi as Jen Yu in 'Crouching Tiger Hidden Dragon'", "work_id": 122077, "role": "lender", "role_id": 626, "is_primary": false}, {"id": 2716592, "title": "Costume worn by Michelle Yeoh in Crouching Tiger Hidden Dragon", "work_id": 122078, "role": "lender", "role_id": 626, "is_primary": false}], "also_known_as": "", "date_of_birth": "", "date_of_death": "", "genders": [], "languages": [], "places_of_operation": [], "biography": "", "biography_author": null, "date_of_biography": "2023-07-12T04:01:55.291980+10:00", "external_links": [], "uuid": "fecced19-d877-4a42-9b48-69930a7deb58", "source": {"name": "Vernon", "slug": "vernon"}, "source_identifier": "40187", "external_references": [], "date_modified": "2025-03-12T02:12:53.744062+11:00"}, {"id": 87293, "name": "Jamie McFarland", "roles_in_work": [{"id": 2716583, "title": "Winnie Harlow gown from Gentlemen Prefer Blondes shoot", "work_id": 122076, "role": "lender", "role_id": 626, "is_primary": false}], "also_known_as": "", "date_of_birth": "", "date_of_death": "", "genders": [], "languages": [], "places_of_operation": [], "biography": "", "biography_author": null, "date_of_biography": "2023-07-12T04:01:51.740735+10:00", "external_links": [], "uuid": "4e1029e0-8a42-45ce-9758-6c7748ef80af", "source": {"name": "Vernon", "slug": "vernon"}, "source_identifier": "39977", "external_references": [], "date_modified": "2025-03-12T02:11:37.535118+11:00"}, {"id": 87292, "name": "Elizabeth Sage Historic Costume Collection", "roles_in_work": [{"id": 2716473, "title": "Dragon costume worn by Glenn Close as Cruella DeVil in 102 Dalmatians", "work_id": 122075, "role": "lender", "role_id": 626, "is_primary": false}], "also_known_as": "", "date_of_birth": "", "date_of_death": "", "genders": [], "languages": [], "places_of_operation": [], "biography": "", "biography_author": null, "date_of_biography": "2023-07-12T04:01:21.962167+10:00", "external_links": [], "uuid": "355bca62-5dd8-4ad1-b277-f347016ee648", "source": {"name": "Vernon", "slug": "vernon"}, "source_identifier": "39980", "external_references": [], "date_modified": "2025-03-12T02:01:30.206284+11:00"}, {"id": 87291, "name": "Anthony Powell", "roles_in_work": [{"id": 2716472, "title": "Dragon costume worn by Glenn Close as Cruella DeVil in 102 Dalmatians", "work_id": 122075, "role": "costume designer", "role_id": 961, "is_primary": true}], "also_known_as": "", "date_of_birth": "02 JUN 1935", "date_of_death": "", "genders": [{"id": 9, "name": "Male", "slug": "male"}], "languages": [], "places_of_operation": [], "biography": "Anthony Powell is an English costume designer for stage and screen", "biography_author": null, "date_of_biography": "2025-03-12T02:01:28.052240+11:00", "external_links": [], "uuid": "c25b61e0-b7e5-4fe5-bf92-0a2392e23c94", "source": {"name": "Vernon", "slug": "vernon"}, "source_identifier": "36656", "external_references": [], "date_modified": "2025-03-12T02:01:28.052555+11:00"}, {"id": 87290, "name": "Larry McQueen", "roles_in_work": [{"id": 2503734, "title": "Marilyn Monroe as Sugar Kane (Kumulchek) in Some Like It Hot (1959)", "work_id": 122073, "role": "lender", "role_id": 626, "is_primary": false}, {"id": 2692121, "title": "Queen Elizabeth costume worn by Quentin Crisp in Orlando (1992)", "work_id": 122071, "role": "lender", "role_id": 626, "is_primary": false}, {"id": 2692127, "title": "Costume worn by Tilda Swinton in Orlando (1992)", "work_id": 122072, "role": "lender", "role_id": 626, "is_primary": false}, {"id": 2692138, "title": "Anna May Wong as Tu Tuan in 'Limehouse Blues'", "work_id": 122074, "role": "lender", "role_id": 626, "is_primary": false}], "also_known_as": "", "date_of_birth": "", "date_of_death": "", "genders": [], "languages": [], "places_of_operation": [], "biography": "Owner, The Collection of Motion Picture Costume Design. Costumes from this collection have featured in ACMI exhibitions 'Hollywood Costume' and 'Orry Kelly' (2015). Costumes from this collection also feature in Goddess, ACMI 2023.\n\nRespected as a leading Hollywood costume historian and archivist, McQueen has held the position of consultant for Camden House Auctioneers, Inc. in Los Angeles; Christie's East, New York; Christie's London, Butterfield & Butterfield, Los Angeles/ San Francisco, Entertainment Rarities & Julien Entertainment and has been responsible for the authentication of film costumes and the estimation of their value. From 1999 - 2012, Mr. McQueen worked as an archivist with MGM/ UA in creating and maintaining a prop and costume collection of MGM films. In addition, The Collection has worked with private estates and costume houses such as Lucille Ball, Jane Withers, Edith Head, Wayne Finkleman, Julie Newmar, Debbie Reynolds, Western Costume Company, Eastern Costume Company, CRC, American Costume Co and others in researching items and their valuation.\n\nMr. McQueen’s private collection of film costumes is one the finest private collections of its kind and consists of costumes worn in films from 1920 to present. He has exhibited portions of his collection in association with The Academy of Motion Picture Arts and Sciences, The Metropolitan Museum of Art in New York, The Los Angeles Museum of Art, The Victoria and Albert Museum in London, The Fashion Institute in New York, the American Film Institute, The Fashion Institute of Design Merchandizing in Los Angeles, Museo Salvatore Ferragamo in Italy, the Field Museum in Chicago, The South Carolina State Museum, The National Museum of Antiquities in The Netherlands, the Bendingo Museum in Autralia, The Dallas Women’s Museum, The Oakland Museum of Art, The Columbus Museum of Art, the Oklahoma City Museum of Art, The Skirball Center in Los Angeles, the Museum of Biblical Art (MOBIA) in New York, The Virginia Museum of Fine Art, the Fashion Foundation in Tokyo Japan, The Tropenmuseum-Amsterdam and the Kulturgeschichtliches Museum in Germany.\n\n(sourced on 16 June 2014 from: http://www.linkedin.com/pub/larry-mcqueen/30/152/447)", "biography_author": null, "date_of_biography": "2025-03-11T15:35:41.854090+11:00", "external_links": [], "uuid": "a533e351-8fbb-410d-9301-ed8a5cfb63c1", "source": {"name": "Vernon", "slug": "vernon"}, "source_identifier": "37753", "external_references": [], "date_modified": "2025-03-11T15:35:41.854322+11:00"}, {"id": 87289, "name": "Mary Hannan", "roles_in_work": [{"id": 2503723, "title": "Mighty Mighty Afrodite crew hat from Jackie Brown (1997)", "work_id": 122069, "role": "lender", "role_id": 626, "is_primary": false}], "also_known_as": "", "date_of_birth": "", "date_of_death": "", "genders": [], "languages": [], "places_of_operation": [], "biography": "", "biography_author": null, "date_of_biography": "2023-07-12T04:01:14.805566+10:00", "external_links": [], "uuid": "76fc8aad-5105-4f18-b21a-6834273587c7", "source": {"name": "Vernon", "slug": "vernon"}, "source_identifier": "39983", "external_references": [], "date_modified": "2023-11-01T03:40:19.944810+11:00"}, {"id": 87288, "name": "John Davey", "roles_in_work": [{"id": 2692080, "title": "Halle Berry's silver beaded gown from Introducing Dorothy Dandridge (1999)", "work_id": 122068, "role": "lender", "role_id": 626, "is_primary": false}], "also_known_as": "", "date_of_birth": "", "date_of_death": "", "genders": [], "languages": [], "places_of_operation": [], "biography": "", "biography_author": null, "date_of_biography": "2023-07-12T04:01:13.660636+10:00", "external_links": [], "uuid": "0ecabddd-1d57-457d-b631-1c483853e463", "source": {"name": "Vernon", "slug": "vernon"}, "source_identifier": "39981", "external_references": [], "date_modified": "2025-03-11T15:34:14.141749+11:00"}, {"id": 87199, "name": "Pixel Ninja, Susan Kosti, Kati Katona", "roles_in_work": [{"id": 2503865, "title": "Goddess in the machine", "work_id": 122039, "role": "3d artists", "role_id": 1101, "is_primary": false}], "also_known_as": "", "date_of_birth": "", "date_of_death": "", "genders": [], "languages": [], "places_of_operation": [], "biography": "", "biography_author": null, "date_of_biography": "2023-08-11T17:04:09.806526+10:00", "external_links": [], "uuid": "44f0f341-42d8-4d17-8569-084443665a03", "source": {"name": "Vernon", "slug": "vernon"}, "source_identifier": "40666", "external_references": [], "date_modified": "2023-11-01T03:46:41.087175+11:00"}, {"id": 87198, "name": "AX Interactive", "roles_in_work": [{"id": 2503864, "title": "Goddess in the machine", "work_id": 122039, "role": "software development", "role_id": 1100, "is_primary": false}], "also_known_as": "", "date_of_birth": "", "date_of_death": "", "genders": [], "languages": [], "places_of_operation": [], "biography": "", "biography_author": null, "date_of_biography": "2023-08-11T17:04:09.150457+10:00", "external_links": [], "uuid": "29546a32-1e07-4ef0-943c-2b1add551774", "source": {"name": "Vernon", "slug": "vernon"}, "source_identifier": "40665", "external_references": [], "date_modified": "2023-11-01T03:46:40.413396+11:00"}]}