{"count": 28687, "next": "https://api.acmi.net.au/creators/?page=348", "previous": "https://api.acmi.net.au/creators/?page=346", "results": [{"id": 82137, "name": "David Braham", "roles_in_work": [{"id": 2788186, "title": "Player Profile Series", "work_id": 115355, "role": "producer", "role_id": 1089, "is_primary": true}], "also_known_as": "", "date_of_birth": "", "date_of_death": "", "genders": [], "languages": [], "places_of_operation": [], "biography": "", "biography_author": null, "date_of_biography": "2023-05-09T20:05:51.483730+10:00", "external_links": [], "uuid": "8a3cfd43-93ec-4810-b1c9-c38559c030a6", "source": {"name": "Vernon", "slug": "vernon"}, "source_identifier": "17514", "external_references": [{"id": 36307, "source": {"name": "Wikidata", "slug": "wikidata"}, "source_identifier": "Q121336978"}], "date_modified": "2025-03-14T19:43:29.976634+11:00"}, {"id": 82136, "name": "Write-on Productions", "roles_in_work": [{"id": 2787412, "title": "Tonia Todman's craft room", "work_id": 115341, "role": "production company", "role_id": 941, "is_primary": true}], "also_known_as": "", "date_of_birth": "", "date_of_death": "", "genders": [], "languages": [], "places_of_operation": [], "biography": "", "biography_author": null, "date_of_biography": "2023-05-09T18:09:53.135631+10:00", "external_links": [], "uuid": "81b6fbc0-d699-4f31-8677-a1ad789ddbdf", "source": {"name": "Vernon", "slug": "vernon"}, "source_identifier": "14474", "external_references": [{"id": 32259, "source": {"name": "Wikidata", "slug": "wikidata"}, "source_identifier": "Q121126463"}], "date_modified": "2025-03-14T19:40:01.336367+11:00"}, {"id": 82135, "name": "National Academy of Sciences", "roles_in_work": [{"id": 2787146, "title": "The Infinite voyage", "work_id": 115336, "role": "production company", "role_id": 941, "is_primary": true}], "also_known_as": "", "date_of_birth": "", "date_of_death": "", "genders": [], "languages": [], "places_of_operation": [], "biography": "", "biography_author": null, "date_of_biography": "2023-05-09T20:03:59.261179+10:00", "external_links": [], "uuid": "7b08e811-20b2-418f-9098-539f54bcd55f", "source": {"name": "Vernon", "slug": "vernon"}, "source_identifier": "3846", "external_references": [{"id": 35695, "source": {"name": "Wikidata", "slug": "wikidata"}, "source_identifier": "Q270794"}], "date_modified": "2025-03-14T19:37:52.338322+11:00"}, {"id": 82134, "name": "Dick Baka", "roles_in_work": [{"id": 2332208, "title": "Our dwelling place", "work_id": 115307, "role": "co-producer", "role_id": 915, "is_primary": true}, {"id": 2614142, "title": "The Birth of Jesus", "work_id": 83183, "role": "co-producer", "role_id": 915, "is_primary": true}], "also_known_as": "", "date_of_birth": "", "date_of_death": "", "genders": [], "languages": [], "places_of_operation": [], "biography": "", "biography_author": null, "date_of_biography": "2023-05-09T19:27:19.892012+10:00", "external_links": [], "uuid": "f11dba16-0ea2-4a9f-8ba7-6cd6a379bd2d", "source": {"name": "Vernon", "slug": "vernon"}, "source_identifier": "18097", "external_references": [{"id": 41382, "source": {"name": "Wikidata", "slug": "wikidata"}, "source_identifier": "Q121223020"}], "date_modified": "2025-02-26T20:07:12.233561+11:00"}, {"id": 82133, "name": "Karl Geurs", "roles_in_work": [{"id": 2785243, "title": "Goodbye Mr. Pooh", "work_id": 82567, "role": "co-director", "role_id": 959, "is_primary": true}, {"id": 2283327, "title": "Winnie the Pooh Up,Up and Away", "work_id": 80069, "role": "co-producer", "role_id": 915, "is_primary": true}, {"id": 2283322, "title": "Winnie the Pooh the Great Honey Pot Robbery", "work_id": 80316, "role": "co-producers/directors", "role_id": 628, "is_primary": true}, {"id": 2648914, "title": "Winnie the Pooh Birds of a Feather", "work_id": 80317, "role": "co-producers/directors", "role_id": 628, "is_primary": true}, {"id": 2785250, "title": "The New adventures of Winnie the Pooh", "work_id": 115298, "role": "director", "role_id": 938, "is_primary": true}, {"id": 2785226, "title": "Pooh Bear's big surprise", "work_id": 82566, "role": "producer/director", "role_id": 31, "is_primary": true}, {"id": 2785217, "title": "Wild west Winnie", "work_id": 82564, "role": "producer/director", "role_id": 31, "is_primary": true}], "also_known_as": "", "date_of_birth": "1948-06-01", "date_of_death": "", "genders": [{"id": 9, "name": "Male", "slug": "male"}], "languages": [{"id": 1, "name": "English", "slug": "english"}], "places_of_operation": [{"id": 1, "name": "United States of America", "slug": "united-states-of-america"}], "biography": "", "biography_author": null, "date_of_biography": "2023-05-09T18:05:19.127689+10:00", "external_links": [], "uuid": "75981241-d510-498c-83d2-7e9cceb352f3", "source": {"name": "Vernon", "slug": "vernon"}, "source_identifier": "23022", "external_references": [{"id": 41136, "source": {"name": "Wikidata", "slug": "wikidata"}, "source_identifier": "Q3193391"}, {"id": 54984, "source": {"name": "VIAF", "slug": "viaf"}, "source_identifier": "217595"}, {"id": 54985, "source": {"name": "LOC Auth", "slug": "loc-auth"}, "source_identifier": "no2005002528"}, {"id": 54986, "source": {"name": "WorldCat", "slug": "worldcat"}, "source_identifier": "lccn-no2005002528"}], "date_modified": "2025-03-14T19:23:27.085563+11:00"}, {"id": 82132, "name": "Michael L Moigna", "roles_in_work": [], "also_known_as": "", "date_of_birth": null, "date_of_death": null, "genders": [], "languages": [], "places_of_operation": [], "biography": "", "biography_author": null, "date_of_biography": null, "external_links": [], "uuid": "4a28e0db-e710-404b-8878-a1426e371f41", "source": {"name": "Vernon", "slug": "vernon"}, "source_identifier": null, "external_references": [], "date_modified": "2023-06-14T16:33:30.576250+10:00"}, {"id": 82131, "name": "Terry Page", "roles_in_work": [{"id": 2782282, "title": "Children's video Bible", "work_id": 115269, "role": "director", "role_id": 938, "is_primary": true}, {"id": 2782266, "title": "Jesus and His kingdom", "work_id": 82080, "role": "producer/director", "role_id": 31, "is_primary": true}, {"id": 2782192, "title": "The Beginning", "work_id": 81782, "role": "producer/director", "role_id": 31, "is_primary": true}, {"id": 2782226, "title": "The Promised land", "work_id": 83442, "role": "producer/director", "role_id": 31, "is_primary": true}, {"id": 2782237, "title": "Kings and prophets", "work_id": 83332, "role": "producer/director", "role_id": 31, "is_primary": true}, {"id": 2782255, "title": "The First Christmas", "work_id": 81637, "role": "producer/director", "role_id": 31, "is_primary": true}], "also_known_as": "", "date_of_birth": "", "date_of_death": "", "genders": [], "languages": [], "places_of_operation": [], "biography": "", "biography_author": null, "date_of_biography": "2023-05-09T19:52:40.413678+10:00", "external_links": [], "uuid": "7fcd0cff-1d3e-46a7-8fc5-b9f1bc84775d", "source": {"name": "Vernon", "slug": "vernon"}, "source_identifier": "29611", "external_references": [{"id": 38353, "source": {"name": "Wikidata", "slug": "wikidata"}, "source_identifier": "Q121337094"}], "date_modified": "2025-03-14T19:11:44.940920+11:00"}, {"id": 82130, "name": "William Nicholson", "roles_in_work": [{"id": 2778738, "title": "Global report", "work_id": 115226, "role": "producer", "role_id": 1089, "is_primary": true}], "also_known_as": "", "date_of_birth": "", "date_of_death": "", "genders": [], "languages": [], "places_of_operation": [], "biography": "", "biography_author": null, "date_of_biography": "2023-05-09T19:46:25.244930+10:00", "external_links": [], "uuid": "c706d3c2-5c7b-4757-aa17-0acea195a337", "source": {"name": "Vernon", "slug": "vernon"}, "source_identifier": "30477", "external_references": [{"id": 39310, "source": {"name": "Wikidata", "slug": "wikidata"}, "source_identifier": "Q121143634"}], "date_modified": "2025-03-14T19:01:06.974382+11:00"}, {"id": 82129, "name": "Educational DEvelopment Center, Massachusetts", "roles_in_work": [{"id": 2778332, "title": "Man: a course of study", "work_id": 115219, "role": "production company", "role_id": 941, "is_primary": true}], "also_known_as": "", "date_of_birth": "", "date_of_death": "", "genders": [], "languages": [], "places_of_operation": [], "biography": "", "biography_author": null, "date_of_biography": "2023-08-11T19:41:11.770585+10:00", "external_links": [], "uuid": "32819cf1-3995-46f6-9999-b1f84ed8803a", "source": {"name": "Vernon", "slug": "vernon"}, "source_identifier": "7785", "external_references": [{"id": 35734, "source": {"name": "Wikidata", "slug": "wikidata"}, "source_identifier": "Q121299194"}], "date_modified": "2025-03-14T18:59:19.793574+11:00"}, {"id": 82128, "name": "Leonard Bendell", "roles_in_work": [{"id": 2776322, "title": "Flowers, plants and trees", "work_id": 81682, "role": "producer/director", "role_id": 31, "is_primary": true}, {"id": 2776328, "title": "Gems, metals and minerals", "work_id": 81683, "role": "producer/director", "role_id": 31, "is_primary": true}, {"id": 2776308, "title": "Space, Earth and atmosphere", "work_id": 81680, "role": "producer/director", "role_id": 31, "is_primary": true}, {"id": 2776340, "title": "Life forms, animals and animal oddities", "work_id": 81685, "role": "producer/director", "role_id": 31, "is_primary": true}, {"id": 2776316, "title": "Water and weather", "work_id": 81681, "role": "producer/director", "role_id": 31, "is_primary": true}, {"id": 2776335, "title": "Insects", "work_id": 81684, "role": "producer/director", "role_id": 31, "is_primary": true}, {"id": 2776347, "title": "Arkady Leokum's Tell Me Why", "work_id": 115205, "role": "producer/director", "role_id": 31, "is_primary": true}], "also_known_as": "", "date_of_birth": "", "date_of_death": "", "genders": [], "languages": [], "places_of_operation": [], "biography": "", "biography_author": null, "date_of_biography": "2023-05-09T18:46:32.374498+10:00", "external_links": [], "uuid": "ee20e94e-24fb-4be9-9a63-eb01bb43e1b4", "source": {"name": "Vernon", "slug": "vernon"}, "source_identifier": "23712", "external_references": [{"id": 52001, "source": {"name": "Wikidata", "slug": "wikidata"}, "source_identifier": "Q121361249"}], "date_modified": "2025-03-14T18:47:12.841009+11:00"}]}