{"count": 28687, "next": "https://api.acmi.net.au/creators/?page=2735", "previous": "https://api.acmi.net.au/creators/?page=2733", "results": [{"id": 10956, "name": "Mount View Primary School", "roles_in_work": [{"id": 2638163, "title": "The Bouncing ball", "work_id": 110081, "role": "creator", "role_id": 968, "is_primary": true}], "also_known_as": "", "date_of_birth": "", "date_of_death": "", "genders": [], "languages": [], "places_of_operation": [], "biography": "", "biography_author": null, "date_of_biography": "2023-05-09T17:34:48.131566+10:00", "external_links": [], "uuid": "5daa0e52-25e5-4ace-bb0f-1bdcfc728e75", "source": {"name": "Vernon", "slug": "vernon"}, "source_identifier": "2727", "external_references": [], "date_modified": "2025-03-05T11:01:44.448363+11:00"}, {"id": 10955, "name": "Alexander Carlos", "roles_in_work": [{"id": 2638162, "title": "The Jail cell", "work_id": 110080, "role": "creator", "role_id": 968, "is_primary": true}], "also_known_as": "", "date_of_birth": "", "date_of_death": "", "genders": [{"id": 9, "name": "Male", "slug": "male"}], "languages": [], "places_of_operation": [], "biography": "", "biography_author": null, "date_of_biography": "2023-05-09T17:34:39.647627+10:00", "external_links": [], "uuid": "661d9642-9047-4680-beb6-fdf225ac0027", "source": {"name": "Vernon", "slug": "vernon"}, "source_identifier": "2728", "external_references": [], "date_modified": "2025-03-05T11:01:43.574395+11:00"}, {"id": 10954, "name": "Katelyn Kemp", "roles_in_work": [{"id": 2638160, "title": "Checkmate", "work_id": 110079, "role": "creator", "role_id": 968, "is_primary": true}], "also_known_as": "", "date_of_birth": "", "date_of_death": "", "genders": [], "languages": [], "places_of_operation": [], "biography": "", "biography_author": null, "date_of_biography": "2023-05-09T17:34:51.084838+10:00", "external_links": [], "uuid": "10398d23-d015-4767-817b-4cfcee0b4532", "source": {"name": "Vernon", "slug": "vernon"}, "source_identifier": "3006", "external_references": [], "date_modified": "2025-03-05T11:01:42.146474+11:00"}, {"id": 10953, "name": "Anna Pollock", "roles_in_work": [{"id": 2638159, "title": "Checkmate", "work_id": 110079, "role": "creator", "role_id": 968, "is_primary": true}], "also_known_as": "", "date_of_birth": "", "date_of_death": "", "genders": [], "languages": [], "places_of_operation": [], "biography": "", "biography_author": null, "date_of_biography": "2023-05-09T17:34:50.859077+10:00", "external_links": [], "uuid": "10f210f3-a049-456e-813e-4ac642c3c901", "source": {"name": "Vernon", "slug": "vernon"}, "source_identifier": "3005", "external_references": [], "date_modified": "2025-03-05T11:01:41.554317+11:00"}, {"id": 10952, "name": "Castlemaine North Primary School", "roles_in_work": [{"id": 2638158, "title": "Checkmate", "work_id": 110079, "role": "creator", "role_id": 968, "is_primary": true}], "also_known_as": "", "date_of_birth": "", "date_of_death": "", "genders": [], "languages": [], "places_of_operation": [], "biography": "", "biography_author": null, "date_of_biography": "2023-05-09T17:34:50.632185+10:00", "external_links": [], "uuid": "fa885019-5de3-4dae-bf16-ee0e1150d9a1", "source": {"name": "Vernon", "slug": "vernon"}, "source_identifier": "2726", "external_references": [], "date_modified": "2025-03-05T11:01:40.958481+11:00"}, {"id": 10951, "name": "Mundingburra State School", "roles_in_work": [{"id": 2638157, "title": "Revenge of PS2", "work_id": 110077, "role": "creator", "role_id": 968, "is_primary": true}], "also_known_as": "", "date_of_birth": "", "date_of_death": "", "genders": [], "languages": [], "places_of_operation": [], "biography": "", "biography_author": null, "date_of_biography": "2023-05-09T17:34:42.853731+10:00", "external_links": [], "uuid": "39763554-54ff-4aeb-8a6c-22027d0802ba", "source": {"name": "Vernon", "slug": "vernon"}, "source_identifier": "2725", "external_references": [], "date_modified": "2025-03-05T11:01:40.043609+11:00"}, {"id": 10950, "name": "Ashley Young", "roles_in_work": [{"id": 2638156, "title": "Captain Metal", "work_id": 110076, "role": "creator", "role_id": 968, "is_primary": true}], "also_known_as": "", "date_of_birth": "", "date_of_death": "", "genders": [], "languages": [], "places_of_operation": [], "biography": "", "biography_author": null, "date_of_biography": "2023-05-09T17:34:44.038050+10:00", "external_links": [], "uuid": "35d371a6-d7c8-42f4-b1de-c7116529ffdb", "source": {"name": "Vernon", "slug": "vernon"}, "source_identifier": "3004", "external_references": [], "date_modified": "2025-03-05T11:01:39.166189+11:00"}, {"id": 10949, "name": "Taroona Primary School", "roles_in_work": [{"id": 2638155, "title": "Captain Metal", "work_id": 110076, "role": "creator", "role_id": 968, "is_primary": true}], "also_known_as": "", "date_of_birth": "", "date_of_death": "", "genders": [], "languages": [], "places_of_operation": [], "biography": "", "biography_author": null, "date_of_biography": "2023-05-09T17:34:43.813482+10:00", "external_links": [], "uuid": "51228d89-3fa1-4d4e-8160-544de7e3444f", "source": {"name": "Vernon", "slug": "vernon"}, "source_identifier": "2724", "external_references": [], "date_modified": "2025-03-05T11:01:38.562965+11:00"}, {"id": 10948, "name": "Cambridge Primary School", "roles_in_work": [{"id": 2638153, "title": "Guess who", "work_id": 110074, "role": "creator", "role_id": 968, "is_primary": true}], "also_known_as": "", "date_of_birth": "", "date_of_death": "", "genders": [], "languages": [], "places_of_operation": [], "biography": "", "biography_author": null, "date_of_biography": "2023-05-09T17:34:45.199758+10:00", "external_links": [], "uuid": "e223afff-f4eb-491c-bfe1-e9db6c9565fb", "source": {"name": "Vernon", "slug": "vernon"}, "source_identifier": "2723", "external_references": [], "date_modified": "2025-03-05T11:01:36.850750+11:00"}, {"id": 10947, "name": "Fitzroy Community School", "roles_in_work": [{"id": 2638151, "title": "Goblin games", "work_id": 110072, "role": "creator", "role_id": 968, "is_primary": true}], "also_known_as": "", "date_of_birth": "", "date_of_death": "", "genders": [], "languages": [], "places_of_operation": [], "biography": "", "biography_author": null, "date_of_biography": "2023-05-09T17:34:49.934601+10:00", "external_links": [], "uuid": "7f275fe3-1ba1-4667-b242-0efdd3eb5221", "source": {"name": "Vernon", "slug": "vernon"}, "source_identifier": "2722", "external_references": [], "date_modified": "2025-03-05T11:01:35.145874+11:00"}]}