{"count": 28687, "next": "https://api.acmi.net.au/creators/?page=1115", "previous": "https://api.acmi.net.au/creators/?page=1113", "results": [{"id": 74442, "name": "Gerald Potterton", "roles_in_work": [{"id": 2647527, "title": "My financial career", "work_id": 76494, "role": "director", "role_id": 938, "is_primary": true}, {"id": 2679843, "title": "Christmas cracker", "work_id": 66097, "role": "director", "role_id": 938, "is_primary": true}, {"id": 879460, "title": "The Railrodder", "work_id": 91802, "role": "director", "role_id": 938, "is_primary": true}, {"id": 759685, "title": "The Ride", "work_id": 75484, "role": "director", "role_id": 938, "is_primary": true}, {"id": 751619, "title": "The Quiet racket", "work_id": 72008, "role": "director", "role_id": 938, "is_primary": true}, {"id": 751690, "title": "The Railrodder", "work_id": 72037, "role": "director", "role_id": 938, "is_primary": true}, {"id": 2715674, "title": "Hors d'oeuvre = Hors-d'oeuvre", "work_id": 68552, "role": "director", "role_id": 938, "is_primary": true}, {"id": 2712955, "title": "The Energy picture", "work_id": 67171, "role": "co-director", "role_id": 959, "is_primary": true}, {"id": 897182, "title": "Hot stuff. The Ride. Dinosaur. Rip Van Winkle", "work_id": 77017, "role": "co-director", "role_id": 959, "is_primary": true}], "also_known_as": "", "date_of_birth": "08 MAR 1931", "date_of_death": "23 AUG 2022", "genders": [{"id": 9, "name": "Male", "slug": "male"}], "languages": [{"id": 1, "name": "English", "slug": "english"}], "places_of_operation": [{"id": 36, "name": "Canada", "slug": "canada"}], "biography": "Gerald Potterton  (8 March 1931 – 23 August 2022) was a Canadian director, animator, producer and writer. He is best known for directing the cult classic Heavy Metal and for his animation work on Yellow Submarine.\n\nPotterton won one Peabody Award and was nominated three times for an Academy Award for Best Animated Short Film: as director on the National Film Board of Canada animated shorts My Financial Career and Christmas Cracker, and as producer for The Selfish Giant. Source: Wikidata; 01/08/2023", "biography_author": null, "date_of_biography": "2025-03-12T01:40:22.369424+11:00", "external_links": [{"id": 4062, "uri": "https://en.wikipedia.org/wiki/Gerald_Potterton"}], "uuid": "670cb939-ce5f-473e-9a27-169424ff8d88", "source": {"name": "Vernon", "slug": "vernon"}, "source_identifier": "1669", "external_references": [{"id": 25964, "source": {"name": "Wikidata", "slug": "wikidata"}, "source_identifier": "Q5549489"}, {"id": 28656, "source": {"name": "VIAF", "slug": "viaf"}, "source_identifier": "121128728"}, {"id": 28657, "source": {"name": "LOC Auth", "slug": "loc-auth"}, "source_identifier": "nb2010013278"}, {"id": 28658, "source": {"name": "WorldCat", "slug": "worldcat"}, "source_identifier": "lccn-nb2010013278"}], "date_modified": "2025-03-12T01:40:22.369813+11:00"}, {"id": 74441, "name": "Jeffrey Hale", "roles_in_work": [{"id": 2211512, "title": "Pot purri", "work_id": 71734, "role": "director", "role_id": 938, "is_primary": true}, {"id": 2715678, "title": "Hors d'oeuvre = Hors-d'oeuvre", "work_id": 68552, "role": "director", "role_id": 938, "is_primary": true}, {"id": 2679840, "title": "Christmas cracker", "work_id": 66097, "role": "director", "role_id": 938, "is_primary": true}, {"id": 2714942, "title": "The Great toy robbery", "work_id": 68193, "role": "director", "role_id": 938, "is_primary": true}], "also_known_as": "", "date_of_birth": "", "date_of_death": "", "genders": [], "languages": [], "places_of_operation": [], "biography": "", "biography_author": null, "date_of_biography": "2023-05-09T19:58:15.150316+10:00", "external_links": [], "uuid": "5fb90c06-2f7e-4908-b055-14410fd39662", "source": {"name": "Vernon", "slug": "vernon"}, "source_identifier": "21670", "external_references": [{"id": 37646, "source": {"name": "Wikidata", "slug": "wikidata"}, "source_identifier": "Q121315069"}], "date_modified": "2025-03-12T01:40:24.836107+11:00"}, {"id": 74440, "name": "Alanis Obomsawin", "roles_in_work": [{"id": 2792076, "title": "Walker", "work_id": 84912, "role": "director", "role_id": 938, "is_primary": true}, {"id": 2679837, "title": "Christmas at Moose Factory", "work_id": 66096, "role": "director", "role_id": 938, "is_primary": true}, {"id": 2088496, "title": "Amisk", "work_id": 77824, "role": "director", "role_id": 938, "is_primary": true}, {"id": 2088491, "title": "Amisk", "work_id": 77824, "role": "co-producer", "role_id": 915, "is_primary": true}, {"id": 1428050, "title": "Mother of many children", "work_id": 88739, "role": "producer/director", "role_id": 31, "is_primary": true}], "also_known_as": "", "date_of_birth": "31 AUG 1932", "date_of_death": "", "genders": [{"id": 5, "name": "Female", "slug": "female"}], "languages": [{"id": 90, "name": "Abenaki", "slug": "abenaki"}, {"id": 1, "name": "English", "slug": "english"}, {"id": 4, "name": "French", "slug": "french"}], "places_of_operation": [{"id": 36, "name": "Canada", "slug": "canada"}], "biography": "Alanis Obomsawin,  (born August 31, 1932) is an Abenaki American-Canadian filmmaker, singer, artist, and activist primarily known for her documentary films. Born in New Hampshire, United States and raised primarily in Quebec, Canada, she has written and directed many National Film Board of Canada documentaries on First Nations issues. Obomsawin is a member of Film Fatales independent women filmmakers.\n\nObomsawin relates that \"the basic purpose [of her films] is for our people to have a voice [...] no matter what we're talking about whether it has to do with having our existence recognized, or whether it has to do with speaking about our values, our survival, our beliefs, that we belong to something beautiful, that it's O.K. to be an Indian, to be a native person in this country\". Her best known documentary is Kanehsatake: 270 Years of Resistance, regarding the 1990 Oka Crisis in Quebec. Source: Wikidata; 01/08/2023", "biography_author": null, "date_of_biography": "2025-03-14T20:06:39.373758+11:00", "external_links": [{"id": 3505, "uri": "https://en.wikipedia.org/wiki/Alanis_Obomsawin"}], "uuid": "09ac0d4d-3c39-4611-828c-48f5db3cfc71", "source": {"name": "Vernon", "slug": "vernon"}, "source_identifier": "14818", "external_references": [{"id": 26621, "source": {"name": "Wikidata", "slug": "wikidata"}, "source_identifier": "Q637195"}, {"id": 27141, "source": {"name": "VIAF", "slug": "viaf"}, "source_identifier": "70801649"}, {"id": 27142, "source": {"name": "LOC Auth", "slug": "loc-auth"}, "source_identifier": "n2005070718"}, {"id": 27143, "source": {"name": "WorldCat", "slug": "worldcat"}, "source_identifier": "lccn-n2005070718"}], "date_modified": "2025-03-14T20:06:39.374083+11:00"}, {"id": 74439, "name": "Erika Hellfritsch", "roles_in_work": [{"id": 2679808, "title": "The Choice is yours (Industrial safety)", "work_id": 66083, "role": "producer", "role_id": 1089, "is_primary": true}], "also_known_as": "", "date_of_birth": "", "date_of_death": "", "genders": [], "languages": [], "places_of_operation": [], "biography": "", "biography_author": null, "date_of_biography": "2023-05-09T19:34:06.293495+10:00", "external_links": [], "uuid": "174f081f-fa81-4cb0-8929-0aff938c2d98", "source": {"name": "Vernon", "slug": "vernon"}, "source_identifier": "18855", "external_references": [{"id": 39899, "source": {"name": "Wikidata", "slug": "wikidata"}, "source_identifier": "Q121126824"}], "date_modified": "2025-03-07T00:21:15.339778+11:00"}, {"id": 74438, "name": "Colin Fox", "roles_in_work": [{"id": 2679807, "title": "The Choice is yours (Industrial safety)", "work_id": 66083, "role": "producer", "role_id": 1089, "is_primary": true}], "also_known_as": "", "date_of_birth": "", "date_of_death": "", "genders": [], "languages": [], "places_of_operation": [], "biography": "", "biography_author": null, "date_of_biography": "2023-05-09T19:34:06.041366+10:00", "external_links": [], "uuid": "1da7f883-0877-438a-ba4d-72607a425ca5", "source": {"name": "Vernon", "slug": "vernon"}, "source_identifier": "17174", "external_references": [{"id": 43176, "source": {"name": "Wikidata", "slug": "wikidata"}, "source_identifier": "Q121337398"}], "date_modified": "2025-03-07T00:21:14.634165+11:00"}, {"id": 74437, "name": "John Ward", "roles_in_work": [{"id": 2645509, "title": "The Magic bean", "work_id": 69984, "role": "co-producer", "role_id": 915, "is_primary": true}, {"id": 2679806, "title": "The Choice is yours (Industrial safety)", "work_id": 66083, "role": "producer", "role_id": 1089, "is_primary": true}], "also_known_as": "", "date_of_birth": "", "date_of_death": "", "genders": [], "languages": [], "places_of_operation": [], "biography": "", "biography_author": null, "date_of_biography": "2023-05-09T19:34:05.674447+10:00", "external_links": [], "uuid": "b6e0e904-1b62-4c16-89c0-ea6b6ba83aab", "source": {"name": "Vernon", "slug": "vernon"}, "source_identifier": "22573", "external_references": [{"id": 37338, "source": {"name": "Wikidata", "slug": "wikidata"}, "source_identifier": "Q121079145"}], "date_modified": "2025-03-07T00:21:14.037488+11:00"}, {"id": 74436, "name": "Fred S Niemann", "roles_in_work": [{"id": 2644386, "title": "The Choice is yours", "work_id": 66081, "role": "producer/director", "role_id": 31, "is_primary": true}], "also_known_as": "", "date_of_birth": "", "date_of_death": "", "genders": [], "languages": [], "places_of_operation": [], "biography": "", "biography_author": null, "date_of_biography": "2023-05-09T19:34:03.320053+10:00", "external_links": [], "uuid": "df331709-7e73-4f68-b468-0653f04e1a6f", "source": {"name": "Vernon", "slug": "vernon"}, "source_identifier": "19247", "external_references": [{"id": 50684, "source": {"name": "Wikidata", "slug": "wikidata"}, "source_identifier": "Q121360686"}], "date_modified": "2025-03-05T12:16:50.838434+11:00"}, {"id": 74435, "name": "Chang Chao-chun", "roles_in_work": [{"id": 2679798, "title": "Hand puppets", "work_id": 66077, "role": "co-director", "role_id": 959, "is_primary": true}], "also_known_as": "", "date_of_birth": null, "date_of_death": null, "genders": [], "languages": [], "places_of_operation": [], "biography": "", "biography_author": null, "date_of_biography": null, "external_links": [], "uuid": "1f0c7822-8c29-49bd-a1f3-1a64144ca57a", "source": {"name": "Vernon", "slug": "vernon"}, "source_identifier": "16647", "external_references": [{"id": 42682, "source": {"name": "Wikidata", "slug": "wikidata"}, "source_identifier": "Q121223495"}], "date_modified": "2025-03-07T00:21:08.164714+11:00"}, {"id": 74434, "name": "Yu Cheh-kuang", "roles_in_work": [{"id": 2679797, "title": "Hand puppets", "work_id": 66077, "role": "co-director", "role_id": 959, "is_primary": true}], "also_known_as": "", "date_of_birth": null, "date_of_death": null, "genders": [], "languages": [], "places_of_operation": [], "biography": "", "biography_author": null, "date_of_biography": null, "external_links": [], "uuid": "9755fdfa-d685-4d5c-a577-49b13552a106", "source": {"name": "Vernon", "slug": "vernon"}, "source_identifier": "30608", "external_references": [{"id": 43178, "source": {"name": "Wikidata", "slug": "wikidata"}, "source_identifier": "Q121036401"}], "date_modified": "2025-03-07T00:21:07.469446+11:00"}, {"id": 74433, "name": "Dick Foster", "roles_in_work": [{"id": 2765414, "title": "A Child's place", "work_id": 66060, "role": "co-producer", "role_id": 915, "is_primary": true}, {"id": 2765426, "title": "Mummy, daddy Lenin and Mao", "work_id": 70678, "role": "co-producer", "role_id": 915, "is_primary": true}, {"id": 2187944, "title": "Parents and children", "work_id": 76547, "role": "co-producer", "role_id": 915, "is_primary": true}, {"id": 2765434, "title": "Part time parent, full time job", "work_id": 71370, "role": "producer", "role_id": 1089, "is_primary": true}], "also_known_as": "", "date_of_birth": "", "date_of_death": "", "genders": [], "languages": [], "places_of_operation": [], "biography": "", "biography_author": null, "date_of_biography": "2023-05-09T15:04:58.201854+10:00", "external_links": [], "uuid": "9dfd83fe-60c5-4ed8-a99b-1a6cce9df71a", "source": {"name": "Vernon", "slug": "vernon"}, "source_identifier": "18108", "external_references": [{"id": 41221, "source": {"name": "Wikidata", "slug": "wikidata"}, "source_identifier": "Q121271329"}], "date_modified": "2025-03-14T17:52:47.670259+11:00"}]}