{"count": 28687, "next": "https://api.acmi.net.au/creators/?page=2728", "previous": "https://api.acmi.net.au/creators/?page=2726", "results": [{"id": 11063, "name": "Stella Paraskakis", "roles_in_work": [{"id": 2638579, "title": "New beginnings", "work_id": 110168, "role": "creator", "role_id": 968, "is_primary": true}], "also_known_as": "", "date_of_birth": "", "date_of_death": "", "genders": [{"id": 5, "name": "Female", "slug": "female"}], "languages": [], "places_of_operation": [], "biography": "", "biography_author": null, "date_of_biography": "2023-07-05T03:43:07.318821+10:00", "external_links": [], "uuid": "efdd87fb-9064-47ae-b30e-095fb3679b3c", "source": {"name": "Vernon", "slug": "vernon"}, "source_identifier": "2790", "external_references": [], "date_modified": "2025-03-05T11:08:27.012691+11:00"}, {"id": 11062, "name": "Kathrine Deng", "roles_in_work": [{"id": 2638575, "title": "The Blue Nile", "work_id": 110167, "role": "creator", "role_id": 968, "is_primary": true}], "also_known_as": "", "date_of_birth": "", "date_of_death": "", "genders": [{"id": 5, "name": "Female", "slug": "female"}], "languages": [], "places_of_operation": [], "biography": "", "biography_author": null, "date_of_biography": "2023-05-09T19:40:11.155567+10:00", "external_links": [], "uuid": "b949485e-4631-4dea-8dbc-16900a0ff43c", "source": {"name": "Vernon", "slug": "vernon"}, "source_identifier": "2787", "external_references": [], "date_modified": "2025-03-05T11:08:24.328270+11:00"}, {"id": 11061, "name": "Maria Sourtzis", "roles_in_work": [{"id": 2638572, "title": "A young girls journey to the other side of the world", "work_id": 110166, "role": "creator", "role_id": 968, "is_primary": true}], "also_known_as": "", "date_of_birth": "", "date_of_death": "", "genders": [{"id": 5, "name": "Female", "slug": "female"}], "languages": [], "places_of_operation": [], "biography": "", "biography_author": null, "date_of_biography": "2023-07-05T03:43:00.170617+10:00", "external_links": [], "uuid": "d892fc33-2f2c-4e7b-a13d-44d3f2e45e7b", "source": {"name": "Vernon", "slug": "vernon"}, "source_identifier": "2786", "external_references": [], "date_modified": "2025-03-05T11:08:21.890862+11:00"}, {"id": 11060, "name": "Nga Diep", "roles_in_work": [{"id": 2638568, "title": "Life is beautiful", "work_id": 110165, "role": "creator", "role_id": 968, "is_primary": true}], "also_known_as": "", "date_of_birth": "", "date_of_death": "", "genders": [{"id": 5, "name": "Female", "slug": "female"}], "languages": [], "places_of_operation": [], "biography": "", "biography_author": null, "date_of_biography": "2023-07-05T03:42:57.866523+10:00", "external_links": [], "uuid": "759668e1-70fb-4e07-a4a8-accbb738ce7a", "source": {"name": "Vernon", "slug": "vernon"}, "source_identifier": "2785", "external_references": [], "date_modified": "2025-03-05T11:08:18.772466+11:00"}, {"id": 11059, "name": "Helen Schloetzer", "roles_in_work": [{"id": 2638565, "title": "A Journey to freedom", "work_id": 110164, "role": "creator", "role_id": 968, "is_primary": true}], "also_known_as": "", "date_of_birth": "", "date_of_death": "", "genders": [{"id": 5, "name": "Female", "slug": "female"}], "languages": [], "places_of_operation": [], "biography": "", "biography_author": null, "date_of_biography": "2023-07-05T03:42:55.946836+10:00", "external_links": [], "uuid": "26757da4-08f3-4b93-a0b5-7d6d4a914e4e", "source": {"name": "Vernon", "slug": "vernon"}, "source_identifier": "2784", "external_references": [], "date_modified": "2025-03-05T11:08:16.285868+11:00"}, {"id": 11058, "name": "Nychuat Deng", "roles_in_work": [{"id": 2638561, "title": "Sudan: a new vision", "work_id": 110163, "role": "creator", "role_id": 968, "is_primary": true}], "also_known_as": "", "date_of_birth": "", "date_of_death": "", "genders": [], "languages": [], "places_of_operation": [], "biography": "", "biography_author": null, "date_of_biography": "2023-05-09T19:40:18.242252+10:00", "external_links": [], "uuid": "0dcdfb9a-5f8b-4d29-b235-efafe1aa0773", "source": {"name": "Vernon", "slug": "vernon"}, "source_identifier": "2783", "external_references": [], "date_modified": "2025-03-05T11:08:13.598290+11:00"}, {"id": 11057, "name": "Anastasia Solomidis", "roles_in_work": [{"id": 2638558, "title": "Leaving Tropeoulhos", "work_id": 110162, "role": "creator", "role_id": 968, "is_primary": true}], "also_known_as": "", "date_of_birth": "", "date_of_death": "", "genders": [{"id": 5, "name": "Female", "slug": "female"}], "languages": [], "places_of_operation": [], "biography": "", "biography_author": null, "date_of_biography": "2023-07-05T03:42:52.971573+10:00", "external_links": [], "uuid": "db459f58-201f-4bd4-8043-e2b23244ea6e", "source": {"name": "Vernon", "slug": "vernon"}, "source_identifier": "2782", "external_references": [], "date_modified": "2025-03-05T11:08:11.182498+11:00"}, {"id": 11056, "name": "Mui-Mui Tran", "roles_in_work": [{"id": 2638554, "title": "Changing worlds: my journey", "work_id": 110161, "role": "creator", "role_id": 968, "is_primary": true}], "also_known_as": "", "date_of_birth": "", "date_of_death": "", "genders": [{"id": 5, "name": "Female", "slug": "female"}], "languages": [], "places_of_operation": [], "biography": "", "biography_author": null, "date_of_biography": "2023-07-05T03:42:50.985333+10:00", "external_links": [], "uuid": "5d71d44c-eb48-44bc-93e0-5725962ceca6", "source": {"name": "Vernon", "slug": "vernon"}, "source_identifier": "2781", "external_references": [], "date_modified": "2025-03-05T11:08:08.044110+11:00"}, {"id": 11055, "name": "Elfrieda Senycia", "roles_in_work": [{"id": 2638551, "title": "From Graz to Glenroy", "work_id": 110159, "role": "creator", "role_id": 968, "is_primary": true}], "also_known_as": "", "date_of_birth": "", "date_of_death": "", "genders": [], "languages": [], "places_of_operation": [], "biography": "", "biography_author": null, "date_of_biography": "2023-07-05T03:42:47.734048+10:00", "external_links": [], "uuid": "0d89a204-7032-4a96-be55-931d6f23b198", "source": {"name": "Vernon", "slug": "vernon"}, "source_identifier": "2866", "external_references": [], "date_modified": "2025-03-05T11:08:05.012157+11:00"}, {"id": 11054, "name": "Viv Mehes", "roles_in_work": [{"id": 2638550, "title": "From Graz to Glenroy", "work_id": 110159, "role": "creator", "role_id": 968, "is_primary": true}], "also_known_as": "", "date_of_birth": "", "date_of_death": "", "genders": [{"id": 5, "name": "Female", "slug": "female"}], "languages": [], "places_of_operation": [], "biography": "", "biography_author": null, "date_of_biography": "2023-07-05T03:42:46.955470+10:00", "external_links": [], "uuid": "c2249d88-33a5-47de-85bd-4c836282fc49", "source": {"name": "Vernon", "slug": "vernon"}, "source_identifier": "2780", "external_references": [], "date_modified": "2025-03-05T11:08:04.419799+11:00"}]}