{"count": 28687, "next": "https://api.acmi.net.au/creators/?page=2067", "previous": "https://api.acmi.net.au/creators/?page=2065", "results": [{"id": 21247, "name": "Paul Johnson", "roles_in_work": [{"id": 2411443, "title": "In open air: a portrait of the American impressionists", "work_id": 78348, "role": "producer", "role_id": 1089, "is_primary": true}], "also_known_as": "", "date_of_birth": "", "date_of_death": "", "genders": [], "languages": [], "places_of_operation": [], "biography": "", "biography_author": null, "date_of_biography": "2023-08-11T18:20:34.931201+10:00", "external_links": [], "uuid": "fd166691-6b60-4fcb-8733-fcedeead4583", "source": {"name": "Vernon", "slug": "vernon"}, "source_identifier": "26255", "external_references": [], "date_modified": "2023-08-11T18:20:34.931423+10:00"}, {"id": 21246, "name": "Ken McMullen", "roles_in_work": [{"id": 864850, "title": "Being and doing", "work_id": 78347, "role": "director", "role_id": 938, "is_primary": true}, {"id": 2292587, "title": "There we are John...Derek Jarman interviewed by John Cartwright", "work_id": 93532, "role": "director", "role_id": 938, "is_primary": true}], "also_known_as": "", "date_of_birth": "1948-08-31", "date_of_death": "", "genders": [{"id": 9, "name": "Male", "slug": "male"}], "languages": [{"id": 1, "name": "English", "slug": "english"}], "places_of_operation": [{"id": 10, "name": "United Kingdom", "slug": "united-kingdom"}], "biography": "Ken McMullen (born 31 August 1948, Manchester) is a film director, artist and since 2012 Anniversary Professor of Film Studies at Kingston University, London. McMullen's films are grounded in philosophy, history, psychoanalysis and literature. McMullen's exhibition Signatures of the Invisible brought together artists and scientists working at CERN, the European particle physics facility near Geneva. His other work includes filming conversations with physicists at Stanford Linear Accelerator Centre, which he describes as \"making a diary of the transition in human culture\" because he believes physics is arriving at another shifting point. His latest work Arrows of Time is a radical new form of cinema consisting of 40 interchangeable elements that deal with literature, philosophy, and contemporary physics, premiered at the Museum of Modern Art in San Francisco in April 2007.\nDuring the late 1990s and early 2000s McMullen also lectured and took tutor groups and what was then 'The London College of Printing and Distributive Trades' - now the London College of Communication. Attached to the department of Film and Television studies at the college's Back Hill facility, McMullen was popular with students.", "biography_author": "Wikidata", "date_of_biography": "2023-08-01T15:48:11.638418+10:00", "external_links": [{"id": 4477, "uri": "https://en.wikipedia.org/wiki/Ken_McMullen_(film_director)"}], "uuid": "526aed2f-194e-4925-ac82-39d61753c2e6", "source": {"name": "Vernon", "slug": "vernon"}, "source_identifier": "23203", "external_references": [{"id": 26672, "source": {"name": "Wikidata", "slug": "wikidata"}, "source_identifier": "Q6388143"}, {"id": 29753, "source": {"name": "VIAF", "slug": "viaf"}, "source_identifier": "92414087"}, {"id": 29754, "source": {"name": "LOC Auth", "slug": "loc-auth"}, "source_identifier": "no2006073904"}, {"id": 29755, "source": {"name": "WorldCat", "slug": "worldcat"}, "source_identifier": "lccn-no2006073904"}], "date_modified": "2023-09-05T22:04:54.901968+10:00"}, {"id": 21243, "name": "Mel Waskin", "roles_in_work": [{"id": 3081604, "title": "Chemical bonding and atomic structure. - 2nd ed.", "work_id": 98351, "role": "director", "role_id": 938, "is_primary": true}, {"id": 2780387, "title": "The Biological sciences", "work_id": 115247, "role": "director", "role_id": 938, "is_primary": true}, {"id": 2780348, "title": "Genetic biology", "work_id": 82065, "role": "director", "role_id": 938, "is_primary": true}, {"id": 2751670, "title": "Zoo animals in the wild: bears", "work_id": 97923, "role": "director", "role_id": 938, "is_primary": true}, {"id": 2751673, "title": "Zoo animals in the wild: beavers", "work_id": 97924, "role": "director", "role_id": 938, "is_primary": true}, {"id": 2751677, "title": "Elephants", "work_id": 97926, "role": "director", "role_id": 938, "is_primary": true}, {"id": 2751681, "title": "Monkeys", "work_id": 97929, "role": "director", "role_id": 938, "is_primary": true}, {"id": 2751684, "title": "Zoo animals in the wild: ostriches", "work_id": 97930, "role": "director", "role_id": 938, "is_primary": true}, {"id": 2751688, "title": "Rhinos and hippos", "work_id": 97932, "role": "director", "role_id": 938, "is_primary": true}, {"id": 2752804, "title": "Amazing ants", "work_id": 98467, "role": "director", "role_id": 938, "is_primary": true}, {"id": 3081609, "title": "Acids, bases and salts. - 2nd ed.", "work_id": 98420, "role": "director", "role_id": 938, "is_primary": true}, {"id": 869912, "title": "Atmospheric science", "work_id": 85963, "role": "director", "role_id": 938, "is_primary": true}, {"id": 830077, "title": "Giant turtles", "work_id": 97927, "role": "director", "role_id": 938, "is_primary": true}, {"id": 864841, "title": "Cell differentiation: the search for the organiser (TEFC)", "work_id": 78343, "role": "director", "role_id": 938, "is_primary": true}], "also_known_as": "", "date_of_birth": "", "date_of_death": "", "genders": [], "languages": [], "places_of_operation": [], "biography": "", "biography_author": null, "date_of_biography": "2023-05-09T13:26:53.549044+10:00", "external_links": [], "uuid": "695c4763-1173-4e93-8f41-3e97b43bb0f1", "source": {"name": "Vernon", "slug": "vernon"}, "source_identifier": "24920", "external_references": [{"id": 32784, "source": {"name": "Wikidata", "slug": "wikidata"}, "source_identifier": "Q121091335"}], "date_modified": "2025-03-17T10:25:01.331987+11:00"}, {"id": 21236, "name": "Community Media Unit, Melbourne College of Advanced Education", "roles_in_work": [{"id": 2335212, "title": "The Business of Welfare", "work_id": 78340, "role": "production company", "role_id": 941, "is_primary": true}], "also_known_as": "", "date_of_birth": "", "date_of_death": "", "genders": [], "languages": [], "places_of_operation": [], "biography": "", "biography_author": null, "date_of_biography": "2023-05-09T19:30:53.833621+10:00", "external_links": [], "uuid": "aec4d19d-4d77-466f-a384-5c9c93a298e1", "source": {"name": "Vernon", "slug": "vernon"}, "source_identifier": "6961", "external_references": [{"id": 37249, "source": {"name": "Wikidata", "slug": "wikidata"}, "source_identifier": "Q121223333"}], "date_modified": "2023-09-05T18:44:38.689157+10:00"}, {"id": 21234, "name": "Hilary Furlong", "roles_in_work": [{"id": 2198902, "title": "Don't call me girlie", "work_id": 78339, "role": "producer", "role_id": 1089, "is_primary": true}, {"id": 1807400, "title": "The Place at the coast", "work_id": 79275, "role": "producer", "role_id": 1089, "is_primary": true}, {"id": 1813002, "title": "The Place at the coast (Captioned)", "work_id": 79718, "role": "producer", "role_id": 1089, "is_primary": true}], "also_known_as": "", "date_of_birth": "", "date_of_death": "", "genders": [], "languages": [], "places_of_operation": [], "biography": "", "biography_author": null, "date_of_biography": "2023-05-09T15:22:50.705332+10:00", "external_links": [], "uuid": "62555c2d-9b45-45b0-b808-672d41fac93d", "source": {"name": "Vernon", "slug": "vernon"}, "source_identifier": "20553", "external_references": [{"id": 39027, "source": {"name": "Wikidata", "slug": "wikidata"}, "source_identifier": "Q121057965"}], "date_modified": "2023-09-05T20:39:14.667140+10:00"}, {"id": 21230, "name": "Judy Rymer", "roles_in_work": [{"id": 1428133, "title": "Message from Moree (A) [Widescreen]", "work_id": 94558, "role": "director", "role_id": 938, "is_primary": true}, {"id": 2152048, "title": "It's Your Art", "work_id": 81022, "role": "director", "role_id": 938, "is_primary": true}, {"id": 780762, "title": "It's not easy", "work_id": 82973, "role": "director", "role_id": 938, "is_primary": true}, {"id": 2209692, "title": "Poles apart", "work_id": 92190, "role": "director", "role_id": 938, "is_primary": true}, {"id": 766875, "title": "Just Passing Through", "work_id": 78332, "role": "director", "role_id": 938, "is_primary": true}, {"id": 2152037, "title": "It's Your Art", "work_id": 81022, "role": "co-producer", "role_id": 915, "is_primary": true}, {"id": 2209688, "title": "Poles apart", "work_id": 92190, "role": "co-producer", "role_id": 915, "is_primary": true}, {"id": 1428132, "title": "Message from Moree (A) [Widescreen]", "work_id": 94558, "role": "co-producer", "role_id": 915, "is_primary": true}, {"id": 865785, "title": "About Supertext Subtitles (Captioned)", "work_id": 80563, "role": "director", "role_id": 938, "is_primary": true}, {"id": 1804519, "title": "Work it out", "work_id": 78693, "role": "producer", "role_id": 1089, "is_primary": true}], "also_known_as": "", "date_of_birth": "", "date_of_death": "", "genders": [], "languages": [], "places_of_operation": [], "biography": "", "biography_author": null, "date_of_biography": "2023-05-09T15:42:47.556554+10:00", "external_links": [], "uuid": "0ea44eeb-bb85-47b9-be74-17a628b39dc6", "source": {"name": "Vernon", "slug": "vernon"}, "source_identifier": "22821", "external_references": [{"id": 51958, "source": {"name": "Wikidata", "slug": "wikidata"}, "source_identifier": "Q121357699"}], "date_modified": "2023-09-05T21:54:15.225666+10:00"}, {"id": 21229, "name": "Melanie Read", "roles_in_work": [{"id": 2467580, "title": "The Minders", "work_id": 78331, "role": "director", "role_id": 938, "is_primary": true}, {"id": 810865, "title": "Trial run", "work_id": 92295, "role": "director", "role_id": 938, "is_primary": true}], "also_known_as": "", "date_of_birth": "", "date_of_death": "", "genders": [], "languages": [], "places_of_operation": [], "biography": "", "biography_author": null, "date_of_biography": "2023-08-14T11:23:13.704272+10:00", "external_links": [], "uuid": "4f27df22-04e0-494b-9fb2-dbd093ff925a", "source": {"name": "Vernon", "slug": "vernon"}, "source_identifier": "24924", "external_references": [], "date_modified": "2023-08-14T11:23:13.704573+10:00"}, {"id": 21228, "name": "Australian Health Commission Production Co", "roles_in_work": [{"id": 2405983, "title": "Dementia: A Community Challenge", "work_id": 78330, "role": "production company", "role_id": 941, "is_primary": true}], "also_known_as": "", "date_of_birth": "", "date_of_death": "", "genders": [], "languages": [], "places_of_operation": [], "biography": "", "biography_author": null, "date_of_biography": "2023-08-11T16:03:55.631423+10:00", "external_links": [], "uuid": "3d90d128-2989-4266-a5f9-42f96edaa3b4", "source": {"name": "Vernon", "slug": "vernon"}, "source_identifier": "5590", "external_references": [], "date_modified": "2023-08-11T16:03:55.631688+10:00"}, {"id": 21223, "name": "John Nicoll", "roles_in_work": [{"id": 898293, "title": "Towards a discourse on the phenomenology of the amateur cinema", "work_id": 78326, "role": "director", "role_id": 938, "is_primary": true}, {"id": 2648224, "title": "Game to Play", "work_id": 78594, "role": "director", "role_id": 938, "is_primary": true}, {"id": 767875, "title": "Old ground new ground school ground", "work_id": 78715, "role": "director", "role_id": 938, "is_primary": true}, {"id": 898291, "title": "Towards a discourse on the phenomenology of the amateur cinema", "work_id": 78326, "role": "co-producer", "role_id": 915, "is_primary": true}], "also_known_as": "", "date_of_birth": null, "date_of_death": null, "genders": [], "languages": [], "places_of_operation": [], "biography": "", "biography_author": null, "date_of_biography": null, "external_links": [], "uuid": "0aad7f75-b884-4bbe-a53d-cdc9b6fdbb4a", "source": {"name": "Vernon", "slug": "vernon"}, "source_identifier": "22441", "external_references": [], "date_modified": "2025-03-05T13:41:11.918693+11:00"}, {"id": 21222, "name": "Blackout Productions", "roles_in_work": [{"id": 2076426, "title": "A Telephone call for Genevieve Snow", "work_id": 92938, "role": "production company", "role_id": 941, "is_primary": true}, {"id": 898290, "title": "Towards a discourse on the phenomenology of the amateur cinema", "work_id": 78326, "role": "production company", "role_id": 941, "is_primary": true}, {"id": 2320631, "title": "Swimming in the backyard", "work_id": 92936, "role": "production company", "role_id": 941, "is_primary": true}], "also_known_as": "", "date_of_birth": "", "date_of_death": "", "genders": [], "languages": [], "places_of_operation": [], "biography": "", "biography_author": null, "date_of_biography": "2023-05-09T19:11:23.257843+10:00", "external_links": [], "uuid": "dba816d5-c36d-42a9-a43e-41a1667127b6", "source": {"name": "Vernon", "slug": "vernon"}, "source_identifier": "5890", "external_references": [{"id": 35723, "source": {"name": "Wikidata", "slug": "wikidata"}, "source_identifier": "Q121079390"}], "date_modified": "2023-09-05T18:06:23.579004+10:00"}]}