{"count": 28682, "next": "https://api.acmi.net.au/creators/?page=1047", "previous": "https://api.acmi.net.au/creators/?page=1045", "results": [{"id": 75118, "name": "Glen Salzman", "roles_in_work": [{"id": 2645810, "title": "Nikkolina", "work_id": 70904, "role": "co-producers/directors", "role_id": 628, "is_primary": true}, {"id": 2750837, "title": "Another kind of music", "work_id": 97532, "role": "co-producers/directors", "role_id": 628, "is_primary": true}, {"id": 918958, "title": "Home free", "work_id": 97754, "role": "co-producers/directors", "role_id": 628, "is_primary": true}], "also_known_as": "", "date_of_birth": "", "date_of_death": "", "genders": [{"id": 9, "name": "Male", "slug": "male"}], "languages": [], "places_of_operation": [], "biography": "", "biography_author": null, "date_of_biography": "2023-05-09T14:10:38.770500+10:00", "external_links": [], "uuid": "36542c21-4c40-4d0a-a5b8-f1f6817756ac", "source": {"name": "Vernon", "slug": "vernon"}, "source_identifier": "19890", "external_references": [{"id": 33265, "source": {"name": "Wikidata", "slug": "wikidata"}, "source_identifier": "Q61937459"}, {"id": 54563, "source": {"name": "VIAF", "slug": "viaf"}, "source_identifier": "50487879"}, {"id": 54564, "source": {"name": "LOC Auth", "slug": "loc-auth"}, "source_identifier": "n78073853"}, {"id": 54565, "source": {"name": "WorldCat", "slug": "worldcat"}, "source_identifier": "lccn-n78073853"}], "date_modified": "2025-03-13T00:31:20.988428+11:00"}, {"id": 75117, "name": "Alain Tanner", "roles_in_work": [{"id": 2645807, "title": "Nice time", "work_id": 70896, "role": "co-director", "role_id": 959, "is_primary": true}], "also_known_as": "", "date_of_birth": "1929-12-06", "date_of_death": "2022-09-11", "genders": [{"id": 9, "name": "Male", "slug": "male"}], "languages": [{"id": 4, "name": "French", "slug": "french"}, {"id": 5, "name": "German", "slug": "german"}], "places_of_operation": [{"id": 26, "name": "Switzerland", "slug": "switzerland"}], "biography": "Alain Tanner (6 December 1929 – 11 September 2022) was a Swiss film director.", "biography_author": "Wikidata", "date_of_biography": "2023-09-05T17:19:05.271117+10:00", "external_links": [{"id": 1572, "uri": "https://en.wikipedia.org/wiki/Alain_Tanner"}], "uuid": "a0cd646a-1951-4407-8007-d4b414988621", "source": {"name": "Vernon", "slug": "vernon"}, "source_identifier": "14724", "external_references": [{"id": 6891, "source": {"name": "Wikidata", "slug": "wikidata"}, "source_identifier": "Q688336"}, {"id": 6892, "source": {"name": "VIAF", "slug": "viaf"}, "source_identifier": "79171689"}, {"id": 6893, "source": {"name": "LOC Auth", "slug": "loc-auth"}, "source_identifier": "n82145412"}, {"id": 6894, "source": {"name": "WorldCat", "slug": "worldcat"}, "source_identifier": "lccn-n82145412"}], "date_modified": "2025-03-05T12:50:10.079193+11:00"}, {"id": 75116, "name": "Alister Hallum", "roles_in_work": [{"id": 2464249, "title": "News from nowhere", "work_id": 70887, "role": "producer/director", "role_id": 31, "is_primary": true}], "also_known_as": "", "date_of_birth": "", "date_of_death": "", "genders": [], "languages": [], "places_of_operation": [], "biography": "", "biography_author": null, "date_of_biography": "2023-08-14T10:07:20.664937+10:00", "external_links": [], "uuid": "ba47dcc4-2a56-46a7-a460-db8f9614f084", "source": {"name": "Vernon", "slug": "vernon"}, "source_identifier": "14991", "external_references": [{"id": 52124, "source": {"name": "Wikidata", "slug": "wikidata"}, "source_identifier": "Q121360708"}], "date_modified": "2023-09-05T17:28:59.955298+10:00"}, {"id": 75115, "name": "Zale Magder", "roles_in_work": [{"id": 2645804, "title": "The Newfoundlanders: voices from the sea", "work_id": 70885, "role": "director", "role_id": 938, "is_primary": true}], "also_known_as": "", "date_of_birth": null, "date_of_death": null, "genders": [], "languages": [], "places_of_operation": [], "biography": "", "biography_author": null, "date_of_biography": null, "external_links": [], "uuid": "c50a7b63-4cda-4d51-a047-972bca97daa4", "source": {"name": "Vernon", "slug": "vernon"}, "source_identifier": "30658", "external_references": [{"id": 32334, "source": {"name": "Wikidata", "slug": "wikidata"}, "source_identifier": "Q121143752"}], "date_modified": "2025-03-05T12:50:08.029624+11:00"}, {"id": 75114, "name": "Magder Film Productions", "roles_in_work": [{"id": 2645803, "title": "The Newfoundlanders: voices from the sea", "work_id": 70885, "role": "production company", "role_id": 941, "is_primary": true}], "also_known_as": "", "date_of_birth": null, "date_of_death": null, "genders": [], "languages": [], "places_of_operation": [], "biography": "", "biography_author": null, "date_of_biography": null, "external_links": [], "uuid": "49573c6e-5e48-4e68-9831-edc6af23c219", "source": {"name": "Vernon", "slug": "vernon"}, "source_identifier": "10241", "external_references": [{"id": 36435, "source": {"name": "Wikidata", "slug": "wikidata"}, "source_identifier": "Q121337323"}], "date_modified": "2025-03-05T12:50:07.441377+11:00"}, {"id": 75113, "name": "Richard Nielsen", "roles_in_work": [{"id": 2173218, "title": "Karen Kain: ballerina", "work_id": 75095, "role": "co-producer", "role_id": 915, "is_primary": true}, {"id": 895237, "title": "The Newcomers: inhabiting a new land", "work_id": 70883, "role": "co-producer", "role_id": 915, "is_primary": true}], "also_known_as": "", "date_of_birth": "", "date_of_death": "", "genders": [], "languages": [], "places_of_operation": [], "biography": "", "biography_author": null, "date_of_biography": "2023-05-09T14:40:00.327656+10:00", "external_links": [], "uuid": "31074193-c46f-4d98-be52-563560a3df86", "source": {"name": "Vernon", "slug": "vernon"}, "source_identifier": "27473", "external_references": [{"id": 51574, "source": {"name": "Wikidata", "slug": "wikidata"}, "source_identifier": "Q121357564"}], "date_modified": "2023-09-06T00:31:42.755038+10:00"}, {"id": 75112, "name": "Cedric Herbert", "roles_in_work": [{"id": 2272689, "title": "Weekly review: new settlers", "work_id": 70862, "role": "co-director", "role_id": 959, "is_primary": true}], "also_known_as": "", "date_of_birth": "", "date_of_death": "", "genders": [], "languages": [], "places_of_operation": [], "biography": "", "biography_author": null, "date_of_biography": "2023-05-09T17:47:37.240793+10:00", "external_links": [], "uuid": "e40ead59-d03a-4591-89b3-74803fff5507", "source": {"name": "Vernon", "slug": "vernon"}, "source_identifier": "16630", "external_references": [{"id": 34403, "source": {"name": "Wikidata", "slug": "wikidata"}, "source_identifier": "Q121091477"}], "date_modified": "2023-09-05T18:23:50.043371+10:00"}, {"id": 75111, "name": "Susan Gabori", "roles_in_work": [{"id": 895230, "title": "New romance", "work_id": 70861, "role": "co-director", "role_id": 959, "is_primary": true}], "also_known_as": "", "date_of_birth": null, "date_of_death": null, "genders": [], "languages": [], "places_of_operation": [], "biography": "", "biography_author": null, "date_of_biography": null, "external_links": [], "uuid": "15dfa699-92c1-4371-8c49-8e3f3a05994d", "source": {"name": "Vernon", "slug": "vernon"}, "source_identifier": null, "external_references": [{"id": 43059, "source": {"name": "Wikidata", "slug": "wikidata"}, "source_identifier": "Q121126256"}], "date_modified": "2023-09-06T01:36:40.209029+10:00"}, {"id": 75110, "name": "Janet Walczewski", "roles_in_work": [{"id": 895229, "title": "New romance", "work_id": 70861, "role": "co-director", "role_id": 959, "is_primary": true}], "also_known_as": "", "date_of_birth": null, "date_of_death": null, "genders": [], "languages": [], "places_of_operation": [], "biography": "", "biography_author": null, "date_of_biography": null, "external_links": [], "uuid": "b018491d-1c84-4c31-97a9-1d461a0d5553", "source": {"name": "Vernon", "slug": "vernon"}, "source_identifier": null, "external_references": [{"id": 43234, "source": {"name": "Wikidata", "slug": "wikidata"}, "source_identifier": "Q121223234"}], "date_modified": "2023-09-05T21:08:47.393349+10:00"}, {"id": 75109, "name": "Jean Lenauer", "roles_in_work": [{"id": 855937, "title": "New hearts for old", "work_id": 70844, "role": "director", "role_id": 938, "is_primary": true}], "also_known_as": "", "date_of_birth": null, "date_of_death": null, "genders": [], "languages": [], "places_of_operation": [], "biography": "", "biography_author": null, "date_of_biography": null, "external_links": [], "uuid": "752af03b-52e6-4001-afb6-69f1e2e20483", "source": {"name": "Vernon", "slug": "vernon"}, "source_identifier": null, "external_references": [{"id": 32318, "source": {"name": "Wikidata", "slug": "wikidata"}, "source_identifier": "Q121035640"}], "date_modified": "2023-09-05T21:16:16.084033+10:00"}]}