{"count": 28687, "next": "https://api.acmi.net.au/creators/?page=1958", "previous": "https://api.acmi.net.au/creators/?page=1956", "results": [{"id": 23401, "name": "Boris Morros", "roles_in_work": [{"id": 2265370, "title": "Second chorus", "work_id": 81181, "role": "producer", "role_id": 1089, "is_primary": true}], "also_known_as": "", "date_of_birth": "1891-01-01", "date_of_death": "1963-01-08", "genders": [{"id": 9, "name": "Male", "slug": "male"}], "languages": [], "places_of_operation": [{"id": 1, "name": "United States of America", "slug": "united-states-of-america"}], "biography": "Boris Morros (Boris Mikhailovich Morroz; January 1, 1891 - January 8, 1963) was an American Communist Party member, Soviet agent, and FBI double agent. He also worked at Paramount Pictures, where he produced films as well as supervising their music department.", "biography_author": "Wikidata", "date_of_biography": "2022-05-19T10:58:29.404043+10:00", "external_links": [{"id": 1742, "uri": "https://en.wikipedia.org/wiki/Boris_Morros"}], "uuid": "04c09a13-99f7-4dfa-b7cb-e32a4c3d3610", "source": {"name": "Vernon", "slug": "vernon"}, "source_identifier": "16140", "external_references": [{"id": 7599, "source": {"name": "Wikidata", "slug": "wikidata"}, "source_identifier": "Q893733"}, {"id": 7600, "source": {"name": "VIAF", "slug": "viaf"}, "source_identifier": "53153798"}, {"id": 7601, "source": {"name": "LOC Auth", "slug": "loc-auth"}, "source_identifier": "n85376520"}, {"id": 7602, "source": {"name": "WorldCat", "slug": "worldcat"}, "source_identifier": "lccn-n85376520"}], "date_modified": "2023-09-13T12:28:31.653481+10:00"}, {"id": 23400, "name": "Jack Cummings", "roles_in_work": [{"id": 2291191, "title": "Seven brides for seven brothers", "work_id": 81180, "role": "producer", "role_id": 1089, "is_primary": true}, {"id": 1985623, "title": "Go West", "work_id": 81358, "role": "producer", "role_id": 1089, "is_primary": true}, {"id": 1987394, "title": "Broadway melody of 1938", "work_id": 83537, "role": "producer", "role_id": 1089, "is_primary": true}, {"id": 1978869, "title": "Bathing beauty", "work_id": 95603, "role": "producer", "role_id": 1089, "is_primary": true}, {"id": 1992944, "title": "Three little words", "work_id": 88485, "role": "producer", "role_id": 1089, "is_primary": true}, {"id": 1991897, "title": "The Last time I saw Paris", "work_id": 87614, "role": "producer", "role_id": 1089, "is_primary": true}, {"id": 2294579, "title": "Viva Las Vegas = Love in Las Vegas", "work_id": 88433, "role": "producer", "role_id": 1089, "is_primary": true}, {"id": 1999681, "title": "The Last time I saw Paris", "work_id": 94653, "role": "producer", "role_id": 1089, "is_primary": true}, {"id": 2129083, "title": "Can-can", "work_id": 84608, "role": "producer", "role_id": 1089, "is_primary": true}, {"id": 2291207, "title": "Seven brides for seven brothers (Captioned)", "work_id": 83007, "role": "producer", "role_id": 1089, "is_primary": true}, {"id": 1985512, "title": "Kiss me Kate", "work_id": 81301, "role": "producer", "role_id": 1089, "is_primary": true}], "also_known_as": "", "date_of_birth": "1900-02-16", "date_of_death": "1989-04-28", "genders": [{"id": 9, "name": "Male", "slug": "male"}], "languages": [], "places_of_operation": [{"id": 1, "name": "United States of America", "slug": "united-states-of-america"}], "biography": "John Cummings (February 16, 1905 – April 28, 1989) was an American film producer and director. He was best known for being a leading producer at MGM. He was the second husband of Betty Kern, daughter of Jerome Kern.\nCummings spent most of his career at his uncle Louis B. Mayer's studio, Metro-Goldwyn-Mayer, where he began work in the 1920s. Mayer started his nephew out as an office boy and expected him to work his way up through the ranks.\nCummings became a staff producer at MGM in 1934, where he worked in the B-feature unit for two years. In 1936, he produced the extravagant Cole Porter musical Born to Dance, which established his reputation as a respected producer. Cummings remained at MGM even after his uncle was fired from the studio in 1951, working with talent such as the Marx Brothers, Red Skelton, Esther Williams, and Fred Astaire and producing some of the era's best-known musicals, including 1953's Kiss Me Kate and Seven Brides for Seven Brothers in 1954, for which he received an Academy Award nomination. He left MGM to become an independent producer affiliated with Twentieth Century-Fox and produced the 1959 remake of The Blue Angel and the 1960 movie version of the Abe Burrows-Cole Porter Broadway musical Can-Can. In 1964, he returned to MGM one last time to produce the Elvis Presley musical Viva Las Vegas. Other credits included Easy to Wed, It Happened in Brooklyn, Three Little Words, The Last Time I Saw Paris, Interrupted Melody, and The Teahouse of the August Moon.", "biography_author": "Wikidata", "date_of_biography": "2022-05-19T11:49:35.314783+10:00", "external_links": [{"id": 2280, "uri": "https://en.wikipedia.org/wiki/Jack_Cummings_(director)"}], "uuid": "81e5e669-d4ed-4b0e-92f8-9d4a942119ca", "source": {"name": "Vernon", "slug": "vernon"}, "source_identifier": "21032", "external_references": [{"id": 9793, "source": {"name": "Wikidata", "slug": "wikidata"}, "source_identifier": "Q952590"}, {"id": 9794, "source": {"name": "VIAF", "slug": "viaf"}, "source_identifier": "18685306"}, {"id": 9795, "source": {"name": "LOC Auth", "slug": "loc-auth"}, "source_identifier": "n85376782"}, {"id": 9796, "source": {"name": "WorldCat", "slug": "worldcat"}, "source_identifier": "lccn-n85376782"}], "date_modified": "2023-09-13T12:30:09.105442+10:00"}, {"id": 23399, "name": "Joshua Logan", "roles_in_work": [{"id": 2205492, "title": "Picnic", "work_id": 83499, "role": "director", "role_id": 938, "is_primary": true}, {"id": 2128976, "title": "Camelot", "work_id": 84775, "role": "director", "role_id": 938, "is_primary": true}, {"id": 2185346, "title": "Paint your wagon", "work_id": 85074, "role": "director", "role_id": 938, "is_primary": true}, {"id": 2305801, "title": "South Pacific (Captioned)", "work_id": 84229, "role": "director", "role_id": 938, "is_primary": true}, {"id": 1985730, "title": "Bus Stop", "work_id": 81420, "role": "director", "role_id": 938, "is_primary": true}, {"id": 2305782, "title": "South Pacific", "work_id": 81177, "role": "director", "role_id": 938, "is_primary": true}], "also_known_as": "", "date_of_birth": "1908-10-05", "date_of_death": "1988-07-12", "genders": [{"id": 9, "name": "Male", "slug": "male"}], "languages": [{"id": 1, "name": "English", "slug": "english"}], "places_of_operation": [{"id": 1, "name": "United States of America", "slug": "united-states-of-america"}], "biography": "Joshua Lockwood Logan III (October 5, 1908 – July 12, 1988) was an American director, writer, and actor. He shared a Pulitzer Prize for co-writing the musical South Pacific and was involved in writing other musicals.", "biography_author": "Wikidata", "date_of_biography": "2022-05-19T12:06:56.372645+10:00", "external_links": [{"id": 2481, "uri": "https://en.wikipedia.org/wiki/Joshua_Logan"}], "uuid": "d7209334-ce1d-4ad7-8629-d266b47d0d7f", "source": {"name": "Vernon", "slug": "vernon"}, "source_identifier": "22765", "external_references": [{"id": 10610, "source": {"name": "Wikidata", "slug": "wikidata"}, "source_identifier": "Q505141"}, {"id": 10611, "source": {"name": "VIAF", "slug": "viaf"}, "source_identifier": "5118199"}, {"id": 10612, "source": {"name": "LOC Auth", "slug": "loc-auth"}, "source_identifier": "n86861306"}, {"id": 10613, "source": {"name": "WorldCat", "slug": "worldcat"}, "source_identifier": "lccn-n86861306"}], "date_modified": "2023-09-13T12:30:43.986623+10:00"}, {"id": 23398, "name": "Buddy Adler", "roles_in_work": [{"id": 2305800, "title": "South Pacific (Captioned)", "work_id": 84229, "role": "producer", "role_id": 1089, "is_primary": true}, {"id": 1997535, "title": "Love is a many-splendored thing = Love is a many splendored thing [Widescreen]", "work_id": 93345, "role": "producer", "role_id": 1089, "is_primary": true}, {"id": 2095546, "title": "Anastasia", "work_id": 94746, "role": "producer", "role_id": 1089, "is_primary": true}, {"id": 2305781, "title": "South Pacific", "work_id": 81177, "role": "producer", "role_id": 1089, "is_primary": true}, {"id": 1985729, "title": "Bus Stop", "work_id": 81420, "role": "producer", "role_id": 1089, "is_primary": true}, {"id": 1985594, "title": "From here to eternity", "work_id": 81330, "role": "producer", "role_id": 1089, "is_primary": true}, {"id": 2356168, "title": "The Inn of the sixth happiness", "work_id": 94716, "role": "producer", "role_id": 1089, "is_primary": true}], "also_known_as": "", "date_of_birth": "1909-06-22", "date_of_death": "1960-07-12", "genders": [{"id": 9, "name": "Male", "slug": "male"}], "languages": [], "places_of_operation": [{"id": 1, "name": "United States of America", "slug": "united-states-of-america"}], "biography": "E. Maurice \"Buddy\" Adler (June 22, 1906 – July 12, 1960) was an American film producer and production head for 20th Century Fox studios.\nIn 1954, his production of From Here to Eternity won the Academy Award for Best Picture and in 1956, his Love Is a Many-Splendored Thing was nominated for best picture. Adler also produced the 1956 film Bus Stop, starring Marilyn Monroe.\n\n", "biography_author": "Wikidata", "date_of_biography": "2022-05-19T11:00:42.828369+10:00", "external_links": [{"id": 1767, "uri": "https://en.wikipedia.org/wiki/Buddy_Adler"}], "uuid": "3bc35dc7-c433-4220-ba6c-6e922b82a3db", "source": {"name": "Vernon", "slug": "vernon"}, "source_identifier": "16375", "external_references": [{"id": 7704, "source": {"name": "Wikidata", "slug": "wikidata"}, "source_identifier": "Q712874"}, {"id": 7705, "source": {"name": "VIAF", "slug": "viaf"}, "source_identifier": "40854115"}, {"id": 7706, "source": {"name": "LOC Auth", "slug": "loc-auth"}, "source_identifier": "n86041345"}, {"id": 7707, "source": {"name": "WorldCat", "slug": "worldcat"}, "source_identifier": "lccn-n86041345"}], "date_modified": "2023-09-13T12:28:35.946665+10:00"}, {"id": 23397, "name": "S P Enterprises", "roles_in_work": [{"id": 2305795, "title": "South Pacific (Captioned)", "work_id": 84229, "role": "production company", "role_id": 941, "is_primary": true}, {"id": 2305777, "title": "South Pacific", "work_id": 81177, "role": "production company", "role_id": 941, "is_primary": true}], "also_known_as": "", "date_of_birth": "", "date_of_death": "", "genders": [], "languages": [], "places_of_operation": [], "biography": "", "biography_author": null, "date_of_biography": "2023-05-09T18:44:42.690916+10:00", "external_links": [], "uuid": "3f03a619-1b9b-4be0-99d4-147f837e360b", "source": {"name": "Vernon", "slug": "vernon"}, "source_identifier": "12215", "external_references": [{"id": 40294, "source": {"name": "Wikidata", "slug": "wikidata"}, "source_identifier": "Q121126185"}], "date_modified": "2023-09-06T01:00:25.464956+10:00"}, {"id": 23396, "name": "Magna Corporation", "roles_in_work": [{"id": 2304911, "title": "Solaris [Widescreen]", "work_id": 82450, "role": "production company", "role_id": 941, "is_primary": true}, {"id": 2305792, "title": "South Pacific (Captioned)", "work_id": 84229, "role": "production company", "role_id": 941, "is_primary": true}, {"id": 2305773, "title": "South Pacific", "work_id": 81177, "role": "production company", "role_id": 941, "is_primary": true}, {"id": 2476420, "title": "Oklahoma!", "work_id": 81198, "role": "production company", "role_id": 941, "is_primary": true}], "also_known_as": "", "date_of_birth": "", "date_of_death": "", "genders": [], "languages": [], "places_of_operation": [], "biography": "", "biography_author": null, "date_of_biography": "2023-08-17T15:36:27.990100+10:00", "external_links": [], "uuid": "7a90fd15-254a-4cb1-be00-0fb1cd1e0fe6", "source": {"name": "Vernon", "slug": "vernon"}, "source_identifier": "10246", "external_references": [{"id": 35916, "source": {"name": "Wikidata", "slug": "wikidata"}, "source_identifier": "Q121035018"}], "date_modified": "2023-09-05T22:36:45.943413+10:00"}, {"id": 23393, "name": "Victor Heerman", "roles_in_work": [{"id": 2096596, "title": "Animal Crackers", "work_id": 81173, "role": "director", "role_id": 938, "is_primary": true}], "also_known_as": "", "date_of_birth": "1893-08-27", "date_of_death": "1977-11-03", "genders": [{"id": 9, "name": "Male", "slug": "male"}], "languages": [{"id": 1, "name": "English", "slug": "english"}], "places_of_operation": [{"id": 1, "name": "United States of America", "slug": "united-states-of-america"}], "biography": "Victor Heerman (August 27, 1893 – November 3, 1977) was an English-American film director, screenwriter, and film producer. After writing and directing short comedies for Mack Sennett, Heerman teamed with his wife Sarah Y. Mason to win the Academy Award for Best Adapted Screenplay of Louisa May Alcott's novel Little Women in 1933. He directed the Marx Brothers' second film, Animal Crackers, in 1930. He and Mason were the first screenwriters involved in early, never-produced scripts commissioned for what would become MGM's Pride and Prejudice (1940 film).", "biography_author": "Wikidata", "date_of_biography": "2022-05-19T13:19:04.377661+10:00", "external_links": [{"id": 3254, "uri": "https://en.wikipedia.org/wiki/Victor_Heerman"}], "uuid": "61f28616-a81e-4aad-801a-1486a024bf32", "source": {"name": "Vernon", "slug": "vernon"}, "source_identifier": "30100", "external_references": [{"id": 13771, "source": {"name": "Wikidata", "slug": "wikidata"}, "source_identifier": "Q1499405"}, {"id": 13772, "source": {"name": "VIAF", "slug": "viaf"}, "source_identifier": "14972317"}, {"id": 13773, "source": {"name": "LOC Auth", "slug": "loc-auth"}, "source_identifier": "n86138587"}, {"id": 13774, "source": {"name": "WorldCat", "slug": "worldcat"}, "source_identifier": "lccn-n86138587"}], "date_modified": "2023-09-13T12:33:10.196735+10:00"}, {"id": 23392, "name": "Ian Macnaughton", "roles_in_work": [{"id": 2649237, "title": "And now for something completely different", "work_id": 81172, "role": "director", "role_id": 938, "is_primary": true}], "also_known_as": "", "date_of_birth": "1925-12-30", "date_of_death": "2002-12-10", "genders": [{"id": 9, "name": "Male", "slug": "male"}], "languages": [{"id": 1, "name": "English", "slug": "english"}], "places_of_operation": [{"id": 10, "name": "United Kingdom", "slug": "united-kingdom"}], "biography": "Edward Ian MacNaughton (30 December 1925 – 10 December 2002) was a Scottish actor-turned-television producer and director, best known for his work with the Monty Python team. MacNaughton was director and producer for all but four of the forty five episodes of Monty Python's Flying Circus from 1969 to 1974, director of the group's first feature film And Now for Something Completely Different in 1971 and director of their two German episodes, Monty Python's Fliegender Zirkus in 1971 and 1972. In 1973 the production team shared the BAFTA Award for Best Light Entertainment Programme for Monty Python's Flying Circus.", "biography_author": "Wikidata", "date_of_biography": "2022-05-19T11:47:12.932942+10:00", "external_links": [{"id": 2254, "uri": "https://en.wikipedia.org/wiki/Ian_MacNaughton"}], "uuid": "b1c4cd1d-300d-4789-90cd-f6df9f07845b", "source": {"name": "Vernon", "slug": "vernon"}, "source_identifier": "20771", "external_references": [{"id": 9677, "source": {"name": "Wikidata", "slug": "wikidata"}, "source_identifier": "Q710041"}, {"id": 9678, "source": {"name": "VIAF", "slug": "viaf"}, "source_identifier": "54354385"}, {"id": 9679, "source": {"name": "LOC Auth", "slug": "loc-auth"}, "source_identifier": "no2002106557"}, {"id": 9680, "source": {"name": "WorldCat", "slug": "worldcat"}, "source_identifier": "lccn-no2002106557"}], "date_modified": "2025-03-05T13:57:41.915387+11:00"}, {"id": 23391, "name": "Patricia Casey", "roles_in_work": [{"id": 2649236, "title": "And now for something completely different", "work_id": 81172, "role": "producer", "role_id": 1089, "is_primary": true}], "also_known_as": "", "date_of_birth": "1952-10-27", "date_of_death": null, "genders": [{"id": 5, "name": "Female", "slug": "female"}], "languages": [], "places_of_operation": [{"id": 294, "name": "Republic of Ireland", "slug": "republic-of-ireland"}], "biography": "Patricia Rosarie Casey is an Irish psychiatrist, academic, journalist and conservative commentator on social issues. She is Professor of Psychiatry at University College Dublin and consultant psychiatrist at the Mater Misericordiae University Hospital, Dublin. She is known for her regular column with the Irish Independent newspaper, and her conservative views on a variety of social issues.\n\n", "biography_author": "Wikidata", "date_of_biography": "2022-05-19T12:38:39.213355+10:00", "external_links": [{"id": 2818, "uri": "https://en.wikipedia.org/wiki/Patricia_Casey"}], "uuid": "1f264749-4070-4ddd-8502-9ef42473ef0a", "source": {"name": "Vernon", "slug": "vernon"}, "source_identifier": "26100", "external_references": [{"id": 12005, "source": {"name": "Wikidata", "slug": "wikidata"}, "source_identifier": "Q7145506"}, {"id": 12006, "source": {"name": "VIAF", "slug": "viaf"}, "source_identifier": "49222886"}, {"id": 12007, "source": {"name": "LOC Auth", "slug": "loc-auth"}, "source_identifier": "n91106763"}, {"id": 12008, "source": {"name": "WorldCat", "slug": "worldcat"}, "source_identifier": "lccn-n91106763"}, {"id": 50526, "source": {"name": "VIAF", "slug": "viaf"}, "source_identifier": "5030149235101376690003"}], "date_modified": "2025-03-05T13:57:41.310093+11:00"}, {"id": 23390, "name": "Python Productions", "roles_in_work": [{"id": 2649235, "title": "And now for something completely different", "work_id": 81172, "role": "production company", "role_id": 941, "is_primary": true}], "also_known_as": "", "date_of_birth": "", "date_of_death": "", "genders": [], "languages": [], "places_of_operation": [], "biography": "", "biography_author": null, "date_of_biography": "2023-05-09T12:23:12.960669+10:00", "external_links": [], "uuid": "2df73563-7e35-4636-9aa5-739dbd51e58d", "source": {"name": "Vernon", "slug": "vernon"}, "source_identifier": "11749", "external_references": [], "date_modified": "2025-03-05T13:57:40.714577+11:00"}]}