{"count": 28687, "next": "https://api.acmi.net.au/creators/?page=1533", "previous": "https://api.acmi.net.au/creators/?page=1531", "results": [{"id": 32846, "name": "Majid Majidi", "roles_in_work": [{"id": 2136582, "title": "Children of heaven [NTSC]", "work_id": 93185, "role": "director", "role_id": 938, "is_primary": true}, {"id": 2340605, "title": "The Color of paradise = The Colour of paradise", "work_id": 91322, "role": "director", "role_id": 938, "is_primary": true}], "also_known_as": "", "date_of_birth": "1959-04-17", "date_of_death": "", "genders": [{"id": 9, "name": "Male", "slug": "male"}], "languages": [], "places_of_operation": [{"id": 258, "name": "Iran", "slug": "iran"}], "biography": "Majid Majidi (Persian: مجید مجیدی, Persian pronunciation: [mæˌdʒiːde, mædʒiːˈdi]) is an Iranian film director, producer, and screenwriter, who started his film career as an actor. In his films, Majidi has touched on many themes and genres and has won numerous international awards.", "biography_author": "Wikidata", "date_of_biography": "2023-08-01T16:01:49.716527+10:00", "external_links": [{"id": 4593, "uri": "https://en.wikipedia.org/wiki/Majid_Majidi"}], "uuid": "9ddf68f2-c861-40a6-985d-ea3d94d63d7d", "source": {"name": "Vernon", "slug": "vernon"}, "source_identifier": "24202", "external_references": [{"id": 26222, "source": {"name": "Wikidata", "slug": "wikidata"}, "source_identifier": "Q81770"}, {"id": 30062, "source": {"name": "VIAF", "slug": "viaf"}, "source_identifier": "103336991"}, {"id": 30063, "source": {"name": "LOC Auth", "slug": "loc-auth"}, "source_identifier": "no2002003858"}, {"id": 30064, "source": {"name": "WorldCat", "slug": "worldcat"}, "source_identifier": "lccn-no2002003858"}], "date_modified": "2023-08-15T11:44:50.390803+10:00"}, {"id": 32845, "name": "Mehdi Karimi", "roles_in_work": [{"id": 2340602, "title": "The Color of paradise = The Colour of paradise", "work_id": 91322, "role": "producer", "role_id": 1089, "is_primary": true}], "also_known_as": "", "date_of_birth": "", "date_of_death": "", "genders": [], "languages": [], "places_of_operation": [], "biography": "", "biography_author": null, "date_of_biography": "2023-05-09T19:39:00.305228+10:00", "external_links": [], "uuid": "570861bf-0815-45db-9189-725e6618477c", "source": {"name": "Vernon", "slug": "vernon"}, "source_identifier": "24905", "external_references": [{"id": 38015, "source": {"name": "Wikidata", "slug": "wikidata"}, "source_identifier": "Q121315621"}], "date_modified": "2023-09-05T22:59:19.484544+10:00"}, {"id": 32844, "name": "Varahonar Film Company", "roles_in_work": [{"id": 2340598, "title": "The Color of paradise = The Colour of paradise", "work_id": 91322, "role": "production company", "role_id": 941, "is_primary": true}], "also_known_as": "", "date_of_birth": "", "date_of_death": "", "genders": [], "languages": [], "places_of_operation": [], "biography": "", "biography_author": null, "date_of_biography": "2023-05-09T19:39:00.050231+10:00", "external_links": [], "uuid": "9dc518e2-4567-4987-a579-8153f923648d", "source": {"name": "Vernon", "slug": "vernon"}, "source_identifier": "13994", "external_references": [{"id": 38768, "source": {"name": "Wikidata", "slug": "wikidata"}, "source_identifier": "Q121091081"}], "date_modified": "2023-09-06T02:03:20.916868+10:00"}, {"id": 32843, "name": "Simon Shaw", "roles_in_work": [{"id": 2326072, "title": "The 1940's house. Volume 1. Episodes 1-3", "work_id": 91317, "role": "producer", "role_id": 1089, "is_primary": true}, {"id": 2326087, "title": "The 1940's house. Volume 2: episodes 4-5", "work_id": 91495, "role": "producer", "role_id": 1089, "is_primary": true}], "also_known_as": "", "date_of_birth": "", "date_of_death": "", "genders": [], "languages": [], "places_of_operation": [], "biography": "", "biography_author": null, "date_of_biography": "2023-05-09T19:19:17.039801+10:00", "external_links": [], "uuid": "99fb6f80-6915-49df-ad14-2010313017b7", "source": {"name": "Vernon", "slug": "vernon"}, "source_identifier": "28857", "external_references": [{"id": 37394, "source": {"name": "Wikidata", "slug": "wikidata"}, "source_identifier": "Q121337063"}], "date_modified": "2023-09-06T01:20:35.690479+10:00"}, {"id": 32842, "name": "Nancy Button", "roles_in_work": [{"id": 2087483, "title": "America in the 50's", "work_id": 91316, "role": "producer", "role_id": 1089, "is_primary": true}], "also_known_as": "", "date_of_birth": "", "date_of_death": "", "genders": [], "languages": [], "places_of_operation": [], "biography": "", "biography_author": null, "date_of_biography": "2023-05-09T11:59:06.107914+10:00", "external_links": [], "uuid": "389c67fe-476a-4041-b09c-9aba4f20a9d1", "source": {"name": "Vernon", "slug": "vernon"}, "source_identifier": "25600", "external_references": [], "date_modified": "2023-06-14T16:33:30.576250+10:00"}, {"id": 32841, "name": "The Fifties Inc", "roles_in_work": [{"id": 2087478, "title": "America in the 50's", "work_id": 91316, "role": "production company", "role_id": 941, "is_primary": true}], "also_known_as": "", "date_of_birth": "", "date_of_death": "", "genders": [], "languages": [], "places_of_operation": [], "biography": "", "biography_author": null, "date_of_biography": "2023-05-09T11:59:05.878432+10:00", "external_links": [], "uuid": "b3739082-e09e-4be9-ae78-14ca3279d187", "source": {"name": "Vernon", "slug": "vernon"}, "source_identifier": "13383", "external_references": [], "date_modified": "2023-06-14T16:33:30.576250+10:00"}, {"id": 32835, "name": "Sarah Radclyffe Productions", "roles_in_work": [{"id": 2476537, "title": "The War zone (E)", "work_id": 91312, "role": "production company", "role_id": 941, "is_primary": true}], "also_known_as": "", "date_of_birth": "", "date_of_death": "", "genders": [], "languages": [], "places_of_operation": [], "biography": "", "biography_author": null, "date_of_biography": "2023-08-17T15:37:58.119863+10:00", "external_links": [], "uuid": "b0073708-a3c1-43dc-93ec-d7ed0071f9f9", "source": {"name": "Vernon", "slug": "vernon"}, "source_identifier": "12294", "external_references": [], "date_modified": "2023-08-17T15:37:58.120152+10:00"}, {"id": 32833, "name": "Russ Meyer", "roles_in_work": [{"id": 2534578, "title": "Faster pussycat kill, kill. Mondo topless", "work_id": 91311, "role": "director", "role_id": 938, "is_primary": true}, {"id": 1996736, "title": "Beyond the valley of the dolls", "work_id": 92811, "role": "director", "role_id": 938, "is_primary": true}, {"id": 2534576, "title": "Faster pussycat kill, kill. Mondo topless", "work_id": 91311, "role": "co-producer", "role_id": 915, "is_primary": true}], "also_known_as": "Russell Albion Meyer", "date_of_birth": "21 MAR 1922", "date_of_death": "18 SEP 2004", "genders": [{"id": 9, "name": "Male", "slug": "male"}], "languages": [{"id": 1, "name": "English", "slug": "english"}], "places_of_operation": [{"id": 1, "name": "United States of America", "slug": "united-states-of-america"}], "biography": "Russell Albion Meyer (March 21, 1922 – September 18, 2004) was an American film director, producer, screenwriter, cinematographer, and editor. He is known primarily for writing and directing a series of successful sexploitation films that featured campy humor, sly satire and large-breasted women, such as Faster, Pussycat! Kill! Kill!. Meyer often named Beyond the Valley of the Dolls (1970) as his definitive work. Source: Wikidata; 01/08/2023", "biography_author": null, "date_of_biography": "2024-09-18T03:35:13.968935+10:00", "external_links": [{"id": 5092, "uri": "https://en.wikipedia.org/wiki/Russ_Meyer"}], "uuid": "2ee3d41f-ee2b-4fab-9df6-4c96ed4281c5", "source": {"name": "Vernon", "slug": "vernon"}, "source_identifier": "28348", "external_references": [{"id": 25571, "source": {"name": "Wikidata", "slug": "wikidata"}, "source_identifier": "Q315325"}, {"id": 31346, "source": {"name": "VIAF", "slug": "viaf"}, "source_identifier": "44485844"}, {"id": 31347, "source": {"name": "LOC Auth", "slug": "loc-auth"}, "source_identifier": "n82238474"}, {"id": 31348, "source": {"name": "WorldCat", "slug": "worldcat"}, "source_identifier": "lccn-n82238474"}], "date_modified": "2024-09-18T03:35:13.969285+10:00"}, {"id": 32832, "name": "Eve Productions", "roles_in_work": [{"id": 2534575, "title": "Faster pussycat kill, kill. Mondo topless", "work_id": 91311, "role": "production company", "role_id": 941, "is_primary": true}], "also_known_as": "", "date_of_birth": "", "date_of_death": "", "genders": [], "languages": [], "places_of_operation": [], "biography": "", "biography_author": null, "date_of_biography": "2023-05-09T16:29:50.153343+10:00", "external_links": [], "uuid": "672e7280-93b1-42f5-bd0a-5e5d00f99f5f", "source": {"name": "Vernon", "slug": "vernon"}, "source_identifier": "8009", "external_references": [{"id": 36027, "source": {"name": "Wikidata", "slug": "wikidata"}, "source_identifier": "Q121143642"}], "date_modified": "2024-09-18T03:35:12.048842+10:00"}, {"id": 32831, "name": "King Squire Films", "roles_in_work": [{"id": 2179434, "title": "Our church - portrait of a parish", "work_id": 91308, "role": "production company", "role_id": 941, "is_primary": true}], "also_known_as": "", "date_of_birth": "", "date_of_death": "", "genders": [], "languages": [], "places_of_operation": [], "biography": "", "biography_author": null, "date_of_biography": "2023-05-09T14:50:23.245094+10:00", "external_links": [], "uuid": "2a83bc0a-fbb2-4c2d-9d9a-162cb0b689e8", "source": {"name": "Vernon", "slug": "vernon"}, "source_identifier": "9772", "external_references": [{"id": 40765, "source": {"name": "Wikidata", "slug": "wikidata"}, "source_identifier": "Q121126023"}], "date_modified": "2023-09-05T22:09:30.117692+10:00"}]}