{"count": 28687, "next": "https://api.acmi.net.au/creators/?page=2156", "previous": "https://api.acmi.net.au/creators/?page=2154", "results": [{"id": 19495, "name": "Reid Ray Films", "roles_in_work": [{"id": 2406225, "title": "Discover America", "work_id": 76056, "role": "production company", "role_id": 941, "is_primary": true}], "also_known_as": "", "date_of_birth": "", "date_of_death": "", "genders": [], "languages": [], "places_of_operation": [], "biography": "", "biography_author": null, "date_of_biography": "2023-08-11T16:08:55.231023+10:00", "external_links": [], "uuid": "dbd05e16-f166-432c-a005-5c3f339ab669", "source": {"name": "Vernon", "slug": "vernon"}, "source_identifier": "11940", "external_references": [], "date_modified": "2023-08-11T16:08:55.231241+10:00"}, {"id": 19491, "name": "Tony Paice", "roles_in_work": [{"id": 2754768, "title": "Kids making decisions", "work_id": 99351, "role": "director", "role_id": 938, "is_primary": true}, {"id": 2752639, "title": "Just a story", "work_id": 98390, "role": "co-producer", "role_id": 915, "is_primary": true}, {"id": 2374004, "title": "Projection Without Tears", "work_id": 76047, "role": "co-producer", "role_id": 915, "is_primary": true}, {"id": 2754778, "title": "Hidden costs", "work_id": 99356, "role": "co-producers/directors", "role_id": 628, "is_primary": true}, {"id": 2753956, "title": "Ride with care", "work_id": 98996, "role": "producer", "role_id": 1089, "is_primary": true}, {"id": 2753900, "title": "Carnivore capers", "work_id": 98972, "role": "producer", "role_id": 1089, "is_primary": true}, {"id": 2753838, "title": "Student participation", "work_id": 98950, "role": "producer", "role_id": 1089, "is_primary": true}, {"id": 1816469, "title": "Students in action", "work_id": 99005, "role": "producer", "role_id": 1089, "is_primary": true}, {"id": 1816468, "title": "Science talent search", "work_id": 98997, "role": "producer", "role_id": 1089, "is_primary": true}, {"id": 2754522, "title": "Clickers club: photo adventures in curriculum", "work_id": 99241, "role": "producer", "role_id": 1089, "is_primary": true}, {"id": 2754395, "title": "Getting started with Health Education", "work_id": 99186, "role": "producer", "role_id": 1089, "is_primary": true}, {"id": 2754125, "title": "Home entertainment last century", "work_id": 99065, "role": "producer", "role_id": 1089, "is_primary": true}, {"id": 2752610, "title": "Holidays pay", "work_id": 98377, "role": "producer/director", "role_id": 31, "is_primary": true}, {"id": 2754648, "title": "Zoo Dance", "work_id": 99293, "role": "producer/director", "role_id": 31, "is_primary": true}, {"id": 2752733, "title": "Plastic economy: banking and technology", "work_id": 98433, "role": "producer/director", "role_id": 31, "is_primary": true}, {"id": 2754270, "title": "Rachel; Just one of the kids", "work_id": 99128, "role": "producer/director", "role_id": 31, "is_primary": true}], "also_known_as": "", "date_of_birth": "", "date_of_death": "", "genders": [], "languages": [], "places_of_operation": [], "biography": "", "biography_author": null, "date_of_biography": "2023-07-05T03:48:14.888630+10:00", "external_links": [], "uuid": "11e904a7-a30c-4eca-b1bd-1bd24fe6ff02", "source": {"name": "Vernon", "slug": "vernon"}, "source_identifier": "29895", "external_references": [{"id": 37522, "source": {"name": "Wikidata", "slug": "wikidata"}, "source_identifier": "Q121315454"}], "date_modified": "2025-03-13T01:51:02.726638+11:00"}, {"id": 19487, "name": "Geoff Todd", "roles_in_work": [{"id": 2765894, "title": "Eat Art", "work_id": 76038, "role": "producer", "role_id": 1089, "is_primary": true}], "also_known_as": "", "date_of_birth": "", "date_of_death": "", "genders": [], "languages": [], "places_of_operation": [], "biography": "", "biography_author": null, "date_of_biography": "2023-08-11T16:17:01.555622+10:00", "external_links": [], "uuid": "7df92128-2c86-421a-a2d8-316c9714f8c5", "source": {"name": "Vernon", "slug": "vernon"}, "source_identifier": "19518", "external_references": [], "date_modified": "2025-03-14T17:55:21.074551+11:00"}, {"id": 19486, "name": "United States. Dept. of State", "roles_in_work": [{"id": 2767971, "title": "The History of United States foreign relations", "work_id": 115050, "role": "production company", "role_id": 941, "is_primary": true}, {"id": 2767959, "title": "Youth to maturity", "work_id": 76036, "role": "production company", "role_id": 941, "is_primary": true}], "also_known_as": "", "date_of_birth": "", "date_of_death": "", "genders": [], "languages": [], "places_of_operation": [], "biography": "", "biography_author": null, "date_of_biography": "2023-08-14T12:55:50.149470+10:00", "external_links": [], "uuid": "a804c407-7471-48d0-b9fa-54a9e3ba7c02", "source": {"name": "Vernon", "slug": "vernon"}, "source_identifier": "13879", "external_references": [], "date_modified": "2025-03-14T18:07:51.397419+11:00"}, {"id": 19485, "name": "Anna Jackson", "roles_in_work": [{"id": 2757071, "title": "Loading the Dice(TEFC)", "work_id": 78524, "role": "co-producer", "role_id": 915, "is_primary": true}, {"id": 1804373, "title": "So You Want to Stop Smoking", "work_id": 80792, "role": "producer", "role_id": 1089, "is_primary": true}, {"id": 2758554, "title": "Woven hangings (TEFC)", "work_id": 78534, "role": "producer", "role_id": 1089, "is_primary": true}, {"id": 2758558, "title": "Fibre and Frame (TEFC)", "work_id": 78535, "role": "producer", "role_id": 1089, "is_primary": true}, {"id": 2757075, "title": "Work and play (TEFC)", "work_id": 78599, "role": "producer", "role_id": 1089, "is_primary": true}, {"id": 2757079, "title": "The Food Connection (TEFC)", "work_id": 78600, "role": "producer", "role_id": 1089, "is_primary": true}, {"id": 1816276, "title": "Maths at home", "work_id": 98386, "role": "producer", "role_id": 1089, "is_primary": true}, {"id": 1808372, "title": "Facing Up to Aids: sex in the '90s", "work_id": 81499, "role": "producer", "role_id": 1089, "is_primary": true}, {"id": 2764636, "title": "You are what you eat", "work_id": 76035, "role": "producer", "role_id": 1089, "is_primary": true}], "also_known_as": "", "date_of_birth": "", "date_of_death": "", "genders": [], "languages": [], "places_of_operation": [], "biography": "", "biography_author": null, "date_of_biography": "2023-08-11T19:34:47.880435+10:00", "external_links": [], "uuid": "4c9e761f-04f6-4d58-92cb-b74c0d75ec8a", "source": {"name": "Vernon", "slug": "vernon"}, "source_identifier": "15305", "external_references": [], "date_modified": "2025-03-13T14:43:02.507891+11:00"}, {"id": 19482, "name": "MTI Teleprograms", "roles_in_work": [{"id": 896767, "title": "We were just too young", "work_id": 76031, "role": "production company", "role_id": 941, "is_primary": true}, {"id": 2647838, "title": "Care: the wonder drug", "work_id": 77540, "role": "production company", "role_id": 941, "is_primary": true}, {"id": 863077, "title": "Childhood sexual abuse: four case studies", "work_id": 76807, "role": "production company", "role_id": 941, "is_primary": true}, {"id": 2220921, "title": "Essentials: Hospital and Health Care Management", "work_id": 77368, "role": "production company", "role_id": 941, "is_primary": true}, {"id": 897066, "title": "Women, drugs and alcohol", "work_id": 76754, "role": "production company", "role_id": 941, "is_primary": true}, {"id": 863883, "title": "Game plan for survival (TEFC)", "work_id": 77563, "role": "production company", "role_id": 941, "is_primary": true}], "also_known_as": "", "date_of_birth": "", "date_of_death": "", "genders": [], "languages": [], "places_of_operation": [], "biography": "", "biography_author": null, "date_of_biography": "2023-05-09T16:17:11.906963+10:00", "external_links": [], "uuid": "f0cdb3bb-764e-4d93-930b-d61cdfb93e66", "source": {"name": "Vernon", "slug": "vernon"}, "source_identifier": "10698", "external_references": [{"id": 32513, "source": {"name": "Wikidata", "slug": "wikidata"}, "source_identifier": "Q121315312"}], "date_modified": "2025-03-05T13:35:03.346355+11:00"}, {"id": 19480, "name": "Paul Auerswald", "roles_in_work": [{"id": 2767970, "title": "The Road to interdependence", "work_id": 76024, "role": "director", "role_id": 938, "is_primary": true}, {"id": 2767961, "title": "Youth to maturity", "work_id": 76036, "role": "producer/director", "role_id": 31, "is_primary": true}, {"id": 2767972, "title": "The History of United States foreign relations", "work_id": 115050, "role": "producer/director", "role_id": 31, "is_primary": true}], "also_known_as": "", "date_of_birth": "", "date_of_death": "", "genders": [], "languages": [], "places_of_operation": [], "biography": "", "biography_author": null, "date_of_biography": "2023-08-14T12:55:50.776001+10:00", "external_links": [], "uuid": "5a106e94-90bc-45c0-b94e-fa6063e60b4f", "source": {"name": "Vernon", "slug": "vernon"}, "source_identifier": "26165", "external_references": [], "date_modified": "2025-03-14T18:07:51.981868+11:00"}, {"id": 19479, "name": "Hal Weiner", "roles_in_work": [{"id": 2770855, "title": "Brazil: a Bahian Menu", "work_id": 77140, "role": "director", "role_id": 938, "is_primary": true}, {"id": 2770869, "title": "Germany a Southern menu", "work_id": 77141, "role": "director", "role_id": 938, "is_primary": true}, {"id": 2770841, "title": "Japan: a banquet menu", "work_id": 77138, "role": "director", "role_id": 938, "is_primary": true}, {"id": 2770786, "title": "India: a northern menu", "work_id": 77024, "role": "director", "role_id": 938, "is_primary": true}, {"id": 2770810, "title": "Italy: a Venetian menu", "work_id": 77040, "role": "director", "role_id": 938, "is_primary": true}, {"id": 2770918, "title": "Holland: a traditional menu", "work_id": 77144, "role": "director", "role_id": 938, "is_primary": true}, {"id": 2770900, "title": "Hong Kong: a Cantonese menu", "work_id": 77143, "role": "director", "role_id": 938, "is_primary": true}, {"id": 2770883, "title": "Finland: a Karelian menu", "work_id": 77142, "role": "director", "role_id": 938, "is_primary": true}, {"id": 2770823, "title": "Cooking of France: an alpine menu", "work_id": 77041, "role": "director", "role_id": 938, "is_primary": true}, {"id": 2770779, "title": "India: a northern menu", "work_id": 77024, "role": "co-producer", "role_id": 915, "is_primary": true}, {"id": 2767968, "title": "The Road to interdependence", "work_id": 76024, "role": "co-producer", "role_id": 915, "is_primary": true}, {"id": 2770799, "title": "Spain: a Catalonian menu", "work_id": 77025, "role": "producer", "role_id": 1089, "is_primary": true}], "also_known_as": "", "date_of_birth": "", "date_of_death": "", "genders": [], "languages": [], "places_of_operation": [], "biography": "", "biography_author": null, "date_of_biography": "2023-08-14T12:55:48.309733+10:00", "external_links": [], "uuid": "e81d8f7a-e3ba-48d8-9428-bb5801bf6262", "source": {"name": "Vernon", "slug": "vernon"}, "source_identifier": "4095", "external_references": [{"id": 38185, "source": {"name": "Wikidata", "slug": "wikidata"}, "source_identifier": "Q24719650"}], "date_modified": "2025-03-14T18:20:47.392389+11:00"}, {"id": 19478, "name": "Marilyn Weiner", "roles_in_work": [{"id": 2767966, "title": "The Road to interdependence", "work_id": 76024, "role": "co-producer", "role_id": 915, "is_primary": true}, {"id": 2770782, "title": "India: a northern menu", "work_id": 77024, "role": "co-producer", "role_id": 915, "is_primary": true}, {"id": 2770851, "title": "Brazil: a Bahian Menu", "work_id": 77140, "role": "producer", "role_id": 1089, "is_primary": true}, {"id": 2770807, "title": "Italy: a Venetian menu", "work_id": 77040, "role": "producer", "role_id": 1089, "is_primary": true}, {"id": 2770914, "title": "Holland: a traditional menu", "work_id": 77144, "role": "producer", "role_id": 1089, "is_primary": true}, {"id": 2770819, "title": "Cooking of France: an alpine menu", "work_id": 77041, "role": "producer", "role_id": 1089, "is_primary": true}, {"id": 2770896, "title": "Hong Kong: a Cantonese menu", "work_id": 77143, "role": "producer", "role_id": 1089, "is_primary": true}, {"id": 2770838, "title": "Japan: a banquet menu", "work_id": 77138, "role": "producer", "role_id": 1089, "is_primary": true}, {"id": 2770880, "title": "Finland: a Karelian menu", "work_id": 77142, "role": "producer", "role_id": 1089, "is_primary": true}, {"id": 2770864, "title": "Germany a Southern menu", "work_id": 77141, "role": "producer", "role_id": 1089, "is_primary": true}, {"id": 2770830, "title": "Mexico: a family style menu", "work_id": 77137, "role": "producer/director", "role_id": 31, "is_primary": true}], "also_known_as": "", "date_of_birth": "", "date_of_death": "", "genders": [], "languages": [], "places_of_operation": [], "biography": "", "biography_author": null, "date_of_biography": "2023-08-14T12:55:47.690484+10:00", "external_links": [], "uuid": "d08316ca-a4cc-4cc6-860b-1942bb669078", "source": {"name": "Vernon", "slug": "vernon"}, "source_identifier": "4096", "external_references": [{"id": 34093, "source": {"name": "Wikidata", "slug": "wikidata"}, "source_identifier": "Q121299317"}], "date_modified": "2025-03-14T18:20:46.812993+11:00"}, {"id": 19477, "name": "Screenscope Productions", "roles_in_work": [{"id": 2770803, "title": "Italy: a Venetian menu", "work_id": 77040, "role": "production company", "role_id": 941, "is_primary": true}, {"id": 2767963, "title": "The Road to interdependence", "work_id": 76024, "role": "production company", "role_id": 941, "is_primary": true}, {"id": 2770815, "title": "Cooking of France: an alpine menu", "work_id": 77041, "role": "production company", "role_id": 941, "is_primary": true}, {"id": 2770875, "title": "Finland: a Karelian menu", "work_id": 77142, "role": "production company", "role_id": 941, "is_primary": true}], "also_known_as": "", "date_of_birth": "", "date_of_death": "", "genders": [], "languages": [], "places_of_operation": [], "biography": "", "biography_author": null, "date_of_biography": "2023-08-14T12:55:47.064066+10:00", "external_links": [], "uuid": "46a72887-83e8-4fce-b770-cb43b1bc4da5", "source": {"name": "Vernon", "slug": "vernon"}, "source_identifier": "12382", "external_references": [{"id": 36284, "source": {"name": "Wikidata", "slug": "wikidata"}, "source_identifier": "Q121035585"}], "date_modified": "2025-03-14T18:20:42.118484+11:00"}]}