{"count": 28687, "next": "https://api.acmi.net.au/creators/?page=214", "previous": "https://api.acmi.net.au/creators/?page=212", "results": [{"id": 83477, "name": "Kate Mitchell", "roles_in_work": [{"id": 2374294, "title": "In conversation with Ray Lu", "work_id": 116702, "role": "interviewer", "role_id": 457, "is_primary": false}, {"id": 2374290, "title": "In conversation with Nick Hilligoss", "work_id": 116700, "role": "interviewer", "role_id": 457, "is_primary": false}, {"id": 2374292, "title": "In conversation with Annemarie Szelezky", "work_id": 116701, "role": "interviewer", "role_id": 457, "is_primary": false}, {"id": 2374284, "title": "In conversation with Sam Samai", "work_id": 116698, "role": "interviewer", "role_id": 457, "is_primary": false}, {"id": 2374282, "title": "In conversation with John Paul Molloy", "work_id": 116696, "role": "interviewer", "role_id": 457, "is_primary": false}, {"id": 2374288, "title": "In conversation with D.I.Y Art Films", "work_id": 116699, "role": "interviewer", "role_id": 457, "is_primary": false}], "also_known_as": "", "date_of_birth": "", "date_of_death": "", "genders": [], "languages": [], "places_of_operation": [], "biography": "", "biography_author": null, "date_of_biography": "2023-07-05T03:53:12.120131+10:00", "external_links": [], "uuid": "4733da12-08ba-401a-9922-e8f374d6ed6e", "source": {"name": "Vernon", "slug": "vernon"}, "source_identifier": "34596", "external_references": [], "date_modified": "2023-07-05T03:53:12.120436+10:00"}, {"id": 83476, "name": "John Paul Molloy", "roles_in_work": [{"id": 2374281, "title": "In conversation with John Paul Molloy", "work_id": 116696, "role": "interviewee", "role_id": 496, "is_primary": false}], "also_known_as": "", "date_of_birth": "", "date_of_death": "", "genders": [], "languages": [], "places_of_operation": [], "biography": "", "biography_author": null, "date_of_biography": "2023-07-05T03:53:02.812147+10:00", "external_links": [], "uuid": "a1ddf066-ef56-4264-b1a8-2fd4297c74f4", "source": {"name": "Vernon", "slug": "vernon"}, "source_identifier": "34585", "external_references": [], "date_modified": "2023-07-05T03:53:02.812446+10:00"}, {"id": 83475, "name": "Danielle Poulos", "roles_in_work": [{"id": 2374280, "title": "In conversation with Al Alcorn", "work_id": 116695, "role": "interviewer", "role_id": 457, "is_primary": false}], "also_known_as": "", "date_of_birth": "", "date_of_death": "", "genders": [], "languages": [], "places_of_operation": [], "biography": "", "biography_author": null, "date_of_biography": "2023-07-05T03:53:01.492231+10:00", "external_links": [], "uuid": "2bff604e-7089-4645-a307-a2ee400deb9f", "source": {"name": "Vernon", "slug": "vernon"}, "source_identifier": "34594", "external_references": [], "date_modified": "2023-07-05T03:53:01.492652+10:00"}, {"id": 83474, "name": "Al Alcorn", "roles_in_work": [{"id": 2374279, "title": "In conversation with Al Alcorn", "work_id": 116695, "role": "interviewee", "role_id": 496, "is_primary": false}], "also_known_as": "", "date_of_birth": "", "date_of_death": "", "genders": [], "languages": [], "places_of_operation": [], "biography": "", "biography_author": null, "date_of_biography": "2023-07-05T03:53:01.260534+10:00", "external_links": [], "uuid": "7b6c8734-e8b3-4e94-90e0-f2e7f2394147", "source": {"name": "Vernon", "slug": "vernon"}, "source_identifier": "34584", "external_references": [], "date_modified": "2023-07-05T03:53:01.260824+10:00"}, {"id": 83473, "name": "Paul Jennings", "roles_in_work": [{"id": 3106206, "title": "Unmentionable! novel", "work_id": 121962, "role": "author", "role_id": 943, "is_primary": true}, {"id": 3106207, "title": "Round the Twist novel", "work_id": 122313, "role": "author", "role_id": 943, "is_primary": true}, {"id": 2717689, "title": "Round the twist: lighthouse blues", "work_id": 116688, "role": "writer", "role_id": 939, "is_primary": true}, {"id": 2717682, "title": "Round the twist: know all", "work_id": 116685, "role": "writer", "role_id": 939, "is_primary": true}, {"id": 2717767, "title": "Round the Twist: Series 1", "work_id": 120101, "role": "writer", "role_id": 939, "is_primary": true}, {"id": 2717670, "title": "Round the twist: a good tip for ghosts", "work_id": 116678, "role": "writer", "role_id": 939, "is_primary": true}, {"id": 2717676, "title": "Round the twist: birdsdo", "work_id": 116677, "role": "writer", "role_id": 939, "is_primary": true}, {"id": 2717764, "title": "Round the twist: Wunderpants", "work_id": 116683, "role": "writer", "role_id": 939, "is_primary": true}, {"id": 2717758, "title": "Round the twist: without my pants", "work_id": 116687, "role": "writer", "role_id": 939, "is_primary": true}, {"id": 2717748, "title": "Round the twist: the gum-leaf war", "work_id": 116682, "role": "writer", "role_id": 939, "is_primary": true}, {"id": 2717739, "title": "Round the twist: the copy", "work_id": 116686, "role": "writer", "role_id": 939, "is_primary": true}, {"id": 2717731, "title": "Round the twist: the cabbage patch fib", "work_id": 116679, "role": "writer", "role_id": 939, "is_primary": true}, {"id": 2717723, "title": "Round the twist: spaghetti pig out", "work_id": 116680, "role": "writer", "role_id": 939, "is_primary": true}, {"id": 2717708, "title": "Round the twist: Santa Claws", "work_id": 116681, "role": "writer", "role_id": 939, "is_primary": true}, {"id": 2717698, "title": "Round the twist: Lucky Lips", "work_id": 116684, "role": "writer", "role_id": 939, "is_primary": true}], "also_known_as": "", "date_of_birth": "1943-04-30", "date_of_death": "", "genders": [{"id": 9, "name": "Male", "slug": "male"}], "languages": [{"id": 1, "name": "English", "slug": "english"}], "places_of_operation": [{"id": 10, "name": "United Kingdom", "slug": "united-kingdom"}], "biography": "Paul Jennings AM (born 30 April 1943), is an English-born Australian writer for children, young adults and adults. He is best known for his short stories that lead the reader through an unusual series of events and end with a twist. Many of his stories were adapted for the cult classic children's television series Round the Twist. Jennings collaborated with Morris Gleitzman on the book series Wicked!, which was adapted into an animated TV series in 2000, and Deadly!.", "biography_author": "Wikidata", "date_of_biography": "2023-09-05T23:47:11.088133+10:00", "external_links": [{"id": 6085, "uri": "https://en.wikipedia.org/wiki/Paul_Jennings_(Australian_author)"}], "uuid": "1b73911f-8ac4-4826-b507-2a808cbb806a", "source": {"name": "Vernon", "slug": "vernon"}, "source_identifier": "34577", "external_references": [{"id": 36865, "source": {"name": "Wikidata", "slug": "wikidata"}, "source_identifier": "Q4160173"}, {"id": 55439, "source": {"name": "VIAF", "slug": "viaf"}, "source_identifier": "79143925"}, {"id": 55440, "source": {"name": "LOC Auth", "slug": "loc-auth"}, "source_identifier": "n92077948"}, {"id": 55441, "source": {"name": "WorldCat", "slug": "worldcat"}, "source_identifier": "lccn-n92077948"}], "date_modified": "2025-06-20T12:36:27.000252+10:00"}, {"id": 83472, "name": "James Laurenson", "roles_in_work": [{"id": 2122361, "title": "Boney", "work_id": 116675, "role": "cast", "role_id": 33, "is_primary": false}], "also_known_as": "", "date_of_birth": "", "date_of_death": "", "genders": [], "languages": [], "places_of_operation": [], "biography": "", "biography_author": null, "date_of_biography": "2023-05-09T13:05:34.424538+10:00", "external_links": [], "uuid": "55341342-f812-4f77-a62d-79d56e66ef07", "source": {"name": "Vernon", "slug": "vernon"}, "source_identifier": "34549", "external_references": [], "date_modified": "2023-06-14T16:33:30.576250+10:00"}, {"id": 83471, "name": "Victoria. Office of Women's Policy. Department of Planning and Community Development", "roles_in_work": [{"id": 2374266, "title": "Jeanette Powell", "work_id": 116671, "role": "partner", "role_id": 575, "is_primary": false}, {"id": 2212884, "title": "100 Years of Victorian women's right to vote", "work_id": 116667, "role": "partner", "role_id": 575, "is_primary": false}, {"id": 2374270, "title": "Dur-e Dara", "work_id": 116669, "role": "partner", "role_id": 575, "is_primary": false}, {"id": 2374274, "title": "Joan Kirner", "work_id": 116672, "role": "partner", "role_id": 575, "is_primary": false}, {"id": 2374278, "title": "Voula Messimeri-Kianidis", "work_id": 116674, "role": "partner", "role_id": 575, "is_primary": false}, {"id": 2374250, "title": "Judy Maddigan", "work_id": 116666, "role": "partner", "role_id": 575, "is_primary": false}, {"id": 2374254, "title": "Gracia Baylor", "work_id": 116670, "role": "partner", "role_id": 575, "is_primary": false}, {"id": 2374262, "title": "Dr Isabel Joy Bear", "work_id": 116668, "role": "partner", "role_id": 575, "is_primary": false}, {"id": 2374258, "title": "Lecki Ord", "work_id": 116673, "role": "partner", "role_id": 575, "is_primary": false}], "also_known_as": "", "date_of_birth": "", "date_of_death": "", "genders": [], "languages": [], "places_of_operation": [], "biography": "", "biography_author": null, "date_of_biography": "2023-07-05T03:53:00.058550+10:00", "external_links": [], "uuid": "c0dfdc77-b68f-4d1a-b661-205c0c33b42c", "source": {"name": "Vernon", "slug": "vernon"}, "source_identifier": "34547", "external_references": [], "date_modified": "2023-07-05T03:53:00.058861+10:00"}, {"id": 83470, "name": "Ivor White", "roles_in_work": [{"id": 2727873, "title": "Memories of a mate: an interview with Ivor White", "work_id": 116654, "role": "creator", "role_id": 968, "is_primary": true}], "also_known_as": "", "date_of_birth": "", "date_of_death": "", "genders": [], "languages": [], "places_of_operation": [], "biography": "", "biography_author": null, "date_of_biography": "2023-08-30T04:23:55.309643+10:00", "external_links": [], "uuid": "8bb3cd81-1150-4a6e-a034-95a7e4ec8329", "source": {"name": "Vernon", "slug": "vernon"}, "source_identifier": "34543", "external_references": [], "date_modified": "2025-03-12T08:30:24.593590+11:00"}, {"id": 83469, "name": "Peter Isaacson", "roles_in_work": [{"id": 2727868, "title": "An Interview with Wing Commander Peter Isaacson : Chairman of the Shrine of Remembrance Trustees (1983-2000)", "work_id": 116665, "role": "creator", "role_id": 968, "is_primary": true}, {"id": 2727863, "title": "An Interview with Peter Isaacson : pathfinder", "work_id": 116664, "role": "creator", "role_id": 968, "is_primary": true}, {"id": 2727869, "title": "An Interview with Wing Commander Peter Isaacson : Chairman of the Shrine of Remembrance Trustees (1983-2000)", "work_id": 116665, "role": "interviewee", "role_id": 496, "is_primary": false}, {"id": 2727864, "title": "An Interview with Peter Isaacson : pathfinder", "work_id": 116664, "role": "interviewee", "role_id": 496, "is_primary": false}], "also_known_as": "", "date_of_birth": "31 JUL 1920", "date_of_death": "", "genders": [{"id": 9, "name": "Male", "slug": "male"}], "languages": [], "places_of_operation": [], "biography": "Peter Stuart Isaacson AM, DFC, AFC, DFM (31 July 1920 – ) was owner and publisher of the Southern Cross and the Sunday Observer in Melbourne. He was also a war-time pilot, during which time he was awarded the Distinguished Flying Cross, the Air Force Cross and the Distinguished Flying Medal. He was famous for flying under the Sydney Harbour Bridge towards the end of World War II and served as the Chairman of the Shrine of Remembrance Trustees until it was dissolved by the Victorian State Government", "biography_author": null, "date_of_biography": "2025-03-12T08:30:21.498411+11:00", "external_links": [], "uuid": "2d8c3745-8ebf-4fbe-96aa-fb009236ddcc", "source": {"name": "Vernon", "slug": "vernon"}, "source_identifier": "34858", "external_references": [], "date_modified": "2025-03-12T08:30:21.498626+11:00"}, {"id": 83468, "name": "Pat Vines", "roles_in_work": [{"id": 2727851, "title": "An Interview with Pat Vines: The Shrine of Remembrance", "work_id": 116662, "role": "creator", "role_id": 968, "is_primary": true}, {"id": 2727857, "title": "An Interview with Pat Vines", "work_id": 116663, "role": "creator", "role_id": 968, "is_primary": true}, {"id": 2727858, "title": "An Interview with Pat Vines", "work_id": 116663, "role": "interviewee", "role_id": 496, "is_primary": false}, {"id": 2727852, "title": "An Interview with Pat Vines: The Shrine of Remembrance", "work_id": 116662, "role": "interviewee", "role_id": 496, "is_primary": false}], "also_known_as": "", "date_of_birth": "", "date_of_death": "", "genders": [{"id": 5, "name": "Female", "slug": "female"}], "languages": [], "places_of_operation": [], "biography": "Pat Vines joined the Australian Navy as a nurse and moved up the ranks to Commander during World War II. She later became a trustee of the Shrine of Remembrance in Victoria", "biography_author": null, "date_of_biography": "2025-03-12T08:30:13.612122+11:00", "external_links": [], "uuid": "274b2bdc-729e-43d2-91bd-78603c862ae2", "source": {"name": "Vernon", "slug": "vernon"}, "source_identifier": "34865", "external_references": [], "date_modified": "2025-03-12T08:30:13.612426+11:00"}]}