{"count": 28687, "next": "https://api.acmi.net.au/creators/?page=2208", "previous": "https://api.acmi.net.au/creators/?page=2206", "results": [{"id": 18532, "name": "Paul Marshall", "roles_in_work": [{"id": 2469547, "title": "Underground film", "work_id": 74163, "role": "producer", "role_id": 1089, "is_primary": true}], "also_known_as": "", "date_of_birth": "", "date_of_death": "", "genders": [], "languages": [], "places_of_operation": [], "biography": "", "biography_author": null, "date_of_biography": "2023-08-14T12:03:30.290357+10:00", "external_links": [], "uuid": "8ece5ade-9aa3-40cc-b0da-b6a37fe183c9", "source": {"name": "Vernon", "slug": "vernon"}, "source_identifier": "26281", "external_references": [], "date_modified": "2023-08-14T12:03:30.290634+10:00"}, {"id": 18531, "name": "KEBS-TV", "roles_in_work": [{"id": 2469546, "title": "Underground film", "work_id": 74163, "role": "production company", "role_id": 941, "is_primary": true}], "also_known_as": "", "date_of_birth": "", "date_of_death": "", "genders": [], "languages": [], "places_of_operation": [], "biography": "", "biography_author": null, "date_of_biography": "2023-08-14T12:03:29.675656+10:00", "external_links": [], "uuid": "93546d95-4af6-4401-83e3-50d977ede544", "source": {"name": "Vernon", "slug": "vernon"}, "source_identifier": "9714", "external_references": [], "date_modified": "2023-08-14T12:03:29.675887+10:00"}, {"id": 18529, "name": "National Foundation for Infantile Paralysis", "roles_in_work": [{"id": 2469543, "title": "Unconditional surrender", "work_id": 74154, "role": "production company", "role_id": 941, "is_primary": true}], "also_known_as": "", "date_of_birth": "", "date_of_death": "", "genders": [], "languages": [], "places_of_operation": [], "biography": "", "biography_author": null, "date_of_biography": "2023-08-14T12:03:24.863099+10:00", "external_links": [], "uuid": "2018fb6d-2634-43f6-b07a-54fb06e86d42", "source": {"name": "Vernon", "slug": "vernon"}, "source_identifier": "10808", "external_references": [], "date_modified": "2023-08-14T12:03:24.863317+10:00"}, {"id": 18526, "name": "P.R.S. Pillay", "roles_in_work": [{"id": 757675, "title": "Wheel of prosperity", "work_id": 74662, "role": "director", "role_id": 938, "is_primary": true}, {"id": 2646733, "title": "Udaipur, city of lakes", "work_id": 74140, "role": "director", "role_id": 938, "is_primary": true}, {"id": 860930, "title": "Women and education", "work_id": 74834, "role": "director", "role_id": 938, "is_primary": true}], "also_known_as": "", "date_of_birth": null, "date_of_death": null, "genders": [], "languages": [], "places_of_operation": [], "biography": "", "biography_author": null, "date_of_biography": null, "external_links": [], "uuid": "d18b46b1-c1a7-4c62-976d-21d72f23138e", "source": {"name": "Vernon", "slug": "vernon"}, "source_identifier": "26018", "external_references": [], "date_modified": "2025-03-05T13:11:05.306188+11:00"}, {"id": 18525, "name": "Grand Slamm Animation", "roles_in_work": [{"id": 2646728, "title": "Ubu", "work_id": 74139, "role": "production company", "role_id": 941, "is_primary": true}], "also_known_as": "", "date_of_birth": null, "date_of_death": null, "genders": [], "languages": [], "places_of_operation": [], "biography": "", "biography_author": null, "date_of_biography": null, "external_links": [], "uuid": "4fb5ea31-c063-4489-aaac-6b452aafbbd2", "source": {"name": "Vernon", "slug": "vernon"}, "source_identifier": "8843", "external_references": [], "date_modified": "2025-03-05T13:11:01.973137+11:00"}, {"id": 18524, "name": "Len Aitken", "roles_in_work": [{"id": 2749371, "title": "Kayak", "work_id": 96769, "role": "co-director", "role_id": 959, "is_primary": true}, {"id": 898120, "title": "The Mountain does it for me", "work_id": 78176, "role": "co-producer", "role_id": 915, "is_primary": true}, {"id": 896694, "title": "Good time skiing", "work_id": 75837, "role": "co-producer", "role_id": 915, "is_primary": true}, {"id": 2752177, "title": "Skinny skiing", "work_id": 98180, "role": "co-producers/directors", "role_id": 628, "is_primary": true}, {"id": 1813889, "title": "Two wheeler", "work_id": 74129, "role": "producer", "role_id": 1089, "is_primary": true}], "also_known_as": "", "date_of_birth": null, "date_of_death": null, "genders": [], "languages": [], "places_of_operation": [], "biography": "", "biography_author": null, "date_of_biography": null, "external_links": [], "uuid": "bc319ac4-ea48-425f-b392-64d433ec5ca3", "source": {"name": "Vernon", "slug": "vernon"}, "source_identifier": "23661", "external_references": [], "date_modified": "2025-03-13T01:00:23.932068+11:00"}, {"id": 18522, "name": "Christopher Parsons", "roles_in_work": [{"id": 2770081, "title": "Crocodile", "work_id": 80872, "role": "co-producer", "role_id": 915, "is_primary": true}, {"id": 2781391, "title": "The Living forest", "work_id": 74921, "role": "co-producer", "role_id": 915, "is_primary": true}, {"id": 2763523, "title": "The First forests", "work_id": 76989, "role": "producer", "role_id": 1089, "is_primary": true}, {"id": 2749429, "title": "The Way of a river", "work_id": 96802, "role": "producer", "role_id": 1089, "is_primary": true}, {"id": 2763515, "title": "The Swarming hordes", "work_id": 77009, "role": "producer", "role_id": 1089, "is_primary": true}, {"id": 2769021, "title": "Two in the bush: the Attic of the world", "work_id": 74122, "role": "producer/director", "role_id": 31, "is_primary": true}], "also_known_as": "", "date_of_birth": "", "date_of_death": "", "genders": [], "languages": [], "places_of_operation": [], "biography": "", "biography_author": null, "date_of_biography": "2023-05-09T13:48:46.440795+10:00", "external_links": [], "uuid": "ee82f20b-6c14-4a52-b605-00d6eba6b0f3", "source": {"name": "Vernon", "slug": "vernon"}, "source_identifier": "16992", "external_references": [{"id": 38553, "source": {"name": "Wikidata", "slug": "wikidata"}, "source_identifier": "Q121223316"}], "date_modified": "2025-03-14T18:17:18.716124+11:00"}, {"id": 18521, "name": "ABC-TV (Australia). Natural History Unit", "roles_in_work": [{"id": 2614385, "title": "Nature's landscapes", "work_id": 83597, "role": "production company", "role_id": 941, "is_primary": true}, {"id": 2750583, "title": "Gippsland: the high country", "work_id": 97404, "role": "production company", "role_id": 941, "is_primary": true}, {"id": 2750590, "title": "Gippsland: open to the sea", "work_id": 97407, "role": "production company", "role_id": 941, "is_primary": true}, {"id": 2648099, "title": "Antarctic man. No. 1. Fears do not kill you", "work_id": 78299, "role": "production company", "role_id": 941, "is_primary": true}, {"id": 2788062, "title": "A Brush with nature, Robert Ulmann", "work_id": 82675, "role": "production company", "role_id": 941, "is_primary": true}, {"id": 2769020, "title": "Two in the bush: the Attic of the world", "work_id": 74122, "role": "production company", "role_id": 941, "is_primary": true}, {"id": 1427928, "title": "Nature of Australia : a portrait of the island continent: the sunburnt country", "work_id": 88069, "role": "production company", "role_id": 941, "is_primary": true}, {"id": 816673, "title": "The Navigators: Baudin vs Flinders", "work_id": 93699, "role": "production company", "role_id": 941, "is_primary": true}, {"id": 929569, "title": "Platypus: World's strangest animal", "work_id": 94922, "role": "production company", "role_id": 941, "is_primary": true}, {"id": 2044388, "title": "Killers in Eden", "work_id": 116756, "role": "production company", "role_id": 941, "is_primary": true}, {"id": 1932455, "title": "The Kimberley: land of the Wandjina [DVD]", "work_id": 94921, "role": "production company", "role_id": 941, "is_primary": true}, {"id": 875046, "title": "Kimberley: land of the Wandjina", "work_id": 89275, "role": "production company", "role_id": 941, "is_primary": true}, {"id": 916757, "title": "Nature of Australia: a portrait of the Island Continent", "work_id": 94931, "role": "production company", "role_id": 941, "is_primary": true}, {"id": 2291844, "title": "Zoo tails", "work_id": 87403, "role": "production company", "role_id": 941, "is_primary": true}, {"id": 779658, "title": "Hello possums", "work_id": 82669, "role": "production company", "role_id": 941, "is_primary": true}, {"id": 1427259, "title": "Lizards of Oz; Wombats: bulldozers of the bush", "work_id": 83658, "role": "production company", "role_id": 941, "is_primary": true}], "also_known_as": "", "date_of_birth": "", "date_of_death": "", "genders": [], "languages": [], "places_of_operation": [], "biography": "", "biography_author": null, "date_of_biography": "2023-05-09T20:07:07.183045+10:00", "external_links": [], "uuid": "49208e79-68e6-494a-9dff-85121376805d", "source": {"name": "Vernon", "slug": "vernon"}, "source_identifier": "10846", "external_references": [{"id": 39098, "source": {"name": "Wikidata", "slug": "wikidata"}, "source_identifier": "Q121222746"}], "date_modified": "2025-03-14T19:42:37.272470+11:00"}, {"id": 18519, "name": "Andrew B. Nemes", "roles_in_work": [{"id": 756436, "title": "Two deserts: Sahara and Sonora", "work_id": 74118, "role": "director", "role_id": 938, "is_primary": true}, {"id": 826323, "title": "Two mountain lands: Andes and Alps", "work_id": 96291, "role": "producer/director", "role_id": 31, "is_primary": true}], "also_known_as": "", "date_of_birth": null, "date_of_death": null, "genders": [], "languages": [], "places_of_operation": [], "biography": "", "biography_author": null, "date_of_biography": null, "external_links": [], "uuid": "96244917-dd3e-4a9b-b98d-75728941781e", "source": {"name": "Vernon", "slug": "vernon"}, "source_identifier": "15142", "external_references": [{"id": 34685, "source": {"name": "Wikidata", "slug": "wikidata"}, "source_identifier": "Q120700894"}], "date_modified": "2023-09-13T12:28:11.364475+10:00"}, {"id": 18516, "name": "British Aluminium Company", "roles_in_work": [{"id": 2469494, "title": "Two architects", "work_id": 74112, "role": "production company", "role_id": 941, "is_primary": true}], "also_known_as": "", "date_of_birth": "", "date_of_death": "", "genders": [], "languages": [], "places_of_operation": [], "biography": "", "biography_author": null, "date_of_biography": "2023-08-14T12:02:20.713219+10:00", "external_links": [], "uuid": "74d271d9-4d03-4e10-8eb1-47fa7b340241", "source": {"name": "Vernon", "slug": "vernon"}, "source_identifier": "6003", "external_references": [], "date_modified": "2023-08-14T12:02:20.713481+10:00"}]}