{"count": 28687, "next": "https://api.acmi.net.au/creators/?page=500", "previous": "https://api.acmi.net.au/creators/?page=498", "results": [{"id": 80593, "name": "Tiger Eye", "roles_in_work": [{"id": 2124104, "title": "Breaking bows & arrows = Breaking bows and arrows", "work_id": 94022, "role": "production company", "role_id": 941, "is_primary": true}], "also_known_as": "", "date_of_birth": "", "date_of_death": "", "genders": [], "languages": [], "places_of_operation": [], "biography": "", "biography_author": null, "date_of_biography": "2023-05-09T13:08:15.086327+10:00", "external_links": [], "uuid": "ffa8d5c5-27b2-4c7a-ae16-2eb1f326645f", "source": {"name": "Vernon", "slug": "vernon"}, "source_identifier": "13519", "external_references": [{"id": 42765, "source": {"name": "Wikidata", "slug": "wikidata"}, "source_identifier": "Q121298849"}], "date_modified": "2023-09-06T01:49:46.651137+10:00"}, {"id": 80592, "name": "Junjidys Productions", "roles_in_work": [{"id": 2303336, "title": "Small island, big fight", "work_id": 94021, "role": "production company", "role_id": 941, "is_primary": true}], "also_known_as": "", "date_of_birth": "", "date_of_death": "", "genders": [], "languages": [], "places_of_operation": [], "biography": "", "biography_author": null, "date_of_biography": "2023-05-09T18:40:55.646984+10:00", "external_links": [], "uuid": "30010d30-ab3e-487a-bb7f-d7f91f8ad94e", "source": {"name": "Vernon", "slug": "vernon"}, "source_identifier": "9672", "external_references": [{"id": 40540, "source": {"name": "Wikidata", "slug": "wikidata"}, "source_identifier": "Q121271048"}], "date_modified": "2023-09-05T21:57:29.483866+10:00"}, {"id": 80591, "name": "Julie McSwiney", "roles_in_work": [{"id": 3085418, "title": "Crash zone. Vol. 5. Season 2. Eps 06-09", "work_id": 94016, "role": "co-director", "role_id": 959, "is_primary": true}, {"id": 3085444, "title": "Crash zone. Vol. 6. Season 2. Eps 10-13", "work_id": 94018, "role": "co-director", "role_id": 959, "is_primary": true}, {"id": 3085395, "title": "Crash zone. Vol. 4. Season 2. Eps 01-05", "work_id": 94017, "role": "co-director", "role_id": 959, "is_primary": true}], "also_known_as": "", "date_of_birth": "", "date_of_death": "", "genders": [], "languages": [], "places_of_operation": [], "biography": "", "biography_author": null, "date_of_biography": "2023-05-09T18:22:36.847665+10:00", "external_links": [], "uuid": "dcb286d2-dd5e-44e6-9d69-bde1cb038976", "source": {"name": "Vernon", "slug": "vernon"}, "source_identifier": "22905", "external_references": [{"id": 39585, "source": {"name": "Wikidata", "slug": "wikidata"}, "source_identifier": "Q121057871"}], "date_modified": "2025-03-17T10:40:12.756411+11:00"}, {"id": 80590, "name": "Rod Freedman", "roles_in_work": [{"id": 2273278, "title": "Welcome to the Waks family [Widescreen]", "work_id": 94538, "role": "co-producer", "role_id": 915, "is_primary": true}, {"id": 2222979, "title": "Everyday brave (A) [Widescreen]", "work_id": 94015, "role": "producer", "role_id": 1089, "is_primary": true}], "also_known_as": "", "date_of_birth": "", "date_of_death": "", "genders": [], "languages": [], "places_of_operation": [], "biography": "", "biography_author": null, "date_of_biography": "2023-05-09T17:48:27.700240+10:00", "external_links": [], "uuid": "500eaa1f-26ff-48c3-92da-298950a6b47b", "source": {"name": "Vernon", "slug": "vernon"}, "source_identifier": "27993", "external_references": [{"id": 41572, "source": {"name": "Wikidata", "slug": "wikidata"}, "source_identifier": "Q121299396"}], "date_modified": "2023-09-06T00:50:22.582482+10:00"}, {"id": 80589, "name": "Macumba Media Enterprises", "roles_in_work": [{"id": 2222976, "title": "Everyday brave (A) [Widescreen]", "work_id": 94015, "role": "production company", "role_id": 941, "is_primary": true}], "also_known_as": "", "date_of_birth": "", "date_of_death": "", "genders": [], "languages": [], "places_of_operation": [], "biography": "", "biography_author": null, "date_of_biography": "2023-05-09T16:21:54.612350+10:00", "external_links": [], "uuid": "01d6ecf3-9d53-4d3a-9934-c5abf00171b2", "source": {"name": "Vernon", "slug": "vernon"}, "source_identifier": "10226", "external_references": [{"id": 43111, "source": {"name": "Wikidata", "slug": "wikidata"}, "source_identifier": "Q121035517"}], "date_modified": "2023-09-05T22:36:05.208987+10:00"}, {"id": 80588, "name": "Mark Dindal", "roles_in_work": [{"id": 2345694, "title": "The Emperor's new groove", "work_id": 94013, "role": "director", "role_id": 938, "is_primary": true}], "also_known_as": "Mark Louis Dindal", "date_of_birth": "1960-05-31", "date_of_death": "", "genders": [{"id": 9, "name": "Male", "slug": "male"}], "languages": [{"id": 1, "name": "English", "slug": "english"}], "places_of_operation": [{"id": 1, "name": "United States of America", "slug": "united-states-of-america"}], "biography": "Mark Louis Dindal (born May 1960) is an American film director, effects animator, screenwriter, character designer, storyboard artist and voice actor, who is famous for having directed three animated films, Cats Don't Dance (1997), The Emperor's New Groove (2000), and Chicken Little (2005). He worked in many Disney projects as an effects animator, and also led the special effects for several films, such as The Little Mermaid (1989) and The Rescuers Down Under (1990).", "biography_author": "Wikidata", "date_of_biography": "2023-08-01T16:04:59.568260+10:00", "external_links": [{"id": 4617, "uri": "https://en.wikipedia.org/wiki/Mark_Dindal"}], "uuid": "40f121c9-970b-4b77-a270-0f59ab3ebf89", "source": {"name": "Vernon", "slug": "vernon"}, "source_identifier": "24481", "external_references": [{"id": 25133, "source": {"name": "Wikidata", "slug": "wikidata"}, "source_identifier": "Q1555425"}, {"id": 30125, "source": {"name": "VIAF", "slug": "viaf"}, "source_identifier": "74057991"}, {"id": 30126, "source": {"name": "LOC Auth", "slug": "loc-auth"}, "source_identifier": "no2003111975"}, {"id": 30127, "source": {"name": "WorldCat", "slug": "worldcat"}, "source_identifier": "lccn-no2003111975"}], "date_modified": "2023-09-05T22:45:29.075091+10:00"}, {"id": 80587, "name": "Randy Fullmer", "roles_in_work": [{"id": 2345691, "title": "The Emperor's new groove", "work_id": 94013, "role": "producer", "role_id": 1089, "is_primary": true}], "also_known_as": "", "date_of_birth": "1950-04-27", "date_of_death": "", "genders": [{"id": 9, "name": "Male", "slug": "male"}], "languages": [], "places_of_operation": [{"id": 1, "name": "United States of America", "slug": "united-states-of-america"}], "biography": "Randall Wyn Fullmer (April 27, 1950 – July 10, 2023) was an American businessman and executive for The Walt Disney Company. After a career at Walt Disney Feature Animation, Fullmer launched his own business, Wyn Guitars.", "biography_author": "Wikidata", "date_of_biography": "2023-08-01T16:41:43.151552+10:00", "external_links": [{"id": 4948, "uri": "https://en.wikipedia.org/wiki/Randy_Fullmer"}], "uuid": "61ded6dd-a929-4e87-b2d1-b025cbb577f1", "source": {"name": "Vernon", "slug": "vernon"}, "source_identifier": "27118", "external_references": [{"id": 25201, "source": {"name": "Wikidata", "slug": "wikidata"}, "source_identifier": "Q7292195"}, {"id": 30973, "source": {"name": "VIAF", "slug": "viaf"}, "source_identifier": "31706903"}, {"id": 30974, "source": {"name": "LOC Auth", "slug": "loc-auth"}, "source_identifier": "no2004051829"}, {"id": 30975, "source": {"name": "WorldCat", "slug": "worldcat"}, "source_identifier": "lccn-no2004051829"}], "date_modified": "2023-09-06T00:21:00.732800+10:00"}, {"id": 80586, "name": "Chuck Workman", "roles_in_work": [{"id": 2318609, "title": "Superstar: the life and times of Andy Warhol", "work_id": 94011, "role": "producer/director", "role_id": 31, "is_primary": true}], "also_known_as": "", "date_of_birth": "2000-01-01", "date_of_death": "", "genders": [{"id": 9, "name": "Male", "slug": "male"}], "languages": [], "places_of_operation": [{"id": 1, "name": "United States of America", "slug": "united-states-of-america"}], "biography": "Chuck Workman is a documentary filmmaker from Philadelphia, Pennsylvania, USA. His 1986 film Precious Images won an Academy Award for Best Live Action Short Film; his work has also been nominated for Emmy Awards, Sundance Film Festival awards, and the Taos Talking Film Festival awards.\nWorkman frequently creates the montages seen on the televised Academy Awards shows, including the in memoriam segment. He is sometimes credited as Carl Workman.  He is the father of filmmaker Jeremy Workman.\n\n", "biography_author": "Wikidata", "date_of_biography": "2023-08-01T14:27:29.737746+10:00", "external_links": [{"id": 1826, "uri": "https://en.wikipedia.org/wiki/Chuck_Workman"}], "uuid": "2340c9e3-3d7d-4c22-9456-adbb4b2b5a55", "source": {"name": "Vernon", "slug": "vernon"}, "source_identifier": "17025", "external_references": [{"id": 7942, "source": {"name": "Wikidata", "slug": "wikidata"}, "source_identifier": "Q1089208"}, {"id": 7943, "source": {"name": "VIAF", "slug": "viaf"}, "source_identifier": "26710721"}, {"id": 7944, "source": {"name": "LOC Auth", "slug": "loc-auth"}, "source_identifier": "no2001029054"}, {"id": 7945, "source": {"name": "WorldCat", "slug": "worldcat"}, "source_identifier": "lccn-no2001029054"}], "date_modified": "2023-09-06T10:39:56.215133+10:00"}, {"id": 80585, "name": "Charlotte Metcalfe", "roles_in_work": [{"id": 3085602, "title": "Letter from America", "work_id": 94010, "role": "producer/director", "role_id": 31, "is_primary": true}], "also_known_as": "", "date_of_birth": "1958-01-01", "date_of_death": null, "genders": [{"id": 5, "name": "Female", "slug": "female"}], "languages": [], "places_of_operation": [], "biography": "Charlotte Metcalf is a prolific writer, journalist and podcaster. She has also made numerous award-winning documentaries.", "biography_author": "Wikidata", "date_of_biography": "2023-09-05T18:29:06.925472+10:00", "external_links": [{"id": 5742, "uri": "https://en.wikipedia.org/wiki/Charlotte_Metcalf"}], "uuid": "7f38505d-f57a-444c-b5b4-0b44c8a8b13b", "source": {"name": "Vernon", "slug": "vernon"}, "source_identifier": null, "external_references": [{"id": 51793, "source": {"name": "Wikidata", "slug": "wikidata"}, "source_identifier": "Q16192843"}], "date_modified": "2023-09-05T18:29:06.945758+10:00"}, {"id": 80584, "name": "Amir Amirani", "roles_in_work": [{"id": 3085598, "title": "Letter to America", "work_id": 94009, "role": "producer/director", "role_id": 31, "is_primary": true}], "also_known_as": "", "date_of_birth": null, "date_of_death": null, "genders": [], "languages": [], "places_of_operation": [], "biography": "", "biography_author": null, "date_of_biography": null, "external_links": [], "uuid": "792200f9-6a24-4adb-ad2e-8f9f67aac987", "source": {"name": "Vernon", "slug": "vernon"}, "source_identifier": null, "external_references": [{"id": 36860, "source": {"name": "Wikidata", "slug": "wikidata"}, "source_identifier": "Q117862254"}], "date_modified": "2023-09-05T17:31:47.542290+10:00"}]}