{"count": 28683, "next": "https://api.acmi.net.au/creators/?page=1286", "previous": "https://api.acmi.net.au/creators/?page=1284", "results": [{"id": 39076, "name": "Public Service Board", "roles_in_work": [{"id": 2328668, "title": "The Australian Government System", "work_id": 98769, "role": "production company", "role_id": 941, "is_primary": true}], "also_known_as": "", "date_of_birth": "", "date_of_death": "", "genders": [], "languages": [], "places_of_operation": [], "biography": "", "biography_author": null, "date_of_biography": "2023-05-09T19:22:42.452365+10:00", "external_links": [], "uuid": "e03652ce-b811-4b68-b4a7-2c7df78586e1", "source": {"name": "Vernon", "slug": "vernon"}, "source_identifier": "4456", "external_references": [{"id": 33743, "source": {"name": "Wikidata", "slug": "wikidata"}, "source_identifier": "Q121035260"}], "date_modified": "2023-09-06T00:14:55.649716+10:00"}, {"id": 39075, "name": "Teru Murakami", "roles_in_work": [{"id": 2753455, "title": "Power train", "work_id": 98767, "role": "director", "role_id": 938, "is_primary": true}], "also_known_as": "", "date_of_birth": null, "date_of_death": null, "genders": [], "languages": [], "places_of_operation": [], "biography": "", "biography_author": null, "date_of_biography": null, "external_links": [], "uuid": "e313efb0-f59f-4126-9f39-279a6f3ef1b4", "source": {"name": "Vernon", "slug": "vernon"}, "source_identifier": "29623", "external_references": [], "date_modified": "2025-03-13T01:25:45.387160+11:00"}, {"id": 39074, "name": "Industrial Animation Films", "roles_in_work": [{"id": 2753453, "title": "Power train", "work_id": 98767, "role": "production company", "role_id": 941, "is_primary": true}], "also_known_as": "", "date_of_birth": null, "date_of_death": null, "genders": [], "languages": [], "places_of_operation": [], "biography": "", "biography_author": null, "date_of_biography": null, "external_links": [], "uuid": "874a9f6a-0740-4b6d-b883-a1603d6b98e9", "source": {"name": "Vernon", "slug": "vernon"}, "source_identifier": "9283", "external_references": [], "date_modified": "2025-03-13T01:25:44.178245+11:00"}, {"id": 39073, "name": "Chuck Olin Associates", "roles_in_work": [{"id": 2753445, "title": "Martin Luther King Jnr. - 2nd edition", "work_id": 98764, "role": "production company", "role_id": 941, "is_primary": true}], "also_known_as": "", "date_of_birth": null, "date_of_death": null, "genders": [], "languages": [], "places_of_operation": [], "biography": "", "biography_author": null, "date_of_biography": null, "external_links": [], "uuid": "369b8949-e63a-4e25-89c4-491cfe9bed7c", "source": {"name": "Vernon", "slug": "vernon"}, "source_identifier": "6611", "external_references": [], "date_modified": "2025-03-13T01:25:37.070178+11:00"}, {"id": 39072, "name": "Graeme Blair", "roles_in_work": [{"id": 2753442, "title": "Tee ball", "work_id": 98762, "role": "director", "role_id": 938, "is_primary": true}], "also_known_as": "", "date_of_birth": null, "date_of_death": null, "genders": [], "languages": [], "places_of_operation": [], "biography": "", "biography_author": null, "date_of_biography": null, "external_links": [], "uuid": "9dceef82-b9f8-408a-9521-d620d1620b41", "source": {"name": "Vernon", "slug": "vernon"}, "source_identifier": "19970", "external_references": [], "date_modified": "2025-03-13T01:25:35.344898+11:00"}, {"id": 39071, "name": "Adelaide College of TAFE", "roles_in_work": [{"id": 2753440, "title": "Tee ball", "work_id": 98762, "role": "production company", "role_id": 941, "is_primary": true}, {"id": 2754185, "title": "Mirror, mirror: girls, self esteem & physical activity", "work_id": 99096, "role": "production company", "role_id": 941, "is_primary": true}], "also_known_as": "", "date_of_birth": "", "date_of_death": "", "genders": [], "languages": [], "places_of_operation": [], "biography": "", "biography_author": null, "date_of_biography": "2023-08-14T09:52:21.045232+10:00", "external_links": [], "uuid": "88d0363a-1815-456a-9098-7354bf536f7e", "source": {"name": "Vernon", "slug": "vernon"}, "source_identifier": "5029", "external_references": [], "date_modified": "2025-03-13T01:40:19.868829+11:00"}, {"id": 39070, "name": "Ron Tindall", "roles_in_work": [{"id": 2753439, "title": "Coaching for the first time", "work_id": 98761, "role": "producer", "role_id": 1089, "is_primary": true}], "also_known_as": "", "date_of_birth": "", "date_of_death": "", "genders": [], "languages": [], "places_of_operation": [], "biography": "", "biography_author": null, "date_of_biography": "2023-08-11T15:33:18.646718+10:00", "external_links": [], "uuid": "7efaf724-6313-4200-bc01-ad70983deacc", "source": {"name": "Vernon", "slug": "vernon"}, "source_identifier": "28177", "external_references": [], "date_modified": "2025-03-13T01:25:33.267434+11:00"}, {"id": 39069, "name": "Dep for Youth, Sport and Recreation, Western Australia", "roles_in_work": [{"id": 2753438, "title": "Coaching for the first time", "work_id": 98761, "role": "production company", "role_id": 941, "is_primary": true}], "also_known_as": "", "date_of_birth": "", "date_of_death": "", "genders": [], "languages": [], "places_of_operation": [], "biography": "", "biography_author": null, "date_of_biography": "2023-08-11T15:33:18.027641+10:00", "external_links": [], "uuid": "5fb2cfdc-2ede-41fe-b4b1-a5deb98943e6", "source": {"name": "Vernon", "slug": "vernon"}, "source_identifier": "7409", "external_references": [], "date_modified": "2025-03-13T01:25:32.669621+11:00"}, {"id": 39065, "name": "International Committee of the Red Cross", "roles_in_work": [{"id": 2753425, "title": "ICRC 1983", "work_id": 98755, "role": "production company", "role_id": 941, "is_primary": true}], "also_known_as": "", "date_of_birth": "", "date_of_death": "", "genders": [], "languages": [], "places_of_operation": [], "biography": "", "biography_author": null, "date_of_biography": "2023-08-11T18:17:52.325269+10:00", "external_links": [], "uuid": "2ef76923-6c64-40f6-951d-5e4648b018ca", "source": {"name": "Vernon", "slug": "vernon"}, "source_identifier": "9372", "external_references": [], "date_modified": "2025-03-13T01:25:25.050524+11:00"}, {"id": 39064, "name": "Gyorgy Karpati", "roles_in_work": [{"id": 2471570, "title": "What's in a symbol?", "work_id": 98754, "role": "director", "role_id": 938, "is_primary": true}], "also_known_as": "", "date_of_birth": "", "date_of_death": "", "genders": [], "languages": [], "places_of_operation": [], "biography": "", "biography_author": null, "date_of_biography": "2023-08-14T12:42:13.912522+10:00", "external_links": [], "uuid": "9222cb93-6483-48e5-97d5-9e0dda20ebcd", "source": {"name": "Vernon", "slug": "vernon"}, "source_identifier": "18429", "external_references": [], "date_modified": "2023-08-14T12:42:13.912745+10:00"}]}