{"count": 28687, "next": "https://api.acmi.net.au/creators/?page=1990", "previous": "https://api.acmi.net.au/creators/?page=1988", "results": [{"id": 22793, "name": "Errol Sullivan", "roles_in_work": [{"id": 1978921, "title": "Hoodwink [DVD]", "work_id": 95620, "role": "co-producer", "role_id": 915, "is_primary": true}, {"id": 903590, "title": "Melba", "work_id": 84595, "role": "co-producer", "role_id": 915, "is_primary": true}, {"id": 2337227, "title": "The City's edge", "work_id": 84787, "role": "co-producer", "role_id": 915, "is_primary": true}, {"id": 2133887, "title": "Cathy's Child", "work_id": 80724, "role": "co-producer", "role_id": 915, "is_primary": true}, {"id": 2121015, "title": "Blue Murder: Part 2", "work_id": 116749, "role": "executive producer", "role_id": 916, "is_primary": false}, {"id": 2120995, "title": "Blue Murder: Part 1", "work_id": 116748, "role": "executive producer", "role_id": 916, "is_primary": false}, {"id": 1985131, "title": "Crosstalk", "work_id": 81019, "role": "producer", "role_id": 1089, "is_primary": true}], "also_known_as": "", "date_of_birth": "", "date_of_death": "", "genders": [], "languages": [], "places_of_operation": [], "biography": "", "biography_author": null, "date_of_biography": "2023-05-09T19:33:50.016271+10:00", "external_links": [], "uuid": "881385e6-88d7-4284-951e-f6e3745b663e", "source": {"name": "Vernon", "slug": "vernon"}, "source_identifier": "18881", "external_references": [{"id": 35858, "source": {"name": "Wikidata", "slug": "wikidata"}, "source_identifier": "Q121126030"}], "date_modified": "2023-09-05T19:36:27.606052+10:00"}, {"id": 22787, "name": "Longford", "roles_in_work": [{"id": 2649058, "title": "The Adventures of Barry McKenzie", "work_id": 80719, "role": "production company", "role_id": 941, "is_primary": true}], "also_known_as": "", "date_of_birth": "", "date_of_death": "", "genders": [], "languages": [], "places_of_operation": [], "biography": "", "biography_author": null, "date_of_biography": "2023-05-09T19:19:33.233780+10:00", "external_links": [], "uuid": "6c69dd47-4395-482b-863f-ffac70571057", "source": {"name": "Vernon", "slug": "vernon"}, "source_identifier": "34599", "external_references": [{"id": 36550, "source": {"name": "Wikidata", "slug": "wikidata"}, "source_identifier": "Q121091261"}], "date_modified": "2025-03-05T13:55:49.270279+11:00"}, {"id": 22786, "name": "Window III", "roles_in_work": [{"id": 2118938, "title": "Bliss", "work_id": 80718, "role": "production company", "role_id": 941, "is_primary": true}], "also_known_as": "", "date_of_birth": "", "date_of_death": "", "genders": [], "languages": [], "places_of_operation": [], "biography": "", "biography_author": null, "date_of_biography": "2023-05-09T12:58:04.868986+10:00", "external_links": [], "uuid": "4837d9b0-0023-40a3-8197-055d71805557", "source": {"name": "Vernon", "slug": "vernon"}, "source_identifier": "14391", "external_references": [{"id": 35941, "source": {"name": "Wikidata", "slug": "wikidata"}, "source_identifier": "Q121223168"}], "date_modified": "2023-09-06T02:18:53.197869+10:00"}, {"id": 22776, "name": "Bert Deling", "roles_in_work": [{"id": 1985119, "title": "Dead easy", "work_id": 81015, "role": "director", "role_id": 938, "is_primary": true}, {"id": 2649049, "title": "Dalmas", "work_id": 80694, "role": "producer/director", "role_id": 31, "is_primary": true}], "also_known_as": "", "date_of_birth": null, "date_of_death": null, "genders": [{"id": 9, "name": "Male", "slug": "male"}], "languages": [], "places_of_operation": [], "biography": "Bert Deling is an Australian writer, script editor and director of film and TV best known for the cult classic Pure Shit (1975).", "biography_author": "Wikidata", "date_of_biography": "2022-05-19T10:55:49.535564+10:00", "external_links": [{"id": 1715, "uri": "https://en.wikipedia.org/wiki/Bert_Deling"}], "uuid": "2630dcb0-05c3-4ff8-9eda-3815f42f6b14", "source": {"name": "Vernon", "slug": "vernon"}, "source_identifier": "15868", "external_references": [{"id": 7483, "source": {"name": "Wikidata", "slug": "wikidata"}, "source_identifier": "Q22277550"}], "date_modified": "2025-03-05T13:55:43.141337+11:00"}, {"id": 22775, "name": "Apogee Films", "roles_in_work": [{"id": 2649048, "title": "Dalmas", "work_id": 80694, "role": "production company", "role_id": 941, "is_primary": true}], "also_known_as": "", "date_of_birth": null, "date_of_death": null, "genders": [], "languages": [], "places_of_operation": [], "biography": "", "biography_author": null, "date_of_biography": null, "external_links": [], "uuid": "c0681bc3-c989-4def-b83a-e23e49c4b9fc", "source": {"name": "Vernon", "slug": "vernon"}, "source_identifier": "5313", "external_references": [], "date_modified": "2025-03-05T13:55:42.552527+11:00"}, {"id": 22774, "name": "Barron Films", "roles_in_work": [{"id": 2140286, "title": "Clowning around 2", "work_id": 84189, "role": "production company", "role_id": 941, "is_primary": true}, {"id": 2274264, "title": "Windrider", "work_id": 80979, "role": "production company", "role_id": 941, "is_primary": true}, {"id": 2614490, "title": "Blackfellas", "work_id": 83788, "role": "production company", "role_id": 941, "is_primary": true}, {"id": 2076570, "title": "A Waltz through the hills", "work_id": 84190, "role": "production company", "role_id": 941, "is_primary": true}, {"id": 2296749, "title": "Shame", "work_id": 82772, "role": "production company", "role_id": 941, "is_primary": true}, {"id": 2127882, "title": "Bush Christmas", "work_id": 83815, "role": "production company", "role_id": 941, "is_primary": true}, {"id": 1987897, "title": "Tracks of glory", "work_id": 84186, "role": "production company", "role_id": 941, "is_primary": true}, {"id": 772858, "title": "Fran", "work_id": 80704, "role": "production company", "role_id": 941, "is_primary": true}, {"id": 2238403, "title": "Father", "work_id": 83377, "role": "production company", "role_id": 941, "is_primary": true}, {"id": 2140253, "title": "Clowning around", "work_id": 84188, "role": "production company", "role_id": 941, "is_primary": true}, {"id": 1984690, "title": "Tudawali", "work_id": 80686, "role": "production company", "role_id": 941, "is_primary": true}], "also_known_as": "", "date_of_birth": "", "date_of_death": "", "genders": [], "languages": [], "places_of_operation": [], "biography": "", "biography_author": null, "date_of_biography": "2023-05-09T18:28:53.306448+10:00", "external_links": [], "uuid": "a4d82bc6-097f-46dc-adb0-9bc4dec77b64", "source": {"name": "Vernon", "slug": "vernon"}, "source_identifier": "5730", "external_references": [], "date_modified": "2025-02-26T20:11:31.106064+11:00"}, {"id": 22771, "name": "Victoria Quade", "roles_in_work": [{"id": 2466168, "title": "Standard practice", "work_id": 80681, "role": "director", "role_id": 938, "is_primary": true}], "also_known_as": "", "date_of_birth": "", "date_of_death": "", "genders": [], "languages": [], "places_of_operation": [], "biography": "", "biography_author": null, "date_of_biography": "2023-08-14T10:51:14.443549+10:00", "external_links": [], "uuid": "c2b542ff-9e2d-42f4-8de6-7b9d079931cd", "source": {"name": "Vernon", "slug": "vernon"}, "source_identifier": "30123", "external_references": [], "date_modified": "2023-08-14T10:51:14.443980+10:00"}, {"id": 22770, "name": "Jan Haynes", "roles_in_work": [{"id": 2466167, "title": "Standard practice", "work_id": 80681, "role": "producer", "role_id": 1089, "is_primary": true}], "also_known_as": "", "date_of_birth": "", "date_of_death": "", "genders": [], "languages": [], "places_of_operation": [], "biography": "", "biography_author": null, "date_of_biography": "2023-08-14T10:51:13.821264+10:00", "external_links": [], "uuid": "19a08bf4-a855-49d4-808a-f6406bd8c2bd", "source": {"name": "Vernon", "slug": "vernon"}, "source_identifier": "21373", "external_references": [], "date_modified": "2023-08-14T10:51:13.821586+10:00"}, {"id": 22769, "name": "George Pan Cosmatos", "roles_in_work": [{"id": 2235952, "title": "Rambo: first blood. Part II", "work_id": 84815, "role": "director", "role_id": 938, "is_primary": true}, {"id": 2235476, "title": "Rambo: first blood. Part II (Captioned)", "work_id": 80680, "role": "director", "role_id": 938, "is_primary": true}, {"id": 2285864, "title": "Tombstone", "work_id": 88766, "role": "director", "role_id": 938, "is_primary": true}], "also_known_as": "", "date_of_birth": "1941-01-04", "date_of_death": "2005-04-19", "genders": [{"id": 9, "name": "Male", "slug": "male"}], "languages": [{"id": 81, "name": "Modern Greek", "slug": "modern-greek"}], "places_of_operation": [{"id": 19, "name": "Italy", "slug": "italy"}], "biography": "George Pan Cosmatos (4 January 1941 – 19 April 2005) was a Greek-Italian film director and screenwriter. Following early success in his home country with drama films such as Massacre in Rome with Richard Burton (based on the real-life Ardeatine massacre), Cosmatos retooled his career towards mainstream \"blockbuster\" action and adventure films, including The Cassandra Crossing and Escape to Athena, both of which were British-Italian co-productions. After relocating to North America, he directed the horror film Of Unknown Origin. This was followed by some of his best-known work, including the action films Rambo: First Blood Part II and Cobra (both of which star Sylvester Stallone), the science-fiction horror film Leviathan, and the critically acclaimed Western Tombstone.", "biography_author": "Wikidata", "date_of_biography": "2022-05-19T11:35:56.746512+10:00", "external_links": [{"id": 2122, "uri": "https://en.wikipedia.org/wiki/George_P._Cosmatos"}], "uuid": "89ae22fc-aa98-4e2a-8cb3-59aec02c2cfe", "source": {"name": "Vernon", "slug": "vernon"}, "source_identifier": "19654", "external_references": [{"id": 9139, "source": {"name": "Wikidata", "slug": "wikidata"}, "source_identifier": "Q504722"}, {"id": 9140, "source": {"name": "VIAF", "slug": "viaf"}, "source_identifier": "74045912"}, {"id": 9141, "source": {"name": "LOC Auth", "slug": "loc-auth"}, "source_identifier": "nr97024622"}, {"id": 9142, "source": {"name": "WorldCat", "slug": "worldcat"}, "source_identifier": "lccn-nr97024622"}], "date_modified": "2023-09-13T12:29:37.224358+10:00"}, {"id": 22768, "name": "Tri-Star Pictures", "roles_in_work": [{"id": 1991525, "title": "Hook", "work_id": 87266, "role": "production company", "role_id": 941, "is_primary": true}, {"id": 1996411, "title": "Bugsy", "work_id": 92678, "role": "production company", "role_id": 941, "is_primary": true}, {"id": 2165400, "title": "Matilda", "work_id": 86348, "role": "production company", "role_id": 941, "is_primary": true}, {"id": 1985957, "title": "Glory", "work_id": 81665, "role": "production company", "role_id": 941, "is_primary": true}, {"id": 1985896, "title": "Birdy", "work_id": 81562, "role": "production company", "role_id": 941, "is_primary": true}, {"id": 2152611, "title": "My best friend's wedding", "work_id": 86916, "role": "production company", "role_id": 941, "is_primary": true}, {"id": 2156374, "title": "Jumanji [DVD]", "work_id": 91235, "role": "production company", "role_id": 941, "is_primary": true}, {"id": 2235946, "title": "Rambo: first blood. Part II", "work_id": 84815, "role": "production company", "role_id": 941, "is_primary": true}, {"id": 2302831, "title": "Sleepless in Seattle", "work_id": 86885, "role": "production company", "role_id": 941, "is_primary": true}, {"id": 1990074, "title": "Manhattan murder mystery", "work_id": 85618, "role": "production company", "role_id": 941, "is_primary": true}, {"id": 2152630, "title": "My best friend's wedding (Captioned)", "work_id": 86906, "role": "production company", "role_id": 941, "is_primary": true}, {"id": 2084352, "title": "Alamo Bay", "work_id": 83094, "role": "production company", "role_id": 941, "is_primary": true}, {"id": 1988835, "title": "Total recall", "work_id": 84882, "role": "production company", "role_id": 941, "is_primary": true}, {"id": 2615472, "title": "Husbands and wives", "work_id": 85522, "role": "production company", "role_id": 941, "is_primary": true}, {"id": 924476, "title": "The Blob (1988)", "work_id": 93797, "role": "production company", "role_id": 941, "is_primary": true}, {"id": 2101752, "title": "As good as it gets", "work_id": 87407, "role": "production company", "role_id": 941, "is_primary": true}, {"id": 2101076, "title": "As good as it gets [Widescreen] [Captioned]", "work_id": 87296, "role": "production company", "role_id": 941, "is_primary": true}, {"id": 1995359, "title": "Hook", "work_id": 91451, "role": "production company", "role_id": 941, "is_primary": true}, {"id": 1995225, "title": "In God's hands", "work_id": 91245, "role": "production company", "role_id": 941, "is_primary": true}, {"id": 2475530, "title": "The Mask of Zorro", "work_id": 87982, "role": "production company", "role_id": 941, "is_primary": true}, {"id": 883126, "title": "Serving in silence: the Margarethe Cammermeyer story", "work_id": 93541, "role": "production company", "role_id": 941, "is_primary": true}, {"id": 2474857, "title": "Forever, Lulu", "work_id": 89580, "role": "production company", "role_id": 941, "is_primary": true}, {"id": 2309772, "title": "Starship troopers", "work_id": 88179, "role": "production company", "role_id": 941, "is_primary": true}, {"id": 2331704, "title": "The Big hit [DVD]", "work_id": 94112, "role": "production company", "role_id": 941, "is_primary": true}, {"id": 2474851, "title": "The Quick and the dead", "work_id": 91443, "role": "production company", "role_id": 941, "is_primary": true}, {"id": 1999091, "title": "The Natural", "work_id": 94291, "role": "production company", "role_id": 941, "is_primary": true}, {"id": 2235471, "title": "Rambo: first blood. Part II (Captioned)", "work_id": 80680, "role": "production company", "role_id": 941, "is_primary": true}, {"id": 2176798, "title": "Only you", "work_id": 87809, "role": "production company", "role_id": 941, "is_primary": true}, {"id": 1997166, "title": "Guarding Tess", "work_id": 93148, "role": "production company", "role_id": 941, "is_primary": true}, {"id": 1993764, "title": "Legends of the fall [DVD]", "work_id": 89506, "role": "production company", "role_id": 941, "is_primary": true}, {"id": 909644, "title": "My best friends wedding. Steel magnolias", "work_id": 90393, "role": "production company", "role_id": 941, "is_primary": true}, {"id": 1997516, "title": "Extreme prejudice", "work_id": 93338, "role": "production company", "role_id": 941, "is_primary": true}, {"id": 907805, "title": "Madeline", "work_id": 88193, "role": "production company", "role_id": 941, "is_primary": true}, {"id": 2188493, "title": "Devil in a blue dress", "work_id": 94107, "role": "production company", "role_id": 941, "is_primary": true}, {"id": 1997160, "title": "Peggy Sue got married", "work_id": 93147, "role": "production company", "role_id": 941, "is_primary": true}, {"id": 2614403, "title": "The Fisher king", "work_id": 83629, "role": "production company", "role_id": 941, "is_primary": true}, {"id": 1997500, "title": "I Love you to death", "work_id": 93334, "role": "production company", "role_id": 941, "is_primary": true}, {"id": 2158879, "title": "Mary Shelley's Frankenstein [DVD]", "work_id": 91236, "role": "production company", "role_id": 941, "is_primary": true}, {"id": 1987614, "title": "Gardens of stone", "work_id": 83817, "role": "production company", "role_id": 941, "is_primary": true}], "also_known_as": "", "date_of_birth": "", "date_of_death": "", "genders": [], "languages": [], "places_of_operation": [], "biography": "", "biography_author": null, "date_of_biography": "2023-08-17T15:09:29.641150+10:00", "external_links": [], "uuid": "d1dfbe42-cc1c-4387-ad4c-07d41a416bf8", "source": {"name": "Vernon", "slug": "vernon"}, "source_identifier": "4238", "external_references": [], "date_modified": "2025-02-26T20:24:11.590896+11:00"}]}