{"count": 28687, "next": "https://api.acmi.net.au/creators/?page=1698", "previous": "https://api.acmi.net.au/creators/?page=1696", "results": [{"id": 28684, "name": "Kingsborough Greenlight Pictures", "roles_in_work": [{"id": 2150632, "title": "Nico the unicorn", "work_id": 92393, "role": "production company", "role_id": 941, "is_primary": true}, {"id": 2128901, "title": "Call of the wild", "work_id": 86681, "role": "production company", "role_id": 941, "is_primary": true}], "also_known_as": "", "date_of_birth": "", "date_of_death": "", "genders": [], "languages": [], "places_of_operation": [], "biography": "", "biography_author": null, "date_of_biography": "2023-05-09T13:52:08.188290+10:00", "external_links": [], "uuid": "8b7b401c-66b9-4ccb-ab65-2d7870b3c457", "source": {"name": "Vernon", "slug": "vernon"}, "source_identifier": "9777", "external_references": [{"id": 38103, "source": {"name": "Wikidata", "slug": "wikidata"}, "source_identifier": "Q121160009"}], "date_modified": "2023-09-05T22:09:33.586032+10:00"}, {"id": 28683, "name": "Fries/Schultz Film Group", "roles_in_work": [{"id": 2128899, "title": "Call of the wild", "work_id": 86681, "role": "production company", "role_id": 941, "is_primary": true}, {"id": 2150628, "title": "Nico the unicorn", "work_id": 92393, "role": "production company", "role_id": 941, "is_primary": true}], "also_known_as": "", "date_of_birth": "", "date_of_death": "", "genders": [], "languages": [], "places_of_operation": [], "biography": "", "biography_author": null, "date_of_biography": "2023-05-09T13:52:07.960667+10:00", "external_links": [], "uuid": "364dc30b-3657-41b2-ae5b-68ff907bf7dc", "source": {"name": "Vernon", "slug": "vernon"}, "source_identifier": "8574", "external_references": [{"id": 43616, "source": {"name": "Wikidata", "slug": "wikidata"}, "source_identifier": "Q121270769"}], "date_modified": "2023-09-05T19:54:27.904472+10:00"}, {"id": 28682, "name": "Hallmark Entertainment", "roles_in_work": [{"id": 2128897, "title": "Call of the wild", "work_id": 86681, "role": "production company", "role_id": 941, "is_primary": true}, {"id": 880303, "title": "Arabian Nights", "work_id": 92337, "role": "production company", "role_id": 941, "is_primary": true}, {"id": 2084812, "title": "Alice in wonderland", "work_id": 87478, "role": "production company", "role_id": 941, "is_primary": true}], "also_known_as": "", "date_of_birth": "", "date_of_death": "", "genders": [], "languages": [], "places_of_operation": [], "biography": "", "biography_author": null, "date_of_biography": "2023-05-09T13:15:59.280935+10:00", "external_links": [], "uuid": "82f74e4d-8880-45ea-83c8-74d9ff8cdc78", "source": {"name": "Vernon", "slug": "vernon"}, "source_identifier": "8971", "external_references": [], "date_modified": "2023-06-14T16:33:30.576250+10:00"}, {"id": 28662, "name": "Motion Picture Corporation of America", "roles_in_work": [{"id": 2084193, "title": "Albino alligator", "work_id": 86665, "role": "production company", "role_id": 941, "is_primary": true}], "also_known_as": "", "date_of_birth": "", "date_of_death": "", "genders": [], "languages": [], "places_of_operation": [], "biography": "Motion Picture Corporation of America (MPCA) is an American film production compan  specializing in the production, acquisition and distribution of low-budget films.", "biography_author": "Wikidata", "date_of_biography": "2023-09-05T23:22:00.775614+10:00", "external_links": [{"id": 6051, "uri": "https://en.wikipedia.org/wiki/Motion_Picture_Corporation_of_America"}], "uuid": "1cca6fb0-cf77-458c-8984-6bbd4ef5d62d", "source": {"name": "Vernon", "slug": "vernon"}, "source_identifier": "10660", "external_references": [{"id": 51987, "source": {"name": "Wikidata", "slug": "wikidata"}, "source_identifier": "Q6917750"}], "date_modified": "2023-09-05T23:22:00.804121+10:00"}, {"id": 28661, "name": "Optomen Television", "roles_in_work": [{"id": 2286592, "title": "Two fat ladies: a gastronomical adventure", "work_id": 86664, "role": "production company", "role_id": 941, "is_primary": true}], "also_known_as": "", "date_of_birth": "", "date_of_death": "", "genders": [], "languages": [], "places_of_operation": [], "biography": "", "biography_author": null, "date_of_biography": "2023-05-09T18:10:55.244102+10:00", "external_links": [], "uuid": "8a9e601f-88fa-449a-9107-8f4c4b54b596", "source": {"name": "Vernon", "slug": "vernon"}, "source_identifier": "11158", "external_references": [], "date_modified": "2023-06-14T16:33:30.576250+10:00"}, {"id": 28659, "name": "CBS Entertainment", "roles_in_work": [{"id": 2294699, "title": "The Twilight zone. Volume 1", "work_id": 86660, "role": "production company", "role_id": 941, "is_primary": true}], "also_known_as": "", "date_of_birth": "", "date_of_death": "", "genders": [], "languages": [], "places_of_operation": [], "biography": "", "biography_author": null, "date_of_biography": "2023-05-09T18:25:16.102040+10:00", "external_links": [], "uuid": "c8a83a84-582f-4d6f-ac76-8df54289ed7d", "source": {"name": "Vernon", "slug": "vernon"}, "source_identifier": "6367", "external_references": [{"id": 36571, "source": {"name": "Wikidata", "slug": "wikidata"}, "source_identifier": "Q121126142"}], "date_modified": "2023-09-05T18:23:12.094920+10:00"}, {"id": 28653, "name": "Shooting Gallery", "roles_in_work": [{"id": 2302889, "title": "Sling blade", "work_id": 86658, "role": "production company", "role_id": 941, "is_primary": true}, {"id": 2270685, "title": "You can count on me", "work_id": 93961, "role": "production company", "role_id": 941, "is_primary": true}], "also_known_as": "", "date_of_birth": "", "date_of_death": "", "genders": [], "languages": [], "places_of_operation": [], "biography": "", "biography_author": null, "date_of_biography": "2023-05-09T18:40:09.227124+10:00", "external_links": [], "uuid": "a00a61fd-df7c-4235-a5f4-ab021f144a44", "source": {"name": "Vernon", "slug": "vernon"}, "source_identifier": "12547", "external_references": [{"id": 41014, "source": {"name": "Wikidata", "slug": "wikidata"}, "source_identifier": "Q121126232"}], "date_modified": "2023-09-06T01:16:56.960964+10:00"}, {"id": 28652, "name": "Assocaited British Picture Corp", "roles_in_work": [{"id": 2341896, "title": "The Dambusters", "work_id": 86657, "role": "production company", "role_id": 941, "is_primary": true}], "also_known_as": "", "date_of_birth": "", "date_of_death": "", "genders": [], "languages": [], "places_of_operation": [], "biography": "", "biography_author": null, "date_of_biography": "2023-05-09T19:40:45.162204+10:00", "external_links": [], "uuid": "75242ec6-b2d4-4c19-8605-d6e5d10be276", "source": {"name": "Vernon", "slug": "vernon"}, "source_identifier": "5456", "external_references": [{"id": 41012, "source": {"name": "Wikidata", "slug": "wikidata"}, "source_identifier": "Q121078877"}], "date_modified": "2023-09-05T17:48:49.205885+10:00"}, {"id": 28651, "name": "Ivan Foxwell", "roles_in_work": [{"id": 1991482, "title": "The Quiller memorandum", "work_id": 87204, "role": "producer", "role_id": 1089, "is_primary": true}, {"id": 2339406, "title": "The Colditz story", "work_id": 86656, "role": "producer", "role_id": 1089, "is_primary": true}], "also_known_as": "", "date_of_birth": "1914-02-22", "date_of_death": "2002-01-16", "genders": [{"id": 9, "name": "Male", "slug": "male"}], "languages": [{"id": 1, "name": "English", "slug": "english"}], "places_of_operation": [{"id": 10, "name": "United Kingdom", "slug": "united-kingdom"}], "biography": "Ivan Cottam Foxwell (22 February 1914 – 16 January 2002) was a British screenwriter and film producer. The screenplay for Tiara Tahiti on which he worked was nominated for the BAFTA Award for Best British Screenplay in 1962.Foxwell died in London at the age of 87.", "biography_author": "Wikidata", "date_of_biography": "2022-05-19T11:48:51.337311+10:00", "external_links": [{"id": 2272, "uri": "https://en.wikipedia.org/wiki/Ivan_Foxwell"}], "uuid": "91f0800e-9e32-4bf5-afc1-57d5c5315ce2", "source": {"name": "Vernon", "slug": "vernon"}, "source_identifier": "20918", "external_references": [{"id": 9758, "source": {"name": "Wikidata", "slug": "wikidata"}, "source_identifier": "Q16015529"}, {"id": 9759, "source": {"name": "VIAF", "slug": "viaf"}, "source_identifier": "32259243"}, {"id": 9760, "source": {"name": "LOC Auth", "slug": "loc-auth"}, "source_identifier": "nr2005011312"}, {"id": 9761, "source": {"name": "WorldCat", "slug": "worldcat"}, "source_identifier": "lccn-nr2005011312"}], "date_modified": "2023-09-13T12:30:07.075402+10:00"}, {"id": 28650, "name": "Rapid Film GmbH", "roles_in_work": [{"id": 2148206, "title": "Cross of iron", "work_id": 86655, "role": "production company", "role_id": 941, "is_primary": true}], "also_known_as": "", "date_of_birth": "", "date_of_death": "", "genders": [], "languages": [], "places_of_operation": [], "biography": "", "biography_author": null, "date_of_biography": "2023-05-09T13:48:49.459776+10:00", "external_links": [], "uuid": "1563988f-5264-4dde-a0bd-277f22c10943", "source": {"name": "Vernon", "slug": "vernon"}, "source_identifier": "11866", "external_references": [{"id": 32895, "source": {"name": "Wikidata", "slug": "wikidata"}, "source_identifier": "Q121337348"}], "date_modified": "2023-09-06T00:21:28.229187+10:00"}]}