{"count": 28687, "next": "https://api.acmi.net.au/creators/?page=1318", "previous": "https://api.acmi.net.au/creators/?page=1316", "results": [{"id": 38616, "name": "M B Oldfield and Sons", "roles_in_work": [{"id": 2751586, "title": "St Barbe of the trees", "work_id": 97881, "role": "production company", "role_id": 941, "is_primary": true}], "also_known_as": "", "date_of_birth": "", "date_of_death": "", "genders": [], "languages": [], "places_of_operation": [], "biography": "", "biography_author": null, "date_of_biography": "2023-08-14T10:49:56.151323+10:00", "external_links": [], "uuid": "c01085d6-86d7-4fb8-b0c5-6b9386166a1e", "source": {"name": "Vernon", "slug": "vernon"}, "source_identifier": "10197", "external_references": [], "date_modified": "2025-03-13T00:46:26.602389+11:00"}, {"id": 38615, "name": "Oldfield and Sons", "roles_in_work": [{"id": 2751584, "title": "What am I bid for the tree?", "work_id": 97880, "role": "production company", "role_id": 941, "is_primary": true}], "also_known_as": "", "date_of_birth": "", "date_of_death": "", "genders": [], "languages": [], "places_of_operation": [], "biography": "", "biography_author": null, "date_of_biography": "2023-08-14T12:42:18.871097+10:00", "external_links": [], "uuid": "5704f7d4-0cab-4c6a-a912-2e364d0cd5d9", "source": {"name": "Vernon", "slug": "vernon"}, "source_identifier": "11113", "external_references": [], "date_modified": "2025-03-13T00:46:25.096668+11:00"}, {"id": 38614, "name": "Frank Christopher", "roles_in_work": [{"id": 2751580, "title": "Whales that wouldn't die", "work_id": 97877, "role": "director", "role_id": 938, "is_primary": true}], "also_known_as": "", "date_of_birth": "", "date_of_death": "", "genders": [], "languages": [], "places_of_operation": [], "biography": "", "biography_author": null, "date_of_biography": "2023-08-14T12:41:52.072584+10:00", "external_links": [], "uuid": "a7304632-a4e4-4c99-9e2c-270d166bb345", "source": {"name": "Vernon", "slug": "vernon"}, "source_identifier": "19103", "external_references": [], "date_modified": "2025-03-13T00:46:21.650673+11:00"}, {"id": 38613, "name": "Susan K Pollock", "roles_in_work": [{"id": 2751579, "title": "Whales that wouldn't die", "work_id": 97877, "role": "producer", "role_id": 1089, "is_primary": true}], "also_known_as": "", "date_of_birth": "", "date_of_death": "", "genders": [], "languages": [], "places_of_operation": [], "biography": "", "biography_author": null, "date_of_biography": "2023-08-14T12:41:51.425155+10:00", "external_links": [], "uuid": "43b74ae2-85d1-4e53-bfee-10d3b2247d6d", "source": {"name": "Vernon", "slug": "vernon"}, "source_identifier": "29342", "external_references": [], "date_modified": "2025-03-13T00:46:21.023949+11:00"}, {"id": 38612, "name": "KPBS (Television station : San Diego, Calif.)", "roles_in_work": [{"id": 2751578, "title": "Whales that wouldn't die", "work_id": 97877, "role": "production company", "role_id": 941, "is_primary": true}], "also_known_as": "", "date_of_birth": "", "date_of_death": "", "genders": [], "languages": [], "places_of_operation": [], "biography": "", "biography_author": null, "date_of_biography": "2023-08-14T12:41:50.792019+10:00", "external_links": [], "uuid": "f9065669-caff-4c83-8a28-2d062e026c82", "source": {"name": "Vernon", "slug": "vernon"}, "source_identifier": "4556", "external_references": [], "date_modified": "2025-03-13T00:46:20.415885+11:00"}, {"id": 38611, "name": "Hearst Corporation", "roles_in_work": [{"id": 2751568, "title": "Henry Ford 1863-1947", "work_id": 97870, "role": "production company", "role_id": 941, "is_primary": true}, {"id": 2751571, "title": "Thomas Edison 1847-1931", "work_id": 97872, "role": "production company", "role_id": 941, "is_primary": true}], "also_known_as": "", "date_of_birth": "", "date_of_death": "", "genders": [], "languages": [], "places_of_operation": [], "biography": "", "biography_author": null, "date_of_biography": "2023-08-11T17:18:35.121564+10:00", "external_links": [], "uuid": "ef1cbeb8-bd70-4e7e-852d-4bb0ba5f9c28", "source": {"name": "Vernon", "slug": "vernon"}, "source_identifier": "9045", "external_references": [], "date_modified": "2025-03-13T00:46:15.176296+11:00"}, {"id": 38610, "name": "Thunderbird Films", "roles_in_work": [{"id": 2754761, "title": "The Pawnshop; The Floorwalker; The rink; One a.m.", "work_id": 99349, "role": "production company", "role_id": 941, "is_primary": true}], "also_known_as": "", "date_of_birth": null, "date_of_death": null, "genders": [], "languages": [], "places_of_operation": [], "biography": "", "biography_author": null, "date_of_biography": null, "external_links": [], "uuid": "97b5f896-09f3-4f55-b5ec-da60254f907b", "source": {"name": "Vernon", "slug": "vernon"}, "source_identifier": "13507", "external_references": [], "date_modified": "2025-03-13T01:50:50.911297+11:00"}, {"id": 38608, "name": "Kali Productions", "roles_in_work": [{"id": 2751564, "title": "Punkline", "work_id": 97869, "role": "production company", "role_id": 941, "is_primary": true}], "also_known_as": "", "date_of_birth": "", "date_of_death": "", "genders": [], "languages": [], "places_of_operation": [], "biography": "", "biography_author": null, "date_of_biography": "2023-05-09T16:42:17.834353+10:00", "external_links": [], "uuid": "414d266a-92a6-4cdd-be54-2c3d09ff15bc", "source": {"name": "Vernon", "slug": "vernon"}, "source_identifier": "9693", "external_references": [{"id": 37811, "source": {"name": "Wikidata", "slug": "wikidata"}, "source_identifier": "Q121078860"}], "date_modified": "2025-03-13T00:46:10.695589+11:00"}, {"id": 38604, "name": "Saul Rubin", "roles_in_work": [{"id": 2409123, "title": "Have a heart", "work_id": 97867, "role": "producer", "role_id": 1089, "is_primary": true}], "also_known_as": "", "date_of_birth": "", "date_of_death": "", "genders": [], "languages": [], "places_of_operation": [], "biography": "", "biography_author": null, "date_of_biography": "2023-08-11T17:15:38.797018+10:00", "external_links": [], "uuid": "aa4e8c64-c728-4eae-b752-bd40596ba745", "source": {"name": "Vernon", "slug": "vernon"}, "source_identifier": "28615", "external_references": [], "date_modified": "2023-08-11T17:15:38.797263+10:00"}, {"id": 38603, "name": "Tantalus Films", "roles_in_work": [{"id": 2409122, "title": "Have a heart", "work_id": 97867, "role": "production company", "role_id": 941, "is_primary": true}], "also_known_as": "", "date_of_birth": "", "date_of_death": "", "genders": [], "languages": [], "places_of_operation": [], "biography": "", "biography_author": null, "date_of_biography": "2023-08-11T17:15:38.170195+10:00", "external_links": [], "uuid": "699b890c-ddbb-45db-b08e-66c44ce75e96", "source": {"name": "Vernon", "slug": "vernon"}, "source_identifier": "13156", "external_references": [], "date_modified": "2023-08-11T17:15:38.170441+10:00"}]}