{"count": 28681, "next": "https://api.acmi.net.au/creators/?page=1560", "previous": "https://api.acmi.net.au/creators/?page=1558", "results": [{"id": 32057, "name": "Marcel Reichenbach", "roles_in_work": [{"id": 2410251, "title": "Hungry angels", "work_id": 90277, "role": "director", "role_id": 938, "is_primary": true}], "also_known_as": "", "date_of_birth": "", "date_of_death": "", "genders": [], "languages": [], "places_of_operation": [], "biography": "", "biography_author": null, "date_of_biography": "2023-08-11T17:38:12.861047+10:00", "external_links": [], "uuid": "a78bac03-d5f1-4b78-8b78-caa79bc46e0d", "source": {"name": "Vernon", "slug": "vernon"}, "source_identifier": "24305", "external_references": [], "date_modified": "2023-08-11T17:38:12.861273+10:00"}, {"id": 32056, "name": "Carlos M. Monson Malice", "roles_in_work": [{"id": 2410250, "title": "Hungry angels", "work_id": 90277, "role": "producer", "role_id": 1089, "is_primary": true}], "also_known_as": "", "date_of_birth": "", "date_of_death": "", "genders": [], "languages": [], "places_of_operation": [], "biography": "", "biography_author": null, "date_of_biography": "2023-08-11T17:38:12.214605+10:00", "external_links": [], "uuid": "ed155614-adfa-41ae-8970-5a010944c665", "source": {"name": "Vernon", "slug": "vernon"}, "source_identifier": "18423", "external_references": [], "date_modified": "2023-08-11T17:38:12.214847+10:00"}, {"id": 32055, "name": "Reimon Productions", "roles_in_work": [{"id": 2410249, "title": "Hungry angels", "work_id": 90277, "role": "production company", "role_id": 941, "is_primary": true}], "also_known_as": "", "date_of_birth": "", "date_of_death": "", "genders": [], "languages": [], "places_of_operation": [], "biography": "", "biography_author": null, "date_of_biography": "2023-08-11T17:38:11.579090+10:00", "external_links": [], "uuid": "6f7d75da-c00f-4fe4-8f47-705462931f17", "source": {"name": "Vernon", "slug": "vernon"}, "source_identifier": "11941", "external_references": [], "date_modified": "2023-08-11T17:38:11.579327+10:00"}, {"id": 32054, "name": "Dominion Reviews", "roles_in_work": [{"id": 2396582, "title": "[Maori days]", "work_id": 90275, "role": "production company", "role_id": 941, "is_primary": true}], "also_known_as": "", "date_of_birth": "", "date_of_death": "", "genders": [], "languages": [], "places_of_operation": [], "biography": "", "biography_author": null, "date_of_biography": "2023-08-11T12:38:53.248573+10:00", "external_links": [], "uuid": "f9d6ea2c-c957-4cb4-bd2e-ae2750e00508", "source": {"name": "Vernon", "slug": "vernon"}, "source_identifier": "7629", "external_references": [], "date_modified": "2023-08-11T12:38:53.248853+10:00"}, {"id": 32047, "name": "Peter Wang", "roles_in_work": [{"id": 1994352, "title": "A Great wall", "work_id": 90267, "role": "director", "role_id": 938, "is_primary": true}], "also_known_as": "", "date_of_birth": "1938-01-01", "date_of_death": null, "genders": [{"id": 9, "name": "Male", "slug": "male"}], "languages": [{"id": 1, "name": "English", "slug": "english"}], "places_of_operation": [{"id": 1, "name": "United States of America", "slug": "united-states-of-america"}], "biography": "Peter Wang (Chinese: 王正方; pinyin: Wáng Zhèngfāng) is a Taiwanese actor and director from Beijing. He is best known for writing and directing the 1986 film, A Great Wall, the first American feature  to be co-produced by the People's Republic of China.Wang was born in Beijing but grew up in Taiwan following the Chinese Communist Revolution in 1949. Wang came to the United States in the 1970s to pursue a PhD  in electro-optics at the University of Pennsylvania but during a teaching stint at San Mateo College in the Bay Area, he began acting at San Francisco's Asian Living Theatre. Wang's first film role came as Henry, a singing Chinatown chef, in Wayne Wang's Chan Is Missing (1982). In 1983, Wang and producer Shirley Sun partnered with the Chinese production company, Nanhai, and this led to Wang writing, directing and starring in A Great Wall. For 1988's sci-fi film The Laser Man, Wang revisited his experiences in graduate school where he had studied laser weapon research.", "biography_author": "Wikidata", "date_of_biography": "2022-05-19T12:43:00.396635+10:00", "external_links": [{"id": 2867, "uri": "https://en.wikipedia.org/wiki/Peter_Wang"}], "uuid": "9fa2ea10-dd50-4f99-8d0e-a8d7d654ef74", "source": {"name": "Vernon", "slug": "vernon"}, "source_identifier": "26743", "external_references": [{"id": 12189, "source": {"name": "Wikidata", "slug": "wikidata"}, "source_identifier": "Q21932227"}], "date_modified": "2023-09-13T12:31:57.899432+10:00"}, {"id": 32046, "name": "Nanhai Film Company", "roles_in_work": [{"id": 2651077, "title": "The Visitor from California = Jia Zhou Lai Ke", "work_id": 115798, "role": "production company", "role_id": 941, "is_primary": true}, {"id": 1994350, "title": "A Great wall", "work_id": 90267, "role": "production company", "role_id": 941, "is_primary": true}], "also_known_as": "", "date_of_birth": "", "date_of_death": "", "genders": [], "languages": [], "places_of_operation": [], "biography": "", "biography_author": null, "date_of_biography": "2023-08-14T11:39:39.717180+10:00", "external_links": [], "uuid": "00a8759f-c4a5-4bda-8556-361d1a70ba92", "source": {"name": "Vernon", "slug": "vernon"}, "source_identifier": "10756", "external_references": [], "date_modified": "2025-03-05T14:26:14.204697+11:00"}, {"id": 32043, "name": "CIM Productions", "roles_in_work": [{"id": 2191203, "title": "Dim Sum = A Little bit of heart", "work_id": 90266, "role": "production company", "role_id": 941, "is_primary": true}], "also_known_as": "", "date_of_birth": "", "date_of_death": "", "genders": [], "languages": [], "places_of_operation": [], "biography": "", "biography_author": null, "date_of_biography": "2023-05-09T15:09:19.452581+10:00", "external_links": [], "uuid": "542eb189-b186-43f4-a5fb-d6c2f1586e06", "source": {"name": "Vernon", "slug": "vernon"}, "source_identifier": "6639", "external_references": [{"id": 32393, "source": {"name": "Wikidata", "slug": "wikidata"}, "source_identifier": "Q121079437"}], "date_modified": "2023-09-05T18:37:24.513007+10:00"}, {"id": 32039, "name": "Bandai, Shockiku-Fuji, Institute of the Contemporary Arts", "roles_in_work": [{"id": 2122146, "title": "Boiling point = 3-4x jagutsu", "work_id": 90263, "role": "production company", "role_id": 941, "is_primary": true}], "also_known_as": "", "date_of_birth": "", "date_of_death": "", "genders": [], "languages": [], "places_of_operation": [], "biography": "", "biography_author": null, "date_of_biography": "2023-05-09T13:05:19.236314+10:00", "external_links": [], "uuid": "0313f8fb-2908-49a9-b3da-d59e17c102f0", "source": {"name": "Vernon", "slug": "vernon"}, "source_identifier": "5703", "external_references": [{"id": 41597, "source": {"name": "Wikidata", "slug": "wikidata"}, "source_identifier": "Q121034400"}], "date_modified": "2023-09-05T17:52:42.999485+10:00"}, {"id": 32037, "name": "Jay J Sheridan and Company", "roles_in_work": [{"id": 2467511, "title": "The Man from East Liverpool: Ben Feldman", "work_id": 90261, "role": "production company", "role_id": 941, "is_primary": true}], "also_known_as": "", "date_of_birth": "", "date_of_death": "", "genders": [], "languages": [], "places_of_operation": [], "biography": "", "biography_author": null, "date_of_biography": "2023-08-14T11:21:42.379688+10:00", "external_links": [], "uuid": "9f30f6f5-c693-4a68-adad-2246adc8b1e0", "source": {"name": "Vernon", "slug": "vernon"}, "source_identifier": "9569", "external_references": [], "date_modified": "2023-08-14T11:21:42.379908+10:00"}, {"id": 32032, "name": "Lew Fonseca", "roles_in_work": [{"id": 2406448, "title": "Double play: kings of baseball", "work_id": 90241, "role": "director", "role_id": 938, "is_primary": true}], "also_known_as": "", "date_of_birth": "", "date_of_death": "", "genders": [], "languages": [], "places_of_operation": [], "biography": "", "biography_author": null, "date_of_biography": "2023-08-11T16:13:50.207214+10:00", "external_links": [], "uuid": "7eeb7990-7b67-4093-a345-365dbbb24829", "source": {"name": "Vernon", "slug": "vernon"}, "source_identifier": "23800", "external_references": [], "date_modified": "2023-08-11T16:13:50.207481+10:00"}]}