{"count": 28687, "next": "https://api.acmi.net.au/creators/?page=1798", "previous": "https://api.acmi.net.au/creators/?page=1796", "results": [{"id": 26430, "name": "KTV Productions", "roles_in_work": [{"id": 2789946, "title": "Visual story telling", "work_id": 84473, "role": "production company", "role_id": 941, "is_primary": true}, {"id": 2789950, "title": "Crew roles and responsibilities", "work_id": 84474, "role": "production company", "role_id": 941, "is_primary": true}, {"id": 2789954, "title": "On screen direction", "work_id": 84475, "role": "production company", "role_id": 941, "is_primary": true}, {"id": 2789958, "title": "First principles of editing", "work_id": 84476, "role": "production company", "role_id": 941, "is_primary": true}, {"id": 2789962, "title": "Advanced editing", "work_id": 84477, "role": "production company", "role_id": 941, "is_primary": true}, {"id": 2789918, "title": "The Camera and the tripod", "work_id": 84466, "role": "production company", "role_id": 941, "is_primary": true}, {"id": 2789970, "title": "Entertainment storytelling", "work_id": 84479, "role": "production company", "role_id": 941, "is_primary": true}, {"id": 2789974, "title": "Video tech", "work_id": 115399, "role": "production company", "role_id": 941, "is_primary": true}, {"id": 2789914, "title": "Introduction to video", "work_id": 84465, "role": "production company", "role_id": 941, "is_primary": true}, {"id": 2789966, "title": "News story telling: events and issues", "work_id": 84478, "role": "production company", "role_id": 941, "is_primary": true}, {"id": 2789922, "title": "The Moving camera, the moving subject", "work_id": 84467, "role": "production company", "role_id": 941, "is_primary": true}, {"id": 2789926, "title": "Video sound", "work_id": 84468, "role": "production company", "role_id": 941, "is_primary": true}, {"id": 2789930, "title": "Shooting on location", "work_id": 84469, "role": "production company", "role_id": 941, "is_primary": true}, {"id": 2789934, "title": "Researching the story", "work_id": 84470, "role": "production company", "role_id": 941, "is_primary": true}, {"id": 2789938, "title": "Story structures: finding the hook", "work_id": 84471, "role": "production company", "role_id": 941, "is_primary": true}, {"id": 2789942, "title": "The Interview, the 180 rule", "work_id": 84472, "role": "production company", "role_id": 941, "is_primary": true}], "also_known_as": "", "date_of_birth": null, "date_of_death": null, "genders": [], "languages": [], "places_of_operation": [], "biography": "", "biography_author": null, "date_of_biography": null, "external_links": [], "uuid": "27fafc90-f94d-4c5f-b0df-c0396d846502", "source": {"name": "Vernon", "slug": "vernon"}, "source_identifier": "9847", "external_references": [], "date_modified": "2025-03-14T19:53:39.381563+11:00"}, {"id": 26429, "name": "Coastal Community Colleges", "roles_in_work": [{"id": 2789811, "title": "The Milky way", "work_id": 84452, "role": "production company", "role_id": 941, "is_primary": true}, {"id": 2789814, "title": "Galaxies", "work_id": 84453, "role": "production company", "role_id": 941, "is_primary": true}, {"id": 2789817, "title": "Peculiar galaxies", "work_id": 84454, "role": "production company", "role_id": 941, "is_primary": true}, {"id": 2789820, "title": "The Big bang", "work_id": 84455, "role": "production company", "role_id": 941, "is_primary": true}, {"id": 2789823, "title": "The Fate of the universe", "work_id": 84456, "role": "production company", "role_id": 941, "is_primary": true}, {"id": 2789826, "title": "The Origin of the solar system", "work_id": 84457, "role": "production company", "role_id": 941, "is_primary": true}, {"id": 2789829, "title": "Planet Earth", "work_id": 84458, "role": "production company", "role_id": 941, "is_primary": true}, {"id": 2789832, "title": "The Moon and Mercury", "work_id": 84459, "role": "production company", "role_id": 941, "is_primary": true}, {"id": 2789835, "title": "Venus and Mars", "work_id": 84460, "role": "production company", "role_id": 941, "is_primary": true}, {"id": 2789838, "title": "Jupiter and Saturn", "work_id": 84461, "role": "production company", "role_id": 941, "is_primary": true}, {"id": 2789841, "title": "Uranus, Neptune and Pluto", "work_id": 84462, "role": "production company", "role_id": 941, "is_primary": true}, {"id": 2789844, "title": "Meteorites, asteroids and comets", "work_id": 84463, "role": "production company", "role_id": 941, "is_primary": true}, {"id": 2789847, "title": "Life on other worlds", "work_id": 84464, "role": "production company", "role_id": 941, "is_primary": true}, {"id": 2789775, "title": "The Sky", "work_id": 84440, "role": "production company", "role_id": 941, "is_primary": true}, {"id": 2789805, "title": "The Death of stars", "work_id": 84450, "role": "production company", "role_id": 941, "is_primary": true}, {"id": 2789802, "title": "The Lives of stars", "work_id": 84449, "role": "production company", "role_id": 941, "is_primary": true}, {"id": 2789799, "title": "Stellar formations", "work_id": 84448, "role": "production company", "role_id": 941, "is_primary": true}, {"id": 2789796, "title": "Stellar properties", "work_id": 84447, "role": "production company", "role_id": 941, "is_primary": true}, {"id": 2789793, "title": "The Sun", "work_id": 84446, "role": "production company", "role_id": 941, "is_primary": true}, {"id": 2789790, "title": "Atoms and starlight", "work_id": 84445, "role": "production company", "role_id": 941, "is_primary": true}, {"id": 2789787, "title": "The Tools of astronomy", "work_id": 84444, "role": "production company", "role_id": 941, "is_primary": true}, {"id": 2789784, "title": "Newton, Einstein and gravity", "work_id": 84443, "role": "production company", "role_id": 941, "is_primary": true}, {"id": 2789781, "title": "The Origin of modern astronomy", "work_id": 84442, "role": "production company", "role_id": 941, "is_primary": true}, {"id": 2789778, "title": "Cycles of the sky", "work_id": 84441, "role": "production company", "role_id": 941, "is_primary": true}, {"id": 2789808, "title": "Neutron stars and black holes", "work_id": 84451, "role": "production company", "role_id": 941, "is_primary": true}], "also_known_as": "", "date_of_birth": null, "date_of_death": null, "genders": [], "languages": [], "places_of_operation": [], "biography": "", "biography_author": null, "date_of_biography": null, "external_links": [], "uuid": "d809c3c3-2cab-44e9-86ce-01f35aa0ac0b", "source": {"name": "Vernon", "slug": "vernon"}, "source_identifier": "6851", "external_references": [], "date_modified": "2025-03-14T19:53:15.375947+11:00"}, {"id": 26427, "name": "Jacqui Sykes", "roles_in_work": [{"id": 903406, "title": "A Day in the life of a child", "work_id": 84438, "role": "co-producers/directors", "role_id": 628, "is_primary": true}, {"id": 2753583, "title": "Solar cells outback", "work_id": 98836, "role": "producer", "role_id": 1089, "is_primary": true}], "also_known_as": "", "date_of_birth": null, "date_of_death": null, "genders": [], "languages": [], "places_of_operation": [], "biography": "", "biography_author": null, "date_of_biography": null, "external_links": [], "uuid": "f1d42a7e-5d0a-4423-a946-7d340e6e048d", "source": {"name": "Vernon", "slug": "vernon"}, "source_identifier": "21169", "external_references": [], "date_modified": "2025-03-13T01:27:18.197801+11:00"}, {"id": 26426, "name": "Woodside Petroleum Ltd", "roles_in_work": [{"id": 2752223, "title": "Born in fire", "work_id": 98199, "role": "production company", "role_id": 941, "is_primary": true}, {"id": 2614859, "title": "Against all odds: the story of Australia's North West Shelf Gas Project", "work_id": 84435, "role": "production company", "role_id": 941, "is_primary": true}], "also_known_as": "", "date_of_birth": null, "date_of_death": null, "genders": [], "languages": [], "places_of_operation": [], "biography": "", "biography_author": null, "date_of_biography": null, "external_links": [], "uuid": "f8dfb02b-7490-4afc-b98a-24ce609374c8", "source": {"name": "Vernon", "slug": "vernon"}, "source_identifier": "4032", "external_references": [], "date_modified": "2025-03-13T01:00:59.722732+11:00"}, {"id": 26425, "name": "Institute of Educational Administration", "roles_in_work": [{"id": 2789690, "title": "Case studies in effective schooling", "work_id": 115397, "role": "production company", "role_id": 941, "is_primary": true}, {"id": 2789688, "title": "Professional Development", "work_id": 84434, "role": "production company", "role_id": 941, "is_primary": true}, {"id": 2789685, "title": "Whole School Planning", "work_id": 84433, "role": "production company", "role_id": 941, "is_primary": true}, {"id": 939955, "title": "Decisive discipline: every move you make", "work_id": 99310, "role": "production company", "role_id": 941, "is_primary": true}, {"id": 2754485, "title": "It's OK to be deaf", "work_id": 99227, "role": "production company", "role_id": 941, "is_primary": true}, {"id": 2754479, "title": "Attitudes are everything", "work_id": 99225, "role": "production company", "role_id": 941, "is_primary": true}], "also_known_as": "", "date_of_birth": "", "date_of_death": "", "genders": [], "languages": [], "places_of_operation": [], "biography": "", "biography_author": null, "date_of_biography": "2023-07-05T03:50:33.263822+10:00", "external_links": [], "uuid": "20954f3c-52bf-4d36-81b5-aca4dcd7c846", "source": {"name": "Vernon", "slug": "vernon"}, "source_identifier": "9320", "external_references": [{"id": 36792, "source": {"name": "Wikidata", "slug": "wikidata"}, "source_identifier": "Q121086055"}], "date_modified": "2025-03-14T19:52:53.791776+11:00"}, {"id": 26424, "name": "Gary Johnstone", "roles_in_work": [{"id": 2067727, "title": "A Dog's world", "work_id": 91844, "role": "director", "role_id": 938, "is_primary": true}, {"id": 2791695, "title": "Van Gogh", "work_id": 84747, "role": "producer/director", "role_id": 31, "is_primary": true}, {"id": 2791691, "title": "Citizen Kane by Robert McKee", "work_id": 84431, "role": "producer/director", "role_id": 31, "is_primary": true}], "also_known_as": "", "date_of_birth": "", "date_of_death": "", "genders": [], "languages": [], "places_of_operation": [], "biography": "", "biography_author": null, "date_of_biography": "2023-05-09T14:19:51.905304+10:00", "external_links": [], "uuid": "d56ade16-9a38-4a45-bd00-c3f6aacc5c7d", "source": {"name": "Vernon", "slug": "vernon"}, "source_identifier": "19411", "external_references": [{"id": 42651, "source": {"name": "Wikidata", "slug": "wikidata"}, "source_identifier": "Q121034363"}], "date_modified": "2025-03-14T20:04:25.497352+11:00"}, {"id": 26423, "name": "Fulman Productions", "roles_in_work": [{"id": 2791689, "title": "Citizen Kane by Robert McKee", "work_id": 84431, "role": "production company", "role_id": 941, "is_primary": true}], "also_known_as": "", "date_of_birth": "", "date_of_death": "", "genders": [], "languages": [], "places_of_operation": [], "biography": "", "biography_author": null, "date_of_biography": "2023-05-09T14:19:51.427773+10:00", "external_links": [], "uuid": "16cb97c6-75f7-4c00-baa9-b35cd370e5ca", "source": {"name": "Vernon", "slug": "vernon"}, "source_identifier": "8600", "external_references": [{"id": 35635, "source": {"name": "Wikidata", "slug": "wikidata"}, "source_identifier": "Q121035294"}], "date_modified": "2025-03-14T20:04:21.771409+11:00"}, {"id": 26422, "name": "Ron Johnston", "roles_in_work": [{"id": 2789645, "title": "Testament: The Bible and history", "work_id": 115392, "role": "co-producers/directors", "role_id": 628, "is_primary": true}, {"id": 2789620, "title": "Chronicles and kings", "work_id": 84423, "role": "director", "role_id": 938, "is_primary": true}, {"id": 2128384, "title": "Byzantium: the lost empire", "work_id": 87876, "role": "director", "role_id": 938, "is_primary": true}, {"id": 2789637, "title": "Power and glory", "work_id": 84427, "role": "director", "role_id": 938, "is_primary": true}, {"id": 2789625, "title": "Mightier than the sword", "work_id": 84424, "role": "director", "role_id": 938, "is_primary": true}], "also_known_as": "", "date_of_birth": "", "date_of_death": "", "genders": [], "languages": [], "places_of_operation": [], "biography": "", "biography_author": null, "date_of_biography": "2023-05-09T13:15:14.684265+10:00", "external_links": [], "uuid": "d95697e7-34be-4464-8dd4-b10f3a6dc7e5", "source": {"name": "Vernon", "slug": "vernon"}, "source_identifier": "28149", "external_references": [{"id": 38722, "source": {"name": "Wikidata", "slug": "wikidata"}, "source_identifier": "Q121315639"}], "date_modified": "2025-03-14T19:52:31.310762+11:00"}, {"id": 26420, "name": "Robert Cooper", "roles_in_work": [{"id": 2195931, "title": "Divorcing Jack", "work_id": 92792, "role": "producer", "role_id": 1089, "is_primary": true}, {"id": 1988164, "title": "Truly madly deeply", "work_id": 84541, "role": "producer", "role_id": 1089, "is_primary": true}, {"id": 1814182, "title": "Truly, madly, deeply. (Captioned)", "work_id": 84421, "role": "producer", "role_id": 1089, "is_primary": true}], "also_known_as": "", "date_of_birth": "", "date_of_death": "", "genders": [], "languages": [], "places_of_operation": [], "biography": "", "biography_author": null, "date_of_biography": "2023-05-09T15:16:46.823255+10:00", "external_links": [], "uuid": "be309258-46b0-4555-997a-29c2ec1eaec6", "source": {"name": "Vernon", "slug": "vernon"}, "source_identifier": "27683", "external_references": [{"id": 37248, "source": {"name": "Wikidata", "slug": "wikidata"}, "source_identifier": "Q121144182"}], "date_modified": "2023-09-06T00:40:20.756567+10:00"}, {"id": 26409, "name": "Corporation for Community Television", "roles_in_work": [{"id": 2789552, "title": "Metamorphic rocks", "work_id": 84405, "role": "production company", "role_id": 941, "is_primary": true}, {"id": 2789502, "title": "Down to earth", "work_id": 84388, "role": "production company", "role_id": 941, "is_primary": true}, {"id": 2789505, "title": "The Restless planet", "work_id": 84389, "role": "production company", "role_id": 941, "is_primary": true}, {"id": 2789508, "title": "Earth's interior", "work_id": 84390, "role": "production company", "role_id": 941, "is_primary": true}, {"id": 2789511, "title": "The Sea floor", "work_id": 84391, "role": "production company", "role_id": 941, "is_primary": true}, {"id": 2789514, "title": "The Birth of a theory", "work_id": 84392, "role": "production company", "role_id": 941, "is_primary": true}, {"id": 2789517, "title": "Plate dynamics", "work_id": 84393, "role": "production company", "role_id": 941, "is_primary": true}, {"id": 2789520, "title": "Mountain building", "work_id": 84394, "role": "production company", "role_id": 941, "is_primary": true}, {"id": 2789523, "title": "Earth's structures", "work_id": 84395, "role": "production company", "role_id": 941, "is_primary": true}, {"id": 2789526, "title": "Earthquakes", "work_id": 84396, "role": "production company", "role_id": 941, "is_primary": true}, {"id": 2789529, "title": "Geologic time", "work_id": 84397, "role": "production company", "role_id": 941, "is_primary": true}, {"id": 2789532, "title": "Evolution through time", "work_id": 84398, "role": "production company", "role_id": 941, "is_primary": true}, {"id": 2789535, "title": "Minerals: the materials of earth", "work_id": 84399, "role": "production company", "role_id": 941, "is_primary": true}, {"id": 2789538, "title": "Volcanism", "work_id": 84400, "role": "production company", "role_id": 941, "is_primary": true}, {"id": 2789540, "title": "Intrusive igneous rocks", "work_id": 84401, "role": "production company", "role_id": 941, "is_primary": true}, {"id": 2789543, "title": "Weathering & soils", "work_id": 84402, "role": "production company", "role_id": 941, "is_primary": true}, {"id": 2789546, "title": "Mass wasting", "work_id": 84403, "role": "production company", "role_id": 941, "is_primary": true}, {"id": 2789549, "title": "Sedimentry rocks", "work_id": 84404, "role": "production company", "role_id": 941, "is_primary": true}, {"id": 2789555, "title": "Running water: erosion & deposition", "work_id": 84406, "role": "production company", "role_id": 941, "is_primary": true}, {"id": 2789558, "title": "Running water: landform evolution", "work_id": 84407, "role": "production company", "role_id": 941, "is_primary": true}, {"id": 2789561, "title": "Ground water", "work_id": 84408, "role": "production company", "role_id": 941, "is_primary": true}, {"id": 2789564, "title": "Wind, dust & deserts", "work_id": 84409, "role": "production company", "role_id": 941, "is_primary": true}, {"id": 2789567, "title": "Glaciers", "work_id": 84410, "role": "production company", "role_id": 941, "is_primary": true}, {"id": 2789570, "title": "Waves, beaches & coasts", "work_id": 84411, "role": "production company", "role_id": 941, "is_primary": true}, {"id": 2789573, "title": "Living with earth: the Loma Prieta Earthquake", "work_id": 84412, "role": "production company", "role_id": 941, "is_primary": true}, {"id": 2789576, "title": "Living with earth: preserving the legacy", "work_id": 84413, "role": "production company", "role_id": 941, "is_primary": true}, {"id": 2789500, "title": "Earth revealed", "work_id": 115391, "role": "production company", "role_id": 941, "is_primary": true}], "also_known_as": "", "date_of_birth": "", "date_of_death": "", "genders": [], "languages": [], "places_of_operation": [], "biography": "", "biography_author": null, "date_of_biography": "2023-05-09T19:28:43.592985+10:00", "external_links": [], "uuid": "4c88e7fa-575c-4009-acd5-08b1ea51b3f0", "source": {"name": "Vernon", "slug": "vernon"}, "source_identifier": "7090", "external_references": [{"id": 40907, "source": {"name": "Wikidata", "slug": "wikidata"}, "source_identifier": "Q121035700"}], "date_modified": "2025-03-14T19:52:12.038932+11:00"}]}