{"count": 28687, "next": "https://api.acmi.net.au/creators/?page=874", "previous": "https://api.acmi.net.au/creators/?page=872", "results": [{"id": 76852, "name": "Dianne Keaton", "roles_in_work": [{"id": 2649272, "title": "Mrs. Soffel", "work_id": 81252, "role": "cast", "role_id": 33, "is_primary": false}], "also_known_as": "", "date_of_birth": null, "date_of_death": null, "genders": [], "languages": [], "places_of_operation": [], "biography": "", "biography_author": null, "date_of_biography": null, "external_links": [], "uuid": "890d1065-e20b-47d7-9ff3-8fbec139a20e", "source": {"name": "Vernon", "slug": "vernon"}, "source_identifier": "38180", "external_references": [], "date_modified": "2025-03-05T13:58:00.431529+11:00"}, {"id": 76851, "name": "Valerie Seydoux", "roles_in_work": [{"id": 2064821, "title": "36 Fillette", "work_id": 81250, "role": "co-producer", "role_id": 915, "is_primary": true}], "also_known_as": "", "date_of_birth": "", "date_of_death": "", "genders": [], "languages": [], "places_of_operation": [], "biography": "", "biography_author": null, "date_of_biography": "2023-05-09T11:21:18.749129+10:00", "external_links": [], "uuid": "6d7b32eb-96c7-4431-985f-f18aea2c9a61", "source": {"name": "Vernon", "slug": "vernon"}, "source_identifier": "30052", "external_references": [{"id": 40179, "source": {"name": "Wikidata", "slug": "wikidata"}, "source_identifier": "Q121159972"}], "date_modified": "2023-09-06T02:02:57.431241+10:00"}, {"id": 76850, "name": "Joyce Haynes", "roles_in_work": [{"id": 900280, "title": "Wildflowers of Australia: Flowers and Their Habitats", "work_id": 81248, "role": "co-director", "role_id": 959, "is_primary": true}], "also_known_as": "", "date_of_birth": null, "date_of_death": null, "genders": [], "languages": [], "places_of_operation": [], "biography": "", "biography_author": null, "date_of_biography": null, "external_links": [], "uuid": "5acc8704-39ed-4258-b589-728154fc59f8", "source": {"name": "Vernon", "slug": "vernon"}, "source_identifier": null, "external_references": [{"id": 35731, "source": {"name": "Wikidata", "slug": "wikidata"}, "source_identifier": "Q121337136"}], "date_modified": "2023-09-05T21:52:35.921714+10:00"}, {"id": 76849, "name": "Ross Wurst", "roles_in_work": [{"id": 900279, "title": "Wildflowers of Australia: Flowers and Their Habitats", "work_id": 81248, "role": "co-director", "role_id": 959, "is_primary": true}], "also_known_as": "", "date_of_birth": null, "date_of_death": null, "genders": [], "languages": [], "places_of_operation": [], "biography": "", "biography_author": null, "date_of_biography": null, "external_links": [], "uuid": "3aceb4b1-ca96-41e0-a45a-a435762128c9", "source": {"name": "Vernon", "slug": "vernon"}, "source_identifier": null, "external_references": [{"id": 38776, "source": {"name": "Wikidata", "slug": "wikidata"}, "source_identifier": "Q121036609"}], "date_modified": "2023-09-06T00:56:57.975319+10:00"}, {"id": 76848, "name": "Robert Siodmak", "roles_in_work": [{"id": 2649259, "title": "The Spiral Staircase", "work_id": 81241, "role": "director", "role_id": 938, "is_primary": true}, {"id": 2195201, "title": "People on Sunday", "work_id": 94183, "role": "co-director", "role_id": 959, "is_primary": true}], "also_known_as": "", "date_of_birth": "08 AUG 1900", "date_of_death": "10 MAR 1973", "genders": [{"id": 9, "name": "Male", "slug": "male"}], "languages": [{"id": 1, "name": "English", "slug": "english"}, {"id": 5, "name": "German", "slug": "german"}], "places_of_operation": [{"id": 18, "name": "Germany", "slug": "germany"}], "biography": "Robert Siodmak (; 8 August 1900 – 10 March 1973) was a German film director who also worked in the United States. He is best remembered as a thriller specialist and for a series of films noir he made in the 1940s, such as The Killers (1946). Source: Wikidata; 01/08/2023", "biography_author": null, "date_of_biography": "2025-03-05T13:57:55.199927+11:00", "external_links": [{"id": 5038, "uri": "https://en.wikipedia.org/wiki/Robert_Siodmak"}], "uuid": "1bc700da-b6b7-4dbb-8b5c-23667930d81b", "source": {"name": "Vernon", "slug": "vernon"}, "source_identifier": "27883", "external_references": [{"id": 25628, "source": {"name": "Wikidata", "slug": "wikidata"}, "source_identifier": "Q51498"}, {"id": 31212, "source": {"name": "VIAF", "slug": "viaf"}, "source_identifier": "14780153"}, {"id": 31213, "source": {"name": "LOC Auth", "slug": "loc-auth"}, "source_identifier": "n81076359"}, {"id": 31214, "source": {"name": "WorldCat", "slug": "worldcat"}, "source_identifier": "lccn-n81076359"}], "date_modified": "2025-03-05T13:57:55.200163+11:00"}, {"id": 76847, "name": "Lana Turner", "roles_in_work": [{"id": 2200767, "title": "Dr Jekyll and Mr Hyde", "work_id": 81238, "role": "cast", "role_id": 33, "is_primary": false}], "also_known_as": "", "date_of_birth": "", "date_of_death": "", "genders": [], "languages": [], "places_of_operation": [], "biography": "", "biography_author": null, "date_of_biography": "2023-05-09T15:25:50.859782+10:00", "external_links": [], "uuid": "1d8f1dfc-f70f-4bdb-9be1-57f6ea96aa09", "source": {"name": "Vernon", "slug": "vernon"}, "source_identifier": "38163", "external_references": [{"id": 35985, "source": {"name": "Wikidata", "slug": "wikidata"}, "source_identifier": "Q121035863"}], "date_modified": "2023-09-05T22:13:47.320770+10:00"}, {"id": 76846, "name": "Richard Walker", "roles_in_work": [{"id": 2755745, "title": "Stories of survival with Les Hiddins. [Part 2]", "work_id": 85218, "role": "co-producers/directors", "role_id": 628, "is_primary": true}, {"id": 2755739, "title": "Stories of survival with Les Hiddins. [Part 1]", "work_id": 85200, "role": "co-producers/directors", "role_id": 628, "is_primary": true}, {"id": 2347429, "title": "The Secret of the Murray", "work_id": 91404, "role": "producer/director", "role_id": 31, "is_primary": true}, {"id": 2243915, "title": "Flies: the great Australian salute!", "work_id": 82678, "role": "producer/director", "role_id": 31, "is_primary": true}, {"id": 2347342, "title": "The Pinnacle of fame", "work_id": 91398, "role": "producer/director", "role_id": 31, "is_primary": true}, {"id": 2347395, "title": "The Explorers [Bill Peach]", "work_id": 115551, "role": "producer/director", "role_id": 31, "is_primary": true}, {"id": 3082386, "title": "Finders keepers", "work_id": 94052, "role": "producer/director", "role_id": 31, "is_primary": true}, {"id": 3082391, "title": "Golden age", "work_id": 91392, "role": "producer/director", "role_id": 31, "is_primary": true}, {"id": 2755711, "title": "From the Wet to the Top End", "work_id": 81232, "role": "producer/director", "role_id": 31, "is_primary": true}, {"id": 2096803, "title": "Ankali means friend", "work_id": 82674, "role": "producer/director", "role_id": 31, "is_primary": true}, {"id": 2347448, "title": "East to north", "work_id": 91396, "role": "producer/director", "role_id": 31, "is_primary": true}], "also_known_as": "", "date_of_birth": "", "date_of_death": "", "genders": [], "languages": [], "places_of_operation": [], "biography": "", "biography_author": null, "date_of_biography": "2023-05-09T19:49:49.206499+10:00", "external_links": [], "uuid": "447c3443-fb7d-483f-b2bb-7d41a4dc7205", "source": {"name": "Vernon", "slug": "vernon"}, "source_identifier": "27529", "external_references": [], "date_modified": "2025-03-17T10:28:54.538017+11:00"}, {"id": 76845, "name": "Katharine Hepburn", "roles_in_work": [{"id": 1985344, "title": "Woman of the Year", "work_id": 81225, "role": "cast", "role_id": 33, "is_primary": false}, {"id": 774852, "title": "Guess who's coming to dinner? (Captioned)", "work_id": 81273, "role": "cast", "role_id": 33, "is_primary": false}, {"id": 1987718, "title": "Love among the ruins", "work_id": 83877, "role": "cast", "role_id": 33, "is_primary": false}, {"id": 2081300, "title": "Adam's rib", "work_id": 81462, "role": "cast", "role_id": 33, "is_primary": false}, {"id": 2189635, "title": "Pat and Mike", "work_id": 81293, "role": "cast", "role_id": 33, "is_primary": false}, {"id": 1985432, "title": "Guess who's coming to dinner?", "work_id": 81271, "role": "cast", "role_id": 33, "is_primary": false}], "also_known_as": "Katharine Houghton Hepburn", "date_of_birth": "1907-05-12", "date_of_death": "2003-06-29", "genders": [{"id": 5, "name": "Female", "slug": "female"}], "languages": [{"id": 1, "name": "English", "slug": "english"}], "places_of_operation": [{"id": 1, "name": "United States of America", "slug": "united-states-of-america"}], "biography": "Katharine Houghton Hepburn (May 12, 1907 – June 29, 2003) was an American actress whose career as a Hollywood leading lady spanned over six decades. She was known for her headstrong independence, spirited personality, and outspokenness, cultivating a screen persona that matched this public image, and regularly playing strong-willed, sophisticated women. Her work was in a range of genres, from screwball comedy to literary drama, and earned her various accolades, including four Academy Awards for Best Actress—a record for any performer. In 1999, Hepburn was named the greatest female star of classic Hollywood cinema by the American Film Institute.\nRaised in Connecticut by wealthy, progressive parents, Hepburn began to act while at Bryn Mawr College. Favorable reviews of her work on Broadway brought her to the attention of Hollywood. Her early years in film brought her international fame, including an Academy Award for Best Actress for her third film, Morning Glory (1933), but this was followed by a series of commercial failures culminating in the critically lauded box office failure Bringing Up Baby (1938). Hepburn masterminded her own comeback, buying out her contract with RKO Radio Pictures and acquiring the film rights to The Philadelphia Story, which she sold on the condition that she be the star. That comedy film was a box office success and landed her a third Academy Award nomination. In the 1940s, she was contracted to Metro-Goldwyn-Mayer, where her career focused on an alliance with Spencer Tracy. The screen partnership spanned 26 years and produced nine films.\nHepburn challenged herself in the latter half of her life as she tackled Shakespearean stage productions and a range of literary roles. She found a niche playing mature, independent, and sometimes unmarried women such as in The African Queen (1951), a persona the public embraced. Hepburn received three more Academy Awards for her performances in Guess Who's Coming to Dinner (1967), The Lion in Winter (1968), and On Golden Pond (1981). In the 1970s, she began appearing in television films, which later became her focus. She made her final screen appearance at the age of 87. After a period of inactivity and ill health, Hepburn died in 2003 at the age of 96.\nHepburn shunned the Hollywood publicity machine and refused to conform to society's expectations of women, famously wearing trousers before they were fashionable for women. She was briefly married as a young woman but thereafter lived independently. With her unconventional lifestyle and the independent characters she brought to the screen, Hepburn epitomized the \"modern woman\" in the 20th-century United States and is remembered as an important cultural figure.", "biography_author": "Wikidata", "date_of_biography": "2023-08-01T15:46:59.768961+10:00", "external_links": [{"id": 4468, "uri": "https://en.wikipedia.org/wiki/Katharine_Hepburn"}], "uuid": "19de8ce5-edfa-46b7-b475-40f302aaa54a", "source": {"name": "Vernon", "slug": "vernon"}, "source_identifier": "34036", "external_references": [{"id": 26410, "source": {"name": "Wikidata", "slug": "wikidata"}, "source_identifier": "Q56016"}, {"id": 29735, "source": {"name": "VIAF", "slug": "viaf"}, "source_identifier": "22168112"}, {"id": 29736, "source": {"name": "LOC Auth", "slug": "loc-auth"}, "source_identifier": "n50038123"}, {"id": 29737, "source": {"name": "WorldCat", "slug": "worldcat"}, "source_identifier": "lccn-n50038123"}], "date_modified": "2023-09-05T22:01:54.685529+10:00"}, {"id": 76844, "name": "Publishing and Broadcasting", "roles_in_work": [{"id": 1985337, "title": "Threads", "work_id": 81224, "role": "production company", "role_id": 941, "is_primary": true}], "also_known_as": "", "date_of_birth": null, "date_of_death": null, "genders": [], "languages": [], "places_of_operation": [], "biography": "", "biography_author": null, "date_of_biography": null, "external_links": [], "uuid": "8beade55-bbac-4a41-9d30-ae8436b5c1e4", "source": {"name": "Vernon", "slug": "vernon"}, "source_identifier": null, "external_references": [{"id": 39465, "source": {"name": "Wikidata", "slug": "wikidata"}, "source_identifier": "Q121040142"}], "date_modified": "2023-09-06T00:14:58.184069+10:00"}, {"id": 76843, "name": "Western World", "roles_in_work": [{"id": 1985336, "title": "Threads", "work_id": 81224, "role": "production company", "role_id": 941, "is_primary": true}], "also_known_as": "", "date_of_birth": null, "date_of_death": null, "genders": [], "languages": [], "places_of_operation": [], "biography": "", "biography_author": null, "date_of_biography": null, "external_links": [], "uuid": "a98c62cb-79c9-43b3-8a78-24b275c7a745", "source": {"name": "Vernon", "slug": "vernon"}, "source_identifier": null, "external_references": [], "date_modified": "2023-06-14T16:33:30.576250+10:00"}]}