{"count": 28687, "next": "https://api.acmi.net.au/creators/?page=2082", "previous": "https://api.acmi.net.au/creators/?page=2080", "results": [{"id": 20934, "name": "Firehouse Productions", "roles_in_work": [{"id": 2129687, "title": "Cannonball", "work_id": 78246, "role": "production company", "role_id": 941, "is_primary": true}, {"id": 2096545, "title": "Angus lost", "work_id": 77960, "role": "production company", "role_id": 941, "is_primary": true}], "also_known_as": "", "date_of_birth": "", "date_of_death": "", "genders": [], "languages": [], "places_of_operation": [], "biography": "", "biography_author": null, "date_of_biography": "2023-05-09T13:17:37.556040+10:00", "external_links": [], "uuid": "a62dac37-d2b9-4100-8bf0-b330eeabdc3e", "source": {"name": "Vernon", "slug": "vernon"}, "source_identifier": "3772", "external_references": [{"id": 35423, "source": {"name": "Wikidata", "slug": "wikidata"}, "source_identifier": "Q121035251"}], "date_modified": "2023-09-05T19:44:07.811771+10:00"}, {"id": 20928, "name": "Shanghai Meishu", "roles_in_work": [{"id": 2647978, "title": "The Panda's boutique", "work_id": 77956, "role": "production company", "role_id": 941, "is_primary": true}], "also_known_as": "", "date_of_birth": null, "date_of_death": null, "genders": [], "languages": [], "places_of_operation": [], "biography": "", "biography_author": null, "date_of_biography": null, "external_links": [], "uuid": "763ac45e-7145-4d63-981a-75ec659c20b0", "source": {"name": "Vernon", "slug": "vernon"}, "source_identifier": "12503", "external_references": [], "date_modified": "2025-03-05T13:36:38.056658+11:00"}, {"id": 20924, "name": "Polak Productions", "roles_in_work": [{"id": 2409083, "title": "Hardy Wilson: a living memory", "work_id": 77952, "role": "production company", "role_id": 941, "is_primary": true}], "also_known_as": "", "date_of_birth": "", "date_of_death": "", "genders": [], "languages": [], "places_of_operation": [], "biography": "", "biography_author": null, "date_of_biography": "2023-08-11T17:14:52.855979+10:00", "external_links": [], "uuid": "585369ef-c9d1-4abd-bfb9-e579feaa76a9", "source": {"name": "Vernon", "slug": "vernon"}, "source_identifier": "11545", "external_references": [], "date_modified": "2023-08-11T17:14:52.856303+10:00"}, {"id": 20923, "name": "Lee Whitmore", "roles_in_work": [{"id": 2463876, "title": "Ned Wethered", "work_id": 77950, "role": "director", "role_id": 938, "is_primary": true}], "also_known_as": "", "date_of_birth": "", "date_of_death": "", "genders": [], "languages": [], "places_of_operation": [], "biography": "", "biography_author": null, "date_of_biography": "2023-08-14T10:00:03.407116+10:00", "external_links": [], "uuid": "212193ca-abee-47a7-929f-516bfa7b0533", "source": {"name": "Vernon", "slug": "vernon"}, "source_identifier": "23645", "external_references": [], "date_modified": "2023-08-14T10:00:03.407422+10:00"}, {"id": 20922, "name": "Wayne Barker", "roles_in_work": [{"id": 1921538, "title": "Cass: no saucepan diver", "work_id": 77948, "role": "director", "role_id": 938, "is_primary": true}, {"id": 2474022, "title": "Strike your heart", "work_id": 92166, "role": "director", "role_id": 938, "is_primary": true}], "also_known_as": "", "date_of_birth": "", "date_of_death": "", "genders": [], "languages": [], "places_of_operation": [], "biography": "", "biography_author": null, "date_of_biography": "2023-08-16T03:41:29.146845+10:00", "external_links": [], "uuid": "7cadb99a-0018-4d82-9aaf-95dc8754e036", "source": {"name": "Vernon", "slug": "vernon"}, "source_identifier": "30302", "external_references": [{"id": 39986, "source": {"name": "Wikidata", "slug": "wikidata"}, "source_identifier": "Q121143662"}], "date_modified": "2023-09-06T02:12:21.211018+10:00"}, {"id": 20920, "name": "Cinema Enterprises", "roles_in_work": [{"id": 2124075, "title": "Breakfast in Paris", "work_id": 81006, "role": "production company", "role_id": 941, "is_primary": true}, {"id": 2768070, "title": "Atoll life in Kiribati", "work_id": 77944, "role": "production company", "role_id": 941, "is_primary": true}, {"id": 2768082, "title": "Fiji - legacies of empire", "work_id": 77946, "role": "production company", "role_id": 941, "is_primary": true}, {"id": 1983910, "title": "Allies", "work_id": 78406, "role": "production company", "role_id": 941, "is_primary": true}], "also_known_as": "", "date_of_birth": "", "date_of_death": "", "genders": [], "languages": [], "places_of_operation": [], "biography": "", "biography_author": null, "date_of_biography": "2023-08-09T03:57:44.111373+10:00", "external_links": [], "uuid": "723b5424-a9ec-4773-a476-c4877c8e4d07", "source": {"name": "Vernon", "slug": "vernon"}, "source_identifier": "6697", "external_references": [{"id": 37684, "source": {"name": "Wikidata", "slug": "wikidata"}, "source_identifier": "Q121299042"}], "date_modified": "2025-03-14T18:08:22.919304+11:00"}, {"id": 20917, "name": "Gill Bradley", "roles_in_work": [{"id": 2408556, "title": "Give me some action", "work_id": 77930, "role": "director", "role_id": 938, "is_primary": true}], "also_known_as": "", "date_of_birth": "", "date_of_death": "", "genders": [], "languages": [], "places_of_operation": [], "biography": "", "biography_author": null, "date_of_biography": "2023-08-11T17:02:29.866947+10:00", "external_links": [], "uuid": "67e9e62a-d983-4734-bb0b-5b3bb871769b", "source": {"name": "Vernon", "slug": "vernon"}, "source_identifier": "19822", "external_references": [], "date_modified": "2023-08-11T17:02:29.867175+10:00"}, {"id": 20916, "name": "School of Film and TV Royal College of Art", "roles_in_work": [{"id": 2408555, "title": "Give me some action", "work_id": 77930, "role": "production company", "role_id": 941, "is_primary": true}], "also_known_as": "", "date_of_birth": "", "date_of_death": "", "genders": [], "languages": [], "places_of_operation": [], "biography": "", "biography_author": null, "date_of_biography": "2023-08-11T17:02:29.236744+10:00", "external_links": [], "uuid": "0e680894-2e9e-4db0-bb6f-6ad87126d35b", "source": {"name": "Vernon", "slug": "vernon"}, "source_identifier": "12333", "external_references": [], "date_modified": "2023-08-11T17:02:29.236994+10:00"}, {"id": 20915, "name": "Mura Dehn", "roles_in_work": [{"id": 2468169, "title": "The Spirit moves: jazz dance from turn of the century 'til 1950", "work_id": 77929, "role": "producer", "role_id": 1089, "is_primary": true}], "also_known_as": "", "date_of_birth": "", "date_of_death": "", "genders": [], "languages": [], "places_of_operation": [], "biography": "", "biography_author": null, "date_of_biography": "2023-08-14T11:35:31.845276+10:00", "external_links": [], "uuid": "2feccb1d-8772-433b-b0b7-0cd08110484f", "source": {"name": "Vernon", "slug": "vernon"}, "source_identifier": "25551", "external_references": [], "date_modified": "2023-08-14T11:35:31.845515+10:00"}, {"id": 20914, "name": "Dehn and Matter", "roles_in_work": [{"id": 2468168, "title": "The Spirit moves: jazz dance from turn of the century 'til 1950", "work_id": 77929, "role": "production company", "role_id": 941, "is_primary": true}], "also_known_as": "", "date_of_birth": "", "date_of_death": "", "genders": [], "languages": [], "places_of_operation": [], "biography": "", "biography_author": null, "date_of_biography": "2023-08-14T11:35:31.197415+10:00", "external_links": [], "uuid": "c1f1aeda-6ddb-49ee-9c72-248956b62db3", "source": {"name": "Vernon", "slug": "vernon"}, "source_identifier": "7384", "external_references": [], "date_modified": "2023-08-14T11:35:31.197698+10:00"}]}