{"count": 28687, "next": "https://api.acmi.net.au/creators/?page=2185", "previous": "https://api.acmi.net.au/creators/?page=2183", "results": [{"id": 18961, "name": "Heritage Productions", "roles_in_work": [{"id": 777019, "title": "The Amish: a people of preservation (Edited version)", "work_id": 81875, "role": "production company", "role_id": 941, "is_primary": true}, {"id": 2647021, "title": "The Amish: a people of preservation", "work_id": 75086, "role": "production company", "role_id": 941, "is_primary": true}], "also_known_as": "", "date_of_birth": null, "date_of_death": null, "genders": [], "languages": [], "places_of_operation": [], "biography": "", "biography_author": null, "date_of_biography": null, "external_links": [], "uuid": "60cc2884-c274-4108-be0d-8fb427888327", "source": {"name": "Vernon", "slug": "vernon"}, "source_identifier": "9079", "external_references": [], "date_modified": "2025-03-05T13:16:48.382841+11:00"}, {"id": 18960, "name": "Department of Defence, Defence Public Relations", "roles_in_work": [{"id": 2647017, "title": "About a dollar's worth", "work_id": 75085, "role": "production company", "role_id": 941, "is_primary": true}], "also_known_as": "", "date_of_birth": "", "date_of_death": "", "genders": [], "languages": [], "places_of_operation": [], "biography": "", "biography_author": null, "date_of_biography": "2023-05-09T11:45:15.428968+10:00", "external_links": [], "uuid": "301386ef-d279-49e0-b8af-80a9e2579126", "source": {"name": "Vernon", "slug": "vernon"}, "source_identifier": "7423", "external_references": [{"id": 33421, "source": {"name": "Wikidata", "slug": "wikidata"}, "source_identifier": "Q121126390"}], "date_modified": "2025-03-05T13:16:45.746614+11:00"}, {"id": 18959, "name": "Australia. Dept. of Defence. Public Relations", "roles_in_work": [{"id": 2766622, "title": "Solar oil", "work_id": 75102, "role": "production company", "role_id": 941, "is_primary": true}, {"id": 2766628, "title": "Sappers K9: the dogs of war", "work_id": 75139, "role": "production company", "role_id": 941, "is_primary": true}, {"id": 2766632, "title": "Rescue 036", "work_id": 75325, "role": "production company", "role_id": 941, "is_primary": true}, {"id": 2766634, "title": "Coastwatch", "work_id": 76996, "role": "production company", "role_id": 941, "is_primary": true}, {"id": 2766639, "title": "The Shape of ships to come", "work_id": 77007, "role": "production company", "role_id": 941, "is_primary": true}, {"id": 2766642, "title": "Diggers", "work_id": 77170, "role": "production company", "role_id": 941, "is_primary": true}, {"id": 2766645, "title": "Challenge of flight", "work_id": 77323, "role": "production company", "role_id": 941, "is_primary": true}, {"id": 2766648, "title": "Anyone anything anywhere", "work_id": 77509, "role": "production company", "role_id": 941, "is_primary": true}, {"id": 2766651, "title": "Reaching for the rainbow", "work_id": 77005, "role": "production company", "role_id": 941, "is_primary": true}, {"id": 2766655, "title": "Sentinel", "work_id": 114975, "role": "production company", "role_id": 941, "is_primary": true}, {"id": 826402, "title": "Grey funnel line", "work_id": 96330, "role": "production company", "role_id": 941, "is_primary": true}, {"id": 2766617, "title": "Combating the '79 locust plague", "work_id": 75083, "role": "production company", "role_id": 941, "is_primary": true}, {"id": 2766620, "title": "F-111 the first flight", "work_id": 75098, "role": "production company", "role_id": 941, "is_primary": true}, {"id": 764102, "title": "Australian defence feature", "work_id": 77316, "role": "production company", "role_id": 941, "is_primary": true}, {"id": 832773, "title": "Operation navy help", "work_id": 99099, "role": "production company", "role_id": 941, "is_primary": true}], "also_known_as": "", "date_of_birth": "", "date_of_death": "", "genders": [], "languages": [], "places_of_operation": [], "biography": "", "biography_author": null, "date_of_biography": "2023-08-11T13:01:20.494898+10:00", "external_links": [], "uuid": "27dcdebb-a0d7-48cc-a3d2-207c8a8f3122", "source": {"name": "Vernon", "slug": "vernon"}, "source_identifier": "11732", "external_references": [], "date_modified": "2025-03-14T17:59:30.394846+11:00"}, {"id": 18958, "name": "Winston Thomas", "roles_in_work": [{"id": 2396584, "title": "[Melbourne Zoological Gardens]", "work_id": 75082, "role": "director", "role_id": 938, "is_primary": true}], "also_known_as": "", "date_of_birth": "", "date_of_death": "", "genders": [], "languages": [], "places_of_operation": [], "biography": "", "biography_author": null, "date_of_biography": "2023-08-11T12:38:58.115021+10:00", "external_links": [], "uuid": "aa9909be-e16f-4ce8-8b4a-ee654de91c50", "source": {"name": "Vernon", "slug": "vernon"}, "source_identifier": "30527", "external_references": [], "date_modified": "2023-08-11T12:38:58.115295+10:00"}, {"id": 18957, "name": "Gerry Hudson", "roles_in_work": [{"id": 2289354, "title": "Zoo", "work_id": 75081, "role": "director", "role_id": 938, "is_primary": true}, {"id": 2749091, "title": "Zoo", "work_id": 96630, "role": "director", "role_id": 938, "is_primary": true}], "also_known_as": "", "date_of_birth": "", "date_of_death": "", "genders": [], "languages": [], "places_of_operation": [], "biography": "", "biography_author": null, "date_of_biography": "2023-05-09T18:15:58.615033+10:00", "external_links": [], "uuid": "673bf89a-360c-4da5-b1dd-d2feb0a9d081", "source": {"name": "Vernon", "slug": "vernon"}, "source_identifier": "19778", "external_references": [], "date_modified": "2025-03-12T23:52:26.321329+11:00"}, {"id": 18955, "name": "Ratcliffe Holmes Productions", "roles_in_work": [{"id": 2291799, "title": "Zoo oddities", "work_id": 75080, "role": "production company", "role_id": 941, "is_primary": true}], "also_known_as": "", "date_of_birth": "", "date_of_death": "", "genders": [], "languages": [], "places_of_operation": [], "biography": "", "biography_author": null, "date_of_biography": "2023-05-09T18:20:41.427810+10:00", "external_links": [], "uuid": "e99d6a18-cde1-4118-944d-130a42c5de1a", "source": {"name": "Vernon", "slug": "vernon"}, "source_identifier": "11872", "external_references": [{"id": 38758, "source": {"name": "Wikidata", "slug": "wikidata"}, "source_identifier": "Q121337246"}], "date_modified": "2023-09-06T00:21:30.199886+10:00"}, {"id": 18954, "name": "GK Film, Stockholm", "roles_in_work": [{"id": 2647013, "title": "Zebras", "work_id": 75073, "role": "production company", "role_id": 941, "is_primary": true}], "also_known_as": "", "date_of_birth": "", "date_of_death": "", "genders": [], "languages": [], "places_of_operation": [], "biography": "", "biography_author": null, "date_of_biography": "2023-08-14T12:56:01.524420+10:00", "external_links": [], "uuid": "f957d089-d06b-4805-a681-34f0b650f61d", "source": {"name": "Vernon", "slug": "vernon"}, "source_identifier": "8738", "external_references": [], "date_modified": "2025-03-05T13:16:42.783234+11:00"}, {"id": 18953, "name": "Choice Films", "roles_in_work": [{"id": 2647012, "title": "Zebras", "work_id": 75073, "role": "production company", "role_id": 941, "is_primary": true}], "also_known_as": "", "date_of_birth": "", "date_of_death": "", "genders": [], "languages": [], "places_of_operation": [], "biography": "", "biography_author": null, "date_of_biography": "2023-08-14T12:56:00.906015+10:00", "external_links": [], "uuid": "77333078-9182-49bf-871a-0014ae92a1c4", "source": {"name": "Vernon", "slug": "vernon"}, "source_identifier": "6594", "external_references": [], "date_modified": "2025-03-05T13:16:42.201278+11:00"}, {"id": 18952, "name": "John Boland and Associates", "roles_in_work": [{"id": 2615048, "title": "Hellfire Jack", "work_id": 84743, "role": "production company", "role_id": 941, "is_primary": true}, {"id": 2468820, "title": "The Yugoslav experiment", "work_id": 75069, "role": "production company", "role_id": 941, "is_primary": true}], "also_known_as": "", "date_of_birth": "", "date_of_death": "", "genders": [], "languages": [], "places_of_operation": [], "biography": "", "biography_author": null, "date_of_biography": "2023-08-14T11:46:57.149904+10:00", "external_links": [], "uuid": "9d0480af-bd10-4c1c-b0db-883523697a03", "source": {"name": "Vernon", "slug": "vernon"}, "source_identifier": "9617", "external_references": [], "date_modified": "2025-02-26T20:18:27.803170+11:00"}, {"id": 18950, "name": "New Day Films", "roles_in_work": [{"id": 2087787, "title": "Am I normal?", "work_id": 75240, "role": "production company", "role_id": 941, "is_primary": true}, {"id": 2284181, "title": "Yudie", "work_id": 75068, "role": "production company", "role_id": 941, "is_primary": true}, {"id": 897452, "title": "Union maids", "work_id": 77537, "role": "production company", "role_id": 941, "is_primary": true}, {"id": 767209, "title": "Quilts in women's lives", "work_id": 78445, "role": "production company", "role_id": 941, "is_primary": true}], "also_known_as": "", "date_of_birth": "", "date_of_death": "", "genders": [], "languages": [], "places_of_operation": [], "biography": "", "biography_author": null, "date_of_biography": "2023-05-09T18:06:42.189762+10:00", "external_links": [], "uuid": "f145f285-2e97-4cc1-8591-a886c3a1e837", "source": {"name": "Vernon", "slug": "vernon"}, "source_identifier": "10892", "external_references": [{"id": 34433, "source": {"name": "Wikidata", "slug": "wikidata"}, "source_identifier": "Q121144048"}], "date_modified": "2023-09-05T23:28:24.827471+10:00"}]}