{"count": 28687, "next": "https://api.acmi.net.au/creators/?page=1575", "previous": "https://api.acmi.net.au/creators/?page=1573", "results": [{"id": 31710, "name": "Bill Gavin", "roles_in_work": [{"id": 2290154, "title": "What becomes of the broken hearted?", "work_id": 89794, "role": "producer", "role_id": 1089, "is_primary": true}], "also_known_as": "", "date_of_birth": "1907-11-06", "date_of_death": "1985-01-27", "genders": [{"id": 9, "name": "Male", "slug": "male"}], "languages": [], "places_of_operation": [{"id": 1, "name": "United States of America", "slug": "united-states-of-america"}], "biography": "Bill Gavin (November 6, 1907 – January 27, 1985) was an American radio personality and publisher of the influential Gavin Report.", "biography_author": "Wikidata", "date_of_biography": "2022-05-19T10:56:54.386989+10:00", "external_links": [{"id": 1727, "uri": "https://en.wikipedia.org/wiki/Bill_Gavin"}], "uuid": "829b9a56-095d-47ef-8dd6-c32ce530a292", "source": {"name": "Vernon", "slug": "vernon"}, "source_identifier": "15961", "external_references": [{"id": 7529, "source": {"name": "Wikidata", "slug": "wikidata"}, "source_identifier": "Q4909112"}], "date_modified": "2023-09-13T12:28:28.878732+10:00"}, {"id": 31709, "name": "Sequel Productions", "roles_in_work": [{"id": 2290148, "title": "What becomes of the broken hearted?", "work_id": 89794, "role": "production company", "role_id": 941, "is_primary": true}], "also_known_as": "", "date_of_birth": "", "date_of_death": "", "genders": [], "languages": [], "places_of_operation": [], "biography": "", "biography_author": null, "date_of_biography": "2023-05-09T18:17:33.056639+10:00", "external_links": [], "uuid": "1c87dd39-699b-49e5-9b44-5c76ee9ffc5e", "source": {"name": "Vernon", "slug": "vernon"}, "source_identifier": "12445", "external_references": [{"id": 36259, "source": {"name": "Wikidata", "slug": "wikidata"}, "source_identifier": "Q121034689"}], "date_modified": "2023-09-06T01:10:36.472662+10:00"}, {"id": 31707, "name": "CML", "roles_in_work": [{"id": 2286650, "title": "Two hands [DVD]", "work_id": 90597, "role": "production company", "role_id": 941, "is_primary": true}, {"id": 2286613, "title": "Two hands", "work_id": 89793, "role": "production company", "role_id": 941, "is_primary": true}], "also_known_as": "", "date_of_birth": "", "date_of_death": "", "genders": [], "languages": [], "places_of_operation": [], "biography": "", "biography_author": null, "date_of_biography": "2023-05-09T18:11:00.708378+10:00", "external_links": [], "uuid": "3f3bb3c2-a493-40b9-b22d-bceec649ac8f", "source": {"name": "Vernon", "slug": "vernon"}, "source_identifier": "6837", "external_references": [{"id": 37470, "source": {"name": "Wikidata", "slug": "wikidata"}, "source_identifier": "Q121035565"}], "date_modified": "2023-09-05T18:42:55.047516+10:00"}, {"id": 31699, "name": "Benjamin Ross", "roles_in_work": [{"id": 1994075, "title": "The Young poisoner's handbook", "work_id": 89778, "role": "director", "role_id": 938, "is_primary": true}], "also_known_as": "", "date_of_birth": "1964-01-01", "date_of_death": null, "genders": [{"id": 9, "name": "Male", "slug": "male"}], "languages": [{"id": 1, "name": "English", "slug": "english"}], "places_of_operation": [{"id": 10, "name": "United Kingdom", "slug": "united-kingdom"}], "biography": "Benjamin Ross is a writer and film director based in the United Kingdom.  His most noted works are The Young Poisoner’s Handbook, based on a real-life poisoning case, Poppy Shakespeare, and  The Frankenstein Chronicles, about a search for a murderer, said to stitch together dead bodies of young children, trying to re-animate them.\n\n", "biography_author": "Wikidata", "date_of_biography": "2022-05-19T10:54:53.801201+10:00", "external_links": [{"id": 1705, "uri": "https://en.wikipedia.org/wiki/Benjamin_Ross"}], "uuid": "3adb78de-8169-461c-9833-5674e7da3371", "source": {"name": "Vernon", "slug": "vernon"}, "source_identifier": "15818", "external_references": [{"id": 7436, "source": {"name": "Wikidata", "slug": "wikidata"}, "source_identifier": "Q367607"}, {"id": 7437, "source": {"name": "VIAF", "slug": "viaf"}, "source_identifier": "163970374"}, {"id": 7438, "source": {"name": "LOC Auth", "slug": "loc-auth"}, "source_identifier": "no2011011174"}, {"id": 7439, "source": {"name": "WorldCat", "slug": "worldcat"}, "source_identifier": "lccn-no2011011174"}], "date_modified": "2023-09-13T12:28:24.788743+10:00"}, {"id": 31692, "name": "Kintop Pictures", "roles_in_work": [{"id": 2650548, "title": "The End of violence", "work_id": 115733, "role": "production company", "role_id": 941, "is_primary": true}, {"id": 2111604, "title": "Bend it like Beckham", "work_id": 95080, "role": "production company", "role_id": 941, "is_primary": true}, {"id": 2346919, "title": "The End of violence", "work_id": 92503, "role": "production company", "role_id": 941, "is_primary": true}, {"id": 2126398, "title": "Buena vista social club", "work_id": 89772, "role": "production company", "role_id": 941, "is_primary": true}], "also_known_as": "", "date_of_birth": "", "date_of_death": "", "genders": [], "languages": [], "places_of_operation": [], "biography": "", "biography_author": null, "date_of_biography": "2023-05-09T19:48:36.643657+10:00", "external_links": [], "uuid": "15e32d36-c8c2-482f-88dd-81ccb973bb6a", "source": {"name": "Vernon", "slug": "vernon"}, "source_identifier": "9788", "external_references": [{"id": 33983, "source": {"name": "Wikidata", "slug": "wikidata"}, "source_identifier": "Q78787466"}], "date_modified": "2025-03-05T14:21:03.271433+11:00"}, {"id": 31686, "name": "De Luxe Laboratories", "roles_in_work": [{"id": 2467074, "title": "The Flow process chart and how to use it", "work_id": 89769, "role": "production company", "role_id": 941, "is_primary": true}], "also_known_as": "", "date_of_birth": "", "date_of_death": "", "genders": [], "languages": [], "places_of_operation": [], "biography": "", "biography_author": null, "date_of_biography": "2023-08-14T11:11:58.051683+10:00", "external_links": [], "uuid": "b5ad24c5-f6e7-4d7e-806d-f9afde2b4ec1", "source": {"name": "Vernon", "slug": "vernon"}, "source_identifier": "7363", "external_references": [], "date_modified": "2023-08-14T11:11:58.051913+10:00"}, {"id": 31682, "name": "Road Safety Council of New South Wales", "roles_in_work": [{"id": 2399337, "title": "Alice in blunderland", "work_id": 89763, "role": "production company", "role_id": 941, "is_primary": true}], "also_known_as": "", "date_of_birth": "", "date_of_death": "", "genders": [], "languages": [], "places_of_operation": [], "biography": "", "biography_author": null, "date_of_biography": "2023-08-11T13:42:56.528167+10:00", "external_links": [], "uuid": "c8043f5d-5398-4416-9693-7ee241c0562c", "source": {"name": "Vernon", "slug": "vernon"}, "source_identifier": "13445", "external_references": [], "date_modified": "2023-08-11T13:42:56.528425+10:00"}, {"id": 31681, "name": "United States. Army Air Forces. Combat Film Detachment", "roles_in_work": [{"id": 2412632, "title": "It can be done", "work_id": 89756, "role": "production company", "role_id": 941, "is_primary": true}], "also_known_as": "", "date_of_birth": "", "date_of_death": "", "genders": [], "languages": [], "places_of_operation": [], "biography": "", "biography_author": null, "date_of_biography": "2023-08-11T18:42:40.163621+10:00", "external_links": [], "uuid": "7cf7034e-7351-4677-b5e1-c8e1aa596558", "source": {"name": "Vernon", "slug": "vernon"}, "source_identifier": "8362", "external_references": [], "date_modified": "2023-08-11T18:42:40.163870+10:00"}, {"id": 31680, "name": "David Marchbank", "roles_in_work": [{"id": 2465278, "title": "Report to the gods", "work_id": 89746, "role": "producer", "role_id": 1089, "is_primary": true}], "also_known_as": "", "date_of_birth": "", "date_of_death": "", "genders": [], "languages": [], "places_of_operation": [], "biography": "", "biography_author": null, "date_of_biography": "2023-08-14T10:31:18.175420+10:00", "external_links": [], "uuid": "92ff8eba-b1fc-4289-acd3-93faa467637b", "source": {"name": "Vernon", "slug": "vernon"}, "source_identifier": "17697", "external_references": [], "date_modified": "2023-08-14T10:31:18.175738+10:00"}, {"id": 31678, "name": "Mark Pellington", "roles_in_work": [{"id": 1999018, "title": "Going all the way", "work_id": 94238, "role": "director", "role_id": 938, "is_primary": true}, {"id": 2099589, "title": "Arlington Road", "work_id": 89738, "role": "director", "role_id": 938, "is_primary": true}], "also_known_as": "", "date_of_birth": "1962-03-17", "date_of_death": null, "genders": [{"id": 9, "name": "Male", "slug": "male"}], "languages": [{"id": 1, "name": "English", "slug": "english"}], "places_of_operation": [{"id": 1, "name": "United States of America", "slug": "united-states-of-america"}], "biography": "Mark Pellington (born March 17, 1962) is an American film director, writer, and producer.", "biography_author": "Wikidata", "date_of_biography": "2022-05-19T12:22:55.420370+10:00", "external_links": [{"id": 2645, "uri": "https://en.wikipedia.org/wiki/Mark_Pellington"}], "uuid": "488adc03-cded-4ee7-8896-956da0e104eb", "source": {"name": "Vernon", "slug": "vernon"}, "source_identifier": "24532", "external_references": [{"id": 11297, "source": {"name": "Wikidata", "slug": "wikidata"}, "source_identifier": "Q662257"}, {"id": 11298, "source": {"name": "VIAF", "slug": "viaf"}, "source_identifier": "2678621"}, {"id": 11299, "source": {"name": "LOC Auth", "slug": "loc-auth"}, "source_identifier": "no2009101284"}, {"id": 11300, "source": {"name": "WorldCat", "slug": "worldcat"}, "source_identifier": "lccn-no2009101284"}], "date_modified": "2023-09-13T12:31:14.920500+10:00"}]}