{"count": 28687, "next": "https://api.acmi.net.au/creators/?page=1031", "previous": "https://api.acmi.net.au/creators/?page=1029", "results": [{"id": 75282, "name": "Maurice Bulbulian", "roles_in_work": [{"id": 2180349, "title": "Our land, our truth = Debout sur leur terre", "work_id": 90336, "role": "director", "role_id": 938, "is_primary": true}, {"id": 2261484, "title": "Salvador Allende Gossens: a testimony", "work_id": 72464, "role": "co-director", "role_id": 959, "is_primary": true}, {"id": 908073, "title": "Little Burgundy = La P'tite Bourgogne", "work_id": 88476, "role": "co-director", "role_id": 959, "is_primary": true}], "also_known_as": "", "date_of_birth": "1938-06-22", "date_of_death": "", "genders": [{"id": 9, "name": "Male", "slug": "male"}], "languages": [], "places_of_operation": [{"id": 36, "name": "Canada", "slug": "canada"}], "biography": "", "biography_author": null, "date_of_biography": "2023-05-09T17:29:38.532739+10:00", "external_links": [], "uuid": "cb95b3d7-6409-49d1-8f99-89bb3318f690", "source": {"name": "Vernon", "slug": "vernon"}, "source_identifier": "24827", "external_references": [{"id": 42478, "source": {"name": "Wikidata", "slug": "wikidata"}, "source_identifier": "Q3300505"}, {"id": 55219, "source": {"name": "VIAF", "slug": "viaf"}, "source_identifier": "27262793"}, {"id": 55220, "source": {"name": "WorldCat", "slug": "worldcat"}, "source_identifier": "viaf-27262793"}], "date_modified": "2023-09-05T22:55:52.962521+10:00"}, {"id": 75281, "name": "Jean-Marc Garand", "roles_in_work": [{"id": 2072855, "title": "A Plea for the wanderer", "work_id": 91175, "role": "producer", "role_id": 1089, "is_primary": true}, {"id": 2144837, "title": "Cordelia", "work_id": 85767, "role": "producer", "role_id": 1089, "is_primary": true}, {"id": 2261480, "title": "Salvador Allende Gossens: a testimony", "work_id": 72464, "role": "producer", "role_id": 1089, "is_primary": true}], "also_known_as": "", "date_of_birth": "", "date_of_death": "", "genders": [], "languages": [], "places_of_operation": [], "biography": "", "biography_author": null, "date_of_biography": "2023-05-09T17:29:38.168296+10:00", "external_links": [], "uuid": "5047bfc9-8d08-4422-84a6-da5232dcd1a3", "source": {"name": "Vernon", "slug": "vernon"}, "source_identifier": "21588", "external_references": [{"id": 37930, "source": {"name": "Wikidata", "slug": "wikidata"}, "source_identifier": "Q117600927"}], "date_modified": "2023-09-05T21:12:09.526386+10:00"}, {"id": 75280, "name": "Ed Taylor", "roles_in_work": [{"id": 2260827, "title": "Salmon run", "work_id": 72460, "role": "director", "role_id": 938, "is_primary": true}], "also_known_as": "", "date_of_birth": "", "date_of_death": "", "genders": [], "languages": [], "places_of_operation": [], "biography": "", "biography_author": null, "date_of_biography": "2023-05-09T17:28:45.277231+10:00", "external_links": [], "uuid": "a2fdb7bd-e164-4973-b417-776855bd77f8", "source": {"name": "Vernon", "slug": "vernon"}, "source_identifier": "18538", "external_references": [{"id": 42878, "source": {"name": "Wikidata", "slug": "wikidata"}, "source_identifier": "Q121034792"}], "date_modified": "2023-09-05T19:23:18.796360+10:00"}, {"id": 75279, "name": "Leon C. Shelly", "roles_in_work": [{"id": 2260819, "title": "Salmon run", "work_id": 72460, "role": "co-producer", "role_id": 915, "is_primary": true}], "also_known_as": "", "date_of_birth": "", "date_of_death": "", "genders": [], "languages": [], "places_of_operation": [], "biography": "", "biography_author": null, "date_of_biography": "2023-05-09T17:28:44.793129+10:00", "external_links": [], "uuid": "26630d71-0567-4f32-b5cd-72adca632b1e", "source": {"name": "Vernon", "slug": "vernon"}, "source_identifier": "23699", "external_references": [{"id": 32735, "source": {"name": "Wikidata", "slug": "wikidata"}, "source_identifier": "Q121160070"}], "date_modified": "2023-09-05T22:19:49.216911+10:00"}, {"id": 75278, "name": "Jim Mellor", "roles_in_work": [{"id": 2073656, "title": "A Sailor is born", "work_id": 72452, "role": "producer/director", "role_id": 31, "is_primary": true}], "also_known_as": "", "date_of_birth": "", "date_of_death": "", "genders": [], "languages": [], "places_of_operation": [], "biography": "", "biography_author": null, "date_of_biography": "2023-05-09T11:37:21.417086+10:00", "external_links": [], "uuid": "69d07b7e-a0a5-4851-ac31-bc3bddf8cfb0", "source": {"name": "Vernon", "slug": "vernon"}, "source_identifier": "21905", "external_references": [{"id": 51670, "source": {"name": "Wikidata", "slug": "wikidata"}, "source_identifier": "Q121361282"}], "date_modified": "2023-09-05T21:25:11.349145+10:00"}, {"id": 75277, "name": "Roland D. Blake", "roles_in_work": [{"id": 2765741, "title": "Safety record", "work_id": 72443, "role": "co-producer", "role_id": 915, "is_primary": true}], "also_known_as": "", "date_of_birth": "", "date_of_death": "", "genders": [], "languages": [], "places_of_operation": [], "biography": "", "biography_author": null, "date_of_biography": "2023-05-09T17:30:24.450108+10:00", "external_links": [], "uuid": "71e1d38d-f506-4ddc-a1ff-f37a8e3d39b0", "source": {"name": "Vernon", "slug": "vernon"}, "source_identifier": "28095", "external_references": [{"id": 51112, "source": {"name": "Wikidata", "slug": "wikidata"}, "source_identifier": "Q121357859"}], "date_modified": "2025-03-14T17:54:04.293038+11:00"}, {"id": 75276, "name": "Glenn Griffin", "roles_in_work": [{"id": 2765738, "title": "Safety record", "work_id": 72443, "role": "co-producer", "role_id": 915, "is_primary": true}], "also_known_as": "", "date_of_birth": "", "date_of_death": "", "genders": [], "languages": [], "places_of_operation": [], "biography": "", "biography_author": null, "date_of_biography": "2023-05-09T17:30:24.230256+10:00", "external_links": [], "uuid": "136dbace-208d-4b48-95d8-f5eaa3b023e9", "source": {"name": "Vernon", "slug": "vernon"}, "source_identifier": "19895", "external_references": [{"id": 40325, "source": {"name": "Wikidata", "slug": "wikidata"}, "source_identifier": "Q121143858"}], "date_modified": "2025-03-14T17:54:03.709416+11:00"}, {"id": 75275, "name": "John Hoskins", "roles_in_work": [{"id": 2260221, "title": "Safety in the slaughterhouse", "work_id": 72436, "role": "editor", "role_id": 918, "is_primary": true}], "also_known_as": "", "date_of_birth": "", "date_of_death": "", "genders": [], "languages": [], "places_of_operation": [], "biography": "", "biography_author": null, "date_of_biography": "2023-05-09T17:27:12.492812+10:00", "external_links": [], "uuid": "1676faed-187e-409a-9c8b-ec24485139e8", "source": {"name": "Vernon", "slug": "vernon"}, "source_identifier": "39093", "external_references": [{"id": 38955, "source": {"name": "Wikidata", "slug": "wikidata"}, "source_identifier": "Q121299124"}], "date_modified": "2023-09-05T21:39:00.413508+10:00"}, {"id": 75274, "name": "David Wakeley", "roles_in_work": [{"id": 2260219, "title": "Safety in the slaughterhouse", "work_id": 72436, "role": "photographer", "role_id": 440, "is_primary": false}], "also_known_as": "", "date_of_birth": "", "date_of_death": "", "genders": [], "languages": [], "places_of_operation": [], "biography": "", "biography_author": null, "date_of_biography": "2023-05-09T17:27:12.240385+10:00", "external_links": [], "uuid": "6c47e850-7a72-4be4-a1d2-009d9829790e", "source": {"name": "Vernon", "slug": "vernon"}, "source_identifier": "39092", "external_references": [], "date_modified": "2023-06-14T16:33:30.576250+10:00"}, {"id": 75273, "name": "John Bowen", "roles_in_work": [{"id": 2260218, "title": "Safety in the slaughterhouse", "work_id": 72436, "role": "director", "role_id": 938, "is_primary": true}], "also_known_as": "", "date_of_birth": "", "date_of_death": "", "genders": [], "languages": [], "places_of_operation": [], "biography": "", "biography_author": null, "date_of_biography": "2023-05-09T17:27:12.002111+10:00", "external_links": [], "uuid": "65072293-3fe8-4b50-9d53-234d3c3609ed", "source": {"name": "Vernon", "slug": "vernon"}, "source_identifier": "22143", "external_references": [{"id": 39755, "source": {"name": "Wikidata", "slug": "wikidata"}, "source_identifier": "Q121035245"}], "date_modified": "2023-09-05T21:33:14.300639+10:00"}]}