{"count": 28687, "next": "https://api.acmi.net.au/creators/?page=2318", "previous": "https://api.acmi.net.au/creators/?page=2316", "results": [{"id": 16450, "name": "Lyons Visual Aid Unit", "roles_in_work": [{"id": 2645508, "title": "The Magic bean", "work_id": 69984, "role": "production company", "role_id": 941, "is_primary": true}], "also_known_as": "", "date_of_birth": null, "date_of_death": null, "genders": [], "languages": [], "places_of_operation": [], "biography": "", "biography_author": null, "date_of_biography": null, "external_links": [], "uuid": "eec0ef8c-ea2d-4f6c-a492-2ed7dfd97b46", "source": {"name": "Vernon", "slug": "vernon"}, "source_identifier": "10193", "external_references": [], "date_modified": "2025-03-05T12:41:27.619895+11:00"}, {"id": 16441, "name": "Jerry Krepakevich", "roles_in_work": [{"id": 2128015, "title": "Bush pilot: reflections on a Canadian myth", "work_id": 77109, "role": "co-producer", "role_id": 915, "is_primary": true}, {"id": 2202075, "title": "Petroleum's progress", "work_id": 76332, "role": "co-producer", "role_id": 915, "is_primary": true}, {"id": 2334050, "title": "The Boy who turned off", "work_id": 77869, "role": "co-producer", "role_id": 915, "is_primary": true}, {"id": 2298091, "title": "Shepherd's pie and sushi", "work_id": 93779, "role": "co-producer", "role_id": 915, "is_primary": true}, {"id": 904996, "title": "Oh sure", "work_id": 85738, "role": "co-producer", "role_id": 915, "is_primary": true}, {"id": 2121090, "title": "Blowhard", "work_id": 75479, "role": "co-producer", "role_id": 915, "is_primary": true}, {"id": 2347004, "title": "The Enemy within (2003) [Widescreen]", "work_id": 95034, "role": "co-producer", "role_id": 915, "is_primary": true}, {"id": 2647473, "title": "Getting started", "work_id": 76437, "role": "co-producer", "role_id": 915, "is_primary": true}, {"id": 2751752, "title": "Nonoonse Anishinabe Ishichekewin Ka Kanawentank", "work_id": 97965, "role": "co-producer", "role_id": 915, "is_primary": true}, {"id": 1427723, "title": "In God's command", "work_id": 87432, "role": "co-producer", "role_id": 915, "is_primary": true}, {"id": 894967, "title": "The McIntyre Block", "work_id": 69971, "role": "co-producer", "role_id": 915, "is_primary": true}, {"id": 1818634, "title": "Loved, honoured and bruised", "work_id": 77622, "role": "producer", "role_id": 1089, "is_primary": true}, {"id": 2250095, "title": "Rice harvest", "work_id": 90343, "role": "producer", "role_id": 1089, "is_primary": true}, {"id": 1810815, "title": "John Law and the Mississippi bubble", "work_id": 76548, "role": "producer", "role_id": 1089, "is_primary": true}, {"id": 1811825, "title": "Giv'em a half turn", "work_id": 89193, "role": "producer", "role_id": 1089, "is_primary": true}, {"id": 2069329, "title": "A House on the prairie", "work_id": 87959, "role": "producer", "role_id": 1089, "is_primary": true}, {"id": 2753510, "title": "The Top few inches", "work_id": 98801, "role": "producer/director", "role_id": 31, "is_primary": true}], "also_known_as": "", "date_of_birth": "", "date_of_death": "", "genders": [], "languages": [], "places_of_operation": [], "biography": "", "biography_author": null, "date_of_biography": "2023-05-09T19:48:47.637641+10:00", "external_links": [], "uuid": "c7e78637-7e75-4d32-aab2-92213c10007a", "source": {"name": "Vernon", "slug": "vernon"}, "source_identifier": "21799", "external_references": [{"id": 34440, "source": {"name": "Wikidata", "slug": "wikidata"}, "source_identifier": "Q121143805"}], "date_modified": "2025-03-13T01:26:28.740135+11:00"}, {"id": 16438, "name": "Peck-Warrin Productions", "roles_in_work": [{"id": 854818, "title": "Machines do work", "work_id": 69967, "role": "production company", "role_id": 941, "is_primary": true}, {"id": 2399191, "title": "Air all around us", "work_id": 90983, "role": "production company", "role_id": 941, "is_primary": true}], "also_known_as": "", "date_of_birth": "", "date_of_death": "", "genders": [], "languages": [], "places_of_operation": [], "biography": "", "biography_author": null, "date_of_biography": "2023-08-11T13:39:48.918871+10:00", "external_links": [], "uuid": "a9609307-b304-412a-b656-e306a3bc9665", "source": {"name": "Vernon", "slug": "vernon"}, "source_identifier": "11369", "external_references": [], "date_modified": "2023-08-11T13:39:48.919172+10:00"}, {"id": 16436, "name": "De Frenes", "roles_in_work": [{"id": 862766, "title": "Machine transcription: machine operation", "work_id": 76522, "role": "production company", "role_id": 941, "is_primary": true}, {"id": 2755181, "title": "Duplicating and manuscript", "work_id": 91083, "role": "production company", "role_id": 941, "is_primary": true}, {"id": 3081794, "title": "Methods", "work_id": 91029, "role": "production company", "role_id": 941, "is_primary": true}, {"id": 3081798, "title": "Machine operation", "work_id": 91030, "role": "production company", "role_id": 941, "is_primary": true}, {"id": 3081802, "title": "Basic typing", "work_id": 115547, "role": "production company", "role_id": 941, "is_primary": true}, {"id": 859197, "title": "Take a letter, please", "work_id": 73460, "role": "production company", "role_id": 941, "is_primary": true}, {"id": 859848, "title": "Training aids, selection and planning", "work_id": 73970, "role": "production company", "role_id": 941, "is_primary": true}, {"id": 800093, "title": "Goodbye Mr. Germ", "work_id": 88523, "role": "production company", "role_id": 941, "is_primary": true}, {"id": 855898, "title": "Naval photography in science", "work_id": 70789, "role": "production company", "role_id": 941, "is_primary": true}, {"id": 876647, "title": "Training aids: classroom utilization", "work_id": 90192, "role": "production company", "role_id": 941, "is_primary": true}, {"id": 854888, "title": "Maintenance of office machines", "work_id": 70014, "role": "production company", "role_id": 941, "is_primary": true}, {"id": 854813, "title": "Machine transcription: transcription technique", "work_id": 69965, "role": "production company", "role_id": 941, "is_primary": true}], "also_known_as": "", "date_of_birth": "", "date_of_death": "", "genders": [], "languages": [], "places_of_operation": [], "biography": "", "biography_author": null, "date_of_biography": "2023-08-11T14:39:52.935492+10:00", "external_links": [], "uuid": "60d1c2a6-2993-485c-8275-880ae5351ec3", "source": {"name": "Vernon", "slug": "vernon"}, "source_identifier": "7358", "external_references": [], "date_modified": "2025-03-17T10:26:06.163275+11:00"}, {"id": 16435, "name": "General Motors Photographic", "roles_in_work": [{"id": 875479, "title": "Practice makes perfect drivers", "work_id": 89510, "role": "production company", "role_id": 941, "is_primary": true}, {"id": 861188, "title": "Your permit to drive", "work_id": 75048, "role": "production company", "role_id": 941, "is_primary": true}, {"id": 2415482, "title": "Machine tools and motions", "work_id": 69964, "role": "production company", "role_id": 941, "is_primary": true}], "also_known_as": "", "date_of_birth": "", "date_of_death": "", "genders": [], "languages": [], "places_of_operation": [], "biography": "", "biography_author": null, "date_of_biography": "2023-08-11T19:38:37.888711+10:00", "external_links": [], "uuid": "d8c2b073-250e-4169-b8b4-45c92cdcbc0f", "source": {"name": "Vernon", "slug": "vernon"}, "source_identifier": "8688", "external_references": [], "date_modified": "2023-08-11T19:38:37.888966+10:00"}, {"id": 16434, "name": "Walter Niebuhr", "roles_in_work": [{"id": 2467435, "title": "The Machine: master or slave", "work_id": 69963, "role": "director", "role_id": 938, "is_primary": true}], "also_known_as": "", "date_of_birth": "", "date_of_death": "", "genders": [], "languages": [], "places_of_operation": [], "biography": "", "biography_author": null, "date_of_biography": "2023-08-14T11:20:09.295109+10:00", "external_links": [], "uuid": "69cf1e8e-895d-41c3-867a-dcecacef122b", "source": {"name": "Vernon", "slug": "vernon"}, "source_identifier": "30251", "external_references": [], "date_modified": "2023-08-14T11:20:09.295417+10:00"}, {"id": 16433, "name": "Educational Film Institute of the New York University", "roles_in_work": [{"id": 2467434, "title": "The Machine: master or slave", "work_id": 69963, "role": "production company", "role_id": 941, "is_primary": true}], "also_known_as": "", "date_of_birth": "", "date_of_death": "", "genders": [], "languages": [], "places_of_operation": [], "biography": "", "biography_author": null, "date_of_biography": "2023-08-14T11:20:08.673675+10:00", "external_links": [], "uuid": "e0965ec8-74c6-47e5-b4aa-9b0c810d5a4f", "source": {"name": "Vernon", "slug": "vernon"}, "source_identifier": "7793", "external_references": [], "date_modified": "2023-08-14T11:20:08.673980+10:00"}, {"id": 16431, "name": "Grand Prize Productions", "roles_in_work": [{"id": 2415472, "title": "Macbeth: Banquo's ghost [study extract]", "work_id": 69957, "role": "production company", "role_id": 941, "is_primary": true}, {"id": 2415476, "title": "Macbeth: the witches [study extract]", "work_id": 69961, "role": "production company", "role_id": 941, "is_primary": true}], "also_known_as": "", "date_of_birth": "", "date_of_death": "", "genders": [], "languages": [], "places_of_operation": [], "biography": "", "biography_author": null, "date_of_biography": "2023-08-11T19:38:29.347336+10:00", "external_links": [], "uuid": "aebbb238-b4b7-4107-9a4f-4c22c8dfb097", "source": {"name": "Vernon", "slug": "vernon"}, "source_identifier": "8842", "external_references": [], "date_modified": "2023-08-11T19:38:29.347551+10:00"}, {"id": 16430, "name": "Raoul Sobel", "roles_in_work": [{"id": 2415469, "title": "Macbeth by William Shakespeare: an introduction", "work_id": 69956, "role": "director", "role_id": 938, "is_primary": true}], "also_known_as": "", "date_of_birth": "", "date_of_death": "", "genders": [], "languages": [], "places_of_operation": [], "biography": "", "biography_author": null, "date_of_biography": "2023-08-11T19:38:18.487315+10:00", "external_links": [], "uuid": "0187e134-f291-4b97-80dd-a7c617e12d40", "source": {"name": "Vernon", "slug": "vernon"}, "source_identifier": "27127", "external_references": [], "date_modified": "2023-08-11T19:38:18.487644+10:00"}, {"id": 16429, "name": "Insight Productions (US)", "roles_in_work": [{"id": 2749296, "title": "Life times nine", "work_id": 96732, "role": "production company", "role_id": 941, "is_primary": true}, {"id": 2751333, "title": "Houdini never died", "work_id": 97760, "role": "production company", "role_id": 941, "is_primary": true}, {"id": 2415468, "title": "Macbeth by William Shakespeare: an introduction", "work_id": 69956, "role": "production company", "role_id": 941, "is_primary": true}, {"id": 886937, "title": "If wishes were horses", "work_id": 97107, "role": "production company", "role_id": 941, "is_primary": true}, {"id": 2749282, "title": "Thoroughbred", "work_id": 96725, "role": "production company", "role_id": 941, "is_primary": true}, {"id": 858507, "title": "The Slender span", "work_id": 72899, "role": "production company", "role_id": 941, "is_primary": true}], "also_known_as": "", "date_of_birth": "", "date_of_death": "", "genders": [], "languages": [], "places_of_operation": [], "biography": "", "biography_author": null, "date_of_biography": "2023-08-11T19:38:17.862948+10:00", "external_links": [], "uuid": "10c1de36-96a3-4767-946e-d1a76e056cef", "source": {"name": "Vernon", "slug": "vernon"}, "source_identifier": "4783", "external_references": [], "date_modified": "2025-03-13T00:41:12.022966+11:00"}]}