{"count": 28687, "next": "https://api.acmi.net.au/creators/?page=2631", "previous": "https://api.acmi.net.au/creators/?page=2629", "results": [{"id": 12289, "name": "Harold Mantell", "roles_in_work": [{"id": 2677363, "title": "Anton Chekhov: a writer's life", "work_id": 64825, "role": "director", "role_id": 938, "is_primary": true}, {"id": 1816121, "title": "Ezra Pound: poets' poet", "work_id": 98133, "role": "producer", "role_id": 1089, "is_primary": true}, {"id": 2781710, "title": "History of the drama", "work_id": 115264, "role": "producer", "role_id": 1089, "is_primary": true}, {"id": 2781702, "title": "Theater of the absurd: Luigi Pirandello: Six characters in search of an author", "work_id": 73653, "role": "producer", "role_id": 1089, "is_primary": true}, {"id": 2644864, "title": "Fellini: the director as creator", "work_id": 67806, "role": "producer", "role_id": 1089, "is_primary": true}, {"id": 1811397, "title": "Stanislavsky: maker of the modern theater", "work_id": 73162, "role": "producer", "role_id": 1089, "is_primary": true}, {"id": 2678581, "title": "The Birth of Soviet cinema", "work_id": 65462, "role": "producer", "role_id": 1089, "is_primary": true}, {"id": 1812866, "title": "The Trials of Franz Kafka", "work_id": 74009, "role": "producer", "role_id": 1089, "is_primary": true}, {"id": 2752088, "title": "Yevtushenko: a poet's journey", "work_id": 98134, "role": "producer/director", "role_id": 31, "is_primary": true}, {"id": 2752085, "title": "Sophocles: Oedipus the King", "work_id": 98130, "role": "producer/director", "role_id": 31, "is_primary": true}, {"id": 2646278, "title": "Shakespeare and his stage: Approaches to Hamlet", "work_id": 72715, "role": "producer/director", "role_id": 31, "is_primary": true}, {"id": 856350, "title": "One way to better cities", "work_id": 71152, "role": "producer/director", "role_id": 31, "is_primary": true}, {"id": 854155, "title": "Kurt Vonnegut Jr: a self portrait", "work_id": 69456, "role": "producer/director", "role_id": 31, "is_primary": true}, {"id": 760378, "title": "Woody Allen: an American comedy", "work_id": 75802, "role": "producer/director", "role_id": 31, "is_primary": true}, {"id": 888272, "title": "Robert Frost: a first acquaintance", "work_id": 98131, "role": "producer/director", "role_id": 31, "is_primary": true}, {"id": 2677052, "title": "All our futures", "work_id": 64669, "role": "producer/director", "role_id": 31, "is_primary": true}, {"id": 2752086, "title": "E E Cummings: the making of a poet", "work_id": 98132, "role": "producer/director", "role_id": 31, "is_primary": true}], "also_known_as": "", "date_of_birth": "", "date_of_death": "", "genders": [], "languages": [], "places_of_operation": [], "biography": "", "biography_author": null, "date_of_biography": "2023-05-09T18:28:46.014135+10:00", "external_links": [], "uuid": "71e3ea04-1479-44b8-9964-3101ed698c65", "source": {"name": "Vernon", "slug": "vernon"}, "source_identifier": "1634", "external_references": [{"id": 39863, "source": {"name": "Wikidata", "slug": "wikidata"}, "source_identifier": "Q121270869"}], "date_modified": "2025-03-14T19:10:08.989435+11:00"}, {"id": 12288, "name": "Harold Mantell Inc", "roles_in_work": [{"id": 2677051, "title": "All our futures", "work_id": 64669, "role": "production company", "role_id": 941, "is_primary": true}, {"id": 756175, "title": "The Trials of Franz Kafka", "work_id": 74009, "role": "production company", "role_id": 941, "is_primary": true}], "also_known_as": "", "date_of_birth": null, "date_of_death": null, "genders": [], "languages": [], "places_of_operation": [], "biography": "", "biography_author": null, "date_of_biography": null, "external_links": [], "uuid": "21350104-8319-4ad5-bed1-5400fc73dbde", "source": {"name": "Vernon", "slug": "vernon"}, "source_identifier": "8999", "external_references": [], "date_modified": "2025-03-06T23:11:29.498108+11:00"}, {"id": 12287, "name": "Joy Batchelor", "roles_in_work": [{"id": 854571, "title": "Little Tom Thumb", "work_id": 69790, "role": "director", "role_id": 938, "is_primary": true}, {"id": 870659, "title": "Little Tom Thumb (K)", "work_id": 86452, "role": "director", "role_id": 938, "is_primary": true}, {"id": 2644803, "title": "The Five", "work_id": 67592, "role": "director", "role_id": 938, "is_primary": true}, {"id": 855987, "title": "New town", "work_id": 70868, "role": "director", "role_id": 938, "is_primary": true}, {"id": 2344403, "title": "DoDo helps Interpol", "work_id": 88335, "role": "co-director", "role_id": 959, "is_primary": true}, {"id": 2344111, "title": "The Discovery of Fingercillin", "work_id": 89361, "role": "co-director", "role_id": 959, "is_primary": true}, {"id": 2344255, "title": "DoDo buys a space pig", "work_id": 90308, "role": "co-director", "role_id": 959, "is_primary": true}, {"id": 2344192, "title": "DoDo and the Touchies", "work_id": 89360, "role": "co-director", "role_id": 959, "is_primary": true}, {"id": 2344235, "title": "DoDo at the rodeo", "work_id": 90639, "role": "co-director", "role_id": 959, "is_primary": true}, {"id": 2344370, "title": "Secret of the pyramid", "work_id": 89362, "role": "co-director", "role_id": 959, "is_primary": true}, {"id": 2344135, "title": "DoDo and the smellometer", "work_id": 91344, "role": "co-director", "role_id": 959, "is_primary": true}, {"id": 895656, "title": "Robinson Charley: the story of our island from 1690-1960", "work_id": 72304, "role": "co-director", "role_id": 959, "is_primary": true}, {"id": 2344081, "title": "The day the earth was sold", "work_id": 89359, "role": "co-director", "role_id": 959, "is_primary": true}, {"id": 2677048, "title": "All lit up", "work_id": 64666, "role": "co-director", "role_id": 959, "is_primary": true}, {"id": 2713578, "title": "The Figurehead", "work_id": 67478, "role": "co-director", "role_id": 959, "is_primary": true}, {"id": 2344214, "title": "DoDo at the opera", "work_id": 90645, "role": "co-director", "role_id": 959, "is_primary": true}, {"id": 2344325, "title": "DoDo the circus star", "work_id": 90214, "role": "co-director", "role_id": 959, "is_primary": true}, {"id": 2344300, "title": "Dodo in Pukcab Land", "work_id": 90176, "role": "co-director", "role_id": 959, "is_primary": true}, {"id": 2344169, "title": "DoDo and the space pirates", "work_id": 90822, "role": "co-director", "role_id": 959, "is_primary": true}, {"id": 2344344, "title": "Dodo's arrival story", "work_id": 88333, "role": "co-director", "role_id": 959, "is_primary": true}, {"id": 1983837, "title": "Animal farm", "work_id": 77908, "role": "co-producers/directors", "role_id": 628, "is_primary": true}, {"id": 895092, "title": "Modern guide to health", "work_id": 70519, "role": "co-producers/directors", "role_id": 628, "is_primary": true}, {"id": 894981, "title": "Magic canvas", "work_id": 69986, "role": "co-producers/directors", "role_id": 628, "is_primary": true}, {"id": 3081635, "title": "Charley junior's schooldays", "work_id": 65973, "role": "co-producers/directors", "role_id": 628, "is_primary": true}, {"id": 3081617, "title": "Your very good health", "work_id": 75054, "role": "co-producers/directors", "role_id": 628, "is_primary": true}, {"id": 3081621, "title": "Charley's march of time", "work_id": 65976, "role": "co-producers/directors", "role_id": 628, "is_primary": true}, {"id": 3081628, "title": "Charley's black magic", "work_id": 65975, "role": "co-producers/directors", "role_id": 628, "is_primary": true}, {"id": 2344388, "title": "Dodo, the kid from outer space", "work_id": 115619, "role": "producer", "role_id": 1089, "is_primary": true}, {"id": 2645083, "title": "The History of the cinema", "work_id": 68494, "role": "producer", "role_id": 1089, "is_primary": true}, {"id": 2680134, "title": "The Colombo Plan", "work_id": 66230, "role": "producer/director", "role_id": 31, "is_primary": true}, {"id": 2680192, "title": "The Commonwealth", "work_id": 66266, "role": "producer/director", "role_id": 31, "is_primary": true}, {"id": 826521, "title": "The Ugly duckling", "work_id": 96377, "role": "producer/director", "role_id": 31, "is_primary": true}], "also_known_as": "", "date_of_birth": "12 MAY 1914", "date_of_death": "14 MAY 1991", "genders": [{"id": 5, "name": "Female", "slug": "female"}], "languages": [{"id": 1, "name": "English", "slug": "english"}], "places_of_operation": [{"id": 10, "name": "United Kingdom", "slug": "united-kingdom"}], "biography": "Joy Ethel Batchelor (12 May 1914 – 14 May 1991) was an English animator, director, screenwriter, and producer. She married John Halas in 1940 and subsequently co-established Halas and Batchelor cartoons, whose best known production is the animated feature film Animal Farm (1954), which made her the first woman director of an animated feature since Lotte Reiniger. Together they created over 2000 shorts/films, and produced roughly 70 propaganda pieces during World War II for the British government. She helped co-write, write, animate, produce, and direct many of their productions.\n\nOne of her projects as an art director was Cinerama Holiday (1955). Joy directed and wrote Ruddigore (1967), a television-film adaptation of W.S. Gilbert's opera of the same name, which became the first opera to be adapted into an animated film. She later worked in television, directing series, including animated shows like The Jackson 5ive (1971). Batchelor died on 14 May 1991, just two days after her 77th birthday. Source: Wikidata; 01/08/2023", "biography_author": null, "date_of_biography": "2025-03-17T10:25:10.043892+11:00", "external_links": [{"id": 4439, "uri": "https://en.wikipedia.org/wiki/Joy_Batchelor"}], "uuid": "5d256bba-710a-4cbd-a3e7-03e083efac5c", "source": {"name": "Vernon", "slug": "vernon"}, "source_identifier": "22771", "external_references": [{"id": 27049, "source": {"name": "Wikidata", "slug": "wikidata"}, "source_identifier": "Q14949452"}, {"id": 29662, "source": {"name": "VIAF", "slug": "viaf"}, "source_identifier": "7593678"}, {"id": 29663, "source": {"name": "LOC Auth", "slug": "loc-auth"}, "source_identifier": "n87856314"}, {"id": 29664, "source": {"name": "WorldCat", "slug": "worldcat"}, "source_identifier": "lccn-n87856314"}], "date_modified": "2025-03-17T10:25:10.044328+11:00"}, {"id": 12286, "name": "Gas Council", "roles_in_work": [{"id": 2646000, "title": "Piping hot", "work_id": 71586, "role": "production company", "role_id": 941, "is_primary": true}, {"id": 2677046, "title": "All lit up", "work_id": 64666, "role": "production company", "role_id": 941, "is_primary": true}, {"id": 2644887, "title": "Frying methods", "work_id": 67876, "role": "production company", "role_id": 941, "is_primary": true}, {"id": 2680444, "title": "Cooks in clover", "work_id": 66390, "role": "production company", "role_id": 941, "is_primary": true}, {"id": 2680438, "title": "Cooking in liquids", "work_id": 66388, "role": "production company", "role_id": 941, "is_primary": true}], "also_known_as": "", "date_of_birth": null, "date_of_death": null, "genders": [], "languages": [], "places_of_operation": [], "biography": "", "biography_author": null, "date_of_biography": null, "external_links": [], "uuid": "1ab434f8-3c86-4cd5-98b8-5ea682d67314", "source": {"name": "Vernon", "slug": "vernon"}, "source_identifier": "4081", "external_references": [], "date_modified": "2025-03-07T00:35:50.734568+11:00"}, {"id": 12285, "name": "Francis Fuchs", "roles_in_work": [{"id": 1532376, "title": "Mother and child", "work_id": 86611, "role": "director", "role_id": 938, "is_primary": true}, {"id": 2648736, "title": "All in the game (TEFC)", "work_id": 79895, "role": "director", "role_id": 938, "is_primary": true}, {"id": 1532367, "title": "Making sense (TEFC) [Colour]", "work_id": 79893, "role": "director", "role_id": 938, "is_primary": true}, {"id": 2645544, "title": "Making sense [B&W]", "work_id": 70049, "role": "director", "role_id": 938, "is_primary": true}, {"id": 2643961, "title": "All in the game", "work_id": 64665, "role": "director", "role_id": 938, "is_primary": true}, {"id": 770940, "title": "Mother and child", "work_id": 79892, "role": "director", "role_id": 938, "is_primary": true}, {"id": 770948, "title": "Power of speech (TEFC) (colour)", "work_id": 79894, "role": "director", "role_id": 938, "is_primary": true}, {"id": 1532370, "title": "Power of speech [B/W]", "work_id": 71756, "role": "director", "role_id": 938, "is_primary": true}], "also_known_as": "", "date_of_birth": null, "date_of_death": null, "genders": [], "languages": [], "places_of_operation": [], "biography": "", "biography_author": null, "date_of_biography": null, "external_links": [], "uuid": "661c7107-b9d8-41c2-b5cb-e1a8e248f3be", "source": {"name": "Vernon", "slug": "vernon"}, "source_identifier": "19044", "external_references": [], "date_modified": "2025-03-05T13:50:33.602812+11:00"}, {"id": 12284, "name": "Eurfron Gwynne Jones", "roles_in_work": [{"id": 2765415, "title": "A Child's place", "work_id": 66060, "role": "co-producer", "role_id": 915, "is_primary": true}, {"id": 2187947, "title": "Parents and children", "work_id": 76547, "role": "co-producer", "role_id": 915, "is_primary": true}, {"id": 2765429, "title": "Mummy, daddy Lenin and Mao", "work_id": 70678, "role": "co-producer", "role_id": 915, "is_primary": true}, {"id": 2648739, "title": "Home and away (TEFC)", "work_id": 79896, "role": "producer", "role_id": 1089, "is_primary": true}, {"id": 1812490, "title": "Mother and child", "work_id": 86611, "role": "producer", "role_id": 1089, "is_primary": true}, {"id": 1813367, "title": "Getting ready to read (TEFC)", "work_id": 79887, "role": "producer", "role_id": 1089, "is_primary": true}, {"id": 1813370, "title": "Mother and child", "work_id": 79892, "role": "producer", "role_id": 1089, "is_primary": true}, {"id": 1813371, "title": "Getting across (TEFC)", "work_id": 79897, "role": "producer", "role_id": 1089, "is_primary": true}, {"id": 2765436, "title": "Part time parent, full time job", "work_id": 71370, "role": "producer", "role_id": 1089, "is_primary": true}, {"id": 2643960, "title": "All in the game", "work_id": 64665, "role": "producer", "role_id": 1089, "is_primary": true}, {"id": 2645543, "title": "Making sense [B&W]", "work_id": 70049, "role": "producer", "role_id": 1089, "is_primary": true}, {"id": 2648735, "title": "All in the game (TEFC)", "work_id": 79895, "role": "producer", "role_id": 1089, "is_primary": true}, {"id": 1812109, "title": "We see it like this (TEFC)", "work_id": 79900, "role": "producer", "role_id": 1089, "is_primary": true}, {"id": 1812239, "title": "How far how soon? (TEFC)", "work_id": 79898, "role": "producer", "role_id": 1089, "is_primary": true}, {"id": 1812338, "title": "Making sense (TEFC) [Colour]", "work_id": 79893, "role": "producer", "role_id": 1089, "is_primary": true}, {"id": 1812311, "title": "Here comes the judge (TEFC)", "work_id": 79899, "role": "producer", "role_id": 1089, "is_primary": true}, {"id": 770947, "title": "Power of speech (TEFC) (colour)", "work_id": 79894, "role": "production company", "role_id": 941, "is_primary": true}, {"id": 1532369, "title": "Power of speech [B/W]", "work_id": 71756, "role": "production company", "role_id": 941, "is_primary": true}], "also_known_as": "", "date_of_birth": "", "date_of_death": "", "genders": [], "languages": [], "places_of_operation": [], "biography": "", "biography_author": null, "date_of_biography": "2023-05-09T15:04:58.440299+10:00", "external_links": [], "uuid": "fd6b7bf2-bb81-45ce-a786-972642dbfbba", "source": {"name": "Vernon", "slug": "vernon"}, "source_identifier": "18913", "external_references": [], "date_modified": "2025-03-14T17:52:48.269488+11:00"}, {"id": 12283, "name": "Anglo-Scottish Pictures", "roles_in_work": [{"id": 874464, "title": "Land of Cyprus", "work_id": 88808, "role": "production company", "role_id": 941, "is_primary": true}, {"id": 2712476, "title": "Drums for a holiday", "work_id": 66958, "role": "production company", "role_id": 941, "is_primary": true}, {"id": 2678865, "title": "Britain now", "work_id": 65612, "role": "production company", "role_id": 941, "is_primary": true}, {"id": 2713346, "title": "The Fair County of Ayr", "work_id": 67370, "role": "production company", "role_id": 941, "is_primary": true}, {"id": 2680170, "title": "Come Saturday", "work_id": 66254, "role": "production company", "role_id": 941, "is_primary": true}, {"id": 2643958, "title": "All in our power", "work_id": 64664, "role": "production company", "role_id": 941, "is_primary": true}, {"id": 2714326, "title": "From Glasgow Green to Bendigo", "work_id": 67854, "role": "production company", "role_id": 941, "is_primary": true}, {"id": 2644413, "title": "Cocoa harvest", "work_id": 66213, "role": "production company", "role_id": 941, "is_primary": true}, {"id": 2714512, "title": "Gates of power", "work_id": 67962, "role": "production company", "role_id": 941, "is_primary": true}, {"id": 757879, "title": "Why works information", "work_id": 74749, "role": "production company", "role_id": 941, "is_primary": true}, {"id": 761462, "title": "Enchanted isles", "work_id": 76232, "role": "production company", "role_id": 941, "is_primary": true}, {"id": 873564, "title": "A Thousand million a year", "work_id": 88289, "role": "production company", "role_id": 941, "is_primary": true}, {"id": 874770, "title": "Sugar bowl island", "work_id": 89086, "role": "production company", "role_id": 941, "is_primary": true}, {"id": 874124, "title": "Britain wants to know: manpower", "work_id": 88575, "role": "production company", "role_id": 941, "is_primary": true}, {"id": 825161, "title": "Choicest Ceylon", "work_id": 95709, "role": "production company", "role_id": 941, "is_primary": true}, {"id": 861159, "title": "Young housewife", "work_id": 75020, "role": "production company", "role_id": 941, "is_primary": true}, {"id": 859935, "title": "The Troubled mind", "work_id": 74035, "role": "production company", "role_id": 941, "is_primary": true}, {"id": 752757, "title": "The Schoolmaster", "work_id": 72519, "role": "production company", "role_id": 941, "is_primary": true}, {"id": 752375, "title": "Room for discussion: productivity", "work_id": 72343, "role": "production company", "role_id": 941, "is_primary": true}, {"id": 2224927, "title": "Factory inspector", "work_id": 89916, "role": "production company", "role_id": 941, "is_primary": true}], "also_known_as": "", "date_of_birth": "", "date_of_death": "", "genders": [], "languages": [], "places_of_operation": [], "biography": "", "biography_author": null, "date_of_biography": "2023-05-09T16:24:54.933095+10:00", "external_links": [], "uuid": "67c4f409-6d77-4cc7-bdb0-bcdddbd08f42", "source": {"name": "Vernon", "slug": "vernon"}, "source_identifier": "5253", "external_references": [{"id": 37298, "source": {"name": "Wikidata", "slug": "wikidata"}, "source_identifier": "Q121034455"}], "date_modified": "2025-03-12T01:12:20.727273+11:00"}, {"id": 12282, "name": "Robert Wilmot", "roles_in_work": [{"id": 2716421, "title": "The Inner man steps out", "work_id": 68947, "role": "director", "role_id": 938, "is_primary": true}, {"id": 2643956, "title": "All I need is a conference", "work_id": 64663, "role": "director", "role_id": 938, "is_primary": true}], "also_known_as": "", "date_of_birth": null, "date_of_death": null, "genders": [], "languages": [], "places_of_operation": [], "biography": "", "biography_author": null, "date_of_biography": null, "external_links": [], "uuid": "962d72f2-7a2a-48ab-85b3-96c2d7c7d5f6", "source": {"name": "Vernon", "slug": "vernon"}, "source_identifier": "27916", "external_references": [], "date_modified": "2025-03-12T01:56:24.995398+11:00"}, {"id": 12281, "name": "General Electric", "roles_in_work": [{"id": 857493, "title": "Rapid transit", "work_id": 72058, "role": "production company", "role_id": 941, "is_primary": true}, {"id": 2715351, "title": "Help wanted: secretary", "work_id": 68395, "role": "production company", "role_id": 941, "is_primary": true}, {"id": 861139, "title": "You and the computer", "work_id": 75000, "role": "production company", "role_id": 941, "is_primary": true}, {"id": 2645998, "title": "Pipeline to the Clouds", "work_id": 71583, "role": "production company", "role_id": 941, "is_primary": true}, {"id": 2643954, "title": "All I need is a conference", "work_id": 64663, "role": "production company", "role_id": 941, "is_primary": true}, {"id": 861066, "title": "X-Ray Crystallography", "work_id": 74969, "role": "production company", "role_id": 941, "is_primary": true}, {"id": 858405, "title": "Sightseeing at home", "work_id": 72809, "role": "production company", "role_id": 941, "is_primary": true}, {"id": 2397674, "title": "A is for atom", "work_id": 90600, "role": "production company", "role_id": 941, "is_primary": true}], "also_known_as": "", "date_of_birth": "", "date_of_death": "", "genders": [], "languages": [], "places_of_operation": [], "biography": "", "biography_author": null, "date_of_biography": "2023-08-11T13:03:02.645264+10:00", "external_links": [], "uuid": "79967cdd-bb64-4f42-8234-3cd05655380b", "source": {"name": "Vernon", "slug": "vernon"}, "source_identifier": "8683", "external_references": [], "date_modified": "2025-03-12T01:32:22.634638+11:00"}, {"id": 12280, "name": "Henry Strauss", "roles_in_work": [{"id": 2716420, "title": "The Inner man steps out", "work_id": 68947, "role": "producer", "role_id": 1089, "is_primary": true}, {"id": 2645563, "title": "Solving problems; Anticipating problems; Making problems", "work_id": 70102, "role": "producer", "role_id": 1089, "is_primary": true}, {"id": 1811624, "title": "So small my island", "work_id": 89114, "role": "producer", "role_id": 1089, "is_primary": true}, {"id": 1818997, "title": "More than words (TEFC)", "work_id": 70581, "role": "producer", "role_id": 1089, "is_primary": true}, {"id": 2616022, "title": "More than words", "work_id": 86687, "role": "producer", "role_id": 1089, "is_primary": true}, {"id": 2643955, "title": "All I need is a conference", "work_id": 64663, "role": "producer", "role_id": 1089, "is_primary": true}, {"id": 2467944, "title": "The Question tree", "work_id": 72001, "role": "producer", "role_id": 1089, "is_primary": true}, {"id": 745335, "title": "Islands under the wind: Tahiti", "work_id": 69126, "role": "producer/director", "role_id": 31, "is_primary": true}, {"id": 874813, "title": "So small my island", "work_id": 89114, "role": "production company", "role_id": 941, "is_primary": true}, {"id": 2643953, "title": "All I need is a conference", "work_id": 64663, "role": "production company", "role_id": 941, "is_primary": true}], "also_known_as": "", "date_of_birth": "", "date_of_death": "", "genders": [], "languages": [], "places_of_operation": [], "biography": "", "biography_author": null, "date_of_biography": "2023-08-14T11:30:33.101520+10:00", "external_links": [], "uuid": "c4151122-3104-4687-8ed9-9a831f1f7d9c", "source": {"name": "Vernon", "slug": "vernon"}, "source_identifier": "20506", "external_references": [], "date_modified": "2025-03-12T01:56:24.400186+11:00"}]}