{"count": 28687, "next": "https://api.acmi.net.au/creators/?page=6", "previous": "https://api.acmi.net.au/creators/?page=4", "results": [{"id": 89068, "name": "Metia Interactive", "roles_in_work": [{"id": 3107899, "title": "Guardian Maia", "work_id": 125377, "role": "creator", "role_id": 968, "is_primary": true}], "also_known_as": "", "date_of_birth": null, "date_of_death": null, "genders": [], "languages": [], "places_of_operation": [], "biography": "", "biography_author": null, "date_of_biography": null, "external_links": [], "uuid": "30a3edef-8839-45b5-b828-05fc773f5384", "source": {"name": "Vernon", "slug": "vernon"}, "source_identifier": "41658", "external_references": [], "date_modified": "2025-09-17T15:37:29.439588+10:00"}, {"id": 89067, "name": "Free Lives", "roles_in_work": [{"id": 3107901, "title": "Terra Nil", "work_id": 125376, "role": "creator", "role_id": 968, "is_primary": true}, {"id": 3110084, "title": "Terra Nil (videogame)", "work_id": 125510, "role": "developer", "role_id": 658, "is_primary": true}, {"id": 3110060, "title": "Terra Nil (Key Art)", "work_id": 125511, "role": "developer", "role_id": 658, "is_primary": true}, {"id": 3110061, "title": "Terra Nil Concept Art", "work_id": 125512, "role": "developer", "role_id": 658, "is_primary": true}, {"id": 3110062, "title": "Terra Nil Concept Art", "work_id": 125513, "role": "developer", "role_id": 658, "is_primary": true}, {"id": 3110063, "title": "Terra Nil Key Art", "work_id": 125514, "role": "developer", "role_id": 658, "is_primary": true}, {"id": 3110064, "title": "Terra Nil Key Art", "work_id": 125515, "role": "developer", "role_id": 658, "is_primary": true}, {"id": 3110065, "title": "Terra Nil Key Art", "work_id": 125516, "role": "developer", "role_id": 658, "is_primary": true}], "also_known_as": "", "date_of_birth": null, "date_of_death": null, "genders": [], "languages": [], "places_of_operation": [], "biography": "", "biography_author": null, "date_of_biography": null, "external_links": [], "uuid": "01a9b10f-6987-47b8-86fa-e64239671a30", "source": {"name": "Vernon", "slug": "vernon"}, "source_identifier": "41657", "external_references": [], "date_modified": "2025-12-02T14:55:07.001665+11:00"}, {"id": 89066, "name": "Maxis", "roles_in_work": [{"id": 3107900, "title": "SimCity", "work_id": 125375, "role": "creator", "role_id": 968, "is_primary": true}], "also_known_as": "", "date_of_birth": null, "date_of_death": null, "genders": [], "languages": [], "places_of_operation": [], "biography": "", "biography_author": null, "date_of_biography": null, "external_links": [], "uuid": "4d4c8c99-1da2-44f3-96a7-14c62ad8eb11", "source": {"name": "Vernon", "slug": "vernon"}, "source_identifier": "41656", "external_references": [], "date_modified": "2025-09-17T15:37:34.053181+10:00"}, {"id": 89065, "name": "Bethesda Softworks", "roles_in_work": [{"id": 3107903, "title": "The Elder Scrolls Online ", "work_id": 125374, "role": "publisher", "role_id": 942, "is_primary": true}], "also_known_as": "", "date_of_birth": null, "date_of_death": null, "genders": [], "languages": [], "places_of_operation": [], "biography": "", "biography_author": null, "date_of_biography": null, "external_links": [], "uuid": "58273c61-9ecf-4c19-b25b-fb8383d8da3d", "source": {"name": "Vernon", "slug": "vernon"}, "source_identifier": "41655", "external_references": [], "date_modified": "2025-09-17T15:37:42.119588+10:00"}, {"id": 89064, "name": "ZeniMax Online Studios", "roles_in_work": [{"id": 3107902, "title": "The Elder Scrolls Online ", "work_id": 125374, "role": "creator", "role_id": 968, "is_primary": true}], "also_known_as": "", "date_of_birth": null, "date_of_death": null, "genders": [], "languages": [], "places_of_operation": [], "biography": "", "biography_author": null, "date_of_biography": null, "external_links": [], "uuid": "21cc95af-bf6f-472b-a174-d96de08b2d31", "source": {"name": "Vernon", "slug": "vernon"}, "source_identifier": "41150", "external_references": [], "date_modified": "2025-09-17T15:37:41.380948+10:00"}, {"id": 89063, "name": "Donna Williams", "roles_in_work": [{"id": 3107888, "title": "Neopets", "work_id": 125372, "role": "creator", "role_id": 968, "is_primary": true}], "also_known_as": "", "date_of_birth": null, "date_of_death": null, "genders": [], "languages": [], "places_of_operation": [], "biography": "", "biography_author": null, "date_of_biography": null, "external_links": [], "uuid": "4e9ffb2b-a349-40c4-be5b-80234e1ddd3f", "source": {"name": "Vernon", "slug": "vernon"}, "source_identifier": "41654", "external_references": [], "date_modified": "2025-09-17T15:15:01.386600+10:00"}, {"id": 89062, "name": "Adam Powell", "roles_in_work": [{"id": 3107887, "title": "Neopets", "work_id": 125372, "role": "creator", "role_id": 968, "is_primary": true}], "also_known_as": "", "date_of_birth": null, "date_of_death": null, "genders": [], "languages": [], "places_of_operation": [], "biography": "", "biography_author": null, "date_of_biography": null, "external_links": [], "uuid": "8c1609e6-6eda-4b9c-abd9-e057bb66cd88", "source": {"name": "Vernon", "slug": "vernon"}, "source_identifier": "41653", "external_references": [], "date_modified": "2025-09-17T15:15:00.713193+10:00"}, {"id": 89061, "name": "Geoff Crammond", "roles_in_work": [{"id": 3107889, "title": "The Sentinel ", "work_id": 125371, "role": "creator", "role_id": 968, "is_primary": true}], "also_known_as": "", "date_of_birth": null, "date_of_death": null, "genders": [], "languages": [], "places_of_operation": [], "biography": "", "biography_author": null, "date_of_biography": null, "external_links": [], "uuid": "ec33ff78-7654-4c55-b2f5-5cbbe8a28e9a", "source": {"name": "Vernon", "slug": "vernon"}, "source_identifier": "41652", "external_references": [], "date_modified": "2025-09-17T15:15:12.793545+10:00"}, {"id": 89060, "name": "Infocom", "roles_in_work": [{"id": 3107890, "title": "Zork", "work_id": 125370, "role": "creator", "role_id": 968, "is_primary": true}], "also_known_as": "", "date_of_birth": null, "date_of_death": null, "genders": [], "languages": [], "places_of_operation": [], "biography": "", "biography_author": null, "date_of_biography": null, "external_links": [], "uuid": "d4178b80-5e60-41ae-b406-8f0956398841", "source": {"name": "Vernon", "slug": "vernon"}, "source_identifier": "41643", "external_references": [], "date_modified": "2025-09-17T15:15:26.673699+10:00"}, {"id": 89059, "name": "Will Crowther", "roles_in_work": [{"id": 3107884, "title": "Colossal Cave Adventure ", "work_id": 125369, "role": "creator", "role_id": 968, "is_primary": true}], "also_known_as": "", "date_of_birth": null, "date_of_death": null, "genders": [], "languages": [], "places_of_operation": [], "biography": "", "biography_author": null, "date_of_biography": null, "external_links": [], "uuid": "51c72b91-a748-4e24-8a3e-7e2eb1c8f465", "source": {"name": "Vernon", "slug": "vernon"}, "source_identifier": "41649", "external_references": [], "date_modified": "2025-09-17T15:14:45.628657+10:00"}]}