{"count": 28687, "next": "https://api.acmi.net.au/creators/?page=723", "previous": "https://api.acmi.net.au/creators/?page=721", "results": [{"id": 78363, "name": "Abe Levitow", "roles_in_work": [{"id": 2474794, "title": "The Phantom tollbooth", "work_id": 86910, "role": "co-director", "role_id": 959, "is_primary": true}], "also_known_as": "", "date_of_birth": "1922-07-22", "date_of_death": "1975-05-08", "genders": [{"id": 9, "name": "Male", "slug": "male"}], "languages": [], "places_of_operation": [{"id": 1, "name": "United States of America", "slug": "united-states-of-america"}], "biography": "Abraham Levitow (July 2, 1922 – May 8, 1975) was an American animator who worked at Warner Bros. Cartoons, UPA and MGM Animation/Visual Arts. He is best known for his work under Chuck Jones' direction.\n\n", "biography_author": "Wikidata", "date_of_biography": "2023-09-05T17:14:48.870517+10:00", "external_links": [{"id": 1553, "uri": "https://en.wikipedia.org/wiki/Abe_Levitow"}], "uuid": "cf3ec053-6331-400f-837d-4f3f88802886", "source": {"name": "Vernon", "slug": "vernon"}, "source_identifier": "14629", "external_references": [{"id": 6810, "source": {"name": "Wikidata", "slug": "wikidata"}, "source_identifier": "Q4666414"}, {"id": 6811, "source": {"name": "VIAF", "slug": "viaf"}, "source_identifier": "48782558"}, {"id": 6812, "source": {"name": "LOC Auth", "slug": "loc-auth"}, "source_identifier": "no89006200"}, {"id": 6813, "source": {"name": "WorldCat", "slug": "worldcat"}, "source_identifier": "lccn-no89006200"}], "date_modified": "2023-09-05T17:14:48.884536+10:00"}, {"id": 78362, "name": "Geoff Tyson", "roles_in_work": [{"id": 2229650, "title": "Private eye", "work_id": 86904, "role": "editor", "role_id": 918, "is_primary": true}], "also_known_as": "", "date_of_birth": "", "date_of_death": "", "genders": [], "languages": [], "places_of_operation": [], "biography": "", "biography_author": null, "date_of_biography": "2023-05-09T16:33:46.362037+10:00", "external_links": [], "uuid": "c4fa31de-6d64-4cff-b238-60618fd1bc15", "source": {"name": "Vernon", "slug": "vernon"}, "source_identifier": "39100", "external_references": [{"id": 32625, "source": {"name": "Wikidata", "slug": "wikidata"}, "source_identifier": "Q121299494"}], "date_modified": "2023-09-05T20:02:06.227151+10:00"}, {"id": 78361, "name": "Malcolm Burrows", "roles_in_work": [{"id": 2229645, "title": "Private eye", "work_id": 86904, "role": "photographer", "role_id": 440, "is_primary": false}], "also_known_as": "", "date_of_birth": "", "date_of_death": "", "genders": [], "languages": [], "places_of_operation": [], "biography": "", "biography_author": null, "date_of_biography": "2023-05-09T16:33:45.876665+10:00", "external_links": [], "uuid": "10cf189a-7e70-4c9a-bd1a-27e1783b5664", "source": {"name": "Vernon", "slug": "vernon"}, "source_identifier": "39099", "external_references": [], "date_modified": "2023-06-14T16:33:30.576250+10:00"}, {"id": 78360, "name": "LM Films Pty Ltd", "roles_in_work": [{"id": 794474, "title": "Life forms", "work_id": 86895, "role": "production company", "role_id": 941, "is_primary": true}], "also_known_as": "", "date_of_birth": null, "date_of_death": null, "genders": [], "languages": [], "places_of_operation": [], "biography": "", "biography_author": null, "date_of_biography": null, "external_links": [], "uuid": "e067d851-9bc2-420b-9d83-56c5b0574fd5", "source": {"name": "Vernon", "slug": "vernon"}, "source_identifier": null, "external_references": [{"id": 38095, "source": {"name": "Wikidata", "slug": "wikidata"}, "source_identifier": "Q121034372"}], "date_modified": "2023-09-05T22:29:04.423640+10:00"}, {"id": 78359, "name": "Christine Mason", "roles_in_work": [{"id": 2616256, "title": "Me depressed?: don't make me laugh", "work_id": 86889, "role": "co-producer", "role_id": 915, "is_primary": true}, {"id": 906227, "title": "I Think they think: overcoming social phobia", "work_id": 86890, "role": "co-producers/directors", "role_id": 628, "is_primary": true}], "also_known_as": "", "date_of_birth": "", "date_of_death": "", "genders": [], "languages": [], "places_of_operation": [], "biography": "", "biography_author": null, "date_of_biography": "2023-05-09T14:43:39.820853+10:00", "external_links": [], "uuid": "caec7944-b98d-4f1e-a8bb-a3fa18a68677", "source": {"name": "Vernon", "slug": "vernon"}, "source_identifier": "16927", "external_references": [{"id": 37404, "source": {"name": "Wikidata", "slug": "wikidata"}, "source_identifier": "Q121057840"}], "date_modified": "2025-02-26T20:41:00.781458+11:00"}, {"id": 78358, "name": "Christopher Thomas", "roles_in_work": [{"id": 2239247, "title": "Fight or flight : overcoming panic and agoraphobia", "work_id": 86888, "role": "co-producers/directors", "role_id": 628, "is_primary": true}, {"id": 906228, "title": "I Think they think: overcoming social phobia", "work_id": 86890, "role": "co-producers/directors", "role_id": 628, "is_primary": true}], "also_known_as": "", "date_of_birth": "", "date_of_death": "", "genders": [], "languages": [], "places_of_operation": [], "biography": "", "biography_author": null, "date_of_biography": "2023-05-09T16:50:44.449345+10:00", "external_links": [], "uuid": "409a70e1-c2d6-4178-b0e5-c6ddbdafce0a", "source": {"name": "Vernon", "slug": "vernon"}, "source_identifier": "17007", "external_references": [], "date_modified": "2023-06-14T16:33:30.576250+10:00"}, {"id": 78357, "name": "Christine Manson", "roles_in_work": [{"id": 2239243, "title": "Fight or flight : overcoming panic and agoraphobia", "work_id": 86888, "role": "co-producers/directors", "role_id": 628, "is_primary": true}], "also_known_as": "", "date_of_birth": "", "date_of_death": "", "genders": [], "languages": [], "places_of_operation": [], "biography": "", "biography_author": null, "date_of_biography": "2023-05-09T16:50:44.209380+10:00", "external_links": [], "uuid": "79707738-09f2-4d35-b528-415d37ef766a", "source": {"name": "Vernon", "slug": "vernon"}, "source_identifier": "16926", "external_references": [], "date_modified": "2023-06-14T16:33:30.576250+10:00"}, {"id": 78356, "name": "Trevor Albert", "roles_in_work": [{"id": 1991238, "title": "Groundhog Day", "work_id": 86887, "role": "co-producer", "role_id": 915, "is_primary": true}], "also_known_as": "", "date_of_birth": null, "date_of_death": null, "genders": [], "languages": [], "places_of_operation": [], "biography": "", "biography_author": null, "date_of_biography": null, "external_links": [], "uuid": "a9382936-85ce-4580-979a-062bf9217137", "source": {"name": "Vernon", "slug": "vernon"}, "source_identifier": null, "external_references": [{"id": 41905, "source": {"name": "Wikidata", "slug": "wikidata"}, "source_identifier": "Q121144178"}], "date_modified": "2023-09-06T01:58:20.269410+10:00"}, {"id": 78355, "name": "Joel B Michaels", "roles_in_work": [{"id": 1991223, "title": "Universal soldier", "work_id": 86884, "role": "co-producer", "role_id": 915, "is_primary": true}, {"id": 2337275, "title": "The Changeling", "work_id": 86937, "role": "co-producer", "role_id": 915, "is_primary": true}, {"id": 1996728, "title": "Lolita", "work_id": 92809, "role": "co-producer", "role_id": 915, "is_primary": true}], "also_known_as": "", "date_of_birth": "2000-01-01", "date_of_death": "", "genders": [{"id": 9, "name": "Male", "slug": "male"}], "languages": [], "places_of_operation": [{"id": 36, "name": "Canada", "slug": "canada"}], "biography": "Joel Bialys Michaels is a film producer and actor. His notable work includes The Changeling for which he won a Best Motion Picture and a Golden Reel Award.\nHis other work includes Basic Instinct 2, Terminator 3: Rise of the Machines, Terminator Salvation, Lolita, Stargate, Universal Soldier and The Philadelphia Experiment.", "biography_author": "Wikidata", "date_of_biography": "2023-08-01T15:33:59.038566+10:00", "external_links": [{"id": 2400, "uri": "https://en.wikipedia.org/wiki/Joel_B._Michaels"}], "uuid": "9b36502f-d958-4792-9298-77ca82e4321e", "source": {"name": "Vernon", "slug": "vernon"}, "source_identifier": "22064", "external_references": [{"id": 10278, "source": {"name": "Wikidata", "slug": "wikidata"}, "source_identifier": "Q9012349"}, {"id": 10279, "source": {"name": "VIAF", "slug": "viaf"}, "source_identifier": "7082528"}, {"id": 10280, "source": {"name": "LOC Auth", "slug": "loc-auth"}, "source_identifier": "no2003071686"}, {"id": 10281, "source": {"name": "WorldCat", "slug": "worldcat"}, "source_identifier": "lccn-no2003071686"}], "date_modified": "2023-09-05T21:30:43.095209+10:00"}, {"id": 78354, "name": "Allen Shapiro", "roles_in_work": [{"id": 1991221, "title": "Universal soldier", "work_id": 86884, "role": "co-producer", "role_id": 915, "is_primary": true}, {"id": 2474853, "title": "The Quick and the dead", "work_id": 91443, "role": "co-producer", "role_id": 915, "is_primary": true}], "also_known_as": "", "date_of_birth": "1947-07-25", "date_of_death": "", "genders": [{"id": 9, "name": "Male", "slug": "male"}], "languages": [], "places_of_operation": [{"id": 1, "name": "United States of America", "slug": "united-states-of-america"}], "biography": "Allen Shapiro is a media executive and investor. He is the former executive chairman and CEO of Dick Clark Productions (DCP), a former chairman of TV Guide, and a former entertainment lawyer. Shapiro was the executive producer of DCP's flagship programming and oversaw the development, production and licensing of the company's high-profile properties. Since 1999, he is a managing partner of Mosaic Media Investment Partners production and talent management company.", "biography_author": "Wikidata", "date_of_biography": "2023-09-05T17:29:55.082521+10:00", "external_links": [{"id": 3533, "uri": "https://en.wikipedia.org/wiki/Allen_Shapiro"}], "uuid": "65aed6e7-cbf0-4346-8b61-fde4f9115bfc", "source": {"name": "Vernon", "slug": "vernon"}, "source_identifier": "15029", "external_references": [{"id": 26547, "source": {"name": "Wikidata", "slug": "wikidata"}, "source_identifier": "Q4731870"}], "date_modified": "2023-09-05T17:29:55.096582+10:00"}]}