{"count": 28687, "next": "https://api.acmi.net.au/creators/?page=2611", "previous": "https://api.acmi.net.au/creators/?page=2609", "results": [{"id": 12534, "name": "Byron Morgan", "roles_in_work": [{"id": 2677394, "title": "Apollo soyuz", "work_id": 64842, "role": "director", "role_id": 938, "is_primary": true}], "also_known_as": "", "date_of_birth": "", "date_of_death": "", "genders": [], "languages": [], "places_of_operation": [], "biography": "", "biography_author": null, "date_of_biography": "2023-08-11T14:09:34.324279+10:00", "external_links": [], "uuid": "fbbffabd-7895-4382-8efc-bebff8d76a5b", "source": {"name": "Vernon", "slug": "vernon"}, "source_identifier": "16400", "external_references": [], "date_modified": "2025-03-06T23:20:19.638637+11:00"}, {"id": 12533, "name": "David Gerber", "roles_in_work": [{"id": 2677393, "title": "Apollo soyuz", "work_id": 64842, "role": "producer", "role_id": 1089, "is_primary": true}], "also_known_as": "", "date_of_birth": "", "date_of_death": "", "genders": [], "languages": [], "places_of_operation": [], "biography": "", "biography_author": null, "date_of_biography": "2023-08-11T14:09:33.685724+10:00", "external_links": [], "uuid": "cae81309-9f10-4ae7-8ad0-76ca24719eec", "source": {"name": "Vernon", "slug": "vernon"}, "source_identifier": "17590", "external_references": [], "date_modified": "2025-03-06T23:20:19.053931+11:00"}, {"id": 12532, "name": "Screen Presentation", "roles_in_work": [{"id": 2677392, "title": "Apollo soyuz", "work_id": 64842, "role": "production company", "role_id": 941, "is_primary": true}], "also_known_as": "", "date_of_birth": "", "date_of_death": "", "genders": [], "languages": [], "places_of_operation": [], "biography": "", "biography_author": null, "date_of_biography": "2023-08-11T14:09:33.023094+10:00", "external_links": [], "uuid": "1f2c75fb-edde-4816-b5fe-41d7f673437e", "source": {"name": "Vernon", "slug": "vernon"}, "source_identifier": "12376", "external_references": [], "date_modified": "2025-03-06T23:20:18.467725+11:00"}, {"id": 12531, "name": "Don Wiseman", "roles_in_work": [{"id": 924421, "title": "NASA 2: the American space odyssey", "work_id": 93668, "role": "co-producer", "role_id": 915, "is_primary": true}, {"id": 1807579, "title": "NASA 1: an American space odyssey", "work_id": 93667, "role": "producer", "role_id": 1089, "is_primary": true}, {"id": 2643998, "title": "Apollo 17: on the shoulder of giants", "work_id": 64841, "role": "producer", "role_id": 1089, "is_primary": true}, {"id": 2786849, "title": "Deep space", "work_id": 83077, "role": "producer/director", "role_id": 31, "is_primary": true}, {"id": 2786852, "title": "The Light beyond light & life; Using the telescope: astrophotography", "work_id": 83078, "role": "producer/director", "role_id": 31, "is_primary": true}, {"id": 2786855, "title": "The Crystal space/time ship", "work_id": 83079, "role": "producer/director", "role_id": 31, "is_primary": true}, {"id": 2786846, "title": "The Solar system", "work_id": 83076, "role": "producer/director", "role_id": 31, "is_primary": true}, {"id": 2786842, "title": "The Infinity series", "work_id": 115325, "role": "producer/director", "role_id": 31, "is_primary": true}], "also_known_as": "", "date_of_birth": "", "date_of_death": "", "genders": [], "languages": [], "places_of_operation": [], "biography": "", "biography_author": null, "date_of_biography": "2023-05-09T20:04:17.864351+10:00", "external_links": [], "uuid": "92cb5110-24be-426e-84cd-c32f676110dc", "source": {"name": "Vernon", "slug": "vernon"}, "source_identifier": "18271", "external_references": [{"id": 41199, "source": {"name": "Wikidata", "slug": "wikidata"}, "source_identifier": "Q121034987"}], "date_modified": "2025-03-14T19:35:20.961302+11:00"}, {"id": 12530, "name": "A V Corporation", "roles_in_work": [{"id": 2643997, "title": "Apollo 17: on the shoulder of giants", "work_id": 64841, "role": "production company", "role_id": 941, "is_primary": true}, {"id": 2677391, "title": "Apollo 12: pinpoint for science", "work_id": 64840, "role": "production company", "role_id": 941, "is_primary": true}], "also_known_as": "", "date_of_birth": "", "date_of_death": "", "genders": [], "languages": [], "places_of_operation": [], "biography": "", "biography_author": null, "date_of_biography": "2023-08-11T14:09:18.465010+10:00", "external_links": [], "uuid": "2cfff177-d6a0-4dd5-a0bb-fdc89a1c917e", "source": {"name": "Vernon", "slug": "vernon"}, "source_identifier": "4968", "external_references": [], "date_modified": "2025-03-06T23:20:17.700442+11:00"}, {"id": 12529, "name": "Russell Hurley", "roles_in_work": [{"id": 2471052, "title": "Vintage Murrumbidgee", "work_id": 74380, "role": "director", "role_id": 938, "is_primary": true}, {"id": 2677388, "title": "Aplekage: the art of Stewart Merrett", "work_id": 64837, "role": "director", "role_id": 938, "is_primary": true}, {"id": 2752806, "title": "Riverboat heritage", "work_id": 98468, "role": "co-producer", "role_id": 915, "is_primary": true}, {"id": 2464959, "title": "Prahran the city", "work_id": 71771, "role": "producer", "role_id": 1089, "is_primary": true}], "also_known_as": "", "date_of_birth": "", "date_of_death": "", "genders": [], "languages": [], "places_of_operation": [], "biography": "", "biography_author": null, "date_of_biography": "2023-08-14T12:32:27.548000+10:00", "external_links": [], "uuid": "29520880-3386-4b50-acd8-551c6b484c69", "source": {"name": "Vernon", "slug": "vernon"}, "source_identifier": "28359", "external_references": [], "date_modified": "2025-03-13T01:12:21.320015+11:00"}, {"id": 12528, "name": "Trevor George Lucas", "roles_in_work": [{"id": 2677387, "title": "Aplekage: the art of Stewart Merrett", "work_id": 64837, "role": "producer", "role_id": 1089, "is_primary": true}], "also_known_as": "", "date_of_birth": null, "date_of_death": null, "genders": [], "languages": [], "places_of_operation": [], "biography": "", "biography_author": null, "date_of_biography": null, "external_links": [], "uuid": "c0fc4388-d661-4235-9971-d403dc569093", "source": {"name": "Vernon", "slug": "vernon"}, "source_identifier": "29972", "external_references": [], "date_modified": "2025-03-06T23:20:14.456849+11:00"}, {"id": 12527, "name": "Dunkirk Traders", "roles_in_work": [{"id": 2677386, "title": "Aplekage: the art of Stewart Merrett", "work_id": 64837, "role": "production company", "role_id": 941, "is_primary": true}], "also_known_as": "", "date_of_birth": null, "date_of_death": null, "genders": [], "languages": [], "places_of_operation": [], "biography": "", "biography_author": null, "date_of_biography": null, "external_links": [], "uuid": "f280fab1-175b-49be-a6dc-ae82910d807a", "source": {"name": "Vernon", "slug": "vernon"}, "source_identifier": "7687", "external_references": [], "date_modified": "2025-03-06T23:20:13.874660+11:00"}, {"id": 12526, "name": "Andromeda Productions", "roles_in_work": [{"id": 899860, "title": "Hard knocks", "work_id": 80720, "role": "production company", "role_id": 941, "is_primary": true}, {"id": 2753820, "title": "Cornflakes for tea", "work_id": 98944, "role": "production company", "role_id": 941, "is_primary": true}, {"id": 768018, "title": "Mystery island", "work_id": 78773, "role": "production company", "role_id": 941, "is_primary": true}, {"id": 2303734, "title": "Smuggler's Cove", "work_id": 86328, "role": "production company", "role_id": 941, "is_primary": true}, {"id": 2677385, "title": "Aplekage: the art of Stewart Merrett", "work_id": 64837, "role": "production company", "role_id": 941, "is_primary": true}], "also_known_as": "", "date_of_birth": "", "date_of_death": "", "genders": [], "languages": [], "places_of_operation": [], "biography": "", "biography_author": null, "date_of_biography": "2023-05-09T18:41:38.834873+10:00", "external_links": [], "uuid": "04b43351-0d75-4d58-bfd6-cbff6c1ab501", "source": {"name": "Vernon", "slug": "vernon"}, "source_identifier": "5247", "external_references": [{"id": 36699, "source": {"name": "Wikidata", "slug": "wikidata"}, "source_identifier": "Q121079079"}], "date_modified": "2025-03-13T01:32:43.575588+11:00"}, {"id": 12525, "name": "Graham Massey", "roles_in_work": [{"id": 3086002, "title": "Who protects the worker?", "work_id": 97939, "role": "director", "role_id": 938, "is_primary": true}, {"id": 830111, "title": "How to cure inflation", "work_id": 97940, "role": "director", "role_id": 938, "is_primary": true}, {"id": 2751691, "title": "Power of the market", "work_id": 97933, "role": "director", "role_id": 938, "is_primary": true}, {"id": 2751694, "title": "Anatomy of crisis", "work_id": 97934, "role": "director", "role_id": 938, "is_primary": true}, {"id": 2751700, "title": "Created equal", "work_id": 97936, "role": "director", "role_id": 938, "is_primary": true}, {"id": 2751702, "title": "What's wrong with our schools?", "work_id": 97937, "role": "director", "role_id": 938, "is_primary": true}, {"id": 3085988, "title": "From cradle to grave", "work_id": 97935, "role": "director", "role_id": 938, "is_primary": true}, {"id": 3085996, "title": "Who protects the consumer?", "work_id": 97938, "role": "director", "role_id": 938, "is_primary": true}, {"id": 2761387, "title": "Benjamin", "work_id": 65350, "role": "co-producer", "role_id": 915, "is_primary": true}, {"id": 2761762, "title": "What's wrong with the sun?", "work_id": 97417, "role": "director", "role_id": 938, "is_primary": true}, {"id": 2761376, "title": "The Ape that stood up", "work_id": 64835, "role": "producer", "role_id": 1089, "is_primary": true}], "also_known_as": "", "date_of_birth": "", "date_of_death": "", "genders": [], "languages": [], "places_of_operation": [], "biography": "", "biography_author": null, "date_of_biography": "2023-05-09T19:54:06.492788+10:00", "external_links": [], "uuid": "4501021d-8c87-4dfe-9070-b65c9b785206", "source": {"name": "Vernon", "slug": "vernon"}, "source_identifier": "19997", "external_references": [], "date_modified": "2025-03-17T10:42:07.944167+11:00"}]}