{"count": 28682, "next": "https://api.acmi.net.au/creators/?page=601", "previous": "https://api.acmi.net.au/creators/?page=599", "results": [{"id": 79579, "name": "Alex Usborne", "roles_in_work": [{"id": 2326269, "title": "The Acid house (D)", "work_id": 91471, "role": "co-producer", "role_id": 915, "is_primary": true}], "also_known_as": "", "date_of_birth": "", "date_of_death": "", "genders": [], "languages": [], "places_of_operation": [], "biography": "", "biography_author": null, "date_of_biography": "2023-05-09T19:19:30.561386+10:00", "external_links": [], "uuid": "60885e20-fe20-4874-90bc-8c1c1372d831", "source": {"name": "Vernon", "slug": "vernon"}, "source_identifier": "14908", "external_references": [{"id": 41210, "source": {"name": "Wikidata", "slug": "wikidata"}, "source_identifier": "Q121223118"}], "date_modified": "2023-09-05T17:25:31.661469+10:00"}, {"id": 79578, "name": "Yukiko Omura", "roles_in_work": [{"id": 910828, "title": "Miffy: best friends are great", "work_id": 91468, "role": "co-producer", "role_id": 915, "is_primary": true}], "also_known_as": "", "date_of_birth": null, "date_of_death": null, "genders": [], "languages": [], "places_of_operation": [], "biography": "", "biography_author": null, "date_of_biography": null, "external_links": [], "uuid": "06b0166f-9d87-46ad-8788-e0f2a9191da2", "source": {"name": "Vernon", "slug": "vernon"}, "source_identifier": null, "external_references": [{"id": 40102, "source": {"name": "Wikidata", "slug": "wikidata"}, "source_identifier": "Q121223313"}], "date_modified": "2023-09-06T02:24:02.674432+10:00"}, {"id": 79577, "name": "Yuzuru Otagawa", "roles_in_work": [{"id": 910827, "title": "Miffy: best friends are great", "work_id": 91468, "role": "co-producer", "role_id": 915, "is_primary": true}], "also_known_as": "", "date_of_birth": null, "date_of_death": null, "genders": [], "languages": [], "places_of_operation": [], "biography": "", "biography_author": null, "date_of_biography": null, "external_links": [], "uuid": "0e5ef692-aa10-4551-a42f-3bcd9998e9dc", "source": {"name": "Vernon", "slug": "vernon"}, "source_identifier": null, "external_references": [{"id": 34990, "source": {"name": "Wikidata", "slug": "wikidata"}, "source_identifier": "Q121223274"}], "date_modified": "2023-09-06T02:24:22.951745+10:00"}, {"id": 79576, "name": "Charles Newirth", "roles_in_work": [], "also_known_as": "", "date_of_birth": "1955-08-22", "date_of_death": null, "genders": [{"id": 9, "name": "Male", "slug": "male"}], "languages": [], "places_of_operation": [{"id": 1, "name": "United States of America", "slug": "united-states-of-america"}], "biography": "Charles Newirth (born August 22, 1955) is an American film producer.Newirth most recently executive produced the blockbuster films Shang-Chi and the Legend of the Ten Rings (2021), Ant-Man and the Wasp (2018), Doctor Strange (2016) and Iron Man 3 (2013), for Marvel Studios and Disney.\nPrior to that, Newirth had joined Revolution Studios in May 2000 and was responsible for overseeing the physical production of all Revolution Studios' motion pictures. He continued with Revolution Studios until June 2007, when he returned to working as an independent producer.\nRevolution Studios released 47 films, including America's Sweethearts (2001), Black Hawk Down (2001), XXX (2002), Anger Management (2003), Daddy Day Care (2003), Mona Lisa Smile (2003), Hellboy (2004), 13 Going on 30 (2004) and Rocky Balboa (2006). At Revolution Studios, Newirth served as executive producer on The Water Horse: Legend of the Deep (2007), Across the Universe (2007), Freedomland (2006), Christmas with the Kranks (2004), Peter Pan (2003), Maid in Manhattan (2002), The One (2001) and America's Sweethearts (2001).\nBefore joining Revolution Studios, Newirth produced the popular Robin Williams hit Patch Adams (1998), Home Fries (1998) starring Drew Barrymore, and the sleeper hit Galaxy Quest (1999), starring Tim Allen, Sigourney Weaver and Alan Rickman.\nNewirth co-produced Robert Zemeckis' multiple Academy Award-winning blockbuster Forrest Gump (1994). His other executive producing credits include: Zookeeper (2011) ; Brad Silberling's City of Angels (1998) starring Nicolas Cage and Meg Ryan; Rob Reiner's true-life drama Ghosts of Mississippi (1996) with Alec Baldwin, Whoopi Goldberg and James Woods; The American President (1995), also for director Rob Reiner, starring Michael Douglas and Annette Bening and Jon Turteltaub's Phenomenon (1996) starring John Travolta. He also served as a co-producer on the Barry Levinson films Toys (1992), the multiple Oscar-nominated Bugsy (1991) and as an associate producer on Barry Levinson's Avalon (1990).\nRaised in Scarsdale, New York, Newirth received a BA in Photography and Cinema from Ohio State University. He broke into the film industry as a location manager on such films as Flashdance (1983), Pretty in Pink (1986) and Ferris Bueller's Day Off (1986). He later moved up to production manager on Throw Momma from the Train (1987) and RoboCop (1987) before getting his first producing credit as an associate producer on The Package (1989).", "biography_author": "Wikidata", "date_of_biography": "2023-08-01T14:23:37.346713+10:00", "external_links": [{"id": 3741, "uri": "https://en.wikipedia.org/wiki/Charles_Newirth"}], "uuid": "fd00308c-5d36-4d62-be75-0895494ef490", "source": {"name": "Vernon", "slug": "vernon"}, "source_identifier": "16708", "external_references": [{"id": 26217, "source": {"name": "Wikidata", "slug": "wikidata"}, "source_identifier": "Q5081233"}], "date_modified": "2023-09-05T18:27:38.841565+10:00"}, {"id": 79575, "name": "Melvin Frank", "roles_in_work": [{"id": 1996151, "title": "Mr Blandings builds his dream house", "work_id": 92497, "role": "co-producer", "role_id": 915, "is_primary": true}, {"id": 2340599, "title": "The Court jester", "work_id": 91463, "role": "co-producers/directors", "role_id": 628, "is_primary": true}], "also_known_as": "", "date_of_birth": "1913-08-13", "date_of_death": "1988-10-13", "genders": [{"id": 9, "name": "Male", "slug": "male"}], "languages": [{"id": 1, "name": "English", "slug": "english"}], "places_of_operation": [{"id": 1, "name": "United States of America", "slug": "united-states-of-america"}], "biography": "Melvin Frank (13 August 1913 – 13 October 1988) was an American screenwriter, film producer and film director. He is known for his partnership with Norman Panama and their work on films such as Mr. Blandings Builds His Dream House (1948), White Christmas (1954), and The Court Jester (1956). He also directed films such as Buona Sera, Mrs. Campbell and A Touch of Class (1973).", "biography_author": "Wikidata", "date_of_biography": "2023-08-01T16:11:48.506194+10:00", "external_links": [{"id": 2691, "uri": "https://en.wikipedia.org/wiki/Melvin_Frank"}], "uuid": "ca6c4bb7-a9b0-4131-a307-5920f8895ed6", "source": {"name": "Vernon", "slug": "vernon"}, "source_identifier": "24935", "external_references": [{"id": 11484, "source": {"name": "Wikidata", "slug": "wikidata"}, "source_identifier": "Q41131"}, {"id": 11485, "source": {"name": "VIAF", "slug": "viaf"}, "source_identifier": "37101732"}, {"id": 11486, "source": {"name": "LOC Auth", "slug": "loc-auth"}, "source_identifier": "no93022571"}, {"id": 11487, "source": {"name": "WorldCat", "slug": "worldcat"}, "source_identifier": "lccn-no93022571"}], "date_modified": "2023-09-05T23:00:14.129893+10:00"}, {"id": 79574, "name": "Norman Panama", "roles_in_work": [{"id": 1996150, "title": "Mr Blandings builds his dream house", "work_id": 92497, "role": "co-producer", "role_id": 915, "is_primary": true}, {"id": 2340593, "title": "The Court jester", "work_id": 91463, "role": "co-producers/directors", "role_id": 628, "is_primary": true}], "also_known_as": "", "date_of_birth": "1914-04-21", "date_of_death": "2003-01-13", "genders": [{"id": 9, "name": "Male", "slug": "male"}], "languages": [{"id": 1, "name": "English", "slug": "english"}], "places_of_operation": [{"id": 1, "name": "United States of America", "slug": "united-states-of-america"}], "biography": "Norman Kaye Panama (April 21, 1914 – January 13, 2003) was an American screenwriter, film producer and film director.  He is known for his partnership with Melvin Frank and their work on films such as Mr. Blandings Builds His Dream House (1948), White Christmas (1954), and The Court Jester (1956). Without Frank, he directed films such as  How to Commit Marriage (1969).", "biography_author": "Wikidata", "date_of_biography": "2023-08-01T16:25:27.122145+10:00", "external_links": [{"id": 2795, "uri": "https://en.wikipedia.org/wiki/Norman_Panama"}], "uuid": "0c125681-1c7b-4bc7-98cb-ed3596d681f9", "source": {"name": "Vernon", "slug": "vernon"}, "source_identifier": "25904", "external_references": [{"id": 11906, "source": {"name": "Wikidata", "slug": "wikidata"}, "source_identifier": "Q544016"}, {"id": 11907, "source": {"name": "VIAF", "slug": "viaf"}, "source_identifier": "51890577"}, {"id": 11908, "source": {"name": "LOC Auth", "slug": "loc-auth"}, "source_identifier": "n80029741"}, {"id": 11909, "source": {"name": "WorldCat", "slug": "worldcat"}, "source_identifier": "lccn-n80029741"}], "date_modified": "2023-09-05T23:34:30.196213+10:00"}, {"id": 79573, "name": "Robert J. Degus", "roles_in_work": [{"id": 2208654, "title": "Pleasantville", "work_id": 91460, "role": "co-producer", "role_id": 915, "is_primary": true}], "also_known_as": "", "date_of_birth": "", "date_of_death": "", "genders": [], "languages": [], "places_of_operation": [], "biography": "", "biography_author": null, "date_of_biography": "2023-05-09T15:40:32.995814+10:00", "external_links": [], "uuid": "910a88cf-4df7-4594-9d55-210f612565d8", "source": {"name": "Vernon", "slug": "vernon"}, "source_identifier": "27770", "external_references": [{"id": 36547, "source": {"name": "Wikidata", "slug": "wikidata"}, "source_identifier": "Q121315348"}], "date_modified": "2023-09-06T00:42:40.911539+10:00"}, {"id": 79572, "name": "Gerry Troyna", "roles_in_work": [{"id": 910803, "title": "Great railway journeys. Series 4. Vol. 1", "work_id": 91459, "role": "co-producers/directors", "role_id": 628, "is_primary": true}], "also_known_as": "", "date_of_birth": null, "date_of_death": null, "genders": [], "languages": [], "places_of_operation": [], "biography": "", "biography_author": null, "date_of_biography": null, "external_links": [], "uuid": "d8a1d66a-c973-4bc5-89aa-df9f8f19ff99", "source": {"name": "Vernon", "slug": "vernon"}, "source_identifier": null, "external_references": [], "date_modified": "2023-06-14T16:33:30.576250+10:00"}, {"id": 79571, "name": "Nicola Bolton", "roles_in_work": [{"id": 910800, "title": "Great railway journeys. Series 4. Vol. 2", "work_id": 91458, "role": "co-producers/directors", "role_id": 628, "is_primary": true}], "also_known_as": "", "date_of_birth": null, "date_of_death": null, "genders": [], "languages": [], "places_of_operation": [], "biography": "", "biography_author": null, "date_of_biography": null, "external_links": [], "uuid": "d80ed16b-cdf8-4cd7-a6b2-94cbb609411e", "source": {"name": "Vernon", "slug": "vernon"}, "source_identifier": null, "external_references": [], "date_modified": "2023-06-14T16:33:30.576250+10:00"}, {"id": 79570, "name": "Mike Wadding", "roles_in_work": [{"id": 910799, "title": "Great railway journeys. Series 4. Vol. 2", "work_id": 91458, "role": "co-producers/directors", "role_id": 628, "is_primary": true}], "also_known_as": "", "date_of_birth": null, "date_of_death": null, "genders": [], "languages": [], "places_of_operation": [], "biography": "", "biography_author": null, "date_of_biography": null, "external_links": [], "uuid": "2df3cdec-3e93-49f6-914e-6b2ef57e51b5", "source": {"name": "Vernon", "slug": "vernon"}, "source_identifier": null, "external_references": [], "date_modified": "2023-06-14T16:33:30.576250+10:00"}]}