{"count": 28687, "next": "https://api.acmi.net.au/creators/?page=2734", "previous": "https://api.acmi.net.au/creators/?page=2732", "results": [{"id": 10968, "name": "Campbell Street Primary", "roles_in_work": [{"id": 2638184, "title": "Boppabasket 2006", "work_id": 110098, "role": "creator", "role_id": 968, "is_primary": true}], "also_known_as": "", "date_of_birth": "", "date_of_death": "", "genders": [], "languages": [], "places_of_operation": [], "biography": "", "biography_author": null, "date_of_biography": "2023-08-11T15:02:01.922223+10:00", "external_links": [], "uuid": "0a77c920-c3d8-4998-8a1e-d76704bf0824", "source": {"name": "Vernon", "slug": "vernon"}, "source_identifier": "2741", "external_references": [], "date_modified": "2025-03-05T11:02:01.912849+11:00"}, {"id": 10967, "name": "Mount Stuart Primary", "roles_in_work": [{"id": 2638182, "title": "Impossible jump", "work_id": 110096, "role": "creator", "role_id": 968, "is_primary": true}, {"id": 2638183, "title": "The Deadly cursed moon", "work_id": 110097, "role": "creator", "role_id": 968, "is_primary": true}], "also_known_as": "", "date_of_birth": "", "date_of_death": "", "genders": [], "languages": [], "places_of_operation": [], "biography": "", "biography_author": null, "date_of_biography": "2023-08-11T18:19:37.047811+10:00", "external_links": [], "uuid": "6256745c-46c0-404b-94fc-0cc66bcefafc", "source": {"name": "Vernon", "slug": "vernon"}, "source_identifier": "2738", "external_references": [], "date_modified": "2025-03-05T11:02:01.116024+11:00"}, {"id": 10966, "name": "Alex Roome", "roles_in_work": [{"id": 2638181, "title": " Nutritional triathlon champion", "work_id": 110095, "role": "creator", "role_id": 968, "is_primary": true}], "also_known_as": "", "date_of_birth": "", "date_of_death": "", "genders": [], "languages": [], "places_of_operation": [], "biography": "", "biography_author": null, "date_of_biography": "2023-05-09T17:34:29.382746+10:00", "external_links": [], "uuid": "3b471f91-8779-4363-8fae-c89c8e64a3f0", "source": {"name": "Vernon", "slug": "vernon"}, "source_identifier": "2737", "external_references": [], "date_modified": "2025-03-05T11:01:59.520444+11:00"}, {"id": 10965, "name": "Tom Goddard", "roles_in_work": [{"id": 2638180, "title": " Nutritional triathlon champion", "work_id": 110095, "role": "creator", "role_id": 968, "is_primary": true}], "also_known_as": "", "date_of_birth": "", "date_of_death": "", "genders": [], "languages": [], "places_of_operation": [], "biography": "", "biography_author": null, "date_of_biography": "2023-05-09T17:34:29.166888+10:00", "external_links": [], "uuid": "77740613-05e9-467a-ad26-8581a9f22555", "source": {"name": "Vernon", "slug": "vernon"}, "source_identifier": "2736", "external_references": [], "date_modified": "2025-03-05T11:01:58.920826+11:00"}, {"id": 10964, "name": "Tom Walker", "roles_in_work": [{"id": 2638179, "title": " Nutritional triathlon champion", "work_id": 110095, "role": "creator", "role_id": 968, "is_primary": true}], "also_known_as": "", "date_of_birth": "", "date_of_death": "", "genders": [{"id": 9, "name": "Male", "slug": "male"}], "languages": [], "places_of_operation": [], "biography": "", "biography_author": null, "date_of_biography": "2023-05-09T17:34:28.936769+10:00", "external_links": [], "uuid": "76162c34-1df9-4600-9793-21fe76e1fd4f", "source": {"name": "Vernon", "slug": "vernon"}, "source_identifier": "2734", "external_references": [], "date_modified": "2025-03-05T11:01:58.322339+11:00"}, {"id": 10963, "name": "Scotch Oakburn College", "roles_in_work": [{"id": 2638178, "title": " Nutritional triathlon champion", "work_id": 110095, "role": "creator", "role_id": 968, "is_primary": true}], "also_known_as": "", "date_of_birth": "", "date_of_death": "", "genders": [], "languages": [], "places_of_operation": [], "biography": "", "biography_author": null, "date_of_biography": "2023-05-09T17:34:28.715583+10:00", "external_links": [], "uuid": "72cdde49-09c8-4410-9fb6-e4c5f728d965", "source": {"name": "Vernon", "slug": "vernon"}, "source_identifier": "2733", "external_references": [], "date_modified": "2025-03-05T11:01:57.731444+11:00"}, {"id": 10961, "name": "Jared Christensen", "roles_in_work": [{"id": 2638176, "title": "Supersoccer", "work_id": 110094, "role": "creator", "role_id": 968, "is_primary": true}], "also_known_as": "", "date_of_birth": "", "date_of_death": "", "genders": [], "languages": [], "places_of_operation": [], "biography": "", "biography_author": null, "date_of_biography": "2023-05-09T19:08:44.075254+10:00", "external_links": [], "uuid": "5f01f0b2-081c-46aa-9d2b-4ba297b58be8", "source": {"name": "Vernon", "slug": "vernon"}, "source_identifier": "2739", "external_references": [], "date_modified": "2025-03-05T11:01:56.315187+11:00"}, {"id": 10959, "name": "Alice Jackson Walsh", "roles_in_work": [{"id": 2638943, "title": "Let's talk cricket", "work_id": 110093, "role": "creator", "role_id": 968, "is_primary": true}], "also_known_as": "", "date_of_birth": "", "date_of_death": "", "genders": [], "languages": [], "places_of_operation": [], "biography": "", "biography_author": null, "date_of_biography": "2023-07-05T03:42:43.996119+10:00", "external_links": [], "uuid": "dadb3370-e3c4-43db-9377-e50cc98a1628", "source": {"name": "Vernon", "slug": "vernon"}, "source_identifier": "2731", "external_references": [], "date_modified": "2025-03-05T11:12:09.715035+11:00"}, {"id": 10958, "name": "Caleb De Leon", "roles_in_work": [{"id": 2638168, "title": "Dragon chess", "work_id": 110084, "role": "creator", "role_id": 968, "is_primary": true}], "also_known_as": "", "date_of_birth": "", "date_of_death": "", "genders": [{"id": 9, "name": "Male", "slug": "male"}], "languages": [], "places_of_operation": [], "biography": "", "biography_author": null, "date_of_biography": "2023-05-09T17:34:52.426095+10:00", "external_links": [], "uuid": "bf46de10-d20e-4a50-bb0c-03a0200421a0", "source": {"name": "Vernon", "slug": "vernon"}, "source_identifier": "2730", "external_references": [], "date_modified": "2025-03-05T11:01:48.219967+11:00"}, {"id": 10957, "name": "Kimberley Park State School", "roles_in_work": [{"id": 2638167, "title": "Dragon chess", "work_id": 110084, "role": "creator", "role_id": 968, "is_primary": true}], "also_known_as": "", "date_of_birth": "", "date_of_death": "", "genders": [], "languages": [], "places_of_operation": [], "biography": "", "biography_author": null, "date_of_biography": "2023-05-09T17:34:52.196498+10:00", "external_links": [], "uuid": "8fd8896c-f401-425d-b2bd-57a977e6faf4", "source": {"name": "Vernon", "slug": "vernon"}, "source_identifier": "2729", "external_references": [], "date_modified": "2025-03-05T11:01:47.631264+11:00"}]}