{"count": 28687, "next": "https://api.acmi.net.au/creators/?page=1162", "previous": "https://api.acmi.net.au/creators/?page=1160", "results": [{"id": 73779, "name": "Swinburne Senior Secondary College", "roles_in_work": [{"id": 2640597, "title": "[Untitled]", "work_id": 110436, "role": "school", "role_id": 619, "is_primary": false}], "also_known_as": "", "date_of_birth": "", "date_of_death": "", "genders": [], "languages": [], "places_of_operation": [], "biography": "", "biography_author": null, "date_of_biography": "2023-05-09T19:32:00.604351+10:00", "external_links": [], "uuid": "729c1f83-e8e5-4f62-afee-3678052ab7be", "source": {"name": "Vernon", "slug": "vernon"}, "source_identifier": "3110", "external_references": [], "date_modified": "2025-03-05T11:28:57.160051+11:00"}, {"id": 73778, "name": "Ringwood Secondary College", "roles_in_work": [{"id": 2640612, "title": "The Calling", "work_id": 110433, "role": "school", "role_id": 619, "is_primary": false}, {"id": 2642518, "title": "To and fro", "work_id": 114307, "role": "school", "role_id": 619, "is_primary": false}], "also_known_as": "", "date_of_birth": "", "date_of_death": "", "genders": [], "languages": [], "places_of_operation": [], "biography": "", "biography_author": null, "date_of_biography": "2023-05-09T19:32:01.368333+10:00", "external_links": [], "uuid": "b474baea-3e25-4ddc-a8e8-1a8c0dede206", "source": {"name": "Vernon", "slug": "vernon"}, "source_identifier": "3098", "external_references": [], "date_modified": "2025-03-05T11:47:26.764831+11:00"}, {"id": 73777, "name": "Victorian Curriculum and Assessment Authority (VCAA)", "roles_in_work": [{"id": 2642508, "title": "Top Screen 2007", "work_id": 114296, "role": "project coordinator", "role_id": 623, "is_primary": false}, {"id": 2643694, "title": "Top Screen 2008 VCE Season of Excellence", "work_id": 111247, "role": "project coordinator", "role_id": 623, "is_primary": false}, {"id": 2640608, "title": "Top Screen 2006", "work_id": 110434, "role": "project coordinator", "role_id": 623, "is_primary": false}], "also_known_as": "", "date_of_birth": "", "date_of_death": "", "genders": [], "languages": [], "places_of_operation": [], "biography": "", "biography_author": null, "date_of_biography": "2023-05-09T19:31:54.260734+10:00", "external_links": [], "uuid": "d80965f0-d8e7-4d75-8394-e182e9796fc7", "source": {"name": "Vernon", "slug": "vernon"}, "source_identifier": "3085", "external_references": [], "date_modified": "2025-03-05T12:05:50.714333+11:00"}, {"id": 73776, "name": "Charles and Sheena Hazzard", "roles_in_work": [{"id": 2640488, "title": "The Hazzards: 1959-1983", "work_id": 110414, "role": "source film", "role_id": 462, "is_primary": false}], "also_known_as": "", "date_of_birth": "", "date_of_death": "", "genders": [], "languages": [], "places_of_operation": [], "biography": "", "biography_author": null, "date_of_biography": "2023-05-09T20:01:20.137578+10:00", "external_links": [], "uuid": "a0111d7f-235f-4911-956e-9514088de358", "source": {"name": "Vernon", "slug": "vernon"}, "source_identifier": "3063", "external_references": [], "date_modified": "2025-03-05T11:28:19.643720+11:00"}, {"id": 73775, "name": "Nicholas Hazzard", "roles_in_work": [{"id": 2640486, "title": "The Hazzards: 1959-1983", "work_id": 110414, "role": "narrator", "role_id": 499, "is_primary": false}], "also_known_as": "", "date_of_birth": "", "date_of_death": "", "genders": [], "languages": [], "places_of_operation": [], "biography": "", "biography_author": null, "date_of_biography": "2023-05-09T20:01:19.895731+10:00", "external_links": [], "uuid": "3a7f1e0e-98cc-479d-a0d6-946ccebc9fbc", "source": {"name": "Vernon", "slug": "vernon"}, "source_identifier": "3062", "external_references": [], "date_modified": "2025-03-05T11:28:19.074757+11:00"}, {"id": 73774, "name": "Karl Neuenfeldt", "roles_in_work": [{"id": 2640484, "title": "The Hazzards: 1959-1983", "work_id": 110414, "role": "co-producer", "role_id": 915, "is_primary": true}], "also_known_as": "", "date_of_birth": "", "date_of_death": "", "genders": [], "languages": [], "places_of_operation": [], "biography": "", "biography_author": null, "date_of_biography": "2023-05-09T20:01:19.655093+10:00", "external_links": [], "uuid": "96ad77c8-7cdd-4715-886a-ec1a7af8f5ad", "source": {"name": "Vernon", "slug": "vernon"}, "source_identifier": "3060", "external_references": [{"id": 42437, "source": {"name": "Wikidata", "slug": "wikidata"}, "source_identifier": "Q121315522"}], "date_modified": "2025-03-05T11:28:18.479255+11:00"}, {"id": 73773, "name": "Alex Badham", "roles_in_work": [{"id": 2640467, "title": "A Short portrait of obsession", "work_id": 110410, "role": "director of photography", "role_id": 925, "is_primary": false}], "also_known_as": "", "date_of_birth": "", "date_of_death": "", "genders": [], "languages": [], "places_of_operation": [], "biography": "", "biography_author": null, "date_of_biography": "2023-05-09T11:39:34.959604+10:00", "external_links": [], "uuid": "e7f01225-9c6e-4bc1-b289-8a26acba67d5", "source": {"name": "Vernon", "slug": "vernon"}, "source_identifier": "3055", "external_references": [], "date_modified": "2025-03-05T11:28:12.849610+11:00"}, {"id": 73772, "name": "John Clayton", "roles_in_work": [{"id": 2640870, "title": "The Cellist", "work_id": 114233, "role": "cast", "role_id": 33, "is_primary": false}, {"id": 2640937, "title": "The Girl who met Simone de Beauvoir in Paris", "work_id": 110403, "role": "cast", "role_id": 33, "is_primary": false}], "also_known_as": "", "date_of_birth": "1940-01-01", "date_of_death": "2003-09-25", "genders": [{"id": 9, "name": "Male", "slug": "male"}], "languages": [{"id": 1, "name": "English", "slug": "english"}], "places_of_operation": [{"id": 3, "name": "Australia", "slug": "australia"}], "biography": "John Clayton (7 April 1940 – 25 September 2003) was an Australian television and film character actor, primarily in soap operas, including  Home And Away where he played the brief role of the brother of  Pippa Fletcher, wheelchair-using former cricketer Danny King in 1988. He also had roles in theatre productions.", "biography_author": "Wikidata", "date_of_biography": "2023-09-05T21:34:03.518475+10:00", "external_links": [{"id": 5922, "uri": "https://en.wikipedia.org/wiki/John_Clayton_(Australian_actor)"}], "uuid": "756334da-7063-4542-9025-35a85fcd1873", "source": {"name": "Vernon", "slug": "vernon"}, "source_identifier": "2974", "external_references": [{"id": 35226, "source": {"name": "Wikidata", "slug": "wikidata"}, "source_identifier": "Q6226289"}, {"id": 54870, "source": {"name": "LOC Auth", "slug": "loc-auth"}, "source_identifier": "no2018059164"}], "date_modified": "2025-03-05T11:31:19.549514+11:00"}, {"id": 73771, "name": "Tony Llewellyn-Jones", "roles_in_work": [{"id": 2750328, "title": "A Touch of the terminals", "work_id": 97256, "role": "cast", "role_id": 33, "is_primary": false}, {"id": 2640935, "title": "The Girl who met Simone de Beauvoir in Paris", "work_id": 110403, "role": "cast", "role_id": 33, "is_primary": false}, {"id": 2283555, "title": "Vincent", "work_id": 80041, "role": "producer", "role_id": 1089, "is_primary": true}, {"id": 2756010, "title": "Touch the Sun : The Gift", "work_id": 79182, "role": "producer", "role_id": 1089, "is_primary": true}, {"id": 2756002, "title": "Touch the Sun : The Gift (Captioned)", "work_id": 79741, "role": "producer", "role_id": 1089, "is_primary": true}], "also_known_as": "", "date_of_birth": null, "date_of_death": "", "genders": [{"id": 9, "name": "Male", "slug": "male"}], "languages": [], "places_of_operation": [{"id": 3, "name": "Australia", "slug": "australia"}], "biography": "Tony Llewellyn-Jones is a British-born Australian actor. He was nominated for the 1976 AFI Award for Best Actor in a Supporting Role for his role in Picnic at Hanging Rock.Born in London, England, Llewellyn-Jones lived in Singapore, Kuala Lumpur and Zimbabwe before moving to Australia in 1965. He is the son of Dr Derek Llewellyn-Jones and Elisabeth Kirkby. He has performed in films, such as Picnic at Hanging Rock, on TV, such as a long running role on G.P., and on stage, working with Melbourne Theatre Company, Sydney Theatre Company and Bell Shakespeare. Source: Wikidata; 01/08/2023", "biography_author": null, "date_of_biography": "2025-03-13T14:38:03.561762+11:00", "external_links": [{"id": 5293, "uri": "https://en.wikipedia.org/wiki/Tony_Llewellyn-Jones"}], "uuid": "b8a7ed48-16eb-4d8b-adf5-afefb4eadaa2", "source": {"name": "Vernon", "slug": "vernon"}, "source_identifier": "3045", "external_references": [{"id": 26269, "source": {"name": "Wikidata", "slug": "wikidata"}, "source_identifier": "Q16611036"}, {"id": 31860, "source": {"name": "VIAF", "slug": "viaf"}, "source_identifier": "305202238"}], "date_modified": "2025-03-13T14:38:03.561964+11:00"}, {"id": 73770, "name": "John Hargreaves", "roles_in_work": [{"id": 2198818, "title": "Don's Party", "work_id": 85660, "role": "cast", "role_id": 33, "is_primary": false}, {"id": 2654928, "title": "The Leaving of Liverpool: Part 1", "work_id": 116938, "role": "cast", "role_id": 33, "is_primary": false}, {"id": 2640979, "title": "Morris loves Jack", "work_id": 110402, "role": "cast", "role_id": 33, "is_primary": false}, {"id": 2614501, "title": "Blackfellas", "work_id": 83788, "role": "cast", "role_id": 33, "is_primary": false}, {"id": 2647938, "title": "The Dismissal", "work_id": 77811, "role": "cast", "role_id": 33, "is_primary": false}, {"id": 801792, "title": "The Leaving of Liverpool. [Parts 1 & 2]", "work_id": 89140, "role": "cast", "role_id": 33, "is_primary": false}], "also_known_as": "", "date_of_birth": "28 NOV 1945", "date_of_death": "08 JAN 1996", "genders": [{"id": 9, "name": "Male", "slug": "male"}], "languages": [], "places_of_operation": [{"id": 3, "name": "Australia", "slug": "australia"}], "biography": "John William Hargreaves (28 November 1945 – 8 January 1996) was an Australian actor. He won three Australian Film Institute Awards and was nominated six times. Source: Wikidata; 01/08/2023", "biography_author": null, "date_of_biography": "2025-03-05T16:05:07.398693+11:00", "external_links": [{"id": 4383, "uri": "https://en.wikipedia.org/wiki/John_Hargreaves_(actor)"}], "uuid": "b63d1d47-f74c-4cf7-81d8-97d9e83e558a", "source": {"name": "Vernon", "slug": "vernon"}, "source_identifier": "3039", "external_references": [{"id": 27060, "source": {"name": "Wikidata", "slug": "wikidata"}, "source_identifier": "Q1700377"}, {"id": 29513, "source": {"name": "VIAF", "slug": "viaf"}, "source_identifier": "37118779"}, {"id": 29514, "source": {"name": "LOC Auth", "slug": "loc-auth"}, "source_identifier": "no97028794"}, {"id": 29515, "source": {"name": "WorldCat", "slug": "worldcat"}, "source_identifier": "lccn-no97028794"}], "date_modified": "2025-03-05T16:05:07.398961+11:00"}]}