{"count": 28687, "next": "https://api.acmi.net.au/creators/?page=697", "previous": "https://api.acmi.net.au/creators/?page=695", "results": [{"id": 78623, "name": "Brian Pollard", "roles_in_work": [{"id": 873218, "title": "The Ross family mystery", "work_id": 88077, "role": "director", "role_id": 938, "is_primary": true}, {"id": 2292896, "title": "They all can work", "work_id": 87716, "role": "director", "role_id": 938, "is_primary": true}], "also_known_as": "", "date_of_birth": "", "date_of_death": "", "genders": [], "languages": [], "places_of_operation": [], "biography": "", "biography_author": null, "date_of_biography": "2023-05-09T18:22:39.490032+10:00", "external_links": [], "uuid": "dd7f9409-2009-4c5a-bcfd-048d22c02f89", "source": {"name": "Vernon", "slug": "vernon"}, "source_identifier": "16251", "external_references": [{"id": 36934, "source": {"name": "Wikidata", "slug": "wikidata"}, "source_identifier": "Q121144288"}], "date_modified": "2023-09-05T18:11:07.054476+10:00"}, {"id": 78622, "name": "Gordon Payne", "roles_in_work": [{"id": 907093, "title": "Negotiating a new Canadian constitution", "work_id": 87713, "role": "director", "role_id": 938, "is_primary": true}], "also_known_as": "", "date_of_birth": null, "date_of_death": null, "genders": [], "languages": [], "places_of_operation": [], "biography": "", "biography_author": null, "date_of_biography": null, "external_links": [], "uuid": "2e7ea93a-e2c2-4f05-8c5a-7dfabc8f2d46", "source": {"name": "Vernon", "slug": "vernon"}, "source_identifier": null, "external_references": [{"id": 32455, "source": {"name": "Wikidata", "slug": "wikidata"}, "source_identifier": "Q121299170"}], "date_modified": "2023-09-05T20:17:10.163698+10:00"}, {"id": 78621, "name": "Suzanne Olivier", "roles_in_work": [{"id": 2186651, "title": "Des Ensembles", "work_id": 87709, "role": "director", "role_id": 938, "is_primary": true}], "also_known_as": "", "date_of_birth": "1943-04-26", "date_of_death": "", "genders": [{"id": 5, "name": "Female", "slug": "female"}], "languages": [], "places_of_operation": [{"id": 36, "name": "Canada", "slug": "canada"}], "biography": "", "biography_author": null, "date_of_biography": "2023-05-09T15:02:21.119793+10:00", "external_links": [], "uuid": "fc79e1b2-b6a7-4cc7-8345-157265f09d7f", "source": {"name": "Vernon", "slug": "vernon"}, "source_identifier": "29391", "external_references": [{"id": 42430, "source": {"name": "Wikidata", "slug": "wikidata"}, "source_identifier": "Q49828110"}], "date_modified": "2023-09-06T01:37:39.083913+10:00"}, {"id": 78620, "name": "Bill Cherry", "roles_in_work": [{"id": 2212208, "title": "Dryland salinity", "work_id": 87703, "role": "director", "role_id": 938, "is_primary": true}], "also_known_as": "", "date_of_birth": "", "date_of_death": "", "genders": [], "languages": [], "places_of_operation": [], "biography": "", "biography_author": null, "date_of_biography": "2023-05-09T15:47:47.102143+10:00", "external_links": [], "uuid": "7a59ecc6-931f-4dbf-93e0-2ef409a95734", "source": {"name": "Vernon", "slug": "vernon"}, "source_identifier": "15944", "external_references": [{"id": 37319, "source": {"name": "Wikidata", "slug": "wikidata"}, "source_identifier": "Q121035691"}], "date_modified": "2023-09-05T18:02:14.108438+10:00"}, {"id": 78619, "name": "Cherry Film Productions", "roles_in_work": [{"id": 2212205, "title": "Dryland salinity", "work_id": 87703, "role": "production company", "role_id": 941, "is_primary": true}], "also_known_as": "", "date_of_birth": "", "date_of_death": "", "genders": [], "languages": [], "places_of_operation": [], "biography": "", "biography_author": null, "date_of_biography": "2023-05-09T15:47:46.639862+10:00", "external_links": [], "uuid": "dc3b6f35-5650-436d-a3b2-02d91b9453ad", "source": {"name": "Vernon", "slug": "vernon"}, "source_identifier": "6553", "external_references": [{"id": 39454, "source": {"name": "Wikidata", "slug": "wikidata"}, "source_identifier": "Q121035212"}], "date_modified": "2023-09-05T18:30:25.603486+10:00"}, {"id": 78618, "name": "N.P. Pery", "roles_in_work": [{"id": 2303550, "title": "Smithy", "work_id": 87695, "role": "producer", "role_id": 1089, "is_primary": true}], "also_known_as": "", "date_of_birth": "", "date_of_death": "", "genders": [], "languages": [], "places_of_operation": [], "biography": "", "biography_author": null, "date_of_biography": "2023-05-09T18:41:16.743641+10:00", "external_links": [], "uuid": "aa6544b0-6bde-41cb-98ef-9966b3fcfb7a", "source": {"name": "Vernon", "slug": "vernon"}, "source_identifier": "25584", "external_references": [{"id": 51635, "source": {"name": "Wikidata", "slug": "wikidata"}, "source_identifier": "Q121357844"}], "date_modified": "2023-09-05T23:23:41.813330+10:00"}, {"id": 78617, "name": "T.O. McCreadie", "roles_in_work": [{"id": 2476490, "title": "Into the straight", "work_id": 87693, "role": "producer/director", "role_id": 31, "is_primary": true}], "also_known_as": "", "date_of_birth": "1907-01-01", "date_of_death": "1992-01-01", "genders": [{"id": 9, "name": "Male", "slug": "male"}], "languages": [], "places_of_operation": [], "biography": "Tom McCreadie (1907–1992), better known as T. O. McCreadie was an Australian film director and producer, who was also involved in distribution and exhibition for many years.", "biography_author": "Wikidata", "date_of_biography": "2023-09-06T01:39:49.592983+10:00", "external_links": [{"id": 3169, "uri": "https://en.wikipedia.org/wiki/T._O._McCreadie"}], "uuid": "7845cf4a-e2b6-4b34-af2d-9807f13e007c", "source": {"name": "Vernon", "slug": "vernon"}, "source_identifier": "13598", "external_references": [{"id": 13437, "source": {"name": "Wikidata", "slug": "wikidata"}, "source_identifier": "Q7668046"}], "date_modified": "2023-09-06T01:39:49.603776+10:00"}, {"id": 78616, "name": "Michelle Potter", "roles_in_work": [{"id": 2122790, "title": "Boro's ballet: the making of an Australian ballet 1939-1961", "work_id": 91512, "role": "co-director", "role_id": 959, "is_primary": true}, {"id": 2328633, "title": "The Australian ballet: opening act 1962-1972", "work_id": 94069, "role": "co-director", "role_id": 959, "is_primary": true}, {"id": 2329347, "title": "The Ballets Russes in Australia: an avalanche of dancing", "work_id": 87691, "role": "co-producer", "role_id": 915, "is_primary": true}], "also_known_as": "", "date_of_birth": "", "date_of_death": "", "genders": [], "languages": [], "places_of_operation": [], "biography": "", "biography_author": null, "date_of_biography": "2023-05-09T19:23:30.597630+10:00", "external_links": [], "uuid": "63519135-a8a7-49a4-a51c-c411ba658445", "source": {"name": "Vernon", "slug": "vernon"}, "source_identifier": "25313", "external_references": [{"id": 35040, "source": {"name": "Wikidata", "slug": "wikidata"}, "source_identifier": "Q121126708"}], "date_modified": "2023-09-05T23:13:09.519033+10:00"}, {"id": 78615, "name": "Phil K Walsh", "roles_in_work": [{"id": 2100559, "title": "Around the boree log (1925)", "work_id": 87689, "role": "producer/director", "role_id": 31, "is_primary": true}], "also_known_as": "", "date_of_birth": "", "date_of_death": "", "genders": [], "languages": [], "places_of_operation": [], "biography": "", "biography_author": null, "date_of_biography": "2023-05-09T12:30:18.338404+10:00", "external_links": [], "uuid": "09a645fb-e799-442d-a10c-fc7fd07b4e09", "source": {"name": "Vernon", "slug": "vernon"}, "source_identifier": "26786", "external_references": [{"id": 50908, "source": {"name": "Wikidata", "slug": "wikidata"}, "source_identifier": "Q121361274"}], "date_modified": "2023-09-06T00:03:27.644168+10:00"}, {"id": 78614, "name": "Martin Gates", "roles_in_work": [{"id": 1991960, "title": "The Snow queen", "work_id": 87688, "role": "producer/director", "role_id": 31, "is_primary": true}], "also_known_as": "", "date_of_birth": null, "date_of_death": null, "genders": [], "languages": [], "places_of_operation": [], "biography": "", "biography_author": null, "date_of_biography": null, "external_links": [], "uuid": "7b6bf589-67a5-481c-8e76-2f5f801015ec", "source": {"name": "Vernon", "slug": "vernon"}, "source_identifier": null, "external_references": [{"id": 51252, "source": {"name": "Wikidata", "slug": "wikidata"}, "source_identifier": "Q113517877"}], "date_modified": "2023-09-05T22:49:37.484076+10:00"}]}