{"count": 28687, "next": "https://api.acmi.net.au/creators/?page=2621", "previous": "https://api.acmi.net.au/creators/?page=2619", "results": [{"id": 12410, "name": "David A. Smart", "roles_in_work": [{"id": 860385, "title": "A Visit from St Nicholas: a Coronet fantasy", "work_id": 74401, "role": "director", "role_id": 938, "is_primary": true}, {"id": 2680229, "title": "Communism", "work_id": 66290, "role": "director", "role_id": 938, "is_primary": true}, {"id": 1819153, "title": "The Nature of Light", "work_id": 70777, "role": "producer", "role_id": 1089, "is_primary": true}, {"id": 1811648, "title": "The Meaning of the industrial revolution", "work_id": 70229, "role": "producer", "role_id": 1089, "is_primary": true}, {"id": 1815761, "title": "A Visit to Ireland", "work_id": 89905, "role": "producer", "role_id": 1089, "is_primary": true}, {"id": 2677197, "title": "Ancient Egypt", "work_id": 64743, "role": "producer", "role_id": 1089, "is_primary": true}, {"id": 2677202, "title": "Ancient Greece", "work_id": 64745, "role": "producer", "role_id": 1089, "is_primary": true}, {"id": 2373956, "title": "Rumpelstiltskin", "work_id": 72391, "role": "producer", "role_id": 1089, "is_primary": true}, {"id": 1808239, "title": "Healthy lungs", "work_id": 87924, "role": "producer", "role_id": 1089, "is_primary": true}, {"id": 1818619, "title": "Introduction to foreign trade", "work_id": 69051, "role": "producer", "role_id": 1089, "is_primary": true}, {"id": 1814489, "title": "Look it up: dictionary habits", "work_id": 69893, "role": "producer", "role_id": 1089, "is_primary": true}, {"id": 1819674, "title": "Writing better business letters", "work_id": 74963, "role": "producer", "role_id": 1089, "is_primary": true}], "also_known_as": "", "date_of_birth": "", "date_of_death": "", "genders": [], "languages": [], "places_of_operation": [], "biography": "", "biography_author": null, "date_of_biography": "2023-07-05T03:47:33.992532+10:00", "external_links": [], "uuid": "ccae15d7-0647-40c7-a893-8f33656a3641", "source": {"name": "Vernon", "slug": "vernon"}, "source_identifier": "17480", "external_references": [{"id": 32521, "source": {"name": "Wikidata", "slug": "wikidata"}, "source_identifier": "Q121035996"}], "date_modified": "2025-03-07T00:30:49.570114+11:00"}, {"id": 12409, "name": "Wan-go Wen", "roles_in_work": [{"id": 2750063, "title": "The Magic pear tree", "work_id": 97121, "role": "director", "role_id": 938, "is_primary": true}, {"id": 2750061, "title": "The Magic pear tree", "work_id": 97121, "role": "co-producer", "role_id": 915, "is_primary": true}, {"id": 1818296, "title": "Painting the Chinese landscape", "work_id": 71321, "role": "producer", "role_id": 1089, "is_primary": true}, {"id": 2677195, "title": "Ancient chinese paintings in America", "work_id": 64742, "role": "producer", "role_id": 1089, "is_primary": true}, {"id": 2757788, "title": "China: coming of the west", "work_id": 66258, "role": "producer", "role_id": 1089, "is_primary": true}, {"id": 1819239, "title": "Out of a Chinese painting brush (TEFC)", "work_id": 71269, "role": "producer", "role_id": 1089, "is_primary": true}, {"id": 2678942, "title": "Buddhism in China", "work_id": 65652, "role": "producer", "role_id": 1089, "is_primary": true}, {"id": 1804748, "title": "Two Chinese dancers", "work_id": 78871, "role": "producer", "role_id": 1089, "is_primary": true}, {"id": 2679794, "title": "[Chinese jade carving]", "work_id": 66076, "role": "producer", "role_id": 1089, "is_primary": true}, {"id": 2679800, "title": "Chinese shadow play", "work_id": 66078, "role": "producer", "role_id": 1089, "is_primary": true}], "also_known_as": "", "date_of_birth": "", "date_of_death": "", "genders": [{"id": 9, "name": "Male", "slug": "male"}], "languages": [], "places_of_operation": [], "biography": "", "biography_author": null, "date_of_biography": "2023-08-11T12:37:53.280086+10:00", "external_links": [], "uuid": "3ab16466-accc-497d-a529-b6a7fd56007e", "source": {"name": "Vernon", "slug": "vernon"}, "source_identifier": "3863", "external_references": [], "date_modified": "2025-03-13T14:47:14.501211+11:00"}, {"id": 12408, "name": "Harmon Foundation", "roles_in_work": [{"id": 2645504, "title": "The Lost wax method of bronze casting", "work_id": 69927, "role": "production company", "role_id": 941, "is_primary": true}, {"id": 2677194, "title": "Ancient chinese paintings in America", "work_id": 64742, "role": "production company", "role_id": 941, "is_primary": true}, {"id": 856527, "title": "Out of a Chinese painting brush (TEFC)", "work_id": 71269, "role": "production company", "role_id": 941, "is_primary": true}], "also_known_as": "", "date_of_birth": "", "date_of_death": "", "genders": [], "languages": [], "places_of_operation": [], "biography": "", "biography_author": null, "date_of_biography": "2023-08-14T11:19:57.332171+10:00", "external_links": [], "uuid": "20f38a2d-b667-4463-a973-f587613e2fdd", "source": {"name": "Vernon", "slug": "vernon"}, "source_identifier": "8996", "external_references": [], "date_modified": "2025-03-06T23:15:25.103754+11:00"}, {"id": 12407, "name": "China Institute in America", "roles_in_work": [{"id": 2757785, "title": "China: coming of the west", "work_id": 66258, "role": "production company", "role_id": 941, "is_primary": true}, {"id": 2677193, "title": "Ancient chinese paintings in America", "work_id": 64742, "role": "production company", "role_id": 941, "is_primary": true}], "also_known_as": "", "date_of_birth": null, "date_of_death": null, "genders": [], "languages": [], "places_of_operation": [], "biography": "", "biography_author": null, "date_of_biography": null, "external_links": [], "uuid": "0b9edf3d-ea69-49ae-ac60-3025e0e99eae", "source": {"name": "Vernon", "slug": "vernon"}, "source_identifier": "6588", "external_references": [], "date_modified": "2025-03-13T14:47:13.921289+11:00"}, {"id": 12406, "name": "Kare Bergstrom", "roles_in_work": [{"id": 2677189, "title": "Ancient art in Norway", "work_id": 64740, "role": "director", "role_id": 938, "is_primary": true}], "also_known_as": "", "date_of_birth": null, "date_of_death": null, "genders": [], "languages": [], "places_of_operation": [], "biography": "", "biography_author": null, "date_of_biography": null, "external_links": [], "uuid": "821df421-be98-403d-97fb-82806c8077a1", "source": {"name": "Vernon", "slug": "vernon"}, "source_identifier": "22980", "external_references": [], "date_modified": "2025-03-06T23:15:21.464668+11:00"}, {"id": 12405, "name": "Norsk Film", "roles_in_work": [{"id": 2677188, "title": "Ancient art in Norway", "work_id": 64740, "role": "production company", "role_id": 941, "is_primary": true}, {"id": 814181, "title": "Pathfinder = Ofelas [Dubbed]", "work_id": 93104, "role": "production company", "role_id": 941, "is_primary": true}, {"id": 2000931, "title": "Insomnia (1997)", "work_id": 95258, "role": "production company", "role_id": 941, "is_primary": true}, {"id": 2289184, "title": "Zero Kelvin = Kjaerlighetens Kjotere [Widescreen]", "work_id": 93725, "role": "production company", "role_id": 941, "is_primary": true}], "also_known_as": "", "date_of_birth": "", "date_of_death": "", "genders": [], "languages": [], "places_of_operation": [], "biography": "Norsk Film was a Norwegian film production company established in 1932 and disestablished in 2001. It was located in Bærum, with studio facilities at Jar. The company was the leading film producer in Norway by number of films, with a total of about 150 cinema productions at the time of its disestablishment, or about 25% of all Norwegian films. Source: Wikidata; 01/08/2023", "biography_author": null, "date_of_biography": "2025-03-06T23:15:20.877012+11:00", "external_links": [{"id": 4798, "uri": "https://en.wikipedia.org/wiki/Norsk_Film"}], "uuid": "693fd30d-d60c-4cdd-8513-a4d76fcc9cb3", "source": {"name": "Vernon", "slug": "vernon"}, "source_identifier": "4690", "external_references": [{"id": 25287, "source": {"name": "Wikidata", "slug": "wikidata"}, "source_identifier": "Q10603029"}, {"id": 30574, "source": {"name": "VIAF", "slug": "viaf"}, "source_identifier": "231221061"}, {"id": 30575, "source": {"name": "WorldCat", "slug": "worldcat"}, "source_identifier": "viaf-231221061"}], "date_modified": "2025-03-06T23:15:20.877244+11:00"}, {"id": 12404, "name": "Australia. Dept. of Defence", "roles_in_work": [{"id": 2643985, "title": "Anchor man", "work_id": 64739, "role": "production company", "role_id": 941, "is_primary": true}, {"id": 2766653, "title": "North West Cape", "work_id": 77510, "role": "production company", "role_id": 941, "is_primary": true}, {"id": 2766638, "title": "Light the deep", "work_id": 77001, "role": "production company", "role_id": 941, "is_primary": true}, {"id": 2766637, "title": "A Fighting chance", "work_id": 76998, "role": "production company", "role_id": 941, "is_primary": true}, {"id": 2766626, "title": "Limiting the goblin", "work_id": 75128, "role": "production company", "role_id": 941, "is_primary": true}, {"id": 2766624, "title": "The Charge at Beersheba", "work_id": 75117, "role": "production company", "role_id": 941, "is_primary": true}, {"id": 2754212, "title": "Bush tucker man", "work_id": 99105, "role": "production company", "role_id": 941, "is_primary": true}, {"id": 2644010, "title": "Army air training", "work_id": 64885, "role": "production company", "role_id": 941, "is_primary": true}, {"id": 753509, "title": "Sixty years later", "work_id": 72872, "role": "production company", "role_id": 941, "is_primary": true}, {"id": 767459, "title": "Battlefield pilot", "work_id": 78553, "role": "production company", "role_id": 941, "is_primary": true}, {"id": 748098, "title": "Mine on Channel Reef", "work_id": 70397, "role": "production company", "role_id": 941, "is_primary": true}, {"id": 767991, "title": "Flying among the weeds", "work_id": 78765, "role": "production company", "role_id": 941, "is_primary": true}, {"id": 1904398, "title": "We call it paradise", "work_id": 80106, "role": "production company", "role_id": 941, "is_primary": true}, {"id": 2678769, "title": "Box kite to swing wing", "work_id": 65562, "role": "sponsor", "role_id": 625, "is_primary": false}], "also_known_as": "", "date_of_birth": "", "date_of_death": "", "genders": [], "languages": [], "places_of_operation": [], "biography": "", "biography_author": null, "date_of_biography": "2023-08-11T13:01:17.266849+10:00", "external_links": [], "uuid": "81c32289-663b-47db-a34e-104b3a5f31a8", "source": {"name": "Vernon", "slug": "vernon"}, "source_identifier": "4596", "external_references": [], "date_modified": "2025-03-14T17:59:29.011237+11:00"}, {"id": 12403, "name": "Peter F. Davis", "roles_in_work": [{"id": 2646390, "title": "South Africa: the white laager", "work_id": 73026, "role": "director", "role_id": 938, "is_primary": true}, {"id": 2749412, "title": "Mission to Yenan", "work_id": 96796, "role": "co-producers/directors", "role_id": 628, "is_primary": true}, {"id": 768206, "title": "Mandela", "work_id": 78835, "role": "director", "role_id": 938, "is_primary": true}, {"id": 2750006, "title": "Afrikaner experience: politics of exclusion", "work_id": 97092, "role": "producer", "role_id": 1089, "is_primary": true}, {"id": 2751253, "title": "Children of the long-beaked bird", "work_id": 97724, "role": "producer", "role_id": 1089, "is_primary": true}, {"id": 2677187, "title": "Anatomy of violence", "work_id": 64738, "role": "producer/director", "role_id": 31, "is_primary": true}], "also_known_as": "", "date_of_birth": "", "date_of_death": "", "genders": [], "languages": [], "places_of_operation": [], "biography": "", "biography_author": null, "date_of_biography": "2023-05-09T14:12:44.621679+10:00", "external_links": [], "uuid": "efba1972-08af-4c3f-9a4f-7131b4b0ac49", "source": {"name": "Vernon", "slug": "vernon"}, "source_identifier": "26512", "external_references": [], "date_modified": "2025-03-13T00:40:19.917150+11:00"}, {"id": 12402, "name": "National Educational Television", "roles_in_work": [{"id": 2763396, "title": "Other planets: no place like Earth (TEFC)", "work_id": 71230, "role": "production company", "role_id": 941, "is_primary": true}, {"id": 2749165, "title": "Dalton Trumbo", "work_id": 96667, "role": "production company", "role_id": 941, "is_primary": true}, {"id": 2749056, "title": "The Invisible planet", "work_id": 96615, "role": "production company", "role_id": 941, "is_primary": true}, {"id": 2714604, "title": "Germany and its shadow", "work_id": 68020, "role": "production company", "role_id": 941, "is_primary": true}, {"id": 2646722, "title": "Twentieth century slavery", "work_id": 74109, "role": "production company", "role_id": 941, "is_primary": true}, {"id": 2645985, "title": "Photography: the incisive art", "work_id": 71529, "role": "production company", "role_id": 941, "is_primary": true}, {"id": 2644473, "title": "The Dam builders: beavers and man", "work_id": 66573, "role": "production company", "role_id": 941, "is_primary": true}, {"id": 2644452, "title": "The Creative person: Tyrone Guthrie", "work_id": 66485, "role": "production company", "role_id": 941, "is_primary": true}, {"id": 2680151, "title": "Color her sunshine", "work_id": 66242, "role": "production company", "role_id": 941, "is_primary": true}, {"id": 2679668, "title": "The Child watchers", "work_id": 66017, "role": "production company", "role_id": 941, "is_primary": true}, {"id": 2713740, "title": "The First priority", "work_id": 67564, "role": "production company", "role_id": 941, "is_primary": true}, {"id": 2273061, "title": "To live till you die", "work_id": 73880, "role": "production company", "role_id": 941, "is_primary": true}, {"id": 860324, "title": "View of America from the 23rd century", "work_id": 74345, "role": "production company", "role_id": 941, "is_primary": true}, {"id": 756353, "title": "The Turkish question", "work_id": 74088, "role": "production company", "role_id": 941, "is_primary": true}, {"id": 860112, "title": "The Unfinished revolution", "work_id": 74181, "role": "production company", "role_id": 941, "is_primary": true}, {"id": 2760735, "title": "Learning about learning", "work_id": 69547, "role": "production company", "role_id": 941, "is_primary": true}, {"id": 2765066, "title": "Slow death of desert water", "work_id": 72903, "role": "production company", "role_id": 941, "is_primary": true}, {"id": 2765062, "title": "Santa Barbara: everybody's mistake", "work_id": 71264, "role": "production company", "role_id": 941, "is_primary": true}, {"id": 2712091, "title": "The Difference between us", "work_id": 66775, "role": "production company", "role_id": 941, "is_primary": true}, {"id": 2677987, "title": "Child psychiatry: autism's lonely children", "work_id": 65158, "role": "production company", "role_id": 941, "is_primary": true}, {"id": 2677186, "title": "Anatomy of violence", "work_id": 64738, "role": "production company", "role_id": 941, "is_primary": true}, {"id": 857674, "title": "The Restless Earth", "work_id": 72182, "role": "production company", "role_id": 941, "is_primary": true}, {"id": 857928, "title": "Running for life", "work_id": 72400, "role": "production company", "role_id": 941, "is_primary": true}, {"id": 2340453, "title": "The Control revolution", "work_id": 93078, "role": "production company", "role_id": 941, "is_primary": true}, {"id": 885217, "title": "The Segovia Master Class in Spain", "work_id": 95296, "role": "production company", "role_id": 941, "is_primary": true}, {"id": 895868, "title": "Spectrum: psychobiology - split brain (D)", "work_id": 73083, "role": "production company", "role_id": 941, "is_primary": true}, {"id": 2327411, "title": "Sharing the Leadership", "work_id": 72736, "role": "production company", "role_id": 941, "is_primary": true}, {"id": 857749, "title": "Right of Privacy", "work_id": 72235, "role": "production company", "role_id": 941, "is_primary": true}, {"id": 854216, "title": "Laser: the light of the future", "work_id": 69509, "role": "production company", "role_id": 941, "is_primary": true}, {"id": 1688050, "title": "Rock-a-bye baby", "work_id": 72311, "role": "production company", "role_id": 941, "is_primary": true}, {"id": 856579, "title": "Pablo Casals: master class at Berkeley", "work_id": 71305, "role": "production company", "role_id": 941, "is_primary": true}, {"id": 856073, "title": "No tears for Rachel", "work_id": 70935, "role": "production company", "role_id": 941, "is_primary": true}, {"id": 857465, "title": "Rainforest", "work_id": 72047, "role": "production company", "role_id": 941, "is_primary": true}, {"id": 862853, "title": "Virginia Woolf: the moment whole (TEFC)", "work_id": 76597, "role": "production company", "role_id": 941, "is_primary": true}, {"id": 861874, "title": "Stop or go: an experiment in genetics", "work_id": 75847, "role": "production company", "role_id": 941, "is_primary": true}, {"id": 895224, "title": "The New Italian", "work_id": 70849, "role": "production company", "role_id": 941, "is_primary": true}, {"id": 869723, "title": "Diary of a student revolution", "work_id": 85758, "role": "production company", "role_id": 941, "is_primary": true}], "also_known_as": "", "date_of_birth": null, "date_of_death": null, "genders": [], "languages": [], "places_of_operation": [], "biography": "National Educational Television (NET) was an American educational broadcast television network owned by the Ford Foundation and later co-owned by the Corporation for Public Broadcasting. It operated from May 16, 1954, to October 4, 1970, and was succeeded by the Public Broadcasting Service (PBS), which has memberships with many television stations that were formerly part of NET.\r\nThe Council on Library and Information Resources (CLIR) provided funds for cataloging the NET collection, and as part of an on-going preservation effort with the Library of Congress, over 10,000 digitized television programs from the non-commercial TV stations and producers spanning 20 years from 1952 to 1972 have been contributed to the American Archive of Public Broadcasting.", "biography_author": "Wikidata", "date_of_biography": "2023-09-05T23:25:43+10:00", "external_links": [{"id": 6058, "uri": "https://en.wikipedia.org/wiki/National_Educational_Television"}], "uuid": "ddf4d716-f294-4fb1-a206-4b7656860249", "source": {"name": "Vernon", "slug": "vernon"}, "source_identifier": "4252", "external_references": [{"id": 52020, "source": {"name": "Wikidata", "slug": "wikidata"}, "source_identifier": "Q3873154"}, {"id": 55337, "source": {"name": "VIAF", "slug": "viaf"}, "source_identifier": "131345279"}, {"id": 55338, "source": {"name": "LOC Auth", "slug": "loc-auth"}, "source_identifier": "n80050382"}, {"id": 55339, "source": {"name": "WorldCat", "slug": "worldcat"}, "source_identifier": "lccn-n80050382"}], "date_modified": "2025-03-14T17:49:06.000336+11:00"}, {"id": 12401, "name": "Thora James", "roles_in_work": [{"id": 749177, "title": "The Nitrogen cycle", "work_id": 70914, "role": "director", "role_id": 938, "is_primary": true}, {"id": 2677185, "title": "The Anatomy of the dogfish", "work_id": 64737, "role": "director", "role_id": 938, "is_primary": true}, {"id": 854579, "title": "Living and non-living things", "work_id": 69796, "role": "director", "role_id": 938, "is_primary": true}, {"id": 2712235, "title": "The Dogfish as a vertebrate", "work_id": 66859, "role": "director", "role_id": 938, "is_primary": true}, {"id": 1558371, "title": "How we begin", "work_id": 71541, "role": "director", "role_id": 938, "is_primary": true}, {"id": 853614, "title": "An Introduction to the frog", "work_id": 69068, "role": "director", "role_id": 938, "is_primary": true}, {"id": 1558368, "title": "Preparation for parenthood", "work_id": 71542, "role": "director", "role_id": 938, "is_primary": true}], "also_known_as": "", "date_of_birth": null, "date_of_death": null, "genders": [], "languages": [], "places_of_operation": [], "biography": "", "biography_author": null, "date_of_biography": null, "external_links": [], "uuid": "13ca660a-c88d-4f0c-a009-2024c1066050", "source": {"name": "Vernon", "slug": "vernon"}, "source_identifier": "29711", "external_references": [], "date_modified": "2025-03-12T00:13:18.593787+11:00"}]}