{"count": 28687, "next": "https://api.acmi.net.au/creators/?page=298", "previous": "https://api.acmi.net.au/creators/?page=296", "results": [{"id": 82637, "name": "Liu Guanxiong", "roles_in_work": [{"id": 2651078, "title": "The Visitor from California = Jia Zhou Lai Ke", "work_id": 115798, "role": "director", "role_id": 938, "is_primary": true}], "also_known_as": "", "date_of_birth": "", "date_of_death": "", "genders": [], "languages": [], "places_of_operation": [], "biography": "", "biography_author": null, "date_of_biography": "2023-08-14T11:39:40.331848+10:00", "external_links": [], "uuid": "fea672b0-2e08-4c31-8aa9-3fc0536df34c", "source": {"name": "Vernon", "slug": "vernon"}, "source_identifier": "36131", "external_references": [{"id": 37427, "source": {"name": "Wikidata", "slug": "wikidata"}, "source_identifier": "Q121315359"}], "date_modified": "2025-03-05T14:26:14.791444+11:00"}, {"id": 82636, "name": "Xu Daolin", "roles_in_work": [{"id": 2651286, "title": "The Baise Uprising = Bei Se Qi Yi = 百色起义", "work_id": 115820, "role": "cast", "role_id": 33, "is_primary": false}, {"id": 2651076, "title": "When will the day break? = Wen tian he shi ming = 問天何時明", "work_id": 115797, "role": "cast", "role_id": 33, "is_primary": false}], "also_known_as": "", "date_of_birth": "", "date_of_death": "", "genders": [], "languages": [], "places_of_operation": [], "biography": "", "biography_author": null, "date_of_biography": "2023-05-09T19:23:20.122089+10:00", "external_links": [], "uuid": "7b798e5a-60ff-4b00-974b-2e025e1717f1", "source": {"name": "Vernon", "slug": "vernon"}, "source_identifier": "37699", "external_references": [{"id": 38096, "source": {"name": "Wikidata", "slug": "wikidata"}, "source_identifier": "Q121040104"}], "date_modified": "2025-03-05T14:28:24.224700+11:00"}, {"id": 82635, "name": "Su Lin", "roles_in_work": [{"id": 2651382, "title": "The Kunlun Column = Wei Wei Kun Lun", "work_id": 115834, "role": "cast", "role_id": 33, "is_primary": false}, {"id": 2651075, "title": "When will the day break? = Wen tian he shi ming = 問天何時明", "work_id": 115797, "role": "cast", "role_id": 33, "is_primary": false}], "also_known_as": "", "date_of_birth": "", "date_of_death": "", "genders": [], "languages": [], "places_of_operation": [], "biography": "", "biography_author": null, "date_of_biography": "2023-05-09T20:07:14.817376+10:00", "external_links": [], "uuid": "f8e8edfe-291f-4038-822c-7c43e51b4b1c", "source": {"name": "Vernon", "slug": "vernon"}, "source_identifier": "37710", "external_references": [{"id": 39963, "source": {"name": "Wikidata", "slug": "wikidata"}, "source_identifier": "Q121315243"}], "date_modified": "2025-03-05T14:29:24.167519+11:00"}, {"id": 82634, "name": "Zhao Jing", "roles_in_work": [{"id": 2651074, "title": "When will the day break? = Wen tian he shi ming = 問天何時明", "work_id": 115797, "role": "cast", "role_id": 33, "is_primary": false}, {"id": 2651371, "title": "Coloured balloons = Shan guang de CAI qiu", "work_id": 115833, "role": "cast", "role_id": 33, "is_primary": false}], "also_known_as": "", "date_of_birth": "", "date_of_death": "", "genders": [], "languages": [], "places_of_operation": [], "biography": "", "biography_author": null, "date_of_biography": "2023-05-09T13:38:44.857700+10:00", "external_links": [], "uuid": "efe0769c-2731-4bab-91bf-049f8d05354d", "source": {"name": "Vernon", "slug": "vernon"}, "source_identifier": "36543", "external_references": [{"id": 42592, "source": {"name": "Wikidata", "slug": "wikidata"}, "source_identifier": "Q121036058"}], "date_modified": "2025-03-05T14:29:17.454251+11:00"}, {"id": 82633, "name": "Chen Tianlu", "roles_in_work": [{"id": 2651073, "title": "When will the day break? = Wen tian he shi ming = 問天何時明", "work_id": 115797, "role": "cast", "role_id": 33, "is_primary": false}], "also_known_as": "", "date_of_birth": null, "date_of_death": null, "genders": [], "languages": [], "places_of_operation": [], "biography": "", "biography_author": null, "date_of_biography": null, "external_links": [], "uuid": "7160581f-363e-4bca-b8da-eccad38fd3fc", "source": {"name": "Vernon", "slug": "vernon"}, "source_identifier": "37709", "external_references": [{"id": 39419, "source": {"name": "Wikidata", "slug": "wikidata"}, "source_identifier": "Q121091353"}], "date_modified": "2025-03-05T14:26:11.531189+11:00"}, {"id": 82632, "name": "Dong Wenying", "roles_in_work": [{"id": 2651072, "title": "When will the day break? = Wen tian he shi ming = 問天何時明", "work_id": 115797, "role": "cast", "role_id": 33, "is_primary": false}], "also_known_as": "", "date_of_birth": null, "date_of_death": null, "genders": [], "languages": [], "places_of_operation": [], "biography": "", "biography_author": null, "date_of_biography": null, "external_links": [], "uuid": "66701aa0-3525-4c02-9bbe-a7aa9c3011d0", "source": {"name": "Vernon", "slug": "vernon"}, "source_identifier": "37708", "external_references": [{"id": 34350, "source": {"name": "Wikidata", "slug": "wikidata"}, "source_identifier": "Q121126714"}], "date_modified": "2025-03-05T14:26:10.818543+11:00"}, {"id": 82631, "name": "Yan Xiang", "roles_in_work": [{"id": 2317467, "title": "Sunrise = 日出", "work_id": 115841, "role": "cast", "role_id": 33, "is_primary": false}, {"id": 2651071, "title": "When will the day break? = Wen tian he shi ming = 問天何時明", "work_id": 115797, "role": "cast", "role_id": 33, "is_primary": false}], "also_known_as": "", "date_of_birth": "", "date_of_death": "", "genders": [], "languages": [], "places_of_operation": [], "biography": "", "biography_author": null, "date_of_biography": "2023-05-09T19:07:04.449807+10:00", "external_links": [], "uuid": "cc4974e1-caae-42b3-a778-25b5b3569d61", "source": {"name": "Vernon", "slug": "vernon"}, "source_identifier": "37683", "external_references": [{"id": 51879, "source": {"name": "Wikidata", "slug": "wikidata"}, "source_identifier": "Q121357476"}], "date_modified": "2025-03-05T14:26:10.226549+11:00"}, {"id": 82630, "name": "Wang Cheng", "roles_in_work": [{"id": 2651070, "title": "When will the day break? = Wen tian he shi ming = 問天何時明", "work_id": 115797, "role": "editor", "role_id": 918, "is_primary": true}], "also_known_as": "", "date_of_birth": null, "date_of_death": null, "genders": [], "languages": [], "places_of_operation": [], "biography": "", "biography_author": null, "date_of_biography": null, "external_links": [], "uuid": "450aab39-41b2-4464-b419-5f06f28985c8", "source": {"name": "Vernon", "slug": "vernon"}, "source_identifier": "37707", "external_references": [{"id": 42519, "source": {"name": "Wikidata", "slug": "wikidata"}, "source_identifier": "Q121036766"}], "date_modified": "2025-03-05T14:26:09.623270+11:00"}, {"id": 82629, "name": "Qin Wei", "roles_in_work": [{"id": 2651069, "title": "When will the day break? = Wen tian he shi ming = 問天何時明", "work_id": 115797, "role": "production designer", "role_id": 966, "is_primary": true}], "also_known_as": "", "date_of_birth": null, "date_of_death": null, "genders": [], "languages": [], "places_of_operation": [], "biography": "", "biography_author": null, "date_of_biography": null, "external_links": [], "uuid": "29cca1ee-e46f-4347-aef2-a7391d71bfff", "source": {"name": "Vernon", "slug": "vernon"}, "source_identifier": "37706", "external_references": [], "date_modified": "2025-03-05T14:26:09.028539+11:00"}, {"id": 82628, "name": "Philharmonic Orchestra of China", "roles_in_work": [{"id": 2651068, "title": "When will the day break? = Wen tian he shi ming = 問天何時明", "work_id": 115797, "role": "music", "role_id": 949, "is_primary": false}], "also_known_as": "", "date_of_birth": null, "date_of_death": null, "genders": [], "languages": [], "places_of_operation": [], "biography": "", "biography_author": null, "date_of_biography": null, "external_links": [], "uuid": "21517348-1925-465e-93ec-221fd81b0148", "source": {"name": "Vernon", "slug": "vernon"}, "source_identifier": "37705", "external_references": [{"id": 50822, "source": {"name": "Wikidata", "slug": "wikidata"}, "source_identifier": "Q121361410"}], "date_modified": "2025-03-05T14:26:08.430277+11:00"}]}