{"count": 28687, "next": "https://api.acmi.net.au/creators/?page=1807", "previous": "https://api.acmi.net.au/creators/?page=1805", "results": [{"id": 26243, "name": "Jonathan Taplin", "roles_in_work": [{"id": 2778171, "title": "Sleeping beauty", "work_id": 84133, "role": "co-producer", "role_id": 915, "is_primary": true}, {"id": 2778180, "title": "Jack and the beanstalk", "work_id": 86208, "role": "co-producer", "role_id": 915, "is_primary": true}, {"id": 2778210, "title": "Rapunzel", "work_id": 86924, "role": "co-producer", "role_id": 915, "is_primary": true}, {"id": 2778195, "title": "The Tale of the frog prince", "work_id": 86912, "role": "producer", "role_id": 1089, "is_primary": true}, {"id": 2174610, "title": "Mean streets", "work_id": 88357, "role": "producer", "role_id": 1089, "is_primary": true}], "also_known_as": "", "date_of_birth": "1947-07-18", "date_of_death": null, "genders": [{"id": 9, "name": "Male", "slug": "male"}], "languages": [{"id": 1, "name": "English", "slug": "english"}], "places_of_operation": [{"id": 1, "name": "United States of America", "slug": "united-states-of-america"}], "biography": "Jonathan Trumbull Taplin (born July 18, 1947) is an American writer, film producer and scholar. He was born in Cleveland, Ohio, and has lived in Los Angeles since 1973. Taplin graduated from Princeton University in 1969 and is the Director Emeritus of the Annenberg Innovation Lab at the University of Southern California Annenberg School for Communication and Journalism. Taplin is married to the photographer Maggie Smith and has three children: Daniela Lundberg, a film producer; Nicholas Taplin, a recording engineer and Blythe Taplin, a human rights lawyer.\nTaplin's early production work included producing concerts for Bob Dylan and The Band. In 1973, he produced Martin Scorsese's first major feature film, Mean Streets, which was selected for the Cannes Film Festival. Between 1974 and 1996, Taplin produced 26 hours of television documentaries (including The Prize and Cadillac Desert for the Public Broadcasting Service) and 12 feature films including The Last Waltz, Until the End of the World, Under Fire and To Die For. His films were nominated for Academy Awards and Golden Globe Awards and chosen for the Cannes Film Festival six times. Taplin is the author of Move Fast and Break Things: How Google, Facebook and Amazon Cornered Culture and Undermined Democracy, which was published by Little, Brown and Company in April 2017. Taplin's new memoir,The Magic Years: Scenes from a Rock and Roll Lifewas published in May 2021 by Heyday Books.The award winning journalist Robert Scheer called it \"A really important book... The Magic Years is not nostalgia. It really puts you front and center, where we are.\"", "biography_author": "Wikidata", "date_of_biography": "2022-05-19T12:04:53.677004+10:00", "external_links": [{"id": 2459, "uri": "https://en.wikipedia.org/wiki/Jonathan_Taplin"}], "uuid": "9528a5ae-043b-4c39-8fe5-49a8bb55722b", "source": {"name": "Vernon", "slug": "vernon"}, "source_identifier": "22682", "external_references": [{"id": 10513, "source": {"name": "Wikidata", "slug": "wikidata"}, "source_identifier": "Q15440196"}, {"id": 10514, "source": {"name": "VIAF", "slug": "viaf"}, "source_identifier": "94066833"}, {"id": 10515, "source": {"name": "LOC Auth", "slug": "loc-auth"}, "source_identifier": "no97010725"}, {"id": 10516, "source": {"name": "WorldCat", "slug": "worldcat"}, "source_identifier": "lccn-no97010725"}], "date_modified": "2025-03-14T18:58:57.482500+11:00"}, {"id": 26242, "name": "Gilbert Cates", "roles_in_work": [{"id": 2778213, "title": "Rapunzel", "work_id": 86924, "role": "director", "role_id": 938, "is_primary": true}, {"id": 2144013, "title": "Consenting adult", "work_id": 93568, "role": "director", "role_id": 938, "is_primary": true}, {"id": 2778161, "title": "Goldilocks and the three bears", "work_id": 84132, "role": "director", "role_id": 938, "is_primary": true}, {"id": 2766602, "title": "When parents grow old: extract from I never sang for", "work_id": 96439, "role": "producer/director", "role_id": 31, "is_primary": true}], "also_known_as": "", "date_of_birth": "06 JUN 1934", "date_of_death": "31 OCT 2011", "genders": [{"id": 9, "name": "Male", "slug": "male"}], "languages": [{"id": 1, "name": "English", "slug": "english"}], "places_of_operation": [{"id": 1, "name": "United States of America", "slug": "united-states-of-america"}], "biography": "Gilbert Cates (né Katz; June 6, 1934 – October 31, 2011) was an American film director and television producer, director of the Geffen Playhouse, a member of Cates/Doty Productions, and founding dean of the UCLA School of Theater, Film and Television. Cates is most known for having produced the Academy Awards telecast a record 14 times between 1990 and 2008. Source: Wikidata; 01/08/2023", "biography_author": null, "date_of_biography": "2025-03-14T18:58:58.653476+11:00", "external_links": [{"id": 4069, "uri": "https://en.wikipedia.org/wiki/Gilbert_Cates"}], "uuid": "f98a7cfd-42de-4d4a-a1fa-198f0dfa00b5", "source": {"name": "Vernon", "slug": "vernon"}, "source_identifier": "19808", "external_references": [{"id": 25899, "source": {"name": "Wikidata", "slug": "wikidata"}, "source_identifier": "Q921434"}, {"id": 28672, "source": {"name": "VIAF", "slug": "viaf"}, "source_identifier": "10054763"}, {"id": 28673, "source": {"name": "LOC Auth", "slug": "loc-auth"}, "source_identifier": "n85322489"}, {"id": 28674, "source": {"name": "WorldCat", "slug": "worldcat"}, "source_identifier": "lccn-n85322489"}], "date_modified": "2025-03-14T18:58:58.653807+11:00"}, {"id": 26236, "name": "Lisa Hendricks", "roles_in_work": [{"id": 2264045, "title": "Scott Tinley's triathlon training: with Juli Brening", "work_id": 84127, "role": "director", "role_id": 938, "is_primary": true}], "also_known_as": "", "date_of_birth": "", "date_of_death": "", "genders": [], "languages": [], "places_of_operation": [], "biography": "", "biography_author": null, "date_of_biography": "2023-05-09T17:33:11.419272+10:00", "external_links": [], "uuid": "b2e61fa7-17f3-4e87-a6da-8d642ec46d99", "source": {"name": "Vernon", "slug": "vernon"}, "source_identifier": "23919", "external_references": [], "date_modified": "2023-06-14T16:33:30.576250+10:00"}, {"id": 26233, "name": "Tweed Productions", "roles_in_work": [{"id": 2264033, "title": "Scott Tinley's triathlon training: with Juli Brening", "work_id": 84127, "role": "production company", "role_id": 941, "is_primary": true}], "also_known_as": "", "date_of_birth": "", "date_of_death": "", "genders": [], "languages": [], "places_of_operation": [], "biography": "", "biography_author": null, "date_of_biography": "2023-05-09T17:33:10.314267+10:00", "external_links": [], "uuid": "765b46df-0acd-4890-adb0-1c326351b641", "source": {"name": "Vernon", "slug": "vernon"}, "source_identifier": "13777", "external_references": [], "date_modified": "2023-06-14T16:33:30.576250+10:00"}, {"id": 26232, "name": "Pino Van Lamsweerde", "roles_in_work": [{"id": 2614665, "title": "Asterix in Britain", "work_id": 84124, "role": "director", "role_id": 938, "is_primary": true}, {"id": 787104, "title": "Asterix and Cleopatra", "work_id": 84803, "role": "director", "role_id": 938, "is_primary": true}], "also_known_as": "", "date_of_birth": "1940-09-18", "date_of_death": "2020-04-10", "genders": [{"id": 9, "name": "Male", "slug": "male"}], "languages": [{"id": 4, "name": "French", "slug": "french"}], "places_of_operation": [{"id": 19, "name": "Italy", "slug": "italy"}], "biography": "Pino van Lamsweerde (9 September 1940 – 10 April 2020) was an Italian–Canadian director and animator.", "biography_author": "Wikidata", "date_of_biography": "2023-09-06T00:12:31.714536+10:00", "external_links": [{"id": 6112, "uri": "https://en.wikipedia.org/wiki/Pino_van_Lamsweerde"}], "uuid": "adca28df-9c2a-4077-ab8f-3d69dc018cbc", "source": {"name": "Vernon", "slug": "vernon"}, "source_identifier": "26966", "external_references": [{"id": 34016, "source": {"name": "Wikidata", "slug": "wikidata"}, "source_identifier": "Q16670158"}, {"id": 55556, "source": {"name": "VIAF", "slug": "viaf"}, "source_identifier": "8404160668432803560001"}], "date_modified": "2025-02-26T20:13:36.440892+11:00"}, {"id": 26231, "name": "Yannik Piel", "roles_in_work": [{"id": 1808447, "title": "Asterix and Cleopatra", "work_id": 84803, "role": "producer", "role_id": 1089, "is_primary": true}, {"id": 2614664, "title": "Asterix in Britain", "work_id": 84124, "role": "producer", "role_id": 1089, "is_primary": true}], "also_known_as": "", "date_of_birth": "", "date_of_death": "", "genders": [], "languages": [], "places_of_operation": [], "biography": "", "biography_author": null, "date_of_biography": "2023-05-09T12:33:49.096481+10:00", "external_links": [], "uuid": "9e0ea7f3-9d6e-4748-b798-37bf48099c6f", "source": {"name": "Vernon", "slug": "vernon"}, "source_identifier": "30568", "external_references": [{"id": 42700, "source": {"name": "Wikidata", "slug": "wikidata"}, "source_identifier": "Q121337390"}], "date_modified": "2025-02-26T20:13:35.859193+11:00"}, {"id": 26230, "name": "Dargaud Films", "roles_in_work": [{"id": 2614663, "title": "Asterix in Britain", "work_id": 84124, "role": "production company", "role_id": 941, "is_primary": true}, {"id": 787102, "title": "Asterix and Cleopatra", "work_id": 84803, "role": "production company", "role_id": 941, "is_primary": true}, {"id": 2295095, "title": "The Twelve tasks of Asterix", "work_id": 94067, "role": "production company", "role_id": 941, "is_primary": true}], "also_known_as": "", "date_of_birth": "", "date_of_death": "", "genders": [], "languages": [], "places_of_operation": [], "biography": "", "biography_author": null, "date_of_biography": "2023-05-09T18:25:52.209522+10:00", "external_links": [], "uuid": "dcb76bf8-682b-4ee1-b7da-40eb0163772e", "source": {"name": "Vernon", "slug": "vernon"}, "source_identifier": "7321", "external_references": [{"id": 38883, "source": {"name": "Wikidata", "slug": "wikidata"}, "source_identifier": "Q121034716"}], "date_modified": "2025-02-26T20:13:35.281617+11:00"}, {"id": 26225, "name": "Cyclone Films", "roles_in_work": [{"id": 2476206, "title": "The War room", "work_id": 84123, "role": "production company", "role_id": 941, "is_primary": true}], "also_known_as": "", "date_of_birth": "", "date_of_death": "", "genders": [], "languages": [], "places_of_operation": [], "biography": "", "biography_author": null, "date_of_biography": "2023-08-17T15:33:39.806788+10:00", "external_links": [], "uuid": "1bcd8493-525a-49ab-a94d-c16bf0ca3442", "source": {"name": "Vernon", "slug": "vernon"}, "source_identifier": "7258", "external_references": [], "date_modified": "2023-08-17T15:33:39.807075+10:00"}, {"id": 26224, "name": "Mc and Ettinger Films", "roles_in_work": [{"id": 2476205, "title": "The War room", "work_id": 84123, "role": "production company", "role_id": 941, "is_primary": true}], "also_known_as": "", "date_of_birth": "", "date_of_death": "", "genders": [], "languages": [], "places_of_operation": [], "biography": "", "biography_author": null, "date_of_biography": "2023-08-17T15:33:39.191694+10:00", "external_links": [], "uuid": "0c18a4d8-b321-4768-9f30-e28d5280fef7", "source": {"name": "Vernon", "slug": "vernon"}, "source_identifier": "10390", "external_references": [], "date_modified": "2023-08-17T15:33:39.191901+10:00"}, {"id": 26222, "name": "Frontyard Films", "roles_in_work": [{"id": 2143012, "title": "Concrete city", "work_id": 84121, "role": "production company", "role_id": 941, "is_primary": true}], "also_known_as": "", "date_of_birth": "", "date_of_death": "", "genders": [], "languages": [], "places_of_operation": [], "biography": "", "biography_author": null, "date_of_biography": "2023-05-09T13:41:25.566303+10:00", "external_links": [], "uuid": "592bb988-1b2c-4588-a863-01cc7bb4eee4", "source": {"name": "Vernon", "slug": "vernon"}, "source_identifier": "8586", "external_references": [{"id": 33347, "source": {"name": "Wikidata", "slug": "wikidata"}, "source_identifier": "Q121271419"}], "date_modified": "2023-09-05T19:54:33.156505+10:00"}]}