{"count": 28687, "next": "https://api.acmi.net.au/creators/?page=1939", "previous": "https://api.acmi.net.au/creators/?page=1937", "results": [{"id": 23756, "name": "Malone Gill Productions", "roles_in_work": [{"id": 2649480, "title": "Vintage: A History of Wine. Eps. 7 & 8", "work_id": 81573, "role": "production company", "role_id": 941, "is_primary": true}, {"id": 900543, "title": "Vintage: A History of Wine. Eps. 1 & 2", "work_id": 81495, "role": "production company", "role_id": 941, "is_primary": true}, {"id": 2289224, "title": "Vintage: A History of Wine. Eps. 5 & 6", "work_id": 81534, "role": "production company", "role_id": 941, "is_primary": true}, {"id": 2283581, "title": "Vintage: A History of Wine. Eps. 11-13", "work_id": 81584, "role": "production company", "role_id": 941, "is_primary": true}, {"id": 2288089, "title": "Vintage: A History of Wine. Eps. 9 & 10", "work_id": 81583, "role": "production company", "role_id": 941, "is_primary": true}, {"id": 900560, "title": "Vintage: A History of Wine. Eps. 3 & 4", "work_id": 81509, "role": "production company", "role_id": 941, "is_primary": true}, {"id": 3083751, "title": "Vermeer: light, love and silence", "work_id": 92588, "role": "production company", "role_id": 941, "is_primary": true}], "also_known_as": "", "date_of_birth": "", "date_of_death": "", "genders": [], "languages": [], "places_of_operation": [], "biography": "", "biography_author": null, "date_of_biography": "2023-05-09T18:15:40.996197+10:00", "external_links": [], "uuid": "f66bc441-93af-4686-85b3-967310f8aed5", "source": {"name": "Vernon", "slug": "vernon"}, "source_identifier": "10270", "external_references": [{"id": 41135, "source": {"name": "Wikidata", "slug": "wikidata"}, "source_identifier": "Q121299026"}], "date_modified": "2025-03-17T10:34:20.888266+11:00"}, {"id": 23755, "name": "Kay Donovan", "roles_in_work": [{"id": 2774601, "title": "English at work", "work_id": 83061, "role": "co-producer", "role_id": 915, "is_primary": true}, {"id": 2774638, "title": "The Right to be heard", "work_id": 83513, "role": "co-producer", "role_id": 915, "is_primary": true}, {"id": 2774504, "title": "Things I call mine", "work_id": 81741, "role": "co-producer", "role_id": 915, "is_primary": true}, {"id": 2774569, "title": "Country women", "work_id": 82225, "role": "producer", "role_id": 1089, "is_primary": true}, {"id": 2649406, "title": "Talking Trade", "work_id": 81494, "role": "producer", "role_id": 1089, "is_primary": true}, {"id": 776056, "title": "Gifted kids", "work_id": 81601, "role": "producer/director", "role_id": 31, "is_primary": true}, {"id": 2774456, "title": "Being True Blue", "work_id": 81519, "role": "producer/director", "role_id": 31, "is_primary": true}, {"id": 2774563, "title": "Bent not broken", "work_id": 82194, "role": "producer/director", "role_id": 31, "is_primary": true}], "also_known_as": "", "date_of_birth": "", "date_of_death": "", "genders": [], "languages": [], "places_of_operation": [], "biography": "", "biography_author": null, "date_of_biography": "2023-05-09T19:30:04.744558+10:00", "external_links": [], "uuid": "e892bb6d-ac2c-4689-b4fc-232ebf22d69a", "source": {"name": "Vernon", "slug": "vernon"}, "source_identifier": "23103", "external_references": [{"id": 40714, "source": {"name": "Wikidata", "slug": "wikidata"}, "source_identifier": "Q121034634"}], "date_modified": "2025-03-14T18:38:47.313136+11:00"}, {"id": 23754, "name": "Australia. Office of Multicultural Affairs", "roles_in_work": [{"id": 2774450, "title": "Days of Stargazey Pie", "work_id": 81493, "role": "production company", "role_id": 941, "is_primary": true}, {"id": 2649404, "title": "Talking Trade", "work_id": 81494, "role": "production company", "role_id": 941, "is_primary": true}, {"id": 2774455, "title": "Being True Blue", "work_id": 81519, "role": "production company", "role_id": 941, "is_primary": true}], "also_known_as": "", "date_of_birth": "", "date_of_death": "", "genders": [], "languages": [], "places_of_operation": [], "biography": "", "biography_author": null, "date_of_biography": "2023-05-09T19:28:32.254127+10:00", "external_links": [], "uuid": "106a3cfc-5be2-4cf0-930a-8fab1296e4ca", "source": {"name": "Vernon", "slug": "vernon"}, "source_identifier": "13431", "external_references": [{"id": 33241, "source": {"name": "Wikidata", "slug": "wikidata"}, "source_identifier": "Q121034889"}], "date_modified": "2025-03-14T18:36:46.921955+11:00"}, {"id": 23753, "name": "Ugo Mariotti", "roles_in_work": [{"id": 2774466, "title": "The Tempest in Bali", "work_id": 81623, "role": "director", "role_id": 938, "is_primary": true}, {"id": 2774464, "title": "The Tempest in Bali", "work_id": 81623, "role": "co-producer", "role_id": 915, "is_primary": true}, {"id": 2774786, "title": "Family life", "work_id": 81492, "role": "co-producers/directors", "role_id": 628, "is_primary": true}, {"id": 2774590, "title": "Silverbeat = Silverbeet", "work_id": 82609, "role": "producer/director", "role_id": 31, "is_primary": true}], "also_known_as": "", "date_of_birth": "", "date_of_death": "", "genders": [], "languages": [], "places_of_operation": [], "biography": "", "biography_author": null, "date_of_biography": "2023-05-09T19:29:15.981062+10:00", "external_links": [], "uuid": "b935b0ee-3e5e-4319-83fa-3a817d8238d9", "source": {"name": "Vernon", "slug": "vernon"}, "source_identifier": "30016", "external_references": [{"id": 40495, "source": {"name": "Wikidata", "slug": "wikidata"}, "source_identifier": "Q121034635"}], "date_modified": "2025-03-14T18:40:18.850343+11:00"}, {"id": 23750, "name": "Barry Sloane", "roles_in_work": [{"id": 2773682, "title": "A World of Festivals", "work_id": 115185, "role": "director", "role_id": 938, "is_primary": true}, {"id": 2773685, "title": "Oktoberfest in Munich", "work_id": 81539, "role": "director", "role_id": 938, "is_primary": true}, {"id": 2773700, "title": "The Venice Gondola Pageant", "work_id": 81536, "role": "director", "role_id": 938, "is_primary": true}, {"id": 2773696, "title": "Viking Sacrifice in Shetland", "work_id": 81481, "role": "director", "role_id": 938, "is_primary": true}, {"id": 2773712, "title": "Belgium Salutes an Emperor", "work_id": 81518, "role": "director", "role_id": 938, "is_primary": true}, {"id": 2773728, "title": "Carnival in France", "work_id": 81508, "role": "director", "role_id": 938, "is_primary": true}], "also_known_as": "", "date_of_birth": "", "date_of_death": "", "genders": [], "languages": [], "places_of_operation": [], "biography": "", "biography_author": null, "date_of_biography": "2023-05-09T18:37:22.221490+10:00", "external_links": [], "uuid": "386b4518-6ed0-4a94-8f43-8b28d4a373f1", "source": {"name": "Vernon", "slug": "vernon"}, "source_identifier": "15738", "external_references": [{"id": 39802, "source": {"name": "Wikidata", "slug": "wikidata"}, "source_identifier": "Q121126347"}], "date_modified": "2025-03-14T18:29:29.634177+11:00"}, {"id": 23749, "name": "Joy Barrow", "roles_in_work": [{"id": 2773695, "title": "Viking Sacrifice in Shetland", "work_id": 81481, "role": "producer", "role_id": 1089, "is_primary": true}, {"id": 2773684, "title": "Oktoberfest in Munich", "work_id": 81539, "role": "producer", "role_id": 1089, "is_primary": true}, {"id": 2773688, "title": "Masked Madness in Switzerland", "work_id": 81538, "role": "producer", "role_id": 1089, "is_primary": true}, {"id": 2773699, "title": "The Venice Gondola Pageant", "work_id": 81536, "role": "producer", "role_id": 1089, "is_primary": true}, {"id": 2773703, "title": "Yugoslavia's Mountain Homecoming", "work_id": 81535, "role": "producer", "role_id": 1089, "is_primary": true}, {"id": 2773707, "title": "A Day for Being Irish", "work_id": 81522, "role": "producer", "role_id": 1089, "is_primary": true}, {"id": 2773711, "title": "Belgium Salutes an Emperor", "work_id": 81518, "role": "producer", "role_id": 1089, "is_primary": true}, {"id": 2773715, "title": "Demon Christmas in Austria", "work_id": 81530, "role": "producer", "role_id": 1089, "is_primary": true}, {"id": 2773719, "title": "Dutch Pirates Are Heroes", "work_id": 81485, "role": "producer", "role_id": 1089, "is_primary": true}, {"id": 2773723, "title": "Sing Out for Wales", "work_id": 81537, "role": "producer", "role_id": 1089, "is_primary": true}, {"id": 2773727, "title": "Carnival in France", "work_id": 81508, "role": "producer", "role_id": 1089, "is_primary": true}, {"id": 2773730, "title": "A World of Festivals", "work_id": 115185, "role": "producer", "role_id": 1089, "is_primary": true}, {"id": 2773692, "title": "Ghost of the Spanish Warrior", "work_id": 81540, "role": "producer/director", "role_id": 31, "is_primary": true}], "also_known_as": "", "date_of_birth": "", "date_of_death": "", "genders": [], "languages": [], "places_of_operation": [], "biography": "", "biography_author": null, "date_of_biography": "2023-05-09T18:37:21.986639+10:00", "external_links": [], "uuid": "669173dd-6b37-4bac-add3-ccc1cce90dbe", "source": {"name": "Vernon", "slug": "vernon"}, "source_identifier": "22770", "external_references": [{"id": 37216, "source": {"name": "Wikidata", "slug": "wikidata"}, "source_identifier": "Q121143904"}], "date_modified": "2025-03-14T18:29:29.042181+11:00"}, {"id": 23748, "name": "Barinder Productions", "roles_in_work": [{"id": 2773726, "title": "Carnival in France", "work_id": 81508, "role": "production company", "role_id": 941, "is_primary": true}, {"id": 2773718, "title": "Dutch Pirates Are Heroes", "work_id": 81485, "role": "production company", "role_id": 941, "is_primary": true}, {"id": 2773714, "title": "Demon Christmas in Austria", "work_id": 81530, "role": "production company", "role_id": 941, "is_primary": true}, {"id": 2773710, "title": "Belgium Salutes an Emperor", "work_id": 81518, "role": "production company", "role_id": 941, "is_primary": true}, {"id": 2773683, "title": "Oktoberfest in Munich", "work_id": 81539, "role": "production company", "role_id": 941, "is_primary": true}, {"id": 2773706, "title": "A Day for Being Irish", "work_id": 81522, "role": "production company", "role_id": 941, "is_primary": true}, {"id": 2773702, "title": "Yugoslavia's Mountain Homecoming", "work_id": 81535, "role": "production company", "role_id": 941, "is_primary": true}, {"id": 2773698, "title": "The Venice Gondola Pageant", "work_id": 81536, "role": "production company", "role_id": 941, "is_primary": true}, {"id": 2773694, "title": "Viking Sacrifice in Shetland", "work_id": 81481, "role": "production company", "role_id": 941, "is_primary": true}, {"id": 2773691, "title": "Ghost of the Spanish Warrior", "work_id": 81540, "role": "production company", "role_id": 941, "is_primary": true}, {"id": 2773681, "title": "A World of Festivals", "work_id": 115185, "role": "production company", "role_id": 941, "is_primary": true}, {"id": 2773687, "title": "Masked Madness in Switzerland", "work_id": 81538, "role": "production company", "role_id": 941, "is_primary": true}, {"id": 2778853, "title": "Rosemary Agostino in Italy; Angela Sarantis in Greece", "work_id": 81930, "role": "production company", "role_id": 941, "is_primary": true}, {"id": 2773722, "title": "Sing Out for Wales", "work_id": 81537, "role": "production company", "role_id": 941, "is_primary": true}], "also_known_as": "", "date_of_birth": "", "date_of_death": "", "genders": [], "languages": [], "places_of_operation": [], "biography": "", "biography_author": null, "date_of_biography": "2023-05-09T18:37:21.739926+10:00", "external_links": [], "uuid": "bf8dd02d-1c88-47f6-94c6-14d2c2c8c76e", "source": {"name": "Vernon", "slug": "vernon"}, "source_identifier": "5721", "external_references": [{"id": 51231, "source": {"name": "Wikidata", "slug": "wikidata"}, "source_identifier": "Q121358039"}], "date_modified": "2025-03-14T19:01:35.167393+11:00"}, {"id": 23747, "name": "Belvama-Ellipse", "roles_in_work": [{"id": 2105962, "title": "Babar. to Duet or Not to Duet; the Missing Crown Affair.", "work_id": 81480, "role": "production company", "role_id": 941, "is_primary": true}], "also_known_as": "", "date_of_birth": "", "date_of_death": "", "genders": [], "languages": [], "places_of_operation": [], "biography": "", "biography_author": null, "date_of_biography": "2023-05-09T12:38:46.305211+10:00", "external_links": [], "uuid": "6a5aedd3-ed01-4ef1-a92c-fe207ef0cc95", "source": {"name": "Vernon", "slug": "vernon"}, "source_identifier": "5806", "external_references": [{"id": 39316, "source": {"name": "Wikidata", "slug": "wikidata"}, "source_identifier": "Q121337639"}], "date_modified": "2023-09-05T17:57:21.439137+10:00"}, {"id": 23746, "name": "Mark Falzon", "roles_in_work": [{"id": 2773850, "title": "Essential Fire", "work_id": 81482, "role": "producer", "role_id": 1089, "is_primary": true}, {"id": 2773890, "title": "Embracing the Future", "work_id": 81484, "role": "producer", "role_id": 1089, "is_primary": true}, {"id": 2773870, "title": "Floral tapestry", "work_id": 81528, "role": "producer", "role_id": 1089, "is_primary": true}, {"id": 2773886, "title": "Fossil Fuels: Heading Towards 2010", "work_id": 81486, "role": "producer", "role_id": 1089, "is_primary": true}, {"id": 2773854, "title": "Our Botanical History", "work_id": 81526, "role": "producer", "role_id": 1089, "is_primary": true}, {"id": 2773862, "title": "Custodians of the bush", "work_id": 81524, "role": "producer", "role_id": 1089, "is_primary": true}, {"id": 2773866, "title": "Healing is believing", "work_id": 81626, "role": "producer", "role_id": 1089, "is_primary": true}, {"id": 2773839, "title": "Under southern skies", "work_id": 115186, "role": "producer", "role_id": 1089, "is_primary": true}, {"id": 2773882, "title": "Extinction is forever", "work_id": 81527, "role": "producer", "role_id": 1089, "is_primary": true}, {"id": 2773842, "title": "Living on a thin thread", "work_id": 81488, "role": "producer", "role_id": 1089, "is_primary": true}, {"id": 2773846, "title": "Distinctively Australian", "work_id": 81478, "role": "producer", "role_id": 1089, "is_primary": true}, {"id": 2773874, "title": "Appropriate Harvesting", "work_id": 81529, "role": "producer", "role_id": 1089, "is_primary": true}, {"id": 2773878, "title": "Forest for the Trees", "work_id": 81483, "role": "producer", "role_id": 1089, "is_primary": true}, {"id": 2773858, "title": "Our Fragile Wilderness", "work_id": 81479, "role": "producer", "role_id": 1089, "is_primary": true}], "also_known_as": "", "date_of_birth": "", "date_of_death": "", "genders": [], "languages": [], "places_of_operation": [], "biography": "", "biography_author": null, "date_of_biography": "2023-07-19T03:40:12.182863+10:00", "external_links": [], "uuid": "75f0873e-1971-439d-a7fc-ae8da22fe23b", "source": {"name": "Vernon", "slug": "vernon"}, "source_identifier": "24486", "external_references": [{"id": 40285, "source": {"name": "Wikidata", "slug": "wikidata"}, "source_identifier": "Q121035555"}], "date_modified": "2025-03-14T18:31:15.702297+11:00"}, {"id": 23745, "name": "Central Coast Media", "roles_in_work": [{"id": 2773861, "title": "Custodians of the bush", "work_id": 81524, "role": "production company", "role_id": 941, "is_primary": true}, {"id": 2773857, "title": "Our Fragile Wilderness", "work_id": 81479, "role": "production company", "role_id": 941, "is_primary": true}, {"id": 2773869, "title": "Floral tapestry", "work_id": 81528, "role": "production company", "role_id": 941, "is_primary": true}, {"id": 2773853, "title": "Our Botanical History", "work_id": 81526, "role": "production company", "role_id": 941, "is_primary": true}, {"id": 2773873, "title": "Appropriate Harvesting", "work_id": 81529, "role": "production company", "role_id": 941, "is_primary": true}, {"id": 2773849, "title": "Essential Fire", "work_id": 81482, "role": "production company", "role_id": 941, "is_primary": true}, {"id": 2773877, "title": "Forest for the Trees", "work_id": 81483, "role": "production company", "role_id": 941, "is_primary": true}, {"id": 2773845, "title": "Distinctively Australian", "work_id": 81478, "role": "production company", "role_id": 941, "is_primary": true}, {"id": 2773881, "title": "Extinction is forever", "work_id": 81527, "role": "production company", "role_id": 941, "is_primary": true}, {"id": 2773841, "title": "Living on a thin thread", "work_id": 81488, "role": "production company", "role_id": 941, "is_primary": true}, {"id": 2773885, "title": "Fossil Fuels: Heading Towards 2010", "work_id": 81486, "role": "production company", "role_id": 941, "is_primary": true}, {"id": 2773889, "title": "Embracing the Future", "work_id": 81484, "role": "production company", "role_id": 941, "is_primary": true}, {"id": 2773894, "title": "Under southern skies", "work_id": 115186, "role": "production company", "role_id": 941, "is_primary": true}, {"id": 2773865, "title": "Healing is believing", "work_id": 81626, "role": "production company", "role_id": 941, "is_primary": true}], "also_known_as": "", "date_of_birth": "", "date_of_death": "", "genders": [], "languages": [], "places_of_operation": [], "biography": "", "biography_author": null, "date_of_biography": "2023-07-19T03:40:11.390189+10:00", "external_links": [], "uuid": "f87d0743-46e1-4127-8265-41450b8ff2be", "source": {"name": "Vernon", "slug": "vernon"}, "source_identifier": "6405", "external_references": [{"id": 37483, "source": {"name": "Wikidata", "slug": "wikidata"}, "source_identifier": "Q121126625"}], "date_modified": "2025-03-14T18:31:15.109306+11:00"}]}