{"count": 28687, "next": "https://api.acmi.net.au/creators/?page=1356", "previous": "https://api.acmi.net.au/creators/?page=1354", "results": [{"id": 38077, "name": "Ernest Kleinberg", "roles_in_work": [{"id": 2749222, "title": "Carcassonne: a French fortress = Carcassonne, fortifications francaises", "work_id": 96695, "role": "producer", "role_id": 1089, "is_primary": true}], "also_known_as": "", "date_of_birth": null, "date_of_death": null, "genders": [], "languages": [], "places_of_operation": [], "biography": "", "biography_author": null, "date_of_biography": null, "external_links": [], "uuid": "f451bc60-8d73-47a2-a4d0-b6a378d4ff38", "source": {"name": "Vernon", "slug": "vernon"}, "source_identifier": "18866", "external_references": [], "date_modified": "2025-03-12T23:56:07.867952+11:00"}, {"id": 38076, "name": "Ernest Kleinberg Films", "roles_in_work": [{"id": 2749220, "title": "Carcassonne: a French fortress = Carcassonne, fortifications francaises", "work_id": 96695, "role": "production company", "role_id": 941, "is_primary": true}], "also_known_as": "", "date_of_birth": null, "date_of_death": null, "genders": [], "languages": [], "places_of_operation": [], "biography": "", "biography_author": null, "date_of_biography": null, "external_links": [], "uuid": "f099c870-5e14-4d5f-a812-e84cdd02f93f", "source": {"name": "Vernon", "slug": "vernon"}, "source_identifier": "7950", "external_references": [], "date_modified": "2025-03-12T23:56:06.606229+11:00"}, {"id": 38075, "name": "Alex Learmont", "roles_in_work": [{"id": 2749219, "title": "Who is Vasco Mutwa?", "work_id": 96694, "role": "director", "role_id": 938, "is_primary": true}], "also_known_as": "", "date_of_birth": null, "date_of_death": null, "genders": [], "languages": [], "places_of_operation": [], "biography": "", "biography_author": null, "date_of_biography": null, "external_links": [], "uuid": "ec4f8a60-fc36-4a80-ba28-cc7cf33853dc", "source": {"name": "Vernon", "slug": "vernon"}, "source_identifier": "14895", "external_references": [], "date_modified": "2025-03-12T23:56:05.739111+11:00"}, {"id": 38074, "name": "Alex Learmont Productions", "roles_in_work": [{"id": 2749217, "title": "Who is Vasco Mutwa?", "work_id": 96694, "role": "production company", "role_id": 941, "is_primary": true}], "also_known_as": "", "date_of_birth": null, "date_of_death": null, "genders": [], "languages": [], "places_of_operation": [], "biography": "", "biography_author": null, "date_of_biography": null, "external_links": [], "uuid": "8a6c30c3-730d-427c-a603-3fb34820bbaa", "source": {"name": "Vernon", "slug": "vernon"}, "source_identifier": "5109", "external_references": [], "date_modified": "2025-03-12T23:56:04.563493+11:00"}, {"id": 38073, "name": "Nana Mahamo", "roles_in_work": [{"id": 2749216, "title": "Last grave at Dimbaza", "work_id": 96693, "role": "director", "role_id": 938, "is_primary": true}], "also_known_as": "", "date_of_birth": "", "date_of_death": "", "genders": [], "languages": [], "places_of_operation": [], "biography": "", "biography_author": null, "date_of_biography": "2023-08-11T19:18:32.639417+10:00", "external_links": [], "uuid": "c8aeb3e6-c737-4a45-95a4-57e749bfeb0a", "source": {"name": "Vernon", "slug": "vernon"}, "source_identifier": "25598", "external_references": [], "date_modified": "2025-03-12T23:56:03.743863+11:00"}, {"id": 38072, "name": "Morena Films", "roles_in_work": [{"id": 2749215, "title": "Last grave at Dimbaza", "work_id": 96693, "role": "production company", "role_id": 941, "is_primary": true}], "also_known_as": "", "date_of_birth": "", "date_of_death": "", "genders": [], "languages": [], "places_of_operation": [], "biography": "", "biography_author": null, "date_of_biography": "2023-08-11T19:18:32.010949+10:00", "external_links": [], "uuid": "c2529fc7-d256-4037-8f49-dc97d0244499", "source": {"name": "Vernon", "slug": "vernon"}, "source_identifier": "10636", "external_references": [], "date_modified": "2025-03-12T23:56:03.160618+11:00"}, {"id": 38070, "name": "Silver Burdett", "roles_in_work": [{"id": 2749201, "title": "Array back when", "work_id": 96687, "role": "production company", "role_id": 941, "is_primary": true}], "also_known_as": "", "date_of_birth": null, "date_of_death": null, "genders": [], "languages": [], "places_of_operation": [], "biography": "", "biography_author": null, "date_of_biography": null, "external_links": [], "uuid": "9813b51a-cdfd-493c-a5b7-891397af9b18", "source": {"name": "Vernon", "slug": "vernon"}, "source_identifier": "28826", "external_references": [], "date_modified": "2025-03-12T23:55:53.290638+11:00"}, {"id": 38069, "name": "Lauren Woodby", "roles_in_work": [{"id": 3088553, "title": "Muchmore's marvellous machine", "work_id": 97677, "role": "director", "role_id": 938, "is_primary": true}, {"id": 2749197, "title": "1,001 noughts", "work_id": 96684, "role": "director", "role_id": 938, "is_primary": true}], "also_known_as": "", "date_of_birth": "", "date_of_death": "", "genders": [], "languages": [], "places_of_operation": [], "biography": "", "biography_author": null, "date_of_biography": "2023-08-11T12:43:27.665605+10:00", "external_links": [], "uuid": "3dedf481-73b7-433c-b063-3696c90a6949", "source": {"name": "Vernon", "slug": "vernon"}, "source_identifier": "23538", "external_references": [{"id": 24633, "source": {"name": "Wikidata", "slug": "wikidata"}, "source_identifier": "Q119760594"}], "date_modified": "2025-03-17T10:55:33.329664+11:00"}, {"id": 38068, "name": "Papua New Guinea. Dept. of Information and Extension Services", "roles_in_work": [{"id": 2749193, "title": "Great Chimbu Pig Festival", "work_id": 96682, "role": "production company", "role_id": 941, "is_primary": true}], "also_known_as": "", "date_of_birth": "", "date_of_death": "", "genders": [], "languages": [], "places_of_operation": [], "biography": "", "biography_author": null, "date_of_biography": "2023-08-11T17:08:49.314772+10:00", "external_links": [], "uuid": "f9474bd6-be2a-47ef-86dd-e1606f567424", "source": {"name": "Vernon", "slug": "vernon"}, "source_identifier": "13370", "external_references": [], "date_modified": "2025-03-12T23:55:37.780380+11:00"}, {"id": 38066, "name": "Arnold Bittleman", "roles_in_work": [{"id": 2749177, "title": "To open eyes", "work_id": 96677, "role": "director", "role_id": 938, "is_primary": true}], "also_known_as": "", "date_of_birth": "", "date_of_death": "", "genders": [], "languages": [], "places_of_operation": [], "biography": "", "biography_author": null, "date_of_biography": "2023-05-09T17:48:55.981563+10:00", "external_links": [], "uuid": "931bc958-4ee7-4041-b203-da9a5a347922", "source": {"name": "Vernon", "slug": "vernon"}, "source_identifier": "31720", "external_references": [{"id": 51503, "source": {"name": "Wikidata", "slug": "wikidata"}, "source_identifier": "Q121357780"}], "date_modified": "2025-03-12T23:55:25.639747+11:00"}]}