{"count": 28687, "next": "https://api.acmi.net.au/creators/?page=2827", "previous": "https://api.acmi.net.au/creators/?page=2825", "results": [{"id": 8302, "name": "Ashley Scarlett", "roles_in_work": [{"id": 2629691, "title": "Amelia Rose Towers", "work_id": 108519, "role": "writer", "role_id": 939, "is_primary": true}, {"id": 2640791, "title": "Amelia Rose Towers", "work_id": 110377, "role": "writer", "role_id": 939, "is_primary": true}], "also_known_as": "", "date_of_birth": "", "date_of_death": "", "genders": [], "languages": [], "places_of_operation": [], "biography": "", "biography_author": null, "date_of_biography": "2023-05-09T19:46:05.955494+10:00", "external_links": [], "uuid": "8c95d469-d312-4e7c-a5b7-0696ebe3ffbf", "source": {"name": "Vernon", "slug": "vernon"}, "source_identifier": "111630", "external_references": [{"id": 36648, "source": {"name": "Wikidata", "slug": "wikidata"}, "source_identifier": "Q121298712"}], "date_modified": "2025-03-05T11:30:26.952216+11:00"}, {"id": 8301, "name": "Nicole Sorby", "roles_in_work": [{"id": 2629690, "title": "Amelia Rose Towers", "work_id": 108519, "role": "producer", "role_id": 1089, "is_primary": true}, {"id": 2640789, "title": "Amelia Rose Towers", "work_id": 110377, "role": "producer", "role_id": 1089, "is_primary": true}, {"id": 1813818, "title": "Amelia Rose Towers", "work_id": 83979, "role": "producer", "role_id": 1089, "is_primary": true}], "also_known_as": "", "date_of_birth": "", "date_of_death": "", "genders": [], "languages": [], "places_of_operation": [], "biography": "", "biography_author": null, "date_of_biography": "2023-05-09T19:46:05.729341+10:00", "external_links": [], "uuid": "46d83615-d27f-471a-bcf9-5134d18f9e3b", "source": {"name": "Vernon", "slug": "vernon"}, "source_identifier": "2963", "external_references": [{"id": 41817, "source": {"name": "Wikidata", "slug": "wikidata"}, "source_identifier": "Q121337099"}], "date_modified": "2025-03-05T11:30:26.380091+11:00"}, {"id": 8127, "name": "Hernan Bornas", "roles_in_work": [{"id": 3110493, "title": "America", "work_id": 87519, "role": "director", "role_id": 938, "is_primary": true}, {"id": 3110472, "title": "America", "work_id": 108514, "role": "director", "role_id": 938, "is_primary": true}, {"id": 3110473, "title": "America", "work_id": 108514, "role": "creator", "role_id": 968, "is_primary": true}, {"id": 3110474, "title": "America", "work_id": 108514, "role": "writer", "role_id": 939, "is_primary": true}], "also_known_as": "", "date_of_birth": null, "date_of_death": null, "genders": [], "languages": [], "places_of_operation": [], "biography": "", "biography_author": null, "date_of_biography": null, "external_links": [], "uuid": "6ff5cbf9-c0b2-4047-a7b3-125f4493a5ef", "source": {"name": "Vernon", "slug": "vernon"}, "source_identifier": "111399", "external_references": [], "date_modified": "2026-03-11T11:10:19.960895+11:00"}, {"id": 8123, "name": "River City Sound Productions", "roles_in_work": [{"id": 2619404, "title": "Useful stuff 1", "work_id": 108507, "role": "creator", "role_id": 968, "is_primary": true}], "also_known_as": "", "date_of_birth": "", "date_of_death": "", "genders": [], "languages": [], "places_of_operation": [], "biography": "", "biography_author": null, "date_of_biography": "2023-08-14T12:05:06.949826+10:00", "external_links": [], "uuid": "9faa1866-9d1a-421c-af1d-74bd4f6fe438", "source": {"name": "Vernon", "slug": "vernon"}, "source_identifier": "111182", "external_references": [], "date_modified": "2025-02-26T23:10:04.609777+11:00"}, {"id": 8121, "name": "Francois Truffaut", "roles_in_work": [{"id": 3104661, "title": "Jules et Jim = Jules and Jim (Cinemascope Print)", "work_id": 116021, "role": "director", "role_id": 938, "is_primary": true}, {"id": 3104536, "title": "Les Deux Anglaises et le Continent = Anne and Muriel", "work_id": 115961, "role": "director", "role_id": 938, "is_primary": true}, {"id": 928954, "title": "The 400 blows = Les Quatre cents coups", "work_id": 94369, "role": "director", "role_id": 938, "is_primary": true}, {"id": 1999430, "title": "Day for night = La Nuit Americaine [DVD]", "work_id": 94448, "role": "director", "role_id": 938, "is_primary": true}, {"id": 2225217, "title": "Fahrenheit 451", "work_id": 84561, "role": "director", "role_id": 938, "is_primary": true}, {"id": 1995747, "title": "Jules and Jim = Jules et Jim [DVD]", "work_id": 92265, "role": "director", "role_id": 938, "is_primary": true}, {"id": 1987770, "title": "The Last Metro = Le Derniere Metro", "work_id": 83944, "role": "director", "role_id": 938, "is_primary": true}, {"id": 2109632, "title": "Bed and board = Domicile conjugal", "work_id": 95088, "role": "director", "role_id": 938, "is_primary": true}, {"id": 2312629, "title": "Stolen kisses = Baisers voles", "work_id": 95041, "role": "director", "role_id": 938, "is_primary": true}, {"id": 1997561, "title": "Shoot the piano player = Tirez sur le pianiste [NTSC]", "work_id": 93367, "role": "director", "role_id": 938, "is_primary": true}, {"id": 3105481, "title": "Les Mistons = the Brats", "work_id": 116486, "role": "director", "role_id": 938, "is_primary": true}, {"id": 3105455, "title": "Antoine et Colette", "work_id": 116463, "role": "director", "role_id": 938, "is_primary": true}, {"id": 3104674, "title": "Tirez Sur le Pianiste = Shoot the Piano Player (Cinemascope Print)", "work_id": 116027, "role": "director", "role_id": 938, "is_primary": true}, {"id": 3104800, "title": "Vivement Dimanche! = Confidentially Yours!", "work_id": 116087, "role": "director", "role_id": 938, "is_primary": true}, {"id": 2109630, "title": "Bed and board = Domicile conjugal", "work_id": 95088, "role": "co-producer", "role_id": 915, "is_primary": true}, {"id": 3104994, "title": "L'enfance Nue = Nude Childhood", "work_id": 116193, "role": "producer", "role_id": 1089, "is_primary": true}, {"id": 2000480, "title": "Love on the run = L'Amour en fuite", "work_id": 95079, "role": "producer/director", "role_id": 31, "is_primary": true}], "also_known_as": "François Roland Truffaut", "date_of_birth": "1932-02-06", "date_of_death": "1984-10-21", "genders": [{"id": 9, "name": "Male", "slug": "male"}], "languages": [{"id": 4, "name": "French", "slug": "french"}], "places_of_operation": [{"id": 17, "name": "France", "slug": "france"}], "biography": "François Roland Truffaut (UK:  TROO-foh, TRUUF-oh, US:  troo-FOH; French: [fʁɑ̃swa ʁɔlɑ̃ tʁyfo]; 6 February 1932 – 21 October 1984) was a French film director, screenwriter, producer, actor, and film critic. He is widely regarded as one of the founders of the French New Wave. After a career of more than 25 years, he remains an icon of the French film industry, having worked on over 25 films. \nTruffaut's film The 400 Blows is a defining film of the French New Wave movement, and has four sequels, Antoine et Colette, Stolen Kisses, Bed and Board, and Love on the Run, made between 1958 and 1979. Truffaut's 1973 film Day for Night earned him critical acclaim and several awards, including the BAFTA Award for Best Film and the Academy Award for Best Foreign Language Film.\nHis other notable films include Shoot the Piano Player (1960), Jules and Jim (1962), The Soft Skin (1964), The Wild Child (1970), Two English Girls (1971), The Last Metro (1980), and The Woman Next Door (1981). He is also known for his supporting role in the film Close Encounters of the Third Kind (1977).\nTruffaut also wrote the notable book Hitchcock/Truffaut (1966), which detailed his interviews with the film director Alfred Hitchcock during the 1960s.", "biography_author": "Wikidata", "date_of_biography": "2022-05-19T11:28:38.983149+10:00", "external_links": [{"id": 2048, "uri": "https://en.wikipedia.org/wiki/Fran%C3%A7ois_Truffaut"}], "uuid": "50d7d858-140a-45d1-a44a-8511677a6a04", "source": {"name": "Vernon", "slug": "vernon"}, "source_identifier": "111657", "external_references": [{"id": 8840, "source": {"name": "Wikidata", "slug": "wikidata"}, "source_identifier": "Q53002"}, {"id": 8841, "source": {"name": "VIAF", "slug": "viaf"}, "source_identifier": "102375575"}, {"id": 8842, "source": {"name": "LOC Auth", "slug": "loc-auth"}, "source_identifier": "n80036636"}, {"id": 8843, "source": {"name": "WorldCat", "slug": "worldcat"}, "source_identifier": "lccn-n80036636"}], "date_modified": "2025-05-22T23:10:03.241851+10:00"}, {"id": 8120, "name": "Van McElwee", "roles_in_work": [{"id": 2629669, "title": "Space splice", "work_id": 108504, "role": "creator", "role_id": 968, "is_primary": true}, {"id": 2629673, "title": "Transfinite loops", "work_id": 108505, "role": "creator", "role_id": 968, "is_primary": true}], "also_known_as": "", "date_of_birth": "", "date_of_death": "", "genders": [], "languages": [], "places_of_operation": [], "biography": "", "biography_author": null, "date_of_biography": "2023-08-14T11:56:51.839093+10:00", "external_links": [], "uuid": "b6fae0cc-0161-4538-bc11-d0b35d94db73", "source": {"name": "Vernon", "slug": "vernon"}, "source_identifier": "111392", "external_references": [], "date_modified": "2025-02-27T22:52:45.273976+11:00"}, {"id": 8119, "name": "Destiny Deacon", "roles_in_work": [{"id": 2723193, "title": "Where's Mickey?", "work_id": 120436, "role": "artist", "role_id": 505, "is_primary": true}, {"id": 2500517, "title": "Welcome to my Koori world", "work_id": 121859, "role": "artist", "role_id": 505, "is_primary": true}, {"id": 2723183, "title": "Draclubra", "work_id": 120433, "role": "artist", "role_id": 505, "is_primary": true}, {"id": 2723187, "title": "Little Miss Wonder", "work_id": 120434, "role": "artist", "role_id": 505, "is_primary": true}, {"id": 2723190, "title": "Peach Blossom's Revenge", "work_id": 120435, "role": "artist", "role_id": 505, "is_primary": true}, {"id": 2711542, "title": "Neighbours (the remix) - Destiny Deacon (Over d-Fence)", "work_id": 109250, "role": "director", "role_id": 938, "is_primary": true}, {"id": 2711543, "title": "Neighbours (the remix) - Destiny Deacon (Over d-Fence)", "work_id": 109250, "role": "creator", "role_id": 968, "is_primary": true}, {"id": 3110250, "title": "I Don't want to be a bludger", "work_id": 108463, "role": "creator", "role_id": 968, "is_primary": true}, {"id": 2500520, "title": "Destiny Deacon works", "work_id": 121857, "role": "artist", "role_id": 505, "is_primary": true}, {"id": 3110249, "title": "Destiny Deacon compilation", "work_id": 108464, "role": "creator", "role_id": 968, "is_primary": true}, {"id": 3110248, "title": "Forced into images", "work_id": 62361, "role": "creator", "role_id": 968, "is_primary": true}, {"id": 2754475, "title": "Carried away", "work_id": 99224, "role": "production company", "role_id": 941, "is_primary": true}], "also_known_as": "", "date_of_birth": "", "date_of_death": "", "genders": [], "languages": [], "places_of_operation": [], "biography": "Destiny Deacon is a descendant of the KuKu (Far North Queensland) and Erub/Mer (Torres Strait) people. Since the 1990s Deacon's work has been primarily involved with performative photography, exploring Indigenous identity with often provocative and humorous imagery that mocks and satirises clichéd and racist stereotypes. Partly autobiographical and partly fictitious, Deacon’s work is an insightful comedy that is effective in establishing a discourse about political, Indigenous and feminist concerns.", "biography_author": null, "date_of_biography": "2025-12-08T10:35:00.674601+11:00", "external_links": [], "uuid": "89e8caa6-412b-4ee7-83fb-a51cb3ad3628", "source": {"name": "Vernon", "slug": "vernon"}, "source_identifier": "111394", "external_references": [{"id": 40458, "source": {"name": "Wikidata", "slug": "wikidata"}, "source_identifier": "Q19872801"}], "date_modified": "2025-12-08T10:35:00.674835+11:00"}, {"id": 8114, "name": "Leon Cmielewski", "roles_in_work": [{"id": 2629892, "title": "Writer's Block", "work_id": 108603, "role": "director", "role_id": 938, "is_primary": true}, {"id": 2629891, "title": "Writer's Block", "work_id": 108603, "role": "creator", "role_id": 968, "is_primary": true}, {"id": 2637827, "title": "Seeker", "work_id": 109977, "role": "creator", "role_id": 968, "is_primary": true}], "also_known_as": "", "date_of_birth": "1965", "date_of_death": "", "genders": [{"id": 9, "name": "Male", "slug": "male"}], "languages": [], "places_of_operation": [], "biography": "", "biography_author": null, "date_of_biography": "2023-05-09T17:39:10.910214+10:00", "external_links": [], "uuid": "f309d0ea-533b-4e3b-acac-6dd8709f9a68", "source": {"name": "Vernon", "slug": "vernon"}, "source_identifier": "111104", "external_references": [], "date_modified": "2025-03-05T10:57:22.037640+11:00"}, {"id": 8113, "name": "Josephine Starrs", "roles_in_work": [{"id": 2637826, "title": "Seeker", "work_id": 109977, "role": "creator", "role_id": 968, "is_primary": true}], "also_known_as": "", "date_of_birth": "1955", "date_of_death": "", "genders": [{"id": 5, "name": "Female", "slug": "female"}], "languages": [], "places_of_operation": [], "biography": "Leon Cmielewski (Adelaide, 1956) and Josephine Starrs (Adelaide, 1955), are Sydney based artists who have worked together on several projects including the interactive CD-ROM Dream Kitchen (2001), the modified computer game Bio-Tek Kitchen (2003), and the interactive installations Trace (2002), Pathfinder (2005) and Floating Territories (2005). Their work has been shown widely in Australia and Europe, including ISEA (2004) and the 2nd Beijing International New Media Exhibition & Symposium (2005). In late 2005 they spent time researching at Waag Society for Old and New Media, Amsterdam, and Sarai, Delhi. Cmielewski lectures at the School of Communication, Design & Media, University of Western Sydney, Starrs lectures at Sydney College of the Arts, University of Sydney.", "biography_author": null, "date_of_biography": "2025-03-05T10:57:21.248869+11:00", "external_links": [], "uuid": "72edcac4-dda3-44ae-8fad-c29f479d9a28", "source": {"name": "Vernon", "slug": "vernon"}, "source_identifier": "111385", "external_references": [], "date_modified": "2025-03-05T10:57:21.249232+11:00"}, {"id": 8112, "name": "Vyvyan Stranieri", "roles_in_work": [{"id": 2675364, "title": "Mallboy and sound design", "work_id": 108689, "role": "creator", "role_id": 968, "is_primary": true}, {"id": 2654163, "title": "Anthony Lucas talks about 'The Cabinet of Anthony Lucas: The Faulty Fandangle'", "work_id": 116912, "role": "interviewer", "role_id": 457, "is_primary": false}, {"id": 2675419, "title": "Digital Diaries for Memory Grid Pods. Tape 1", "work_id": 109021, "role": "project manager", "role_id": 498, "is_primary": false}], "also_known_as": "", "date_of_birth": "", "date_of_death": "", "genders": [{"id": 5, "name": "Female", "slug": "female"}], "languages": [], "places_of_operation": [], "biography": "", "biography_author": null, "date_of_biography": "2023-05-09T15:09:06.147942+10:00", "external_links": [], "uuid": "123e86ae-cef9-48ae-8e1b-7b48de2bae32", "source": {"name": "Vernon", "slug": "vernon"}, "source_identifier": "111112", "external_references": [], "date_modified": "2025-03-06T22:41:52.060788+11:00"}]}