{"count": 28683, "next": "https://api.acmi.net.au/creators/?page=1823", "previous": "https://api.acmi.net.au/creators/?page=1821", "results": [{"id": 25896, "name": "Tom Musca", "roles_in_work": [{"id": 2308890, "title": "Stand and deliver", "work_id": 83778, "role": "producer", "role_id": 1089, "is_primary": true}], "also_known_as": "", "date_of_birth": "", "date_of_death": "", "genders": [{"id": 9, "name": "Male", "slug": "male"}], "languages": [], "places_of_operation": [], "biography": "Tom Musca(born 1951) is an American filmmaker.", "biography_author": "Wikidata", "date_of_biography": "2023-09-06T01:54:06.589091+10:00", "external_links": [{"id": 6228, "uri": "https://en.wikipedia.org/wiki/Tom_Musca"}], "uuid": "77a388e8-898b-46a1-859c-8fd030c10113", "source": {"name": "Vernon", "slug": "vernon"}, "source_identifier": "13600", "external_references": [{"id": 42930, "source": {"name": "Wikidata", "slug": "wikidata"}, "source_identifier": "Q22569459"}], "date_modified": "2023-09-06T01:54:06.638304+10:00"}, {"id": 25895, "name": "Paul Monash", "roles_in_work": [{"id": 2302321, "title": "Slaughterhouse five", "work_id": 83777, "role": "producer", "role_id": 1089, "is_primary": true}, {"id": 1820102, "title": "Carrie (Special edition) [DVD]", "work_id": 93942, "role": "producer", "role_id": 1089, "is_primary": true}], "also_known_as": "", "date_of_birth": "1917-06-14", "date_of_death": "2003-01-14", "genders": [{"id": 9, "name": "Male", "slug": "male"}], "languages": [{"id": 1, "name": "English", "slug": "english"}], "places_of_operation": [{"id": 1, "name": "United States of America", "slug": "united-states-of-america"}], "biography": "Paul Monash (June 14, 1917 – January 14, 2003) was an American television and film producer and screenwriter.", "biography_author": "Wikidata", "date_of_biography": "2023-08-01T16:30:48.855555+10:00", "external_links": [{"id": 4849, "uri": "https://en.wikipedia.org/wiki/Paul_Monash"}], "uuid": "5770a10e-bf1a-4882-a710-152046ba9c6f", "source": {"name": "Vernon", "slug": "vernon"}, "source_identifier": "26294", "external_references": [{"id": 26323, "source": {"name": "Wikidata", "slug": "wikidata"}, "source_identifier": "Q2061350"}, {"id": 30710, "source": {"name": "VIAF", "slug": "viaf"}, "source_identifier": "106986589"}, {"id": 30711, "source": {"name": "LOC Auth", "slug": "loc-auth"}, "source_identifier": "n88100574"}, {"id": 30712, "source": {"name": "WorldCat", "slug": "worldcat"}, "source_identifier": "lccn-n88100574"}], "date_modified": "2023-09-05T23:48:25.797471+10:00"}, {"id": 25893, "name": "Vittorio De Sica", "roles_in_work": [{"id": 2331187, "title": "The Bicycle thieves = Ladri di biciclette", "work_id": 85852, "role": "director", "role_id": 938, "is_primary": true}, {"id": 2349893, "title": "The Garden of the Finzi-Continis = Il Giardino dei Finzi-Contini", "work_id": 92869, "role": "director", "role_id": 938, "is_primary": true}, {"id": 2615689, "title": "Miracle in Milan = miracolo a Milano", "work_id": 85954, "role": "director", "role_id": 938, "is_primary": true}, {"id": 2650498, "title": "Ladri di biciclette = Bicycle thieves", "work_id": 115714, "role": "director", "role_id": 938, "is_primary": true}, {"id": 1997476, "title": "Two women = La Ciociara (Special edition)", "work_id": 93326, "role": "director", "role_id": 938, "is_primary": true}, {"id": 1987523, "title": "Yesterday, today and tomorrow", "work_id": 83775, "role": "director", "role_id": 938, "is_primary": true}, {"id": 2290800, "title": "Two women = La Ciociara", "work_id": 86287, "role": "director", "role_id": 938, "is_primary": true}, {"id": 1993340, "title": "Umberto D", "work_id": 88967, "role": "director", "role_id": 938, "is_primary": true}, {"id": 1993258, "title": "Marriage Italian style = Matrimonio all'Italiano", "work_id": 88903, "role": "director", "role_id": 938, "is_primary": true}, {"id": 1993589, "title": "Indiscretion of an American wife = Stazione Termini", "work_id": 89299, "role": "producer/director", "role_id": 31, "is_primary": true}], "also_known_as": "Vittorio Domenico Stanislao Gaetano Sorano De Sica", "date_of_birth": "1901", "date_of_death": "1974", "genders": [{"id": 9, "name": "Male", "slug": "male"}], "languages": [{"id": 6, "name": "Italian", "slug": "italian"}], "places_of_operation": [{"id": 19, "name": "Italy", "slug": "italy"}], "biography": "Vittorio De Sica ( də SEE-kə, Italian: [vitˈtɔːrjo de ˈsiːka]; 7 July 1901 – 13 November 1974) was an Italian film director and actor, a leading figure in the neorealist movement.\nFour of the films he directed won Academy Awards: Sciuscià and Bicycle Thieves (honorary), while Yesterday, Today and Tomorrow and Il giardino dei Finzi Contini won the Academy Award for Best Foreign Language Film. Indeed, the great critical success of Sciuscià (the first foreign film to be so recognized by the Academy of Motion Picture Arts and Sciences) and Bicycle Thieves helped establish the permanent Best Foreign Film Award. These two films are considered part of the canon of classic cinema. Bicycle Thieves was cited by Turner Classic Movies as one of the 15 most influential films in cinema history.De Sica was also nominated for the 1957 Oscar for Best Supporting Actor for playing Major Rinaldi in American director Charles Vidor's 1957 adaptation of Ernest Hemingway's A Farewell to Arms, a movie that was panned by critics and proved a box office flop. De Sica's acting was considered the highlight of the film.", "biography_author": "Wikidata", "date_of_biography": "2022-05-19T13:19:59.815582+10:00", "external_links": [{"id": 3264, "uri": "https://en.wikipedia.org/wiki/Vittorio_De_Sica"}], "uuid": "deb10168-b5b5-4530-9ae1-539ec63bef36", "source": {"name": "Vernon", "slug": "vernon"}, "source_identifier": "3966", "external_references": [{"id": 13812, "source": {"name": "Wikidata", "slug": "wikidata"}, "source_identifier": "Q53004"}, {"id": 13813, "source": {"name": "VIAF", "slug": "viaf"}, "source_identifier": "90151800"}, {"id": 13814, "source": {"name": "LOC Auth", "slug": "loc-auth"}, "source_identifier": "n79004216"}, {"id": 13815, "source": {"name": "WorldCat", "slug": "worldcat"}, "source_identifier": "lccn-n79004216"}], "date_modified": "2025-03-05T14:20:38.618650+11:00"}, {"id": 25891, "name": "Jean-Loup Hubert", "roles_in_work": [{"id": 1987520, "title": "Le Grand chemin", "work_id": 83773, "role": "director", "role_id": 938, "is_primary": true}], "also_known_as": "", "date_of_birth": "1949-10-04", "date_of_death": null, "genders": [{"id": 9, "name": "Male", "slug": "male"}], "languages": [{"id": 4, "name": "French", "slug": "french"}], "places_of_operation": [{"id": 17, "name": "France", "slug": "france"}], "biography": "Jean-Loup Hubert (born 4 October 1949) is a French director and screenwriter.", "biography_author": "Wikidata", "date_of_biography": "2022-05-19T11:54:44.192273+10:00", "external_links": [{"id": 2340, "uri": "https://en.wikipedia.org/wiki/Jean-Loup_Hubert"}], "uuid": "4f0940a1-030c-4953-ad5f-cef7f72c6f01", "source": {"name": "Vernon", "slug": "vernon"}, "source_identifier": "21586", "external_references": [{"id": 10037, "source": {"name": "Wikidata", "slug": "wikidata"}, "source_identifier": "Q3167058"}, {"id": 10038, "source": {"name": "VIAF", "slug": "viaf"}, "source_identifier": "37837452"}, {"id": 50523, "source": {"name": "LOC Auth", "slug": "loc-auth"}, "source_identifier": "n2002042043"}, {"id": 50524, "source": {"name": "WorldCat", "slug": "worldcat"}, "source_identifier": "lccn-n2002042043"}], "date_modified": "2023-09-13T12:30:19.643117+10:00"}, {"id": 25890, "name": "TFI", "roles_in_work": [{"id": 1987546, "title": "Nuovo Cinema Paradiso", "work_id": 83783, "role": "production company", "role_id": 941, "is_primary": true}, {"id": 2352945, "title": "The Hairdresser's husband = Le Mari del la coiffeuse", "work_id": 83820, "role": "production company", "role_id": 941, "is_primary": true}, {"id": 1987519, "title": "Le Grand chemin", "work_id": 83773, "role": "production company", "role_id": 941, "is_primary": true}], "also_known_as": "", "date_of_birth": "", "date_of_death": "", "genders": [], "languages": [], "places_of_operation": [], "biography": "", "biography_author": null, "date_of_biography": "2023-05-09T19:59:27.443382+10:00", "external_links": [], "uuid": "3b2d32f6-54dd-43b1-9b0a-bd8be120ee24", "source": {"name": "Vernon", "slug": "vernon"}, "source_identifier": "13322", "external_references": [{"id": 41788, "source": {"name": "Wikidata", "slug": "wikidata"}, "source_identifier": "Q80455720"}], "date_modified": "2023-09-06T01:47:06.411077+10:00"}, {"id": 25888, "name": "Flach Film", "roles_in_work": [{"id": 2228390, "title": "Fat girl = For my sister = A ma soeur! [DVD] (E)", "work_id": 94303, "role": "production company", "role_id": 941, "is_primary": true}, {"id": 2096094, "title": "Anatomy of Hell = Anatomie de L'Enfer [DVD] (E)", "work_id": 95000, "role": "production company", "role_id": 941, "is_primary": true}, {"id": 1987517, "title": "Le Grand chemin", "work_id": 83773, "role": "production company", "role_id": 941, "is_primary": true}, {"id": 1993690, "title": "Romance (E)", "work_id": 89417, "role": "production company", "role_id": 941, "is_primary": true}, {"id": 2174966, "title": "Jane Eyre", "work_id": 86115, "role": "production company", "role_id": 941, "is_primary": true}], "also_known_as": "", "date_of_birth": "", "date_of_death": "", "genders": [], "languages": [], "places_of_operation": [], "biography": "", "biography_author": null, "date_of_biography": "2023-05-09T16:29:54.103485+10:00", "external_links": [], "uuid": "6ee01a45-0f9c-43d8-9f8b-b49ef89b72cb", "source": {"name": "Vernon", "slug": "vernon"}, "source_identifier": "8388", "external_references": [{"id": 39905, "source": {"name": "Wikidata", "slug": "wikidata"}, "source_identifier": "Q121036024"}], "date_modified": "2023-09-05T19:44:25.184906+10:00"}, {"id": 25887, "name": "John Erichsen", "roles_in_work": [{"id": 2788963, "title": "Elizabeth Riddell", "work_id": 83771, "role": "director", "role_id": 938, "is_primary": true}], "also_known_as": "", "date_of_birth": "", "date_of_death": "", "genders": [], "languages": [], "places_of_operation": [], "biography": "", "biography_author": null, "date_of_biography": "2023-08-11T15:35:30.770021+10:00", "external_links": [], "uuid": "90490ba2-d2e5-483d-9fd4-8b4fdee23834", "source": {"name": "Vernon", "slug": "vernon"}, "source_identifier": "22239", "external_references": [{"id": 33691, "source": {"name": "Wikidata", "slug": "wikidata"}, "source_identifier": "Q121035085"}], "date_modified": "2025-03-14T19:47:54.907607+11:00"}, {"id": 25880, "name": "V and A Productions", "roles_in_work": [{"id": 2331955, "title": "Infertility and adoption", "work_id": 83761, "role": "production company", "role_id": 941, "is_primary": true}, {"id": 2331941, "title": "Neonatal death", "work_id": 83764, "role": "production company", "role_id": 941, "is_primary": true}, {"id": 2614483, "title": "Loss of a baby: death of a dream", "work_id": 83766, "role": "production company", "role_id": 941, "is_primary": true}, {"id": 2331923, "title": "Understanding maternal grief", "work_id": 115374, "role": "production company", "role_id": 941, "is_primary": true}, {"id": 2331901, "title": "The Birth of a handicapped baby", "work_id": 83765, "role": "production company", "role_id": 941, "is_primary": true}, {"id": 2331967, "title": "Miscarriage and stillbirth", "work_id": 83763, "role": "production company", "role_id": 941, "is_primary": true}], "also_known_as": "", "date_of_birth": "", "date_of_death": "", "genders": [], "languages": [], "places_of_operation": [], "biography": "", "biography_author": null, "date_of_biography": "2023-05-09T19:26:55.236375+10:00", "external_links": [], "uuid": "8f26cf5a-ea4b-4073-98ed-42688178021f", "source": {"name": "Vernon", "slug": "vernon"}, "source_identifier": "13977", "external_references": [{"id": 35130, "source": {"name": "Wikidata", "slug": "wikidata"}, "source_identifier": "Q121159858"}], "date_modified": "2025-02-26T20:11:23.520074+11:00"}, {"id": 25879, "name": "Peter Dunn", "roles_in_work": [{"id": 902862, "title": "Great English golf courses", "work_id": 83758, "role": "co-director", "role_id": 959, "is_primary": true}, {"id": 2752829, "title": "City girls", "work_id": 98479, "role": "producer", "role_id": 1089, "is_primary": true}], "also_known_as": "", "date_of_birth": null, "date_of_death": null, "genders": [], "languages": [], "places_of_operation": [], "biography": "", "biography_author": null, "date_of_biography": null, "external_links": [], "uuid": "f0652e2b-4ebb-4c4f-b904-355576d81917", "source": {"name": "Vernon", "slug": "vernon"}, "source_identifier": "26526", "external_references": [], "date_modified": "2025-03-13T01:12:38.167188+11:00"}, {"id": 25878, "name": "Ashley Sidaway", "roles_in_work": [{"id": 2116489, "title": "Bizarre cults", "work_id": 92662, "role": "director", "role_id": 938, "is_primary": true}, {"id": 902861, "title": "Great English golf courses", "work_id": 83758, "role": "co-director", "role_id": 959, "is_primary": true}], "also_known_as": "", "date_of_birth": "", "date_of_death": "", "genders": [{"id": 9, "name": "Male", "slug": "male"}], "languages": [{"id": 1, "name": "English", "slug": "english"}], "places_of_operation": [{"id": 10, "name": "United Kingdom", "slug": "united-kingdom"}], "biography": "Ashley Sidaway is a writer, producer and editor working in film and television. His films include Rainbow, Battle of the Brave (Nouvelle-France) and Joy Division as well as the long-running BBC TV series Best Of British.As creator / writer and supervising film editor of Rainbow, Sidaway spent a year in post-production on the first all-digital movie released theatrically.Sidaway's latest film is Into The Rainbow / The Wonder on which he is a writer and producer.", "biography_author": "Wikidata", "date_of_biography": "2023-09-05T17:48:30.024230+10:00", "external_links": [{"id": 5691, "uri": "https://en.wikipedia.org/wiki/Ashley_Sidaway"}], "uuid": "5cd951b4-d120-4d38-b6e3-39edfb8a4f19", "source": {"name": "Vernon", "slug": "vernon"}, "source_identifier": "15573", "external_references": [{"id": 50556, "source": {"name": "Wikidata", "slug": "wikidata"}, "source_identifier": "Q25095467"}], "date_modified": "2023-09-05T17:48:35.492795+10:00"}]}