{"count": 28687, "next": "https://api.acmi.net.au/creators/?page=75", "previous": "https://api.acmi.net.au/creators/?page=73", "results": [{"id": 86311, "name": "Samantha Andrew", "roles_in_work": [{"id": 2719171, "title": "MET GALA REVIEW: Chaotic Australian Edition", "work_id": 120167, "role": "creator", "role_id": 968, "is_primary": true}], "also_known_as": "", "date_of_birth": "", "date_of_death": "", "genders": [{"id": 5, "name": "Female", "slug": "female"}], "languages": [], "places_of_operation": [], "biography": "", "biography_author": null, "date_of_biography": "2023-08-16T04:08:33.977186+10:00", "external_links": [], "uuid": "a10020aa-a90e-4c94-ae48-0ae36ac72c18", "source": {"name": "Vernon", "slug": "vernon"}, "source_identifier": "40334", "external_references": [], "date_modified": "2025-03-12T06:56:03.616517+11:00"}, {"id": 86310, "name": "William Green", "roles_in_work": [{"id": 2716534, "title": "Caricature of Max Walker (Tangles) Bowling with CD-ROM", "work_id": 120166, "role": "artist", "role_id": 505, "is_primary": true}], "also_known_as": "", "date_of_birth": "", "date_of_death": "", "genders": [], "languages": [], "places_of_operation": [], "biography": "", "biography_author": null, "date_of_biography": "2023-05-09T13:18:31.192566+10:00", "external_links": [], "uuid": "da25b5aa-0cb6-4587-882e-fe5ed58180fd", "source": {"name": "Vernon", "slug": "vernon"}, "source_identifier": "40101", "external_references": [], "date_modified": "2025-03-12T02:09:42.014581+11:00"}, {"id": 86309, "name": "Alex Walker", "roles_in_work": [{"id": 2716536, "title": "Caricature of Max Walker (Tangles) Bowling with CD-ROM", "work_id": 120166, "role": "donor", "role_id": 606, "is_primary": false}, {"id": 2716530, "title": "\"All Stitched Up\" Max Walker's Maximum Infotainment CD-ROM", "work_id": 120165, "role": "donor", "role_id": 606, "is_primary": false}], "also_known_as": "", "date_of_birth": "1991", "date_of_death": "", "genders": [{"id": 5, "name": "Female", "slug": "female"}], "languages": [], "places_of_operation": [], "biography": "", "biography_author": null, "date_of_biography": "2023-05-09T13:18:31.434683+10:00", "external_links": [], "uuid": "c9c5d73c-1e0b-4e46-b85c-7f68840042da", "source": {"name": "Vernon", "slug": "vernon"}, "source_identifier": "40020", "external_references": [], "date_modified": "2025-03-12T02:09:42.607263+11:00"}, {"id": 86308, "name": "Digital Media Integration Pty Ltd", "roles_in_work": [{"id": 2716529, "title": "\"All Stitched Up\" Max Walker's Maximum Infotainment CD-ROM", "work_id": 120165, "role": "distributor", "role_id": 437, "is_primary": false}], "also_known_as": "", "date_of_birth": "", "date_of_death": "", "genders": [], "languages": [], "places_of_operation": [], "biography": "", "biography_author": null, "date_of_biography": "2023-05-09T09:55:16.764453+10:00", "external_links": [], "uuid": "6369cfa7-a83e-47ee-bfc5-f8da9e4ea973", "source": {"name": "Vernon", "slug": "vernon"}, "source_identifier": "40100", "external_references": [], "date_modified": "2025-03-12T02:09:27.049490+11:00"}, {"id": 86307, "name": "Max Walker", "roles_in_work": [{"id": 2716528, "title": "\"All Stitched Up\" Max Walker's Maximum Infotainment CD-ROM", "work_id": 120165, "role": "creator", "role_id": 968, "is_primary": true}], "also_known_as": "", "date_of_birth": "12 SEP 1948", "date_of_death": "28 SEP 2016", "genders": [{"id": 9, "name": "Male", "slug": "male"}], "languages": [], "places_of_operation": [], "biography": "Architect\nAFL Player for Melbourne Demons\nCricketer for Tasmania, Victoria, Australia\nTV Presenter & Sports Commentator, Wide World of Sports\nAuthor of 16 books", "biography_author": null, "date_of_biography": "2025-03-12T02:09:24.925776+11:00", "external_links": [], "uuid": "6a22840d-a795-4209-85ec-7d638112e88e", "source": {"name": "Vernon", "slug": "vernon"}, "source_identifier": "40099", "external_references": [], "date_modified": "2025-03-12T02:09:24.926142+11:00"}, {"id": 86285, "name": "Ben King", "roles_in_work": [{"id": 3097374, "title": "Official publicity photographs from The Dressmaker (Trudy and Tilly on the veranda)", "work_id": 122339, "role": "photographer", "role_id": 440, "is_primary": false}, {"id": 3097364, "title": "Official publicity photographs from The Dressmaker (Nancy and Prudence at the wedding)", "work_id": 122353, "role": "photographer", "role_id": 440, "is_primary": false}, {"id": 3097373, "title": "Official publicity photographs from The Dressmaker (Tilly in the red dress)", "work_id": 122338, "role": "photographer", "role_id": 440, "is_primary": false}, {"id": 2717915, "title": "Picnic at Hanging Rock (2018) production still: Samara Weaving, Madeleine Madden, Natalie Dormer and Lily Sullivan", "work_id": 120138, "role": "photographer", "role_id": 440, "is_primary": false}, {"id": 3097363, "title": "Official publicity photographs from The Dressmaker (Group in the landscape)", "work_id": 122352, "role": "photographer", "role_id": 440, "is_primary": false}], "also_known_as": "", "date_of_birth": "", "date_of_death": "", "genders": [], "languages": [], "places_of_operation": [], "biography": "", "biography_author": null, "date_of_biography": "2023-09-05T16:35:45.638273+10:00", "external_links": [], "uuid": "a85fce96-85bb-468f-8bcb-633b360dc45c", "source": {"name": "Vernon", "slug": "vernon"}, "source_identifier": "40256", "external_references": [], "date_modified": "2025-05-08T22:35:22.879057+10:00"}, {"id": 86284, "name": "Xinger Xanger Photography", "roles_in_work": [{"id": 2717911, "title": "Picnic at Hanging Rock (2018) production still of Miranda (Lily Sullivan)", "work_id": 120137, "role": "photographer", "role_id": 440, "is_primary": false}], "also_known_as": "", "date_of_birth": "", "date_of_death": "", "genders": [], "languages": [], "places_of_operation": [], "biography": "", "biography_author": null, "date_of_biography": "2023-09-05T16:35:44.411574+10:00", "external_links": [], "uuid": "2b5b6233-b8a4-4770-958f-8584a8de911e", "source": {"name": "Vernon", "slug": "vernon"}, "source_identifier": "40253", "external_references": [], "date_modified": "2025-03-12T06:18:51.975443+11:00"}, {"id": 86283, "name": "Sarah Enticknap", "roles_in_work": [{"id": 2717913, "title": "Picnic at Hanging Rock (2018) production still: Miranda (Lily Sullivan) and Marion (Madeleine Madden) with other students", "work_id": 120135, "role": "photographer", "role_id": 440, "is_primary": false}, {"id": 2718003, "title": "Picnic at Hanging Rock (2018) production still: Mrs Appleyard (Natalie Dormer)", "work_id": 120136, "role": "photographer", "role_id": 440, "is_primary": false}], "also_known_as": "", "date_of_birth": "", "date_of_death": "", "genders": [], "languages": [], "places_of_operation": [], "biography": "", "biography_author": null, "date_of_biography": "2023-09-05T16:35:42.275881+10:00", "external_links": [], "uuid": "9c6c10fb-c6fc-43e0-9795-7a25d9ada1b6", "source": {"name": "Vernon", "slug": "vernon"}, "source_identifier": "40252", "external_references": [], "date_modified": "2025-03-12T06:21:06.722640+11:00"}, {"id": 86282, "name": "Mathilde Montredon", "roles_in_work": [{"id": 3109417, "title": "Picnic at Hanging Rock (2018) Mrs Hester Appleyard's black mourning costume", "work_id": 120118, "role": "costume cutting/costume production", "role_id": 1080, "is_primary": false}, {"id": 2717870, "title": " Picnic at Hanging Rock (2018) picnic costumes", "work_id": 120112, "role": "costume cutting/costume production", "role_id": 1080, "is_primary": false}, {"id": 3109391, "title": "Picnic at Hanging Rock (2018) Marion's picnic costume", "work_id": 120111, "role": "costume cutting/costume production", "role_id": 1080, "is_primary": false}, {"id": 3109395, "title": "Picnic at Hanging Rock (2018) Miranda's picnic costume", "work_id": 120114, "role": "costume cutting/costume production", "role_id": 1080, "is_primary": false}, {"id": 3109399, "title": "Picnic at Hanging Rock (2018) Irma's picnic costume", "work_id": 120113, "role": "costume cutting/costume production", "role_id": 1080, "is_primary": false}, {"id": 3109403, "title": "Picnic at Hanging Rock (2018) Mrs Hester Appleyard's burgundy picnic costume", "work_id": 120115, "role": "costume cutting/costume production", "role_id": 1080, "is_primary": false}, {"id": 3109413, "title": "Picnic at Hanging Rock (2018) Mrs Hester Appleyard's fete costume (purple)", "work_id": 120117, "role": "costume cutting/costume production", "role_id": 1080, "is_primary": false}], "also_known_as": "", "date_of_birth": "", "date_of_death": "", "genders": [], "languages": [], "places_of_operation": [], "biography": "", "biography_author": null, "date_of_biography": "2023-08-30T03:43:03.303460+10:00", "external_links": [], "uuid": "e582d35d-5a5f-4436-9f9c-1364030e3b9e", "source": {"name": "Vernon", "slug": "vernon"}, "source_identifier": "40327", "external_references": [], "date_modified": "2025-11-28T18:36:22.446020+11:00"}, {"id": 86281, "name": "Gayle MacGregor", "roles_in_work": [{"id": 3109416, "title": "Picnic at Hanging Rock (2018) Mrs Hester Appleyard's black mourning costume", "work_id": 120118, "role": "costume cutting/costume production", "role_id": 1080, "is_primary": false}, {"id": 3109412, "title": "Picnic at Hanging Rock (2018) Mrs Hester Appleyard's fete costume (purple)", "work_id": 120117, "role": "costume cutting/costume production", "role_id": 1080, "is_primary": false}, {"id": 3109402, "title": "Picnic at Hanging Rock (2018) Mrs Hester Appleyard's burgundy picnic costume", "work_id": 120115, "role": "costume cutting/costume production", "role_id": 1080, "is_primary": false}, {"id": 2717869, "title": " Picnic at Hanging Rock (2018) picnic costumes", "work_id": 120112, "role": "costume cutting/costume production", "role_id": 1080, "is_primary": false}, {"id": 3109394, "title": "Picnic at Hanging Rock (2018) Miranda's picnic costume", "work_id": 120114, "role": "costume cutting/costume production", "role_id": 1080, "is_primary": false}, {"id": 3109398, "title": "Picnic at Hanging Rock (2018) Irma's picnic costume", "work_id": 120113, "role": "costume cutting/costume production", "role_id": 1080, "is_primary": false}, {"id": 3109390, "title": "Picnic at Hanging Rock (2018) Marion's picnic costume", "work_id": 120111, "role": "costume cutting/costume production", "role_id": 1080, "is_primary": false}], "also_known_as": "", "date_of_birth": "", "date_of_death": "", "genders": [], "languages": [], "places_of_operation": [], "biography": "", "biography_author": null, "date_of_biography": "2023-08-30T03:43:02.675470+10:00", "external_links": [], "uuid": "68d70855-c99c-4d40-b370-d2b0b97525b6", "source": {"name": "Vernon", "slug": "vernon"}, "source_identifier": "40326", "external_references": [], "date_modified": "2025-11-28T18:36:21.732629+11:00"}]}