{"count": 28687, "next": "https://api.acmi.net.au/creators/?page=2241", "previous": "https://api.acmi.net.au/creators/?page=2239", "results": [{"id": 17898, "name": "Depicto Films", "roles_in_work": [{"id": 2760537, "title": "Oblique cone and transitional developments", "work_id": 76203, "role": "production company", "role_id": 941, "is_primary": true}, {"id": 2760535, "title": "Simple developments", "work_id": 72834, "role": "production company", "role_id": 941, "is_primary": true}], "also_known_as": "", "date_of_birth": "", "date_of_death": "", "genders": [], "languages": [], "places_of_operation": [], "biography": "", "biography_author": null, "date_of_biography": "2023-08-11T13:26:08.396308+10:00", "external_links": [], "uuid": "bbe2e919-690b-45b9-9ac0-52cd0bdfa78c", "source": {"name": "Vernon", "slug": "vernon"}, "source_identifier": "7476", "external_references": [], "date_modified": "2025-03-14T17:25:59.462465+11:00"}, {"id": 17896, "name": "Independent Cine Art", "roles_in_work": [{"id": 2299419, "title": "Simon", "work_id": 72829, "role": "producer", "role_id": 1089, "is_primary": true}], "also_known_as": "", "date_of_birth": "", "date_of_death": "", "genders": [], "languages": [], "places_of_operation": [], "biography": "", "biography_author": null, "date_of_biography": "2023-05-09T18:34:15.797464+10:00", "external_links": [], "uuid": "e6258d7f-a6a2-46e1-b6b8-ecb5e0b986d1", "source": {"name": "Vernon", "slug": "vernon"}, "source_identifier": "9269", "external_references": [], "date_modified": "2023-06-14T16:33:30.576250+10:00"}, {"id": 17895, "name": "Vikichi Ohta", "roles_in_work": [{"id": 2465882, "title": "Silkworm", "work_id": 72825, "role": "director", "role_id": 938, "is_primary": true}], "also_known_as": "", "date_of_birth": "", "date_of_death": "", "genders": [], "languages": [], "places_of_operation": [], "biography": "", "biography_author": null, "date_of_biography": "2023-08-14T10:44:25.236394+10:00", "external_links": [], "uuid": "34026eaf-b2fe-4779-9908-121b96d4b14a", "source": {"name": "Vernon", "slug": "vernon"}, "source_identifier": "14139", "external_references": [], "date_modified": "2023-08-14T10:44:25.236755+10:00"}, {"id": 17892, "name": "National Film Archive (Australia)", "roles_in_work": [{"id": 858420, "title": "Silent fiction films", "work_id": 72818, "role": "production company", "role_id": 941, "is_primary": true}, {"id": 3093075, "title": "[Melbourne newsreel: 1925]", "work_id": 75653, "role": "production company", "role_id": 941, "is_primary": true}], "also_known_as": "", "date_of_birth": "", "date_of_death": "", "genders": [], "languages": [], "places_of_operation": [], "biography": "", "biography_author": null, "date_of_biography": "2023-08-11T12:38:55.642523+10:00", "external_links": [], "uuid": "78a67949-9562-4a43-a769-44ecb20e58f5", "source": {"name": "Vernon", "slug": "vernon"}, "source_identifier": "4394", "external_references": [], "date_modified": "2025-03-31T22:36:16.897387+11:00"}, {"id": 17890, "name": "Rosanne Brownrigg", "roles_in_work": [{"id": 2465874, "title": "Silage making on every farm", "work_id": 72816, "role": "director", "role_id": 938, "is_primary": true}], "also_known_as": "", "date_of_birth": "", "date_of_death": "", "genders": [], "languages": [], "places_of_operation": [], "biography": "", "biography_author": null, "date_of_biography": "2023-08-14T10:44:14.207334+10:00", "external_links": [], "uuid": "bbb9c9cf-808b-478c-b907-dabce11f8254", "source": {"name": "Vernon", "slug": "vernon"}, "source_identifier": "28243", "external_references": [], "date_modified": "2023-08-14T10:44:14.207711+10:00"}, {"id": 17886, "name": "Text Films", "roles_in_work": [{"id": 2757691, "title": "Sibling relations and personality", "work_id": 72802, "role": "production company", "role_id": 941, "is_primary": true}], "also_known_as": "", "date_of_birth": null, "date_of_death": null, "genders": [], "languages": [], "places_of_operation": [], "biography": "", "biography_author": null, "date_of_biography": null, "external_links": [], "uuid": "efff4273-3c13-49a5-a4be-c8fd944c5307", "source": {"name": "Vernon", "slug": "vernon"}, "source_identifier": "13314", "external_references": [], "date_modified": "2025-03-13T14:46:48.774947+11:00"}, {"id": 17883, "name": "Protective Films", "roles_in_work": [{"id": 2298530, "title": "Shrinkage", "work_id": 72798, "role": "production company", "role_id": 941, "is_primary": true}], "also_known_as": "", "date_of_birth": "", "date_of_death": "", "genders": [], "languages": [], "places_of_operation": [], "biography": "", "biography_author": null, "date_of_biography": "2023-05-09T18:32:12.547779+10:00", "external_links": [], "uuid": "235e8832-03a0-4bcb-bf34-8cdebdc49360", "source": {"name": "Vernon", "slug": "vernon"}, "source_identifier": "11710", "external_references": [{"id": 35538, "source": {"name": "Wikidata", "slug": "wikidata"}, "source_identifier": "Q121271116"}], "date_modified": "2023-09-06T00:14:43.010922+10:00"}, {"id": 17882, "name": "Ravi Prakash", "roles_in_work": [{"id": 754104, "title": "Spring comes to Kashmir", "work_id": 73127, "role": "director", "role_id": 938, "is_primary": true}, {"id": 858392, "title": "Shringar: hair styles of India", "work_id": 72797, "role": "director", "role_id": 938, "is_primary": true}, {"id": 2646528, "title": "Taming the Sutlej", "work_id": 73501, "role": "director", "role_id": 938, "is_primary": true}], "also_known_as": "", "date_of_birth": null, "date_of_death": null, "genders": [], "languages": [], "places_of_operation": [], "biography": "", "biography_author": null, "date_of_biography": null, "external_links": [], "uuid": "7934622f-9ccc-4b18-b99e-4f83fbb28e6f", "source": {"name": "Vernon", "slug": "vernon"}, "source_identifier": "11876", "external_references": [], "date_modified": "2025-03-05T13:06:14.077699+11:00"}, {"id": 17879, "name": "Yorkshire Harlech Television", "roles_in_work": [{"id": 2750383, "title": "Shows Promise: Should Go Far (Exceptional Children)", "work_id": 97297, "role": "production company", "role_id": 941, "is_primary": true}, {"id": 858385, "title": "Shows promise - should go far (TEFC)", "work_id": 72794, "role": "production company", "role_id": 941, "is_primary": true}], "also_known_as": "", "date_of_birth": "", "date_of_death": "", "genders": [], "languages": [], "places_of_operation": [], "biography": "", "biography_author": null, "date_of_biography": "2023-08-14T10:44:04.641593+10:00", "external_links": [], "uuid": "dafc985e-562d-4c67-8288-0dcff8fcac89", "source": {"name": "Vernon", "slug": "vernon"}, "source_identifier": "14508", "external_references": [], "date_modified": "2025-03-13T00:21:19.894084+11:00"}, {"id": 17878, "name": "Lyn Smith", "roles_in_work": [{"id": 2646313, "title": "The Shout it out alphabet film", "work_id": 72791, "role": "director", "role_id": 938, "is_primary": true}], "also_known_as": "", "date_of_birth": null, "date_of_death": null, "genders": [], "languages": [], "places_of_operation": [], "biography": "", "biography_author": null, "date_of_biography": null, "external_links": [], "uuid": "2e90363c-ecc4-4ba6-9406-3dd0ab8f4d2e", "source": {"name": "Vernon", "slug": "vernon"}, "source_identifier": "24123", "external_references": [], "date_modified": "2025-03-05T13:01:16.335845+11:00"}]}