{"count": 28687, "next": "https://api.acmi.net.au/creators/?page=2300", "previous": "https://api.acmi.net.au/creators/?page=2298", "results": [{"id": 16775, "name": "University of Iowa", "roles_in_work": [{"id": 2463687, "title": "Motion study in action", "work_id": 70613, "role": "production company", "role_id": 941, "is_primary": true}], "also_known_as": "", "date_of_birth": "", "date_of_death": "", "genders": [], "languages": [], "places_of_operation": [], "biography": "", "biography_author": null, "date_of_biography": "2023-08-14T09:55:49.454916+10:00", "external_links": [], "uuid": "2c650d63-3f9a-41a8-bceb-703de46b54da", "source": {"name": "Vernon", "slug": "vernon"}, "source_identifier": "13919", "external_references": [], "date_modified": "2023-08-14T09:55:49.455274+10:00"}, {"id": 16773, "name": "A.F. Films", "roles_in_work": [{"id": 858047, "title": "Sausalito", "work_id": 72490, "role": "production company", "role_id": 941, "is_primary": true}, {"id": 752081, "title": "Rhythm of Africa", "work_id": 72212, "role": "production company", "role_id": 941, "is_primary": true}, {"id": 855658, "title": "Mother's day", "work_id": 70607, "role": "production company", "role_id": 941, "is_primary": true}, {"id": 857869, "title": "The Rose and the mignonette", "work_id": 72348, "role": "production company", "role_id": 941, "is_primary": true}, {"id": 2466435, "title": "Taliesin East", "work_id": 73487, "role": "production company", "role_id": 941, "is_primary": true}], "also_known_as": "", "date_of_birth": "", "date_of_death": "", "genders": [], "languages": [], "places_of_operation": [], "biography": "", "biography_author": null, "date_of_biography": "2023-08-14T10:57:11.522382+10:00", "external_links": [], "uuid": "40f4ab6f-0fd9-48be-9e86-a5f4efd4306d", "source": {"name": "Vernon", "slug": "vernon"}, "source_identifier": "4934", "external_references": [], "date_modified": "2023-08-14T10:57:11.522717+10:00"}, {"id": 16772, "name": "Sylvia Brody", "roles_in_work": [{"id": 2645719, "title": "Mother infant interaction: forms of feeding at six weeks", "work_id": 70603, "role": "director", "role_id": 938, "is_primary": true}], "also_known_as": "", "date_of_birth": "", "date_of_death": "", "genders": [], "languages": [], "places_of_operation": [], "biography": "", "biography_author": null, "date_of_biography": "2023-08-14T09:54:37.363431+10:00", "external_links": [], "uuid": "733c5481-514e-486c-92df-a73f806b0038", "source": {"name": "Vernon", "slug": "vernon"}, "source_identifier": "29430", "external_references": [], "date_modified": "2025-03-05T12:46:41.254859+11:00"}, {"id": 16771, "name": "New York Infant Development Project", "roles_in_work": [{"id": 2645718, "title": "Mother infant interaction: forms of feeding at six weeks", "work_id": 70603, "role": "production company", "role_id": 941, "is_primary": true}], "also_known_as": "", "date_of_birth": "", "date_of_death": "", "genders": [], "languages": [], "places_of_operation": [], "biography": "", "biography_author": null, "date_of_biography": "2023-08-14T09:54:36.738974+10:00", "external_links": [], "uuid": "1ed8129c-454b-4417-bf0a-8ec920419d93", "source": {"name": "Vernon", "slug": "vernon"}, "source_identifier": "10924", "external_references": [], "date_modified": "2025-03-05T12:46:40.665478+11:00"}, {"id": 16770, "name": "Film-Rite", "roles_in_work": [{"id": 2645717, "title": "Mother infant interaction: forms of feeding at six weeks", "work_id": 70603, "role": "production company", "role_id": 941, "is_primary": true}], "also_known_as": "", "date_of_birth": "", "date_of_death": "", "genders": [], "languages": [], "places_of_operation": [], "biography": "", "biography_author": null, "date_of_biography": "2023-08-14T09:54:36.119504+10:00", "external_links": [], "uuid": "2644873f-3f10-4111-b303-91f3e8fd599f", "source": {"name": "Vernon", "slug": "vernon"}, "source_identifier": "8288", "external_references": [], "date_modified": "2025-03-05T12:46:40.069456+11:00"}, {"id": 16768, "name": "Gordon Sheppard", "roles_in_work": [{"id": 2467610, "title": "The Most", "work_id": 70596, "role": "director", "role_id": 938, "is_primary": true}, {"id": 2467609, "title": "The Most", "work_id": 70596, "role": "co-producer", "role_id": 915, "is_primary": true}], "also_known_as": "", "date_of_birth": "1937-04-09", "date_of_death": "2006-02-19", "genders": [{"id": 9, "name": "Male", "slug": "male"}], "languages": [{"id": 83, "name": "Canadian French", "slug": "canadian-french"}], "places_of_operation": [{"id": 36, "name": "Canada", "slug": "canada"}], "biography": "", "biography_author": null, "date_of_biography": "2023-08-14T11:23:50.793017+10:00", "external_links": [], "uuid": "7d84e31e-f3be-4925-82bb-7d4964e29899", "source": {"name": "Vernon", "slug": "vernon"}, "source_identifier": "19953", "external_references": [{"id": 34393, "source": {"name": "Wikidata", "slug": "wikidata"}, "source_identifier": "Q4522985"}, {"id": 54574, "source": {"name": "VIAF", "slug": "viaf"}, "source_identifier": "29764693"}, {"id": 54575, "source": {"name": "LOC Auth", "slug": "loc-auth"}, "source_identifier": "n85152923"}, {"id": 54576, "source": {"name": "WorldCat", "slug": "worldcat"}, "source_identifier": "lccn-n85152923"}], "date_modified": "2023-09-05T20:17:15.447153+10:00"}, {"id": 16767, "name": "Inter Video", "roles_in_work": [{"id": 2467607, "title": "The Most", "work_id": 70596, "role": "production company", "role_id": 941, "is_primary": true}], "also_known_as": "", "date_of_birth": "", "date_of_death": "", "genders": [], "languages": [], "places_of_operation": [], "biography": "", "biography_author": null, "date_of_biography": "2023-08-14T11:23:48.935069+10:00", "external_links": [], "uuid": "50dd62b5-4358-45a0-a0ea-476e26bda191", "source": {"name": "Vernon", "slug": "vernon"}, "source_identifier": "9338", "external_references": [], "date_modified": "2023-08-14T11:23:48.935283+10:00"}, {"id": 16765, "name": "John Stoddart", "roles_in_work": [{"id": 2463580, "title": "Morpho", "work_id": 70590, "role": "director", "role_id": 938, "is_primary": true}], "also_known_as": "", "date_of_birth": "", "date_of_death": "", "genders": [], "languages": [], "places_of_operation": [], "biography": "", "biography_author": null, "date_of_biography": "2023-08-14T09:53:50.297121+10:00", "external_links": [], "uuid": "f5e0320a-896c-4d59-9158-30c430c4ddee", "source": {"name": "Vernon", "slug": "vernon"}, "source_identifier": "35930", "external_references": [{"id": 40975, "source": {"name": "Wikidata", "slug": "wikidata"}, "source_identifier": "Q120837822"}], "date_modified": "2023-09-05T21:44:48.929889+10:00"}, {"id": 16760, "name": "Denis Mitchell", "roles_in_work": [{"id": 874817, "title": "A Soho story", "work_id": 89115, "role": "director", "role_id": 938, "is_primary": true}, {"id": 2645710, "title": "Morning in the streets", "work_id": 70583, "role": "co-director", "role_id": 959, "is_primary": true}], "also_known_as": "", "date_of_birth": null, "date_of_death": null, "genders": [], "languages": [], "places_of_operation": [], "biography": "", "biography_author": null, "date_of_biography": null, "external_links": [], "uuid": "373fbd8f-de67-481a-ae22-4ece354da044", "source": {"name": "Vernon", "slug": "vernon"}, "source_identifier": "17964", "external_references": [], "date_modified": "2025-03-05T12:46:35.598327+11:00"}, {"id": 16759, "name": "Center for Instructional Technology", "roles_in_work": [{"id": 2757456, "title": "Morning care", "work_id": 70582, "role": "production company", "role_id": 941, "is_primary": true}], "also_known_as": "", "date_of_birth": "", "date_of_death": "", "genders": [], "languages": [], "places_of_operation": [], "biography": "", "biography_author": null, "date_of_biography": "2023-08-11T14:47:52.108288+10:00", "external_links": [], "uuid": "d6f6b98f-50d7-42f1-9d28-691ad51edba5", "source": {"name": "Vernon", "slug": "vernon"}, "source_identifier": "30800", "external_references": [], "date_modified": "2025-03-13T14:45:31.050359+11:00"}]}