{"count": 28687, "next": "https://api.acmi.net.au/creators/?page=350", "previous": "https://api.acmi.net.au/creators/?page=348", "results": [{"id": 82117, "name": "GoPro Inc.", "roles_in_work": [{"id": 2408731, "title": "GoPro Hero 3", "work_id": 100241, "role": "manufacturer", "role_id": 627, "is_primary": true}], "also_known_as": "", "date_of_birth": "2002", "date_of_death": "", "genders": [], "languages": [], "places_of_operation": [], "biography": "", "biography_author": null, "date_of_biography": "2023-08-11T17:06:44.277767+10:00", "external_links": [], "uuid": "a3143b7d-c0d5-4dd5-9412-543facbbdaa9", "source": {"name": "Vernon", "slug": "vernon"}, "source_identifier": "39607", "external_references": [], "date_modified": "2023-08-11T17:06:44.278033+10:00"}, {"id": 82116, "name": "Mitchell Camera Corporation", "roles_in_work": [{"id": 2681203, "title": "Mitchell Newsreel Camera", "work_id": 107635, "role": "creator", "role_id": 968, "is_primary": true}, {"id": 2639018, "title": "16mm news camera with Cosmicar zoom lens used by GTV-9", "work_id": 100044, "role": "manufacturer", "role_id": 627, "is_primary": true}], "also_known_as": "", "date_of_birth": "1919", "date_of_death": "1970s", "genders": [], "languages": [], "places_of_operation": [], "biography": "", "biography_author": null, "date_of_biography": "2023-06-21T03:40:06.585366+10:00", "external_links": [], "uuid": "c4db823f-f206-4c17-9362-d9731984c502", "source": {"name": "Vernon", "slug": "vernon"}, "source_identifier": "39606", "external_references": [], "date_modified": "2025-03-07T01:03:21.213268+11:00"}, {"id": 82115, "name": "View-Master Ideal Group Inc.", "roles_in_work": [{"id": 2281339, "title": "View-Master (Mickey Mouse Character)", "work_id": 114491, "role": "", "role_id": 604, "is_primary": false}], "also_known_as": "", "date_of_birth": "1984", "date_of_death": "1989", "genders": [], "languages": [], "places_of_operation": [], "biography": "", "biography_author": null, "date_of_biography": "2023-05-09T18:00:59.550720+10:00", "external_links": [], "uuid": "a216806f-24b4-4d9f-940d-7ca30fa4a9bd", "source": {"name": "Vernon", "slug": "vernon"}, "source_identifier": "39402", "external_references": [], "date_modified": "2023-06-14T16:33:30.576250+10:00"}, {"id": 82114, "name": "Rozelle Studio", "roles_in_work": [{"id": 3108962, "title": "Photo of Stella Miles Franklin", "work_id": 99701, "role": "creator", "role_id": 968, "is_primary": true}], "also_known_as": "", "date_of_birth": "", "date_of_death": "", "genders": [], "languages": [], "places_of_operation": [], "biography": "", "biography_author": null, "date_of_biography": "2023-05-09T14:05:02.451760+10:00", "external_links": [], "uuid": "6c62bc56-d958-40b6-a06a-cd9fe4ca17e2", "source": {"name": "Vernon", "slug": "vernon"}, "source_identifier": "39603", "external_references": [], "date_modified": "2025-10-08T15:13:50.635335+11:00"}, {"id": 82113, "name": "George Skalenakis", "roles_in_work": [{"id": 3089797, "title": "Diplopennies (Dancing the Sirtaki) poster", "work_id": 99744, "role": "creator", "role_id": 968, "is_primary": true}], "also_known_as": "", "date_of_birth": "", "date_of_death": "", "genders": [], "languages": [], "places_of_operation": [], "biography": "", "biography_author": null, "date_of_biography": "2023-08-14T13:03:04.945785+10:00", "external_links": [], "uuid": "d8202a73-de75-4e8c-beb5-05ff8d0826c3", "source": {"name": "Vernon", "slug": "vernon"}, "source_identifier": "39602", "external_references": [], "date_modified": "2025-03-17T11:06:45.917865+11:00"}, {"id": 82112, "name": "Matsushita Electrical Co. Ltd.", "roles_in_work": [{"id": 2686198, "title": "National Ranger 505 Transistor TV", "work_id": 100278, "role": "manufacturer", "role_id": 627, "is_primary": true}], "also_known_as": "", "date_of_birth": null, "date_of_death": null, "genders": [], "languages": [], "places_of_operation": [], "biography": "", "biography_author": null, "date_of_biography": null, "external_links": [], "uuid": "7a4cd3ba-ed25-4603-b555-56225de83911", "source": {"name": "Vernon", "slug": "vernon"}, "source_identifier": "39394", "external_references": [], "date_modified": "2025-03-11T12:15:52.353781+11:00"}, {"id": 82111, "name": "Walz", "roles_in_work": [{"id": 2681277, "title": "Assorted Film Making Accessories", "work_id": 100155, "role": "", "role_id": 604, "is_primary": false}], "also_known_as": "", "date_of_birth": "", "date_of_death": "", "genders": [], "languages": [], "places_of_operation": [], "biography": "", "biography_author": null, "date_of_biography": "2023-05-09T12:33:36.918977+10:00", "external_links": [], "uuid": "60af23aa-8db6-46de-a2e5-57b95add37ec", "source": {"name": "Vernon", "slug": "vernon"}, "source_identifier": "39361", "external_references": [], "date_modified": "2025-03-07T01:15:19.917312+11:00"}, {"id": 82110, "name": "Posso", "roles_in_work": [{"id": 2681275, "title": "Posso Cinema Projection Spools", "work_id": 100153, "role": "", "role_id": 604, "is_primary": false}], "also_known_as": "", "date_of_birth": "", "date_of_death": "", "genders": [], "languages": [], "places_of_operation": [], "biography": "", "biography_author": null, "date_of_biography": "2023-05-09T15:45:40.604522+10:00", "external_links": [], "uuid": "4d38c0fe-3613-493b-b3cf-1fcb7d64c599", "source": {"name": "Vernon", "slug": "vernon"}, "source_identifier": "39360", "external_references": [], "date_modified": "2025-03-07T01:15:16.680078+11:00"}, {"id": 82109, "name": "Sansei Koko Ltd", "roles_in_work": [{"id": 1063218, "title": "Hanimex movie editor and accessories", "work_id": 100152, "role": "manufacturer", "role_id": 627, "is_primary": true}], "also_known_as": "", "date_of_birth": null, "date_of_death": null, "genders": [], "languages": [], "places_of_operation": [], "biography": "", "biography_author": null, "date_of_biography": null, "external_links": [], "uuid": "eddb4e03-3c04-4124-ab9b-c2128b231e39", "source": {"name": "Vernon", "slug": "vernon"}, "source_identifier": null, "external_references": [], "date_modified": "2023-06-14T16:33:30.576250+10:00"}, {"id": 82108, "name": "Flectalux", "roles_in_work": [{"id": 2681273, "title": "Flectalux light in original cardboard box", "work_id": 100150, "role": "", "role_id": 604, "is_primary": false}], "also_known_as": "", "date_of_birth": "", "date_of_death": "", "genders": [], "languages": [], "places_of_operation": [], "biography": "", "biography_author": null, "date_of_biography": "2023-05-09T16:58:58.883982+10:00", "external_links": [], "uuid": "a4764550-d82c-4e98-9dfb-30ce56bdf2b1", "source": {"name": "Vernon", "slug": "vernon"}, "source_identifier": "39358", "external_references": [], "date_modified": "2025-03-07T01:15:13.417081+11:00"}]}