{"count": 28682, "next": "https://api.acmi.net.au/creators/?page=1504", "previous": "https://api.acmi.net.au/creators/?page=1502", "results": [{"id": 34050, "name": "Gloria Films", "roles_in_work": [{"id": 2212490, "title": "Early frost", "work_id": 92444, "role": "production company", "role_id": 941, "is_primary": true}], "also_known_as": "", "date_of_birth": "", "date_of_death": "", "genders": [], "languages": [], "places_of_operation": [], "biography": "", "biography_author": null, "date_of_biography": "2023-05-09T15:48:24.908792+10:00", "external_links": [], "uuid": "d4c80ae4-0b67-489f-aada-660021272869", "source": {"name": "Vernon", "slug": "vernon"}, "source_identifier": "8756", "external_references": [{"id": 34202, "source": {"name": "Wikidata", "slug": "wikidata"}, "source_identifier": "Q121091430"}], "date_modified": "2023-09-05T20:15:37.414865+10:00"}, {"id": 34047, "name": "Madragoa Filmes", "roles_in_work": [{"id": 1995972, "title": "Abraham Valley = Vale Abraao", "work_id": 92443, "role": "production company", "role_id": 941, "is_primary": true}, {"id": 1999659, "title": "I'm going home = Je rentre a la maison [DVD]", "work_id": 94612, "role": "production company", "role_id": 941, "is_primary": true}, {"id": 2219362, "title": "Ennui = L'Ennui [Widescreen]", "work_id": 93686, "role": "production company", "role_id": 941, "is_primary": true}], "also_known_as": "", "date_of_birth": "", "date_of_death": "", "genders": [], "languages": [], "places_of_operation": [], "biography": "", "biography_author": null, "date_of_biography": "2023-05-09T16:14:01.166739+10:00", "external_links": [], "uuid": "5d830226-5f9e-4295-a274-118e312bd34a", "source": {"name": "Vernon", "slug": "vernon"}, "source_identifier": "10231", "external_references": [{"id": 50615, "source": {"name": "Wikidata", "slug": "wikidata"}, "source_identifier": "Q10322952"}], "date_modified": "2023-09-05T22:36:10.459125+10:00"}, {"id": 34040, "name": "Prairie Films", "roles_in_work": [{"id": 2076449, "title": "A Thousand acres", "work_id": 92438, "role": "production company", "role_id": 941, "is_primary": true}], "also_known_as": "", "date_of_birth": "", "date_of_death": "", "genders": [], "languages": [], "places_of_operation": [], "biography": "", "biography_author": null, "date_of_biography": "2023-05-09T11:41:32.999895+10:00", "external_links": [], "uuid": "6b219689-0ab1-4c0c-8e4f-7215c90a9e86", "source": {"name": "Vernon", "slug": "vernon"}, "source_identifier": "11610", "external_references": [{"id": 41504, "source": {"name": "Wikidata", "slug": "wikidata"}, "source_identifier": "Q121035682"}], "date_modified": "2023-09-06T00:13:52.875791+10:00"}, {"id": 34039, "name": "Beacon Pictures", "roles_in_work": [{"id": 2195943, "title": "Disturbing behavior = Disturbing behaviour", "work_id": 94106, "role": "production company", "role_id": 941, "is_primary": true}, {"id": 2076446, "title": "A Thousand acres", "work_id": 92438, "role": "production company", "role_id": 941, "is_primary": true}, {"id": 2125220, "title": "Bring it on [DVD]", "work_id": 94288, "role": "production company", "role_id": 941, "is_primary": true}], "also_known_as": "", "date_of_birth": "", "date_of_death": "", "genders": [], "languages": [], "places_of_operation": [], "biography": "Beacon Pictures (aka Beacon Communications, LLC) is an American film and television production and international sales company founded in 1990 by Armyan Bernstein, who is also its chairman. The company produces motion pictures for studios such as Walt Disney Studios Motion Pictures, Universal Pictures and Sony Pictures Entertainment. In 1996, it struck a first look deal with Universal.Beacon was acquired in 1994 by COMSAT, who a year later put the company under its Ascent Entertainment Group division. By early 1999, Ascent was about to be broken up due to financial problems, mostly stemming from building the Pepsi Center in Denver. Bernstein and venture capitalist Kevin O Donnell, son of Kennedy Administration Kenny O'Donnell, purchased Beacon back, restoring its independent company status.", "biography_author": "Wikidata", "date_of_biography": "2023-08-01T14:10:09.614686+10:00", "external_links": [{"id": 3622, "uri": "https://en.wikipedia.org/wiki/Beacon_Pictures"}], "uuid": "cbfb881f-9c0f-478b-8223-df61ae111fac", "source": {"name": "Vernon", "slug": "vernon"}, "source_identifier": "5770", "external_references": [{"id": 25179, "source": {"name": "Wikidata", "slug": "wikidata"}, "source_identifier": "Q812893"}, {"id": 27443, "source": {"name": "VIAF", "slug": "viaf"}, "source_identifier": "159763407"}, {"id": 27444, "source": {"name": "LOC Auth", "slug": "loc-auth"}, "source_identifier": "no98114749"}, {"id": 27445, "source": {"name": "WorldCat", "slug": "worldcat"}, "source_identifier": "lccn-no98114749"}], "date_modified": "2023-09-05T17:56:47.651375+10:00"}, {"id": 34038, "name": "Andrew Dominik", "roles_in_work": [{"id": 2136872, "title": "Chopper [DVD] (D)", "work_id": 92492, "role": "director", "role_id": 938, "is_primary": true}], "also_known_as": "", "date_of_birth": "1967-10-07", "date_of_death": "", "genders": [{"id": 9, "name": "Male", "slug": "male"}], "languages": [{"id": 1, "name": "English", "slug": "english"}], "places_of_operation": [{"id": 3, "name": "Australia", "slug": "australia"}], "biography": "Andrew Dominik (born 7 October 1967) is an Australian film director and screenwriter. He has directed the crime film Chopper (2000), the Western drama film The Assassination of Jesse James by the Coward Robert Ford (2007), the neo-noir crime film Killing Them Softly (2012), and the biographical psychological drama Blonde (2022). He has also directed the documentary film One More Time with Feeling (2016) and two episodes of the Netflix series Mindhunter in 2019.", "biography_author": "Wikidata", "date_of_biography": "2023-08-01T14:01:55.530674+10:00", "external_links": [{"id": 3548, "uri": "https://en.wikipedia.org/wiki/Andrew_Dominik"}], "uuid": "873a554f-e854-43fa-8582-d9b0d60319f4", "source": {"name": "Vernon", "slug": "vernon"}, "source_identifier": "15154", "external_references": [{"id": 24927, "source": {"name": "Wikidata", "slug": "wikidata"}, "source_identifier": "Q504503"}, {"id": 27246, "source": {"name": "VIAF", "slug": "viaf"}, "source_identifier": "84279706"}, {"id": 27247, "source": {"name": "LOC Auth", "slug": "loc-auth"}, "source_identifier": "n2001155182"}, {"id": 27248, "source": {"name": "WorldCat", "slug": "worldcat"}, "source_identifier": "lccn-n2001155182"}], "date_modified": "2023-09-05T17:35:18.880053+10:00"}, {"id": 33916, "name": "Hiram S. Brown Jr", "roles_in_work": [{"id": 2157209, "title": "Jungle girl. Vol. 01", "work_id": 92430, "role": "producer", "role_id": 1089, "is_primary": true}, {"id": 2157219, "title": "Jungle girl. Vol. 02", "work_id": 92431, "role": "producer", "role_id": 1089, "is_primary": true}], "also_known_as": "", "date_of_birth": "", "date_of_death": "", "genders": [], "languages": [], "places_of_operation": [], "biography": "", "biography_author": null, "date_of_biography": "2023-05-09T14:08:07.114980+10:00", "external_links": [], "uuid": "cc4dbd46-c677-417b-a888-863a67e5953f", "source": {"name": "Vernon", "slug": "vernon"}, "source_identifier": "20568", "external_references": [{"id": 39236, "source": {"name": "Wikidata", "slug": "wikidata"}, "source_identifier": "Q121091103"}], "date_modified": "2023-09-05T20:39:37.716512+10:00"}, {"id": 33880, "name": "Sogetel", "roles_in_work": [{"id": 1995956, "title": "The Red squirrel = La Ardilla roja [Widescreen]", "work_id": 92410, "role": "production company", "role_id": 941, "is_primary": true}, {"id": 2195964, "title": "Perdita Durango", "work_id": 93665, "role": "production company", "role_id": 941, "is_primary": true}], "also_known_as": "", "date_of_birth": "", "date_of_death": "", "genders": [], "languages": [], "places_of_operation": [], "biography": "", "biography_author": null, "date_of_biography": "2023-05-09T15:16:49.498691+10:00", "external_links": [], "uuid": "74777a48-3b2f-4685-9f53-fce752da1a53", "source": {"name": "Vernon", "slug": "vernon"}, "source_identifier": "12717", "external_references": [], "date_modified": "2023-06-14T16:33:30.576250+10:00"}, {"id": 33878, "name": "Michael Davie", "roles_in_work": [{"id": 2082850, "title": "Afrika: Cape Town to Cairo", "work_id": 92409, "role": "director", "role_id": 938, "is_primary": true}], "also_known_as": "", "date_of_birth": "", "date_of_death": "", "genders": [], "languages": [], "places_of_operation": [], "biography": "", "biography_author": null, "date_of_biography": "2023-05-09T11:52:14.119535+10:00", "external_links": [], "uuid": "03760b12-154e-435b-81ed-cabf47665011", "source": {"name": "Vernon", "slug": "vernon"}, "source_identifier": "25041", "external_references": [{"id": 37260, "source": {"name": "Wikidata", "slug": "wikidata"}, "source_identifier": "Q121058017"}], "date_modified": "2023-09-05T23:03:43.409261+10:00"}, {"id": 33874, "name": "Firelight Productions", "roles_in_work": [{"id": 2082844, "title": "Afrika: Cape Town to Cairo", "work_id": 92409, "role": "production company", "role_id": 941, "is_primary": true}], "also_known_as": "", "date_of_birth": "", "date_of_death": "", "genders": [], "languages": [], "places_of_operation": [], "biography": "", "biography_author": null, "date_of_biography": "2023-05-09T11:52:13.347803+10:00", "external_links": [], "uuid": "d46f004d-3fad-45d3-9369-7231529effa1", "source": {"name": "Vernon", "slug": "vernon"}, "source_identifier": "8360", "external_references": [{"id": 37053, "source": {"name": "Wikidata", "slug": "wikidata"}, "source_identifier": "Q121034980"}], "date_modified": "2023-09-05T19:44:09.298524+10:00"}, {"id": 33871, "name": "Chris Gormlie", "roles_in_work": [{"id": 1848164, "title": "Genius: Charles Darwin", "work_id": 92406, "role": "director", "role_id": 938, "is_primary": true}, {"id": 2066973, "title": "A Critical guide to the metaphysical poets", "work_id": 94492, "role": "director", "role_id": 938, "is_primary": true}, {"id": 1848169, "title": "Genius: Leonardo Da Vinci", "work_id": 92407, "role": "director", "role_id": 938, "is_primary": true}], "also_known_as": "", "date_of_birth": "", "date_of_death": "", "genders": [], "languages": [], "places_of_operation": [], "biography": "", "biography_author": null, "date_of_biography": "2023-05-09T11:24:52.562844+10:00", "external_links": [], "uuid": "ed7b3565-c6ff-421d-8b54-ee9fa527bfb0", "source": {"name": "Vernon", "slug": "vernon"}, "source_identifier": "16826", "external_references": [{"id": 34650, "source": {"name": "Wikidata", "slug": "wikidata"}, "source_identifier": "Q121144012"}], "date_modified": "2023-09-05T18:31:54.915818+10:00"}]}