{"count": 28687, "next": "https://api.acmi.net.au/creators/?page=1952", "previous": "https://api.acmi.net.au/creators/?page=1950", "results": [{"id": 23516, "name": "Alfred E. Green", "roles_in_work": [{"id": 2357383, "title": "The Jolson Story", "work_id": 81262, "role": "director", "role_id": 938, "is_primary": true}], "also_known_as": "Alfred Edward Green", "date_of_birth": "1889-07-11", "date_of_death": "1960-09-04", "genders": [{"id": 9, "name": "Male", "slug": "male"}], "languages": [{"id": 1, "name": "English", "slug": "english"}], "places_of_operation": [{"id": 1, "name": "United States of America", "slug": "united-states-of-america"}], "biography": "Alfred Edward Green (July 11, 1889 – September 4, 1960) was an American film director. Green entered film in 1912 as an actor for the Selig Polyscope Company. He became an assistant to director Colin Campbell. He then started to direct two-reelers until he started features in 1917.", "biography_author": "Wikidata", "date_of_biography": "2022-05-19T10:45:47.384894+10:00", "external_links": [{"id": 1606, "uri": "https://en.wikipedia.org/wiki/Alfred_E._Green"}], "uuid": "25fe7658-d59d-43de-9154-a4e92427603b", "source": {"name": "Vernon", "slug": "vernon"}, "source_identifier": "14952", "external_references": [{"id": 7027, "source": {"name": "Wikidata", "slug": "wikidata"}, "source_identifier": "Q120541"}, {"id": 7028, "source": {"name": "VIAF", "slug": "viaf"}, "source_identifier": "56873561"}, {"id": 7029, "source": {"name": "LOC Auth", "slug": "loc-auth"}, "source_identifier": "n88051180"}, {"id": 7030, "source": {"name": "WorldCat", "slug": "worldcat"}, "source_identifier": "lccn-n88051180"}], "date_modified": "2023-09-13T12:28:07.126794+10:00"}, {"id": 23515, "name": "Sidney Skolsky", "roles_in_work": [{"id": 2357381, "title": "The Jolson Story", "work_id": 81262, "role": "producer", "role_id": 1089, "is_primary": true}], "also_known_as": "", "date_of_birth": "1905-05-02", "date_of_death": "1983-05-03", "genders": [{"id": 9, "name": "Male", "slug": "male"}], "languages": [{"id": 1, "name": "English", "slug": "english"}], "places_of_operation": [{"id": 1, "name": "United States of America", "slug": "united-states-of-america"}], "biography": "Sidney Skolsky (2 May 1905 – 3 May 1983) was an American writer best known as a Hollywood gossip columnist. He ranked with Hedda Hopper (with whom he shared a birthday) and Louella Parsons as the premier Hollywood gossip columnists of the first three decades of the sound picture era. A radio personality in addition to having his own syndicated newspaper column, Skolsky also was a screenwriter and movie producer who occasionally acted in the radio and in the movies. Skolsky claimed to be the person who gave the nickname \"Oscar\" to the Academy Award and was credited for the introduction of the use of the word beefcake.", "biography_author": "Wikidata", "date_of_biography": "2022-05-19T13:05:58.657926+10:00", "external_links": [{"id": 3109, "uri": "https://en.wikipedia.org/wiki/Sidney_Skolsky"}], "uuid": "2f049abc-02d1-4cce-a653-0a40ff71ae78", "source": {"name": "Vernon", "slug": "vernon"}, "source_identifier": "28820", "external_references": [{"id": 13192, "source": {"name": "Wikidata", "slug": "wikidata"}, "source_identifier": "Q3960172"}, {"id": 13193, "source": {"name": "VIAF", "slug": "viaf"}, "source_identifier": "66032173"}, {"id": 13194, "source": {"name": "LOC Auth", "slug": "loc-auth"}, "source_identifier": "no91006817"}, {"id": 13195, "source": {"name": "WorldCat", "slug": "worldcat"}, "source_identifier": "lccn-no91006817"}], "date_modified": "2023-09-13T12:32:45.576254+10:00"}, {"id": 23513, "name": "John Frankenheimer", "roles_in_work": [{"id": 2116913, "title": "Birdman of Alcatraz", "work_id": 85196, "role": "director", "role_id": 938, "is_primary": true}, {"id": 2095670, "title": "Andersonville", "work_id": 88449, "role": "director", "role_id": 938, "is_primary": true}, {"id": 2254986, "title": "Ronin [DVD]", "work_id": 93607, "role": "director", "role_id": 938, "is_primary": true}, {"id": 1994594, "title": "Seven Days in May", "work_id": 90464, "role": "director", "role_id": 938, "is_primary": true}, {"id": 1992925, "title": "Grand prix", "work_id": 88465, "role": "director", "role_id": 938, "is_primary": true}, {"id": 3086678, "title": "Eugene O'Neill's: The Iceman cometh", "work_id": 95095, "role": "director", "role_id": 938, "is_primary": true}, {"id": 1985399, "title": "The Manchurian Candidate", "work_id": 81257, "role": "director", "role_id": 938, "is_primary": true}, {"id": 884837, "title": "The Island of Dr Moreau", "work_id": 95043, "role": "director", "role_id": 938, "is_primary": true}], "also_known_as": "", "date_of_birth": "1930-02-19", "date_of_death": "2002-07-06", "genders": [{"id": 9, "name": "Male", "slug": "male"}], "languages": [{"id": 1, "name": "English", "slug": "english"}], "places_of_operation": [{"id": 1, "name": "United States of America", "slug": "united-states-of-america"}], "biography": "John Michael Frankenheimer (February 19, 1930 – July 6, 2002) was an American film and television director known for social dramas and action/suspense films. Among his credits were Birdman of Alcatraz (1962), The Manchurian Candidate (1962), Seven Days in May (1964), The Train (1964), Seconds (1966), Grand Prix (1966), French Connection II (1975), Black Sunday (1977), The Island of Dr. Moreau (1996), Ronin (1998) and Reindeer Games (2000).\nHe won four Emmy Awards—three consecutive—in the 1990s for directing the television movies Against the Wall, The Burning Season, Andersonville, and George Wallace, the last of which also received a Golden Globe Award for Best Miniseries or Television Film.\nFrankenheimer's 30 feature films and over 50 plays for television were notable for their influence on contemporary thought. He became a pioneer of the \"modern-day political thriller\", having begun his career at the height of the Cold War.He was technically highly accomplished from his days in live television; many of his films were noted for creating \"psychological dilemmas\" for his male protagonists along with having a strong \"sense of environment,\" similar in style to films by director Sidney Lumet, for whom he had earlier worked as assistant director. He developed a \"tremendous propensity for exploring political situations\" which would ensnare his characters.Movie critic Leonard Maltin writes that \"in his time [1960s]... Frankenheimer worked with the top writers, producers and actors in a series of films that dealt with issues that were just on top of the moment—things that were facing us all.\"", "biography_author": "Wikidata", "date_of_biography": "2022-05-19T12:01:34.825836+10:00", "external_links": [{"id": 2419, "uri": "https://en.wikipedia.org/wiki/John_Frankenheimer"}], "uuid": "7a078520-e74c-47da-8d45-e55015561254", "source": {"name": "Vernon", "slug": "vernon"}, "source_identifier": "22264", "external_references": [{"id": 10352, "source": {"name": "Wikidata", "slug": "wikidata"}, "source_identifier": "Q262820"}, {"id": 10353, "source": {"name": "VIAF", "slug": "viaf"}, "source_identifier": "117354"}, {"id": 10354, "source": {"name": "LOC Auth", "slug": "loc-auth"}, "source_identifier": "n86143617"}, {"id": 10355, "source": {"name": "WorldCat", "slug": "worldcat"}, "source_identifier": "lccn-n86143617"}], "date_modified": "2025-03-17T10:45:26.616305+11:00"}, {"id": 23510, "name": "Michael Radford", "roles_in_work": [{"id": 2161709, "title": "Nineteen Eighty-Four", "work_id": 81256, "role": "director", "role_id": 938, "is_primary": true}, {"id": 2475722, "title": "The Postman = Il Postino", "work_id": 89776, "role": "director", "role_id": 938, "is_primary": true}], "also_known_as": "", "date_of_birth": "1946-02-24", "date_of_death": "", "genders": [{"id": 9, "name": "Male", "slug": "male"}], "languages": [{"id": 1, "name": "English", "slug": "english"}], "places_of_operation": [{"id": 10, "name": "United Kingdom", "slug": "united-kingdom"}], "biography": "Michael James Radford (born 24 February 1946) is an English film director and screenwriter. He began his career as a documentary director and television comedy writer before transitioning into features in the early 1980s. His best-known credits include the 1984 film adaptation of George Orwell's Nineteen Eighty-Four starring John Hurt and Richard Burton (in his final role), the Shakespeare adaptation The Merchant of Venice, the true crime drama White Mischief, and the 1994 Italian-language comedy drama Il Postino: The Postman, for which he won the BAFTA Awards for Best Direction and Best Film Not in the English Language, and earned Academy Award nominations for Best Director and Best Adapted Screenplay.", "biography_author": "Wikidata", "date_of_biography": "2023-09-05T23:08:10.470210+10:00", "external_links": [{"id": 4703, "uri": "https://en.wikipedia.org/wiki/Michael_Radford"}], "uuid": "818a380d-6342-4d4d-a63a-5075349d25b9", "source": {"name": "Vernon", "slug": "vernon"}, "source_identifier": "25198", "external_references": [{"id": 26782, "source": {"name": "Wikidata", "slug": "wikidata"}, "source_identifier": "Q470601"}, {"id": 30339, "source": {"name": "VIAF", "slug": "viaf"}, "source_identifier": "79171658"}, {"id": 30340, "source": {"name": "LOC Auth", "slug": "loc-auth"}, "source_identifier": "n96066971"}, {"id": 30341, "source": {"name": "WorldCat", "slug": "worldcat"}, "source_identifier": "lccn-n96066971"}], "date_modified": "2023-09-05T23:08:12.525411+10:00"}, {"id": 23509, "name": "Simon Perry", "roles_in_work": [{"id": 2161707, "title": "Nineteen Eighty-Four", "work_id": 81256, "role": "producer", "role_id": 1089, "is_primary": true}], "also_known_as": "", "date_of_birth": "", "date_of_death": "", "genders": [], "languages": [], "places_of_operation": [], "biography": "", "biography_author": null, "date_of_biography": "2023-05-09T14:16:47.520521+10:00", "external_links": [], "uuid": "9e9d9df2-29fb-4c54-901a-463f1fb6e45c", "source": {"name": "Vernon", "slug": "vernon"}, "source_identifier": "28853", "external_references": [{"id": 43181, "source": {"name": "Wikidata", "slug": "wikidata"}, "source_identifier": "Q121079582"}], "date_modified": "2023-09-06T01:20:26.032820+10:00"}, {"id": 23508, "name": "Virgin", "roles_in_work": [{"id": 2161705, "title": "Nineteen Eighty-Four", "work_id": 81256, "role": "production company", "role_id": 941, "is_primary": true}, {"id": 2788975, "title": "The Golden years of surf collection", "work_id": 115373, "role": "production company", "role_id": 941, "is_primary": true}], "also_known_as": "", "date_of_birth": "", "date_of_death": "", "genders": [], "languages": [], "places_of_operation": [], "biography": "", "biography_author": null, "date_of_biography": "2023-05-09T19:57:29.801152+10:00", "external_links": [], "uuid": "28ad4f6d-ccd6-423b-bd71-a4f4e0817947", "source": {"name": "Vernon", "slug": "vernon"}, "source_identifier": "14150", "external_references": [{"id": 41738, "source": {"name": "Wikidata", "slug": "wikidata"}, "source_identifier": "Q121079554"}], "date_modified": "2025-03-14T19:48:02.233183+11:00"}, {"id": 23507, "name": "Rosenblum Productions", "roles_in_work": [{"id": 2161703, "title": "Nineteen Eighty-Four", "work_id": 81256, "role": "production company", "role_id": 941, "is_primary": true}], "also_known_as": "", "date_of_birth": "", "date_of_death": "", "genders": [], "languages": [], "places_of_operation": [], "biography": "", "biography_author": null, "date_of_biography": "2023-05-09T14:16:47.048915+10:00", "external_links": [], "uuid": "a9841446-cd69-424a-9582-9ca69c062be7", "source": {"name": "Vernon", "slug": "vernon"}, "source_identifier": "12123", "external_references": [{"id": 43435, "source": {"name": "Wikidata", "slug": "wikidata"}, "source_identifier": "Q121126590"}], "date_modified": "2023-09-06T00:56:12.348279+10:00"}, {"id": 23506, "name": "Umbrella Entertainment", "roles_in_work": [{"id": 2205614, "title": "Picnic at Hanging Rock (Director's cut) [DVD]", "work_id": 95627, "role": "distributor", "role_id": 437, "is_primary": false}, {"id": 2266647, "title": "We of the never never [DVD]", "work_id": 95621, "role": "distributor", "role_id": 437, "is_primary": false}, {"id": 2350525, "title": "The Getting of Wisdom [DVD]", "work_id": 95622, "role": "distributor", "role_id": 437, "is_primary": false}, {"id": 2162682, "title": "Jabberwocky", "work_id": 83806, "role": "production company", "role_id": 941, "is_primary": true}, {"id": 1996984, "title": "Rita, Sue and Bob too", "work_id": 93059, "role": "production company", "role_id": 941, "is_primary": true}, {"id": 2161702, "title": "Nineteen Eighty-Four", "work_id": 81256, "role": "production company", "role_id": 941, "is_primary": true}], "also_known_as": "", "date_of_birth": "", "date_of_death": "", "genders": [], "languages": [], "places_of_operation": [], "biography": "Umbrella Entertainment is an Australian film distribution company that began operating in 2001. It is based in Kew, Victoria.\nUmbrella Entertainment manages the theatrical, physical, and digital releases of Australian films, documentaries and arthouse indie films. Umbrella Entertainment has amassed a catalogue of over 1,500 titles, including a large collection of remastered classic Australian films and TV programs on physical media.Umbrella Entertainment's commercial library consists mostly of Australian and Ozploitation films. The company has a history of regularly restoring genre classics such as Razorback, Frog Dreaming, The Man From Hong Kong, and Mad Dog Morgan. In addition to Australian films, Umbrella Entertainment exhibits rare and classic cult films in Australia and New Zealand. Notable examples include the restoration of the 1990 remake of Night of the Living Dead and Night of the Creeps. All restorations are scanned in either 4K and 2K from original film materials.", "biography_author": "Wikidata", "date_of_biography": "2023-08-01T17:22:17.985426+10:00", "external_links": [{"id": 5306, "uri": "https://en.wikipedia.org/wiki/Umbrella_Entertainment"}], "uuid": "d70b7bc9-fc4a-4d29-9e4b-524730cc2045", "source": {"name": "Vernon", "slug": "vernon"}, "source_identifier": "13831", "external_references": [{"id": 25530, "source": {"name": "Wikidata", "slug": "wikidata"}, "source_identifier": "Q7881396"}], "date_modified": "2023-09-06T02:00:49.896498+10:00"}, {"id": 23504, "name": "Philippe de Montignie", "roles_in_work": [{"id": 2649278, "title": "Rembetika: The Blues of Greece", "work_id": 81254, "role": "director", "role_id": 938, "is_primary": true}, {"id": 2270723, "title": "You Just Don't Realise", "work_id": 75594, "role": "anchor/host", "role_id": 629, "is_primary": false}, {"id": 2649277, "title": "Rembetika: The Blues of Greece", "work_id": 81254, "role": "co-producer", "role_id": 915, "is_primary": true}, {"id": 2615971, "title": "The Madigan Line", "work_id": 86497, "role": "producer", "role_id": 1089, "is_primary": true}, {"id": 2270720, "title": "You Just Don't Realise", "work_id": 75594, "role": "producer", "role_id": 1089, "is_primary": true}, {"id": 2270717, "title": "You Just Don't Realise", "work_id": 75594, "role": "writer", "role_id": 939, "is_primary": true}], "also_known_as": "", "date_of_birth": "", "date_of_death": "", "genders": [], "languages": [], "places_of_operation": [], "biography": "", "biography_author": null, "date_of_biography": "2023-05-09T17:44:47.851838+10:00", "external_links": [], "uuid": "e575cbf7-fd76-411b-bb4c-62883780f2d3", "source": {"name": "Vernon", "slug": "vernon"}, "source_identifier": "26855", "external_references": [{"id": 41344, "source": {"name": "Wikidata", "slug": "wikidata"}, "source_identifier": "Q121126363"}], "date_modified": "2025-03-05T13:58:04.474837+11:00"}, {"id": 23503, "name": "Video Images Australia", "roles_in_work": [{"id": 2649275, "title": "Rembetika: The Blues of Greece", "work_id": 81254, "role": "production company", "role_id": 941, "is_primary": true}], "also_known_as": "", "date_of_birth": "", "date_of_death": "", "genders": [], "languages": [], "places_of_operation": [], "biography": "", "biography_author": null, "date_of_biography": "2023-05-09T17:06:13.961889+10:00", "external_links": [], "uuid": "c77fb3b1-d473-4b0e-8307-6e590a600a22", "source": {"name": "Vernon", "slug": "vernon"}, "source_identifier": "14106", "external_references": [{"id": 43486, "source": {"name": "Wikidata", "slug": "wikidata"}, "source_identifier": "Q121126284"}], "date_modified": "2025-03-05T13:58:02.609334+11:00"}]}