{"count": 28681, "next": "https://api.acmi.net.au/creators/?page=579", "previous": "https://api.acmi.net.au/creators/?page=577", "results": [{"id": 79799, "name": "Renat Zinnurov", "roles_in_work": [{"id": 2177371, "title": "Operavox", "work_id": 92403, "role": "co-producer", "role_id": 915, "is_primary": true}], "also_known_as": "", "date_of_birth": "", "date_of_death": "", "genders": [], "languages": [], "places_of_operation": [], "biography": "", "biography_author": null, "date_of_biography": "2023-05-09T14:47:21.663040+10:00", "external_links": [], "uuid": "95b4f3c6-12bb-411d-8eda-b95355bf3d0d", "source": {"name": "Vernon", "slug": "vernon"}, "source_identifier": "27247", "external_references": [{"id": 35939, "source": {"name": "Wikidata", "slug": "wikidata"}, "source_identifier": "Q121091020"}], "date_modified": "2023-09-06T00:25:16.520003+10:00"}, {"id": 79798, "name": "Glenn C. Holberton", "roles_in_work": [{"id": 2177367, "title": "Operavox", "work_id": 92403, "role": "co-producer", "role_id": 915, "is_primary": true}], "also_known_as": "", "date_of_birth": "", "date_of_death": "", "genders": [], "languages": [], "places_of_operation": [], "biography": "", "biography_author": null, "date_of_biography": "2023-05-09T14:47:21.405465+10:00", "external_links": [], "uuid": "9025a18a-84c6-4bad-bb17-b193340b08e2", "source": {"name": "Vernon", "slug": "vernon"}, "source_identifier": "19894", "external_references": [{"id": 39453, "source": {"name": "Wikidata", "slug": "wikidata"}, "source_identifier": "Q121271486"}], "date_modified": "2023-09-05T20:15:07.806866+10:00"}, {"id": 79797, "name": "Greg Appel", "roles_in_work": [{"id": 3087091, "title": "Love is in the air. Ep. 3", "work_id": 95004, "role": "co-producer", "role_id": 915, "is_primary": true}, {"id": 1820131, "title": "Long way to the top: stories of Australian rock & roll", "work_id": 92404, "role": "producer", "role_id": 1089, "is_primary": true}, {"id": 1820129, "title": "Long way to the top: stories of Australian rock & roll", "work_id": 92402, "role": "producer", "role_id": 1089, "is_primary": true}], "also_known_as": "", "date_of_birth": null, "date_of_death": null, "genders": [], "languages": [], "places_of_operation": [], "biography": "", "biography_author": null, "date_of_biography": null, "external_links": [], "uuid": "a462f939-0e52-4d02-8a8e-6c123074e0fe", "source": {"name": "Vernon", "slug": "vernon"}, "source_identifier": null, "external_references": [{"id": 41190, "source": {"name": "Wikidata", "slug": "wikidata"}, "source_identifier": "Q121337215"}], "date_modified": "2023-09-05T20:21:14.888724+10:00"}, {"id": 79796, "name": "Bertha Navarro", "roles_in_work": [{"id": 2148061, "title": "Cronos = La Invencion de Cronos [Widescreen]", "work_id": 92396, "role": "co-producer", "role_id": 915, "is_primary": true}], "also_known_as": "", "date_of_birth": "", "date_of_death": "", "genders": [], "languages": [], "places_of_operation": [], "biography": "", "biography_author": null, "date_of_biography": "2023-05-09T13:48:40.570010+10:00", "external_links": [], "uuid": "4c19ce18-db0a-4963-90dc-5080d80a67cf", "source": {"name": "Vernon", "slug": "vernon"}, "source_identifier": "15884", "external_references": [{"id": 39009, "source": {"name": "Wikidata", "slug": "wikidata"}, "source_identifier": "Q121036210"}], "date_modified": "2023-09-05T18:00:18.718568+10:00"}, {"id": 79795, "name": "Arthur H Gorson", "roles_in_work": [{"id": 2148055, "title": "Cronos = La Invencion de Cronos [Widescreen]", "work_id": 92396, "role": "co-producer", "role_id": 915, "is_primary": true}], "also_known_as": "", "date_of_birth": null, "date_of_death": "", "genders": [{"id": 9, "name": "Male", "slug": "male"}], "languages": [], "places_of_operation": [{"id": 1, "name": "United States of America", "slug": "united-states-of-america"}], "biography": "Arthur Gorson, also known as Arthur H. Gorson, is an American film producer. He also has experience as a cinematographer, screenwriter, cameraman and record producer. He is currently (2021) active in TV, film and commercial production. As a record producer, he produced over 20 albums for major labels with artists such as Golden Earring, Phil Ochs and Tom Rush. His photographic work with artists such as Bob Marley is widely published. A series of his photos were included in the authorized documentary Marley directed by Kevin Mcdonald (The Last King of Scotland).", "biography_author": "Wikidata", "date_of_biography": "2023-08-01T14:06:46.314750+10:00", "external_links": [{"id": 1683, "uri": "https://en.wikipedia.org/wiki/Arthur_Gorson"}], "uuid": "10286c14-8199-4b25-97cc-0bebe9919d00", "source": {"name": "Vernon", "slug": "vernon"}, "source_identifier": "15534", "external_references": [{"id": 7341, "source": {"name": "Wikidata", "slug": "wikidata"}, "source_identifier": "Q4798861"}, {"id": 7342, "source": {"name": "VIAF", "slug": "viaf"}, "source_identifier": "14594445"}, {"id": 7343, "source": {"name": "LOC Auth", "slug": "loc-auth"}, "source_identifier": "no2008142038"}, {"id": 7344, "source": {"name": "WorldCat", "slug": "worldcat"}, "source_identifier": "lccn-no2008142038"}], "date_modified": "2023-09-05T17:46:46.485342+10:00"}, {"id": 79794, "name": "Kurt Voss", "roles_in_work": [{"id": 2316507, "title": "Sugar Town", "work_id": 92394, "role": "co-director", "role_id": 959, "is_primary": true}], "also_known_as": "", "date_of_birth": "1963-09-15", "date_of_death": "", "genders": [{"id": 9, "name": "Male", "slug": "male"}], "languages": [{"id": 1, "name": "English", "slug": "english"}], "places_of_operation": [{"id": 1, "name": "United States of America", "slug": "united-states-of-america"}], "biography": "Kurt Voss (born Kurt Christopher Peter Wössner) is an American film director, screenwriter, and musician-songwriter. Voss's credits include Will Smith's debut Where The Day Takes You; the Justin Theroux, Alyssa Milano and Ice-T action film Below Utopia; actress Jaime Pressly's debut feature Poison Ivy: The New Seduction, and rock and roll related films including Down and Out with the Dolls and Ghost on The Highway: A Portrait of Jeffrey Lee Pierce and The Gun Club.Voss has frequently collaborated with fellow UCLA alumnus Allison Anders.  Working together over twenty-five years, the duo created a trilogy of rock films:  Border Radio (1987), a portrait of the L.A. punk scene featuring John Doe (X) and Dave Alvin (The Blasters) and published by The Criterion Collection; the Sundance-premiered Sugar Town (1999), featuring John Taylor (Duran Duran) and Rosanna Arquette; and Strutter (2012), a Kickstarter-financed independent film.\n\n", "biography_author": "Wikidata", "date_of_biography": "2023-08-01T15:51:55.689926+10:00", "external_links": [{"id": 2540, "uri": "https://en.wikipedia.org/wiki/Kurt_Voss"}], "uuid": "702a6bfe-bd7a-4ca5-bbf1-c5263528e16f", "source": {"name": "Vernon", "slug": "vernon"}, "source_identifier": "23424", "external_references": [{"id": 10856, "source": {"name": "Wikidata", "slug": "wikidata"}, "source_identifier": "Q1120919"}, {"id": 10857, "source": {"name": "VIAF", "slug": "viaf"}, "source_identifier": "103265586"}, {"id": 10858, "source": {"name": "LOC Auth", "slug": "loc-auth"}, "source_identifier": "no2003049135"}, {"id": 10859, "source": {"name": "WorldCat", "slug": "worldcat"}, "source_identifier": "lccn-no2003049135"}], "date_modified": "2023-09-05T22:12:43.839964+10:00"}, {"id": 79793, "name": "Enrique Lopez Lavigne", "roles_in_work": [{"id": 2294065, "title": "Sex and Lucia = Lucia y el sexo", "work_id": 95040, "role": "co-producer", "role_id": 915, "is_primary": true}, {"id": 911696, "title": "Los Amantes del Circulo Polar = Lovers of the arctic circle", "work_id": 92391, "role": "co-producer", "role_id": 915, "is_primary": true}], "also_known_as": "", "date_of_birth": "1901-01-01", "date_of_death": "", "genders": [{"id": 9, "name": "Male", "slug": "male"}], "languages": [{"id": 10, "name": "Spanish", "slug": "spanish"}], "places_of_operation": [{"id": 14, "name": "Spain", "slug": "spain"}], "biography": "Enrique López Lavigne (born 1967) is a film producer with an extensive work in Spanish cinema. He is a founder of Apache Films and Apaches Entertainment as well as El Estudio.", "biography_author": "Wikidata", "date_of_biography": "2023-09-05T19:33:22.298910+10:00", "external_links": [{"id": 5801, "uri": "https://en.wikipedia.org/wiki/Enrique_L%C3%B3pez_Lavigne"}], "uuid": "af940b93-74fd-4ae7-b77d-e595d1aeda60", "source": {"name": "Vernon", "slug": "vernon"}, "source_identifier": "18785", "external_references": [{"id": 40534, "source": {"name": "Wikidata", "slug": "wikidata"}, "source_identifier": "Q36849747"}], "date_modified": "2023-09-05T19:33:28.540439+10:00"}, {"id": 79792, "name": "Fernando Bovaira", "roles_in_work": [{"id": 2177180, "title": "Open your eyes = Abre los ojos", "work_id": 93243, "role": "co-producer", "role_id": 915, "is_primary": true}, {"id": 911695, "title": "Los Amantes del Circulo Polar = Lovers of the arctic circle", "work_id": 92391, "role": "co-producer", "role_id": 915, "is_primary": true}, {"id": 2294061, "title": "Sex and Lucia = Lucia y el sexo", "work_id": 95040, "role": "co-producer", "role_id": 915, "is_primary": true}], "also_known_as": "", "date_of_birth": "", "date_of_death": "", "genders": [{"id": 9, "name": "Male", "slug": "male"}], "languages": [], "places_of_operation": [], "biography": "", "biography_author": null, "date_of_biography": "2023-05-09T18:24:20.785322+10:00", "external_links": [], "uuid": "8f6e1a7c-3a7d-4b08-bd41-1392da69476c", "source": {"name": "Vernon", "slug": "vernon"}, "source_identifier": "18991", "external_references": [{"id": 38177, "source": {"name": "Wikidata", "slug": "wikidata"}, "source_identifier": "Q81556973"}], "date_modified": "2023-09-05T19:41:55.852682+10:00"}, {"id": 79791, "name": "Steve Mann", "roles_in_work": [{"id": 916425, "title": "The Saddle Club: adventures at Pine Hollow [DVD]", "work_id": 94830, "role": "co-director", "role_id": 959, "is_primary": true}, {"id": 929366, "title": "The Saddle Club: horse crazy", "work_id": 94862, "role": "co-director", "role_id": 959, "is_primary": true}, {"id": 911692, "title": "The Saddle Club", "work_id": 92389, "role": "co-director", "role_id": 959, "is_primary": true}], "also_known_as": "", "date_of_birth": null, "date_of_death": null, "genders": [], "languages": [], "places_of_operation": [], "biography": "", "biography_author": null, "date_of_biography": null, "external_links": [], "uuid": "c4b6e524-6886-4943-85f8-e05b8f4dc4a7", "source": {"name": "Vernon", "slug": "vernon"}, "source_identifier": null, "external_references": [{"id": 32940, "source": {"name": "Wikidata", "slug": "wikidata"}, "source_identifier": "Q121079512"}], "date_modified": "2023-09-06T01:31:24.573339+10:00"}, {"id": 79790, "name": "Chris Martin-Jones", "roles_in_work": [{"id": 916424, "title": "The Saddle Club: adventures at Pine Hollow [DVD]", "work_id": 94830, "role": "co-director", "role_id": 959, "is_primary": true}, {"id": 911691, "title": "The Saddle Club", "work_id": 92389, "role": "co-director", "role_id": 959, "is_primary": true}, {"id": 929365, "title": "The Saddle Club: horse crazy", "work_id": 94862, "role": "co-director", "role_id": 959, "is_primary": true}], "also_known_as": "", "date_of_birth": null, "date_of_death": null, "genders": [], "languages": [], "places_of_operation": [], "biography": "", "biography_author": null, "date_of_biography": null, "external_links": [], "uuid": "b041f4f9-65ae-49bd-a904-1edeaa857a4c", "source": {"name": "Vernon", "slug": "vernon"}, "source_identifier": null, "external_references": [{"id": 36294, "source": {"name": "Wikidata", "slug": "wikidata"}, "source_identifier": "Q121315428"}], "date_modified": "2023-09-05T18:32:32.786207+10:00"}]}