{"count": 28687, "next": "https://api.acmi.net.au/creators/?page=396", "previous": "https://api.acmi.net.au/creators/?page=394", "results": [{"id": 81633, "name": "Tom McBride", "roles_in_work": [{"id": 919150, "title": "Walking in a sacred manner: North American indians and the natural world", "work_id": 98205, "role": "co-director", "role_id": 959, "is_primary": true}], "also_known_as": "", "date_of_birth": null, "date_of_death": null, "genders": [], "languages": [], "places_of_operation": [], "biography": "", "biography_author": null, "date_of_biography": null, "external_links": [], "uuid": "9cdd6dee-ca81-4b49-a94c-583493a5e16a", "source": {"name": "Vernon", "slug": "vernon"}, "source_identifier": null, "external_references": [{"id": 32473, "source": {"name": "Wikidata", "slug": "wikidata"}, "source_identifier": "Q121315495"}], "date_modified": "2023-09-06T01:54:04.132209+10:00"}, {"id": 81632, "name": "Derek Waterman", "roles_in_work": [{"id": 919149, "title": "Walking in a sacred manner: North American indians and the natural world", "work_id": 98205, "role": "co-director", "role_id": 959, "is_primary": true}], "also_known_as": "", "date_of_birth": null, "date_of_death": null, "genders": [], "languages": [], "places_of_operation": [], "biography": "", "biography_author": null, "date_of_biography": null, "external_links": [], "uuid": "8815118a-4372-4fbf-b1da-5a5f7ac2efd5", "source": {"name": "Vernon", "slug": "vernon"}, "source_identifier": null, "external_references": [{"id": 40609, "source": {"name": "Wikidata", "slug": "wikidata"}, "source_identifier": "Q121222544"}], "date_modified": "2023-09-05T19:10:13.235426+10:00"}, {"id": 81631, "name": "Mark Irwin", "roles_in_work": [{"id": 2752162, "title": "Young and just beginning: Pierre", "work_id": 98172, "role": "co-producers/directors", "role_id": 628, "is_primary": true}], "also_known_as": "", "date_of_birth": "", "date_of_death": "", "genders": [], "languages": [], "places_of_operation": [], "biography": "", "biography_author": null, "date_of_biography": "2023-05-09T17:51:42.811611+10:00", "external_links": [], "uuid": "aa35641b-4cd4-4f27-9b12-6f900012f1eb", "source": {"name": "Vernon", "slug": "vernon"}, "source_identifier": "24502", "external_references": [], "date_modified": "2025-03-13T01:00:13.810590+11:00"}, {"id": 81630, "name": "Ruth Hope", "roles_in_work": [{"id": 2752161, "title": "Young and just beginning: Pierre", "work_id": 98172, "role": "co-producers/directors", "role_id": 628, "is_primary": true}], "also_known_as": "", "date_of_birth": "", "date_of_death": "", "genders": [], "languages": [], "places_of_operation": [], "biography": "", "biography_author": null, "date_of_biography": "2023-05-09T17:51:42.566764+10:00", "external_links": [], "uuid": "cbf3b5e0-59df-4490-95ce-34f62f09d3ab", "source": {"name": "Vernon", "slug": "vernon"}, "source_identifier": "28382", "external_references": [], "date_modified": "2025-03-13T01:00:13.210398+11:00"}, {"id": 81629, "name": "Dave Ellis", "roles_in_work": [{"id": 2752160, "title": "'Estampa flamenca'", "work_id": 98171, "role": "producer/director", "role_id": 31, "is_primary": true}], "also_known_as": "", "date_of_birth": "", "date_of_death": "", "genders": [], "languages": [], "places_of_operation": [], "biography": "", "biography_author": null, "date_of_biography": "2023-05-09T09:54:18.857372+10:00", "external_links": [], "uuid": "bad3df2b-26ea-4f2a-8449-33c8c524294f", "source": {"name": "Vernon", "slug": "vernon"}, "source_identifier": "17463", "external_references": [{"id": 50747, "source": {"name": "Wikidata", "slug": "wikidata"}, "source_identifier": "Q121360647"}], "date_modified": "2025-03-13T01:00:12.371366+11:00"}, {"id": 81628, "name": "Peter Crass", "roles_in_work": [{"id": 2752158, "title": "You can't grow potatoes up there", "work_id": 98170, "role": "producer/director", "role_id": 31, "is_primary": true}], "also_known_as": "", "date_of_birth": "", "date_of_death": "", "genders": [], "languages": [], "places_of_operation": [], "biography": "", "biography_author": null, "date_of_biography": "2023-05-09T17:39:55.427109+10:00", "external_links": [], "uuid": "04db72bf-fed8-4f8c-8961-e8233f62cc4c", "source": {"name": "Vernon", "slug": "vernon"}, "source_identifier": "26508", "external_references": [{"id": 51013, "source": {"name": "Wikidata", "slug": "wikidata"}, "source_identifier": "Q121361300"}], "date_modified": "2025-03-13T01:00:10.882838+11:00"}, {"id": 81627, "name": "Douglas Sinclair", "roles_in_work": [{"id": 2752151, "title": "The World outdoors: flashing silver", "work_id": 98167, "role": "producer/director", "role_id": 31, "is_primary": true}], "also_known_as": "", "date_of_birth": "", "date_of_death": "", "genders": [], "languages": [], "places_of_operation": [], "biography": "", "biography_author": null, "date_of_biography": "2023-05-09T18:02:19.727088+10:00", "external_links": [], "uuid": "4669809f-8d0a-4cc5-a1fd-d92d3a724468", "source": {"name": "Vernon", "slug": "vernon"}, "source_identifier": "18411", "external_references": [{"id": 51456, "source": {"name": "Wikidata", "slug": "wikidata"}, "source_identifier": "Q121360855"}], "date_modified": "2025-03-13T01:00:05.836692+11:00"}, {"id": 81626, "name": "John Bartlett", "roles_in_work": [{"id": 2752122, "title": "Thomas Hardy: a man who noticed things", "work_id": 98151, "role": "producer/director", "role_id": 31, "is_primary": true}], "also_known_as": "", "date_of_birth": "", "date_of_death": "", "genders": [], "languages": [], "places_of_operation": [], "biography": "", "biography_author": null, "date_of_biography": "2023-08-14T11:49:36.231129+10:00", "external_links": [], "uuid": "729b0dc1-7311-4dd5-825e-0cde9075d12a", "source": {"name": "Vernon", "slug": "vernon"}, "source_identifier": "22119", "external_references": [{"id": 51950, "source": {"name": "Wikidata", "slug": "wikidata"}, "source_identifier": "Q121360882"}], "date_modified": "2025-03-13T00:57:31.183029+11:00"}, {"id": 81625, "name": "Karl Genus", "roles_in_work": [{"id": 2752083, "title": "The Legend of Mark Twain", "work_id": 98129, "role": "director", "role_id": 938, "is_primary": true}], "also_known_as": "", "date_of_birth": null, "date_of_death": null, "genders": [{"id": 9, "name": "Male", "slug": "male"}], "languages": [], "places_of_operation": [], "biography": "", "biography_author": null, "date_of_biography": null, "external_links": [], "uuid": "3437a9f0-4095-4679-a32d-19b114d8e85b", "source": {"name": "Vernon", "slug": "vernon"}, "source_identifier": "23021", "external_references": [{"id": 42577, "source": {"name": "Wikidata", "slug": "wikidata"}, "source_identifier": "Q121034887"}], "date_modified": "2025-03-13T00:57:03.206301+11:00"}, {"id": 81624, "name": "Mark Tarnawsky", "roles_in_work": [{"id": 2752077, "title": "One", "work_id": 98128, "role": "co-producer", "role_id": 915, "is_primary": true}], "also_known_as": "", "date_of_birth": "", "date_of_death": "", "genders": [], "languages": [], "places_of_operation": [], "biography": "", "biography_author": null, "date_of_biography": "2023-05-09T14:23:54.607336+10:00", "external_links": [], "uuid": "006dfe6e-045b-440c-82e1-8062f88d7064", "source": {"name": "Vernon", "slug": "vernon"}, "source_identifier": "24566", "external_references": [], "date_modified": "2025-03-13T00:56:59.162709+11:00"}]}