{"count": 28687, "next": "https://api.acmi.net.au/creators/?page=2367", "previous": "https://api.acmi.net.au/creators/?page=2365", "results": [{"id": 15616, "name": "D E F A Studio", "roles_in_work": [{"id": 2645089, "title": "Holiday experiences = Ferienerlebnisse", "work_id": 68514, "role": "production company", "role_id": 941, "is_primary": true}], "also_known_as": "", "date_of_birth": "", "date_of_death": "", "genders": [], "languages": [], "places_of_operation": [], "biography": "", "biography_author": null, "date_of_biography": "2023-08-11T17:27:05.656386+10:00", "external_links": [], "uuid": "b88b05af-db54-4a09-ba41-f8ad1ba3206e", "source": {"name": "Vernon", "slug": "vernon"}, "source_identifier": "7282", "external_references": [], "date_modified": "2025-03-05T12:32:06.487924+11:00"}, {"id": 15614, "name": "Harold Whitaker", "roles_in_work": [{"id": 2749569, "title": "Topology", "work_id": 96868, "role": "director", "role_id": 938, "is_primary": true}, {"id": 2767340, "title": "The Hoffnung symphony orchestra [B&W]", "work_id": 73486, "role": "director", "role_id": 938, "is_primary": true}, {"id": 2767360, "title": "The Hoffnung symphony orchestra", "work_id": 98305, "role": "director", "role_id": 938, "is_primary": true}, {"id": 2767325, "title": "The Hoffnung maestro", "work_id": 68511, "role": "co-director", "role_id": 959, "is_primary": true}], "also_known_as": "", "date_of_birth": "1920-06-05", "date_of_death": "2013-12-26", "genders": [{"id": 9, "name": "Male", "slug": "male"}], "languages": [{"id": 1, "name": "English", "slug": "english"}], "places_of_operation": [], "biography": "Harold Jackson Whitaker (5 June 1920 – 26 December 2013) was a British animator, whose credits included Animal Farm in 1954 and Heavy Metal in 1981. He first worked for Anson Dyer, before spending thirty years as an animator for Halas and Batchelor. He made a comic strip adaptation of Animal Farm in 1954.Whitaker was born on 5 June 1920 in Cottingham, East Yorkshire. He was raised in Manchester and studied drawing at Macclesfield art school.In 1981, Whitaker published a book, Timing for Animation. Timing for Animation was republished in 2002 to include an introduction written by John Lasseter, the President of Pixar Studios.Whitaker later worked as an animator and storyboard artist on several films such as The Magic Voyage, Stowaways on the Ark, The Twelve Tasks of Asterix, Doctor in the Sky, When the Wind Blows, Wilhelm Busch – Die Trickfilm-Parade: Max und Moritz und andere Streiche and the television series The Dreamstone and Poddington Peas.\nWhitaker died on 26 December 2013 at the age of 93.", "biography_author": "Wikidata", "date_of_biography": "2023-08-01T15:08:11.549210+10:00", "external_links": [{"id": 4134, "uri": "https://en.wikipedia.org/wiki/Harold_Whitaker"}], "uuid": "7d1be695-6c8c-4a3f-9193-797afcf5dac7", "source": {"name": "Vernon", "slug": "vernon"}, "source_identifier": "20288", "external_references": [{"id": 26376, "source": {"name": "Wikidata", "slug": "wikidata"}, "source_identifier": "Q15993647"}, {"id": 28846, "source": {"name": "VIAF", "slug": "viaf"}, "source_identifier": "75208761"}, {"id": 28847, "source": {"name": "LOC Auth", "slug": "loc-auth"}, "source_identifier": "n82153471"}, {"id": 28848, "source": {"name": "WorldCat", "slug": "worldcat"}, "source_identifier": "lccn-n82153471"}], "date_modified": "2025-03-14T18:03:38.652223+11:00"}, {"id": 15613, "name": "BBC Enterprises", "roles_in_work": [{"id": 1846903, "title": "More ripping yarns", "work_id": 83688, "role": "production company", "role_id": 941, "is_primary": true}, {"id": 2758557, "title": "Fibre and Frame (TEFC)", "work_id": 78535, "role": "production company", "role_id": 941, "is_primary": true}, {"id": 2614459, "title": "Blackadder II. - Parte the firste.", "work_id": 83695, "role": "production company", "role_id": 941, "is_primary": true}, {"id": 2614463, "title": "Tinker tailor soldier spy", "work_id": 83715, "role": "production company", "role_id": 941, "is_primary": true}, {"id": 2767319, "title": "The Hoffnung maestro", "work_id": 68511, "role": "production company", "role_id": 941, "is_primary": true}, {"id": 2767335, "title": "Professor Hoffnug's Yaya's memoirs", "work_id": 73485, "role": "production company", "role_id": 941, "is_primary": true}, {"id": 2787750, "title": "Catherine of Aragon", "work_id": 83638, "role": "production company", "role_id": 941, "is_primary": true}, {"id": 2787775, "title": "Anne Boleyn", "work_id": 83635, "role": "production company", "role_id": 941, "is_primary": true}, {"id": 2787869, "title": "The Six wives of Henry VIII", "work_id": 115345, "role": "production company", "role_id": 941, "is_primary": true}, {"id": 2773999, "title": "A Caribbean mystery", "work_id": 83925, "role": "production company", "role_id": 941, "is_primary": true}, {"id": 2118236, "title": "Blackadder goes forth. - Volume 2.", "work_id": 83696, "role": "production company", "role_id": 941, "is_primary": true}, {"id": 2118054, "title": "Blackadder goes forth. - Volume 1.", "work_id": 83697, "role": "production company", "role_id": 941, "is_primary": true}, {"id": 2758553, "title": "Woven hangings (TEFC)", "work_id": 78534, "role": "production company", "role_id": 941, "is_primary": true}, {"id": 2118151, "title": "Blackadder: The foretelling", "work_id": 80111, "role": "production company", "role_id": 941, "is_primary": true}, {"id": 2118123, "title": "Blackadder II. - Parte the seconde.", "work_id": 83693, "role": "production company", "role_id": 941, "is_primary": true}, {"id": 882546, "title": "Joyce Grenfell entertains: a selection from the works of Joyce Grenfell", "work_id": 93249, "role": "production company", "role_id": 941, "is_primary": true}, {"id": 2301951, "title": "Six English towns: a pattern of building. - Volume 1.", "work_id": 82359, "role": "production company", "role_id": 941, "is_primary": true}, {"id": 2301606, "title": "Six English towns: a pattern of building. - Volume 2.", "work_id": 82360, "role": "production company", "role_id": 941, "is_primary": true}, {"id": 2763871, "title": "A Proper little mother to them all", "work_id": 71917, "role": "production company", "role_id": 941, "is_primary": true}, {"id": 1913088, "title": "Pictures and words", "work_id": 71558, "role": "production company", "role_id": 941, "is_primary": true}, {"id": 2249813, "title": "Return to Evercreech Junction. All change at Evercreech Junction. The friendly line to Burnham.", "work_id": 83711, "role": "production company", "role_id": 941, "is_primary": true}, {"id": 2186038, "title": "Dennis Lillee", "work_id": 83698, "role": "production company", "role_id": 941, "is_primary": true}, {"id": 2186055, "title": "Cricketing legends", "work_id": 115395, "role": "production company", "role_id": 941, "is_primary": true}, {"id": 2250504, "title": "Ripping yarns", "work_id": 83689, "role": "production company", "role_id": 941, "is_primary": true}, {"id": 784260, "title": "Arafat: Behind the myth", "work_id": 84031, "role": "production company", "role_id": 941, "is_primary": true}, {"id": 1845902, "title": "Training dogs: the Woodhouse way", "work_id": 80312, "role": "production company", "role_id": 941, "is_primary": true}, {"id": 2318520, "title": "Super sense. Part 2", "work_id": 83680, "role": "production company", "role_id": 941, "is_primary": true}, {"id": 2177346, "title": "Operavox", "work_id": 92403, "role": "production company", "role_id": 941, "is_primary": true}, {"id": 855804, "title": "My time again - Richard Burton", "work_id": 70726, "role": "production company", "role_id": 941, "is_primary": true}, {"id": 1847950, "title": "The Queen mother : 90 glorious years", "work_id": 89457, "role": "production company", "role_id": 941, "is_primary": true}, {"id": 2318358, "title": "Super sense. Part 1", "work_id": 83679, "role": "production company", "role_id": 941, "is_primary": true}, {"id": 2096831, "title": "Anna Karenina. Parts 1 & 2", "work_id": 83542, "role": "production company", "role_id": 941, "is_primary": true}, {"id": 2123500, "title": "Branchline railway", "work_id": 83705, "role": "production company", "role_id": 941, "is_primary": true}, {"id": 2308958, "title": "Squirrel on my shoulder and Brockside", "work_id": 83427, "role": "production company", "role_id": 941, "is_primary": true}], "also_known_as": "", "date_of_birth": "", "date_of_death": "", "genders": [], "languages": [], "places_of_operation": [], "biography": "", "biography_author": null, "date_of_biography": "2023-05-09T19:28:50.430719+10:00", "external_links": [], "uuid": "a71bc970-9ad7-4cc6-8bf5-bf93827fca28", "source": {"name": "Vernon", "slug": "vernon"}, "source_identifier": "4916", "external_references": [], "date_modified": "2025-03-14T19:41:51.457916+11:00"}, {"id": 15612, "name": "Sally Methven", "roles_in_work": [{"id": 2761211, "title": "Basic skills. Pt. 1", "work_id": 68509, "role": "director", "role_id": 938, "is_primary": true}, {"id": 2749125, "title": "Hockey. Film 3. Advanced skills", "work_id": 96645, "role": "director", "role_id": 938, "is_primary": true}, {"id": 2761215, "title": "Basic skills. Pt. 2", "work_id": 68510, "role": "director", "role_id": 938, "is_primary": true}, {"id": 2749121, "title": "Hockey. Film 1. Basic skills", "work_id": 96643, "role": "director", "role_id": 938, "is_primary": true}, {"id": 2749123, "title": "Hockey. Film 2. Basic skills", "work_id": 96644, "role": "director", "role_id": 938, "is_primary": true}, {"id": 2761218, "title": "Hockey film", "work_id": 114778, "role": "director", "role_id": 938, "is_primary": true}], "also_known_as": "", "date_of_birth": "", "date_of_death": "", "genders": [], "languages": [], "places_of_operation": [], "biography": "", "biography_author": null, "date_of_biography": "2023-08-11T14:39:18.983529+10:00", "external_links": [], "uuid": "94320c84-f9c0-4a94-ad4e-e13662e12910", "source": {"name": "Vernon", "slug": "vernon"}, "source_identifier": "28453", "external_references": [], "date_modified": "2025-03-14T17:31:32.809058+11:00"}, {"id": 15611, "name": "University of Queensland. Dept. of Human Movement Studies", "roles_in_work": [{"id": 2761213, "title": "Basic skills. Pt. 2", "work_id": 68510, "role": "production company", "role_id": 941, "is_primary": true}, {"id": 2761209, "title": "Basic skills. Pt. 1", "work_id": 68509, "role": "production company", "role_id": 941, "is_primary": true}], "also_known_as": "", "date_of_birth": "", "date_of_death": "", "genders": [], "languages": [], "places_of_operation": [], "biography": "", "biography_author": null, "date_of_biography": "2023-08-11T14:39:18.366702+10:00", "external_links": [], "uuid": "d7a3fd7d-dc0c-4127-9489-ccccab037171", "source": {"name": "Vernon", "slug": "vernon"}, "source_identifier": "13933", "external_references": [], "date_modified": "2025-03-14T17:31:30.941693+11:00"}, {"id": 15610, "name": "Emerson Yorke Studio", "roles_in_work": [{"id": 2715583, "title": "Hobbing a spur gear. Part II. Setting up and hobbing the wor", "work_id": 68508, "role": "production company", "role_id": 941, "is_primary": true}, {"id": 2715581, "title": "Hobbing a spur gear. Part I. Setting of the change gears", "work_id": 68507, "role": "production company", "role_id": 941, "is_primary": true}], "also_known_as": "", "date_of_birth": null, "date_of_death": null, "genders": [], "languages": [], "places_of_operation": [], "biography": "", "biography_author": null, "date_of_biography": null, "external_links": [], "uuid": "4608a0ee-8847-4a18-9ecb-457a128c5407", "source": {"name": "Vernon", "slug": "vernon"}, "source_identifier": "7875", "external_references": [], "date_modified": "2025-03-12T01:37:23.891488+11:00"}, {"id": 15607, "name": "Hugh McInnes", "roles_in_work": [{"id": 2392690, "title": "Brisbane: city in the sun", "work_id": 85801, "role": "director", "role_id": 938, "is_primary": true}, {"id": 825183, "title": "Inland with Sturt", "work_id": 95721, "role": "director", "role_id": 938, "is_primary": true}, {"id": 2715576, "title": "Hobart town", "work_id": 68506, "role": "director", "role_id": 938, "is_primary": true}, {"id": 755028, "title": "Tasmanian tapestry", "work_id": 73521, "role": "director", "role_id": 938, "is_primary": true}, {"id": 754250, "title": "Steelworker", "work_id": 73189, "role": "director", "role_id": 938, "is_primary": true}, {"id": 3106062, "title": "Cane cutters", "work_id": 95700, "role": "director", "role_id": 938, "is_primary": true}], "also_known_as": "", "date_of_birth": null, "date_of_death": "1879-12-07", "genders": [{"id": 9, "name": "Male", "slug": "male"}], "languages": [], "places_of_operation": [{"id": 296, "name": "United Kingdom of Great Britain and Ireland", "slug": "united-kingdom-of-great-britain-and-ireland"}], "biography": "Hugh McInnes VC (October 1815 – 7 December 1879) was a Scottish recipient of the Victoria Cross.", "biography_author": "Wikidata", "date_of_biography": "2023-08-01T15:13:37.939186+10:00", "external_links": [{"id": 4177, "uri": "https://en.wikipedia.org/wiki/Hugh_McInnes"}], "uuid": "96652c5e-625d-4ca0-90e8-4ec662a7aa2e", "source": {"name": "Vernon", "slug": "vernon"}, "source_identifier": "20684", "external_references": [{"id": 26056, "source": {"name": "Wikidata", "slug": "wikidata"}, "source_identifier": "Q5931815"}], "date_modified": "2025-06-06T22:35:03.461953+10:00"}, {"id": 15606, "name": "Donald Anderson", "roles_in_work": [{"id": 2763451, "title": "Hobart", "work_id": 68504, "role": "director", "role_id": 938, "is_primary": true}], "also_known_as": "", "date_of_birth": "", "date_of_death": "", "genders": [], "languages": [], "places_of_operation": [], "biography": "", "biography_author": null, "date_of_biography": "2023-08-09T03:46:13.852008+10:00", "external_links": [], "uuid": "49026d28-7aee-4e96-b2b7-f90165ef0ae2", "source": {"name": "Vernon", "slug": "vernon"}, "source_identifier": "18276", "external_references": [], "date_modified": "2025-03-14T17:41:47.144327+11:00"}, {"id": 15605, "name": "Dept of Film Production, Hobart", "roles_in_work": [{"id": 2763445, "title": "Hobart", "work_id": 68504, "role": "production company", "role_id": 941, "is_primary": true}], "also_known_as": "", "date_of_birth": "", "date_of_death": "", "genders": [], "languages": [], "places_of_operation": [], "biography": "", "biography_author": null, "date_of_biography": "2023-08-09T03:46:11.414259+10:00", "external_links": [], "uuid": "6b7b8844-8bd0-4fc8-bf7f-8896c8c05071", "source": {"name": "Vernon", "slug": "vernon"}, "source_identifier": "7495", "external_references": [], "date_modified": "2025-03-14T17:41:45.363282+11:00"}, {"id": 15604, "name": "Teamfilm AS", "roles_in_work": [{"id": 2411266, "title": "I was there", "work_id": 76291, "role": "production company", "role_id": 941, "is_primary": true}, {"id": 2645085, "title": "Hjorundfjord", "work_id": 68502, "role": "production company", "role_id": 941, "is_primary": true}], "also_known_as": "", "date_of_birth": "", "date_of_death": "", "genders": [], "languages": [], "places_of_operation": [], "biography": "", "biography_author": null, "date_of_biography": "2023-08-11T18:16:39.265433+10:00", "external_links": [], "uuid": "178eb287-866e-4b14-8952-92e3e4cb8404", "source": {"name": "Vernon", "slug": "vernon"}, "source_identifier": "12197", "external_references": [], "date_modified": "2025-03-05T12:32:03.133908+11:00"}]}