{"count": 28687, "next": "https://api.acmi.net.au/creators/?page=784", "previous": "https://api.acmi.net.au/creators/?page=782", "results": [{"id": 77753, "name": "Norman Foster", "roles_in_work": [{"id": 2179836, "title": "Davy Crockett: king of the wild frontier", "work_id": 84915, "role": "director", "role_id": 938, "is_primary": true}], "also_known_as": "", "date_of_birth": "1903-12-13", "date_of_death": "1976-07-07", "genders": [{"id": 9, "name": "Male", "slug": "male"}], "languages": [{"id": 1, "name": "English", "slug": "english"}], "places_of_operation": [{"id": 1, "name": "United States of America", "slug": "united-states-of-america"}], "biography": "Norman Foster (born Norman Foster Hoeffer; December 13, 1903 – July 7, 1976) was an American film director, screenwriter and actor. He directed many Charlie Chan and Mr. Moto films as well as projects for Orson Welles and Walt Disney. As an actor he was a leading man in early talkies and also appeared in Welles' final film, The Other Side of the Wind.", "biography_author": "Wikidata", "date_of_biography": "2023-08-01T16:25:12.142659+10:00", "external_links": [{"id": 4794, "uri": "https://en.wikipedia.org/wiki/Norman_Foster_(director)"}], "uuid": "7407593a-c450-46fb-8671-1c2990a6e2c5", "source": {"name": "Vernon", "slug": "vernon"}, "source_identifier": "25885", "external_references": [{"id": 25667, "source": {"name": "Wikidata", "slug": "wikidata"}, "source_identifier": "Q2409726"}, {"id": 30562, "source": {"name": "VIAF", "slug": "viaf"}, "source_identifier": "69096768"}, {"id": 30563, "source": {"name": "LOC Auth", "slug": "loc-auth"}, "source_identifier": "no89001640"}, {"id": 30564, "source": {"name": "WorldCat", "slug": "worldcat"}, "source_identifier": "lccn-no89001640"}], "date_modified": "2023-09-05T23:34:06.734043+10:00"}, {"id": 77752, "name": "Sook-Yin Lee", "roles_in_work": [{"id": 2792071, "title": "Hey, Kelly!", "work_id": 84911, "role": "director", "role_id": 938, "is_primary": true}], "also_known_as": "", "date_of_birth": null, "date_of_death": "", "genders": [{"id": 5, "name": "Female", "slug": "female"}], "languages": [{"id": 1, "name": "English", "slug": "english"}], "places_of_operation": [{"id": 36, "name": "Canada", "slug": "canada"}], "biography": "Sook-Yin Lee is a Canadian broadcaster, musician, film director, and actress. She is a former MuchMusic VJ and a former radio host on CBC Radio. She has appeared in films, notably in the John Cameron Mitchell movie Shortbus. Source: Wikidata; 01/08/2023", "biography_author": null, "date_of_biography": "2025-03-14T20:06:36.083067+11:00", "external_links": [{"id": 5176, "uri": "https://en.wikipedia.org/wiki/Sook-Yin_Lee"}], "uuid": "07d1cbb3-6aa1-4056-94d3-3121ce214985", "source": {"name": "Vernon", "slug": "vernon"}, "source_identifier": "28902", "external_references": [{"id": 26590, "source": {"name": "Wikidata", "slug": "wikidata"}, "source_identifier": "Q462176"}, {"id": 31568, "source": {"name": "VIAF", "slug": "viaf"}, "source_identifier": "86516588"}, {"id": 31569, "source": {"name": "LOC Auth", "slug": "loc-auth"}, "source_identifier": "no2009009496"}, {"id": 31570, "source": {"name": "WorldCat", "slug": "worldcat"}, "source_identifier": "lccn-no2009009496"}], "date_modified": "2025-03-14T20:06:36.083310+11:00"}, {"id": 77751, "name": "Sugith Varughese", "roles_in_work": [{"id": 2792066, "title": "Mela's lunch", "work_id": 84910, "role": "director", "role_id": 938, "is_primary": true}], "also_known_as": "", "date_of_birth": "25 APR 1958", "date_of_death": "", "genders": [{"id": 9, "name": "Male", "slug": "male"}], "languages": [{"id": 1, "name": "English", "slug": "english"}], "places_of_operation": [{"id": 36, "name": "Canada", "slug": "canada"}], "biography": "Sugith Varughese (born 25 April 1957) is an Indian-born Canadian writer, director and actor. Source: Wikidata; 01/08/2023", "biography_author": null, "date_of_biography": "2025-03-14T20:06:32.787541+11:00", "external_links": [{"id": 5226, "uri": "https://en.wikipedia.org/wiki/Sugith_Varughese"}], "uuid": "b82d2229-f35b-42b6-a156-aa0557c071e1", "source": {"name": "Vernon", "slug": "vernon"}, "source_identifier": "29320", "external_references": [{"id": 26526, "source": {"name": "Wikidata", "slug": "wikidata"}, "source_identifier": "Q7635124"}, {"id": 31694, "source": {"name": "VIAF", "slug": "viaf"}, "source_identifier": "157745906"}, {"id": 31695, "source": {"name": "LOC Auth", "slug": "loc-auth"}, "source_identifier": "no2014104175"}, {"id": 31696, "source": {"name": "WorldCat", "slug": "worldcat"}, "source_identifier": "lccn-no2014104175"}], "date_modified": "2025-03-14T20:06:32.787777+11:00"}, {"id": 77750, "name": "Selwyn Jacob", "roles_in_work": [{"id": 2792061, "title": "Carol's mirror", "work_id": 84909, "role": "director", "role_id": 938, "is_primary": true}], "also_known_as": "", "date_of_birth": null, "date_of_death": "", "genders": [{"id": 9, "name": "Male", "slug": "male"}], "languages": [], "places_of_operation": [{"id": 36, "name": "Canada", "slug": "canada"}], "biography": "Selwyn Jacob is a Canadian documentary filmmaker whose work has often explored the experiences of Black Canadians as well as other stories from Canada's multicultural communities, as both as an independent director and since 1997 as a producer with the National Film Board of Canada (NFB). Source: Wikidata; 01/08/2023", "biography_author": null, "date_of_biography": "2025-03-14T20:06:29.511010+11:00", "external_links": [{"id": 5139, "uri": "https://en.wikipedia.org/wiki/Selwyn_Jacob"}], "uuid": "d642012d-04f6-4134-82e5-acc9d2627293", "source": {"name": "Vernon", "slug": "vernon"}, "source_identifier": "28676", "external_references": [{"id": 27050, "source": {"name": "Wikidata", "slug": "wikidata"}, "source_identifier": "Q16211487"}], "date_modified": "2025-03-14T20:06:29.511372+11:00"}, {"id": 77749, "name": "Penny Ritco", "roles_in_work": [{"id": 2792074, "title": "Walker", "work_id": 84912, "role": "co-producer", "role_id": 915, "is_primary": true}, {"id": 2792058, "title": "Playing Fair", "work_id": 115430, "role": "co-producer", "role_id": 915, "is_primary": true}, {"id": 2792056, "title": "Playing Fair", "work_id": 115430, "role": "co-producer", "role_id": 915, "is_primary": true}, {"id": 2792059, "title": "Carol's mirror", "work_id": 84909, "role": "co-producer", "role_id": 915, "is_primary": true}, {"id": 2792064, "title": "Mela's lunch", "work_id": 84910, "role": "co-producer", "role_id": 915, "is_primary": true}, {"id": 2792069, "title": "Hey, Kelly!", "work_id": 84911, "role": "co-producer", "role_id": 915, "is_primary": true}], "also_known_as": "", "date_of_birth": "", "date_of_death": "", "genders": [], "languages": [], "places_of_operation": [], "biography": "", "biography_author": null, "date_of_biography": "2023-05-09T15:40:28.214296+10:00", "external_links": [], "uuid": "953593f3-cf05-42a1-b95a-6bdbdc410c05", "source": {"name": "Vernon", "slug": "vernon"}, "source_identifier": "26423", "external_references": [{"id": 43224, "source": {"name": "Wikidata", "slug": "wikidata"}, "source_identifier": "Q121036706"}], "date_modified": "2025-03-14T20:06:40.133972+11:00"}, {"id": 77748, "name": "Robert Francis", "roles_in_work": [{"id": 2336654, "title": "The Celluloid heroes: 1896-1996 Celebrating 100 years of Australian Cinema. - Vol. 2.", "work_id": 84903, "role": "co-director", "role_id": 959, "is_primary": true}, {"id": 2336420, "title": "The Celluloid heroes: 1896-1996 Celebrating 100 years of Australian Cinema. - Vol. 1.", "work_id": 84902, "role": "director", "role_id": 938, "is_primary": true}, {"id": 1932389, "title": "Gough Whitlam: in his own words [Widescreen]", "work_id": 93787, "role": "producer/director", "role_id": 31, "is_primary": true}, {"id": 2750254, "title": "The Making of 'Anna'", "work_id": 97216, "role": "producer/director", "role_id": 31, "is_primary": true}], "also_known_as": "", "date_of_birth": "", "date_of_death": "", "genders": [], "languages": [], "places_of_operation": [], "biography": "", "biography_author": null, "date_of_biography": "2023-05-09T19:32:53.264229+10:00", "external_links": [], "uuid": "513c7a50-56f9-4cdb-8766-b4beb05db9fb", "source": {"name": "Vernon", "slug": "vernon"}, "source_identifier": "27730", "external_references": [{"id": 51219, "source": {"name": "Wikidata", "slug": "wikidata"}, "source_identifier": "Q121357514"}], "date_modified": "2025-03-13T00:17:13.458883+11:00"}, {"id": 77747, "name": "Martin Weitz", "roles_in_work": [{"id": 2355076, "title": "The Human animal: a personal view of the human species. Part 2 (X)", "work_id": 84897, "role": "co-producer", "role_id": 915, "is_primary": true}], "also_known_as": "", "date_of_birth": "", "date_of_death": "", "genders": [], "languages": [], "places_of_operation": [], "biography": "", "biography_author": null, "date_of_biography": "2023-05-09T20:02:39.697808+10:00", "external_links": [], "uuid": "139059b4-dc03-433d-8ab4-9eb377479cc9", "source": {"name": "Vernon", "slug": "vernon"}, "source_identifier": "24676", "external_references": [{"id": 41875, "source": {"name": "Wikidata", "slug": "wikidata"}, "source_identifier": "Q121298727"}], "date_modified": "2023-09-05T22:50:43.065479+10:00"}, {"id": 77746, "name": "Graham Booth", "roles_in_work": [{"id": 2355066, "title": "The Human animal: a personal view of the human species. Part 2 (X)", "work_id": 84897, "role": "co-producer", "role_id": 915, "is_primary": true}], "also_known_as": "", "date_of_birth": "", "date_of_death": "", "genders": [], "languages": [], "places_of_operation": [], "biography": "", "biography_author": null, "date_of_biography": "2023-05-09T20:02:39.204827+10:00", "external_links": [], "uuid": "2eabac28-761e-4ab8-87ae-fb2f2c63553e", "source": {"name": "Vernon", "slug": "vernon"}, "source_identifier": "19984", "external_references": [{"id": 39786, "source": {"name": "Wikidata", "slug": "wikidata"}, "source_identifier": "Q121315247"}], "date_modified": "2023-09-05T20:18:35.610996+10:00"}, {"id": 77745, "name": "John MacNish", "roles_in_work": [{"id": 2355615, "title": "The Human animal: a personal view of the human species. - Part 1. (X)", "work_id": 84896, "role": "co-producer", "role_id": 915, "is_primary": true}], "also_known_as": "", "date_of_birth": "", "date_of_death": "", "genders": [], "languages": [], "places_of_operation": [], "biography": "", "biography_author": null, "date_of_biography": "2023-05-09T20:03:29.606707+10:00", "external_links": [], "uuid": "e88c5689-a5d6-4d2b-a263-6f4a4197f03e", "source": {"name": "Vernon", "slug": "vernon"}, "source_identifier": "22388", "external_references": [{"id": 34698, "source": {"name": "Wikidata", "slug": "wikidata"}, "source_identifier": "Q121036663"}], "date_modified": "2023-09-05T21:41:05.924764+10:00"}, {"id": 77744, "name": "Mike Beynon", "roles_in_work": [{"id": 1846877, "title": "The Velvet claw", "work_id": 83607, "role": "co-producer", "role_id": 915, "is_primary": true}, {"id": 2355611, "title": "The Human animal: a personal view of the human species. - Part 1. (X)", "work_id": 84896, "role": "co-producer", "role_id": 915, "is_primary": true}, {"id": 2355070, "title": "The Human animal: a personal view of the human species. Part 2 (X)", "work_id": 84897, "role": "co-producer", "role_id": 915, "is_primary": true}], "also_known_as": "", "date_of_birth": "", "date_of_death": "", "genders": [], "languages": [], "places_of_operation": [], "biography": "", "biography_author": null, "date_of_biography": "2023-05-09T20:03:29.330194+10:00", "external_links": [], "uuid": "f68a38a8-a64e-428d-b93d-757fe1909b52", "source": {"name": "Vernon", "slug": "vernon"}, "source_identifier": "25343", "external_references": [{"id": 39349, "source": {"name": "Wikidata", "slug": "wikidata"}, "source_identifier": "Q121079268"}], "date_modified": "2023-09-05T23:14:28.839976+10:00"}]}