{"count": 28687, "next": "https://api.acmi.net.au/creators/?page=304", "previous": "https://api.acmi.net.au/creators/?page=302", "results": [{"id": 82577, "name": "Jia Wang", "roles_in_work": [{"id": 2650999, "title": "An American woman's adventure = Mao xian de Mei Guo Nu Ren", "work_id": 115790, "role": "director", "role_id": 938, "is_primary": true}], "also_known_as": "", "date_of_birth": "", "date_of_death": "", "genders": [], "languages": [], "places_of_operation": [], "biography": "", "biography_author": null, "date_of_biography": "2023-05-09T12:01:39.404554+10:00", "external_links": [], "uuid": "10299dcb-c829-49eb-9a5f-e50242998884", "source": {"name": "Vernon", "slug": "vernon"}, "source_identifier": "36440", "external_references": [{"id": 39053, "source": {"name": "Wikidata", "slug": "wikidata"}, "source_identifier": "Q121079226"}], "date_modified": "2025-03-05T14:25:27.101403+11:00"}, {"id": 82576, "name": "Zhang Chao", "roles_in_work": [{"id": 2651191, "title": "Qiu Jin", "work_id": 115809, "role": "cast", "role_id": 33, "is_primary": false}, {"id": 2650993, "title": "Strange friends = Mo sheng de peng you", "work_id": 115789, "role": "cast", "role_id": 33, "is_primary": false}], "also_known_as": "", "date_of_birth": "", "date_of_death": "", "genders": [], "languages": [], "places_of_operation": [], "biography": "", "biography_author": null, "date_of_biography": "2023-05-09T19:02:59.518566+10:00", "external_links": [], "uuid": "93d5f806-5f62-427f-8fb9-9bd70be779a1", "source": {"name": "Vernon", "slug": "vernon"}, "source_identifier": "36313", "external_references": [{"id": 41912, "source": {"name": "Wikidata", "slug": "wikidata"}, "source_identifier": "Q121086047"}], "date_modified": "2025-03-05T14:27:25.104298+11:00"}, {"id": 82575, "name": "Li Ling", "roles_in_work": [{"id": 2650992, "title": "Strange friends = Mo sheng de peng you", "work_id": 115789, "role": "cast", "role_id": 33, "is_primary": false}, {"id": 2303821, "title": "Soccer heroes = Jingdu Quixia", "work_id": 115844, "role": "editor", "role_id": 918, "is_primary": true}], "also_known_as": "", "date_of_birth": "", "date_of_death": "", "genders": [], "languages": [], "places_of_operation": [], "biography": "", "biography_author": null, "date_of_biography": "2023-05-09T19:02:59.288967+10:00", "external_links": [], "uuid": "bb74253b-3a6d-4d88-9a8c-1cfb62d25e6e", "source": {"name": "Vernon", "slug": "vernon"}, "source_identifier": "36118", "external_references": [{"id": 36434, "source": {"name": "Wikidata", "slug": "wikidata"}, "source_identifier": "Q121298761"}], "date_modified": "2025-03-05T14:25:25.085263+11:00"}, {"id": 82574, "name": "Me Wenru", "roles_in_work": [{"id": 2650990, "title": "Strange friends = Mo sheng de peng you", "work_id": 115789, "role": "editor", "role_id": 918, "is_primary": true}], "also_known_as": "", "date_of_birth": "", "date_of_death": "", "genders": [], "languages": [], "places_of_operation": [], "biography": "", "biography_author": null, "date_of_biography": "2023-05-09T19:02:59.020767+10:00", "external_links": [], "uuid": "91ac526b-4c96-4754-8313-9507552e741f", "source": {"name": "Vernon", "slug": "vernon"}, "source_identifier": "36312", "external_references": [{"id": 38784, "source": {"name": "Wikidata", "slug": "wikidata"}, "source_identifier": "Q121144082"}], "date_modified": "2025-03-05T14:25:24.512354+11:00"}, {"id": 82573, "name": "Huang Xinyi", "roles_in_work": [{"id": 2650988, "title": "Strange friends = Mo sheng de peng you", "work_id": 115789, "role": "cinematographer", "role_id": 32, "is_primary": false}, {"id": 2651397, "title": "The Acting mayor = Dai li shi zhang", "work_id": 115836, "role": "cinematographer", "role_id": 32, "is_primary": false}], "also_known_as": "", "date_of_birth": "", "date_of_death": "", "genders": [], "languages": [], "places_of_operation": [], "biography": "", "biography_author": null, "date_of_biography": "2023-05-09T19:19:57.215053+10:00", "external_links": [], "uuid": "860e3b44-a7aa-46a4-80d1-5f63d422c2b8", "source": {"name": "Vernon", "slug": "vernon"}, "source_identifier": "36303", "external_references": [{"id": 43454, "source": {"name": "Wikidata", "slug": "wikidata"}, "source_identifier": "Q121299510"}], "date_modified": "2025-03-05T14:29:34.084259+11:00"}, {"id": 82572, "name": "Li Baoyuan", "roles_in_work": [{"id": 2650991, "title": "Strange friends = Mo sheng de peng you", "work_id": 115789, "role": "script", "role_id": 962, "is_primary": false}], "also_known_as": "", "date_of_birth": "", "date_of_death": "", "genders": [], "languages": [], "places_of_operation": [], "biography": "", "biography_author": null, "date_of_biography": "2023-05-09T19:02:58.552329+10:00", "external_links": [], "uuid": "47efa028-3fe0-4610-8de8-b95402e5e01f", "source": {"name": "Vernon", "slug": "vernon"}, "source_identifier": "36311", "external_references": [], "date_modified": "2025-03-05T14:25:23.369343+11:00"}, {"id": 82571, "name": "Xu Lei", "roles_in_work": [{"id": 2650989, "title": "Strange friends = Mo sheng de peng you", "work_id": 115789, "role": "director", "role_id": 938, "is_primary": true}, {"id": 2651013, "title": "Spring in autumn = Qiu tian li de chun tian", "work_id": 115791, "role": "cast", "role_id": 33, "is_primary": false}], "also_known_as": "", "date_of_birth": "", "date_of_death": "", "genders": [{"id": 5, "name": "Female", "slug": "female"}], "languages": [], "places_of_operation": [], "biography": "", "biography_author": null, "date_of_biography": "2023-05-09T19:02:58.301550+10:00", "external_links": [], "uuid": "0d8a5d4d-0633-41b7-a461-1979184db629", "source": {"name": "Vernon", "slug": "vernon"}, "source_identifier": "36310", "external_references": [{"id": 38652, "source": {"name": "Wikidata", "slug": "wikidata"}, "source_identifier": "Q121034683"}], "date_modified": "2025-03-05T14:25:35.358093+11:00"}, {"id": 82570, "name": "Chenbin Wu", "roles_in_work": [{"id": 2346553, "title": "The Eight celestials crossing the sea = Ba xian guo hai", "work_id": 115788, "role": "sound", "role_id": 952, "is_primary": false}], "also_known_as": "", "date_of_birth": "", "date_of_death": "", "genders": [], "languages": [], "places_of_operation": [], "biography": "", "biography_author": null, "date_of_biography": "2023-05-09T19:47:45.414757+10:00", "external_links": [], "uuid": "935e1d8d-3997-4074-b725-05ddcea8bb88", "source": {"name": "Vernon", "slug": "vernon"}, "source_identifier": "36462", "external_references": [], "date_modified": "2023-06-14T16:33:30.576250+10:00"}, {"id": 82569, "name": "Huoming Zhuang", "roles_in_work": [{"id": 2346547, "title": "The Eight celestials crossing the sea = Ba xian guo hai", "work_id": 115788, "role": "script", "role_id": 962, "is_primary": false}], "also_known_as": "", "date_of_birth": "", "date_of_death": "", "genders": [], "languages": [], "places_of_operation": [], "biography": "", "biography_author": null, "date_of_biography": "2023-05-09T19:47:44.781495+10:00", "external_links": [], "uuid": "e8c4316c-1f37-491f-bbc4-13937cd80819", "source": {"name": "Vernon", "slug": "vernon"}, "source_identifier": "36461", "external_references": [], "date_modified": "2023-06-14T16:33:30.576250+10:00"}, {"id": 82568, "name": "Manfu Qiu", "roles_in_work": [{"id": 2346536, "title": "The Eight celestials crossing the sea = Ba xian guo hai", "work_id": 115788, "role": "producer", "role_id": 1089, "is_primary": true}], "also_known_as": "", "date_of_birth": "", "date_of_death": "", "genders": [], "languages": [], "places_of_operation": [], "biography": "", "biography_author": null, "date_of_biography": "2023-05-09T19:47:44.140810+10:00", "external_links": [], "uuid": "d140de09-c03b-4c0f-9d67-42a1405743f4", "source": {"name": "Vernon", "slug": "vernon"}, "source_identifier": "36460", "external_references": [{"id": 38871, "source": {"name": "Wikidata", "slug": "wikidata"}, "source_identifier": "Q121035451"}], "date_modified": "2023-09-05T22:38:25.581502+10:00"}]}