{"count": 28687, "next": "https://api.acmi.net.au/creators/?page=1273", "previous": "https://api.acmi.net.au/creators/?page=1271", "results": [{"id": 39256, "name": "Baker Medical Research Institute", "roles_in_work": [{"id": 2409180, "title": "Heart and vascular disease", "work_id": 99178, "role": "production company", "role_id": 941, "is_primary": true}], "also_known_as": "", "date_of_birth": "", "date_of_death": "", "genders": [], "languages": [], "places_of_operation": [], "biography": "", "biography_author": null, "date_of_biography": "2023-08-11T17:17:11.399947+10:00", "external_links": [], "uuid": "17dd2d8c-5fb5-4053-9c29-b81f551c8be6", "source": {"name": "Vernon", "slug": "vernon"}, "source_identifier": "5685", "external_references": [], "date_modified": "2023-08-11T17:17:11.400257+10:00"}, {"id": 39253, "name": "Mornington School Support Centre", "roles_in_work": [{"id": 832992, "title": "Trying out", "work_id": 99177, "role": "production company", "role_id": 941, "is_primary": true}, {"id": 2754368, "title": "Access to the future", "work_id": 99170, "role": "production company", "role_id": 941, "is_primary": true}], "also_known_as": "", "date_of_birth": null, "date_of_death": null, "genders": [], "languages": [], "places_of_operation": [], "biography": "", "biography_author": null, "date_of_biography": null, "external_links": [], "uuid": "bfcc09fd-abfb-47d4-bb66-bb7d2385fd61", "source": {"name": "Vernon", "slug": "vernon"}, "source_identifier": "4893", "external_references": [], "date_modified": "2025-03-13T01:42:39.557476+11:00"}, {"id": 39252, "name": "Corporate Relations Unit, Western Metro Region", "roles_in_work": [{"id": 2754366, "title": "School support centres", "work_id": 99169, "role": "production company", "role_id": 941, "is_primary": true}], "also_known_as": "", "date_of_birth": null, "date_of_death": null, "genders": [], "languages": [], "places_of_operation": [], "biography": "", "biography_author": null, "date_of_biography": null, "external_links": [], "uuid": "8f88a610-2110-4b1f-accc-59b82f7371f8", "source": {"name": "Vernon", "slug": "vernon"}, "source_identifier": "7089", "external_references": [], "date_modified": "2025-03-13T01:42:38.096616+11:00"}, {"id": 39249, "name": "Victoria. Ministry of Education. Film, Television and Radio Productions", "roles_in_work": [{"id": 2754343, "title": "Frameworks: blueprint for the future [Greek version]", "work_id": 99160, "role": "production company", "role_id": 941, "is_primary": true}], "also_known_as": "", "date_of_birth": null, "date_of_death": null, "genders": [], "languages": [], "places_of_operation": [], "biography": "", "biography_author": null, "date_of_biography": null, "external_links": [], "uuid": "02b0132d-ac0b-4691-9c1f-a5bf7b4207b6", "source": {"name": "Vernon", "slug": "vernon"}, "source_identifier": "30828", "external_references": [], "date_modified": "2025-03-13T01:42:22.515916+11:00"}, {"id": 39248, "name": "Neville Stanley", "roles_in_work": [{"id": 2785198, "title": "I like maths", "work_id": 99156, "role": "producer", "role_id": 1089, "is_primary": true}, {"id": 2785192, "title": "How do you spell my name in chinese?", "work_id": 99155, "role": "producer", "role_id": 1089, "is_primary": true}, {"id": 2785207, "title": "Student participation", "work_id": 99167, "role": "producer", "role_id": 1089, "is_primary": true}, {"id": 2785187, "title": "Art maps", "work_id": 99154, "role": "producer", "role_id": 1089, "is_primary": true}, {"id": 2754352, "title": "Keyboard skills in a language program", "work_id": 99165, "role": "producer/director", "role_id": 31, "is_primary": true}], "also_known_as": "", "date_of_birth": null, "date_of_death": null, "genders": [], "languages": [], "places_of_operation": [], "biography": "", "biography_author": null, "date_of_biography": null, "external_links": [], "uuid": "442e219e-bd51-4301-a0a8-8df8727c390e", "source": {"name": "Vernon", "slug": "vernon"}, "source_identifier": "25697", "external_references": [], "date_modified": "2025-03-14T19:23:15.928107+11:00"}, {"id": 39247, "name": "Prahran School Support Centre", "roles_in_work": [{"id": 2754567, "title": "Visions of perfection", "work_id": 99261, "role": "production company", "role_id": 941, "is_primary": true}, {"id": 2754320, "title": "Italian in the primary School", "work_id": 99150, "role": "production company", "role_id": 941, "is_primary": true}], "also_known_as": "", "date_of_birth": null, "date_of_death": null, "genders": [], "languages": [], "places_of_operation": [], "biography": "", "biography_author": null, "date_of_biography": null, "external_links": [], "uuid": "ce24e139-6fdb-4028-a795-e4f82f9a61d2", "source": {"name": "Vernon", "slug": "vernon"}, "source_identifier": "11606", "external_references": [], "date_modified": "2025-03-13T01:46:50.849208+11:00"}, {"id": 39246, "name": "Country Education Project, Box Hill School of TAFE", "roles_in_work": [{"id": 2754305, "title": "Tirra Lirra by the river [a discussion]", "work_id": 99145, "role": "production company", "role_id": 941, "is_primary": true}], "also_known_as": "", "date_of_birth": null, "date_of_death": null, "genders": [], "languages": [], "places_of_operation": [], "biography": "", "biography_author": null, "date_of_biography": null, "external_links": [], "uuid": "90bd9011-3416-4cff-b276-2e23f2d15e75", "source": {"name": "Vernon", "slug": "vernon"}, "source_identifier": "7115", "external_references": [], "date_modified": "2025-03-13T01:41:56.657658+11:00"}, {"id": 39245, "name": "Country education Project-Ministry of Education", "roles_in_work": [{"id": 2754295, "title": "Bonds and relationships. Parts 1 & 2", "work_id": 99139, "role": "production company", "role_id": 941, "is_primary": true}], "also_known_as": "", "date_of_birth": null, "date_of_death": null, "genders": [], "languages": [], "places_of_operation": [], "biography": "", "biography_author": null, "date_of_biography": null, "external_links": [], "uuid": "a91af1fa-5436-4db1-90a4-73a2e0bd78d8", "source": {"name": "Vernon", "slug": "vernon"}, "source_identifier": "7116", "external_references": [], "date_modified": "2025-03-13T01:41:49.734477+11:00"}, {"id": 39244, "name": "Richard McRoberts", "roles_in_work": [{"id": 2754289, "title": "The Plague [a discussion]", "work_id": 99137, "role": "producer", "role_id": 1089, "is_primary": true}], "also_known_as": "", "date_of_birth": null, "date_of_death": null, "genders": [], "languages": [], "places_of_operation": [], "biography": "", "biography_author": null, "date_of_biography": null, "external_links": [], "uuid": "cf21924f-64bf-4ecd-aa52-750ae05587d0", "source": {"name": "Vernon", "slug": "vernon"}, "source_identifier": "27463", "external_references": [], "date_modified": "2025-03-13T01:41:45.605741+11:00"}, {"id": 39243, "name": "Victoria. Ministry of Education. Film, Television and Audio Unit", "roles_in_work": [{"id": 2754286, "title": "Getting the job: personal experiences with selection panels", "work_id": 99136, "role": "production company", "role_id": 941, "is_primary": true}], "also_known_as": "", "date_of_birth": "", "date_of_death": "", "genders": [], "languages": [], "places_of_operation": [], "biography": "", "biography_author": null, "date_of_biography": "2023-08-11T17:01:31.533235+10:00", "external_links": [], "uuid": "211e5381-d554-4a5b-909c-f7b4a0f6e6ba", "source": {"name": "Vernon", "slug": "vernon"}, "source_identifier": "8172", "external_references": [], "date_modified": "2025-03-13T01:41:41.178832+11:00"}]}