{"count": 28687, "next": "https://api.acmi.net.au/creators/?page=2579", "previous": "https://api.acmi.net.au/creators/?page=2577", "results": [{"id": 12939, "name": "Oliver Lawson Dick", "roles_in_work": [{"id": 2678191, "title": "Be careful boys", "work_id": 65271, "role": "producer", "role_id": 1089, "is_primary": true}], "also_known_as": "", "date_of_birth": "1920", "date_of_death": "", "genders": [], "languages": [], "places_of_operation": [], "biography": "", "biography_author": null, "date_of_biography": "2023-05-09T12:43:04.090494+10:00", "external_links": [], "uuid": "09de5473-c507-4405-8b6e-1681a2618307", "source": {"name": "Vernon", "slug": "vernon"}, "source_identifier": "25947", "external_references": [{"id": 42113, "source": {"name": "Wikidata", "slug": "wikidata"}, "source_identifier": "Q121057781"}], "date_modified": "2025-03-06T23:41:59.409480+11:00"}, {"id": 12938, "name": "Biographic Cartoon Films", "roles_in_work": [{"id": 751361, "title": "Productivity primer", "work_id": 71887, "role": "production company", "role_id": 941, "is_primary": true}, {"id": 2678190, "title": "Be careful boys", "work_id": 65271, "role": "production company", "role_id": 941, "is_primary": true}, {"id": 2712211, "title": "Do it yourself cartoon kit", "work_id": 66846, "role": "production company", "role_id": 941, "is_primary": true}], "also_known_as": "", "date_of_birth": "", "date_of_death": "", "genders": [], "languages": [], "places_of_operation": [], "biography": "", "biography_author": null, "date_of_biography": "2023-05-09T12:43:03.845694+10:00", "external_links": [], "uuid": "e29a7f3a-cf38-424a-b54d-9a7e14edf6e1", "source": {"name": "Vernon", "slug": "vernon"}, "source_identifier": "5872", "external_references": [{"id": 41972, "source": {"name": "Wikidata", "slug": "wikidata"}, "source_identifier": "Q121159914"}], "date_modified": "2025-03-12T00:12:43.442163+11:00"}, {"id": 12937, "name": "Frank Gardner", "roles_in_work": [{"id": 2716243, "title": "In the swim", "work_id": 68847, "role": "director", "role_id": 938, "is_primary": true}, {"id": 1811882, "title": "Limbering up", "work_id": 69739, "role": "producer", "role_id": 1089, "is_primary": true}, {"id": 2678189, "title": "Be a sport", "work_id": 65270, "role": "producer", "role_id": 1089, "is_primary": true}, {"id": 2713002, "title": "An English county: Surrey", "work_id": 67193, "role": "producer", "role_id": 1089, "is_primary": true}, {"id": 2678872, "title": "Britain's sporting heritage", "work_id": 65615, "role": "producer", "role_id": 1089, "is_primary": true}, {"id": 2679524, "title": "Champions from the Commonwealth", "work_id": 65940, "role": "producer", "role_id": 1089, "is_primary": true}, {"id": 2679816, "title": "Choosing a dog", "work_id": 66087, "role": "producer", "role_id": 1089, "is_primary": true}, {"id": 2644352, "title": "Chelsea Football Club", "work_id": 65991, "role": "producer", "role_id": 1089, "is_primary": true}, {"id": 2714720, "title": "Gliding", "work_id": 68081, "role": "producer", "role_id": 1089, "is_primary": true}, {"id": 2715286, "title": "Health service in Britain", "work_id": 68364, "role": "producer", "role_id": 1089, "is_primary": true}, {"id": 1814482, "title": "London scene", "work_id": 69863, "role": "producer", "role_id": 1089, "is_primary": true}, {"id": 1812140, "title": "Tennis trio", "work_id": 73623, "role": "producer", "role_id": 1089, "is_primary": true}, {"id": 1812672, "title": "This model age", "work_id": 73748, "role": "producer", "role_id": 1089, "is_primary": true}, {"id": 1806964, "title": "This game of golf", "work_id": 76063, "role": "producer", "role_id": 1089, "is_primary": true}, {"id": 1818501, "title": "Wales", "work_id": 74449, "role": "producer", "role_id": 1089, "is_primary": true}, {"id": 1819445, "title": "Popular pastimes. No. 1. Plane sailing", "work_id": 71613, "role": "producer", "role_id": 1089, "is_primary": true}, {"id": 1820340, "title": "The Royal Manor", "work_id": 72371, "role": "producer", "role_id": 1089, "is_primary": true}, {"id": 1820361, "title": "Sailing", "work_id": 72448, "role": "producer", "role_id": 1089, "is_primary": true}, {"id": 750125, "title": "The Pace that thrills", "work_id": 71309, "role": "producer/director", "role_id": 31, "is_primary": true}], "also_known_as": "", "date_of_birth": "", "date_of_death": "", "genders": [], "languages": [], "places_of_operation": [], "biography": "", "biography_author": null, "date_of_biography": "2023-08-11T14:46:11.279611+10:00", "external_links": [], "uuid": "a6d23003-2c19-49eb-ae55-9292e1234c40", "source": {"name": "Vernon", "slug": "vernon"}, "source_identifier": "1779", "external_references": [], "date_modified": "2025-03-12T01:52:01.429071+11:00"}, {"id": 12936, "name": "Great Britain Central Office of Information", "roles_in_work": [{"id": 2678188, "title": "Be a sport", "work_id": 65270, "role": "production company", "role_id": 941, "is_primary": true}], "also_known_as": "", "date_of_birth": "", "date_of_death": "", "genders": [], "languages": [], "places_of_operation": [], "biography": "", "biography_author": null, "date_of_biography": "2023-08-11T14:46:10.623603+10:00", "external_links": [], "uuid": "88de9fa1-0f5b-44ce-8fb3-db69a1f80042", "source": {"name": "Vernon", "slug": "vernon"}, "source_identifier": "8866", "external_references": [], "date_modified": "2025-03-06T23:41:57.380667+11:00"}, {"id": 12935, "name": "Stephen Hearst", "roles_in_work": [{"id": 757888, "title": "The Widening gap", "work_id": 74753, "role": "director", "role_id": 938, "is_primary": true}, {"id": 2714553, "title": "Generators of hope: the flags are not enough", "work_id": 67983, "role": "director", "role_id": 938, "is_primary": true}, {"id": 746628, "title": "Life is short", "work_id": 69696, "role": "director", "role_id": 938, "is_primary": true}, {"id": 2767914, "title": "Skeleton of an empire", "work_id": 68160, "role": "producer", "role_id": 1089, "is_primary": true}, {"id": 1809737, "title": "How did she do it? A literary enquiry into the worldwide appeal of Agatha Christie", "work_id": 90787, "role": "producer", "role_id": 1089, "is_primary": true}, {"id": 2767909, "title": "Roman art and architecture", "work_id": 68158, "role": "producer", "role_id": 1089, "is_primary": true}, {"id": 2767920, "title": "Gods and men", "work_id": 68159, "role": "producer", "role_id": 1089, "is_primary": true}, {"id": 2678187, "title": "B.B.C. television: the first 25 years", "work_id": 65269, "role": "producer/director", "role_id": 31, "is_primary": true}], "also_known_as": "", "date_of_birth": null, "date_of_death": null, "genders": [], "languages": [], "places_of_operation": [], "biography": "", "biography_author": null, "date_of_biography": null, "external_links": [], "uuid": "dc36f7ff-fe49-4bc0-b396-5d2e66a0bc6b", "source": {"name": "Vernon", "slug": "vernon"}, "source_identifier": "29043", "external_references": [], "date_modified": "2025-03-14T18:07:35.549411+11:00"}, {"id": 12933, "name": "Films du Compas", "roles_in_work": [{"id": 2678183, "title": "The Bayeux Tapestry", "work_id": 65268, "role": "production company", "role_id": 941, "is_primary": true}], "also_known_as": "", "date_of_birth": "", "date_of_death": "", "genders": [], "languages": [], "places_of_operation": [], "biography": "", "biography_author": null, "date_of_biography": "2023-05-09T19:24:25.153333+10:00", "external_links": [], "uuid": "185dc54d-cba1-450c-bf1c-b04f87bf0d84", "source": {"name": "Vernon", "slug": "vernon"}, "source_identifier": "8301", "external_references": [{"id": 42434, "source": {"name": "Wikidata", "slug": "wikidata"}, "source_identifier": "Q121270655"}], "date_modified": "2025-03-06T23:41:53.941731+11:00"}, {"id": 12932, "name": "Barry Paine", "roles_in_work": [{"id": 918469, "title": "Year of the Green Centre", "work_id": 96662, "role": "co-producer", "role_id": 915, "is_primary": true}, {"id": 2678182, "title": "A Bay in the balance", "work_id": 65267, "role": "producer", "role_id": 1089, "is_primary": true}], "also_known_as": "", "date_of_birth": "", "date_of_death": "", "genders": [], "languages": [], "places_of_operation": [], "biography": "", "biography_author": null, "date_of_biography": "2023-08-11T12:52:05.423170+10:00", "external_links": [], "uuid": "a2e3543a-0a4e-4772-8411-42ecc450ba0b", "source": {"name": "Vernon", "slug": "vernon"}, "source_identifier": "15729", "external_references": [], "date_modified": "2025-03-06T23:41:53.128430+11:00"}, {"id": 12931, "name": "John Daborn", "roles_in_work": [{"id": 2678178, "title": "The Battle of Wangapore", "work_id": 65264, "role": "director", "role_id": 938, "is_primary": true}, {"id": 2678828, "title": "Bride and groom", "work_id": 65596, "role": "director", "role_id": 938, "is_primary": true}, {"id": 2645430, "title": "Let battle commence", "work_id": 69600, "role": "director", "role_id": 938, "is_primary": true}], "also_known_as": "", "date_of_birth": "", "date_of_death": "", "genders": [], "languages": [], "places_of_operation": [], "biography": "", "biography_author": null, "date_of_biography": "2023-08-11T19:27:13.598031+10:00", "external_links": [], "uuid": "a33ae3fe-2489-4e0d-a43a-20c7a7357ab4", "source": {"name": "Vernon", "slug": "vernon"}, "source_identifier": "22201", "external_references": [], "date_modified": "2025-03-07T00:00:29.861604+11:00"}, {"id": 12930, "name": "Grasshopper Group", "roles_in_work": [{"id": 2678827, "title": "Bride and groom", "work_id": 65596, "role": "production company", "role_id": 941, "is_primary": true}, {"id": 857500, "title": "Raving waving", "work_id": 72063, "role": "production company", "role_id": 941, "is_primary": true}, {"id": 2645429, "title": "Let battle commence", "work_id": 69600, "role": "production company", "role_id": 941, "is_primary": true}, {"id": 2678177, "title": "The Battle of Wangapore", "work_id": 65264, "role": "production company", "role_id": 941, "is_primary": true}], "also_known_as": "", "date_of_birth": "", "date_of_death": "", "genders": [], "languages": [], "places_of_operation": [], "biography": "", "biography_author": null, "date_of_biography": "2023-08-11T19:27:12.973147+10:00", "external_links": [], "uuid": "5e4f1ea3-1173-441f-ab0d-e775eb380877", "source": {"name": "Vernon", "slug": "vernon"}, "source_identifier": "8857", "external_references": [], "date_modified": "2025-03-07T00:00:29.274965+11:00"}, {"id": 12929, "name": "United States. Army Pictorial Service", "roles_in_work": [{"id": 2644125, "title": "The Battle of San Pietro", "work_id": 65263, "role": "production company", "role_id": 941, "is_primary": true}, {"id": 2408203, "title": "Fundamentals of carrier telephony. Pt 1.  Principles and applications", "work_id": 89862, "role": "production company", "role_id": 941, "is_primary": true}], "also_known_as": "", "date_of_birth": "", "date_of_death": "", "genders": [], "languages": [], "places_of_operation": [], "biography": "", "biography_author": null, "date_of_biography": "2023-08-11T16:55:32.350820+10:00", "external_links": [], "uuid": "c35d0739-fe73-4dd2-b391-fd9ea57e535c", "source": {"name": "Vernon", "slug": "vernon"}, "source_identifier": "13872", "external_references": [], "date_modified": "2025-03-05T12:11:24.443817+11:00"}]}