{"count": 28687, "next": "https://api.acmi.net.au/creators/?page=1772", "previous": "https://api.acmi.net.au/creators/?page=1770", "results": [{"id": 27026, "name": "Frederick Warne", "roles_in_work": [{"id": 2282353, "title": "The Tale of the Flopsy bunnies and Mrs. Tittlemouse", "work_id": 85115, "role": "production company", "role_id": 941, "is_primary": true}], "also_known_as": "", "date_of_birth": "", "date_of_death": "", "genders": [], "languages": [], "places_of_operation": [], "biography": "", "biography_author": null, "date_of_biography": "2023-05-09T18:02:33.444969+10:00", "external_links": [], "uuid": "ade5b3af-f404-4184-8340-1712bbda470e", "source": {"name": "Vernon", "slug": "vernon"}, "source_identifier": "19286", "external_references": [], "date_modified": "2023-06-14T16:33:30.576250+10:00"}, {"id": 27022, "name": "A pelemele FILM GmbH Production", "roles_in_work": [{"id": 2260845, "title": "Salmonberries", "work_id": 85111, "role": "production company", "role_id": 941, "is_primary": true}], "also_known_as": "", "date_of_birth": "", "date_of_death": "", "genders": [], "languages": [], "places_of_operation": [], "biography": "", "biography_author": null, "date_of_biography": "2023-05-09T17:28:47.300545+10:00", "external_links": [], "uuid": "1e8dd218-14b8-432c-be5c-845f0fdee1ee", "source": {"name": "Vernon", "slug": "vernon"}, "source_identifier": "4956", "external_references": [{"id": 38824, "source": {"name": "Wikidata", "slug": "wikidata"}, "source_identifier": "Q121159761"}], "date_modified": "2023-09-05T17:13:37.624327+10:00"}, {"id": 27021, "name": "Jim Gamble Puppet Production", "roles_in_work": [{"id": 2326451, "title": "The Adventures of Peer Gynt", "work_id": 85109, "role": "production company", "role_id": 941, "is_primary": true}], "also_known_as": "", "date_of_birth": "", "date_of_death": "", "genders": [], "languages": [], "places_of_operation": [], "biography": "", "biography_author": null, "date_of_biography": "2023-05-09T19:19:45.916896+10:00", "external_links": [], "uuid": "f19e04b1-2ccc-4e34-a112-06d4213592df", "source": {"name": "Vernon", "slug": "vernon"}, "source_identifier": "9601", "external_references": [], "date_modified": "2023-06-14T16:33:30.576250+10:00"}, {"id": 27020, "name": "Sullivan Bluth Studios Ireland", "roles_in_work": [{"id": 2085308, "title": "All dogs go to heaven", "work_id": 85108, "role": "production company", "role_id": 941, "is_primary": true}], "also_known_as": "", "date_of_birth": "", "date_of_death": "", "genders": [], "languages": [], "places_of_operation": [], "biography": "", "biography_author": null, "date_of_biography": "2023-05-09T11:56:03.939353+10:00", "external_links": [], "uuid": "f6d25489-433b-4010-bef8-3669940c1c65", "source": {"name": "Vernon", "slug": "vernon"}, "source_identifier": "13039", "external_references": [], "date_modified": "2023-06-14T16:33:30.576250+10:00"}, {"id": 27018, "name": "A I F", "roles_in_work": [{"id": 2473943, "title": "Australian aborigines: living off the land", "work_id": 85104, "role": "production company", "role_id": 941, "is_primary": true}], "also_known_as": "", "date_of_birth": "", "date_of_death": "", "genders": [], "languages": [], "places_of_operation": [], "biography": "", "biography_author": null, "date_of_biography": "2023-08-16T03:40:35.458297+10:00", "external_links": [], "uuid": "f2c9f513-b182-4b3d-bc9d-ae84f7198780", "source": {"name": "Vernon", "slug": "vernon"}, "source_identifier": "4940", "external_references": [{"id": 38375, "source": {"name": "Wikidata", "slug": "wikidata"}, "source_identifier": "Q121222977"}], "date_modified": "2023-09-05T17:13:31.351938+10:00"}, {"id": 27015, "name": "Serious Business", "roles_in_work": [{"id": 3097708, "title": "History & styles of rock music in Australia", "work_id": 85102, "role": "production company", "role_id": 941, "is_primary": true}], "also_known_as": "", "date_of_birth": "", "date_of_death": "", "genders": [], "languages": [], "places_of_operation": [], "biography": "", "biography_author": null, "date_of_biography": "2023-05-09T18:38:11.140126+10:00", "external_links": [], "uuid": "026967e0-6de7-4603-a76d-6b0d9428006c", "source": {"name": "Vernon", "slug": "vernon"}, "source_identifier": "12449", "external_references": [{"id": 40925, "source": {"name": "Wikidata", "slug": "wikidata"}, "source_identifier": "Q121315086"}], "date_modified": "2025-05-09T22:35:18.554019+10:00"}, {"id": 27014, "name": "Australian Contemporary Music Development Co (AUSMUSIC)", "roles_in_work": [{"id": 3097709, "title": "History & styles of rock music in Australia", "work_id": 85102, "role": "production company", "role_id": 941, "is_primary": true}, {"id": 3097704, "title": "Songlines: contemporary aboriginal music", "work_id": 85101, "role": "production company", "role_id": 941, "is_primary": true}], "also_known_as": "", "date_of_birth": "", "date_of_death": "", "genders": [], "languages": [], "places_of_operation": [], "biography": "", "biography_author": null, "date_of_biography": "2023-05-09T18:38:13.938696+10:00", "external_links": [], "uuid": "ad5e2635-8edb-4bcb-b342-685de26683db", "source": {"name": "Vernon", "slug": "vernon"}, "source_identifier": "5573", "external_references": [{"id": 34993, "source": {"name": "Wikidata", "slug": "wikidata"}, "source_identifier": "Q121035602"}], "date_modified": "2025-05-09T22:35:19.140846+10:00"}, {"id": 27013, "name": "Greg Ferguson", "roles_in_work": [{"id": 3097697, "title": "Sisters are doin' it for themselves: women in the contemporary music industry", "work_id": 85099, "role": "director", "role_id": 938, "is_primary": true}, {"id": 3097696, "title": "Sisters are doin' it for themselves: women in the contemporary music industry", "work_id": 85099, "role": "co-producer", "role_id": 915, "is_primary": true}, {"id": 3097701, "title": "Making a music video on the cheap: from concept to completion", "work_id": 85100, "role": "producer/director", "role_id": 31, "is_primary": true}], "also_known_as": "", "date_of_birth": "", "date_of_death": "", "genders": [], "languages": [], "places_of_operation": [], "biography": "", "biography_author": null, "date_of_biography": "2023-05-09T18:38:16.132962+10:00", "external_links": [], "uuid": "9b714c55-aeca-4f8a-bca1-af411d6a5560", "source": {"name": "Vernon", "slug": "vernon"}, "source_identifier": "20046", "external_references": [{"id": 40297, "source": {"name": "Wikidata", "slug": "wikidata"}, "source_identifier": "Q121222981"}], "date_modified": "2025-05-09T22:35:14.385716+10:00"}, {"id": 27011, "name": "Conspiracy Films", "roles_in_work": [{"id": 3097699, "title": "Making a music video on the cheap: from concept to completion", "work_id": 85100, "role": "production company", "role_id": 941, "is_primary": true}, {"id": 3097693, "title": "Sisters are doin' it for themselves: women in the contemporary music industry", "work_id": 85099, "role": "production company", "role_id": 941, "is_primary": true}], "also_known_as": "", "date_of_birth": "", "date_of_death": "", "genders": [], "languages": [], "places_of_operation": [], "biography": "", "biography_author": null, "date_of_biography": "2023-05-09T18:38:15.055755+10:00", "external_links": [], "uuid": "4e6acc30-c7fb-42d5-895f-0d94e65bd01b", "source": {"name": "Vernon", "slug": "vernon"}, "source_identifier": "7023", "external_references": [{"id": 33805, "source": {"name": "Wikidata", "slug": "wikidata"}, "source_identifier": "Q121034709"}], "date_modified": "2025-05-09T22:35:13.201837+10:00"}, {"id": 27010, "name": "AUSMUSIC", "roles_in_work": [{"id": 907992, "title": "How to organise your own music event (PC)", "work_id": 88378, "role": "distributor", "role_id": 437, "is_primary": false}, {"id": 3097692, "title": "Sisters are doin' it for themselves: women in the contemporary music industry", "work_id": 85099, "role": "distributor", "role_id": 437, "is_primary": false}, {"id": 3097698, "title": "Making a music video on the cheap: from concept to completion", "work_id": 85100, "role": "distributor", "role_id": 437, "is_primary": false}, {"id": 3097702, "title": "Songlines: contemporary aboriginal music", "work_id": 85101, "role": "distributor", "role_id": 437, "is_primary": false}, {"id": 3097707, "title": "History & styles of rock music in Australia", "work_id": 85102, "role": "distributor", "role_id": 437, "is_primary": false}, {"id": 3097715, "title": "Basic music industry skills", "work_id": 115436, "role": "distributor", "role_id": 437, "is_primary": false}, {"id": 3097716, "title": "Basic music industry skills", "work_id": 115436, "role": "production company", "role_id": 941, "is_primary": true}, {"id": 3097694, "title": "Sisters are doin' it for themselves: women in the contemporary music industry", "work_id": 85099, "role": "production company", "role_id": 941, "is_primary": true}, {"id": 3097700, "title": "Making a music video on the cheap: from concept to completion", "work_id": 85100, "role": "production company", "role_id": 941, "is_primary": true}, {"id": 907994, "title": "How to organise your own music event (PC)", "work_id": 88378, "role": "production company", "role_id": 941, "is_primary": true}], "also_known_as": "", "date_of_birth": "", "date_of_death": "", "genders": [], "languages": [], "places_of_operation": [], "biography": "", "biography_author": null, "date_of_biography": "2023-05-09T18:38:15.284642+10:00", "external_links": [], "uuid": "edce3243-8f6d-4e25-b5a9-059e13b592a3", "source": {"name": "Vernon", "slug": "vernon"}, "source_identifier": "5548", "external_references": [{"id": 38566, "source": {"name": "Wikidata", "slug": "wikidata"}, "source_identifier": "Q121035985"}], "date_modified": "2025-05-09T22:35:22.763423+10:00"}]}