{"count": 28687, "next": "https://api.acmi.net.au/creators/?page=2363", "previous": "https://api.acmi.net.au/creators/?page=2361", "results": [{"id": 15667, "name": "WH Productions", "roles_in_work": [{"id": 2715756, "title": "How does a rainbow feel?", "work_id": 68600, "role": "production company", "role_id": 941, "is_primary": true}, {"id": 2291689, "title": "Vision. [No. 30]", "work_id": 75569, "role": "production company", "role_id": 941, "is_primary": true}, {"id": 865247, "title": "Vision. [No. 34]", "work_id": 78876, "role": "production company", "role_id": 941, "is_primary": true}, {"id": 2291363, "title": "Vision. [No. 33]", "work_id": 90139, "role": "production company", "role_id": 941, "is_primary": true}, {"id": 2291336, "title": "Vision. [No. 31]", "work_id": 90098, "role": "production company", "role_id": 941, "is_primary": true}, {"id": 2291702, "title": "Vision. [No. 32]", "work_id": 90099, "role": "production company", "role_id": 941, "is_primary": true}], "also_known_as": "", "date_of_birth": "", "date_of_death": "", "genders": [], "languages": [], "places_of_operation": [], "biography": "", "biography_author": null, "date_of_biography": "2023-05-09T18:20:31.888678+10:00", "external_links": [], "uuid": "c7863de9-1f2f-40eb-ae73-efe569233754", "source": {"name": "Vernon", "slug": "vernon"}, "source_identifier": "4017", "external_references": [{"id": 36275, "source": {"name": "Wikidata", "slug": "wikidata"}, "source_identifier": "Q121079358"}], "date_modified": "2025-03-12T01:41:22.073898+11:00"}, {"id": 15666, "name": "Landmark Educational Media", "roles_in_work": [{"id": 2715755, "title": "How does a candle burn?", "work_id": 68599, "role": "production company", "role_id": 941, "is_primary": true}, {"id": 2755185, "title": "The Magic tree", "work_id": 76766, "role": "production company", "role_id": 941, "is_primary": true}], "also_known_as": "", "date_of_birth": "", "date_of_death": "", "genders": [], "languages": [], "places_of_operation": [], "biography": "", "biography_author": null, "date_of_biography": "2023-08-11T17:31:42.556004+10:00", "external_links": [], "uuid": "d8894ff1-71fb-4d43-b68d-ffd060dd144b", "source": {"name": "Vernon", "slug": "vernon"}, "source_identifier": "9897", "external_references": [], "date_modified": "2025-03-12T01:41:21.212222+11:00"}, {"id": 15665, "name": "Harris Watts", "roles_in_work": [{"id": 2766567, "title": "Magnus and the beansteak", "work_id": 72540, "role": "director", "role_id": 938, "is_primary": true}, {"id": 2788864, "title": "On camera: the BBC video production course", "work_id": 115371, "role": "co-director", "role_id": 959, "is_primary": true}, {"id": 2649668, "title": "On camera : The BBC video production course [kit]", "work_id": 81991, "role": "co-director", "role_id": 959, "is_primary": true}, {"id": 2788869, "title": "Editing", "work_id": 98595, "role": "co-director", "role_id": 959, "is_primary": true}, {"id": 2788865, "title": "Camera", "work_id": 98592, "role": "co-director", "role_id": 959, "is_primary": true}, {"id": 2788873, "title": "Interviews", "work_id": 98594, "role": "co-director", "role_id": 959, "is_primary": true}, {"id": 2761571, "title": "How do you read? (TEFC)", "work_id": 68597, "role": "co-producer", "role_id": 915, "is_primary": true}, {"id": 2761578, "title": "How do you read?", "work_id": 96911, "role": "co-producer", "role_id": 915, "is_primary": true}, {"id": 2649667, "title": "On camera : The BBC video production course [kit]", "work_id": 81991, "role": "producer", "role_id": 1089, "is_primary": true}, {"id": 2788863, "title": "Camera", "work_id": 98592, "role": "producer", "role_id": 1089, "is_primary": true}, {"id": 2788876, "title": "On camera: the BBC video production course", "work_id": 115371, "role": "producer", "role_id": 1089, "is_primary": true}, {"id": 2788868, "title": "Editing", "work_id": 98595, "role": "producer", "role_id": 1089, "is_primary": true}, {"id": 2753071, "title": "Planning a programme", "work_id": 98593, "role": "producer", "role_id": 1089, "is_primary": true}, {"id": 2788872, "title": "Interviews", "work_id": 98594, "role": "producer", "role_id": 1089, "is_primary": true}], "also_known_as": "", "date_of_birth": "", "date_of_death": "", "genders": [], "languages": [], "places_of_operation": [], "biography": "", "biography_author": null, "date_of_biography": "2023-05-09T19:54:09.363748+10:00", "external_links": [], "uuid": "f9f8bd75-77a7-4d47-ab22-da38e566fa1a", "source": {"name": "Vernon", "slug": "vernon"}, "source_identifier": "20294", "external_references": [], "date_modified": "2025-03-14T19:46:59.634760+11:00"}, {"id": 15664, "name": "Stephen Rose", "roles_in_work": [{"id": 2761568, "title": "How do you read? (TEFC)", "work_id": 68597, "role": "co-producer", "role_id": 915, "is_primary": true}, {"id": 2761575, "title": "How do you read?", "work_id": 96911, "role": "co-producer", "role_id": 915, "is_primary": true}, {"id": 2761605, "title": "Intimate relations", "work_id": 77519, "role": "producer", "role_id": 1089, "is_primary": true}, {"id": 2761752, "title": "A Touch of sensitivity", "work_id": 77494, "role": "producer", "role_id": 1089, "is_primary": true}, {"id": 1904152, "title": "The War of words Down Under (TEFC)", "work_id": 78262, "role": "producer", "role_id": 1089, "is_primary": true}], "also_known_as": "", "date_of_birth": "", "date_of_death": "", "genders": [], "languages": [], "places_of_operation": [], "biography": "", "biography_author": null, "date_of_biography": "2023-05-09T19:54:34.756413+10:00", "external_links": [], "uuid": "bc317b70-a156-4dad-9713-864591dcc046", "source": {"name": "Vernon", "slug": "vernon"}, "source_identifier": "29079", "external_references": [{"id": 39524, "source": {"name": "Wikidata", "slug": "wikidata"}, "source_identifier": "Q121035646"}], "date_modified": "2025-03-14T17:35:16.973405+11:00"}, {"id": 15662, "name": "Osvaldur Knudsen", "roles_in_work": [{"id": 2241064, "title": "Fire on Heimaey", "work_id": 96675, "role": "co-producers/directors", "role_id": 628, "is_primary": true}, {"id": 1806267, "title": "Birth of an island", "work_id": 96038, "role": "producer", "role_id": 1089, "is_primary": true}, {"id": 2715746, "title": "How clear the hot springs bubble", "work_id": 68594, "role": "producer", "role_id": 1089, "is_primary": true}, {"id": 753096, "title": "Sequel to Surtsey", "work_id": 72672, "role": "producer/director", "role_id": 31, "is_primary": true}, {"id": 825879, "title": "Askja on fire: volcanic eruption in Iceland 1961", "work_id": 96084, "role": "production company", "role_id": 941, "is_primary": true}], "also_known_as": "", "date_of_birth": "", "date_of_death": "", "genders": [], "languages": [], "places_of_operation": [], "biography": "", "biography_author": null, "date_of_biography": "2023-05-09T16:53:47.627627+10:00", "external_links": [], "uuid": "069456b3-82c3-43c5-bedb-acf4e27ea28e", "source": {"name": "Vernon", "slug": "vernon"}, "source_identifier": "25983", "external_references": [{"id": 38091, "source": {"name": "Wikidata", "slug": "wikidata"}, "source_identifier": "Q121298778"}], "date_modified": "2025-03-12T01:41:14.478132+11:00"}, {"id": 15661, "name": "Jim Turpie", "roles_in_work": [{"id": 862167, "title": "Growing up safely", "work_id": 76067, "role": "director", "role_id": 938, "is_primary": true}, {"id": 1815245, "title": "This nuclear age", "work_id": 87710, "role": "producer", "role_id": 1089, "is_primary": true}, {"id": 1804766, "title": "Winterfun Canada", "work_id": 90855, "role": "producer", "role_id": 1089, "is_primary": true}, {"id": 1814281, "title": "Profile: Canada", "work_id": 89837, "role": "producer", "role_id": 1089, "is_primary": true}, {"id": 2715739, "title": "Picture Canada", "work_id": 68588, "role": "producer/director", "role_id": 31, "is_primary": true}], "also_known_as": "", "date_of_birth": null, "date_of_death": null, "genders": [], "languages": [], "places_of_operation": [], "biography": "", "biography_author": null, "date_of_biography": null, "external_links": [], "uuid": "ab7df7b5-08df-4203-a909-82ebe63182ea", "source": {"name": "Vernon", "slug": "vernon"}, "source_identifier": "21927", "external_references": [], "date_modified": "2025-03-12T01:41:09.319498+11:00"}, {"id": 15660, "name": "Kodak Canada Inc.", "roles_in_work": [{"id": 2715738, "title": "Picture Canada", "work_id": 68588, "role": "production company", "role_id": 941, "is_primary": true}], "also_known_as": "", "date_of_birth": null, "date_of_death": null, "genders": [], "languages": [], "places_of_operation": [], "biography": "", "biography_author": null, "date_of_biography": null, "external_links": [], "uuid": "5a4c94c4-5662-4e1d-ab6e-0aa7bba36960", "source": {"name": "Vernon", "slug": "vernon"}, "source_identifier": "9812", "external_references": [], "date_modified": "2025-03-12T01:41:08.724475+11:00"}, {"id": 15659, "name": "FSM Films", "roles_in_work": [{"id": 870107, "title": "How about you?", "work_id": 86097, "role": "production company", "role_id": 941, "is_primary": true}, {"id": 2715734, "title": "How about you? (TEFC)", "work_id": 68585, "role": "production company", "role_id": 941, "is_primary": true}], "also_known_as": "", "date_of_birth": null, "date_of_death": null, "genders": [], "languages": [], "places_of_operation": [], "biography": "", "biography_author": null, "date_of_biography": null, "external_links": [], "uuid": "eade4a15-357e-41aa-bcb0-45a7aced7e76", "source": {"name": "Vernon", "slug": "vernon"}, "source_identifier": "8591", "external_references": [], "date_modified": "2025-03-12T01:41:05.512017+11:00"}, {"id": 15658, "name": "Pandora Films", "roles_in_work": [{"id": 2650580, "title": "Underground", "work_id": 115742, "role": "production company", "role_id": 941, "is_primary": true}, {"id": 2174686, "title": "Monsoon wedding [DVD]", "work_id": 94165, "role": "production company", "role_id": 941, "is_primary": true}, {"id": 802281, "title": "Underground", "work_id": 89301, "role": "production company", "role_id": 941, "is_primary": true}, {"id": 1997038, "title": "Life on a string = Bian zou bian chang [NTSC]", "work_id": 93098, "role": "production company", "role_id": 941, "is_primary": true}, {"id": 2117281, "title": "Black cat, white cat", "work_id": 89173, "role": "production company", "role_id": 941, "is_primary": true}, {"id": 859703, "title": "The Titan: story of Michelangelo (TEFC)", "work_id": 73856, "role": "production company", "role_id": 941, "is_primary": true}, {"id": 2715733, "title": "How about you? (TEFC)", "work_id": 68585, "role": "production company", "role_id": 941, "is_primary": true}, {"id": 869801, "title": "Dead man [Widescreen]", "work_id": 85847, "role": "production company", "role_id": 941, "is_primary": true}, {"id": 870106, "title": "How about you?", "work_id": 86097, "role": "production company", "role_id": 941, "is_primary": true}, {"id": 1994931, "title": "Life on a string = Bian zou bian chang", "work_id": 90688, "role": "production company", "role_id": 941, "is_primary": true}, {"id": 2169583, "title": "Kama sutra: a tale of love", "work_id": 95255, "role": "production company", "role_id": 941, "is_primary": true}, {"id": 2283081, "title": "Whale rider. Cracker bag", "work_id": 94859, "role": "production company", "role_id": 941, "is_primary": true}, {"id": 2262162, "title": "Samsara", "work_id": 95071, "role": "production company", "role_id": 941, "is_primary": true}, {"id": 2170843, "title": "Kama sutra", "work_id": 94065, "role": "production company", "role_id": 941, "is_primary": true}, {"id": 2000064, "title": "The Man without a past", "work_id": 94897, "role": "production company", "role_id": 941, "is_primary": true}, {"id": 2244163, "title": "Flirt", "work_id": 85613, "role": "production company", "role_id": 941, "is_primary": true}, {"id": 2180434, "title": "Dead man", "work_id": 91444, "role": "production company", "role_id": 941, "is_primary": true}], "also_known_as": "", "date_of_birth": "", "date_of_death": "", "genders": [], "languages": [], "places_of_operation": [], "biography": "", "biography_author": null, "date_of_biography": "2023-05-09T18:04:39.500767+10:00", "external_links": [], "uuid": "1cb83731-d021-44fc-bb80-74eb1935110a", "source": {"name": "Vernon", "slug": "vernon"}, "source_identifier": "11260", "external_references": [], "date_modified": "2025-03-12T01:41:04.916651+11:00"}, {"id": 15657, "name": "Raymond Leach", "roles_in_work": [{"id": 761619, "title": "The Case of the travelling garden", "work_id": 76314, "role": "director", "role_id": 938, "is_primary": true}, {"id": 2715729, "title": "How a cheque book works", "work_id": 68583, "role": "director", "role_id": 938, "is_primary": true}], "also_known_as": "", "date_of_birth": null, "date_of_death": null, "genders": [], "languages": [], "places_of_operation": [], "biography": "", "biography_author": null, "date_of_biography": null, "external_links": [], "uuid": "a718f174-cf1d-40f0-9490-94f45f2b8ce2", "source": {"name": "Vernon", "slug": "vernon"}, "source_identifier": "27196", "external_references": [], "date_modified": "2025-03-12T01:41:02.352283+11:00"}]}