{"count": 28687, "next": "https://api.acmi.net.au/creators/?page=2221", "previous": "https://api.acmi.net.au/creators/?page=2219", "results": [{"id": 18282, "name": "Cyril Bursell", "roles_in_work": [{"id": 2468249, "title": "The Textile touch", "work_id": 73635, "role": "producer", "role_id": 1089, "is_primary": true}], "also_known_as": "", "date_of_birth": "", "date_of_death": "", "genders": [], "languages": [], "places_of_operation": [], "biography": "", "biography_author": null, "date_of_biography": "2023-08-14T11:37:24.235562+10:00", "external_links": [], "uuid": "a0120cb4-14b3-4097-aefe-6f49c96f10d6", "source": {"name": "Vernon", "slug": "vernon"}, "source_identifier": "32181", "external_references": [], "date_modified": "2023-08-14T11:37:24.235773+10:00"}, {"id": 18281, "name": "McCurdy-Bursell Films", "roles_in_work": [{"id": 2468248, "title": "The Textile touch", "work_id": 73635, "role": "production company", "role_id": 941, "is_primary": true}], "also_known_as": "", "date_of_birth": "", "date_of_death": "", "genders": [], "languages": [], "places_of_operation": [], "biography": "", "biography_author": null, "date_of_biography": "2023-08-14T11:37:23.610924+10:00", "external_links": [], "uuid": "ec1bada5-be8c-47e8-b9ff-99c4bd7acc56", "source": {"name": "Vernon", "slug": "vernon"}, "source_identifier": "32180", "external_references": [], "date_modified": "2023-08-14T11:37:23.611129+10:00"}, {"id": 18280, "name": "Richard S. Milbauer", "roles_in_work": [{"id": 2466547, "title": "Testing multiple handicapped children", "work_id": 73632, "role": "director", "role_id": 938, "is_primary": true}], "also_known_as": "", "date_of_birth": "", "date_of_death": "", "genders": [], "languages": [], "places_of_operation": [], "biography": "", "biography_author": null, "date_of_biography": "2023-08-14T10:59:47.443537+10:00", "external_links": [], "uuid": "73daf629-e2c2-4fd3-9c42-8159af596ac9", "source": {"name": "Vernon", "slug": "vernon"}, "source_identifier": "32179", "external_references": [], "date_modified": "2023-08-14T10:59:47.443786+10:00"}, {"id": 18279, "name": "Newsfilm", "roles_in_work": [{"id": 2466546, "title": "Testing multiple handicapped children", "work_id": 73632, "role": "production company", "role_id": 941, "is_primary": true}], "also_known_as": "", "date_of_birth": "", "date_of_death": "", "genders": [], "languages": [], "places_of_operation": [], "biography": "", "biography_author": null, "date_of_biography": "2023-08-14T10:59:46.833265+10:00", "external_links": [], "uuid": "cc045f75-e437-44c4-b526-dec19abbfbe0", "source": {"name": "Vernon", "slug": "vernon"}, "source_identifier": "32178", "external_references": [], "date_modified": "2023-08-14T10:59:46.833498+10:00"}, {"id": 18278, "name": "Mirror Image Films", "roles_in_work": [{"id": 2466528, "title": "Tennis basics: the forehand", "work_id": 73619, "role": "production company", "role_id": 941, "is_primary": true}, {"id": 2466530, "title": "Tennis basics: the volley", "work_id": 73621, "role": "production company", "role_id": 941, "is_primary": true}, {"id": 2466529, "title": "Tennis basics: the serve", "work_id": 73620, "role": "production company", "role_id": 941, "is_primary": true}, {"id": 2749398, "title": "Tennis basics: the backhand", "work_id": 96786, "role": "production company", "role_id": 941, "is_primary": true}], "also_known_as": "", "date_of_birth": "", "date_of_death": "", "genders": [], "languages": [], "places_of_operation": [], "biography": "", "biography_author": null, "date_of_biography": "2023-08-14T10:59:25.246361+10:00", "external_links": [], "uuid": "eec39801-3c8b-46a2-a14d-3a0f3b4f23e8", "source": {"name": "Vernon", "slug": "vernon"}, "source_identifier": "31381", "external_references": [], "date_modified": "2025-03-12T23:58:09.826536+11:00"}, {"id": 18276, "name": "I Wilson", "roles_in_work": [{"id": 2646581, "title": "Ten times empty", "work_id": 73612, "role": "director", "role_id": 938, "is_primary": true}], "also_known_as": "", "date_of_birth": null, "date_of_death": null, "genders": [], "languages": [], "places_of_operation": [], "biography": "", "biography_author": null, "date_of_biography": null, "external_links": [], "uuid": "530adf33-8451-48ec-96cc-f1f543c528fc", "source": {"name": "Vernon", "slug": "vernon"}, "source_identifier": "20721", "external_references": [], "date_modified": "2025-03-05T13:06:50.786053+11:00"}, {"id": 18275, "name": "J Tristram", "roles_in_work": [{"id": 2646580, "title": "Ten times empty", "work_id": 73612, "role": "producer", "role_id": 1089, "is_primary": true}], "also_known_as": "", "date_of_birth": null, "date_of_death": null, "genders": [], "languages": [], "places_of_operation": [], "biography": "", "biography_author": null, "date_of_biography": null, "external_links": [], "uuid": "01c3d0f0-3239-4113-a044-254b42ef4894", "source": {"name": "Vernon", "slug": "vernon"}, "source_identifier": "20962", "external_references": [], "date_modified": "2025-03-05T13:06:50.205334+11:00"}, {"id": 18271, "name": "Lloyd Reckford", "roles_in_work": [{"id": 2466520, "title": "Ten bob in winter", "work_id": 73608, "role": "director", "role_id": 938, "is_primary": true}], "also_known_as": "", "date_of_birth": "", "date_of_death": "", "genders": [], "languages": [], "places_of_operation": [], "biography": "", "biography_author": null, "date_of_biography": "2023-08-14T10:59:06.624299+10:00", "external_links": [], "uuid": "e5d5e29b-abb8-4812-8782-55a14dcf6910", "source": {"name": "Vernon", "slug": "vernon"}, "source_identifier": "32341", "external_references": [], "date_modified": "2023-08-14T10:59:06.624547+10:00"}, {"id": 18270, "name": "British Film Institute Experimental Film Fund", "roles_in_work": [{"id": 2466519, "title": "Ten bob in winter", "work_id": 73608, "role": "production company", "role_id": 941, "is_primary": true}, {"id": 2468312, "title": "The Vision of William Blake (TEFC)", "work_id": 74397, "role": "production company", "role_id": 941, "is_primary": true}], "also_known_as": "", "date_of_birth": "", "date_of_death": "", "genders": [], "languages": [], "places_of_operation": [], "biography": "", "biography_author": null, "date_of_biography": "2023-08-14T11:38:57.810364+10:00", "external_links": [], "uuid": "11435fdf-ef9b-4c45-9726-fc44ee74b517", "source": {"name": "Vernon", "slug": "vernon"}, "source_identifier": "32342", "external_references": [], "date_modified": "2023-08-14T11:38:57.810636+10:00"}, {"id": 18266, "name": "Bayside Productions", "roles_in_work": [{"id": 2323354, "title": "Temperament unsuited", "work_id": 73598, "role": "production company", "role_id": 941, "is_primary": true}], "also_known_as": "", "date_of_birth": "", "date_of_death": "", "genders": [], "languages": [], "places_of_operation": [], "biography": "", "biography_author": null, "date_of_biography": "2023-05-09T19:15:34.884231+10:00", "external_links": [], "uuid": "d8a5731a-8e1a-43a5-8cb5-902f938166b9", "source": {"name": "Vernon", "slug": "vernon"}, "source_identifier": "32339", "external_references": [{"id": 35948, "source": {"name": "Wikidata", "slug": "wikidata"}, "source_identifier": "Q121126537"}], "date_modified": "2023-09-05T17:56:43.739619+10:00"}]}