{"count": 28687, "next": "https://api.acmi.net.au/creators/?page=229", "previous": "https://api.acmi.net.au/creators/?page=227", "results": [{"id": 83327, "name": "Mario Ruspoli", "roles_in_work": [{"id": 3105477, "title": "Chaval", "work_id": 116481, "role": "director", "role_id": 938, "is_primary": true}], "also_known_as": "", "date_of_birth": "1925-06-17", "date_of_death": "1986-06-13", "genders": [{"id": 9, "name": "Male", "slug": "male"}], "languages": [{"id": 4, "name": "French", "slug": "french"}], "places_of_operation": [{"id": 19, "name": "Italy", "slug": "italy"}], "biography": "", "biography_author": null, "date_of_biography": "2023-05-09T13:28:55.103794+10:00", "external_links": [], "uuid": "c107edfc-12a4-4d94-a573-c3032292e75f", "source": {"name": "Vernon", "slug": "vernon"}, "source_identifier": "31341", "external_references": [{"id": 41942, "source": {"name": "Wikidata", "slug": "wikidata"}, "source_identifier": "Q3293557"}, {"id": 55165, "source": {"name": "VIAF", "slug": "viaf"}, "source_identifier": "79174524"}, {"id": 55166, "source": {"name": "LOC Auth", "slug": "loc-auth"}, "source_identifier": "n86145766"}, {"id": 55167, "source": {"name": "WorldCat", "slug": "worldcat"}, "source_identifier": "lccn-n86145766"}], "date_modified": "2025-05-22T23:06:39.560946+10:00"}, {"id": 83326, "name": "Madeleine Casanova-Rodriguez", "roles_in_work": [{"id": 3105466, "title": "Django Reindhardt", "work_id": 116474, "role": "producer", "role_id": 1089, "is_primary": true}], "also_known_as": "", "date_of_birth": "", "date_of_death": "", "genders": [], "languages": [], "places_of_operation": [], "biography": "", "biography_author": null, "date_of_biography": "2023-05-09T15:16:46.219383+10:00", "external_links": [], "uuid": "bd4d5ef3-5afe-4911-b431-1463bfdc7d54", "source": {"name": "Vernon", "slug": "vernon"}, "source_identifier": "31340", "external_references": [{"id": 32417, "source": {"name": "Wikidata", "slug": "wikidata"}, "source_identifier": "Q121271308"}], "date_modified": "2025-05-22T23:06:32.197283+10:00"}, {"id": 83325, "name": "Bernard Meusnier", "roles_in_work": [{"id": 3105464, "title": "Jacques Henri Lartigue, Peintre et Photographe", "work_id": 116471, "role": "producer", "role_id": 1089, "is_primary": true}], "also_known_as": "", "date_of_birth": "", "date_of_death": "", "genders": [], "languages": [], "places_of_operation": [], "biography": "", "biography_author": null, "date_of_biography": "2023-05-09T14:24:31.091609+10:00", "external_links": [], "uuid": "c5369fd1-9292-43c7-8850-ab763806a747", "source": {"name": "Vernon", "slug": "vernon"}, "source_identifier": "31339", "external_references": [{"id": 39600, "source": {"name": "Wikidata", "slug": "wikidata"}, "source_identifier": "Q121271118"}], "date_modified": "2025-05-22T23:06:30.081399+10:00"}, {"id": 83324, "name": "Lauro Venturi", "roles_in_work": [{"id": 3105490, "title": "Picasso Peintre du Siecle = Picasso Artist of the Century", "work_id": 116492, "role": "director", "role_id": 938, "is_primary": true}, {"id": 3105463, "title": "Picasso Peintre du Siecle = Picasso Artist of the Century", "work_id": 116470, "role": "director", "role_id": 938, "is_primary": true}], "also_known_as": "", "date_of_birth": "", "date_of_death": "", "genders": [], "languages": [], "places_of_operation": [], "biography": "", "biography_author": null, "date_of_biography": "2023-05-09T15:33:13.272626+10:00", "external_links": [], "uuid": "c15266c6-6d6c-4c9c-b0a7-20611175cbec", "source": {"name": "Vernon", "slug": "vernon"}, "source_identifier": "31338", "external_references": [{"id": 38343, "source": {"name": "Wikidata", "slug": "wikidata"}, "source_identifier": "Q121035643"}], "date_modified": "2025-05-22T23:10:08.177232+10:00"}, {"id": 83323, "name": "Simon Schiffrin", "roles_in_work": [{"id": 3105489, "title": "Picasso Peintre du Siecle = Picasso Artist of the Century", "work_id": 116492, "role": "producer", "role_id": 1089, "is_primary": true}, {"id": 3105462, "title": "Picasso Peintre du Siecle = Picasso Artist of the Century", "work_id": 116470, "role": "producer", "role_id": 1089, "is_primary": true}], "also_known_as": "", "date_of_birth": "", "date_of_death": "", "genders": [], "languages": [], "places_of_operation": [], "biography": "", "biography_author": null, "date_of_biography": "2023-05-09T15:33:13.045466+10:00", "external_links": [], "uuid": "be232f7e-13e9-4576-bea0-94f3b4deda94", "source": {"name": "Vernon", "slug": "vernon"}, "source_identifier": "31337", "external_references": [{"id": 36061, "source": {"name": "Wikidata", "slug": "wikidata"}, "source_identifier": "Q121035073"}], "date_modified": "2025-05-22T23:10:07.573029+10:00"}, {"id": 83322, "name": "Francis Lacassin", "roles_in_work": [{"id": 3105461, "title": "Joan of Arc", "work_id": 116469, "role": "director", "role_id": 938, "is_primary": true}], "also_known_as": "", "date_of_birth": "1903-01-06", "date_of_death": "1956-11-19", "genders": [{"id": 9, "name": "Male", "slug": "male"}], "languages": [{"id": 1, "name": "English", "slug": "english"}], "places_of_operation": [{"id": 10, "name": "United Kingdom", "slug": "united-kingdom"}], "biography": "Francis Loftus Sullivan (6 January 1903 – 19 November 1956) was an English film and stage actor.", "biography_author": "Wikidata", "date_of_biography": "2023-08-15T10:56:24.513967+10:00", "external_links": [{"id": 2042, "uri": "https://en.wikipedia.org/wiki/Francis_L._Sullivan"}], "uuid": "af977456-2eff-478c-9282-e9ea7a2eccc8", "source": {"name": "Vernon", "slug": "vernon"}, "source_identifier": "31336", "external_references": [{"id": 8815, "source": {"name": "Wikidata", "slug": "wikidata"}, "source_identifier": "Q969601"}, {"id": 8816, "source": {"name": "VIAF", "slug": "viaf"}, "source_identifier": "2672389"}, {"id": 8817, "source": {"name": "LOC Auth", "slug": "loc-auth"}, "source_identifier": "n85376668"}, {"id": 8818, "source": {"name": "WorldCat", "slug": "worldcat"}, "source_identifier": "lccn-n85376668"}], "date_modified": "2025-05-22T23:06:27.874891+10:00"}, {"id": 83321, "name": "Rene-Jean Bouyer", "roles_in_work": [{"id": 3105457, "title": "Dans les Caves du Fort D'ivry", "work_id": 116465, "role": "director", "role_id": 938, "is_primary": true}], "also_known_as": "", "date_of_birth": "", "date_of_death": "", "genders": [], "languages": [], "places_of_operation": [], "biography": "", "biography_author": null, "date_of_biography": "2023-05-09T14:44:36.126305+10:00", "external_links": [], "uuid": "aef55ad7-eb09-4792-961f-0b7eb6031409", "source": {"name": "Vernon", "slug": "vernon"}, "source_identifier": "31335", "external_references": [{"id": 39176, "source": {"name": "Wikidata", "slug": "wikidata"}, "source_identifier": "Q120205313"}], "date_modified": "2025-05-22T23:06:24.539398+10:00"}, {"id": 83320, "name": "Pierre Roustang", "roles_in_work": [{"id": 3105454, "title": "Antoine et Colette", "work_id": 116463, "role": "producer", "role_id": 1089, "is_primary": true}], "also_known_as": "", "date_of_birth": "", "date_of_death": "", "genders": [], "languages": [], "places_of_operation": [], "biography": "", "biography_author": null, "date_of_biography": "2023-05-09T12:26:35.396272+10:00", "external_links": [], "uuid": "e4b14104-2729-4163-bba2-226d52e1a17b", "source": {"name": "Vernon", "slug": "vernon"}, "source_identifier": "31334", "external_references": [{"id": 37638, "source": {"name": "Wikidata", "slug": "wikidata"}, "source_identifier": "Q3386878"}], "date_modified": "2025-05-22T23:06:22.192574+10:00"}, {"id": 83319, "name": "Philippe Lifschitz", "roles_in_work": [{"id": 3105452, "title": "Le Rideau Cramoisi = the Crimson Curtain", "work_id": 116462, "role": "producer", "role_id": 1089, "is_primary": true}], "also_known_as": "", "date_of_birth": null, "date_of_death": null, "genders": [], "languages": [], "places_of_operation": [], "biography": "", "biography_author": null, "date_of_biography": null, "external_links": [], "uuid": "dcf1a2a4-1281-4df8-9cba-e02c6018cbe9", "source": {"name": "Vernon", "slug": "vernon"}, "source_identifier": "31375", "external_references": [{"id": 42839, "source": {"name": "Wikidata", "slug": "wikidata"}, "source_identifier": "Q121315652"}], "date_modified": "2025-05-22T23:06:20.739938+10:00"}, {"id": 83318, "name": "Hubert Chonzu", "roles_in_work": [{"id": 3105448, "title": "Les Miserables (Animated Version)", "work_id": 116460, "role": "director", "role_id": 938, "is_primary": true}], "also_known_as": "", "date_of_birth": "", "date_of_death": "", "genders": [], "languages": [], "places_of_operation": [], "biography": "", "biography_author": null, "date_of_biography": "2023-08-11T19:25:11.256448+10:00", "external_links": [], "uuid": "7e0e1636-1bb4-4722-b0cb-77dad00bcfcc", "source": {"name": "Vernon", "slug": "vernon"}, "source_identifier": "31333", "external_references": [{"id": 38591, "source": {"name": "Wikidata", "slug": "wikidata"}, "source_identifier": "Q121144109"}], "date_modified": "2025-05-22T23:06:18.851385+10:00"}]}