{"count": 28687, "next": "https://api.acmi.net.au/creators/?page=810", "previous": "https://api.acmi.net.au/creators/?page=808", "results": [{"id": 77493, "name": "Eugene Corr", "roles_in_work": [{"id": 2186411, "title": "Desert bloom", "work_id": 83825, "role": "director", "role_id": 938, "is_primary": true}], "also_known_as": "", "date_of_birth": "1947-02-24", "date_of_death": "", "genders": [{"id": 9, "name": "Male", "slug": "male"}], "languages": [], "places_of_operation": [], "biography": "", "biography_author": null, "date_of_biography": "2023-05-09T15:01:52.133357+10:00", "external_links": [], "uuid": "b2afc578-a329-4663-abb7-12d0d87cfb1a", "source": {"name": "Vernon", "slug": "vernon"}, "source_identifier": "18903", "external_references": [{"id": 8749, "source": {"name": "Wikidata", "slug": "wikidata"}, "source_identifier": "Q84731892"}, {"id": 8750, "source": {"name": "VIAF", "slug": "viaf"}, "source_identifier": "301522565"}, {"id": 8751, "source": {"name": "WorldCat", "slug": "worldcat"}, "source_identifier": "viaf-301522565"}], "date_modified": "2023-09-05T19:37:35.806312+10:00"}, {"id": 77492, "name": "Stagescreen", "roles_in_work": [{"id": 2068546, "title": "A Handful of dust", "work_id": 83816, "role": "production company", "role_id": 941, "is_primary": true}], "also_known_as": "", "date_of_birth": "", "date_of_death": "", "genders": [], "languages": [], "places_of_operation": [], "biography": "", "biography_author": null, "date_of_biography": "2023-05-09T11:28:16.914925+10:00", "external_links": [], "uuid": "2d40e5e7-ed70-4c30-b814-a9260b60c156", "source": {"name": "Vernon", "slug": "vernon"}, "source_identifier": "12904", "external_references": [{"id": 38212, "source": {"name": "Wikidata", "slug": "wikidata"}, "source_identifier": "Q121035599"}], "date_modified": "2023-09-06T01:25:43.709494+10:00"}, {"id": 77491, "name": "James Bridges", "roles_in_work": [{"id": 2614517, "title": "The China syndrome", "work_id": 83811, "role": "director", "role_id": 938, "is_primary": true}, {"id": 2125164, "title": "Bright lights, big city", "work_id": 88167, "role": "director", "role_id": 938, "is_primary": true}], "also_known_as": "", "date_of_birth": "03 FEB 1936", "date_of_death": "06 JUN 1993", "genders": [{"id": 9, "name": "Male", "slug": "male"}], "languages": [{"id": 1, "name": "English", "slug": "english"}], "places_of_operation": [{"id": 1, "name": "United States of America", "slug": "united-states-of-america"}], "biography": "James Bridges (February 3, 1936 – June 6, 1993) was an American screenwriter, film director, producer, and actor. He is a two-time Oscar nominee: once for Best Original Screenplay for The China Syndrome and once for Best Adapted Screenplay for The Paper Chase. Source: Wikidata; 01/08/2023", "biography_author": null, "date_of_biography": "2025-02-26T20:11:53.625608+11:00", "external_links": [{"id": 2306, "uri": "https://en.wikipedia.org/wiki/James_Bridges"}], "uuid": "4bfdcff0-8638-410e-b953-65aab5a9cdc1", "source": {"name": "Vernon", "slug": "vernon"}, "source_identifier": "21201", "external_references": [{"id": 9899, "source": {"name": "Wikidata", "slug": "wikidata"}, "source_identifier": "Q977453"}, {"id": 9900, "source": {"name": "VIAF", "slug": "viaf"}, "source_identifier": "66654471"}, {"id": 9901, "source": {"name": "LOC Auth", "slug": "loc-auth"}, "source_identifier": "n87116533"}, {"id": 9902, "source": {"name": "WorldCat", "slug": "worldcat"}, "source_identifier": "lccn-n87116533"}], "date_modified": "2025-02-26T20:11:53.625908+11:00"}, {"id": 77490, "name": "Joni Sighvatsson", "roles_in_work": [{"id": 2614509, "title": "Wild at heart", "work_id": 83809, "role": "producer", "role_id": 1089, "is_primary": true}], "also_known_as": "", "date_of_birth": null, "date_of_death": null, "genders": [], "languages": [], "places_of_operation": [], "biography": "", "biography_author": null, "date_of_biography": null, "external_links": [], "uuid": "1dcb0305-5f75-41d6-b570-df8df7a6e6ce", "source": {"name": "Vernon", "slug": "vernon"}, "source_identifier": "22684", "external_references": [{"id": 34123, "source": {"name": "Wikidata", "slug": "wikidata"}, "source_identifier": "Q121091068"}], "date_modified": "2025-02-26T20:11:44.171467+11:00"}, {"id": 77489, "name": "Pat O'Connor", "roles_in_work": [{"id": 2128842, "title": "Cal", "work_id": 83802, "role": "director", "role_id": 938, "is_primary": true}], "also_known_as": "", "date_of_birth": "1943-01-01", "date_of_death": "", "genders": [{"id": 9, "name": "Male", "slug": "male"}], "languages": [], "places_of_operation": [{"id": 294, "name": "Republic of Ireland", "slug": "republic-of-ireland"}], "biography": "Patrick O'Connor (born 1943 in Ardmore, County Waterford, Ireland) is a BAFTA-winning Irish film director.", "biography_author": "Wikidata", "date_of_biography": "2023-08-01T16:27:37.903616+10:00", "external_links": [{"id": 2814, "uri": "https://en.wikipedia.org/wiki/Pat_O%27Connor_(director)"}], "uuid": "b43ff863-e62c-4f64-b220-27f6de767cf5", "source": {"name": "Vernon", "slug": "vernon"}, "source_identifier": "26081", "external_references": [{"id": 11989, "source": {"name": "Wikidata", "slug": "wikidata"}, "source_identifier": "Q1106742"}, {"id": 11990, "source": {"name": "VIAF", "slug": "viaf"}, "source_identifier": "85111856"}, {"id": 11991, "source": {"name": "LOC Auth", "slug": "loc-auth"}, "source_identifier": "no97004785"}, {"id": 11992, "source": {"name": "WorldCat", "slug": "worldcat"}, "source_identifier": "lccn-no97004785"}], "date_modified": "2023-09-05T23:41:47.231494+10:00"}, {"id": 77488, "name": "Christoph Willing", "roles_in_work": [{"id": 2788696, "title": "Tradition and change: art from the desert", "work_id": 83796, "role": "co-producer", "role_id": 915, "is_primary": true}, {"id": 2788718, "title": "Urban Aboriginal artists", "work_id": 83798, "role": "co-producer", "role_id": 915, "is_primary": true}, {"id": 2788708, "title": "Aboriginal women artists", "work_id": 83797, "role": "co-producer", "role_id": 915, "is_primary": true}, {"id": 2788727, "title": "Aboriginal art: conserving, exhibiting, interpreting", "work_id": 83799, "role": "co-producer", "role_id": 915, "is_primary": true}], "also_known_as": "", "date_of_birth": "", "date_of_death": "", "genders": [], "languages": [], "places_of_operation": [], "biography": "", "biography_author": null, "date_of_biography": "2023-05-09T19:13:49.961203+10:00", "external_links": [], "uuid": "647f8d4c-603f-453b-9c58-519d112c7f9f", "source": {"name": "Vernon", "slug": "vernon"}, "source_identifier": "16941", "external_references": [{"id": 41965, "source": {"name": "Wikidata", "slug": "wikidata"}, "source_identifier": "Q121315640"}], "date_modified": "2025-03-14T19:45:41.578223+11:00"}, {"id": 77487, "name": "Peter Lipscombe", "roles_in_work": [{"id": 2788733, "title": "Talking about Aboriginal art", "work_id": 115367, "role": "co-producer", "role_id": 915, "is_primary": true}, {"id": 2788704, "title": "Aboriginal women artists", "work_id": 83797, "role": "co-producer", "role_id": 915, "is_primary": true}, {"id": 2788714, "title": "Urban Aboriginal artists", "work_id": 83798, "role": "co-producer", "role_id": 915, "is_primary": true}, {"id": 2788724, "title": "Aboriginal art: conserving, exhibiting, interpreting", "work_id": 83799, "role": "co-producer", "role_id": 915, "is_primary": true}, {"id": 2788692, "title": "Tradition and change: art from the desert", "work_id": 83796, "role": "co-producer", "role_id": 915, "is_primary": true}], "also_known_as": "", "date_of_birth": "", "date_of_death": "", "genders": [], "languages": [], "places_of_operation": [], "biography": "", "biography_author": null, "date_of_biography": "2023-05-09T19:13:49.487213+10:00", "external_links": [], "uuid": "5301ea0c-03d4-48c8-b21d-b7d5cb632d27", "source": {"name": "Vernon", "slug": "vernon"}, "source_identifier": "26615", "external_references": [{"id": 42642, "source": {"name": "Wikidata", "slug": "wikidata"}, "source_identifier": "Q121036803"}], "date_modified": "2025-03-14T19:45:43.671989+11:00"}, {"id": 77486, "name": "John Fields", "roles_in_work": [{"id": 902917, "title": "World safari 1: The incredible journey", "work_id": 83795, "role": "co-producer", "role_id": 915, "is_primary": true}], "also_known_as": "", "date_of_birth": null, "date_of_death": null, "genders": [], "languages": [], "places_of_operation": [], "biography": "", "biography_author": null, "date_of_biography": null, "external_links": [], "uuid": "5134a4c7-0107-43c0-b160-06f88127671b", "source": {"name": "Vernon", "slug": "vernon"}, "source_identifier": null, "external_references": [{"id": 38189, "source": {"name": "Wikidata", "slug": "wikidata"}, "source_identifier": "Q121223299"}], "date_modified": "2023-09-05T21:36:18.178738+10:00"}, {"id": 77485, "name": "Alby Mangels", "roles_in_work": [{"id": 902916, "title": "World safari 1: The incredible journey", "work_id": 83795, "role": "co-producer", "role_id": 915, "is_primary": true}], "also_known_as": "", "date_of_birth": null, "date_of_death": null, "genders": [], "languages": [], "places_of_operation": [], "biography": "", "biography_author": null, "date_of_biography": null, "external_links": [], "uuid": "3a8a962a-ed39-414a-a0ec-0ca23d4ea630", "source": {"name": "Vernon", "slug": "vernon"}, "source_identifier": null, "external_references": [{"id": 32838, "source": {"name": "Wikidata", "slug": "wikidata"}, "source_identifier": "Q121086132"}], "date_modified": "2023-09-05T17:23:46.316257+10:00"}, {"id": 77484, "name": "Jo Bell", "roles_in_work": [{"id": 902912, "title": "Life at Little Lon", "work_id": 83794, "role": "co-producer", "role_id": 915, "is_primary": true}, {"id": 2473931, "title": "Oz shorts. Part 1", "work_id": 84172, "role": "co-producer", "role_id": 915, "is_primary": true}, {"id": 2615189, "title": "Five easy pizzas", "work_id": 85007, "role": "producer", "role_id": 1089, "is_primary": true}], "also_known_as": "", "date_of_birth": "", "date_of_death": "", "genders": [], "languages": [], "places_of_operation": [], "biography": "", "biography_author": null, "date_of_biography": "2023-08-16T03:40:27.156837+10:00", "external_links": [], "uuid": "6c2b3a02-03d3-4828-ad6f-5c902eb4e694", "source": {"name": "Vernon", "slug": "vernon"}, "source_identifier": "21950", "external_references": [{"id": 37413, "source": {"name": "Wikidata", "slug": "wikidata"}, "source_identifier": "Q121078755"}], "date_modified": "2025-02-26T20:20:24.531201+11:00"}]}