{"count": 28687, "next": "https://api.acmi.net.au/creators/?page=1259", "previous": "https://api.acmi.net.au/creators/?page=1257", "results": [{"id": 71256, "name": "Les Humanoïdes Associés", "roles_in_work": [{"id": 2307862, "title": "The Long Tomorrow", "work_id": 99479, "role": "publisher", "role_id": 942, "is_primary": true}, {"id": 2307728, "title": "Mémoires d'outre-espace, Histoires courtes 1974–1977", "work_id": 99507, "role": "publisher", "role_id": 942, "is_primary": true}], "also_known_as": "", "date_of_birth": "", "date_of_death": "", "genders": [], "languages": [], "places_of_operation": [], "biography": "Les Humanoïdes Associés (\"Humanoïdes\") is a Franco-American publishing house specializing in comics and graphic novels. Founded in December 1974 by comic artists Mœbius, Jean-Pierre Dionnet, Philippe Druillet, and financial director Bernard Farkas in order to publish Métal Hurlant, it quickly expanded to include a variety of science fiction works, featuring mature themes that were not commonplace in the Franco-Belgian comic world. Considered revolutionary in the comic book form at the time,[3] chiefly due to its focus on the SF genre, the work found in Humanoïdes inspired many generations of authors and filmmakers.", "biography_author": null, "date_of_biography": "2023-05-09T18:47:51.319059+10:00", "external_links": [], "uuid": "f97a2769-75c0-4f27-9051-0d45adb4a687", "source": {"name": "Vernon", "slug": "vernon"}, "source_identifier": "39426", "external_references": [], "date_modified": "2023-06-14T16:33:30.576250+10:00"}, {"id": 71255, "name": "Harry Harrison", "roles_in_work": [{"id": 2307889, "title": "Mechanismo", "work_id": 99478, "role": "author", "role_id": 943, "is_primary": true}], "also_known_as": "Henry Maxwell Dempsey", "date_of_birth": "1925-03-12", "date_of_death": "2012-08-15", "genders": [{"id": 9, "name": "Male", "slug": "male"}], "languages": [{"id": 1, "name": "English", "slug": "english"}, {"id": 94, "name": "Esperanto", "slug": "esperanto"}], "places_of_operation": [{"id": 1, "name": "United States of America", "slug": "united-states-of-america"}], "biography": "Harry Max Harrison (born Henry Maxwell Dempsey; March 12, 1925 – August 15, 2012) was an American science fiction author,  known mostly for his character The Stainless Steel Rat and for his novel Make Room! Make Room! (1966). The latter was the rough basis for the motion picture Soylent Green (1973). Long resident in both Ireland and the United Kingdom, Harrison was involved in the foundation of the Irish Science Fiction Association, and was, with Brian Aldiss, co-president of the Birmingham Science Fiction Group.\nAldiss called him \"a constant peer and great family friend\". His friend Michael Carroll said of Harrison's work: \"Imagine Pirates of the Caribbean or Raiders of the Lost Ark, and picture them as science-fiction novels. They're rip-roaring adventures, but they're stories with a lot of heart.\" Novelist Christopher Priest wrote in an obituary\n\nHarrison was an extremely popular figure in the SF world, renowned for being amiable, outspoken and endlessly amusing. His quickfire, machine-gun delivery of words was a delight to hear, and a reward to unravel: he was funny and self-aware, he enjoyed reporting the follies of others, he distrusted generals, prime ministers and tax officials with sardonic and cruel wit, and above all he made plain his acute intelligence and astonishing range of moral, ethical and literary sensibilities.", "biography_author": "Wikidata", "date_of_biography": "2023-09-05T20:30:58.214643+10:00", "external_links": [{"id": 5860, "uri": "https://en.wikipedia.org/wiki/Harry_Harrison_(writer)"}], "uuid": "87f829c6-a581-48f1-b5f1-7e1c501b97e2", "source": {"name": "Vernon", "slug": "vernon"}, "source_identifier": "39425", "external_references": [{"id": 50649, "source": {"name": "Wikidata", "slug": "wikidata"}, "source_identifier": "Q489193"}, {"id": 54622, "source": {"name": "VIAF", "slug": "viaf"}, "source_identifier": "80169724"}, {"id": 54623, "source": {"name": "LOC Auth", "slug": "loc-auth"}, "source_identifier": "n79070047"}, {"id": 54624, "source": {"name": "WorldCat", "slug": "worldcat"}, "source_identifier": "lccn-n79070047"}], "date_modified": "2023-09-05T20:31:02.654791+10:00"}, {"id": 70607, "name": "Ohnoya Shoten Ltd", "roles_in_work": [{"id": 2686158, "title": "Ohnar 16MM Editor Viewer", "work_id": 99895, "role": "manufacturer", "role_id": 627, "is_primary": true}], "also_known_as": "", "date_of_birth": "", "date_of_death": "", "genders": [], "languages": [], "places_of_operation": [], "biography": "", "biography_author": null, "date_of_biography": "2023-05-09T11:20:03.159266+10:00", "external_links": [], "uuid": "7bccfd60-80c6-4001-b9f7-21029af70c3f", "source": {"name": "Vernon", "slug": "vernon"}, "source_identifier": "39395", "external_references": [], "date_modified": "2025-03-11T12:14:39.602842+11:00"}, {"id": 70602, "name": "York & Son", "roles_in_work": [{"id": 2681839, "title": "Jane Conquest magic lantern slides", "work_id": 100563, "role": "creator", "role_id": 968, "is_primary": true}, {"id": 2681830, "title": "Jane Conquest magic lantern slides", "work_id": 99595, "role": "creator", "role_id": 968, "is_primary": true}, {"id": 2681829, "title": "Jane Conquest magic lantern slides", "work_id": 99594, "role": "creator", "role_id": 968, "is_primary": true}, {"id": 2681828, "title": "Jane Conquest magic lantern slides", "work_id": 99593, "role": "creator", "role_id": 968, "is_primary": true}, {"id": 2681827, "title": "Jane Conquest magic lantern slides", "work_id": 99592, "role": "creator", "role_id": 968, "is_primary": true}, {"id": 2681832, "title": "Jane Conquest magic lantern slides", "work_id": 99579, "role": "creator", "role_id": 968, "is_primary": true}, {"id": 3092186, "title": "Jane Conquest narrative slides", "work_id": 119916, "role": "creator", "role_id": 968, "is_primary": true}, {"id": 3092187, "title": "Jane Conquest narrative slides", "work_id": 119917, "role": "creator", "role_id": 968, "is_primary": true}, {"id": 3092188, "title": "Jane Conquest narrative slides", "work_id": 119918, "role": "creator", "role_id": 968, "is_primary": true}, {"id": 3092189, "title": "Jane Conquest narrative slides", "work_id": 119919, "role": "creator", "role_id": 968, "is_primary": true}, {"id": 3092190, "title": "Jane Conquest narrative slides", "work_id": 99587, "role": "creator", "role_id": 968, "is_primary": true}, {"id": 3092191, "title": "Jane Conquest magic lantern slides", "work_id": 99591, "role": "creator", "role_id": 968, "is_primary": true}, {"id": 2681822, "title": "Jane Conquest magic lantern slides", "work_id": 99588, "role": "creator", "role_id": 968, "is_primary": true}, {"id": 2681824, "title": "Jane Conquest magic lantern slides", "work_id": 99590, "role": "creator", "role_id": 968, "is_primary": true}, {"id": 2681823, "title": "Jane Conquest magic lantern slides", "work_id": 99589, "role": "creator", "role_id": 968, "is_primary": true}, {"id": 3092183, "title": "Jane Conquest narrative slides", "work_id": 119913, "role": "creator", "role_id": 968, "is_primary": true}, {"id": 3092184, "title": "Jane Conquest narrative slides", "work_id": 119914, "role": "creator", "role_id": 968, "is_primary": true}, {"id": 3092185, "title": "Jane Conquest narrative slides", "work_id": 119915, "role": "creator", "role_id": 968, "is_primary": true}, {"id": 3092245, "title": "Magic lantern slide (Medical drawing of human physiology)", "work_id": 122264, "role": "maker", "role_id": 657, "is_primary": false}, {"id": 3092246, "title": "Magic lantern slide (Medical drawing of heart)", "work_id": 122265, "role": "maker", "role_id": 657, "is_primary": false}, {"id": 2681424, "title": "Wooden magic lantern slide (Boy and Moonfish at the Museum)", "work_id": 119592, "role": "maker", "role_id": 657, "is_primary": false}], "also_known_as": "", "date_of_birth": "1863", "date_of_death": "1907", "genders": [], "languages": [], "places_of_operation": [], "biography": "The English lantern slide maker and supplier Frederick York moved with his wife to South Africa on account of ill-health in 1853. The family got two sons and stayed there until 1861, establishing three photographic businesses. Back in England, York started a business in London, in 1863, and soon built up an international reputation for the high quality of his magic lantern slides, being his favourite side of the business. His son William joined him in 1877. By the 1890s the production of York & Son exceeded 100,000 slides per year and by 1900 even more than 140,000.\n\nSlides from 1890 are identifiable by their trade mark, a ‘Y’ with a snake entwined, set in a triangle. Their catalogues covered every subject, like Travel, Comic, Science, Education and Life Model series, which were produced with particular dedication. Their resident scenic painter and stage manager E. T. Green provided the very elaborate backdrops.\n\nAfter Frederick’s death in 1903, his son carried on as a manager, but due to the waning popularity of the magic lantern the business formally dissolved in 1907. Later on the company was taken over by Newton & Co. The new owner closed the existing premises and opened York House in South Kensington. New slides were produced, but also the complete back catalogue of York & Sons was still available. Production continued until the late 1940s.\n\nYORK, FREDERICK\nFounder of York & Son.", "biography_author": null, "date_of_biography": "2025-03-19T22:40:50.320067+11:00", "external_links": [], "uuid": "c10db352-3247-4bc8-ae65-151cfd59176a", "source": {"name": "Vernon", "slug": "vernon"}, "source_identifier": "39337", "external_references": [], "date_modified": "2025-03-19T22:40:50.320287+11:00"}, {"id": 70601, "name": "J.H. Steward", "roles_in_work": [{"id": 2681621, "title": "Steward magic lantern", "work_id": 99578, "role": "creator", "role_id": 968, "is_primary": true}], "also_known_as": "", "date_of_birth": "", "date_of_death": "", "genders": [], "languages": [], "places_of_operation": [], "biography": "", "biography_author": null, "date_of_biography": "2023-05-09T15:28:55.448284+10:00", "external_links": [], "uuid": "7ab2a469-0717-48c4-8e4e-be9918bccc82", "source": {"name": "Vernon", "slug": "vernon"}, "source_identifier": "39424", "external_references": [], "date_modified": "2025-03-07T01:49:49.175677+11:00"}, {"id": 70593, "name": "Carpenter & Westley", "roles_in_work": [{"id": 3092172, "title": "History of John Gilpin hand painted lantern slides", "work_id": 99543, "role": "creator", "role_id": 968, "is_primary": true}], "also_known_as": "", "date_of_birth": "1808", "date_of_death": "1914", "genders": [], "languages": [], "places_of_operation": [], "biography": "(FROM WIKIPEDIA)\nCarpenter and Westley were a British optical, mathematical and scientific instrument makers between 1808 and 1914. The company was founded by Philip Carpenter (18 November 1776, Kidderminster – 20 April 1833, London)[1] and, after his death, was continued by his sister Mary Carpenter alongside former apprentice William Westley.[2] The company's contribution to the development of magic lanterns was significant and Philip Carpenter pioneered the use of copperplate slides.[3]\n\nMagic lanterns had widely been used for entertainment towards the end of the 18th Century, particularly in phantasmagoria and galanty shows, and became more publicly available in the early 1800s. The lantern slides had to be individually hand painted, a time-consuming and costly process, until Carpenter developed a method to mass-produce them using a copper plate printing process. This enabled outline images to be repeatedly printed onto glass and thus create reproducible sets of slides. These outline images could be more easily and quickly hand painted ready for sale. The production of this imagery allowed people to look at magic lanterns in a new way, giving the potential for use in education and other fields. Popular topics included royalty, flora and fauna, and geographical/man-made structures from around the world.[3] The first known set was completed by 1823 showing a number of zoological subjects, followed by astronomical slides. These slides were for the day very good but Carpenter and Westley's slides would in time become highly regarded for their detail.[4] To accompany the slide sets Carpenter produced detailed notes in script form allowing presenters to show the images while running through a prescribed text.\n\nCarpenter focused on the manufacture of magic lanterns for several years and was successful enough to relocate the business. In 1826 he moved to Regent Street and opened \"The Microcosm\", a public gallery and shop centred on microscopes.", "biography_author": null, "date_of_biography": "2025-03-19T22:37:44.213806+11:00", "external_links": [], "uuid": "daeb5e1b-d0fd-4308-8d2f-ff99b3966f8f", "source": {"name": "Vernon", "slug": "vernon"}, "source_identifier": "39329", "external_references": [], "date_modified": "2025-03-19T22:37:44.214127+11:00"}, {"id": 70592, "name": "G.M. Mason", "roles_in_work": [{"id": 3092144, "title": "Mr & Mrs Snapshot slides", "work_id": 99504, "role": "creator", "role_id": 968, "is_primary": true}], "also_known_as": "", "date_of_birth": "Circa 1900", "date_of_death": "", "genders": [], "languages": [], "places_of_operation": [], "biography": "", "biography_author": null, "date_of_biography": "2023-07-05T04:02:09.772917+10:00", "external_links": [], "uuid": "a7481731-6b50-4e90-b5fe-ff2e86fbdd59", "source": {"name": "Vernon", "slug": "vernon"}, "source_identifier": "39421", "external_references": [], "date_modified": "2025-03-19T22:36:31.930183+11:00"}, {"id": 70589, "name": "Jess Johnson", "roles_in_work": [{"id": 2684823, "title": "We Dream of Networks", "work_id": 99889, "role": "artist", "role_id": 505, "is_primary": true}, {"id": 2684821, "title": "We Dream of Networks", "work_id": 119560, "role": "artist", "role_id": 505, "is_primary": true}, {"id": 2684826, "title": "Webwurld", "work_id": 100542, "role": "creator", "role_id": 968, "is_primary": true}], "also_known_as": "", "date_of_birth": "1979", "date_of_death": "", "genders": [{"id": 5, "name": "Female", "slug": "female"}], "languages": [], "places_of_operation": [], "biography": "Jess Johnson was born in Aotearoa/New Zealand in 1979, and lives and works in New York. Her drawing and installation practice is influenced by science fiction, language, culture and technology. In her drawings she depicts complex worlds that combine densely layered patterns, objects and figures within architectural settings. Johnson’s drawings are often displayed within constructed environments that act as physical portals into her speculative worlds. Her video collaborations with Simon Ward have involved translating her drawings into animated Virtual Reality, thus enabling her audience to have the simulated experience of entering the hypnotic realms depicted in her drawings. Jess Johnson’s work has been exhibited Internationally in solo exhibitions at; Jack Hanley Gallery, New York; Art Basel, Hong Kong; Nanzuka Gallery, Tokyo; Talbot Rice Gallery, Edinburgh; National Gallery of Australia; Museum of Contemporary Art, Australia; Auckland Art Gallery and Christchurch Art Gallery, New Zealand.", "biography_author": null, "date_of_biography": "2025-03-11T11:43:29.648898+11:00", "external_links": [], "uuid": "edc8e93b-d6e6-4977-8fc9-318344bb4d1f", "source": {"name": "Vernon", "slug": "vernon"}, "source_identifier": "39251", "external_references": [], "date_modified": "2025-03-11T11:43:29.649284+11:00"}, {"id": 70587, "name": "Mattel", "roles_in_work": [{"id": 3112349, "title": "Bad Street Brawler for NES", "work_id": 119672, "role": "publisher", "role_id": 942, "is_primary": true}, {"id": 1439209, "title": "View-Master (Super Sound Talking Reel Viewer with SpongeBob Squarepants Reels)", "work_id": 114493, "role": "", "role_id": 604, "is_primary": false}, {"id": 1439203, "title": "View-Master (3D Virtual Top Load Viewer)", "work_id": 114494, "role": "", "role_id": 604, "is_primary": false}, {"id": 2681347, "title": "Nintendo NES Power Glove", "work_id": 100532, "role": "creator", "role_id": 968, "is_primary": true}, {"id": 2107927, "title": "Barbie in the nutcracker", "work_id": 92767, "role": "production company", "role_id": 941, "is_primary": true}], "also_known_as": "", "date_of_birth": "", "date_of_death": "", "genders": [], "languages": [], "places_of_operation": [], "biography": "", "biography_author": null, "date_of_biography": "2023-05-09T18:56:35.621304+10:00", "external_links": [], "uuid": "fdcf4520-3b6f-4e25-94bf-796176708141", "source": {"name": "Vernon", "slug": "vernon"}, "source_identifier": "10369", "external_references": [{"id": 32698, "source": {"name": "Wikidata", "slug": "wikidata"}, "source_identifier": "Q121058070"}], "date_modified": "2026-06-12T10:31:02.054588+10:00"}, {"id": 70580, "name": "Edouard Lapierre", "roles_in_work": [{"id": 2129806, "title": "Lapierre cinematograph", "work_id": 99447, "role": "creator", "role_id": 968, "is_primary": true}], "also_known_as": "", "date_of_birth": "", "date_of_death": "", "genders": [], "languages": [], "places_of_operation": [], "biography": "Edouard Virgile Lapierre of Demaria-Lapierre, manufacturers of Magic Lanterns, projectors and cameras", "biography_author": null, "date_of_biography": "2023-05-09T13:17:50.578430+10:00", "external_links": [], "uuid": "15334804-e3e9-46df-a957-2ea152fba8eb", "source": {"name": "Vernon", "slug": "vernon"}, "source_identifier": "39420", "external_references": [], "date_modified": "2023-06-14T16:33:30.576250+10:00"}]}