{"count": 28687, "next": "https://api.acmi.net.au/creators/?page=2843", "previous": "https://api.acmi.net.au/creators/?page=2841", "results": [{"id": 7153, "name": "Nicole Ellis", "roles_in_work": [{"id": 2710383, "title": "Tidal vectors", "work_id": 108268, "role": "creator", "role_id": 968, "is_primary": true}, {"id": 2710388, "title": "Tidal vectors", "work_id": 108268, "role": "collaborator", "role_id": 536, "is_primary": false}], "also_known_as": "", "date_of_birth": "", "date_of_death": "", "genders": [], "languages": [], "places_of_operation": [], "biography": "", "biography_author": null, "date_of_biography": "2023-08-14T11:53:17.477810+10:00", "external_links": [], "uuid": "d9369363-fb43-4be4-9d31-b13093dabbde", "source": {"name": "Vernon", "slug": "vernon"}, "source_identifier": "110771", "external_references": [], "date_modified": "2025-03-11T23:34:46.889990+11:00"}, {"id": 7145, "name": "Gina Czarnecki", "roles_in_work": [{"id": 2710374, "title": "Versifier", "work_id": 108267, "role": "creator", "role_id": 968, "is_primary": true}, {"id": 3108952, "title": "Infected", "work_id": 108876, "role": "creator", "role_id": 968, "is_primary": true}, {"id": 3108955, "title": "Infected", "work_id": 108876, "role": "visual artist", "role_id": 493, "is_primary": false}], "also_known_as": "", "date_of_birth": "1965", "date_of_death": "", "genders": [], "languages": [], "places_of_operation": [], "biography": "Gina Czarnecki was born in Immingham in 1965.  She studied painting and film-making at Wimbledon School of Art 1984-87 and a Postgraduate Degree in Electronic Art at Duncan of Jordanstone College, Dundee from 1991-2.\n\nThrough a varied practice of video, installation, drawing, sculpture and often unconventional range of media, her work engages us with the visceral, psychological and biological grey-areas, hybrids and developments that provoke questions on so many levels.  Her research practice focuses on technologies and culture.\n\nGina has participated in many solo and group shows including ‘Humancraft’ at the Moving Image Centre, New Zealand, Sundance festival, USA, the Medical Museion Copenhagen and a Monograph show at the Bluecoat Liverpool. Group shows have included works in The Brisbane International Arts Festival, Ars Electronica, The Science Gallery London, FACT, Liverpool and National Fine Art Museum of Tawain.\n\nHer work is in private collections and institutional collections including the Australian Centre for Moving Image (ACMI) and Reeldance, Australia. She is a Sundance Alumni having had ‘Cellmass’ and ‘Infected’ featured in 2013 and was awarded a Banff Fleck Fellowship in 2004\n\nShe has been an advisor to programs including art and engagement advisor to The Casebooks Project, Cambridge University, art advisor to The Science Gallery London, and has co-developed an independent wet-lab for Liverpool.\n\nFrom 1997-2003 Gina developed and ran the prestigious MSc program in Electronic Art at Dundee University. Other academic roles have included Head of Experimental film at The Northern Media School Sheffield.\n\nShe is currently collaborating with FACELAB, Liverpool John Moors University and Professor John Hunt, University of Liverpool in ‘Heirloom’ which has been exhibited internationally, and with Imperial College on a new work ‘Blast’.\n\n[source: https://www.ginaczarnecki.com/about; last accessed: 11.02.21]", "biography_author": null, "date_of_biography": "2025-10-03T12:35:03.130107+10:00", "external_links": [], "uuid": "c4a10b13-7744-4413-b1e4-b8afe0b13cbd", "source": {"name": "Vernon", "slug": "vernon"}, "source_identifier": "111532", "external_references": [], "date_modified": "2025-10-03T12:35:03.130426+10:00"}, {"id": 7144, "name": "Jay Rosenblatt", "roles_in_work": [{"id": 2710371, "title": "King of the Jews", "work_id": 108264, "role": "creator", "role_id": 968, "is_primary": true}, {"id": 2710373, "title": "Human remains", "work_id": 108265, "role": "creator", "role_id": 968, "is_primary": true}, {"id": 2710370, "title": "King of the Jews", "work_id": 108264, "role": "film maker", "role_id": 459, "is_primary": false}], "also_known_as": "", "date_of_birth": "1955", "date_of_death": null, "genders": [{"id": 9, "name": "Male", "slug": "male"}], "languages": [], "places_of_operation": [{"id": 1, "name": "United States of America", "slug": "united-states-of-america"}], "biography": "Jay Rosenblatt has been making films since 1980.  He is a recipient of a Guggenheim Fellowship and a Rockefeller Fellowship.  Originally from New York Rosenblatt has lived in San Francisco for many years, where he has taught film and video production at various film schools in the Bay Area, including Stanford University, San Francisco State University and the College of San Mateo.  He is currently the visiting filmmaker at the San  Francisco Art Institute.  He has a Master's Degree in Psychology and - in a former life - worked as a therapist.\nA selection of his films had one-week theatrical runs at the Film Forum in New York and at theatres in San Francisco, Chicago, Seattle and Boston.  Articles about his work have appeared in the New York Times, the LA Times, Filmmaker Magazine, the Village Voice and the Independent.\n\nTaken from the PROOF exhibition 2004.", "biography_author": null, "date_of_biography": "2025-03-11T23:34:31.967457+11:00", "external_links": [{"id": 4279, "uri": "https://en.wikipedia.org/wiki/Jay_Rosenblatt_(filmmaker)"}], "uuid": "703b6c00-9f82-4c7d-a1e0-8e888838c843", "source": {"name": "Vernon", "slug": "vernon"}, "source_identifier": "110760", "external_references": [{"id": 26568, "source": {"name": "Wikidata", "slug": "wikidata"}, "source_identifier": "Q27043433"}, {"id": 29244, "source": {"name": "VIAF", "slug": "viaf"}, "source_identifier": "194128602"}, {"id": 29245, "source": {"name": "WorldCat", "slug": "worldcat"}, "source_identifier": "viaf-194128602"}], "date_modified": "2025-03-11T23:34:31.967676+11:00"}, {"id": 7142, "name": "Oxford Scientific Films", "roles_in_work": [{"id": 2619164, "title": "Time-lapse footage of decomposing rat", "work_id": 108263, "role": "production company", "role_id": 941, "is_primary": true}, {"id": 827553, "title": "Carnivorous plants", "work_id": 96839, "role": "production company", "role_id": 941, "is_primary": true}, {"id": 2749934, "title": "The Cat's meow", "work_id": 97050, "role": "production company", "role_id": 941, "is_primary": true}], "also_known_as": "", "date_of_birth": "", "date_of_death": "", "genders": [], "languages": [], "places_of_operation": [], "biography": "", "biography_author": null, "date_of_biography": "2023-08-14T11:54:38.377736+10:00", "external_links": [], "uuid": "1c52c304-6bad-4fa0-97e2-9dcb8009651d", "source": {"name": "Vernon", "slug": "vernon"}, "source_identifier": "110756", "external_references": [], "date_modified": "2025-03-13T00:10:53.291398+11:00"}, {"id": 7141, "name": "Sebastian Schroeder", "roles_in_work": [{"id": 2710386, "title": "Cinema", "work_id": 108262, "role": "director", "role_id": 938, "is_primary": true}, {"id": 2679859, "title": "Cinema", "work_id": 66108, "role": "producer/director", "role_id": 31, "is_primary": true}], "also_known_as": "", "date_of_birth": "", "date_of_death": "", "genders": [], "languages": [], "places_of_operation": [], "biography": "", "biography_author": null, "date_of_biography": "2023-08-11T15:26:25.784798+10:00", "external_links": [], "uuid": "c6aadb45-ac55-4511-a32a-0c665411a1cc", "source": {"name": "Vernon", "slug": "vernon"}, "source_identifier": "112098", "external_references": [], "date_modified": "2025-03-11T23:34:46.599642+11:00"}, {"id": 7140, "name": "Jean Cocteau", "roles_in_work": [{"id": 752082, "title": "Rhythm of Africa", "work_id": 72212, "role": "director", "role_id": 938, "is_primary": true}, {"id": 3104763, "title": "Orphee = Orpheus", "work_id": 116070, "role": "director", "role_id": 938, "is_primary": true}, {"id": 3104406, "title": "Le testament d'orphee ou ne me demandez pas pourquoi = The testament of orpheus or don't ask me why", "work_id": 115900, "role": "director", "role_id": 938, "is_primary": true}, {"id": 2615949, "title": "Orphee", "work_id": 86468, "role": "director", "role_id": 938, "is_primary": true}, {"id": 3105254, "title": "Les Parents Terribles", "work_id": 116325, "role": "director", "role_id": 938, "is_primary": true}, {"id": 2178505, "title": "Orpheus", "work_id": 80029, "role": "director", "role_id": 938, "is_primary": true}, {"id": 773235, "title": "Beauty and the Beast = La Belle et la Bete", "work_id": 80810, "role": "director", "role_id": 938, "is_primary": true}, {"id": 3104838, "title": "L'aigle a Deux Tetes = the Two-Headed Eagle", "work_id": 116108, "role": "director", "role_id": 938, "is_primary": true}, {"id": 2710382, "title": "Orpheus", "work_id": 108261, "role": "director", "role_id": 938, "is_primary": true}, {"id": 2120652, "title": "Blood of a poet = Le Sang d'un poete", "work_id": 79036, "role": "director", "role_id": 938, "is_primary": true}, {"id": 2710380, "title": "Orpheus", "work_id": 108261, "role": "creator", "role_id": 968, "is_primary": true}], "also_known_as": "Jean Maurice Eugène Clément Cocteau", "date_of_birth": "1889", "date_of_death": "1963", "genders": [{"id": 9, "name": "Male", "slug": "male"}], "languages": [{"id": 4, "name": "French", "slug": "french"}], "places_of_operation": [{"id": 17, "name": "France", "slug": "france"}], "biography": "Jean Maurice Eugène Clément Cocteau (UK: , US: , French: [ʒɑ̃ moʁis øʒɛn klemɑ̃ kɔkto]; 5 July 1889 – 11 October 1963) was a French poet, playwright, novelist, designer, filmmaker, visual artist and critic. He was one of the foremost creatives of the surrealist, avant-garde, and Dadaist movements; and one of the most influential figures in early 20th-century art as a whole. The National Observer suggested that, “of the artistic generation whose daring gave birth to Twentieth Century Art, Cocteau came closest to being a Renaissance man.”He is best known for his novels Le Grand Écart (1923), Le Livre Blanc (1928), and Les Enfants Terribles (1929); the stage plays La Voix Humaine (1930), La Machine Infernale (1934), Les Parents terribles (1938), La Machine à écrire (1941), and L'Aigle à deux têtes (1946); and the films The Blood of a Poet (1930), Les Parents Terribles (1948), Beauty and the Beast (1946), Orpheus (1950), and Testament of Orpheus (1960), which alongside Blood of a Poet and Orpheus constitute the so-called Orphic Trilogy. He was described as \"one of [the] avant-garde's most successful and influential filmmakers\" by AllMovie. Cocteau, according to Annette Insdorf, “left behind a body of work unequalled for its variety of artistic expression.”Though his body of work encompassed many different mediums, Cocteau insisted on calling himself a poet, classifying the great variety of his works – poems, novels, plays, essays, drawings, films – as \"poésie\", \"poésie de roman\", \"poésie de thêatre\", \"poésie critique\", \"poésie graphique\" and \"poésie cinématographique\".", "biography_author": "Wikidata", "date_of_biography": "2022-05-19T11:55:35.927422+10:00", "external_links": [{"id": 2349, "uri": "https://en.wikipedia.org/wiki/Jean_Cocteau"}], "uuid": "7dcfe490-10db-43dc-a5aa-98ddcf397711", "source": {"name": "Vernon", "slug": "vernon"}, "source_identifier": "1371", "external_references": [{"id": 10074, "source": {"name": "Wikidata", "slug": "wikidata"}, "source_identifier": "Q83158"}, {"id": 10075, "source": {"name": "VIAF", "slug": "viaf"}, "source_identifier": "12306661"}, {"id": 10076, "source": {"name": "LOC Auth", "slug": "loc-auth"}, "source_identifier": "n79007043"}, {"id": 10077, "source": {"name": "WorldCat", "slug": "worldcat"}, "source_identifier": "lccn-n79007043"}], "date_modified": "2025-05-22T23:00:59.876909+10:00"}, {"id": 7139, "name": "Georges Franju", "roles_in_work": [{"id": 2224202, "title": "Eyes without a face", "work_id": 86486, "role": "director", "role_id": 938, "is_primary": true}, {"id": 3104981, "title": "Therese Desqueyroux", "work_id": 116186, "role": "director", "role_id": 938, "is_primary": true}, {"id": 3104974, "title": "La Tete Contre les Murs = the Keepers", "work_id": 116180, "role": "director", "role_id": 938, "is_primary": true}, {"id": 3104824, "title": "Thomas L'imposteur = Thomas the Imposter", "work_id": 116100, "role": "director", "role_id": 938, "is_primary": true}, {"id": 3104517, "title": "Judex (English Version)", "work_id": 115951, "role": "director", "role_id": 938, "is_primary": true}, {"id": 858022, "title": "The Blood of the beast = Le sang des betes", "work_id": 72474, "role": "director", "role_id": 938, "is_primary": true}], "also_known_as": "Georges Auguste René Franju", "date_of_birth": "1912-04-12", "date_of_death": "1987-11-05", "genders": [{"id": 9, "name": "Male", "slug": "male"}], "languages": [{"id": 4, "name": "French", "slug": "french"}], "places_of_operation": [{"id": 17, "name": "France", "slug": "france"}], "biography": "Georges Franju (French: [fʁɑ̃ʒy]; 12 April 1912 – 5 November 1987) was a French filmmaker. He was born in Fougères, Ille-et-Vilaine.", "biography_author": "Wikidata", "date_of_biography": "2022-05-19T11:36:46.914863+10:00", "external_links": [{"id": 2131, "uri": "https://en.wikipedia.org/wiki/Georges_Franju"}], "uuid": "f8497294-bf90-4052-9dd8-29cff61c5418", "source": {"name": "Vernon", "slug": "vernon"}, "source_identifier": "110752", "external_references": [{"id": 9179, "source": {"name": "Wikidata", "slug": "wikidata"}, "source_identifier": "Q739606"}, {"id": 9180, "source": {"name": "VIAF", "slug": "viaf"}, "source_identifier": "68929225"}, {"id": 9181, "source": {"name": "LOC Auth", "slug": "loc-auth"}, "source_identifier": "n50025396"}, {"id": 9182, "source": {"name": "WorldCat", "slug": "worldcat"}, "source_identifier": "lccn-n50025396"}], "date_modified": "2025-05-22T22:55:04.691011+10:00"}, {"id": 7138, "name": "Lynette Wallworth", "roles_in_work": [{"id": 2401729, "title": "Awavena", "work_id": 118185, "role": "artist", "role_id": 505, "is_primary": true}, {"id": 974009, "title": "", "work_id": 118183, "role": "creator", "role_id": 968, "is_primary": true}, {"id": 2710284, "title": "Hold: Vessel #1 and Vessel #2", "work_id": 108257, "role": "creator", "role_id": 968, "is_primary": true}], "also_known_as": "", "date_of_birth": "1961", "date_of_death": "", "genders": [{"id": 5, "name": "Female", "slug": "female"}], "languages": [], "places_of_operation": [], "biography": "Australian artist/filmmaker Lynette Wallworth is renowned for creating profoundly empathetic works while pushing the boundaries of emerging technologies. She works primarily in immersive environments including 360 film, virtual reality, interactive video, digital full dome and in feature documentary.\n\nHer work reflects on connections between people and the natural world and engages viewers in the consideration of fragile human states of grace.\n\nWallworth has received multiple international awards for her work including two Emmys. In 2017 she received a News & Documentary Emmy® Award for Outstanding New Approaches in Documentary for her Virtual Reality narrative Collisions (2016) . In 2019 she received a second Emmy® in the same category for her XR work Awavena (2018).\n\nWallworth's works have shown at venues and festivals across the world, including the Lincoln Center for the Performing Arts, the American Museum of Natural History, the Australian Centre for Contemporary Art, ACMI, the Smithsonian; Venice Film Festival, IDFA, CPHDOX, London Film Festival and Sundance Film Festival among others.\n\nWallworth is a member of the World Economic Forum’s Global Future Council on Augmented and Virtual Reality and Director of the Forum’s New Narratives Lab. She is Artist in Residence at the AustralianHuman Rights Institute, UNSW and at AFTRS and she currently sits on the board of The Sundance Institute.; 11/08/2023", "biography_author": null, "date_of_biography": "2025-03-11T23:29:40.414998+11:00", "external_links": [], "uuid": "773dc595-400c-49a3-bfaa-cd58d9761189", "source": {"name": "Vernon", "slug": "vernon"}, "source_identifier": "110743", "external_references": [], "date_modified": "2025-03-11T23:29:40.415345+11:00"}, {"id": 7134, "name": "Laszlo Moholy-Nagy", "roles_in_work": [{"id": 2415093, "title": "Light play: black-white-gray = Ein lightspiel: scwarz-weiss-grau", "work_id": 69728, "role": "director", "role_id": 938, "is_primary": true}, {"id": 2710244, "title": "Lichtspiel Schwarz-Weiss-Grau", "work_id": 108255, "role": "creator", "role_id": 968, "is_primary": true}, {"id": 2718787, "title": "K VII", "work_id": 120260, "role": "artist", "role_id": 505, "is_primary": true}, {"id": 2718889, "title": "LICHTSPIEL SCHWARZ-WEISS-GRAU", "work_id": 120259, "role": "artist", "role_id": 505, "is_primary": true}], "also_known_as": "", "date_of_birth": "1895", "date_of_death": "1946", "genders": [], "languages": [], "places_of_operation": [], "biography": "Laszlo Moholy-Nagy (Hungary/German/United States)\nBorn in Bacsborsod, Hungary, Laszlo Moholy-Nagy fled to Germany after WW1, where he involved himself with the Dada and Constructivist movements. He began to exhibit and publish prolifically in Berlin and was invited by Walter Gropius to join the Bauhaus School in Weimar where he become widely influential as an artist and educator. With the rise of Nazism he migrated to the USA where he spent his final years teaching at Chicago Institute of Design. His significant theoretical writings include The New Vision (1929) and Vision in Motion (1944). Recent publications include Laszlo Moholy-Nagy (Marseille: Institut Valencia d'Art Moderne, Musees de Maseille, Reunion des Musees Nationaux, Corvina/Flammorion, 1991)", "biography_author": null, "date_of_biography": "2025-03-12T06:43:56.970969+11:00", "external_links": [], "uuid": "f0e03909-393b-41f4-835e-b1e76964af2d", "source": {"name": "Vernon", "slug": "vernon"}, "source_identifier": "110738", "external_references": [], "date_modified": "2025-03-12T06:43:56.971188+11:00"}, {"id": 7133, "name": "Gary Hill", "roles_in_work": [{"id": 2748528, "title": "Electronic Linguistic", "work_id": 108423, "role": "creator", "role_id": 968, "is_primary": true}, {"id": 2748527, "title": "Black/White/Text", "work_id": 108426, "role": "creator", "role_id": 968, "is_primary": true}, {"id": 2748530, "title": "[Gary Hill: selected works]", "work_id": 108340, "role": "creator", "role_id": 968, "is_primary": true}, {"id": 2748529, "title": "Sums & differences", "work_id": 108425, "role": "creator", "role_id": 968, "is_primary": true}], "also_known_as": "Gary Hill", "date_of_birth": "1951-04-04", "date_of_death": null, "genders": [{"id": 9, "name": "Male", "slug": "male"}], "languages": [{"id": 1, "name": "English", "slug": "english"}], "places_of_operation": [{"id": 1, "name": "United States of America", "slug": "united-states-of-america"}], "biography": "Gary Hill (USA b.1951)\nAlong with Bill Viola, Gary Hill has lifted video installation art -- generally compared to mainstream television -- up to the 'highest reaches of the fine arts world'. His images usually contain people or spoken and written words (such as the text from Maurice Blanchot's The Gaze of Orpheus or Wittgenstein's Remarks on Colour). He investigates the conditions of perception with interactive installations. What interests him are the gaps between meaning and reference and where image ends and reality begins. Hill has staged shows in major museums and galleries all over the world. One-person shows have been organised in museums such as Centre Pompidou (1992), I.V.A.M. in Valencia (1993), Stedelijk Van Abbe Museum in Amsterdam (1993) and in many American institutions. At the Venice Biennale (1995), Hill presented a labyrinth of 'words' which were activated by the presence of the viewer and which created different discourses according to the paths taken. In Australia he is exhibiting his Tall Ships, ('the one undisputed hit of Documenta IX and the 1993 Whitney Biennial, and remains one of the most compelling works of the last decade'), a long and dark corridor that the viewer can walk through, while activating moving images of human figures on the walls as they are approached.", "biography_author": null, "date_of_biography": "2025-03-12T23:01:07.615917+11:00", "external_links": [{"id": 4015, "uri": "https://en.wikipedia.org/wiki/Gary_Hill"}], "uuid": "b67a3ba2-975d-4e22-80b8-10c36ea9c932", "source": {"name": "Vernon", "slug": "vernon"}, "source_identifier": "110737", "external_references": [{"id": 26210, "source": {"name": "Wikidata", "slug": "wikidata"}, "source_identifier": "Q2545780"}, {"id": 28524, "source": {"name": "VIAF", "slug": "viaf"}, "source_identifier": "96095476"}, {"id": 28525, "source": {"name": "LOC Auth", "slug": "loc-auth"}, "source_identifier": "n93075444"}, {"id": 28526, "source": {"name": "WorldCat", "slug": "worldcat"}, "source_identifier": "lccn-n93075444"}], "date_modified": "2025-03-12T23:01:07.616129+11:00"}]}