{"count": 28687, "next": "https://api.acmi.net.au/creators/?page=846", "previous": "https://api.acmi.net.au/creators/?page=844", "results": [{"id": 77132, "name": "Public Affairs Television", "roles_in_work": [{"id": 780118, "title": "Joseph Campbell and the power of myth. Episodes 4-6", "work_id": 82797, "role": "production company", "role_id": 941, "is_primary": true}, {"id": 866948, "title": "Joseph Campbell and the power of myth. Episodes 1-3", "work_id": 82351, "role": "production company", "role_id": 941, "is_primary": true}], "also_known_as": "", "date_of_birth": null, "date_of_death": null, "genders": [], "languages": [], "places_of_operation": [], "biography": "", "biography_author": null, "date_of_biography": null, "external_links": [], "uuid": "e3a5a623-0cfc-4284-92db-30d35fb12f77", "source": {"name": "Vernon", "slug": "vernon"}, "source_identifier": null, "external_references": [{"id": 32341, "source": {"name": "Wikidata", "slug": "wikidata"}, "source_identifier": "Q121143934"}], "date_modified": "2023-09-06T00:14:52.258938+10:00"}, {"id": 77131, "name": "Apostrophe S Productions", "roles_in_work": [{"id": 780117, "title": "Joseph Campbell and the power of myth. Episodes 4-6", "work_id": 82797, "role": "production company", "role_id": 941, "is_primary": true}, {"id": 866947, "title": "Joseph Campbell and the power of myth. Episodes 1-3", "work_id": 82351, "role": "production company", "role_id": 941, "is_primary": true}], "also_known_as": "", "date_of_birth": null, "date_of_death": null, "genders": [], "languages": [], "places_of_operation": [], "biography": "", "biography_author": null, "date_of_biography": null, "external_links": [], "uuid": "04db814a-9100-47e4-a329-b285f0e30c43", "source": {"name": "Vernon", "slug": "vernon"}, "source_identifier": null, "external_references": [{"id": 42894, "source": {"name": "Wikidata", "slug": "wikidata"}, "source_identifier": "Q121143983"}], "date_modified": "2023-09-05T17:43:16.289096+10:00"}, {"id": 77130, "name": "John Redstone", "roles_in_work": [{"id": 866945, "title": "Managing soil structure", "work_id": 82349, "role": "producer/director", "role_id": 31, "is_primary": true}], "also_known_as": "", "date_of_birth": null, "date_of_death": null, "genders": [], "languages": [], "places_of_operation": [], "biography": "", "biography_author": null, "date_of_biography": null, "external_links": [], "uuid": "393a8387-8eb9-4237-a588-d61e4bb27d2d", "source": {"name": "Vernon", "slug": "vernon"}, "source_identifier": null, "external_references": [{"id": 51726, "source": {"name": "Wikidata", "slug": "wikidata"}, "source_identifier": "Q121360840"}], "date_modified": "2023-09-05T21:43:49.125648+10:00"}, {"id": 77129, "name": "Shuji Yamamoto", "roles_in_work": [{"id": 2783948, "title": "Mini dragons. II", "work_id": 115277, "role": "producer", "role_id": 1089, "is_primary": true}, {"id": 2783919, "title": "Indonesia", "work_id": 82345, "role": "producer", "role_id": 1089, "is_primary": true}], "also_known_as": "", "date_of_birth": "", "date_of_death": "", "genders": [], "languages": [], "places_of_operation": [], "biography": "", "biography_author": null, "date_of_biography": "2023-05-09T19:17:25.575137+10:00", "external_links": [], "uuid": "a68e7bd3-1ce2-485e-ae28-5d0c47ff2332", "source": {"name": "Vernon", "slug": "vernon"}, "source_identifier": "28790", "external_references": [], "date_modified": "2025-03-14T19:18:14.867071+11:00"}, {"id": 77128, "name": "Michael Sabra", "roles_in_work": [{"id": 2189500, "title": "Diary of a chambermaid = Le Journal d'une femme de chambre", "work_id": 82344, "role": "co-producer", "role_id": 915, "is_primary": true}], "also_known_as": "", "date_of_birth": "", "date_of_death": "", "genders": [], "languages": [], "places_of_operation": [], "biography": "", "biography_author": null, "date_of_biography": "2023-05-09T15:06:36.768762+10:00", "external_links": [], "uuid": "a4b5b119-d38c-47e5-b5be-90563156f09a", "source": {"name": "Vernon", "slug": "vernon"}, "source_identifier": "25219", "external_references": [{"id": 32277, "source": {"name": "Wikidata", "slug": "wikidata"}, "source_identifier": "Q121036345"}], "date_modified": "2023-09-05T23:09:04.879018+10:00"}, {"id": 77127, "name": "Richard Campbell", "roles_in_work": [{"id": 2615198, "title": "Emus: curious companions. Echidna: the survivor", "work_id": 85014, "role": "co-producer", "role_id": 915, "is_primary": true}, {"id": 1427261, "title": "Lizards of Oz; Wombats: bulldozers of the bush", "work_id": 83658, "role": "co-producer", "role_id": 915, "is_primary": true}, {"id": 903912, "title": "Wild bush budgie; a very particular parrot.", "work_id": 84997, "role": "co-producer", "role_id": 915, "is_primary": true}, {"id": 2781543, "title": "The Face: signalling [Widescreen]", "work_id": 88379, "role": "co-producer", "role_id": 915, "is_primary": true}, {"id": 2788059, "title": "Raising Archie", "work_id": 82335, "role": "producer", "role_id": 1089, "is_primary": true}], "also_known_as": "", "date_of_birth": "", "date_of_death": "", "genders": [], "languages": [], "places_of_operation": [], "biography": "", "biography_author": null, "date_of_biography": "2023-05-09T20:07:03.849373+10:00", "external_links": [], "uuid": "cd2bff86-14ab-40d6-a1e0-92f996f9f00b", "source": {"name": "Vernon", "slug": "vernon"}, "source_identifier": "27346", "external_references": [{"id": 35070, "source": {"name": "Wikidata", "slug": "wikidata"}, "source_identifier": "Q121078882"}], "date_modified": "2025-03-14T19:42:35.845210+11:00"}, {"id": 77126, "name": "Edwin Hill", "roles_in_work": [{"id": 2788023, "title": "Secrets of the heart", "work_id": 82333, "role": "producer", "role_id": 1089, "is_primary": true}], "also_known_as": "", "date_of_birth": "", "date_of_death": "", "genders": [], "languages": [], "places_of_operation": [], "biography": "", "biography_author": null, "date_of_biography": "2023-05-09T20:07:08.088484+10:00", "external_links": [], "uuid": "0458c040-470e-4d49-b472-caa3ed913578", "source": {"name": "Vernon", "slug": "vernon"}, "source_identifier": "18638", "external_references": [{"id": 39035, "source": {"name": "Wikidata", "slug": "wikidata"}, "source_identifier": "Q121036014"}], "date_modified": "2025-03-14T19:42:18.788271+11:00"}, {"id": 77125, "name": "Christine Levy", "roles_in_work": [{"id": 2785619, "title": "Freedom or death", "work_id": 82331, "role": "producer", "role_id": 1089, "is_primary": true}], "also_known_as": "", "date_of_birth": null, "date_of_death": null, "genders": [], "languages": [], "places_of_operation": [], "biography": "", "biography_author": null, "date_of_biography": null, "external_links": [], "uuid": "6d41829e-0172-4a07-b60c-f7e6e4fd04dc", "source": {"name": "Vernon", "slug": "vernon"}, "source_identifier": null, "external_references": [{"id": 34485, "source": {"name": "Wikidata", "slug": "wikidata"}, "source_identifier": "Q121036030"}], "date_modified": "2023-09-05T18:34:44.665636+10:00"}, {"id": 77124, "name": "John Muirhead", "roles_in_work": [{"id": 2788056, "title": "The Koala quandry", "work_id": 82334, "role": "director", "role_id": 938, "is_primary": true}, {"id": 2333602, "title": "The Boy & the island: Christopher Koch, Tasmanian novelist", "work_id": 82330, "role": "producer/director", "role_id": 31, "is_primary": true}], "also_known_as": "", "date_of_birth": "", "date_of_death": "", "genders": [], "languages": [], "places_of_operation": [], "biography": "", "biography_author": null, "date_of_biography": "2023-05-09T20:07:06.366765+10:00", "external_links": [], "uuid": "46b91dc3-8e21-4cde-93fd-5ffc22673b88", "source": {"name": "Vernon", "slug": "vernon"}, "source_identifier": "22432", "external_references": [{"id": 39969, "source": {"name": "Wikidata", "slug": "wikidata"}, "source_identifier": "Q121058075"}], "date_modified": "2025-03-14T19:42:34.369548+11:00"}, {"id": 77123, "name": "Australia-Japan Foundation", "roles_in_work": [{"id": 2788075, "title": "The Meiji adventure", "work_id": 82323, "role": "production company", "role_id": 941, "is_primary": true}, {"id": 2788109, "title": "A Simple good time", "work_id": 82327, "role": "production company", "role_id": 941, "is_primary": true}, {"id": 2788099, "title": "The Other side of Japan", "work_id": 82326, "role": "production company", "role_id": 941, "is_primary": true}, {"id": 2788091, "title": "A woman's place", "work_id": 82325, "role": "production company", "role_id": 941, "is_primary": true}, {"id": 2788082, "title": "The Samurai", "work_id": 82324, "role": "production company", "role_id": 941, "is_primary": true}], "also_known_as": "", "date_of_birth": "", "date_of_death": "", "genders": [], "languages": [], "places_of_operation": [], "biography": "", "biography_author": null, "date_of_biography": "2023-05-09T11:43:31.216517+10:00", "external_links": [], "uuid": "1a6fbf6e-47dc-4487-a5a2-53c616b33055", "source": {"name": "Vernon", "slug": "vernon"}, "source_identifier": "5558", "external_references": [{"id": 33937, "source": {"name": "Wikidata", "slug": "wikidata"}, "source_identifier": "Q121299011"}], "date_modified": "2025-03-14T19:42:51.725417+11:00"}]}