{"count": 28682, "next": "https://api.acmi.net.au/creators/?page=1567", "previous": "https://api.acmi.net.au/creators/?page=1565", "results": [{"id": 31907, "name": "Ka-Fai Wai", "roles_in_work": [{"id": 2192214, "title": "Peace hotel", "work_id": 90049, "role": "director", "role_id": 938, "is_primary": true}, {"id": 914207, "title": "Full time killer = Fulltime killer = Chuen jik sat sau", "work_id": 93688, "role": "co-director", "role_id": 959, "is_primary": true}], "also_known_as": "", "date_of_birth": "1962-09-21", "date_of_death": "", "genders": [{"id": 9, "name": "Male", "slug": "male"}], "languages": [{"id": 14, "name": "Chinese", "slug": "chinese"}], "places_of_operation": [{"id": 290, "name": "People's Republic of China", "slug": "peoples-republic-of-china"}], "biography": "Wai Ka-fai (born 21 September 1962) is a Hong Kong film director, screenwriter and film producer. Best known for his frequent collaborations with Johnnie To, he co-formed Milkyway Image in 1996, which is now one of the most successful independent film studios in Hong Kong. The films that the two have made together as directors and producers include Needing You..., Fat Choi Spirit, Love on a Diet, Fulltime Killer, Turn Left, Turn Right, Running on Karma, and Mad Detective. His solo directorial efforts include Too Many Ways to Be No. 1, Written By and Detective vs Sleuths.\nTwo of his films were released in the US theatrically: Fulltime Killer and Mad Detective.", "biography_author": "Wikidata", "date_of_biography": "2023-08-01T15:45:50.928331+10:00", "external_links": [{"id": 4459, "uri": "https://en.wikipedia.org/wiki/Wai_Ka-fai"}], "uuid": "7ce6be92-7668-40e8-adea-c1995735b005", "source": {"name": "Vernon", "slug": "vernon"}, "source_identifier": "4058", "external_references": [{"id": 26391, "source": {"name": "Wikidata", "slug": "wikidata"}, "source_identifier": "Q616410"}, {"id": 29713, "source": {"name": "VIAF", "slug": "viaf"}, "source_identifier": "101120046"}, {"id": 29714, "source": {"name": "WorldCat", "slug": "worldcat"}, "source_identifier": "viaf-101120046"}], "date_modified": "2023-09-05T21:58:34.804707+10:00"}, {"id": 31906, "name": "Cassia Hill Productions", "roles_in_work": [{"id": 2192210, "title": "Peace hotel", "work_id": 90049, "role": "production company", "role_id": 941, "is_primary": true}], "also_known_as": "", "date_of_birth": "", "date_of_death": "", "genders": [], "languages": [], "places_of_operation": [], "biography": "", "biography_author": null, "date_of_biography": "2023-05-09T15:10:49.906420+10:00", "external_links": [], "uuid": "686546f0-296b-4926-8ec8-b131bee1490e", "source": {"name": "Vernon", "slug": "vernon"}, "source_identifier": "6333", "external_references": [{"id": 41170, "source": {"name": "Wikidata", "slug": "wikidata"}, "source_identifier": "Q121034693"}], "date_modified": "2023-09-05T18:21:53.493962+10:00"}, {"id": 31905, "name": "Andre Genoves", "roles_in_work": [{"id": 3104949, "title": "La Femme En Bleu = the Woman in Blue", "work_id": 116163, "role": "producer", "role_id": 1089, "is_primary": true}, {"id": 1997859, "title": "The Unfaithful wife = La Femme infidele [Widescreen]", "work_id": 93508, "role": "producer", "role_id": 1089, "is_primary": true}, {"id": 1819970, "title": "The Darling does = Les Biches [Widescreen]", "work_id": 90048, "role": "producer", "role_id": 1089, "is_primary": true}, {"id": 1820126, "title": "The Butcher = Le Boucher", "work_id": 92397, "role": "producer", "role_id": 1089, "is_primary": true}, {"id": 1816598, "title": "Les Noces rouges = Blood wedding", "work_id": 115705, "role": "producer", "role_id": 1089, "is_primary": true}, {"id": 3104732, "title": "La Femme Infidele = the Unfaithful Wife", "work_id": 116058, "role": "producer", "role_id": 1089, "is_primary": true}], "also_known_as": "", "date_of_birth": "1941-11-30", "date_of_death": "2012-02-01", "genders": [{"id": 9, "name": "Male", "slug": "male"}], "languages": [{"id": 4, "name": "French", "slug": "french"}], "places_of_operation": [{"id": 17, "name": "France", "slug": "france"}], "biography": "André Génovès (1941 in Paris –  1 February 2012 in Thoiry) was a  French film producer and director.\n\n", "biography_author": "Wikidata", "date_of_biography": "2022-05-19T10:48:26.571548+10:00", "external_links": [{"id": 1634, "uri": "https://en.wikipedia.org/wiki/Andr%C3%A9_G%C3%A9nov%C3%A8s"}], "uuid": "29c17195-cfa0-49c3-afb6-44fc38475ca4", "source": {"name": "Vernon", "slug": "vernon"}, "source_identifier": "15100", "external_references": [{"id": 7140, "source": {"name": "Wikidata", "slug": "wikidata"}, "source_identifier": "Q1424934"}, {"id": 7141, "source": {"name": "VIAF", "slug": "viaf"}, "source_identifier": "32204506"}, {"id": 7142, "source": {"name": "LOC Auth", "slug": "loc-auth"}, "source_identifier": "nr98009272"}, {"id": 7143, "source": {"name": "WorldCat", "slug": "worldcat"}, "source_identifier": "lccn-nr98009272"}], "date_modified": "2025-05-22T22:51:53.336270+10:00"}, {"id": 31903, "name": "Les Films La Boetie", "roles_in_work": [{"id": 1997857, "title": "The Unfaithful wife = La Femme infidele [Widescreen]", "work_id": 93508, "role": "production company", "role_id": 941, "is_primary": true}, {"id": 811224, "title": "The Butcher = Le Boucher", "work_id": 92397, "role": "production company", "role_id": 941, "is_primary": true}, {"id": 3104730, "title": "La Femme Infidele = the Unfaithful Wife", "work_id": 116058, "role": "production company", "role_id": 941, "is_primary": true}, {"id": 804401, "title": "The Darling does = Les Biches [Widescreen]", "work_id": 90048, "role": "production company", "role_id": 941, "is_primary": true}], "also_known_as": "", "date_of_birth": null, "date_of_death": null, "genders": [], "languages": [], "places_of_operation": [], "biography": "", "biography_author": null, "date_of_biography": null, "external_links": [], "uuid": "fb642d74-0bf7-465d-a952-d2bd95455467", "source": {"name": "Vernon", "slug": "vernon"}, "source_identifier": "10016", "external_references": [], "date_modified": "2025-05-22T22:46:45.361560+10:00"}, {"id": 31901, "name": "Clara Law", "roles_in_work": [{"id": 1994279, "title": "Floating life = Fu Sheng [Widescreen]", "work_id": 90046, "role": "director", "role_id": 938, "is_primary": true}, {"id": 916912, "title": "Letters to Ali [DVD]", "work_id": 94977, "role": "director", "role_id": 938, "is_primary": true}, {"id": 1999526, "title": "Temptation of a monk = You seng [DVD]", "work_id": 94507, "role": "director", "role_id": 938, "is_primary": true}, {"id": 2351243, "title": "The Goddess of 1967 [DVD]", "work_id": 94506, "role": "director", "role_id": 938, "is_primary": true}, {"id": 916911, "title": "Letters to Ali [DVD]", "work_id": 94977, "role": "co-producer", "role_id": 915, "is_primary": true}], "also_known_as": "", "date_of_birth": "1957-05-29", "date_of_death": "", "genders": [{"id": 5, "name": "Female", "slug": "female"}], "languages": [{"id": 1, "name": "English", "slug": "english"}], "places_of_operation": [{"id": 3, "name": "Australia", "slug": "australia"}], "biography": "Clara Law Cheuk-yiu (traditional Chinese: 羅卓瑤; simplified Chinese: 罗卓瑶; pinyin: Luó Zhuóyáo; Jyutping: lo4 coek3 jiu4, born 29 May 1957 in Macau) is a Hong Kong Second Wave film director who currently resides in Australia.", "biography_author": "Wikidata", "date_of_biography": "2023-08-01T14:27:58.174641+10:00", "external_links": [{"id": 3780, "uri": "https://en.wikipedia.org/wiki/Clara_Law"}], "uuid": "c164999b-e953-4147-a9c8-3e186c125240", "source": {"name": "Vernon", "slug": "vernon"}, "source_identifier": "1166", "external_references": [{"id": 26333, "source": {"name": "Wikidata", "slug": "wikidata"}, "source_identifier": "Q435577"}, {"id": 27875, "source": {"name": "VIAF", "slug": "viaf"}, "source_identifier": "42047441"}, {"id": 27876, "source": {"name": "LOC Auth", "slug": "loc-auth"}, "source_identifier": "nr97036340"}, {"id": 27877, "source": {"name": "WorldCat", "slug": "worldcat"}, "source_identifier": "lccn-nr97036340"}], "date_modified": "2023-09-05T18:39:08.805674+10:00"}, {"id": 31899, "name": "Michael Curtis", "roles_in_work": [{"id": 2415946, "title": "Milk for the nation", "work_id": 90045, "role": "producer", "role_id": 1089, "is_primary": true}], "also_known_as": "", "date_of_birth": "", "date_of_death": "", "genders": [], "languages": [], "places_of_operation": [], "biography": "", "biography_author": null, "date_of_biography": "2023-08-11T19:50:00.583073+10:00", "external_links": [], "uuid": "18a83949-3729-41e0-9e6f-69a18823b77d", "source": {"name": "Vernon", "slug": "vernon"}, "source_identifier": "25032", "external_references": [], "date_modified": "2023-08-11T19:50:00.583313+10:00"}, {"id": 31898, "name": "National Milk Productivity Council", "roles_in_work": [{"id": 2415945, "title": "Milk for the nation", "work_id": 90045, "role": "production company", "role_id": 941, "is_primary": true}], "also_known_as": "", "date_of_birth": "", "date_of_death": "", "genders": [], "languages": [], "places_of_operation": [], "biography": "", "biography_author": null, "date_of_biography": "2023-08-11T19:49:59.946201+10:00", "external_links": [], "uuid": "96beeb0f-b667-4f19-95ea-f9f53020c101", "source": {"name": "Vernon", "slug": "vernon"}, "source_identifier": "10820", "external_references": [], "date_modified": "2023-08-11T19:49:59.946465+10:00"}, {"id": 31897, "name": "W S Crawford Ltd", "roles_in_work": [{"id": 2415944, "title": "Milk for the nation", "work_id": 90045, "role": "production company", "role_id": 941, "is_primary": true}], "also_known_as": "", "date_of_birth": "", "date_of_death": "", "genders": [], "languages": [], "places_of_operation": [], "biography": "", "biography_author": null, "date_of_biography": "2023-08-11T19:49:59.323407+10:00", "external_links": [], "uuid": "3cb3a19a-a51a-4b40-9424-60f1360e0431", "source": {"name": "Vernon", "slug": "vernon"}, "source_identifier": "14219", "external_references": [], "date_modified": "2023-08-11T19:49:59.323680+10:00"}, {"id": 31896, "name": "Coca Cola", "roles_in_work": [{"id": 2396580, "title": "[Lucky you]", "work_id": 90044, "role": "production company", "role_id": 941, "is_primary": true}], "also_known_as": "", "date_of_birth": "", "date_of_death": "", "genders": [], "languages": [], "places_of_operation": [], "biography": "", "biography_author": null, "date_of_biography": "2023-08-11T12:38:50.377238+10:00", "external_links": [], "uuid": "797decd9-3544-4985-8f5f-e0a5ddd7fd67", "source": {"name": "Vernon", "slug": "vernon"}, "source_identifier": "6859", "external_references": [], "date_modified": "2023-08-11T12:38:50.377546+10:00"}, {"id": 31895, "name": "Ian Shand", "roles_in_work": [{"id": 2151947, "title": "Mischief", "work_id": 90106, "role": "director", "role_id": 938, "is_primary": true}, {"id": 1994274, "title": "Kadoyng", "work_id": 90042, "role": "director", "role_id": 938, "is_primary": true}, {"id": 2151942, "title": "Mischief", "work_id": 90106, "role": "co-producer", "role_id": 915, "is_primary": true}, {"id": 1998300, "title": "Wombling free", "work_id": 93717, "role": "producer", "role_id": 1089, "is_primary": true}], "also_known_as": "", "date_of_birth": "", "date_of_death": "", "genders": [], "languages": [], "places_of_operation": [], "biography": "", "biography_author": null, "date_of_biography": "2023-05-09T13:54:04.916632+10:00", "external_links": [], "uuid": "e131a1f4-a09e-4aa4-8615-cfcdb5c79060", "source": {"name": "Vernon", "slug": "vernon"}, "source_identifier": "20793", "external_references": [{"id": 41784, "source": {"name": "Wikidata", "slug": "wikidata"}, "source_identifier": "Q121091474"}], "date_modified": "2023-09-05T20:46:46.523419+10:00"}]}