{"count": 28687, "next": "https://api.acmi.net.au/creators/?page=1478", "previous": "https://api.acmi.net.au/creators/?page=1476", "results": [{"id": 34754, "name": "August First Film Studio", "roles_in_work": [{"id": 2651376, "title": "The Kunlun Column = Wei Wei Kun Lun", "work_id": 115834, "role": "production company", "role_id": 941, "is_primary": true}, {"id": 2650877, "title": "The Battle of Huangqiao = Huang Qiao Jue Zhan", "work_id": 115774, "role": "production company", "role_id": 941, "is_primary": true}, {"id": 2651108, "title": "Eight martyrs = Ba nu tou jiang", "work_id": 115802, "role": "production company", "role_id": 941, "is_primary": true}, {"id": 2650997, "title": "An American woman's adventure = Mao xian de Mei Guo Nu Ren", "work_id": 115790, "role": "production company", "role_id": 941, "is_primary": true}, {"id": 1997028, "title": "Evening bell = Wang zhong [NTSC]", "work_id": 93091, "role": "production company", "role_id": 941, "is_primary": true}], "also_known_as": "", "date_of_birth": "", "date_of_death": "", "genders": [], "languages": [], "places_of_operation": [], "biography": "August First Film Studio, or Bayi Film Studio (Chinese: 八一电影制片厂; pinyin: Bāyī diànyǐng zhì piàn chǎng), is the only military film studio in China. Founded on August 1, 1952, it is a comprehensive film studio with the production capacity of feature films, battlefield documentaries, military education films, news documentaries, national defense scientific research films, TV dramas and other films. The unit's main business area is located in Fengtai District, Beijing, and consists of Wang Zuo Film and Television Base and Hubei Film and Television Base.", "biography_author": "Wikidata", "date_of_biography": "2023-09-05T17:49:34.032512+10:00", "external_links": [{"id": 5692, "uri": "https://en.wikipedia.org/wiki/August_First_Film_Studio"}], "uuid": "8d753468-8d4f-475e-98f0-1dc68e0ab164", "source": {"name": "Vernon", "slug": "vernon"}, "source_identifier": "5540", "external_references": [{"id": 37296, "source": {"name": "Wikidata", "slug": "wikidata"}, "source_identifier": "Q10872932"}, {"id": 54014, "source": {"name": "VIAF", "slug": "viaf"}, "source_identifier": "158605750"}, {"id": 54015, "source": {"name": "LOC Auth", "slug": "loc-auth"}, "source_identifier": "no2001095244"}, {"id": 54016, "source": {"name": "WorldCat", "slug": "worldcat"}, "source_identifier": "lccn-no2001095244"}], "date_modified": "2025-03-05T14:29:20.669708+11:00"}, {"id": 34753, "name": "Ling Zifeng", "roles_in_work": [{"id": 814136, "title": "Border town = Bian cheng [NTSC]", "work_id": 93090, "role": "director", "role_id": 938, "is_primary": true}], "also_known_as": "", "date_of_birth": "1917-03-10", "date_of_death": "1999-03-02", "genders": [{"id": 9, "name": "Male", "slug": "male"}], "languages": [], "places_of_operation": [{"id": 290, "name": "People's Republic of China", "slug": "peoples-republic-of-china"}], "biography": "Ling Zifeng (Beijing, 10 March 1917 – 3 March 1999) was a Chinese film director.\nLing was born in Beijing of a family from Hejiang, Luzhou, in Sichuan.", "biography_author": "Wikidata", "date_of_biography": "2023-08-01T15:58:07.207293+10:00", "external_links": [{"id": 4559, "uri": "https://en.wikipedia.org/wiki/Ling_Zifeng"}], "uuid": "e5c17b8c-ba08-41b1-b56e-f280642695d9", "source": {"name": "Vernon", "slug": "vernon"}, "source_identifier": "23896", "external_references": [{"id": 25602, "source": {"name": "Wikidata", "slug": "wikidata"}, "source_identifier": "Q10895922"}, {"id": 29976, "source": {"name": "VIAF", "slug": "viaf"}, "source_identifier": "72834397"}, {"id": 29977, "source": {"name": "LOC Auth", "slug": "loc-auth"}, "source_identifier": "n85204100"}, {"id": 29978, "source": {"name": "WorldCat", "slug": "worldcat"}, "source_identifier": "lccn-n85204100"}], "date_modified": "2023-09-13T12:31:02.028112+10:00"}, {"id": 34752, "name": "Sang Hu", "roles_in_work": [{"id": 2650725, "title": "The Bureau head's boyfriend = Nu ju zhang de nan peng you", "work_id": 115759, "role": "director", "role_id": 938, "is_primary": true}, {"id": 1997027, "title": "New year sacrifice = Zhu fu [NTSC]", "work_id": 93089, "role": "director", "role_id": 938, "is_primary": true}, {"id": 2650727, "title": "The Bureau head's boyfriend = Nu ju zhang de nan peng you", "work_id": 115759, "role": "script", "role_id": 962, "is_primary": false}], "also_known_as": "", "date_of_birth": "1916-12-22", "date_of_death": "2004-09-01", "genders": [{"id": 9, "name": "Male", "slug": "male"}], "languages": [], "places_of_operation": [{"id": 290, "name": "People's Republic of China", "slug": "peoples-republic-of-china"}], "biography": "", "biography_author": null, "date_of_biography": "2023-05-09T19:30:34.621271+10:00", "external_links": [], "uuid": "1b8bd907-e7bc-4ad7-b974-5d3f0bce804e", "source": {"name": "Vernon", "slug": "vernon"}, "source_identifier": "20652", "external_references": [{"id": 34632, "source": {"name": "Wikidata", "slug": "wikidata"}, "source_identifier": "Q11113006"}, {"id": 55767, "source": {"name": "VIAF", "slug": "viaf"}, "source_identifier": "169592826"}, {"id": 55768, "source": {"name": "LOC Auth", "slug": "loc-auth"}, "source_identifier": "n86061785"}, {"id": 55769, "source": {"name": "WorldCat", "slug": "worldcat"}, "source_identifier": "lccn-n86061785"}], "date_modified": "2025-03-05T14:22:50.346324+11:00"}, {"id": 34751, "name": "Wang Haowei", "roles_in_work": [{"id": 814132, "title": "Divorce = Li Hun [NTSC]", "work_id": 93088, "role": "director", "role_id": 938, "is_primary": true}, {"id": 2651344, "title": "Divorce = Li Hun", "work_id": 115828, "role": "director", "role_id": 938, "is_primary": true}, {"id": 2650900, "title": "Fascinating musical band = Mi ren de yue dui", "work_id": 115777, "role": "director", "role_id": 938, "is_primary": true}, {"id": 2651348, "title": "Divorce = Li Hun", "work_id": 115828, "role": "script", "role_id": 962, "is_primary": false}], "also_known_as": "", "date_of_birth": "", "date_of_death": "", "genders": [], "languages": [], "places_of_operation": [], "biography": "", "biography_author": null, "date_of_biography": "2023-05-09T16:29:23.201852+10:00", "external_links": [], "uuid": "6b2811ad-cadf-449d-ac37-f3f23d2fa9ef", "source": {"name": "Vernon", "slug": "vernon"}, "source_identifier": "30274", "external_references": [], "date_modified": "2025-03-05T14:29:03.040447+11:00"}, {"id": 34750, "name": "Huang Shuqin", "roles_in_work": [{"id": 1997025, "title": "Woman demon human = Ren Gui Qing [NTSC]", "work_id": 93087, "role": "director", "role_id": 938, "is_primary": true}], "also_known_as": "", "date_of_birth": "1939-09-09", "date_of_death": "2022-04-21", "genders": [{"id": 5, "name": "Female", "slug": "female"}], "languages": [], "places_of_operation": [{"id": 290, "name": "People's Republic of China", "slug": "peoples-republic-of-china"}], "biography": "Huang Shuqin (9 September 1939 – 21 April 2022) was a Chinese film director known for her film Woman, Demon, Human (1987). Widely considered the first feminist Chinese film by critics and scholars, Woman, Demon, Human garnered universal critical acclaim, as well as a nomination for Best Director and a win for Best Writing at the 8th Golden Rooster Awards. Although her film career didn't take off until she was well into her forties, she was regarded as one of China's most talented female directors, with a career spanning nearly three decades.\nHuang was also known for the popular television series Fortress Besieged (1990) and Sinful Debt (1995) and she received awards and nominations in both television and film mediums .", "biography_author": "Wikidata", "date_of_biography": "2022-05-19T11:46:36.312135+10:00", "external_links": [{"id": 2246, "uri": "https://en.wikipedia.org/wiki/Huang_Shuqin"}], "uuid": "4bb6456a-c39f-4cc0-8deb-cd5186472288", "source": {"name": "Vernon", "slug": "vernon"}, "source_identifier": "20656", "external_references": [{"id": 9648, "source": {"name": "Wikidata", "slug": "wikidata"}, "source_identifier": "Q22957941"}, {"id": 9649, "source": {"name": "VIAF", "slug": "viaf"}, "source_identifier": "95067899"}, {"id": 9650, "source": {"name": "LOC Auth", "slug": "loc-auth"}, "source_identifier": "no2004028386"}, {"id": 9651, "source": {"name": "WorldCat", "slug": "worldcat"}, "source_identifier": "lccn-no2004028386"}], "date_modified": "2023-09-13T12:30:02.106804+10:00"}, {"id": 34749, "name": "Xie Jin", "roles_in_work": [{"id": 2651179, "title": "Qiu Jin", "work_id": 115809, "role": "director", "role_id": 938, "is_primary": true}, {"id": 1997023, "title": "Hibiscus town = Furong zhen [Widescreen] [NTSC]", "work_id": 93086, "role": "director", "role_id": 938, "is_primary": true}, {"id": 2651182, "title": "Qiu Jin", "work_id": 115809, "role": "script", "role_id": 962, "is_primary": false}], "also_known_as": "", "date_of_birth": "1923-11-21", "date_of_death": "2008-10-18", "genders": [{"id": 9, "name": "Male", "slug": "male"}], "languages": [], "places_of_operation": [{"id": 4, "name": "China", "slug": "china"}, {"id": 290, "name": "People's Republic of China", "slug": "peoples-republic-of-china"}], "biography": "Xie Jin (Chinese: 谢晋; 21 November 1923 – 18 October 2008) was a Chinese film director. He rose to prominence in 1957, directing the film Woman Basketball Player No. 5, and is considered one of the Third Generation directors of China. Most recently he was known for the direction of The Opium War.\nXie was a popular director amongst the older generations of Chinese, with six of his films being voted Best Picture in the Hundred Flowers Awards. He was the only Chinese director to date to be a member of both the Academy of Motion Picture Arts and Sciences as well as the Directors Guild of America.", "biography_author": "Wikidata", "date_of_biography": "2022-05-19T13:24:23.228286+10:00", "external_links": [{"id": 3308, "uri": "https://en.wikipedia.org/wiki/Xie_Jin"}], "uuid": "64eb6c52-6b3b-4cf7-b6f0-3659aa5899cc", "source": {"name": "Vernon", "slug": "vernon"}, "source_identifier": "30555", "external_references": [{"id": 13996, "source": {"name": "Wikidata", "slug": "wikidata"}, "source_identifier": "Q562184"}, {"id": 13997, "source": {"name": "VIAF", "slug": "viaf"}, "source_identifier": "271415289"}, {"id": 13998, "source": {"name": "LOC Auth", "slug": "loc-auth"}, "source_identifier": "n83193151"}, {"id": 13999, "source": {"name": "WorldCat", "slug": "worldcat"}, "source_identifier": "lccn-n83193151"}], "date_modified": "2025-03-05T14:27:19.786802+11:00"}, {"id": 34744, "name": "Michael Geoghegan", "roles_in_work": [{"id": 2406992, "title": "Enya: Moonshadows", "work_id": 93082, "role": "director", "role_id": 938, "is_primary": true}], "also_known_as": "", "date_of_birth": "", "date_of_death": "", "genders": [], "languages": [], "places_of_operation": [], "biography": "", "biography_author": null, "date_of_biography": "2023-08-11T16:27:29.712760+10:00", "external_links": [], "uuid": "5d9c949f-1a80-4781-bbce-23258ab7f2f3", "source": {"name": "Vernon", "slug": "vernon"}, "source_identifier": "25270", "external_references": [], "date_modified": "2023-08-11T16:27:29.713075+10:00"}, {"id": 34743, "name": "Warner Music UK", "roles_in_work": [{"id": 2406991, "title": "Enya: Moonshadows", "work_id": 93082, "role": "production company", "role_id": 941, "is_primary": true}], "also_known_as": "", "date_of_birth": "", "date_of_death": "", "genders": [], "languages": [], "places_of_operation": [], "biography": "", "biography_author": null, "date_of_biography": "2023-08-11T16:27:29.086917+10:00", "external_links": [], "uuid": "898c906c-1610-4907-b9f6-7b7ab1c7e281", "source": {"name": "Vernon", "slug": "vernon"}, "source_identifier": "4003", "external_references": [], "date_modified": "2023-08-11T16:27:29.087231+10:00"}, {"id": 34742, "name": "M-Oceans Pictures", "roles_in_work": [{"id": 2406990, "title": "Enya: Moonshadows", "work_id": 93082, "role": "production company", "role_id": 941, "is_primary": true}], "also_known_as": "", "date_of_birth": "", "date_of_death": "", "genders": [], "languages": [], "places_of_operation": [], "biography": "", "biography_author": null, "date_of_biography": "2023-08-11T16:27:28.464724+10:00", "external_links": [], "uuid": "97754992-abef-4cfb-aded-220ba34ecc8d", "source": {"name": "Vernon", "slug": "vernon"}, "source_identifier": "10593", "external_references": [], "date_modified": "2023-08-11T16:27:28.464968+10:00"}, {"id": 34740, "name": "James Whitney", "roles_in_work": [{"id": 882187, "title": "Lapis", "work_id": 93077, "role": "director", "role_id": 938, "is_primary": true}], "also_known_as": "", "date_of_birth": "1921-12-27", "date_of_death": "1982-04-08", "genders": [{"id": 9, "name": "Male", "slug": "male"}], "languages": [], "places_of_operation": [{"id": 1, "name": "United States of America", "slug": "united-states-of-america"}], "biography": "For other people named James Whitney, see James Whitney (disambiguation)\n\nJames Whitney (December 27, 1921 – April 8, 1982), younger brother of John, was a filmmaker regarded as one of the great masters of abstract cinema. Several of his films are classics in the genre of visual music.", "biography_author": "Wikidata", "date_of_biography": "2022-05-19T11:52:56.095667+10:00", "external_links": [{"id": 2321, "uri": "https://en.wikipedia.org/wiki/James_Whitney_(filmmaker)"}], "uuid": "388fd5f9-9ba6-4ae6-9e04-fba4b51ee77e", "source": {"name": "Vernon", "slug": "vernon"}, "source_identifier": "21340", "external_references": [{"id": 9954, "source": {"name": "Wikidata", "slug": "wikidata"}, "source_identifier": "Q6145472"}, {"id": 9955, "source": {"name": "VIAF", "slug": "viaf"}, "source_identifier": "107708600"}, {"id": 9956, "source": {"name": "LOC Auth", "slug": "loc-auth"}, "source_identifier": "no2013033593"}, {"id": 9957, "source": {"name": "WorldCat", "slug": "worldcat"}, "source_identifier": "lccn-no2013033593"}], "date_modified": "2023-09-13T12:30:16.036344+10:00"}]}