{"count": 28687, "next": "https://api.acmi.net.au/creators/?page=442", "previous": "https://api.acmi.net.au/creators/?page=440", "results": [{"id": 81173, "name": "Top Craft", "roles_in_work": [{"id": 2000500, "title": "Nausicaa of the valley of the wind = Kaze no Tani no Naushika", "work_id": 95086, "role": "production company", "role_id": 941, "is_primary": true}], "also_known_as": "", "date_of_birth": null, "date_of_death": null, "genders": [], "languages": [], "places_of_operation": [], "biography": "", "biography_author": null, "date_of_biography": null, "external_links": [], "uuid": "3169449a-90ad-4f53-9ff5-49d98688b4a0", "source": {"name": "Vernon", "slug": "vernon"}, "source_identifier": null, "external_references": [{"id": 35518, "source": {"name": "Wikidata", "slug": "wikidata"}, "source_identifier": "Q121035148"}], "date_modified": "2023-09-06T01:57:20.418448+10:00"}, {"id": 81172, "name": "Juliette Renaud", "roles_in_work": [{"id": 930168, "title": "Madame Sata", "work_id": 95085, "role": "co-producer", "role_id": 915, "is_primary": true}], "also_known_as": "", "date_of_birth": null, "date_of_death": null, "genders": [], "languages": [], "places_of_operation": [], "biography": "", "biography_author": null, "date_of_biography": null, "external_links": [], "uuid": "401289e7-0d2e-47f4-a2ad-ed57c81e0a5c", "source": {"name": "Vernon", "slug": "vernon"}, "source_identifier": null, "external_references": [{"id": 33770, "source": {"name": "Wikidata", "slug": "wikidata"}, "source_identifier": "Q121271482"}], "date_modified": "2023-09-05T21:56:51.255191+10:00"}, {"id": 81171, "name": "Vincent Marava", "roles_in_work": [{"id": 930165, "title": "Madame Sata", "work_id": 95085, "role": "co-producer", "role_id": 915, "is_primary": true}], "also_known_as": "", "date_of_birth": null, "date_of_death": null, "genders": [], "languages": [], "places_of_operation": [], "biography": "", "biography_author": null, "date_of_biography": null, "external_links": [], "uuid": "25b777d8-9f04-4524-9c36-6db949bd46d7", "source": {"name": "Vernon", "slug": "vernon"}, "source_identifier": null, "external_references": [{"id": 41973, "source": {"name": "Wikidata", "slug": "wikidata"}, "source_identifier": "Q121078802"}], "date_modified": "2023-09-06T02:06:43.407194+10:00"}, {"id": 81170, "name": "Isabel Diegues", "roles_in_work": [{"id": 930164, "title": "Madame Sata", "work_id": 95085, "role": "co-producer", "role_id": 915, "is_primary": true}], "also_known_as": "", "date_of_birth": "1970-09-28", "date_of_death": null, "genders": [{"id": 5, "name": "Female", "slug": "female"}], "languages": [], "places_of_operation": [], "biography": "", "biography_author": null, "date_of_biography": null, "external_links": [], "uuid": "e55b22d5-0f57-4b46-8d0a-b2b8b19854cd", "source": {"name": "Vernon", "slug": "vernon"}, "source_identifier": null, "external_references": [{"id": 9746, "source": {"name": "Wikidata", "slug": "wikidata"}, "source_identifier": "Q10303794"}], "date_modified": "2023-09-05T20:51:30.694027+10:00"}, {"id": 81169, "name": "Marc Beauchamps", "roles_in_work": [{"id": 930163, "title": "Madame Sata", "work_id": 95085, "role": "co-producer", "role_id": 915, "is_primary": true}], "also_known_as": "", "date_of_birth": null, "date_of_death": null, "genders": [], "languages": [], "places_of_operation": [], "biography": "", "biography_author": null, "date_of_biography": null, "external_links": [], "uuid": "b647810a-e2ad-4e38-9435-1ea7600d6b76", "source": {"name": "Vernon", "slug": "vernon"}, "source_identifier": null, "external_references": [{"id": 40670, "source": {"name": "Wikidata", "slug": "wikidata"}, "source_identifier": "Q121159959"}], "date_modified": "2023-09-05T22:38:58.765501+10:00"}, {"id": 81168, "name": "Karim Ainouz", "roles_in_work": [{"id": 930170, "title": "Madame Sata", "work_id": 95085, "role": "director", "role_id": 938, "is_primary": true}, {"id": 930162, "title": "Madame Sata", "work_id": 95085, "role": "co-producer", "role_id": 915, "is_primary": true}], "also_known_as": "", "date_of_birth": "1966-01-17", "date_of_death": null, "genders": [{"id": 9, "name": "Male", "slug": "male"}], "languages": [{"id": 43, "name": "Portuguese", "slug": "portuguese"}], "places_of_operation": [{"id": 209, "name": "Brazil", "slug": "brazil"}], "biography": "Karim Aïnouz (born 17 January 1966) is a Brazilian film director and visual artist.", "biography_author": "Wikidata", "date_of_biography": "2022-05-19T12:09:08.692547+10:00", "external_links": [{"id": 2503, "uri": "https://en.wikipedia.org/wiki/Karim_A%C3%AFnouz"}], "uuid": "e67bd1e4-3c8b-427d-a9bd-2d07090555aa", "source": {"name": "Vernon", "slug": "vernon"}, "source_identifier": "23015", "external_references": [{"id": 10702, "source": {"name": "Wikidata", "slug": "wikidata"}, "source_identifier": "Q749493"}, {"id": 10703, "source": {"name": "VIAF", "slug": "viaf"}, "source_identifier": "96535305"}, {"id": 10704, "source": {"name": "LOC Auth", "slug": "loc-auth"}, "source_identifier": "nr2003026842"}, {"id": 10705, "source": {"name": "WorldCat", "slug": "worldcat"}, "source_identifier": "lccn-nr2003026842"}], "date_modified": "2023-09-05T22:00:27.319226+10:00"}, {"id": 81167, "name": "Michael Sarne", "roles_in_work": [{"id": 2475990, "title": "Gore Vidal's Myra Breckinridge", "work_id": 95084, "role": "director", "role_id": 938, "is_primary": true}], "also_known_as": "", "date_of_birth": "1940-08-06", "date_of_death": "", "genders": [{"id": 9, "name": "Male", "slug": "male"}], "languages": [{"id": 1, "name": "English", "slug": "english"}], "places_of_operation": [{"id": 10, "name": "United Kingdom", "slug": "united-kingdom"}], "biography": "Michael Sarne (born Michael Scheuer; 6 August 1940) is a British actor, singer, writer, producer and director, who also had a brief career as a pop singer in the 1960s. Sarne directed the films Joanna (1968) and Myra Breckinridge (1970). He has appeared as an actor in several films including A Place to Go (1965), Two Weeks in September (1967), and Moonlighting (1982).", "biography_author": "Wikidata", "date_of_biography": "2023-09-05T23:09:12.426841+10:00", "external_links": [{"id": 4710, "uri": "https://en.wikipedia.org/wiki/Mike_Sarne"}], "uuid": "33c310e6-5f63-443d-b429-63b16316a726", "source": {"name": "Vernon", "slug": "vernon"}, "source_identifier": "25220", "external_references": [{"id": 26582, "source": {"name": "Wikidata", "slug": "wikidata"}, "source_identifier": "Q6848704"}, {"id": 30357, "source": {"name": "VIAF", "slug": "viaf"}, "source_identifier": "12013432"}, {"id": 30358, "source": {"name": "LOC Auth", "slug": "loc-auth"}, "source_identifier": "no2004029170"}], "date_modified": "2023-09-05T23:09:12.437316+10:00"}, {"id": 81166, "name": "Larry Katz", "roles_in_work": [{"id": 2323554, "title": "Tempted", "work_id": 95076, "role": "co-producer", "role_id": 915, "is_primary": true}], "also_known_as": "", "date_of_birth": "", "date_of_death": "", "genders": [], "languages": [], "places_of_operation": [], "biography": "", "biography_author": null, "date_of_biography": "2023-05-09T19:15:48.850426+10:00", "external_links": [], "uuid": "dc4ce729-3161-49b5-8bb9-27870fad293e", "source": {"name": "Vernon", "slug": "vernon"}, "source_identifier": "23486", "external_references": [], "date_modified": "2023-06-14T16:33:30.576250+10:00"}, {"id": 81165, "name": "David Kronemyer", "roles_in_work": [{"id": 2323547, "title": "Tempted", "work_id": 95076, "role": "co-producer", "role_id": 915, "is_primary": true}], "also_known_as": "", "date_of_birth": "", "date_of_death": "", "genders": [], "languages": [], "places_of_operation": [], "biography": "", "biography_author": null, "date_of_biography": "2023-05-09T19:15:48.617210+10:00", "external_links": [], "uuid": "f37c51d7-aebd-4364-b105-4afbf00468df", "source": {"name": "Vernon", "slug": "vernon"}, "source_identifier": "17673", "external_references": [], "date_modified": "2023-06-14T16:33:30.576250+10:00"}, {"id": 81164, "name": "Fritz Wildfeuer", "roles_in_work": [{"id": 2347479, "title": "The Experiment = Das Experiment", "work_id": 95073, "role": "co-producer", "role_id": 915, "is_primary": true}], "also_known_as": "", "date_of_birth": "", "date_of_death": "", "genders": [], "languages": [], "places_of_operation": [], "biography": "", "biography_author": null, "date_of_biography": "2023-05-09T19:49:52.197854+10:00", "external_links": [], "uuid": "c463e027-e2df-4084-ad1d-d6744d39122c", "source": {"name": "Vernon", "slug": "vernon"}, "source_identifier": "19300", "external_references": [{"id": 32813, "source": {"name": "Wikidata", "slug": "wikidata"}, "source_identifier": "Q121036826"}], "date_modified": "2023-09-05T19:54:31.494255+10:00"}]}