{"count": 28687, "next": "https://api.acmi.net.au/creators/?page=524", "previous": "https://api.acmi.net.au/creators/?page=522", "results": [{"id": 80353, "name": "David Mirkin", "roles_in_work": [{"id": 2254119, "title": "Romy and Michele's high school reunion", "work_id": 93569, "role": "director", "role_id": 938, "is_primary": true}], "also_known_as": "", "date_of_birth": "1955-09-18", "date_of_death": "", "genders": [{"id": 9, "name": "Male", "slug": "male"}], "languages": [{"id": 1, "name": "English", "slug": "english"}], "places_of_operation": [{"id": 1, "name": "United States of America", "slug": "united-states-of-america"}], "biography": "David Mirkin (born 1956 or 1957) is an American feature film and television director, writer and producer. Mirkin grew up in Philadelphia and intended to become an electrical engineer, but abandoned this career path in favor of studying film at Loyola Marymount University. After graduating, he became a stand-up comedian, and then moved into television writing. He wrote for the sitcoms Three's Company, It's Garry Shandling's Show and The Larry Sanders Show and served as showrunner on the series Newhart. After an unsuccessful attempt to remake the British series The Young Ones, Mirkin created Get a Life in 1990. The series starred comedian Chris Elliott and ran for two seasons, despite a lack of support from many Fox network executives, who disliked the show's dark and surreal humor. He moved on to create the sketch show The Edge starring his then-partner, actress Julie Brown.\nMirkin left The Edge during its run and became the executive producer and showrunner of The Simpsons for its fifth and sixth seasons. Mirkin has been cited as introducing a more surreal element to the show's humor, as shown by his first writing credit for the show, \"Deep Space Homer\", which sees Homer Simpson go to space as part of a NASA program to restore interest in space exploration. He won four Primetime Emmy Awards and a Peabody Award for his work on The Simpsons. Mirkin stood down as showrunner after season six, but produced several subsequent episodes, co-wrote The Simpsons Movie (2007) and in 2013 remains on the show as a consultant. Mirkin has also moved into feature film direction: he directed the films Romy and Michele's High School Reunion (1997) and Heartbreakers (2001).", "biography_author": "Wikidata", "date_of_biography": "2023-08-01T14:35:21.615512+10:00", "external_links": [{"id": 1900, "uri": "https://en.wikipedia.org/wiki/David_Mirkin"}], "uuid": "954d2ed8-9428-4747-b148-83f496cdef2c", "source": {"name": "Vernon", "slug": "vernon"}, "source_identifier": "17720", "external_references": [{"id": 8246, "source": {"name": "Wikidata", "slug": "wikidata"}, "source_identifier": "Q2665938"}, {"id": 8247, "source": {"name": "VIAF", "slug": "viaf"}, "source_identifier": "37123968"}, {"id": 8248, "source": {"name": "LOC Auth", "slug": "loc-auth"}, "source_identifier": "no2003071773"}, {"id": 8249, "source": {"name": "WorldCat", "slug": "worldcat"}, "source_identifier": "lccn-no2003071773"}], "date_modified": "2023-09-05T19:00:54.340522+10:00"}, {"id": 80352, "name": "Bungalow 78", "roles_in_work": [{"id": 2254114, "title": "Romy and Michele's high school reunion", "work_id": 93569, "role": "production company", "role_id": 941, "is_primary": true}], "also_known_as": "", "date_of_birth": "", "date_of_death": "", "genders": [], "languages": [], "places_of_operation": [], "biography": "", "biography_author": null, "date_of_biography": "2023-05-09T17:15:09.085123+10:00", "external_links": [], "uuid": "dfcadfff-4e24-4e67-811e-2ae0b49c17ed", "source": {"name": "Vernon", "slug": "vernon"}, "source_identifier": "6115", "external_references": [{"id": 38672, "source": {"name": "Wikidata", "slug": "wikidata"}, "source_identifier": "Q121223229"}], "date_modified": "2023-09-05T18:15:56.422386+10:00"}, {"id": 80351, "name": "David Lawrence", "roles_in_work": [{"id": 2144010, "title": "Consenting adult", "work_id": 93568, "role": "co-producer", "role_id": 915, "is_primary": true}], "also_known_as": "", "date_of_birth": "", "date_of_death": "", "genders": [], "languages": [], "places_of_operation": [], "biography": "", "biography_author": null, "date_of_biography": "2023-05-09T13:42:58.734960+10:00", "external_links": [], "uuid": "9af1ab4f-38a9-432a-b4e6-edf7604a484e", "source": {"name": "Vernon", "slug": "vernon"}, "source_identifier": "17680", "external_references": [{"id": 33207, "source": {"name": "Wikidata", "slug": "wikidata"}, "source_identifier": "Q121337746"}], "date_modified": "2023-09-05T18:59:40.582552+10:00"}, {"id": 80350, "name": "Ray Aghayan", "roles_in_work": [{"id": 2144006, "title": "Consenting adult", "work_id": 93568, "role": "co-producer", "role_id": 915, "is_primary": true}], "also_known_as": "", "date_of_birth": "1928-07-28", "date_of_death": "2011-10-10", "genders": [{"id": 9, "name": "Male", "slug": "male"}], "languages": [], "places_of_operation": [{"id": 1, "name": "United States of America", "slug": "united-states-of-america"}], "biography": "Gorgen Ray Aghayan (July 28, 1928 – October 10, 2011) was an American fashion designer and costume designer for the United States film industry. He won an Emmy Award and was nominated for an Academy Award for his costume design. From the early 1960s until his death in 2011, Aghayan's partner was fashion designer Bob Mackie.", "biography_author": "Wikidata", "date_of_biography": "2023-09-06T00:21:37.872576+10:00", "external_links": [{"id": 6121, "uri": "https://en.wikipedia.org/wiki/Ray_Aghayan"}], "uuid": "52303205-3fb7-4363-9ade-6886ed0bb493", "source": {"name": "Vernon", "slug": "vernon"}, "source_identifier": "27135", "external_references": [{"id": 52004, "source": {"name": "Wikidata", "slug": "wikidata"}, "source_identifier": "Q2133826"}, {"id": 55587, "source": {"name": "VIAF", "slug": "viaf"}, "source_identifier": "40902894"}, {"id": 55588, "source": {"name": "LOC Auth", "slug": "loc-auth"}, "source_identifier": "n87860082"}, {"id": 55589, "source": {"name": "WorldCat", "slug": "worldcat"}, "source_identifier": "lccn-n87860082"}], "date_modified": "2023-09-06T00:21:37.894712+10:00"}, {"id": 80349, "name": "Michael Christopher", "roles_in_work": [{"id": 2123119, "title": "Boys on film 1: Pool days. The Dead boys club", "work_id": 93564, "role": "co-director", "role_id": 959, "is_primary": true}], "also_known_as": "", "date_of_birth": "", "date_of_death": "", "genders": [], "languages": [], "places_of_operation": [], "biography": "", "biography_author": null, "date_of_biography": "2023-05-09T13:06:47.490727+10:00", "external_links": [], "uuid": "2f946e7a-1eef-4af4-8221-770fa998eda6", "source": {"name": "Vernon", "slug": "vernon"}, "source_identifier": "25013", "external_references": [{"id": 35143, "source": {"name": "Wikidata", "slug": "wikidata"}, "source_identifier": "Q121315026"}], "date_modified": "2023-09-05T23:03:19.156453+10:00"}, {"id": 80348, "name": "Mary Weisgerber Meyer", "roles_in_work": [{"id": 2123113, "title": "Boys on film 1: Pool days. The Dead boys club", "work_id": 93564, "role": "co-producer", "role_id": 915, "is_primary": true}], "also_known_as": "", "date_of_birth": "", "date_of_death": "", "genders": [], "languages": [], "places_of_operation": [], "biography": "", "biography_author": null, "date_of_biography": "2023-05-09T13:06:47.018764+10:00", "external_links": [], "uuid": "3a776716-af38-4bc2-afdf-ff3da6f0b604", "source": {"name": "Vernon", "slug": "vernon"}, "source_identifier": "24742", "external_references": [{"id": 35074, "source": {"name": "Wikidata", "slug": "wikidata"}, "source_identifier": "Q121144204"}], "date_modified": "2023-09-05T22:52:31.938420+10:00"}, {"id": 80347, "name": "Brian Sloan", "roles_in_work": [{"id": 2123116, "title": "Boys on film 1: Pool days. The Dead boys club", "work_id": 93564, "role": "co-director", "role_id": 959, "is_primary": true}, {"id": 2123108, "title": "Boys on film 1: Pool days. The Dead boys club", "work_id": 93564, "role": "co-producer", "role_id": 915, "is_primary": true}], "also_known_as": "", "date_of_birth": "", "date_of_death": "", "genders": [], "languages": [], "places_of_operation": [], "biography": "", "biography_author": null, "date_of_biography": "2023-05-09T13:06:47.249289+10:00", "external_links": [], "uuid": "cdfc354a-47d9-4131-aa1d-e7b645e7d33e", "source": {"name": "Vernon", "slug": "vernon"}, "source_identifier": "16259", "external_references": [{"id": 39708, "source": {"name": "Wikidata", "slug": "wikidata"}, "source_identifier": "Q121057865"}], "date_modified": "2023-09-05T18:11:09.017136+10:00"}, {"id": 80346, "name": "Ellen Perry", "roles_in_work": [{"id": 816002, "title": "Great Wall across the Yangtze", "work_id": 93563, "role": "producer/director", "role_id": 31, "is_primary": true}], "also_known_as": "", "date_of_birth": null, "date_of_death": null, "genders": [{"id": 5, "name": "Female", "slug": "female"}], "languages": [{"id": 1, "name": "English", "slug": "english"}], "places_of_operation": [{"id": 1, "name": "United States of America", "slug": "united-states-of-america"}], "biography": "Ellen Perry is an American film director, writer, producer and cinematographer. She attended the USC School of Cinematic Arts.\nHer first feature documentary, Great Wall Across the Yangtze, aired nationally on PBS in 2000. Narrated by Martin Sheen, the film investigates the Three Gorges Dam project, on China's Yangtze River. It won the Grand Festival Award at the Berkeley Film Festival.Her documentary film on the Peruvian president Alberto Fujimori, The Fall of Fujimori, garnered much acclaim. The film premiered at the Sundance Film Festival in 2005.  The Fall of Fujimori was nominated for an Emmy for Best Feature Documentary in 2006.  It was also nominated for the Writers Guild of America Award for Best Documentary Screenplay in 2005 and was an official selection at over 30 film festivals worldwide. The Fall of Fujimori was awarded the CINE Golden Eagle, Grand Jury Prize at the Independent Film Festival of Boston, Special Jury Prize at the Milan International Film Festival, Director's Choice at the Biografilm Festival and Audience Choice at the Toronto International Latin Film Festival.\nIn making the film, she achieved personal access to Alberto Fujimori, despite his living in exile for his being wanted on criminal charges in Peru in regard to human rights violations. It was characterized by one critic as \"brilliant, revelatory and entertaining\".", "biography_author": "Wikidata", "date_of_biography": "2023-09-05T19:30:05.327598+10:00", "external_links": [{"id": 5794, "uri": "https://en.wikipedia.org/wiki/Ellen_Perry"}], "uuid": "110d92b8-d609-4aea-b0c1-02d6344843a9", "source": {"name": "Vernon", "slug": "vernon"}, "source_identifier": null, "external_references": [{"id": 51762, "source": {"name": "Wikidata", "slug": "wikidata"}, "source_identifier": "Q5364977"}, {"id": 54373, "source": {"name": "VIAF", "slug": "viaf"}, "source_identifier": "314914917"}], "date_modified": "2023-09-05T19:30:05.346892+10:00"}, {"id": 80345, "name": "Hava Beller", "roles_in_work": [{"id": 2467984, "title": "The Restless conscience", "work_id": 93562, "role": "producer/director", "role_id": 31, "is_primary": true}], "also_known_as": "", "date_of_birth": "2000-01-01", "date_of_death": "", "genders": [{"id": 5, "name": "Female", "slug": "female"}], "languages": [{"id": 5, "name": "German", "slug": "german"}], "places_of_operation": [{"id": 18, "name": "Germany", "slug": "germany"}], "biography": "Hava Kohav Beller is a filmmaker primarily known for three documentary films: The Restless Conscience (1991), The Burning Wall (2002), and In The Land of Pomegranates (2018).", "biography_author": "Wikidata", "date_of_biography": "2023-09-05T20:32:35.739928+10:00", "external_links": [{"id": 5863, "uri": "https://en.wikipedia.org/wiki/Hava_Kohav_Beller"}], "uuid": "a016d148-76bf-4df9-b123-a0606c3f3bc3", "source": {"name": "Vernon", "slug": "vernon"}, "source_identifier": "20381", "external_references": [{"id": 42026, "source": {"name": "Wikidata", "slug": "wikidata"}, "source_identifier": "Q100751"}, {"id": 54632, "source": {"name": "VIAF", "slug": "viaf"}, "source_identifier": "7331030"}, {"id": 54633, "source": {"name": "LOC Auth", "slug": "loc-auth"}, "source_identifier": "nr2003003413"}, {"id": 54634, "source": {"name": "WorldCat", "slug": "worldcat"}, "source_identifier": "lccn-nr2003003413"}], "date_modified": "2023-09-05T20:32:35.758244+10:00"}, {"id": 80344, "name": "Jim Goulding", "roles_in_work": [{"id": 2136404, "title": "Children who cheated the Nazis", "work_id": 93561, "role": "co-producer", "role_id": 915, "is_primary": true}], "also_known_as": "", "date_of_birth": "", "date_of_death": "", "genders": [], "languages": [], "places_of_operation": [], "biography": "", "biography_author": null, "date_of_biography": "2023-05-09T13:30:19.314402+10:00", "external_links": [], "uuid": "117c69e1-8a26-4e60-99b5-98d6361533f9", "source": {"name": "Vernon", "slug": "vernon"}, "source_identifier": "21883", "external_references": [{"id": 39532, "source": {"name": "Wikidata", "slug": "wikidata"}, "source_identifier": "Q121143833"}], "date_modified": "2023-09-05T21:24:47.513319+10:00"}]}