{"count": 28687, "next": "https://api.acmi.net.au/creators/?page=2474", "previous": "https://api.acmi.net.au/creators/?page=2472", "results": [{"id": 14230, "name": "TVC London", "roles_in_work": [{"id": 2614146, "title": "The Tailor of Gloucester", "work_id": 83186, "role": "production company", "role_id": 941, "is_primary": true}, {"id": 789721, "title": "The Wind in the willows", "work_id": 85456, "role": "production company", "role_id": 941, "is_primary": true}, {"id": 2614322, "title": "The Tale of Mrs. Tiggy-winkle and Mr. Jeremy Fisher", "work_id": 83503, "role": "production company", "role_id": 941, "is_primary": true}, {"id": 2680833, "title": "Damon the mower", "work_id": 66575, "role": "production company", "role_id": 941, "is_primary": true}, {"id": 2282314, "title": "The Tale of Samuel Whiskers or the roly-poly pudding", "work_id": 84264, "role": "production company", "role_id": 941, "is_primary": true}, {"id": 2282280, "title": "The Tale of Pigling Bland", "work_id": 84099, "role": "production company", "role_id": 941, "is_primary": true}, {"id": 2282263, "title": "The World of Peter Rabbit and friends", "work_id": 115438, "role": "production company", "role_id": 941, "is_primary": true}, {"id": 2282351, "title": "The Tale of the Flopsy bunnies and Mrs. Tittlemouse", "work_id": 85115, "role": "production company", "role_id": 941, "is_primary": true}, {"id": 2322613, "title": "Technology at work (TEFC)", "work_id": 78854, "role": "production company", "role_id": 941, "is_primary": true}], "also_known_as": "", "date_of_birth": "", "date_of_death": "", "genders": [], "languages": [], "places_of_operation": [], "biography": "", "biography_author": null, "date_of_biography": "2023-05-09T19:14:21.299273+10:00", "external_links": [], "uuid": "10947d30-2dff-4fdd-aab2-e3fbad956ea4", "source": {"name": "Vernon", "slug": "vernon"}, "source_identifier": "4247", "external_references": [{"id": 51094, "source": {"name": "Wikidata", "slug": "wikidata"}, "source_identifier": "Q52153758"}], "date_modified": "2025-03-07T00:45:03.487343+11:00"}, {"id": 14229, "name": "Hugh Burnett", "roles_in_work": [{"id": 2760603, "title": "John Huston", "work_id": 69264, "role": "producer", "role_id": 1089, "is_primary": true}, {"id": 2760601, "title": "Dame Edith Sitwell", "work_id": 66574, "role": "producer", "role_id": 1089, "is_primary": true}, {"id": 2647543, "title": "Spirits from the past", "work_id": 76595, "role": "producer", "role_id": 1089, "is_primary": true}, {"id": 2713067, "title": "Escape from sanity: a study of schizophrenia", "work_id": 67228, "role": "producer/director", "role_id": 31, "is_primary": true}], "also_known_as": "", "date_of_birth": null, "date_of_death": null, "genders": [], "languages": [], "places_of_operation": [], "biography": "", "biography_author": null, "date_of_biography": null, "external_links": [], "uuid": "fef35fbe-a5e7-452f-875f-b6728ed6350b", "source": {"name": "Vernon", "slug": "vernon"}, "source_identifier": "20669", "external_references": [], "date_modified": "2025-03-14T17:26:26.040143+11:00"}, {"id": 14228, "name": "Gene Leashinger", "roles_in_work": [{"id": 2680832, "title": "The Dam at Nagarjunasagar", "work_id": 66572, "role": "director", "role_id": 938, "is_primary": true}], "also_known_as": "", "date_of_birth": null, "date_of_death": null, "genders": [], "languages": [], "places_of_operation": [], "biography": "", "biography_author": null, "date_of_biography": null, "external_links": [], "uuid": "69be1163-ff9a-4c78-ac7c-4ac1042d9776", "source": {"name": "Vernon", "slug": "vernon"}, "source_identifier": "19473", "external_references": [], "date_modified": "2025-03-07T00:45:02.670463+11:00"}, {"id": 14227, "name": "Equinox Films", "roles_in_work": [{"id": 2284967, "title": "Tomorrow in their hands", "work_id": 73908, "role": "production company", "role_id": 941, "is_primary": true}, {"id": 2680830, "title": "The Dam at Nagarjunasagar", "work_id": 66572, "role": "production company", "role_id": 941, "is_primary": true}], "also_known_as": "", "date_of_birth": "", "date_of_death": "", "genders": [], "languages": [], "places_of_operation": [], "biography": "", "biography_author": null, "date_of_biography": "2023-05-09T18:07:59.943336+10:00", "external_links": [], "uuid": "815c8175-0159-4846-94e8-cb2cdba275c6", "source": {"name": "Vernon", "slug": "vernon"}, "source_identifier": "7941", "external_references": [{"id": 37997, "source": {"name": "Wikidata", "slug": "wikidata"}, "source_identifier": "Q121091197"}], "date_modified": "2025-03-07T00:45:01.341841+11:00"}, {"id": 14225, "name": "Charles Silverman", "roles_in_work": [{"id": 2680821, "title": "The Daily routine (TEFC)", "work_id": 66569, "role": "director", "role_id": 938, "is_primary": true}], "also_known_as": "", "date_of_birth": "", "date_of_death": "", "genders": [], "languages": [], "places_of_operation": [], "biography": "", "biography_author": null, "date_of_biography": "2023-08-14T11:08:59.346405+10:00", "external_links": [], "uuid": "dcc3bddc-d72b-4247-8c38-918b4318f473", "source": {"name": "Vernon", "slug": "vernon"}, "source_identifier": "16728", "external_references": [], "date_modified": "2025-03-07T00:42:41.018006+11:00"}, {"id": 14224, "name": "Thomas Nielson", "roles_in_work": [{"id": 2680820, "title": "The Daily routine (TEFC)", "work_id": 66569, "role": "producer", "role_id": 1089, "is_primary": true}], "also_known_as": "", "date_of_birth": "", "date_of_death": "", "genders": [], "languages": [], "places_of_operation": [], "biography": "", "biography_author": null, "date_of_biography": "2023-08-14T11:08:58.736202+10:00", "external_links": [], "uuid": "53dd6822-2007-4b16-95c1-2711ff6896e1", "source": {"name": "Vernon", "slug": "vernon"}, "source_identifier": "29698", "external_references": [], "date_modified": "2025-03-07T00:42:40.439251+11:00"}, {"id": 14223, "name": "Self Production", "roles_in_work": [{"id": 2680819, "title": "The Daily routine (TEFC)", "work_id": 66569, "role": "production company", "role_id": 941, "is_primary": true}], "also_known_as": "", "date_of_birth": "", "date_of_death": "", "genders": [], "languages": [], "places_of_operation": [], "biography": "", "biography_author": null, "date_of_biography": "2023-08-14T11:08:58.127510+10:00", "external_links": [], "uuid": "c2bf320c-6694-4b08-973f-8e79b0167338", "source": {"name": "Vernon", "slug": "vernon"}, "source_identifier": "12415", "external_references": [], "date_modified": "2025-03-07T00:42:39.852924+11:00"}, {"id": 14222, "name": "A High", "roles_in_work": [{"id": 2680818, "title": "The Daily routine (TEFC)", "work_id": 66569, "role": "production company", "role_id": 941, "is_primary": true}], "also_known_as": "", "date_of_birth": "", "date_of_death": "", "genders": [], "languages": [], "places_of_operation": [], "biography": "", "biography_author": null, "date_of_biography": "2023-08-14T11:08:57.495254+10:00", "external_links": [], "uuid": "fbb5520b-57c7-4e8c-a698-6b791f670c4e", "source": {"name": "Vernon", "slug": "vernon"}, "source_identifier": "14598", "external_references": [], "date_modified": "2025-03-07T00:42:39.269693+11:00"}, {"id": 14221, "name": "Government Film Unit", "roles_in_work": [{"id": 3110613, "title": "Daily miracle", "work_id": 66568, "role": "production company", "role_id": 941, "is_primary": true}], "also_known_as": "", "date_of_birth": null, "date_of_death": null, "genders": [], "languages": [], "places_of_operation": [], "biography": "", "biography_author": null, "date_of_biography": null, "external_links": [], "uuid": "c66ced3a-b020-4a1a-b7d2-2f253e9f4ea5", "source": {"name": "Vernon", "slug": "vernon"}, "source_identifier": "8821", "external_references": [], "date_modified": "2026-04-16T15:31:32.914764+10:00"}, {"id": 14219, "name": "Natural Disasters Organisation (Australia)", "roles_in_work": [{"id": 2374087, "title": "Bushfire: our summer fate", "work_id": 88653, "role": "production company", "role_id": 941, "is_primary": true}, {"id": 2194173, "title": "Disasters: national preparedness", "work_id": 76781, "role": "production company", "role_id": 941, "is_primary": true}, {"id": 874439, "title": "Flood", "work_id": 88782, "role": "production company", "role_id": 941, "is_primary": true}, {"id": 896157, "title": "The Water must go somewhere", "work_id": 74510, "role": "sponsor", "role_id": 625, "is_primary": false}, {"id": 2680801, "title": "Cyclone approaching", "work_id": 66561, "role": "sponsor", "role_id": 625, "is_primary": false}], "also_known_as": "", "date_of_birth": "", "date_of_death": "", "genders": [], "languages": [], "places_of_operation": [], "biography": "", "biography_author": null, "date_of_biography": "2023-08-09T03:43:45.939920+10:00", "external_links": [], "uuid": "da7d8c77-cd6e-432a-837d-6eb0596436e9", "source": {"name": "Vernon", "slug": "vernon"}, "source_identifier": "10844", "external_references": [{"id": 41178, "source": {"name": "Wikidata", "slug": "wikidata"}, "source_identifier": "Q121034362"}], "date_modified": "2025-03-07T00:42:24.961488+11:00"}]}