{"count": 28682, "next": "https://api.acmi.net.au/creators/?page=329", "previous": "https://api.acmi.net.au/creators/?page=327", "results": [{"id": 82323, "name": "Zhang Rongren", "roles_in_work": [{"id": 2650690, "title": "A French girl seeking a Chinese master = Yang Niu", "work_id": 115755, "role": "director", "role_id": 938, "is_primary": true}], "also_known_as": "", "date_of_birth": "", "date_of_death": "", "genders": [], "languages": [], "places_of_operation": [], "biography": "", "biography_author": null, "date_of_biography": "2023-05-09T11:29:28.834288+10:00", "external_links": [], "uuid": "32fa0f61-b9f1-4307-a0dd-01dcac281090", "source": {"name": "Vernon", "slug": "vernon"}, "source_identifier": "36913", "external_references": [{"id": 33082, "source": {"name": "Wikidata", "slug": "wikidata"}, "source_identifier": "Q121057880"}], "date_modified": "2025-03-05T14:22:27.609972+11:00"}, {"id": 82322, "name": "Wang Wei", "roles_in_work": [{"id": 2188213, "title": "Detective Tie Zhongying", "work_id": 115847, "role": "director", "role_id": 938, "is_primary": true}, {"id": 2650689, "title": "A French girl seeking a Chinese master = Yang Niu", "work_id": 115755, "role": "director", "role_id": 938, "is_primary": true}, {"id": 2651325, "title": "The Magic flying mouse = Fei tian shen shu", "work_id": 115826, "role": "director", "role_id": 938, "is_primary": true}], "also_known_as": "", "date_of_birth": "", "date_of_death": "", "genders": [], "languages": [], "places_of_operation": [], "biography": "", "biography_author": null, "date_of_biography": "2023-05-09T15:04:38.342147+10:00", "external_links": [], "uuid": "06c77ea7-5a51-47d4-b8d9-9d22c3f45549", "source": {"name": "Vernon", "slug": "vernon"}, "source_identifier": "31362", "external_references": [{"id": 41613, "source": {"name": "Wikidata", "slug": "wikidata"}, "source_identifier": "Q121034288"}], "date_modified": "2025-03-05T14:28:48.939679+11:00"}, {"id": 82321, "name": "Pan Rufei", "roles_in_work": [{"id": 2650687, "title": "The Sea prisoners = Hai yue", "work_id": 115754, "role": "cast", "role_id": 33, "is_primary": false}], "also_known_as": "", "date_of_birth": null, "date_of_death": null, "genders": [], "languages": [], "places_of_operation": [], "biography": "", "biography_author": null, "date_of_biography": null, "external_links": [], "uuid": "ed0ea297-2565-4cf7-9446-e11bf09aa5ad", "source": {"name": "Vernon", "slug": "vernon"}, "source_identifier": "36631", "external_references": [{"id": 40025, "source": {"name": "Wikidata", "slug": "wikidata"}, "source_identifier": "Q121223608"}], "date_modified": "2025-03-05T14:22:25.578334+11:00"}, {"id": 82320, "name": "Pan Yuankun", "roles_in_work": [{"id": 2650686, "title": "The Sea prisoners = Hai yue", "work_id": 115754, "role": "cast", "role_id": 33, "is_primary": false}], "also_known_as": "", "date_of_birth": null, "date_of_death": null, "genders": [], "languages": [], "places_of_operation": [], "biography": "", "biography_author": null, "date_of_biography": null, "external_links": [], "uuid": "aa29bfc8-d597-4c92-8730-cadb4a51bdec", "source": {"name": "Vernon", "slug": "vernon"}, "source_identifier": "36630", "external_references": [{"id": 38525, "source": {"name": "Wikidata", "slug": "wikidata"}, "source_identifier": "Q121159937"}], "date_modified": "2025-03-05T14:22:24.986962+11:00"}, {"id": 82319, "name": "Zhang Tianyi", "roles_in_work": [{"id": 2650685, "title": "The Sea prisoners = Hai yue", "work_id": 115754, "role": "cast", "role_id": 33, "is_primary": false}], "also_known_as": "", "date_of_birth": null, "date_of_death": null, "genders": [], "languages": [], "places_of_operation": [], "biography": "", "biography_author": null, "date_of_biography": null, "external_links": [], "uuid": "a1c94055-7910-4b2d-82f4-bebd5f75655e", "source": {"name": "Vernon", "slug": "vernon"}, "source_identifier": "36629", "external_references": [{"id": 51672, "source": {"name": "Wikidata", "slug": "wikidata"}, "source_identifier": "Q121357465"}], "date_modified": "2025-03-05T14:22:24.395360+11:00"}, {"id": 82318, "name": "Tang Jinlong", "roles_in_work": [{"id": 2650684, "title": "The Sea prisoners = Hai yue", "work_id": 115754, "role": "cast", "role_id": 33, "is_primary": false}], "also_known_as": "", "date_of_birth": null, "date_of_death": null, "genders": [], "languages": [], "places_of_operation": [], "biography": "", "biography_author": null, "date_of_biography": null, "external_links": [], "uuid": "f317e856-194e-49a6-9a98-89d3c7ddba61", "source": {"name": "Vernon", "slug": "vernon"}, "source_identifier": "36628", "external_references": [{"id": 35874, "source": {"name": "Wikidata", "slug": "wikidata"}, "source_identifier": "Q121315445"}], "date_modified": "2025-03-05T14:22:23.794197+11:00"}, {"id": 82317, "name": "Zhou Tingmei", "roles_in_work": [{"id": 2651104, "title": "Golden Dart Huang Tianba = Jin Biao Huang Tian Ba", "work_id": 115801, "role": "editor", "role_id": 918, "is_primary": true}, {"id": 2650683, "title": "The Sea prisoners = Hai yue", "work_id": 115754, "role": "editor", "role_id": 918, "is_primary": true}], "also_known_as": "", "date_of_birth": null, "date_of_death": null, "genders": [], "languages": [], "places_of_operation": [], "biography": "", "biography_author": null, "date_of_biography": null, "external_links": [], "uuid": "fc1fb127-7ca6-4f5e-a94f-2adcf9e1a40c", "source": {"name": "Vernon", "slug": "vernon"}, "source_identifier": "36140", "external_references": [{"id": 43333, "source": {"name": "Wikidata", "slug": "wikidata"}, "source_identifier": "Q121036849"}], "date_modified": "2025-03-05T14:26:30.885217+11:00"}, {"id": 82316, "name": "Ren Zhixin", "roles_in_work": [{"id": 2650682, "title": "The Sea prisoners = Hai yue", "work_id": 115754, "role": "cinematographer", "role_id": 32, "is_primary": false}], "also_known_as": "", "date_of_birth": null, "date_of_death": null, "genders": [], "languages": [], "places_of_operation": [], "biography": "", "biography_author": null, "date_of_biography": null, "external_links": [], "uuid": "c57617a8-6368-408b-bcb9-cc1e93f4f550", "source": {"name": "Vernon", "slug": "vernon"}, "source_identifier": "36627", "external_references": [{"id": 36379, "source": {"name": "Wikidata", "slug": "wikidata"}, "source_identifier": "Q121091352"}], "date_modified": "2025-03-05T14:22:22.626364+11:00"}, {"id": 82315, "name": "Ma Linfa", "roles_in_work": [{"id": 2650681, "title": "The Sea prisoners = Hai yue", "work_id": 115754, "role": "cinematographer", "role_id": 32, "is_primary": false}], "also_known_as": "", "date_of_birth": null, "date_of_death": null, "genders": [], "languages": [], "places_of_operation": [], "biography": "", "biography_author": null, "date_of_biography": null, "external_links": [], "uuid": "8a677b49-e928-4c4f-aec7-6d32f3207524", "source": {"name": "Vernon", "slug": "vernon"}, "source_identifier": "36626", "external_references": [{"id": 41644, "source": {"name": "Wikidata", "slug": "wikidata"}, "source_identifier": "Q121143988"}], "date_modified": "2025-03-05T14:22:22.038428+11:00"}, {"id": 82314, "name": "Li Wenhua", "roles_in_work": [{"id": 2651101, "title": "Golden Dart Huang Tianba = Jin Biao Huang Tian Ba", "work_id": 115801, "role": "director", "role_id": 938, "is_primary": true}, {"id": 2650680, "title": "The Sea prisoners = Hai yue", "work_id": 115754, "role": "director", "role_id": 938, "is_primary": true}], "also_known_as": "", "date_of_birth": null, "date_of_death": null, "genders": [], "languages": [], "places_of_operation": [], "biography": "", "biography_author": null, "date_of_biography": null, "external_links": [], "uuid": "21d79abd-6f36-4b0e-a7f1-454d7fa7e4f3", "source": {"name": "Vernon", "slug": "vernon"}, "source_identifier": "36137", "external_references": [], "date_modified": "2025-03-05T14:26:29.095388+11:00"}]}