{"count": 28687, "next": "https://api.acmi.net.au/creators/?page=1169", "previous": "https://api.acmi.net.au/creators/?page=1167", "results": [{"id": 73687, "name": "Kalinda Primary", "roles_in_work": [{"id": 2638177, "title": "Supersoccer", "work_id": 110094, "role": "contributor", "role_id": 616, "is_primary": false}], "also_known_as": "", "date_of_birth": "", "date_of_death": "", "genders": [], "languages": [], "places_of_operation": [], "biography": "", "biography_author": null, "date_of_biography": "2023-05-09T19:08:44.313987+10:00", "external_links": [], "uuid": "c9279609-463c-4676-9104-a64b882c2765", "source": {"name": "Vernon", "slug": "vernon"}, "source_identifier": "2740", "external_references": [], "date_modified": "2025-03-05T11:01:56.910229+11:00"}, {"id": 73686, "name": "ACMI - Screen Education", "roles_in_work": [{"id": 2638140, "title": "Screen It 2005", "work_id": 110064, "role": "", "role_id": 604, "is_primary": false}, {"id": 2709712, "title": "Selected works from the digital storytelling program: April 2001", "work_id": 107817, "role": "creator", "role_id": 968, "is_primary": true}, {"id": 2629647, "title": "Y2K a post mortem", "work_id": 119717, "role": "producer", "role_id": 1089, "is_primary": true}, {"id": 2640712, "title": "Murder on the dance floor (July 2006)", "work_id": 110450, "role": "program developer", "role_id": 618, "is_primary": false}, {"id": 2640707, "title": "Back to the past (April 2006)", "work_id": 110448, "role": "program developer", "role_id": 618, "is_primary": false}, {"id": 2640710, "title": "This is your stop! (April 2006)", "work_id": 110449, "role": "program developer", "role_id": 618, "is_primary": false}, {"id": 2643002, "title": "Video and Animation Workshops 2006", "work_id": 110476, "role": "program developer", "role_id": 618, "is_primary": false}, {"id": 2640714, "title": "Lights, camera, action: Supergeek (August 2006)", "work_id": 110451, "role": "program developer", "role_id": 618, "is_primary": false}], "also_known_as": "", "date_of_birth": "", "date_of_death": "", "genders": [], "languages": [], "places_of_operation": [], "biography": "", "biography_author": null, "date_of_biography": "2023-05-09T19:08:31.722296+10:00", "external_links": [], "uuid": "b0988a12-c528-4a1f-8fdc-58e812112e5a", "source": {"name": "Vernon", "slug": "vernon"}, "source_identifier": "110191", "external_references": [{"id": 38073, "source": {"name": "Wikidata", "slug": "wikidata"}, "source_identifier": "Q121034867"}], "date_modified": "2025-03-11T23:07:48.452479+11:00"}, {"id": 73685, "name": "Craig Family Centre", "roles_in_work": [{"id": 2638686, "title": "My grandmother", "work_id": 110187, "role": "partner", "role_id": 575, "is_primary": false}, {"id": 2638578, "title": "The Blue Nile", "work_id": 110167, "role": "partner", "role_id": 575, "is_primary": false}, {"id": 2638378, "title": "The Cows of Sudan", "work_id": 110283, "role": "partner", "role_id": 575, "is_primary": false}, {"id": 2638564, "title": "Sudan: a new vision", "work_id": 110163, "role": "partner", "role_id": 575, "is_primary": false}, {"id": 2638398, "title": "Wise woman", "work_id": 110046, "role": "partner", "role_id": 575, "is_primary": false}, {"id": 2638401, "title": "Qesa: stories from the Craig Family Centre", "work_id": 110047, "role": "partner", "role_id": 575, "is_primary": false}, {"id": 2638390, "title": "Qesa story", "work_id": 110284, "role": "partner", "role_id": 575, "is_primary": false}, {"id": 2638382, "title": "Dancing again", "work_id": 110281, "role": "partner", "role_id": 575, "is_primary": false}], "also_known_as": "", "date_of_birth": "", "date_of_death": "", "genders": [], "languages": [], "places_of_operation": [], "biography": "", "biography_author": null, "date_of_biography": "2023-05-09T19:40:27.450772+10:00", "external_links": [], "uuid": "a9249b75-0d1c-494f-b72c-88541e5bc934", "source": {"name": "Vernon", "slug": "vernon"}, "source_identifier": "2867", "external_references": [], "date_modified": "2025-03-05T11:09:44.229693+11:00"}, {"id": 73684, "name": "Belgium Avenue Neighbourhood House", "roles_in_work": [{"id": 2638549, "title": "Recovering hope", "work_id": 110044, "role": "partner", "role_id": 575, "is_primary": false}, {"id": 2638526, "title": "Grandmother's butterfly", "work_id": 110045, "role": "partner", "role_id": 575, "is_primary": false}, {"id": 2638670, "title": "My family", "work_id": 110183, "role": "partner", "role_id": 575, "is_primary": false}, {"id": 2638693, "title": "Chopsticks & cricket", "work_id": 110189, "role": "partner", "role_id": 575, "is_primary": false}, {"id": 2638697, "title": "To see hope", "work_id": 110190, "role": "partner", "role_id": 575, "is_primary": false}, {"id": 2638571, "title": "Life is beautiful", "work_id": 110165, "role": "partner", "role_id": 575, "is_primary": false}, {"id": 2638557, "title": "Changing worlds: my journey", "work_id": 110161, "role": "partner", "role_id": 575, "is_primary": false}, {"id": 2638546, "title": "The Village green", "work_id": 110043, "role": "partner", "role_id": 575, "is_primary": false}, {"id": 2638592, "title": "Now I am an Australian", "work_id": 110171, "role": "partner", "role_id": 575, "is_primary": false}], "also_known_as": "", "date_of_birth": "", "date_of_death": "", "genders": [], "languages": [], "places_of_operation": [], "biography": "", "biography_author": null, "date_of_biography": "2023-07-05T03:45:13.295700+10:00", "external_links": [], "uuid": "919df7aa-6072-4f24-942b-203b84431c0d", "source": {"name": "Vernon", "slug": "vernon"}, "source_identifier": "34685", "external_references": [], "date_modified": "2025-03-05T11:09:52.540008+11:00"}, {"id": 73683, "name": "Natalya Vagner", "roles_in_work": [{"id": 2638077, "title": "Murray muse", "work_id": 110041, "role": "composer", "role_id": 538, "is_primary": false}], "also_known_as": "", "date_of_birth": null, "date_of_death": null, "genders": [], "languages": [], "places_of_operation": [], "biography": "", "biography_author": null, "date_of_biography": null, "external_links": [], "uuid": "aab81b50-e3d3-4e0d-9e3d-5f15abc6237f", "source": {"name": "Vernon", "slug": "vernon"}, "source_identifier": "2673", "external_references": [], "date_modified": "2025-03-05T11:00:38.394451+11:00"}, {"id": 73682, "name": "East Gippsland Institute of TAFE", "roles_in_work": [{"id": 2640415, "title": "Darren's day out", "work_id": 110020, "role": "executive producer", "role_id": 916, "is_primary": false}, {"id": 2640441, "title": "Op shops of our town", "work_id": 110021, "role": "executive producer", "role_id": 916, "is_primary": false}, {"id": 2640437, "title": "My grandfather's country", "work_id": 110040, "role": "production facilities", "role_id": 442, "is_primary": false}, {"id": 2640449, "title": "Road trip: after the Gippsland bushfires 2003", "work_id": 110039, "role": "production facilities", "role_id": 442, "is_primary": false}], "also_known_as": "", "date_of_birth": "", "date_of_death": "", "genders": [], "languages": [], "places_of_operation": [], "biography": "", "biography_author": null, "date_of_biography": "2023-05-09T17:44:34.213126+10:00", "external_links": [], "uuid": "387aa377-8755-4912-a1fe-d47afafdc7b8", "source": {"name": "Vernon", "slug": "vernon"}, "source_identifier": "2654", "external_references": [], "date_modified": "2025-03-05T11:28:06.122213+11:00"}, {"id": 73681, "name": "Partners in Grain", "roles_in_work": [{"id": 2637990, "title": "Responding to change", "work_id": 110015, "role": "partner", "role_id": 575, "is_primary": false}, {"id": 2637998, "title": "Against the grain: digital storytelling project", "work_id": 110008, "role": "partner", "role_id": 575, "is_primary": false}, {"id": 2637966, "title": "All change please", "work_id": 110010, "role": "partner", "role_id": 575, "is_primary": false}, {"id": 2637970, "title": "Always a farmer", "work_id": 110011, "role": "partner", "role_id": 575, "is_primary": false}, {"id": 2637974, "title": "Encouragement and growth", "work_id": 110014, "role": "partner", "role_id": 575, "is_primary": false}, {"id": 2637978, "title": "Extending boundaries", "work_id": 110007, "role": "partner", "role_id": 575, "is_primary": false}, {"id": 2637982, "title": "Mallee blossom", "work_id": 110012, "role": "partner", "role_id": 575, "is_primary": false}, {"id": 2637986, "title": "My Love", "work_id": 110013, "role": "partner", "role_id": 575, "is_primary": false}, {"id": 2637994, "title": "Sustainability", "work_id": 110009, "role": "partner", "role_id": 575, "is_primary": false}], "also_known_as": "", "date_of_birth": "", "date_of_death": "", "genders": [], "languages": [], "places_of_operation": [], "biography": "", "biography_author": null, "date_of_biography": "2023-07-05T03:42:35.893923+10:00", "external_links": [], "uuid": "3bb7b1cc-dcba-450d-bcdd-2ae7c5b34e2e", "source": {"name": "Vernon", "slug": "vernon"}, "source_identifier": "2642", "external_references": [], "date_modified": "2025-03-05T10:59:33.187116+11:00"}, {"id": 73680, "name": "Regional Arts Victoria", "roles_in_work": [{"id": 2640460, "title": "Selected works from \"Bute utes: the movie\"", "work_id": 110005, "role": "", "role_id": 604, "is_primary": false}, {"id": 2640456, "title": "We used to call them Blackboys", "work_id": 110004, "role": "executive producer", "role_id": 916, "is_primary": false}, {"id": 2640409, "title": "Boppo's bike ride", "work_id": 110034, "role": "executive producer", "role_id": 916, "is_primary": false}, {"id": 2640425, "title": "A Magic place", "work_id": 110006, "role": "executive producer", "role_id": 916, "is_primary": false}, {"id": 2640442, "title": "Op shops of our town", "work_id": 110021, "role": "funding", "role_id": 609, "is_primary": false}, {"id": 2640414, "title": "Darren's day out", "work_id": 110020, "role": "funding", "role_id": 609, "is_primary": false}, {"id": 2180448, "title": "Grumpy old man", "work_id": 116541, "role": "partner", "role_id": 575, "is_primary": false}, {"id": 2180427, "title": "A Little bit of willpower", "work_id": 116544, "role": "partner", "role_id": 575, "is_primary": false}, {"id": 2180412, "title": "Crossenvale stories : Digital Storytelling project", "work_id": 116539, "role": "partner", "role_id": 575, "is_primary": false}, {"id": 2180392, "title": "Where my heart lies", "work_id": 116546, "role": "partner", "role_id": 575, "is_primary": false}, {"id": 2180562, "title": "I spell I can't...I can!", "work_id": 116542, "role": "partner", "role_id": 575, "is_primary": false}, {"id": 2180398, "title": "The Wolf", "work_id": 116547, "role": "partner", "role_id": 575, "is_primary": false}, {"id": 2180381, "title": "An Ordinary life", "work_id": 116545, "role": "partner", "role_id": 575, "is_primary": false}, {"id": 2180298, "title": "Days of clear water", "work_id": 116540, "role": "partner", "role_id": 575, "is_primary": false}, {"id": 2180467, "title": "In memory of Mark and Dusty", "work_id": 116543, "role": "partner", "role_id": 575, "is_primary": false}, {"id": 2640451, "title": "Road trip: after the Gippsland bushfires 2003", "work_id": 110039, "role": "project manager", "role_id": 498, "is_primary": false}, {"id": 2640435, "title": "My grandfather's country", "work_id": 110040, "role": "project manager", "role_id": 498, "is_primary": false}], "also_known_as": "", "date_of_birth": "", "date_of_death": "", "genders": [], "languages": [], "places_of_operation": [], "biography": "", "biography_author": null, "date_of_biography": "2023-05-09T17:44:34.458670+10:00", "external_links": [], "uuid": "24c47095-3e49-4e80-b65c-c5a5de77ebd0", "source": {"name": "Vernon", "slug": "vernon"}, "source_identifier": "2636", "external_references": [], "date_modified": "2025-03-05T11:28:10.137577+11:00"}, {"id": 73679, "name": "Castlemaine Art Gallery and Museum", "roles_in_work": [{"id": 2637922, "title": "The School of Stanley J. Ellis", "work_id": 110002, "role": "collaborator", "role_id": 536, "is_primary": false}], "also_known_as": "", "date_of_birth": "", "date_of_death": "", "genders": [], "languages": [], "places_of_operation": [], "biography": "", "biography_author": null, "date_of_biography": "2023-05-09T17:07:22.546576+10:00", "external_links": [], "uuid": "b63477e2-59f5-4026-bd89-74b43ff90075", "source": {"name": "Vernon", "slug": "vernon"}, "source_identifier": "2640", "external_references": [], "date_modified": "2025-03-05T10:58:33.189280+11:00"}, {"id": 73678, "name": "Murtoa Historical Society", "roles_in_work": [{"id": 2637911, "title": "Dad's goanna", "work_id": 110001, "role": "collaborator", "role_id": 536, "is_primary": false}], "also_known_as": "", "date_of_birth": "", "date_of_death": "", "genders": [], "languages": [], "places_of_operation": [], "biography": "", "biography_author": null, "date_of_biography": "2023-05-09T17:07:24.906379+10:00", "external_links": [], "uuid": "b4bc9759-5187-461d-9310-750cce6aaf87", "source": {"name": "Vernon", "slug": "vernon"}, "source_identifier": "2123", "external_references": [], "date_modified": "2025-03-05T10:58:25.485670+11:00"}]}