{"count": 28682, "next": "https://api.acmi.net.au/creators/?page=2188", "previous": "https://api.acmi.net.au/creators/?page=2186", "results": [{"id": 18910, "name": "Shirley Winters", "roles_in_work": [{"id": 2472139, "title": "You can compose a dance. No 2", "work_id": 75004, "role": "director", "role_id": 938, "is_primary": true}, {"id": 2472138, "title": "You can compose a dance. No 1", "work_id": 75003, "role": "director", "role_id": 938, "is_primary": true}], "also_known_as": "", "date_of_birth": "", "date_of_death": "", "genders": [], "languages": [], "places_of_operation": [], "biography": "", "biography_author": null, "date_of_biography": "2023-08-14T12:54:13.636325+10:00", "external_links": [], "uuid": "dc148188-e5f7-4c29-85d1-8ed71140cd14", "source": {"name": "Vernon", "slug": "vernon"}, "source_identifier": "28778", "external_references": [{"id": 35165, "source": {"name": "Wikidata", "slug": "wikidata"}, "source_identifier": "Q120697238"}], "date_modified": "2023-09-06T01:16:37.110695+10:00"}, {"id": 18909, "name": "Anti Cancer Council", "roles_in_work": [{"id": 2508766, "title": "Anti-Cancer Council ad: 'Menthol muck'", "work_id": 122530, "role": "creator", "role_id": 968, "is_primary": true}, {"id": 2508767, "title": "Anti-Cancer Council ad: Patio scene", "work_id": 122531, "role": "creator", "role_id": 968, "is_primary": true}, {"id": 2508768, "title": "Anti-Cancer Council ad: 'Pommy migrants'", "work_id": 122532, "role": "creator", "role_id": 968, "is_primary": true}, {"id": 2508769, "title": "Anti-Cancer Council ad: 'Sucker on the end'", "work_id": 122533, "role": "creator", "role_id": 968, "is_primary": true}, {"id": 2508770, "title": "Anti-Cancer Council ad: Tar bottle", "work_id": 122534, "role": "creator", "role_id": 968, "is_primary": true}, {"id": 2508771, "title": "Anti-Cancer Council ad: Warren Mitchell", "work_id": 122535, "role": "creator", "role_id": 968, "is_primary": true}, {"id": 2508772, "title": "Anti-Cancer Council ad: 'You in the black box'", "work_id": 122536, "role": "creator", "role_id": 968, "is_primary": true}, {"id": 2508763, "title": "Anti-Cancer Council ad: 'Died by his own hand'", "work_id": 122527, "role": "creator", "role_id": 968, "is_primary": true}, {"id": 2508764, "title": "Anti-Cancer Council ad: 'Have a fag'", "work_id": 122528, "role": "creator", "role_id": 968, "is_primary": true}, {"id": 2508765, "title": "Anti-Cancer Council ad: 'I'll have to get a job'", "work_id": 122529, "role": "creator", "role_id": 968, "is_primary": true}, {"id": 2677314, "title": "Another day", "work_id": 64804, "role": "production company", "role_id": 941, "is_primary": true}, {"id": 2524119, "title": "Leave it to the chimneys", "work_id": 75667, "role": "production company", "role_id": 941, "is_primary": true}, {"id": 3084547, "title": "Living with breast cancer", "work_id": 93272, "role": "production company", "role_id": 941, "is_primary": true}, {"id": 1068288, "title": "The Life in your hands [Italian version]", "work_id": 69693, "role": "production company", "role_id": 941, "is_primary": true}, {"id": 1068286, "title": "The Life in your hands", "work_id": 69692, "role": "production company", "role_id": 941, "is_primary": true}, {"id": 1903648, "title": "You are not alone", "work_id": 75002, "role": "production company", "role_id": 941, "is_primary": true}, {"id": 1068724, "title": "The Life in your hands [Greek version]", "work_id": 77601, "role": "production company", "role_id": 941, "is_primary": true}, {"id": 939953, "title": "Smoking....today's problem", "work_id": 99222, "role": "production company", "role_id": 941, "is_primary": true}], "also_known_as": "", "date_of_birth": "", "date_of_death": "", "genders": [], "languages": [], "places_of_operation": [], "biography": "", "biography_author": null, "date_of_biography": "2023-08-11T13:47:28.146937+10:00", "external_links": [], "uuid": "0b31afa0-b085-42a7-8f5e-5050f444d4ac", "source": {"name": "Vernon", "slug": "vernon"}, "source_identifier": "5297", "external_references": [], "date_modified": "2025-03-17T10:36:57.566774+11:00"}, {"id": 18908, "name": "Holland Wegman", "roles_in_work": [{"id": 2472137, "title": "You and office safety", "work_id": 74999, "role": "production company", "role_id": 941, "is_primary": true}], "also_known_as": "", "date_of_birth": "", "date_of_death": "", "genders": [], "languages": [], "places_of_operation": [], "biography": "", "biography_author": null, "date_of_biography": "2023-08-14T12:54:09.569854+10:00", "external_links": [], "uuid": "f61eb86e-f5a3-4030-b48b-8b242b72bd75", "source": {"name": "Vernon", "slug": "vernon"}, "source_identifier": "9124", "external_references": [], "date_modified": "2023-08-14T12:54:09.570195+10:00"}, {"id": 18897, "name": "George Stevens Jr", "roles_in_work": [{"id": 861076, "title": "Years of lightning, day of drums", "work_id": 74976, "role": "director", "role_id": 938, "is_primary": true}, {"id": 2069147, "title": "A Filmmaker's Journey", "work_id": 80679, "role": "director", "role_id": 938, "is_primary": true}, {"id": 2327784, "title": "The American Film Institute salute to Henry Fonda", "work_id": 93248, "role": "co-producer", "role_id": 915, "is_primary": true}, {"id": 2327139, "title": "The American Film Institute salute to Jimmy Stewart", "work_id": 93252, "role": "producer", "role_id": 1089, "is_primary": true}, {"id": 2327776, "title": "The American Film Institute salute to Fred Astaire", "work_id": 93221, "role": "producer", "role_id": 1089, "is_primary": true}], "also_known_as": "", "date_of_birth": "", "date_of_death": "", "genders": [], "languages": [], "places_of_operation": [], "biography": "", "biography_author": null, "date_of_biography": "2023-05-09T19:21:36.292448+10:00", "external_links": [], "uuid": "3a3b5880-adf1-4440-b2e7-d715bdcfcf45", "source": {"name": "Vernon", "slug": "vernon"}, "source_identifier": "19682", "external_references": [], "date_modified": "2023-06-14T16:33:30.576250+10:00"}, {"id": 18896, "name": "Alan Root", "roles_in_work": [{"id": 2133748, "title": "Castles of clay", "work_id": 76006, "role": "co-producer", "role_id": 915, "is_primary": true}, {"id": 2770797, "title": "Balloon safari = Safari by balloon", "work_id": 80349, "role": "producer", "role_id": 1089, "is_primary": true}, {"id": 1820197, "title": "Lights, action, Africa!", "work_id": 77774, "role": "producer", "role_id": 1089, "is_primary": true}, {"id": 861075, "title": "The Year of the wildebeeste", "work_id": 74975, "role": "producer/director", "role_id": 31, "is_primary": true}], "also_known_as": "", "date_of_birth": "1937-05-12", "date_of_death": "2017-08-26", "genders": [{"id": 9, "name": "Male", "slug": "male"}], "languages": [{"id": 1, "name": "English", "slug": "english"}], "places_of_operation": [{"id": 10, "name": "United Kingdom", "slug": "united-kingdom"}], "biography": "Alan Root (12 May 1937, London – 26 August 2017) was a British-born filmmaker who worked on nature documentary series such as Survival.Until 1990 he was married to Joan Root, who was a Kenyan-born conservationist, murdered at Lake Naivasha in 2006. The couple had produced National Geographic articles together from 1963 to 1971 on animals, Galapagos Islands, and mainly African wildlife. Notable films include: The Year of the Wildebeest (1974), Safari by Balloon (1975), Mysterious Castles of Clay (1978), Two in the Bush (1980) and A Season in the Sun (1983).Alan Root's strong narrative style characterised much of Survival’s output and helped shape a sophisticated genre known as Blue Chip films.  The Year of the Wildebeest was the epic story of the thundering migration of wildebeest herds across the plains of the Serengeti. Mysterious Castles of Clay, by contrast, showed wildlife in intricate detail in and around termite mounds, revealing the insects' highly organised society and skills of construction. It received a nomination for an Academy Award.The Roots used a hot-air balloon to film sequences for the wildebeest film, and in Safari by Balloon made the first hot-air balloon flight over Mount Kilimanjaro. Two in the Bush (re-titled Lights, Action, Africa! in the USA) included  \"Mysterious Castles Clay\" footage of a spitting cobra directing its venom at Joan's face positioned just a few feet from the snake while Alan filmed. A Season in the Sun, an account of wildlife's struggle to survive the heat and drought of the dry season, won an Emmy and a Peabody Award after it was aired by PBS in 1987.Alan and Joan Root were responsible for many of Survival's most successful films for almost 20 years from the mid-1960s. After their partnership ended, Alan Root continued his association with Survival as a cinematographer, producing his own films and guiding the early African work of camera team Mark Deeble and Victoria Stone, while latterly also acting as adviser to the series.", "biography_author": "Wikidata", "date_of_biography": "2023-09-05T17:20:58.383029+10:00", "external_links": [{"id": 5659, "uri": "https://en.wikipedia.org/wiki/Alan_Root"}], "uuid": "7e444e46-70de-4f0c-a0f4-db52182bf491", "source": {"name": "Vernon", "slug": "vernon"}, "source_identifier": "14797", "external_references": [{"id": 52028, "source": {"name": "Wikidata", "slug": "wikidata"}, "source_identifier": "Q4707662"}, {"id": 53893, "source": {"name": "VIAF", "slug": "viaf"}, "source_identifier": "149120148"}, {"id": 53894, "source": {"name": "LOC Auth", "slug": "loc-auth"}, "source_identifier": "n83039898"}, {"id": 53895, "source": {"name": "WorldCat", "slug": "worldcat"}, "source_identifier": "lccn-n83039898"}], "date_modified": "2025-03-14T18:20:29.023559+11:00"}, {"id": 18895, "name": "ANGLIA", "roles_in_work": [{"id": 2770895, "title": "Together they stand", "work_id": 83752, "role": "production company", "role_id": 941, "is_primary": true}, {"id": 2770876, "title": "Pelican flyway", "work_id": 83433, "role": "production company", "role_id": 941, "is_primary": true}, {"id": 2770944, "title": "Survival Anglia Wildlife Series", "work_id": 115151, "role": "production company", "role_id": 941, "is_primary": true}, {"id": 2770793, "title": "Balloon safari = Safari by balloon", "work_id": 80349, "role": "production company", "role_id": 941, "is_primary": true}, {"id": 861074, "title": "The Year of the wildebeeste", "work_id": 74975, "role": "production company", "role_id": 941, "is_primary": true}, {"id": 2770835, "title": "Last kingdom of the elephant", "work_id": 83331, "role": "production company", "role_id": 941, "is_primary": true}], "also_known_as": "", "date_of_birth": "", "date_of_death": "", "genders": [], "languages": [], "places_of_operation": [], "biography": "", "biography_author": null, "date_of_biography": "2023-05-09T19:56:01.740780+10:00", "external_links": [], "uuid": "b09f1559-6f17-4c28-99d1-1c3500dd0509", "source": {"name": "Vernon", "slug": "vernon"}, "source_identifier": "5249", "external_references": [{"id": 33076, "source": {"name": "Wikidata", "slug": "wikidata"}, "source_identifier": "Q121337579"}], "date_modified": "2025-03-14T18:20:53.243041+11:00"}, {"id": 18894, "name": "Ray Daughters", "roles_in_work": [{"id": 2407450, "title": "Fifteenth Olympic Games - Helsinki: Men's diving", "work_id": 74971, "role": "production company", "role_id": 941, "is_primary": true}], "also_known_as": "", "date_of_birth": "", "date_of_death": "", "genders": [], "languages": [], "places_of_operation": [], "biography": "", "biography_author": null, "date_of_biography": "2023-08-11T16:37:05.801308+10:00", "external_links": [], "uuid": "a8248b30-40ac-41b8-afdc-746c3c57dde0", "source": {"name": "Vernon", "slug": "vernon"}, "source_identifier": "11878", "external_references": [], "date_modified": "2023-08-11T16:37:05.801564+10:00"}, {"id": 18893, "name": "Division of Visual Aids US Office of Education", "roles_in_work": [{"id": 2472104, "title": "X -Ray inspection", "work_id": 74970, "role": "production company", "role_id": 941, "is_primary": true}], "also_known_as": "", "date_of_birth": "", "date_of_death": "", "genders": [], "languages": [], "places_of_operation": [], "biography": "", "biography_author": null, "date_of_biography": "2023-08-14T12:53:20.182691+10:00", "external_links": [], "uuid": "a924659b-f212-4de3-b459-3134281e3b2b", "source": {"name": "Vernon", "slug": "vernon"}, "source_identifier": "7607", "external_references": [], "date_modified": "2023-08-14T12:53:20.182958+10:00"}, {"id": 18891, "name": "Pacific", "roles_in_work": [{"id": 2468814, "title": "The Wynns, winegrowers", "work_id": 74967, "role": "production company", "role_id": 941, "is_primary": true}], "also_known_as": "", "date_of_birth": "", "date_of_death": "", "genders": [], "languages": [], "places_of_operation": [], "biography": "", "biography_author": null, "date_of_biography": "2023-08-14T11:46:49.039728+10:00", "external_links": [], "uuid": "3a568935-8080-4c9d-9ea2-19810dba5e9a", "source": {"name": "Vernon", "slug": "vernon"}, "source_identifier": "11227", "external_references": [], "date_modified": "2023-08-14T11:46:49.039983+10:00"}, {"id": 18890, "name": "BBC Open University Production Centre", "roles_in_work": [{"id": 2768327, "title": "The Writer in exile: James Joyce", "work_id": 74962, "role": "production company", "role_id": 941, "is_primary": true}], "also_known_as": "", "date_of_birth": "", "date_of_death": "", "genders": [], "languages": [], "places_of_operation": [], "biography": "", "biography_author": null, "date_of_biography": "2023-08-14T11:46:44.194796+10:00", "external_links": [], "uuid": "75aeff56-58bc-44ed-944d-69f3a73a7867", "source": {"name": "Vernon", "slug": "vernon"}, "source_identifier": "35936", "external_references": [], "date_modified": "2025-03-14T18:09:30.147609+11:00"}]}