{"count": 28681, "next": "https://api.acmi.net.au/creators/?page=2821", "previous": "https://api.acmi.net.au/creators/?page=2819", "results": [{"id": 8374, "name": "Danielle Maclean", "roles_in_work": [{"id": 2629831, "title": "My colour, your kind", "work_id": 108576, "role": "director", "role_id": 938, "is_primary": true}, {"id": 2629830, "title": "My colour, your kind", "work_id": 108576, "role": "creator", "role_id": 968, "is_primary": true}], "also_known_as": "", "date_of_birth": "", "date_of_death": "", "genders": [], "languages": [], "places_of_operation": [], "biography": "", "biography_author": null, "date_of_biography": "2023-08-14T09:57:44.003150+10:00", "external_links": [], "uuid": "ec5b67d7-55a6-4dad-9f02-2ffa6167920c", "source": {"name": "Vernon", "slug": "vernon"}, "source_identifier": "111468", "external_references": [], "date_modified": "2025-02-27T22:56:33.687045+11:00"}, {"id": 8372, "name": "Sonia Hofmann", "roles_in_work": [{"id": 2640975, "title": "Morris loves Jack", "work_id": 110402, "role": "director", "role_id": 938, "is_primary": true}, {"id": 2629828, "title": "Morris loves Jack", "work_id": 108574, "role": "director", "role_id": 938, "is_primary": true}, {"id": 2629827, "title": "Morris loves Jack", "work_id": 108574, "role": "creator", "role_id": 968, "is_primary": true}, {"id": 864376, "title": "Morris loves Jack", "work_id": 77897, "role": "producer/director", "role_id": 31, "is_primary": true}, {"id": 2640977, "title": "Morris loves Jack", "work_id": 110402, "role": "writer", "role_id": 939, "is_primary": true}], "also_known_as": "", "date_of_birth": "", "date_of_death": "", "genders": [], "languages": [], "places_of_operation": [], "biography": "", "biography_author": null, "date_of_biography": "2023-05-09T15:15:59.852271+10:00", "external_links": [], "uuid": "33b53632-81f2-4c1a-bc49-aea23940a6d3", "source": {"name": "Vernon", "slug": "vernon"}, "source_identifier": "111465", "external_references": [{"id": 32938, "source": {"name": "Wikidata", "slug": "wikidata"}, "source_identifier": "Q121034450"}], "date_modified": "2025-03-05T11:31:33.064995+11:00"}, {"id": 8370, "name": "Marie Craven", "roles_in_work": [{"id": 2629826, "title": "Maidenhead", "work_id": 114094, "role": "director", "role_id": 938, "is_primary": true}, {"id": 2629825, "title": "Maidenhead", "work_id": 114094, "role": "creator", "role_id": 968, "is_primary": true}], "also_known_as": "", "date_of_birth": "24 JUL 1962", "date_of_death": "", "genders": [{"id": 5, "name": "Female", "slug": "female"}], "languages": [], "places_of_operation": [], "biography": "Marie Craven is an Australian film-maker who has directed, written and/or produced short films since 1984.\n\nBased in Queensland since 2002, she spent her early childhood living on a sheep and cattle station in country NSW, before her family relocated to Melbourne in 1967. She was an actor in theatre in her teens and early twenties, becoming involved in film-making in 1984. Over the next decade she played a significant role in the development of the underground and experimental film communities in Melbourne.\n\nDuring the early 1990s, she moved from experimental into narrative film-making. Her films into the 2000s were exhibited extensively and internationally, including at major festivals such as Rotterdam, Sydney and Melbourne, along with more specialised or smaller festivals and events in many countries. Her films 'Pale Black' (1992), 'Maidenhead' (1995) and 'Blow' (2002) gathered several awards at international film festivals.\n\nFrom 2007-2015 she was prolifically involved in providing vocals to electronic music producers around the world, collaborating via the internet under the artist name, 'Pixieguts', and in a duo with Paul Foster called 'Cwtch'.\n\nShe returned her primary focus to film-making in 2014, specialising in poetry film. Between 2014 and 2019 she released more than 60 short films in this genre, which have screened widely and internationally at specialised festivals and events, and gathered a number of awards.\n\nIn other roles, she has freelanced as a teacher of screen-writing at universities, technical colleges and community centres, a reviewer of films and books, an arts administrator, and a curator of film exhibitions, most notably the Australian National Focus at the Festival de Cine Experimental de Madrid in 1994. In 2019-2020 she is touring internationally a short film program she curated, called 'Poetry + Video'.\nIMDb Mini Biography by  Marie Craven", "biography_author": null, "date_of_biography": "2025-02-27T22:56:30.274761+11:00", "external_links": [], "uuid": "ffb0fddd-8fa2-4637-b0a2-b0ff6b75b43d", "source": {"name": "Vernon", "slug": "vernon"}, "source_identifier": "111463", "external_references": [], "date_modified": "2025-02-27T22:56:30.274999+11:00"}, {"id": 8369, "name": "Chris Backhouse", "roles_in_work": [{"id": 3095543, "title": "Lovely day", "work_id": 108572, "role": "director", "role_id": 938, "is_primary": true}, {"id": 3095544, "title": "Lovely day", "work_id": 108572, "role": "creator", "role_id": 968, "is_primary": true}, {"id": 2318381, "title": "Sunday", "work_id": 92258, "role": "producer/director", "role_id": 31, "is_primary": true}], "also_known_as": "", "date_of_birth": "", "date_of_death": "", "genders": [], "languages": [], "places_of_operation": [], "biography": "", "biography_author": null, "date_of_biography": "2023-05-09T19:08:27.168310+10:00", "external_links": [], "uuid": "4024dbc2-edf5-4e84-909d-b6b31cc94827", "source": {"name": "Vernon", "slug": "vernon"}, "source_identifier": "111462", "external_references": [{"id": 40774, "source": {"name": "Wikidata", "slug": "wikidata"}, "source_identifier": "Q121035627"}], "date_modified": "2025-05-05T22:35:05.695324+10:00"}, {"id": 8368, "name": "Clare Sawyer", "roles_in_work": [{"id": 2629822, "title": "Lost", "work_id": 108571, "role": "producer", "role_id": 1089, "is_primary": true}, {"id": 2294248, "title": "Vitalogy", "work_id": 92821, "role": "producer", "role_id": 1089, "is_primary": true}], "also_known_as": "", "date_of_birth": "", "date_of_death": "", "genders": [], "languages": [], "places_of_operation": [], "biography": "", "biography_author": null, "date_of_biography": "2023-05-09T18:24:35.890686+10:00", "external_links": [], "uuid": "f8565c02-c79a-44b7-b13b-6e6aac131d2c", "source": {"name": "Vernon", "slug": "vernon"}, "source_identifier": "111461", "external_references": [{"id": 37505, "source": {"name": "Wikidata", "slug": "wikidata"}, "source_identifier": "Q121222691"}], "date_modified": "2025-02-27T22:56:27.350042+11:00"}, {"id": 8367, "name": "Ros Walker", "roles_in_work": [{"id": 2629821, "title": "Lost", "work_id": 108571, "role": "producer", "role_id": 1089, "is_primary": true}], "also_known_as": "", "date_of_birth": null, "date_of_death": null, "genders": [], "languages": [], "places_of_operation": [], "biography": "", "biography_author": null, "date_of_biography": null, "external_links": [], "uuid": "0e4ca3b2-71b7-451a-97d1-8722f176c688", "source": {"name": "Vernon", "slug": "vernon"}, "source_identifier": "111460", "external_references": [], "date_modified": "2025-02-27T22:56:26.763700+11:00"}, {"id": 8366, "name": "Maree Woolley", "roles_in_work": [{"id": 2619436, "title": "Kitchen sync", "work_id": 108568, "role": "director", "role_id": 938, "is_primary": true}, {"id": 2619435, "title": "Kitchen sync", "work_id": 108568, "role": "creator", "role_id": 968, "is_primary": true}], "also_known_as": "", "date_of_birth": null, "date_of_death": null, "genders": [], "languages": [], "places_of_operation": [], "biography": "", "biography_author": null, "date_of_biography": null, "external_links": [], "uuid": "a13ffa8e-c188-4c43-ad1a-63cc8d22b38f", "source": {"name": "Vernon", "slug": "vernon"}, "source_identifier": "111458", "external_references": [], "date_modified": "2025-02-26T23:10:28.141671+11:00"}, {"id": 8365, "name": "Di Cousens", "roles_in_work": [{"id": 2629811, "title": "Icon", "work_id": 108565, "role": "director", "role_id": 938, "is_primary": true}, {"id": 2629812, "title": "Icon", "work_id": 108565, "role": "creator", "role_id": 968, "is_primary": true}, {"id": 2629810, "title": "Icon", "work_id": 108565, "role": "producer", "role_id": 1089, "is_primary": true}], "also_known_as": "", "date_of_birth": "", "date_of_death": "", "genders": [], "languages": [], "places_of_operation": [], "biography": "", "biography_author": null, "date_of_biography": "2023-08-11T18:17:50.130460+10:00", "external_links": [], "uuid": "f9c02158-fdf9-4757-a7ee-34b52928d8b1", "source": {"name": "Vernon", "slug": "vernon"}, "source_identifier": "111456", "external_references": [], "date_modified": "2025-02-27T22:56:21.797692+11:00"}, {"id": 8364, "name": "Greg Holfeld", "roles_in_work": [{"id": 3095541, "title": "Heartbreak Motel", "work_id": 108564, "role": "director", "role_id": 938, "is_primary": true}, {"id": 3095540, "title": "Heartbreak Motel", "work_id": 108564, "role": "creator", "role_id": 968, "is_primary": true}], "also_known_as": "", "date_of_birth": "", "date_of_death": "", "genders": [], "languages": [], "places_of_operation": [], "biography": "", "biography_author": null, "date_of_biography": "2023-05-09T15:40:57.294003+10:00", "external_links": [], "uuid": "4385859c-cad1-4604-9efe-d0396f2dc129", "source": {"name": "Vernon", "slug": "vernon"}, "source_identifier": "111452", "external_references": [{"id": 34310, "source": {"name": "Wikidata", "slug": "wikidata"}, "source_identifier": "Q121126783"}], "date_modified": "2025-05-05T22:35:03.668262+10:00"}, {"id": 8362, "name": "Andrew Tamandl", "roles_in_work": [{"id": 879780, "title": "Has beans", "work_id": 92055, "role": "director", "role_id": 938, "is_primary": true}, {"id": 2635916, "title": "Has beans", "work_id": 108563, "role": "director", "role_id": 938, "is_primary": true}, {"id": 2635912, "title": "Has beans", "work_id": 108563, "role": "creator", "role_id": 968, "is_primary": true}], "also_known_as": "", "date_of_birth": "", "date_of_death": "", "genders": [], "languages": [], "places_of_operation": [], "biography": "", "biography_author": null, "date_of_biography": "2023-08-11T13:15:36.302246+10:00", "external_links": [], "uuid": "6d3e91d3-039d-4222-869e-3ebb4f23deb5", "source": {"name": "Vernon", "slug": "vernon"}, "source_identifier": "111450", "external_references": [], "date_modified": "2025-03-05T10:30:27.489602+11:00"}]}