{"count": 28687, "next": "https://api.acmi.net.au/creators/?page=2612", "previous": "https://api.acmi.net.au/creators/?page=2610", "results": [{"id": 12524, "name": "Department of Education, New Zealand", "roles_in_work": [{"id": 2677381, "title": "Aorere: an attempt at change", "work_id": 64834, "role": "production company", "role_id": 941, "is_primary": true}], "also_known_as": "", "date_of_birth": "", "date_of_death": "", "genders": [], "languages": [], "places_of_operation": [], "biography": "", "biography_author": null, "date_of_biography": "2023-08-11T14:09:14.194666+10:00", "external_links": [], "uuid": "09b68f83-2a6f-44d0-8bf6-9351d6651798", "source": {"name": "Vernon", "slug": "vernon"}, "source_identifier": "7427", "external_references": [], "date_modified": "2025-03-06T23:20:10.100155+11:00"}, {"id": 12523, "name": "Zero Sixteen Films", "roles_in_work": [{"id": 2677380, "title": "Aorere: an attempt at change", "work_id": 64834, "role": "production company", "role_id": 941, "is_primary": true}], "also_known_as": "", "date_of_birth": "", "date_of_death": "", "genders": [], "languages": [], "places_of_operation": [], "biography": "", "biography_author": null, "date_of_biography": "2023-08-11T14:09:13.531235+10:00", "external_links": [], "uuid": "2d18e563-c769-4944-ae6d-3778bbff3fd8", "source": {"name": "Vernon", "slug": "vernon"}, "source_identifier": "14547", "external_references": [], "date_modified": "2025-03-06T23:20:09.490213+11:00"}, {"id": 12521, "name": "Lee Robinson", "roles_in_work": [{"id": 750040, "title": "Outback patrol", "work_id": 71278, "role": "director", "role_id": 938, "is_primary": true}, {"id": 825300, "title": "The Power makers", "work_id": 95770, "role": "director", "role_id": 938, "is_primary": true}, {"id": 2392777, "title": "Pearlers", "work_id": 95711, "role": "director", "role_id": 938, "is_primary": true}, {"id": 2716209, "title": "In song and dance", "work_id": 68833, "role": "director", "role_id": 938, "is_primary": true}, {"id": 2644596, "title": "Double trouble", "work_id": 66896, "role": "director", "role_id": 938, "is_primary": true}, {"id": 2644246, "title": "Bush policemen", "work_id": 65689, "role": "director", "role_id": 938, "is_primary": true}, {"id": 3108987, "title": "Bring out a Briton", "work_id": 118320, "role": "director", "role_id": 938, "is_primary": true}, {"id": 2659428, "title": "Switch on Bigga", "work_id": 118309, "role": "director", "role_id": 938, "is_primary": true}, {"id": 2680690, "title": "Crocodile hunters", "work_id": 66510, "role": "director", "role_id": 938, "is_primary": true}, {"id": 2473967, "title": "Namatjira the painter", "work_id": 86310, "role": "assistant", "role_id": 450, "is_primary": false}, {"id": 2042885, "title": "Namatjira the painter. - Rev. ed.", "work_id": 70738, "role": "assistant", "role_id": 450, "is_primary": false}, {"id": 2503688, "title": "Skippy the Bush Kangaroo S01E20 \"Double trouble\" and S02E45 \"Chicken\"", "work_id": 81001, "role": "co-producer", "role_id": 915, "is_primary": true}, {"id": 3081338, "title": "Water: our problem", "work_id": 74512, "role": "co-producer", "role_id": 915, "is_primary": true}, {"id": 3081351, "title": "Australia today", "work_id": 115533, "role": "co-producer", "role_id": 915, "is_primary": true}, {"id": 894724, "title": "Journey to Antarctica", "work_id": 69294, "role": "co-producer", "role_id": 915, "is_primary": true}, {"id": 2648603, "title": "Antarctic Pioneers", "work_id": 79627, "role": "creative producer", "role_id": 964, "is_primary": false}, {"id": 2122353, "title": "Boney", "work_id": 116675, "role": "executive producer", "role_id": 916, "is_primary": false}, {"id": 2103630, "title": "Attack Force Z", "work_id": 86327, "role": "producer", "role_id": 1089, "is_primary": true}, {"id": 1819770, "title": "The Magnetic north", "work_id": 70003, "role": "producer", "role_id": 1089, "is_primary": true}, {"id": 3105908, "title": "Anzac: a nation's heritage", "work_id": 64833, "role": "writer", "role_id": 939, "is_primary": true}], "also_known_as": "", "date_of_birth": "1923-02-22", "date_of_death": "2003-09-22", "genders": [{"id": 9, "name": "Male", "slug": "male"}], "languages": [{"id": 1, "name": "English", "slug": "english"}], "places_of_operation": [{"id": 3, "name": "Australia", "slug": "australia"}], "biography": "Lee Robinson  (22 February 1923 – 22 September 2003) was an Australian producer, director and screenwriter who was Australia's most prolific filmmaker of the 1950s.", "biography_author": "Wikidata", "date_of_biography": "2023-09-05T22:18:46.868927+10:00", "external_links": [{"id": 4529, "uri": "https://en.wikipedia.org/wiki/Lee_Robinson_(director)"}], "uuid": "3b396927-fa9b-41cd-80f2-a419fff504ac", "source": {"name": "Vernon", "slug": "vernon"}, "source_identifier": "1444", "external_references": [{"id": 25485, "source": {"name": "Wikidata", "slug": "wikidata"}, "source_identifier": "Q3228926"}, {"id": 29889, "source": {"name": "VIAF", "slug": "viaf"}, "source_identifier": "154242413"}, {"id": 29890, "source": {"name": "LOC Auth", "slug": "loc-auth"}, "source_identifier": "no2013126847"}, {"id": 29891, "source": {"name": "WorldCat", "slug": "worldcat"}, "source_identifier": "lccn-no2013126847"}], "date_modified": "2025-10-09T18:54:49.341076+11:00"}, {"id": 12520, "name": "Denys Brown", "roles_in_work": [{"id": 2645239, "title": "Into your hand", "work_id": 69009, "role": "co-producer", "role_id": 915, "is_primary": true}, {"id": 2646748, "title": "The Unlucky country", "work_id": 74220, "role": "producer", "role_id": 1089, "is_primary": true}, {"id": 3105907, "title": "Anzac: a nation's heritage", "work_id": 64833, "role": "writer", "role_id": 939, "is_primary": true}], "also_known_as": "", "date_of_birth": "", "date_of_death": "", "genders": [], "languages": [], "places_of_operation": [], "biography": "", "biography_author": null, "date_of_biography": "2023-08-09T03:54:00.255188+10:00", "external_links": [], "uuid": "c3eb9e2d-844b-43db-b988-6d2078d5d6eb", "source": {"name": "Vernon", "slug": "vernon"}, "source_identifier": "18020", "external_references": [{"id": 43545, "source": {"name": "Wikidata", "slug": "wikidata"}, "source_identifier": "Q121079073"}], "date_modified": "2025-06-02T22:35:05.388890+10:00"}, {"id": 12519, "name": "Adrian Boddington", "roles_in_work": [{"id": 2644935, "title": "Geelong's m'name", "work_id": 67975, "role": "director", "role_id": 938, "is_primary": true}, {"id": 876484, "title": "David Kennedy [ALP Member for Bendigo]", "work_id": 90107, "role": "director", "role_id": 938, "is_primary": true}, {"id": 895741, "title": "Search for security", "work_id": 72589, "role": "co-producer", "role_id": 915, "is_primary": true}, {"id": 2677372, "title": "Anzac", "work_id": 64832, "role": "producer", "role_id": 1089, "is_primary": true}, {"id": 2072720, "title": "A Place Called Mooroopna", "work_id": 89508, "role": "producer", "role_id": 1089, "is_primary": true}], "also_known_as": "", "date_of_birth": "", "date_of_death": "", "genders": [], "languages": [], "places_of_operation": [], "biography": "", "biography_author": null, "date_of_biography": "2023-08-02T09:55:39.061498+10:00", "external_links": [], "uuid": "61c2b3e7-feb8-4255-af52-17de057f477d", "source": {"name": "Vernon", "slug": "vernon"}, "source_identifier": "14654", "external_references": [{"id": 38256, "source": {"name": "Wikidata", "slug": "wikidata"}, "source_identifier": "Q120837912"}], "date_modified": "2025-03-06T23:20:02.927629+11:00"}, {"id": 12518, "name": "Barbara Boyd", "roles_in_work": [{"id": 2465224, "title": "Range of motion therapy", "work_id": 91306, "role": "producer", "role_id": 1089, "is_primary": true}, {"id": 2677370, "title": "Anyway...what is an Australian?", "work_id": 64831, "role": "producer/director", "role_id": 31, "is_primary": true}], "also_known_as": "", "date_of_birth": "", "date_of_death": "", "genders": [], "languages": [], "places_of_operation": [], "biography": "", "biography_author": null, "date_of_biography": "2023-08-14T10:29:59.963317+10:00", "external_links": [], "uuid": "6dfa81e4-c429-494c-8152-b14acf479901", "source": {"name": "Vernon", "slug": "vernon"}, "source_identifier": "15634", "external_references": [], "date_modified": "2025-03-06T23:20:01.515839+11:00"}, {"id": 12516, "name": "Environmental Concerns International Inc", "roles_in_work": [{"id": 2677368, "title": "Any time, any place", "work_id": 64829, "role": "production company", "role_id": 941, "is_primary": true}], "also_known_as": "", "date_of_birth": "", "date_of_death": "", "genders": [], "languages": [], "places_of_operation": [], "biography": "", "biography_author": null, "date_of_biography": "2023-08-11T14:08:58.420489+10:00", "external_links": [], "uuid": "e14135c0-2517-4101-bc16-fd64fbd70e21", "source": {"name": "Vernon", "slug": "vernon"}, "source_identifier": "7915", "external_references": [], "date_modified": "2025-03-06T23:17:37.505823+11:00"}, {"id": 12515, "name": "Lion Pacesetter Films", "roles_in_work": [{"id": 2644130, "title": "The Behaviour game", "work_id": 65322, "role": "production company", "role_id": 941, "is_primary": true}, {"id": 2677362, "title": "Antiques at auction", "work_id": 64824, "role": "production company", "role_id": 941, "is_primary": true}, {"id": 2715169, "title": "Harambee, the world of the award", "work_id": 68310, "role": "production company", "role_id": 941, "is_primary": true}], "also_known_as": "", "date_of_birth": "", "date_of_death": "", "genders": [], "languages": [], "places_of_operation": [], "biography": "", "biography_author": null, "date_of_biography": "2023-05-09T19:25:28.290492+10:00", "external_links": [], "uuid": "c931bdf0-4791-4ad5-b96b-abe9fa930183", "source": {"name": "Vernon", "slug": "vernon"}, "source_identifier": "10083", "external_references": [{"id": 35604, "source": {"name": "Wikidata", "slug": "wikidata"}, "source_identifier": "Q121222948"}], "date_modified": "2025-03-12T01:27:46.809931+11:00"}, {"id": 12514, "name": "Ronald Spencer", "roles_in_work": [{"id": 2677361, "title": "Antiques at auction", "work_id": 64824, "role": "director", "role_id": 938, "is_primary": true}, {"id": 2469017, "title": "Three weeks in Britain", "work_id": 75708, "role": "producer/director", "role_id": 31, "is_primary": true}, {"id": 2465921, "title": "Smokey Joe's revenge", "work_id": 90675, "role": "producer/director", "role_id": 31, "is_primary": true}, {"id": 809674, "title": "The Copter kids", "work_id": 91921, "role": "producer/director", "role_id": 31, "is_primary": true}], "also_known_as": "", "date_of_birth": "", "date_of_death": "", "genders": [], "languages": [], "places_of_operation": [], "biography": "", "biography_author": null, "date_of_biography": "2023-08-14T11:51:42.034182+10:00", "external_links": [], "uuid": "ead9d684-97bd-466e-a69c-46b035b9703a", "source": {"name": "Vernon", "slug": "vernon"}, "source_identifier": "28217", "external_references": [], "date_modified": "2025-03-06T23:17:32.014252+11:00"}, {"id": 12513, "name": "Carlos Gutierrez-Mena", "roles_in_work": [{"id": 2677360, "title": "Anti-matter", "work_id": 64823, "role": "producer", "role_id": 1089, "is_primary": true}], "also_known_as": "", "date_of_birth": "", "date_of_death": "", "genders": [], "languages": [], "places_of_operation": [], "biography": "", "biography_author": null, "date_of_biography": "2023-08-11T14:08:52.974816+10:00", "external_links": [], "uuid": "2ee4f2d5-6f8c-4fb3-ae48-b2cec626ba31", "source": {"name": "Vernon", "slug": "vernon"}, "source_identifier": "16502", "external_references": [], "date_modified": "2025-03-06T23:17:31.205044+11:00"}]}