{"count": 28683, "next": "https://api.acmi.net.au/creators/?page=130", "previous": "https://api.acmi.net.au/creators/?page=128", "results": [{"id": 84313, "name": "Fullbright", "roles_in_work": [{"id": 3092237, "title": "Gone Home soundtrack", "work_id": 118258, "role": "creator", "role_id": 968, "is_primary": true}, {"id": 2686295, "title": "Gone Home", "work_id": 117889, "role": "creator", "role_id": 968, "is_primary": true}], "also_known_as": "", "date_of_birth": "2012", "date_of_death": "", "genders": [], "languages": [], "places_of_operation": [], "biography": "", "biography_author": null, "date_of_biography": "2023-08-11T17:06:18.625950+10:00", "external_links": [], "uuid": "1f67ef56-29e8-4d22-8234-6dab505b5580", "source": {"name": "Vernon", "slug": "vernon"}, "source_identifier": "39623", "external_references": [], "date_modified": "2025-03-19T22:40:35.535601+11:00"}, {"id": 84312, "name": "Albert Drayton", "roles_in_work": [{"id": 2681350, "title": "[Albert Drayton Home Movies: Reel 2]", "work_id": 117879, "role": "creator", "role_id": 968, "is_primary": true}, {"id": 2681349, "title": "[Albert Drayton Home Movies: Reel 4]", "work_id": 117881, "role": "creator", "role_id": 968, "is_primary": true}, {"id": 2685661, "title": "[Albert Drayton Home Movies: Reel 5]", "work_id": 117882, "role": "creator", "role_id": 968, "is_primary": true}, {"id": 2686017, "title": "[Albert Drayton Home Movies: Reel 7]", "work_id": 117884, "role": "creator", "role_id": 968, "is_primary": true}, {"id": 2686019, "title": "[Albert Drayton Home Movies: Reel 8]", "work_id": 117885, "role": "creator", "role_id": 968, "is_primary": true}, {"id": 2681348, "title": "[Albert Drayton Home Movies: Reel 1]", "work_id": 117878, "role": "creator", "role_id": 968, "is_primary": true}, {"id": 2050659, "title": "[Albert Drayton Home Movies: Reel 3]", "work_id": 117880, "role": "creator", "role_id": 968, "is_primary": true}, {"id": 2050696, "title": "[Albert Drayton Home Movies: Reel 6]", "work_id": 117883, "role": "creator", "role_id": 968, "is_primary": true}], "also_known_as": "", "date_of_birth": "1914", "date_of_death": "17 MAR 2012", "genders": [], "languages": [], "places_of_operation": [], "biography": "", "biography_author": null, "date_of_biography": "2023-05-09T09:55:31.470693+10:00", "external_links": [], "uuid": "f3c27987-193c-4812-b557-7134d5ea7d01", "source": {"name": "Vernon", "slug": "vernon"}, "source_identifier": "39407", "external_references": [], "date_modified": "2025-03-11T12:02:02.883442+11:00"}, {"id": 84311, "name": "Sanders Associates", "roles_in_work": [{"id": 2686285, "title": "Magnavox Odyssey console", "work_id": 100297, "role": "creator", "role_id": 968, "is_primary": true}], "also_known_as": "", "date_of_birth": "1951", "date_of_death": "1986", "genders": [], "languages": [], "places_of_operation": [], "biography": "", "biography_author": null, "date_of_biography": "2023-05-17T03:36:26.415918+10:00", "external_links": [], "uuid": "29f47c13-c4bd-425c-a514-78909bf71690", "source": {"name": "Vernon", "slug": "vernon"}, "source_identifier": "39620", "external_references": [], "date_modified": "2025-03-11T12:17:08.378501+11:00"}, {"id": 84310, "name": "Tess Hall", "roles_in_work": [{"id": 2686524, "title": "Spotlights", "work_id": 120326, "role": "director", "role_id": 938, "is_primary": true}], "also_known_as": "", "date_of_birth": "", "date_of_death": "", "genders": [], "languages": [], "places_of_operation": [], "biography": "", "biography_author": null, "date_of_biography": "2023-05-09T18:48:27.288441+10:00", "external_links": [], "uuid": "323f622c-6243-40c1-81e4-f53d86f279aa", "source": {"name": "Vernon", "slug": "vernon"}, "source_identifier": "39297", "external_references": [{"id": 33024, "source": {"name": "Wikidata", "slug": "wikidata"}, "source_identifier": "Q121223338"}], "date_modified": "2025-03-11T12:22:24.211233+11:00"}, {"id": 84309, "name": "Mental Hygiene Authority", "roles_in_work": [{"id": 2058170, "title": "[Mental Hygiene Authority 1961]", "work_id": 117860, "role": "creator", "role_id": 968, "is_primary": true}], "also_known_as": "", "date_of_birth": "", "date_of_death": "", "genders": [], "languages": [], "places_of_operation": [], "biography": "", "biography_author": null, "date_of_biography": "2023-05-09T10:52:48.521066+10:00", "external_links": [], "uuid": "e8c85d81-1ca4-41f0-8965-3c7fb2ff9f92", "source": {"name": "Vernon", "slug": "vernon"}, "source_identifier": "39071", "external_references": [], "date_modified": "2023-06-14T16:33:30.576250+10:00"}, {"id": 84308, "name": "Bolton Clarke", "roles_in_work": [{"id": 2051548, "title": "[District Nursing Appeal]", "work_id": 117859, "role": "creator", "role_id": 968, "is_primary": true}, {"id": 2058169, "title": "[Melbourne District Nursing Service Centre Openings]", "work_id": 117858, "role": "creator", "role_id": 968, "is_primary": true}, {"id": 2059236, "title": "[Royal District Nursing Service TV Ad]", "work_id": 117861, "role": "creator", "role_id": 968, "is_primary": true}], "also_known_as": "", "date_of_birth": "", "date_of_death": "", "genders": [], "languages": [], "places_of_operation": [], "biography": "", "biography_author": null, "date_of_biography": "2023-05-09T10:58:34.152993+10:00", "external_links": [], "uuid": "ef7717bf-9b3e-4121-9e6f-a4574f5e3f28", "source": {"name": "Vernon", "slug": "vernon"}, "source_identifier": "39070", "external_references": [], "date_modified": "2023-06-14T16:33:30.576250+10:00"}, {"id": 84307, "name": "Bill Woolford", "roles_in_work": [{"id": 3112136, "title": "[Cinesound Review: Royal Tour Concludes]", "work_id": 117852, "role": "sound", "role_id": 952, "is_primary": false}], "also_known_as": "", "date_of_birth": "", "date_of_death": "", "genders": [], "languages": [], "places_of_operation": [], "biography": "", "biography_author": null, "date_of_biography": "2023-08-02T10:16:55.353194+10:00", "external_links": [], "uuid": "ec16f36f-3caa-4b47-ab7f-dd80ee4645da", "source": {"name": "Vernon", "slug": "vernon"}, "source_identifier": "39109", "external_references": [], "date_modified": "2026-04-16T17:40:53.608060+10:00"}, {"id": 84306, "name": "Peter Bell", "roles_in_work": [{"id": 3112134, "title": "[Cinesound Review: Royal Tour Concludes]", "work_id": 117852, "role": "editor", "role_id": 918, "is_primary": true}], "also_known_as": "", "date_of_birth": "", "date_of_death": "", "genders": [], "languages": [], "places_of_operation": [], "biography": "", "biography_author": null, "date_of_biography": "2023-08-02T10:16:54.738376+10:00", "external_links": [], "uuid": "db3bdf99-a52b-4b56-be8b-f5428bf7c77d", "source": {"name": "Vernon", "slug": "vernon"}, "source_identifier": "39108", "external_references": [{"id": 37783, "source": {"name": "Wikidata", "slug": "wikidata"}, "source_identifier": "Q121222717"}], "date_modified": "2026-04-16T17:40:52.711804+10:00"}, {"id": 84305, "name": "Kevin Roach", "roles_in_work": [{"id": 3112133, "title": "[Cinesound Review: Royal Tour Concludes]", "work_id": 117852, "role": "photographer", "role_id": 440, "is_primary": false}], "also_known_as": "", "date_of_birth": "", "date_of_death": "", "genders": [], "languages": [], "places_of_operation": [], "biography": "", "biography_author": null, "date_of_biography": "2023-08-02T10:16:54.120743+10:00", "external_links": [], "uuid": "1da4bf98-b7a6-447c-a1f0-adecdd3d800f", "source": {"name": "Vernon", "slug": "vernon"}, "source_identifier": "39107", "external_references": [], "date_modified": "2026-04-16T17:40:51.932103+10:00"}, {"id": 84304, "name": "Bob Thompson", "roles_in_work": [{"id": 3112132, "title": "[Cinesound Review: Royal Tour Concludes]", "work_id": 117852, "role": "photographer", "role_id": 440, "is_primary": false}], "also_known_as": "", "date_of_birth": "", "date_of_death": "", "genders": [], "languages": [], "places_of_operation": [], "biography": "", "biography_author": null, "date_of_biography": "2023-08-02T10:16:53.487622+10:00", "external_links": [], "uuid": "10fdfb21-fc83-4873-9a86-6bc110dbf33a", "source": {"name": "Vernon", "slug": "vernon"}, "source_identifier": "38277", "external_references": [], "date_modified": "2026-04-16T17:40:51.152433+10:00"}]}