{"count": 28687, "next": "https://api.acmi.net.au/creators/?page=523", "previous": "https://api.acmi.net.au/creators/?page=521", "results": [{"id": 80363, "name": "Mega Channel", "roles_in_work": [{"id": 1998016, "title": "Ulysses' gaze [DVD]", "work_id": 93585, "role": "production company", "role_id": 941, "is_primary": true}], "also_known_as": "", "date_of_birth": null, "date_of_death": null, "genders": [], "languages": [], "places_of_operation": [], "biography": "", "biography_author": null, "date_of_biography": null, "external_links": [], "uuid": "732266f5-fd8a-4efd-8f94-cde8890f8657", "source": {"name": "Vernon", "slug": "vernon"}, "source_identifier": null, "external_references": [{"id": 33314, "source": {"name": "Wikidata", "slug": "wikidata"}, "source_identifier": "Q121034811"}], "date_modified": "2023-09-05T22:59:07.479371+10:00"}, {"id": 80362, "name": "Phillip Parslow", "roles_in_work": [{"id": 2247214, "title": "Redball", "work_id": 93577, "role": "co-producer", "role_id": 915, "is_primary": true}], "also_known_as": "", "date_of_birth": "", "date_of_death": "", "genders": [], "languages": [], "places_of_operation": [], "biography": "", "biography_author": null, "date_of_biography": "2023-05-09T17:05:09.371039+10:00", "external_links": [], "uuid": "11269e46-56a5-4207-a0b3-9aed8f717426", "source": {"name": "Vernon", "slug": "vernon"}, "source_identifier": "26887", "external_references": [{"id": 34572, "source": {"name": "Wikidata", "slug": "wikidata"}, "source_identifier": "Q121079432"}], "date_modified": "2023-09-06T00:07:02.483074+10:00"}, {"id": 80361, "name": "Meredith King", "roles_in_work": [{"id": 2247212, "title": "Redball", "work_id": 93577, "role": "co-producer", "role_id": 915, "is_primary": true}], "also_known_as": "", "date_of_birth": "", "date_of_death": "", "genders": [], "languages": [], "places_of_operation": [], "biography": "", "biography_author": null, "date_of_biography": "2023-05-09T17:05:09.135982+10:00", "external_links": [], "uuid": "4937f714-5cce-4fff-b01b-21925a17fb72", "source": {"name": "Vernon", "slug": "vernon"}, "source_identifier": "24945", "external_references": [{"id": 37834, "source": {"name": "Wikidata", "slug": "wikidata"}, "source_identifier": "Q121337358"}], "date_modified": "2023-09-05T23:01:04.866033+10:00"}, {"id": 80360, "name": "Scanbox Entertainment", "roles_in_work": [{"id": 2247211, "title": "Redball", "work_id": 93577, "role": "production company", "role_id": 941, "is_primary": true}], "also_known_as": "", "date_of_birth": "", "date_of_death": "", "genders": [], "languages": [], "places_of_operation": [], "biography": "", "biography_author": null, "date_of_biography": "2023-05-09T17:05:08.897671+10:00", "external_links": [], "uuid": "f99d107b-ba8e-4c80-940e-643d5d3d06f0", "source": {"name": "Vernon", "slug": "vernon"}, "source_identifier": "12317", "external_references": [{"id": 35436, "source": {"name": "Wikidata", "slug": "wikidata"}, "source_identifier": "Q121223040"}], "date_modified": "2023-09-06T01:07:58.493607+10:00"}, {"id": 80359, "name": "Rough Beast", "roles_in_work": [{"id": 2247209, "title": "Redball", "work_id": 93577, "role": "production company", "role_id": 941, "is_primary": true}], "also_known_as": "", "date_of_birth": "", "date_of_death": "", "genders": [], "languages": [], "places_of_operation": [], "biography": "", "biography_author": null, "date_of_biography": "2023-05-09T17:05:08.657730+10:00", "external_links": [], "uuid": "0f3bba42-5f4b-491e-81c9-450589ede8c6", "source": {"name": "Vernon", "slug": "vernon"}, "source_identifier": "12132", "external_references": [{"id": 33739, "source": {"name": "Wikidata", "slug": "wikidata"}, "source_identifier": "Q121315480"}], "date_modified": "2023-09-06T00:56:59.215807+10:00"}, {"id": 80358, "name": "Paper Bark Films", "roles_in_work": [{"id": 2247208, "title": "Redball", "work_id": 93577, "role": "production company", "role_id": 941, "is_primary": true}], "also_known_as": "", "date_of_birth": "", "date_of_death": "", "genders": [], "languages": [], "places_of_operation": [], "biography": "", "biography_author": null, "date_of_biography": "2023-05-09T17:05:08.428924+10:00", "external_links": [], "uuid": "08c89f88-ef3e-49b5-bc95-f57917b86721", "source": {"name": "Vernon", "slug": "vernon"}, "source_identifier": "11276", "external_references": [{"id": 35934, "source": {"name": "Wikidata", "slug": "wikidata"}, "source_identifier": "Q121035721"}], "date_modified": "2023-09-05T23:40:19.140830+10:00"}, {"id": 80357, "name": "King Hit", "roles_in_work": [{"id": 2247201, "title": "Redball", "work_id": 93577, "role": "production company", "role_id": 941, "is_primary": true}], "also_known_as": "", "date_of_birth": "", "date_of_death": "", "genders": [], "languages": [], "places_of_operation": [], "biography": "", "biography_author": null, "date_of_biography": "2023-05-09T17:05:07.960217+10:00", "external_links": [], "uuid": "844ff229-73c6-4b3b-9b3f-ca4fca89de66", "source": {"name": "Vernon", "slug": "vernon"}, "source_identifier": "23348", "external_references": [{"id": 37182, "source": {"name": "Wikidata", "slug": "wikidata"}, "source_identifier": "Q121035793"}], "date_modified": "2023-09-05T22:09:26.552070+10:00"}, {"id": 80356, "name": "Gray Malkin Productions", "roles_in_work": [{"id": 2247199, "title": "Redball", "work_id": 93577, "role": "production company", "role_id": 941, "is_primary": true}], "also_known_as": "", "date_of_birth": "", "date_of_death": "", "genders": [], "languages": [], "places_of_operation": [], "biography": "", "biography_author": null, "date_of_biography": "2023-05-09T17:05:07.723739+10:00", "external_links": [], "uuid": "e4c1ea91-10ff-4ff6-a6f4-5d4d25ba1526", "source": {"name": "Vernon", "slug": "vernon"}, "source_identifier": "8861", "external_references": [{"id": 36952, "source": {"name": "Wikidata", "slug": "wikidata"}, "source_identifier": "Q121222529"}], "date_modified": "2023-09-05T20:20:25.343937+10:00"}, {"id": 80355, "name": "Tab Hunter", "roles_in_work": [{"id": 2476494, "title": "Lust in the dust", "work_id": 93574, "role": "co-producer", "role_id": 915, "is_primary": true}], "also_known_as": "Arthur Andrew Kelm", "date_of_birth": "1931-07-11", "date_of_death": "2018-07-08", "genders": [{"id": 9, "name": "Male", "slug": "male"}], "languages": [{"id": 1, "name": "English", "slug": "english"}], "places_of_operation": [{"id": 1, "name": "United States of America", "slug": "united-states-of-america"}], "biography": "Tab Hunter (born Arthur Andrew Kelm; July 11, 1931 – July 8, 2018) was an American actor, singer, film producer, and author. Known for his blond, clean-cut good looks, Hunter starred in more than forty films. He was a Hollywood heartthrob of the 1950s and 1960s appearing on the covers of hundreds of film magazines. Hunter's film credits include Battle Cry (1955), The Girl He Left Behind (1956), Gunman's Walk (1958), and Damn Yankees (1958). Hunter also had a music career in the late 1950s; in 1957, he released a number one hit single \"Young Love\". Hunter's 2005 autobiography, Tab Hunter Confidential: The Making of a Movie Star, was a New York Times bestseller.\n\n", "biography_author": "Wikidata", "date_of_biography": "2023-09-06T01:39:57.231030+10:00", "external_links": [{"id": 3170, "uri": "https://en.wikipedia.org/wiki/Tab_Hunter"}], "uuid": "371039d4-8389-447d-8b63-6c9294a6ff77", "source": {"name": "Vernon", "slug": "vernon"}, "source_identifier": "29450", "external_references": [{"id": 13438, "source": {"name": "Wikidata", "slug": "wikidata"}, "source_identifier": "Q725395"}, {"id": 13439, "source": {"name": "VIAF", "slug": "viaf"}, "source_identifier": "3937143"}, {"id": 13440, "source": {"name": "LOC Auth", "slug": "loc-auth"}, "source_identifier": "n85378881"}, {"id": 13441, "source": {"name": "WorldCat", "slug": "worldcat"}, "source_identifier": "lccn-n85378881"}], "date_modified": "2023-09-06T01:39:59.374811+10:00"}, {"id": 80354, "name": "Alan Glaser", "roles_in_work": [{"id": 2476493, "title": "Lust in the dust", "work_id": 93574, "role": "co-producer", "role_id": 915, "is_primary": true}], "also_known_as": "", "date_of_birth": "", "date_of_death": "", "genders": [], "languages": [], "places_of_operation": [], "biography": "", "biography_author": null, "date_of_biography": "2023-08-17T15:37:22.697830+10:00", "external_links": [], "uuid": "34a32ef4-9c22-4874-88f7-9d5b208170d8", "source": {"name": "Vernon", "slug": "vernon"}, "source_identifier": "14756", "external_references": [{"id": 33524, "source": {"name": "Wikidata", "slug": "wikidata"}, "source_identifier": "Q121298930"}], "date_modified": "2023-09-05T17:20:24.086249+10:00"}]}