{"count": 28687, "next": "https://api.acmi.net.au/creators/?page=95", "previous": "https://api.acmi.net.au/creators/?page=93", "results": [{"id": 86011, "name": "Play It Again (ARC Project)", "roles_in_work": [{"id": 2689911, "title": "Play It Again I: Games Collection", "work_id": 119643, "role": "project manager", "role_id": 498, "is_primary": false}, {"id": 3112508, "title": "Play It Again II: Games Collection", "work_id": 119644, "role": "project manager", "role_id": 498, "is_primary": false}, {"id": 2689544, "title": "Emulation of Bazooka Bill for Spectrum 48/128", "work_id": 122267, "role": "sponsor", "role_id": 625, "is_primary": false}, {"id": 2689594, "title": "Emulation of Doc the Destroyer for ZX Spectrum 48/128", "work_id": 122270, "role": "sponsor", "role_id": 625, "is_primary": false}, {"id": 2689525, "title": "Emulation of Asterix and the Magic Cauldron for Spectrum ZX 48k", "work_id": 122266, "role": "sponsor", "role_id": 625, "is_primary": false}, {"id": 2689645, "title": "Emulation of Horace Goes Skiing for ZX Spectrum", "work_id": 122272, "role": "sponsor", "role_id": 625, "is_primary": false}, {"id": 2689654, "title": "Emulation of Hungry Horace for ZX Spectrum", "work_id": 122271, "role": "sponsor", "role_id": 625, "is_primary": false}, {"id": 2689695, "title": "Emulation of The Muncher for ZX Spectrum 128", "work_id": 122273, "role": "sponsor", "role_id": 625, "is_primary": false}, {"id": 2689728, "title": "Emulation of Samurai Warrior: The Battles of Usagi Yojimbo for ZX Spectrum", "work_id": 122269, "role": "sponsor", "role_id": 625, "is_primary": false}, {"id": 2689554, "title": "Emulation of Bedlam for Spectrum 128 & +2", "work_id": 122268, "role": "sponsor", "role_id": 625, "is_primary": false}], "also_known_as": "", "date_of_birth": "", "date_of_death": "", "genders": [], "languages": [], "places_of_operation": [], "biography": "", "biography_author": null, "date_of_biography": "2023-08-14T13:21:46.020409+10:00", "external_links": [], "uuid": "894dcd5b-24b0-4f8b-8a6d-4b21183450c1", "source": {"name": "Vernon", "slug": "vernon"}, "source_identifier": "38591", "external_references": [], "date_modified": "2026-06-12T10:38:57.127830+10:00"}, {"id": 86010, "name": "Sadia Sadia", "roles_in_work": [{"id": 2637294, "title": "The Memory of Water (part 1)", "work_id": 109650, "role": "creator", "role_id": 968, "is_primary": true}], "also_known_as": "", "date_of_birth": "1957", "date_of_death": "", "genders": [{"id": 5, "name": "Female", "slug": "female"}], "languages": [], "places_of_operation": [], "biography": "Sadia is a Canadian-born, UK-based filmmaker and installation artist.  She is also an award-winning record producer and writer.  Sadia started her career in music, going on to expand her interests as an artist in multiple media.  She has exhibited as a painter and stills photographer in London and Milan and is currently working with moving images as a director and editor, as well as producing installation pieces, audio and experimental films.  Her films have been included in MIFF 2004 and shown at the National Film and Television Museum in the UK.  Sadia has been involved with women's rights activism and has campaigned against racism and hate speech in print and broadcast media.  She has an MSc in political science and economics from the University of London and an MA in design from Central St Martins College of Art and Design.\n\nTaken from the PROOF exhibition 2004.", "biography_author": null, "date_of_biography": "2025-03-05T10:45:19.335524+11:00", "external_links": [], "uuid": "c21d7d11-17f5-48a2-93e1-f4b784e0c5dc", "source": {"name": "Vernon", "slug": "vernon"}, "source_identifier": "2035", "external_references": [], "date_modified": "2025-03-05T10:45:19.335838+11:00"}, {"id": 86009, "name": "Philips Interactive Media, Inc.", "roles_in_work": [{"id": 2716696, "title": "The Dame Was Loaded", "work_id": 119781, "role": "publisher", "role_id": 942, "is_primary": true}, {"id": 3112499, "title": "Emulation for The Dame Was Loaded for DOS", "work_id": 119973, "role": "publisher", "role_id": 942, "is_primary": true}, {"id": 3112367, "title": "The Dame Was Loaded for DOS", "work_id": 119642, "role": "publisher", "role_id": 942, "is_primary": true}, {"id": 2716692, "title": "Screenshot from The Dame Was Loaded Game", "work_id": 119961, "role": "publisher", "role_id": 942, "is_primary": true}, {"id": 2716688, "title": "Screenshot from The Dame Was Loaded Game", "work_id": 119960, "role": "publisher", "role_id": 942, "is_primary": true}, {"id": 2716690, "title": "Screenshot from The Dame Was Loaded Game", "work_id": 119962, "role": "publisher", "role_id": 942, "is_primary": true}], "also_known_as": "", "date_of_birth": "", "date_of_death": "", "genders": [], "languages": [], "places_of_operation": [], "biography": "", "biography_author": null, "date_of_biography": "2023-08-30T03:42:39.048783+10:00", "external_links": [], "uuid": "bd49f1c8-62d4-4af8-ba33-229048e0bd38", "source": {"name": "Vernon", "slug": "vernon"}, "source_identifier": "40070", "external_references": [], "date_modified": "2026-06-12T10:38:25.070621+10:00"}, {"id": 86008, "name": "Data East USA", "roles_in_work": [{"id": 3112553, "title": "Shadowrun for SNES", "work_id": 120397, "role": "publisher", "role_id": 942, "is_primary": true}, {"id": 3112423, "title": "Shadowrun for SNES", "work_id": 119641, "role": "publisher", "role_id": 942, "is_primary": true}, {"id": 2716736, "title": "Shadowrun", "work_id": 119784, "role": "publisher", "role_id": 942, "is_primary": true}, {"id": 2716728, "title": "Screenshot from Shadowrun", "work_id": 119951, "role": "publisher", "role_id": 942, "is_primary": true}, {"id": 2716730, "title": "Screenshot from Shadowrun", "work_id": 119953, "role": "publisher", "role_id": 942, "is_primary": true}, {"id": 2716732, "title": "Screenshot from Shadowrun", "work_id": 119952, "role": "publisher", "role_id": 942, "is_primary": true}], "also_known_as": "", "date_of_birth": "1979", "date_of_death": "", "genders": [], "languages": [], "places_of_operation": [], "biography": "", "biography_author": null, "date_of_biography": "2023-08-16T04:07:29.475181+10:00", "external_links": [], "uuid": "6a2b2fcf-8a29-4fbc-85d6-0c401656c400", "source": {"name": "Vernon", "slug": "vernon"}, "source_identifier": "40065", "external_references": [], "date_modified": "2026-06-12T10:41:04.655851+10:00"}, {"id": 86007, "name": "Ratbag Games", "roles_in_work": [{"id": 3112540, "title": "Powerslide for PC", "work_id": 119640, "role": "developer", "role_id": 658, "is_primary": true}, {"id": 3112372, "title": "Dirt Track Racing for PC", "work_id": 119682, "role": "developer", "role_id": 658, "is_primary": true}], "also_known_as": "", "date_of_birth": "1993", "date_of_death": "2005", "genders": [], "languages": [], "places_of_operation": [], "biography": "", "biography_author": null, "date_of_biography": "2023-05-09T19:00:01.586635+10:00", "external_links": [], "uuid": "0a120afb-aa0a-43b8-bd4e-bf5f598239f8", "source": {"name": "Vernon", "slug": "vernon"}, "source_identifier": "39940", "external_references": [], "date_modified": "2026-06-12T10:40:34.058748+10:00"}, {"id": 86006, "name": "Reckon Software Pty Ltd", "roles_in_work": [{"id": 3112559, "title": "Gumboots Australia for DOS", "work_id": 119639, "role": "developer", "role_id": 658, "is_primary": true}, {"id": 3112549, "title": "Emulation of Gumboots Australia for PC", "work_id": 120016, "role": "developer", "role_id": 658, "is_primary": true}, {"id": 3112548, "title": "Emulation of Gumboots Australia for PC", "work_id": 120016, "role": "publisher", "role_id": 942, "is_primary": true}, {"id": 3112558, "title": "Gumboots Australia for DOS", "work_id": 119639, "role": "publisher", "role_id": 942, "is_primary": true}], "also_known_as": "", "date_of_birth": "", "date_of_death": "", "genders": [], "languages": [], "places_of_operation": [], "biography": "", "biography_author": null, "date_of_biography": "2023-08-16T04:08:17.467587+10:00", "external_links": [], "uuid": "3b3707a2-cac1-4984-ad4d-4f62a2e2579c", "source": {"name": "Vernon", "slug": "vernon"}, "source_identifier": "39943", "external_references": [{"id": 24733, "source": {"name": "Wikidata", "slug": "wikidata"}, "source_identifier": "Q120528740"}], "date_modified": "2026-06-12T18:45:02.385521+10:00"}, {"id": 86005, "name": "WarnerActive", "roles_in_work": [{"id": 3112381, "title": "Flight of the Amazon Queen for DOS", "work_id": 119638, "role": "publisher", "role_id": 942, "is_primary": true}, {"id": 2716714, "title": "Emulation of Flight of the Amazon Queen for PC", "work_id": 119970, "role": "publisher", "role_id": 942, "is_primary": true}], "also_known_as": "", "date_of_birth": "1995", "date_of_death": "", "genders": [], "languages": [], "places_of_operation": [], "biography": "", "biography_author": null, "date_of_biography": "2023-08-16T04:07:05.307029+10:00", "external_links": [], "uuid": "9d37f3f0-8bd5-4d6d-ba66-f218815522fa", "source": {"name": "Vernon", "slug": "vernon"}, "source_identifier": "40064", "external_references": [], "date_modified": "2026-06-12T10:32:47.544156+10:00"}, {"id": 86004, "name": "Interactive Binary Illusions", "roles_in_work": [{"id": 2716703, "title": "Flight of the Amazon Queen Amiga magazine cover demo disk", "work_id": 119936, "role": "developer", "role_id": 658, "is_primary": true}, {"id": 3112380, "title": "Flight of the Amazon Queen for DOS", "work_id": 119638, "role": "developer", "role_id": 658, "is_primary": true}, {"id": 2716715, "title": "Flight of the Amazon Queen", "work_id": 119783, "role": "developer", "role_id": 658, "is_primary": true}, {"id": 2716713, "title": "Emulation of Flight of the Amazon Queen for PC", "work_id": 119970, "role": "developer", "role_id": 658, "is_primary": true}, {"id": 2716705, "title": "Flight of the Amazon Queen (Amiga) box, manual, CD jewel case, 11 floppy discs", "work_id": 119935, "role": "developer", "role_id": 658, "is_primary": true}, {"id": 2716707, "title": "Screenshot from Flight of the Amazon Queen", "work_id": 119964, "role": "developer", "role_id": 658, "is_primary": true}, {"id": 2716709, "title": "Screenshot from Flight of the Amazon Queen", "work_id": 119963, "role": "developer", "role_id": 658, "is_primary": true}, {"id": 2716711, "title": "Screenshot from Flight of the Amazon Queen", "work_id": 119965, "role": "developer", "role_id": 658, "is_primary": true}], "also_known_as": "", "date_of_birth": "1993", "date_of_death": "1996", "genders": [], "languages": [], "places_of_operation": [], "biography": "", "biography_author": null, "date_of_biography": "2023-08-30T03:41:19.901362+10:00", "external_links": [], "uuid": "c1d44f41-f486-4a45-ae21-8f93fa875db4", "source": {"name": "Vernon", "slug": "vernon"}, "source_identifier": "39941", "external_references": [], "date_modified": "2026-06-12T10:32:46.771204+10:00"}, {"id": 86003, "name": "Orsola Cerasi", "roles_in_work": [{"id": 2374511, "title": "[Orsola: Teramo, 1960]", "work_id": 119637, "role": "cast", "role_id": 33, "is_primary": false}], "also_known_as": "", "date_of_birth": "", "date_of_death": "", "genders": [], "languages": [], "places_of_operation": [], "biography": "", "biography_author": null, "date_of_biography": "2023-07-05T03:56:30.976788+10:00", "external_links": [], "uuid": "fa4ac634-80b3-43c2-bdd6-7f09385bff30", "source": {"name": "Vernon", "slug": "vernon"}, "source_identifier": "39049", "external_references": [{"id": 35368, "source": {"name": "Wikidata", "slug": "wikidata"}, "source_identifier": "Q121222964"}], "date_modified": "2023-09-05T23:37:32.841179+10:00"}, {"id": 86002, "name": "Francesco Di Silvano", "roles_in_work": [{"id": 2374510, "title": "[Orsola: Teramo, 1960]", "work_id": 119637, "role": "creator", "role_id": 968, "is_primary": true}], "also_known_as": "", "date_of_birth": "", "date_of_death": "", "genders": [], "languages": [], "places_of_operation": [], "biography": "", "biography_author": null, "date_of_biography": "2023-07-05T03:56:30.746698+10:00", "external_links": [], "uuid": "89d0f536-c97e-4718-9f3a-d59bca6cfb80", "source": {"name": "Vernon", "slug": "vernon"}, "source_identifier": "39048", "external_references": [], "date_modified": "2023-07-05T03:56:30.747026+10:00"}]}