{"count": 28687, "next": "https://api.acmi.net.au/creators/?page=866", "previous": "https://api.acmi.net.au/creators/?page=864", "results": [{"id": 76932, "name": "Cheol-Yong Kang", "roles_in_work": [{"id": 2775058, "title": "A Working woman in Korea", "work_id": 81611, "role": "producer/director", "role_id": 31, "is_primary": true}], "also_known_as": "", "date_of_birth": "", "date_of_death": "", "genders": [], "languages": [], "places_of_operation": [], "biography": "", "biography_author": null, "date_of_biography": "2023-05-09T12:02:44.838632+10:00", "external_links": [], "uuid": "89adfdaa-23d0-4eaa-b85f-08cd0fe2ebc6", "source": {"name": "Vernon", "slug": "vernon"}, "source_identifier": "16769", "external_references": [{"id": 51918, "source": {"name": "Wikidata", "slug": "wikidata"}, "source_identifier": "Q121360830"}], "date_modified": "2025-03-14T18:42:20.861397+11:00"}, {"id": 76931, "name": "Lee Kyu-Im", "roles_in_work": [{"id": 2775042, "title": "A housewife in Seoul", "work_id": 81609, "role": "co-producer", "role_id": 915, "is_primary": true}], "also_known_as": "", "date_of_birth": "", "date_of_death": "", "genders": [], "languages": [], "places_of_operation": [], "biography": "", "biography_author": null, "date_of_biography": "2023-05-09T12:02:57.828021+10:00", "external_links": [], "uuid": "335bde26-5278-4d68-98b2-9e28db244f08", "source": {"name": "Vernon", "slug": "vernon"}, "source_identifier": "23629", "external_references": [{"id": 37266, "source": {"name": "Wikidata", "slug": "wikidata"}, "source_identifier": "Q121143703"}], "date_modified": "2025-03-14T18:42:15.700873+11:00"}, {"id": 76930, "name": "Reginald Rose", "roles_in_work": [{"id": 2649493, "title": "Twelve angry men = 12 angry men", "work_id": 81605, "role": "co-producer", "role_id": 915, "is_primary": true}], "also_known_as": "", "date_of_birth": "10 DEC 1920", "date_of_death": "19 APR 2002", "genders": [{"id": 9, "name": "Male", "slug": "male"}], "languages": [{"id": 1, "name": "English", "slug": "english"}], "places_of_operation": [{"id": 1, "name": "United States of America", "slug": "united-states-of-america"}], "biography": "Reginald Rose (December 10, 1920 – April 19, 2002) was an American screenwriter. He wrote about controversial social and political issues. His realistic approach was particularly influential in the anthology programs of the 1950s.\n\nRose was born and raised in Manhattan. He was best known for his courtroom drama Twelve Angry Men, exploring the members of a jury in a murder trial. It was adapted for a film of the same name, directed by Sidney Lumet and released in 1957. Source: Wikidata; 01/08/2023", "biography_author": null, "date_of_biography": "2025-03-05T14:02:08.198763+11:00", "external_links": [{"id": 4962, "uri": "https://en.wikipedia.org/wiki/Reginald_Rose"}], "uuid": "5b97e2f3-a1c1-4b3e-9081-a31ae82ee438", "source": {"name": "Vernon", "slug": "vernon"}, "source_identifier": "27235", "external_references": [{"id": 25664, "source": {"name": "Wikidata", "slug": "wikidata"}, "source_identifier": "Q1934890"}, {"id": 31016, "source": {"name": "VIAF", "slug": "viaf"}, "source_identifier": "51892750"}, {"id": 31017, "source": {"name": "LOC Auth", "slug": "loc-auth"}, "source_identifier": "no95060533"}, {"id": 31018, "source": {"name": "WorldCat", "slug": "worldcat"}, "source_identifier": "lccn-no95060533"}], "date_modified": "2025-03-05T14:02:08.198985+11:00"}, {"id": 76929, "name": "Siobhan McHugh", "roles_in_work": [{"id": 1808550, "title": "The Snowy : A Dream of Growing Up", "work_id": 81603, "role": "producer", "role_id": 1089, "is_primary": true}], "also_known_as": "", "date_of_birth": null, "date_of_death": null, "genders": [], "languages": [], "places_of_operation": [], "biography": "", "biography_author": null, "date_of_biography": null, "external_links": [], "uuid": "6c384eb5-abb7-4452-9253-ff4ff34b7671", "source": {"name": "Vernon", "slug": "vernon"}, "source_identifier": null, "external_references": [{"id": 34308, "source": {"name": "Wikidata", "slug": "wikidata"}, "source_identifier": "Q121223192"}], "date_modified": "2023-09-06T01:21:06.081127+10:00"}, {"id": 76928, "name": "Moshe Rosenzveig", "roles_in_work": [{"id": 2201610, "title": "Dress for Success", "work_id": 81602, "role": "producer/director", "role_id": 31, "is_primary": true}], "also_known_as": "", "date_of_birth": "", "date_of_death": "", "genders": [], "languages": [], "places_of_operation": [], "biography": "", "biography_author": null, "date_of_biography": "2023-05-09T15:27:21.448860+10:00", "external_links": [], "uuid": "ade1af76-d41c-498e-bb40-42b6aabe3d65", "source": {"name": "Vernon", "slug": "vernon"}, "source_identifier": "25541", "external_references": [{"id": 51194, "source": {"name": "Wikidata", "slug": "wikidata"}, "source_identifier": "Q121361483"}], "date_modified": "2023-09-05T23:21:56.582601+10:00"}, {"id": 76927, "name": "Hiroyuki Kurita", "roles_in_work": [{"id": 2775020, "title": "Ms. Reiko Hitomi, Tokyo", "work_id": 81586, "role": "co-producer", "role_id": 915, "is_primary": true}], "also_known_as": "", "date_of_birth": "", "date_of_death": "", "genders": [], "languages": [], "places_of_operation": [], "biography": "", "biography_author": null, "date_of_biography": "2023-05-09T12:03:00.414298+10:00", "external_links": [], "uuid": "b5be8767-2fd5-4c11-8916-6b278270aec8", "source": {"name": "Vernon", "slug": "vernon"}, "source_identifier": "20582", "external_references": [{"id": 32304, "source": {"name": "Wikidata", "slug": "wikidata"}, "source_identifier": "Q121091048"}], "date_modified": "2025-03-14T18:42:09.004264+11:00"}, {"id": 76926, "name": "Penny Dedman", "roles_in_work": [{"id": 2250534, "title": "Rites", "work_id": 81578, "role": "producer/director", "role_id": 31, "is_primary": true}], "also_known_as": "", "date_of_birth": "", "date_of_death": "", "genders": [], "languages": [], "places_of_operation": [], "biography": "", "biography_author": null, "date_of_biography": "2023-05-09T17:10:15.490696+10:00", "external_links": [], "uuid": "0ecb0d13-9699-45f2-ab97-f887afddb376", "source": {"name": "Vernon", "slug": "vernon"}, "source_identifier": "26419", "external_references": [{"id": 51865, "source": {"name": "Wikidata", "slug": "wikidata"}, "source_identifier": "Q121360807"}], "date_modified": "2023-09-05T23:52:28.397499+10:00"}, {"id": 76925, "name": "Alan Wilding", "roles_in_work": [{"id": 2649478, "title": "Buongiorno Italia! [kit]", "work_id": 81572, "role": "co-producer", "role_id": 915, "is_primary": true}, {"id": 2127626, "title": "Buongiorno Italia! [text]", "work_id": 81570, "role": "co-producer", "role_id": 915, "is_primary": true}], "also_known_as": "", "date_of_birth": "", "date_of_death": "", "genders": [], "languages": [], "places_of_operation": [], "biography": "", "biography_author": null, "date_of_biography": "2023-05-09T13:14:17.883105+10:00", "external_links": [], "uuid": "49c64dc6-180a-4741-9dec-cd4620f48e75", "source": {"name": "Vernon", "slug": "vernon"}, "source_identifier": "14815", "external_references": [{"id": 38860, "source": {"name": "Wikidata", "slug": "wikidata"}, "source_identifier": "Q121058050"}], "date_modified": "2025-03-05T14:01:58.211488+11:00"}, {"id": 76924, "name": "Maddalena Fagandini", "roles_in_work": [{"id": 1845726, "title": "Mediterranean Cookery-France,Italy and Spain", "work_id": 79765, "role": "co-producer", "role_id": 915, "is_primary": true}, {"id": 2649477, "title": "Buongiorno Italia! [kit]", "work_id": 81572, "role": "co-producer", "role_id": 915, "is_primary": true}, {"id": 1845729, "title": "Mediterranean Cookery Egypt,Turkey,Morocco and Greece", "work_id": 79767, "role": "co-producer", "role_id": 915, "is_primary": true}, {"id": 2127624, "title": "Buongiorno Italia! [text]", "work_id": 81570, "role": "co-producer", "role_id": 915, "is_primary": true}, {"id": 2649472, "title": "Buongiorno Italia! Programs 11-20", "work_id": 81561, "role": "producer", "role_id": 1089, "is_primary": true}, {"id": 2188768, "title": "Deutsch Direkt! Eps. 11-20", "work_id": 81577, "role": "producer", "role_id": 1089, "is_primary": true}, {"id": 2127643, "title": "Buongiorno Italia! Programs 1-10", "work_id": 81569, "role": "producer", "role_id": 1089, "is_primary": true}], "also_known_as": "", "date_of_birth": "", "date_of_death": "", "genders": [], "languages": [], "places_of_operation": [], "biography": "", "biography_author": null, "date_of_biography": "2023-05-09T15:05:22.540293+10:00", "external_links": [], "uuid": "9d4fb764-6aa1-49d2-8126-d2aff5e4ed7a", "source": {"name": "Vernon", "slug": "vernon"}, "source_identifier": "24182", "external_references": [{"id": 42421, "source": {"name": "Wikidata", "slug": "wikidata"}, "source_identifier": "Q121271007"}], "date_modified": "2025-03-05T14:01:57.614931+11:00"}, {"id": 76923, "name": "Russ Hermann", "roles_in_work": [{"id": 900620, "title": "Marrickville", "work_id": 81567, "role": "co-producer", "role_id": 915, "is_primary": true}], "also_known_as": "", "date_of_birth": null, "date_of_death": null, "genders": [], "languages": [], "places_of_operation": [], "biography": "", "biography_author": null, "date_of_biography": null, "external_links": [], "uuid": "2f9cf1ac-2d4a-4373-9ce3-4ad4fd3a72c9", "source": {"name": "Vernon", "slug": "vernon"}, "source_identifier": null, "external_references": [{"id": 35657, "source": {"name": "Wikidata", "slug": "wikidata"}, "source_identifier": "Q121126763"}], "date_modified": "2023-09-06T00:58:50.457986+10:00"}]}