{"count": 28687, "next": "https://api.acmi.net.au/creators/?page=1290", "previous": "https://api.acmi.net.au/creators/?page=1288", "results": [{"id": 39022, "name": "Julie Ruth", "roles_in_work": [{"id": 2753243, "title": "But you're a girl", "work_id": 98673, "role": "producer", "role_id": 1089, "is_primary": true}], "also_known_as": "", "date_of_birth": null, "date_of_death": null, "genders": [], "languages": [], "places_of_operation": [], "biography": "", "biography_author": null, "date_of_biography": null, "external_links": [], "uuid": "a6086dcf-df02-4915-8387-35c07e71a762", "source": {"name": "Vernon", "slug": "vernon"}, "source_identifier": "22909", "external_references": [], "date_modified": "2025-03-13T01:21:18.684953+11:00"}, {"id": 39021, "name": "Denis Harvey", "roles_in_work": [{"id": 831767, "title": "Timber", "work_id": 98669, "role": "director", "role_id": 938, "is_primary": true}, {"id": 2753229, "title": "Beer", "work_id": 98665, "role": "director", "role_id": 938, "is_primary": true}, {"id": 2753232, "title": "Fish", "work_id": 98666, "role": "director", "role_id": 938, "is_primary": true}, {"id": 2753235, "title": "Milk", "work_id": 98667, "role": "director", "role_id": 938, "is_primary": true}, {"id": 2753238, "title": "Not just your average sausage", "work_id": 98668, "role": "director", "role_id": 938, "is_primary": true}], "also_known_as": "", "date_of_birth": null, "date_of_death": null, "genders": [], "languages": [], "places_of_operation": [], "biography": "", "biography_author": null, "date_of_biography": null, "external_links": [], "uuid": "7266414a-37d9-4bee-a0bb-1feef9c64665", "source": {"name": "Vernon", "slug": "vernon"}, "source_identifier": "17958", "external_references": [], "date_modified": "2025-03-13T01:21:12.051419+11:00"}, {"id": 39020, "name": "Anita Forsyth", "roles_in_work": [{"id": 2780121, "title": "Monetary policy: a macro-economic perspective", "work_id": 98662, "role": "producer", "role_id": 1089, "is_primary": true}], "also_known_as": "", "date_of_birth": null, "date_of_death": null, "genders": [], "languages": [], "places_of_operation": [], "biography": "", "biography_author": null, "date_of_biography": null, "external_links": [], "uuid": "ea43a47e-fdbf-4c3a-acb2-52c4c3494043", "source": {"name": "Vernon", "slug": "vernon"}, "source_identifier": "15281", "external_references": [], "date_modified": "2025-03-14T19:05:09.690302+11:00"}, {"id": 39019, "name": "Bob Scarfe", "roles_in_work": [{"id": 2753966, "title": "Social enquiry: questions, answers and action", "work_id": 99001, "role": "director", "role_id": 938, "is_primary": true}, {"id": 2754247, "title": "Building an education partnership through the School Community Development Program", "work_id": 99119, "role": "director", "role_id": 938, "is_primary": true}, {"id": 2753472, "title": "Writing: making meaning", "work_id": 98779, "role": "director", "role_id": 938, "is_primary": true}, {"id": 2753481, "title": "Of primary importance: a diary of change for equality", "work_id": 98784, "role": "director", "role_id": 938, "is_primary": true}, {"id": 2754263, "title": "Communicating with kinder kids", "work_id": 99126, "role": "director", "role_id": 938, "is_primary": true}, {"id": 1913092, "title": "Sheep: handle with care. Parts I-III", "work_id": 98895, "role": "director", "role_id": 938, "is_primary": true}, {"id": 2754503, "title": "Beneath our feet. Parts 1-3", "work_id": 99234, "role": "director", "role_id": 938, "is_primary": true}, {"id": 888910, "title": "Slip of the tongue", "work_id": 98659, "role": "director", "role_id": 938, "is_primary": true}, {"id": 1905587, "title": "Another Piece of Equipment", "work_id": 99231, "role": "camera operator", "role_id": 931, "is_primary": false}, {"id": 2754254, "title": "Adventure Games in the Classroom", "work_id": 99121, "role": "camera operator", "role_id": 931, "is_primary": false}, {"id": 2754337, "title": "Which bike for you?", "work_id": 99158, "role": "producer", "role_id": 1089, "is_primary": true}, {"id": 2754028, "title": "Good cleaning fun: housework down the years", "work_id": 99026, "role": "producer", "role_id": 1089, "is_primary": true}, {"id": 2754324, "title": "Language of distance", "work_id": 99151, "role": "producer/director", "role_id": 31, "is_primary": true}], "also_known_as": "", "date_of_birth": "", "date_of_death": "", "genders": [], "languages": [], "places_of_operation": [], "biography": "", "biography_author": null, "date_of_biography": "2023-08-16T03:42:02.107770+10:00", "external_links": [], "uuid": "aa6863a3-c20c-4bba-94d7-ab9b78b1f099", "source": {"name": "Vernon", "slug": "vernon"}, "source_identifier": "16103", "external_references": [], "date_modified": "2025-03-13T01:45:53.114099+11:00"}, {"id": 39018, "name": "Aleksandr Rou", "roles_in_work": [{"id": 2753216, "title": "Jack Frost", "work_id": 98657, "role": "director", "role_id": 938, "is_primary": true}], "also_known_as": "", "date_of_birth": "1906-03-08", "date_of_death": "1973-12-28", "genders": [{"id": 9, "name": "Male", "slug": "male"}], "languages": [{"id": 3, "name": "Russian", "slug": "russian"}], "places_of_operation": [{"id": 291, "name": "Russian Empire", "slug": "russian-empire"}], "biography": "Alexander Arturovich Rou (also, Rowe, from his Irish father's name) (Russian: Александр Артурович Роу, 24 February [O.S. 11 February] 1906 – 28 December 1973) was a Soviet film director, and People's Artist of the RSFSR (1968). He directed a number of children's fantasy films, based mostly on Russian folklore, that were highly popular and often imitated in the Soviet Union.", "biography_author": "Wikidata", "date_of_biography": "2022-05-19T10:44:10.503410+10:00", "external_links": [{"id": 1590, "uri": "https://en.wikipedia.org/wiki/Alexander_Rou"}], "uuid": "b2096b67-2398-4d43-a3a3-54688a640c58", "source": {"name": "Vernon", "slug": "vernon"}, "source_identifier": "14940", "external_references": [{"id": 6956, "source": {"name": "Wikidata", "slug": "wikidata"}, "source_identifier": "Q963135"}, {"id": 6957, "source": {"name": "VIAF", "slug": "viaf"}, "source_identifier": "1076243"}, {"id": 6958, "source": {"name": "LOC Auth", "slug": "loc-auth"}, "source_identifier": "n80021128"}, {"id": 6959, "source": {"name": "WorldCat", "slug": "worldcat"}, "source_identifier": "lccn-n80021128"}], "date_modified": "2025-03-13T01:20:58.290916+11:00"}, {"id": 39017, "name": "Embassy Productions", "roles_in_work": [{"id": 2753215, "title": "Jack Frost", "work_id": 98657, "role": "production company", "role_id": 941, "is_primary": true}], "also_known_as": "", "date_of_birth": null, "date_of_death": null, "genders": [], "languages": [], "places_of_operation": [], "biography": "", "biography_author": null, "date_of_biography": null, "external_links": [], "uuid": "bd1f0b71-bdf8-44e0-8e0d-f8d9c1854e0e", "source": {"name": "Vernon", "slug": "vernon"}, "source_identifier": "7869", "external_references": [], "date_modified": "2025-03-13T01:20:57.697218+11:00"}, {"id": 39016, "name": "Deptartment of Audio Visual Communications, Glaxo Australia", "roles_in_work": [{"id": 2753214, "title": "What is PKU?", "work_id": 98656, "role": "production company", "role_id": 941, "is_primary": true}], "also_known_as": "", "date_of_birth": "", "date_of_death": "", "genders": [], "languages": [], "places_of_operation": [], "biography": "", "biography_author": null, "date_of_biography": "2023-05-09T18:23:41.418037+10:00", "external_links": [], "uuid": "9fd085a1-7c79-4983-8614-3f1257f04a81", "source": {"name": "Vernon", "slug": "vernon"}, "source_identifier": "7522", "external_references": [{"id": 42753, "source": {"name": "Wikidata", "slug": "wikidata"}, "source_identifier": "Q121223566"}], "date_modified": "2025-03-13T01:20:56.764764+11:00"}, {"id": 39015, "name": "Department of Youth, Sport and Recreation", "roles_in_work": [{"id": 2753207, "title": "International youth year", "work_id": 98653, "role": "production company", "role_id": 941, "is_primary": true}], "also_known_as": "", "date_of_birth": null, "date_of_death": null, "genders": [], "languages": [], "places_of_operation": [], "biography": "", "biography_author": null, "date_of_biography": null, "external_links": [], "uuid": "60dd076e-0066-4fcb-a7c2-a8158e46db86", "source": {"name": "Vernon", "slug": "vernon"}, "source_identifier": "7472", "external_references": [], "date_modified": "2025-03-13T01:20:49.481769+11:00"}, {"id": 39014, "name": "Victorian Commercial Teachers' Association", "roles_in_work": [{"id": 2753197, "title": "Life's a risky business", "work_id": 98650, "role": "production company", "role_id": 941, "is_primary": true}], "also_known_as": "", "date_of_birth": null, "date_of_death": null, "genders": [], "languages": [], "places_of_operation": [], "biography": "", "biography_author": null, "date_of_biography": null, "external_links": [], "uuid": "3a6208f0-2bf2-4443-b8f3-7b6440431ebc", "source": {"name": "Vernon", "slug": "vernon"}, "source_identifier": "14068", "external_references": [], "date_modified": "2025-03-13T01:20:44.352463+11:00"}, {"id": 39013, "name": "Australia Open Chanel", "roles_in_work": [{"id": 2753193, "title": "Youth workers tapes", "work_id": 98649, "role": "production company", "role_id": 941, "is_primary": true}], "also_known_as": "", "date_of_birth": null, "date_of_death": null, "genders": [], "languages": [], "places_of_operation": [], "biography": "", "biography_author": null, "date_of_biography": null, "external_links": [], "uuid": "32def037-189b-415f-99b4-e7733b24a6e3", "source": {"name": "Vernon", "slug": "vernon"}, "source_identifier": "5557", "external_references": [], "date_modified": "2025-03-13T01:20:41.669990+11:00"}]}