{"count": 28687, "next": "https://api.acmi.net.au/creators/?page=976", "previous": "https://api.acmi.net.au/creators/?page=974", "results": [{"id": 75832, "name": "Frank Vincent", "roles_in_work": [{"id": 2252425, "title": "Roller skate safely", "work_id": 76834, "role": "producer/director", "role_id": 31, "is_primary": true}], "also_known_as": "", "date_of_birth": "", "date_of_death": "", "genders": [], "languages": [], "places_of_operation": [], "biography": "", "biography_author": null, "date_of_biography": "2023-05-09T17:13:08.073961+10:00", "external_links": [], "uuid": "b4ef1b2c-1c9a-41ee-8eaa-f5705d009992", "source": {"name": "Vernon", "slug": "vernon"}, "source_identifier": "19184", "external_references": [{"id": 51926, "source": {"name": "Wikidata", "slug": "wikidata"}, "source_identifier": "Q121361104"}], "date_modified": "2023-09-05T19:51:04.937068+10:00"}, {"id": 75831, "name": "Isabel Maxwell", "roles_in_work": [{"id": 2647610, "title": "The Love that dares not speak its name", "work_id": 76822, "role": "producer/director", "role_id": 31, "is_primary": true}], "also_known_as": "", "date_of_birth": "", "date_of_death": "", "genders": [], "languages": [], "places_of_operation": [], "biography": "", "biography_author": null, "date_of_biography": "2023-08-14T11:20:03.589444+10:00", "external_links": [], "uuid": "64d087e4-fc78-4219-97ff-44a52d1c60e7", "source": {"name": "Vernon", "slug": "vernon"}, "source_identifier": "20902", "external_references": [{"id": 52057, "source": {"name": "Wikidata", "slug": "wikidata"}, "source_identifier": "Q121360771"}], "date_modified": "2025-03-05T13:30:10.086398+11:00"}, {"id": 75830, "name": "Arlene Symons", "roles_in_work": [{"id": 2140061, "title": "Close harmony", "work_id": 76820, "role": "co-director", "role_id": 959, "is_primary": true}], "also_known_as": "", "date_of_birth": "", "date_of_death": "", "genders": [], "languages": [], "places_of_operation": [], "biography": "", "biography_author": null, "date_of_biography": "2023-05-09T13:36:09.614579+10:00", "external_links": [], "uuid": "817bdeba-b6c8-4e2b-8b49-6d5b0d9516e3", "source": {"name": "Vernon", "slug": "vernon"}, "source_identifier": "15458", "external_references": [{"id": 52014, "source": {"name": "Wikidata", "slug": "wikidata"}, "source_identifier": "Q121357915"}], "date_modified": "2023-09-05T17:44:37.706656+10:00"}, {"id": 75829, "name": "Roger Leslie", "roles_in_work": [{"id": 2133711, "title": "Cell division in the diatom hantzschia amphioxys", "work_id": 76812, "role": "co-director", "role_id": 959, "is_primary": true}], "also_known_as": "", "date_of_birth": "", "date_of_death": "", "genders": [], "languages": [], "places_of_operation": [], "biography": "", "biography_author": null, "date_of_biography": "2023-05-09T13:25:00.228176+10:00", "external_links": [], "uuid": "9911f4d3-e7e1-49d6-83b3-87fc278afb8d", "source": {"name": "Vernon", "slug": "vernon"}, "source_identifier": "28056", "external_references": [{"id": 34930, "source": {"name": "Wikidata", "slug": "wikidata"}, "source_identifier": "Q121271299"}], "date_modified": "2023-09-06T00:51:50.180621+10:00"}, {"id": 75828, "name": "David Tippit", "roles_in_work": [{"id": 2133706, "title": "Cell division in the diatom hantzschia amphioxys", "work_id": 76812, "role": "co-director", "role_id": 959, "is_primary": true}, {"id": 2134519, "title": "Cell division in the diatom pinnularia", "work_id": 76811, "role": "co-director", "role_id": 959, "is_primary": true}], "also_known_as": "", "date_of_birth": "", "date_of_death": "", "genders": [], "languages": [], "places_of_operation": [], "biography": "", "biography_author": null, "date_of_biography": "2023-05-09T13:26:41.851159+10:00", "external_links": [], "uuid": "283e59e3-6b43-4ebc-9b90-2a70f5e18e22", "source": {"name": "Vernon", "slug": "vernon"}, "source_identifier": "17822", "external_references": [{"id": 42092, "source": {"name": "Wikidata", "slug": "wikidata"}, "source_identifier": "Q121086093"}], "date_modified": "2023-09-05T19:03:08.081442+10:00"}, {"id": 75827, "name": "Tom Soranno", "roles_in_work": [{"id": 2133715, "title": "Cell division in the diatom hantzschia amphioxys", "work_id": 76812, "role": "co-director", "role_id": 959, "is_primary": true}, {"id": 2134515, "title": "Cell division in the diatom pinnularia", "work_id": 76811, "role": "co-director", "role_id": 959, "is_primary": true}], "also_known_as": "", "date_of_birth": "", "date_of_death": "", "genders": [], "languages": [], "places_of_operation": [], "biography": "", "biography_author": null, "date_of_biography": "2023-05-09T13:26:41.616223+10:00", "external_links": [], "uuid": "1eca2487-08c8-4609-9e3f-f150432f894e", "source": {"name": "Vernon", "slug": "vernon"}, "source_identifier": "13618", "external_references": [{"id": 51083, "source": {"name": "Wikidata", "slug": "wikidata"}, "source_identifier": "Q121357683"}], "date_modified": "2023-09-06T01:54:23.083248+10:00"}, {"id": 75826, "name": "Paul Barron", "roles_in_work": [{"id": 2241795, "title": "First impressions: a journey to the Pilbara, Western Austral", "work_id": 76808, "role": "co-director", "role_id": 959, "is_primary": true}], "also_known_as": "", "date_of_birth": "", "date_of_death": "", "genders": [], "languages": [], "places_of_operation": [], "biography": "", "biography_author": null, "date_of_biography": "2023-05-09T16:55:05.503234+10:00", "external_links": [], "uuid": "8b829952-00ab-4f85-b34f-9142aa93b6d4", "source": {"name": "Vernon", "slug": "vernon"}, "source_identifier": "26170", "external_references": [{"id": 40018, "source": {"name": "Wikidata", "slug": "wikidata"}, "source_identifier": "Q121222766"}], "date_modified": "2023-09-05T23:44:35.467866+10:00"}, {"id": 75825, "name": "Katherine Smalley", "roles_in_work": [{"id": 863057, "title": "Wasted resources", "work_id": 76798, "role": "producer/director", "role_id": 31, "is_primary": true}], "also_known_as": "", "date_of_birth": null, "date_of_death": null, "genders": [], "languages": [], "places_of_operation": [], "biography": "", "biography_author": null, "date_of_biography": null, "external_links": [], "uuid": "3ea9863c-50e2-45bd-93f7-0ba5af637bc1", "source": {"name": "Vernon", "slug": "vernon"}, "source_identifier": null, "external_references": [{"id": 50809, "source": {"name": "Wikidata", "slug": "wikidata"}, "source_identifier": "Q121360779"}], "date_modified": "2023-09-05T22:02:02.175095+10:00"}, {"id": 75824, "name": "Peter Rosten", "roles_in_work": [{"id": 2231986, "title": "Psychling", "work_id": 76792, "role": "producer/director", "role_id": 31, "is_primary": true}], "also_known_as": "", "date_of_birth": "", "date_of_death": "", "genders": [], "languages": [], "places_of_operation": [], "biography": "", "biography_author": null, "date_of_biography": "2023-05-09T16:38:47.269133+10:00", "external_links": [], "uuid": "8ee669c3-667f-41ea-95f3-20f65bdddbef", "source": {"name": "Vernon", "slug": "vernon"}, "source_identifier": "26693", "external_references": [{"id": 50928, "source": {"name": "Wikidata", "slug": "wikidata"}, "source_identifier": "Q121360623"}], "date_modified": "2023-09-06T00:00:18.351919+10:00"}, {"id": 75823, "name": "Susan Cornwell", "roles_in_work": [{"id": 863044, "title": "The New epidemic", "work_id": 76786, "role": "director", "role_id": 938, "is_primary": true}, {"id": 2077505, "title": "A Window to trade", "work_id": 77226, "role": "director", "role_id": 938, "is_primary": true}, {"id": 775988, "title": "Who wants to be a princess anyway?", "work_id": 81582, "role": "director", "role_id": 938, "is_primary": true}, {"id": 763787, "title": "Look alive!", "work_id": 77178, "role": "director", "role_id": 938, "is_primary": true}], "also_known_as": "", "date_of_birth": "", "date_of_death": "", "genders": [], "languages": [], "places_of_operation": [], "biography": "", "biography_author": null, "date_of_biography": "2023-05-09T11:42:58.938571+10:00", "external_links": [], "uuid": "b2b8b42e-04c0-4fd0-bd22-d086b3cdf93b", "source": {"name": "Vernon", "slug": "vernon"}, "source_identifier": "29332", "external_references": [{"id": 34924, "source": {"name": "Wikidata", "slug": "wikidata"}, "source_identifier": "Q121126646"}], "date_modified": "2023-09-06T01:36:29.228916+10:00"}]}