{"count": 28683, "next": "https://api.acmi.net.au/creators/?page=2507", "previous": "https://api.acmi.net.au/creators/?page=2505", "results": [{"id": 13828, "name": "Raoul Servais", "roles_in_work": [{"id": 2644392, "title": "Chromophobia", "work_id": 66101, "role": "director", "role_id": 938, "is_primary": true}, {"id": 826312, "title": "Sirene", "work_id": 96287, "role": "director", "role_id": 938, "is_primary": true}, {"id": 861912, "title": "Operation X-70", "work_id": 75881, "role": "director", "role_id": 938, "is_primary": true}, {"id": 2749427, "title": "To speak or not to speak", "work_id": 96801, "role": "producer/director", "role_id": 31, "is_primary": true}], "also_known_as": "", "date_of_birth": "1928-05-01", "date_of_death": "2023-03-17", "genders": [{"id": 9, "name": "Male", "slug": "male"}], "languages": [{"id": 4, "name": "French", "slug": "french"}], "places_of_operation": [{"id": 37, "name": "Belgium", "slug": "belgium"}], "biography": "Raoul Servais (1 May 1928 – 17 March 2023) was a Belgian filmmaker, animator and comics artist. He was born in Ostend, Belgium, and is a fundamental figure of the Belgian animation scene, as well as the founder of the animation faculty of the Royal Academy of Fine Arts (KASK).Servais was best known for the animated film, Harpya, for which he won a Palme d'Or at the 1979 Cannes Film Festival. Servais received the Lifetime Achievement Award at the World Festival of Animated Film - Animafest Zagreb in 2016. At the 9th Magritte Awards, he received an Honorary Magritte Award from the Académie André Delvaux.\nIn total, Servais won about 60 film prizes. Homages with retrospectives were organized in Paris, Madrid, Istanbul, Montreal, New York, Tokyo, Hong Kong, Rio de Janeiro and St Petersburg.Servais died at his home in Leffinge on 17 March 2023, at the age of 94.", "biography_author": "Wikidata", "date_of_biography": "2023-08-01T16:42:02.950175+10:00", "external_links": [{"id": 4950, "uri": "https://en.wikipedia.org/wiki/Raoul_Servais"}], "uuid": "b19acbe9-0201-4b0a-9629-6afa0a366471", "source": {"name": "Vernon", "slug": "vernon"}, "source_identifier": "27126", "external_references": [{"id": 25566, "source": {"name": "Wikidata", "slug": "wikidata"}, "source_identifier": "Q1394440"}, {"id": 30981, "source": {"name": "VIAF", "slug": "viaf"}, "source_identifier": "95662219"}, {"id": 30982, "source": {"name": "LOC Auth", "slug": "loc-auth"}, "source_identifier": "n81008073"}, {"id": 30983, "source": {"name": "WorldCat", "slug": "worldcat"}, "source_identifier": "lccn-n81008073"}], "date_modified": "2025-03-13T00:00:21.436062+11:00"}, {"id": 13827, "name": "Ministry of National Education and Culture (Brussels)", "roles_in_work": [{"id": 2644391, "title": "Chromophobia", "work_id": 66101, "role": "production company", "role_id": 941, "is_primary": true}], "also_known_as": "", "date_of_birth": null, "date_of_death": null, "genders": [], "languages": [], "places_of_operation": [], "biography": "", "biography_author": null, "date_of_biography": null, "external_links": [], "uuid": "971b2186-0601-4347-8190-ef8a78ab4a4c", "source": {"name": "Vernon", "slug": "vernon"}, "source_identifier": "10563", "external_references": [], "date_modified": "2025-03-05T12:16:53.711651+11:00"}, {"id": 13826, "name": "Karel Zeman", "roles_in_work": [{"id": 859397, "title": "The Temptation of Mr Prokouk", "work_id": 73607, "role": "director", "role_id": 938, "is_primary": true}, {"id": 878240, "title": "Mr Prokouk becomes an inventor", "work_id": 91165, "role": "director", "role_id": 938, "is_primary": true}, {"id": 2679845, "title": "A Christmas dream [English version]", "work_id": 66098, "role": "director", "role_id": 938, "is_primary": true}], "also_known_as": "", "date_of_birth": "1910-11-03", "date_of_death": "1989-04-05", "genders": [{"id": 9, "name": "Male", "slug": "male"}], "languages": [{"id": 20, "name": "Czech", "slug": "czech"}, {"id": 4, "name": "French", "slug": "french"}], "places_of_operation": [{"id": 55, "name": "Czechoslovakia", "slug": "czechoslovakia"}], "biography": "Karel Zeman (3 November 1910 – 5 April 1989) was a Czech film director, artist, production designer and animator, best known for directing fantasy films combining live-action footage with animation. Because of his creative use of special effects and animation in his films, he has often been called the \"Czech Méliès\".", "biography_author": "Wikidata", "date_of_biography": "2023-08-01T15:46:21+10:00", "external_links": [{"id": 4463, "uri": "https://en.wikipedia.org/wiki/Karel_Zeman"}], "uuid": "0407529f-eb77-4d41-878d-5b53401d2456", "source": {"name": "Vernon", "slug": "vernon"}, "source_identifier": "22984", "external_references": [{"id": 24987, "source": {"name": "Wikidata", "slug": "wikidata"}, "source_identifier": "Q282000"}, {"id": 29724, "source": {"name": "VIAF", "slug": "viaf"}, "source_identifier": "70477444"}, {"id": 29725, "source": {"name": "LOC Auth", "slug": "loc-auth"}, "source_identifier": "n88092981"}, {"id": 29726, "source": {"name": "WorldCat", "slug": "worldcat"}, "source_identifier": "lccn-n88092981"}], "date_modified": "2025-03-07T00:21:43.542946+11:00"}, {"id": 13822, "name": "Opera Australia", "roles_in_work": [{"id": 867493, "title": "The Merry widow", "work_id": 83322, "role": "production company", "role_id": 941, "is_primary": true}, {"id": 2679830, "title": "Chorus and principals on stage please: the making of Lakme", "work_id": 66094, "role": "production company", "role_id": 941, "is_primary": true}, {"id": 2767516, "title": "Die Fledermaus", "work_id": 83082, "role": "production company", "role_id": 941, "is_primary": true}, {"id": 2081988, "title": "Adriana Lecouvreur", "work_id": 83578, "role": "production company", "role_id": 941, "is_primary": true}, {"id": 2198437, "title": "Don Giovanni", "work_id": 83732, "role": "production company", "role_id": 941, "is_primary": true}, {"id": 801464, "title": "Encore! : the best of Joan Sutherland", "work_id": 89009, "role": "production company", "role_id": 941, "is_primary": true}, {"id": 898967, "title": "The Mikado", "work_id": 79458, "role": "production company", "role_id": 941, "is_primary": true}, {"id": 906083, "title": "Nabucco", "work_id": 86812, "role": "production company", "role_id": 941, "is_primary": true}, {"id": 782007, "title": "Lucia di Lammermoor", "work_id": 83326, "role": "production company", "role_id": 941, "is_primary": true}, {"id": 794124, "title": "Hansel and Gretel by Engelbert Humperdinck", "work_id": 86809, "role": "production company", "role_id": 941, "is_primary": true}, {"id": 2178462, "title": "Orphee et Eurydice", "work_id": 84198, "role": "production company", "role_id": 941, "is_primary": true}], "also_known_as": "", "date_of_birth": "", "date_of_death": "", "genders": [], "languages": [], "places_of_operation": [], "biography": "Opera Australia is the principal opera company in Australia. Based in Sydney, its performance season at the Sydney Opera House accompanied by the Opera Australia Orchestra runs for approximately eight months of the year, with the remainder of its time spent at the Arts Centre Melbourne, where it is accompanied by Orchestra Victoria. In 2004, the company gave 226 performances in its subscription seasons in Sydney and Melbourne, attended by more than 294,000 people.It is funded by government grants, corporate sponsorship, private philanthropy, and ticket sales. The proportion of its revenue from ticket sales is considerably higher than that of most companies, approximately 75 per cent. The company is perhaps best known internationally for its association with Dame Joan Sutherland, for Baz Luhrmann's production of Puccini's La bohème in the early 1990s and more recently, for, apart from performances inside the opera house, large scale outdoor performances on Sydney Harbour.\nMany thousands of Australians also experience the company's work through television, radio, video, compact disc, DVD, and the annual free performance of opera in the Domain in Sydney. The company also performs in an annual outdoor event at Mrs Macquarie's Chair, Handa Opera on Sydney Harbour, where since 2012 operas such as La traviata, Madama Butterfly, Turandot, Aida and Carmen have played.", "biography_author": "Wikidata", "date_of_biography": "2023-09-05T23:37:21.892111+10:00", "external_links": [{"id": 6075, "uri": "https://en.wikipedia.org/wiki/Opera_Australia"}], "uuid": "6abb559d-7fc3-4dbc-9610-a3b359cdc198", "source": {"name": "Vernon", "slug": "vernon"}, "source_identifier": "4745", "external_references": [{"id": 42593, "source": {"name": "Wikidata", "slug": "wikidata"}, "source_identifier": "Q2916790"}, {"id": 55399, "source": {"name": "VIAF", "slug": "viaf"}, "source_identifier": "131870182"}, {"id": 55400, "source": {"name": "LOC Auth", "slug": "loc-auth"}, "source_identifier": "no2003022479"}], "date_modified": "2025-03-14T18:04:42.520324+11:00"}, {"id": 13821, "name": "OTC Australia", "roles_in_work": [{"id": 889185, "title": "OTC memories", "work_id": 99031, "role": "production company", "role_id": 941, "is_primary": true}, {"id": 2644388, "title": "A Chord for voices", "work_id": 66092, "role": "production company", "role_id": 941, "is_primary": true}], "also_known_as": "", "date_of_birth": "", "date_of_death": "", "genders": [], "languages": [], "places_of_operation": [], "biography": "", "biography_author": null, "date_of_biography": "2023-05-09T11:24:15.671096+10:00", "external_links": [], "uuid": "de71723b-fd00-4b03-bd3d-3b09926913fb", "source": {"name": "Vernon", "slug": "vernon"}, "source_identifier": "4742", "external_references": [{"id": 41150, "source": {"name": "Wikidata", "slug": "wikidata"}, "source_identifier": "Q121222566"}], "date_modified": "2025-03-05T12:16:51.700564+11:00"}, {"id": 13820, "name": "Jean Mitry", "roles_in_work": [{"id": 2646158, "title": "Reverie de Claude Debussy", "work_id": 72194, "role": "director", "role_id": 938, "is_primary": true}, {"id": 2712879, "title": "En bateau", "work_id": 67140, "role": "director", "role_id": 938, "is_primary": true}, {"id": 856584, "title": "Pacific 231", "work_id": 71311, "role": "director", "role_id": 938, "is_primary": true}, {"id": 2716111, "title": "Images pour Debussy", "work_id": 68779, "role": "director", "role_id": 938, "is_primary": true}, {"id": 2649052, "title": "Jean Mitry Compilation", "work_id": 80706, "role": "director", "role_id": 938, "is_primary": true}, {"id": 2646513, "title": "Symphonie mechanique", "work_id": 73431, "role": "director", "role_id": 938, "is_primary": true}, {"id": 2679826, "title": "Chopin", "work_id": 66091, "role": "co-director", "role_id": 959, "is_primary": true}, {"id": 2712877, "title": "En bateau", "work_id": 67140, "role": "co-producer", "role_id": 915, "is_primary": true}], "also_known_as": "Jean-René-Pierre Goetgheluck Le Rouge Tillard des Acres de Presfontaines", "date_of_birth": "07 NOV 1903", "date_of_death": "18 JAN 1988", "genders": [{"id": 9, "name": "Male", "slug": "male"}], "languages": [{"id": 4, "name": "French", "slug": "french"}], "places_of_operation": [{"id": 17, "name": "France", "slug": "france"}], "biography": "Jean-René Pierre Goetgheluck Le Rouge Tillard des Acres de Presfontaines, whose pseudonym was Jean Mitry (French: [mitʁi]; 7 November 1904  – 18 January 1988), was a French film theorist, critic and filmmaker, a co-founder of France's first film society, and, in 1938, of the Cinémathèque Française. Source: Wikidata; 01/08/2023", "biography_author": null, "date_of_biography": "2025-03-12T01:50:15.728628+11:00", "external_links": [{"id": 4299, "uri": "https://en.wikipedia.org/wiki/Jean_Mitry"}], "uuid": "8c9e9a6c-287f-4c8a-bc26-5a7934a861d3", "source": {"name": "Vernon", "slug": "vernon"}, "source_identifier": "21545", "external_references": [{"id": 26710, "source": {"name": "Wikidata", "slug": "wikidata"}, "source_identifier": "Q387074"}, {"id": 29297, "source": {"name": "VIAF", "slug": "viaf"}, "source_identifier": "100233831"}, {"id": 29298, "source": {"name": "LOC Auth", "slug": "loc-auth"}, "source_identifier": "n82258152"}, {"id": 29299, "source": {"name": "WorldCat", "slug": "worldcat"}, "source_identifier": "lccn-n82258152"}], "date_modified": "2025-03-12T01:50:15.728932+11:00"}, {"id": 13819, "name": "Theodora Olembert", "roles_in_work": [{"id": 2679827, "title": "Chopin", "work_id": 66091, "role": "co-director", "role_id": 959, "is_primary": true}, {"id": 2714582, "title": "George Bernard Shaw", "work_id": 67997, "role": "co-producer", "role_id": 915, "is_primary": true}, {"id": 1811862, "title": "Teiva", "work_id": 73581, "role": "producer", "role_id": 1089, "is_primary": true}, {"id": 2751321, "title": "Edith Piaf", "work_id": 97752, "role": "producer", "role_id": 1089, "is_primary": true}, {"id": 2679825, "title": "Chopin", "work_id": 66091, "role": "producer", "role_id": 1089, "is_primary": true}, {"id": 1809309, "title": "The Sixth day of creation", "work_id": 72870, "role": "producer", "role_id": 1089, "is_primary": true}, {"id": 2051439, "title": "[Chinese theatre]", "work_id": 89672, "role": "producer", "role_id": 1089, "is_primary": true}, {"id": 2713637, "title": "Finale", "work_id": 67511, "role": "producer", "role_id": 1089, "is_primary": true}], "also_known_as": "", "date_of_birth": "", "date_of_death": "", "genders": [], "languages": [], "places_of_operation": [], "biography": "", "biography_author": null, "date_of_biography": "2023-05-09T16:53:08.701418+10:00", "external_links": [], "uuid": "32dfa57b-acb5-43aa-8693-8ac6fb83640e", "source": {"name": "Vernon", "slug": "vernon"}, "source_identifier": "29646", "external_references": [{"id": 51561, "source": {"name": "Wikidata", "slug": "wikidata"}, "source_identifier": "Q121357955"}], "date_modified": "2025-03-13T00:41:03.585422+11:00"}, {"id": 13818, "name": "Triangle Productions", "roles_in_work": [{"id": 2302350, "title": "Sleep my love", "work_id": 90520, "role": "production company", "role_id": 941, "is_primary": true}, {"id": 2751320, "title": "Edith Piaf", "work_id": 97752, "role": "production company", "role_id": 941, "is_primary": true}, {"id": 2714581, "title": "George Bernard Shaw", "work_id": 67997, "role": "production company", "role_id": 941, "is_primary": true}, {"id": 858474, "title": "The Sixth day of creation", "work_id": 72870, "role": "production company", "role_id": 941, "is_primary": true}, {"id": 2679824, "title": "Chopin", "work_id": 66091, "role": "production company", "role_id": 941, "is_primary": true}, {"id": 2051436, "title": "[Chinese theatre]", "work_id": 89672, "role": "production company", "role_id": 941, "is_primary": true}, {"id": 2151834, "title": "On the border of life: glimpses of French biological research", "work_id": 91162, "role": "production company", "role_id": 941, "is_primary": true}, {"id": 2713636, "title": "Finale", "work_id": 67511, "role": "production company", "role_id": 941, "is_primary": true}, {"id": 2165328, "title": "Moliere", "work_id": 70536, "role": "production company", "role_id": 941, "is_primary": true}], "also_known_as": "", "date_of_birth": null, "date_of_death": null, "genders": [], "languages": [], "places_of_operation": [], "biography": "", "biography_author": null, "date_of_biography": "2023-05-09T18:39:13+10:00", "external_links": [], "uuid": "14687db6-499f-41a4-bdea-62f07057eb7c", "source": {"name": "Vernon", "slug": "vernon"}, "source_identifier": "13702", "external_references": [], "date_modified": "2025-03-13T00:41:02.978159+11:00"}, {"id": 13817, "name": "Gordon Begg", "roles_in_work": [{"id": 2679814, "title": "The Choice", "work_id": 66086, "role": "producer", "role_id": 1089, "is_primary": true}], "also_known_as": "", "date_of_birth": null, "date_of_death": null, "genders": [], "languages": [], "places_of_operation": [], "biography": "", "biography_author": null, "date_of_biography": null, "external_links": [], "uuid": "420db2f5-2432-4640-b681-ba5d6ef74a7a", "source": {"name": "Vernon", "slug": "vernon"}, "source_identifier": "19923", "external_references": [], "date_modified": "2025-03-07T00:21:19.678166+11:00"}, {"id": 13813, "name": "Ken Daley", "roles_in_work": [{"id": 2679805, "title": "The Choice is yours (Industrial safety)", "work_id": 66083, "role": "producer", "role_id": 1089, "is_primary": true}], "also_known_as": "", "date_of_birth": "", "date_of_death": "", "genders": [], "languages": [], "places_of_operation": [], "biography": "", "biography_author": null, "date_of_biography": "2023-05-09T19:34:05.435218+10:00", "external_links": [], "uuid": "30326692-445f-4aee-a205-bc56e1e767f7", "source": {"name": "Vernon", "slug": "vernon"}, "source_identifier": "23175", "external_references": [{"id": 40124, "source": {"name": "Wikidata", "slug": "wikidata"}, "source_identifier": "Q121337510"}], "date_modified": "2025-03-07T00:21:13.443333+11:00"}]}