{"count": 28687, "next": "https://api.acmi.net.au/creators/?page=2841", "previous": "https://api.acmi.net.au/creators/?page=2839", "results": [{"id": 7251, "name": "BBC Film Unit", "roles_in_work": [{"id": 2218851, "title": "Enchanted April", "work_id": 83746, "role": "production company", "role_id": 941, "is_primary": true}, {"id": 2715409, "title": "Here's sport", "work_id": 68428, "role": "production company", "role_id": 941, "is_primary": true}, {"id": 2769251, "title": "Desert Air Force", "work_id": 66709, "role": "production company", "role_id": 941, "is_primary": true}, {"id": 2769261, "title": "The Rising sun", "work_id": 72252, "role": "production company", "role_id": 941, "is_primary": true}, {"id": 2769264, "title": "The Unquiet peace", "work_id": 74224, "role": "production company", "role_id": 941, "is_primary": true}, {"id": 2760602, "title": "John Huston", "work_id": 69264, "role": "production company", "role_id": 941, "is_primary": true}, {"id": 2763672, "title": "Test pilot", "work_id": 73629, "role": "production company", "role_id": 941, "is_primary": true}, {"id": 2782047, "title": "The Edge of forever", "work_id": 82882, "role": "production company", "role_id": 941, "is_primary": true}, {"id": 2000319, "title": "The Mother (2003)", "work_id": 95038, "role": "production company", "role_id": 941, "is_primary": true}, {"id": 1995149, "title": "Ratcatcher [Widescreen]", "work_id": 91199, "role": "production company", "role_id": 941, "is_primary": true}, {"id": 1995627, "title": "Last resort [Widescreen]", "work_id": 91930, "role": "production company", "role_id": 941, "is_primary": true}, {"id": 775479, "title": "Fellow Traveller", "work_id": 81442, "role": "production company", "role_id": 941, "is_primary": true}, {"id": 1988163, "title": "Truly madly deeply", "work_id": 84541, "role": "production company", "role_id": 941, "is_primary": true}, {"id": 2251891, "title": "Robinson in space", "work_id": 87367, "role": "production company", "role_id": 941, "is_primary": true}, {"id": 2194001, "title": "Dirty pretty things", "work_id": 94986, "role": "production company", "role_id": 941, "is_primary": true}, {"id": 751985, "title": "The Rescue", "work_id": 72167, "role": "production company", "role_id": 941, "is_primary": true}, {"id": 2283220, "title": "TwentyFourSeven = 24 7", "work_id": 95061, "role": "production company", "role_id": 941, "is_primary": true}, {"id": 2073168, "title": "A room for Romeo Brass", "work_id": 95063, "role": "production company", "role_id": 941, "is_primary": true}, {"id": 803147, "title": "News hounds", "work_id": 89582, "role": "production company", "role_id": 941, "is_primary": true}, {"id": 2476318, "title": "Morvern Callar", "work_id": 94946, "role": "production company", "role_id": 941, "is_primary": true}, {"id": 757227, "title": "War in the air the fated sky", "work_id": 74466, "role": "production company", "role_id": 941, "is_primary": true}, {"id": 883025, "title": "Watch with mother 2", "work_id": 93499, "role": "production company", "role_id": 941, "is_primary": true}, {"id": 2476106, "title": "Gods and monsters", "work_id": 88137, "role": "production company", "role_id": 941, "is_primary": true}, {"id": 2125765, "title": "Brothers in trouble", "work_id": 86649, "role": "production company", "role_id": 941, "is_primary": true}, {"id": 1991768, "title": "Love is the devil: study for a portrait of Francis Bacon", "work_id": 87471, "role": "production company", "role_id": 941, "is_primary": true}, {"id": 1997468, "title": "Among giants", "work_id": 93325, "role": "production company", "role_id": 941, "is_primary": true}, {"id": 1988772, "title": "The Snapper", "work_id": 84805, "role": "production company", "role_id": 941, "is_primary": true}, {"id": 1998038, "title": "When Brendan met Trudy", "work_id": 93590, "role": "production company", "role_id": 941, "is_primary": true}, {"id": 785569, "title": "Truly, madly, deeply. (Captioned)", "work_id": 84421, "role": "production company", "role_id": 941, "is_primary": true}, {"id": 805063, "title": "We live by the river", "work_id": 90332, "role": "production company", "role_id": 941, "is_primary": true}, {"id": 2000414, "title": "Hideous kinky", "work_id": 95064, "role": "production company", "role_id": 941, "is_primary": true}, {"id": 939858, "title": "London to Brighton in four minutes", "work_id": 69865, "role": "production company", "role_id": 941, "is_primary": true}, {"id": 2352120, "title": "The Great Gatsby", "work_id": 93773, "role": "production company", "role_id": 941, "is_primary": true}], "also_known_as": "", "date_of_birth": "", "date_of_death": "", "genders": [], "languages": [], "places_of_operation": [], "biography": "", "biography_author": null, "date_of_biography": "2023-08-17T15:35:11.645087+10:00", "external_links": [], "uuid": "718605b7-f0eb-4a73-a90c-6a3328c48d99", "source": {"name": "Vernon", "slug": "vernon"}, "source_identifier": "1628", "external_references": [], "date_modified": "2025-03-14T19:11:08.461853+11:00"}, {"id": 7250, "name": "Don Featherstone", "roles_in_work": [{"id": 2088667, "title": "An Asian Experience Slow Boat from Surabaya", "work_id": 80358, "role": "director", "role_id": 938, "is_primary": true}, {"id": 913907, "title": "The Beach", "work_id": 93578, "role": "director", "role_id": 938, "is_primary": true}, {"id": 1426162, "title": "The Science of winning", "work_id": 78718, "role": "director", "role_id": 938, "is_primary": true}, {"id": 2105760, "title": "BabaKiueria = Barbeque area [DVD]", "work_id": 95597, "role": "director", "role_id": 938, "is_primary": true}, {"id": 2649442, "title": "Tales of Helpmann : A Portrait of Sir Robert Helpmann", "work_id": 81541, "role": "director", "role_id": 938, "is_primary": true}, {"id": 2105722, "title": "BabaKiueria", "work_id": 81915, "role": "director", "role_id": 938, "is_primary": true}, {"id": 2508654, "title": "Beautiful lies: a film about Peter Carey", "work_id": 78778, "role": "director", "role_id": 938, "is_primary": true}, {"id": 913905, "title": "The Beach", "work_id": 93578, "role": "co-producer", "role_id": 915, "is_primary": true}, {"id": 2250365, "title": "Right...said Fred: Fred Schepisi - director", "work_id": 85232, "role": "director", "role_id": 938, "is_primary": true}, {"id": 2748357, "title": "BabaKiueria", "work_id": 108294, "role": "director", "role_id": 938, "is_primary": true}, {"id": 2077464, "title": "A Window on the world of classical ballet", "work_id": 83733, "role": "director", "role_id": 938, "is_primary": true}, {"id": 2379707, "title": "Dream time machine time", "work_id": 79315, "role": "distributor", "role_id": 437, "is_primary": false}, {"id": 2100609, "title": "Arthur Boyd: figures in a landscape", "work_id": 79386, "role": "producer", "role_id": 1089, "is_primary": true}, {"id": 2770724, "title": "The Wizard from Oz - James Morrison", "work_id": 80315, "role": "producer", "role_id": 1089, "is_primary": true}, {"id": 2214758, "title": "Edge of the World", "work_id": 93001, "role": "producer", "role_id": 1089, "is_primary": true}, {"id": 2648425, "title": "Arthur Boyd: figures in a landscape (Captioned)", "work_id": 79132, "role": "producer", "role_id": 1089, "is_primary": true}, {"id": 2770746, "title": "There's No Time - Peter Sculthorpe", "work_id": 80329, "role": "producer", "role_id": 1089, "is_primary": true}, {"id": 2770743, "title": "The People's diva: Joan Carden", "work_id": 80327, "role": "producer", "role_id": 1089, "is_primary": true}, {"id": 2770735, "title": "God or Politics: Tom Keneally in Eritrea", "work_id": 80324, "role": "producer", "role_id": 1089, "is_primary": true}, {"id": 2770728, "title": "Astonish me: Graeme Murphy", "work_id": 80320, "role": "producer", "role_id": 1089, "is_primary": true}, {"id": 1428115, "title": "I witness: the art of George Gittoes (D)", "work_id": 94172, "role": "producer/director", "role_id": 31, "is_primary": true}, {"id": 2176753, "title": "Oondamooroo: a profile of Ernie Dingo", "work_id": 82942, "role": "producer/director", "role_id": 31, "is_primary": true}, {"id": 2379709, "title": "Dream time machine time", "work_id": 79315, "role": "producer/director", "role_id": 31, "is_primary": true}, {"id": 776332, "title": "The Daylight moon: a film about the poet Les Murray", "work_id": 81674, "role": "producer/director", "role_id": 31, "is_primary": true}, {"id": 2133065, "title": "Celebration of the senses: a profile of Eric Rolls", "work_id": 82970, "role": "producer/director", "role_id": 31, "is_primary": true}, {"id": 2793580, "title": "Big picture", "work_id": 115475, "role": "producer/director", "role_id": 31, "is_primary": true}, {"id": 2770732, "title": "Difficult pleasures: Brett Whiteley", "work_id": 80321, "role": "producer/director", "role_id": 31, "is_primary": true}], "also_known_as": "", "date_of_birth": null, "date_of_death": "", "genders": [{"id": 9, "name": "Male", "slug": "male"}], "languages": [], "places_of_operation": [], "biography": "Don Featherstone is an Australian filmmaker. His work includes documentaries about significant figures in Australian arts and culture, including authors David Malouf and Tim Winton, artist Brett Whiteley and dancer Robert Helpmann.  Featherstone's works address social and historical issues such as beach culture, The Beach, gangs, The One Percenters about the Milperra Massacre, and war, Kokoda.Featherstone's satirical mockumentary for television, BabaKiueria, has been the subject of academic comparative analysis of imperial historicity and postcolonial social progress.  It has also been included in cultural exchanges, for example in \"Southern Exposure\" between the Museum of Contemporary Art, Sydney and the Museum Of Contemporary Art, San Diego.In 1985 Featherstone co-founded Featherstone Productions with Judy Featherstone.Featherstone's works have been screened and broadcast internationally, in many countries.Other filmmakers utilise Featherstone's work, for example James Bogle's Whiteley. Source: Wikidata; 01/08/2023", "biography_author": null, "date_of_biography": "2025-03-14T20:19:03.925001+11:00", "external_links": [{"id": 3891, "uri": "https://en.wikipedia.org/wiki/Don_Featherstone_(filmmaker)"}], "uuid": "e5880b39-ae5c-4930-ad91-9e0a2b4f24aa", "source": {"name": "Vernon", "slug": "vernon"}, "source_identifier": "1553", "external_references": [{"id": 26862, "source": {"name": "Wikidata", "slug": "wikidata"}, "source_identifier": "Q5292597"}, {"id": 28197, "source": {"name": "VIAF", "slug": "viaf"}, "source_identifier": "72824989"}, {"id": 28198, "source": {"name": "LOC Auth", "slug": "loc-auth"}, "source_identifier": "n85128406"}, {"id": 28199, "source": {"name": "WorldCat", "slug": "worldcat"}, "source_identifier": "lccn-n85128406"}], "date_modified": "2025-03-14T20:19:03.925324+11:00"}, {"id": 7248, "name": "Geoffrey Atherden", "roles_in_work": [{"id": 2105763, "title": "BabaKiueria = Barbeque area [DVD]", "work_id": 95597, "role": "writer", "role_id": 939, "is_primary": true}, {"id": 2105726, "title": "BabaKiueria", "work_id": 81915, "role": "writer", "role_id": 939, "is_primary": true}, {"id": 2044295, "title": "Mother and Son: Arthur's Night Out", "work_id": 116738, "role": "writer", "role_id": 939, "is_primary": true}, {"id": 2748349, "title": "BabaKiueria", "work_id": 108294, "role": "writer", "role_id": 939, "is_primary": true}, {"id": 2648493, "title": "Mother and son. No. 1", "work_id": 79372, "role": "writer", "role_id": 939, "is_primary": true}, {"id": 768940, "title": "Mother and son. No. 1 (Captioned)", "work_id": 79166, "role": "writer", "role_id": 939, "is_primary": true}], "also_known_as": "", "date_of_birth": null, "date_of_death": "", "genders": [{"id": 9, "name": "Male", "slug": "male"}], "languages": [], "places_of_operation": [], "biography": "Geoffrey John Atherden , credited also as Geoff Atherden, is an Australian television screenwriter and playwright, especially of comedy. He is best known for creating the sitcom Mother and Son. Source: Wikidata; 01/08/2023", "biography_author": null, "date_of_biography": "2025-03-12T22:58:56.920705+11:00", "external_links": [{"id": 4032, "uri": "https://en.wikipedia.org/wiki/Geoffrey_Atherden"}], "uuid": "45dc3629-9c0e-47c4-9a5c-60c275d87c64", "source": {"name": "Vernon", "slug": "vernon"}, "source_identifier": "1551", "external_references": [{"id": 26911, "source": {"name": "Wikidata", "slug": "wikidata"}, "source_identifier": "Q5534424"}, {"id": 28568, "source": {"name": "VIAF", "slug": "viaf"}, "source_identifier": "4169461"}, {"id": 28569, "source": {"name": "LOC Auth", "slug": "loc-auth"}, "source_identifier": "n94109359"}, {"id": 28570, "source": {"name": "WorldCat", "slug": "worldcat"}, "source_identifier": "lccn-n94109359"}], "date_modified": "2025-03-12T22:58:56.921016+11:00"}, {"id": 7246, "name": "Janne Ryan", "roles_in_work": [{"id": 909469, "title": "In the mind of the architect: ep. 3 : corrugated dream", "work_id": 90071, "role": "co-producer", "role_id": 915, "is_primary": true}, {"id": 909464, "title": "In the mind of the architect : ep. 2: the public good", "work_id": 90070, "role": "co-producer", "role_id": 915, "is_primary": true}, {"id": 909459, "title": "In the mind of the architect : ep. 1 : keeping the faith", "work_id": 90069, "role": "co-producer", "role_id": 915, "is_primary": true}, {"id": 2637608, "title": "In the mind of the architect. Ep. 3. Corrugated dreams", "work_id": 109829, "role": "producer", "role_id": 1089, "is_primary": true}, {"id": 2748340, "title": "In the mind of the architect. Ep. 1. Keeping the faith", "work_id": 108293, "role": "producer", "role_id": 1089, "is_primary": true}, {"id": 2637602, "title": "In the mind of the architect. Ep. 2. The Public good", "work_id": 109828, "role": "producer", "role_id": 1089, "is_primary": true}], "also_known_as": "", "date_of_birth": null, "date_of_death": null, "genders": [], "languages": [], "places_of_operation": [], "biography": "", "biography_author": null, "date_of_biography": null, "external_links": [], "uuid": "078ec46f-9367-40e1-9c31-80db4b1ec267", "source": {"name": "Vernon", "slug": "vernon"}, "source_identifier": "1610", "external_references": [], "date_modified": "2025-03-12T22:58:53.103792+11:00"}, {"id": 7245, "name": "Tim Clark", "roles_in_work": [{"id": 2637606, "title": "In the mind of the architect. Ep. 3. Corrugated dreams", "work_id": 109829, "role": "director", "role_id": 938, "is_primary": true}, {"id": 2637600, "title": "In the mind of the architect. Ep. 2. The Public good", "work_id": 109828, "role": "director", "role_id": 938, "is_primary": true}, {"id": 929620, "title": "Dynasties", "work_id": 94937, "role": "co-director", "role_id": 959, "is_primary": true}, {"id": 906306, "title": "Heartlands : taking control", "work_id": 86992, "role": "co-producer", "role_id": 915, "is_primary": true}, {"id": 909468, "title": "In the mind of the architect: ep. 3 : corrugated dream", "work_id": 90071, "role": "co-producer", "role_id": 915, "is_primary": true}, {"id": 2755748, "title": "Bush tucker man series", "work_id": 114603, "role": "co-producer", "role_id": 915, "is_primary": true}, {"id": 909458, "title": "In the mind of the architect : ep. 1 : keeping the faith", "work_id": 90069, "role": "co-producer", "role_id": 915, "is_primary": true}, {"id": 929618, "title": "Dynasties", "work_id": 94937, "role": "co-producer", "role_id": 915, "is_primary": true}, {"id": 903305, "title": "The Liberals", "work_id": 84196, "role": "co-producer", "role_id": 915, "is_primary": true}, {"id": 909463, "title": "In the mind of the architect : ep. 2: the public good", "work_id": 90070, "role": "co-producer", "role_id": 915, "is_primary": true}, {"id": 2755732, "title": "From the rainforests to Cape York (Captioned)", "work_id": 79712, "role": "co-producers/directors", "role_id": 628, "is_primary": true}, {"id": 2755743, "title": "Stories of survival with Les Hiddins. [Part 2]", "work_id": 85218, "role": "co-producers/directors", "role_id": 628, "is_primary": true}, {"id": 2755720, "title": "From Arnhem Land to the Kimberley Ranges (Captioned)", "work_id": 79713, "role": "co-producers/directors", "role_id": 628, "is_primary": true}, {"id": 2755726, "title": "From the rainforests to Cape York", "work_id": 79625, "role": "co-producers/directors", "role_id": 628, "is_primary": true}, {"id": 2755738, "title": "Stories of survival with Les Hiddins. [Part 1]", "work_id": 85200, "role": "co-producers/directors", "role_id": 628, "is_primary": true}, {"id": 2755714, "title": "From Arnhemland to the Kimberley Ranges", "work_id": 79612, "role": "co-producers/directors", "role_id": 628, "is_primary": true}, {"id": 909460, "title": "In the mind of the architect : ep. 1 : keeping the faith", "work_id": 90069, "role": "director", "role_id": 938, "is_primary": true}, {"id": 909465, "title": "In the mind of the architect : ep. 2: the public good", "work_id": 90070, "role": "director", "role_id": 938, "is_primary": true}, {"id": 2748335, "title": "In the mind of the architect. Ep. 1. Keeping the faith", "work_id": 108293, "role": "director", "role_id": 938, "is_primary": true}, {"id": 909470, "title": "In the mind of the architect: ep. 3 : corrugated dream", "work_id": 90071, "role": "director", "role_id": 938, "is_primary": true}, {"id": 1805076, "title": "Heartlands with Dean Graetz : water", "work_id": 86988, "role": "producer", "role_id": 1089, "is_primary": true}, {"id": 2637605, "title": "In the mind of the architect. Ep. 3. Corrugated dreams", "work_id": 109829, "role": "producer", "role_id": 1089, "is_primary": true}, {"id": 2637599, "title": "In the mind of the architect. Ep. 2. The Public good", "work_id": 109828, "role": "producer", "role_id": 1089, "is_primary": true}, {"id": 1805070, "title": "Heartlands: diversity or dust", "work_id": 86984, "role": "producer", "role_id": 1089, "is_primary": true}, {"id": 2748332, "title": "In the mind of the architect. Ep. 1. Keeping the faith", "work_id": 108293, "role": "producer", "role_id": 1089, "is_primary": true}, {"id": 2781591, "title": "Sheer genius", "work_id": 82691, "role": "producer/director", "role_id": 31, "is_primary": true}, {"id": 2637607, "title": "In the mind of the architect. Ep. 3. Corrugated dreams", "work_id": 109829, "role": "writer", "role_id": 939, "is_primary": true}, {"id": 2637601, "title": "In the mind of the architect. Ep. 2. The Public good", "work_id": 109828, "role": "writer", "role_id": 939, "is_primary": true}, {"id": 2748338, "title": "In the mind of the architect. Ep. 1. Keeping the faith", "work_id": 108293, "role": "writer", "role_id": 939, "is_primary": true}], "also_known_as": "", "date_of_birth": "", "date_of_death": "", "genders": [], "languages": [], "places_of_operation": [], "biography": "", "biography_author": null, "date_of_biography": "2023-07-19T03:36:42.474633+10:00", "external_links": [], "uuid": "b4b33826-8372-4ee1-8538-db5202af0f1b", "source": {"name": "Vernon", "slug": "vernon"}, "source_identifier": "1609", "external_references": [{"id": 35414, "source": {"name": "Wikidata", "slug": "wikidata"}, "source_identifier": "Q121299131"}], "date_modified": "2025-03-14T19:09:49.180899+11:00"}, {"id": 7242, "name": "Susan Kim", "roles_in_work": [{"id": 810161, "title": "Driving home", "work_id": 92075, "role": "director", "role_id": 938, "is_primary": true}, {"id": 2748318, "title": "Driving home", "work_id": 108292, "role": "creator", "role_id": 968, "is_primary": true}], "also_known_as": "", "date_of_birth": null, "date_of_death": null, "genders": [], "languages": [], "places_of_operation": [], "biography": "", "biography_author": null, "date_of_biography": null, "external_links": [], "uuid": "289ccd61-4d17-4d32-951d-806bb1014f92", "source": {"name": "Vernon", "slug": "vernon"}, "source_identifier": "111160", "external_references": [], "date_modified": "2025-03-12T22:58:47.862090+11:00"}, {"id": 7240, "name": "Felix Gonnert", "roles_in_work": [{"id": 2748310, "title": "Bsss", "work_id": 108280, "role": "director", "role_id": 938, "is_primary": true}, {"id": 2748307, "title": "Bsss", "work_id": 108280, "role": "creator", "role_id": 968, "is_primary": true}], "also_known_as": "", "date_of_birth": "", "date_of_death": "", "genders": [], "languages": [], "places_of_operation": [], "biography": "", "biography_author": null, "date_of_biography": "2023-08-11T15:07:52.431446+10:00", "external_links": [], "uuid": "f84fbce8-3989-4837-bef6-c7af2b967e38", "source": {"name": "Vernon", "slug": "vernon"}, "source_identifier": "111247", "external_references": [], "date_modified": "2025-03-12T22:58:42.253498+11:00"}, {"id": 7238, "name": "Bert Gottschalk", "roles_in_work": [{"id": 2748301, "title": "Lazy Sunday afternoon", "work_id": 108279, "role": "creator", "role_id": 968, "is_primary": true}], "also_known_as": "", "date_of_birth": "", "date_of_death": "", "genders": [], "languages": [], "places_of_operation": [], "biography": "", "biography_author": null, "date_of_biography": "2023-08-11T19:19:33.453844+10:00", "external_links": [], "uuid": "8b06c6e2-ade5-44a8-a072-bd8e8afe37c6", "source": {"name": "Vernon", "slug": "vernon"}, "source_identifier": "110832", "external_references": [], "date_modified": "2025-03-12T22:58:33.541949+11:00"}, {"id": 7232, "name": "Stephen Burke", "roles_in_work": [{"id": 2748280, "title": "81", "work_id": 108277, "role": "creator", "role_id": 968, "is_primary": true}], "also_known_as": "", "date_of_birth": "", "date_of_death": "", "genders": [{"id": 9, "name": "Male", "slug": "male"}], "languages": [], "places_of_operation": [], "biography": "", "biography_author": null, "date_of_biography": "2023-08-11T12:48:57.221675+10:00", "external_links": [], "uuid": "441b13ae-7687-4f64-8eb9-ee18649a5d1b", "source": {"name": "Vernon", "slug": "vernon"}, "source_identifier": "112230", "external_references": [{"id": 41428, "source": {"name": "Wikidata", "slug": "wikidata"}, "source_identifier": "Q55721667"}, {"id": 55860, "source": {"name": "VIAF", "slug": "viaf"}, "source_identifier": "171141971"}], "date_modified": "2025-03-12T22:58:23.369030+11:00"}, {"id": 7230, "name": "Dennis Tupicoff", "roles_in_work": [{"id": 2635890, "title": "The Darra dogs", "work_id": 108534, "role": "director", "role_id": 938, "is_primary": true}, {"id": 2635892, "title": "The Darra dogs", "work_id": 108534, "role": "creator", "role_id": 968, "is_primary": true}, {"id": 2748261, "title": "His mother's voice", "work_id": 108275, "role": "creator", "role_id": 968, "is_primary": true}, {"id": 1814395, "title": "The Desert fox", "work_id": 92077, "role": "producer", "role_id": 1089, "is_primary": true}, {"id": 1816251, "title": "Magnetism", "work_id": 92196, "role": "producer", "role_id": 1089, "is_primary": true}, {"id": 1816195, "title": "Food (for) thought", "work_id": 92086, "role": "producer", "role_id": 1089, "is_primary": true}, {"id": 1816218, "title": "That 'Boy meets girl' thing compilation", "work_id": 92137, "role": "producer", "role_id": 1089, "is_primary": true}, {"id": 1817218, "title": "Changes", "work_id": 75641, "role": "producer", "role_id": 1089, "is_primary": true}, {"id": 2635891, "title": "The Darra dogs", "work_id": 108534, "role": "producer", "role_id": 1089, "is_primary": true}, {"id": 1815048, "title": "The Drive home", "work_id": 92314, "role": "producer", "role_id": 1089, "is_primary": true}, {"id": 1807037, "title": "Puffed out", "work_id": 76132, "role": "producer", "role_id": 1089, "is_primary": true}, {"id": 1811339, "title": "Ultra vires", "work_id": 91965, "role": "producer", "role_id": 1089, "is_primary": true}, {"id": 1808857, "title": "Hot date", "work_id": 88236, "role": "producer", "role_id": 1089, "is_primary": true}, {"id": 855786, "title": "My big chance", "work_id": 70715, "role": "producer/director", "role_id": 31, "is_primary": true}, {"id": 810020, "title": "Dance of death", "work_id": 92038, "role": "producer/director", "role_id": 31, "is_primary": true}, {"id": 873488, "title": "The Darra dogs", "work_id": 88227, "role": "producer/director", "role_id": 31, "is_primary": true}, {"id": 793299, "title": "His mother's voice", "work_id": 86491, "role": "producer/director", "role_id": 31, "is_primary": true}, {"id": 873487, "title": "The Darra dogs", "work_id": 88227, "role": "production company", "role_id": 941, "is_primary": true}], "also_known_as": "", "date_of_birth": "", "date_of_death": "", "genders": [], "languages": [], "places_of_operation": [], "biography": "", "biography_author": null, "date_of_biography": "2023-08-11T13:15:58.823174+10:00", "external_links": [], "uuid": "f0d29844-5e5f-4522-bdc6-2959412ed485", "source": {"name": "Vernon", "slug": "vernon"}, "source_identifier": "111274", "external_references": [], "date_modified": "2025-03-12T22:58:03.345548+11:00"}]}