{"count": 28687, "next": "https://api.acmi.net.au/creators/?page=1287", "previous": "https://api.acmi.net.au/creators/?page=1285", "results": [{"id": 39070, "name": "Ron Tindall", "roles_in_work": [{"id": 2753439, "title": "Coaching for the first time", "work_id": 98761, "role": "producer", "role_id": 1089, "is_primary": true}], "also_known_as": "", "date_of_birth": "", "date_of_death": "", "genders": [], "languages": [], "places_of_operation": [], "biography": "", "biography_author": null, "date_of_biography": "2023-08-11T15:33:18.646718+10:00", "external_links": [], "uuid": "7efaf724-6313-4200-bc01-ad70983deacc", "source": {"name": "Vernon", "slug": "vernon"}, "source_identifier": "28177", "external_references": [], "date_modified": "2025-03-13T01:25:33.267434+11:00"}, {"id": 39069, "name": "Dep for Youth, Sport and Recreation, Western Australia", "roles_in_work": [{"id": 2753438, "title": "Coaching for the first time", "work_id": 98761, "role": "production company", "role_id": 941, "is_primary": true}], "also_known_as": "", "date_of_birth": "", "date_of_death": "", "genders": [], "languages": [], "places_of_operation": [], "biography": "", "biography_author": null, "date_of_biography": "2023-08-11T15:33:18.027641+10:00", "external_links": [], "uuid": "5fb2cfdc-2ede-41fe-b4b1-a5deb98943e6", "source": {"name": "Vernon", "slug": "vernon"}, "source_identifier": "7409", "external_references": [], "date_modified": "2025-03-13T01:25:32.669621+11:00"}, {"id": 39065, "name": "International Committee of the Red Cross", "roles_in_work": [{"id": 2753425, "title": "ICRC 1983", "work_id": 98755, "role": "production company", "role_id": 941, "is_primary": true}], "also_known_as": "", "date_of_birth": "", "date_of_death": "", "genders": [], "languages": [], "places_of_operation": [], "biography": "", "biography_author": null, "date_of_biography": "2023-08-11T18:17:52.325269+10:00", "external_links": [], "uuid": "2ef76923-6c64-40f6-951d-5e4648b018ca", "source": {"name": "Vernon", "slug": "vernon"}, "source_identifier": "9372", "external_references": [], "date_modified": "2025-03-13T01:25:25.050524+11:00"}, {"id": 39064, "name": "Gyorgy Karpati", "roles_in_work": [{"id": 2471570, "title": "What's in a symbol?", "work_id": 98754, "role": "director", "role_id": 938, "is_primary": true}], "also_known_as": "", "date_of_birth": "", "date_of_death": "", "genders": [], "languages": [], "places_of_operation": [], "biography": "", "biography_author": null, "date_of_biography": "2023-08-14T12:42:13.912522+10:00", "external_links": [], "uuid": "9222cb93-6483-48e5-97d5-9e0dda20ebcd", "source": {"name": "Vernon", "slug": "vernon"}, "source_identifier": "18429", "external_references": [], "date_modified": "2023-08-14T12:42:13.912745+10:00"}, {"id": 39063, "name": "League of Red Cross Societies et al", "roles_in_work": [{"id": 2471569, "title": "What's in a symbol?", "work_id": 98754, "role": "production company", "role_id": 941, "is_primary": true}], "also_known_as": "", "date_of_birth": "", "date_of_death": "", "genders": [], "languages": [], "places_of_operation": [], "biography": "", "biography_author": null, "date_of_biography": "2023-08-14T12:42:13.287829+10:00", "external_links": [], "uuid": "06a7e990-e822-4d69-990d-2f7022cc7a6a", "source": {"name": "Vernon", "slug": "vernon"}, "source_identifier": "9948", "external_references": [], "date_modified": "2023-08-14T12:42:13.288089+10:00"}, {"id": 39062, "name": "Derek Hart Productions", "roles_in_work": [{"id": 2753423, "title": "Delegates", "work_id": 98753, "role": "production company", "role_id": 941, "is_primary": true}], "also_known_as": "", "date_of_birth": "", "date_of_death": "", "genders": [], "languages": [], "places_of_operation": [], "biography": "", "biography_author": null, "date_of_biography": "2023-08-11T16:02:56.081937+10:00", "external_links": [], "uuid": "b73b1e88-b0f9-4960-a82f-c911715cc92b", "source": {"name": "Vernon", "slug": "vernon"}, "source_identifier": "7523", "external_references": [], "date_modified": "2025-03-13T01:25:23.583131+11:00"}, {"id": 39061, "name": "Video Images", "roles_in_work": [{"id": 2753422, "title": "No turning back (TEFC)", "work_id": 98752, "role": "production company", "role_id": 941, "is_primary": true}], "also_known_as": "", "date_of_birth": "", "date_of_death": "", "genders": [], "languages": [], "places_of_operation": [], "biography": "", "biography_author": null, "date_of_biography": "2023-08-14T10:10:29.619309+10:00", "external_links": [], "uuid": "9985aa86-288c-4bbf-acb0-6ab44545d106", "source": {"name": "Vernon", "slug": "vernon"}, "source_identifier": "14105", "external_references": [], "date_modified": "2025-03-13T01:25:22.757446+11:00"}, {"id": 39060, "name": "Chelsea Productions", "roles_in_work": [{"id": 2788360, "title": "Why Not the Kids?", "work_id": 98749, "role": "production company", "role_id": 941, "is_primary": true}], "also_known_as": "", "date_of_birth": "", "date_of_death": "", "genders": [], "languages": [], "places_of_operation": [], "biography": "", "biography_author": null, "date_of_biography": "2023-08-11T16:32:34.235892+10:00", "external_links": [], "uuid": "dedbe4a2-6469-4452-a7a1-1385c2d8df69", "source": {"name": "Vernon", "slug": "vernon"}, "source_identifier": "6539", "external_references": [], "date_modified": "2025-03-14T19:44:13.325204+11:00"}, {"id": 39059, "name": "Rowan Ayers", "roles_in_work": [{"id": 2753409, "title": "So you're going to have a baby", "work_id": 98747, "role": "producer", "role_id": 1089, "is_primary": true}], "also_known_as": "", "date_of_birth": "", "date_of_death": "", "genders": [], "languages": [], "places_of_operation": [], "biography": "", "biography_author": null, "date_of_biography": "2023-05-09T18:43:25.721549+10:00", "external_links": [], "uuid": "59fa6b35-d1d4-4610-b1aa-2bd05b4f96dd", "source": {"name": "Vernon", "slug": "vernon"}, "source_identifier": "28289", "external_references": [{"id": 33123, "source": {"name": "Wikidata", "slug": "wikidata"}, "source_identifier": "Q121035695"}], "date_modified": "2025-03-13T01:25:13.503835+11:00"}, {"id": 39058, "name": "Enterprise Colour Video", "roles_in_work": [{"id": 2753408, "title": "So you're going to have a baby", "work_id": 98747, "role": "production company", "role_id": 941, "is_primary": true}], "also_known_as": "", "date_of_birth": "", "date_of_death": "", "genders": [], "languages": [], "places_of_operation": [], "biography": "", "biography_author": null, "date_of_biography": "2023-05-09T18:43:25.483994+10:00", "external_links": [], "uuid": "133a3030-d84d-4efc-a0f7-0c2c9918e5aa", "source": {"name": "Vernon", "slug": "vernon"}, "source_identifier": "7904", "external_references": [{"id": 42219, "source": {"name": "Wikidata", "slug": "wikidata"}, "source_identifier": "Q121270662"}], "date_modified": "2025-03-13T01:25:12.915329+11:00"}]}