{"count": 28687, "next": "https://api.acmi.net.au/creators/?page=1468", "previous": "https://api.acmi.net.au/creators/?page=1466", "results": [{"id": 35002, "name": "Barbara Sass", "roles_in_work": [{"id": 2471937, "title": "Without love = Bez milosci [NTSC]", "work_id": 93293, "role": "director", "role_id": 938, "is_primary": true}], "also_known_as": "", "date_of_birth": "14 OCT 1936", "date_of_death": "", "genders": [], "languages": [], "places_of_operation": [], "biography": "", "biography_author": null, "date_of_biography": "2023-08-14T12:49:56.446637+10:00", "external_links": [], "uuid": "b7c531fb-57a1-458a-a76f-0a55fd3d0e03", "source": {"name": "Vernon", "slug": "vernon"}, "source_identifier": "15662", "external_references": [], "date_modified": "2023-08-14T12:49:56.446970+10:00"}, {"id": 35001, "name": "Iluzjon Film Unit", "roles_in_work": [{"id": 2471936, "title": "Without love = Bez milosci [NTSC]", "work_id": 93293, "role": "production company", "role_id": 941, "is_primary": true}], "also_known_as": "", "date_of_birth": "", "date_of_death": "", "genders": [], "languages": [], "places_of_operation": [], "biography": "", "biography_author": null, "date_of_biography": "2023-08-14T12:49:55.827008+10:00", "external_links": [], "uuid": "490d21be-f4c1-4ce5-b8f7-9414ce1a6d9f", "source": {"name": "Vernon", "slug": "vernon"}, "source_identifier": "9240", "external_references": [], "date_modified": "2023-08-14T12:49:55.827290+10:00"}, {"id": 35000, "name": "Feliks Falk", "roles_in_work": [{"id": 1997381, "title": "Top dog = Wodzirej [NTSC]", "work_id": 93292, "role": "director", "role_id": 938, "is_primary": true}], "also_known_as": "", "date_of_birth": "1941-02-25", "date_of_death": null, "genders": [{"id": 9, "name": "Male", "slug": "male"}], "languages": [{"id": 24, "name": "Polish", "slug": "polish"}], "places_of_operation": [{"id": 44, "name": "Poland", "slug": "poland"}], "biography": "Feliks Falk ps. Robert F. Lane, Edward Neyman (born 25 February 1941) is a Polish film and theater director as well as writer of film scripts, stage plays, television plays, and radio shows. A 1966 graduate of Warsaw's Academy of Fine Arts, he also is a painter and graphic artist. Falk is one of creators of the 1970s wave of Polish cinematography, called Cinema of Moral Anxiety. His most famous films include Wodzirej (Top Dog) (1977) and Samowolka (AWOL) (1993). Falk has won a number of major filmmaking awards. His 1987 film Hero of the Year was entered into the 15th Moscow International Film Festival where it won the FIPRESCI Prize and a Special Prize.", "biography_author": "Wikidata", "date_of_biography": "2023-08-01T14:49:11.758071+10:00", "external_links": [{"id": 3966, "uri": "https://en.wikipedia.org/wiki/Feliks_Falk"}], "uuid": "894ce827-84f8-42c5-85b5-089555a7d4dd", "source": {"name": "Vernon", "slug": "vernon"}, "source_identifier": "18976", "external_references": [{"id": 26769, "source": {"name": "Wikidata", "slug": "wikidata"}, "source_identifier": "Q325626"}, {"id": 28393, "source": {"name": "VIAF", "slug": "viaf"}, "source_identifier": "84977610"}, {"id": 28394, "source": {"name": "LOC Auth", "slug": "loc-auth"}, "source_identifier": "no98088618"}, {"id": 28395, "source": {"name": "WorldCat", "slug": "worldcat"}, "source_identifier": "lccn-no98088618"}], "date_modified": "2023-09-13T12:29:21.828133+10:00"}, {"id": 34997, "name": "Andrzej Munk", "roles_in_work": [{"id": 1997379, "title": "Bad luck = Zezowate szczescie [NTSC]", "work_id": 93290, "role": "director", "role_id": 938, "is_primary": true}], "also_known_as": "", "date_of_birth": "1921-10-16", "date_of_death": "1961-09-20", "genders": [{"id": 9, "name": "Male", "slug": "male"}], "languages": [{"id": 24, "name": "Polish", "slug": "polish"}], "places_of_operation": [{"id": 44, "name": "Poland", "slug": "poland"}], "biography": "Andrzej Munk (16 October 1921 – 20 September 1961) was a Polish film director, screen writer and documentalist. He was one of the most influential artists of the post-Stalinist period in the People's Republic of Poland. His feature films Man on the Tracks (Człowiek na torze, 1956), Eroica (Heroism, 1958), Bad Luck (Zezowate szczęście, 1960), and Passenger (Pasażerka 1963), are considered classics of the Polish Film School developed in mid-1950s. He died as a result of a car crash in Kompina in a head-on collision with a truck.\n\n", "biography_author": "Wikidata", "date_of_biography": "2022-05-19T10:49:54.156895+10:00", "external_links": [{"id": 1653, "uri": "https://en.wikipedia.org/wiki/Andrzej_Munk"}], "uuid": "6232f26f-6e69-497d-bc11-15e1f1598e32", "source": {"name": "Vernon", "slug": "vernon"}, "source_identifier": "15237", "external_references": [{"id": 7213, "source": {"name": "Wikidata", "slug": "wikidata"}, "source_identifier": "Q515331"}, {"id": 7214, "source": {"name": "VIAF", "slug": "viaf"}, "source_identifier": "2725279"}, {"id": 7215, "source": {"name": "LOC Auth", "slug": "loc-auth"}, "source_identifier": "n84204847"}, {"id": 7216, "source": {"name": "WorldCat", "slug": "worldcat"}, "source_identifier": "lccn-n84204847"}], "date_modified": "2023-09-13T12:28:12.888789+10:00"}, {"id": 34988, "name": "IMF (DE)", "roles_in_work": [{"id": 2341464, "title": "The Crow: salvation", "work_id": 94283, "role": "production company", "role_id": 941, "is_primary": true}, {"id": 1997383, "title": "Nurse Betty [DVD]", "work_id": 93294, "role": "production company", "role_id": 941, "is_primary": true}, {"id": 2000084, "title": "The Quiet American (2001)", "work_id": 94901, "role": "production company", "role_id": 941, "is_primary": true}], "also_known_as": "", "date_of_birth": "", "date_of_death": "", "genders": [], "languages": [], "places_of_operation": [], "biography": "", "biography_author": null, "date_of_biography": "2023-05-09T19:40:15.068264+10:00", "external_links": [], "uuid": "0520ed8b-a589-4ef1-9301-01a77648587c", "source": {"name": "Vernon", "slug": "vernon"}, "source_identifier": "4521", "external_references": [{"id": 51961, "source": {"name": "Wikidata", "slug": "wikidata"}, "source_identifier": "Q121357773"}], "date_modified": "2023-09-05T20:47:48.635464+10:00"}, {"id": 34987, "name": "Mary Rawson", "roles_in_work": [{"id": 2354907, "title": "The House on the waterfall", "work_id": 93285, "role": "producer", "role_id": 1089, "is_primary": true}], "also_known_as": "", "date_of_birth": "", "date_of_death": "", "genders": [], "languages": [], "places_of_operation": [], "biography": "", "biography_author": null, "date_of_biography": "2023-05-09T20:02:19.835698+10:00", "external_links": [], "uuid": "5f47b0f0-a7b2-4540-9fb9-531c2ad2295f", "source": {"name": "Vernon", "slug": "vernon"}, "source_identifier": "24736", "external_references": [{"id": 36333, "source": {"name": "Wikidata", "slug": "wikidata"}, "source_identifier": "Q121126444"}], "date_modified": "2023-09-05T22:52:20.513546+10:00"}, {"id": 34986, "name": "Frank Hunter", "roles_in_work": [{"id": 2751126, "title": "Gallipoli", "work_id": 97666, "role": "producer", "role_id": 1089, "is_primary": true}, {"id": 2327658, "title": "The Anzac Story", "work_id": 93284, "role": "producer", "role_id": 1089, "is_primary": true}], "also_known_as": "", "date_of_birth": "", "date_of_death": "", "genders": [], "languages": [], "places_of_operation": [], "biography": "", "biography_author": null, "date_of_biography": "2023-05-09T19:21:24.935643+10:00", "external_links": [], "uuid": "51fd3c6f-956d-44f9-898c-0efedf81c08f", "source": {"name": "Vernon", "slug": "vernon"}, "source_identifier": "19129", "external_references": [{"id": 40413, "source": {"name": "Wikidata", "slug": "wikidata"}, "source_identifier": "Q121222882"}], "date_modified": "2025-03-13T00:37:14.912381+11:00"}, {"id": 34985, "name": "Asta Productions", "roles_in_work": [{"id": 2248800, "title": "Remembering Marilyn", "work_id": 93280, "role": "production company", "role_id": 941, "is_primary": true}], "also_known_as": "", "date_of_birth": "", "date_of_death": "", "genders": [], "languages": [], "places_of_operation": [], "biography": "", "biography_author": null, "date_of_biography": "2023-05-09T17:07:36.525291+10:00", "external_links": [], "uuid": "a9caf501-a9ea-48d0-a1ad-328f70b4dcfe", "source": {"name": "Vernon", "slug": "vernon"}, "source_identifier": "4116", "external_references": [{"id": 37746, "source": {"name": "Wikidata", "slug": "wikidata"}, "source_identifier": "Q121223165"}], "date_modified": "2023-09-05T17:48:56.522528+10:00"}, {"id": 34984, "name": "Scotti-Vinnedge Productions", "roles_in_work": [{"id": 2248795, "title": "Remembering Marilyn", "work_id": 93280, "role": "production company", "role_id": 941, "is_primary": true}], "also_known_as": "", "date_of_birth": "", "date_of_death": "", "genders": [], "languages": [], "places_of_operation": [], "biography": "", "biography_author": null, "date_of_biography": "2023-05-09T17:07:36.285670+10:00", "external_links": [], "uuid": "5dd2e7ba-1055-4a7d-b664-eea7b280126e", "source": {"name": "Vernon", "slug": "vernon"}, "source_identifier": "4115", "external_references": [{"id": 34270, "source": {"name": "Wikidata", "slug": "wikidata"}, "source_identifier": "Q121271319"}], "date_modified": "2023-09-06T01:08:57.236714+10:00"}, {"id": 34983, "name": "Bill Foster", "roles_in_work": [{"id": 2327821, "title": "The American Film Institute salute to James Cagney", "work_id": 93276, "role": "director", "role_id": 938, "is_primary": true}], "also_known_as": "", "date_of_birth": "", "date_of_death": "", "genders": [], "languages": [], "places_of_operation": [], "biography": "", "biography_author": null, "date_of_biography": "2023-05-09T19:21:39.040807+10:00", "external_links": [], "uuid": "6908654c-4cd0-4872-8267-ecef9bd98980", "source": {"name": "Vernon", "slug": "vernon"}, "source_identifier": "15960", "external_references": [{"id": 37324, "source": {"name": "Wikidata", "slug": "wikidata"}, "source_identifier": "Q121079075"}], "date_modified": "2023-09-05T18:02:38.686355+10:00"}]}