{"count": 28687, "next": "https://api.acmi.net.au/creators/?page=2364", "previous": "https://api.acmi.net.au/creators/?page=2362", "results": [{"id": 15656, "name": "National Bank of Australia", "roles_in_work": [{"id": 2715727, "title": "How a cheque book works", "work_id": 68583, "role": "production company", "role_id": 941, "is_primary": true}, {"id": 749392, "title": "Now generation", "work_id": 71005, "role": "production company", "role_id": 941, "is_primary": true}], "also_known_as": "", "date_of_birth": null, "date_of_death": null, "genders": [], "languages": [], "places_of_operation": [], "biography": "", "biography_author": null, "date_of_biography": null, "external_links": [], "uuid": "fb61d014-6747-4986-acdc-455762ad36af", "source": {"name": "Vernon", "slug": "vernon"}, "source_identifier": "10776", "external_references": [], "date_modified": "2025-03-12T01:41:01.119096+11:00"}, {"id": 15655, "name": "Stanley Goulder", "roles_in_work": [{"id": 2715725, "title": "Hoverport", "work_id": 68582, "role": "director", "role_id": 938, "is_primary": true}], "also_known_as": "", "date_of_birth": null, "date_of_death": null, "genders": [], "languages": [], "places_of_operation": [], "biography": "", "biography_author": null, "date_of_biography": null, "external_links": [], "uuid": "e8df2994-cf9f-4b44-a531-72e0f4fb8180", "source": {"name": "Vernon", "slug": "vernon"}, "source_identifier": "28960", "external_references": [{"id": 32878, "source": {"name": "Wikidata", "slug": "wikidata"}, "source_identifier": "Q113976629"}], "date_modified": "2025-03-12T01:40:59.607426+11:00"}, {"id": 15654, "name": "Robert Kruger", "roles_in_work": [{"id": 2231993, "title": "Primary health care: a team approach", "work_id": 91336, "role": "co-producer", "role_id": 915, "is_primary": true}, {"id": 2715724, "title": "Hoverport", "work_id": 68582, "role": "producer", "role_id": 1089, "is_primary": true}, {"id": 2766287, "title": "Say English cheese", "work_id": 72195, "role": "producer", "role_id": 1089, "is_primary": true}, {"id": 2766278, "title": "Survival", "work_id": 87185, "role": "producer", "role_id": 1089, "is_primary": true}], "also_known_as": "", "date_of_birth": "", "date_of_death": "", "genders": [], "languages": [], "places_of_operation": [], "biography": "", "biography_author": null, "date_of_biography": "2023-08-11T16:53:35.720854+10:00", "external_links": [], "uuid": "297d4e99-4ea5-4126-a5c7-4912eb84c361", "source": {"name": "Vernon", "slug": "vernon"}, "source_identifier": "27791", "external_references": [{"id": 33781, "source": {"name": "Wikidata", "slug": "wikidata"}, "source_identifier": "Q121078811"}], "date_modified": "2025-03-14T17:57:34.657081+11:00"}, {"id": 15653, "name": "Seven-League Unit", "roles_in_work": [{"id": 2715715, "title": "Houses in history", "work_id": 68579, "role": "production company", "role_id": 941, "is_primary": true}], "also_known_as": "", "date_of_birth": null, "date_of_death": null, "genders": [], "languages": [], "places_of_operation": [], "biography": "", "biography_author": null, "date_of_biography": null, "external_links": [], "uuid": "617be18b-5fc4-433a-9ae5-f19bf1b3c5b3", "source": {"name": "Vernon", "slug": "vernon"}, "source_identifier": "12475", "external_references": [], "date_modified": "2025-03-12T01:40:51.508920+11:00"}, {"id": 15652, "name": "The Conservation Foundation", "roles_in_work": [{"id": 2645761, "title": "Nature's plan", "work_id": 70784, "role": "production company", "role_id": 941, "is_primary": true}, {"id": 2467486, "title": "The Making of the river [B&W]", "work_id": 91118, "role": "production company", "role_id": 941, "is_primary": true}, {"id": 825755, "title": "The Pond and the city", "work_id": 96019, "role": "production company", "role_id": 941, "is_primary": true}, {"id": 858965, "title": "The Strands grow", "work_id": 73279, "role": "production company", "role_id": 941, "is_primary": true}, {"id": 2467485, "title": "The Making of the river", "work_id": 70046, "role": "production company", "role_id": 941, "is_primary": true}, {"id": 2768242, "title": "This vital earth", "work_id": 73749, "role": "production company", "role_id": 941, "is_primary": true}, {"id": 2768248, "title": "Seeds of destruction", "work_id": 76167, "role": "production company", "role_id": 941, "is_primary": true}, {"id": 2715708, "title": "The House of man. Part 1. Our changing environment", "work_id": 68573, "role": "production company", "role_id": 941, "is_primary": true}], "also_known_as": "", "date_of_birth": "", "date_of_death": "", "genders": [], "languages": [], "places_of_operation": [], "biography": "", "biography_author": null, "date_of_biography": "2023-08-14T11:21:10.651100+10:00", "external_links": [], "uuid": "60800279-5f6c-4544-8c23-9b5709230e27", "source": {"name": "Vernon", "slug": "vernon"}, "source_identifier": "7019", "external_references": [], "date_modified": "2025-03-14T18:09:08.069787+11:00"}, {"id": 15651, "name": "Portsmouth Polytechnic", "roles_in_work": [{"id": 2715704, "title": "The House and the sun", "work_id": 68571, "role": "production company", "role_id": 941, "is_primary": true}], "also_known_as": "", "date_of_birth": "", "date_of_death": "", "genders": [], "languages": [], "places_of_operation": [], "biography": "", "biography_author": null, "date_of_biography": "2023-08-14T11:16:04.523842+10:00", "external_links": [], "uuid": "b8c19461-0e75-4506-b659-2b308af26db8", "source": {"name": "Vernon", "slug": "vernon"}, "source_identifier": "11590", "external_references": [], "date_modified": "2025-03-12T01:40:43.893969+11:00"}, {"id": 15650, "name": "B M T Visuals", "roles_in_work": [{"id": 2715703, "title": "A Career in hotels and restaurants", "work_id": 68568, "role": "production company", "role_id": 941, "is_primary": true}], "also_known_as": "", "date_of_birth": "", "date_of_death": "", "genders": [], "languages": [], "places_of_operation": [], "biography": "", "biography_author": null, "date_of_biography": "2023-08-11T12:53:03.160962+10:00", "external_links": [], "uuid": "dd332f89-a28e-4b01-a4c3-c0f7e299bab1", "source": {"name": "Vernon", "slug": "vernon"}, "source_identifier": "5664", "external_references": [], "date_modified": "2025-03-12T01:40:43.001300+11:00"}, {"id": 15649, "name": "Michael Luke", "roles_in_work": [{"id": 2715701, "title": "Hospital team in action", "work_id": 68566, "role": "director", "role_id": 938, "is_primary": true}], "also_known_as": "", "date_of_birth": null, "date_of_death": null, "genders": [], "languages": [], "places_of_operation": [], "biography": "", "biography_author": null, "date_of_biography": null, "external_links": [], "uuid": "c4ce9978-60d9-48e3-86b4-8d3fbe90c5a7", "source": {"name": "Vernon", "slug": "vernon"}, "source_identifier": "25145", "external_references": [], "date_modified": "2025-03-12T01:40:41.260038+11:00"}, {"id": 15648, "name": "Anne Balfour Fraser", "roles_in_work": [{"id": 2299424, "title": "Simon", "work_id": 72829, "role": "co-director", "role_id": 959, "is_primary": true}, {"id": 2749000, "title": "The Pre-Raphaelite revolt", "work_id": 96591, "role": "producer", "role_id": 1089, "is_primary": true}, {"id": 2750473, "title": "Women of the Toubou", "work_id": 97345, "role": "producer", "role_id": 1089, "is_primary": true}, {"id": 2715700, "title": "Hospital team in action", "work_id": 68566, "role": "producer", "role_id": 1089, "is_primary": true}, {"id": 3083688, "title": "Ben Nicholson 1894-1982", "work_id": 92583, "role": "producer", "role_id": 1089, "is_primary": true}], "also_known_as": "", "date_of_birth": "", "date_of_death": "", "genders": [], "languages": [], "places_of_operation": [], "biography": "", "biography_author": null, "date_of_biography": "2023-05-09T18:34:16.032521+10:00", "external_links": [], "uuid": "0325b51e-c244-4555-b7f6-12ed8baa3ab4", "source": {"name": "Vernon", "slug": "vernon"}, "source_identifier": "15317", "external_references": [{"id": 34121, "source": {"name": "Wikidata", "slug": "wikidata"}, "source_identifier": "Q121271260"}], "date_modified": "2025-03-17T10:34:08.216619+11:00"}, {"id": 15647, "name": "Paul Barralet", "roles_in_work": [{"id": 1819664, "title": "Workmates", "work_id": 74917, "role": "producer", "role_id": 1089, "is_primary": true}, {"id": 2715692, "title": "Horse talk", "work_id": 68556, "role": "producer", "role_id": 1089, "is_primary": true}, {"id": 855790, "title": "My dog 'Number'", "work_id": 70717, "role": "producer/director", "role_id": 31, "is_primary": true}], "also_known_as": "", "date_of_birth": "", "date_of_death": "", "genders": [], "languages": [], "places_of_operation": [], "biography": "", "biography_author": null, "date_of_biography": "2023-08-11T17:30:28.141810+10:00", "external_links": [], "uuid": "b00aad7d-63ed-4310-9e6f-ef54c8a8451b", "source": {"name": "Vernon", "slug": "vernon"}, "source_identifier": "26171", "external_references": [], "date_modified": "2025-03-12T01:40:34.178304+11:00"}]}