{"count": 28687, "next": "https://api.acmi.net.au/creators/?page=2525", "previous": "https://api.acmi.net.au/creators/?page=2523", "results": [{"id": 13595, "name": "Intel", "roles_in_work": [{"id": 2679371, "title": "The Cathode colours them human", "work_id": 65872, "role": "production company", "role_id": 941, "is_primary": true}, {"id": 2781973, "title": "Travellers' tales", "work_id": 82878, "role": "production company", "role_id": 941, "is_primary": true}], "also_known_as": "", "date_of_birth": "", "date_of_death": "", "genders": [], "languages": [], "places_of_operation": [], "biography": "", "biography_author": null, "date_of_biography": "2023-05-09T19:47:44.285441+10:00", "external_links": [], "uuid": "ce58ca1a-1631-4258-9ae0-6542e2ceb43a", "source": {"name": "Vernon", "slug": "vernon"}, "source_identifier": "9337", "external_references": [{"id": 42103, "source": {"name": "Wikidata", "slug": "wikidata"}, "source_identifier": "Q121270883"}], "date_modified": "2025-03-14T19:10:53.496326+11:00"}, {"id": 13594, "name": "Dudley Shaw Ashton", "roles_in_work": [{"id": 855866, "title": "The Nativity", "work_id": 70766, "role": "director", "role_id": 938, "is_primary": true}, {"id": 751921, "title": "Rembrandt's - The Three Crosses", "work_id": 72134, "role": "director", "role_id": 938, "is_primary": true}, {"id": 876188, "title": "Figures in a landscape", "work_id": 89913, "role": "director", "role_id": 938, "is_primary": true}, {"id": 855375, "title": "The Mind of Nicolas Poussin: the Seven Sacraments", "work_id": 70394, "role": "director", "role_id": 938, "is_primary": true}, {"id": 2679368, "title": "The Cathedral under the sea = La Cathedrale engloutie", "work_id": 65870, "role": "director", "role_id": 938, "is_primary": true}, {"id": 2680601, "title": "Coventry cathedral", "work_id": 66462, "role": "director", "role_id": 938, "is_primary": true}], "also_known_as": "", "date_of_birth": null, "date_of_death": null, "genders": [], "languages": [], "places_of_operation": [], "biography": "", "biography_author": null, "date_of_biography": null, "external_links": [], "uuid": "9c2d59e8-0d23-4f02-a4a1-198d34b8b8e1", "source": {"name": "Vernon", "slug": "vernon"}, "source_identifier": "18454", "external_references": [], "date_modified": "2025-03-07T00:40:02.207724+11:00"}, {"id": 13593, "name": "Horace Shepherd", "roles_in_work": [{"id": 2712844, "title": "Ely Cathedral", "work_id": 67120, "role": "director", "role_id": 938, "is_primary": true}, {"id": 808407, "title": "This England. No. 4 [King Edward VI]", "work_id": 91435, "role": "director", "role_id": 938, "is_primary": true}, {"id": 878967, "title": "This England. No. 11 [Elizabeth I, 1580]", "work_id": 91489, "role": "director", "role_id": 938, "is_primary": true}, {"id": 878768, "title": "This England. No. 2 [Henry VIII, 1531]", "work_id": 91370, "role": "director", "role_id": 938, "is_primary": true}, {"id": 878960, "title": "This England. No. 10 [Elizabeth I and Mary, Queen of Scots, 1568]", "work_id": 91484, "role": "director", "role_id": 938, "is_primary": true}, {"id": 854502, "title": "Symphonies in stone: Lincoln Cathedral", "work_id": 69742, "role": "director", "role_id": 938, "is_primary": true}, {"id": 861133, "title": "York Cathedral", "work_id": 74996, "role": "director", "role_id": 938, "is_primary": true}, {"id": 2414948, "title": "Lichfield: a symphony in stone", "work_id": 88674, "role": "director", "role_id": 938, "is_primary": true}, {"id": 857997, "title": "Symphonies in stone. No. 3. Salisbury Cathedral", "work_id": 72455, "role": "director", "role_id": 938, "is_primary": true}, {"id": 808409, "title": "This England. No. 5 [Mary Tudor, 1553]", "work_id": 91436, "role": "director", "role_id": 938, "is_primary": true}, {"id": 2646887, "title": "Westminster Abbey", "work_id": 74599, "role": "director", "role_id": 938, "is_primary": true}, {"id": 2679365, "title": "The World famous Cathedral of Chatres: miracle of the 11th century", "work_id": 65869, "role": "director", "role_id": 938, "is_primary": true}, {"id": 2795498, "title": "Joan of Arc", "work_id": 88712, "role": "director", "role_id": 938, "is_primary": true}, {"id": 808362, "title": "This England. No. 12 [Elizabeth I, 1593]", "work_id": 91410, "role": "director", "role_id": 938, "is_primary": true}, {"id": 808610, "title": "This England. No. 7 [Elizabeth I, 1558]", "work_id": 91491, "role": "director", "role_id": 938, "is_primary": true}, {"id": 808608, "title": "This England. No. 9 [Elizabeth I and Mary, Queen of Scots, 1567]", "work_id": 91490, "role": "director", "role_id": 938, "is_primary": true}, {"id": 808405, "title": "This England. No. 6 [Mary Tudor, 1555]", "work_id": 91434, "role": "director", "role_id": 938, "is_primary": true}, {"id": 808599, "title": "This England. No. 8 [Mary, Queen of Scots, 1566]", "work_id": 91485, "role": "director", "role_id": 938, "is_primary": true}, {"id": 1804451, "title": "Snowdonia", "work_id": 86787, "role": "producer", "role_id": 1089, "is_primary": true}, {"id": 2795537, "title": "The Queen of Sheba", "work_id": 88398, "role": "producer/director", "role_id": 31, "is_primary": true}, {"id": 754469, "title": "Stratford on Avon", "work_id": 73286, "role": "producer/director", "role_id": 31, "is_primary": true}, {"id": 2795531, "title": "Delilah", "work_id": 88520, "role": "producer/director", "role_id": 31, "is_primary": true}, {"id": 2795506, "title": "Cleopatra", "work_id": 88854, "role": "producer/director", "role_id": 31, "is_primary": true}, {"id": 2795521, "title": "Boadicea", "work_id": 88873, "role": "producer/director", "role_id": 31, "is_primary": true}], "also_known_as": "", "date_of_birth": "", "date_of_death": "", "genders": [], "languages": [], "places_of_operation": [], "biography": "", "biography_author": null, "date_of_biography": "2023-08-11T19:27:47.430134+10:00", "external_links": [], "uuid": "73d6823d-85b3-4680-a0cf-dd3cc0f3b7e9", "source": {"name": "Vernon", "slug": "vernon"}, "source_identifier": "20594", "external_references": [{"id": 39367, "source": {"name": "Wikidata", "slug": "wikidata"}, "source_identifier": "Q120308487"}], "date_modified": "2025-03-14T20:32:20.045367+11:00"}, {"id": 13592, "name": "Inspiration Pictures (GB)", "roles_in_work": [{"id": 2795497, "title": "Joan of Arc", "work_id": 88712, "role": "production company", "role_id": 941, "is_primary": true}, {"id": 2714734, "title": "Gloucester Cathedral", "work_id": 68089, "role": "production company", "role_id": 941, "is_primary": true}, {"id": 2646886, "title": "Westminster Abbey", "work_id": 74599, "role": "production company", "role_id": 941, "is_primary": true}, {"id": 2795534, "title": "The Queen of Sheba", "work_id": 88398, "role": "production company", "role_id": 941, "is_primary": true}, {"id": 2795525, "title": "Delilah", "work_id": 88520, "role": "production company", "role_id": 941, "is_primary": true}, {"id": 2795516, "title": "Boadicea", "work_id": 88873, "role": "production company", "role_id": 941, "is_primary": true}, {"id": 2795508, "title": "Cleopatra and Antony", "work_id": 88855, "role": "production company", "role_id": 941, "is_primary": true}, {"id": 2795503, "title": "Cleopatra", "work_id": 88854, "role": "production company", "role_id": 941, "is_primary": true}, {"id": 808598, "title": "This England. No. 8 [Mary, Queen of Scots, 1566]", "work_id": 91485, "role": "production company", "role_id": 941, "is_primary": true}, {"id": 808361, "title": "This England. No. 12 [Elizabeth I, 1593]", "work_id": 91410, "role": "production company", "role_id": 941, "is_primary": true}, {"id": 808607, "title": "This England. No. 9 [Elizabeth I and Mary, Queen of Scots, 1567]", "work_id": 91490, "role": "production company", "role_id": 941, "is_primary": true}, {"id": 2712843, "title": "Ely Cathedral", "work_id": 67120, "role": "production company", "role_id": 941, "is_primary": true}, {"id": 2679364, "title": "The World famous Cathedral of Chatres: miracle of the 11th century", "work_id": 65869, "role": "production company", "role_id": 941, "is_primary": true}, {"id": 872929, "title": "Peterborough Cathedral", "work_id": 87896, "role": "production company", "role_id": 941, "is_primary": true}, {"id": 878959, "title": "This England. No. 10 [Elizabeth I and Mary, Queen of Scots, 1568]", "work_id": 91484, "role": "production company", "role_id": 941, "is_primary": true}, {"id": 878841, "title": "Romantic England. No. 9 [Edward V, 1483]", "work_id": 91411, "role": "production company", "role_id": 941, "is_primary": true}, {"id": 878966, "title": "This England. No. 11 [Elizabeth I, 1580]", "work_id": 91489, "role": "production company", "role_id": 941, "is_primary": true}, {"id": 878767, "title": "This England. No. 2 [Henry VIII, 1531]", "work_id": 91370, "role": "production company", "role_id": 941, "is_primary": true}, {"id": 871051, "title": "Snowdonia", "work_id": 86787, "role": "production company", "role_id": 941, "is_primary": true}, {"id": 857996, "title": "Symphonies in stone. No. 3. Salisbury Cathedral", "work_id": 72455, "role": "production company", "role_id": 941, "is_primary": true}, {"id": 861132, "title": "York Cathedral", "work_id": 74996, "role": "production company", "role_id": 941, "is_primary": true}, {"id": 854501, "title": "Symphonies in stone: Lincoln Cathedral", "work_id": 69742, "role": "production company", "role_id": 941, "is_primary": true}, {"id": 808406, "title": "This England. No. 4 [King Edward VI]", "work_id": 91435, "role": "production company", "role_id": 941, "is_primary": true}, {"id": 808408, "title": "This England. No. 5 [Mary Tudor, 1553]", "work_id": 91436, "role": "production company", "role_id": 941, "is_primary": true}, {"id": 808609, "title": "This England. No. 7 [Elizabeth I, 1558]", "work_id": 91491, "role": "production company", "role_id": 941, "is_primary": true}, {"id": 808404, "title": "This England. No. 6 [Mary Tudor, 1555]", "work_id": 91434, "role": "production company", "role_id": 941, "is_primary": true}], "also_known_as": "", "date_of_birth": "", "date_of_death": "", "genders": [], "languages": [], "places_of_operation": [], "biography": "", "biography_author": null, "date_of_biography": "2023-08-11T18:51:23.828140+10:00", "external_links": [], "uuid": "56a10408-357c-4981-b4cd-26fbd6dcfe48", "source": {"name": "Vernon", "slug": "vernon"}, "source_identifier": "4787", "external_references": [], "date_modified": "2025-03-14T20:32:19.454685+11:00"}, {"id": 13591, "name": "EFVA", "roles_in_work": [{"id": 826557, "title": "Atoms and molecules", "work_id": 96392, "role": "production company", "role_id": 941, "is_primary": true}, {"id": 2679362, "title": "Norwich: a cathedral city", "work_id": 65868, "role": "production company", "role_id": 941, "is_primary": true}, {"id": 2766260, "title": "The Fenlands", "work_id": 75768, "role": "production company", "role_id": 941, "is_primary": true}, {"id": 2766263, "title": "Lancashire", "work_id": 95883, "role": "production company", "role_id": 941, "is_primary": true}, {"id": 2644592, "title": "The Double helix", "work_id": 66895, "role": "production company", "role_id": 941, "is_primary": true}, {"id": 2714462, "title": "Games in the primary school (TEFC)", "work_id": 67938, "role": "production company", "role_id": 941, "is_primary": true}, {"id": 2714602, "title": "The German sheepdog", "work_id": 68019, "role": "production company", "role_id": 941, "is_primary": true}, {"id": 2715052, "title": "Gymnastics in the primary school (TEFC)", "work_id": 68259, "role": "production company", "role_id": 941, "is_primary": true}, {"id": 2768217, "title": "The Skin as a sense organ", "work_id": 72886, "role": "production company", "role_id": 941, "is_primary": true}, {"id": 2769402, "title": "The Clarinet. Pt. 1", "work_id": 66158, "role": "production company", "role_id": 941, "is_primary": true}, {"id": 2769410, "title": "The Clarinet. Pt. 2", "work_id": 66159, "role": "production company", "role_id": 941, "is_primary": true}, {"id": 2769417, "title": "The Flute", "work_id": 67648, "role": "production company", "role_id": 941, "is_primary": true}, {"id": 826559, "title": "Metals", "work_id": 96393, "role": "production company", "role_id": 941, "is_primary": true}, {"id": 826555, "title": "Properties of matter. Ep. 1. Solids, liquids and gases", "work_id": 96391, "role": "production company", "role_id": 941, "is_primary": true}, {"id": 826563, "title": "Properties of matter. Part 5. Surfaces", "work_id": 96395, "role": "production company", "role_id": 941, "is_primary": true}, {"id": 826561, "title": "Properties of matter. Part 4. Plastics and rubbers", "work_id": 96394, "role": "production company", "role_id": 941, "is_primary": true}, {"id": 751173, "title": "Prelude to power", "work_id": 71786, "role": "production company", "role_id": 941, "is_primary": true}, {"id": 886434, "title": "Properties of waves", "work_id": 95994, "role": "production company", "role_id": 941, "is_primary": true}, {"id": 826292, "title": "We grew a frog", "work_id": 96277, "role": "sponsor", "role_id": 625, "is_primary": false}], "also_known_as": "", "date_of_birth": "", "date_of_death": "", "genders": [], "languages": [], "places_of_operation": [], "biography": "", "biography_author": null, "date_of_biography": "2023-05-09T20:03:43.902022+10:00", "external_links": [], "uuid": "1092d410-6f6c-4061-9f47-f119abf79b45", "source": {"name": "Vernon", "slug": "vernon"}, "source_identifier": "7828", "external_references": [{"id": 40407, "source": {"name": "Wikidata", "slug": "wikidata"}, "source_identifier": "Q121271347"}], "date_modified": "2025-03-14T18:14:22.060734+11:00"}, {"id": 13589, "name": "Gerard H. Baldwin", "roles_in_work": [{"id": 2750927, "title": "Energy: a national issue", "work_id": 97578, "role": "director", "role_id": 938, "is_primary": true}, {"id": 2679359, "title": "The Caterpillar and the wild animals", "work_id": 65867, "role": "producer/director", "role_id": 31, "is_primary": true}], "also_known_as": "", "date_of_birth": "", "date_of_death": "", "genders": [], "languages": [], "places_of_operation": [], "biography": "", "biography_author": null, "date_of_biography": "2023-05-09T19:32:15.655870+10:00", "external_links": [], "uuid": "cc584347-88db-43de-b2bb-7b1f982717e0", "source": {"name": "Vernon", "slug": "vernon"}, "source_identifier": "19755", "external_references": [], "date_modified": "2025-03-13T00:32:23.887486+11:00"}, {"id": 13588, "name": "Trick Film Studios", "roles_in_work": [{"id": 2644310, "title": "Caterpillar", "work_id": 65866, "role": "production company", "role_id": 941, "is_primary": true}, {"id": 2342117, "title": "The Daytrippers", "work_id": 91472, "role": "production company", "role_id": 941, "is_primary": true}], "also_known_as": "", "date_of_birth": "", "date_of_death": "", "genders": [], "languages": [], "places_of_operation": [], "biography": "", "biography_author": null, "date_of_biography": "2023-05-09T19:41:07.337000+10:00", "external_links": [], "uuid": "9b740ce8-5144-4567-b850-208b3bc08bb0", "source": {"name": "Vernon", "slug": "vernon"}, "source_identifier": "13705", "external_references": [{"id": 41471, "source": {"name": "Wikidata", "slug": "wikidata"}, "source_identifier": "Q121299417"}], "date_modified": "2025-03-05T12:15:56.501106+11:00"}, {"id": 13587, "name": "Gillian Leahy", "roles_in_work": [{"id": 2751370, "title": "Role call", "work_id": 97778, "role": "director", "role_id": 938, "is_primary": true}, {"id": 767826, "title": "My life without Steve", "work_id": 78688, "role": "director", "role_id": 938, "is_primary": true}, {"id": 3108212, "title": "Caterina: an extended family", "work_id": 65864, "role": "director", "role_id": 938, "is_primary": true}, {"id": 2647657, "title": "Something creative", "work_id": 76938, "role": "producer/director", "role_id": 31, "is_primary": true}], "also_known_as": "", "date_of_birth": "", "date_of_death": "", "genders": [], "languages": [], "places_of_operation": [], "biography": "", "biography_author": null, "date_of_biography": "2023-05-09T19:15:26.182665+10:00", "external_links": [], "uuid": "efedc325-af8f-46ae-8fc0-3f67eae1d181", "source": {"name": "Vernon", "slug": "vernon"}, "source_identifier": "19839", "external_references": [{"id": 43184, "source": {"name": "Wikidata", "slug": "wikidata"}, "source_identifier": "Q121223447"}], "date_modified": "2025-09-25T16:25:10.648384+10:00"}, {"id": 13586, "name": "Apex Films", "roles_in_work": [{"id": 854126, "title": "Know your golf", "work_id": 69433, "role": "production company", "role_id": 941, "is_primary": true}, {"id": 2679352, "title": "Catchment Boards at work: Nelson", "work_id": 65863, "role": "production company", "role_id": 941, "is_primary": true}], "also_known_as": "", "date_of_birth": null, "date_of_death": null, "genders": [], "languages": [], "places_of_operation": [], "biography": "", "biography_author": null, "date_of_biography": null, "external_links": [], "uuid": "7abea006-9ed4-4f2f-8f46-e3cd2cbdffdd", "source": {"name": "Vernon", "slug": "vernon"}, "source_identifier": "5306", "external_references": [], "date_modified": "2025-03-07T00:11:37.940978+11:00"}, {"id": 13585, "name": "Ian Curtis", "roles_in_work": [{"id": 2679350, "title": "Catamarans", "work_id": 65862, "role": "director", "role_id": 938, "is_primary": true}, {"id": 1913079, "title": "Television production planning", "work_id": 96117, "role": "producer/director", "role_id": 31, "is_primary": true}, {"id": 1913089, "title": "Pictures and words", "work_id": 71558, "role": "producer/director", "role_id": 31, "is_primary": true}, {"id": 1913086, "title": "Television production planning (TEFC)", "work_id": 73593, "role": "producer/director", "role_id": 31, "is_primary": true}, {"id": 2646802, "title": "Videotape editing", "work_id": 74342, "role": "producer/director", "role_id": 31, "is_primary": true}], "also_known_as": "", "date_of_birth": null, "date_of_death": null, "genders": [], "languages": [], "places_of_operation": [], "biography": "", "biography_author": null, "date_of_biography": null, "external_links": [], "uuid": "9abf5d5b-7803-492b-81f7-34d9328b2b4c", "source": {"name": "Vernon", "slug": "vernon"}, "source_identifier": "20749", "external_references": [], "date_modified": "2025-03-07T00:11:36.522812+11:00"}]}