{"count": 28687, "next": "https://api.acmi.net.au/creators/?page=125", "previous": "https://api.acmi.net.au/creators/?page=123", "results": [{"id": 84367, "name": "Abdulaziz Ketaz", "roles_in_work": [{"id": 2686446, "title": "The Syrian Civil Defence", "work_id": 107554, "role": "creator", "role_id": 968, "is_primary": true}], "also_known_as": "", "date_of_birth": "", "date_of_death": "", "genders": [], "languages": [], "places_of_operation": [], "biography": "", "biography_author": null, "date_of_biography": "2023-05-09T19:13:17.018688+10:00", "external_links": [], "uuid": "eda3c064-ca60-4f6d-a563-f5d7e55ea33b", "source": {"name": "Vernon", "slug": "vernon"}, "source_identifier": "39672", "external_references": [], "date_modified": "2025-03-11T12:20:38.964130+11:00"}, {"id": 84366, "name": "Tolga Akmen", "roles_in_work": [{"id": 2686441, "title": "Eliot Higgins, the founder of investigative journalism group Bellingcat, London", "work_id": 107553, "role": "creator", "role_id": 968, "is_primary": true}], "also_known_as": "", "date_of_birth": "", "date_of_death": "", "genders": [], "languages": [], "places_of_operation": [], "biography": "", "biography_author": null, "date_of_biography": "2023-05-09T19:13:11.589331+10:00", "external_links": [], "uuid": "74fef7ea-0460-4845-80e9-ccb5f1ddd2cb", "source": {"name": "Vernon", "slug": "vernon"}, "source_identifier": "39671", "external_references": [], "date_modified": "2025-03-11T12:20:32.404614+11:00"}, {"id": 84365, "name": "Daniel Leal-Olivas", "roles_in_work": [{"id": 2686440, "title": "Black Lives Matter demonstration in London", "work_id": 107552, "role": "creator", "role_id": 968, "is_primary": true}], "also_known_as": "", "date_of_birth": "", "date_of_death": "", "genders": [], "languages": [], "places_of_operation": [], "biography": "", "biography_author": null, "date_of_biography": "2023-05-09T19:13:13.155744+10:00", "external_links": [], "uuid": "5e3938a4-1cc0-4559-93c2-4b8c53347efb", "source": {"name": "Vernon", "slug": "vernon"}, "source_identifier": "39670", "external_references": [], "date_modified": "2025-03-11T12:20:31.075642+11:00"}, {"id": 84364, "name": "Peter Zay", "roles_in_work": [{"id": 2686448, "title": "Protests following the shooting of Keith Lamont Scott in Charlotte", "work_id": 107551, "role": "creator", "role_id": 968, "is_primary": true}], "also_known_as": "", "date_of_birth": "", "date_of_death": "", "genders": [], "languages": [], "places_of_operation": [], "biography": "", "biography_author": null, "date_of_biography": "2023-05-09T19:13:16.910173+10:00", "external_links": [], "uuid": "17a10d98-8186-4b0a-a0a4-c4a2ce572f4c", "source": {"name": "Vernon", "slug": "vernon"}, "source_identifier": "39669", "external_references": [], "date_modified": "2025-03-11T12:20:41.277943+11:00"}, {"id": 84363, "name": "Stan Honda", "roles_in_work": [{"id": 2686445, "title": "Laura Poitras in New York City", "work_id": 107549, "role": "creator", "role_id": 968, "is_primary": true}], "also_known_as": "", "date_of_birth": "", "date_of_death": "", "genders": [], "languages": [], "places_of_operation": [], "biography": "", "biography_author": null, "date_of_biography": "2023-05-09T19:13:13.005566+10:00", "external_links": [], "uuid": "619af218-9823-46de-be35-c1fb9b02801a", "source": {"name": "Vernon", "slug": "vernon"}, "source_identifier": "39668", "external_references": [], "date_modified": "2025-03-11T12:20:37.786978+11:00"}, {"id": 84362, "name": "Carolyn Cole", "roles_in_work": [{"id": 2686442, "title": "Tahrir Square during the Arab Spring uprising", "work_id": 107547, "role": "creator", "role_id": 968, "is_primary": true}], "also_known_as": "", "date_of_birth": "", "date_of_death": "", "genders": [], "languages": [], "places_of_operation": [], "biography": "", "biography_author": null, "date_of_biography": "2023-05-09T19:13:11.680049+10:00", "external_links": [], "uuid": "79f35a4e-1c04-4d3d-af82-f3cb1a3d625e", "source": {"name": "Vernon", "slug": "vernon"}, "source_identifier": "39667", "external_references": [], "date_modified": "2025-03-11T12:20:33.376259+11:00"}, {"id": 84361, "name": "Corentin Fohlen", "roles_in_work": [{"id": 2686443, "title": "Tahrir Square during the Arab Spring uprising", "work_id": 107546, "role": "creator", "role_id": 968, "is_primary": true}], "also_known_as": "", "date_of_birth": "", "date_of_death": "", "genders": [], "languages": [], "places_of_operation": [], "biography": "", "biography_author": null, "date_of_biography": "2023-05-09T19:13:14.449271+10:00", "external_links": [], "uuid": "206a4225-10dc-42da-b5b0-df333afcf463", "source": {"name": "Vernon", "slug": "vernon"}, "source_identifier": "39666", "external_references": [], "date_modified": "2025-03-11T12:20:35.268038+11:00"}, {"id": 84360, "name": "Spencer Platt", "roles_in_work": [{"id": 2686447, "title": "Occupy Wall Street protestors in New York City", "work_id": 107545, "role": "creator", "role_id": 968, "is_primary": true}], "also_known_as": "", "date_of_birth": "1970", "date_of_death": "", "genders": [], "languages": [], "places_of_operation": [], "biography": "", "biography_author": null, "date_of_biography": "2023-05-09T19:13:20.763588+10:00", "external_links": [], "uuid": "1e84c6ba-26d8-4794-96bc-11e68272048e", "source": {"name": "Vernon", "slug": "vernon"}, "source_identifier": "39665", "external_references": [], "date_modified": "2025-03-11T12:20:40.113453+11:00"}, {"id": 84359, "name": "Suzanne Plunkett", "roles_in_work": [{"id": 2686450, "title": "Phi Phi Island after the Indian Ocean tsunami", "work_id": 107544, "role": "creator", "role_id": 968, "is_primary": true}], "also_known_as": "", "date_of_birth": "", "date_of_death": "", "genders": [], "languages": [], "places_of_operation": [], "biography": "", "biography_author": null, "date_of_biography": "2023-05-09T19:13:18.759369+10:00", "external_links": [], "uuid": "ee73d983-80c2-4e85-a656-3a4ed80aba98", "source": {"name": "Vernon", "slug": "vernon"}, "source_identifier": "39664", "external_references": [], "date_modified": "2025-03-11T12:20:43.906815+11:00"}, {"id": 84358, "name": "Lindsay Brice", "roles_in_work": [{"id": 2686449, "title": "Los Angeles riots", "work_id": 107543, "role": "creator", "role_id": 968, "is_primary": true}], "also_known_as": "", "date_of_birth": "", "date_of_death": "", "genders": [], "languages": [], "places_of_operation": [], "biography": "", "biography_author": null, "date_of_biography": "2023-05-09T19:13:15.473236+10:00", "external_links": [], "uuid": "f5945e89-cfba-4284-a95e-ea97abe89eed", "source": {"name": "Vernon", "slug": "vernon"}, "source_identifier": "39663", "external_references": [], "date_modified": "2025-03-11T12:20:42.421490+11:00"}]}