{"count": 28687, "next": "https://api.acmi.net.au/creators/?page=602", "previous": "https://api.acmi.net.au/creators/?page=600", "results": [{"id": 79573, "name": "Robert J. Degus", "roles_in_work": [{"id": 2208654, "title": "Pleasantville", "work_id": 91460, "role": "co-producer", "role_id": 915, "is_primary": true}], "also_known_as": "", "date_of_birth": "", "date_of_death": "", "genders": [], "languages": [], "places_of_operation": [], "biography": "", "biography_author": null, "date_of_biography": "2023-05-09T15:40:32.995814+10:00", "external_links": [], "uuid": "910a88cf-4df7-4594-9d55-210f612565d8", "source": {"name": "Vernon", "slug": "vernon"}, "source_identifier": "27770", "external_references": [{"id": 36547, "source": {"name": "Wikidata", "slug": "wikidata"}, "source_identifier": "Q121315348"}], "date_modified": "2023-09-06T00:42:40.911539+10:00"}, {"id": 79572, "name": "Gerry Troyna", "roles_in_work": [{"id": 910803, "title": "Great railway journeys. Series 4. Vol. 1", "work_id": 91459, "role": "co-producers/directors", "role_id": 628, "is_primary": true}], "also_known_as": "", "date_of_birth": null, "date_of_death": null, "genders": [], "languages": [], "places_of_operation": [], "biography": "", "biography_author": null, "date_of_biography": null, "external_links": [], "uuid": "d8a1d66a-c973-4bc5-89aa-df9f8f19ff99", "source": {"name": "Vernon", "slug": "vernon"}, "source_identifier": null, "external_references": [], "date_modified": "2023-06-14T16:33:30.576250+10:00"}, {"id": 79571, "name": "Nicola Bolton", "roles_in_work": [{"id": 910800, "title": "Great railway journeys. Series 4. Vol. 2", "work_id": 91458, "role": "co-producers/directors", "role_id": 628, "is_primary": true}], "also_known_as": "", "date_of_birth": null, "date_of_death": null, "genders": [], "languages": [], "places_of_operation": [], "biography": "", "biography_author": null, "date_of_biography": null, "external_links": [], "uuid": "d80ed16b-cdf8-4cd7-a6b2-94cbb609411e", "source": {"name": "Vernon", "slug": "vernon"}, "source_identifier": null, "external_references": [], "date_modified": "2023-06-14T16:33:30.576250+10:00"}, {"id": 79570, "name": "Mike Wadding", "roles_in_work": [{"id": 910799, "title": "Great railway journeys. Series 4. Vol. 2", "work_id": 91458, "role": "co-producers/directors", "role_id": 628, "is_primary": true}], "also_known_as": "", "date_of_birth": null, "date_of_death": null, "genders": [], "languages": [], "places_of_operation": [], "biography": "", "biography_author": null, "date_of_biography": null, "external_links": [], "uuid": "2df3cdec-3e93-49f6-914e-6b2ef57e51b5", "source": {"name": "Vernon", "slug": "vernon"}, "source_identifier": null, "external_references": [], "date_modified": "2023-06-14T16:33:30.576250+10:00"}, {"id": 79569, "name": "Nicholas Renton", "roles_in_work": [{"id": 2294085, "title": "Wives and daughters", "work_id": 91456, "role": "director", "role_id": 938, "is_primary": true}], "also_known_as": "", "date_of_birth": "", "date_of_death": "", "genders": [], "languages": [], "places_of_operation": [], "biography": "", "biography_author": null, "date_of_biography": "2023-05-09T18:24:22.168096+10:00", "external_links": [], "uuid": "19531981-58f5-4000-9b19-340dfd5bca2b", "source": {"name": "Vernon", "slug": "vernon"}, "source_identifier": "25725", "external_references": [{"id": 40484, "source": {"name": "Wikidata", "slug": "wikidata"}, "source_identifier": "Q121034319"}], "date_modified": "2023-09-05T23:29:25.870490+10:00"}, {"id": 79568, "name": "Dan Halsted", "roles_in_work": [{"id": 911951, "title": "The Virgin suicides [DVD]", "work_id": 92496, "role": "co-producer", "role_id": 915, "is_primary": true}, {"id": 2290482, "title": "U-turn", "work_id": 91449, "role": "co-producer", "role_id": 915, "is_primary": true}], "also_known_as": "", "date_of_birth": "1962-07-12", "date_of_death": "", "genders": [{"id": 9, "name": "Male", "slug": "male"}], "languages": [], "places_of_operation": [{"id": 1, "name": "United States of America", "slug": "united-states-of-america"}], "biography": "Dan Halsted (born 1962) is an American film producer and talent manager, best known for producing such films as Garden State, Any Given Sunday and The Virgin Suicides.", "biography_author": "Wikidata", "date_of_biography": "2023-08-01T14:32:09.309034+10:00", "external_links": [{"id": 3814, "uri": "https://en.wikipedia.org/wiki/Dan_Halsted"}], "uuid": "acf6ebc2-0472-4114-b96e-469e0bc6de94", "source": {"name": "Vernon", "slug": "vernon"}, "source_identifier": "17361", "external_references": [{"id": 25803, "source": {"name": "Wikidata", "slug": "wikidata"}, "source_identifier": "Q5213633"}, {"id": 27973, "source": {"name": "VIAF", "slug": "viaf"}, "source_identifier": "48848245"}, {"id": 27974, "source": {"name": "LOC Auth", "slug": "loc-auth"}, "source_identifier": "no98088976"}, {"id": 27975, "source": {"name": "WorldCat", "slug": "worldcat"}, "source_identifier": "lccn-no98088976"}], "date_modified": "2023-09-05T18:50:16.562007+10:00"}, {"id": 79567, "name": "Clayton Townsend", "roles_in_work": [{"id": 2290478, "title": "U-turn", "work_id": 91449, "role": "co-producer", "role_id": 915, "is_primary": true}, {"id": 912132, "title": "Natural born killers [Director's cut] [DVD]", "work_id": 92611, "role": "co-producer", "role_id": 915, "is_primary": true}], "also_known_as": "", "date_of_birth": "", "date_of_death": "", "genders": [], "languages": [], "places_of_operation": [], "biography": "", "biography_author": null, "date_of_biography": "2023-05-09T18:18:25.443548+10:00", "external_links": [], "uuid": "feb61320-b5c8-45b9-a46e-32e1a183c716", "source": {"name": "Vernon", "slug": "vernon"}, "source_identifier": "17107", "external_references": [{"id": 38870, "source": {"name": "Wikidata", "slug": "wikidata"}, "source_identifier": "Q121222620"}], "date_modified": "2023-09-05T18:42:06.292293+10:00"}, {"id": 79566, "name": "Louis A. Stroller", "roles_in_work": [{"id": 2113034, "title": "Betsy's wedding", "work_id": 95374, "role": "co-producer", "role_id": 915, "is_primary": true}, {"id": 2333540, "title": "The Bone collector [DVD]", "work_id": 91447, "role": "producer", "role_id": 1089, "is_primary": true}], "also_known_as": "", "date_of_birth": "", "date_of_death": "", "genders": [], "languages": [], "places_of_operation": [], "biography": "", "biography_author": null, "date_of_biography": "2023-05-09T19:28:55.951761+10:00", "external_links": [], "uuid": "06c26d00-7fc3-42ce-a77c-c3a1ab1386ad", "source": {"name": "Vernon", "slug": "vernon"}, "source_identifier": "24010", "external_references": [{"id": 42359, "source": {"name": "Wikidata", "slug": "wikidata"}, "source_identifier": "Q121057773"}], "date_modified": "2023-09-05T22:30:47.350730+10:00"}, {"id": 79565, "name": "Rick Bieber", "roles_in_work": [{"id": 2243757, "title": "Flatliners", "work_id": 91445, "role": "co-producer", "role_id": 915, "is_primary": true}], "also_known_as": "", "date_of_birth": "", "date_of_death": "", "genders": [], "languages": [], "places_of_operation": [], "biography": "", "biography_author": null, "date_of_biography": "2023-05-09T16:58:53.571706+10:00", "external_links": [], "uuid": "ac4d7dd5-ab41-4eff-adb9-c23149feadef", "source": {"name": "Vernon", "slug": "vernon"}, "source_identifier": "27541", "external_references": [{"id": 51930, "source": {"name": "Wikidata", "slug": "wikidata"}, "source_identifier": "Q113585877"}], "date_modified": "2023-09-06T00:34:27.402614+10:00"}, {"id": 79564, "name": "Stonebridge Entertainment", "roles_in_work": [{"id": 2243754, "title": "Flatliners", "work_id": 91445, "role": "production company", "role_id": 941, "is_primary": true}], "also_known_as": "", "date_of_birth": "", "date_of_death": "", "genders": [], "languages": [], "places_of_operation": [], "biography": "", "biography_author": null, "date_of_biography": "2023-05-09T16:58:53.106306+10:00", "external_links": [], "uuid": "fe0be4cf-4872-422f-89d9-593ec38a9f13", "source": {"name": "Vernon", "slug": "vernon"}, "source_identifier": "12968", "external_references": [{"id": 42978, "source": {"name": "Wikidata", "slug": "wikidata"}, "source_identifier": "Q121035883"}], "date_modified": "2023-09-06T01:33:05.122602+10:00"}]}