{"count": 28684, "next": "https://api.acmi.net.au/creators/?page=2386", "previous": "https://api.acmi.net.au/creators/?page=2384", "results": [{"id": 15358, "name": "Modern Management Films", "roles_in_work": [{"id": 2644988, "title": "A Good beginning", "work_id": 68132, "role": "production company", "role_id": 941, "is_primary": true}, {"id": 746769, "title": "Listen please", "work_id": 69762, "role": "production company", "role_id": 941, "is_primary": true}], "also_known_as": "", "date_of_birth": "", "date_of_death": "", "genders": [], "languages": [], "places_of_operation": [], "biography": "", "biography_author": null, "date_of_biography": "2023-08-11T13:02:43.042506+10:00", "external_links": [], "uuid": "ce2f475f-fd62-4cf6-8339-043564040a3d", "source": {"name": "Vernon", "slug": "vernon"}, "source_identifier": "10599", "external_references": [], "date_modified": "2025-03-05T12:30:46.868127+11:00"}, {"id": 15357, "name": "Norman Prouting", "roles_in_work": [{"id": 2714820, "title": "Golfers in a Scottish Landscape", "work_id": 68129, "role": "director", "role_id": 938, "is_primary": true}, {"id": 758559, "title": "Youth club", "work_id": 75059, "role": "director", "role_id": 938, "is_primary": true}, {"id": 857457, "title": "Railways for ever", "work_id": 72041, "role": "producer/director", "role_id": 31, "is_primary": true}], "also_known_as": "", "date_of_birth": null, "date_of_death": null, "genders": [], "languages": [], "places_of_operation": [], "biography": "", "biography_author": null, "date_of_biography": null, "external_links": [], "uuid": "2f039525-ebd9-4def-87d0-d5fa10a12f97", "source": {"name": "Vernon", "slug": "vernon"}, "source_identifier": "25906", "external_references": [], "date_modified": "2025-03-12T01:21:10.814876+11:00"}, {"id": 15356, "name": "Calvin-De Frenes Corporaiton", "roles_in_work": [{"id": 2714806, "title": "The Golden West USA", "work_id": 68123, "role": "production company", "role_id": 941, "is_primary": true}], "also_known_as": "", "date_of_birth": "", "date_of_death": "", "genders": [], "languages": [], "places_of_operation": [], "biography": "", "biography_author": null, "date_of_biography": "2023-08-14T11:13:54.906320+10:00", "external_links": [], "uuid": "f91f263a-992c-4e5e-ad6a-e2d07283817d", "source": {"name": "Vernon", "slug": "vernon"}, "source_identifier": "6209", "external_references": [], "date_modified": "2025-03-12T01:20:59.450945+11:00"}, {"id": 15355, "name": "John Da Silva", "roles_in_work": [{"id": 2714805, "title": "Golden Transvaal", "work_id": 68122, "role": "producer", "role_id": 1089, "is_primary": true}, {"id": 856713, "title": "The Peace game", "work_id": 71418, "role": "producer/director", "role_id": 31, "is_primary": true}], "also_known_as": "", "date_of_birth": "", "date_of_death": "", "genders": [], "languages": [], "places_of_operation": [], "biography": "", "biography_author": null, "date_of_biography": "2023-08-11T17:05:31.247878+10:00", "external_links": [], "uuid": "5905a054-13c7-4b13-b2aa-d80fd21bb42c", "source": {"name": "Vernon", "slug": "vernon"}, "source_identifier": "22200", "external_references": [], "date_modified": "2025-03-12T01:20:58.609365+11:00"}, {"id": 15354, "name": "South African Tourist Corporation", "roles_in_work": [{"id": 856712, "title": "The Peace game", "work_id": 71418, "role": "production company", "role_id": 941, "is_primary": true}, {"id": 2714804, "title": "Golden Transvaal", "work_id": 68122, "role": "production company", "role_id": 941, "is_primary": true}], "also_known_as": "", "date_of_birth": "", "date_of_death": "", "genders": [], "languages": [], "places_of_operation": [], "biography": "", "biography_author": null, "date_of_biography": "2023-08-11T17:05:30.598622+10:00", "external_links": [], "uuid": "98323b19-b541-4f54-85ef-ce9d2efe84ef", "source": {"name": "Vernon", "slug": "vernon"}, "source_identifier": "12773", "external_references": [], "date_modified": "2025-03-12T01:20:58.009090+11:00"}, {"id": 15353, "name": "P.V. Pathy", "roles_in_work": [{"id": 2714803, "title": "Golden river", "work_id": 68121, "role": "director", "role_id": 938, "is_primary": true}], "also_known_as": "", "date_of_birth": null, "date_of_death": null, "genders": [], "languages": [], "places_of_operation": [], "biography": "", "biography_author": null, "date_of_biography": null, "external_links": [], "uuid": "8a0e8e34-b16a-4b4c-ab50-638c7a97eff3", "source": {"name": "Vernon", "slug": "vernon"}, "source_identifier": "26023", "external_references": [], "date_modified": "2025-03-12T01:20:57.196220+11:00"}, {"id": 15352, "name": "Osterreichischer Rundfunk-Fernsehen", "roles_in_work": [{"id": 2714800, "title": "The Golden ring", "work_id": 68120, "role": "production company", "role_id": 941, "is_primary": true}, {"id": 1985453, "title": "La Gioconda", "work_id": 81279, "role": "production company", "role_id": 941, "is_primary": true}, {"id": 1995758, "title": "Colonel Redl = Oberst Redl [DVD]", "work_id": 92268, "role": "production company", "role_id": 941, "is_primary": true}, {"id": 783222, "title": "Le Nozze di Figaro: opera comica in quattro atti", "work_id": 83737, "role": "production company", "role_id": 941, "is_primary": true}, {"id": 2138019, "title": "Cinderella = La Cenerentola", "work_id": 81204, "role": "production company", "role_id": 941, "is_primary": true}, {"id": 781543, "title": "Das Rheingold", "work_id": 83169, "role": "production company", "role_id": 941, "is_primary": true}, {"id": 2269901, "title": "Turandot", "work_id": 94462, "role": "production company", "role_id": 941, "is_primary": true}, {"id": 2278296, "title": "To the count of Basie", "work_id": 98246, "role": "production company", "role_id": 941, "is_primary": true}, {"id": 2186105, "title": "Der Freischutz", "work_id": 94477, "role": "production company", "role_id": 941, "is_primary": true}], "also_known_as": "", "date_of_birth": "", "date_of_death": "", "genders": [], "languages": [], "places_of_operation": [], "biography": "", "biography_author": null, "date_of_biography": "2023-05-09T17:55:44.607619+10:00", "external_links": [], "uuid": "f8355c4a-1b7c-4d15-87aa-99b7995eb5b9", "source": {"name": "Vernon", "slug": "vernon"}, "source_identifier": "4740", "external_references": [{"id": 40744, "source": {"name": "Wikidata", "slug": "wikidata"}, "source_identifier": "Q262386"}], "date_modified": "2025-03-12T01:20:55.145195+11:00"}, {"id": 15351, "name": "Zain Hussain", "roles_in_work": [{"id": 2714798, "title": "Golden queen", "work_id": 68119, "role": "director", "role_id": 938, "is_primary": true}, {"id": 2379625, "title": "Timeless Temiar", "work_id": 73850, "role": "director", "role_id": 938, "is_primary": true}, {"id": 2646225, "title": "Sarongs and silver", "work_id": 72482, "role": "director", "role_id": 938, "is_primary": true}, {"id": 2646326, "title": "Singapore: the emporium", "work_id": 72846, "role": "director", "role_id": 938, "is_primary": true}, {"id": 871927, "title": "Wayang Kulit", "work_id": 87320, "role": "director", "role_id": 938, "is_primary": true}], "also_known_as": "", "date_of_birth": "", "date_of_death": "", "genders": [], "languages": [], "places_of_operation": [], "biography": "", "biography_author": null, "date_of_biography": "2023-07-19T03:35:32.903542+10:00", "external_links": [], "uuid": "cdeacfd4-cd47-4370-b3b6-e01a5c9bafe7", "source": {"name": "Vernon", "slug": "vernon"}, "source_identifier": "4738", "external_references": [], "date_modified": "2025-03-12T01:20:53.696261+11:00"}, {"id": 15349, "name": "Art et Cinema", "roles_in_work": [{"id": 2714789, "title": "The Golden age of Flemish art", "work_id": 68115, "role": "production company", "role_id": 941, "is_primary": true}, {"id": 860388, "title": "Visit to Picasso = Visite a Picasso", "work_id": 74403, "role": "production company", "role_id": 941, "is_primary": true}], "also_known_as": "", "date_of_birth": null, "date_of_death": null, "genders": [], "languages": [], "places_of_operation": [], "biography": "", "biography_author": null, "date_of_biography": null, "external_links": [], "uuid": "61083933-291f-40c4-8a54-2a3d6ba6dec5", "source": {"name": "Vernon", "slug": "vernon"}, "source_identifier": "5393", "external_references": [], "date_modified": "2025-03-12T01:20:47.555705+11:00"}, {"id": 15348, "name": "British Belting and Asbestos", "roles_in_work": [{"id": 2714778, "title": "The Gold line", "work_id": 68111, "role": "production company", "role_id": 941, "is_primary": true}], "also_known_as": "", "date_of_birth": null, "date_of_death": null, "genders": [], "languages": [], "places_of_operation": [], "biography": "", "biography_author": null, "date_of_biography": null, "external_links": [], "uuid": "f5ca7573-16fd-432e-b3fa-7d80dadb32d8", "source": {"name": "Vernon", "slug": "vernon"}, "source_identifier": "6007", "external_references": [], "date_modified": "2025-03-12T01:20:38.762170+11:00"}]}