{"count": 28687, "next": "https://api.acmi.net.au/creators/?page=1561", "previous": "https://api.acmi.net.au/creators/?page=1559", "results": [{"id": 32046, "name": "Nanhai Film Company", "roles_in_work": [{"id": 2651077, "title": "The Visitor from California = Jia Zhou Lai Ke", "work_id": 115798, "role": "production company", "role_id": 941, "is_primary": true}, {"id": 1994350, "title": "A Great wall", "work_id": 90267, "role": "production company", "role_id": 941, "is_primary": true}], "also_known_as": "", "date_of_birth": "", "date_of_death": "", "genders": [], "languages": [], "places_of_operation": [], "biography": "", "biography_author": null, "date_of_biography": "2023-08-14T11:39:39.717180+10:00", "external_links": [], "uuid": "00a8759f-c4a5-4bda-8556-361d1a70ba92", "source": {"name": "Vernon", "slug": "vernon"}, "source_identifier": "10756", "external_references": [], "date_modified": "2025-03-05T14:26:14.204697+11:00"}, {"id": 32043, "name": "CIM Productions", "roles_in_work": [{"id": 2191203, "title": "Dim Sum = A Little bit of heart", "work_id": 90266, "role": "production company", "role_id": 941, "is_primary": true}], "also_known_as": "", "date_of_birth": "", "date_of_death": "", "genders": [], "languages": [], "places_of_operation": [], "biography": "", "biography_author": null, "date_of_biography": "2023-05-09T15:09:19.452581+10:00", "external_links": [], "uuid": "542eb189-b186-43f4-a5fb-d6c2f1586e06", "source": {"name": "Vernon", "slug": "vernon"}, "source_identifier": "6639", "external_references": [{"id": 32393, "source": {"name": "Wikidata", "slug": "wikidata"}, "source_identifier": "Q121079437"}], "date_modified": "2023-09-05T18:37:24.513007+10:00"}, {"id": 32039, "name": "Bandai, Shockiku-Fuji, Institute of the Contemporary Arts", "roles_in_work": [{"id": 2122146, "title": "Boiling point = 3-4x jagutsu", "work_id": 90263, "role": "production company", "role_id": 941, "is_primary": true}], "also_known_as": "", "date_of_birth": "", "date_of_death": "", "genders": [], "languages": [], "places_of_operation": [], "biography": "", "biography_author": null, "date_of_biography": "2023-05-09T13:05:19.236314+10:00", "external_links": [], "uuid": "0313f8fb-2908-49a9-b3da-d59e17c102f0", "source": {"name": "Vernon", "slug": "vernon"}, "source_identifier": "5703", "external_references": [{"id": 41597, "source": {"name": "Wikidata", "slug": "wikidata"}, "source_identifier": "Q121034400"}], "date_modified": "2023-09-05T17:52:42.999485+10:00"}, {"id": 32037, "name": "Jay J Sheridan and Company", "roles_in_work": [{"id": 2467511, "title": "The Man from East Liverpool: Ben Feldman", "work_id": 90261, "role": "production company", "role_id": 941, "is_primary": true}], "also_known_as": "", "date_of_birth": "", "date_of_death": "", "genders": [], "languages": [], "places_of_operation": [], "biography": "", "biography_author": null, "date_of_biography": "2023-08-14T11:21:42.379688+10:00", "external_links": [], "uuid": "9f30f6f5-c693-4a68-adad-2246adc8b1e0", "source": {"name": "Vernon", "slug": "vernon"}, "source_identifier": "9569", "external_references": [], "date_modified": "2023-08-14T11:21:42.379908+10:00"}, {"id": 32032, "name": "Lew Fonseca", "roles_in_work": [{"id": 2406448, "title": "Double play: kings of baseball", "work_id": 90241, "role": "director", "role_id": 938, "is_primary": true}], "also_known_as": "", "date_of_birth": "", "date_of_death": "", "genders": [], "languages": [], "places_of_operation": [], "biography": "", "biography_author": null, "date_of_biography": "2023-08-11T16:13:50.207214+10:00", "external_links": [], "uuid": "7eeb7990-7b67-4093-a345-365dbbb24829", "source": {"name": "Vernon", "slug": "vernon"}, "source_identifier": "23800", "external_references": [], "date_modified": "2023-08-11T16:13:50.207481+10:00"}, {"id": 32031, "name": "A Apalding", "roles_in_work": [{"id": 2406447, "title": "Double play: kings of baseball", "work_id": 90241, "role": "producer", "role_id": 1089, "is_primary": true}], "also_known_as": "", "date_of_birth": "", "date_of_death": "", "genders": [], "languages": [], "places_of_operation": [], "biography": "", "biography_author": null, "date_of_biography": "2023-08-11T16:13:49.539925+10:00", "external_links": [], "uuid": "537d0a6e-0a11-499a-b198-b5b6cc5b7f25", "source": {"name": "Vernon", "slug": "vernon"}, "source_identifier": "14579", "external_references": [], "date_modified": "2023-08-11T16:13:49.540210+10:00"}, {"id": 32030, "name": "American and National Leagues of Professional Baseball Clubs", "roles_in_work": [{"id": 2412242, "title": "Infield play at 1st and 3rd", "work_id": 90894, "role": "production company", "role_id": 941, "is_primary": true}, {"id": 2406446, "title": "Double play: kings of baseball", "work_id": 90241, "role": "production company", "role_id": 941, "is_primary": true}], "also_known_as": "", "date_of_birth": "", "date_of_death": "", "genders": [], "languages": [], "places_of_operation": [], "biography": "", "biography_author": null, "date_of_biography": "2023-08-11T18:35:03.347776+10:00", "external_links": [], "uuid": "326c236f-7910-48ff-a101-e00955311a1e", "source": {"name": "Vernon", "slug": "vernon"}, "source_identifier": "5184", "external_references": [], "date_modified": "2023-08-11T18:35:03.348021+10:00"}, {"id": 32029, "name": "Chicago Film Studios", "roles_in_work": [{"id": 2406445, "title": "Double play: kings of baseball", "work_id": 90241, "role": "production company", "role_id": 941, "is_primary": true}, {"id": 2403664, "title": "Catching stars of baseball", "work_id": 91817, "role": "production company", "role_id": 941, "is_primary": true}], "also_known_as": "", "date_of_birth": "", "date_of_death": "", "genders": [], "languages": [], "places_of_operation": [], "biography": "", "biography_author": null, "date_of_biography": "2023-08-11T16:13:48.294581+10:00", "external_links": [], "uuid": "560658e3-e4a0-4b57-8c66-c98c79953101", "source": {"name": "Vernon", "slug": "vernon"}, "source_identifier": "6561", "external_references": [], "date_modified": "2023-08-11T16:13:48.294793+10:00"}, {"id": 32023, "name": "Gaumont-British News", "roles_in_work": [{"id": 2398420, "title": "A Tribute to Sir Winston Churchill, K.G.", "work_id": 90233, "role": "production company", "role_id": 941, "is_primary": true}], "also_known_as": "", "date_of_birth": "", "date_of_death": "", "genders": [], "languages": [], "places_of_operation": [], "biography": "", "biography_author": null, "date_of_biography": "2023-08-11T13:23:35.478912+10:00", "external_links": [], "uuid": "3c2afe6d-6f7a-42bd-b8c4-1415f0698c11", "source": {"name": "Vernon", "slug": "vernon"}, "source_identifier": "31713", "external_references": [], "date_modified": "2023-08-11T13:23:35.479184+10:00"}, {"id": 32020, "name": "Ogam Films", "roles_in_work": [{"id": 2398081, "title": "A Pride of islands", "work_id": 91307, "role": "production company", "role_id": 941, "is_primary": true}, {"id": 876711, "title": "Glasgow 1980", "work_id": 90226, "role": "production company", "role_id": 941, "is_primary": true}], "also_known_as": "", "date_of_birth": "", "date_of_death": "", "genders": [], "languages": [], "places_of_operation": [], "biography": "", "biography_author": null, "date_of_biography": "2023-08-11T13:12:00.058869+10:00", "external_links": [], "uuid": "22cd34b1-3ba0-4285-a4aa-ef3ee42747b5", "source": {"name": "Vernon", "slug": "vernon"}, "source_identifier": "11101", "external_references": [], "date_modified": "2023-08-11T13:12:00.059137+10:00"}]}