{"count": 28687, "next": "https://api.acmi.net.au/creators/?page=1945", "previous": "https://api.acmi.net.au/creators/?page=1943", "results": [{"id": 23653, "name": "Castlezone", "roles_in_work": [{"id": 2097731, "title": "Another Country", "work_id": 81403, "role": "production company", "role_id": 941, "is_primary": true}], "also_known_as": "", "date_of_birth": "", "date_of_death": "", "genders": [], "languages": [], "places_of_operation": [], "biography": "", "biography_author": null, "date_of_biography": "2023-05-09T12:26:20.292079+10:00", "external_links": [], "uuid": "cb66cf4c-a7b4-4d5a-bdb1-d7f993bf99e5", "source": {"name": "Vernon", "slug": "vernon"}, "source_identifier": "6348", "external_references": [{"id": 36326, "source": {"name": "Wikidata", "slug": "wikidata"}, "source_identifier": "Q121034649"}], "date_modified": "2023-09-05T18:22:07.379365+10:00"}, {"id": 23651, "name": "Long Road Productions", "roles_in_work": [{"id": 2136473, "title": "Chinatown [DVD]", "work_id": 93445, "role": "production company", "role_id": 941, "is_primary": true}, {"id": 2342504, "title": "The Day of the locust", "work_id": 94834, "role": "production company", "role_id": 941, "is_primary": true}], "also_known_as": "", "date_of_birth": "", "date_of_death": "", "genders": [], "languages": [], "places_of_operation": [], "biography": "", "biography_author": null, "date_of_biography": "2023-05-09T19:41:54.783968+10:00", "external_links": [], "uuid": "95b229ec-fc26-4e11-b244-09040ecc8f99", "source": {"name": "Vernon", "slug": "vernon"}, "source_identifier": "10146", "external_references": [{"id": 37546, "source": {"name": "Wikidata", "slug": "wikidata"}, "source_identifier": "Q121159875"}], "date_modified": "2023-09-05T22:29:31.806271+10:00"}, {"id": 23650, "name": "Turner Broadcasting System", "roles_in_work": [{"id": 2292378, "title": "The Trials of life: a natural history of behaviour. - Part 2.", "work_id": 81752, "role": "production company", "role_id": 941, "is_primary": true}, {"id": 2649362, "title": "The trials of life: a natural history of behaviour. - Part 1.", "work_id": 81390, "role": "production company", "role_id": 941, "is_primary": true}, {"id": 2329359, "title": "The Banana splits and friends show", "work_id": 85221, "role": "production company", "role_id": 941, "is_primary": true}], "also_known_as": "", "date_of_birth": "", "date_of_death": "", "genders": [], "languages": [], "places_of_operation": [], "biography": "Turner Broadcasting System, Inc. was an American television and media conglomerate founded by Ted Turner in 1965. Based in Atlanta, Georgia, it merged with Time Warner (later WarnerMedia) on October 10, 1996. As of April 2022, all of its assets are now owned by Warner Bros. Discovery (WBD). The headquarters of Turner's properties are largely located at the CNN Center in Downtown Atlanta, and the Turner Broadcasting campus off Techwood Drive in Midtown Atlanta, which also houses Turner Studios. Some of their operations are housed within WBD's corporate and global headquarters inside 30 Hudson Yards in Manhattan's West Side district, and at 230 Park Avenue South in Midtown Manhattan, both in New York City, respectively.\nTurner is known for several pioneering innovations in U.S. multichannel television, including its satellite uplink of local Atlanta independent station WTCG channel 17 as TBS—one of the first national \"superstations\", and its establishment of the Cable News Network (CNN)—the first 24-hour news channel. It later launched a sister cable network, TNT, professional wrestling promotion World Championship Wrestling (WCW), the children's channel Cartoon Network, and the movie channel Turner Classic Movies (TCM). Turner South—a network devoted to regional sports and southern lifestyle programming—was launched by Turner in 1999, but was later sold to Fox Sports Networks in 2006 to form SportSouth. The same year, it acquired Liberty Media's stake in their joint venture Court TV. WCW assets were later sold to the World Wrestling Federation (WWF, now WWE) in 2001.\nOn June 14, 2018, Time Warner, including Turner Broadcasting System, was acquired by telecom firm AT&T and re-branded WarnerMedia. After the purchase, \"Turner\" was phased out as a corporate brand, and on March 4, 2019, its properties were dispersed into either WarnerMedia Entertainment (TBS, TNT, and TruTV), WarnerMedia News & Sports (CNN, Turner Sports, and AT&T SportsNet), or brought directly under Warner Bros. (Cartoon Network, Adult Swim, and Turner Classic Movies). On August 10, 2020, the WarnerMedia Entertainment and Warner Bros. Entertainment assets were merged to form WarnerMedia Studios & Networks Group.As of 2020, AT&T reported the financial results for WarnerMedia's ad-supported cable networks under the Turner business unit, while also using the term \"the TNets\" to refer to the group of TBS, TNT, and TruTV in press releases. On April 8, 2022, WarnerMedia merged with Discovery, Inc. to form Warner Bros. Discovery, and almost all of both companies' ad-supported cable networks were brought under the unit Warner Bros. Discovery U.S. Networks.", "biography_author": "Wikidata", "date_of_biography": "2023-09-06T01:59:41.922196+10:00", "external_links": [{"id": 6232, "uri": "https://en.wikipedia.org/wiki/Turner_Broadcasting_System"}], "uuid": "c39b58c8-7a7f-46c6-a653-60fd243e4ba5", "source": {"name": "Vernon", "slug": "vernon"}, "source_identifier": "13751", "external_references": [{"id": 39047, "source": {"name": "Wikidata", "slug": "wikidata"}, "source_identifier": "Q7855903"}], "date_modified": "2025-03-05T14:00:48.907226+11:00"}, {"id": 23649, "name": "Luis Valdez", "roles_in_work": [{"id": 2649358, "title": "La Bamba (Captioned)", "work_id": 81389, "role": "director", "role_id": 938, "is_primary": true}, {"id": 1994993, "title": "La Bamba", "work_id": 90964, "role": "director", "role_id": 938, "is_primary": true}], "also_known_as": "Luis Miguel Valdez", "date_of_birth": "1940-06-26", "date_of_death": null, "genders": [{"id": 9, "name": "Male", "slug": "male"}], "languages": [{"id": 1, "name": "English", "slug": "english"}, {"id": 10, "name": "Spanish", "slug": "spanish"}], "places_of_operation": [{"id": 1, "name": "United States of America", "slug": "united-states-of-america"}], "biography": "Luis Miguel Valdez (born June 26, 1940) is an American playwright, screenwriter, film director and actor. Regarded as the father of Chicano film and playwriting, Valdez is best known for his play Zoot Suit, his movie La Bamba, and his creation of El Teatro Campesino. A pioneer in the Chicano Movement, Valdez broadened the scope of theatre and arts of the Chicano community.", "biography_author": "Wikidata", "date_of_biography": "2023-08-01T16:00:20.838774+10:00", "external_links": [{"id": 4577, "uri": "https://en.wikipedia.org/wiki/Luis_Valdez"}], "uuid": "50a2a29f-c3e6-41f5-9be2-af0688ad3f70", "source": {"name": "Vernon", "slug": "vernon"}, "source_identifier": "24107", "external_references": [{"id": 25304, "source": {"name": "Wikidata", "slug": "wikidata"}, "source_identifier": "Q360140"}, {"id": 30024, "source": {"name": "VIAF", "slug": "viaf"}, "source_identifier": "79172758"}, {"id": 30025, "source": {"name": "LOC Auth", "slug": "loc-auth"}, "source_identifier": "n83217221"}, {"id": 30026, "source": {"name": "WorldCat", "slug": "worldcat"}, "source_identifier": "lccn-n83217221"}], "date_modified": "2025-03-05T14:00:46.618553+11:00"}, {"id": 23647, "name": "John G. Avildsen", "roles_in_work": [{"id": 2357507, "title": "The Karate kid. Part 2", "work_id": 86088, "role": "director", "role_id": 938, "is_primary": true}, {"id": 828570, "title": "Dance on a May Day", "work_id": 97290, "role": "director", "role_id": 938, "is_primary": true}, {"id": 2616091, "title": "Rocky", "work_id": 86803, "role": "director", "role_id": 938, "is_primary": true}, {"id": 1996739, "title": "The Karate kid. Part 3", "work_id": 92812, "role": "director", "role_id": 938, "is_primary": true}, {"id": 2357999, "title": "The Karate kid", "work_id": 86072, "role": "director", "role_id": 938, "is_primary": true}, {"id": 2358009, "title": "The Karate Kid (Captioned)", "work_id": 81383, "role": "director", "role_id": 938, "is_primary": true}, {"id": 1988499, "title": "The Power of one", "work_id": 84625, "role": "director", "role_id": 938, "is_primary": true}], "also_known_as": "John Guilbert Avildsen", "date_of_birth": "21 DEC 1935", "date_of_death": "16 JUN 2017", "genders": [{"id": 9, "name": "Male", "slug": "male"}], "languages": [{"id": 1, "name": "English", "slug": "english"}], "places_of_operation": [{"id": 1, "name": "United States of America", "slug": "united-states-of-america"}], "biography": "John Guilbert Avildsen (December 21, 1935 – June 16, 2017) was an American film director. He is best known for directing Rocky (1976), which earned him the Academy Award for Best Director. He is also renowned for directing the first three films in The Karate Kid franchise (1984–1989). Other films he directed include Joe (1970), Save the Tiger (1973), The Formula (1980), Neighbors (1981), Lean on Me (1989), Rocky V (1990), and 8 Seconds (1994). Source: Wikidata; 01/08/2023", "biography_author": null, "date_of_biography": "2025-02-26T20:33:48.616979+11:00", "external_links": [{"id": 4375, "uri": "https://en.wikipedia.org/wiki/John_G._Avildsen"}], "uuid": "be4e0014-4681-4798-ac4c-604a72adc419", "source": {"name": "Vernon", "slug": "vernon"}, "source_identifier": "22271", "external_references": [{"id": 26396, "source": {"name": "Wikidata", "slug": "wikidata"}, "source_identifier": "Q260125"}, {"id": 29493, "source": {"name": "VIAF", "slug": "viaf"}, "source_identifier": "107484797"}, {"id": 29494, "source": {"name": "LOC Auth", "slug": "loc-auth"}, "source_identifier": "no95003706"}, {"id": 29495, "source": {"name": "WorldCat", "slug": "worldcat"}, "source_identifier": "lccn-no95003706"}], "date_modified": "2025-02-26T20:33:48.617210+11:00"}, {"id": 23646, "name": "Jerry Weintraub", "roles_in_work": [{"id": 2358006, "title": "The Karate Kid (Captioned)", "work_id": 81383, "role": "producer", "role_id": 1089, "is_primary": true}, {"id": 2357997, "title": "The Karate kid", "work_id": 86072, "role": "producer", "role_id": 1089, "is_primary": true}, {"id": 2357504, "title": "The Karate kid. Part 2", "work_id": 86088, "role": "producer", "role_id": 1089, "is_primary": true}, {"id": 1998171, "title": "Ocean's eleven", "work_id": 93653, "role": "producer", "role_id": 1089, "is_primary": true}, {"id": 1996738, "title": "The Karate kid. Part 3", "work_id": 92812, "role": "producer", "role_id": 1089, "is_primary": true}, {"id": 2148841, "title": "Cruising", "work_id": 87947, "role": "producer", "role_id": 1089, "is_primary": true}, {"id": 2191517, "title": "Diner (Special edition)", "work_id": 93481, "role": "producer", "role_id": 1089, "is_primary": true}, {"id": 2357500, "title": "The Karate kid. Part 2", "work_id": 86088, "role": "production company", "role_id": 941, "is_primary": true}], "also_known_as": "", "date_of_birth": "1937-09-26", "date_of_death": "2015-07-06", "genders": [{"id": 9, "name": "Male", "slug": "male"}], "languages": [{"id": 1, "name": "English", "slug": "english"}], "places_of_operation": [{"id": 1, "name": "United States of America", "slug": "united-states-of-america"}], "biography": "Jerome Charles \"Jerry\" Weintraub (September 26, 1937 – July 6, 2015) was an American film producer, talent manager and actor whose television films won him three Emmys.He began his career as a talent agent, having managed relatively unknown singer John Denver in 1970, developing Denver's success through concerts, television specials, and film roles, including Oh, God! (1977). Weintraub has been credited with making \"show business history\" by being the first to organize and manage large arena concert tours for singers. Among the other performers whose tours he managed were Elvis Presley, Frank Sinatra, The Four Seasons, Neil Diamond, Bob Dylan, Led Zeppelin, Three Dog Night and The Carpenters.\nFollowing his years as a concert promoter, he began producing films. Among them were director Robert Altman's Nashville (1975), Barry Levinson's Diner (1982), the films from The Karate Kid, as well as the remake Ocean's Eleven (2001), and its two sequels. Later, he was executive producer of HBO's series The Brink and HBO's Behind the Candelabra in 2013, which won an Emmy. In 2014, he won another Emmy as co-producer of Years of Living Dangerously, a television documentary about global warming. In 2011, HBO broadcast a television documentary about Weintraub's life, called His Way.", "biography_author": "Wikidata", "date_of_biography": "2023-08-01T15:30:42.927369+10:00", "external_links": [{"id": 4324, "uri": "https://en.wikipedia.org/wiki/Jerry_Weintraub"}], "uuid": "5889bd52-74b3-4807-ab8c-8e8bd6170281", "source": {"name": "Vernon", "slug": "vernon"}, "source_identifier": "21821", "external_references": [{"id": 26774, "source": {"name": "Wikidata", "slug": "wikidata"}, "source_identifier": "Q365844"}, {"id": 29357, "source": {"name": "VIAF", "slug": "viaf"}, "source_identifier": "4546110"}, {"id": 29358, "source": {"name": "LOC Auth", "slug": "loc-auth"}, "source_identifier": "no98056054"}, {"id": 29359, "source": {"name": "WorldCat", "slug": "worldcat"}, "source_identifier": "lccn-no98056054"}], "date_modified": "2023-09-05T21:23:15.880161+10:00"}, {"id": 23641, "name": "Limelight Entertainment", "roles_in_work": [{"id": 2323005, "title": "Teenage Mutant Ninja Turtles: the Movie (Captioned)", "work_id": 81380, "role": "production company", "role_id": 941, "is_primary": true}], "also_known_as": "", "date_of_birth": "", "date_of_death": "", "genders": [], "languages": [], "places_of_operation": [], "biography": "", "biography_author": null, "date_of_biography": "2023-05-09T19:15:01.868814+10:00", "external_links": [], "uuid": "c76ce59b-b2cc-46ed-82d3-334b2d13c545", "source": {"name": "Vernon", "slug": "vernon"}, "source_identifier": "10066", "external_references": [{"id": 38702, "source": {"name": "Wikidata", "slug": "wikidata"}, "source_identifier": "Q121035573"}], "date_modified": "2023-09-05T22:25:25.218992+10:00"}, {"id": 23640, "name": "Golden Harvest", "roles_in_work": [{"id": 807338, "title": "Rouge [Widescreen]", "work_id": 91139, "role": "production company", "role_id": 941, "is_primary": true}, {"id": 2615598, "title": "Once upon a time in China", "work_id": 85698, "role": "production company", "role_id": 941, "is_primary": true}, {"id": 2162634, "title": "Once upon a time in China II", "work_id": 85699, "role": "production company", "role_id": 941, "is_primary": true}, {"id": 2322882, "title": "Teenage Mutant Ninja Turtles II: the secret of the ooze (Captioned)", "work_id": 84231, "role": "production company", "role_id": 941, "is_primary": true}, {"id": 1994205, "title": "The Storm riders = Fung Wan: Hungba Tinha", "work_id": 89961, "role": "production company", "role_id": 941, "is_primary": true}, {"id": 877426, "title": "Police story 2 [Widescreen]", "work_id": 90667, "role": "production company", "role_id": 941, "is_primary": true}, {"id": 2164964, "title": "Once upon a time in China III", "work_id": 85700, "role": "production company", "role_id": 941, "is_primary": true}, {"id": 2200984, "title": "Dragon lord = Long shaoye", "work_id": 93690, "role": "production company", "role_id": 941, "is_primary": true}, {"id": 812547, "title": "Once upon a time in China (Restored version) [Widescreen]", "work_id": 92717, "role": "production company", "role_id": 941, "is_primary": true}, {"id": 884621, "title": "The Return of the god of gamblers [Dubbed]", "work_id": 94751, "role": "production company", "role_id": 941, "is_primary": true}, {"id": 2209747, "title": "Police story 3: super cop", "work_id": 85701, "role": "production company", "role_id": 941, "is_primary": true}, {"id": 2353567, "title": "The Hand of death = Shaolin men", "work_id": 87873, "role": "production company", "role_id": 941, "is_primary": true}, {"id": 2209735, "title": "Police story = Jingcha gushi [Widescreen]", "work_id": 90411, "role": "production company", "role_id": 941, "is_primary": true}, {"id": 1992523, "title": "The Fate of Lee Khan [Widescreen]", "work_id": 88163, "role": "production company", "role_id": 941, "is_primary": true}, {"id": 807335, "title": "Miracle fighters = Qimen dunjia [Widescreen]", "work_id": 91138, "role": "production company", "role_id": 941, "is_primary": true}, {"id": 2294294, "title": "Sex & Zen (E)", "work_id": 85694, "role": "production company", "role_id": 941, "is_primary": true}, {"id": 2332430, "title": "The Blade", "work_id": 89962, "role": "production company", "role_id": 941, "is_primary": true}, {"id": 2323001, "title": "Teenage Mutant Ninja Turtles: the Movie (Captioned)", "work_id": 81380, "role": "production company", "role_id": 941, "is_primary": true}, {"id": 2474993, "title": "The Way of the dragon = Return of the dragon", "work_id": 89976, "role": "production company", "role_id": 941, "is_primary": true}], "also_known_as": "", "date_of_birth": "", "date_of_death": "", "genders": [], "languages": [], "places_of_operation": [], "biography": "", "biography_author": null, "date_of_biography": "2023-08-17T15:02:41.731367+10:00", "external_links": [], "uuid": "c68ed6b5-194c-47e7-905c-b13dfa31423d", "source": {"name": "Vernon", "slug": "vernon"}, "source_identifier": "3892", "external_references": [], "date_modified": "2025-02-26T20:25:44.159207+11:00"}, {"id": 23639, "name": "Denis Heroux", "roles_in_work": [{"id": 2649348, "title": "Atlantic City USA", "work_id": 81371, "role": "producer", "role_id": 1089, "is_primary": true}], "also_known_as": "", "date_of_birth": "1940-07-15", "date_of_death": "2015-12-10", "genders": [{"id": 9, "name": "Male", "slug": "male"}], "languages": [{"id": 83, "name": "Canadian French", "slug": "canadian-french"}], "places_of_operation": [{"id": 36, "name": "Canada", "slug": "canada"}], "biography": "Denis Héroux,  (French: [dəni eʁu]; July 15, 1940 – December 10, 2015) was a Canadian film director and producer.", "biography_author": "Wikidata", "date_of_biography": "2022-05-19T11:16:34.246053+10:00", "external_links": [{"id": 1921, "uri": "https://en.wikipedia.org/wiki/Denis_H%C3%A9roux"}], "uuid": "be1041fc-ae1a-4357-ba40-8e19322aa261", "source": {"name": "Vernon", "slug": "vernon"}, "source_identifier": "17959", "external_references": [{"id": 8332, "source": {"name": "Wikidata", "slug": "wikidata"}, "source_identifier": "Q3022742"}, {"id": 8333, "source": {"name": "VIAF", "slug": "viaf"}, "source_identifier": "36519773"}, {"id": 8334, "source": {"name": "LOC Auth", "slug": "loc-auth"}, "source_identifier": "no97019763"}, {"id": 8335, "source": {"name": "WorldCat", "slug": "worldcat"}, "source_identifier": "lccn-no97019763"}], "date_modified": "2025-03-05T14:00:38.322581+11:00"}, {"id": 23638, "name": "Selta Films", "roles_in_work": [{"id": 2649347, "title": "Atlantic City USA", "work_id": 81371, "role": "production company", "role_id": 941, "is_primary": true}], "also_known_as": "", "date_of_birth": null, "date_of_death": null, "genders": [], "languages": [], "places_of_operation": [], "biography": "", "biography_author": null, "date_of_biography": null, "external_links": [], "uuid": "b7a8714c-56e7-43a8-ad73-4108a1bd8b88", "source": {"name": "Vernon", "slug": "vernon"}, "source_identifier": "12419", "external_references": [], "date_modified": "2025-03-05T14:00:37.730665+11:00"}]}