{"count": 28687, "next": "https://api.acmi.net.au/creators/?page=690", "previous": "https://api.acmi.net.au/creators/?page=688", "results": [{"id": 78693, "name": "David Geddes", "roles_in_work": [{"id": 2165434, "title": "Jacks or better", "work_id": 87892, "role": "director", "role_id": 938, "is_primary": true}], "also_known_as": "", "date_of_birth": null, "date_of_death": "", "genders": [{"id": 9, "name": "Male", "slug": "male"}], "languages": [], "places_of_operation": [{"id": 36, "name": "Canada", "slug": "canada"}], "biography": "David A. Geddes (born 1949 in Vancouver, British Columbia) is Canadian cinematographer.", "biography_author": "Wikidata", "date_of_biography": "2023-08-01T14:34:02.135136+10:00", "external_links": [{"id": 3836, "uri": "https://en.wikipedia.org/wiki/David_Geddes_(cinematographer)"}], "uuid": "f245ea1f-86d5-47aa-ac48-a9e0c6f34d4f", "source": {"name": "Vernon", "slug": "vernon"}, "source_identifier": "17588", "external_references": [{"id": 26102, "source": {"name": "Wikidata", "slug": "wikidata"}, "source_identifier": "Q23928454"}, {"id": 28029, "source": {"name": "VIAF", "slug": "viaf"}, "source_identifier": "159041972"}, {"id": 28030, "source": {"name": "LOC Auth", "slug": "loc-auth"}, "source_identifier": "no2012013023"}, {"id": 28031, "source": {"name": "WorldCat", "slug": "worldcat"}, "source_identifier": "lccn-no2012013023"}], "date_modified": "2023-09-05T18:57:19.294698+10:00"}, {"id": 78692, "name": "Raymond Hall", "roles_in_work": [{"id": 2159496, "title": "On top of the world", "work_id": 90848, "role": "director", "role_id": 938, "is_primary": true}, {"id": 2165426, "title": "Jacks or better", "work_id": 87892, "role": "co-producer", "role_id": 915, "is_primary": true}], "also_known_as": "", "date_of_birth": "", "date_of_death": "", "genders": [], "languages": [], "places_of_operation": [], "biography": "", "biography_author": null, "date_of_biography": "2023-05-09T14:24:27.756320+10:00", "external_links": [], "uuid": "b4c350d5-00ef-402b-a936-def6b3f532e1", "source": {"name": "Vernon", "slug": "vernon"}, "source_identifier": "27193", "external_references": [{"id": 32800, "source": {"name": "Wikidata", "slug": "wikidata"}, "source_identifier": "Q121270796"}], "date_modified": "2023-09-06T00:23:31.874839+10:00"}, {"id": 78691, "name": "Kent Nason", "roles_in_work": [{"id": 872910, "title": "Tracker", "work_id": 87889, "role": "director", "role_id": 938, "is_primary": true}, {"id": 2300514, "title": "Singlehanders", "work_id": 88036, "role": "co-director", "role_id": 959, "is_primary": true}], "also_known_as": "", "date_of_birth": "", "date_of_death": "", "genders": [], "languages": [], "places_of_operation": [], "biography": "", "biography_author": null, "date_of_biography": "2023-05-09T18:35:51.489534+10:00", "external_links": [], "uuid": "d5d1a713-2f31-4901-8c59-28172ed504f5", "source": {"name": "Vernon", "slug": "vernon"}, "source_identifier": "23266", "external_references": [{"id": 41628, "source": {"name": "Wikidata", "slug": "wikidata"}, "source_identifier": "Q121091059"}], "date_modified": "2023-09-05T22:06:04.533700+10:00"}, {"id": 78690, "name": "Oswald Hafenrichter", "roles_in_work": [{"id": 2347769, "title": "The Fallen idol. The Winslow boy", "work_id": 87885, "role": "editor", "role_id": 918, "is_primary": true}], "also_known_as": "", "date_of_birth": "", "date_of_death": "", "genders": [], "languages": [], "places_of_operation": [], "biography": "", "biography_author": null, "date_of_biography": "2023-05-09T19:50:27.600176+10:00", "external_links": [], "uuid": "36d8c5e8-bad9-4331-89cd-67bdc820a971", "source": {"name": "Vernon", "slug": "vernon"}, "source_identifier": "37944", "external_references": [{"id": 37991, "source": {"name": "Wikidata", "slug": "wikidata"}, "source_identifier": "Q121078989"}], "date_modified": "2023-09-05T23:37:45.191284+10:00"}, {"id": 78689, "name": "Georges Perinal", "roles_in_work": [{"id": 2347766, "title": "The Fallen idol. The Winslow boy", "work_id": 87885, "role": "cinematographer", "role_id": 32, "is_primary": false}], "also_known_as": "", "date_of_birth": "", "date_of_death": "", "genders": [], "languages": [], "places_of_operation": [], "biography": "", "biography_author": null, "date_of_biography": "2023-05-09T19:50:27.364771+10:00", "external_links": [], "uuid": "1b80c9d4-43a9-49fa-8fae-9a0a939f06fe", "source": {"name": "Vernon", "slug": "vernon"}, "source_identifier": "37943", "external_references": [{"id": 32916, "source": {"name": "Wikidata", "slug": "wikidata"}, "source_identifier": "Q121271038"}], "date_modified": "2023-09-05T20:08:19.826965+10:00"}, {"id": 78688, "name": "Freddie Young", "roles_in_work": [{"id": 2347758, "title": "The Fallen idol. The Winslow boy", "work_id": 87885, "role": "cinematographer", "role_id": 32, "is_primary": false}], "also_known_as": "", "date_of_birth": "", "date_of_death": "", "genders": [], "languages": [], "places_of_operation": [], "biography": "", "biography_author": null, "date_of_biography": "2023-05-09T19:50:26.472050+10:00", "external_links": [], "uuid": "a57d3dd8-5fdf-420c-b05a-9903ef8d0d9c", "source": {"name": "Vernon", "slug": "vernon"}, "source_identifier": "37942", "external_references": [{"id": 35708, "source": {"name": "Wikidata", "slug": "wikidata"}, "source_identifier": "Q121299303"}], "date_modified": "2023-09-05T19:52:59.223162+10:00"}, {"id": 78687, "name": "Dimitri Tiomkin", "roles_in_work": [{"id": 2475588, "title": "Mackenna's gold", "work_id": 87878, "role": "co-producer", "role_id": 915, "is_primary": true}], "also_known_as": "", "date_of_birth": "1894-05-10", "date_of_death": "1979-11-11", "genders": [{"id": 9, "name": "Male", "slug": "male"}], "languages": [], "places_of_operation": [{"id": 1, "name": "United States of America", "slug": "united-states-of-america"}], "biography": "Dimitri Zinovievich Tiomkin (May 10, 1894 – November 11, 1979) was a Russian-born American film composer and conductor. Classically trained in Saint Petersburg before the Bolshevik Revolution, he moved to Berlin and then New York City after the Russian Revolution. In 1929, after the stock market crash, he moved to Hollywood, where he became best known for his scores for Western films, including Duel in the Sun, Red River, High Noon, The Big Sky, Gunfight at the O.K. Corral, Rio Bravo, and Last Train from Gun Hill.\nTiomkin received 22 Academy Award nominations and won four Oscars, three for Best Original Score for High Noon, The High and the Mighty, and The Old Man and the Sea, and one for Best Original Song for \"The Ballad of High Noon\" from the film High Noon.\n\n", "biography_author": "Wikidata", "date_of_biography": "2023-09-05T19:12:41.687572+10:00", "external_links": [{"id": 1934, "uri": "https://en.wikipedia.org/wiki/Dimitri_Tiomkin"}], "uuid": "edc323b3-852a-492e-901e-97a81ace8f70", "source": {"name": "Vernon", "slug": "vernon"}, "source_identifier": "18151", "external_references": [{"id": 8387, "source": {"name": "Wikidata", "slug": "wikidata"}, "source_identifier": "Q317033"}, {"id": 8388, "source": {"name": "VIAF", "slug": "viaf"}, "source_identifier": "100251573"}, {"id": 8389, "source": {"name": "LOC Auth", "slug": "loc-auth"}, "source_identifier": "n2006010255"}, {"id": 8390, "source": {"name": "WorldCat", "slug": "worldcat"}, "source_identifier": "lccn-n2006010255"}], "date_modified": "2023-09-05T19:12:43.627283+10:00"}, {"id": 78686, "name": "Tamara Davis", "roles_in_work": [{"id": 2116171, "title": "Billy Madison", "work_id": 87874, "role": "director", "role_id": 938, "is_primary": true}], "also_known_as": "", "date_of_birth": "1962-01-22", "date_of_death": "", "genders": [{"id": 5, "name": "Female", "slug": "female"}], "languages": [{"id": 1, "name": "English", "slug": "english"}], "places_of_operation": [{"id": 1, "name": "United States of America", "slug": "united-states-of-america"}], "biography": "Tamra Davis (born January 22, 1962) is an American film, television and music video director.", "biography_author": "Wikidata", "date_of_biography": "2023-08-01T17:14:54.997420+10:00", "external_links": [{"id": 3176, "uri": "https://en.wikipedia.org/wiki/Tamra_Davis"}], "uuid": "9a59c127-d653-4eeb-beb1-045c39a229ef", "source": {"name": "Vernon", "slug": "vernon"}, "source_identifier": "29484", "external_references": [{"id": 13462, "source": {"name": "Wikidata", "slug": "wikidata"}, "source_identifier": "Q2624537"}, {"id": 13463, "source": {"name": "VIAF", "slug": "viaf"}, "source_identifier": "24801429"}, {"id": 13464, "source": {"name": "LOC Auth", "slug": "loc-auth"}, "source_identifier": "no99071017"}, {"id": 13465, "source": {"name": "WorldCat", "slug": "worldcat"}, "source_identifier": "lccn-no99071017"}], "date_modified": "2023-09-06T01:41:02.103449+10:00"}, {"id": 78685, "name": "Richard Hughes", "roles_in_work": [{"id": 2795344, "title": "Nelson Mandela", "work_id": 87870, "role": "co-producer", "role_id": 915, "is_primary": true}, {"id": 2795377, "title": "Ronald Reagan", "work_id": 87872, "role": "co-producer", "role_id": 915, "is_primary": true}, {"id": 2795312, "title": "Margaret Thatcher", "work_id": 87868, "role": "co-producer", "role_id": 915, "is_primary": true}, {"id": 2795294, "title": "Lech Walesa", "work_id": 87867, "role": "co-producer", "role_id": 915, "is_primary": true}, {"id": 2795327, "title": "Saddam Hussein: the godfather of Iraq", "work_id": 87869, "role": "co-producer", "role_id": 915, "is_primary": true}], "also_known_as": "", "date_of_birth": "", "date_of_death": "", "genders": [], "languages": [], "places_of_operation": [], "biography": "", "biography_author": null, "date_of_biography": "2023-05-09T17:26:49.687603+10:00", "external_links": [], "uuid": "4044478b-cd55-4bf9-ab2f-220f58c9ae7b", "source": {"name": "Vernon", "slug": "vernon"}, "source_identifier": "27416", "external_references": [], "date_modified": "2025-03-14T20:31:41.389730+11:00"}, {"id": 78684, "name": "Mark Rowland", "roles_in_work": [{"id": 2795292, "title": "Lech Walesa", "work_id": 87867, "role": "co-producer", "role_id": 915, "is_primary": true}, {"id": 2795309, "title": "Margaret Thatcher", "work_id": 87868, "role": "co-producer", "role_id": 915, "is_primary": true}, {"id": 2795324, "title": "Saddam Hussein: the godfather of Iraq", "work_id": 87869, "role": "co-producer", "role_id": 915, "is_primary": true}, {"id": 2795342, "title": "Nelson Mandela", "work_id": 87870, "role": "co-producer", "role_id": 915, "is_primary": true}, {"id": 2795373, "title": "Ronald Reagan", "work_id": 87872, "role": "co-producer", "role_id": 915, "is_primary": true}], "also_known_as": "", "date_of_birth": "", "date_of_death": "", "genders": [], "languages": [], "places_of_operation": [], "biography": "", "biography_author": null, "date_of_biography": "2023-05-09T17:26:49.430924+10:00", "external_links": [], "uuid": "f969e18f-503e-4f88-9f57-3a5fec662e20", "source": {"name": "Vernon", "slug": "vernon"}, "source_identifier": "24547", "external_references": [{"id": 39073, "source": {"name": "Wikidata", "slug": "wikidata"}, "source_identifier": "Q121036486"}], "date_modified": "2025-03-14T20:31:40.797372+11:00"}]}