{"count": 28687, "next": "https://api.acmi.net.au/creators/?page=1836", "previous": "https://api.acmi.net.au/creators/?page=1834", "results": [{"id": 25697, "name": "Dorling Kindersley Vision", "roles_in_work": [{"id": 2161574, "title": "My first activity video", "work_id": 84117, "role": "production company", "role_id": 941, "is_primary": true}, {"id": 2787328, "title": "See how they grow", "work_id": 115339, "role": "production company", "role_id": 941, "is_primary": true}, {"id": 2787289, "title": "Mini beasts", "work_id": 83602, "role": "production company", "role_id": 941, "is_primary": true}, {"id": 2787293, "title": "Pets", "work_id": 83604, "role": "production company", "role_id": 941, "is_primary": true}, {"id": 2787297, "title": "Woodland animals", "work_id": 84112, "role": "production company", "role_id": 941, "is_primary": true}, {"id": 2787301, "title": "Wild animals", "work_id": 84113, "role": "production company", "role_id": 941, "is_primary": true}, {"id": 2787305, "title": "Farm animals", "work_id": 84114, "role": "production company", "role_id": 941, "is_primary": true}, {"id": 2787309, "title": "Pond animals", "work_id": 84115, "role": "production company", "role_id": 941, "is_primary": true}, {"id": 2787312, "title": "Jungle animals", "work_id": 85120, "role": "production company", "role_id": 941, "is_primary": true}, {"id": 2787316, "title": "Tree animals", "work_id": 85121, "role": "production company", "role_id": 941, "is_primary": true}, {"id": 2787320, "title": "Desert animals", "work_id": 85122, "role": "production company", "role_id": 941, "is_primary": true}, {"id": 2787324, "title": "Sea animals", "work_id": 85206, "role": "production company", "role_id": 941, "is_primary": true}, {"id": 2792218, "title": "Eyewitness", "work_id": 115432, "role": "production company", "role_id": 941, "is_primary": true}, {"id": 2792200, "title": "Horse", "work_id": 84913, "role": "production company", "role_id": 941, "is_primary": true}, {"id": 2792207, "title": "Dinosaur", "work_id": 85585, "role": "production company", "role_id": 941, "is_primary": true}, {"id": 2792213, "title": "Skeleton", "work_id": 85626, "role": "production company", "role_id": 941, "is_primary": true}, {"id": 2163402, "title": "My first music video", "work_id": 83601, "role": "production company", "role_id": 941, "is_primary": true}, {"id": 2163448, "title": "My first science video", "work_id": 84118, "role": "production company", "role_id": 941, "is_primary": true}, {"id": 2161581, "title": "My first cookery video", "work_id": 83600, "role": "production company", "role_id": 941, "is_primary": true}, {"id": 2163350, "title": "My first magic video", "work_id": 85112, "role": "production company", "role_id": 941, "is_primary": true}, {"id": 2163443, "title": "My first nature video", "work_id": 84119, "role": "production company", "role_id": 941, "is_primary": true}, {"id": 2163309, "title": "My first green video", "work_id": 83603, "role": "production company", "role_id": 941, "is_primary": true}, {"id": 2148632, "title": "Creatures of the night", "work_id": 87549, "role": "production company", "role_id": 941, "is_primary": true}, {"id": 2148594, "title": "Creatures of the deep", "work_id": 87548, "role": "production company", "role_id": 941, "is_primary": true}], "also_known_as": "", "date_of_birth": "", "date_of_death": "", "genders": [], "languages": [], "places_of_operation": [], "biography": "", "biography_author": null, "date_of_biography": "2023-05-09T18:38:41.331308+10:00", "external_links": [], "uuid": "2db22045-46c1-49d6-9416-1864a86209e1", "source": {"name": "Vernon", "slug": "vernon"}, "source_identifier": "7642", "external_references": [{"id": 50990, "source": {"name": "Wikidata", "slug": "wikidata"}, "source_identifier": "Q121357791"}], "date_modified": "2025-03-14T20:07:56.466487+11:00"}, {"id": 25696, "name": "Klaus Toft", "roles_in_work": [{"id": 2104455, "title": "Australia: eye of the storm", "work_id": 90568, "role": "co-producer", "role_id": 915, "is_primary": true}, {"id": 1427260, "title": "Lizards of Oz; Wombats: bulldozers of the bush", "work_id": 83658, "role": "co-producer", "role_id": 915, "is_primary": true}, {"id": 1816581, "title": "The Navigators: Baudin vs Flinders", "work_id": 93699, "role": "producer", "role_id": 1089, "is_primary": true}, {"id": 2614386, "title": "Nature's landscapes", "work_id": 83597, "role": "producer", "role_id": 1089, "is_primary": true}, {"id": 2138614, "title": "Clash of the carnivores. Window on the wild", "work_id": 85340, "role": "producer", "role_id": 1089, "is_primary": true}, {"id": 2165097, "title": "Once upon Australia. River red", "work_id": 84998, "role": "producer", "role_id": 1089, "is_primary": true}, {"id": 2044390, "title": "Killers in Eden", "work_id": 116756, "role": "producer", "role_id": 1089, "is_primary": true}, {"id": 2044391, "title": "Killers in Eden", "work_id": 116756, "role": "writer", "role_id": 939, "is_primary": true}], "also_known_as": "", "date_of_birth": "", "date_of_death": "", "genders": [], "languages": [], "places_of_operation": [], "biography": "", "biography_author": null, "date_of_biography": "2023-05-09T14:23:51.972991+10:00", "external_links": [], "uuid": "fd24c650-db04-490a-a8e4-d9d592f40b16", "source": {"name": "Vernon", "slug": "vernon"}, "source_identifier": "23384", "external_references": [{"id": 36130, "source": {"name": "Wikidata", "slug": "wikidata"}, "source_identifier": "Q121299360"}], "date_modified": "2025-02-26T20:10:11.425104+11:00"}, {"id": 25694, "name": "De Witt Sage", "roles_in_work": [{"id": 2614378, "title": "Distant harmony", "work_id": 83595, "role": "director", "role_id": 938, "is_primary": true}, {"id": 2614376, "title": "Distant harmony", "work_id": 83595, "role": "co-producer", "role_id": 915, "is_primary": true}], "also_known_as": "", "date_of_birth": "", "date_of_death": "", "genders": [], "languages": [], "places_of_operation": [], "biography": "", "biography_author": null, "date_of_biography": "2023-05-09T15:16:19.616283+10:00", "external_links": [], "uuid": "d329980b-740d-448e-9fc4-b96a70f40197", "source": {"name": "Vernon", "slug": "vernon"}, "source_identifier": "7369", "external_references": [], "date_modified": "2025-02-26T20:10:08.035535+11:00"}, {"id": 25692, "name": "Luchina Productions", "roles_in_work": [{"id": 2614374, "title": "Distant harmony", "work_id": 83595, "role": "production company", "role_id": 941, "is_primary": true}], "also_known_as": "", "date_of_birth": "", "date_of_death": "", "genders": [], "languages": [], "places_of_operation": [], "biography": "", "biography_author": null, "date_of_biography": "2023-05-09T15:16:18.403829+10:00", "external_links": [], "uuid": "faa82e3c-1b27-4bf2-8d20-0629d31942a9", "source": {"name": "Vernon", "slug": "vernon"}, "source_identifier": "10183", "external_references": [], "date_modified": "2025-02-26T20:10:05.659503+11:00"}, {"id": 25691, "name": "Friends of Herring Island", "roles_in_work": [{"id": 2409243, "title": "Herring Island Reserve 1993", "work_id": 83593, "role": "production company", "role_id": 941, "is_primary": true}], "also_known_as": "", "date_of_birth": "", "date_of_death": "", "genders": [], "languages": [], "places_of_operation": [], "biography": "", "biography_author": null, "date_of_biography": "2023-08-11T17:19:03.885039+10:00", "external_links": [], "uuid": "04384c31-9731-47d1-8d80-65726d086191", "source": {"name": "Vernon", "slug": "vernon"}, "source_identifier": "8571", "external_references": [], "date_modified": "2023-08-11T17:19:03.885461+10:00"}, {"id": 25687, "name": "Government of West Bengal", "roles_in_work": [{"id": 2305837, "title": "Song of the road = Pather panchali", "work_id": 83589, "role": "production company", "role_id": 941, "is_primary": true}], "also_known_as": "", "date_of_birth": "", "date_of_death": "", "genders": [], "languages": [], "places_of_operation": [], "biography": "The Government of West Bengal, also known as the West Bengal Government, is the principal administrative authority of the Indian state of West Bengal, created by the National Constitution as the state's legislative, executive and judicial authority. The Governor acts as the head of state and is the highest nominal authority of the state power, however, it is the Chief Minister who is the chief executive authority and head of government. \nThe Chief Minister is the head of government and is vested with most of the executive powers. Kolkata, the capital of West Bengal, houses the West Bengal Legislative Assembly. The temporary secretariat is located in the Nabanna building in the district of Howrah, adjacent to the state capital. The Calcutta High Court is located in Kolkata, which has jurisdiction over the whole of West Bengal and the Union Territory of Andaman and Nicobar Islands.\nThe present Legislative Assembly of West Bengal is unicameral, consisting of 294 Member of the Legislative Assembly (MLA) including one nominated from the Anglo-Indian community. Its term is 5 years, unless sooner dissolved.\nThe current chief minister is Mamata Banerjee, who assumed the office on 20 May 2011. She is the founder and leader of the All India Trinamool Congress party, which won 184 seats (out of 294) in the 2011 West Bengal Legislative Assembly election, 211 seats (out of 294) in the 2016 West Bengal Legislative Assembly election and 215 seats (out of 294) in the 2021 West Bengal Legislative Assembly election.", "biography_author": "Wikidata", "date_of_biography": "2023-08-01T15:03:21.328060+10:00", "external_links": [{"id": 4088, "uri": "https://en.wikipedia.org/wiki/Government_of_West_Bengal"}], "uuid": "b9b929f4-5e1b-4b22-91db-3df7f6eb6a78", "source": {"name": "Vernon", "slug": "vernon"}, "source_identifier": "8828", "external_references": [{"id": 26952, "source": {"name": "Wikidata", "slug": "wikidata"}, "source_identifier": "Q5589345"}, {"id": 28724, "source": {"name": "VIAF", "slug": "viaf"}, "source_identifier": "131671363"}, {"id": 28725, "source": {"name": "LOC Auth", "slug": "loc-auth"}, "source_identifier": "no99001871"}, {"id": 28726, "source": {"name": "WorldCat", "slug": "worldcat"}, "source_identifier": "lccn-no99001871"}], "date_modified": "2023-09-05T20:18:04.993309+10:00"}, {"id": 25685, "name": "Foreign Film Productions", "roles_in_work": [{"id": 2185703, "title": "Paisa", "work_id": 83587, "role": "production company", "role_id": 941, "is_primary": true}], "also_known_as": "", "date_of_birth": "", "date_of_death": "", "genders": [], "languages": [], "places_of_operation": [], "biography": "", "biography_author": null, "date_of_biography": "2023-05-09T15:00:41.494881+10:00", "external_links": [], "uuid": "3e10c277-a855-4e87-932a-85d1fbe22e35", "source": {"name": "Vernon", "slug": "vernon"}, "source_identifier": "8436", "external_references": [{"id": 35035, "source": {"name": "Wikidata", "slug": "wikidata"}, "source_identifier": "Q121035681"}], "date_modified": "2023-09-05T19:45:07.511208+10:00"}, {"id": 25684, "name": "Organizzazione Film Internazionali", "roles_in_work": [{"id": 2185700, "title": "Paisa", "work_id": 83587, "role": "production company", "role_id": 941, "is_primary": true}], "also_known_as": "", "date_of_birth": "", "date_of_death": "", "genders": [], "languages": [], "places_of_operation": [], "biography": "", "biography_author": null, "date_of_biography": "2023-05-09T15:00:41.262637+10:00", "external_links": [], "uuid": "c2402267-a9ec-4072-a6db-59661d18d3bd", "source": {"name": "Vernon", "slug": "vernon"}, "source_identifier": "4748", "external_references": [{"id": 36868, "source": {"name": "Wikidata", "slug": "wikidata"}, "source_identifier": "Q121091330"}], "date_modified": "2023-09-05T23:37:30.284715+10:00"}, {"id": 25682, "name": "Janus Film", "roles_in_work": [{"id": 2101838, "title": "Ashes and diamonds = Popiol i diament", "work_id": 86297, "role": "production company", "role_id": 941, "is_primary": true}, {"id": 2614367, "title": "The Marquise of O... = Die Marquise von O...", "work_id": 83586, "role": "production company", "role_id": 941, "is_primary": true}], "also_known_as": "", "date_of_birth": "", "date_of_death": "", "genders": [], "languages": [], "places_of_operation": [], "biography": "Janus Films is an American film distribution company. The distributor is credited with introducing numerous films, now considered masterpieces of world cinema, to American audiences, including the films of Michelangelo Antonioni, Sergei Eisenstein, Ingmar Bergman, Federico Fellini, Akira Kurosawa, Satyajit Ray, François Truffaut, Yasujirō Ozu and many other well-regarded directors. Ingmar Bergman's The Seventh Seal (1957) was the film responsible for the company's initial growth.Janus has a close business relationship with The Criterion Collection regarding the release of its films on DVD and Blu-ray and is still an active theatrical distributor.\nThe company's name and logo come from Janus, the two-faced Roman god of transitions, passages, beginnings, and endings.", "biography_author": "Wikidata", "date_of_biography": "2023-09-05T21:09:10.993432+10:00", "external_links": [{"id": 5897, "uri": "https://en.wikipedia.org/wiki/Janus_Films"}], "uuid": "de69e439-29ae-4974-bcfe-f7b1371abdd6", "source": {"name": "Vernon", "slug": "vernon"}, "source_identifier": "9553", "external_references": [{"id": 42943, "source": {"name": "Wikidata", "slug": "wikidata"}, "source_identifier": "Q6155948"}, {"id": 54768, "source": {"name": "VIAF", "slug": "viaf"}, "source_identifier": "158285804"}, {"id": 54769, "source": {"name": "LOC Auth", "slug": "loc-auth"}, "source_identifier": "n81074742"}, {"id": 54770, "source": {"name": "WorldCat", "slug": "worldcat"}, "source_identifier": "lccn-n81074742"}], "date_modified": "2025-02-26T20:10:01.708175+11:00"}, {"id": 25675, "name": "Masaichi Nagata", "roles_in_work": [{"id": 1816582, "title": "Yokihi = Princess Yang Kwei Fei", "work_id": 115677, "role": "producer", "role_id": 1089, "is_primary": true}, {"id": 1993551, "title": "Tales of the Taira Clan = Shin heiki monogatari", "work_id": 89234, "role": "producer", "role_id": 1089, "is_primary": true}, {"id": 1816604, "title": "Yukinojo henge = An Actor's revenge", "work_id": 115719, "role": "producer", "role_id": 1089, "is_primary": true}, {"id": 1806550, "title": "Sisters of Gion = Gion no shimai [NTSC]", "work_id": 87541, "role": "producer", "role_id": 1089, "is_primary": true}, {"id": 2088538, "title": "An Actor's revenge", "work_id": 83581, "role": "producer", "role_id": 1089, "is_primary": true}, {"id": 2262704, "title": "Sansho Dayu = Sansho the bailiff", "work_id": 87498, "role": "producer", "role_id": 1089, "is_primary": true}, {"id": 2293761, "title": "Ugetsu Monogatari = Tales of the pale and silvery moon after the rain", "work_id": 87474, "role": "producer", "role_id": 1089, "is_primary": true}, {"id": 1991791, "title": "Street of shame = Akasen chitai [NTSC]", "work_id": 87480, "role": "producer", "role_id": 1089, "is_primary": true}, {"id": 2650523, "title": "Shin heike Monogatari = Tales of the Taira", "work_id": 115725, "role": "producer", "role_id": 1089, "is_primary": true}], "also_known_as": "", "date_of_birth": "21 JAN 1906", "date_of_death": "24 OCT 1985", "genders": [{"id": 9, "name": "Male", "slug": "male"}], "languages": [], "places_of_operation": [{"id": 8, "name": "Japan", "slug": "japan"}], "biography": "Masaichi Nagata (永田 雅一, Nagata Masaichi, 21 January 1906 – 24 October 1985) was a Japanese businessman and served as president of Daiei Film. The self-proclaimed creator of Gamera, he produced the kaiju's second film Gamera vs. Barugon, with the remainder of the Showa Gamera films produced instead by his son Hidemasa Nagata. Source: Wikidata; 01/08/2023", "biography_author": null, "date_of_biography": "2025-03-05T14:20:51.946213+11:00", "external_links": [{"id": 4645, "uri": "https://en.wikipedia.org/wiki/Masaichi_Nagata"}], "uuid": "e65bb309-6044-480f-9f76-f1849a75d65f", "source": {"name": "Vernon", "slug": "vernon"}, "source_identifier": "24747", "external_references": [{"id": 25111, "source": {"name": "Wikidata", "slug": "wikidata"}, "source_identifier": "Q6782400"}, {"id": 30192, "source": {"name": "VIAF", "slug": "viaf"}, "source_identifier": "68783205"}, {"id": 30193, "source": {"name": "LOC Auth", "slug": "loc-auth"}, "source_identifier": "nr91012270"}, {"id": 30194, "source": {"name": "WorldCat", "slug": "worldcat"}, "source_identifier": "lccn-nr91012270"}], "date_modified": "2025-03-05T14:20:51.946468+11:00"}]}