{"count": 28687, "next": "https://api.acmi.net.au/creators/?page=1216", "previous": "https://api.acmi.net.au/creators/?page=1214", "results": [{"id": 73197, "name": "Sarah Ransome", "roles_in_work": [{"id": 2618604, "title": "Making Chunky Move: C.O.R.R.U.P.T.E.D. 2", "work_id": 107994, "role": "designer", "role_id": 495, "is_primary": false}], "also_known_as": "", "date_of_birth": "", "date_of_death": "", "genders": [], "languages": [], "places_of_operation": [], "biography": "", "biography_author": null, "date_of_biography": "2023-08-30T22:35:04.118369+10:00", "external_links": [], "uuid": "dd1b8010-cd4e-4fbc-87c8-2b0d830abf90", "source": {"name": "Vernon", "slug": "vernon"}, "source_identifier": "110082", "external_references": [], "date_modified": "2025-02-26T22:55:12.141080+11:00"}, {"id": 73196, "name": "Peter Rasmussen", "roles_in_work": [{"id": 906523, "title": "The Picture woman", "work_id": 87244, "role": "director", "role_id": 938, "is_primary": true}, {"id": 2675335, "title": "Shoppingtown", "work_id": 107993, "role": "photographer", "role_id": 440, "is_primary": false}], "also_known_as": "", "date_of_birth": null, "date_of_death": null, "genders": [{"id": 9, "name": "Male", "slug": "male"}], "languages": [], "places_of_operation": [], "biography": "Peter Kokholm Rasmussen (1956–2008) was an Australian screenplay writer and machinima producer. Rasmussen was a leader in machinima production and development.He is perhaps best known for the feature-length 2007 machinima film Stolen Life. Stolen Life won Best Picture, Best Visual Design, and Best Direction at the 2007 European Machinima Festival, as well as other international awards. Rasmussen is credited as producer and writer for the film.Before becoming a filmmaker, Rasmussen was a cinematographer. He had a congenital eye disease however, which cut his cinematography career short.Rasmussen's writing credits include In the Winter Dark, The Picture Woman, and Mad Bomber in Love, in addition to Stolen Life.In 2009 the Sydney Film Festival launched the Peter Rasmussen Innovation Award for work described as fringe, maverick, or innovative. Source: Wikidata; 01/08/2023", "biography_author": null, "date_of_biography": "2025-03-06T22:40:33.436875+11:00", "external_links": [{"id": 4889, "uri": "https://en.wikipedia.org/wiki/Peter_Rasmussen_(filmmaker)"}], "uuid": "880547a0-e3ae-43a5-8a8c-aa6c2b65e6b1", "source": {"name": "Vernon", "slug": "vernon"}, "source_identifier": "110076", "external_references": [{"id": 26679, "source": {"name": "Wikidata", "slug": "wikidata"}, "source_identifier": "Q7176534"}], "date_modified": "2025-03-06T22:40:33.437081+11:00"}, {"id": 73195, "name": "David White", "roles_in_work": [{"id": 2675334, "title": "Shoppingtown", "work_id": 107993, "role": "sound", "role_id": 952, "is_primary": false}], "also_known_as": "", "date_of_birth": "", "date_of_death": "", "genders": [], "languages": [], "places_of_operation": [], "biography": "", "biography_author": null, "date_of_biography": "2023-05-09T18:31:36.342600+10:00", "external_links": [], "uuid": "33991384-9b6d-4780-9887-f06763384483", "source": {"name": "Vernon", "slug": "vernon"}, "source_identifier": "110074", "external_references": [], "date_modified": "2025-03-06T22:40:32.837046+11:00"}, {"id": 73194, "name": "Peter Leovic", "roles_in_work": [{"id": 2675333, "title": "Shoppingtown", "work_id": 107993, "role": "editor", "role_id": 918, "is_primary": true}], "also_known_as": "", "date_of_birth": "", "date_of_death": "", "genders": [], "languages": [], "places_of_operation": [], "biography": "", "biography_author": null, "date_of_biography": "2023-05-09T18:31:36.068203+10:00", "external_links": [], "uuid": "ae0fe8af-d1db-4958-8da7-7e6a902609c2", "source": {"name": "Vernon", "slug": "vernon"}, "source_identifier": "110075", "external_references": [{"id": 32411, "source": {"name": "Wikidata", "slug": "wikidata"}, "source_identifier": "Q121315332"}], "date_modified": "2025-03-06T22:40:32.235968+11:00"}, {"id": 73193, "name": "Armin Schminkl", "roles_in_work": [{"id": 2675325, "title": "[Musterrolle: a compilation of short films by Peter Tscherkassky]", "work_id": 107988, "role": "composer", "role_id": 538, "is_primary": false}], "also_known_as": "", "date_of_birth": "", "date_of_death": "", "genders": [], "languages": [], "places_of_operation": [], "biography": "", "biography_author": null, "date_of_biography": "2023-05-09T10:53:13.694442+10:00", "external_links": [], "uuid": "98df742e-5f48-4b21-8acb-68d42b393ea0", "source": {"name": "Vernon", "slug": "vernon"}, "source_identifier": "110256", "external_references": [], "date_modified": "2025-03-06T22:40:23.124230+11:00"}, {"id": 73192, "name": "Wexner Centre Media Arts Program", "roles_in_work": [{"id": 2632972, "title": "Fire of time", "work_id": 107974, "role": "support", "role_id": 492, "is_primary": false}], "also_known_as": "", "date_of_birth": "", "date_of_death": "", "genders": [], "languages": [], "places_of_operation": [], "biography": "", "biography_author": null, "date_of_biography": "2023-05-09T16:53:44.688202+10:00", "external_links": [], "uuid": "60c64fd7-decd-40fc-b4e7-d46f587621dd", "source": {"name": "Vernon", "slug": "vernon"}, "source_identifier": "110494", "external_references": [], "date_modified": "2025-02-28T22:35:14.631140+11:00"}, {"id": 73191, "name": "Andre Cruz", "roles_in_work": [{"id": 2632971, "title": "Fire of time", "work_id": 107974, "role": "assistant", "role_id": 450, "is_primary": false}], "also_known_as": "", "date_of_birth": "", "date_of_death": "", "genders": [], "languages": [], "places_of_operation": [], "biography": "", "biography_author": null, "date_of_biography": "2023-05-09T16:53:44.439032+10:00", "external_links": [], "uuid": "ba29943d-32e7-4fd9-beed-82d73d2713ea", "source": {"name": "Vernon", "slug": "vernon"}, "source_identifier": "110279", "external_references": [], "date_modified": "2025-02-28T22:35:14.050877+11:00"}, {"id": 73190, "name": "Montse Pujantell", "roles_in_work": [{"id": 2632970, "title": "Fire of time", "work_id": 107974, "role": "assistant", "role_id": 450, "is_primary": false}], "also_known_as": "", "date_of_birth": "", "date_of_death": "", "genders": [], "languages": [], "places_of_operation": [], "biography": "", "biography_author": null, "date_of_biography": "2023-05-09T16:53:44.212759+10:00", "external_links": [], "uuid": "b8426511-2530-4b33-b17f-e80fe1ca1487", "source": {"name": "Vernon", "slug": "vernon"}, "source_identifier": "110278", "external_references": [], "date_modified": "2025-02-28T22:35:13.462650+11:00"}, {"id": 73189, "name": "Oriol Puig Magrina", "roles_in_work": [{"id": 2632969, "title": "Fire of time", "work_id": 107974, "role": "assistant", "role_id": 450, "is_primary": false}], "also_known_as": "", "date_of_birth": "", "date_of_death": "", "genders": [], "languages": [], "places_of_operation": [], "biography": "", "biography_author": null, "date_of_biography": "2023-05-09T16:53:43.971816+10:00", "external_links": [], "uuid": "aa3fddf9-de77-4d63-bd25-194cfb694815", "source": {"name": "Vernon", "slug": "vernon"}, "source_identifier": "110277", "external_references": [], "date_modified": "2025-02-28T22:35:12.878731+11:00"}, {"id": 73188, "name": "Mercer Street Sound, NYC.", "roles_in_work": [{"id": 2632967, "title": "Fire of time", "work_id": 107974, "role": "sound designer", "role_id": 927, "is_primary": false}, {"id": 2747972, "title": "Rev", "work_id": 113984, "role": "sound engineer", "role_id": 953, "is_primary": false}], "also_known_as": "", "date_of_birth": "", "date_of_death": "", "genders": [], "languages": [], "places_of_operation": [], "biography": "", "biography_author": null, "date_of_biography": "2023-05-09T17:09:24.776299+10:00", "external_links": [], "uuid": "be009f09-4bb5-4a52-877f-3ed1a69973f4", "source": {"name": "Vernon", "slug": "vernon"}, "source_identifier": "110491", "external_references": [], "date_modified": "2025-03-12T22:43:38.292373+11:00"}]}