{"count": 28687, "next": "https://api.acmi.net.au/creators/?page=2077", "previous": "https://api.acmi.net.au/creators/?page=2075", "results": [{"id": 21046, "name": "John Matthews", "roles_in_work": [{"id": 766307, "title": "Curious George", "work_id": 78112, "role": "director", "role_id": 938, "is_primary": true}, {"id": 2150038, "title": "Curious George. Curious George goes to the hospital", "work_id": 78209, "role": "director", "role_id": 938, "is_primary": true}], "also_known_as": "", "date_of_birth": "", "date_of_death": "", "genders": [], "languages": [], "places_of_operation": [], "biography": "", "biography_author": null, "date_of_biography": "2023-05-09T13:51:17.866782+10:00", "external_links": [], "uuid": "d4f2efd8-5ae7-4114-bd75-f577690e2c63", "source": {"name": "Vernon", "slug": "vernon"}, "source_identifier": "22397", "external_references": [{"id": 34161, "source": {"name": "Wikidata", "slug": "wikidata"}, "source_identifier": "Q121298818"}], "date_modified": "2023-09-05T21:41:22.075551+10:00"}, {"id": 21043, "name": "Channel 0-28", "roles_in_work": [{"id": 766290, "title": "Valley of Hope", "work_id": 78108, "role": "production company", "role_id": 941, "is_primary": true}, {"id": 2774800, "title": "Up for grabs", "work_id": 81740, "role": "production company", "role_id": 941, "is_primary": true}, {"id": 2778731, "title": "The Emergency situation in Africa. Valley of hope", "work_id": 81890, "role": "production company", "role_id": 941, "is_primary": true}, {"id": 2778849, "title": "Rosemary Agostino in Italy; Angela Sarantis in Greece", "work_id": 81930, "role": "production company", "role_id": 941, "is_primary": true}, {"id": 2778846, "title": "Through Australian eyes", "work_id": 115230, "role": "production company", "role_id": 941, "is_primary": true}, {"id": 2187699, "title": "Desert stories", "work_id": 82176, "role": "production company", "role_id": 941, "is_primary": true}, {"id": 2164788, "title": "No Fixed Address: on tour", "work_id": 80765, "role": "production company", "role_id": 941, "is_primary": true}], "also_known_as": "", "date_of_birth": "", "date_of_death": "", "genders": [], "languages": [], "places_of_operation": [], "biography": "", "biography_author": null, "date_of_biography": "2023-07-19T03:40:15.562008+10:00", "external_links": [], "uuid": "2024324b-f01e-413a-9bf0-be448116130e", "source": {"name": "Vernon", "slug": "vernon"}, "source_identifier": "6491", "external_references": [{"id": 43186, "source": {"name": "Wikidata", "slug": "wikidata"}, "source_identifier": "Q121078868"}], "date_modified": "2025-03-14T19:01:42.947093+11:00"}, {"id": 21040, "name": "John Dovey", "roles_in_work": [{"id": 2123278, "title": "Boys will be boys", "work_id": 92026, "role": "co-director", "role_id": 959, "is_primary": true}, {"id": 2123282, "title": "Boys will be boys (TEFC)", "work_id": 78104, "role": "co-director", "role_id": 959, "is_primary": true}, {"id": 2123279, "title": "Boys will be boys (TEFC)", "work_id": 78104, "role": "producer", "role_id": 1089, "is_primary": true}, {"id": 2123273, "title": "Boys will be boys", "work_id": 92026, "role": "producer", "role_id": 1089, "is_primary": true}], "also_known_as": "", "date_of_birth": "", "date_of_death": "", "genders": [], "languages": [], "places_of_operation": [], "biography": "", "biography_author": null, "date_of_biography": "2023-05-09T13:06:56.589868+10:00", "external_links": [], "uuid": "354d987f-034c-4499-a3ac-2e059d33e4dc", "source": {"name": "Vernon", "slug": "vernon"}, "source_identifier": "22220", "external_references": [{"id": 38429, "source": {"name": "Wikidata", "slug": "wikidata"}, "source_identifier": "Q121270884"}], "date_modified": "2023-09-05T21:35:02.075702+10:00"}, {"id": 21039, "name": "Equal Opportunity Resource Unit", "roles_in_work": [{"id": 2123275, "title": "Boys will be boys (TEFC)", "work_id": 78104, "role": "production company", "role_id": 941, "is_primary": true}], "also_known_as": "", "date_of_birth": "", "date_of_death": "", "genders": [], "languages": [], "places_of_operation": [], "biography": "", "biography_author": null, "date_of_biography": "2023-05-09T13:06:56.112663+10:00", "external_links": [], "uuid": "e017ec34-7432-44b8-af12-8ad02dcabb02", "source": {"name": "Vernon", "slug": "vernon"}, "source_identifier": "7938", "external_references": [{"id": 39754, "source": {"name": "Wikidata", "slug": "wikidata"}, "source_identifier": "Q121126968"}], "date_modified": "2023-09-05T19:33:47.554394+10:00"}, {"id": 21038, "name": "Del Peterson", "roles_in_work": [{"id": 2407279, "title": "Everyday people (TEFC)", "work_id": 78102, "role": "director", "role_id": 938, "is_primary": true}], "also_known_as": "", "date_of_birth": "", "date_of_death": "", "genders": [], "languages": [], "places_of_operation": [], "biography": "", "biography_author": null, "date_of_biography": "2023-08-11T16:33:03.374309+10:00", "external_links": [], "uuid": "f91b9a31-865c-4cbd-bb96-54691f5b061b", "source": {"name": "Vernon", "slug": "vernon"}, "source_identifier": "17939", "external_references": [], "date_modified": "2023-08-11T16:33:03.374541+10:00"}, {"id": 21037, "name": "Dan Peterson", "roles_in_work": [{"id": 2407278, "title": "Everyday people (TEFC)", "work_id": 78102, "role": "producer", "role_id": 1089, "is_primary": true}], "also_known_as": "", "date_of_birth": "", "date_of_death": "", "genders": [], "languages": [], "places_of_operation": [], "biography": "", "biography_author": null, "date_of_biography": "2023-08-11T16:33:02.758573+10:00", "external_links": [], "uuid": "f98def6b-241e-4a28-bd06-a748208cd461", "source": {"name": "Vernon", "slug": "vernon"}, "source_identifier": "17355", "external_references": [], "date_modified": "2023-08-11T16:33:02.758812+10:00"}, {"id": 21036, "name": "WHA-TV Channel 21, University of Wisconsin", "roles_in_work": [{"id": 2407277, "title": "Everyday people (TEFC)", "work_id": 78102, "role": "production company", "role_id": 941, "is_primary": true}], "also_known_as": "", "date_of_birth": "", "date_of_death": "", "genders": [], "languages": [], "places_of_operation": [], "biography": "", "biography_author": null, "date_of_biography": "2023-08-11T16:33:02.144319+10:00", "external_links": [], "uuid": "dfa67cf4-f6c4-4d0b-9a8e-c4a05a975f4c", "source": {"name": "Vernon", "slug": "vernon"}, "source_identifier": "14337", "external_references": [], "date_modified": "2023-08-11T16:33:02.144553+10:00"}, {"id": 21034, "name": "Latrobe University. School of Education. Media Centre", "roles_in_work": [{"id": 2752825, "title": "Reading together", "work_id": 98476, "role": "production company", "role_id": 941, "is_primary": true}, {"id": 766249, "title": "Thomastown (TEFC)", "work_id": 78097, "role": "production company", "role_id": 941, "is_primary": true}, {"id": 2398453, "title": "Aboriginal bark painting", "work_id": 82177, "role": "production company", "role_id": 941, "is_primary": true}], "also_known_as": "", "date_of_birth": "", "date_of_death": "", "genders": [], "languages": [], "places_of_operation": [], "biography": "", "biography_author": null, "date_of_biography": "2023-08-11T13:24:36.207527+10:00", "external_links": [], "uuid": "8acf9bfe-0c61-48d3-9c2b-e29439800946", "source": {"name": "Vernon", "slug": "vernon"}, "source_identifier": "12331", "external_references": [], "date_modified": "2025-03-13T01:12:33.552851+11:00"}, {"id": 21033, "name": "Phil Ashby", "roles_in_work": [{"id": 2763674, "title": "Sound in View (TEFC)", "work_id": 78094, "role": "producer", "role_id": 1089, "is_primary": true}], "also_known_as": "", "date_of_birth": "", "date_of_death": "", "genders": [], "languages": [], "places_of_operation": [], "biography": "", "biography_author": null, "date_of_biography": "2023-08-14T10:46:59.817673+10:00", "external_links": [], "uuid": "b881157b-0481-4dcb-92fa-7059a0af838c", "source": {"name": "Vernon", "slug": "vernon"}, "source_identifier": "26773", "external_references": [], "date_modified": "2025-03-14T17:43:07.483569+11:00"}, {"id": 21027, "name": "Alan Yentob", "roles_in_work": [{"id": 898055, "title": "Burroughs", "work_id": 78083, "role": "co-producer", "role_id": 915, "is_primary": true}, {"id": 1812883, "title": "The Catherine Wheel", "work_id": 79603, "role": "producer", "role_id": 1089, "is_primary": true}, {"id": 1805228, "title": "True Confessions of an Albino Terrorist", "work_id": 78261, "role": "producer", "role_id": 1089, "is_primary": true}], "also_known_as": "", "date_of_birth": "1947-03-11", "date_of_death": null, "genders": [{"id": 9, "name": "Male", "slug": "male"}], "languages": [{"id": 1, "name": "English", "slug": "english"}], "places_of_operation": [{"id": 10, "name": "United Kingdom", "slug": "united-kingdom"}], "biography": "Alan Yentob (born 11 March 1947) is a BBC presenter and retired British television executive. He stepped down as Creative Director in December 2015, and was chairman of the board of trustees of the charity Kids Company from 2003 until its collapse in 2015.", "biography_author": "Wikidata", "date_of_biography": "2023-08-01T13:56:15.295409+10:00", "external_links": [{"id": 3504, "uri": "https://en.wikipedia.org/wiki/Alan_Yentob"}], "uuid": "e5cad9ec-cd31-4051-bd39-6f26f8f09665", "source": {"name": "Vernon", "slug": "vernon"}, "source_identifier": "14817", "external_references": [{"id": 26209, "source": {"name": "Wikidata", "slug": "wikidata"}, "source_identifier": "Q4708115"}, {"id": 27138, "source": {"name": "VIAF", "slug": "viaf"}, "source_identifier": "171837958"}, {"id": 27139, "source": {"name": "LOC Auth", "slug": "loc-auth"}, "source_identifier": "no97026516"}, {"id": 27140, "source": {"name": "WorldCat", "slug": "worldcat"}, "source_identifier": "lccn-no97026516"}], "date_modified": "2023-09-13T12:28:02.611208+10:00"}]}