{"count": 28687, "next": "https://api.acmi.net.au/creators/?page=1386", "previous": "https://api.acmi.net.au/creators/?page=1384", "results": [{"id": 37424, "name": "Bruno VeSota", "roles_in_work": [{"id": 2000874, "title": "The Brain eaters", "work_id": 95235, "role": "director", "role_id": 938, "is_primary": true}], "also_known_as": "", "date_of_birth": "1922-03-25", "date_of_death": "1976-09-24", "genders": [{"id": 9, "name": "Male", "slug": "male"}], "languages": [{"id": 1, "name": "English", "slug": "english"}], "places_of_operation": [{"id": 1, "name": "United States of America", "slug": "united-states-of-america"}], "biography": "Bruno William VeSota (March 25, 1922 – September 24, 1976) was an American character actor, director and producer who, between 1945 and 1974, appeared in hundreds of television episodes and over 50 feature films. He is remembered for prominent supporting roles in 15 Roger Corman films as well as for having directed three low-budget features: Female Jungle (1956), The Brain Eaters (Corman as uncredited executive producer, 1958) and Invasion of the Star Creatures (1962).", "biography_author": "Wikidata", "date_of_biography": "2022-05-19T11:00:21.834768+10:00", "external_links": [{"id": 1763, "uri": "https://en.wikipedia.org/wiki/Bruno_VeSota"}], "uuid": "0cf791a5-2099-4c89-be02-7edc9083a71f", "source": {"name": "Vernon", "slug": "vernon"}, "source_identifier": "16351", "external_references": [{"id": 7688, "source": {"name": "Wikidata", "slug": "wikidata"}, "source_identifier": "Q2927011"}, {"id": 7689, "source": {"name": "VIAF", "slug": "viaf"}, "source_identifier": "66124533"}, {"id": 7690, "source": {"name": "LOC Auth", "slug": "loc-auth"}, "source_identifier": "no2001061506"}, {"id": 7691, "source": {"name": "WorldCat", "slug": "worldcat"}, "source_identifier": "lccn-no2001061506"}], "date_modified": "2023-09-13T12:28:35.703376+10:00"}, {"id": 37423, "name": "Edwin Nelson", "roles_in_work": [{"id": 2000873, "title": "The Brain eaters", "work_id": 95235, "role": "producer", "role_id": 1089, "is_primary": true}], "also_known_as": "Edwin Stafford Nelson", "date_of_birth": "1928-12-21", "date_of_death": "2014-08-09", "genders": [{"id": 9, "name": "Male", "slug": "male"}], "languages": [{"id": 1, "name": "English", "slug": "english"}], "places_of_operation": [{"id": 1, "name": "United States of America", "slug": "united-states-of-america"}], "biography": "Edwin Stafford Nelson (December 21, 1928 – August 9, 2014) was an American actor, best known for his role as Dr. Michael Rossi in the television series Peyton Place.\nNelson appeared in episodes of many TV programs, more than 50 movies, and hundreds of stage productions.", "biography_author": "Wikidata", "date_of_biography": "2022-05-19T11:22:42.360704+10:00", "external_links": [{"id": 1987, "uri": "https://en.wikipedia.org/wiki/Ed_Nelson"}], "uuid": "41e1a370-3eb0-4cc0-adac-92ef3728eb3f", "source": {"name": "Vernon", "slug": "vernon"}, "source_identifier": "18644", "external_references": [{"id": 8589, "source": {"name": "Wikidata", "slug": "wikidata"}, "source_identifier": "Q543693"}, {"id": 8590, "source": {"name": "VIAF", "slug": "viaf"}, "source_identifier": "56564057"}, {"id": 8591, "source": {"name": "LOC Auth", "slug": "loc-auth"}, "source_identifier": "nr2005000397"}, {"id": 8592, "source": {"name": "WorldCat", "slug": "worldcat"}, "source_identifier": "lccn-nr2005000397"}], "date_modified": "2023-09-13T12:29:15.316894+10:00"}, {"id": 37421, "name": "Jason Wright", "roles_in_work": [{"id": 2467561, "title": "The Mick Fleetwood story: Two sticks and a drum", "work_id": 95234, "role": "co-director", "role_id": 959, "is_primary": true}, {"id": 2467559, "title": "The Mick Fleetwood story: Two sticks and a drum", "work_id": 95234, "role": "producer", "role_id": 1089, "is_primary": true}], "also_known_as": "", "date_of_birth": "", "date_of_death": "", "genders": [], "languages": [], "places_of_operation": [], "biography": "", "biography_author": null, "date_of_biography": "2023-08-14T11:22:44.320392+10:00", "external_links": [], "uuid": "ecea85f0-ff71-4d66-ab33-5860ea5bb0ff", "source": {"name": "Vernon", "slug": "vernon"}, "source_identifier": "21499", "external_references": [], "date_modified": "2023-08-14T11:22:44.320620+10:00"}, {"id": 37420, "name": "Creatvty", "roles_in_work": [{"id": 2467558, "title": "The Mick Fleetwood story: Two sticks and a drum", "work_id": 95234, "role": "production company", "role_id": 941, "is_primary": true}], "also_known_as": "", "date_of_birth": "", "date_of_death": "", "genders": [], "languages": [], "places_of_operation": [], "biography": "", "biography_author": null, "date_of_biography": "2023-08-14T11:22:42.429614+10:00", "external_links": [], "uuid": "0b1f8904-cae5-4a9e-b829-c195e5139206", "source": {"name": "Vernon", "slug": "vernon"}, "source_identifier": "7172", "external_references": [], "date_modified": "2023-08-14T11:22:42.429858+10:00"}, {"id": 37419, "name": "David Fishof", "roles_in_work": [{"id": 2467590, "title": "The Monkees Live Summer Tour", "work_id": 95233, "role": "producer", "role_id": 1089, "is_primary": true}], "also_known_as": "", "date_of_birth": "", "date_of_death": "", "genders": [], "languages": [], "places_of_operation": [], "biography": "", "biography_author": null, "date_of_biography": "2023-08-14T11:23:29.304024+10:00", "external_links": [], "uuid": "4eed4c6a-6ee6-48b0-a6ad-95fd8b5e7dca", "source": {"name": "Vernon", "slug": "vernon"}, "source_identifier": "17576", "external_references": [], "date_modified": "2023-08-14T11:23:29.304258+10:00"}, {"id": 37418, "name": "Win Media Corp", "roles_in_work": [{"id": 2467589, "title": "The Monkees Live Summer Tour", "work_id": 95233, "role": "production company", "role_id": 941, "is_primary": true}], "also_known_as": "", "date_of_birth": "", "date_of_death": "", "genders": [], "languages": [], "places_of_operation": [], "biography": "", "biography_author": null, "date_of_biography": "2023-08-14T11:23:28.692303+10:00", "external_links": [], "uuid": "7d6c9563-d1e5-442c-9778-a1dde63662b3", "source": {"name": "Vernon", "slug": "vernon"}, "source_identifier": "14384", "external_references": [], "date_modified": "2023-08-14T11:23:28.692512+10:00"}, {"id": 37412, "name": "Spear Productions", "roles_in_work": [{"id": 2129031, "title": "Camille 2000", "work_id": 95218, "role": "production company", "role_id": 941, "is_primary": true}], "also_known_as": "", "date_of_birth": "", "date_of_death": "", "genders": [], "languages": [], "places_of_operation": [], "biography": "", "biography_author": null, "date_of_biography": "2023-05-09T13:16:15.217984+10:00", "external_links": [], "uuid": "5556d7b5-11f8-433b-9563-c39debff9ddd", "source": {"name": "Vernon", "slug": "vernon"}, "source_identifier": "12829", "external_references": [{"id": 40302, "source": {"name": "Wikidata", "slug": "wikidata"}, "source_identifier": "Q121270663"}], "date_modified": "2023-09-06T01:24:54.092870+10:00"}, {"id": 37411, "name": "Radley Metzger", "roles_in_work": [{"id": 2000857, "title": "The Lickerish quartet", "work_id": 95217, "role": "producer/director", "role_id": 31, "is_primary": true}, {"id": 2263900, "title": "Score", "work_id": 95219, "role": "producer/director", "role_id": 31, "is_primary": true}, {"id": 2129034, "title": "Camille 2000", "work_id": 95218, "role": "producer/director", "role_id": 31, "is_primary": true}, {"id": 2000856, "title": "The Lickerish quartet", "work_id": 95217, "role": "production company", "role_id": 941, "is_primary": true}], "also_known_as": "", "date_of_birth": "1929-01-21", "date_of_death": "2017-03-31", "genders": [{"id": 9, "name": "Male", "slug": "male"}], "languages": [{"id": 1, "name": "English", "slug": "english"}], "places_of_operation": [{"id": 1, "name": "United States of America", "slug": "united-states-of-america"}], "biography": "Radley Metzger (also known as Radley Henry Metzger, Radley H. Metzger and by the pseudonyms, \"Jake Barnes\", \"Erich Farina\" and \"Henry Paris\") (January 21, 1929 – March 31, 2017) was an American pioneering filmmaker and film distributor, most noted for popular artistic, adult-oriented films, including Thérèse and Isabelle (1968), Camille 2000 (1969), The Lickerish Quartet (1970), Score (1974), The Private Afternoons of Pamela Mann (1974), The Image (1975), The Opening of Misty Beethoven (1976) and Barbara Broadcast (1977). According to one film reviewer, Metzger's films, including those made during the Golden Age of Porn (1969–1984), are noted for their \"lavish design, witty screenplays, and a penchant for the unusual camera angle\". Another reviewer noted that his films were \"highly artistic — and often cerebral ... and often featured gorgeous cinematography\". Film and audio works by Metzger have been added to the permanent collection of the Museum of Modern Art (MoMA) in New York City.", "biography_author": "Wikidata", "date_of_biography": "2022-05-19T12:46:17.921864+10:00", "external_links": [{"id": 2899, "uri": "https://en.wikipedia.org/wiki/Radley_Metzger"}], "uuid": "67ff3242-f6ec-4fdc-8729-bd9403e8d451", "source": {"name": "Vernon", "slug": "vernon"}, "source_identifier": "27057", "external_references": [{"id": 12328, "source": {"name": "Wikidata", "slug": "wikidata"}, "source_identifier": "Q343888"}, {"id": 12329, "source": {"name": "VIAF", "slug": "viaf"}, "source_identifier": "11928886"}, {"id": 12330, "source": {"name": "LOC Auth", "slug": "loc-auth"}, "source_identifier": "no98107762"}, {"id": 12331, "source": {"name": "WorldCat", "slug": "worldcat"}, "source_identifier": "lccn-no98107762"}], "date_modified": "2023-09-13T12:32:05.607634+10:00"}, {"id": 37410, "name": "Audubon Films", "roles_in_work": [{"id": 2000855, "title": "The Lickerish quartet", "work_id": 95217, "role": "production company", "role_id": 941, "is_primary": true}, {"id": 2263896, "title": "Score", "work_id": 95219, "role": "production company", "role_id": 941, "is_primary": true}, {"id": 2129026, "title": "Camille 2000", "work_id": 95218, "role": "production company", "role_id": 941, "is_primary": true}], "also_known_as": "", "date_of_birth": "", "date_of_death": "", "genders": [], "languages": [], "places_of_operation": [], "biography": "", "biography_author": null, "date_of_biography": "2023-05-09T17:32:59.507728+10:00", "external_links": [], "uuid": "f0dc8c33-954c-4828-971d-940fd5e5d5fe", "source": {"name": "Vernon", "slug": "vernon"}, "source_identifier": "5538", "external_references": [], "date_modified": "2023-06-14T16:33:30.576250+10:00"}, {"id": 37409, "name": "Vulcan Film (UK)", "roles_in_work": [{"id": 2337464, "title": "The City of the dead = Horror hotel", "work_id": 95216, "role": "production company", "role_id": 941, "is_primary": true}], "also_known_as": "", "date_of_birth": "", "date_of_death": "", "genders": [], "languages": [], "places_of_operation": [], "biography": "", "biography_author": null, "date_of_biography": "2023-05-09T19:34:12.508939+10:00", "external_links": [], "uuid": "1f95bb1e-2b4e-49c4-9199-ca98c391a9fc", "source": {"name": "Vernon", "slug": "vernon"}, "source_identifier": "14207", "external_references": [{"id": 32598, "source": {"name": "Wikidata", "slug": "wikidata"}, "source_identifier": "Q121299180"}], "date_modified": "2023-09-06T02:09:14.948680+10:00"}]}