{"count": 28687, "next": "https://api.acmi.net.au/creators/?page=432", "previous": "https://api.acmi.net.au/creators/?page=430", "results": [{"id": 81273, "name": "Chris Mould", "roles_in_work": [{"id": 930771, "title": "The Lost James Brown tapes", "work_id": 95238, "role": "co-producer", "role_id": 915, "is_primary": true}], "also_known_as": "", "date_of_birth": null, "date_of_death": null, "genders": [], "languages": [], "places_of_operation": [], "biography": "", "biography_author": null, "date_of_biography": null, "external_links": [], "uuid": "2cc41a19-9b9a-4d92-a037-c7423a7ef290", "source": {"name": "Vernon", "slug": "vernon"}, "source_identifier": null, "external_references": [{"id": 40027, "source": {"name": "Wikidata", "slug": "wikidata"}, "source_identifier": "Q121091063"}], "date_modified": "2023-09-05T18:32:44.187297+10:00"}, {"id": 81272, "name": "Ara Chekmayan", "roles_in_work": [{"id": 2407743, "title": "Forever James Dean", "work_id": 95236, "role": "producer/director", "role_id": 31, "is_primary": true}], "also_known_as": "", "date_of_birth": null, "date_of_death": "", "genders": [{"id": 9, "name": "Male", "slug": "male"}], "languages": [], "places_of_operation": [], "biography": "", "biography_author": null, "date_of_biography": "2023-08-11T16:44:25.826068+10:00", "external_links": [], "uuid": "c618c92a-f314-4bcb-8895-3bf4e05e9b4e", "source": {"name": "Vernon", "slug": "vernon"}, "source_identifier": "15442", "external_references": [{"id": 42854, "source": {"name": "Wikidata", "slug": "wikidata"}, "source_identifier": "Q22104086"}, {"id": 53980, "source": {"name": "VIAF", "slug": "viaf"}, "source_identifier": "27346882"}, {"id": 53981, "source": {"name": "LOC Auth", "slug": "loc-auth"}, "source_identifier": "no2001069665"}, {"id": 53982, "source": {"name": "WorldCat", "slug": "worldcat"}, "source_identifier": "lccn-no2001069665"}], "date_modified": "2023-09-05T17:43:20.713785+10:00"}, {"id": 81271, "name": "Richard Journo", "roles_in_work": [{"id": 2467560, "title": "The Mick Fleetwood story: Two sticks and a drum", "work_id": 95234, "role": "co-director", "role_id": 959, "is_primary": true}], "also_known_as": "", "date_of_birth": "", "date_of_death": "", "genders": [], "languages": [], "places_of_operation": [], "biography": "", "biography_author": null, "date_of_biography": "2023-08-14T11:22:43.695743+10:00", "external_links": [], "uuid": "b2cc85b1-46a1-4efe-b1e5-c0c16ae96088", "source": {"name": "Vernon", "slug": "vernon"}, "source_identifier": "27425", "external_references": [{"id": 43534, "source": {"name": "Wikidata", "slug": "wikidata"}, "source_identifier": "Q121036691"}], "date_modified": "2023-09-06T00:30:08.318472+10:00"}, {"id": 81270, "name": "John Edington", "roles_in_work": [{"id": 930756, "title": "The Pink Floyd and Syd Barrett story", "work_id": 95231, "role": "producer/director", "role_id": 31, "is_primary": true}], "also_known_as": "", "date_of_birth": null, "date_of_death": null, "genders": [], "languages": [], "places_of_operation": [], "biography": "", "biography_author": null, "date_of_biography": null, "external_links": [], "uuid": "3a9c574c-6a18-43d8-93da-8a965b5f19e0", "source": {"name": "Vernon", "slug": "vernon"}, "source_identifier": null, "external_references": [], "date_modified": "2023-06-14T16:33:30.576250+10:00"}, {"id": 81269, "name": "Charles Barton", "roles_in_work": [{"id": 2000871, "title": "The Shaggy dog", "work_id": 95230, "role": "director", "role_id": 938, "is_primary": true}, {"id": 2750658, "title": "Peter Tchaikovsky Story", "work_id": 97440, "role": "director", "role_id": 938, "is_primary": true}], "also_known_as": "", "date_of_birth": "25 MAY 1902", "date_of_death": "05 DEC 1981", "genders": [{"id": 9, "name": "Male", "slug": "male"}], "languages": [{"id": 1, "name": "English", "slug": "english"}], "places_of_operation": [{"id": 1, "name": "United States of America", "slug": "united-states-of-america"}], "biography": "Charles Barton (May 25, 1902 – December 5, 1981) was an American film and vaudeville actor and film director. He won an Oscar for best assistant director in 1933. His first film as a director was the Zane Grey feature Wagon Wheels, starring Randolph Scott, in 1934.\n\nBarton worked in Hollywood B-movie units. From 1946, he was a principal director of the Abbott and Costello comedies, such as The Time of Their Lives, Buck Privates Come Home, Abbott and Costello Meet Frankenstein, and Africa Screams. He later directed Walt Disney films such as The Shaggy Dog and Toby Tyler. His extensive work for television included every episode of Amos 'n' Andy in the 1950s, a total of 90 episodes of Dennis the Menace in the 1960s, and 106 episodes of Family Affair from 1967 to 1971. One obituary said he directed 580 television episodes, 70 feature films and dozens of commercials. Source: Wikidata; 01/08/2023", "biography_author": null, "date_of_biography": "2025-03-13T00:26:52.428484+11:00", "external_links": [{"id": 3731, "uri": "https://en.wikipedia.org/wiki/Charles_Barton_(director)"}], "uuid": "47e78138-8299-4959-b54e-49134c3b2701", "source": {"name": "Vernon", "slug": "vernon"}, "source_identifier": "16654", "external_references": [{"id": 26349, "source": {"name": "Wikidata", "slug": "wikidata"}, "source_identifier": "Q769200"}, {"id": 27739, "source": {"name": "VIAF", "slug": "viaf"}, "source_identifier": "184149106007468490557"}, {"id": 27740, "source": {"name": "LOC Auth", "slug": "loc-auth"}, "source_identifier": "n85376892"}], "date_modified": "2025-03-13T00:26:52.428802+11:00"}, {"id": 81268, "name": "Hideaki Anno", "roles_in_work": [{"id": 3086913, "title": "Neon Genesis Evangelion Collection 0:5. Eps. 15-17", "work_id": 95224, "role": "director", "role_id": 938, "is_primary": true}, {"id": 3086879, "title": "Neon Genesis Evangelion Collection 0:1. Eps. 01-04", "work_id": 95220, "role": "director", "role_id": 938, "is_primary": true}, {"id": 3086887, "title": "Neon Genesis Evangelion Collection 0:2. Eps. 05-08", "work_id": 95221, "role": "director", "role_id": 938, "is_primary": true}, {"id": 3086896, "title": "Neon Genesis Evangelion Collection 0:3. Eps. 09-11", "work_id": 95222, "role": "director", "role_id": 938, "is_primary": true}, {"id": 3086904, "title": "Neon Genesis Evangelion Collection 0:4. Eps 12-14", "work_id": 95223, "role": "director", "role_id": 938, "is_primary": true}, {"id": 3086921, "title": "Neon Genesis Evangelion Collection 0:6 Eps. 18-20", "work_id": 95225, "role": "director", "role_id": 938, "is_primary": true}, {"id": 3086929, "title": "Neon Genesis Evangelion Collection 0:7 Eps. 21-23", "work_id": 95226, "role": "director", "role_id": 938, "is_primary": true}, {"id": 3086938, "title": "Neon Genesis Evangelion Collection 0:8 Eps. 24-26", "work_id": 95227, "role": "director", "role_id": 938, "is_primary": true}, {"id": 3086951, "title": "Neon Genesis Evangelion Collection", "work_id": 115625, "role": "director", "role_id": 938, "is_primary": true}], "also_known_as": "", "date_of_birth": null, "date_of_death": null, "genders": [], "languages": [], "places_of_operation": [], "biography": "", "biography_author": null, "date_of_biography": null, "external_links": [], "uuid": "5a3b0eff-9f7e-48c0-b5e8-da6f804dcedc", "source": {"name": "Vernon", "slug": "vernon"}, "source_identifier": "20543", "external_references": [{"id": 37285, "source": {"name": "Wikidata", "slug": "wikidata"}, "source_identifier": "Q121315278"}], "date_modified": "2025-03-17T10:46:17.526570+11:00"}, {"id": 81267, "name": "Yutaka Sugiyama", "roles_in_work": [{"id": 3086920, "title": "Neon Genesis Evangelion Collection 0:6 Eps. 18-20", "work_id": 95225, "role": "co-producer", "role_id": 915, "is_primary": true}, {"id": 3086895, "title": "Neon Genesis Evangelion Collection 0:3. Eps. 09-11", "work_id": 95222, "role": "co-producer", "role_id": 915, "is_primary": true}, {"id": 3086903, "title": "Neon Genesis Evangelion Collection 0:4. Eps 12-14", "work_id": 95223, "role": "co-producer", "role_id": 915, "is_primary": true}, {"id": 3086949, "title": "Neon Genesis Evangelion Collection", "work_id": 115625, "role": "co-producer", "role_id": 915, "is_primary": true}, {"id": 3086878, "title": "Neon Genesis Evangelion Collection 0:1. Eps. 01-04", "work_id": 95220, "role": "co-producer", "role_id": 915, "is_primary": true}, {"id": 3086886, "title": "Neon Genesis Evangelion Collection 0:2. Eps. 05-08", "work_id": 95221, "role": "co-producer", "role_id": 915, "is_primary": true}, {"id": 3086912, "title": "Neon Genesis Evangelion Collection 0:5. Eps. 15-17", "work_id": 95224, "role": "co-producer", "role_id": 915, "is_primary": true}, {"id": 3086928, "title": "Neon Genesis Evangelion Collection 0:7 Eps. 21-23", "work_id": 95226, "role": "co-producer", "role_id": 915, "is_primary": true}, {"id": 3086937, "title": "Neon Genesis Evangelion Collection 0:8 Eps. 24-26", "work_id": 95227, "role": "co-producer", "role_id": 915, "is_primary": true}], "also_known_as": "", "date_of_birth": null, "date_of_death": null, "genders": [], "languages": [], "places_of_operation": [], "biography": "", "biography_author": null, "date_of_biography": null, "external_links": [], "uuid": "37934ad2-3400-4af2-94b3-60dbe29ce8e0", "source": {"name": "Vernon", "slug": "vernon"}, "source_identifier": "30628", "external_references": [{"id": 42037, "source": {"name": "Wikidata", "slug": "wikidata"}, "source_identifier": "Q121315179"}], "date_modified": "2025-03-17T10:46:16.935463+11:00"}, {"id": 81266, "name": "Noriko Kobayashi", "roles_in_work": [{"id": 3086927, "title": "Neon Genesis Evangelion Collection 0:7 Eps. 21-23", "work_id": 95226, "role": "co-producer", "role_id": 915, "is_primary": true}, {"id": 3086911, "title": "Neon Genesis Evangelion Collection 0:5. Eps. 15-17", "work_id": 95224, "role": "co-producer", "role_id": 915, "is_primary": true}, {"id": 3086919, "title": "Neon Genesis Evangelion Collection 0:6 Eps. 18-20", "work_id": 95225, "role": "co-producer", "role_id": 915, "is_primary": true}, {"id": 3086885, "title": "Neon Genesis Evangelion Collection 0:2. Eps. 05-08", "work_id": 95221, "role": "co-producer", "role_id": 915, "is_primary": true}, {"id": 3086946, "title": "Neon Genesis Evangelion Collection", "work_id": 115625, "role": "co-producer", "role_id": 915, "is_primary": true}, {"id": 3086894, "title": "Neon Genesis Evangelion Collection 0:3. Eps. 09-11", "work_id": 95222, "role": "co-producer", "role_id": 915, "is_primary": true}, {"id": 3086876, "title": "Neon Genesis Evangelion Collection 0:1. Eps. 01-04", "work_id": 95220, "role": "co-producer", "role_id": 915, "is_primary": true}, {"id": 3086936, "title": "Neon Genesis Evangelion Collection 0:8 Eps. 24-26", "work_id": 95227, "role": "co-producer", "role_id": 915, "is_primary": true}, {"id": 3086902, "title": "Neon Genesis Evangelion Collection 0:4. Eps 12-14", "work_id": 95223, "role": "co-producer", "role_id": 915, "is_primary": true}], "also_known_as": "", "date_of_birth": null, "date_of_death": null, "genders": [], "languages": [], "places_of_operation": [], "biography": "", "biography_author": null, "date_of_biography": null, "external_links": [], "uuid": "e75de576-a040-45a4-aa9d-7c2b335b9782", "source": {"name": "Vernon", "slug": "vernon"}, "source_identifier": "25867", "external_references": [{"id": 35182, "source": {"name": "Wikidata", "slug": "wikidata"}, "source_identifier": "Q121040086"}], "date_modified": "2025-03-17T10:46:16.233512+11:00"}, {"id": 81265, "name": "Project EVA", "roles_in_work": [{"id": 3086943, "title": "Neon Genesis Evangelion Collection", "work_id": 115625, "role": "production company", "role_id": 941, "is_primary": true}, {"id": 3086875, "title": "Neon Genesis Evangelion Collection 0:1. Eps. 01-04", "work_id": 95220, "role": "production company", "role_id": 941, "is_primary": true}, {"id": 3086884, "title": "Neon Genesis Evangelion Collection 0:2. Eps. 05-08", "work_id": 95221, "role": "production company", "role_id": 941, "is_primary": true}, {"id": 3086926, "title": "Neon Genesis Evangelion Collection 0:7 Eps. 21-23", "work_id": 95226, "role": "production company", "role_id": 941, "is_primary": true}, {"id": 3086935, "title": "Neon Genesis Evangelion Collection 0:8 Eps. 24-26", "work_id": 95227, "role": "production company", "role_id": 941, "is_primary": true}, {"id": 3086910, "title": "Neon Genesis Evangelion Collection 0:5. Eps. 15-17", "work_id": 95224, "role": "production company", "role_id": 941, "is_primary": true}, {"id": 3086892, "title": "Neon Genesis Evangelion Collection 0:3. Eps. 09-11", "work_id": 95222, "role": "production company", "role_id": 941, "is_primary": true}, {"id": 3086901, "title": "Neon Genesis Evangelion Collection 0:4. Eps 12-14", "work_id": 95223, "role": "production company", "role_id": 941, "is_primary": true}, {"id": 3086917, "title": "Neon Genesis Evangelion Collection 0:6 Eps. 18-20", "work_id": 95225, "role": "production company", "role_id": 941, "is_primary": true}], "also_known_as": "", "date_of_birth": null, "date_of_death": null, "genders": [], "languages": [], "places_of_operation": [], "biography": "", "biography_author": null, "date_of_biography": null, "external_links": [], "uuid": "03135843-601e-41f2-8f9a-d3bb9f751dca", "source": {"name": "Vernon", "slug": "vernon"}, "source_identifier": "11695", "external_references": [{"id": 51290, "source": {"name": "Wikidata", "slug": "wikidata"}, "source_identifier": "Q121357772"}], "date_modified": "2025-03-17T10:46:15.642510+11:00"}, {"id": 81264, "name": "Gainax", "roles_in_work": [{"id": 3086874, "title": "Neon Genesis Evangelion Collection 0:1. Eps. 01-04", "work_id": 95220, "role": "production company", "role_id": 941, "is_primary": true}, {"id": 3086934, "title": "Neon Genesis Evangelion Collection 0:8 Eps. 24-26", "work_id": 95227, "role": "production company", "role_id": 941, "is_primary": true}, {"id": 3086925, "title": "Neon Genesis Evangelion Collection 0:7 Eps. 21-23", "work_id": 95226, "role": "production company", "role_id": 941, "is_primary": true}, {"id": 3086908, "title": "Neon Genesis Evangelion Collection 0:5. Eps. 15-17", "work_id": 95224, "role": "production company", "role_id": 941, "is_primary": true}, {"id": 3086900, "title": "Neon Genesis Evangelion Collection 0:4. Eps 12-14", "work_id": 95223, "role": "production company", "role_id": 941, "is_primary": true}, {"id": 3086940, "title": "Neon Genesis Evangelion Collection", "work_id": 115625, "role": "production company", "role_id": 941, "is_primary": true}, {"id": 3086891, "title": "Neon Genesis Evangelion Collection 0:3. Eps. 09-11", "work_id": 95222, "role": "production company", "role_id": 941, "is_primary": true}, {"id": 3086883, "title": "Neon Genesis Evangelion Collection 0:2. Eps. 05-08", "work_id": 95221, "role": "production company", "role_id": 941, "is_primary": true}, {"id": 3086916, "title": "Neon Genesis Evangelion Collection 0:6 Eps. 18-20", "work_id": 95225, "role": "production company", "role_id": 941, "is_primary": true}], "also_known_as": "", "date_of_birth": null, "date_of_death": null, "genders": [], "languages": [], "places_of_operation": [], "biography": "", "biography_author": null, "date_of_biography": null, "external_links": [], "uuid": "fe9f1fc1-f4a2-4989-878d-c34f73a390b6", "source": {"name": "Vernon", "slug": "vernon"}, "source_identifier": "8622", "external_references": [{"id": 40286, "source": {"name": "Wikidata", "slug": "wikidata"}, "source_identifier": "Q121091313"}], "date_modified": "2025-03-17T10:46:15.046765+11:00"}]}