{"count": 28684, "next": "https://api.acmi.net.au/creators/?page=71", "previous": "https://api.acmi.net.au/creators/?page=69", "results": [{"id": 86432, "name": "William Rothenstein", "roles_in_work": [{"id": 2718782, "title": "Mother and Child", "work_id": 120293, "role": "artist", "role_id": 505, "is_primary": true}], "also_known_as": "", "date_of_birth": "1872", "date_of_death": "1945", "genders": [{"id": 9, "name": "Male", "slug": "male"}], "languages": [], "places_of_operation": [], "biography": "", "biography_author": null, "date_of_biography": "2023-05-09T11:21:47.936119+10:00", "external_links": [], "uuid": "50e770ac-39a2-47dc-bf55-4fbedc744e4b", "source": {"name": "Vernon", "slug": "vernon"}, "source_identifier": "40273", "external_references": [], "date_modified": "2025-03-12T06:40:43.509503+11:00"}, {"id": 86431, "name": "Vilhelm Hammershøi", "roles_in_work": [{"id": 2718772, "title": "Interior, Sunlight on the Floor", "work_id": 120292, "role": "artist", "role_id": 505, "is_primary": true}, {"id": 2718766, "title": "Interior", "work_id": 120291, "role": "artist", "role_id": 505, "is_primary": true}], "also_known_as": "", "date_of_birth": "1864", "date_of_death": "1916", "genders": [], "languages": [], "places_of_operation": [], "biography": "", "biography_author": null, "date_of_biography": "2023-05-09T11:21:47.214989+10:00", "external_links": [], "uuid": "01c82127-aa9e-4164-8411-32c83c7c75ce", "source": {"name": "Vernon", "slug": "vernon"}, "source_identifier": "40272", "external_references": [], "date_modified": "2025-03-12T06:40:31.720110+11:00"}, {"id": 86430, "name": "Lis Rhodes", "roles_in_work": [{"id": 2718335, "title": "Light Music", "work_id": 120286, "role": "artist", "role_id": 505, "is_primary": true}], "also_known_as": "", "date_of_birth": "1942", "date_of_death": "", "genders": [], "languages": [], "places_of_operation": [], "biography": "", "biography_author": null, "date_of_biography": "2023-08-14T12:58:40.540688+10:00", "external_links": [], "uuid": "40dd7129-709c-4502-b061-d69daccfefbe", "source": {"name": "Vernon", "slug": "vernon"}, "source_identifier": "40274", "external_references": [], "date_modified": "2025-03-12T06:30:36.501647+11:00"}, {"id": 86429, "name": "Mikala Dwyer", "roles_in_work": [{"id": 2719176, "title": "Weights of Light", "work_id": 120288, "role": "artist", "role_id": 505, "is_primary": true}], "also_known_as": "", "date_of_birth": "", "date_of_death": "", "genders": [], "languages": [], "places_of_operation": [], "biography": "", "biography_author": null, "date_of_biography": "2023-08-14T12:58:41.627355+10:00", "external_links": [], "uuid": "d489f57a-50c5-4892-b2f1-e45073f56e3b", "source": {"name": "Vernon", "slug": "vernon"}, "source_identifier": "40353", "external_references": [], "date_modified": "2025-03-12T06:56:21.237867+11:00"}, {"id": 86428, "name": "Peter Sedgley", "roles_in_work": [{"id": 2718932, "title": "Colour Cycle III", "work_id": 120282, "role": "artist", "role_id": 505, "is_primary": true}], "also_known_as": "", "date_of_birth": "1930", "date_of_death": "", "genders": [], "languages": [], "places_of_operation": [], "biography": "", "biography_author": null, "date_of_biography": "2023-05-09T18:27:32.005717+10:00", "external_links": [], "uuid": "98241e2e-a6e4-48c3-bba4-1f9dbb7f4a2e", "source": {"name": "Vernon", "slug": "vernon"}, "source_identifier": "40279", "external_references": [], "date_modified": "2025-03-12T06:45:47.339300+11:00"}, {"id": 86427, "name": "Wassily Kandinsky", "roles_in_work": [{"id": 2718941, "title": "Swinging", "work_id": 120285, "role": "artist", "role_id": 505, "is_primary": true}], "also_known_as": "", "date_of_birth": "1866", "date_of_death": "1944", "genders": [], "languages": [], "places_of_operation": [], "biography": "", "biography_author": null, "date_of_biography": "2023-05-09T18:27:29.586894+10:00", "external_links": [], "uuid": "c464ef18-290c-444f-8769-9861ccaf1949", "source": {"name": "Vernon", "slug": "vernon"}, "source_identifier": "40269", "external_references": [], "date_modified": "2025-03-12T06:46:10.066740+11:00"}, {"id": 86426, "name": "Bridget Riley", "roles_in_work": [{"id": 2718939, "title": "Nataraja", "work_id": 120284, "role": "artist", "role_id": 505, "is_primary": true}], "also_known_as": "", "date_of_birth": "1931", "date_of_death": "", "genders": [], "languages": [], "places_of_operation": [], "biography": "", "biography_author": null, "date_of_biography": "2023-05-09T18:27:30.533726+10:00", "external_links": [], "uuid": "0b61df79-2494-48b7-8ff5-04ddf7f5212c", "source": {"name": "Vernon", "slug": "vernon"}, "source_identifier": "40271", "external_references": [], "date_modified": "2025-03-12T06:46:00.779716+11:00"}, {"id": 86425, "name": "Dan Flavin", "roles_in_work": [{"id": 2718957, "title": "‘monument’ for V. Tatlin", "work_id": 120279, "role": "artist", "role_id": 505, "is_primary": true}], "also_known_as": "", "date_of_birth": "1933", "date_of_death": "1996", "genders": [], "languages": [], "places_of_operation": [], "biography": "", "biography_author": null, "date_of_biography": "2023-05-09T18:27:07.798862+10:00", "external_links": [], "uuid": "69f049ec-2abc-4f05-b135-f93fdf002739", "source": {"name": "Vernon", "slug": "vernon"}, "source_identifier": "40280", "external_references": [], "date_modified": "2025-03-12T06:46:49.605639+11:00"}, {"id": 86424, "name": "Olafur Eliasson", "roles_in_work": [{"id": 2718951, "title": "Stardust Particle", "work_id": 120281, "role": "artist", "role_id": 505, "is_primary": true}], "also_known_as": "", "date_of_birth": "1967", "date_of_death": "", "genders": [], "languages": [], "places_of_operation": [], "biography": "", "biography_author": null, "date_of_biography": "2023-05-09T18:27:05.428792+10:00", "external_links": [], "uuid": "041a335e-8a0f-47e1-b363-cbac7ae011eb", "source": {"name": "Vernon", "slug": "vernon"}, "source_identifier": "40277", "external_references": [], "date_modified": "2025-03-12T06:46:37.407905+11:00"}, {"id": 86423, "name": "György Kepes", "roles_in_work": [{"id": 2719158, "title": "Light Reflection", "work_id": 120276, "role": "artist", "role_id": 505, "is_primary": true}, {"id": 2719154, "title": "Circles and Dots", "work_id": 120275, "role": "artist", "role_id": 505, "is_primary": true}, {"id": 2719165, "title": "Left to right:  Light Reflection 1941  Circles and Dots c.1939–1940   Structure Photogram c.1939–1940  Branches c.1939–1940  Blobs 3 c.1939–1940   Photograph, gelatin silver print on paper", "work_id": 120272, "role": "artist", "role_id": 505, "is_primary": true}, {"id": 2719161, "title": "Structure Photogram", "work_id": 120277, "role": "artist", "role_id": 505, "is_primary": true}, {"id": 2719144, "title": "Blobs 3", "work_id": 120273, "role": "artist", "role_id": 505, "is_primary": true}, {"id": 2719151, "title": "Branches", "work_id": 120274, "role": "artist", "role_id": 505, "is_primary": true}], "also_known_as": "", "date_of_birth": "1906", "date_of_death": "2001", "genders": [], "languages": [], "places_of_operation": [], "biography": "", "biography_author": null, "date_of_biography": "2023-05-09T19:04:15.032203+10:00", "external_links": [], "uuid": "81a2e444-ab04-4286-acaf-127230986d37", "source": {"name": "Vernon", "slug": "vernon"}, "source_identifier": "40284", "external_references": [], "date_modified": "2025-03-12T06:55:48.877563+11:00"}]}