{"count": 28687, "next": "https://api.acmi.net.au/creators/?page=373", "previous": "https://api.acmi.net.au/creators/?page=371", "results": [{"id": 81887, "name": "Rachel Maher", "roles_in_work": [{"id": 2676786, "title": "Seaside searching", "work_id": 114129, "role": "collaborator", "role_id": 536, "is_primary": false}], "also_known_as": "", "date_of_birth": "", "date_of_death": "", "genders": [], "languages": [], "places_of_operation": [], "biography": "", "biography_author": null, "date_of_biography": "2023-05-09T17:36:42.135201+10:00", "external_links": [], "uuid": "190dbf56-28c9-47c0-a28e-232cd8c739f1", "source": {"name": "Vernon", "slug": "vernon"}, "source_identifier": "1448", "external_references": [], "date_modified": "2025-03-06T23:07:19.740279+11:00"}, {"id": 81886, "name": "Sakshi Productions", "roles_in_work": [{"id": 2619550, "title": "Juggling the elements", "work_id": 114124, "role": "co-producer", "role_id": 915, "is_primary": true}], "also_known_as": "", "date_of_birth": "", "date_of_death": "", "genders": [], "languages": [], "places_of_operation": [], "biography": "", "biography_author": null, "date_of_biography": "2023-05-09T13:51:44.067866+10:00", "external_links": [], "uuid": "744ab16f-3439-4ebf-ab2a-5aeac46ab5e9", "source": {"name": "Vernon", "slug": "vernon"}, "source_identifier": "112317", "external_references": [{"id": 33495, "source": {"name": "Wikidata", "slug": "wikidata"}, "source_identifier": "Q121299302"}], "date_modified": "2025-02-26T23:15:43.883217+11:00"}, {"id": 81885, "name": "Tom McKendrick", "roles_in_work": [{"id": 2710982, "title": "Woomera 2002", "work_id": 114132, "role": "editor", "role_id": 918, "is_primary": true}, {"id": 2675515, "title": "Global insights 4", "work_id": 114123, "role": "editor", "role_id": 918, "is_primary": true}], "also_known_as": "", "date_of_birth": null, "date_of_death": null, "genders": [], "languages": [], "places_of_operation": [], "biography": "", "biography_author": null, "date_of_biography": null, "external_links": [], "uuid": "59645681-2ec8-4b4b-93aa-fa0714fa9872", "source": {"name": "Vernon", "slug": "vernon"}, "source_identifier": "110888", "external_references": [{"id": 40641, "source": {"name": "Wikidata", "slug": "wikidata"}, "source_identifier": "Q121086141"}], "date_modified": "2025-03-11T23:44:13.181402+11:00"}, {"id": 81884, "name": "Simon Lewis", "roles_in_work": [{"id": 2676913, "title": "Embrace", "work_id": 114121, "role": "music", "role_id": 949, "is_primary": false}], "also_known_as": "", "date_of_birth": "", "date_of_death": "", "genders": [], "languages": [], "places_of_operation": [], "biography": "", "biography_author": null, "date_of_biography": "2023-05-09T15:55:14.224867+10:00", "external_links": [], "uuid": "a3ce1dbb-4c8a-4e43-bc9e-b15728f3109c", "source": {"name": "Vernon", "slug": "vernon"}, "source_identifier": "1588", "external_references": [{"id": 51547, "source": {"name": "Wikidata", "slug": "wikidata"}, "source_identifier": "Q121360659"}], "date_modified": "2025-03-06T23:08:49.371380+11:00"}, {"id": 81883, "name": "David Opitz", "roles_in_work": [{"id": 2675588, "title": "20 years @ Metro", "work_id": 114118, "role": "associate producer", "role_id": 930, "is_primary": false}], "also_known_as": "", "date_of_birth": "", "date_of_death": "", "genders": [], "languages": [], "places_of_operation": [], "biography": "", "biography_author": null, "date_of_biography": "2023-05-09T11:20:01.478014+10:00", "external_links": [], "uuid": "058e75b2-009d-48da-9e61-4515d98b1c74", "source": {"name": "Vernon", "slug": "vernon"}, "source_identifier": "1776", "external_references": [], "date_modified": "2025-03-06T22:46:26.727759+11:00"}, {"id": 81882, "name": "Manoochelher Sadeghi", "roles_in_work": [{"id": 2635996, "title": "Arabesque", "work_id": 114089, "role": "composer", "role_id": 538, "is_primary": false}], "also_known_as": "", "date_of_birth": "", "date_of_death": "", "genders": [], "languages": [], "places_of_operation": [], "biography": "", "biography_author": null, "date_of_biography": "2023-05-09T15:27:39.143622+10:00", "external_links": [], "uuid": "4a790be3-169c-4134-8ff6-1fdf319d68a4", "source": {"name": "Vernon", "slug": "vernon"}, "source_identifier": "34576", "external_references": [], "date_modified": "2025-03-05T10:31:13.134673+11:00"}, {"id": 81881, "name": "Kristina Schofield", "roles_in_work": [{"id": 2619165, "title": "Catch of the day", "work_id": 114049, "role": "cast", "role_id": 33, "is_primary": false}], "also_known_as": "", "date_of_birth": "", "date_of_death": "", "genders": [], "languages": [], "places_of_operation": [], "biography": "", "biography_author": null, "date_of_biography": "2023-05-09T13:22:22.698656+10:00", "external_links": [], "uuid": "f36f8011-5a9b-4b9c-820f-9eff7aee659e", "source": {"name": "Vernon", "slug": "vernon"}, "source_identifier": "34494", "external_references": [{"id": 35031, "source": {"name": "Wikidata", "slug": "wikidata"}, "source_identifier": "Q121126339"}], "date_modified": "2025-02-26T23:01:39.231613+11:00"}, {"id": 81880, "name": "George Djilaynga", "roles_in_work": [{"id": 2748649, "title": "Payback", "work_id": 114042, "role": "cast", "role_id": 33, "is_primary": false}], "also_known_as": "", "date_of_birth": "", "date_of_death": "", "genders": [{"id": 9, "name": "Male", "slug": "male"}], "languages": [], "places_of_operation": [], "biography": "", "biography_author": null, "date_of_biography": "2023-05-09T15:10:33.100574+10:00", "external_links": [], "uuid": "c0953cfd-0d64-4e35-b4c8-2aec8088e1e8", "source": {"name": "Vernon", "slug": "vernon"}, "source_identifier": "36735", "external_references": [{"id": 43215, "source": {"name": "Wikidata", "slug": "wikidata"}, "source_identifier": "Q121035138"}], "date_modified": "2025-03-12T23:03:27.539566+11:00"}, {"id": 81879, "name": "Radiohead", "roles_in_work": [{"id": 2748583, "title": "Just", "work_id": 114041, "role": "music", "role_id": 949, "is_primary": false}], "also_known_as": "", "date_of_birth": "", "date_of_death": "", "genders": [], "languages": [], "places_of_operation": [], "biography": "", "biography_author": null, "date_of_biography": "2023-05-09T14:08:35.081303+10:00", "external_links": [], "uuid": "93348127-857b-40c0-bbf5-72a61ea009b8", "source": {"name": "Vernon", "slug": "vernon"}, "source_identifier": "1694", "external_references": [], "date_modified": "2025-03-12T23:02:06.138006+11:00"}, {"id": 81878, "name": "Shelley Lasica", "roles_in_work": [{"id": 2748396, "title": "Behaviour", "work_id": 114036, "role": "cast", "role_id": 33, "is_primary": false}, {"id": 2748390, "title": "Behaviour", "work_id": 114036, "role": "choreographer", "role_id": 951, "is_primary": false}], "also_known_as": "", "date_of_birth": "", "date_of_death": "", "genders": [], "languages": [], "places_of_operation": [], "biography": "", "biography_author": null, "date_of_biography": "2023-05-09T12:46:00.045131+10:00", "external_links": [], "uuid": "22487ea5-84ec-4d4b-bcdc-a2c77fb01d54", "source": {"name": "Vernon", "slug": "vernon"}, "source_identifier": "110901", "external_references": [{"id": 34908, "source": {"name": "Wikidata", "slug": "wikidata"}, "source_identifier": "Q121126278"}], "date_modified": "2025-03-12T22:59:12.964896+11:00"}]}