{"count": 28687, "next": "https://api.acmi.net.au/creators/?page=2062", "previous": "https://api.acmi.net.au/creators/?page=2060", "results": [{"id": 21334, "name": "Barbara Schmidt Harrison", "roles_in_work": [{"id": 2466487, "title": "Team Building (TEFC)", "work_id": 78439, "role": "producer", "role_id": 1089, "is_primary": true}], "also_known_as": "", "date_of_birth": "", "date_of_death": "", "genders": [], "languages": [], "places_of_operation": [], "biography": "", "biography_author": null, "date_of_biography": "2023-08-14T10:58:22.689552+10:00", "external_links": [], "uuid": "346c143f-1803-40f2-b467-255f13cc36e7", "source": {"name": "Vernon", "slug": "vernon"}, "source_identifier": "15663", "external_references": [], "date_modified": "2023-08-14T10:58:22.689796+10:00"}, {"id": 21332, "name": "Michael Karris", "roles_in_work": [{"id": 2219213, "title": "English at Work. - Eps. 31-33.", "work_id": 81660, "role": "co-director", "role_id": 959, "is_primary": true}, {"id": 2219034, "title": "English at work. - Eps. 34-36.", "work_id": 81661, "role": "co-director", "role_id": 959, "is_primary": true}, {"id": 2219011, "title": "English at Work. - Eps. 28-30.", "work_id": 81657, "role": "co-director", "role_id": 959, "is_primary": true}, {"id": 898408, "title": "The Occupant", "work_id": 78436, "role": "co-producers/directors", "role_id": 628, "is_primary": true}, {"id": 2774630, "title": "In our own image", "work_id": 83484, "role": "director", "role_id": 938, "is_primary": true}], "also_known_as": "", "date_of_birth": "", "date_of_death": "", "genders": [], "languages": [], "places_of_operation": [], "biography": "", "biography_author": null, "date_of_biography": "2023-05-09T19:29:29.840680+10:00", "external_links": [], "uuid": "592d18a5-1503-4c33-8888-fde06e458653", "source": {"name": "Vernon", "slug": "vernon"}, "source_identifier": "25121", "external_references": [{"id": 40712, "source": {"name": "Wikidata", "slug": "wikidata"}, "source_identifier": "Q121299196"}], "date_modified": "2025-03-14T18:38:41.990157+11:00"}, {"id": 21329, "name": "Valeria Vasilevski", "roles_in_work": [{"id": 2402916, "title": "Boomtown", "work_id": 78435, "role": "producer", "role_id": 1089, "is_primary": true}], "also_known_as": "", "date_of_birth": "", "date_of_death": "", "genders": [], "languages": [], "places_of_operation": [], "biography": "", "biography_author": null, "date_of_biography": "2023-08-11T15:01:53.900639+10:00", "external_links": [], "uuid": "1712e209-362a-4832-be69-1cd93fecead1", "source": {"name": "Vernon", "slug": "vernon"}, "source_identifier": "30045", "external_references": [], "date_modified": "2023-08-11T15:01:53.900881+10:00"}, {"id": 21328, "name": "Reduta Deux", "roles_in_work": [{"id": 2402915, "title": "Boomtown", "work_id": 78435, "role": "production company", "role_id": 941, "is_primary": true}], "also_known_as": "", "date_of_birth": "", "date_of_death": "", "genders": [], "languages": [], "places_of_operation": [], "biography": "", "biography_author": null, "date_of_biography": "2023-08-11T15:01:53.272752+10:00", "external_links": [], "uuid": "0ea794a7-43fb-40df-ab0f-a3686c31c724", "source": {"name": "Vernon", "slug": "vernon"}, "source_identifier": "11406", "external_references": [], "date_modified": "2023-08-11T15:01:53.273001+10:00"}, {"id": 21327, "name": "Celestino Coronado", "roles_in_work": [{"id": 864928, "title": "A Midsummer night's dream", "work_id": 78434, "role": "director", "role_id": 938, "is_primary": true}], "also_known_as": "", "date_of_birth": "1944-11-20", "date_of_death": "2014-07-21", "genders": [{"id": 9, "name": "Male", "slug": "male"}], "languages": [{"id": 10, "name": "Spanish", "slug": "spanish"}], "places_of_operation": [{"id": 14, "name": "Spain", "slug": "spain"}], "biography": "Celestino Coronado Romero (20 November 1944 – 21 July 2014), also known as Celestino Coronado, was a Spanish film and theatre director, writer, dancer and performer who lived most of his life in London. He was artistic director of the Lindsay Kemp Company from 1973 to 1985. He founded Cabochon Film Productions with David Meyer and also collaborated with The Incredible Orlando (blind actor Jack Birkett) and with Chilean composer Carlos Miranda.", "biography_author": "Wikidata", "date_of_biography": "2023-08-01T14:22:07.233092+10:00", "external_links": [{"id": 3729, "uri": "https://en.wikipedia.org/wiki/Celestino_Coronado_Romero"}], "uuid": "d8fc97e1-4607-43ee-ae7e-311b5db2fe6b", "source": {"name": "Vernon", "slug": "vernon"}, "source_identifier": "16638", "external_references": [{"id": 26523, "source": {"name": "Wikidata", "slug": "wikidata"}, "source_identifier": "Q23291461"}], "date_modified": "2023-09-13T12:28:39.458229+10:00"}, {"id": 21326, "name": "Stunned Mullett Productions", "roles_in_work": [{"id": 2392587, "title": "Serious undertakings", "work_id": 78431, "role": "production company", "role_id": 941, "is_primary": true}], "also_known_as": "", "date_of_birth": "", "date_of_death": "", "genders": [], "languages": [], "places_of_operation": [], "biography": "", "biography_author": null, "date_of_biography": "2023-08-09T03:58:03.430399+10:00", "external_links": [], "uuid": "2ab297a8-3e45-4e8b-bef4-a7c9cad0f6b3", "source": {"name": "Vernon", "slug": "vernon"}, "source_identifier": "13027", "external_references": [], "date_modified": "2023-08-09T03:58:03.430629+10:00"}, {"id": 21324, "name": "Wilderness Society", "roles_in_work": [{"id": 2615655, "title": "Didjeridu: with Charlie McMahon", "work_id": 85875, "role": "distributor", "role_id": 437, "is_primary": false}, {"id": 905117, "title": "King Koala", "work_id": 85858, "role": "distributor", "role_id": 437, "is_primary": false}, {"id": 805736, "title": "Wildest Antarctica", "work_id": 90516, "role": "distributor", "role_id": 437, "is_primary": false}, {"id": 791228, "title": "Mutiny on the Western Front", "work_id": 85866, "role": "distributor", "role_id": 437, "is_primary": false}, {"id": 2473953, "title": "The Art of tracking", "work_id": 85857, "role": "distributor", "role_id": 437, "is_primary": false}, {"id": 2224133, "title": "Eye on the reef", "work_id": 85856, "role": "distributor", "role_id": 437, "is_primary": false}, {"id": 1994707, "title": "Tender loving care", "work_id": 90496, "role": "distributor", "role_id": 437, "is_primary": false}, {"id": 1904592, "title": "Priceless places: Australia's National Estate wilderness", "work_id": 82806, "role": "distributor", "role_id": 437, "is_primary": false}, {"id": 2753651, "title": "Bellamy's Daintree: where reef meets rainforest", "work_id": 98865, "role": "production company", "role_id": 941, "is_primary": true}, {"id": 898400, "title": "Highland winter", "work_id": 78429, "role": "production company", "role_id": 941, "is_primary": true}], "also_known_as": "", "date_of_birth": "", "date_of_death": "", "genders": [], "languages": [], "places_of_operation": [], "biography": "", "biography_author": null, "date_of_biography": "2023-08-16T03:40:41.933802+10:00", "external_links": [], "uuid": "f3e8caed-485c-4499-85e5-9ae24fedc096", "source": {"name": "Vernon", "slug": "vernon"}, "source_identifier": "14363", "external_references": [{"id": 40559, "source": {"name": "Wikidata", "slug": "wikidata"}, "source_identifier": "Q121079249"}], "date_modified": "2025-03-13T01:30:22.847102+11:00"}, {"id": 21318, "name": "Australian Action and Resource Centre Co-op", "roles_in_work": [{"id": 2472181, "title": "Youth and the law", "work_id": 78422, "role": "production company", "role_id": 941, "is_primary": true}], "also_known_as": "", "date_of_birth": "", "date_of_death": "", "genders": [], "languages": [], "places_of_operation": [], "biography": "", "biography_author": null, "date_of_biography": "2023-08-14T12:55:13.754343+10:00", "external_links": [], "uuid": "380e1991-526f-4044-9333-a709909a239f", "source": {"name": "Vernon", "slug": "vernon"}, "source_identifier": "5559", "external_references": [], "date_modified": "2023-08-14T12:55:13.754629+10:00"}, {"id": 21316, "name": "Flashback Films", "roles_in_work": [{"id": 2108234, "title": "Barry Humphries' flashbacks [DVD]", "work_id": 94908, "role": "production company", "role_id": 941, "is_primary": true}, {"id": 2648159, "title": "For love or money: a history of women and work in Australia", "work_id": 78420, "role": "production company", "role_id": 941, "is_primary": true}], "also_known_as": "", "date_of_birth": "", "date_of_death": "", "genders": [], "languages": [], "places_of_operation": [], "biography": "", "biography_author": null, "date_of_biography": "2023-08-09T03:57:58.914500+10:00", "external_links": [], "uuid": "ae0a2ecb-aeb5-4da2-aaf9-7bb33c2f2975", "source": {"name": "Vernon", "slug": "vernon"}, "source_identifier": "8395", "external_references": [{"id": 40135, "source": {"name": "Wikidata", "slug": "wikidata"}, "source_identifier": "Q121315602"}], "date_modified": "2025-03-05T13:40:33.360404+11:00"}, {"id": 21315, "name": "David Hay", "roles_in_work": [{"id": 2193609, "title": "Dirt cheap", "work_id": 78419, "role": "director", "role_id": 938, "is_primary": true}, {"id": 2193606, "title": "Dirt cheap", "work_id": 78419, "role": "co-producer", "role_id": 915, "is_primary": true}], "also_known_as": "", "date_of_birth": "", "date_of_death": "", "genders": [], "languages": [], "places_of_operation": [], "biography": "", "biography_author": null, "date_of_biography": "2023-05-09T15:13:00.689195+10:00", "external_links": [], "uuid": "b3361208-4718-4a20-ae2b-9040ae215f58", "source": {"name": "Vernon", "slug": "vernon"}, "source_identifier": "17628", "external_references": [{"id": 38447, "source": {"name": "Wikidata", "slug": "wikidata"}, "source_identifier": "Q121223549"}], "date_modified": "2023-09-05T18:58:20.125066+10:00"}]}