{"count": 28687, "next": "https://api.acmi.net.au/creators/?page=1198", "previous": "https://api.acmi.net.au/creators/?page=1196", "results": [{"id": 73377, "name": "Pollyanna Sutton", "roles_in_work": [{"id": 2748406, "title": "ACMI launch promotional trailer", "work_id": 108306, "role": "project manager", "role_id": 498, "is_primary": false}], "also_known_as": "", "date_of_birth": "", "date_of_death": "", "genders": [], "languages": [], "places_of_operation": [], "biography": "", "biography_author": null, "date_of_biography": "2023-05-09T11:47:12.466975+10:00", "external_links": [], "uuid": "f62303ad-3ea2-49f8-85ae-f3b5063be052", "source": {"name": "Vernon", "slug": "vernon"}, "source_identifier": "110902", "external_references": [], "date_modified": "2025-03-12T22:59:17.960135+11:00"}, {"id": 73376, "name": "Sandra Parker", "roles_in_work": [{"id": 2748382, "title": "In the heart of the eye", "work_id": 108303, "role": "choreographer", "role_id": 951, "is_primary": false}], "also_known_as": "", "date_of_birth": "", "date_of_death": "", "genders": [], "languages": [], "places_of_operation": [], "biography": "", "biography_author": null, "date_of_biography": "2023-08-11T18:22:24.132448+10:00", "external_links": [], "uuid": "c437319d-8115-4e4e-bdee-e8aebeffc082", "source": {"name": "Vernon", "slug": "vernon"}, "source_identifier": "110900", "external_references": [], "date_modified": "2025-03-12T22:59:06.967508+11:00"}, {"id": 73375, "name": "Simon Hunt", "roles_in_work": [{"id": 2748378, "title": "Resonance", "work_id": 108302, "role": "contact", "role_id": 543, "is_primary": false}], "also_known_as": "", "date_of_birth": "", "date_of_death": "", "genders": [], "languages": [], "places_of_operation": [], "biography": "", "biography_author": null, "date_of_biography": "2023-05-09T17:07:48.942609+10:00", "external_links": [], "uuid": "1b5ec201-ebab-45e6-9274-fec0378a166c", "source": {"name": "Vernon", "slug": "vernon"}, "source_identifier": "110892", "external_references": [], "date_modified": "2025-03-12T22:59:05.632419+11:00"}, {"id": 73374, "name": "UCLA Animation Workshop", "roles_in_work": [{"id": 2748426, "title": "Luz", "work_id": 108297, "role": "production facilities", "role_id": 442, "is_primary": false}], "also_known_as": "", "date_of_birth": "", "date_of_death": "", "genders": [], "languages": [], "places_of_operation": [], "biography": "", "biography_author": null, "date_of_biography": "2023-08-11T19:37:55.379840+10:00", "external_links": [], "uuid": "3cc2f640-e722-4d75-8924-a2e63fd7d699", "source": {"name": "Vernon", "slug": "vernon"}, "source_identifier": "110877", "external_references": [], "date_modified": "2025-03-12T22:59:32.067036+11:00"}, {"id": 73373, "name": "Tunisian Stombeli Musicians", "roles_in_work": [{"id": 2619228, "title": "Postcard from Tunis", "work_id": 108296, "role": "music", "role_id": 949, "is_primary": false}], "also_known_as": "", "date_of_birth": "", "date_of_death": "", "genders": [], "languages": [], "places_of_operation": [], "biography": "", "biography_author": null, "date_of_biography": "2023-05-09T15:47:11.230890+10:00", "external_links": [], "uuid": "806e1600-7708-419b-9dfb-598914993ad4", "source": {"name": "Vernon", "slug": "vernon"}, "source_identifier": "1470", "external_references": [{"id": 50832, "source": {"name": "Wikidata", "slug": "wikidata"}, "source_identifier": "Q121361077"}], "date_modified": "2025-02-26T23:02:16.234017+11:00"}, {"id": 73372, "name": "John Zorzi", "roles_in_work": [{"id": 2619225, "title": "Postcard from Tunis", "work_id": 108296, "role": "music", "role_id": 949, "is_primary": false}], "also_known_as": "", "date_of_birth": "", "date_of_death": "", "genders": [], "languages": [], "places_of_operation": [], "biography": "", "biography_author": null, "date_of_biography": "2023-05-09T15:47:10.990442+10:00", "external_links": [], "uuid": "63152090-c328-4f00-81a4-81c882c8eef2", "source": {"name": "Vernon", "slug": "vernon"}, "source_identifier": "1469", "external_references": [{"id": 50602, "source": {"name": "Wikidata", "slug": "wikidata"}, "source_identifier": "Q121360864"}], "date_modified": "2025-02-26T23:02:15.643295+11:00"}, {"id": 73371, "name": "Patrick Najem", "roles_in_work": [{"id": 2619222, "title": "Postcard from Tunis", "work_id": 108296, "role": "music", "role_id": 949, "is_primary": false}], "also_known_as": "", "date_of_birth": "", "date_of_death": "", "genders": [], "languages": [], "places_of_operation": [], "biography": "", "biography_author": null, "date_of_biography": "2023-05-09T15:47:10.764629+10:00", "external_links": [], "uuid": "bde50bac-48a0-48aa-ac9b-005b0c29493d", "source": {"name": "Vernon", "slug": "vernon"}, "source_identifier": "1468", "external_references": [{"id": 51712, "source": {"name": "Wikidata", "slug": "wikidata"}, "source_identifier": "Q121360564"}], "date_modified": "2025-02-26T23:02:15.062176+11:00"}, {"id": 73370, "name": "Ghazi Nassouh", "roles_in_work": [{"id": 2619218, "title": "Postcard from Tunis", "work_id": 108296, "role": "music", "role_id": 949, "is_primary": false}], "also_known_as": "", "date_of_birth": "", "date_of_death": "", "genders": [], "languages": [], "places_of_operation": [], "biography": "", "biography_author": null, "date_of_biography": "2023-05-09T15:47:10.524574+10:00", "external_links": [], "uuid": "632eb58d-b3f0-4fc7-9394-93ab072fc01e", "source": {"name": "Vernon", "slug": "vernon"}, "source_identifier": "1467", "external_references": [{"id": 52118, "source": {"name": "Wikidata", "slug": "wikidata"}, "source_identifier": "Q121361164"}], "date_modified": "2025-02-26T23:02:12.726611+11:00"}, {"id": 73369, "name": "Jamal Zraika", "roles_in_work": [{"id": 2619216, "title": "Postcard from Tunis", "work_id": 108296, "role": "music", "role_id": 949, "is_primary": false}], "also_known_as": "", "date_of_birth": "", "date_of_death": "", "genders": [], "languages": [], "places_of_operation": [], "biography": "", "biography_author": null, "date_of_biography": "2023-05-09T15:47:10.285867+10:00", "external_links": [], "uuid": "3c206fd9-f5c7-42b1-b827-1691b34b2cec", "source": {"name": "Vernon", "slug": "vernon"}, "source_identifier": "1466", "external_references": [{"id": 50601, "source": {"name": "Wikidata", "slug": "wikidata"}, "source_identifier": "Q121360837"}], "date_modified": "2025-02-26T23:02:12.120601+11:00"}, {"id": 73368, "name": "Sharon Etter", "roles_in_work": [{"id": 2619213, "title": "Postcard from Tunis", "work_id": 108296, "role": "sound", "role_id": 952, "is_primary": false}], "also_known_as": "", "date_of_birth": "", "date_of_death": "", "genders": [], "languages": [], "places_of_operation": [], "biography": "", "biography_author": null, "date_of_biography": "2023-05-09T15:47:10.052143+10:00", "external_links": [], "uuid": "14381094-5e10-432e-ad54-781892a8698b", "source": {"name": "Vernon", "slug": "vernon"}, "source_identifier": "1465", "external_references": [], "date_modified": "2025-02-26T23:02:11.533680+11:00"}]}