{"count": 28687, "next": "https://api.acmi.net.au/creators/?page=1399", "previous": "https://api.acmi.net.au/creators/?page=1397", "results": [{"id": 37065, "name": "Media Asia Films", "roles_in_work": [{"id": 2474824, "title": "Infernal affairs = Miu Gaan Diy = Wu jian dao", "work_id": 94971, "role": "production company", "role_id": 941, "is_primary": true}], "also_known_as": "", "date_of_birth": "", "date_of_death": "", "genders": [], "languages": [], "places_of_operation": [], "biography": "", "biography_author": null, "date_of_biography": "2023-08-17T15:00:24.394201+10:00", "external_links": [], "uuid": "711e1978-3ab0-4dab-a2a0-074b433bcf9c", "source": {"name": "Vernon", "slug": "vernon"}, "source_identifier": "10408", "external_references": [], "date_modified": "2023-08-17T15:00:24.394406+10:00"}, {"id": 37064, "name": "Basic Pictures", "roles_in_work": [{"id": 2474823, "title": "Infernal affairs = Miu Gaan Diy = Wu jian dao", "work_id": 94971, "role": "production company", "role_id": 941, "is_primary": true}], "also_known_as": "", "date_of_birth": "", "date_of_death": "", "genders": [], "languages": [], "places_of_operation": [], "biography": "", "biography_author": null, "date_of_biography": "2023-08-17T15:00:23.755427+10:00", "external_links": [], "uuid": "c1c60cf0-3692-48a8-8ac2-70b91855e322", "source": {"name": "Vernon", "slug": "vernon"}, "source_identifier": "5741", "external_references": [], "date_modified": "2023-08-17T15:00:23.755638+10:00"}, {"id": 37057, "name": "BM3", "roles_in_work": [{"id": 2083623, "title": "Age of terror", "work_id": 94960, "role": "production company", "role_id": 941, "is_primary": true}], "also_known_as": "", "date_of_birth": "", "date_of_death": "", "genders": [], "languages": [], "places_of_operation": [], "biography": "", "biography_author": null, "date_of_biography": "2023-05-09T11:53:45.960214+10:00", "external_links": [], "uuid": "a3f0cd69-5d18-4cb6-a710-03afc86f7a87", "source": {"name": "Vernon", "slug": "vernon"}, "source_identifier": "5914", "external_references": [{"id": 42552, "source": {"name": "Wikidata", "slug": "wikidata"}, "source_identifier": "Q121222994"}], "date_modified": "2023-09-05T18:06:55.336579+10:00"}, {"id": 37056, "name": "Jill Sprecher", "roles_in_work": [{"id": 2000133, "title": "Thirteen conversations about one thing = 13 conversations ab", "work_id": 94959, "role": "director", "role_id": 938, "is_primary": true}], "also_known_as": "", "date_of_birth": "2000-01-01", "date_of_death": null, "genders": [{"id": 5, "name": "Female", "slug": "female"}], "languages": [], "places_of_operation": [{"id": 1, "name": "United States of America", "slug": "united-states-of-america"}], "biography": "Jill Ann Sprecher (born 27 July 1957) is an American film director, producer and writer. Sprecher collaborates on her film projects with her sister, Karen Sprecher, who writes. Sprecher's films have starred Matthew McConaughey, Lisa Kudrow, and Greg Kinnear. She is known for her films Clockwatchers and Thirteen Conversations About One Thing and her contributions to Big Love on HBO. Her films feature stories about realistic human experiences and the struggles of women.", "biography_author": "Wikidata", "date_of_biography": "2022-05-19T11:58:48.743319+10:00", "external_links": [{"id": 2386, "uri": "https://en.wikipedia.org/wiki/Jill_Sprecher"}], "uuid": "a742decd-f3a7-40c8-ba27-0be36f9b145d", "source": {"name": "Vernon", "slug": "vernon"}, "source_identifier": "21853", "external_references": [{"id": 10221, "source": {"name": "Wikidata", "slug": "wikidata"}, "source_identifier": "Q3808290"}, {"id": 10222, "source": {"name": "VIAF", "slug": "viaf"}, "source_identifier": "51351157"}, {"id": 10223, "source": {"name": "LOC Auth", "slug": "loc-auth"}, "source_identifier": "no2002014543"}, {"id": 10224, "source": {"name": "WorldCat", "slug": "worldcat"}, "source_identifier": "lccn-no2002014543"}], "date_modified": "2023-09-13T12:30:27.749684+10:00"}, {"id": 37051, "name": "Martine Marignac", "roles_in_work": [{"id": 1803492, "title": "Who knows? = Va Savoir", "work_id": 94958, "role": "producer", "role_id": 1089, "is_primary": true}, {"id": 3104503, "title": "L'amour Par Terre = Love on the Ground", "work_id": 115944, "role": "producer", "role_id": 1089, "is_primary": true}, {"id": 2330267, "title": "The Beautiful troublemaker = La Belle noiseuse", "work_id": 95022, "role": "producer", "role_id": 1089, "is_primary": true}], "also_known_as": "Martine Georgette Bougon", "date_of_birth": "1946-12-27", "date_of_death": "2022-07-14", "genders": [{"id": 5, "name": "Female", "slug": "female"}], "languages": [{"id": 4, "name": "French", "slug": "french"}], "places_of_operation": [{"id": 17, "name": "France", "slug": "france"}], "biography": "", "biography_author": null, "date_of_biography": "2023-05-09T19:24:37.978822+10:00", "external_links": [], "uuid": "cbc19249-7e3b-4d00-b81b-093b6b940d1f", "source": {"name": "Vernon", "slug": "vernon"}, "source_identifier": "24683", "external_references": [{"id": 36769, "source": {"name": "Wikidata", "slug": "wikidata"}, "source_identifier": "Q3295809"}, {"id": 55199, "source": {"name": "VIAF", "slug": "viaf"}, "source_identifier": "87357720"}, {"id": 55200, "source": {"name": "LOC Auth", "slug": "loc-auth"}, "source_identifier": "nr97036200"}, {"id": 55201, "source": {"name": "WorldCat", "slug": "worldcat"}, "source_identifier": "lccn-nr97036200"}], "date_modified": "2025-05-22T22:41:36.114642+10:00"}, {"id": 37049, "name": "Greg Yaitanes", "roles_in_work": [{"id": 2136522, "title": "Children of Dune", "work_id": 94957, "role": "director", "role_id": 938, "is_primary": true}], "also_known_as": "", "date_of_birth": "1970-06-18", "date_of_death": "", "genders": [{"id": 9, "name": "Male", "slug": "male"}], "languages": [{"id": 1, "name": "English", "slug": "english"}], "places_of_operation": [{"id": 1, "name": "United States of America", "slug": "united-states-of-america"}], "biography": "Gregory Charles Yaitanes (born June 18, 1970) is an American television and film director. He is also an angel investor in Twitter.", "biography_author": "Wikidata", "date_of_biography": "2023-09-05T20:22:18.739285+10:00", "external_links": [{"id": 5849, "uri": "https://en.wikipedia.org/wiki/Greg_Yaitanes"}], "uuid": "ed6c55a9-d1c9-49f7-bf0e-a7154415c72a", "source": {"name": "Vernon", "slug": "vernon"}, "source_identifier": "20072", "external_references": [{"id": 33673, "source": {"name": "Wikidata", "slug": "wikidata"}, "source_identifier": "Q2735655"}, {"id": 54586, "source": {"name": "VIAF", "slug": "viaf"}, "source_identifier": "126259714"}, {"id": 54587, "source": {"name": "LOC Auth", "slug": "loc-auth"}, "source_identifier": "no2006032727"}, {"id": 54588, "source": {"name": "WorldCat", "slug": "worldcat"}, "source_identifier": "lccn-no2006032727"}], "date_modified": "2023-09-05T20:22:18.759811+10:00"}, {"id": 37048, "name": "Sci Fi Pictures", "roles_in_work": [{"id": 2136510, "title": "Children of Dune", "work_id": 94957, "role": "production company", "role_id": 941, "is_primary": true}], "also_known_as": "", "date_of_birth": "", "date_of_death": "", "genders": [], "languages": [], "places_of_operation": [], "biography": "", "biography_author": null, "date_of_biography": "2023-05-09T13:30:38.257142+10:00", "external_links": [], "uuid": "fedf1e62-1f7d-4536-8490-c2d5285373ae", "source": {"name": "Vernon", "slug": "vernon"}, "source_identifier": "12342", "external_references": [{"id": 35783, "source": {"name": "Wikidata", "slug": "wikidata"}, "source_identifier": "Q121143609"}], "date_modified": "2023-09-06T01:08:06.959280+10:00"}, {"id": 37046, "name": "Open Family Australia", "roles_in_work": [{"id": 2348685, "title": "The Finished people", "work_id": 94956, "role": "production company", "role_id": 941, "is_primary": true}], "also_known_as": "", "date_of_birth": "", "date_of_death": "", "genders": [], "languages": [], "places_of_operation": [], "biography": "", "biography_author": null, "date_of_biography": "2023-05-09T19:52:19.332775+10:00", "external_links": [], "uuid": "4a4ff5c9-fd2e-452d-91ea-2de53e69d884", "source": {"name": "Vernon", "slug": "vernon"}, "source_identifier": "11147", "external_references": [{"id": 38242, "source": {"name": "Wikidata", "slug": "wikidata"}, "source_identifier": "Q121299487"}], "date_modified": "2023-09-05T23:37:16.098333+10:00"}, {"id": 37045, "name": "Post 75 Productions", "roles_in_work": [{"id": 2348680, "title": "The Finished people", "work_id": 94956, "role": "production company", "role_id": 941, "is_primary": true}], "also_known_as": "", "date_of_birth": "", "date_of_death": "", "genders": [], "languages": [], "places_of_operation": [], "biography": "", "biography_author": null, "date_of_biography": "2023-05-09T19:52:19.095521+10:00", "external_links": [], "uuid": "8bd37472-3975-40d5-b451-39d8d172936e", "source": {"name": "Vernon", "slug": "vernon"}, "source_identifier": "11591", "external_references": [{"id": 38100, "source": {"name": "Wikidata", "slug": "wikidata"}, "source_identifier": "Q121034694"}], "date_modified": "2023-09-06T00:13:49.449542+10:00"}, {"id": 37041, "name": "Fandango Australia", "roles_in_work": [{"id": 2329239, "title": "The Balanda and the bark canoes", "work_id": 95581, "role": "production company", "role_id": 941, "is_primary": true}, {"id": 2085111, "title": "Alexandra's project", "work_id": 94949, "role": "production company", "role_id": 941, "is_primary": true}], "also_known_as": "", "date_of_birth": "", "date_of_death": "", "genders": [], "languages": [], "places_of_operation": [], "biography": "", "biography_author": null, "date_of_biography": "2023-05-09T19:23:22.331913+10:00", "external_links": [], "uuid": "8da761fd-5ee0-4356-9a09-e9d362008c55", "source": {"name": "Vernon", "slug": "vernon"}, "source_identifier": "8099", "external_references": [{"id": 34642, "source": {"name": "Wikidata", "slug": "wikidata"}, "source_identifier": "Q121035479"}], "date_modified": "2023-09-05T19:40:04.375625+10:00"}]}