{"count": 28681, "next": "https://api.acmi.net.au/creators/?page=2446", "previous": "https://api.acmi.net.au/creators/?page=2444", "results": [{"id": 14583, "name": "Humphrey Burton", "roles_in_work": [{"id": 751373, "title": "Profile of a quartet", "work_id": 71892, "role": "director", "role_id": 938, "is_primary": true}, {"id": 2249024, "title": "Requiem by Andrew Lloyd Webber", "work_id": 95287, "role": "director", "role_id": 938, "is_primary": true}, {"id": 2095770, "title": "Andrea Chenier", "work_id": 95425, "role": "director", "role_id": 938, "is_primary": true}, {"id": 885683, "title": "Manon Lescaut", "work_id": 95417, "role": "director", "role_id": 938, "is_primary": true}, {"id": 2749791, "title": "Bernstein on Beethoven: a tribute", "work_id": 96977, "role": "director", "role_id": 938, "is_primary": true}, {"id": 2756400, "title": "East meets West", "work_id": 67006, "role": "director", "role_id": 938, "is_primary": true}, {"id": 1846123, "title": "Verdi Requiem", "work_id": 81228, "role": "director", "role_id": 938, "is_primary": true}, {"id": 2614236, "title": "Die Fledermaus", "work_id": 83361, "role": "director", "role_id": 938, "is_primary": true}, {"id": 1807932, "title": "Elgar: Portrait of a Composer", "work_id": 81285, "role": "producer", "role_id": 1089, "is_primary": true}, {"id": 1808120, "title": "Macbeth: an opera in four acts", "work_id": 95422, "role": "producer", "role_id": 1089, "is_primary": true}, {"id": 2714801, "title": "The Golden ring", "work_id": 68120, "role": "producer", "role_id": 1089, "is_primary": true}, {"id": 1808556, "title": "The Marriage of Figaro = Le Nozze di Figaro", "work_id": 95453, "role": "producer", "role_id": 1089, "is_primary": true}], "also_known_as": "", "date_of_birth": "25 MAR 1931", "date_of_death": "", "genders": [{"id": 9, "name": "Male", "slug": "male"}], "languages": [{"id": 1, "name": "English", "slug": "english"}], "places_of_operation": [{"id": 10, "name": "United Kingdom", "slug": "united-kingdom"}], "biography": "Sir Humphrey McGuire Burton  (born 25 March 1931) is an English classical music television presenter, broadcaster, director, producer, impresario, lecturer and biographer of musicians. Burton was knighted in the 2020 New Year Honours for services to classical music, the arts and the media. Source: Wikidata; 01/08/2023", "biography_author": null, "date_of_biography": "2025-03-13T14:39:55.757312+11:00", "external_links": [{"id": 4183, "uri": "https://en.wikipedia.org/wiki/Humphrey_Burton"}], "uuid": "924625b0-7ae3-4ba5-a9c4-b6fc8b55beb2", "source": {"name": "Vernon", "slug": "vernon"}, "source_identifier": "20709", "external_references": [{"id": 26096, "source": {"name": "Wikidata", "slug": "wikidata"}, "source_identifier": "Q5941322"}, {"id": 28986, "source": {"name": "VIAF", "slug": "viaf"}, "source_identifier": "113665158"}, {"id": 28987, "source": {"name": "LOC Auth", "slug": "loc-auth"}, "source_identifier": "n85376675"}, {"id": 28988, "source": {"name": "WorldCat", "slug": "worldcat"}, "source_identifier": "lccn-n85376675"}], "date_modified": "2025-03-13T14:39:55.757569+11:00"}, {"id": 14582, "name": "Palmer Williams", "roles_in_work": [{"id": 2712606, "title": "East Germany: beyond the Wall", "work_id": 67005, "role": "director", "role_id": 938, "is_primary": true}, {"id": 1882297, "title": "The Great holiday massacre", "work_id": 76974, "role": "producer", "role_id": 1089, "is_primary": true}], "also_known_as": "", "date_of_birth": null, "date_of_death": null, "genders": [], "languages": [], "places_of_operation": [], "biography": "", "biography_author": null, "date_of_biography": null, "external_links": [], "uuid": "385266b0-3316-4c6f-af05-7a64c35276e4", "source": {"name": "Vernon", "slug": "vernon"}, "source_identifier": "26034", "external_references": [], "date_modified": "2025-03-12T00:26:15.647540+11:00"}, {"id": 14581, "name": "Columbia Broadcasting System Television", "roles_in_work": [{"id": 2646840, "title": "The Water famine", "work_id": 74498, "role": "production company", "role_id": 941, "is_primary": true}, {"id": 2712604, "title": "East Germany: beyond the Wall", "work_id": 67005, "role": "production company", "role_id": 941, "is_primary": true}], "also_known_as": "", "date_of_birth": "", "date_of_death": "", "genders": [], "languages": [], "places_of_operation": [], "biography": "", "biography_author": null, "date_of_biography": "2023-08-14T11:42:57.249108+10:00", "external_links": [], "uuid": "2522a2cf-f90b-403f-b765-3cc0a49fa622", "source": {"name": "Vernon", "slug": "vernon"}, "source_identifier": "6903", "external_references": [], "date_modified": "2025-03-12T00:26:12.043266+11:00"}, {"id": 14578, "name": "Harvard Film Service, Harvard University", "roles_in_work": [{"id": 751781, "title": "Reactions in plants and animals", "work_id": 72072, "role": "production company", "role_id": 941, "is_primary": true}, {"id": 2712590, "title": "Our changing earth. Part 1. The Earth's rocky crust", "work_id": 66999, "role": "production company", "role_id": 941, "is_primary": true}, {"id": 2646870, "title": "Our changing earth. Part 2. Wearing away of the land", "work_id": 74566, "role": "production company", "role_id": 941, "is_primary": true}, {"id": 2750400, "title": "African carving: a Dogon Kanaga mask", "work_id": 97305, "role": "production company", "role_id": 941, "is_primary": true}, {"id": 877298, "title": "Orange and blue", "work_id": 90582, "role": "production company", "role_id": 941, "is_primary": true}], "also_known_as": "", "date_of_birth": "", "date_of_death": "", "genders": [], "languages": [], "places_of_operation": [], "biography": "", "biography_author": null, "date_of_biography": "2023-08-11T13:38:57.714521+10:00", "external_links": [], "uuid": "21697e6d-9713-443a-97df-986c0affac40", "source": {"name": "Vernon", "slug": "vernon"}, "source_identifier": "4127", "external_references": [], "date_modified": "2025-03-13T00:21:31.843759+11:00"}, {"id": 14577, "name": "Dick Taylor", "roles_in_work": [{"id": 2712573, "title": "Earth is a battlefield", "work_id": 66993, "role": "director", "role_id": 938, "is_primary": true}], "also_known_as": "", "date_of_birth": "", "date_of_death": "", "genders": [], "languages": [], "places_of_operation": [], "biography": "", "biography_author": null, "date_of_biography": "2023-08-11T16:16:37.792496+10:00", "external_links": [], "uuid": "c7e2bfc2-6867-4fa7-acc2-5464fd9b9582", "source": {"name": "Vernon", "slug": "vernon"}, "source_identifier": "18128", "external_references": [], "date_modified": "2025-03-12T00:25:32.141302+11:00"}, {"id": 14576, "name": "W.M. Larkins Studio", "roles_in_work": [{"id": 859114, "title": "The Sure thing", "work_id": 73391, "role": "production company", "role_id": 941, "is_primary": true}, {"id": 2644646, "title": "The Electron's tale", "work_id": 67098, "role": "production company", "role_id": 941, "is_primary": true}, {"id": 2714379, "title": "Full Circle (Oil)", "work_id": 67883, "role": "production company", "role_id": 941, "is_primary": true}, {"id": 2712568, "title": "Earth is a battlefield", "work_id": 66993, "role": "production company", "role_id": 941, "is_primary": true}, {"id": 800223, "title": "The Bargain", "work_id": 88576, "role": "production company", "role_id": 941, "is_primary": true}, {"id": 856563, "title": "The Owl and Fred Jones", "work_id": 71296, "role": "production company", "role_id": 941, "is_primary": true}, {"id": 859182, "title": "T for teacher", "work_id": 73447, "role": "production company", "role_id": 941, "is_primary": true}], "also_known_as": "", "date_of_birth": "", "date_of_death": "", "genders": [], "languages": [], "places_of_operation": [], "biography": "", "biography_author": null, "date_of_biography": "2023-08-11T16:16:36.208992+10:00", "external_links": [], "uuid": "903ab765-d7b0-46a0-b7c3-2377d73de135", "source": {"name": "Vernon", "slug": "vernon"}, "source_identifier": "14218", "external_references": [], "date_modified": "2025-03-12T01:10:48.401061+11:00"}, {"id": 14575, "name": "Walter Bartky", "roles_in_work": [{"id": 2712566, "title": "The Earth in motion", "work_id": 66992, "role": "producer", "role_id": 1089, "is_primary": true}, {"id": 2713222, "title": "Exploring the universe", "work_id": 67303, "role": "producer", "role_id": 1089, "is_primary": true}], "also_known_as": "", "date_of_birth": null, "date_of_death": null, "genders": [], "languages": [], "places_of_operation": [], "biography": "", "biography_author": null, "date_of_biography": null, "external_links": [], "uuid": "10d20c1f-2703-491f-8237-99be34fee171", "source": {"name": "Vernon", "slug": "vernon"}, "source_identifier": "30232", "external_references": [], "date_modified": "2025-03-12T00:40:05.261597+11:00"}, {"id": 14574, "name": "Richard Barlow", "roles_in_work": [{"id": 2756957, "title": "The Ears and hearing. [Rev. ed.]", "work_id": 66991, "role": "director", "role_id": 938, "is_primary": true}], "also_known_as": "", "date_of_birth": "", "date_of_death": "", "genders": [], "languages": [], "places_of_operation": [], "biography": "", "biography_author": null, "date_of_biography": "2023-05-09T19:28:46.271685+10:00", "external_links": [], "uuid": "a38d5d24-13e3-4488-90c7-db993e9fae90", "source": {"name": "Vernon", "slug": "vernon"}, "source_identifier": "27322", "external_references": [{"id": 42825, "source": {"name": "Wikidata", "slug": "wikidata"}, "source_identifier": "Q121126468"}], "date_modified": "2025-03-13T14:42:31.320973+11:00"}, {"id": 14573, "name": "Doug Wilcox", "roles_in_work": [{"id": 2750184, "title": "Talk", "work_id": 97180, "role": "director", "role_id": 938, "is_primary": true}, {"id": 2793489, "title": "Talk (TEFC)", "work_id": 66989, "role": "director", "role_id": 938, "is_primary": true}], "also_known_as": "", "date_of_birth": null, "date_of_death": null, "genders": [], "languages": [], "places_of_operation": [], "biography": "", "biography_author": null, "date_of_biography": null, "external_links": [], "uuid": "75f3a9bd-2fa2-4679-bca6-d6b3630ef4f9", "source": {"name": "Vernon", "slug": "vernon"}, "source_identifier": "33338", "external_references": [], "date_modified": "2025-03-14T20:18:06.469906+11:00"}, {"id": 14572, "name": "David Allen", "roles_in_work": [{"id": 2751441, "title": "And what of the future?", "work_id": 97808, "role": "co-producer", "role_id": 915, "is_primary": true}, {"id": 2793486, "title": "Reading for what? (TEFC)", "work_id": 66988, "role": "producer", "role_id": 1089, "is_primary": true}, {"id": 2647262, "title": "The Silicon factor", "work_id": 75819, "role": "producer", "role_id": 1089, "is_primary": true}, {"id": 1818778, "title": "Making the most of the micro 6-10", "work_id": 77801, "role": "producer", "role_id": 1089, "is_primary": true}, {"id": 2764002, "title": "Thinking Small", "work_id": 76876, "role": "producer", "role_id": 1089, "is_primary": true}, {"id": 1818777, "title": "Making the most of the micro 1-5", "work_id": 77800, "role": "producer", "role_id": 1089, "is_primary": true}], "also_known_as": "", "date_of_birth": "", "date_of_death": "", "genders": [], "languages": [], "places_of_operation": [], "biography": "", "biography_author": null, "date_of_biography": "2023-05-09T12:23:19.733043+10:00", "external_links": [], "uuid": "59da052b-79ef-4c1a-ad91-eee4c6be0a4c", "source": {"name": "Vernon", "slug": "vernon"}, "source_identifier": "17486", "external_references": [{"id": 36261, "source": {"name": "Wikidata", "slug": "wikidata"}, "source_identifier": "Q121143719"}], "date_modified": "2025-03-14T20:18:04.389564+11:00"}]}