{"count": 28681, "next": "https://api.acmi.net.au/creators/?page=2454", "previous": "https://api.acmi.net.au/creators/?page=2452", "results": [{"id": 14477, "name": "Central Electric Authority", "roles_in_work": [{"id": 2712265, "title": "Don't be a dummy", "work_id": 66871, "role": "production company", "role_id": 941, "is_primary": true}], "also_known_as": "", "date_of_birth": null, "date_of_death": null, "genders": [], "languages": [], "places_of_operation": [], "biography": "", "biography_author": null, "date_of_biography": null, "external_links": [], "uuid": "918b90e2-1d19-4b96-88db-c5dadec5baa9", "source": {"name": "Vernon", "slug": "vernon"}, "source_identifier": "6408", "external_references": [], "date_modified": "2025-03-12T00:13:46.720424+11:00"}, {"id": 14476, "name": "Australian Agricultural Council", "roles_in_work": [{"id": 871738, "title": "The Unending search", "work_id": 87234, "role": "production company", "role_id": 941, "is_primary": true}, {"id": 2712260, "title": "Don't be a carrier", "work_id": 66870, "role": "production company", "role_id": 941, "is_primary": true}], "also_known_as": "", "date_of_birth": "", "date_of_death": "", "genders": [], "languages": [], "places_of_operation": [], "biography": "", "biography_author": null, "date_of_biography": "2023-05-09T15:22:44.467419+10:00", "external_links": [], "uuid": "de811c17-75ae-4d64-89e7-6145b4f38e3e", "source": {"name": "Vernon", "slug": "vernon"}, "source_identifier": "5560", "external_references": [{"id": 41631, "source": {"name": "Wikidata", "slug": "wikidata"}, "source_identifier": "Q121143872"}], "date_modified": "2025-03-12T00:13:42.192501+11:00"}, {"id": 14471, "name": "Fanelodge Productions", "roles_in_work": [{"id": 2712245, "title": "The Dolmetsch story. Part 1. Recorders", "work_id": 66864, "role": "production company", "role_id": 941, "is_primary": true}, {"id": 2748796, "title": "The Dolmetsch story. Part 2. Viols and fortepiano", "work_id": 96472, "role": "production company", "role_id": 941, "is_primary": true}, {"id": 2748798, "title": "The Dolmetsch Story. Part 3. Making music", "work_id": 96473, "role": "production company", "role_id": 941, "is_primary": true}], "also_known_as": "", "date_of_birth": null, "date_of_death": null, "genders": [], "languages": [], "places_of_operation": [], "biography": "", "biography_author": null, "date_of_biography": null, "external_links": [], "uuid": "933230c2-9488-48b3-bedb-117889b8ccff", "source": {"name": "Vernon", "slug": "vernon"}, "source_identifier": "8100", "external_references": [], "date_modified": "2025-03-12T23:45:48.354681+11:00"}, {"id": 14470, "name": "Pre-School Education Project", "roles_in_work": [{"id": 2712241, "title": "Dolls (TEFC)", "work_id": 66862, "role": "production company", "role_id": 941, "is_primary": true}], "also_known_as": "", "date_of_birth": null, "date_of_death": null, "genders": [], "languages": [], "places_of_operation": [], "biography": "", "biography_author": null, "date_of_biography": null, "external_links": [], "uuid": "9af08cef-759b-4cdd-a521-784540c1a666", "source": {"name": "Vernon", "slug": "vernon"}, "source_identifier": "13437", "external_references": [], "date_modified": "2025-03-12T00:13:29.571936+11:00"}, {"id": 14469, "name": "Department of Health Services", "roles_in_work": [{"id": 2750968, "title": "Fatness, foods and fads", "work_id": 97599, "role": "production company", "role_id": 941, "is_primary": true}, {"id": 2712239, "title": "Dollars or decay", "work_id": 66861, "role": "production company", "role_id": 941, "is_primary": true}], "also_known_as": "", "date_of_birth": null, "date_of_death": null, "genders": [], "languages": [], "places_of_operation": [], "biography": "", "biography_author": null, "date_of_biography": null, "external_links": [], "uuid": "0db7cf8c-26fe-4fd1-ad53-36fe1386aa10", "source": {"name": "Vernon", "slug": "vernon"}, "source_identifier": "7441", "external_references": [], "date_modified": "2025-03-13T00:32:51.866427+11:00"}, {"id": 14468, "name": "H Tyrlova", "roles_in_work": [{"id": 2712237, "title": "Dog's heaven", "work_id": 66860, "role": "director", "role_id": 938, "is_primary": true}, {"id": 856615, "title": "Paintings", "work_id": 71330, "role": "director", "role_id": 938, "is_primary": true}, {"id": 2469261, "title": "Toyland revolt", "work_id": 73951, "role": "co-director", "role_id": 959, "is_primary": true}], "also_known_as": "", "date_of_birth": "", "date_of_death": "", "genders": [], "languages": [], "places_of_operation": [], "biography": "", "biography_author": null, "date_of_biography": "2023-08-14T11:56:41.451840+10:00", "external_links": [], "uuid": "9cf516dd-c5d4-44be-8007-85f59437e08a", "source": {"name": "Vernon", "slug": "vernon"}, "source_identifier": "20187", "external_references": [], "date_modified": "2025-03-12T00:13:21.563646+11:00"}, {"id": 14467, "name": "Short Film Studio", "roles_in_work": [{"id": 827638, "title": "The Mole in the zoo", "work_id": 96872, "role": "production company", "role_id": 941, "is_primary": true}, {"id": 2712236, "title": "Dog's heaven", "work_id": 66860, "role": "production company", "role_id": 941, "is_primary": true}, {"id": 2714731, "title": "A Glittering song", "work_id": 68087, "role": "production company", "role_id": 941, "is_primary": true}, {"id": 759974, "title": "The Mole in the zoo (K)", "work_id": 75626, "role": "production company", "role_id": 941, "is_primary": true}], "also_known_as": "", "date_of_birth": "", "date_of_death": "", "genders": [], "languages": [], "places_of_operation": [], "biography": "", "biography_author": null, "date_of_biography": "2023-08-11T13:02:37.745551+10:00", "external_links": [], "uuid": "614f1324-57c0-40e7-aff0-042fc46be752", "source": {"name": "Vernon", "slug": "vernon"}, "source_identifier": "12551", "external_references": [], "date_modified": "2025-03-12T01:20:01.413044+11:00"}, {"id": 14466, "name": "South Africa. Union Education Dept.", "roles_in_work": [{"id": 2712233, "title": "The Dog", "work_id": 66858, "role": "production company", "role_id": 941, "is_primary": true}], "also_known_as": "", "date_of_birth": "", "date_of_death": "", "genders": [], "languages": [], "places_of_operation": [], "biography": "", "biography_author": null, "date_of_biography": "2023-08-14T11:10:04.285702+10:00", "external_links": [], "uuid": "6a71239b-a01d-4a7a-8ddb-b71a06b29a2d", "source": {"name": "Vernon", "slug": "vernon"}, "source_identifier": "13847", "external_references": [], "date_modified": "2025-03-12T00:13:14.719739+11:00"}, {"id": 14465, "name": "Production Film Services", "roles_in_work": [{"id": 2712232, "title": "The Dog", "work_id": 66858, "role": "production company", "role_id": 941, "is_primary": true}], "also_known_as": "", "date_of_birth": "", "date_of_death": "", "genders": [], "languages": [], "places_of_operation": [], "biography": "", "biography_author": null, "date_of_biography": "2023-08-14T11:10:03.644857+10:00", "external_links": [], "uuid": "e51dbb6e-3638-4c7f-b6ff-9cee3a3047fa", "source": {"name": "Vernon", "slug": "vernon"}, "source_identifier": "11668", "external_references": [], "date_modified": "2025-03-12T00:13:12.924413+11:00"}, {"id": 14464, "name": "Karsten Wedel", "roles_in_work": [{"id": 859142, "title": "Sweden is horrible", "work_id": 73413, "role": "director", "role_id": 938, "is_primary": true}, {"id": 2712231, "title": "Does it pay to survive?", "work_id": 66857, "role": "director", "role_id": 938, "is_primary": true}, {"id": 1811776, "title": "Like rings on water", "work_id": 69736, "role": "producer", "role_id": 1089, "is_primary": true}], "also_known_as": "", "date_of_birth": null, "date_of_death": null, "genders": [], "languages": [], "places_of_operation": [], "biography": "", "biography_author": null, "date_of_biography": null, "external_links": [], "uuid": "390b33ef-c53e-4645-a5e3-10bdab033f5c", "source": {"name": "Vernon", "slug": "vernon"}, "source_identifier": "23041", "external_references": [], "date_modified": "2025-03-12T00:13:11.048573+11:00"}]}