{"count": 28687, "next": "https://api.acmi.net.au/creators/?page=1218", "previous": "https://api.acmi.net.au/creators/?page=1216", "results": [{"id": 73177, "name": "STG Project Room, Brown University, The Devil's Workshop, BF Productions", "roles_in_work": [{"id": 2628581, "title": "Guns and poses (remix)", "work_id": 107965, "role": "production facilities", "role_id": 442, "is_primary": false}], "also_known_as": "", "date_of_birth": null, "date_of_death": null, "genders": [], "languages": [], "places_of_operation": [], "biography": "", "biography_author": null, "date_of_biography": null, "external_links": [], "uuid": "ba1d4df5-4a67-451d-be59-b36d92efd0ae", "source": {"name": "Vernon", "slug": "vernon"}, "source_identifier": "110503", "external_references": [], "date_modified": "2025-02-27T22:40:30.022399+11:00"}, {"id": 73176, "name": "NextWave Productions Colortek", "roles_in_work": [{"id": 2628580, "title": "Guns and poses (remix)", "work_id": 107965, "role": "photographer", "role_id": 440, "is_primary": false}], "also_known_as": "", "date_of_birth": null, "date_of_death": null, "genders": [], "languages": [], "places_of_operation": [], "biography": "", "biography_author": null, "date_of_biography": null, "external_links": [], "uuid": "15b1708f-ac99-4aac-99fc-a986c239cd52", "source": {"name": "Vernon", "slug": "vernon"}, "source_identifier": "110502", "external_references": [], "date_modified": "2025-02-27T22:40:29.430958+11:00"}, {"id": 73175, "name": "G.H. Benson", "roles_in_work": [{"id": 2628579, "title": "Guns and poses (remix)", "work_id": 107965, "role": "photographer", "role_id": 440, "is_primary": false}], "also_known_as": "", "date_of_birth": null, "date_of_death": null, "genders": [], "languages": [], "places_of_operation": [], "biography": "", "biography_author": null, "date_of_biography": null, "external_links": [], "uuid": "c51ab4f2-9962-4e52-9019-6a94f118bf71", "source": {"name": "Vernon", "slug": "vernon"}, "source_identifier": "110298", "external_references": [], "date_modified": "2025-02-27T22:40:28.841279+11:00"}, {"id": 73174, "name": "Renato Berta", "roles_in_work": [{"id": 2628574, "title": "Video 50", "work_id": 107964, "role": "lighting", "role_id": 447, "is_primary": false}], "also_known_as": "", "date_of_birth": "", "date_of_death": "", "genders": [], "languages": [], "places_of_operation": [], "biography": "", "biography_author": null, "date_of_biography": "2023-05-09T17:44:51.129932+10:00", "external_links": [], "uuid": "adad17c1-fdde-41ed-8c56-1d19337be20c", "source": {"name": "Vernon", "slug": "vernon"}, "source_identifier": "110292", "external_references": [], "date_modified": "2025-02-27T22:40:24.128179+11:00"}, {"id": 73173, "name": "Allan Lloyd", "roles_in_work": [{"id": 2628573, "title": "Video 50", "work_id": 107964, "role": "music", "role_id": 949, "is_primary": false}], "also_known_as": "", "date_of_birth": "", "date_of_death": "", "genders": [], "languages": [], "places_of_operation": [], "biography": "", "biography_author": null, "date_of_biography": "2023-05-09T17:44:50.899830+10:00", "external_links": [], "uuid": "354b01f4-2c9f-4677-8e4d-868fd1deb27d", "source": {"name": "Vernon", "slug": "vernon"}, "source_identifier": "110291", "external_references": [{"id": 51758, "source": {"name": "Wikidata", "slug": "wikidata"}, "source_identifier": "Q121360993"}], "date_modified": "2025-02-27T22:40:23.532964+11:00"}, {"id": 73172, "name": "Thomas Pilgin", "roles_in_work": [{"id": 2628568, "title": "The Passing", "work_id": 107963, "role": "engineering", "role_id": 477, "is_primary": false}], "also_known_as": "", "date_of_birth": null, "date_of_death": null, "genders": [], "languages": [], "places_of_operation": [], "biography": "", "biography_author": null, "date_of_biography": null, "external_links": [], "uuid": "350d160e-9bba-46ce-8942-dc54ea9a4ffc", "source": {"name": "Vernon", "slug": "vernon"}, "source_identifier": "110320", "external_references": [], "date_modified": "2025-02-27T22:40:18.974304+11:00"}, {"id": 73171, "name": "Robert Campbell", "roles_in_work": [{"id": 2628567, "title": "The Passing", "work_id": 107963, "role": "assistant", "role_id": 450, "is_primary": false}, {"id": 2116950, "title": "Birdman of paradise; William T. Cooper: portrait painter to the birds", "work_id": 85028, "role": "co-producer", "role_id": 915, "is_primary": true}], "also_known_as": "", "date_of_birth": "", "date_of_death": "", "genders": [], "languages": [], "places_of_operation": [], "biography": "", "biography_author": null, "date_of_biography": "2023-05-09T12:55:34.282556+10:00", "external_links": [], "uuid": "608be99a-fc50-451a-805a-f6cf735dc158", "source": {"name": "Vernon", "slug": "vernon"}, "source_identifier": "110319", "external_references": [{"id": 33449, "source": {"name": "Wikidata", "slug": "wikidata"}, "source_identifier": "Q121036749"}], "date_modified": "2025-02-27T22:40:18.368349+11:00"}, {"id": 73170, "name": "Donna Matorin", "roles_in_work": [{"id": 2628566, "title": "The Passing", "work_id": 107963, "role": "assistant", "role_id": 450, "is_primary": false}, {"id": 2628565, "title": "The Passing", "work_id": 107963, "role": "production manager", "role_id": 934, "is_primary": false}], "also_known_as": "", "date_of_birth": null, "date_of_death": null, "genders": [], "languages": [], "places_of_operation": [], "biography": "", "biography_author": null, "date_of_biography": null, "external_links": [], "uuid": "4e66c1c9-8881-40d5-a8d3-bad35ece8361", "source": {"name": "Vernon", "slug": "vernon"}, "source_identifier": "110318", "external_references": [], "date_modified": "2025-02-27T22:40:17.760386+11:00"}, {"id": 73169, "name": "Bruce Hutter", "roles_in_work": [{"id": 2628555, "title": "The Reflecting pool: collected work 1977-80", "work_id": 107961, "role": "editor", "role_id": 918, "is_primary": true}], "also_known_as": "", "date_of_birth": null, "date_of_death": null, "genders": [], "languages": [], "places_of_operation": [], "biography": "", "biography_author": null, "date_of_biography": null, "external_links": [], "uuid": "01ac3557-84b0-407e-ba22-fb8e5dac07e2", "source": {"name": "Vernon", "slug": "vernon"}, "source_identifier": "110317", "external_references": [{"id": 42334, "source": {"name": "Wikidata", "slug": "wikidata"}, "source_identifier": "Q121036361"}], "date_modified": "2025-02-27T22:40:09.485883+11:00"}, {"id": 73168, "name": "Mike Ballenger", "roles_in_work": [{"id": 2628554, "title": "The Reflecting pool: collected work 1977-80", "work_id": 107961, "role": "editor", "role_id": 918, "is_primary": true}], "also_known_as": "", "date_of_birth": null, "date_of_death": null, "genders": [], "languages": [], "places_of_operation": [], "biography": "", "biography_author": null, "date_of_biography": null, "external_links": [], "uuid": "73fc0554-24be-43ae-8242-5f64c7263704", "source": {"name": "Vernon", "slug": "vernon"}, "source_identifier": "110316", "external_references": [{"id": 35644, "source": {"name": "Wikidata", "slug": "wikidata"}, "source_identifier": "Q121078781"}], "date_modified": "2025-02-27T22:40:08.876428+11:00"}]}