{"count": 28687, "next": "https://api.acmi.net.au/creators/?page=1877", "previous": "https://api.acmi.net.au/creators/?page=1875", "results": [{"id": 24943, "name": "Kevin Sullivan Productions", "roles_in_work": [{"id": 2251210, "title": "Road to Avonlea", "work_id": 84613, "role": "production company", "role_id": 941, "is_primary": true}, {"id": 2250820, "title": "Road to Avonlea (Captioned)", "work_id": 82807, "role": "production company", "role_id": 941, "is_primary": true}], "also_known_as": "", "date_of_birth": "", "date_of_death": "", "genders": [], "languages": [], "places_of_operation": [], "biography": "", "biography_author": null, "date_of_biography": "2023-05-09T17:11:25.437150+10:00", "external_links": [], "uuid": "d7d98b72-f199-4a89-955c-aa9ef28a3630", "source": {"name": "Vernon", "slug": "vernon"}, "source_identifier": "9740", "external_references": [], "date_modified": "2023-06-14T16:33:30.576250+10:00"}, {"id": 24938, "name": "Tom Davenport", "roles_in_work": [{"id": 2236300, "title": "Rapunzel, Rapunzel", "work_id": 82798, "role": "director", "role_id": 938, "is_primary": true}, {"id": 2750866, "title": "Hansel & Gretel (An Appalachian Version)", "work_id": 97545, "role": "director", "role_id": 938, "is_primary": true}, {"id": 2236290, "title": "Rapunzel, Rapunzel", "work_id": 82798, "role": "co-producer", "role_id": 915, "is_primary": true}, {"id": 2750865, "title": "Hansel & Gretel (An Appalachian Version)", "work_id": 97545, "role": "producer", "role_id": 1089, "is_primary": true}], "also_known_as": "", "date_of_birth": "13 JUN 1939", "date_of_death": "", "genders": [{"id": 9, "name": "Male", "slug": "male"}], "languages": [], "places_of_operation": [{"id": 1, "name": "United States of America", "slug": "united-states-of-america"}], "biography": "Tom Davenport (born June 13, 1939) is an independent filmmaker and film distributor who has worked for decades documenting American life and exploring folklore. Currently based in Delaplane, Virginia, he is the founder and project director for Folkstreams, a website that houses independent documentary films about American folk roots and cultures.\n\nIn the winter 2016, Davenport released his follow-up film to his profile of a North Carolina family, A Singing Stream (1986) which he made in partnership with the Landis family who were featured in that film.  In 2018, he released a documentary on a 1932 lynching near his home in Fauquier County in Virginia.  He continues to oversee the Folkstreams website, as well as help with the management of his family farm in northern Virginia at Hollin Farms. Source: Wikidata; 01/08/2023", "biography_author": null, "date_of_biography": "2025-03-13T00:31:41.441897+11:00", "external_links": [{"id": 5275, "uri": "https://en.wikipedia.org/wiki/Tom_Davenport_(filmmaker)"}], "uuid": "6dbb3ed5-a652-491d-97a3-01a38551f4b7", "source": {"name": "Vernon", "slug": "vernon"}, "source_identifier": "4361", "external_references": [{"id": 26099, "source": {"name": "Wikidata", "slug": "wikidata"}, "source_identifier": "Q18204702"}, {"id": 31820, "source": {"name": "VIAF", "slug": "viaf"}, "source_identifier": "35788540"}, {"id": 31821, "source": {"name": "LOC Auth", "slug": "loc-auth"}, "source_identifier": "n82006579"}, {"id": 31822, "source": {"name": "WorldCat", "slug": "worldcat"}, "source_identifier": "lccn-n82006579"}], "date_modified": "2025-03-13T00:31:41.442131+11:00"}, {"id": 24932, "name": "Dyson Lovell", "roles_in_work": [{"id": 1804090, "title": "Merlin", "work_id": 86668, "role": "producer", "role_id": 1089, "is_primary": true}, {"id": 2174971, "title": "Jane Eyre", "work_id": 86115, "role": "producer", "role_id": 1089, "is_primary": true}, {"id": 1815052, "title": "Arabian Nights", "work_id": 92337, "role": "producer", "role_id": 1089, "is_primary": true}, {"id": 2084824, "title": "Alice in wonderland", "work_id": 87478, "role": "producer", "role_id": 1089, "is_primary": true}, {"id": 2476136, "title": "Hamlet (Zeffirelli)", "work_id": 82792, "role": "producer", "role_id": 1089, "is_primary": true}], "also_known_as": "", "date_of_birth": "1940-08-28", "date_of_death": "", "genders": [{"id": 9, "name": "Male", "slug": "male"}], "languages": [{"id": 1, "name": "English", "slug": "english"}], "places_of_operation": [{"id": 10, "name": "United Kingdom", "slug": "united-kingdom"}], "biography": "Dyson Lovell (born 28 August 1936) is a British film producer and actor. He produced amongst others, Franco Zeffirelli's Hamlet, starring Mel Gibson (1990), and Francis Ford Coppola's 1984 box-office flop The Cotton Club, starring Richard Gere and Diane Lane. He has received four Emmy Award, and three Golden Globe nominations for his work as a producer in television.Lovell originally trained as an actor at RADA, and his early stage work included appearances at The Old Vic and small roles on Broadway. He has played supporting roles in such films as Franco Zeffirelli's 1968 version of Romeo and Juliet, in which he played Sampson.", "biography_author": "Wikidata", "date_of_biography": "2023-09-05T19:22:23.583422+10:00", "external_links": [{"id": 3923, "uri": "https://en.wikipedia.org/wiki/Dyson_Lovell"}], "uuid": "4e153bdd-2602-4205-8c29-567de5c856d2", "source": {"name": "Vernon", "slug": "vernon"}, "source_identifier": "18476", "external_references": [{"id": 25844, "source": {"name": "Wikidata", "slug": "wikidata"}, "source_identifier": "Q1269303"}, {"id": 28280, "source": {"name": "VIAF", "slug": "viaf"}, "source_identifier": "19540603"}, {"id": 28281, "source": {"name": "LOC Auth", "slug": "loc-auth"}, "source_identifier": "nr92009776"}, {"id": 28282, "source": {"name": "WorldCat", "slug": "worldcat"}, "source_identifier": "lccn-nr92009776"}], "date_modified": "2023-09-05T19:22:23.593970+10:00"}, {"id": 24931, "name": "World Icon", "roles_in_work": [{"id": 2476134, "title": "Hamlet (Zeffirelli)", "work_id": 82792, "role": "production company", "role_id": 941, "is_primary": true}], "also_known_as": "", "date_of_birth": "", "date_of_death": "", "genders": [], "languages": [], "places_of_operation": [], "biography": "", "biography_author": null, "date_of_biography": "2023-08-17T15:32:42.392921+10:00", "external_links": [], "uuid": "f7c66f0c-5663-44ad-a9d0-5a73e717cf94", "source": {"name": "Vernon", "slug": "vernon"}, "source_identifier": "14456", "external_references": [], "date_modified": "2023-08-17T15:32:42.393133+10:00"}, {"id": 24928, "name": "Peter Ormrod", "roles_in_work": [{"id": 2213541, "title": "Eat the peach", "work_id": 82788, "role": "director", "role_id": 938, "is_primary": true}], "also_known_as": "", "date_of_birth": null, "date_of_death": null, "genders": [{"id": 9, "name": "Male", "slug": "male"}], "languages": [], "places_of_operation": [], "biography": "", "biography_author": null, "date_of_biography": null, "external_links": [], "uuid": "b3f18f1f-8e90-467a-9bb6-91b95d15e566", "source": {"name": "Vernon", "slug": "vernon"}, "source_identifier": "26665", "external_references": [{"id": 12180, "source": {"name": "Wikidata", "slug": "wikidata"}, "source_identifier": "Q106599585"}], "date_modified": "2023-09-13T12:31:56.124555+10:00"}, {"id": 24927, "name": "John Kelleher", "roles_in_work": [{"id": 2213536, "title": "Eat the peach", "work_id": 82788, "role": "producer", "role_id": 1089, "is_primary": true}], "also_known_as": "", "date_of_birth": "", "date_of_death": "", "genders": [], "languages": [], "places_of_operation": [], "biography": "", "biography_author": null, "date_of_biography": "2023-05-09T15:50:21.816825+10:00", "external_links": [], "uuid": "93ba4dce-126d-4603-9119-d1b2199b2f05", "source": {"name": "Vernon", "slug": "vernon"}, "source_identifier": "22346", "external_references": [{"id": 35749, "source": {"name": "Wikidata", "slug": "wikidata"}, "source_identifier": "Q121271503"}], "date_modified": "2023-09-05T21:39:43.597629+10:00"}, {"id": 24926, "name": "Strongbow Productions", "roles_in_work": [{"id": 2213527, "title": "Eat the peach", "work_id": 82788, "role": "production company", "role_id": 941, "is_primary": true}], "also_known_as": "", "date_of_birth": "", "date_of_death": "", "genders": [], "languages": [], "places_of_operation": [], "biography": "", "biography_author": null, "date_of_biography": "2023-05-09T15:50:19.710697+10:00", "external_links": [], "uuid": "816ef0ef-b29e-4630-9de1-9266c3f148e7", "source": {"name": "Vernon", "slug": "vernon"}, "source_identifier": "12997", "external_references": [{"id": 41844, "source": {"name": "Wikidata", "slug": "wikidata"}, "source_identifier": "Q121160038"}], "date_modified": "2023-09-06T01:33:19.277602+10:00"}, {"id": 24924, "name": "Mark Shields-Brown", "roles_in_work": [{"id": 2774597, "title": "A Local stranger: Claude Beach in Julia Creek", "work_id": 82786, "role": "director", "role_id": 938, "is_primary": true}], "also_known_as": "", "date_of_birth": "", "date_of_death": "", "genders": [], "languages": [], "places_of_operation": [], "biography": "", "biography_author": null, "date_of_biography": "2023-05-09T19:29:18.532069+10:00", "external_links": [], "uuid": "6f8db140-a7a7-4b8a-af97-015b61c6c8d1", "source": {"name": "Vernon", "slug": "vernon"}, "source_identifier": "24556", "external_references": [{"id": 34144, "source": {"name": "Wikidata", "slug": "wikidata"}, "source_identifier": "Q121337182"}], "date_modified": "2025-03-14T18:38:20.244107+11:00"}, {"id": 24921, "name": "Excellence in Training", "roles_in_work": [{"id": 2404106, "title": "Choices", "work_id": 82776, "role": "production company", "role_id": 941, "is_primary": true}], "also_known_as": "", "date_of_birth": "", "date_of_death": "", "genders": [], "languages": [], "places_of_operation": [], "biography": "", "biography_author": null, "date_of_biography": "2023-08-11T15:26:11.503292+10:00", "external_links": [], "uuid": "94e82e34-c17a-4e36-a2c6-9f08404c6580", "source": {"name": "Vernon", "slug": "vernon"}, "source_identifier": "8021", "external_references": [], "date_modified": "2023-08-11T15:26:11.503562+10:00"}, {"id": 24920, "name": "Atlantic", "roles_in_work": [{"id": 2077672, "title": "A World apart", "work_id": 82773, "role": "production company", "role_id": 941, "is_primary": true}, {"id": 868262, "title": "Lemonheads: two weeks in Australia", "work_id": 84535, "role": "production company", "role_id": 941, "is_primary": true}], "also_known_as": "", "date_of_birth": "", "date_of_death": "", "genders": [], "languages": [], "places_of_operation": [], "biography": "", "biography_author": null, "date_of_biography": "2023-05-09T11:43:08.348322+10:00", "external_links": [], "uuid": "3c6f0da7-a39f-4369-9dba-c2d8a71a1265", "source": {"name": "Vernon", "slug": "vernon"}, "source_identifier": "5494", "external_references": [], "date_modified": "2023-06-14T16:33:30.576250+10:00"}]}