{"count": 28687, "next": "https://api.acmi.net.au/creators/?page=2332", "previous": "https://api.acmi.net.au/creators/?page=2330", "results": [{"id": 16183, "name": "W. G. Nicholls", "roles_in_work": [{"id": 1813456, "title": "Nature in the garden", "work_id": 70772, "role": "producer", "role_id": 1089, "is_primary": true}, {"id": 1803982, "title": "Six minutes with nature", "work_id": 72865, "role": "producer", "role_id": 1089, "is_primary": true}, {"id": 2415498, "title": "Magic of nature. No. 3. The Ladybird", "work_id": 69472, "role": "producer", "role_id": 1089, "is_primary": true}], "also_known_as": "", "date_of_birth": "", "date_of_death": "", "genders": [], "languages": [], "places_of_operation": [], "biography": "", "biography_author": null, "date_of_biography": "2023-08-11T19:39:04.192146+10:00", "external_links": [], "uuid": "bc00799e-abc6-4c84-9c25-244aa99fa700", "source": {"name": "Vernon", "slug": "vernon"}, "source_identifier": "30192", "external_references": [], "date_modified": "2023-08-11T19:39:04.192548+10:00"}, {"id": 16181, "name": "Julian Bercovici", "roles_in_work": [{"id": 2414113, "title": "Lady beware", "work_id": 69468, "role": "producer", "role_id": 1089, "is_primary": true}, {"id": 1819586, "title": "Practical film making", "work_id": 71767, "role": "producer", "role_id": 1089, "is_primary": true}], "also_known_as": "", "date_of_birth": "", "date_of_death": "", "genders": [], "languages": [], "places_of_operation": [], "biography": "", "biography_author": null, "date_of_biography": "2023-08-11T19:11:42.157055+10:00", "external_links": [], "uuid": "1d496bf8-9dc5-41ca-bc86-2acaf9454c6b", "source": {"name": "Vernon", "slug": "vernon"}, "source_identifier": "22852", "external_references": [], "date_modified": "2023-08-11T19:11:42.157327+10:00"}, {"id": 16180, "name": "Julian Films", "roles_in_work": [{"id": 2414112, "title": "Lady beware", "work_id": 69468, "role": "production company", "role_id": 941, "is_primary": true}, {"id": 857144, "title": "Practical film making", "work_id": 71767, "role": "production company", "role_id": 941, "is_primary": true}], "also_known_as": "", "date_of_birth": "", "date_of_death": "", "genders": [], "languages": [], "places_of_operation": [], "biography": "", "biography_author": null, "date_of_biography": "2023-08-11T19:11:41.514096+10:00", "external_links": [], "uuid": "4b28fb1f-2230-474f-a50f-1aaaff69c298", "source": {"name": "Vernon", "slug": "vernon"}, "source_identifier": "22861", "external_references": [], "date_modified": "2023-08-11T19:11:41.514327+10:00"}, {"id": 16179, "name": "Girl Guides Association of Victoria", "roles_in_work": [{"id": 2645379, "title": "Lady Baden Powell in Victoria, 1967", "work_id": 69467, "role": "production company", "role_id": 941, "is_primary": true}], "also_known_as": "", "date_of_birth": "", "date_of_death": "", "genders": [], "languages": [], "places_of_operation": [], "biography": "", "biography_author": null, "date_of_biography": "2023-08-11T19:11:32.209605+10:00", "external_links": [], "uuid": "a53a12a1-2c55-4c10-bcd1-4de276121405", "source": {"name": "Vernon", "slug": "vernon"}, "source_identifier": "8737", "external_references": [], "date_modified": "2025-03-05T12:37:44.506164+11:00"}, {"id": 16178, "name": "Margret Turner", "roles_in_work": [{"id": 2414104, "title": "LAcrosse; lacrosse", "work_id": 69464, "role": "director", "role_id": 938, "is_primary": true}], "also_known_as": "", "date_of_birth": "", "date_of_death": "", "genders": [], "languages": [], "places_of_operation": [], "biography": "", "biography_author": null, "date_of_biography": "2023-08-11T19:11:30.076618+10:00", "external_links": [], "uuid": "03407e3e-5c6b-4594-865b-afe749637cb4", "source": {"name": "Vernon", "slug": "vernon"}, "source_identifier": "24381", "external_references": [], "date_modified": "2023-08-11T19:11:30.076922+10:00"}, {"id": 16176, "name": "D.M. Hatfield", "roles_in_work": [{"id": 2760470, "title": "Labor and childbirth", "work_id": 69461, "role": "director", "role_id": 938, "is_primary": true}, {"id": 2760473, "title": "A Normal birth", "work_id": 70955, "role": "director", "role_id": 938, "is_primary": true}, {"id": 2760477, "title": "Prenatal care", "work_id": 71789, "role": "producer", "role_id": 1089, "is_primary": true}, {"id": 2760475, "title": "Postnatal care", "work_id": 71731, "role": "producer", "role_id": 1089, "is_primary": true}], "also_known_as": "", "date_of_birth": "", "date_of_death": "", "genders": [], "languages": [], "places_of_operation": [], "biography": "", "biography_author": null, "date_of_biography": "2023-08-11T13:10:49.538831+10:00", "external_links": [], "uuid": "6ca16383-14a2-44a4-b0a7-e4bdedee3fec", "source": {"name": "Vernon", "slug": "vernon"}, "source_identifier": "17308", "external_references": [], "date_modified": "2025-03-14T17:25:15.892186+11:00"}, {"id": 16175, "name": "Photo & Sound Productions", "roles_in_work": [{"id": 2760468, "title": "Labor and childbirth", "work_id": 69461, "role": "production company", "role_id": 941, "is_primary": true}, {"id": 2760476, "title": "Prenatal care", "work_id": 71789, "role": "production company", "role_id": 941, "is_primary": true}], "also_known_as": "", "date_of_birth": "", "date_of_death": "", "genders": [], "languages": [], "places_of_operation": [], "biography": "", "biography_author": null, "date_of_biography": "2023-08-11T13:10:48.892439+10:00", "external_links": [], "uuid": "35360200-157a-4ffd-9181-ffaaae554b62", "source": {"name": "Vernon", "slug": "vernon"}, "source_identifier": "11459", "external_references": [], "date_modified": "2025-03-14T17:25:15.306522+11:00"}, {"id": 16174, "name": "David C. Oosthuizen", "roles_in_work": [{"id": 854157, "title": "Kutlwanong: a place of hearing", "work_id": 69457, "role": "director", "role_id": 938, "is_primary": true}, {"id": 2750679, "title": "Africa mosaic", "work_id": 97451, "role": "producer/director", "role_id": 31, "is_primary": true}], "also_known_as": "", "date_of_birth": "", "date_of_death": "", "genders": [], "languages": [], "places_of_operation": [], "biography": "", "biography_author": null, "date_of_biography": "2023-08-11T13:38:39.806346+10:00", "external_links": [], "uuid": "f40e786f-a546-4c2b-985a-cc38a802be23", "source": {"name": "Vernon", "slug": "vernon"}, "source_identifier": "17524", "external_references": [], "date_modified": "2025-03-13T00:27:03.030245+11:00"}, {"id": 16172, "name": "Films for the Humanities", "roles_in_work": [{"id": 858818, "title": "Stanislavsky: maker of the modern theater", "work_id": 73162, "role": "production company", "role_id": 941, "is_primary": true}, {"id": 760377, "title": "Woody Allen: an American comedy", "work_id": 75802, "role": "production company", "role_id": 941, "is_primary": true}, {"id": 2646277, "title": "Shakespeare and his stage: Approaches to Hamlet", "work_id": 72715, "role": "production company", "role_id": 941, "is_primary": true}, {"id": 888274, "title": "Ezra Pound: poets' poet", "work_id": 98133, "role": "production company", "role_id": 941, "is_primary": true}, {"id": 2752087, "title": "Yevtushenko: a poet's journey", "work_id": 98134, "role": "production company", "role_id": 941, "is_primary": true}, {"id": 888271, "title": "Robert Frost: a first acquaintance", "work_id": 98131, "role": "production company", "role_id": 941, "is_primary": true}, {"id": 854154, "title": "Kurt Vonnegut Jr: a self portrait", "work_id": 69456, "role": "production company", "role_id": 941, "is_primary": true}, {"id": 2781701, "title": "Theater of the absurd: Luigi Pirandello: Six characters in search of an author", "work_id": 73653, "role": "production company", "role_id": 941, "is_primary": true}, {"id": 2781704, "title": "History of the drama", "work_id": 115264, "role": "production company", "role_id": 941, "is_primary": true}], "also_known_as": "", "date_of_birth": "", "date_of_death": "", "genders": [], "languages": [], "places_of_operation": [], "biography": "", "biography_author": null, "date_of_biography": "2023-05-09T18:28:45.754212+10:00", "external_links": [], "uuid": "1cf519b5-42cb-4daa-8e92-6b291556929c", "source": {"name": "Vernon", "slug": "vernon"}, "source_identifier": "8310", "external_references": [{"id": 41200, "source": {"name": "Wikidata", "slug": "wikidata"}, "source_identifier": "Q121035766"}], "date_modified": "2025-03-14T19:10:08.386069+11:00"}, {"id": 16167, "name": "Office of the United Nations High Commissioner for Refugees", "roles_in_work": [{"id": 2645687, "title": "Mission to no man's land", "work_id": 70504, "role": "production company", "role_id": 941, "is_primary": true}, {"id": 875748, "title": "Yul Brynner reports on his mission to no man's land", "work_id": 89627, "role": "production company", "role_id": 941, "is_primary": true}, {"id": 2750911, "title": "Sigaalow: Town of dust", "work_id": 97570, "role": "production company", "role_id": 941, "is_primary": true}, {"id": 854145, "title": "Kryfto: give them a chance", "work_id": 69453, "role": "production company", "role_id": 941, "is_primary": true}, {"id": 757462, "title": "Give them a chance: we very much regret", "work_id": 74562, "role": "production company", "role_id": 941, "is_primary": true}], "also_known_as": "", "date_of_birth": "", "date_of_death": "", "genders": [], "languages": [], "places_of_operation": [], "biography": "", "biography_author": null, "date_of_biography": "2023-08-14T09:52:39.670157+10:00", "external_links": [], "uuid": "bd8874db-13f1-44b6-9ecd-3d991a46bbcf", "source": {"name": "Vernon", "slug": "vernon"}, "source_identifier": "11097", "external_references": [], "date_modified": "2025-03-13T00:32:13.292904+11:00"}]}