{"count": 28687, "next": "https://api.acmi.net.au/creators/?page=2189", "previous": "https://api.acmi.net.au/creators/?page=2187", "results": [{"id": 18895, "name": "ANGLIA", "roles_in_work": [{"id": 2770835, "title": "Last kingdom of the elephant", "work_id": 83331, "role": "production company", "role_id": 941, "is_primary": true}, {"id": 2770876, "title": "Pelican flyway", "work_id": 83433, "role": "production company", "role_id": 941, "is_primary": true}, {"id": 861074, "title": "The Year of the wildebeeste", "work_id": 74975, "role": "production company", "role_id": 941, "is_primary": true}, {"id": 2770944, "title": "Survival Anglia Wildlife Series", "work_id": 115151, "role": "production company", "role_id": 941, "is_primary": true}, {"id": 2770895, "title": "Together they stand", "work_id": 83752, "role": "production company", "role_id": 941, "is_primary": true}, {"id": 2770793, "title": "Balloon safari = Safari by balloon", "work_id": 80349, "role": "production company", "role_id": 941, "is_primary": true}], "also_known_as": "", "date_of_birth": "", "date_of_death": "", "genders": [], "languages": [], "places_of_operation": [], "biography": "", "biography_author": null, "date_of_biography": "2023-05-09T19:56:01.740780+10:00", "external_links": [], "uuid": "b09f1559-6f17-4c28-99d1-1c3500dd0509", "source": {"name": "Vernon", "slug": "vernon"}, "source_identifier": "5249", "external_references": [{"id": 33076, "source": {"name": "Wikidata", "slug": "wikidata"}, "source_identifier": "Q121337579"}], "date_modified": "2025-03-14T18:20:53.243041+11:00"}, {"id": 18894, "name": "Ray Daughters", "roles_in_work": [{"id": 2407450, "title": "Fifteenth Olympic Games - Helsinki: Men's diving", "work_id": 74971, "role": "production company", "role_id": 941, "is_primary": true}], "also_known_as": "", "date_of_birth": "", "date_of_death": "", "genders": [], "languages": [], "places_of_operation": [], "biography": "", "biography_author": null, "date_of_biography": "2023-08-11T16:37:05.801308+10:00", "external_links": [], "uuid": "a8248b30-40ac-41b8-afdc-746c3c57dde0", "source": {"name": "Vernon", "slug": "vernon"}, "source_identifier": "11878", "external_references": [], "date_modified": "2023-08-11T16:37:05.801564+10:00"}, {"id": 18893, "name": "Division of Visual Aids US Office of Education", "roles_in_work": [{"id": 2472104, "title": "X -Ray inspection", "work_id": 74970, "role": "production company", "role_id": 941, "is_primary": true}], "also_known_as": "", "date_of_birth": "", "date_of_death": "", "genders": [], "languages": [], "places_of_operation": [], "biography": "", "biography_author": null, "date_of_biography": "2023-08-14T12:53:20.182691+10:00", "external_links": [], "uuid": "a924659b-f212-4de3-b459-3134281e3b2b", "source": {"name": "Vernon", "slug": "vernon"}, "source_identifier": "7607", "external_references": [], "date_modified": "2023-08-14T12:53:20.182958+10:00"}, {"id": 18891, "name": "Pacific", "roles_in_work": [{"id": 2468814, "title": "The Wynns, winegrowers", "work_id": 74967, "role": "production company", "role_id": 941, "is_primary": true}], "also_known_as": "", "date_of_birth": "", "date_of_death": "", "genders": [], "languages": [], "places_of_operation": [], "biography": "", "biography_author": null, "date_of_biography": "2023-08-14T11:46:49.039728+10:00", "external_links": [], "uuid": "3a568935-8080-4c9d-9ea2-19810dba5e9a", "source": {"name": "Vernon", "slug": "vernon"}, "source_identifier": "11227", "external_references": [], "date_modified": "2023-08-14T11:46:49.039983+10:00"}, {"id": 18890, "name": "BBC Open University Production Centre", "roles_in_work": [{"id": 2768327, "title": "The Writer in exile: James Joyce", "work_id": 74962, "role": "production company", "role_id": 941, "is_primary": true}], "also_known_as": "", "date_of_birth": "", "date_of_death": "", "genders": [], "languages": [], "places_of_operation": [], "biography": "", "biography_author": null, "date_of_biography": "2023-08-14T11:46:44.194796+10:00", "external_links": [], "uuid": "75aeff56-58bc-44ed-944d-69f3a73a7867", "source": {"name": "Vernon", "slug": "vernon"}, "source_identifier": "35936", "external_references": [], "date_modified": "2025-03-14T18:09:30.147609+11:00"}, {"id": 18887, "name": "Pye Film Unit", "roles_in_work": [{"id": 2472039, "title": "World's first underwater television grab", "work_id": 74952, "role": "production company", "role_id": 941, "is_primary": true}], "also_known_as": "", "date_of_birth": "", "date_of_death": "", "genders": [], "languages": [], "places_of_operation": [], "biography": "", "biography_author": null, "date_of_biography": "2023-08-14T12:52:09.791754+10:00", "external_links": [], "uuid": "eec5151c-d300-40f0-aada-d9d1dd9b9c1d", "source": {"name": "Vernon", "slug": "vernon"}, "source_identifier": "11747", "external_references": [], "date_modified": "2023-08-14T12:52:09.791972+10:00"}, {"id": 18886, "name": "Meadway Productions", "roles_in_work": [{"id": 2472038, "title": "World's first underwater television grab", "work_id": 74952, "role": "production company", "role_id": 941, "is_primary": true}], "also_known_as": "", "date_of_birth": "", "date_of_death": "", "genders": [], "languages": [], "places_of_operation": [], "biography": "", "biography_author": null, "date_of_biography": "2023-08-14T12:52:09.174176+10:00", "external_links": [], "uuid": "9beb52c3-2665-4571-a0c8-d1637de98674", "source": {"name": "Vernon", "slug": "vernon"}, "source_identifier": "10402", "external_references": [], "date_modified": "2023-08-14T12:52:09.174386+10:00"}, {"id": 18884, "name": "Southern Illinois University Film Unit", "roles_in_work": [{"id": 2472080, "title": "World population", "work_id": 74946, "role": "production company", "role_id": 941, "is_primary": true}], "also_known_as": "", "date_of_birth": "", "date_of_death": "", "genders": [], "languages": [], "places_of_operation": [], "biography": "", "biography_author": null, "date_of_biography": "2023-08-14T12:52:49.833005+10:00", "external_links": [], "uuid": "457fd061-af02-474e-b7c8-df5c13460360", "source": {"name": "Vernon", "slug": "vernon"}, "source_identifier": "12798", "external_references": [], "date_modified": "2023-08-14T12:52:49.833311+10:00"}, {"id": 18881, "name": "Michael Oitom", "roles_in_work": [{"id": 2468803, "title": "The World of semi conductors", "work_id": 74939, "role": "director", "role_id": 938, "is_primary": true}], "also_known_as": "", "date_of_birth": "", "date_of_death": "", "genders": [], "languages": [], "places_of_operation": [], "biography": "", "biography_author": null, "date_of_biography": "2023-08-14T11:46:33.717081+10:00", "external_links": [], "uuid": "18eafe94-5303-4867-af64-84e0eb070eff", "source": {"name": "Vernon", "slug": "vernon"}, "source_identifier": "25179", "external_references": [], "date_modified": "2023-08-14T11:46:33.717414+10:00"}, {"id": 18880, "name": "A E I", "roles_in_work": [{"id": 2468802, "title": "The World of semi conductors", "work_id": 74939, "role": "production company", "role_id": 941, "is_primary": true}], "also_known_as": "", "date_of_birth": "", "date_of_death": "", "genders": [], "languages": [], "places_of_operation": [], "biography": "", "biography_author": null, "date_of_biography": "2023-08-14T11:46:33.069321+10:00", "external_links": [], "uuid": "5e7a7f90-6367-4a63-9496-d7394ecfce7b", "source": {"name": "Vernon", "slug": "vernon"}, "source_identifier": "4932", "external_references": [], "date_modified": "2023-08-14T11:46:33.069609+10:00"}]}