{"count": 28687, "next": "https://api.acmi.net.au/creators/?page=744", "previous": "https://api.acmi.net.au/creators/?page=742", "results": [{"id": 78153, "name": "Alma Sahbaz", "roles_in_work": [{"id": 2615713, "title": "Exile in Sarajevo", "work_id": 85999, "role": "co-director", "role_id": 959, "is_primary": true}], "also_known_as": "", "date_of_birth": "", "date_of_death": "", "genders": [], "languages": [], "places_of_operation": [], "biography": "", "biography_author": null, "date_of_biography": "2023-05-09T16:22:02.754113+10:00", "external_links": [], "uuid": "9e0eeae4-10b3-4628-9c93-30da7d35a9d8", "source": {"name": "Vernon", "slug": "vernon"}, "source_identifier": "15036", "external_references": [{"id": 34677, "source": {"name": "Wikidata", "slug": "wikidata"}, "source_identifier": "Q114804141"}], "date_modified": "2025-02-26T20:27:18.718916+11:00"}, {"id": 78152, "name": "Tahir Cambis", "roles_in_work": [{"id": 2615712, "title": "Exile in Sarajevo", "work_id": 85999, "role": "co-director", "role_id": 959, "is_primary": true}], "also_known_as": "", "date_of_birth": null, "date_of_death": "", "genders": [{"id": 9, "name": "Male", "slug": "male"}], "languages": [], "places_of_operation": [], "biography": "", "biography_author": null, "date_of_biography": "2023-05-09T16:22:02.518292+10:00", "external_links": [], "uuid": "a3f89266-a5cd-4a67-a99f-33c51d80d542", "source": {"name": "Vernon", "slug": "vernon"}, "source_identifier": "29460", "external_references": [{"id": 34634, "source": {"name": "Wikidata", "slug": "wikidata"}, "source_identifier": "Q16609597"}], "date_modified": "2025-02-26T20:27:18.127025+11:00"}, {"id": 78151, "name": "Jeremy Gwilt", "roles_in_work": [{"id": 2159304, "title": "Ivanhoe", "work_id": 85997, "role": "producer", "role_id": 1089, "is_primary": true}], "also_known_as": "", "date_of_birth": "", "date_of_death": "", "genders": [], "languages": [], "places_of_operation": [], "biography": "", "biography_author": null, "date_of_biography": "2023-05-09T14:13:12.294384+10:00", "external_links": [], "uuid": "817b15aa-7a54-4c5d-8634-d3084ccfbd8b", "source": {"name": "Vernon", "slug": "vernon"}, "source_identifier": "21742", "external_references": [{"id": 42258, "source": {"name": "Wikidata", "slug": "wikidata"}, "source_identifier": "Q121271374"}], "date_modified": "2023-09-05T21:21:17.267237+10:00"}, {"id": 78150, "name": "Simon Chilvers", "roles_in_work": [{"id": 791685, "title": "Waterfront", "work_id": 85996, "role": "cast", "role_id": 33, "is_primary": false}], "also_known_as": "", "date_of_birth": null, "date_of_death": null, "genders": [], "languages": [], "places_of_operation": [], "biography": "", "biography_author": null, "date_of_biography": null, "external_links": [], "uuid": "958b3887-48fb-499d-b409-7442f1e0c5c9", "source": {"name": "Vernon", "slug": "vernon"}, "source_identifier": null, "external_references": [{"id": 41549, "source": {"name": "Wikidata", "slug": "wikidata"}, "source_identifier": "Q121222645"}], "date_modified": "2023-09-06T01:20:00.418441+10:00"}, {"id": 78149, "name": "Lucy Trippett", "roles_in_work": [{"id": 2236487, "title": "Raptures : an underwater odyssey", "work_id": 85992, "role": "co-producer", "role_id": 915, "is_primary": true}], "also_known_as": "", "date_of_birth": "", "date_of_death": "", "genders": [], "languages": [], "places_of_operation": [], "biography": "", "biography_author": null, "date_of_biography": "2023-05-09T16:46:40.265485+10:00", "external_links": [], "uuid": "84c6f207-2ece-485e-82ae-1d8645173a85", "source": {"name": "Vernon", "slug": "vernon"}, "source_identifier": "24087", "external_references": [{"id": 34235, "source": {"name": "Wikidata", "slug": "wikidata"}, "source_identifier": "Q121036316"}], "date_modified": "2023-09-05T22:33:42.436212+10:00"}, {"id": 78148, "name": "Liz Wight", "roles_in_work": [{"id": 2103699, "title": "Australia : the great white shark", "work_id": 88941, "role": "director", "role_id": 938, "is_primary": true}, {"id": 2103696, "title": "Australia : the great white shark", "work_id": 88941, "role": "co-producer", "role_id": 915, "is_primary": true}, {"id": 2103655, "title": "Australia : land of the shark", "work_id": 85991, "role": "co-producer", "role_id": 915, "is_primary": true}], "also_known_as": "", "date_of_birth": "", "date_of_death": "", "genders": [], "languages": [], "places_of_operation": [], "biography": "", "biography_author": null, "date_of_biography": "2023-05-09T12:35:26.713549+10:00", "external_links": [], "uuid": "1fb54fa8-9e55-4e04-9aad-f3e2e14bf857", "source": {"name": "Vernon", "slug": "vernon"}, "source_identifier": "23952", "external_references": [{"id": 37265, "source": {"name": "Wikidata", "slug": "wikidata"}, "source_identifier": "Q121034591"}], "date_modified": "2023-09-05T22:28:50.094815+10:00"}, {"id": 78147, "name": "Wendy Baarda", "roles_in_work": [{"id": 2793789, "title": "Manyu-Wana 6", "work_id": 85983, "role": "co-director", "role_id": 959, "is_primary": true}, {"id": 2793783, "title": "Manyu-Wana 4", "work_id": 85985, "role": "co-director", "role_id": 959, "is_primary": true}, {"id": 2793786, "title": "Manyu-Wana 5", "work_id": 85984, "role": "co-director", "role_id": 959, "is_primary": true}, {"id": 2793796, "title": "Manyu-Wana 8", "work_id": 85981, "role": "co-director", "role_id": 959, "is_primary": true}, {"id": 2793800, "title": "Manyu-Wana 9", "work_id": 85980, "role": "co-director", "role_id": 959, "is_primary": true}, {"id": 2793803, "title": "Manyu-Wana 10", "work_id": 85979, "role": "co-director", "role_id": 959, "is_primary": true}, {"id": 2793778, "title": "Manyu-Wana 3", "work_id": 85986, "role": "co-producers/directors", "role_id": 628, "is_primary": true}, {"id": 2793773, "title": "Manyu-Wana 2", "work_id": 85987, "role": "co-producers/directors", "role_id": 628, "is_primary": true}, {"id": 2793770, "title": "Manyu-Wana 1", "work_id": 85988, "role": "co-producers/directors", "role_id": 628, "is_primary": true}, {"id": 2793793, "title": "Manyu-Wana 7", "work_id": 85982, "role": "co-producers/directors", "role_id": 628, "is_primary": true}], "also_known_as": "", "date_of_birth": null, "date_of_death": null, "genders": [], "languages": [], "places_of_operation": [], "biography": "", "biography_author": null, "date_of_biography": null, "external_links": [], "uuid": "968112d7-e1c1-47f0-bb97-6b570793b586", "source": {"name": "Vernon", "slug": "vernon"}, "source_identifier": "4012", "external_references": [{"id": 37364, "source": {"name": "Wikidata", "slug": "wikidata"}, "source_identifier": "Q121159849"}], "date_modified": "2025-03-14T20:20:40.006516+11:00"}, {"id": 78146, "name": "Graham Theakston", "roles_in_work": [{"id": 2615705, "title": "The Mill on the floss", "work_id": 85978, "role": "director", "role_id": 938, "is_primary": true}], "also_known_as": "", "date_of_birth": "1952-02-29", "date_of_death": "2014-09-02", "genders": [{"id": 9, "name": "Male", "slug": "male"}], "languages": [{"id": 1, "name": "English", "slug": "english"}], "places_of_operation": [{"id": 10, "name": "United Kingdom", "slug": "united-kingdom"}], "biography": "", "biography_author": null, "date_of_biography": null, "external_links": [], "uuid": "29261ec4-10e1-4a63-896d-155f9a368664", "source": {"name": "Vernon", "slug": "vernon"}, "source_identifier": "20005", "external_references": [{"id": 51126, "source": {"name": "Wikidata", "slug": "wikidata"}, "source_identifier": "Q20723096"}, {"id": 54577, "source": {"name": "VIAF", "slug": "viaf"}, "source_identifier": "288634460"}, {"id": 54578, "source": {"name": "LOC Auth", "slug": "loc-auth"}, "source_identifier": "no95044345"}, {"id": 54579, "source": {"name": "WorldCat", "slug": "worldcat"}, "source_identifier": "lccn-no95044345"}], "date_modified": "2025-02-26T20:27:13.242635+11:00"}, {"id": 78145, "name": "Brian Eastman", "roles_in_work": [{"id": 2616197, "title": "Shadowlands", "work_id": 86849, "role": "co-producer", "role_id": 915, "is_primary": true}, {"id": 2615704, "title": "The Mill on the floss", "work_id": 85978, "role": "producer", "role_id": 1089, "is_primary": true}], "also_known_as": "", "date_of_birth": "", "date_of_death": "", "genders": [], "languages": [], "places_of_operation": [], "biography": "", "biography_author": null, "date_of_biography": "2023-05-09T18:28:48.540650+10:00", "external_links": [], "uuid": "9d9cf8dc-366a-417a-b7ac-1ada94b456ff", "source": {"name": "Vernon", "slug": "vernon"}, "source_identifier": "16213", "external_references": [{"id": 38649, "source": {"name": "Wikidata", "slug": "wikidata"}, "source_identifier": "Q121126039"}], "date_modified": "2025-02-26T20:39:58.329325+11:00"}, {"id": 78144, "name": "Tom Wheeler", "roles_in_work": [{"id": 939927, "title": "Tick tock: all about the clock", "work_id": 85976, "role": "co-producer", "role_id": 915, "is_primary": true}], "also_known_as": "", "date_of_birth": null, "date_of_death": null, "genders": [], "languages": [], "places_of_operation": [], "biography": "", "biography_author": null, "date_of_biography": null, "external_links": [], "uuid": "cbf3193f-1cad-4f92-9bfa-40ea1e62436c", "source": {"name": "Vernon", "slug": "vernon"}, "source_identifier": null, "external_references": [{"id": 37287, "source": {"name": "Wikidata", "slug": "wikidata"}, "source_identifier": "Q121222779"}], "date_modified": "2023-09-06T01:54:25.490593+10:00"}]}