{"count": 28687, "next": "https://api.acmi.net.au/creators/?page=1305", "previous": "https://api.acmi.net.au/creators/?page=1303", "results": [{"id": 38807, "name": "De Nonno Pix", "roles_in_work": [{"id": 2752404, "title": "It's one family: knock on wood", "work_id": 98280, "role": "production company", "role_id": 941, "is_primary": true}], "also_known_as": "", "date_of_birth": "", "date_of_death": "", "genders": [], "languages": [], "places_of_operation": [], "biography": "", "biography_author": null, "date_of_biography": "2023-08-11T18:42:31.780140+10:00", "external_links": [], "uuid": "9c110fe0-32d3-49e8-9f14-5768134e331b", "source": {"name": "Vernon", "slug": "vernon"}, "source_identifier": "7366", "external_references": [], "date_modified": "2025-03-13T01:05:11.698111+11:00"}, {"id": 38804, "name": "HTV Limited", "roles_in_work": [{"id": 2752399, "title": "Filming the impossible", "work_id": 98278, "role": "production company", "role_id": 941, "is_primary": true}], "also_known_as": "", "date_of_birth": "", "date_of_death": "", "genders": [], "languages": [], "places_of_operation": [], "biography": "", "biography_author": null, "date_of_biography": "2023-05-09T16:53:01.615790+10:00", "external_links": [], "uuid": "a50a4949-e45e-45e4-bf27-55e9d2b33ee4", "source": {"name": "Vernon", "slug": "vernon"}, "source_identifier": "9175", "external_references": [{"id": 39178, "source": {"name": "Wikidata", "slug": "wikidata"}, "source_identifier": "Q121091019"}], "date_modified": "2025-03-13T01:05:06.300465+11:00"}, {"id": 38803, "name": "Ion Popescu-Gopo", "roles_in_work": [{"id": 2752398, "title": "And yet it moves", "work_id": 98277, "role": "director", "role_id": 938, "is_primary": true}], "also_known_as": "", "date_of_birth": null, "date_of_death": null, "genders": [], "languages": [], "places_of_operation": [], "biography": "", "biography_author": null, "date_of_biography": null, "external_links": [], "uuid": "f971e119-3e1b-439a-bde9-1e8e8a02f9cc", "source": {"name": "Vernon", "slug": "vernon"}, "source_identifier": "20841", "external_references": [], "date_modified": "2025-03-13T01:05:05.441614+11:00"}, {"id": 38802, "name": "Material Worth Productions", "roles_in_work": [{"id": 2793373, "title": "The Boy who liked deer", "work_id": 98271, "role": "production company", "role_id": 941, "is_primary": true}], "also_known_as": "", "date_of_birth": null, "date_of_death": null, "genders": [], "languages": [], "places_of_operation": [], "biography": "", "biography_author": null, "date_of_biography": null, "external_links": [], "uuid": "d4171fc5-3c35-4f22-9928-ec98837f017a", "source": {"name": "Vernon", "slug": "vernon"}, "source_identifier": "10358", "external_references": [], "date_modified": "2025-03-14T20:17:19.406383+11:00"}, {"id": 38801, "name": "Victoria Hamburg", "roles_in_work": [{"id": 2752361, "title": "So many voices: a look at abortion in America", "work_id": 98260, "role": "producer", "role_id": 1089, "is_primary": true}], "also_known_as": "", "date_of_birth": null, "date_of_death": null, "genders": [], "languages": [], "places_of_operation": [], "biography": "", "biography_author": null, "date_of_biography": null, "external_links": [], "uuid": "b54c9959-d4d6-498f-b6ff-d28f5673846c", "source": {"name": "Vernon", "slug": "vernon"}, "source_identifier": "30119", "external_references": [], "date_modified": "2025-03-13T01:02:44.181231+11:00"}, {"id": 38800, "name": "DHS Films", "roles_in_work": [{"id": 2752359, "title": "So many voices: a look at abortion in America", "work_id": 98260, "role": "production company", "role_id": 941, "is_primary": true}], "also_known_as": "", "date_of_birth": null, "date_of_death": null, "genders": [], "languages": [], "places_of_operation": [], "biography": "", "biography_author": null, "date_of_biography": null, "external_links": [], "uuid": "f7631628-3b55-40b1-bb40-df80e0636daa", "source": {"name": "Vernon", "slug": "vernon"}, "source_identifier": "7551", "external_references": [], "date_modified": "2025-03-13T01:02:42.999990+11:00"}, {"id": 38799, "name": "Sunrise Film's Ltd", "roles_in_work": [{"id": 2770206, "title": "Yohannes the silversmith (Ethiopia)", "work_id": 98259, "role": "production company", "role_id": 941, "is_primary": true}], "also_known_as": "", "date_of_birth": null, "date_of_death": null, "genders": [], "languages": [], "places_of_operation": [], "biography": "", "biography_author": null, "date_of_biography": null, "external_links": [], "uuid": "78e64a3b-e855-4c76-831f-6caf33a81d5d", "source": {"name": "Vernon", "slug": "vernon"}, "source_identifier": "13057", "external_references": [], "date_modified": "2025-03-14T18:17:46.082548+11:00"}, {"id": 38798, "name": "Shangahai Animation Studios", "roles_in_work": [{"id": 2752349, "title": "The Three monks", "work_id": 98256, "role": "production company", "role_id": 941, "is_primary": true}], "also_known_as": "", "date_of_birth": "", "date_of_death": "", "genders": [], "languages": [], "places_of_operation": [], "biography": "", "biography_author": null, "date_of_biography": "2023-08-14T11:37:44.918274+10:00", "external_links": [], "uuid": "41cdcc91-a567-4f78-8a8c-249991ca1c8b", "source": {"name": "Vernon", "slug": "vernon"}, "source_identifier": "12496", "external_references": [], "date_modified": "2025-03-13T01:02:35.862035+11:00"}, {"id": 38797, "name": "Pu Jia-Xiang", "roles_in_work": [{"id": 2752348, "title": "A Queer patient", "work_id": 98255, "role": "director", "role_id": 938, "is_primary": true}], "also_known_as": "", "date_of_birth": null, "date_of_death": null, "genders": [], "languages": [], "places_of_operation": [], "biography": "", "biography_author": null, "date_of_biography": null, "external_links": [], "uuid": "02d70d9a-0eb4-459a-a72e-8da43f3eabe2", "source": {"name": "Vernon", "slug": "vernon"}, "source_identifier": "26991", "external_references": [], "date_modified": "2025-03-13T01:02:35.034203+11:00"}, {"id": 38795, "name": "Lincoln Films", "roles_in_work": [{"id": 2752340, "title": "Lincoln County incident", "work_id": 98252, "role": "production company", "role_id": 941, "is_primary": true}], "also_known_as": "", "date_of_birth": "", "date_of_death": "", "genders": [], "languages": [], "places_of_operation": [], "biography": "", "biography_author": null, "date_of_biography": "2023-08-11T19:30:41.568097+10:00", "external_links": [], "uuid": "846d22d3-3e1e-45f7-bd58-12850951a1ed", "source": {"name": "Vernon", "slug": "vernon"}, "source_identifier": "10070", "external_references": [], "date_modified": "2025-03-13T01:02:29.353740+11:00"}]}