{"count": 28683, "next": "https://api.acmi.net.au/creators/?page=2112", "previous": "https://api.acmi.net.au/creators/?page=2110", "results": [{"id": 20314, "name": "Govert Veldt", "roles_in_work": [{"id": 2471043, "title": "Vincent", "work_id": 77302, "role": "producer", "role_id": 1089, "is_primary": true}], "also_known_as": "", "date_of_birth": "", "date_of_death": "", "genders": [], "languages": [], "places_of_operation": [], "biography": "", "biography_author": null, "date_of_biography": "2023-08-14T12:32:15.758723+10:00", "external_links": [], "uuid": "bc1e97e5-12c7-44a3-8ad1-dfab7c50c506", "source": {"name": "Vernon", "slug": "vernon"}, "source_identifier": "8829", "external_references": [], "date_modified": "2023-08-14T12:32:15.758955+10:00"}, {"id": 20313, "name": "Cinecentrum Holland Productions", "roles_in_work": [{"id": 2471042, "title": "Vincent", "work_id": 77302, "role": "production company", "role_id": 941, "is_primary": true}], "also_known_as": "", "date_of_birth": "", "date_of_death": "", "genders": [], "languages": [], "places_of_operation": [], "biography": "", "biography_author": null, "date_of_biography": "2023-08-14T12:32:15.148188+10:00", "external_links": [], "uuid": "2c4e88da-d90b-459f-b697-cb2958db4cd7", "source": {"name": "Vernon", "slug": "vernon"}, "source_identifier": "6669", "external_references": [], "date_modified": "2023-08-14T12:32:15.148566+10:00"}, {"id": 20310, "name": "Diane O'Connor", "roles_in_work": [{"id": 2753969, "title": "Student participation", "work_id": 99002, "role": "director", "role_id": 938, "is_primary": true}, {"id": 1905442, "title": "Seeds of change", "work_id": 98432, "role": "director", "role_id": 938, "is_primary": true}, {"id": 2753953, "title": "Partners in curriculum", "work_id": 98995, "role": "director", "role_id": 938, "is_primary": true}, {"id": 2752640, "title": "Just a story", "work_id": 98390, "role": "co-producer", "role_id": 915, "is_primary": true}, {"id": 2753917, "title": "More 'new' handwriting", "work_id": 98979, "role": "producer", "role_id": 1089, "is_primary": true}, {"id": 2753132, "title": "More new handwriting", "work_id": 98622, "role": "producer", "role_id": 1089, "is_primary": true}, {"id": 2752644, "title": "You Can Do It Too!", "work_id": 98392, "role": "producer/director", "role_id": 31, "is_primary": true}, {"id": 2752735, "title": "That Somers feeling", "work_id": 98434, "role": "producer/director", "role_id": 31, "is_primary": true}, {"id": 2753457, "title": "By design?", "work_id": 98768, "role": "producer/director", "role_id": 31, "is_primary": true}, {"id": 2374024, "title": "Are girls calculating?", "work_id": 77298, "role": "producer/director", "role_id": 31, "is_primary": true}, {"id": 831288, "title": "Two Australias", "work_id": 98431, "role": "producer/director", "role_id": 31, "is_primary": true}], "also_known_as": "", "date_of_birth": "", "date_of_death": "", "genders": [], "languages": [], "places_of_operation": [], "biography": "", "biography_author": null, "date_of_biography": "2023-07-05T03:50:12.997814+10:00", "external_links": [], "uuid": "98a4ec6b-493f-4f6a-bdd0-2a1b4ea83ee2", "source": {"name": "Vernon", "slug": "vernon"}, "source_identifier": "18085", "external_references": [{"id": 40464, "source": {"name": "Wikidata", "slug": "wikidata"}, "source_identifier": "Q120700904"}], "date_modified": "2025-03-13T01:35:52.981418+11:00"}, {"id": 20309, "name": "Victoria. Dept. of Education and Early Childhood Development", "roles_in_work": [{"id": 2753343, "title": "Seen and heard", "work_id": 98718, "role": "production company", "role_id": 941, "is_primary": true}, {"id": 2753456, "title": "By design?", "work_id": 98768, "role": "production company", "role_id": 941, "is_primary": true}, {"id": 2753459, "title": "Apes, apples and androids", "work_id": 98773, "role": "production company", "role_id": 941, "is_primary": true}, {"id": 2753463, "title": "Working together", "work_id": 98775, "role": "production company", "role_id": 941, "is_primary": true}, {"id": 2753468, "title": "Dressing up in the past", "work_id": 98778, "role": "production company", "role_id": 941, "is_primary": true}, {"id": 2753473, "title": "Principal choice", "work_id": 98780, "role": "production company", "role_id": 941, "is_primary": true}, {"id": 2753478, "title": "Of primary importance: a diary of change for equality", "work_id": 98784, "role": "production company", "role_id": 941, "is_primary": true}, {"id": 2753515, "title": "You and your school council", "work_id": 98806, "role": "production company", "role_id": 941, "is_primary": true}, {"id": 2753640, "title": "Taking off in French", "work_id": 98861, "role": "production company", "role_id": 941, "is_primary": true}, {"id": 2753704, "title": "Real maths and school maths: can we close the gap?", "work_id": 98892, "role": "production company", "role_id": 941, "is_primary": true}, {"id": 2753706, "title": "You can ukulele", "work_id": 98893, "role": "production company", "role_id": 941, "is_primary": true}, {"id": 2753708, "title": "Zoo with class", "work_id": 98894, "role": "production company", "role_id": 941, "is_primary": true}, {"id": 2753780, "title": "Curriculum Victoria: growing and learning", "work_id": 98925, "role": "production company", "role_id": 941, "is_primary": true}, {"id": 2753804, "title": "A Look inside", "work_id": 98935, "role": "production company", "role_id": 941, "is_primary": true}, {"id": 2753890, "title": "Greek curriculum", "work_id": 98967, "role": "production company", "role_id": 941, "is_primary": true}, {"id": 2753892, "title": "Zoo creatures great and small", "work_id": 98968, "role": "production company", "role_id": 941, "is_primary": true}, {"id": 2753895, "title": "Let's not say goodbye", "work_id": 98969, "role": "production company", "role_id": 941, "is_primary": true}, {"id": 2753899, "title": "Carnivore capers", "work_id": 98972, "role": "production company", "role_id": 941, "is_primary": true}, {"id": 2753904, "title": "Victorian education history. - No. 1.", "work_id": 98974, "role": "production company", "role_id": 941, "is_primary": true}, {"id": 2753909, "title": "Beating the clock - at work: the limits of human performance", "work_id": 98976, "role": "production company", "role_id": 941, "is_primary": true}, {"id": 2753912, "title": "History of photography. Parts 1 & 2", "work_id": 98977, "role": "production company", "role_id": 941, "is_primary": true}, {"id": 2753913, "title": "Beating the clock - at sport: the limits of human performance", "work_id": 98978, "role": "production company", "role_id": 941, "is_primary": true}, {"id": 2753922, "title": "Dance in education", "work_id": 98981, "role": "production company", "role_id": 941, "is_primary": true}, {"id": 2753971, "title": "Countering sexism", "work_id": 99003, "role": "production company", "role_id": 941, "is_primary": true}, {"id": 2753975, "title": "Women working in the media", "work_id": 99004, "role": "production company", "role_id": 941, "is_primary": true}, {"id": 2753995, "title": "All about L.O.T.E.: languages other than English", "work_id": 99012, "role": "production company", "role_id": 941, "is_primary": true}, {"id": 2754033, "title": "Last resort", "work_id": 99028, "role": "production company", "role_id": 941, "is_primary": true}, {"id": 2754093, "title": "Past times", "work_id": 99056, "role": "production company", "role_id": 941, "is_primary": true}, {"id": 2749077, "title": "Circus nomads", "work_id": 96624, "role": "production company", "role_id": 941, "is_primary": true}, {"id": 2754777, "title": "Hidden costs", "work_id": 99356, "role": "production company", "role_id": 941, "is_primary": true}, {"id": 831287, "title": "Two Australias", "work_id": 98431, "role": "production company", "role_id": 941, "is_primary": true}, {"id": 888679, "title": "Making sum-think happen", "work_id": 98387, "role": "production company", "role_id": 941, "is_primary": true}, {"id": 831209, "title": "Mainly monkeys. Koalas and co", "work_id": 98399, "role": "production company", "role_id": 941, "is_primary": true}, {"id": 889178, "title": "Students in action", "work_id": 99005, "role": "production company", "role_id": 941, "is_primary": true}, {"id": 829997, "title": "Mainly monkeys", "work_id": 97896, "role": "production company", "role_id": 941, "is_primary": true}, {"id": 888909, "title": "Slip of the tongue", "work_id": 98659, "role": "production company", "role_id": 941, "is_primary": true}, {"id": 886299, "title": "Timboon Consolidated School", "work_id": 95704, "role": "production company", "role_id": 941, "is_primary": true}, {"id": 878864, "title": "Physical education at Crows Nest, Queenscliff", "work_id": 91431, "role": "production company", "role_id": 941, "is_primary": true}, {"id": 2374100, "title": "[Matthew Flinders: bi-centennial celebrations 1974]", "work_id": 89889, "role": "production company", "role_id": 941, "is_primary": true}, {"id": 1915350, "title": "Children with special abilities", "work_id": 78168, "role": "production company", "role_id": 941, "is_primary": true}, {"id": 2374023, "title": "Are girls calculating?", "work_id": 77298, "role": "production company", "role_id": 941, "is_primary": true}, {"id": 886297, "title": "Murrayville Consolidated School", "work_id": 95703, "role": "production company", "role_id": 941, "is_primary": true}, {"id": 830505, "title": "A Zoo in the trees. - [2nd ed.]", "work_id": 98117, "role": "production company", "role_id": 941, "is_primary": true}, {"id": 1905302, "title": "The Secondary Teacher", "work_id": 96414, "role": "production company", "role_id": 941, "is_primary": true}, {"id": 1905441, "title": "Seeds of change", "work_id": 98432, "role": "production company", "role_id": 941, "is_primary": true}, {"id": 832239, "title": "Program budgeting", "work_id": 98896, "role": "production company", "role_id": 941, "is_primary": true}, {"id": 825188, "title": "The Victorian State Schools' Nursery", "work_id": 95724, "role": "production company", "role_id": 941, "is_primary": true}, {"id": 832477, "title": "Fox's party; Christmas buns [Greek Dialogue] [Compilation]", "work_id": 98983, "role": "production company", "role_id": 941, "is_primary": true}, {"id": 831797, "title": "Reading on", "work_id": 98681, "role": "production company", "role_id": 941, "is_primary": true}, {"id": 1913091, "title": "Sheep: handle with care. Parts I-III", "work_id": 98895, "role": "production company", "role_id": 941, "is_primary": true}, {"id": 832482, "title": "Tomorrow's people today", "work_id": 98985, "role": "production company", "role_id": 941, "is_primary": true}, {"id": 2751607, "title": "Koalas and co", "work_id": 97895, "role": "production company", "role_id": 941, "is_primary": true}, {"id": 2751610, "title": "The Coast: a question of balance", "work_id": 97897, "role": "production company", "role_id": 941, "is_primary": true}, {"id": 2752225, "title": "The Age of change", "work_id": 98200, "role": "production company", "role_id": 941, "is_primary": true}, {"id": 2752564, "title": "Our fragile coast: The Coast, a question of balance", "work_id": 98354, "role": "production company", "role_id": 941, "is_primary": true}, {"id": 2752606, "title": "Spelling it out", "work_id": 98376, "role": "production company", "role_id": 941, "is_primary": true}, {"id": 2752608, "title": "Holidays pay", "work_id": 98377, "role": "production company", "role_id": 941, "is_primary": true}, {"id": 2752632, "title": "Strategies for teaching social studies", "work_id": 98388, "role": "production company", "role_id": 941, "is_primary": true}, {"id": 2752634, "title": "Something new", "work_id": 98389, "role": "production company", "role_id": 941, "is_primary": true}, {"id": 2752641, "title": "Beginning reading", "work_id": 98391, "role": "production company", "role_id": 941, "is_primary": true}, {"id": 2752643, "title": "You Can Do It Too!", "work_id": 98392, "role": "production company", "role_id": 941, "is_primary": true}, {"id": 2752645, "title": "Making your mind up", "work_id": 98393, "role": "production company", "role_id": 941, "is_primary": true}, {"id": 2752657, "title": "Through a looking glass; Drama is -", "work_id": 98398, "role": "production company", "role_id": 941, "is_primary": true}, {"id": 2752675, "title": "Primary media studies", "work_id": 98410, "role": "production company", "role_id": 941, "is_primary": true}, {"id": 2752678, "title": "Small claims tribunal", "work_id": 98412, "role": "production company", "role_id": 941, "is_primary": true}, {"id": 2752728, "title": "Down the up ladder", "work_id": 98430, "role": "production company", "role_id": 941, "is_primary": true}, {"id": 2752732, "title": "Plastic economy: banking and technology", "work_id": 98433, "role": "production company", "role_id": 941, "is_primary": true}, {"id": 2752734, "title": "That Somers feeling", "work_id": 98434, "role": "production company", "role_id": 941, "is_primary": true}, {"id": 2752772, "title": "Dysphasic school children", "work_id": 98450, "role": "production company", "role_id": 941, "is_primary": true}, {"id": 2752774, "title": "Making it relevant", "work_id": 98451, "role": "production company", "role_id": 941, "is_primary": true}, {"id": 2752785, "title": "The Making of a story: television news", "work_id": 98457, "role": "production company", "role_id": 941, "is_primary": true}, {"id": 2788356, "title": "Why Not the Kids?", "work_id": 98749, "role": "production company", "role_id": 941, "is_primary": true}, {"id": 2788365, "title": "Red Tape", "work_id": 98750, "role": "production company", "role_id": 941, "is_primary": true}, {"id": 2788372, "title": "Choice for Year Nine", "work_id": 98751, "role": "production company", "role_id": 941, "is_primary": true}, {"id": 2788380, "title": "Changes...From the Inside", "work_id": 115358, "role": "production company", "role_id": 941, "is_primary": true}, {"id": 2753131, "title": "More new handwriting", "work_id": 98622, "role": "production company", "role_id": 941, "is_primary": true}, {"id": 2753211, "title": "Bilingual kids", "work_id": 98655, "role": "production company", "role_id": 941, "is_primary": true}], "also_known_as": "", "date_of_birth": "", "date_of_death": "", "genders": [], "languages": [], "places_of_operation": [], "biography": "", "biography_author": null, "date_of_biography": "2023-08-11T16:32:41.898969+10:00", "external_links": [], "uuid": "f0985070-6e1a-4a80-86e2-0d46bd599697", "source": {"name": "Vernon", "slug": "vernon"}, "source_identifier": "7747", "external_references": [{"id": 37943, "source": {"name": "Wikidata", "slug": "wikidata"}, "source_identifier": "Q121079100"}], "date_modified": "2025-03-14T19:44:17.858657+11:00"}, {"id": 20308, "name": "Malcolm Paterson", "roles_in_work": [{"id": 2769586, "title": "The Desert hopping mouse", "work_id": 77296, "role": "camera operator", "role_id": 931, "is_primary": false}, {"id": 2145113, "title": "Continent in crisis", "work_id": 82602, "role": "producer", "role_id": 1089, "is_primary": true}, {"id": 2649792, "title": "Genetic engineering: exploring the issues", "work_id": 82255, "role": "producer", "role_id": 1089, "is_primary": true}], "also_known_as": "", "date_of_birth": "", "date_of_death": "", "genders": [], "languages": [], "places_of_operation": [], "biography": "", "biography_author": null, "date_of_biography": "2023-08-11T19:29:51.536718+10:00", "external_links": [], "uuid": "f938ded8-4cb4-4fb9-91fb-03c9e7570380", "source": {"name": "Vernon", "slug": "vernon"}, "source_identifier": "24229", "external_references": [{"id": 36381, "source": {"name": "Wikidata", "slug": "wikidata"}, "source_identifier": "Q121298883"}], "date_modified": "2025-03-14T18:15:14.673233+11:00"}, {"id": 20306, "name": "Cappy Productions", "roles_in_work": [{"id": 2762748, "title": "Children and sports", "work_id": 77294, "role": "production company", "role_id": 941, "is_primary": true}, {"id": 2136411, "title": "Children and sports (TEFC)", "work_id": 78313, "role": "production company", "role_id": 941, "is_primary": true}, {"id": 2063343, "title": "100 years of Olympic glory", "work_id": 85217, "role": "production company", "role_id": 941, "is_primary": true}], "also_known_as": "", "date_of_birth": "", "date_of_death": "", "genders": [], "languages": [], "places_of_operation": [], "biography": "", "biography_author": null, "date_of_biography": "2023-05-09T15:45:31.955726+10:00", "external_links": [], "uuid": "db166c60-83c2-42e2-a6b0-35a8dddbfd25", "source": {"name": "Vernon", "slug": "vernon"}, "source_identifier": "6282", "external_references": [{"id": 37579, "source": {"name": "Wikidata", "slug": "wikidata"}, "source_identifier": "Q121035213"}], "date_modified": "2025-03-14T17:39:16.592352+11:00"}, {"id": 20304, "name": "Dan Rose", "roles_in_work": [{"id": 2647779, "title": "Olympics: the eternal torch", "work_id": 77293, "role": "co-director", "role_id": 959, "is_primary": true}, {"id": 2647778, "title": "Olympics: the eternal torch", "work_id": 77293, "role": "producer", "role_id": 1089, "is_primary": true}], "also_known_as": "", "date_of_birth": null, "date_of_death": null, "genders": [], "languages": [], "places_of_operation": [], "biography": "", "biography_author": null, "date_of_biography": null, "external_links": [], "uuid": "e88e0771-08df-42b0-a0a8-e2ff75c8786b", "source": {"name": "Vernon", "slug": "vernon"}, "source_identifier": "17369", "external_references": [], "date_modified": "2025-03-05T13:32:06.282147+11:00"}, {"id": 20303, "name": "Oxford Films", "roles_in_work": [{"id": 2647777, "title": "Olympics: the eternal torch", "work_id": 77293, "role": "production company", "role_id": 941, "is_primary": true}, {"id": 2751500, "title": "Economics for elementary: trade", "work_id": 97837, "role": "production company", "role_id": 941, "is_primary": true}], "also_known_as": "", "date_of_birth": "", "date_of_death": "", "genders": [], "languages": [], "places_of_operation": [], "biography": "", "biography_author": null, "date_of_biography": "2023-08-11T16:17:50.395594+10:00", "external_links": [], "uuid": "fd35da7d-9e1b-4586-bcc1-ca3cd08bbc6b", "source": {"name": "Vernon", "slug": "vernon"}, "source_identifier": "3798", "external_references": [], "date_modified": "2025-03-13T00:45:26.364932+11:00"}, {"id": 20302, "name": "Associated Press", "roles_in_work": [{"id": 2647776, "title": "Olympics: the eternal torch", "work_id": 77293, "role": "production company", "role_id": 941, "is_primary": true}, {"id": 2280960, "title": "Vietnam: the war that divided America", "work_id": 90788, "role": "production company", "role_id": 941, "is_primary": true}], "also_known_as": "", "date_of_birth": "", "date_of_death": "", "genders": [], "languages": [], "places_of_operation": [], "biography": "", "biography_author": null, "date_of_biography": "2023-05-09T18:00:24.854918+10:00", "external_links": [], "uuid": "751fd506-f624-41f4-b237-c44d973af2f6", "source": {"name": "Vernon", "slug": "vernon"}, "source_identifier": "3797", "external_references": [{"id": 33853, "source": {"name": "Wikidata", "slug": "wikidata"}, "source_identifier": "Q121271034"}], "date_modified": "2025-03-05T13:32:04.543765+11:00"}, {"id": 20301, "name": "John Thomson", "roles_in_work": [{"id": 2125540, "title": "Broadway Danny Rose. Tennis elbow", "work_id": 82801, "role": "director", "role_id": 938, "is_primary": true}, {"id": 764037, "title": "Tennis elbow", "work_id": 77290, "role": "director", "role_id": 938, "is_primary": true}], "also_known_as": "", "date_of_birth": "", "date_of_death": "", "genders": [], "languages": [], "places_of_operation": [], "biography": "", "biography_author": null, "date_of_biography": "2023-05-09T13:10:26.039265+10:00", "external_links": [], "uuid": "cb55cfa7-2b0e-4ee5-87f5-daae326d0b30", "source": {"name": "Vernon", "slug": "vernon"}, "source_identifier": "110186", "external_references": [{"id": 36580, "source": {"name": "Wikidata", "slug": "wikidata"}, "source_identifier": "Q121126032"}], "date_modified": "2023-09-05T21:45:22.691776+10:00"}]}