{"count": 28687, "next": "https://api.acmi.net.au/creators/?page=2143", "previous": "https://api.acmi.net.au/creators/?page=2141", "results": [{"id": 19748, "name": "Michael Mills Productions", "roles_in_work": [{"id": 2647512, "title": "The History of the world in three minutes flat", "work_id": 76480, "role": "production company", "role_id": 941, "is_primary": true}], "also_known_as": "", "date_of_birth": null, "date_of_death": null, "genders": [], "languages": [], "places_of_operation": [], "biography": "", "biography_author": null, "date_of_biography": null, "external_links": [], "uuid": "f605c984-7cb4-44cb-bac4-fcda77605780", "source": {"name": "Vernon", "slug": "vernon"}, "source_identifier": "10504", "external_references": [], "date_modified": "2025-03-05T13:26:51.509135+11:00"}, {"id": 19746, "name": "Mike Weatherley", "roles_in_work": [{"id": 2769098, "title": "Not so much a desert, more a way of life", "work_id": 76483, "role": "producer", "role_id": 1089, "is_primary": true}, {"id": 2769106, "title": "The Present from Gondwanaland", "work_id": 77039, "role": "producer", "role_id": 1089, "is_primary": true}, {"id": 2769109, "title": "Up a gum tree", "work_id": 115110, "role": "producer", "role_id": 1089, "is_primary": true}, {"id": 2769095, "title": "The Landscape architects", "work_id": 76481, "role": "producer", "role_id": 1089, "is_primary": true}, {"id": 2769092, "title": "The Great Barriers", "work_id": 76479, "role": "producer", "role_id": 1089, "is_primary": true}, {"id": 2769091, "title": "Fire down below", "work_id": 76475, "role": "producer", "role_id": 1089, "is_primary": true}, {"id": 2769101, "title": "The Landscape architects; Fire down below", "work_id": 77029, "role": "producer/director", "role_id": 31, "is_primary": true}], "also_known_as": "", "date_of_birth": "", "date_of_death": "", "genders": [], "languages": [], "places_of_operation": [], "biography": "", "biography_author": null, "date_of_biography": "2023-07-19T03:36:09.155652+10:00", "external_links": [], "uuid": "866339e3-98d0-42d2-86ec-36ee4051f52a", "source": {"name": "Vernon", "slug": "vernon"}, "source_identifier": "25407", "external_references": [{"id": 37917, "source": {"name": "Wikidata", "slug": "wikidata"}, "source_identifier": "Q121143627"}], "date_modified": "2025-03-14T18:12:40.471834+11:00"}, {"id": 19745, "name": "Kieran Hickey", "roles_in_work": [{"id": 2397296, "title": "A Child's voice", "work_id": 76474, "role": "director", "role_id": 938, "is_primary": true}, {"id": 876613, "title": "Faithful departed", "work_id": 90174, "role": "director", "role_id": 938, "is_primary": true}], "also_known_as": "", "date_of_birth": "1936-01-01", "date_of_death": "1993-01-01", "genders": [], "languages": [], "places_of_operation": [], "biography": "", "biography_author": null, "date_of_biography": "2023-08-11T12:54:54.929538+10:00", "external_links": [], "uuid": "241bf7d3-d6fb-4831-ac1f-9c7100261422", "source": {"name": "Vernon", "slug": "vernon"}, "source_identifier": "23322", "external_references": [{"id": 34168, "source": {"name": "Wikidata", "slug": "wikidata"}, "source_identifier": "Q110693672"}], "date_modified": "2023-09-05T22:08:33.868811+10:00"}, {"id": 19744, "name": "Roland Hill", "roles_in_work": [{"id": 2397295, "title": "A Child's voice", "work_id": 76474, "role": "producer", "role_id": 1089, "is_primary": true}], "also_known_as": "", "date_of_birth": "1920", "date_of_death": "", "genders": [], "languages": [], "places_of_operation": [], "biography": "", "biography_author": null, "date_of_biography": "2023-08-11T12:54:54.291602+10:00", "external_links": [], "uuid": "44181e1b-868e-4263-98d7-e1a47e1ae86d", "source": {"name": "Vernon", "slug": "vernon"}, "source_identifier": "28100", "external_references": [], "date_modified": "2023-08-11T12:54:54.291889+10:00"}, {"id": 19743, "name": "B.A.C. Films Ltd (Ireland)", "roles_in_work": [{"id": 2397294, "title": "A Child's voice", "work_id": 76474, "role": "production company", "role_id": 941, "is_primary": true}, {"id": 876611, "title": "Faithful departed", "work_id": 90174, "role": "production company", "role_id": 941, "is_primary": true}], "also_known_as": "", "date_of_birth": "", "date_of_death": "", "genders": [], "languages": [], "places_of_operation": [], "biography": "", "biography_author": null, "date_of_biography": "2023-08-11T12:54:53.650379+10:00", "external_links": [], "uuid": "e8c86158-f6fa-4450-bb8b-91e2f1e8e980", "source": {"name": "Vernon", "slug": "vernon"}, "source_identifier": "4336", "external_references": [], "date_modified": "2023-08-11T12:54:53.650658+10:00"}, {"id": 19742, "name": "Paddy Carey", "roles_in_work": [{"id": 2402463, "title": "Beara", "work_id": 76472, "role": "director", "role_id": 938, "is_primary": true}], "also_known_as": "", "date_of_birth": "", "date_of_death": "", "genders": [], "languages": [], "places_of_operation": [], "biography": "", "biography_author": null, "date_of_biography": "2023-08-11T14:46:37.619196+10:00", "external_links": [], "uuid": "252241ca-a3e2-48c1-9383-e570e64109f5", "source": {"name": "Vernon", "slug": "vernon"}, "source_identifier": "26026", "external_references": [], "date_modified": "2023-08-11T14:46:37.619414+10:00"}, {"id": 19741, "name": "Rosemead Films", "roles_in_work": [{"id": 2402461, "title": "Beara", "work_id": 76472, "role": "production company", "role_id": 941, "is_primary": true}], "also_known_as": "", "date_of_birth": "", "date_of_death": "", "genders": [], "languages": [], "places_of_operation": [], "biography": "", "biography_author": null, "date_of_biography": "2023-08-11T14:46:36.277974+10:00", "external_links": [], "uuid": "44cb7488-33b3-4ea3-9ead-54f65bfe65f0", "source": {"name": "Vernon", "slug": "vernon"}, "source_identifier": "12121", "external_references": [], "date_modified": "2023-08-11T14:46:36.278233+10:00"}, {"id": 19736, "name": "Gaumont-British Screen Services", "roles_in_work": [{"id": 2316044, "title": "Student nurse", "work_id": 76465, "role": "production company", "role_id": 941, "is_primary": true}], "also_known_as": "", "date_of_birth": "", "date_of_death": "", "genders": [], "languages": [], "places_of_operation": [], "biography": "", "biography_author": null, "date_of_biography": "2023-05-09T19:04:30.622757+10:00", "external_links": [], "uuid": "69d8f19a-56de-4e78-89d5-42396f239b83", "source": {"name": "Vernon", "slug": "vernon"}, "source_identifier": "33251", "external_references": [{"id": 34211, "source": {"name": "Wikidata", "slug": "wikidata"}, "source_identifier": "Q121079536"}], "date_modified": "2023-09-05T19:59:22.271545+10:00"}, {"id": 19735, "name": "Murray Martin", "roles_in_work": [{"id": 863760, "title": "The Filleting machine", "work_id": 77475, "role": "director", "role_id": 938, "is_primary": true}, {"id": 2647499, "title": "Quayside", "work_id": 76456, "role": "co-director", "role_id": 959, "is_primary": true}], "also_known_as": "", "date_of_birth": "", "date_of_death": "", "genders": [], "languages": [], "places_of_operation": [], "biography": "", "biography_author": null, "date_of_biography": "2023-05-09T16:42:30.151133+10:00", "external_links": [], "uuid": "a872133e-38be-4809-8beb-dbc3f5043bff", "source": {"name": "Vernon", "slug": "vernon"}, "source_identifier": "111796", "external_references": [{"id": 34701, "source": {"name": "Wikidata", "slug": "wikidata"}, "source_identifier": "Q121223317"}], "date_modified": "2025-03-05T13:26:42.936646+11:00"}, {"id": 19733, "name": "Ward's", "roles_in_work": [{"id": 2762245, "title": "Protist ecology (TEFC)", "work_id": 76451, "role": "production company", "role_id": 941, "is_primary": true}], "also_known_as": "", "date_of_birth": "", "date_of_death": "", "genders": [], "languages": [], "places_of_operation": [], "biography": "", "biography_author": null, "date_of_biography": "2023-08-14T10:28:55.920773+10:00", "external_links": [], "uuid": "d0df3b60-b6fa-4365-90f4-f9a0e0af1bec", "source": {"name": "Vernon", "slug": "vernon"}, "source_identifier": "14240", "external_references": [], "date_modified": "2025-03-14T17:37:27.173660+11:00"}]}