{"count": 28687, "next": "https://api.acmi.net.au/creators/?page=1794", "previous": "https://api.acmi.net.au/creators/?page=1792", "results": [{"id": 26529, "name": "Edward Alperson", "roles_in_work": [{"id": 1997953, "title": "Invaders from mars", "work_id": 93555, "role": "producer", "role_id": 1089, "is_primary": true}, {"id": 2476434, "title": "Irma La Douce", "work_id": 84588, "role": "producer", "role_id": 1089, "is_primary": true}, {"id": 2476433, "title": "Irma La Douce", "work_id": 84588, "role": "production company", "role_id": 941, "is_primary": true}], "also_known_as": "", "date_of_birth": "1895-11-13", "date_of_death": "1969-07-03", "genders": [{"id": 9, "name": "Male", "slug": "male"}], "languages": [], "places_of_operation": [{"id": 1, "name": "United States of America", "slug": "united-states-of-america"}], "biography": "Edward Lee Alperson (November 13, 1895 - July 3, 1969) was an American film producer who started Grand National Films Inc. and later released his productions through 20th Century Fox. He was the father of Edward L. Alperson Jr. (April 3, 1925 – October 31, 2006).", "biography_author": "Wikidata", "date_of_biography": "2022-05-19T11:21:16.740665+10:00", "external_links": [{"id": 1971, "uri": "https://en.wikipedia.org/wiki/Edward_L._Alperson"}], "uuid": "46d1cc18-a3fd-400f-8b01-39668a09977c", "source": {"name": "Vernon", "slug": "vernon"}, "source_identifier": "18607", "external_references": [{"id": 8528, "source": {"name": "Wikidata", "slug": "wikidata"}, "source_identifier": "Q5343983"}, {"id": 8529, "source": {"name": "VIAF", "slug": "viaf"}, "source_identifier": "86512211"}, {"id": 8530, "source": {"name": "LOC Auth", "slug": "loc-auth"}, "source_identifier": "n87847718"}, {"id": 8531, "source": {"name": "WorldCat", "slug": "worldcat"}, "source_identifier": "lccn-n87847718"}], "date_modified": "2023-09-13T12:29:12.773991+10:00"}, {"id": 26528, "name": "James Lapine", "roles_in_work": [{"id": 1988359, "title": "Impromptu", "work_id": 84585, "role": "director", "role_id": 938, "is_primary": true}], "also_known_as": "", "date_of_birth": "1949-01-10", "date_of_death": null, "genders": [{"id": 9, "name": "Male", "slug": "male"}], "languages": [{"id": 1, "name": "English", "slug": "english"}], "places_of_operation": [{"id": 1, "name": "United States of America", "slug": "united-states-of-america"}], "biography": "James Elliot Lapine (born January 10, 1949) is an American stage director, playwright, screenwriter, and librettist. He has won the Tony Award for Best Book of a Musical three times, for Into the Woods, Falsettos, and Passion. He has frequently collaborated with Stephen Sondheim and William Finn.", "biography_author": "Wikidata", "date_of_biography": "2022-05-19T11:52:37.878363+10:00", "external_links": [{"id": 2317, "uri": "https://en.wikipedia.org/wiki/James_Lapine"}], "uuid": "501a0cd9-09e3-483e-9f62-873c6b8f1444", "source": {"name": "Vernon", "slug": "vernon"}, "source_identifier": "21266", "external_references": [{"id": 9942, "source": {"name": "Wikidata", "slug": "wikidata"}, "source_identifier": "Q6137781"}, {"id": 9943, "source": {"name": "VIAF", "slug": "viaf"}, "source_identifier": "17424341"}, {"id": 9944, "source": {"name": "LOC Auth", "slug": "loc-auth"}, "source_identifier": "n81151247"}, {"id": 9945, "source": {"name": "WorldCat", "slug": "worldcat"}, "source_identifier": "lccn-n81151247"}], "date_modified": "2023-09-13T12:30:14.990017+10:00"}, {"id": 26524, "name": "Spettacoli", "roles_in_work": [{"id": 2184094, "title": "Deep red", "work_id": 84584, "role": "production company", "role_id": 941, "is_primary": true}], "also_known_as": "", "date_of_birth": "", "date_of_death": "", "genders": [], "languages": [], "places_of_operation": [], "biography": "", "biography_author": null, "date_of_biography": "2023-05-09T14:57:45.040844+10:00", "external_links": [], "uuid": "cae7113b-765a-4878-b492-1641099143f0", "source": {"name": "Vernon", "slug": "vernon"}, "source_identifier": "12859", "external_references": [{"id": 33470, "source": {"name": "Wikidata", "slug": "wikidata"}, "source_identifier": "Q121079342"}], "date_modified": "2023-09-06T01:25:11.981643+10:00"}, {"id": 26522, "name": "Republic Films", "roles_in_work": [{"id": 2189458, "title": "Diary of a chambermaid", "work_id": 84583, "role": "production company", "role_id": 941, "is_primary": true}], "also_known_as": "", "date_of_birth": "", "date_of_death": "", "genders": [], "languages": [], "places_of_operation": [], "biography": "", "biography_author": null, "date_of_biography": "2023-05-09T15:06:32.598877+10:00", "external_links": [], "uuid": "4f1a27a0-1f08-468c-8a8a-eb8a172d036d", "source": {"name": "Vernon", "slug": "vernon"}, "source_identifier": "11971", "external_references": [{"id": 34301, "source": {"name": "Wikidata", "slug": "wikidata"}, "source_identifier": "Q121057832"}], "date_modified": "2023-09-06T00:26:22.267274+10:00"}, {"id": 26519, "name": "Giuliani De Negri", "roles_in_work": [{"id": 2615683, "title": "Good morning Babylon", "work_id": 85953, "role": "producer", "role_id": 1089, "is_primary": true}, {"id": 1820326, "title": "The Night of Saint Lawrence = La Notte di San Lorenzo", "work_id": 84582, "role": "producer", "role_id": 1089, "is_primary": true}], "also_known_as": "", "date_of_birth": null, "date_of_death": null, "genders": [], "languages": [], "places_of_operation": [], "biography": "", "biography_author": null, "date_of_biography": null, "external_links": [], "uuid": "282b56f5-959c-4815-a09b-57e936a90271", "source": {"name": "Vernon", "slug": "vernon"}, "source_identifier": "19871", "external_references": [], "date_modified": "2025-02-26T20:26:53.285390+11:00"}, {"id": 26516, "name": "Joan Carell", "roles_in_work": [{"id": 1988341, "title": "Heaven's gate", "work_id": 84581, "role": "producer", "role_id": 1089, "is_primary": true}], "also_known_as": "", "date_of_birth": null, "date_of_death": null, "genders": [{"id": 5, "name": "Female", "slug": "female"}], "languages": [], "places_of_operation": [], "biography": "", "biography_author": null, "date_of_biography": null, "external_links": [], "uuid": "a7e5c176-2be9-41ef-b162-39d43beac636", "source": {"name": "Vernon", "slug": "vernon"}, "source_identifier": "21966", "external_references": [{"id": 10249, "source": {"name": "Wikidata", "slug": "wikidata"}, "source_identifier": "Q75189137"}], "date_modified": "2023-09-13T12:30:29.004381+10:00"}, {"id": 26513, "name": "Tom Savini", "roles_in_work": [{"id": 2153129, "title": "Night of the living dead", "work_id": 84578, "role": "director", "role_id": 938, "is_primary": true}], "also_known_as": "", "date_of_birth": "1946-11-03", "date_of_death": null, "genders": [{"id": 9, "name": "Male", "slug": "male"}], "languages": [{"id": 1, "name": "English", "slug": "english"}], "places_of_operation": [{"id": 1, "name": "United States of America", "slug": "united-states-of-america"}], "biography": "Thomas Vincent Savini (born November 3, 1946) is an American prosthetic makeup artist, actor, stunt performer and film director. He is known for his makeup and special effects work on many films directed by George A. Romero, including Martin, Dawn of the Dead, Day of the Dead, Creepshow and Monkey Shines; he also created the special effects and makeup for many cult classics like Friday the 13th (parts I and IV), Maniac, The Burning, The Prowler and The Texas Chainsaw Massacre 2.\nSavini directed Night of the Living Dead, the 1990 remake of Romero's 1968 Night of the Living Dead; his other directing work includes three episodes of the TV show Tales from the Darkside and one segment in The Theatre Bizarre. As an actor and stuntman, he has appeared in films such as Martin, Dawn of the Dead, Knightriders, From Dusk till Dawn, Planet Terror, Machete, Django Unchained and Machete Kills.", "biography_author": "Wikidata", "date_of_biography": "2022-05-19T13:16:09.675231+10:00", "external_links": [{"id": 3222, "uri": "https://en.wikipedia.org/wiki/Tom_Savini"}], "uuid": "7d1040f6-f7e6-48fc-9d95-6402f5ed1c82", "source": {"name": "Vernon", "slug": "vernon"}, "source_identifier": "13613", "external_references": [{"id": 13638, "source": {"name": "Wikidata", "slug": "wikidata"}, "source_identifier": "Q152309"}, {"id": 13639, "source": {"name": "VIAF", "slug": "viaf"}, "source_identifier": "94546572"}, {"id": 13640, "source": {"name": "LOC Auth", "slug": "loc-auth"}, "source_identifier": "n83024302"}, {"id": 13641, "source": {"name": "WorldCat", "slug": "worldcat"}, "source_identifier": "lccn-n83024302"}], "date_modified": "2023-09-13T12:33:03.473130+10:00"}, {"id": 26510, "name": "21st Century Film Corporation", "roles_in_work": [{"id": 2116475, "title": "Bizarre cults", "work_id": 92662, "role": "production company", "role_id": 941, "is_primary": true}, {"id": 2153121, "title": "Night of the living dead", "work_id": 84578, "role": "production company", "role_id": 941, "is_primary": true}], "also_known_as": "", "date_of_birth": "", "date_of_death": "", "genders": [], "languages": [], "places_of_operation": [], "biography": "21st Century Film Corporation Inc. was a theatrical distribution company formed sometime in the 1970s as a production company and distributor. Menahem Golan served as CEO of the company from 1989 to the company's bankruptcy.", "biography_author": "Wikidata", "date_of_biography": "2023-08-01T13:53:06.230071+10:00", "external_links": [{"id": 3482, "uri": "https://en.wikipedia.org/wiki/21st_Century_Film_Corporation"}], "uuid": "1b22dace-3e67-4234-9008-89df06da71cd", "source": {"name": "Vernon", "slug": "vernon"}, "source_identifier": "3688", "external_references": [{"id": 26950, "source": {"name": "Wikidata", "slug": "wikidata"}, "source_identifier": "Q4631061"}, {"id": 27077, "source": {"name": "VIAF", "slug": "viaf"}, "source_identifier": "151590211"}, {"id": 27078, "source": {"name": "LOC Auth", "slug": "loc-auth"}, "source_identifier": "no99009166"}, {"id": 27079, "source": {"name": "WorldCat", "slug": "worldcat"}, "source_identifier": "lccn-no99009166"}], "date_modified": "2023-09-05T17:13:14.668307+10:00"}, {"id": 26508, "name": "Ladbroke Entertainment", "roles_in_work": [{"id": 2615026, "title": "Yentl", "work_id": 84682, "role": "production company", "role_id": 941, "is_primary": true}, {"id": 2270564, "title": "Victor/Victoria", "work_id": 84576, "role": "production company", "role_id": 941, "is_primary": true}], "also_known_as": "", "date_of_birth": "", "date_of_death": "", "genders": [], "languages": [], "places_of_operation": [], "biography": "", "biography_author": null, "date_of_biography": "2023-08-17T15:35:29.618239+10:00", "external_links": [], "uuid": "df4206e4-7096-48ac-96e8-f1884b2a6859", "source": {"name": "Vernon", "slug": "vernon"}, "source_identifier": "9884", "external_references": [{"id": 51680, "source": {"name": "Wikidata", "slug": "wikidata"}, "source_identifier": "Q121357664"}], "date_modified": "2025-02-26T20:18:10.899309+11:00"}, {"id": 26505, "name": "Arne Schmidt", "roles_in_work": [{"id": 2251934, "title": "Robocop", "work_id": 84571, "role": "producer", "role_id": 1089, "is_primary": true}], "also_known_as": "", "date_of_birth": "", "date_of_death": "", "genders": [], "languages": [], "places_of_operation": [], "biography": "", "biography_author": null, "date_of_biography": "2023-05-09T17:12:30.561155+10:00", "external_links": [], "uuid": "7343359d-fad4-42d1-90c2-271aaf3d1cd6", "source": {"name": "Vernon", "slug": "vernon"}, "source_identifier": "15469", "external_references": [{"id": 41681, "source": {"name": "Wikidata", "slug": "wikidata"}, "source_identifier": "Q121086118"}], "date_modified": "2023-09-05T17:45:12.620077+10:00"}]}