{"count": 28687, "next": "https://api.acmi.net.au/creators/?page=725", "previous": "https://api.acmi.net.au/creators/?page=723", "results": [{"id": 78343, "name": "David Cameron", "roles_in_work": [{"id": 2184267, "title": "Degenocide: the second best of the original DGeneration", "work_id": 86832, "role": "co-director", "role_id": 959, "is_primary": true}], "also_known_as": "", "date_of_birth": "", "date_of_death": "", "genders": [], "languages": [], "places_of_operation": [], "biography": "", "biography_author": null, "date_of_biography": "2023-05-09T14:58:03.341500+10:00", "external_links": [], "uuid": "870ab1fb-c66b-4886-aaad-e897a674fd63", "source": {"name": "Vernon", "slug": "vernon"}, "source_identifier": "17526", "external_references": [{"id": 33476, "source": {"name": "Wikidata", "slug": "wikidata"}, "source_identifier": "Q121040128"}], "date_modified": "2023-09-05T18:55:19.221220+10:00"}, {"id": 78342, "name": "Andrew Knight", "roles_in_work": [{"id": 2184252, "title": "Degenocide: the second best of the original DGeneration", "work_id": 86832, "role": "co-producer", "role_id": 915, "is_primary": true}, {"id": 2180405, "title": "Dead letter office", "work_id": 88102, "role": "co-producer", "role_id": 915, "is_primary": true}], "also_known_as": "", "date_of_birth": "", "date_of_death": "", "genders": [], "languages": [], "places_of_operation": [], "biography": "", "biography_author": null, "date_of_biography": "2023-05-09T14:58:02.054405+10:00", "external_links": [], "uuid": "9166b14f-9b80-432d-9cc2-6a9fafaf6a0d", "source": {"name": "Vernon", "slug": "vernon"}, "source_identifier": "773", "external_references": [{"id": 42691, "source": {"name": "Wikidata", "slug": "wikidata"}, "source_identifier": "Q121036799"}], "date_modified": "2023-09-05T17:35:43.318211+10:00"}, {"id": 78341, "name": "Terence Fisher", "roles_in_work": [{"id": 2616167, "title": "The Astonished heart", "work_id": 86828, "role": "director", "role_id": 938, "is_primary": true}], "also_known_as": "", "date_of_birth": "23 FEB 1904", "date_of_death": "18 JUN 1980", "genders": [{"id": 9, "name": "Male", "slug": "male"}], "languages": [{"id": 1, "name": "English", "slug": "english"}, {"id": 5, "name": "German", "slug": "german"}], "places_of_operation": [{"id": 10, "name": "United Kingdom", "slug": "united-kingdom"}], "biography": "Terence Fisher (23 February 1904 – 18 June 1980) was a British film director best known for his work for Hammer Films.\n\nHe was the first to bring gothic horror alive in full colour, and the sexual overtones and explicit horror in his films, while mild by modern standards, were unprecedented in his day. His first major gothic horror film was The Curse of Frankenstein (1957), which launched Hammer's association with the genre and made British actors Peter Cushing and Christopher Lee leading horror stars of the era. He went on to film several adaptations of classic horror subjects, including Dracula (1958), The Mummy (1959), and The Curse of the Werewolf (1961).\n\nGiven their subject matter and lurid approach, Fisher's films, though commercially successful, were largely dismissed by critics during his career. It is only in recent years that Fisher has become recognised as an auteur in his own right. His most famous films are characterised by a blend of fairytale myth and the supernatural alongside themes of sexuality, morality, and \"the charm of evil\", often drawing heavily on a conservative Christian outlook. Source: Wikidata; 01/08/2023", "biography_author": null, "date_of_biography": "2025-02-26T20:39:31.748003+11:00", "external_links": [{"id": 3185, "uri": "https://en.wikipedia.org/wiki/Terence_Fisher"}], "uuid": "a6b240eb-3dbf-4ffe-a8bf-463e2a5cd683", "source": {"name": "Vernon", "slug": "vernon"}, "source_identifier": "29558", "external_references": [{"id": 13498, "source": {"name": "Wikidata", "slug": "wikidata"}, "source_identifier": "Q951821"}, {"id": 13499, "source": {"name": "VIAF", "slug": "viaf"}, "source_identifier": "2478982"}, {"id": 13500, "source": {"name": "LOC Auth", "slug": "loc-auth"}, "source_identifier": "n84238762"}, {"id": 13501, "source": {"name": "WorldCat", "slug": "worldcat"}, "source_identifier": "lccn-n84238762"}], "date_modified": "2025-02-26T20:39:31.748300+11:00"}, {"id": 78340, "name": "Barrie Kosky", "roles_in_work": [{"id": 906086, "title": "Nabucco", "work_id": 86812, "role": "co-director", "role_id": 959, "is_primary": true}], "also_known_as": "", "date_of_birth": null, "date_of_death": null, "genders": [], "languages": [], "places_of_operation": [], "biography": "", "biography_author": null, "date_of_biography": null, "external_links": [], "uuid": "5767e74a-afc2-41a1-ab34-7401a0bbdabf", "source": {"name": "Vernon", "slug": "vernon"}, "source_identifier": null, "external_references": [{"id": 37758, "source": {"name": "Wikidata", "slug": "wikidata"}, "source_identifier": "Q121079409"}], "date_modified": "2023-09-05T17:54:25.177457+10:00"}, {"id": 78339, "name": "Jeremy English", "roles_in_work": [{"id": 2183324, "title": "Decades of steam: the 1930's, the depression", "work_id": 86811, "role": "producer/director", "role_id": 31, "is_primary": true}, {"id": 2183293, "title": "Decades of steam : the 1960's, the final years", "work_id": 86822, "role": "producer/director", "role_id": 31, "is_primary": true}, {"id": 2183134, "title": "Decades of steam : the 1950's, setting the scene", "work_id": 86819, "role": "producer/director", "role_id": 31, "is_primary": true}, {"id": 2183102, "title": "Decades of steam : the 1940's, austerity and nationalisation", "work_id": 86820, "role": "producer/director", "role_id": 31, "is_primary": true}, {"id": 2183074, "title": "Decades of steam : the 1920's, the big four", "work_id": 86821, "role": "producer/director", "role_id": 31, "is_primary": true}], "also_known_as": "", "date_of_birth": "", "date_of_death": "", "genders": [], "languages": [], "places_of_operation": [], "biography": "", "biography_author": null, "date_of_biography": "2023-05-09T14:56:30.085125+10:00", "external_links": [], "uuid": "9355e0f3-2dc4-4402-8627-b6d7145ddb67", "source": {"name": "Vernon", "slug": "vernon"}, "source_identifier": "21740", "external_references": [{"id": 51047, "source": {"name": "Wikidata", "slug": "wikidata"}, "source_identifier": "Q121361155"}], "date_modified": "2023-09-05T21:21:15.979129+10:00"}, {"id": 78338, "name": "Fred James", "roles_in_work": [{"id": 2072716, "title": "A Place to live: building in Maine", "work_id": 86800, "role": "producer/director", "role_id": 31, "is_primary": true}], "also_known_as": "", "date_of_birth": "", "date_of_death": "", "genders": [], "languages": [], "places_of_operation": [], "biography": "", "biography_author": null, "date_of_biography": "2023-05-09T11:35:55.500083+10:00", "external_links": [], "uuid": "42eb9935-a048-4acd-bd88-25326c1e2794", "source": {"name": "Vernon", "slug": "vernon"}, "source_identifier": "19230", "external_references": [{"id": 50934, "source": {"name": "Wikidata", "slug": "wikidata"}, "source_identifier": "Q121360616"}], "date_modified": "2023-09-05T19:52:26.810572+10:00"}, {"id": 78337, "name": "Torben Strandgaard", "roles_in_work": [{"id": 2208361, "title": "Playground (TEFC)", "work_id": 86798, "role": "co-producer", "role_id": 915, "is_primary": true}], "also_known_as": "", "date_of_birth": "", "date_of_death": "", "genders": [], "languages": [], "places_of_operation": [], "biography": "", "biography_author": null, "date_of_biography": "2023-05-09T15:39:58.934076+10:00", "external_links": [], "uuid": "d1fc8748-0fb8-4640-8cb6-be38fac78add", "source": {"name": "Vernon", "slug": "vernon"}, "source_identifier": "29926", "external_references": [{"id": 51392, "source": {"name": "Wikidata", "slug": "wikidata"}, "source_identifier": "Q121358019"}], "date_modified": "2023-09-06T01:57:27.149859+10:00"}, {"id": 78336, "name": "David Grieve", "roles_in_work": [{"id": 2208359, "title": "Playground (TEFC)", "work_id": 86798, "role": "co-producer", "role_id": 915, "is_primary": true}], "also_known_as": "", "date_of_birth": "", "date_of_death": "", "genders": [], "languages": [], "places_of_operation": [], "biography": "", "biography_author": null, "date_of_biography": "2023-05-09T15:39:58.700534+10:00", "external_links": [], "uuid": "6dd9df8c-15ea-4ffe-a4b3-defb9151d1f3", "source": {"name": "Vernon", "slug": "vernon"}, "source_identifier": "17608", "external_references": [{"id": 38142, "source": {"name": "Wikidata", "slug": "wikidata"}, "source_identifier": "Q121337328"}], "date_modified": "2023-09-05T18:57:58.783058+10:00"}, {"id": 78335, "name": "Bill Stacey", "roles_in_work": [{"id": 2303829, "title": "Soccer: the universal football game", "work_id": 86786, "role": "co-producer", "role_id": 915, "is_primary": true}], "also_known_as": "", "date_of_birth": "", "date_of_death": "", "genders": [], "languages": [], "places_of_operation": [], "biography": "", "biography_author": null, "date_of_biography": "2023-05-09T18:41:50.750748+10:00", "external_links": [], "uuid": "1e73d29d-bd15-4c3e-8178-3f4713d9b879", "source": {"name": "Vernon", "slug": "vernon"}, "source_identifier": "16010", "external_references": [{"id": 35848, "source": {"name": "Wikidata", "slug": "wikidata"}, "source_identifier": "Q121091460"}], "date_modified": "2023-09-05T18:04:33.515168+10:00"}, {"id": 78334, "name": "Keith Lambert", "roles_in_work": [{"id": 2303823, "title": "Soccer: the universal football game", "work_id": 86786, "role": "co-producer", "role_id": 915, "is_primary": true}], "also_known_as": "", "date_of_birth": "", "date_of_death": "", "genders": [], "languages": [], "places_of_operation": [], "biography": "", "biography_author": null, "date_of_biography": "2023-05-09T18:41:50.501796+10:00", "external_links": [], "uuid": "665af607-ad2f-4af2-b487-b2f110e120c6", "source": {"name": "Vernon", "slug": "vernon"}, "source_identifier": "23146", "external_references": [{"id": 40623, "source": {"name": "Wikidata", "slug": "wikidata"}, "source_identifier": "Q121126335"}], "date_modified": "2023-09-05T22:03:54.040601+10:00"}]}