{"count": 28687, "next": "https://api.acmi.net.au/creators/?page=708", "previous": "https://api.acmi.net.au/creators/?page=706", "results": [{"id": 78513, "name": "David Willcock", "roles_in_work": [{"id": 2794641, "title": "The Gilded age", "work_id": 87375, "role": "producer/director", "role_id": 31, "is_primary": true}], "also_known_as": "", "date_of_birth": "", "date_of_death": "", "genders": [], "languages": [], "places_of_operation": [], "biography": "", "biography_author": null, "date_of_biography": "2023-05-09T19:55:59.313147+10:00", "external_links": [], "uuid": "1ccdb670-0616-4608-a398-d6e3bb6b82fe", "source": {"name": "Vernon", "slug": "vernon"}, "source_identifier": "17851", "external_references": [{"id": 50746, "source": {"name": "Wikidata", "slug": "wikidata"}, "source_identifier": "Q121360774"}], "date_modified": "2025-03-14T20:27:06.696944+11:00"}, {"id": 78512, "name": "Christopher Spencer", "roles_in_work": [{"id": 3084311, "title": "The Dead heart [Widescreen]", "work_id": 93026, "role": "director", "role_id": 938, "is_primary": true}, {"id": 3084365, "title": "The Long goodbye [Widescreen]", "work_id": 93025, "role": "director", "role_id": 938, "is_primary": true}, {"id": 3084376, "title": "Australia: beyond the fatal shore [Widescreen]", "work_id": 115588, "role": "producer/director", "role_id": 31, "is_primary": true}, {"id": 2794627, "title": "The Promised land", "work_id": 87373, "role": "producer/director", "role_id": 31, "is_primary": true}, {"id": 2794633, "title": "Wilderness and the west", "work_id": 87374, "role": "producer/director", "role_id": 31, "is_primary": true}, {"id": 3085812, "title": "The Pacific century", "work_id": 94193, "role": "producer/director", "role_id": 31, "is_primary": true}], "also_known_as": "", "date_of_birth": "", "date_of_death": "", "genders": [{"id": 9, "name": "Male", "slug": "male"}], "languages": [], "places_of_operation": [], "biography": "", "biography_author": null, "date_of_biography": "2023-05-09T19:55:58.278295+10:00", "external_links": [], "uuid": "ee935d1c-6abf-4ae5-893f-43f7fe000385", "source": {"name": "Vernon", "slug": "vernon"}, "source_identifier": "17004", "external_references": [{"id": 42859, "source": {"name": "Wikidata", "slug": "wikidata"}, "source_identifier": "Q22692611"}], "date_modified": "2025-03-17T10:41:27.198104+11:00"}, {"id": 78511, "name": "James Kent", "roles_in_work": [{"id": 2794619, "title": "Republic of virtue", "work_id": 87372, "role": "producer/director", "role_id": 31, "is_primary": true}, {"id": 2794653, "title": "Streamlines", "work_id": 87379, "role": "producer/director", "role_id": 31, "is_primary": true}], "also_known_as": "", "date_of_birth": "", "date_of_death": "", "genders": [], "languages": [], "places_of_operation": [], "biography": "", "biography_author": null, "date_of_biography": "2023-05-09T19:56:01.283636+10:00", "external_links": [], "uuid": "45be856d-7bb6-4a3c-83d6-53fda9ba8cbb", "source": {"name": "Vernon", "slug": "vernon"}, "source_identifier": "21258", "external_references": [{"id": 50927, "source": {"name": "Wikidata", "slug": "wikidata"}, "source_identifier": "Q121360794"}], "date_modified": "2025-03-14T20:27:10.506986+11:00"}, {"id": 78510, "name": "Ester Rambal", "roles_in_work": [{"id": 2194954, "title": "Pepi, Luci, Bom & the other girls", "work_id": 87369, "role": "co-producer", "role_id": 915, "is_primary": true}], "also_known_as": "", "date_of_birth": "", "date_of_death": "", "genders": [], "languages": [], "places_of_operation": [], "biography": "", "biography_author": null, "date_of_biography": "2023-05-09T15:15:12.397888+10:00", "external_links": [], "uuid": "204d7283-389d-44db-8e8f-8856d43ca38b", "source": {"name": "Vernon", "slug": "vernon"}, "source_identifier": "18891", "external_references": [{"id": 39883, "source": {"name": "Wikidata", "slug": "wikidata"}, "source_identifier": "Q121299186"}], "date_modified": "2023-09-05T19:37:01.005689+10:00"}, {"id": 78509, "name": "Pastora Delgado", "roles_in_work": [{"id": 2194953, "title": "Pepi, Luci, Bom & the other girls", "work_id": 87369, "role": "co-producer", "role_id": 915, "is_primary": true}], "also_known_as": "", "date_of_birth": "", "date_of_death": "", "genders": [], "languages": [], "places_of_operation": [], "biography": "", "biography_author": null, "date_of_biography": "2023-05-09T15:15:12.127365+10:00", "external_links": [], "uuid": "e6de9422-0ac5-40e1-8ac7-3c9602b75a86", "source": {"name": "Vernon", "slug": "vernon"}, "source_identifier": "26061", "external_references": [{"id": 42019, "source": {"name": "Wikidata", "slug": "wikidata"}, "source_identifier": "Q121270759"}], "date_modified": "2023-09-05T23:41:20.189012+10:00"}, {"id": 78508, "name": "Pepon Coromina", "roles_in_work": [{"id": 2194948, "title": "Pepi, Luci, Bom & the other girls", "work_id": 87369, "role": "co-producer", "role_id": 915, "is_primary": true}], "also_known_as": "", "date_of_birth": "", "date_of_death": "", "genders": [], "languages": [], "places_of_operation": [], "biography": "", "biography_author": null, "date_of_biography": "2023-05-09T15:15:11.877785+10:00", "external_links": [], "uuid": "4ff861e9-2efd-4184-b29f-b336a463d6a2", "source": {"name": "Vernon", "slug": "vernon"}, "source_identifier": "26429", "external_references": [{"id": 36741, "source": {"name": "Wikidata", "slug": "wikidata"}, "source_identifier": "Q121036664"}], "date_modified": "2023-09-05T23:52:45.191413+10:00"}, {"id": 78507, "name": "Thomas Gilou", "roles_in_work": [{"id": 906730, "title": "Would I lie to you = la verite si je mens", "work_id": 87366, "role": "director", "role_id": 938, "is_primary": true}], "also_known_as": "", "date_of_birth": "1955-02-01", "date_of_death": null, "genders": [{"id": 9, "name": "Male", "slug": "male"}], "languages": [{"id": 4, "name": "French", "slug": "french"}], "places_of_operation": [{"id": 17, "name": "France", "slug": "france"}], "biography": "", "biography_author": null, "date_of_biography": null, "external_links": [], "uuid": "890c4c82-e874-4d1e-8706-2e2b0f8d68b5", "source": {"name": "Vernon", "slug": "vernon"}, "source_identifier": null, "external_references": [{"id": 35527, "source": {"name": "Wikidata", "slug": "wikidata"}, "source_identifier": "Q3525156"}, {"id": 55969, "source": {"name": "VIAF", "slug": "viaf"}, "source_identifier": "39573141"}, {"id": 55970, "source": {"name": "LOC Auth", "slug": "loc-auth"}, "source_identifier": "nr2004024107"}, {"id": 55971, "source": {"name": "WorldCat", "slug": "worldcat"}, "source_identifier": "lccn-nr2004024107"}], "date_modified": "2023-09-06T01:48:58.269964+10:00"}, {"id": 78506, "name": "Manuel Munz", "roles_in_work": [{"id": 906729, "title": "Would I lie to you = la verite si je mens", "work_id": 87366, "role": "co-producer", "role_id": 915, "is_primary": true}], "also_known_as": "", "date_of_birth": null, "date_of_death": null, "genders": [], "languages": [], "places_of_operation": [], "biography": "", "biography_author": null, "date_of_biography": null, "external_links": [], "uuid": "ee7c1bcb-d615-4b88-9777-8b86ea56d6c7", "source": {"name": "Vernon", "slug": "vernon"}, "source_identifier": null, "external_references": [{"id": 42392, "source": {"name": "Wikidata", "slug": "wikidata"}, "source_identifier": "Q121315600"}], "date_modified": "2023-09-05T22:38:47.047768+10:00"}, {"id": 78505, "name": "Farid Lahouassa", "roles_in_work": [{"id": 906728, "title": "Would I lie to you = la verite si je mens", "work_id": 87366, "role": "co-producer", "role_id": 915, "is_primary": true}], "also_known_as": "", "date_of_birth": null, "date_of_death": null, "genders": [], "languages": [], "places_of_operation": [], "biography": "", "biography_author": null, "date_of_biography": null, "external_links": [], "uuid": "8923daa9-1fe6-4d05-bb94-fcbadbca0cfe", "source": {"name": "Vernon", "slug": "vernon"}, "source_identifier": null, "external_references": [{"id": 36905, "source": {"name": "Wikidata", "slug": "wikidata"}, "source_identifier": "Q121036760"}], "date_modified": "2023-09-05T19:40:31.754949+10:00"}, {"id": 78504, "name": "Aissa Djabri", "roles_in_work": [{"id": 906727, "title": "Would I lie to you = la verite si je mens", "work_id": 87366, "role": "co-producer", "role_id": 915, "is_primary": true}], "also_known_as": "", "date_of_birth": null, "date_of_death": null, "genders": [], "languages": [], "places_of_operation": [], "biography": "", "biography_author": null, "date_of_biography": null, "external_links": [], "uuid": "169da9a6-e4eb-4981-8bdc-8c78e1ce4faf", "source": {"name": "Vernon", "slug": "vernon"}, "source_identifier": null, "external_references": [{"id": 39222, "source": {"name": "Wikidata", "slug": "wikidata"}, "source_identifier": "Q121271101"}], "date_modified": "2023-09-05T17:17:39.965784+10:00"}]}