{"count": 28687, "next": "https://api.acmi.net.au/creators/?page=2786", "previous": "https://api.acmi.net.au/creators/?page=2784", "results": [{"id": 9259, "name": "Kathryn Bird", "roles_in_work": [{"id": 2637700, "title": "The MutleyMedia Booth", "work_id": 109901, "role": "creator", "role_id": 968, "is_primary": true}, {"id": 2711502, "title": "Heart thief", "work_id": 109220, "role": "creator", "role_id": 968, "is_primary": true}], "also_known_as": "", "date_of_birth": "", "date_of_death": "", "genders": [], "languages": [], "places_of_operation": [], "biography": "", "biography_author": null, "date_of_biography": "2023-08-11T17:17:19.283800+10:00", "external_links": [], "uuid": "1be820c8-11fa-4373-b807-11dc963624e8", "source": {"name": "Vernon", "slug": "vernon"}, "source_identifier": "112093", "external_references": [], "date_modified": "2025-03-11T23:53:04.003477+11:00"}, {"id": 9258, "name": "Andrea Williams", "roles_in_work": [{"id": 2711501, "title": "Journey", "work_id": 109219, "role": "creator", "role_id": 968, "is_primary": true}], "also_known_as": "", "date_of_birth": "", "date_of_death": "", "genders": [], "languages": [], "places_of_operation": [], "biography": "", "biography_author": null, "date_of_biography": "2023-08-11T19:01:22.995044+10:00", "external_links": [], "uuid": "3b720cfb-6300-468c-b044-4c254a21afc0", "source": {"name": "Vernon", "slug": "vernon"}, "source_identifier": "112217", "external_references": [], "date_modified": "2025-03-11T23:53:03.205183+11:00"}, {"id": 9257, "name": "Tony Krawitz", "roles_in_work": [{"id": 2641123, "title": "Together in the middle of nowhere", "work_id": 110307, "role": "director", "role_id": 938, "is_primary": true}, {"id": 881480, "title": "Together in the middle of nowhere", "work_id": 92828, "role": "director", "role_id": 938, "is_primary": true}, {"id": 2640309, "title": "Into the night", "work_id": 110287, "role": "director", "role_id": 938, "is_primary": true}, {"id": 2619613, "title": "Para para paradise", "work_id": 109217, "role": "creator", "role_id": 968, "is_primary": true}], "also_known_as": "", "date_of_birth": "1967-12-31", "date_of_death": "", "genders": [{"id": 9, "name": "Male", "slug": "male"}], "languages": [{"id": 1, "name": "English", "slug": "english"}], "places_of_operation": [{"id": 3, "name": "Australia", "slug": "australia"}], "biography": "", "biography_author": null, "date_of_biography": "2023-05-09T16:38:31.095538+10:00", "external_links": [], "uuid": "f09cb97e-4912-4819-9de3-7d23a34144e9", "source": {"name": "Vernon", "slug": "vernon"}, "source_identifier": "112223", "external_references": [{"id": 37958, "source": {"name": "Wikidata", "slug": "wikidata"}, "source_identifier": "Q39005726"}, {"id": 55990, "source": {"name": "VIAF", "slug": "viaf"}, "source_identifier": "20005849"}, {"id": 55991, "source": {"name": "WorldCat", "slug": "worldcat"}, "source_identifier": "viaf-20005849"}], "date_modified": "2025-03-05T11:32:15.385128+11:00"}, {"id": 9256, "name": "Paul Livingston", "roles_in_work": [{"id": 2711496, "title": "Vern's update", "work_id": 112627, "role": "creator", "role_id": 968, "is_primary": true}], "also_known_as": "", "date_of_birth": null, "date_of_death": null, "genders": [], "languages": [], "places_of_operation": [], "biography": "", "biography_author": null, "date_of_biography": null, "external_links": [], "uuid": "2b2f1b5c-8f78-4fdc-b231-4ade871a6704", "source": {"name": "Vernon", "slug": "vernon"}, "source_identifier": "112215", "external_references": [], "date_modified": "2025-03-11T23:52:59.207354+11:00"}, {"id": 9255, "name": "Caitlin Newton-Broad", "roles_in_work": [{"id": 2711495, "title": "Best friend shot", "work_id": 109212, "role": "creator", "role_id": 968, "is_primary": true}], "also_known_as": "", "date_of_birth": "", "date_of_death": "", "genders": [], "languages": [], "places_of_operation": [], "biography": "", "biography_author": null, "date_of_biography": "2023-08-11T14:49:47.108855+10:00", "external_links": [], "uuid": "8ac77543-3e8d-4221-a0cf-d30d887a4c11", "source": {"name": "Vernon", "slug": "vernon"}, "source_identifier": "112214", "external_references": [], "date_modified": "2025-03-11T23:52:58.198407+11:00"}, {"id": 9254, "name": "Andrew Taylor", "roles_in_work": [{"id": 2711493, "title": "Princess Bridge", "work_id": 109210, "role": "creator", "role_id": 968, "is_primary": true}], "also_known_as": "", "date_of_birth": "", "date_of_death": "", "genders": [], "languages": [], "places_of_operation": [], "biography": "", "biography_author": null, "date_of_biography": "2023-08-14T10:25:14.085165+10:00", "external_links": [], "uuid": "93009a50-876f-40f5-96c6-8a16a77ad5f5", "source": {"name": "Vernon", "slug": "vernon"}, "source_identifier": "112213", "external_references": [], "date_modified": "2025-03-11T23:52:56.554454+11:00"}, {"id": 9253, "name": "Jann Rannko", "roles_in_work": [{"id": 2711490, "title": "Alleged", "work_id": 109207, "role": "creator", "role_id": 968, "is_primary": true}], "also_known_as": "", "date_of_birth": "", "date_of_death": "", "genders": [], "languages": [], "places_of_operation": [], "biography": "", "biography_author": null, "date_of_biography": "2023-08-11T13:44:11.431377+10:00", "external_links": [], "uuid": "396765b8-4726-4e7b-a0bc-deff1989e54c", "source": {"name": "Vernon", "slug": "vernon"}, "source_identifier": "112211", "external_references": [], "date_modified": "2025-03-11T23:52:53.711548+11:00"}, {"id": 9252, "name": "Karrin Cheung", "roles_in_work": [{"id": 2711489, "title": "Alleged", "work_id": 109207, "role": "creator", "role_id": 968, "is_primary": true}], "also_known_as": "", "date_of_birth": "", "date_of_death": "", "genders": [], "languages": [], "places_of_operation": [], "biography": "", "biography_author": null, "date_of_biography": "2023-08-11T13:44:10.804879+10:00", "external_links": [], "uuid": "48b4a87c-fa1b-4fd9-baf3-adc72c7c6abf", "source": {"name": "Vernon", "slug": "vernon"}, "source_identifier": "112210", "external_references": [], "date_modified": "2025-03-11T23:52:53.010653+11:00"}, {"id": 9251, "name": "Andrew Howie", "roles_in_work": [{"id": 2711487, "title": "Pneumatic", "work_id": 109205, "role": "creator", "role_id": 968, "is_primary": true}], "also_known_as": "", "date_of_birth": "", "date_of_death": "", "genders": [], "languages": [], "places_of_operation": [], "biography": "", "biography_author": null, "date_of_biography": "2023-08-14T10:22:44.738858+10:00", "external_links": [], "uuid": "271d4bac-90df-460e-81ab-79995279b2a0", "source": {"name": "Vernon", "slug": "vernon"}, "source_identifier": "112225", "external_references": [], "date_modified": "2025-03-11T23:52:51.285598+11:00"}, {"id": 9250, "name": "ACMI Media Studio", "roles_in_work": [{"id": 2711482, "title": "MAP Promotional Trailer: final edit version", "work_id": 109203, "role": "creator", "role_id": 968, "is_primary": true}, {"id": 2636089, "title": "Digital Storytelling promo. Project promotional video 2003 made for Memory Grid and Cinemas", "work_id": 109902, "role": "creator", "role_id": 968, "is_primary": true}, {"id": 2374402, "title": "Game Masters: Yuji Naka interview", "work_id": 117284, "role": "producer", "role_id": 1089, "is_primary": true}, {"id": 2659383, "title": "Game Masters: Peter Molyneux interview", "work_id": 117282, "role": "producer", "role_id": 1089, "is_primary": true}, {"id": 2659370, "title": "Game Masters: Tim Schafer interview", "work_id": 117280, "role": "producer", "role_id": 1089, "is_primary": true}, {"id": 2659389, "title": "Game Masters: Tetsuya Mizuguchi interview", "work_id": 117285, "role": "producer", "role_id": 1089, "is_primary": true}, {"id": 2374396, "title": "Game Masters: Paulina Bozek interview", "work_id": 117283, "role": "producer", "role_id": 1089, "is_primary": true}, {"id": 2659377, "title": "Game Masters: Warren Spector interview", "work_id": 117281, "role": "producer", "role_id": 1089, "is_primary": true}, {"id": 2659646, "title": "The Greta Bunyip Newsletter", "work_id": 117329, "role": "production facilities", "role_id": 442, "is_primary": false}, {"id": 2659658, "title": "Greta Craft Group", "work_id": 117330, "role": "production facilities", "role_id": 442, "is_primary": false}, {"id": 2659670, "title": "The Greta Swamp", "work_id": 117331, "role": "production facilities", "role_id": 442, "is_primary": false}, {"id": 2659682, "title": "Artists of Eldorado", "work_id": 117325, "role": "production facilities", "role_id": 442, "is_primary": false}, {"id": 2659695, "title": "The Eldorado Museum", "work_id": 117327, "role": "production facilities", "role_id": 442, "is_primary": false}, {"id": 2659708, "title": "Folk, Rhythm and Life", "work_id": 117328, "role": "production facilities", "role_id": 442, "is_primary": false}, {"id": 2659955, "title": "ACMI in the regions: Stories from East Gippsland", "work_id": 117346, "role": "production facilities", "role_id": 442, "is_primary": false}, {"id": 2374442, "title": "Game Masters: Yu Suzuki interview", "work_id": 117290, "role": "production facilities", "role_id": 442, "is_primary": false}, {"id": 2353823, "title": "The Pizzini Family", "work_id": 117332, "role": "production facilities", "role_id": 442, "is_primary": false}, {"id": 2353879, "title": "ACMI in the regions: Stories from Wangaratta", "work_id": 117324, "role": "production facilities", "role_id": 442, "is_primary": false}, {"id": 2659409, "title": "Game Masters: Phill Ring and Jonathan Smith interview", "work_id": 117288, "role": "production facilities", "role_id": 442, "is_primary": false}, {"id": 2659416, "title": "Game Masters: Alex Rigopulos and Eran Egozy interview", "work_id": 117289, "role": "production facilities", "role_id": 442, "is_primary": false}, {"id": 2659423, "title": "Game Masters: Fumito Ueda interview", "work_id": 117291, "role": "production facilities", "role_id": 442, "is_primary": false}, {"id": 2659436, "title": "Game Masters: Blizzard Entertainment interview", "work_id": 117292, "role": "production facilities", "role_id": 442, "is_primary": false}, {"id": 2659444, "title": "Game Masters: Hideo Kojima interview", "work_id": 117293, "role": "production facilities", "role_id": 442, "is_primary": false}, {"id": 2659449, "title": "Ian Burns: in the telling interview", "work_id": 117294, "role": "production facilities", "role_id": 442, "is_primary": false}, {"id": 2659459, "title": "Grapes and wine: a family tradition", "work_id": 117296, "role": "production facilities", "role_id": 442, "is_primary": false}, {"id": 2659470, "title": "Hooked on giving", "work_id": 117297, "role": "production facilities", "role_id": 442, "is_primary": false}, {"id": 2659481, "title": "Marion of Colignan", "work_id": 117298, "role": "production facilities", "role_id": 442, "is_primary": false}, {"id": 2659492, "title": "The Ouyen Taxi Driver", "work_id": 117299, "role": "production facilities", "role_id": 442, "is_primary": false}, {"id": 2659502, "title": "Ouyen's Roxy Theatre", "work_id": 117300, "role": "production facilities", "role_id": 442, "is_primary": false}, {"id": 2659512, "title": "Rose Hill: life on a string", "work_id": 117301, "role": "production facilities", "role_id": 442, "is_primary": false}, {"id": 2659522, "title": "Sunraysia Ukulele Network", "work_id": 117302, "role": "production facilities", "role_id": 442, "is_primary": false}, {"id": 2659532, "title": "Sustainable Ouyen", "work_id": 117303, "role": "production facilities", "role_id": 442, "is_primary": false}, {"id": 2659542, "title": "Young Philly", "work_id": 117304, "role": "production facilities", "role_id": 442, "is_primary": false}, {"id": 2659552, "title": "ACMI in the regions: Stories from Mildura", "work_id": 117295, "role": "production facilities", "role_id": 442, "is_primary": false}, {"id": 2659563, "title": "Game Masters: Rob Murray interview", "work_id": 117305, "role": "production facilities", "role_id": 442, "is_primary": false}, {"id": 2659570, "title": "Game Masters: an evening with Tetsuya Mizuguchi", "work_id": 117313, "role": "production facilities", "role_id": 442, "is_primary": false}, {"id": 2659622, "title": "The Whitlands Plateau", "work_id": 117333, "role": "production facilities", "role_id": 442, "is_primary": false}, {"id": 2659634, "title": "Cook's Family Farm", "work_id": 117326, "role": "production facilities", "role_id": 442, "is_primary": false}], "also_known_as": "", "date_of_birth": "", "date_of_death": "", "genders": [], "languages": [], "places_of_operation": [], "biography": "", "biography_author": null, "date_of_biography": "2023-07-05T03:55:52.409664+10:00", "external_links": [], "uuid": "010703e7-9767-4e4d-bc43-95186094c29d", "source": {"name": "Vernon", "slug": "vernon"}, "source_identifier": "1639", "external_references": [{"id": 36208, "source": {"name": "Wikidata", "slug": "wikidata"}, "source_identifier": "Q121035971"}], "date_modified": "2025-03-11T23:52:48.066112+11:00"}]}