{"count": 28687, "next": "https://api.acmi.net.au/creators/?page=1446", "previous": "https://api.acmi.net.au/creators/?page=1444", "results": [{"id": 35626, "name": "Peter Loehr", "roles_in_work": [{"id": 1815759, "title": "Shower = Xizhao", "work_id": 93722, "role": "producer", "role_id": 1089, "is_primary": true}], "also_known_as": "", "date_of_birth": "1967-01-01", "date_of_death": null, "genders": [{"id": 9, "name": "Male", "slug": "male"}], "languages": [{"id": 1, "name": "English", "slug": "english"}], "places_of_operation": [{"id": 1, "name": "United States of America", "slug": "united-states-of-america"}], "biography": "Peter Loehr (born 1967) is a producer.  After seven years of entertainment industry experience in Japan and Taiwan, Peter Loehr established Imar Film Co., Ltd., China's first independent film company, in 1995. Imar was China's first true, multi-faceted independent film company, producing, distributing and marketing all of their films entirely in-house. Loehr was selected as one of Variety's \"10 Producers to Watch\" in 1999.\nLoehr has produced nine feature films in Asia, including: \"Spicy Love Soup\", which swept the 1998 domestic Chinese awards; \"Shower\" (1999), which won 11 awards at nine different film festivals, including Toronto, San Sebastian, Thessaloniki, Rotterdam, Udine and Seattle, and \"Quitting\" (2001), which won awards at the Bangkok, Singapore and Stockholm Film Festivals. All five Imar produced films were among the top domestic releases in China the year they were released.\nIn early 2002, Loehr began a new venture, Ming Productions, focusing on larger scale Asian-themed pictures for a world audience. His sixth film, \"Sunflower\" (directed by Zhang Yang, starring Sun Haiying and Joan Chen) won Best Director and Best Cinematography awards at the 2005 San Sebastian Film Festival. Loehr's seventh film, \"One Last Dance\" (Directed by Max Makowski, starring Francis Ng, Ti Lung and Harvey Keitel) attended the Sundance Film Festival in the World Dramatic Competition. In 2005, Loehr was a producer on \"Jade Warrior\", a Finnish/Dutch/Estonian Co-Production that premiered at the 2006 Toronto Film Festival and had number one opening weekends at both the Chinese and Finnish box offices.  In 2007, Loehr was a producer on \"The Children of Huang Shi\", a German/Australian/Chinese Co-Production directed by Roger Spottiswoode and starring Jonathan Rhys-Myers, Radha Mitchell, Chow Yun-Fat and Michelle Yeoh. The film was released world-wide in 2008.\nIn January 2005, Peter Loehr became Managing Director of the Creative Artists Agency (CAA) in China, China's largest and most successful literary and talent agency. During Loehr's seven-year tenure leading CAA in Asia, the agency grew from the ground up to represent over seventy artists in China, Hong Kong, Japan and Korea. In six short years, CAA was involved with four of the largest co-productions in Asian history, John Woo's \"Red Cliff\", Rob Minkoff's \"The Forbidden Kingdom\", \"Mission: Impossible III\" and the Will Smith produced \"The Karate Kid\". In 2009, CAA directors directed 5 of the top 8 films at the Chinese box office. CAA directors and actors have won countless awards, including the Golden horse for best Actor (Huang Bo) and the Golden Bear at the Berlin International Film Festival (Wang Quanan). CAA talent, including Yang Lan, Daniel Wu and Karen Mok, have served as spokespeople for many of Asia's largest brands.In April 2012, Peter Loehr joined Legendary Pictures and became CEO of its China joint venture - Legendary East, a film company focusing on big budget Sino-US Co-productions with subjects based on Chinese history, mythology, or culture. He was one of the producers of The Great Wall, directed by Zhang Yimou, and starring Matt Damon, Willem Dafoe, Pedro Pascal and Andy Lau. The Great Wall was the largest ever US-China co-production, and the largest production ever shot in China. It was released through Universal Studios in 2016 and box office grosses were $334 million worldwide.\nLoehr currently serves as a Board Member and Non-Executive Director for IMAX China Holdings. In addition - he serves as a Strategic Advisor and Manager, Greater Asia for Genies, a leading Company focused on the Avatar and NFT aspects of the Metaverse.\nLoehr is also Co-Founder, CEO and Director of PX Productions with his wife, Xiaoye Shi. He is currently producing a live action version of the iconic Japanese Manga, GOLGO 13.  Xiaoye recently produced HI, MOM for PX Productions - currently the highest world-wide box office in history for a film by a female director at $832 million.\nPeter Loehr is a graduate of the Georgetown University School of Foreign Service with a major in International Politics and speaks fluent Mandarin and Japanese.", "biography_author": "Wikidata", "date_of_biography": "2022-05-19T12:42:25.139353+10:00", "external_links": [{"id": 2860, "uri": "https://en.wikipedia.org/wiki/Peter_Loehr"}], "uuid": "cb5c311f-208b-45c5-a249-a7461bcc4c71", "source": {"name": "Vernon", "slug": "vernon"}, "source_identifier": "26618", "external_references": [{"id": 12162, "source": {"name": "Wikidata", "slug": "wikidata"}, "source_identifier": "Q7175502"}, {"id": 12163, "source": {"name": "VIAF", "slug": "viaf"}, "source_identifier": "307490249"}, {"id": 12164, "source": {"name": "LOC Auth", "slug": "loc-auth"}, "source_identifier": "no2007156786"}, {"id": 12165, "source": {"name": "WorldCat", "slug": "worldcat"}, "source_identifier": "lccn-n94024427"}], "date_modified": "2023-09-13T12:31:54.622889+10:00"}, {"id": 35622, "name": "Warner Brothers Television", "roles_in_work": [{"id": 1848454, "title": "The West wing. Season 1. Eps. 12-15", "work_id": 94331, "role": "production company", "role_id": 941, "is_primary": true}, {"id": 1848471, "title": "The West wing. Season 1. Eps. 20-22", "work_id": 94333, "role": "production company", "role_id": 941, "is_primary": true}, {"id": 1848446, "title": "The West wing. Season 1. Eps. 09-11", "work_id": 94330, "role": "production company", "role_id": 941, "is_primary": true}, {"id": 1848462, "title": "The West wing. Season 1. Eps. 16-19", "work_id": 94332, "role": "production company", "role_id": 941, "is_primary": true}, {"id": 1848437, "title": "The West wing. Season 1. Eps. 05-08", "work_id": 94329, "role": "production company", "role_id": 941, "is_primary": true}, {"id": 1848429, "title": "The West wing. Season 1. Eps. 01-04", "work_id": 94328, "role": "production company", "role_id": 941, "is_primary": true}, {"id": 2126950, "title": "Bugs Bunny in King Arthur's court", "work_id": 93721, "role": "production company", "role_id": 941, "is_primary": true}], "also_known_as": "", "date_of_birth": "", "date_of_death": "", "genders": [], "languages": [], "places_of_operation": [], "biography": "", "biography_author": null, "date_of_biography": "2023-05-09T13:13:06.650103+10:00", "external_links": [], "uuid": "ff6a00b8-3628-4546-b6bd-b1a6e0d7145e", "source": {"name": "Vernon", "slug": "vernon"}, "source_identifier": "4004", "external_references": [], "date_modified": "2023-06-14T16:33:30.576250+10:00"}, {"id": 35620, "name": "Scala Productions", "roles_in_work": [{"id": 2475647, "title": "Last orders", "work_id": 94301, "role": "production company", "role_id": 941, "is_primary": true}, {"id": 1998309, "title": "Welcome to Woop Woop", "work_id": 93720, "role": "production company", "role_id": 941, "is_primary": true}], "also_known_as": "", "date_of_birth": "", "date_of_death": "", "genders": [], "languages": [], "places_of_operation": [], "biography": "", "biography_author": null, "date_of_biography": "2023-08-17T15:10:59.693139+10:00", "external_links": [], "uuid": "b3a33152-2055-4a1f-8bb8-4b76b5c70520", "source": {"name": "Vernon", "slug": "vernon"}, "source_identifier": "12316", "external_references": [], "date_modified": "2023-08-17T15:10:59.693354+10:00"}, {"id": 35610, "name": "Franchise Pictures", "roles_in_work": [{"id": 2128092, "title": "But I'm a cheerleader", "work_id": 93718, "role": "production company", "role_id": 941, "is_primary": true}], "also_known_as": "", "date_of_birth": "", "date_of_death": "", "genders": [], "languages": [], "places_of_operation": [], "biography": "", "biography_author": null, "date_of_biography": "2023-05-09T13:14:53.209508+10:00", "external_links": [], "uuid": "4b32bf94-7eb0-4189-8176-7f67b19c6310", "source": {"name": "Vernon", "slug": "vernon"}, "source_identifier": "8504", "external_references": [{"id": 32658, "source": {"name": "Wikidata", "slug": "wikidata"}, "source_identifier": "Q121159993"}], "date_modified": "2023-09-05T19:46:06.930753+10:00"}, {"id": 35607, "name": "Agustin Diaz Yanes", "roles_in_work": [{"id": 2170341, "title": "Nobody will speak of us when we are dead = Nadie hablara de nosotras cuando hayamos muerto [Widescreen]", "work_id": 93716, "role": "director", "role_id": 938, "is_primary": true}], "also_known_as": "", "date_of_birth": "", "date_of_death": "", "genders": [], "languages": [], "places_of_operation": [], "biography": "", "biography_author": null, "date_of_biography": "2023-05-09T14:33:40.135557+10:00", "external_links": [], "uuid": "91b9eed3-29d5-4d7a-9e0f-cd17867a6890", "source": {"name": "Vernon", "slug": "vernon"}, "source_identifier": "14683", "external_references": [{"id": 51694, "source": {"name": "Wikidata", "slug": "wikidata"}, "source_identifier": "Q121358029"}], "date_modified": "2023-09-05T17:17:33.627249+10:00"}, {"id": 35606, "name": "Edmundo Gil Casas", "roles_in_work": [{"id": 2170338, "title": "Nobody will speak of us when we are dead = Nadie hablara de nosotras cuando hayamos muerto [Widescreen]", "work_id": 93716, "role": "producer", "role_id": 1089, "is_primary": true}], "also_known_as": "", "date_of_birth": "", "date_of_death": "", "genders": [], "languages": [], "places_of_operation": [], "biography": "", "biography_author": null, "date_of_biography": "2023-05-09T14:33:39.903167+10:00", "external_links": [], "uuid": "c30467e6-ecaa-4747-920c-7fa631fe80d6", "source": {"name": "Vernon", "slug": "vernon"}, "source_identifier": "18572", "external_references": [{"id": 41286, "source": {"name": "Wikidata", "slug": "wikidata"}, "source_identifier": "Q121034749"}], "date_modified": "2023-09-05T19:24:30.300822+10:00"}, {"id": 35605, "name": "Renin", "roles_in_work": [{"id": 2170336, "title": "Nobody will speak of us when we are dead = Nadie hablara de nosotras cuando hayamos muerto [Widescreen]", "work_id": 93716, "role": "production company", "role_id": 941, "is_primary": true}], "also_known_as": "", "date_of_birth": "", "date_of_death": "", "genders": [], "languages": [], "places_of_operation": [], "biography": "", "biography_author": null, "date_of_biography": "2023-05-09T14:33:39.638923+10:00", "external_links": [], "uuid": "ff59bbd6-e4bc-4be3-a474-72dc2bf44d5d", "source": {"name": "Vernon", "slug": "vernon"}, "source_identifier": "11960", "external_references": [{"id": 41162, "source": {"name": "Wikidata", "slug": "wikidata"}, "source_identifier": "Q121299081"}], "date_modified": "2023-09-06T00:25:58.980450+10:00"}, {"id": 35604, "name": "Xaloc SA", "roles_in_work": [{"id": 2170332, "title": "Nobody will speak of us when we are dead = Nadie hablara de nosotras cuando hayamos muerto [Widescreen]", "work_id": 93716, "role": "production company", "role_id": 941, "is_primary": true}], "also_known_as": "", "date_of_birth": "", "date_of_death": "", "genders": [], "languages": [], "places_of_operation": [], "biography": "", "biography_author": null, "date_of_biography": "2023-05-09T14:33:39.393698+10:00", "external_links": [], "uuid": "74953e9f-bc5e-4e8f-b72e-a560513b6387", "source": {"name": "Vernon", "slug": "vernon"}, "source_identifier": "14477", "external_references": [{"id": 40328, "source": {"name": "Wikidata", "slug": "wikidata"}, "source_identifier": "Q121159984"}], "date_modified": "2023-09-06T02:20:52.521154+10:00"}, {"id": 35603, "name": "Flamenco Films SA", "roles_in_work": [{"id": 2170328, "title": "Nobody will speak of us when we are dead = Nadie hablara de nosotras cuando hayamos muerto [Widescreen]", "work_id": 93716, "role": "production company", "role_id": 941, "is_primary": true}], "also_known_as": "", "date_of_birth": "", "date_of_death": "", "genders": [], "languages": [], "places_of_operation": [], "biography": "", "biography_author": null, "date_of_biography": "2023-05-09T14:33:39.049135+10:00", "external_links": [], "uuid": "b0b6ec75-bd5e-4b19-a8e6-6681f7371012", "source": {"name": "Vernon", "slug": "vernon"}, "source_identifier": "8391", "external_references": [{"id": 40760, "source": {"name": "Wikidata", "slug": "wikidata"}, "source_identifier": "Q121035072"}], "date_modified": "2023-09-05T19:44:25.869089+10:00"}, {"id": 35599, "name": "Towers of London (Films)", "roles_in_work": [{"id": 2128908, "title": "Call of the wild", "work_id": 93714, "role": "production company", "role_id": 941, "is_primary": true}], "also_known_as": "", "date_of_birth": "", "date_of_death": "", "genders": [], "languages": [], "places_of_operation": [], "biography": "", "biography_author": null, "date_of_biography": "2023-05-09T13:16:00.496522+10:00", "external_links": [], "uuid": "2d3b5709-dee8-4a9c-b979-bf5ac7c73d45", "source": {"name": "Vernon", "slug": "vernon"}, "source_identifier": "13673", "external_references": [], "date_modified": "2023-06-14T16:33:30.576250+10:00"}]}