{"count": 28687, "next": "https://api.acmi.net.au/creators/?page=553", "previous": "https://api.acmi.net.au/creators/?page=551", "results": [{"id": 80063, "name": "Tina Horne", "roles_in_work": [{"id": 2321101, "title": "Sylvie's story", "work_id": 92949, "role": "director", "role_id": 938, "is_primary": true}, {"id": 2321098, "title": "Sylvie's story", "work_id": 92949, "role": "co-producer", "role_id": 915, "is_primary": true}], "also_known_as": "", "date_of_birth": "", "date_of_death": "", "genders": [], "languages": [], "places_of_operation": [], "biography": "", "biography_author": null, "date_of_biography": "2023-05-09T19:12:10.318008+10:00", "external_links": [], "uuid": "29a1abdc-51bc-4b2d-bd75-fc9a0aafc660", "source": {"name": "Vernon", "slug": "vernon"}, "source_identifier": "29781", "external_references": [{"id": 40114, "source": {"name": "Wikidata", "slug": "wikidata"}, "source_identifier": "Q121091091"}], "date_modified": "2023-09-06T01:51:48.604477+10:00"}, {"id": 80062, "name": "Robert Collison", "roles_in_work": [{"id": 2229600, "title": "Prisoners of debt: inside the global banking crisis", "work_id": 92946, "role": "co-director", "role_id": 959, "is_primary": true}], "also_known_as": "", "date_of_birth": "", "date_of_death": "", "genders": [], "languages": [], "places_of_operation": [], "biography": "", "biography_author": null, "date_of_biography": "2023-05-09T16:33:37.574395+10:00", "external_links": [], "uuid": "12211cbb-3889-4541-b61f-334ff728b185", "source": {"name": "Vernon", "slug": "vernon"}, "source_identifier": "27681", "external_references": [{"id": 40837, "source": {"name": "Wikidata", "slug": "wikidata"}, "source_identifier": "Q121036290"}], "date_modified": "2023-09-06T00:40:18.880768+10:00"}, {"id": 80061, "name": "Maribel Verdu", "roles_in_work": [{"id": 881882, "title": "Lovers = Amantes", "work_id": 92942, "role": "cast", "role_id": 33, "is_primary": false}], "also_known_as": "", "date_of_birth": null, "date_of_death": null, "genders": [], "languages": [], "places_of_operation": [], "biography": "", "biography_author": null, "date_of_biography": null, "external_links": [], "uuid": "498a107d-9b0d-468d-b795-88e690abc970", "source": {"name": "Vernon", "slug": "vernon"}, "source_identifier": null, "external_references": [], "date_modified": "2023-06-14T16:33:30.576250+10:00"}, {"id": 80060, "name": "Jorge Sanz", "roles_in_work": [{"id": 881881, "title": "Lovers = Amantes", "work_id": 92942, "role": "cast", "role_id": 33, "is_primary": false}], "also_known_as": "", "date_of_birth": "1969-08-26", "date_of_death": null, "genders": [{"id": 9, "name": "Male", "slug": "male"}], "languages": [{"id": 10, "name": "Spanish", "slug": "spanish"}], "places_of_operation": [{"id": 14, "name": "Spain", "slug": "spain"}], "biography": "Jorge Sanz Miranda (born 26 August 1969) is a Spanish actor and one of the most prominent actors of the Spanish cinema since the 1980s. He is known to international audiences for his roles in the films: Amantes (1991) by director Vicente Aranda and Fernando Trueba’s Belle Époque (1992).", "biography_author": "Wikidata", "date_of_biography": "2023-08-01T15:42:23.325090+10:00", "external_links": [{"id": 4433, "uri": "https://en.wikipedia.org/wiki/Jorge_Sanz"}], "uuid": "3fdcb328-ab79-47d8-8fab-566b8283bca3", "source": {"name": "Vernon", "slug": "vernon"}, "source_identifier": "37914", "external_references": [{"id": 25484, "source": {"name": "Wikidata", "slug": "wikidata"}, "source_identifier": "Q953237"}, {"id": 29647, "source": {"name": "VIAF", "slug": "viaf"}, "source_identifier": "37991498"}, {"id": 29648, "source": {"name": "LOC Auth", "slug": "loc-auth"}, "source_identifier": "nr99023595"}, {"id": 29649, "source": {"name": "WorldCat", "slug": "worldcat"}, "source_identifier": "lccn-nr99023595"}], "date_modified": "2023-09-05T21:49:51.785498+10:00"}, {"id": 80059, "name": "Laurette Deschamps", "roles_in_work": [{"id": 912873, "title": "On our own", "work_id": 92941, "role": "director", "role_id": 938, "is_primary": true}], "also_known_as": "", "date_of_birth": null, "date_of_death": null, "genders": [], "languages": [], "places_of_operation": [], "biography": "", "biography_author": null, "date_of_biography": null, "external_links": [], "uuid": "7c6fd0a0-0971-4612-8988-45fd80086123", "source": {"name": "Vernon", "slug": "vernon"}, "source_identifier": null, "external_references": [{"id": 42624, "source": {"name": "Wikidata", "slug": "wikidata"}, "source_identifier": "Q121057793"}], "date_modified": "2023-09-05T22:16:27.986448+10:00"}, {"id": 80058, "name": "Michele Renaud-Molnar", "roles_in_work": [{"id": 912871, "title": "On our own", "work_id": 92941, "role": "co-producer", "role_id": 915, "is_primary": true}], "also_known_as": "", "date_of_birth": null, "date_of_death": null, "genders": [], "languages": [], "places_of_operation": [], "biography": "", "biography_author": null, "date_of_biography": null, "external_links": [], "uuid": "66203555-2ce4-4565-848e-2909e55ce727", "source": {"name": "Vernon", "slug": "vernon"}, "source_identifier": null, "external_references": [{"id": 43424, "source": {"name": "Wikidata", "slug": "wikidata"}, "source_identifier": "Q121271001"}], "date_modified": "2023-09-05T23:12:50.874904+10:00"}, {"id": 80057, "name": "Polly Watkins", "roles_in_work": [{"id": 2320634, "title": "Swimming in the backyard", "work_id": 92936, "role": "director", "role_id": 938, "is_primary": true}, {"id": 2307269, "title": "Sparrow", "work_id": 93298, "role": "director", "role_id": 938, "is_primary": true}], "also_known_as": "", "date_of_birth": "", "date_of_death": "", "genders": [], "languages": [], "places_of_operation": [], "biography": "", "biography_author": null, "date_of_biography": "2023-05-09T19:11:23.723988+10:00", "external_links": [], "uuid": "f709c06e-157f-4d90-a996-f2e4869a832b", "source": {"name": "Vernon", "slug": "vernon"}, "source_identifier": "26972", "external_references": [{"id": 32829, "source": {"name": "Wikidata", "slug": "wikidata"}, "source_identifier": "Q121035153"}], "date_modified": "2023-09-06T00:13:22.448670+10:00"}, {"id": 80056, "name": "Jim Purdy", "roles_in_work": [{"id": 912913, "title": "Where's Pete?", "work_id": 92952, "role": "director", "role_id": 938, "is_primary": true}, {"id": 912858, "title": "Left out", "work_id": 92933, "role": "director", "role_id": 938, "is_primary": true}], "also_known_as": "", "date_of_birth": null, "date_of_death": null, "genders": [{"id": 9, "name": "Male", "slug": "male"}], "languages": [], "places_of_operation": [], "biography": "", "biography_author": null, "date_of_biography": null, "external_links": [], "uuid": "ac1dcbcd-3bdf-42c3-9550-8fb62dc4c06b", "source": {"name": "Vernon", "slug": "vernon"}, "source_identifier": null, "external_references": [{"id": 39940, "source": {"name": "Wikidata", "slug": "wikidata"}, "source_identifier": "Q67151544"}], "date_modified": "2023-09-05T21:25:20.826334+10:00"}, {"id": 80055, "name": "Barbara Janes", "roles_in_work": [{"id": 2356311, "title": "The Impossible takes a little longer", "work_id": 92929, "role": "co-producer", "role_id": 915, "is_primary": true}, {"id": 912908, "title": "What people are calling PMS", "work_id": 92951, "role": "co-producer", "role_id": 915, "is_primary": true}], "also_known_as": "", "date_of_birth": "", "date_of_death": "", "genders": [], "languages": [], "places_of_operation": [], "biography": "", "biography_author": null, "date_of_biography": "2023-05-09T20:04:24.154280+10:00", "external_links": [], "uuid": "9ed09321-28b6-43fc-b689-a8d83494f623", "source": {"name": "Vernon", "slug": "vernon"}, "source_identifier": "15651", "external_references": [{"id": 34449, "source": {"name": "Wikidata", "slug": "wikidata"}, "source_identifier": "Q121337620"}], "date_modified": "2023-09-05T17:53:08.186396+10:00"}, {"id": 80054, "name": "Colin Browne", "roles_in_work": [{"id": 912830, "title": "Hoppy: a portrait of Elizabeth Hopkins", "work_id": 92927, "role": "director", "role_id": 938, "is_primary": true}], "also_known_as": "", "date_of_birth": null, "date_of_death": null, "genders": [], "languages": [], "places_of_operation": [], "biography": "", "biography_author": null, "date_of_biography": null, "external_links": [], "uuid": "34fb1fce-d06b-4a24-be78-5e67c3178dc5", "source": {"name": "Vernon", "slug": "vernon"}, "source_identifier": null, "external_references": [{"id": 34625, "source": {"name": "Wikidata", "slug": "wikidata"}, "source_identifier": "Q121079065"}], "date_modified": "2023-09-05T18:43:28.397170+10:00"}]}