{"count": 28687, "next": "https://api.acmi.net.au/creators/?page=2379", "previous": "https://api.acmi.net.au/creators/?page=2377", "results": [{"id": 15455, "name": "Ronald Underwood", "roles_in_work": [{"id": 2715142, "title": "Hang gliding: the new freedom", "work_id": 68297, "role": "director", "role_id": 938, "is_primary": true}, {"id": 2752309, "title": "Your own place", "work_id": 98238, "role": "producer/director", "role_id": 31, "is_primary": true}], "also_known_as": "", "date_of_birth": "", "date_of_death": "", "genders": [], "languages": [], "places_of_operation": [], "biography": "", "biography_author": null, "date_of_biography": "2023-08-11T17:13:03.075762+10:00", "external_links": [], "uuid": "86226a8f-c973-49e4-9da5-0c8d2acdeff8", "source": {"name": "Vernon", "slug": "vernon"}, "source_identifier": "28223", "external_references": [], "date_modified": "2025-03-13T01:02:07.696157+11:00"}, {"id": 15454, "name": "Gerald Albiston", "roles_in_work": [{"id": 2715141, "title": "Hang gliding: the new freedom", "work_id": 68297, "role": "producer", "role_id": 1089, "is_primary": true}], "also_known_as": "", "date_of_birth": "", "date_of_death": "", "genders": [], "languages": [], "places_of_operation": [], "biography": "", "biography_author": null, "date_of_biography": "2023-08-11T17:13:02.443177+10:00", "external_links": [], "uuid": "b5c2fc32-5f9d-4e25-acc5-0c94e215ec55", "source": {"name": "Vernon", "slug": "vernon"}, "source_identifier": "19737", "external_references": [], "date_modified": "2025-03-12T01:27:25.505174+11:00"}, {"id": 15453, "name": "Rosico Productions", "roles_in_work": [{"id": 2715140, "title": "Hang gliding: the new freedom", "work_id": 68297, "role": "production company", "role_id": 941, "is_primary": true}], "also_known_as": "", "date_of_birth": "", "date_of_death": "", "genders": [], "languages": [], "places_of_operation": [], "biography": "", "biography_author": null, "date_of_biography": "2023-08-11T17:13:01.818674+10:00", "external_links": [], "uuid": "05a7ff67-1547-4629-99ea-823901b7f2d1", "source": {"name": "Vernon", "slug": "vernon"}, "source_identifier": "12124", "external_references": [], "date_modified": "2025-03-12T01:27:24.929397+11:00"}, {"id": 15451, "name": "Decca", "roles_in_work": [{"id": 782941, "title": "The Michael Nyman songbook", "work_id": 83649, "role": "production company", "role_id": 941, "is_primary": true}, {"id": 902839, "title": "The Telephone. La Voix humaine", "work_id": 83740, "role": "production company", "role_id": 941, "is_primary": true}, {"id": 2715126, "title": "Handle with care", "work_id": 68289, "role": "production company", "role_id": 941, "is_primary": true}, {"id": 1846539, "title": "Jose Carreras: a life story", "work_id": 82909, "role": "production company", "role_id": 941, "is_primary": true}, {"id": 2121393, "title": "Bluebeard's castle", "work_id": 83719, "role": "production company", "role_id": 941, "is_primary": true}], "also_known_as": "", "date_of_birth": "1929", "date_of_death": "", "genders": [], "languages": [], "places_of_operation": [], "biography": "Decca Records began as a British record label established in 1929 by Edward Lewis.", "biography_author": null, "date_of_biography": "2025-03-12T01:27:14.645007+11:00", "external_links": [], "uuid": "ddc06555-18b4-4d39-80b6-0211d9c19dc2", "source": {"name": "Vernon", "slug": "vernon"}, "source_identifier": "7375", "external_references": [{"id": 33156, "source": {"name": "Wikidata", "slug": "wikidata"}, "source_identifier": "Q121223105"}], "date_modified": "2025-03-12T01:27:14.645212+11:00"}, {"id": 15450, "name": "Geoffrey Hughes", "roles_in_work": [{"id": 2715125, "title": "Handle with care: packaging", "work_id": 68288, "role": "director", "role_id": 938, "is_primary": true}], "also_known_as": "", "date_of_birth": null, "date_of_death": null, "genders": [], "languages": [], "places_of_operation": [], "biography": "", "biography_author": null, "date_of_biography": null, "external_links": [], "uuid": "98e9d09a-b1f3-448d-86ed-cc471e2ad047", "source": {"name": "Vernon", "slug": "vernon"}, "source_identifier": "19536", "external_references": [], "date_modified": "2025-03-12T01:27:13.812292+11:00"}, {"id": 15449, "name": "A. Bhaskar Rao", "roles_in_work": [{"id": 2645759, "title": "Music of India: drums", "work_id": 70705, "role": "director", "role_id": 938, "is_primary": true}, {"id": 2647746, "title": "The Dancing feet", "work_id": 77207, "role": "director", "role_id": 938, "is_primary": true}, {"id": 2715118, "title": "Handicrafts of India (Travancore)", "work_id": 68285, "role": "director", "role_id": 938, "is_primary": true}, {"id": 2715621, "title": "Home of the Kodavas", "work_id": 68528, "role": "director", "role_id": 938, "is_primary": true}, {"id": 855778, "title": "Music of India: instrumental", "work_id": 70706, "role": "director", "role_id": 938, "is_primary": true}, {"id": 758403, "title": "Yoga for health", "work_id": 74994, "role": "director", "role_id": 938, "is_primary": true}], "also_known_as": "", "date_of_birth": null, "date_of_death": null, "genders": [], "languages": [], "places_of_operation": [], "biography": "", "biography_author": null, "date_of_biography": null, "external_links": [], "uuid": "d50153de-bbda-4fb2-a9b5-1238ddf3665e", "source": {"name": "Vernon", "slug": "vernon"}, "source_identifier": "14581", "external_references": [], "date_modified": "2025-03-12T01:38:03.080094+11:00"}, {"id": 15447, "name": "Lawrence Mollot", "roles_in_work": [{"id": 2715113, "title": "A Handful of soil", "work_id": 68283, "role": "producer", "role_id": 1089, "is_primary": true}], "also_known_as": "", "date_of_birth": "", "date_of_death": "", "genders": [], "languages": [], "places_of_operation": [], "biography": "", "biography_author": null, "date_of_biography": "2023-08-11T13:02:49.101063+10:00", "external_links": [], "uuid": "113d2841-706d-40c1-a4ae-732864f093e5", "source": {"name": "Vernon", "slug": "vernon"}, "source_identifier": "23590", "external_references": [], "date_modified": "2025-03-12T01:27:05.409961+11:00"}, {"id": 15446, "name": "Sam Orleans and Associates", "roles_in_work": [{"id": 2646608, "title": "This is TVA", "work_id": 73741, "role": "production company", "role_id": 941, "is_primary": true}, {"id": 2715112, "title": "A Handful of soil", "work_id": 68283, "role": "production company", "role_id": 941, "is_primary": true}], "also_known_as": "", "date_of_birth": "", "date_of_death": "", "genders": [], "languages": [], "places_of_operation": [], "biography": "", "biography_author": null, "date_of_biography": "2023-08-11T13:02:48.483957+10:00", "external_links": [], "uuid": "36d50c84-0d49-476c-bf3b-3e4146d99e98", "source": {"name": "Vernon", "slug": "vernon"}, "source_identifier": "12250", "external_references": [], "date_modified": "2025-03-12T01:27:04.829871+11:00"}, {"id": 15443, "name": "Richard Callanan", "roles_in_work": [{"id": 1808161, "title": "Virginia Woolf's criticism of the novel 'Life escapes'", "work_id": 69664, "role": "producer", "role_id": 1089, "is_primary": true}, {"id": 1814216, "title": "Little Lord Fauntleroy", "work_id": 85219, "role": "producer", "role_id": 1089, "is_primary": true}, {"id": 2243237, "title": "Five children and It", "work_id": 83465, "role": "producer", "role_id": 1089, "is_primary": true}, {"id": 2249802, "title": "Return of the Psammead", "work_id": 84197, "role": "producer", "role_id": 1089, "is_primary": true}, {"id": 2715102, "title": "Hamlet studies in interpretation", "work_id": 68277, "role": "producer", "role_id": 1089, "is_primary": true}, {"id": 1810003, "title": "Slum clearance in the thirties: the film evidence", "work_id": 72904, "role": "producer", "role_id": 1089, "is_primary": true}], "also_known_as": "", "date_of_birth": "", "date_of_death": "", "genders": [], "languages": [], "places_of_operation": [], "biography": "", "biography_author": null, "date_of_biography": "2023-05-09T17:09:10.017408+10:00", "external_links": [], "uuid": "1c60d453-693a-40a4-8909-d5a7f2db6deb", "source": {"name": "Vernon", "slug": "vernon"}, "source_identifier": "27345", "external_references": [{"id": 40438, "source": {"name": "Wikidata", "slug": "wikidata"}, "source_identifier": "Q121034436"}], "date_modified": "2025-03-12T01:26:57.323006+11:00"}, {"id": 15440, "name": "Reginald Beck", "roles_in_work": [{"id": 2715096, "title": "Hamlet (Olivier)", "work_id": 68276, "role": "producer", "role_id": 1089, "is_primary": true}], "also_known_as": "", "date_of_birth": null, "date_of_death": null, "genders": [], "languages": [], "places_of_operation": [], "biography": "", "biography_author": null, "date_of_biography": null, "external_links": [], "uuid": "14893b3d-780b-4f28-ada4-827aa537e6d8", "source": {"name": "Vernon", "slug": "vernon"}, "source_identifier": "38218", "external_references": [], "date_modified": "2025-03-12T01:26:53.504056+11:00"}]}