{"count": 28687, "next": "https://api.acmi.net.au/creators/?page=767", "previous": "https://api.acmi.net.au/creators/?page=765", "results": [{"id": 77923, "name": "Charles Jarrott", "roles_in_work": [{"id": 2097803, "title": "Anne of the thousand days", "work_id": 85356, "role": "director", "role_id": 938, "is_primary": true}, {"id": 2000939, "title": "The Last flight of Noah's Ark", "work_id": 95263, "role": "director", "role_id": 938, "is_primary": true}, {"id": 2344605, "title": "The Dove", "work_id": 86284, "role": "director", "role_id": 938, "is_primary": true}], "also_known_as": "", "date_of_birth": "1927-06-16", "date_of_death": "2011-03-04", "genders": [{"id": 9, "name": "Male", "slug": "male"}], "languages": [{"id": 1, "name": "English", "slug": "english"}], "places_of_operation": [{"id": 10, "name": "United Kingdom", "slug": "united-kingdom"}], "biography": "Charles Jarrott (16 June 1927 – 4 March 2011) was a British film and television director. He was best known for costume dramas he directed for producer Hal B. Wallis, among them Anne of the Thousand Days, which earned him a Golden Globe for Best Director in 1970.\nAlthough Anne was nominated for several awards, critic Pauline Kael wrote in her book Reeling (Warner Books, p. 198), that as a director, Jarrott had no style or personality, and that he was just \"a traffic manager.\" Nevertheless, his next film, Mary, Queen of Scots, was nominated for six Academy Awards and several Golden Globes.\nJarrott was the son of English racing car driver and businessman Charles Jarrott, and was married to Rosemary Palin (1949–57), actress Katharine Blake (1959–82) and Suzanne Bledsoe (1992-2003). Jarrott also served in the Royal Navy during World War II.Jarrott died on 4 March 2011 from prostate cancer.", "biography_author": "Wikidata", "date_of_biography": "2023-08-01T14:23:12.339793+10:00", "external_links": [{"id": 1794, "uri": "https://en.wikipedia.org/wiki/Charles_Jarrott"}], "uuid": "90a8dd3a-91e7-4183-b2c9-fc389235658c", "source": {"name": "Vernon", "slug": "vernon"}, "source_identifier": "16687", "external_references": [{"id": 7816, "source": {"name": "Wikidata", "slug": "wikidata"}, "source_identifier": "Q951493"}, {"id": 7817, "source": {"name": "VIAF", "slug": "viaf"}, "source_identifier": "71588882"}, {"id": 7818, "source": {"name": "LOC Auth", "slug": "loc-auth"}, "source_identifier": "no95004114"}, {"id": 7819, "source": {"name": "WorldCat", "slug": "worldcat"}, "source_identifier": "lccn-no95004114"}], "date_modified": "2023-09-05T18:26:46.250337+10:00"}, {"id": 77922, "name": "Barry Spikings", "roles_in_work": [{"id": 2342428, "title": "The Deer hunter [DVD]", "work_id": 92464, "role": "co-producer", "role_id": 915, "is_primary": true}, {"id": 2324574, "title": "Texasville", "work_id": 85353, "role": "co-producer", "role_id": 915, "is_primary": true}, {"id": 1989970, "title": "The Man who fell to earth", "work_id": 85526, "role": "co-producer", "role_id": 915, "is_primary": true}, {"id": 2114309, "title": "Beyond Rangoon", "work_id": 89411, "role": "co-producer", "role_id": 915, "is_primary": true}], "also_known_as": "", "date_of_birth": "1939-11-23", "date_of_death": "", "genders": [{"id": 9, "name": "Male", "slug": "male"}], "languages": [{"id": 1, "name": "English", "slug": "english"}], "places_of_operation": [{"id": 10, "name": "United Kingdom", "slug": "united-kingdom"}], "biography": "Barry Spikings (born 23 November 1939) is a British film producer who worked in Hollywood. Spikings is best known as a producer of the film The Deer Hunter (1978), which won five Academy Awards.", "biography_author": "Wikidata", "date_of_biography": "2023-08-01T14:09:54.574789+10:00", "external_links": [{"id": 3619, "uri": "https://en.wikipedia.org/wiki/Barry_Spikings"}], "uuid": "b92e552e-91d0-4c60-a9bb-fa21c569f692", "source": {"name": "Vernon", "slug": "vernon"}, "source_identifier": "15740", "external_references": [{"id": 25487, "source": {"name": "Wikidata", "slug": "wikidata"}, "source_identifier": "Q4864769"}, {"id": 27434, "source": {"name": "VIAF", "slug": "viaf"}, "source_identifier": "14667378"}, {"id": 27435, "source": {"name": "LOC Auth", "slug": "loc-auth"}, "source_identifier": "nr96015788"}, {"id": 27436, "source": {"name": "WorldCat", "slug": "worldcat"}, "source_identifier": "lccn-nr96015788"}], "date_modified": "2023-09-05T17:55:45.716304+10:00"}, {"id": 77921, "name": "M Woolf", "roles_in_work": [{"id": 2213492, "title": "Easy virtue", "work_id": 85352, "role": "co-producer", "role_id": 915, "is_primary": true}], "also_known_as": "", "date_of_birth": "", "date_of_death": "", "genders": [], "languages": [], "places_of_operation": [], "biography": "", "biography_author": null, "date_of_biography": "2023-05-09T15:50:16.294514+10:00", "external_links": [], "uuid": "8c166b80-4379-4263-a3bf-277426ac2739", "source": {"name": "Vernon", "slug": "vernon"}, "source_identifier": "24173", "external_references": [], "date_modified": "2023-06-14T16:33:30.576250+10:00"}, {"id": 77920, "name": "Colin Grubb", "roles_in_work": [{"id": 2190068, "title": "Patch from scratch", "work_id": 85342, "role": "producer", "role_id": 1089, "is_primary": true}, {"id": 2190100, "title": "Gardening Australia", "work_id": 115450, "role": "producer", "role_id": 1089, "is_primary": true}], "also_known_as": "", "date_of_birth": "", "date_of_death": "", "genders": [], "languages": [], "places_of_operation": [], "biography": "", "biography_author": null, "date_of_biography": "2023-05-09T15:07:30.245039+10:00", "external_links": [], "uuid": "5b79234e-ca43-4dd1-8ad7-ccf8213fe377", "source": {"name": "Vernon", "slug": "vernon"}, "source_identifier": "17178", "external_references": [{"id": 37639, "source": {"name": "Wikidata", "slug": "wikidata"}, "source_identifier": "Q121315047"}], "date_modified": "2023-09-05T18:43:44.663970+10:00"}, {"id": 77919, "name": "Pixote Hunt", "roles_in_work": [{"id": 2227255, "title": "Fantasia 2000", "work_id": 93701, "role": "director", "role_id": 938, "is_primary": true}, {"id": 1989657, "title": "The Pagemaster", "work_id": 85341, "role": "co-director", "role_id": 959, "is_primary": true}], "also_known_as": "", "date_of_birth": "1953-01-01", "date_of_death": "", "genders": [{"id": 9, "name": "Male", "slug": "male"}], "languages": [{"id": 4, "name": "French", "slug": "french"}], "places_of_operation": [{"id": 17, "name": "France", "slug": "france"}], "biography": "Pixote Hunt (or Maurice Hunt) is a French director, artist, and animator. He has been involved in films such as The Black Cauldron, The Rescuers Down Under and Fantasia 2000, and was most prolific in the 1980s and 1990s.", "biography_author": "Wikidata", "date_of_biography": "2023-08-01T16:39:45.037581+10:00", "external_links": [{"id": 4932, "uri": "https://en.wikipedia.org/wiki/Pixote_Hunt"}], "uuid": "22661ecb-b37e-4fdc-902e-a0de048b6679", "source": {"name": "Vernon", "slug": "vernon"}, "source_identifier": "24835", "external_references": [{"id": 24985, "source": {"name": "Wikidata", "slug": "wikidata"}, "source_identifier": "Q3389481"}], "date_modified": "2023-09-06T00:13:02.934087+10:00"}, {"id": 77918, "name": "Joe Johnston", "roles_in_work": [], "also_known_as": "", "date_of_birth": null, "date_of_death": null, "genders": [], "languages": [], "places_of_operation": [], "biography": "", "biography_author": null, "date_of_biography": null, "external_links": [], "uuid": "955d565f-3ad5-41f0-b0bf-482e47af7593", "source": {"name": "Vernon", "slug": "vernon"}, "source_identifier": null, "external_references": [], "date_modified": "2023-06-14T16:33:30.576250+10:00"}, {"id": 77917, "name": "Paul Gertz", "roles_in_work": [{"id": 1989655, "title": "The Pagemaster", "work_id": 85341, "role": "co-producer", "role_id": 915, "is_primary": true}], "also_known_as": "", "date_of_birth": null, "date_of_death": null, "genders": [], "languages": [], "places_of_operation": [], "biography": "", "biography_author": null, "date_of_biography": null, "external_links": [], "uuid": "6e866145-68ab-416f-99a2-5c01c9610820", "source": {"name": "Vernon", "slug": "vernon"}, "source_identifier": null, "external_references": [{"id": 36186, "source": {"name": "Wikidata", "slug": "wikidata"}, "source_identifier": "Q121036785"}], "date_modified": "2023-09-05T23:46:18.922250+10:00"}, {"id": 77916, "name": "Joan Kramer", "roles_in_work": [{"id": 2173515, "title": "Katharine Hepburn: all about me: a self portrait", "work_id": 85339, "role": "co-producer", "role_id": 915, "is_primary": true}], "also_known_as": "", "date_of_birth": "", "date_of_death": "", "genders": [], "languages": [], "places_of_operation": [], "biography": "", "biography_author": null, "date_of_biography": "2023-05-09T14:40:45.604315+10:00", "external_links": [], "uuid": "75defbe6-7820-4dc0-aa76-e227ea851597", "source": {"name": "Vernon", "slug": "vernon"}, "source_identifier": "21980", "external_references": [{"id": 42320, "source": {"name": "Wikidata", "slug": "wikidata"}, "source_identifier": "Q121159715"}], "date_modified": "2023-09-05T21:27:49.254571+10:00"}, {"id": 77915, "name": "Mick Kaczorowski", "roles_in_work": [{"id": 1814323, "title": "Forbidden city: the great within", "work_id": 85335, "role": "producer", "role_id": 1089, "is_primary": true}], "also_known_as": "", "date_of_birth": null, "date_of_death": null, "genders": [], "languages": [], "places_of_operation": [], "biography": "", "biography_author": null, "date_of_biography": null, "external_links": [], "uuid": "3598234b-46c2-4e1e-bcef-a823fb8b8b6b", "source": {"name": "Vernon", "slug": "vernon"}, "source_identifier": null, "external_references": [{"id": 34842, "source": {"name": "Wikidata", "slug": "wikidata"}, "source_identifier": "Q121034881"}], "date_modified": "2023-09-05T23:13:44.271737+10:00"}, {"id": 77914, "name": "Totem Films", "roles_in_work": [{"id": 789252, "title": "Forbidden city: the great within", "work_id": 85335, "role": "production company", "role_id": 941, "is_primary": true}], "also_known_as": "", "date_of_birth": null, "date_of_death": null, "genders": [], "languages": [], "places_of_operation": [], "biography": "", "biography_author": null, "date_of_biography": null, "external_links": [], "uuid": "7230118c-aaf2-4e36-a59d-4e891887a29d", "source": {"name": "Vernon", "slug": "vernon"}, "source_identifier": null, "external_references": [{"id": 38888, "source": {"name": "Wikidata", "slug": "wikidata"}, "source_identifier": "Q121271108"}], "date_modified": "2023-09-06T01:57:49.288692+10:00"}]}