{"count": 28687, "next": "https://api.acmi.net.au/creators/?page=1226", "previous": "https://api.acmi.net.au/creators/?page=1224", "results": [{"id": 73093, "name": "Yumiko Murakami", "roles_in_work": [{"id": 2618087, "title": "37 Stories about leaving home", "work_id": 107956, "role": "assistant", "role_id": 450, "is_primary": false}], "also_known_as": "", "date_of_birth": "", "date_of_death": "", "genders": [], "languages": [], "places_of_operation": [], "biography": "", "biography_author": null, "date_of_biography": "2023-05-09T11:21:21.871950+10:00", "external_links": [], "uuid": "1a69d50a-9462-44e5-918d-7ea414a62518", "source": {"name": "Vernon", "slug": "vernon"}, "source_identifier": "110334", "external_references": [], "date_modified": "2025-02-26T22:42:37.995320+11:00"}, {"id": 73092, "name": "Adam Fuster at Broadway Video through the Stand-By Program", "roles_in_work": [{"id": 2618086, "title": "37 Stories about leaving home", "work_id": 107956, "role": "on-line editor", "role_id": 449, "is_primary": false}], "also_known_as": "", "date_of_birth": "", "date_of_death": "", "genders": [], "languages": [], "places_of_operation": [], "biography": "", "biography_author": null, "date_of_biography": "2023-05-09T11:21:21.505230+10:00", "external_links": [], "uuid": "04f6ab4a-b692-4809-8135-32833336cbba", "source": {"name": "Vernon", "slug": "vernon"}, "source_identifier": "110333", "external_references": [], "date_modified": "2025-02-26T22:42:37.398689+11:00"}, {"id": 73091, "name": "Daiho Tsuruoko", "roles_in_work": [{"id": 2618085, "title": "37 Stories about leaving home", "work_id": 107956, "role": "music", "role_id": 949, "is_primary": false}], "also_known_as": "", "date_of_birth": "", "date_of_death": "", "genders": [], "languages": [], "places_of_operation": [], "biography": "", "biography_author": null, "date_of_biography": "2023-05-09T11:21:21.268257+10:00", "external_links": [], "uuid": "f686b36e-fba7-4f0b-8101-366216e2afce", "source": {"name": "Vernon", "slug": "vernon"}, "source_identifier": "110332", "external_references": [{"id": 51789, "source": {"name": "Wikidata", "slug": "wikidata"}, "source_identifier": "Q121361112"}], "date_modified": "2025-02-26T22:42:36.806223+11:00"}, {"id": 73090, "name": "Lefdup & Lefdup", "roles_in_work": [{"id": 2618084, "title": "37 Stories about leaving home", "work_id": 107956, "role": "music", "role_id": 949, "is_primary": false}], "also_known_as": "", "date_of_birth": "", "date_of_death": "", "genders": [], "languages": [], "places_of_operation": [], "biography": "", "biography_author": null, "date_of_biography": "2023-05-09T11:21:21.029246+10:00", "external_links": [], "uuid": "ad0b79bf-daee-4f2e-840e-6c489a63c016", "source": {"name": "Vernon", "slug": "vernon"}, "source_identifier": "110517", "external_references": [{"id": 50940, "source": {"name": "Wikidata", "slug": "wikidata"}, "source_identifier": "Q121360909"}], "date_modified": "2025-02-26T22:42:36.211106+11:00"}, {"id": 73089, "name": "Gregg Featherman", "roles_in_work": [{"id": 2618059, "title": "Wintergarden", "work_id": 107950, "role": "editor", "role_id": 918, "is_primary": true}], "also_known_as": "", "date_of_birth": "", "date_of_death": "", "genders": [], "languages": [], "places_of_operation": [], "biography": "", "biography_author": null, "date_of_biography": "2023-05-09T18:12:35.094096+10:00", "external_links": [], "uuid": "372418ba-20c8-4d36-8047-3c72d8e1f3d2", "source": {"name": "Vernon", "slug": "vernon"}, "source_identifier": "110358", "external_references": [{"id": 39401, "source": {"name": "Wikidata", "slug": "wikidata"}, "source_identifier": "Q121314928"}], "date_modified": "2025-02-26T22:41:06.515495+11:00"}, {"id": 73088, "name": "Earl Howard", "roles_in_work": [{"id": 2618057, "title": "Wintergarden", "work_id": 107950, "role": "music", "role_id": 949, "is_primary": false}, {"id": 2618058, "title": "Wintergarden", "work_id": 107950, "role": "sound", "role_id": 952, "is_primary": false}], "also_known_as": "", "date_of_birth": "", "date_of_death": "", "genders": [], "languages": [], "places_of_operation": [], "biography": "", "biography_author": null, "date_of_biography": "2023-05-09T18:12:34.861297+10:00", "external_links": [], "uuid": "a2a5f184-5ef1-473c-a48b-a50837d92cc5", "source": {"name": "Vernon", "slug": "vernon"}, "source_identifier": "110357", "external_references": [{"id": 51977, "source": {"name": "Wikidata", "slug": "wikidata"}, "source_identifier": "Q121360904"}], "date_modified": "2025-02-26T22:41:05.925045+11:00"}, {"id": 73087, "name": "Tibor Szemzö", "roles_in_work": [{"id": 2748566, "title": "The Notebook of a lady", "work_id": 108368, "role": "composer", "role_id": 538, "is_primary": false}, {"id": 2619273, "title": "The Land of nothing", "work_id": 108336, "role": "composer", "role_id": 538, "is_primary": false}, {"id": 2748470, "title": "Class lot", "work_id": 108327, "role": "composer", "role_id": 538, "is_primary": false}, {"id": 2748478, "title": "Dusi and Jeno", "work_id": 108329, "role": "composer", "role_id": 538, "is_primary": false}, {"id": 2748483, "title": "Either-or", "work_id": 108330, "role": "composer", "role_id": 538, "is_primary": false}, {"id": 2748490, "title": "Father and his three sons: the Bartos family", "work_id": 108331, "role": "composer", "role_id": 538, "is_primary": false}, {"id": 2748498, "title": "The Diary of Mr. N: 1938-1967", "work_id": 108335, "role": "composer", "role_id": 538, "is_primary": false}, {"id": 2618006, "title": "Bourgeois dictionaries (Private Hungary 7)", "work_id": 107929, "role": "music", "role_id": 949, "is_primary": false}, {"id": 2748472, "title": "Class lot", "work_id": 108327, "role": "music", "role_id": 949, "is_primary": false}], "also_known_as": "", "date_of_birth": "", "date_of_death": "", "genders": [], "languages": [], "places_of_operation": [], "biography": "", "biography_author": null, "date_of_biography": "2023-05-09T19:45:56.537256+10:00", "external_links": [], "uuid": "bcdbdf08-fd97-40d2-b762-fd45ece5c00d", "source": {"name": "Vernon", "slug": "vernon"}, "source_identifier": "110376", "external_references": [{"id": 51041, "source": {"name": "Wikidata", "slug": "wikidata"}, "source_identifier": "Q4415411"}], "date_modified": "2025-03-12T23:01:35.180756+11:00"}, {"id": 73086, "name": "Marta Revesz", "roles_in_work": [{"id": 2748484, "title": "Either-or", "work_id": 108330, "role": "editor", "role_id": 918, "is_primary": true}, {"id": 2748488, "title": "Father and his three sons: the Bartos family", "work_id": 108331, "role": "editor", "role_id": 918, "is_primary": true}, {"id": 2748501, "title": "The Diary of Mr. N: 1938-1967", "work_id": 108335, "role": "editor", "role_id": 918, "is_primary": true}, {"id": 2618005, "title": "Bourgeois dictionaries (Private Hungary 7)", "work_id": 107929, "role": "editor", "role_id": 918, "is_primary": true}], "also_known_as": "", "date_of_birth": "", "date_of_death": "", "genders": [], "languages": [], "places_of_operation": [], "biography": "", "biography_author": null, "date_of_biography": "2023-05-09T19:45:56.761338+10:00", "external_links": [], "uuid": "6cbb9f8a-160c-42ce-b83a-450bca7907bc", "source": {"name": "Vernon", "slug": "vernon"}, "source_identifier": "110943", "external_references": [{"id": 33436, "source": {"name": "Wikidata", "slug": "wikidata"}, "source_identifier": "Q121223290"}], "date_modified": "2025-03-12T23:00:51.524449+11:00"}, {"id": 73085, "name": "Gábor Ferenczi", "roles_in_work": [{"id": 2618004, "title": "Bourgeois dictionaries (Private Hungary 7)", "work_id": 107929, "role": "source film", "role_id": 462, "is_primary": false}], "also_known_as": "", "date_of_birth": "", "date_of_death": "", "genders": [], "languages": [], "places_of_operation": [], "biography": "", "biography_author": null, "date_of_biography": "2023-05-09T13:07:16.262954+10:00", "external_links": [], "uuid": "0e25106a-9fd2-4452-84fa-50eb5be5a127", "source": {"name": "Vernon", "slug": "vernon"}, "source_identifier": "110374", "external_references": [], "date_modified": "2025-02-26T22:36:59.195634+11:00"}, {"id": 73084, "name": "András Forgách", "roles_in_work": [{"id": 2618003, "title": "Bourgeois dictionaries (Private Hungary 7)", "work_id": 107929, "role": "source film", "role_id": 462, "is_primary": false}], "also_known_as": "", "date_of_birth": "", "date_of_death": "", "genders": [], "languages": [], "places_of_operation": [], "biography": "", "biography_author": null, "date_of_biography": "2023-05-09T13:07:16.004163+10:00", "external_links": [], "uuid": "0f4d909e-c836-49bc-8f8b-2227859450f8", "source": {"name": "Vernon", "slug": "vernon"}, "source_identifier": "110373", "external_references": [], "date_modified": "2025-02-26T22:36:58.606923+11:00"}]}