{"count": 28682, "next": "https://api.acmi.net.au/creators/?page=1933", "previous": "https://api.acmi.net.au/creators/?page=1931", "results": [{"id": 23871, "name": "Chedd-Angier Productions", "roles_in_work": [{"id": 2776025, "title": "It needs political decisions", "work_id": 81797, "role": "production company", "role_id": 941, "is_primary": true}, {"id": 2776037, "title": "Now or never", "work_id": 81804, "role": "production company", "role_id": 941, "is_primary": true}, {"id": 781982, "title": "For all practical purposes. Computer science. 5", "work_id": 83319, "role": "production company", "role_id": 941, "is_primary": true}, {"id": 2614250, "title": "For all practical purposes. Computer science. 3", "work_id": 83391, "role": "production company", "role_id": 941, "is_primary": true}, {"id": 2775900, "title": "The Environmental revolution", "work_id": 81618, "role": "production company", "role_id": 941, "is_primary": true}, {"id": 2775921, "title": "Only One Atmosphere", "work_id": 81663, "role": "production company", "role_id": 941, "is_primary": true}, {"id": 2775939, "title": "Do we really want to live this way?", "work_id": 81691, "role": "production company", "role_id": 941, "is_primary": true}, {"id": 2775952, "title": "In the name of progress", "work_id": 81692, "role": "production company", "role_id": 941, "is_primary": true}, {"id": 2775963, "title": "Remnants of Eden", "work_id": 81693, "role": "production company", "role_id": 941, "is_primary": true}, {"id": 2775975, "title": "More for less", "work_id": 81707, "role": "production company", "role_id": 941, "is_primary": true}, {"id": 2775987, "title": "Save the Earth, feed the world", "work_id": 81723, "role": "production company", "role_id": 941, "is_primary": true}, {"id": 2776012, "title": "Waste not want not", "work_id": 81775, "role": "production company", "role_id": 941, "is_primary": true}, {"id": 1846814, "title": "For all practical purposes. Statistics. 4", "work_id": 83445, "role": "production company", "role_id": 941, "is_primary": true}, {"id": 1846830, "title": "For all practical purposes. Statistics. 1", "work_id": 83497, "role": "production company", "role_id": 941, "is_primary": true}, {"id": 2614215, "title": "For all practical purposes. Social choice. 2", "work_id": 83347, "role": "production company", "role_id": 941, "is_primary": true}, {"id": 2776047, "title": "Race to save the planet", "work_id": 115200, "role": "production company", "role_id": 941, "is_primary": true}, {"id": 2783410, "title": "What is statistics?", "work_id": 82249, "role": "production company", "role_id": 941, "is_primary": true}, {"id": 2783427, "title": "Picturing distributions", "work_id": 82702, "role": "production company", "role_id": 941, "is_primary": true}, {"id": 2783451, "title": "Describing distributions", "work_id": 83084, "role": "production company", "role_id": 941, "is_primary": true}, {"id": 2783468, "title": "Normal distributions", "work_id": 83241, "role": "production company", "role_id": 941, "is_primary": true}, {"id": 2783405, "title": "Against all odds: inside statistics", "work_id": 115276, "role": "production company", "role_id": 941, "is_primary": true}, {"id": 2783483, "title": "Normal calculations", "work_id": 83293, "role": "production company", "role_id": 941, "is_primary": true}, {"id": 2783504, "title": "Time series", "work_id": 83460, "role": "production company", "role_id": 941, "is_primary": true}, {"id": 2783517, "title": "Models for growth", "work_id": 83498, "role": "production company", "role_id": 941, "is_primary": true}, {"id": 2783533, "title": "Describing relationships", "work_id": 83573, "role": "production company", "role_id": 941, "is_primary": true}, {"id": 2783560, "title": "Correlation", "work_id": 83459, "role": "production company", "role_id": 941, "is_primary": true}, {"id": 2783583, "title": "Multidimensional data analysis", "work_id": 83486, "role": "production company", "role_id": 941, "is_primary": true}, {"id": 2783618, "title": "Experimental design", "work_id": 83458, "role": "production company", "role_id": 941, "is_primary": true}, {"id": 2783635, "title": "Blocking and sampling", "work_id": 83477, "role": "production company", "role_id": 941, "is_primary": true}, {"id": 2783656, "title": "Samples and surveys", "work_id": 83557, "role": "production company", "role_id": 941, "is_primary": true}, {"id": 2783666, "title": "What is probability?", "work_id": 83552, "role": "production company", "role_id": 941, "is_primary": true}, {"id": 2783685, "title": "Random variables", "work_id": 83510, "role": "production company", "role_id": 941, "is_primary": true}, {"id": 2783702, "title": "Binomial distributions", "work_id": 83478, "role": "production company", "role_id": 941, "is_primary": true}, {"id": 2783724, "title": "The Sample mean and control charts", "work_id": 83520, "role": "production company", "role_id": 941, "is_primary": true}, {"id": 2783749, "title": "Confidence intervals", "work_id": 83455, "role": "production company", "role_id": 941, "is_primary": true}, {"id": 2783774, "title": "Significance tests", "work_id": 83556, "role": "production company", "role_id": 941, "is_primary": true}, {"id": 2783802, "title": "Inference for one mean", "work_id": 84156, "role": "production company", "role_id": 941, "is_primary": true}, {"id": 2783824, "title": "Comparing two means", "work_id": 83456, "role": "production company", "role_id": 941, "is_primary": true}, {"id": 2783840, "title": "Inference for proportions", "work_id": 83487, "role": "production company", "role_id": 941, "is_primary": true}, {"id": 2783854, "title": "Inference for two-way tables", "work_id": 83506, "role": "production company", "role_id": 941, "is_primary": true}, {"id": 2783864, "title": "Inference for relationships", "work_id": 83383, "role": "production company", "role_id": 941, "is_primary": true}, {"id": 2783870, "title": "Case study", "work_id": 83474, "role": "production company", "role_id": 941, "is_primary": true}, {"id": 2246511, "title": "For all practical purposes. On size and shape. 5", "work_id": 83341, "role": "production company", "role_id": 941, "is_primary": true}, {"id": 2246444, "title": "For all practical purposes. Management science. 4", "work_id": 83291, "role": "production company", "role_id": 941, "is_primary": true}, {"id": 2246460, "title": "For all practical purposes. Management science. 5", "work_id": 83390, "role": "production company", "role_id": 941, "is_primary": true}, {"id": 2246468, "title": "For all practical purposes. On size and shape. 2", "work_id": 84108, "role": "production company", "role_id": 941, "is_primary": true}, {"id": 881434, "title": "An Astronaut's view of earth", "work_id": 92814, "role": "production company", "role_id": 941, "is_primary": true}, {"id": 2246432, "title": "For all practical purposes. Management science. 3", "work_id": 83229, "role": "production company", "role_id": 941, "is_primary": true}, {"id": 2246405, "title": "For all practical purposes. Management science. 2", "work_id": 83170, "role": "production company", "role_id": 941, "is_primary": true}, {"id": 2246464, "title": "For all practical purposes. On size and shape. 1", "work_id": 83435, "role": "production company", "role_id": 941, "is_primary": true}, {"id": 2246489, "title": "For all practical purposes. On size and shape. 3", "work_id": 83342, "role": "production company", "role_id": 941, "is_primary": true}, {"id": 2246376, "title": "For all practical purposes. Computer science. 4", "work_id": 83388, "role": "production company", "role_id": 941, "is_primary": true}, {"id": 2246507, "title": "For all practical purposes. Management science. 1", "work_id": 82248, "role": "production company", "role_id": 941, "is_primary": true}, {"id": 2246495, "title": "For all practical purposes. On size and shape. 4", "work_id": 83426, "role": "production company", "role_id": 941, "is_primary": true}, {"id": 1846810, "title": "For all practical purposes. Statistics. 3", "work_id": 83444, "role": "production company", "role_id": 941, "is_primary": true}, {"id": 1846755, "title": "For all practical purposes. Social choice. 1", "work_id": 83359, "role": "production company", "role_id": 941, "is_primary": true}, {"id": 1846767, "title": "For all practical purposes. Statistics. 5", "work_id": 83393, "role": "production company", "role_id": 941, "is_primary": true}, {"id": 1846771, "title": "For all practical purposes. Statistics. 2", "work_id": 83398, "role": "production company", "role_id": 941, "is_primary": true}, {"id": 1846778, "title": "For all practical purposes. Social choice. 4", "work_id": 83413, "role": "production company", "role_id": 941, "is_primary": true}, {"id": 1846787, "title": "For all practical purposes. Summing up", "work_id": 83420, "role": "production company", "role_id": 941, "is_primary": true}, {"id": 1846793, "title": "For all practical purposes. Computer science. 2", "work_id": 83430, "role": "production company", "role_id": 941, "is_primary": true}, {"id": 1846798, "title": "For all practical purposes. Computer science. 1", "work_id": 83434, "role": "production company", "role_id": 941, "is_primary": true}, {"id": 1846805, "title": "For all practical purposes. Social choice. 5", "work_id": 83441, "role": "production company", "role_id": 941, "is_primary": true}, {"id": 1846708, "title": "For all practical purposes. Social choice. 3", "work_id": 83318, "role": "production company", "role_id": 941, "is_primary": true}], "also_known_as": "", "date_of_birth": "", "date_of_death": "", "genders": [], "languages": [], "places_of_operation": [], "biography": "", "biography_author": null, "date_of_biography": "2023-05-09T19:49:07.024471+10:00", "external_links": [], "uuid": "5729a57b-265e-4d8f-95b8-564b69df97db", "source": {"name": "Vernon", "slug": "vernon"}, "source_identifier": "6536", "external_references": [{"id": 32396, "source": {"name": "Wikidata", "slug": "wikidata"}, "source_identifier": "Q121035012"}], "date_modified": "2025-03-14T19:17:56.904933+11:00"}, {"id": 23870, "name": "Barkat Ullah", "roles_in_work": [{"id": 2775072, "title": "Johura", "work_id": 81617, "role": "director", "role_id": 938, "is_primary": true}, {"id": 2775070, "title": "Johura", "work_id": 81617, "role": "co-producer", "role_id": 915, "is_primary": true}], "also_known_as": "", "date_of_birth": "", "date_of_death": "", "genders": [], "languages": [], "places_of_operation": [], "biography": "", "biography_author": null, "date_of_biography": "2023-05-09T12:02:53.190240+10:00", "external_links": [], "uuid": "79078762-a934-4a64-b033-714bab76d94c", "source": {"name": "Vernon", "slug": "vernon"}, "source_identifier": "15679", "external_references": [{"id": 38337, "source": {"name": "Wikidata", "slug": "wikidata"}, "source_identifier": "Q121035809"}], "date_modified": "2025-03-14T18:42:25.394594+11:00"}, {"id": 23869, "name": "BTV Bangladesh", "roles_in_work": [{"id": 2775064, "title": "Johura", "work_id": 81617, "role": "production company", "role_id": 941, "is_primary": true}], "also_known_as": "", "date_of_birth": "", "date_of_death": "", "genders": [], "languages": [], "places_of_operation": [], "biography": "", "biography_author": null, "date_of_biography": "2023-05-09T12:02:52.280161+10:00", "external_links": [], "uuid": "e72b537e-47a2-4d80-a35f-d1fb4bcd0ef9", "source": {"name": "Vernon", "slug": "vernon"}, "source_identifier": "6095", "external_references": [{"id": 39826, "source": {"name": "Wikidata", "slug": "wikidata"}, "source_identifier": "Q121315708"}], "date_modified": "2025-03-14T18:42:23.022035+11:00"}, {"id": 23868, "name": "Sisira Suraweera", "roles_in_work": [{"id": 2775106, "title": "A Woman of Sri Lanka", "work_id": 81616, "role": "director", "role_id": 938, "is_primary": true}, {"id": 2775105, "title": "A Woman of Sri Lanka", "work_id": 81616, "role": "co-producer", "role_id": 915, "is_primary": true}], "also_known_as": "", "date_of_birth": "", "date_of_death": "", "genders": [], "languages": [], "places_of_operation": [], "biography": "", "biography_author": null, "date_of_biography": "2023-05-09T12:03:03.066493+10:00", "external_links": [], "uuid": "e310b07b-4aba-4ff5-8be0-2ace1391d375", "source": {"name": "Vernon", "slug": "vernon"}, "source_identifier": "28873", "external_references": [{"id": 35115, "source": {"name": "Wikidata", "slug": "wikidata"}, "source_identifier": "Q120308500"}], "date_modified": "2025-03-14T18:42:29.792385+11:00"}, {"id": 23867, "name": "SLRC Sri Lanka", "roles_in_work": [{"id": 2775093, "title": "A Woman of Sri Lanka", "work_id": 81616, "role": "production company", "role_id": 941, "is_primary": true}], "also_known_as": "", "date_of_birth": "", "date_of_death": "", "genders": [], "languages": [], "places_of_operation": [], "biography": "", "biography_author": null, "date_of_biography": "2023-05-09T12:03:02.213484+10:00", "external_links": [], "uuid": "58ebbe8d-86c0-4cf8-976f-0d4d43ea2420", "source": {"name": "Vernon", "slug": "vernon"}, "source_identifier": "12654", "external_references": [{"id": 33808, "source": {"name": "Wikidata", "slug": "wikidata"}, "source_identifier": "Q121315297"}], "date_modified": "2025-03-14T18:42:28.018834+11:00"}, {"id": 23861, "name": "Leo Eaton", "roles_in_work": [{"id": 2793395, "title": "The Black death, 1361", "work_id": 85516, "role": "director", "role_id": 938, "is_primary": true}, {"id": 2775840, "title": "Taiwan; South Korea", "work_id": 81614, "role": "co-producer", "role_id": 915, "is_primary": true}, {"id": 2793399, "title": "Timeline", "work_id": 115465, "role": "director", "role_id": 938, "is_primary": true}], "also_known_as": "", "date_of_birth": "", "date_of_death": "", "genders": [], "languages": [], "places_of_operation": [], "biography": "", "biography_author": null, "date_of_biography": "2023-05-09T19:27:36.240340+10:00", "external_links": [], "uuid": "be316542-3bee-41a0-b87b-f191c9a076b6", "source": {"name": "Vernon", "slug": "vernon"}, "source_identifier": "23680", "external_references": [{"id": 35170, "source": {"name": "Wikidata", "slug": "wikidata"}, "source_identifier": "Q121126006"}], "date_modified": "2025-03-14T20:17:32.751746+11:00"}, {"id": 23857, "name": "MBC Korea", "roles_in_work": [{"id": 2775054, "title": "A Working woman in Korea", "work_id": 81611, "role": "production company", "role_id": 941, "is_primary": true}], "also_known_as": "", "date_of_birth": "", "date_of_death": "", "genders": [], "languages": [], "places_of_operation": [], "biography": "", "biography_author": null, "date_of_biography": "2023-05-09T12:02:44.395613+10:00", "external_links": [], "uuid": "66c8a5c2-4137-4978-ab67-a5b50dc203a1", "source": {"name": "Vernon", "slug": "vernon"}, "source_identifier": "10389", "external_references": [{"id": 39141, "source": {"name": "Wikidata", "slug": "wikidata"}, "source_identifier": "Q121143907"}], "date_modified": "2025-03-14T18:42:19.634252+11:00"}, {"id": 23856, "name": "You Dang-Kyu", "roles_in_work": [{"id": 2775046, "title": "A housewife in Seoul", "work_id": 81609, "role": "director", "role_id": 938, "is_primary": true}], "also_known_as": "", "date_of_birth": "", "date_of_death": "", "genders": [], "languages": [], "places_of_operation": [], "biography": "", "biography_author": null, "date_of_biography": "2023-05-09T12:02:58.294961+10:00", "external_links": [], "uuid": "79d7ec93-206a-4242-a03d-e7790ce07fa7", "source": {"name": "Vernon", "slug": "vernon"}, "source_identifier": "30603", "external_references": [{"id": 34737, "source": {"name": "Wikidata", "slug": "wikidata"}, "source_identifier": "Q121223008"}], "date_modified": "2025-03-14T18:42:16.895355+11:00"}, {"id": 23854, "name": "KBS Korea", "roles_in_work": [{"id": 2775036, "title": "A housewife in Seoul", "work_id": 81609, "role": "production company", "role_id": 941, "is_primary": true}], "also_known_as": "", "date_of_birth": "", "date_of_death": "", "genders": [], "languages": [], "places_of_operation": [], "biography": "", "biography_author": null, "date_of_biography": "2023-05-09T12:02:57.373915+10:00", "external_links": [], "uuid": "d77d4ac2-f682-412b-b924-f4edf81a4e9b", "source": {"name": "Vernon", "slug": "vernon"}, "source_identifier": "9711", "external_references": [{"id": 43285, "source": {"name": "Wikidata", "slug": "wikidata"}, "source_identifier": "Q121126862"}], "date_modified": "2025-03-14T18:42:14.406070+11:00"}, {"id": 23853, "name": "Paul Sime", "roles_in_work": [{"id": 2774817, "title": "Entree Jacques", "work_id": 81608, "role": "director", "role_id": 938, "is_primary": true}], "also_known_as": "", "date_of_birth": "", "date_of_death": "", "genders": [], "languages": [], "places_of_operation": [], "biography": "", "biography_author": null, "date_of_biography": "2023-05-09T19:23:34.819827+10:00", "external_links": [], "uuid": "f1c9e9b8-f5c7-4587-a566-aaf9e436f168", "source": {"name": "Vernon", "slug": "vernon"}, "source_identifier": "26332", "external_references": [{"id": 39832, "source": {"name": "Wikidata", "slug": "wikidata"}, "source_identifier": "Q121079575"}], "date_modified": "2025-03-14T18:40:38.775442+11:00"}]}