{"count": 28687, "next": "https://api.acmi.net.au/creators/?page=1612", "previous": "https://api.acmi.net.au/creators/?page=1610", "results": [{"id": 30732, "name": "South Africa Tourist Film", "roles_in_work": [{"id": 2412406, "title": "Introducing South Africa", "work_id": 88736, "role": "production company", "role_id": 941, "is_primary": true}], "also_known_as": "", "date_of_birth": "", "date_of_death": "", "genders": [], "languages": [], "places_of_operation": [], "biography": "", "biography_author": null, "date_of_biography": "2023-08-11T18:38:19.166116+10:00", "external_links": [], "uuid": "83e8d8da-862f-4d68-b4fc-0ea7b75b5bc1", "source": {"name": "Vernon", "slug": "vernon"}, "source_identifier": "12769", "external_references": [], "date_modified": "2023-08-11T18:38:19.166343+10:00"}, {"id": 30731, "name": "Stage Fright Productions Geneva, Il", "roles_in_work": [{"id": 2406142, "title": "Diet and weight loss: clearing the confusion", "work_id": 88733, "role": "production company", "role_id": 941, "is_primary": true}, {"id": 2407611, "title": "Food: a multi-cultural feast", "work_id": 88731, "role": "production company", "role_id": 941, "is_primary": true}, {"id": 1847820, "title": "Food science: kitchen mysteries revealed", "work_id": 88732, "role": "production company", "role_id": 941, "is_primary": true}], "also_known_as": "", "date_of_birth": "", "date_of_death": "", "genders": [], "languages": [], "places_of_operation": [], "biography": "", "biography_author": null, "date_of_biography": "2023-08-11T16:41:09.418622+10:00", "external_links": [], "uuid": "f13d16e3-185c-46e6-af88-c5082d8b92e1", "source": {"name": "Vernon", "slug": "vernon"}, "source_identifier": "12902", "external_references": [], "date_modified": "2023-08-11T16:41:09.418856+10:00"}, {"id": 30730, "name": "Stage Fright Geneva, Il", "roles_in_work": [{"id": 800671, "title": "Disability awareness", "work_id": 88734, "role": "production company", "role_id": 941, "is_primary": true}, {"id": 1847817, "title": "Vitamin basics", "work_id": 88730, "role": "production company", "role_id": 941, "is_primary": true}, {"id": 2397297, "title": "A child grows: the first year", "work_id": 88729, "role": "production company", "role_id": 941, "is_primary": true}], "also_known_as": "", "date_of_birth": "", "date_of_death": "", "genders": [], "languages": [], "places_of_operation": [], "biography": "", "biography_author": null, "date_of_biography": "2023-08-11T12:54:57.139217+10:00", "external_links": [], "uuid": "0cbb9e4e-a360-41ba-9635-c6774f543d23", "source": {"name": "Vernon", "slug": "vernon"}, "source_identifier": "12900", "external_references": [], "date_modified": "2023-08-11T12:54:57.139505+10:00"}, {"id": 30728, "name": "Eric Watson", "roles_in_work": [{"id": 2205096, "title": "Pi - the movie. Blind rage", "work_id": 88728, "role": "producer", "role_id": 1089, "is_primary": true}, {"id": 2205030, "title": "Pi [DVD]", "work_id": 92704, "role": "producer", "role_id": 1089, "is_primary": true}, {"id": 2249066, "title": "Requiem for a dream [DVD] (D)", "work_id": 92616, "role": "producer", "role_id": 1089, "is_primary": true}], "also_known_as": "", "date_of_birth": "2000-01-01", "date_of_death": "", "genders": [{"id": 9, "name": "Male", "slug": "male"}], "languages": [], "places_of_operation": [{"id": 1, "name": "United States of America", "slug": "united-states-of-america"}], "biography": "", "biography_author": null, "date_of_biography": "2023-05-09T17:08:08.543009+10:00", "external_links": [], "uuid": "df4427d4-4982-4785-8fb5-c7592912e71b", "source": {"name": "Vernon", "slug": "vernon"}, "source_identifier": "18842", "external_references": [{"id": 33517, "source": {"name": "Wikidata", "slug": "wikidata"}, "source_identifier": "Q1351728"}, {"id": 54393, "source": {"name": "VIAF", "slug": "viaf"}, "source_identifier": "301298323"}, {"id": 54394, "source": {"name": "WorldCat", "slug": "worldcat"}, "source_identifier": "viaf-301298323"}], "date_modified": "2023-09-05T19:35:17.859841+10:00"}, {"id": 30727, "name": "Plantain Films", "roles_in_work": [{"id": 2205092, "title": "Pi - the movie. Blind rage", "work_id": 88728, "role": "production company", "role_id": 941, "is_primary": true}, {"id": 2205028, "title": "Pi [DVD]", "work_id": 92704, "role": "production company", "role_id": 941, "is_primary": true}], "also_known_as": "", "date_of_birth": "", "date_of_death": "", "genders": [], "languages": [], "places_of_operation": [], "biography": "", "biography_author": null, "date_of_biography": "2023-05-09T15:33:03.376670+10:00", "external_links": [], "uuid": "5d4838c0-77ca-40a4-8ba0-9a4d438f958b", "source": {"name": "Vernon", "slug": "vernon"}, "source_identifier": "11516", "external_references": [], "date_modified": "2023-06-14T16:33:30.576250+10:00"}, {"id": 30726, "name": "Truth and Soul Pictures", "roles_in_work": [{"id": 2205086, "title": "Pi - the movie. Blind rage", "work_id": 88728, "role": "production company", "role_id": 941, "is_primary": true}, {"id": 2205025, "title": "Pi [DVD]", "work_id": 92704, "role": "production company", "role_id": 941, "is_primary": true}], "also_known_as": "", "date_of_birth": "", "date_of_death": "", "genders": [], "languages": [], "places_of_operation": [], "biography": "", "biography_author": null, "date_of_biography": "2023-05-09T15:33:03.148483+10:00", "external_links": [], "uuid": "f0f7abcb-cb7e-486f-b8d3-9171de42a8c4", "source": {"name": "Vernon", "slug": "vernon"}, "source_identifier": "13739", "external_references": [], "date_modified": "2023-06-14T16:33:30.576250+10:00"}, {"id": 30725, "name": "Harvest Film Works", "roles_in_work": [{"id": 2205023, "title": "Pi [DVD]", "work_id": 92704, "role": "production company", "role_id": 941, "is_primary": true}, {"id": 2205078, "title": "Pi - the movie. Blind rage", "work_id": 88728, "role": "production company", "role_id": 941, "is_primary": true}], "also_known_as": "", "date_of_birth": "", "date_of_death": "", "genders": [], "languages": [], "places_of_operation": [], "biography": "", "biography_author": null, "date_of_biography": "2023-05-09T15:33:02.919877+10:00", "external_links": [], "uuid": "7caa7d43-c0a7-42fa-9bcf-7401997b027a", "source": {"name": "Vernon", "slug": "vernon"}, "source_identifier": "9012", "external_references": [], "date_modified": "2023-06-14T16:33:30.576250+10:00"}, {"id": 30721, "name": "Paul Wagner Productions", "roles_in_work": [{"id": 2274570, "title": "Windhorse", "work_id": 88727, "role": "production company", "role_id": 941, "is_primary": true}], "also_known_as": "", "date_of_birth": "", "date_of_death": "", "genders": [], "languages": [], "places_of_operation": [], "biography": "", "biography_author": null, "date_of_biography": "2023-05-09T17:50:35.583120+10:00", "external_links": [], "uuid": "2b8a0636-1b8d-49a9-b83a-875b6640e670", "source": {"name": "Vernon", "slug": "vernon"}, "source_identifier": "11353", "external_references": [], "date_modified": "2023-06-14T16:33:30.576250+10:00"}, {"id": 30718, "name": "Herbert J. Yates", "roles_in_work": [{"id": 1993145, "title": "Johnny Guitar", "work_id": 88722, "role": "producer", "role_id": 1089, "is_primary": true}], "also_known_as": "", "date_of_birth": "1880-08-24", "date_of_death": "1966-02-03", "genders": [{"id": 9, "name": "Male", "slug": "male"}], "languages": [{"id": 1, "name": "English", "slug": "english"}], "places_of_operation": [{"id": 1, "name": "United States of America", "slug": "united-states-of-america"}], "biography": "Herbert John Yates (August 24, 1880 – February 3, 1966) was the founder and president of Republic Pictures, who had western stars John Wayne, Gene Autry, and Roy Rogers under contract. Between the years 1935 and 1959, Republic, under Yates' leadership, made 956 feature films and 849 movie serial chapters, some of which are considered classics screened on television and later released on home video.", "biography_author": "Wikidata", "date_of_biography": "2022-05-19T11:45:04.919925+10:00", "external_links": [{"id": 2229, "uri": "https://en.wikipedia.org/wiki/Herbert_J._Yates"}], "uuid": "018423ec-c73f-471e-8d6a-e0703a84ea71", "source": {"name": "Vernon", "slug": "vernon"}, "source_identifier": "20519", "external_references": [{"id": 9577, "source": {"name": "Wikidata", "slug": "wikidata"}, "source_identifier": "Q3133463"}, {"id": 9578, "source": {"name": "VIAF", "slug": "viaf"}, "source_identifier": "21378174"}, {"id": 9579, "source": {"name": "LOC Auth", "slug": "loc-auth"}, "source_identifier": "n94117685"}, {"id": 9580, "source": {"name": "WorldCat", "slug": "worldcat"}, "source_identifier": "lccn-n94117685"}], "date_modified": "2023-09-13T12:29:57.807344+10:00"}, {"id": 30716, "name": "Mannie Davis", "roles_in_work": [{"id": 879010, "title": "[The Wreck of the Hesperus]", "work_id": 91518, "role": "director", "role_id": 938, "is_primary": true}, {"id": 876405, "title": "Kiko the kangaroo: Kiko at the bat = Play ball", "work_id": 90076, "role": "director", "role_id": 938, "is_primary": true}, {"id": 2304369, "title": "Snow time", "work_id": 89336, "role": "co-director", "role_id": 959, "is_primary": true}, {"id": 908294, "title": "Farm frolics = Puddy the pup and the gypsies", "work_id": 88717, "role": "co-director", "role_id": 959, "is_primary": true}, {"id": 909515, "title": "Kiko the kangaroo: hail the king", "work_id": 90122, "role": "co-director", "role_id": 959, "is_primary": true}, {"id": 909566, "title": "Down in the deep = Sunken treasure", "work_id": 90177, "role": "co-director", "role_id": 959, "is_primary": true}], "also_known_as": "", "date_of_birth": "1894-01-23", "date_of_death": null, "genders": [{"id": 9, "name": "Male", "slug": "male"}], "languages": [], "places_of_operation": [{"id": 1, "name": "United States of America", "slug": "united-states-of-america"}], "biography": "", "biography_author": null, "date_of_biography": "2023-05-09T18:42:39.284016+10:00", "external_links": [], "uuid": "98a1b4e1-1b79-405f-942d-4b8fdf1c8393", "source": {"name": "Vernon", "slug": "vernon"}, "source_identifier": "24254", "external_references": [{"id": 50903, "source": {"name": "Wikidata", "slug": "wikidata"}, "source_identifier": "Q3286055"}, {"id": 55128, "source": {"name": "VIAF", "slug": "viaf"}, "source_identifier": "261435790"}, {"id": 55129, "source": {"name": "LOC Auth", "slug": "loc-auth"}, "source_identifier": "no2011004813"}, {"id": 55130, "source": {"name": "WorldCat", "slug": "worldcat"}, "source_identifier": "lccn-no2011004813"}], "date_modified": "2023-09-05T22:38:32.943498+10:00"}]}