{"count": 28687, "next": "https://api.acmi.net.au/creators/?page=1669", "previous": "https://api.acmi.net.au/creators/?page=1667", "results": [{"id": 29360, "name": "Pepon Corominas", "roles_in_work": [{"id": 2194939, "title": "Pepi, Luci, Bom & the other girls", "work_id": 87369, "role": "production company", "role_id": 941, "is_primary": true}], "also_known_as": "", "date_of_birth": null, "date_of_death": "1987-12-25", "genders": [{"id": 9, "name": "Male", "slug": "male"}], "languages": [{"id": 52, "name": "Catalan", "slug": "catalan"}], "places_of_operation": [{"id": 14, "name": "Spain", "slug": "spain"}], "biography": "", "biography_author": null, "date_of_biography": "2023-05-09T15:15:11+10:00", "external_links": [], "uuid": "46905333-2cd6-4b88-a20b-a3408ea39e38", "source": {"name": "Vernon", "slug": "vernon"}, "source_identifier": "27275", "external_references": [{"id": 52017, "source": {"name": "Wikidata", "slug": "wikidata"}, "source_identifier": "Q47511417"}, {"id": 55474, "source": {"name": "VIAF", "slug": "viaf"}, "source_identifier": "3354753"}, {"id": 55475, "source": {"name": "LOC Auth", "slug": "loc-auth"}, "source_identifier": "n00033830"}, {"id": 55476, "source": {"name": "WorldCat", "slug": "worldcat"}, "source_identifier": "lccn-n00033830"}], "date_modified": "2024-09-10T16:13:57.750978+10:00"}, {"id": 29352, "name": "Jeff Lau", "roles_in_work": [{"id": 1815060, "title": "Fallen angels", "work_id": 87364, "role": "producer", "role_id": 1089, "is_primary": true}], "also_known_as": "", "date_of_birth": "1952-08-02", "date_of_death": null, "genders": [{"id": 9, "name": "Male", "slug": "male"}], "languages": [], "places_of_operation": [{"id": 290, "name": "People's Republic of China", "slug": "peoples-republic-of-china"}], "biography": "Jeffrey Lau Chun-Wai (Chinese: 劉鎮偉; born 4 February 1955) is a Hong Kong film director, screenwriter, actor and producer. Lau is famous for writing and directing \"mo lei tau\" comedies.  His comedies include A Chinese Odyssey (with Stephen Chow) and Chinese Odyssey 2002, the latter which was voted Best 2002 Film by the Hong Kong Film Critics Society.\n\n", "biography_author": "Wikidata", "date_of_biography": "2022-05-19T11:56:21.352631+10:00", "external_links": [{"id": 2357, "uri": "https://en.wikipedia.org/wiki/Jeffrey_Lau"}], "uuid": "af49752c-1669-4254-9170-68dc71f2f417", "source": {"name": "Vernon", "slug": "vernon"}, "source_identifier": "21641", "external_references": [{"id": 10106, "source": {"name": "Wikidata", "slug": "wikidata"}, "source_identifier": "Q5365602"}, {"id": 10107, "source": {"name": "VIAF", "slug": "viaf"}, "source_identifier": "76522143"}, {"id": 10108, "source": {"name": "LOC Auth", "slug": "loc-auth"}, "source_identifier": "no2011108041"}, {"id": 10109, "source": {"name": "WorldCat", "slug": "worldcat"}, "source_identifier": "lccn-no2011108041"}], "date_modified": "2023-09-13T12:30:23.178759+10:00"}, {"id": 29349, "name": "Anthony Slide", "roles_in_work": [{"id": 2499745, "title": "The Silent feminists: America's first women directors", "work_id": 87363, "role": "co-producers/directors", "role_id": 628, "is_primary": true}, {"id": 2499743, "title": "The Silent feminists: America's first women directors", "work_id": 87363, "role": "production company", "role_id": 941, "is_primary": true}], "also_known_as": "", "date_of_birth": null, "date_of_death": null, "genders": [], "languages": [], "places_of_operation": [], "biography": "", "biography_author": null, "date_of_biography": null, "external_links": [], "uuid": "c2f250bf-64e3-4656-868d-a4b708a09c1b", "source": {"name": "Vernon", "slug": "vernon"}, "source_identifier": "3759", "external_references": [], "date_modified": "2023-09-20T03:40:25.693939+10:00"}, {"id": 29347, "name": "Robert W. Christiansen", "roles_in_work": [{"id": 1991642, "title": "Heart of darkness", "work_id": 87362, "role": "co-producer", "role_id": 915, "is_primary": true}, {"id": 909201, "title": "The Heist", "work_id": 89598, "role": "co-producer", "role_id": 915, "is_primary": true}, {"id": 1813977, "title": "The Glass house", "work_id": 89588, "role": "producer", "role_id": 1089, "is_primary": true}], "also_known_as": "", "date_of_birth": "1933-10-24", "date_of_death": "2018-12-04", "genders": [{"id": 9, "name": "Male", "slug": "male"}], "languages": [], "places_of_operation": [{"id": 1, "name": "United States of America", "slug": "united-states-of-america"}], "biography": "", "biography_author": null, "date_of_biography": null, "external_links": [], "uuid": "695da9e9-b064-459f-8882-4730421d6e08", "source": {"name": "Vernon", "slug": "vernon"}, "source_identifier": "16055", "external_references": [{"id": 32443, "source": {"name": "Wikidata", "slug": "wikidata"}, "source_identifier": "Q112307366"}], "date_modified": "2023-09-13T12:32:22.628286+10:00"}, {"id": 29344, "name": "Chateau Productions", "roles_in_work": [{"id": 2166603, "title": "Kakadu", "work_id": 87360, "role": "production company", "role_id": 941, "is_primary": true}], "also_known_as": "", "date_of_birth": "", "date_of_death": "", "genders": [], "languages": [], "places_of_operation": [], "biography": "", "biography_author": null, "date_of_biography": "2023-05-09T14:26:07.203022+10:00", "external_links": [], "uuid": "25eb1f64-d043-46a4-a2c3-4e7fd2917aeb", "source": {"name": "Vernon", "slug": "vernon"}, "source_identifier": "6530", "external_references": [{"id": 32820, "source": {"name": "Wikidata", "slug": "wikidata"}, "source_identifier": "Q121034712"}], "date_modified": "2023-09-05T18:29:19.377015+10:00"}, {"id": 29342, "name": "Arbor Productions", "roles_in_work": [{"id": 2473980, "title": "Murray River quest", "work_id": 87359, "role": "production company", "role_id": 941, "is_primary": true}], "also_known_as": "", "date_of_birth": "", "date_of_death": "", "genders": [], "languages": [], "places_of_operation": [], "biography": "", "biography_author": null, "date_of_biography": "2023-08-16T03:41:00.575392+10:00", "external_links": [], "uuid": "a1c71752-7ced-4802-9cec-dac455891637", "source": {"name": "Vernon", "slug": "vernon"}, "source_identifier": "3781", "external_references": [{"id": 38112, "source": {"name": "Wikidata", "slug": "wikidata"}, "source_identifier": "Q121035796"}], "date_modified": "2023-09-05T17:43:28.310184+10:00"}, {"id": 29338, "name": "Lopert Films", "roles_in_work": [{"id": 2117930, "title": "Black Orpheus = Orfeu negro", "work_id": 87357, "role": "production company", "role_id": 941, "is_primary": true}], "also_known_as": "", "date_of_birth": "", "date_of_death": "", "genders": [], "languages": [], "places_of_operation": [], "biography": "", "biography_author": null, "date_of_biography": "2023-05-09T12:56:46.141033+10:00", "external_links": [], "uuid": "9c483bdb-e7c4-4bef-b1c7-5e098e98517d", "source": {"name": "Vernon", "slug": "vernon"}, "source_identifier": "10155", "external_references": [{"id": 40480, "source": {"name": "Wikidata", "slug": "wikidata"}, "source_identifier": "Q121271030"}], "date_modified": "2023-09-05T22:29:38.948684+10:00"}, {"id": 29337, "name": "Vera Chytilova", "roles_in_work": [{"id": 2165479, "title": "Daisies = Sedmikrasky", "work_id": 87356, "role": "director", "role_id": 938, "is_primary": true}, {"id": 2165495, "title": "Daisies = Sedmikrasky [NTSC]", "work_id": 93479, "role": "director", "role_id": 938, "is_primary": true}], "also_known_as": "", "date_of_birth": "1929-02-02", "date_of_death": "2014-03-12", "genders": [{"id": 5, "name": "Female", "slug": "female"}], "languages": [{"id": 20, "name": "Czech", "slug": "czech"}], "places_of_operation": [{"id": 49, "name": "Czech Republic", "slug": "czech-republic"}], "biography": "Věra Chytilová (2 February 1929 – 12 March 2014) was an avant-garde Czech film director and pioneer of Czech cinema. Banned by the Czechoslovak government in the 1960s, she is best known for her Czech New Wave film, Sedmikrásky (Daisies). Her subsequent films screened at international film festivals, including Vlčí bouda (1987), which screened at the 37th Berlin International Film Festival, A Hoof Here, a Hoof There (1989), which screened at the 16th Moscow International Film Festival, and The Inheritance or Fuckoffguysgoodday (1992), which screened at the 18th Moscow International Film Festival. For her work, she received the Ordre des Arts et des Lettres, Medal of Merit and the Czech Lion award.", "biography_author": "Wikidata", "date_of_biography": "2022-05-19T13:18:24.822664+10:00", "external_links": [{"id": 3246, "uri": "https://en.wikipedia.org/wiki/V%C4%9Bra_Chytilov%C3%A1"}], "uuid": "c9676451-ef8b-459e-b7d5-7b63ee320080", "source": {"name": "Vernon", "slug": "vernon"}, "source_identifier": "30068", "external_references": [{"id": 13742, "source": {"name": "Wikidata", "slug": "wikidata"}, "source_identifier": "Q235032"}, {"id": 13743, "source": {"name": "VIAF", "slug": "viaf"}, "source_identifier": "39214693"}, {"id": 13744, "source": {"name": "LOC Auth", "slug": "loc-auth"}, "source_identifier": "nr00016669"}, {"id": 13745, "source": {"name": "WorldCat", "slug": "worldcat"}, "source_identifier": "lccn-nr00016669"}], "date_modified": "2023-09-13T12:33:08.930043+10:00"}, {"id": 29330, "name": "Richard Colla", "roles_in_work": [{"id": 2109038, "title": "Battlestar Galactica [DVD]", "work_id": 93798, "role": "director", "role_id": 938, "is_primary": true}], "also_known_as": "", "date_of_birth": "", "date_of_death": "", "genders": [], "languages": [], "places_of_operation": [], "biography": "", "biography_author": null, "date_of_biography": "2023-05-09T12:43:03.114464+10:00", "external_links": [], "uuid": "f8f2b852-f9f4-47c4-a324-f86de28dbfe1", "source": {"name": "Vernon", "slug": "vernon"}, "source_identifier": "27307", "external_references": [], "date_modified": "2023-06-14T16:33:30.576250+10:00"}, {"id": 29322, "name": "Fox Searchlight", "roles_in_work": [{"id": 2000037, "title": "In America", "work_id": 94885, "role": "production company", "role_id": 941, "is_primary": true}, {"id": 2309794, "title": "Stealing beauty", "work_id": 87342, "role": "production company", "role_id": 941, "is_primary": true}, {"id": 2178812, "title": "Oscar and Lucinda", "work_id": 87757, "role": "production company", "role_id": 941, "is_primary": true}], "also_known_as": "", "date_of_birth": "", "date_of_death": "", "genders": [], "languages": [], "places_of_operation": [], "biography": "", "biography_author": null, "date_of_biography": "2023-05-09T18:50:57.242829+10:00", "external_links": [], "uuid": "189e2817-1e20-4014-bac0-9684073a51af", "source": {"name": "Vernon", "slug": "vernon"}, "source_identifier": "8480", "external_references": [], "date_modified": "2023-06-14T16:33:30.576250+10:00"}]}