{"count": 28687, "next": "https://api.acmi.net.au/creators/?page=2418", "previous": "https://api.acmi.net.au/creators/?page=2416", "results": [{"id": 14944, "name": "United States. Dept. of Defense", "roles_in_work": [{"id": 2247167, "title": "Red Nightmare", "work_id": 97626, "role": "production company", "role_id": 941, "is_primary": true}, {"id": 2713626, "title": "Film tactics", "work_id": 67505, "role": "production company", "role_id": 941, "is_primary": true}], "also_known_as": "", "date_of_birth": "", "date_of_death": "", "genders": [], "languages": [], "places_of_operation": [], "biography": "", "biography_author": null, "date_of_biography": "2023-05-09T17:05:04.046836+10:00", "external_links": [], "uuid": "c420a189-d541-477f-8f54-54a89bbab87f", "source": {"name": "Vernon", "slug": "vernon"}, "source_identifier": "13803", "external_references": [{"id": 40829, "source": {"name": "Wikidata", "slug": "wikidata"}, "source_identifier": "Q121298872"}], "date_modified": "2025-03-12T00:47:48.273377+11:00"}, {"id": 14943, "name": "Tony Heaven", "roles_in_work": [{"id": 2760690, "title": "Film making, the editor", "work_id": 67503, "role": "director", "role_id": 938, "is_primary": true}], "also_known_as": "", "date_of_birth": "", "date_of_death": "", "genders": [], "languages": [], "places_of_operation": [], "biography": "", "biography_author": null, "date_of_biography": "2023-05-09T15:53:10.218789+10:00", "external_links": [], "uuid": "0035cb06-1da8-49ce-a6f4-7cd0e7b65453", "source": {"name": "Vernon", "slug": "vernon"}, "source_identifier": "29874", "external_references": [{"id": 33668, "source": {"name": "Wikidata", "slug": "wikidata"}, "source_identifier": "Q121035702"}], "date_modified": "2025-03-14T17:27:18.381162+11:00"}, {"id": 14942, "name": "Hornsey College of Art, London", "roles_in_work": [{"id": 2760689, "title": "Film making, the editor", "work_id": 67503, "role": "production company", "role_id": 941, "is_primary": true}], "also_known_as": "", "date_of_birth": "", "date_of_death": "", "genders": [], "languages": [], "places_of_operation": [], "biography": "Hornsey College of Art (a.k.a. Hornsey School of Art) was a college in Crouch End in the London Borough of Haringey, England. The HCA was \"an iconic British art institution, renowned for its experimental and progressive approach to art and design education\".", "biography_author": "Wikidata", "date_of_biography": "2023-09-05T20:41:03.400997+10:00", "external_links": [{"id": 5872, "uri": "https://en.wikipedia.org/wiki/Hornsey_College_of_Art"}], "uuid": "46632bf9-7dfc-4dc7-ae88-967e932d2de4", "source": {"name": "Vernon", "slug": "vernon"}, "source_identifier": "9150", "external_references": [{"id": 38292, "source": {"name": "Wikidata", "slug": "wikidata"}, "source_identifier": "Q5904540"}, {"id": 54680, "source": {"name": "VIAF", "slug": "viaf"}, "source_identifier": "124302663"}, {"id": 54681, "source": {"name": "LOC Auth", "slug": "loc-auth"}, "source_identifier": "n50036457"}, {"id": 54682, "source": {"name": "WorldCat", "slug": "worldcat"}, "source_identifier": "lccn-n50036457"}], "date_modified": "2025-03-14T17:27:17.792547+11:00"}, {"id": 14941, "name": "Tony De Zarraga", "roles_in_work": [{"id": 2760685, "title": "Stage lighting", "work_id": 67501, "role": "director", "role_id": 938, "is_primary": true}, {"id": 2760681, "title": "Make-up: aging and hair", "work_id": 67499, "role": "director", "role_id": 938, "is_primary": true}, {"id": 2760688, "title": "Stunts: fights and falls", "work_id": 67502, "role": "director", "role_id": 938, "is_primary": true}], "also_known_as": "", "date_of_birth": "", "date_of_death": "", "genders": [], "languages": [], "places_of_operation": [], "biography": "", "biography_author": null, "date_of_biography": "2023-05-09T15:53:06.805774+10:00", "external_links": [], "uuid": "8304ab55-b20d-4dfe-a1bc-8218fb6781c6", "source": {"name": "Vernon", "slug": "vernon"}, "source_identifier": "29858", "external_references": [{"id": 42559, "source": {"name": "Wikidata", "slug": "wikidata"}, "source_identifier": "Q121035143"}], "date_modified": "2025-03-14T17:27:16.954540+11:00"}, {"id": 14940, "name": "Robert Touchstone", "roles_in_work": [{"id": 2760677, "title": "So you're going on location", "work_id": 67497, "role": "director", "role_id": 938, "is_primary": true}], "also_known_as": "", "date_of_birth": "", "date_of_death": "", "genders": [], "languages": [], "places_of_operation": [], "biography": "", "biography_author": null, "date_of_biography": "2023-05-09T15:53:06.078274+10:00", "external_links": [], "uuid": "f9ec48bc-36ff-46ac-bf7b-8fb54f5ea2d4", "source": {"name": "Vernon", "slug": "vernon"}, "source_identifier": "27899", "external_references": [{"id": 40233, "source": {"name": "Wikidata", "slug": "wikidata"}, "source_identifier": "Q121034871"}], "date_modified": "2025-03-14T17:27:09.205957+11:00"}, {"id": 14938, "name": "Edward Mallory", "roles_in_work": [{"id": 2760669, "title": "Acting", "work_id": 67494, "role": "director", "role_id": 938, "is_primary": true}, {"id": 2760683, "title": "Overview of 8mm production", "work_id": 67500, "role": "director", "role_id": 938, "is_primary": true}], "also_known_as": "", "date_of_birth": "", "date_of_death": "", "genders": [], "languages": [], "places_of_operation": [], "biography": "", "biography_author": null, "date_of_biography": "2023-05-09T15:53:12.830614+10:00", "external_links": [], "uuid": "eeafcfce-1fc6-486f-b133-37bf08352637", "source": {"name": "Vernon", "slug": "vernon"}, "source_identifier": "18615", "external_references": [{"id": 36533, "source": {"name": "Wikidata", "slug": "wikidata"}, "source_identifier": "Q121270995"}], "date_modified": "2025-03-14T17:27:13.562000+11:00"}, {"id": 14937, "name": "Tim Barr", "roles_in_work": [{"id": 2760680, "title": "Make-up: aging and hair", "work_id": 67499, "role": "producer", "role_id": 1089, "is_primary": true}, {"id": 2760668, "title": "Acting", "work_id": 67494, "role": "producer", "role_id": 1089, "is_primary": true}, {"id": 2760671, "title": "Camera", "work_id": 67495, "role": "producer", "role_id": 1089, "is_primary": true}, {"id": 2760674, "title": "Editing", "work_id": 67496, "role": "producer", "role_id": 1089, "is_primary": true}, {"id": 2760676, "title": "So you're going on location", "work_id": 67497, "role": "producer", "role_id": 1089, "is_primary": true}, {"id": 2760682, "title": "Overview of 8mm production", "work_id": 67500, "role": "producer", "role_id": 1089, "is_primary": true}, {"id": 2760684, "title": "Stage lighting", "work_id": 67501, "role": "producer", "role_id": 1089, "is_primary": true}, {"id": 2760687, "title": "Stunts: fights and falls", "work_id": 67502, "role": "producer", "role_id": 1089, "is_primary": true}, {"id": 2760686, "title": "Stunts: fights and falls", "work_id": 67502, "role": "production company", "role_id": 941, "is_primary": true}], "also_known_as": "", "date_of_birth": "", "date_of_death": "", "genders": [], "languages": [], "places_of_operation": [], "biography": "", "biography_author": null, "date_of_biography": "2023-05-09T15:53:12.607932+10:00", "external_links": [], "uuid": "d4eb1de2-54a2-48c5-8463-e45ab552a1f3", "source": {"name": "Vernon", "slug": "vernon"}, "source_identifier": "29727", "external_references": [], "date_modified": "2025-03-14T17:27:16.370575+11:00"}, {"id": 14935, "name": "Cine Qua Non-Bartholomus", "roles_in_work": [{"id": 2644790, "title": "Film graphics: abstract aspect of editing", "work_id": 67492, "role": "production company", "role_id": 941, "is_primary": true}], "also_known_as": "", "date_of_birth": "", "date_of_death": "", "genders": [], "languages": [], "places_of_operation": [], "biography": "", "biography_author": null, "date_of_biography": "2023-05-09T16:52:06.443712+10:00", "external_links": [], "uuid": "dbc2049d-752b-4a14-972f-afe422c2c47b", "source": {"name": "Vernon", "slug": "vernon"}, "source_identifier": "6652", "external_references": [{"id": 33403, "source": {"name": "Wikidata", "slug": "wikidata"}, "source_identifier": "Q121315667"}], "date_modified": "2025-03-05T12:26:17.751975+11:00"}, {"id": 14934, "name": "Norman L Ziegler", "roles_in_work": [{"id": 2644789, "title": "A Film for projection", "work_id": 67491, "role": "director", "role_id": 938, "is_primary": true}], "also_known_as": "", "date_of_birth": "", "date_of_death": "", "genders": [], "languages": [], "places_of_operation": [], "biography": "", "biography_author": null, "date_of_biography": "2023-08-11T13:01:33.535360+10:00", "external_links": [], "uuid": "2511f3a6-e705-436e-8d51-17f516dd2753", "source": {"name": "Vernon", "slug": "vernon"}, "source_identifier": "25895", "external_references": [], "date_modified": "2025-03-05T12:26:16.868623+11:00"}, {"id": 14933, "name": "Osmic", "roles_in_work": [{"id": 2644788, "title": "A Film for projection", "work_id": 67491, "role": "production company", "role_id": 941, "is_primary": true}], "also_known_as": "", "date_of_birth": "", "date_of_death": "", "genders": [], "languages": [], "places_of_operation": [], "biography": "", "biography_author": null, "date_of_biography": "2023-08-11T13:01:32.915265+10:00", "external_links": [], "uuid": "16858458-e485-4b59-9da9-cc7dbfd5921f", "source": {"name": "Vernon", "slug": "vernon"}, "source_identifier": "11188", "external_references": [], "date_modified": "2025-03-05T12:26:16.271833+11:00"}]}