{"count": 28687, "next": "https://api.acmi.net.au/creators/?page=2765", "previous": "https://api.acmi.net.au/creators/?page=2763", "results": [{"id": 10528, "name": "Meredith Badger", "roles_in_work": [{"id": 2637041, "title": "On the hop", "work_id": 109489, "role": "creator", "role_id": 968, "is_primary": true}], "also_known_as": "", "date_of_birth": "", "date_of_death": "", "genders": [{"id": 5, "name": "Female", "slug": "female"}], "languages": [], "places_of_operation": [], "biography": "", "biography_author": null, "date_of_biography": "2023-08-16T03:35:32.266627+10:00", "external_links": [], "uuid": "d49c347f-4539-4612-a1dc-1d0354cadb56", "source": {"name": "Vernon", "slug": "vernon"}, "source_identifier": "2107", "external_references": [], "date_modified": "2025-03-05T10:42:46.488231+11:00"}, {"id": 10527, "name": "Tasman Armitage", "roles_in_work": [{"id": 2636449, "title": "A Pivotal moment", "work_id": 114205, "role": "creator", "role_id": 968, "is_primary": true}], "also_known_as": "", "date_of_birth": "", "date_of_death": "", "genders": [{"id": 5, "name": "Female", "slug": "female"}], "languages": [], "places_of_operation": [], "biography": "", "biography_author": null, "date_of_biography": "2023-07-05T03:41:21.048821+10:00", "external_links": [], "uuid": "bd5ab5f5-20bf-477c-8f4f-033c3674ba63", "source": {"name": "Vernon", "slug": "vernon"}, "source_identifier": "2106", "external_references": [], "date_modified": "2025-03-05T10:37:02.858115+11:00"}, {"id": 10526, "name": "Carolyn Scott", "roles_in_work": [{"id": 2636444, "title": "Sins of the Fathers", "work_id": 114206, "role": "creator", "role_id": 968, "is_primary": true}], "also_known_as": "", "date_of_birth": "", "date_of_death": "", "genders": [{"id": 5, "name": "Female", "slug": "female"}], "languages": [], "places_of_operation": [], "biography": "", "biography_author": null, "date_of_biography": "2023-07-05T03:41:19.023709+10:00", "external_links": [], "uuid": "35638d12-5fb9-4545-bbae-effdddb1cc7c", "source": {"name": "Vernon", "slug": "vernon"}, "source_identifier": "2105", "external_references": [], "date_modified": "2025-03-05T10:36:59.450370+11:00"}, {"id": 10525, "name": "Stef Linder", "roles_in_work": [{"id": 2636439, "title": "The Coat", "work_id": 114202, "role": "creator", "role_id": 968, "is_primary": true}, {"id": 2642378, "title": "Flame within", "work_id": 110883, "role": "creator", "role_id": 968, "is_primary": true}], "also_known_as": "", "date_of_birth": "", "date_of_death": "", "genders": [{"id": 5, "name": "Female", "slug": "female"}], "languages": [], "places_of_operation": [], "biography": "", "biography_author": null, "date_of_biography": "2023-07-05T03:41:17.065013+10:00", "external_links": [], "uuid": "6ab0507b-0f2e-4375-aa7f-8f783212ae8f", "source": {"name": "Vernon", "slug": "vernon"}, "source_identifier": "2104", "external_references": [], "date_modified": "2025-03-05T11:45:57.147976+11:00"}, {"id": 10524, "name": "Alice Ewing", "roles_in_work": [{"id": 2636434, "title": "Drifting in Antarctica", "work_id": 109476, "role": "creator", "role_id": 968, "is_primary": true}], "also_known_as": "", "date_of_birth": "", "date_of_death": "", "genders": [{"id": 5, "name": "Female", "slug": "female"}], "languages": [], "places_of_operation": [], "biography": "", "biography_author": null, "date_of_biography": "2023-05-09T15:28:01.325541+10:00", "external_links": [], "uuid": "4a2a5b8b-b9fa-42a8-9484-db192fb3fa17", "source": {"name": "Vernon", "slug": "vernon"}, "source_identifier": "2103", "external_references": [], "date_modified": "2025-03-05T10:36:52.989843+11:00"}, {"id": 10523, "name": "Janice Florence", "roles_in_work": [{"id": 2636429, "title": "Absolution", "work_id": 114199, "role": "creator", "role_id": 968, "is_primary": true}], "also_known_as": "", "date_of_birth": "", "date_of_death": "", "genders": [{"id": 5, "name": "Female", "slug": "female"}], "languages": [], "places_of_operation": [], "biography": "", "biography_author": null, "date_of_biography": "2023-07-05T03:41:15.027391+10:00", "external_links": [], "uuid": "4f08239e-73fd-44b7-85de-bba7140e535b", "source": {"name": "Vernon", "slug": "vernon"}, "source_identifier": "2102", "external_references": [], "date_modified": "2025-03-05T10:36:49.715338+11:00"}, {"id": 10522, "name": "Carly Weber", "roles_in_work": [{"id": 2636424, "title": "A different perspective", "work_id": 114203, "role": "creator", "role_id": 968, "is_primary": true}], "also_known_as": "", "date_of_birth": "", "date_of_death": "", "genders": [{"id": 5, "name": "Female", "slug": "female"}], "languages": [], "places_of_operation": [], "biography": "", "biography_author": null, "date_of_biography": "2023-07-05T03:41:13.096393+10:00", "external_links": [], "uuid": "baafedc7-a771-4fa2-8f14-8b208257bcf5", "source": {"name": "Vernon", "slug": "vernon"}, "source_identifier": "2101", "external_references": [], "date_modified": "2025-03-05T10:36:46.094797+11:00"}, {"id": 10521, "name": "Catherine Craig", "roles_in_work": [{"id": 2636419, "title": "The Wedding", "work_id": 114207, "role": "creator", "role_id": 968, "is_primary": true}], "also_known_as": "", "date_of_birth": "", "date_of_death": "", "genders": [{"id": 5, "name": "Female", "slug": "female"}], "languages": [], "places_of_operation": [], "biography": "", "biography_author": null, "date_of_biography": "2023-07-05T03:41:10.831520+10:00", "external_links": [], "uuid": "82b92a86-61d7-454c-8727-6a9afc2f9549", "source": {"name": "Vernon", "slug": "vernon"}, "source_identifier": "2100", "external_references": [], "date_modified": "2025-03-05T10:36:42.565101+11:00"}, {"id": 10520, "name": "John Estlick", "roles_in_work": [{"id": 2636414, "title": "Cardin Street", "work_id": 114201, "role": "creator", "role_id": 968, "is_primary": true}], "also_known_as": "", "date_of_birth": "", "date_of_death": "", "genders": [{"id": 9, "name": "Male", "slug": "male"}], "languages": [], "places_of_operation": [], "biography": "", "biography_author": null, "date_of_biography": "2023-07-05T03:41:08.835810+10:00", "external_links": [], "uuid": "2bd47742-b677-4d1c-9435-4966805983cb", "source": {"name": "Vernon", "slug": "vernon"}, "source_identifier": "2099", "external_references": [], "date_modified": "2025-03-05T10:36:39.235660+11:00"}, {"id": 10519, "name": "Kathleen Warren", "roles_in_work": [{"id": 2636409, "title": "Everything", "work_id": 114204, "role": "creator", "role_id": 968, "is_primary": true}], "also_known_as": "", "date_of_birth": "", "date_of_death": "", "genders": [{"id": 5, "name": "Female", "slug": "female"}], "languages": [], "places_of_operation": [], "biography": "", "biography_author": null, "date_of_biography": "2023-07-05T03:41:06.784359+10:00", "external_links": [], "uuid": "4a70d57b-c62b-434d-9193-5e6a42d3c42f", "source": {"name": "Vernon", "slug": "vernon"}, "source_identifier": "2098", "external_references": [], "date_modified": "2025-03-05T10:36:35.911284+11:00"}]}