{"count": 28687, "next": "https://api.acmi.net.au/creators/?page=2542", "previous": "https://api.acmi.net.au/creators/?page=2540", "results": [{"id": 13387, "name": "Terry Trench", "roles_in_work": [{"id": 895995, "title": "This land Australia", "work_id": 73746, "role": "director", "role_id": 938, "is_primary": true}, {"id": 2646822, "title": "Voices of Malaya", "work_id": 74419, "role": "co-director", "role_id": 959, "is_primary": true}, {"id": 2678947, "title": "The Build up", "work_id": 65656, "role": "producer", "role_id": 1089, "is_primary": true}, {"id": 2715721, "title": "Hovercraft N4", "work_id": 68581, "role": "producer", "role_id": 1089, "is_primary": true}, {"id": 1813593, "title": "What to eat", "work_id": 74646, "role": "producer", "role_id": 1089, "is_primary": true}, {"id": 1813781, "title": "Cushioncraft", "work_id": 89466, "role": "producer", "role_id": 1089, "is_primary": true}], "also_known_as": "", "date_of_birth": "", "date_of_death": "", "genders": [], "languages": [], "places_of_operation": [], "biography": "", "biography_author": null, "date_of_biography": "2023-07-05T03:47:59.042763+10:00", "external_links": [], "uuid": "bb40ddde-a907-4167-9390-022258bcbfed", "source": {"name": "Vernon", "slug": "vernon"}, "source_identifier": "29616", "external_references": [{"id": 32623, "source": {"name": "Wikidata", "slug": "wikidata"}, "source_identifier": "Q121337318"}], "date_modified": "2025-03-12T01:40:55.630111+11:00"}, {"id": 13386, "name": "Kokusai Bunka Shinkokai", "roles_in_work": [{"id": 2678945, "title": "The Bugaku dance", "work_id": 65655, "role": "production company", "role_id": 941, "is_primary": true}], "also_known_as": "", "date_of_birth": "", "date_of_death": "", "genders": [], "languages": [], "places_of_operation": [], "biography": "", "biography_author": null, "date_of_biography": "2023-08-14T11:05:50.866456+10:00", "external_links": [], "uuid": "56fd86dc-443f-4a18-8849-07d8b46c37a7", "source": {"name": "Vernon", "slug": "vernon"}, "source_identifier": "9823", "external_references": [], "date_modified": "2025-03-07T00:01:55.598720+11:00"}, {"id": 13385, "name": "Oxo", "roles_in_work": [{"id": 2678944, "title": "Budget cuts", "work_id": 65654, "role": "production company", "role_id": 941, "is_primary": true}], "also_known_as": "", "date_of_birth": "", "date_of_death": "", "genders": [], "languages": [], "places_of_operation": [], "biography": "", "biography_author": null, "date_of_biography": "2023-08-11T15:07:54.899447+10:00", "external_links": [], "uuid": "3d829f4f-6290-44e2-ae2c-e6d5d2503069", "source": {"name": "Vernon", "slug": "vernon"}, "source_identifier": "11216", "external_references": [], "date_modified": "2025-03-07T00:01:54.775170+11:00"}, {"id": 13384, "name": "Max Morgan-Witts", "roles_in_work": [{"id": 2678938, "title": "Brute force and finesse: new ways of shaping and forming materials", "work_id": 65650, "role": "producer", "role_id": 1089, "is_primary": true}, {"id": 2644876, "title": "From strength to strength", "work_id": 67863, "role": "producer", "role_id": 1089, "is_primary": true}, {"id": 2680993, "title": "The Days the world went mad", "work_id": 66651, "role": "producer", "role_id": 1089, "is_primary": true}], "also_known_as": "", "date_of_birth": null, "date_of_death": null, "genders": [], "languages": [], "places_of_operation": [], "biography": "", "biography_author": null, "date_of_biography": null, "external_links": [], "uuid": "b062edc3-a5bb-4f75-9595-ba69715d22e3", "source": {"name": "Vernon", "slug": "vernon"}, "source_identifier": "24873", "external_references": [], "date_modified": "2025-03-07T00:46:55.260522+11:00"}, {"id": 13383, "name": "State of West Virginia, Dept of Commerce", "roles_in_work": [{"id": 2678934, "title": "Brush Creek bounces back", "work_id": 65648, "role": "production company", "role_id": 941, "is_primary": true}], "also_known_as": "", "date_of_birth": null, "date_of_death": null, "genders": [], "languages": [], "places_of_operation": [], "biography": "", "biography_author": null, "date_of_biography": null, "external_links": [], "uuid": "b78b26c5-3557-49fb-82a2-d3a6cd4428ba", "source": {"name": "Vernon", "slug": "vernon"}, "source_identifier": "12935", "external_references": [], "date_modified": "2025-03-07T00:01:47.207998+11:00"}, {"id": 13382, "name": "Robert W Gutteridge", "roles_in_work": [{"id": 2678933, "title": "Bruegel's people", "work_id": 65647, "role": "producer", "role_id": 1089, "is_primary": true}], "also_known_as": "", "date_of_birth": "", "date_of_death": "", "genders": [], "languages": [], "places_of_operation": [], "biography": "", "biography_author": null, "date_of_biography": "2023-08-11T15:07:43.931173+10:00", "external_links": [], "uuid": "91235818-c145-4db7-a196-df754a254a64", "source": {"name": "Vernon", "slug": "vernon"}, "source_identifier": "27909", "external_references": [], "date_modified": "2025-03-07T00:01:46.363095+11:00"}, {"id": 13381, "name": "Vox Productions", "roles_in_work": [{"id": 879430, "title": "France panorama. [Special edition. 14th July Parade]", "work_id": 91773, "role": "production company", "role_id": 941, "is_primary": true}, {"id": 2678932, "title": "Bruegel's people", "work_id": 65647, "role": "production company", "role_id": 941, "is_primary": true}], "also_known_as": "", "date_of_birth": "", "date_of_death": "", "genders": [], "languages": [], "places_of_operation": [], "biography": "", "biography_author": null, "date_of_biography": "2023-08-11T15:07:43.311947+10:00", "external_links": [], "uuid": "99c9bc0a-1798-4ab7-84d1-19b786f3cc09", "source": {"name": "Vernon", "slug": "vernon"}, "source_identifier": "14198", "external_references": [], "date_modified": "2025-03-07T00:01:45.783466+11:00"}, {"id": 13379, "name": "Frank Hurley", "roles_in_work": [{"id": 2648601, "title": "Antarctic Pioneers", "work_id": 79627, "role": "director", "role_id": 938, "is_primary": true}, {"id": 771042, "title": "Pearls and savages (1921)", "work_id": 79925, "role": "director", "role_id": 938, "is_primary": true}, {"id": 2648605, "title": "Antarctic Pioneers", "work_id": 79627, "role": "narrator", "role_id": 499, "is_primary": false}, {"id": 2644664, "title": "Endurance", "work_id": 67155, "role": "photographer", "role_id": 440, "is_primary": false}, {"id": 2751758, "title": "The Squatter's Daughter", "work_id": 97966, "role": "photographer", "role_id": 440, "is_primary": false}, {"id": 2678929, "title": "Brown coal to briquettes", "work_id": 65644, "role": "producer", "role_id": 1089, "is_primary": true}, {"id": 2644234, "title": "Brown coal to kilowatts", "work_id": 65645, "role": "producer", "role_id": 1089, "is_primary": true}, {"id": 1819790, "title": "The Eternal forest", "work_id": 86011, "role": "producer", "role_id": 1089, "is_primary": true}, {"id": 2645514, "title": "The Magic of electricity", "work_id": 69994, "role": "producer", "role_id": 1089, "is_primary": true}, {"id": 1820321, "title": "The Romance of brown coal", "work_id": 72332, "role": "producer", "role_id": 1089, "is_primary": true}, {"id": 2648712, "title": "A Nation is built", "work_id": 79860, "role": "producer/director", "role_id": 31, "is_primary": true}, {"id": 770835, "title": "Home of the blizzard (1913)", "work_id": 79858, "role": "producer/director", "role_id": 31, "is_primary": true}], "also_known_as": "", "date_of_birth": "15 OCT 1885", "date_of_death": "16 JAN 1962", "genders": [{"id": 9, "name": "Male", "slug": "male"}], "languages": [{"id": 1, "name": "English", "slug": "english"}], "places_of_operation": [{"id": 3, "name": "Australia", "slug": "australia"}], "biography": "James Francis \"Frank\" Hurley  (15 October 1885 – 16 January 1962) was an Australian photographer and adventurer. He participated in a number of expeditions to Antarctica and served as an official photographer with Australian forces during both world wars. He was the official photographer for the Australasian Antarctic Expedition and the Imperial Trans-Antarctic Expedition of 1914–16.\n\nHis artistic style produced many memorable images. He also used staged scenes, composites and photographic manipulation. Source: Wikidata; 01/08/2023", "biography_author": null, "date_of_biography": "2025-03-13T00:50:45.778789+11:00", "external_links": [{"id": 3988, "uri": "https://en.wikipedia.org/wiki/Frank_Hurley"}], "uuid": "b3a74cd4-de69-4ccc-b952-a97612919dd6", "source": {"name": "Vernon", "slug": "vernon"}, "source_identifier": "19130", "external_references": [{"id": 26627, "source": {"name": "Wikidata", "slug": "wikidata"}, "source_identifier": "Q958587"}, {"id": 28446, "source": {"name": "VIAF", "slug": "viaf"}, "source_identifier": "34613489"}, {"id": 28447, "source": {"name": "LOC Auth", "slug": "loc-auth"}, "source_identifier": "n85052816"}, {"id": 28448, "source": {"name": "WorldCat", "slug": "worldcat"}, "source_identifier": "lccn-n85052816"}], "date_modified": "2025-03-13T00:50:45.778996+11:00"}, {"id": 13378, "name": "Robert Cannon", "roles_in_work": [{"id": 2748982, "title": "Madeline", "work_id": 96581, "role": "director", "role_id": 938, "is_primary": true}, {"id": 2678926, "title": "Brotherhood of man", "work_id": 65642, "role": "director", "role_id": 938, "is_primary": true}, {"id": 763967, "title": "Gerald Mcboing boing (K)", "work_id": 77255, "role": "director", "role_id": 938, "is_primary": true}, {"id": 791744, "title": "Gerald Mcboing boing", "work_id": 86018, "role": "director", "role_id": 938, "is_primary": true}], "also_known_as": "", "date_of_birth": "1909-07-16", "date_of_death": "1964-06-09", "genders": [{"id": 9, "name": "Male", "slug": "male"}], "languages": [], "places_of_operation": [], "biography": "", "biography_author": null, "date_of_biography": null, "external_links": [], "uuid": "83365787-64ee-4d9b-ac4c-e08dec44c2c4", "source": {"name": "Vernon", "slug": "vernon"}, "source_identifier": "27672", "external_references": [{"id": 33283, "source": {"name": "Wikidata", "slug": "wikidata"}, "source_identifier": "Q28481602"}, {"id": 55674, "source": {"name": "VIAF", "slug": "viaf"}, "source_identifier": "54332012"}, {"id": 55675, "source": {"name": "LOC Auth", "slug": "loc-auth"}, "source_identifier": "n92107942"}, {"id": 55676, "source": {"name": "WorldCat", "slug": "worldcat"}, "source_identifier": "lccn-n92107942"}], "date_modified": "2025-03-12T23:51:05.154896+11:00"}, {"id": 13377, "name": "United Productions of America", "roles_in_work": [{"id": 2678924, "title": "Brotherhood of man", "work_id": 65642, "role": "production company", "role_id": 941, "is_primary": true}, {"id": 858072, "title": "The School and the community", "work_id": 72510, "role": "production company", "role_id": 941, "is_primary": true}, {"id": 3082321, "title": "The Even chance", "work_id": 90783, "role": "production company", "role_id": 941, "is_primary": true}, {"id": 3082346, "title": "Examination for lieutenant", "work_id": 90784, "role": "production company", "role_id": 941, "is_primary": true}, {"id": 3082356, "title": "The Duchess and the devil", "work_id": 91945, "role": "production company", "role_id": 941, "is_primary": true}, {"id": 3082367, "title": "Hornblower", "work_id": 115561, "role": "production company", "role_id": 941, "is_primary": true}, {"id": 2712011, "title": "Design of American public education", "work_id": 66726, "role": "production company", "role_id": 941, "is_primary": true}, {"id": 2319037, "title": "Survival of spaceship earth", "work_id": 73406, "role": "production company", "role_id": 941, "is_primary": true}, {"id": 3082333, "title": "The Frogs and the lobsters", "work_id": 91946, "role": "production company", "role_id": 941, "is_primary": true}, {"id": 791741, "title": "Gerald Mcboing boing", "work_id": 86018, "role": "production company", "role_id": 941, "is_primary": true}, {"id": 756589, "title": "The Unicorn in the garden", "work_id": 74185, "role": "production company", "role_id": 941, "is_primary": true}, {"id": 763964, "title": "Gerald Mcboing boing (K)", "work_id": 77255, "role": "production company", "role_id": 941, "is_primary": true}, {"id": 747421, "title": "Man alive", "work_id": 70074, "role": "production company", "role_id": 941, "is_primary": true}, {"id": 894607, "title": "Inside Magoo", "work_id": 68969, "role": "production company", "role_id": 941, "is_primary": true}], "also_known_as": "", "date_of_birth": "", "date_of_death": "", "genders": [], "languages": [], "places_of_operation": [], "biography": "", "biography_author": null, "date_of_biography": "2023-05-09T19:54:42.910006+10:00", "external_links": [], "uuid": "4d33da0f-0eb1-4cce-b9d4-2ddf15fc214e", "source": {"name": "Vernon", "slug": "vernon"}, "source_identifier": "13858", "external_references": [], "date_modified": "2025-03-17T10:28:46.096095+11:00"}]}