{"count": 28687, "next": "https://api.acmi.net.au/creators/?page=2766", "previous": "https://api.acmi.net.au/creators/?page=2764", "results": [{"id": 10517, "name": "Sebi Aristos", "roles_in_work": [{"id": 2636404, "title": "Die another day", "work_id": 114197, "role": "creator", "role_id": 968, "is_primary": true}], "also_known_as": "", "date_of_birth": "", "date_of_death": "", "genders": [{"id": 9, "name": "Male", "slug": "male"}], "languages": [], "places_of_operation": [], "biography": "", "biography_author": null, "date_of_biography": "2023-08-16T03:35:19.561479+10:00", "external_links": [], "uuid": "8f2b432e-60d6-469a-932a-9b519b4bc7b5", "source": {"name": "Vernon", "slug": "vernon"}, "source_identifier": "2095", "external_references": [], "date_modified": "2025-03-05T10:36:32.358688+11:00"}, {"id": 10516, "name": "Bayside Secondary College", "roles_in_work": [{"id": 2636148, "title": "Shorter cuts: Snatch and grab (3/11/04)", "work_id": 109462, "role": "cast", "role_id": 33, "is_primary": false}, {"id": 2636145, "title": "Shorter cuts: Snatch and grab (21/10/04)", "work_id": 109461, "role": "cast", "role_id": 33, "is_primary": false}, {"id": 3092531, "title": "Attack of the strange insects from Uranus", "work_id": 109711, "role": "production facilities", "role_id": 442, "is_primary": false}, {"id": 2636144, "title": "Shorter cuts: Snatch and grab (21/10/04)", "work_id": 109461, "role": "writer", "role_id": 939, "is_primary": true}, {"id": 2636147, "title": "Shorter cuts: Snatch and grab (3/11/04)", "work_id": 109462, "role": "writer", "role_id": 939, "is_primary": true}], "also_known_as": "", "date_of_birth": "", "date_of_death": "", "genders": [], "languages": [], "places_of_operation": [], "biography": "", "biography_author": null, "date_of_biography": "2023-05-09T18:42:15.307397+10:00", "external_links": [], "uuid": "90194040-7a93-4ef8-8d07-6a1c5b0581ba", "source": {"name": "Vernon", "slug": "vernon"}, "source_identifier": "2093", "external_references": [{"id": 35496, "source": {"name": "Wikidata", "slug": "wikidata"}, "source_identifier": "Q121143992"}], "date_modified": "2025-03-24T22:35:01.365728+11:00"}, {"id": 10515, "name": "Anderson's Creek Primary School", "roles_in_work": [{"id": 2637406, "title": "[Tom Hughes]", "work_id": 109561, "role": "creator", "role_id": 968, "is_primary": true}, {"id": 2637399, "title": "[Nicolas Bethune]", "work_id": 109568, "role": "creator", "role_id": 968, "is_primary": true}, {"id": 2637401, "title": "[Ryo Parker]", "work_id": 109556, "role": "creator", "role_id": 968, "is_primary": true}, {"id": 2637403, "title": "[Sophie Richardson]", "work_id": 109572, "role": "creator", "role_id": 968, "is_primary": true}, {"id": 2637408, "title": "[Viana Stern]", "work_id": 109552, "role": "creator", "role_id": 968, "is_primary": true}, {"id": 2637410, "title": "Animated Stamp - [Xavier Longfield]", "work_id": 109555, "role": "creator", "role_id": 968, "is_primary": true}, {"id": 2637375, "title": "[Adam Tsaktserlis]", "work_id": 109567, "role": "creator", "role_id": 968, "is_primary": true}, {"id": 2637377, "title": "[Aran Spottiswood]", "work_id": 109571, "role": "creator", "role_id": 968, "is_primary": true}, {"id": 2637379, "title": "[Brent Seymour]", "work_id": 109573, "role": "creator", "role_id": 968, "is_primary": true}, {"id": 2637381, "title": "[Calandra Kidd]", "work_id": 109554, "role": "creator", "role_id": 968, "is_primary": true}, {"id": 2637383, "title": "[Dylan Burns]", "work_id": 109569, "role": "creator", "role_id": 968, "is_primary": true}, {"id": 2637385, "title": "[Jeremy James]", "work_id": 109557, "role": "creator", "role_id": 968, "is_primary": true}, {"id": 2637387, "title": "[Kyrsten Monaghan]", "work_id": 109558, "role": "creator", "role_id": 968, "is_primary": true}, {"id": 2637389, "title": "[Luka Tsaktserlis]", "work_id": 109560, "role": "creator", "role_id": 968, "is_primary": true}, {"id": 2637391, "title": "[Mitchell Etherington/Zac Brodrick]", "work_id": 109574, "role": "creator", "role_id": 968, "is_primary": true}, {"id": 2637394, "title": "Animated Stamp - [Mitchell Gaffney]", "work_id": 109559, "role": "creator", "role_id": 968, "is_primary": true}, {"id": 2637396, "title": "[Nick Nolan]", "work_id": 109570, "role": "creator", "role_id": 968, "is_primary": true}, {"id": 2636142, "title": "Shorter cuts: Supergeek 2", "work_id": 109460, "role": "cast", "role_id": 33, "is_primary": false}, {"id": 2637413, "title": "Stamps coming to life: Anderson Creek Primary School", "work_id": 109553, "role": "creator", "role_id": 968, "is_primary": true}, {"id": 2636141, "title": "Shorter cuts: Supergeek 2", "work_id": 109460, "role": "writer", "role_id": 939, "is_primary": true}], "also_known_as": "", "date_of_birth": "", "date_of_death": "", "genders": [], "languages": [], "places_of_operation": [], "biography": "", "biography_author": null, "date_of_biography": "2023-08-16T03:35:51.522041+10:00", "external_links": [], "uuid": "b8de55d8-8e14-4656-97f1-16a39ec45286", "source": {"name": "Vernon", "slug": "vernon"}, "source_identifier": "2092", "external_references": [], "date_modified": "2025-03-05T10:46:19.814069+11:00"}, {"id": 10513, "name": "Chris Barker", "roles_in_work": [{"id": 3099093, "title": "Final notice", "work_id": 109459, "role": "creator", "role_id": 968, "is_primary": true}, {"id": 3099094, "title": "Final notice", "work_id": 109459, "role": "animator", "role_id": 497, "is_primary": false}], "also_known_as": "", "date_of_birth": null, "date_of_death": null, "genders": [], "languages": [], "places_of_operation": [], "biography": "Lecturer in Animation andComputer Graphics, QUT", "biography_author": null, "date_of_biography": "2025-05-21T22:35:36.939022+10:00", "external_links": [], "uuid": "579c0be4-78e7-4436-82f1-9208fcde78c0", "source": {"name": "Vernon", "slug": "vernon"}, "source_identifier": "2084", "external_references": [], "date_modified": "2025-05-21T22:35:36.939266+10:00"}, {"id": 10512, "name": "Yong Keom Lee", "roles_in_work": [{"id": 3099089, "title": "David & Rocky", "work_id": 109458, "role": "creator", "role_id": 968, "is_primary": true}, {"id": 3099090, "title": "David & Rocky", "work_id": 109458, "role": "animator", "role_id": 497, "is_primary": false}, {"id": 3099091, "title": "David & Rocky", "work_id": 109458, "role": "writer", "role_id": 939, "is_primary": true}], "also_known_as": "", "date_of_birth": null, "date_of_death": null, "genders": [], "languages": [], "places_of_operation": [], "biography": "", "biography_author": null, "date_of_biography": null, "external_links": [], "uuid": "ec57b9db-f66f-4712-b54e-8d0067f3d041", "source": {"name": "Vernon", "slug": "vernon"}, "source_identifier": "2083", "external_references": [], "date_modified": "2025-05-21T22:35:34.763318+10:00"}, {"id": 10511, "name": "Jennie Swain", "roles_in_work": [{"id": 3099083, "title": "If it wasn't for the rubber", "work_id": 109455, "role": "creator", "role_id": 968, "is_primary": true}, {"id": 3099084, "title": "If it wasn't for the rubber", "work_id": 109455, "role": "animator", "role_id": 497, "is_primary": false}], "also_known_as": "", "date_of_birth": "", "date_of_death": "", "genders": [], "languages": [], "places_of_operation": [], "biography": "", "biography_author": null, "date_of_biography": "2023-05-09T18:30:36.911223+10:00", "external_links": [], "uuid": "dc52b11b-71a3-4974-a516-90bfa088a7bb", "source": {"name": "Vernon", "slug": "vernon"}, "source_identifier": "2075", "external_references": [], "date_modified": "2025-05-21T22:35:29.799472+10:00"}, {"id": 10510, "name": "Lindsay Mark", "roles_in_work": [{"id": 3099080, "title": "November 3 1957", "work_id": 109454, "role": "creator", "role_id": 968, "is_primary": true}, {"id": 3099081, "title": "November 3 1957", "work_id": 109454, "role": "animator", "role_id": 497, "is_primary": false}], "also_known_as": "", "date_of_birth": "", "date_of_death": "", "genders": [], "languages": [], "places_of_operation": [], "biography": "", "biography_author": null, "date_of_biography": "2023-05-09T18:30:41.155434+10:00", "external_links": [], "uuid": "61fda02b-048b-417a-99d4-8e816d449e6d", "source": {"name": "Vernon", "slug": "vernon"}, "source_identifier": "2074", "external_references": [], "date_modified": "2025-05-21T22:35:27.668126+10:00"}, {"id": 10509, "name": "Ai Yen Hoe", "roles_in_work": [{"id": 3099077, "title": "Miss Showy", "work_id": 109452, "role": "creator", "role_id": 968, "is_primary": true}, {"id": 3099078, "title": "Miss Showy", "work_id": 109452, "role": "animator", "role_id": 497, "is_primary": false}], "also_known_as": "", "date_of_birth": "", "date_of_death": "", "genders": [], "languages": [], "places_of_operation": [], "biography": "", "biography_author": null, "date_of_biography": "2023-05-09T18:30:39.040687+10:00", "external_links": [], "uuid": "451d433e-af15-47b8-b96e-683122953ad2", "source": {"name": "Vernon", "slug": "vernon"}, "source_identifier": "2072", "external_references": [], "date_modified": "2025-05-21T22:35:25.523554+10:00"}, {"id": 10508, "name": "Mark Power", "roles_in_work": [{"id": 3099075, "title": "The Couch", "work_id": 109451, "role": "creator", "role_id": 968, "is_primary": true}, {"id": 3099074, "title": "The Couch", "work_id": 109451, "role": "animator", "role_id": 497, "is_primary": false}], "also_known_as": "", "date_of_birth": "", "date_of_death": "", "genders": [], "languages": [], "places_of_operation": [], "biography": "", "biography_author": null, "date_of_biography": "2023-05-09T18:30:35.875050+10:00", "external_links": [], "uuid": "96444b25-b82c-4132-9f39-0a61e4068181", "source": {"name": "Vernon", "slug": "vernon"}, "source_identifier": "2071", "external_references": [], "date_modified": "2025-05-21T22:35:23.387649+10:00"}, {"id": 10507, "name": "Philippa McDermott", "roles_in_work": [{"id": 3099066, "title": "[Lip sync]", "work_id": 109448, "role": "creator", "role_id": 968, "is_primary": true}, {"id": 3099068, "title": "Can you hear the dog Fernando?", "work_id": 109449, "role": "creator", "role_id": 968, "is_primary": true}, {"id": 3099067, "title": "[Lip sync]", "work_id": 109448, "role": "animator", "role_id": 497, "is_primary": false}, {"id": 3099069, "title": "Can you hear the dog Fernando?", "work_id": 109449, "role": "animator", "role_id": 497, "is_primary": false}], "also_known_as": "", "date_of_birth": "", "date_of_death": "", "genders": [], "languages": [], "places_of_operation": [], "biography": "", "biography_author": null, "date_of_biography": "2023-05-09T18:30:38.276385+10:00", "external_links": [], "uuid": "30d97445-b322-4c3c-9982-b662ebbff913", "source": {"name": "Vernon", "slug": "vernon"}, "source_identifier": "2069", "external_references": [], "date_modified": "2025-05-21T22:35:18.977200+10:00"}]}