{"count": 28687, "next": "https://api.acmi.net.au/creators/?page=1415", "previous": "https://api.acmi.net.au/creators/?page=1413", "results": [{"id": 36524, "name": "France2 Cinema", "roles_in_work": [{"id": 2475049, "title": "The Taste of others = It takes all kinds = Le Gout des autres", "work_id": 94505, "role": "production company", "role_id": 941, "is_primary": true}, {"id": 2320453, "title": "Swimming pool", "work_id": 94878, "role": "production company", "role_id": 941, "is_primary": true}], "also_known_as": "", "date_of_birth": "", "date_of_death": "", "genders": [], "languages": [], "places_of_operation": [], "biography": "", "biography_author": null, "date_of_biography": "2023-08-17T15:03:28.370466+10:00", "external_links": [], "uuid": "56982054-0e0a-49e6-a1a7-d9abd966ef24", "source": {"name": "Vernon", "slug": "vernon"}, "source_identifier": "8502", "external_references": [{"id": 34181, "source": {"name": "Wikidata", "slug": "wikidata"}, "source_identifier": "Q10498467"}, {"id": 54430, "source": {"name": "VIAF", "slug": "viaf"}, "source_identifier": "151495727"}, {"id": 54431, "source": {"name": "LOC Auth", "slug": "loc-auth"}, "source_identifier": "no2006111430"}, {"id": 54432, "source": {"name": "WorldCat", "slug": "worldcat"}, "source_identifier": "lccn-no2006111430"}], "date_modified": "2023-09-05T19:45:49.011924+10:00"}, {"id": 36523, "name": "Les Films A4", "roles_in_work": [{"id": 2475048, "title": "The Taste of others = It takes all kinds = Le Gout des autres", "work_id": 94505, "role": "production company", "role_id": 941, "is_primary": true}], "also_known_as": "", "date_of_birth": "", "date_of_death": "", "genders": [], "languages": [], "places_of_operation": [], "biography": "", "biography_author": null, "date_of_biography": "2023-08-17T15:03:27.761576+10:00", "external_links": [], "uuid": "f4629eb9-8fad-45a9-9f59-49057904408d", "source": {"name": "Vernon", "slug": "vernon"}, "source_identifier": "9989", "external_references": [], "date_modified": "2023-08-17T15:03:27.761860+10:00"}, {"id": 36519, "name": "Cassandra Tytler", "roles_in_work": [{"id": 915918, "title": "I never loved you", "work_id": 94503, "role": "director", "role_id": 938, "is_primary": true}, {"id": 2096329, "title": "And I cried", "work_id": 94504, "role": "producer/director", "role_id": 31, "is_primary": true}, {"id": 915914, "title": "I never loved you", "work_id": 94503, "role": "production company", "role_id": 941, "is_primary": true}, {"id": 2096327, "title": "And I cried", "work_id": 94504, "role": "production company", "role_id": 941, "is_primary": true}], "also_known_as": "", "date_of_birth": "", "date_of_death": "", "genders": [], "languages": [], "places_of_operation": [], "biography": "", "biography_author": null, "date_of_biography": "2023-05-09T12:24:30.656387+10:00", "external_links": [], "uuid": "0bc33351-f150-4b41-991a-c09be4ff1628", "source": {"name": "Vernon", "slug": "vernon"}, "source_identifier": "3036", "external_references": [{"id": 37569, "source": {"name": "Wikidata", "slug": "wikidata"}, "source_identifier": "Q121034273"}], "date_modified": "2023-09-05T18:21:52.226403+10:00"}, {"id": 36516, "name": "Saul Metzstein", "roles_in_work": [{"id": 1999497, "title": "Late night shopping", "work_id": 94497, "role": "director", "role_id": 938, "is_primary": true}], "also_known_as": "", "date_of_birth": "1970-12-30", "date_of_death": null, "genders": [{"id": 9, "name": "Male", "slug": "male"}], "languages": [{"id": 1, "name": "English", "slug": "english"}], "places_of_operation": [{"id": 10, "name": "United Kingdom", "slug": "united-kingdom"}], "biography": "Saul Metzstein (born 30 December 1970) is a Scottish film director. He won the British Academy Scotland New Talent Award for best director in 2002 for Late Night Shopping.Metzstein is the son of Isi Metzstein, the renowned modernist architect, and Danielle Kahn. He was raised in Glasgow and studied architecture at Robinson College, Cambridge before taking minor production roles on Danny Boyle's Shallow Grave and Trainspotting and Gillies MacKinnon's Small Faces. He came to prominence with the 2001 feature Late Night Shopping. He subsequently directed documentaries on James Stewart and Gillespie, Kidd & Coia and an episode of Upstairs Downstairs, as well as five episodes of the seventh series of Doctor Who.", "biography_author": "Wikidata", "date_of_biography": "2022-05-19T13:02:34.673597+10:00", "external_links": [{"id": 3074, "uri": "https://en.wikipedia.org/wiki/Saul_Metzstein"}], "uuid": "203354e1-4c1e-4ee6-839b-3d32b860c76f", "source": {"name": "Vernon", "slug": "vernon"}, "source_identifier": "28613", "external_references": [{"id": 13044, "source": {"name": "Wikidata", "slug": "wikidata"}, "source_identifier": "Q7427324"}, {"id": 13045, "source": {"name": "VIAF", "slug": "viaf"}, "source_identifier": "226475895"}, {"id": 13046, "source": {"name": "LOC Auth", "slug": "loc-auth"}, "source_identifier": "no2011083791"}, {"id": 13047, "source": {"name": "WorldCat", "slug": "worldcat"}, "source_identifier": "lccn-no2011083791"}], "date_modified": "2023-09-13T12:32:39.369503+10:00"}, {"id": 36506, "name": "Ib Tardini", "roles_in_work": [{"id": 1999475, "title": "Italian for beginners = Italiensk for begyndere", "work_id": 94493, "role": "producer", "role_id": 1089, "is_primary": true}], "also_known_as": "", "date_of_birth": "1948-09-07", "date_of_death": null, "genders": [{"id": 9, "name": "Male", "slug": "male"}], "languages": [], "places_of_operation": [{"id": 34, "name": "Denmark", "slug": "denmark"}], "biography": "", "biography_author": null, "date_of_biography": null, "external_links": [], "uuid": "4c93af3e-bd22-4523-8ca4-c45323b01994", "source": {"name": "Vernon", "slug": "vernon"}, "source_identifier": "20806", "external_references": [{"id": 9686, "source": {"name": "Wikidata", "slug": "wikidata"}, "source_identifier": "Q12318024"}, {"id": 9687, "source": {"name": "VIAF", "slug": "viaf"}, "source_identifier": "272799002"}, {"id": 9688, "source": {"name": "LOC Auth", "slug": "loc-auth"}, "source_identifier": "no2003070137"}, {"id": 9689, "source": {"name": "WorldCat", "slug": "worldcat"}, "source_identifier": "lccn-no2003070137"}], "date_modified": "2023-09-13T12:30:04.422197+10:00"}, {"id": 36498, "name": "Crystal", "roles_in_work": [{"id": 929040, "title": "The Origins of film: America's first women filmmakers: origins of the gangster film", "work_id": 94490, "role": "production company", "role_id": 941, "is_primary": true}, {"id": 2752134, "title": "Creating with ceramics", "work_id": 98157, "role": "production company", "role_id": 941, "is_primary": true}], "also_known_as": "", "date_of_birth": "", "date_of_death": "", "genders": [], "languages": [], "places_of_operation": [], "biography": "", "biography_author": null, "date_of_biography": "2023-05-09T13:48:16.446515+10:00", "external_links": [], "uuid": "d5116400-625d-449a-add2-0a3096ff412b", "source": {"name": "Vernon", "slug": "vernon"}, "source_identifier": "7215", "external_references": [{"id": 38433, "source": {"name": "Wikidata", "slug": "wikidata"}, "source_identifier": "Q121126458"}], "date_modified": "2025-03-13T00:57:39.331360+11:00"}, {"id": 36497, "name": "Vitagraph Co", "roles_in_work": [{"id": 2467838, "title": "The Origins of film: origins of American animation: origins of the fantasy feature", "work_id": 94489, "role": "production company", "role_id": 941, "is_primary": true}], "also_known_as": "", "date_of_birth": "", "date_of_death": "", "genders": [], "languages": [], "places_of_operation": [], "biography": "", "biography_author": null, "date_of_biography": "2023-08-14T11:28:06.822131+10:00", "external_links": [], "uuid": "953a3e0b-89fc-48bc-af1e-0eb09611d6ea", "source": {"name": "Vernon", "slug": "vernon"}, "source_identifier": "14185", "external_references": [], "date_modified": "2023-08-14T11:28:06.822350+10:00"}, {"id": 36496, "name": "Oz Film Manufacturing Co", "roles_in_work": [{"id": 2467837, "title": "The Origins of film: origins of American animation: origins of the fantasy feature", "work_id": 94489, "role": "production company", "role_id": 941, "is_primary": true}], "also_known_as": "", "date_of_birth": "", "date_of_death": "", "genders": [], "languages": [], "places_of_operation": [], "biography": "", "biography_author": null, "date_of_biography": "2023-08-14T11:28:06.169986+10:00", "external_links": [], "uuid": "836bb86b-affa-43ee-994b-df02428a483d", "source": {"name": "Vernon", "slug": "vernon"}, "source_identifier": "11217", "external_references": [], "date_modified": "2023-08-14T11:28:06.170217+10:00"}, {"id": 36494, "name": "Shed Productions (BG2)", "roles_in_work": [{"id": 3085567, "title": "Bad girls. Series two. Discs 3 & 4 [DVD]", "work_id": 94487, "role": "production company", "role_id": 941, "is_primary": true}, {"id": 3085578, "title": "Bad girls. Series two. Discs 1 & 2 [DVD]", "work_id": 94486, "role": "production company", "role_id": 941, "is_primary": true}], "also_known_as": "", "date_of_birth": "", "date_of_death": "", "genders": [], "languages": [], "places_of_operation": [], "biography": "", "biography_author": null, "date_of_biography": "2023-05-09T12:39:53.545644+10:00", "external_links": [], "uuid": "e3edb1c8-9e54-4048-b8e9-b002bc3f3a16", "source": {"name": "Vernon", "slug": "vernon"}, "source_identifier": "12515", "external_references": [{"id": 32520, "source": {"name": "Wikidata", "slug": "wikidata"}, "source_identifier": "Q121126337"}], "date_modified": "2025-03-17T10:40:38.868819+11:00"}, {"id": 36493, "name": "Lucy Walker", "roles_in_work": [{"id": 2189355, "title": "Devil's playground", "work_id": 94483, "role": "director", "role_id": 938, "is_primary": true}], "also_known_as": "", "date_of_birth": null, "date_of_death": null, "genders": [{"id": 5, "name": "Female", "slug": "female"}], "languages": [{"id": 1, "name": "English", "slug": "english"}], "places_of_operation": [{"id": 10, "name": "United Kingdom", "slug": "united-kingdom"}], "biography": "Lucy Walker is an English film director. She has directed the documentaries Devil's Playground (2002), Blindsight (2006), Waste Land (2010), Countdown to Zero (2010), and The Crash Reel (2013). She has also directed the short films The Tsunami and the Cherry Blossom (2011) and The Lion's Mouth Opens (2014).", "biography_author": "Wikidata", "date_of_biography": "2022-05-19T12:19:02.100584+10:00", "external_links": [{"id": 2606, "uri": "https://en.wikipedia.org/wiki/Lucy_Walker_(director)"}], "uuid": "08b91ca5-68be-4883-aa1d-d6ed14822de6", "source": {"name": "Vernon", "slug": "vernon"}, "source_identifier": "24088", "external_references": [{"id": 11135, "source": {"name": "Wikidata", "slug": "wikidata"}, "source_identifier": "Q453494"}, {"id": 11136, "source": {"name": "VIAF", "slug": "viaf"}, "source_identifier": "302621819"}, {"id": 11137, "source": {"name": "LOC Auth", "slug": "loc-auth"}, "source_identifier": "no2011007531"}, {"id": 11138, "source": {"name": "WorldCat", "slug": "worldcat"}, "source_identifier": "lccn-no2011007531"}], "date_modified": "2023-09-13T12:31:05.073792+10:00"}]}