{"count": 28687, "next": "https://api.acmi.net.au/creators/?page=1457", "previous": "https://api.acmi.net.au/creators/?page=1455", "results": [{"id": 35319, "name": "Mel Chionglo", "roles_in_work": [{"id": 1997906, "title": "Midnight dancers = Sibak", "work_id": 93538, "role": "director", "role_id": 938, "is_primary": true}], "also_known_as": "Carmelo Chionglo", "date_of_birth": null, "date_of_death": "2019-09-21", "genders": [{"id": 9, "name": "Male", "slug": "male"}], "languages": [], "places_of_operation": [{"id": 213, "name": "Philippines", "slug": "philippines"}], "biography": "Carmelo Chionglo  (July 16, 1946 – September 21, 2019), better known as Mel Chionglo, was a Filipino film director and production designer. He has directed more than 40 films since 1981.\nFrom 1966 to 1976, he worked and studied acting and directing at the New York Academy of Theatrical Arts. Returning to Manila, he worked as production designer. His directorial debut was Regal Films' Playgirl (1981).\nHe was one of the founding members of the Directors’ Guild of the Philippines Inc. He also served as board member on the Movie and Television Review and Classification Board.", "biography_author": "Wikidata", "date_of_biography": "2023-08-01T16:11:26.098902+10:00", "external_links": [{"id": 4669, "uri": "https://en.wikipedia.org/wiki/Mel_Chionglo"}], "uuid": "aa986474-60b6-48f3-9ec1-114038b5bacf", "source": {"name": "Vernon", "slug": "vernon"}, "source_identifier": "24910", "external_references": [{"id": 26181, "source": {"name": "Wikidata", "slug": "wikidata"}, "source_identifier": "Q68098810"}, {"id": 30260, "source": {"name": "VIAF", "slug": "viaf"}, "source_identifier": "36842066"}, {"id": 30261, "source": {"name": "WorldCat", "slug": "worldcat"}, "source_identifier": "lccn-nr2001000458"}], "date_modified": "2023-09-13T12:31:21.881111+10:00"}, {"id": 35316, "name": "Hans Scheirl", "roles_in_work": [{"id": 2405484, "title": "Dandy dust (E)", "work_id": 93536, "role": "director", "role_id": 938, "is_primary": true}], "also_known_as": "", "date_of_birth": "", "date_of_death": "", "genders": [], "languages": [], "places_of_operation": [], "biography": "", "biography_author": null, "date_of_biography": "2023-08-11T15:53:20.859080+10:00", "external_links": [], "uuid": "15681215-1f4f-4d81-90b8-b01b37f8e9f6", "source": {"name": "Vernon", "slug": "vernon"}, "source_identifier": "20224", "external_references": [], "date_modified": "2023-08-11T15:53:20.859464+10:00"}, {"id": 35314, "name": "Lee Caplin Productions", "roles_in_work": [{"id": 2095958, "title": "Andy Warhol: made in China", "work_id": 93535, "role": "production company", "role_id": 941, "is_primary": true}], "also_known_as": "", "date_of_birth": "", "date_of_death": "", "genders": [], "languages": [], "places_of_operation": [], "biography": "", "biography_author": null, "date_of_biography": "2023-05-09T12:23:50.866087+10:00", "external_links": [], "uuid": "71c969a3-3bcc-4a66-84d9-6a511de29471", "source": {"name": "Vernon", "slug": "vernon"}, "source_identifier": "9959", "external_references": [{"id": 37715, "source": {"name": "Wikidata", "slug": "wikidata"}, "source_identifier": "Q121035703"}], "date_modified": "2023-09-05T22:17:46.378384+10:00"}, {"id": 35310, "name": "Deepfocus Productions", "roles_in_work": [{"id": 2141890, "title": "Coming out under fire", "work_id": 93533, "role": "production company", "role_id": 941, "is_primary": true}], "also_known_as": "", "date_of_birth": "", "date_of_death": "", "genders": [], "languages": [], "places_of_operation": [], "biography": "", "biography_author": null, "date_of_biography": "2023-05-09T13:39:00.155471+10:00", "external_links": [], "uuid": "9dd4b79d-287e-4c90-a5f4-ce523be18301", "source": {"name": "Vernon", "slug": "vernon"}, "source_identifier": "7379", "external_references": [{"id": 34415, "source": {"name": "Wikidata", "slug": "wikidata"}, "source_identifier": "Q121126395"}], "date_modified": "2023-09-05T19:06:41.330088+10:00"}, {"id": 35306, "name": "Rachel Reichman", "roles_in_work": [{"id": 913821, "title": "Work", "work_id": 93531, "role": "director", "role_id": 938, "is_primary": true}, {"id": 913818, "title": "Work", "work_id": 93531, "role": "co-producer", "role_id": 915, "is_primary": true}], "also_known_as": "", "date_of_birth": "1958-01-01", "date_of_death": null, "genders": [{"id": 5, "name": "Female", "slug": "female"}], "languages": [], "places_of_operation": [{"id": 1, "name": "United States of America", "slug": "united-states-of-america"}], "biography": "", "biography_author": null, "date_of_biography": null, "external_links": [], "uuid": "d94e11ab-606a-4170-8db1-dee4ffdf42e3", "source": {"name": "Vernon", "slug": "vernon"}, "source_identifier": "27053", "external_references": [{"id": 37592, "source": {"name": "Wikidata", "slug": "wikidata"}, "source_identifier": "Q77350015"}], "date_modified": "2023-09-13T12:32:05.356322+10:00"}, {"id": 35305, "name": "Oki Hiroyuki", "roles_in_work": [{"id": 1997897, "title": "I like you: I like you very much", "work_id": 93530, "role": "director", "role_id": 938, "is_primary": true}], "also_known_as": "", "date_of_birth": "1964-03-23", "date_of_death": null, "genders": [{"id": 9, "name": "Male", "slug": "male"}], "languages": [], "places_of_operation": [{"id": 8, "name": "Japan", "slug": "japan"}], "biography": "", "biography_author": null, "date_of_biography": null, "external_links": [], "uuid": "b6fedc9b-3b8f-4c9b-84d0-64a0146f05a6", "source": {"name": "Vernon", "slug": "vernon"}, "source_identifier": "11110", "external_references": [{"id": 11926, "source": {"name": "Wikidata", "slug": "wikidata"}, "source_identifier": "Q11435918"}, {"id": 11927, "source": {"name": "VIAF", "slug": "viaf"}, "source_identifier": "48764663"}, {"id": 11928, "source": {"name": "WorldCat", "slug": "worldcat"}, "source_identifier": "lccn-no00007299"}], "date_modified": "2023-09-13T12:31:40.484777+10:00"}, {"id": 35303, "name": "Paris Poirer", "roles_in_work": [{"id": 2414539, "title": "Last call at Maud's", "work_id": 93529, "role": "director", "role_id": 938, "is_primary": true}], "also_known_as": "", "date_of_birth": "", "date_of_death": "", "genders": [], "languages": [], "places_of_operation": [], "biography": "", "biography_author": null, "date_of_biography": "2023-08-11T19:18:26.921441+10:00", "external_links": [], "uuid": "dca8eff6-f2fc-4c97-88fe-765b422164f8", "source": {"name": "Vernon", "slug": "vernon"}, "source_identifier": "26057", "external_references": [], "date_modified": "2023-08-11T19:18:26.921826+10:00"}, {"id": 35302, "name": "Karen Kiss", "roles_in_work": [{"id": 2414538, "title": "Last call at Maud's", "work_id": 93529, "role": "producer", "role_id": 1089, "is_primary": true}], "also_known_as": "", "date_of_birth": "", "date_of_death": "", "genders": [], "languages": [], "places_of_operation": [], "biography": "", "biography_author": null, "date_of_biography": "2023-08-11T19:18:26.301138+10:00", "external_links": [], "uuid": "f694a3d5-200c-48db-bbb7-3e87246cd5d5", "source": {"name": "Vernon", "slug": "vernon"}, "source_identifier": "22998", "external_references": [], "date_modified": "2023-08-11T19:18:26.301400+10:00"}, {"id": 35301, "name": "Waterbearer Films", "roles_in_work": [{"id": 2414537, "title": "Last call at Maud's", "work_id": 93529, "role": "production company", "role_id": 941, "is_primary": true}], "also_known_as": "", "date_of_birth": "", "date_of_death": "", "genders": [], "languages": [], "places_of_operation": [], "biography": "", "biography_author": null, "date_of_biography": "2023-08-11T19:18:25.668220+10:00", "external_links": [], "uuid": "96f347d1-206f-4783-8c5c-bc65d1400fe7", "source": {"name": "Vernon", "slug": "vernon"}, "source_identifier": "14256", "external_references": [], "date_modified": "2023-08-11T19:18:25.668491+10:00"}, {"id": 35297, "name": "Saunders and French", "roles_in_work": [{"id": 2792749, "title": "Absolutely fabulous: the last shout. Parts 1 & 2", "work_id": 93526, "role": "production company", "role_id": 941, "is_primary": true}, {"id": 2792755, "title": "Absolutely fabulous. Series 3", "work_id": 93527, "role": "production company", "role_id": 941, "is_primary": true}], "also_known_as": "", "date_of_birth": "", "date_of_death": "", "genders": [], "languages": [], "places_of_operation": [], "biography": "", "biography_author": null, "date_of_biography": "2023-05-09T16:29:40.996982+10:00", "external_links": [], "uuid": "cbe4818f-4727-4ed8-9107-037e04226c7c", "source": {"name": "Vernon", "slug": "vernon"}, "source_identifier": "12306", "external_references": [{"id": 41283, "source": {"name": "Wikidata", "slug": "wikidata"}, "source_identifier": "Q121086189"}], "date_modified": "2025-03-14T20:12:15.962389+11:00"}]}