{"count": 28687, "next": "https://api.acmi.net.au/creators/?page=2682", "previous": "https://api.acmi.net.au/creators/?page=2680", "results": [{"id": 11661, "name": "Art Gallery of New South Wales", "roles_in_work": [{"id": 2767481, "title": "Portrait of Dame Mary Gilmore", "work_id": 71717, "role": "production company", "role_id": 941, "is_primary": true}, {"id": 2767491, "title": "Fire's on - Lapstone tunnel by Arthur Streeton, 1891", "work_id": 75671, "role": "production company", "role_id": 941, "is_primary": true}, {"id": 2767494, "title": "'On the wallaby track' by Frederick McCubbin, 1896", "work_id": 71109, "role": "production company", "role_id": 941, "is_primary": true}, {"id": 2767499, "title": "The Ferry by E. Phillips Fox", "work_id": 67443, "role": "production company", "role_id": 941, "is_primary": true}, {"id": 1427037, "title": "Donald Friend - artist, author, wit, 1915-1989: the prodigal Australian", "work_id": 82332, "role": "production company", "role_id": 941, "is_primary": true}, {"id": 2210703, "title": "Portrait of a gallery", "work_id": 71711, "role": "production company", "role_id": 941, "is_primary": true}], "also_known_as": "", "date_of_birth": "", "date_of_death": "", "genders": [], "languages": [], "places_of_operation": [], "biography": "The Art Gallery of New South Wales (AGNSW), founded as the New South Wales Academy of Art in 1872 and known as the National Art Gallery of New South Wales between 1883 and 1958, is located in The Domain, Sydney, Australia. It is the most important public gallery in Sydney and one of the largest in Australia.\nThe gallery's first public exhibition opened in 1874. Admission is free to the general exhibition space, which displays Australian art (including Indigenous Australian art), European and Asian art. A dedicated Asian Gallery was opened in 2003.", "biography_author": "Wikidata", "date_of_biography": "2023-09-05T17:45:56.495152+10:00", "external_links": [{"id": 5688, "uri": "https://en.wikipedia.org/wiki/Art_Gallery_of_New_South_Wales"}], "uuid": "510c3e6f-e930-4a11-bfc6-17c323eff269", "source": {"name": "Vernon", "slug": "vernon"}, "source_identifier": "3436", "external_references": [{"id": 32372, "source": {"name": "Wikidata", "slug": "wikidata"}, "source_identifier": "Q705551"}, {"id": 54002, "source": {"name": "VIAF", "slug": "viaf"}, "source_identifier": "127414571"}, {"id": 54003, "source": {"name": "LOC Auth", "slug": "loc-auth"}, "source_identifier": "n50061030"}, {"id": 54004, "source": {"name": "WorldCat", "slug": "worldcat"}, "source_identifier": "lccn-n50061030"}], "date_modified": "2025-03-14T18:04:33.110650+11:00"}, {"id": 11657, "name": "Thomas Messer", "roles_in_work": [{"id": 2642534, "title": "Radio romance", "work_id": 114305, "role": "creator", "role_id": 968, "is_primary": true}], "also_known_as": "", "date_of_birth": "", "date_of_death": "", "genders": [], "languages": [], "places_of_operation": [], "biography": "", "biography_author": null, "date_of_biography": "2023-05-09T18:32:25.410319+10:00", "external_links": [], "uuid": "7ee6c2ae-2c30-4d8a-81ce-b409faf533ca", "source": {"name": "Vernon", "slug": "vernon"}, "source_identifier": "3469", "external_references": [], "date_modified": "2025-03-05T11:47:37.988146+11:00"}, {"id": 11656, "name": "Djovan Caro", "roles_in_work": [{"id": 2642532, "title": "Derick and Jonathan", "work_id": 114297, "role": "creator", "role_id": 968, "is_primary": true}], "also_known_as": "", "date_of_birth": "", "date_of_death": "", "genders": [], "languages": [], "places_of_operation": [], "biography": "", "biography_author": null, "date_of_biography": "2023-05-09T18:32:22.913360+10:00", "external_links": [], "uuid": "02eed5de-82b0-45ec-a5f6-5b6899fa6ec7", "source": {"name": "Vernon", "slug": "vernon"}, "source_identifier": "3457", "external_references": [], "date_modified": "2025-03-05T11:47:36.582364+11:00"}, {"id": 11654, "name": "Dylan Delaney Ellis", "roles_in_work": [{"id": 2642530, "title": "Just business", "work_id": 114301, "role": "creator", "role_id": 968, "is_primary": true}], "also_known_as": "", "date_of_birth": "", "date_of_death": "", "genders": [], "languages": [], "places_of_operation": [], "biography": "", "biography_author": null, "date_of_biography": "2023-05-09T18:32:24.603599+10:00", "external_links": [], "uuid": "89b5248b-8995-41f7-991e-99f951f1f6dc", "source": {"name": "Vernon", "slug": "vernon"}, "source_identifier": "3463", "external_references": [], "date_modified": "2025-03-05T11:47:35.189910+11:00"}, {"id": 11652, "name": "Mitch McTaggart", "roles_in_work": [{"id": 2642528, "title": "Short black", "work_id": 114306, "role": "creator", "role_id": 968, "is_primary": true}], "also_known_as": "", "date_of_birth": "", "date_of_death": "", "genders": [], "languages": [], "places_of_operation": [], "biography": "", "biography_author": null, "date_of_biography": "2023-05-09T18:32:18.257335+10:00", "external_links": [], "uuid": "8fda6e40-a3b1-41c6-8f18-c795c1e883e3", "source": {"name": "Vernon", "slug": "vernon"}, "source_identifier": "3470", "external_references": [], "date_modified": "2025-03-05T11:47:33.788721+11:00"}, {"id": 11650, "name": "Jon Swanson", "roles_in_work": [{"id": 2642526, "title": "Hunger nation", "work_id": 114299, "role": "creator", "role_id": 968, "is_primary": true}], "also_known_as": "", "date_of_birth": "", "date_of_death": "", "genders": [], "languages": [], "places_of_operation": [], "biography": "", "biography_author": null, "date_of_biography": "2023-05-09T18:32:27.834386+10:00", "external_links": [], "uuid": "6cdf3921-0a6e-4348-875b-7d744a62ee56", "source": {"name": "Vernon", "slug": "vernon"}, "source_identifier": "3460", "external_references": [], "date_modified": "2025-03-05T11:47:32.373489+11:00"}, {"id": 11648, "name": "Henry Swadesir", "roles_in_work": [{"id": 2642524, "title": "Urban scrawl", "work_id": 114308, "role": "creator", "role_id": 968, "is_primary": true}], "also_known_as": "", "date_of_birth": "", "date_of_death": "", "genders": [], "languages": [], "places_of_operation": [], "biography": "", "biography_author": null, "date_of_biography": "2023-05-09T18:32:21.127798+10:00", "external_links": [], "uuid": "88d05104-c9cd-4d83-993a-00ce83fd45c8", "source": {"name": "Vernon", "slug": "vernon"}, "source_identifier": "3473", "external_references": [], "date_modified": "2025-03-05T11:47:30.977337+11:00"}, {"id": 11647, "name": "Pamela Matthews", "roles_in_work": [{"id": 2642522, "title": "A Fist full of trolleys", "work_id": 114298, "role": "creator", "role_id": 968, "is_primary": true}], "also_known_as": "", "date_of_birth": "", "date_of_death": "", "genders": [], "languages": [], "places_of_operation": [], "biography": "", "biography_author": null, "date_of_biography": "2023-05-09T18:32:11.426844+10:00", "external_links": [], "uuid": "f4143d7a-265e-4b81-8a89-efebe7d87479", "source": {"name": "Vernon", "slug": "vernon"}, "source_identifier": "34804", "external_references": [], "date_modified": "2025-03-05T11:47:29.562817+11:00"}, {"id": 11646, "name": "Rhys Ballard", "roles_in_work": [{"id": 2642521, "title": "A Fist full of trolleys", "work_id": 114298, "role": "creator", "role_id": 968, "is_primary": true}], "also_known_as": "", "date_of_birth": "", "date_of_death": "", "genders": [], "languages": [], "places_of_operation": [], "biography": "", "biography_author": null, "date_of_biography": "2023-05-09T18:32:11.203773+10:00", "external_links": [], "uuid": "24e5b92b-fdc8-4500-8e6c-efe92944a9e4", "source": {"name": "Vernon", "slug": "vernon"}, "source_identifier": "3458", "external_references": [], "date_modified": "2025-03-05T11:47:28.977035+11:00"}, {"id": 11644, "name": "David Edney", "roles_in_work": [{"id": 2642519, "title": "Night light", "work_id": 114303, "role": "creator", "role_id": 968, "is_primary": true}], "also_known_as": "", "date_of_birth": "", "date_of_death": "", "genders": [], "languages": [], "places_of_operation": [], "biography": "", "biography_author": null, "date_of_biography": "2023-05-09T18:32:15.934575+10:00", "external_links": [], "uuid": "8fa8f1e7-d43f-4791-936f-0ca89144852e", "source": {"name": "Vernon", "slug": "vernon"}, "source_identifier": "3466", "external_references": [], "date_modified": "2025-03-05T11:47:27.579484+11:00"}]}