{"count": 28684, "next": "https://api.acmi.net.au/creators/?page=556", "previous": "https://api.acmi.net.au/creators/?page=554", "results": [{"id": 80030, "name": "Brian Dooley", "roles_in_work": [{"id": 3082783, "title": "Alex", "work_id": 92872, "role": "director", "role_id": 938, "is_primary": true}], "also_known_as": "", "date_of_birth": "", "date_of_death": "", "genders": [], "languages": [], "places_of_operation": [], "biography": "", "biography_author": null, "date_of_biography": "2023-05-09T17:44:41.426108+10:00", "external_links": [], "uuid": "f4ae16d6-2471-4ce4-aced-4d5bd99c6945", "source": {"name": "Vernon", "slug": "vernon"}, "source_identifier": "16210", "external_references": [], "date_modified": "2025-03-17T10:30:40.892466+11:00"}, {"id": 80029, "name": "Erna Buffie", "roles_in_work": [{"id": 3082779, "title": "Alex", "work_id": 92872, "role": "co-producer", "role_id": 915, "is_primary": true}], "also_known_as": "", "date_of_birth": "", "date_of_death": "", "genders": [], "languages": [], "places_of_operation": [], "biography": "", "biography_author": null, "date_of_biography": "2023-05-09T17:44:40.703673+10:00", "external_links": [], "uuid": "d8315cea-b5b0-4a32-983c-da5340e52df2", "source": {"name": "Vernon", "slug": "vernon"}, "source_identifier": "18861", "external_references": [{"id": 35030, "source": {"name": "Wikidata", "slug": "wikidata"}, "source_identifier": "Q121222674"}], "date_modified": "2025-03-17T10:30:39.689249+11:00"}, {"id": 80028, "name": "Gianni Hecht Lucari", "roles_in_work": [{"id": 2349888, "title": "The Garden of the Finzi-Continis = Il Giardino dei Finzi-Contini", "work_id": 92869, "role": "co-producer", "role_id": 915, "is_primary": true}], "also_known_as": "", "date_of_birth": "1922-01-01", "date_of_death": "1998-08-27", "genders": [{"id": 9, "name": "Male", "slug": "male"}], "languages": [], "places_of_operation": [{"id": 39, "name": "Austria", "slug": "austria"}], "biography": "Gianni Hecht Lucari (5 September 1922, in Wien – 27 August 1998, in Roma) was an Italian film producer, and production manager. Lucari was born in Vienna, Austria of Austrian, Jewish, and French ancestry. He died in Rome, Italy at the age of 76. Lucari produced many films from 1954 to 1980.\nDuring World War II he served with the British Army as an Italian Intelligence liaison officer. After the war, in 1950, he started a film studio, Documento Films, which produced featurettes, documentaries and television programs. In 1953 he produced his first feature film Un giorno in pretura a four case courtroom drama and starring Sophia Loren in one of them.", "biography_author": "Wikidata", "date_of_biography": "2023-08-01T15:00:49.086589+10:00", "external_links": [{"id": 2144, "uri": "https://en.wikipedia.org/wiki/Gianni_Hecht_Lucari"}], "uuid": "cf06124a-9298-4e26-9d95-9e73237cac4c", "source": {"name": "Vernon", "slug": "vernon"}, "source_identifier": "19794", "external_references": [{"id": 9234, "source": {"name": "Wikidata", "slug": "wikidata"}, "source_identifier": "Q5558194"}, {"id": 9235, "source": {"name": "VIAF", "slug": "viaf"}, "source_identifier": "87245053"}, {"id": 9236, "source": {"name": "WorldCat", "slug": "worldcat"}, "source_identifier": "viaf-87245053"}], "date_modified": "2023-09-05T20:11:19.766832+10:00"}, {"id": 80027, "name": "Gore Verbinski", "roles_in_work": [{"id": 2475875, "title": "Mousehunt", "work_id": 93848, "role": "director", "role_id": 938, "is_primary": true}, {"id": 1996798, "title": "The Mexican [DVD]", "work_id": 92867, "role": "director", "role_id": 938, "is_primary": true}], "also_known_as": "Gregor Verbinski", "date_of_birth": "1964-03-16", "date_of_death": "", "genders": [{"id": 9, "name": "Male", "slug": "male"}], "languages": [{"id": 1, "name": "English", "slug": "english"}], "places_of_operation": [{"id": 1, "name": "United States of America", "slug": "united-states-of-america"}], "biography": "Gregor Justin \"Gore\" Verbinski (born March 16, 1964) is an American film director, screenwriter, producer, and musician. He is best known for directing The Ring, the first three Pirates of the Caribbean films, and Rango. He won the Academy Award, the BAFTA, and was nominated for the Golden Globe Award for Best Animated Feature Film for his work on Rango.", "biography_author": "Wikidata", "date_of_biography": "2023-09-05T20:17:45.576267+10:00", "external_links": [{"id": 4086, "uri": "https://en.wikipedia.org/wiki/Gore_Verbinski"}], "uuid": "712bcbda-29d2-4392-a995-9bde79b10b52", "source": {"name": "Vernon", "slug": "vernon"}, "source_identifier": "3910", "external_references": [{"id": 25273, "source": {"name": "Wikidata", "slug": "wikidata"}, "source_identifier": "Q295463"}, {"id": 28718, "source": {"name": "VIAF", "slug": "viaf"}, "source_identifier": "84252751"}, {"id": 28719, "source": {"name": "LOC Auth", "slug": "loc-auth"}, "source_identifier": "no00002308"}, {"id": 28720, "source": {"name": "WorldCat", "slug": "worldcat"}, "source_identifier": "lccn-no00002308"}], "date_modified": "2023-09-05T20:17:47.685507+10:00"}, {"id": 80026, "name": "John Baldecchi", "roles_in_work": [{"id": 1996797, "title": "The Mexican [DVD]", "work_id": 92867, "role": "co-producer", "role_id": 915, "is_primary": true}], "also_known_as": "", "date_of_birth": null, "date_of_death": null, "genders": [], "languages": [], "places_of_operation": [], "biography": "", "biography_author": null, "date_of_biography": null, "external_links": [], "uuid": "8566806d-e204-4fe2-961e-30ce171ff86f", "source": {"name": "Vernon", "slug": "vernon"}, "source_identifier": null, "external_references": [], "date_modified": "2023-06-14T16:33:30.576250+10:00"}, {"id": 80025, "name": "Jean Flynn", "roles_in_work": [{"id": 2326942, "title": "The Adventures of the wishing chair", "work_id": 92866, "role": "producer/director", "role_id": 31, "is_primary": true}], "also_known_as": "", "date_of_birth": "", "date_of_death": "", "genders": [], "languages": [], "places_of_operation": [], "biography": "", "biography_author": null, "date_of_biography": "2023-05-09T19:20:29.692065+10:00", "external_links": [], "uuid": "2a01edc6-c24f-4486-bc59-db25c6e49956", "source": {"name": "Vernon", "slug": "vernon"}, "source_identifier": "21531", "external_references": [{"id": 51864, "source": {"name": "Wikidata", "slug": "wikidata"}, "source_identifier": "Q121361175"}], "date_modified": "2023-09-05T21:14:54.506688+10:00"}, {"id": 80024, "name": "Helmut Bakaitis", "roles_in_work": [{"id": 2314050, "title": "Stork", "work_id": 92860, "role": "cast", "role_id": 33, "is_primary": false}], "also_known_as": "", "date_of_birth": "1944-09-26", "date_of_death": "", "genders": [{"id": 9, "name": "Male", "slug": "male"}], "languages": [{"id": 1, "name": "English", "slug": "english"}], "places_of_operation": [{"id": 3, "name": "Australia", "slug": "australia"}], "biography": "Helmut Bakaitis (born 26 September 1944) is a German-born Australian director, actor and screenwriter and playwright.\nHe is best known for his role in The Matrix Reloaded and The Matrix Revolutions as the character the Architect.", "biography_author": "Wikidata", "date_of_biography": "2023-09-05T20:34:54.007620+10:00", "external_links": [{"id": 5865, "uri": "https://en.wikipedia.org/wiki/Helmut_Bakaitis"}], "uuid": "2a476979-172f-4ba2-9c0e-7cb6491e44f5", "source": {"name": "Vernon", "slug": "vernon"}, "source_identifier": "34791", "external_references": [{"id": 50874, "source": {"name": "Wikidata", "slug": "wikidata"}, "source_identifier": "Q972044"}, {"id": 54646, "source": {"name": "VIAF", "slug": "viaf"}, "source_identifier": "91242173"}, {"id": 54647, "source": {"name": "LOC Auth", "slug": "loc-auth"}, "source_identifier": "no2016169638"}, {"id": 54648, "source": {"name": "WorldCat", "slug": "worldcat"}, "source_identifier": "lccn-no2016169638"}], "date_modified": "2023-09-05T20:34:54.026173+10:00"}, {"id": 80023, "name": "Sean McEuan", "roles_in_work": [{"id": 2314046, "title": "Stork", "work_id": 92860, "role": "cast", "role_id": 33, "is_primary": false}], "also_known_as": "", "date_of_birth": "", "date_of_death": "", "genders": [], "languages": [], "places_of_operation": [], "biography": "", "biography_author": null, "date_of_biography": "2023-05-09T19:01:42.779874+10:00", "external_links": [], "uuid": "8a8420ef-d87b-46af-811d-b2d54a9e1aff", "source": {"name": "Vernon", "slug": "vernon"}, "source_identifier": "34790", "external_references": [{"id": 36384, "source": {"name": "Wikidata", "slug": "wikidata"}, "source_identifier": "Q121315614"}], "date_modified": "2023-09-06T01:09:33.959513+10:00"}, {"id": 80022, "name": "Joel Soisson", "roles_in_work": [{"id": 2115067, "title": "Bill and Ted's excellent adventure", "work_id": 92859, "role": "co-producer", "role_id": 915, "is_primary": true}], "also_known_as": "", "date_of_birth": "1956-08-10", "date_of_death": "", "genders": [{"id": 9, "name": "Male", "slug": "male"}], "languages": [{"id": 1, "name": "English", "slug": "english"}], "places_of_operation": [{"id": 1, "name": "United States of America", "slug": "united-states-of-america"}], "biography": "Joel Soisson is an American filmmaker. He works primarily in the field of independent film. His numerous credits include Dracula 2000, A Nightmare on Elm Street 2: Freddy's Revenge, Bill & Ted's Excellent Adventure, The Prophecy, Little Pink House and Buffalo Rider.", "biography_author": "Wikidata", "date_of_biography": "2023-08-01T15:34:03.504894+10:00", "external_links": [{"id": 4355, "uri": "https://en.wikipedia.org/wiki/Joel_Soisson"}], "uuid": "934c872b-f925-4035-b658-9907c7212518", "source": {"name": "Vernon", "slug": "vernon"}, "source_identifier": "22073", "external_references": [{"id": 25666, "source": {"name": "Wikidata", "slug": "wikidata"}, "source_identifier": "Q1664532"}, {"id": 29445, "source": {"name": "VIAF", "slug": "viaf"}, "source_identifier": "219121"}, {"id": 29446, "source": {"name": "LOC Auth", "slug": "loc-auth"}, "source_identifier": "no2002011513"}, {"id": 29447, "source": {"name": "WorldCat", "slug": "worldcat"}, "source_identifier": "lccn-no2002011513"}], "date_modified": "2023-09-05T21:31:12.844887+10:00"}, {"id": 80021, "name": "Michael S Murphey", "roles_in_work": [{"id": 2115066, "title": "Bill and Ted's excellent adventure", "work_id": 92859, "role": "co-producer", "role_id": 915, "is_primary": true}], "also_known_as": "", "date_of_birth": "", "date_of_death": "", "genders": [], "languages": [], "places_of_operation": [], "biography": "", "biography_author": null, "date_of_biography": "2023-05-09T12:53:02.456556+10:00", "external_links": [], "uuid": "3900c59e-620c-4718-9aee-7a7f1c8973c6", "source": {"name": "Vernon", "slug": "vernon"}, "source_identifier": "25217", "external_references": [{"id": 35529, "source": {"name": "Wikidata", "slug": "wikidata"}, "source_identifier": "Q121315131"}], "date_modified": "2023-09-05T23:08:57.331664+10:00"}]}