{"count": 28684, "next": "https://api.acmi.net.au/creators/?page=2390", "previous": "https://api.acmi.net.au/creators/?page=2388", "results": [{"id": 15306, "name": "James Hill", "roles_in_work": [{"id": 2122424, "title": "Born Free", "work_id": 79679, "role": "director", "role_id": 938, "is_primary": true}, {"id": 2645783, "title": "New explorers", "work_id": 70838, "role": "director", "role_id": 938, "is_primary": true}, {"id": 1983971, "title": "Black Beauty", "work_id": 79210, "role": "director", "role_id": 938, "is_primary": true}, {"id": 873585, "title": "Dial double one", "work_id": 88299, "role": "director", "role_id": 938, "is_primary": true}, {"id": 2330194, "title": "The Belstone Fox", "work_id": 81649, "role": "director", "role_id": 938, "is_primary": true}, {"id": 856635, "title": "Paper chain", "work_id": 71344, "role": "director", "role_id": 938, "is_primary": true}, {"id": 2320613, "title": "Sweet smell of success [DVD]", "work_id": 93205, "role": "producer", "role_id": 1089, "is_primary": true}, {"id": 801905, "title": "Skyhook", "work_id": 89168, "role": "producer/director", "role_id": 31, "is_primary": true}, {"id": 876775, "title": "A Walk in the forest", "work_id": 90254, "role": "producer/director", "role_id": 31, "is_primary": true}, {"id": 2715618, "title": "The Home made car", "work_id": 68527, "role": "producer/director", "role_id": 31, "is_primary": true}, {"id": 2714684, "title": "Giuseppina", "work_id": 68063, "role": "producer/director", "role_id": 31, "is_primary": true}, {"id": 2715616, "title": "The Home made car", "work_id": 68527, "role": "production company", "role_id": 941, "is_primary": true}], "also_known_as": "", "date_of_birth": "01 AUG 1919", "date_of_death": "07 OCT 1994", "genders": [{"id": 9, "name": "Male", "slug": "male"}], "languages": [{"id": 1, "name": "English", "slug": "english"}], "places_of_operation": [{"id": 10, "name": "United Kingdom", "slug": "united-kingdom"}], "biography": "James Hill  (1 August 1919 – 7 October 1994) was a British film and television director, screenwriter and producer whose career spanned 52 years between 1937 and 1989, best remembered for his documentaries and short subjects such as Giuseppina and The Home-Made Car, and as director of the internationally acclaimed Born Free.\n\nHill also directed, produced and/or wrote such diverse films as Black Beauty, A Study in Terror, Every Day's a Holiday, The Lion at World's End (a.k.a. Christian the lion), Captain Nemo and the Underwater City, The Man from O.R.G.Y., and the children's television series' Worzel Gummidge and Worzel Gummidge Down Under. Source: Wikidata; 01/08/2023", "biography_author": null, "date_of_biography": "2025-03-12T01:38:01.016990+11:00", "external_links": [{"id": 4253, "uri": "https://en.wikipedia.org/wiki/James_Hill_(British_director)"}], "uuid": "e994d176-a481-4da8-a646-1ddcacd6a2b0", "source": {"name": "Vernon", "slug": "vernon"}, "source_identifier": "21250", "external_references": [{"id": 25512, "source": {"name": "Wikidata", "slug": "wikidata"}, "source_identifier": "Q3161154"}, {"id": 29169, "source": {"name": "VIAF", "slug": "viaf"}, "source_identifier": "14958485"}, {"id": 29170, "source": {"name": "LOC Auth", "slug": "loc-auth"}, "source_identifier": "n88654853"}, {"id": 29171, "source": {"name": "WorldCat", "slug": "worldcat"}, "source_identifier": "lccn-n88654853"}], "date_modified": "2025-03-12T01:38:01.017294+11:00"}, {"id": 15305, "name": "Ellen Freyer", "roles_in_work": [{"id": 905328, "title": "The Secret garden [Animated]", "work_id": 86026, "role": "co-producer", "role_id": 915, "is_primary": true}, {"id": 2714682, "title": "Girl's sports: on the right track", "work_id": 68062, "role": "producer", "role_id": 1089, "is_primary": true}, {"id": 1990168, "title": "The Whipping boy", "work_id": 85658, "role": "producer", "role_id": 1089, "is_primary": true}], "also_known_as": "", "date_of_birth": "", "date_of_death": "", "genders": [], "languages": [], "places_of_operation": [], "biography": "", "biography_author": null, "date_of_biography": "2023-08-11T17:02:18.922813+10:00", "external_links": [], "uuid": "2b438f05-9496-48d7-a213-13c7db0e3079", "source": {"name": "Vernon", "slug": "vernon"}, "source_identifier": "18717", "external_references": [], "date_modified": "2025-03-12T01:17:08.277310+11:00"}, {"id": 15302, "name": "Antonio Moretti", "roles_in_work": [{"id": 2644958, "title": "Giotto", "work_id": 68056, "role": "director", "role_id": 938, "is_primary": true}], "also_known_as": "", "date_of_birth": "", "date_of_death": "", "genders": [], "languages": [], "places_of_operation": [], "biography": "", "biography_author": null, "date_of_biography": "2023-08-11T17:02:16.423347+10:00", "external_links": [], "uuid": "c300f93c-20be-4627-9162-322f74e87527", "source": {"name": "Vernon", "slug": "vernon"}, "source_identifier": "15429", "external_references": [], "date_modified": "2025-03-05T12:30:28.104863+11:00"}, {"id": 15301, "name": "Cinecetta", "roles_in_work": [{"id": 2644957, "title": "Giotto", "work_id": 68056, "role": "production company", "role_id": 941, "is_primary": true}], "also_known_as": "", "date_of_birth": "", "date_of_death": "", "genders": [], "languages": [], "places_of_operation": [], "biography": "", "biography_author": null, "date_of_biography": "2023-08-11T17:02:15.782786+10:00", "external_links": [], "uuid": "70cc609c-2cb9-4d87-b5ce-960a03850158", "source": {"name": "Vernon", "slug": "vernon"}, "source_identifier": "6670", "external_references": [], "date_modified": "2025-03-05T12:30:27.517662+11:00"}, {"id": 15300, "name": "Mimi Lampert", "roles_in_work": [{"id": 2644956, "title": "Gilly, the salamander", "work_id": 68055, "role": "producer", "role_id": 1089, "is_primary": true}], "also_known_as": "", "date_of_birth": null, "date_of_death": null, "genders": [], "languages": [], "places_of_operation": [], "biography": "", "biography_author": null, "date_of_biography": null, "external_links": [], "uuid": "c1a70fd2-cd46-4b9a-b623-ccb897d4eb6b", "source": {"name": "Vernon", "slug": "vernon"}, "source_identifier": "25444", "external_references": [], "date_modified": "2025-03-05T12:30:26.651415+11:00"}, {"id": 15299, "name": "Peter Plummer", "roles_in_work": [{"id": 2714661, "title": "Gift for music", "work_id": 68051, "role": "producer", "role_id": 1089, "is_primary": true}], "also_known_as": "", "date_of_birth": null, "date_of_death": null, "genders": [], "languages": [], "places_of_operation": [], "biography": "", "biography_author": null, "date_of_biography": null, "external_links": [], "uuid": "c560c284-7cea-421d-97a3-9695fd330ff2", "source": {"name": "Vernon", "slug": "vernon"}, "source_identifier": "26672", "external_references": [], "date_modified": "2025-03-12T01:16:38.432758+11:00"}, {"id": 15298, "name": "Sidney Galanty", "roles_in_work": [{"id": 2174951, "title": "Jane Fonda's Workout: Low Impact Aerobics", "work_id": 81315, "role": "director", "role_id": 938, "is_primary": true}, {"id": 2174949, "title": "Jane Fonda's Workout: Low Impact Aerobics", "work_id": 81315, "role": "co-producer", "role_id": 915, "is_primary": true}, {"id": 1845661, "title": "Jane Fonda's New Workout", "work_id": 79506, "role": "producer", "role_id": 1089, "is_primary": true}, {"id": 2714659, "title": "Gideon's trumpet", "work_id": 68050, "role": "producer/director", "role_id": 31, "is_primary": true}], "also_known_as": "", "date_of_birth": "", "date_of_death": "", "genders": [], "languages": [], "places_of_operation": [], "biography": "", "biography_author": null, "date_of_biography": "2023-05-09T14:44:20.197822+10:00", "external_links": [], "uuid": "0f1e5a46-62f8-4b6d-9355-8e4609d4a1d7", "source": {"name": "Vernon", "slug": "vernon"}, "source_identifier": "28802", "external_references": [{"id": 52211, "source": {"name": "Wikidata", "slug": "wikidata"}, "source_identifier": "Q121360732"}], "date_modified": "2025-03-12T01:16:37.009047+11:00"}, {"id": 15297, "name": "Rank Educational Films", "roles_in_work": [{"id": 2714657, "title": "Gibraltar: Gateway to the Mediterranean", "work_id": 68049, "role": "production company", "role_id": 941, "is_primary": true}], "also_known_as": "", "date_of_birth": "", "date_of_death": "", "genders": [], "languages": [], "places_of_operation": [], "biography": "", "biography_author": null, "date_of_biography": "2023-08-11T17:02:08.670174+10:00", "external_links": [], "uuid": "7f56aa51-888f-4dc6-8547-23667a367c90", "source": {"name": "Vernon", "slug": "vernon"}, "source_identifier": "11856", "external_references": [], "date_modified": "2025-03-12T01:16:35.540416+11:00"}, {"id": 15296, "name": "Zdenka Deitchova", "roles_in_work": [{"id": 899895, "title": "Burt Dow, deep-water man (K)", "work_id": 80740, "role": "co-producer", "role_id": 915, "is_primary": true}, {"id": 2648453, "title": "Moon man", "work_id": 79230, "role": "co-producer", "role_id": 915, "is_primary": true}, {"id": 898369, "title": "Burt Dow, deep-water man", "work_id": 78400, "role": "co-producer", "role_id": 915, "is_primary": true}, {"id": 897044, "title": "Moon man (K)", "work_id": 76708, "role": "co-producer", "role_id": 915, "is_primary": true}, {"id": 1809533, "title": "Goldilocks and the three bears", "work_id": 90728, "role": "producer", "role_id": 1089, "is_primary": true}, {"id": 2714655, "title": "The Giants", "work_id": 68048, "role": "producer", "role_id": 1089, "is_primary": true}, {"id": 2280102, "title": "Wings: a tale of two chickens", "work_id": 90724, "role": "producer", "role_id": 1089, "is_primary": true}, {"id": 795201, "title": "Miffy at the hospital", "work_id": 87127, "role": "production company", "role_id": 941, "is_primary": true}], "also_known_as": "", "date_of_birth": "", "date_of_death": "", "genders": [], "languages": [], "places_of_operation": [], "biography": "", "biography_author": null, "date_of_biography": "2023-05-09T17:58:58.171889+10:00", "external_links": [], "uuid": "ca97e8c5-c582-4ab1-a534-cde5d2a54caf", "source": {"name": "Vernon", "slug": "vernon"}, "source_identifier": "30670", "external_references": [{"id": 33279, "source": {"name": "Wikidata", "slug": "wikidata"}, "source_identifier": "Q121034413"}], "date_modified": "2025-03-12T01:16:34.068895+11:00"}, {"id": 15295, "name": "Sidney Samuelson", "roles_in_work": [{"id": 2714651, "title": "Giant in the sun", "work_id": 68046, "role": "director", "role_id": 938, "is_primary": true}], "also_known_as": "", "date_of_birth": null, "date_of_death": null, "genders": [], "languages": [], "places_of_operation": [], "biography": "", "biography_author": null, "date_of_biography": null, "external_links": [], "uuid": "640cbcda-35b5-460f-a01f-e80c06052965", "source": {"name": "Vernon", "slug": "vernon"}, "source_identifier": "28819", "external_references": [], "date_modified": "2025-03-12T01:16:30.917201+11:00"}]}