{"count": 28687, "next": "https://api.acmi.net.au/creators/?page=48", "previous": "https://api.acmi.net.au/creators/?page=46", "results": [{"id": 86800, "name": "Charles Siebert", "roles_in_work": [{"id": 1848187, "title": "Xena: Warrior princess. Season 1. Eps. 09-10", "work_id": 92436, "role": "co-director", "role_id": 959, "is_primary": true}, {"id": 1848182, "title": "Xena: Warrior princess. Season 1. Eps. 19-20", "work_id": 92435, "role": "co-director", "role_id": 959, "is_primary": true}], "also_known_as": "", "date_of_birth": null, "date_of_death": null, "genders": [], "languages": [], "places_of_operation": [], "biography": "", "biography_author": null, "date_of_biography": null, "external_links": [], "uuid": "21e19883-2f4c-454e-a634-04300256391f", "source": {"name": "Vernon", "slug": "vernon"}, "source_identifier": null, "external_references": [], "date_modified": "2023-06-14T16:33:30.576250+10:00"}, {"id": 86799, "name": "Michael Levine", "roles_in_work": [{"id": 1848181, "title": "Xena: Warrior princess. Season 1. Eps. 19-20", "work_id": 92435, "role": "co-director", "role_id": 959, "is_primary": true}], "also_known_as": "", "date_of_birth": null, "date_of_death": null, "genders": [], "languages": [], "places_of_operation": [], "biography": "", "biography_author": null, "date_of_biography": null, "external_links": [], "uuid": "bea5729c-f684-4d13-87e6-f0bbf98a652d", "source": {"name": "Vernon", "slug": "vernon"}, "source_identifier": null, "external_references": [], "date_modified": "2023-06-14T16:33:30.576250+10:00"}, {"id": 86798, "name": "T.J. Scott", "roles_in_work": [{"id": 1848175, "title": "Xena: Warrior princess. Season 1. Eps. 21-22", "work_id": 92434, "role": "co-director", "role_id": 959, "is_primary": true}], "also_known_as": "", "date_of_birth": null, "date_of_death": null, "genders": [], "languages": [], "places_of_operation": [], "biography": "", "biography_author": null, "date_of_biography": null, "external_links": [], "uuid": "4b762acf-3921-4a26-b92b-a912886e0c0f", "source": {"name": "Vernon", "slug": "vernon"}, "source_identifier": null, "external_references": [], "date_modified": "2023-06-14T16:33:30.576250+10:00"}, {"id": 86797, "name": "Yale Strom", "roles_in_work": [{"id": 2467305, "title": "The Last klezmer: Leopold Kozlowski, his life and music [NTSC]", "work_id": 92378, "role": "producer/director", "role_id": 31, "is_primary": true}], "also_known_as": "", "date_of_birth": "", "date_of_death": "", "genders": [], "languages": [], "places_of_operation": [], "biography": "", "biography_author": null, "date_of_biography": "2023-08-14T11:17:26.010609+10:00", "external_links": [], "uuid": "9679141e-6fc6-41fb-952f-d29e3a6fc175", "source": {"name": "Vernon", "slug": "vernon"}, "source_identifier": "30560", "external_references": [], "date_modified": "2023-08-14T11:17:26.010846+10:00"}, {"id": 86796, "name": "Martin Callahan", "roles_in_work": [{"id": 2315444, "title": "Stride to glory: a history of African Americans in the Olympic Games", "work_id": 91648, "role": "co-producer", "role_id": 915, "is_primary": true}], "also_known_as": "", "date_of_birth": "", "date_of_death": "", "genders": [], "languages": [], "places_of_operation": [], "biography": "", "biography_author": null, "date_of_biography": "2023-05-09T19:03:28.193769+10:00", "external_links": [], "uuid": "76d2fd91-163a-4b5b-be5c-331363a51f8b", "source": {"name": "Vernon", "slug": "vernon"}, "source_identifier": "24618", "external_references": [], "date_modified": "2023-06-14T16:33:30.576250+10:00"}, {"id": 86795, "name": "Bob Oliver", "roles_in_work": [{"id": 2315440, "title": "Stride to glory: a history of African Americans in the Olympic Games", "work_id": 91648, "role": "co-producer", "role_id": 915, "is_primary": true}], "also_known_as": "", "date_of_birth": "", "date_of_death": "", "genders": [], "languages": [], "places_of_operation": [], "biography": "", "biography_author": null, "date_of_biography": "2023-05-09T19:03:27.941077+10:00", "external_links": [], "uuid": "8cbf5f7e-797a-4130-b63c-7dd195cc653f", "source": {"name": "Vernon", "slug": "vernon"}, "source_identifier": "16094", "external_references": [], "date_modified": "2023-06-14T16:33:30.576250+10:00"}, {"id": 86794, "name": "Rick O'Connor", "roles_in_work": [{"id": 2315436, "title": "Stride to glory: a history of African Americans in the Olympic Games", "work_id": 91648, "role": "co-producer", "role_id": 915, "is_primary": true}], "also_known_as": "", "date_of_birth": "", "date_of_death": "", "genders": [], "languages": [], "places_of_operation": [], "biography": "", "biography_author": null, "date_of_biography": "2023-05-09T19:03:27.693491+10:00", "external_links": [], "uuid": "5a6eb5ca-1afc-4966-bacd-6976aa4eb68a", "source": {"name": "Vernon", "slug": "vernon"}, "source_identifier": "27552", "external_references": [], "date_modified": "2023-06-14T16:33:30.576250+10:00"}, {"id": 86793, "name": "Davie Breashears", "roles_in_work": [{"id": 2222866, "title": "Everest", "work_id": 91457, "role": "co-director", "role_id": 959, "is_primary": true}], "also_known_as": "", "date_of_birth": "", "date_of_death": "", "genders": [], "languages": [], "places_of_operation": [], "biography": "", "biography_author": null, "date_of_biography": "2023-05-09T16:21:37.146269+10:00", "external_links": [], "uuid": "4d9cac9b-4723-4c32-bcf9-2bfa01d503da", "source": {"name": "Vernon", "slug": "vernon"}, "source_identifier": "17515", "external_references": [], "date_modified": "2023-06-14T16:33:30.576250+10:00"}, {"id": 86792, "name": "Kate Bartlett", "roles_in_work": [{"id": 1848107, "title": "Walking with dinosaurs: The Ballad of Big Al", "work_id": 90764, "role": "producer", "role_id": 1089, "is_primary": true}], "also_known_as": "", "date_of_birth": null, "date_of_death": null, "genders": [], "languages": [], "places_of_operation": [], "biography": "", "biography_author": null, "date_of_biography": null, "external_links": [], "uuid": "73a83643-97f9-46b9-a3ea-b1e22483ff61", "source": {"name": "Vernon", "slug": "vernon"}, "source_identifier": null, "external_references": [], "date_modified": "2023-06-14T16:33:30.576250+10:00"}, {"id": 86791, "name": "BS Asahi", "roles_in_work": [{"id": 1848105, "title": "Walking with dinosaurs: The Ballad of Big Al", "work_id": 90764, "role": "production company", "role_id": 941, "is_primary": true}], "also_known_as": "", "date_of_birth": null, "date_of_death": null, "genders": [], "languages": [], "places_of_operation": [], "biography": "", "biography_author": null, "date_of_biography": null, "external_links": [], "uuid": "362a73da-2890-438f-930c-631ce4efaf49", "source": {"name": "Vernon", "slug": "vernon"}, "source_identifier": null, "external_references": [], "date_modified": "2023-06-14T16:33:30.576250+10:00"}]}