{"count": 28687, "next": "https://api.acmi.net.au/creators/?page=2779", "previous": "https://api.acmi.net.au/creators/?page=2777", "results": [{"id": 9367, "name": "I-Fan Chang", "roles_in_work": [{"id": 2711632, "title": "Hellavision", "work_id": 109362, "role": "creator", "role_id": 968, "is_primary": true}], "also_known_as": "", "date_of_birth": "", "date_of_death": "", "genders": [], "languages": [], "places_of_operation": [], "biography": "", "biography_author": null, "date_of_biography": "2023-05-09T19:12:01.300847+10:00", "external_links": [], "uuid": "fecfa716-e153-43e4-a784-5ac0f6e13b68", "source": {"name": "Vernon", "slug": "vernon"}, "source_identifier": "1765", "external_references": [], "date_modified": "2025-03-11T23:57:02.522758+11:00"}, {"id": 9366, "name": "Tom Kenneally", "roles_in_work": [{"id": 2711624, "title": "Beta homes & gardens", "work_id": 109361, "role": "creator", "role_id": 968, "is_primary": true}], "also_known_as": "", "date_of_birth": "", "date_of_death": "", "genders": [], "languages": [], "places_of_operation": [], "biography": "", "biography_author": null, "date_of_biography": "2023-05-09T19:12:03.962490+10:00", "external_links": [], "uuid": "55ccc849-7908-4bfa-989a-dd27bbf24519", "source": {"name": "Vernon", "slug": "vernon"}, "source_identifier": "1505", "external_references": [], "date_modified": "2025-03-11T23:56:57.089864+11:00"}, {"id": 9365, "name": "Prakash Verapen", "roles_in_work": [{"id": 2711628, "title": "Feel-O-Mercials", "work_id": 109360, "role": "creator", "role_id": 968, "is_primary": true}], "also_known_as": "", "date_of_birth": "", "date_of_death": "", "genders": [], "languages": [], "places_of_operation": [], "biography": "", "biography_author": null, "date_of_biography": "2023-05-09T19:12:06.716779+10:00", "external_links": [], "uuid": "542d0259-b2fc-4b89-8319-d6c357681e6e", "source": {"name": "Vernon", "slug": "vernon"}, "source_identifier": "1885", "external_references": [], "date_modified": "2025-03-11T23:56:59.816523+11:00"}, {"id": 9364, "name": "Kate Deveson", "roles_in_work": [{"id": 2711643, "title": "Nexus", "work_id": 109359, "role": "creator", "role_id": 968, "is_primary": true}], "also_known_as": "", "date_of_birth": "", "date_of_death": "", "genders": [], "languages": [], "places_of_operation": [], "biography": "", "biography_author": null, "date_of_biography": "2023-05-09T19:12:06.032664+10:00", "external_links": [], "uuid": "2822cf28-60be-4264-924a-62edabd4615f", "source": {"name": "Vernon", "slug": "vernon"}, "source_identifier": "1154", "external_references": [], "date_modified": "2025-03-11T23:57:10.219131+11:00"}, {"id": 9363, "name": "Damien Raggat", "roles_in_work": [{"id": 2711630, "title": "FSBS Zenith review", "work_id": 109358, "role": "creator", "role_id": 968, "is_primary": true}], "also_known_as": "", "date_of_birth": "", "date_of_death": "", "genders": [], "languages": [], "places_of_operation": [], "biography": "", "biography_author": null, "date_of_biography": "2023-05-09T19:12:02.275110+10:00", "external_links": [], "uuid": "c7fc307f-01d0-4572-9ea3-0fe680bd2996", "source": {"name": "Vernon", "slug": "vernon"}, "source_identifier": "1887", "external_references": [], "date_modified": "2025-03-11T23:57:01.202962+11:00"}, {"id": 9362, "name": "Nicole Sargent", "roles_in_work": [{"id": 2711649, "title": "Thom's doll", "work_id": 109357, "role": "creator", "role_id": 968, "is_primary": true}], "also_known_as": "", "date_of_birth": "", "date_of_death": "", "genders": [], "languages": [], "places_of_operation": [], "biography": "", "biography_author": null, "date_of_biography": "2023-05-09T19:11:59.311967+10:00", "external_links": [], "uuid": "df1745ad-a20b-4d55-a1c1-1663268f3b78", "source": {"name": "Vernon", "slug": "vernon"}, "source_identifier": "1653", "external_references": [], "date_modified": "2025-03-11T23:57:14.329343+11:00"}, {"id": 9361, "name": "Matt Pascuzzi", "roles_in_work": [{"id": 2711651, "title": "Virtual hostility", "work_id": 109356, "role": "creator", "role_id": 968, "is_primary": true}], "also_known_as": "", "date_of_birth": "", "date_of_death": "", "genders": [], "languages": [], "places_of_operation": [], "biography": "", "biography_author": null, "date_of_biography": "2023-05-09T19:12:04.686992+10:00", "external_links": [], "uuid": "56a7a073-2913-4239-ae62-8231d3258902", "source": {"name": "Vernon", "slug": "vernon"}, "source_identifier": "1607", "external_references": [], "date_modified": "2025-03-11T23:57:15.700571+11:00"}, {"id": 9360, "name": "Jacqui Warburton", "roles_in_work": [{"id": 2711641, "title": "Nancybird", "work_id": 109355, "role": "creator", "role_id": 968, "is_primary": true}], "also_known_as": "", "date_of_birth": "", "date_of_death": "", "genders": [], "languages": [], "places_of_operation": [], "biography": "", "biography_author": null, "date_of_biography": "2023-05-09T19:12:07.392818+10:00", "external_links": [], "uuid": "456e8ade-fc60-4e3d-8672-b26610780931", "source": {"name": "Vernon", "slug": "vernon"}, "source_identifier": "1606", "external_references": [], "date_modified": "2025-03-11T23:57:08.896073+11:00"}, {"id": 9359, "name": "Marcia Jane", "roles_in_work": [{"id": 2711639, "title": "Lightfalls", "work_id": 109354, "role": "creator", "role_id": 968, "is_primary": true}], "also_known_as": "", "date_of_birth": "", "date_of_death": "", "genders": [], "languages": [], "places_of_operation": [], "biography": "", "biography_author": null, "date_of_biography": "2023-05-09T19:11:55.971762+10:00", "external_links": [], "uuid": "b476bb4b-20ef-41db-9276-ca2ac432a19c", "source": {"name": "Vernon", "slug": "vernon"}, "source_identifier": "1438", "external_references": [], "date_modified": "2025-03-11T23:57:07.444735+11:00"}, {"id": 9358, "name": "Andi Spark", "roles_in_work": [{"id": 2711622, "title": "Arvo' tea", "work_id": 109353, "role": "creator", "role_id": 968, "is_primary": true}], "also_known_as": "", "date_of_birth": "", "date_of_death": "", "genders": [], "languages": [], "places_of_operation": [], "biography": "", "biography_author": null, "date_of_biography": "2023-05-09T19:11:50.020517+10:00", "external_links": [], "uuid": "adefcefd-e6d8-466e-9840-cca1dc386f54", "source": {"name": "Vernon", "slug": "vernon"}, "source_identifier": "1429", "external_references": [], "date_modified": "2025-03-11T23:56:55.739623+11:00"}]}