{"count": 28687, "next": "https://api.acmi.net.au/creators/?page=1441", "previous": "https://api.acmi.net.au/creators/?page=1439", "results": [{"id": 35756, "name": "M Film Company", "roles_in_work": [{"id": 2154845, "title": "Mishima: a life in four chapters", "work_id": 93814, "role": "production company", "role_id": 941, "is_primary": true}], "also_known_as": "", "date_of_birth": "", "date_of_death": "", "genders": [], "languages": [], "places_of_operation": [], "biography": "", "biography_author": null, "date_of_biography": "2023-05-09T14:01:28.979215+10:00", "external_links": [], "uuid": "a992be3a-1028-41a4-8617-4a7ce10a8d9a", "source": {"name": "Vernon", "slug": "vernon"}, "source_identifier": "10199", "external_references": [{"id": 34292, "source": {"name": "Wikidata", "slug": "wikidata"}, "source_identifier": "Q121315093"}], "date_modified": "2023-09-05T22:35:35.692227+10:00"}, {"id": 35755, "name": "Filmlink International", "roles_in_work": [{"id": 2154836, "title": "Mishima: a life in four chapters", "work_id": 93814, "role": "production company", "role_id": 941, "is_primary": true}], "also_known_as": "", "date_of_birth": "", "date_of_death": "", "genders": [], "languages": [], "places_of_operation": [], "biography": "", "biography_author": null, "date_of_biography": "2023-05-09T14:01:28.501491+10:00", "external_links": [], "uuid": "394e4f80-b9af-4d65-9060-824ff477c46c", "source": {"name": "Vernon", "slug": "vernon"}, "source_identifier": "8285", "external_references": [{"id": 38200, "source": {"name": "Wikidata", "slug": "wikidata"}, "source_identifier": "Q121337174"}], "date_modified": "2023-09-05T19:43:22.770695+10:00"}, {"id": 35746, "name": "Wang Xiaoshuai", "roles_in_work": [{"id": 2111017, "title": "Beijing bicycle", "work_id": 93803, "role": "director", "role_id": 938, "is_primary": true}], "also_known_as": "", "date_of_birth": "1966-05-22", "date_of_death": null, "genders": [{"id": 9, "name": "Male", "slug": "male"}], "languages": [{"id": 14, "name": "Chinese", "slug": "chinese"}, {"id": 80, "name": "Standard Mandarin", "slug": "standard-mandarin"}], "places_of_operation": [{"id": 290, "name": "People's Republic of China", "slug": "peoples-republic-of-china"}], "biography": "Wang Xiaoshuai (simplified Chinese: 王小帅; traditional Chinese: 王小帥; pinyin: Wáng Xiăoshuài; born May 22, 1966) is a Chinese film director, screenwriter and occasional actor. He is commonly grouped under the loose association of filmmakers known as the \"Sixth Generation\" of the Cinema of China. Like others in this generation, and in contrast with earlier Chinese filmmakers who produced mostly historical drama, Wang proposed a “new urban Chinese cinema [that] has been mainly concerned with bearing witness of a fast- paced transforming China and producing a localized critique of globalization.”Many of Wang's works are known for their sensitive portrayal of teens and youths, most notable in films such as Beijing Bicycle,  So Close to Paradise, Drifters, and Shanghai Dreams.  His 2008 film In Love We Trust was an exception as it portrays marital strains.\nIn 2010 Wang was appointed a chevalier of the Ordre des Arts et des Lettres. He also served as a member of the jury of the BigScreen Italia Film Festival 2006, held in Kunming, Yunnan, China.", "biography_author": "Wikidata", "date_of_biography": "2022-05-19T13:21:18.116006+10:00", "external_links": [{"id": 3278, "uri": "https://en.wikipedia.org/wiki/Wang_Xiaoshuai"}], "uuid": "36f901ed-c62f-48e7-9776-7ae60e4fc08a", "source": {"name": "Vernon", "slug": "vernon"}, "source_identifier": "30275", "external_references": [{"id": 13868, "source": {"name": "Wikidata", "slug": "wikidata"}, "source_identifier": "Q710763"}, {"id": 13869, "source": {"name": "VIAF", "slug": "viaf"}, "source_identifier": "62701405"}, {"id": 13870, "source": {"name": "LOC Auth", "slug": "loc-auth"}, "source_identifier": "no2003045446"}, {"id": 13871, "source": {"name": "WorldCat", "slug": "worldcat"}, "source_identifier": "lccn-no2003045446"}], "date_modified": "2023-09-13T12:33:14.622336+10:00"}, {"id": 35742, "name": "Arc Light Films", "roles_in_work": [{"id": 819344, "title": "HHH: portrait of Hou Hsiao-Hsien [NTSC]", "work_id": 94312, "role": "production company", "role_id": 941, "is_primary": true}, {"id": 2111003, "title": "Beijing bicycle", "work_id": 93803, "role": "production company", "role_id": 941, "is_primary": true}], "also_known_as": "", "date_of_birth": "", "date_of_death": "", "genders": [], "languages": [], "places_of_operation": [], "biography": "", "biography_author": null, "date_of_biography": "2023-05-09T12:46:29.418909+10:00", "external_links": [], "uuid": "1030cecb-2340-4224-a7d9-0d51b0b2d9e0", "source": {"name": "Vernon", "slug": "vernon"}, "source_identifier": "5337", "external_references": [{"id": 37891, "source": {"name": "Wikidata", "slug": "wikidata"}, "source_identifier": "Q121086065"}], "date_modified": "2023-09-05T17:43:28.933806+10:00"}, {"id": 35741, "name": "Pyramide Productions", "roles_in_work": [{"id": 2000065, "title": "The Man without a past", "work_id": 94897, "role": "production company", "role_id": 941, "is_primary": true}, {"id": 2111001, "title": "Beijing bicycle", "work_id": 93803, "role": "production company", "role_id": 941, "is_primary": true}], "also_known_as": "", "date_of_birth": "", "date_of_death": "", "genders": [], "languages": [], "places_of_operation": [], "biography": "", "biography_author": null, "date_of_biography": "2023-05-09T12:46:29.190567+10:00", "external_links": [], "uuid": "42e7aafb-2c8c-4161-b1b6-44b09df17bba", "source": {"name": "Vernon", "slug": "vernon"}, "source_identifier": "11748", "external_references": [{"id": 51482, "source": {"name": "Wikidata", "slug": "wikidata"}, "source_identifier": "Q64976192"}], "date_modified": "2023-09-06T00:15:18.475704+10:00"}, {"id": 35738, "name": "Mad House", "roles_in_work": [{"id": 2327888, "title": "The Animatrix", "work_id": 94346, "role": "production company", "role_id": 941, "is_primary": true}, {"id": 924482, "title": "Metropolis", "work_id": 93799, "role": "production company", "role_id": 941, "is_primary": true}], "also_known_as": "", "date_of_birth": "", "date_of_death": "", "genders": [], "languages": [], "places_of_operation": [], "biography": "", "biography_author": null, "date_of_biography": "2023-05-09T19:21:44.586285+10:00", "external_links": [], "uuid": "b41d97f2-dbd5-4729-9f7a-b462443e1001", "source": {"name": "Vernon", "slug": "vernon"}, "source_identifier": "10228", "external_references": [], "date_modified": "2023-06-14T16:33:30.576250+10:00"}, {"id": 35737, "name": "Chuck Russell", "roles_in_work": [{"id": 924479, "title": "The Blob (1988)", "work_id": 93797, "role": "director", "role_id": 938, "is_primary": true}], "also_known_as": "", "date_of_birth": "1958-05-09", "date_of_death": null, "genders": [{"id": 9, "name": "Male", "slug": "male"}], "languages": [{"id": 1, "name": "English", "slug": "english"}], "places_of_operation": [{"id": 1, "name": "United States of America", "slug": "united-states-of-america"}], "biography": "Charles Russell (born May 9, 1958) is an American filmmaker and actor known for his work on several genre films.\nSome of Russell's best known films include the slasher fantasy film A Nightmare on Elm Street 3: Dream Warriors, the 1988 remake of the 1958 monster horror film The Blob, the fantasy superhero comedy film The Mask, the action film Eraser, and the action-adventure The Scorpion King. Russell also executive produced the critically acclaimed Michael Mann-directed neo-noir action thriller Collateral.\n\n", "biography_author": "Wikidata", "date_of_biography": "2023-08-01T14:27:25.301130+10:00", "external_links": [{"id": 3774, "uri": "https://en.wikipedia.org/wiki/Chuck_Russell"}], "uuid": "8b743625-ece6-40e3-9cb4-04165d6ebb51", "source": {"name": "Vernon", "slug": "vernon"}, "source_identifier": "17024", "external_references": [{"id": 26135, "source": {"name": "Wikidata", "slug": "wikidata"}, "source_identifier": "Q725006"}, {"id": 27857, "source": {"name": "VIAF", "slug": "viaf"}, "source_identifier": "42035870"}, {"id": 27858, "source": {"name": "LOC Auth", "slug": "loc-auth"}, "source_identifier": "n92047239"}, {"id": 27859, "source": {"name": "WorldCat", "slug": "worldcat"}, "source_identifier": "lccn-n92047239"}], "date_modified": "2023-09-13T12:28:45.567722+10:00"}, {"id": 35734, "name": "Sally Westbury", "roles_in_work": [{"id": 2114017, "title": "Beyond Babel. Program 4. Future", "work_id": 93792, "role": "producer", "role_id": 1089, "is_primary": true}, {"id": 2113873, "title": "Beyond Babel. Program 1. Trade", "work_id": 93794, "role": "producer", "role_id": 1089, "is_primary": true}, {"id": 2113965, "title": "Beyond Babel. Program 3. Politics", "work_id": 93793, "role": "producer", "role_id": 1089, "is_primary": true}, {"id": 2113918, "title": "Beyond Babel. Program 2. Culture", "work_id": 93795, "role": "producer", "role_id": 1089, "is_primary": true}], "also_known_as": "", "date_of_birth": "", "date_of_death": "", "genders": [], "languages": [], "places_of_operation": [], "biography": "", "biography_author": null, "date_of_biography": "2023-05-09T12:51:32.889032+10:00", "external_links": [], "uuid": "8051532e-d47b-4f64-956b-cf6d1f35d6ea", "source": {"name": "Vernon", "slug": "vernon"}, "source_identifier": "28459", "external_references": [{"id": 38215, "source": {"name": "Wikidata", "slug": "wikidata"}, "source_identifier": "Q121223021"}], "date_modified": "2023-09-06T01:02:01.315645+10:00"}, {"id": 35733, "name": "Infonation", "roles_in_work": [{"id": 2113963, "title": "Beyond Babel. Program 3. Politics", "work_id": 93793, "role": "production company", "role_id": 941, "is_primary": true}, {"id": 2113870, "title": "Beyond Babel. Program 1. Trade", "work_id": 93794, "role": "production company", "role_id": 941, "is_primary": true}, {"id": 2114012, "title": "Beyond Babel. Program 4. Future", "work_id": 93792, "role": "production company", "role_id": 941, "is_primary": true}, {"id": 2113914, "title": "Beyond Babel. Program 2. Culture", "work_id": 93795, "role": "production company", "role_id": 941, "is_primary": true}], "also_known_as": "", "date_of_birth": "", "date_of_death": "", "genders": [], "languages": [], "places_of_operation": [], "biography": "", "biography_author": null, "date_of_biography": "2023-05-09T12:51:32.659786+10:00", "external_links": [], "uuid": "7a1f68a9-de1c-4dc7-857d-8c5f46b0bde4", "source": {"name": "Vernon", "slug": "vernon"}, "source_identifier": "9290", "external_references": [{"id": 38409, "source": {"name": "Wikidata", "slug": "wikidata"}, "source_identifier": "Q121034970"}], "date_modified": "2023-09-05T20:48:36.448861+10:00"}, {"id": 35730, "name": "Twin Cities Public Television", "roles_in_work": [{"id": 2254530, "title": "Roseland", "work_id": 93789, "role": "production company", "role_id": 941, "is_primary": true}], "also_known_as": "", "date_of_birth": "", "date_of_death": "", "genders": [], "languages": [], "places_of_operation": [], "biography": "", "biography_author": null, "date_of_biography": "2023-05-09T17:15:33.672635+10:00", "external_links": [], "uuid": "9816a448-d0a5-4b33-912b-0c6995cb1958", "source": {"name": "Vernon", "slug": "vernon"}, "source_identifier": "13784", "external_references": [{"id": 32908, "source": {"name": "Wikidata", "slug": "wikidata"}, "source_identifier": "Q121222797"}], "date_modified": "2023-09-06T02:00:12.548825+10:00"}]}