{"count": 28687, "next": "https://api.acmi.net.au/creators/?page=2282", "previous": "https://api.acmi.net.au/creators/?page=2280", "results": [{"id": 17118, "name": "Orbital Engine Company", "roles_in_work": [{"id": 2464635, "title": "Orbital evolution", "work_id": 71203, "role": "production company", "role_id": 941, "is_primary": true}], "also_known_as": "", "date_of_birth": "", "date_of_death": "", "genders": [], "languages": [], "places_of_operation": [], "biography": "", "biography_author": null, "date_of_biography": "2023-08-14T10:15:50.290443+10:00", "external_links": [], "uuid": "402afd0a-a570-4712-981e-49a60af4b302", "source": {"name": "Vernon", "slug": "vernon"}, "source_identifier": "11171", "external_references": [], "date_modified": "2023-08-14T10:15:50.290746+10:00"}, {"id": 17117, "name": "Sharlo", "roles_in_work": [{"id": 2464634, "title": "Orbital evolution", "work_id": 71203, "role": "production company", "role_id": 941, "is_primary": true}], "also_known_as": "", "date_of_birth": "", "date_of_death": "", "genders": [], "languages": [], "places_of_operation": [], "biography": "", "biography_author": null, "date_of_biography": "2023-08-14T10:15:49.607903+10:00", "external_links": [], "uuid": "cdd8062b-20ee-4a3e-9c44-b86438ec7ad8", "source": {"name": "Vernon", "slug": "vernon"}, "source_identifier": "12512", "external_references": [], "date_modified": "2023-08-14T10:15:49.608225+10:00"}, {"id": 17116, "name": "Margot Lethlean", "roles_in_work": [{"id": 923357, "title": "Oranges and lemons", "work_id": 71202, "role": "director", "role_id": 938, "is_primary": true}, {"id": 2752271, "title": "Tommy's world", "work_id": 98222, "role": "producer/director", "role_id": 31, "is_primary": true}], "also_known_as": "", "date_of_birth": null, "date_of_death": null, "genders": [], "languages": [], "places_of_operation": [], "biography": "", "biography_author": null, "date_of_biography": null, "external_links": [], "uuid": "e5150f83-46c6-40ec-9251-ce7a7f4c4ced", "source": {"name": "Vernon", "slug": "vernon"}, "source_identifier": "24375", "external_references": [], "date_modified": "2025-03-13T01:01:37.390086+11:00"}, {"id": 17115, "name": "Channel 54", "roles_in_work": [{"id": 2750136, "title": "Oral language development: views of five teachers", "work_id": 97162, "role": "production company", "role_id": 941, "is_primary": true}, {"id": 856437, "title": "Oral language development: views of five teachers (TEFC)", "work_id": 71200, "role": "production company", "role_id": 941, "is_primary": true}], "also_known_as": "", "date_of_birth": null, "date_of_death": null, "genders": [], "languages": [], "places_of_operation": [], "biography": "", "biography_author": null, "date_of_biography": null, "external_links": [], "uuid": "eee91635-c135-4425-8cf6-141d9ef88336", "source": {"name": "Vernon", "slug": "vernon"}, "source_identifier": "6499", "external_references": [], "date_modified": "2025-03-13T00:15:34.973732+11:00"}, {"id": 17114, "name": "A V Curtice", "roles_in_work": [{"id": 1819591, "title": "Prelude to progress", "work_id": 71787, "role": "producer", "role_id": 1089, "is_primary": true}, {"id": 1809456, "title": "Steel rhythm", "work_id": 73187, "role": "producer", "role_id": 1089, "is_primary": true}, {"id": 2645884, "title": "Opus 65", "work_id": 71198, "role": "producer", "role_id": 1089, "is_primary": true}], "also_known_as": "", "date_of_birth": null, "date_of_death": null, "genders": [], "languages": [], "places_of_operation": [], "biography": "", "biography_author": null, "date_of_biography": null, "external_links": [], "uuid": "78397383-6e4e-4fe6-9261-35a8f6ff8849", "source": {"name": "Vernon", "slug": "vernon"}, "source_identifier": "14615", "external_references": [], "date_modified": "2025-03-05T12:51:02.432449+11:00"}, {"id": 17113, "name": "Wallace Productions", "roles_in_work": [{"id": 877940, "title": "Beef business", "work_id": 90987, "role": "production company", "role_id": 941, "is_primary": true}, {"id": 876634, "title": "Escape from the sea", "work_id": 90182, "role": "production company", "role_id": 941, "is_primary": true}, {"id": 857173, "title": "Prelude to progress", "work_id": 71787, "role": "production company", "role_id": 941, "is_primary": true}, {"id": 754242, "title": "Steel rhythm", "work_id": 73187, "role": "production company", "role_id": 941, "is_primary": true}, {"id": 2645882, "title": "Opus 65", "work_id": 71198, "role": "production company", "role_id": 941, "is_primary": true}, {"id": 858892, "title": "Stone into steel", "work_id": 73206, "role": "production company", "role_id": 941, "is_primary": true}, {"id": 878340, "title": "Out of the forest", "work_id": 91226, "role": "production company", "role_id": 941, "is_primary": true}, {"id": 2309822, "title": "Steel challenge", "work_id": 73186, "role": "production company", "role_id": 941, "is_primary": true}], "also_known_as": "", "date_of_birth": "", "date_of_death": "", "genders": [], "languages": [], "places_of_operation": [], "biography": "", "biography_author": null, "date_of_biography": "2023-05-09T18:51:02.830364+10:00", "external_links": [], "uuid": "8d570bae-9cbc-40ea-8fcf-87c8e11ac8cf", "source": {"name": "Vernon", "slug": "vernon"}, "source_identifier": "3836", "external_references": [{"id": 36919, "source": {"name": "Wikidata", "slug": "wikidata"}, "source_identifier": "Q121159764"}], "date_modified": "2025-03-05T12:51:01.255915+11:00"}, {"id": 17106, "name": "Manfred Durniok", "roles_in_work": [{"id": 1819223, "title": "Operation partnership", "work_id": 71190, "role": "producer", "role_id": 1089, "is_primary": true}, {"id": 1995752, "title": "Mephisto [DVD]", "work_id": 92267, "role": "producer", "role_id": 1089, "is_primary": true}], "also_known_as": "", "date_of_birth": "1934-05-02", "date_of_death": "2003-03-07", "genders": [{"id": 9, "name": "Male", "slug": "male"}], "languages": [{"id": 5, "name": "German", "slug": "german"}], "places_of_operation": [{"id": 18, "name": "Germany", "slug": "germany"}], "biography": "Manfred Durniok (2 May 1934 – 7 March 2003) was a German film producer, director and screenwriter. He produced 27 films between 1961 and 2003. He was a member of the jury at the 20th Berlin International Film Festival in 1970.", "biography_author": "Wikidata", "date_of_biography": "2023-08-01T16:02:02.943589+10:00", "external_links": [{"id": 4594, "uri": "https://en.wikipedia.org/wiki/Manfred_Durniok"}], "uuid": "3cfbb518-96c5-48f1-aae0-0d2c26af72d3", "source": {"name": "Vernon", "slug": "vernon"}, "source_identifier": "24249", "external_references": [{"id": 25618, "source": {"name": "Wikidata", "slug": "wikidata"}, "source_identifier": "Q99907"}, {"id": 30065, "source": {"name": "VIAF", "slug": "viaf"}, "source_identifier": "94324007"}, {"id": 30066, "source": {"name": "LOC Auth", "slug": "loc-auth"}, "source_identifier": "n86848475"}, {"id": 30067, "source": {"name": "WorldCat", "slug": "worldcat"}, "source_identifier": "lccn-n86848475"}], "date_modified": "2023-09-13T12:31:07.929877+10:00"}, {"id": 17101, "name": "Harry Rayner", "roles_in_work": [{"id": 1819944, "title": "RAAF Base Butterworth", "work_id": 72011, "role": "producer", "role_id": 1089, "is_primary": true}, {"id": 2645879, "title": "Operation eastbound", "work_id": 71186, "role": "producer", "role_id": 1089, "is_primary": true}, {"id": 2374099, "title": "RAAF Newsreel. No. 9. Operation sabre ferry", "work_id": 89465, "role": "producer", "role_id": 1089, "is_primary": true}], "also_known_as": "", "date_of_birth": "", "date_of_death": "", "genders": [], "languages": [], "places_of_operation": [], "biography": "", "biography_author": null, "date_of_biography": "2023-07-05T03:51:11.508464+10:00", "external_links": [], "uuid": "a64e297f-d84d-44be-9733-f6f46dad283a", "source": {"name": "Vernon", "slug": "vernon"}, "source_identifier": "20344", "external_references": [{"id": 34488, "source": {"name": "Wikidata", "slug": "wikidata"}, "source_identifier": "Q121035323"}], "date_modified": "2025-03-05T12:50:58.877389+11:00"}, {"id": 17099, "name": "Victorian Pipelines Commission", "roles_in_work": [{"id": 2177226, "title": "Operating under pressure", "work_id": 71180, "role": "production company", "role_id": 941, "is_primary": true}], "also_known_as": "", "date_of_birth": "", "date_of_death": "", "genders": [], "languages": [], "places_of_operation": [], "biography": "", "biography_author": null, "date_of_biography": "2023-05-09T14:47:12.300964+10:00", "external_links": [], "uuid": "f219ce5f-2185-4b44-b0e4-3eeedd3346c1", "source": {"name": "Vernon", "slug": "vernon"}, "source_identifier": "14078", "external_references": [{"id": 41985, "source": {"name": "Wikidata", "slug": "wikidata"}, "source_identifier": "Q121143981"}], "date_modified": "2023-09-06T02:05:52.622947+10:00"}, {"id": 17098, "name": "Robert Saudek Associates", "roles_in_work": [{"id": 2792320, "title": "American revolution", "work_id": 115435, "role": "production company", "role_id": 941, "is_primary": true}, {"id": 856400, "title": "Introduction to the performing arts: opera with Henry Butler", "work_id": 71179, "role": "production company", "role_id": 941, "is_primary": true}, {"id": 859167, "title": "The Symphony sound with Henry Lewis: introduction to the performing arts", "work_id": 73434, "role": "production company", "role_id": 941, "is_primary": true}, {"id": 2792315, "title": "The Cause of liberty", "work_id": 84859, "role": "production company", "role_id": 941, "is_primary": true}], "also_known_as": "", "date_of_birth": null, "date_of_death": null, "genders": [], "languages": [], "places_of_operation": [], "biography": "", "biography_author": null, "date_of_biography": null, "external_links": [], "uuid": "945d6d4f-0592-4d84-8188-205f50f1f124", "source": {"name": "Vernon", "slug": "vernon"}, "source_identifier": "12075", "external_references": [], "date_modified": "2025-03-14T20:08:42.548882+11:00"}]}