{"count": 28687, "next": "https://api.acmi.net.au/creators/?page=2365", "previous": "https://api.acmi.net.au/creators/?page=2363", "results": [{"id": 15646, "name": "Peter Rowe", "roles_in_work": [{"id": 2770182, "title": "Lena the glassblower: Sweden", "work_id": 98258, "role": "director", "role_id": 938, "is_primary": true}, {"id": 2770160, "title": "Igor and the dancing stallions (Yugoslavia)", "work_id": 98201, "role": "director", "role_id": 938, "is_primary": true}, {"id": 2715684, "title": "Horse latitudes", "work_id": 68553, "role": "director", "role_id": 938, "is_primary": true}, {"id": 2770171, "title": "Kurtis: Hollywood stuntboy", "work_id": 77687, "role": "co-director", "role_id": 959, "is_primary": true}], "also_known_as": "", "date_of_birth": "1947-06-27", "date_of_death": null, "genders": [{"id": 9, "name": "Male", "slug": "male"}], "languages": [{"id": 1, "name": "English", "slug": "english"}], "places_of_operation": [{"id": 36, "name": "Canada", "slug": "canada"}], "biography": "Peter Rowe (born 1947) is a Canadian filmmaker and author specializing in themes of history and exploration. He is the producer of the 49-part television series Angry Planet, which airs on streaming and television networks around the world. His book, Music vs The Man was published in 2020.", "biography_author": "Wikidata", "date_of_biography": "2023-08-01T16:35:29.248733+10:00", "external_links": [{"id": 4893, "uri": "https://en.wikipedia.org/wiki/Peter_Rowe_(filmmaker)"}], "uuid": "5b00e9aa-8317-4cd1-91ad-50cbfb27d977", "source": {"name": "Vernon", "slug": "vernon"}, "source_identifier": "26694", "external_references": [{"id": 27008, "source": {"name": "Wikidata", "slug": "wikidata"}, "source_identifier": "Q3376857"}, {"id": 30824, "source": {"name": "VIAF", "slug": "viaf"}, "source_identifier": "107906929"}, {"id": 30825, "source": {"name": "LOC Auth", "slug": "loc-auth"}, "source_identifier": "n82228937"}, {"id": 30826, "source": {"name": "WorldCat", "slug": "worldcat"}, "source_identifier": "lccn-n82228937"}], "date_modified": "2025-03-14T18:17:40.574785+11:00"}, {"id": 15645, "name": "Tony Hall", "roles_in_work": [{"id": 2715683, "title": "Horse latitudes", "work_id": 68553, "role": "producer", "role_id": 1089, "is_primary": true}], "also_known_as": "", "date_of_birth": null, "date_of_death": null, "genders": [], "languages": [], "places_of_operation": [], "biography": "", "biography_author": null, "date_of_biography": null, "external_links": [], "uuid": "04beb34c-fd50-4502-8ba4-df48e59956a0", "source": {"name": "Vernon", "slug": "vernon"}, "source_identifier": "29872", "external_references": [], "date_modified": "2025-03-12T01:40:28.097326+11:00"}, {"id": 15644, "name": "Clearwater Films", "roles_in_work": [{"id": 2715681, "title": "Horse latitudes", "work_id": 68553, "role": "production company", "role_id": 941, "is_primary": true}], "also_known_as": "", "date_of_birth": null, "date_of_death": null, "genders": [], "languages": [], "places_of_operation": [], "biography": "", "biography_author": null, "date_of_biography": null, "external_links": [], "uuid": "d6e33fd5-c143-4dd9-8be7-faa3510b704f", "source": {"name": "Vernon", "slug": "vernon"}, "source_identifier": "6817", "external_references": [], "date_modified": "2025-03-12T01:40:26.920079+11:00"}, {"id": 15643, "name": "Rosebud Films", "roles_in_work": [{"id": 1997192, "title": "From the edge of the city = Apo tin akri tis polis", "work_id": 93162, "role": "production company", "role_id": 941, "is_primary": true}, {"id": 2715680, "title": "Horse latitudes", "work_id": 68553, "role": "production company", "role_id": 941, "is_primary": true}], "also_known_as": "", "date_of_birth": null, "date_of_death": null, "genders": [], "languages": [], "places_of_operation": [], "biography": "", "biography_author": null, "date_of_biography": null, "external_links": [], "uuid": "a23021ec-02c5-41a6-bc4b-d6e3d7899ba3", "source": {"name": "Vernon", "slug": "vernon"}, "source_identifier": "12120", "external_references": [], "date_modified": "2025-03-12T01:40:26.332526+11:00"}, {"id": 15640, "name": "George Gordon", "roles_in_work": [{"id": 756115, "title": "Traitor within: cancer", "work_id": 73979, "role": "director", "role_id": 938, "is_primary": true}, {"id": 908295, "title": "Farm frolics = Puddy the pup and the gypsies", "work_id": 88717, "role": "co-director", "role_id": 959, "is_primary": true}, {"id": 2715659, "title": "Horizons of hope", "work_id": 68548, "role": "co-director", "role_id": 959, "is_primary": true}, {"id": 909516, "title": "Kiko the kangaroo: hail the king", "work_id": 90122, "role": "co-director", "role_id": 959, "is_primary": true}, {"id": 1848331, "title": "Olive Oyl's army", "work_id": 93710, "role": "co-director", "role_id": 959, "is_primary": true}, {"id": 909567, "title": "Down in the deep = Sunken treasure", "work_id": 90177, "role": "co-director", "role_id": 959, "is_primary": true}], "also_known_as": "", "date_of_birth": null, "date_of_death": null, "genders": [], "languages": [], "places_of_operation": [], "biography": "", "biography_author": null, "date_of_biography": null, "external_links": [], "uuid": "3d496d4a-b081-406f-ab53-36a0b5bada3d", "source": {"name": "Vernon", "slug": "vernon"}, "source_identifier": "19602", "external_references": [], "date_modified": "2025-03-12T01:40:12.887524+11:00"}, {"id": 15639, "name": "John Sutherland", "roles_in_work": [{"id": 2715658, "title": "Horizons of hope", "work_id": 68548, "role": "producer", "role_id": 1089, "is_primary": true}], "also_known_as": "", "date_of_birth": null, "date_of_death": null, "genders": [], "languages": [], "places_of_operation": [], "biography": "", "biography_author": null, "date_of_biography": null, "external_links": [], "uuid": "86401d40-db47-4fbb-a747-f84b87f824e4", "source": {"name": "Vernon", "slug": "vernon"}, "source_identifier": "22551", "external_references": [], "date_modified": "2025-03-12T01:40:12.292042+11:00"}, {"id": 15638, "name": "John Sutherland Productions", "roles_in_work": [{"id": 2397673, "title": "A is for atom", "work_id": 90600, "role": "production company", "role_id": 941, "is_primary": true}, {"id": 756114, "title": "Traitor within: cancer", "work_id": 73979, "role": "production company", "role_id": 941, "is_primary": true}, {"id": 2715657, "title": "Horizons of hope", "work_id": 68548, "role": "production company", "role_id": 941, "is_primary": true}], "also_known_as": "", "date_of_birth": "", "date_of_death": "", "genders": [], "languages": [], "places_of_operation": [], "biography": "", "biography_author": null, "date_of_biography": "2023-08-11T13:03:01.919999+10:00", "external_links": [], "uuid": "f83f4716-f984-4fd2-93fc-aefb6cea89c0", "source": {"name": "Vernon", "slug": "vernon"}, "source_identifier": "9630", "external_references": [], "date_modified": "2025-03-12T01:40:11.715454+11:00"}, {"id": 15637, "name": "Coronet Productions", "roles_in_work": [{"id": 2645099, "title": "The Hopi Indian", "work_id": 68546, "role": "production company", "role_id": 941, "is_primary": true}, {"id": 2400635, "title": "Aptitudes and occupations: an introduction to vocational guidance", "work_id": 90990, "role": "production company", "role_id": 941, "is_primary": true}, {"id": 878051, "title": "The Horse and its relatives", "work_id": 91067, "role": "production company", "role_id": 941, "is_primary": true}], "also_known_as": "", "date_of_birth": "", "date_of_death": "", "genders": [], "languages": [], "places_of_operation": [], "biography": "", "biography_author": null, "date_of_biography": "2023-08-11T14:09:59.305492+10:00", "external_links": [], "uuid": "dd65ea8d-c972-486a-b050-69c58b190974", "source": {"name": "Vernon", "slug": "vernon"}, "source_identifier": "7082", "external_references": [], "date_modified": "2025-03-05T12:32:13.269164+11:00"}, {"id": 15629, "name": "Alice Springs Film Society", "roles_in_work": [{"id": 2715644, "title": "Hoosh down", "work_id": 68543, "role": "production company", "role_id": 941, "is_primary": true}], "also_known_as": "", "date_of_birth": "", "date_of_death": "", "genders": [], "languages": [], "places_of_operation": [], "biography": "", "biography_author": null, "date_of_biography": "2023-08-11T17:29:51.697864+10:00", "external_links": [], "uuid": "e73e8095-6970-4c2c-aa95-82e7c92bc470", "source": {"name": "Vernon", "slug": "vernon"}, "source_identifier": "5119", "external_references": [], "date_modified": "2025-03-12T01:40:01.680710+11:00"}, {"id": 15628, "name": "Philip Stapp", "roles_in_work": [{"id": 750663, "title": "Picture in your mind", "work_id": 71555, "role": "director", "role_id": 938, "is_primary": true}, {"id": 2715635, "title": "Hommage: Francois Couperin", "work_id": 68537, "role": "director", "role_id": 938, "is_primary": true}, {"id": 757365, "title": "Water", "work_id": 74521, "role": "director", "role_id": 938, "is_primary": true}, {"id": 2412608, "title": "Israel: the story of the Jewish people. - Rev. ed.", "work_id": 69131, "role": "director", "role_id": 938, "is_primary": true}, {"id": 754814, "title": "Symmetry", "work_id": 73429, "role": "director", "role_id": 938, "is_primary": true}], "also_known_as": "", "date_of_birth": "", "date_of_death": "", "genders": [], "languages": [], "places_of_operation": [], "biography": "", "biography_author": null, "date_of_biography": "2023-08-11T18:42:06.181692+10:00", "external_links": [], "uuid": "adca0331-f3ea-4991-a98c-4c0081002cae", "source": {"name": "Vernon", "slug": "vernon"}, "source_identifier": "26840", "external_references": [], "date_modified": "2025-03-12T01:38:12.278747+11:00"}]}