{"count": 28681, "next": "https://api.acmi.net.au/creators/?page=754", "previous": "https://api.acmi.net.au/creators/?page=752", "results": [{"id": 78049, "name": "Mike Barker", "roles_in_work": [{"id": 2476008, "title": "The Tenant of Wildfell Hall", "work_id": 85709, "role": "director", "role_id": 938, "is_primary": true}], "also_known_as": "", "date_of_birth": "1965-11-29", "date_of_death": "", "genders": [{"id": 9, "name": "Male", "slug": "male"}], "languages": [{"id": 1, "name": "English", "slug": "english"}], "places_of_operation": [{"id": 10, "name": "United Kingdom", "slug": "united-kingdom"}], "biography": "Mike Barker (born 29 November 1965) is a British film director. His 2003 film To Kill a King was entered into the 25th Moscow International Film Festival.", "biography_author": "Wikidata", "date_of_biography": "2023-09-05T23:14:26.936368+10:00", "external_links": [{"id": 4733, "uri": "https://en.wikipedia.org/wiki/Mike_Barker_(director)"}], "uuid": "d413f56c-a524-43e7-b105-0e512db7d62d", "source": {"name": "Vernon", "slug": "vernon"}, "source_identifier": "25341", "external_references": [{"id": 26373, "source": {"name": "Wikidata", "slug": "wikidata"}, "source_identifier": "Q2424777"}, {"id": 30418, "source": {"name": "VIAF", "slug": "viaf"}, "source_identifier": "107146230"}, {"id": 30419, "source": {"name": "LOC Auth", "slug": "loc-auth"}, "source_identifier": "nr2003003778"}, {"id": 30420, "source": {"name": "WorldCat", "slug": "worldcat"}, "source_identifier": "lccn-nr2003003778"}], "date_modified": "2023-09-05T23:14:26.947114+10:00"}, {"id": 78048, "name": "Suzan Harrison", "roles_in_work": [{"id": 2476007, "title": "The Tenant of Wildfell Hall", "work_id": 85709, "role": "producer", "role_id": 1089, "is_primary": true}], "also_known_as": "", "date_of_birth": "", "date_of_death": "", "genders": [], "languages": [], "places_of_operation": [], "biography": "", "biography_author": null, "date_of_biography": "2023-08-17T15:31:00.434983+10:00", "external_links": [], "uuid": "b073733a-1972-4071-be9e-6096f592fadd", "source": {"name": "Vernon", "slug": "vernon"}, "source_identifier": "29380", "external_references": [{"id": 40811, "source": {"name": "Wikidata", "slug": "wikidata"}, "source_identifier": "Q121337165"}], "date_modified": "2023-09-06T01:37:16.932869+10:00"}, {"id": 78047, "name": "Stanley Tong", "roles_in_work": [{"id": 2474953, "title": "Mr Magoo", "work_id": 95134, "role": "director", "role_id": 938, "is_primary": true}, {"id": 2209755, "title": "Police story 3: super cop", "work_id": 85701, "role": "director", "role_id": 938, "is_primary": true}], "also_known_as": "", "date_of_birth": "1960-04-07", "date_of_death": "", "genders": [{"id": 9, "name": "Male", "slug": "male"}], "languages": [], "places_of_operation": [{"id": 290, "name": "People's Republic of China", "slug": "peoples-republic-of-china"}], "biography": "Stanley Tong (Chinese: 唐季禮) is a Hong Kong film director, producer, stunt choreographer, screenwriter, entrepreneur and philanthropist.", "biography_author": "Wikidata", "date_of_biography": "2023-09-06T01:27:18.015449+10:00", "external_links": [{"id": 5193, "uri": "https://en.wikipedia.org/wiki/Stanley_Tong"}], "uuid": "a33c668a-1b0b-4f75-875b-072638d29479", "source": {"name": "Vernon", "slug": "vernon"}, "source_identifier": "28984", "external_references": [{"id": 25735, "source": {"name": "Wikidata", "slug": "wikidata"}, "source_identifier": "Q185783"}, {"id": 31607, "source": {"name": "VIAF", "slug": "viaf"}, "source_identifier": "32206124"}, {"id": 31608, "source": {"name": "LOC Auth", "slug": "loc-auth"}, "source_identifier": "no98100752"}, {"id": 31609, "source": {"name": "WorldCat", "slug": "worldcat"}, "source_identifier": "lccn-no98100752"}], "date_modified": "2023-09-06T01:27:20.020000+10:00"}, {"id": 78046, "name": "Raymond Chow", "roles_in_work": [{"id": 2474994, "title": "The Way of the dragon = Return of the dragon", "work_id": 89976, "role": "producer", "role_id": 1089, "is_primary": true}, {"id": 2337012, "title": "The Chinese connection = Fist of fury", "work_id": 89521, "role": "producer", "role_id": 1089, "is_primary": true}, {"id": 2218450, "title": "Encounters of the spooky kind", "work_id": 91300, "role": "producer", "role_id": 1089, "is_primary": true}, {"id": 2353570, "title": "The Hand of death = Shaolin men", "work_id": 87873, "role": "producer", "role_id": 1089, "is_primary": true}, {"id": 2209754, "title": "Police story 3: super cop", "work_id": 85701, "role": "producer", "role_id": 1089, "is_primary": true}, {"id": 1811890, "title": "Miracle fighters = Qimen dunjia [Widescreen]", "work_id": 91138, "role": "producer", "role_id": 1089, "is_primary": true}], "also_known_as": "Raymond Chow Man-wai", "date_of_birth": "1927-10-08", "date_of_death": "2018-11-02", "genders": [{"id": 9, "name": "Male", "slug": "male"}], "languages": [{"id": 14, "name": "Chinese", "slug": "chinese"}], "places_of_operation": [{"id": 290, "name": "People's Republic of China", "slug": "peoples-republic-of-china"}], "biography": "Raymond Chow Man-wai,  (Chinese: 鄒文懷; 8 October 1927 – 2 November 2018) was a Hong Kong film producer, and presenter. He was responsible for successfully launching martial arts and the Hong Kong cinema onto the international stage. As the founder of Golden Harvest, he produced some of the biggest stars of the martial arts film genre, including Bruce Lee, Jackie Chan, Sammo Hung, Jimmy Wang Yu, Cynthia Rothrock and Tsui Hark.", "biography_author": "Wikidata", "date_of_biography": "2023-09-06T00:23:08.100292+10:00", "external_links": [{"id": 4957, "uri": "https://en.wikipedia.org/wiki/Raymond_Chow"}], "uuid": "3964f276-38cb-4bd3-862a-a2b996381ed0", "source": {"name": "Vernon", "slug": "vernon"}, "source_identifier": "27184", "external_references": [{"id": 25094, "source": {"name": "Wikidata", "slug": "wikidata"}, "source_identifier": "Q1194523"}, {"id": 31002, "source": {"name": "VIAF", "slug": "viaf"}, "source_identifier": "41437145"}, {"id": 31003, "source": {"name": "LOC Auth", "slug": "loc-auth"}, "source_identifier": "no96052897"}, {"id": 31004, "source": {"name": "WorldCat", "slug": "worldcat"}, "source_identifier": "lccn-no96052897"}], "date_modified": "2023-09-06T00:23:10.258825+10:00"}, {"id": 78045, "name": "Ng See Yuen", "roles_in_work": [{"id": 2164968, "title": "Once upon a time in China III", "work_id": 85700, "role": "co-producer", "role_id": 915, "is_primary": true}], "also_known_as": "", "date_of_birth": null, "date_of_death": "", "genders": [{"id": 9, "name": "Male", "slug": "male"}], "languages": [], "places_of_operation": [{"id": 290, "name": "People's Republic of China", "slug": "peoples-republic-of-china"}], "biography": "Ng See-yuen (Chinese: 吳思遠; born 6 June 1944) is a Hong Kong film producer, director, screenwriter and businessman.\nHe has been active in the Hong Kong film industry since 1970, particularly in action films. He was one of the first filmmakers to find widespread success outside of the major studios of Shaw Brothers and Golden Harvest as the founder of Seasonal Film Corporation, where he helped launch the careers of Jackie Chan, Jimmy Wang Yu, Corey Yuen, Jean-Claude Van Damme, Hiroyuki Sanada, Jet Li and Wu Jing. He has been twice nominated for the Hong Kong Film Award for Best Film, for The Unwritten Law (1985) and The Soong Sisters (1997).\nNg is an Honorary President of the Hong Kong Film Directors' Guild, a former President of the Federation of Hong Kong Filmmakers, and was President of the Hong Kong Film Awards Association from 1995 to 2000. He is also a co-founder of the UME Huaxing International Cinema chain, and the owner of the Hong Kong A1 Division basketball club Seasonal.", "biography_author": "Wikidata", "date_of_biography": "2023-08-01T16:23:19.905729+10:00", "external_links": [{"id": 2774, "uri": "https://en.wikipedia.org/wiki/Ng_See-yuen"}], "uuid": "b01e2d5b-ec92-429e-942c-4b8f1613b7af", "source": {"name": "Vernon", "slug": "vernon"}, "source_identifier": "25698", "external_references": [{"id": 11818, "source": {"name": "Wikidata", "slug": "wikidata"}, "source_identifier": "Q716091"}, {"id": 11819, "source": {"name": "VIAF", "slug": "viaf"}, "source_identifier": "7588359"}, {"id": 11820, "source": {"name": "LOC Auth", "slug": "loc-auth"}, "source_identifier": "no2008002232"}, {"id": 11821, "source": {"name": "WorldCat", "slug": "worldcat"}, "source_identifier": "lccn-no2008002232"}], "date_modified": "2023-09-05T23:28:56.658196+10:00"}, {"id": 78044, "name": "Daniel Greaves", "roles_in_work": [{"id": 2121750, "title": "Bob's birthday and the best of British animation", "work_id": 85695, "role": "co-director", "role_id": 959, "is_primary": true}], "also_known_as": "", "date_of_birth": "", "date_of_death": "", "genders": [], "languages": [], "places_of_operation": [], "biography": "", "biography_author": null, "date_of_biography": "2023-05-09T13:04:55.585312+10:00", "external_links": [], "uuid": "9227fe56-4b14-47d0-aacb-e56328a0abac", "source": {"name": "Vernon", "slug": "vernon"}, "source_identifier": "17391", "external_references": [{"id": 38102, "source": {"name": "Wikidata", "slug": "wikidata"}, "source_identifier": "Q121299306"}], "date_modified": "2023-09-05T18:51:10.508491+10:00"}, {"id": 78043, "name": "Alison Snowden", "roles_in_work": [{"id": 2121742, "title": "Bob's birthday and the best of British animation", "work_id": 85695, "role": "co-director", "role_id": 959, "is_primary": true}], "also_known_as": "", "date_of_birth": "", "date_of_death": "", "genders": [], "languages": [], "places_of_operation": [], "biography": "", "biography_author": null, "date_of_biography": "2023-05-09T13:04:55.198554+10:00", "external_links": [], "uuid": "fc04a057-b6a6-423c-a197-11d8b791a0d1", "source": {"name": "Vernon", "slug": "vernon"}, "source_identifier": "14983", "external_references": [{"id": 41266, "source": {"name": "Wikidata", "slug": "wikidata"}, "source_identifier": "Q121079128"}], "date_modified": "2023-09-05T17:28:54.134167+10:00"}, {"id": 78042, "name": "David Fine", "roles_in_work": [{"id": 2121739, "title": "Bob's birthday and the best of British animation", "work_id": 85695, "role": "co-director", "role_id": 959, "is_primary": true}], "also_known_as": "", "date_of_birth": "", "date_of_death": "", "genders": [], "languages": [], "places_of_operation": [], "biography": "", "biography_author": null, "date_of_biography": "2023-05-09T13:04:54.946705+10:00", "external_links": [], "uuid": "20f99889-9f42-47b9-8662-288af6d88f5f", "source": {"name": "Vernon", "slug": "vernon"}, "source_identifier": "17575", "external_references": [{"id": 33928, "source": {"name": "Wikidata", "slug": "wikidata"}, "source_identifier": "Q121223597"}], "date_modified": "2023-09-05T18:56:45.391624+10:00"}, {"id": 78041, "name": "Daphne L. Richardson", "roles_in_work": [{"id": 2472078, "title": "World book multimedia encyclopedia (PC)", "work_id": 85690, "role": "co-producer", "role_id": 915, "is_primary": true}], "also_known_as": "", "date_of_birth": "", "date_of_death": "", "genders": [], "languages": [], "places_of_operation": [], "biography": "", "biography_author": null, "date_of_biography": "2023-08-14T12:52:47.121030+10:00", "external_links": [], "uuid": "7e911e01-2d64-41fd-aa7e-968de345a843", "source": {"name": "Vernon", "slug": "vernon"}, "source_identifier": "17431", "external_references": [{"id": 41239, "source": {"name": "Wikidata", "slug": "wikidata"}, "source_identifier": "Q121036793"}], "date_modified": "2023-09-05T18:53:16.291923+10:00"}, {"id": 78040, "name": "Michael Griffith", "roles_in_work": [{"id": 2472077, "title": "World book multimedia encyclopedia (PC)", "work_id": 85690, "role": "co-producer", "role_id": 915, "is_primary": true}], "also_known_as": "", "date_of_birth": "", "date_of_death": "", "genders": [], "languages": [], "places_of_operation": [], "biography": "", "biography_author": null, "date_of_biography": "2023-08-14T12:52:46.488296+10:00", "external_links": [], "uuid": "8d64d82c-33f1-48ed-b5a9-51a08a905d09", "source": {"name": "Vernon", "slug": "vernon"}, "source_identifier": "25076", "external_references": [{"id": 42212, "source": {"name": "Wikidata", "slug": "wikidata"}, "source_identifier": "Q121299449"}], "date_modified": "2023-09-05T23:05:07.856684+10:00"}]}