{"count": 28687, "next": "https://api.acmi.net.au/creators/?page=287", "previous": "https://api.acmi.net.au/creators/?page=285", "results": [{"id": 82747, "name": "Tian Junli", "roles_in_work": [{"id": 2651233, "title": "The Republic will never forget = Gong he guo bu hui wang ji", "work_id": 115814, "role": "script", "role_id": 962, "is_primary": false}], "also_known_as": "", "date_of_birth": null, "date_of_death": null, "genders": [], "languages": [], "places_of_operation": [], "biography": "", "biography_author": null, "date_of_biography": null, "external_links": [], "uuid": "f801f3e5-37ab-41e5-8730-6778390ec2e3", "source": {"name": "Vernon", "slug": "vernon"}, "source_identifier": "36325", "external_references": [], "date_modified": "2025-03-05T14:27:51.000428+11:00"}, {"id": 82746, "name": "Zhai Junjie", "roles_in_work": [{"id": 2651232, "title": "The Republic will never forget = Gong he guo bu hui wang ji", "work_id": 115814, "role": "director", "role_id": 938, "is_primary": true}, {"id": 2651237, "title": "The Republic will never forget = Gong he guo bu hui wang ji", "work_id": 115814, "role": "cast", "role_id": 33, "is_primary": false}], "also_known_as": "", "date_of_birth": null, "date_of_death": null, "genders": [], "languages": [], "places_of_operation": [], "biography": "", "biography_author": null, "date_of_biography": null, "external_links": [], "uuid": "f4e0da64-7ca4-4387-8fe9-3cbd3d673419", "source": {"name": "Vernon", "slug": "vernon"}, "source_identifier": "36324", "external_references": [{"id": 41538, "source": {"name": "Wikidata", "slug": "wikidata"}, "source_identifier": "Q77939833"}], "date_modified": "2025-03-05T14:27:53.416911+11:00"}, {"id": 82745, "name": "Yu Chenghui", "roles_in_work": [{"id": 2651230, "title": "Southern and Northern Shaolin = Nan Bei Shao Lin", "work_id": 115813, "role": "cast", "role_id": 33, "is_primary": false}], "also_known_as": "", "date_of_birth": "16 AUG 1939", "date_of_death": "", "genders": [{"id": 9, "name": "Male", "slug": "male"}], "languages": [], "places_of_operation": [], "biography": "", "biography_author": null, "date_of_biography": "2023-05-09T18:45:37.440468+10:00", "external_links": [], "uuid": "ac403b64-1ce0-4014-a33b-5472415943f3", "source": {"name": "Vernon", "slug": "vernon"}, "source_identifier": "36179", "external_references": [{"id": 38856, "source": {"name": "Wikidata", "slug": "wikidata"}, "source_identifier": "Q121315701"}], "date_modified": "2025-03-05T14:27:48.921205+11:00"}, {"id": 82744, "name": "Huang Qiuyan", "roles_in_work": [{"id": 2651229, "title": "Southern and Northern Shaolin = Nan Bei Shao Lin", "work_id": 115813, "role": "cast", "role_id": 33, "is_primary": false}], "also_known_as": "", "date_of_birth": null, "date_of_death": null, "genders": [{"id": 5, "name": "Female", "slug": "female"}], "languages": [], "places_of_operation": [], "biography": "", "biography_author": null, "date_of_biography": "2023-05-09T18:45:36+10:00", "external_links": [], "uuid": "c09ad551-396b-436e-ae5a-4744397ff6b9", "source": {"name": "Vernon", "slug": "vernon"}, "source_identifier": "36178", "external_references": [{"id": 51253, "source": {"name": "Wikidata", "slug": "wikidata"}, "source_identifier": "Q47673025"}], "date_modified": "2025-03-05T14:27:48.294534+11:00"}, {"id": 82743, "name": "Jet Li", "roles_in_work": [{"id": 2651228, "title": "Southern and Northern Shaolin = Nan Bei Shao Lin", "work_id": 115813, "role": "cast", "role_id": 33, "is_primary": false}], "also_known_as": "", "date_of_birth": "26 APR 1963", "date_of_death": "", "genders": [{"id": 9, "name": "Male", "slug": "male"}], "languages": [], "places_of_operation": [], "biography": "", "biography_author": null, "date_of_biography": "2023-05-09T18:45:36.630222+10:00", "external_links": [], "uuid": "53023cad-09c3-48d6-8b8f-fbb499f8b44b", "source": {"name": "Vernon", "slug": "vernon"}, "source_identifier": "36177", "external_references": [{"id": 51024, "source": {"name": "Wikidata", "slug": "wikidata"}, "source_identifier": "Q159577"}], "date_modified": "2025-03-05T14:27:47.696951+11:00"}, {"id": 82742, "name": "Zhao Xianda", "roles_in_work": [{"id": 2651227, "title": "Southern and Northern Shaolin = Nan Bei Shao Lin", "work_id": 115813, "role": "editor", "role_id": 918, "is_primary": true}], "also_known_as": "", "date_of_birth": "", "date_of_death": "", "genders": [], "languages": [], "places_of_operation": [], "biography": "", "biography_author": null, "date_of_biography": "2023-05-09T18:45:36.385743+10:00", "external_links": [], "uuid": "38d22e72-7e85-4100-af98-effc82a6fa88", "source": {"name": "Vernon", "slug": "vernon"}, "source_identifier": "36176", "external_references": [{"id": 42731, "source": {"name": "Wikidata", "slug": "wikidata"}, "source_identifier": "Q121315238"}], "date_modified": "2025-03-05T14:27:47.104043+11:00"}, {"id": 82741, "name": "Cao Anchun", "roles_in_work": [{"id": 2651226, "title": "Southern and Northern Shaolin = Nan Bei Shao Lin", "work_id": 115813, "role": "cinematographer", "role_id": 32, "is_primary": false}], "also_known_as": "", "date_of_birth": "", "date_of_death": "", "genders": [], "languages": [], "places_of_operation": [], "biography": "", "biography_author": null, "date_of_biography": "2023-05-09T18:45:35.968857+10:00", "external_links": [], "uuid": "00f77055-1dbc-4b4b-8105-be0e19c95ebd", "source": {"name": "Vernon", "slug": "vernon"}, "source_identifier": "36175", "external_references": [{"id": 40636, "source": {"name": "Wikidata", "slug": "wikidata"}, "source_identifier": "Q121078857"}], "date_modified": "2025-03-05T14:27:46.517607+11:00"}, {"id": 82740, "name": "Shi Yangping", "roles_in_work": [{"id": 2651225, "title": "Southern and Northern Shaolin = Nan Bei Shao Lin", "work_id": 115813, "role": "script", "role_id": 962, "is_primary": false}], "also_known_as": "", "date_of_birth": "", "date_of_death": "", "genders": [], "languages": [], "places_of_operation": [], "biography": "", "biography_author": null, "date_of_biography": "2023-05-09T18:45:35.711738+10:00", "external_links": [], "uuid": "61ceb3bf-5763-40c5-9628-33ae19c87f18", "source": {"name": "Vernon", "slug": "vernon"}, "source_identifier": "36174", "external_references": [], "date_modified": "2025-03-05T14:27:45.931730+11:00"}, {"id": 82739, "name": "Liu Jialiang", "roles_in_work": [{"id": 2651224, "title": "Southern and Northern Shaolin = Nan Bei Shao Lin", "work_id": 115813, "role": "director", "role_id": 938, "is_primary": true}], "also_known_as": "", "date_of_birth": "", "date_of_death": "", "genders": [], "languages": [], "places_of_operation": [], "biography": "", "biography_author": null, "date_of_biography": "2023-05-09T18:45:35.393181+10:00", "external_links": [], "uuid": "e83ad570-8e98-4c7c-bbe2-2758fc1bc158", "source": {"name": "Vernon", "slug": "vernon"}, "source_identifier": "36173", "external_references": [{"id": 39720, "source": {"name": "Wikidata", "slug": "wikidata"}, "source_identifier": "Q121222898"}], "date_modified": "2025-03-05T14:27:45.347686+11:00"}, {"id": 82738, "name": "Wang Pin", "roles_in_work": [{"id": 2651221, "title": "The Girl in red = Hong yi shao nu", "work_id": 115812, "role": "cast", "role_id": 33, "is_primary": false}], "also_known_as": "", "date_of_birth": "", "date_of_death": "", "genders": [], "languages": [], "places_of_operation": [], "biography": "", "biography_author": null, "date_of_biography": "2023-05-09T19:56:12.645306+10:00", "external_links": [], "uuid": "b0b074dd-08cc-40ed-9d2e-a5ae7437c896", "source": {"name": "Vernon", "slug": "vernon"}, "source_identifier": "36352", "external_references": [{"id": 40950, "source": {"name": "Wikidata", "slug": "wikidata"}, "source_identifier": "Q121315184"}], "date_modified": "2025-03-05T14:27:43.903932+11:00"}]}