{"count": 28682, "next": "https://api.acmi.net.au/creators/?page=860", "previous": "https://api.acmi.net.au/creators/?page=858", "results": [{"id": 76988, "name": "Masanori Hata", "roles_in_work": [{"id": 2326426, "title": "The Adventures of Milo and Otis (Captioned)", "work_id": 81791, "role": "director", "role_id": 938, "is_primary": true}, {"id": 2326695, "title": "The Adventures of Milo and Otis", "work_id": 81794, "role": "director", "role_id": 938, "is_primary": true}], "also_known_as": "", "date_of_birth": "1935-04-17", "date_of_death": "2023-04-05", "genders": [{"id": 9, "name": "Male", "slug": "male"}], "languages": [{"id": 2, "name": "Japanese", "slug": "japanese"}], "places_of_operation": [{"id": 8, "name": "Japan", "slug": "japan"}], "biography": "Masanori Hata (畑 正憲, Hata Masanori, 17 April 1935 – 5 April 2023) was a Japanese zoologist, essayist, and filmmaker. A popular essayist under the pen name Mutsugorō, he was awarded the Kikuchi Kan Prize for his writing in 1977. He was perhaps best known in the West as the director and screenwriter of the 1986 film The Adventures of Milo and Otis.\nHata was born in Fukuoka Prefecture on 17 April 1935. He graduated from the Faculty of Biology at Tokyo University in 1958, and went on to complete a master's degree in 1959.  Trained as a zoologist, he worked as a documentary filmmaker producing nature films. He moved to the eastern coast of Hokkaidō to establish the Mutsugorō Animal Kingdom nature preserve, where he and his family lived with over 300 wild and domestic animals. He is the author of over 100 books, including collections of his Mutsugorō essays on nature such as Warera dōbutsu mina kyōdai (All of Us Animals Are Brothers and Sisters, 1967) and Mutsogorō no hakubutsushi (Mutsugoro's Natural History, 1975).Over four years, Hata and associate director Kon Ichikawa shot 400,000 feet of film at the Mutsugorō Animal Kingdom. The resulting film, about the adventures of an orange tabby cat and a fawn pug, was released by Toho in 1986 as Koneko Monogatari (子猫物語, A Kitten's Story) and was the highest-grossing film of the year in Japan, taking in about $36 million. It was shown that year at the Cannes Film Festival as The Adventures of Chatran. For US distribution by Columbia Pictures, it was cut down from 90 to 76 minutes and narration in English by Dudley Moore was added. It was released in 1989 as The Adventures of Milo and Otis.Hata died on 5 April 2023, at the age of 87.", "biography_author": "Wikidata", "date_of_biography": "2023-08-01T16:08:42.604238+10:00", "external_links": [{"id": 4647, "uri": "https://en.wikipedia.org/wiki/Masanori_Hata"}], "uuid": "0aab9452-4d9b-4bba-9f23-111913ec6f25", "source": {"name": "Vernon", "slug": "vernon"}, "source_identifier": "24754", "external_references": [{"id": 25724, "source": {"name": "Wikidata", "slug": "wikidata"}, "source_identifier": "Q3297168"}, {"id": 30198, "source": {"name": "VIAF", "slug": "viaf"}, "source_identifier": "230029541"}, {"id": 30199, "source": {"name": "LOC Auth", "slug": "loc-auth"}, "source_identifier": "n81124672"}, {"id": 30200, "source": {"name": "WorldCat", "slug": "worldcat"}, "source_identifier": "lccn-n81124672"}], "date_modified": "2023-09-05T22:53:00.679888+10:00"}, {"id": 76987, "name": "Satoru Ogata", "roles_in_work": [{"id": 2326691, "title": "The Adventures of Milo and Otis", "work_id": 81794, "role": "co-producer", "role_id": 915, "is_primary": true}, {"id": 2326423, "title": "The Adventures of Milo and Otis (Captioned)", "work_id": 81791, "role": "co-producer", "role_id": 915, "is_primary": true}], "also_known_as": "", "date_of_birth": "", "date_of_death": "", "genders": [], "languages": [], "places_of_operation": [], "biography": "", "biography_author": null, "date_of_biography": "2023-05-09T19:20:10.338481+10:00", "external_links": [], "uuid": "0966657b-452d-48a1-b0de-7f9035731bd9", "source": {"name": "Vernon", "slug": "vernon"}, "source_identifier": "28603", "external_references": [{"id": 36584, "source": {"name": "Wikidata", "slug": "wikidata"}, "source_identifier": "Q121271292"}], "date_modified": "2023-09-06T01:06:57.081544+10:00"}, {"id": 76986, "name": "Masaru Kakutani", "roles_in_work": [{"id": 2326687, "title": "The Adventures of Milo and Otis", "work_id": 81794, "role": "co-producer", "role_id": 915, "is_primary": true}, {"id": 2097811, "title": "Antarctica", "work_id": 83968, "role": "co-producer", "role_id": 915, "is_primary": true}, {"id": 2326420, "title": "The Adventures of Milo and Otis (Captioned)", "work_id": 81791, "role": "co-producer", "role_id": 915, "is_primary": true}], "also_known_as": "", "date_of_birth": "", "date_of_death": "", "genders": [], "languages": [], "places_of_operation": [], "biography": "", "biography_author": null, "date_of_biography": "2023-05-09T19:20:10.112257+10:00", "external_links": [], "uuid": "286b271a-5697-4124-aa69-3a76910743e0", "source": {"name": "Vernon", "slug": "vernon"}, "source_identifier": "24757", "external_references": [{"id": 33215, "source": {"name": "Wikidata", "slug": "wikidata"}, "source_identifier": "Q121160083"}], "date_modified": "2023-09-05T22:53:08.016495+10:00"}, {"id": 76985, "name": "Cathy Henkel", "roles_in_work": [{"id": 1932452, "title": "Walking through a minefield", "work_id": 94729, "role": "director", "role_id": 938, "is_primary": true}, {"id": 908473, "title": "Kids do yoga too", "work_id": 88922, "role": "director", "role_id": 938, "is_primary": true}, {"id": 900957, "title": "Heroes of our time", "work_id": 81784, "role": "co-director", "role_id": 959, "is_primary": true}, {"id": 1932450, "title": "Walking through a minefield", "work_id": 94729, "role": "co-producer", "role_id": 915, "is_primary": true}, {"id": 2298862, "title": "Show Me the Magic: The Adventures of Don McAlpine [Q&A]", "work_id": 117445, "role": "interviewee", "role_id": 496, "is_primary": false}], "also_known_as": "", "date_of_birth": null, "date_of_death": "", "genders": [{"id": 5, "name": "Female", "slug": "female"}], "languages": [{"id": 1, "name": "English", "slug": "english"}], "places_of_operation": [{"id": 175, "name": "South Africa", "slug": "south-africa"}], "biography": "Cathy Henkel is a South African documentary filmmaker who lives and works in Australia. Her works have typically focused on subjects of environmental activism, and to a lesser extent, the performing arts.", "biography_author": "Wikidata", "date_of_biography": "2023-09-05T18:22:56.600955+10:00", "external_links": [{"id": 5733, "uri": "https://en.wikipedia.org/wiki/Cathy_Henkel"}], "uuid": "d2ea6513-6af1-49b5-8bcc-918f8baad16c", "source": {"name": "Vernon", "slug": "vernon"}, "source_identifier": "16613", "external_references": [{"id": 51291, "source": {"name": "Wikidata", "slug": "wikidata"}, "source_identifier": "Q19958066"}], "date_modified": "2023-09-05T18:22:56.621281+10:00"}, {"id": 76984, "name": "Amy Harrison", "roles_in_work": [{"id": 2649575, "title": "Guerillas in our midst", "work_id": 81777, "role": "producer/director", "role_id": 31, "is_primary": true}], "also_known_as": "", "date_of_birth": null, "date_of_death": null, "genders": [], "languages": [], "places_of_operation": [], "biography": "", "biography_author": null, "date_of_biography": null, "external_links": [], "uuid": "ce734053-5e73-4725-b0f5-a865808d69c8", "source": {"name": "Vernon", "slug": "vernon"}, "source_identifier": "15073", "external_references": [{"id": 50831, "source": {"name": "Wikidata", "slug": "wikidata"}, "source_identifier": "Q121360560"}], "date_modified": "2025-03-05T14:02:59.247339+11:00"}, {"id": 76983, "name": "Vivian Ducat", "roles_in_work": [{"id": 2776016, "title": "Waste not want not", "work_id": 81775, "role": "producer", "role_id": 1089, "is_primary": true}, {"id": 2776029, "title": "It needs political decisions", "work_id": 81797, "role": "producer", "role_id": 1089, "is_primary": true}], "also_known_as": "", "date_of_birth": "", "date_of_death": "", "genders": [], "languages": [], "places_of_operation": [], "biography": "", "biography_author": null, "date_of_biography": "2023-05-09T19:49:05.073450+10:00", "external_links": [], "uuid": "432feb9f-be47-4151-a396-429ec4de5a30", "source": {"name": "Vernon", "slug": "vernon"}, "source_identifier": "30162", "external_references": [{"id": 34665, "source": {"name": "Wikidata", "slug": "wikidata"}, "source_identifier": "Q121086027"}], "date_modified": "2025-03-14T18:45:28.399085+11:00"}, {"id": 76982, "name": "Graham Cavanagh", "roles_in_work": [{"id": 2774516, "title": "Nothing in writing from Captain Cook", "work_id": 81765, "role": "producer/director", "role_id": 31, "is_primary": true}, {"id": 2774557, "title": "Still on the same way", "work_id": 82191, "role": "producer/director", "role_id": 31, "is_primary": true}, {"id": 2774553, "title": "A Long time dream", "work_id": 82112, "role": "producer/director", "role_id": 31, "is_primary": true}], "also_known_as": "", "date_of_birth": "", "date_of_death": "", "genders": [], "languages": [], "places_of_operation": [], "biography": "", "biography_author": null, "date_of_biography": "2023-07-26T03:35:19.126689+10:00", "external_links": [], "uuid": "a58fcf7c-f426-4089-8306-b8dc253008a2", "source": {"name": "Vernon", "slug": "vernon"}, "source_identifier": "19987", "external_references": [{"id": 51679, "source": {"name": "Wikidata", "slug": "wikidata"}, "source_identifier": "Q121361268"}], "date_modified": "2025-03-14T18:37:53.362380+11:00"}, {"id": 76981, "name": "Leon Ericksen", "roles_in_work": [{"id": 1998584, "title": "M*A*S*H = Mash (Special edition) [DVD]", "work_id": 93940, "role": "co-producer", "role_id": 915, "is_primary": true}, {"id": 2649568, "title": "M*A*S*H* = Mash (Captioned)", "work_id": 81764, "role": "co-producer", "role_id": 915, "is_primary": true}], "also_known_as": "", "date_of_birth": null, "date_of_death": null, "genders": [], "languages": [], "places_of_operation": [], "biography": "", "biography_author": null, "date_of_biography": null, "external_links": [], "uuid": "95a80c69-0405-42c9-961a-eebada0d3913", "source": {"name": "Vernon", "slug": "vernon"}, "source_identifier": "23701", "external_references": [{"id": 33945, "source": {"name": "Wikidata", "slug": "wikidata"}, "source_identifier": "Q121315398"}], "date_modified": "2025-03-05T14:02:55.135943+11:00"}, {"id": 76980, "name": "Ingo Preminger", "roles_in_work": [{"id": 2649567, "title": "M*A*S*H* = Mash (Captioned)", "work_id": 81764, "role": "co-producer", "role_id": 915, "is_primary": true}, {"id": 1998583, "title": "M*A*S*H = Mash (Special edition) [DVD]", "work_id": 93940, "role": "co-producer", "role_id": 915, "is_primary": true}], "also_known_as": "", "date_of_birth": "25 FEB 1911", "date_of_death": "07 JUN 2006", "genders": [{"id": 9, "name": "Male", "slug": "male"}], "languages": [], "places_of_operation": [{"id": 1, "name": "United States of America", "slug": "united-states-of-america"}], "biography": "Ingwald \"Ingo\" Preminger (25 February 1911 – 7 June 2006) was a film producer. He was also the literary agent for several writers, including Dalton Trumbo and Ring Lardner Jr., both of whom were blacklisted in the McCarthy era. He was the brother of actor-director-producer Otto Preminger. Source: Wikidata; 01/08/2023", "biography_author": null, "date_of_biography": "2025-03-05T14:02:54.547061+11:00", "external_links": [{"id": 4197, "uri": "https://en.wikipedia.org/wiki/Ingo_Preminger"}], "uuid": "8977308e-cde5-4c1f-b564-af5317ddc48a", "source": {"name": "Vernon", "slug": "vernon"}, "source_identifier": "20835", "external_references": [{"id": 25254, "source": {"name": "Wikidata", "slug": "wikidata"}, "source_identifier": "Q84719"}, {"id": 29021, "source": {"name": "VIAF", "slug": "viaf"}, "source_identifier": "1823910"}, {"id": 29022, "source": {"name": "LOC Auth", "slug": "loc-auth"}, "source_identifier": "n2001120507"}, {"id": 29023, "source": {"name": "WorldCat", "slug": "worldcat"}, "source_identifier": "lccn-n2001120507"}], "date_modified": "2025-03-05T14:02:54.547368+11:00"}, {"id": 76979, "name": "Marian Redmond", "roles_in_work": [{"id": 2774513, "title": "Lost wax memory", "work_id": 81762, "role": "producer/director", "role_id": 31, "is_primary": true}], "also_known_as": "", "date_of_birth": "", "date_of_death": "", "genders": [], "languages": [], "places_of_operation": [], "biography": "", "biography_author": null, "date_of_biography": "2023-05-09T19:30:00.767507+10:00", "external_links": [], "uuid": "84f730de-8c85-4790-a715-f7dc31afd75b", "source": {"name": "Vernon", "slug": "vernon"}, "source_identifier": "24400", "external_references": [{"id": 51627, "source": {"name": "Wikidata", "slug": "wikidata"}, "source_identifier": "Q121360567"}], "date_modified": "2025-03-14T18:37:24.820366+11:00"}]}