{"count": 28687, "next": "https://api.acmi.net.au/creators/?page=1422", "previous": "https://api.acmi.net.au/creators/?page=1420", "results": [{"id": 36357, "name": "Patrick Stettner", "roles_in_work": [{"id": 2335231, "title": "The Business of strangers [DVD]", "work_id": 94423, "role": "director", "role_id": 938, "is_primary": true}], "also_known_as": "", "date_of_birth": "", "date_of_death": "", "genders": [{"id": 9, "name": "Male", "slug": "male"}], "languages": [], "places_of_operation": [{"id": 1, "name": "United States of America", "slug": "united-states-of-america"}], "biography": "Patrick Stettner is an American film director and writer. His first film, Flux, was released in 1996 as a short, and starred Allison Janney in an early role. He went on to direct and write the screenplay for The Business of Strangers in 2001, which earned him a Grand Jury Prize nomination at the Sundance Film Festival of that year and earned lead actress Stockard Channing an AFI nomination for Best Female Actress. In 2006, he then wrote and directed The Night Listener, an adaptation of Armistead Maupin's eponymous semi-autobiographical 2000 novel, which landed less-than-stellar reviews from critics. He has not directed any films since The Night Listener.\nHe is an alumnus of Columbia University School of the Arts' film division.", "biography_author": "Wikidata", "date_of_biography": "2023-08-01T16:28:27.992607+10:00", "external_links": [{"id": 4825, "uri": "https://en.wikipedia.org/wiki/Patrick_Stettner"}], "uuid": "015f8759-ce53-4707-b5b7-b9378f049ba5", "source": {"name": "Vernon", "slug": "vernon"}, "source_identifier": "26152", "external_references": [{"id": 25395, "source": {"name": "Wikidata", "slug": "wikidata"}, "source_identifier": "Q7147685"}], "date_modified": "2023-09-05T23:43:50.849275+10:00"}, {"id": 36355, "name": "i5 Films", "roles_in_work": [{"id": 2335219, "title": "The Business of strangers [DVD]", "work_id": 94423, "role": "production company", "role_id": 941, "is_primary": true}], "also_known_as": "", "date_of_birth": "", "date_of_death": "", "genders": [], "languages": [], "places_of_operation": [], "biography": "", "biography_author": null, "date_of_biography": "2023-05-09T19:30:54.000451+10:00", "external_links": [], "uuid": "0c7bfd85-2ec4-463d-a79a-41b4320acc72", "source": {"name": "Vernon", "slug": "vernon"}, "source_identifier": "4442", "external_references": [{"id": 38085, "source": {"name": "Wikidata", "slug": "wikidata"}, "source_identifier": "Q121079269"}], "date_modified": "2023-09-05T20:45:13.347773+10:00"}, {"id": 36354, "name": "Headquarters", "roles_in_work": [{"id": 2335215, "title": "The Business of strangers [DVD]", "work_id": 94423, "role": "production company", "role_id": 941, "is_primary": true}], "also_known_as": "", "date_of_birth": "", "date_of_death": "", "genders": [], "languages": [], "places_of_operation": [], "biography": "", "biography_author": null, "date_of_biography": "2023-05-09T19:30:53.762755+10:00", "external_links": [], "uuid": "83e68d9f-744c-4262-a82d-4dfe09dc3b04", "source": {"name": "Vernon", "slug": "vernon"}, "source_identifier": "9036", "external_references": [{"id": 40094, "source": {"name": "Wikidata", "slug": "wikidata"}, "source_identifier": "Q121299500"}], "date_modified": "2023-09-05T20:33:17.903567+10:00"}, {"id": 36350, "name": "Rouge Pictures", "roles_in_work": [{"id": 2135619, "title": "Cherry Falls [DVD]", "work_id": 94419, "role": "production company", "role_id": 941, "is_primary": true}], "also_known_as": "", "date_of_birth": "", "date_of_death": "", "genders": [], "languages": [], "places_of_operation": [], "biography": "", "biography_author": null, "date_of_biography": "2023-05-09T13:29:00.421476+10:00", "external_links": [], "uuid": "21a53e4b-bebb-4cdf-9b72-34c1dd9bd640", "source": {"name": "Vernon", "slug": "vernon"}, "source_identifier": "12131", "external_references": [{"id": 33741, "source": {"name": "Wikidata", "slug": "wikidata"}, "source_identifier": "Q121314981"}], "date_modified": "2023-09-06T00:56:58.587546+10:00"}, {"id": 36348, "name": "Films du Carrosse", "roles_in_work": [{"id": 928953, "title": "The 400 blows = Les Quatre cents coups", "work_id": 94369, "role": "production company", "role_id": 941, "is_primary": true}, {"id": 2109625, "title": "Bed and board = Domicile conjugal", "work_id": 95088, "role": "production company", "role_id": 941, "is_primary": true}, {"id": 2000479, "title": "Love on the run = L'Amour en fuite", "work_id": 95079, "role": "production company", "role_id": 941, "is_primary": true}], "also_known_as": "", "date_of_birth": "", "date_of_death": "", "genders": [], "languages": [], "places_of_operation": [], "biography": "", "biography_author": null, "date_of_biography": "2023-05-09T12:44:10.407404+10:00", "external_links": [], "uuid": "4629d6c6-a5c0-43b4-b35b-b5c9e86cf4e6", "source": {"name": "Vernon", "slug": "vernon"}, "source_identifier": "8302", "external_references": [], "date_modified": "2023-06-14T16:33:30.576250+10:00"}, {"id": 36340, "name": "Elia Suleiman", "roles_in_work": [{"id": 2195809, "title": "Divine intervention = Chronicle of love and pain [DVD]", "work_id": 94370, "role": "director", "role_id": 938, "is_primary": true}, {"id": 2195773, "title": "Divine intervention = Chronicle of love and pain", "work_id": 100504, "role": "director", "role_id": 938, "is_primary": true}, {"id": 2195770, "title": "Divine intervention = Chronicle of love and pain", "work_id": 100504, "role": "co-producer", "role_id": 915, "is_primary": true}, {"id": 2195803, "title": "Divine intervention = Chronicle of love and pain [DVD]", "work_id": 94370, "role": "co-producer", "role_id": 915, "is_primary": true}, {"id": 915747, "title": "Introduction to the end of an argument = Intifada - Speaking for Oneself, Speaking for Others", "work_id": 94396, "role": "co-producers/directors", "role_id": 628, "is_primary": true}, {"id": 819639, "title": "Chronicle of a disappearance [NTSC]", "work_id": 94384, "role": "producer/director", "role_id": 31, "is_primary": true}], "also_known_as": "", "date_of_birth": "1960-07-28", "date_of_death": null, "genders": [{"id": 9, "name": "Male", "slug": "male"}], "languages": [{"id": 19, "name": "Arabic", "slug": "arabic"}], "places_of_operation": [{"id": 33, "name": "Israel", "slug": "israel"}, {"id": 297, "name": "State of Palestine", "slug": "state-of-palestine"}], "biography": "Elia Suleiman (Arabic: إيليا سليمان, IPA: [ˈʔiːlja sʊleːˈmaːn]; born 28 July 1960) is a Palestinian film director and actor of Rûm Greek Orthodox origin. He is best known for the 2002 film Divine Intervention (Arabic: يد إلهية), a modern tragic comedy on living under occupation in Palestine which won the Jury Prize at the 2002 Cannes Film Festival. Elia Suleiman's cinematic style is often compared to that of Jacques Tati and Buster Keaton, for its poetic interplay between \"burlesque and sobriety\". He is married to Lebanese singer and actress Yasmine Hamdan.", "biography_author": "Wikidata", "date_of_biography": "2022-05-19T11:23:11.598368+10:00", "external_links": [{"id": 1991, "uri": "https://en.wikipedia.org/wiki/Elia_Suleiman"}], "uuid": "400dfad6-76f9-4923-bb16-425acdaae22e", "source": {"name": "Vernon", "slug": "vernon"}, "source_identifier": "18681", "external_references": [{"id": 8607, "source": {"name": "Wikidata", "slug": "wikidata"}, "source_identifier": "Q577569"}, {"id": 8608, "source": {"name": "VIAF", "slug": "viaf"}, "source_identifier": "30654906"}, {"id": 8609, "source": {"name": "LOC Auth", "slug": "loc-auth"}, "source_identifier": "no2001038273"}, {"id": 8610, "source": {"name": "WorldCat", "slug": "worldcat"}, "source_identifier": "lccn-no2001038273"}], "date_modified": "2023-09-13T12:29:15.573292+10:00"}, {"id": 36339, "name": "Lichtblick Filmproduktion", "roles_in_work": [{"id": 2195789, "title": "Divine intervention = Chronicle of love and pain [DVD]", "work_id": 94370, "role": "production company", "role_id": 941, "is_primary": true}, {"id": 2195764, "title": "Divine intervention = Chronicle of love and pain", "work_id": 100504, "role": "production company", "role_id": 941, "is_primary": true}], "also_known_as": "", "date_of_birth": "", "date_of_death": "", "genders": [], "languages": [], "places_of_operation": [], "biography": "", "biography_author": null, "date_of_biography": "2023-05-09T15:16:37.204801+10:00", "external_links": [], "uuid": "f7c052e7-0be5-47ec-82c4-01c6caf9ed9f", "source": {"name": "Vernon", "slug": "vernon"}, "source_identifier": "4626", "external_references": [{"id": 43343, "source": {"name": "Wikidata", "slug": "wikidata"}, "source_identifier": "Q121298728"}], "date_modified": "2023-09-05T22:24:33.603337+10:00"}, {"id": 36338, "name": "Soread 2M", "roles_in_work": [{"id": 2195761, "title": "Divine intervention = Chronicle of love and pain", "work_id": 100504, "role": "production company", "role_id": 941, "is_primary": true}, {"id": 2195785, "title": "Divine intervention = Chronicle of love and pain [DVD]", "work_id": 94370, "role": "production company", "role_id": 941, "is_primary": true}], "also_known_as": "", "date_of_birth": "", "date_of_death": "", "genders": [], "languages": [], "places_of_operation": [], "biography": "", "biography_author": null, "date_of_biography": "2023-05-09T15:16:36.520783+10:00", "external_links": [], "uuid": "cd712d69-f630-4e6f-9d35-5905b41323e5", "source": {"name": "Vernon", "slug": "vernon"}, "source_identifier": "12754", "external_references": [{"id": 41117, "source": {"name": "Wikidata", "slug": "wikidata"}, "source_identifier": "Q121315175"}], "date_modified": "2023-09-06T01:24:06.904011+10:00"}, {"id": 36337, "name": "Gimages", "roles_in_work": [{"id": 2195756, "title": "Divine intervention = Chronicle of love and pain", "work_id": 100504, "role": "production company", "role_id": 941, "is_primary": true}, {"id": 2195782, "title": "Divine intervention = Chronicle of love and pain [DVD]", "work_id": 94370, "role": "production company", "role_id": 941, "is_primary": true}], "also_known_as": "", "date_of_birth": "", "date_of_death": "", "genders": [], "languages": [], "places_of_operation": [], "biography": "", "biography_author": null, "date_of_biography": "2023-05-09T15:16:36.289730+10:00", "external_links": [], "uuid": "8389ac16-d751-4bdb-81a1-297a54791173", "source": {"name": "Vernon", "slug": "vernon"}, "source_identifier": "8733", "external_references": [{"id": 35831, "source": {"name": "Wikidata", "slug": "wikidata"}, "source_identifier": "Q121298852"}], "date_modified": "2023-09-05T20:13:33.338518+10:00"}, {"id": 36330, "name": "Jacques Doillon", "roles_in_work": [{"id": 3105063, "title": "La Drolesse = the Hussy", "work_id": 116226, "role": "director", "role_id": 938, "is_primary": true}, {"id": 1999265, "title": "Ponette", "work_id": 94362, "role": "director", "role_id": 938, "is_primary": true}, {"id": 3104722, "title": "Un Sac de Billes = a Bag of Marbles", "work_id": 116054, "role": "director", "role_id": 938, "is_primary": true}, {"id": 3104598, "title": "La Vie de Famille", "work_id": 115992, "role": "director", "role_id": 938, "is_primary": true}, {"id": 3104658, "title": "L'amoureuse = Women in Love", "work_id": 116020, "role": "director", "role_id": 938, "is_primary": true}, {"id": 3104725, "title": "Les Doigts Dans la Tete = Fingers in the Head", "work_id": 116056, "role": "director", "role_id": 938, "is_primary": true}], "also_known_as": "", "date_of_birth": "1944-03-15", "date_of_death": null, "genders": [{"id": 9, "name": "Male", "slug": "male"}], "languages": [{"id": 4, "name": "French", "slug": "french"}], "places_of_operation": [{"id": 17, "name": "France", "slug": "france"}], "biography": "Jacques Doillon (French: [dwajɔ̃]; born 15 March 1944) is a French film director. He has a habit of giving lead roles to inexperienced young actresses in his films on family life and women. Some actresses to break through are Fanny Bastien, Sandrine Bonnaire, Judith Godrèche, Marianne Denicourt, Charlotte Gainsbourg and Juliette Binoche.\nDoillon was born in Paris. He has two daughters: Lola Doillon (born 1975), whose mother is film editor Noëlle Boisson, and Lou Doillon (born 1982), from his relationship with English actress Jane Birkin in the 1980s. He has three other children named Lili, Lina, and Lazare.\nHis 1989 film The 15 Year Old Girl was entered into the 16th Moscow International Film Festival.His 1990 film La vengeance d'une femme was entered into the 40th Berlin International Film Festival. The following year, his film Le Petit Criminel won an Honourable Mention at the 41st Berlin International Film Festival. In 1993, his film Le Jeune Werther won the Blue Angel Award at the 43rd Berlin International Film Festival. In 1998, his film Trop (peu) d'amour was entered into the 48th Berlin International Film Festival.", "biography_author": "Wikidata", "date_of_biography": "2022-05-19T11:50:35.452367+10:00", "external_links": [{"id": 2292, "uri": "https://en.wikipedia.org/wiki/Jacques_Doillon"}], "uuid": "45d63d5f-4196-44fb-af7b-97debec1f8eb", "source": {"name": "Vernon", "slug": "vernon"}, "source_identifier": "21145", "external_references": [{"id": 9841, "source": {"name": "Wikidata", "slug": "wikidata"}, "source_identifier": "Q710650"}, {"id": 9842, "source": {"name": "VIAF", "slug": "viaf"}, "source_identifier": "117389627"}, {"id": 9843, "source": {"name": "LOC Auth", "slug": "loc-auth"}, "source_identifier": "n91076676"}, {"id": 9844, "source": {"name": "WorldCat", "slug": "worldcat"}, "source_identifier": "lccn-n91076676"}], "date_modified": "2025-05-22T22:56:03.593780+10:00"}]}