{"count": 28687, "next": "https://api.acmi.net.au/creators/?page=2607", "previous": "https://api.acmi.net.au/creators/?page=2605", "results": [{"id": 12584, "name": "Kestrel Films & Video (Australia)", "roles_in_work": [{"id": 2648926, "title": "Big night out", "work_id": 80363, "role": "producer", "role_id": 1089, "is_primary": true}, {"id": 2659361, "title": "On the Line", "work_id": 117279, "role": "production company", "role_id": 941, "is_primary": true}, {"id": 773292, "title": "Great National Parks of Australia", "work_id": 80823, "role": "production company", "role_id": 941, "is_primary": true}, {"id": 1904593, "title": "Priceless places: Australia's National Estate wilderness", "work_id": 82806, "role": "production company", "role_id": 941, "is_primary": true}, {"id": 771962, "title": "Risks and reasons: HIV and intravenous drug user issues ...", "work_id": 80361, "role": "production company", "role_id": 941, "is_primary": true}, {"id": 1904413, "title": "Wild about wilderness", "work_id": 80447, "role": "production company", "role_id": 941, "is_primary": true}, {"id": 2648944, "title": "High and wild", "work_id": 80456, "role": "production company", "role_id": 941, "is_primary": true}, {"id": 2677482, "title": "Around the clock", "work_id": 64892, "role": "production company", "role_id": 941, "is_primary": true}], "also_known_as": "", "date_of_birth": "", "date_of_death": "", "genders": [], "languages": [], "places_of_operation": [], "biography": "", "biography_author": null, "date_of_biography": "2023-05-09T14:00:27.541291+10:00", "external_links": [], "uuid": "3c87fc6a-c5b5-46b9-a346-168fb8712102", "source": {"name": "Vernon", "slug": "vernon"}, "source_identifier": "4543", "external_references": [{"id": 50709, "source": {"name": "Wikidata", "slug": "wikidata"}, "source_identifier": "Q121357453"}], "date_modified": "2025-03-06T23:21:22.108848+11:00"}, {"id": 12583, "name": "Department of Postmaster-General", "roles_in_work": [{"id": 861827, "title": "Tomorrow is now", "work_id": 75814, "role": "production company", "role_id": 941, "is_primary": true}, {"id": 2677481, "title": "Around the clock", "work_id": 64892, "role": "production company", "role_id": 941, "is_primary": true}, {"id": 749835, "title": "Operation post haste", "work_id": 71192, "role": "production company", "role_id": 941, "is_primary": true}], "also_known_as": "", "date_of_birth": "", "date_of_death": "", "genders": [], "languages": [], "places_of_operation": [], "biography": "", "biography_author": null, "date_of_biography": "2023-05-09T12:29:19.623761+10:00", "external_links": [], "uuid": "c90e75de-ea96-4e3f-bdfc-cd59fecaf86c", "source": {"name": "Vernon", "slug": "vernon"}, "source_identifier": "7455", "external_references": [{"id": 39252, "source": {"name": "Wikidata", "slug": "wikidata"}, "source_identifier": "Q121315349"}], "date_modified": "2025-03-06T23:21:21.516228+11:00"}, {"id": 12581, "name": "David Bilcock", "roles_in_work": [{"id": 2678817, "title": "Breakthrough", "work_id": 65591, "role": "director", "role_id": 938, "is_primary": true}, {"id": 2678099, "title": "The Banana story", "work_id": 65220, "role": "director", "role_id": 938, "is_primary": true}, {"id": 853918, "title": "Journey of a lifetime", "work_id": 69290, "role": "director", "role_id": 938, "is_primary": true}, {"id": 747557, "title": "Manufacture: care and use of wood chisels", "work_id": 70126, "role": "director", "role_id": 938, "is_primary": true}, {"id": 825022, "title": "Alpine harvest", "work_id": 95643, "role": "director", "role_id": 938, "is_primary": true}, {"id": 2677478, "title": "Around a gum tree", "work_id": 64891, "role": "director", "role_id": 938, "is_primary": true}, {"id": 2647084, "title": "Shrine", "work_id": 75334, "role": "director", "role_id": 938, "is_primary": true}, {"id": 2101754, "title": "Artistry in clay", "work_id": 85806, "role": "cinematographer", "role_id": 32, "is_primary": false}, {"id": 2678026, "title": "Baby and the bottle", "work_id": 65186, "role": "producer", "role_id": 1089, "is_primary": true}, {"id": 2769191, "title": "Death railway", "work_id": 91845, "role": "producer/director", "role_id": 31, "is_primary": true}, {"id": 764015, "title": "Death railway", "work_id": 77283, "role": "producer/director", "role_id": 31, "is_primary": true}, {"id": 768841, "title": "Death railway (Captioned)", "work_id": 79121, "role": "producer/director", "role_id": 31, "is_primary": true}], "also_known_as": "", "date_of_birth": "", "date_of_death": "", "genders": [], "languages": [], "places_of_operation": [], "biography": "", "biography_author": null, "date_of_biography": "2023-05-09T19:23:34.403149+10:00", "external_links": [], "uuid": "39a6e40a-ed33-49d0-8e73-3e22a5b45871", "source": {"name": "Vernon", "slug": "vernon"}, "source_identifier": "17504", "external_references": [{"id": 34208, "source": {"name": "Wikidata", "slug": "wikidata"}, "source_identifier": "Q121034224"}], "date_modified": "2025-03-14T18:13:03.046155+11:00"}, {"id": 12580, "name": "Geoffrey Bell", "roles_in_work": [{"id": 859861, "title": "Transfer of power", "work_id": 73980, "role": "director", "role_id": 938, "is_primary": true}, {"id": 2644595, "title": "Double trouble", "work_id": 66896, "role": "producer", "role_id": 1089, "is_primary": true}, {"id": 1814983, "title": "Farming for the future", "work_id": 85944, "role": "producer", "role_id": 1089, "is_primary": true}, {"id": 2677477, "title": "Around a gum tree", "work_id": 64891, "role": "producer", "role_id": 1089, "is_primary": true}, {"id": 1804903, "title": "Universities of Australia", "work_id": 95741, "role": "producer", "role_id": 1089, "is_primary": true}, {"id": 1804641, "title": "Hold the land", "work_id": 87922, "role": "producer", "role_id": 1089, "is_primary": true}, {"id": 855691, "title": "The Movies go west", "work_id": 70637, "role": "producer/director", "role_id": 31, "is_primary": true}, {"id": 2713735, "title": "The First motion picture show", "work_id": 67560, "role": "producer/director", "role_id": 31, "is_primary": true}], "also_known_as": "", "date_of_birth": "", "date_of_death": "", "genders": [], "languages": [], "places_of_operation": [], "biography": "", "biography_author": null, "date_of_biography": "2023-08-09T03:45:04.384996+10:00", "external_links": [], "uuid": "4a6a79a4-f160-4d81-bdac-3a36cf12c73b", "source": {"name": "Vernon", "slug": "vernon"}, "source_identifier": "19524", "external_references": [{"id": 43498, "source": {"name": "Wikidata", "slug": "wikidata"}, "source_identifier": "Q121035235"}], "date_modified": "2025-03-12T00:51:04.734929+11:00"}, {"id": 12579, "name": "Shell Oil Company", "roles_in_work": [{"id": 2677476, "title": "Around a gum tree", "work_id": 64891, "role": "production company", "role_id": 941, "is_primary": true}], "also_known_as": "", "date_of_birth": "", "date_of_death": "", "genders": [], "languages": [], "places_of_operation": [], "biography": "", "biography_author": null, "date_of_biography": "2023-05-09T12:29:18.373959+10:00", "external_links": [], "uuid": "55702f8f-26d2-4654-bc66-b0dc51e8fbf0", "source": {"name": "Vernon", "slug": "vernon"}, "source_identifier": "12522", "external_references": [{"id": 33779, "source": {"name": "Wikidata", "slug": "wikidata"}, "source_identifier": "Q121035814"}], "date_modified": "2025-03-06T23:21:18.295481+11:00"}, {"id": 12578, "name": "Ron Headford", "roles_in_work": [{"id": 2677474, "title": "Arnold", "work_id": 64889, "role": "director", "role_id": 938, "is_primary": true}], "also_known_as": "", "date_of_birth": "", "date_of_death": "", "genders": [], "languages": [], "places_of_operation": [], "biography": "", "biography_author": null, "date_of_biography": "2023-08-11T14:11:25.902828+10:00", "external_links": [], "uuid": "772e5c28-54d2-4fa8-973a-f8fc243e5831", "source": {"name": "Vernon", "slug": "vernon"}, "source_identifier": "28145", "external_references": [], "date_modified": "2025-03-06T23:21:16.493427+11:00"}, {"id": 12577, "name": "Ron Headford Productions", "roles_in_work": [{"id": 2677473, "title": "Arnold", "work_id": 64889, "role": "production company", "role_id": 941, "is_primary": true}], "also_known_as": "", "date_of_birth": "", "date_of_death": "", "genders": [], "languages": [], "places_of_operation": [], "biography": "", "biography_author": null, "date_of_biography": "2023-08-11T14:11:25.291089+10:00", "external_links": [], "uuid": "89406502-899e-4484-8d98-30fc9e548c5e", "source": {"name": "Vernon", "slug": "vernon"}, "source_identifier": "12108", "external_references": [], "date_modified": "2025-03-06T23:21:15.909118+11:00"}, {"id": 12576, "name": "Lloyd Shiels", "roles_in_work": [{"id": 2677472, "title": "Army ordnance", "work_id": 64888, "role": "director", "role_id": 938, "is_primary": true}, {"id": 857902, "title": "Royal Australian Artillery", "work_id": 72365, "role": "director", "role_id": 938, "is_primary": true}], "also_known_as": "", "date_of_birth": null, "date_of_death": null, "genders": [], "languages": [], "places_of_operation": [], "biography": "", "biography_author": null, "date_of_biography": null, "external_links": [], "uuid": "49ae9be9-996a-4649-9a1d-def018698dd9", "source": {"name": "Vernon", "slug": "vernon"}, "source_identifier": "23970", "external_references": [], "date_modified": "2025-03-06T23:21:15.067744+11:00"}, {"id": 12575, "name": "Australia. Army", "roles_in_work": [{"id": 869371, "title": "Swift and sure", "work_id": 85504, "role": "production company", "role_id": 941, "is_primary": true}, {"id": 2644012, "title": "Army aviation", "work_id": 64887, "role": "production company", "role_id": 941, "is_primary": true}, {"id": 2645547, "title": "Malaya posting", "work_id": 70060, "role": "production company", "role_id": 941, "is_primary": true}, {"id": 878149, "title": "Learning to lead", "work_id": 91119, "role": "production company", "role_id": 941, "is_primary": true}, {"id": 904119, "title": "Kokoda: the bloody track", "work_id": 85125, "role": "production company", "role_id": 941, "is_primary": true}, {"id": 877764, "title": "The Communicators", "work_id": 90867, "role": "production company", "role_id": 941, "is_primary": true}, {"id": 869369, "title": "Operation outback survey", "work_id": 85502, "role": "production company", "role_id": 941, "is_primary": true}, {"id": 869370, "title": "Equal to the task", "work_id": 85503, "role": "production company", "role_id": 941, "is_primary": true}, {"id": 855251, "title": "Men of Canungra", "work_id": 70300, "role": "production company", "role_id": 941, "is_primary": true}, {"id": 876022, "title": "Say a prayer for me: the chaplins of the Vietnam war", "work_id": 89803, "role": "production company", "role_id": 941, "is_primary": true}, {"id": 856216, "title": "The Officer Cadet School", "work_id": 71053, "role": "production company", "role_id": 941, "is_primary": true}], "also_known_as": "", "date_of_birth": "", "date_of_death": "", "genders": [], "languages": [], "places_of_operation": [], "biography": "", "biography_author": null, "date_of_biography": "2023-08-11T14:11:20.185591+10:00", "external_links": [], "uuid": "5ddc9694-79de-4e12-9adb-c994ad598cc8", "source": {"name": "Vernon", "slug": "vernon"}, "source_identifier": "4601", "external_references": [], "date_modified": "2025-03-05T12:41:55.050775+11:00"}, {"id": 12574, "name": "Cine Services", "roles_in_work": [{"id": 2644287, "title": "The Car Stealers", "work_id": 65799, "role": "production company", "role_id": 941, "is_primary": true}, {"id": 2644011, "title": "Army apprentices school", "work_id": 64886, "role": "production company", "role_id": 941, "is_primary": true}, {"id": 857068, "title": "Pollution", "work_id": 71695, "role": "production company", "role_id": 941, "is_primary": true}, {"id": 2678257, "title": "Before production begins", "work_id": 65304, "role": "production company", "role_id": 941, "is_primary": true}], "also_known_as": "", "date_of_birth": "", "date_of_death": "", "genders": [], "languages": [], "places_of_operation": [], "biography": "", "biography_author": null, "date_of_biography": "2023-07-05T03:46:12.237583+10:00", "external_links": [], "uuid": "70132ded-2b34-49d6-8c4f-a4b84404381e", "source": {"name": "Vernon", "slug": "vernon"}, "source_identifier": "6657", "external_references": [{"id": 36687, "source": {"name": "Wikidata", "slug": "wikidata"}, "source_identifier": "Q121223508"}], "date_modified": "2025-03-06T23:45:21.477966+11:00"}]}