{"count": 28687, "next": "https://api.acmi.net.au/creators/?page=2848", "previous": "https://api.acmi.net.au/creators/?page=2846", "results": [{"id": 6835, "name": "Catherine Kerr", "roles_in_work": [{"id": 2709873, "title": "Two out", "work_id": 108212, "role": "producer", "role_id": 1089, "is_primary": true}, {"id": 1814960, "title": "Two/out [Widescreen]", "work_id": 87241, "role": "producer", "role_id": 1089, "is_primary": true}], "also_known_as": "", "date_of_birth": "", "date_of_death": "", "genders": [], "languages": [], "places_of_operation": [], "biography": "", "biography_author": null, "date_of_biography": "2023-08-14T12:02:28.829030+10:00", "external_links": [], "uuid": "7d10e5c4-c947-427d-be47-9e2d22873e44", "source": {"name": "Vernon", "slug": "vernon"}, "source_identifier": "111484", "external_references": [], "date_modified": "2025-03-11T23:10:32.739705+11:00"}, {"id": 6834, "name": "Kriv Stenders", "roles_in_work": [{"id": 795595, "title": "Two/out [Widescreen]", "work_id": 87241, "role": "director", "role_id": 938, "is_primary": true}, {"id": 2709871, "title": "Two out", "work_id": 108212, "role": "creator", "role_id": 968, "is_primary": true}, {"id": 2711492, "title": "This dream", "work_id": 109209, "role": "creator", "role_id": 968, "is_primary": true}, {"id": 795592, "title": "Two/out [Widescreen]", "work_id": 87241, "role": "production company", "role_id": 941, "is_primary": true}], "also_known_as": "", "date_of_birth": "", "date_of_death": "", "genders": [], "languages": [], "places_of_operation": [], "biography": "", "biography_author": null, "date_of_biography": "2023-08-14T12:02:28.210415+10:00", "external_links": [], "uuid": "1c36806b-0b34-4c42-bbcf-a87e0f482a9f", "source": {"name": "Vernon", "slug": "vernon"}, "source_identifier": "112227", "external_references": [], "date_modified": "2025-03-11T23:52:55.779564+11:00"}, {"id": 6833, "name": "VCA", "roles_in_work": [{"id": 3110476, "title": "Antamosi", "work_id": 108604, "role": "producer", "role_id": 1089, "is_primary": true}, {"id": 2629732, "title": "Bushed", "work_id": 108530, "role": "producer", "role_id": 1089, "is_primary": true}, {"id": 2629745, "title": "Collectors", "work_id": 108533, "role": "producer", "role_id": 1089, "is_primary": true}, {"id": 2629773, "title": "Elephant theatre", "work_id": 108550, "role": "producer", "role_id": 1089, "is_primary": true}, {"id": 2629777, "title": "Every day, every night", "work_id": 108551, "role": "producer", "role_id": 1089, "is_primary": true}, {"id": 2629849, "title": "Puppenhead", "work_id": 108584, "role": "producer", "role_id": 1089, "is_primary": true}, {"id": 2629852, "title": "The Pursuit of happiness", "work_id": 108585, "role": "producer", "role_id": 1089, "is_primary": true}, {"id": 2629875, "title": "Sexy girls, sexy appliances", "work_id": 108599, "role": "producer", "role_id": 1089, "is_primary": true}, {"id": 2629883, "title": "Turangawaewae", "work_id": 108601, "role": "producer", "role_id": 1089, "is_primary": true}, {"id": 2629890, "title": "Writer's Block", "work_id": 108603, "role": "producer", "role_id": 1089, "is_primary": true}, {"id": 2629893, "title": "Cheap rush", "work_id": 108606, "role": "producer", "role_id": 1089, "is_primary": true}, {"id": 2629897, "title": "Kicking on", "work_id": 108607, "role": "producer", "role_id": 1089, "is_primary": true}, {"id": 2629963, "title": "Night out", "work_id": 108632, "role": "producer", "role_id": 1089, "is_primary": true}, {"id": 2619181, "title": "Like drowning", "work_id": 108273, "role": "producer", "role_id": 1089, "is_primary": true}, {"id": 2619418, "title": "Denial", "work_id": 114090, "role": "producer", "role_id": 1089, "is_primary": true}, {"id": 2619423, "title": "Desire", "work_id": 108546, "role": "producer", "role_id": 1089, "is_primary": true}, {"id": 2619431, "title": "Fido", "work_id": 108554, "role": "producer", "role_id": 1089, "is_primary": true}, {"id": 2619437, "title": "Kitchen sync", "work_id": 108568, "role": "producer", "role_id": 1089, "is_primary": true}, {"id": 2619438, "title": "Life at the top", "work_id": 108569, "role": "producer", "role_id": 1089, "is_primary": true}, {"id": 2619449, "title": "The Performing bear", "work_id": 108580, "role": "producer", "role_id": 1089, "is_primary": true}, {"id": 2619462, "title": "Boss boy", "work_id": 108605, "role": "producer", "role_id": 1089, "is_primary": true}, {"id": 2635900, "title": "The Drive home", "work_id": 108547, "role": "producer", "role_id": 1089, "is_primary": true}, {"id": 2635907, "title": "Harry The Human Fly", "work_id": 114092, "role": "producer", "role_id": 1089, "is_primary": true}, {"id": 2635932, "title": "Seabound", "work_id": 114093, "role": "producer", "role_id": 1089, "is_primary": true}, {"id": 2709868, "title": "Food (for) thought", "work_id": 108210, "role": "producer", "role_id": 1089, "is_primary": true}, {"id": 2710135, "title": "Rise", "work_id": 108243, "role": "producer", "role_id": 1089, "is_primary": true}, {"id": 2709979, "title": "Wireless nights", "work_id": 108220, "role": "producer", "role_id": 1089, "is_primary": true}, {"id": 2748322, "title": "Driving home", "work_id": 108292, "role": "producer", "role_id": 1089, "is_primary": true}, {"id": 2748671, "title": "Pegged in", "work_id": 108393, "role": "producer", "role_id": 1089, "is_primary": true}, {"id": 3095545, "title": "Plastic", "work_id": 108582, "role": "producer", "role_id": 1089, "is_primary": true}, {"id": 3095555, "title": "Under the weather", "work_id": 108602, "role": "producer", "role_id": 1089, "is_primary": true}, {"id": 3095561, "title": "The Journey", "work_id": 108232, "role": "producer", "role_id": 1089, "is_primary": true}, {"id": 3110475, "title": "America", "work_id": 108514, "role": "producer", "role_id": 1089, "is_primary": true}, {"id": 2637835, "title": "My shadow", "work_id": 109983, "role": "production company", "role_id": 941, "is_primary": true}, {"id": 2619123, "title": "Shadowland", "work_id": 114044, "role": "production company", "role_id": 941, "is_primary": true}, {"id": 2710985, "title": "Multiple Xposure", "work_id": 109087, "role": "production company", "role_id": 941, "is_primary": true}, {"id": 2710140, "title": "Rise", "work_id": 108243, "role": "production company", "role_id": 941, "is_primary": true}, {"id": 2711010, "title": "Silent passages", "work_id": 109091, "role": "production facilities", "role_id": 442, "is_primary": false}, {"id": 2711032, "title": "Underbelly", "work_id": 109092, "role": "production facilities", "role_id": 442, "is_primary": false}], "also_known_as": "", "date_of_birth": "", "date_of_death": "", "genders": [], "languages": [], "places_of_operation": [], "biography": "", "biography_author": null, "date_of_biography": "2023-08-16T03:35:13.507191+10:00", "external_links": [], "uuid": "09dda00c-7e97-47eb-90af-7eac1aa15688", "source": {"name": "Vernon", "slug": "vernon"}, "source_identifier": "110831", "external_references": [], "date_modified": "2026-03-11T11:10:04.652950+11:00"}, {"id": 6831, "name": "Belinda Chayko", "roles_in_work": [{"id": 2619043, "title": "Swimming", "work_id": 108209, "role": "director", "role_id": 938, "is_primary": true}, {"id": 2640903, "title": "Swimming", "work_id": 114239, "role": "director", "role_id": 938, "is_primary": true}, {"id": 772822, "title": "Swimming", "work_id": 80692, "role": "director", "role_id": 938, "is_primary": true}, {"id": 2619045, "title": "Swimming", "work_id": 108209, "role": "producer", "role_id": 1089, "is_primary": true}, {"id": 2640905, "title": "Swimming", "work_id": 114239, "role": "producer", "role_id": 1089, "is_primary": true}, {"id": 2640907, "title": "Swimming", "work_id": 114239, "role": "writer", "role_id": 939, "is_primary": true}, {"id": 2619049, "title": "Swimming", "work_id": 108209, "role": "writer", "role_id": 939, "is_primary": true}], "also_known_as": "", "date_of_birth": "", "date_of_death": "", "genders": [{"id": 5, "name": "Female", "slug": "female"}], "languages": [], "places_of_operation": [], "biography": "", "biography_author": null, "date_of_biography": "2023-05-09T19:32:55.514125+10:00", "external_links": [], "uuid": "969db467-67a1-478b-b5b2-ae072c27c876", "source": {"name": "Vernon", "slug": "vernon"}, "source_identifier": "1831", "external_references": [{"id": 35039, "source": {"name": "Wikidata", "slug": "wikidata"}, "source_identifier": "Q107640222"}], "date_modified": "2025-03-05T11:31:09.033953+11:00"}, {"id": 6829, "name": "Cate Shortland", "roles_in_work": [{"id": 2640321, "title": "Joy", "work_id": 114250, "role": "director", "role_id": 938, "is_primary": true}, {"id": 2748681, "title": "Joy", "work_id": 108403, "role": "director", "role_id": 938, "is_primary": true}, {"id": 2194346, "title": "Pentuphouse", "work_id": 90526, "role": "director", "role_id": 938, "is_primary": true}, {"id": 2245213, "title": "Flowergirl", "work_id": 90523, "role": "director", "role_id": 938, "is_primary": true}, {"id": 2619466, "title": "Flowergirl", "work_id": 108618, "role": "director", "role_id": 938, "is_primary": true}, {"id": 2709860, "title": "Pentuphouse", "work_id": 108208, "role": "creator", "role_id": 968, "is_primary": true}, {"id": 2619465, "title": "Flowergirl", "work_id": 108618, "role": "creator", "role_id": 968, "is_primary": true}, {"id": 2619614, "title": "Para para paradise", "work_id": 109217, "role": "creator", "role_id": 968, "is_primary": true}], "also_known_as": "", "date_of_birth": "10 AUG 1968", "date_of_death": "", "genders": [{"id": 5, "name": "Female", "slug": "female"}], "languages": [{"id": 1, "name": "English", "slug": "english"}], "places_of_operation": [{"id": 3, "name": "Australia", "slug": "australia"}], "biography": "Cate Shortland (born 10 August 1968) is an Australian director and screenwriter. She received international acclaim for her 2004 romantic drama film Somersault, her 2012 historical drama film Lore, and her 2017 psychological thriller film Berlin Syndrome. She is best known for directing the 2021 superhero film Black Widow. Source: Wikidata; 01/08/2023", "biography_author": null, "date_of_biography": "2025-03-12T23:05:40.063797+11:00", "external_links": [{"id": 3723, "uri": "https://en.wikipedia.org/wiki/Cate_Shortland"}], "uuid": "4e017d3e-acc5-4365-908d-6600d24924ab", "source": {"name": "Vernon", "slug": "vernon"}, "source_identifier": "111505", "external_references": [{"id": 26603, "source": {"name": "Wikidata", "slug": "wikidata"}, "source_identifier": "Q441510"}, {"id": 27719, "source": {"name": "VIAF", "slug": "viaf"}, "source_identifier": "103268455"}, {"id": 27720, "source": {"name": "LOC Auth", "slug": "loc-auth"}, "source_identifier": "n2008026951"}, {"id": 27721, "source": {"name": "WorldCat", "slug": "worldcat"}, "source_identifier": "lccn-n2008026951"}], "date_modified": "2025-03-12T23:05:40.064066+11:00"}, {"id": 6826, "name": "Gregory Godhard", "roles_in_work": [{"id": 2709846, "title": "Wormholes", "work_id": 108207, "role": "creator", "role_id": 968, "is_primary": true}, {"id": 2710171, "title": "Mind's eye", "work_id": 114034, "role": "creator", "role_id": 968, "is_primary": true}, {"id": 2709848, "title": "Wormholes", "work_id": 108207, "role": "film maker", "role_id": 459, "is_primary": false}], "also_known_as": "", "date_of_birth": "", "date_of_death": "", "genders": [], "languages": [], "places_of_operation": [], "biography": "", "biography_author": null, "date_of_biography": "2023-08-11T19:50:03.679624+10:00", "external_links": [], "uuid": "c1de4f22-cd09-4214-b28c-cb32f4ec9a5a", "source": {"name": "Vernon", "slug": "vernon"}, "source_identifier": "110836", "external_references": [], "date_modified": "2025-03-11T23:24:41.681159+11:00"}, {"id": 6824, "name": "Bill Seaman", "roles_in_work": [{"id": 2709835, "title": "The Water catalogue", "work_id": 108205, "role": "creator", "role_id": 968, "is_primary": true}], "also_known_as": "", "date_of_birth": null, "date_of_death": null, "genders": [], "languages": [], "places_of_operation": [], "biography": "", "biography_author": null, "date_of_biography": null, "external_links": [], "uuid": "e4a43fe1-041b-428f-9533-7ad5607a52e0", "source": {"name": "Vernon", "slug": "vernon"}, "source_identifier": "110702", "external_references": [], "date_modified": "2025-03-11T23:09:56.246226+11:00"}, {"id": 6818, "name": "Peter Fischli", "roles_in_work": [{"id": 2709826, "title": "The Way things go", "work_id": 108204, "role": "creator", "role_id": 968, "is_primary": true}, {"id": 2709828, "title": "The Way things go", "work_id": 108204, "role": "director", "role_id": 938, "is_primary": true}, {"id": 2709824, "title": "The Way things go", "work_id": 108204, "role": "writer", "role_id": 939, "is_primary": true}], "also_known_as": "", "date_of_birth": "1952", "date_of_death": "", "genders": [{"id": 9, "name": "Male", "slug": "male"}], "languages": [], "places_of_operation": [], "biography": "Swiss artists Peter Fischli and David Weiss have collaborated on kinetic installations since 1979. Their exhibitions include: Fischli/Weiss: Unsettled Work, Kestner Gesellschaft, Hannover; 50th Venice Biennale\n(2003); Museum Boijmans Van Beuningen Rotterdam, The Netherlands (2003); Fragen Projektion, Museum Ludwig, Cologne (2002); Fischli & Weiss. Mundo visivel, Museu de Arte Contemporânea de Serralves, Porto, Portugal (2001); Sicht Bare Welt (Visible World), Yokohama Triennale, Yokohama, Japan (2001); ARC 1999, Musee d'Art Moderne de la Ville de Paris, Paris, France (1999); Freie Sicht aufs Mittelmeer, Junge Scheizer Kunst mit Gasten und Galtmahl, Kunsthaus Zurich (1998); Eight People from Europe, Museum of Modern Art, Gumma, Japan (1998); Gwangju Biennale, Gwangju, Korea (1997); Documenta X, Kassel, Germany (1997); and Peter Fischli and David Weiss: In a Restless World, San Francisco Museum of Modern Art, San Francisco (1996).", "biography_author": null, "date_of_biography": "2025-03-11T23:09:49.604858+11:00", "external_links": [], "uuid": "e78d129f-8996-4788-a8c1-947d99c7cb21", "source": {"name": "Vernon", "slug": "vernon"}, "source_identifier": "110704", "external_references": [], "date_modified": "2025-03-11T23:09:49.605087+11:00"}, {"id": 6817, "name": "David Weiss", "roles_in_work": [{"id": 2709819, "title": "The Way things go", "work_id": 108204, "role": "creator", "role_id": 968, "is_primary": true}, {"id": 2709820, "title": "The Way things go", "work_id": 108204, "role": "director", "role_id": 938, "is_primary": true}, {"id": 2709822, "title": "The Way things go", "work_id": 108204, "role": "writer", "role_id": 939, "is_primary": true}], "also_known_as": "", "date_of_birth": "1946", "date_of_death": "", "genders": [{"id": 9, "name": "Male", "slug": "male"}], "languages": [], "places_of_operation": [], "biography": "Swiss artists Peter Fischli and David Weiss have collaborated on kinetic installations since 1979. Their exhibitions include: Fischli/Weiss: Unsettled Work, Kestner Gesellschaft, Hannover; 50th Venice Biennale\n(2003); Museum Boijmans Van Beuningen Rotterdam, The Netherlands (2003); Fragen Projektion, Museum Ludwig, Cologne (2002); Fischli & Weiss. Mundo visivel, Museu de Arte Contemporânea de Serralves, Porto, Portugal (2001); Sicht Bare Welt (Visible World), Yokohama Triennale, Yokohama, Japan (2001); ARC 1999, Musee d'Art Moderne de la Ville de Paris, Paris, France (1999); Freie Sicht aufs Mittelmeer, Junge Scheizer Kunst mit Gasten und Galtmahl, Kunsthaus Zurich (1998); Eight People from Europe, Museum of Modern Art, Gumma, Japan (1998); Gwangju Biennale, Gwangju, Korea (1997); Documenta X, Kassel, Germany (1997); and Peter Fischli and David Weiss: In a Restless World, San Francisco Museum of Modern Art, San Francisco (1996).", "biography_author": null, "date_of_biography": "2025-03-11T23:09:47.487223+11:00", "external_links": [], "uuid": "1ca7123e-4388-47f8-b249-2ad110c6b476", "source": {"name": "Vernon", "slug": "vernon"}, "source_identifier": "110703", "external_references": [], "date_modified": "2025-03-11T23:09:47.487452+11:00"}, {"id": 6816, "name": "Frank Scheffer", "roles_in_work": [{"id": 2709810, "title": "Music for airports", "work_id": 108203, "role": "creator", "role_id": 968, "is_primary": true}], "also_known_as": "", "date_of_birth": null, "date_of_death": null, "genders": [], "languages": [], "places_of_operation": [], "biography": "biography:\nFrank Scheffer (1956, Venlo) studied at the Academy for Industrial Design in Eindhoven, at the Dutch Film and Television Academy and attended a course in experimental film given by Frans Zwartjes. His work expresses a fascination with the relationship between music and image. (Rotterdam film festival site)", "biography_author": null, "date_of_biography": "2025-03-11T23:09:39.820510+11:00", "external_links": [], "uuid": "ed6d2c52-3272-435b-bf4f-07bf924a9949", "source": {"name": "Vernon", "slug": "vernon"}, "source_identifier": "111651", "external_references": [], "date_modified": "2025-03-11T23:09:39.820874+11:00"}]}