{"count": 28687, "next": "https://api.acmi.net.au/creators/?page=1577", "previous": "https://api.acmi.net.au/creators/?page=1575", "results": [{"id": 31653, "name": "Charles Waterstreet", "roles_in_work": [{"id": 2120978, "title": "Blood oath = Prisoners of the sun [DVD]", "work_id": 93189, "role": "co-producer", "role_id": 915, "is_primary": true}, {"id": 2120975, "title": "Blood oath = Prisoners of the sun [DVD]", "work_id": 93189, "role": "production company", "role_id": 941, "is_primary": true}], "also_known_as": "", "date_of_birth": "1950-07-17", "date_of_death": null, "genders": [{"id": 9, "name": "Male", "slug": "male"}], "languages": [{"id": 1, "name": "English", "slug": "english"}], "places_of_operation": [{"id": 3, "name": "Australia", "slug": "australia"}], "biography": "Charles Christian Waterstreet (born 17 July 1950) is an Australian former barrister, author, and theatre and film producer. He has written two memoirs and produced two films, and he is now a columnist for The Sydney Morning Herald after the NSW Bar Association cancelled his practising certificate. He is known as one of the co-creators of the ABC Television series Rake. However, co-creator and actor Richard Roxburgh asserted in 2017 that Waterstreet had only contributed one idea to a single episode.", "biography_author": "Wikidata", "date_of_biography": "2022-05-19T11:04:09.425664+10:00", "external_links": [{"id": 1805, "uri": "https://en.wikipedia.org/wiki/Charles_Waterstreet"}], "uuid": "69701817-50b4-4703-9b7f-5d3540cf0535", "source": {"name": "Vernon", "slug": "vernon"}, "source_identifier": "16744", "external_references": [{"id": 7861, "source": {"name": "Wikidata", "slug": "wikidata"}, "source_identifier": "Q5083384"}], "date_modified": "2023-09-13T12:28:41.980072+10:00"}, {"id": 31652, "name": "Paul Field", "roles_in_work": [{"id": 1808009, "title": "The Wiggles: Wiggle Bay", "work_id": 93938, "role": "producer", "role_id": 1089, "is_primary": true}, {"id": 2130017, "title": "Captain Feathersword the friendly pirate", "work_id": 89714, "role": "producer", "role_id": 1089, "is_primary": true}], "also_known_as": "", "date_of_birth": "1961-05-03", "date_of_death": null, "genders": [{"id": 9, "name": "Male", "slug": "male"}], "languages": [], "places_of_operation": [{"id": 3, "name": "Australia", "slug": "australia"}], "biography": "Paul James Field  (born 3 May 1961) is an Australian musician, filmmaker and author. He is best known as one of the founding members of the Sydney pub rock band The Cockroaches and The Field Brothers and as Managing Director for the children's music group The Wiggles.", "biography_author": "Wikidata", "date_of_biography": "2022-05-19T12:39:22.903101+10:00", "external_links": [{"id": 2826, "uri": "https://en.wikipedia.org/wiki/Paul_Field_(musician)"}], "uuid": "cdbb5bff-7e1c-48e4-85d3-de9be4d4594f", "source": {"name": "Vernon", "slug": "vernon"}, "source_identifier": "26222", "external_references": [{"id": 12033, "source": {"name": "Wikidata", "slug": "wikidata"}, "source_identifier": "Q7150626"}, {"id": 12034, "source": {"name": "VIAF", "slug": "viaf"}, "source_identifier": "129426854"}, {"id": 12035, "source": {"name": "WorldCat", "slug": "worldcat"}, "source_identifier": "lccn-no2010108887"}], "date_modified": "2023-09-13T12:31:46.003553+10:00"}, {"id": 31646, "name": "Jeremy Stanford", "roles_in_work": [{"id": 803498, "title": "Wednesdays [Widescreen]", "work_id": 89708, "role": "director", "role_id": 938, "is_primary": true}], "also_known_as": "", "date_of_birth": null, "date_of_death": null, "genders": [{"id": 9, "name": "Male", "slug": "male"}], "languages": [], "places_of_operation": [{"id": 3, "name": "Australia", "slug": "australia"}], "biography": "Jeremy Stanford is an Australian actor and director, known for his role of Tick/Mitzi in the initial stage run of the musical Priscilla, Queen of the Desert.\n\n", "biography_author": "Wikidata", "date_of_biography": "2023-08-01T15:30:07.434994+10:00", "external_links": [{"id": 4321, "uri": "https://en.wikipedia.org/wiki/Jeremy_Stanford"}], "uuid": "2b2cfd36-645d-40f1-933c-07bda97cd85c", "source": {"name": "Vernon", "slug": "vernon"}, "source_identifier": "21757", "external_references": [{"id": 26571, "source": {"name": "Wikidata", "slug": "wikidata"}, "source_identifier": "Q19366415"}], "date_modified": "2023-09-13T12:30:24.203659+10:00"}, {"id": 31645, "name": "Canadian Pacific Railway", "roles_in_work": [{"id": 2412787, "title": "Jackpine journey", "work_id": 89705, "role": "production company", "role_id": 941, "is_primary": true}], "also_known_as": "", "date_of_birth": "", "date_of_death": "", "genders": [], "languages": [], "places_of_operation": [], "biography": "", "biography_author": null, "date_of_biography": "2023-08-11T18:45:40.425354+10:00", "external_links": [], "uuid": "4bf72c46-6fc5-4067-880d-03901b52516e", "source": {"name": "Vernon", "slug": "vernon"}, "source_identifier": "6252", "external_references": [], "date_modified": "2023-08-11T18:45:40.425578+10:00"}, {"id": 31643, "name": "Victorian Road Safety Division", "roles_in_work": [{"id": 2409914, "title": "How it happens", "work_id": 89701, "role": "production company", "role_id": 941, "is_primary": true}], "also_known_as": "", "date_of_birth": "", "date_of_death": "", "genders": [], "languages": [], "places_of_operation": [], "biography": "", "biography_author": null, "date_of_biography": "2023-08-11T17:31:50.415738+10:00", "external_links": [], "uuid": "d331cb65-2681-4e52-a31e-3fcf846a01b7", "source": {"name": "Vernon", "slug": "vernon"}, "source_identifier": "14080", "external_references": [], "date_modified": "2023-08-11T17:31:50.415984+10:00"}, {"id": 31641, "name": "Desmond Dickinson", "roles_in_work": [{"id": 875863, "title": "A Modern miracle", "work_id": 89697, "role": "director", "role_id": 938, "is_primary": true}], "also_known_as": "", "date_of_birth": null, "date_of_death": null, "genders": [], "languages": [], "places_of_operation": [], "biography": "", "biography_author": null, "date_of_biography": null, "external_links": [], "uuid": "fc6fda93-f510-4fa4-a5c9-101a3d4dd8e9", "source": {"name": "Vernon", "slug": "vernon"}, "source_identifier": "18060", "external_references": [{"id": 40677, "source": {"name": "Wikidata", "slug": "wikidata"}, "source_identifier": "Q120518202"}], "date_modified": "2023-09-13T12:29:05.008971+10:00"}, {"id": 31637, "name": "L.V. Hudson", "roles_in_work": [{"id": 2469487, "title": "Twelve flags south", "work_id": 89692, "role": "director", "role_id": 938, "is_primary": true}], "also_known_as": "", "date_of_birth": "", "date_of_death": "", "genders": [], "languages": [], "places_of_operation": [], "biography": "", "biography_author": null, "date_of_biography": "2023-08-14T12:02:09.977004+10:00", "external_links": [], "uuid": "d4ead196-849b-47ed-baa5-15e8161ba74d", "source": {"name": "Vernon", "slug": "vernon"}, "source_identifier": "23449", "external_references": [], "date_modified": "2023-08-14T12:02:09.977336+10:00"}, {"id": 31636, "name": "W.K. Fraser", "roles_in_work": [{"id": 2469486, "title": "Twelve flags south", "work_id": 89692, "role": "producer", "role_id": 1089, "is_primary": true}], "also_known_as": "", "date_of_birth": "", "date_of_death": "", "genders": [], "languages": [], "places_of_operation": [], "biography": "", "biography_author": null, "date_of_biography": "2023-08-14T12:02:09.372476+10:00", "external_links": [], "uuid": "5f64c9bb-144d-404a-b91c-67d45c6e7483", "source": {"name": "Vernon", "slug": "vernon"}, "source_identifier": "30203", "external_references": [], "date_modified": "2023-08-14T12:02:09.372709+10:00"}, {"id": 31633, "name": "Parthian Productions", "roles_in_work": [{"id": 875880, "title": "Muffin's French visitor", "work_id": 89706, "role": "production company", "role_id": 941, "is_primary": true}, {"id": 875845, "title": "Muffin's surprise", "work_id": 89689, "role": "production company", "role_id": 941, "is_primary": true}, {"id": 2463734, "title": "Muffin by helicopter", "work_id": 91671, "role": "production company", "role_id": 941, "is_primary": true}, {"id": 2463735, "title": "Muffin the mule", "work_id": 90671, "role": "production company", "role_id": 941, "is_primary": true}], "also_known_as": "", "date_of_birth": "", "date_of_death": "", "genders": [], "languages": [], "places_of_operation": [], "biography": "", "biography_author": null, "date_of_biography": "2023-08-14T09:56:58.543176+10:00", "external_links": [], "uuid": "387031e6-3ea2-4f0f-91e6-50a7139c9825", "source": {"name": "Vernon", "slug": "vernon"}, "source_identifier": "11311", "external_references": [], "date_modified": "2023-08-14T09:56:58.543448+10:00"}, {"id": 31632, "name": "Jan Bussell", "roles_in_work": [{"id": 2406132, "title": "Dick Muffin special agent", "work_id": 89688, "role": "director", "role_id": 938, "is_primary": true}, {"id": 875846, "title": "Muffin's surprise", "work_id": 89689, "role": "director", "role_id": 938, "is_primary": true}, {"id": 875881, "title": "Muffin's French visitor", "work_id": 89706, "role": "director", "role_id": 938, "is_primary": true}], "also_known_as": "", "date_of_birth": "", "date_of_death": "", "genders": [], "languages": [], "places_of_operation": [], "biography": "", "biography_author": null, "date_of_biography": "2023-08-11T16:07:13.122382+10:00", "external_links": [], "uuid": "ebe4baa2-d21f-44c1-a898-4c385bbc6dfd", "source": {"name": "Vernon", "slug": "vernon"}, "source_identifier": "21361", "external_references": [], "date_modified": "2023-08-11T16:07:13.122600+10:00"}]}