{"count": 28682, "next": "https://api.acmi.net.au/creators/?page=1464", "previous": "https://api.acmi.net.au/creators/?page=1462", "results": [{"id": 35115, "name": "Harry R Sherman", "roles_in_work": [{"id": 2350326, "title": "The Gathering", "work_id": 93381, "role": "producer", "role_id": 1089, "is_primary": true}], "also_known_as": "", "date_of_birth": "", "date_of_death": "", "genders": [], "languages": [], "places_of_operation": [], "biography": "", "biography_author": null, "date_of_biography": "2023-05-09T19:54:57.309488+10:00", "external_links": [], "uuid": "6e2b222f-63bb-41b7-a5f5-373dbf7fc23a", "source": {"name": "Vernon", "slug": "vernon"}, "source_identifier": "20339", "external_references": [{"id": 43587, "source": {"name": "Wikidata", "slug": "wikidata"}, "source_identifier": "Q121298745"}], "date_modified": "2023-09-05T20:31:26.115299+10:00"}, {"id": 35113, "name": "Robert Enders", "roles_in_work": [{"id": 3086665, "title": "The Maids", "work_id": 95066, "role": "producer", "role_id": 1089, "is_primary": true}, {"id": 2311220, "title": "Stevie", "work_id": 93378, "role": "producer/director", "role_id": 31, "is_primary": true}], "also_known_as": "", "date_of_birth": "22 SEP 1899", "date_of_death": "25 JAN 1988", "genders": [{"id": 9, "name": "Male", "slug": "male"}], "languages": [], "places_of_operation": [{"id": 1, "name": "United States of America", "slug": "united-states-of-america"}], "biography": "Robert Kendall Enders (September 22, 1899  –January 25, 1988) was an American zoologist.\n\nBorn in the small Iowa city of Essex, Enders attended the University of Michigan where he majored in zoology, earning an A.B. in 1925 and a Ph.D. in 1927. His first posting was as assistant professor of biology at Union College and, the following year, at Missouri Valley College. In 1932, Dr. Enders joined the Swarthmore College faculty as an assistant professor and became chairman of the biology department in 1946. He retired in 1970. During 1932 year he visited Barro Colorado Island, where he had his research station in the Panama Canal Zone. He then visited the island again as a member of the Academy of Natural Sciences of Philadelphia. After that, he continued to visit the research station periodically. He was an Emeritus Professor of Zoology at Swarthmore College in 1966 as well. Dr. Enders served as director of the Rocky Mountain Biological Laboratory in Gothic, Colorado, during the summers of 1958 through 1969.Robert K. Enders died in Swarthmore at the age of 88. He and his wife Abbie were the parents of a daughter, Gertrude, and a son, Allen. Source: Wikidata; 01/08/2023", "biography_author": null, "date_of_biography": "2025-03-17T10:45:22.502027+11:00", "external_links": [{"id": 5013, "uri": "https://en.wikipedia.org/wiki/Robert_K._Enders"}], "uuid": "778a94bb-549f-4aae-8a3a-359c53522be9", "source": {"name": "Vernon", "slug": "vernon"}, "source_identifier": "27712", "external_references": [{"id": 26446, "source": {"name": "Wikidata", "slug": "wikidata"}, "source_identifier": "Q7344086"}, {"id": 31147, "source": {"name": "VIAF", "slug": "viaf"}, "source_identifier": "269301647"}, {"id": 31148, "source": {"name": "LOC Auth", "slug": "loc-auth"}, "source_identifier": "n87870503"}, {"id": 31149, "source": {"name": "WorldCat", "slug": "worldcat"}, "source_identifier": "lccn-n87870503"}], "date_modified": "2025-03-17T10:45:22.502351+11:00"}, {"id": 35112, "name": "Bowden Productions", "roles_in_work": [{"id": 2311218, "title": "Stevie", "work_id": 93378, "role": "production company", "role_id": 941, "is_primary": true}], "also_known_as": "", "date_of_birth": "", "date_of_death": "", "genders": [], "languages": [], "places_of_operation": [], "biography": "", "biography_author": null, "date_of_biography": "2023-05-09T18:57:12.559278+10:00", "external_links": [], "uuid": "b069757a-92cb-44f6-87f6-4055b5dcd4cf", "source": {"name": "Vernon", "slug": "vernon"}, "source_identifier": "5955", "external_references": [{"id": 37942, "source": {"name": "Wikidata", "slug": "wikidata"}, "source_identifier": "Q121079338"}], "date_modified": "2023-09-05T18:08:43.929649+10:00"}, {"id": 35104, "name": "Masayuki Suo", "roles_in_work": [{"id": 2317010, "title": "Sumo do, Sumo don't = Shiko funjatta", "work_id": 93747, "role": "director", "role_id": 938, "is_primary": true}, {"id": 2296754, "title": "Shall we dance?", "work_id": 93374, "role": "director", "role_id": 938, "is_primary": true}], "also_known_as": "", "date_of_birth": "1956-10-29", "date_of_death": null, "genders": [{"id": 9, "name": "Male", "slug": "male"}], "languages": [{"id": 2, "name": "Japanese", "slug": "japanese"}], "places_of_operation": [{"id": 8, "name": "Japan", "slug": "japan"}], "biography": "Masayuki Suo (周防 正行, Suo Masayuki, born October 29, 1956) is a Japanese film director. He is best known for his two Japan Academy Prize-winning films, 1992's Sumo Do, Sumo Don't and 1996's Shall We Dance?.", "biography_author": "Wikidata", "date_of_biography": "2022-05-19T12:25:26.848456+10:00", "external_links": [{"id": 2672, "uri": "https://en.wikipedia.org/wiki/Masayuki_Suo"}], "uuid": "87805bd2-3f0c-4b42-b91b-510067ef721a", "source": {"name": "Vernon", "slug": "vernon"}, "source_identifier": "24763", "external_references": [{"id": 11413, "source": {"name": "Wikidata", "slug": "wikidata"}, "source_identifier": "Q1073993"}, {"id": 11414, "source": {"name": "VIAF", "slug": "viaf"}, "source_identifier": "115224238"}, {"id": 11415, "source": {"name": "LOC Auth", "slug": "loc-auth"}, "source_identifier": "no99082489"}, {"id": 11416, "source": {"name": "WorldCat", "slug": "worldcat"}, "source_identifier": "lccn-no99082489"}], "date_modified": "2023-09-13T12:31:18.907248+10:00"}, {"id": 35100, "name": "Hakuhodo", "roles_in_work": [{"id": 2296735, "title": "Shall we dance?", "work_id": 93374, "role": "production company", "role_id": 941, "is_primary": true}], "also_known_as": "", "date_of_birth": "", "date_of_death": "", "genders": [], "languages": [], "places_of_operation": [], "biography": "", "biography_author": null, "date_of_biography": "2023-05-09T18:28:51.853468+10:00", "external_links": [], "uuid": "42c536b1-eb3e-4ce9-b455-d7650e05fe34", "source": {"name": "Vernon", "slug": "vernon"}, "source_identifier": "8961", "external_references": [{"id": 38996, "source": {"name": "Wikidata", "slug": "wikidata"}, "source_identifier": "Q121337487"}], "date_modified": "2023-09-05T20:26:54.748365+10:00"}, {"id": 35099, "name": "Altamira Pictures", "roles_in_work": [{"id": 2296728, "title": "Shall we dance?", "work_id": 93374, "role": "production company", "role_id": 941, "is_primary": true}], "also_known_as": "", "date_of_birth": "", "date_of_death": "", "genders": [], "languages": [], "places_of_operation": [], "biography": "Altamira Pictures, Inc. is a Japanese film studio established by two producers, Shoji Masui and Yuji Ogata, two directors, Masayuki Suo and Itsumichi Isomura.\nThe studio produced independent films for small theater, and became smash hitter to create films such as \"Water Boys\", \"Swing Girls\" by collaborating with major film distributing company and television networks.\nThe studio was a launching pad for new stars such as Satoshi Tsumabuki and Hiroshi Tamaki in Water Boys, Juri Ueno and Yuika Motokariya in Swing Girls.\nAltamira Music is its music arm which manages musicians such as The Golden Cups.", "biography_author": "Wikidata", "date_of_biography": "2023-09-05T17:30:36.562532+10:00", "external_links": [{"id": 5669, "uri": "https://en.wikipedia.org/wiki/Altamira_Pictures"}], "uuid": "8eee6f99-2b48-4cc5-b931-f12db24fc9e1", "source": {"name": "Vernon", "slug": "vernon"}, "source_identifier": "5164", "external_references": [{"id": 50825, "source": {"name": "Wikidata", "slug": "wikidata"}, "source_identifier": "Q17192176"}, {"id": 53932, "source": {"name": "VIAF", "slug": "viaf"}, "source_identifier": "142163342"}, {"id": 53933, "source": {"name": "LOC Auth", "slug": "loc-auth"}, "source_identifier": "no00002348"}, {"id": 53934, "source": {"name": "WorldCat", "slug": "worldcat"}, "source_identifier": "lccn-no00002348"}], "date_modified": "2023-09-05T17:30:36.584101+10:00"}, {"id": 35097, "name": "Cassian Harrison", "roles_in_work": [{"id": 2234010, "title": "Martin Luther", "work_id": 94254, "role": "co-producer", "role_id": 915, "is_primary": true}, {"id": 2234014, "title": "Martin Luther", "work_id": 94254, "role": "director", "role_id": 938, "is_primary": true}, {"id": 2760800, "title": "Beneath the veil (D)", "work_id": 93372, "role": "producer/director", "role_id": 31, "is_primary": true}, {"id": 2234154, "title": "The Greeks: crucible of civilization", "work_id": 94252, "role": "producer/director", "role_id": 31, "is_primary": true}], "also_known_as": "", "date_of_birth": "", "date_of_death": "", "genders": [{"id": 9, "name": "Male", "slug": "male"}], "languages": [], "places_of_operation": [], "biography": "", "biography_author": null, "date_of_biography": "2023-05-09T19:32:04.012388+10:00", "external_links": [], "uuid": "da2263cf-e074-40d8-ad30-c3c99247cf08", "source": {"name": "Vernon", "slug": "vernon"}, "source_identifier": "16579", "external_references": [{"id": 35353, "source": {"name": "Wikidata", "slug": "wikidata"}, "source_identifier": "Q107274587"}, {"id": 54163, "source": {"name": "VIAF", "slug": "viaf"}, "source_identifier": "306412244"}], "date_modified": "2025-03-14T17:28:25.096318+11:00"}, {"id": 35093, "name": "DRS", "roles_in_work": [{"id": 2476400, "title": "Yol", "work_id": 93371, "role": "production company", "role_id": 941, "is_primary": true}], "also_known_as": "", "date_of_birth": "", "date_of_death": "", "genders": [], "languages": [], "places_of_operation": [], "biography": "", "biography_author": null, "date_of_biography": "2023-08-17T15:36:12.222128+10:00", "external_links": [], "uuid": "d08105e7-9dc3-4d73-a86e-889df7e97ee8", "source": {"name": "Vernon", "slug": "vernon"}, "source_identifier": "7672", "external_references": [], "date_modified": "2023-08-17T15:36:12.222425+10:00"}, {"id": 35092, "name": "Schweizer Fernselen", "roles_in_work": [{"id": 2476399, "title": "Yol", "work_id": 93371, "role": "production company", "role_id": 941, "is_primary": true}], "also_known_as": "", "date_of_birth": "", "date_of_death": "", "genders": [], "languages": [], "places_of_operation": [], "biography": "", "biography_author": null, "date_of_biography": "2023-08-17T15:36:11.489288+10:00", "external_links": [], "uuid": "1495cdfe-6c44-4e7c-a661-74ae8da57fe7", "source": {"name": "Vernon", "slug": "vernon"}, "source_identifier": "12340", "external_references": [], "date_modified": "2023-08-17T15:36:11.489519+10:00"}, {"id": 35091, "name": "Guney Film", "roles_in_work": [{"id": 2650334, "title": "Suru = The Herd", "work_id": 115652, "role": "production company", "role_id": 941, "is_primary": true}, {"id": 2476397, "title": "Yol", "work_id": 93371, "role": "production company", "role_id": 941, "is_primary": true}], "also_known_as": "", "date_of_birth": "", "date_of_death": "", "genders": [], "languages": [], "places_of_operation": [], "biography": "", "biography_author": null, "date_of_biography": "2023-08-17T15:36:10.229134+10:00", "external_links": [], "uuid": "b927466c-8aad-47a9-8dcb-c179198d1566", "source": {"name": "Vernon", "slug": "vernon"}, "source_identifier": "8940", "external_references": [{"id": 40157, "source": {"name": "Wikidata", "slug": "wikidata"}, "source_identifier": "Q121299432"}], "date_modified": "2025-03-05T14:15:15.033932+11:00"}]}