{"count": 28687, "next": "https://api.acmi.net.au/creators/?page=1785", "previous": "https://api.acmi.net.au/creators/?page=1783", "results": [{"id": 26729, "name": "Sue Crowther", "roles_in_work": [{"id": 2791592, "title": "The Weapon of choice", "work_id": 84843, "role": "producer", "role_id": 1089, "is_primary": true}], "also_known_as": "", "date_of_birth": "", "date_of_death": "", "genders": [], "languages": [], "places_of_operation": [], "biography": "", "biography_author": null, "date_of_biography": "2023-05-09T14:50:23.198850+10:00", "external_links": [], "uuid": "3d0012cd-1511-4c14-93ba-0d036f8d999f", "source": {"name": "Vernon", "slug": "vernon"}, "source_identifier": "29283", "external_references": [{"id": 39866, "source": {"name": "Wikidata", "slug": "wikidata"}, "source_identifier": "Q121315021"}], "date_modified": "2025-03-14T20:03:39.363120+11:00"}, {"id": 26726, "name": "Charlie Hemming", "roles_in_work": [{"id": 2466655, "title": "The Big green disc", "work_id": 84840, "role": "director", "role_id": 938, "is_primary": true}], "also_known_as": "", "date_of_birth": "", "date_of_death": "", "genders": [], "languages": [], "places_of_operation": [], "biography": "", "biography_author": null, "date_of_biography": "2023-08-14T11:02:26.473367+10:00", "external_links": [], "uuid": "7bb47af3-6507-48f8-8fdf-ea67b943474e", "source": {"name": "Vernon", "slug": "vernon"}, "source_identifier": "16747", "external_references": [], "date_modified": "2023-08-14T11:02:26.473675+10:00"}, {"id": 26725, "name": "Phillip Nash", "roles_in_work": [{"id": 2466654, "title": "The Big green disc", "work_id": 84840, "role": "producer", "role_id": 1089, "is_primary": true}], "also_known_as": "", "date_of_birth": "", "date_of_death": "", "genders": [], "languages": [], "places_of_operation": [], "biography": "", "biography_author": null, "date_of_biography": "2023-08-14T11:02:25.825412+10:00", "external_links": [], "uuid": "37490609-06f2-454a-bed9-75101334a5a0", "source": {"name": "Vernon", "slug": "vernon"}, "source_identifier": "26885", "external_references": [], "date_modified": "2023-08-14T11:02:25.825668+10:00"}, {"id": 26724, "name": "Media Design Interactive", "roles_in_work": [{"id": 2466653, "title": "The Big green disc", "work_id": 84840, "role": "production company", "role_id": 941, "is_primary": true}], "also_known_as": "", "date_of_birth": "", "date_of_death": "", "genders": [], "languages": [], "places_of_operation": [], "biography": "", "biography_author": null, "date_of_biography": "2023-08-14T11:02:25.198486+10:00", "external_links": [], "uuid": "dc2ea852-2a39-4d38-83f1-ff209f6a60fd", "source": {"name": "Vernon", "slug": "vernon"}, "source_identifier": "110562", "external_references": [], "date_modified": "2023-08-14T11:02:25.198809+10:00"}, {"id": 26723, "name": "Interactive Design Group, Board of Studies NSW", "roles_in_work": [{"id": 2471298, "title": "Way back when (MAC)", "work_id": 84839, "role": "production company", "role_id": 941, "is_primary": true}], "also_known_as": "", "date_of_birth": "", "date_of_death": "", "genders": [], "languages": [], "places_of_operation": [], "biography": "", "biography_author": null, "date_of_biography": "2023-08-14T12:36:30.387196+10:00", "external_links": [], "uuid": "f25cde03-c1be-44ba-859f-56ad56202230", "source": {"name": "Vernon", "slug": "vernon"}, "source_identifier": "9341", "external_references": [], "date_modified": "2023-08-14T12:36:30.387483+10:00"}, {"id": 26722, "name": "Michael Hollander", "roles_in_work": [{"id": 2791636, "title": "Photography: an introduction", "work_id": 115421, "role": "producer", "role_id": 1089, "is_primary": true}, {"id": 2791624, "title": "Photography around us", "work_id": 84821, "role": "producer", "role_id": 1089, "is_primary": true}, {"id": 2791628, "title": "Studio and Location", "work_id": 84823, "role": "producer", "role_id": 1089, "is_primary": true}, {"id": 2791632, "title": "Photography in science", "work_id": 84824, "role": "producer", "role_id": 1089, "is_primary": true}, {"id": 2791657, "title": "Looking up down under", "work_id": 84838, "role": "producer", "role_id": 1089, "is_primary": true}, {"id": 2791663, "title": "Australia and the stars", "work_id": 84834, "role": "producer", "role_id": 1089, "is_primary": true}, {"id": 2791668, "title": "A Watch on the southern sky", "work_id": 84836, "role": "producer", "role_id": 1089, "is_primary": true}, {"id": 2791672, "title": "Astronomy: an Open Learning unit", "work_id": 115422, "role": "producer", "role_id": 1089, "is_primary": true}], "also_known_as": "", "date_of_birth": "", "date_of_death": "", "genders": [], "languages": [], "places_of_operation": [], "biography": "", "biography_author": null, "date_of_biography": "2023-05-09T15:32:44.132350+10:00", "external_links": [], "uuid": "ef5ce6c5-867c-4a28-a8a1-bfcc0114ecaa", "source": {"name": "Vernon", "slug": "vernon"}, "source_identifier": "25271", "external_references": [{"id": 35219, "source": {"name": "Wikidata", "slug": "wikidata"}, "source_identifier": "Q121160073"}], "date_modified": "2025-03-14T20:04:11.972800+11:00"}, {"id": 26720, "name": "Council for Aboriginal Reconciliation", "roles_in_work": [{"id": 2526209, "title": "3-in-1: the path to reconciliation", "work_id": 86693, "role": "production company", "role_id": 941, "is_primary": true}, {"id": 1931939, "title": "Walking together; Talkin' business; Making things right", "work_id": 84817, "role": "production company", "role_id": 941, "is_primary": true}], "also_known_as": "", "date_of_birth": "1991", "date_of_death": "2000", "genders": [], "languages": [], "places_of_operation": [], "biography": "", "biography_author": null, "date_of_biography": "2023-08-11T12:44:32.125704+10:00", "external_links": [], "uuid": "89d1a54e-0b0f-43b4-9c87-25e9a4ef6828", "source": {"name": "Vernon", "slug": "vernon"}, "source_identifier": "7106", "external_references": [], "date_modified": "2024-07-17T03:35:00.757640+10:00"}, {"id": 26718, "name": "Glenn Jordan", "roles_in_work": [{"id": 2750199, "title": "A Miserable merry Christmas", "work_id": 97187, "role": "director", "role_id": 938, "is_primary": true}, {"id": 2177209, "title": "Only when I laugh", "work_id": 84811, "role": "director", "role_id": 938, "is_primary": true}, {"id": 2154752, "title": "Miserables", "work_id": 85906, "role": "director", "role_id": 938, "is_primary": true}, {"id": 2262290, "title": "Sarah plain and tall", "work_id": 87002, "role": "producer/director", "role_id": 31, "is_primary": true}], "also_known_as": "", "date_of_birth": "05 APR 1936", "date_of_death": "", "genders": [{"id": 9, "name": "Male", "slug": "male"}], "languages": [{"id": 1, "name": "English", "slug": "english"}], "places_of_operation": [{"id": 1, "name": "United States of America", "slug": "united-states-of-america"}], "biography": "Glenn Jordan (born April 5, 1936) is a retired American television director and producer.\n\nBorn in San Antonio, Texas, Jordan directed multiple episodes of Family and helmed numerous television movies, several based on real persons as diverse as Benjamin Franklin, George Armstrong Custer, Lucille Ball, Christa McAuliffe, and Karen Ann Quinlan. His directing credits include small-screen adaptions of The Picture of Dorian Gray, Les Misérables, Hogan's Goat, Eccentricities of a Nightingale, A Streetcar Named Desire, O Pioneers!, and A Christmas Memory. Additional television directing credits include Heartsounds, Botticelli, Sarah, Plain and Tall, To Dance with the White Dog, Barbarians at the Gate, The Long Way Home, Sarah, Plain and Tall: Winter's End, The Boys, and Jane's House.\n\nJordan directed three feature films: Only When I Laugh, The Buddy System, and Mass Appeal.\n\nJordan was nominated for thirteen Emmy Awards and won four, for producing the miniseries Benjamin Franklin, for producing and directing the Hallmark Hall of Fame production Promise, and for executive producing the HBO production Barbarians at the Gate. He won two New York area Emmys for the PBS series Actor's Choice and New York Television Theatre. He won the Directors Guild of America Award for Outstanding Directorial Achievement in a Dramatic Series for Family and was nominated for Outstanding Directorial Achievement in Specials or Movies for Television for Les Misérables. Three of his productions (Benjamin Franklin, Heartsounds, and Promise) have won Peabody Awards. Source: Wikidata; 01/08/2023", "biography_author": null, "date_of_biography": "2025-03-13T00:16:21.689483+11:00", "external_links": [{"id": 4079, "uri": "https://en.wikipedia.org/wiki/Glenn_Jordan"}], "uuid": "3bb8cf8d-039a-4a77-8e1e-336cc24b8d61", "source": {"name": "Vernon", "slug": "vernon"}, "source_identifier": "19897", "external_references": [{"id": 25684, "source": {"name": "Wikidata", "slug": "wikidata"}, "source_identifier": "Q2904987"}, {"id": 28697, "source": {"name": "VIAF", "slug": "viaf"}, "source_identifier": "36520350"}, {"id": 28698, "source": {"name": "LOC Auth", "slug": "loc-auth"}, "source_identifier": "no97023393"}, {"id": 28699, "source": {"name": "WorldCat", "slug": "worldcat"}, "source_identifier": "lccn-no97023393"}], "date_modified": "2025-03-13T00:16:21.689698+11:00"}, {"id": 26715, "name": "Colubia Pictures Industries", "roles_in_work": [{"id": 2177199, "title": "Only when I laugh", "work_id": 84811, "role": "production company", "role_id": 941, "is_primary": true}], "also_known_as": "", "date_of_birth": "", "date_of_death": "", "genders": [], "languages": [], "places_of_operation": [], "biography": "", "biography_author": null, "date_of_biography": "2023-05-09T14:47:09.882156+10:00", "external_links": [], "uuid": "eafc3335-aed2-4b0b-a1fd-01308eeead7d", "source": {"name": "Vernon", "slug": "vernon"}, "source_identifier": "6897", "external_references": [{"id": 35163, "source": {"name": "Wikidata", "slug": "wikidata"}, "source_identifier": "Q121034278"}], "date_modified": "2023-09-05T18:44:12.346294+10:00"}, {"id": 26714, "name": "Golden Seahorse Productions", "roles_in_work": [{"id": 3097703, "title": "Songlines: contemporary aboriginal music", "work_id": 85101, "role": "production company", "role_id": 941, "is_primary": true}, {"id": 1932318, "title": "Makin pitchas", "work_id": 92695, "role": "production company", "role_id": 941, "is_primary": true}, {"id": 1931934, "title": "When dreaming paths meet", "work_id": 84810, "role": "production company", "role_id": 941, "is_primary": true}, {"id": 3081410, "title": "Harry's War", "work_id": 89138, "role": "production company", "role_id": 941, "is_primary": true}], "also_known_as": "", "date_of_birth": "", "date_of_death": "", "genders": [], "languages": [], "places_of_operation": [], "biography": "", "biography_author": null, "date_of_biography": "2023-05-09T18:38:13.693664+10:00", "external_links": [], "uuid": "4a1bfc01-c7aa-47a9-b6f6-2d3d3f3ee35f", "source": {"name": "Vernon", "slug": "vernon"}, "source_identifier": "3886", "external_references": [{"id": 42263, "source": {"name": "Wikidata", "slug": "wikidata"}, "source_identifier": "Q121298786"}], "date_modified": "2025-05-09T22:35:15.861436+10:00"}]}