{"count": 28687, "next": "https://api.acmi.net.au/creators/?page=1400", "previous": "https://api.acmi.net.au/creators/?page=1398", "results": [{"id": 37037, "name": "Sydney Morning Herald", "roles_in_work": [{"id": 2686460, "title": "Gary Foley outside the Squire Inn, protesting against the Springbok visit to Sydney", "work_id": 100806, "role": "creator", "role_id": 968, "is_primary": true}, {"id": 929651, "title": "Tropfest 2004", "work_id": 94948, "role": "production company", "role_id": 941, "is_primary": true}], "also_known_as": "", "date_of_birth": "", "date_of_death": "", "genders": [], "languages": [], "places_of_operation": [], "biography": "The Sydney Morning Herald (SMH) is a daily tabloid newspaper published in Sydney, New South Wales, Australia, and owned by Nine. Founded in 1831 as the Sydney Herald, the Herald is the oldest continuously published newspaper in Australia and claims to be the most widely-read masthead in the country. The newspaper is published in compact print form from Monday to Saturday as The Sydney Morning Herald and on Sunday as its sister newspaper, The Sun-Herald and digitally as an online site and app, seven days a week. It is considered a newspaper of record for Australia. The print edition of The Sydney Morning Herald is available for purchase from many retail outlets throughout the Sydney metropolitan area, most parts of regional New South Wales, the Australian Capital Territory and South East Queensland.", "biography_author": "Wikidata", "date_of_biography": "2023-09-06T01:39:01.431262+10:00", "external_links": [{"id": 6204, "uri": "https://en.wikipedia.org/wiki/The_Sydney_Morning_Herald"}], "uuid": "9a78dd84-e45f-4a63-ac7c-29ecb2eb9a3b", "source": {"name": "Vernon", "slug": "vernon"}, "source_identifier": "13105", "external_references": [{"id": 35880, "source": {"name": "Wikidata", "slug": "wikidata"}, "source_identifier": "Q390216"}, {"id": 55912, "source": {"name": "VIAF", "slug": "viaf"}, "source_identifier": "268235401"}, {"id": 55913, "source": {"name": "WorldCat", "slug": "worldcat"}, "source_identifier": "viaf-268235401"}], "date_modified": "2025-03-11T12:20:53.770590+11:00"}, {"id": 37033, "name": "Ocean Pictures", "roles_in_work": [{"id": 2354746, "title": "The Honourable Wally Norman", "work_id": 94945, "role": "production company", "role_id": 941, "is_primary": true}], "also_known_as": "", "date_of_birth": "", "date_of_death": "", "genders": [], "languages": [], "places_of_operation": [], "biography": "", "biography_author": null, "date_of_biography": "2023-05-09T20:02:04.959158+10:00", "external_links": [], "uuid": "1a6668a1-5cf7-4f44-9173-0e6188347ff1", "source": {"name": "Vernon", "slug": "vernon"}, "source_identifier": "11074", "external_references": [{"id": 39684, "source": {"name": "Wikidata", "slug": "wikidata"}, "source_identifier": "Q121034503"}], "date_modified": "2023-09-05T23:35:19.373305+10:00"}, {"id": 37017, "name": "Elemental Films", "roles_in_work": [{"id": 2501217, "title": "Lost in translation [DVD]", "work_id": 94939, "role": "production company", "role_id": 941, "is_primary": true}], "also_known_as": "", "date_of_birth": null, "date_of_death": null, "genders": [], "languages": [], "places_of_operation": [], "biography": "", "biography_author": null, "date_of_biography": null, "external_links": [], "uuid": "bbcce798-7f95-41bc-8166-903774184c04", "source": {"name": "Vernon", "slug": "vernon"}, "source_identifier": "7847", "external_references": [], "date_modified": "2023-10-04T04:36:11.349887+11:00"}, {"id": 37008, "name": "China Film Group Corporation", "roles_in_work": [{"id": 2308228, "title": "Springtime in a small town = Xiao cheng zhi chun", "work_id": 95149, "role": "production company", "role_id": 941, "is_primary": true}, {"id": 2278625, "title": "Together [DVD]", "work_id": 94943, "role": "production company", "role_id": 941, "is_primary": true}], "also_known_as": "", "date_of_birth": "", "date_of_death": "", "genders": [], "languages": [], "places_of_operation": [], "biography": "", "biography_author": null, "date_of_biography": "2023-05-09T18:48:19.391036+10:00", "external_links": [], "uuid": "238635f0-c1a1-4817-9d07-87fed9de5c45", "source": {"name": "Vernon", "slug": "vernon"}, "source_identifier": "6586", "external_references": [], "date_modified": "2023-06-14T16:33:30.576250+10:00"}, {"id": 37007, "name": "Big Bang Creative", "roles_in_work": [{"id": 2278620, "title": "Together [DVD]", "work_id": 94943, "role": "production company", "role_id": 941, "is_primary": true}], "also_known_as": "", "date_of_birth": "", "date_of_death": "", "genders": [], "languages": [], "places_of_operation": [], "biography": "", "biography_author": null, "date_of_biography": "2023-05-09T17:56:18.532024+10:00", "external_links": [], "uuid": "3b044846-69e0-4405-8ca9-4d345e0d328f", "source": {"name": "Vernon", "slug": "vernon"}, "source_identifier": "5843", "external_references": [], "date_modified": "2023-06-14T16:33:30.576250+10:00"}, {"id": 37006, "name": "21st Century Hero Film Investment", "roles_in_work": [{"id": 2278616, "title": "Together [DVD]", "work_id": 94943, "role": "production company", "role_id": 941, "is_primary": true}], "also_known_as": "", "date_of_birth": "", "date_of_death": "", "genders": [], "languages": [], "places_of_operation": [], "biography": "", "biography_author": null, "date_of_biography": "2023-05-09T17:56:18.302275+10:00", "external_links": [], "uuid": "0c30327a-fccf-4eab-a5e2-c91548a92163", "source": {"name": "Vernon", "slug": "vernon"}, "source_identifier": "3689", "external_references": [{"id": 37124, "source": {"name": "Wikidata", "slug": "wikidata"}, "source_identifier": "Q121034684"}], "date_modified": "2023-09-05T17:13:15.357554+10:00"}, {"id": 36999, "name": "Greg Bailey", "roles_in_work": [{"id": 2100672, "title": "Arthur: Arthur's first sleepover", "work_id": 94915, "role": "director", "role_id": 938, "is_primary": true}], "also_known_as": "", "date_of_birth": "", "date_of_death": "", "genders": [], "languages": [], "places_of_operation": [], "biography": "", "biography_author": null, "date_of_biography": "2023-05-09T12:30:32.494721+10:00", "external_links": [], "uuid": "cc1869c1-ae94-4e92-a8e5-45d0e4aaebf6", "source": {"name": "Vernon", "slug": "vernon"}, "source_identifier": "20041", "external_references": [], "date_modified": "2023-06-14T16:33:30.576250+10:00"}, {"id": 36998, "name": "Bumper Film", "roles_in_work": [{"id": 2241087, "title": "Fireman Sam", "work_id": 94914, "role": "production company", "role_id": 941, "is_primary": true}], "also_known_as": "", "date_of_birth": "", "date_of_death": "", "genders": [], "languages": [], "places_of_operation": [], "biography": "", "biography_author": null, "date_of_biography": "2023-05-09T16:53:50.004504+10:00", "external_links": [], "uuid": "fa8ca0a4-95b1-4b75-89f9-d6371a198098", "source": {"name": "Vernon", "slug": "vernon"}, "source_identifier": "6111", "external_references": [], "date_modified": "2023-06-14T16:33:30.576250+10:00"}, {"id": 36994, "name": "VideoFilmes Production", "roles_in_work": [{"id": 2138549, "title": "City of God = Cidade de Deus", "work_id": 94907, "role": "production company", "role_id": 941, "is_primary": true}], "also_known_as": "", "date_of_birth": "", "date_of_death": "", "genders": [], "languages": [], "places_of_operation": [], "biography": "", "biography_author": null, "date_of_biography": "2023-05-09T13:33:32.696630+10:00", "external_links": [], "uuid": "81da059e-cd2f-4f16-9326-a37eb6f05fd7", "source": {"name": "Vernon", "slug": "vernon"}, "source_identifier": "14122", "external_references": [], "date_modified": "2023-06-14T16:33:30.576250+10:00"}, {"id": 36993, "name": "O2 Filmes", "roles_in_work": [{"id": 2138546, "title": "City of God = Cidade de Deus", "work_id": 94907, "role": "production company", "role_id": 941, "is_primary": true}], "also_known_as": "", "date_of_birth": "", "date_of_death": "", "genders": [], "languages": [], "places_of_operation": [], "biography": "", "biography_author": null, "date_of_biography": "2023-05-09T13:33:32.460404+10:00", "external_links": [], "uuid": "440dd417-5687-4822-a5b7-d89645124eae", "source": {"name": "Vernon", "slug": "vernon"}, "source_identifier": "11061", "external_references": [], "date_modified": "2023-06-14T16:33:30.576250+10:00"}]}