{"count": 28687, "next": "https://api.acmi.net.au/creators/?page=603", "previous": "https://api.acmi.net.au/creators/?page=601", "results": [{"id": 79563, "name": "Joshua Donin", "roles_in_work": [{"id": 2474852, "title": "The Quick and the dead", "work_id": 91443, "role": "co-producer", "role_id": 915, "is_primary": true}], "also_known_as": "", "date_of_birth": "1955-08-10", "date_of_death": "", "genders": [{"id": 9, "name": "Male", "slug": "male"}], "languages": [], "places_of_operation": [{"id": 1, "name": "United States of America", "slug": "united-states-of-america"}], "biography": "Joshua Donen (born 1955) is an American film producer. He is the son of director Stanley Donen and actress Marion Marshall.Donen dated singer and actress Cher from 1984 to 1986.", "biography_author": "Wikidata", "date_of_biography": "2023-09-05T21:52:02.455333+10:00", "external_links": [{"id": 2480, "uri": "https://en.wikipedia.org/wiki/Joshua_Donen"}], "uuid": "9053650f-4d0a-44ab-a5ee-9eeaa91d4e49", "source": {"name": "Vernon", "slug": "vernon"}, "source_identifier": "22764", "external_references": [{"id": 10606, "source": {"name": "Wikidata", "slug": "wikidata"}, "source_identifier": "Q6289764"}, {"id": 10607, "source": {"name": "VIAF", "slug": "viaf"}, "source_identifier": "87040935"}, {"id": 10608, "source": {"name": "LOC Auth", "slug": "loc-auth"}, "source_identifier": "no2002048194"}, {"id": 10609, "source": {"name": "WorldCat", "slug": "worldcat"}, "source_identifier": "lccn-no2002048194"}], "date_modified": "2023-09-05T21:52:02.464823+10:00"}, {"id": 79562, "name": "Andrew Fleming", "roles_in_work": [{"id": 2189568, "title": "Dick", "work_id": 93452, "role": "director", "role_id": 938, "is_primary": true}, {"id": 2340813, "title": "The Craft", "work_id": 91440, "role": "director", "role_id": 938, "is_primary": true}], "also_known_as": "", "date_of_birth": "1965-12-30", "date_of_death": "", "genders": [{"id": 9, "name": "Male", "slug": "male"}], "languages": [{"id": 1, "name": "English", "slug": "english"}], "places_of_operation": [{"id": 1, "name": "United States of America", "slug": "united-states-of-america"}], "biography": "Andrew Fleming is an American screenwriter, film director, television producer, television director, film producer, actor, and television writer. He directed and wrote or co-wrote the films Bad Dreams, Threesome, The Craft, Dick, Nancy Drew, Hamlet 2, Barefoot, and Ideal Home, and directed The In-Laws. He has also directed episodes of the television series Arrested Development and Grosse Pointe, among others.\nHe studied filmmaking at New York University film school.", "biography_author": "Wikidata", "date_of_biography": "2023-08-01T14:02:06.127652+10:00", "external_links": [{"id": 1645, "uri": "https://en.wikipedia.org/wiki/Andrew_Fleming"}], "uuid": "140aeb4f-859c-44d2-9211-af02980383a6", "source": {"name": "Vernon", "slug": "vernon"}, "source_identifier": "15163", "external_references": [{"id": 7181, "source": {"name": "Wikidata", "slug": "wikidata"}, "source_identifier": "Q504706"}, {"id": 7182, "source": {"name": "VIAF", "slug": "viaf"}, "source_identifier": "61746053"}, {"id": 7183, "source": {"name": "LOC Auth", "slug": "loc-auth"}, "source_identifier": "no96068044"}, {"id": 7184, "source": {"name": "WorldCat", "slug": "worldcat"}, "source_identifier": "lccn-no96068044"}], "date_modified": "2023-09-05T17:35:29.605583+10:00"}, {"id": 79561, "name": "Mick Garris", "roles_in_work": [{"id": 2302741, "title": "Sleepwalkers", "work_id": 91438, "role": "director", "role_id": 938, "is_primary": true}], "also_known_as": "Michael Alan Garris", "date_of_birth": "1951-12-04", "date_of_death": "", "genders": [{"id": 9, "name": "Male", "slug": "male"}], "languages": [{"id": 1, "name": "English", "slug": "english"}], "places_of_operation": [{"id": 1, "name": "United States of America", "slug": "united-states-of-america"}], "biography": "Mick Garris (born December 4, 1951) is an American filmmaker and screenwriter born in Santa Monica, California. He is best known for his work in the horror film genre, as well as making Stephen King adaptations.", "biography_author": "Wikidata", "date_of_biography": "2023-08-01T16:18:00.936727+10:00", "external_links": [{"id": 2738, "uri": "https://en.wikipedia.org/wiki/Mick_Garris"}], "uuid": "db438b18-ada3-497b-bd76-bf1987796408", "source": {"name": "Vernon", "slug": "vernon"}, "source_identifier": "25321", "external_references": [{"id": 11675, "source": {"name": "Wikidata", "slug": "wikidata"}, "source_identifier": "Q720893"}, {"id": 11676, "source": {"name": "VIAF", "slug": "viaf"}, "source_identifier": "85862434"}, {"id": 11677, "source": {"name": "LOC Auth", "slug": "loc-auth"}, "source_identifier": "n92107511"}, {"id": 11678, "source": {"name": "WorldCat", "slug": "worldcat"}, "source_identifier": "lccn-n92107511"}], "date_modified": "2023-09-05T23:13:26.777716+10:00"}, {"id": 79560, "name": "Nabeel Zahid", "roles_in_work": [{"id": 2302736, "title": "Sleepwalkers", "work_id": 91438, "role": "co-producer", "role_id": 915, "is_primary": true}], "also_known_as": "", "date_of_birth": "", "date_of_death": "", "genders": [], "languages": [], "places_of_operation": [], "biography": "", "biography_author": null, "date_of_biography": "2023-05-09T18:39:53.241821+10:00", "external_links": [], "uuid": "7d82735b-dcc0-4e10-9f05-4f90bcec96bc", "source": {"name": "Vernon", "slug": "vernon"}, "source_identifier": "25589", "external_references": [{"id": 37929, "source": {"name": "Wikidata", "slug": "wikidata"}, "source_identifier": "Q121315299"}], "date_modified": "2023-09-05T23:23:44.084042+10:00"}, {"id": 79559, "name": "Tom Oliver", "roles_in_work": [{"id": 2279858, "title": "Wine service: a guide for professional waiters", "work_id": 91426, "role": "cast", "role_id": 33, "is_primary": false}, {"id": 826406, "title": "Grey funnel line", "work_id": 96330, "role": "narrator", "role_id": 499, "is_primary": false}], "also_known_as": "", "date_of_birth": "", "date_of_death": "", "genders": [{"id": 9, "name": "Male", "slug": "male"}], "languages": [], "places_of_operation": [], "biography": "", "biography_author": null, "date_of_biography": "2023-05-09T17:58:32.942409+10:00", "external_links": [], "uuid": "1d7ad0b3-0a60-4b50-bf8e-cd074ab95905", "source": {"name": "Vernon", "slug": "vernon"}, "source_identifier": "37463", "external_references": [{"id": 51759, "source": {"name": "Wikidata", "slug": "wikidata"}, "source_identifier": "Q121357569"}], "date_modified": "2023-06-14T16:33:30.576250+10:00"}, {"id": 79558, "name": "Lin Buckfield", "roles_in_work": [{"id": 2760823, "title": "Go to jail", "work_id": 91381, "role": "producer", "role_id": 1089, "is_primary": true}], "also_known_as": "", "date_of_birth": "", "date_of_death": "", "genders": [], "languages": [], "places_of_operation": [], "biography": "", "biography_author": null, "date_of_biography": "2023-05-09T19:32:10.953858+10:00", "external_links": [], "uuid": "d362a9af-fb8d-4737-a612-288192d97771", "source": {"name": "Vernon", "slug": "vernon"}, "source_identifier": "23849", "external_references": [{"id": 35760, "source": {"name": "Wikidata", "slug": "wikidata"}, "source_identifier": "Q121126792"}], "date_modified": "2025-03-14T17:28:37.050456+11:00"}, {"id": 79557, "name": "Rebecca Latham", "roles_in_work": [{"id": 2760861, "title": "The Wik, the law & the land", "work_id": 91380, "role": "producer", "role_id": 1089, "is_primary": true}], "also_known_as": "", "date_of_birth": "", "date_of_death": "", "genders": [], "languages": [], "places_of_operation": [], "biography": "", "biography_author": null, "date_of_biography": "2023-08-16T03:41:22.725481+10:00", "external_links": [], "uuid": "184a5d2c-3130-4d76-8fd3-21b152fd5369", "source": {"name": "Vernon", "slug": "vernon"}, "source_identifier": "27214", "external_references": [{"id": 37621, "source": {"name": "Wikidata", "slug": "wikidata"}, "source_identifier": "Q121159739"}], "date_modified": "2025-03-14T17:28:56.165402+11:00"}, {"id": 79556, "name": "Michael S Phillips", "roles_in_work": [{"id": 1995303, "title": "The Sting [DVD]", "work_id": 91364, "role": "co-producer", "role_id": 915, "is_primary": true}], "also_known_as": "", "date_of_birth": null, "date_of_death": null, "genders": [], "languages": [], "places_of_operation": [], "biography": "", "biography_author": null, "date_of_biography": null, "external_links": [], "uuid": "8410197b-f9ca-4223-9615-fe96ca33022e", "source": {"name": "Vernon", "slug": "vernon"}, "source_identifier": null, "external_references": [{"id": 39666, "source": {"name": "Wikidata", "slug": "wikidata"}, "source_identifier": "Q121036700"}], "date_modified": "2023-09-05T23:08:58.513209+10:00"}, {"id": 79555, "name": "Lloyd Phillips", "roles_in_work": [{"id": 1995290, "title": "Vertical limit [DVD]", "work_id": 91362, "role": "co-producer", "role_id": 915, "is_primary": true}], "also_known_as": "", "date_of_birth": null, "date_of_death": null, "genders": [], "languages": [], "places_of_operation": [], "biography": "", "biography_author": null, "date_of_biography": null, "external_links": [], "uuid": "7e071015-5981-4289-b172-ce17e9cfd667", "source": {"name": "Vernon", "slug": "vernon"}, "source_identifier": null, "external_references": [{"id": 50983, "source": {"name": "Wikidata", "slug": "wikidata"}, "source_identifier": "Q121357623"}], "date_modified": "2023-09-05T22:29:00.467548+10:00"}, {"id": 79554, "name": "Bob Starner", "roles_in_work": [{"id": 3083039, "title": "Properties of matter", "work_id": 91356, "role": "co-producer", "role_id": 915, "is_primary": true}, {"id": 3083055, "title": "Elements, compounds and mixtures", "work_id": 91359, "role": "co-producer", "role_id": 915, "is_primary": true}, {"id": 3083073, "title": "Motion and balance", "work_id": 91360, "role": "co-producer", "role_id": 915, "is_primary": true}, {"id": 3083021, "title": "Forces", "work_id": 91355, "role": "co-producer", "role_id": 915, "is_primary": true}], "also_known_as": "", "date_of_birth": "", "date_of_death": "", "genders": [], "languages": [], "places_of_operation": [], "biography": "", "biography_author": null, "date_of_biography": "2023-05-09T16:39:31.546932+10:00", "external_links": [], "uuid": "74c19fa6-a023-46d5-8cf4-790d20c5e139", "source": {"name": "Vernon", "slug": "vernon"}, "source_identifier": "16109", "external_references": [{"id": 41934, "source": {"name": "Wikidata", "slug": "wikidata"}, "source_identifier": "Q121079248"}], "date_modified": "2025-03-17T10:31:55.751546+11:00"}]}