{"count": 28687, "next": "https://api.acmi.net.au/creators/?page=1928", "previous": "https://api.acmi.net.au/creators/?page=1926", "results": [{"id": 23987, "name": "Simon Relph", "roles_in_work": [{"id": 1986025, "title": "The Return of the soldier", "work_id": 81706, "role": "co-producer", "role_id": 915, "is_primary": true}, {"id": 1988055, "title": "The Ploughman's lunch", "work_id": 84255, "role": "co-producer", "role_id": 915, "is_primary": true}, {"id": 2229660, "title": "Privates on parade", "work_id": 95429, "role": "producer", "role_id": 1089, "is_primary": true}, {"id": 1812887, "title": "Comrades: a Lanternist's account of the Tolpuddle Martyrs and what became of them", "work_id": 84077, "role": "producer", "role_id": 1089, "is_primary": true}], "also_known_as": "", "date_of_birth": "1940-04-13", "date_of_death": "2016-10-30", "genders": [{"id": 9, "name": "Male", "slug": "male"}], "languages": [{"id": 1, "name": "English", "slug": "english"}], "places_of_operation": [{"id": 10, "name": "United Kingdom", "slug": "united-kingdom"}], "biography": "Simon George Michael Relph, CBE (13 April 1940 – 30 October 2016) was a British film producer and assistant film director.", "biography_author": "Wikidata", "date_of_biography": "2023-08-01T17:06:46.170949+10:00", "external_links": [{"id": 5173, "uri": "https://en.wikipedia.org/wiki/Simon_Relph"}], "uuid": "4fb044d9-5485-47c1-b578-8863b6c2c0f3", "source": {"name": "Vernon", "slug": "vernon"}, "source_identifier": "28854", "external_references": [{"id": 26800, "source": {"name": "Wikidata", "slug": "wikidata"}, "source_identifier": "Q3484429"}, {"id": 31559, "source": {"name": "VIAF", "slug": "viaf"}, "source_identifier": "16924700"}, {"id": 31560, "source": {"name": "LOC Auth", "slug": "loc-auth"}, "source_identifier": "no2003121327"}, {"id": 31561, "source": {"name": "WorldCat", "slug": "worldcat"}, "source_identifier": "lccn-no2003121327"}], "date_modified": "2023-09-06T01:20:31.631932+10:00"}, {"id": 23973, "name": "Irving Cummings", "roles_in_work": [{"id": 2149610, "title": "Curly Top (Captioned)", "work_id": 81700, "role": "director", "role_id": 938, "is_primary": true}, {"id": 2308837, "title": "Springtime in the Rockies", "work_id": 83493, "role": "director", "role_id": 938, "is_primary": true}], "also_known_as": "", "date_of_birth": "1888-10-09", "date_of_death": "1959-04-18", "genders": [{"id": 9, "name": "Male", "slug": "male"}], "languages": [{"id": 1, "name": "English", "slug": "english"}], "places_of_operation": [{"id": 1, "name": "United States of America", "slug": "united-states-of-america"}], "biography": "Irving Caminsky (October 9, 1888 – April 18, 1959) was an American movie actor and director.", "biography_author": "Wikidata", "date_of_biography": "2023-08-01T15:16:13.671040+10:00", "external_links": [{"id": 4203, "uri": "https://en.wikipedia.org/wiki/Irving_Cummings"}], "uuid": "a40888e6-9a86-451d-b73c-8bd47b3989ae", "source": {"name": "Vernon", "slug": "vernon"}, "source_identifier": "20875", "external_references": [{"id": 25009, "source": {"name": "Wikidata", "slug": "wikidata"}, "source_identifier": "Q727791"}, {"id": 29035, "source": {"name": "VIAF", "slug": "viaf"}, "source_identifier": "12503121"}, {"id": 29036, "source": {"name": "LOC Auth", "slug": "loc-auth"}, "source_identifier": "n87914295"}, {"id": 29037, "source": {"name": "WorldCat", "slug": "worldcat"}, "source_identifier": "lccn-n87914295"}], "date_modified": "2023-09-05T20:50:41.259689+10:00"}, {"id": 23972, "name": "Winfield Sheehan", "roles_in_work": [{"id": 2149606, "title": "Curly Top (Captioned)", "work_id": 81700, "role": "producer", "role_id": 1089, "is_primary": true}], "also_known_as": "", "date_of_birth": "1883-09-24", "date_of_death": "1945-07-25", "genders": [{"id": 9, "name": "Male", "slug": "male"}], "languages": [], "places_of_operation": [{"id": 1, "name": "United States of America", "slug": "united-states-of-america"}], "biography": "Winfield R. Sheehan (September 24, 1883 – July 25, 1945) was a film company executive. He was responsible for much of Fox Film Corporation's output during the 1920s and 1930s.\nAs studio head, he won an Academy Award for Best Picture for the film Cavalcade and was nominated three more times.\nMost famously, he nurtured the budding stardom of then-child star Shirley Temple, in such films as Stand Up and Cheer! and Curly Top.A native of Buffalo, New York, Sheehan served in the Spanish–American War as a teen. After working as a cub reporter he became a police reporter for New York's The Evening World in the early 1900s. In 1910, Sheehan became the fire commissioner's secretary and in 1911 performed similar duties for the police commissioner. In the latter capacity, he helped the newly established studio of William Fox, stay afloat in the face of increasing pressure to fold from the Motion Picture Patents Company, which routinely absorbed, intimidated, and ultimately destroyed most fledgling studios. \nThe Fox case played a vital role in the destruction of the Motion Picture Patents Company's absolute control. Afterward, Sheehan became William Fox's personal secretary and two years later became the studio's general manager and vice president. He then served as Fox's chief of production from 1926 until 1935 when the studio became part of 20th Century-Fox and was replaced by Darryl Zanuck. After that, Sheehan became an independent producer until his death in 1945.", "biography_author": "Wikidata", "date_of_biography": "2023-08-01T17:28:45.872712+10:00", "external_links": [{"id": 5364, "uri": "https://en.wikipedia.org/wiki/Winfield_Sheehan"}], "uuid": "0707e750-8673-4658-837c-0c012ea73a2b", "source": {"name": "Vernon", "slug": "vernon"}, "source_identifier": "30522", "external_references": [{"id": 25600, "source": {"name": "Wikidata", "slug": "wikidata"}, "source_identifier": "Q8025022"}, {"id": 32048, "source": {"name": "VIAF", "slug": "viaf"}, "source_identifier": "4493222"}, {"id": 32049, "source": {"name": "LOC Auth", "slug": "loc-auth"}, "source_identifier": "no91006058"}, {"id": 32050, "source": {"name": "WorldCat", "slug": "worldcat"}, "source_identifier": "lccn-no91006058"}], "date_modified": "2023-09-06T02:19:00.198747+10:00"}, {"id": 23971, "name": "Fox Film Corporation", "roles_in_work": [{"id": 2684640, "title": "Ginger cinema slide", "work_id": 119837, "role": "distributor", "role_id": 437, "is_primary": false}, {"id": 2684666, "title": "Thunder Mountain cinema slide", "work_id": 119843, "role": "production company", "role_id": 941, "is_primary": true}, {"id": 2684662, "title": "The World Moves On cinema slide", "work_id": 119842, "role": "production company", "role_id": 941, "is_primary": true}, {"id": 2684651, "title": "Orchids to You cinema slide", "work_id": 119840, "role": "production company", "role_id": 941, "is_primary": true}, {"id": 2684639, "title": "Ginger cinema slide", "work_id": 119837, "role": "production company", "role_id": 941, "is_primary": true}, {"id": 2149604, "title": "Curly Top (Captioned)", "work_id": 81700, "role": "production company", "role_id": 941, "is_primary": true}, {"id": 2318490, "title": "Sunrise: a song of two humans", "work_id": 95020, "role": "production company", "role_id": 941, "is_primary": true}], "also_known_as": "", "date_of_birth": "", "date_of_death": "", "genders": [], "languages": [], "places_of_operation": [], "biography": "The Fox Film Corporation (also known as Fox Studios) was an American Independent film production studio formed by William Fox (1879–1952) in 1915, by combining his earlier Greater New York Film Rental Company and Box Office Attraction Company (founded 1913).\n\nThe company's first film studios were set up in Fort Lee, New Jersey, but in 1917, William Fox sent Sol M. Wurtzel to Hollywood, California to oversee the studio's new West Coast production facilities, where the climate was more hospitable for filmmaking. On July 23, 1926, the company bought the patents of the Movietone sound system for recording sound onto film.\n\nAfter the Wall Street crash of 1929, William Fox lost control of the company in 1930, during a hostile takeover. Under new president Sidney Kent, the new owners began conversations of a fusion with Twentieth Century Pictures, under founders Joseph M. Schenck and his friend Darryl Zanuck. Schenck, Zanuck, and Spyros Skouras merged the Fox Studios with Twentieth Century to form 20th Century-Fox in 1935. Source: Wikidata; 01/08/2023", "biography_author": null, "date_of_biography": "2025-03-11T11:40:47.029147+11:00", "external_links": [{"id": 3978, "uri": "https://en.wikipedia.org/wiki/Fox_Film"}], "uuid": "bfec3805-dcf3-4e6c-b8f4-5eb052687707", "source": {"name": "Vernon", "slug": "vernon"}, "source_identifier": "8473", "external_references": [{"id": 26898, "source": {"name": "Wikidata", "slug": "wikidata"}, "source_identifier": "Q2644123"}, {"id": 28423, "source": {"name": "VIAF", "slug": "viaf"}, "source_identifier": "151237948"}, {"id": 28424, "source": {"name": "LOC Auth", "slug": "loc-auth"}, "source_identifier": "n87847965"}, {"id": 28425, "source": {"name": "WorldCat", "slug": "worldcat"}, "source_identifier": "lccn-n87847965"}], "date_modified": "2025-03-11T11:40:47.029469+11:00"}, {"id": 23968, "name": "Andrew Braunsberg", "roles_in_work": [{"id": 1986001, "title": "Being there", "work_id": 81698, "role": "producer", "role_id": 1089, "is_primary": true}, {"id": 2243927, "title": "Flesh for Frankenstein [DVD] (D)", "work_id": 95026, "role": "producer", "role_id": 1089, "is_primary": true}, {"id": 2754013, "title": "Macbeth (Polanski)", "work_id": 99021, "role": "producer", "role_id": 1089, "is_primary": true}, {"id": 1813945, "title": "Macbeth (Polanski) (Captioned)", "work_id": 85155, "role": "producer", "role_id": 1089, "is_primary": true}, {"id": 1997675, "title": "The Tenant", "work_id": 93411, "role": "producer", "role_id": 1089, "is_primary": true}, {"id": 2120935, "title": "Blood for Dracula [DVD]", "work_id": 95027, "role": "producer", "role_id": 1089, "is_primary": true}], "also_known_as": "", "date_of_birth": "", "date_of_death": "", "genders": [], "languages": [], "places_of_operation": [], "biography": "", "biography_author": null, "date_of_biography": "2023-05-09T16:59:12.708811+10:00", "external_links": [], "uuid": "66b2957b-fdcd-4041-99a3-183094ddbee8", "source": {"name": "Vernon", "slug": "vernon"}, "source_identifier": "15146", "external_references": [{"id": 36030, "source": {"name": "Wikidata", "slug": "wikidata"}, "source_identifier": "Q121271215"}], "date_modified": "2025-03-13T01:36:25.742362+11:00"}, {"id": 23967, "name": "Black Sand Productions", "roles_in_work": [{"id": 1985996, "title": "The Times of Harvey Milk", "work_id": 81697, "role": "production company", "role_id": 941, "is_primary": true}, {"id": 2650537, "title": "The Times of Harvey Milk", "work_id": 115731, "role": "production company", "role_id": 941, "is_primary": true}], "also_known_as": "", "date_of_birth": "", "date_of_death": "", "genders": [], "languages": [], "places_of_operation": [], "biography": "", "biography_author": null, "date_of_biography": "2023-05-09T18:05:49.944957+10:00", "external_links": [], "uuid": "3c2e54e7-6990-446c-a33b-c02884713b1b", "source": {"name": "Vernon", "slug": "vernon"}, "source_identifier": "5884", "external_references": [{"id": 36902, "source": {"name": "Wikidata", "slug": "wikidata"}, "source_identifier": "Q121144236"}], "date_modified": "2025-03-05T14:20:59.117270+11:00"}, {"id": 23963, "name": "Kate Kennedy White", "roles_in_work": [{"id": 2754902, "title": "Platypus Man", "work_id": 99417, "role": "director", "role_id": 938, "is_primary": true}, {"id": 2754901, "title": "Platypus Man", "work_id": 99417, "role": "co-producer", "role_id": 915, "is_primary": true}, {"id": 933114, "title": "Market of dreams", "work_id": 81695, "role": "director", "role_id": 938, "is_primary": true}], "also_known_as": "", "date_of_birth": null, "date_of_death": null, "genders": [], "languages": [], "places_of_operation": [], "biography": "", "biography_author": null, "date_of_biography": null, "external_links": [], "uuid": "f6f91881-5aa9-4f63-b54d-7b8302fd01ba", "source": {"name": "Vernon", "slug": "vernon"}, "source_identifier": "23055", "external_references": [], "date_modified": "2025-03-13T01:53:01.327142+11:00"}, {"id": 23962, "name": "Summer Hill Films", "roles_in_work": [{"id": 870954, "title": "From grass roots to green papers", "work_id": 86729, "role": "production company", "role_id": 941, "is_primary": true}, {"id": 2754872, "title": "Youth and credit", "work_id": 99407, "role": "production company", "role_id": 941, "is_primary": true}, {"id": 879885, "title": "Too old? Never", "work_id": 92132, "role": "production company", "role_id": 941, "is_primary": true}, {"id": 2649515, "title": "Youth and credit (Captioned)", "work_id": 81694, "role": "production company", "role_id": 941, "is_primary": true}], "also_known_as": "", "date_of_birth": "", "date_of_death": "", "genders": [], "languages": [], "places_of_operation": [], "biography": "", "biography_author": null, "date_of_biography": "2023-05-09T18:06:37.803143+10:00", "external_links": [], "uuid": "9023e8d3-8075-4673-8492-cd3d1cb3019c", "source": {"name": "Vernon", "slug": "vernon"}, "source_identifier": "4183", "external_references": [{"id": 38667, "source": {"name": "Wikidata", "slug": "wikidata"}, "source_identifier": "Q121034421"}], "date_modified": "2025-03-13T01:52:42.848943+11:00"}, {"id": 23955, "name": "Jerzy Skolimowski", "roles_in_work": [{"id": 1994357, "title": "The Lightship", "work_id": 90268, "role": "director", "role_id": 938, "is_primary": true}, {"id": 1989650, "title": "The Shout", "work_id": 85332, "role": "director", "role_id": 938, "is_primary": true}, {"id": 2476002, "title": "Moonlighting", "work_id": 81688, "role": "director", "role_id": 938, "is_primary": true}, {"id": 882256, "title": "Hands up = Rece do gory [NTSC]", "work_id": 93123, "role": "director", "role_id": 938, "is_primary": true}, {"id": 2476001, "title": "Moonlighting", "work_id": 81688, "role": "co-producer", "role_id": 915, "is_primary": true}], "also_known_as": "", "date_of_birth": "1938-05-05", "date_of_death": null, "genders": [{"id": 9, "name": "Male", "slug": "male"}], "languages": [{"id": 24, "name": "Polish", "slug": "polish"}], "places_of_operation": [{"id": 44, "name": "Poland", "slug": "poland"}], "biography": "Jerzy Skolimowski (Polish: [ˈjɛʐɨ skɔliˈmɔfskʲi], born 5 May 1938) is a Polish film director, screenwriter, dramatist and actor. A graduate of the prestigious National Film School in Łódź, Skolimowski has directed more than twenty films since his 1960 début Oko wykol (The Menacing Eye). In 1967 he was awarded the Golden Bear prize for his film Le départ. Among his other notable films is Deep End (1970), starring Jane Asher and John Moulder Brown. He lived in Los Angeles for over 20 years where he painted in a figurative, expressionist mode and occasionally acted in films. He returned to Poland, and to film making as a writer and director, after a 17-year hiatus with Cztery noce z Anną (Four Nights with Anna) in 2008. He received the Golden Lion Award for Lifetime Achievement at the 2016 Venice Film Festival.\n\n", "biography_author": "Wikidata", "date_of_biography": "2022-05-19T11:58:24.804423+10:00", "external_links": [{"id": 2382, "uri": "https://en.wikipedia.org/wiki/Jerzy_Skolimowski"}], "uuid": "8dba83b7-105c-4297-ac02-b185f7f6dd75", "source": {"name": "Vernon", "slug": "vernon"}, "source_identifier": "21826", "external_references": [{"id": 10205, "source": {"name": "Wikidata", "slug": "wikidata"}, "source_identifier": "Q51530"}, {"id": 10206, "source": {"name": "VIAF", "slug": "viaf"}, "source_identifier": "101702370"}, {"id": 10207, "source": {"name": "LOC Auth", "slug": "loc-auth"}, "source_identifier": "n86041326"}, {"id": 10208, "source": {"name": "WorldCat", "slug": "worldcat"}, "source_identifier": "lccn-n86041326"}], "date_modified": "2023-09-13T12:30:26.733403+10:00"}, {"id": 23954, "name": "Centar Film", "roles_in_work": [{"id": 2475998, "title": "Moonlighting", "work_id": 81688, "role": "production company", "role_id": 941, "is_primary": true}], "also_known_as": "", "date_of_birth": "", "date_of_death": "", "genders": [], "languages": [], "places_of_operation": [], "biography": "", "biography_author": null, "date_of_biography": "2023-08-17T15:30:55.449758+10:00", "external_links": [], "uuid": "7fedcfc1-a2fd-42a2-a3cc-7bcdb6a6086f", "source": {"name": "Vernon", "slug": "vernon"}, "source_identifier": "6395", "external_references": [], "date_modified": "2023-08-17T15:30:55.450030+10:00"}]}