{"count": 28687, "next": "https://api.acmi.net.au/creators/?page=205", "previous": "https://api.acmi.net.au/creators/?page=203", "results": [{"id": 83567, "name": "David Withers", "roles_in_work": [{"id": 2657419, "title": "Only in Rutherglen", "work_id": 117054, "role": "director", "role_id": 938, "is_primary": true}, {"id": 2657319, "title": "Yackandandah music", "work_id": 117055, "role": "director", "role_id": 938, "is_primary": true}, {"id": 2657408, "title": "Brendan Smith : making a difference in Rutherglen", "work_id": 117049, "role": "director", "role_id": 938, "is_primary": true}, {"id": 2657397, "title": "Loving our bottle", "work_id": 117052, "role": "director", "role_id": 938, "is_primary": true}, {"id": 2658565, "title": "A Tale of two cinemas", "work_id": 117205, "role": "camera operator", "role_id": 931, "is_primary": false}, {"id": 2651897, "title": "Ladies of Lockington", "work_id": 116803, "role": "camera operator", "role_id": 931, "is_primary": false}, {"id": 2658601, "title": "Embracing difference: supporting autism in Mansfield", "work_id": 117202, "role": "camera operator", "role_id": 931, "is_primary": false}, {"id": 2658617, "title": "Building in Tolmie", "work_id": 117200, "role": "camera operator", "role_id": 931, "is_primary": false}, {"id": 2658633, "title": "Jamieson Primary School", "work_id": 117204, "role": "camera operator", "role_id": 931, "is_primary": false}, {"id": 2658649, "title": "Why we luv Jammo", "work_id": 117207, "role": "camera operator", "role_id": 931, "is_primary": false}, {"id": 2658654, "title": "Jeff Lindsay in conversation with Sue Turnball: Dark Tales, Serial Archetypes", "work_id": 117208, "role": "camera operator", "role_id": 931, "is_primary": false}, {"id": 2658659, "title": "Jeff Lindsay in conversation with Sue Turnbull: Dark Tales, Serial Archetypes [web excerpt]", "work_id": 117209, "role": "camera operator", "role_id": 931, "is_primary": false}, {"id": 2659018, "title": "The Natimuk Rock Climbers", "work_id": 117262, "role": "camera operator", "role_id": 931, "is_primary": false}, {"id": 2659034, "title": "At the Foot of the Arapiles", "work_id": 117255, "role": "camera operator", "role_id": 931, "is_primary": false}, {"id": 2659083, "title": "The Gasifier", "work_id": 117258, "role": "camera operator", "role_id": 931, "is_primary": false}, {"id": 2659953, "title": "ACMI in the regions: Stories from East Gippsland", "work_id": 117346, "role": "co-producer", "role_id": 915, "is_primary": true}, {"id": 2658666, "title": "Shaun Gladwell: Stereo Sequences interviews", "work_id": 117210, "role": "crew", "role_id": 513, "is_primary": false}, {"id": 2655950, "title": "ACMI in the regions: South west cinemas", "work_id": 116994, "role": "crew", "role_id": 513, "is_primary": false}, {"id": 2651870, "title": "It's OUR Business: Lockington and District", "work_id": 116802, "role": "crew", "role_id": 513, "is_primary": false}, {"id": 2659008, "title": "ACMI in the regions: Stories from Horsham Shire", "work_id": 117254, "role": "crew", "role_id": 513, "is_primary": false}, {"id": 2655966, "title": "The Lorne Theatre", "work_id": 116996, "role": "crew", "role_id": 513, "is_primary": false}, {"id": 2657341, "title": "ACMI in the regions: Stories from Indigo", "work_id": 117047, "role": "crew", "role_id": 513, "is_primary": false}, {"id": 2655974, "title": "The Portland Star", "work_id": 116997, "role": "crew", "role_id": 513, "is_primary": false}, {"id": 2651850, "title": "Locky by Night", "work_id": 116806, "role": "crew", "role_id": 513, "is_primary": false}, {"id": 2655957, "title": "The Capitol", "work_id": 116995, "role": "crew", "role_id": 513, "is_primary": false}, {"id": 2651862, "title": "ACMI in the regions: Stories from Lockington", "work_id": 116801, "role": "crew", "role_id": 513, "is_primary": false}, {"id": 2659508, "title": "Ouyen's Roxy Theatre", "work_id": 117300, "role": "editor", "role_id": 918, "is_primary": true}, {"id": 2655284, "title": "The Yambuk Slide", "work_id": 116963, "role": "editor", "role_id": 918, "is_primary": true}, {"id": 2655296, "title": "ACMI in the regions: Stories from Moyne", "work_id": 116954, "role": "editor", "role_id": 918, "is_primary": true}, {"id": 2655314, "title": "Ted: The Kite Man", "work_id": 116962, "role": "editor", "role_id": 918, "is_primary": true}, {"id": 2655332, "title": "Stories from Yambuk Youth", "work_id": 116960, "role": "editor", "role_id": 918, "is_primary": true}, {"id": 2655764, "title": "ACMI in the regions: Stories from Mount Alexander", "work_id": 116983, "role": "editor", "role_id": 918, "is_primary": true}, {"id": 2655798, "title": "Theatre Royal: Castlemaine", "work_id": 116992, "role": "editor", "role_id": 918, "is_primary": true}, {"id": 2655808, "title": "Newstead Community Garden", "work_id": 116989, "role": "editor", "role_id": 918, "is_primary": true}, {"id": 2655818, "title": "The Gervasoni Family Estate: life in the Yandoit houses", "work_id": 116986, "role": "editor", "role_id": 918, "is_primary": true}, {"id": 2655829, "title": "The Newstead Swimming Pool", "work_id": 116990, "role": "editor", "role_id": 918, "is_primary": true}, {"id": 2655840, "title": "Shani", "work_id": 116991, "role": "editor", "role_id": 918, "is_primary": true}, {"id": 2655850, "title": "Moving to Maldon", "work_id": 116988, "role": "editor", "role_id": 918, "is_primary": true}, {"id": 2657356, "title": "YCDco : a story of community support", "work_id": 117056, "role": "editor", "role_id": 918, "is_primary": true}, {"id": 2657400, "title": "Loving our bottle", "work_id": 117052, "role": "editor", "role_id": 918, "is_primary": true}, {"id": 2657320, "title": "Yackandandah music", "work_id": 117055, "role": "editor", "role_id": 918, "is_primary": true}, {"id": 2657411, "title": "Brendan Smith : making a difference in Rutherglen", "work_id": 117049, "role": "editor", "role_id": 918, "is_primary": true}, {"id": 2657422, "title": "Only in Rutherglen", "work_id": 117054, "role": "editor", "role_id": 918, "is_primary": true}, {"id": 2658567, "title": "A Tale of two cinemas", "work_id": 117205, "role": "editor", "role_id": 918, "is_primary": true}, {"id": 2658595, "title": "Three stories of agriculture in Mansfield", "work_id": 117206, "role": "editor", "role_id": 918, "is_primary": true}, {"id": 2658603, "title": "Embracing difference: supporting autism in Mansfield", "work_id": 117202, "role": "editor", "role_id": 918, "is_primary": true}, {"id": 2658611, "title": "Coming together", "work_id": 117201, "role": "editor", "role_id": 918, "is_primary": true}, {"id": 2658635, "title": "Jamieson Primary School", "work_id": 117204, "role": "editor", "role_id": 918, "is_primary": true}, {"id": 2658668, "title": "Shaun Gladwell: Stereo Sequences interviews", "work_id": 117210, "role": "editor", "role_id": 918, "is_primary": true}, {"id": 2659020, "title": "The Natimuk Rock Climbers", "work_id": 117262, "role": "editor", "role_id": 918, "is_primary": true}, {"id": 2659028, "title": "Dave Jones and his Giant Puppet", "work_id": 117257, "role": "editor", "role_id": 918, "is_primary": true}, {"id": 2659069, "title": "An Olive Grove in Laharum", "work_id": 117263, "role": "editor", "role_id": 918, "is_primary": true}, {"id": 2659276, "title": "Life in the waves: a story about Island Surfboards", "work_id": 117270, "role": "editor", "role_id": 918, "is_primary": true}, {"id": 2659293, "title": "Following their footsteps", "work_id": 117269, "role": "editor", "role_id": 918, "is_primary": true}, {"id": 2659498, "title": "The Ouyen Taxi Driver", "work_id": 117299, "role": "editor", "role_id": 918, "is_primary": true}, {"id": 2655214, "title": "Deen Maar: Past, Present & Future", "work_id": 116955, "role": "editor", "role_id": 918, "is_primary": true}, {"id": 2659538, "title": "Sustainable Ouyen", "work_id": 117303, "role": "editor", "role_id": 918, "is_primary": true}, {"id": 2659654, "title": "The Greta Bunyip Newsletter", "work_id": 117329, "role": "editor", "role_id": 918, "is_primary": true}, {"id": 2659678, "title": "The Greta Swamp", "work_id": 117331, "role": "editor", "role_id": 918, "is_primary": true}, {"id": 2659947, "title": "Welcome to Cape Conran", "work_id": 117355, "role": "editor", "role_id": 918, "is_primary": true}, {"id": 2659986, "title": "My Omeo: A Short History", "work_id": 117350, "role": "editor", "role_id": 918, "is_primary": true}, {"id": 2659997, "title": "Respect and Belonging", "work_id": 117353, "role": "editor", "role_id": 918, "is_primary": true}, {"id": 2660030, "title": "Orbost Locals", "work_id": 117351, "role": "editor", "role_id": 918, "is_primary": true}, {"id": 2651852, "title": "Locky by Night", "work_id": 116806, "role": "editor", "role_id": 918, "is_primary": true}, {"id": 2651890, "title": "Living in Locky: The Youth Perspective", "work_id": 116804, "role": "editor", "role_id": 918, "is_primary": true}, {"id": 2652789, "title": "ACMI in the regions: Stories from South Gippsland", "work_id": 116839, "role": "editor", "role_id": 918, "is_primary": true}, {"id": 2652810, "title": "Young Voices of Mirboo North", "work_id": 116851, "role": "editor", "role_id": 918, "is_primary": true}, {"id": 2652820, "title": "Vocal Nosh", "work_id": 116850, "role": "editor", "role_id": 918, "is_primary": true}, {"id": 2652830, "title": "Lend Us a Hand", "work_id": 116844, "role": "editor", "role_id": 918, "is_primary": true}, {"id": 2660003, "title": "Lakes Entrance Surf Life Saving Club", "work_id": 117349, "role": "producer", "role_id": 1089, "is_primary": true}, {"id": 2660014, "title": "Lakes Entrance Fishing", "work_id": 117348, "role": "producer", "role_id": 1089, "is_primary": true}, {"id": 2660025, "title": "Orbost Locals", "work_id": 117351, "role": "producer", "role_id": 1089, "is_primary": true}, {"id": 2659524, "title": "Sunraysia Ukulele Network", "work_id": 117302, "role": "producer", "role_id": 1089, "is_primary": true}, {"id": 2659534, "title": "Sustainable Ouyen", "work_id": 117303, "role": "producer", "role_id": 1089, "is_primary": true}, {"id": 2659544, "title": "Young Philly", "work_id": 117304, "role": "producer", "role_id": 1089, "is_primary": true}, {"id": 2659911, "title": "Paddle Steamer Curlip", "work_id": 117352, "role": "producer", "role_id": 1089, "is_primary": true}, {"id": 2659942, "title": "Welcome to Cape Conran", "work_id": 117355, "role": "producer", "role_id": 1089, "is_primary": true}, {"id": 2659959, "title": "The Swifts Creek Bush Nursing Centre", "work_id": 117354, "role": "producer", "role_id": 1089, "is_primary": true}, {"id": 2659970, "title": "Deirdre Jack: Swifts Creek Artist", "work_id": 117347, "role": "producer", "role_id": 1089, "is_primary": true}, {"id": 2659981, "title": "My Omeo: A Short History", "work_id": 117350, "role": "producer", "role_id": 1089, "is_primary": true}, {"id": 2659992, "title": "Respect and Belonging", "work_id": 117353, "role": "producer", "role_id": 1089, "is_primary": true}, {"id": 2659462, "title": "Grapes and wine: a family tradition", "work_id": 117296, "role": "producer", "role_id": 1089, "is_primary": true}, {"id": 2659473, "title": "Hooked on giving", "work_id": 117297, "role": "producer", "role_id": 1089, "is_primary": true}, {"id": 2659484, "title": "Marion of Colignan", "work_id": 117298, "role": "producer", "role_id": 1089, "is_primary": true}, {"id": 2659494, "title": "The Ouyen Taxi Driver", "work_id": 117299, "role": "producer", "role_id": 1089, "is_primary": true}, {"id": 2659504, "title": "Ouyen's Roxy Theatre", "work_id": 117300, "role": "producer", "role_id": 1089, "is_primary": true}, {"id": 2659514, "title": "Rose Hill: life on a string", "work_id": 117301, "role": "producer", "role_id": 1089, "is_primary": true}, {"id": 2659273, "title": "Life in the waves: a story about Island Surfboards", "work_id": 117270, "role": "producer/director", "role_id": 31, "is_primary": true}, {"id": 2659282, "title": "Community banking Bass Coast", "work_id": 117266, "role": "producer/director", "role_id": 31, "is_primary": true}, {"id": 2659290, "title": "Following their footsteps", "work_id": 117269, "role": "producer/director", "role_id": 31, "is_primary": true}, {"id": 2659299, "title": "The Corinella Jetty", "work_id": 117267, "role": "producer/director", "role_id": 31, "is_primary": true}, {"id": 2659555, "title": "ACMI in the regions: Stories from Mildura", "work_id": 117295, "role": "producer/director", "role_id": 31, "is_primary": true}, {"id": 2659219, "title": "DAK: David Alexander Kopelman", "work_id": 117268, "role": "producer/director", "role_id": 31, "is_primary": true}, {"id": 2658594, "title": "Three stories of agriculture in Mansfield", "work_id": 117206, "role": "sound", "role_id": 952, "is_primary": false}, {"id": 2658610, "title": "Coming together", "work_id": 117201, "role": "sound", "role_id": 952, "is_primary": false}, {"id": 2658626, "title": "125th anniversary of Tolmie Sports: Feb 2011", "work_id": 117199, "role": "sound", "role_id": 952, "is_primary": false}, {"id": 2659076, "title": "Gil and Liz Hopkins", "work_id": 117259, "role": "sound", "role_id": 952, "is_primary": false}, {"id": 2659027, "title": "Dave Jones and his Giant Puppet", "work_id": 117257, "role": "sound", "role_id": 952, "is_primary": false}, {"id": 2659068, "title": "An Olive Grove in Laharum", "work_id": 117263, "role": "sound", "role_id": 952, "is_primary": false}, {"id": 2658642, "title": "The Island", "work_id": 117203, "role": "sound", "role_id": 952, "is_primary": false}], "also_known_as": "", "date_of_birth": "", "date_of_death": "", "genders": [], "languages": [], "places_of_operation": [], "biography": "", "biography_author": null, "date_of_biography": "2023-08-09T04:11:52.530134+10:00", "external_links": [], "uuid": "7fdd9b20-b109-4472-bd4f-cd7f7405ec81", "source": {"name": "Vernon", "slug": "vernon"}, "source_identifier": "111598", "external_references": [], "date_modified": "2025-03-05T19:48:35.891350+11:00"}, {"id": 83566, "name": "Marg Downey", "roles_in_work": [{"id": 2651800, "title": "TV50 Celebrity Interviews", "work_id": 116800, "role": "interviewee", "role_id": 496, "is_primary": false}], "also_known_as": "", "date_of_birth": "", "date_of_death": "", "genders": [], "languages": [], "places_of_operation": [], "biography": "", "biography_author": null, "date_of_biography": "2023-05-09T17:57:59.685957+10:00", "external_links": [], "uuid": "69e5ab0c-6d7f-4e7c-8c6c-7f112adaa6a6", "source": {"name": "Vernon", "slug": "vernon"}, "source_identifier": "33037", "external_references": [], "date_modified": "2025-03-05T14:38:05.124801+11:00"}, {"id": 83565, "name": "Val Lehman", "roles_in_work": [{"id": 2651799, "title": "TV50 Celebrity Interviews", "work_id": 116800, "role": "interviewee", "role_id": 496, "is_primary": false}], "also_known_as": "", "date_of_birth": "", "date_of_death": "", "genders": [], "languages": [], "places_of_operation": [], "biography": "", "biography_author": null, "date_of_biography": "2023-05-09T17:57:59.330099+10:00", "external_links": [], "uuid": "f286c223-da43-4bd5-ac52-20cc9a51c9df", "source": {"name": "Vernon", "slug": "vernon"}, "source_identifier": "34654", "external_references": [], "date_modified": "2025-03-05T14:38:04.523113+11:00"}, {"id": 83564, "name": "Reg Grundy", "roles_in_work": [{"id": 2651798, "title": "TV50 Celebrity Interviews", "work_id": 116800, "role": "interviewee", "role_id": 496, "is_primary": false}], "also_known_as": "", "date_of_birth": "04 AUG 1923", "date_of_death": "", "genders": [{"id": 9, "name": "Male", "slug": "male"}], "languages": [], "places_of_operation": [], "biography": "", "biography_author": null, "date_of_biography": "2023-05-09T17:57:59.089496+10:00", "external_links": [], "uuid": "82a2834c-895d-4593-940c-848bb64e9616", "source": {"name": "Vernon", "slug": "vernon"}, "source_identifier": "34838", "external_references": [], "date_modified": "2025-03-05T14:38:03.917402+11:00"}, {"id": 83563, "name": "Suzie Wilkes", "roles_in_work": [{"id": 2651797, "title": "TV50 Celebrity Interviews", "work_id": 116800, "role": "interviewee", "role_id": 496, "is_primary": false}], "also_known_as": "", "date_of_birth": "1971", "date_of_death": "", "genders": [{"id": 5, "name": "Female", "slug": "female"}], "languages": [], "places_of_operation": [], "biography": "", "biography_author": null, "date_of_biography": "2023-05-09T17:57:58.842333+10:00", "external_links": [], "uuid": "5eb8c0c0-f99a-48fa-af93-067d56cc8481", "source": {"name": "Vernon", "slug": "vernon"}, "source_identifier": "34837", "external_references": [], "date_modified": "2025-03-05T14:38:03.275412+11:00"}, {"id": 83562, "name": "Katrina Warren", "roles_in_work": [{"id": 2651796, "title": "TV50 Celebrity Interviews", "work_id": 116800, "role": "interviewee", "role_id": 496, "is_primary": false}], "also_known_as": "", "date_of_birth": "08 DEC 1967", "date_of_death": "", "genders": [{"id": 5, "name": "Female", "slug": "female"}], "languages": [], "places_of_operation": [], "biography": "", "biography_author": null, "date_of_biography": "2023-05-09T17:57:58.602886+10:00", "external_links": [], "uuid": "96c40b47-42e7-48f1-8824-eb5a000744f3", "source": {"name": "Vernon", "slug": "vernon"}, "source_identifier": "34836", "external_references": [], "date_modified": "2025-03-05T14:38:02.647608+11:00"}, {"id": 83561, "name": "Ken James", "roles_in_work": [{"id": 2651795, "title": "TV50 Celebrity Interviews", "work_id": 116800, "role": "interviewee", "role_id": 496, "is_primary": false}], "also_known_as": "", "date_of_birth": "", "date_of_death": "", "genders": [], "languages": [], "places_of_operation": [], "biography": "", "biography_author": null, "date_of_biography": "2023-05-09T17:57:58.368863+10:00", "external_links": [], "uuid": "1379045d-3647-4404-9fb5-7aa76168aa62", "source": {"name": "Vernon", "slug": "vernon"}, "source_identifier": "33238", "external_references": [], "date_modified": "2025-03-05T14:38:01.940241+11:00"}, {"id": 83560, "name": "Rachael Gordon", "roles_in_work": [{"id": 2651794, "title": "TV50 Celebrity Interviews", "work_id": 116800, "role": "interviewee", "role_id": 496, "is_primary": false}], "also_known_as": "", "date_of_birth": "10 MAY 1976", "date_of_death": "", "genders": [{"id": 5, "name": "Female", "slug": "female"}], "languages": [], "places_of_operation": [], "biography": "", "biography_author": null, "date_of_biography": "2023-05-09T17:57:58.125723+10:00", "external_links": [], "uuid": "7b810ef6-fd2f-4bcd-8529-8a8d3cfb6481", "source": {"name": "Vernon", "slug": "vernon"}, "source_identifier": "34835", "external_references": [], "date_modified": "2025-03-05T14:38:01.336003+11:00"}, {"id": 83559, "name": "Julie Nihill", "roles_in_work": [{"id": 2651793, "title": "TV50 Celebrity Interviews", "work_id": 116800, "role": "interviewee", "role_id": 496, "is_primary": false}], "also_known_as": "", "date_of_birth": "1957", "date_of_death": "", "genders": [], "languages": [], "places_of_operation": [], "biography": "", "biography_author": null, "date_of_biography": "2023-05-09T17:57:57.890240+10:00", "external_links": [], "uuid": "b742cfb6-21ff-4da2-8776-14805b8f251d", "source": {"name": "Vernon", "slug": "vernon"}, "source_identifier": "34834", "external_references": [], "date_modified": "2025-03-05T14:38:00.746392+11:00"}, {"id": 83558, "name": "Rachael Maza", "roles_in_work": [{"id": 2651792, "title": "TV50 Celebrity Interviews", "work_id": 116800, "role": "interviewee", "role_id": 496, "is_primary": false}], "also_known_as": "", "date_of_birth": "", "date_of_death": "", "genders": [], "languages": [], "places_of_operation": [], "biography": "", "biography_author": null, "date_of_biography": "2023-05-09T17:57:57.647528+10:00", "external_links": [], "uuid": "49471c2a-a5e7-459c-892e-c9833d249b4e", "source": {"name": "Vernon", "slug": "vernon"}, "source_identifier": "34831", "external_references": [], "date_modified": "2025-03-05T14:38:00.137797+11:00"}]}