{"count": 28687, "next": "https://api.acmi.net.au/creators/?page=561", "previous": "https://api.acmi.net.au/creators/?page=559", "results": [{"id": 79983, "name": "Richard Guay", "roles_in_work": [{"id": 2476249, "title": "Ghost dog: way of the samurai [DVD]", "work_id": 92788, "role": "co-producer", "role_id": 915, "is_primary": true}], "also_known_as": "", "date_of_birth": "1953-01-01", "date_of_death": "", "genders": [{"id": 9, "name": "Male", "slug": "male"}], "languages": [], "places_of_operation": [{"id": 1, "name": "United States of America", "slug": "united-states-of-america"}], "biography": "Richard Guay is a New York City based American film producer.\nHis productions include True Love (1989)  which won the Grand Jury Prize at the 1989 Sundance Film Festival, Dogfight (1991), Ghost Dog: The Way of the Samurai (1999), Kinsey (2004), and Shutter (2008).He has been married to Nancy Savoca since 1980, and they have three children.", "biography_author": "Wikidata", "date_of_biography": "2023-09-06T00:29:33.446552+10:00", "external_links": [{"id": 4975, "uri": "https://en.wikipedia.org/wiki/Richard_Guay_(film_producer)"}], "uuid": "20fb225f-ebd5-486d-ae00-d788dc53e2ad", "source": {"name": "Vernon", "slug": "vernon"}, "source_identifier": "27397", "external_references": [{"id": 25780, "source": {"name": "Wikidata", "slug": "wikidata"}, "source_identifier": "Q3430819"}], "date_modified": "2023-09-06T00:29:33.457312+10:00"}, {"id": 79982, "name": "Jennifer Bennett", "roles_in_work": [{"id": 1996650, "title": "Kiss or kill [DVD]", "work_id": 92787, "role": "co-producer", "role_id": 915, "is_primary": true}], "also_known_as": "", "date_of_birth": null, "date_of_death": null, "genders": [], "languages": [], "places_of_operation": [], "biography": "", "biography_author": null, "date_of_biography": null, "external_links": [], "uuid": "1c1632f3-3ceb-4f10-98fa-4ec8cdcc45c3", "source": {"name": "Vernon", "slug": "vernon"}, "source_identifier": null, "external_references": [{"id": 40918, "source": {"name": "Wikidata", "slug": "wikidata"}, "source_identifier": "Q121091328"}], "date_modified": "2023-09-05T21:20:25.172599+10:00"}, {"id": 79981, "name": "Movievision", "roles_in_work": [{"id": 1996647, "title": "Kiss or kill [DVD]", "work_id": 92787, "role": "production company", "role_id": 941, "is_primary": true}], "also_known_as": "", "date_of_birth": null, "date_of_death": null, "genders": [], "languages": [], "places_of_operation": [], "biography": "", "biography_author": null, "date_of_biography": null, "external_links": [], "uuid": "1b1d4cee-59b7-41b2-895d-397bfe322f3e", "source": {"name": "Vernon", "slug": "vernon"}, "source_identifier": null, "external_references": [{"id": 42631, "source": {"name": "Wikidata", "slug": "wikidata"}, "source_identifier": "Q121143813"}], "date_modified": "2023-09-05T23:22:20.959580+10:00"}, {"id": 79980, "name": "Rowland Lee", "roles_in_work": [{"id": 2283711, "title": "The Toast of New York", "work_id": 92783, "role": "director", "role_id": 938, "is_primary": true}], "also_known_as": "", "date_of_birth": "1891-09-06", "date_of_death": "1975-12-21", "genders": [{"id": 9, "name": "Male", "slug": "male"}], "languages": [{"id": 1, "name": "English", "slug": "english"}], "places_of_operation": [{"id": 1, "name": "United States of America", "slug": "united-states-of-america"}], "biography": "Rowland Vance Lee (September 6, 1891 – December 21, 1975) was an American film director, actor, writer, and producer.", "biography_author": "Wikidata", "date_of_biography": "2023-08-01T16:56:05.160433+10:00", "external_links": [{"id": 3035, "uri": "https://en.wikipedia.org/wiki/Rowland_V._Lee"}], "uuid": "14aebe4f-cf59-4e8a-9fd9-376adb7f9776", "source": {"name": "Vernon", "slug": "vernon"}, "source_identifier": "28292", "external_references": [{"id": 12882, "source": {"name": "Wikidata", "slug": "wikidata"}, "source_identifier": "Q618330"}, {"id": 12883, "source": {"name": "VIAF", "slug": "viaf"}, "source_identifier": "37117228"}, {"id": 12884, "source": {"name": "LOC Auth", "slug": "loc-auth"}, "source_identifier": "no91004162"}, {"id": 12885, "source": {"name": "WorldCat", "slug": "worldcat"}, "source_identifier": "lccn-no91004162"}], "date_modified": "2023-09-06T00:57:16.412451+10:00"}, {"id": 79979, "name": "Marisa Paredes", "roles_in_work": [{"id": 912490, "title": "Highheels = High heels = Tacones lejanos", "work_id": 92779, "role": "cast", "role_id": 33, "is_primary": false}], "also_known_as": "", "date_of_birth": "1946-04-03", "date_of_death": null, "genders": [{"id": 5, "name": "Female", "slug": "female"}], "languages": [{"id": 10, "name": "Spanish", "slug": "spanish"}], "places_of_operation": [{"id": 14, "name": "Spain", "slug": "spain"}], "biography": "María Luisa Paredes Bartolomé (born 3 April 1946), known professionally as Marisa Paredes, is a Spanish actress.", "biography_author": "Wikidata", "date_of_biography": "2023-09-05T22:44:32.807271+10:00", "external_links": [{"id": 6003, "uri": "https://en.wikipedia.org/wiki/Marisa_Paredes"}], "uuid": "aa94ea7f-6b74-4e28-b4e8-ce807a25140e", "source": {"name": "Vernon", "slug": "vernon"}, "source_identifier": null, "external_references": [{"id": 33113, "source": {"name": "Wikidata", "slug": "wikidata"}, "source_identifier": "Q235398"}, {"id": 55168, "source": {"name": "VIAF", "slug": "viaf"}, "source_identifier": "118184714"}, {"id": 55169, "source": {"name": "LOC Auth", "slug": "loc-auth"}, "source_identifier": "n94091688"}, {"id": 55170, "source": {"name": "WorldCat", "slug": "worldcat"}, "source_identifier": "lccn-n94091688"}], "date_modified": "2023-09-05T22:44:43.663770+10:00"}, {"id": 79978, "name": "Enrique Posner", "roles_in_work": [{"id": 912487, "title": "Highheels = High heels = Tacones lejanos", "work_id": 92779, "role": "co-producer", "role_id": 915, "is_primary": true}], "also_known_as": "", "date_of_birth": null, "date_of_death": null, "genders": [], "languages": [], "places_of_operation": [], "biography": "", "biography_author": null, "date_of_biography": null, "external_links": [], "uuid": "7e381007-296d-46af-8d80-5628164a75a5", "source": {"name": "Vernon", "slug": "vernon"}, "source_identifier": null, "external_references": [{"id": 39294, "source": {"name": "Wikidata", "slug": "wikidata"}, "source_identifier": "Q121337621"}], "date_modified": "2023-09-05T19:33:29.850734+10:00"}, {"id": 79977, "name": "Paul Bradley", "roles_in_work": [{"id": 2074437, "title": "A Soldier's daughter never cries", "work_id": 92777, "role": "co-producer", "role_id": 915, "is_primary": true}], "also_known_as": "", "date_of_birth": "", "date_of_death": "", "genders": [], "languages": [], "places_of_operation": [], "biography": "", "biography_author": null, "date_of_biography": "2023-05-09T11:38:48.054839+10:00", "external_links": [], "uuid": "e9a33604-1e16-4f52-8933-2035f547280c", "source": {"name": "Vernon", "slug": "vernon"}, "source_identifier": "26179", "external_references": [{"id": 36108, "source": {"name": "Wikidata", "slug": "wikidata"}, "source_identifier": "Q121299203"}], "date_modified": "2023-09-05T23:44:38.603416+10:00"}, {"id": 79976, "name": "Julie Bergman Sender", "roles_in_work": [{"id": 1996615, "title": "Washington square", "work_id": 92775, "role": "co-producer", "role_id": 915, "is_primary": true}], "also_known_as": "", "date_of_birth": null, "date_of_death": null, "genders": [], "languages": [], "places_of_operation": [], "biography": "", "biography_author": null, "date_of_biography": null, "external_links": [], "uuid": "258ee9f5-d775-405c-b168-1dc1c4be83c0", "source": {"name": "Vernon", "slug": "vernon"}, "source_identifier": null, "external_references": [{"id": 36623, "source": {"name": "Wikidata", "slug": "wikidata"}, "source_identifier": "Q121315107"}], "date_modified": "2023-09-05T21:56:01.625877+10:00"}, {"id": 79975, "name": "Jennifer Twiner McCarron", "roles_in_work": [{"id": 2107936, "title": "Barbie in the nutcracker", "work_id": 92767, "role": "co-producer", "role_id": 915, "is_primary": true}], "also_known_as": "", "date_of_birth": "", "date_of_death": "", "genders": [], "languages": [], "places_of_operation": [], "biography": "", "biography_author": null, "date_of_biography": "2023-05-09T12:41:18.251076+10:00", "external_links": [], "uuid": "fb160c82-a913-44c3-a258-20b94bcab874", "source": {"name": "Vernon", "slug": "vernon"}, "source_identifier": "21710", "external_references": [{"id": 43479, "source": {"name": "Wikidata", "slug": "wikidata"}, "source_identifier": "Q121298811"}], "date_modified": "2023-09-05T21:20:39.892584+10:00"}, {"id": 79974, "name": "Jesyca C Durchin", "roles_in_work": [{"id": 2107933, "title": "Barbie in the nutcracker", "work_id": 92767, "role": "co-producer", "role_id": 915, "is_primary": true}], "also_known_as": "", "date_of_birth": "", "date_of_death": "", "genders": [], "languages": [], "places_of_operation": [], "biography": "", "biography_author": null, "date_of_biography": "2023-05-09T12:41:17.950494+10:00", "external_links": [], "uuid": "a8d601b8-3dba-4d57-941d-356a46993a3c", "source": {"name": "Vernon", "slug": "vernon"}, "source_identifier": "21841", "external_references": [{"id": 34185, "source": {"name": "Wikidata", "slug": "wikidata"}, "source_identifier": "Q121144261"}], "date_modified": "2023-09-05T21:23:44.961223+10:00"}]}