{"count": 28687, "next": "https://api.acmi.net.au/creators/?page=2078", "previous": "https://api.acmi.net.au/creators/?page=2076", "results": [{"id": 21026, "name": "Howard Brookner", "roles_in_work": [{"id": 898056, "title": "Burroughs", "work_id": 78083, "role": "director", "role_id": 938, "is_primary": true}, {"id": 898054, "title": "Burroughs", "work_id": 78083, "role": "co-producer", "role_id": 915, "is_primary": true}], "also_known_as": "", "date_of_birth": "1954-04-30", "date_of_death": "1989-04-27", "genders": [{"id": 9, "name": "Male", "slug": "male"}], "languages": [], "places_of_operation": [{"id": 1, "name": "United States of America", "slug": "united-states-of-america"}], "biography": "Howard Brookner (April 30, 1954 – April 27, 1989) was an American film director. He produced and directed the documentary Burroughs: the Movie about William S. Burroughs (1983), Robert Wilson and the Civil Wars on theatre director Robert Wilson (1986), and directed, co-produced and co-wrote Bloodhounds of Broadway (1989).", "biography_author": "Wikidata", "date_of_biography": "2023-08-01T15:12:22.388353+10:00", "external_links": [{"id": 4166, "uri": "https://en.wikipedia.org/wiki/Howard_Brookner"}], "uuid": "1331821f-18f7-4423-bba1-57833601ee2d", "source": {"name": "Vernon", "slug": "vernon"}, "source_identifier": "20610", "external_references": [{"id": 27007, "source": {"name": "Wikidata", "slug": "wikidata"}, "source_identifier": "Q5919184"}, {"id": 28944, "source": {"name": "VIAF", "slug": "viaf"}, "source_identifier": "312620542"}, {"id": 28945, "source": {"name": "LOC Auth", "slug": "loc-auth"}, "source_identifier": "no97039613"}, {"id": 28946, "source": {"name": "WorldCat", "slug": "worldcat"}, "source_identifier": "lccn-no97039613"}], "date_modified": "2023-09-13T12:30:00.527992+10:00"}, {"id": 21024, "name": "Jackie Raynal", "roles_in_work": [{"id": 2409902, "title": "Hotel New York", "work_id": 78082, "role": "director", "role_id": 938, "is_primary": true}], "also_known_as": "", "date_of_birth": "1940-10-20", "date_of_death": "", "genders": [{"id": 5, "name": "Female", "slug": "female"}], "languages": [{"id": 4, "name": "French", "slug": "french"}], "places_of_operation": [{"id": 17, "name": "France", "slug": "france"}], "biography": "", "biography_author": null, "date_of_biography": "2023-08-11T17:31:21.169916+10:00", "external_links": [], "uuid": "ce2c2d70-63bc-4c96-9160-8c404a6742c5", "source": {"name": "Vernon", "slug": "vernon"}, "source_identifier": "21117", "external_references": [{"id": 38453, "source": {"name": "Wikidata", "slug": "wikidata"}, "source_identifier": "Q3157404"}, {"id": 54736, "source": {"name": "VIAF", "slug": "viaf"}, "source_identifier": "39657796"}, {"id": 54737, "source": {"name": "LOC Auth", "slug": "loc-auth"}, "source_identifier": "no2008097717"}, {"id": 54738, "source": {"name": "WorldCat", "slug": "worldcat"}, "source_identifier": "lccn-no2008097717"}], "date_modified": "2023-09-05T20:57:53.112991+10:00"}, {"id": 21023, "name": "Zanzibar Productions", "roles_in_work": [{"id": 2409901, "title": "Hotel New York", "work_id": 78082, "role": "production company", "role_id": 941, "is_primary": true}], "also_known_as": "", "date_of_birth": "", "date_of_death": "", "genders": [], "languages": [], "places_of_operation": [], "biography": "", "biography_author": null, "date_of_biography": "2023-08-11T17:31:20.551106+10:00", "external_links": [], "uuid": "a61fa3f2-a3eb-41f3-98b9-1bd712e31283", "source": {"name": "Vernon", "slug": "vernon"}, "source_identifier": "14524", "external_references": [], "date_modified": "2023-08-11T17:31:20.551495+10:00"}, {"id": 21022, "name": "Joel DeMott", "roles_in_work": [{"id": 864570, "title": "Demon lover diary", "work_id": 78080, "role": "director", "role_id": 938, "is_primary": true}, {"id": 2294233, "title": "Seventeen", "work_id": 78240, "role": "co-producer", "role_id": 915, "is_primary": true}], "also_known_as": "", "date_of_birth": "", "date_of_death": "", "genders": [{"id": 5, "name": "Female", "slug": "female"}], "languages": [], "places_of_operation": [], "biography": "", "biography_author": null, "date_of_biography": "2023-05-09T18:24:34.553671+10:00", "external_links": [], "uuid": "47c06c17-a58d-4ffe-b51a-0efb50ef13e2", "source": {"name": "Vernon", "slug": "vernon"}, "source_identifier": "1720", "external_references": [{"id": 43360, "source": {"name": "Wikidata", "slug": "wikidata"}, "source_identifier": "Q105492584"}], "date_modified": "2023-09-05T21:30:45.618817+10:00"}, {"id": 21021, "name": "Kreines Films", "roles_in_work": [{"id": 864569, "title": "Demon lover diary", "work_id": 78080, "role": "production company", "role_id": 941, "is_primary": true}, {"id": 2294229, "title": "Seventeen", "work_id": 78240, "role": "production company", "role_id": 941, "is_primary": true}], "also_known_as": "", "date_of_birth": "", "date_of_death": "", "genders": [], "languages": [], "places_of_operation": [], "biography": "", "biography_author": null, "date_of_biography": "2023-05-09T18:24:34.301360+10:00", "external_links": [], "uuid": "1cd945e2-ccae-4a2e-8b8a-cdb1f5eb90c4", "source": {"name": "Vernon", "slug": "vernon"}, "source_identifier": "9841", "external_references": [{"id": 32977, "source": {"name": "Wikidata", "slug": "wikidata"}, "source_identifier": "Q121035530"}], "date_modified": "2023-09-05T22:11:51.506010+10:00"}, {"id": 21020, "name": "DeMott", "roles_in_work": [{"id": 2294222, "title": "Seventeen", "work_id": 78240, "role": "production company", "role_id": 941, "is_primary": true}, {"id": 864568, "title": "Demon lover diary", "work_id": 78080, "role": "production company", "role_id": 941, "is_primary": true}], "also_known_as": "", "date_of_birth": "", "date_of_death": "", "genders": [], "languages": [], "places_of_operation": [], "biography": "", "biography_author": null, "date_of_biography": "2023-05-09T18:24:34.044736+10:00", "external_links": [], "uuid": "b6772108-0842-4460-b60d-5979956c56a3", "source": {"name": "Vernon", "slug": "vernon"}, "source_identifier": "7398", "external_references": [], "date_modified": "2023-06-14T16:33:30.576250+10:00"}, {"id": 21017, "name": "Lemon Film", "roles_in_work": [{"id": 2648048, "title": "Underage", "work_id": 78078, "role": "production company", "role_id": 941, "is_primary": true}], "also_known_as": "", "date_of_birth": null, "date_of_death": null, "genders": [], "languages": [], "places_of_operation": [], "biography": "", "biography_author": null, "date_of_biography": null, "external_links": [], "uuid": "7ca2b2eb-b5e0-4ebf-84df-f39bbfdc629f", "source": {"name": "Vernon", "slug": "vernon"}, "source_identifier": "9971", "external_references": [], "date_modified": "2025-03-05T13:37:22.938061+11:00"}, {"id": 21016, "name": "Charles Konawal", "roles_in_work": [{"id": 2648047, "title": "Grain elevator", "work_id": 78077, "role": "director", "role_id": 938, "is_primary": true}], "also_known_as": "", "date_of_birth": "", "date_of_death": "", "genders": [], "languages": [], "places_of_operation": [], "biography": "", "biography_author": null, "date_of_biography": "2023-08-11T17:08:08.817563+10:00", "external_links": [], "uuid": "37f249e4-bbfe-4c79-8d1f-16b6f8f9144e", "source": {"name": "Vernon", "slug": "vernon"}, "source_identifier": "16690", "external_references": [], "date_modified": "2025-03-05T13:37:22.009967+11:00"}, {"id": 21015, "name": "Wayne Finucan Productions", "roles_in_work": [{"id": 2648046, "title": "Grain elevator", "work_id": 78077, "role": "production company", "role_id": 941, "is_primary": true}], "also_known_as": "", "date_of_birth": "", "date_of_death": "", "genders": [], "languages": [], "places_of_operation": [], "biography": "", "biography_author": null, "date_of_biography": "2023-08-11T17:08:08.193702+10:00", "external_links": [], "uuid": "a822123c-da47-4c06-a6f9-37dbc9c813b7", "source": {"name": "Vernon", "slug": "vernon"}, "source_identifier": "14266", "external_references": [], "date_modified": "2025-03-05T13:37:21.420379+11:00"}, {"id": 21013, "name": "Atkinson Film Arts", "roles_in_work": [{"id": 2283624, "title": "The Tin soldier. The Nightingale", "work_id": 79205, "role": "production company", "role_id": 941, "is_primary": true}, {"id": 864560, "title": "The Great energy waste", "work_id": 78074, "role": "production company", "role_id": 941, "is_primary": true}], "also_known_as": "", "date_of_birth": "", "date_of_death": "", "genders": [], "languages": [], "places_of_operation": [], "biography": "", "biography_author": null, "date_of_biography": "2023-05-09T18:05:53.042059+10:00", "external_links": [], "uuid": "3ac45cfa-c5e4-4cdb-a30d-108ecf213582", "source": {"name": "Vernon", "slug": "vernon"}, "source_identifier": "5491", "external_references": [{"id": 32367, "source": {"name": "Wikidata", "slug": "wikidata"}, "source_identifier": "Q121337012"}], "date_modified": "2023-09-05T17:49:02.600163+10:00"}]}