{"count": 28687, "next": "https://api.acmi.net.au/creators/?page=275", "previous": "https://api.acmi.net.au/creators/?page=273", "results": [{"id": 82867, "name": "Zhang Xiangfei", "roles_in_work": [{"id": 2651390, "title": "Bubbling spring = Quan shi ding dong", "work_id": 115835, "role": "cast", "role_id": 33, "is_primary": false}], "also_known_as": "", "date_of_birth": "", "date_of_death": "", "genders": [{"id": 5, "name": "Female", "slug": "female"}], "languages": [], "places_of_operation": [], "biography": "", "biography_author": null, "date_of_biography": "2023-05-09T13:11:23.614655+10:00", "external_links": [], "uuid": "e86924cd-8990-4294-9515-1d60c87dd365", "source": {"name": "Vernon", "slug": "vernon"}, "source_identifier": "36384", "external_references": [{"id": 39145, "source": {"name": "Wikidata", "slug": "wikidata"}, "source_identifier": "Q121336969"}], "date_modified": "2025-03-05T14:29:29.661580+11:00"}, {"id": 82866, "name": "Niu Ben", "roles_in_work": [{"id": 2651389, "title": "Bubbling spring = Quan shi ding dong", "work_id": 115835, "role": "cast", "role_id": 33, "is_primary": false}], "also_known_as": "", "date_of_birth": "1935", "date_of_death": "", "genders": [{"id": 9, "name": "Male", "slug": "male"}], "languages": [], "places_of_operation": [], "biography": "", "biography_author": null, "date_of_biography": "2023-05-09T13:11:23.381149+10:00", "external_links": [], "uuid": "dbf4287e-49d0-43c6-a421-2e5193aff3bf", "source": {"name": "Vernon", "slug": "vernon"}, "source_identifier": "36383", "external_references": [{"id": 41979, "source": {"name": "Wikidata", "slug": "wikidata"}, "source_identifier": "Q121270681"}], "date_modified": "2025-03-05T14:29:29.054305+11:00"}, {"id": 82865, "name": "Wei Cunbao", "roles_in_work": [{"id": 2651388, "title": "Bubbling spring = Quan shi ding dong", "work_id": 115835, "role": "editor", "role_id": 918, "is_primary": true}], "also_known_as": "", "date_of_birth": "", "date_of_death": "", "genders": [], "languages": [], "places_of_operation": [], "biography": "", "biography_author": null, "date_of_biography": "2023-05-09T13:11:23.139333+10:00", "external_links": [], "uuid": "b63a34b9-c037-4686-9fc6-e83bc51bf54d", "source": {"name": "Vernon", "slug": "vernon"}, "source_identifier": "36382", "external_references": [{"id": 40661, "source": {"name": "Wikidata", "slug": "wikidata"}, "source_identifier": "Q121270601"}], "date_modified": "2025-03-05T14:29:28.461990+11:00"}, {"id": 82864, "name": "Wu Jianxin", "roles_in_work": [{"id": 2651386, "title": "Bubbling spring = Quan shi ding dong", "work_id": 115835, "role": "script", "role_id": 962, "is_primary": false}], "also_known_as": "", "date_of_birth": "", "date_of_death": "", "genders": [], "languages": [], "places_of_operation": [], "biography": "", "biography_author": null, "date_of_biography": "2023-05-09T13:11:22.669272+10:00", "external_links": [], "uuid": "ec9ead2b-2db3-45f7-b61f-5a72b54e1595", "source": {"name": "Vernon", "slug": "vernon"}, "source_identifier": "36381", "external_references": [], "date_modified": "2025-03-05T14:29:27.286484+11:00"}, {"id": 82863, "name": "Chen Rongxuan", "roles_in_work": [{"id": 2651384, "title": "Bubbling spring = Quan shi ding dong", "work_id": 115835, "role": "producer", "role_id": 1089, "is_primary": true}], "also_known_as": "", "date_of_birth": "", "date_of_death": "", "genders": [], "languages": [], "places_of_operation": [], "biography": "", "biography_author": null, "date_of_biography": "2023-05-09T13:11:22.194704+10:00", "external_links": [], "uuid": "a072c91d-7bb0-4ee6-982c-48277b25082a", "source": {"name": "Vernon", "slug": "vernon"}, "source_identifier": "31364", "external_references": [{"id": 43257, "source": {"name": "Wikidata", "slug": "wikidata"}, "source_identifier": "Q121079090"}], "date_modified": "2025-03-05T14:29:26.106572+11:00"}, {"id": 82862, "name": "Lu Xi", "roles_in_work": [{"id": 2651381, "title": "The Kunlun Column = Wei Wei Kun Lun", "work_id": 115834, "role": "cast", "role_id": 33, "is_primary": false}], "also_known_as": "", "date_of_birth": "", "date_of_death": "", "genders": [], "languages": [], "places_of_operation": [], "biography": "", "biography_author": null, "date_of_biography": "2023-05-09T20:07:14.475575+10:00", "external_links": [], "uuid": "2fa86dd9-d879-4ffe-ad26-7f88f0b3ac12", "source": {"name": "Vernon", "slug": "vernon"}, "source_identifier": "37994", "external_references": [{"id": 37025, "source": {"name": "Wikidata", "slug": "wikidata"}, "source_identifier": "Q121144271"}], "date_modified": "2025-03-05T14:29:23.587369+11:00"}, {"id": 82861, "name": "Zhang KeYao", "roles_in_work": [{"id": 2651379, "title": "The Kunlun Column = Wei Wei Kun Lun", "work_id": 115834, "role": "cast", "role_id": 33, "is_primary": false}], "also_known_as": "", "date_of_birth": "", "date_of_death": "", "genders": [], "languages": [], "places_of_operation": [], "biography": "", "biography_author": null, "date_of_biography": "2023-05-09T20:07:13.992910+10:00", "external_links": [], "uuid": "a0b74959-db2f-43d6-ac9b-fd0c79d45f54", "source": {"name": "Vernon", "slug": "vernon"}, "source_identifier": "37993", "external_references": [{"id": 36318, "source": {"name": "Wikidata", "slug": "wikidata"}, "source_identifier": "Q121126224"}], "date_modified": "2025-03-05T14:29:22.415250+11:00"}, {"id": 82860, "name": "Jin Mu-Kui", "roles_in_work": [{"id": 2651377, "title": "The Kunlun Column = Wei Wei Kun Lun", "work_id": 115834, "role": "director", "role_id": 938, "is_primary": true}], "also_known_as": "", "date_of_birth": "", "date_of_death": "", "genders": [], "languages": [], "places_of_operation": [], "biography": "", "biography_author": null, "date_of_biography": "2023-05-09T20:07:13.518126+10:00", "external_links": [], "uuid": "2355f448-e3d1-4423-afa1-6d77dcfc2995", "source": {"name": "Vernon", "slug": "vernon"}, "source_identifier": "37992", "external_references": [{"id": 36310, "source": {"name": "Wikidata", "slug": "wikidata"}, "source_identifier": "Q121126568"}], "date_modified": "2025-03-05T14:29:21.249978+11:00"}, {"id": 82859, "name": "Sheng Dong", "roles_in_work": [{"id": 2651375, "title": "The Kunlun Column = Wei Wei Kun Lun", "work_id": 115834, "role": "director", "role_id": 938, "is_primary": true}, {"id": 2651378, "title": "The Kunlun Column = Wei Wei Kun Lun", "work_id": 115834, "role": "writer", "role_id": 939, "is_primary": true}], "also_known_as": "", "date_of_birth": "", "date_of_death": "", "genders": [], "languages": [], "places_of_operation": [], "biography": "", "biography_author": null, "date_of_biography": "2023-05-09T20:07:13.746063+10:00", "external_links": [], "uuid": "cb55c654-e2f2-43da-839d-ba0c85906c83", "source": {"name": "Vernon", "slug": "vernon"}, "source_identifier": "37964", "external_references": [{"id": 37793, "source": {"name": "Wikidata", "slug": "wikidata"}, "source_identifier": "Q121271454"}], "date_modified": "2025-03-05T14:29:21.838135+11:00"}, {"id": 82858, "name": "Chen Shimin", "roles_in_work": [{"id": 2651374, "title": "Coloured balloons = Shan guang de CAI qiu", "work_id": 115833, "role": "cast", "role_id": 33, "is_primary": false}], "also_known_as": "", "date_of_birth": "", "date_of_death": "", "genders": [], "languages": [], "places_of_operation": [], "biography": "", "biography_author": null, "date_of_biography": "2023-05-09T13:38:45.587110+10:00", "external_links": [], "uuid": "76de9ba4-60ce-452b-9ecb-c64d1250d56d", "source": {"name": "Vernon", "slug": "vernon"}, "source_identifier": "36546", "external_references": [{"id": 40854, "source": {"name": "Wikidata", "slug": "wikidata"}, "source_identifier": "Q121079037"}], "date_modified": "2025-03-05T14:29:19.232159+11:00"}]}