{"count": 28687, "next": "https://api.acmi.net.au/creators/?page=1618", "previous": "https://api.acmi.net.au/creators/?page=1616", "results": [{"id": 30567, "name": "Artanis", "roles_in_work": [{"id": 2174183, "title": "None but the brave", "work_id": 88489, "role": "production company", "role_id": 941, "is_primary": true}], "also_known_as": "", "date_of_birth": "", "date_of_death": "", "genders": [], "languages": [], "places_of_operation": [], "biography": "", "biography_author": null, "date_of_biography": "2023-05-09T14:42:22.451916+10:00", "external_links": [], "uuid": "e1546594-655a-4ca8-ab69-349af2d1f600", "source": {"name": "Vernon", "slug": "vernon"}, "source_identifier": "5397", "external_references": [{"id": 41402, "source": {"name": "Wikidata", "slug": "wikidata"}, "source_identifier": "Q121337125"}], "date_modified": "2023-09-05T17:46:22.478783+10:00"}, {"id": 30566, "name": "Sinatra Enterprises", "roles_in_work": [{"id": 2174181, "title": "None but the brave", "work_id": 88489, "role": "production company", "role_id": 941, "is_primary": true}], "also_known_as": "", "date_of_birth": "", "date_of_death": "", "genders": [], "languages": [], "places_of_operation": [], "biography": "", "biography_author": null, "date_of_biography": "2023-05-09T14:42:22.112615+10:00", "external_links": [], "uuid": "090dec05-b9f3-417e-b782-9286f95b14b9", "source": {"name": "Vernon", "slug": "vernon"}, "source_identifier": "12606", "external_references": [{"id": 33832, "source": {"name": "Wikidata", "slug": "wikidata"}, "source_identifier": "Q121159879"}], "date_modified": "2023-09-06T01:21:03.716859+10:00"}, {"id": 30565, "name": "Albert Magnoli", "roles_in_work": [{"id": 2233245, "title": "Purple rain", "work_id": 88487, "role": "director", "role_id": 938, "is_primary": true}], "also_known_as": "", "date_of_birth": null, "date_of_death": null, "genders": [{"id": 9, "name": "Male", "slug": "male"}], "languages": [], "places_of_operation": [{"id": 1, "name": "United States of America", "slug": "united-states-of-america"}], "biography": "Albert Magnoli (born c. 1954) is an American film director, screenwriter and editor best known for helming the films Purple Rain, Tango & Cash (replacement director), Street Knight, and American Anthem. Magnoli also served as editor of the 1984 film Reckless.", "biography_author": "Wikidata", "date_of_biography": "2022-05-19T10:43:33.336804+10:00", "external_links": [{"id": 1583, "uri": "https://en.wikipedia.org/wiki/Albert_Magnoli"}], "uuid": "efa98f9b-64e7-4c79-91b3-1963c692493e", "source": {"name": "Vernon", "slug": "vernon"}, "source_identifier": "14840", "external_references": [{"id": 6936, "source": {"name": "Wikidata", "slug": "wikidata"}, "source_identifier": "Q16731822"}], "date_modified": "2023-09-13T12:28:03.113053+10:00"}, {"id": 30562, "name": "Arthur C. Stevens", "roles_in_work": [{"id": 879250, "title": "Kings of sport", "work_id": 91662, "role": "director", "role_id": 938, "is_primary": true}, {"id": 2408310, "title": "Gallery of the great. No. 1. Monty of Alamein", "work_id": 88483, "role": "producer", "role_id": 1089, "is_primary": true}], "also_known_as": "", "date_of_birth": "", "date_of_death": "", "genders": [], "languages": [], "places_of_operation": [], "biography": "", "biography_author": null, "date_of_biography": "2023-08-11T16:57:39.038313+10:00", "external_links": [], "uuid": "262775f6-237b-4953-a4ed-26a695064c80", "source": {"name": "Vernon", "slug": "vernon"}, "source_identifier": "15518", "external_references": [], "date_modified": "2023-08-11T16:57:39.038541+10:00"}, {"id": 30561, "name": "Movie Paks", "roles_in_work": [{"id": 2408309, "title": "Gallery of the great. No. 1. Monty of Alamein", "work_id": 88483, "role": "production company", "role_id": 941, "is_primary": true}], "also_known_as": "", "date_of_birth": "", "date_of_death": "", "genders": [], "languages": [], "places_of_operation": [], "biography": "", "biography_author": null, "date_of_biography": "2023-08-11T16:57:38.405672+10:00", "external_links": [], "uuid": "42d56a70-362c-4695-bcc2-3b71c3cdb307", "source": {"name": "Vernon", "slug": "vernon"}, "source_identifier": "10672", "external_references": [], "date_modified": "2023-08-11T16:57:38.405899+10:00"}, {"id": 30555, "name": "Government of NSW", "roles_in_work": [{"id": 2392714, "title": "Pacific terminal", "work_id": 88470, "role": "production company", "role_id": 941, "is_primary": true}], "also_known_as": "", "date_of_birth": "", "date_of_death": "", "genders": [], "languages": [], "places_of_operation": [], "biography": "", "biography_author": null, "date_of_biography": "2023-08-09T03:59:48.013941+10:00", "external_links": [], "uuid": "0a6ff1e6-dea2-4ffb-ba74-decdca60f209", "source": {"name": "Vernon", "slug": "vernon"}, "source_identifier": "8823", "external_references": [], "date_modified": "2023-08-09T03:59:48.014223+10:00"}, {"id": 30551, "name": "Ray Enright", "roles_in_work": [{"id": 2174768, "title": "Montana", "work_id": 88464, "role": "director", "role_id": 938, "is_primary": true}, {"id": 2684621, "title": "Alibi Ike cinema slide", "work_id": 119830, "role": "director", "role_id": 938, "is_primary": true}], "also_known_as": "", "date_of_birth": "1896", "date_of_death": "1965", "genders": [], "languages": [], "places_of_operation": [], "biography": "", "biography_author": null, "date_of_biography": "2023-07-19T03:48:04.608935+10:00", "external_links": [], "uuid": "2f651e54-3cba-4f64-bb71-74d4546a3471", "source": {"name": "Vernon", "slug": "vernon"}, "source_identifier": "27153", "external_references": [{"id": 39658, "source": {"name": "Wikidata", "slug": "wikidata"}, "source_identifier": "Q121337074"}], "date_modified": "2025-03-11T11:40:04.991600+11:00"}, {"id": 30550, "name": "Phil Feldman Productions", "roles_in_work": [{"id": 2329287, "title": "The Ballad of Cable Hogue", "work_id": 88462, "role": "production company", "role_id": 941, "is_primary": true}], "also_known_as": "", "date_of_birth": "", "date_of_death": "", "genders": [], "languages": [], "places_of_operation": [], "biography": "", "biography_author": null, "date_of_biography": "2023-05-09T19:23:25.465598+10:00", "external_links": [], "uuid": "5a09f05b-6b6a-4b67-8253-26ca39b0649a", "source": {"name": "Vernon", "slug": "vernon"}, "source_identifier": "11445", "external_references": [{"id": 36560, "source": {"name": "Wikidata", "slug": "wikidata"}, "source_identifier": "Q121143775"}], "date_modified": "2023-09-06T00:03:12.617719+10:00"}, {"id": 30548, "name": "Mario Van Peebles", "roles_in_work": [{"id": 2475800, "title": "New Jack City", "work_id": 88453, "role": "director", "role_id": 938, "is_primary": true}], "also_known_as": "", "date_of_birth": "1957-01-15", "date_of_death": null, "genders": [{"id": 9, "name": "Male", "slug": "male"}], "languages": [{"id": 1, "name": "English", "slug": "english"}, {"id": 10, "name": "Spanish", "slug": "spanish"}], "places_of_operation": [{"id": 1, "name": "United States of America", "slug": "united-states-of-america"}], "biography": "Mario Van Peebles (born January 15, 1957) is an American film director and actor best known for directing and starring in New Jack City in 1991 and USS Indianapolis: Men of Courage in 2016. He is the son of actor and filmmaker Melvin Van Peebles (1932-2021), whom he portrayed in the 2003 biopic Baadasssss!, which he also co-wrote and directed.\n\n", "biography_author": "Wikidata", "date_of_biography": "2022-05-19T12:22:20.538319+10:00", "external_links": [{"id": 2638, "uri": "https://en.wikipedia.org/wiki/Mario_Van_Peebles"}], "uuid": "af2af843-a9de-4bdc-ba9f-1ba3ae3591cf", "source": {"name": "Vernon", "slug": "vernon"}, "source_identifier": "24441", "external_references": [{"id": 11269, "source": {"name": "Wikidata", "slug": "wikidata"}, "source_identifier": "Q126957"}, {"id": 11270, "source": {"name": "VIAF", "slug": "viaf"}, "source_identifier": "79170931"}, {"id": 11271, "source": {"name": "LOC Auth", "slug": "loc-auth"}, "source_identifier": "n90609894"}, {"id": 11272, "source": {"name": "WorldCat", "slug": "worldcat"}, "source_identifier": "lccn-n90609894"}], "date_modified": "2023-09-13T12:31:13.675350+10:00"}, {"id": 30545, "name": "David W. Rintels", "roles_in_work": [{"id": 2095666, "title": "Andersonville", "work_id": 88449, "role": "producer", "role_id": 1089, "is_primary": true}], "also_known_as": "", "date_of_birth": "", "date_of_death": "", "genders": [], "languages": [], "places_of_operation": [], "biography": "", "biography_author": null, "date_of_biography": "2023-05-09T12:23:22.782148+10:00", "external_links": [], "uuid": "afc3ffa7-05aa-4e5d-9e0a-31327b838768", "source": {"name": "Vernon", "slug": "vernon"}, "source_identifier": "17838", "external_references": [{"id": 36980, "source": {"name": "Wikidata", "slug": "wikidata"}, "source_identifier": "Q121337564"}], "date_modified": "2023-09-05T19:03:26.648338+10:00"}]}