{"count": 28687, "next": "https://api.acmi.net.au/creators/?page=760", "previous": "https://api.acmi.net.au/creators/?page=758", "results": [{"id": 77993, "name": "Maggie Smith", "roles_in_work": [{"id": 2183059, "title": "Death on the Nile", "work_id": 85589, "role": "cast", "role_id": 33, "is_primary": false}], "also_known_as": "Margaret Natalie Smith", "date_of_birth": "1934-12-28", "date_of_death": "", "genders": [{"id": 5, "name": "Female", "slug": "female"}], "languages": [], "places_of_operation": [{"id": 10, "name": "United Kingdom", "slug": "united-kingdom"}], "biography": "Dame Margaret Natalie Smith  (born 28 December 1934) is an English actress. With an extensive career on screen and stage over seven decades, she has achieved the Triple Crown of Acting, having received highest achievement for film, television and theatre, winning two Academy Awards, a Tony Award, and four Primetime Emmy Awards. Hailed as one of Britain's most recognisable and prolific actresses, she was made a Dame by Queen Elizabeth II in 1990 for contributions to the Arts, and a Companion of Honour in 2014 for services to Drama.Smith began her career on stage as a student, performing at the Oxford Playhouse in 1952, and made her professional debut on Broadway in New Faces of '56. Over the following decades, Smith established herself alongside Judi Dench as one of the most significant British theatre performers, working for the National Theatre Company and the Royal Shakespeare Company. On the Broadway stage she received Tony Award nominations for Noël Coward's Private Lives (1975) and David Hare's Night and Day (1979), winning Best Actress in a Play for Lettice and Lovage (1990).\nSmith received two Academy Awards for her roles in The Prime of Miss Jean Brodie (1969), and California Suite (1978). Her other Oscar-nominated roles were in Othello (1965), Travels with My Aunt (1972), A Room with a View (1985), and Gosford Park (2001). She portrayed Minerva McGonagall in the Harry Potter film series (2001–2011). Other notable films include Death on the Nile (1978), Hook (1991), Sister Act (1992), The Secret Garden (1993), The Best Exotic Marigold Hotel (2012), Quartet (2012) and The Lady in the Van (2015).\nOn television she gained newfound attention and international fame for her role as Violet Crawley, Dowager Countess of Grantham, on Julian Fellowes's period series Downton Abbey (2010–2015), as well as the 2019 film and its 2022 sequel. The role earned her three Primetime Emmy Awards, which she has also won for the HBO film My House in Umbria (2003). She is the recipient of several honorary awards including the British Film Institute Fellowship in 1993, the BAFTA Fellowship in 1996, and the Society of London Theatre Special Award in 2010.", "biography_author": "Wikidata", "date_of_biography": "2023-08-01T16:01:20.587234+10:00", "external_links": [{"id": 4589, "uri": "https://en.wikipedia.org/wiki/Maggie_Smith"}], "uuid": "df7deef9-13c2-4a1a-aec4-df4e98c31c79", "source": {"name": "Vernon", "slug": "vernon"}, "source_identifier": "35961", "external_references": [{"id": 25183, "source": {"name": "Wikidata", "slug": "wikidata"}, "source_identifier": "Q172653"}, {"id": 30050, "source": {"name": "VIAF", "slug": "viaf"}, "source_identifier": "32184778"}, {"id": 30051, "source": {"name": "LOC Auth", "slug": "loc-auth"}, "source_identifier": "nr88003842"}, {"id": 30052, "source": {"name": "WorldCat", "slug": "worldcat"}, "source_identifier": "lccn-nr88003842"}], "date_modified": "2023-08-15T11:44:25.737184+10:00"}, {"id": 77992, "name": "Olivia Hussey", "roles_in_work": [{"id": 2183057, "title": "Death on the Nile", "work_id": 85589, "role": "cast", "role_id": 33, "is_primary": false}], "also_known_as": "Olivia Osuna Hussey", "date_of_birth": "1951-04-17", "date_of_death": "", "genders": [{"id": 5, "name": "Female", "slug": "female"}], "languages": [{"id": 1, "name": "English", "slug": "english"}], "places_of_operation": [{"id": 10, "name": "United Kingdom", "slug": "united-kingdom"}], "biography": "Olivia Hussey (born Olivia Osuna; 17 April 1951) is an English film, stage, and television actress. Her awards include a Golden Globe Award and a David di Donatello Award. The daughter of Argentine opera singer Andrés Osuna, Hussey was born in Buenos Aires and spent most of her early life in her mother's native England. She aspired to become an actress at a young age and studied drama for five years at Italia Conti Academy of Theatre Arts in London.\nHussey began acting professionally as an adolescent. She appeared in a 1966 London production of The Prime of Miss Jean Brodie, opposite Vanessa Redgrave; this led to her being scouted for the role of Juliet in Franco Zeffirelli's 1968 film adaptation of Romeo and Juliet. Hussey received widespread acclaim and international recognition for her performance.\nIn 1974, she appeared as the lead character Jess Bradford in the cult slasher film Black Christmas. This and subsequent horror films earned her the label of scream queen. She reunited with Zeffirelli in the miniseries Jesus of Nazareth (1977) as Mary and appeared in John Guillermin's Agatha Christie adaptation Death on the Nile (1978). She appeared in several international productions throughout the 1980s, including the Japanese production Virus (1980) and the Australian dystopian action film Turkey Shoot (1982). She appeared in two made-for-television horror productions: Psycho IV: The Beginning and Stephen King's It, both first screened in 1990.\nIn addition to screen acting, Hussey has worked as a voice actress, providing voice roles in Star Wars video games including Star Wars: Rogue Squadron, Star Wars: Force Commander, and Star Wars: The Old Republic.", "biography_author": "Wikidata", "date_of_biography": "2023-08-01T16:25:44.977313+10:00", "external_links": [{"id": 4799, "uri": "https://en.wikipedia.org/wiki/Olivia_Hussey"}], "uuid": "855c33c9-0186-4f89-8950-6236a6328976", "source": {"name": "Vernon", "slug": "vernon"}, "source_identifier": "34238", "external_references": [{"id": 25243, "source": {"name": "Wikidata", "slug": "wikidata"}, "source_identifier": "Q234293"}, {"id": 30576, "source": {"name": "VIAF", "slug": "viaf"}, "source_identifier": "85137546"}, {"id": 30577, "source": {"name": "LOC Auth", "slug": "loc-auth"}, "source_identifier": "no90011041"}, {"id": 30578, "source": {"name": "WorldCat", "slug": "worldcat"}, "source_identifier": "lccn-no90011041"}], "date_modified": "2023-09-05T23:36:31.154432+10:00"}, {"id": 77991, "name": "David Niven", "roles_in_work": [{"id": 2183052, "title": "Death on the Nile", "work_id": 85589, "role": "cast", "role_id": 33, "is_primary": false}], "also_known_as": "David Graham Niven", "date_of_birth": "1910-03-01", "date_of_death": "1983-07-29", "genders": [{"id": 9, "name": "Male", "slug": "male"}], "languages": [{"id": 1, "name": "English", "slug": "english"}], "places_of_operation": [{"id": 10, "name": "United Kingdom", "slug": "united-kingdom"}], "biography": "James David Graham Niven (; 1 March 1910 – 29 July 1983) was a British actor, soldier, memoirist, and novelist. Niven was known as a handsome and debonair leading man in Classic Hollywood films. He received an Academy Award and a Golden Globe Award.\nBorn in London, Niven attended Heatherdown Preparatory School and Stowe School before gaining a place at the Royal Military College, Sandhurst. After Sandhurst, he joined the British Army and was commissioned as a second lieutenant in the Highland Light Infantry. Upon developing an interest in acting, he found a role as an extra in the British film There Goes the Bride (1932). Bored with the peacetime army, he resigned his commission in 1933, relocated to New York, then travelled to Hollywood. There, he hired an agent and had several small parts in films through 1935, including a non-speaking role in Metro-Goldwyn-Mayer's Mutiny on the Bounty (1935). This helped him gain a contract with Samuel Goldwyn.\nParts, initially small, in major motion pictures followed, including Dodsworth (1936), The Charge of the Light Brigade (1936), and The Prisoner of Zenda (1937). By 1938, he was starring as a leading man in films such as Wuthering Heights (1939). Upon the outbreak of the Second World War, Niven returned to Britain and rejoined the army, being recommissioned as a lieutenant. In 1942, he co-starred in the morale-building film about the development of the Supermarine Spitfire fighter, The First of the Few (1942).\nHe went on to receive the Academy Award for Best Actor for his role in Separate Tables (1958). Other notable films during this time period include A Matter of Life and Death (1946), The Bishop's Wife (1947), Enchantment (1948), The Elusive Pimpernel (1950), The Moon Is Blue (1953), Around the World in 80 Days (1956), My Man Godfrey (1957), The Guns of Navarone (1961), Murder by Death (1976), and Death on the Nile (1978). He also earned acclaim and notoriety playing Sir Charles Lytton in The Pink Panther (1963) and James Bond in Casino Royale (1967).", "biography_author": "Wikidata", "date_of_biography": "2023-08-01T14:35:35.117200+10:00", "external_links": [{"id": 3852, "uri": "https://en.wikipedia.org/wiki/David_Niven"}], "uuid": "ee50b66b-f559-4f69-bc34-540ebab7fd0d", "source": {"name": "Vernon", "slug": "vernon"}, "source_identifier": "38500", "external_references": [{"id": 25186, "source": {"name": "Wikidata", "slug": "wikidata"}, "source_identifier": "Q181917"}, {"id": 28077, "source": {"name": "VIAF", "slug": "viaf"}, "source_identifier": "59189997"}, {"id": 28078, "source": {"name": "LOC Auth", "slug": "loc-auth"}, "source_identifier": "n50005975"}, {"id": 28079, "source": {"name": "WorldCat", "slug": "worldcat"}, "source_identifier": "lccn-n50005975"}], "date_modified": "2023-09-05T19:01:23.823471+10:00"}, {"id": 77990, "name": "Mia Farrow", "roles_in_work": [{"id": 2183049, "title": "Death on the Nile", "work_id": 85589, "role": "cast", "role_id": 33, "is_primary": false}], "also_known_as": "Maria de Lourdes Villiers Farrow", "date_of_birth": "1945-02-09", "date_of_death": "", "genders": [{"id": 5, "name": "Female", "slug": "female"}], "languages": [{"id": 1, "name": "English", "slug": "english"}], "places_of_operation": [{"id": 1, "name": "United States of America", "slug": "united-states-of-america"}], "biography": "Maria de Lourdes Villiers \"Mia\" Farrow ( mə-REE-ə dee LOORDZ VIL-yərz FARR-oh; born February 9, 1945) is an American actress. She first gained notice for her role as Allison MacKenzie in the television soap opera Peyton Place and gained further recognition for her subsequent short-lived marriage to Frank Sinatra. An early film role, as Rosemary in Roman Polanski's Rosemary's Baby (1968), saw her nominated for a BAFTA Award and a Golden Globe Award for Best Actress. She went on to appear in several films throughout the 1970s, such as Follow Me! (1972), The Great Gatsby (1974), and Death on the Nile (1978). Her younger sister is Prudence Farrow.\nFarrow was in a relationship with actor-director Woody Allen from 1980 to 1992 and appeared in thirteen of his fourteen films over that period, beginning with A Midsummer Night's Sex Comedy (1982). She received numerous critical accolades for her performances in several Allen films, including Golden Globe Award nominations for Broadway Danny Rose (1984), The Purple Rose of Cairo (1985), and Alice (1990), and a BAFTA nomination for Hannah and Her Sisters (1986). In 1992, following a visit by Allen in the Farrow country house, Dylan told her mother there was an incident of sexual abuse. Mia brought her child to the pediatrician who informed the police that he had sexually assaulted their seven-year-old adopted daughter, Dylan. Allen was never charged with a crime and has vigorously denied the allegation. These claims received significant renewed public attention in 2013 after Dylan recounted the alleged assault in an interview that year.\nSince the 2000s, Farrow has made occasional appearances on television, including a recurring role on Third Watch (2001–2003). She has also had supporting parts in such films as The Omen (2006), Be Kind Rewind (2008), and Dark Horse (2011). Farrow is also known for her extensive work as a UNICEF Goodwill Ambassador. She is involved in humanitarian activities in Darfur, Chad, and the Central African Republic. In 2008, Time magazine named her one of the most influential people in the world.", "biography_author": "Wikidata", "date_of_biography": "2023-08-01T16:12:15.515329+10:00", "external_links": [{"id": 4675, "uri": "https://en.wikipedia.org/wiki/Mia_Farrow"}], "uuid": "d6039a79-6eca-42c5-b577-f21f28cbbd35", "source": {"name": "Vernon", "slug": "vernon"}, "source_identifier": "33226", "external_references": [{"id": 25262, "source": {"name": "Wikidata", "slug": "wikidata"}, "source_identifier": "Q202725"}, {"id": 30277, "source": {"name": "VIAF", "slug": "viaf"}, "source_identifier": "115458428"}, {"id": 30278, "source": {"name": "LOC Auth", "slug": "loc-auth"}, "source_identifier": "n85151771"}, {"id": 30279, "source": {"name": "WorldCat", "slug": "worldcat"}, "source_identifier": "lccn-n85151771"}], "date_modified": "2023-09-05T23:02:05.465322+10:00"}, {"id": 77989, "name": "Alastair Reid", "roles_in_work": [{"id": 790142, "title": "Nostromo. Parts 1 & 2", "work_id": 85577, "role": "director", "role_id": 938, "is_primary": true}, {"id": 2321695, "title": "Tales of the city [DVD]", "work_id": 93663, "role": "director", "role_id": 938, "is_primary": true}], "also_known_as": "", "date_of_birth": "1939-07-21", "date_of_death": "2011-08-17", "genders": [{"id": 9, "name": "Male", "slug": "male"}], "languages": [{"id": 1, "name": "English", "slug": "english"}], "places_of_operation": [{"id": 10, "name": "United Kingdom", "slug": "united-kingdom"}], "biography": "Alastair Reid (21 July 1939 – 17 August 2011) was a Scottish television and film director, described by The Guardian on his death as \"one of Britain's finest directors of television drama\".Reid studied at the Edinburgh College of Art and the Bristol Old Vic Theatre School. In 1964 he directed episodes of Emergency-Ward 10 for ATV and worked regularly in television for over thirty years. His work included writing the screenplay of the film Shout at the Devil (1976) and directing the first episode of Inspector Morse in 1987, as well as directing the television series Gangsters (1976—78), the serial Traffik (1989), the television series Selling Hitler (1991), based on the Hitler diaries, the miniseries Tales of the City (1993), and the 1997 TV adaptation of Joseph Conrad's Nostromo.", "biography_author": "Wikidata", "date_of_biography": "2023-09-05T17:22:02.745198+10:00", "external_links": [{"id": 5661, "uri": "https://en.wikipedia.org/wiki/Alastair_Reid_(director)"}], "uuid": "6d98c9f7-5ac3-476b-9bad-0b488d69ee27", "source": {"name": "Vernon", "slug": "vernon"}, "source_identifier": "14828", "external_references": [{"id": 35573, "source": {"name": "Wikidata", "slug": "wikidata"}, "source_identifier": "Q2830698"}, {"id": 53902, "source": {"name": "VIAF", "slug": "viaf"}, "source_identifier": "7054010"}, {"id": 53903, "source": {"name": "LOC Auth", "slug": "loc-auth"}, "source_identifier": "no2002019115"}, {"id": 53904, "source": {"name": "WorldCat", "slug": "worldcat"}, "source_identifier": "lccn-no2002019115"}], "date_modified": "2023-09-05T17:22:02.759051+10:00"}, {"id": 77988, "name": "Terry J. Charatsis", "roles_in_work": [{"id": 2315905, "title": "Struck by lightning", "work_id": 93745, "role": "co-producer", "role_id": 915, "is_primary": true}, {"id": 1931999, "title": "The Life of Harry Dare", "work_id": 85573, "role": "producer", "role_id": 1089, "is_primary": true}], "also_known_as": "", "date_of_birth": "", "date_of_death": "", "genders": [], "languages": [], "places_of_operation": [], "biography": "", "biography_author": null, "date_of_biography": "2023-05-09T19:04:13.086496+10:00", "external_links": [], "uuid": "a07862de-f403-453b-9c0a-397f820e2628", "source": {"name": "Vernon", "slug": "vernon"}, "source_identifier": "29596", "external_references": [{"id": 36845, "source": {"name": "Wikidata", "slug": "wikidata"}, "source_identifier": "Q121079475"}], "date_modified": "2023-09-06T01:46:07.357766+10:00"}, {"id": 77987, "name": "Finest Films of Yesteryear", "roles_in_work": [{"id": 2246717, "title": "Reefer madness", "work_id": 85559, "role": "distributor", "role_id": 437, "is_primary": false}], "also_known_as": "", "date_of_birth": "", "date_of_death": "", "genders": [], "languages": [], "places_of_operation": [], "biography": "", "biography_author": null, "date_of_biography": "2023-05-09T17:04:08.139666+10:00", "external_links": [], "uuid": "edc81f59-b1e6-4dfb-97f4-ee1914ee693c", "source": {"name": "Vernon", "slug": "vernon"}, "source_identifier": "30720", "external_references": [], "date_modified": "2023-06-14T16:33:30.576250+10:00"}, {"id": 77986, "name": "Lindsay Doran", "roles_in_work": [{"id": 2274839, "title": "Sense and sensibility (Captioned)", "work_id": 85927, "role": "producer", "role_id": 1089, "is_primary": true}, {"id": 2274698, "title": "Sense and sensibility", "work_id": 85544, "role": "producer", "role_id": 1089, "is_primary": true}], "also_known_as": "", "date_of_birth": "1949-01-01", "date_of_death": "", "genders": [{"id": 5, "name": "Female", "slug": "female"}], "languages": [], "places_of_operation": [{"id": 1, "name": "United States of America", "slug": "united-states-of-america"}], "biography": "Lindsay Doran (born 22 June 1948) is an American film producer and studio executive who has worked on such films as This Is Spinal Tap, Ferris Bueller's Day Off, Sense and Sensibility, Stranger Than Fiction, and Nanny McPhee.", "biography_author": "Wikidata", "date_of_biography": "2023-08-01T15:58:03.244933+10:00", "external_links": [{"id": 4558, "uri": "https://en.wikipedia.org/wiki/Lindsay_Doran"}], "uuid": "3386875f-5f30-4735-83e2-9ad0103828a8", "source": {"name": "Vernon", "slug": "vernon"}, "source_identifier": "23888", "external_references": [{"id": 25212, "source": {"name": "Wikidata", "slug": "wikidata"}, "source_identifier": "Q13516699"}, {"id": 29973, "source": {"name": "VIAF", "slug": "viaf"}, "source_identifier": "70988192"}, {"id": 29974, "source": {"name": "LOC Auth", "slug": "loc-auth"}, "source_identifier": "no96057450"}, {"id": 29975, "source": {"name": "WorldCat", "slug": "worldcat"}, "source_identifier": "lccn-no96057450"}], "date_modified": "2023-09-05T22:26:39.195000+10:00"}, {"id": 77985, "name": "Neil Kearney", "roles_in_work": [{"id": 2063075, "title": "100 years of Australian football", "work_id": 85540, "role": "co-producer", "role_id": 915, "is_primary": true}], "also_known_as": "", "date_of_birth": "", "date_of_death": "", "genders": [], "languages": [], "places_of_operation": [], "biography": "", "biography_author": null, "date_of_biography": "2023-05-09T11:18:19.093544+10:00", "external_links": [], "uuid": "08ac3a41-b8d9-42ed-b1a6-5ac26ca6d1fa", "source": {"name": "Vernon", "slug": "vernon"}, "source_identifier": "25674", "external_references": [{"id": 50979, "source": {"name": "Wikidata", "slug": "wikidata"}, "source_identifier": "Q121357873"}], "date_modified": "2023-09-05T23:27:16.626790+10:00"}, {"id": 77984, "name": "Masaki Sawanobori", "roles_in_work": [{"id": 2161732, "title": "Ninja scroll (D)", "work_id": 85538, "role": "co-producer", "role_id": 915, "is_primary": true}, {"id": 2098512, "title": "Appleseed", "work_id": 90970, "role": "co-producer", "role_id": 915, "is_primary": true}], "also_known_as": "", "date_of_birth": "", "date_of_death": "", "genders": [], "languages": [], "places_of_operation": [], "biography": "", "biography_author": null, "date_of_biography": "2023-05-09T14:16:51.548068+10:00", "external_links": [], "uuid": "84d0e47e-0a8e-43fd-af06-d790189b0489", "source": {"name": "Vernon", "slug": "vernon"}, "source_identifier": "24750", "external_references": [{"id": 35132, "source": {"name": "Wikidata", "slug": "wikidata"}, "source_identifier": "Q121079466"}], "date_modified": "2023-09-05T22:52:50.685705+10:00"}]}