{"count": 28684, "next": "https://api.acmi.net.au/creators/?page=260", "previous": "https://api.acmi.net.au/creators/?page=258", "results": [{"id": 83014, "name": "Andre Cayatte", "roles_in_work": [{"id": 3104441, "title": "Le Miroir a Deux Faces = the Mirror Has Two Faces", "work_id": 115915, "role": "director", "role_id": 938, "is_primary": true}, {"id": 3104989, "title": "Le Passage du Rhin = Tomorrow Is My Turn", "work_id": 116191, "role": "director", "role_id": 938, "is_primary": true}], "also_known_as": "Marcel Truc", "date_of_birth": "1909-02-03", "date_of_death": "1989-02-06", "genders": [{"id": 9, "name": "Male", "slug": "male"}], "languages": [{"id": 4, "name": "French", "slug": "french"}], "places_of_operation": [{"id": 17, "name": "France", "slug": "france"}], "biography": "André Cayatte (3 February 1909, in Carcassonne – 6 February 1989, in Paris) was a French filmmaker, writer and lawyer, who became known for his films centering on themes of crime, justice, and moral responsibility.\nCayatte began his directoral career at the German-controlled Continental Films during the French occupation.  Some of Cayatte's earlier films that addressed his characteristic themes include Justice est faite (Justice is Done; 1950), Nous sommes tous des assassins (We Are All Murderers; 1952), and Le passage du Rhin (Tomorrow Is My Turn; 1960).\nIn 1963, he undertook a bold experiment in film narrative with a set of two films: Jean-Marc ou La vie conjugale (Anatomy of a Marriage: My Days with Jean-Marc) and Françoise ou La vie conjugale (Anatomy of a Marriage: My Days with Françoise). These two films tell the same story from two different points of view. His 1973 film, Il n'y a pas de fumée sans feu, won the Silver Bear Special Jury Prize at the 23rd Berlin International Film Festival.\n\n", "biography_author": "Wikidata", "date_of_biography": "2023-08-15T10:24:18.164553+10:00", "external_links": [{"id": 1630, "uri": "https://en.wikipedia.org/wiki/Andr%C3%A9_Cayatte"}], "uuid": "8bc73512-9cb3-4a38-981c-363a57547389", "source": {"name": "Vernon", "slug": "vernon"}, "source_identifier": "31047", "external_references": [{"id": 7124, "source": {"name": "Wikidata", "slug": "wikidata"}, "source_identifier": "Q517725"}, {"id": 7125, "source": {"name": "VIAF", "slug": "viaf"}, "source_identifier": "73851103"}, {"id": 7126, "source": {"name": "LOC Auth", "slug": "loc-auth"}, "source_identifier": "n82102988"}, {"id": 7127, "source": {"name": "WorldCat", "slug": "worldcat"}, "source_identifier": "lccn-n82102988"}], "date_modified": "2025-05-22T22:55:10.206412+10:00"}, {"id": 83013, "name": "Denys de la Patelliere", "roles_in_work": [{"id": 3105236, "title": "Un Taxi Pour Tobruk = Taxi to Tobruk (Cinemascope Print)", "work_id": 116315, "role": "director", "role_id": 938, "is_primary": true}, {"id": 3104433, "title": "Le Voyage du Pere = the Father's Trip", "work_id": 115911, "role": "director", "role_id": 938, "is_primary": true}, {"id": 3105041, "title": "Rue des Prairies = Meadows Street", "work_id": 116214, "role": "director", "role_id": 938, "is_primary": true}], "also_known_as": "Denis Marie Joseph Dubois de La Patellière", "date_of_birth": "08 MAR 1921", "date_of_death": "21 JUL 2013", "genders": [{"id": 9, "name": "Male", "slug": "male"}], "languages": [{"id": 4, "name": "French", "slug": "french"}], "places_of_operation": [{"id": 17, "name": "France", "slug": "france"}], "biography": "Denys de La Patellière (8 March 1921 in Nantes, France–21 July 2013) was a French film director and scriptwriter. He also directed Television series.\n\nHe died in 2013 at the age of 92. Source: Wikidata; 01/08/2023", "biography_author": null, "date_of_biography": "2025-05-22T23:00:47.310619+10:00", "external_links": [{"id": 1930, "uri": "https://en.wikipedia.org/wiki/Denys_de_La_Patelli%C3%A8re"}], "uuid": "96869eb8-b381-4543-93c9-62c8b75f8e21", "source": {"name": "Vernon", "slug": "vernon"}, "source_identifier": "30954", "external_references": [{"id": 8366, "source": {"name": "Wikidata", "slug": "wikidata"}, "source_identifier": "Q1190057"}, {"id": 8367, "source": {"name": "VIAF", "slug": "viaf"}, "source_identifier": "39388410"}, {"id": 8368, "source": {"name": "LOC Auth", "slug": "loc-auth"}, "source_identifier": "n87829786"}, {"id": 8369, "source": {"name": "WorldCat", "slug": "worldcat"}, "source_identifier": "lccn-n87829786"}], "date_modified": "2025-05-22T23:00:47.310871+10:00"}, {"id": 83012, "name": "Georges Lampin", "roles_in_work": [{"id": 3104428, "title": "L'idiot = the Idiot", "work_id": 115909, "role": "director", "role_id": 938, "is_primary": true}, {"id": 3105128, "title": "Les Anciens de Saint-Loup = the Old Boys of Saint-Loup", "work_id": 116260, "role": "director", "role_id": 938, "is_primary": true}], "also_known_as": "", "date_of_birth": "1901-10-14", "date_of_death": "1979-05-08", "genders": [{"id": 9, "name": "Male", "slug": "male"}], "languages": [{"id": 4, "name": "French", "slug": "french"}], "places_of_operation": [{"id": 17, "name": "France", "slug": "france"}], "biography": "Georges Lampin (14 October 1901 – 8 May 1979) was a French actor and film director. He directed twelve films between 1946 and 1963.; 11/08/2023", "biography_author": null, "date_of_biography": "2025-05-22T22:56:50.980470+10:00", "external_links": [{"id": 4059, "uri": "https://en.wikipedia.org/wiki/Georges_Lampin"}], "uuid": "9e179e1b-48a7-415f-9bfb-bc493a187c31", "source": {"name": "Vernon", "slug": "vernon"}, "source_identifier": "31045", "external_references": [{"id": 24976, "source": {"name": "Wikidata", "slug": "wikidata"}, "source_identifier": "Q3103031"}, {"id": 28647, "source": {"name": "VIAF", "slug": "viaf"}, "source_identifier": "51875862"}, {"id": 28648, "source": {"name": "LOC Auth", "slug": "loc-auth"}, "source_identifier": "n2007044652"}, {"id": 28649, "source": {"name": "WorldCat", "slug": "worldcat"}, "source_identifier": "lccn-n2007044652"}], "date_modified": "2025-05-22T22:56:50.980818+10:00"}, {"id": 83011, "name": "Yves Allegret", "roles_in_work": [{"id": 3104808, "title": "Germinal", "work_id": 116091, "role": "director", "role_id": 938, "is_primary": true}, {"id": 3104426, "title": "Une Si Jolie Petite Plage = Such a Pretty Little Beach", "work_id": 115908, "role": "director", "role_id": 938, "is_primary": true}, {"id": 3104833, "title": "Les Orgueilleux = the Proud Ones", "work_id": 116106, "role": "director", "role_id": 938, "is_primary": true}], "also_known_as": "Yves Édouard Allégret", "date_of_birth": "1907-10-13", "date_of_death": "1987-01-31", "genders": [{"id": 9, "name": "Male", "slug": "male"}], "languages": [{"id": 4, "name": "French", "slug": "french"}], "places_of_operation": [{"id": 17, "name": "France", "slug": "france"}], "biography": "Yves Allégret (13 October 1905 – 31 January 1987) was a French film director, often working in the film noir genre. He was born in Asnières-sur-Seine, Hauts-de-Seine and died in Paris.He was an assistant to film directors such as his brother Marc Allégret, Augusto Genina, and Jean Renoir.", "biography_author": "Wikidata", "date_of_biography": "2023-09-06T02:24:28.794290+10:00", "external_links": [{"id": 3319, "uri": "https://en.wikipedia.org/wiki/Yves_All%C3%A9gret"}], "uuid": "f787896c-4c5f-4323-bdf0-447bf43c01ae", "source": {"name": "Vernon", "slug": "vernon"}, "source_identifier": "31044", "external_references": [{"id": 14034, "source": {"name": "Wikidata", "slug": "wikidata"}, "source_identifier": "Q945227"}, {"id": 14035, "source": {"name": "VIAF", "slug": "viaf"}, "source_identifier": "37100978"}, {"id": 14036, "source": {"name": "LOC Auth", "slug": "loc-auth"}, "source_identifier": "nr99029222"}, {"id": 14037, "source": {"name": "WorldCat", "slug": "worldcat"}, "source_identifier": "lccn-nr99029222"}], "date_modified": "2025-05-22T22:50:32.675045+10:00"}, {"id": 83010, "name": "Emile Darbon", "roles_in_work": [{"id": 3104425, "title": "Une Si Jolie Petite Plage = Such a Pretty Little Beach", "work_id": 115908, "role": "producer", "role_id": 1089, "is_primary": true}], "also_known_as": "", "date_of_birth": "", "date_of_death": "", "genders": [], "languages": [], "places_of_operation": [], "biography": "", "biography_author": null, "date_of_biography": "2023-08-14T12:03:53.066518+10:00", "external_links": [], "uuid": "518b321e-8c9f-4bd2-bc34-e4ee7ee40d80", "source": {"name": "Vernon", "slug": "vernon"}, "source_identifier": "31043", "external_references": [{"id": 43561, "source": {"name": "Wikidata", "slug": "wikidata"}, "source_identifier": "Q121036041"}], "date_modified": "2025-05-22T22:40:42.398878+10:00"}, {"id": 83009, "name": "Yves Witner", "roles_in_work": [{"id": 3104423, "title": "Ce Cher Victor = that Dear Victor", "work_id": 115907, "role": "producer", "role_id": 1089, "is_primary": true}], "also_known_as": "", "date_of_birth": "", "date_of_death": "", "genders": [], "languages": [], "places_of_operation": [], "biography": "", "biography_author": null, "date_of_biography": "2023-05-09T13:25:40.648153+10:00", "external_links": [], "uuid": "36d119c2-45ee-4679-9fe3-b21ebbf0fb93", "source": {"name": "Vernon", "slug": "vernon"}, "source_identifier": "31042", "external_references": [{"id": 34593, "source": {"name": "Wikidata", "slug": "wikidata"}, "source_identifier": "Q121091323"}], "date_modified": "2025-05-22T22:40:40.764503+10:00"}, {"id": 83008, "name": "Rene Feret", "roles_in_work": [{"id": 3104422, "title": "Bapteme", "work_id": 115906, "role": "director", "role_id": 938, "is_primary": true}], "also_known_as": "", "date_of_birth": "", "date_of_death": "", "genders": [], "languages": [], "places_of_operation": [], "biography": "", "biography_author": null, "date_of_biography": "2023-05-09T12:41:17.520231+10:00", "external_links": [], "uuid": "72967a9e-d4b5-42c4-b7ec-1c41b42a6e87", "source": {"name": "Vernon", "slug": "vernon"}, "source_identifier": "31041", "external_references": [{"id": 34652, "source": {"name": "Wikidata", "slug": "wikidata"}, "source_identifier": "Q121034953"}], "date_modified": "2025-05-22T22:40:39.884991+10:00"}, {"id": 83007, "name": "Eric Trotta", "roles_in_work": [{"id": 3104420, "title": "Bapteme", "work_id": 115906, "role": "producer", "role_id": 1089, "is_primary": true}], "also_known_as": "", "date_of_birth": "", "date_of_death": "", "genders": [], "languages": [], "places_of_operation": [], "biography": "", "biography_author": null, "date_of_biography": "2023-05-09T12:41:17.038981+10:00", "external_links": [], "uuid": "50a7f33a-13af-4ff3-b723-9e334856c45b", "source": {"name": "Vernon", "slug": "vernon"}, "source_identifier": "31040", "external_references": [{"id": 33800, "source": {"name": "Wikidata", "slug": "wikidata"}, "source_identifier": "Q121035299"}], "date_modified": "2025-05-22T22:40:38.660397+10:00"}, {"id": 83006, "name": "Robin Davis", "roles_in_work": [{"id": 3104424, "title": "Ce Cher Victor = that Dear Victor", "work_id": 115907, "role": "director", "role_id": 938, "is_primary": true}, {"id": 3104413, "title": "J'ai Epouse Une Ombre = I Married a Dead Man", "work_id": 115903, "role": "director", "role_id": 938, "is_primary": true}, {"id": 3105111, "title": "La Guerre des Polices = the Police War", "work_id": 116252, "role": "director", "role_id": 938, "is_primary": true}], "also_known_as": "", "date_of_birth": "29 MAR 1943", "date_of_death": "", "genders": [{"id": 9, "name": "Male", "slug": "male"}], "languages": [{"id": 4, "name": "French", "slug": "french"}], "places_of_operation": [{"id": 17, "name": "France", "slug": "france"}], "biography": "Robin Davis is a French film director and screenwriter. Source: Wikidata; 01/08/2023", "biography_author": null, "date_of_biography": "2025-05-22T22:56:38.640284+10:00", "external_links": [{"id": 3005, "uri": "https://en.wikipedia.org/wiki/Robin_Davis_(director)"}], "uuid": "652efdd8-711e-4e0d-9a54-a28cd9580d0a", "source": {"name": "Vernon", "slug": "vernon"}, "source_identifier": "31039", "external_references": [{"id": 12761, "source": {"name": "Wikidata", "slug": "wikidata"}, "source_identifier": "Q3437057"}, {"id": 12762, "source": {"name": "VIAF", "slug": "viaf"}, "source_identifier": "39638596"}, {"id": 12763, "source": {"name": "LOC Auth", "slug": "loc-auth"}, "source_identifier": "no2007087395"}, {"id": 12764, "source": {"name": "WorldCat", "slug": "worldcat"}, "source_identifier": "lccn-no2007087395"}], "date_modified": "2025-05-22T22:56:38.640569+10:00"}, {"id": 83005, "name": "Roger Le Bon", "roles_in_work": [{"id": 3104408, "title": "Gribouille = Heart of Paris", "work_id": 115901, "role": "producer", "role_id": 1089, "is_primary": true}], "also_known_as": "", "date_of_birth": "", "date_of_death": "", "genders": [], "languages": [], "places_of_operation": [], "biography": "", "biography_author": null, "date_of_biography": "2023-08-17T15:01:02.096747+10:00", "external_links": [], "uuid": "6555bdda-92c2-40ce-85c7-b194565f6e0d", "source": {"name": "Vernon", "slug": "vernon"}, "source_identifier": "31038", "external_references": [], "date_modified": "2025-05-22T22:40:30.529163+10:00"}]}