{"count": 28687, "next": "https://api.acmi.net.au/creators/?page=946", "previous": "https://api.acmi.net.au/creators/?page=944", "results": [{"id": 76132, "name": "Alison Head", "roles_in_work": [{"id": 2379684, "title": "Understanding is not enough", "work_id": 77926, "role": "co-producer", "role_id": 915, "is_primary": true}], "also_known_as": "", "date_of_birth": "", "date_of_death": "", "genders": [], "languages": [], "places_of_operation": [], "biography": "", "biography_author": null, "date_of_biography": "2023-07-19T03:36:16.341958+10:00", "external_links": [], "uuid": "72613d7b-e9dd-4501-9b86-6c93eb184f44", "source": {"name": "Vernon", "slug": "vernon"}, "source_identifier": "4173", "external_references": [{"id": 37040, "source": {"name": "Wikidata", "slug": "wikidata"}, "source_identifier": "Q121299305"}], "date_modified": "2023-09-05T17:28:53.049110+10:00"}, {"id": 76131, "name": "Keith Head", "roles_in_work": [{"id": 2379683, "title": "Understanding is not enough", "work_id": 77926, "role": "co-producer", "role_id": 915, "is_primary": true}, {"id": 767895, "title": "The Span project", "work_id": 78724, "role": "producer/director", "role_id": 31, "is_primary": true}], "also_known_as": "", "date_of_birth": "", "date_of_death": "", "genders": [], "languages": [], "places_of_operation": [], "biography": "", "biography_author": null, "date_of_biography": "2023-07-19T03:36:15.695832+10:00", "external_links": [], "uuid": "e1468048-17c3-4716-8450-0ae09782c4d1", "source": {"name": "Vernon", "slug": "vernon"}, "source_identifier": "4174", "external_references": [{"id": 35199, "source": {"name": "Wikidata", "slug": "wikidata"}, "source_identifier": "Q121337709"}], "date_modified": "2023-09-05T22:03:52.681382+10:00"}, {"id": 76130, "name": "Trevor Hawkins", "roles_in_work": [{"id": 2309677, "title": "Stations", "work_id": 77925, "role": "co-producer", "role_id": 915, "is_primary": true}], "also_known_as": "", "date_of_birth": "", "date_of_death": "", "genders": [], "languages": [], "places_of_operation": [], "biography": "", "biography_author": null, "date_of_biography": "2023-05-09T18:50:44.705910+10:00", "external_links": [], "uuid": "a4f0ea40-b5cb-4482-93a6-c1b707ba610b", "source": {"name": "Vernon", "slug": "vernon"}, "source_identifier": "29975", "external_references": [{"id": 35123, "source": {"name": "Wikidata", "slug": "wikidata"}, "source_identifier": "Q121271521"}], "date_modified": "2023-09-06T01:58:32.969813+10:00"}, {"id": 76129, "name": "Peter Mochrie", "roles_in_work": [{"id": 2287727, "title": "Winter of our dreams", "work_id": 77914, "role": "cast", "role_id": 33, "is_primary": false}], "also_known_as": "", "date_of_birth": "", "date_of_death": "", "genders": [{"id": 9, "name": "Male", "slug": "male"}], "languages": [], "places_of_operation": [], "biography": "", "biography_author": null, "date_of_biography": "2023-05-09T18:12:35.793651+10:00", "external_links": [], "uuid": "6e03373b-1b64-4b1c-a2b7-fb8478f3603a", "source": {"name": "Vernon", "slug": "vernon"}, "source_identifier": "35644", "external_references": [{"id": 50962, "source": {"name": "Wikidata", "slug": "wikidata"}, "source_identifier": "Q3376760"}], "date_modified": "2023-06-14T16:33:30.576250+10:00"}, {"id": 76128, "name": "Cathy Downes", "roles_in_work": [{"id": 2287723, "title": "Winter of our dreams", "work_id": 77914, "role": "cast", "role_id": 33, "is_primary": false}], "also_known_as": "", "date_of_birth": null, "date_of_death": "", "genders": [{"id": 5, "name": "Female", "slug": "female"}], "languages": [], "places_of_operation": [{"id": 9, "name": "New Zealand", "slug": "new-zealand"}], "biography": "Catherine Patricia Downes  (born 1951) is a New Zealand theatre director, actor, dramaturg and playwright. Of Māori descent, she affiliates to Ngāi Tahu. Downes wrote a one-woman play The Case of Katherine Mansfield, which she has performed more than 1000 times in six countries over twenty years. She has been the artistic director of the Court Theatre in Christchurch and the director of Downstage Theatre in Wellington. She lives on Waiheke Island and works as a freelance actor, director and playwright.", "biography_author": "Wikidata", "date_of_biography": "2023-09-06T10:33:51.356744+10:00", "external_links": [{"id": 6267, "uri": "https://en.wikipedia.org/wiki/Cathy_Downes"}], "uuid": "e15104b3-4a7d-4cc9-ae68-76c4aa172f44", "source": {"name": "Vernon", "slug": "vernon"}, "source_identifier": "35643", "external_references": [{"id": 52212, "source": {"name": "Wikidata", "slug": "wikidata"}, "source_identifier": "Q107133345"}], "date_modified": "2023-09-06T10:33:51.384275+10:00"}, {"id": 76127, "name": "Bryan Brown", "roles_in_work": [{"id": 2123944, "title": "Breaker Morant", "work_id": 79360, "role": "cast", "role_id": 33, "is_primary": false}, {"id": 2287718, "title": "Winter of our dreams", "work_id": 77914, "role": "cast", "role_id": 33, "is_primary": false}, {"id": 2043237, "title": "Newsfront", "work_id": 79357, "role": "cast", "role_id": 33, "is_primary": false}, {"id": 2076202, "title": "A Town like Alice", "work_id": 79363, "role": "cast", "role_id": 33, "is_primary": false}, {"id": 2124045, "title": "Breaker Morant [DVD]", "work_id": 92458, "role": "cast", "role_id": 33, "is_primary": false}, {"id": 2193952, "title": "Dirty deeds", "work_id": 94162, "role": "co-producer", "role_id": 915, "is_primary": true}, {"id": 2180388, "title": "Dead Heart (A) (Captioned)", "work_id": 86591, "role": "co-producer", "role_id": 915, "is_primary": true}, {"id": 2180648, "title": "Dead heart", "work_id": 85924, "role": "co-producer", "role_id": 915, "is_primary": true}], "also_known_as": "Bryan Neathway Brown", "date_of_birth": "1947-06-23", "date_of_death": "", "genders": [{"id": 9, "name": "Male", "slug": "male"}], "languages": [{"id": 1, "name": "English", "slug": "english"}], "places_of_operation": [{"id": 3, "name": "Australia", "slug": "australia"}], "biography": "Bryan Neathway Brown AM (born 23 June 1947) is an Australian actor. He has performed in over eighty film and television projects since the late 1970s, both in his native Australia and abroad. Notable films include Breaker Morant (1980), Give My Regards to Broad Street (1984), F/X (1986), Tai-Pan (1986), Cocktail (1988), Gorillas in the Mist (1988), F/X2 (1991), Along Came Polly (2004), Australia (2008), Kill Me Three Times (2014) and Gods of Egypt (2016). He was nominated for a Golden Globe Award and an Emmy Award for his performance in the television miniseries The Thorn Birds (1983).\n\n", "biography_author": "Wikidata", "date_of_biography": "2023-08-01T14:18:01.517344+10:00", "external_links": [{"id": 3696, "uri": "https://en.wikipedia.org/wiki/Bryan_Brown"}], "uuid": "3d90967d-de93-4522-9ea2-dc1f2bfaa160", "source": {"name": "Vernon", "slug": "vernon"}, "source_identifier": "16352", "external_references": [{"id": 25465, "source": {"name": "Wikidata", "slug": "wikidata"}, "source_identifier": "Q363659"}, {"id": 27641, "source": {"name": "VIAF", "slug": "viaf"}, "source_identifier": "107272593"}, {"id": 27642, "source": {"name": "LOC Auth", "slug": "loc-auth"}, "source_identifier": "n94115519"}, {"id": 27643, "source": {"name": "WorldCat", "slug": "worldcat"}, "source_identifier": "lccn-n94115519"}], "date_modified": "2023-09-05T18:15:00.347324+10:00"}, {"id": 76126, "name": "Judy Davis", "roles_in_work": [{"id": 2287714, "title": "Winter of our dreams", "work_id": 77914, "role": "cast", "role_id": 33, "is_primary": false}, {"id": 1984649, "title": "High tide", "work_id": 80658, "role": "cast", "role_id": 33, "is_primary": false}], "also_known_as": "Judith Davis", "date_of_birth": "1955-04-23", "date_of_death": "", "genders": [{"id": 5, "name": "Female", "slug": "female"}], "languages": [], "places_of_operation": [{"id": 3, "name": "Australia", "slug": "australia"}], "biography": "Judith Davis (born 23 April 1955) is an Australian actress in film, television, and on stage. With a career spanning over 40 years, she has been commended for her versatility and regarded as one of the finest actresses of her generation. Frequent collaborator Woody Allen described her as, \"one of the most exciting actresses in the world\". She is the most awarded recipient for the AACTA Award with nine accolades and has received numerous accolades, including three Emmy Awards, two BAFTA Awards, and two Golden Globe Awards, and two nominations for Academy Awards.\nDavis is a 1977 graduate of the National Institute of Dramatic Art, where she starred opposite Mel Gibson in Romeo and Juliet. Most of Davis's stage work has been in Australia, including Visions (1979), Piaf (1980), Miss Julie (1983), King Lear (1984), Hedda Gabler (1986), Victory (2004) and The Seagull (2011). She earned a Laurence Olivier Award for Best Actress nomination for the 1982 London production of Insignificance. She returned to the National Institute of Dramatic Art in 2017 to direct the play Love and Money. \nShe has won BAFTA Awards for both Best Actress and Most Promising Newcomer for the film My Brilliant Career (1979), two Australian Film Institute Awards as Best Actress for Winter of Our Dreams (1981) and Supporting Actress for Hoodwink (1981), and later received Academy Award nominations for A Passage to India (1984) and Husbands and Wives (1992). This made her the first Australian to receive nominations in both categories and the fourth Australian actress to receive an Academy Award nomination. \nHer other film roles include High Rolling (1977), Who Dares Wins (1982), Heatwave (1983), High Tide (1987), Georgia (1988), Alice (1990), Impromptu (1991), Barton Fink (1991), Dark Blood (1993), Absolute Power (1997), Deconstructing Harry (1997), Celebrity (1998), The Man Who Sued God (2001), The Break-up (2006), Marie Antoinette (2006), The Eye of the Storm (2011), To Rome with Love (2012), and The Dressmaker (2015).\nFor her work on television, Davis won Primetime Emmy Awards for Serving in Silence: The Margarethe Cammermeyer Story (1995), for playing Judy Garland in Life with Judy Garland: Me and My Shadows (2001) and The Starter Wife (2007) and the Golden Globe Award for Best Actress – Miniseries or Television Film for Life with Judy Garland: Me and My Shadows and One Against the Wind (1991). Other television roles include Water Under the Bridge (1980), A Woman Called Golda (1982), A Cooler Climate (1999), The Reagans (2003), Coast to Coast (2003), A Little Thing Called Murder (2006), Page Eight (2011), Hedda Hopper in Feud: Bette and Joan (2017), and Ratched (2020).", "biography_author": "Wikidata", "date_of_biography": "2023-08-01T15:44:19.495804+10:00", "external_links": [{"id": 4447, "uri": "https://en.wikipedia.org/wiki/Judy_Davis"}], "uuid": "af759693-da02-4c40-97c0-885f2c6c76c0", "source": {"name": "Vernon", "slug": "vernon"}, "source_identifier": "32874", "external_references": [{"id": 25167, "source": {"name": "Wikidata", "slug": "wikidata"}, "source_identifier": "Q307882"}, {"id": 29682, "source": {"name": "VIAF", "slug": "viaf"}, "source_identifier": "85680003"}, {"id": 29683, "source": {"name": "LOC Auth", "slug": "loc-auth"}, "source_identifier": "no92019786"}, {"id": 29684, "source": {"name": "WorldCat", "slug": "worldcat"}, "source_identifier": "lccn-no92019786"}], "date_modified": "2023-09-05T21:53:40.550065+10:00"}, {"id": 76125, "name": "Takis Emmanuel", "roles_in_work": [{"id": 2128773, "title": "Caddie", "work_id": 77912, "role": "cast", "role_id": 33, "is_primary": false}], "also_known_as": "", "date_of_birth": "1933-01-01", "date_of_death": "2017-08-25", "genders": [{"id": 9, "name": "Male", "slug": "male"}], "languages": [{"id": 1, "name": "English", "slug": "english"}, {"id": 32, "name": "Greek", "slug": "greek"}], "places_of_operation": [{"id": 21, "name": "Greece", "slug": "greece"}], "biography": "", "biography_author": null, "date_of_biography": "2023-05-09T13:15:47.336342+10:00", "external_links": [], "uuid": "e8636c1b-47f7-451f-aeb6-b9ac037a4820", "source": {"name": "Vernon", "slug": "vernon"}, "source_identifier": "38127", "external_references": [{"id": 33191, "source": {"name": "Wikidata", "slug": "wikidata"}, "source_identifier": "Q25409285"}, {"id": 55923, "source": {"name": "VIAF", "slug": "viaf"}, "source_identifier": "169046057"}, {"id": 55924, "source": {"name": "LOC Auth", "slug": "loc-auth"}, "source_identifier": "no2011035936"}, {"id": 55925, "source": {"name": "WorldCat", "slug": "worldcat"}, "source_identifier": "lccn-no2011035936"}], "date_modified": "2023-09-06T01:40:45.525499+10:00"}, {"id": 76124, "name": "Helen Morse", "roles_in_work": [{"id": 2202074, "title": "Petersen", "work_id": 80950, "role": "cast", "role_id": 33, "is_primary": false}, {"id": 2076199, "title": "A Town like Alice", "work_id": 79363, "role": "cast", "role_id": 33, "is_primary": false}, {"id": 2128772, "title": "Caddie", "work_id": 77912, "role": "cast", "role_id": 33, "is_primary": false}], "also_known_as": "", "date_of_birth": "1947-01-24", "date_of_death": "", "genders": [{"id": 5, "name": "Female", "slug": "female"}], "languages": [{"id": 1, "name": "English", "slug": "english"}], "places_of_operation": [{"id": 3, "name": "Australia", "slug": "australia"}], "biography": "Helen Morse (born 24 January 1947) is an English-born Australian actress who has appeared in films, on television and on stage. She won the AFI (AACTA) Award for Best Actress in a Leading Role for the 1976 film Caddie, and starred in the 1981 miniseries A Town Like Alice. Her other film appearances include Picnic at Hanging Rock (1975), Agatha (1979), Far East (1982) and The Eye of the Storm (2011).\n\n", "biography_author": "Wikidata", "date_of_biography": "2023-08-01T15:09:49.530912+10:00", "external_links": [{"id": 4146, "uri": "https://en.wikipedia.org/wiki/Helen_Morse"}], "uuid": "fa812e43-2c4d-48fc-acb7-ea841b47a762", "source": {"name": "Vernon", "slug": "vernon"}, "source_identifier": "34632", "external_references": [{"id": 25252, "source": {"name": "Wikidata", "slug": "wikidata"}, "source_identifier": "Q1610584"}, {"id": 28879, "source": {"name": "VIAF", "slug": "viaf"}, "source_identifier": "85939860"}, {"id": 28880, "source": {"name": "LOC Auth", "slug": "loc-auth"}, "source_identifier": "no96054500"}, {"id": 28881, "source": {"name": "WorldCat", "slug": "worldcat"}, "source_identifier": "lccn-no96054500"}], "date_modified": "2023-09-05T20:34:37.687872+10:00"}, {"id": 76123, "name": "Janice Platt", "roles_in_work": [{"id": 2615805, "title": "I know a secret", "work_id": 86170, "role": "co-producer", "role_id": 915, "is_primary": true}, {"id": 2648024, "title": "Boys and girls", "work_id": 78014, "role": "co-producer", "role_id": 915, "is_primary": true}, {"id": 897829, "title": "I Know a secret (K)", "work_id": 77910, "role": "co-producer", "role_id": 915, "is_primary": true}, {"id": 2329362, "title": "The Bamboo brush", "work_id": 77909, "role": "co-producer", "role_id": 915, "is_primary": true}], "also_known_as": "", "date_of_birth": "", "date_of_death": "", "genders": [], "languages": [], "places_of_operation": [], "biography": "", "biography_author": null, "date_of_biography": "2023-05-09T19:23:31.623559+10:00", "external_links": [], "uuid": "b585f363-c031-41a5-a54b-36153d232369", "source": {"name": "Vernon", "slug": "vernon"}, "source_identifier": "21459", "external_references": [{"id": 39370, "source": {"name": "Wikidata", "slug": "wikidata"}, "source_identifier": "Q121036854"}], "date_modified": "2025-03-05T13:37:09.674684+11:00"}]}