{"count": 28682, "next": "https://api.acmi.net.au/creators/?page=540", "previous": "https://api.acmi.net.au/creators/?page=538", "results": [{"id": 80189, "name": "Robert Scheerer", "roles_in_work": [{"id": 2327745, "title": "The American Film Institute salute to Bette Davis", "work_id": 93215, "role": "producer/director", "role_id": 31, "is_primary": true}], "also_known_as": "", "date_of_birth": "", "date_of_death": "", "genders": [], "languages": [], "places_of_operation": [], "biography": "", "biography_author": null, "date_of_biography": "2023-05-09T19:21:33.198956+10:00", "external_links": [], "uuid": "408a03ff-a1c6-4de1-99e3-6a469eaacfc9", "source": {"name": "Vernon", "slug": "vernon"}, "source_identifier": "27878", "external_references": [{"id": 51882, "source": {"name": "Wikidata", "slug": "wikidata"}, "source_identifier": "Q121361092"}], "date_modified": "2023-09-06T00:46:27.251404+10:00"}, {"id": 80188, "name": "Kate Forte", "roles_in_work": [{"id": 2111982, "title": "Beloved", "work_id": 93209, "role": "co-producer", "role_id": 915, "is_primary": true}], "also_known_as": "", "date_of_birth": "", "date_of_death": "", "genders": [], "languages": [], "places_of_operation": [], "biography": "", "biography_author": null, "date_of_biography": "2023-05-09T12:48:57.178306+10:00", "external_links": [], "uuid": "231b05f3-e584-4775-a3ed-883511b4cbd4", "source": {"name": "Vernon", "slug": "vernon"}, "source_identifier": "23052", "external_references": [{"id": 38782, "source": {"name": "Wikidata", "slug": "wikidata"}, "source_identifier": "Q121036651"}], "date_modified": "2023-09-05T22:01:37.157011+10:00"}, {"id": 80187, "name": "Dieter Schidor", "roles_in_work": [{"id": 2233972, "title": "Querelle [DVD]", "work_id": 93202, "role": "producer", "role_id": 1089, "is_primary": true}], "also_known_as": "", "date_of_birth": "1948-03-06", "date_of_death": "1987-09-17", "genders": [{"id": 9, "name": "Male", "slug": "male"}], "languages": [{"id": 5, "name": "German", "slug": "german"}], "places_of_operation": [{"id": 18, "name": "Germany", "slug": "germany"}], "biography": "Dieter Schidor (6 March 1948 – 17 September 1987) was a German actor, perhaps best known for his work in Sam Peckinpah's Cross of Iron, and Rainer Werner Fassbinder's Querelle.\nDieter Schidor was born on 6 March 1948 in Bienrode, today a part of Braunschweig, Germany. From 1977 to 1986, Schidor lived with the New Zealand actor and producer Michael McLernon, until his death from AIDS. Schidor died from AIDS on 17 September 1987 in Munich.", "biography_author": "Wikidata", "date_of_biography": "2023-08-01T14:39:44.741555+10:00", "external_links": [{"id": 3885, "uri": "https://en.wikipedia.org/wiki/Dieter_Schidor"}], "uuid": "11160ecc-e232-4ff6-ae09-6b072d2b501a", "source": {"name": "Vernon", "slug": "vernon"}, "source_identifier": "18141", "external_references": [{"id": 24945, "source": {"name": "Wikidata", "slug": "wikidata"}, "source_identifier": "Q97838"}, {"id": 28179, "source": {"name": "VIAF", "slug": "viaf"}, "source_identifier": "74004387"}, {"id": 28180, "source": {"name": "LOC Auth", "slug": "loc-auth"}, "source_identifier": "n83010977"}, {"id": 28181, "source": {"name": "WorldCat", "slug": "worldcat"}, "source_identifier": "lccn-n83010977"}], "date_modified": "2023-09-05T19:12:27.641492+10:00"}, {"id": 80186, "name": "Laura Bickford", "roles_in_work": [{"id": 913334, "title": "Traffic [DVD]", "work_id": 93200, "role": "co-producer", "role_id": 915, "is_primary": true}], "also_known_as": "", "date_of_birth": null, "date_of_death": null, "genders": [], "languages": [], "places_of_operation": [], "biography": "", "biography_author": null, "date_of_biography": null, "external_links": [], "uuid": "bc663e0b-2e10-451a-9982-72f79c73ec42", "source": {"name": "Vernon", "slug": "vernon"}, "source_identifier": null, "external_references": [{"id": 39300, "source": {"name": "Wikidata", "slug": "wikidata"}, "source_identifier": "Q121091459"}], "date_modified": "2023-09-05T22:15:24.227913+10:00"}, {"id": 80185, "name": "Jodie Foster", "roles_in_work": [{"id": 1997244, "title": "Nell [DVD]", "work_id": 93199, "role": "co-producer", "role_id": 915, "is_primary": true}], "also_known_as": "Alicia Christian Foster", "date_of_birth": "1962-11-19", "date_of_death": null, "genders": [{"id": 5, "name": "Female", "slug": "female"}], "languages": [{"id": 1, "name": "English", "slug": "english"}, {"id": 4, "name": "French", "slug": "french"}], "places_of_operation": [{"id": 1, "name": "United States of America", "slug": "united-states-of-america"}], "biography": "Alicia Christian \"Jodie\" Foster (born November 19, 1962) is an American actress and filmmaker. She is the recipient of numerous accolades, including two Academy Awards, three BAFTA Awards, three Golden Globe Awards, and a Screen Actors Guild Award. For her work as a producer and director, she has been nominated for a Primetime Emmy Award. She has also earned numerous honors such as the Golden Globe Cecil B. DeMille Award in 2013, was inducted into the Hollywood Walk of Fame in 2016 and received the Cannes Film Festival's Honorary Palme d'Or in 2021.\nFoster began her professional career as a child model and later as a teen idol in various Disney films including Napoleon and Samantha (1972), Freaky Friday (1976) and Candleshoe (1977). She acted in Martin Scorsese's comedy-drama Alice Doesn't Live Here Anymore (1974) and reunited with him in Taxi Driver (1976) in a role for which she received an Academy Award for Best Supporting Actress nomination. Other early films include Tom Sawyer (1973), Bugsy Malone (1976), The Little Girl Who Lives Down the Lane (1976), Carny (1980) and Foxes (1980).\nAfter attending Yale University, Foster transitioned into mature leading roles earning two Academy Awards for playing a rape victim in The Accused (1988), and Clarice Starling in The Silence of the Lambs (1991). She also received a nomination for Nell (1994). Her other notable films include Sommersby (1993), Maverick (1994), Contact (1997), Anna and the King (1999), Panic Room (2002), Flightplan (2005), Inside Man (2006), The Brave One (2007), Nim's Island (2008), Carnage (2011), Elysium (2013), Hotel Artemis (2018), and The Mauritanian (2021).\nFoster made her directorial film debut with Little Man Tate (1991) and has since directed films such as Home for the Holidays (1995), The Beaver (2011) and Money Monster (2016). She founded her own production company, Egg Pictures, in 1992. She earned two Primetime Emmy Awards for producing The Baby Dance (1999), and directing the Orange Is the New Black episode \"Lesbian Request Denied\" in 2014. She has also directed episodes for Tales from the Darkside, House of Cards, Black Mirror, and Tales from the Loop.\n\n", "biography_author": "Wikidata", "date_of_biography": "2023-08-01T15:33:13.281719+10:00", "external_links": [{"id": 4349, "uri": "https://en.wikipedia.org/wiki/Jodie_Foster"}], "uuid": "9a8fa0d5-4232-40f2-be0f-000849481579", "source": {"name": "Vernon", "slug": "vernon"}, "source_identifier": "22018", "external_references": [{"id": 25419, "source": {"name": "Wikidata", "slug": "wikidata"}, "source_identifier": "Q41351"}, {"id": 29430, "source": {"name": "VIAF", "slug": "viaf"}, "source_identifier": "115709691"}, {"id": 29431, "source": {"name": "LOC Auth", "slug": "loc-auth"}, "source_identifier": "n90722108"}, {"id": 29432, "source": {"name": "WorldCat", "slug": "worldcat"}, "source_identifier": "lccn-n90722108"}], "date_modified": "2023-09-05T21:29:31.965943+10:00"}, {"id": 80184, "name": "Rene Missel", "roles_in_work": [{"id": 1997243, "title": "Nell [DVD]", "work_id": 93199, "role": "co-producer", "role_id": 915, "is_primary": true}], "also_known_as": "", "date_of_birth": null, "date_of_death": null, "genders": [], "languages": [], "places_of_operation": [], "biography": "", "biography_author": null, "date_of_biography": null, "external_links": [], "uuid": "839e48f9-f0ef-4b55-aec7-3882303cb5dc", "source": {"name": "Vernon", "slug": "vernon"}, "source_identifier": null, "external_references": [{"id": 35421, "source": {"name": "Wikidata", "slug": "wikidata"}, "source_identifier": "Q121036757"}], "date_modified": "2023-09-06T00:25:36.703316+10:00"}, {"id": 80183, "name": "Denis Leary", "roles_in_work": [{"id": 2120788, "title": "Blow", "work_id": 93192, "role": "co-producer", "role_id": 915, "is_primary": true}], "also_known_as": "Denis Colin Leary", "date_of_birth": "1957-08-18", "date_of_death": "", "genders": [{"id": 9, "name": "Male", "slug": "male"}], "languages": [{"id": 1, "name": "English", "slug": "english"}], "places_of_operation": [{"id": 1, "name": "United States of America", "slug": "united-states-of-america"}], "biography": "Denis Colin Leary (born August 18, 1957) is an American actor and comedian. Born in Massachusetts, Leary first came to prominence as a stand-up comedian, especially through appearances on MTV (including the comedic song \"Asshole\") and through the stand-up specials No Cure for Cancer (1993) and Lock 'n Load (1997). Leary began taking roles in film and television starting in the 1990s, including substantial roles in the films Judgment Night (1993), Gunmen (1994), Operation Dumbo Drop (1995) and Wag the Dog (1997).\nIn the 2000s, he developed and starred in the television show The Job (2001–2002) and was the star and co-creator of Rescue Me (2004–2011), for which he received two Primetime Emmy nominations, one for writing and one for acting. He has continued to take starring roles in films, including Captain George Stacy in The Amazing Spider-Man and Cleveland Browns head coach Vince Penn in Draft Day. Leary has also done voice work, including Francis the ladybug in A Bug's Life and Diego the saber tooth tiger in the Ice Age franchise. \nHe and his wife Ann Leary are the inspiration behind the episode of the Amazon series Modern Love \"Rallying to Keep the Game Alive\". From 2015 to 2016, Leary wrote and starred in the comedy series Sex & Drugs & Rock & Roll on FX.\n\n", "biography_author": "Wikidata", "date_of_biography": "2023-08-01T14:38:00.459401+10:00", "external_links": [{"id": 1922, "uri": "https://en.wikipedia.org/wiki/Denis_Leary"}], "uuid": "ebc4b3ce-54ec-4ec8-a9f0-d2fdc885a9d8", "source": {"name": "Vernon", "slug": "vernon"}, "source_identifier": "17962", "external_references": [{"id": 8336, "source": {"name": "Wikidata", "slug": "wikidata"}, "source_identifier": "Q310283"}, {"id": 8337, "source": {"name": "VIAF", "slug": "viaf"}, "source_identifier": "69129474"}, {"id": 8338, "source": {"name": "LOC Auth", "slug": "loc-auth"}, "source_identifier": "n92045851"}, {"id": 8339, "source": {"name": "WorldCat", "slug": "worldcat"}, "source_identifier": "lccn-n92045851"}], "date_modified": "2023-09-05T19:07:48.749050+10:00"}, {"id": 80182, "name": "Joel Stillerman", "roles_in_work": [{"id": 2120785, "title": "Blow", "work_id": 93192, "role": "co-producer", "role_id": 915, "is_primary": true}], "also_known_as": "", "date_of_birth": "", "date_of_death": "", "genders": [], "languages": [], "places_of_operation": [], "biography": "", "biography_author": null, "date_of_biography": "2023-05-09T13:03:26.173241+10:00", "external_links": [], "uuid": "39541963-9c18-4ae6-83d9-30795453a628", "source": {"name": "Vernon", "slug": "vernon"}, "source_identifier": "22075", "external_references": [{"id": 40156, "source": {"name": "Wikidata", "slug": "wikidata"}, "source_identifier": "Q121315248"}], "date_modified": "2023-09-05T21:31:21.595547+10:00"}, {"id": 80181, "name": "Bobby Newmyer", "roles_in_work": [{"id": 1997233, "title": "Training day [DVD]", "work_id": 93190, "role": "co-producer", "role_id": 915, "is_primary": true}], "also_known_as": "", "date_of_birth": null, "date_of_death": null, "genders": [], "languages": [], "places_of_operation": [], "biography": "", "biography_author": null, "date_of_biography": null, "external_links": [], "uuid": "16971ad6-df76-4677-bdee-c15e4dafee90", "source": {"name": "Vernon", "slug": "vernon"}, "source_identifier": null, "external_references": [{"id": 38734, "source": {"name": "Wikidata", "slug": "wikidata"}, "source_identifier": "Q121036868"}], "date_modified": "2023-09-05T18:08:16.644927+10:00"}, {"id": 80180, "name": "Brian A. Williams", "roles_in_work": [{"id": 2120980, "title": "Blood oath = Prisoners of the sun [DVD]", "work_id": 93189, "role": "co-producer", "role_id": 915, "is_primary": true}], "also_known_as": "", "date_of_birth": "", "date_of_death": "", "genders": [], "languages": [], "places_of_operation": [], "biography": "", "biography_author": null, "date_of_biography": "2023-05-09T13:03:41.215628+10:00", "external_links": [], "uuid": "ddc4ffa6-12ee-4680-b599-d9803d7caae9", "source": {"name": "Vernon", "slug": "vernon"}, "source_identifier": "16188", "external_references": [{"id": 38303, "source": {"name": "Wikidata", "slug": "wikidata"}, "source_identifier": "Q121036862"}], "date_modified": "2023-09-05T18:09:36.106256+10:00"}]}