{"count": 28687, "next": "https://api.acmi.net.au/creators/?page=1401", "previous": "https://api.acmi.net.au/creators/?page=1399", "results": [{"id": 36992, "name": "Frank Perry", "roles_in_work": [{"id": 2168540, "title": "Mommie dearest", "work_id": 94906, "role": "director", "role_id": 938, "is_primary": true}], "also_known_as": "", "date_of_birth": "1930-08-21", "date_of_death": "1995-08-29", "genders": [{"id": 9, "name": "Male", "slug": "male"}], "languages": [{"id": 1, "name": "English", "slug": "english"}], "places_of_operation": [{"id": 1, "name": "United States of America", "slug": "united-states-of-america"}], "biography": "Frank Joseph Perry Jr. (August 21, 1930 – August 29, 1995) was an American stage director and filmmaker. His 1962 independent film David and Lisa earned an Academy Award nomination for Best Director and Best Original Screenplay (written by his then-wife Eleanor Perry). The couple collaborated on five more films, including The Swimmer, Diary of a Mad Housewife, and the Emmy Award–nominated A Christmas Memory, based on a short story by Truman Capote. Perry went on to form Corsair Pictures, privately financed by United Artists Theatres, which produced Miss Firecracker and A Shock to the System, then folded. His later films include Mommie Dearest and the documentary On the Bridge, about his battle with prostate cancer.\n\n", "biography_author": "Wikidata", "date_of_biography": "2022-05-19T11:29:44.251822+10:00", "external_links": [{"id": 2059, "uri": "https://en.wikipedia.org/wiki/Frank_Perry"}], "uuid": "d73a79f2-3d4b-4664-9506-b40cad7bd46c", "source": {"name": "Vernon", "slug": "vernon"}, "source_identifier": "19158", "external_references": [{"id": 8886, "source": {"name": "Wikidata", "slug": "wikidata"}, "source_identifier": "Q1350623"}, {"id": 8887, "source": {"name": "VIAF", "slug": "viaf"}, "source_identifier": "9602633"}, {"id": 8888, "source": {"name": "LOC Auth", "slug": "loc-auth"}, "source_identifier": "n85138213"}, {"id": 8889, "source": {"name": "WorldCat", "slug": "worldcat"}, "source_identifier": "lccn-n85138213"}], "date_modified": "2023-09-13T12:29:26.314395+10:00"}, {"id": 36990, "name": "Frank Yablans Productions", "roles_in_work": [{"id": 2168531, "title": "Mommie dearest", "work_id": 94906, "role": "production company", "role_id": 941, "is_primary": true}], "also_known_as": "", "date_of_birth": "", "date_of_death": "", "genders": [], "languages": [], "places_of_operation": [], "biography": "", "biography_author": null, "date_of_biography": "2023-05-09T14:30:50.332939+10:00", "external_links": [], "uuid": "5273ee92-ae28-455e-bf3a-bdbe340971df", "source": {"name": "Vernon", "slug": "vernon"}, "source_identifier": "8526", "external_references": [], "date_modified": "2023-06-14T16:33:30.576250+10:00"}, {"id": 36989, "name": "John Eng", "roles_in_work": [{"id": 929536, "title": "Globehunters", "work_id": 94905, "role": "director", "role_id": 938, "is_primary": true}], "also_known_as": "", "date_of_birth": null, "date_of_death": null, "genders": [{"id": 9, "name": "Male", "slug": "male"}], "languages": [], "places_of_operation": [], "biography": "", "biography_author": null, "date_of_biography": null, "external_links": [], "uuid": "1054cfab-dc45-424c-acd0-96478de786d3", "source": {"name": "Vernon", "slug": "vernon"}, "source_identifier": "22237", "external_references": [{"id": 33982, "source": {"name": "Wikidata", "slug": "wikidata"}, "source_identifier": "Q106266743"}], "date_modified": "2023-09-13T12:30:32.088325+10:00"}, {"id": 36987, "name": "Takashi Shimizu", "roles_in_work": [{"id": 2352846, "title": "The Grudge 2 = Ju-on 2", "work_id": 95173, "role": "director", "role_id": 938, "is_primary": true}, {"id": 2352819, "title": "The Grudge = Ju-on (2003)", "work_id": 94903, "role": "director", "role_id": 938, "is_primary": true}], "also_known_as": "", "date_of_birth": "1972-07-27", "date_of_death": null, "genders": [{"id": 9, "name": "Male", "slug": "male"}], "languages": [{"id": 2, "name": "Japanese", "slug": "japanese"}], "places_of_operation": [{"id": 8, "name": "Japan", "slug": "japan"}], "biography": "Takashi Shimizu (清水 崇 Shimizu Takashi, born 27 July 1972) is a Japanese filmmaker. He is best known for being the creator of the Ju-On franchise, and directing four of its films, internationally, in both Japan and the U.S. According to film scholar Wheeler Winston Dixon, Shimizu is \"one of a new breed of Japanese horror directors\" who prefers to \"suggest menace and violence rather than directly depict it.\"", "biography_author": "Wikidata", "date_of_biography": "2022-05-19T13:11:43.533120+10:00", "external_links": [{"id": 3173, "uri": "https://en.wikipedia.org/wiki/Takashi_Shimizu"}], "uuid": "c6f3dc66-9cc4-47d2-a03e-330afeb44614", "source": {"name": "Vernon", "slug": "vernon"}, "source_identifier": "29468", "external_references": [{"id": 13450, "source": {"name": "Wikidata", "slug": "wikidata"}, "source_identifier": "Q463565"}, {"id": 13451, "source": {"name": "VIAF", "slug": "viaf"}, "source_identifier": "84240819"}, {"id": 13452, "source": {"name": "LOC Auth", "slug": "loc-auth"}, "source_identifier": "no2005061463"}, {"id": 13453, "source": {"name": "WorldCat", "slug": "worldcat"}, "source_identifier": "lccn-no2005061463"}], "date_modified": "2023-09-13T12:32:56.368193+10:00"}, {"id": 36986, "name": "Aozora Investment", "roles_in_work": [{"id": 2352811, "title": "The Grudge = Ju-on (2003)", "work_id": 94903, "role": "production company", "role_id": 941, "is_primary": true}], "also_known_as": "", "date_of_birth": "", "date_of_death": "", "genders": [], "languages": [], "places_of_operation": [], "biography": "", "biography_author": null, "date_of_biography": "2023-05-09T19:59:10.875883+10:00", "external_links": [], "uuid": "95752b7a-0d08-4467-85d7-7f880a8f44d8", "source": {"name": "Vernon", "slug": "vernon"}, "source_identifier": "5304", "external_references": [{"id": 32854, "source": {"name": "Wikidata", "slug": "wikidata"}, "source_identifier": "Q121222689"}], "date_modified": "2023-09-05T17:43:12.375082+10:00"}, {"id": 36984, "name": "Peter Sollett", "roles_in_work": [{"id": 2235886, "title": "Raising Victor Vargas", "work_id": 94900, "role": "director", "role_id": 938, "is_primary": true}, {"id": 2235880, "title": "Raising Victor Vargas", "work_id": 94900, "role": "co-producer", "role_id": 915, "is_primary": true}], "also_known_as": "", "date_of_birth": "1976-02-09", "date_of_death": null, "genders": [{"id": 9, "name": "Male", "slug": "male"}], "languages": [{"id": 1, "name": "English", "slug": "english"}], "places_of_operation": [{"id": 1, "name": "United States of America", "slug": "united-states-of-america"}], "biography": "Peter Sollett (born January 1, 1976) is an American film director and screenwriter known for his feature films Raising Victor Vargas (2002) and Nick & Norah's Infinite Playlist (2008).\n\n", "biography_author": "Wikidata", "date_of_biography": "2022-05-19T12:42:51.246502+10:00", "external_links": [{"id": 2866, "uri": "https://en.wikipedia.org/wiki/Peter_Sollett"}], "uuid": "32298723-5185-40df-8f74-5ba6bb37f000", "source": {"name": "Vernon", "slug": "vernon"}, "source_identifier": "26722", "external_references": [{"id": 12181, "source": {"name": "Wikidata", "slug": "wikidata"}, "source_identifier": "Q3376892"}, {"id": 12182, "source": {"name": "VIAF", "slug": "viaf"}, "source_identifier": "53867684"}, {"id": 12183, "source": {"name": "LOC Auth", "slug": "loc-auth"}, "source_identifier": "no2004094306"}, {"id": 12184, "source": {"name": "WorldCat", "slug": "worldcat"}, "source_identifier": "lccn-no2004094306"}], "date_modified": "2023-09-13T12:31:57.121445+10:00"}, {"id": 36971, "name": "Alisa Smeaton", "roles_in_work": [{"id": 2499770, "title": "Hi 5: It's a Hi 5 Christmas", "work_id": 94985, "role": "producer", "role_id": 1089, "is_primary": true}, {"id": 1820119, "title": "Hi 5: hi-energy", "work_id": 94888, "role": "producer", "role_id": 1089, "is_primary": true}], "also_known_as": "", "date_of_birth": null, "date_of_death": null, "genders": [], "languages": [], "places_of_operation": [], "biography": "", "biography_author": null, "date_of_biography": null, "external_links": [], "uuid": "48a87ae4-57c9-4c5a-bea9-54a4aba4bd77", "source": {"name": "Vernon", "slug": "vernon"}, "source_identifier": "14576", "external_references": [], "date_modified": "2023-09-20T03:40:42.325508+10:00"}, {"id": 36968, "name": "DNA (Korea)", "roles_in_work": [{"id": 2064122, "title": "28 days later = twenty eight days later", "work_id": 94882, "role": "production company", "role_id": 941, "is_primary": true}], "also_known_as": "", "date_of_birth": "", "date_of_death": "", "genders": [], "languages": [], "places_of_operation": [], "biography": "", "biography_author": null, "date_of_biography": "2023-05-09T11:20:19.075889+10:00", "external_links": [], "uuid": "6cceac7a-9cc9-4221-a20c-7dce88eb0afe", "source": {"name": "Vernon", "slug": "vernon"}, "source_identifier": "4771", "external_references": [{"id": 42515, "source": {"name": "Wikidata", "slug": "wikidata"}, "source_identifier": "Q121035203"}], "date_modified": "2023-09-05T19:13:25.541085+10:00"}, {"id": 36966, "name": "Foz", "roles_in_work": [{"id": 2320468, "title": "Swimming pool", "work_id": 94878, "role": "production company", "role_id": 941, "is_primary": true}], "also_known_as": "", "date_of_birth": "", "date_of_death": "", "genders": [], "languages": [], "places_of_operation": [], "biography": "", "biography_author": null, "date_of_biography": "2023-05-09T19:11:13.217191+10:00", "external_links": [], "uuid": "608be778-3e0c-44fb-92f0-7f9153db05c3", "source": {"name": "Vernon", "slug": "vernon"}, "source_identifier": "8484", "external_references": [{"id": 39513, "source": {"name": "Wikidata", "slug": "wikidata"}, "source_identifier": "Q121271271"}], "date_modified": "2023-09-05T19:45:38.589608+10:00"}, {"id": 36965, "name": "Gimages Films", "roles_in_work": [{"id": 2320460, "title": "Swimming pool", "work_id": 94878, "role": "production company", "role_id": 941, "is_primary": true}], "also_known_as": "", "date_of_birth": "", "date_of_death": "", "genders": [], "languages": [], "places_of_operation": [], "biography": "", "biography_author": null, "date_of_biography": "2023-05-09T19:11:12.968575+10:00", "external_links": [], "uuid": "baab7926-cd39-4ba1-b38e-a8a5ace5603f", "source": {"name": "Vernon", "slug": "vernon"}, "source_identifier": "8734", "external_references": [{"id": 42883, "source": {"name": "Wikidata", "slug": "wikidata"}, "source_identifier": "Q78992365"}], "date_modified": "2023-09-05T20:13:34.550614+10:00"}]}