{"count": 28687, "next": "https://api.acmi.net.au/creators/?page=215", "previous": "https://api.acmi.net.au/creators/?page=213", "results": [{"id": 83467, "name": "Norm Smithells", "roles_in_work": [{"id": 2727846, "title": "An Interview with Norm Smithells", "work_id": 116661, "role": "creator", "role_id": 968, "is_primary": true}, {"id": 2727847, "title": "An Interview with Norm Smithells", "work_id": 116661, "role": "interviewee", "role_id": 496, "is_primary": false}], "also_known_as": "", "date_of_birth": "", "date_of_death": "", "genders": [{"id": 9, "name": "Male", "slug": "male"}], "languages": [], "places_of_operation": [], "biography": "", "biography_author": null, "date_of_biography": "2023-08-30T04:23:35.558455+10:00", "external_links": [], "uuid": "b596b6e2-1281-46d4-b224-b0880113d08a", "source": {"name": "Vernon", "slug": "vernon"}, "source_identifier": "34864", "external_references": [], "date_modified": "2025-03-12T08:30:05.619051+11:00"}, {"id": 83466, "name": "Jock McAuley", "roles_in_work": [{"id": 2727841, "title": "An Interview with Jock McAuley", "work_id": 116660, "role": "creator", "role_id": 968, "is_primary": true}, {"id": 2727842, "title": "An Interview with Jock McAuley", "work_id": 116660, "role": "interviewee", "role_id": 496, "is_primary": false}], "also_known_as": "", "date_of_birth": "", "date_of_death": "", "genders": [{"id": 9, "name": "Male", "slug": "male"}], "languages": [], "places_of_operation": [], "biography": "Jock joined the army during World War II as a pilot", "biography_author": null, "date_of_biography": "2025-03-12T08:30:02.035650+11:00", "external_links": [], "uuid": "6e75e786-a597-4c82-b2b9-ddd7ed2c04f6", "source": {"name": "Vernon", "slug": "vernon"}, "source_identifier": "34859", "external_references": [], "date_modified": "2025-03-12T08:30:02.035962+11:00"}, {"id": 83465, "name": "Douglas McLean", "roles_in_work": [{"id": 2727836, "title": "An Interview with Douglas McLean", "work_id": 116659, "role": "creator", "role_id": 968, "is_primary": true}], "also_known_as": "", "date_of_birth": "", "date_of_death": "", "genders": [{"id": 9, "name": "Male", "slug": "male"}], "languages": [], "places_of_operation": [], "biography": "Douglas McLean was called up for service during World War II and fought in the 39th brigade. He also fought in the Pacific", "biography_author": null, "date_of_biography": "2025-03-12T08:29:57.726474+11:00", "external_links": [], "uuid": "14edfa6c-4b57-4223-8711-8b7daa467d65", "source": {"name": "Vernon", "slug": "vernon"}, "source_identifier": "34860", "external_references": [], "date_modified": "2025-03-12T08:29:57.726720+11:00"}, {"id": 83464, "name": "Douglas Margetts", "roles_in_work": [{"id": 2727831, "title": "An Interview with Douglas Margetts", "work_id": 116658, "role": "creator", "role_id": 968, "is_primary": true}, {"id": 2727832, "title": "An Interview with Douglas Margetts", "work_id": 116658, "role": "interviewee", "role_id": 496, "is_primary": false}], "also_known_as": "", "date_of_birth": "", "date_of_death": "", "genders": [{"id": 9, "name": "Male", "slug": "male"}], "languages": [], "places_of_operation": [], "biography": "Douglas Margetts worked as a signal man and served in the Middle East and New Guinea during World War II", "biography_author": null, "date_of_biography": "2025-03-12T08:29:54.762278+11:00", "external_links": [], "uuid": "8be58429-3865-4f32-9697-aff8725292cd", "source": {"name": "Vernon", "slug": "vernon"}, "source_identifier": "34863", "external_references": [], "date_modified": "2025-03-12T08:29:54.762593+11:00"}, {"id": 83463, "name": "Allan Couper", "roles_in_work": [{"id": 2727821, "title": "An Interview with Allan Couper", "work_id": 116656, "role": "creator", "role_id": 968, "is_primary": true}, {"id": 2727822, "title": "An Interview with Allan Couper", "work_id": 116656, "role": "interviewee", "role_id": 496, "is_primary": false}], "also_known_as": "", "date_of_birth": "", "date_of_death": "", "genders": [{"id": 9, "name": "Male", "slug": "male"}], "languages": [], "places_of_operation": [], "biography": "Allan Couper served as a Pilot in World War II in Europe with Bomber Squadron", "biography_author": null, "date_of_biography": "2025-03-12T08:29:47.614911+11:00", "external_links": [], "uuid": "0147dcb9-8e38-409a-887c-2513d636ae09", "source": {"name": "Vernon", "slug": "vernon"}, "source_identifier": "34861", "external_references": [], "date_modified": "2025-03-12T08:29:47.615260+11:00"}, {"id": 83462, "name": "Jo Metz", "roles_in_work": [{"id": 2374231, "title": "A Day to remember", "work_id": 116642, "role": "interviewee", "role_id": 496, "is_primary": false}], "also_known_as": "", "date_of_birth": "", "date_of_death": "", "genders": [{"id": 5, "name": "Female", "slug": "female"}], "languages": [], "places_of_operation": [], "biography": "", "biography_author": null, "date_of_biography": "2023-07-05T03:52:27.510435+10:00", "external_links": [], "uuid": "bf9b442b-d830-4b46-82ed-1cde849966fa", "source": {"name": "Vernon", "slug": "vernon"}, "source_identifier": "34536", "external_references": [], "date_modified": "2023-07-05T03:52:27.510866+10:00"}, {"id": 83461, "name": "Djibril Ly", "roles_in_work": [{"id": 2658316, "title": "When the flood comes", "work_id": 116653, "role": "interviewee", "role_id": 496, "is_primary": false}], "also_known_as": "", "date_of_birth": "", "date_of_death": "", "genders": [{"id": 9, "name": "Male", "slug": "male"}], "languages": [], "places_of_operation": [], "biography": "", "biography_author": null, "date_of_biography": "2023-05-09T16:56:07.210605+10:00", "external_links": [], "uuid": "22ac8dc1-9ff3-4f86-b1eb-522e42c60f13", "source": {"name": "Vernon", "slug": "vernon"}, "source_identifier": "35575", "external_references": [], "date_modified": "2025-03-05T17:37:45.867327+11:00"}, {"id": 83460, "name": "Lydia Romari", "roles_in_work": [{"id": 2658322, "title": "When a fire comes to you", "work_id": 116652, "role": "creator", "role_id": 968, "is_primary": true}], "also_known_as": "", "date_of_birth": "", "date_of_death": "", "genders": [{"id": 5, "name": "Female", "slug": "female"}], "languages": [], "places_of_operation": [], "biography": "", "biography_author": null, "date_of_biography": "2023-05-09T16:56:05.762761+10:00", "external_links": [], "uuid": "f672f47b-41dd-4c4b-a016-0399ab6a0da9", "source": {"name": "Vernon", "slug": "vernon"}, "source_identifier": "35577", "external_references": [], "date_modified": "2025-03-05T17:37:50.889443+11:00"}, {"id": 83459, "name": "Philip Mitchell", "roles_in_work": [{"id": 2374246, "title": "The Road home", "work_id": 116651, "role": "creator", "role_id": 968, "is_primary": true}, {"id": 3107878, "title": "The Hobbit [computer game] for BBC Model B", "work_id": 117998, "role": "programmer", "role_id": 483, "is_primary": false}], "also_known_as": "", "date_of_birth": "", "date_of_death": "", "genders": [{"id": 9, "name": "Male", "slug": "male"}], "languages": [], "places_of_operation": [], "biography": "", "biography_author": null, "date_of_biography": "2023-07-05T03:52:38.929741+10:00", "external_links": [], "uuid": "2fe1a172-fdc1-4896-99e1-c7816ac0f8fa", "source": {"name": "Vernon", "slug": "vernon"}, "source_identifier": "37722", "external_references": [], "date_modified": "2025-09-17T15:14:34.430439+10:00"}, {"id": 83458, "name": "Carla Zekas", "roles_in_work": [{"id": 2242234, "title": "A Plan to be safe", "work_id": 116649, "role": "creator", "role_id": 968, "is_primary": true}], "also_known_as": "", "date_of_birth": "", "date_of_death": "", "genders": [{"id": 5, "name": "Female", "slug": "female"}], "languages": [], "places_of_operation": [], "biography": "", "biography_author": null, "date_of_biography": "2023-05-09T16:56:01.250494+10:00", "external_links": [], "uuid": "a2fecce0-89a6-4402-8f52-d82286193d5b", "source": {"name": "Vernon", "slug": "vernon"}, "source_identifier": "35574", "external_references": [], "date_modified": "2023-06-14T16:33:30.576250+10:00"}]}