{"count": 28684, "next": "https://api.acmi.net.au/creators/?page=435", "previous": "https://api.acmi.net.au/creators/?page=433", "results": [{"id": 81240, "name": "David Teitelbaum", "roles_in_work": [{"id": 930547, "title": "Trojan warrior", "work_id": 95172, "role": "co-producer", "role_id": 915, "is_primary": true}], "also_known_as": "", "date_of_birth": null, "date_of_death": null, "genders": [], "languages": [], "places_of_operation": [], "biography": "", "biography_author": null, "date_of_biography": null, "external_links": [], "uuid": "0c38c04d-d49e-4741-83b7-8b8d16918425", "source": {"name": "Vernon", "slug": "vernon"}, "source_identifier": null, "external_references": [{"id": 34708, "source": {"name": "Wikidata", "slug": "wikidata"}, "source_identifier": "Q121091148"}], "date_modified": "2023-09-05T19:03:03.657302+10:00"}, {"id": 81239, "name": "Murray Sestak", "roles_in_work": [{"id": 930546, "title": "Trojan warrior", "work_id": 95172, "role": "co-producer", "role_id": 915, "is_primary": true}], "also_known_as": "", "date_of_birth": null, "date_of_death": null, "genders": [], "languages": [], "places_of_operation": [], "biography": "", "biography_author": null, "date_of_biography": null, "external_links": [], "uuid": "0dd8a7c5-a5a8-4d5d-ba36-5445f1ec8421", "source": {"name": "Vernon", "slug": "vernon"}, "source_identifier": null, "external_references": [{"id": 38807, "source": {"name": "Wikidata", "slug": "wikidata"}, "source_identifier": "Q121036705"}], "date_modified": "2023-09-05T23:22:58.952061+10:00"}, {"id": 81238, "name": "Don Jinks", "roles_in_work": [{"id": 2475601, "title": "Nothing to lose", "work_id": 95167, "role": "producer", "role_id": 1089, "is_primary": true}], "also_known_as": "", "date_of_birth": "2000-01-01", "date_of_death": "", "genders": [{"id": 9, "name": "Male", "slug": "male"}], "languages": [], "places_of_operation": [{"id": 1, "name": "United States of America", "slug": "united-states-of-america"}], "biography": "Dan Jinks is an American film and television producer. In February 2010, Jinks launched his own film and television production company, the Dan Jinks Company. In July 2011, he signed an overall deal with CBS Television Studios.", "biography_author": "Wikidata", "date_of_biography": "2023-09-05T19:15:14.175853+10:00", "external_links": [{"id": 1939, "uri": "https://en.wikipedia.org/wiki/Dan_Jinks"}], "uuid": "743540d4-b640-4663-8c7e-e49fd7201e23", "source": {"name": "Vernon", "slug": "vernon"}, "source_identifier": "18220", "external_references": [{"id": 8409, "source": {"name": "Wikidata", "slug": "wikidata"}, "source_identifier": "Q643529"}, {"id": 8410, "source": {"name": "VIAF", "slug": "viaf"}, "source_identifier": "87128149"}, {"id": 8411, "source": {"name": "LOC Auth", "slug": "loc-auth"}, "source_identifier": "no2003073306"}, {"id": 8412, "source": {"name": "WorldCat", "slug": "worldcat"}, "source_identifier": "lccn-no2003073306"}], "date_modified": "2023-09-05T19:15:14.185216+10:00"}, {"id": 81237, "name": "Deran Sarafian", "roles_in_work": [{"id": 2324405, "title": "Terminal velocity", "work_id": 95166, "role": "director", "role_id": 938, "is_primary": true}], "also_known_as": "", "date_of_birth": "1958-01-17", "date_of_death": "", "genders": [{"id": 9, "name": "Male", "slug": "male"}], "languages": [{"id": 1, "name": "English", "slug": "english"}], "places_of_operation": [{"id": 1, "name": "United States of America", "slug": "united-states-of-america"}], "biography": "Deran Sarafian  is an American film and television director and actor. He directed Death Warrant, Gunmen, and Terminal Velocity. He has been nominated for two Primetime Emmy Awards.", "biography_author": "Wikidata", "date_of_biography": "2023-08-01T14:38:38.018256+10:00", "external_links": [{"id": 1931, "uri": "https://en.wikipedia.org/wiki/Deran_Sarafian"}], "uuid": "e3189ab3-ebee-45d8-a665-4e280a1b4dd3", "source": {"name": "Vernon", "slug": "vernon"}, "source_identifier": "18022", "external_references": [{"id": 8370, "source": {"name": "Wikidata", "slug": "wikidata"}, "source_identifier": "Q951523"}, {"id": 8371, "source": {"name": "VIAF", "slug": "viaf"}, "source_identifier": "29735291"}, {"id": 8372, "source": {"name": "LOC Auth", "slug": "loc-auth"}, "source_identifier": "no2011167102"}, {"id": 8373, "source": {"name": "WorldCat", "slug": "worldcat"}, "source_identifier": "lccn-no2011167102"}], "date_modified": "2023-09-05T19:09:47.946781+10:00"}, {"id": 81236, "name": "Matt Myers", "roles_in_work": [{"id": 2333802, "title": "The Book of life", "work_id": 95165, "role": "co-producer", "role_id": 915, "is_primary": true}], "also_known_as": "", "date_of_birth": "", "date_of_death": "", "genders": [], "languages": [], "places_of_operation": [], "biography": "", "biography_author": null, "date_of_biography": "2023-05-09T19:29:20.477012+10:00", "external_links": [], "uuid": "b62972ba-bc04-49a6-9aea-700af10fcaf4", "source": {"name": "Vernon", "slug": "vernon"}, "source_identifier": "24788", "external_references": [{"id": 35625, "source": {"name": "Wikidata", "slug": "wikidata"}, "source_identifier": "Q121036339"}], "date_modified": "2023-09-05T22:54:25.385517+10:00"}, {"id": 81235, "name": "Thierry Cagianut", "roles_in_work": [{"id": 2333796, "title": "The Book of life", "work_id": 95165, "role": "co-producer", "role_id": 915, "is_primary": true}], "also_known_as": "", "date_of_birth": "", "date_of_death": "", "genders": [], "languages": [], "places_of_operation": [], "biography": "", "biography_author": null, "date_of_biography": "2023-05-09T19:29:20.213022+10:00", "external_links": [], "uuid": "4b6c4f4f-e769-4ddf-951b-19ebfa25d10f", "source": {"name": "Vernon", "slug": "vernon"}, "source_identifier": "29656", "external_references": [{"id": 36285, "source": {"name": "Wikidata", "slug": "wikidata"}, "source_identifier": "Q121086071"}], "date_modified": "2023-09-06T01:47:57.077323+10:00"}, {"id": 81234, "name": "Caroline Link", "roles_in_work": [{"id": 2475024, "title": "Nowhere in Africa = Nirgendwo in Afrika", "work_id": 95159, "role": "director", "role_id": 938, "is_primary": true}], "also_known_as": "", "date_of_birth": "1964-06-02", "date_of_death": "", "genders": [{"id": 5, "name": "Female", "slug": "female"}], "languages": [{"id": 5, "name": "German", "slug": "german"}], "places_of_operation": [{"id": 18, "name": "Germany", "slug": "germany"}], "biography": "Caroline Link (born 2 June 1964) is a German TV and film director and screenwriter.She is best known for directing critically acclaimed Beyond Silence, which was nominated for an Academy Award for Best International Feature Film, and for directing Nowhere in Africa, which won an Academy Award for Best International Feature Film and was nominated for a Golden Globe Award.\n\n", "biography_author": "Wikidata", "date_of_biography": "2023-09-05T18:21:07.277180+10:00", "external_links": [{"id": 1779, "uri": "https://en.wikipedia.org/wiki/Caroline_Link"}], "uuid": "3eec79dd-9094-4c6f-bb57-7555e125e700", "source": {"name": "Vernon", "slug": "vernon"}, "source_identifier": "16543", "external_references": [{"id": 7754, "source": {"name": "Wikidata", "slug": "wikidata"}, "source_identifier": "Q62956"}, {"id": 7755, "source": {"name": "VIAF", "slug": "viaf"}, "source_identifier": "117984945"}, {"id": 7756, "source": {"name": "LOC Auth", "slug": "loc-auth"}, "source_identifier": "no99017022"}, {"id": 7757, "source": {"name": "WorldCat", "slug": "worldcat"}, "source_identifier": "lccn-no99017022"}], "date_modified": "2023-09-05T18:21:09.285687+10:00"}, {"id": 81233, "name": "Peter Herrmann", "roles_in_work": [{"id": 2475023, "title": "Nowhere in Africa = Nirgendwo in Afrika", "work_id": 95159, "role": "producer", "role_id": 1089, "is_primary": true}], "also_known_as": "", "date_of_birth": "1954-12-27", "date_of_death": "", "genders": [{"id": 9, "name": "Male", "slug": "male"}], "languages": [{"id": 5, "name": "German", "slug": "german"}], "places_of_operation": [{"id": 18, "name": "Germany", "slug": "germany"}], "biography": "", "biography_author": null, "date_of_biography": "2023-08-17T15:03:06.142373+10:00", "external_links": [], "uuid": "b7fd78e0-4b9f-4e32-9260-36f0868f9735", "source": {"name": "Vernon", "slug": "vernon"}, "source_identifier": "26575", "external_references": [{"id": 12141, "source": {"name": "Wikidata", "slug": "wikidata"}, "source_identifier": "Q1712414"}, {"id": 12142, "source": {"name": "VIAF", "slug": "viaf"}, "source_identifier": "63820011"}, {"id": 12143, "source": {"name": "LOC Auth", "slug": "loc-auth"}, "source_identifier": "no2008081524"}, {"id": 12144, "source": {"name": "WorldCat", "slug": "worldcat"}, "source_identifier": "lccn-no2008081524"}], "date_modified": "2023-09-05T23:57:45.135099+10:00"}, {"id": 81232, "name": "MC One Productions", "roles_in_work": [{"id": 2475022, "title": "Nowhere in Africa = Nirgendwo in Afrika", "work_id": 95159, "role": "production company", "role_id": 941, "is_primary": true}], "also_known_as": "", "date_of_birth": "", "date_of_death": "", "genders": [], "languages": [], "places_of_operation": [], "biography": "", "biography_author": null, "date_of_biography": "2023-08-17T15:03:05.525732+10:00", "external_links": [], "uuid": "0fef1a5f-e722-4d10-9754-f9e76acf476f", "source": {"name": "Vernon", "slug": "vernon"}, "source_identifier": "10391", "external_references": [{"id": 36721, "source": {"name": "Wikidata", "slug": "wikidata"}, "source_identifier": "Q121270843"}], "date_modified": "2023-09-05T22:58:20.702076+10:00"}, {"id": 81231, "name": "John Dower", "roles_in_work": [{"id": 930490, "title": "Live forever", "work_id": 95154, "role": "director", "role_id": 938, "is_primary": true}], "also_known_as": "", "date_of_birth": null, "date_of_death": null, "genders": [{"id": 9, "name": "Male", "slug": "male"}], "languages": [{"id": 1, "name": "English", "slug": "english"}], "places_of_operation": [{"id": 10, "name": "United Kingdom", "slug": "united-kingdom"}], "biography": "", "biography_author": null, "date_of_biography": null, "external_links": [], "uuid": "299de3c0-63fe-45f4-9c0f-ae80701b5e5c", "source": {"name": "Vernon", "slug": "vernon"}, "source_identifier": null, "external_references": [{"id": 32379, "source": {"name": "Wikidata", "slug": "wikidata"}, "source_identifier": "Q76195716"}], "date_modified": "2023-09-05T21:35:06.662534+10:00"}]}