{"count": 28687, "next": "https://api.acmi.net.au/creators/?page=2716", "previous": "https://api.acmi.net.au/creators/?page=2714", "results": [{"id": 11224, "name": "Nicola Wong Oi-Pyn", "roles_in_work": [{"id": 2641339, "title": "Sandra", "work_id": 110356, "role": "creator", "role_id": 968, "is_primary": true}], "also_known_as": "", "date_of_birth": null, "date_of_death": null, "genders": [], "languages": [], "places_of_operation": [], "biography": "", "biography_author": null, "date_of_biography": null, "external_links": [], "uuid": "575c209e-b134-4088-bb91-e82031c5c262", "source": {"name": "Vernon", "slug": "vernon"}, "source_identifier": "2990", "external_references": [], "date_modified": "2025-03-05T11:33:58.717702+11:00"}, {"id": 11223, "name": "Darren Ballingall", "roles_in_work": [{"id": 2641337, "title": "Animote", "work_id": 110355, "role": "creator", "role_id": 968, "is_primary": true}], "also_known_as": "", "date_of_birth": null, "date_of_death": null, "genders": [], "languages": [], "places_of_operation": [], "biography": "", "biography_author": null, "date_of_biography": null, "external_links": [], "uuid": "351b9893-5f69-4059-95ae-41e3f6174aa2", "source": {"name": "Vernon", "slug": "vernon"}, "source_identifier": "2989", "external_references": [], "date_modified": "2025-03-05T11:33:57.235863+11:00"}, {"id": 11222, "name": "Mike Nowson", "roles_in_work": [{"id": 2641335, "title": "Trans-form", "work_id": 110354, "role": "creator", "role_id": 968, "is_primary": true}], "also_known_as": "", "date_of_birth": null, "date_of_death": null, "genders": [], "languages": [], "places_of_operation": [], "biography": "", "biography_author": null, "date_of_biography": null, "external_links": [], "uuid": "737104d6-9e3e-4f8d-ba0f-133bbaba6c3e", "source": {"name": "Vernon", "slug": "vernon"}, "source_identifier": "2988", "external_references": [], "date_modified": "2025-03-05T11:33:55.798676+11:00"}, {"id": 11221, "name": "Angela Barnett", "roles_in_work": [{"id": 2640801, "title": "Cinco anos [interactive]", "work_id": 110498, "role": "creator", "role_id": 968, "is_primary": true}, {"id": 2641333, "title": "Cinco anos", "work_id": 110353, "role": "creator", "role_id": 968, "is_primary": true}], "also_known_as": "", "date_of_birth": null, "date_of_death": null, "genders": [], "languages": [], "places_of_operation": [], "biography": "", "biography_author": null, "date_of_biography": null, "external_links": [], "uuid": "222e9b02-3646-4658-a7ec-3247717d223b", "source": {"name": "Vernon", "slug": "vernon"}, "source_identifier": "2987", "external_references": [], "date_modified": "2025-03-05T11:33:54.366558+11:00"}, {"id": 11220, "name": "Gerard Mason", "roles_in_work": [{"id": 2641331, "title": "Residency", "work_id": 110352, "role": "creator", "role_id": 968, "is_primary": true}], "also_known_as": "", "date_of_birth": null, "date_of_death": null, "genders": [], "languages": [], "places_of_operation": [], "biography": "", "biography_author": null, "date_of_biography": null, "external_links": [], "uuid": "99ab3871-dde0-4ec1-98fd-3630f43b58c9", "source": {"name": "Vernon", "slug": "vernon"}, "source_identifier": "2986", "external_references": [], "date_modified": "2025-03-05T11:33:52.908680+11:00"}, {"id": 11219, "name": "Christian Rubino", "roles_in_work": [{"id": 2641329, "title": "Chit Chat National Park. Come play", "work_id": 110351, "role": "creator", "role_id": 968, "is_primary": true}], "also_known_as": "", "date_of_birth": null, "date_of_death": null, "genders": [], "languages": [], "places_of_operation": [], "biography": "", "biography_author": null, "date_of_biography": null, "external_links": [], "uuid": "fa5bd4ec-d9ba-4c35-87e9-688d818e1e4a", "source": {"name": "Vernon", "slug": "vernon"}, "source_identifier": "2985", "external_references": [], "date_modified": "2025-03-05T11:33:51.434095+11:00"}, {"id": 11218, "name": "Daniel Toshi Endo", "roles_in_work": [{"id": 2641328, "title": "Chit Chat National Park. Come play", "work_id": 110351, "role": "creator", "role_id": 968, "is_primary": true}], "also_known_as": "", "date_of_birth": null, "date_of_death": null, "genders": [], "languages": [], "places_of_operation": [], "biography": "", "biography_author": null, "date_of_biography": null, "external_links": [], "uuid": "61824764-3b71-463a-bedf-d2f3e9e38255", "source": {"name": "Vernon", "slug": "vernon"}, "source_identifier": "2984", "external_references": [], "date_modified": "2025-03-05T11:33:50.846548+11:00"}, {"id": 11217, "name": "Morag Porteous", "roles_in_work": [{"id": 2641325, "title": "A Monster's Voyage", "work_id": 114271, "role": "creator", "role_id": 968, "is_primary": true}], "also_known_as": "", "date_of_birth": null, "date_of_death": null, "genders": [], "languages": [], "places_of_operation": [], "biography": "", "biography_author": null, "date_of_biography": null, "external_links": [], "uuid": "d0e07372-b119-4dda-971f-950372efac1d", "source": {"name": "Vernon", "slug": "vernon"}, "source_identifier": "2983", "external_references": [], "date_modified": "2025-03-05T11:33:48.348032+11:00"}, {"id": 11216, "name": "Sajjad Amjad", "roles_in_work": [{"id": 2641323, "title": "B.Y.O (bring your own)", "work_id": 110349, "role": "creator", "role_id": 968, "is_primary": true}], "also_known_as": "", "date_of_birth": null, "date_of_death": null, "genders": [], "languages": [], "places_of_operation": [], "biography": "", "biography_author": null, "date_of_biography": null, "external_links": [], "uuid": "63b9fcbb-b866-4282-9b39-888f2465bc37", "source": {"name": "Vernon", "slug": "vernon"}, "source_identifier": "2982", "external_references": [], "date_modified": "2025-03-05T11:33:46.888023+11:00"}, {"id": 11215, "name": "Mari Kim", "roles_in_work": [{"id": 2641321, "title": "The Quiet family", "work_id": 110348, "role": "creator", "role_id": 968, "is_primary": true}], "also_known_as": "", "date_of_birth": null, "date_of_death": null, "genders": [], "languages": [], "places_of_operation": [], "biography": "", "biography_author": null, "date_of_biography": null, "external_links": [], "uuid": "2a332381-f522-4620-84f1-ecc6d58ca3dd", "source": {"name": "Vernon", "slug": "vernon"}, "source_identifier": "2981", "external_references": [], "date_modified": "2025-03-05T11:33:45.448646+11:00"}]}