{"count": 28687, "next": "https://api.acmi.net.au/creators/?page=1406", "previous": "https://api.acmi.net.au/creators/?page=1404", "results": [{"id": 36802, "name": "Carl Lamac", "roles_in_work": [{"id": 884496, "title": "Frasquita", "work_id": 94715, "role": "director", "role_id": 938, "is_primary": true}], "also_known_as": "", "date_of_birth": "1897-01-27", "date_of_death": "1952-08-02", "genders": [{"id": 9, "name": "Male", "slug": "male"}], "languages": [{"id": 20, "name": "Czech", "slug": "czech"}, {"id": 5, "name": "German", "slug": "german"}], "places_of_operation": [], "biography": "Karel Lamač (27 January 1897 – 2 August 1952) was a Czech film director, actor, screenwriter, producer and singer. He directed more than 100 films in Czechoslovakia, Austria, Germany, the Netherlands and the United Kingdom.\n\n", "biography_author": "Wikidata", "date_of_biography": "2022-05-19T11:01:17.276460+10:00", "external_links": [{"id": 1775, "uri": "https://en.wikipedia.org/wiki/Karel_Lama%C4%8D"}], "uuid": "0ca0f9d1-e696-409d-94c7-1a1403929080", "source": {"name": "Vernon", "slug": "vernon"}, "source_identifier": "16475", "external_references": [{"id": 7736, "source": {"name": "Wikidata", "slug": "wikidata"}, "source_identifier": "Q215137"}, {"id": 7737, "source": {"name": "VIAF", "slug": "viaf"}, "source_identifier": "47570654"}, {"id": 7738, "source": {"name": "LOC Auth", "slug": "loc-auth"}, "source_identifier": "no2006041049"}, {"id": 7739, "source": {"name": "WorldCat", "slug": "worldcat"}, "source_identifier": "lccn-no2006041049"}], "date_modified": "2023-09-13T12:28:37.444446+10:00"}, {"id": 36793, "name": "Leslie Gilliat", "roles_in_work": [{"id": 1815685, "title": "The Great St Trinian's train robbery", "work_id": 94706, "role": "producer", "role_id": 1089, "is_primary": true}, {"id": 2177169, "title": "Only two can play", "work_id": 95042, "role": "producer", "role_id": 1089, "is_primary": true}], "also_known_as": "", "date_of_birth": "1908-02-15", "date_of_death": "1994-05-31", "genders": [{"id": 9, "name": "Male", "slug": "male"}], "languages": [{"id": 1, "name": "English", "slug": "english"}], "places_of_operation": [{"id": 10, "name": "United Kingdom", "slug": "united-kingdom"}], "biography": "Sidney Gilliat (15 February 1908 – 31 May 1994) was an English film director, producer and writer.\nHe was the son of George Gilliat, editor of the Evening Standard from 1928 to 1933. Sidney was born in the district of Edgeley in Stockport, Cheshire. In the 1930s he worked as a scriptwriter, most notably with Frank Launder on The Lady Vanishes (1938) for Alfred Hitchcock, and Night Train to Munich (1940), directed by Carol Reed. He and Launder made their directorial debut co-directing the home front drama Millions Like Us (1943). From 1945 he also worked as a producer, starting with The Rake's Progress, which he also wrote and directed. He and Launder made over 40 films together, founding their own production company Individual Pictures. While Launder concentrated on directing their comedies, most famously the four St Trinian's School films, Gilliat showed a preference for comedy-thrillers and dramas, including Green for Danger (1946), London Belongs to Me (1948) and State Secret (1950).\nHe wrote the libretto for Malcolm Williamson's opera Our Man in Havana, based on the novel by Graham Greene. He had also worked on the film.", "biography_author": "Wikidata", "date_of_biography": "2022-05-19T12:15:30.140784+10:00", "external_links": [{"id": 2572, "uri": "https://en.wikipedia.org/wiki/Sidney_Gilliat"}], "uuid": "b4294bd7-584b-4147-aaef-7a48a2410d6f", "source": {"name": "Vernon", "slug": "vernon"}, "source_identifier": "23771", "external_references": [{"id": 10988, "source": {"name": "Wikidata", "slug": "wikidata"}, "source_identifier": "Q505853"}, {"id": 10989, "source": {"name": "VIAF", "slug": "viaf"}, "source_identifier": "102338471"}, {"id": 10990, "source": {"name": "LOC Auth", "slug": "loc-auth"}, "source_identifier": "n85144728"}, {"id": 10991, "source": {"name": "WorldCat", "slug": "worldcat"}, "source_identifier": "lccn-n85144728"}], "date_modified": "2023-09-13T12:30:58.613699+10:00"}, {"id": 36785, "name": "Jack Donohue", "roles_in_work": [{"id": 2106224, "title": "Babes in toyland", "work_id": 95441, "role": "director", "role_id": 938, "is_primary": true}, {"id": 2349263, "title": "The Frank Sinatra show", "work_id": 94699, "role": "director", "role_id": 938, "is_primary": true}], "also_known_as": "", "date_of_birth": "1908-11-03", "date_of_death": "1984-03-27", "genders": [{"id": 9, "name": "Male", "slug": "male"}], "languages": [{"id": 1, "name": "English", "slug": "english"}], "places_of_operation": [{"id": 1, "name": "United States of America", "slug": "united-states-of-america"}], "biography": "John Francis Donohue (November 3, 1908 – March 27, 1984) was an American film actor, screenwriter, director, producer, composer, and choreographer.\nSome of his movie directing roles include Babes in Toyland (1961), Marriage on the Rocks, (1965), and Assault on a Queen, (1966). Some of his television directing roles include The Frank Sinatra Show, The Colgate Comedy Hour, The Red Skelton Show, and The Dean Martin Show.", "biography_author": "Wikidata", "date_of_biography": "2023-08-01T15:17:08.786663+10:00", "external_links": [{"id": 4213, "uri": "https://en.wikipedia.org/wiki/Jack_Donohue_(director)"}], "uuid": "0f1c136a-e920-49cc-802d-d9d186b82b29", "source": {"name": "Vernon", "slug": "vernon"}, "source_identifier": "21036", "external_references": [{"id": 26354, "source": {"name": "Wikidata", "slug": "wikidata"}, "source_identifier": "Q774661"}, {"id": 29060, "source": {"name": "VIAF", "slug": "viaf"}, "source_identifier": "37154799"}, {"id": 29061, "source": {"name": "LOC Auth", "slug": "loc-auth"}, "source_identifier": "n88132408"}, {"id": 29062, "source": {"name": "WorldCat", "slug": "worldcat"}, "source_identifier": "lccn-n88132408"}], "date_modified": "2023-09-05T20:55:04.429992+10:00"}, {"id": 36784, "name": "Graeme Rowland", "roles_in_work": [{"id": 2338791, "title": "The Cleo Laine collection", "work_id": 94698, "role": "director", "role_id": 938, "is_primary": true}, {"id": 2753853, "title": "Show me English: the appointment [episode 1]", "work_id": 98956, "role": "director", "role_id": 938, "is_primary": true}], "also_known_as": "", "date_of_birth": "", "date_of_death": "", "genders": [], "languages": [], "places_of_operation": [], "biography": "", "biography_author": null, "date_of_biography": "2023-05-09T19:36:21.593566+10:00", "external_links": [], "uuid": "5db3034c-85a3-4bdb-8b65-e79ec8bef8d7", "source": {"name": "Vernon", "slug": "vernon"}, "source_identifier": "19979", "external_references": [{"id": 37998, "source": {"name": "Wikidata", "slug": "wikidata"}, "source_identifier": "Q121078878"}], "date_modified": "2025-03-13T01:33:10.300094+11:00"}, {"id": 36783, "name": "Bill Ramsey", "roles_in_work": [{"id": 2338788, "title": "The Cleo Laine collection", "work_id": 94698, "role": "producer", "role_id": 1089, "is_primary": true}], "also_known_as": "", "date_of_birth": "", "date_of_death": "", "genders": [], "languages": [], "places_of_operation": [], "biography": "", "biography_author": null, "date_of_biography": "2023-05-09T19:36:21.354682+10:00", "external_links": [], "uuid": "1480d7c6-9066-4fec-a581-720dd7a0efeb", "source": {"name": "Vernon", "slug": "vernon"}, "source_identifier": "15994", "external_references": [{"id": 42323, "source": {"name": "Wikidata", "slug": "wikidata"}, "source_identifier": "Q121035823"}], "date_modified": "2023-09-05T18:04:24.776069+10:00"}, {"id": 36782, "name": "de Montignie Productions", "roles_in_work": [{"id": 2338786, "title": "The Cleo Laine collection", "work_id": 94698, "role": "production company", "role_id": 941, "is_primary": true}], "also_known_as": "", "date_of_birth": "", "date_of_death": "", "genders": [], "languages": [], "places_of_operation": [], "biography": "", "biography_author": null, "date_of_biography": "2023-05-09T19:36:21.121702+10:00", "external_links": [], "uuid": "7040fb1d-267c-436b-b3f5-510983c0ef2a", "source": {"name": "Vernon", "slug": "vernon"}, "source_identifier": "7365", "external_references": [{"id": 37163, "source": {"name": "Wikidata", "slug": "wikidata"}, "source_identifier": "Q121034976"}], "date_modified": "2023-09-05T19:04:26.214736+10:00"}, {"id": 36781, "name": "Allen H Miner", "roles_in_work": [{"id": 884447, "title": "Mahalia", "work_id": 94694, "role": "director", "role_id": 938, "is_primary": true}], "also_known_as": "", "date_of_birth": null, "date_of_death": null, "genders": [{"id": 9, "name": "Male", "slug": "male"}], "languages": [], "places_of_operation": [], "biography": "Allen Harris Miner (October 18, 1917 – January 4, 2004) was an American director and screenwriter. He served as a photographer during World War II. Miner then directed and wrote for television programs including Perry Mason, Mission: Impossible, The Twilight Zone, Route 66, The Lawless Years, Tales of Wells Fargo, Riverboat and Wagon Train. He died in January 2004 of natural causes in San Marcos, California, at the age of 86.", "biography_author": "Wikidata", "date_of_biography": "2023-08-01T14:00:03.496879+10:00", "external_links": [{"id": 3532, "uri": "https://en.wikipedia.org/wiki/Allen_H._Miner"}], "uuid": "9d41f171-a5cb-4b3b-80b0-09156cce3305", "source": {"name": "Vernon", "slug": "vernon"}, "source_identifier": "15026", "external_references": [{"id": 25699, "source": {"name": "Wikidata", "slug": "wikidata"}, "source_identifier": "Q106270873"}, {"id": 27208, "source": {"name": "VIAF", "slug": "viaf"}, "source_identifier": "169126735"}], "date_modified": "2023-09-13T12:28:09.116532+10:00"}, {"id": 36774, "name": "VCL Communications", "roles_in_work": [{"id": 2088859, "title": "An Evening with Charles Aznavour", "work_id": 94693, "role": "production company", "role_id": 941, "is_primary": true}], "also_known_as": "", "date_of_birth": "", "date_of_death": "", "genders": [], "languages": [], "places_of_operation": [], "biography": "", "biography_author": null, "date_of_biography": "2023-05-09T12:02:16.310956+10:00", "external_links": [], "uuid": "0c87d02c-e7d5-44ef-b1ab-408d48798d76", "source": {"name": "Vernon", "slug": "vernon"}, "source_identifier": "14008", "external_references": [{"id": 42200, "source": {"name": "Wikidata", "slug": "wikidata"}, "source_identifier": "Q121035522"}], "date_modified": "2023-09-06T02:03:22.755950+10:00"}, {"id": 36773, "name": "British and Dominions Films", "roles_in_work": [{"id": 2116415, "title": "Bitter sweet", "work_id": 94692, "role": "production company", "role_id": 941, "is_primary": true}], "also_known_as": "", "date_of_birth": "", "date_of_death": "", "genders": [], "languages": [], "places_of_operation": [], "biography": "", "biography_author": null, "date_of_biography": "2023-05-09T12:54:50.516571+10:00", "external_links": [], "uuid": "697eb5fa-a152-4cae-95d4-beab5da56064", "source": {"name": "Vernon", "slug": "vernon"}, "source_identifier": "6005", "external_references": [{"id": 40778, "source": {"name": "Wikidata", "slug": "wikidata"}, "source_identifier": "Q121126500"}], "date_modified": "2023-09-05T18:11:34.324773+10:00"}, {"id": 36771, "name": "Don St James", "roles_in_work": [{"id": 2073708, "title": "A Salute to Billie Holiday = A Tribute to Billie Holiday", "work_id": 94688, "role": "director", "role_id": 938, "is_primary": true}, {"id": 2073704, "title": "A Salute to Billie Holiday = A Tribute to Billie Holiday", "work_id": 94688, "role": "co-producer", "role_id": 915, "is_primary": true}], "also_known_as": "", "date_of_birth": "", "date_of_death": "", "genders": [], "languages": [], "places_of_operation": [], "biography": "", "biography_author": null, "date_of_biography": "2023-05-09T11:37:24.559294+10:00", "external_links": [], "uuid": "c2ea36c3-0de4-416e-9bac-49648754a2fc", "source": {"name": "Vernon", "slug": "vernon"}, "source_identifier": "18261", "external_references": [], "date_modified": "2023-06-14T16:33:30.576250+10:00"}]}