{"count": 28687, "next": "https://api.acmi.net.au/creators/?page=2211", "previous": "https://api.acmi.net.au/creators/?page=2209", "results": [{"id": 18476, "name": "Ludwik Dutkiewicz", "roles_in_work": [{"id": 859865, "title": "Transfiguration", "work_id": 73984, "role": "director", "role_id": 938, "is_primary": true}], "also_known_as": "", "date_of_birth": "1921-01-01", "date_of_death": "2008-01-01", "genders": [{"id": 9, "name": "Male", "slug": "male"}], "languages": [], "places_of_operation": [{"id": 3, "name": "Australia", "slug": "australia"}], "biography": "Ludwik Dutkiewicz (2 February 1921 – 2008) was a Ukrainian-born Australian artist. He was born in Stara Sil, Ukraine (then a part of Poland) on 2 February 1921. He won the 1953 and 1954 Cornell Prize.", "biography_author": "Wikidata", "date_of_biography": "2023-08-01T15:59:57.589474+10:00", "external_links": [{"id": 4574, "uri": "https://en.wikipedia.org/wiki/Ludwik_Dutkiewicz"}], "uuid": "60e16900-080e-4c03-8eb3-b935909ca43c", "source": {"name": "Vernon", "slug": "vernon"}, "source_identifier": "24093", "external_references": [{"id": 26112, "source": {"name": "Wikidata", "slug": "wikidata"}, "source_identifier": "Q43129814"}, {"id": 30016, "source": {"name": "VIAF", "slug": "viaf"}, "source_identifier": "91744796"}, {"id": 30017, "source": {"name": "WorldCat", "slug": "worldcat"}, "source_identifier": "viaf-91744796"}], "date_modified": "2023-09-13T12:31:05.317984+10:00"}, {"id": 18475, "name": "Arkaba Films", "roles_in_work": [{"id": 2647133, "title": "The Last coastline", "work_id": 75411, "role": "production company", "role_id": 941, "is_primary": true}, {"id": 859864, "title": "Transfiguration", "work_id": 73984, "role": "production company", "role_id": 941, "is_primary": true}], "also_known_as": "", "date_of_birth": null, "date_of_death": null, "genders": [], "languages": [], "places_of_operation": [], "biography": "", "biography_author": null, "date_of_biography": null, "external_links": [], "uuid": "e0787174-9237-4286-9362-12b5934a49c5", "source": {"name": "Vernon", "slug": "vernon"}, "source_identifier": "5376", "external_references": [], "date_modified": "2025-03-05T13:20:15.933915+11:00"}, {"id": 18474, "name": "Mel Dungton", "roles_in_work": [{"id": 2764551, "title": "Training methods: training program", "work_id": 73978, "role": "director", "role_id": 938, "is_primary": true}], "also_known_as": "", "date_of_birth": "", "date_of_death": "", "genders": [], "languages": [], "places_of_operation": [], "biography": "", "biography_author": null, "date_of_biography": "2023-08-11T12:38:33.895289+10:00", "external_links": [], "uuid": "5a07e6ca-b440-425f-aa7c-586c1e44a7a0", "source": {"name": "Vernon", "slug": "vernon"}, "source_identifier": "31894", "external_references": [], "date_modified": "2025-03-14T17:46:48.651413+11:00"}, {"id": 18473, "name": "Enrico Fulchinoni", "roles_in_work": [{"id": 2468274, "title": "The Tragic pursuit of perfection", "work_id": 73967, "role": "director", "role_id": 938, "is_primary": true}], "also_known_as": "", "date_of_birth": "", "date_of_death": "", "genders": [], "languages": [], "places_of_operation": [], "biography": "", "biography_author": null, "date_of_biography": "2023-08-14T11:37:58.696971+10:00", "external_links": [], "uuid": "ccef507b-3b71-4930-9d9f-34c95686e470", "source": {"name": "Vernon", "slug": "vernon"}, "source_identifier": "32020", "external_references": [], "date_modified": "2023-08-14T11:37:58.697333+10:00"}, {"id": 18472, "name": "City of London Police", "roles_in_work": [{"id": 2469266, "title": "Traffic control", "work_id": 73962, "role": "production company", "role_id": 941, "is_primary": true}], "also_known_as": "", "date_of_birth": "", "date_of_death": "", "genders": [], "languages": [], "places_of_operation": [], "biography": "", "biography_author": null, "date_of_biography": "2023-08-14T11:56:49.678022+10:00", "external_links": [], "uuid": "065d3856-74f5-474e-b87f-5cd06de1149d", "source": {"name": "Vernon", "slug": "vernon"}, "source_identifier": "32019", "external_references": [], "date_modified": "2023-08-14T11:56:49.678253+10:00"}, {"id": 18470, "name": "Eric Porter Productions", "roles_in_work": [{"id": 871361, "title": "Portland", "work_id": 86966, "role": "production company", "role_id": 941, "is_primary": true}, {"id": 877438, "title": "Warrnambool", "work_id": 90673, "role": "production company", "role_id": 941, "is_primary": true}, {"id": 3105790, "title": "Geelong", "work_id": 86774, "role": "production company", "role_id": 941, "is_primary": true}, {"id": 756066, "title": "A Trade for tomorrow", "work_id": 73959, "role": "production company", "role_id": 941, "is_primary": true}], "also_known_as": "", "date_of_birth": "", "date_of_death": "", "genders": [], "languages": [], "places_of_operation": [], "biography": "", "biography_author": null, "date_of_biography": "2023-08-11T16:59:19.401242+10:00", "external_links": [], "uuid": "fc4ae5e9-2259-4c1a-a605-3b347c8aac7c", "source": {"name": "Vernon", "slug": "vernon"}, "source_identifier": "7946", "external_references": [], "date_modified": "2025-05-29T22:35:15.154816+10:00"}, {"id": 18469, "name": "Agrifilm", "roles_in_work": [{"id": 2753345, "title": "Horse breaking", "work_id": 98719, "role": "production company", "role_id": 941, "is_primary": true}, {"id": 3110697, "title": "Hello, Mr. Webb!", "work_id": 94920, "role": "production company", "role_id": 941, "is_primary": true}, {"id": 889050, "title": "Hydatids: a cycle to break", "work_id": 98854, "role": "production company", "role_id": 941, "is_primary": true}, {"id": 3110786, "title": "Tractor driving", "work_id": 73957, "role": "production company", "role_id": 941, "is_primary": true}], "also_known_as": "", "date_of_birth": "", "date_of_death": "", "genders": [], "languages": [], "places_of_operation": [], "biography": "", "biography_author": null, "date_of_biography": "2023-05-09T19:03:00.848920+10:00", "external_links": [], "uuid": "44c9514d-b7f7-464b-ba87-cda2f757cd11", "source": {"name": "Vernon", "slug": "vernon"}, "source_identifier": "5068", "external_references": [{"id": 37501, "source": {"name": "Wikidata", "slug": "wikidata"}, "source_identifier": "Q121078838"}], "date_modified": "2026-04-16T15:44:30.826780+10:00"}, {"id": 18467, "name": "British Ministry of Health", "roles_in_work": [{"id": 756056, "title": "Tracing the spread of infection", "work_id": 73955, "role": "production company", "role_id": 941, "is_primary": true}, {"id": 2472158, "title": "Your children and you", "work_id": 75027, "role": "production company", "role_id": 941, "is_primary": true}], "also_known_as": "", "date_of_birth": "", "date_of_death": "", "genders": [], "languages": [], "places_of_operation": [], "biography": "", "biography_author": null, "date_of_biography": "2023-08-14T12:54:40.856734+10:00", "external_links": [], "uuid": "98714793-a3a1-4b38-b63d-17e2fc7c085d", "source": {"name": "Vernon", "slug": "vernon"}, "source_identifier": "6035", "external_references": [], "date_modified": "2023-08-14T12:54:40.856972+10:00"}, {"id": 18464, "name": "J Novotny", "roles_in_work": [{"id": 2469259, "title": "Toyland revolt", "work_id": 73951, "role": "producer", "role_id": 1089, "is_primary": true}], "also_known_as": "", "date_of_birth": "", "date_of_death": "", "genders": [], "languages": [], "places_of_operation": [], "biography": "", "biography_author": null, "date_of_biography": "2023-08-14T11:56:40.212457+10:00", "external_links": [], "uuid": "1efe2942-cb10-4063-912f-6b9e61ed8940", "source": {"name": "Vernon", "slug": "vernon"}, "source_identifier": "20990", "external_references": [], "date_modified": "2023-08-14T11:56:40.212753+10:00"}, {"id": 18463, "name": "Czechoslovakia Film Corporation, Documentary Film Department, Section Zlin", "roles_in_work": [{"id": 2469258, "title": "Toyland revolt", "work_id": 73951, "role": "production company", "role_id": 941, "is_primary": true}], "also_known_as": "", "date_of_birth": "", "date_of_death": "", "genders": [], "languages": [], "places_of_operation": [], "biography": "", "biography_author": null, "date_of_biography": "2023-08-14T11:56:39.572884+10:00", "external_links": [], "uuid": "61d0fd27-37fd-4cbd-817e-dfe690af6d3e", "source": {"name": "Vernon", "slug": "vernon"}, "source_identifier": "7277", "external_references": [], "date_modified": "2023-08-14T11:56:39.573108+10:00"}]}