{"count": 28687, "next": "https://api.acmi.net.au/creators/?page=1051", "previous": "https://api.acmi.net.au/creators/?page=1049", "results": [{"id": 75082, "name": "Richard J. Hughes", "roles_in_work": [{"id": 2463720, "title": "Mozart in motion: the masterworks process", "work_id": 70649, "role": "co-producer", "role_id": 915, "is_primary": true}], "also_known_as": "", "date_of_birth": "", "date_of_death": "", "genders": [], "languages": [], "places_of_operation": [], "biography": "", "biography_author": null, "date_of_biography": "2023-08-14T09:56:37.603751+10:00", "external_links": [], "uuid": "f8d93c12-2ccb-4b45-80ce-801a42ce970c", "source": {"name": "Vernon", "slug": "vernon"}, "source_identifier": "27419", "external_references": [{"id": 36097, "source": {"name": "Wikidata", "slug": "wikidata"}, "source_identifier": "Q121036602"}], "date_modified": "2023-09-06T00:29:47.915921+10:00"}, {"id": 75081, "name": "William De L'Isle, Viscount", "roles_in_work": [{"id": 2391910, "title": "The Mount Hagen Show", "work_id": 70624, "role": "cast", "role_id": 33, "is_primary": false}], "also_known_as": "", "date_of_birth": "1909", "date_of_death": "1991", "genders": [], "languages": [], "places_of_operation": [], "biography": "", "biography_author": null, "date_of_biography": "2023-08-09T03:47:34.617512+10:00", "external_links": [], "uuid": "4b105814-8bcd-40d2-93d1-74e90dc5d02e", "source": {"name": "Vernon", "slug": "vernon"}, "source_identifier": "37898", "external_references": [{"id": 35499, "source": {"name": "Wikidata", "slug": "wikidata"}, "source_identifier": "Q121222982"}], "date_modified": "2023-09-06T02:15:08.064547+10:00"}, {"id": 75080, "name": "Jack Kinney", "roles_in_work": [{"id": 2215628, "title": "El Gaucho Goofy", "work_id": 84793, "role": "director", "role_id": 938, "is_primary": true}, {"id": 855675, "title": "Motor mania (K)", "work_id": 70617, "role": "director", "role_id": 938, "is_primary": true}, {"id": 866421, "title": "Motor mania", "work_id": 81411, "role": "director", "role_id": 938, "is_primary": true}, {"id": 918000, "title": "Ichabod and Mr Toad", "work_id": 95456, "role": "co-director", "role_id": 959, "is_primary": true}, {"id": 917141, "title": "Fun fancy free", "work_id": 95048, "role": "co-director", "role_id": 959, "is_primary": true}], "also_known_as": "", "date_of_birth": "1909-03-29", "date_of_death": "1992-02-09", "genders": [{"id": 9, "name": "Male", "slug": "male"}], "languages": [{"id": 1, "name": "English", "slug": "english"}], "places_of_operation": [{"id": 1, "name": "United States of America", "slug": "united-states-of-america"}], "biography": "John Ryan Kinney (March 29, 1909 – February 9, 1992) was an American animator, director and producer of animated shorts. Kinney is the older brother of fellow Disney animator Dick Kinney.", "biography_author": "Wikidata", "date_of_biography": "2023-08-01T15:17:54.228404+10:00", "external_links": [{"id": 4222, "uri": "https://en.wikipedia.org/wiki/Jack_Kinney"}], "uuid": "9662549b-7ffb-42bd-bec6-264df78d56aa", "source": {"name": "Vernon", "slug": "vernon"}, "source_identifier": "21064", "external_references": [{"id": 26241, "source": {"name": "Wikidata", "slug": "wikidata"}, "source_identifier": "Q3157236"}, {"id": 29084, "source": {"name": "VIAF", "slug": "viaf"}, "source_identifier": "2665856"}, {"id": 29085, "source": {"name": "LOC Auth", "slug": "loc-auth"}, "source_identifier": "n87937561"}, {"id": 29086, "source": {"name": "WorldCat", "slug": "worldcat"}, "source_identifier": "lccn-n87937561"}], "date_modified": "2023-09-05T20:56:03.382948+10:00"}, {"id": 75079, "name": "Gardner Hart", "roles_in_work": [{"id": 2645724, "title": "Motivation and reward in learning", "work_id": 70615, "role": "co-producers/directors", "role_id": 628, "is_primary": true}], "also_known_as": "", "date_of_birth": null, "date_of_death": null, "genders": [], "languages": [], "places_of_operation": [], "biography": "", "biography_author": null, "date_of_biography": null, "external_links": [], "uuid": "3f71ee39-e32c-4fb9-8909-ac962dbffe44", "source": {"name": "Vernon", "slug": "vernon"}, "source_identifier": "19354", "external_references": [], "date_modified": "2025-03-05T12:46:45.112823+11:00"}, {"id": 75078, "name": "Neal E. Miller", "roles_in_work": [{"id": 2114278, "title": "Bicentennial man", "work_id": 90491, "role": "co-producer", "role_id": 915, "is_primary": true}, {"id": 2645723, "title": "Motivation and reward in learning", "work_id": 70615, "role": "co-producers/directors", "role_id": 628, "is_primary": true}], "also_known_as": "", "date_of_birth": "", "date_of_death": "", "genders": [], "languages": [], "places_of_operation": [], "biography": "", "biography_author": null, "date_of_biography": "2023-05-09T12:51:48.528829+10:00", "external_links": [], "uuid": "d90dfa18-3d1e-4922-b929-37ecf47254e5", "source": {"name": "Vernon", "slug": "vernon"}, "source_identifier": "25652", "external_references": [{"id": 39865, "source": {"name": "Wikidata", "slug": "wikidata"}, "source_identifier": "Q121222687"}], "date_modified": "2025-03-05T12:46:44.517259+11:00"}, {"id": 75077, "name": "Jean Cavel", "roles_in_work": [{"id": 895124, "title": "More than fair", "work_id": 70580, "role": "co-director", "role_id": 959, "is_primary": true}], "also_known_as": "", "date_of_birth": null, "date_of_death": null, "genders": [], "languages": [], "places_of_operation": [], "biography": "", "biography_author": null, "date_of_biography": null, "external_links": [], "uuid": "5b655b39-c3eb-4cbc-b9ce-70e115187b23", "source": {"name": "Vernon", "slug": "vernon"}, "source_identifier": null, "external_references": [{"id": 36817, "source": {"name": "Wikidata", "slug": "wikidata"}, "source_identifier": "Q121036631"}], "date_modified": "2023-09-05T21:14:05.189833+10:00"}, {"id": 75076, "name": "Fabrice Moussus", "roles_in_work": [{"id": 895122, "title": "More like a friend", "work_id": 70575, "role": "co-director", "role_id": 959, "is_primary": true}], "also_known_as": "", "date_of_birth": null, "date_of_death": null, "genders": [], "languages": [], "places_of_operation": [], "biography": "", "biography_author": null, "date_of_biography": null, "external_links": [], "uuid": "fb5a9e6d-73fa-47e4-b219-482804de14ed", "source": {"name": "Vernon", "slug": "vernon"}, "source_identifier": null, "external_references": [{"id": 39412, "source": {"name": "Wikidata", "slug": "wikidata"}, "source_identifier": "Q121159985"}], "date_modified": "2023-09-05T19:39:28.828820+10:00"}, {"id": 75075, "name": "Raanan Gissin", "roles_in_work": [{"id": 895120, "title": "More like a friend", "work_id": 70575, "role": "co-producer", "role_id": 915, "is_primary": true}], "also_known_as": "", "date_of_birth": null, "date_of_death": null, "genders": [], "languages": [], "places_of_operation": [], "biography": "", "biography_author": null, "date_of_biography": null, "external_links": [], "uuid": "1ffbbb6c-1bdd-44a0-9dbe-e669d1112c47", "source": {"name": "Vernon", "slug": "vernon"}, "source_identifier": null, "external_references": [{"id": 38604, "source": {"name": "Wikidata", "slug": "wikidata"}, "source_identifier": "Q121299190"}], "date_modified": "2023-09-06T00:17:35.738259+10:00"}, {"id": 75074, "name": "Robert Kagan", "roles_in_work": [{"id": 895119, "title": "More like a friend", "work_id": 70575, "role": "co-producer", "role_id": 915, "is_primary": true}], "also_known_as": "", "date_of_birth": null, "date_of_death": null, "genders": [], "languages": [], "places_of_operation": [], "biography": "", "biography_author": null, "date_of_biography": null, "external_links": [], "uuid": "e34f8886-31ff-494b-b595-d443a3f8e51d", "source": {"name": "Vernon", "slug": "vernon"}, "source_identifier": null, "external_references": [{"id": 40449, "source": {"name": "Wikidata", "slug": "wikidata"}, "source_identifier": "Q121036819"}], "date_modified": "2023-09-06T00:42:46.273545+10:00"}, {"id": 75073, "name": "Anthony Short", "roles_in_work": [{"id": 855611, "title": "More homes for more people", "work_id": 70574, "role": "director", "role_id": 938, "is_primary": true}], "also_known_as": "", "date_of_birth": null, "date_of_death": null, "genders": [], "languages": [], "places_of_operation": [], "biography": "", "biography_author": null, "date_of_biography": null, "external_links": [], "uuid": "5eb36877-72fd-4e35-a1fe-67ff611067ec", "source": {"name": "Vernon", "slug": "vernon"}, "source_identifier": null, "external_references": [{"id": 36790, "source": {"name": "Wikidata", "slug": "wikidata"}, "source_identifier": "Q121035183"}], "date_modified": "2023-09-05T17:42:03.093036+10:00"}]}