{"count": 28687, "next": "https://api.acmi.net.au/creators/?page=2767", "previous": "https://api.acmi.net.au/creators/?page=2765", "results": [{"id": 10506, "name": "Duncan Aitken-Bain", "roles_in_work": [{"id": 3099062, "title": "Auto mania", "work_id": 109447, "role": "creator", "role_id": 968, "is_primary": true}, {"id": 3099046, "title": "Tightrope", "work_id": 109442, "role": "creator", "role_id": 968, "is_primary": true}, {"id": 3099047, "title": "Tightrope", "work_id": 109442, "role": "animator", "role_id": 497, "is_primary": false}, {"id": 3099063, "title": "Auto mania", "work_id": 109447, "role": "animator", "role_id": 497, "is_primary": false}], "also_known_as": "", "date_of_birth": "", "date_of_death": "", "genders": [], "languages": [], "places_of_operation": [], "biography": "", "biography_author": null, "date_of_biography": "2023-05-09T18:30:48.565129+10:00", "external_links": [], "uuid": "822ff577-d8dc-4a2f-ab6d-0bdd91122d6f", "source": {"name": "Vernon", "slug": "vernon"}, "source_identifier": "2067", "external_references": [], "date_modified": "2025-05-21T22:35:14.647998+10:00"}, {"id": 10505, "name": "Sarah Waterson", "roles_in_work": [{"id": 2636106, "title": "subscape_PROOF", "work_id": 109440, "role": "creator", "role_id": 968, "is_primary": true}], "also_known_as": "", "date_of_birth": "1963", "date_of_death": "", "genders": [{"id": 5, "name": "Female", "slug": "female"}], "languages": [], "places_of_operation": [], "biography": "Sarah Waterson and Kate Richards are Sydney-based artists who have exhibited new media nationally and internationally, most recently with sub_scapeBALTIC at ISEA2004.  Before this collaboration, both worked with data in a new media framework.  Since 1991, Waterson's interactive installations have dealt with ideas of 'invisible' technology. Her most recent work, a gesture-controlled video tool (developed during a Waikato Artist Residency Program, New Zealand), explored cultural gestures and mapping. Richards has written and directed the CD-ROM Elementia, a set of 11 maps created by fictional cartographers. She was multimedia producer on the large-scale virtual mapping project TimeMap, distributed for the Museum of Sydney in collaboration with the Archaeological Computing Lab, University of Sydney. Life After Wartime (a collaboration with Ross Gibson) is a suite of new media that rework archival forensic images, texts and sounds using different codes.\n\nTaken from PROOF exhibition 2004.", "biography_author": null, "date_of_biography": "2025-03-05T10:32:43.122843+11:00", "external_links": [], "uuid": "2ca60105-bcb6-4fd2-bac3-1e1f7f909ecc", "source": {"name": "Vernon", "slug": "vernon"}, "source_identifier": "2064", "external_references": [], "date_modified": "2025-03-05T10:32:43.123278+11:00"}, {"id": 10504, "name": "Steve Kurtz", "roles_in_work": [{"id": 2636102, "title": "Evidence", "work_id": 109438, "role": "creator", "role_id": 968, "is_primary": true}], "also_known_as": "", "date_of_birth": null, "date_of_death": null, "genders": [{"id": 9, "name": "Male", "slug": "male"}], "languages": [], "places_of_operation": [], "biography": "Dr. Steven Kurtz, Associate Professor of Art at the University of Buffalo", "biography_author": null, "date_of_biography": "2025-03-05T10:32:39.365483+11:00", "external_links": [], "uuid": "5c90ae85-4ffd-41c5-8bfe-8ffc2fefb847", "source": {"name": "Vernon", "slug": "vernon"}, "source_identifier": "2082", "external_references": [], "date_modified": "2025-03-05T10:32:39.365822+11:00"}, {"id": 10503, "name": "Claire Pentecost", "roles_in_work": [{"id": 2636101, "title": "Evidence", "work_id": 109438, "role": "creator", "role_id": 968, "is_primary": true}], "also_known_as": "", "date_of_birth": null, "date_of_death": null, "genders": [], "languages": [], "places_of_operation": [], "biography": "Claire Pentecost is Associate Professor in Photography at The School of the Art Institute of Chicago", "biography_author": null, "date_of_biography": "2025-03-05T10:32:38.773720+11:00", "external_links": [], "uuid": "e1f78cb4-89b3-4c5e-b2ff-a5831bb56648", "source": {"name": "Vernon", "slug": "vernon"}, "source_identifier": "2087", "external_references": [], "date_modified": "2025-03-05T10:32:38.773991+11:00"}, {"id": 10502, "name": "Critical Art Ensemble", "roles_in_work": [{"id": 2636100, "title": "Evidence", "work_id": 109438, "role": "creator", "role_id": 968, "is_primary": true}], "also_known_as": "", "date_of_birth": "1987", "date_of_death": null, "genders": [], "languages": [], "places_of_operation": [], "biography": "Critical Art Ensemble (CAE) is a collective of tactical media practitioners of various specialisations, including computer graphics and web design, film and video, photography, text art, book art and performance.  Formed in 1987, CAE's focus has been on the exploration of the intersections between art, critical theory, technology and political activism.  The collective has performed and produced a wide variety of projects for an international audience at diverse venues, ranging from the street to the museum to the internet.  CAE have also written five books: The Electronic Disturbance (1994) and its companion text Electronic Civil Disobediance and Other Unpopular Ideas (1996); Flesh Machine: Cyborgs, Designer Babies (1998), New Eugenic Consciousness (1998) and its companion text The Molecular Invasion (2002) and Digital Renaissance: Explorations in Tactical Media (2001).\n\nTaken from the PROOF Exhibition 2004.", "biography_author": null, "date_of_biography": "2025-03-05T10:32:38.188233+11:00", "external_links": [], "uuid": "665f3515-6d3d-42fb-bf78-965a42403f1e", "source": {"name": "Vernon", "slug": "vernon"}, "source_identifier": "2062", "external_references": [], "date_modified": "2025-03-05T10:32:38.188523+11:00"}, {"id": 10500, "name": "Niz Jabour", "roles_in_work": [{"id": 2636098, "title": "Greetings From Iraq", "work_id": 109437, "role": "creator", "role_id": 968, "is_primary": true}], "also_known_as": "", "date_of_birth": "1962", "date_of_death": "", "genders": [{"id": 9, "name": "Male", "slug": "male"}], "languages": [], "places_of_operation": [], "biography": "I was born in 1962 in a village on the Eurphrates River near Najaf in Iraq. In 1985, I graduated with a degree in applied theatre studies from the Institute of Fine Arts in Baghdad, Iraq (5 years full time study).  Shortly after completing my studies I went into exile in northern Iraq: I was waiting for political change to go back home. As soon as I crossed the border from Iraq to Iran, I was arrested, imprisoned and transferred to a detention centre (a refugee camp). I remained there for seven weeks before I was transferred to another detention centre in Tehran. I was there for 11 months before I escaped.\n\nIn the detention centre there was the constant threat of being deported back to Iraq. I got a false passport and was traveling to Syria when I was arrested again for having false papers. I was imprisoned in the north of Tehran for 4 months and 24-25 days then transferred again to the detention centre.\n\nI escaped again to the Pakistan-Iran border; I introduced myself to UNHCR (United Nations High Commission for Refugees) and I revealed my self as an Iraqi refugee. I spent - or wasted - seven years of my life waiting for an answer from the UNHCR regarding my application for resettlement.\nI was finally accepted as a refugee by Australia.\n1997, March 24. I arrived in Perth, Western Australia. In 2001, I became an Australian citizen. In 2003, I finished my Master of Creative Arts at Newcastle University, Australia.\n\nIn 2004, I want back to see my homeland for the first time after 17 to 18 years in exile and I recently returned to Australia.\n\n\nI was born in 1962 in a village on the Eurphrates River near Najaf in Iraq. In 1985, I graduated with a degree in applied theatre studies from the Institute of Fine Arts in Baghdad, Iraq (5 years full time study).  Shortly after completing my studies I went into exile in northern Iraq: I was waiting for political change to go back home. As soon as I crossed the border from Iraq to Iran, I was arrested, imprisoned and transferred to a detention centre (a refugee camp). I remained there for seven weeks before I was transferred to another detention centre in Tehran. I was there for 11 months before I escaped.\n\nIn the detention centre there was the constant threat of being deported back to Iraq. I got a false passport and was traveling to Syria when I was arrested again for having false papers. I was imprisoned in the north of Tehran for 4 months and 24-25 days then transferred again to the detention centre.\n\nI escaped again to the Pakistan-Iran border; I introduced myself to UNHCR (United Nations High Commission for Refugees) and I revealed my self as an Iraqi refugee. I spent - or wasted - seven years of my life waiting for an answer from the UNHCR regarding my application for resettlement.\nI was finally accepted as a refugee by Australia.\n1997, March 24. I arrived in Perth, Western Australia. In 2001, I became an Australian citizen. In 2003, I finished my Master of Creative Arts at Newcastle University, Australia.\n\nIn 2004, I want back to see my homeland for the first time after 17 to 18 years in exile and I recently returned to Australia.\nI was born in 1962 in a village on the Eurphrates River near Najaf in Iraq. In 1985, I graduated with a degree in applied theatre studies from the Institute of Fine Arts in Baghdad, Iraq (5 years full time study).  Shortly after completing my studies I went into exile in northern Iraq: I was waiting for political change to go back home. As soon as I crossed the border from Iraq to Iran, I was arrested, imprisoned and transferred to a detention centre (a refugee camp). I remained there for seven weeks before I was transferred to another detention centre in Tehran. I was there for 11 months before I escaped.\n\nIn the detention centre there was the constant threat of being deported back to Iraq. I got a false passport and was traveling to Syria when I was arrested again for having false papers. I was imprisoned in the north of Tehran for 4 months and 24-25 days then transferred again to the detention centre.\n\nI escaped again to the Pakistan-Iran border; I introduced myself to UNHCR (United Nations High Commission for Refugees) and I revealed my self as an Iraqi refugee. I spent - or wasted - seven years of my life waiting for an answer from the UNHCR regarding my application for resettlement.\nI was finally accepted as a refugee by Australia.\n1997, March 24. I arrived in Perth, Western Australia. In 2001, I became an Australian citizen. In 2003, I finished my Master of Creative Arts at Newcastle University, Australia.\n\nIn 2004, I want back to see my homeland for the first time after 17 to 18 years in exile and I recently returned to Australia.\n\nI was born in 1962 in a village on the Eurphrates River near Najaf in Iraq. In 1985, I graduated with a degree in applied theatre studies from the Institute of Fine Arts in Baghdad, Iraq (5 years full time study).  Shortly after completing my studies I went into exile in northern Iraq: I was waiting for political change to go back home. As soon as I crossed the border from Iraq to Iran, I was arrested, imprisoned and transferred to a detention centre (a refugee camp). I remained there for seven weeks before I was transferred to another detention centre in Tehran. I was there for 11 months before I escaped.\n\nIn the detention centre there was the constant threat of being deported back to Iraq. I got a false passport and was traveling to Syria when I was arrested again for having false papers. I was imprisoned in the north of Tehran for 4 months and 24-25 days then transferred again to the detention centre.\n\nI escaped again to the Pakistan-Iran border; I introduced myself to UNHCR (United Nations High Commission for Refugees) and I revealed my self as an Iraqi refugee. I spent - or wasted - seven years of my life waiting for an answer from the UNHCR regarding my application for resettlement.\nI was finally accepted as a refugee by Australia.\n1997, March 24. I arrived in Perth, Western Australia. In 2001, I became an Australian citizen. In 2003, I finished my Master of Creative Arts at Newcastle University, Australia.\n\nIn 2004, I want back to see my homeland for the first time after 17 to 18 years in exile and I recently returned to Australia.", "biography_author": null, "date_of_biography": "2025-03-05T10:32:36.708697+11:00", "external_links": [], "uuid": "69119fd5-7171-4311-8309-6b5aea5a4f90", "source": {"name": "Vernon", "slug": "vernon"}, "source_identifier": "2060", "external_references": [], "date_modified": "2025-03-05T10:32:36.709035+11:00"}, {"id": 10498, "name": "ACMI Open House", "roles_in_work": [{"id": 2637350, "title": "Victoria's Favourite Things. Segment 11", "work_id": 109432, "role": "producer", "role_id": 1089, "is_primary": true}, {"id": 2637332, "title": "Victoria's Favourite Things. Segment 2", "work_id": 109421, "role": "producer", "role_id": 1089, "is_primary": true}, {"id": 2637334, "title": "Victoria's Favourite Things. Segment 3", "work_id": 109423, "role": "producer", "role_id": 1089, "is_primary": true}, {"id": 2637336, "title": "Victoria's Favourite Things. Segment 4", "work_id": 109424, "role": "producer", "role_id": 1089, "is_primary": true}, {"id": 2637338, "title": "Victoria's Favourite Things. Segment 5", "work_id": 109425, "role": "producer", "role_id": 1089, "is_primary": true}, {"id": 2637340, "title": "Victoria's Favourite Things. Segment 6", "work_id": 109426, "role": "producer", "role_id": 1089, "is_primary": true}, {"id": 2637342, "title": "Victoria's Favourite Things. Segment 7", "work_id": 109427, "role": "producer", "role_id": 1089, "is_primary": true}, {"id": 2637344, "title": "Victoria's Favourite Things. Segment 8", "work_id": 109428, "role": "producer", "role_id": 1089, "is_primary": true}, {"id": 2637346, "title": "Victoria's Favourite Things. Segment 9", "work_id": 109429, "role": "producer", "role_id": 1089, "is_primary": true}, {"id": 2637348, "title": "Victoria's Favourite Things. Segment 10", "work_id": 109430, "role": "producer", "role_id": 1089, "is_primary": true}, {"id": 2637352, "title": "Victoria's favourite things", "work_id": 109422, "role": "producer", "role_id": 1089, "is_primary": true}, {"id": 2637329, "title": "Victoria's Favourite Things. Segment 1", "work_id": 109578, "role": "producer", "role_id": 1089, "is_primary": true}, {"id": 2637351, "title": "Victoria's Favourite Things. Segment 11", "work_id": 109432, "role": "program developer", "role_id": 618, "is_primary": false}, {"id": 2637331, "title": "Victoria's Favourite Things. Segment 1", "work_id": 109578, "role": "program developer", "role_id": 618, "is_primary": false}, {"id": 2637349, "title": "Victoria's Favourite Things. Segment 10", "work_id": 109430, "role": "program developer", "role_id": 618, "is_primary": false}, {"id": 2637347, "title": "Victoria's Favourite Things. Segment 9", "work_id": 109429, "role": "program developer", "role_id": 618, "is_primary": false}, {"id": 2637345, "title": "Victoria's Favourite Things. Segment 8", "work_id": 109428, "role": "program developer", "role_id": 618, "is_primary": false}, {"id": 2637333, "title": "Victoria's Favourite Things. Segment 2", "work_id": 109421, "role": "program developer", "role_id": 618, "is_primary": false}, {"id": 2637341, "title": "Victoria's Favourite Things. Segment 6", "work_id": 109426, "role": "program developer", "role_id": 618, "is_primary": false}, {"id": 2637339, "title": "Victoria's Favourite Things. Segment 5", "work_id": 109425, "role": "program developer", "role_id": 618, "is_primary": false}, {"id": 2637337, "title": "Victoria's Favourite Things. Segment 4", "work_id": 109424, "role": "program developer", "role_id": 618, "is_primary": false}, {"id": 2637335, "title": "Victoria's Favourite Things. Segment 3", "work_id": 109423, "role": "program developer", "role_id": 618, "is_primary": false}, {"id": 2637343, "title": "Victoria's Favourite Things. Segment 7", "work_id": 109427, "role": "program developer", "role_id": 618, "is_primary": false}, {"id": 2637330, "title": "Victoria's favourite things", "work_id": 109422, "role": "program developer", "role_id": 618, "is_primary": false}], "also_known_as": "", "date_of_birth": "", "date_of_death": "", "genders": [], "languages": [], "places_of_operation": [], "biography": "", "biography_author": null, "date_of_biography": "2023-08-14T12:31:56.706098+10:00", "external_links": [], "uuid": "c9b2843c-6927-4bf1-9158-10b291766026", "source": {"name": "Vernon", "slug": "vernon"}, "source_identifier": "2226", "external_references": [], "date_modified": "2025-03-05T10:45:46.758296+11:00"}, {"id": 10497, "name": "Institute for Applied Autonomy (IAA)", "roles_in_work": [{"id": 2635953, "title": "iSee", "work_id": 109419, "role": "creator", "role_id": 968, "is_primary": true}], "also_known_as": "", "date_of_birth": "1998", "date_of_death": "", "genders": [], "languages": [], "places_of_operation": [], "biography": "\nThe Institute for Applied Autonomy (IAA) was founded in 1998 as an anonymous collective of engineers, designers, artists and activists united by the cause of individual and collective self-determination.  The group's stated mission is to develop technologies that extend the autonomy of human activists in the performance of real-world, public acts of expression.  The diminishing accessibility of public spaces for free expression and the increased omnipresence of electronic surveillance has been a key motivation for IAA research.\nThe IAA has exhibited at such diverse venues as the ZKM, Karlsruhe; the OK Centrum for Gegenwartskkunst, Linz; and the IEEE International Conference of Robotics and Automation.  Its most recent project TXTmob was widely used as an organisational tool by activists at the 2004 Republican National Convention in New York.\n\nTaken from the PROOF exhibition 2004 (SW)", "biography_author": null, "date_of_biography": "2025-03-05T10:30:39.961397+11:00", "external_links": [], "uuid": "cefe0cd3-d55b-4073-83d0-49d356c4bf2c", "source": {"name": "Vernon", "slug": "vernon"}, "source_identifier": "2420", "external_references": [], "date_modified": "2025-03-05T10:30:39.961636+11:00"}, {"id": 10494, "name": "Josef von Sternberg", "roles_in_work": [{"id": 2647339, "title": "The Blue angel (TEFC)", "work_id": 76051, "role": "director", "role_id": 938, "is_primary": true}, {"id": 2614311, "title": "Crime and punishment", "work_id": 83473, "role": "director", "role_id": 938, "is_primary": true}], "also_known_as": "", "date_of_birth": "1894-05-29", "date_of_death": "1969-12-22", "genders": [{"id": 9, "name": "Male", "slug": "male"}], "languages": [{"id": 1, "name": "English", "slug": "english"}, {"id": 5, "name": "German", "slug": "german"}], "places_of_operation": [{"id": 1, "name": "United States of America", "slug": "united-states-of-america"}], "biography": "Josef von Sternberg (German: [ˈjoːzɛf fɔn ˈʃtɛʁnbɛʁk]; born Jonas Sternberg; May 29, 1894 – December 22, 1969) was an Austrian-American filmmaker whose career successfully spanned the transition from the silent to the sound era, during which he worked with most of the major Hollywood studios. He is best known for his film collaboration with actress Marlene Dietrich in the 1930s, including the highly regarded Paramount/UFA production, The Blue Angel (1930).Sternberg's finest works are noteworthy for their striking pictorial compositions, dense décor, chiaroscuro illumination, and relentless camera motion, endowing the scenes with emotional intensity. He is also credited with having initiated the gangster film genre with his silent era movie Underworld (1927). Sternberg's themes typically offer the spectacle of an individual's desperate struggle to maintain their personal integrity as they sacrifice themselves for lust or love.He was nominated for the Academy Award for Best Director for Morocco (1930) and Shanghai Express (1932).", "biography_author": "Wikidata", "date_of_biography": "2022-05-19T12:05:35.993129+10:00", "external_links": [{"id": 2467, "uri": "https://en.wikipedia.org/wiki/Josef_von_Sternberg"}], "uuid": "2562d54e-37b3-43b5-98c1-14f0bfb5b7a8", "source": {"name": "Vernon", "slug": "vernon"}, "source_identifier": "393", "external_references": [{"id": 10545, "source": {"name": "Wikidata", "slug": "wikidata"}, "source_identifier": "Q78719"}, {"id": 10546, "source": {"name": "VIAF", "slug": "viaf"}, "source_identifier": "71422909"}, {"id": 10547, "source": {"name": "LOC Auth", "slug": "loc-auth"}, "source_identifier": "n79117186"}, {"id": 10548, "source": {"name": "WorldCat", "slug": "worldcat"}, "source_identifier": "lccn-n79117186"}], "date_modified": "2025-03-05T13:22:36.613329+11:00"}, {"id": 10491, "name": "Joseph Losey", "roles_in_work": [{"id": 1984923, "title": "Don Giovanni", "work_id": 80904, "role": "director", "role_id": 938, "is_primary": true}, {"id": 2079165, "title": "Accident", "work_id": 80730, "role": "director", "role_id": 938, "is_primary": true}, {"id": 2351183, "title": "The Go-between", "work_id": 80728, "role": "director", "role_id": 938, "is_primary": true}, {"id": 1987817, "title": "Figures in a landscape", "work_id": 84005, "role": "director", "role_id": 938, "is_primary": true}, {"id": 2749537, "title": "Breaking out of The Doll's House", "work_id": 96855, "role": "director", "role_id": 938, "is_primary": true}, {"id": 3086727, "title": "Bertolt Brecht's Galileo = Galileo", "work_id": 95131, "role": "director", "role_id": 938, "is_primary": true}, {"id": 1984735, "title": "The Servant", "work_id": 80729, "role": "director", "role_id": 938, "is_primary": true}, {"id": 2079159, "title": "Accident", "work_id": 80730, "role": "co-producer", "role_id": 915, "is_primary": true}, {"id": 1984733, "title": "The Servant", "work_id": 80729, "role": "co-producer", "role_id": 915, "is_primary": true}, {"id": 2679674, "title": "A Child went forth", "work_id": 66019, "role": "co-producer", "role_id": 915, "is_primary": true}, {"id": 1984781, "title": "A Doll's House", "work_id": 80798, "role": "producer/director", "role_id": 31, "is_primary": true}, {"id": 2649941, "title": "King and country", "work_id": 82457, "role": "producer/director", "role_id": 31, "is_primary": true}], "also_known_as": "Joseph Walton Losey", "date_of_birth": "1909-01-14", "date_of_death": "1984-06-22", "genders": [{"id": 9, "name": "Male", "slug": "male"}], "languages": [{"id": 1, "name": "English", "slug": "english"}], "places_of_operation": [{"id": 1, "name": "United States of America", "slug": "united-states-of-america"}], "biography": "Joseph Walton Losey III (; January 14, 1909 – June 22, 1984) was an American theatre and film director, producer, and screenwriter. Born in Wisconsin, he studied in Germany with Bertolt Brecht and then returned to the United States. Blacklisted by Hollywood in the 1950s, he moved to Europe where he made the remainder of his films, mostly in the United Kingdom. Among the most critically and commercially successful were the films with screenplays by Harold Pinter: The Servant (1963) and The Go-Between (1971).\nLosey's 1976 film Monsieur Klein won the César Awards for Best Film and Best Director. He was a four-time nominee for both the Palme d'Or (winning once) and the Golden Lion, and a two-time BAFTA nominee.", "biography_author": "Wikidata", "date_of_biography": "2022-05-19T12:06:08.513522+10:00", "external_links": [{"id": 2473, "uri": "https://en.wikipedia.org/wiki/Joseph_Losey"}], "uuid": "05ddb3cf-1cd9-4e31-a1fd-cba7ab03feff", "source": {"name": "Vernon", "slug": "vernon"}, "source_identifier": "286", "external_references": [{"id": 10569, "source": {"name": "Wikidata", "slug": "wikidata"}, "source_identifier": "Q269357"}, {"id": 10570, "source": {"name": "VIAF", "slug": "viaf"}, "source_identifier": "44301933"}, {"id": 10571, "source": {"name": "LOC Auth", "slug": "loc-auth"}, "source_identifier": "n79021807"}, {"id": 10572, "source": {"name": "WorldCat", "slug": "worldcat"}, "source_identifier": "lccn-n79021807"}], "date_modified": "2025-03-17T10:45:42.639503+11:00"}]}