{"count": 28684, "next": "https://api.acmi.net.au/creators/?page=363", "previous": "https://api.acmi.net.au/creators/?page=361", "results": [{"id": 81984, "name": "Michael Clevenger", "roles_in_work": [{"id": 2660806, "title": "We Don't Own a Dog", "work_id": 114377, "role": "director of photography", "role_id": 925, "is_primary": false}], "also_known_as": "", "date_of_birth": null, "date_of_death": null, "genders": [], "languages": [], "places_of_operation": [], "biography": "", "biography_author": null, "date_of_biography": null, "external_links": [], "uuid": "7200ff2b-d1ed-4e8e-bb56-b6fda1b18bc5", "source": {"name": "Vernon", "slug": "vernon"}, "source_identifier": "37271", "external_references": [], "date_modified": "2025-03-05T19:59:29.747563+11:00"}, {"id": 81983, "name": "David Dorfman", "roles_in_work": [{"id": 2660804, "title": "We Don't Own a Dog", "work_id": 114377, "role": "director", "role_id": 938, "is_primary": true}, {"id": 2660805, "title": "We Don't Own a Dog", "work_id": 114377, "role": "choreographer", "role_id": 951, "is_primary": false}], "also_known_as": "", "date_of_birth": null, "date_of_death": null, "genders": [], "languages": [], "places_of_operation": [], "biography": "", "biography_author": null, "date_of_biography": null, "external_links": [], "uuid": "a94a250a-1488-410c-bb74-00bcd3f6b896", "source": {"name": "Vernon", "slug": "vernon"}, "source_identifier": "37270", "external_references": [{"id": 39268, "source": {"name": "Wikidata", "slug": "wikidata"}, "source_identifier": "Q5233031"}], "date_modified": "2025-03-05T19:59:29.167597+11:00"}, {"id": 81982, "name": "Susan Wiliams", "roles_in_work": [{"id": 2660803, "title": "We Don't Own a Dog", "work_id": 114377, "role": "producer", "role_id": 1089, "is_primary": true}], "also_known_as": "", "date_of_birth": null, "date_of_death": null, "genders": [], "languages": [], "places_of_operation": [], "biography": "", "biography_author": null, "date_of_biography": null, "external_links": [], "uuid": "e7f1ee3d-baf0-4111-ba47-0b2b0e67ee24", "source": {"name": "Vernon", "slug": "vernon"}, "source_identifier": "37269", "external_references": [{"id": 36628, "source": {"name": "Wikidata", "slug": "wikidata"}, "source_identifier": "Q121126621"}], "date_modified": "2025-03-05T19:59:27.991770+11:00"}, {"id": 81981, "name": "Kate Prince", "roles_in_work": [{"id": 2354449, "title": "The Holloway Laundrette", "work_id": 114376, "role": "director", "role_id": 938, "is_primary": true}, {"id": 2354453, "title": "The Holloway Laundrette", "work_id": 114376, "role": "choreographer", "role_id": 951, "is_primary": false}], "also_known_as": "", "date_of_birth": "", "date_of_death": "", "genders": [], "languages": [], "places_of_operation": [], "biography": "", "biography_author": null, "date_of_biography": "2023-05-09T20:01:40.632313+10:00", "external_links": [], "uuid": "c55f9776-43ee-455f-b98b-6b04ba16e260", "source": {"name": "Vernon", "slug": "vernon"}, "source_identifier": "37257", "external_references": [{"id": 33034, "source": {"name": "Wikidata", "slug": "wikidata"}, "source_identifier": "Q121315271"}], "date_modified": "2023-09-05T22:01:40.907154+10:00"}, {"id": 81980, "name": "Felix Harrison", "roles_in_work": [{"id": 2354445, "title": "The Holloway Laundrette", "work_id": 114376, "role": "director", "role_id": 938, "is_primary": true}], "also_known_as": "", "date_of_birth": "", "date_of_death": "", "genders": [], "languages": [], "places_of_operation": [], "biography": "", "biography_author": null, "date_of_biography": "2023-05-09T20:01:40.148761+10:00", "external_links": [], "uuid": "22c0141c-6349-404f-8108-9629d6fb6641", "source": {"name": "Vernon", "slug": "vernon"}, "source_identifier": "37256", "external_references": [{"id": 35321, "source": {"name": "Wikidata", "slug": "wikidata"}, "source_identifier": "Q121222771"}], "date_modified": "2023-09-05T19:41:16.647286+10:00"}, {"id": 81979, "name": "Tom Booth", "roles_in_work": [{"id": 2354443, "title": "The Holloway Laundrette", "work_id": 114376, "role": "producer", "role_id": 1089, "is_primary": true}], "also_known_as": "", "date_of_birth": "", "date_of_death": "", "genders": [], "languages": [], "places_of_operation": [], "biography": "", "biography_author": null, "date_of_biography": "2023-05-09T20:01:39.909919+10:00", "external_links": [], "uuid": "fa1a8019-222d-4c4f-97fb-cbe09726eaf6", "source": {"name": "Vernon", "slug": "vernon"}, "source_identifier": "37255", "external_references": [{"id": 50749, "source": {"name": "Wikidata", "slug": "wikidata"}, "source_identifier": "Q121357968"}], "date_modified": "2023-09-06T01:52:31.126802+10:00"}, {"id": 81978, "name": "Contented Productions", "roles_in_work": [{"id": 2354437, "title": "The Holloway Laundrette", "work_id": 114376, "role": "production company", "role_id": 941, "is_primary": true}], "also_known_as": "", "date_of_birth": "", "date_of_death": "", "genders": [], "languages": [], "places_of_operation": [], "biography": "", "biography_author": null, "date_of_biography": "2023-05-09T20:01:39.662845+10:00", "external_links": [], "uuid": "4b90f8eb-e03f-4d76-9c10-2baa59e2fe51", "source": {"name": "Vernon", "slug": "vernon"}, "source_identifier": "37254", "external_references": [{"id": 33756, "source": {"name": "Wikidata", "slug": "wikidata"}, "source_identifier": "Q121271255"}], "date_modified": "2023-09-05T18:45:15.446050+10:00"}, {"id": 81977, "name": "Zoo Nation", "roles_in_work": [{"id": 2354434, "title": "The Holloway Laundrette", "work_id": 114376, "role": "production company", "role_id": 941, "is_primary": true}], "also_known_as": "", "date_of_birth": "", "date_of_death": "", "genders": [], "languages": [], "places_of_operation": [], "biography": "", "biography_author": null, "date_of_biography": "2023-05-09T20:01:39.286555+10:00", "external_links": [], "uuid": "436f9dc4-a7c6-4feb-8976-8ffa9ad95a1a", "source": {"name": "Vernon", "slug": "vernon"}, "source_identifier": "37253", "external_references": [{"id": 34601, "source": {"name": "Wikidata", "slug": "wikidata"}, "source_identifier": "Q121035420"}], "date_modified": "2023-09-06T02:27:25.434373+10:00"}, {"id": 81976, "name": "Joao Grande", "roles_in_work": [{"id": 2660626, "title": "Vida Longa = Long Life", "work_id": 114375, "role": "performer", "role_id": 576, "is_primary": false}], "also_known_as": "", "date_of_birth": "", "date_of_death": "", "genders": [], "languages": [], "places_of_operation": [], "biography": "", "biography_author": null, "date_of_biography": "2023-05-09T17:44:48.586641+10:00", "external_links": [], "uuid": "e38c7fac-ea05-44f0-8b8d-b8bb17fa4238", "source": {"name": "Vernon", "slug": "vernon"}, "source_identifier": "37261", "external_references": [], "date_modified": "2025-03-05T19:57:29.810750+11:00"}, {"id": 81975, "name": "Ponciano Almeida", "roles_in_work": [{"id": 2660625, "title": "Vida Longa = Long Life", "work_id": 114375, "role": "performer", "role_id": 576, "is_primary": false}], "also_known_as": "", "date_of_birth": "", "date_of_death": "", "genders": [], "languages": [], "places_of_operation": [], "biography": "", "biography_author": null, "date_of_biography": "2023-05-09T17:44:48.352638+10:00", "external_links": [], "uuid": "27fb13a1-f36b-4239-a4ea-e498d7d9e709", "source": {"name": "Vernon", "slug": "vernon"}, "source_identifier": "37260", "external_references": [], "date_modified": "2025-03-05T19:57:29.232863+11:00"}]}