{"count": 28681, "next": "https://api.acmi.net.au/creators/?page=2193", "previous": "https://api.acmi.net.au/creators/?page=2191", "results": [{"id": 18807, "name": "Motif Film Productions", "roles_in_work": [{"id": 2471897, "title": "Wildlife in the dry", "work_id": 74767, "role": "production company", "role_id": 941, "is_primary": true}], "also_known_as": "", "date_of_birth": "", "date_of_death": "", "genders": [], "languages": [], "places_of_operation": [], "biography": "", "biography_author": null, "date_of_biography": "2023-08-14T12:48:59.567955+10:00", "external_links": [], "uuid": "771d9fe9-9f72-41b4-9377-2e9f17e2b231", "source": {"name": "Vernon", "slug": "vernon"}, "source_identifier": "10656", "external_references": [], "date_modified": "2023-08-14T12:48:59.568266+10:00"}, {"id": 18806, "name": "Dione Gilmour", "roles_in_work": [{"id": 2769926, "title": "River red gum", "work_id": 75272, "role": "co-producer", "role_id": 915, "is_primary": true}, {"id": 916759, "title": "Nature of Australia: a portrait of the Island Continent", "work_id": 94931, "role": "co-producer", "role_id": 915, "is_primary": true}, {"id": 2769914, "title": "Creek and billabong", "work_id": 75271, "role": "co-producer", "role_id": 915, "is_primary": true}, {"id": 2044389, "title": "Killers in Eden", "work_id": 116756, "role": "executive producer", "role_id": 916, "is_primary": false}, {"id": 2788055, "title": "The Koala quandry", "work_id": 82334, "role": "producer", "role_id": 1089, "is_primary": true}, {"id": 2750584, "title": "Gippsland: the high country", "work_id": 97404, "role": "producer", "role_id": 1089, "is_primary": true}, {"id": 2750586, "title": "Gippsland: Through the forest", "work_id": 97405, "role": "producer", "role_id": 1089, "is_primary": true}, {"id": 2750588, "title": "Gippsland: Down river", "work_id": 97406, "role": "producer", "role_id": 1089, "is_primary": true}, {"id": 2750591, "title": "Gippsland: open to the sea", "work_id": 97407, "role": "producer", "role_id": 1089, "is_primary": true}, {"id": 2751633, "title": "Ribbon of life: one man's reef", "work_id": 97904, "role": "producer", "role_id": 1089, "is_primary": true}, {"id": 1813674, "title": "Wildfire", "work_id": 74765, "role": "producer", "role_id": 1089, "is_primary": true}, {"id": 1820576, "title": "Through the Forest", "work_id": 75507, "role": "producer", "role_id": 1089, "is_primary": true}, {"id": 1819461, "title": "Who'll pay the buffalo bill?", "work_id": 76939, "role": "producer", "role_id": 1089, "is_primary": true}, {"id": 1811607, "title": "Nature of Australia. Parts 4-6 (Captioned)", "work_id": 81705, "role": "producer", "role_id": 1089, "is_primary": true}, {"id": 1809801, "title": "The Dragons of the Galapagos", "work_id": 86833, "role": "producer", "role_id": 1089, "is_primary": true}, {"id": 2265814, "title": "Secret world: around the bay", "work_id": 75275, "role": "producer", "role_id": 1089, "is_primary": true}, {"id": 1808095, "title": "The Man who loves frogs: Mike Tyler", "work_id": 82657, "role": "producer", "role_id": 1089, "is_primary": true}, {"id": 1811604, "title": "Nature of Australia. Parts 1-3 (Captioned)", "work_id": 81704, "role": "producer", "role_id": 1089, "is_primary": true}, {"id": 1807444, "title": "Nature of Australia. Parts 1-3", "work_id": 79309, "role": "producer", "role_id": 1089, "is_primary": true}, {"id": 1807441, "title": "Nature of Australia. Parts 4-6", "work_id": 79308, "role": "producer", "role_id": 1089, "is_primary": true}], "also_known_as": "", "date_of_birth": "", "date_of_death": "", "genders": [], "languages": [], "places_of_operation": [], "biography": "", "biography_author": null, "date_of_biography": "2023-05-09T20:07:06.121153+10:00", "external_links": [], "uuid": "25d1cd84-9d4e-49d3-993f-781fe009fec3", "source": {"name": "Vernon", "slug": "vernon"}, "source_identifier": "18154", "external_references": [], "date_modified": "2025-03-14T19:42:33.782184+11:00"}, {"id": 18805, "name": "Victoria. Forests Commission", "roles_in_work": [{"id": 860844, "title": "Wildfire", "work_id": 74765, "role": "production company", "role_id": 941, "is_primary": true}, {"id": 2750497, "title": "Forest by day", "work_id": 97362, "role": "production company", "role_id": 941, "is_primary": true}], "also_known_as": "", "date_of_birth": null, "date_of_death": null, "genders": [], "languages": [], "places_of_operation": [], "biography": "", "biography_author": null, "date_of_biography": null, "external_links": [], "uuid": "6a35fe1c-aff3-4035-a167-ec4aa7dfa8ee", "source": {"name": "Vernon", "slug": "vernon"}, "source_identifier": "8438", "external_references": [], "date_modified": "2025-03-13T00:22:36.901078+11:00"}, {"id": 18804, "name": "Gary Steer", "roles_in_work": [{"id": 905121, "title": "King Koala", "work_id": 85858, "role": "co-director", "role_id": 959, "is_primary": true}, {"id": 896220, "title": "Wilderness", "work_id": 74763, "role": "co-director", "role_id": 959, "is_primary": true}, {"id": 905119, "title": "King Koala", "work_id": 85858, "role": "co-producer", "role_id": 915, "is_primary": true}, {"id": 903911, "title": "Wild bush budgie; a very particular parrot.", "work_id": 84997, "role": "co-producer", "role_id": 915, "is_primary": true}, {"id": 2473960, "title": "The Art of tracking", "work_id": 85857, "role": "co-producers/directors", "role_id": 628, "is_primary": true}, {"id": 905289, "title": "Flight of the rhino", "work_id": 85990, "role": "co-producers/directors", "role_id": 628, "is_primary": true}, {"id": 903913, "title": "Wild bush budgie; a very particular parrot.", "work_id": 84997, "role": "director", "role_id": 938, "is_primary": true}, {"id": 774401, "title": "Brumby: Horse Run Wild", "work_id": 81151, "role": "producer/director", "role_id": 31, "is_primary": true}, {"id": 2649925, "title": "Islands in the sky: the search for the Black Tree Kangaroo", "work_id": 82403, "role": "producer/director", "role_id": 31, "is_primary": true}, {"id": 774713, "title": "Wild Dog Dingo", "work_id": 81236, "role": "producer/director", "role_id": 31, "is_primary": true}], "also_known_as": "", "date_of_birth": "", "date_of_death": "", "genders": [], "languages": [], "places_of_operation": [], "biography": "", "biography_author": null, "date_of_biography": "2023-08-16T03:40:46.566386+10:00", "external_links": [], "uuid": "6ee499c0-180c-4c77-8121-42fcc3f0f725", "source": {"name": "Vernon", "slug": "vernon"}, "source_identifier": "19438", "external_references": [{"id": 42382, "source": {"name": "Wikidata", "slug": "wikidata"}, "source_identifier": "Q121079389"}], "date_modified": "2025-03-05T14:07:32.950926+11:00"}, {"id": 18802, "name": "Aram Boyajian", "roles_in_work": [{"id": 2755010, "title": "The Wild cell", "work_id": 74755, "role": "director", "role_id": 938, "is_primary": true}, {"id": 2043667, "title": "Angry Boy", "work_id": 90625, "role": "editor", "role_id": 918, "is_primary": true}], "also_known_as": "", "date_of_birth": "", "date_of_death": "", "genders": [{"id": 9, "name": "Male", "slug": "male"}], "languages": [], "places_of_operation": [], "biography": "", "biography_author": null, "date_of_biography": "2023-08-11T19:00:51.348593+10:00", "external_links": [], "uuid": "55375798-e03f-4ad3-8b88-622af2d53776", "source": {"name": "Vernon", "slug": "vernon"}, "source_identifier": "15443", "external_references": [{"id": 34304, "source": {"name": "Wikidata", "slug": "wikidata"}, "source_identifier": "Q105208269"}, {"id": 53983, "source": {"name": "VIAF", "slug": "viaf"}, "source_identifier": "134161272232447442622"}, {"id": 53984, "source": {"name": "LOC Auth", "slug": "loc-auth"}, "source_identifier": "no2021012236"}], "date_modified": "2025-03-13T01:56:14.731496+11:00"}, {"id": 18799, "name": "Shepparton South Technical School", "roles_in_work": [{"id": 2646928, "title": "Why wilderness?", "work_id": 74747, "role": "production company", "role_id": 941, "is_primary": true}, {"id": 2471406, "title": "We grow apricots", "work_id": 96284, "role": "production company", "role_id": 941, "is_primary": true}], "also_known_as": "", "date_of_birth": "", "date_of_death": "", "genders": [], "languages": [], "places_of_operation": [], "biography": "", "biography_author": null, "date_of_biography": "2023-08-14T12:39:50.587541+10:00", "external_links": [], "uuid": "943adad4-1095-4bc4-abd5-11533f7f6fb6", "source": {"name": "Vernon", "slug": "vernon"}, "source_identifier": "12528", "external_references": [], "date_modified": "2025-03-05T13:15:40.175499+11:00"}, {"id": 18798, "name": "Seymour High School", "roles_in_work": [{"id": 2646927, "title": "Why wilderness?", "work_id": 74747, "role": "production company", "role_id": 941, "is_primary": true}], "also_known_as": "", "date_of_birth": null, "date_of_death": null, "genders": [], "languages": [], "places_of_operation": [], "biography": "", "biography_author": null, "date_of_biography": null, "external_links": [], "uuid": "fb353fe3-f9dd-4556-b896-026ccb6f0a6a", "source": {"name": "Vernon", "slug": "vernon"}, "source_identifier": "12482", "external_references": [], "date_modified": "2025-03-05T13:15:39.587423+11:00"}, {"id": 18797, "name": "Mike Salter", "roles_in_work": [{"id": 2646926, "title": "Why Victoria", "work_id": 74746, "role": "director", "role_id": 938, "is_primary": true}], "also_known_as": "", "date_of_birth": null, "date_of_death": null, "genders": [], "languages": [], "places_of_operation": [], "biography": "", "biography_author": null, "date_of_biography": null, "external_links": [], "uuid": "7cc316f3-6124-47df-8af5-620c405b3baa", "source": {"name": "Vernon", "slug": "vernon"}, "source_identifier": "25394", "external_references": [], "date_modified": "2025-03-05T13:15:38.695440+11:00"}, {"id": 18793, "name": "Great Britain. Royal Navy", "roles_in_work": [{"id": 2762290, "title": "Why I.T.?", "work_id": 74740, "role": "production company", "role_id": 941, "is_primary": true}], "also_known_as": "", "date_of_birth": "", "date_of_death": "", "genders": [], "languages": [], "places_of_operation": [], "biography": "", "biography_author": null, "date_of_biography": "2023-08-11T12:56:35.081197+10:00", "external_links": [], "uuid": "b77e1ffc-d776-4885-bb4c-d46fcaef5542", "source": {"name": "Vernon", "slug": "vernon"}, "source_identifier": "12153", "external_references": [], "date_modified": "2025-03-14T17:37:37.202490+11:00"}, {"id": 18792, "name": "American Dental Association", "roles_in_work": [{"id": 860811, "title": "Why fluoridation?", "work_id": 74737, "role": "production company", "role_id": 941, "is_primary": true}, {"id": 861600, "title": "Merlin's magical message", "work_id": 75659, "role": "production company", "role_id": 941, "is_primary": true}, {"id": 2749453, "title": "Teeth", "work_id": 96813, "role": "sponsor", "role_id": 625, "is_primary": false}], "also_known_as": "", "date_of_birth": "", "date_of_death": "", "genders": [], "languages": [], "places_of_operation": [], "biography": "", "biography_author": null, "date_of_biography": "2023-05-09T19:14:51.432590+10:00", "external_links": [], "uuid": "3292fa6c-f5f8-4929-82d4-9eb829a4863b", "source": {"name": "Vernon", "slug": "vernon"}, "source_identifier": "5193", "external_references": [], "date_modified": "2025-03-13T00:00:40.281116+11:00"}]}