{"count": 28687, "next": "https://api.acmi.net.au/creators/?page=136", "previous": "https://api.acmi.net.au/creators/?page=134", "results": [{"id": 84257, "name": "Fred Daley", "roles_in_work": [{"id": 2051584, "title": "Fred's Films. Models for kids [excerpt]", "work_id": 117479, "role": "creator", "role_id": 968, "is_primary": true}, {"id": 2051576, "title": "Fred's Films. ARC Cement Works Geelong [excerpt]", "work_id": 117474, "role": "creator", "role_id": 968, "is_primary": true}, {"id": 2051897, "title": "[Fred Daley Collection]", "work_id": 119743, "role": "creator", "role_id": 968, "is_primary": true}, {"id": 2051573, "title": "Fred's Films. 'Tis Christmas", "work_id": 117475, "role": "creator", "role_id": 968, "is_primary": true}, {"id": 2051900, "title": "Fred's Films. Stepping South: Apollo Bay Jan 1963", "work_id": 117473, "role": "creator", "role_id": 968, "is_primary": true}, {"id": 2051593, "title": "Fred's Films. The Train that refused to die: Puffing Billy", "work_id": 117478, "role": "creator", "role_id": 968, "is_primary": true}, {"id": 2051587, "title": "Fred's Films. Our Family [excerpt]", "work_id": 117472, "role": "creator", "role_id": 968, "is_primary": true}, {"id": 2051905, "title": "Fred's Films. Warburton Line 1963", "work_id": 117477, "role": "creator", "role_id": 968, "is_primary": true}, {"id": 2051578, "title": "Fred's Films. Away to Cooma 1965", "work_id": 117476, "role": "creator", "role_id": 968, "is_primary": true}, {"id": 2051903, "title": "Fred's Films. [Luna Park] [excerpt]", "work_id": 117480, "role": "creator", "role_id": 968, "is_primary": true}], "also_known_as": "", "date_of_birth": "", "date_of_death": "", "genders": [], "languages": [], "places_of_operation": [], "biography": "", "biography_author": null, "date_of_biography": "2023-05-09T10:02:33.880299+10:00", "external_links": [], "uuid": "f9086bbc-159b-43e1-9320-720e99d7a075", "source": {"name": "Vernon", "slug": "vernon"}, "source_identifier": "32724", "external_references": [], "date_modified": "2023-06-14T16:33:30.576250+10:00"}, {"id": 84256, "name": "Yang Fudong", "roles_in_work": [{"id": 2047565, "title": "Unpacking Filmscapes - The Coloured Sky: New Women II", "work_id": 117471, "role": "interviewee", "role_id": 496, "is_primary": false}], "also_known_as": "", "date_of_birth": null, "date_of_death": null, "genders": [], "languages": [], "places_of_operation": [], "biography": "", "biography_author": null, "date_of_biography": null, "external_links": [], "uuid": "4433eb08-f833-49da-823e-b7dc5cac9af7", "source": {"name": "Vernon", "slug": "vernon"}, "source_identifier": null, "external_references": [], "date_modified": "2023-06-14T16:33:30.576250+10:00"}, {"id": 84255, "name": "North Sydney Girls High School", "roles_in_work": [{"id": 2719162, "title": "100 Pages", "work_id": 117470, "role": "creator", "role_id": 968, "is_primary": true}], "also_known_as": "", "date_of_birth": "", "date_of_death": "", "genders": [], "languages": [], "places_of_operation": [], "biography": "", "biography_author": null, "date_of_biography": "2023-05-09T19:43:38.554293+10:00", "external_links": [], "uuid": "52d1450e-ef74-4c79-8914-090b8975f919", "source": {"name": "Vernon", "slug": "vernon"}, "source_identifier": "38064", "external_references": [], "date_modified": "2025-03-12T06:55:40.543727+11:00"}, {"id": 84254, "name": "Werner van Niekerk", "roles_in_work": [{"id": 2719202, "title": "Time Machine [game trailer]", "work_id": 117469, "role": "creator", "role_id": 968, "is_primary": true}], "also_known_as": "", "date_of_birth": "", "date_of_death": "", "genders": [], "languages": [], "places_of_operation": [], "biography": "", "biography_author": null, "date_of_biography": "2023-05-09T19:43:39.924341+10:00", "external_links": [], "uuid": "6e1d86f2-8693-4325-a213-503fca40a4f7", "source": {"name": "Vernon", "slug": "vernon"}, "source_identifier": "38063", "external_references": [], "date_modified": "2025-03-12T06:57:38.789241+11:00"}, {"id": 84253, "name": "Cameron Cockrell", "roles_in_work": [{"id": 2719200, "title": "Time Machine [game trailer]", "work_id": 117469, "role": "creator", "role_id": 968, "is_primary": true}], "also_known_as": "", "date_of_birth": "", "date_of_death": "", "genders": [], "languages": [], "places_of_operation": [], "biography": "", "biography_author": null, "date_of_biography": "2023-05-09T19:43:39.686795+10:00", "external_links": [], "uuid": "92a579d4-861d-40ce-92de-3c1f3a6e7a6c", "source": {"name": "Vernon", "slug": "vernon"}, "source_identifier": "38062", "external_references": [], "date_modified": "2025-03-12T06:57:36.991081+11:00"}, {"id": 84252, "name": "Matthew Wong", "roles_in_work": [{"id": 2719187, "title": "Project Vena Cava [game trailer]", "work_id": 117468, "role": "creator", "role_id": 968, "is_primary": true}], "also_known_as": "", "date_of_birth": "", "date_of_death": "", "genders": [], "languages": [], "places_of_operation": [], "biography": "", "biography_author": null, "date_of_biography": "2023-05-09T19:43:37.734323+10:00", "external_links": [], "uuid": "522ff2b2-3265-4145-817a-2742576d6f6a", "source": {"name": "Vernon", "slug": "vernon"}, "source_identifier": "38061", "external_references": [], "date_modified": "2025-03-12T06:57:11.163543+11:00"}, {"id": 84251, "name": "Rebecca Jordan", "roles_in_work": [{"id": 2719207, "title": "Transition", "work_id": 117467, "role": "creator", "role_id": 968, "is_primary": true}], "also_known_as": "", "date_of_birth": "", "date_of_death": "", "genders": [], "languages": [], "places_of_operation": [], "biography": "", "biography_author": null, "date_of_biography": "2023-05-09T19:43:41.340872+10:00", "external_links": [], "uuid": "f55eed82-51f1-4956-a1d7-1a0b3e730c5f", "source": {"name": "Vernon", "slug": "vernon"}, "source_identifier": "38060", "external_references": [], "date_modified": "2025-03-12T06:58:03.552143+11:00"}, {"id": 84250, "name": "Sannah Maclean", "roles_in_work": [{"id": 2719205, "title": "Transition", "work_id": 117467, "role": "creator", "role_id": 968, "is_primary": true}], "also_known_as": "", "date_of_birth": "", "date_of_death": "", "genders": [], "languages": [], "places_of_operation": [], "biography": "", "biography_author": null, "date_of_biography": "2023-05-09T19:43:41.114191+10:00", "external_links": [], "uuid": "896710b5-8793-4188-9eaa-8cf8ec144cbb", "source": {"name": "Vernon", "slug": "vernon"}, "source_identifier": "38059", "external_references": [], "date_modified": "2025-03-12T06:58:01.836047+11:00"}, {"id": 84249, "name": "Sarah Brennan", "roles_in_work": [{"id": 2719185, "title": "La Mia Vita = My Life", "work_id": 117466, "role": "creator", "role_id": 968, "is_primary": true}], "also_known_as": "", "date_of_birth": "", "date_of_death": "", "genders": [], "languages": [], "places_of_operation": [], "biography": "", "biography_author": null, "date_of_biography": "2023-05-09T19:43:31.766992+10:00", "external_links": [], "uuid": "76b64630-6b72-48d2-bf86-b10ba4735493", "source": {"name": "Vernon", "slug": "vernon"}, "source_identifier": "38058", "external_references": [], "date_modified": "2025-03-12T06:57:02.181935+11:00"}, {"id": 84248, "name": "Willow McFadzean", "roles_in_work": [{"id": 2719195, "title": "Sky's Adventure [game trailer]", "work_id": 117465, "role": "creator", "role_id": 968, "is_primary": true}], "also_known_as": "", "date_of_birth": "", "date_of_death": "", "genders": [], "languages": [], "places_of_operation": [], "biography": "", "biography_author": null, "date_of_biography": "2023-05-09T19:43:42.653011+10:00", "external_links": [], "uuid": "a6fe0fd5-106d-452c-99c6-f61e22def9eb", "source": {"name": "Vernon", "slug": "vernon"}, "source_identifier": "38057", "external_references": [], "date_modified": "2025-03-12T06:57:25.589031+11:00"}]}