{"count": 28687, "next": "https://api.acmi.net.au/creators/?page=1247", "previous": "https://api.acmi.net.au/creators/?page=1245", "results": [{"id": 72052, "name": "Victor Talking Machine Company", "roles_in_work": [{"id": 2684566, "title": "Charles Hackett, 392 Reel Three Vitaphone record", "work_id": 99893, "role": "sound", "role_id": 952, "is_primary": false}, {"id": 2681213, "title": "Vitaphone Disc: Columbia Pictures Corporation, \"Wall Street\", CP-B25 Reel One, Times Played 1", "work_id": 100838, "role": "sound", "role_id": 952, "is_primary": false}, {"id": 2681215, "title": "Vitaphone Disc: Paramount Famous Lasky Corporation, \"The Soul of France\", Production Reel No.2929-3", "work_id": 100839, "role": "sound", "role_id": 952, "is_primary": false}, {"id": 2684555, "title": "Vitaphone disc, \"Wall Street\", reel two", "work_id": 100843, "role": "sound", "role_id": 952, "is_primary": false}, {"id": 2684557, "title": "Vitaphone disc, \"Wall Street\", reel three", "work_id": 100842, "role": "sound", "role_id": 952, "is_primary": false}, {"id": 2684559, "title": "Wall Street, CP-B37 Reel Six Vitaphone record", "work_id": 99891, "role": "sound", "role_id": 952, "is_primary": false}, {"id": 2684561, "title": "Radio Rythm, No. A9-1-2A\nVitaphone record", "work_id": 99894, "role": "sound", "role_id": 952, "is_primary": false}, {"id": 2684563, "title": "Vitaphone disc, \"Wolf Song\"", "work_id": 100840, "role": "sound", "role_id": 952, "is_primary": false}, {"id": 2660423, "title": "Vitaphone Disc: Columbia Pictures Corporation, \"Wall Street\", CP- B37 Reel Six, Times Played 1", "work_id": 100069, "role": "sound", "role_id": 952, "is_primary": false}, {"id": 2684569, "title": "Vitaphone  disc, \"The Light Cavalry Overture\"", "work_id": 100841, "role": "sound", "role_id": 952, "is_primary": false}], "also_known_as": "", "date_of_birth": "1901", "date_of_death": "1929", "genders": [], "languages": [], "places_of_operation": [], "biography": "", "biography_author": null, "date_of_biography": "2023-07-05T04:07:12.266688+10:00", "external_links": [], "uuid": "1388669f-18ca-415a-b244-433996ee5c5e", "source": {"name": "Vernon", "slug": "vernon"}, "source_identifier": "39344", "external_references": [], "date_modified": "2025-03-11T11:38:38.214911+11:00"}, {"id": 72051, "name": "Sastrería Cornejo S.A.", "roles_in_work": [{"id": 2685421, "title": "Bumroll to be used under costume from The Favourite", "work_id": 100837, "role": "maker", "role_id": 657, "is_primary": false}], "also_known_as": "", "date_of_birth": "", "date_of_death": "", "genders": [], "languages": [], "places_of_operation": [], "biography": "", "biography_author": null, "date_of_biography": "2023-05-09T13:15:57.932559+10:00", "external_links": [], "uuid": "b6103f10-6828-48d2-9653-89417a6da731", "source": {"name": "Vernon", "slug": "vernon"}, "source_identifier": "39341", "external_references": [], "date_modified": "2025-03-11T11:48:47.114827+11:00"}, {"id": 72050, "name": "Andrew Clarke", "roles_in_work": [], "also_known_as": "", "date_of_birth": null, "date_of_death": null, "genders": [], "languages": [], "places_of_operation": [], "biography": "", "biography_author": null, "date_of_biography": null, "external_links": [], "uuid": "ea43432d-94d7-47e4-80be-d2afcd8e1c2d", "source": {"name": "Vernon", "slug": "vernon"}, "source_identifier": null, "external_references": [], "date_modified": "2023-06-14T16:33:30.576250+10:00"}, {"id": 72049, "name": "Simon Ward", "roles_in_work": [{"id": 2684827, "title": "Webwurld", "work_id": 100542, "role": "creator", "role_id": 968, "is_primary": true}], "also_known_as": "", "date_of_birth": "", "date_of_death": "", "genders": [{"id": 9, "name": "Male", "slug": "male"}], "languages": [], "places_of_operation": [], "biography": "", "biography_author": null, "date_of_biography": "2023-05-09T17:42:59.237492+10:00", "external_links": [], "uuid": "2e725b87-ab95-4454-ae18-7cf1aa83efd4", "source": {"name": "Vernon", "slug": "vernon"}, "source_identifier": "39335", "external_references": [], "date_modified": "2025-03-11T11:43:30.250183+11:00"}, {"id": 72048, "name": "A Mattey", "roles_in_work": [{"id": 2311168, "title": "Stereo viewer stereoscope", "work_id": 99987, "role": "inventor", "role_id": 884, "is_primary": false}], "also_known_as": "", "date_of_birth": "", "date_of_death": "", "genders": [{"id": 9, "name": "Male", "slug": "male"}], "languages": [], "places_of_operation": [], "biography": "Stereoscopes were designed by A. Mattey from Paris. The UNIS  company was founded in 1872 and was one of the largest French manufacturers of stereoscopes and accessories. Surprisingly they didn't produce stereo cameras. Mattey produced its devices using different trademarks and the most common was Unis France.", "biography_author": null, "date_of_biography": "2023-05-09T18:57:02.148186+10:00", "external_links": [], "uuid": "1434c132-7f6c-48d2-8c75-b7130267d949", "source": {"name": "Vernon", "slug": "vernon"}, "source_identifier": "39372", "external_references": [], "date_modified": "2023-06-14T16:33:30.576250+10:00"}, {"id": 72047, "name": "Unis France", "roles_in_work": [{"id": 2311163, "title": "Stereo viewer stereoscope", "work_id": 99987, "role": "manufacturer", "role_id": 627, "is_primary": true}], "also_known_as": "", "date_of_birth": "1872", "date_of_death": "1936", "genders": [], "languages": [], "places_of_operation": [], "biography": "Stereoscopes were designed by A. Mattey from Paris. The UNIS  company was founded in 1872 and was one of the largest French manufacturers of stereoscopes and accessories. Surprisingly they didn't produce stereo cameras. Mattey produced its devices using different trademarks and the most common was Unis France.", "biography_author": null, "date_of_biography": "2023-05-09T18:57:01.910825+10:00", "external_links": [], "uuid": "bbd81bf0-52d4-479c-aaf4-a822c544fe0a", "source": {"name": "Vernon", "slug": "vernon"}, "source_identifier": "39371", "external_references": [], "date_modified": "2023-06-14T16:33:30.576250+10:00"}, {"id": 72046, "name": "Electronic Music Studios", "roles_in_work": [{"id": 2684687, "title": "VCS1 Electronic Music Synthesiser from Don Banks' music studio", "work_id": 99888, "role": "manufacturer", "role_id": 627, "is_primary": true}, {"id": 2684690, "title": "VCS3 Electronic Music Synthesiser from Don Banks' music studio", "work_id": 99887, "role": "manufacturer", "role_id": 627, "is_primary": true}, {"id": 2684692, "title": "VCS1 and VCS3 Synthesiser, from Don Banks music studio", "work_id": 100832, "role": "manufacturer", "role_id": 627, "is_primary": true}], "also_known_as": "", "date_of_birth": "", "date_of_death": "", "genders": [], "languages": [], "places_of_operation": [], "biography": "Synthesizer manufacturers", "biography_author": null, "date_of_biography": "2025-03-11T11:41:26.440337+11:00", "external_links": [], "uuid": "96dc8693-492d-46e5-8cc3-146d67878b56", "source": {"name": "Vernon", "slug": "vernon"}, "source_identifier": "37838", "external_references": [], "date_modified": "2025-03-11T11:41:26.440634+11:00"}, {"id": 72045, "name": "Thomas A. Edison Inc.", "roles_in_work": [{"id": 2681193, "title": "Edison Home Kinetoscope", "work_id": 99886, "role": "creator", "role_id": 968, "is_primary": true}], "also_known_as": "", "date_of_birth": "", "date_of_death": "", "genders": [], "languages": [], "places_of_operation": [], "biography": "", "biography_author": null, "date_of_biography": "2023-05-09T15:52:53.827183+10:00", "external_links": [], "uuid": "b4ab6b7b-1d44-46c6-b208-8361b0752210", "source": {"name": "Vernon", "slug": "vernon"}, "source_identifier": "39457", "external_references": [], "date_modified": "2025-03-07T01:01:54.098722+11:00"}, {"id": 72044, "name": "B.M. & Biograph Co.", "roles_in_work": [{"id": 2681192, "title": "Kinora", "work_id": 99885, "role": "creator", "role_id": 968, "is_primary": true}], "also_known_as": "", "date_of_birth": "", "date_of_death": "", "genders": [], "languages": [], "places_of_operation": [], "biography": "", "biography_author": null, "date_of_biography": "2023-08-11T19:08:01.585812+10:00", "external_links": [], "uuid": "e244b17d-5e9f-443b-a3a4-63a07b18f616", "source": {"name": "Vernon", "slug": "vernon"}, "source_identifier": "39456", "external_references": [], "date_modified": "2025-03-07T01:01:46.353921+11:00"}, {"id": 72043, "name": "Neue Photographische Gesellschaft", "roles_in_work": [{"id": 2684908, "title": "Stereoscop apparat imperial (Stereoscopic apparatus)", "work_id": 100286, "role": "manufacturer", "role_id": 627, "is_primary": true}, {"id": 2681191, "title": "Stereoscop apparat imperial (Stereoscopic apparatus)", "work_id": 99986, "role": "manufacturer", "role_id": 627, "is_primary": true}, {"id": 2684910, "title": "Stereoscopic Images and Box for Tin Folding Stereoviewer (PRESERVATION)", "work_id": 100287, "role": "manufacturer", "role_id": 627, "is_primary": true}], "also_known_as": "", "date_of_birth": "Circa 1890", "date_of_death": "", "genders": [], "languages": [], "places_of_operation": [], "biography": "", "biography_author": null, "date_of_biography": "2023-05-09T18:57:00.622737+10:00", "external_links": [], "uuid": "c69f3b8b-d7ec-4857-8ffa-11b953b5bc72", "source": {"name": "Vernon", "slug": "vernon"}, "source_identifier": "39338", "external_references": [], "date_modified": "2025-03-11T11:44:13.706120+11:00"}]}