{"count": 28687, "next": "https://api.acmi.net.au/creators/?page=1718", "previous": "https://api.acmi.net.au/creators/?page=1716", "results": [{"id": 28255, "name": "Fable Films Productions", "roles_in_work": [{"id": 2356469, "title": "The Island of Nevawuz", "work_id": 86211, "role": "production company", "role_id": 941, "is_primary": true}], "also_known_as": "", "date_of_birth": "", "date_of_death": "", "genders": [], "languages": [], "places_of_operation": [], "biography": "", "biography_author": null, "date_of_biography": "2023-05-09T20:04:43.083980+10:00", "external_links": [], "uuid": "96411e73-bb6b-4175-bde6-0a4b568cb4b5", "source": {"name": "Vernon", "slug": "vernon"}, "source_identifier": "8065", "external_references": [{"id": 38197, "source": {"name": "Wikidata", "slug": "wikidata"}, "source_identifier": "Q121315674"}], "date_modified": "2023-09-05T19:39:26.376422+10:00"}, {"id": 28250, "name": "Kodak Australasia", "roles_in_work": [{"id": 2681278, "title": "Assorted Film Making Accessories", "work_id": 100155, "role": "", "role_id": 604, "is_primary": false}, {"id": 2681279, "title": "Kodak Movie Light and two bulbs", "work_id": 100156, "role": "", "role_id": 604, "is_primary": false}, {"id": 2681276, "title": "Title Your Films in Colour Austral Plastic Colour Titling Set", "work_id": 100154, "role": "distributor", "role_id": 437, "is_primary": false}, {"id": 2615810, "title": "The Dawn of a new era", "work_id": 86204, "role": "production company", "role_id": 941, "is_primary": true}], "also_known_as": "", "date_of_birth": "", "date_of_death": "", "genders": [], "languages": [], "places_of_operation": [], "biography": "", "biography_author": null, "date_of_biography": "2023-05-09T12:33:37.166535+10:00", "external_links": [], "uuid": "b998d1ba-06f2-4e7a-8c5a-2adf31d65e09", "source": {"name": "Vernon", "slug": "vernon"}, "source_identifier": "9811", "external_references": [{"id": 41068, "source": {"name": "Wikidata", "slug": "wikidata"}, "source_identifier": "Q121035664"}], "date_modified": "2025-03-07T01:15:22.114980+11:00"}, {"id": 28248, "name": "Religious Film Society", "roles_in_work": [{"id": 2178539, "title": "David", "work_id": 86201, "role": "production company", "role_id": 941, "is_primary": true}], "also_known_as": "", "date_of_birth": "", "date_of_death": "", "genders": [], "languages": [], "places_of_operation": [], "biography": "", "biography_author": null, "date_of_biography": "2023-05-09T14:48:59.232086+10:00", "external_links": [], "uuid": "0ef25d3d-7253-4afb-a5ec-b91203062aa6", "source": {"name": "Vernon", "slug": "vernon"}, "source_identifier": "11948", "external_references": [], "date_modified": "2023-06-14T16:33:30.576250+10:00"}, {"id": 28245, "name": "Wayne Mitchell", "roles_in_work": [{"id": 825639, "title": "Natural resources of Southeast Asia", "work_id": 95951, "role": "director", "role_id": 938, "is_primary": true}, {"id": 2615809, "title": "South America the series. -Volume 1", "work_id": 86194, "role": "producer", "role_id": 1089, "is_primary": true}, {"id": 2753654, "title": "Africa: an introduction", "work_id": 98866, "role": "producer", "role_id": 1089, "is_primary": true}, {"id": 2403008, "title": "Boy of Southeast Asia", "work_id": 95949, "role": "producer", "role_id": 1089, "is_primary": true}, {"id": 1820302, "title": "South America the series. -Volume 2", "work_id": 86380, "role": "producer", "role_id": 1089, "is_primary": true}, {"id": 1820288, "title": "South America the series. -Volume 4", "work_id": 86378, "role": "producer", "role_id": 1089, "is_primary": true}, {"id": 1820287, "title": "South America the series. -Volume 5", "work_id": 86377, "role": "producer", "role_id": 1089, "is_primary": true}, {"id": 1820301, "title": "South America the series. -Volume 3", "work_id": 86379, "role": "producer", "role_id": 1089, "is_primary": true}, {"id": 2407610, "title": "Food of Southeast Asia", "work_id": 95953, "role": "producer", "role_id": 1089, "is_primary": true}], "also_known_as": "", "date_of_birth": "", "date_of_death": "", "genders": [], "languages": [], "places_of_operation": [], "biography": "", "biography_author": null, "date_of_biography": "2023-08-11T16:41:07.117791+10:00", "external_links": [], "uuid": "2f6557b7-dd9c-4292-aa4c-0a883637ca5d", "source": {"name": "Vernon", "slug": "vernon"}, "source_identifier": "30305", "external_references": [], "date_modified": "2025-03-13T01:30:24.844076+11:00"}, {"id": 28243, "name": "Bill Walker", "roles_in_work": [{"id": 2174726, "title": "Measuring matter: Volume 2", "work_id": 86189, "role": "co-director", "role_id": 959, "is_primary": true}, {"id": 2174692, "title": "Measuring matter: Volume 1", "work_id": 86288, "role": "co-director", "role_id": 959, "is_primary": true}, {"id": 2751669, "title": "Zoo animals in the wild: bears", "work_id": 97923, "role": "producer", "role_id": 1089, "is_primary": true}, {"id": 2751672, "title": "Zoo animals in the wild: beavers", "work_id": 97924, "role": "producer", "role_id": 1089, "is_primary": true}, {"id": 2751676, "title": "Elephants", "work_id": 97926, "role": "producer", "role_id": 1089, "is_primary": true}, {"id": 2751680, "title": "Monkeys", "work_id": 97929, "role": "producer", "role_id": 1089, "is_primary": true}, {"id": 2751683, "title": "Zoo animals in the wild: ostriches", "work_id": 97930, "role": "producer", "role_id": 1089, "is_primary": true}, {"id": 2751561, "title": "Aquarium", "work_id": 97866, "role": "producer", "role_id": 1089, "is_primary": true}, {"id": 2751865, "title": "The Eye: an inside story", "work_id": 98023, "role": "producer", "role_id": 1089, "is_primary": true}, {"id": 2751897, "title": "Little match girl", "work_id": 98038, "role": "producer", "role_id": 1089, "is_primary": true}, {"id": 1806032, "title": "World War I: background tensions (1870-1914). - 2nd ed.", "work_id": 87391, "role": "producer", "role_id": 1089, "is_primary": true}, {"id": 2751687, "title": "Rhinos and hippos", "work_id": 97932, "role": "producer", "role_id": 1089, "is_primary": true}], "also_known_as": "", "date_of_birth": "", "date_of_death": "", "genders": [], "languages": [], "places_of_operation": [], "biography": "", "biography_author": null, "date_of_biography": "2023-05-09T14:43:48.132848+10:00", "external_links": [], "uuid": "32b35076-2368-41d7-b961-cfc7686909b5", "source": {"name": "Vernon", "slug": "vernon"}, "source_identifier": "16016", "external_references": [], "date_modified": "2025-03-13T00:52:36.212378+11:00"}, {"id": 28233, "name": "Karen Feldt", "roles_in_work": [{"id": 2405562, "title": "Dealing with Alzheimer's Disease: a commonsense approach to communication", "work_id": 86175, "role": "producer", "role_id": 1089, "is_primary": true}], "also_known_as": "", "date_of_birth": "", "date_of_death": "", "genders": [], "languages": [], "places_of_operation": [], "biography": "", "biography_author": null, "date_of_biography": "2023-08-11T15:55:07.925821+10:00", "external_links": [], "uuid": "a0139e20-a44b-41c2-b164-89ad935baaa6", "source": {"name": "Vernon", "slug": "vernon"}, "source_identifier": "22993", "external_references": [], "date_modified": "2023-08-11T15:55:07.926044+10:00"}, {"id": 28232, "name": "Terra Nova", "roles_in_work": [{"id": 2405561, "title": "Dealing with Alzheimer's Disease: a commonsense approach to communication", "work_id": 86175, "role": "production company", "role_id": 941, "is_primary": true}], "also_known_as": "", "date_of_birth": "", "date_of_death": "", "genders": [], "languages": [], "places_of_operation": [], "biography": "", "biography_author": null, "date_of_biography": "2023-08-11T15:55:07.285963+10:00", "external_links": [], "uuid": "264e1f40-0392-465f-9477-50e8dd0d1115", "source": {"name": "Vernon", "slug": "vernon"}, "source_identifier": "13295", "external_references": [], "date_modified": "2023-08-11T15:55:07.286283+10:00"}, {"id": 28231, "name": "Ramsey Foundation", "roles_in_work": [{"id": 2405560, "title": "Dealing with Alzheimer's Disease: a commonsense approach to communication", "work_id": 86175, "role": "production company", "role_id": 941, "is_primary": true}], "also_known_as": "", "date_of_birth": "", "date_of_death": "", "genders": [], "languages": [], "places_of_operation": [], "biography": "", "biography_author": null, "date_of_biography": "2023-08-11T15:55:06.667458+10:00", "external_links": [], "uuid": "3af53723-f616-49bf-9097-9bf1e5909c23", "source": {"name": "Vernon", "slug": "vernon"}, "source_identifier": "11851", "external_references": [], "date_modified": "2023-08-11T15:55:06.667719+10:00"}, {"id": 28228, "name": "Negara Productions", "roles_in_work": [{"id": 2198687, "title": "Done Bali", "work_id": 86174, "role": "production company", "role_id": 941, "is_primary": true}], "also_known_as": "", "date_of_birth": "", "date_of_death": "", "genders": [], "languages": [], "places_of_operation": [], "biography": "", "biography_author": null, "date_of_biography": "2023-05-09T15:22:17.862366+10:00", "external_links": [], "uuid": "1552f021-dc1d-4cc8-97ad-8fd68b52f6af", "source": {"name": "Vernon", "slug": "vernon"}, "source_identifier": "10865", "external_references": [{"id": 40895, "source": {"name": "Wikidata", "slug": "wikidata"}, "source_identifier": "Q121298754"}], "date_modified": "2023-09-05T23:26:52.360064+10:00"}, {"id": 28224, "name": "The Riversleigh Society", "roles_in_work": [{"id": 2321600, "title": "Tales from the kangaroo's crypt (MAC & PC)", "work_id": 86169, "role": "production company", "role_id": 941, "is_primary": true}], "also_known_as": "", "date_of_birth": "", "date_of_death": "", "genders": [], "languages": [], "places_of_operation": [], "biography": "", "biography_author": null, "date_of_biography": "2023-05-09T19:12:52.534679+10:00", "external_links": [], "uuid": "c98e3f43-d532-4d27-abbd-8b95a440a996", "source": {"name": "Vernon", "slug": "vernon"}, "source_identifier": "110537", "external_references": [{"id": 42742, "source": {"name": "Wikidata", "slug": "wikidata"}, "source_identifier": "Q121160076"}], "date_modified": "2023-09-06T01:47:33.565310+10:00"}]}