{"count": 28687, "next": "https://api.acmi.net.au/creators/?page=1989", "previous": "https://api.acmi.net.au/creators/?page=1987", "results": [{"id": 22813, "name": "Michael Edgley International", "roles_in_work": [{"id": 2473904, "title": "The Coolangatta Gold", "work_id": 80766, "role": "production company", "role_id": 941, "is_primary": true}], "also_known_as": "", "date_of_birth": "", "date_of_death": "", "genders": [], "languages": [], "places_of_operation": [], "biography": "", "biography_author": null, "date_of_biography": "2023-08-16T03:40:10.279928+10:00", "external_links": [], "uuid": "c8ce9716-6179-4c57-8ba6-b2838014cc86", "source": {"name": "Vernon", "slug": "vernon"}, "source_identifier": "10500", "external_references": [], "date_modified": "2023-08-16T03:40:10.280187+10:00"}, {"id": 22812, "name": "Colin South", "roles_in_work": [{"id": 2753344, "title": "Seen and heard", "work_id": 98718, "role": "director", "role_id": 938, "is_primary": true}, {"id": 2774791, "title": "G'day: new accents in australian tourism", "work_id": 81742, "role": "director", "role_id": 938, "is_primary": true}, {"id": 1989355, "title": "The Silver brumby (Captioned)", "work_id": 85147, "role": "co-producer", "role_id": 915, "is_primary": true}, {"id": 924286, "title": "Let's get Skase", "work_id": 93611, "role": "co-producer", "role_id": 915, "is_primary": true}, {"id": 903873, "title": "The Silver brumby", "work_id": 84965, "role": "co-producer", "role_id": 915, "is_primary": true}, {"id": 2164791, "title": "No Fixed Address: on tour", "work_id": 80765, "role": "co-producer", "role_id": 915, "is_primary": true}, {"id": 2774816, "title": "Entree Jacques", "work_id": 81608, "role": "co-producer", "role_id": 915, "is_primary": true}, {"id": 905780, "title": "The Silver Brumby. Volume 2", "work_id": 86399, "role": "co-producer", "role_id": 915, "is_primary": true}, {"id": 2776064, "title": "Independent company", "work_id": 81712, "role": "co-producers/directors", "role_id": 628, "is_primary": true}, {"id": 2776072, "title": "Flowers of Rethymnon", "work_id": 81630, "role": "co-producers/directors", "role_id": 628, "is_primary": true}, {"id": 919578, "title": "Why learn a language?", "work_id": 99163, "role": "co-producers/directors", "role_id": 628, "is_primary": true}, {"id": 904461, "title": "In too deep", "work_id": 85363, "role": "co-producers/directors", "role_id": 628, "is_primary": true}], "also_known_as": "", "date_of_birth": "", "date_of_death": "", "genders": [], "languages": [], "places_of_operation": [], "biography": "", "biography_author": null, "date_of_biography": "2023-07-19T03:40:19.237990+10:00", "external_links": [], "uuid": "73baafa5-b9aa-487f-8471-429ecf1c5751", "source": {"name": "Vernon", "slug": "vernon"}, "source_identifier": "17199", "external_references": [{"id": 39099, "source": {"name": "Wikidata", "slug": "wikidata"}, "source_identifier": "Q121337282"}], "date_modified": "2025-03-14T18:45:38.394545+11:00"}, {"id": 22811, "name": "John Tatoulis", "roles_in_work": [{"id": 903875, "title": "The Silver brumby", "work_id": 84965, "role": "director", "role_id": 938, "is_primary": true}, {"id": 1989357, "title": "The Silver brumby (Captioned)", "work_id": 85147, "role": "director", "role_id": 938, "is_primary": true}, {"id": 1989356, "title": "The Silver brumby (Captioned)", "work_id": 85147, "role": "co-producer", "role_id": 915, "is_primary": true}, {"id": 903874, "title": "The Silver brumby", "work_id": 84965, "role": "co-producer", "role_id": 915, "is_primary": true}, {"id": 2774815, "title": "Entree Jacques", "work_id": 81608, "role": "co-producer", "role_id": 915, "is_primary": true}, {"id": 2164789, "title": "No Fixed Address: on tour", "work_id": 80765, "role": "co-producer", "role_id": 915, "is_primary": true}, {"id": 905781, "title": "The Silver Brumby. Volume 2", "work_id": 86399, "role": "co-producer", "role_id": 915, "is_primary": true}, {"id": 924287, "title": "Let's get Skase", "work_id": 93611, "role": "co-producer", "role_id": 915, "is_primary": true}, {"id": 904460, "title": "In too deep", "work_id": 85363, "role": "co-producers/directors", "role_id": 628, "is_primary": true}, {"id": 2776075, "title": "Flowers of Rethymnon", "work_id": 81630, "role": "co-producers/directors", "role_id": 628, "is_primary": true}, {"id": 2776066, "title": "Independent company", "work_id": 81712, "role": "co-producers/directors", "role_id": 628, "is_primary": true}, {"id": 919579, "title": "Why learn a language?", "work_id": 99163, "role": "co-producers/directors", "role_id": 628, "is_primary": true}, {"id": 2164793, "title": "No Fixed Address: on tour", "work_id": 80765, "role": "director", "role_id": 938, "is_primary": true}], "also_known_as": "", "date_of_birth": null, "date_of_death": "", "genders": [{"id": 9, "name": "Male", "slug": "male"}], "languages": [], "places_of_operation": [{"id": 3, "name": "Australia", "slug": "australia"}], "biography": "John Tatoulis is an Australian film and television producer and director.\n\nTatoulis was the producer of such movies as Take Away, Let's Get Skase and Beware of Greeks Bearing Guns. Tatoulis produced and directed the film The Silver Brumby and later television series The Silver Brumby, which won the Children’s Jury – Best Feature Film award at the 1994 Chicago International Children's Film Festival and Adventures on Kythera. He also produced the animated television series The New Adventures of Ocean Girl. Source: Wikidata; 01/08/2023", "biography_author": null, "date_of_biography": "2025-03-14T18:45:39.094866+11:00", "external_links": [{"id": 4413, "uri": "https://en.wikipedia.org/wiki/John_Tatoulis"}], "uuid": "48ceebc4-ac87-4b61-8618-7f5d63ebd41a", "source": {"name": "Vernon", "slug": "vernon"}, "source_identifier": "22554", "external_references": [{"id": 26236, "source": {"name": "Wikidata", "slug": "wikidata"}, "source_identifier": "Q6260281"}], "date_modified": "2025-03-14T18:45:39.095226+11:00"}, {"id": 22810, "name": "Media World Productions", "roles_in_work": [{"id": 2164786, "title": "No Fixed Address: on tour", "work_id": 80765, "role": "production company", "role_id": 941, "is_primary": true}, {"id": 904459, "title": "In too deep", "work_id": 85363, "role": "production company", "role_id": 941, "is_primary": true}], "also_known_as": "", "date_of_birth": "", "date_of_death": "", "genders": [], "languages": [], "places_of_operation": [], "biography": "", "biography_author": null, "date_of_biography": "2023-05-09T14:23:07.565890+10:00", "external_links": [], "uuid": "9fd6ab0d-13e7-45a0-a916-0f26b5898730", "source": {"name": "Vernon", "slug": "vernon"}, "source_identifier": "10433", "external_references": [{"id": 42812, "source": {"name": "Wikidata", "slug": "wikidata"}, "source_identifier": "Q121126495"}], "date_modified": "2023-09-05T22:58:49.852714+10:00"}, {"id": 22809, "name": "Audio Visual Aids", "roles_in_work": [{"id": 2649071, "title": "Petunia", "work_id": 80736, "role": "production company", "role_id": 941, "is_primary": true}], "also_known_as": "", "date_of_birth": null, "date_of_death": null, "genders": [], "languages": [], "places_of_operation": [], "biography": "", "biography_author": null, "date_of_biography": null, "external_links": [], "uuid": "32e34be2-2738-47d5-a14a-895a9b423aac", "source": {"name": "Vernon", "slug": "vernon"}, "source_identifier": "5522", "external_references": [], "date_modified": "2025-03-05T13:55:56.853322+11:00"}, {"id": 22804, "name": "World Film Services", "roles_in_work": [{"id": 2318543, "title": "Superstars in concert", "work_id": 95451, "role": "production company", "role_id": 941, "is_primary": true}, {"id": 2351169, "title": "The Go-between", "work_id": 80728, "role": "production company", "role_id": 941, "is_primary": true}, {"id": 2065060, "title": "60's Rock Legends", "work_id": 81202, "role": "production company", "role_id": 941, "is_primary": true}, {"id": 1984779, "title": "A Doll's House", "work_id": 80798, "role": "production company", "role_id": 941, "is_primary": true}], "also_known_as": "", "date_of_birth": "", "date_of_death": "", "genders": [], "languages": [], "places_of_operation": [], "biography": "", "biography_author": null, "date_of_biography": "2023-05-09T19:56:22.320501+10:00", "external_links": [], "uuid": "86c1e61c-5359-4d3c-8d88-60accb22625e", "source": {"name": "Vernon", "slug": "vernon"}, "source_identifier": "14451", "external_references": [{"id": 39841, "source": {"name": "Wikidata", "slug": "wikidata"}, "source_identifier": "Q121035658"}], "date_modified": "2023-09-06T02:20:21.515912+10:00"}, {"id": 22801, "name": "Samson Productions", "roles_in_work": [{"id": 2186719, "title": "Paradise Road (Director's cut)", "work_id": 86580, "role": "production company", "role_id": 941, "is_primary": true}, {"id": 2186694, "title": "Paradise road (Captioned)", "work_id": 87297, "role": "production company", "role_id": 941, "is_primary": true}, {"id": 1987792, "title": "The Odd Angry Shot", "work_id": 83991, "role": "production company", "role_id": 941, "is_primary": true}, {"id": 2649064, "title": "Weekend of Shadows", "work_id": 80725, "role": "production company", "role_id": 941, "is_primary": true}, {"id": 1996465, "title": "Sirens", "work_id": 92707, "role": "production company", "role_id": 941, "is_primary": true}], "also_known_as": "", "date_of_birth": "", "date_of_death": "", "genders": [], "languages": [], "places_of_operation": [], "biography": "", "biography_author": null, "date_of_biography": "2023-05-09T15:02:30.360596+10:00", "external_links": [], "uuid": "f46ec764-e27f-406a-b68d-bd1ae31d3bda", "source": {"name": "Vernon", "slug": "vernon"}, "source_identifier": "12260", "external_references": [{"id": 40211, "source": {"name": "Wikidata", "slug": "wikidata"}, "source_identifier": "Q121159843"}], "date_modified": "2025-03-05T13:55:52.796424+11:00"}, {"id": 22797, "name": "Pavilion Films", "roles_in_work": [{"id": 784201, "title": "The Perfectionist", "work_id": 84009, "role": "production company", "role_id": 941, "is_primary": true}, {"id": 2171764, "title": "Monkey grip", "work_id": 80722, "role": "production company", "role_id": 941, "is_primary": true}], "also_known_as": "", "date_of_birth": "", "date_of_death": "", "genders": [], "languages": [], "places_of_operation": [], "biography": "", "biography_author": null, "date_of_biography": "2023-05-09T14:37:08.783111+10:00", "external_links": [], "uuid": "96a89930-f36a-41e7-b716-0325df52c491", "source": {"name": "Vernon", "slug": "vernon"}, "source_identifier": "11355", "external_references": [{"id": 38941, "source": {"name": "Wikidata", "slug": "wikidata"}, "source_identifier": "Q121091349"}], "date_modified": "2023-09-05T23:50:52.903717+10:00"}, {"id": 22795, "name": "Nine Network (Australia)", "roles_in_work": [{"id": 2326539, "title": "The Adventures of Skippy. - Volume 2.", "work_id": 84254, "role": "production company", "role_id": 941, "is_primary": true}, {"id": 787493, "title": "The Water trolley", "work_id": 84907, "role": "production company", "role_id": 941, "is_primary": true}, {"id": 2274808, "title": "Video maker", "work_id": 83618, "role": "production company", "role_id": 941, "is_primary": true}, {"id": 2476199, "title": "Hi 5 snow party", "work_id": 91157, "role": "production company", "role_id": 941, "is_primary": true}, {"id": 2162327, "title": "Masterpieces from the Louvre: bronze sculptures from France", "work_id": 82299, "role": "production company", "role_id": 941, "is_primary": true}], "also_known_as": "", "date_of_birth": "", "date_of_death": "", "genders": [], "languages": [], "places_of_operation": [], "biography": "", "biography_author": null, "date_of_biography": "2023-08-17T15:33:33.614429+10:00", "external_links": [], "uuid": "5c766304-d179-4f9c-8f5c-59ed87a436a5", "source": {"name": "Vernon", "slug": "vernon"}, "source_identifier": "4906", "external_references": [{"id": 35009, "source": {"name": "Wikidata", "slug": "wikidata"}, "source_identifier": "Q121315000"}], "date_modified": "2023-09-05T23:32:24.667809+10:00"}, {"id": 22794, "name": "Claude Whatham", "roles_in_work": [{"id": 1978922, "title": "Hoodwink [DVD]", "work_id": 95620, "role": "director", "role_id": 938, "is_primary": true}, {"id": 912539, "title": "That'll be the day. Stardust", "work_id": 92816, "role": "co-director", "role_id": 959, "is_primary": true}, {"id": 2792468, "title": "The Lion's cub; The Marriage game", "work_id": 85209, "role": "co-director", "role_id": 959, "is_primary": true}, {"id": 916808, "title": "The Railway children. Swallows and amazons [DVD]", "work_id": 94947, "role": "co-director", "role_id": 959, "is_primary": true}], "also_known_as": "", "date_of_birth": "07 DEC 1927", "date_of_death": "04 JAN 2008", "genders": [{"id": 9, "name": "Male", "slug": "male"}], "languages": [{"id": 1, "name": "English", "slug": "english"}], "places_of_operation": [{"id": 10, "name": "United Kingdom", "slug": "united-kingdom"}], "biography": "Claude Whatham (7 December 1927 in Manchester – 4 January 2008 in Anglesey) was an English film and TV director mainly known for his work on dramas. Source: Wikidata; 01/08/2023", "biography_author": null, "date_of_biography": "2025-03-14T20:09:42.099798+11:00", "external_links": [{"id": 3786, "uri": "https://en.wikipedia.org/wiki/Claude_Whatham"}], "uuid": "c406d4b3-abd2-4774-81d5-31d2012ba8eb", "source": {"name": "Vernon", "slug": "vernon"}, "source_identifier": "17087", "external_references": [{"id": 25036, "source": {"name": "Wikidata", "slug": "wikidata"}, "source_identifier": "Q1097219"}, {"id": 27893, "source": {"name": "VIAF", "slug": "viaf"}, "source_identifier": "65539774"}, {"id": 27894, "source": {"name": "LOC Auth", "slug": "loc-auth"}, "source_identifier": "n87922139"}, {"id": 27895, "source": {"name": "WorldCat", "slug": "worldcat"}, "source_identifier": "viaf-65539774"}], "date_modified": "2025-03-14T20:09:42.100021+11:00"}]}