{"count": 28682, "next": "https://api.acmi.net.au/creators/?page=2235", "previous": "https://api.acmi.net.au/creators/?page=2233", "results": [{"id": 18004, "name": "Joris Ivens", "roles_in_work": [{"id": 2750707, "title": "Indonesia calling", "work_id": 97460, "role": "director", "role_id": 938, "is_primary": true}, {"id": 762180, "title": "Power and the land", "work_id": 76531, "role": "director", "role_id": 938, "is_primary": true}, {"id": 910036, "title": "The 400 million", "work_id": 90616, "role": "co-director", "role_id": 959, "is_primary": true}, {"id": 753945, "title": "The Spanish earth", "work_id": 73067, "role": "producer/director", "role_id": 31, "is_primary": true}, {"id": 2750709, "title": "Indonesia calling", "work_id": 97460, "role": "writer", "role_id": 939, "is_primary": true}], "also_known_as": "", "date_of_birth": "1898", "date_of_death": "1989", "genders": [{"id": 9, "name": "Male", "slug": "male"}], "languages": [{"id": 38, "name": "Dutch", "slug": "dutch"}], "places_of_operation": [{"id": 293, "name": "Kingdom of the Netherlands", "slug": "kingdom-of-the-netherlands"}], "biography": "Georg Henri Anton \"Joris\" Ivens (18 November 1898 – 28 June 1989) was a Dutch documentary filmmaker. Among the notable films he directed or co-directed are A Tale of the Wind, The Spanish Earth, Rain, ...A Valparaiso, Misère au Borinage (Borinage), 17th Parallel: Vietnam in War, The Seine Meets Paris, Far from Vietnam, Pour le Mistral and How Yukong Moved the Mountains.", "biography_author": "Wikidata", "date_of_biography": "2022-05-19T12:05:03.458093+10:00", "external_links": [{"id": 2461, "uri": "https://en.wikipedia.org/wiki/Joris_Ivens"}], "uuid": "1db323b9-5150-4c4c-bfd0-c34486082196", "source": {"name": "Vernon", "slug": "vernon"}, "source_identifier": "1144", "external_references": [{"id": 10521, "source": {"name": "Wikidata", "slug": "wikidata"}, "source_identifier": "Q238616"}, {"id": 10522, "source": {"name": "VIAF", "slug": "viaf"}, "source_identifier": "31997910"}, {"id": 10523, "source": {"name": "LOC Auth", "slug": "loc-auth"}, "source_identifier": "n79063310"}, {"id": 10524, "source": {"name": "WorldCat", "slug": "worldcat"}, "source_identifier": "lccn-n79063310"}], "date_modified": "2025-03-13T00:27:22.508452+11:00"}, {"id": 18001, "name": "Peter Theobald", "roles_in_work": [{"id": 2646398, "title": "Spaced: the Roundhouse, London, 1969", "work_id": 73060, "role": "director", "role_id": 938, "is_primary": true}], "also_known_as": "", "date_of_birth": null, "date_of_death": null, "genders": [], "languages": [], "places_of_operation": [], "biography": "", "biography_author": null, "date_of_biography": null, "external_links": [], "uuid": "25c58812-aca6-4868-9345-98a022887380", "source": {"name": "Vernon", "slug": "vernon"}, "source_identifier": "26729", "external_references": [], "date_modified": "2025-03-05T13:02:15.570188+11:00"}, {"id": 18000, "name": "Intergalactic Films", "roles_in_work": [{"id": 2646396, "title": "Spaced: the Roundhouse, London, 1969", "work_id": 73060, "role": "production company", "role_id": 941, "is_primary": true}], "also_known_as": "", "date_of_birth": null, "date_of_death": null, "genders": [], "languages": [], "places_of_operation": [], "biography": "", "biography_author": null, "date_of_biography": null, "external_links": [], "uuid": "e9ec860b-bec0-470e-a789-0aa8a523bee6", "source": {"name": "Vernon", "slug": "vernon"}, "source_identifier": "9352", "external_references": [], "date_modified": "2025-03-05T13:02:14.403904+11:00"}, {"id": 17999, "name": "KCET (Television station : Los Angeles, Calif.)", "roles_in_work": [{"id": 2793646, "title": "Thinking and writing about film", "work_id": 85792, "role": "production company", "role_id": 941, "is_primary": true}, {"id": 2793652, "title": "Classical Hollywood style today", "work_id": 85793, "role": "production company", "role_id": 941, "is_primary": true}, {"id": 2793658, "title": "American cinema", "work_id": 115477, "role": "production company", "role_id": 941, "is_primary": true}, {"id": 2752312, "title": "Evolution: the four billion year legacy", "work_id": 98240, "role": "production company", "role_id": 941, "is_primary": true}, {"id": 2789047, "title": "Rose and rose gardens", "work_id": 84185, "role": "production company", "role_id": 941, "is_primary": true}, {"id": 2781795, "title": "From genes to brains to books", "work_id": 82095, "role": "production company", "role_id": 941, "is_primary": true}, {"id": 2781843, "title": "A Voyage through the cosmos", "work_id": 98024, "role": "production company", "role_id": 941, "is_primary": true}, {"id": 2781865, "title": "The Shores of the cosmic ocean", "work_id": 82873, "role": "production company", "role_id": 941, "is_primary": true}, {"id": 2781892, "title": "One voice in the cosmic fugue", "work_id": 82874, "role": "production company", "role_id": 941, "is_primary": true}, {"id": 2781910, "title": "The Harmony of the worlds", "work_id": 82875, "role": "production company", "role_id": 941, "is_primary": true}, {"id": 2781926, "title": "Heaven and hell", "work_id": 82876, "role": "production company", "role_id": 941, "is_primary": true}, {"id": 2781945, "title": "Blues for a red planet", "work_id": 82877, "role": "production company", "role_id": 941, "is_primary": true}, {"id": 2781966, "title": "Travellers' tales", "work_id": 82878, "role": "production company", "role_id": 941, "is_primary": true}, {"id": 2781985, "title": "The Backbone of night", "work_id": 82879, "role": "production company", "role_id": 941, "is_primary": true}, {"id": 2782003, "title": "Journeys in space and time", "work_id": 82880, "role": "production company", "role_id": 941, "is_primary": true}, {"id": 2782022, "title": "The Lives of the stars", "work_id": 82881, "role": "production company", "role_id": 941, "is_primary": true}, {"id": 2782041, "title": "The Edge of forever", "work_id": 82882, "role": "production company", "role_id": 941, "is_primary": true}, {"id": 2782067, "title": "The Persistence of memory", "work_id": 82883, "role": "production company", "role_id": 941, "is_primary": true}, {"id": 2782086, "title": "Encyclopaedia galactica", "work_id": 82884, "role": "production company", "role_id": 941, "is_primary": true}, {"id": 2782105, "title": "Who speaks for earth?", "work_id": 82885, "role": "production company", "role_id": 941, "is_primary": true}, {"id": 2782124, "title": "Cosmos: a personal voyage", "work_id": 115267, "role": "production company", "role_id": 941, "is_primary": true}, {"id": 858696, "title": "The Space between words: family (TEFC)", "work_id": 73050, "role": "production company", "role_id": 941, "is_primary": true}, {"id": 2793589, "title": "The Studio system", "work_id": 85782, "role": "production company", "role_id": 941, "is_primary": true}, {"id": 2793594, "title": "The Star", "work_id": 85783, "role": "production company", "role_id": 941, "is_primary": true}, {"id": 2793600, "title": "The Western", "work_id": 85784, "role": "production company", "role_id": 941, "is_primary": true}, {"id": 2793607, "title": "Romantic comedy", "work_id": 85785, "role": "production company", "role_id": 941, "is_primary": true}, {"id": 2793612, "title": "The Combat film", "work_id": 85786, "role": "production company", "role_id": 941, "is_primary": true}, {"id": 2793618, "title": "Film noir", "work_id": 85787, "role": "production company", "role_id": 941, "is_primary": true}, {"id": 2793624, "title": "Film in the television age", "work_id": 85788, "role": "production company", "role_id": 941, "is_primary": true}, {"id": 2793630, "title": "The Film school generation", "work_id": 85789, "role": "production company", "role_id": 941, "is_primary": true}, {"id": 2793635, "title": "The Edge of Hollywood", "work_id": 85790, "role": "production company", "role_id": 941, "is_primary": true}, {"id": 2793641, "title": "Film language: the director's choice", "work_id": 85791, "role": "production company", "role_id": 941, "is_primary": true}, {"id": 2064029, "title": "1914-1918 : legacy", "work_id": 86818, "role": "production company", "role_id": 941, "is_primary": true}, {"id": 858699, "title": "The Space between words: diplomacy (TEFC)", "work_id": 73051, "role": "production company", "role_id": 941, "is_primary": true}, {"id": 2064014, "title": "1914-1918 : explosion", "work_id": 86817, "role": "production company", "role_id": 941, "is_primary": true}, {"id": 861037, "title": "World of the weed", "work_id": 74942, "role": "production company", "role_id": 941, "is_primary": true}, {"id": 901941, "title": "The Astronomers. Eps. 4-6", "work_id": 82689, "role": "production company", "role_id": 941, "is_primary": true}, {"id": 2066917, "title": "A day in the country: impressionism and the french landscape", "work_id": 82348, "role": "production company", "role_id": 941, "is_primary": true}, {"id": 2177347, "title": "Darrow = Clarence Darrow: attorney for the damned", "work_id": 89597, "role": "production company", "role_id": 941, "is_primary": true}, {"id": 2793583, "title": "Classical Hollywood style", "work_id": 85781, "role": "production company", "role_id": 941, "is_primary": true}, {"id": 2328118, "title": "The Astronomers. Eps. 1-3", "work_id": 82688, "role": "production company", "role_id": 941, "is_primary": true}], "also_known_as": "", "date_of_birth": "", "date_of_death": "", "genders": [], "languages": [], "places_of_operation": [], "biography": "", "biography_author": null, "date_of_biography": "2023-05-09T19:52:41.755329+10:00", "external_links": [], "uuid": "ebaf9901-ce93-4580-a11c-b547083ddb08", "source": {"name": "Vernon", "slug": "vernon"}, "source_identifier": "4645", "external_references": [], "date_modified": "2025-03-14T20:19:46.003889+11:00"}, {"id": 17998, "name": "Arnold Michaelis", "roles_in_work": [{"id": 2748726, "title": "Soviet Union: faces of today", "work_id": 96428, "role": "director", "role_id": 938, "is_primary": true}, {"id": 753908, "title": "The Soviet Union: epic land", "work_id": 73045, "role": "director", "role_id": 938, "is_primary": true}], "also_known_as": "", "date_of_birth": null, "date_of_death": null, "genders": [], "languages": [], "places_of_operation": [], "biography": "", "biography_author": null, "date_of_biography": null, "external_links": [], "uuid": "6171f599-f5e3-4fe7-8327-86a305d4e98b", "source": {"name": "Vernon", "slug": "vernon"}, "source_identifier": "15482", "external_references": [], "date_modified": "2025-03-12T23:40:11.358482+11:00"}, {"id": 17997, "name": "Novosti Press Agency", "roles_in_work": [{"id": 2748723, "title": "Soviet Union: faces of today", "work_id": 96428, "role": "production company", "role_id": 941, "is_primary": true}, {"id": 753905, "title": "The Soviet Union: epic land", "work_id": 73045, "role": "production company", "role_id": 941, "is_primary": true}], "also_known_as": "", "date_of_birth": null, "date_of_death": null, "genders": [], "languages": [], "places_of_operation": [], "biography": "", "biography_author": null, "date_of_biography": null, "external_links": [], "uuid": "d15f3173-2e06-474c-adef-907f0288b72d", "source": {"name": "Vernon", "slug": "vernon"}, "source_identifier": "11028", "external_references": [], "date_modified": "2025-03-12T23:40:09.566808+11:00"}, {"id": 17996, "name": "Henning Carlsen", "roles_in_work": [{"id": 858687, "title": "Souvenirs from Sweden", "work_id": 73043, "role": "director", "role_id": 938, "is_primary": true}], "also_known_as": "", "date_of_birth": "1927-06-04", "date_of_death": "2014-05-30", "genders": [{"id": 9, "name": "Male", "slug": "male"}], "languages": [{"id": 34, "name": "Danish", "slug": "danish"}], "places_of_operation": [{"id": 34, "name": "Denmark", "slug": "denmark"}], "biography": "Henning Carlsen (4 June 1927 – 30 May 2014) was a Danish film director, screenwriter, and producer most noted for his documentaries and his contributions to the style of cinéma vérité. Carlsen's 1966 social-realistic drama Hunger (Sult) was nominated for the Palme d'Or and won the Bodil Award for Best Danish Film. Carlsen also won the Bodil Award the following year for the comedy People Meet and Sweet Music Fills the Heart. Acting as his own producer since 1960, Carlsen has directed more than 25 films, 19 for which he wrote the screenplay. In 2006, he received the Golden Swan Lifetime Achievement Award at the Copenhagen International Film Festival.", "biography_author": "Wikidata", "date_of_biography": "2023-08-01T15:09:54.801102+10:00", "external_links": [{"id": 4147, "uri": "https://en.wikipedia.org/wiki/Henning_Carlsen"}], "uuid": "e84f747b-9e52-4a6a-bda6-a08b4e695096", "source": {"name": "Vernon", "slug": "vernon"}, "source_identifier": "20458", "external_references": [{"id": 26609, "source": {"name": "Wikidata", "slug": "wikidata"}, "source_identifier": "Q3077730"}, {"id": 28882, "source": {"name": "VIAF", "slug": "viaf"}, "source_identifier": "6145971343732331107"}, {"id": 28883, "source": {"name": "LOC Auth", "slug": "loc-auth"}, "source_identifier": "n97049711"}, {"id": 28884, "source": {"name": "WorldCat", "slug": "worldcat"}, "source_identifier": "lccn-n97049711"}], "date_modified": "2023-09-13T12:29:55.224699+10:00"}, {"id": 17994, "name": "Cleve Maher", "roles_in_work": [{"id": 2468147, "title": "The Southern Cloud", "work_id": 73036, "role": "producer", "role_id": 1089, "is_primary": true}], "also_known_as": "", "date_of_birth": "", "date_of_death": "", "genders": [], "languages": [], "places_of_operation": [], "biography": "", "biography_author": null, "date_of_biography": "2023-08-14T11:35:07.311216+10:00", "external_links": [], "uuid": "718b03ed-99bc-4561-99e2-520a9637b517", "source": {"name": "Vernon", "slug": "vernon"}, "source_identifier": "17115", "external_references": [], "date_modified": "2023-08-14T11:35:07.311425+10:00"}, {"id": 17993, "name": "Lions Club of Cooma", "roles_in_work": [{"id": 2468146, "title": "The Southern Cloud", "work_id": 73036, "role": "production company", "role_id": 941, "is_primary": true}], "also_known_as": "", "date_of_birth": "", "date_of_death": "", "genders": [], "languages": [], "places_of_operation": [], "biography": "", "biography_author": null, "date_of_biography": "2023-08-14T11:35:06.705135+10:00", "external_links": [], "uuid": "059148c5-78ee-4abc-b7a8-18addc1437b9", "source": {"name": "Vernon", "slug": "vernon"}, "source_identifier": "10087", "external_references": [], "date_modified": "2023-08-14T11:35:06.705361+10:00"}, {"id": 17991, "name": "Barry Callaghan", "roles_in_work": [{"id": 2646389, "title": "South Africa: the white laager", "work_id": 73026, "role": "producer", "role_id": 1089, "is_primary": true}], "also_known_as": "", "date_of_birth": null, "date_of_death": null, "genders": [], "languages": [], "places_of_operation": [], "biography": "", "biography_author": null, "date_of_biography": null, "external_links": [], "uuid": "571a8d5d-3673-46a5-93eb-e1c8db6089a4", "source": {"name": "Vernon", "slug": "vernon"}, "source_identifier": "30062", "external_references": [], "date_modified": "2025-03-05T13:02:08.797214+11:00"}]}