{"count": 28687, "next": "https://api.acmi.net.au/creators/?page=1508", "previous": "https://api.acmi.net.au/creators/?page=1506", "results": [{"id": 33789, "name": "Beautiful stories", "roles_in_work": [{"id": 2402475, "title": "Beautiful people [Widescreen]", "work_id": 92359, "role": "production company", "role_id": 941, "is_primary": true}], "also_known_as": "", "date_of_birth": "", "date_of_death": "", "genders": [], "languages": [], "places_of_operation": [], "biography": "", "biography_author": null, "date_of_biography": "2023-08-11T14:46:55.455976+10:00", "external_links": [], "uuid": "24cbae56-7ea6-43b0-b38f-7ad3e2f1ee39", "source": {"name": "Vernon", "slug": "vernon"}, "source_identifier": "5778", "external_references": [], "date_modified": "2023-08-11T14:46:55.456225+10:00"}, {"id": 33558, "name": "Zhao Yu", "roles_in_work": [{"id": 1999284, "title": "Not one less = Yi ge dou bu neng shao", "work_id": 94366, "role": "producer", "role_id": 1089, "is_primary": true}, {"id": 1819974, "title": "The Road home [DVD]", "work_id": 92358, "role": "producer", "role_id": 1089, "is_primary": true}], "also_known_as": "", "date_of_birth": null, "date_of_death": null, "genders": [{"id": 9, "name": "Male", "slug": "male"}], "languages": [], "places_of_operation": [], "biography": "", "biography_author": null, "date_of_biography": null, "external_links": [], "uuid": "6784f638-a9e4-40d6-b1be-60adc30d5ed0", "source": {"name": "Vernon", "slug": "vernon"}, "source_identifier": "30682", "external_references": [{"id": 35952, "source": {"name": "Wikidata", "slug": "wikidata"}, "source_identifier": "Q97988754"}], "date_modified": "2023-09-13T15:17:19.161459+10:00"}, {"id": 33557, "name": "Guangxi Film Studio", "roles_in_work": [{"id": 2650868, "title": "Orchids and chrysanthemums = Chun lan qiu ju", "work_id": 115773, "role": "production company", "role_id": 941, "is_primary": true}, {"id": 2651231, "title": "The Republic will never forget = Gong he guo bu hui wang ji", "work_id": 115814, "role": "production company", "role_id": 941, "is_primary": true}, {"id": 2651258, "title": "The Loner = Gu du de mou sha zhe = 孤独的谋杀者", "work_id": 115818, "role": "production company", "role_id": 941, "is_primary": true}, {"id": 2651279, "title": "The Baise Uprising = Bei Se Qi Yi = 百色起义", "work_id": 115820, "role": "production company", "role_id": 941, "is_primary": true}, {"id": 1999283, "title": "Not one less = Yi ge dou bu neng shao", "work_id": 94366, "role": "production company", "role_id": 941, "is_primary": true}, {"id": 811090, "title": "The Road home [DVD]", "work_id": 92358, "role": "production company", "role_id": 941, "is_primary": true}], "also_known_as": "", "date_of_birth": "", "date_of_death": "", "genders": [], "languages": [], "places_of_operation": [], "biography": "", "biography_author": null, "date_of_biography": "2023-05-09T19:23:18.380839+10:00", "external_links": [], "uuid": "ba04b61d-d998-499a-8d31-524390504bcc", "source": {"name": "Vernon", "slug": "vernon"}, "source_identifier": "4059", "external_references": [{"id": 38441, "source": {"name": "Wikidata", "slug": "wikidata"}, "source_identifier": "Q30948790"}], "date_modified": "2025-03-05T14:28:20.111448+11:00"}, {"id": 33556, "name": "Alex Sichel", "roles_in_work": [{"id": 1995875, "title": "All over me", "work_id": 92357, "role": "director", "role_id": 938, "is_primary": true}], "also_known_as": "", "date_of_birth": "1963-07-31", "date_of_death": null, "genders": [{"id": 5, "name": "Female", "slug": "female"}], "languages": [], "places_of_operation": [], "biography": "", "biography_author": null, "date_of_biography": null, "external_links": [], "uuid": "fe6a8ed2-8c66-4bb1-b1b3-38c5071984f6", "source": {"name": "Vernon", "slug": "vernon"}, "source_identifier": "14905", "external_references": [{"id": 6972, "source": {"name": "Wikidata", "slug": "wikidata"}, "source_identifier": "Q4989693"}, {"id": 6973, "source": {"name": "VIAF", "slug": "viaf"}, "source_identifier": "44209830"}, {"id": 6974, "source": {"name": "LOC Auth", "slug": "loc-auth"}, "source_identifier": "nr98005206"}, {"id": 6975, "source": {"name": "WorldCat", "slug": "worldcat"}, "source_identifier": "lccn-nr98005206"}], "date_modified": "2023-09-13T12:28:05.359704+10:00"}, {"id": 33552, "name": "Roy Andersson", "roles_in_work": [{"id": 1995866, "title": "Songs from the second floor", "work_id": 92355, "role": "director", "role_id": 938, "is_primary": true}], "also_known_as": "Roy Arne Lennart Andersson", "date_of_birth": "1943-03-31", "date_of_death": null, "genders": [{"id": 9, "name": "Male", "slug": "male"}], "languages": [{"id": 35, "name": "Swedish", "slug": "swedish"}], "places_of_operation": [{"id": 43, "name": "Sweden", "slug": "sweden"}], "biography": "Roy Arne Lennart Andersson (born 31 March 1943) is a Swedish film director, best known for A Swedish Love Story (1970), About Endlessness (2019) and his \"Living trilogy,\" which includes Songs from the Second Floor (2000), You, the Living (2007) and A Pigeon Sat on a Branch Reflecting on Existence (2014). Songs from the Second Floor, more than any other, cemented and exemplified his personal style – which is characterized by long takes, absurdist comedy, stiff caricaturing  of Swedish culture and grotesque. He has spent much of his professional life working on advertisement spots, directing over 400 commercials and two short films; directing six feature-length films in six decades. His 2014 film A Pigeon Sat on a Branch Reflecting on Existence won the Golden Lion award at 71st Venice International Film Festival, making Andersson the only Swedish director and the second Nordic director to win the award in the history of the festival, after Danish Carl Theodor Dreyer won in 1955. Andersson is considered one of the most important living European film directors, having four films officially submitted for the Academy Award for Best Foreign Language Film as Swedish entries.", "biography_author": "Wikidata", "date_of_biography": "2023-08-01T16:56:08+10:00", "external_links": [{"id": 5085, "uri": "https://en.wikipedia.org/wiki/Roy_Andersson"}], "uuid": "7aa480a9-6fa7-425f-9c22-bc53e9278f67", "source": {"name": "Vernon", "slug": "vernon"}, "source_identifier": "28295", "external_references": [{"id": 25827, "source": {"name": "Wikidata", "slug": "wikidata"}, "source_identifier": "Q703513"}, {"id": 31326, "source": {"name": "VIAF", "slug": "viaf"}, "source_identifier": "85449282"}, {"id": 31327, "source": {"name": "LOC Auth", "slug": "loc-auth"}, "source_identifier": "n96106655"}, {"id": 31328, "source": {"name": "WorldCat", "slug": "worldcat"}, "source_identifier": "lccn-n96106655"}], "date_modified": "2023-09-13T15:06:25.862075+10:00"}, {"id": 33551, "name": "Lisa Alwert", "roles_in_work": [{"id": 1995865, "title": "Songs from the second floor", "work_id": 92355, "role": "producer", "role_id": 1089, "is_primary": true}], "also_known_as": "", "date_of_birth": "1966-06-14", "date_of_death": null, "genders": [{"id": 5, "name": "Female", "slug": "female"}], "languages": [], "places_of_operation": [{"id": 43, "name": "Sweden", "slug": "sweden"}], "biography": "", "biography_author": null, "date_of_biography": null, "external_links": [], "uuid": "ea741b7d-7438-43d0-906b-223507955912", "source": {"name": "Vernon", "slug": "vernon"}, "source_identifier": "23910", "external_references": [{"id": 11051, "source": {"name": "Wikidata", "slug": "wikidata"}, "source_identifier": "Q4935372"}], "date_modified": "2023-09-13T12:31:02.286870+10:00"}, {"id": 33548, "name": "Sophie Clarke-Jervoise", "roles_in_work": [{"id": 2402689, "title": "Blackadder: back & forth", "work_id": 92354, "role": "producer", "role_id": 1089, "is_primary": true}], "also_known_as": "", "date_of_birth": "", "date_of_death": "", "genders": [], "languages": [], "places_of_operation": [], "biography": "", "biography_author": null, "date_of_biography": "2023-08-11T14:52:17.987409+10:00", "external_links": [], "uuid": "0caf93a5-732f-4267-b9ce-fdda71800f0a", "source": {"name": "Vernon", "slug": "vernon"}, "source_identifier": "28906", "external_references": [], "date_modified": "2023-08-11T14:52:17.987696+10:00"}, {"id": 33547, "name": "New Millennium Experience Company", "roles_in_work": [{"id": 2402688, "title": "Blackadder: back & forth", "work_id": 92354, "role": "production company", "role_id": 941, "is_primary": true}], "also_known_as": "", "date_of_birth": "", "date_of_death": "", "genders": [], "languages": [], "places_of_operation": [], "biography": "", "biography_author": null, "date_of_biography": "2023-08-11T14:52:17.353515+10:00", "external_links": [], "uuid": "8d44993f-b569-4cc8-9307-0f93ce9aee68", "source": {"name": "Vernon", "slug": "vernon"}, "source_identifier": "4677", "external_references": [], "date_modified": "2023-08-11T14:52:17.353807+10:00"}, {"id": 33546, "name": "Twin Peaks Productions", "roles_in_work": [{"id": 2285754, "title": "Twin Peaks: fire walk with me", "work_id": 92353, "role": "production company", "role_id": 941, "is_primary": true}], "also_known_as": "", "date_of_birth": "", "date_of_death": "", "genders": [], "languages": [], "places_of_operation": [], "biography": "", "biography_author": null, "date_of_biography": "2023-05-09T18:09:21.997957+10:00", "external_links": [], "uuid": "9ae956d9-aa3e-4239-8bfd-5154ed4a00af", "source": {"name": "Vernon", "slug": "vernon"}, "source_identifier": "13786", "external_references": [{"id": 38395, "source": {"name": "Wikidata", "slug": "wikidata"}, "source_identifier": "Q121034771"}], "date_modified": "2023-09-06T02:00:13.800880+10:00"}, {"id": 33538, "name": "Manon Briand", "roles_in_work": [{"id": 1995840, "title": "2 Seconds = 2 secondes", "work_id": 92345, "role": "director", "role_id": 938, "is_primary": true}], "also_known_as": "", "date_of_birth": "1964-01-01", "date_of_death": null, "genders": [{"id": 5, "name": "Female", "slug": "female"}], "languages": [], "places_of_operation": [{"id": 36, "name": "Canada", "slug": "canada"}], "biography": "Manon Briand (born January 1, 1964, in Baie-Comeau, Quebec) is a Canadian film director and screenwriter. After graduating in film studies from Concordia University, Briand went to France to study screenwriting in 1987. Returning home, she co-founded an independent filmmakers’ group, Les Films de l’Autre, and soon began directing. Her films include Letters of Transit (Les Sauf-conduits), a segment in Cosmos, 2 Seconds, Chaos and Desire, Liverpool and the television film Heart: The Marilyn Bell Story.", "biography_author": "Wikidata", "date_of_biography": "2022-05-19T12:20:18.251256+10:00", "external_links": [{"id": 2616, "uri": "https://en.wikipedia.org/wiki/Manon_Briand"}], "uuid": "a2decff5-ab0b-47bf-9db4-f624bc55366c", "source": {"name": "Vernon", "slug": "vernon"}, "source_identifier": "24257", "external_references": [{"id": 11181, "source": {"name": "Wikidata", "slug": "wikidata"}, "source_identifier": "Q533596"}, {"id": 11182, "source": {"name": "VIAF", "slug": "viaf"}, "source_identifier": "51895309"}, {"id": 11183, "source": {"name": "LOC Auth", "slug": "loc-auth"}, "source_identifier": "no2008152143"}, {"id": 11184, "source": {"name": "WorldCat", "slug": "worldcat"}, "source_identifier": "lccn-no2008152143"}], "date_modified": "2023-09-13T12:31:08.419938+10:00"}]}