{"count": 28687, "next": "https://api.acmi.net.au/creators/?page=2121", "previous": "https://api.acmi.net.au/creators/?page=2119", "results": [{"id": 20155, "name": "Philip Abbott", "roles_in_work": [{"id": 2763241, "title": "Dumbo: a lesson in being prepared", "work_id": 88021, "role": "director", "role_id": 938, "is_primary": true}, {"id": 2763229, "title": "Cinderella: a lesson in compromise", "work_id": 77068, "role": "director", "role_id": 938, "is_primary": true}, {"id": 2763232, "title": "The Fox and the hound: a lesson in caution", "work_id": 77069, "role": "director", "role_id": 938, "is_primary": true}, {"id": 2763235, "title": "The Jungle book: a lesson in accepting change", "work_id": 77070, "role": "director", "role_id": 938, "is_primary": true}], "also_known_as": "", "date_of_birth": "1923-03-21", "date_of_death": "1998-02-23", "genders": [{"id": 9, "name": "Male", "slug": "male"}], "languages": [{"id": 1, "name": "English", "slug": "english"}], "places_of_operation": [{"id": 1, "name": "United States of America", "slug": "united-states-of-america"}], "biography": "Philip Abbott (March 20, 1924 – February 23, 1998) was an American character actor. He appeared in several films and numerous television series, including a lead role as Arthur Ward in the crime series The F.B.I. Abbott was also the founder of Theatre West in Los Angeles.", "biography_author": "Wikidata", "date_of_biography": "2023-08-01T16:37:29.873400+10:00", "external_links": [{"id": 4910, "uri": "https://en.wikipedia.org/wiki/Philip_Abbott"}], "uuid": "d877f546-e70c-49a7-a7a4-5b60649a334b", "source": {"name": "Vernon", "slug": "vernon"}, "source_identifier": "26801", "external_references": [{"id": 26492, "source": {"name": "Wikidata", "slug": "wikidata"}, "source_identifier": "Q3825563"}, {"id": 30870, "source": {"name": "VIAF", "slug": "viaf"}, "source_identifier": "24809980"}, {"id": 30871, "source": {"name": "LOC Auth", "slug": "loc-auth"}, "source_identifier": "n94084495"}, {"id": 30872, "source": {"name": "WorldCat", "slug": "worldcat"}, "source_identifier": "lccn-n94084495"}], "date_modified": "2023-09-13T12:31:59.659057+10:00"}, {"id": 20153, "name": "Chaparral Productions Inc", "roles_in_work": [{"id": 2121676, "title": "BMX", "work_id": 77067, "role": "production company", "role_id": 941, "is_primary": true}], "also_known_as": "", "date_of_birth": "", "date_of_death": "", "genders": [], "languages": [], "places_of_operation": [], "biography": "", "biography_author": null, "date_of_biography": "2023-05-09T13:04:50.663724+10:00", "external_links": [], "uuid": "f7f6c82c-41df-4759-9896-4835e3ccc16c", "source": {"name": "Vernon", "slug": "vernon"}, "source_identifier": "6509", "external_references": [{"id": 39859, "source": {"name": "Wikidata", "slug": "wikidata"}, "source_identifier": "Q121086117"}], "date_modified": "2023-09-05T18:25:01.293567+10:00"}, {"id": 20152, "name": "Beacon Films", "roles_in_work": [{"id": 2779439, "title": "Casey draws the line.", "work_id": 82023, "role": "production company", "role_id": 941, "is_primary": true}, {"id": 2779442, "title": "The Kids of Degrassi Street", "work_id": 115239, "role": "production company", "role_id": 941, "is_primary": true}, {"id": 2753565, "title": "How to make a truck", "work_id": 98827, "role": "production company", "role_id": 941, "is_primary": true}, {"id": 763487, "title": "Leisure time photography", "work_id": 77065, "role": "production company", "role_id": 941, "is_primary": true}], "also_known_as": "", "date_of_birth": null, "date_of_death": null, "genders": [], "languages": [], "places_of_operation": [], "biography": "", "biography_author": null, "date_of_biography": null, "external_links": [], "uuid": "1d21d796-bd8d-4b26-aabe-93fb7e696272", "source": {"name": "Vernon", "slug": "vernon"}, "source_identifier": "5769", "external_references": [], "date_modified": "2025-03-14T19:03:19.319118+11:00"}, {"id": 20151, "name": "Joan Donaldson", "roles_in_work": [{"id": 2647691, "title": "Dying to be thin", "work_id": 77051, "role": "producer", "role_id": 1089, "is_primary": true}], "also_known_as": "", "date_of_birth": "", "date_of_death": "", "genders": [], "languages": [], "places_of_operation": [], "biography": "", "biography_author": null, "date_of_biography": "2023-08-11T19:40:54.905703+10:00", "external_links": [], "uuid": "8f80b758-a21c-4a64-9cad-2b3ee39e1c16", "source": {"name": "Vernon", "slug": "vernon"}, "source_identifier": "21970", "external_references": [], "date_modified": "2025-03-05T13:31:05.563958+11:00"}, {"id": 20150, "name": "CTV Television Network", "roles_in_work": [{"id": 2749305, "title": "The Human journey: the job", "work_id": 96735, "role": "production company", "role_id": 941, "is_primary": true}, {"id": 2415545, "title": "Man who bypassed death", "work_id": 77049, "role": "production company", "role_id": 941, "is_primary": true}, {"id": 2415544, "title": "Four minutes to live", "work_id": 77053, "role": "production company", "role_id": 941, "is_primary": true}, {"id": 2752036, "title": "How we adapt", "work_id": 98105, "role": "production company", "role_id": 941, "is_primary": true}, {"id": 2415543, "title": "The Long pain", "work_id": 77056, "role": "production company", "role_id": 941, "is_primary": true}], "also_known_as": "", "date_of_birth": "", "date_of_death": "", "genders": [], "languages": [], "places_of_operation": [], "biography": "", "biography_author": null, "date_of_biography": "2023-08-11T19:41:04.982258+10:00", "external_links": [], "uuid": "d27d56c3-1dff-465d-8ff7-2a8a696bdfad", "source": {"name": "Vernon", "slug": "vernon"}, "source_identifier": "7225", "external_references": [], "date_modified": "2025-03-13T00:56:29.991091+11:00"}, {"id": 20148, "name": "Thompson Horton Associates", "roles_in_work": [{"id": 2647687, "title": "Gossamer Albatross: flight of imagination", "work_id": 77045, "role": "production company", "role_id": 941, "is_primary": true}], "also_known_as": "", "date_of_birth": "", "date_of_death": "", "genders": [], "languages": [], "places_of_operation": [], "biography": "", "biography_author": null, "date_of_biography": "2023-08-11T17:06:51.258151+10:00", "external_links": [], "uuid": "f5ef095c-e353-4b22-ab04-7cabdb91ee1c", "source": {"name": "Vernon", "slug": "vernon"}, "source_identifier": "13498", "external_references": [], "date_modified": "2025-03-05T13:31:02.443082+11:00"}, {"id": 20143, "name": "Jean Roberts", "roles_in_work": [{"id": 2412813, "title": "Hurdle Event", "work_id": 77020, "role": "director", "role_id": 938, "is_primary": true}], "also_known_as": "", "date_of_birth": "", "date_of_death": "", "genders": [], "languages": [], "places_of_operation": [], "biography": "", "biography_author": null, "date_of_biography": "2023-08-11T18:46:24.926551+10:00", "external_links": [], "uuid": "43186b4b-497a-41e8-bc4c-fb4efe41527b", "source": {"name": "Vernon", "slug": "vernon"}, "source_identifier": "21555", "external_references": [], "date_modified": "2023-08-11T18:46:24.926775+10:00"}, {"id": 20142, "name": "Electric Picture Company", "roles_in_work": [{"id": 2412817, "title": "Sprints", "work_id": 77026, "role": "producer", "role_id": 1089, "is_primary": true}, {"id": 2412820, "title": "Javelin Throw", "work_id": 77021, "role": "producer", "role_id": 1089, "is_primary": true}, {"id": 2412822, "title": "Distance Running", "work_id": 77028, "role": "producer", "role_id": 1089, "is_primary": true}, {"id": 2412812, "title": "Hurdle Event", "work_id": 77020, "role": "producer", "role_id": 1089, "is_primary": true}, {"id": 2412821, "title": "High Jump", "work_id": 77023, "role": "production company", "role_id": 941, "is_primary": true}, {"id": 2412818, "title": "Discus", "work_id": 77027, "role": "production company", "role_id": 941, "is_primary": true}], "also_known_as": "", "date_of_birth": "", "date_of_death": "", "genders": [], "languages": [], "places_of_operation": [], "biography": "", "biography_author": null, "date_of_biography": "2023-08-11T18:46:33.445224+10:00", "external_links": [], "uuid": "39b6a0f4-c56b-4ca8-9b6f-6de11549b25c", "source": {"name": "Vernon", "slug": "vernon"}, "source_identifier": "4839", "external_references": [], "date_modified": "2023-08-11T18:46:33.445453+10:00"}, {"id": 20139, "name": "Carl Boenish", "roles_in_work": [{"id": 863865, "title": "Sky capers", "work_id": 77547, "role": "director", "role_id": 938, "is_primary": true}, {"id": 2647683, "title": "Compilation skydive", "work_id": 77014, "role": "co-producers/directors", "role_id": 628, "is_primary": true}], "also_known_as": "", "date_of_birth": "", "date_of_death": "", "genders": [], "languages": [], "places_of_operation": [], "biography": "", "biography_author": null, "date_of_biography": "2023-05-09T13:41:33.825505+10:00", "external_links": [], "uuid": "4bf1d4b5-1b37-440d-ac50-11bb6c8143ab", "source": {"name": "Vernon", "slug": "vernon"}, "source_identifier": "16461", "external_references": [{"id": 33915, "source": {"name": "Wikidata", "slug": "wikidata"}, "source_identifier": "Q121159888"}], "date_modified": "2025-03-05T13:30:59.764892+11:00"}, {"id": 20137, "name": "John Sparks", "roles_in_work": [{"id": 2763529, "title": "Life in the trees", "work_id": 77031, "role": "producer", "role_id": 1089, "is_primary": true}, {"id": 2614173, "title": "Realms of the Russian bear", "work_id": 83206, "role": "producer", "role_id": 1089, "is_primary": true}, {"id": 2763514, "title": "The Swarming hordes", "work_id": 77009, "role": "producer", "role_id": 1089, "is_primary": true}], "also_known_as": "", "date_of_birth": "", "date_of_death": "", "genders": [], "languages": [], "places_of_operation": [], "biography": "", "biography_author": null, "date_of_biography": "2023-05-09T16:48:39.047747+10:00", "external_links": [], "uuid": "b284e562-52a1-43fa-a8b0-3775ce335f20", "source": {"name": "Vernon", "slug": "vernon"}, "source_identifier": "22537", "external_references": [{"id": 36703, "source": {"name": "Wikidata", "slug": "wikidata"}, "source_identifier": "Q121085959"}], "date_modified": "2025-02-26T20:07:30.446309+11:00"}]}