{"count": 28687, "next": "https://api.acmi.net.au/creators/?page=685", "previous": "https://api.acmi.net.au/creators/?page=683", "results": [{"id": 78743, "name": "Memorial University of Newfoundland", "roles_in_work": [{"id": 873162, "title": "The Signal Hill tattoo", "work_id": 88035, "role": "production company", "role_id": 941, "is_primary": true}], "also_known_as": "", "date_of_birth": null, "date_of_death": null, "genders": [], "languages": [], "places_of_operation": [], "biography": "", "biography_author": null, "date_of_biography": null, "external_links": [], "uuid": "eadb519c-f0ef-4cf3-a046-9ec4c571e13e", "source": {"name": "Vernon", "slug": "vernon"}, "source_identifier": null, "external_references": [{"id": 35007, "source": {"name": "Wikidata", "slug": "wikidata"}, "source_identifier": "Q121299096"}], "date_modified": "2023-09-05T23:00:30.780386+10:00"}, {"id": 78742, "name": "Monique Crouillere", "roles_in_work": [{"id": 2296701, "title": "Shakti - 'She is vital energy'", "work_id": 88034, "role": "director", "role_id": 938, "is_primary": true}], "also_known_as": "", "date_of_birth": "", "date_of_death": "", "genders": [], "languages": [], "places_of_operation": [], "biography": "", "biography_author": null, "date_of_biography": "2023-05-09T18:28:49.317186+10:00", "external_links": [], "uuid": "7ae464ab-a49b-4287-8586-de93d4326568", "source": {"name": "Vernon", "slug": "vernon"}, "source_identifier": "25504", "external_references": [{"id": 41755, "source": {"name": "Wikidata", "slug": "wikidata"}, "source_identifier": "Q121126689"}], "date_modified": "2023-09-05T23:20:22.085050+10:00"}, {"id": 78741, "name": "Abraham Polonsky", "roles_in_work": [{"id": 2474799, "title": "Force of evil", "work_id": 88028, "role": "director", "role_id": 938, "is_primary": true}], "also_known_as": "", "date_of_birth": "1910-12-05", "date_of_death": "1999-10-26", "genders": [{"id": 9, "name": "Male", "slug": "male"}], "languages": [{"id": 1, "name": "English", "slug": "english"}], "places_of_operation": [{"id": 1, "name": "United States of America", "slug": "united-states-of-america"}], "biography": "Abraham Lincoln Polonsky (December 5, 1910 – October 26, 1999) was an American film director, screenwriter, essayist and novelist. He was nominated for an Academy Award for Best Original Screenplay for Body and Soul but in the early 1950s was blacklisted by the Hollywood movie studios, after refusing to testify at congressional hearings of the House Un-American Activities Committee, in the midst of the McCarthy era.", "biography_author": "Wikidata", "date_of_biography": "2023-09-05T17:15:14.355752+10:00", "external_links": [{"id": 1555, "uri": "https://en.wikipedia.org/wiki/Abraham_Polonsky"}], "uuid": "4644e34b-4b2c-49d6-9f7c-9b63a4a705f6", "source": {"name": "Vernon", "slug": "vernon"}, "source_identifier": "14635", "external_references": [{"id": 6818, "source": {"name": "Wikidata", "slug": "wikidata"}, "source_identifier": "Q330527"}, {"id": 6819, "source": {"name": "VIAF", "slug": "viaf"}, "source_identifier": "210098"}, {"id": 6820, "source": {"name": "LOC Auth", "slug": "loc-auth"}, "source_identifier": "n86140051"}, {"id": 6821, "source": {"name": "WorldCat", "slug": "worldcat"}, "source_identifier": "lccn-n86140051"}], "date_modified": "2023-09-05T17:15:14.372014+10:00"}, {"id": 78740, "name": "Harold Alderson", "roles_in_work": [{"id": 2050948, "title": "[Australian olympic team visits Bayer works at Leverkusen on June 22nd 1936]", "work_id": 88024, "role": "narrator", "role_id": 499, "is_primary": false}], "also_known_as": "", "date_of_birth": "", "date_of_death": "", "genders": [{"id": 9, "name": "Male", "slug": "male"}], "languages": [], "places_of_operation": [], "biography": "", "biography_author": null, "date_of_biography": "2023-05-09T09:56:58.994819+10:00", "external_links": [], "uuid": "98ef36ee-9ec8-47b5-804e-ab0b5d56e4d3", "source": {"name": "Vernon", "slug": "vernon"}, "source_identifier": "36086", "external_references": [], "date_modified": "2023-06-14T16:33:30.576250+10:00"}, {"id": 78739, "name": "Kath McIntryre", "roles_in_work": [{"id": 2794917, "title": "Collected stories of the XPT", "work_id": 88014, "role": "co-producer", "role_id": 915, "is_primary": true}], "also_known_as": "", "date_of_birth": "", "date_of_death": "", "genders": [], "languages": [], "places_of_operation": [], "biography": "", "biography_author": null, "date_of_biography": "2023-05-09T20:04:05.292573+10:00", "external_links": [], "uuid": "f79c86e1-3bf4-4fce-9384-ca6fe6747dad", "source": {"name": "Vernon", "slug": "vernon"}, "source_identifier": "23065", "external_references": [{"id": 32401, "source": {"name": "Wikidata", "slug": "wikidata"}, "source_identifier": "Q121271063"}], "date_modified": "2025-03-14T20:28:47.110118+11:00"}, {"id": 78738, "name": "Lauren Drewery", "roles_in_work": [{"id": 2794892, "title": "The XPT East Coast journey", "work_id": 88011, "role": "producer/director", "role_id": 31, "is_primary": true}], "also_known_as": "", "date_of_birth": "", "date_of_death": "", "genders": [], "languages": [], "places_of_operation": [], "biography": "", "biography_author": null, "date_of_biography": "2023-05-09T20:03:57.393860+10:00", "external_links": [], "uuid": "139ca084-7a5b-453f-8336-05d907ff282e", "source": {"name": "Vernon", "slug": "vernon"}, "source_identifier": "23537", "external_references": [{"id": 50734, "source": {"name": "Wikidata", "slug": "wikidata"}, "source_identifier": "Q121361102"}], "date_modified": "2025-03-14T20:28:39.681661+11:00"}, {"id": 78737, "name": "Silent Partners", "roles_in_work": [{"id": 2794887, "title": "The XPT East Coast journey", "work_id": 88011, "role": "distributor", "role_id": 437, "is_primary": false}, {"id": 2794895, "title": "The Queenslander: tales of the tropical north", "work_id": 88012, "role": "distributor", "role_id": 437, "is_primary": false}, {"id": 2794902, "title": "The Indian Pacific", "work_id": 88013, "role": "distributor", "role_id": 437, "is_primary": false}, {"id": 2794911, "title": "Collected stories of the XPT", "work_id": 88014, "role": "distributor", "role_id": 437, "is_primary": false}, {"id": 2794921, "title": "Three trains north", "work_id": 88015, "role": "distributor", "role_id": 437, "is_primary": false}, {"id": 2794929, "title": "Great train journeys of Australia", "work_id": 115507, "role": "distributor", "role_id": 437, "is_primary": false}], "also_known_as": "", "date_of_birth": "", "date_of_death": "", "genders": [], "languages": [], "places_of_operation": [], "biography": "", "biography_author": null, "date_of_biography": "2023-05-09T20:04:08.606182+10:00", "external_links": [], "uuid": "436d9dbc-d71f-4f6e-b32c-5745af6e7e61", "source": {"name": "Vernon", "slug": "vernon"}, "source_identifier": "30748", "external_references": [], "date_modified": "2025-03-14T20:28:50.491240+11:00"}, {"id": 78736, "name": "Vic Finch", "roles_in_work": [{"id": 907528, "title": "Here come the teletubbies", "work_id": 87997, "role": "co-director", "role_id": 959, "is_primary": true}, {"id": 2172058, "title": "Dance with teletubbies", "work_id": 88063, "role": "co-director", "role_id": 959, "is_primary": true}], "also_known_as": "", "date_of_birth": "", "date_of_death": "", "genders": [], "languages": [], "places_of_operation": [], "biography": "", "biography_author": null, "date_of_biography": "2023-05-09T14:37:35.243631+10:00", "external_links": [], "uuid": "065dc9a3-1924-49c7-84de-92057aedbfb1", "source": {"name": "Vernon", "slug": "vernon"}, "source_identifier": "30084", "external_references": [{"id": 36953, "source": {"name": "Wikidata", "slug": "wikidata"}, "source_identifier": "Q121036870"}], "date_modified": "2023-09-06T02:04:08.972442+10:00"}, {"id": 78735, "name": "Brian Clemens", "roles_in_work": [{"id": 2196243, "title": "Doctor Jekyll and sister Hyde", "work_id": 87990, "role": "co-producer", "role_id": 915, "is_primary": true}, {"id": 2328845, "title": "The Avengers. Vol. 01", "work_id": 85406, "role": "co-producer", "role_id": 915, "is_primary": true}], "also_known_as": "", "date_of_birth": "", "date_of_death": "", "genders": [], "languages": [], "places_of_operation": [], "biography": "", "biography_author": null, "date_of_biography": "2023-05-09T19:22:54.616174+10:00", "external_links": [], "uuid": "e40cbdf1-07f0-405d-a9dd-5ac3b50e1905", "source": {"name": "Vernon", "slug": "vernon"}, "source_identifier": "16204", "external_references": [{"id": 32787, "source": {"name": "Wikidata", "slug": "wikidata"}, "source_identifier": "Q121270669"}], "date_modified": "2023-09-05T18:09:43.050387+10:00"}, {"id": 78734, "name": "Robert McDonnell", "roles_in_work": [{"id": 2283232, "title": "Twice dead", "work_id": 87989, "role": "co-producer", "role_id": 915, "is_primary": true}], "also_known_as": "", "date_of_birth": "", "date_of_death": "", "genders": [], "languages": [], "places_of_operation": [], "biography": "", "biography_author": null, "date_of_biography": "2023-05-09T18:05:00.351590+10:00", "external_links": [], "uuid": "f90fea05-2d7b-4bbb-999a-3245ae3d1d51", "source": {"name": "Vernon", "slug": "vernon"}, "source_identifier": "27830", "external_references": [{"id": 37223, "source": {"name": "Wikidata", "slug": "wikidata"}, "source_identifier": "Q121091375"}], "date_modified": "2023-09-06T00:44:26.473243+10:00"}]}