{"count": 28687, "next": "https://api.acmi.net.au/creators/?page=233", "previous": "https://api.acmi.net.au/creators/?page=231", "results": [{"id": 83287, "name": "Marc Le Pelletier", "roles_in_work": [{"id": 3105204, "title": "Martin Roumagnac = the Room Upstairs", "work_id": 116298, "role": "producer", "role_id": 1089, "is_primary": true}], "also_known_as": "", "date_of_birth": "", "date_of_death": "", "genders": [], "languages": [], "places_of_operation": [], "biography": "", "biography_author": null, "date_of_biography": "2023-05-09T14:01:00.812461+10:00", "external_links": [], "uuid": "08a702c4-8533-4190-a02a-b30f33274a7c", "source": {"name": "Vernon", "slug": "vernon"}, "source_identifier": "31301", "external_references": [{"id": 36777, "source": {"name": "Wikidata", "slug": "wikidata"}, "source_identifier": "Q121299229"}], "date_modified": "2025-05-22T23:00:25.803639+10:00"}, {"id": 83286, "name": "Maurice Dugowson", "roles_in_work": [{"id": 3105203, "title": "Lily Aime Moi = Lily, Love Me", "work_id": 116297, "role": "director", "role_id": 938, "is_primary": true}], "also_known_as": "", "date_of_birth": "1938-09-23", "date_of_death": "1999-11-11", "genders": [{"id": 9, "name": "Male", "slug": "male"}], "languages": [{"id": 4, "name": "French", "slug": "french"}], "places_of_operation": [{"id": 17, "name": "France", "slug": "france"}], "biography": "Maurice Dugowson (23 September 1938 – 11 November 1999) was a French film director and screenwriter. His 1975 film Lily, aime-moi was entered into the 25th Berlin International Film Festival. The following year, his film F comme Fairbanks was entered into the 26th Berlin International Film Festival. In 1981 his film Bye, See You Monday was entered into the 12th Moscow International Film Festival.", "biography_author": "Wikidata", "date_of_biography": "2023-09-05T22:56:06.996244+10:00", "external_links": [{"id": 2675, "uri": "https://en.wikipedia.org/wiki/Maurice_Dugowson"}], "uuid": "1ec9b0b8-c207-4ff5-beea-14022e7d33be", "source": {"name": "Vernon", "slug": "vernon"}, "source_identifier": "31300", "external_references": [{"id": 11423, "source": {"name": "Wikidata", "slug": "wikidata"}, "source_identifier": "Q606929"}, {"id": 11424, "source": {"name": "VIAF", "slug": "viaf"}, "source_identifier": "54332255"}, {"id": 11425, "source": {"name": "LOC Auth", "slug": "loc-auth"}, "source_identifier": "no2003072911"}, {"id": 11426, "source": {"name": "WorldCat", "slug": "worldcat"}, "source_identifier": "lccn-no2003072911"}], "date_modified": "2025-05-22T23:00:24.950100+10:00"}, {"id": 83285, "name": "Andre Haguet", "roles_in_work": [{"id": 3105232, "title": "Il Est Minuit, Docteur Schweitzer", "work_id": 116312, "role": "director", "role_id": 938, "is_primary": true}, {"id": 3105197, "title": "Le Chevalier de Pardaillan", "work_id": 116295, "role": "producer", "role_id": 1089, "is_primary": true}], "also_known_as": "", "date_of_birth": "", "date_of_death": "", "genders": [], "languages": [], "places_of_operation": [], "biography": "", "biography_author": null, "date_of_biography": "2023-08-11T19:20:02.720224+10:00", "external_links": [], "uuid": "963a85fe-5573-4472-94da-01feee18dce6", "source": {"name": "Vernon", "slug": "vernon"}, "source_identifier": "31299", "external_references": [], "date_modified": "2025-05-22T23:00:44.719753+10:00"}, {"id": 83284, "name": "Andre Legrand", "roles_in_work": [{"id": 3105196, "title": "Le Chevalier de Pardaillan", "work_id": 116295, "role": "producer", "role_id": 1089, "is_primary": true}], "also_known_as": "", "date_of_birth": "", "date_of_death": "", "genders": [], "languages": [], "places_of_operation": [], "biography": "", "biography_author": null, "date_of_biography": "2023-08-11T19:20:02.080666+10:00", "external_links": [], "uuid": "b39eec55-6c6a-4c97-acae-ff36238ef515", "source": {"name": "Vernon", "slug": "vernon"}, "source_identifier": "31298", "external_references": [{"id": 39004, "source": {"name": "Wikidata", "slug": "wikidata"}, "source_identifier": "Q121034302"}], "date_modified": "2025-05-22T23:00:20.095733+10:00"}, {"id": 83283, "name": "Raymond Gautreau", "roles_in_work": [{"id": 3105191, "title": "Aladin et la Lampe Merveilleuse", "work_id": 116293, "role": "producer", "role_id": 1089, "is_primary": true}], "also_known_as": "", "date_of_birth": "", "date_of_death": "", "genders": [], "languages": [], "places_of_operation": [], "biography": "", "biography_author": null, "date_of_biography": "2023-05-09T11:54:23.622102+10:00", "external_links": [], "uuid": "6991ab60-4ed5-479a-bfff-150ee09dbcf2", "source": {"name": "Vernon", "slug": "vernon"}, "source_identifier": "31297", "external_references": [{"id": 38534, "source": {"name": "Wikidata", "slug": "wikidata"}, "source_identifier": "Q121035772"}], "date_modified": "2025-05-22T23:00:16.496827+10:00"}, {"id": 83282, "name": "Rene Pigneres", "roles_in_work": [{"id": 3105188, "title": "La Loi du Survivant = Law of the Survivor (Cinemascope Print", "work_id": 116292, "role": "producer", "role_id": 1089, "is_primary": true}], "also_known_as": "", "date_of_birth": null, "date_of_death": null, "genders": [], "languages": [], "places_of_operation": [], "biography": "", "biography_author": null, "date_of_biography": null, "external_links": [], "uuid": "d0fe496b-944a-4e0c-a5fc-b4f0c5b5b668", "source": {"name": "Vernon", "slug": "vernon"}, "source_identifier": "31296", "external_references": [{"id": 32610, "source": {"name": "Wikidata", "slug": "wikidata"}, "source_identifier": "Q121035392"}], "date_modified": "2025-05-22T23:00:14.390808+10:00"}, {"id": 83281, "name": "Andree Debar", "roles_in_work": [{"id": 3105186, "title": "La Poursuite = Just a King's Second (Cinemascope Print)", "work_id": 116291, "role": "producer", "role_id": 1089, "is_primary": true}], "also_known_as": "", "date_of_birth": null, "date_of_death": null, "genders": [], "languages": [], "places_of_operation": [], "biography": "", "biography_author": null, "date_of_biography": null, "external_links": [], "uuid": "8a7058b6-af25-4ef0-89a6-03dca3e0f1ea", "source": {"name": "Vernon", "slug": "vernon"}, "source_identifier": "31295", "external_references": [{"id": 39643, "source": {"name": "Wikidata", "slug": "wikidata"}, "source_identifier": "Q121035784"}], "date_modified": "2025-05-22T23:00:12.905666+10:00"}, {"id": 83280, "name": "Jean Giono", "roles_in_work": [{"id": 3105185, "title": "La Poursuite = Just a King's Second (Cinemascope Print)", "work_id": 116291, "role": "producer", "role_id": 1089, "is_primary": true}], "also_known_as": "", "date_of_birth": null, "date_of_death": null, "genders": [], "languages": [], "places_of_operation": [], "biography": "", "biography_author": null, "date_of_biography": null, "external_links": [], "uuid": "bd42c315-8d39-43d8-9aa2-266cc1674d87", "source": {"name": "Vernon", "slug": "vernon"}, "source_identifier": "31294", "external_references": [{"id": 39624, "source": {"name": "Wikidata", "slug": "wikidata"}, "source_identifier": "Q121034747"}], "date_modified": "2025-05-22T23:00:12.303451+10:00"}, {"id": 83279, "name": "Edouard Niermans", "roles_in_work": [{"id": 3105184, "title": "Poussiere D'ange = Angel Dust", "work_id": 116290, "role": "director", "role_id": 938, "is_primary": true}], "also_known_as": "", "date_of_birth": "10 NOV 1943", "date_of_death": "", "genders": [{"id": 9, "name": "Male", "slug": "male"}], "languages": [{"id": 4, "name": "French", "slug": "french"}], "places_of_operation": [{"id": 17, "name": "France", "slug": "france"}], "biography": "Édouard Niermans (born 10 November 1943) is a French film director, screenwriter and actor. His film The Return of Casanova was entered into the 1992 Cannes Film Festival. Source: Wikidata; 01/08/2023", "biography_author": null, "date_of_biography": "2025-05-22T23:00:11.423909+10:00", "external_links": [{"id": 1969, "uri": "https://en.wikipedia.org/wiki/%C3%89douard_Niermans_(director)"}], "uuid": "b819bb10-7825-4e19-b614-8232b3603751", "source": {"name": "Vernon", "slug": "vernon"}, "source_identifier": "31293", "external_references": [{"id": 8520, "source": {"name": "Wikidata", "slug": "wikidata"}, "source_identifier": "Q274416"}, {"id": 8521, "source": {"name": "VIAF", "slug": "viaf"}, "source_identifier": "34652763"}, {"id": 8522, "source": {"name": "LOC Auth", "slug": "loc-auth"}, "source_identifier": "no2007013304"}, {"id": 8523, "source": {"name": "WorldCat", "slug": "worldcat"}, "source_identifier": "lccn-no2007013304"}], "date_modified": "2025-05-22T23:00:11.424157+10:00"}, {"id": 83278, "name": "Maurice Ronet", "roles_in_work": [{"id": 3105182, "title": "Bartleby", "work_id": 116288, "role": "director", "role_id": 938, "is_primary": true}], "also_known_as": "Maurice Julien Marie Robinet", "date_of_birth": "13 APR 1927", "date_of_death": "14 MAR 1983", "genders": [{"id": 9, "name": "Male", "slug": "male"}], "languages": [{"id": 4, "name": "French", "slug": "french"}], "places_of_operation": [{"id": 17, "name": "France", "slug": "france"}], "biography": "Maurice Ronet (13 April 1927 – 14 March 1983) was a French film actor, director, and writer. Source: Wikidata; 01/08/2023", "biography_author": null, "date_of_biography": "2025-05-22T23:00:09.657979+10:00", "external_links": [{"id": 2677, "uri": "https://en.wikipedia.org/wiki/Maurice_Ronet"}], "uuid": "db4cba49-78c5-4637-b706-cc891364335c", "source": {"name": "Vernon", "slug": "vernon"}, "source_identifier": "31292", "external_references": [{"id": 11428, "source": {"name": "Wikidata", "slug": "wikidata"}, "source_identifier": "Q965584"}, {"id": 11429, "source": {"name": "VIAF", "slug": "viaf"}, "source_identifier": "74038782"}, {"id": 11430, "source": {"name": "LOC Auth", "slug": "loc-auth"}, "source_identifier": "no97022636"}, {"id": 11431, "source": {"name": "WorldCat", "slug": "worldcat"}, "source_identifier": "lccn-no97022636"}], "date_modified": "2025-05-22T23:00:09.658299+10:00"}]}