{"count": 28687, "next": "https://api.acmi.net.au/creators/?page=1713", "previous": "https://api.acmi.net.au/creators/?page=1711", "results": [{"id": 28364, "name": "GEO Wildlife Documentaries", "roles_in_work": [{"id": 2401649, "title": "Australia's remarkable wildlife", "work_id": 86340, "role": "distributor", "role_id": 437, "is_primary": false}, {"id": 2401608, "title": "Australia's birds : Woodlands", "work_id": 86339, "role": "distributor", "role_id": 437, "is_primary": false}, {"id": 2401658, "title": "Australia's wonderful wildlife", "work_id": 86356, "role": "distributor", "role_id": 437, "is_primary": false}, {"id": 2401625, "title": "Australia's birds: Wetlands", "work_id": 86338, "role": "distributor", "role_id": 437, "is_primary": false}, {"id": 2401585, "title": "Australia's birds : Oceans", "work_id": 86352, "role": "distributor", "role_id": 437, "is_primary": false}, {"id": 2401609, "title": "Australia's birds : Woodlands", "work_id": 86339, "role": "production company", "role_id": 941, "is_primary": true}, {"id": 2401586, "title": "Australia's birds : Oceans", "work_id": 86352, "role": "production company", "role_id": 941, "is_primary": true}, {"id": 2401650, "title": "Australia's remarkable wildlife", "work_id": 86340, "role": "production company", "role_id": 941, "is_primary": true}, {"id": 2401626, "title": "Australia's birds: Wetlands", "work_id": 86338, "role": "production company", "role_id": 941, "is_primary": true}, {"id": 2401659, "title": "Australia's wonderful wildlife", "work_id": 86356, "role": "production company", "role_id": 941, "is_primary": true}], "also_known_as": "", "date_of_birth": "", "date_of_death": "", "genders": [], "languages": [], "places_of_operation": [], "biography": "", "biography_author": null, "date_of_biography": "2023-08-11T14:29:09.758674+10:00", "external_links": [], "uuid": "0870034e-47b1-44d4-a50b-6701b17707ab", "source": {"name": "Vernon", "slug": "vernon"}, "source_identifier": "8695", "external_references": [], "date_modified": "2023-08-11T14:29:09.759039+10:00"}, {"id": 28362, "name": "Henry Cass", "roles_in_work": [{"id": 2615892, "title": "Julius Caesar [Excerpts]", "work_id": 86334, "role": "director", "role_id": 938, "is_primary": true}], "also_known_as": "", "date_of_birth": null, "date_of_death": null, "genders": [], "languages": [], "places_of_operation": [], "biography": "", "biography_author": null, "date_of_biography": null, "external_links": [], "uuid": "24e4f731-da26-4ca0-994a-ca53f0700dae", "source": {"name": "Vernon", "slug": "vernon"}, "source_identifier": "20477", "external_references": [], "date_modified": "2025-02-26T20:31:13.584433+11:00"}, {"id": 28361, "name": "Rastar Films", "roles_in_work": [{"id": 2303569, "title": "Smokey and the bandit", "work_id": 92633, "role": "production company", "role_id": 941, "is_primary": true}, {"id": 2097753, "title": "Annie", "work_id": 86333, "role": "production company", "role_id": 941, "is_primary": true}, {"id": 1997161, "title": "Peggy Sue got married", "work_id": 93147, "role": "production company", "role_id": 941, "is_primary": true}, {"id": 1998696, "title": "Harriet the spy", "work_id": 93998, "role": "production company", "role_id": 941, "is_primary": true}, {"id": 909645, "title": "My best friends wedding. Steel magnolias", "work_id": 90393, "role": "production company", "role_id": 941, "is_primary": true}], "also_known_as": "", "date_of_birth": "", "date_of_death": "", "genders": [], "languages": [], "places_of_operation": [], "biography": "", "biography_author": null, "date_of_biography": "2023-05-09T18:41:18.861633+10:00", "external_links": [], "uuid": "68c025d4-04f4-4073-9bc1-221e53e5a3c2", "source": {"name": "Vernon", "slug": "vernon"}, "source_identifier": "11868", "external_references": [], "date_modified": "2023-06-14T16:33:30.576250+10:00"}, {"id": 28360, "name": "ZIV International", "roles_in_work": [{"id": 2202028, "title": "Peter Cottontail", "work_id": 86628, "role": "production company", "role_id": 941, "is_primary": true}, {"id": 2198961, "title": "Don Quixote in the tales of La Mancha", "work_id": 86332, "role": "production company", "role_id": 941, "is_primary": true}, {"id": 2794056, "title": "King Arthur & the knights of the round table", "work_id": 87042, "role": "production company", "role_id": 941, "is_primary": true}], "also_known_as": "", "date_of_birth": "", "date_of_death": "", "genders": [], "languages": [], "places_of_operation": [], "biography": "", "biography_author": null, "date_of_biography": "2023-05-09T19:20:12.065581+10:00", "external_links": [], "uuid": "ba99c116-0ae6-485b-adf6-819b6f56c4bd", "source": {"name": "Vernon", "slug": "vernon"}, "source_identifier": "14566", "external_references": [{"id": 37052, "source": {"name": "Wikidata", "slug": "wikidata"}, "source_identifier": "Q8063117"}], "date_modified": "2025-03-14T20:22:14.864984+11:00"}, {"id": 28356, "name": "Peter Sharp", "roles_in_work": [{"id": 2303736, "title": "Smuggler's Cove", "work_id": 86328, "role": "director", "role_id": 938, "is_primary": true}, {"id": 916426, "title": "The Saddle Club: adventures at Pine Hollow [DVD]", "work_id": 94830, "role": "co-director", "role_id": 959, "is_primary": true}, {"id": 911693, "title": "The Saddle Club", "work_id": 92389, "role": "co-director", "role_id": 959, "is_primary": true}], "also_known_as": "", "date_of_birth": "1954-07-16", "date_of_death": "", "genders": [{"id": 9, "name": "Male", "slug": "male"}], "languages": [], "places_of_operation": [{"id": 3, "name": "Australia", "slug": "australia"}], "biography": "Peter Sharp (born 16 July 1954) is an Australian professional rugby league coach. He was most recently the interim coach of the Cronulla-Sutherland Sharks in the National Rugby League.", "biography_author": "Wikidata", "date_of_biography": "2023-08-01T16:35:49.400129+10:00", "external_links": [{"id": 4896, "uri": "https://en.wikipedia.org/wiki/Peter_Sharp"}], "uuid": "1d02fc9f-0226-486d-8a9d-a5f75fb1a0e7", "source": {"name": "Vernon", "slug": "vernon"}, "source_identifier": "26711", "external_references": [{"id": 26960, "source": {"name": "Wikidata", "slug": "wikidata"}, "source_identifier": "Q7176884"}], "date_modified": "2023-09-06T00:00:59.120731+10:00"}, {"id": 28353, "name": "Danjaq", "roles_in_work": [{"id": 2795044, "title": "Goldfinger", "work_id": 88101, "role": "production company", "role_id": 941, "is_primary": true}, {"id": 2795033, "title": "Goldeneye (Captioned)", "work_id": 86326, "role": "production company", "role_id": 941, "is_primary": true}, {"id": 914627, "title": "The Man with the golden gun (Special edition)", "work_id": 93880, "role": "production company", "role_id": 941, "is_primary": true}, {"id": 817410, "title": "Moonraker (Special edition)", "work_id": 93884, "role": "production company", "role_id": 941, "is_primary": true}, {"id": 817399, "title": "Thunderball (Special edition)", "work_id": 93882, "role": "production company", "role_id": 941, "is_primary": true}, {"id": 2795108, "title": "A View to a kill (Special edition)", "work_id": 93883, "role": "production company", "role_id": 941, "is_primary": true}, {"id": 2795103, "title": "On Her Majesty's secret service", "work_id": 93881, "role": "production company", "role_id": 941, "is_primary": true}, {"id": 2795099, "title": "Octopussy (Special edition)", "work_id": 93879, "role": "production company", "role_id": 941, "is_primary": true}, {"id": 2795093, "title": "The World is not enough (Special edition)", "work_id": 93876, "role": "production company", "role_id": 941, "is_primary": true}, {"id": 2795089, "title": "For your eyes only (Special edition)", "work_id": 93875, "role": "production company", "role_id": 941, "is_primary": true}, {"id": 2795082, "title": "Licence to kill (Special edition)", "work_id": 93874, "role": "production company", "role_id": 941, "is_primary": true}, {"id": 2795071, "title": "Live and let die (Special edition)", "work_id": 93873, "role": "production company", "role_id": 941, "is_primary": true}, {"id": 2795066, "title": "The Living daylights (Special edition)", "work_id": 93872, "role": "production company", "role_id": 941, "is_primary": true}], "also_known_as": "", "date_of_birth": "", "date_of_death": "", "genders": [], "languages": [], "places_of_operation": [], "biography": "", "biography_author": null, "date_of_biography": "2023-05-09T18:09:10.921228+10:00", "external_links": [], "uuid": "b252860c-bb07-4b1c-b27d-aa4a4859504e", "source": {"name": "Vernon", "slug": "vernon"}, "source_identifier": "7318", "external_references": [{"id": 37774, "source": {"name": "Wikidata", "slug": "wikidata"}, "source_identifier": "Q121126230"}], "date_modified": "2025-03-14T20:30:19.948591+11:00"}, {"id": 28351, "name": "Chisholm McTavish", "roles_in_work": [{"id": 2130018, "title": "Captain Feathersword the friendly pirate", "work_id": 89714, "role": "director", "role_id": 938, "is_primary": true}, {"id": 929382, "title": "The Wiggles: Yummmy yummy. Wiggle time", "work_id": 94868, "role": "director", "role_id": 938, "is_primary": true}, {"id": 792701, "title": "The Wiggles: yummy yummy", "work_id": 86317, "role": "director", "role_id": 938, "is_primary": true}], "also_known_as": "", "date_of_birth": "", "date_of_death": "", "genders": [], "languages": [], "places_of_operation": [], "biography": "", "biography_author": null, "date_of_biography": "2023-05-09T13:18:14.501032+10:00", "external_links": [], "uuid": "b45c0532-5af4-4616-8b15-3d1a195bef68", "source": {"name": "Vernon", "slug": "vernon"}, "source_identifier": "16792", "external_references": [{"id": 37739, "source": {"name": "Wikidata", "slug": "wikidata"}, "source_identifier": "Q109648674"}, {"id": 54198, "source": {"name": "LOC Auth", "slug": "loc-auth"}, "source_identifier": "no2003049932"}], "date_modified": "2023-09-05T18:31:22.265231+10:00"}, {"id": 28349, "name": "Wiggles Touring Pty Ltd", "roles_in_work": [{"id": 929380, "title": "The Wiggles: Yummmy yummy. Wiggle time", "work_id": 94868, "role": "production company", "role_id": 941, "is_primary": true}, {"id": 792699, "title": "The Wiggles: yummy yummy", "work_id": 86317, "role": "production company", "role_id": 941, "is_primary": true}, {"id": 2130009, "title": "Captain Feathersword the friendly pirate", "work_id": 89714, "role": "production company", "role_id": 941, "is_primary": true}], "also_known_as": "", "date_of_birth": "", "date_of_death": "", "genders": [], "languages": [], "places_of_operation": [], "biography": "", "biography_author": null, "date_of_biography": "2023-05-09T13:18:14.233278+10:00", "external_links": [], "uuid": "ef88aa5c-a5c4-46d5-8c29-38a559e91d1f", "source": {"name": "Vernon", "slug": "vernon"}, "source_identifier": "13471", "external_references": [], "date_modified": "2023-06-14T16:33:30.576250+10:00"}, {"id": 28348, "name": "Cosgrove Hall Films", "roles_in_work": [{"id": 2795124, "title": "Stripey to the rescue: plus four other stories", "work_id": 88196, "role": "production company", "role_id": 941, "is_primary": true}, {"id": 2795121, "title": "The Animal shelf", "work_id": 115511, "role": "production company", "role_id": 941, "is_primary": true}, {"id": 2795132, "title": "Music in the woods: plus four other stories", "work_id": 88197, "role": "production company", "role_id": 941, "is_primary": true}, {"id": 2795141, "title": "Little mut goes flying: plus four other stories", "work_id": 88199, "role": "production company", "role_id": 941, "is_primary": true}, {"id": 2795149, "title": "Hottest day of the year: plus four other stories", "work_id": 88194, "role": "production company", "role_id": 941, "is_primary": true}, {"id": 2795157, "title": "The mystery of the pictures: plus four other stories", "work_id": 88198, "role": "production company", "role_id": 941, "is_primary": true}, {"id": 1847641, "title": "Wyrd sisters: from Terry Pratchett's discworld. Parte one", "work_id": 87183, "role": "production company", "role_id": 941, "is_primary": true}, {"id": 1847435, "title": "Oakie Doke and the orchestra", "work_id": 86316, "role": "production company", "role_id": 941, "is_primary": true}, {"id": 1847626, "title": "Wyrd sisters: from Terry Pratchett's discworld. Parte two", "work_id": 87170, "role": "production company", "role_id": 941, "is_primary": true}, {"id": 2305900, "title": "Soul Music: from Terry Pratchett's discworld. Parte two", "work_id": 87171, "role": "production company", "role_id": 941, "is_primary": true}, {"id": 2305893, "title": "Soul music: from Terry Pratchett's discworld. Parte one", "work_id": 87175, "role": "production company", "role_id": 941, "is_primary": true}, {"id": 2326955, "title": "The Magic of the faraway tree. [Vol. 1]", "work_id": 92865, "role": "production company", "role_id": 941, "is_primary": true}, {"id": 2326931, "title": "The Adventures of the wishing chair", "work_id": 92866, "role": "production company", "role_id": 941, "is_primary": true}, {"id": 2326858, "title": "The Magic of the faraway tree. [Vol. 2] = More adventures at the faraway tree", "work_id": 92864, "role": "production company", "role_id": 941, "is_primary": true}], "also_known_as": "", "date_of_birth": "", "date_of_death": "", "genders": [], "languages": [], "places_of_operation": [], "biography": "Cosgrove Hall Films (also known as Cosgrove Hall Productions) was an English animation studio founded by Brian Cosgrove and Mark Hall; its headquarters was in Chorlton-cum-Hardy, Manchester. Cosgrove Hall was once a major producer of children's television and animated programmes/films; Cosgrove Hall's programmes are still seen in over eighty countries. The company was wound down by its then owner, ITV plc, on 26 October 2009. It was mainly known for its series Danger Mouse, The Wind in the Willows, and Count Duckula.", "biography_author": "Wikidata", "date_of_biography": "2023-09-05T18:45:50.285009+10:00", "external_links": [{"id": 5761, "uri": "https://en.wikipedia.org/wiki/Cosgrove_Hall_Films"}], "uuid": "f0449b26-89fa-4da9-a3db-bb2e0fc76cb6", "source": {"name": "Vernon", "slug": "vernon"}, "source_identifier": "7096", "external_references": [{"id": 51131, "source": {"name": "Wikidata", "slug": "wikidata"}, "source_identifier": "Q5173901"}, {"id": 54235, "source": {"name": "VIAF", "slug": "viaf"}, "source_identifier": "306421822"}, {"id": 54236, "source": {"name": "WorldCat", "slug": "worldcat"}, "source_identifier": "viaf-306421822"}], "date_modified": "2025-03-14T20:30:40.571195+11:00"}, {"id": 28347, "name": "Richard Slapczynski", "roles_in_work": [{"id": 2748977, "title": "Georgie to the rescue", "work_id": 96577, "role": "director", "role_id": 938, "is_primary": true}, {"id": 870464, "title": "Oliver Twist", "work_id": 86305, "role": "director", "role_id": 938, "is_primary": true}], "also_known_as": "", "date_of_birth": "", "date_of_death": "", "genders": [], "languages": [], "places_of_operation": [], "biography": "", "biography_author": null, "date_of_biography": "2023-08-11T17:00:34.852502+10:00", "external_links": [], "uuid": "d13bd52a-ebee-4a93-8c75-889a11b69bee", "source": {"name": "Vernon", "slug": "vernon"}, "source_identifier": "27511", "external_references": [], "date_modified": "2025-03-12T23:51:01.845677+11:00"}]}