{"count": 28681, "next": "https://api.acmi.net.au/creators/?page=748", "previous": "https://api.acmi.net.au/creators/?page=746", "results": [{"id": 78109, "name": "Umberto Scarpelli", "roles_in_work": [{"id": 2650497, "title": "Ladri di biciclette = Bicycle thieves", "work_id": 115714, "role": "producer", "role_id": 1089, "is_primary": true}, {"id": 2331188, "title": "The Bicycle thieves = Ladri di biciclette", "work_id": 85852, "role": "production manager", "role_id": 934, "is_primary": false}], "also_known_as": "", "date_of_birth": "", "date_of_death": "", "genders": [], "languages": [], "places_of_operation": [], "biography": "", "biography_author": null, "date_of_biography": "2023-05-09T19:25:47.244888+10:00", "external_links": [], "uuid": "37d2dfab-80ef-494e-aaa4-d26f8a17361e", "source": {"name": "Vernon", "slug": "vernon"}, "source_identifier": "30976", "external_references": [{"id": 43385, "source": {"name": "Wikidata", "slug": "wikidata"}, "source_identifier": "Q121143714"}], "date_modified": "2025-03-05T14:20:38.031851+11:00"}, {"id": 78108, "name": "Valek Sadovchikoff", "roles_in_work": [{"id": 791167, "title": "Moving pictures as text", "work_id": 85850, "role": "producer/director", "role_id": 31, "is_primary": true}], "also_known_as": "", "date_of_birth": null, "date_of_death": null, "genders": [], "languages": [], "places_of_operation": [], "biography": "", "biography_author": null, "date_of_biography": null, "external_links": [], "uuid": "8f6f810e-5410-412f-a0d1-3734e816329e", "source": {"name": "Vernon", "slug": "vernon"}, "source_identifier": null, "external_references": [{"id": 52184, "source": {"name": "Wikidata", "slug": "wikidata"}, "source_identifier": "Q121361167"}], "date_modified": "2023-09-06T02:02:38.788734+10:00"}, {"id": 78107, "name": "Tracey Fisher", "roles_in_work": [{"id": 2793666, "title": "Margaret Atwood", "work_id": 85849, "role": "producer/director", "role_id": 31, "is_primary": true}], "also_known_as": "", "date_of_birth": null, "date_of_death": null, "genders": [], "languages": [], "places_of_operation": [], "biography": "", "biography_author": null, "date_of_biography": null, "external_links": [], "uuid": "25e9db4b-1593-49e3-8fd5-ddde1f15c6eb", "source": {"name": "Vernon", "slug": "vernon"}, "source_identifier": null, "external_references": [{"id": 52164, "source": {"name": "Wikidata", "slug": "wikidata"}, "source_identifier": "Q121361462"}], "date_modified": "2023-09-06T01:57:55.020649+10:00"}, {"id": 78106, "name": "Tali", "roles_in_work": [{"id": 905095, "title": "Under the weather = A L'ombre", "work_id": 85848, "role": "director", "role_id": 938, "is_primary": true}], "also_known_as": "", "date_of_birth": null, "date_of_death": null, "genders": [{"id": 5, "name": "Female", "slug": "female"}], "languages": [], "places_of_operation": [{"id": 36, "name": "Canada", "slug": "canada"}], "biography": "", "biography_author": null, "date_of_biography": null, "external_links": [], "uuid": "044284cc-3104-44e4-b697-e6c48c982978", "source": {"name": "Vernon", "slug": "vernon"}, "source_identifier": null, "external_references": [{"id": 13459, "source": {"name": "Wikidata", "slug": "wikidata"}, "source_identifier": "Q49826204"}, {"id": 13460, "source": {"name": "VIAF", "slug": "viaf"}, "source_identifier": "106201471"}, {"id": 13461, "source": {"name": "WorldCat", "slug": "worldcat"}, "source_identifier": "lccn-nr90017849"}], "date_modified": "2023-09-06T01:40:51.487286+10:00"}, {"id": 78105, "name": "Don Letts", "roles_in_work": [{"id": 2792552, "title": "Make it funky. Planet rock.", "work_id": 85841, "role": "co-director", "role_id": 959, "is_primary": true}, {"id": 2172073, "title": "Dancehall queen [DVD]", "work_id": 93632, "role": "co-director", "role_id": 959, "is_primary": true}], "also_known_as": "", "date_of_birth": "1956-01-10", "date_of_death": "", "genders": [{"id": 9, "name": "Male", "slug": "male"}], "languages": [{"id": 1, "name": "English", "slug": "english"}], "places_of_operation": [{"id": 10, "name": "United Kingdom", "slug": "united-kingdom"}], "biography": "Donovan Letts (born 10 January 1956) is a British film director, disc jockey (DJ) and musician. Letts first came to prominence as the videographer for the Clash, directing several of their music videos. In 1984, Letts co-founded the band Big Audio Dynamite with former Clash lead guitarist and co-lead vocalist Mick Jones, acting as the band's sampler and videographer before departing the band in 1990.\nLetts has also directed music videos for Musical Youth, the Psychedelic Furs, Fun Boy Three, the Pretenders and Elvis Costello as well as the feature documentaries The Punk Rock Movie (1978) and The Clash: Westway to the World (2000).", "biography_author": "Wikidata", "date_of_biography": "2023-09-05T19:15:24.866842+10:00", "external_links": [{"id": 5782, "uri": "https://en.wikipedia.org/wiki/Don_Letts"}], "uuid": "0a7e4311-0de7-48cd-8f73-d15e2274d87b", "source": {"name": "Vernon", "slug": "vernon"}, "source_identifier": "18225", "external_references": [{"id": 51093, "source": {"name": "Wikidata", "slug": "wikidata"}, "source_identifier": "Q983530"}, {"id": 54331, "source": {"name": "VIAF", "slug": "viaf"}, "source_identifier": "64213562"}, {"id": 54332, "source": {"name": "LOC Auth", "slug": "loc-auth"}, "source_identifier": "no95060509"}, {"id": 54333, "source": {"name": "WorldCat", "slug": "worldcat"}, "source_identifier": "lccn-no95060509"}], "date_modified": "2025-03-14T20:10:24.084146+11:00"}, {"id": 78104, "name": "Yvonne Smith", "roles_in_work": [{"id": 2792551, "title": "Make it funky. Planet rock.", "work_id": 85841, "role": "co-director", "role_id": 959, "is_primary": true}], "also_known_as": "", "date_of_birth": "", "date_of_death": "", "genders": [], "languages": [], "places_of_operation": [], "biography": "", "biography_author": null, "date_of_biography": "2023-05-09T14:38:07.254032+10:00", "external_links": [], "uuid": "a1749a31-e64a-4fbb-81b3-782fc563e6b4", "source": {"name": "Vernon", "slug": "vernon"}, "source_identifier": "30652", "external_references": [{"id": 41722, "source": {"name": "Wikidata", "slug": "wikidata"}, "source_identifier": "Q121336984"}], "date_modified": "2025-03-14T20:10:23.510339+11:00"}, {"id": 78103, "name": "Mick Conefrey", "roles_in_work": [{"id": 2792542, "title": "Crossroads. Eight miles high", "work_id": 85839, "role": "co-director", "role_id": 959, "is_primary": true}], "also_known_as": "", "date_of_birth": "", "date_of_death": "", "genders": [], "languages": [], "places_of_operation": [], "biography": "", "biography_author": null, "date_of_biography": "2023-05-09T14:38:02.086170+10:00", "external_links": [], "uuid": "f9f68b20-bc96-48ab-8609-132c495015b1", "source": {"name": "Vernon", "slug": "vernon"}, "source_identifier": "25318", "external_references": [{"id": 42762, "source": {"name": "Wikidata", "slug": "wikidata"}, "source_identifier": "Q121337175"}], "date_modified": "2025-03-14T20:10:18.719411+11:00"}, {"id": 78102, "name": "Alan Lewens", "roles_in_work": [{"id": 2792541, "title": "Crossroads. Eight miles high", "work_id": 85839, "role": "co-director", "role_id": 959, "is_primary": true}, {"id": 2614549, "title": "Maria Callas: life and art", "work_id": 83886, "role": "co-producers/directors", "role_id": 628, "is_primary": true}], "also_known_as": "", "date_of_birth": "", "date_of_death": "", "genders": [], "languages": [], "places_of_operation": [], "biography": "", "biography_author": null, "date_of_biography": "2023-05-09T14:38:01.856994+10:00", "external_links": [], "uuid": "6ff25786-6ca2-4fba-8263-bc42ffefeae5", "source": {"name": "Vernon", "slug": "vernon"}, "source_identifier": "14775", "external_references": [{"id": 36449, "source": {"name": "Wikidata", "slug": "wikidata"}, "source_identifier": "Q121091366"}], "date_modified": "2025-03-14T20:10:18.142424+11:00"}, {"id": 78101, "name": "Karen Walsh", "roles_in_work": [{"id": 2792540, "title": "Crossroads. Eight miles high", "work_id": 85839, "role": "co-director", "role_id": 959, "is_primary": true}], "also_known_as": "", "date_of_birth": "", "date_of_death": "", "genders": [], "languages": [], "places_of_operation": [], "biography": "", "biography_author": null, "date_of_biography": "2023-05-09T14:38:01.635788+10:00", "external_links": [], "uuid": "083faaf5-76cc-4493-82bc-6acab76636e2", "source": {"name": "Vernon", "slug": "vernon"}, "source_identifier": "23013", "external_references": [{"id": 41507, "source": {"name": "Wikidata", "slug": "wikidata"}, "source_identifier": "Q121144066"}], "date_modified": "2025-03-14T20:10:17.564382+11:00"}, {"id": 78100, "name": "High Thomson", "roles_in_work": [{"id": 2792539, "title": "Crossroads. Eight miles high", "work_id": 85839, "role": "producer", "role_id": 1089, "is_primary": true}], "also_known_as": "", "date_of_birth": "", "date_of_death": "", "genders": [], "languages": [], "places_of_operation": [], "biography": "", "biography_author": null, "date_of_biography": "2023-05-09T14:38:01.414401+10:00", "external_links": [], "uuid": "b65f87b0-41df-46bd-974d-1a2a323e9403", "source": {"name": "Vernon", "slug": "vernon"}, "source_identifier": "20550", "external_references": [{"id": 39142, "source": {"name": "Wikidata", "slug": "wikidata"}, "source_identifier": "Q121315188"}], "date_modified": "2025-03-14T20:10:16.989726+11:00"}]}