{"count": 28687, "next": "https://api.acmi.net.au/creators/?page=1035", "previous": "https://api.acmi.net.au/creators/?page=1033", "results": [{"id": 75242, "name": "Melvin Sloan", "roles_in_work": [{"id": 2245735, "title": "Recycled reflections", "work_id": 72097, "role": "producer/director", "role_id": 31, "is_primary": true}], "also_known_as": "", "date_of_birth": "", "date_of_death": "", "genders": [], "languages": [], "places_of_operation": [], "biography": "", "biography_author": null, "date_of_biography": "2023-05-09T17:02:28.158052+10:00", "external_links": [], "uuid": "460c772b-a19b-4f41-8fb5-d07209ad33ee", "source": {"name": "Vernon", "slug": "vernon"}, "source_identifier": "24937", "external_references": [{"id": 51187, "source": {"name": "Wikidata", "slug": "wikidata"}, "source_identifier": "Q121360747"}], "date_modified": "2023-09-05T23:00:16.455989+10:00"}, {"id": 75241, "name": "Philip Howe", "roles_in_work": [{"id": 895571, "title": "The Real Robinson Crusoe", "work_id": 72082, "role": "co-director", "role_id": 959, "is_primary": true}, {"id": 2774616, "title": "What do you really do for a job? = [May Day]", "work_id": 83480, "role": "co-producer", "role_id": 915, "is_primary": true}], "also_known_as": "", "date_of_birth": "", "date_of_death": "", "genders": [], "languages": [], "places_of_operation": [], "biography": "", "biography_author": null, "date_of_biography": "2023-05-09T19:29:46.962374+10:00", "external_links": [], "uuid": "b10a90ed-e7ed-42fd-a4b9-e16249d52878", "source": {"name": "Vernon", "slug": "vernon"}, "source_identifier": "26823", "external_references": [{"id": 36289, "source": {"name": "Wikidata", "slug": "wikidata"}, "source_identifier": "Q121036943"}], "date_modified": "2025-03-14T18:38:32.845108+11:00"}, {"id": 75240, "name": "Mike Gibbon", "roles_in_work": [{"id": 895570, "title": "The Real Robinson Crusoe", "work_id": 72082, "role": "co-director", "role_id": 959, "is_primary": true}], "also_known_as": "", "date_of_birth": null, "date_of_death": null, "genders": [], "languages": [], "places_of_operation": [], "biography": "", "biography_author": null, "date_of_biography": null, "external_links": [], "uuid": "a72dbd37-c59f-4119-ad46-1dfc184a4eea", "source": {"name": "Vernon", "slug": "vernon"}, "source_identifier": null, "external_references": [{"id": 37647, "source": {"name": "Wikidata", "slug": "wikidata"}, "source_identifier": "Q121091146"}], "date_modified": "2023-09-05T23:14:49.328598+10:00"}, {"id": 75239, "name": "Gilles Therien", "roles_in_work": [{"id": 2290833, "title": "Two years or more", "work_id": 74131, "role": "director", "role_id": 938, "is_primary": true}, {"id": 2236348, "title": "Ratopolis", "work_id": 72061, "role": "director", "role_id": 938, "is_primary": true}], "also_known_as": "", "date_of_birth": "", "date_of_death": "", "genders": [], "languages": [], "places_of_operation": [], "biography": "", "biography_author": null, "date_of_biography": "2023-05-09T18:18:55.493981+10:00", "external_links": [], "uuid": "1ff1c587-cce1-409e-a1f5-9789c3b69339", "source": {"name": "Vernon", "slug": "vernon"}, "source_identifier": "19833", "external_references": [{"id": 40898, "source": {"name": "Wikidata", "slug": "wikidata"}, "source_identifier": "Q121035402"}], "date_modified": "2023-09-05T20:13:11.283098+10:00"}, {"id": 75238, "name": "Richard Cullather", "roles_in_work": [{"id": 2235626, "title": "Rape. Part 2. Providing the proof", "work_id": 72056, "role": "co-producer", "role_id": 915, "is_primary": true}, {"id": 2235602, "title": "Rape. Part 1. Problems in proof", "work_id": 72055, "role": "co-producer", "role_id": 915, "is_primary": true}], "also_known_as": "", "date_of_birth": "", "date_of_death": "", "genders": [], "languages": [], "places_of_operation": [], "biography": "", "biography_author": null, "date_of_biography": "2023-05-09T16:45:22.984412+10:00", "external_links": [], "uuid": "b69ff1f1-c38e-4ebc-8beb-a0a96df69c23", "source": {"name": "Vernon", "slug": "vernon"}, "source_identifier": "27317", "external_references": [{"id": 37465, "source": {"name": "Wikidata", "slug": "wikidata"}, "source_identifier": "Q121223479"}], "date_modified": "2023-09-06T00:28:35.839886+10:00"}, {"id": 75237, "name": "Karen Smith", "roles_in_work": [{"id": 2235599, "title": "Rape. Part 1. Problems in proof", "work_id": 72055, "role": "co-producer", "role_id": 915, "is_primary": true}, {"id": 2235623, "title": "Rape. Part 2. Providing the proof", "work_id": 72056, "role": "co-producer", "role_id": 915, "is_primary": true}], "also_known_as": "", "date_of_birth": "", "date_of_death": "", "genders": [], "languages": [], "places_of_operation": [], "biography": "", "biography_author": null, "date_of_biography": "2023-05-09T16:45:22.439711+10:00", "external_links": [], "uuid": "566b67f2-1589-4d99-828f-c231e7436304", "source": {"name": "Vernon", "slug": "vernon"}, "source_identifier": "23003", "external_references": [{"id": 32280, "source": {"name": "Wikidata", "slug": "wikidata"}, "source_identifier": "Q121126839"}], "date_modified": "2023-09-05T22:00:03.519905+10:00"}, {"id": 75236, "name": "G Roy Levin", "roles_in_work": [{"id": 2235917, "title": "Raku: the ancient art of Japanese ceramics", "work_id": 72053, "role": "co-producers/directors", "role_id": 628, "is_primary": true}], "also_known_as": "", "date_of_birth": "", "date_of_death": "", "genders": [], "languages": [], "places_of_operation": [], "biography": "", "biography_author": null, "date_of_biography": "2023-05-09T16:45:53.638985+10:00", "external_links": [], "uuid": "71b92371-7843-4ffa-82f6-7d5482f2334e", "source": {"name": "Vernon", "slug": "vernon"}, "source_identifier": "19322", "external_references": [], "date_modified": "2023-06-14T16:33:30.576250+10:00"}, {"id": 75235, "name": "Patsy Adam-Smith", "roles_in_work": [{"id": 2392039, "title": "The Rail way", "work_id": 72036, "role": "narrator", "role_id": 499, "is_primary": false}], "also_known_as": "", "date_of_birth": "", "date_of_death": "", "genders": [], "languages": [], "places_of_operation": [], "biography": "", "biography_author": null, "date_of_biography": "2023-08-09T03:49:48.146234+10:00", "external_links": [], "uuid": "af71a7ed-93c0-45e4-b51a-60803011da06", "source": {"name": "Vernon", "slug": "vernon"}, "source_identifier": "31426", "external_references": [], "date_modified": "2023-08-09T03:49:48.146459+10:00"}, {"id": 75234, "name": "Department of Transport", "roles_in_work": [{"id": 2392036, "title": "The Rail way", "work_id": 72036, "role": "production company", "role_id": 941, "is_primary": true}], "also_known_as": "", "date_of_birth": "", "date_of_death": "", "genders": [], "languages": [], "places_of_operation": [], "biography": "", "biography_author": null, "date_of_biography": "2023-08-09T03:49:45.797499+10:00", "external_links": [], "uuid": "ad490f5e-519f-4262-a8f3-4685715930cb", "source": {"name": "Vernon", "slug": "vernon"}, "source_identifier": "7469", "external_references": [{"id": 40033, "source": {"name": "Wikidata", "slug": "wikidata"}, "source_identifier": "Q121223531"}], "date_modified": "2023-09-05T19:09:22.985583+10:00"}, {"id": 75233, "name": "Marvin Albert", "roles_in_work": [{"id": 2234171, "title": "Quiddity tree", "work_id": 72004, "role": "producer/director", "role_id": 31, "is_primary": true}], "also_known_as": "", "date_of_birth": "", "date_of_death": "", "genders": [], "languages": [], "places_of_operation": [], "biography": "", "biography_author": null, "date_of_biography": "2023-05-09T16:43:08.637662+10:00", "external_links": [], "uuid": "31ee1ed1-1ca3-4e84-9889-d20f6c208b37", "source": {"name": "Vernon", "slug": "vernon"}, "source_identifier": "24697", "external_references": [{"id": 51529, "source": {"name": "Wikidata", "slug": "wikidata"}, "source_identifier": "Q121361365"}], "date_modified": "2023-09-05T22:51:22.234227+10:00"}]}