{"count": 28687, "next": "https://api.acmi.net.au/creators/?page=652", "previous": "https://api.acmi.net.au/creators/?page=650", "results": [{"id": 79073, "name": "Joel Sucher", "roles_in_work": [{"id": 2154590, "title": "Martin Scorsese directs", "work_id": 89243, "role": "co-producers/directors", "role_id": 628, "is_primary": true}], "also_known_as": "", "date_of_birth": "", "date_of_death": "", "genders": [{"id": 9, "name": "Male", "slug": "male"}], "languages": [], "places_of_operation": [{"id": 1, "name": "United States of America", "slug": "united-states-of-america"}], "biography": "", "biography_author": null, "date_of_biography": "2023-05-09T14:01:02.486981+10:00", "external_links": [], "uuid": "f1faa4e4-b7f2-4ce1-8a0f-b2410219c9ab", "source": {"name": "Vernon", "slug": "vernon"}, "source_identifier": "22076", "external_references": [{"id": 36466, "source": {"name": "Wikidata", "slug": "wikidata"}, "source_identifier": "Q111311599"}, {"id": 54852, "source": {"name": "VIAF", "slug": "viaf"}, "source_identifier": "270999473"}], "date_modified": "2023-09-05T21:31:25.349547+10:00"}, {"id": 79072, "name": "Italo Costa", "roles_in_work": [{"id": 908804, "title": "Waterloo farmers", "work_id": 89242, "role": "director", "role_id": 938, "is_primary": true}, {"id": 2775839, "title": "Vision of Galileo", "work_id": 97786, "role": "producer/director", "role_id": 31, "is_primary": true}], "also_known_as": "", "date_of_birth": "", "date_of_death": "", "genders": [], "languages": [], "places_of_operation": [], "biography": "", "biography_author": null, "date_of_biography": "2023-05-09T20:05:25.945189+10:00", "external_links": [], "uuid": "0c9ac8b6-8cdc-4d5f-89ad-2fde2f7e76fa", "source": {"name": "Vernon", "slug": "vernon"}, "source_identifier": "9474", "external_references": [{"id": 40871, "source": {"name": "Wikidata", "slug": "wikidata"}, "source_identifier": "Q121126291"}], "date_modified": "2025-03-14T18:44:56.273135+11:00"}, {"id": 79071, "name": "Gary Oldman", "roles_in_work": [{"id": 2158509, "title": "Nil by mouth [Widescreen]", "work_id": 89219, "role": "director", "role_id": 938, "is_primary": true}, {"id": 2158507, "title": "Nil by mouth [Widescreen]", "work_id": 89219, "role": "co-producer", "role_id": 915, "is_primary": true}], "also_known_as": "Gary Leonard Oldman", "date_of_birth": "1958-03-21", "date_of_death": "", "genders": [{"id": 9, "name": "Male", "slug": "male"}], "languages": [{"id": 1, "name": "English", "slug": "english"}], "places_of_operation": [{"id": 10, "name": "United Kingdom", "slug": "united-kingdom"}], "biography": "Gary Leonard Oldman (born 21 March 1958) is an English actor and filmmaker. Known for his versatility and intense acting style, he has received various accolades, including an Academy Award, a Golden Globe Award, and three British Academy Film Awards. His films have grossed over $11 billion worldwide, making him one of the highest-grossing actors of all time.Oldman began acting in theatre in 1979 and made his film debut in Remembrance (1982). He continued to follow a stage career in London's Royal Court and was a member of the Royal Shakespeare Company, with credits including Cabaret, Romeo and Juliet, Entertaining Mr Sloane, Saved, The Country Wife and Hamlet. He rose to prominence in British film with his portrayals of Sid Vicious in Sid and Nancy (1986), Joe Orton in Prick Up Your Ears (1987) and Rosencrantz in Rosencrantz & Guildenstern Are Dead (1990), while also attracting attention as the leader of a gang of football hooligans in the television film The Firm (1989). Regarded as a member of the \"Brit Pack\", he achieved greater recognition as a New York gangster in State of Grace (1990), Lee Harvey Oswald in JFK (1991) and Count Dracula in Bram Stoker's Dracula (1992).\nOldman portrayed the villains in films such as True Romance (1993), The Fifth Element (1997), Air Force One (1997) and The Contender (2000); corrupt DEA agent Norman Stansfield, whom he played in Léon: The Professional (1994), was called one of cinema's best villains. He also played Ludwig van Beethoven in Immortal Beloved (1994) and later appeared in franchise roles such as Sirius Black in the Harry Potter series, James Gordon in The Dark Knight Trilogy (2005–2012) and a human leader, Dreyfus in Dawn of the Planet of the Apes (2014). He won the Academy Award for Best Actor for his role as Winston Churchill in Darkest Hour (2017), and was nominated for his portrayals of George Smiley in Tinker Tailor Soldier Spy (2011) and Herman J. Mankiewicz in Mank (2020).\nOldman was executive producer of films like The Contender, Plunkett & Macleane (1999) and Nil by Mouth (1997), the latter of which he also wrote and directed. He has featured in television shows such as Slow Horses, Fallen Angels, Tracey Takes On... and Friends, voiced Ignitius and Viktor Reznov respectively in The Legend of Spyro and Call of Duty video games, and appeared in music videos for David Bowie, Guns N' Roses and Annie Lennox.", "biography_author": "Wikidata", "date_of_biography": "2023-08-01T14:54:44.561749+10:00", "external_links": [{"id": 4018, "uri": "https://en.wikipedia.org/wiki/Gary_Oldman"}], "uuid": "259413dc-f186-498e-976b-0cc1d09f7b7d", "source": {"name": "Vernon", "slug": "vernon"}, "source_identifier": "19430", "external_references": [{"id": 25373, "source": {"name": "Wikidata", "slug": "wikidata"}, "source_identifier": "Q83492"}, {"id": 28533, "source": {"name": "VIAF", "slug": "viaf"}, "source_identifier": "117341583"}, {"id": 28534, "source": {"name": "LOC Auth", "slug": "loc-auth"}, "source_identifier": "n93039085"}, {"id": 28535, "source": {"name": "WorldCat", "slug": "worldcat"}, "source_identifier": "lccn-n93039085"}], "date_modified": "2023-09-05T19:58:17.461822+10:00"}, {"id": 79070, "name": "Laura Ziskin", "roles_in_work": [{"id": 2268507, "title": "To die for", "work_id": 89215, "role": "co-producer", "role_id": 915, "is_primary": true}, {"id": 2307998, "title": "Spider-man [DVD]", "work_id": 94421, "role": "co-producer", "role_id": 915, "is_primary": true}, {"id": 2345559, "title": "The Doctor", "work_id": 95200, "role": "producer", "role_id": 1089, "is_primary": true}], "also_known_as": "", "date_of_birth": "1950-03-03", "date_of_death": "2011-06-12", "genders": [{"id": 5, "name": "Female", "slug": "female"}], "languages": [{"id": 1, "name": "English", "slug": "english"}], "places_of_operation": [{"id": 1, "name": "United States of America", "slug": "united-states-of-america"}], "biography": "Laura Ellen Ziskin (March 3, 1950 – June 12, 2011) was an American film producer, known as the executive producer of Pretty Woman (1990) and producer of Spider-Man (2002), Spider-Man 2 (2004), Spider-Man 3 (2007), The Amazing Spider-Man (2012; posthumous credit) and The Amazing Spider-Man 2 (2014; posthumous credit). She was also the first woman to produce the Academy Awards telecast alone, producing the 74th Academy Awards (2002) and the 79th Academy Awards (2007).", "biography_author": "Wikidata", "date_of_biography": "2023-08-01T15:53:06.408161+10:00", "external_links": [{"id": 2549, "uri": "https://en.wikipedia.org/wiki/Laura_Ziskin"}], "uuid": "45f2c9cc-237b-4a4f-86c5-24a118de4e50", "source": {"name": "Vernon", "slug": "vernon"}, "source_identifier": "23536", "external_references": [{"id": 10895, "source": {"name": "Wikidata", "slug": "wikidata"}, "source_identifier": "Q270533"}, {"id": 10896, "source": {"name": "VIAF", "slug": "viaf"}, "source_identifier": "49291202"}, {"id": 10897, "source": {"name": "LOC Auth", "slug": "loc-auth"}, "source_identifier": "n93100979"}, {"id": 10898, "source": {"name": "WorldCat", "slug": "worldcat"}, "source_identifier": "lccn-n93100979"}], "date_modified": "2023-09-05T22:15:46.170726+10:00"}, {"id": 79069, "name": "Neil Buchanan", "roles_in_work": [{"id": 2100154, "title": "Art attack 2", "work_id": 89214, "role": "co-producer", "role_id": 915, "is_primary": true}, {"id": 2100108, "title": "Art attack", "work_id": 89213, "role": "co-producer", "role_id": 915, "is_primary": true}], "also_known_as": "", "date_of_birth": "1961-10-11", "date_of_death": "", "genders": [{"id": 9, "name": "Male", "slug": "male"}], "languages": [{"id": 1, "name": "English", "slug": "english"}], "places_of_operation": [{"id": 10, "name": "United Kingdom", "slug": "united-kingdom"}], "biography": "Neil Buchanan (born 11 October 1956) is an English artist, photographer, and musician, best known for his work on British children's television. During his tenure as a children's television presenter, he hosted the CITV programme Art Attack, a television program that he co-created, during its original run from 1990 to 2007, as well as Finders Keepers and It's a Mystery, while he also produced and starred in CITV's ZZZap!.", "biography_author": "Wikidata", "date_of_biography": "2023-09-05T23:27:05.576908+10:00", "external_links": [{"id": 6063, "uri": "https://en.wikipedia.org/wiki/Neil_Buchanan"}], "uuid": "e2c13ed7-63e6-444a-bb3c-b7d9983550aa", "source": {"name": "Vernon", "slug": "vernon"}, "source_identifier": "25664", "external_references": [{"id": 41840, "source": {"name": "Wikidata", "slug": "wikidata"}, "source_identifier": "Q1673600"}, {"id": 55352, "source": {"name": "VIAF", "slug": "viaf"}, "source_identifier": "100311310"}, {"id": 55353, "source": {"name": "LOC Auth", "slug": "loc-auth"}, "source_identifier": "n97101445"}, {"id": 55354, "source": {"name": "WorldCat", "slug": "worldcat"}, "source_identifier": "lccn-n97101445"}], "date_modified": "2023-09-05T23:27:05.597668+10:00"}, {"id": 79068, "name": "Tim Edmunds", "roles_in_work": [{"id": 2100149, "title": "Art attack 2", "work_id": 89214, "role": "co-producer", "role_id": 915, "is_primary": true}, {"id": 2100105, "title": "Art attack", "work_id": 89213, "role": "co-producer", "role_id": 915, "is_primary": true}], "also_known_as": "", "date_of_birth": "", "date_of_death": "", "genders": [], "languages": [], "places_of_operation": [], "biography": "", "biography_author": null, "date_of_biography": "2023-05-09T12:29:42.847527+10:00", "external_links": [], "uuid": "bc90f558-f6e2-41c6-a9e2-58374b8a4632", "source": {"name": "Vernon", "slug": "vernon"}, "source_identifier": "29734", "external_references": [{"id": 32948, "source": {"name": "Wikidata", "slug": "wikidata"}, "source_identifier": "Q121337083"}], "date_modified": "2023-09-06T01:50:10.310570+10:00"}, {"id": 79067, "name": "Sidney Beckerman", "roles_in_work": [{"id": 1996147, "title": "Marathon man (D)", "work_id": 92495, "role": "co-producer", "role_id": 915, "is_primary": true}, {"id": 2476445, "title": "Kelly's heroes", "work_id": 89211, "role": "co-producer", "role_id": 915, "is_primary": true}], "also_known_as": "", "date_of_birth": "1920-11-26", "date_of_death": "2008-02-27", "genders": [{"id": 9, "name": "Male", "slug": "male"}], "languages": [{"id": 1, "name": "English", "slug": "english"}], "places_of_operation": [{"id": 1, "name": "United States of America", "slug": "united-states-of-america"}], "biography": "Sidney Beckerman (November 26, 1920 – February 25, 2008) was a producer of notable movies including The Adventures of Buckaroo Banzai Across the 8th Dimension, Cabaret, Joe Kidd, Kelly's Heroes, Portnoy's Complaint, Marathon Man, Marlowe, Red Dawn and The Sicilian.", "biography_author": "Wikidata", "date_of_biography": "2023-09-06T01:18:18.586893+10:00", "external_links": [{"id": 5161, "uri": "https://en.wikipedia.org/wiki/Sidney_Beckerman_(movie_producer)"}], "uuid": "8d6e5a1a-c551-4bff-9f69-52b7138c6683", "source": {"name": "Vernon", "slug": "vernon"}, "source_identifier": "28798", "external_references": [{"id": 25332, "source": {"name": "Wikidata", "slug": "wikidata"}, "source_identifier": "Q966535"}, {"id": 31521, "source": {"name": "VIAF", "slug": "viaf"}, "source_identifier": "95084551"}, {"id": 31522, "source": {"name": "LOC Auth", "slug": "loc-auth"}, "source_identifier": "no98043029"}, {"id": 31523, "source": {"name": "WorldCat", "slug": "worldcat"}, "source_identifier": "lccn-no98043029"}], "date_modified": "2023-09-06T01:18:18.596060+10:00"}, {"id": 79066, "name": "Gabriel Katzka", "roles_in_work": [{"id": 2347569, "title": "The Falcon and the snowman", "work_id": 93741, "role": "co-producer", "role_id": 915, "is_primary": true}, {"id": 1999097, "title": "The Taking of Pelham one two three", "work_id": 94292, "role": "co-producer", "role_id": 915, "is_primary": true}, {"id": 2476444, "title": "Kelly's heroes", "work_id": 89211, "role": "co-producer", "role_id": 915, "is_primary": true}], "also_known_as": "", "date_of_birth": "1931-01-25", "date_of_death": "1990-02-19", "genders": [{"id": 9, "name": "Male", "slug": "male"}], "languages": [], "places_of_operation": [{"id": 1, "name": "United States of America", "slug": "united-states-of-america"}], "biography": "Gabriel Katzka (1931–1990) was an American theater, film and television producer.", "biography_author": "Wikidata", "date_of_biography": "2023-09-05T19:55:28.295821+10:00", "external_links": [{"id": 4003, "uri": "https://en.wikipedia.org/wiki/Gabriel_Katzka"}], "uuid": "338c29c0-c56d-4a1e-9fe5-fdfff9e2592f", "source": {"name": "Vernon", "slug": "vernon"}, "source_identifier": "19333", "external_references": [{"id": 25389, "source": {"name": "Wikidata", "slug": "wikidata"}, "source_identifier": "Q16012455"}, {"id": 28494, "source": {"name": "VIAF", "slug": "viaf"}, "source_identifier": "276036347"}, {"id": 28495, "source": {"name": "LOC Auth", "slug": "loc-auth"}, "source_identifier": "no2003071798"}, {"id": 28496, "source": {"name": "WorldCat", "slug": "worldcat"}, "source_identifier": "lccn-no2003071798"}], "date_modified": "2023-09-05T19:55:28.312713+10:00"}, {"id": 79065, "name": "Bill Shapter", "roles_in_work": [{"id": 2109530, "title": "Beautiful thing", "work_id": 89210, "role": "co-producer", "role_id": 915, "is_primary": true}], "also_known_as": "", "date_of_birth": "", "date_of_death": "", "genders": [{"id": 9, "name": "Male", "slug": "male"}], "languages": [], "places_of_operation": [], "biography": "", "biography_author": null, "date_of_biography": "2023-05-09T12:44:00.093004+10:00", "external_links": [], "uuid": "c2d0c634-3047-4011-b2d7-27b497a85493", "source": {"name": "Vernon", "slug": "vernon"}, "source_identifier": "16006", "external_references": [{"id": 7546, "source": {"name": "Wikidata", "slug": "wikidata"}, "source_identifier": "Q89189329"}], "date_modified": "2023-09-05T18:04:31.836436+10:00"}, {"id": 79064, "name": "Jeremy Leven", "roles_in_work": [{"id": 2198501, "title": "Don Juan de Marco", "work_id": 89208, "role": "director", "role_id": 938, "is_primary": true}], "also_known_as": "", "date_of_birth": "1941-01-01", "date_of_death": "", "genders": [{"id": 9, "name": "Male", "slug": "male"}], "languages": [], "places_of_operation": [{"id": 1, "name": "United States of America", "slug": "united-states-of-america"}], "biography": "Jeremy Leven (born August 16, 1941) is an American screenwriter, director, producer, and novelist. Born in South Bend, Indiana, Leven lives in Woodbridge, Connecticut, Paris, and New York City.", "biography_author": "Wikidata", "date_of_biography": "2023-08-01T15:30:00.059588+10:00", "external_links": [{"id": 4319, "uri": "https://en.wikipedia.org/wiki/Jeremy_Leven"}], "uuid": "640cc4c9-1a7f-4bb8-8a6a-f6ae7a74d2f3", "source": {"name": "Vernon", "slug": "vernon"}, "source_identifier": "21747", "external_references": [{"id": 25007, "source": {"name": "Wikidata", "slug": "wikidata"}, "source_identifier": "Q503907"}, {"id": 29347, "source": {"name": "VIAF", "slug": "viaf"}, "source_identifier": "33136721"}, {"id": 29348, "source": {"name": "LOC Auth", "slug": "loc-auth"}, "source_identifier": "n79086087"}, {"id": 29349, "source": {"name": "WorldCat", "slug": "worldcat"}, "source_identifier": "lccn-n79086087"}], "date_modified": "2023-09-05T21:21:34.544669+10:00"}]}