{"count": 28687, "next": "https://api.acmi.net.au/creators/?page=395", "previous": "https://api.acmi.net.au/creators/?page=393", "results": [{"id": 81643, "name": "Leo Dickinson", "roles_in_work": [{"id": 2752400, "title": "Filming the impossible", "work_id": 98278, "role": "co-producer", "role_id": 915, "is_primary": true}], "also_known_as": "", "date_of_birth": "1946", "date_of_death": "", "genders": [], "languages": [], "places_of_operation": [], "biography": "", "biography_author": null, "date_of_biography": "2023-05-09T16:53:01.852097+10:00", "external_links": [], "uuid": "f6036dd1-44b9-4485-aa16-25d319d1e2c4", "source": {"name": "Vernon", "slug": "vernon"}, "source_identifier": "23679", "external_references": [{"id": 35544, "source": {"name": "Wikidata", "slug": "wikidata"}, "source_identifier": "Q121057821"}], "date_modified": "2025-03-13T01:05:06.909366+11:00"}, {"id": 81642, "name": "Angus Trowbridge", "roles_in_work": [{"id": 2278299, "title": "To the count of Basie", "work_id": 98246, "role": "co-producers/directors", "role_id": 628, "is_primary": true}], "also_known_as": "", "date_of_birth": "", "date_of_death": "", "genders": [], "languages": [], "places_of_operation": [], "biography": "", "biography_author": null, "date_of_biography": "2023-05-09T17:55:45.575177+10:00", "external_links": [], "uuid": "8bac0b8d-7bdb-419d-b5bf-d6fd95aca578", "source": {"name": "Vernon", "slug": "vernon"}, "source_identifier": "15275", "external_references": [], "date_modified": "2023-06-14T16:33:30.576250+10:00"}, {"id": 81641, "name": "John Jeremy", "roles_in_work": [{"id": 2278298, "title": "To the count of Basie", "work_id": 98246, "role": "co-producers/directors", "role_id": 628, "is_primary": true}], "also_known_as": "", "date_of_birth": "", "date_of_death": "", "genders": [], "languages": [], "places_of_operation": [], "biography": "", "biography_author": null, "date_of_biography": "2023-05-09T17:55:45.281033+10:00", "external_links": [], "uuid": "8b7772d4-7e7c-489a-8be2-5348a33dbf56", "source": {"name": "Vernon", "slug": "vernon"}, "source_identifier": "22335", "external_references": [], "date_modified": "2023-06-14T16:33:30.576250+10:00"}, {"id": 81640, "name": "Ruth Arens", "roles_in_work": [{"id": 2752307, "title": "Seeing through commercials", "work_id": 98237, "role": "co-director", "role_id": 959, "is_primary": true}], "also_known_as": "", "date_of_birth": "", "date_of_death": "", "genders": [], "languages": [], "places_of_operation": [], "biography": "", "biography_author": null, "date_of_biography": "2023-05-09T17:39:08.807718+10:00", "external_links": [], "uuid": "29737166-ccb7-43bf-97eb-9b1d5fe725aa", "source": {"name": "Vernon", "slug": "vernon"}, "source_identifier": "28376", "external_references": [{"id": 36406, "source": {"name": "Wikidata", "slug": "wikidata"}, "source_identifier": "Q121337741"}], "date_modified": "2025-03-13T01:02:06.252397+11:00"}, {"id": 81639, "name": "Marc Stirdivant", "roles_in_work": [{"id": 2752301, "title": "Prisoners of chance", "work_id": 98235, "role": "co-producer", "role_id": 915, "is_primary": true}, {"id": 2754165, "title": "Better safe than sorry. - Revised edition", "work_id": 99086, "role": "producer/director", "role_id": 31, "is_primary": true}], "also_known_as": "", "date_of_birth": "", "date_of_death": "", "genders": [], "languages": [], "places_of_operation": [], "biography": "", "biography_author": null, "date_of_biography": "2023-05-09T16:33:34.519992+10:00", "external_links": [], "uuid": "83a18047-e8e6-42bd-94fc-1b25842e6157", "source": {"name": "Vernon", "slug": "vernon"}, "source_identifier": "24297", "external_references": [{"id": 32312, "source": {"name": "Wikidata", "slug": "wikidata"}, "source_identifier": "Q121315541"}], "date_modified": "2025-03-13T01:40:05.401668+11:00"}, {"id": 81638, "name": "D Morgan", "roles_in_work": [{"id": 2415413, "title": "Lungs", "work_id": 98219, "role": "co-director", "role_id": 959, "is_primary": true}], "also_known_as": "", "date_of_birth": "", "date_of_death": "", "genders": [], "languages": [], "places_of_operation": [], "biography": "", "biography_author": null, "date_of_biography": "2023-08-11T19:37:18.137985+10:00", "external_links": [], "uuid": "8383f6c6-189b-4661-b89e-79947f58f243", "source": {"name": "Vernon", "slug": "vernon"}, "source_identifier": "17297", "external_references": [{"id": 34172, "source": {"name": "Wikidata", "slug": "wikidata"}, "source_identifier": "Q121036244"}], "date_modified": "2023-09-05T18:48:26.671665+10:00"}, {"id": 81637, "name": "A K Lee", "roles_in_work": [{"id": 2415414, "title": "Lungs", "work_id": 98219, "role": "co-director", "role_id": 959, "is_primary": true}, {"id": 2769628, "title": "The Mammalian heart", "work_id": 98215, "role": "co-director", "role_id": 959, "is_primary": true}], "also_known_as": "", "date_of_birth": "", "date_of_death": "", "genders": [], "languages": [], "places_of_operation": [], "biography": "", "biography_author": null, "date_of_biography": "2023-08-11T19:37:18.760321+10:00", "external_links": [], "uuid": "f2bd8230-2f53-4fe4-bd5d-bae0c9cbc288", "source": {"name": "Vernon", "slug": "vernon"}, "source_identifier": "14600", "external_references": [{"id": 40533, "source": {"name": "Wikidata", "slug": "wikidata"}, "source_identifier": "Q121223224"}], "date_modified": "2025-03-14T18:15:27.482953+11:00"}, {"id": 81636, "name": "D Moyan", "roles_in_work": [{"id": 2769626, "title": "The Mammalian heart", "work_id": 98215, "role": "co-director", "role_id": 959, "is_primary": true}], "also_known_as": "", "date_of_birth": "", "date_of_death": "", "genders": [], "languages": [], "places_of_operation": [], "biography": "", "biography_author": null, "date_of_biography": "2023-08-11T19:30:04.896162+10:00", "external_links": [], "uuid": "affc5b6b-0dd3-4cbc-b659-2279bf147417", "source": {"name": "Vernon", "slug": "vernon"}, "source_identifier": "17298", "external_references": [{"id": 43307, "source": {"name": "Wikidata", "slug": "wikidata"}, "source_identifier": "Q121271353"}], "date_modified": "2025-03-14T18:15:26.909291+11:00"}, {"id": 81635, "name": "Gay Courter", "roles_in_work": [{"id": 2752247, "title": "Learning about water", "work_id": 98210, "role": "co-director", "role_id": 959, "is_primary": true}], "also_known_as": "", "date_of_birth": null, "date_of_death": null, "genders": [], "languages": [], "places_of_operation": [], "biography": "", "biography_author": null, "date_of_biography": null, "external_links": [], "uuid": "6d91f46b-8f7f-42ba-abdb-570f3b46510f", "source": {"name": "Vernon", "slug": "vernon"}, "source_identifier": "3835", "external_references": [{"id": 32595, "source": {"name": "Wikidata", "slug": "wikidata"}, "source_identifier": "Q121079497"}], "date_modified": "2025-03-13T01:01:18.659144+11:00"}, {"id": 81634, "name": "Philip Courter", "roles_in_work": [{"id": 2752246, "title": "Learning about water", "work_id": 98210, "role": "co-director", "role_id": 959, "is_primary": true}], "also_known_as": "", "date_of_birth": null, "date_of_death": null, "genders": [], "languages": [], "places_of_operation": [], "biography": "", "biography_author": null, "date_of_biography": null, "external_links": [], "uuid": "e1590c67-b4f5-4586-bf0e-e7f833357bb0", "source": {"name": "Vernon", "slug": "vernon"}, "source_identifier": "3834", "external_references": [{"id": 36371, "source": {"name": "Wikidata", "slug": "wikidata"}, "source_identifier": "Q121078807"}], "date_modified": "2025-03-13T01:01:18.058563+11:00"}]}