{"count": 28687, "next": "https://api.acmi.net.au/creators/?page=1442", "previous": "https://api.acmi.net.au/creators/?page=1440", "results": [{"id": 35729, "name": "Audiovisuele Dienst K U Leuven and Alive From Off Center", "roles_in_work": [{"id": 2254525, "title": "Roseland", "work_id": 93789, "role": "production company", "role_id": 941, "is_primary": true}], "also_known_as": "", "date_of_birth": "", "date_of_death": "", "genders": [], "languages": [], "places_of_operation": [], "biography": "", "biography_author": null, "date_of_biography": "2023-05-09T17:15:33.431124+10:00", "external_links": [], "uuid": "0c0a4747-e3a1-4de6-b962-1fdc997ad829", "source": {"name": "Vernon", "slug": "vernon"}, "source_identifier": "5537", "external_references": [{"id": 37010, "source": {"name": "Wikidata", "slug": "wikidata"}, "source_identifier": "Q121126270"}], "date_modified": "2023-09-05T17:49:17.349828+10:00"}, {"id": 35728, "name": "VRT", "roles_in_work": [{"id": 2254522, "title": "Roseland", "work_id": 93789, "role": "production company", "role_id": 941, "is_primary": true}], "also_known_as": "", "date_of_birth": "", "date_of_death": "", "genders": [], "languages": [], "places_of_operation": [], "biography": "", "biography_author": null, "date_of_biography": "2023-05-09T17:15:33.196324+10:00", "external_links": [], "uuid": "463675b0-26c9-4ce7-bd73-4e6179605a68", "source": {"name": "Vernon", "slug": "vernon"}, "source_identifier": "14199", "external_references": [{"id": 36004, "source": {"name": "Wikidata", "slug": "wikidata"}, "source_identifier": "Q121034838"}], "date_modified": "2023-09-06T02:09:02.403740+10:00"}, {"id": 35727, "name": "Beeldhuis", "roles_in_work": [{"id": 2254513, "title": "Roseland", "work_id": 93789, "role": "production company", "role_id": 941, "is_primary": true}], "also_known_as": "", "date_of_birth": "", "date_of_death": "", "genders": [], "languages": [], "places_of_operation": [], "biography": "", "biography_author": null, "date_of_biography": "2023-05-09T17:15:32.728257+10:00", "external_links": [], "uuid": "e1728cdf-7cc1-4fd5-991f-fb648ca00085", "source": {"name": "Vernon", "slug": "vernon"}, "source_identifier": "5787", "external_references": [{"id": 40656, "source": {"name": "Wikidata", "slug": "wikidata"}, "source_identifier": "Q121035468"}], "date_modified": "2023-09-05T17:57:00.201964+10:00"}, {"id": 35726, "name": "Wim Vandekeybus", "roles_in_work": [{"id": 817038, "title": "Silver", "work_id": 93790, "role": "director", "role_id": 938, "is_primary": true}, {"id": 817027, "title": "In spite of wishing and wanting", "work_id": 93788, "role": "director", "role_id": 938, "is_primary": true}, {"id": 2254536, "title": "Roseland", "work_id": 93789, "role": "co-director", "role_id": 959, "is_primary": true}], "also_known_as": "", "date_of_birth": "1963-06-30", "date_of_death": "", "genders": [{"id": 9, "name": "Male", "slug": "male"}], "languages": [], "places_of_operation": [{"id": 37, "name": "Belgium", "slug": "belgium"}], "biography": "Wim Vandekeybus (Herenthout, 30 June 1963) is a Belgian choreographer, director and photographer. His company Ultima Vez is located in Sint-Jans-Molenbeek (Brussels).\nTogether with Jan Fabre, Alain Platel and Anne Teresa De Keersmaeker, Wim Vandekeybus has been responsible for the Flemish Wave in contemporary dance in the 80's. He made over thirty international dance and theater productions and almost as many movies and video works.", "biography_author": "Wikidata", "date_of_biography": "2023-08-01T17:28:34.244246+10:00", "external_links": [{"id": 5362, "uri": "https://en.wikipedia.org/wiki/Wim_Vandekeybus"}], "uuid": "7ea22ec4-4afa-48db-9465-92e282293db7", "source": {"name": "Vernon", "slug": "vernon"}, "source_identifier": "30521", "external_references": [{"id": 26486, "source": {"name": "Wikidata", "slug": "wikidata"}, "source_identifier": "Q3569237"}, {"id": 32042, "source": {"name": "VIAF", "slug": "viaf"}, "source_identifier": "84255777"}, {"id": 32043, "source": {"name": "LOC Auth", "slug": "loc-auth"}, "source_identifier": "n97845329"}, {"id": 32044, "source": {"name": "WorldCat", "slug": "worldcat"}, "source_identifier": "lccn-n97845329"}], "date_modified": "2023-09-06T02:18:47.368976+10:00"}, {"id": 35723, "name": "Ultima Vez", "roles_in_work": [{"id": 817036, "title": "Silver", "work_id": 93790, "role": "production company", "role_id": 941, "is_primary": true}, {"id": 2254517, "title": "Roseland", "work_id": 93789, "role": "production company", "role_id": 941, "is_primary": true}, {"id": 817024, "title": "In spite of wishing and wanting", "work_id": 93788, "role": "production company", "role_id": 941, "is_primary": true}], "also_known_as": "", "date_of_birth": "", "date_of_death": "", "genders": [], "languages": [], "places_of_operation": [], "biography": "", "biography_author": null, "date_of_biography": "2023-05-09T17:15:32.964965+10:00", "external_links": [], "uuid": "57d614f8-1476-4978-bbff-ff22b3326e49", "source": {"name": "Vernon", "slug": "vernon"}, "source_identifier": "13826", "external_references": [{"id": 42938, "source": {"name": "Wikidata", "slug": "wikidata"}, "source_identifier": "Q121091413"}], "date_modified": "2023-09-06T02:00:47.995922+10:00"}, {"id": 35720, "name": "Navaron Productions", "roles_in_work": [{"id": 2202080, "title": "Driller killer [DVD]", "work_id": 93805, "role": "production company", "role_id": 941, "is_primary": true}], "also_known_as": "", "date_of_birth": "", "date_of_death": "", "genders": [], "languages": [], "places_of_operation": [], "biography": "", "biography_author": null, "date_of_biography": "2023-05-09T15:28:05.895323+10:00", "external_links": [], "uuid": "09fbd6fe-0f7e-46b2-9094-1015d9ff44d1", "source": {"name": "Vernon", "slug": "vernon"}, "source_identifier": "10853", "external_references": [{"id": 42597, "source": {"name": "Wikidata", "slug": "wikidata"}, "source_identifier": "Q121034674"}], "date_modified": "2023-09-05T23:26:18.983419+10:00"}, {"id": 35706, "name": "Iranian Film Society", "roles_in_work": [{"id": 2354037, "title": "The Hidden half = Nimeh-ye penhan [NTSC]", "work_id": 100502, "role": "production company", "role_id": 941, "is_primary": true}, {"id": 2354007, "title": "The Hidden half = Nimeh-ye penhan [DVD]", "work_id": 93862, "role": "production company", "role_id": 941, "is_primary": true}], "also_known_as": "", "date_of_birth": "", "date_of_death": "", "genders": [], "languages": [], "places_of_operation": [], "biography": "", "biography_author": null, "date_of_biography": "2023-05-09T20:01:12.079836+10:00", "external_links": [], "uuid": "2fbb2d15-a622-4a4e-87bf-98dc157615f1", "source": {"name": "Vernon", "slug": "vernon"}, "source_identifier": "9432", "external_references": [{"id": 35902, "source": {"name": "Wikidata", "slug": "wikidata"}, "source_identifier": "Q121126741"}], "date_modified": "2023-09-05T20:50:06.685060+10:00"}, {"id": 35705, "name": "Tahmineh Milani", "roles_in_work": [{"id": 2354016, "title": "The Hidden half = Nimeh-ye penhan [DVD]", "work_id": 93862, "role": "director", "role_id": 938, "is_primary": true}, {"id": 2354047, "title": "The Hidden half = Nimeh-ye penhan [NTSC]", "work_id": 100502, "role": "director", "role_id": 938, "is_primary": true}, {"id": 817331, "title": "Two women = Do zan [DVD]", "work_id": 93863, "role": "director", "role_id": 938, "is_primary": true}, {"id": 816975, "title": "Two women = Do zan [NTSC]", "work_id": 100501, "role": "director", "role_id": 938, "is_primary": true}, {"id": 2354011, "title": "The Hidden half = Nimeh-ye penhan [DVD]", "work_id": 93862, "role": "co-producer", "role_id": 915, "is_primary": true}, {"id": 2354042, "title": "The Hidden half = Nimeh-ye penhan [NTSC]", "work_id": 100502, "role": "co-producer", "role_id": 915, "is_primary": true}], "also_known_as": "", "date_of_birth": "1960-09-06", "date_of_death": null, "genders": [{"id": 5, "name": "Female", "slug": "female"}], "languages": [{"id": 26, "name": "Persian", "slug": "persian"}], "places_of_operation": [{"id": 258, "name": "Iran", "slug": "iran"}], "biography": "Tahmineh Milāni (Persian: تهمینه میلانی) is an Iranian feminist activist, film director, and producer. She is the wife of the Iranian actor and producer Mohammad Nikbin.", "biography_author": "Wikidata", "date_of_biography": "2022-05-19T13:11:37.908619+10:00", "external_links": [{"id": 3172, "uri": "https://en.wikipedia.org/wiki/Tahmineh_Milani"}], "uuid": "92d9507f-8778-4595-934a-c6166f5931c7", "source": {"name": "Vernon", "slug": "vernon"}, "source_identifier": "29461", "external_references": [{"id": 13446, "source": {"name": "Wikidata", "slug": "wikidata"}, "source_identifier": "Q3513928"}, {"id": 13447, "source": {"name": "VIAF", "slug": "viaf"}, "source_identifier": "31649807"}, {"id": 13448, "source": {"name": "LOC Auth", "slug": "loc-auth"}, "source_identifier": "no2001070227"}, {"id": 13449, "source": {"name": "WorldCat", "slug": "worldcat"}, "source_identifier": "lccn-no2001070227"}], "date_modified": "2023-09-13T12:32:56.131615+10:00"}, {"id": 35704, "name": "Arta Film", "roles_in_work": [{"id": 2354003, "title": "The Hidden half = Nimeh-ye penhan [DVD]", "work_id": 93862, "role": "production company", "role_id": 941, "is_primary": true}, {"id": 2354034, "title": "The Hidden half = Nimeh-ye penhan [NTSC]", "work_id": 100502, "role": "production company", "role_id": 941, "is_primary": true}, {"id": 816974, "title": "Two women = Do zan [NTSC]", "work_id": 100501, "role": "production company", "role_id": 941, "is_primary": true}, {"id": 817330, "title": "Two women = Do zan [DVD]", "work_id": 93863, "role": "production company", "role_id": 941, "is_primary": true}], "also_known_as": "", "date_of_birth": "", "date_of_death": "", "genders": [], "languages": [], "places_of_operation": [], "biography": "", "biography_author": null, "date_of_biography": "2023-05-09T20:01:11.843026+10:00", "external_links": [], "uuid": "665420e6-b616-41e2-ab1e-acf430132e0e", "source": {"name": "Vernon", "slug": "vernon"}, "source_identifier": "5396", "external_references": [{"id": 39335, "source": {"name": "Wikidata", "slug": "wikidata"}, "source_identifier": "Q121159774"}], "date_modified": "2023-09-05T17:46:21.273508+10:00"}, {"id": 35700, "name": "100 Miles Film Group", "roles_in_work": [{"id": 2298074, "title": "Shepherd's pie and sushi", "work_id": 93779, "role": "production company", "role_id": 941, "is_primary": true}], "also_known_as": "", "date_of_birth": "", "date_of_death": "", "genders": [], "languages": [], "places_of_operation": [], "biography": "", "biography_author": null, "date_of_biography": "2023-05-09T18:31:27.189815+10:00", "external_links": [], "uuid": "f6c86d9c-3bce-4fb7-aa1f-3a24e0972860", "source": {"name": "Vernon", "slug": "vernon"}, "source_identifier": "3701", "external_references": [{"id": 34853, "source": {"name": "Wikidata", "slug": "wikidata"}, "source_identifier": "Q121035906"}], "date_modified": "2023-09-05T17:13:08.340883+10:00"}]}