{"count": 28687, "next": "https://api.acmi.net.au/creators/?page=1003", "previous": "https://api.acmi.net.au/creators/?page=1001", "results": [{"id": 75562, "name": "Les Dempsey", "roles_in_work": [{"id": 2350353, "title": "The Gathering flame [Widescreen]", "work_id": 96261, "role": "composer", "role_id": 538, "is_primary": false}, {"id": 2392348, "title": "Icarus", "work_id": 75147, "role": "music", "role_id": 949, "is_primary": false}], "also_known_as": "", "date_of_birth": "", "date_of_death": "", "genders": [{"id": 9, "name": "Male", "slug": "male"}], "languages": [], "places_of_operation": [], "biography": "", "biography_author": null, "date_of_biography": "2023-08-09T03:55:31.421601+10:00", "external_links": [], "uuid": "a7ea9873-d1c5-43a3-bc2a-9ab75ecd45f0", "source": {"name": "Vernon", "slug": "vernon"}, "source_identifier": "37451", "external_references": [{"id": 52106, "source": {"name": "Wikidata", "slug": "wikidata"}, "source_identifier": "Q121360932"}], "date_modified": "2023-08-09T03:55:31.421869+10:00"}, {"id": 75561, "name": "Edward Howell", "roles_in_work": [{"id": 3106010, "title": "Bullocky", "work_id": 75146, "role": "narrator", "role_id": 499, "is_primary": false}], "also_known_as": "", "date_of_birth": "", "date_of_death": "", "genders": [], "languages": [], "places_of_operation": [], "biography": "", "biography_author": null, "date_of_biography": "2023-08-09T03:55:26.786678+10:00", "external_links": [], "uuid": "95bcc19e-85e0-466b-be36-a6e251be27ec", "source": {"name": "Vernon", "slug": "vernon"}, "source_identifier": "38598", "external_references": [], "date_modified": "2025-06-04T22:35:15.072558+10:00"}, {"id": 75560, "name": "Vic Deaves", "roles_in_work": [{"id": 3106009, "title": "Bullocky", "work_id": 75146, "role": "narrator", "role_id": 499, "is_primary": false}], "also_known_as": "", "date_of_birth": "", "date_of_death": "", "genders": [], "languages": [], "places_of_operation": [], "biography": "", "biography_author": null, "date_of_biography": "2023-08-09T03:55:25.705696+10:00", "external_links": [], "uuid": "b4f4c360-ce96-46fa-9a2d-c0e0373c2159", "source": {"name": "Vernon", "slug": "vernon"}, "source_identifier": "38597", "external_references": [], "date_modified": "2025-06-04T22:35:14.466501+10:00"}, {"id": 75559, "name": "Colonial Williamsburg Foundation", "roles_in_work": [{"id": 2469302, "title": "Triangle and anchor: Chelsea porcelain from the Williamsburg Collection", "work_id": 75136, "role": "sponsor", "role_id": 625, "is_primary": false}], "also_known_as": "", "date_of_birth": "", "date_of_death": "", "genders": [], "languages": [], "places_of_operation": [], "biography": "", "biography_author": null, "date_of_biography": "2023-08-14T11:57:43.783851+10:00", "external_links": [], "uuid": "5862ff77-3946-4044-9e0d-35a837a33d21", "source": {"name": "Vernon", "slug": "vernon"}, "source_identifier": "31711", "external_references": [], "date_modified": "2023-08-14T11:57:43.784099+10:00"}, {"id": 75558, "name": "Leo McKern", "roles_in_work": [{"id": 2043245, "title": "Travelling North", "work_id": 79362, "role": "cast", "role_id": 33, "is_primary": false}, {"id": 2753046, "title": "King Lear", "work_id": 98578, "role": "cast", "role_id": 33, "is_primary": false}, {"id": 2755510, "title": "Now you're talking", "work_id": 75133, "role": "narrator", "role_id": 499, "is_primary": false}], "also_known_as": "", "date_of_birth": "1920-03-16", "date_of_death": "2002-07-23", "genders": [{"id": 9, "name": "Male", "slug": "male"}], "languages": [{"id": 1, "name": "English", "slug": "english"}], "places_of_operation": [{"id": 3, "name": "Australia", "slug": "australia"}], "biography": "Reginald \"Leo\" McKern, AO (16 March 1920 – 23 July 2002) was an Australian actor who appeared in numerous British, Australian and American television programmes and films, and in more than 200 stage roles. His notable roles include Clang in Help! (1965), Thomas Cromwell in A Man for All Seasons (1966), Tom Ryan in Ryan's Daughter (1970), Paddy Button in The Blue Lagoon (1980), Dr. Grogan in The French Lieutenant's Woman (1981), Father Imperius in Ladyhawke (1985), and the role that made him a household name as an actor, Horace Rumpole, whom he played in the British television series Rumpole of the Bailey. He also portrayed Carl Bugenhagen in the first and second instalments of The Omen series and Number Two in the TV series The Prisoner.\n\n", "biography_author": "Wikidata", "date_of_biography": "2023-08-15T11:39:08.039084+10:00", "external_links": [{"id": 4530, "uri": "https://en.wikipedia.org/wiki/Leo_McKern"}], "uuid": "1554b619-3c28-4a5a-8575-7309798d7bfb", "source": {"name": "Vernon", "slug": "vernon"}, "source_identifier": "34763", "external_references": [{"id": 25246, "source": {"name": "Wikidata", "slug": "wikidata"}, "source_identifier": "Q1344237"}, {"id": 29892, "source": {"name": "VIAF", "slug": "viaf"}, "source_identifier": "117438931"}, {"id": 29893, "source": {"name": "LOC Auth", "slug": "loc-auth"}, "source_identifier": "n84189915"}, {"id": 29894, "source": {"name": "WorldCat", "slug": "worldcat"}, "source_identifier": "lccn-n84189915"}], "date_modified": "2025-03-13T14:33:39.809340+11:00"}, {"id": 75557, "name": "Jerry Elder", "roles_in_work": [{"id": 2647037, "title": "Cigarettes and matches", "work_id": 75130, "role": "producer/director", "role_id": 31, "is_primary": true}], "also_known_as": "", "date_of_birth": "", "date_of_death": "", "genders": [], "languages": [], "places_of_operation": [], "biography": "", "biography_author": null, "date_of_biography": "2023-05-09T13:32:40.568287+10:00", "external_links": [], "uuid": "13d5b05c-0664-4dd2-9df6-485f1b6199d2", "source": {"name": "Vernon", "slug": "vernon"}, "source_identifier": "21790", "external_references": [{"id": 50631, "source": {"name": "Wikidata", "slug": "wikidata"}, "source_identifier": "Q121360877"}], "date_modified": "2025-03-05T13:16:59.502143+11:00"}, {"id": 75556, "name": "Don Gangloff", "roles_in_work": [{"id": 2647034, "title": "Orthogonal projection (TEFC)", "work_id": 75129, "role": "co-producers/directors", "role_id": 628, "is_primary": true}], "also_known_as": "", "date_of_birth": "", "date_of_death": "", "genders": [], "languages": [], "places_of_operation": [], "biography": "", "biography_author": null, "date_of_biography": "2023-05-09T16:37:56.623991+10:00", "external_links": [], "uuid": "1c8b5f51-6723-493d-986c-ff06e5b52a3e", "source": {"name": "Vernon", "slug": "vernon"}, "source_identifier": "18208", "external_references": [], "date_modified": "2025-03-05T13:16:57.435003+11:00"}, {"id": 75555, "name": "Catherine Allan", "roles_in_work": [{"id": 896350, "title": "Like any child only more so (TEFC)", "work_id": 75127, "role": "co-producer", "role_id": 915, "is_primary": true}], "also_known_as": "", "date_of_birth": null, "date_of_death": null, "genders": [], "languages": [], "places_of_operation": [], "biography": "", "biography_author": null, "date_of_biography": null, "external_links": [], "uuid": "6eec7b4c-2f6c-453f-9078-3c7b23d65746", "source": {"name": "Vernon", "slug": "vernon"}, "source_identifier": null, "external_references": [{"id": 39080, "source": {"name": "Wikidata", "slug": "wikidata"}, "source_identifier": "Q121036306"}], "date_modified": "2023-09-05T18:22:31.771563+10:00"}, {"id": 75554, "name": "Maile Ornellas", "roles_in_work": [{"id": 896349, "title": "Like any child only more so (TEFC)", "work_id": 75127, "role": "co-producer", "role_id": 915, "is_primary": true}], "also_known_as": "", "date_of_birth": null, "date_of_death": null, "genders": [], "languages": [], "places_of_operation": [], "biography": "", "biography_author": null, "date_of_biography": null, "external_links": [], "uuid": "7476ae95-910b-4bb4-b9ef-31d54b22f265", "source": {"name": "Vernon", "slug": "vernon"}, "source_identifier": null, "external_references": [{"id": 34209, "source": {"name": "Wikidata", "slug": "wikidata"}, "source_identifier": "Q121086159"}], "date_modified": "2023-09-05T22:37:05.853251+10:00"}, {"id": 75553, "name": "Christopher Rawlence", "roles_in_work": [{"id": 2764784, "title": "Parting shots from animals", "work_id": 75110, "role": "co-director", "role_id": 959, "is_primary": true}], "also_known_as": "", "date_of_birth": "", "date_of_death": "", "genders": [], "languages": [], "places_of_operation": [], "biography": "", "biography_author": null, "date_of_biography": "2023-05-09T15:06:17.625001+10:00", "external_links": [], "uuid": "3ca1471c-31a9-4843-97b7-9d9f7c35c1c1", "source": {"name": "Vernon", "slug": "vernon"}, "source_identifier": "16997", "external_references": [{"id": 39450, "source": {"name": "Wikidata", "slug": "wikidata"}, "source_identifier": "Q121036573"}], "date_modified": "2025-03-14T17:47:29.106659+11:00"}]}