{"count": 28687, "next": "https://api.acmi.net.au/creators/?page=951", "previous": "https://api.acmi.net.au/creators/?page=949", "results": [{"id": 76082, "name": "Jane Keehn", "roles_in_work": [{"id": 2647922, "title": "Stepfamily Dynamics", "work_id": 77810, "role": "co-director", "role_id": 959, "is_primary": true}], "also_known_as": "", "date_of_birth": "", "date_of_death": "", "genders": [], "languages": [], "places_of_operation": [], "biography": "", "biography_author": null, "date_of_biography": "2023-05-09T18:51:08.141113+10:00", "external_links": [], "uuid": "1911aaca-7cea-4648-bbd9-c92d1f0d65c6", "source": {"name": "Vernon", "slug": "vernon"}, "source_identifier": "21416", "external_references": [{"id": 37643, "source": {"name": "Wikidata", "slug": "wikidata"}, "source_identifier": "Q121036399"}], "date_modified": "2025-03-05T13:36:02.509773+11:00"}, {"id": 76081, "name": "Robin Bootle", "roles_in_work": [{"id": 897659, "title": "The Mysterious Mr Tesla", "work_id": 77809, "role": "co-producer", "role_id": 915, "is_primary": true}], "also_known_as": "", "date_of_birth": null, "date_of_death": null, "genders": [], "languages": [], "places_of_operation": [], "biography": "", "biography_author": null, "date_of_biography": null, "external_links": [], "uuid": "cd4adb20-610b-4091-a0e9-e914f0076ef4", "source": {"name": "Vernon", "slug": "vernon"}, "source_identifier": null, "external_references": [{"id": 39414, "source": {"name": "Wikidata", "slug": "wikidata"}, "source_identifier": "Q121126600"}], "date_modified": "2023-09-06T00:49:04.076188+10:00"}, {"id": 76080, "name": "Andre Herman", "roles_in_work": [{"id": 864195, "title": "Katzuby", "work_id": 77807, "role": "director", "role_id": 938, "is_primary": true}], "also_known_as": "", "date_of_birth": null, "date_of_death": null, "genders": [], "languages": [], "places_of_operation": [], "biography": "", "biography_author": null, "date_of_biography": null, "external_links": [], "uuid": "9fee744e-306f-4664-935f-bef0756fd289", "source": {"name": "Vernon", "slug": "vernon"}, "source_identifier": null, "external_references": [{"id": 37088, "source": {"name": "Wikidata", "slug": "wikidata"}, "source_identifier": "Q121271286"}], "date_modified": "2023-09-05T17:33:54.703140+10:00"}, {"id": 76079, "name": "Xu Jingala", "roles_in_work": [{"id": 897651, "title": "Little Nezha fights great dragon kings", "work_id": 77799, "role": "co-director", "role_id": 959, "is_primary": true}], "also_known_as": "", "date_of_birth": null, "date_of_death": null, "genders": [], "languages": [], "places_of_operation": [], "biography": "", "biography_author": null, "date_of_biography": null, "external_links": [], "uuid": "c8f1e4af-e22f-49af-999d-b9b20a5a4fdd", "source": {"name": "Vernon", "slug": "vernon"}, "source_identifier": null, "external_references": [{"id": 36407, "source": {"name": "Wikidata", "slug": "wikidata"}, "source_identifier": "Q121298837"}], "date_modified": "2023-09-06T02:21:36.489685+10:00"}, {"id": 76078, "name": "Yang Dangxian", "roles_in_work": [{"id": 897650, "title": "Little Nezha fights great dragon kings", "work_id": 77799, "role": "co-director", "role_id": 959, "is_primary": true}], "also_known_as": "", "date_of_birth": null, "date_of_death": null, "genders": [], "languages": [], "places_of_operation": [], "biography": "", "biography_author": null, "date_of_biography": null, "external_links": [], "uuid": "571ce12c-d7d1-4866-8b99-b7545ed0b400", "source": {"name": "Vernon", "slug": "vernon"}, "source_identifier": null, "external_references": [{"id": 41427, "source": {"name": "Wikidata", "slug": "wikidata"}, "source_identifier": "Q121314921"}], "date_modified": "2023-09-06T02:22:06.723002+10:00"}, {"id": 76077, "name": "Wong Schuchen", "roles_in_work": [{"id": 897649, "title": "Little Nezha fights great dragon kings", "work_id": 77799, "role": "co-director", "role_id": 959, "is_primary": true}], "also_known_as": "", "date_of_birth": null, "date_of_death": null, "genders": [], "languages": [], "places_of_operation": [], "biography": "", "biography_author": null, "date_of_biography": null, "external_links": [], "uuid": "141aa901-c35d-4e87-b748-1dbba29b9413", "source": {"name": "Vernon", "slug": "vernon"}, "source_identifier": null, "external_references": [{"id": 39836, "source": {"name": "Wikidata", "slug": "wikidata"}, "source_identifier": "Q121036794"}], "date_modified": "2023-09-06T02:20:15.904723+10:00"}, {"id": 76076, "name": "Ken Harrison", "roles_in_work": [{"id": 2409012, "title": "Hannah and the dog ghost", "work_id": 77798, "role": "producer/director", "role_id": 31, "is_primary": true}], "also_known_as": "", "date_of_birth": "", "date_of_death": "", "genders": [], "languages": [], "places_of_operation": [], "biography": "", "biography_author": null, "date_of_biography": "2023-08-11T17:13:26.363885+10:00", "external_links": [], "uuid": "1a60efc7-9071-46d7-85db-bc6324efae6b", "source": {"name": "Vernon", "slug": "vernon"}, "source_identifier": "23185", "external_references": [{"id": 51645, "source": {"name": "Wikidata", "slug": "wikidata"}, "source_identifier": "Q114340482"}], "date_modified": "2023-09-05T22:04:32.870454+10:00"}, {"id": 76075, "name": "Jaems Grant", "roles_in_work": [{"id": 2327973, "title": "The Art of drowning", "work_id": 83786, "role": "director", "role_id": 938, "is_primary": true}, {"id": 2302217, "title": "Skipping class", "work_id": 77793, "role": "cinematographer", "role_id": 32, "is_primary": false}, {"id": 2348839, "title": "The Floating Brothel", "work_id": 95583, "role": "director of photography", "role_id": 925, "is_primary": false}, {"id": 2754101, "title": "Computing History: Teaching With a New Technology", "work_id": 99057, "role": "director of photography", "role_id": 925, "is_primary": false}], "also_known_as": "", "date_of_birth": "", "date_of_death": "", "genders": [], "languages": [], "places_of_operation": [], "biography": "", "biography_author": null, "date_of_biography": "2023-05-09T19:52:32.266696+10:00", "external_links": [], "uuid": "f3c68d9a-61cd-4124-b18d-e2a8fb3f6841", "source": {"name": "Vernon", "slug": "vernon"}, "source_identifier": "21171", "external_references": [{"id": 36405, "source": {"name": "Wikidata", "slug": "wikidata"}, "source_identifier": "Q121222873"}], "date_modified": "2025-03-13T01:37:34.434708+11:00"}, {"id": 76074, "name": "Gerald A Schiller", "roles_in_work": [{"id": 2750624, "title": "Chaplin: a character is born", "work_id": 97420, "role": "producer/director", "role_id": 31, "is_primary": true}, {"id": 2647915, "title": "The World outside (TEFC)", "work_id": 77790, "role": "producer/director", "role_id": 31, "is_primary": true}, {"id": 2748763, "title": "Dawn of a new era: America enters the 20th century", "work_id": 96451, "role": "producer/director", "role_id": 31, "is_primary": true}, {"id": 826432, "title": "The Movies story", "work_id": 96342, "role": "producer/director", "role_id": 31, "is_primary": true}], "also_known_as": "", "date_of_birth": "", "date_of_death": "", "genders": [], "languages": [], "places_of_operation": [], "biography": "", "biography_author": null, "date_of_biography": "2023-05-09T18:01:26.936898+10:00", "external_links": [], "uuid": "e51d4bf6-5b1a-4ff4-b0ae-b1a1645ce8fb", "source": {"name": "Vernon", "slug": "vernon"}, "source_identifier": "19720", "external_references": [{"id": 51435, "source": {"name": "Wikidata", "slug": "wikidata"}, "source_identifier": "Q121360918"}], "date_modified": "2025-03-13T00:26:29.039087+11:00"}, {"id": 76073, "name": "Andreas Poulsson", "roles_in_work": [{"id": 897934, "title": "Log house = Cabane de rondins", "work_id": 78000, "role": "co-director", "role_id": 959, "is_primary": true}, {"id": 1818768, "title": "Muscle", "work_id": 77784, "role": "producer", "role_id": 1089, "is_primary": true}], "also_known_as": "", "date_of_birth": null, "date_of_death": null, "genders": [], "languages": [], "places_of_operation": [], "biography": "", "biography_author": null, "date_of_biography": null, "external_links": [], "uuid": "3d0ea3b3-a293-405c-b6b9-c8b2e973ddd8", "source": {"name": "Vernon", "slug": "vernon"}, "source_identifier": null, "external_references": [{"id": 35541, "source": {"name": "Wikidata", "slug": "wikidata"}, "source_identifier": "Q121315270"}], "date_modified": "2023-09-05T17:34:44.804377+10:00"}]}