{"count": 28684, "next": "https://api.acmi.net.au/creators/?page=2036", "previous": "https://api.acmi.net.au/creators/?page=2034", "results": [{"id": 21808, "name": "Frank Rijavec", "roles_in_work": [{"id": 2754457, "title": "Last stand", "work_id": 99211, "role": "director", "role_id": 938, "is_primary": true}, {"id": 2117706, "title": "Black magic", "work_id": 79272, "role": "co-director", "role_id": 959, "is_primary": true}, {"id": 2117755, "title": "Black Magic (Captioned)", "work_id": 79747, "role": "co-director", "role_id": 959, "is_primary": true}, {"id": 2223007, "title": "Exile and the kingdom", "work_id": 82927, "role": "producer/director", "role_id": 31, "is_primary": true}, {"id": 2774587, "title": "Skin of the earth", "work_id": 82603, "role": "producer/director", "role_id": 31, "is_primary": true}, {"id": 2223005, "title": "Exile and the kingdom", "work_id": 82927, "role": "production company", "role_id": 941, "is_primary": true}], "also_known_as": "", "date_of_birth": "", "date_of_death": "", "genders": [], "languages": [], "places_of_operation": [], "biography": "", "biography_author": null, "date_of_biography": "2023-05-09T19:29:14.810696+10:00", "external_links": [], "uuid": "ca22b2d4-b9c8-4d6e-ab39-ce46d04a554f", "source": {"name": "Vernon", "slug": "vernon"}, "source_identifier": "19163", "external_references": [{"id": 32979, "source": {"name": "Wikidata", "slug": "wikidata"}, "source_identifier": "Q121057953"}], "date_modified": "2025-03-14T18:38:13.271955+11:00"}, {"id": 21801, "name": "Koala Bare Films", "roles_in_work": [{"id": 2465926, "title": "So You Want a Dog?", "work_id": 79264, "role": "producer", "role_id": 1089, "is_primary": true}], "also_known_as": "", "date_of_birth": "", "date_of_death": "", "genders": [], "languages": [], "places_of_operation": [], "biography": "", "biography_author": null, "date_of_biography": "2023-08-14T10:45:28.865869+10:00", "external_links": [], "uuid": "4c7146e7-307a-417a-9df8-44df1b97c41e", "source": {"name": "Vernon", "slug": "vernon"}, "source_identifier": "9807", "external_references": [], "date_modified": "2023-08-14T10:45:28.866247+10:00"}, {"id": 21800, "name": "Sophie Balhetchet", "roles_in_work": [{"id": 2335418, "title": "The Camomile lawn", "work_id": 83687, "role": "co-producer", "role_id": 915, "is_primary": true}, {"id": 2648465, "title": "26 Bathrooms", "work_id": 79262, "role": "producer", "role_id": 1089, "is_primary": true}], "also_known_as": "", "date_of_birth": "", "date_of_death": "", "genders": [], "languages": [], "places_of_operation": [], "biography": "", "biography_author": null, "date_of_biography": "2023-05-09T19:31:08.957689+10:00", "external_links": [], "uuid": "e5777db0-6812-4e5e-b3ce-a3a5c673f746", "source": {"name": "Vernon", "slug": "vernon"}, "source_identifier": "28904", "external_references": [{"id": 33356, "source": {"name": "Wikidata", "slug": "wikidata"}, "source_identifier": "Q121091236"}], "date_modified": "2025-03-05T13:46:05.442461+11:00"}, {"id": 21799, "name": "Channel 4", "roles_in_work": [{"id": 2151180, "title": "Miscarriage", "work_id": 79279, "role": "co-producer", "role_id": 915, "is_primary": true}, {"id": 769235, "title": "Debs", "work_id": 79267, "role": "distributor", "role_id": 437, "is_primary": false}, {"id": 2648464, "title": "26 Bathrooms", "work_id": 79262, "role": "distributor", "role_id": 437, "is_primary": false}, {"id": 1845592, "title": "E.K. Okay", "work_id": 79266, "role": "distributor", "role_id": 437, "is_primary": false}, {"id": 884144, "title": "Gloriana", "work_id": 94470, "role": "production company", "role_id": 941, "is_primary": true}, {"id": 773264, "title": "Sidney Nolan: Such Is Life", "work_id": 80817, "role": "production company", "role_id": 941, "is_primary": true}, {"id": 2283584, "title": "Vintage: A History of Wine. Eps. 11-13", "work_id": 81584, "role": "production company", "role_id": 941, "is_primary": true}, {"id": 2169086, "title": "Damage (E)", "work_id": 85407, "role": "production company", "role_id": 941, "is_primary": true}, {"id": 1994749, "title": "Carla's song", "work_id": 90534, "role": "production company", "role_id": 941, "is_primary": true}, {"id": 900562, "title": "Vintage: A History of Wine. Eps. 3 & 4", "work_id": 81509, "role": "production company", "role_id": 941, "is_primary": true}, {"id": 2330377, "title": "The Best of 'Out' & 'Out on Tuesday'", "work_id": 82714, "role": "production company", "role_id": 941, "is_primary": true}, {"id": 900545, "title": "Vintage: A History of Wine. Eps. 1 & 2", "work_id": 81495, "role": "production company", "role_id": 941, "is_primary": true}, {"id": 1847236, "title": "The Real Jurassic Park", "work_id": 85124, "role": "production company", "role_id": 941, "is_primary": true}, {"id": 2301441, "title": "Sister my sister", "work_id": 93548, "role": "production company", "role_id": 941, "is_primary": true}, {"id": 2235521, "title": "Random Alley", "work_id": 114374, "role": "production company", "role_id": 941, "is_primary": true}, {"id": 2288095, "title": "Vintage: A History of Wine. Eps. 9 & 10", "work_id": 81583, "role": "production company", "role_id": 941, "is_primary": true}, {"id": 2099133, "title": "Are we winning mommy?: America and the cold war", "work_id": 88152, "role": "production company", "role_id": 941, "is_primary": true}, {"id": 2315551, "title": "Strip Jack naked: nighthawks 2", "work_id": 82258, "role": "production company", "role_id": 941, "is_primary": true}, {"id": 1846457, "title": "England's Henry Moore", "work_id": 82386, "role": "production company", "role_id": 941, "is_primary": true}, {"id": 2292799, "title": "Theremin: an electronic odyssey", "work_id": 93728, "role": "production company", "role_id": 941, "is_primary": true}, {"id": 788055, "title": "The Wonderful horrible life of Leni Riefenstahl", "work_id": 85037, "role": "production company", "role_id": 941, "is_primary": true}, {"id": 2354429, "title": "The Holloway Laundrette", "work_id": 114376, "role": "production company", "role_id": 941, "is_primary": true}, {"id": 866339, "title": "You're the Top: The Cole Porter Story", "work_id": 81314, "role": "production company", "role_id": 941, "is_primary": true}, {"id": 1987398, "title": "Hush-a-bye baby", "work_id": 83547, "role": "production company", "role_id": 941, "is_primary": true}, {"id": 912280, "title": "The Secret life of us. Eps. 01-03", "work_id": 92698, "role": "production company", "role_id": 941, "is_primary": true}, {"id": 781542, "title": "Das Rheingold", "work_id": 83169, "role": "production company", "role_id": 941, "is_primary": true}, {"id": 2063534, "title": "16 Bars", "work_id": 114385, "role": "production company", "role_id": 941, "is_primary": true}, {"id": 777183, "title": "The Garden", "work_id": 81925, "role": "production company", "role_id": 941, "is_primary": true}, {"id": 2616095, "title": "The North = El Norte", "work_id": 86808, "role": "production company", "role_id": 941, "is_primary": true}, {"id": 2260616, "title": "Salaam Bombay!", "work_id": 82605, "role": "production company", "role_id": 941, "is_primary": true}, {"id": 1996985, "title": "Rita, Sue and Bob too", "work_id": 93059, "role": "production company", "role_id": 941, "is_primary": true}, {"id": 2104437, "title": "Australia: eye of the storm", "work_id": 90568, "role": "production company", "role_id": 941, "is_primary": true}, {"id": 2321687, "title": "Tales of the city [DVD]", "work_id": 93663, "role": "production company", "role_id": 941, "is_primary": true}, {"id": 2043308, "title": "Land Bilong Islanders", "work_id": 80690, "role": "production company", "role_id": 941, "is_primary": true}, {"id": 2067718, "title": "A Dog's world", "work_id": 91844, "role": "production company", "role_id": 941, "is_primary": true}, {"id": 2289233, "title": "Vintage: A History of Wine. Eps. 5 & 6", "work_id": 81534, "role": "production company", "role_id": 941, "is_primary": true}, {"id": 2199070, "title": "Doodlin': impressions of Len Lye", "work_id": 93246, "role": "production company", "role_id": 941, "is_primary": true}, {"id": 2207320, "title": "Placido: a year in the life of Placido Domingo", "work_id": 95274, "role": "production company", "role_id": 941, "is_primary": true}, {"id": 2083825, "title": "Act of necessity", "work_id": 81747, "role": "production company", "role_id": 941, "is_primary": true}, {"id": 1990239, "title": "Trainspotting", "work_id": 85711, "role": "production company", "role_id": 941, "is_primary": true}, {"id": 2296823, "title": "Shallow grave", "work_id": 86396, "role": "production company", "role_id": 941, "is_primary": true}, {"id": 791112, "title": "Mandela", "work_id": 85835, "role": "production company", "role_id": 941, "is_primary": true}, {"id": 2660616, "title": "Process V3", "work_id": 117414, "role": "production company", "role_id": 941, "is_primary": true}, {"id": 2660622, "title": "Vida Longa = Long Life", "work_id": 114375, "role": "production company", "role_id": 941, "is_primary": true}, {"id": 2660800, "title": "We Don't Own a Dog", "work_id": 114377, "role": "production company", "role_id": 941, "is_primary": true}, {"id": 2660808, "title": "Double Take", "work_id": 114378, "role": "production company", "role_id": 941, "is_primary": true}, {"id": 2660819, "title": "Bad Things That Could Happen", "work_id": 114379, "role": "production company", "role_id": 941, "is_primary": true}, {"id": 2660825, "title": "Pepstar", "work_id": 114380, "role": "production company", "role_id": 941, "is_primary": true}, {"id": 2660831, "title": "We are the People", "work_id": 114381, "role": "production company", "role_id": 941, "is_primary": true}, {"id": 2660835, "title": "Polybius", "work_id": 114382, "role": "production company", "role_id": 941, "is_primary": true}, {"id": 2660841, "title": "Chaps on Tour 2011 [Short version]", "work_id": 114383, "role": "production company", "role_id": 941, "is_primary": true}, {"id": 2660845, "title": "Light Percussion", "work_id": 114384, "role": "production company", "role_id": 941, "is_primary": true}, {"id": 2660853, "title": "Mozart's House", "work_id": 114387, "role": "production company", "role_id": 941, "is_primary": true}, {"id": 2660859, "title": "Robots of Brixton", "work_id": 114388, "role": "production company", "role_id": 941, "is_primary": true}, {"id": 2660862, "title": "Acts of Kindness", "work_id": 114389, "role": "production company", "role_id": 941, "is_primary": true}, {"id": 2660869, "title": "The Estate", "work_id": 114390, "role": "production company", "role_id": 941, "is_primary": true}, {"id": 2660877, "title": "The History of an Orange", "work_id": 114391, "role": "production company", "role_id": 941, "is_primary": true}, {"id": 2660882, "title": "Peter", "work_id": 114392, "role": "production company", "role_id": 941, "is_primary": true}, {"id": 2660892, "title": "Z", "work_id": 114393, "role": "production company", "role_id": 941, "is_primary": true}, {"id": 2660898, "title": "Outside the Box", "work_id": 114394, "role": "production company", "role_id": 941, "is_primary": true}, {"id": 2786502, "title": "Painting and the public: patronage, museums and the art market", "work_id": 82580, "role": "production company", "role_id": 941, "is_primary": true}, {"id": 2614743, "title": "The Last Bolshevik", "work_id": 84180, "role": "production company", "role_id": 941, "is_primary": true}, {"id": 2615319, "title": "Handel Messiah: the 250th anniversary performance. For ever and ever", "work_id": 85212, "role": "production company", "role_id": 941, "is_primary": true}, {"id": 2649719, "title": "The Wonderful world of dogs", "work_id": 82078, "role": "production company", "role_id": 941, "is_primary": true}, {"id": 2649815, "title": "The Professor's new clothes", "work_id": 82277, "role": "production company", "role_id": 941, "is_primary": true}, {"id": 2760799, "title": "Beneath the veil (D)", "work_id": 93372, "role": "production company", "role_id": 941, "is_primary": true}, {"id": 2788743, "title": "Eight litres a minute", "work_id": 82847, "role": "production company", "role_id": 941, "is_primary": true}, {"id": 2788750, "title": "Shifting sands", "work_id": 82848, "role": "production company", "role_id": 941, "is_primary": true}, {"id": 2788756, "title": "Greening the land", "work_id": 82849, "role": "production company", "role_id": 941, "is_primary": true}, {"id": 2788764, "title": "A Safety net", "work_id": 82850, "role": "production company", "role_id": 941, "is_primary": true}, {"id": 2788769, "title": "Battle for the planet", "work_id": 115368, "role": "production company", "role_id": 941, "is_primary": true}, {"id": 2789643, "title": "Testament: The Bible and history", "work_id": 115392, "role": "production company", "role_id": 941, "is_primary": true}, {"id": 2789614, "title": "Once upon a time", "work_id": 84422, "role": "production company", "role_id": 941, "is_primary": true}, {"id": 2789618, "title": "Chronicles and kings", "work_id": 84423, "role": "production company", "role_id": 941, "is_primary": true}, {"id": 2789623, "title": "Mightier than the sword", "work_id": 84424, "role": "production company", "role_id": 941, "is_primary": true}, {"id": 2789628, "title": "Gospel truth", "work_id": 84425, "role": "production company", "role_id": 941, "is_primary": true}, {"id": 2789632, "title": "Thine is the kingdom", "work_id": 84426, "role": "production company", "role_id": 941, "is_primary": true}, {"id": 2789640, "title": "Paradise lost", "work_id": 84428, "role": "production company", "role_id": 941, "is_primary": true}, {"id": 2790905, "title": "The Legacy of Greece", "work_id": 84611, "role": "production company", "role_id": 941, "is_primary": true}, {"id": 2791690, "title": "Citizen Kane by Robert McKee", "work_id": 84431, "role": "production company", "role_id": 941, "is_primary": true}, {"id": 1984860, "title": "Hail Mary = Je Vous salue Marie", "work_id": 80856, "role": "production company", "role_id": 941, "is_primary": true}, {"id": 818875, "title": "Canticle of the stones = Cantique des pierres [Widescreen]", "work_id": 94204, "role": "production company", "role_id": 941, "is_primary": true}, {"id": 813161, "title": "Vagabond = Sans toit ni loi", "work_id": 92856, "role": "production company", "role_id": 941, "is_primary": true}, {"id": 2157002, "title": "My City", "work_id": 114386, "role": "production company", "role_id": 941, "is_primary": true}, {"id": 2264458, "title": "Scientific cook: stale tales", "work_id": 85831, "role": "production company", "role_id": 941, "is_primary": true}], "also_known_as": "", "date_of_birth": "", "date_of_death": "", "genders": [], "languages": [], "places_of_operation": [], "biography": "Channel 4 is a British free-to-air public broadcast television channel owned and operated by the state-owned Channel Four Television Corporation. It is publicly owned but, unlike the BBC, it receives no public funding and is instead funded entirely by its own commercial activities, including publicity. It began its transmission in 1982 and was established to provide a fourth television service in the United Kingdom. At the time, the only other channels were the licence-funded BBC One and BBC Two, and a single commercial broadcasting network ITV.\n\nOriginally a subsidiary of the Independent Broadcasting Authority (IBA), the station is now owned and operated by Channel Four Television Corporation, a public corporation of the Department for Culture, Media and Sport, which was established in 1990 and came into operation in 1993. Until 2010, Channel 4 did not broadcast in Wales, but many of its programmes were re-broadcast there by the Welsh fourth channel S4C. In 2010, Channel 4 extended service into Wales and became a UK-wide television channel. The network's headquarters are in London and Leeds, with creative hubs in Glasgow and Bristol. Source: Wikidata; 01/08/2023", "biography_author": null, "date_of_biography": "2025-03-14T20:04:22.356846+11:00", "external_links": [{"id": 3730, "uri": "https://en.wikipedia.org/wiki/Channel_4"}], "uuid": "bb23a4e6-bab7-42f5-b25b-dd108f851f1d", "source": {"name": "Vernon", "slug": "vernon"}, "source_identifier": "6481", "external_references": [{"id": 26878, "source": {"name": "Wikidata", "slug": "wikidata"}, "source_identifier": "Q501070"}, {"id": 27736, "source": {"name": "VIAF", "slug": "viaf"}, "source_identifier": "124059357"}, {"id": 27737, "source": {"name": "LOC Auth", "slug": "loc-auth"}, "source_identifier": "n86808560"}, {"id": 27738, "source": {"name": "WorldCat", "slug": "worldcat"}, "source_identifier": "viaf-124059357"}], "date_modified": "2025-03-14T20:04:22.357183+11:00"}, {"id": 21794, "name": "Louise Hubbard", "roles_in_work": [{"id": 2774654, "title": "Child at the centre", "work_id": 83563, "role": "director", "role_id": 938, "is_primary": true}, {"id": 769217, "title": "Passiona", "work_id": 79257, "role": "director", "role_id": 938, "is_primary": true}, {"id": 904965, "title": "Gorilla girls", "work_id": 85706, "role": "co-producer", "role_id": 915, "is_primary": true}, {"id": 1427882, "title": "Beating the drum", "work_id": 88040, "role": "co-producer", "role_id": 915, "is_primary": true}, {"id": 2774639, "title": "The Right to be heard", "work_id": 83513, "role": "co-producer", "role_id": 915, "is_primary": true}, {"id": 2774640, "title": "The Right to be heard", "work_id": 83513, "role": "director", "role_id": 938, "is_primary": true}, {"id": 2648693, "title": "Bitter Surrender", "work_id": 79829, "role": "producer", "role_id": 1089, "is_primary": true}, {"id": 2615101, "title": "Speaking up", "work_id": 84849, "role": "producer", "role_id": 1089, "is_primary": true}], "also_known_as": "", "date_of_birth": "", "date_of_death": "", "genders": [], "languages": [], "places_of_operation": [], "biography": "", "biography_author": null, "date_of_biography": "2023-05-09T19:30:05.232253+10:00", "external_links": [], "uuid": "3b8c0443-438f-4167-906c-797ae97cd4d1", "source": {"name": "Vernon", "slug": "vernon"}, "source_identifier": "24042", "external_references": [], "date_modified": "2025-03-14T18:38:58.175745+11:00"}, {"id": 21793, "name": "Fiona Cochrane", "roles_in_work": [{"id": 2345440, "title": "The Dilemma: a child sexual abuse training package for doctors", "work_id": 85253, "role": "director", "role_id": 938, "is_primary": true}, {"id": 2359996, "title": "Stories and songs of the people: they came for gathering", "work_id": 91860, "role": "director", "role_id": 938, "is_primary": true}, {"id": 904966, "title": "Gorilla girls", "work_id": 85706, "role": "director", "role_id": 938, "is_primary": true}, {"id": 780572, "title": "So young", "work_id": 82923, "role": "director", "role_id": 938, "is_primary": true}, {"id": 1427883, "title": "Beating the drum", "work_id": 88040, "role": "director", "role_id": 938, "is_primary": true}, {"id": 2615102, "title": "Speaking up", "work_id": 84849, "role": "director", "role_id": 938, "is_primary": true}, {"id": 904964, "title": "Gorilla girls", "work_id": 85706, "role": "co-producer", "role_id": 915, "is_primary": true}, {"id": 2359995, "title": "Stories and songs of the people: they came for gathering", "work_id": 91860, "role": "co-producer", "role_id": 915, "is_primary": true}, {"id": 1427881, "title": "Beating the drum", "work_id": 88040, "role": "co-producer", "role_id": 915, "is_primary": true}, {"id": 1807352, "title": "Passiona", "work_id": 79257, "role": "producer", "role_id": 1089, "is_primary": true}, {"id": 2249803, "title": "Rhino christmas", "work_id": 85602, "role": "producer", "role_id": 1089, "is_primary": true}, {"id": 2161346, "title": "Nirvana Street murder", "work_id": 82925, "role": "producer", "role_id": 1089, "is_primary": true}, {"id": 1814165, "title": "Holidays on the River Yarra", "work_id": 84368, "role": "producer", "role_id": 1089, "is_primary": true}, {"id": 3110282, "title": "Stories and songs of the people: the second stage", "work_id": 116514, "role": "producer/director", "role_id": 31, "is_primary": true}, {"id": 884541, "title": "Screamin' wheelies", "work_id": 94730, "role": "producer/director", "role_id": 31, "is_primary": true}, {"id": 791771, "title": "In the family", "work_id": 86025, "role": "producer/director", "role_id": 31, "is_primary": true}], "also_known_as": "", "date_of_birth": "", "date_of_death": "", "genders": [], "languages": [], "places_of_operation": [], "biography": "", "biography_author": null, "date_of_biography": "2023-05-10T03:35:18.714491+10:00", "external_links": [], "uuid": "5d6b7a52-96eb-4673-bda8-9b9fc44d688a", "source": {"name": "Vernon", "slug": "vernon"}, "source_identifier": "19005", "external_references": [{"id": 38255, "source": {"name": "Wikidata", "slug": "wikidata"}, "source_identifier": "Q117860598"}], "date_modified": "2025-12-17T14:35:22.872063+11:00"}, {"id": 21792, "name": "Catherine South", "roles_in_work": [{"id": 769211, "title": "Letterboxes: the inside story", "work_id": 79255, "role": "director", "role_id": 938, "is_primary": true}, {"id": 2789135, "title": "Patsy Adam-Smith: author and social historian", "work_id": 83749, "role": "co-producers/directors", "role_id": 628, "is_primary": true}], "also_known_as": "", "date_of_birth": "", "date_of_death": "", "genders": [], "languages": [], "places_of_operation": [], "biography": "", "biography_author": null, "date_of_biography": "2023-05-09T15:53:10.140904+10:00", "external_links": [], "uuid": "d4196b71-e888-4d11-84d9-ddae47b18226", "source": {"name": "Vernon", "slug": "vernon"}, "source_identifier": "16604", "external_references": [{"id": 42337, "source": {"name": "Wikidata", "slug": "wikidata"}, "source_identifier": "Q121091073"}], "date_modified": "2025-03-14T19:49:29.328113+11:00"}, {"id": 21791, "name": "John Tutty", "roles_in_work": [{"id": 2122429, "title": "Bonsai for the Beginner (Captioned)", "work_id": 80227, "role": "director", "role_id": 938, "is_primary": true}, {"id": 790631, "title": "The Game is up!", "work_id": 85689, "role": "director", "role_id": 938, "is_primary": true}, {"id": 1426288, "title": "Learn to Ski", "work_id": 79254, "role": "director", "role_id": 938, "is_primary": true}, {"id": 2266092, "title": "Secrets of Successful Fishing", "work_id": 79265, "role": "director", "role_id": 938, "is_primary": true}], "also_known_as": "", "date_of_birth": "", "date_of_death": "", "genders": [], "languages": [], "places_of_operation": [], "biography": "", "biography_author": null, "date_of_biography": "2023-05-09T17:37:50.838812+10:00", "external_links": [], "uuid": "fe826aee-da68-4f52-a63b-62ebc61572b0", "source": {"name": "Vernon", "slug": "vernon"}, "source_identifier": "22560", "external_references": [{"id": 51767, "source": {"name": "Wikidata", "slug": "wikidata"}, "source_identifier": "Q121357618"}], "date_modified": "2023-09-05T21:45:26.676795+10:00"}, {"id": 21790, "name": "Videosonic Productions", "roles_in_work": [{"id": 2266090, "title": "Secrets of Successful Fishing", "work_id": 79265, "role": "producer", "role_id": 1089, "is_primary": true}, {"id": 1426287, "title": "Learn to Ski", "work_id": 79254, "role": "production company", "role_id": 941, "is_primary": true}, {"id": 2122427, "title": "Bonsai for the Beginner (Captioned)", "work_id": 80227, "role": "production company", "role_id": 941, "is_primary": true}], "also_known_as": "", "date_of_birth": "", "date_of_death": "", "genders": [], "languages": [], "places_of_operation": [], "biography": "", "biography_author": null, "date_of_biography": "2023-05-09T17:37:50.613590+10:00", "external_links": [], "uuid": "d1488514-16a7-4df4-8f2e-4d57b3abea73", "source": {"name": "Vernon", "slug": "vernon"}, "source_identifier": "3953", "external_references": [{"id": 42746, "source": {"name": "Wikidata", "slug": "wikidata"}, "source_identifier": "Q121159825"}], "date_modified": "2023-09-06T02:06:17.017162+10:00"}, {"id": 21789, "name": "Neal Chrisford", "roles_in_work": [{"id": 2113139, "title": "Better Wine Enjoyment", "work_id": 79249, "role": "director", "role_id": 938, "is_primary": true}], "also_known_as": "", "date_of_birth": "", "date_of_death": "", "genders": [], "languages": [], "places_of_operation": [], "biography": "", "biography_author": null, "date_of_biography": "2023-05-09T12:50:36.208542+10:00", "external_links": [], "uuid": "f0c1cb4e-55c7-4fb6-bc6b-b2ac28148b6e", "source": {"name": "Vernon", "slug": "vernon"}, "source_identifier": "25651", "external_references": [{"id": 40719, "source": {"name": "Wikidata", "slug": "wikidata"}, "source_identifier": "Q121035126"}], "date_modified": "2023-09-05T23:26:26.015173+10:00"}]}