{"count": 28687, "next": "https://api.acmi.net.au/creators/?page=2349", "previous": "https://api.acmi.net.au/creators/?page=2347", "results": [{"id": 15870, "name": "Hugh Baddeley Productions", "roles_in_work": [{"id": 2749361, "title": "Animals of the rocky shore", "work_id": 96764, "role": "production company", "role_id": 941, "is_primary": true}, {"id": 2750023, "title": "The Agrarian revolution", "work_id": 97101, "role": "production company", "role_id": 941, "is_primary": true}, {"id": 2751956, "title": "Sculpture of the Parthenon", "work_id": 98070, "role": "production company", "role_id": 941, "is_primary": true}, {"id": 2645198, "title": "The Industrial revolution", "work_id": 68921, "role": "production company", "role_id": 941, "is_primary": true}, {"id": 828528, "title": "Wool & mutton = Wool and mutton", "work_id": 97267, "role": "production company", "role_id": 941, "is_primary": true}, {"id": 828525, "title": "Milk and beef", "work_id": 97266, "role": "production company", "role_id": 941, "is_primary": true}], "also_known_as": "", "date_of_birth": "", "date_of_death": "", "genders": [], "languages": [], "places_of_operation": [], "biography": "", "biography_author": null, "date_of_biography": "2023-08-11T14:06:59.139231+10:00", "external_links": [], "uuid": "50359230-2411-47ab-93e0-619a88c952e7", "source": {"name": "Vernon", "slug": "vernon"}, "source_identifier": "9181", "external_references": [], "date_modified": "2025-03-13T00:55:35.053619+11:00"}, {"id": 15869, "name": "Fred Clarke", "roles_in_work": [{"id": 2647468, "title": "The Tuna coast", "work_id": 76414, "role": "director", "role_id": 938, "is_primary": true}, {"id": 859938, "title": "Trout country", "work_id": 74036, "role": "director", "role_id": 938, "is_primary": true}, {"id": 2716371, "title": "Industrial journey", "work_id": 68916, "role": "producer", "role_id": 1089, "is_primary": true}], "also_known_as": "", "date_of_birth": null, "date_of_death": null, "genders": [], "languages": [], "places_of_operation": [], "biography": "", "biography_author": null, "date_of_biography": null, "external_links": [], "uuid": "309fda15-c461-4b5b-9d87-5ffd1de8c698", "source": {"name": "Vernon", "slug": "vernon"}, "source_identifier": "19219", "external_references": [], "date_modified": "2025-03-12T01:55:48.816634+11:00"}, {"id": 15868, "name": "David Haythornthwaite", "roles_in_work": [{"id": 2769653, "title": "Gary", "work_id": 75340, "role": "director", "role_id": 938, "is_primary": true}, {"id": 2392368, "title": "A Steam train passes", "work_id": 75159, "role": "director", "role_id": 938, "is_primary": true}, {"id": 2392367, "title": "A Steam train passes", "work_id": 75159, "role": "director", "role_id": 938, "is_primary": true}, {"id": 2392171, "title": "Tempo: Australia in the 70's", "work_id": 73604, "role": "director", "role_id": 938, "is_primary": true}, {"id": 869993, "title": "Danny's egg (K)", "work_id": 86037, "role": "director", "role_id": 938, "is_primary": true}, {"id": 770177, "title": "Spirit of the Tall Ships", "work_id": 79623, "role": "director", "role_id": 938, "is_primary": true}, {"id": 2773313, "title": "Robin Klein", "work_id": 80048, "role": "director", "role_id": 938, "is_primary": true}, {"id": 2175113, "title": "Danny's egg", "work_id": 78032, "role": "director", "role_id": 938, "is_primary": true}, {"id": 757935, "title": "Wildlife ranger", "work_id": 74773, "role": "director", "role_id": 938, "is_primary": true}, {"id": 2298209, "title": "Shipmates", "work_id": 80073, "role": "director", "role_id": 938, "is_primary": true}, {"id": 857629, "title": "Repeater away", "work_id": 72147, "role": "director", "role_id": 938, "is_primary": true}, {"id": 762465, "title": "Apprenticeship: I wasn't made to be a secretary", "work_id": 76653, "role": "director", "role_id": 938, "is_primary": true}, {"id": 762513, "title": "You have to know that you like the job", "work_id": 76667, "role": "director", "role_id": 938, "is_primary": true}, {"id": 2763280, "title": "The Parents", "work_id": 77225, "role": "director", "role_id": 938, "is_primary": true}, {"id": 2716367, "title": "Industrial city", "work_id": 68913, "role": "director", "role_id": 938, "is_primary": true}, {"id": 2763273, "title": "The Teachers", "work_id": 77010, "role": "director", "role_id": 938, "is_primary": true}, {"id": 2763265, "title": "Puberty", "work_id": 76744, "role": "director", "role_id": 938, "is_primary": true}, {"id": 2763250, "title": "Birth day", "work_id": 77043, "role": "director", "role_id": 938, "is_primary": true}, {"id": 2760888, "title": "Outback supply", "work_id": 75367, "role": "director", "role_id": 938, "is_primary": true}, {"id": 2767070, "title": "You promised me gold", "work_id": 77938, "role": "co-director", "role_id": 959, "is_primary": true}, {"id": 2753202, "title": "The Human face of Indonesia", "work_id": 98651, "role": "co-director", "role_id": 959, "is_primary": true}, {"id": 1813395, "title": "My valley is changing", "work_id": 70728, "role": "producer", "role_id": 1089, "is_primary": true}], "also_known_as": "", "date_of_birth": "", "date_of_death": "", "genders": [], "languages": [], "places_of_operation": [], "biography": "", "biography_author": null, "date_of_biography": "2023-08-09T03:55:44.538332+10:00", "external_links": [], "uuid": "fdabd8d4-e9ea-463b-b0c1-357743eed16e", "source": {"name": "Vernon", "slug": "vernon"}, "source_identifier": "4584", "external_references": [], "date_modified": "2025-03-14T18:27:14.039431+11:00"}, {"id": 15866, "name": "William Deneen", "roles_in_work": [{"id": 1805002, "title": "Life in Ancient Rome", "work_id": 95849, "role": "producer", "role_id": 1089, "is_primary": true}, {"id": 2716348, "title": "Indonesia: new nation of Asia", "work_id": 68902, "role": "producer", "role_id": 1089, "is_primary": true}, {"id": 2758125, "title": "The Rocking horse winner", "work_id": 96891, "role": "producer", "role_id": 1089, "is_primary": true}, {"id": 1819312, "title": "Japanese boy: the story of Taro", "work_id": 69214, "role": "producer", "role_id": 1089, "is_primary": true}, {"id": 853962, "title": "Julius Caesar: the rise of the Roman Empire", "work_id": 69311, "role": "producer/director", "role_id": 31, "is_primary": true}], "also_known_as": "", "date_of_birth": null, "date_of_death": null, "genders": [], "languages": [], "places_of_operation": [], "biography": "", "biography_author": null, "date_of_biography": null, "external_links": [], "uuid": "25451b0b-4909-4595-a576-e01847256f85", "source": {"name": "Vernon", "slug": "vernon"}, "source_identifier": "30406", "external_references": [], "date_modified": "2025-03-13T14:48:24.356776+11:00"}, {"id": 15864, "name": "Australian Development Assistance Bureau", "roles_in_work": [{"id": 859851, "title": "Training for development", "work_id": 73973, "role": "production company", "role_id": 941, "is_primary": true}, {"id": 2716341, "title": "Indonesian development action", "work_id": 68899, "role": "production company", "role_id": 941, "is_primary": true}, {"id": 2793237, "title": "The Philippines: talking pictures", "work_id": 97685, "role": "sponsor", "role_id": 625, "is_primary": false}], "also_known_as": "", "date_of_birth": "", "date_of_death": "", "genders": [], "languages": [], "places_of_operation": [], "biography": "", "biography_author": null, "date_of_biography": "2023-08-11T18:23:56.067737+10:00", "external_links": [], "uuid": "457b39d9-dcb9-4f4a-8812-2b222f7334de", "source": {"name": "Vernon", "slug": "vernon"}, "source_identifier": "7546", "external_references": [], "date_modified": "2025-03-14T20:16:32.799531+11:00"}, {"id": 15861, "name": "Experimental Film and Television Fund", "roles_in_work": [{"id": 2381599, "title": "Ceremony", "work_id": 117278, "role": "production company", "role_id": 941, "is_primary": true}, {"id": 2751374, "title": "Khmer! Khmer!: Cambodia in conflict (D)", "work_id": 97780, "role": "production company", "role_id": 941, "is_primary": true}, {"id": 2381596, "title": "Witness", "work_id": 117276, "role": "production company", "role_id": 941, "is_primary": true}, {"id": 2748739, "title": "Cringe and they'll come running: an environmental study", "work_id": 96436, "role": "production company", "role_id": 941, "is_primary": true}, {"id": 2645189, "title": "Indonesia: an Alternative Lifestyle", "work_id": 68896, "role": "production company", "role_id": 941, "is_primary": true}, {"id": 2333393, "title": "The Bloodhouse", "work_id": 77730, "role": "production company", "role_id": 941, "is_primary": true}, {"id": 758691, "title": "Australian history", "work_id": 75114, "role": "support", "role_id": 492, "is_primary": false}], "also_known_as": "", "date_of_birth": "", "date_of_death": "", "genders": [], "languages": [], "places_of_operation": [], "biography": "", "biography_author": null, "date_of_biography": "2023-07-26T03:37:34.726310+10:00", "external_links": [], "uuid": "4d2f1044-4877-4d19-8a81-67794532fe1b", "source": {"name": "Vernon", "slug": "vernon"}, "source_identifier": "8030", "external_references": [], "date_modified": "2025-03-13T00:41:41.474108+11:00"}, {"id": 15860, "name": "University of New South Wales", "roles_in_work": [{"id": 2321602, "title": "Tales from the kangaroo's crypt (MAC & PC)", "work_id": 86169, "role": "production company", "role_id": 941, "is_primary": true}, {"id": 2716331, "title": "Individualised instruction", "work_id": 68894, "role": "production company", "role_id": 941, "is_primary": true}, {"id": 825420, "title": "Properties of Nuclear Radiation", "work_id": 95838, "role": "production company", "role_id": 941, "is_primary": true}], "also_known_as": "", "date_of_birth": "", "date_of_death": "", "genders": [], "languages": [], "places_of_operation": [], "biography": "", "biography_author": null, "date_of_biography": "2023-05-09T19:12:52.787142+10:00", "external_links": [], "uuid": "36753e42-5c89-4c7a-b94f-4104167aba8e", "source": {"name": "Vernon", "slug": "vernon"}, "source_identifier": "110539", "external_references": [{"id": 37532, "source": {"name": "Wikidata", "slug": "wikidata"}, "source_identifier": "Q121086124"}], "date_modified": "2025-03-12T01:55:22.441155+11:00"}, {"id": 15856, "name": "Joseph W. Elder", "roles_in_work": [{"id": 2716313, "title": "An Indian worker: from village to city", "work_id": 68883, "role": "producer", "role_id": 1089, "is_primary": true}], "also_known_as": "", "date_of_birth": "", "date_of_death": "", "genders": [], "languages": [], "places_of_operation": [], "biography": "", "biography_author": null, "date_of_biography": "2023-05-09T12:02:37.488028+10:00", "external_links": [], "uuid": "eb3df394-deee-4a5d-a806-7a53c00da71b", "source": {"name": "Vernon", "slug": "vernon"}, "source_identifier": "22755", "external_references": [{"id": 34550, "source": {"name": "Wikidata", "slug": "wikidata"}, "source_identifier": "Q121223308"}], "date_modified": "2025-03-12T01:55:08.636471+11:00"}, {"id": 15853, "name": "Philip Daly", "roles_in_work": [{"id": 1811974, "title": "The Sugar disease", "work_id": 73350, "role": "producer", "role_id": 1089, "is_primary": true}, {"id": 1817626, "title": "Machines like men", "work_id": 69968, "role": "producer", "role_id": 1089, "is_primary": true}, {"id": 1812658, "title": "The Mind of man", "work_id": 70393, "role": "producer", "role_id": 1089, "is_primary": true}, {"id": 2645622, "title": "Men at the heart of matter", "work_id": 70294, "role": "producer", "role_id": 1089, "is_primary": true}, {"id": 2716304, "title": "Indian eyes on the future", "work_id": 68878, "role": "producer/director", "role_id": 31, "is_primary": true}], "also_known_as": "", "date_of_birth": null, "date_of_death": null, "genders": [], "languages": [], "places_of_operation": [], "biography": "", "biography_author": null, "date_of_biography": null, "external_links": [], "uuid": "94cac64b-0247-4eee-adc1-81e76dc6bf67", "source": {"name": "Vernon", "slug": "vernon"}, "source_identifier": "26810", "external_references": [], "date_modified": "2025-03-12T01:55:01.962703+11:00"}, {"id": 15852, "name": "Commonwealth Relations Office", "roles_in_work": [{"id": 2716297, "title": "India welcomes the Queen, 1961", "work_id": 68873, "role": "production company", "role_id": 941, "is_primary": true}], "also_known_as": "", "date_of_birth": null, "date_of_death": null, "genders": [], "languages": [], "places_of_operation": [], "biography": "", "biography_author": null, "date_of_biography": null, "external_links": [], "uuid": "4f468cd3-f0e8-4b5c-9d44-6d5cce53d746", "source": {"name": "Vernon", "slug": "vernon"}, "source_identifier": "6946", "external_references": [], "date_modified": "2025-03-12T01:52:47.029581+11:00"}]}