{"count": 28687, "next": "https://api.acmi.net.au/creators/?page=1373", "previous": "https://api.acmi.net.au/creators/?page=1371", "results": [{"id": 37693, "name": "Weintraub Entertainment Group", "roles_in_work": [{"id": 2252488, "title": "Rolling Stones: time is on our side", "work_id": 95454, "role": "production company", "role_id": 941, "is_primary": true}], "also_known_as": "", "date_of_birth": "", "date_of_death": "", "genders": [], "languages": [], "places_of_operation": [], "biography": "", "biography_author": null, "date_of_biography": "2023-05-09T17:13:15.039086+10:00", "external_links": [], "uuid": "363d2ab4-9fe4-4abd-8546-8f1ce73babeb", "source": {"name": "Vernon", "slug": "vernon"}, "source_identifier": "14278", "external_references": [], "date_modified": "2023-06-14T16:33:30.576250+10:00"}, {"id": 37692, "name": "Raindrop", "roles_in_work": [{"id": 2252485, "title": "Rolling Stones: time is on our side", "work_id": 95454, "role": "production company", "role_id": 941, "is_primary": true}], "also_known_as": "", "date_of_birth": "", "date_of_death": "", "genders": [], "languages": [], "places_of_operation": [], "biography": "", "biography_author": null, "date_of_biography": "2023-05-09T17:13:14.794025+10:00", "external_links": [], "uuid": "6e0ba978-5824-4cdb-aa7e-9db25bc21135", "source": {"name": "Vernon", "slug": "vernon"}, "source_identifier": "11843", "external_references": [], "date_modified": "2023-06-14T16:33:30.576250+10:00"}, {"id": 37691, "name": "Northstar", "roles_in_work": [{"id": 2252482, "title": "Rolling Stones: time is on our side", "work_id": 95454, "role": "production company", "role_id": 941, "is_primary": true}], "also_known_as": "", "date_of_birth": "", "date_of_death": "", "genders": [], "languages": [], "places_of_operation": [], "biography": "", "biography_author": null, "date_of_biography": "2023-05-09T17:13:14.553579+10:00", "external_links": [], "uuid": "41aa7fd9-45a6-4f17-ac04-83449e66dd27", "source": {"name": "Vernon", "slug": "vernon"}, "source_identifier": "11008", "external_references": [], "date_modified": "2023-06-14T16:33:30.576250+10:00"}, {"id": 37687, "name": "Dabill Productions", "roles_in_work": [{"id": 2273638, "title": "Welcome to my nightmare", "work_id": 95450, "role": "production company", "role_id": 941, "is_primary": true}], "also_known_as": "", "date_of_birth": "", "date_of_death": "", "genders": [], "languages": [], "places_of_operation": [], "biography": "", "biography_author": null, "date_of_biography": "2023-05-09T17:49:05.256900+10:00", "external_links": [], "uuid": "5574b712-a859-4666-8f54-24722bfbb5f7", "source": {"name": "Vernon", "slug": "vernon"}, "source_identifier": "7290", "external_references": [], "date_modified": "2023-06-14T16:33:30.576250+10:00"}, {"id": 37685, "name": "Rafal Zielinski", "roles_in_work": [{"id": 1978697, "title": "Hey babe", "work_id": 95445, "role": "director", "role_id": 938, "is_primary": true}, {"id": 1978696, "title": "Hey babe", "work_id": 95445, "role": "co-producer", "role_id": 915, "is_primary": true}], "also_known_as": "", "date_of_birth": "1957-01-01", "date_of_death": null, "genders": [{"id": 9, "name": "Male", "slug": "male"}], "languages": [], "places_of_operation": [{"id": 36, "name": "Canada", "slug": "canada"}], "biography": "", "biography_author": null, "date_of_biography": null, "external_links": [], "uuid": "c05c348f-9fc3-4949-8653-5562ec5114ac", "source": {"name": "Vernon", "slug": "vernon"}, "source_identifier": "27061", "external_references": [{"id": 12332, "source": {"name": "Wikidata", "slug": "wikidata"}, "source_identifier": "Q2127063"}, {"id": 12333, "source": {"name": "VIAF", "slug": "viaf"}, "source_identifier": "2679501"}, {"id": 12334, "source": {"name": "LOC Auth", "slug": "loc-auth"}, "source_identifier": "no2006033655"}, {"id": 12335, "source": {"name": "WorldCat", "slug": "worldcat"}, "source_identifier": "lccn-no2006033655"}], "date_modified": "2023-09-13T12:32:05.873725+10:00"}, {"id": 37673, "name": "Max Reichmann", "roles_in_work": [{"id": 2346832, "title": "The End of the rainbow = Das Lockende ziel", "work_id": 95438, "role": "director", "role_id": 938, "is_primary": true}], "also_known_as": "", "date_of_birth": "1884-11-29", "date_of_death": "1958-02-03", "genders": [{"id": 9, "name": "Male", "slug": "male"}], "languages": [{"id": 5, "name": "German", "slug": "german"}], "places_of_operation": [{"id": 18, "name": "Germany", "slug": "germany"}], "biography": "Max Reichmann (1884-1958) was a German film director active during the silent and early sound eras. Before making his own films, Reichmann worked as an assistant director on several E.A. Dupont productions. After graduating to directing, he directed the tenor Richard Tauber in several films following the introduction of sound in the late 1920s.Reichmann was Jewish, and was therefore forced to go into exile in France when the Nazi Party took power in Germany in 1933. He later emigrated to the United States, where he died in 1958.", "biography_author": "Wikidata", "date_of_biography": "2023-09-05T22:57:44.892428+10:00", "external_links": [{"id": 6019, "uri": "https://en.wikipedia.org/wiki/Max_Reichmann"}], "uuid": "ad559e8f-da0e-45fa-910f-94c58af664d5", "source": {"name": "Vernon", "slug": "vernon"}, "source_identifier": "24879", "external_references": [{"id": 52112, "source": {"name": "Wikidata", "slug": "wikidata"}, "source_identifier": "Q1796019"}, {"id": 55224, "source": {"name": "VIAF", "slug": "viaf"}, "source_identifier": "64757159"}, {"id": 55225, "source": {"name": "WorldCat", "slug": "worldcat"}, "source_identifier": "viaf-64757159"}], "date_modified": "2023-09-05T22:57:44.916448+10:00"}, {"id": 37672, "name": "British Empire Films", "roles_in_work": [{"id": 2346829, "title": "The End of the rainbow = Das Lockende ziel", "work_id": 95438, "role": "production company", "role_id": 941, "is_primary": true}], "also_known_as": "", "date_of_birth": "", "date_of_death": "", "genders": [], "languages": [], "places_of_operation": [], "biography": "", "biography_author": null, "date_of_biography": "2023-05-09T19:48:17.255126+10:00", "external_links": [], "uuid": "0c7e4b26-ecee-4ce3-bc3b-6bb296194914", "source": {"name": "Vernon", "slug": "vernon"}, "source_identifier": "6012", "external_references": [{"id": 36008, "source": {"name": "Wikidata", "slug": "wikidata"}, "source_identifier": "Q121337537"}], "date_modified": "2023-09-05T18:11:36.020822+10:00"}, {"id": 37671, "name": "Richard Tauber Tonfilm-Prod. GmbH", "roles_in_work": [{"id": 2346826, "title": "The End of the rainbow = Das Lockende ziel", "work_id": 95438, "role": "production company", "role_id": 941, "is_primary": true}], "also_known_as": "", "date_of_birth": "", "date_of_death": "", "genders": [], "languages": [], "places_of_operation": [], "biography": "", "biography_author": null, "date_of_biography": "2023-05-09T19:48:17.002347+10:00", "external_links": [], "uuid": "e497bda4-d34f-463d-bfe2-7b8a9bcdd8e0", "source": {"name": "Vernon", "slug": "vernon"}, "source_identifier": "12019", "external_references": [], "date_modified": "2023-06-14T16:33:30.576250+10:00"}, {"id": 37666, "name": "Persky-Bright Productions", "roles_in_work": [{"id": 2347137, "title": "The Entertainer", "work_id": 95434, "role": "production company", "role_id": 941, "is_primary": true}], "also_known_as": "", "date_of_birth": "", "date_of_death": "", "genders": [], "languages": [], "places_of_operation": [], "biography": "", "biography_author": null, "date_of_biography": "2023-05-09T19:49:05.257669+10:00", "external_links": [], "uuid": "46b5f48a-1d99-4c5f-9362-d0571af84802", "source": {"name": "Vernon", "slug": "vernon"}, "source_identifier": "11417", "external_references": [{"id": 42649, "source": {"name": "Wikidata", "slug": "wikidata"}, "source_identifier": "Q121079011"}], "date_modified": "2023-09-05T23:53:29.701931+10:00"}, {"id": 37665, "name": "Guy Casaril", "roles_in_work": [{"id": 2205062, "title": "Piaf", "work_id": 95432, "role": "director", "role_id": 938, "is_primary": true}], "also_known_as": "", "date_of_birth": "1933-11-01", "date_of_death": "1996-05-03", "genders": [{"id": 9, "name": "Male", "slug": "male"}], "languages": [{"id": 4, "name": "French", "slug": "french"}], "places_of_operation": [{"id": 17, "name": "France", "slug": "france"}], "biography": "Guy Casaril (1933-1996) was a French film director, screenwriter and non-fiction writer. His first film, L'Astragale, was a cinematic adaptation of an eponymous novel by Albertine Sarrazin. His biopic about Edith Piaf was lauded by The Catholic Advance out of Wichita, Kansas for \"evoking the mood's period and background\".", "biography_author": "Wikidata", "date_of_biography": "2022-05-19T11:40:26.935635+10:00", "external_links": [{"id": 2175, "uri": "https://en.wikipedia.org/wiki/Guy_Casaril"}], "uuid": "01f88cd6-3e42-4365-8a6d-e4ebfaabc12d", "source": {"name": "Vernon", "slug": "vernon"}, "source_identifier": "20134", "external_references": [{"id": 9359, "source": {"name": "Wikidata", "slug": "wikidata"}, "source_identifier": "Q3121627"}, {"id": 9360, "source": {"name": "VIAF", "slug": "viaf"}, "source_identifier": "14767317"}, {"id": 9361, "source": {"name": "LOC Auth", "slug": "loc-auth"}, "source_identifier": "nr96011978"}, {"id": 9362, "source": {"name": "WorldCat", "slug": "worldcat"}, "source_identifier": "lccn-nr96011978"}], "date_modified": "2023-09-13T12:29:45.589044+10:00"}]}