{"count": 28687, "next": "https://api.acmi.net.au/creators/?page=739", "previous": "https://api.acmi.net.au/creators/?page=737", "results": [{"id": 78203, "name": "Harvey Hart", "roles_in_work": [{"id": 2615813, "title": "The Prince of Central Park", "work_id": 86212, "role": "producer/director", "role_id": 31, "is_primary": true}], "also_known_as": "", "date_of_birth": "1928-08-30", "date_of_death": "1989-11-21", "genders": [{"id": 9, "name": "Male", "slug": "male"}], "languages": [], "places_of_operation": [{"id": 1, "name": "United States of America", "slug": "united-states-of-america"}], "biography": "Harvey Hart (August 30, 1928 – November 21, 1989) was a Canadian television and film director and a television producer.Hart studied at the University of Toronto before being hired by the CBC in 1952. For them he created over 30 television productions, among them several episodes of an anthology series, Festival, like Home of the Brave (1961) and The Luck of Ginger Coffey (1961), adaptations of a 1946 play and 1960 novel.\n\nIn 1963 he left the CBC and moved to the United States, where, in the following years, he directed episodes for TV series such as The Alfred Hitchcock Hour and Star Trek, as well as theatrical features, including Bus Riley's Back in Town (1965) and The Sweet Ride (1968).He moved back to Toronto in 1970 where he directed several feature films, including Fortune and Men's Eyes (1971), The Pyx (1973), Shoot (1976) and Goldenrod (1976), for which he won the Canadian Screen Award for Best Director. In the mid 1970s Hart directed four episodes of Columbo: By Dawn's Early Light (1974), A Deadly State of Mind (1975), Forgotten Lady (1975), and Now You See Him (1976).\n\nHe continued splitting his time between film work in Canada and television work in Los Angeles throughout the 1980s. He received a Golden Globe Award for Best Miniseries or Television Film for the mini-series East of Eden (1981) and a Gemini Award for Best Direction in a Dramatic Program or Mini-Series for the television crime-drama film Passion and Paradise (1989).\n\nHarvey Hart died of a heart attack in 1989.; 17/08/2023", "biography_author": null, "date_of_biography": "2025-02-26T20:30:07.247351+11:00", "external_links": [{"id": 4139, "uri": "https://en.wikipedia.org/wiki/Harvey_Hart"}], "uuid": "cea08efa-938d-4671-a212-2ccd3ce3ac1e", "source": {"name": "Vernon", "slug": "vernon"}, "source_identifier": "20373", "external_references": [{"id": 26128, "source": {"name": "Wikidata", "slug": "wikidata"}, "source_identifier": "Q1587909"}, {"id": 28861, "source": {"name": "VIAF", "slug": "viaf"}, "source_identifier": "227397450"}, {"id": 28862, "source": {"name": "LOC Auth", "slug": "loc-auth"}, "source_identifier": "nr00001004"}, {"id": 28863, "source": {"name": "WorldCat", "slug": "worldcat"}, "source_identifier": "lccn-nr00001004"}], "date_modified": "2025-02-26T20:30:07.247663+11:00"}, {"id": 78202, "name": "Joe Mantegna", "roles_in_work": [{"id": 2144874, "title": "Corduroy", "work_id": 86202, "role": "co-producer", "role_id": 915, "is_primary": true}, {"id": 2144859, "title": "Corduroy", "work_id": 78970, "role": "co-producer", "role_id": 915, "is_primary": true}], "also_known_as": "", "date_of_birth": "1947-11-13", "date_of_death": "", "genders": [{"id": 9, "name": "Male", "slug": "male"}], "languages": [{"id": 1, "name": "English", "slug": "english"}], "places_of_operation": [{"id": 1, "name": "United States of America", "slug": "united-states-of-america"}], "biography": "Joseph Anthony Mantegna (, Italian pronunciation: [manˈteɲɲa]; born November 13, 1947) is an American actor. He has starred in the CBS television series Criminal Minds since 2007 as FBI Supervisory Special Agent David Rossi. He has voiced the recurring role of mob boss Fat Tony on the animated series The Simpsons, beginning with the 1991 episode \"Bart the Murderer\", as well as The Simpsons Movie (2007).\nMantegna began his career on stage in 1969 in the Chicago production of the musical Hair. He earned a Tony Award for Best Featured Actor in a Play and a Joseph Jefferson Award for portraying Richard Roma in the first American productions of David Mamet's Pulitzer Prize–winning play Glengarry Glen Ross, the first of many collaborations with Mamet. His long-standing association with Mamet includes the premieres of A Life in the Theatre, The Disappearance of the Jews and Speed-the-Plow on Broadway. Mantegna also directed a highly lauded production of Mamet's Lakeboat, which enjoyed a successful theatrical run in Los Angeles. He later directed the film version of Lakeboat. In addition to theatrical appearances directed by Mamet, Mantegna appeared in Mamet's films House of Games (1987), Things Change (1988), Homicide (1991), and Redbelt (2008).\nIn film and on television, Mantegna is best known for his roles in box office hits such as Three Amigos (1986), The Godfather Part III (1990), Forget Paris (1995), and Up Close and Personal (1996). He starred in the television series First Monday (2002) and Joan of Arcadia (2003–2005). He has earned Emmy Award nominations for his roles in three different miniseries: The Last Don (1997), The Rat Pack (1998), and The Starter Wife (2007). He has also served as executive producer for various movies and television movies, including Corduroy (1984), Hoods (1998), and Lakeboat (2000), which he also directed. Additionally, he played Robert B. Parker's fictional detective Spenser in three made-for-TV movies between 1999 and 2001, and has narrated a number of audiobook readings of the Spenser novels.", "biography_author": "Wikidata", "date_of_biography": "2023-08-01T15:33:38.862309+10:00", "external_links": [{"id": 4352, "uri": "https://en.wikipedia.org/wiki/Joe_Mantegna"}], "uuid": "55ee72ce-dc0e-4e88-9fe3-4faf4ac646e5", "source": {"name": "Vernon", "slug": "vernon"}, "source_identifier": "22041", "external_references": [{"id": 26072, "source": {"name": "Wikidata", "slug": "wikidata"}, "source_identifier": "Q276269"}, {"id": 29439, "source": {"name": "VIAF", "slug": "viaf"}, "source_identifier": "34657094"}, {"id": 29440, "source": {"name": "LOC Auth", "slug": "loc-auth"}, "source_identifier": "n85054392"}, {"id": 29441, "source": {"name": "WorldCat", "slug": "worldcat"}, "source_identifier": "lccn-n85054392"}], "date_modified": "2023-09-05T21:29:59.419196+10:00"}, {"id": 78201, "name": "Steve Mason", "roles_in_work": [{"id": 2178543, "title": "David", "work_id": 86201, "role": "director", "role_id": 938, "is_primary": true}, {"id": 2392774, "title": "The Bristol school", "work_id": 95702, "role": "script", "role_id": 962, "is_primary": false}], "also_known_as": "", "date_of_birth": "", "date_of_death": "", "genders": [], "languages": [], "places_of_operation": [], "biography": "", "biography_author": null, "date_of_biography": "2023-08-09T04:08:24.423460+10:00", "external_links": [], "uuid": "9f425856-bc00-473e-85f6-518f1ce52fe8", "source": {"name": "Vernon", "slug": "vernon"}, "source_identifier": "29151", "external_references": [], "date_modified": "2023-08-09T04:08:24.423686+10:00"}, {"id": 78200, "name": "Peter Dallas", "roles_in_work": [{"id": 2174700, "title": "Measuring matter: Volume 1", "work_id": 86288, "role": "co-director", "role_id": 959, "is_primary": true}, {"id": 2174730, "title": "Measuring matter: Volume 2", "work_id": 86189, "role": "co-director", "role_id": 959, "is_primary": true}], "also_known_as": "", "date_of_birth": "", "date_of_death": "", "genders": [], "languages": [], "places_of_operation": [], "biography": "", "biography_author": null, "date_of_biography": "2023-05-09T14:43:48.363341+10:00", "external_links": [], "uuid": "051f16d1-56cd-4ad2-b2f1-d5bb1ed2aa33", "source": {"name": "Vernon", "slug": "vernon"}, "source_identifier": "26510", "external_references": [{"id": 43295, "source": {"name": "Wikidata", "slug": "wikidata"}, "source_identifier": "Q121036669"}], "date_modified": "2023-09-05T23:55:22.241978+10:00"}, {"id": 78199, "name": "Tom Bull", "roles_in_work": [{"id": 905554, "title": "Heart on a chain: the truth about date violence", "work_id": 86178, "role": "co-producer", "role_id": 915, "is_primary": true}], "also_known_as": "", "date_of_birth": null, "date_of_death": null, "genders": [], "languages": [], "places_of_operation": [], "biography": "", "biography_author": null, "date_of_biography": null, "external_links": [], "uuid": "a1062374-fb38-485c-b04d-a964c37999b1", "source": {"name": "Vernon", "slug": "vernon"}, "source_identifier": null, "external_references": [{"id": 39395, "source": {"name": "Wikidata", "slug": "wikidata"}, "source_identifier": "Q121315294"}], "date_modified": "2023-09-06T01:52:33.752858+10:00"}, {"id": 78198, "name": "Sandy Chanley", "roles_in_work": [{"id": 905553, "title": "Heart on a chain: the truth about date violence", "work_id": 86178, "role": "co-producer", "role_id": 915, "is_primary": true}], "also_known_as": "", "date_of_birth": null, "date_of_death": null, "genders": [], "languages": [], "places_of_operation": [], "biography": "", "biography_author": null, "date_of_biography": null, "external_links": [], "uuid": "5c883b83-c271-45af-a936-d61b84d39958", "source": {"name": "Vernon", "slug": "vernon"}, "source_identifier": null, "external_references": [{"id": 38194, "source": {"name": "Wikidata", "slug": "wikidata"}, "source_identifier": "Q121036400"}], "date_modified": "2023-09-06T01:04:53.163697+10:00"}, {"id": 78197, "name": "Yvonne Harper", "roles_in_work": [{"id": 2180682, "title": "Out of bounds: Teenage sexual harassment", "work_id": 86176, "role": "co-producer", "role_id": 915, "is_primary": true}], "also_known_as": "", "date_of_birth": "", "date_of_death": "", "genders": [], "languages": [], "places_of_operation": [], "biography": "", "biography_author": null, "date_of_biography": "2023-05-09T14:52:25.290827+10:00", "external_links": [], "uuid": "9b4118f7-3dab-496c-b3cb-b658e7e38b47", "source": {"name": "Vernon", "slug": "vernon"}, "source_identifier": "30646", "external_references": [{"id": 36892, "source": {"name": "Wikidata", "slug": "wikidata"}, "source_identifier": "Q121315303"}], "date_modified": "2023-09-06T02:25:02.753865+10:00"}, {"id": 78196, "name": "Tony Chapman", "roles_in_work": [{"id": 2198692, "title": "Done Bali", "work_id": 86174, "role": "co-producer", "role_id": 915, "is_primary": true}, {"id": 2174537, "title": "One step on a journey", "work_id": 93258, "role": "co-producer", "role_id": 915, "is_primary": true}], "also_known_as": "", "date_of_birth": "", "date_of_death": "", "genders": [], "languages": [], "places_of_operation": [], "biography": "", "biography_author": null, "date_of_biography": "2023-05-09T15:22:18.324276+10:00", "external_links": [], "uuid": "7dd3493d-5936-4c42-986f-149a21f0290d", "source": {"name": "Vernon", "slug": "vernon"}, "source_identifier": "13646", "external_references": [{"id": 36352, "source": {"name": "Wikidata", "slug": "wikidata"}, "source_identifier": "Q121143620"}], "date_modified": "2023-09-06T01:55:24.424823+10:00"}, {"id": 78195, "name": "Kerry Negara", "roles_in_work": [{"id": 2198690, "title": "Done Bali", "work_id": 86174, "role": "co-producer", "role_id": 915, "is_primary": true}], "also_known_as": "", "date_of_birth": "", "date_of_death": "", "genders": [], "languages": [], "places_of_operation": [], "biography": "", "biography_author": null, "date_of_biography": "2023-05-09T15:22:18.093701+10:00", "external_links": [], "uuid": "dd59deec-bfb4-440a-bebb-212970986455", "source": {"name": "Vernon", "slug": "vernon"}, "source_identifier": "23273", "external_references": [{"id": 41853, "source": {"name": "Wikidata", "slug": "wikidata"}, "source_identifier": "Q121036828"}], "date_modified": "2023-09-05T22:06:18.100338+10:00"}, {"id": 78194, "name": "National Museum of Australia", "roles_in_work": [{"id": 2321604, "title": "Tales from the kangaroo's crypt (MAC & PC)", "work_id": 86169, "role": "production company", "role_id": 941, "is_primary": true}], "also_known_as": "", "date_of_birth": "", "date_of_death": "", "genders": [], "languages": [], "places_of_operation": [], "biography": "", "biography_author": null, "date_of_biography": "2023-05-09T19:12:53.028525+10:00", "external_links": [], "uuid": "a482f845-d255-4fcf-9e16-fc256a7d03ae", "source": {"name": "Vernon", "slug": "vernon"}, "source_identifier": "110540", "external_references": [{"id": 43062, "source": {"name": "Wikidata", "slug": "wikidata"}, "source_identifier": "Q121035944"}], "date_modified": "2023-09-05T23:26:08.990741+10:00"}]}