{"count": 28687, "next": "https://api.acmi.net.au/creators/?page=1462", "previous": "https://api.acmi.net.au/creators/?page=1460", "results": [{"id": 35194, "name": "Sandcastle Productions", "roles_in_work": [{"id": 2650566, "title": "Kansas City", "work_id": 115737, "role": "production company", "role_id": 941, "is_primary": true}, {"id": 2173201, "title": "Kansas City", "work_id": 93453, "role": "production company", "role_id": 941, "is_primary": true}], "also_known_as": "", "date_of_birth": "", "date_of_death": "", "genders": [], "languages": [], "places_of_operation": [], "biography": "", "biography_author": null, "date_of_biography": "2023-05-09T14:39:55.999986+10:00", "external_links": [], "uuid": "abb00755-e339-42fc-a047-43356785aa52", "source": {"name": "Vernon", "slug": "vernon"}, "source_identifier": "12275", "external_references": [{"id": 42420, "source": {"name": "Wikidata", "slug": "wikidata"}, "source_identifier": "Q121270673"}], "date_modified": "2025-03-05T14:21:12.362533+11:00"}, {"id": 35193, "name": "P.J. Castellaneta", "roles_in_work": [{"id": 2247529, "title": "Relax it's just sex [DVD]", "work_id": 93451, "role": "director", "role_id": 938, "is_primary": true}], "also_known_as": "", "date_of_birth": "", "date_of_death": "", "genders": [], "languages": [], "places_of_operation": [], "biography": "", "biography_author": null, "date_of_biography": "2023-05-09T17:05:38.951749+10:00", "external_links": [], "uuid": "3f995d33-6e7b-4964-b313-85d070317fbd", "source": {"name": "Vernon", "slug": "vernon"}, "source_identifier": "11509", "external_references": [{"id": 42104, "source": {"name": "Wikidata", "slug": "wikidata"}, "source_identifier": "Q121315594"}], "date_modified": "2023-09-05T23:38:43.655910+10:00"}, {"id": 35189, "name": "Sneak Preview Entertainment", "roles_in_work": [{"id": 2247514, "title": "Relax it's just sex [DVD]", "work_id": 93451, "role": "production company", "role_id": 941, "is_primary": true}], "also_known_as": "", "date_of_birth": "", "date_of_death": "", "genders": [], "languages": [], "places_of_operation": [], "biography": "", "biography_author": null, "date_of_biography": "2023-05-09T17:05:37.994624+10:00", "external_links": [], "uuid": "141ede40-7f73-4bdc-af1d-92a05e3c61bf", "source": {"name": "Vernon", "slug": "vernon"}, "source_identifier": "12678", "external_references": [{"id": 38075, "source": {"name": "Wikidata", "slug": "wikidata"}, "source_identifier": "Q121126917"}], "date_modified": "2023-09-06T01:22:18.153858+10:00"}, {"id": 35188, "name": "Forefront Films", "roles_in_work": [{"id": 2247509, "title": "Relax it's just sex [DVD]", "work_id": 93451, "role": "production company", "role_id": 941, "is_primary": true}], "also_known_as": "", "date_of_birth": "", "date_of_death": "", "genders": [], "languages": [], "places_of_operation": [], "biography": "", "biography_author": null, "date_of_biography": "2023-05-09T17:05:37.755341+10:00", "external_links": [], "uuid": "42263bc9-7a83-43fd-882f-6bd238e21075", "source": {"name": "Vernon", "slug": "vernon"}, "source_identifier": "8435", "external_references": [{"id": 39284, "source": {"name": "Wikidata", "slug": "wikidata"}, "source_identifier": "Q121035179"}], "date_modified": "2023-09-05T19:45:06.881063+10:00"}, {"id": 35187, "name": "Millivres Multimedia", "roles_in_work": [{"id": 2247505, "title": "Relax it's just sex [DVD]", "work_id": 93451, "role": "production company", "role_id": 941, "is_primary": true}], "also_known_as": "", "date_of_birth": "", "date_of_death": "", "genders": [], "languages": [], "places_of_operation": [], "biography": "", "biography_author": null, "date_of_biography": "2023-05-09T17:05:37.507483+10:00", "external_links": [], "uuid": "bf41c574-9a6f-4e67-8485-26627de5cb92", "source": {"name": "Vernon", "slug": "vernon"}, "source_identifier": "10536", "external_references": [{"id": 35962, "source": {"name": "Wikidata", "slug": "wikidata"}, "source_identifier": "Q121143900"}], "date_modified": "2023-09-05T23:16:06.864216+10:00"}, {"id": 35185, "name": "Artic Productions", "roles_in_work": [{"id": 2134055, "title": "Cecil B. Demented", "work_id": 93450, "role": "production company", "role_id": 941, "is_primary": true}], "also_known_as": "", "date_of_birth": "", "date_of_death": "", "genders": [], "languages": [], "places_of_operation": [], "biography": "", "biography_author": null, "date_of_biography": "2023-05-09T13:25:42.999824+10:00", "external_links": [], "uuid": "2ff9f311-2d55-48eb-9c7b-30baa958ba27", "source": {"name": "Vernon", "slug": "vernon"}, "source_identifier": "5411", "external_references": [{"id": 34195, "source": {"name": "Wikidata", "slug": "wikidata"}, "source_identifier": "Q121035449"}], "date_modified": "2023-09-05T17:47:45.947353+10:00"}, {"id": 35178, "name": "Samantha Shepherd", "roles_in_work": [{"id": 2464949, "title": "Portraits: people with epilepsy", "work_id": 93439, "role": "director", "role_id": 938, "is_primary": true}], "also_known_as": "", "date_of_birth": "", "date_of_death": "", "genders": [], "languages": [], "places_of_operation": [], "biography": "", "biography_author": null, "date_of_biography": "2023-08-14T10:23:20.215312+10:00", "external_links": [], "uuid": "a6de5acf-f13c-471e-b5cc-46dc470045c6", "source": {"name": "Vernon", "slug": "vernon"}, "source_identifier": "28507", "external_references": [], "date_modified": "2023-08-14T10:23:20.215626+10:00"}, {"id": 35177, "name": "Donna Graham", "roles_in_work": [{"id": 2464948, "title": "Portraits: people with epilepsy", "work_id": 93439, "role": "producer", "role_id": 1089, "is_primary": true}], "also_known_as": "", "date_of_birth": "", "date_of_death": "", "genders": [], "languages": [], "places_of_operation": [], "biography": "", "biography_author": null, "date_of_biography": "2023-08-14T10:23:19.594436+10:00", "external_links": [], "uuid": "4aa92b08-2e74-475e-a8b6-f9445a3da802", "source": {"name": "Vernon", "slug": "vernon"}, "source_identifier": "18333", "external_references": [], "date_modified": "2023-08-14T10:23:19.594879+10:00"}, {"id": 35176, "name": "Epilepsy Queensland", "roles_in_work": [{"id": 2464947, "title": "Portraits: people with epilepsy", "work_id": 93439, "role": "production company", "role_id": 941, "is_primary": true}], "also_known_as": "", "date_of_birth": "", "date_of_death": "", "genders": [], "languages": [], "places_of_operation": [], "biography": "", "biography_author": null, "date_of_biography": "2023-08-14T10:23:18.964376+10:00", "external_links": [], "uuid": "13b4754f-85b3-4637-9e52-833460d3a64b", "source": {"name": "Vernon", "slug": "vernon"}, "source_identifier": "7931", "external_references": [], "date_modified": "2023-08-14T10:23:18.964739+10:00"}, {"id": 35175, "name": "Epilepsy Foundation of Victoria", "roles_in_work": [{"id": 2406994, "title": "Epilepsy: Yes! You can help", "work_id": 93437, "role": "production company", "role_id": 941, "is_primary": true}, {"id": 882934, "title": "Risks and routines", "work_id": 93440, "role": "production company", "role_id": 941, "is_primary": true}], "also_known_as": "", "date_of_birth": "", "date_of_death": "", "genders": [], "languages": [], "places_of_operation": [], "biography": "", "biography_author": null, "date_of_biography": "2023-08-11T16:27:35.534547+10:00", "external_links": [], "uuid": "ce5d39e1-8683-4ffa-bd19-387c96c10ed7", "source": {"name": "Vernon", "slug": "vernon"}, "source_identifier": "7930", "external_references": [], "date_modified": "2023-08-11T16:27:35.534842+10:00"}]}