{"count": 28684, "next": "https://api.acmi.net.au/creators/?page=1279", "previous": "https://api.acmi.net.au/creators/?page=1277", "results": [{"id": 39175, "name": "BTV Channel 6", "roles_in_work": [{"id": 2753919, "title": "The Pyramid puzzle", "work_id": 98980, "role": "production company", "role_id": 941, "is_primary": true}], "also_known_as": "", "date_of_birth": "", "date_of_death": "", "genders": [], "languages": [], "places_of_operation": [], "biography": "", "biography_author": null, "date_of_biography": "2023-08-14T11:30:29.754657+10:00", "external_links": [], "uuid": "b9dcd70d-9efc-4afc-a619-5c9cdee4c997", "source": {"name": "Vernon", "slug": "vernon"}, "source_identifier": "6096", "external_references": [], "date_modified": "2025-03-13T01:35:17.681869+11:00"}, {"id": 39174, "name": "Materials Production, Curriculum Branch, Ed Dept of Vic", "roles_in_work": [{"id": 2753916, "title": "More 'new' handwriting", "work_id": 98979, "role": "production company", "role_id": 941, "is_primary": true}], "also_known_as": "", "date_of_birth": null, "date_of_death": null, "genders": [], "languages": [], "places_of_operation": [], "biography": "", "biography_author": null, "date_of_biography": null, "external_links": [], "uuid": "5ffbd8fe-92c5-4be4-8d16-0e179e8cfc5c", "source": {"name": "Vernon", "slug": "vernon"}, "source_identifier": "10359", "external_references": [], "date_modified": "2025-03-13T01:35:15.637533+11:00"}, {"id": 39173, "name": "Steve Skok", "roles_in_work": [{"id": 2754042, "title": "Dinosaurs", "work_id": 99034, "role": "producer", "role_id": 1089, "is_primary": true}, {"id": 2753910, "title": "Beating the clock - at work: the limits of human performance", "work_id": 98976, "role": "producer", "role_id": 1089, "is_primary": true}, {"id": 2753914, "title": "Beating the clock - at sport: the limits of human performance", "work_id": 98978, "role": "producer", "role_id": 1089, "is_primary": true}], "also_known_as": "", "date_of_birth": "", "date_of_death": "", "genders": [], "languages": [], "places_of_operation": [], "biography": "", "biography_author": null, "date_of_biography": "2023-08-11T16:08:45.063323+10:00", "external_links": [], "uuid": "1020a0b3-c9ff-4e4f-a2bc-bfb6ea14df61", "source": {"name": "Vernon", "slug": "vernon"}, "source_identifier": "29165", "external_references": [], "date_modified": "2025-03-13T01:36:46.341077+11:00"}, {"id": 39172, "name": "Dimitri Man", "roles_in_work": [{"id": 2753891, "title": "Greek curriculum", "work_id": 98967, "role": "producer", "role_id": 1089, "is_primary": true}], "also_known_as": "", "date_of_birth": null, "date_of_death": null, "genders": [], "languages": [], "places_of_operation": [], "biography": "", "biography_author": null, "date_of_biography": null, "external_links": [], "uuid": "f7402da7-0968-4bda-b9f0-d6b89b80805a", "source": {"name": "Vernon", "slug": "vernon"}, "source_identifier": "18150", "external_references": [], "date_modified": "2025-03-13T01:33:37.456985+11:00"}, {"id": 39171, "name": "Pork Advisory Service", "roles_in_work": [{"id": 2464439, "title": "Nutrition for health", "work_id": 98964, "role": "production company", "role_id": 941, "is_primary": true}], "also_known_as": "", "date_of_birth": "", "date_of_death": "", "genders": [], "languages": [], "places_of_operation": [], "biography": "", "biography_author": null, "date_of_biography": "2023-08-14T10:12:17.627184+10:00", "external_links": [], "uuid": "47951b4f-3e3c-41b8-aa5b-b164102101ec", "source": {"name": "Vernon", "slug": "vernon"}, "source_identifier": "11579", "external_references": [], "date_modified": "2023-08-14T10:12:17.627480+10:00"}, {"id": 39170, "name": "Niels Ellmoos", "roles_in_work": [{"id": 2753849, "title": "Accounting equation. Parts 1-4", "work_id": 98955, "role": "director", "role_id": 938, "is_primary": true}], "also_known_as": "", "date_of_birth": "", "date_of_death": "", "genders": [], "languages": [], "places_of_operation": [], "biography": "", "biography_author": null, "date_of_biography": "2023-08-11T13:26:32.789364+10:00", "external_links": [], "uuid": "0b92b373-e0e9-41a9-b9a8-3c597516d3a5", "source": {"name": "Vernon", "slug": "vernon"}, "source_identifier": "25801", "external_references": [], "date_modified": "2025-03-13T01:33:07.592698+11:00"}, {"id": 39169, "name": "Bill Renwick", "roles_in_work": [{"id": 2753848, "title": "Accounting equation. Parts 1-4", "work_id": 98955, "role": "producer", "role_id": 1089, "is_primary": true}], "also_known_as": "", "date_of_birth": "", "date_of_death": "", "genders": [], "languages": [], "places_of_operation": [], "biography": "", "biography_author": null, "date_of_biography": "2023-08-11T13:26:32.164598+10:00", "external_links": [], "uuid": "c3806205-d35f-4948-834b-520987f2a5f8", "source": {"name": "Vernon", "slug": "vernon"}, "source_identifier": "15996", "external_references": [], "date_modified": "2025-03-13T01:33:07.002794+11:00"}, {"id": 39168, "name": "Interaction Media", "roles_in_work": [{"id": 2753847, "title": "Accounting equation. Parts 1-4", "work_id": 98955, "role": "production company", "role_id": 941, "is_primary": true}], "also_known_as": "", "date_of_birth": "", "date_of_death": "", "genders": [], "languages": [], "places_of_operation": [], "biography": "", "biography_author": null, "date_of_biography": "2023-08-11T13:26:31.537857+10:00", "external_links": [], "uuid": "8eef1bc3-3a05-4a61-a7da-604b4d39de06", "source": {"name": "Vernon", "slug": "vernon"}, "source_identifier": "9340", "external_references": [], "date_modified": "2025-03-13T01:33:06.415877+11:00"}, {"id": 39165, "name": "Island Productions", "roles_in_work": [{"id": 2753840, "title": "Get wet again", "work_id": 98951, "role": "production company", "role_id": 941, "is_primary": true}], "also_known_as": "", "date_of_birth": "", "date_of_death": "", "genders": [], "languages": [], "places_of_operation": [], "biography": "", "biography_author": null, "date_of_biography": "2023-08-11T17:00:47.483918+10:00", "external_links": [], "uuid": "9e96cb6b-4353-4c54-af93-ea3c0146846a", "source": {"name": "Vernon", "slug": "vernon"}, "source_identifier": "9454", "external_references": [], "date_modified": "2025-03-13T01:33:01.489379+11:00"}, {"id": 39164, "name": "Skippon Video Associates", "roles_in_work": [{"id": 2753835, "title": "Kids can say no!", "work_id": 98949, "role": "production company", "role_id": 941, "is_primary": true}], "also_known_as": "", "date_of_birth": null, "date_of_death": null, "genders": [], "languages": [], "places_of_operation": [], "biography": "", "biography_author": null, "date_of_biography": null, "external_links": [], "uuid": "7398e031-c8d3-4194-9bbc-1a80c6a2621f", "source": {"name": "Vernon", "slug": "vernon"}, "source_identifier": "12629", "external_references": [], "date_modified": "2025-03-13T01:32:58.023435+11:00"}]}