{"count": 28684, "next": "https://api.acmi.net.au/creators/?page=178", "previous": "https://api.acmi.net.au/creators/?page=176", "results": [{"id": 83834, "name": "Evangelos Thiveos", "roles_in_work": [{"id": 2658157, "title": "Our time", "work_id": 117138, "role": "creator", "role_id": 968, "is_primary": true}], "also_known_as": "", "date_of_birth": "", "date_of_death": "", "genders": [{"id": 9, "name": "Male", "slug": "male"}], "languages": [], "places_of_operation": [], "biography": "", "biography_author": null, "date_of_biography": "2023-05-09T19:11:16.918713+10:00", "external_links": [], "uuid": "74e44534-0f89-4276-a367-f270d0e88095", "source": {"name": "Vernon", "slug": "vernon"}, "source_identifier": "35539", "external_references": [], "date_modified": "2025-03-05T17:35:48.436734+11:00"}, {"id": 83833, "name": "Linh Nguyen", "roles_in_work": [{"id": 2658177, "title": "Not ready", "work_id": 117137, "role": "creator", "role_id": 968, "is_primary": true}], "also_known_as": "", "date_of_birth": "", "date_of_death": "", "genders": [{"id": 5, "name": "Female", "slug": "female"}], "languages": [], "places_of_operation": [], "biography": "", "biography_author": null, "date_of_biography": "2023-05-09T19:11:54.830688+10:00", "external_links": [], "uuid": "15650e64-bdcc-4e72-8e97-4a0175b561d9", "source": {"name": "Vernon", "slug": "vernon"}, "source_identifier": "35543", "external_references": [], "date_modified": "2025-03-05T17:36:01.160076+11:00"}, {"id": 83832, "name": "Negabanchi Tebeje", "roles_in_work": [{"id": 2658099, "title": "My life with my family", "work_id": 117135, "role": "creator", "role_id": 968, "is_primary": true}], "also_known_as": "", "date_of_birth": "", "date_of_death": "", "genders": [{"id": 5, "name": "Female", "slug": "female"}], "languages": [], "places_of_operation": [], "biography": "", "biography_author": null, "date_of_biography": "2023-05-09T19:10:57.707641+10:00", "external_links": [], "uuid": "860bbc9d-5dc5-474f-9318-cd1d56325d3c", "source": {"name": "Vernon", "slug": "vernon"}, "source_identifier": "35545", "external_references": [], "date_modified": "2025-03-05T17:35:10.419724+11:00"}, {"id": 83831, "name": "Zenebech Tebeje", "roles_in_work": [{"id": 2658089, "title": "Anything can happen in life", "work_id": 117133, "role": "creator", "role_id": 968, "is_primary": true}], "also_known_as": "", "date_of_birth": "", "date_of_death": "", "genders": [{"id": 5, "name": "Female", "slug": "female"}], "languages": [], "places_of_operation": [], "biography": "", "biography_author": null, "date_of_biography": "2023-05-09T19:11:58.751320+10:00", "external_links": [], "uuid": "3e4af753-8649-45de-ad0b-ed06a3956154", "source": {"name": "Vernon", "slug": "vernon"}, "source_identifier": "35546", "external_references": [], "date_modified": "2025-03-05T17:35:03.812794+11:00"}, {"id": 83830, "name": "Laura Butterworth", "roles_in_work": [{"id": 2658073, "title": "[The Working women's centre]", "work_id": 117131, "role": "creator", "role_id": 968, "is_primary": true}], "also_known_as": "", "date_of_birth": "", "date_of_death": "", "genders": [{"id": 5, "name": "Female", "slug": "female"}], "languages": [], "places_of_operation": [], "biography": "", "biography_author": null, "date_of_biography": "2023-05-09T20:06:59.760467+10:00", "external_links": [], "uuid": "42c90bce-3213-4987-b43a-31a8ee227779", "source": {"name": "Vernon", "slug": "vernon"}, "source_identifier": "35525", "external_references": [], "date_modified": "2025-03-05T17:34:18.235829+11:00"}, {"id": 83829, "name": "Sarah Sneddon", "roles_in_work": [{"id": 2658084, "title": "Who's that girl?", "work_id": 117130, "role": "creator", "role_id": 968, "is_primary": true}], "also_known_as": "", "date_of_birth": "", "date_of_death": "", "genders": [{"id": 5, "name": "Female", "slug": "female"}], "languages": [], "places_of_operation": [], "biography": "", "biography_author": null, "date_of_biography": "2023-05-09T20:06:58.569313+10:00", "external_links": [], "uuid": "cb29af2c-2a7f-4d39-9b3e-589a0ef7757b", "source": {"name": "Vernon", "slug": "vernon"}, "source_identifier": "35529", "external_references": [], "date_modified": "2025-03-05T17:34:26.134449+11:00"}, {"id": 83828, "name": "Conald Ashby", "roles_in_work": [{"id": 2658067, "title": "The Tyger", "work_id": 117129, "role": "creator", "role_id": 968, "is_primary": true}], "also_known_as": "", "date_of_birth": "", "date_of_death": "", "genders": [{"id": 9, "name": "Male", "slug": "male"}], "languages": [], "places_of_operation": [], "biography": "", "biography_author": null, "date_of_biography": "2023-05-09T20:06:57.308095+10:00", "external_links": [], "uuid": "32c25b28-92ca-4f65-9dca-9dffe119bed2", "source": {"name": "Vernon", "slug": "vernon"}, "source_identifier": "35532", "external_references": [], "date_modified": "2025-03-05T17:34:13.971600+11:00"}, {"id": 83827, "name": "Anne Arbuthnot", "roles_in_work": [{"id": 2658064, "title": "Surrounded", "work_id": 117128, "role": "creator", "role_id": 968, "is_primary": true}], "also_known_as": "", "date_of_birth": "", "date_of_death": "", "genders": [{"id": 5, "name": "Female", "slug": "female"}], "languages": [], "places_of_operation": [], "biography": "", "biography_author": null, "date_of_biography": "2023-05-09T20:06:56.077670+10:00", "external_links": [], "uuid": "8e7ee4f4-b4d2-4a50-8175-6ff668fab8f4", "source": {"name": "Vernon", "slug": "vernon"}, "source_identifier": "35530", "external_references": [], "date_modified": "2025-03-05T17:34:11.789644+11:00"}, {"id": 83826, "name": "Juli Stopp", "roles_in_work": [{"id": 2658081, "title": "Not for publication", "work_id": 117127, "role": "creator", "role_id": 968, "is_primary": true}], "also_known_as": "", "date_of_birth": "", "date_of_death": "", "genders": [{"id": 5, "name": "Female", "slug": "female"}], "languages": [], "places_of_operation": [], "biography": "", "biography_author": null, "date_of_biography": "2023-05-09T20:06:54.857703+10:00", "external_links": [], "uuid": "6a9069ae-c7cc-4118-b3d4-6b52b9ba4ed3", "source": {"name": "Vernon", "slug": "vernon"}, "source_identifier": "35528", "external_references": [], "date_modified": "2025-03-05T17:34:23.982578+11:00"}, {"id": 83825, "name": "Kathleen Comber", "roles_in_work": [{"id": 2658058, "title": "The Keeper of the rings", "work_id": 117126, "role": "creator", "role_id": 968, "is_primary": true}], "also_known_as": "", "date_of_birth": "", "date_of_death": "", "genders": [{"id": 5, "name": "Female", "slug": "female"}], "languages": [], "places_of_operation": [], "biography": "", "biography_author": null, "date_of_biography": "2023-05-09T20:06:53.735815+10:00", "external_links": [], "uuid": "7c5313bf-b152-4eb3-8d8d-5972b4c493c4", "source": {"name": "Vernon", "slug": "vernon"}, "source_identifier": "35524", "external_references": [], "date_modified": "2025-03-05T17:34:07.405610+11:00"}]}