{"count": 28687, "next": "https://api.acmi.net.au/creators/?page=2508", "previous": "https://api.acmi.net.au/creators/?page=2506", "results": [{"id": 13819, "name": "Theodora Olembert", "roles_in_work": [{"id": 2679827, "title": "Chopin", "work_id": 66091, "role": "co-director", "role_id": 959, "is_primary": true}, {"id": 2714582, "title": "George Bernard Shaw", "work_id": 67997, "role": "co-producer", "role_id": 915, "is_primary": true}, {"id": 2051439, "title": "[Chinese theatre]", "work_id": 89672, "role": "producer", "role_id": 1089, "is_primary": true}, {"id": 1809309, "title": "The Sixth day of creation", "work_id": 72870, "role": "producer", "role_id": 1089, "is_primary": true}, {"id": 2713637, "title": "Finale", "work_id": 67511, "role": "producer", "role_id": 1089, "is_primary": true}, {"id": 2679825, "title": "Chopin", "work_id": 66091, "role": "producer", "role_id": 1089, "is_primary": true}, {"id": 2751321, "title": "Edith Piaf", "work_id": 97752, "role": "producer", "role_id": 1089, "is_primary": true}, {"id": 1811862, "title": "Teiva", "work_id": 73581, "role": "producer", "role_id": 1089, "is_primary": true}], "also_known_as": "", "date_of_birth": "", "date_of_death": "", "genders": [], "languages": [], "places_of_operation": [], "biography": "", "biography_author": null, "date_of_biography": "2023-05-09T16:53:08.701418+10:00", "external_links": [], "uuid": "32dfa57b-acb5-43aa-8693-8ac6fb83640e", "source": {"name": "Vernon", "slug": "vernon"}, "source_identifier": "29646", "external_references": [{"id": 51561, "source": {"name": "Wikidata", "slug": "wikidata"}, "source_identifier": "Q121357955"}], "date_modified": "2025-03-13T00:41:03.585422+11:00"}, {"id": 13818, "name": "Triangle Productions", "roles_in_work": [{"id": 2151834, "title": "On the border of life: glimpses of French biological research", "work_id": 91162, "role": "production company", "role_id": 941, "is_primary": true}, {"id": 2679824, "title": "Chopin", "work_id": 66091, "role": "production company", "role_id": 941, "is_primary": true}, {"id": 2714581, "title": "George Bernard Shaw", "work_id": 67997, "role": "production company", "role_id": 941, "is_primary": true}, {"id": 2751320, "title": "Edith Piaf", "work_id": 97752, "role": "production company", "role_id": 941, "is_primary": true}, {"id": 858474, "title": "The Sixth day of creation", "work_id": 72870, "role": "production company", "role_id": 941, "is_primary": true}, {"id": 2165328, "title": "Moliere", "work_id": 70536, "role": "production company", "role_id": 941, "is_primary": true}, {"id": 2302350, "title": "Sleep my love", "work_id": 90520, "role": "production company", "role_id": 941, "is_primary": true}, {"id": 2051436, "title": "[Chinese theatre]", "work_id": 89672, "role": "production company", "role_id": 941, "is_primary": true}, {"id": 2713636, "title": "Finale", "work_id": 67511, "role": "production company", "role_id": 941, "is_primary": true}], "also_known_as": "", "date_of_birth": null, "date_of_death": null, "genders": [], "languages": [], "places_of_operation": [], "biography": "", "biography_author": null, "date_of_biography": "2023-05-09T18:39:13+10:00", "external_links": [], "uuid": "14687db6-499f-41a4-bdea-62f07057eb7c", "source": {"name": "Vernon", "slug": "vernon"}, "source_identifier": "13702", "external_references": [], "date_modified": "2025-03-13T00:41:02.978159+11:00"}, {"id": 13817, "name": "Gordon Begg", "roles_in_work": [{"id": 2679814, "title": "The Choice", "work_id": 66086, "role": "producer", "role_id": 1089, "is_primary": true}], "also_known_as": "", "date_of_birth": null, "date_of_death": null, "genders": [], "languages": [], "places_of_operation": [], "biography": "", "biography_author": null, "date_of_biography": null, "external_links": [], "uuid": "420db2f5-2432-4640-b681-ba5d6ef74a7a", "source": {"name": "Vernon", "slug": "vernon"}, "source_identifier": "19923", "external_references": [], "date_modified": "2025-03-07T00:21:19.678166+11:00"}, {"id": 13813, "name": "Ken Daley", "roles_in_work": [{"id": 2679805, "title": "The Choice is yours (Industrial safety)", "work_id": 66083, "role": "producer", "role_id": 1089, "is_primary": true}], "also_known_as": "", "date_of_birth": "", "date_of_death": "", "genders": [], "languages": [], "places_of_operation": [], "biography": "", "biography_author": null, "date_of_biography": "2023-05-09T19:34:05.435218+10:00", "external_links": [], "uuid": "30326692-445f-4aee-a205-bc56e1e767f7", "source": {"name": "Vernon", "slug": "vernon"}, "source_identifier": "23175", "external_references": [{"id": 40124, "source": {"name": "Wikidata", "slug": "wikidata"}, "source_identifier": "Q121337510"}], "date_modified": "2025-03-07T00:21:13.443333+11:00"}, {"id": 13812, "name": "Drayton Film Productions", "roles_in_work": [{"id": 2644439, "title": "Concrete pays", "work_id": 66316, "role": "production company", "role_id": 941, "is_primary": true}, {"id": 2679804, "title": "The Choice is yours (Industrial safety)", "work_id": 66083, "role": "production company", "role_id": 941, "is_primary": true}], "also_known_as": "", "date_of_birth": "", "date_of_death": "", "genders": [], "languages": [], "places_of_operation": [], "biography": "", "biography_author": null, "date_of_biography": "2023-05-09T19:34:05.200498+10:00", "external_links": [], "uuid": "7c742957-df18-4d32-92e7-527587fdd493", "source": {"name": "Vernon", "slug": "vernon"}, "source_identifier": "7664", "external_references": [{"id": 35419, "source": {"name": "Wikidata", "slug": "wikidata"}, "source_identifier": "Q121143580"}], "date_modified": "2025-03-07T00:21:12.739551+11:00"}, {"id": 13811, "name": "Dan Gibson", "roles_in_work": [{"id": 870704, "title": "Gannets of Bonaventure Island", "work_id": 86503, "role": "director", "role_id": 938, "is_primary": true}, {"id": 2471806, "title": "White-throat", "work_id": 74705, "role": "producer", "role_id": 1089, "is_primary": true}, {"id": 2679803, "title": "The choice is yours", "work_id": 66082, "role": "producer/director", "role_id": 31, "is_primary": true}], "also_known_as": "", "date_of_birth": "", "date_of_death": "", "genders": [], "languages": [], "places_of_operation": [], "biography": "", "biography_author": null, "date_of_biography": "2023-08-14T12:47:00.795938+10:00", "external_links": [], "uuid": "237603d6-8cd1-40a4-855a-848c719f2b84", "source": {"name": "Vernon", "slug": "vernon"}, "source_identifier": "17358", "external_references": [], "date_modified": "2025-03-07T00:21:11.902381+11:00"}, {"id": 13809, "name": "National Woman's Christian Temperance Union", "roles_in_work": [{"id": 878242, "title": "Liquid lore", "work_id": 91167, "role": "production company", "role_id": 941, "is_primary": true}, {"id": 2644385, "title": "The Choice is yours", "work_id": 66081, "role": "production company", "role_id": 941, "is_primary": true}], "also_known_as": "", "date_of_birth": "", "date_of_death": "", "genders": [], "languages": [], "places_of_operation": [], "biography": "", "biography_author": null, "date_of_biography": "2023-05-09T19:34:03.055476+10:00", "external_links": [], "uuid": "6bbc7024-7390-4593-ba05-a83457ecb726", "source": {"name": "Vernon", "slug": "vernon"}, "source_identifier": "10843", "external_references": [{"id": 35806, "source": {"name": "Wikidata", "slug": "wikidata"}, "source_identifier": "Q121144065"}], "date_modified": "2025-03-05T12:16:50.261471+11:00"}, {"id": 13808, "name": "Ubaldo Magnachi", "roles_in_work": [{"id": 2679802, "title": "Chiostri e cortili", "work_id": 66079, "role": "producer", "role_id": 1089, "is_primary": true}], "also_known_as": "", "date_of_birth": "", "date_of_death": "", "genders": [], "languages": [], "places_of_operation": [], "biography": "", "biography_author": null, "date_of_biography": "2023-08-11T15:26:09.353207+10:00", "external_links": [], "uuid": "d9eb7eca-5880-43d4-940e-476739e0057f", "source": {"name": "Vernon", "slug": "vernon"}, "source_identifier": "30011", "external_references": [], "date_modified": "2025-03-07T00:21:11.045918+11:00"}, {"id": 13807, "name": "Istuto Nazionale Luce", "roles_in_work": [{"id": 2679801, "title": "Chiostri e cortili", "work_id": 66079, "role": "production company", "role_id": 941, "is_primary": true}], "also_known_as": "", "date_of_birth": "", "date_of_death": "", "genders": [], "languages": [], "places_of_operation": [], "biography": "", "biography_author": null, "date_of_biography": "2023-08-11T15:26:08.719512+10:00", "external_links": [], "uuid": "dbc68752-2218-4d0e-b64c-01ef24c159b8", "source": {"name": "Vernon", "slug": "vernon"}, "source_identifier": "9465", "external_references": [], "date_modified": "2025-03-07T00:21:10.451161+11:00"}, {"id": 13806, "name": "China Film Enterprises of America", "roles_in_work": [{"id": 750156, "title": "Painting the Chinese landscape", "work_id": 71321, "role": "production company", "role_id": 941, "is_primary": true}, {"id": 2679799, "title": "Chinese shadow play", "work_id": 66078, "role": "production company", "role_id": 941, "is_primary": true}], "also_known_as": "", "date_of_birth": null, "date_of_death": null, "genders": [], "languages": [], "places_of_operation": [], "biography": "", "biography_author": null, "date_of_biography": null, "external_links": [], "uuid": "5158b104-8a8f-4ad2-8363-27e74d849b9a", "source": {"name": "Vernon", "slug": "vernon"}, "source_identifier": "6585", "external_references": [], "date_modified": "2025-03-07T00:21:09.001805+11:00"}]}