{"count": 28687, "next": "https://api.acmi.net.au/creators/?page=220", "previous": "https://api.acmi.net.au/creators/?page=218", "results": [{"id": 83417, "name": "Arlan Fahey Leigh", "roles_in_work": [{"id": 2121080, "title": "Blue Tongue", "work_id": 116612, "role": "cast", "role_id": 33, "is_primary": false}], "also_known_as": "", "date_of_birth": "", "date_of_death": "", "genders": [], "languages": [], "places_of_operation": [], "biography": "", "biography_author": null, "date_of_biography": "2023-05-09T13:03:49.308640+10:00", "external_links": [], "uuid": "f546a02b-6549-4853-974b-eddac2948a4f", "source": {"name": "Vernon", "slug": "vernon"}, "source_identifier": "34470", "external_references": [{"id": 38179, "source": {"name": "Wikidata", "slug": "wikidata"}, "source_identifier": "Q121143909"}], "date_modified": "2023-09-05T17:44:30.477248+10:00"}, {"id": 83416, "name": "Timothy Jolley", "roles_in_work": [{"id": 2121078, "title": "Blue Tongue", "work_id": 116612, "role": "producer", "role_id": 1089, "is_primary": true}], "also_known_as": "", "date_of_birth": "", "date_of_death": "", "genders": [], "languages": [], "places_of_operation": [], "biography": "", "biography_author": null, "date_of_biography": "2023-05-09T13:03:49.078609+10:00", "external_links": [], "uuid": "906ee090-75f8-49f8-934d-615cd5eee60a", "source": {"name": "Vernon", "slug": "vernon"}, "source_identifier": "34468", "external_references": [{"id": 43363, "source": {"name": "Wikidata", "slug": "wikidata"}, "source_identifier": "Q121298787"}], "date_modified": "2023-09-06T01:51:38.745446+10:00"}, {"id": 83415, "name": "Videoscope Australia", "roles_in_work": [{"id": 891437, "title": "Kostas", "work_id": 116610, "role": "production company", "role_id": 941, "is_primary": true}], "also_known_as": "", "date_of_birth": null, "date_of_death": null, "genders": [], "languages": [], "places_of_operation": [], "biography": "", "biography_author": null, "date_of_biography": null, "external_links": [], "uuid": "2818b146-d3b3-4570-91fe-60773c478b3e", "source": {"name": "Vernon", "slug": "vernon"}, "source_identifier": null, "external_references": [{"id": 33377, "source": {"name": "Wikidata", "slug": "wikidata"}, "source_identifier": "Q121035899"}], "date_modified": "2023-09-06T02:06:16.415704+10:00"}, {"id": 83414, "name": "Bo Barney", "roles_in_work": [{"id": 2316668, "title": "[Untitled]", "work_id": 116606, "role": "creator", "role_id": 968, "is_primary": true}], "also_known_as": "", "date_of_birth": "", "date_of_death": "", "genders": [{"id": 9, "name": "Male", "slug": "male"}], "languages": [], "places_of_operation": [], "biography": "", "biography_author": null, "date_of_biography": "2023-05-09T19:05:32.465848+10:00", "external_links": [], "uuid": "8af2c0d1-39be-4585-a364-8efeedb03f13", "source": {"name": "Vernon", "slug": "vernon"}, "source_identifier": "34187", "external_references": [], "date_modified": "2023-06-14T16:33:30.576250+10:00"}, {"id": 83413, "name": "Dale McDonald", "roles_in_work": [{"id": 2316660, "title": "[Untitled]", "work_id": 116605, "role": "creator", "role_id": 968, "is_primary": true}], "also_known_as": "", "date_of_birth": "", "date_of_death": "", "genders": [{"id": 9, "name": "Male", "slug": "male"}], "languages": [], "places_of_operation": [], "biography": "", "biography_author": null, "date_of_biography": "2023-05-09T19:05:30.995946+10:00", "external_links": [], "uuid": "f74da279-4efb-48f0-9954-24a9c72e1cbe", "source": {"name": "Vernon", "slug": "vernon"}, "source_identifier": "34185", "external_references": [], "date_modified": "2023-06-14T16:33:30.576250+10:00"}, {"id": 83412, "name": "Darren Atkinson", "roles_in_work": [{"id": 2316632, "title": "Strong and Proud", "work_id": 116604, "role": "creator", "role_id": 968, "is_primary": true}], "also_known_as": "", "date_of_birth": "", "date_of_death": "", "genders": [], "languages": [], "places_of_operation": [], "biography": "", "biography_author": null, "date_of_biography": "2023-05-09T19:05:28.304333+10:00", "external_links": [], "uuid": "7bf38736-d2a3-46ce-9b45-c8edfbf99c0e", "source": {"name": "Vernon", "slug": "vernon"}, "source_identifier": "34181", "external_references": [], "date_modified": "2023-06-14T16:33:30.576250+10:00"}, {"id": 83411, "name": "Mick Booth", "roles_in_work": [{"id": 2316618, "title": "Streets of Fitzroy", "work_id": 116603, "role": "creator", "role_id": 968, "is_primary": true}, {"id": 2316600, "title": "Streets of Fitzroy [Subtitled]", "work_id": 116602, "role": "creator", "role_id": 968, "is_primary": true}], "also_known_as": "", "date_of_birth": "", "date_of_death": "", "genders": [{"id": 9, "name": "Male", "slug": "male"}], "languages": [], "places_of_operation": [], "biography": "", "biography_author": null, "date_of_biography": "2023-05-09T19:05:26.399216+10:00", "external_links": [], "uuid": "c9b2bd43-dfe8-473b-9904-0c9244d27708", "source": {"name": "Vernon", "slug": "vernon"}, "source_identifier": "34179", "external_references": [], "date_modified": "2023-06-14T16:33:30.576250+10:00"}, {"id": 83410, "name": "Robert Weston", "roles_in_work": [{"id": 2316588, "title": "Robert's story", "work_id": 116601, "role": "creator", "role_id": 968, "is_primary": true}, {"id": 2316584, "title": "Robert's story [Subtitled]", "work_id": 116600, "role": "creator", "role_id": 968, "is_primary": true}], "also_known_as": "", "date_of_birth": "", "date_of_death": "", "genders": [{"id": 9, "name": "Male", "slug": "male"}], "languages": [], "places_of_operation": [], "biography": "", "biography_author": null, "date_of_biography": "2023-05-09T19:05:23.659535+10:00", "external_links": [], "uuid": "32577978-bfbe-4305-ad39-35495ceee25e", "source": {"name": "Vernon", "slug": "vernon"}, "source_identifier": "34186", "external_references": [], "date_modified": "2023-06-14T16:33:30.576250+10:00"}, {"id": 83409, "name": "Grant Hood", "roles_in_work": [{"id": 2316568, "title": "Leaving My Country", "work_id": 116599, "role": "creator", "role_id": 968, "is_primary": true}], "also_known_as": "", "date_of_birth": "", "date_of_death": "", "genders": [{"id": 9, "name": "Male", "slug": "male"}], "languages": [], "places_of_operation": [], "biography": "", "biography_author": null, "date_of_biography": "2023-05-09T19:05:20.713824+10:00", "external_links": [], "uuid": "db986d37-eee3-4b8d-ba21-3ed025ea01ae", "source": {"name": "Vernon", "slug": "vernon"}, "source_identifier": "34178", "external_references": [], "date_modified": "2023-06-14T16:33:30.576250+10:00"}, {"id": 83408, "name": "Ron Briggs", "roles_in_work": [{"id": 2316559, "title": "I'm home", "work_id": 116598, "role": "creator", "role_id": 968, "is_primary": true}], "also_known_as": "", "date_of_birth": "", "date_of_death": "", "genders": [{"id": 9, "name": "Male", "slug": "male"}], "languages": [], "places_of_operation": [], "biography": "", "biography_author": null, "date_of_biography": "2023-05-09T19:05:19.280645+10:00", "external_links": [], "uuid": "cbb26166-e4fc-4fda-bd8b-2195d2c9e529", "source": {"name": "Vernon", "slug": "vernon"}, "source_identifier": "34184", "external_references": [], "date_modified": "2023-06-14T16:33:30.576250+10:00"}]}