{"count": 28681, "next": "https://api.acmi.net.au/creators/?page=1729", "previous": "https://api.acmi.net.au/creators/?page=1727", "results": [{"id": 27967, "name": "Angelo Curti", "roles_in_work": [{"id": 2474869, "title": "Nasty love = L'Amore molesto", "work_id": 88977, "role": "co-producer", "role_id": 915, "is_primary": true}, {"id": 1990330, "title": "Death of a Neapolitan mathematician", "work_id": 85951, "role": "producer", "role_id": 1089, "is_primary": true}], "also_known_as": "", "date_of_birth": "1959-08-09", "date_of_death": null, "genders": [{"id": 9, "name": "Male", "slug": "male"}], "languages": [{"id": 6, "name": "Italian", "slug": "italian"}], "places_of_operation": [{"id": 19, "name": "Italy", "slug": "italy"}], "biography": "", "biography_author": null, "date_of_biography": null, "external_links": [], "uuid": "09054147-cfec-48e2-8ca6-ae3f8e02fb30", "source": {"name": "Vernon", "slug": "vernon"}, "source_identifier": "15268", "external_references": [{"id": 7239, "source": {"name": "Wikidata", "slug": "wikidata"}, "source_identifier": "Q56756580"}], "date_modified": "2023-09-13T12:28:13.388691+10:00"}, {"id": 27966, "name": "Teatri Uniti", "roles_in_work": [{"id": 2474867, "title": "Nasty love = L'Amore molesto", "work_id": 88977, "role": "production company", "role_id": 941, "is_primary": true}, {"id": 1990329, "title": "Death of a Neapolitan mathematician", "work_id": 85951, "role": "production company", "role_id": 941, "is_primary": true}], "also_known_as": "", "date_of_birth": "", "date_of_death": "", "genders": [], "languages": [], "places_of_operation": [], "biography": "", "biography_author": null, "date_of_biography": "2023-08-17T15:01:05.017405+10:00", "external_links": [], "uuid": "dddb82cb-24df-426c-b978-1b279913a9ae", "source": {"name": "Vernon", "slug": "vernon"}, "source_identifier": "13214", "external_references": [], "date_modified": "2023-08-17T15:01:05.017664+10:00"}, {"id": 27964, "name": "Walt Griba", "roles_in_work": [{"id": 2412657, "title": "Jabberwocky (TEFC)", "work_id": 85949, "role": "director", "role_id": 938, "is_primary": true}], "also_known_as": "", "date_of_birth": "", "date_of_death": "", "genders": [], "languages": [], "places_of_operation": [], "biography": "", "biography_author": null, "date_of_biography": "2023-08-11T18:43:06.627357+10:00", "external_links": [], "uuid": "f3265a41-2c28-4ae1-b8b2-b8c8c1f19eb1", "source": {"name": "Vernon", "slug": "vernon"}, "source_identifier": "30230", "external_references": [], "date_modified": "2023-08-11T18:43:06.627587+10:00"}, {"id": 27963, "name": "Thomas Howe", "roles_in_work": [{"id": 2412656, "title": "Jabberwocky (TEFC)", "work_id": 85949, "role": "producer", "role_id": 1089, "is_primary": true}], "also_known_as": "", "date_of_birth": "", "date_of_death": "", "genders": [], "languages": [], "places_of_operation": [], "biography": "", "biography_author": null, "date_of_biography": "2023-08-11T18:43:05.995065+10:00", "external_links": [], "uuid": "c246e6c5-a146-473e-9082-8c45114e7147", "source": {"name": "Vernon", "slug": "vernon"}, "source_identifier": "29688", "external_references": [], "date_modified": "2023-08-11T18:43:05.995306+10:00"}, {"id": 27962, "name": "Simon Fraser University", "roles_in_work": [{"id": 2751404, "title": "Physical education activities for the classroom", "work_id": 97794, "role": "production company", "role_id": 941, "is_primary": true}, {"id": 2412655, "title": "Jabberwocky (TEFC)", "work_id": 85949, "role": "production company", "role_id": 941, "is_primary": true}], "also_known_as": "", "date_of_birth": "", "date_of_death": "", "genders": [], "languages": [], "places_of_operation": [], "biography": "", "biography_author": null, "date_of_biography": "2023-08-11T18:43:05.379272+10:00", "external_links": [], "uuid": "38717039-1e39-42c4-a1a7-282693e40def", "source": {"name": "Vernon", "slug": "vernon"}, "source_identifier": "8078", "external_references": [], "date_modified": "2025-03-13T00:42:02.855370+11:00"}, {"id": 27961, "name": "Ken Blackman", "roles_in_work": [{"id": 2465305, "title": "Riding on air: the HM-2 Sidewall hovercraft", "work_id": 85948, "role": "director", "role_id": 938, "is_primary": true}], "also_known_as": "", "date_of_birth": "", "date_of_death": "", "genders": [], "languages": [], "places_of_operation": [], "biography": "", "biography_author": null, "date_of_biography": "2023-08-14T10:31:51.344659+10:00", "external_links": [], "uuid": "e2da03e3-cc17-4936-bc6f-470458a74d9e", "source": {"name": "Vernon", "slug": "vernon"}, "source_identifier": "23170", "external_references": [], "date_modified": "2023-08-14T10:31:51.344964+10:00"}, {"id": 27960, "name": "Southern Photographic Studios", "roles_in_work": [{"id": 2465304, "title": "Riding on air: the HM-2 Sidewall hovercraft", "work_id": 85948, "role": "production company", "role_id": 941, "is_primary": true}], "also_known_as": "", "date_of_birth": "", "date_of_death": "", "genders": [], "languages": [], "places_of_operation": [], "biography": "", "biography_author": null, "date_of_biography": "2023-08-14T10:31:50.713560+10:00", "external_links": [], "uuid": "79acfdb3-6d44-4bce-82bc-ae4044200837", "source": {"name": "Vernon", "slug": "vernon"}, "source_identifier": "12802", "external_references": [], "date_modified": "2023-08-14T10:31:50.713921+10:00"}, {"id": 27959, "name": "Films for Children", "roles_in_work": [{"id": 2467377, "title": "The Lion and the mouse", "work_id": 85947, "role": "production company", "role_id": 941, "is_primary": true}], "also_known_as": "", "date_of_birth": "", "date_of_death": "", "genders": [], "languages": [], "places_of_operation": [], "biography": "", "biography_author": null, "date_of_biography": "2023-08-14T11:18:59.282354+10:00", "external_links": [], "uuid": "86949791-b0cb-4fe3-ba1c-6eb5e1a5020c", "source": {"name": "Vernon", "slug": "vernon"}, "source_identifier": "8309", "external_references": [], "date_modified": "2023-08-14T11:18:59.282750+10:00"}, {"id": 27957, "name": "Japan Tourist Association", "roles_in_work": [{"id": 2408394, "title": "Gardens of Japan", "work_id": 85941, "role": "production company", "role_id": 941, "is_primary": true}], "also_known_as": "", "date_of_birth": "", "date_of_death": "", "genders": [], "languages": [], "places_of_operation": [], "biography": "", "biography_author": null, "date_of_biography": "2023-08-11T16:58:52.531679+10:00", "external_links": [], "uuid": "dfe9ce82-e602-4ead-b478-e82b17fe2c52", "source": {"name": "Vernon", "slug": "vernon"}, "source_identifier": "34714", "external_references": [], "date_modified": "2023-08-11T16:58:52.531981+10:00"}, {"id": 27956, "name": "Eugenic Society", "roles_in_work": [{"id": 2407941, "title": "From generation to generation", "work_id": 85940, "role": "production company", "role_id": 941, "is_primary": true}], "also_known_as": "", "date_of_birth": "", "date_of_death": "", "genders": [], "languages": [], "places_of_operation": [], "biography": "", "biography_author": null, "date_of_biography": "2023-08-11T16:50:00.457285+10:00", "external_links": [], "uuid": "1758c4cb-527a-4eaf-9fdd-062d9efc251b", "source": {"name": "Vernon", "slug": "vernon"}, "source_identifier": "7993", "external_references": [], "date_modified": "2023-08-11T16:50:00.457512+10:00"}]}