{"count": 28687, "next": "https://api.acmi.net.au/creators/?page=1841", "previous": "https://api.acmi.net.au/creators/?page=1839", "results": [{"id": 25605, "name": "Turner Home Entertainment", "roles_in_work": [{"id": 2154609, "title": "Martina: fitness and conditioning workout program", "work_id": 83491, "role": "production company", "role_id": 941, "is_primary": true}, {"id": 3081365, "title": "The Youngest heavyweight champion", "work_id": 89730, "role": "production company", "role_id": 941, "is_primary": true}, {"id": 3081373, "title": "Exile", "work_id": 89729, "role": "production company", "role_id": 941, "is_primary": true}, {"id": 3081381, "title": "The Road back", "work_id": 89728, "role": "production company", "role_id": 941, "is_primary": true}, {"id": 3081389, "title": "The Rumble in the jungle", "work_id": 89727, "role": "production company", "role_id": 941, "is_primary": true}, {"id": 3081396, "title": "The Thrilla in Manila", "work_id": 89726, "role": "production company", "role_id": 941, "is_primary": true}, {"id": 3081403, "title": "Muhammad Ali: the whole story", "work_id": 115534, "role": "production company", "role_id": 941, "is_primary": true}, {"id": 3081357, "title": "The Beginning: Olympic gold", "work_id": 89731, "role": "production company", "role_id": 941, "is_primary": true}], "also_known_as": "", "date_of_birth": "", "date_of_death": "", "genders": [], "languages": [], "places_of_operation": [], "biography": "Turner Entertainment Company is an American multimedia company founded by Ted Turner on August 2, 1986. Purchased by Time Warner on October 10, 1996 as part of its acquisition of Turner Broadcasting System (TBS), the company was largely responsible for overseeing the TBS library for worldwide distribution. In recent years, this role has largely been limited to being the copyright holder, as it has become an in-name-only subsidiary of Warner Bros., which currently administers their library.", "biography_author": "Wikidata", "date_of_biography": "2023-09-06T01:59:53.468837+10:00", "external_links": [{"id": 5302, "uri": "https://en.wikipedia.org/wiki/Turner_Entertainment"}], "uuid": "eea50ad4-0d0e-4b62-9217-b49b9e572cac", "source": {"name": "Vernon", "slug": "vernon"}, "source_identifier": "4219", "external_references": [{"id": 37434, "source": {"name": "Wikidata", "slug": "wikidata"}, "source_identifier": "Q371400"}, {"id": 56003, "source": {"name": "VIAF", "slug": "viaf"}, "source_identifier": "144439568"}, {"id": 56004, "source": {"name": "LOC Auth", "slug": "loc-auth"}, "source_identifier": "n88034562"}, {"id": 56005, "source": {"name": "WorldCat", "slug": "worldcat"}, "source_identifier": "lccn-n88034562"}], "date_modified": "2025-03-17T10:23:48.320065+11:00"}, {"id": 25599, "name": "Stacy Jolna", "roles_in_work": [{"id": 2187744, "title": "Desert storm: the victory", "work_id": 83472, "role": "producer", "role_id": 1089, "is_primary": true}, {"id": 2187224, "title": "Desert storm: the war begins", "work_id": 83471, "role": "producer", "role_id": 1089, "is_primary": true}], "also_known_as": "", "date_of_birth": "", "date_of_death": "", "genders": [], "languages": [], "places_of_operation": [], "biography": "", "biography_author": null, "date_of_biography": "2023-05-09T15:03:48.790543+10:00", "external_links": [], "uuid": "ab449976-3579-42d2-a374-3b52f3f89b0a", "source": {"name": "Vernon", "slug": "vernon"}, "source_identifier": "28922", "external_references": [{"id": 41300, "source": {"name": "Wikidata", "slug": "wikidata"}, "source_identifier": "Q121143952"}], "date_modified": "2023-09-06T01:25:41.361334+10:00"}, {"id": 25598, "name": "Cable News Network", "roles_in_work": [{"id": 2187742, "title": "Desert storm: the victory", "work_id": 83472, "role": "production company", "role_id": 941, "is_primary": true}, {"id": 2187219, "title": "Desert storm: the war begins", "work_id": 83471, "role": "production company", "role_id": 941, "is_primary": true}], "also_known_as": "", "date_of_birth": "", "date_of_death": "", "genders": [], "languages": [], "places_of_operation": [], "biography": "", "biography_author": null, "date_of_biography": "2023-05-09T15:03:48.561613+10:00", "external_links": [], "uuid": "13ec0c99-19d5-42c5-b6cd-88ea43934ce9", "source": {"name": "Vernon", "slug": "vernon"}, "source_identifier": "6182", "external_references": [{"id": 39107, "source": {"name": "Wikidata", "slug": "wikidata"}, "source_identifier": "Q121143762"}], "date_modified": "2023-09-05T18:17:07.694085+10:00"}, {"id": 25595, "name": "Geoff Tanner", "roles_in_work": [{"id": 2105135, "title": "Avalon: the 1992 Australian International Air Show", "work_id": 83466, "role": "director", "role_id": 938, "is_primary": true}], "also_known_as": "", "date_of_birth": "", "date_of_death": "", "genders": [], "languages": [], "places_of_operation": [], "biography": "", "biography_author": null, "date_of_biography": "2023-05-09T12:37:35.117091+10:00", "external_links": [], "uuid": "5a4905bc-bf1f-4792-ac31-7d34045d07ea", "source": {"name": "Vernon", "slug": "vernon"}, "source_identifier": "19516", "external_references": [{"id": 39947, "source": {"name": "Wikidata", "slug": "wikidata"}, "source_identifier": "Q121271081"}], "date_modified": "2023-09-05T20:02:04.264205+10:00"}, {"id": 25593, "name": "Airshows Downunder", "roles_in_work": [{"id": 2105123, "title": "Avalon: the 1992 Australian International Air Show", "work_id": 83466, "role": "production company", "role_id": 941, "is_primary": true}], "also_known_as": "", "date_of_birth": "", "date_of_death": "", "genders": [], "languages": [], "places_of_operation": [], "biography": "", "biography_author": null, "date_of_biography": "2023-05-09T12:37:34.317651+10:00", "external_links": [], "uuid": "dfb61c07-b8f0-401b-b786-4826f6780809", "source": {"name": "Vernon", "slug": "vernon"}, "source_identifier": "5082", "external_references": [{"id": 40257, "source": {"name": "Wikidata", "slug": "wikidata"}, "source_identifier": "Q121223497"}], "date_modified": "2023-09-05T17:17:39.296787+10:00"}, {"id": 25592, "name": "Aerospace Foundation", "roles_in_work": [{"id": 2105121, "title": "Avalon: the 1992 Australian International Air Show", "work_id": 83466, "role": "production company", "role_id": 941, "is_primary": true}], "also_known_as": "", "date_of_birth": "", "date_of_death": "", "genders": [], "languages": [], "places_of_operation": [], "biography": "", "biography_author": null, "date_of_biography": "2023-05-09T12:37:34.086991+10:00", "external_links": [], "uuid": "9d3899b2-bc43-43c0-963d-17b5aaf67627", "source": {"name": "Vernon", "slug": "vernon"}, "source_identifier": "5047", "external_references": [{"id": 35407, "source": {"name": "Wikidata", "slug": "wikidata"}, "source_identifier": "Q121143577"}], "date_modified": "2023-09-05T17:17:24.333128+10:00"}, {"id": 25586, "name": "Shirley Sun", "roles_in_work": [{"id": 1994351, "title": "A Great wall", "work_id": 90267, "role": "producer", "role_id": 1089, "is_primary": true}, {"id": 2136442, "title": "China: Sichuan province", "work_id": 83452, "role": "producer/director", "role_id": 31, "is_primary": true}], "also_known_as": "", "date_of_birth": "", "date_of_death": "", "genders": [], "languages": [], "places_of_operation": [], "biography": "", "biography_author": null, "date_of_biography": "2023-05-09T13:30:24.208611+10:00", "external_links": [], "uuid": "59cfce77-8fc0-4ba1-b24b-8cfe224987d6", "source": {"name": "Vernon", "slug": "vernon"}, "source_identifier": "28777", "external_references": [{"id": 50687, "source": {"name": "Wikidata", "slug": "wikidata"}, "source_identifier": "Q117859045"}], "date_modified": "2023-09-06T01:16:25.982478+10:00"}, {"id": 25585, "name": "Link House Communications", "roles_in_work": [{"id": 2136459, "title": "China: the middle kingdom", "work_id": 83451, "role": "production company", "role_id": 941, "is_primary": true}], "also_known_as": "", "date_of_birth": "", "date_of_death": "", "genders": [], "languages": [], "places_of_operation": [], "biography": "", "biography_author": null, "date_of_biography": "2023-05-09T13:30:27.163395+10:00", "external_links": [], "uuid": "ab1f05d6-086c-4e2e-9894-fa907d571fe4", "source": {"name": "Vernon", "slug": "vernon"}, "source_identifier": "10078", "external_references": [{"id": 43375, "source": {"name": "Wikidata", "slug": "wikidata"}, "source_identifier": "Q121079212"}], "date_modified": "2023-09-05T22:26:46.363296+10:00"}, {"id": 25584, "name": "Highlight International Films", "roles_in_work": [{"id": 2136457, "title": "China: the middle kingdom", "work_id": 83451, "role": "production company", "role_id": 941, "is_primary": true}], "also_known_as": "", "date_of_birth": "", "date_of_death": "", "genders": [], "languages": [], "places_of_operation": [], "biography": "", "biography_author": null, "date_of_biography": "2023-05-09T13:30:26.917172+10:00", "external_links": [], "uuid": "a9984085-b6cb-4e94-aaf6-34ddc5b84df8", "source": {"name": "Vernon", "slug": "vernon"}, "source_identifier": "9102", "external_references": [{"id": 37405, "source": {"name": "Wikidata", "slug": "wikidata"}, "source_identifier": "Q121091125"}], "date_modified": "2023-09-05T20:39:11.294872+10:00"}, {"id": 25583, "name": "Isolde Films", "roles_in_work": [{"id": 2324534, "title": "Testimony", "work_id": 83448, "role": "production company", "role_id": 941, "is_primary": true}], "also_known_as": "", "date_of_birth": "", "date_of_death": "", "genders": [], "languages": [], "places_of_operation": [], "biography": "", "biography_author": null, "date_of_biography": "2023-05-09T19:17:08.077408+10:00", "external_links": [], "uuid": "0f280eeb-06d5-4183-b881-220bf62fabb1", "source": {"name": "Vernon", "slug": "vernon"}, "source_identifier": "9458", "external_references": [{"id": 38113, "source": {"name": "Wikidata", "slug": "wikidata"}, "source_identifier": "Q121091361"}], "date_modified": "2023-09-05T20:52:13.489952+10:00"}]}