{"count": 28687, "next": "https://api.acmi.net.au/creators/?page=2257", "previous": "https://api.acmi.net.au/creators/?page=2255", "results": [{"id": 17594, "name": "Wheaton Galentine", "roles_in_work": [{"id": 825757, "title": "The Pond and the city", "work_id": 96019, "role": "director", "role_id": 938, "is_primary": true}, {"id": 873613, "title": "Journey into friendship", "work_id": 88315, "role": "director", "role_id": 938, "is_primary": true}, {"id": 2646164, "title": "Rice", "work_id": 72215, "role": "co-director", "role_id": 959, "is_primary": true}, {"id": 2748766, "title": "Textures", "work_id": 96453, "role": "producer", "role_id": 1089, "is_primary": true}, {"id": 859885, "title": "Treadle and bobbin (TEFC)", "work_id": 73997, "role": "producer/director", "role_id": 31, "is_primary": true}], "also_known_as": "", "date_of_birth": null, "date_of_death": null, "genders": [], "languages": [], "places_of_operation": [], "biography": "", "biography_author": null, "date_of_biography": null, "external_links": [], "uuid": "f8f6b1e0-f651-4c9c-9bff-ad88768c51ff", "source": {"name": "Vernon", "slug": "vernon"}, "source_identifier": "4016", "external_references": [], "date_modified": "2025-03-12T23:45:25.733447+11:00"}, {"id": 17592, "name": "Capital Cities", "roles_in_work": [{"id": 2250043, "title": "Rhythmetron: with the Dance Theatre of Harlem and Arthur Mitchell", "work_id": 72213, "role": "production company", "role_id": 941, "is_primary": true}, {"id": 1994745, "title": "The Sinking of the Rainbow Warrior", "work_id": 90532, "role": "production company", "role_id": 941, "is_primary": true}], "also_known_as": "", "date_of_birth": "", "date_of_death": "", "genders": [], "languages": [], "places_of_operation": [], "biography": "", "biography_author": null, "date_of_biography": "2023-05-09T17:09:39.210260+10:00", "external_links": [], "uuid": "51d24a6e-e4e2-48ed-915b-3e5d1bc6fccf", "source": {"name": "Vernon", "slug": "vernon"}, "source_identifier": "6274", "external_references": [{"id": 32914, "source": {"name": "Wikidata", "slug": "wikidata"}, "source_identifier": "Q121271165"}], "date_modified": "2023-09-05T18:18:36.239711+10:00"}, {"id": 17591, "name": "Centrale Du Film Scolaire Berne", "roles_in_work": [{"id": 2468007, "title": "The River Rhone in Switzerland", "work_id": 72205, "role": "production company", "role_id": 941, "is_primary": true}], "also_known_as": "", "date_of_birth": "", "date_of_death": "", "genders": [], "languages": [], "places_of_operation": [], "biography": "", "biography_author": null, "date_of_biography": "2023-08-14T11:31:52.215371+10:00", "external_links": [], "uuid": "c6526b88-b2d9-48b9-8dab-693d11ef46fe", "source": {"name": "Vernon", "slug": "vernon"}, "source_identifier": "6431", "external_references": [], "date_modified": "2023-08-14T11:31:52.215631+10:00"}, {"id": 17588, "name": "John Fitzgerald", "roles_in_work": [{"id": 2129399, "title": "Can You Hear Me?", "work_id": 80257, "role": "director", "role_id": 938, "is_primary": true}, {"id": 865721, "title": "Coal Dust the Invisible Killer", "work_id": 80261, "role": "director", "role_id": 938, "is_primary": true}, {"id": 752044, "title": "A Return to the Rocks", "work_id": 72190, "role": "director", "role_id": 938, "is_primary": true}, {"id": 2647143, "title": "Safety in your hands", "work_id": 75423, "role": "director", "role_id": 938, "is_primary": true}, {"id": 858156, "title": "The Search for coal", "work_id": 72583, "role": "director", "role_id": 938, "is_primary": true}, {"id": 759866, "title": "Embroidery and printed textiles", "work_id": 75572, "role": "producer/director", "role_id": 31, "is_primary": true}, {"id": 865762, "title": "The Kandy Perahera", "work_id": 80386, "role": "producer/director", "role_id": 31, "is_primary": true}], "also_known_as": "", "date_of_birth": "", "date_of_death": "", "genders": [], "languages": [], "places_of_operation": [], "biography": "", "biography_author": null, "date_of_biography": "2023-05-09T17:27:13.466890+10:00", "external_links": [], "uuid": "efd5180c-f943-4309-a5bb-7551dcb89ba7", "source": {"name": "Vernon", "slug": "vernon"}, "source_identifier": "22255", "external_references": [{"id": 33888, "source": {"name": "Wikidata", "slug": "wikidata"}, "source_identifier": "Q121143575"}], "date_modified": "2025-03-05T13:20:20.673189+11:00"}, {"id": 17584, "name": "Construction Safety Assoc of Ontario", "roles_in_work": [{"id": 2762170, "title": "Return of Milton Whitty", "work_id": 72185, "role": "production company", "role_id": 941, "is_primary": true}], "also_known_as": "", "date_of_birth": "", "date_of_death": "", "genders": [], "languages": [], "places_of_operation": [], "biography": "", "biography_author": null, "date_of_biography": "2023-05-09T20:04:17.840040+10:00", "external_links": [], "uuid": "0ec86f1b-57fd-4511-86c1-5c1a8fee719f", "source": {"name": "Vernon", "slug": "vernon"}, "source_identifier": "7027", "external_references": [{"id": 39323, "source": {"name": "Wikidata", "slug": "wikidata"}, "source_identifier": "Q121160065"}], "date_modified": "2025-03-14T17:37:11.552935+11:00"}, {"id": 17583, "name": "James Allen", "roles_in_work": [{"id": 857679, "title": "Retail stock management", "work_id": 72183, "role": "director", "role_id": 938, "is_primary": true}, {"id": 875034, "title": "Founded on science", "work_id": 89269, "role": "director", "role_id": 938, "is_primary": true}, {"id": 918574, "title": "150 to the acre", "work_id": 96883, "role": "co-producer", "role_id": 915, "is_primary": true}, {"id": 2749144, "title": "About three hundred million years ago...", "work_id": 96654, "role": "co-producer", "role_id": 915, "is_primary": true}], "also_known_as": "", "date_of_birth": null, "date_of_death": null, "genders": [], "languages": [], "places_of_operation": [], "biography": "", "biography_author": null, "date_of_biography": null, "external_links": [], "uuid": "b8d44060-7b57-449f-8b5e-63e3724f3620", "source": {"name": "Vernon", "slug": "vernon"}, "source_identifier": "21184", "external_references": [], "date_modified": "2025-03-12T23:53:04.130993+11:00"}, {"id": 17579, "name": "Research Press", "roles_in_work": [{"id": 2249451, "title": "Responsible assertion (TEFC)", "work_id": 72180, "role": "production company", "role_id": 941, "is_primary": true}, {"id": 859633, "title": "Three styles of marital conflict", "work_id": 73789, "role": "production company", "role_id": 941, "is_primary": true}, {"id": 2081071, "title": "Actualization through assertion", "work_id": 85600, "role": "production company", "role_id": 941, "is_primary": true}], "also_known_as": "", "date_of_birth": "", "date_of_death": "", "genders": [], "languages": [], "places_of_operation": [], "biography": "", "biography_author": null, "date_of_biography": "2023-05-09T17:08:36.390979+10:00", "external_links": [], "uuid": "a53b5ca6-66b1-4f4c-b01f-f079e8a8ca7a", "source": {"name": "Vernon", "slug": "vernon"}, "source_identifier": "11975", "external_references": [{"id": 50982, "source": {"name": "Wikidata", "slug": "wikidata"}, "source_identifier": "Q121357958"}], "date_modified": "2023-09-06T00:26:25.683830+10:00"}, {"id": 17578, "name": "Ellen Reese", "roles_in_work": [{"id": 2465767, "title": "Respondent and operant behaviour (TEFC)", "work_id": 72179, "role": "director", "role_id": 938, "is_primary": true}, {"id": 2465762, "title": "Shaping various operants, various species (TEFC)", "work_id": 72734, "role": "director", "role_id": 938, "is_primary": true}], "also_known_as": "", "date_of_birth": "", "date_of_death": "", "genders": [], "languages": [], "places_of_operation": [], "biography": "", "biography_author": null, "date_of_biography": "2023-08-14T10:41:48.410871+10:00", "external_links": [], "uuid": "4f2e0f9e-1db8-48f1-8c88-b7efb7d0ac2d", "source": {"name": "Vernon", "slug": "vernon"}, "source_identifier": "18723", "external_references": [], "date_modified": "2023-08-14T10:41:48.411229+10:00"}, {"id": 17572, "name": "Julian Wintle", "roles_in_work": [{"id": 2147443, "title": "Country town", "work_id": 88278, "role": "director", "role_id": 938, "is_primary": true}, {"id": 2267234, "title": "Very important person [Study extract]", "work_id": 74324, "role": "co-producer", "role_id": 915, "is_primary": true}, {"id": 2328840, "title": "The Avengers. Vol. 01", "work_id": 85406, "role": "co-producer", "role_id": 915, "is_primary": true}, {"id": 1812595, "title": "This is China", "work_id": 73717, "role": "producer", "role_id": 1089, "is_primary": true}, {"id": 3084601, "title": "Death at bargain prices. Castle De'ath. The Master minds", "work_id": 93102, "role": "producer", "role_id": 1089, "is_primary": true}, {"id": 3084594, "title": "The Town of no return. The Gravediggers. The Cybernauts", "work_id": 93101, "role": "producer", "role_id": 1089, "is_primary": true}, {"id": 1811584, "title": "Passage home", "work_id": 87072, "role": "producer", "role_id": 1089, "is_primary": true}, {"id": 1991952, "title": "The One that got away", "work_id": 87651, "role": "producer", "role_id": 1089, "is_primary": true}, {"id": 1805336, "title": "Research and modern housing", "work_id": 72169, "role": "producer", "role_id": 1089, "is_primary": true}], "also_known_as": "", "date_of_birth": "17 OCT 1913", "date_of_death": "08 NOV 1980", "genders": [{"id": 9, "name": "Male", "slug": "male"}], "languages": [{"id": 1, "name": "English", "slug": "english"}], "places_of_operation": [{"id": 10, "name": "United Kingdom", "slug": "united-kingdom"}], "biography": "Julian Wintle (1913–1980)  was a British film and TV producer who had haemophilia.He is best remembered for his work on TV's The Avengers, where he oversaw the transition of the series to film, the introduction of Emma Peel, and the subsequent international success, in what is considered by many to be the series \"classic\" years (1965–1967).Wintle was a member of the Bryanston Consortium from 1959 to 1963. For several years, in the early 1960s he was head of Beaconsfield Film Studios, and, together with Leslie Parkyn, a director of Independent Artists Ltd., which produced Lindsay Anderson's This Sporting Life (1963) among other projects.\n\nHis sons are the musician and publisher Christopher Wintle and the writer Justin Wintle. He was the subject of a biography by Anne Francis, Julian Wintle. A Memoir, London, Dukeswood, 1984. This contains an extensive filmography with many films listed for which he was executive producer. Source: Wikidata; 01/08/2023", "biography_author": null, "date_of_biography": "2025-03-17T10:37:11.203426+11:00", "external_links": [{"id": 4455, "uri": "https://en.wikipedia.org/wiki/Julian_Wintle"}], "uuid": "45e3afee-4fee-4fca-8fd7-7c81dc58cb70", "source": {"name": "Vernon", "slug": "vernon"}, "source_identifier": "22879", "external_references": [{"id": 26019, "source": {"name": "Wikidata", "slug": "wikidata"}, "source_identifier": "Q1712073"}, {"id": 29704, "source": {"name": "VIAF", "slug": "viaf"}, "source_identifier": "41378304"}, {"id": 29705, "source": {"name": "LOC Auth", "slug": "loc-auth"}, "source_identifier": "no00013482"}, {"id": 29706, "source": {"name": "WorldCat", "slug": "worldcat"}, "source_identifier": "lccn-no00013482"}], "date_modified": "2025-03-17T10:37:11.203748+11:00"}, {"id": 17566, "name": "Ian Martin", "roles_in_work": [{"id": 1809332, "title": "Viewpoint: Love story", "work_id": 95493, "role": "producer", "role_id": 1089, "is_primary": true}, {"id": 2750719, "title": "Superman and the bride", "work_id": 97463, "role": "producer", "role_id": 1089, "is_primary": true}, {"id": 1805181, "title": "Report on pollution", "work_id": 72155, "role": "producer", "role_id": 1089, "is_primary": true}], "also_known_as": "", "date_of_birth": null, "date_of_death": null, "genders": [], "languages": [], "places_of_operation": [], "biography": "", "biography_author": null, "date_of_biography": null, "external_links": [], "uuid": "acf00610-82b5-48da-8939-5003855e72d3", "source": {"name": "Vernon", "slug": "vernon"}, "source_identifier": "20773", "external_references": [], "date_modified": "2025-03-13T00:27:29.393456+11:00"}]}