{"count": 28687, "next": "https://api.acmi.net.au/creators/?page=2693", "previous": "https://api.acmi.net.au/creators/?page=2691", "results": [{"id": 11530, "name": "Danielle Hughes", "roles_in_work": [{"id": 2641734, "title": "That special look", "work_id": 110791, "role": "creator", "role_id": 968, "is_primary": true}], "also_known_as": "", "date_of_birth": "", "date_of_death": "", "genders": [], "languages": [], "places_of_operation": [], "biography": "", "biography_author": null, "date_of_biography": "2023-05-09T19:55:06.286082+10:00", "external_links": [], "uuid": "64346219-1041-4700-a4c8-d54874010b63", "source": {"name": "Vernon", "slug": "vernon"}, "source_identifier": "3285", "external_references": [], "date_modified": "2025-03-05T11:38:49.001302+11:00"}, {"id": 11529, "name": "Mia Ford", "roles_in_work": [{"id": 2641696, "title": "Little bear", "work_id": 110790, "role": "creator", "role_id": 968, "is_primary": true}], "also_known_as": "", "date_of_birth": "", "date_of_death": "", "genders": [], "languages": [], "places_of_operation": [], "biography": "", "biography_author": null, "date_of_biography": "2023-05-09T19:53:47.796049+10:00", "external_links": [], "uuid": "68361b82-bc36-4c29-b5db-fcb9c8f8a0c0", "source": {"name": "Vernon", "slug": "vernon"}, "source_identifier": "3281", "external_references": [], "date_modified": "2025-03-05T11:38:21.827022+11:00"}, {"id": 11528, "name": "Kevin Monteiro", "roles_in_work": [{"id": 2641693, "title": "The Four musketeers", "work_id": 110789, "role": "creator", "role_id": 968, "is_primary": true}], "also_known_as": "", "date_of_birth": "", "date_of_death": "", "genders": [], "languages": [], "places_of_operation": [], "biography": "", "biography_author": null, "date_of_biography": "2023-05-09T19:53:59.673222+10:00", "external_links": [], "uuid": "d7d7e243-35e7-4794-b3bb-c8ec370f78ef", "source": {"name": "Vernon", "slug": "vernon"}, "source_identifier": "3280", "external_references": [], "date_modified": "2025-03-05T11:38:19.687034+11:00"}, {"id": 11527, "name": "Jess Vacha", "roles_in_work": [{"id": 2641690, "title": "A Day-dream fades", "work_id": 110788, "role": "creator", "role_id": 968, "is_primary": true}], "also_known_as": "", "date_of_birth": "", "date_of_death": "", "genders": [], "languages": [], "places_of_operation": [], "biography": "", "biography_author": null, "date_of_biography": "2023-05-09T19:53:58.486216+10:00", "external_links": [], "uuid": "b346e90e-82a4-4cb2-947f-b36ed49b635f", "source": {"name": "Vernon", "slug": "vernon"}, "source_identifier": "3279", "external_references": [], "date_modified": "2025-03-05T11:38:17.575499+11:00"}, {"id": 11526, "name": "Jane Garnham", "roles_in_work": [{"id": 2641687, "title": "Dogs [Boys]", "work_id": 110787, "role": "creator", "role_id": 968, "is_primary": true}], "also_known_as": "", "date_of_birth": "", "date_of_death": "", "genders": [], "languages": [], "places_of_operation": [], "biography": "", "biography_author": null, "date_of_biography": "2023-05-09T19:53:57.363608+10:00", "external_links": [], "uuid": "5b65cedf-51dc-4e23-8f83-ff44b327de90", "source": {"name": "Vernon", "slug": "vernon"}, "source_identifier": "3278", "external_references": [], "date_modified": "2025-03-05T11:38:15.452667+11:00"}, {"id": 11525, "name": "Enoch Aning", "roles_in_work": [{"id": 2641684, "title": "Dark side beside the river", "work_id": 110786, "role": "creator", "role_id": 968, "is_primary": true}, {"id": 2641681, "title": "The Expectation", "work_id": 110785, "role": "creator", "role_id": 968, "is_primary": true}], "also_known_as": "", "date_of_birth": "", "date_of_death": "", "genders": [], "languages": [], "places_of_operation": [], "biography": "", "biography_author": null, "date_of_biography": "2023-05-09T19:53:54.748199+10:00", "external_links": [], "uuid": "79e75440-75d0-402b-8672-0efa9a7fd04b", "source": {"name": "Vernon", "slug": "vernon"}, "source_identifier": "3276", "external_references": [], "date_modified": "2025-03-05T11:38:13.311232+11:00"}, {"id": 11524, "name": "Duy Tran", "roles_in_work": [{"id": 2641678, "title": "Life in horror", "work_id": 110784, "role": "creator", "role_id": 968, "is_primary": true}], "also_known_as": "", "date_of_birth": "", "date_of_death": "", "genders": [], "languages": [], "places_of_operation": [], "biography": "", "biography_author": null, "date_of_biography": "2023-05-09T19:54:02.016687+10:00", "external_links": [], "uuid": "d4477bec-29c7-4ce9-8c33-edbb11b0995a", "source": {"name": "Vernon", "slug": "vernon"}, "source_identifier": "3275", "external_references": [], "date_modified": "2025-03-05T11:38:09.033631+11:00"}, {"id": 11523, "name": "Bai Chan Kheo", "roles_in_work": [{"id": 2641675, "title": "The Lucky country", "work_id": 110783, "role": "creator", "role_id": 968, "is_primary": true}], "also_known_as": "", "date_of_birth": "", "date_of_death": "", "genders": [], "languages": [], "places_of_operation": [], "biography": "", "biography_author": null, "date_of_biography": "2023-05-09T19:53:52.359803+10:00", "external_links": [], "uuid": "8b779ad9-d746-4d6b-ba61-a109425903c4", "source": {"name": "Vernon", "slug": "vernon"}, "source_identifier": "3273", "external_references": [], "date_modified": "2025-03-05T11:38:06.905256+11:00"}, {"id": 11522, "name": "Angela Gotzamanis", "roles_in_work": [{"id": 2641672, "title": "Discoveries", "work_id": 110782, "role": "creator", "role_id": 968, "is_primary": true}], "also_known_as": "", "date_of_birth": "", "date_of_death": "", "genders": [], "languages": [], "places_of_operation": [], "biography": "", "biography_author": null, "date_of_biography": "2023-05-09T19:53:48.939870+10:00", "external_links": [], "uuid": "b2787e10-a68e-480d-9188-01bd55c2dde7", "source": {"name": "Vernon", "slug": "vernon"}, "source_identifier": "3272", "external_references": [], "date_modified": "2025-03-05T11:38:04.770984+11:00"}, {"id": 11521, "name": "Anda Cavar", "roles_in_work": [{"id": 2641669, "title": "Gilmore girl", "work_id": 110781, "role": "creator", "role_id": 968, "is_primary": true}], "also_known_as": "", "date_of_birth": "", "date_of_death": "", "genders": [], "languages": [], "places_of_operation": [], "biography": "", "biography_author": null, "date_of_biography": "2023-05-09T19:54:00.839011+10:00", "external_links": [], "uuid": "a7cbcfdf-1c60-4858-81f6-bab23bb42f13", "source": {"name": "Vernon", "slug": "vernon"}, "source_identifier": "3271", "external_references": [], "date_modified": "2025-03-05T11:38:02.640517+11:00"}]}