{"count": 28687, "next": "https://api.acmi.net.au/creators/?page=481", "previous": "https://api.acmi.net.au/creators/?page=479", "results": [{"id": 80783, "name": "Ibrahim Shaddad", "roles_in_work": [{"id": 2412260, "title": "Insan = Human being", "work_id": 94402, "role": "producer/director", "role_id": 31, "is_primary": true}], "also_known_as": "", "date_of_birth": "", "date_of_death": "", "genders": [], "languages": [], "places_of_operation": [], "biography": "", "biography_author": null, "date_of_biography": "2023-08-11T18:35:21.812859+10:00", "external_links": [], "uuid": "ab503309-cd5e-4286-93b5-43c4c5b017e0", "source": {"name": "Vernon", "slug": "vernon"}, "source_identifier": "20808", "external_references": [{"id": 50805, "source": {"name": "Wikidata", "slug": "wikidata"}, "source_identifier": "Q95815871"}], "date_modified": "2023-09-05T20:47:04.760407+10:00"}, {"id": 80782, "name": "George Khleifi", "roles_in_work": [{"id": 2136322, "title": "Children of fire", "work_id": 94401, "role": "co-producer", "role_id": 915, "is_primary": true}], "also_known_as": "", "date_of_birth": null, "date_of_death": "", "genders": [{"id": 9, "name": "Male", "slug": "male"}], "languages": [], "places_of_operation": [{"id": 33, "name": "Israel", "slug": "israel"}], "biography": "", "biography_author": null, "date_of_biography": "2023-05-09T13:30:13.181370+10:00", "external_links": [], "uuid": "09d5086e-e980-497a-91d8-8d75d41e6e9b", "source": {"name": "Vernon", "slug": "vernon"}, "source_identifier": "19624", "external_references": [{"id": 51626, "source": {"name": "Wikidata", "slug": "wikidata"}, "source_identifier": "Q6778443"}, {"id": 54513, "source": {"name": "VIAF", "slug": "viaf"}, "source_identifier": "49530654"}, {"id": 54514, "source": {"name": "LOC Auth", "slug": "loc-auth"}, "source_identifier": "no2006064034"}, {"id": 54515, "source": {"name": "WorldCat", "slug": "worldcat"}, "source_identifier": "lccn-no2006064034"}], "date_modified": "2023-09-05T20:05:46.310428+10:00"}, {"id": 80781, "name": "Fatima Masri", "roles_in_work": [{"id": 2136316, "title": "Children of fire", "work_id": 94401, "role": "co-producer", "role_id": 915, "is_primary": true}], "also_known_as": "", "date_of_birth": "", "date_of_death": "", "genders": [], "languages": [], "places_of_operation": [], "biography": "", "biography_author": null, "date_of_biography": "2023-05-09T13:30:12.953203+10:00", "external_links": [], "uuid": "40f8170b-b6a6-4a0d-89dd-610a0510c0d0", "source": {"name": "Vernon", "slug": "vernon"}, "source_identifier": "18970", "external_references": [{"id": 43334, "source": {"name": "Wikidata", "slug": "wikidata"}, "source_identifier": "Q121036504"}], "date_modified": "2023-09-05T19:40:37.490343+10:00"}, {"id": 80780, "name": "Jayce Salloum", "roles_in_work": [{"id": 915748, "title": "Introduction to the end of an argument = Intifada - Speaking for Oneself, Speaking for Others", "work_id": 94396, "role": "co-producers/directors", "role_id": 628, "is_primary": true}, {"id": 2468890, "title": "This is not Beirut", "work_id": 94394, "role": "producer/director", "role_id": 31, "is_primary": true}], "also_known_as": "", "date_of_birth": "", "date_of_death": "", "genders": [], "languages": [], "places_of_operation": [], "biography": "", "biography_author": null, "date_of_biography": "2023-08-14T11:48:37.371254+10:00", "external_links": [], "uuid": "cf890c2d-deea-44cf-9a6b-4a8fd71b43df", "source": {"name": "Vernon", "slug": "vernon"}, "source_identifier": "21510", "external_references": [{"id": 51575, "source": {"name": "Wikidata", "slug": "wikidata"}, "source_identifier": "Q121360835"}], "date_modified": "2023-09-05T21:10:00.764938+10:00"}, {"id": 80779, "name": "Thierry Lenouvel", "roles_in_work": [{"id": 915745, "title": "In the shadows of the city [Widescreen] = Taif al madina = L'Ombre de la ville", "work_id": 94393, "role": "co-producer", "role_id": 915, "is_primary": true}], "also_known_as": "", "date_of_birth": null, "date_of_death": null, "genders": [], "languages": [], "places_of_operation": [], "biography": "", "biography_author": null, "date_of_biography": null, "external_links": [], "uuid": "29a1d6c0-91b7-41ae-b3cb-8f436ad7e6a7", "source": {"name": "Vernon", "slug": "vernon"}, "source_identifier": null, "external_references": [{"id": 52194, "source": {"name": "Wikidata", "slug": "wikidata"}, "source_identifier": "Q121357669"}], "date_modified": "2023-09-06T01:47:58.362109+10:00"}, {"id": 80778, "name": "Julian Samuel", "roles_in_work": [{"id": 2467945, "title": "The Raft of the Medusa: five voices on colonies, nations and histories", "work_id": 94391, "role": "producer/director", "role_id": 31, "is_primary": true}], "also_known_as": "", "date_of_birth": "", "date_of_death": "", "genders": [], "languages": [], "places_of_operation": [], "biography": "", "biography_author": null, "date_of_biography": "2023-08-14T11:30:35.423216+10:00", "external_links": [], "uuid": "49ba21cf-844b-4d5f-be99-5db3c3cb9390", "source": {"name": "Vernon", "slug": "vernon"}, "source_identifier": "22874", "external_references": [{"id": 52214, "source": {"name": "Wikidata", "slug": "wikidata"}, "source_identifier": "Q121361189"}], "date_modified": "2023-09-05T21:55:39.431210+10:00"}, {"id": 80777, "name": "Iyad Samudi", "roles_in_work": [{"id": 915741, "title": "Jenin Jenin", "work_id": 94388, "role": "co-producer", "role_id": 915, "is_primary": true}], "also_known_as": "", "date_of_birth": null, "date_of_death": null, "genders": [], "languages": [], "places_of_operation": [], "biography": "", "biography_author": null, "date_of_biography": null, "external_links": [], "uuid": "6c7e5529-8ff9-44fd-aefb-bd2dadb4d712", "source": {"name": "Vernon", "slug": "vernon"}, "source_identifier": null, "external_references": [{"id": 50939, "source": {"name": "Wikidata", "slug": "wikidata"}, "source_identifier": "Q121357990"}], "date_modified": "2023-09-05T20:53:19.856742+10:00"}, {"id": 80776, "name": "Jean-Michel Rey", "roles_in_work": [{"id": 1999291, "title": "Trouble every day [DVD] (D)", "work_id": 94368, "role": "co-producer", "role_id": 915, "is_primary": true}], "also_known_as": "", "date_of_birth": null, "date_of_death": null, "genders": [{"id": 9, "name": "Male", "slug": "male"}], "languages": [{"id": 4, "name": "French", "slug": "french"}], "places_of_operation": [{"id": 17, "name": "France", "slug": "france"}], "biography": "", "biography_author": null, "date_of_biography": null, "external_links": [], "uuid": "f4272dd1-9377-4964-8ef2-619b6be2341b", "source": {"name": "Vernon", "slug": "vernon"}, "source_identifier": null, "external_references": [{"id": 41924, "source": {"name": "Wikidata", "slug": "wikidata"}, "source_identifier": "Q15142082"}], "date_modified": "2023-09-05T21:12:40.418987+10:00"}, {"id": 80775, "name": "Philippe Liegeois", "roles_in_work": [{"id": 1999290, "title": "Trouble every day [DVD] (D)", "work_id": 94368, "role": "co-producer", "role_id": 915, "is_primary": true}], "also_known_as": "", "date_of_birth": null, "date_of_death": null, "genders": [], "languages": [], "places_of_operation": [], "biography": "", "biography_author": null, "date_of_biography": null, "external_links": [], "uuid": "f059ba3c-50a6-4ee2-8612-a3dd4c92882d", "source": {"name": "Vernon", "slug": "vernon"}, "source_identifier": null, "external_references": [{"id": 40433, "source": {"name": "Wikidata", "slug": "wikidata"}, "source_identifier": "Q121126939"}], "date_modified": "2023-09-06T00:06:16.174146+10:00"}, {"id": 80774, "name": "Walerian Borowczyk", "roles_in_work": [{"id": 2650481, "title": "Blanche", "work_id": 115707, "role": "director", "role_id": 938, "is_primary": true}, {"id": 2330219, "title": "The Beast = La Bete [DVD] (E)", "work_id": 94367, "role": "director", "role_id": 938, "is_primary": true}], "also_known_as": "", "date_of_birth": "02 SEP 1923", "date_of_death": "03 FEB 2006", "genders": [{"id": 9, "name": "Male", "slug": "male"}], "languages": [{"id": 24, "name": "Polish", "slug": "polish"}], "places_of_operation": [{"id": 44, "name": "Poland", "slug": "poland"}], "biography": "Walerian Borowczyk (21 October 1923 – 3 February 2006) was an internationally known Polish film director described by film critics as a 'genius who also happened to be a pornographer'. He directed 40 films between 1946 and 1988. Borowczyk settled in Paris in 1959. As a film director, he worked mainly in France. Source: Wikidata; 01/08/2023", "biography_author": null, "date_of_biography": "2025-03-05T14:20:27.801697+11:00", "external_links": [{"id": 5329, "uri": "https://en.wikipedia.org/wiki/Walerian_Borowczyk"}], "uuid": "75c96e22-91b2-4d7b-9539-8be276c9cce2", "source": {"name": "Vernon", "slug": "vernon"}, "source_identifier": "30220", "external_references": [{"id": 24993, "source": {"name": "Wikidata", "slug": "wikidata"}, "source_identifier": "Q708727"}, {"id": 31943, "source": {"name": "VIAF", "slug": "viaf"}, "source_identifier": "129919"}, {"id": 31944, "source": {"name": "LOC Auth", "slug": "loc-auth"}, "source_identifier": "n81055435"}, {"id": 31945, "source": {"name": "WorldCat", "slug": "worldcat"}, "source_identifier": "lccn-n81055435"}], "date_modified": "2025-03-05T14:20:27.801944+11:00"}]}