{"count": 28687, "next": "https://api.acmi.net.au/creators/?page=507", "previous": "https://api.acmi.net.au/creators/?page=505", "results": [{"id": 80523, "name": "Toshiaki Okuno", "roles_in_work": [{"id": 2112973, "title": "Berserk 2: Immortal soldier Ep. 6-9", "work_id": 93858, "role": "co-producer", "role_id": 915, "is_primary": true}, {"id": 2112075, "title": "Berserk 6: God's Hand Ep. 22-25", "work_id": 95157, "role": "co-producer", "role_id": 915, "is_primary": true}, {"id": 2112941, "title": "Berserk 1: War cry Ep. 1-5", "work_id": 93857, "role": "co-producer", "role_id": 915, "is_primary": true}, {"id": 2112048, "title": "Berserk 4: Devil's advocate Ep. 14-17", "work_id": 95161, "role": "co-producer", "role_id": 915, "is_primary": true}, {"id": 2112013, "title": "Berserk 3: White Hawk Ep. 10-13", "work_id": 95158, "role": "co-producer", "role_id": 915, "is_primary": true}, {"id": 2113007, "title": "Berserk 5: Requited desires Ep. 18-21", "work_id": 95160, "role": "co-producer", "role_id": 915, "is_primary": true}], "also_known_as": "", "date_of_birth": "", "date_of_death": "", "genders": [], "languages": [], "places_of_operation": [], "biography": "", "biography_author": null, "date_of_biography": "2023-05-09T12:50:26.586030+10:00", "external_links": [], "uuid": "e32219bc-b740-4019-9ab8-e837906316c9", "source": {"name": "Vernon", "slug": "vernon"}, "source_identifier": "29934", "external_references": [{"id": 42904, "source": {"name": "Wikidata", "slug": "wikidata"}, "source_identifier": "Q121126574"}], "date_modified": "2023-09-06T01:57:37.605886+10:00"}, {"id": 80522, "name": "Toshio Nakatani", "roles_in_work": [{"id": 2112937, "title": "Berserk 1: War cry Ep. 1-5", "work_id": 93857, "role": "co-producer", "role_id": 915, "is_primary": true}, {"id": 2112047, "title": "Berserk 4: Devil's advocate Ep. 14-17", "work_id": 95161, "role": "co-producer", "role_id": 915, "is_primary": true}, {"id": 2113003, "title": "Berserk 5: Requited desires Ep. 18-21", "work_id": 95160, "role": "co-producer", "role_id": 915, "is_primary": true}, {"id": 2112012, "title": "Berserk 3: White Hawk Ep. 10-13", "work_id": 95158, "role": "co-producer", "role_id": 915, "is_primary": true}, {"id": 2112073, "title": "Berserk 6: God's Hand Ep. 22-25", "work_id": 95157, "role": "co-producer", "role_id": 915, "is_primary": true}, {"id": 2112970, "title": "Berserk 2: Immortal soldier Ep. 6-9", "work_id": 93858, "role": "co-producer", "role_id": 915, "is_primary": true}], "also_known_as": "", "date_of_birth": "", "date_of_death": "", "genders": [], "languages": [], "places_of_operation": [], "biography": "", "biography_author": null, "date_of_biography": "2023-05-09T12:50:26.356992+10:00", "external_links": [], "uuid": "c3a3e7bd-85ec-4030-9ee1-91c4b7e83c73", "source": {"name": "Vernon", "slug": "vernon"}, "source_identifier": "29941", "external_references": [{"id": 37495, "source": {"name": "Wikidata", "slug": "wikidata"}, "source_identifier": "Q121091157"}], "date_modified": "2023-09-06T01:57:46.547481+10:00"}, {"id": 80521, "name": "William Seiter", "roles_in_work": [{"id": 924540, "title": "Laurel & Hardy: sons of the desert. We faw down", "work_id": 93855, "role": "co-director", "role_id": 959, "is_primary": true}], "also_known_as": "", "date_of_birth": null, "date_of_death": null, "genders": [], "languages": [], "places_of_operation": [], "biography": "", "biography_author": null, "date_of_biography": null, "external_links": [], "uuid": "a77c2658-aefe-4d24-9c06-29d77c11c495", "source": {"name": "Vernon", "slug": "vernon"}, "source_identifier": null, "external_references": [{"id": 38405, "source": {"name": "Wikidata", "slug": "wikidata"}, "source_identifier": "Q1361631"}], "date_modified": "2023-09-06T02:18:01.839627+10:00"}, {"id": 80520, "name": "Louise Murray", "roles_in_work": [{"id": 924532, "title": "Muhammad Ali: through the eyes of the world", "work_id": 93852, "role": "co-producer", "role_id": 915, "is_primary": true}], "also_known_as": "", "date_of_birth": null, "date_of_death": null, "genders": [], "languages": [], "places_of_operation": [], "biography": "", "biography_author": null, "date_of_biography": null, "external_links": [], "uuid": "0fb1d29e-eb08-4cd2-b0f1-7c87e4864d23", "source": {"name": "Vernon", "slug": "vernon"}, "source_identifier": null, "external_references": [{"id": 37791, "source": {"name": "Wikidata", "slug": "wikidata"}, "source_identifier": "Q121036745"}], "date_modified": "2023-09-05T22:32:26.459328+10:00"}, {"id": 80519, "name": "David Sonenberg", "roles_in_work": [{"id": 1998525, "title": "When we were kings [DVD]", "work_id": 93851, "role": "co-producer", "role_id": 915, "is_primary": true}], "also_known_as": "", "date_of_birth": null, "date_of_death": null, "genders": [], "languages": [], "places_of_operation": [], "biography": "", "biography_author": null, "date_of_biography": null, "external_links": [], "uuid": "7a2b503d-9ffb-41c6-a5b8-b1d62266f12d", "source": {"name": "Vernon", "slug": "vernon"}, "source_identifier": null, "external_references": [{"id": 35587, "source": {"name": "Wikidata", "slug": "wikidata"}, "source_identifier": "Q121126562"}], "date_modified": "2023-09-05T19:02:49.440714+10:00"}, {"id": 80518, "name": "Tony Ludwig", "roles_in_work": [{"id": 2475873, "title": "Mousehunt", "work_id": 93848, "role": "co-producer", "role_id": 915, "is_primary": true}, {"id": 2184510, "title": "Deep blue sea", "work_id": 95045, "role": "co-producer", "role_id": 915, "is_primary": true}], "also_known_as": "", "date_of_birth": "", "date_of_death": "", "genders": [], "languages": [], "places_of_operation": [], "biography": "", "biography_author": null, "date_of_biography": "2023-08-17T15:13:45.057888+10:00", "external_links": [], "uuid": "76e104b6-a49f-4c54-9cc2-f725aa2091df", "source": {"name": "Vernon", "slug": "vernon"}, "source_identifier": "29885", "external_references": [{"id": 35448, "source": {"name": "Wikidata", "slug": "wikidata"}, "source_identifier": "Q60611860"}], "date_modified": "2023-09-06T01:56:36.997004+10:00"}, {"id": 80517, "name": "Alan Richie", "roles_in_work": [{"id": 2475872, "title": "Mousehunt", "work_id": 93848, "role": "co-producer", "role_id": 915, "is_primary": true}, {"id": 2184519, "title": "Deep blue sea", "work_id": 95045, "role": "co-producer", "role_id": 915, "is_primary": true}], "also_known_as": "", "date_of_birth": "", "date_of_death": "", "genders": [], "languages": [], "places_of_operation": [], "biography": "", "biography_author": null, "date_of_biography": "2023-08-17T15:13:44.450176+10:00", "external_links": [], "uuid": "3f29b001-3228-460b-83a5-40d70e592216", "source": {"name": "Vernon", "slug": "vernon"}, "source_identifier": "14796", "external_references": [{"id": 41997, "source": {"name": "Wikidata", "slug": "wikidata"}, "source_identifier": "Q121036641"}], "date_modified": "2023-09-05T17:20:52.213593+10:00"}, {"id": 80516, "name": "Stan Laurel", "roles_in_work": [{"id": 820916, "title": "Mad double!", "work_id": 94705, "role": "cast", "role_id": 33, "is_primary": false}, {"id": 1807753, "title": "Laurel and Hardy: Way out west. Big business", "work_id": 93846, "role": "producer", "role_id": 1089, "is_primary": true}], "also_known_as": "Arthur Stanley Jefferson", "date_of_birth": "1890-06-16", "date_of_death": "1965-02-23", "genders": [{"id": 9, "name": "Male", "slug": "male"}], "languages": [{"id": 1, "name": "English", "slug": "english"}], "places_of_operation": [{"id": 10, "name": "United Kingdom", "slug": "united-kingdom"}], "biography": "Stan Laurel (, LORR-əl; born Arthur Stanley Jefferson; 16 June 1890 – 23 February 1965) was an English comic actor, writer, and film director who was one half of the comedy duo Laurel and Hardy. He appeared with his comedy partner Oliver Hardy in 107 short films, feature films, and cameo roles.Laurel began his career in music hall, where he developed a number of his standard comic devices, including the bowler hat, the deep comic gravity, and the nonsensical understatement, and developed his skills in pantomime and music hall sketches. He was a member of \"Fred Karno's Army\", where he was Charlie Chaplin's understudy. He and Chaplin arrived in the United States on the same ship from the United Kingdom with the Karno troupe. Laurel began his film career in 1917 and made his final appearance in 1951. He appeared with his comic partner Oliver Hardy in the film short The Lucky Dog in 1921, although they did not become an official team until late 1927. He then appeared exclusively with Hardy until retiring after his comedy partner's death in 1957.\nIn April 1961, at the 33rd Academy Awards, Laurel was given an Academy Honorary Award for his pioneering work in comedy, and he has a star on the Hollywood Walk of Fame at 7021 Hollywood Boulevard. Laurel and Hardy were ranked top among best double acts and seventh overall in a 2005 UK poll to find the Comedians' Comedian. In 2019, Laurel topped a list of the greatest British comedians compiled by a panel on the television channel Gold. In 2009, a bronze statue of the duo was unveiled in Laurel's hometown of Ulverston.", "biography_author": "Wikidata", "date_of_biography": "2023-09-06T01:26:01.877589+10:00", "external_links": [{"id": 6189, "uri": "https://en.wikipedia.org/wiki/Stan_Laurel"}], "uuid": "f27f7fa8-980f-43f5-90c3-7eadf7e02c8d", "source": {"name": "Vernon", "slug": "vernon"}, "source_identifier": null, "external_references": [{"id": 39393, "source": {"name": "Wikidata", "slug": "wikidata"}, "source_identifier": "Q72869"}, {"id": 55848, "source": {"name": "VIAF", "slug": "viaf"}, "source_identifier": "44486990"}, {"id": 55849, "source": {"name": "LOC Auth", "slug": "loc-auth"}, "source_identifier": "n79066701"}, {"id": 55850, "source": {"name": "WorldCat", "slug": "worldcat"}, "source_identifier": "lccn-n79066701"}], "date_modified": "2023-09-06T01:26:06.189946+10:00"}, {"id": 80515, "name": "Barnet Bain", "roles_in_work": [{"id": 2290182, "title": "What dreams may come", "work_id": 93840, "role": "co-producer", "role_id": 915, "is_primary": true}], "also_known_as": "", "date_of_birth": "", "date_of_death": "", "genders": [{"id": 9, "name": "Male", "slug": "male"}], "languages": [{"id": 1, "name": "English", "slug": "english"}], "places_of_operation": [], "biography": "", "biography_author": null, "date_of_biography": "2023-05-09T18:17:40.255455+10:00", "external_links": [], "uuid": "83e4e20d-fc4f-4577-a3ac-372136706760", "source": {"name": "Vernon", "slug": "vernon"}, "source_identifier": "15683", "external_references": [{"id": 38254, "source": {"name": "Wikidata", "slug": "wikidata"}, "source_identifier": "Q114955859"}, {"id": 54041, "source": {"name": "VIAF", "slug": "viaf"}, "source_identifier": "49560428"}, {"id": 54042, "source": {"name": "LOC Auth", "slug": "loc-auth"}, "source_identifier": "no00065089"}], "date_modified": "2023-09-05T17:53:46.078872+10:00"}, {"id": 80514, "name": "Stephen Simon", "roles_in_work": [{"id": 2290181, "title": "What dreams may come", "work_id": 93840, "role": "co-producer", "role_id": 915, "is_primary": true}], "also_known_as": "", "date_of_birth": "", "date_of_death": "", "genders": [], "languages": [], "places_of_operation": [], "biography": "", "biography_author": null, "date_of_biography": "2023-05-09T18:17:40.022530+10:00", "external_links": [], "uuid": "bcba1635-740a-4a6d-9920-6ac1057c4a74", "source": {"name": "Vernon", "slug": "vernon"}, "source_identifier": "29081", "external_references": [{"id": 34406, "source": {"name": "Wikidata", "slug": "wikidata"}, "source_identifier": "Q121079540"}], "date_modified": "2023-09-06T01:29:45.608864+10:00"}]}