{"count": 28681, "next": "https://api.acmi.net.au/creators/?page=648", "previous": "https://api.acmi.net.au/creators/?page=646", "results": [{"id": 79109, "name": "Harry Prins", "roles_in_work": [{"id": 908906, "title": "Whoever says the truth shall die : A film about Pier Paolo Pasolini", "work_id": 89349, "role": "co-producer", "role_id": 915, "is_primary": true}], "also_known_as": "", "date_of_birth": null, "date_of_death": null, "genders": [], "languages": [], "places_of_operation": [], "biography": "", "biography_author": null, "date_of_biography": null, "external_links": [], "uuid": "302af3ba-d222-43eb-928f-92ce309db5d0", "source": {"name": "Vernon", "slug": "vernon"}, "source_identifier": null, "external_references": [{"id": 39044, "source": {"name": "Wikidata", "slug": "wikidata"}, "source_identifier": "Q121126379"}], "date_modified": "2023-09-05T20:31:24.934106+10:00"}, {"id": 79108, "name": "Bruno Rolland", "roles_in_work": [{"id": 908904, "title": "Majorettes in space (E)", "work_id": 89348, "role": "co-director", "role_id": 959, "is_primary": true}], "also_known_as": "", "date_of_birth": null, "date_of_death": null, "genders": [], "languages": [], "places_of_operation": [], "biography": "", "biography_author": null, "date_of_biography": null, "external_links": [], "uuid": "86a2c06d-e598-495a-9325-fc001a521959", "source": {"name": "Vernon", "slug": "vernon"}, "source_identifier": null, "external_references": [{"id": 39429, "source": {"name": "Wikidata", "slug": "wikidata"}, "source_identifier": "Q121143676"}], "date_modified": "2023-09-05T18:14:49.296622+10:00"}, {"id": 79107, "name": "Francois Ozon", "roles_in_work": [{"id": 1995619, "title": "Water drops on burning rocks = Gouttes d'eau sur pierres brulantes", "work_id": 91874, "role": "director", "role_id": 938, "is_primary": true}, {"id": 2320476, "title": "Swimming pool", "work_id": 94878, "role": "director", "role_id": 938, "is_primary": true}, {"id": 1999155, "title": "Under the sand = Sous le sable [DVD]", "work_id": 94306, "role": "director", "role_id": 938, "is_primary": true}, {"id": 2301537, "title": "Sitcom (D)", "work_id": 91871, "role": "director", "role_id": 938, "is_primary": true}, {"id": 2065387, "title": "8 Women = 8 Femmes", "work_id": 94514, "role": "director", "role_id": 938, "is_primary": true}, {"id": 908902, "title": "Majorettes in space (E)", "work_id": 89348, "role": "co-director", "role_id": 959, "is_primary": true}], "also_known_as": "", "date_of_birth": "1967-11-15", "date_of_death": "", "genders": [{"id": 9, "name": "Male", "slug": "male"}], "languages": [{"id": 1, "name": "English", "slug": "english"}, {"id": 4, "name": "French", "slug": "french"}, {"id": 5, "name": "German", "slug": "german"}], "places_of_operation": [{"id": 17, "name": "France", "slug": "france"}], "biography": "François Ozon (French: [fʁɑ̃.swa o.zɔ̃]; born 15 November 1967) is a French film director and screenwriter.\nOzon is considered one of the most important modern French filmmakers. His films are characterized by aesthetic beauty, sharp satirical humor and a free-wheeling view of human sexuality. Recurring themes in his films are friendship, sexual identity, different perceptions of reality, transience and death.Ozon has achieved international acclaim for his films 8 femmes (2002) and Swimming Pool (2003). He is considered one of the most important directors in the new \"New Wave\" in French cinema, along with Jean-Paul Civeyrac, Philippe Ramos, and Yves Caumon, as well as a group of French filmmakers associated with a cinema du corps (\"cinema of the body\").", "biography_author": "Wikidata", "date_of_biography": "2023-08-01T14:51:00.323573+10:00", "external_links": [{"id": 2047, "uri": "https://en.wikipedia.org/wiki/Fran%C3%A7ois_Ozon"}], "uuid": "eeb153c2-1776-4b09-803f-13d64b328965", "source": {"name": "Vernon", "slug": "vernon"}, "source_identifier": "19079", "external_references": [{"id": 8836, "source": {"name": "Wikidata", "slug": "wikidata"}, "source_identifier": "Q266535"}, {"id": 8837, "source": {"name": "VIAF", "slug": "viaf"}, "source_identifier": "85111759"}, {"id": 8838, "source": {"name": "LOC Auth", "slug": "loc-auth"}, "source_identifier": "nr2001023794"}, {"id": 8839, "source": {"name": "WorldCat", "slug": "worldcat"}, "source_identifier": "lccn-nr2001023794"}], "date_modified": "2023-09-05T19:48:22.168947+10:00"}, {"id": 79106, "name": "David Fourier", "roles_in_work": [{"id": 908901, "title": "Majorettes in space (E)", "work_id": 89348, "role": "co-director", "role_id": 959, "is_primary": true}], "also_known_as": "", "date_of_birth": null, "date_of_death": null, "genders": [], "languages": [], "places_of_operation": [], "biography": "", "biography_author": null, "date_of_biography": null, "external_links": [], "uuid": "e0aabf99-6e24-4ec2-9ef2-dc0b71b146d0", "source": {"name": "Vernon", "slug": "vernon"}, "source_identifier": null, "external_references": [{"id": 51614, "source": {"name": "Wikidata", "slug": "wikidata"}, "source_identifier": "Q121357512"}], "date_modified": "2023-09-05T18:56:52.844149+10:00"}, {"id": 79105, "name": "Catherine Dussar", "roles_in_work": [{"id": 908900, "title": "Majorettes in space (E)", "work_id": 89348, "role": "co-producer", "role_id": 915, "is_primary": true}], "also_known_as": "", "date_of_birth": null, "date_of_death": null, "genders": [], "languages": [], "places_of_operation": [], "biography": "", "biography_author": null, "date_of_biography": null, "external_links": [], "uuid": "0a99511d-3847-4389-ac35-4cbf860bcbb1", "source": {"name": "Vernon", "slug": "vernon"}, "source_identifier": null, "external_references": [{"id": 37467, "source": {"name": "Wikidata", "slug": "wikidata"}, "source_identifier": "Q121222564"}], "date_modified": "2023-09-05T18:22:35.769317+10:00"}, {"id": 79104, "name": "Stephanie Boussion", "roles_in_work": [{"id": 908897, "title": "Majorettes in space (E)", "work_id": 89348, "role": "co-producer", "role_id": 915, "is_primary": true}], "also_known_as": "", "date_of_birth": null, "date_of_death": null, "genders": [], "languages": [], "places_of_operation": [], "biography": "", "biography_author": null, "date_of_biography": null, "external_links": [], "uuid": "3c109698-889e-4b55-97a7-aa82941ee4b1", "source": {"name": "Vernon", "slug": "vernon"}, "source_identifier": null, "external_references": [{"id": 39138, "source": {"name": "Wikidata", "slug": "wikidata"}, "source_identifier": "Q121036764"}], "date_modified": "2023-09-06T01:27:59.474344+10:00"}, {"id": 79103, "name": "Carole Scotta", "roles_in_work": [{"id": 908896, "title": "Majorettes in space (E)", "work_id": 89348, "role": "co-producer", "role_id": 915, "is_primary": true}, {"id": 2166522, "title": "My life in pink = Ma vie en rose [Widescreen]", "work_id": 93693, "role": "producer", "role_id": 1089, "is_primary": true}], "also_known_as": "", "date_of_birth": "1966-05-16", "date_of_death": "", "genders": [{"id": 5, "name": "Female", "slug": "female"}], "languages": [{"id": 4, "name": "French", "slug": "french"}], "places_of_operation": [{"id": 17, "name": "France", "slug": "france"}], "biography": "", "biography_author": null, "date_of_biography": "2023-05-09T14:25:59.506096+10:00", "external_links": [], "uuid": "dc9bacc3-c149-4118-ab1b-8b90d53cacc3", "source": {"name": "Vernon", "slug": "vernon"}, "source_identifier": "4380", "external_references": [{"id": 41770, "source": {"name": "Wikidata", "slug": "wikidata"}, "source_identifier": "Q15149339"}, {"id": 54153, "source": {"name": "VIAF", "slug": "viaf"}, "source_identifier": "87444992"}, {"id": 54154, "source": {"name": "LOC Auth", "slug": "loc-auth"}, "source_identifier": "no99063639"}], "date_modified": "2023-09-05T18:20:40.222582+10:00"}, {"id": 79102, "name": "Simon Arnal-Szlovak", "roles_in_work": [{"id": 908895, "title": "Majorettes in space (E)", "work_id": 89348, "role": "co-producer", "role_id": 915, "is_primary": true}], "also_known_as": "", "date_of_birth": null, "date_of_death": null, "genders": [], "languages": [], "places_of_operation": [], "biography": "", "biography_author": null, "date_of_biography": null, "external_links": [], "uuid": "c1c87389-45e5-4801-95dd-61490ced365c", "source": {"name": "Vernon", "slug": "vernon"}, "source_identifier": null, "external_references": [{"id": 42061, "source": {"name": "Wikidata", "slug": "wikidata"}, "source_identifier": "Q15149336"}], "date_modified": "2023-09-06T01:19:47.333350+10:00"}, {"id": 79101, "name": "CDP", "roles_in_work": [{"id": 908894, "title": "Majorettes in space (E)", "work_id": 89348, "role": "production company", "role_id": 941, "is_primary": true}], "also_known_as": "", "date_of_birth": null, "date_of_death": null, "genders": [], "languages": [], "places_of_operation": [], "biography": "", "biography_author": null, "date_of_biography": null, "external_links": [], "uuid": "25cc3a07-5ff7-41b5-a0b2-ba50a4d44957", "source": {"name": "Vernon", "slug": "vernon"}, "source_identifier": null, "external_references": [{"id": 33652, "source": {"name": "Wikidata", "slug": "wikidata"}, "source_identifier": "Q121159744"}], "date_modified": "2023-09-05T18:23:19.012696+10:00"}, {"id": 79100, "name": "Pierre Grunstein", "roles_in_work": [{"id": 1993623, "title": "Lucie Aubrac [Widescreen]", "work_id": 89347, "role": "producer", "role_id": 1089, "is_primary": true}, {"id": 2474804, "title": "French twist = Gazon maudit [Widescreen]", "work_id": 93516, "role": "producer", "role_id": 1089, "is_primary": true}, {"id": 3104721, "title": "Un Sac de Billes = a Bag of Marbles", "work_id": 116054, "role": "producer", "role_id": 1089, "is_primary": true}], "also_known_as": "", "date_of_birth": "1935-03-10", "date_of_death": "", "genders": [{"id": 9, "name": "Male", "slug": "male"}], "languages": [{"id": 4, "name": "French", "slug": "french"}], "places_of_operation": [{"id": 17, "name": "France", "slug": "france"}], "biography": "", "biography_author": null, "date_of_biography": "2023-08-17T15:00:07.865237+10:00", "external_links": [], "uuid": "d5890a3c-8014-444a-9a33-2c250d6bc45c", "source": {"name": "Vernon", "slug": "vernon"}, "source_identifier": "26929", "external_references": [{"id": 34285, "source": {"name": "Wikidata", "slug": "wikidata"}, "source_identifier": "Q3385347"}, {"id": 55537, "source": {"name": "VIAF", "slug": "viaf"}, "source_identifier": "15040437"}, {"id": 55538, "source": {"name": "WorldCat", "slug": "worldcat"}, "source_identifier": "lccn-no2003066672"}], "date_modified": "2025-05-22T22:46:38.924220+10:00"}]}