{"count": 28687, "next": "https://api.acmi.net.au/creators/?page=1398", "previous": "https://api.acmi.net.au/creators/?page=1396", "results": [{"id": 37082, "name": "Zentropa Entertainments8 APS", "roles_in_work": [{"id": 2348142, "title": "The film \"Dogville\" as told in nine chapters and a prologue", "work_id": 94981, "role": "production company", "role_id": 941, "is_primary": true}], "also_known_as": "", "date_of_birth": "", "date_of_death": "", "genders": [], "languages": [], "places_of_operation": [], "biography": "", "biography_author": null, "date_of_biography": "2023-05-09T19:51:26.986566+10:00", "external_links": [], "uuid": "a08e685d-2e2a-42c5-84cb-bb5711d26987", "source": {"name": "Vernon", "slug": "vernon"}, "source_identifier": "14543", "external_references": [{"id": 43027, "source": {"name": "Wikidata", "slug": "wikidata"}, "source_identifier": "Q121086168"}], "date_modified": "2023-09-06T02:25:53.072055+10:00"}, {"id": 37079, "name": "Retro Active Films", "roles_in_work": [{"id": 2257801, "title": "Roy Hollsdotter live", "work_id": 94978, "role": "production company", "role_id": 941, "is_primary": true}], "also_known_as": "", "date_of_birth": "", "date_of_death": "", "genders": [], "languages": [], "places_of_operation": [], "biography": "", "biography_author": null, "date_of_biography": "2023-05-09T17:21:03.283253+10:00", "external_links": [], "uuid": "497d1a25-f790-415d-8e20-3aaf6e72a0ec", "source": {"name": "Vernon", "slug": "vernon"}, "source_identifier": "11980", "external_references": [{"id": 36999, "source": {"name": "Wikidata", "slug": "wikidata"}, "source_identifier": "Q121091191"}], "date_modified": "2023-09-06T00:26:28.207198+10:00"}, {"id": 37078, "name": "Norio Tsuruta", "roles_in_work": [{"id": 2250416, "title": "Ring 0: Birthday = Ringu 0: Basudei", "work_id": 94976, "role": "director", "role_id": 938, "is_primary": true}], "also_known_as": "", "date_of_birth": "1960-12-30", "date_of_death": null, "genders": [{"id": 9, "name": "Male", "slug": "male"}], "languages": [{"id": 2, "name": "Japanese", "slug": "japanese"}], "places_of_operation": [{"id": 8, "name": "Japan", "slug": "japan"}], "biography": "Norio Tsuruta (鶴田 法男, Tsuruta Norio, born December 30, 1960) is a Japanese film director. He directed Premonition, Dream Cruise, and Orochi: Blood.", "biography_author": "Wikidata", "date_of_biography": "2022-05-19T12:36:19.493182+10:00", "external_links": [{"id": 2791, "uri": "https://en.wikipedia.org/wiki/Norio_Tsuruta"}], "uuid": "73669c0f-a71d-4bd8-842d-4be9e2c01c7e", "source": {"name": "Vernon", "slug": "vernon"}, "source_identifier": "25869", "external_references": [{"id": 11890, "source": {"name": "Wikidata", "slug": "wikidata"}, "source_identifier": "Q2392969"}, {"id": 11891, "source": {"name": "VIAF", "slug": "viaf"}, "source_identifier": "34715642"}, {"id": 11892, "source": {"name": "LOC Auth", "slug": "loc-auth"}, "source_identifier": "no2010004820"}, {"id": 11893, "source": {"name": "WorldCat", "slug": "worldcat"}, "source_identifier": "lccn-no2010004820"}], "date_modified": "2023-09-13T12:31:39.248915+10:00"}, {"id": 37077, "name": "Masao Nagai", "roles_in_work": [{"id": 2250414, "title": "Ring 0: Birthday = Ringu 0: Basudei", "work_id": 94976, "role": "producer", "role_id": 1089, "is_primary": true}], "also_known_as": "", "date_of_birth": "", "date_of_death": "", "genders": [], "languages": [], "places_of_operation": [], "biography": "", "biography_author": null, "date_of_biography": "2023-05-09T17:10:07.059995+10:00", "external_links": [], "uuid": "5795f277-c98e-4d73-9950-c916b4abe531", "source": {"name": "Vernon", "slug": "vernon"}, "source_identifier": "24756", "external_references": [], "date_modified": "2023-06-14T16:33:30.576250+10:00"}, {"id": 37076, "name": "Ring 0 Production Group", "roles_in_work": [{"id": 2250408, "title": "Ring 0: Birthday = Ringu 0: Basudei", "work_id": 94976, "role": "production company", "role_id": 941, "is_primary": true}], "also_known_as": "", "date_of_birth": "", "date_of_death": "", "genders": [], "languages": [], "places_of_operation": [], "biography": "", "biography_author": null, "date_of_biography": "2023-05-09T17:10:06.557631+10:00", "external_links": [], "uuid": "41088d67-0086-4edc-b62d-4f6a00ecfb02", "source": {"name": "Vernon", "slug": "vernon"}, "source_identifier": "12032", "external_references": [{"id": 42245, "source": {"name": "Wikidata", "slug": "wikidata"}, "source_identifier": "Q121270687"}], "date_modified": "2023-09-06T00:35:42.026286+10:00"}, {"id": 37075, "name": "Asmik Ace Entertainment", "roles_in_work": [{"id": 2250406, "title": "Ring 0: Birthday = Ringu 0: Basudei", "work_id": 94976, "role": "production company", "role_id": 941, "is_primary": true}], "also_known_as": "", "date_of_birth": "", "date_of_death": "", "genders": [], "languages": [], "places_of_operation": [], "biography": "", "biography_author": null, "date_of_biography": "2023-05-09T17:10:06.318351+10:00", "external_links": [], "uuid": "fa497c3b-49a1-46d8-9383-16c2c2f5b162", "source": {"name": "Vernon", "slug": "vernon"}, "source_identifier": "5449", "external_references": [{"id": 43123, "source": {"name": "Wikidata", "slug": "wikidata"}, "source_identifier": "Q121034589"}], "date_modified": "2023-09-05T17:48:46.373487+10:00"}, {"id": 37074, "name": "Makoto Ishihara", "roles_in_work": [{"id": 2250448, "title": "Ring 2 = Ringu 2", "work_id": 94975, "role": "producer", "role_id": 1089, "is_primary": true}], "also_known_as": "", "date_of_birth": "", "date_of_death": "", "genders": [], "languages": [], "places_of_operation": [], "biography": "", "biography_author": null, "date_of_biography": "2023-05-09T17:10:10.042170+10:00", "external_links": [], "uuid": "38fa5310-1d0a-4665-b720-2da582e4c801", "source": {"name": "Vernon", "slug": "vernon"}, "source_identifier": "24207", "external_references": [{"id": 32485, "source": {"name": "Wikidata", "slug": "wikidata"}, "source_identifier": "Q121058038"}], "date_modified": "2023-09-05T22:37:09.535541+10:00"}, {"id": 37073, "name": "Kadokawa Shoten Publishing Company", "roles_in_work": [{"id": 2352835, "title": "The Grudge 2 = Ju-on 2", "work_id": 95173, "role": "production company", "role_id": 941, "is_primary": true}, {"id": 2250443, "title": "Ring 2 = Ringu 2", "work_id": 94975, "role": "production company", "role_id": 941, "is_primary": true}], "also_known_as": "", "date_of_birth": "", "date_of_death": "", "genders": [], "languages": [], "places_of_operation": [], "biography": "", "biography_author": null, "date_of_biography": "2023-05-09T19:59:13.469770+10:00", "external_links": [], "uuid": "b3b6255f-e933-44ac-90b6-e41d5b0bc2fa", "source": {"name": "Vernon", "slug": "vernon"}, "source_identifier": "9682", "external_references": [{"id": 34818, "source": {"name": "Wikidata", "slug": "wikidata"}, "source_identifier": "Q121270837"}], "date_modified": "2023-09-05T21:58:36.708880+10:00"}, {"id": 37072, "name": "Edward Yang", "roles_in_work": [{"id": 2072637, "title": "A One and a two = Yi yi", "work_id": 94974, "role": "director", "role_id": 938, "is_primary": true}], "also_known_as": "", "date_of_birth": "1947-11-06", "date_of_death": "2007-06-29", "genders": [{"id": 9, "name": "Male", "slug": "male"}], "languages": [{"id": 14, "name": "Chinese", "slug": "chinese"}], "places_of_operation": [{"id": 256, "name": "Taiwan", "slug": "taiwan"}], "biography": "Edward Yang (Chinese: 楊德昌; pinyin: Yáng Déchāng; November 6, 1947 – June 29, 2007) was a Taiwanese filmmaker. He rose to prominence as a pioneer in the Taiwanese New Wave of the 1980s, alongside fellow auteurs Hou Hsiao-hsien and Tsai Ming-liang. Yang was regarded as one of the leading filmmakers of Taiwanese cinema. He won the Best Director Award at Cannes for his 2000 film Yi Yi.\n\n", "biography_author": "Wikidata", "date_of_biography": "2023-08-01T14:45:15.938416+10:00", "external_links": [{"id": 3934, "uri": "https://en.wikipedia.org/wiki/Edward_Yang"}], "uuid": "4f18bf30-0b51-4115-8bc2-138df2299a4b", "source": {"name": "Vernon", "slug": "vernon"}, "source_identifier": "18635", "external_references": [{"id": 25437, "source": {"name": "Wikidata", "slug": "wikidata"}, "source_identifier": "Q716700"}, {"id": 28308, "source": {"name": "VIAF", "slug": "viaf"}, "source_identifier": "32206370"}, {"id": 28309, "source": {"name": "LOC Auth", "slug": "loc-auth"}, "source_identifier": "nr95026103"}, {"id": 28310, "source": {"name": "WorldCat", "slug": "worldcat"}, "source_identifier": "lccn-nr95026103"}], "date_modified": "2023-09-05T19:27:11.547408+10:00"}, {"id": 37070, "name": "Atom Films", "roles_in_work": [{"id": 2072613, "title": "A One and a two = Yi yi", "work_id": 94974, "role": "production company", "role_id": 941, "is_primary": true}], "also_known_as": "", "date_of_birth": "", "date_of_death": "", "genders": [], "languages": [], "places_of_operation": [], "biography": "", "biography_author": null, "date_of_biography": "2023-05-09T11:35:46.912697+10:00", "external_links": [], "uuid": "30c3b13d-79aa-45f9-aa4b-69c7e20f3a6c", "source": {"name": "Vernon", "slug": "vernon"}, "source_identifier": "5511", "external_references": [{"id": 37808, "source": {"name": "Wikidata", "slug": "wikidata"}, "source_identifier": "Q121035895"}], "date_modified": "2023-09-05T17:49:09.193365+10:00"}]}