{"count": 28687, "next": "https://api.acmi.net.au/creators/?page=2369", "previous": "https://api.acmi.net.au/creators/?page=2367", "results": [{"id": 15591, "name": "Center for Mass Communication", "roles_in_work": [{"id": 2715521, "title": "Hiroshima, Nagasaki, August 1945", "work_id": 68477, "role": "production company", "role_id": 941, "is_primary": true}], "also_known_as": "", "date_of_birth": "", "date_of_death": "", "genders": [], "languages": [], "places_of_operation": [], "biography": "", "biography_author": null, "date_of_biography": "2023-08-11T17:25:05.791828+10:00", "external_links": [], "uuid": "e1af0f41-7a2a-4f48-84d8-9367f3dbe2b7", "source": {"name": "Vernon", "slug": "vernon"}, "source_identifier": "6401", "external_references": [], "date_modified": "2025-03-12T01:36:33.614499+11:00"}, {"id": 15590, "name": "Fuji-TV", "roles_in_work": [{"id": 2715519, "title": "Hiro: the Hiroshima generation", "work_id": 68476, "role": "production company", "role_id": 941, "is_primary": true}], "also_known_as": "", "date_of_birth": null, "date_of_death": null, "genders": [], "languages": [], "places_of_operation": [], "biography": "", "biography_author": null, "date_of_biography": null, "external_links": [], "uuid": "c8681af0-2dc0-4118-a758-66f74bcf73f5", "source": {"name": "Vernon", "slug": "vernon"}, "source_identifier": "8597", "external_references": [], "date_modified": "2025-03-12T01:36:32.128406+11:00"}, {"id": 15589, "name": "Elda Hartley", "roles_in_work": [{"id": 2126702, "title": "Buddhism: The Path to Enlightenment", "work_id": 80490, "role": "director", "role_id": 938, "is_primary": true}, {"id": 1813228, "title": "The Ultimate mystery", "work_id": 74148, "role": "producer", "role_id": 1089, "is_primary": true}, {"id": 2715517, "title": "Hinduism and the song of God", "work_id": 68475, "role": "producer", "role_id": 1089, "is_primary": true}, {"id": 861925, "title": "Requiem for a faith", "work_id": 75891, "role": "producer/director", "role_id": 31, "is_primary": true}], "also_known_as": "", "date_of_birth": "", "date_of_death": "", "genders": [], "languages": [], "places_of_operation": [], "biography": "", "biography_author": null, "date_of_biography": "2023-05-09T13:12:07.930842+10:00", "external_links": [], "uuid": "36fd5eb3-fdd9-4c21-b5fa-0cd2b181ac43", "source": {"name": "Vernon", "slug": "vernon"}, "source_identifier": "18664", "external_references": [{"id": 43104, "source": {"name": "Wikidata", "slug": "wikidata"}, "source_identifier": "Q121034708"}], "date_modified": "2025-03-12T01:36:30.573867+11:00"}, {"id": 15586, "name": "Lewis Baer", "roles_in_work": [{"id": 2715499, "title": "Highlights 1965: a progress report (NASA)", "work_id": 68465, "role": "producer", "role_id": 1089, "is_primary": true}], "also_known_as": "", "date_of_birth": null, "date_of_death": null, "genders": [], "languages": [], "places_of_operation": [], "biography": "", "biography_author": null, "date_of_biography": null, "external_links": [], "uuid": "056eec23-b525-4940-b743-d64dc1fb89f4", "source": {"name": "Vernon", "slug": "vernon"}, "source_identifier": "23807", "external_references": [], "date_modified": "2025-03-12T01:36:17.139705+11:00"}, {"id": 15585, "name": "Jules Bucher", "roles_in_work": [{"id": 2767821, "title": "Highlands of the Andes", "work_id": 68464, "role": "director", "role_id": 938, "is_primary": true}, {"id": 2767848, "title": "Tropical lowland: the Amazon River, Brazil", "work_id": 74026, "role": "producer/director", "role_id": 31, "is_primary": true}], "also_known_as": "", "date_of_birth": "", "date_of_death": "", "genders": [], "languages": [], "places_of_operation": [], "biography": "", "biography_author": null, "date_of_biography": "2023-08-11T14:03:31.333011+10:00", "external_links": [], "uuid": "de82b92c-76ef-48ea-89a7-bb427b66ede8", "source": {"name": "Vernon", "slug": "vernon"}, "source_identifier": "22830", "external_references": [], "date_modified": "2025-03-14T18:07:12.789313+11:00"}, {"id": 15584, "name": "Michael Road", "roles_in_work": [{"id": 2715493, "title": "The High wall", "work_id": 68463, "role": "producer", "role_id": 1089, "is_primary": true}], "also_known_as": "", "date_of_birth": "", "date_of_death": "", "genders": [], "languages": [], "places_of_operation": [], "biography": "", "biography_author": null, "date_of_biography": "2023-08-14T11:15:26.931551+10:00", "external_links": [], "uuid": "ad9f77b8-cda3-46a0-8bc6-4e8759aa6448", "source": {"name": "Vernon", "slug": "vernon"}, "source_identifier": "34532", "external_references": [], "date_modified": "2025-03-12T01:36:12.982273+11:00"}, {"id": 15583, "name": "Columbia Foundation of San Francisco", "roles_in_work": [{"id": 2715492, "title": "The High wall", "work_id": 68463, "role": "production company", "role_id": 941, "is_primary": true}], "also_known_as": "", "date_of_birth": "", "date_of_death": "", "genders": [], "languages": [], "places_of_operation": [], "biography": "", "biography_author": null, "date_of_biography": "2023-08-14T11:15:26.303138+10:00", "external_links": [], "uuid": "e1dee8b0-7274-462b-8480-716f6b7aadca", "source": {"name": "Vernon", "slug": "vernon"}, "source_identifier": "34531", "external_references": [], "date_modified": "2025-03-12T01:36:12.375864+11:00"}, {"id": 15582, "name": "Anti-Defamation League of B'nai B'rith", "roles_in_work": [{"id": 2715491, "title": "The High wall", "work_id": 68463, "role": "production company", "role_id": 941, "is_primary": true}], "also_known_as": "", "date_of_birth": "", "date_of_death": "", "genders": [], "languages": [], "places_of_operation": [], "biography": "", "biography_author": null, "date_of_biography": "2023-08-14T11:15:25.693772+10:00", "external_links": [], "uuid": "f24c19c1-7eba-4fd3-bebd-e29bee357a3f", "source": {"name": "Vernon", "slug": "vernon"}, "source_identifier": "34530", "external_references": [], "date_modified": "2025-03-12T01:36:11.783068+11:00"}, {"id": 15581, "name": "Arthur Campbell", "roles_in_work": [{"id": 2757608, "title": "High temperature research", "work_id": 68462, "role": "producer", "role_id": 1089, "is_primary": true}], "also_known_as": "", "date_of_birth": "", "date_of_death": "", "genders": [], "languages": [], "places_of_operation": [], "biography": "", "biography_author": null, "date_of_biography": "2023-08-11T18:25:05.194277+10:00", "external_links": [], "uuid": "288bb263-8298-4ba7-921d-e96b8135b034", "source": {"name": "Vernon", "slug": "vernon"}, "source_identifier": "15519", "external_references": [], "date_modified": "2025-03-13T14:46:28.680918+11:00"}, {"id": 15580, "name": "Centron Production", "roles_in_work": [{"id": 2757605, "title": "High temperature research", "work_id": 68462, "role": "production company", "role_id": 941, "is_primary": true}, {"id": 2766940, "title": "Stage fright and what to do", "work_id": 73148, "role": "production company", "role_id": 941, "is_primary": true}, {"id": 860640, "title": "What about juvenile delinquency?", "work_id": 74607, "role": "production company", "role_id": 941, "is_primary": true}], "also_known_as": "", "date_of_birth": "", "date_of_death": "", "genders": [], "languages": [], "places_of_operation": [], "biography": "", "biography_author": null, "date_of_biography": "2023-08-11T18:25:04.567242+10:00", "external_links": [], "uuid": "27620fee-b387-4b8d-af28-8092bd5cf3b2", "source": {"name": "Vernon", "slug": "vernon"}, "source_identifier": "6464", "external_references": [], "date_modified": "2025-03-14T18:01:02.571733+11:00"}]}