{"count": 28687, "next": "https://api.acmi.net.au/creators/?page=355", "previous": "https://api.acmi.net.au/creators/?page=353", "results": [{"id": 82067, "name": "Katerina Pantela", "roles_in_work": [{"id": 2409712, "title": "Holy She*p", "work_id": 114399, "role": "director", "role_id": 938, "is_primary": true}, {"id": 2409713, "title": "Holy She*p", "work_id": 114399, "role": "writer", "role_id": 939, "is_primary": true}], "also_known_as": "", "date_of_birth": "", "date_of_death": "", "genders": [], "languages": [], "places_of_operation": [], "biography": "", "biography_author": null, "date_of_biography": "2023-08-11T17:27:46.595657+10:00", "external_links": [], "uuid": "ea77bbca-d66e-4d41-b065-ab7a0278477b", "source": {"name": "Vernon", "slug": "vernon"}, "source_identifier": "37921", "external_references": [{"id": 37315, "source": {"name": "Wikidata", "slug": "wikidata"}, "source_identifier": "Q121143849"}], "date_modified": "2023-09-05T22:01:44.458283+10:00"}, {"id": 82066, "name": "Arts University Bournemouth", "roles_in_work": [{"id": 2409711, "title": "Holy She*p", "work_id": 114399, "role": "production company", "role_id": 941, "is_primary": true}], "also_known_as": "", "date_of_birth": "", "date_of_death": "", "genders": [], "languages": [], "places_of_operation": [], "biography": "", "biography_author": null, "date_of_biography": "2023-08-11T17:27:45.320725+10:00", "external_links": [], "uuid": "ceea48a5-c4fc-4fd3-a3ca-c92edf66af02", "source": {"name": "Vernon", "slug": "vernon"}, "source_identifier": "37923", "external_references": [{"id": 36523, "source": {"name": "Wikidata", "slug": "wikidata"}, "source_identifier": "Q121143739"}], "date_modified": "2023-09-05T17:48:02.928072+10:00"}, {"id": 82065, "name": "Darren Ng", "roles_in_work": [{"id": 2205867, "title": "Pifuskin", "work_id": 114398, "role": "music", "role_id": 949, "is_primary": false}], "also_known_as": "", "date_of_birth": "", "date_of_death": "", "genders": [], "languages": [], "places_of_operation": [], "biography": "", "biography_author": null, "date_of_biography": "2023-05-09T15:35:12.373256+10:00", "external_links": [], "uuid": "1c4be09d-10ee-4fb2-8b57-796fced57f06", "source": {"name": "Vernon", "slug": "vernon"}, "source_identifier": "37927", "external_references": [{"id": 51242, "source": {"name": "Wikidata", "slug": "wikidata"}, "source_identifier": "Q121360596"}], "date_modified": "2023-09-05T18:53:41.621652+10:00"}, {"id": 82064, "name": "Loo Zihan", "roles_in_work": [{"id": 2205864, "title": "Pifuskin", "work_id": 114398, "role": "editor", "role_id": 918, "is_primary": true}], "also_known_as": "", "date_of_birth": "", "date_of_death": "", "genders": [], "languages": [], "places_of_operation": [], "biography": "", "biography_author": null, "date_of_biography": "2023-05-09T15:35:12.126165+10:00", "external_links": [], "uuid": "feec843c-7c9a-448d-8c2d-806c6d0a93aa", "source": {"name": "Vernon", "slug": "vernon"}, "source_identifier": "37926", "external_references": [], "date_modified": "2023-06-14T16:33:30.576250+10:00"}, {"id": 82063, "name": "Tan Keong", "roles_in_work": [{"id": 2205862, "title": "Pifuskin", "work_id": 114398, "role": "creator", "role_id": 968, "is_primary": true}], "also_known_as": "", "date_of_birth": "", "date_of_death": "", "genders": [], "languages": [], "places_of_operation": [], "biography": "", "biography_author": null, "date_of_biography": "2023-05-09T15:35:11.889531+10:00", "external_links": [], "uuid": "ca28d8b5-fda9-4f90-89db-931990f71289", "source": {"name": "Vernon", "slug": "vernon"}, "source_identifier": "37902", "external_references": [], "date_modified": "2023-06-14T16:33:30.576250+10:00"}, {"id": 82062, "name": "Jay Foster", "roles_in_work": [{"id": 2127665, "title": "Burger Burger", "work_id": 114397, "role": "music", "role_id": 949, "is_primary": false}], "also_known_as": "", "date_of_birth": "", "date_of_death": "", "genders": [], "languages": [], "places_of_operation": [], "biography": "", "biography_author": null, "date_of_biography": "2023-05-09T13:14:20.773106+10:00", "external_links": [], "uuid": "f3240b99-1afd-4716-a193-74152bbe66b2", "source": {"name": "Vernon", "slug": "vernon"}, "source_identifier": "37910", "external_references": [{"id": 51140, "source": {"name": "Wikidata", "slug": "wikidata"}, "source_identifier": "Q121361120"}], "date_modified": "2023-09-05T21:09:55.033700+10:00"}, {"id": 82061, "name": "Gavin Jun Jie Tan", "roles_in_work": [{"id": 2127661, "title": "Burger Burger", "work_id": 114397, "role": "director", "role_id": 938, "is_primary": true}], "also_known_as": "", "date_of_birth": "", "date_of_death": "", "genders": [], "languages": [], "places_of_operation": [], "biography": "", "biography_author": null, "date_of_biography": "2023-05-09T13:14:20.524807+10:00", "external_links": [], "uuid": "e094d68f-5048-4290-91fc-cc7e80152907", "source": {"name": "Vernon", "slug": "vernon"}, "source_identifier": "37909", "external_references": [{"id": 34386, "source": {"name": "Wikidata", "slug": "wikidata"}, "source_identifier": "Q121034786"}], "date_modified": "2023-09-05T19:59:28.095029+10:00"}, {"id": 82060, "name": "Huang Shicong", "roles_in_work": [{"id": 2127657, "title": "Burger Burger", "work_id": 114397, "role": "director", "role_id": 938, "is_primary": true}], "also_known_as": "", "date_of_birth": "", "date_of_death": "", "genders": [], "languages": [], "places_of_operation": [], "biography": "", "biography_author": null, "date_of_biography": "2023-05-09T13:14:20.192854+10:00", "external_links": [], "uuid": "a1326d0d-2dc2-4173-80c2-647a296d03fb", "source": {"name": "Vernon", "slug": "vernon"}, "source_identifier": "37908", "external_references": [{"id": 41045, "source": {"name": "Wikidata", "slug": "wikidata"}, "source_identifier": "Q121315318"}], "date_modified": "2023-09-05T20:42:59.518802+10:00"}, {"id": 82059, "name": "The Arts House (Singapore)", "roles_in_work": [{"id": 2205859, "title": "Pifuskin", "work_id": 114398, "role": "partner", "role_id": 575, "is_primary": false}, {"id": 2127652, "title": "Burger Burger", "work_id": 114397, "role": "partner", "role_id": 575, "is_primary": false}], "also_known_as": "", "date_of_birth": "", "date_of_death": "", "genders": [], "languages": [], "places_of_operation": [], "biography": "", "biography_author": null, "date_of_biography": "2023-05-09T15:35:11.503842+10:00", "external_links": [], "uuid": "f13ff6e9-f206-4233-b19b-b91902e3ae94", "source": {"name": "Vernon", "slug": "vernon"}, "source_identifier": "37911", "external_references": [], "date_modified": "2023-06-14T16:33:30.576250+10:00"}, {"id": 82058, "name": "Kelsey Noel", "roles_in_work": [{"id": 2156766, "title": "Cyborg Chicken", "work_id": 114396, "role": "creator", "role_id": 968, "is_primary": true}], "also_known_as": "", "date_of_birth": "", "date_of_death": "", "genders": [], "languages": [], "places_of_operation": [], "biography": "", "biography_author": null, "date_of_biography": "2023-05-09T14:06:42.240452+10:00", "external_links": [], "uuid": "0fde7939-bb4b-4a00-bf24-c096940b2469", "source": {"name": "Vernon", "slug": "vernon"}, "source_identifier": "37901", "external_references": [], "date_modified": "2023-06-14T16:33:30.576250+10:00"}]}